%!PS-Adobe-2.0 EPSF-2.0
%%BoundingBox:  0 0 567 332
%%Title: BeamSigmaX_nof_fits.eps: Fits
%%Creator: ROOT Version 5.30/06
%%CreationDate: Sun Feb  2 09:30:21 2014
%%EndComments
%%BeginProlog
80 dict begin
/s {stroke} def /l {lineto} def /m {moveto} def /t {translate} def
/r {rotate} def /rl {roll}  def /R {repeat} def
/d {rlineto} def /rm {rmoveto} def /gr {grestore} def /f {eofill} def
/c {setrgbcolor} def /black {0 setgray} def /sd {setdash} def
/cl {closepath} def /sf {scalefont setfont} def /lw {setlinewidth} def
/box {m dup 0 exch d exch 0 d 0 exch neg d cl} def
/NC{systemdict begin initclip end}def/C{NC box clip newpath}def
/bl {box s} def /bf {box f} def /Y { 0 exch d} def /X { 0 d} def 
/K {{pop pop 0 moveto} exch kshow} bind def
/ita {/ang 15 def gsave [1 0 ang dup sin exch cos div 1 0 0] concat} def 
/mp {newpath /y exch def /x exch def} def
/side {[w .77 mul w .23 mul] .385 w mul sd w 0 l currentpoint t -144 r} def
/mr {mp x y w2 0 360 arc} def /m24 {mr s} def /m20 {mr f} def
/mb {mp x y w2 add m w2 neg 0 d 0 w neg d w 0 d 0 w d cl} def
/mt {mp x y w2 add m w2 neg w neg d w 0 d cl} def
/m21 {mb f} def /m25 {mb s} def /m22 {mt f} def /m26{mt s} def
/m23 {mp x y w2 sub m w2 w d w neg 0 d cl f} def
/m27 {mp x y w2 add m w3 neg w2 neg d w3 w2 neg d w3 w2 d cl s} def
/m28 {mp x w2 sub y w2 sub w3 add m w3 0 d  0 w3 neg d w3 0 d 0 w3 d w3 0 d  0 w3 d w3 neg 0 d 0 w3 d w3 neg 0 d 0 w3 neg d w3 neg 0 d cl s } def
/m29 {mp gsave x w2 sub y w2 add w3 sub m currentpoint t 4 {side} repeat cl fill gr} def
/m30 {mp gsave x w2 sub y w2 add w3 sub m currentpoint t 4 {side} repeat cl s gr} def
/m31 {mp x y w2 sub m 0 w d x w2 sub y m w 0 d x w2 sub y w2 add m w w neg d x w2 sub y w2 sub m w w d s} def
/m32 {mp x y w2 sub m w2 w d w neg 0 d cl s} def
/m33 {mp x y w2 add m w3 neg w2 neg d w3 w2 neg d w3 w2 d cl f} def
/m34 {mp x w2 sub y w2 sub w3 add m w3 0 d  0 w3 neg d w3 0 d 0 w3 d w3 0 d  0 w3 d w3 neg 0 d 0 w3 d w3 neg 0 d 0 w3 neg d w3 neg 0 d cl f } def
/m2 {mp x y w2 sub m 0 w d x w2 sub y m w 0 d s} def
/m5 {mp x w2 sub y w2 sub m w w d x w2 sub y w2 add m w w neg d s} def
/reEncode {exch findfont dup length dict begin {1 index /FID eq  {pop pop} {def} ifelse } forall /Encoding exch def currentdict end dup /FontName get exch definefont pop } def [/Times-Bold /Times-Italic /Times-BoldItalic /Helvetica /Helvetica-Oblique
 /Helvetica-Bold /Helvetica-BoldOblique /Courier /Courier-Oblique /Courier-Bold /Courier-BoldOblique /Times-Roman /AvantGarde-Book /AvantGarde-BookOblique /AvantGarde-Demi /AvantGarde-DemiOblique /Bookman-Demi /Bookman-DemiItalic /Bookman-Light
 /Bookman-LightItalic /Helvetica-Narrow /Helvetica-Narrow-Bold /Helvetica-Narrow-BoldOblique /Helvetica-Narrow-Oblique /NewCenturySchlbk-Roman /NewCenturySchlbk-Bold /NewCenturySchlbk-BoldItalic /NewCenturySchlbk-Italic /Palatino-Bold
 /Palatino-BoldItalic /Palatino-Italic /Palatino-Roman ] {ISOLatin1Encoding reEncode } forall%%EndProlog
%%BeginSetup
%%EndSetup
newpath  gsave  .25 .25 scale  gsave  0 0 t black[  ] 0 sd 3 lw 1 1 1 c 2268 1328 0 0 bf black 1 1 1 c 408 305 23 1009 bf black 1 1 1 c black 306 229 84 1055 bl 306 229 84 1055 bl 84 1055 m 306 X s 130 1059 m -4 Y s 236 1059 m -4 Y s 341 1059 m -4 Y
 s 130 1059 m -4 Y s 341 1059 m -4 Y s
 gsave  408 305 23 1009 C 108.258 1034.15 t 0 r /Helvetica findfont 22.8295 sf 0 0 m (\2550.5) show NC gr 
 gsave  408 305 23 1009 C 225.062 1034.15 t 0 r /Helvetica findfont 22.8295 sf 0 0 m (0) show NC gr 
 gsave  408 305 23 1009 C 321.925 1034.15 t 0 r /Helvetica findfont 22.8295 sf 0 0 m (0.5) show NC gr  84 1284 m 306 X s 130 1280 m 4 Y s 236 1280 m 4 Y s 341 1280 m 4 Y s 130 1280 m 4 Y s 341 1280 m 4 Y s 84 1055 m 229 Y s 89 1089 m -5 X s 87 1098 m
 -3 X s 87 1107 m -3 X s 87 1116 m -3 X s 87 1125 m -3 X s 89 1134 m -5 X s 87 1143 m -3 X s 87 1152 m -3 X s 87 1161 m -3 X s 87 1170 m -3 X s 89 1179 m -5 X s 87 1188 m -3 X s 87 1197 m -3 X s 87 1206 m -3 X s 87 1215 m -3 X s 89 1224 m -5 X s 87
 1233 m -3 X s 87 1242 m -3 X s 87 1251 m -3 X s 87 1260 m -3 X s 89 1269 m -5 X s 89 1089 m -5 X s 87 1080 m -3 X s 87 1071 m -3 X s 87 1062 m -3 X s 89 1269 m -5 X s 87 1278 m -3 X s
 gsave  408 305 23 1009 C 14.2445 1082.58 t 0 r /Helvetica findfont 22.8295 sf 0 0 m (\2550.005) show NC gr 
 gsave  408 305 23 1009 C 65.5245 1128.16 t 0 r /Helvetica findfont 22.8295 sf 0 0 m (0) show NC gr 
 gsave  408 305 23 1009 C 22.7911 1170.89 t 0 r /Helvetica findfont 22.8295 sf 0 0 m (0.005) show NC gr 
 gsave  408 305 23 1009 C 37.0356 1216.48 t 0 r /Helvetica findfont 22.8295 sf 0 0 m (0.01) show NC gr 
 gsave  408 305 23 1009 C 22.7911 1262.06 t 0 r /Helvetica findfont 22.8295 sf 0 0 m (0.015) show NC gr  390 1055 m 229 Y s 385 1089 m 5 X s 387 1098 m 3 X s 387 1107 m 3 X s 387 1116 m 3 X s 387 1125 m 3 X s 385 1134 m 5 X s 387 1143 m 3 X s 387
 1152 m 3 X s 387 1161 m 3 X s 387 1170 m 3 X s 385 1179 m 5 X s 387 1188 m 3 X s 387 1197 m 3 X s 387 1206 m 3 X s 387 1215 m 3 X s 385 1224 m 5 X s 387 1233 m 3 X s 387 1242 m 3 X s 387 1251 m 3 X s 387 1260 m 3 X s 385 1269 m 5 X s 385 1089 m 5 X
 s 387 1080 m 3 X s 387 1071 m 3 X s 387 1062 m 3 X s 385 1269 m 5 X s 387 1278 m 3 X s /w 22 def /w2 {w 2 div} def /w3 {w 3 div} def 109 1106 151 1097 194 1129 215 1136 257 1146 278 1148 320 1205 362 1241 8 { m21} R 109 1117 m 11 Y s 104 1128 m 11 X
 s 109 1094 m -11 Y s 104 1083 m 11 X s 151 1108 m 11 Y s 146 1119 m 11 X s 151 1085 m -11 Y s 146 1074 m 11 X s 194 1140 m 12 Y s 188 1152 m 11 X s 194 1117 m -11 Y s 188 1106 m 11 X s 215 1148 m 11 Y s 209 1159 m 11 X s 215 1125 m -12 Y s 209 1113
 m 11 X s 257 1157 m 12 Y s 251 1169 m 11 X s 257 1135 m -12 Y s 251 1123 m 11 X s 278 1160 m 11 Y s 272 1171 m 12 X s 278 1137 m -12 Y s 272 1125 m 12 X s 320 1217 m 12 Y s 314 1229 m 12 X s 320 1194 m -12 Y s 314 1182 m 12 X s 362 1253 m 12 Y s 357
 1265 m 11 X s 362 1230 m -12 Y s 357 1218 m 11 X s 9 lw 0.95 0.95 0.95 c black 85 1055 m 3 1 d 4 2 d 3 1 d 3 2 d 3 1 d 3 2 d 3 2 d 3 1 d 3 2 d 3 2 d 3 1 d 3 2 d 3 1 d 3 2 d 3 2 d 3 1 d 3 2 d 4 2 d 3 1 d 3 2 d 3 1 d 3 2 d 3 2 d 3 1 d 3 2 d 3 2 d 3 1
 d 3 2 d 3 1 d 3 2 d 3 2 d 3 1 d 3 2 d 4 2 d 3 1 d 3 2 d 3 1 d 3 2 d 3 2 d 3 1 d 3 2 d 3 2 d 3 1 d 3 2 d 3 1 d 3 2 d 3 2 d 3 1 d 3 2 d s 235 1134 m 4 2 d 3 1 d 3 2 d 3 1 d 3 2 d 3 2 d 3 1 d 3 2 d 3 2 d 3 1 d 3 2 d 3 1 d 3 2 d 3 2 d 3 1 d 3 2 d 3 2 d
 4 1 d 3 2 d 3 1 d 3 2 d 3 2 d 3 1 d 3 2 d 3 2 d 3 1 d 3 2 d 3 1 d 3 2 d 3 2 d 3 1 d 3 2 d 3 2 d 4 1 d 3 2 d 3 1 d 3 2 d 3 2 d 3 1 d 3 2 d 3 2 d 3 1 d 3 2 d 3 1 d 3 2 d 3 2 d 3 1 d 3 2 d 3 2 d s 385 1214 m 4 1 d s 0.49 0.6 0.82 c black 0.49 0.6 0.82
 c
 gsave  408 305 23 1009 C 142.445 1293.4 t 0 r /Helvetica-Bold findfont 25.6831 sf 0 0 m (0.0 < E < 0.5 GeV) show NC gr  0.52 0.76 0.64 c black 0.52 0.76 0.64 c
 gsave  408 305 23 1009 C 128.2 1256.36 t 0 r /Helvetica-Bold findfont 25.6831 sf 0 0 m 
 220 206 192 185 170 163 148 141 126 118 111 97 83 69 61 47 40 25 18
(A = 0.012, p = 1.000) K NC gr  1 0.6 1 c black 1 0.6 1 c
 gsave  408 305 23 1009 C 427.334 1122.46 t 90 r /Helvetica-Bold findfont 28.5368 sf 0 0 m (/dof=1.2) show NC gr  black 1 0.6 1 c
 gsave  408 305 23 1009 C 415.938 1111.07 t 90 r /Helvetica-Bold findfont 19.9758 sf 0 0 m (2) show NC gr  black 1 0.6 1 c
 gsave  408 305 23 1009 C 427.334 1093.97 t 90 r /Symbol findfont 28.5368 sf 0 0 m (c) show NC gr  black 3 lw 1 1 1 c 408 305 476 1009 bf black 1 1 1 c black 307 229 537 1055 bl 307 229 537 1055 bl 537 1055 m 307 X s 584 1059 m -4 Y s 689 1059 m -4 Y
 s 795 1059 m -4 Y s 584 1059 m -4 Y s 795 1059 m -4 Y s
 gsave  408 305 476 1009 C 561.231 1034.15 t 0 r /Helvetica findfont 22.8295 sf 0 0 m (\2550.5) show NC gr 
 gsave  408 305 476 1009 C 678.036 1034.15 t 0 r /Helvetica findfont 22.8295 sf 0 0 m (0) show NC gr 
 gsave  408 305 476 1009 C 774.898 1034.15 t 0 r /Helvetica findfont 22.8295 sf 0 0 m (0.5) show NC gr  537 1284 m 307 X s 584 1280 m 4 Y s 689 1280 m 4 Y s 795 1280 m 4 Y s 584 1280 m 4 Y s 795 1280 m 4 Y s 537 1055 m 229 Y s 543 1076 m -6 X s 540
 1083 m -3 X s 540 1091 m -3 X s 540 1099 m -3 X s 543 1106 m -6 X s 540 1114 m -3 X s 540 1121 m -3 X s 540 1129 m -3 X s 543 1137 m -6 X s 540 1144 m -3 X s 540 1152 m -3 X s 540 1160 m -3 X s 543 1167 m -6 X s 540 1175 m -3 X s 540 1182 m -3 X s
 540 1190 m -3 X s 543 1198 m -6 X s 540 1205 m -3 X s 540 1213 m -3 X s 540 1220 m -3 X s 543 1228 m -6 X s 540 1236 m -3 X s 540 1243 m -3 X s 540 1251 m -3 X s 543 1258 m -6 X s 543 1076 m -6 X s 540 1068 m -3 X s 540 1061 m -3 X s 543 1258 m -6 X
 s 540 1266 m -3 X s 540 1274 m -3 X s 540 1281 m -3 X s
 gsave  408 305 476 1009 C 467.218 1068.33 t 0 r /Helvetica findfont 22.8295 sf 0 0 m (\2550.004) show NC gr 
 gsave  408 305 476 1009 C 467.218 1099.67 t 0 r /Helvetica findfont 22.8295 sf 0 0 m (\2550.002) show NC gr 
 gsave  408 305 476 1009 C 518.498 1128.16 t 0 r /Helvetica findfont 22.8295 sf 0 0 m (0) show NC gr 
 gsave  408 305 476 1009 C 475.765 1159.5 t 0 r /Helvetica findfont 22.8295 sf 0 0 m (0.002) show NC gr 
 gsave  408 305 476 1009 C 475.765 1190.84 t 0 r /Helvetica findfont 22.8295 sf 0 0 m (0.004) show NC gr 
 gsave  408 305 476 1009 C 475.765 1222.17 t 0 r /Helvetica findfont 22.8295 sf 0 0 m (0.006) show NC gr 
 gsave  408 305 476 1009 C 475.765 1250.66 t 0 r /Helvetica findfont 22.8295 sf 0 0 m (0.008) show NC gr  844 1055 m 229 Y s 838 1076 m 6 X s 841 1083 m 3 X s 841 1091 m 3 X s 841 1099 m 3 X s 838 1106 m 6 X s 841 1114 m 3 X s 841 1121 m 3 X s 841
 1129 m 3 X s 838 1137 m 6 X s 841 1144 m 3 X s 841 1152 m 3 X s 841 1160 m 3 X s 838 1167 m 6 X s 841 1175 m 3 X s 841 1182 m 3 X s 841 1190 m 3 X s 838 1198 m 6 X s 841 1205 m 3 X s 841 1213 m 3 X s 841 1220 m 3 X s 838 1228 m 6 X s 841 1236 m 3 X
 s 841 1243 m 3 X s 841 1251 m 3 X s 838 1258 m 6 X s 838 1076 m 6 X s 841 1068 m 3 X s 841 1061 m 3 X s 838 1258 m 6 X s 841 1266 m 3 X s 841 1274 m 3 X s 841 1281 m 3 X s /w 23 def /w2 {w 2 div} def /w3 {w 3 div} def 563 1120 605 1133 647 1151 668
 1127 710 1138 731 1156 774 1151 816 1217 8 { m21} R 563 1132 m 35 Y s 557 1167 m 11 X s 563 1109 m -35 Y s 557 1074 m 11 X s 605 1144 m 35 Y s 599 1179 m 12 X s 605 1121 m -35 Y s 599 1086 m 12 X s 647 1162 m 36 Y s 641 1198 m 12 X s 647 1140 m -36
 Y s 641 1104 m 12 X s 668 1138 m 35 Y s 662 1173 m 12 X s 668 1115 m -35 Y s 662 1080 m 12 X s 710 1150 m 35 Y s 705 1185 m 11 X s 710 1127 m -36 Y s 705 1091 m 11 X s 731 1168 m 35 Y s 726 1203 m 11 X s 731 1145 m -36 Y s 726 1109 m 11 X s 774 1162
 m 36 Y s 768 1198 m 11 X s 774 1140 m -36 Y s 768 1104 m 11 X s 816 1228 m 37 Y s 810 1265 m 11 X s 816 1205 m -36 Y s 810 1169 m 11 X s 9 lw 0.95 0.95 0.95 c black 539 1096 m 3 1 d 3 X 3 1 d 3 1 d 3 1 d 3 1 d 3 1 d 3 X 4 1 d 3 1 d 3 1 d 3 1 d 3 1 d
 3 X 3 1 d 3 1 d 3 1 d 3 1 d 3 1 d 3 X 3 1 d 3 1 d 3 1 d 3 1 d 4 1 d 3 X 3 1 d 3 1 d 3 1 d 3 1 d 3 1 d 3 X 3 1 d 3 1 d 3 1 d 3 1 d 3 1 d 3 X 3 1 d 3 1 d 3 1 d 4 1 d 3 1 d 3 X 3 1 d 3 1 d 3 1 d 3 1 d 3 1 d s 689 1137 m 3 X 3 1 d 3 1 d 3 1 d 3 1 d 3 1
 d 3 X 3 1 d 4 1 d 3 1 d 3 1 d 3 1 d 3 1 d 3 X 3 1 d 3 1 d 3 1 d 3 1 d 3 1 d 3 X 3 1 d 3 1 d 3 1 d 3 1 d 4 1 d 3 X 3 1 d 3 1 d 3 1 d 3 1 d 3 1 d 3 X 3 1 d 3 1 d 3 1 d 3 1 d 3 1 d 3 X 3 1 d 3 1 d 4 1 d 3 1 d 3 1 d 3 X 3 1 d 3 1 d 3 1 d 3 1 d 3 1 d s
 839 1178 m 3 X s 0.49 0.6 0.82 c black 0.49 0.6 0.82 c
 gsave  408 305 476 1009 C 595.418 1293.4 t 0 r /Helvetica-Bold findfont 25.6831 sf 0 0 m (0.5 < E < 1.0 GeV) show NC gr  0.52 0.76 0.64 c black 0.52 0.76 0.64 c
 gsave  408 305 476 1009 C 581.174 1256.36 t 0 r /Helvetica-Bold findfont 25.6831 sf 0 0 m 
 220 206 192 185 170 163 148 141 125 118 111 97 83 69 61 47 40 25 18
(A = 0.004, p = 1.000) K NC gr  1 0.6 1 c black 1 0.6 1 c
 gsave  408 305 476 1009 C 883.156 1122.46 t 90 r /Helvetica-Bold findfont 28.5368 sf 0 0 m (/dof=0.2) show NC gr  black 1 0.6 1 c
 gsave  408 305 476 1009 C 871.76 1111.07 t 90 r /Helvetica-Bold findfont 19.9758 sf 0 0 m (2) show NC gr  black 1 0.6 1 c
 gsave  408 305 476 1009 C 883.156 1093.97 t 90 r /Symbol findfont 28.5368 sf 0 0 m (c) show NC gr  black 3 lw 1 1 1 c 408 305 930 1009 bf black 1 1 1 c black 306 229 991 1055 bl 306 229 991 1055 bl 991 1055 m 306 X s 1037 1059 m -4 Y s 1143 1059 m
 -4 Y s 1248 1059 m -4 Y s 1037 1059 m -4 Y s 1248 1059 m -4 Y s
 gsave  408 305 930 1009 C 1017.05 1034.15 t 0 r /Helvetica findfont 22.8295 sf 0 0 m (\2550.5) show NC gr 
 gsave  408 305 930 1009 C 1133.86 1034.15 t 0 r /Helvetica findfont 22.8295 sf 0 0 m (0) show NC gr 
 gsave  408 305 930 1009 C 1230.72 1034.15 t 0 r /Helvetica findfont 22.8295 sf 0 0 m (0.5) show NC gr  991 1284 m 306 X s 1037 1280 m 4 Y s 1143 1280 m 4 Y s 1248 1280 m 4 Y s 1037 1280 m 4 Y s 1248 1280 m 4 Y s 991 1055 m 229 Y s 997 1087 m -6 X s
 994 1099 m -3 X s 994 1110 m -3 X s 994 1121 m -3 X s 997 1133 m -6 X s 994 1144 m -3 X s 994 1156 m -3 X s 994 1167 m -3 X s 997 1179 m -6 X s 994 1190 m -3 X s 994 1201 m -3 X s 994 1213 m -3 X s 997 1224 m -6 X s 994 1236 m -3 X s 994 1247 m -3 X
 s 994 1258 m -3 X s 997 1270 m -6 X s 997 1087 m -6 X s 994 1076 m -3 X s 994 1064 m -3 X s 997 1270 m -6 X s 994 1281 m -3 X s
 gsave  408 305 930 1009 C 923.04 1079.73 t 0 r /Helvetica findfont 22.8295 sf 0 0 m (\2550.004) show NC gr 
 gsave  408 305 930 1009 C 923.04 1125.31 t 0 r /Helvetica findfont 22.8295 sf 0 0 m (\2550.002) show NC gr 
 gsave  408 305 930 1009 C 974.32 1170.89 t 0 r /Helvetica findfont 22.8295 sf 0 0 m (0) show NC gr 
 gsave  408 305 930 1009 C 931.587 1216.48 t 0 r /Helvetica findfont 22.8295 sf 0 0 m (0.002) show NC gr 
 gsave  408 305 930 1009 C 931.587 1262.06 t 0 r /Helvetica findfont 22.8295 sf 0 0 m (0.004) show NC gr  1297 1055 m 229 Y s 1292 1087 m 5 X s 1294 1099 m 3 X s 1294 1110 m 3 X s 1294 1121 m 3 X s 1292 1133 m 5 X s 1294 1144 m 3 X s 1294 1156 m 3 X
 s 1294 1167 m 3 X s 1292 1179 m 5 X s 1294 1190 m 3 X s 1294 1201 m 3 X s 1294 1213 m 3 X s 1292 1224 m 5 X s 1294 1236 m 3 X s 1294 1247 m 3 X s 1294 1258 m 3 X s 1292 1270 m 5 X s 1292 1087 m 5 X s 1294 1076 m 3 X s 1294 1064 m 3 X s 1292 1270 m 5
 X s 1294 1281 m 3 X s 1016 1149 1058 1168 1101 1143 1122 1173 1164 1146 1185 1181 1227 1194 1269 1168 8 { m21} R 1016 1161 m 58 Y s 1011 1219 m 11 X s 1016 1138 m -58 Y s 1011 1080 m 11 X s 1058 1179 m 58 Y s 1053 1237 m 11 X s 1058 1156 m -57 Y s
 1053 1099 m 11 X s 1101 1154 m 58 Y s 1095 1212 m 11 X s 1101 1132 m -58 Y s 1095 1074 m 11 X s 1122 1184 m 58 Y s 1116 1242 m 11 X s 1122 1162 m -58 Y s 1116 1104 m 11 X s 1164 1158 m 58 Y s 1158 1216 m 12 X s 1164 1135 m -58 Y s 1158 1077 m 12 X s
 1185 1192 m 59 Y s 1179 1251 m 12 X s 1185 1169 m -58 Y s 1179 1111 m 12 X s 1227 1205 m 60 Y s 1221 1265 m 12 X s 1227 1183 m -60 Y s 1221 1123 m 12 X s 1269 1180 m 59 Y s 1264 1239 m 11 X s 1269 1157 m -60 Y s 1264 1097 m 11 X s 1 0 0 c 9 lw 0.95
 0.95 0.95 c black 1 0 0 c 993 1154 m 3 1 d 3 1 d 3 1 d 3 X 3 1 d 3 1 d 3 1 d 3 1 d 3 1 d 3 1 d 3 1 d 3 X 3 1 d 3 1 d 3 1 d 4 X 3 1 d 3 1 d 3 X 3 1 d 3 X 3 1 d 3 X 3 1 d 3 1 d 6 X 3 1 d 3 X 3 1 d 3 X 3 1 d 10 X 3 1 d 9 X 3 1 d 21 X 3 1 d 4 X s 1143
 1179 m 6 X 3 -1 d 21 X 3 -1 d 9 X 3 -1 d 7 X 3 -1 d 3 X 3 -1 d 6 X 3 -1 d 3 X 3 -1 d 3 X 3 -1 d 3 -1 d 3 X 3 -1 d 3 X 3 -1 d 4 -1 d 3 X 3 -1 d 3 -1 d 3 -1 d 3 X 3 -1 d 3 -1 d 3 -1 d 3 -1 d 3 -1 d 3 X 3 -1 d 3 -1 d 3 -1 d 3 -1 d 4 -1 d s 1293 1154 m
 3 -1 d s 0.49 0.6 0.82 c black 0.49 0.6 0.82 c
 gsave  408 305 930 1009 C 1051.24 1293.4 t 0 r /Helvetica-Bold findfont 25.6831 sf 0 0 m (1.0 < E < 1.5 GeV) show NC gr  0.52 0.76 0.64 c black 0.52 0.76 0.64 c
 gsave  408 305 930 1009 C 1031.3 1256.36 t 0 r /Helvetica-Bold findfont 25.6831 sf 0 0 m 
 228 214 200 193 178 171 156 149 134 126 119 105 91 77 69 55 47 39 25 17
(A = \2550.002, p = 2.000) K NC gr  1 0.6 1 c black 1 0.6 1 c
 gsave  408 305 930 1009 C 1336.13 1122.46 t 90 r /Helvetica-Bold findfont 28.5368 sf 0 0 m (/dof=0.1) show NC gr  black 1 0.6 1 c
 gsave  408 305 930 1009 C 1324.73 1111.07 t 90 r /Helvetica-Bold findfont 19.9758 sf 0 0 m (2) show NC gr  black 1 0.6 1 c
 gsave  408 305 930 1009 C 1336.13 1093.97 t 90 r /Symbol findfont 28.5368 sf 0 0 m (c) show NC gr  black 3 lw 1 1 1 c 408 305 1383 1009 bf black 1 1 1 c black 306 229 1445 1055 bl 306 229 1445 1055 bl 1445 1055 m 306 X s 1491 1059 m -4 Y s 1596 1059
 m -4 Y s 1702 1059 m -4 Y s 1491 1059 m -4 Y s 1702 1059 m -4 Y s
 gsave  408 305 1383 1009 C 1470.03 1034.15 t 0 r /Helvetica findfont 22.8295 sf 0 0 m (\2550.5) show NC gr 
 gsave  408 305 1383 1009 C 1586.83 1034.15 t 0 r /Helvetica findfont 22.8295 sf 0 0 m (0) show NC gr 
 gsave  408 305 1383 1009 C 1683.69 1034.15 t 0 r /Helvetica findfont 22.8295 sf 0 0 m (0.5) show NC gr  1445 1284 m 306 X s 1491 1280 m 4 Y s 1596 1280 m 4 Y s 1702 1280 m 4 Y s 1491 1280 m 4 Y s 1702 1280 m 4 Y s 1445 1055 m 229 Y s 1450 1080 m -5
 X s 1447 1088 m -2 X s 1447 1096 m -2 X s 1447 1104 m -2 X s 1450 1112 m -5 X s 1447 1120 m -2 X s 1447 1128 m -2 X s 1447 1136 m -2 X s 1450 1144 m -5 X s 1447 1152 m -2 X s 1447 1160 m -2 X s 1447 1168 m -2 X s 1450 1176 m -5 X s 1447 1184 m -2 X
 s 1447 1192 m -2 X s 1447 1200 m -2 X s 1450 1208 m -5 X s 1447 1215 m -2 X s 1447 1223 m -2 X s 1447 1231 m -2 X s 1450 1239 m -5 X s 1447 1247 m -2 X s 1447 1255 m -2 X s 1447 1263 m -2 X s 1450 1271 m -5 X s 1450 1080 m -5 X s 1447 1072 m -2 X s
 1447 1064 m -2 X s 1447 1056 m -2 X s 1450 1271 m -5 X s 1447 1279 m -2 X s
 gsave  408 305 1383 1009 C 1376.01 1074.03 t 0 r /Helvetica findfont 22.8295 sf 0 0 m (\2550.006) show NC gr 
 gsave  408 305 1383 1009 C 1376.01 1105.37 t 0 r /Helvetica findfont 22.8295 sf 0 0 m (\2550.004) show NC gr 
 gsave  408 305 1383 1009 C 1376.01 1136.71 t 0 r /Helvetica findfont 22.8295 sf 0 0 m (\2550.002) show NC gr 
 gsave  408 305 1383 1009 C 1427.29 1168.04 t 0 r /Helvetica findfont 22.8295 sf 0 0 m (0) show NC gr 
 gsave  408 305 1383 1009 C 1384.56 1199.38 t 0 r /Helvetica findfont 22.8295 sf 0 0 m (0.002) show NC gr 
 gsave  408 305 1383 1009 C 1384.56 1233.57 t 0 r /Helvetica findfont 22.8295 sf 0 0 m (0.004) show NC gr 
 gsave  408 305 1383 1009 C 1384.56 1264.91 t 0 r /Helvetica findfont 22.8295 sf 0 0 m (0.006) show NC gr  1751 1055 m 229 Y s 1745 1080 m 6 X s 1748 1088 m 3 X s 1748 1096 m 3 X s 1748 1104 m 3 X s 1745 1112 m 6 X s 1748 1120 m 3 X s 1748 1128 m 3 X
 s 1748 1136 m 3 X s 1745 1144 m 6 X s 1748 1152 m 3 X s 1748 1160 m 3 X s 1748 1168 m 3 X s 1745 1176 m 6 X s 1748 1184 m 3 X s 1748 1192 m 3 X s 1748 1200 m 3 X s 1745 1208 m 6 X s 1748 1215 m 3 X s 1748 1223 m 3 X s 1748 1231 m 3 X s 1745 1239 m 6
 X s 1748 1247 m 3 X s 1748 1255 m 3 X s 1748 1263 m 3 X s 1745 1271 m 6 X s 1745 1080 m 6 X s 1748 1072 m 3 X s 1748 1064 m 3 X s 1748 1056 m 3 X s 1745 1271 m 6 X s 1748 1279 m 3 X s 1470 1182 1512 1143 1554 1185 1575 1123 1617 1198 1639 1125 1681
 1194 1723 1214 8 { m21} R 1470 1193 m 38 Y s 1464 1231 m 12 X s 1470 1171 m -38 Y s 1464 1133 m 12 X s 1512 1154 m 38 Y s 1506 1192 m 12 X s 1512 1132 m -38 Y s 1506 1094 m 12 X s 1554 1197 m 38 Y s 1548 1235 m 12 X s 1554 1174 m -38 Y s 1548 1136 m
 12 X s 1575 1135 m 38 Y s 1570 1173 m 11 X s 1575 1112 m -38 Y s 1570 1074 m 11 X s 1617 1209 m 39 Y s 1612 1248 m 11 X s 1617 1187 m -39 Y s 1612 1148 m 11 X s 1639 1136 m 38 Y s 1633 1174 m 11 X s 1639 1113 m -38 Y s 1633 1075 m 11 X s 1681 1205 m
 39 Y s 1675 1244 m 11 X s 1681 1182 m -38 Y s 1675 1144 m 11 X s 1723 1226 m 39 Y s 1717 1265 m 12 X s 1723 1203 m -39 Y s 1717 1164 m 12 X s 9 lw 0.95 0.95 0.95 c black 1446 1154 m 3 X 3 1 d 3 X 3 1 d 3 X 3 1 d 3 X 4 1 d 6 X 3 1 d 3 X 3 1 d 3 X 3 1
 d 3 X 3 1 d 6 X 3 1 d 3 X 3 1 d 3 X 4 1 d 3 X 3 1 d 6 X 3 1 d 3 X 3 1 d 3 X 3 1 d 6 X 3 1 d 3 X 3 1 d 3 X 4 1 d 3 X 3 1 d 6 X 3 1 d 3 X 3 1 d 3 X 3 1 d s 1596 1176 m 3 X 3 1 d 6 X 3 1 d 3 X 4 1 d 3 X 3 1 d 6 X 3 1 d 3 X 3 1 d 3 X 3 1 d 3 X 3 1 d 6 X
 3 1 d 3 X 3 1 d 4 X 3 1 d 3 X 3 1 d 6 X 3 1 d 3 X 3 1 d 3 X 3 1 d 6 X 3 1 d 3 X 3 1 d 4 X 3 1 d 3 X 3 1 d 6 X 3 1 d 3 X 3 1 d 3 X s 1746 1197 m 3 1 d s 0.49 0.6 0.82 c black 0.49 0.6 0.82 c
 gsave  408 305 1383 1009 C 1504.21 1293.4 t 0 r /Helvetica-Bold findfont 25.6831 sf 0 0 m (1.5 < E < 2.0 GeV) show NC gr  0.52 0.76 0.64 c black 0.52 0.76 0.64 c
 gsave  408 305 1383 1009 C 1489.97 1256.36 t 0 r /Helvetica-Bold findfont 25.6831 sf 0 0 m 
 220 206 192 185 170 163 148 141 125 118 111 97 83 68 61 47 40 25 18
(A = 0.002, p = 1.000) K NC gr  1 0.6 1 c black 1 0.6 1 c
 gsave  408 305 1383 1009 C 1789.1 1122.46 t 90 r /Helvetica-Bold findfont 28.5368 sf 0 0 m (/dof=0.5) show NC gr  black 1 0.6 1 c
 gsave  408 305 1383 1009 C 1777.71 1111.07 t 90 r /Helvetica-Bold findfont 19.9758 sf 0 0 m (2) show NC gr  black 1 0.6 1 c
 gsave  408 305 1383 1009 C 1789.1 1093.97 t 90 r /Symbol findfont 28.5368 sf 0 0 m (c) show NC gr  black 3 lw 1 1 1 c 408 305 1837 1009 bf black 1 1 1 c black 306 229 1898 1055 bl 306 229 1898 1055 bl 1898 1055 m 306 X s 1944 1059 m -4 Y s 2050 1059
 m -4 Y s 2155 1059 m -4 Y s 1944 1059 m -4 Y s 2155 1059 m -4 Y s
 gsave  408 305 1837 1009 C 1923 1034.15 t 0 r /Helvetica findfont 22.8295 sf 0 0 m (\2550.5) show NC gr 
 gsave  408 305 1837 1009 C 2039.81 1034.15 t 0 r /Helvetica findfont 22.8295 sf 0 0 m (0) show NC gr 
 gsave  408 305 1837 1009 C 2136.67 1034.15 t 0 r /Helvetica findfont 22.8295 sf 0 0 m (0.5) show NC gr  1898 1284 m 306 X s 1944 1280 m 4 Y s 2050 1280 m 4 Y s 2155 1280 m 4 Y s 1944 1280 m 4 Y s 2155 1280 m 4 Y s 1898 1055 m 229 Y s 1904 1060 m -6
 X s 1901 1067 m -3 X s 1901 1075 m -3 X s 1901 1082 m -3 X s 1904 1090 m -6 X s 1901 1098 m -3 X s 1901 1105 m -3 X s 1901 1113 m -3 X s 1904 1120 m -6 X s 1901 1128 m -3 X s 1901 1135 m -3 X s 1901 1143 m -3 X s 1904 1150 m -6 X s 1901 1158 m -3 X
 s 1901 1166 m -3 X s 1901 1173 m -3 X s 1904 1181 m -6 X s 1901 1188 m -3 X s 1901 1196 m -3 X s 1901 1203 m -3 X s 1904 1211 m -6 X s 1901 1218 m -3 X s 1901 1226 m -3 X s 1901 1233 m -3 X s 1904 1241 m -6 X s 1901 1249 m -3 X s 1901 1256 m -3 X s
 1901 1264 m -3 X s 1904 1271 m -6 X s 1904 1060 m -6 X s 1904 1271 m -6 X s 1901 1279 m -3 X s
 gsave  408 305 1837 1009 C 1828.99 1054.09 t 0 r /Helvetica findfont 22.8295 sf 0 0 m (\2550.008) show NC gr 
 gsave  408 305 1837 1009 C 1828.99 1082.58 t 0 r /Helvetica findfont 22.8295 sf 0 0 m (\2550.006) show NC gr 
 gsave  408 305 1837 1009 C 1828.99 1113.92 t 0 r /Helvetica findfont 22.8295 sf 0 0 m (\2550.004) show NC gr 
 gsave  408 305 1837 1009 C 1828.99 1142.4 t 0 r /Helvetica findfont 22.8295 sf 0 0 m (\2550.002) show NC gr 
 gsave  408 305 1837 1009 C 1880.27 1173.74 t 0 r /Helvetica findfont 22.8295 sf 0 0 m (0) show NC gr 
 gsave  408 305 1837 1009 C 1837.53 1205.08 t 0 r /Helvetica findfont 22.8295 sf 0 0 m (0.002) show NC gr 
 gsave  408 305 1837 1009 C 1837.53 1233.57 t 0 r /Helvetica findfont 22.8295 sf 0 0 m (0.004) show NC gr 
 gsave  408 305 1837 1009 C 1837.53 1264.91 t 0 r /Helvetica findfont 22.8295 sf 0 0 m (0.006) show NC gr  2204 1055 m 229 Y s 2199 1060 m 5 X s 2201 1067 m 3 X s 2201 1075 m 3 X s 2201 1082 m 3 X s 2199 1090 m 5 X s 2201 1098 m 3 X s 2201 1105 m 3 X
 s 2201 1113 m 3 X s 2199 1120 m 5 X s 2201 1128 m 3 X s 2201 1135 m 3 X s 2201 1143 m 3 X s 2199 1150 m 5 X s 2201 1158 m 3 X s 2201 1166 m 3 X s 2201 1173 m 3 X s 2199 1181 m 5 X s 2201 1188 m 3 X s 2201 1196 m 3 X s 2201 1203 m 3 X s 2199 1211 m 5
 X s 2201 1218 m 3 X s 2201 1226 m 3 X s 2201 1233 m 3 X s 2199 1241 m 5 X s 2201 1249 m 3 X s 2201 1256 m 3 X s 2201 1264 m 3 X s 2199 1271 m 5 X s 2199 1060 m 5 X s 2199 1271 m 5 X s 2201 1279 m 3 X s 1923 1185 1966 1187 2008 1171 2029 1173 2071
 1123 2092 1207 2134 1165 2176 1214 8 { m21} R 1923 1196 m 38 Y s 1918 1234 m 11 X s 1923 1173 m -38 Y s 1918 1135 m 11 X s 1966 1198 m 38 Y s 1960 1236 m 11 X s 1966 1176 m -38 Y s 1960 1138 m 11 X s 2008 1182 m 38 Y s 2002 1220 m 11 X s 2008 1160 m
 -38 Y s 2002 1122 m 11 X s 2029 1185 m 38 Y s 2023 1223 m 11 X s 2029 1162 m -38 Y s 2023 1124 m 11 X s 2071 1135 m 38 Y s 2065 1173 m 12 X s 2071 1112 m -38 Y s 2065 1074 m 12 X s 2092 1218 m 39 Y s 2086 1257 m 12 X s 2092 1196 m -39 Y s 2086 1157
 m 12 X s 2134 1176 m 39 Y s 2129 1215 m 11 X s 2134 1153 m -38 Y s 2129 1115 m 11 X s 2176 1225 m 40 Y s 2171 1265 m 11 X s 2176 1203 m -40 Y s 2171 1163 m 11 X s 1 0 0 c 9 lw 0.95 0.95 0.95 c black 1 0 0 c 1900 1199 m 3 X 3 -1 d 3 -1 d 3 X 3 -1 d 3
 -1 d 3 -1 d 3 X 3 -1 d 3 X 3 -1 d 3 -1 d 3 X 3 -1 d 4 X 3 -1 d 3 X 3 -1 d 3 X 3 -1 d 3 X 3 -1 d 6 X 3 -1 d 3 X 3 -1 d 6 X 3 -1 d 10 X 3 -1 d 12 X 3 -1 d 31 X s 2050 1181 m 30 X 3 1 d 13 X 3 1 d 9 X 3 1 d 6 X 3 1 d 6 X 3 1 d 3 X 3 1 d 3 X 3 1 d 4 X 3
 1 d 3 X 3 1 d 3 X 3 1 d 3 X 3 1 d 3 X 3 1 d 3 1 d 3 X 3 1 d 3 1 d 3 X 3 1 d 4 1 d 3 1 d 3 X s 2200 1199 m 3 1 d s 0.49 0.6 0.82 c black 0.49 0.6 0.82 c
 gsave  408 305 1837 1009 C 1957.19 1293.4 t 0 r /Helvetica-Bold findfont 25.6831 sf 0 0 m (2.0 < E < 2.5 GeV) show NC gr  0.52 0.76 0.64 c black 0.52 0.76 0.64 c
 gsave  408 305 1837 1009 C 1942.94 1256.36 t 0 r /Helvetica-Bold findfont 25.6831 sf 0 0 m 
 220 206 192 185 170 163 148 141 126 118 111 97 83 69 61 47 40 25 18
(A = 0.002, p = 2.000) K NC gr  1 0.6 1 c black 1 0.6 1 c
 gsave  408 305 1837 1009 C 2242.08 1122.46 t 90 r /Helvetica-Bold findfont 28.5368 sf 0 0 m (/dof=0.3) show NC gr  black 1 0.6 1 c
 gsave  408 305 1837 1009 C 2230.68 1111.07 t 90 r /Helvetica-Bold findfont 19.9758 sf 0 0 m (2) show NC gr  black 1 0.6 1 c
 gsave  408 305 1837 1009 C 2242.08 1093.97 t 90 r /Symbol findfont 28.5368 sf 0 0 m (c) show NC gr  black 3 lw 1 1 1 c 408 305 23 677 bf black 1 1 1 c black 306 229 84 723 bl 306 229 84 723 bl 84 723 m 306 X s 130 727 m -4 Y s 236 727 m -4 Y s 341
 727 m -4 Y s 130 727 m -4 Y s 341 727 m -4 Y s
 gsave  408 305 23 677 C 108.258 703.676 t 0 r /Helvetica findfont 22.8295 sf 0 0 m (\2550.5) show NC gr 
 gsave  408 305 23 677 C 225.062 703.676 t 0 r /Helvetica findfont 22.8295 sf 0 0 m (0) show NC gr 
 gsave  408 305 23 677 C 321.925 703.676 t 0 r /Helvetica findfont 22.8295 sf 0 0 m (0.5) show NC gr  84 952 m 306 X s 130 948 m 4 Y s 236 948 m 4 Y s 341 948 m 4 Y s 130 948 m 4 Y s 341 948 m 4 Y s 84 723 m 229 Y s 89 729 m -5 X s 87 735 m -3 X s 87
 741 m -3 X s 87 747 m -3 X s 89 754 m -5 X s 87 760 m -3 X s 87 766 m -3 X s 87 773 m -3 X s 89 779 m -5 X s 87 785 m -3 X s 87 791 m -3 X s 87 798 m -3 X s 89 804 m -5 X s 87 810 m -3 X s 87 817 m -3 X s 87 823 m -3 X s 89 829 m -5 X s 87 835 m -3
 X s 87 842 m -3 X s 87 848 m -3 X s 89 854 m -5 X s 87 861 m -3 X s 87 867 m -3 X s 87 873 m -3 X s 89 879 m -5 X s 87 886 m -3 X s 87 892 m -3 X s 87 898 m -3 X s 89 905 m -5 X s 87 911 m -3 X s 87 917 m -3 X s 87 923 m -3 X s 89 930 m -5 X s 89
 729 m -5 X s 89 930 m -5 X s 87 936 m -3 X s 87 942 m -3 X s 87 949 m -3 X s
 gsave  408 305 23 677 C 14.2445 720.769 t 0 r /Helvetica findfont 22.8295 sf 0 0 m (\2550.008) show NC gr 
 gsave  408 305 23 677 C 14.2445 746.409 t 0 r /Helvetica findfont 22.8295 sf 0 0 m (\2550.006) show NC gr 
 gsave  408 305 23 677 C 14.2445 772.049 t 0 r /Helvetica findfont 22.8295 sf 0 0 m (\2550.004) show NC gr 
 gsave  408 305 23 677 C 14.2445 797.689 t 0 r /Helvetica findfont 22.8295 sf 0 0 m (\2550.002) show NC gr 
 gsave  408 305 23 677 C 65.5245 823.329 t 0 r /Helvetica findfont 22.8295 sf 0 0 m (0) show NC gr 
 gsave  408 305 23 677 C 22.7911 846.12 t 0 r /Helvetica findfont 22.8295 sf 0 0 m (0.002) show NC gr 
 gsave  408 305 23 677 C 22.7911 871.76 t 0 r /Helvetica findfont 22.8295 sf 0 0 m (0.004) show NC gr 
 gsave  408 305 23 677 C 22.7911 897.4 t 0 r /Helvetica findfont 22.8295 sf 0 0 m (0.006) show NC gr 
 gsave  408 305 23 677 C 22.7911 923.04 t 0 r /Helvetica findfont 22.8295 sf 0 0 m (0.008) show NC gr  390 723 m 229 Y s 385 729 m 5 X s 387 735 m 3 X s 387 741 m 3 X s 387 747 m 3 X s 385 754 m 5 X s 387 760 m 3 X s 387 766 m 3 X s 387 773 m 3 X s
 385 779 m 5 X s 387 785 m 3 X s 387 791 m 3 X s 387 798 m 3 X s 385 804 m 5 X s 387 810 m 3 X s 387 817 m 3 X s 387 823 m 3 X s 385 829 m 5 X s 387 835 m 3 X s 387 842 m 3 X s 387 848 m 3 X s 385 854 m 5 X s 387 861 m 3 X s 387 867 m 3 X s 387 873 m
 3 X s 385 879 m 5 X s 387 886 m 3 X s 387 892 m 3 X s 387 898 m 3 X s 385 905 m 5 X s 387 911 m 3 X s 387 917 m 3 X s 387 923 m 3 X s 385 930 m 5 X s 385 729 m 5 X s 385 930 m 5 X s 387 936 m 3 X s 387 942 m 3 X s 387 949 m 3 X s /w 22 def /w2 {w 2
 div} def /w3 {w 3 div} def 109 808 151 822 194 852 215 853 257 880 278 864 320 887 362 787 8 { m21} R 109 820 m 33 Y s 104 853 m 11 X s 109 797 m -33 Y s 104 764 m 11 X s 151 833 m 34 Y s 146 867 m 11 X s 151 811 m -34 Y s 146 777 m 11 X s 194 863 m
 34 Y s 188 897 m 11 X s 194 841 m -33 Y s 188 808 m 11 X s 215 864 m 33 Y s 209 897 m 11 X s 215 841 m -33 Y s 209 808 m 11 X s 257 891 m 33 Y s 251 924 m 11 X s 257 868 m -33 Y s 251 835 m 11 X s 278 875 m 34 Y s 272 909 m 12 X s 278 852 m -33 Y s
 272 819 m 12 X s 320 899 m 34 Y s 314 933 m 12 X s 320 876 m -34 Y s 314 842 m 12 X s 362 798 m 34 Y s 357 832 m 11 X s 362 776 m -34 Y s 357 742 m 11 X s 1 0 0 c 9 lw 0.95 0.95 0.95 c black 1 0 0 c 85 810 m 3 1 d 4 1 d 3 1 d 3 X 3 1 d 3 1 d 3 X 3 1
 d 3 1 d 3 X 3 1 d 3 X 3 1 d 3 X 3 1 d 3 1 d 3 X 4 1 d 3 X 3 1 d 6 X 3 1 d 3 X 3 1 d 6 X 3 1 d 6 X 3 1 d 10 X 3 1 d 15 X 3 1 d 24 X s 235 829 m 25 X 3 -1 d 15 X 3 -1 d 10 X 3 -1 d 6 X 3 -1 d 6 X 3 -1 d 3 X 3 -1 d 6 X 3 -1 d 3 X 3 -1 d 3 X 4 -1 d 3 X
 3 -1 d 3 -1 d 3 X 3 -1 d 3 X 3 -1 d 3 -1 d 3 X 3 -1 d 3 -1 d 3 X 3 -1 d 3 -1 d 3 -1 d s 385 810 m 4 X s 0.49 0.6 0.82 c black 0.49 0.6 0.82 c
 gsave  408 305 23 677 C 142.445 960.076 t 0 r /Helvetica-Bold findfont 25.6831 sf 0 0 m (2.5 < E < 3.0 GeV) show NC gr  0.52 0.76 0.64 c black 0.52 0.76 0.64 c
 gsave  408 305 23 677 C 122.502 923.04 t 0 r /Helvetica-Bold findfont 25.6831 sf 0 0 m 
 228 214 200 193 178 171 156 149 134 126 119 105 91 77 69 55 47 40 25 17
(A = \2550.003, p = 2.000) K NC gr  1 0.6 1 c black 1 0.6 1 c
 gsave  408 305 23 677 C 427.334 791.991 t 90 r /Helvetica-Bold findfont 28.5368 sf 0 0 m (/dof=0.7) show NC gr  black 1 0.6 1 c
 gsave  408 305 23 677 C 415.938 780.596 t 90 r /Helvetica-Bold findfont 19.9758 sf 0 0 m (2) show NC gr  black 1 0.6 1 c
 gsave  408 305 23 677 C 427.334 763.503 t 90 r /Symbol findfont 28.5368 sf 0 0 m (c) show NC gr  black 3 lw 1 1 1 c 408 305 476 677 bf black 1 1 1 c black 307 229 537 723 bl 307 229 537 723 bl 537 723 m 307 X s 584 727 m -4 Y s 689 727 m -4 Y s 795
 727 m -4 Y s 584 727 m -4 Y s 795 727 m -4 Y s
 gsave  408 305 476 677 C 561.231 703.676 t 0 r /Helvetica findfont 22.8295 sf 0 0 m (\2550.5) show NC gr 
 gsave  408 305 476 677 C 678.036 703.676 t 0 r /Helvetica findfont 22.8295 sf 0 0 m (0) show NC gr 
 gsave  408 305 476 677 C 774.898 703.676 t 0 r /Helvetica findfont 22.8295 sf 0 0 m (0.5) show NC gr  537 952 m 307 X s 584 948 m 4 Y s 689 948 m 4 Y s 795 948 m 4 Y s 584 948 m 4 Y s 795 948 m 4 Y s 537 723 m 229 Y s 543 736 m -6 X s 540 742 m -3 X
 s 540 748 m -3 X s 540 754 m -3 X s 543 760 m -6 X s 540 766 m -3 X s 540 771 m -3 X s 540 777 m -3 X s 543 783 m -6 X s 540 789 m -3 X s 540 795 m -3 X s 540 801 m -3 X s 543 807 m -6 X s 540 813 m -3 X s 540 819 m -3 X s 540 825 m -3 X s 543 831 m
 -6 X s 540 837 m -3 X s 540 843 m -3 X s 540 849 m -3 X s 543 855 m -6 X s 540 861 m -3 X s 540 866 m -3 X s 540 872 m -3 X s 543 878 m -6 X s 540 884 m -3 X s 540 890 m -3 X s 540 896 m -3 X s 543 902 m -6 X s 540 908 m -3 X s 540 914 m -3 X s 540
 920 m -3 X s 543 926 m -6 X s 540 932 m -3 X s 540 938 m -3 X s 540 944 m -3 X s 543 950 m -6 X s 543 736 m -6 X s 540 730 m -3 X s 540 724 m -3 X s 543 950 m -6 X s
 gsave  408 305 476 677 C 484.311 729.316 t 0 r /Helvetica findfont 22.8295 sf 0 0 m (\2550.01) show NC gr 
 gsave  408 305 476 677 C 467.218 752.107 t 0 r /Helvetica findfont 22.8295 sf 0 0 m (\2550.008) show NC gr 
 gsave  408 305 476 677 C 467.218 774.898 t 0 r /Helvetica findfont 22.8295 sf 0 0 m (\2550.006) show NC gr 
 gsave  408 305 476 677 C 467.218 800.538 t 0 r /Helvetica findfont 22.8295 sf 0 0 m (\2550.004) show NC gr 
 gsave  408 305 476 677 C 467.218 823.329 t 0 r /Helvetica findfont 22.8295 sf 0 0 m (\2550.002) show NC gr 
 gsave  408 305 476 677 C 518.498 846.12 t 0 r /Helvetica findfont 22.8295 sf 0 0 m (0) show NC gr 
 gsave  408 305 476 677 C 475.765 871.76 t 0 r /Helvetica findfont 22.8295 sf 0 0 m (0.002) show NC gr 
 gsave  408 305 476 677 C 475.765 894.552 t 0 r /Helvetica findfont 22.8295 sf 0 0 m (0.004) show NC gr 
 gsave  408 305 476 677 C 475.765 917.343 t 0 r /Helvetica findfont 22.8295 sf 0 0 m (0.006) show NC gr 
 gsave  408 305 476 677 C 475.765 942.983 t 0 r /Helvetica findfont 22.8295 sf 0 0 m (0.008) show NC gr  844 723 m 229 Y s 838 736 m 6 X s 841 742 m 3 X s 841 748 m 3 X s 841 754 m 3 X s 838 760 m 6 X s 841 766 m 3 X s 841 771 m 3 X s 841 777 m 3 X s
 838 783 m 6 X s 841 789 m 3 X s 841 795 m 3 X s 841 801 m 3 X s 838 807 m 6 X s 841 813 m 3 X s 841 819 m 3 X s 841 825 m 3 X s 838 831 m 6 X s 841 837 m 3 X s 841 843 m 3 X s 841 849 m 3 X s 838 855 m 6 X s 841 861 m 3 X s 841 866 m 3 X s 841 872 m
 3 X s 838 878 m 6 X s 841 884 m 3 X s 841 890 m 3 X s 841 896 m 3 X s 838 902 m 6 X s 841 908 m 3 X s 841 914 m 3 X s 841 920 m 3 X s 838 926 m 6 X s 841 932 m 3 X s 841 938 m 3 X s 841 944 m 3 X s 838 950 m 6 X s 838 736 m 6 X s 841 730 m 3 X s 841
 724 m 3 X s 838 950 m 6 X s /w 23 def /w2 {w 2 div} def /w3 {w 3 div} def 563 824 605 842 647 789 668 883 710 881 731 855 774 885 816 878 8 { m21} R 563 835 m 36 Y s 557 871 m 11 X s 563 813 m -36 Y s 557 777 m 11 X s 605 854 m 36 Y s 599 890 m 12 X
 s 605 831 m -36 Y s 599 795 m 12 X s 647 800 m 36 Y s 641 836 m 12 X s 647 778 m -36 Y s 641 742 m 12 X s 668 894 m 36 Y s 662 930 m 12 X s 668 871 m -36 Y s 662 835 m 12 X s 710 893 m 36 Y s 705 929 m 11 X s 710 870 m -36 Y s 705 834 m 11 X s 731
 867 m 36 Y s 726 903 m 11 X s 731 844 m -36 Y s 726 808 m 11 X s 774 896 m 37 Y s 768 933 m 11 X s 774 873 m -37 Y s 768 836 m 11 X s 816 890 m 37 Y s 810 927 m 11 X s 816 867 m -37 Y s 810 830 m 11 X s 9 lw 0.95 0.95 0.95 c black 539 815 m 3 1 d 3
 1 d 3 1 d 3 1 d 3 X 3 1 d 3 1 d 3 1 d 4 1 d 3 X 3 1 d 3 1 d 3 1 d 3 1 d 3 X 3 1 d 3 1 d 3 1 d 3 1 d 3 X 3 1 d 3 1 d 3 1 d 3 1 d 4 X 3 1 d 3 1 d 3 1 d 3 1 d 3 X 3 1 d 3 1 d 3 1 d 3 1 d 3 X 3 1 d 3 1 d 3 1 d 3 1 d 3 X 3 1 d 4 1 d 3 1 d 3 1 d 3 X 3 1 d
 3 1 d 3 1 d 3 1 d s 689 855 m 3 X 3 1 d 3 1 d 3 1 d 3 1 d 3 X 3 1 d 3 1 d 4 1 d 3 1 d 3 X 3 1 d 3 1 d 3 1 d 3 1 d 3 X 3 1 d 3 1 d 3 1 d 3 1 d 3 X 3 1 d 3 1 d 3 1 d 4 1 d 3 X 3 1 d 3 1 d 3 1 d 3 1 d 3 X 3 1 d 3 1 d 3 1 d 3 1 d 3 X 3 1 d 3 1 d 3 1 d 3
 1 d 4 X 3 1 d 3 1 d 3 1 d 3 1 d 3 X 3 1 d 3 1 d 3 1 d s 839 894 m 3 1 d s 0.49 0.6 0.82 c black 0.49 0.6 0.82 c
 gsave  408 305 476 677 C 595.418 960.076 t 0 r /Helvetica-Bold findfont 25.6831 sf 0 0 m (3.0 < E < 3.5 GeV) show NC gr  0.52 0.76 0.64 c black 0.52 0.76 0.64 c
 gsave  408 305 476 677 C 581.174 923.04 t 0 r /Helvetica-Bold findfont 25.6831 sf 0 0 m 
 220 206 192 185 170 163 148 141 125 118 111 97 83 69 61 47 40 25 18
(A = 0.005, p = 1.000) K NC gr  1 0.6 1 c black 1 0.6 1 c
 gsave  408 305 476 677 C 883.156 791.991 t 90 r /Helvetica-Bold findfont 28.5368 sf 0 0 m (/dof=0.3) show NC gr  black 1 0.6 1 c
 gsave  408 305 476 677 C 871.76 780.596 t 90 r /Helvetica-Bold findfont 19.9758 sf 0 0 m (2) show NC gr  black 1 0.6 1 c
 gsave  408 305 476 677 C 883.156 763.503 t 90 r /Symbol findfont 28.5368 sf 0 0 m (c) show NC gr  black 3 lw 1 1 1 c 408 305 930 677 bf black 1 1 1 c black 306 229 991 723 bl 306 229 991 723 bl 991 723 m 306 X s 1037 727 m -4 Y s 1143 727 m -4 Y s
 1248 727 m -4 Y s 1037 727 m -4 Y s 1248 727 m -4 Y s
 gsave  408 305 930 677 C 1017.05 703.676 t 0 r /Helvetica findfont 22.8295 sf 0 0 m (\2550.5) show NC gr 
 gsave  408 305 930 677 C 1133.86 703.676 t 0 r /Helvetica findfont 22.8295 sf 0 0 m (0) show NC gr 
 gsave  408 305 930 677 C 1230.72 703.676 t 0 r /Helvetica findfont 22.8295 sf 0 0 m (0.5) show NC gr  991 952 m 306 X s 1037 948 m 4 Y s 1143 948 m 4 Y s 1248 948 m 4 Y s 1037 948 m 4 Y s 1248 948 m 4 Y s 991 723 m 229 Y s 997 725 m -6 X s 994 730 m
 -3 X s 994 736 m -3 X s 994 741 m -3 X s 994 747 m -3 X s 997 752 m -6 X s 994 758 m -3 X s 994 764 m -3 X s 994 769 m -3 X s 994 775 m -3 X s 997 780 m -6 X s 994 786 m -3 X s 994 791 m -3 X s 994 797 m -3 X s 994 802 m -3 X s 997 808 m -6 X s 994
 814 m -3 X s 994 819 m -3 X s 994 825 m -3 X s 994 830 m -3 X s 997 836 m -6 X s 994 841 m -3 X s 994 847 m -3 X s 994 852 m -3 X s 994 858 m -3 X s 997 864 m -6 X s 994 869 m -3 X s 994 875 m -3 X s 994 880 m -3 X s 994 886 m -3 X s 997 891 m -6 X
 s 994 897 m -3 X s 994 902 m -3 X s 994 908 m -3 X s 994 914 m -3 X s 997 919 m -6 X s 994 925 m -3 X s 994 930 m -3 X s 994 936 m -3 X s 994 941 m -3 X s 997 947 m -6 X s 997 725 m -6 X s 997 947 m -6 X s
 gsave  408 305 930 677 C 937.285 717.92 t 0 r /Helvetica findfont 22.8295 sf 0 0 m (\2550.02) show NC gr 
 gsave  408 305 930 677 C 923.04 746.409 t 0 r /Helvetica findfont 22.8295 sf 0 0 m (\2550.015) show NC gr 
 gsave  408 305 930 677 C 940.134 772.049 t 0 r /Helvetica findfont 22.8295 sf 0 0 m (\2550.01) show NC gr 
 gsave  408 305 930 677 C 923.04 800.538 t 0 r /Helvetica findfont 22.8295 sf 0 0 m (\2550.005) show NC gr 
 gsave  408 305 930 677 C 974.32 829.027 t 0 r /Helvetica findfont 22.8295 sf 0 0 m (0) show NC gr 
 gsave  408 305 930 677 C 931.587 857.516 t 0 r /Helvetica findfont 22.8295 sf 0 0 m (0.005) show NC gr 
 gsave  408 305 930 677 C 945.832 883.156 t 0 r /Helvetica findfont 22.8295 sf 0 0 m (0.01) show NC gr 
 gsave  408 305 930 677 C 931.587 911.645 t 0 r /Helvetica findfont 22.8295 sf 0 0 m (0.015) show NC gr 
 gsave  408 305 930 677 C 942.983 940.134 t 0 r /Helvetica findfont 22.8295 sf 0 0 m (0.02) show NC gr  1297 723 m 229 Y s 1292 725 m 5 X s 1294 730 m 3 X s 1294 736 m 3 X s 1294 741 m 3 X s 1294 747 m 3 X s 1292 752 m 5 X s 1294 758 m 3 X s 1294 764
 m 3 X s 1294 769 m 3 X s 1294 775 m 3 X s 1292 780 m 5 X s 1294 786 m 3 X s 1294 791 m 3 X s 1294 797 m 3 X s 1294 802 m 3 X s 1292 808 m 5 X s 1294 814 m 3 X s 1294 819 m 3 X s 1294 825 m 3 X s 1294 830 m 3 X s 1292 836 m 5 X s 1294 841 m 3 X s
 1294 847 m 3 X s 1294 852 m 3 X s 1294 858 m 3 X s 1292 864 m 5 X s 1294 869 m 3 X s 1294 875 m 3 X s 1294 880 m 3 X s 1294 886 m 3 X s 1292 891 m 5 X s 1294 897 m 3 X s 1294 902 m 3 X s 1294 908 m 3 X s 1294 914 m 3 X s 1292 919 m 5 X s 1294 925 m
 3 X s 1294 930 m 3 X s 1294 936 m 3 X s 1294 941 m 3 X s 1292 947 m 5 X s 1292 725 m 5 X s 1292 947 m 5 X s 1016 769 1058 829 1101 822 1122 807 1164 812 1185 851 1227 867 1269 905 8 { m21} R 1016 780 m 16 Y s 1011 796 m 11 X s 1016 758 m -16 Y s
 1011 742 m 11 X s 1058 840 m 16 Y s 1053 856 m 11 X s 1058 817 m -15 Y s 1053 802 m 11 X s 1101 834 m 15 Y s 1095 849 m 11 X s 1101 811 m -16 Y s 1095 795 m 11 X s 1122 819 m 15 Y s 1116 834 m 11 X s 1122 796 m -15 Y s 1116 781 m 11 X s 1164 824 m
 15 Y s 1158 839 m 12 X s 1164 801 m -16 Y s 1158 785 m 12 X s 1185 862 m 16 Y s 1179 878 m 12 X s 1185 840 m -16 Y s 1179 824 m 12 X s 1227 878 m 16 Y s 1221 894 m 12 X s 1227 855 m -16 Y s 1221 839 m 12 X s 1269 916 m 17 Y s 1264 933 m 11 X s 1269
 893 m -16 Y s 1264 877 m 11 X s 9 lw 0.95 0.95 0.95 c black 993 772 m 3 1 d 3 1 d 3 2 d 3 1 d 3 1 d 3 2 d 3 1 d 3 1 d 3 1 d 3 2 d 3 1 d 3 1 d 3 2 d 3 1 d 3 1 d 4 2 d 3 1 d 3 1 d 3 2 d 3 1 d 3 1 d 3 1 d 3 2 d 3 1 d 3 1 d 3 2 d 3 1 d 3 1 d 3 2 d 3 1 d
 3 1 d 3 2 d 4 1 d 3 1 d 3 1 d 3 2 d 3 1 d 3 1 d 3 2 d 3 1 d 3 1 d 3 2 d 3 1 d 3 1 d 3 1 d 3 2 d 3 1 d 3 1 d 4 2 d s 1143 836 m 3 1 d 3 1 d 3 2 d 3 1 d 3 1 d 3 2 d 3 1 d 3 1 d 3 1 d 3 2 d 3 1 d 3 1 d 3 2 d 3 1 d 3 1 d 4 2 d 3 1 d 3 1 d 3 2 d 3 1 d 3
 1 d 3 1 d 3 2 d 3 1 d 3 1 d 3 2 d 3 1 d 3 1 d 3 2 d 3 1 d 3 1 d 3 1 d 4 2 d 3 1 d 3 1 d 3 2 d 3 1 d 3 1 d 3 2 d 3 1 d 3 1 d 3 2 d 3 1 d 3 1 d 3 1 d 3 2 d 3 1 d 3 1 d 4 2 d s 1293 900 m 3 1 d s 0.49 0.6 0.82 c black 0.49 0.6 0.82 c
 gsave  408 305 930 677 C 1051.24 960.076 t 0 r /Helvetica-Bold findfont 25.6831 sf 0 0 m (3.5 < E < 4.0 GeV) show NC gr  0.52 0.76 0.64 c black 0.52 0.76 0.64 c
 gsave  408 305 930 677 C 1037 923.04 t 0 r /Helvetica-Bold findfont 25.6831 sf 0 0 m 
 220 206 192 185 170 163 148 141 126 118 111 97 83 69 61 47 40 25 18
(A = 0.016, p = 1.000) K NC gr  1 0.6 1 c black 1 0.6 1 c
 gsave  408 305 930 677 C 1336.13 791.991 t 90 r /Helvetica-Bold findfont 28.5368 sf 0 0 m (/dof=0.5) show NC gr  black 1 0.6 1 c
 gsave  408 305 930 677 C 1324.73 780.596 t 90 r /Helvetica-Bold findfont 19.9758 sf 0 0 m (2) show NC gr  black 1 0.6 1 c
 gsave  408 305 930 677 C 1336.13 763.503 t 90 r /Symbol findfont 28.5368 sf 0 0 m (c) show NC gr  black 3 lw 1 1 1 c 408 305 1383 677 bf black 1 1 1 c black 306 229 1445 723 bl 306 229 1445 723 bl 1445 723 m 306 X s 1491 727 m -4 Y s 1596 727 m -4 Y
 s 1702 727 m -4 Y s 1491 727 m -4 Y s 1702 727 m -4 Y s
 gsave  408 305 1383 677 C 1470.03 703.676 t 0 r /Helvetica findfont 22.8295 sf 0 0 m (\2550.5) show NC gr 
 gsave  408 305 1383 677 C 1586.83 703.676 t 0 r /Helvetica findfont 22.8295 sf 0 0 m (0) show NC gr 
 gsave  408 305 1383 677 C 1683.69 703.676 t 0 r /Helvetica findfont 22.8295 sf 0 0 m (0.5) show NC gr  1445 952 m 306 X s 1491 948 m 4 Y s 1596 948 m 4 Y s 1702 948 m 4 Y s 1491 948 m 4 Y s 1702 948 m 4 Y s 1445 723 m 229 Y s 1450 736 m -5 X s 1447
 740 m -2 X s 1447 745 m -2 X s 1447 750 m -2 X s 1447 754 m -2 X s 1450 759 m -5 X s 1447 764 m -2 X s 1447 768 m -2 X s 1447 773 m -2 X s 1447 778 m -2 X s 1450 782 m -5 X s 1447 787 m -2 X s 1447 792 m -2 X s 1447 796 m -2 X s 1447 801 m -2 X s
 1450 806 m -5 X s 1447 810 m -2 X s 1447 815 m -2 X s 1447 820 m -2 X s 1447 824 m -2 X s 1450 829 m -5 X s 1447 834 m -2 X s 1447 838 m -2 X s 1447 843 m -2 X s 1447 848 m -2 X s 1450 852 m -5 X s 1447 857 m -2 X s 1447 862 m -2 X s 1447 866 m -2 X
 s 1447 871 m -2 X s 1450 876 m -5 X s 1447 880 m -2 X s 1447 885 m -2 X s 1447 890 m -2 X s 1447 894 m -2 X s 1450 899 m -5 X s 1447 904 m -2 X s 1447 908 m -2 X s 1447 913 m -2 X s 1447 918 m -2 X s 1450 922 m -5 X s 1447 927 m -2 X s 1447 932 m -2
 X s 1447 936 m -2 X s 1447 941 m -2 X s 1450 946 m -5 X s 1450 736 m -5 X s 1447 731 m -2 X s 1447 726 m -2 X s 1450 946 m -5 X s 1447 950 m -2 X s
 gsave  408 305 1383 677 C 1390.26 729.316 t 0 r /Helvetica findfont 22.8295 sf 0 0 m (\2550.02) show NC gr 
 gsave  408 305 1383 677 C 1376.01 752.107 t 0 r /Helvetica findfont 22.8295 sf 0 0 m (\2550.015) show NC gr 
 gsave  408 305 1383 677 C 1393.11 774.898 t 0 r /Helvetica findfont 22.8295 sf 0 0 m (\2550.01) show NC gr 
 gsave  408 305 1383 677 C 1376.01 797.689 t 0 r /Helvetica findfont 22.8295 sf 0 0 m (\2550.005) show NC gr 
 gsave  408 305 1383 677 C 1427.29 820.48 t 0 r /Helvetica findfont 22.8295 sf 0 0 m (0) show NC gr 
 gsave  408 305 1383 677 C 1384.56 846.12 t 0 r /Helvetica findfont 22.8295 sf 0 0 m (0.005) show NC gr 
 gsave  408 305 1383 677 C 1398.81 868.911 t 0 r /Helvetica findfont 22.8295 sf 0 0 m (0.01) show NC gr 
 gsave  408 305 1383 677 C 1384.56 891.703 t 0 r /Helvetica findfont 22.8295 sf 0 0 m (0.015) show NC gr 
 gsave  408 305 1383 677 C 1395.96 914.494 t 0 r /Helvetica findfont 22.8295 sf 0 0 m (0.02) show NC gr 
 gsave  408 305 1383 677 C 1384.56 937.285 t 0 r /Helvetica findfont 22.8295 sf 0 0 m (0.025) show NC gr  1751 723 m 229 Y s 1745 736 m 6 X s 1748 740 m 3 X s 1748 745 m 3 X s 1748 750 m 3 X s 1748 754 m 3 X s 1745 759 m 6 X s 1748 764 m 3 X s 1748
 768 m 3 X s 1748 773 m 3 X s 1748 778 m 3 X s 1745 782 m 6 X s 1748 787 m 3 X s 1748 792 m 3 X s 1748 796 m 3 X s 1748 801 m 3 X s 1745 806 m 6 X s 1748 810 m 3 X s 1748 815 m 3 X s 1748 820 m 3 X s 1748 824 m 3 X s 1745 829 m 6 X s 1748 834 m 3 X s
 1748 838 m 3 X s 1748 843 m 3 X s 1748 848 m 3 X s 1745 852 m 6 X s 1748 857 m 3 X s 1748 862 m 3 X s 1748 866 m 3 X s 1748 871 m 3 X s 1745 876 m 6 X s 1748 880 m 3 X s 1748 885 m 3 X s 1748 890 m 3 X s 1748 894 m 3 X s 1745 899 m 6 X s 1748 904 m
 3 X s 1748 908 m 3 X s 1748 913 m 3 X s 1748 918 m 3 X s 1745 922 m 6 X s 1748 927 m 3 X s 1748 932 m 3 X s 1748 936 m 3 X s 1748 941 m 3 X s 1745 946 m 6 X s 1745 736 m 6 X s 1748 731 m 3 X s 1748 726 m 3 X s 1745 946 m 6 X s 1748 950 m 3 X s 1470
 772 1512 775 1554 824 1575 822 1617 863 1639 861 1681 888 1723 902 8 { m21} R 1470 783 m 19 Y s 1464 802 m 12 X s 1470 761 m -19 Y s 1464 742 m 12 X s 1512 786 m 19 Y s 1506 805 m 12 X s 1512 764 m -19 Y s 1506 745 m 12 X s 1554 835 m 19 Y s 1548
 854 m 12 X s 1554 813 m -19 Y s 1548 794 m 12 X s 1575 834 m 19 Y s 1570 853 m 11 X s 1575 811 m -19 Y s 1570 792 m 11 X s 1617 874 m 19 Y s 1612 893 m 11 X s 1617 851 m -19 Y s 1612 832 m 11 X s 1639 873 m 19 Y s 1633 892 m 11 X s 1639 850 m -19 Y
 s 1633 831 m 11 X s 1681 900 m 19 Y s 1675 919 m 11 X s 1681 877 m -20 Y s 1675 857 m 11 X s 1723 913 m 20 Y s 1717 933 m 12 X s 1723 891 m -20 Y s 1717 871 m 12 X s 9 lw 0.95 0.95 0.95 c black 1446 745 m 3 2 d 3 1 d 3 2 d 3 2 d 3 2 d 3 1 d 3 2 d 4
 2 d 3 1 d 3 2 d 3 2 d 3 2 d 3 1 d 3 2 d 3 2 d 3 1 d 3 2 d 3 2 d 3 2 d 3 1 d 3 2 d 3 2 d 3 1 d 4 2 d 3 2 d 3 1 d 3 2 d 3 2 d 3 2 d 3 1 d 3 2 d 3 2 d 3 1 d 3 2 d 3 2 d 3 2 d 3 1 d 3 2 d 3 2 d 4 1 d 3 2 d 3 2 d 3 2 d 3 1 d 3 2 d 3 2 d 3 1 d 3 2 d 3 2 d
 s 1596 829 m 3 2 d 3 1 d 3 2 d 3 2 d 3 1 d 3 2 d 4 2 d 3 2 d 3 1 d 3 2 d 3 2 d 3 1 d 3 2 d 3 2 d 3 2 d 3 1 d 3 2 d 3 2 d 3 1 d 3 2 d 3 2 d 3 2 d 3 1 d 4 2 d 3 2 d 3 1 d 3 2 d 3 2 d 3 2 d 3 1 d 3 2 d 3 2 d 3 1 d 3 2 d 3 2 d 3 1 d 3 2 d 3 2 d 3 2 d 4
 1 d 3 2 d 3 2 d 3 1 d 3 2 d 3 2 d 3 2 d 3 1 d 3 2 d 3 2 d s 1746 913 m 3 1 d s 0.49 0.6 0.82 c black 0.49 0.6 0.82 c
 gsave  408 305 1383 677 C 1504.21 960.076 t 0 r /Helvetica-Bold findfont 25.6831 sf 0 0 m (4.0 < E < 4.5 GeV) show NC gr  0.52 0.76 0.64 c black 0.52 0.76 0.64 c
 gsave  408 305 1383 677 C 1489.97 923.04 t 0 r /Helvetica-Bold findfont 25.6831 sf 0 0 m 
 220 206 192 185 170 163 148 141 125 118 111 97 83 68 61 47 40 25 18
(A = 0.025, p = 1.000) K NC gr  1 0.6 1 c black 1 0.6 1 c
 gsave  408 305 1383 677 C 1789.1 791.991 t 90 r /Helvetica-Bold findfont 28.5368 sf 0 0 m (/dof=0.2) show NC gr  black 1 0.6 1 c
 gsave  408 305 1383 677 C 1777.71 780.596 t 90 r /Helvetica-Bold findfont 19.9758 sf 0 0 m (2) show NC gr  black 1 0.6 1 c
 gsave  408 305 1383 677 C 1789.1 763.503 t 90 r /Symbol findfont 28.5368 sf 0 0 m (c) show NC gr  black 3 lw 1 1 1 c 408 305 1837 677 bf black 1 1 1 c black 306 229 1898 723 bl 306 229 1898 723 bl 1898 723 m 306 X s 1944 727 m -4 Y s 2050 727 m -4 Y
 s 2155 727 m -4 Y s 1944 727 m -4 Y s 2155 727 m -4 Y s
 gsave  408 305 1837 677 C 1923 703.676 t 0 r /Helvetica findfont 22.8295 sf 0 0 m (\2550.5) show NC gr 
 gsave  408 305 1837 677 C 2039.81 703.676 t 0 r /Helvetica findfont 22.8295 sf 0 0 m (0) show NC gr 
 gsave  408 305 1837 677 C 2136.67 703.676 t 0 r /Helvetica findfont 22.8295 sf 0 0 m (0.5) show NC gr  1898 952 m 306 X s 1944 948 m 4 Y s 2050 948 m 4 Y s 2155 948 m 4 Y s 1944 948 m 4 Y s 2155 948 m 4 Y s 1898 723 m 229 Y s 1904 730 m -6 X s 1901
 738 m -3 X s 1901 746 m -3 X s 1901 754 m -3 X s 1901 762 m -3 X s 1904 770 m -6 X s 1901 779 m -3 X s 1901 787 m -3 X s 1901 795 m -3 X s 1901 803 m -3 X s 1904 811 m -6 X s 1901 819 m -3 X s 1901 827 m -3 X s 1901 835 m -3 X s 1901 843 m -3 X s
 1904 851 m -6 X s 1901 859 m -3 X s 1901 867 m -3 X s 1901 875 m -3 X s 1901 883 m -3 X s 1904 891 m -6 X s 1901 899 m -3 X s 1901 907 m -3 X s 1901 915 m -3 X s 1901 924 m -3 X s 1904 932 m -6 X s 1904 730 m -6 X s 1904 932 m -6 X s 1901 940 m -3 X
 s 1901 948 m -3 X s
 gsave  408 305 1837 677 C 1843.23 723.618 t 0 r /Helvetica findfont 22.8295 sf 0 0 m (\2550.02) show NC gr 
 gsave  408 305 1837 677 C 1846.08 763.503 t 0 r /Helvetica findfont 22.8295 sf 0 0 m (\2550.01) show NC gr 
 gsave  408 305 1837 677 C 1880.27 803.387 t 0 r /Helvetica findfont 22.8295 sf 0 0 m (0) show NC gr 
 gsave  408 305 1837 677 C 1851.78 843.271 t 0 r /Helvetica findfont 22.8295 sf 0 0 m (0.01) show NC gr 
 gsave  408 305 1837 677 C 1848.93 883.156 t 0 r /Helvetica findfont 22.8295 sf 0 0 m (0.02) show NC gr 
 gsave  408 305 1837 677 C 1848.93 925.889 t 0 r /Helvetica findfont 22.8295 sf 0 0 m (0.03) show NC gr  2204 723 m 229 Y s 2199 730 m 5 X s 2201 738 m 3 X s 2201 746 m 3 X s 2201 754 m 3 X s 2201 762 m 3 X s 2199 770 m 5 X s 2201 779 m 3 X s 2201
 787 m 3 X s 2201 795 m 3 X s 2201 803 m 3 X s 2199 811 m 5 X s 2201 819 m 3 X s 2201 827 m 3 X s 2201 835 m 3 X s 2201 843 m 3 X s 2199 851 m 5 X s 2201 859 m 3 X s 2201 867 m 3 X s 2201 875 m 3 X s 2201 883 m 3 X s 2199 891 m 5 X s 2201 899 m 3 X s
 2201 907 m 3 X s 2201 915 m 3 X s 2201 924 m 3 X s 2199 932 m 5 X s 2199 730 m 5 X s 2199 932 m 5 X s 2201 940 m 3 X s 2201 948 m 3 X s 1923 804 1966 777 2008 839 2029 808 2071 882 2092 865 2134 896 2176 897 8 { m21} R 1923 816 m 24 Y s 1918 840 m
 11 X s 1923 793 m -25 Y s 1918 768 m 11 X s 1966 789 m 24 Y s 1960 813 m 11 X s 1966 766 m -24 Y s 1960 742 m 11 X s 2008 850 m 25 Y s 2002 875 m 11 X s 2008 828 m -25 Y s 2002 803 m 11 X s 2029 819 m 24 Y s 2023 843 m 11 X s 2029 796 m -24 Y s 2023
 772 m 11 X s 2071 893 m 25 Y s 2065 918 m 12 X s 2071 870 m -25 Y s 2065 845 m 12 X s 2092 877 m 24 Y s 2086 901 m 12 X s 2092 854 m -24 Y s 2086 830 m 12 X s 2134 908 m 25 Y s 2129 933 m 11 X s 2134 885 m -25 Y s 2129 860 m 11 X s 2176 908 m 25 Y s
 2171 933 m 11 X s 2176 886 m -25 Y s 2171 861 m 11 X s 9 lw 0.95 0.95 0.95 c black 1900 738 m 3 2 d 3 1 d 3 2 d 3 1 d 3 2 d 3 1 d 3 2 d 3 1 d 3 2 d 3 1 d 3 2 d 3 1 d 3 2 d 3 1 d 4 1 d 3 2 d 3 1 d 3 2 d 3 1 d 3 2 d 3 1 d 3 2 d 3 1 d 3 2 d 3 1 d 3 2 d
 3 1 d 3 2 d 3 1 d 3 2 d 4 1 d 3 2 d 3 1 d 3 2 d 3 1 d 3 1 d 3 2 d 3 1 d 3 2 d 3 1 d 3 2 d 3 1 d 3 2 d 3 1 d 3 2 d 3 1 d 3 2 d 4 1 d 3 2 d s 2050 811 m 3 1 d 3 2 d 3 1 d 3 2 d 3 1 d 3 1 d 3 2 d 3 1 d 3 2 d 3 1 d 3 2 d 3 1 d 3 2 d 3 1 d 4 2 d 3 1 d 3
 2 d 3 1 d 3 2 d 3 1 d 3 2 d 3 1 d 3 2 d 3 1 d 3 1 d 3 2 d 3 1 d 3 2 d 3 1 d 3 2 d 4 1 d 3 2 d 3 1 d 3 2 d 3 1 d 3 2 d 3 1 d 3 2 d 3 1 d 3 2 d 3 1 d 3 2 d 3 1 d 3 1 d 3 2 d 3 1 d 4 2 d 3 1 d 3 2 d s 2200 883 m 3 1 d s 0.49 0.6 0.82 c black 0.49 0.6
 0.82 c
 gsave  408 305 1837 677 C 1957.19 960.076 t 0 r /Helvetica-Bold findfont 25.6831 sf 0 0 m (4.5 < E < 5.0 GeV) show NC gr  0.52 0.76 0.64 c black 0.52 0.76 0.64 c
 gsave  408 305 1837 677 C 1942.94 923.04 t 0 r /Helvetica-Bold findfont 25.6831 sf 0 0 m 
 220 206 192 185 170 163 148 141 126 118 111 97 83 69 61 47 40 25 18
(A = 0.025, p = 1.000) K NC gr  1 0.6 1 c black 1 0.6 1 c
 gsave  408 305 1837 677 C 2242.08 791.991 t 90 r /Helvetica-Bold findfont 28.5368 sf 0 0 m (/dof=1.4) show NC gr  black 1 0.6 1 c
 gsave  408 305 1837 677 C 2230.68 780.596 t 90 r /Helvetica-Bold findfont 19.9758 sf 0 0 m (2) show NC gr  black 1 0.6 1 c
 gsave  408 305 1837 677 C 2242.08 763.503 t 90 r /Symbol findfont 28.5368 sf 0 0 m (c) show NC gr  black 3 lw 1 1 1 c 408 306 23 345 bf black 1 1 1 c black 306 229 84 391 bl 306 229 84 391 bl 84 391 m 306 X s 130 395 m -4 Y s 236 395 m -4 Y s 341
 395 m -4 Y s 130 395 m -4 Y s 341 395 m -4 Y s
 gsave  408 306 23 345 C 108.258 370.356 t 0 r /Helvetica findfont 22.8295 sf 0 0 m (\2550.5) show NC gr 
 gsave  408 306 23 345 C 225.062 370.356 t 0 r /Helvetica findfont 22.8295 sf 0 0 m (0) show NC gr 
 gsave  408 306 23 345 C 321.925 370.356 t 0 r /Helvetica findfont 22.8295 sf 0 0 m (0.5) show NC gr  84 620 m 306 X s 130 616 m 4 Y s 236 616 m 4 Y s 341 616 m 4 Y s 130 616 m 4 Y s 341 616 m 4 Y s 84 391 m 229 Y s 89 407 m -5 X s 87 414 m -3 X s 87
 421 m -3 X s 87 428 m -3 X s 87 434 m -3 X s 89 441 m -5 X s 87 448 m -3 X s 87 455 m -3 X s 87 462 m -3 X s 87 469 m -3 X s 89 476 m -5 X s 87 483 m -3 X s 87 490 m -3 X s 87 497 m -3 X s 87 504 m -3 X s 89 511 m -5 X s 87 518 m -3 X s 87 525 m -3
 X s 87 532 m -3 X s 87 539 m -3 X s 89 546 m -5 X s 87 553 m -3 X s 87 560 m -3 X s 87 567 m -3 X s 87 574 m -3 X s 89 581 m -5 X s 87 588 m -3 X s 87 595 m -3 X s 87 602 m -3 X s 87 609 m -3 X s 89 616 m -5 X s 89 407 m -5 X s 87 400 m -3 X s 87
 393 m -3 X s 89 616 m -5 X s
 gsave  408 306 23 345 C 28.4889 398.845 t 0 r /Helvetica findfont 22.8295 sf 0 0 m (\2550.03) show NC gr 
 gsave  408 306 23 345 C 28.4889 433.031 t 0 r /Helvetica findfont 22.8295 sf 0 0 m (\2550.02) show NC gr 
 gsave  408 306 23 345 C 31.3378 470.067 t 0 r /Helvetica findfont 22.8295 sf 0 0 m (\2550.01) show NC gr 
 gsave  408 306 23 345 C 65.5245 504.254 t 0 r /Helvetica findfont 22.8295 sf 0 0 m (0) show NC gr 
 gsave  408 306 23 345 C 37.0356 538.44 t 0 r /Helvetica findfont 22.8295 sf 0 0 m (0.01) show NC gr 
 gsave  408 306 23 345 C 34.1867 575.476 t 0 r /Helvetica findfont 22.8295 sf 0 0 m (0.02) show NC gr 
 gsave  408 306 23 345 C 34.1867 609.662 t 0 r /Helvetica findfont 22.8295 sf 0 0 m (0.03) show NC gr  390 391 m 229 Y s 385 407 m 5 X s 387 414 m 3 X s 387 421 m 3 X s 387 428 m 3 X s 387 434 m 3 X s 385 441 m 5 X s 387 448 m 3 X s 387 455 m 3 X s
 387 462 m 3 X s 387 469 m 3 X s 385 476 m 5 X s 387 483 m 3 X s 387 490 m 3 X s 387 497 m 3 X s 387 504 m 3 X s 385 511 m 5 X s 387 518 m 3 X s 387 525 m 3 X s 387 532 m 3 X s 387 539 m 3 X s 385 546 m 5 X s 387 553 m 3 X s 387 560 m 3 X s 387 567 m
 3 X s 387 574 m 3 X s 385 581 m 5 X s 387 588 m 3 X s 387 595 m 3 X s 387 602 m 3 X s 387 609 m 3 X s 385 616 m 5 X s 385 407 m 5 X s 387 400 m 3 X s 387 393 m 3 X s 385 616 m 5 X s /w 22 def /w2 {w 2 div} def /w3 {w 3 div} def 109 500 151 450 194
 512 215 522 257 532 278 492 320 546 362 561 8 { m21} R 109 511 m 30 Y s 104 541 m 11 X s 109 488 m -29 Y s 104 459 m 11 X s 151 461 m 29 Y s 146 490 m 11 X s 151 439 m -29 Y s 146 410 m 11 X s 194 524 m 29 Y s 188 553 m 11 X s 194 501 m -29 Y s 188
 472 m 11 X s 215 534 m 29 Y s 209 563 m 11 X s 215 511 m -29 Y s 209 482 m 11 X s 257 543 m 29 Y s 251 572 m 11 X s 257 520 m -28 Y s 251 492 m 11 X s 278 503 m 29 Y s 272 532 m 12 X s 278 481 m -29 Y s 272 452 m 12 X s 320 557 m 29 Y s 314 586 m 12
 X s 320 534 m -29 Y s 314 505 m 12 X s 362 572 m 29 Y s 357 601 m 11 X s 362 549 m -29 Y s 357 520 m 11 X s 9 lw 0.95 0.95 0.95 c black 85 466 m 3 1 d 4 1 d 3 1 d 3 1 d 3 1 d 3 1 d 3 1 d 3 X 3 1 d 3 1 d 3 1 d 3 1 d 3 1 d 3 1 d 3 1 d 3 1 d 3 1 d 4 1
 d 3 1 d 3 1 d 3 X 3 1 d 3 1 d 3 1 d 3 1 d 3 1 d 3 1 d 3 1 d 3 1 d 3 1 d 3 1 d 3 1 d 3 1 d 4 X 3 1 d 3 1 d 3 1 d 3 1 d 3 1 d 3 1 d 3 1 d 3 1 d 3 1 d 3 1 d 3 1 d 3 X 3 1 d 3 1 d 3 1 d s 235 511 m 4 1 d 3 1 d 3 1 d 3 1 d 3 1 d 3 1 d 3 1 d 3 1 d 3 1 d 3
 X 3 1 d 3 1 d 3 1 d 3 1 d 3 1 d 3 1 d 3 1 d 4 1 d 3 1 d 3 1 d 3 1 d 3 1 d 3 X 3 1 d 3 1 d 3 1 d 3 1 d 3 1 d 3 1 d 3 1 d 3 1 d 3 1 d 3 1 d 4 1 d 3 1 d 3 X 3 1 d 3 1 d 3 1 d 3 1 d 3 1 d 3 1 d 3 1 d 3 1 d 3 1 d 3 1 d 3 1 d 3 X 3 1 d s 385 556 m 4 1 d s
 0.49 0.6 0.82 c black 0.49 0.6 0.82 c
 gsave  408 306 23 345 C 142.445 629.605 t 0 r /Helvetica-Bold findfont 25.6831 sf 0 0 m (5.0 < E < 5.5 GeV) show NC gr  0.52 0.76 0.64 c black 0.52 0.76 0.64 c
 gsave  408 306 23 345 C 128.2 592.569 t 0 r /Helvetica-Bold findfont 25.6831 sf 0 0 m 
 220 206 192 185 170 163 148 141 126 118 111 97 83 69 61 47 40 25 18
(A = 0.018, p = 1.000) K NC gr  1 0.6 1 c black 1 0.6 1 c
 gsave  408 306 23 345 C 427.334 458.671 t 90 r /Helvetica-Bold findfont 28.5368 sf 0 0 m (/dof=0.3) show NC gr  black 1 0.6 1 c
 gsave  408 306 23 345 C 415.938 447.276 t 90 r /Helvetica-Bold findfont 19.9758 sf 0 0 m (2) show NC gr  black 1 0.6 1 c
 gsave  408 306 23 345 C 427.334 430.182 t 90 r /Symbol findfont 28.5368 sf 0 0 m (c) show NC gr  black 3 lw 1 1 1 c 408 306 476 345 bf black 1 1 1 c black 307 229 537 391 bl 307 229 537 391 bl 537 391 m 307 X s 584 395 m -4 Y s 689 395 m -4 Y s 795
 395 m -4 Y s 584 395 m -4 Y s 795 395 m -4 Y s
 gsave  408 306 476 345 C 561.231 370.356 t 0 r /Helvetica findfont 22.8295 sf 0 0 m (\2550.5) show NC gr 
 gsave  408 306 476 345 C 678.036 370.356 t 0 r /Helvetica findfont 22.8295 sf 0 0 m (0) show NC gr 
 gsave  408 306 476 345 C 774.898 370.356 t 0 r /Helvetica findfont 22.8295 sf 0 0 m (0.5) show NC gr  537 620 m 307 X s 584 616 m 4 Y s 689 616 m 4 Y s 795 616 m 4 Y s 584 616 m 4 Y s 795 616 m 4 Y s 537 391 m 229 Y s 543 405 m -6 X s 540 410 m -3 X
 s 540 415 m -3 X s 540 420 m -3 X s 540 425 m -3 X s 543 430 m -6 X s 540 435 m -3 X s 540 440 m -3 X s 540 445 m -3 X s 540 450 m -3 X s 543 455 m -6 X s 540 460 m -3 X s 540 465 m -3 X s 540 470 m -3 X s 540 474 m -3 X s 543 479 m -6 X s 540 484 m
 -3 X s 540 489 m -3 X s 540 494 m -3 X s 540 499 m -3 X s 543 504 m -6 X s 540 509 m -3 X s 540 514 m -3 X s 540 519 m -3 X s 540 524 m -3 X s 543 529 m -6 X s 540 534 m -3 X s 540 539 m -3 X s 540 544 m -3 X s 540 549 m -3 X s 543 554 m -6 X s 540
 559 m -3 X s 540 564 m -3 X s 540 569 m -3 X s 540 574 m -3 X s 543 579 m -6 X s 540 584 m -3 X s 540 589 m -3 X s 540 594 m -3 X s 540 599 m -3 X s 543 604 m -6 X s 543 405 m -6 X s 540 400 m -3 X s 540 395 m -3 X s 543 604 m -6 X s 540 609 m -3 X
 s 540 614 m -3 X s 540 619 m -3 X s
 gsave  408 306 476 345 C 481.462 398.845 t 0 r /Helvetica findfont 22.8295 sf 0 0 m (\2550.04) show NC gr 
 gsave  408 306 476 345 C 481.462 421.636 t 0 r /Helvetica findfont 22.8295 sf 0 0 m (\2550.03) show NC gr 
 gsave  408 306 476 345 C 481.462 447.276 t 0 r /Helvetica findfont 22.8295 sf 0 0 m (\2550.02) show NC gr 
 gsave  408 306 476 345 C 484.311 472.916 t 0 r /Helvetica findfont 22.8295 sf 0 0 m (\2550.01) show NC gr 
 gsave  408 306 476 345 C 518.498 498.556 t 0 r /Helvetica findfont 22.8295 sf 0 0 m (0) show NC gr 
 gsave  408 306 476 345 C 490.009 521.347 t 0 r /Helvetica findfont 22.8295 sf 0 0 m (0.01) show NC gr 
 gsave  408 306 476 345 C 487.16 546.987 t 0 r /Helvetica findfont 22.8295 sf 0 0 m (0.02) show NC gr 
 gsave  408 306 476 345 C 487.16 572.627 t 0 r /Helvetica findfont 22.8295 sf 0 0 m (0.03) show NC gr 
 gsave  408 306 476 345 C 487.16 595.418 t 0 r /Helvetica findfont 22.8295 sf 0 0 m (0.04) show NC gr  844 391 m 229 Y s 838 405 m 6 X s 841 410 m 3 X s 841 415 m 3 X s 841 420 m 3 X s 841 425 m 3 X s 838 430 m 6 X s 841 435 m 3 X s 841 440 m 3 X s
 841 445 m 3 X s 841 450 m 3 X s 838 455 m 6 X s 841 460 m 3 X s 841 465 m 3 X s 841 470 m 3 X s 841 474 m 3 X s 838 479 m 6 X s 841 484 m 3 X s 841 489 m 3 X s 841 494 m 3 X s 841 499 m 3 X s 838 504 m 6 X s 841 509 m 3 X s 841 514 m 3 X s 841 519 m
 3 X s 841 524 m 3 X s 838 529 m 6 X s 841 534 m 3 X s 841 539 m 3 X s 841 544 m 3 X s 841 549 m 3 X s 838 554 m 6 X s 841 559 m 3 X s 841 564 m 3 X s 841 569 m 3 X s 841 574 m 3 X s 838 579 m 6 X s 841 584 m 3 X s 841 589 m 3 X s 841 594 m 3 X s 841
 599 m 3 X s 838 604 m 6 X s 838 405 m 6 X s 841 400 m 3 X s 841 395 m 3 X s 838 604 m 6 X s 841 609 m 3 X s 841 614 m 3 X s 841 619 m 3 X s /w 23 def /w2 {w 2 div} def /w3 {w 3 div} def 563 508 605 529 647 445 668 482 710 453 731 565 774 472 816 533
 8 { m21} R 563 520 m 25 Y s 557 545 m 11 X s 563 497 m -25 Y s 557 472 m 11 X s 605 541 m 25 Y s 599 566 m 12 X s 605 518 m -25 Y s 599 493 m 12 X s 647 457 m 24 Y s 641 481 m 12 X s 647 434 m -24 Y s 641 410 m 12 X s 668 494 m 24 Y s 662 518 m 12 X
 s 668 471 m -24 Y s 662 447 m 12 X s 710 464 m 24 Y s 705 488 m 11 X s 710 441 m -24 Y s 705 417 m 11 X s 731 576 m 25 Y s 726 601 m 11 X s 731 553 m -25 Y s 726 528 m 11 X s 774 483 m 24 Y s 768 507 m 11 X s 774 460 m -23 Y s 768 437 m 11 X s 816
 544 m 25 Y s 810 569 m 11 X s 816 521 m -24 Y s 810 497 m 11 X s 1 0 0 c 9 lw 0.95 0.95 0.95 c black 1 0 0 c 539 519 m 3 X 3 -1 d 3 -1 d 3 X 3 -1 d 3 X 3 -1 d 3 X 4 -1 d 3 X 3 -1 d 3 X 3 -1 d 3 X 3 -1 d 6 X 3 -1 d 6 X 3 -1 d 6 X 3 -1 d 7 X 3 -1 d 9
 X 3 -1 d 12 X 3 -1 d 22 X 3 -1 d 15 X s 689 504 m 15 X 3 1 d 22 X 3 1 d 12 X 3 1 d 9 X 3 1 d 10 X 3 1 d 6 X 3 1 d 3 X 3 1 d 6 X 3 1 d 3 X 3 1 d 3 X 3 1 d 3 X 4 1 d 3 X 3 1 d 3 X 3 1 d 3 X 3 1 d 3 X 3 1 d s 839 519 m 3 1 d s 0.49 0.6 0.82 c black
 0.49 0.6 0.82 c
 gsave  408 306 476 345 C 595.418 629.605 t 0 r /Helvetica-Bold findfont 25.6831 sf 0 0 m (5.5 < E < 6.0 GeV) show NC gr  0.52 0.76 0.64 c black 0.52 0.76 0.64 c
 gsave  408 306 476 345 C 581.174 592.569 t 0 r /Helvetica-Bold findfont 25.6831 sf 0 0 m 
 220 206 192 185 170 163 148 141 125 118 111 97 83 69 61 47 40 25 18
(A = 0.012, p = 2.000) K NC gr  1 0.6 1 c black 1 0.6 1 c
 gsave  408 306 476 345 C 883.156 458.671 t 90 r /Helvetica-Bold findfont 28.5368 sf 0 0 m (/dof=1.4) show NC gr  black 1 0.6 1 c
 gsave  408 306 476 345 C 871.76 447.276 t 90 r /Helvetica-Bold findfont 19.9758 sf 0 0 m (2) show NC gr  black 1 0.6 1 c
 gsave  408 306 476 345 C 883.156 430.182 t 90 r /Symbol findfont 28.5368 sf 0 0 m (c) show NC gr  black 3 lw 1 1 1 c 408 306 930 345 bf black 1 1 1 c black 306 229 991 391 bl 306 229 991 391 bl 991 391 m 306 X s 1037 395 m -4 Y s 1143 395 m -4 Y s
 1248 395 m -4 Y s 1037 395 m -4 Y s 1248 395 m -4 Y s
 gsave  408 306 930 345 C 1017.05 370.356 t 0 r /Helvetica findfont 22.8295 sf 0 0 m (\2550.5) show NC gr 
 gsave  408 306 930 345 C 1133.86 370.356 t 0 r /Helvetica findfont 22.8295 sf 0 0 m (0) show NC gr 
 gsave  408 306 930 345 C 1230.72 370.356 t 0 r /Helvetica findfont 22.8295 sf 0 0 m (0.5) show NC gr  991 620 m 306 X s 1037 616 m 4 Y s 1143 616 m 4 Y s 1248 616 m 4 Y s 1037 616 m 4 Y s 1248 616 m 4 Y s 991 391 m 229 Y s 997 398 m -6 X s 994 404 m
 -3 X s 994 410 m -3 X s 994 415 m -3 X s 994 421 m -3 X s 997 427 m -6 X s 994 432 m -3 X s 994 438 m -3 X s 994 444 m -3 X s 994 449 m -3 X s 997 455 m -6 X s 994 461 m -3 X s 994 467 m -3 X s 994 472 m -3 X s 994 478 m -3 X s 997 484 m -6 X s 994
 489 m -3 X s 994 495 m -3 X s 994 501 m -3 X s 994 507 m -3 X s 997 512 m -6 X s 994 518 m -3 X s 994 524 m -3 X s 994 529 m -3 X s 994 535 m -3 X s 997 541 m -6 X s 994 547 m -3 X s 994 552 m -3 X s 994 558 m -3 X s 994 564 m -3 X s 997 569 m -6 X
 s 994 575 m -3 X s 994 581 m -3 X s 994 586 m -3 X s 994 592 m -3 X s 997 598 m -6 X s 997 398 m -6 X s 994 392 m -3 X s 997 598 m -6 X s 994 604 m -3 X s 994 609 m -3 X s 994 615 m -3 X s
 gsave  408 306 930 345 C 937.285 390.298 t 0 r /Helvetica findfont 22.8295 sf 0 0 m (\2550.03) show NC gr 
 gsave  408 306 930 345 C 937.285 418.787 t 0 r /Helvetica findfont 22.8295 sf 0 0 m (\2550.02) show NC gr 
 gsave  408 306 930 345 C 940.134 447.276 t 0 r /Helvetica findfont 22.8295 sf 0 0 m (\2550.01) show NC gr 
 gsave  408 306 930 345 C 974.32 475.765 t 0 r /Helvetica findfont 22.8295 sf 0 0 m (0) show NC gr 
 gsave  408 306 930 345 C 945.832 504.254 t 0 r /Helvetica findfont 22.8295 sf 0 0 m (0.01) show NC gr 
 gsave  408 306 930 345 C 942.983 532.742 t 0 r /Helvetica findfont 22.8295 sf 0 0 m (0.02) show NC gr 
 gsave  408 306 930 345 C 942.983 561.231 t 0 r /Helvetica findfont 22.8295 sf 0 0 m (0.03) show NC gr 
 gsave  408 306 930 345 C 942.983 589.72 t 0 r /Helvetica findfont 22.8295 sf 0 0 m (0.04) show NC gr  1297 391 m 229 Y s 1292 398 m 5 X s 1294 404 m 3 X s 1294 410 m 3 X s 1294 415 m 3 X s 1294 421 m 3 X s 1292 427 m 5 X s 1294 432 m 3 X s 1294 438
 m 3 X s 1294 444 m 3 X s 1294 449 m 3 X s 1292 455 m 5 X s 1294 461 m 3 X s 1294 467 m 3 X s 1294 472 m 3 X s 1294 478 m 3 X s 1292 484 m 5 X s 1294 489 m 3 X s 1294 495 m 3 X s 1294 501 m 3 X s 1294 507 m 3 X s 1292 512 m 5 X s 1294 518 m 3 X s
 1294 524 m 3 X s 1294 529 m 3 X s 1294 535 m 3 X s 1292 541 m 5 X s 1294 547 m 3 X s 1294 552 m 3 X s 1294 558 m 3 X s 1294 564 m 3 X s 1292 569 m 5 X s 1294 575 m 3 X s 1294 581 m 3 X s 1294 586 m 3 X s 1294 592 m 3 X s 1292 598 m 5 X s 1292 398 m
 5 X s 1294 392 m 3 X s 1292 598 m 5 X s 1294 604 m 3 X s 1294 609 m 3 X s 1294 615 m 3 X s 1016 550 1058 473 1101 465 1122 479 1164 460 1185 458 1227 533 1269 462 8 { m21} R 1016 561 m 40 Y s 1011 601 m 11 X s 1016 538 m -40 Y s 1011 498 m 11 X s
 1058 484 m 38 Y s 1053 522 m 11 X s 1058 461 m -38 Y s 1053 423 m 11 X s 1101 476 m 38 Y s 1095 514 m 11 X s 1101 453 m -37 Y s 1095 416 m 11 X s 1122 490 m 39 Y s 1116 529 m 11 X s 1122 468 m -39 Y s 1116 429 m 11 X s 1164 472 m 37 Y s 1158 509 m
 12 X s 1164 449 m -37 Y s 1158 412 m 12 X s 1185 470 m 37 Y s 1179 507 m 12 X s 1185 447 m -37 Y s 1179 410 m 12 X s 1227 545 m 38 Y s 1221 583 m 12 X s 1227 522 m -38 Y s 1221 484 m 12 X s 1269 474 m 37 Y s 1264 511 m 11 X s 1269 451 m -37 Y s 1264
 414 m 11 X s 1 0 0 c 9 lw 0.95 0.95 0.95 c black 1 0 0 c 993 513 m 3 -1 d 3 -1 d 3 -1 d 3 -1 d 3 -2 d 3 -1 d 3 -1 d 3 -1 d 3 -1 d 3 -1 d 3 -1 d 3 X 3 -1 d 3 -1 d 3 -1 d 4 -1 d 3 -1 d 3 X 3 -1 d 3 -1 d 3 -1 d 3 X 3 -1 d 3 -1 d 3 X 3 -1 d 3 X 3 -1 d 3
 X 3 -1 d 3 X 3 -1 d 7 X 3 -1 d 6 X 3 -1 d 9 X 3 -1 d 22 X s 1143 484 m 21 X 3 1 d 12 X 3 1 d 6 X 4 1 d 3 X 3 1 d 3 X 3 1 d 3 X 3 1 d 3 X 3 1 d 3 X 3 1 d 3 1 d 3 X 3 1 d 3 1 d 3 X 3 1 d 4 1 d 3 1 d 3 1 d 3 1 d 3 X 3 1 d 3 1 d 3 1 d 3 1 d 3 1 d 3 1 d
 3 1 d 3 1 d 3 2 d 3 1 d 3 1 d 4 1 d s 1293 513 m 3 1 d s 0.49 0.6 0.82 c black 0.49 0.6 0.82 c
 gsave  408 306 930 345 C 1051.24 629.605 t 0 r /Helvetica-Bold findfont 25.6831 sf 0 0 m (6.0 < E < 6.5 GeV) show NC gr  0.52 0.76 0.64 c black 0.52 0.76 0.64 c
 gsave  408 306 930 345 C 1037 592.569 t 0 r /Helvetica-Bold findfont 25.6831 sf 0 0 m 
 220 206 192 185 170 163 148 141 126 118 111 97 83 69 61 47 40 25 18
(A = 0.020, p = 2.000) K NC gr  1 0.6 1 c black 1 0.6 1 c
 gsave  408 306 930 345 C 1336.13 458.671 t 90 r /Helvetica-Bold findfont 28.5368 sf 0 0 m (/dof=0.4) show NC gr  black 1 0.6 1 c
 gsave  408 306 930 345 C 1324.73 447.276 t 90 r /Helvetica-Bold findfont 19.9758 sf 0 0 m (2) show NC gr  black 1 0.6 1 c
 gsave  408 306 930 345 C 1336.13 430.182 t 90 r /Symbol findfont 28.5368 sf 0 0 m (c) show NC gr  black 3 lw 1 1 1 c 408 306 1383 345 bf black 1 1 1 c black 306 229 1445 391 bl 306 229 1445 391 bl 1445 391 m 306 X s 1491 395 m -4 Y s 1596 395 m -4 Y
 s 1702 395 m -4 Y s 1491 395 m -4 Y s 1702 395 m -4 Y s
 gsave  408 306 1383 345 C 1470.03 370.356 t 0 r /Helvetica findfont 22.8295 sf 0 0 m (\2550.5) show NC gr 
 gsave  408 306 1383 345 C 1586.83 370.356 t 0 r /Helvetica findfont 22.8295 sf 0 0 m (0) show NC gr 
 gsave  408 306 1383 345 C 1683.69 370.356 t 0 r /Helvetica findfont 22.8295 sf 0 0 m (0.5) show NC gr  1445 620 m 306 X s 1491 616 m 4 Y s 1596 616 m 4 Y s 1702 616 m 4 Y s 1491 616 m 4 Y s 1702 616 m 4 Y s 1445 391 m 229 Y s 1450 420 m -5 X s 1447
 431 m -2 X s 1447 442 m -2 X s 1447 453 m -2 X s 1450 464 m -5 X s 1447 474 m -2 X s 1447 485 m -2 X s 1447 496 m -2 X s 1450 507 m -5 X s 1447 518 m -2 X s 1447 529 m -2 X s 1447 540 m -2 X s 1450 551 m -5 X s 1447 562 m -2 X s 1447 573 m -2 X s
 1447 584 m -2 X s 1450 595 m -5 X s 1450 420 m -5 X s 1447 409 m -2 X s 1447 398 m -2 X s 1450 595 m -5 X s 1447 606 m -2 X s 1447 617 m -2 X s
 gsave  408 306 1383 345 C 1390.26 413.089 t 0 r /Helvetica findfont 22.8295 sf 0 0 m (\2550.04) show NC gr 
 gsave  408 306 1383 345 C 1390.26 455.822 t 0 r /Helvetica findfont 22.8295 sf 0 0 m (\2550.02) show NC gr 
 gsave  408 306 1383 345 C 1427.29 501.405 t 0 r /Helvetica findfont 22.8295 sf 0 0 m (0) show NC gr 
 gsave  408 306 1383 345 C 1395.96 544.138 t 0 r /Helvetica findfont 22.8295 sf 0 0 m (0.02) show NC gr 
 gsave  408 306 1383 345 C 1395.96 586.871 t 0 r /Helvetica findfont 22.8295 sf 0 0 m (0.04) show NC gr  1751 391 m 229 Y s 1745 420 m 6 X s 1748 431 m 3 X s 1748 442 m 3 X s 1748 453 m 3 X s 1745 464 m 6 X s 1748 474 m 3 X s 1748 485 m 3 X s 1748
 496 m 3 X s 1745 507 m 6 X s 1748 518 m 3 X s 1748 529 m 3 X s 1748 540 m 3 X s 1745 551 m 6 X s 1748 562 m 3 X s 1748 573 m 3 X s 1748 584 m 3 X s 1745 595 m 6 X s 1745 420 m 6 X s 1748 409 m 3 X s 1748 398 m 3 X s 1745 595 m 6 X s 1748 606 m 3 X s
 1748 617 m 3 X s 1470 536 1512 556 1554 547 1575 519 1617 514 1639 486 1681 452 1723 463 8 { m21} R 1470 547 m 33 Y s 1464 580 m 12 X s 1470 524 m -32 Y s 1464 492 m 12 X s 1512 568 m 33 Y s 1506 601 m 12 X s 1512 545 m -33 Y s 1506 512 m 12 X s
 1554 558 m 33 Y s 1548 591 m 12 X s 1554 535 m -32 Y s 1548 503 m 12 X s 1575 531 m 32 Y s 1570 563 m 11 X s 1575 508 m -32 Y s 1570 476 m 11 X s 1617 525 m 32 Y s 1612 557 m 11 X s 1617 503 m -32 Y s 1612 471 m 11 X s 1639 497 m 31 Y s 1633 528 m
 11 X s 1639 474 m -31 Y s 1633 443 m 11 X s 1681 464 m 30 Y s 1675 494 m 11 X s 1681 441 m -31 Y s 1675 410 m 11 X s 1723 474 m 31 Y s 1717 505 m 12 X s 1723 451 m -30 Y s 1717 421 m 12 X s 9 lw 0.95 0.95 0.95 c black 1446 569 m 3 -1 d 3 -2 d 3 -1 d
 3 -1 d 3 -1 d 3 -2 d 3 -1 d 4 -1 d 3 -1 d 3 -2 d 3 -1 d 3 -1 d 3 -1 d 3 -2 d 3 -1 d 3 -1 d 3 -1 d 3 -2 d 3 -1 d 3 -1 d 3 -1 d 3 -2 d 3 -1 d 4 -1 d 3 -1 d 3 -2 d 3 -1 d 3 -1 d 3 -1 d 3 -2 d 3 -1 d 3 -1 d 3 -1 d 3 -2 d 3 -1 d 3 -1 d 3 -1 d 3 -2 d 3 -1
 d 4 -1 d 3 -1 d 3 -2 d 3 -1 d 3 -1 d 3 -1 d 3 -2 d 3 -1 d 3 -1 d 3 -1 d s 1596 508 m 3 -2 d 3 -1 d 3 -1 d 3 -1 d 3 -2 d 3 -1 d 4 -1 d 3 -1 d 3 -2 d 3 -1 d 3 -1 d 3 -2 d 3 -1 d 3 -1 d 3 -1 d 3 -2 d 3 -1 d 3 -1 d 3 -1 d 3 -2 d 3 -1 d 3 -1 d 3 -1 d 4
 -2 d 3 -1 d 3 -1 d 3 -1 d 3 -2 d 3 -1 d 3 -1 d 3 -1 d 3 -2 d 3 -1 d 3 -1 d 3 -1 d 3 -2 d 3 -1 d 3 -1 d 3 -1 d 4 -2 d 3 -1 d 3 -1 d 3 -1 d 3 -2 d 3 -1 d 3 -1 d 3 -1 d 3 -2 d 3 -1 d s 1746 446 m 3 -1 d s 0.49 0.6 0.82 c black 0.49 0.6 0.82 c
 gsave  408 306 1383 345 C 1504.21 629.605 t 0 r /Helvetica-Bold findfont 25.6831 sf 0 0 m (6.5 < E < 7.0 GeV) show NC gr  0.52 0.76 0.64 c black 0.52 0.76 0.64 c
 gsave  408 306 1383 345 C 1484.27 592.569 t 0 r /Helvetica-Bold findfont 25.6831 sf 0 0 m 
 228 214 200 193 178 171 156 149 133 126 119 105 91 76 69 55 47 39 25 17
(A = \2550.039, p = 1.000) K NC gr  1 0.6 1 c black 1 0.6 1 c
 gsave  408 306 1383 345 C 1789.1 458.671 t 90 r /Helvetica-Bold findfont 28.5368 sf 0 0 m (/dof=0.1) show NC gr  black 1 0.6 1 c
 gsave  408 306 1383 345 C 1777.71 447.276 t 90 r /Helvetica-Bold findfont 19.9758 sf 0 0 m (2) show NC gr  black 1 0.6 1 c
 gsave  408 306 1383 345 C 1789.1 430.182 t 90 r /Symbol findfont 28.5368 sf 0 0 m (c) show NC gr  black 3 lw 1 1 1 c 408 306 1837 345 bf black 1 1 1 c black 306 229 1898 391 bl 306 229 1898 391 bl 1898 391 m 306 X s 1944 395 m -4 Y s 2050 395 m -4 Y
 s 2155 395 m -4 Y s 1944 395 m -4 Y s 2155 395 m -4 Y s
 gsave  408 306 1837 345 C 1923 370.356 t 0 r /Helvetica findfont 22.8295 sf 0 0 m (\2550.5) show NC gr 
 gsave  408 306 1837 345 C 2039.81 370.356 t 0 r /Helvetica findfont 22.8295 sf 0 0 m (0) show NC gr 
 gsave  408 306 1837 345 C 2136.67 370.356 t 0 r /Helvetica findfont 22.8295 sf 0 0 m (0.5) show NC gr  1898 620 m 306 X s 1944 616 m 4 Y s 2050 616 m 4 Y s 2155 616 m 4 Y s 1944 616 m 4 Y s 2155 616 m 4 Y s 1898 391 m 229 Y s 1904 411 m -6 X s 1901
 418 m -3 X s 1901 426 m -3 X s 1901 433 m -3 X s 1904 440 m -6 X s 1901 448 m -3 X s 1901 455 m -3 X s 1901 463 m -3 X s 1904 470 m -6 X s 1901 477 m -3 X s 1901 485 m -3 X s 1901 492 m -3 X s 1904 499 m -6 X s 1901 507 m -3 X s 1901 514 m -3 X s
 1901 521 m -3 X s 1904 529 m -6 X s 1901 536 m -3 X s 1901 543 m -3 X s 1901 551 m -3 X s 1904 558 m -6 X s 1901 565 m -3 X s 1901 573 m -3 X s 1901 580 m -3 X s 1904 587 m -6 X s 1901 595 m -3 X s 1901 602 m -3 X s 1901 610 m -3 X s 1904 617 m -6 X
 s 1904 411 m -6 X s 1901 404 m -3 X s 1901 396 m -3 X s 1904 617 m -6 X s
 gsave  408 306 1837 345 C 1843.23 404.542 t 0 r /Helvetica findfont 22.8295 sf 0 0 m (\2550.06) show NC gr 
 gsave  408 306 1837 345 C 1843.23 433.031 t 0 r /Helvetica findfont 22.8295 sf 0 0 m (\2550.04) show NC gr 
 gsave  408 306 1837 345 C 1843.23 461.52 t 0 r /Helvetica findfont 22.8295 sf 0 0 m (\2550.02) show NC gr 
 gsave  408 306 1837 345 C 1880.27 492.858 t 0 r /Helvetica findfont 22.8295 sf 0 0 m (0) show NC gr 
 gsave  408 306 1837 345 C 1848.93 521.347 t 0 r /Helvetica findfont 22.8295 sf 0 0 m (0.02) show NC gr 
 gsave  408 306 1837 345 C 1848.93 549.836 t 0 r /Helvetica findfont 22.8295 sf 0 0 m (0.04) show NC gr 
 gsave  408 306 1837 345 C 1848.93 581.174 t 0 r /Helvetica findfont 22.8295 sf 0 0 m (0.06) show NC gr 
 gsave  408 306 1837 345 C 1848.93 609.662 t 0 r /Helvetica findfont 22.8295 sf 0 0 m (0.08) show NC gr  2204 391 m 229 Y s 2199 411 m 5 X s 2201 418 m 3 X s 2201 426 m 3 X s 2201 433 m 3 X s 2199 440 m 5 X s 2201 448 m 3 X s 2201 455 m 3 X s 2201
 463 m 3 X s 2199 470 m 5 X s 2201 477 m 3 X s 2201 485 m 3 X s 2201 492 m 3 X s 2199 499 m 5 X s 2201 507 m 3 X s 2201 514 m 3 X s 2201 521 m 3 X s 2199 529 m 5 X s 2201 536 m 3 X s 2201 543 m 3 X s 2201 551 m 3 X s 2199 558 m 5 X s 2201 565 m 3 X s
 2201 573 m 3 X s 2201 580 m 3 X s 2199 587 m 5 X s 2201 595 m 3 X s 2201 602 m 3 X s 2201 610 m 3 X s 2199 617 m 5 X s 2199 411 m 5 X s 2201 404 m 3 X s 2201 396 m 3 X s 2199 617 m 5 X s 1923 534 1966 502 2008 568 2029 512 2071 461 2092 513 2134 441
 2176 441 8 { m21} R 1923 545 m 21 Y s 1918 566 m 11 X s 1923 522 m -21 Y s 1918 501 m 11 X s 1966 513 m 21 Y s 1960 534 m 11 X s 1966 491 m -21 Y s 1960 470 m 11 X s 2008 579 m 22 Y s 2002 601 m 11 X s 2008 556 m -22 Y s 2002 534 m 11 X s 2029 523 m
 21 Y s 2023 544 m 11 X s 2029 500 m -20 Y s 2023 480 m 11 X s 2071 473 m 19 Y s 2065 492 m 12 X s 2071 450 m -20 Y s 2065 430 m 12 X s 2092 524 m 21 Y s 2086 545 m 12 X s 2092 501 m -20 Y s 2086 481 m 12 X s 2134 452 m 19 Y s 2129 471 m 11 X s 2134
 429 m -19 Y s 2129 410 m 11 X s 2176 452 m 20 Y s 2171 472 m 11 X s 2176 430 m -20 Y s 2171 410 m 11 X s 9 lw 0.95 0.95 0.95 c black 1900 560 m 3 -1 d 3 -1 d 3 -2 d 3 -1 d 3 -1 d 3 -1 d 3 -2 d 3 -1 d 3 -1 d 3 -1 d 3 -1 d 3 -2 d 3 -1 d 3 -1 d 4 -1 d
 3 -2 d 3 -1 d 3 -1 d 3 -1 d 3 -2 d 3 -1 d 3 -1 d 3 -1 d 3 -2 d 3 -1 d 3 -1 d 3 -1 d 3 -2 d 3 -1 d 3 -1 d 4 -1 d 3 -2 d 3 -1 d 3 -1 d 3 -1 d 3 -2 d 3 -1 d 3 -1 d 3 -1 d 3 -1 d 3 -2 d 3 -1 d 3 -1 d 3 -1 d 3 -2 d 3 -1 d 3 -1 d 4 -1 d 3 -2 d s 2050 499
 m 3 -1 d 3 -1 d 3 -1 d 3 -2 d 3 -1 d 3 -1 d 3 -1 d 3 -2 d 3 -1 d 3 -1 d 3 -1 d 3 -2 d 3 -1 d 3 -1 d 4 -1 d 3 -1 d 3 -2 d 3 -1 d 3 -1 d 3 -1 d 3 -2 d 3 -1 d 3 -1 d 3 -1 d 3 -2 d 3 -1 d 3 -1 d 3 -1 d 3 -2 d 3 -1 d 4 -1 d 3 -1 d 3 -2 d 3 -1 d 3 -1 d 3
 -1 d 3 -2 d 3 -1 d 3 -1 d 3 -1 d 3 -1 d 3 -2 d 3 -1 d 3 -1 d 3 -1 d 3 -2 d 4 -1 d 3 -1 d 3 -1 d s 2200 439 m 3 -2 d s 0.49 0.6 0.82 c black 0.49 0.6 0.82 c
 gsave  408 306 1837 345 C 1957.19 629.605 t 0 r /Helvetica-Bold findfont 25.6831 sf 0 0 m (7.0 < E < 7.5 GeV) show NC gr  0.52 0.76 0.64 c black 0.52 0.76 0.64 c
 gsave  408 306 1837 345 C 1937.25 592.569 t 0 r /Helvetica-Bold findfont 25.6831 sf 0 0 m 
 228 214 200 193 178 171 156 149 134 126 119 105 91 77 69 55 47 39 25 17
(A = \2550.058, p = 1.000) K NC gr  1 0.6 1 c black 1 0.6 1 c
 gsave  408 306 1837 345 C 2242.08 458.671 t 90 r /Helvetica-Bold findfont 28.5368 sf 0 0 m (/dof=0.9) show NC gr  black 1 0.6 1 c
 gsave  408 306 1837 345 C 2230.68 447.276 t 90 r /Helvetica-Bold findfont 19.9758 sf 0 0 m (2) show NC gr  black 1 0.6 1 c
 gsave  408 306 1837 345 C 2242.08 430.182 t 90 r /Symbol findfont 28.5368 sf 0 0 m (c) show NC gr  black 3 lw 1 1 1 c 408 306 23 13 bf black 1 1 1 c black 306 229 84 59 bl 306 229 84 59 bl 84 59 m 306 X s 130 63 m -4 Y s 236 63 m -4 Y s 341 63 m -4
 Y s 130 63 m -4 Y s 341 63 m -4 Y s
 gsave  408 306 23 13 C 108.258 39.8845 t 0 r /Helvetica findfont 22.8295 sf 0 0 m (\2550.5) show NC gr 
 gsave  408 306 23 13 C 225.062 39.8845 t 0 r /Helvetica findfont 22.8295 sf 0 0 m (0) show NC gr 
 gsave  408 306 23 13 C 321.925 39.8845 t 0 r /Helvetica findfont 22.8295 sf 0 0 m (0.5) show NC gr  84 288 m 306 X s 130 284 m 4 Y s 236 284 m 4 Y s 341 284 m 4 Y s 130 284 m 4 Y s 341 284 m 4 Y s 84 59 m 229 Y s 89 60 m -5 X s 87 69 m -3 X s 87 77
 m -3 X s 87 86 m -3 X s 89 95 m -5 X s 87 103 m -3 X s 87 112 m -3 X s 87 121 m -3 X s 89 129 m -5 X s 87 138 m -3 X s 87 147 m -3 X s 87 155 m -3 X s 89 164 m -5 X s 87 172 m -3 X s 87 181 m -3 X s 87 190 m -3 X s 89 198 m -5 X s 87 207 m -3 X s 87
 216 m -3 X s 87 224 m -3 X s 89 233 m -5 X s 87 242 m -3 X s 87 250 m -3 X s 87 259 m -3 X s 89 268 m -5 X s 89 60 m -5 X s 89 268 m -5 X s 87 276 m -3 X s 87 285 m -3 X s
 gsave  408 306 23 13 C 28.4889 54.1289 t 0 r /Helvetica findfont 22.8295 sf 0 0 m (\2550.04) show NC gr 
 gsave  408 306 23 13 C 28.4889 88.3156 t 0 r /Helvetica findfont 22.8295 sf 0 0 m (\2550.02) show NC gr 
 gsave  408 306 23 13 C 65.5245 122.502 t 0 r /Helvetica findfont 22.8295 sf 0 0 m (0) show NC gr 
 gsave  408 306 23 13 C 34.1867 156.689 t 0 r /Helvetica findfont 22.8295 sf 0 0 m (0.02) show NC gr 
 gsave  408 306 23 13 C 34.1867 190.876 t 0 r /Helvetica findfont 22.8295 sf 0 0 m (0.04) show NC gr 
 gsave  408 306 23 13 C 34.1867 225.062 t 0 r /Helvetica findfont 22.8295 sf 0 0 m (0.06) show NC gr 
 gsave  408 306 23 13 C 34.1867 259.249 t 0 r /Helvetica findfont 22.8295 sf 0 0 m (0.08) show NC gr  390 59 m 229 Y s 385 60 m 5 X s 387 69 m 3 X s 387 77 m 3 X s 387 86 m 3 X s 385 95 m 5 X s 387 103 m 3 X s 387 112 m 3 X s 387 121 m 3 X s 385 129
 m 5 X s 387 138 m 3 X s 387 147 m 3 X s 387 155 m 3 X s 385 164 m 5 X s 387 172 m 3 X s 387 181 m 3 X s 387 190 m 3 X s 385 198 m 5 X s 387 207 m 3 X s 387 216 m 3 X s 387 224 m 3 X s 385 233 m 5 X s 387 242 m 3 X s 387 250 m 3 X s 387 259 m 3 X s
 385 268 m 5 X s 385 60 m 5 X s 385 268 m 5 X s 387 276 m 3 X s 387 285 m 3 X s /w 22 def /w2 {w 2 div} def /w3 {w 3 div} def 109 129 151 151 194 147 215 157 257 226 278 119 320 181 362 128 8 { m21} R 109 141 m 29 Y s 104 170 m 11 X s 109 118 m -30 Y
 s 104 88 m 11 X s 151 162 m 30 Y s 146 192 m 11 X s 151 139 m -30 Y s 146 109 m 11 X s 194 159 m 30 Y s 188 189 m 11 X s 194 136 m -30 Y s 188 106 m 11 X s 215 168 m 31 Y s 209 199 m 11 X s 215 146 m -31 Y s 209 115 m 11 X s 257 237 m 32 Y s 251 269
 m 11 X s 257 215 m -32 Y s 251 183 m 11 X s 278 130 m 30 Y s 272 160 m 12 X s 278 108 m -30 Y s 272 78 m 12 X s 320 193 m 31 Y s 314 224 m 12 X s 320 170 m -31 Y s 314 139 m 12 X s 362 139 m 30 Y s 357 169 m 11 X s 362 116 m -30 Y s 357 86 m 11 X s
 1 0 0 c 9 lw 0.95 0.95 0.95 c black 1 0 0 c 85 149 m 3 -1 d 4 -1 d 3 X 3 -1 d 3 -1 d 3 -1 d 3 X 3 -1 d 3 -1 d 3 X 3 -1 d 3 -1 d 3 X 3 -1 d 3 X 3 -1 d 3 X 4 -1 d 3 X 3 -1 d 3 X 3 -1 d 3 X 3 -1 d 6 X 3 -1 d 6 X 3 -1 d 6 X 3 -1 d 10 X 3 -1 d 18 X 3 -1
 d 15 X s 235 129 m 16 X 3 1 d 18 X 3 1 d 9 X 3 1 d 10 X 3 1 d 3 X 3 1 d 6 X 3 1 d 3 X 3 1 d 3 X 3 1 d 3 X 3 1 d 3 X 4 1 d 3 X 3 1 d 3 X 3 1 d 3 1 d 3 X 3 1 d 3 1 d 3 X 3 1 d 3 1 d 3 X 3 1 d 3 1 d 3 1 d s 385 149 m 4 1 d s 0.49 0.6 0.82 c black 0.49
 0.6 0.82 c
 gsave  408 306 23 13 C 142.445 296.285 t 0 r /Helvetica-Bold findfont 25.6831 sf 0 0 m (7.5 < E < 8.0 GeV) show NC gr  0.52 0.76 0.64 c black 0.52 0.76 0.64 c
 gsave  408 306 23 13 C 128.2 259.249 t 0 r /Helvetica-Bold findfont 25.6831 sf 0 0 m 
 220 206 192 185 170 163 148 141 126 118 111 97 83 69 61 47 40 25 18
(A = 0.022, p = 2.000) K NC gr  1 0.6 1 c black 1 0.6 1 c
 gsave  408 306 23 13 C 427.334 128.2 t 90 r /Helvetica-Bold findfont 28.5368 sf 0 0 m (/dof=1.0) show NC gr  black 1 0.6 1 c
 gsave  408 306 23 13 C 415.938 116.804 t 90 r /Helvetica-Bold findfont 19.9758 sf 0 0 m (2) show NC gr  black 1 0.6 1 c
 gsave  408 306 23 13 C 427.334 99.7112 t 90 r /Symbol findfont 28.5368 sf 0 0 m (c) show NC gr  black 3 lw 1 1 1 c 408 306 476 13 bf black 1 1 1 c black 307 229 537 59 bl 307 229 537 59 bl 537 59 m 307 X s 584 63 m -4 Y s 689 63 m -4 Y s 795 63 m -4
 Y s 584 63 m -4 Y s 795 63 m -4 Y s
 gsave  408 306 476 13 C 561.231 39.8845 t 0 r /Helvetica findfont 22.8295 sf 0 0 m (\2550.5) show NC gr 
 gsave  408 306 476 13 C 678.036 39.8845 t 0 r /Helvetica findfont 22.8295 sf 0 0 m (0) show NC gr 
 gsave  408 306 476 13 C 774.898 39.8845 t 0 r /Helvetica findfont 22.8295 sf 0 0 m (0.5) show NC gr  537 288 m 307 X s 584 284 m 4 Y s 689 284 m 4 Y s 795 284 m 4 Y s 584 284 m 4 Y s 795 284 m 4 Y s 537 59 m 229 Y s 543 86 m -6 X s 540 93 m -3 X s
 540 101 m -3 X s 540 108 m -3 X s 543 115 m -6 X s 540 123 m -3 X s 540 130 m -3 X s 540 138 m -3 X s 543 145 m -6 X s 540 153 m -3 X s 540 160 m -3 X s 540 168 m -3 X s 543 175 m -6 X s 540 182 m -3 X s 540 190 m -3 X s 540 197 m -3 X s 543 205 m
 -6 X s 540 212 m -3 X s 540 220 m -3 X s 540 227 m -3 X s 543 234 m -6 X s 540 242 m -3 X s 540 249 m -3 X s 540 257 m -3 X s 543 264 m -6 X s 543 86 m -6 X s 540 78 m -3 X s 540 71 m -3 X s 540 63 m -3 X s 543 264 m -6 X s 540 272 m -3 X s 540 279
 m -3 X s 540 286 m -3 X s
 gsave  408 306 476 13 C 481.462 79.7689 t 0 r /Helvetica findfont 22.8295 sf 0 0 m (\2550.06) show NC gr 
 gsave  408 306 476 13 C 481.462 108.258 t 0 r /Helvetica findfont 22.8295 sf 0 0 m (\2550.04) show NC gr 
 gsave  408 306 476 13 C 481.462 136.747 t 0 r /Helvetica findfont 22.8295 sf 0 0 m (\2550.02) show NC gr 
 gsave  408 306 476 13 C 518.498 168.085 t 0 r /Helvetica findfont 22.8295 sf 0 0 m (0) show NC gr 
 gsave  408 306 476 13 C 487.16 196.573 t 0 r /Helvetica findfont 22.8295 sf 0 0 m (0.02) show NC gr 
 gsave  408 306 476 13 C 487.16 227.911 t 0 r /Helvetica findfont 22.8295 sf 0 0 m (0.04) show NC gr 
 gsave  408 306 476 13 C 487.16 256.4 t 0 r /Helvetica findfont 22.8295 sf 0 0 m (0.06) show NC gr  844 59 m 229 Y s 838 86 m 6 X s 841 93 m 3 X s 841 101 m 3 X s 841 108 m 3 X s 838 115 m 6 X s 841 123 m 3 X s 841 130 m 3 X s 841 138 m 3 X s 838 145
 m 6 X s 841 153 m 3 X s 841 160 m 3 X s 841 168 m 3 X s 838 175 m 6 X s 841 182 m 3 X s 841 190 m 3 X s 841 197 m 3 X s 838 205 m 6 X s 841 212 m 3 X s 841 220 m 3 X s 841 227 m 3 X s 838 234 m 6 X s 841 242 m 3 X s 841 249 m 3 X s 841 257 m 3 X s
 838 264 m 6 X s 838 86 m 6 X s 841 78 m 3 X s 841 71 m 3 X s 841 63 m 3 X s 838 264 m 6 X s 841 272 m 3 X s 841 279 m 3 X s 841 286 m 3 X s /w 23 def /w2 {w 2 div} def /w3 {w 3 div} def 563 229 605 200 647 226 668 181 710 115 731 196 774 144 816 205
 8 { m21} R 563 241 m 28 Y s 557 269 m 11 X s 563 218 m -28 Y s 557 190 m 11 X s 605 212 m 27 Y s 599 239 m 12 X s 605 189 m -27 Y s 599 162 m 12 X s 647 237 m 28 Y s 641 265 m 12 X s 647 215 m -28 Y s 641 187 m 12 X s 668 192 m 27 Y s 662 219 m 12 X
 s 668 169 m -26 Y s 662 143 m 12 X s 710 126 m 25 Y s 705 151 m 11 X s 710 103 m -25 Y s 705 78 m 11 X s 731 207 m 27 Y s 726 234 m 11 X s 731 184 m -27 Y s 726 157 m 11 X s 774 156 m 25 Y s 768 181 m 11 X s 774 133 m -26 Y s 768 107 m 11 X s 816
 217 m 27 Y s 810 244 m 11 X s 816 194 m -28 Y s 810 166 m 11 X s 1 0 0 c 9 lw 0.95 0.95 0.95 c black 1 0 0 c 539 225 m 3 -2 d 3 -2 d 3 -2 d 3 -2 d 3 -2 d 3 -1 d 3 -2 d 3 -2 d 4 -2 d 3 -1 d 3 -2 d 3 -1 d 3 -2 d 3 -1 d 3 -2 d 3 -1 d 3 -2 d 3 -1 d 3 -1
 d 3 -1 d 3 -2 d 3 -1 d 3 -1 d 3 -1 d 4 -1 d 3 -1 d 3 -1 d 3 -1 d 3 -1 d 3 X 3 -1 d 3 -1 d 3 -1 d 3 X 3 -1 d 3 X 3 -1 d 3 X 3 -1 d 3 X 3 -1 d 10 X 3 -1 d 12 X s 689 175 m 15 X 3 1 d 6 X 4 1 d 6 X 3 1 d 3 X 3 1 d 3 1 d 3 X 3 1 d 3 1 d 3 X 3 1 d 3 1 d
 3 1 d 3 1 d 3 1 d 4 1 d 3 1 d 3 1 d 3 1 d 3 1 d 3 2 d 3 1 d 3 1 d 3 1 d 3 2 d 3 1 d 3 2 d 3 1 d 3 2 d 3 1 d 3 2 d 4 2 d 3 1 d 3 2 d 3 2 d 3 2 d 3 2 d 3 2 d 3 2 d 3 2 d s 839 225 m 3 2 d s 0.49 0.6 0.82 c black 0.49 0.6 0.82 c
 gsave  408 306 476 13 C 595.418 296.285 t 0 r /Helvetica-Bold findfont 25.6831 sf 0 0 m (8.0 < E < 8.5 GeV) show NC gr  0.52 0.76 0.64 c black 0.52 0.76 0.64 c
 gsave  408 306 476 13 C 581.174 259.249 t 0 r /Helvetica-Bold findfont 25.6831 sf 0 0 m 
 220 206 192 185 170 163 148 141 125 118 111 97 83 69 61 47 40 25 18
(A = 0.066, p = 2.000) K NC gr  1 0.6 1 c black 1 0.6 1 c
 gsave  408 306 476 13 C 883.156 128.2 t 90 r /Helvetica-Bold findfont 28.5368 sf 0 0 m (/dof=0.9) show NC gr  black 1 0.6 1 c
 gsave  408 306 476 13 C 871.76 116.804 t 90 r /Helvetica-Bold findfont 19.9758 sf 0 0 m (2) show NC gr  black 1 0.6 1 c
 gsave  408 306 476 13 C 883.156 99.7112 t 90 r /Symbol findfont 28.5368 sf 0 0 m (c) show NC gr  black 3 lw 1 1 1 c 408 306 930 13 bf black 1 1 1 c black 306 229 991 59 bl 306 229 991 59 bl 991 59 m 306 X s 1037 63 m -4 Y s 1143 63 m -4 Y s 1248 63
 m -4 Y s 1037 63 m -4 Y s 1248 63 m -4 Y s
 gsave  408 306 930 13 C 1017.05 39.8845 t 0 r /Helvetica findfont 22.8295 sf 0 0 m (\2550.5) show NC gr 
 gsave  408 306 930 13 C 1133.86 39.8845 t 0 r /Helvetica findfont 22.8295 sf 0 0 m (0) show NC gr 
 gsave  408 306 930 13 C 1230.72 39.8845 t 0 r /Helvetica findfont 22.8295 sf 0 0 m (0.5) show NC gr  991 288 m 306 X s 1037 284 m 4 Y s 1143 284 m 4 Y s 1248 284 m 4 Y s 1037 284 m 4 Y s 1248 284 m 4 Y s 991 59 m 229 Y s 997 82 m -6 X s 994 88 m -3
 X s 994 94 m -3 X s 994 100 m -3 X s 997 105 m -6 X s 994 111 m -3 X s 994 117 m -3 X s 994 123 m -3 X s 997 129 m -6 X s 994 135 m -3 X s 994 141 m -3 X s 994 147 m -3 X s 997 153 m -6 X s 994 159 m -3 X s 994 165 m -3 X s 994 171 m -3 X s 997 177
 m -6 X s 994 183 m -3 X s 994 189 m -3 X s 994 195 m -3 X s 997 201 m -6 X s 994 207 m -3 X s 994 213 m -3 X s 994 219 m -3 X s 997 225 m -6 X s 994 231 m -3 X s 994 237 m -3 X s 994 242 m -3 X s 997 248 m -6 X s 994 254 m -3 X s 994 260 m -3 X s
 994 266 m -3 X s 997 272 m -6 X s 997 82 m -6 X s 994 76 m -3 X s 994 70 m -3 X s 994 64 m -3 X s 997 272 m -6 X s 994 278 m -3 X s 994 284 m -3 X s
 gsave  408 306 930 13 C 937.285 74.0711 t 0 r /Helvetica findfont 22.8295 sf 0 0 m (\2550.08) show NC gr 
 gsave  408 306 930 13 C 937.285 99.7112 t 0 r /Helvetica findfont 22.8295 sf 0 0 m (\2550.06) show NC gr 
 gsave  408 306 930 13 C 937.285 122.502 t 0 r /Helvetica findfont 22.8295 sf 0 0 m (\2550.04) show NC gr 
 gsave  408 306 930 13 C 937.285 145.293 t 0 r /Helvetica findfont 22.8295 sf 0 0 m (\2550.02) show NC gr 
 gsave  408 306 930 13 C 974.32 170.933 t 0 r /Helvetica findfont 22.8295 sf 0 0 m (0) show NC gr 
 gsave  408 306 930 13 C 942.983 193.725 t 0 r /Helvetica findfont 22.8295 sf 0 0 m (0.02) show NC gr 
 gsave  408 306 930 13 C 942.983 216.516 t 0 r /Helvetica findfont 22.8295 sf 0 0 m (0.04) show NC gr 
 gsave  408 306 930 13 C 942.983 242.156 t 0 r /Helvetica findfont 22.8295 sf 0 0 m (0.06) show NC gr 
 gsave  408 306 930 13 C 942.983 264.947 t 0 r /Helvetica findfont 22.8295 sf 0 0 m (0.08) show NC gr  1297 59 m 229 Y s 1292 82 m 5 X s 1294 88 m 3 X s 1294 94 m 3 X s 1294 100 m 3 X s 1292 105 m 5 X s 1294 111 m 3 X s 1294 117 m 3 X s 1294 123 m 3
 X s 1292 129 m 5 X s 1294 135 m 3 X s 1294 141 m 3 X s 1294 147 m 3 X s 1292 153 m 5 X s 1294 159 m 3 X s 1294 165 m 3 X s 1294 171 m 3 X s 1292 177 m 5 X s 1294 183 m 3 X s 1294 189 m 3 X s 1294 195 m 3 X s 1292 201 m 5 X s 1294 207 m 3 X s 1294
 213 m 3 X s 1294 219 m 3 X s 1292 225 m 5 X s 1294 231 m 3 X s 1294 237 m 3 X s 1294 242 m 3 X s 1292 248 m 5 X s 1294 254 m 3 X s 1294 260 m 3 X s 1294 266 m 3 X s 1292 272 m 5 X s 1292 82 m 5 X s 1294 76 m 3 X s 1294 70 m 3 X s 1294 64 m 3 X s
 1292 272 m 5 X s 1294 278 m 3 X s 1294 284 m 3 X s 1016 155 1058 235 1101 166 1122 145 1164 143 1185 183 1227 109 1269 155 8 { m21} R 1016 167 m 20 Y s 1011 187 m 11 X s 1016 144 m -20 Y s 1011 124 m 11 X s 1058 246 m 23 Y s 1053 269 m 11 X s 1058
 224 m -23 Y s 1053 201 m 11 X s 1101 178 m 21 Y s 1095 199 m 11 X s 1101 155 m -21 Y s 1095 134 m 11 X s 1122 157 m 20 Y s 1116 177 m 11 X s 1122 134 m -20 Y s 1116 114 m 11 X s 1164 154 m 20 Y s 1158 174 m 12 X s 1164 131 m -20 Y s 1158 111 m 12 X
 s 1185 194 m 21 Y s 1179 215 m 12 X s 1185 171 m -21 Y s 1179 150 m 12 X s 1227 120 m 19 Y s 1221 139 m 12 X s 1227 97 m -19 Y s 1221 78 m 12 X s 1269 167 m 21 Y s 1264 188 m 11 X s 1269 144 m -21 Y s 1264 123 m 11 X s 9 lw 0.95 0.95 0.95 c black
 993 207 m 3 -1 d 3 -1 d 3 X 3 -1 d 3 X 3 -1 d 3 -1 d 3 X 3 -1 d 3 X 3 -1 d 3 -1 d 3 X 3 -1 d 3 X 4 -1 d 3 -1 d 3 X 3 -1 d 3 X 3 -1 d 3 -1 d 3 X 3 -1 d 3 X 3 -1 d 3 -1 d 3 X 3 -1 d 3 X 3 -1 d 3 -1 d 4 X 3 -1 d 3 -1 d 3 X 3 -1 d 3 X 3 -1 d 3 -1 d 3 X
 3 -1 d 3 X 3 -1 d 3 -1 d 3 X 3 -1 d 3 X 4 -1 d s 1143 177 m 3 -1 d 3 X 3 -1 d 3 X 3 -1 d 3 -1 d 3 X 3 -1 d 3 X 3 -1 d 3 -1 d 3 X 3 -1 d 3 X 3 -1 d 4 -1 d 3 X 3 -1 d 3 X 3 -1 d 3 -1 d 3 X 3 -1 d 3 X 3 -1 d 3 -1 d 3 X 3 -1 d 3 -1 d 3 X 3 -1 d 3 X 4 -1
 d 3 -1 d 3 X 3 -1 d 3 X 3 -1 d 3 -1 d 3 X 3 -1 d 3 X 3 -1 d 3 -1 d 3 X 3 -1 d 3 X 3 -1 d 4 -1 d s 1293 147 m 3 X s 0.49 0.6 0.82 c black 0.49 0.6 0.82 c
 gsave  408 306 930 13 C 1051.24 296.285 t 0 r /Helvetica-Bold findfont 25.6831 sf 0 0 m (8.5 < E < 9.0 GeV) show NC gr  0.52 0.76 0.64 c black 0.52 0.76 0.64 c
 gsave  408 306 930 13 C 1031.3 259.249 t 0 r /Helvetica-Bold findfont 25.6831 sf 0 0 m 
 228 214 200 193 178 171 156 149 134 126 119 105 91 77 69 55 47 39 25 17
(A = \2550.035, p = 1.000) K NC gr  1 0.6 1 c black 1 0.6 1 c
 gsave  408 306 930 13 C 1336.13 128.2 t 90 r /Helvetica-Bold findfont 28.5368 sf 0 0 m (/dof=1.3) show NC gr  black 1 0.6 1 c
 gsave  408 306 930 13 C 1324.73 116.804 t 90 r /Helvetica-Bold findfont 19.9758 sf 0 0 m (2) show NC gr  black 1 0.6 1 c
 gsave  408 306 930 13 C 1336.13 99.7112 t 90 r /Symbol findfont 28.5368 sf 0 0 m (c) show NC gr  black 3 lw 1 1 1 c 408 306 1383 13 bf black 1 1 1 c black 306 229 1445 59 bl 306 229 1445 59 bl 1445 59 m 306 X s 1491 63 m -4 Y s 1596 63 m -4 Y s 1702
 63 m -4 Y s 1491 63 m -4 Y s 1702 63 m -4 Y s
 gsave  408 306 1383 13 C 1470.03 39.8845 t 0 r /Helvetica findfont 22.8295 sf 0 0 m (\2550.5) show NC gr 
 gsave  408 306 1383 13 C 1586.83 39.8845 t 0 r /Helvetica findfont 22.8295 sf 0 0 m (0) show NC gr 
 gsave  408 306 1383 13 C 1683.69 39.8845 t 0 r /Helvetica findfont 22.8295 sf 0 0 m (0.5) show NC gr  1445 288 m 306 X s 1491 284 m 4 Y s 1596 284 m 4 Y s 1702 284 m 4 Y s 1491 284 m 4 Y s 1702 284 m 4 Y s 1445 59 m 229 Y s 1450 85 m -5 X s 1447 92
 m -2 X s 1447 100 m -2 X s 1447 107 m -2 X s 1450 114 m -5 X s 1447 122 m -2 X s 1447 129 m -2 X s 1447 137 m -2 X s 1450 144 m -5 X s 1447 152 m -2 X s 1447 159 m -2 X s 1447 166 m -2 X s 1450 174 m -5 X s 1447 181 m -2 X s 1447 189 m -2 X s 1447
 196 m -2 X s 1450 204 m -5 X s 1447 211 m -2 X s 1447 219 m -2 X s 1447 226 m -2 X s 1450 233 m -5 X s 1447 241 m -2 X s 1447 248 m -2 X s 1447 256 m -2 X s 1450 263 m -5 X s 1450 85 m -5 X s 1447 77 m -2 X s 1447 70 m -2 X s 1447 62 m -2 X s 1450
 263 m -5 X s 1447 271 m -2 X s 1447 278 m -2 X s 1447 285 m -2 X s
 gsave  408 306 1383 13 C 1390.26 76.92 t 0 r /Helvetica findfont 22.8295 sf 0 0 m (\2550.08) show NC gr 
 gsave  408 306 1383 13 C 1390.26 108.258 t 0 r /Helvetica findfont 22.8295 sf 0 0 m (\2550.06) show NC gr 
 gsave  408 306 1383 13 C 1390.26 136.747 t 0 r /Helvetica findfont 22.8295 sf 0 0 m (\2550.04) show NC gr 
 gsave  408 306 1383 13 C 1390.26 168.085 t 0 r /Helvetica findfont 22.8295 sf 0 0 m (\2550.02) show NC gr 
 gsave  408 306 1383 13 C 1427.29 196.573 t 0 r /Helvetica findfont 22.8295 sf 0 0 m (0) show NC gr 
 gsave  408 306 1383 13 C 1395.96 225.062 t 0 r /Helvetica findfont 22.8295 sf 0 0 m (0.02) show NC gr 
 gsave  408 306 1383 13 C 1395.96 256.4 t 0 r /Helvetica findfont 22.8295 sf 0 0 m (0.04) show NC gr  1751 59 m 229 Y s 1745 85 m 6 X s 1748 92 m 3 X s 1748 100 m 3 X s 1748 107 m 3 X s 1745 114 m 6 X s 1748 122 m 3 X s 1748 129 m 3 X s 1748 137 m 3
 X s 1745 144 m 6 X s 1748 152 m 3 X s 1748 159 m 3 X s 1748 166 m 3 X s 1745 174 m 6 X s 1748 181 m 3 X s 1748 189 m 3 X s 1748 196 m 3 X s 1745 204 m 6 X s 1748 211 m 3 X s 1748 219 m 3 X s 1748 226 m 3 X s 1745 233 m 6 X s 1748 241 m 3 X s 1748
 248 m 3 X s 1748 256 m 3 X s 1745 263 m 6 X s 1745 85 m 6 X s 1748 77 m 3 X s 1748 70 m 3 X s 1748 62 m 3 X s 1745 263 m 6 X s 1748 271 m 3 X s 1748 278 m 3 X s 1748 285 m 3 X s 1470 172 1512 119 1554 226 1575 213 1617 221 1639 176 1681 153 1723 201
 8 { m21} R 1470 184 m 31 Y s 1464 215 m 12 X s 1470 161 m -31 Y s 1464 130 m 12 X s 1512 130 m 29 Y s 1506 159 m 12 X s 1512 107 m -29 Y s 1506 78 m 12 X s 1554 237 m 32 Y s 1548 269 m 12 X s 1554 214 m -31 Y s 1548 183 m 12 X s 1575 224 m 32 Y s
 1570 256 m 11 X s 1575 201 m -32 Y s 1570 169 m 11 X s 1617 232 m 32 Y s 1612 264 m 11 X s 1617 209 m -31 Y s 1612 178 m 11 X s 1639 188 m 30 Y s 1633 218 m 11 X s 1639 165 m -31 Y s 1633 134 m 11 X s 1681 164 m 30 Y s 1675 194 m 11 X s 1681 141 m
 -30 Y s 1675 111 m 11 X s 1723 212 m 32 Y s 1717 244 m 12 X s 1723 189 m -32 Y s 1717 157 m 12 X s 1 0 0 c 9 lw 0.95 0.95 0.95 c black 1 0 0 c 1446 145 m 3 3 d 3 2 d 3 2 d 3 2 d 3 3 d 3 2 d 3 2 d 4 2 d 3 2 d 3 2 d 3 2 d 3 1 d 3 2 d 3 2 d 3 2 d 3 1 d
 3 2 d 3 1 d 3 2 d 3 1 d 3 2 d 3 1 d 3 1 d 4 1 d 3 2 d 3 1 d 3 1 d 3 1 d 3 1 d 3 1 d 3 1 d 3 1 d 3 X 3 1 d 3 1 d 3 X 3 1 d 3 1 d 3 X 4 1 d 6 X 3 1 d 9 X 3 1 d 6 X s 1596 204 m 6 X 3 -1 d 9 X 4 -1 d 6 X 3 -1 d 3 X 3 -1 d 3 X 3 -1 d 3 -1 d 3 X 3 -1 d 3
 -1 d 3 -1 d 3 -1 d 3 -1 d 3 -1 d 3 -1 d 4 -1 d 3 -1 d 3 -2 d 3 -1 d 3 -1 d 3 -2 d 3 -1 d 3 -2 d 3 -1 d 3 -2 d 3 -1 d 3 -2 d 3 -2 d 3 -1 d 3 -2 d 3 -2 d 4 -2 d 3 -2 d 3 -2 d 3 -2 d 3 -2 d 3 -2 d 3 -2 d 3 -3 d 3 -2 d 3 -2 d s 1746 146 m 3 -3 d s 0.49
 0.6 0.82 c black 0.49 0.6 0.82 c
 gsave  408 306 1383 13 C 1504.21 296.285 t 0 r /Helvetica-Bold findfont 25.6831 sf 0 0 m (9.0 < E < 9.5 GeV) show NC gr  0.52 0.76 0.64 c black 0.52 0.76 0.64 c
 gsave  408 306 1383 13 C 1484.27 259.249 t 0 r /Helvetica-Bold findfont 25.6831 sf 0 0 m 
 228 214 200 193 178 171 156 149 133 126 119 105 91 76 69 55 47 39 25 17
(A = \2550.077, p = 2.000) K NC gr  1 0.6 1 c black 1 0.6 1 c
 gsave  408 306 1383 13 C 1789.1 128.2 t 90 r /Helvetica-Bold findfont 28.5368 sf 0 0 m (/dof=0.7) show NC gr  black 1 0.6 1 c
 gsave  408 306 1383 13 C 1777.71 116.804 t 90 r /Helvetica-Bold findfont 19.9758 sf 0 0 m (2) show NC gr  black 1 0.6 1 c
 gsave  408 306 1383 13 C 1789.1 99.7112 t 90 r /Symbol findfont 28.5368 sf 0 0 m (c) show NC gr  black 3 lw 1 1 1 c 408 306 1837 13 bf black 1 1 1 c black 306 229 1898 59 bl 306 229 1898 59 bl 1898 59 m 306 X s 1944 63 m -4 Y s 2050 63 m -4 Y s 2155
 63 m -4 Y s 1944 63 m -4 Y s 2155 63 m -4 Y s
 gsave  408 306 1837 13 C 1923 39.8845 t 0 r /Helvetica findfont 22.8295 sf 0 0 m (\2550.5) show NC gr 
 gsave  408 306 1837 13 C 2039.81 39.8845 t 0 r /Helvetica findfont 22.8295 sf 0 0 m (0) show NC gr 
 gsave  408 306 1837 13 C 2136.67 39.8845 t 0 r /Helvetica findfont 22.8295 sf 0 0 m (0.5) show NC gr  1898 288 m 306 X s 1944 284 m 4 Y s 2050 284 m 4 Y s 2155 284 m 4 Y s 1944 284 m 4 Y s 2155 284 m 4 Y s 1898 59 m 229 Y s 1904 69 m -6 X s 1901 75
 m -3 X s 1901 82 m -3 X s 1901 88 m -3 X s 1904 95 m -6 X s 1901 101 m -3 X s 1901 107 m -3 X s 1901 114 m -3 X s 1904 120 m -6 X s 1901 126 m -3 X s 1901 133 m -3 X s 1901 139 m -3 X s 1904 145 m -6 X s 1901 152 m -3 X s 1901 158 m -3 X s 1901 164
 m -3 X s 1904 171 m -6 X s 1901 177 m -3 X s 1901 184 m -3 X s 1901 190 m -3 X s 1904 196 m -6 X s 1901 203 m -3 X s 1901 209 m -3 X s 1901 215 m -3 X s 1904 222 m -6 X s 1901 228 m -3 X s 1901 234 m -3 X s 1901 241 m -3 X s 1904 247 m -6 X s 1901
 254 m -3 X s 1901 260 m -3 X s 1901 266 m -3 X s 1904 273 m -6 X s 1904 69 m -6 X s 1901 63 m -3 X s 1904 273 m -6 X s 1901 279 m -3 X s 1901 285 m -3 X s
 gsave  408 306 1837 13 C 1843.23 62.6756 t 0 r /Helvetica findfont 22.8295 sf 0 0 m (\2550.08) show NC gr 
 gsave  408 306 1837 13 C 1843.23 88.3156 t 0 r /Helvetica findfont 22.8295 sf 0 0 m (\2550.06) show NC gr 
 gsave  408 306 1837 13 C 1843.23 113.956 t 0 r /Helvetica findfont 22.8295 sf 0 0 m (\2550.04) show NC gr 
 gsave  408 306 1837 13 C 1843.23 139.596 t 0 r /Helvetica findfont 22.8295 sf 0 0 m (\2550.02) show NC gr 
 gsave  408 306 1837 13 C 1880.27 162.387 t 0 r /Helvetica findfont 22.8295 sf 0 0 m (0) show NC gr 
 gsave  408 306 1837 13 C 1848.93 188.027 t 0 r /Helvetica findfont 22.8295 sf 0 0 m (0.02) show NC gr 
 gsave  408 306 1837 13 C 1848.93 213.667 t 0 r /Helvetica findfont 22.8295 sf 0 0 m (0.04) show NC gr 
 gsave  408 306 1837 13 C 1848.93 239.307 t 0 r /Helvetica findfont 22.8295 sf 0 0 m (0.06) show NC gr 
 gsave  408 306 1837 13 C 1848.93 264.947 t 0 r /Helvetica findfont 22.8295 sf 0 0 m (0.08) show NC gr  2204 59 m 229 Y s 2199 69 m 5 X s 2201 75 m 3 X s 2201 82 m 3 X s 2201 88 m 3 X s 2199 95 m 5 X s 2201 101 m 3 X s 2201 107 m 3 X s 2201 114 m 3 X
 s 2199 120 m 5 X s 2201 126 m 3 X s 2201 133 m 3 X s 2201 139 m 3 X s 2199 145 m 5 X s 2201 152 m 3 X s 2201 158 m 3 X s 2201 164 m 3 X s 2199 171 m 5 X s 2201 177 m 3 X s 2201 184 m 3 X s 2201 190 m 3 X s 2199 196 m 5 X s 2201 203 m 3 X s 2201 209
 m 3 X s 2201 215 m 3 X s 2199 222 m 5 X s 2201 228 m 3 X s 2201 234 m 3 X s 2201 241 m 3 X s 2199 247 m 5 X s 2201 254 m 3 X s 2201 260 m 3 X s 2201 266 m 3 X s 2199 273 m 5 X s 2199 69 m 5 X s 2201 63 m 3 X s 2199 273 m 5 X s 2201 279 m 3 X s 2201
 285 m 3 X s 1923 229 1966 167 2008 137 2029 202 2071 116 2092 158 2134 171 2176 199 8 { m21} R 1923 240 m 29 Y s 1918 269 m 11 X s 1923 217 m -29 Y s 1918 188 m 11 X s 1966 179 m 27 Y s 1960 206 m 11 X s 1966 156 m -28 Y s 1960 128 m 11 X s 2008 149
 m 26 Y s 2002 175 m 11 X s 2008 126 m -26 Y s 2002 100 m 11 X s 2029 213 m 29 Y s 2023 242 m 11 X s 2029 191 m -29 Y s 2023 162 m 11 X s 2071 127 m 26 Y s 2065 153 m 12 X s 2071 104 m -26 Y s 2065 78 m 12 X s 2092 170 m 26 Y s 2086 196 m 12 X s 2092
 147 m -27 Y s 2086 120 m 12 X s 2134 182 m 28 Y s 2129 210 m 11 X s 2134 160 m -28 Y s 2129 132 m 11 X s 2176 211 m 28 Y s 2171 239 m 11 X s 2176 188 m -29 Y s 2171 159 m 11 X s 1 0 0 c 9 lw 0.95 0.95 0.95 c black 1 0 0 c 1900 216 m 3 -2 d 3 -2 d 3
 -2 d 3 -1 d 3 -2 d 3 -2 d 3 -1 d 3 -2 d 3 -1 d 3 -2 d 3 -1 d 3 -2 d 3 -1 d 3 -1 d 4 -2 d 3 -1 d 3 -1 d 3 -1 d 3 -1 d 3 -1 d 3 -1 d 3 -2 d 3 -1 d 3 X 3 -1 d 3 -1 d 3 -1 d 3 -1 d 3 -1 d 3 X 4 -1 d 3 -1 d 3 X 3 -1 d 3 X 3 -1 d 3 X 3 -1 d 3 X 3 -1 d 9 X
 3 -1 d 16 X s 2050 171 m 15 X 3 1 d 9 X 3 1 d 6 X 3 1 d 3 X 4 1 d 3 1 d 3 X 3 1 d 3 X 3 1 d 3 1 d 3 1 d 3 1 d 3 X 3 1 d 3 1 d 3 1 d 3 1 d 3 1 d 3 1 d 4 2 d 3 1 d 3 1 d 3 1 d 3 2 d 3 1 d 3 1 d 3 2 d 3 1 d 3 1 d 3 2 d 3 1 d 3 2 d 3 2 d 3 1 d 3 2 d 4 2
 d 3 2 d 3 1 d s 2200 215 m 3 2 d s 0.49 0.6 0.82 c black 0.49 0.6 0.82 c
 gsave  408 306 1837 13 C 1948.64 296.285 t 0 r /Helvetica-Bold findfont 25.6831 sf 0 0 m (9.5 < E < 10.0 GeV) show NC gr  0.52 0.76 0.64 c black 0.52 0.76 0.64 c
 gsave  408 306 1837 13 C 1942.94 259.249 t 0 r /Helvetica-Bold findfont 25.6831 sf 0 0 m 
 220 206 192 185 170 163 148 141 126 118 111 97 83 69 61 47 40 25 18
(A = 0.069, p = 2.000) K NC gr  1 0.6 1 c black 1 0.6 1 c
 gsave  408 306 1837 13 C 2242.08 128.2 t 90 r /Helvetica-Bold findfont 28.5368 sf 0 0 m (/dof=0.7) show NC gr  black 1 0.6 1 c
 gsave  408 306 1837 13 C 2230.68 116.804 t 90 r /Helvetica-Bold findfont 19.9758 sf 0 0 m (2) show NC gr  black 1 0.6 1 c
 gsave  408 306 1837 13 C 2242.08 99.7112 t 90 r /Symbol findfont 28.5368 sf 0 0 m (c) show NC gr 
 gr  gr showpage
end
%%EOF
