%!PS-Adobe-2.0 EPSF-2.0
%%BoundingBox:  0 0 567 332
%%Title: BeamSigmaX_near_summary.eps: Summary
%%Creator: ROOT Version 5.30/06
%%CreationDate: Sun Feb  2 09:41:12 2014
%%EndComments
%%BeginProlog
80 dict begin
/s {stroke} def /l {lineto} def /m {moveto} def /t {translate} def
/r {rotate} def /rl {roll}  def /R {repeat} def
/d {rlineto} def /rm {rmoveto} def /gr {grestore} def /f {eofill} def
/c {setrgbcolor} def /black {0 setgray} def /sd {setdash} def
/cl {closepath} def /sf {scalefont setfont} def /lw {setlinewidth} def
/box {m dup 0 exch d exch 0 d 0 exch neg d cl} def
/NC{systemdict begin initclip end}def/C{NC box clip newpath}def
/bl {box s} def /bf {box f} def /Y { 0 exch d} def /X { 0 d} def 
/K {{pop pop 0 moveto} exch kshow} bind def
/ita {/ang 15 def gsave [1 0 ang dup sin exch cos div 1 0 0] concat} def 
/mp {newpath /y exch def /x exch def} def
/side {[w .77 mul w .23 mul] .385 w mul sd w 0 l currentpoint t -144 r} def
/mr {mp x y w2 0 360 arc} def /m24 {mr s} def /m20 {mr f} def
/mb {mp x y w2 add m w2 neg 0 d 0 w neg d w 0 d 0 w d cl} def
/mt {mp x y w2 add m w2 neg w neg d w 0 d cl} def
/m21 {mb f} def /m25 {mb s} def /m22 {mt f} def /m26{mt s} def
/m23 {mp x y w2 sub m w2 w d w neg 0 d cl f} def
/m27 {mp x y w2 add m w3 neg w2 neg d w3 w2 neg d w3 w2 d cl s} def
/m28 {mp x w2 sub y w2 sub w3 add m w3 0 d  0 w3 neg d w3 0 d 0 w3 d w3 0 d  0 w3 d w3 neg 0 d 0 w3 d w3 neg 0 d 0 w3 neg d w3 neg 0 d cl s } def
/m29 {mp gsave x w2 sub y w2 add w3 sub m currentpoint t 4 {side} repeat cl fill gr} def
/m30 {mp gsave x w2 sub y w2 add w3 sub m currentpoint t 4 {side} repeat cl s gr} def
/m31 {mp x y w2 sub m 0 w d x w2 sub y m w 0 d x w2 sub y w2 add m w w neg d x w2 sub y w2 sub m w w d s} def
/m32 {mp x y w2 sub m w2 w d w neg 0 d cl s} def
/m33 {mp x y w2 add m w3 neg w2 neg d w3 w2 neg d w3 w2 d cl f} def
/m34 {mp x w2 sub y w2 sub w3 add m w3 0 d  0 w3 neg d w3 0 d 0 w3 d w3 0 d  0 w3 d w3 neg 0 d 0 w3 d w3 neg 0 d 0 w3 neg d w3 neg 0 d cl f } def
/m2 {mp x y w2 sub m 0 w d x w2 sub y m w 0 d s} def
/m5 {mp x w2 sub y w2 sub m w w d x w2 sub y w2 add m w w neg d s} def
/reEncode {exch findfont dup length dict begin {1 index /FID eq  {pop pop} {def} ifelse } forall /Encoding exch def currentdict end dup /FontName get exch definefont pop } def [/Times-Bold /Times-Italic /Times-BoldItalic /Helvetica /Helvetica-Oblique
 /Helvetica-Bold /Helvetica-BoldOblique /Courier /Courier-Oblique /Courier-Bold /Courier-BoldOblique /Times-Roman /AvantGarde-Book /AvantGarde-BookOblique /AvantGarde-Demi /AvantGarde-DemiOblique /Bookman-Demi /Bookman-DemiItalic /Bookman-Light
 /Bookman-LightItalic /Helvetica-Narrow /Helvetica-Narrow-Bold /Helvetica-Narrow-BoldOblique /Helvetica-Narrow-Oblique /NewCenturySchlbk-Roman /NewCenturySchlbk-Bold /NewCenturySchlbk-BoldItalic /NewCenturySchlbk-Italic /Palatino-Bold
 /Palatino-BoldItalic /Palatino-Italic /Palatino-Roman ] {ISOLatin1Encoding reEncode } forall%%EndProlog
%%BeginSetup
%%EndSetup
newpath  gsave  .25 .25 scale  gsave  0 0 t black[  ] 0 sd 3 lw 1 1 1 c 2268 1328 0 0 bf black 1 1 1 c black 1588 996 340 199 bl 1588 996 340 199 bl 1 1 1 c 1 0 0 c /w 23 def /w2 {w 2 div} def /w3 {w 3 div} def 380 263 m21 459 270 m21 539 269 m21 618
 265 m21 697 265 m21 777 267 m21 856 257 m21 935 243 m21 1015 235 m21 1094 220 m21 1174 205 m21 black 1253 208 m 3 Y s 1253 233 m 3 Y s 1247 208 m 12 X s 1247 236 m 12 X s 1 0 0 c 1253 222 m21 black 1332 199 m 3 Y s 1332 225 m 5 Y s 1327 199 m 11 X s
 1327 230 m 11 X s 1 0 0 c 1332 214 m21 black 1412 208 m 8 Y s 1412 239 m 7 Y s 1406 208 m 11 X s 1406 246 m 11 X s 1 0 0 c 1412 227 m21 black 1491 246 m 9 Y s 1491 278 m 10 Y s 1485 246 m 12 X s 1485 288 m 12 X s 1 0 0 c 1491 267 m21 black 1570 230
 m 11 Y s 1570 264 m 11 Y s 1565 230 m 11 X s 1565 275 m 11 X s 1 0 0 c 1570 252 m21 black 1650 249 m 14 Y s 1650 285 m 14 Y s 1644 249 m 11 X s 1644 299 m 11 X s 1 0 0 c 1650 274 m21 black 1729 215 m 14 Y s 1729 252 m 14 Y s 1723 215 m 12 X s 1723
 266 m 12 X s 1 0 0 c 1729 241 m21 black 1809 199 m 14 Y s 1809 236 m 15 Y s 1803 199 m 11 X s 1803 251 m 11 X s 1 0 0 c 1809 224 m21 black 1888 256 m 17 Y s 1888 296 m 17 Y s 1882 256 m 12 X s 1882 313 m 12 X s 1 0 0 c 1888 284 m21 black 340 199 m
 1588 X s
 gsave  2268 1328 0 0 C 954.378 68.3734 t 0 r /Helvetica findfont 62.6756 sf 0 0 m ( Energy \(GeV\) ) show NC gr 
 gsave  2268 1328 0 0 C 928.738 51.28 t 0 r /Symbol findfont 42.7334 sf 0 0 m (m) show NC gr 
 gsave  2268 1328 0 0 C 894.552 68.3734 t 0 r /Symbol findfont 62.6756 sf 0 0 m (n) show NC gr  340 216 m -17 Y s 372 208 m -9 Y s 404 208 m -9 Y s 435 208 m -9 Y s 467 208 m -9 Y s 499 216 m -17 Y s 531 208 m -9 Y s 562 208 m -9 Y s 594 208 m -9 Y s
 626 208 m -9 Y s 658 216 m -17 Y s 689 208 m -9 Y s 721 208 m -9 Y s 753 208 m -9 Y s 785 208 m -9 Y s 816 216 m -17 Y s 848 208 m -9 Y s 880 208 m -9 Y s 912 208 m -9 Y s 943 208 m -9 Y s 975 216 m -17 Y s 1007 208 m -9 Y s 1039 208 m -9 Y s 1070
 208 m -9 Y s 1102 208 m -9 Y s 1134 216 m -17 Y s 1166 208 m -9 Y s 1197 208 m -9 Y s 1229 208 m -9 Y s 1261 208 m -9 Y s 1293 216 m -17 Y s 1324 208 m -9 Y s 1356 208 m -9 Y s 1388 208 m -9 Y s 1420 208 m -9 Y s 1451 216 m -17 Y s 1483 208 m -9 Y s
 1515 208 m -9 Y s 1547 208 m -9 Y s 1578 208 m -9 Y s 1610 216 m -17 Y s 1642 208 m -9 Y s 1674 208 m -9 Y s 1705 208 m -9 Y s 1737 208 m -9 Y s 1769 216 m -17 Y s 1801 208 m -9 Y s 1832 208 m -9 Y s 1864 208 m -9 Y s 1896 208 m -9 Y s 1928 216 m
 -17 Y s
 gsave  2268 1328 0 0 C 319.076 136.747 t 0 r /Helvetica findfont 68.3734 sf 0 0 m (0) show NC gr 
 gsave  2268 1328 0 0 C 484.311 136.747 t 0 r /Helvetica findfont 68.3734 sf 0 0 m (1) show NC gr 
 gsave  2268 1328 0 0 C 635.302 136.747 t 0 r /Helvetica findfont 68.3734 sf 0 0 m (2) show NC gr 
 gsave  2268 1328 0 0 C 794.84 136.747 t 0 r /Helvetica findfont 68.3734 sf 0 0 m (3) show NC gr 
 gsave  2268 1328 0 0 C 954.378 136.747 t 0 r /Helvetica findfont 68.3734 sf 0 0 m (4) show NC gr 
 gsave  2268 1328 0 0 C 1113.92 136.747 t 0 r /Helvetica findfont 68.3734 sf 0 0 m (5) show NC gr 
 gsave  2268 1328 0 0 C 1270.6 136.747 t 0 r /Helvetica findfont 68.3734 sf 0 0 m (6) show NC gr 
 gsave  2268 1328 0 0 C 1430.14 136.747 t 0 r /Helvetica findfont 68.3734 sf 0 0 m (7) show NC gr 
 gsave  2268 1328 0 0 C 1589.68 136.747 t 0 r /Helvetica findfont 68.3734 sf 0 0 m (8) show NC gr 
 gsave  2268 1328 0 0 C 1746.37 136.747 t 0 r /Helvetica findfont 68.3734 sf 0 0 m (9) show NC gr 
 gsave  2268 1328 0 0 C 1888.81 136.747 t 0 r /Helvetica findfont 68.3734 sf 0 0 m (10) show NC gr  340 1195 m 1588 X s 340 1178 m 17 Y s 372 1186 m 9 Y s 404 1186 m 9 Y s 435 1186 m 9 Y s 467 1186 m 9 Y s 499 1178 m 17 Y s 531 1186 m 9 Y s 562 1186
 m 9 Y s 594 1186 m 9 Y s 626 1186 m 9 Y s 658 1178 m 17 Y s 689 1186 m 9 Y s 721 1186 m 9 Y s 753 1186 m 9 Y s 785 1186 m 9 Y s 816 1178 m 17 Y s 848 1186 m 9 Y s 880 1186 m 9 Y s 912 1186 m 9 Y s 943 1186 m 9 Y s 975 1178 m 17 Y s 1007 1186 m 9 Y s
 1039 1186 m 9 Y s 1070 1186 m 9 Y s 1102 1186 m 9 Y s 1134 1178 m 17 Y s 1166 1186 m 9 Y s 1197 1186 m 9 Y s 1229 1186 m 9 Y s 1261 1186 m 9 Y s 1293 1178 m 17 Y s 1324 1186 m 9 Y s 1356 1186 m 9 Y s 1388 1186 m 9 Y s 1420 1186 m 9 Y s 1451 1178 m
 17 Y s 1483 1186 m 9 Y s 1515 1186 m 9 Y s 1547 1186 m 9 Y s 1578 1186 m 9 Y s 1610 1178 m 17 Y s 1642 1186 m 9 Y s 1674 1186 m 9 Y s 1705 1186 m 9 Y s 1737 1186 m 9 Y s 1769 1178 m 17 Y s 1801 1186 m 9 Y s 1832 1186 m 9 Y s 1864 1186 m 9 Y s 1896
 1186 m 9 Y s 1928 1178 m 17 Y s 340 199 m 996 Y s
 gsave  2268 1328 0 0 C 170.933 324.773 t 90 r /Helvetica findfont 62.6756 sf 0 0 m (Near Flux Ratio to Nominal) show NC gr  371 258 m -31 X s 355 281 m -15 X s 355 305 m -15 X s 355 328 m -15 X s 355 351 m -15 X s 371 375 m -31 X s 355 398 m -15 X s
 355 422 m -15 X s 355 445 m -15 X s 355 469 m -15 X s 371 492 m -31 X s 355 515 m -15 X s 355 539 m -15 X s 355 562 m -15 X s 355 586 m -15 X s 371 609 m -31 X s 355 633 m -15 X s 355 656 m -15 X s 355 679 m -15 X s 355 703 m -15 X s 371 726 m -31 X
 s 355 750 m -15 X s 355 773 m -15 X s 355 797 m -15 X s 355 820 m -15 X s 371 843 m -31 X s 355 867 m -15 X s 355 890 m -15 X s 355 914 m -15 X s 355 937 m -15 X s 371 961 m -31 X s 355 984 m -15 X s 355 1007 m -15 X s 355 1031 m -15 X s 355 1054 m
 -15 X s 371 1078 m -31 X s 355 1101 m -15 X s 355 1125 m -15 X s 355 1148 m -15 X s 355 1171 m -15 X s 371 1195 m -31 X s 371 258 m -31 X s 355 234 m -15 X s 355 211 m -15 X s
 gsave  2268 1328 0 0 C 301.982 230.76 t 0 r /Helvetica findfont 68.3734 sf 0 0 m (1) show NC gr 
 gsave  2268 1328 0 0 C 245.005 347.565 t 0 r /Helvetica findfont 68.3734 sf 0 0 m (1.1) show NC gr 
 gsave  2268 1328 0 0 C 233.609 464.369 t 0 r /Helvetica findfont 68.3734 sf 0 0 m (1.2) show NC gr 
 gsave  2268 1328 0 0 C 233.609 584.022 t 0 r /Helvetica findfont 68.3734 sf 0 0 m (1.3) show NC gr 
 gsave  2268 1328 0 0 C 233.609 697.978 t 0 r /Helvetica findfont 68.3734 sf 0 0 m (1.4) show NC gr 
 gsave  2268 1328 0 0 C 233.609 820.48 t 0 r /Helvetica findfont 68.3734 sf 0 0 m (1.5) show NC gr 
 gsave  2268 1328 0 0 C 233.609 937.285 t 0 r /Helvetica findfont 68.3734 sf 0 0 m (1.6) show NC gr 
 gsave  2268 1328 0 0 C 233.609 1051.24 t 0 r /Helvetica findfont 68.3734 sf 0 0 m (1.7) show NC gr 
 gsave  2268 1328 0 0 C 233.609 1170.89 t 0 r /Helvetica findfont 68.3734 sf 0 0 m (1.8) show NC gr  1928 199 m 996 Y s 1897 258 m 31 X s 1912 281 m 16 X s 1912 305 m 16 X s 1912 328 m 16 X s 1912 351 m 16 X s 1897 375 m 31 X s 1912 398 m 16 X s 1912
 422 m 16 X s 1912 445 m 16 X s 1912 469 m 16 X s 1897 492 m 31 X s 1912 515 m 16 X s 1912 539 m 16 X s 1912 562 m 16 X s 1912 586 m 16 X s 1897 609 m 31 X s 1912 633 m 16 X s 1912 656 m 16 X s 1912 679 m 16 X s 1912 703 m 16 X s 1897 726 m 31 X s
 1912 750 m 16 X s 1912 773 m 16 X s 1912 797 m 16 X s 1912 820 m 16 X s 1897 843 m 31 X s 1912 867 m 16 X s 1912 890 m 16 X s 1912 914 m 16 X s 1912 937 m 16 X s 1897 961 m 31 X s 1912 984 m 16 X s 1912 1007 m 16 X s 1912 1031 m 16 X s 1912 1054 m
 16 X s 1897 1078 m 31 X s 1912 1101 m 16 X s 1912 1125 m 16 X s 1912 1148 m 16 X s 1912 1171 m 16 X s 1897 1195 m 31 X s 1897 258 m 31 X s 1912 234 m 16 X s 1912 211 m 16 X s 1 0 0 c 6 lw 1 1 1 c 1 0 0 c 380 277 m 12 3 d 10 2 d 11 2 d 11 2 d 12 2 d
 10 1 d 12 1 d 1 1 d 9 X 11 1 d 22 X 38 -1 d 12 X 13 -1 d 37 -2 d 61 X 19 1 d 55 X 27 -1 d 14 -1 d 54 X 6 -1 d 6 -1 d 5 -1 d 4 -1 d 4 -1 d 4 -1 d 3 -1 d 4 -2 d 4 -3 d 4 -2 d 5 -4 d 5 -4 d 18 -15 d 4 -4 d 4 -3 d 4 -2 d 5 -3 d 4 -2 d 3 -2 d 4 -1 d 3 -1
 d 1 X 5 -1 d 4 -1 d 13 X 6 1 d 8 1 d 13 2 d 10 2 d 6 1 d 21 X 7 -1 d 7 -1 d 9 -2 d 50 -11 d 14 -3 d 27 -5 d 11 -2 d 9 -1 d 7 -1 d 7 X 5 -1 d 6 X 7 1 d 7 X 10 1 d 15 2 d 15 2 d 10 X 7 1 d 18 X 11 -1 d 21 -1 d 16 X 6 1 d 5 X 4 1 d 6 1 d 7 1 d 7 2 d 7
 2 d 11 3 d 14 5 d 17 6 d 11 3 d 6 2 d 8 3 d 11 5 d 13 5 d 8 3 d 6 2 d 6 2 d 5 1 d 5 1 d 5 X 4 1 d 6 X 4 -1 d 5 X 4 -1 d 5 -2 d 6 -2 d 9 -3 d 13 -5 d 6 -3 d 5 -1 d 5 -1 d 4 -1 d 4 X 4 -1 d 1 X 4 1 d 4 X 4 1 d 5 1 d 5 1 d 5 2 d 8 4 d 13 5 d 6 2 d 5 2
 d 4 1 d 4 1 d 4 1 d 13 X 5 -1 d 4 -1 d 5 -1 d 61 -26 d 5 -2 d 6 -2 d 7 -4 d 22 -11 d 6 -3 d 5 -2 d 4 -2 d 4 -1 d 4 -1 d 4 X 4 -1 d 9 X 5 1 d 4 1 d 5 1 d 5 2 d 4 1 d 5 2 d 4 2 d 4 2 d 4 3 d 4 3 d 4 3 d 4 3 d 4 3 d 4 4 d 4 4 d 3 4 d 3 4 d 3 5 d 3 4 d
 2 4 d 1 1 d s 3 lw /w 2 def /w2 {w 2 div} def /w3 {w 3 div} def 380 277 459 291 539 291 618 288 697 289 777 287 856 282 935 232 1015 237 1094 222 1174 209 1253 216 1332 216 1412 239 1491 264 1570 243 1650 265 1729 236 1809 207 1888 264 20 { m20} R 6
 lw black 1 0 0 c
 gsave  2268 1328 0 0 C 2022.71 242.156 t 0 r /Helvetica-Bold findfont 48.4311 sf 0 0 m (/dof=20.7) show NC gr  black 1 0 0 c
 gsave  2268 1328 0 0 C 2002.77 259.249 t 0 r /Helvetica-Bold findfont 34.1867 sf 0 0 m (2) show NC gr  black 1 0 0 c
 gsave  2268 1328 0 0 C 1977.13 242.156 t 0 r /Symbol findfont 48.4311 sf 0 0 m (c) show NC gr  black 3 lw 340 258 m 1588 X s
 gsave  2268 1328 0 0 C 196.573 1213.63 t 0 r /Helvetica-Bold findfont 42.7334 sf 0 0 m (0.7 mm) show NC gr  1 0 0 c /w 23 def /w2 {w 2 div} def /w3 {w 3 div} def 156 1228 m21 black 1 1 1 c 0 0 1 c 380 378 m21 459 389 m21 539 384 m21 618 381 m21 697
 384 m21 777 379 m21 856 382 m21 935 370 m21 1015 350 m21 1094 335 m21 black 1174 311 m 1 Y s 1174 334 m 1 Y s 1168 311 m 11 X s 1168 335 m 11 X s 0 0 1 c 1174 323 m21 black 1253 330 m 4 Y s 1253 357 m 4 Y s 1247 330 m 12 X s 1247 361 m 12 X s 0 0 1
 c 1253 346 m21 black 1332 315 m 7 Y s 1332 345 m 7 Y s 1327 315 m 11 X s 1327 352 m 11 X s 0 0 1 c 1332 334 m21 black 1412 330 m 9 Y s 1412 362 m 10 Y s 1406 330 m 11 X s 1406 372 m 11 X s 0 0 1 c 1412 351 m21 black 1491 340 m 12 Y s 1491 374 m 12 Y
 s 1485 340 m 12 X s 1485 386 m 12 X s 0 0 1 c 1491 363 m21 black 1570 340 m 13 Y s 1570 376 m 13 Y s 1565 340 m 11 X s 1565 389 m 11 X s 0 0 1 c 1570 365 m21 black 1650 336 m 15 Y s 1650 374 m 15 Y s 1644 336 m 11 X s 1644 389 m 11 X s 0 0 1 c 1650
 363 m21 black 1729 372 m 17 Y s 1729 412 m 17 Y s 1723 372 m 12 X s 1723 429 m 12 X s 0 0 1 c 1729 400 m21 black 1809 276 m 16 Y s 1809 315 m 17 Y s 1803 276 m 11 X s 1803 332 m 11 X s 0 0 1 c 1809 304 m21 black 1888 301 m 19 Y s 1888 343 m 19 Y s
 1882 301 m 12 X s 1882 362 m 12 X s 0 0 1 c 1888 331 m21 6 lw 1 1 1 c 0 0 1 c 380 389 m 12 2 d 10 2 d 11 1 d 11 2 d 12 1 d 10 1 d 11 1 d 11 X 10 1 d 38 X 23 -1 d 24 X 38 -2 d 60 X 20 1 d 55 X 25 -1 d 16 -1 d 53 X 7 -1 d 6 X 5 -1 d 5 -1 d 3 X 4 -1 d
 4 -1 d 71 -29 d 5 X 4 -1 d 15 X 6 1 d 7 X 16 2 d 7 1 d 20 X 79 -17 d 20 -3 d 13 -2 d 11 -1 d 9 -1 d 9 -1 d 15 X 3 -1 d 12 X 8 1 d 9 X 16 2 d 15 1 d 9 1 d 35 X 22 -1 d 25 X 5 1 d 2 X 5 1 d 5 1 d 6 1 d 6 1 d 7 2 d 7 3 d 22 7 d 7 2 d 6 2 d 6 1 d 3 1 d
 24 5 d 10 3 d 9 1 d 8 2 d 7 1 d 6 X 6 1 d 18 X 5 -1 d 5 X 6 -1 d 8 -2 d 19 -4 d 6 -1 d 5 -1 d 6 -1 d 19 X 5 1 d 5 1 d 6 1 d 8 2 d 16 3 d 7 2 d 5 1 d 5 X 4 1 d 19 X 5 -1 d 65 -15 d 6 -1 d 8 -2 d 29 -7 d 5 -1 d 6 -1 d 5 -1 d 5 -1 d 16 X 5 1 d 5 X 5 1
 d 5 1 d 5 1 d 6 1 d 5 2 d 5 2 d 5 1 d 5 3 d 5 2 d 5 2 d 4 2 d 5 3 d 4 3 d 4 3 d 1 X s 3 lw /w 2 def /w2 {w 2 div} def /w3 {w 3 div} def 380 389 459 399 539 399 618 397 697 398 777 396 856 393 935 362 1015 365 1094 348 1174 339 1253 344 1332 344 1412
 366 1491 379 1570 368 1650 380 1729 364 1809 350 1888 378 20 { m20} R 6 lw black 0 0 1 c
 gsave  2268 1328 0 0 C 2036.96 364.658 t 0 r /Helvetica-Bold findfont 48.4311 sf 0 0 m (/dof=8.2) show NC gr  black 0 0 1 c
 gsave  2268 1328 0 0 C 2017.01 381.751 t 0 r /Helvetica-Bold findfont 34.1867 sf 0 0 m (2) show NC gr  black 0 0 1 c
 gsave  2268 1328 0 0 C 1991.37 364.658 t 0 r /Symbol findfont 48.4311 sf 0 0 m (c) show NC gr  black 3 lw 340 375 m 1588 X s
 gsave  2268 1328 0 0 C 424.485 1213.63 t 0 r /Helvetica-Bold findfont 42.7334 sf 0 0 m (0.9 mm) show NC gr  0 0 1 c /w 23 def /w2 {w 2 div} def /w3 {w 3 div} def 383 1228 m21 black 1 1 1 c 1 0 1 c 380 493 m21 459 501 m21 539 495 m21 618 496 m21 697
 494 m21 777 500 m21 856 496 m21 935 490 m21 1015 474 m21 1094 487 m21 black 1174 466 m 2 Y s 1174 491 m 3 Y s 1168 466 m 11 X s 1168 494 m 11 X s 1 0 1 c 1174 480 m21 black 1253 435 m 5 Y s 1253 463 m 6 Y s 1247 435 m 12 X s 1247 469 m 12 X s 1 0 1
 c 1253 452 m21 black 1332 440 m 9 Y s 1332 472 m 8 Y s 1327 440 m 11 X s 1327 480 m 11 X s 1 0 1 c 1332 460 m21 black 1412 472 m 11 Y s 1412 506 m 12 Y s 1406 472 m 11 X s 1406 518 m 11 X s 1 0 1 c 1412 495 m21 black 1491 495 m 14 Y s 1491 531 m 14
 Y s 1485 495 m 12 X s 1485 545 m 12 X s 1 0 1 c 1491 520 m21 black 1570 474 m 16 Y s 1570 513 m 16 Y s 1565 474 m 11 X s 1565 529 m 11 X s 1 0 1 c 1570 502 m21 black 1650 511 m 19 Y s 1650 552 m 19 Y s 1644 511 m 11 X s 1644 571 m 11 X s 1 0 1 c
 1650 541 m21 black 1729 464 m 20 Y s 1729 507 m 19 Y s 1723 464 m 12 X s 1723 526 m 12 X s 1 0 1 c 1729 495 m21 black 1809 494 m 22 Y s 1809 539 m 21 Y s 1803 494 m 11 X s 1803 560 m 11 X s 1 0 1 c 1809 527 m21 black 1888 491 m 24 Y s 1888 537 m 24
 Y s 1882 491 m 12 X s 1882 561 m 12 X s 1 0 1 c 1888 526 m21 6 lw 1 1 1 c 1 0 1 c 380 500 m 12 1 d 10 1 d 11 1 d 11 X 12 1 d 10 1 d 22 X 10 1 d 38 X 23 -1 d 24 X 38 -1 d 60 X 20 1 d 34 X 21 -1 d 72 X 11 -1 d 23 X 6 -1 d 8 X 5 -1 d 4 X 6 -1 d 5 -1 d
 7 -1 d 15 -4 d 8 -1 d 6 -1 d 5 -1 d 5 -1 d 5 -1 d 8 X 5 -1 d 21 X 8 1 d 18 X 6 1 d 16 X 4 -1 d 7 X 5 -1 d 5 X 6 -1 d 6 -1 d 8 -1 d 24 -5 d 6 -1 d 6 X 5 -1 d 3 X 12 -2 d 10 X 9 -1 d 10 -1 d 9 X 10 -1 d 49 X 16 1 d 15 1 d 43 X 22 -1 d 20 X 5 1 d 8 X 5
 1 d 4 X 5 1 d 5 1 d 6 1 d 6 1 d 8 2 d 14 3 d 6 1 d 7 1 d 4 1 d 5 1 d 5 1 d 8 X 9 1 d 9 1 d 8 1 d 9 X 8 1 d 38 X 69 -4 d 10 X 6 1 d 7 X 9 1 d 18 2 d 8 X 7 1 d 26 X 6 -1 d 7 X 10 -1 d 16 -1 d 13 -2 d 8 X 7 -1 d 1 X 12 -1 d 27 -2 d 16 X 8 -1 d 24 X 7 1
 d 8 X 7 1 d 8 X 6 1 d 8 1 d 7 1 d 7 1 d 7 1 d 7 1 d s 3 lw /w 2 def /w2 {w 2 div} def /w3 {w 3 div} def 380 500 459 505 539 505 618 504 697 505 777 504 856 502 935 489 1015 489 1094 478 1174 473 1253 475 1332 475 1412 490 1491 494 1570 490 1650 495
 1729 489 1809 485 1888 493 20 { m20} R 6 lw black 1 0 1 c
 gsave  2268 1328 0 0 C 2036.96 490.009 t 0 r /Helvetica-Bold findfont 48.4311 sf 0 0 m (/dof=2.6) show NC gr  black 1 0 1 c
 gsave  2268 1328 0 0 C 2017.01 507.102 t 0 r /Helvetica-Bold findfont 34.1867 sf 0 0 m (2) show NC gr  black 1 0 1 c
 gsave  2268 1328 0 0 C 1991.37 490.009 t 0 r /Symbol findfont 48.4311 sf 0 0 m (c) show NC gr  black 3 lw 340 492 m 1588 X s
 gsave  2268 1328 0 0 C 649.547 1213.63 t 0 r /Helvetica-Bold findfont 39.8845 sf 0 0 m (1.1 mm) show NC gr  1 0 1 c /w 23 def /w2 {w 2 div} def /w3 {w 3 div} def 609 1228 m21 black 1 1 1 c 0 0.733333 1 c 380 611 m21 459 614 m21 539 615 m21 618 607
 m21 697 610 m21 777 613 m21 856 618 m21 935 604 m21 1015 607 m21 1094 603 m21 black 1174 577 m 4 Y s 1174 603 m 4 Y s 1168 577 m 11 X s 1168 607 m 11 X s 0 0.733333 1 c 1174 592 m21 black 1253 568 m 7 Y s 1253 598 m 7 Y s 1247 568 m 12 X s 1247 605
 m 12 X s 0 0.733333 1 c 1253 587 m21 black 1332 573 m 11 Y s 1332 606 m 11 Y s 1327 573 m 11 X s 1327 617 m 11 X s 0 0.733333 1 c 1332 595 m21 black 1412 588 m 14 Y s 1412 625 m 13 Y s 1406 588 m 11 X s 1406 638 m 11 X s 0 0.733333 1 c 1412 613 m21
 black 1491 622 m 17 Y s 1491 661 m 17 Y s 1485 622 m 12 X s 1485 678 m 12 X s 0 0.733333 1 c 1491 650 m21 black 1570 588 m 18 Y s 1570 629 m 18 Y s 1565 588 m 11 X s 1565 647 m 11 X s 0 0.733333 1 c 1570 617 m21 black 1650 551 m 20 Y s 1650 593 m 20
 Y s 1644 551 m 11 X s 1644 613 m 11 X s 0 0.733333 1 c 1650 582 m21 black 1729 575 m 22 Y s 1729 619 m 22 Y s 1723 575 m 12 X s 1723 641 m 12 X s 0 0.733333 1 c 1729 608 m21 black 1809 575 m 24 Y s 1809 622 m 24 Y s 1803 575 m 11 X s 1803 646 m 11 X
 s 0 0.733333 1 c 1809 611 m21 black 1888 616 m 26 Y s 1888 665 m 26 Y s 1882 616 m 12 X s 1882 691 m 12 X s 0 0.733333 1 c 1888 653 m21 6 lw 1 1 1 c 0 0.733333 1 c 380 613 m 12 1 d 10 X 11 1 d 11 X 12 1 d 42 X 10 1 d 11 X 17 -1 d 245 X 16 -1 d 76 X
 3 -1 d 10 X 5 -1 d 7 X 7 -1 d 24 -2 d 6 -1 d 11 X 4 -1 d 42 X 13 1 d 23 X 4 -1 d 17 X 5 -1 d 7 X 8 -1 d 24 -3 d 6 -1 d 10 X 5 -1 d 9 X 9 -1 d 18 X 10 -1 d 79 X 15 1 d 103 X 4 1 d 9 X 5 1 d 6 1 d 8 1 d 14 2 d 6 X 6 1 d 5 1 d 12 X 6 1 d 14 X 8 1 d 80
 X 28 -1 d 49 X 16 1 d 19 X 6 1 d 25 X 7 -1 d 19 X 23 -1 d 9 X 8 -1 d 42 X 12 -1 d 36 X 11 1 d 29 X 11 1 d 18 X s 3 lw /w 2 def /w2 {w 2 div} def /w3 {w 3 div} def 380 613 459 616 539 616 618 616 697 616 777 615 856 614 935 608 1015 608 1094 601 1174
 599 1253 600 1332 600 1412 608 1491 610 1570 609 1650 611 1729 608 1809 607 1888 609 20 { m20} R 6 lw black 0 0.733333 1 c
 gsave  2268 1328 0 0 C 2036.96 615.36 t 0 r /Helvetica-Bold findfont 48.4311 sf 0 0 m (/dof=0.8) show NC gr  black 0 0.733333 1 c
 gsave  2268 1328 0 0 C 2017.01 632.454 t 0 r /Helvetica-Bold findfont 34.1867 sf 0 0 m (2) show NC gr  black 0 0.733333 1 c
 gsave  2268 1328 0 0 C 1991.37 615.36 t 0 r /Symbol findfont 48.4311 sf 0 0 m (c) show NC gr  black 3 lw 340 609 m 1588 X s
 gsave  2268 1328 0 0 C 877.458 1213.63 t 0 r /Helvetica-Bold findfont 39.8845 sf 0 0 m (1.2 mm) show NC gr  0 0.733333 1 c /w 23 def /w2 {w 2 div} def /w3 {w 3 div} def 836 1228 m21 black 1 1 1 c 0.35 0.83 0.33 c 380 721 m21 459 723 m21 539 714 m21
 618 726 m21 697 720 m21 777 724 m21 856 727 m21 935 724 m21 1015 723 m21 black 1094 746 m 1 Y s 1094 770 m 1 Y s 1088 746 m 12 X s 1088 771 m 12 X s 0.35 0.83 0.33 c 1094 759 m21 black 1174 739 m 5 Y s 1174 766 m 5 Y s 1168 739 m 11 X s 1168 771 m
 11 X s 0.35 0.83 0.33 c 1174 755 m21 black 1253 690 m 9 Y s 1253 722 m 8 Y s 1247 690 m 12 X s 1247 730 m 12 X s 0.35 0.83 0.33 c 1253 710 m21 black 1332 701 m 12 Y s 1332 736 m 12 Y s 1327 701 m 11 X s 1327 748 m 11 X s 0.35 0.83 0.33 c 1332 725
 m21 black 1412 692 m 15 Y s 1412 730 m 15 Y s 1406 692 m 11 X s 1406 745 m 11 X s 0.35 0.83 0.33 c 1412 718 m21 black 1491 675 m 17 Y s 1491 715 m 18 Y s 1485 675 m 12 X s 1485 733 m 12 X s 0.35 0.83 0.33 c 1491 704 m21 black 1570 777 m 21 Y s 1570
 821 m 22 Y s 1565 777 m 11 X s 1565 843 m 11 X s 0.35 0.83 0.33 c 1570 810 m21 black 1650 645 m 22 Y s 1650 690 m 22 Y s 1644 645 m 11 X s 1644 712 m 11 X s 0.35 0.83 0.33 c 1650 678 m21 black 1729 646 m 24 Y s 1729 693 m 23 Y s 1723 646 m 12 X s
 1723 716 m 12 X s 0.35 0.83 0.33 c 1729 681 m21 black 1809 739 m 27 Y s 1809 789 m 27 Y s 1803 739 m 11 X s 1803 816 m 11 X s 0.35 0.83 0.33 c 1809 777 m21 black 1888 660 m 28 Y s 1888 711 m 28 Y s 1882 660 m 12 X s 1882 739 m 12 X s 0.35 0.83 0.33
 c 1888 700 m21 6 lw 1 1 1 c 0.35 0.83 0.33 c 380 722 m 12 -1 d 10 X 11 -1 d 11 X 12 -1 d 23 X 9 -1 d 71 X 11 1 d 227 X 24 1 d 46 X 9 1 d 12 X 8 1 d 9 X 22 2 d 9 X 7 1 d 92 X 4 1 d 9 X 5 1 d 5 1 d 6 X 8 1 d 14 3 d 7 X 5 1 d 5 1 d 9 X 2 1 d 7 X 8 1 d
 16 X 8 1 d 37 X 4 1 d 79 -2 d 21 X 22 1 d 25 X 4 -1 d 11 X 4 -1 d 9 X 4 -1 d 5 -1 d 7 -1 d 20 -3 d 6 -1 d 4 -1 d 4 X 4 -1 d 9 X 4 -1 d 114 X 17 1 d 43 X 12 -1 d 154 X 28 -1 d 35 X 11 1 d 29 X 11 1 d 10 X 8 1 d s 3 lw /w 2 def /w2 {w 2 div} def /w3
 {w 3 div} def 380 722 459 719 539 718 618 719 697 719 777 719 856 721 935 725 1015 725 1094 735 1174 738 1253 736 1332 736 1412 726 1491 725 1570 726 1650 725 1729 725 1809 724 1888 727 20 { m20} R 6 lw black 0.35 0.83 0.33 c
 gsave  2268 1328 0 0 C 2036.96 740.711 t 0 r /Helvetica-Bold findfont 48.4311 sf 0 0 m (/dof=1.4) show NC gr  black 0.35 0.83 0.33 c
 gsave  2268 1328 0 0 C 2017.01 757.805 t 0 r /Helvetica-Bold findfont 34.1867 sf 0 0 m (2) show NC gr  black 0.35 0.83 0.33 c
 gsave  2268 1328 0 0 C 1991.37 740.711 t 0 r /Symbol findfont 48.4311 sf 0 0 m (c) show NC gr  black 3 lw 340 726 m 1588 X s
 gsave  2268 1328 0 0 C 1105.37 1213.63 t 0 r /Helvetica-Bold findfont 39.8845 sf 0 0 m (1.4 mm) show NC gr  0.35 0.83 0.33 c /w 23 def /w2 {w 2 div} def /w3 {w 3 div} def 1063 1228 m21 black 1 1 1 c 0.53 0.4 0.34 c 380 830 m21 459 825 m21 539 829
 m21 618 819 m21 697 820 m21 777 833 m21 856 828 m21 935 835 m21 1015 844 m21 black 1094 863 m 2 Y s 1094 887 m 2 Y s 1088 863 m 12 X s 1088 889 m 12 X s 0.53 0.4 0.34 c 1094 876 m21 black 1174 846 m 6 Y s 1174 874 m 6 Y s 1168 846 m 11 X s 1168 880
 m 11 X s 0.53 0.4 0.34 c 1174 863 m21 black 1253 885 m 11 Y s 1253 919 m 11 Y s 1247 885 m 12 X s 1247 930 m 12 X s 0.53 0.4 0.34 c 1253 908 m21 black 1332 837 m 14 Y s 1332 874 m 14 Y s 1327 837 m 11 X s 1327 888 m 11 X s 0.53 0.4 0.34 c 1332 862
 m21 black 1412 788 m 17 Y s 1412 827 m 17 Y s 1406 788 m 11 X s 1406 844 m 11 X s 0.53 0.4 0.34 c 1412 816 m21 black 1491 876 m 21 Y s 1491 919 m 21 Y s 1485 876 m 12 X s 1485 940 m 12 X s 0.53 0.4 0.34 c 1491 908 m21 black 1570 789 m 22 Y s 1570
 834 m 22 Y s 1565 789 m 11 X s 1565 856 m 11 X s 0.53 0.4 0.34 c 1570 822 m21 black 1650 837 m 26 Y s 1650 886 m 25 Y s 1644 837 m 11 X s 1644 911 m 11 X s 0.53 0.4 0.34 c 1650 874 m21 black 1729 810 m 27 Y s 1729 860 m 26 Y s 1723 810 m 12 X s 1723
 886 m 12 X s 0.53 0.4 0.34 c 1729 848 m21 black 1809 789 m 29 Y s 1809 841 m 29 Y s 1803 789 m 11 X s 1803 870 m 11 X s 0.53 0.4 0.34 c 1809 829 m21 black 1888 838 m 32 Y s 1888 892 m 32 Y s 1882 838 m 12 X s 1882 924 m 12 X s 0.53 0.4 0.34 c 1888
 881 m21 6 lw 1 1 1 c 0.53 0.4 0.34 c 380 834 m 12 -2 d 10 -1 d 11 -1 d 11 -1 d 12 -1 d 10 X 11 -1 d 11 X 11 -1 d 43 X 17 1 d 28 X 28 1 d 169 X 13 1 d 47 1 d 21 X 9 1 d 2 X 7 1 d 8 X 10 1 d 17 2 d 12 2 d 8 1 d 7 X 6 1 d 4 X 80 1 d 4 1 d 5 X 4 1 d 5 1
 d 4 2 d 6 1 d 8 3 d 15 5 d 6 2 d 5 2 d 5 1 d 5 1 d 4 1 d 3 X 7 1 d 7 1 d 7 1 d 8 1 d 7 1 d 9 X 9 1 d 20 X 6 1 d 79 -4 d 12 X 8 1 d 22 1 d 26 X 4 -1 d 4 X 3 -1 d 4 X 3 -1 d 5 -1 d 68 -22 d 4 X 5 -1 d 30 X 14 1 d 26 X 21 1 d 72 X 66 -1 d 85 X 7 -1 d 9
 -1 d 30 -2 d 7 -1 d 28 X 7 1 d 8 X 7 1 d 8 1 d 6 X 8 1 d 7 2 d 7 1 d 7 1 d 7 2 d s 3 lw /w 2 def /w2 {w 2 div} def /w3 {w 3 div} def 380 834 459 827 539 827 618 828 697 828 777 829 856 831 935 839 1015 840 1094 861 1174 868 1253 864 1332 864 1412
 840 1491 840 1570 841 1650 840 1729 840 1809 835 1888 845 20 { m20} R 6 lw black 0.53 0.4 0.34 c
 gsave  2268 1328 0 0 C 2036.96 863.214 t 0 r /Helvetica-Bold findfont 48.4311 sf 0 0 m (/dof=1.2) show NC gr  black 0.53 0.4 0.34 c
 gsave  2268 1328 0 0 C 2017.01 880.307 t 0 r /Helvetica-Bold findfont 34.1867 sf 0 0 m (2) show NC gr  black 0.53 0.4 0.34 c
 gsave  2268 1328 0 0 C 1991.37 863.214 t 0 r /Symbol findfont 48.4311 sf 0 0 m (c) show NC gr  black 3 lw 340 843 m 1588 X s
 gsave  2268 1328 0 0 C 1330.43 1213.63 t 0 r /Helvetica-Bold findfont 42.7334 sf 0 0 m (1.5 mm) show NC gr  0.53 0.4 0.34 c /w 23 def /w2 {w 2 div} def /w3 {w 3 div} def 1290 1228 m21 black 1 1 1 c black 380 927 m21 459 906 m21 539 911 m21 618 906
 m21 697 906 m21 777 911 m21 856 913 m21 935 928 m21 1015 951 m21 1094 983 m 2 Y s 1094 1008 m 3 Y s 1088 983 m 12 X s 1088 1011 m 12 X s 1094 997 m21 1174 967 m 7 Y s 1174 997 m 7 Y s 1168 967 m 11 X s 1168 1004 m 11 X s 1174 985 m21 1253 960 m 12 Y
 s 1253 994 m 12 Y s 1247 960 m 12 X s 1247 1006 m 12 X s 1253 983 m21 1332 998 m 16 Y s 1332 1037 m 17 Y s 1327 998 m 11 X s 1327 1054 m 11 X s 1332 1026 m21 1412 895 m 18 Y s 1412 936 m 19 Y s 1406 895 m 11 X s 1406 955 m 11 X s 1412 925 m21 1491
 917 m 22 Y s 1491 962 m 22 Y s 1485 917 m 12 X s 1485 984 m 12 X s 1491 950 m21 1570 920 m 25 Y s 1570 967 m 25 Y s 1565 920 m 11 X s 1565 992 m 11 X s 1570 956 m21 1650 904 m 27 Y s 1650 954 m 27 Y s 1644 904 m 11 X s 1644 981 m 11 X s 1650 943 m21
 1729 863 m 29 Y s 1729 914 m 29 Y s 1723 863 m 12 X s 1723 943 m 12 X s 1729 903 m21 1809 880 m 32 Y s 1809 935 m 31 Y s 1803 880 m 11 X s 1803 966 m 11 X s 1809 923 m21 1888 891 m 34 Y s 1888 948 m 34 Y s 1882 891 m 12 X s 1882 982 m 12 X s 1888
 937 m21 6 lw 1 1 1 c black 380 940 m 12 -3 d 10 -2 d 11 -3 d 11 -2 d 12 -2 d 10 -1 d 11 -1 d 2 X 9 -1 d 11 -1 d 44 X 16 1 d 11 X 17 1 d 28 2 d 13 1 d 21 X 13 -1 d 46 -1 d 27 X 23 1 d 26 1 d 13 X 27 2 d 24 1 d 28 2 d 15 2 d 24 2 d 23 3 d 14 1 d 61 X
 6 1 d 5 X 4 1 d 5 1 d 2 1 d 4 1 d 4 2 d 4 2 d 4 3 d 5 3 d 5 3 d 5 5 d 9 7 d 9 8 d 6 5 d 5 3 d 5 3 d 4 3 d 4 2 d 4 2 d 2 1 d 6 2 d 6 2 d 6 2 d 7 1 d 9 2 d 7 1 d 8 1 d 10 1 d 11 1 d 10 X 79 -7 d 12 X 8 1 d 18 2 d 8 X 7 1 d 6 X 5 -1 d 5 X 4 -1 d 4 -1 d
 2 -1 d 4 -1 d 3 -1 d 3 -2 d 4 -2 d 4 -3 d 4 -3 d 4 -3 d 5 -5 d 20 -21 d 4 -3 d 4 -3 d 4 -2 d 3 -3 d 3 -2 d 4 -1 d 3 -1 d 3 -1 d 1 -1 d 4 -1 d 8 X 5 -1 d 4 1 d 6 X 6 1 d 10 2 d 15 3 d 7 1 d 5 1 d 27 X 11 -1 d 37 -2 d 9 -1 d 14 X 11 1 d 19 1 d 16 1 d
 24 X 14 -1 d 15 -1 d 13 -1 d 12 -1 d 11 -2 d 10 -1 d 4 -1 d 5 -1 d 5 -1 d 6 -2 d 8 -3 d 21 -8 d 6 -2 d 5 -1 d 6 -1 d 4 -1 d 4 X 4 -1 d 4 1 d 7 X 5 1 d 5 1 d 5 2 d 5 1 d 6 2 d 5 2 d 5 3 d 5 3 d 5 3 d 5 3 d 5 3 d 4 4 d 5 4 d 4 3 d 4 5 d 1 X s 3 lw /w
 2 def /w2 {w 2 div} def /w3 {w 3 div} def 380 940 459 926 539 925 618 929 697 927 777 929 856 934 935 942 1015 946 1094 999 1174 1012 1253 1005 1332 1005 1412 947 1491 954 1570 950 1650 953 1729 945 1809 925 1888 965 20 { m20} R 6 lw
 gsave  2268 1328 0 0 C 2036.96 988.565 t 0 r /Helvetica-Bold findfont 48.4311 sf 0 0 m (/dof=6.7) show NC gr 
 gsave  2268 1328 0 0 C 2017.01 1005.66 t 0 r /Helvetica-Bold findfont 34.1867 sf 0 0 m (2) show NC gr 
 gsave  2268 1328 0 0 C 1991.37 988.565 t 0 r /Symbol findfont 48.4311 sf 0 0 m (c) show NC gr  3 lw 340 961 m 1588 X s
 gsave  2268 1328 0 0 C 1558.34 1213.63 t 0 r /Helvetica-Bold findfont 39.8845 sf 0 0 m (1.7 mm) show NC gr  /w 23 def /w2 {w 2 div} def /w3 {w 3 div} def 1517 1228 m21 1 1 1 c 0.48 0 1 c 380 1018 m21 459 990 m21 539 976 m21 618 988 m21 697 982 m21
 777 986 m21 856 997 m21 935 1016 m21 1015 1056 m21 black 1094 1102 m 4 Y s 1094 1129 m 3 Y s 1088 1102 m 12 X s 1088 1132 m 12 X s 0.48 0 1 c 1094 1117 m21 black 1174 1133 m 9 Y s 1174 1165 m 9 Y s 1168 1133 m 11 X s 1168 1174 m 11 X s 0.48 0 1 c
 1174 1153 m21 black 1253 1126 m 14 Y s 1253 1163 m 14 Y s 1247 1126 m 12 X s 1247 1177 m 12 X s 0.48 0 1 c 1253 1152 m21 black 1332 1085 m 18 Y s 1332 1126 m 18 Y s 1327 1085 m 11 X s 1327 1144 m 11 X s 0.48 0 1 c 1332 1115 m21 black 1412 1059 m 21
 Y s 1412 1103 m 21 Y s 1406 1059 m 11 X s 1406 1124 m 11 X s 0.48 0 1 c 1412 1092 m21 black 1491 1023 m 24 Y s 1491 1070 m 24 Y s 1485 1023 m 12 X s 1485 1094 m 12 X s 0.48 0 1 c 1491 1059 m21 black 1570 997 m 27 Y s 1570 1047 m 27 Y s 1565 997 m 11
 X s 1565 1074 m 11 X s 0.48 0 1 c 1570 1036 m21 black 1650 1039 m 30 Y s 1650 1091 m 30 Y s 1644 1039 m 11 X s 1644 1121 m 11 X s 0.48 0 1 c 1650 1080 m21 black 1729 987 m 32 Y s 1729 1042 m 31 Y s 1723 987 m 12 X s 1723 1073 m 12 X s 0.48 0 1 c
 1729 1030 m21 black 1809 946 m 33 Y s 1809 1002 m 33 Y s 1803 946 m 11 X s 1803 1035 m 11 X s 0.48 0 1 c 1809 991 m21 black 1888 1045 m 37 Y s 1888 1105 m 37 Y s 1882 1045 m 12 X s 1882 1142 m 12 X s 0.48 0 1 c 1888 1093 m21 6 lw 1 1 1 c 0.48 0 1 c
 380 1045 m 12 -5 d 10 -4 d 12 -4 d 12 -3 d 12 -3 d 12 -2 d 9 -2 d 10 -1 d 11 -1 d 12 -1 d 16 1 d 31 1 d 14 1 d 22 2 d 23 2 d 13 1 d 20 X 66 -3 d 20 X 25 1 d 29 2 d 6 1 d 13 1 d 22 3 d 22 2 d 12 1 d 10 1 d 22 X 43 -3 d 14 X 10 1 d 32 -1 d 7 X 7 1 d 6
 1 d 6 2 d 5 2 d 5 2 d 2 2 d 4 2 d 4 4 d 4 4 d 5 5 d 4 5 d 5 7 d 7 10 d 16 25 d 7 9 d 5 7 d 4 5 d 5 5 d 3 3 d 4 4 d 2 1 d 6 3 d 6 4 d 6 3 d 7 2 d 7 2 d 8 2 d 9 2 d 10 1 d 16 1 d 5 1 d 79 -11 d 12 X 9 1 d 20 4 d 8 1 d 12 X 5 -1 d 4 -1 d 4 -1 d 5 -2 d
 -1 Y 4 -2 d 3 -3 d 4 -3 d 4 -4 d 4 -6 d 4 -6 d 5 -7 d 6 -11 d 14 -26 d 5 -7 d 3 -6 d 4 -5 d 4 -5 d 3 -3 d 4 -4 d 3 -2 d 4 -2 d 2 -1 d 4 -1 d 4 -1 d 8 X 5 1 d 5 2 d 6 2 d 8 4 d 16 8 d 7 3 d 5 2 d 5 1 d 19 X 7 -1 d 10 -3 d 31 -7 d 7 -2 d 6 X 5 -1 d 7
 1 d 7 X 8 2 d 15 3 d 15 4 d 9 1 d 7 1 d 12 X 8 -1 d 9 -1 d 10 -2 d 8 -3 d 10 -3 d 13 -5 d 14 -6 d 7 -3 d 5 -2 d 5 -4 d 5 -4 d 7 -6 d 23 -20 d 5 -4 d 5 -3 d 4 -3 d 5 -2 d 4 -1 d 4 X 3 -1 d 4 1 d 1 X 5 1 d 4 2 d 5 2 d 5 3 d 5 3 d 4 4 d 5 4 d 4 5 d 5 5
 d 5 5 d 4 6 d 5 8 d 4 6 d 4 8 d 3 7 d 4 9 d 4 8 d 3 8 d 1 3 d s 3 lw /w 2 def /w2 {w 2 div} def /w3 {w 3 div} def 380 1045 459 1022 539 1021 618 1027 697 1024 777 1028 856 1036 935 1033 1015 1043 1094 1139 1174 1160 1253 1149 1332 1149 1412 1046
 1491 1067 1570 1053 1650 1065 1729 1041 1809 992 1888 1089 20 { m20} R 6 lw black 0.48 0 1 c
 gsave  2268 1328 0 0 C 2022.71 1113.92 t 0 r /Helvetica-Bold findfont 48.4311 sf 0 0 m (/dof=24.5) show NC gr  black 0.48 0 1 c
 gsave  2268 1328 0 0 C 2002.77 1131.01 t 0 r /Helvetica-Bold findfont 34.1867 sf 0 0 m (2) show NC gr  black 0.48 0 1 c
 gsave  2268 1328 0 0 C 1977.13 1113.92 t 0 r /Symbol findfont 48.4311 sf 0 0 m (c) show NC gr  black 3 lw 340 1078 m 1588 X s
 gsave  2268 1328 0 0 C 1783.41 1213.63 t 0 r /Helvetica-Bold findfont 42.7334 sf 0 0 m (1.9 mm) show NC gr  0.48 0 1 c /w 23 def /w2 {w 2 div} def /w3 {w 3 div} def 1743 1228 m21
 gr  gr showpage
end
%%EOF
