%!PS-Adobe-2.0 EPSF-2.0
%%BoundingBox:  0 0 567 332
%%Title: BeamSigmaX_nof_summary.eps: Summary
%%Creator: ROOT Version 5.30/06
%%CreationDate: Sun Feb  2 09:30:22 2014
%%EndComments
%%BeginProlog
80 dict begin
/s {stroke} def /l {lineto} def /m {moveto} def /t {translate} def
/r {rotate} def /rl {roll}  def /R {repeat} def
/d {rlineto} def /rm {rmoveto} def /gr {grestore} def /f {eofill} def
/c {setrgbcolor} def /black {0 setgray} def /sd {setdash} def
/cl {closepath} def /sf {scalefont setfont} def /lw {setlinewidth} def
/box {m dup 0 exch d exch 0 d 0 exch neg d cl} def
/NC{systemdict begin initclip end}def/C{NC box clip newpath}def
/bl {box s} def /bf {box f} def /Y { 0 exch d} def /X { 0 d} def 
/K {{pop pop 0 moveto} exch kshow} bind def
/ita {/ang 15 def gsave [1 0 ang dup sin exch cos div 1 0 0] concat} def 
/mp {newpath /y exch def /x exch def} def
/side {[w .77 mul w .23 mul] .385 w mul sd w 0 l currentpoint t -144 r} def
/mr {mp x y w2 0 360 arc} def /m24 {mr s} def /m20 {mr f} def
/mb {mp x y w2 add m w2 neg 0 d 0 w neg d w 0 d 0 w d cl} def
/mt {mp x y w2 add m w2 neg w neg d w 0 d cl} def
/m21 {mb f} def /m25 {mb s} def /m22 {mt f} def /m26{mt s} def
/m23 {mp x y w2 sub m w2 w d w neg 0 d cl f} def
/m27 {mp x y w2 add m w3 neg w2 neg d w3 w2 neg d w3 w2 d cl s} def
/m28 {mp x w2 sub y w2 sub w3 add m w3 0 d  0 w3 neg d w3 0 d 0 w3 d w3 0 d  0 w3 d w3 neg 0 d 0 w3 d w3 neg 0 d 0 w3 neg d w3 neg 0 d cl s } def
/m29 {mp gsave x w2 sub y w2 add w3 sub m currentpoint t 4 {side} repeat cl fill gr} def
/m30 {mp gsave x w2 sub y w2 add w3 sub m currentpoint t 4 {side} repeat cl s gr} def
/m31 {mp x y w2 sub m 0 w d x w2 sub y m w 0 d x w2 sub y w2 add m w w neg d x w2 sub y w2 sub m w w d s} def
/m32 {mp x y w2 sub m w2 w d w neg 0 d cl s} def
/m33 {mp x y w2 add m w3 neg w2 neg d w3 w2 neg d w3 w2 d cl f} def
/m34 {mp x w2 sub y w2 sub w3 add m w3 0 d  0 w3 neg d w3 0 d 0 w3 d w3 0 d  0 w3 d w3 neg 0 d 0 w3 d w3 neg 0 d 0 w3 neg d w3 neg 0 d cl f } def
/m2 {mp x y w2 sub m 0 w d x w2 sub y m w 0 d s} def
/m5 {mp x w2 sub y w2 sub m w w d x w2 sub y w2 add m w w neg d s} def
/reEncode {exch findfont dup length dict begin {1 index /FID eq  {pop pop} {def} ifelse } forall /Encoding exch def currentdict end dup /FontName get exch definefont pop } def [/Times-Bold /Times-Italic /Times-BoldItalic /Helvetica /Helvetica-Oblique
 /Helvetica-Bold /Helvetica-BoldOblique /Courier /Courier-Oblique /Courier-Bold /Courier-BoldOblique /Times-Roman /AvantGarde-Book /AvantGarde-BookOblique /AvantGarde-Demi /AvantGarde-DemiOblique /Bookman-Demi /Bookman-DemiItalic /Bookman-Light
 /Bookman-LightItalic /Helvetica-Narrow /Helvetica-Narrow-Bold /Helvetica-Narrow-BoldOblique /Helvetica-Narrow-Oblique /NewCenturySchlbk-Roman /NewCenturySchlbk-Bold /NewCenturySchlbk-BoldItalic /NewCenturySchlbk-Italic /Palatino-Bold
 /Palatino-BoldItalic /Palatino-Italic /Palatino-Roman ] {ISOLatin1Encoding reEncode } forall%%EndProlog
%%BeginSetup
%%EndSetup
newpath  gsave  .25 .25 scale  gsave  0 0 t black[  ] 0 sd 3 lw 1 1 1 c 2268 1328 0 0 bf black 1 1 1 c black 1588 996 340 199 bl 1588 996 340 199 bl 1 1 1 c 1 0 0 c /w 23 def /w2 {w 2 div} def /w3 {w 3 div} def 380 254 m21 459 256 m21 539 256 m21 618
 258 m21 697 258 m21 777 256 m21 856 255 m21 935 244 m21 1015 243 m21 1094 256 m21 black 1174 240 m 2 Y s 1174 265 m 3 Y s 1168 240 m 11 X s 1168 268 m 11 X s 1 0 0 c 1174 254 m21 black 1253 242 m 6 Y s 1253 271 m 6 Y s 1247 242 m 12 X s 1247 277 m
 12 X s 1 0 0 c 1253 260 m21 black 1332 264 m 9 Y s 1332 296 m 10 Y s 1327 264 m 11 X s 1327 306 m 11 X s 1 0 0 c 1332 285 m21 black 1412 249 m 12 Y s 1412 284 m 12 Y s 1406 249 m 11 X s 1406 296 m 11 X s 1 0 0 c 1412 273 m21 black 1491 259 m 15 Y s
 1491 297 m 14 Y s 1485 259 m 12 X s 1485 311 m 12 X s 1 0 0 c 1491 285 m21 black 1570 230 m 16 Y s 1570 269 m 16 Y s 1565 230 m 11 X s 1565 285 m 11 X s 1 0 0 c 1570 258 m21 black 1650 269 m 20 Y s 1650 312 m 20 Y s 1644 269 m 11 X s 1644 332 m 11 X
 s 1 0 0 c 1650 301 m21 black 1729 205 m 20 Y s 1729 248 m 20 Y s 1723 205 m 12 X s 1723 268 m 12 X s 1 0 0 c 1729 237 m21 black 1809 200 m 22 Y s 1809 245 m 21 Y s 1803 200 m 11 X s 1803 266 m 11 X s 1 0 0 c 1809 233 m21 black 1888 274 m 26 Y s 1888
 322 m 26 Y s 1882 274 m 12 X s 1882 348 m 12 X s 1 0 0 c 1888 311 m21 black 340 199 m 1588 X s
 gsave  2268 1328 0 0 C 954.378 68.3734 t 0 r /Helvetica findfont 62.6756 sf 0 0 m ( Energy \(GeV\) ) show NC gr 
 gsave  2268 1328 0 0 C 928.738 51.28 t 0 r /Symbol findfont 42.7334 sf 0 0 m (m) show NC gr 
 gsave  2268 1328 0 0 C 894.552 68.3734 t 0 r /Symbol findfont 62.6756 sf 0 0 m (n) show NC gr  340 216 m -17 Y s 372 208 m -9 Y s 404 208 m -9 Y s 435 208 m -9 Y s 467 208 m -9 Y s 499 216 m -17 Y s 531 208 m -9 Y s 562 208 m -9 Y s 594 208 m -9 Y s
 626 208 m -9 Y s 658 216 m -17 Y s 689 208 m -9 Y s 721 208 m -9 Y s 753 208 m -9 Y s 785 208 m -9 Y s 816 216 m -17 Y s 848 208 m -9 Y s 880 208 m -9 Y s 912 208 m -9 Y s 943 208 m -9 Y s 975 216 m -17 Y s 1007 208 m -9 Y s 1039 208 m -9 Y s 1070
 208 m -9 Y s 1102 208 m -9 Y s 1134 216 m -17 Y s 1166 208 m -9 Y s 1197 208 m -9 Y s 1229 208 m -9 Y s 1261 208 m -9 Y s 1293 216 m -17 Y s 1324 208 m -9 Y s 1356 208 m -9 Y s 1388 208 m -9 Y s 1420 208 m -9 Y s 1451 216 m -17 Y s 1483 208 m -9 Y s
 1515 208 m -9 Y s 1547 208 m -9 Y s 1578 208 m -9 Y s 1610 216 m -17 Y s 1642 208 m -9 Y s 1674 208 m -9 Y s 1705 208 m -9 Y s 1737 208 m -9 Y s 1769 216 m -17 Y s 1801 208 m -9 Y s 1832 208 m -9 Y s 1864 208 m -9 Y s 1896 208 m -9 Y s 1928 216 m
 -17 Y s
 gsave  2268 1328 0 0 C 319.076 136.747 t 0 r /Helvetica findfont 68.3734 sf 0 0 m (0) show NC gr 
 gsave  2268 1328 0 0 C 484.311 136.747 t 0 r /Helvetica findfont 68.3734 sf 0 0 m (1) show NC gr 
 gsave  2268 1328 0 0 C 635.302 136.747 t 0 r /Helvetica findfont 68.3734 sf 0 0 m (2) show NC gr 
 gsave  2268 1328 0 0 C 794.84 136.747 t 0 r /Helvetica findfont 68.3734 sf 0 0 m (3) show NC gr 
 gsave  2268 1328 0 0 C 954.378 136.747 t 0 r /Helvetica findfont 68.3734 sf 0 0 m (4) show NC gr 
 gsave  2268 1328 0 0 C 1113.92 136.747 t 0 r /Helvetica findfont 68.3734 sf 0 0 m (5) show NC gr 
 gsave  2268 1328 0 0 C 1270.6 136.747 t 0 r /Helvetica findfont 68.3734 sf 0 0 m (6) show NC gr 
 gsave  2268 1328 0 0 C 1430.14 136.747 t 0 r /Helvetica findfont 68.3734 sf 0 0 m (7) show NC gr 
 gsave  2268 1328 0 0 C 1589.68 136.747 t 0 r /Helvetica findfont 68.3734 sf 0 0 m (8) show NC gr 
 gsave  2268 1328 0 0 C 1746.37 136.747 t 0 r /Helvetica findfont 68.3734 sf 0 0 m (9) show NC gr 
 gsave  2268 1328 0 0 C 1888.81 136.747 t 0 r /Helvetica findfont 68.3734 sf 0 0 m (10) show NC gr  340 1195 m 1588 X s 340 1178 m 17 Y s 372 1186 m 9 Y s 404 1186 m 9 Y s 435 1186 m 9 Y s 467 1186 m 9 Y s 499 1178 m 17 Y s 531 1186 m 9 Y s 562 1186
 m 9 Y s 594 1186 m 9 Y s 626 1186 m 9 Y s 658 1178 m 17 Y s 689 1186 m 9 Y s 721 1186 m 9 Y s 753 1186 m 9 Y s 785 1186 m 9 Y s 816 1178 m 17 Y s 848 1186 m 9 Y s 880 1186 m 9 Y s 912 1186 m 9 Y s 943 1186 m 9 Y s 975 1178 m 17 Y s 1007 1186 m 9 Y s
 1039 1186 m 9 Y s 1070 1186 m 9 Y s 1102 1186 m 9 Y s 1134 1178 m 17 Y s 1166 1186 m 9 Y s 1197 1186 m 9 Y s 1229 1186 m 9 Y s 1261 1186 m 9 Y s 1293 1178 m 17 Y s 1324 1186 m 9 Y s 1356 1186 m 9 Y s 1388 1186 m 9 Y s 1420 1186 m 9 Y s 1451 1178 m
 17 Y s 1483 1186 m 9 Y s 1515 1186 m 9 Y s 1547 1186 m 9 Y s 1578 1186 m 9 Y s 1610 1178 m 17 Y s 1642 1186 m 9 Y s 1674 1186 m 9 Y s 1705 1186 m 9 Y s 1737 1186 m 9 Y s 1769 1178 m 17 Y s 1801 1186 m 9 Y s 1832 1186 m 9 Y s 1864 1186 m 9 Y s 1896
 1186 m 9 Y s 1928 1178 m 17 Y s 340 199 m 996 Y s
 gsave  2268 1328 0 0 C 170.933 336.169 t 90 r /Helvetica findfont 62.6756 sf 0 0 m (Near/Far Ratio to Nominal) show NC gr  371 258 m -31 X s 355 281 m -15 X s 355 305 m -15 X s 355 328 m -15 X s 355 351 m -15 X s 371 375 m -31 X s 355 398 m -15 X s
 355 422 m -15 X s 355 445 m -15 X s 355 469 m -15 X s 371 492 m -31 X s 355 515 m -15 X s 355 539 m -15 X s 355 562 m -15 X s 355 586 m -15 X s 371 609 m -31 X s 355 633 m -15 X s 355 656 m -15 X s 355 679 m -15 X s 355 703 m -15 X s 371 726 m -31 X
 s 355 750 m -15 X s 355 773 m -15 X s 355 797 m -15 X s 355 820 m -15 X s 371 843 m -31 X s 355 867 m -15 X s 355 890 m -15 X s 355 914 m -15 X s 355 937 m -15 X s 371 961 m -31 X s 355 984 m -15 X s 355 1007 m -15 X s 355 1031 m -15 X s 355 1054 m
 -15 X s 371 1078 m -31 X s 355 1101 m -15 X s 355 1125 m -15 X s 355 1148 m -15 X s 355 1171 m -15 X s 371 1195 m -31 X s 371 258 m -31 X s 355 234 m -15 X s 355 211 m -15 X s
 gsave  2268 1328 0 0 C 301.982 230.76 t 0 r /Helvetica findfont 68.3734 sf 0 0 m (1) show NC gr 
 gsave  2268 1328 0 0 C 245.005 347.565 t 0 r /Helvetica findfont 68.3734 sf 0 0 m (1.1) show NC gr 
 gsave  2268 1328 0 0 C 233.609 464.369 t 0 r /Helvetica findfont 68.3734 sf 0 0 m (1.2) show NC gr 
 gsave  2268 1328 0 0 C 233.609 584.022 t 0 r /Helvetica findfont 68.3734 sf 0 0 m (1.3) show NC gr 
 gsave  2268 1328 0 0 C 233.609 697.978 t 0 r /Helvetica findfont 68.3734 sf 0 0 m (1.4) show NC gr 
 gsave  2268 1328 0 0 C 233.609 820.48 t 0 r /Helvetica findfont 68.3734 sf 0 0 m (1.5) show NC gr 
 gsave  2268 1328 0 0 C 233.609 937.285 t 0 r /Helvetica findfont 68.3734 sf 0 0 m (1.6) show NC gr 
 gsave  2268 1328 0 0 C 233.609 1051.24 t 0 r /Helvetica findfont 68.3734 sf 0 0 m (1.7) show NC gr 
 gsave  2268 1328 0 0 C 233.609 1170.89 t 0 r /Helvetica findfont 68.3734 sf 0 0 m (1.8) show NC gr  1928 199 m 996 Y s 1897 258 m 31 X s 1912 281 m 16 X s 1912 305 m 16 X s 1912 328 m 16 X s 1912 351 m 16 X s 1897 375 m 31 X s 1912 398 m 16 X s 1912
 422 m 16 X s 1912 445 m 16 X s 1912 469 m 16 X s 1897 492 m 31 X s 1912 515 m 16 X s 1912 539 m 16 X s 1912 562 m 16 X s 1912 586 m 16 X s 1897 609 m 31 X s 1912 633 m 16 X s 1912 656 m 16 X s 1912 679 m 16 X s 1912 703 m 16 X s 1897 726 m 31 X s
 1912 750 m 16 X s 1912 773 m 16 X s 1912 797 m 16 X s 1912 820 m 16 X s 1897 843 m 31 X s 1912 867 m 16 X s 1912 890 m 16 X s 1912 914 m 16 X s 1912 937 m 16 X s 1897 961 m 31 X s 1912 984 m 16 X s 1912 1007 m 16 X s 1912 1031 m 16 X s 1912 1054 m
 16 X s 1897 1078 m 31 X s 1912 1101 m 16 X s 1912 1125 m 16 X s 1912 1148 m 16 X s 1912 1171 m 16 X s 1897 1195 m 31 X s 1897 258 m 31 X s 1912 234 m 16 X s 1912 211 m 16 X s 1 0 0 c 6 lw 1 1 1 c 1 0 0 c 380 249 m 18 2 d 20 1 d 17 2 d 18 1 d 6 X 16
 1 d 18 X 20 1 d 42 X 56 -1 d 7 X 14 1 d 22 1 d 22 X 12 1 d 23 X 66 -3 d 48 X 15 -1 d 12 X 4 -1 d 11 X 14 -2 d 54 -6 d 48 -4 d 13 -1 d 12 -1 d 19 X 15 -1 d 32 X 20 1 d 33 1 d 13 1 d 11 X 9 1 d 9 1 d 5 1 d 6 1 d 7 1 d 8 2 d 12 3 d 18 5 d 9 2 d 7 2 d 6
 1 d 6 1 d 6 X 7 1 d 17 X 26 1 d 14 X 6 1 d 3 X 7 1 d 7 2 d 8 1 d 9 3 d 16 4 d 14 4 d 10 2 d 7 2 d 2 X 8 2 d 11 3 d 15 4 d 8 2 d 7 1 d 6 1 d 5 X 5 1 d 14 X 3 -1 d 4 -1 d 4 -1 d 4 -1 d 4 -2 d 5 -2 d 5 -3 d 15 -8 d 6 -3 d 5 -3 d 5 -2 d 4 -2 d 4 -1 d 4
 -1 d 3 X 3 -1 d 9 X 4 1 d 4 X 5 1 d 5 1 d 6 2 d 7 2 d 15 6 d 7 2 d 6 1 d 4 1 d 4 1 d 5 1 d 13 1 d 11 X 8 1 d 14 X 6 -1 d 6 X 6 -1 d 5 -1 d 5 -1 d 4 -1 d 1 -1 d 3 -1 d 3 -1 d 3 -2 d 3 -1 d 3 -2 d 4 -3 d 3 -3 d 4 -4 d 5 -5 d 14 -17 d 4 -4 d 3 -2 d 3
 -3 d 3 -2 d 3 -2 d 2 -1 d 3 -1 d 3 -1 d 2 -1 d 3 X 3 -1 d 7 X 4 1 d 4 X 4 1 d 5 1 d 4 2 d 4 1 d 4 2 d 4 2 d 4 2 d 3 2 d 4 3 d 3 2 d 3 3 d 3 3 d 3 3 d 3 3 d 3 4 d 3 4 d 2 3 d 2 4 d 2 3 d 1 4 d 2 4 d 1 4 d 1 Y s 3 lw /w 2 def /w2 {w 2 div} def /w3 {w
 3 div} def 380 249 459 255 539 257 618 256 697 259 777 256 856 254 935 246 1015 240 1094 240 1174 245 1253 263 1332 266 1412 285 1491 299 1570 267 1650 286 1729 282 1809 225 1888 287 20 { m20} R 6 lw black 1 0 0 c
 gsave  2268 1328 0 0 C 2036.96 242.156 t 0 r /Helvetica-Bold findfont 48.4311 sf 0 0 m (/dof=0.5) show NC gr  black 1 0 0 c
 gsave  2268 1328 0 0 C 2017.01 259.249 t 0 r /Helvetica-Bold findfont 34.1867 sf 0 0 m (2) show NC gr  black 1 0 0 c
 gsave  2268 1328 0 0 C 1991.37 242.156 t 0 r /Symbol findfont 48.4311 sf 0 0 m (c) show NC gr  black 3 lw 340 258 m 1588 X s
 gsave  2268 1328 0 0 C 196.573 1213.63 t 0 r /Helvetica-Bold findfont 42.7334 sf 0 0 m (0.7 mm) show NC gr  1 0 0 c /w 23 def /w2 {w 2 div} def /w3 {w 3 div} def 156 1228 m21 black 1 1 1 c 0 0 1 c 380 369 m21 459 375 m21 539 374 m21 618 372 m21 697
 375 m21 777 374 m21 856 374 m21 935 373 m21 1015 360 m21 1094 364 m21 black 1174 337 m 4 Y s 1174 364 m 3 Y s 1168 337 m 11 X s 1168 367 m 11 X s 0 0 1 c 1174 352 m21 black 1253 369 m 7 Y s 1253 399 m 8 Y s 1247 369 m 12 X s 1247 407 m 12 X s 0 0 1
 c 1253 388 m21 black 1332 347 m 11 Y s 1332 381 m 11 Y s 1327 347 m 11 X s 1327 392 m 11 X s 0 0 1 c 1332 370 m21 black 1412 377 m 15 Y s 1412 415 m 15 Y s 1406 377 m 11 X s 1406 430 m 11 X s 0 0 1 c 1412 404 m21 black 1491 349 m 17 Y s 1491 389 m
 16 Y s 1485 349 m 12 X s 1485 405 m 12 X s 0 0 1 c 1491 377 m21 black 1570 360 m 20 Y s 1570 402 m 20 Y s 1565 360 m 11 X s 1565 422 m 11 X s 0 0 1 c 1570 391 m21 black 1650 363 m 22 Y s 1650 408 m 22 Y s 1644 363 m 11 X s 1644 430 m 11 X s 0 0 1 c
 1650 397 m21 black 1729 401 m 25 Y s 1729 449 m 25 Y s 1723 401 m 12 X s 1723 474 m 12 X s 0 0 1 c 1729 438 m21 black 1809 266 m 24 Y s 1809 313 m 23 Y s 1803 266 m 11 X s 1803 336 m 11 X s 0 0 1 c 1809 301 m21 black 1888 332 m 28 Y s 1888 383 m 28
 Y s 1882 332 m 12 X s 1882 411 m 12 X s 0 0 1 c 1888 371 m21 6 lw 1 1 1 c 0 0 1 c 380 368 m 17 2 d 17 1 d 17 1 d 17 X 11 1 d 16 X 17 1 d 140 X 23 1 d 71 X 51 -1 d 46 X 15 -1 d 11 X 7 -1 d 11 X 13 -1 d 55 -4 d 47 -4 d 12 X 11 -1 d 22 X 13 -1 d 30 X
 17 1 d 32 X 13 1 d 14 X 9 1 d 9 1 d 10 X 6 1 d 6 1 d 8 1 d 9 2 d 21 3 d 9 2 d 7 1 d 6 1 d 7 X 5 1 d 68 X 5 1 d 1 X 5 1 d 6 X 6 1 d 7 2 d 8 2 d 15 3 d 12 3 d 7 2 d 6 1 d 6 1 d 2 X 8 1 d 21 5 d 8 1 d 6 1 d 6 1 d 4 X 5 1 d 21 X 3 -1 d 3 X 4 -1 d 3 X 4
 -1 d 4 -2 d 4 -1 d 4 -2 d 6 -2 d 14 -7 d 5 -2 d 3 -1 d 4 -2 d 4 -1 d 3 -1 d 4 X 3 -1 d 3 X 1 -1 d 17 X 5 1 d 5 X 6 1 d 7 1 d 12 2 d 9 2 d 6 1 d 5 1 d 8 X 7 1 d 12 1 d 13 2 d 8 1 d 6 X 5 1 d 19 X 4 -1 d 5 X 3 -1 d 3 X 3 -1 d 3 -1 d 3 -1 d 3 -2 d 4 -1
 d 3 -2 d 4 -3 d 16 -10 d 3 -3 d 4 -2 d 3 -1 d 3 -2 d 3 -1 d 3 -1 d 2 X 3 -1 d 3 X 2 -1 d 15 X 4 1 d 5 X 4 1 d 4 X 4 1 d 4 1 d 4 1 d 4 2 d 4 1 d 3 1 d 4 2 d 4 2 d 3 2 d 4 2 d 2 1 d 3 3 d 3 2 d 2 2 d 2 2 d 2 3 d 1 X s 3 lw /w 2 def /w2 {w 2 div} def
 /w3 {w 3 div} def 380 368 459 373 539 374 618 374 697 375 777 374 856 372 935 367 1015 362 1094 362 1174 365 1253 377 1332 379 1412 395 1491 405 1570 379 1650 388 1729 393 1809 359 1888 389 20 { m20} R 6 lw black 0 0 1 c
 gsave  2268 1328 0 0 C 2036.96 364.658 t 0 r /Helvetica-Bold findfont 48.4311 sf 0 0 m (/dof=0.4) show NC gr  black 0 0 1 c
 gsave  2268 1328 0 0 C 2017.01 381.751 t 0 r /Helvetica-Bold findfont 34.1867 sf 0 0 m (2) show NC gr  black 0 0 1 c
 gsave  2268 1328 0 0 C 1991.37 364.658 t 0 r /Symbol findfont 48.4311 sf 0 0 m (c) show NC gr  black 3 lw 340 375 m 1588 X s
 gsave  2268 1328 0 0 C 424.485 1213.63 t 0 r /Helvetica-Bold findfont 42.7334 sf 0 0 m (0.9 mm) show NC gr  0 0 1 c /w 23 def /w2 {w 2 div} def /w3 {w 3 div} def 383 1228 m21 black 1 1 1 c 1 0 1 c 380 491 m21 459 493 m21 539 490 m21 618 493 m21 697
 491 m21 777 495 m21 856 484 m21 935 489 m21 1015 490 m21 black 1094 489 m 1 Y s 1094 513 m 1 Y s 1088 489 m 12 X s 1088 514 m 12 X s 1 0 1 c 1094 502 m21 black 1174 476 m 5 Y s 1174 504 m 5 Y s 1168 476 m 11 X s 1168 509 m 11 X s 1 0 1 c 1174 492
 m21 black 1253 439 m 8 Y s 1253 470 m 9 Y s 1247 439 m 12 X s 1247 479 m 12 X s 1 0 1 c 1253 459 m21 black 1332 458 m 13 Y s 1332 494 m 13 Y s 1327 458 m 11 X s 1327 507 m 11 X s 1 0 1 c 1332 483 m21 black 1412 489 m 17 Y s 1412 529 m 16 Y s 1406
 489 m 11 X s 1406 545 m 11 X s 1 0 1 c 1412 517 m21 black 1491 526 m 20 Y s 1491 569 m 20 Y s 1485 526 m 12 X s 1485 589 m 12 X s 1 0 1 c 1491 557 m21 black 1570 473 m 22 Y s 1570 518 m 22 Y s 1565 473 m 11 X s 1565 540 m 11 X s 1 0 1 c 1570 507 m21
 black 1650 504 m 25 Y s 1650 552 m 25 Y s 1644 504 m 11 X s 1644 577 m 11 X s 1 0 1 c 1650 540 m21 black 1729 442 m 26 Y s 1729 491 m 27 Y s 1723 442 m 12 X s 1723 518 m 12 X s 1 0 1 c 1729 480 m21 black 1809 472 m 30 Y s 1809 524 m 30 Y s 1803 472
 m 11 X s 1803 554 m 11 X s 1 0 1 c 1809 513 m21 black 1888 413 m 30 Y s 1888 466 m 30 Y s 1882 413 m 12 X s 1882 496 m 12 X s 1 0 1 c 1888 455 m21 6 lw 1 1 1 c 1 0 1 c 380 488 m 17 1 d 17 1 d 17 X 17 1 d 28 X 17 1 d 58 X 67 -1 d 13 1 d 179 X 16 -1 d
 30 X 79 -4 d 46 -1 d 12 -1 d 137 X 14 1 d 19 X 11 1 d 6 X 7 1 d 8 X 13 1 d 16 2 d 9 X 7 1 d 5 X 6 1 d 86 X 5 1 d 5 X 5 1 d 7 1 d 8 1 d 13 2 d 10 1 d 7 1 d 5 1 d 5 1 d 5 X 8 1 d 22 2 d 7 1 d 6 X 6 1 d 14 X 4 1 d 4 X 4 -1 d 13 X 4 -1 d 3 X 3 -1 d 4 -1
 d 4 -1 d 5 -1 d 13 -3 d 6 -2 d 4 -1 d 3 -1 d 4 X 3 -1 d 3 -1 d 7 X 3 -1 d 43 X 10 1 d 22 1 d 6 1 d 9 X 6 1 d 7 1 d 17 2 d 6 X 5 1 d 9 X 4 1 d 19 X 3 -1 d 6 X 3 -1 d 4 X 4 -1 d 3 -1 d 5 -1 d 16 -4 d 4 -2 d 4 X 4 -1 d 3 -1 d 3 X 3 -1 d 45 X 4 1 d 5 X
 5 1 d 4 X 5 1 d 4 1 d 4 X 4 1 d 4 1 d 4 1 d 3 1 d s 3 lw /w 2 def /w2 {w 2 div} def /w3 {w 3 div} def 380 488 459 491 539 492 618 491 697 492 777 492 856 491 935 487 1015 485 1094 485 1174 487 1253 493 1332 493 1412 503 1491 508 1570 493 1650 496
 1729 502 1809 488 1888 496 20 { m20} R 6 lw black 1 0 1 c
 gsave  2268 1328 0 0 C 2036.96 490.009 t 0 r /Helvetica-Bold findfont 48.4311 sf 0 0 m (/dof=0.7) show NC gr  black 1 0 1 c
 gsave  2268 1328 0 0 C 2017.01 507.102 t 0 r /Helvetica-Bold findfont 34.1867 sf 0 0 m (2) show NC gr  black 1 0 1 c
 gsave  2268 1328 0 0 C 1991.37 490.009 t 0 r /Symbol findfont 48.4311 sf 0 0 m (c) show NC gr  black 3 lw 340 492 m 1588 X s
 gsave  2268 1328 0 0 C 649.547 1213.63 t 0 r /Helvetica-Bold findfont 39.8845 sf 0 0 m (1.1 mm) show NC gr  1 0 1 c /w 23 def /w2 {w 2 div} def /w3 {w 3 div} def 609 1228 m21 black 1 1 1 c 0 0.733333 1 c 380 609 m21 459 608 m21 539 609 m21 618 604
 m21 697 608 m21 777 612 m21 856 613 m21 935 601 m21 1015 607 m21 black 1094 595 m 2 Y s 1094 619 m 2 Y s 1088 595 m 12 X s 1088 621 m 12 X s 0 0.733333 1 c 1094 608 m21 black 1174 596 m 7 Y s 1174 625 m 7 Y s 1168 596 m 11 X s 1168 632 m 11 X s 0
 0.733333 1 c 1174 614 m21 black 1253 574 m 10 Y s 1253 607 m 11 Y s 1247 574 m 12 X s 1247 618 m 12 X s 0 0.733333 1 c 1253 596 m21 black 1332 580 m 15 Y s 1332 618 m 15 Y s 1327 580 m 11 X s 1327 633 m 11 X s 0 0.733333 1 c 1332 607 m21 black 1412
 587 m 19 Y s 1412 629 m 18 Y s 1406 587 m 11 X s 1406 647 m 11 X s 0 0.733333 1 c 1412 617 m21 black 1491 589 m 22 Y s 1491 633 m 22 Y s 1485 589 m 12 X s 1485 655 m 12 X s 0 0.733333 1 c 1491 622 m21 black 1570 597 m 25 Y s 1570 645 m 25 Y s 1565
 597 m 11 X s 1565 670 m 11 X s 0 0.733333 1 c 1570 634 m21 black 1650 576 m 28 Y s 1650 626 m 28 Y s 1644 576 m 11 X s 1644 654 m 11 X s 0 0.733333 1 c 1650 615 m21 black 1729 529 m 29 Y s 1729 580 m 29 Y s 1723 529 m 12 X s 1723 609 m 12 X s 0
 0.733333 1 c 1729 569 m21 black 1809 574 m 33 Y s 1809 630 m 33 Y s 1803 574 m 11 X s 1803 663 m 11 X s 0 0.733333 1 c 1809 618 m21 black 1888 599 m 36 Y s 1888 658 m 36 Y s 1882 599 m 12 X s 1882 694 m 12 X s 0 0.733333 1 c 1888 646 m21 6 lw 1 1 1
 c 0 0.733333 1 c 380 607 m 17 1 d 52 X 10 1 d 387 X 10 -1 d 79 -1 d 46 -1 d 12 X 11 -1 d 110 X 14 1 d 46 X 6 1 d 16 X 14 1 d 13 X 10 1 d 99 X 5 1 d 14 X 6 1 d 7 X 11 1 d 13 1 d 7 1 d 6 X 5 1 d 6 X 9 1 d 18 1 d 15 X 5 1 d 41 X 4 -1 d 6 X 4 -1 d 4 X 4
 -1 d 5 -1 d 14 -2 d 4 X 4 -1 d 3 X 4 -1 d 13 X 1 -1 d 51 X 9 1 d 29 X 4 1 d 5 X 7 1 d 16 1 d 6 X 4 1 d 44 X 4 -1 d 8 X 6 -1 d 19 -2 d 4 -1 d 8 X 3 -1 d 61 X 5 1 d 11 X 5 1 d 9 X s 3 lw /w 2 def /w2 {w 2 div} def /w3 {w 3 div} def 380 607 459 609 539
 609 618 609 697 609 777 609 856 608 935 607 1015 605 1094 605 1174 606 1253 609 1332 609 1412 615 1491 618 1570 609 1650 610 1729 614 1809 608 1888 610 20 { m20} R 6 lw black 0 0.733333 1 c
 gsave  2268 1328 0 0 C 2036.96 615.36 t 0 r /Helvetica-Bold findfont 48.4311 sf 0 0 m (/dof=0.3) show NC gr  black 0 0.733333 1 c
 gsave  2268 1328 0 0 C 2017.01 632.454 t 0 r /Helvetica-Bold findfont 34.1867 sf 0 0 m (2) show NC gr  black 0 0.733333 1 c
 gsave  2268 1328 0 0 C 1991.37 615.36 t 0 r /Symbol findfont 48.4311 sf 0 0 m (c) show NC gr  black 3 lw 340 609 m 1588 X s
 gsave  2268 1328 0 0 C 877.458 1213.63 t 0 r /Helvetica-Bold findfont 39.8845 sf 0 0 m (1.2 mm) show NC gr  0 0.733333 1 c /w 23 def /w2 {w 2 div} def /w3 {w 3 div} def 836 1228 m21 black 1 1 1 c 0.35 0.83 0.33 c 380 728 m21 459 726 m21 539 724 m21
 618 729 m21 697 720 m21 777 733 m21 856 730 m21 935 719 m21 1015 738 m21 black 1094 740 m 4 Y s 1094 766 m 4 Y s 1088 740 m 12 X s 1088 770 m 12 X s 0.35 0.83 0.33 c 1094 755 m21 black 1174 717 m 7 Y s 1174 747 m 8 Y s 1168 717 m 11 X s 1168 755 m
 11 X s 0.35 0.83 0.33 c 1174 736 m21 black 1253 669 m 12 Y s 1253 703 m 12 Y s 1247 669 m 12 X s 1247 715 m 12 X s 0.35 0.83 0.33 c 1253 692 m21 black 1332 685 m 16 Y s 1332 724 m 17 Y s 1327 685 m 11 X s 1327 741 m 11 X s 0.35 0.83 0.33 c 1332 713
 m21 black 1412 699 m 21 Y s 1412 743 m 21 Y s 1406 699 m 11 X s 1406 764 m 11 X s 0.35 0.83 0.33 c 1412 731 m21 black 1491 649 m 23 Y s 1491 695 m 24 Y s 1485 649 m 12 X s 1485 719 m 12 X s 0.35 0.83 0.33 c 1491 684 m21 black 1570 777 m 30 Y s 1570
 829 m 30 Y s 1565 777 m 11 X s 1565 859 m 11 X s 0.35 0.83 0.33 c 1570 818 m21 black 1650 619 m 29 Y s 1650 671 m 29 Y s 1644 619 m 11 X s 1644 700 m 11 X s 0.35 0.83 0.33 c 1650 660 m21 black 1729 636 m 32 Y s 1729 691 m 32 Y s 1723 636 m 12 X s
 1723 723 m 12 X s 0.35 0.83 0.33 c 1729 679 m21 black 1809 698 m 36 Y s 1809 757 m 36 Y s 1803 698 m 11 X s 1803 793 m 11 X s 0.35 0.83 0.33 c 1809 745 m21 black 1888 607 m 37 Y s 1888 666 m 37 Y s 1882 607 m 12 X s 1882 703 m 12 X s 0.35 0.83 0.33
 c 1888 655 m21 6 lw 1 1 1 c 0.35 0.83 0.33 c 380 728 m 39 X 17 -1 d 44 X 19 -1 d 83 X 20 1 d 16 X 79 -1 d 115 X 15 1 d 40 X 15 1 d 22 X 19 1 d 12 X 39 1 d 53 X 13 1 d 29 X 16 -1 d 68 X 12 -1 d 24 X 10 -1 d 29 -1 d 21 X 4 -1 d 24 X 17 1 d 38 X 5 -1 d
 14 X 61 -6 d 35 -2 d 7 -1 d 50 X 3 1 d 3 X 4 1 d 3 X 4 1 d 5 1 d 13 2 d 5 1 d 3 X 3 1 d 4 X 3 1 d 10 X 3 1 d 17 X 6 1 d 50 X 7 -1 d 10 X 4 -1 d 9 X 5 -1 d 19 -2 d 5 -1 d 7 X 4 -1 d 45 X 6 1 d 7 X 16 2 d 12 X 4 1 d 18 X 10 1 d 11 X 12 1 d 34 X s 3 lw
 /w 2 def /w2 {w 2 div} def /w3 {w 3 div} def 380 728 459 727 539 726 618 727 697 726 777 726 856 727 935 729 1015 730 1094 730 1174 729 1253 726 1332 727 1412 720 1491 717 1570 727 1650 727 1729 721 1809 725 1888 727 20 { m20} R 6 lw black 0.35 0.83
 0.33 c
 gsave  2268 1328 0 0 C 2039.81 740.711 t 0 r /Helvetica-Bold findfont 48.4311 sf 0 0 m (/dof=1.1) show NC gr  black 0.35 0.83 0.33 c
 gsave  2268 1328 0 0 C 2019.86 757.805 t 0 r /Helvetica-Bold findfont 34.1867 sf 0 0 m (2) show NC gr  black 0.35 0.83 0.33 c
 gsave  2268 1328 0 0 C 1994.22 740.711 t 0 r /Symbol findfont 48.4311 sf 0 0 m (c) show NC gr  black 3 lw 340 726 m 1588 X s
 gsave  2268 1328 0 0 C 1105.37 1213.63 t 0 r /Helvetica-Bold findfont 39.8845 sf 0 0 m (1.4 mm) show NC gr  0.35 0.83 0.33 c /w 23 def /w2 {w 2 div} def /w3 {w 3 div} def 1063 1228 m21 black 1 1 1 c 0.53 0.4 0.34 c 380 846 m21 459 846 m21 539 844
 m21 618 838 m21 697 846 m21 777 848 m21 856 844 m21 935 848 m21 black 1015 844 m s 1015 867 m s 1009 844 m 12 X s 1009 867 m 12 X s 0.53 0.4 0.34 c 1015 856 m21 black 1094 852 m 4 Y s 1094 879 m 4 Y s 1088 852 m 12 X s 1088 883 m 12 X s 0.53 0.4
 0.34 c 1094 867 m21 black 1174 814 m 8 Y s 1174 845 m 9 Y s 1168 814 m 11 X s 1168 854 m 11 X s 0.53 0.4 0.34 c 1174 834 m21 black 1253 860 m 15 Y s 1253 897 m 15 Y s 1247 860 m 12 X s 1247 912 m 12 X s 0.53 0.4 0.34 c 1253 886 m21 black 1332 798 m
 18 Y s 1332 839 m 19 Y s 1327 798 m 11 X s 1327 858 m 11 X s 0.53 0.4 0.34 c 1332 828 m21 black 1412 792 m 23 Y s 1412 837 m 23 Y s 1406 792 m 11 X s 1406 860 m 11 X s 0.53 0.4 0.34 c 1412 826 m21 black 1491 821 m 27 Y s 1491 871 m 27 Y s 1485 821 m
 12 X s 1485 898 m 12 X s 0.53 0.4 0.34 c 1491 860 m21 black 1570 792 m 30 Y s 1570 844 m 30 Y s 1565 792 m 11 X s 1565 874 m 11 X s 0.53 0.4 0.34 c 1570 833 m21 black 1650 822 m 34 Y s 1650 879 m 34 Y s 1644 822 m 11 X s 1644 913 m 11 X s 0.53 0.4
 0.34 c 1650 868 m21 black 1729 804 m 37 Y s 1729 863 m 37 Y s 1723 804 m 12 X s 1723 900 m 12 X s 0.53 0.4 0.34 c 1729 852 m21 black 1809 762 m 38 Y s 1809 823 m 38 Y s 1803 762 m 11 X s 1803 861 m 11 X s 0.53 0.4 0.34 c 1809 811 m21 black 1888 773
 m 42 Y s 1888 837 m 42 Y s 1882 773 m 12 X s 1882 879 m 12 X s 0.53 0.4 0.34 c 1888 826 m21 6 lw 1 1 1 c 0.53 0.4 0.34 c 380 848 m 19 -1 d 20 -1 d 18 -1 d 22 X 25 -1 d 18 X 14 -1 d 46 X 20 1 d 115 X 28 -1 d 68 X 16 1 d 31 X 16 1 d 11 X 13 1 d 23 1 d
 20 1 d 12 1 d 39 2 d 14 X 11 1 d 28 X 13 1 d 29 X 16 -1 d 43 X 15 -1 d 12 X 13 -1 d 6 X 7 -1 d 8 X 10 -1 d 28 -2 d 9 -1 d 6 X 7 -1 d 28 X 17 1 d 16 X 5 1 d 5 -1 d 12 X 4 -1 d 5 X 4 -1 d 4 X 6 -1 d 5 -1 d 7 -2 d 13 -3 d 8 -2 d 6 -1 d 5 -1 d 5 -1 d 4
 -1 d 4 X 33 -5 d 7 -1 d 6 X 5 -1 d 31 X 3 1 d 3 X 4 1 d 3 X 3 1 d 4 1 d 3 1 d 4 1 d 5 2 d 7 3 d 8 3 d 4 1 d 3 2 d 4 1 d 4 1 d 3 1 d 4 1 d 3 X 3 1 d 1 X 7 1 d 6 X 6 1 d 6 1 d 12 X 7 1 d 28 X 5 -1 d 6 X 3 -1 d 4 X 3 -1 d 4 X 4 -1 d 4 -1 d 5 -2 d 20 -6
 d 4 -1 d 4 -1 d 4 -1 d 3 X 4 -1 d 3 X 3 -1 d 26 X 5 1 d 5 X 6 1 d 8 1 d 12 1 d 12 2 d 7 1 d 3 X 12 1 d 13 2 d 13 1 d 14 2 d 12 2 d 12 2 d 3 X s 3 lw /w 2 def /w2 {w 2 div} def /w3 {w 3 div} def 380 848 459 845 539 843 618 844 697 844 777 843 856 845
 935 849 1015 852 1094 852 1174 850 1253 844 1332 845 1412 830 1491 823 1570 845 1650 848 1729 831 1809 838 1888 848 20 { m20} R 6 lw black 0.53 0.4 0.34 c
 gsave  2268 1328 0 0 C 2036.96 863.214 t 0 r /Helvetica-Bold findfont 48.4311 sf 0 0 m (/dof=0.4) show NC gr  black 0.53 0.4 0.34 c
 gsave  2268 1328 0 0 C 2017.01 880.307 t 0 r /Helvetica-Bold findfont 34.1867 sf 0 0 m (2) show NC gr  black 0.53 0.4 0.34 c
 gsave  2268 1328 0 0 C 1991.37 863.214 t 0 r /Symbol findfont 48.4311 sf 0 0 m (c) show NC gr  black 3 lw 340 843 m 1588 X s
 gsave  2268 1328 0 0 C 1330.43 1213.63 t 0 r /Helvetica-Bold findfont 42.7334 sf 0 0 m (1.5 mm) show NC gr  0.53 0.4 0.34 c /w 23 def /w2 {w 2 div} def /w3 {w 3 div} def 1290 1228 m21 black 1 1 1 c black 380 975 m21 459 962 m21 539 962 m21 618 963
 m21 697 959 m21 777 969 m21 856 965 m21 935 971 m21 1015 972 m 1 Y s 1015 996 m 1 Y s 1009 972 m 12 X s 1009 997 m 12 X s 1015 984 m21 1094 984 m 5 Y s 1094 1012 m 5 Y s 1088 984 m 12 X s 1088 1017 m 12 X s 1094 1000 m21 1174 957 m 10 Y s 1174 990 m
 11 Y s 1168 957 m 11 X s 1168 1001 m 11 X s 1174 979 m21 1253 909 m 15 Y s 1253 947 m 15 Y s 1247 909 m 12 X s 1247 962 m 12 X s 1253 936 m21 1332 961 m 21 Y s 1332 1005 m 21 Y s 1327 961 m 11 X s 1327 1026 m 11 X s 1332 993 m21 1412 877 m 25 Y s
 1412 925 m 24 Y s 1406 877 m 11 X s 1406 949 m 11 X s 1412 913 m21 1491 847 m 27 Y s 1491 897 m 28 Y s 1485 847 m 12 X s 1485 925 m 12 X s 1491 886 m21 1570 971 m 34 Y s 1570 1028 m 35 Y s 1565 971 m 11 X s 1565 1063 m 11 X s 1570 1017 m21 1650 875
 m 35 Y s 1650 933 m 35 Y s 1644 875 m 11 X s 1644 968 m 11 X s 1650 922 m21 1729 805 m 37 Y s 1729 864 m 37 Y s 1723 805 m 12 X s 1723 901 m 12 X s 1729 853 m21 1809 844 m 41 Y s 1809 908 m 41 Y s 1803 844 m 11 X s 1803 949 m 11 X s 1809 896 m21
 1888 903 m 46 Y s 1888 972 m 47 Y s 1882 903 m 12 X s 1882 1019 m 12 X s 1888 961 m21 6 lw 1 1 1 c black 380 970 m 20 -2 d 21 -2 d 19 -1 d 19 -2 d 25 -1 d 18 -1 d 14 -1 d 46 X 21 1 d 20 1 d 58 X 36 -1 d 17 X 39 -1 d 36 X 14 1 d 15 X 17 1 d 21 2 d 13
 1 d 15 2 d 36 4 d 15 2 d 41 4 d 13 1 d 11 1 d 15 X 12 1 d 59 X 8 -1 d 15 X 15 -1 d 17 -1 d 16 -1 d 17 -2 d 79 -10 d 16 X 8 1 d 17 2 d 9 1 d 21 X 4 -1 d 4 X 4 -1 d 4 -1 d 5 -2 d 4 -1 d 5 -2 d 5 -2 d 5 -3 d 8 -5 d 15 -8 d 6 -3 d 4 -2 d 5 -3 d 4 -1 d 4
 -1 d 2 -1 d 29 -9 d 7 -2 d 7 -1 d 5 -1 d 5 -1 d 5 -1 d 16 X 4 1 d 1 X 3 1 d 3 X 4 1 d 3 1 d 3 2 d 3 2 d 4 2 d 3 2 d 4 3 d 5 4 d 6 5 d 9 9 d 5 4 d 4 3 d 4 3 d 3 2 d 4 2 d 3 2 d 3 1 d 3 1 d 10 4 d 8 2 d 7 2 d 6 2 d 6 1 d 6 1 d 5 1 d 5 1 d 23 X 4 -1 d
 3 X 3 -1 d 3 -1 d 3 -1 d 3 -1 d 3 -2 d 4 -2 d 4 -3 d 4 -3 d 5 -4 d 16 -13 d 3 -3 d 4 -2 d 3 -2 d 3 -2 d 3 -2 d 3 -1 d 3 -1 d 3 -1 d 3 -1 d 5 -1 d 5 X 5 -1 d 5 X 6 -1 d 11 X 7 1 d 5 X 7 1 d 6 1 d 6 1 d 7 1 d 5 1 d 5 2 d 6 2 d 5 1 d 5 2 d 6 3 d 5 2 d
 5 3 d 6 2 d 5 3 d 5 4 d 4 2 d 6 4 d 4 4 d 5 4 d 4 3 d 3 3 d s 3 lw /w 2 def /w2 {w 2 div} def /w3 {w 3 div} def 380 970 459 963 539 960 618 962 697 961 777 960 856 964 935 973 1015 979 1094 979 1174 974 1253 964 1332 967 1412 931 1491 917 1570 967
 1650 980 1729 934 1809 937 1888 981 20 { m20} R 6 lw
 gsave  2268 1328 0 0 C 2036.96 988.565 t 0 r /Helvetica-Bold findfont 48.4311 sf 0 0 m (/dof=0.7) show NC gr 
 gsave  2268 1328 0 0 C 2017.01 1005.66 t 0 r /Helvetica-Bold findfont 34.1867 sf 0 0 m (2) show NC gr 
 gsave  2268 1328 0 0 C 1991.37 988.565 t 0 r /Symbol findfont 48.4311 sf 0 0 m (c) show NC gr  3 lw 340 961 m 1588 X s
 gsave  2268 1328 0 0 C 1558.34 1213.63 t 0 r /Helvetica-Bold findfont 39.8845 sf 0 0 m (1.7 mm) show NC gr  /w 23 def /w2 {w 2 div} def /w3 {w 3 div} def 1517 1228 m21 1 1 1 c 0.48 0 1 c 380 1101 m21 459 1088 m21 539 1077 m21 618 1083 m21 697 1082
 m21 777 1071 m21 856 1082 m21 935 1102 m21 black 1015 1096 m 1 Y s 1015 1120 m 2 Y s 1009 1096 m 12 X s 1009 1122 m 12 X s 0.48 0 1 c 1015 1109 m21 black 1094 1103 m 6 Y s 1094 1132 m 6 Y s 1088 1103 m 12 X s 1088 1138 m 12 X s 0.48 0 1 c 1094 1120
 m21 black 1174 1083 m 11 Y s 1174 1117 m 12 Y s 1168 1083 m 11 X s 1168 1129 m 11 X s 0.48 0 1 c 1174 1106 m21 black 1253 1072 m 17 Y s 1253 1112 m 17 Y s 1247 1072 m 12 X s 1247 1129 m 12 X s 0.48 0 1 c 1253 1101 m21 black 1332 1029 m 22 Y s 1332
 1074 m 23 Y s 1327 1029 m 11 X s 1327 1097 m 11 X s 0.48 0 1 c 1332 1063 m21 black 1412 999 m 27 Y s 1412 1049 m 26 Y s 1406 999 m 11 X s 1406 1075 m 11 X s 0.48 0 1 c 1412 1037 m21 black 1491 957 m 30 Y s 1491 1010 m 30 Y s 1485 957 m 12 X s 1485
 1040 m 12 X s 0.48 0 1 c 1491 999 m21 black 1570 1028 m 36 Y s 1570 1087 m 37 Y s 1565 1028 m 11 X s 1565 1124 m 11 X s 0.48 0 1 c 1570 1076 m21 black 1650 1066 m 41 Y s 1650 1130 m 40 Y s 1644 1066 m 11 X s 1644 1170 m 11 X s 0.48 0 1 c 1650 1118
 m21 black 1729 988 m 42 Y s 1729 1053 m 42 Y s 1723 988 m 12 X s 1723 1095 m 12 X s 0.48 0 1 c 1729 1042 m21 black 1809 1015 m 47 Y s 1809 1085 m 47 Y s 1803 1015 m 11 X s 1803 1132 m 11 X s 0.48 0 1 c 1809 1074 m21 black 1888 1060 m 51 Y s 1888
 1134 m 51 Y s 1882 1060 m 12 X s 1882 1185 m 12 X s 0.48 0 1 c 1888 1122 m21 6 lw 1 1 1 c 0.48 0 1 c 380 1093 m 26 -4 d 22 -3 d 23 -3 d 8 -1 d 35 -3 d 15 -2 d 13 X 13 -1 d 14 X 13 1 d 21 1 d 21 1 d 14 1 d 74 X 5 -1 d 15 X 46 -3 d 31 X 13 1 d 16 1 d
 21 3 d 17 2 d 14 2 d 16 3 d 36 7 d 13 2 d 41 6 d 14 2 d 12 2 d 13 1 d 12 1 d 46 X 18 -1 d 3 X 13 -1 d 16 -1 d 18 -2 d 27 -4 d 6 -1 d 10 -1 d 11 -2 d 30 -7 d 10 -1 d 7 -1 d 8 -1 d 14 X 6 1 d 8 2 d 19 3 d 7 2 d 7 X 5 1 d 5 -1 d 4 X 4 -1 d 3 -1 d 4 -1
 d 5 -2 d 4 -2 d 4 -3 d 5 -4 d 5 -4 d 6 -5 d 9 -9 d 11 -11 d 6 -6 d 5 -4 d 5 -4 d 4 -3 d 4 -2 d 3 -1 d 26 -13 d 8 -4 d 7 -3 d 5 -2 d 5 -1 d 5 -1 d 6 X 4 -1 d 5 1 d 3 X 5 1 d 3 1 d 4 2 d 3 2 d 3 2 d 4 3 d 4 3 d 3 4 d 4 5 d 5 6 d 5 7 d 15 21 d 5 8 d 4
 5 d 4 5 d 4 4 d 4 3 d 3 3 d 2 2 d 18 12 d 8 5 d 7 4 d 6 3 d 6 3 d 5 2 d 5 1 d 4 1 d 5 1 d 12 X 4 -1 d 3 -1 d 3 -1 d 3 -2 d 4 -2 d 3 -2 d 3 -3 d 3 -4 d 4 -5 d 4 -5 d 4 -7 d 13 -20 d 5 -8 d 4 -6 d 4 -5 d 3 -4 d 4 -4 d 3 -3 d 3 -3 d 3 -2 d 3 -2 d 8 -4
 d 6 -3 d 7 -3 d 6 -3 d 6 -1 d 6 -2 d 6 -1 d 6 -1 d 9 X 5 1 d 5 X 4 2 d 5 1 d 1 X 5 3 d 5 2 d 5 3 d 4 3 d 5 4 d 4 3 d 5 4 d 4 5 d 4 4 d 4 5 d 4 5 d 4 6 d 3 6 d 4 6 d 3 6 d 3 6 d 4 8 d 2 7 d 3 7 d 2 6 d 2 6 d s 3 lw /w 2 def /w2 {w 2 div} def /w3 {w 3
 div} def 380 1093 459 1082 539 1076 618 1080 697 1079 777 1076 856 1083 935 1097 1015 1108 1094 1108 1174 1099 1253 1086 1332 1092 1412 1031 1491 1008 1570 1094 1650 1125 1729 1036 1809 1022 1888 1127 20 { m20} R 6 lw black 0.48 0 1 c
 gsave  2268 1328 0 0 C 2036.96 1113.92 t 0 r /Helvetica-Bold findfont 48.4311 sf 0 0 m (/dof=0.4) show NC gr  black 0.48 0 1 c
 gsave  2268 1328 0 0 C 2017.01 1131.01 t 0 r /Helvetica-Bold findfont 34.1867 sf 0 0 m (2) show NC gr  black 0.48 0 1 c
 gsave  2268 1328 0 0 C 1991.37 1113.92 t 0 r /Symbol findfont 48.4311 sf 0 0 m (c) show NC gr  black 3 lw 340 1078 m 1588 X s
 gsave  2268 1328 0 0 C 1783.41 1213.63 t 0 r /Helvetica-Bold findfont 42.7334 sf 0 0 m (1.9 mm) show NC gr  0.48 0 1 c /w 23 def /w2 {w 2 div} def /w3 {w 3 div} def 1743 1228 m21
 gr  gr showpage
end
%%EOF
