%!PS-Adobe-2.0 EPSF-2.0
%%BoundingBox:  0 0 567 332
%%Title: BeamSigmaY_far_summary.eps: Summary
%%Creator: ROOT Version 5.30/06
%%CreationDate: Sun Feb  2 09:36:39 2014
%%EndComments
%%BeginProlog
80 dict begin
/s {stroke} def /l {lineto} def /m {moveto} def /t {translate} def
/r {rotate} def /rl {roll}  def /R {repeat} def
/d {rlineto} def /rm {rmoveto} def /gr {grestore} def /f {eofill} def
/c {setrgbcolor} def /black {0 setgray} def /sd {setdash} def
/cl {closepath} def /sf {scalefont setfont} def /lw {setlinewidth} def
/box {m dup 0 exch d exch 0 d 0 exch neg d cl} def
/NC{systemdict begin initclip end}def/C{NC box clip newpath}def
/bl {box s} def /bf {box f} def /Y { 0 exch d} def /X { 0 d} def 
/K {{pop pop 0 moveto} exch kshow} bind def
/ita {/ang 15 def gsave [1 0 ang dup sin exch cos div 1 0 0] concat} def 
/mp {newpath /y exch def /x exch def} def
/side {[w .77 mul w .23 mul] .385 w mul sd w 0 l currentpoint t -144 r} def
/mr {mp x y w2 0 360 arc} def /m24 {mr s} def /m20 {mr f} def
/mb {mp x y w2 add m w2 neg 0 d 0 w neg d w 0 d 0 w d cl} def
/mt {mp x y w2 add m w2 neg w neg d w 0 d cl} def
/m21 {mb f} def /m25 {mb s} def /m22 {mt f} def /m26{mt s} def
/m23 {mp x y w2 sub m w2 w d w neg 0 d cl f} def
/m27 {mp x y w2 add m w3 neg w2 neg d w3 w2 neg d w3 w2 d cl s} def
/m28 {mp x w2 sub y w2 sub w3 add m w3 0 d  0 w3 neg d w3 0 d 0 w3 d w3 0 d  0 w3 d w3 neg 0 d 0 w3 d w3 neg 0 d 0 w3 neg d w3 neg 0 d cl s } def
/m29 {mp gsave x w2 sub y w2 add w3 sub m currentpoint t 4 {side} repeat cl fill gr} def
/m30 {mp gsave x w2 sub y w2 add w3 sub m currentpoint t 4 {side} repeat cl s gr} def
/m31 {mp x y w2 sub m 0 w d x w2 sub y m w 0 d x w2 sub y w2 add m w w neg d x w2 sub y w2 sub m w w d s} def
/m32 {mp x y w2 sub m w2 w d w neg 0 d cl s} def
/m33 {mp x y w2 add m w3 neg w2 neg d w3 w2 neg d w3 w2 d cl f} def
/m34 {mp x w2 sub y w2 sub w3 add m w3 0 d  0 w3 neg d w3 0 d 0 w3 d w3 0 d  0 w3 d w3 neg 0 d 0 w3 d w3 neg 0 d 0 w3 neg d w3 neg 0 d cl f } def
/m2 {mp x y w2 sub m 0 w d x w2 sub y m w 0 d s} def
/m5 {mp x w2 sub y w2 sub m w w d x w2 sub y w2 add m w w neg d s} def
/reEncode {exch findfont dup length dict begin {1 index /FID eq  {pop pop} {def} ifelse } forall /Encoding exch def currentdict end dup /FontName get exch definefont pop } def [/Times-Bold /Times-Italic /Times-BoldItalic /Helvetica /Helvetica-Oblique
 /Helvetica-Bold /Helvetica-BoldOblique /Courier /Courier-Oblique /Courier-Bold /Courier-BoldOblique /Times-Roman /AvantGarde-Book /AvantGarde-BookOblique /AvantGarde-Demi /AvantGarde-DemiOblique /Bookman-Demi /Bookman-DemiItalic /Bookman-Light
 /Bookman-LightItalic /Helvetica-Narrow /Helvetica-Narrow-Bold /Helvetica-Narrow-BoldOblique /Helvetica-Narrow-Oblique /NewCenturySchlbk-Roman /NewCenturySchlbk-Bold /NewCenturySchlbk-BoldItalic /NewCenturySchlbk-Italic /Palatino-Bold
 /Palatino-BoldItalic /Palatino-Italic /Palatino-Roman ] {ISOLatin1Encoding reEncode } forall%%EndProlog
%%BeginSetup
%%EndSetup
newpath  gsave  .25 .25 scale  gsave  0 0 t black[  ] 0 sd 3 lw 1 1 1 c 2268 1328 0 0 bf black 1 1 1 c black 1588 996 340 199 bl 1588 996 340 199 bl 1 1 1 c 1 0 0 c /w 23 def /w2 {w 2 div} def /w3 {w 3 div} def 380 258 m21 459 258 m21 539 259 m21 618
 254 m21 697 251 m21 777 257 m21 856 255 m21 935 265 m21 1015 269 m21 1094 245 m21 1174 240 m21 1253 235 m21 black 1332 234 m 1 Y s 1332 257 m 1 Y s 1327 234 m 11 X s 1327 258 m 11 X s 1 0 0 c 1332 246 m21 black 1412 252 m 3 Y s 1412 278 m 3 Y s 1406
 252 m 11 X s 1406 281 m 11 X s 1 0 0 c 1412 266 m21 black 1491 232 m 4 Y s 1491 259 m 4 Y s 1485 232 m 12 X s 1485 263 m 12 X s 1 0 0 c 1491 248 m21 black 1570 217 m 5 Y s 1570 245 m 6 Y s 1565 217 m 11 X s 1565 251 m 11 X s 1 0 0 c 1570 234 m21
 black 1650 240 m 8 Y s 1650 270 m 8 Y s 1644 240 m 11 X s 1644 278 m 11 X s 1 0 0 c 1650 259 m21 black 1729 199 m 2 Y s 1729 223 m 9 Y s 1723 199 m 12 X s 1723 232 m 12 X s 1 0 0 c 1729 212 m21 black 1809 210 m 10 Y s 1809 243 m 10 Y s 1803 210 m 11
 X s 1803 253 m 11 X s 1 0 0 c 1809 232 m21 black 1888 244 m 12 Y s 1888 279 m 12 Y s 1882 244 m 12 X s 1882 291 m 12 X s 1 0 0 c 1888 267 m21 black 340 199 m 1588 X s
 gsave  2268 1328 0 0 C 954.378 68.3734 t 0 r /Helvetica findfont 62.6756 sf 0 0 m ( Energy \(GeV\) ) show NC gr 
 gsave  2268 1328 0 0 C 928.738 51.28 t 0 r /Symbol findfont 42.7334 sf 0 0 m (m) show NC gr 
 gsave  2268 1328 0 0 C 894.552 68.3734 t 0 r /Symbol findfont 62.6756 sf 0 0 m (n) show NC gr  340 216 m -17 Y s 372 208 m -9 Y s 404 208 m -9 Y s 435 208 m -9 Y s 467 208 m -9 Y s 499 216 m -17 Y s 531 208 m -9 Y s 562 208 m -9 Y s 594 208 m -9 Y s
 626 208 m -9 Y s 658 216 m -17 Y s 689 208 m -9 Y s 721 208 m -9 Y s 753 208 m -9 Y s 785 208 m -9 Y s 816 216 m -17 Y s 848 208 m -9 Y s 880 208 m -9 Y s 912 208 m -9 Y s 943 208 m -9 Y s 975 216 m -17 Y s 1007 208 m -9 Y s 1039 208 m -9 Y s 1070
 208 m -9 Y s 1102 208 m -9 Y s 1134 216 m -17 Y s 1166 208 m -9 Y s 1197 208 m -9 Y s 1229 208 m -9 Y s 1261 208 m -9 Y s 1293 216 m -17 Y s 1324 208 m -9 Y s 1356 208 m -9 Y s 1388 208 m -9 Y s 1420 208 m -9 Y s 1451 216 m -17 Y s 1483 208 m -9 Y s
 1515 208 m -9 Y s 1547 208 m -9 Y s 1578 208 m -9 Y s 1610 216 m -17 Y s 1642 208 m -9 Y s 1674 208 m -9 Y s 1705 208 m -9 Y s 1737 208 m -9 Y s 1769 216 m -17 Y s 1801 208 m -9 Y s 1832 208 m -9 Y s 1864 208 m -9 Y s 1896 208 m -9 Y s 1928 216 m
 -17 Y s
 gsave  2268 1328 0 0 C 319.076 136.747 t 0 r /Helvetica findfont 68.3734 sf 0 0 m (0) show NC gr 
 gsave  2268 1328 0 0 C 484.311 136.747 t 0 r /Helvetica findfont 68.3734 sf 0 0 m (1) show NC gr 
 gsave  2268 1328 0 0 C 635.302 136.747 t 0 r /Helvetica findfont 68.3734 sf 0 0 m (2) show NC gr 
 gsave  2268 1328 0 0 C 794.84 136.747 t 0 r /Helvetica findfont 68.3734 sf 0 0 m (3) show NC gr 
 gsave  2268 1328 0 0 C 954.378 136.747 t 0 r /Helvetica findfont 68.3734 sf 0 0 m (4) show NC gr 
 gsave  2268 1328 0 0 C 1113.92 136.747 t 0 r /Helvetica findfont 68.3734 sf 0 0 m (5) show NC gr 
 gsave  2268 1328 0 0 C 1270.6 136.747 t 0 r /Helvetica findfont 68.3734 sf 0 0 m (6) show NC gr 
 gsave  2268 1328 0 0 C 1430.14 136.747 t 0 r /Helvetica findfont 68.3734 sf 0 0 m (7) show NC gr 
 gsave  2268 1328 0 0 C 1589.68 136.747 t 0 r /Helvetica findfont 68.3734 sf 0 0 m (8) show NC gr 
 gsave  2268 1328 0 0 C 1746.37 136.747 t 0 r /Helvetica findfont 68.3734 sf 0 0 m (9) show NC gr 
 gsave  2268 1328 0 0 C 1888.81 136.747 t 0 r /Helvetica findfont 68.3734 sf 0 0 m (10) show NC gr  340 1195 m 1588 X s 340 1178 m 17 Y s 372 1186 m 9 Y s 404 1186 m 9 Y s 435 1186 m 9 Y s 467 1186 m 9 Y s 499 1178 m 17 Y s 531 1186 m 9 Y s 562 1186
 m 9 Y s 594 1186 m 9 Y s 626 1186 m 9 Y s 658 1178 m 17 Y s 689 1186 m 9 Y s 721 1186 m 9 Y s 753 1186 m 9 Y s 785 1186 m 9 Y s 816 1178 m 17 Y s 848 1186 m 9 Y s 880 1186 m 9 Y s 912 1186 m 9 Y s 943 1186 m 9 Y s 975 1178 m 17 Y s 1007 1186 m 9 Y s
 1039 1186 m 9 Y s 1070 1186 m 9 Y s 1102 1186 m 9 Y s 1134 1178 m 17 Y s 1166 1186 m 9 Y s 1197 1186 m 9 Y s 1229 1186 m 9 Y s 1261 1186 m 9 Y s 1293 1178 m 17 Y s 1324 1186 m 9 Y s 1356 1186 m 9 Y s 1388 1186 m 9 Y s 1420 1186 m 9 Y s 1451 1178 m
 17 Y s 1483 1186 m 9 Y s 1515 1186 m 9 Y s 1547 1186 m 9 Y s 1578 1186 m 9 Y s 1610 1178 m 17 Y s 1642 1186 m 9 Y s 1674 1186 m 9 Y s 1705 1186 m 9 Y s 1737 1186 m 9 Y s 1769 1178 m 17 Y s 1801 1186 m 9 Y s 1832 1186 m 9 Y s 1864 1186 m 9 Y s 1896
 1186 m 9 Y s 1928 1178 m 17 Y s 340 199 m 996 Y s
 gsave  2268 1328 0 0 C 170.933 427.334 t 90 r /Helvetica findfont 62.6756 sf 0 0 m (Far Flux to Nominal) show NC gr  371 258 m -31 X s 355 281 m -15 X s 355 305 m -15 X s 355 328 m -15 X s 355 351 m -15 X s 371 375 m -31 X s 355 398 m -15 X s 355
 422 m -15 X s 355 445 m -15 X s 355 469 m -15 X s 371 492 m -31 X s 355 515 m -15 X s 355 539 m -15 X s 355 562 m -15 X s 355 586 m -15 X s 371 609 m -31 X s 355 633 m -15 X s 355 656 m -15 X s 355 679 m -15 X s 355 703 m -15 X s 371 726 m -31 X s
 355 750 m -15 X s 355 773 m -15 X s 355 797 m -15 X s 355 820 m -15 X s 371 843 m -31 X s 355 867 m -15 X s 355 890 m -15 X s 355 914 m -15 X s 355 937 m -15 X s 371 961 m -31 X s 355 984 m -15 X s 355 1007 m -15 X s 355 1031 m -15 X s 355 1054 m
 -15 X s 371 1078 m -31 X s 355 1101 m -15 X s 355 1125 m -15 X s 355 1148 m -15 X s 355 1171 m -15 X s 371 1195 m -31 X s 371 258 m -31 X s 355 234 m -15 X s 355 211 m -15 X s
 gsave  2268 1328 0 0 C 301.982 230.76 t 0 r /Helvetica findfont 68.3734 sf 0 0 m (1) show NC gr 
 gsave  2268 1328 0 0 C 245.005 347.565 t 0 r /Helvetica findfont 68.3734 sf 0 0 m (1.1) show NC gr 
 gsave  2268 1328 0 0 C 233.609 464.369 t 0 r /Helvetica findfont 68.3734 sf 0 0 m (1.2) show NC gr 
 gsave  2268 1328 0 0 C 233.609 584.022 t 0 r /Helvetica findfont 68.3734 sf 0 0 m (1.3) show NC gr 
 gsave  2268 1328 0 0 C 233.609 697.978 t 0 r /Helvetica findfont 68.3734 sf 0 0 m (1.4) show NC gr 
 gsave  2268 1328 0 0 C 233.609 820.48 t 0 r /Helvetica findfont 68.3734 sf 0 0 m (1.5) show NC gr 
 gsave  2268 1328 0 0 C 233.609 937.285 t 0 r /Helvetica findfont 68.3734 sf 0 0 m (1.6) show NC gr 
 gsave  2268 1328 0 0 C 233.609 1051.24 t 0 r /Helvetica findfont 68.3734 sf 0 0 m (1.7) show NC gr 
 gsave  2268 1328 0 0 C 233.609 1170.89 t 0 r /Helvetica findfont 68.3734 sf 0 0 m (1.8) show NC gr  1928 199 m 996 Y s 1897 258 m 31 X s 1912 281 m 16 X s 1912 305 m 16 X s 1912 328 m 16 X s 1912 351 m 16 X s 1897 375 m 31 X s 1912 398 m 16 X s 1912
 422 m 16 X s 1912 445 m 16 X s 1912 469 m 16 X s 1897 492 m 31 X s 1912 515 m 16 X s 1912 539 m 16 X s 1912 562 m 16 X s 1912 586 m 16 X s 1897 609 m 31 X s 1912 633 m 16 X s 1912 656 m 16 X s 1912 679 m 16 X s 1912 703 m 16 X s 1897 726 m 31 X s
 1912 750 m 16 X s 1912 773 m 16 X s 1912 797 m 16 X s 1912 820 m 16 X s 1897 843 m 31 X s 1912 867 m 16 X s 1912 890 m 16 X s 1912 914 m 16 X s 1912 937 m 16 X s 1897 961 m 31 X s 1912 984 m 16 X s 1912 1007 m 16 X s 1912 1031 m 16 X s 1912 1054 m
 16 X s 1897 1078 m 31 X s 1912 1101 m 16 X s 1912 1125 m 16 X s 1912 1148 m 16 X s 1912 1171 m 16 X s 1897 1195 m 31 X s 1897 258 m 31 X s 1912 234 m 16 X s 1912 211 m 16 X s 1 0 0 c 6 lw 1 1 1 c 1 0 0 c 380 259 m 18 1 d 61 X 80 -3 d 27 -1 d 52 X 57
 -1 d 58 X 23 1 d 21 X 19 1 d 40 2 d 20 1 d 43 1 d 23 1 d 26 X 26 1 d 10 X 10 1 d 7 -1 d 14 X 6 -1 d 6 -1 d 7 X 60 -11 d 10 -1 d 12 -1 d 15 -2 d 31 -2 d 12 -1 d 9 -1 d 14 -2 d 21 -2 d 11 -1 d 8 -1 d 6 X 7 -1 d 36 X 8 1 d 7 X 7 1 d 6 X 7 1 d 5 1 d 5 1
 d 1 X 4 1 d 3 1 d 3 1 d 4 2 d 4 2 d 4 2 d 5 2 d 5 4 d 10 6 d 5 3 d 4 2 d 4 2 d 4 1 d 3 1 d 3 1 d 3 1 d 3 1 d 17 X 3 -1 d 3 -1 d 3 -1 d 3 -1 d 4 -1 d 3 -2 d 4 -2 d 4 -3 d 13 -9 d 5 -3 d 3 -2 d 4 -3 d 4 -1 d 3 -2 d 3 -1 d 3 -1 d 3 -1 d 3 -1 d 5 -1 d 5
 X 5 -1 d 6 -1 d 6 X 7 -1 d 22 X 10 1 d 11 1 d 7 X 5 1 d 5 X 6 2 d 7 1 d 16 4 d 7 1 d 6 2 d 6 1 d 5 X 5 1 d 21 X 6 -1 d 6 -1 d 8 -1 d 25 -4 d 6 -1 d 10 X 4 -1 d 25 X 8 -1 d 7 X 7 1 d 12 X 5 1 d 5 1 d 5 1 d 4 1 d 2 X 5 1 d 5 2 d 5 1 d 5 2 d 5 2 d 5 2
 d 5 2 d 4 3 d 5 2 d 5 3 d 4 3 d 4 3 d 4 2 d 4 3 d 4 4 d 3 3 d 4 3 d 3 4 d s 3 lw /w 2 def /w2 {w 2 div} def /w3 {w 3 div} def 380 259 459 260 539 257 618 256 697 255 777 256 856 260 935 262 1015 263 1094 250 1174 243 1253 235 1332 240 1412 273 1491
 237 1570 235 1650 248 1729 239 1809 243 1888 288 20 { m20} R 6 lw black 1 0 0 c
 gsave  2268 1328 0 0 C 2036.96 242.156 t 0 r /Helvetica-Bold findfont 48.4311 sf 0 0 m (/dof=0.6) show NC gr  black 1 0 0 c
 gsave  2268 1328 0 0 C 2017.01 259.249 t 0 r /Helvetica-Bold findfont 34.1867 sf 0 0 m (2) show NC gr  black 1 0 0 c
 gsave  2268 1328 0 0 C 1991.37 242.156 t 0 r /Symbol findfont 48.4311 sf 0 0 m (c) show NC gr  black 3 lw 340 258 m 1588 X s
 gsave  2268 1328 0 0 C 196.573 1213.63 t 0 r /Helvetica-Bold findfont 42.7334 sf 0 0 m (0.7 mm) show NC gr  1 0 0 c /w 23 def /w2 {w 2 div} def /w3 {w 3 div} def 156 1228 m21 black 1 1 1 c 0 0 1 c 380 381 m21 459 378 m21 539 372 m21 618 376 m21 697
 373 m21 777 370 m21 856 386 m21 935 376 m21 1015 373 m21 1094 379 m21 1174 373 m21 1253 367 m21 black 1332 337 m 2 Y s 1332 361 m 2 Y s 1327 337 m 11 X s 1327 363 m 11 X s 0 0 1 c 1332 350 m21 black 1412 372 m 4 Y s 1412 399 m 4 Y s 1406 372 m 11 X
 s 1406 403 m 11 X s 0 0 1 c 1412 388 m21 black 1491 328 m 6 Y s 1491 357 m 5 Y s 1485 328 m 12 X s 1485 362 m 12 X s 0 0 1 c 1491 345 m21 black 1570 362 m 8 Y s 1570 392 m 8 Y s 1565 362 m 11 X s 1565 400 m 11 X s 0 0 1 c 1570 381 m21 black 1650 322
 m 9 Y s 1650 354 m 9 Y s 1644 322 m 11 X s 1644 363 m 11 X s 0 0 1 c 1650 343 m21 black 1729 388 m 11 Y s 1729 422 m 12 Y s 1723 388 m 12 X s 1723 434 m 12 X s 0 0 1 c 1729 411 m21 black 1809 380 m 13 Y s 1809 416 m 13 Y s 1803 380 m 11 X s 1803 429
 m 11 X s 0 0 1 c 1809 405 m21 black 1888 374 m 14 Y s 1888 411 m 15 Y s 1882 374 m 12 X s 1882 426 m 12 X s 0 0 1 c 1888 400 m21 6 lw 1 1 1 c 0 0 1 c 380 376 m 33 X 17 1 d 16 -1 d 40 X 44 -1 d 9 -1 d 95 X 42 -1 d 66 X 35 1 d 34 1 d 45 1 d 21 X 34 1
 d 14 1 d 23 X 23 1 d 44 X 6 -1 d 7 X 66 -7 d 44 -4 d 18 -2 d 18 -1 d 12 -1 d 28 -2 d 9 -1 d 8 -1 d 22 X 10 -1 d 10 X 9 1 d 21 X 7 1 d 6 X 6 1 d 6 1 d 4 X 3 1 d 4 X 3 1 d 4 1 d 4 1 d 4 1 d 4 2 d 6 2 d 10 4 d 5 2 d 4 1 d 3 1 d 4 1 d 3 1 d 2 X 3 1 d 9
 X 3 1 d 2 X 3 -1 d 8 X 3 -1 d 3 X 3 -1 d 3 -1 d 3 -1 d 4 -1 d 4 -2 d 5 -2 d 13 -5 d 3 -2 d 4 -1 d 3 -1 d 4 -1 d 3 -1 d 3 -1 d 3 X 3 -1 d 1 X 5 -1 d 5 X 6 -1 d 11 X 7 -1 d 29 X 8 1 d 13 X 4 1 d 5 X 5 1 d 6 1 d 8 1 d 14 2 d 7 1 d 5 1 d 5 1 d 5 X 4 1 d
 20 X 5 -1 d 5 X 7 -1 d 8 -1 d 17 -2 d 7 -1 d 10 X 4 -1 d 56 X 5 1 d 6 X 5 1 d 5 X 5 1 d 1 X 5 1 d 5 1 d 5 1 d 6 1 d 5 1 d 5 1 d 4 1 d 5 2 d 5 1 d 5 2 d 5 2 d 4 2 d 4 1 d 4 2 d 4 2 d 4 2 d 3 2 d 1 1 d s 3 lw /w 2 def /w2 {w 2 div} def /w3 {w 3 div}
 def 380 376 459 376 539 374 618 374 697 373 777 374 856 376 935 378 1015 379 1094 371 1174 364 1253 359 1332 362 1412 383 1491 360 1570 358 1650 368 1729 361 1809 364 1888 390 20 { m20} R 6 lw black 0 0 1 c
 gsave  2268 1328 0 0 C 2036.96 364.658 t 0 r /Helvetica-Bold findfont 48.4311 sf 0 0 m (/dof=1.7) show NC gr  black 0 0 1 c
 gsave  2268 1328 0 0 C 2017.01 381.751 t 0 r /Helvetica-Bold findfont 34.1867 sf 0 0 m (2) show NC gr  black 0 0 1 c
 gsave  2268 1328 0 0 C 1991.37 364.658 t 0 r /Symbol findfont 48.4311 sf 0 0 m (c) show NC gr  black 3 lw 340 375 m 1588 X s
 gsave  2268 1328 0 0 C 424.485 1213.63 t 0 r /Helvetica-Bold findfont 42.7334 sf 0 0 m (0.9 mm) show NC gr  0 0 1 c /w 23 def /w2 {w 2 div} def /w3 {w 3 div} def 383 1228 m21 black 1 1 1 c 1 0 1 c 380 490 m21 459 492 m21 539 488 m21 618 485 m21 697
 488 m21 777 490 m21 856 498 m21 935 494 m21 1015 486 m21 1094 488 m21 1174 484 m21 black 1253 463 m s 1253 486 m s 1247 463 m 12 X s 1247 486 m 12 X s 1 0 1 c 1253 475 m21 black 1332 469 m 3 Y s 1332 495 m 3 Y s 1327 469 m 11 X s 1327 498 m 11 X s 1
 0 1 c 1332 483 m21 black 1412 458 m 6 Y s 1412 487 m 5 Y s 1406 458 m 11 X s 1406 492 m 11 X s 1 0 1 c 1412 475 m21 black 1491 440 m 8 Y s 1491 470 m 8 Y s 1485 440 m 12 X s 1485 478 m 12 X s 1 0 1 c 1491 459 m21 black 1570 440 m 9 Y s 1570 472 m 9
 Y s 1565 440 m 11 X s 1565 481 m 11 X s 1 0 1 c 1570 461 m21 black 1650 459 m 11 Y s 1650 493 m 11 Y s 1644 459 m 11 X s 1644 504 m 11 X s 1 0 1 c 1650 481 m21 black 1729 453 m 13 Y s 1729 489 m 13 Y s 1723 453 m 12 X s 1723 502 m 12 X s 1 0 1 c
 1729 477 m21 black 1809 415 m 14 Y s 1809 452 m 14 Y s 1803 415 m 11 X s 1803 466 m 11 X s 1 0 1 c 1809 440 m21 black 1888 492 m 17 Y s 1888 532 m 17 Y s 1882 492 m 12 X s 1882 549 m 12 X s 1 0 1 c 1888 520 m21 6 lw 1 1 1 c 1 0 1 c 380 493 m 101 X
 22 -1 d 124 X 12 -1 d 138 X 61 1 d 29 X 16 1 d 27 X 13 1 d 107 X 8 -1 d 18 X 12 -1 d 15 -1 d 19 X 8 -1 d 12 -1 d 32 -2 d 8 X 7 -1 d 5 X 34 -2 d 17 X 7 -1 d 65 X 7 1 d 14 X 6 1 d 11 X 4 1 d 6 X 4 1 d 4 X 4 1 d 6 1 d 10 2 d 5 X 3 1 d 4 X 3 1 d 6 X 3 1
 d 29 X 3 -1 d 6 X 3 -1 d 3 X 4 -1 d 4 -1 d 16 -3 d 3 -1 d 3 X 4 -1 d 6 X 3 -1 d 12 X 6 -1 d 23 X 7 -1 d 19 X 7 1 d 24 X 5 1 d 10 X 7 1 d 12 1 d 6 1 d 9 X 4 1 d 40 X 6 -1 d 8 X 14 -1 d 6 -1 d 29 X 8 -1 d 7 X 7 1 d 38 X 6 1 d 10 X 6 1 d 5 X 5 1 d 6 X
 5 1 d 5 X 5 1 d 6 1 d 5 X 4 1 d 5 1 d 4 X 5 1 d 4 1 d 4 1 d s 3 lw /w 2 def /w2 {w 2 div} def /w3 {w 3 div} def 380 493 459 493 539 492 618 492 697 491 777 491 856 492 935 494 1015 494 1094 491 1174 486 1253 483 1332 485 1412 494 1491 484 1570 483
 1650 488 1729 485 1809 486 1888 496 20 { m20} R 6 lw black 1 0 1 c
 gsave  2268 1328 0 0 C 2039.81 490.009 t 0 r /Helvetica-Bold findfont 48.4311 sf 0 0 m (/dof=1.1) show NC gr  black 1 0 1 c
 gsave  2268 1328 0 0 C 2019.86 507.102 t 0 r /Helvetica-Bold findfont 34.1867 sf 0 0 m (2) show NC gr  black 1 0 1 c
 gsave  2268 1328 0 0 C 1994.22 490.009 t 0 r /Symbol findfont 48.4311 sf 0 0 m (c) show NC gr  black 3 lw 340 492 m 1588 X s
 gsave  2268 1328 0 0 C 649.547 1213.63 t 0 r /Helvetica-Bold findfont 39.8845 sf 0 0 m (1.1 mm) show NC gr  1 0 1 c /w 23 def /w2 {w 2 div} def /w3 {w 3 div} def 609 1228 m21 black 1 1 1 c 0 0.733333 1 c 380 610 m21 459 609 m21 539 612 m21 618 605
 m21 697 605 m21 777 613 m21 856 615 m21 935 609 m21 1015 600 m21 1094 603 m21 1174 613 m21 black 1253 604 m 2 Y s 1253 628 m 2 Y s 1247 604 m 12 X s 1247 630 m 12 X s 0 0.733333 1 c 1253 617 m21 black 1332 580 m 4 Y s 1332 607 m 4 Y s 1327 580 m 11
 X s 1327 611 m 11 X s 0 0.733333 1 c 1332 596 m21 black 1412 574 m 7 Y s 1412 603 m 7 Y s 1406 574 m 11 X s 1406 610 m 11 X s 0 0.733333 1 c 1412 592 m21 black 1491 567 m 9 Y s 1491 598 m 10 Y s 1485 567 m 12 X s 1485 608 m 12 X s 0 0.733333 1 c
 1491 587 m21 black 1570 564 m 11 Y s 1570 598 m 11 Y s 1565 564 m 11 X s 1565 609 m 11 X s 0 0.733333 1 c 1570 587 m21 black 1650 575 m 13 Y s 1650 611 m 13 Y s 1644 575 m 11 X s 1644 624 m 11 X s 0 0.733333 1 c 1650 600 m21 black 1729 599 m 16 Y s
 1729 638 m 15 Y s 1723 599 m 12 X s 1723 653 m 12 X s 0 0.733333 1 c 1729 626 m21 black 1809 608 m 17 Y s 1809 648 m 17 Y s 1803 608 m 11 X s 1803 665 m 11 X s 0 0.733333 1 c 1809 636 m21 black 1888 601 m 19 Y s 1888 643 m 20 Y s 1882 601 m 12 X s
 1882 663 m 12 X s 0 0.733333 1 c 1888 632 m21 6 lw 1 1 1 c 0 0.733333 1 c 380 610 m 88 X 10 -1 d 204 X 7 -1 d 25 X 11 1 d 151 X 19 1 d 163 X 10 -1 d 38 X 6 -1 d 18 X 19 -1 d 8 -1 d 17 X 23 -1 d 31 X 6 -1 d 52 X 7 1 d 42 X 4 1 d 14 X 4 1 d 6 X 10 1 d
 4 X 4 1 d 15 X 3 1 d 24 X 3 -1 d 14 X 3 -1 d 9 X 11 -1 d 3 -1 d 6 X 4 -1 d 20 X 6 -1 d 79 X 4 1 d 14 X 8 1 d 18 X 4 1 d 49 X 6 -1 d 24 X 5 -1 d 63 X s 1776 605 m 13 X 7 1 d 30 X 5 1 d 17 X 6 1 d 10 X 5 1 d 10 X 4 1 d 5 X s 3 lw /w 2 def /w2 {w 2
 div} def /w3 {w 3 div} def 380 610 459 610 539 609 618 609 697 608 777 609 856 609 935 610 1015 610 1094 609 1174 606 1253 604 1332 605 1412 610 1491 605 1570 604 1650 607 1729 605 1809 606 1888 610 20 { m20} R 6 lw black 0 0.733333 1 c
 gsave  2268 1328 0 0 C 2036.96 615.36 t 0 r /Helvetica-Bold findfont 48.4311 sf 0 0 m (/dof=0.8) show NC gr  black 0 0.733333 1 c
 gsave  2268 1328 0 0 C 2017.01 632.454 t 0 r /Helvetica-Bold findfont 34.1867 sf 0 0 m (2) show NC gr  black 0 0.733333 1 c
 gsave  2268 1328 0 0 C 1991.37 615.36 t 0 r /Symbol findfont 48.4311 sf 0 0 m (c) show NC gr  black 3 lw 340 609 m 1588 X s
 gsave  2268 1328 0 0 C 877.458 1213.63 t 0 r /Helvetica-Bold findfont 39.8845 sf 0 0 m (1.2 mm) show NC gr  0 0.733333 1 c /w 23 def /w2 {w 2 div} def /w3 {w 3 div} def 836 1228 m21 black 1 1 1 c 0.35 0.83 0.33 c 380 726 m21 459 729 m21 539 729 m21
 618 728 m21 697 725 m21 777 724 m21 856 724 m21 935 731 m21 1015 726 m21 1094 720 m21 1174 749 m21 black 1253 708 m 2 Y s 1253 733 m 2 Y s 1247 708 m 12 X s 1247 735 m 12 X s 0.35 0.83 0.33 c 1253 721 m21 black 1332 710 m 5 Y s 1332 738 m 5 Y s 1327
 710 m 11 X s 1327 743 m 11 X s 0.35 0.83 0.33 c 1332 727 m21 black 1412 741 m 8 Y s 1412 772 m 8 Y s 1406 741 m 11 X s 1406 780 m 11 X s 0.35 0.83 0.33 c 1412 760 m21 black 1491 688 m 11 Y s 1491 721 m 11 Y s 1485 688 m 12 X s 1485 732 m 12 X s 0.35
 0.83 0.33 c 1491 710 m21 black 1570 709 m 14 Y s 1570 745 m 14 Y s 1565 709 m 11 X s 1565 759 m 11 X s 0.35 0.83 0.33 c 1570 734 m21 black 1650 703 m 15 Y s 1650 741 m 15 Y s 1644 703 m 11 X s 1644 756 m 11 X s 0.35 0.83 0.33 c 1650 730 m21 black
 1729 706 m 17 Y s 1729 746 m 17 Y s 1723 706 m 12 X s 1723 763 m 12 X s 0.35 0.83 0.33 c 1729 734 m21 black 1809 725 m 19 Y s 1809 767 m 20 Y s 1803 725 m 11 X s 1803 787 m 11 X s 0.35 0.83 0.33 c 1809 756 m21 black 1888 713 m 21 Y s 1888 757 m 22 Y
 s 1882 713 m 12 X s 1882 779 m 12 X s 0.35 0.83 0.33 c 1888 746 m21 6 lw 1 1 1 c 0.35 0.83 0.33 c 380 726 m 260 X 14 1 d 156 X 18 -1 d 86 X 8 -1 d 145 X 7 1 d 34 X 5 1 d 12 X 8 1 d 13 X 7 1 d 11 X 4 1 d 27 X 9 1 d 120 X 8 -1 d 16 X 5 -1 d 6 X 18 -1
 d 5 X 4 -1 d 48 X 3 1 d 8 X 6 1 d 11 X 5 1 d 9 X 3 1 d 32 X 6 1 d 60 X 4 -1 d 17 X 15 -1 d 6 -1 d 26 X 4 -1 d 8 X 3 1 d 32 X 9 1 d 23 X 3 1 d 32 X 8 -1 d 51 X 9 -1 d 28 X 9 -1 d 9 X s 1873 728 m 8 X 7 -1 d s 3 lw /w 2 def /w2 {w 2 div} def /w3 {w 3
 div} def 380 726 459 726 539 726 618 726 697 727 777 727 856 726 935 725 1015 725 1094 726 1174 730 1253 731 1332 730 1412 727 1491 731 1570 732 1650 728 1729 731 1809 730 1888 727 20 { m20} R 6 lw black 0.35 0.83 0.33 c
 gsave  2268 1328 0 0 C 2036.96 740.711 t 0 r /Helvetica-Bold findfont 48.4311 sf 0 0 m (/dof=0.6) show NC gr  black 0.35 0.83 0.33 c
 gsave  2268 1328 0 0 C 2017.01 757.805 t 0 r /Helvetica-Bold findfont 34.1867 sf 0 0 m (2) show NC gr  black 0.35 0.83 0.33 c
 gsave  2268 1328 0 0 C 1991.37 740.711 t 0 r /Symbol findfont 48.4311 sf 0 0 m (c) show NC gr  black 3 lw 340 726 m 1588 X s
 gsave  2268 1328 0 0 C 1105.37 1213.63 t 0 r /Helvetica-Bold findfont 39.8845 sf 0 0 m (1.4 mm) show NC gr  0.35 0.83 0.33 c /w 23 def /w2 {w 2 div} def /w3 {w 3 div} def 1063 1228 m21 black 1 1 1 c 0.53 0.4 0.34 c 380 844 m21 459 850 m21 539 841
 m21 618 841 m21 697 840 m21 777 839 m21 856 846 m21 935 847 m21 1015 835 m21 1094 853 m21 black 1174 835 m s 1174 858 m s 1168 835 m 11 X s 1168 858 m 11 X s 0.53 0.4 0.34 c 1174 847 m21 black 1253 862 m 3 Y s 1253 888 m 4 Y s 1247 862 m 12 X s 1247
 892 m 12 X s 0.53 0.4 0.34 c 1253 877 m21 black 1332 811 m 7 Y s 1332 840 m 7 Y s 1327 811 m 11 X s 1327 847 m 11 X s 0.53 0.4 0.34 c 1332 829 m21 black 1412 814 m 10 Y s 1412 846 m 10 Y s 1406 814 m 11 X s 1406 856 m 11 X s 0.53 0.4 0.34 c 1412 835
 m21 black 1491 810 m 12 Y s 1491 845 m 13 Y s 1485 810 m 12 X s 1485 858 m 12 X s 0.53 0.4 0.34 c 1491 834 m21 black 1570 855 m 15 Y s 1570 893 m 15 Y s 1565 855 m 11 X s 1565 908 m 11 X s 0.53 0.4 0.34 c 1570 881 m21 black 1650 826 m 17 Y s 1650
 866 m 17 Y s 1644 826 m 11 X s 1644 883 m 11 X s 0.53 0.4 0.34 c 1650 855 m21 black 1729 844 m 20 Y s 1729 887 m 19 Y s 1723 844 m 12 X s 1723 906 m 12 X s 0.53 0.4 0.34 c 1729 875 m21 black 1809 813 m 22 Y s 1809 857 m 22 Y s 1803 813 m 11 X s 1803
 879 m 11 X s 0.53 0.4 0.34 c 1809 846 m21 black 1888 814 m 24 Y s 1888 861 m 23 Y s 1882 814 m 12 X s 1882 884 m 12 X s 0.53 0.4 0.34 c 1888 849 m21 6 lw 1 1 1 c 0.53 0.4 0.34 c 380 843 m 12 -1 d 75 X 9 1 d 36 X 9 1 d 24 X 73 -1 d 20 X 9 1 d 23 X 9
 1 d 25 X 73 -1 d 86 X 8 -1 d 10 X 17 -1 d 23 X 7 -1 d 149 X 6 1 d 16 X 4 1 d 9 X 5 1 d 5 1 d 6 X 14 2 d 7 1 d 5 1 d 5 X 5 1 d 4 X 4 1 d 2 X 11 1 d 10 X 9 1 d 7 X 7 1 d 26 X 5 1 d 15 X 6 -1 d 27 X 9 -1 d 10 X 14 -1 d 11 X 4 -1 d 5 X 6 -1 d 22 -2 d 5
 -1 d 8 X 3 -1 d 31 X 3 1 d 8 X 4 1 d 4 X 6 1 d 14 2 d 6 1 d 4 X 4 1 d 11 X 2 1 d 16 X 7 1 d 63 X 4 -1 d 8 X 4 -1 d 5 X 15 -2 d 6 -1 d 5 X 3 -1 d 12 X 3 -1 d 22 X 4 1 d 9 X 6 1 d 9 X 9 1 d 6 1 d 17 X 3 1 d 24 X 6 -1 d 18 X 28 -1 d 6 X 20 -1 d 20 X 19
 -1 d 20 -1 d s 3 lw /w 2 def /w2 {w 2 div} def /w3 {w 3 div} def 380 843 459 842 539 844 618 843 697 845 777 844 856 844 935 841 1015 841 1094 842 1174 851 1253 855 1332 852 1412 846 1491 854 1570 855 1650 848 1729 853 1809 851 1888 848 20 { m20} R
 6 lw black 0.53 0.4 0.34 c
 gsave  2268 1328 0 0 C 2036.96 863.214 t 0 r /Helvetica-Bold findfont 48.4311 sf 0 0 m (/dof=0.9) show NC gr  black 0.53 0.4 0.34 c
 gsave  2268 1328 0 0 C 2017.01 880.307 t 0 r /Helvetica-Bold findfont 34.1867 sf 0 0 m (2) show NC gr  black 0.53 0.4 0.34 c
 gsave  2268 1328 0 0 C 1991.37 863.214 t 0 r /Symbol findfont 48.4311 sf 0 0 m (c) show NC gr  black 3 lw 340 843 m 1588 X s
 gsave  2268 1328 0 0 C 1330.43 1213.63 t 0 r /Helvetica-Bold findfont 42.7334 sf 0 0 m (1.5 mm) show NC gr  0.53 0.4 0.34 c /w 23 def /w2 {w 2 div} def /w3 {w 3 div} def 1290 1228 m21 black 1 1 1 c black 380 958 m21 459 960 m21 539 959 m21 618 970
 m21 697 957 m21 777 958 m21 856 962 m21 935 965 m21 1015 961 m21 1094 963 m21 1174 954 m 1 Y s 1174 978 m 1 Y s 1168 954 m 11 X s 1168 979 m 11 X s 1174 966 m21 1253 973 m 4 Y s 1253 1000 m 4 Y s 1247 973 m 12 X s 1247 1004 m 12 X s 1253 988 m21
 1332 948 m 8 Y s 1332 978 m 8 Y s 1327 948 m 11 X s 1327 986 m 11 X s 1332 967 m21 1412 967 m 11 Y s 1412 1001 m 11 Y s 1406 967 m 11 X s 1406 1012 m 11 X s 1412 989 m21 1491 965 m 14 Y s 1491 1002 m 14 Y s 1485 965 m 12 X s 1485 1016 m 12 X s 1491
 991 m21 1570 952 m 16 Y s 1570 991 m 17 Y s 1565 952 m 11 X s 1565 1008 m 11 X s 1570 980 m21 1650 918 m 19 Y s 1650 959 m 19 Y s 1644 918 m 11 X s 1644 978 m 11 X s 1650 948 m21 1729 951 m 22 Y s 1729 995 m 22 Y s 1723 951 m 12 X s 1723 1017 m 12 X
 s 1729 984 m21 1809 945 m 24 Y s 1809 991 m 24 Y s 1803 945 m 11 X s 1803 1015 m 11 X s 1809 980 m21 1888 884 m 26 Y s 1888 933 m 25 Y s 1882 884 m 12 X s 1882 958 m 12 X s 1888 921 m21 6 lw 1 1 1 c black 380 959 m 12 -1 d 67 X 8 1 d 22 X 21 1 d 10
 1 d 25 X 73 -2 d 11 X 7 1 d 8 X 13 1 d 12 1 d 9 1 d 7 X 5 1 d 38 X 20 -1 d 14 -1 d 100 X 7 -1 d 9 X 9 -1 d 27 -3 d 7 X 7 -1 d 25 X 10 -1 d 67 X 28 -1 d 31 X 4 1 d 5 X 3 1 d 4 1 d 4 X 4 1 d 4 1 d 5 2 d 5 1 d 7 3 d 11 4 d 6 2 d 5 1 d 4 1 d 4 1 d 4 1 d
 3 1 d 3 X 8 2 d 7 1 d 8 1 d 7 1 d 7 1 d 7 X 7 1 d 6 X 7 1 d 43 X 51 -5 d 6 X 6 -1 d 8 -1 d 26 -3 d 6 -1 d 5 X 5 -1 d 30 X 5 1 d 5 X 5 1 d 6 1 d 8 1 d 13 3 d 6 1 d 6 1 d 5 X 4 1 d 4 X 18 2 d 9 X 8 1 d 13 X 6 1 d 16 X 5 -1 d 8 X 3 -1 d 4 X 4 -1 d 4 X
 4 -1 d 6 -2 d 15 -3 d 5 -2 d 5 -1 d 4 -1 d 3 X 5 -1 d 3 -1 d 25 X 4 1 d 5 X 4 1 d 6 1 d 12 2 d 7 1 d 6 1 d 5 1 d 4 X 4 1 d 22 X 66 -4 d 7 1 d 16 X 9 1 d 7 X 8 1 d 8 X 8 1 d 7 1 d 9 1 d s 3 lw /w 2 def /w2 {w 2 div} def /w3 {w 3 div} def 380 959 459
 958 539 961 618 959 697 964 777 962 856 962 935 956 1015 955 1094 955 1174 976 1253 984 1332 979 1412 972 1491 982 1570 985 1650 971 1729 980 1809 976 1888 982 20 { m20} R 6 lw
 gsave  2268 1328 0 0 C 2036.96 988.565 t 0 r /Helvetica-Bold findfont 48.4311 sf 0 0 m (/dof=0.9) show NC gr 
 gsave  2268 1328 0 0 C 2017.01 1005.66 t 0 r /Helvetica-Bold findfont 34.1867 sf 0 0 m (2) show NC gr 
 gsave  2268 1328 0 0 C 1991.37 988.565 t 0 r /Symbol findfont 48.4311 sf 0 0 m (c) show NC gr  3 lw 340 961 m 1588 X s
 gsave  2268 1328 0 0 C 1558.34 1213.63 t 0 r /Helvetica-Bold findfont 39.8845 sf 0 0 m (1.7 mm) show NC gr  /w 23 def /w2 {w 2 div} def /w3 {w 3 div} def 1517 1228 m21 1 1 1 c 0.48 0 1 c 380 1076 m21 459 1068 m21 539 1081 m21 618 1071 m21 697 1083
 m21 777 1083 m21 856 1079 m21 935 1064 m21 1015 1065 m21 1094 1063 m21 black 1174 1100 m 2 Y s 1174 1125 m 2 Y s 1168 1100 m 11 X s 1168 1127 m 11 X s 0.48 0 1 c 1174 1113 m21 black 1253 1096 m 5 Y s 1253 1124 m 5 Y s 1247 1096 m 12 X s 1247 1129 m
 12 X s 0.48 0 1 c 1253 1113 m21 black 1332 1099 m 9 Y s 1332 1131 m 9 Y s 1327 1099 m 11 X s 1327 1140 m 11 X s 0.48 0 1 c 1332 1120 m21 black 1412 1084 m 13 Y s 1412 1120 m 12 Y s 1406 1084 m 11 X s 1406 1132 m 11 X s 0.48 0 1 c 1412 1108 m21 black
 1491 1077 m 16 Y s 1491 1116 m 16 Y s 1485 1077 m 12 X s 1485 1132 m 12 X s 0.48 0 1 c 1491 1105 m21 black 1570 1088 m 19 Y s 1570 1129 m 19 Y s 1565 1088 m 11 X s 1565 1148 m 11 X s 0.48 0 1 c 1570 1118 m21 black 1650 1061 m 21 Y s 1650 1105 m 21 Y
 s 1644 1061 m 11 X s 1644 1126 m 11 X s 0.48 0 1 c 1650 1094 m21 black 1729 1064 m 23 Y s 1729 1110 m 23 Y s 1723 1064 m 12 X s 1723 1133 m 12 X s 0.48 0 1 c 1729 1098 m21 black 1809 1065 m 26 Y s 1809 1113 m 26 Y s 1803 1065 m 11 X s 1803 1139 m 11
 X s 0.48 0 1 c 1809 1102 m21 black 1888 1143 m 30 Y s 1882 1143 m 12 X s 0.48 0 1 c 1888 1185 m21 6 lw 1 1 1 c 0.48 0 1 c 380 1075 m 16 -1 d 63 X 9 1 d 11 X 19 2 d 16 1 d 8 X 8 1 d 15 X 8 -1 d 9 X 17 -2 d 12 -1 d 9 -1 d 24 X 6 1 d 7 1 d 10 1 d 15 2
 d 11 2 d 8 1 d 6 X 6 1 d 29 X 41 -3 d 34 X 29 1 d 30 X 7 -1 d 7 -1 d 10 -1 d 15 -2 d 17 -3 d 8 -1 d 7 -1 d 7 X 1 -1 d 63 X 10 -1 d 13 X 6 -1 d 9 -1 d 22 -3 d 7 -1 d 20 X 4 1 d 5 X 4 1 d 3 1 d 5 1 d 4 2 d 4 2 d 4 2 d 5 2 d 6 4 d 11 7 d 7 4 d 5 3 d 5
 3 d 4 2 d 5 2 d 3 1 d 5 2 d 7 2 d 7 2 d 8 2 d 8 1 d 8 2 d 7 1 d 8 1 d 9 1 d 15 X 2 1 d 5 X 5 -1 d 13 X 56 -8 d 25 -1 d 13 -1 d 13 -1 d 29 X 7 1 d 8 X 10 1 d 13 2 d 23 2 d 9 2 d 9 X 9 1 d 22 3 d 11 1 d 9 X 6 1 d 12 X 5 -1 d 5 X 5 -1 d 4 -1 d 5 -1 d 4
 -1 d 6 -2 d 6 -2 d 21 -9 d 5 -2 d 6 -1 d 4 -1 d 4 -1 d 4 -1 d 18 X 5 1 d 5 1 d 5 1 d 7 2 d 14 4 d 7 2 d 6 1 d 6 1 d 4 1 d 4 1 d 19 X 6 -1 d 7 -1 d 25 -3 d 6 -1 d 5 X 5 -1 d 4 1 d 7 X 6 1 d 6 1 d 6 1 d 6 1 d 6 2 d 6 2 d 7 2 d 6 2 d 6 2 d 6 3 d 6 3 d
 5 2 d 6 3 d 1 1 d s 3 lw /w 2 def /w2 {w 2 div} def /w3 {w 3 div} def 380 1075 459 1074 539 1079 618 1074 697 1083 777 1080 856 1081 935 1070 1015 1069 1094 1064 1174 1103 1253 1116 1332 1107 1412 1104 1491 1112 1570 1117 1650 1094 1729 1109 1809
 1103 1888 1129 20 { m20} R 6 lw black 0.48 0 1 c
 gsave  2268 1328 0 0 C 2036.96 1113.92 t 0 r /Helvetica-Bold findfont 48.4311 sf 0 0 m (/dof=0.4) show NC gr  black 0.48 0 1 c
 gsave  2268 1328 0 0 C 2017.01 1131.01 t 0 r /Helvetica-Bold findfont 34.1867 sf 0 0 m (2) show NC gr  black 0.48 0 1 c
 gsave  2268 1328 0 0 C 1991.37 1113.92 t 0 r /Symbol findfont 48.4311 sf 0 0 m (c) show NC gr  black 3 lw 340 1078 m 1588 X s
 gsave  2268 1328 0 0 C 1783.41 1213.63 t 0 r /Helvetica-Bold findfont 42.7334 sf 0 0 m (1.9 mm) show NC gr  0.48 0 1 c /w 23 def /w2 {w 2 div} def /w3 {w 3 div} def 1743 1228 m21
 gr  gr showpage
end
%%EOF
