%!PS-Adobe-2.0 EPSF-2.0
%%BoundingBox:  0 0 567 332
%%Title: BeamSigmaY_nof_fits.eps: Fits
%%Creator: ROOT Version 5.30/06
%%CreationDate: Sun Feb  2 09:30:42 2014
%%EndComments
%%BeginProlog
80 dict begin
/s {stroke} def /l {lineto} def /m {moveto} def /t {translate} def
/r {rotate} def /rl {roll}  def /R {repeat} def
/d {rlineto} def /rm {rmoveto} def /gr {grestore} def /f {eofill} def
/c {setrgbcolor} def /black {0 setgray} def /sd {setdash} def
/cl {closepath} def /sf {scalefont setfont} def /lw {setlinewidth} def
/box {m dup 0 exch d exch 0 d 0 exch neg d cl} def
/NC{systemdict begin initclip end}def/C{NC box clip newpath}def
/bl {box s} def /bf {box f} def /Y { 0 exch d} def /X { 0 d} def 
/K {{pop pop 0 moveto} exch kshow} bind def
/ita {/ang 15 def gsave [1 0 ang dup sin exch cos div 1 0 0] concat} def 
/mp {newpath /y exch def /x exch def} def
/side {[w .77 mul w .23 mul] .385 w mul sd w 0 l currentpoint t -144 r} def
/mr {mp x y w2 0 360 arc} def /m24 {mr s} def /m20 {mr f} def
/mb {mp x y w2 add m w2 neg 0 d 0 w neg d w 0 d 0 w d cl} def
/mt {mp x y w2 add m w2 neg w neg d w 0 d cl} def
/m21 {mb f} def /m25 {mb s} def /m22 {mt f} def /m26{mt s} def
/m23 {mp x y w2 sub m w2 w d w neg 0 d cl f} def
/m27 {mp x y w2 add m w3 neg w2 neg d w3 w2 neg d w3 w2 d cl s} def
/m28 {mp x w2 sub y w2 sub w3 add m w3 0 d  0 w3 neg d w3 0 d 0 w3 d w3 0 d  0 w3 d w3 neg 0 d 0 w3 d w3 neg 0 d 0 w3 neg d w3 neg 0 d cl s } def
/m29 {mp gsave x w2 sub y w2 add w3 sub m currentpoint t 4 {side} repeat cl fill gr} def
/m30 {mp gsave x w2 sub y w2 add w3 sub m currentpoint t 4 {side} repeat cl s gr} def
/m31 {mp x y w2 sub m 0 w d x w2 sub y m w 0 d x w2 sub y w2 add m w w neg d x w2 sub y w2 sub m w w d s} def
/m32 {mp x y w2 sub m w2 w d w neg 0 d cl s} def
/m33 {mp x y w2 add m w3 neg w2 neg d w3 w2 neg d w3 w2 d cl f} def
/m34 {mp x w2 sub y w2 sub w3 add m w3 0 d  0 w3 neg d w3 0 d 0 w3 d w3 0 d  0 w3 d w3 neg 0 d 0 w3 d w3 neg 0 d 0 w3 neg d w3 neg 0 d cl f } def
/m2 {mp x y w2 sub m 0 w d x w2 sub y m w 0 d s} def
/m5 {mp x w2 sub y w2 sub m w w d x w2 sub y w2 add m w w neg d s} def
/reEncode {exch findfont dup length dict begin {1 index /FID eq  {pop pop} {def} ifelse } forall /Encoding exch def currentdict end dup /FontName get exch definefont pop } def [/Times-Bold /Times-Italic /Times-BoldItalic /Helvetica /Helvetica-Oblique
 /Helvetica-Bold /Helvetica-BoldOblique /Courier /Courier-Oblique /Courier-Bold /Courier-BoldOblique /Times-Roman /AvantGarde-Book /AvantGarde-BookOblique /AvantGarde-Demi /AvantGarde-DemiOblique /Bookman-Demi /Bookman-DemiItalic /Bookman-Light
 /Bookman-LightItalic /Helvetica-Narrow /Helvetica-Narrow-Bold /Helvetica-Narrow-BoldOblique /Helvetica-Narrow-Oblique /NewCenturySchlbk-Roman /NewCenturySchlbk-Bold /NewCenturySchlbk-BoldItalic /NewCenturySchlbk-Italic /Palatino-Bold
 /Palatino-BoldItalic /Palatino-Italic /Palatino-Roman ] {ISOLatin1Encoding reEncode } forall%%EndProlog
%%BeginSetup
%%EndSetup
newpath  gsave  .25 .25 scale  gsave  0 0 t black[  ] 0 sd 3 lw 1 1 1 c 2268 1328 0 0 bf black 1 1 1 c 408 305 23 1009 bf black 1 1 1 c black 306 229 84 1055 bl 306 229 84 1055 bl 84 1055 m 306 X s 130 1059 m -4 Y s 236 1059 m -4 Y s 341 1059 m -4 Y
 s 130 1059 m -4 Y s 341 1059 m -4 Y s
 gsave  408 305 23 1009 C 108.258 1034.15 t 0 r /Helvetica findfont 22.8295 sf 0 0 m (\2550.5) show NC gr 
 gsave  408 305 23 1009 C 225.062 1034.15 t 0 r /Helvetica findfont 22.8295 sf 0 0 m (0) show NC gr 
 gsave  408 305 23 1009 C 321.925 1034.15 t 0 r /Helvetica findfont 22.8295 sf 0 0 m (0.5) show NC gr  84 1284 m 306 X s 130 1280 m 4 Y s 236 1280 m 4 Y s 341 1280 m 4 Y s 130 1280 m 4 Y s 341 1280 m 4 Y s 84 1055 m 229 Y s 89 1063 m -5 X s 87 1068 m
 -3 X s 87 1073 m -3 X s 87 1078 m -3 X s 87 1083 m -3 X s 89 1088 m -5 X s 87 1093 m -3 X s 87 1098 m -3 X s 87 1103 m -3 X s 87 1108 m -3 X s 89 1113 m -5 X s 87 1118 m -3 X s 87 1123 m -3 X s 87 1128 m -3 X s 87 1133 m -3 X s 89 1138 m -5 X s 87
 1143 m -3 X s 87 1148 m -3 X s 87 1153 m -3 X s 87 1158 m -3 X s 89 1163 m -5 X s 87 1169 m -3 X s 87 1174 m -3 X s 87 1179 m -3 X s 87 1184 m -3 X s 89 1189 m -5 X s 87 1194 m -3 X s 87 1199 m -3 X s 87 1204 m -3 X s 87 1209 m -3 X s 89 1214 m -5 X
 s 87 1219 m -3 X s 87 1224 m -3 X s 87 1229 m -3 X s 87 1234 m -3 X s 89 1239 m -5 X s 87 1244 m -3 X s 87 1249 m -3 X s 87 1254 m -3 X s 87 1259 m -3 X s 89 1264 m -5 X s 89 1063 m -5 X s 87 1058 m -3 X s 89 1264 m -5 X s 87 1269 m -3 X s 87 1274 m
 -3 X s 87 1279 m -3 X s 87 1284 m -3 X s
 gsave  408 305 23 1009 C 14.2445 1056.94 t 0 r /Helvetica findfont 22.8295 sf 0 0 m (\2550.005) show NC gr 
 gsave  408 305 23 1009 C 14.2445 1082.58 t 0 r /Helvetica findfont 22.8295 sf 0 0 m (\2550.004) show NC gr 
 gsave  408 305 23 1009 C 14.2445 1105.37 t 0 r /Helvetica findfont 22.8295 sf 0 0 m (\2550.003) show NC gr 
 gsave  408 305 23 1009 C 14.2445 1131.01 t 0 r /Helvetica findfont 22.8295 sf 0 0 m (\2550.002) show NC gr 
 gsave  408 305 23 1009 C 17.0933 1156.65 t 0 r /Helvetica findfont 22.8295 sf 0 0 m (\2550.001) show NC gr 
 gsave  408 305 23 1009 C 65.5245 1182.29 t 0 r /Helvetica findfont 22.8295 sf 0 0 m (0) show NC gr 
 gsave  408 305 23 1009 C 25.64 1205.08 t 0 r /Helvetica findfont 22.8295 sf 0 0 m (0.001) show NC gr 
 gsave  408 305 23 1009 C 22.7911 1230.72 t 0 r /Helvetica findfont 22.8295 sf 0 0 m (0.002) show NC gr 
 gsave  408 305 23 1009 C 22.7911 1256.36 t 0 r /Helvetica findfont 22.8295 sf 0 0 m (0.003) show NC gr  390 1055 m 229 Y s 385 1063 m 5 X s 387 1068 m 3 X s 387 1073 m 3 X s 387 1078 m 3 X s 387 1083 m 3 X s 385 1088 m 5 X s 387 1093 m 3 X s 387
 1098 m 3 X s 387 1103 m 3 X s 387 1108 m 3 X s 385 1113 m 5 X s 387 1118 m 3 X s 387 1123 m 3 X s 387 1128 m 3 X s 387 1133 m 3 X s 385 1138 m 5 X s 387 1143 m 3 X s 387 1148 m 3 X s 387 1153 m 3 X s 387 1158 m 3 X s 385 1163 m 5 X s 387 1169 m 3 X
 s 387 1174 m 3 X s 387 1179 m 3 X s 387 1184 m 3 X s 385 1189 m 5 X s 387 1194 m 3 X s 387 1199 m 3 X s 387 1204 m 3 X s 387 1209 m 3 X s 385 1214 m 5 X s 387 1219 m 3 X s 387 1224 m 3 X s 387 1229 m 3 X s 387 1234 m 3 X s 385 1239 m 5 X s 387 1244
 m 3 X s 387 1249 m 3 X s 387 1254 m 3 X s 387 1259 m 3 X s 385 1264 m 5 X s 385 1063 m 5 X s 387 1058 m 3 X s 385 1264 m 5 X s 387 1269 m 3 X s 387 1274 m 3 X s 387 1279 m 3 X s 387 1284 m 3 X s /w 22 def /w2 {w 2 div} def /w3 {w 3 div} def 109 1174
 151 1182 194 1201 215 1137 257 1169 278 1166 320 1183 362 1177 8 { m21} R 109 1185 m 52 Y s 104 1237 m 11 X s 109 1162 m -52 Y s 104 1110 m 11 X s 151 1193 m 53 Y s 146 1246 m 11 X s 151 1171 m -53 Y s 146 1118 m 11 X s 194 1212 m 53 Y s 188 1265 m
 11 X s 194 1189 m -52 Y s 188 1137 m 11 X s 215 1149 m 52 Y s 209 1201 m 11 X s 215 1126 m -52 Y s 209 1074 m 11 X s 257 1181 m 52 Y s 251 1233 m 11 X s 257 1158 m -52 Y s 251 1106 m 11 X s 278 1178 m 52 Y s 272 1230 m 12 X s 278 1155 m -52 Y s 272
 1103 m 12 X s 320 1194 m 52 Y s 314 1246 m 12 X s 320 1171 m -52 Y s 314 1119 m 12 X s 362 1189 m 52 Y s 357 1241 m 11 X s 362 1166 m -52 Y s 357 1114 m 11 X s 1 0 0 c 9 lw 0.95 0.95 0.95 c black 1 0 0 c 85 1168 m 3 1 d 4 1 d 3 1 d 3 X 3 1 d 3 1 d 3
 1 d 3 X 3 1 d 3 1 d 3 X 3 1 d 3 1 d 3 X 3 1 d 3 X 3 1 d 4 X 3 1 d 3 X 3 1 d 3 X 3 1 d 3 X 3 1 d 6 X 3 1 d 6 X 3 1 d 6 X 4 1 d 9 X 3 1 d 24 X 3 1 d 6 X s 235 1189 m 7 X 3 -1 d 24 X 3 -1 d 9 X 3 -1 d 10 X 3 -1 d 3 X 3 -1 d 6 X 3 -1 d 3 X 3 -1 d 3 X 3
 -1 d 3 X 3 -1 d 3 X 3 -1 d 4 X 3 -1 d 3 X 3 -1 d 3 -1 d 3 X 3 -1 d 3 -1 d 3 X 3 -1 d 3 -1 d 3 X 3 -1 d 3 -1 d 3 -1 d 3 -1 d s 385 1168 m 4 X s 0.49 0.6 0.82 c black 0.49 0.6 0.82 c
 gsave  408 305 23 1009 C 142.445 1293.4 t 0 r /Helvetica-Bold findfont 25.6831 sf 0 0 m (0.0 < E < 0.5 GeV) show NC gr  0.52 0.76 0.64 c black 0.52 0.76 0.64 c
 gsave  408 305 23 1009 C 122.502 1256.36 t 0 r /Helvetica-Bold findfont 25.6831 sf 0 0 m 
 228 214 200 193 178 171 156 149 134 126 119 105 91 77 69 55 47 40 25 17
(A = \2550.002, p = 2.000) K NC gr  1 0.6 1 c black 1 0.6 1 c
 gsave  408 305 23 1009 C 427.334 1122.46 t 90 r /Helvetica-Bold findfont 28.5368 sf 0 0 m (/dof=0.1) show NC gr  black 1 0.6 1 c
 gsave  408 305 23 1009 C 415.938 1111.07 t 90 r /Helvetica-Bold findfont 19.9758 sf 0 0 m (2) show NC gr  black 1 0.6 1 c
 gsave  408 305 23 1009 C 427.334 1093.97 t 90 r /Symbol findfont 28.5368 sf 0 0 m (c) show NC gr  black 3 lw 1 1 1 c 408 305 476 1009 bf black 1 1 1 c black 307 229 537 1055 bl 307 229 537 1055 bl 537 1055 m 307 X s 584 1059 m -4 Y s 689 1059 m -4 Y
 s 795 1059 m -4 Y s 584 1059 m -4 Y s 795 1059 m -4 Y s
 gsave  408 305 476 1009 C 561.231 1034.15 t 0 r /Helvetica findfont 22.8295 sf 0 0 m (\2550.5) show NC gr 
 gsave  408 305 476 1009 C 678.036 1034.15 t 0 r /Helvetica findfont 22.8295 sf 0 0 m (0) show NC gr 
 gsave  408 305 476 1009 C 774.898 1034.15 t 0 r /Helvetica findfont 22.8295 sf 0 0 m (0.5) show NC gr  537 1284 m 307 X s 584 1280 m 4 Y s 689 1280 m 4 Y s 795 1280 m 4 Y s 584 1280 m 4 Y s 795 1280 m 4 Y s 537 1055 m 229 Y s 543 1067 m -6 X s 540
 1072 m -3 X s 540 1076 m -3 X s 540 1081 m -3 X s 540 1086 m -3 X s 543 1091 m -6 X s 540 1096 m -3 X s 540 1101 m -3 X s 540 1106 m -3 X s 540 1111 m -3 X s 543 1116 m -6 X s 540 1121 m -3 X s 540 1126 m -3 X s 540 1131 m -3 X s 540 1135 m -3 X s
 543 1140 m -6 X s 540 1145 m -3 X s 540 1150 m -3 X s 540 1155 m -3 X s 540 1160 m -3 X s 543 1165 m -6 X s 540 1170 m -3 X s 540 1175 m -3 X s 540 1180 m -3 X s 540 1185 m -3 X s 543 1190 m -6 X s 540 1194 m -3 X s 540 1199 m -3 X s 540 1204 m -3 X
 s 540 1209 m -3 X s 543 1214 m -6 X s 540 1219 m -3 X s 540 1224 m -3 X s 540 1229 m -3 X s 540 1234 m -3 X s 543 1239 m -6 X s 540 1244 m -3 X s 540 1248 m -3 X s 540 1253 m -3 X s 540 1258 m -3 X s 543 1263 m -6 X s 543 1067 m -6 X s 540 1062 m -3
 X s 540 1057 m -3 X s 543 1263 m -6 X s 540 1268 m -3 X s 540 1273 m -3 X s 540 1278 m -3 X s 540 1283 m -3 X s
 gsave  408 305 476 1009 C 467.218 1059.79 t 0 r /Helvetica findfont 22.8295 sf 0 0 m (\2550.005) show NC gr 
 gsave  408 305 476 1009 C 467.218 1085.43 t 0 r /Helvetica findfont 22.8295 sf 0 0 m (\2550.004) show NC gr 
 gsave  408 305 476 1009 C 467.218 1108.22 t 0 r /Helvetica findfont 22.8295 sf 0 0 m (\2550.003) show NC gr 
 gsave  408 305 476 1009 C 467.218 1133.86 t 0 r /Helvetica findfont 22.8295 sf 0 0 m (\2550.002) show NC gr 
 gsave  408 305 476 1009 C 470.067 1156.65 t 0 r /Helvetica findfont 22.8295 sf 0 0 m (\2550.001) show NC gr 
 gsave  408 305 476 1009 C 518.498 1182.29 t 0 r /Helvetica findfont 22.8295 sf 0 0 m (0) show NC gr 
 gsave  408 305 476 1009 C 478.614 1207.93 t 0 r /Helvetica findfont 22.8295 sf 0 0 m (0.001) show NC gr 
 gsave  408 305 476 1009 C 475.765 1230.72 t 0 r /Helvetica findfont 22.8295 sf 0 0 m (0.002) show NC gr 
 gsave  408 305 476 1009 C 475.765 1256.36 t 0 r /Helvetica findfont 22.8295 sf 0 0 m (0.003) show NC gr  844 1055 m 229 Y s 838 1067 m 6 X s 841 1072 m 3 X s 841 1076 m 3 X s 841 1081 m 3 X s 841 1086 m 3 X s 838 1091 m 6 X s 841 1096 m 3 X s 841
 1101 m 3 X s 841 1106 m 3 X s 841 1111 m 3 X s 838 1116 m 6 X s 841 1121 m 3 X s 841 1126 m 3 X s 841 1131 m 3 X s 841 1135 m 3 X s 838 1140 m 6 X s 841 1145 m 3 X s 841 1150 m 3 X s 841 1155 m 3 X s 841 1160 m 3 X s 838 1165 m 6 X s 841 1170 m 3 X
 s 841 1175 m 3 X s 841 1180 m 3 X s 841 1185 m 3 X s 838 1190 m 6 X s 841 1194 m 3 X s 841 1199 m 3 X s 841 1204 m 3 X s 841 1209 m 3 X s 838 1214 m 6 X s 841 1219 m 3 X s 841 1224 m 3 X s 841 1229 m 3 X s 841 1234 m 3 X s 838 1239 m 6 X s 841 1244
 m 3 X s 841 1248 m 3 X s 841 1253 m 3 X s 841 1258 m 3 X s 838 1263 m 6 X s 838 1067 m 6 X s 841 1062 m 3 X s 841 1057 m 3 X s 838 1263 m 6 X s 841 1268 m 3 X s 841 1273 m 3 X s 841 1278 m 3 X s 841 1283 m 3 X s /w 23 def /w2 {w 2 div} def /w3 {w 3
 div} def 563 1171 605 1149 647 1177 668 1157 710 1189 731 1185 774 1183 816 1174 8 { m21} R 563 1183 m 64 Y s 557 1247 m 11 X s 563 1160 m -64 Y s 557 1096 m 11 X s 605 1160 m 64 Y s 599 1224 m 12 X s 605 1138 m -64 Y s 599 1074 m 12 X s 647 1188 m
 64 Y s 641 1252 m 12 X s 647 1166 m -64 Y s 641 1102 m 12 X s 668 1169 m 64 Y s 662 1233 m 12 X s 668 1146 m -64 Y s 662 1082 m 12 X s 710 1201 m 64 Y s 705 1265 m 11 X s 710 1178 m -64 Y s 705 1114 m 11 X s 731 1196 m 64 Y s 726 1260 m 11 X s 731
 1174 m -65 Y s 726 1109 m 11 X s 774 1195 m 64 Y s 768 1259 m 11 X s 774 1172 m -64 Y s 768 1108 m 11 X s 816 1186 m 64 Y s 810 1250 m 11 X s 816 1163 m -64 Y s 810 1099 m 11 X s 1 0 0 c 9 lw 0.95 0.95 0.95 c black 1 0 0 c 539 1156 m 3 1 d 3 2 d 3 1
 d 3 1 d 3 2 d 3 1 d 3 1 d 3 1 d 4 1 d 3 1 d 3 1 d 3 1 d 3 1 d 3 1 d 3 1 d 3 1 d 3 1 d 3 1 d 3 1 d 3 1 d 3 1 d 3 X 3 1 d 3 1 d 4 X 3 1 d 3 1 d 3 X 3 1 d 3 X 3 1 d 3 X 3 1 d 3 X 3 1 d 6 X 3 1 d 6 X 3 1 d 19 X 3 1 d 3 X s 689 1190 m 3 X 3 -1 d 18 X 4
 -1 d 9 X 3 -1 d 3 X 3 -1 d 6 X 3 -1 d 3 X 3 -1 d 3 -1 d 3 X 3 -1 d 3 X 4 -1 d 3 -1 d 3 -1 d 3 X 3 -1 d 3 -1 d 3 -1 d 3 -1 d 3 -1 d 3 X 3 -1 d 3 -1 d 3 -1 d 3 -1 d 3 -2 d 3 -1 d 4 -1 d 3 -1 d 3 -1 d 3 -1 d 3 -2 d 3 -1 d 3 -1 d 3 -1 d 3 -2 d s 839
 1156 m 3 -1 d s 0.49 0.6 0.82 c black 0.49 0.6 0.82 c
 gsave  408 305 476 1009 C 595.418 1293.4 t 0 r /Helvetica-Bold findfont 25.6831 sf 0 0 m (0.5 < E < 1.0 GeV) show NC gr  0.52 0.76 0.64 c black 0.52 0.76 0.64 c
 gsave  408 305 476 1009 C 575.476 1256.36 t 0 r /Helvetica-Bold findfont 25.6831 sf 0 0 m 
 228 214 200 193 178 171 156 149 133 126 119 105 91 77 69 55 47 39 25 17
(A = \2550.003, p = 2.000) K NC gr  1 0.6 1 c black 1 0.6 1 c
 gsave  408 305 476 1009 C 883.156 1122.46 t 90 r /Helvetica-Bold findfont 28.5368 sf 0 0 m (/dof=0.1) show NC gr  black 1 0.6 1 c
 gsave  408 305 476 1009 C 871.76 1111.07 t 90 r /Helvetica-Bold findfont 19.9758 sf 0 0 m (2) show NC gr  black 1 0.6 1 c
 gsave  408 305 476 1009 C 883.156 1093.97 t 90 r /Symbol findfont 28.5368 sf 0 0 m (c) show NC gr  black 3 lw 1 1 1 c 408 305 930 1009 bf black 1 1 1 c black 306 229 991 1055 bl 306 229 991 1055 bl 991 1055 m 306 X s 1037 1059 m -4 Y s 1143 1059 m
 -4 Y s 1248 1059 m -4 Y s 1037 1059 m -4 Y s 1248 1059 m -4 Y s
 gsave  408 305 930 1009 C 1017.05 1034.15 t 0 r /Helvetica findfont 22.8295 sf 0 0 m (\2550.5) show NC gr 
 gsave  408 305 930 1009 C 1133.86 1034.15 t 0 r /Helvetica findfont 22.8295 sf 0 0 m (0) show NC gr 
 gsave  408 305 930 1009 C 1230.72 1034.15 t 0 r /Helvetica findfont 22.8295 sf 0 0 m (0.5) show NC gr  991 1284 m 306 X s 1037 1280 m 4 Y s 1143 1280 m 4 Y s 1248 1280 m 4 Y s 1037 1280 m 4 Y s 1248 1280 m 4 Y s 991 1055 m 229 Y s 997 1055 m -6 X s
 994 1065 m -3 X s 994 1075 m -3 X s 994 1085 m -3 X s 997 1095 m -6 X s 994 1105 m -3 X s 994 1115 m -3 X s 994 1125 m -3 X s 997 1136 m -6 X s 994 1146 m -3 X s 994 1156 m -3 X s 994 1166 m -3 X s 997 1176 m -6 X s 994 1186 m -3 X s 994 1196 m -3 X
 s 994 1206 m -3 X s 997 1216 m -6 X s 994 1226 m -3 X s 994 1236 m -3 X s 994 1246 m -3 X s 997 1256 m -6 X s 997 1055 m -6 X s 997 1256 m -6 X s 994 1267 m -3 X s 994 1277 m -3 X s
 gsave  408 305 930 1009 C 923.04 1048.39 t 0 r /Helvetica findfont 22.8295 sf 0 0 m (\2550.006) show NC gr 
 gsave  408 305 930 1009 C 923.04 1088.28 t 0 r /Helvetica findfont 22.8295 sf 0 0 m (\2550.004) show NC gr 
 gsave  408 305 930 1009 C 923.04 1128.16 t 0 r /Helvetica findfont 22.8295 sf 0 0 m (\2550.002) show NC gr 
 gsave  408 305 930 1009 C 974.32 1168.04 t 0 r /Helvetica findfont 22.8295 sf 0 0 m (0) show NC gr 
 gsave  408 305 930 1009 C 931.587 1207.93 t 0 r /Helvetica findfont 22.8295 sf 0 0 m (0.002) show NC gr 
 gsave  408 305 930 1009 C 931.587 1250.66 t 0 r /Helvetica findfont 22.8295 sf 0 0 m (0.004) show NC gr  1297 1055 m 229 Y s 1292 1055 m 5 X s 1294 1065 m 3 X s 1294 1075 m 3 X s 1294 1085 m 3 X s 1292 1095 m 5 X s 1294 1105 m 3 X s 1294 1115 m 3 X
 s 1294 1125 m 3 X s 1292 1136 m 5 X s 1294 1146 m 3 X s 1294 1156 m 3 X s 1294 1166 m 3 X s 1292 1176 m 5 X s 1294 1186 m 3 X s 1294 1196 m 3 X s 1294 1206 m 3 X s 1292 1216 m 5 X s 1294 1226 m 3 X s 1294 1236 m 3 X s 1294 1246 m 3 X s 1292 1256 m 5
 X s 1292 1055 m 5 X s 1292 1256 m 5 X s 1294 1267 m 3 X s 1294 1277 m 3 X s 1016 1135 1058 1160 1101 1201 1122 1166 1164 1177 1185 1158 1227 1203 1269 1170 8 { m21} R 1016 1146 m 50 Y s 1011 1196 m 11 X s 1016 1124 m -50 Y s 1011 1074 m 11 X s 1058
 1171 m 50 Y s 1053 1221 m 11 X s 1058 1149 m -50 Y s 1053 1099 m 11 X s 1101 1212 m 51 Y s 1095 1263 m 11 X s 1101 1190 m -51 Y s 1095 1139 m 11 X s 1122 1178 m 50 Y s 1116 1228 m 11 X s 1122 1155 m -50 Y s 1116 1105 m 11 X s 1164 1188 m 50 Y s 1158
 1238 m 12 X s 1164 1165 m -50 Y s 1158 1115 m 12 X s 1185 1169 m 50 Y s 1179 1219 m 12 X s 1185 1146 m -50 Y s 1179 1096 m 12 X s 1227 1215 m 50 Y s 1221 1265 m 12 X s 1227 1192 m -50 Y s 1221 1142 m 12 X s 1269 1182 m 50 Y s 1264 1232 m 11 X s 1269
 1159 m -50 Y s 1264 1109 m 11 X s 9 lw 0.95 0.95 0.95 c black 993 1156 m 3 1 d 3 X 3 1 d 6 X 3 1 d 3 X 3 1 d 6 X 3 1 d 3 X 3 1 d 6 X 4 1 d 3 X 3 1 d 6 X 3 1 d 6 X 3 1 d 3 X 3 1 d 6 X 3 1 d 3 X 3 1 d 7 X 3 1 d 3 X 3 1 d 6 X 3 1 d 3 X 3 1 d 6 X 3 1 d
 3 X 3 1 d 6 X 4 1 d s 1143 1176 m 3 X 3 1 d 6 X 3 1 d 3 X 3 1 d 6 X 3 1 d 3 X 3 1 d 6 X 3 1 d 4 X 3 1 d 6 X 3 1 d 3 X 3 1 d 6 X 3 1 d 3 X 3 1 d 6 X 3 1 d 3 X 3 1 d 7 X 3 1 d 3 X 3 1 d 6 X 3 1 d 6 X 3 1 d 3 X 3 1 d 6 X 3 1 d 4 X s 1293 1195 m 3 1 d s
 0.49 0.6 0.82 c black 0.49 0.6 0.82 c
 gsave  408 305 930 1009 C 1051.24 1293.4 t 0 r /Helvetica-Bold findfont 25.6831 sf 0 0 m (1.0 < E < 1.5 GeV) show NC gr  0.52 0.76 0.64 c black 0.52 0.76 0.64 c
 gsave  408 305 930 1009 C 1037 1256.36 t 0 r /Helvetica-Bold findfont 25.6831 sf 0 0 m 
 220 206 192 185 170 163 148 141 126 118 111 97 83 69 61 47 40 25 18
(A = 0.001, p = 1.000) K NC gr  1 0.6 1 c black 1 0.6 1 c
 gsave  408 305 930 1009 C 1336.13 1122.46 t 90 r /Helvetica-Bold findfont 28.5368 sf 0 0 m (/dof=0.1) show NC gr  black 1 0.6 1 c
 gsave  408 305 930 1009 C 1324.73 1111.07 t 90 r /Helvetica-Bold findfont 19.9758 sf 0 0 m (2) show NC gr  black 1 0.6 1 c
 gsave  408 305 930 1009 C 1336.13 1093.97 t 90 r /Symbol findfont 28.5368 sf 0 0 m (c) show NC gr  black 3 lw 1 1 1 c 408 305 1383 1009 bf black 1 1 1 c black 306 229 1445 1055 bl 306 229 1445 1055 bl 1445 1055 m 306 X s 1491 1059 m -4 Y s 1596 1059
 m -4 Y s 1702 1059 m -4 Y s 1491 1059 m -4 Y s 1702 1059 m -4 Y s
 gsave  408 305 1383 1009 C 1470.03 1034.15 t 0 r /Helvetica findfont 22.8295 sf 0 0 m (\2550.5) show NC gr 
 gsave  408 305 1383 1009 C 1586.83 1034.15 t 0 r /Helvetica findfont 22.8295 sf 0 0 m (0) show NC gr 
 gsave  408 305 1383 1009 C 1683.69 1034.15 t 0 r /Helvetica findfont 22.8295 sf 0 0 m (0.5) show NC gr  1445 1284 m 306 X s 1491 1280 m 4 Y s 1596 1280 m 4 Y s 1702 1280 m 4 Y s 1491 1280 m 4 Y s 1702 1280 m 4 Y s 1445 1055 m 229 Y s 1450 1083 m -5
 X s 1447 1091 m -2 X s 1447 1100 m -2 X s 1447 1109 m -2 X s 1450 1117 m -5 X s 1447 1126 m -2 X s 1447 1135 m -2 X s 1447 1143 m -2 X s 1450 1152 m -5 X s 1447 1161 m -2 X s 1447 1169 m -2 X s 1447 1178 m -2 X s 1450 1187 m -5 X s 1447 1196 m -2 X
 s 1447 1204 m -2 X s 1447 1213 m -2 X s 1450 1222 m -5 X s 1447 1230 m -2 X s 1447 1239 m -2 X s 1447 1248 m -2 X s 1450 1256 m -5 X s 1450 1083 m -5 X s 1447 1074 m -2 X s 1447 1065 m -2 X s 1447 1056 m -2 X s 1450 1256 m -5 X s 1447 1265 m -2 X s
 1447 1274 m -2 X s 1447 1282 m -2 X s
 gsave  408 305 1383 1009 C 1376.01 1074.03 t 0 r /Helvetica findfont 22.8295 sf 0 0 m (\2550.006) show NC gr 
 gsave  408 305 1383 1009 C 1376.01 1111.07 t 0 r /Helvetica findfont 22.8295 sf 0 0 m (\2550.004) show NC gr 
 gsave  408 305 1383 1009 C 1376.01 1145.25 t 0 r /Helvetica findfont 22.8295 sf 0 0 m (\2550.002) show NC gr 
 gsave  408 305 1383 1009 C 1427.29 1179.44 t 0 r /Helvetica findfont 22.8295 sf 0 0 m (0) show NC gr 
 gsave  408 305 1383 1009 C 1384.56 1213.63 t 0 r /Helvetica findfont 22.8295 sf 0 0 m (0.002) show NC gr 
 gsave  408 305 1383 1009 C 1384.56 1250.66 t 0 r /Helvetica findfont 22.8295 sf 0 0 m (0.004) show NC gr  1751 1055 m 229 Y s 1745 1083 m 6 X s 1748 1091 m 3 X s 1748 1100 m 3 X s 1748 1109 m 3 X s 1745 1117 m 6 X s 1748 1126 m 3 X s 1748 1135 m 3 X
 s 1748 1143 m 3 X s 1745 1152 m 6 X s 1748 1161 m 3 X s 1748 1169 m 3 X s 1748 1178 m 3 X s 1745 1187 m 6 X s 1748 1196 m 3 X s 1748 1204 m 3 X s 1748 1213 m 3 X s 1745 1222 m 6 X s 1748 1230 m 3 X s 1748 1239 m 3 X s 1748 1248 m 3 X s 1745 1256 m 6
 X s 1745 1083 m 6 X s 1748 1074 m 3 X s 1748 1065 m 3 X s 1748 1056 m 3 X s 1745 1256 m 6 X s 1748 1265 m 3 X s 1748 1274 m 3 X s 1748 1282 m 3 X s 1470 1145 1512 1167 1554 1195 1575 1187 1617 1128 1639 1196 1681 1177 1723 1211 8 { m21} R 1470 1156
 m 42 Y s 1464 1198 m 12 X s 1470 1133 m -42 Y s 1464 1091 m 12 X s 1512 1179 m 42 Y s 1506 1221 m 12 X s 1512 1156 m -43 Y s 1506 1113 m 12 X s 1554 1206 m 43 Y s 1548 1249 m 12 X s 1554 1184 m -43 Y s 1548 1141 m 12 X s 1575 1198 m 43 Y s 1570 1241
 m 11 X s 1575 1175 m -42 Y s 1570 1133 m 11 X s 1617 1139 m 43 Y s 1612 1182 m 11 X s 1617 1116 m -42 Y s 1612 1074 m 11 X s 1639 1208 m 42 Y s 1633 1250 m 11 X s 1639 1185 m -43 Y s 1633 1142 m 11 X s 1681 1189 m 42 Y s 1675 1231 m 11 X s 1681 1166
 m -43 Y s 1675 1123 m 11 X s 1723 1222 m 43 Y s 1717 1265 m 12 X s 1723 1199 m -42 Y s 1717 1157 m 12 X s 9 lw 0.95 0.95 0.95 c black 1446 1163 m 3 X 3 1 d 3 X 3 1 d 3 X 3 1 d 3 X 4 1 d 3 X 3 1 d 3 X 3 1 d 3 X 3 1 d 3 X 3 1 d 3 X 3 1 d 3 X 3 1 d 3 X
 3 1 d 3 X 4 1 d 3 X 3 1 d 3 X 3 1 d 3 X 3 1 d 3 X 3 1 d 3 X 3 1 d 6 X 3 1 d 3 X 3 1 d 4 X 3 1 d 3 X 3 1 d 3 X 3 1 d 3 X 3 1 d 3 X 3 1 d s 1596 1187 m 3 X 3 1 d 3 X 3 1 d 3 X 3 1 d 4 X 3 1 d 3 X 3 1 d 3 X 3 1 d 3 X 3 1 d 3 X 3 1 d 3 X 3 1 d 3 X 3 1 d
 3 X 3 1 d 7 X 3 1 d 3 X 3 1 d 3 X 3 1 d 3 X 3 1 d 3 X 3 1 d 3 X 3 1 d 3 X 3 1 d 3 X 3 1 d 4 X 3 1 d 3 X 3 1 d 3 X 3 1 d 3 X 3 1 d 3 X 3 1 d s 1746 1211 m 3 X s 0.49 0.6 0.82 c black 0.49 0.6 0.82 c
 gsave  408 305 1383 1009 C 1504.21 1293.4 t 0 r /Helvetica-Bold findfont 25.6831 sf 0 0 m (1.5 < E < 2.0 GeV) show NC gr  0.52 0.76 0.64 c black 0.52 0.76 0.64 c
 gsave  408 305 1383 1009 C 1489.97 1256.36 t 0 r /Helvetica-Bold findfont 25.6831 sf 0 0 m 
 220 206 192 185 170 163 148 141 125 118 111 97 83 68 61 47 40 25 18
(A = 0.002, p = 1.000) K NC gr  1 0.6 1 c black 1 0.6 1 c
 gsave  408 305 1383 1009 C 1789.1 1122.46 t 90 r /Helvetica-Bold findfont 28.5368 sf 0 0 m (/dof=0.3) show NC gr  black 1 0.6 1 c
 gsave  408 305 1383 1009 C 1777.71 1111.07 t 90 r /Helvetica-Bold findfont 19.9758 sf 0 0 m (2) show NC gr  black 1 0.6 1 c
 gsave  408 305 1383 1009 C 1789.1 1093.97 t 90 r /Symbol findfont 28.5368 sf 0 0 m (c) show NC gr  black 3 lw 1 1 1 c 408 305 1837 1009 bf black 1 1 1 c black 306 229 1898 1055 bl 306 229 1898 1055 bl 1898 1055 m 306 X s 1944 1059 m -4 Y s 2050 1059
 m -4 Y s 2155 1059 m -4 Y s 1944 1059 m -4 Y s 2155 1059 m -4 Y s
 gsave  408 305 1837 1009 C 1923 1034.15 t 0 r /Helvetica findfont 22.8295 sf 0 0 m (\2550.5) show NC gr 
 gsave  408 305 1837 1009 C 2039.81 1034.15 t 0 r /Helvetica findfont 22.8295 sf 0 0 m (0) show NC gr 
 gsave  408 305 1837 1009 C 2136.67 1034.15 t 0 r /Helvetica findfont 22.8295 sf 0 0 m (0.5) show NC gr  1898 1284 m 306 X s 1944 1280 m 4 Y s 2050 1280 m 4 Y s 2155 1280 m 4 Y s 1944 1280 m 4 Y s 2155 1280 m 4 Y s 1898 1055 m 229 Y s 1904 1074 m -6
 X s 1901 1081 m -3 X s 1901 1088 m -3 X s 1901 1095 m -3 X s 1904 1102 m -6 X s 1901 1109 m -3 X s 1901 1116 m -3 X s 1901 1123 m -3 X s 1904 1130 m -6 X s 1901 1137 m -3 X s 1901 1145 m -3 X s 1901 1152 m -3 X s 1904 1159 m -6 X s 1901 1166 m -3 X
 s 1901 1173 m -3 X s 1901 1180 m -3 X s 1904 1187 m -6 X s 1901 1194 m -3 X s 1901 1201 m -3 X s 1901 1208 m -3 X s 1904 1215 m -6 X s 1901 1223 m -3 X s 1901 1230 m -3 X s 1901 1237 m -3 X s 1904 1244 m -6 X s 1901 1251 m -3 X s 1901 1258 m -3 X s
 1901 1265 m -3 X s 1904 1272 m -6 X s 1904 1074 m -6 X s 1901 1067 m -3 X s 1901 1059 m -3 X s 1904 1272 m -6 X s 1901 1279 m -3 X s
 gsave  408 305 1837 1009 C 1828.99 1065.48 t 0 r /Helvetica findfont 22.8295 sf 0 0 m (\2550.006) show NC gr 
 gsave  408 305 1837 1009 C 1828.99 1093.97 t 0 r /Helvetica findfont 22.8295 sf 0 0 m (\2550.004) show NC gr 
 gsave  408 305 1837 1009 C 1828.99 1122.46 t 0 r /Helvetica findfont 22.8295 sf 0 0 m (\2550.002) show NC gr 
 gsave  408 305 1837 1009 C 1880.27 1150.95 t 0 r /Helvetica findfont 22.8295 sf 0 0 m (0) show NC gr 
 gsave  408 305 1837 1009 C 1837.53 1179.44 t 0 r /Helvetica findfont 22.8295 sf 0 0 m (0.002) show NC gr 
 gsave  408 305 1837 1009 C 1837.53 1207.93 t 0 r /Helvetica findfont 22.8295 sf 0 0 m (0.004) show NC gr 
 gsave  408 305 1837 1009 C 1837.53 1236.42 t 0 r /Helvetica findfont 22.8295 sf 0 0 m (0.006) show NC gr 
 gsave  408 305 1837 1009 C 1837.53 1264.91 t 0 r /Helvetica findfont 22.8295 sf 0 0 m (0.008) show NC gr  2204 1055 m 229 Y s 2199 1074 m 5 X s 2201 1081 m 3 X s 2201 1088 m 3 X s 2201 1095 m 3 X s 2199 1102 m 5 X s 2201 1109 m 3 X s 2201 1116 m 3 X
 s 2201 1123 m 3 X s 2199 1130 m 5 X s 2201 1137 m 3 X s 2201 1145 m 3 X s 2201 1152 m 3 X s 2199 1159 m 5 X s 2201 1166 m 3 X s 2201 1173 m 3 X s 2201 1180 m 3 X s 2199 1187 m 5 X s 2201 1194 m 3 X s 2201 1201 m 3 X s 2201 1208 m 3 X s 2199 1215 m 5
 X s 2201 1223 m 3 X s 2201 1230 m 3 X s 2201 1237 m 3 X s 2199 1244 m 5 X s 2201 1251 m 3 X s 2201 1258 m 3 X s 2201 1265 m 3 X s 2199 1272 m 5 X s 2199 1074 m 5 X s 2201 1067 m 3 X s 2201 1059 m 3 X s 2199 1272 m 5 X s 2201 1279 m 3 X s 1923 1218
 1966 1144 2008 1196 2029 1161 2071 1184 2092 1157 2134 1120 2176 1156 8 { m21} R 1923 1229 m 36 Y s 1918 1265 m 11 X s 1923 1207 m -36 Y s 1918 1171 m 11 X s 1966 1155 m 35 Y s 1960 1190 m 11 X s 1966 1132 m -35 Y s 1960 1097 m 11 X s 2008 1207 m 35
 Y s 2002 1242 m 11 X s 2008 1184 m -35 Y s 2002 1149 m 11 X s 2029 1173 m 34 Y s 2023 1207 m 11 X s 2029 1150 m -35 Y s 2023 1115 m 11 X s 2071 1196 m 35 Y s 2065 1231 m 12 X s 2071 1173 m -35 Y s 2065 1138 m 12 X s 2092 1169 m 35 Y s 2086 1204 m 12
 X s 2092 1146 m -35 Y s 2086 1111 m 12 X s 2134 1131 m 35 Y s 2129 1166 m 11 X s 2134 1109 m -35 Y s 2129 1074 m 11 X s 2176 1168 m 34 Y s 2171 1202 m 11 X s 2176 1145 m -35 Y s 2171 1110 m 11 X s 9 lw 0.95 0.95 0.95 c black 1900 1191 m 3 -1 d 3 X 3
 -1 d 3 -1 d 3 X 3 -1 d 3 -1 d 3 X 3 -1 d 3 -1 d 3 X 3 -1 d 3 -1 d 3 X 4 -1 d 3 X 3 -1 d 3 -1 d 3 X 3 -1 d 3 -1 d 3 X 3 -1 d 3 -1 d 3 X 3 -1 d 3 -1 d 3 X 3 -1 d 3 -1 d 4 X 3 -1 d 3 -1 d 3 X 3 -1 d 3 -1 d 3 X 3 -1 d 3 -1 d 3 X 3 -1 d 3 -1 d 3 X 3 -1 d
 3 -1 d 3 X 3 -1 d 4 -1 d 3 X s 2050 1159 m 3 -1 d 3 -1 d 3 X 3 -1 d 3 X 3 -1 d 3 -1 d 3 X 3 -1 d 3 -1 d 3 X 3 -1 d 3 -1 d 3 X 4 -1 d 3 -1 d 3 X 3 -1 d 3 -1 d 3 X 3 -1 d 3 -1 d 3 X 3 -1 d 3 -1 d 3 X 3 -1 d 3 -1 d 3 X 3 -1 d 4 -1 d 3 X 3 -1 d 3 -1 d 3
 X 3 -1 d 3 -1 d 3 X 3 -1 d 3 -1 d 3 X 3 -1 d 3 X 3 -1 d 3 -1 d 3 X 4 -1 d 3 -1 d 3 X s 2200 1127 m 3 -1 d s 0.49 0.6 0.82 c black 0.49 0.6 0.82 c
 gsave  408 305 1837 1009 C 1957.19 1293.4 t 0 r /Helvetica-Bold findfont 25.6831 sf 0 0 m (2.0 < E < 2.5 GeV) show NC gr  0.52 0.76 0.64 c black 0.52 0.76 0.64 c
 gsave  408 305 1837 1009 C 1937.25 1256.36 t 0 r /Helvetica-Bold findfont 25.6831 sf 0 0 m 
 228 214 200 193 178 171 156 149 134 126 119 105 91 77 69 55 47 39 25 17
(A = \2550.003, p = 1.000) K NC gr  1 0.6 1 c black 1 0.6 1 c
 gsave  408 305 1837 1009 C 2242.08 1122.46 t 90 r /Helvetica-Bold findfont 28.5368 sf 0 0 m (/dof=0.3) show NC gr  black 1 0.6 1 c
 gsave  408 305 1837 1009 C 2230.68 1111.07 t 90 r /Helvetica-Bold findfont 19.9758 sf 0 0 m (2) show NC gr  black 1 0.6 1 c
 gsave  408 305 1837 1009 C 2242.08 1093.97 t 90 r /Symbol findfont 28.5368 sf 0 0 m (c) show NC gr  black 3 lw 1 1 1 c 408 305 23 677 bf black 1 1 1 c black 306 229 84 723 bl 306 229 84 723 bl 84 723 m 306 X s 130 727 m -4 Y s 236 727 m -4 Y s 341
 727 m -4 Y s 130 727 m -4 Y s 341 727 m -4 Y s
 gsave  408 305 23 677 C 108.258 703.676 t 0 r /Helvetica findfont 22.8295 sf 0 0 m (\2550.5) show NC gr 
 gsave  408 305 23 677 C 225.062 703.676 t 0 r /Helvetica findfont 22.8295 sf 0 0 m (0) show NC gr 
 gsave  408 305 23 677 C 321.925 703.676 t 0 r /Helvetica findfont 22.8295 sf 0 0 m (0.5) show NC gr  84 952 m 306 X s 130 948 m 4 Y s 236 948 m 4 Y s 341 948 m 4 Y s 130 948 m 4 Y s 341 948 m 4 Y s 84 723 m 229 Y s 89 750 m -5 X s 87 758 m -3 X s 87
 765 m -3 X s 87 773 m -3 X s 89 781 m -5 X s 87 788 m -3 X s 87 796 m -3 X s 87 804 m -3 X s 89 811 m -5 X s 87 819 m -3 X s 87 827 m -3 X s 87 834 m -3 X s 89 842 m -5 X s 87 849 m -3 X s 87 857 m -3 X s 87 865 m -3 X s 89 872 m -5 X s 87 880 m -3
 X s 87 888 m -3 X s 87 895 m -3 X s 89 903 m -5 X s 87 910 m -3 X s 87 918 m -3 X s 87 926 m -3 X s 89 933 m -5 X s 89 750 m -5 X s 87 743 m -3 X s 87 735 m -3 X s 87 727 m -3 X s 89 933 m -5 X s 87 941 m -3 X s 87 949 m -3 X s
 gsave  408 305 23 677 C 14.2445 743.56 t 0 r /Helvetica findfont 22.8295 sf 0 0 m (\2550.006) show NC gr 
 gsave  408 305 23 677 C 14.2445 774.898 t 0 r /Helvetica findfont 22.8295 sf 0 0 m (\2550.004) show NC gr 
 gsave  408 305 23 677 C 14.2445 803.387 t 0 r /Helvetica findfont 22.8295 sf 0 0 m (\2550.002) show NC gr 
 gsave  408 305 23 677 C 65.5245 834.725 t 0 r /Helvetica findfont 22.8295 sf 0 0 m (0) show NC gr 
 gsave  408 305 23 677 C 22.7911 866.063 t 0 r /Helvetica findfont 22.8295 sf 0 0 m (0.002) show NC gr 
 gsave  408 305 23 677 C 22.7911 894.552 t 0 r /Helvetica findfont 22.8295 sf 0 0 m (0.004) show NC gr 
 gsave  408 305 23 677 C 22.7911 925.889 t 0 r /Helvetica findfont 22.8295 sf 0 0 m (0.006) show NC gr  390 723 m 229 Y s 385 750 m 5 X s 387 758 m 3 X s 387 765 m 3 X s 387 773 m 3 X s 385 781 m 5 X s 387 788 m 3 X s 387 796 m 3 X s 387 804 m 3 X s
 385 811 m 5 X s 387 819 m 3 X s 387 827 m 3 X s 387 834 m 3 X s 385 842 m 5 X s 387 849 m 3 X s 387 857 m 3 X s 387 865 m 3 X s 385 872 m 5 X s 387 880 m 3 X s 387 888 m 3 X s 387 895 m 3 X s 385 903 m 5 X s 387 910 m 3 X s 387 918 m 3 X s 387 926 m
 3 X s 385 933 m 5 X s 385 750 m 5 X s 387 743 m 3 X s 387 735 m 3 X s 387 727 m 3 X s 385 933 m 5 X s 387 941 m 3 X s 387 949 m 3 X s /w 22 def /w2 {w 2 div} def /w3 {w 3 div} def 109 796 151 879 194 865 215 807 257 815 278 838 320 837 362 820 8 {
 m21} R 109 807 m 43 Y s 104 850 m 11 X s 109 785 m -43 Y s 104 742 m 11 X s 151 890 m 43 Y s 146 933 m 11 X s 151 867 m -43 Y s 146 824 m 11 X s 194 876 m 44 Y s 188 920 m 11 X s 194 854 m -44 Y s 188 810 m 11 X s 215 819 m 43 Y s 209 862 m 11 X s
 215 796 m -43 Y s 209 753 m 11 X s 257 826 m 43 Y s 251 869 m 11 X s 257 804 m -43 Y s 251 761 m 11 X s 278 850 m 42 Y s 272 892 m 12 X s 278 827 m -43 Y s 272 784 m 12 X s 320 849 m 42 Y s 314 891 m 12 X s 320 826 m -43 Y s 314 783 m 12 X s 362 832
 m 42 Y s 357 874 m 11 X s 362 809 m -43 Y s 357 766 m 11 X s 1 0 0 c 9 lw 0.95 0.95 0.95 c black 1 0 0 c 85 811 m 3 1 d 4 2 d 3 1 d 3 1 d 3 1 d 3 1 d 3 1 d 3 1 d 3 1 d 3 1 d 3 1 d 3 1 d 3 1 d 3 1 d 3 1 d 3 1 d 3 1 d 4 X 3 1 d 3 1 d 3 1 d 3 X 3 1 d 3
 1 d 3 X 3 1 d 3 1 d 3 X 3 1 d 3 X 3 1 d 6 X 4 1 d 3 X 3 1 d 9 X 3 1 d 12 X 3 1 d 12 X s 235 842 m 13 X 3 -1 d 15 X 3 -1 d 6 X 3 -1 d 6 X 3 -1 d 4 X 3 -1 d 3 X 3 -1 d 3 X 3 -1 d 3 -1 d 3 X 3 -1 d 3 X 3 -1 d 3 -1 d 3 -1 d 3 X 3 -1 d 3 -1 d 4 -1 d 3 -1
 d 3 -1 d 3 -1 d 3 -1 d 3 X 3 -1 d 3 -2 d 3 -1 d 3 -1 d 3 -1 d 3 -1 d 3 -1 d 3 -1 d 3 -1 d 3 -2 d s 385 811 m 4 -1 d s 0.49 0.6 0.82 c black 0.49 0.6 0.82 c
 gsave  408 305 23 677 C 142.445 960.076 t 0 r /Helvetica-Bold findfont 25.6831 sf 0 0 m (2.5 < E < 3.0 GeV) show NC gr  0.52 0.76 0.64 c black 0.52 0.76 0.64 c
 gsave  408 305 23 677 C 122.502 923.04 t 0 r /Helvetica-Bold findfont 25.6831 sf 0 0 m 
 228 214 200 193 178 171 156 149 134 126 119 105 91 77 69 55 47 40 25 17
(A = \2550.004, p = 2.000) K NC gr  1 0.6 1 c black 1 0.6 1 c
 gsave  408 305 23 677 C 427.334 791.991 t 90 r /Helvetica-Bold findfont 28.5368 sf 0 0 m (/dof=0.3) show NC gr  black 1 0.6 1 c
 gsave  408 305 23 677 C 415.938 780.596 t 90 r /Helvetica-Bold findfont 19.9758 sf 0 0 m (2) show NC gr  black 1 0.6 1 c
 gsave  408 305 23 677 C 427.334 763.503 t 90 r /Symbol findfont 28.5368 sf 0 0 m (c) show NC gr  black 3 lw 1 1 1 c 408 305 476 677 bf black 1 1 1 c black 307 229 537 723 bl 307 229 537 723 bl 537 723 m 307 X s 584 727 m -4 Y s 689 727 m -4 Y s 795
 727 m -4 Y s 584 727 m -4 Y s 795 727 m -4 Y s
 gsave  408 305 476 677 C 561.231 703.676 t 0 r /Helvetica findfont 22.8295 sf 0 0 m (\2550.5) show NC gr 
 gsave  408 305 476 677 C 678.036 703.676 t 0 r /Helvetica findfont 22.8295 sf 0 0 m (0) show NC gr 
 gsave  408 305 476 677 C 774.898 703.676 t 0 r /Helvetica findfont 22.8295 sf 0 0 m (0.5) show NC gr  537 952 m 307 X s 584 948 m 4 Y s 689 948 m 4 Y s 795 948 m 4 Y s 584 948 m 4 Y s 795 948 m 4 Y s 537 723 m 229 Y s 543 740 m -6 X s 540 746 m -3 X
 s 540 752 m -3 X s 540 758 m -3 X s 543 765 m -6 X s 540 771 m -3 X s 540 777 m -3 X s 540 783 m -3 X s 543 789 m -6 X s 540 796 m -3 X s 540 802 m -3 X s 540 808 m -3 X s 543 814 m -6 X s 540 820 m -3 X s 540 827 m -3 X s 540 833 m -3 X s 543 839 m
 -6 X s 540 845 m -3 X s 540 851 m -3 X s 540 858 m -3 X s 543 864 m -6 X s 540 870 m -3 X s 540 876 m -3 X s 540 882 m -3 X s 543 889 m -6 X s 540 895 m -3 X s 540 901 m -3 X s 540 907 m -3 X s 543 913 m -6 X s 540 920 m -3 X s 540 926 m -3 X s 540
 932 m -3 X s 543 938 m -6 X s 543 740 m -6 X s 540 734 m -3 X s 540 727 m -3 X s 543 938 m -6 X s 540 944 m -3 X s 540 951 m -3 X s
 gsave  408 305 476 677 C 467.218 732.165 t 0 r /Helvetica findfont 22.8295 sf 0 0 m (\2550.006) show NC gr 
 gsave  408 305 476 677 C 467.218 757.805 t 0 r /Helvetica findfont 22.8295 sf 0 0 m (\2550.004) show NC gr 
 gsave  408 305 476 677 C 467.218 783.445 t 0 r /Helvetica findfont 22.8295 sf 0 0 m (\2550.002) show NC gr 
 gsave  408 305 476 677 C 518.498 806.236 t 0 r /Helvetica findfont 22.8295 sf 0 0 m (0) show NC gr 
 gsave  408 305 476 677 C 475.765 831.876 t 0 r /Helvetica findfont 22.8295 sf 0 0 m (0.002) show NC gr 
 gsave  408 305 476 677 C 475.765 857.516 t 0 r /Helvetica findfont 22.8295 sf 0 0 m (0.004) show NC gr 
 gsave  408 305 476 677 C 475.765 880.307 t 0 r /Helvetica findfont 22.8295 sf 0 0 m (0.006) show NC gr 
 gsave  408 305 476 677 C 475.765 905.947 t 0 r /Helvetica findfont 22.8295 sf 0 0 m (0.008) show NC gr 
 gsave  408 305 476 677 C 490.009 931.587 t 0 r /Helvetica findfont 22.8295 sf 0 0 m (0.01) show NC gr  844 723 m 229 Y s 838 740 m 6 X s 841 746 m 3 X s 841 752 m 3 X s 841 758 m 3 X s 838 765 m 6 X s 841 771 m 3 X s 841 777 m 3 X s 841 783 m 3 X s
 838 789 m 6 X s 841 796 m 3 X s 841 802 m 3 X s 841 808 m 3 X s 838 814 m 6 X s 841 820 m 3 X s 841 827 m 3 X s 841 833 m 3 X s 838 839 m 6 X s 841 845 m 3 X s 841 851 m 3 X s 841 858 m 3 X s 838 864 m 6 X s 841 870 m 3 X s 841 876 m 3 X s 841 882 m
 3 X s 838 889 m 6 X s 841 895 m 3 X s 841 901 m 3 X s 841 907 m 3 X s 838 913 m 6 X s 841 920 m 3 X s 841 926 m 3 X s 841 932 m 3 X s 838 938 m 6 X s 838 740 m 6 X s 841 734 m 3 X s 841 727 m 3 X s 838 938 m 6 X s 841 944 m 3 X s 841 951 m 3 X s /w
 23 def /w2 {w 2 div} def /w3 {w 3 div} def 563 883 605 843 647 809 668 812 710 853 731 799 774 797 816 791 8 { m21} R 563 895 m 38 Y s 557 933 m 11 X s 563 872 m -38 Y s 557 834 m 11 X s 605 854 m 39 Y s 599 893 m 12 X s 605 832 m -39 Y s 599 793 m
 12 X s 647 820 m 38 Y s 641 858 m 12 X s 647 797 m -38 Y s 641 759 m 12 X s 668 823 m 38 Y s 662 861 m 12 X s 668 800 m -38 Y s 662 762 m 12 X s 710 864 m 39 Y s 705 903 m 11 X s 710 842 m -39 Y s 705 803 m 11 X s 731 810 m 39 Y s 726 849 m 11 X s
 731 787 m -38 Y s 726 749 m 11 X s 774 809 m 38 Y s 768 847 m 11 X s 774 786 m -39 Y s 768 747 m 11 X s 816 803 m 38 Y s 810 841 m 11 X s 816 780 m -38 Y s 810 742 m 11 X s 9 lw 0.95 0.95 0.95 c black 539 859 m 3 -1 d 3 -1 d 3 -1 d 3 -1 d 3 -1 d 3
 -1 d 3 -1 d 3 -1 d 4 X 3 -1 d 3 -1 d 3 -1 d 3 -1 d 3 -1 d 3 -1 d 3 -1 d 3 -1 d 3 -1 d 3 -1 d 3 X 3 -1 d 3 -1 d 3 -1 d 3 -1 d 4 -1 d 3 -1 d 3 -1 d 3 -1 d 3 -1 d 3 -1 d 3 X 3 -1 d 3 -1 d 3 -1 d 3 -1 d 3 -1 d 3 -1 d 3 -1 d 3 -1 d 3 -1 d 3 X 4 -1 d 3 -1
 d 3 -1 d 3 -1 d 3 -1 d 3 -1 d 3 -1 d 3 -1 d s 689 814 m 3 -1 d 3 -1 d 3 X 3 -1 d 3 -1 d 3 -1 d 3 -1 d 3 -1 d 4 -1 d 3 -1 d 3 -1 d 3 -1 d 3 -1 d 3 X 3 -1 d 3 -1 d 3 -1 d 3 -1 d 3 -1 d 3 -1 d 3 -1 d 3 -1 d 3 -1 d 3 -1 d 4 X 3 -1 d 3 -1 d 3 -1 d 3 -1 d
 3 -1 d 3 -1 d 3 -1 d 3 -1 d 3 -1 d 3 X 3 -1 d 3 -1 d 3 -1 d 3 -1 d 3 -1 d 4 -1 d 3 -1 d 3 -1 d 3 -1 d 3 -1 d 3 X 3 -1 d 3 -1 d 3 -1 d s 839 770 m 3 -1 d s 0.49 0.6 0.82 c black 0.49 0.6 0.82 c
 gsave  408 305 476 677 C 595.418 960.076 t 0 r /Helvetica-Bold findfont 25.6831 sf 0 0 m (3.0 < E < 3.5 GeV) show NC gr  0.52 0.76 0.64 c black 0.52 0.76 0.64 c
 gsave  408 305 476 677 C 575.476 923.04 t 0 r /Helvetica-Bold findfont 25.6831 sf 0 0 m 
 228 214 200 193 178 171 156 149 133 126 119 105 91 77 69 55 47 39 25 17
(A = \2550.005, p = 1.000) K NC gr  1 0.6 1 c black 1 0.6 1 c
 gsave  408 305 476 677 C 883.156 791.991 t 90 r /Helvetica-Bold findfont 28.5368 sf 0 0 m (/dof=0.2) show NC gr  black 1 0.6 1 c
 gsave  408 305 476 677 C 871.76 780.596 t 90 r /Helvetica-Bold findfont 19.9758 sf 0 0 m (2) show NC gr  black 1 0.6 1 c
 gsave  408 305 476 677 C 883.156 763.503 t 90 r /Symbol findfont 28.5368 sf 0 0 m (c) show NC gr  black 3 lw 1 1 1 c 408 305 930 677 bf black 1 1 1 c black 306 229 991 723 bl 306 229 991 723 bl 991 723 m 306 X s 1037 727 m -4 Y s 1143 727 m -4 Y s
 1248 727 m -4 Y s 1037 727 m -4 Y s 1248 727 m -4 Y s
 gsave  408 305 930 677 C 1017.05 703.676 t 0 r /Helvetica findfont 22.8295 sf 0 0 m (\2550.5) show NC gr 
 gsave  408 305 930 677 C 1133.86 703.676 t 0 r /Helvetica findfont 22.8295 sf 0 0 m (0) show NC gr 
 gsave  408 305 930 677 C 1230.72 703.676 t 0 r /Helvetica findfont 22.8295 sf 0 0 m (0.5) show NC gr  991 952 m 306 X s 1037 948 m 4 Y s 1143 948 m 4 Y s 1248 948 m 4 Y s 1037 948 m 4 Y s 1248 948 m 4 Y s 991 723 m 229 Y s 997 725 m -6 X s 994 731 m
 -3 X s 994 737 m -3 X s 994 743 m -3 X s 997 748 m -6 X s 994 754 m -3 X s 994 760 m -3 X s 994 766 m -3 X s 997 772 m -6 X s 994 777 m -3 X s 994 783 m -3 X s 994 789 m -3 X s 997 795 m -6 X s 994 800 m -3 X s 994 806 m -3 X s 994 812 m -3 X s 997
 818 m -6 X s 994 823 m -3 X s 994 829 m -3 X s 994 835 m -3 X s 997 841 m -6 X s 994 846 m -3 X s 994 852 m -3 X s 994 858 m -3 X s 997 864 m -6 X s 994 870 m -3 X s 994 875 m -3 X s 994 881 m -3 X s 997 887 m -6 X s 994 893 m -3 X s 994 898 m -3 X
 s 994 904 m -3 X s 997 910 m -6 X s 994 916 m -3 X s 994 921 m -3 X s 994 927 m -3 X s 997 933 m -6 X s 997 725 m -6 X s 997 933 m -6 X s 994 939 m -3 X s 994 944 m -3 X s 994 950 m -3 X s
 gsave  408 305 930 677 C 940.134 717.92 t 0 r /Helvetica findfont 22.8295 sf 0 0 m (\2550.01) show NC gr 
 gsave  408 305 930 677 C 923.04 740.711 t 0 r /Helvetica findfont 22.8295 sf 0 0 m (\2550.008) show NC gr 
 gsave  408 305 930 677 C 923.04 763.503 t 0 r /Helvetica findfont 22.8295 sf 0 0 m (\2550.006) show NC gr 
 gsave  408 305 930 677 C 923.04 786.294 t 0 r /Helvetica findfont 22.8295 sf 0 0 m (\2550.004) show NC gr 
 gsave  408 305 930 677 C 923.04 809.085 t 0 r /Helvetica findfont 22.8295 sf 0 0 m (\2550.002) show NC gr 
 gsave  408 305 930 677 C 974.32 834.725 t 0 r /Helvetica findfont 22.8295 sf 0 0 m (0) show NC gr 
 gsave  408 305 930 677 C 931.587 857.516 t 0 r /Helvetica findfont 22.8295 sf 0 0 m (0.002) show NC gr 
 gsave  408 305 930 677 C 931.587 880.307 t 0 r /Helvetica findfont 22.8295 sf 0 0 m (0.004) show NC gr 
 gsave  408 305 930 677 C 931.587 903.098 t 0 r /Helvetica findfont 22.8295 sf 0 0 m (0.006) show NC gr 
 gsave  408 305 930 677 C 931.587 925.889 t 0 r /Helvetica findfont 22.8295 sf 0 0 m (0.008) show NC gr  1297 723 m 229 Y s 1292 725 m 5 X s 1294 731 m 3 X s 1294 737 m 3 X s 1294 743 m 3 X s 1292 748 m 5 X s 1294 754 m 3 X s 1294 760 m 3 X s 1294
 766 m 3 X s 1292 772 m 5 X s 1294 777 m 3 X s 1294 783 m 3 X s 1294 789 m 3 X s 1292 795 m 5 X s 1294 800 m 3 X s 1294 806 m 3 X s 1294 812 m 3 X s 1292 818 m 5 X s 1294 823 m 3 X s 1294 829 m 3 X s 1294 835 m 3 X s 1292 841 m 5 X s 1294 846 m 3 X s
 1294 852 m 3 X s 1294 858 m 3 X s 1292 864 m 5 X s 1294 870 m 3 X s 1294 875 m 3 X s 1294 881 m 3 X s 1292 887 m 5 X s 1294 893 m 3 X s 1294 898 m 3 X s 1294 904 m 3 X s 1292 910 m 5 X s 1294 916 m 3 X s 1294 921 m 3 X s 1294 927 m 3 X s 1292 933 m
 5 X s 1292 725 m 5 X s 1292 933 m 5 X s 1294 939 m 3 X s 1294 944 m 3 X s 1294 950 m 3 X s 1016 868 1058 876 1101 876 1122 876 1164 830 1185 798 1227 868 1269 836 8 { m21} R 1016 880 m 45 Y s 1011 925 m 11 X s 1016 857 m -45 Y s 1011 812 m 11 X s
 1058 887 m 46 Y s 1053 933 m 11 X s 1058 864 m -45 Y s 1053 819 m 11 X s 1101 887 m 45 Y s 1095 932 m 11 X s 1101 864 m -45 Y s 1095 819 m 11 X s 1122 887 m 45 Y s 1116 932 m 11 X s 1122 864 m -45 Y s 1116 819 m 11 X s 1164 841 m 45 Y s 1158 886 m
 12 X s 1164 818 m -45 Y s 1158 773 m 12 X s 1185 810 m 44 Y s 1179 854 m 12 X s 1185 787 m -45 Y s 1179 742 m 12 X s 1227 879 m 45 Y s 1221 924 m 12 X s 1227 856 m -45 Y s 1221 811 m 12 X s 1269 847 m 45 Y s 1264 892 m 11 X s 1269 824 m -45 Y s 1264
 779 m 11 X s 9 lw 0.95 0.95 0.95 c black 993 867 m 3 X 3 -1 d 3 X 3 -1 d 3 X 3 -1 d 3 X 3 -1 d 3 X 3 -1 d 3 -1 d 3 X 3 -1 d 3 X 3 -1 d 4 X 3 -1 d 3 X 3 -1 d 3 X 3 -1 d 3 -1 d 3 X 3 -1 d 3 X 3 -1 d 3 X 3 -1 d 3 X 3 -1 d 3 X 3 -1 d 4 -1 d 3 X 3 -1 d 3
 X 3 -1 d 3 X 3 -1 d 3 X 3 -1 d 3 X 3 -1 d 3 -1 d 3 X 3 -1 d 3 X 3 -1 d 4 X s 1143 841 m 3 -1 d 3 X 3 -1 d 3 X 3 -1 d 3 -1 d 3 X 3 -1 d 3 X 3 -1 d 3 X 3 -1 d 3 X 3 -1 d 3 X 4 -1 d 3 -1 d 3 X 3 -1 d 3 X 3 -1 d 3 X 3 -1 d 3 X 3 -1 d 3 X 3 -1 d 3 -1 d 3
 X 3 -1 d 3 X 3 -1 d 4 X 3 -1 d 3 X 3 -1 d 3 X 3 -1 d 3 -1 d 3 X 3 -1 d 3 X 3 -1 d 3 X 3 -1 d 3 X 3 -1 d 3 X 4 -1 d s 1293 814 m 3 -1 d s 0.49 0.6 0.82 c black 0.49 0.6 0.82 c
 gsave  408 305 930 677 C 1051.24 960.076 t 0 r /Helvetica-Bold findfont 25.6831 sf 0 0 m (3.5 < E < 4.0 GeV) show NC gr  0.52 0.76 0.64 c black 0.52 0.76 0.64 c
 gsave  408 305 930 677 C 1031.3 923.04 t 0 r /Helvetica-Bold findfont 25.6831 sf 0 0 m 
 228 214 200 193 178 171 156 149 134 126 119 105 91 77 69 55 47 39 25 17
(A = \2550.003, p = 1.000) K NC gr  1 0.6 1 c black 1 0.6 1 c
 gsave  408 305 930 677 C 1336.13 791.991 t 90 r /Helvetica-Bold findfont 28.5368 sf 0 0 m (/dof=0.2) show NC gr  black 1 0.6 1 c
 gsave  408 305 930 677 C 1324.73 780.596 t 90 r /Helvetica-Bold findfont 19.9758 sf 0 0 m (2) show NC gr  black 1 0.6 1 c
 gsave  408 305 930 677 C 1336.13 763.503 t 90 r /Symbol findfont 28.5368 sf 0 0 m (c) show NC gr  black 3 lw 1 1 1 c 408 305 1383 677 bf black 1 1 1 c black 306 229 1445 723 bl 306 229 1445 723 bl 1445 723 m 306 X s 1491 727 m -4 Y s 1596 727 m -4 Y
 s 1702 727 m -4 Y s 1491 727 m -4 Y s 1702 727 m -4 Y s
 gsave  408 305 1383 677 C 1470.03 703.676 t 0 r /Helvetica findfont 22.8295 sf 0 0 m (\2550.5) show NC gr 
 gsave  408 305 1383 677 C 1586.83 703.676 t 0 r /Helvetica findfont 22.8295 sf 0 0 m (0) show NC gr 
 gsave  408 305 1383 677 C 1683.69 703.676 t 0 r /Helvetica findfont 22.8295 sf 0 0 m (0.5) show NC gr  1445 952 m 306 X s 1491 948 m 4 Y s 1596 948 m 4 Y s 1702 948 m 4 Y s 1491 948 m 4 Y s 1702 948 m 4 Y s 1445 723 m 229 Y s 1450 741 m -5 X s 1447
 747 m -2 X s 1447 754 m -2 X s 1447 761 m -2 X s 1447 767 m -2 X s 1450 774 m -5 X s 1447 780 m -2 X s 1447 787 m -2 X s 1447 794 m -2 X s 1447 800 m -2 X s 1450 807 m -5 X s 1447 813 m -2 X s 1447 820 m -2 X s 1447 827 m -2 X s 1447 833 m -2 X s
 1450 840 m -5 X s 1447 846 m -2 X s 1447 853 m -2 X s 1447 860 m -2 X s 1447 866 m -2 X s 1450 873 m -5 X s 1447 879 m -2 X s 1447 886 m -2 X s 1447 893 m -2 X s 1447 899 m -2 X s 1450 906 m -5 X s 1447 912 m -2 X s 1447 919 m -2 X s 1447 926 m -2 X
 s 1447 932 m -2 X s 1450 939 m -5 X s 1450 741 m -5 X s 1447 734 m -2 X s 1447 727 m -2 X s 1450 939 m -5 X s 1447 945 m -2 X s
 gsave  408 305 1383 677 C 1376.01 732.165 t 0 r /Helvetica findfont 22.8295 sf 0 0 m (\2550.015) show NC gr 
 gsave  408 305 1383 677 C 1393.11 766.351 t 0 r /Helvetica findfont 22.8295 sf 0 0 m (\2550.01) show NC gr 
 gsave  408 305 1383 677 C 1376.01 800.538 t 0 r /Helvetica findfont 22.8295 sf 0 0 m (\2550.005) show NC gr 
 gsave  408 305 1383 677 C 1427.29 831.876 t 0 r /Helvetica findfont 22.8295 sf 0 0 m (0) show NC gr 
 gsave  408 305 1383 677 C 1384.56 866.063 t 0 r /Helvetica findfont 22.8295 sf 0 0 m (0.005) show NC gr 
 gsave  408 305 1383 677 C 1398.81 897.4 t 0 r /Helvetica findfont 22.8295 sf 0 0 m (0.01) show NC gr 
 gsave  408 305 1383 677 C 1384.56 931.587 t 0 r /Helvetica findfont 22.8295 sf 0 0 m (0.015) show NC gr  1751 723 m 229 Y s 1745 741 m 6 X s 1748 747 m 3 X s 1748 754 m 3 X s 1748 761 m 3 X s 1748 767 m 3 X s 1745 774 m 6 X s 1748 780 m 3 X s 1748
 787 m 3 X s 1748 794 m 3 X s 1748 800 m 3 X s 1745 807 m 6 X s 1748 813 m 3 X s 1748 820 m 3 X s 1748 827 m 3 X s 1748 833 m 3 X s 1745 840 m 6 X s 1748 846 m 3 X s 1748 853 m 3 X s 1748 860 m 3 X s 1748 866 m 3 X s 1745 873 m 6 X s 1748 879 m 3 X s
 1748 886 m 3 X s 1748 893 m 3 X s 1748 899 m 3 X s 1745 906 m 6 X s 1748 912 m 3 X s 1748 919 m 3 X s 1748 926 m 3 X s 1748 932 m 3 X s 1745 939 m 6 X s 1745 741 m 6 X s 1748 734 m 3 X s 1748 727 m 3 X s 1745 939 m 6 X s 1748 945 m 3 X s 1470 808
 1512 784 1554 791 1575 851 1617 843 1639 890 1681 815 1723 847 8 { m21} R 1470 819 m 32 Y s 1464 851 m 12 X s 1470 797 m -32 Y s 1464 765 m 12 X s 1512 796 m 31 Y s 1506 827 m 12 X s 1512 773 m -31 Y s 1506 742 m 12 X s 1554 803 m 31 Y s 1548 834 m
 12 X s 1554 780 m -31 Y s 1548 749 m 12 X s 1575 862 m 32 Y s 1570 894 m 11 X s 1575 840 m -32 Y s 1570 808 m 11 X s 1617 855 m 31 Y s 1612 886 m 11 X s 1617 832 m -31 Y s 1612 801 m 11 X s 1639 901 m 32 Y s 1633 933 m 11 X s 1639 878 m -31 Y s 1633
 847 m 11 X s 1681 827 m 31 Y s 1675 858 m 11 X s 1681 804 m -31 Y s 1675 773 m 11 X s 1723 858 m 31 Y s 1717 889 m 12 X s 1723 835 m -31 Y s 1717 804 m 12 X s 9 lw 0.95 0.95 0.95 c black 1446 806 m 3 X 3 1 d 3 1 d 3 X 3 1 d 3 1 d 3 X 4 1 d 3 1 d 3 1
 d 3 X 3 1 d 3 1 d 3 X 3 1 d 3 1 d 3 X 3 1 d 3 1 d 3 X 3 1 d 3 1 d 3 1 d 4 X 3 1 d 3 1 d 3 X 3 1 d 3 1 d 3 X 3 1 d 3 1 d 3 1 d 3 X 3 1 d 3 1 d 3 X 3 1 d 3 1 d 4 X 3 1 d 3 1 d 3 X 3 1 d 3 1 d 3 1 d 3 X 3 1 d 3 1 d s 1596 840 m 3 X 3 1 d 3 1 d 3 X 3 1
 d 3 1 d 4 1 d 3 X 3 1 d 3 1 d 3 X 3 1 d 3 1 d 3 X 3 1 d 3 1 d 3 X 3 1 d 3 1 d 3 1 d 3 X 3 1 d 3 1 d 4 X 3 1 d 3 1 d 3 X 3 1 d 3 1 d 3 1 d 3 X 3 1 d 3 1 d 3 X 3 1 d 3 1 d 3 X 3 1 d 3 1 d 4 1 d 3 X 3 1 d 3 1 d 3 X 3 1 d 3 1 d 3 X 3 1 d 3 1 d s 1746
 874 m 3 X s 0.49 0.6 0.82 c black 0.49 0.6 0.82 c
 gsave  408 305 1383 677 C 1504.21 960.076 t 0 r /Helvetica-Bold findfont 25.6831 sf 0 0 m (4.0 < E < 4.5 GeV) show NC gr  0.52 0.76 0.64 c black 0.52 0.76 0.64 c
 gsave  408 305 1383 677 C 1489.97 923.04 t 0 r /Helvetica-Bold findfont 25.6831 sf 0 0 m 
 220 206 192 185 170 163 148 141 125 118 111 97 83 68 61 47 40 25 18
(A = 0.007, p = 1.000) K NC gr  1 0.6 1 c black 1 0.6 1 c
 gsave  408 305 1383 677 C 1789.1 791.991 t 90 r /Helvetica-Bold findfont 28.5368 sf 0 0 m (/dof=0.6) show NC gr  black 1 0.6 1 c
 gsave  408 305 1383 677 C 1777.71 780.596 t 90 r /Helvetica-Bold findfont 19.9758 sf 0 0 m (2) show NC gr  black 1 0.6 1 c
 gsave  408 305 1383 677 C 1789.1 763.503 t 90 r /Symbol findfont 28.5368 sf 0 0 m (c) show NC gr  black 3 lw 1 1 1 c 408 305 1837 677 bf black 1 1 1 c black 306 229 1898 723 bl 306 229 1898 723 bl 1898 723 m 306 X s 1944 727 m -4 Y s 2050 727 m -4 Y
 s 2155 727 m -4 Y s 1944 727 m -4 Y s 2155 727 m -4 Y s
 gsave  408 305 1837 677 C 1923 703.676 t 0 r /Helvetica findfont 22.8295 sf 0 0 m (\2550.5) show NC gr 
 gsave  408 305 1837 677 C 2039.81 703.676 t 0 r /Helvetica findfont 22.8295 sf 0 0 m (0) show NC gr 
 gsave  408 305 1837 677 C 2136.67 703.676 t 0 r /Helvetica findfont 22.8295 sf 0 0 m (0.5) show NC gr  1898 952 m 306 X s 1944 948 m 4 Y s 2050 948 m 4 Y s 2155 948 m 4 Y s 1944 948 m 4 Y s 2155 948 m 4 Y s 1898 723 m 229 Y s 1904 745 m -6 X s 1901
 753 m -3 X s 1901 762 m -3 X s 1901 771 m -3 X s 1901 780 m -3 X s 1904 789 m -6 X s 1901 798 m -3 X s 1901 807 m -3 X s 1901 816 m -3 X s 1901 825 m -3 X s 1904 833 m -6 X s 1901 842 m -3 X s 1901 851 m -3 X s 1901 860 m -3 X s 1901 869 m -3 X s
 1904 878 m -6 X s 1901 887 m -3 X s 1901 896 m -3 X s 1901 904 m -3 X s 1901 913 m -3 X s 1904 922 m -6 X s 1904 745 m -6 X s 1901 736 m -3 X s 1901 727 m -3 X s 1904 922 m -6 X s 1901 931 m -3 X s 1901 940 m -3 X s 1901 949 m -3 X s
 gsave  408 305 1837 677 C 1846.08 737.863 t 0 r /Helvetica findfont 22.8295 sf 0 0 m (\2550.01) show NC gr 
 gsave  408 305 1837 677 C 1880.27 780.596 t 0 r /Helvetica findfont 22.8295 sf 0 0 m (0) show NC gr 
 gsave  408 305 1837 677 C 1851.78 826.178 t 0 r /Helvetica findfont 22.8295 sf 0 0 m (0.01) show NC gr 
 gsave  408 305 1837 677 C 1848.93 871.76 t 0 r /Helvetica findfont 22.8295 sf 0 0 m (0.02) show NC gr 
 gsave  408 305 1837 677 C 1848.93 914.494 t 0 r /Helvetica findfont 22.8295 sf 0 0 m (0.03) show NC gr  2204 723 m 229 Y s 2199 745 m 5 X s 2201 753 m 3 X s 2201 762 m 3 X s 2201 771 m 3 X s 2201 780 m 3 X s 2199 789 m 5 X s 2201 798 m 3 X s 2201
 807 m 3 X s 2201 816 m 3 X s 2201 825 m 3 X s 2199 833 m 5 X s 2201 842 m 3 X s 2201 851 m 3 X s 2201 860 m 3 X s 2201 869 m 3 X s 2199 878 m 5 X s 2201 887 m 3 X s 2201 896 m 3 X s 2201 904 m 3 X s 2201 913 m 3 X s 2199 922 m 5 X s 2199 745 m 5 X s
 2201 736 m 3 X s 2201 727 m 3 X s 2199 922 m 5 X s 2201 931 m 3 X s 2201 940 m 3 X s 2201 949 m 3 X s 1923 802 1966 781 2008 795 2029 794 2071 858 2092 819 2134 794 2176 893 8 { m21} R 1923 814 m 28 Y s 1918 842 m 11 X s 1923 791 m -28 Y s 1918 763
 m 11 X s 1966 792 m 28 Y s 1960 820 m 11 X s 1966 769 m -27 Y s 1960 742 m 11 X s 2008 806 m 28 Y s 2002 834 m 11 X s 2008 783 m -27 Y s 2002 756 m 11 X s 2029 806 m 27 Y s 2023 833 m 11 X s 2029 783 m -28 Y s 2023 755 m 11 X s 2071 869 m 28 Y s
 2065 897 m 12 X s 2071 846 m -28 Y s 2065 818 m 12 X s 2092 831 m 28 Y s 2086 859 m 12 X s 2092 808 m -28 Y s 2086 780 m 12 X s 2134 805 m 27 Y s 2129 832 m 11 X s 2134 782 m -27 Y s 2129 755 m 11 X s 2176 905 m 28 Y s 2171 933 m 11 X s 2176 882 m
 -29 Y s 2171 853 m 11 X s 1 0 0 c 9 lw 0.95 0.95 0.95 c black 1 0 0 c 1900 859 m 3 -3 d 3 -3 d 3 -2 d 3 -3 d 3 -2 d 3 -3 d 3 -3 d 3 -2 d 3 -2 d 3 -3 d 3 -2 d 3 -2 d 3 -2 d 3 -2 d 4 -2 d 3 -2 d 3 -2 d 3 -2 d 3 -2 d 3 -1 d 3 -2 d 3 -2 d 3 -1 d 3 -2 d
 3 -1 d 3 -2 d 3 -1 d 3 -1 d 3 -1 d 3 -1 d 4 -2 d 3 -1 d 3 -1 d 3 X 3 -1 d 3 -1 d 3 -1 d 3 X 3 -1 d 3 -1 d 3 X 3 -1 d 6 X 3 -1 d 13 X s 2050 789 m 12 X 3 1 d 6 X 3 1 d 3 X 3 1 d 3 X 3 1 d 3 1 d 3 1 d 4 X 3 1 d 3 1 d 3 1 d 3 1 d 3 2 d 3 1 d 3 1 d 3 1
 d 3 2 d 3 1 d 3 2 d 3 1 d 3 2 d 3 1 d 3 2 d 4 2 d 3 2 d 3 1 d 3 2 d 3 2 d 3 2 d 3 3 d 3 2 d 3 2 d 3 2 d 3 3 d 3 2 d 3 3 d 3 2 d 3 3 d 3 2 d 4 3 d 3 3 d 3 3 d s 2200 859 m 3 2 d s 0.49 0.6 0.82 c black 0.49 0.6 0.82 c
 gsave  408 305 1837 677 C 1957.19 960.076 t 0 r /Helvetica-Bold findfont 25.6831 sf 0 0 m (4.5 < E < 5.0 GeV) show NC gr  0.52 0.76 0.64 c black 0.52 0.76 0.64 c
 gsave  408 305 1837 677 C 1942.94 923.04 t 0 r /Helvetica-Bold findfont 25.6831 sf 0 0 m 
 220 206 192 185 170 163 148 141 126 118 111 97 83 69 61 47 40 25 18
(A = 0.031, p = 2.000) K NC gr  1 0.6 1 c black 1 0.6 1 c
 gsave  408 305 1837 677 C 2242.08 791.991 t 90 r /Helvetica-Bold findfont 28.5368 sf 0 0 m (/dof=1.0) show NC gr  black 1 0.6 1 c
 gsave  408 305 1837 677 C 2230.68 780.596 t 90 r /Helvetica-Bold findfont 19.9758 sf 0 0 m (2) show NC gr  black 1 0.6 1 c
 gsave  408 305 1837 677 C 2242.08 763.503 t 90 r /Symbol findfont 28.5368 sf 0 0 m (c) show NC gr  black 3 lw 1 1 1 c 408 306 23 345 bf black 1 1 1 c black 306 229 84 391 bl 306 229 84 391 bl 84 391 m 306 X s 130 395 m -4 Y s 236 395 m -4 Y s 341
 395 m -4 Y s 130 395 m -4 Y s 341 395 m -4 Y s
 gsave  408 306 23 345 C 108.258 370.356 t 0 r /Helvetica findfont 22.8295 sf 0 0 m (\2550.5) show NC gr 
 gsave  408 306 23 345 C 225.062 370.356 t 0 r /Helvetica findfont 22.8295 sf 0 0 m (0) show NC gr 
 gsave  408 306 23 345 C 321.925 370.356 t 0 r /Helvetica findfont 22.8295 sf 0 0 m (0.5) show NC gr  84 620 m 306 X s 130 616 m 4 Y s 236 616 m 4 Y s 341 616 m 4 Y s 130 616 m 4 Y s 341 616 m 4 Y s 84 391 m 229 Y s 89 408 m -5 X s 87 413 m -3 X s 87
 418 m -3 X s 87 423 m -3 X s 87 428 m -3 X s 89 433 m -5 X s 87 439 m -3 X s 87 444 m -3 X s 87 449 m -3 X s 87 454 m -3 X s 89 459 m -5 X s 87 464 m -3 X s 87 469 m -3 X s 87 474 m -3 X s 87 479 m -3 X s 89 484 m -5 X s 87 490 m -3 X s 87 495 m -3
 X s 87 500 m -3 X s 87 505 m -3 X s 89 510 m -5 X s 87 515 m -3 X s 87 520 m -3 X s 87 525 m -3 X s 87 530 m -3 X s 89 536 m -5 X s 87 541 m -3 X s 87 546 m -3 X s 87 551 m -3 X s 87 556 m -3 X s 89 561 m -5 X s 87 566 m -3 X s 87 571 m -3 X s 87
 576 m -3 X s 87 582 m -3 X s 89 587 m -5 X s 87 592 m -3 X s 87 597 m -3 X s 87 602 m -3 X s 87 607 m -3 X s 89 612 m -5 X s 89 408 m -5 X s 87 403 m -3 X s 87 398 m -3 X s 87 393 m -3 X s 89 612 m -5 X s 87 617 m -3 X s
 gsave  408 306 23 345 C 28.4889 401.694 t 0 r /Helvetica findfont 22.8295 sf 0 0 m (\2550.02) show NC gr 
 gsave  408 306 23 345 C 14.2445 427.334 t 0 r /Helvetica findfont 22.8295 sf 0 0 m (\2550.015) show NC gr 
 gsave  408 306 23 345 C 31.3378 452.974 t 0 r /Helvetica findfont 22.8295 sf 0 0 m (\2550.01) show NC gr 
 gsave  408 306 23 345 C 14.2445 478.614 t 0 r /Helvetica findfont 22.8295 sf 0 0 m (\2550.005) show NC gr 
 gsave  408 306 23 345 C 65.5245 504.254 t 0 r /Helvetica findfont 22.8295 sf 0 0 m (0) show NC gr 
 gsave  408 306 23 345 C 22.7911 527.045 t 0 r /Helvetica findfont 22.8295 sf 0 0 m (0.005) show NC gr 
 gsave  408 306 23 345 C 37.0356 552.685 t 0 r /Helvetica findfont 22.8295 sf 0 0 m (0.01) show NC gr 
 gsave  408 306 23 345 C 22.7911 578.325 t 0 r /Helvetica findfont 22.8295 sf 0 0 m (0.015) show NC gr 
 gsave  408 306 23 345 C 34.1867 603.965 t 0 r /Helvetica findfont 22.8295 sf 0 0 m (0.02) show NC gr  390 391 m 229 Y s 385 408 m 5 X s 387 413 m 3 X s 387 418 m 3 X s 387 423 m 3 X s 387 428 m 3 X s 385 433 m 5 X s 387 439 m 3 X s 387 444 m 3 X s
 387 449 m 3 X s 387 454 m 3 X s 385 459 m 5 X s 387 464 m 3 X s 387 469 m 3 X s 387 474 m 3 X s 387 479 m 3 X s 385 484 m 5 X s 387 490 m 3 X s 387 495 m 3 X s 387 500 m 3 X s 387 505 m 3 X s 385 510 m 5 X s 387 515 m 3 X s 387 520 m 3 X s 387 525 m
 3 X s 387 530 m 3 X s 385 536 m 5 X s 387 541 m 3 X s 387 546 m 3 X s 387 551 m 3 X s 387 556 m 3 X s 385 561 m 5 X s 387 566 m 3 X s 387 571 m 3 X s 387 576 m 3 X s 387 582 m 3 X s 385 587 m 5 X s 387 592 m 3 X s 387 597 m 3 X s 387 602 m 3 X s 387
 607 m 3 X s 385 612 m 5 X s 385 408 m 5 X s 387 403 m 3 X s 387 398 m 3 X s 387 393 m 3 X s 385 612 m 5 X s 387 617 m 3 X s /w 22 def /w2 {w 2 div} def /w3 {w 3 div} def 109 469 151 515 194 471 215 498 257 468 278 538 320 542 362 538 8 { m21} R 109
 481 m 47 Y s 104 528 m 11 X s 109 458 m -48 Y s 104 410 m 11 X s 151 527 m 47 Y s 146 574 m 11 X s 151 504 m -48 Y s 146 456 m 11 X s 194 482 m 48 Y s 188 530 m 11 X s 194 460 m -48 Y s 188 412 m 11 X s 215 509 m 48 Y s 209 557 m 11 X s 215 486 m
 -47 Y s 209 439 m 11 X s 257 480 m 46 Y s 251 526 m 11 X s 257 457 m -47 Y s 251 410 m 11 X s 278 550 m 47 Y s 272 597 m 12 X s 278 527 m -47 Y s 272 480 m 12 X s 320 554 m 47 Y s 314 601 m 12 X s 320 531 m -48 Y s 314 483 m 12 X s 362 549 m 47 Y s
 357 596 m 11 X s 362 526 m -47 Y s 357 479 m 11 X s 9 lw 0.95 0.95 0.95 c black 85 471 m 3 1 d 4 1 d 3 X 3 1 d 3 1 d 3 1 d 3 1 d 3 X 3 1 d 3 1 d 3 1 d 3 1 d 3 X 3 1 d 3 1 d 3 1 d 3 1 d 4 X 3 1 d 3 1 d 3 1 d 3 X 3 1 d 3 1 d 3 1 d 3 1 d 3 X 3 1 d 3 1
 d 3 1 d 3 1 d 3 X 3 1 d 4 1 d 3 1 d 3 1 d 3 X 3 1 d 3 1 d 3 1 d 3 1 d 3 X 3 1 d 3 1 d 3 1 d 3 1 d 3 X 3 1 d 3 1 d s 235 510 m 4 1 d 3 1 d 3 X 3 1 d 3 1 d 3 1 d 3 1 d 3 X 3 1 d 3 1 d 3 1 d 3 X 3 1 d 3 1 d 3 1 d 3 1 d 3 X 4 1 d 3 1 d 3 1 d 3 1 d 3 X 3
 1 d 3 1 d 3 1 d 3 1 d 3 X 3 1 d 3 1 d 3 1 d 3 1 d 3 X 3 1 d 4 1 d 3 1 d 3 1 d 3 X 3 1 d 3 1 d 3 1 d 3 1 d 3 X 3 1 d 3 1 d 3 1 d 3 1 d 3 X 3 1 d 3 1 d s 385 549 m 4 1 d s 0.49 0.6 0.82 c black 0.49 0.6 0.82 c
 gsave  408 306 23 345 C 142.445 629.605 t 0 r /Helvetica-Bold findfont 25.6831 sf 0 0 m (5.0 < E < 5.5 GeV) show NC gr  0.52 0.76 0.64 c black 0.52 0.76 0.64 c
 gsave  408 306 23 345 C 128.2 592.569 t 0 r /Helvetica-Bold findfont 25.6831 sf 0 0 m 
 218 204 190 183 168 161 146 139 124 116 109 95 82 68 61 47 39 24 17
(A = 0.011, p = 1.000) K NC gr  1 0.6 1 c black 1 0.6 1 c
 gsave  408 306 23 345 C 427.334 458.671 t 90 r /Helvetica-Bold findfont 28.5368 sf 0 0 m (/dof=0.2) show NC gr  black 1 0.6 1 c
 gsave  408 306 23 345 C 415.938 447.276 t 90 r /Helvetica-Bold findfont 19.9758 sf 0 0 m (2) show NC gr  black 1 0.6 1 c
 gsave  408 306 23 345 C 427.334 430.182 t 90 r /Symbol findfont 28.5368 sf 0 0 m (c) show NC gr  black 3 lw 1 1 1 c 408 306 476 345 bf black 1 1 1 c black 307 229 537 391 bl 307 229 537 391 bl 537 391 m 307 X s 584 395 m -4 Y s 689 395 m -4 Y s 795
 395 m -4 Y s 584 395 m -4 Y s 795 395 m -4 Y s
 gsave  408 306 476 345 C 561.231 370.356 t 0 r /Helvetica findfont 22.8295 sf 0 0 m (\2550.5) show NC gr 
 gsave  408 306 476 345 C 678.036 370.356 t 0 r /Helvetica findfont 22.8295 sf 0 0 m (0) show NC gr 
 gsave  408 306 476 345 C 774.898 370.356 t 0 r /Helvetica findfont 22.8295 sf 0 0 m (0.5) show NC gr  537 620 m 307 X s 584 616 m 4 Y s 689 616 m 4 Y s 795 616 m 4 Y s 584 616 m 4 Y s 795 616 m 4 Y s 537 391 m 229 Y s 543 411 m -6 X s 540 417 m -3 X
 s 540 423 m -3 X s 540 429 m -3 X s 540 436 m -3 X s 543 442 m -6 X s 540 448 m -3 X s 540 454 m -3 X s 540 460 m -3 X s 540 467 m -3 X s 543 473 m -6 X s 540 479 m -3 X s 540 485 m -3 X s 540 492 m -3 X s 540 498 m -3 X s 543 504 m -6 X s 540 510 m
 -3 X s 540 516 m -3 X s 540 523 m -3 X s 540 529 m -3 X s 543 535 m -6 X s 540 541 m -3 X s 540 548 m -3 X s 540 554 m -3 X s 540 560 m -3 X s 543 566 m -6 X s 540 572 m -3 X s 540 579 m -3 X s 540 585 m -3 X s 540 591 m -3 X s 543 597 m -6 X s 543
 411 m -6 X s 540 404 m -3 X s 540 398 m -3 X s 540 392 m -3 X s 543 597 m -6 X s 540 604 m -3 X s 540 610 m -3 X s 540 616 m -3 X s
 gsave  408 306 476 345 C 481.462 404.542 t 0 r /Helvetica findfont 22.8295 sf 0 0 m (\2550.03) show NC gr 
 gsave  408 306 476 345 C 481.462 435.88 t 0 r /Helvetica findfont 22.8295 sf 0 0 m (\2550.02) show NC gr 
 gsave  408 306 476 345 C 484.311 464.369 t 0 r /Helvetica findfont 22.8295 sf 0 0 m (\2550.01) show NC gr 
 gsave  408 306 476 345 C 518.498 495.707 t 0 r /Helvetica findfont 22.8295 sf 0 0 m (0) show NC gr 
 gsave  408 306 476 345 C 490.009 527.045 t 0 r /Helvetica findfont 22.8295 sf 0 0 m (0.01) show NC gr 
 gsave  408 306 476 345 C 487.16 558.382 t 0 r /Helvetica findfont 22.8295 sf 0 0 m (0.02) show NC gr 
 gsave  408 306 476 345 C 487.16 589.72 t 0 r /Helvetica findfont 22.8295 sf 0 0 m (0.03) show NC gr  844 391 m 229 Y s 838 411 m 6 X s 841 417 m 3 X s 841 423 m 3 X s 841 429 m 3 X s 841 436 m 3 X s 838 442 m 6 X s 841 448 m 3 X s 841 454 m 3 X s
 841 460 m 3 X s 841 467 m 3 X s 838 473 m 6 X s 841 479 m 3 X s 841 485 m 3 X s 841 492 m 3 X s 841 498 m 3 X s 838 504 m 6 X s 841 510 m 3 X s 841 516 m 3 X s 841 523 m 3 X s 841 529 m 3 X s 838 535 m 6 X s 841 541 m 3 X s 841 548 m 3 X s 841 554 m
 3 X s 841 560 m 3 X s 838 566 m 6 X s 841 572 m 3 X s 841 579 m 3 X s 841 585 m 3 X s 841 591 m 3 X s 838 597 m 6 X s 838 411 m 6 X s 841 404 m 3 X s 841 398 m 3 X s 841 392 m 3 X s 838 597 m 6 X s 841 604 m 3 X s 841 610 m 3 X s 841 616 m 3 X s /w
 23 def /w2 {w 2 div} def /w3 {w 3 div} def 563 478 605 469 647 482 668 490 710 490 731 461 774 454 816 556 8 { m21} R 563 489 m 34 Y s 557 523 m 11 X s 563 466 m -33 Y s 557 433 m 11 X s 605 481 m 33 Y s 599 514 m 12 X s 605 458 m -34 Y s 599 424 m
 12 X s 647 494 m 33 Y s 641 527 m 12 X s 647 471 m -33 Y s 641 438 m 12 X s 668 501 m 33 Y s 662 534 m 12 X s 668 478 m -33 Y s 662 445 m 12 X s 710 501 m 33 Y s 705 534 m 11 X s 710 478 m -33 Y s 705 445 m 11 X s 731 472 m 33 Y s 726 505 m 11 X s
 731 449 m -32 Y s 726 417 m 11 X s 774 465 m 33 Y s 768 498 m 11 X s 774 442 m -32 Y s 768 410 m 11 X s 816 567 m 34 Y s 810 601 m 11 X s 816 545 m -34 Y s 810 511 m 11 X s 9 lw 0.95 0.95 0.95 c black 539 482 m 3 1 d 3 X 3 1 d 6 X 3 1 d 3 X 3 1 d 4
 X 3 1 d 3 X 3 1 d 6 X 3 1 d 3 X 3 1 d 3 X 3 1 d 3 X 3 1 d 6 X 3 1 d 4 X 3 1 d 3 X 3 1 d 3 X 3 1 d 6 X 3 1 d 3 X 3 1 d 3 X 3 1 d 3 X 3 1 d 6 X 4 1 d 3 X 3 1 d 3 X 3 1 d 6 X 3 1 d s 689 504 m 3 X 3 1 d 3 X 3 1 d 3 X 3 1 d 6 X 4 1 d 3 X 3 1 d 3 X 3 1 d
 3 X 3 1 d 6 X 3 1 d 3 X 3 1 d 3 X 3 1 d 3 X 3 1 d 7 X 3 1 d 3 X 3 1 d 3 X 3 1 d 3 X 3 1 d 6 X 3 1 d 3 X 3 1 d 3 X 3 1 d 4 X 3 1 d 6 X 3 1 d 3 X 3 1 d 3 X 3 1 d s 839 526 m 3 X s 0.49 0.6 0.82 c black 0.49 0.6 0.82 c
 gsave  408 306 476 345 C 595.418 629.605 t 0 r /Helvetica-Bold findfont 25.6831 sf 0 0 m (5.5 < E < 6.0 GeV) show NC gr  0.52 0.76 0.64 c black 0.52 0.76 0.64 c
 gsave  408 306 476 345 C 581.174 592.569 t 0 r /Helvetica-Bold findfont 25.6831 sf 0 0 m 
 220 206 192 185 170 163 148 141 125 118 111 97 83 69 61 47 40 25 18
(A = 0.010, p = 1.000) K NC gr  1 0.6 1 c black 1 0.6 1 c
 gsave  408 306 476 345 C 883.156 458.671 t 90 r /Helvetica-Bold findfont 28.5368 sf 0 0 m (/dof=0.6) show NC gr  black 1 0.6 1 c
 gsave  408 306 476 345 C 871.76 447.276 t 90 r /Helvetica-Bold findfont 19.9758 sf 0 0 m (2) show NC gr  black 1 0.6 1 c
 gsave  408 306 476 345 C 883.156 430.182 t 90 r /Symbol findfont 28.5368 sf 0 0 m (c) show NC gr  black 3 lw 1 1 1 c 408 306 930 345 bf black 1 1 1 c black 306 229 991 391 bl 306 229 991 391 bl 991 391 m 306 X s 1037 395 m -4 Y s 1143 395 m -4 Y s
 1248 395 m -4 Y s 1037 395 m -4 Y s 1248 395 m -4 Y s
 gsave  408 306 930 345 C 1017.05 370.356 t 0 r /Helvetica findfont 22.8295 sf 0 0 m (\2550.5) show NC gr 
 gsave  408 306 930 345 C 1133.86 370.356 t 0 r /Helvetica findfont 22.8295 sf 0 0 m (0) show NC gr 
 gsave  408 306 930 345 C 1230.72 370.356 t 0 r /Helvetica findfont 22.8295 sf 0 0 m (0.5) show NC gr  991 620 m 306 X s 1037 616 m 4 Y s 1143 616 m 4 Y s 1248 616 m 4 Y s 1037 616 m 4 Y s 1248 616 m 4 Y s 991 391 m 229 Y s 997 413 m -6 X s 994 418 m
 -3 X s 994 423 m -3 X s 994 428 m -3 X s 994 433 m -3 X s 997 438 m -6 X s 994 443 m -3 X s 994 448 m -3 X s 994 453 m -3 X s 994 458 m -3 X s 997 463 m -6 X s 994 468 m -3 X s 994 473 m -3 X s 994 478 m -3 X s 994 483 m -3 X s 997 488 m -6 X s 994
 493 m -3 X s 994 498 m -3 X s 994 503 m -3 X s 994 508 m -3 X s 997 512 m -6 X s 994 517 m -3 X s 994 522 m -3 X s 994 527 m -3 X s 994 532 m -3 X s 997 537 m -6 X s 994 542 m -3 X s 994 547 m -3 X s 994 552 m -3 X s 994 557 m -3 X s 997 562 m -6 X
 s 994 567 m -3 X s 994 572 m -3 X s 994 577 m -3 X s 994 582 m -3 X s 997 587 m -6 X s 994 592 m -3 X s 994 597 m -3 X s 994 602 m -3 X s 994 607 m -3 X s 997 612 m -6 X s 997 413 m -6 X s 994 408 m -3 X s 994 403 m -3 X s 994 398 m -3 X s 994 393 m
 -3 X s 997 612 m -6 X s 994 617 m -3 X s
 gsave  408 306 930 345 C 937.285 404.542 t 0 r /Helvetica findfont 22.8295 sf 0 0 m (\2550.02) show NC gr 
 gsave  408 306 930 345 C 940.134 430.182 t 0 r /Helvetica findfont 22.8295 sf 0 0 m (\2550.01) show NC gr 
 gsave  408 306 930 345 C 974.32 455.822 t 0 r /Helvetica findfont 22.8295 sf 0 0 m (0) show NC gr 
 gsave  408 306 930 345 C 945.832 481.462 t 0 r /Helvetica findfont 22.8295 sf 0 0 m (0.01) show NC gr 
 gsave  408 306 930 345 C 942.983 504.254 t 0 r /Helvetica findfont 22.8295 sf 0 0 m (0.02) show NC gr 
 gsave  408 306 930 345 C 942.983 529.894 t 0 r /Helvetica findfont 22.8295 sf 0 0 m (0.03) show NC gr 
 gsave  408 306 930 345 C 942.983 555.534 t 0 r /Helvetica findfont 22.8295 sf 0 0 m (0.04) show NC gr 
 gsave  408 306 930 345 C 942.983 581.174 t 0 r /Helvetica findfont 22.8295 sf 0 0 m (0.05) show NC gr 
 gsave  408 306 930 345 C 942.983 603.965 t 0 r /Helvetica findfont 22.8295 sf 0 0 m (0.06) show NC gr  1297 391 m 229 Y s 1292 413 m 5 X s 1294 418 m 3 X s 1294 423 m 3 X s 1294 428 m 3 X s 1294 433 m 3 X s 1292 438 m 5 X s 1294 443 m 3 X s 1294 448
 m 3 X s 1294 453 m 3 X s 1294 458 m 3 X s 1292 463 m 5 X s 1294 468 m 3 X s 1294 473 m 3 X s 1294 478 m 3 X s 1294 483 m 3 X s 1292 488 m 5 X s 1294 493 m 3 X s 1294 498 m 3 X s 1294 503 m 3 X s 1294 508 m 3 X s 1292 512 m 5 X s 1294 517 m 3 X s
 1294 522 m 3 X s 1294 527 m 3 X s 1294 532 m 3 X s 1292 537 m 5 X s 1294 542 m 3 X s 1294 547 m 3 X s 1294 552 m 3 X s 1294 557 m 3 X s 1292 562 m 5 X s 1294 567 m 3 X s 1294 572 m 3 X s 1294 577 m 3 X s 1294 582 m 3 X s 1292 587 m 5 X s 1294 592 m
 3 X s 1294 597 m 3 X s 1294 602 m 3 X s 1294 607 m 3 X s 1292 612 m 5 X s 1292 413 m 5 X s 1294 408 m 3 X s 1294 403 m 3 X s 1294 398 m 3 X s 1294 393 m 3 X s 1292 612 m 5 X s 1294 617 m 3 X s 1016 480 1058 557 1101 509 1122 474 1164 493 1185 467
 1227 452 1269 465 8 { m21} R 1016 492 m 32 Y s 1011 524 m 11 X s 1016 469 m -32 Y s 1011 437 m 11 X s 1058 568 m 33 Y s 1053 601 m 11 X s 1058 545 m -32 Y s 1053 513 m 11 X s 1101 521 m 32 Y s 1095 553 m 11 X s 1101 498 m -32 Y s 1095 466 m 11 X s
 1122 486 m 31 Y s 1116 517 m 11 X s 1122 463 m -32 Y s 1116 431 m 11 X s 1164 504 m 32 Y s 1158 536 m 12 X s 1164 481 m -31 Y s 1158 450 m 12 X s 1185 478 m 32 Y s 1179 510 m 12 X s 1185 456 m -32 Y s 1179 424 m 12 X s 1227 464 m 31 Y s 1221 495 m
 12 X s 1227 441 m -31 Y s 1221 410 m 12 X s 1269 476 m 31 Y s 1264 507 m 11 X s 1269 453 m -31 Y s 1264 422 m 11 X s 9 lw 0.95 0.95 0.95 c black 993 498 m 3 -1 d 3 -1 d 3 X 3 -1 d 3 -1 d 3 -1 d 3 X 3 -1 d 3 -1 d 3 X 3 -1 d 3 -1 d 3 -1 d 3 X 3 -1 d 4
 -1 d 3 X 3 -1 d 3 -1 d 3 -1 d 3 X 3 -1 d 3 -1 d 3 X 3 -1 d 3 -1 d 3 -1 d 3 X 3 -1 d 3 -1 d 3 X 3 -1 d 4 -1 d 3 -1 d 3 X 3 -1 d 3 -1 d 3 X 3 -1 d 3 -1 d 3 X 3 -1 d 3 -1 d 3 -1 d 3 X 3 -1 d 3 -1 d 3 X 4 -1 d s 1143 463 m 3 -1 d 3 -1 d 3 X 3 -1 d 3 -1
 d 3 X 3 -1 d 3 -1 d 3 -1 d 3 X 3 -1 d 3 -1 d 3 X 3 -1 d 3 -1 d 4 -1 d 3 X 3 -1 d 3 -1 d 3 X 3 -1 d 3 -1 d 3 X 3 -1 d 3 -1 d 3 -1 d 3 X 3 -1 d 3 -1 d 3 X 3 -1 d 3 -1 d 4 -1 d 3 X 3 -1 d 3 -1 d 3 X 3 -1 d 3 -1 d 3 -1 d 3 X 3 -1 d 3 -1 d 3 X 3 -1 d 3
 -1 d 3 -1 d 3 X 4 -1 d s 1293 428 m 3 -1 d s 0.49 0.6 0.82 c black 0.49 0.6 0.82 c
 gsave  408 306 930 345 C 1051.24 629.605 t 0 r /Helvetica-Bold findfont 25.6831 sf 0 0 m (6.0 < E < 6.5 GeV) show NC gr  0.52 0.76 0.64 c black 0.52 0.76 0.64 c
 gsave  408 306 930 345 C 1031.3 592.569 t 0 r /Helvetica-Bold findfont 25.6831 sf 0 0 m 
 228 214 200 193 178 171 156 149 134 126 119 105 91 77 69 55 47 39 25 17
(A = \2550.020, p = 1.000) K NC gr  1 0.6 1 c black 1 0.6 1 c
 gsave  408 306 930 345 C 1336.13 458.671 t 90 r /Helvetica-Bold findfont 28.5368 sf 0 0 m (/dof=0.7) show NC gr  black 1 0.6 1 c
 gsave  408 306 930 345 C 1324.73 447.276 t 90 r /Helvetica-Bold findfont 19.9758 sf 0 0 m (2) show NC gr  black 1 0.6 1 c
 gsave  408 306 930 345 C 1336.13 430.182 t 90 r /Symbol findfont 28.5368 sf 0 0 m (c) show NC gr  black 3 lw 1 1 1 c 408 306 1383 345 bf black 1 1 1 c black 306 229 1445 391 bl 306 229 1445 391 bl 1445 391 m 306 X s 1491 395 m -4 Y s 1596 395 m -4 Y
 s 1702 395 m -4 Y s 1491 395 m -4 Y s 1702 395 m -4 Y s
 gsave  408 306 1383 345 C 1470.03 370.356 t 0 r /Helvetica findfont 22.8295 sf 0 0 m (\2550.5) show NC gr 
 gsave  408 306 1383 345 C 1586.83 370.356 t 0 r /Helvetica findfont 22.8295 sf 0 0 m (0) show NC gr 
 gsave  408 306 1383 345 C 1683.69 370.356 t 0 r /Helvetica findfont 22.8295 sf 0 0 m (0.5) show NC gr  1445 620 m 306 X s 1491 616 m 4 Y s 1596 616 m 4 Y s 1702 616 m 4 Y s 1491 616 m 4 Y s 1702 616 m 4 Y s 1445 391 m 229 Y s 1450 396 m -5 X s 1447
 402 m -2 X s 1447 408 m -2 X s 1447 414 m -2 X s 1447 420 m -2 X s 1450 426 m -5 X s 1447 432 m -2 X s 1447 438 m -2 X s 1447 444 m -2 X s 1447 449 m -2 X s 1450 455 m -5 X s 1447 461 m -2 X s 1447 467 m -2 X s 1447 473 m -2 X s 1447 479 m -2 X s
 1450 485 m -5 X s 1447 491 m -2 X s 1447 497 m -2 X s 1447 503 m -2 X s 1447 509 m -2 X s 1450 515 m -5 X s 1447 521 m -2 X s 1447 526 m -2 X s 1447 532 m -2 X s 1447 538 m -2 X s 1450 544 m -5 X s 1447 550 m -2 X s 1447 556 m -2 X s 1447 562 m -2 X
 s 1447 568 m -2 X s 1450 574 m -5 X s 1447 580 m -2 X s 1447 586 m -2 X s 1447 592 m -2 X s 1447 598 m -2 X s 1450 603 m -5 X s 1450 396 m -5 X s 1450 603 m -5 X s 1447 609 m -2 X s 1447 615 m -2 X s
 gsave  408 306 1383 345 C 1390.26 390.298 t 0 r /Helvetica findfont 22.8295 sf 0 0 m (\2550.05) show NC gr 
 gsave  408 306 1383 345 C 1390.26 418.787 t 0 r /Helvetica findfont 22.8295 sf 0 0 m (\2550.04) show NC gr 
 gsave  408 306 1383 345 C 1390.26 447.276 t 0 r /Helvetica findfont 22.8295 sf 0 0 m (\2550.03) show NC gr 
 gsave  408 306 1383 345 C 1390.26 478.614 t 0 r /Helvetica findfont 22.8295 sf 0 0 m (\2550.02) show NC gr 
 gsave  408 306 1383 345 C 1393.11 507.102 t 0 r /Helvetica findfont 22.8295 sf 0 0 m (\2550.01) show NC gr 
 gsave  408 306 1383 345 C 1427.29 538.44 t 0 r /Helvetica findfont 22.8295 sf 0 0 m (0) show NC gr 
 gsave  408 306 1383 345 C 1398.81 566.929 t 0 r /Helvetica findfont 22.8295 sf 0 0 m (0.01) show NC gr 
 gsave  408 306 1383 345 C 1395.96 595.418 t 0 r /Helvetica findfont 22.8295 sf 0 0 m (0.02) show NC gr  1751 391 m 229 Y s 1745 396 m 6 X s 1748 402 m 3 X s 1748 408 m 3 X s 1748 414 m 3 X s 1748 420 m 3 X s 1745 426 m 6 X s 1748 432 m 3 X s 1748
 438 m 3 X s 1748 444 m 3 X s 1748 449 m 3 X s 1745 455 m 6 X s 1748 461 m 3 X s 1748 467 m 3 X s 1748 473 m 3 X s 1748 479 m 3 X s 1745 485 m 6 X s 1748 491 m 3 X s 1748 497 m 3 X s 1748 503 m 3 X s 1748 509 m 3 X s 1745 515 m 6 X s 1748 521 m 3 X s
 1748 526 m 3 X s 1748 532 m 3 X s 1748 538 m 3 X s 1745 544 m 6 X s 1748 550 m 3 X s 1748 556 m 3 X s 1748 562 m 3 X s 1748 568 m 3 X s 1745 574 m 6 X s 1748 580 m 3 X s 1748 586 m 3 X s 1748 592 m 3 X s 1748 598 m 3 X s 1745 603 m 6 X s 1745 396 m
 6 X s 1745 603 m 6 X s 1748 609 m 3 X s 1748 615 m 3 X s 1470 535 1512 467 1554 496 1575 528 1617 471 1639 543 1681 503 1723 471 8 { m21} R 1470 547 m 45 Y s 1464 592 m 12 X s 1470 524 m -46 Y s 1464 478 m 12 X s 1512 478 m 45 Y s 1506 523 m 12 X s
 1512 455 m -45 Y s 1506 410 m 12 X s 1554 507 m 46 Y s 1548 553 m 12 X s 1554 485 m -46 Y s 1548 439 m 12 X s 1575 539 m 47 Y s 1570 586 m 11 X s 1575 516 m -47 Y s 1570 469 m 11 X s 1617 483 m 45 Y s 1612 528 m 11 X s 1617 460 m -45 Y s 1612 415 m
 11 X s 1639 555 m 46 Y s 1633 601 m 11 X s 1639 532 m -47 Y s 1633 485 m 11 X s 1681 514 m 45 Y s 1675 559 m 11 X s 1681 491 m -45 Y s 1675 446 m 11 X s 1723 483 m 45 Y s 1717 528 m 12 X s 1723 460 m -45 Y s 1717 415 m 12 X s 1 0 0 c 9 lw 0.95 0.95
 0.95 c black 1 0 0 c 1446 460 m 3 4 d 3 3 d 3 3 d 3 3 d 3 3 d 3 3 d 3 3 d 4 3 d 3 3 d 3 3 d 3 3 d 3 2 d 3 3 d 3 2 d 3 3 d 3 2 d 3 2 d 3 3 d 3 2 d 3 2 d 3 2 d 3 2 d 3 1 d 4 2 d 3 2 d 3 2 d 3 1 d 3 2 d 3 1 d 3 2 d 3 1 d 3 1 d 3 1 d 3 1 d 3 1 d 3 1 d 3
 1 d 3 1 d 3 1 d 4 X 3 1 d 3 X 3 1 d 3 X 3 1 d 12 X s 1596 544 m 12 X 3 -1 d 7 X 3 -1 d 3 -1 d 3 X 3 -1 d 3 -1 d 3 -1 d 3 -1 d 3 -1 d 3 -1 d 3 -1 d 3 -1 d 3 -1 d 3 -2 d 3 -1 d 3 -2 d 3 -1 d 4 -2 d 3 -1 d 3 -2 d 3 -2 d 3 -2 d 3 -2 d 3 -2 d 3 -2 d 3 -2
 d 3 -3 d 3 -2 d 3 -2 d 3 -3 d 3 -2 d 3 -3 d 3 -3 d 4 -2 d 3 -3 d 3 -3 d 3 -3 d 3 -3 d 3 -3 d 3 -3 d 3 -4 d 3 -3 d 3 -3 d s 1746 461 m 3 -4 d s 0.49 0.6 0.82 c black 0.49 0.6 0.82 c
 gsave  408 306 1383 345 C 1504.21 629.605 t 0 r /Helvetica-Bold findfont 25.6831 sf 0 0 m (6.5 < E < 7.0 GeV) show NC gr  0.52 0.76 0.64 c black 0.52 0.76 0.64 c
 gsave  408 306 1383 345 C 1484.27 592.569 t 0 r /Helvetica-Bold findfont 25.6831 sf 0 0 m 
 228 214 200 193 178 171 156 149 133 126 119 105 91 76 69 55 47 39 25 17
(A = \2550.056, p = 2.000) K NC gr  1 0.6 1 c black 1 0.6 1 c
 gsave  408 306 1383 345 C 1789.1 458.671 t 90 r /Helvetica-Bold findfont 28.5368 sf 0 0 m (/dof=0.6) show NC gr  black 1 0.6 1 c
 gsave  408 306 1383 345 C 1777.71 447.276 t 90 r /Helvetica-Bold findfont 19.9758 sf 0 0 m (2) show NC gr  black 1 0.6 1 c
 gsave  408 306 1383 345 C 1789.1 430.182 t 90 r /Symbol findfont 28.5368 sf 0 0 m (c) show NC gr  black 3 lw 1 1 1 c 408 306 1837 345 bf black 1 1 1 c black 306 229 1898 391 bl 306 229 1898 391 bl 1898 391 m 306 X s 1944 395 m -4 Y s 2050 395 m -4 Y
 s 2155 395 m -4 Y s 1944 395 m -4 Y s 2155 395 m -4 Y s
 gsave  408 306 1837 345 C 1923 370.356 t 0 r /Helvetica findfont 22.8295 sf 0 0 m (\2550.5) show NC gr 
 gsave  408 306 1837 345 C 2039.81 370.356 t 0 r /Helvetica findfont 22.8295 sf 0 0 m (0) show NC gr 
 gsave  408 306 1837 345 C 2136.67 370.356 t 0 r /Helvetica findfont 22.8295 sf 0 0 m (0.5) show NC gr  1898 620 m 306 X s 1944 616 m 4 Y s 2050 616 m 4 Y s 2155 616 m 4 Y s 1944 616 m 4 Y s 2155 616 m 4 Y s 1898 391 m 229 Y s 1904 403 m -6 X s 1901
 408 m -3 X s 1901 413 m -3 X s 1901 418 m -3 X s 1901 423 m -3 X s 1904 428 m -6 X s 1901 433 m -3 X s 1901 438 m -3 X s 1901 443 m -3 X s 1901 448 m -3 X s 1904 453 m -6 X s 1901 458 m -3 X s 1901 463 m -3 X s 1901 468 m -3 X s 1901 473 m -3 X s
 1904 478 m -6 X s 1901 483 m -3 X s 1901 488 m -3 X s 1901 493 m -3 X s 1901 498 m -3 X s 1904 503 m -6 X s 1901 508 m -3 X s 1901 513 m -3 X s 1901 518 m -3 X s 1901 523 m -3 X s 1904 528 m -6 X s 1901 533 m -3 X s 1901 538 m -3 X s 1901 542 m -3 X
 s 1901 547 m -3 X s 1904 552 m -6 X s 1901 557 m -3 X s 1901 562 m -3 X s 1901 567 m -3 X s 1901 572 m -3 X s 1904 577 m -6 X s 1901 582 m -3 X s 1901 587 m -3 X s 1901 592 m -3 X s 1901 597 m -3 X s 1904 602 m -6 X s 1904 403 m -6 X s 1901 398 m -3
 X s 1901 393 m -3 X s 1904 602 m -6 X s 1901 607 m -3 X s 1901 612 m -3 X s 1901 617 m -3 X s
 gsave  408 306 1837 345 C 1843.23 395.996 t 0 r /Helvetica findfont 22.8295 sf 0 0 m (\2550.04) show NC gr 
 gsave  408 306 1837 345 C 1843.23 421.636 t 0 r /Helvetica findfont 22.8295 sf 0 0 m (\2550.03) show NC gr 
 gsave  408 306 1837 345 C 1843.23 447.276 t 0 r /Helvetica findfont 22.8295 sf 0 0 m (\2550.02) show NC gr 
 gsave  408 306 1837 345 C 1846.08 470.067 t 0 r /Helvetica findfont 22.8295 sf 0 0 m (\2550.01) show NC gr 
 gsave  408 306 1837 345 C 1880.27 495.707 t 0 r /Helvetica findfont 22.8295 sf 0 0 m (0) show NC gr 
 gsave  408 306 1837 345 C 1851.78 521.347 t 0 r /Helvetica findfont 22.8295 sf 0 0 m (0.01) show NC gr 
 gsave  408 306 1837 345 C 1848.93 544.138 t 0 r /Helvetica findfont 22.8295 sf 0 0 m (0.02) show NC gr 
 gsave  408 306 1837 345 C 1848.93 569.778 t 0 r /Helvetica findfont 22.8295 sf 0 0 m (0.03) show NC gr 
 gsave  408 306 1837 345 C 1848.93 595.418 t 0 r /Helvetica findfont 22.8295 sf 0 0 m (0.04) show NC gr  2204 391 m 229 Y s 2199 403 m 5 X s 2201 408 m 3 X s 2201 413 m 3 X s 2201 418 m 3 X s 2201 423 m 3 X s 2199 428 m 5 X s 2201 433 m 3 X s 2201
 438 m 3 X s 2201 443 m 3 X s 2201 448 m 3 X s 2199 453 m 5 X s 2201 458 m 3 X s 2201 463 m 3 X s 2201 468 m 3 X s 2201 473 m 3 X s 2199 478 m 5 X s 2201 483 m 3 X s 2201 488 m 3 X s 2201 493 m 3 X s 2201 498 m 3 X s 2199 503 m 5 X s 2201 508 m 3 X s
 2201 513 m 3 X s 2201 518 m 3 X s 2201 523 m 3 X s 2199 528 m 5 X s 2201 533 m 3 X s 2201 538 m 3 X s 2201 542 m 3 X s 2201 547 m 3 X s 2199 552 m 5 X s 2201 557 m 3 X s 2201 562 m 3 X s 2201 567 m 3 X s 2201 572 m 3 X s 2199 577 m 5 X s 2201 582 m
 3 X s 2201 587 m 3 X s 2201 592 m 3 X s 2201 597 m 3 X s 2199 602 m 5 X s 2199 403 m 5 X s 2201 398 m 3 X s 2201 393 m 3 X s 2199 602 m 5 X s 2201 607 m 3 X s 2201 612 m 3 X s 2201 617 m 3 X s 1923 475 1966 514 2008 464 2029 546 2071 506 2092 528
 2134 538 2176 508 8 { m21} R 1923 487 m 42 Y s 1918 529 m 11 X s 1923 464 m -42 Y s 1918 422 m 11 X s 1966 526 m 43 Y s 1960 569 m 11 X s 1966 503 m -43 Y s 1960 460 m 11 X s 2008 475 m 43 Y s 2002 518 m 11 X s 2008 452 m -42 Y s 2002 410 m 11 X s
 2029 557 m 44 Y s 2023 601 m 11 X s 2029 535 m -44 Y s 2023 491 m 11 X s 2071 518 m 42 Y s 2065 560 m 12 X s 2071 495 m -43 Y s 2065 452 m 12 X s 2092 539 m 44 Y s 2086 583 m 12 X s 2092 517 m -43 Y s 2086 474 m 12 X s 2134 549 m 43 Y s 2129 592 m
 11 X s 2134 526 m -43 Y s 2129 483 m 11 X s 2176 519 m 43 Y s 2171 562 m 11 X s 2176 497 m -43 Y s 2171 454 m 11 X s 9 lw 0.95 0.95 0.95 c black 1900 479 m 3 X 3 1 d 3 X 3 1 d 3 X 3 1 d 3 X 3 1 d 3 X 3 1 d 3 X 3 1 d 3 X 3 1 d 4 X 3 1 d 3 X 3 1 d 3 X
 3 1 d 3 X 3 1 d 3 X 3 1 d 3 X 3 1 d 3 X 3 1 d 3 X 3 1 d 7 X 3 1 d 3 X 3 1 d 3 X 3 1 d 3 X 3 1 d 3 X 3 1 d 3 X 3 1 d 3 X 3 1 d 3 X 3 1 d 4 X 3 1 d s 2050 503 m 3 X 3 1 d 3 X 3 1 d 3 X 3 1 d 3 X 3 1 d 3 X 3 1 d 3 X 3 1 d 6 X 4 1 d 3 X 3 1 d 3 X 3 1 d
 3 X 3 1 d 3 X 3 1 d 3 X 3 1 d 3 X 3 1 d 3 X 3 1 d 3 X 4 1 d 3 X 3 1 d 3 X 3 1 d 3 X 3 1 d 3 X 3 1 d 3 X 3 1 d 3 X 3 1 d 3 X 3 1 d 7 X 3 1 d 3 X s 2200 526 m 3 1 d s 0.49 0.6 0.82 c black 0.49 0.6 0.82 c
 gsave  408 306 1837 345 C 1957.19 629.605 t 0 r /Helvetica-Bold findfont 25.6831 sf 0 0 m (7.0 < E < 7.5 GeV) show NC gr  0.52 0.76 0.64 c black 0.52 0.76 0.64 c
 gsave  408 306 1837 345 C 1942.94 592.569 t 0 r /Helvetica-Bold findfont 25.6831 sf 0 0 m 
 220 206 192 185 170 163 148 141 126 118 111 97 83 69 61 47 40 25 18
(A = 0.013, p = 1.000) K NC gr  1 0.6 1 c black 1 0.6 1 c
 gsave  408 306 1837 345 C 2242.08 458.671 t 90 r /Helvetica-Bold findfont 28.5368 sf 0 0 m (/dof=0.2) show NC gr  black 1 0.6 1 c
 gsave  408 306 1837 345 C 2230.68 447.276 t 90 r /Helvetica-Bold findfont 19.9758 sf 0 0 m (2) show NC gr  black 1 0.6 1 c
 gsave  408 306 1837 345 C 2242.08 430.182 t 90 r /Symbol findfont 28.5368 sf 0 0 m (c) show NC gr  black 3 lw 1 1 1 c 408 306 23 13 bf black 1 1 1 c black 306 229 84 59 bl 306 229 84 59 bl 84 59 m 306 X s 130 63 m -4 Y s 236 63 m -4 Y s 341 63 m -4
 Y s 130 63 m -4 Y s 341 63 m -4 Y s
 gsave  408 306 23 13 C 108.258 39.8845 t 0 r /Helvetica findfont 22.8295 sf 0 0 m (\2550.5) show NC gr 
 gsave  408 306 23 13 C 225.062 39.8845 t 0 r /Helvetica findfont 22.8295 sf 0 0 m (0) show NC gr 
 gsave  408 306 23 13 C 321.925 39.8845 t 0 r /Helvetica findfont 22.8295 sf 0 0 m (0.5) show NC gr  84 288 m 306 X s 130 284 m 4 Y s 236 284 m 4 Y s 341 284 m 4 Y s 130 284 m 4 Y s 341 284 m 4 Y s 84 59 m 229 Y s 89 89 m -5 X s 87 98 m -3 X s 87 107
 m -3 X s 87 116 m -3 X s 89 125 m -5 X s 87 133 m -3 X s 87 142 m -3 X s 87 151 m -3 X s 89 160 m -5 X s 87 169 m -3 X s 87 178 m -3 X s 87 187 m -3 X s 89 196 m -5 X s 87 204 m -3 X s 87 213 m -3 X s 87 222 m -3 X s 89 231 m -5 X s 87 240 m -3 X s
 87 249 m -3 X s 87 258 m -3 X s 89 267 m -5 X s 89 89 m -5 X s 87 80 m -3 X s 87 71 m -3 X s 87 62 m -3 X s 89 267 m -5 X s 87 275 m -3 X s 87 284 m -3 X s
 gsave  408 306 23 13 C 28.4889 82.6178 t 0 r /Helvetica findfont 22.8295 sf 0 0 m (\2550.02) show NC gr 
 gsave  408 306 23 13 C 65.5245 116.804 t 0 r /Helvetica findfont 22.8295 sf 0 0 m (0) show NC gr 
 gsave  408 306 23 13 C 34.1867 153.84 t 0 r /Helvetica findfont 22.8295 sf 0 0 m (0.02) show NC gr 
 gsave  408 306 23 13 C 34.1867 188.027 t 0 r /Helvetica findfont 22.8295 sf 0 0 m (0.04) show NC gr 
 gsave  408 306 23 13 C 34.1867 225.062 t 0 r /Helvetica findfont 22.8295 sf 0 0 m (0.06) show NC gr 
 gsave  408 306 23 13 C 34.1867 259.249 t 0 r /Helvetica findfont 22.8295 sf 0 0 m (0.08) show NC gr  390 59 m 229 Y s 385 89 m 5 X s 387 98 m 3 X s 387 107 m 3 X s 387 116 m 3 X s 385 125 m 5 X s 387 133 m 3 X s 387 142 m 3 X s 387 151 m 3 X s 385
 160 m 5 X s 387 169 m 3 X s 387 178 m 3 X s 387 187 m 3 X s 385 196 m 5 X s 387 204 m 3 X s 387 213 m 3 X s 387 222 m 3 X s 385 231 m 5 X s 387 240 m 3 X s 387 249 m 3 X s 387 258 m 3 X s 385 267 m 5 X s 385 89 m 5 X s 387 80 m 3 X s 387 71 m 3 X s
 387 62 m 3 X s 385 267 m 5 X s 387 275 m 3 X s 387 284 m 3 X s /w 22 def /w2 {w 2 div} def /w3 {w 3 div} def 109 225 151 155 194 167 215 165 257 158 278 142 320 120 362 128 8 { m21} R 109 236 m 33 Y s 104 269 m 11 X s 109 213 m -33 Y s 104 180 m 11
 X s 151 167 m 31 Y s 146 198 m 11 X s 151 144 m -31 Y s 146 113 m 11 X s 194 178 m 32 Y s 188 210 m 11 X s 194 155 m -32 Y s 188 123 m 11 X s 215 177 m 31 Y s 209 208 m 11 X s 215 154 m -32 Y s 209 122 m 11 X s 257 169 m 32 Y s 251 201 m 11 X s 257
 146 m -31 Y s 251 115 m 11 X s 278 153 m 31 Y s 272 184 m 12 X s 278 130 m -31 Y s 272 99 m 12 X s 320 131 m 31 Y s 314 162 m 12 X s 320 109 m -31 Y s 314 78 m 12 X s 362 140 m 30 Y s 357 170 m 11 X s 362 117 m -31 Y s 357 86 m 11 X s 1 0 0 c 9 lw
 0.95 0.95 0.95 c black 1 0 0 c 85 193 m 3 -2 d 4 -3 d 3 -3 d 3 -2 d 3 -3 d 3 -2 d 3 -3 d 3 -2 d 3 -2 d 3 -3 d 3 -2 d 3 -2 d 3 -2 d 3 -2 d 3 -2 d 3 -2 d 3 -2 d 4 -2 d 3 -2 d 3 -1 d 3 -2 d 3 -1 d 3 -2 d 3 -1 d 3 -2 d 3 -1 d 3 -2 d 3 -1 d 3 -1 d 3 -1 d
 3 -1 d 3 -1 d 3 -1 d 4 -1 d 3 -1 d 3 -1 d 3 X 3 -1 d 3 -1 d 3 X 3 -1 d 6 X 3 -1 d 15 X s 235 125 m 16 X 3 1 d 6 X 3 1 d 3 X 3 1 d 3 1 d 3 X 3 1 d 3 1 d 3 1 d 3 1 d 4 1 d 3 1 d 3 1 d 3 1 d 3 1 d 3 2 d 3 1 d 3 1 d 3 2 d 3 1 d 3 2 d 3 1 d 3 2 d 3 2 d 3
 2 d 3 2 d 4 1 d 3 2 d 3 2 d 3 3 d 3 2 d 3 2 d 3 2 d 3 2 d 3 3 d 3 2 d 3 3 d 3 2 d 3 3 d 3 2 d 3 3 d 3 3 d s 385 193 m 4 3 d s 0.49 0.6 0.82 c black 0.49 0.6 0.82 c
 gsave  408 306 23 13 C 142.445 296.285 t 0 r /Helvetica-Bold findfont 25.6831 sf 0 0 m (7.5 < E < 8.0 GeV) show NC gr  0.52 0.76 0.64 c black 0.52 0.76 0.64 c
 gsave  408 306 23 13 C 128.2 259.249 t 0 r /Helvetica-Bold findfont 25.6831 sf 0 0 m 
 220 206 192 185 170 163 148 141 126 118 111 97 83 69 61 47 40 25 18
(A = 0.076, p = 2.000) K NC gr  1 0.6 1 c black 1 0.6 1 c
 gsave  408 306 23 13 C 427.334 128.2 t 90 r /Helvetica-Bold findfont 28.5368 sf 0 0 m (/dof=0.7) show NC gr  black 1 0.6 1 c
 gsave  408 306 23 13 C 415.938 116.804 t 90 r /Helvetica-Bold findfont 19.9758 sf 0 0 m (2) show NC gr  black 1 0.6 1 c
 gsave  408 306 23 13 C 427.334 99.7112 t 90 r /Symbol findfont 28.5368 sf 0 0 m (c) show NC gr  black 3 lw 1 1 1 c 408 306 476 13 bf black 1 1 1 c black 307 229 537 59 bl 307 229 537 59 bl 537 59 m 307 X s 584 63 m -4 Y s 689 63 m -4 Y s 795 63 m -4
 Y s 584 63 m -4 Y s 795 63 m -4 Y s
 gsave  408 306 476 13 C 561.231 39.8845 t 0 r /Helvetica findfont 22.8295 sf 0 0 m (\2550.5) show NC gr 
 gsave  408 306 476 13 C 678.036 39.8845 t 0 r /Helvetica findfont 22.8295 sf 0 0 m (0) show NC gr 
 gsave  408 306 476 13 C 774.898 39.8845 t 0 r /Helvetica findfont 22.8295 sf 0 0 m (0.5) show NC gr  537 288 m 307 X s 584 284 m 4 Y s 689 284 m 4 Y s 795 284 m 4 Y s 584 284 m 4 Y s 795 284 m 4 Y s 537 59 m 229 Y s 543 73 m -6 X s 540 81 m -3 X s
 540 90 m -3 X s 540 98 m -3 X s 543 107 m -6 X s 540 115 m -3 X s 540 124 m -3 X s 540 132 m -3 X s 543 141 m -6 X s 540 149 m -3 X s 540 158 m -3 X s 540 166 m -3 X s 543 175 m -6 X s 540 183 m -3 X s 540 192 m -3 X s 540 200 m -3 X s 543 209 m -6
 X s 540 217 m -3 X s 540 225 m -3 X s 540 234 m -3 X s 543 242 m -6 X s 540 251 m -3 X s 540 259 m -3 X s 540 268 m -3 X s 543 276 m -6 X s 543 73 m -6 X s 540 64 m -3 X s 543 276 m -6 X s 540 285 m -3 X s
 gsave  408 306 476 13 C 481.462 65.5245 t 0 r /Helvetica findfont 22.8295 sf 0 0 m (\2550.04) show NC gr 
 gsave  408 306 476 13 C 481.462 99.7112 t 0 r /Helvetica findfont 22.8295 sf 0 0 m (\2550.02) show NC gr 
 gsave  408 306 476 13 C 518.498 133.898 t 0 r /Helvetica findfont 22.8295 sf 0 0 m (0) show NC gr 
 gsave  408 306 476 13 C 487.16 168.085 t 0 r /Helvetica findfont 22.8295 sf 0 0 m (0.02) show NC gr 
 gsave  408 306 476 13 C 487.16 202.271 t 0 r /Helvetica findfont 22.8295 sf 0 0 m (0.04) show NC gr 
 gsave  408 306 476 13 C 487.16 236.458 t 0 r /Helvetica findfont 22.8295 sf 0 0 m (0.06) show NC gr 
 gsave  408 306 476 13 C 487.16 270.645 t 0 r /Helvetica findfont 22.8295 sf 0 0 m (0.08) show NC gr  844 59 m 229 Y s 838 73 m 6 X s 841 81 m 3 X s 841 90 m 3 X s 841 98 m 3 X s 838 107 m 6 X s 841 115 m 3 X s 841 124 m 3 X s 841 132 m 3 X s 838 141
 m 6 X s 841 149 m 3 X s 841 158 m 3 X s 841 166 m 3 X s 838 175 m 6 X s 841 183 m 3 X s 841 192 m 3 X s 841 200 m 3 X s 838 209 m 6 X s 841 217 m 3 X s 841 225 m 3 X s 841 234 m 3 X s 838 242 m 6 X s 841 251 m 3 X s 841 259 m 3 X s 841 268 m 3 X s
 838 276 m 6 X s 838 73 m 6 X s 841 64 m 3 X s 838 276 m 6 X s 841 285 m 3 X s /w 23 def /w2 {w 2 div} def /w3 {w 3 div} def 563 123 605 224 647 128 668 179 710 181 731 160 774 151 816 121 8 { m21} R 563 134 m 32 Y s 557 166 m 11 X s 563 111 m -31 Y
 s 557 80 m 11 X s 605 235 m 34 Y s 599 269 m 12 X s 605 213 m -34 Y s 599 179 m 12 X s 647 139 m 32 Y s 641 171 m 12 X s 647 117 m -32 Y s 641 85 m 12 X s 668 190 m 32 Y s 662 222 m 12 X s 668 167 m -32 Y s 662 135 m 12 X s 710 193 m 32 Y s 705 225
 m 11 X s 710 170 m -33 Y s 705 137 m 11 X s 731 171 m 32 Y s 726 203 m 11 X s 731 148 m -32 Y s 726 116 m 11 X s 774 162 m 32 Y s 768 194 m 11 X s 774 140 m -32 Y s 768 108 m 11 X s 816 132 m 31 Y s 810 163 m 11 X s 816 109 m -31 Y s 810 78 m 11 X s
 9 lw 0.95 0.95 0.95 c black 539 154 m 6 X 3 -1 d 9 X 3 -1 d 7 X 3 -1 d 9 X 3 -1 d 6 X 3 -1 d 9 X 3 -1 d 9 X 4 -1 d 6 X 3 -1 d 9 X 3 -1 d 9 X 3 -1 d 6 X 3 -1 d 10 X 3 -1 d 9 X 3 -1 d 6 X s 689 141 m 3 -1 d 9 X 3 -1 d 6 X 3 -1 d 10 X 3 -1 d 9 X 3 -1 d
 6 X 3 -1 d 9 X 3 -1 d 10 X 3 -1 d 6 X 3 -1 d 9 X 3 -1 d 9 X 3 -1 d 6 X 4 -1 d 9 X 3 -1 d 9 X 3 -1 d s 839 127 m 3 X s 0.49 0.6 0.82 c black 0.49 0.6 0.82 c
 gsave  408 306 476 13 C 595.418 296.285 t 0 r /Helvetica-Bold findfont 25.6831 sf 0 0 m (8.0 < E < 8.5 GeV) show NC gr  0.52 0.76 0.64 c black 0.52 0.76 0.64 c
 gsave  408 306 476 13 C 575.476 259.249 t 0 r /Helvetica-Bold findfont 25.6831 sf 0 0 m 
 227 213 199 192 177 170 155 148 132 125 118 104 91 77 70 56 47 40 25 18
(A = \2550.011, p = 1.000) K NC gr  1 0.6 1 c black 1 0.6 1 c
 gsave  408 306 476 13 C 883.156 128.2 t 90 r /Helvetica-Bold findfont 28.5368 sf 0 0 m (/dof=0.8) show NC gr  black 1 0.6 1 c
 gsave  408 306 476 13 C 871.76 116.804 t 90 r /Helvetica-Bold findfont 19.9758 sf 0 0 m (2) show NC gr  black 1 0.6 1 c
 gsave  408 306 476 13 C 883.156 99.7112 t 90 r /Symbol findfont 28.5368 sf 0 0 m (c) show NC gr  black 3 lw 1 1 1 c 408 306 930 13 bf black 1 1 1 c black 306 229 991 59 bl 306 229 991 59 bl 991 59 m 306 X s 1037 63 m -4 Y s 1143 63 m -4 Y s 1248 63
 m -4 Y s 1037 63 m -4 Y s 1248 63 m -4 Y s
 gsave  408 306 930 13 C 1017.05 39.8845 t 0 r /Helvetica findfont 22.8295 sf 0 0 m (\2550.5) show NC gr 
 gsave  408 306 930 13 C 1133.86 39.8845 t 0 r /Helvetica findfont 22.8295 sf 0 0 m (0) show NC gr 
 gsave  408 306 930 13 C 1230.72 39.8845 t 0 r /Helvetica findfont 22.8295 sf 0 0 m (0.5) show NC gr  991 288 m 306 X s 1037 284 m 4 Y s 1143 284 m 4 Y s 1248 284 m 4 Y s 1037 284 m 4 Y s 1248 284 m 4 Y s 991 59 m 229 Y s 997 73 m -6 X s 994 80 m -3
 X s 994 86 m -3 X s 994 93 m -3 X s 997 99 m -6 X s 994 106 m -3 X s 994 112 m -3 X s 994 119 m -3 X s 997 125 m -6 X s 994 132 m -3 X s 994 138 m -3 X s 994 145 m -3 X s 997 152 m -6 X s 994 158 m -3 X s 994 165 m -3 X s 994 171 m -3 X s 997 178 m
 -6 X s 994 184 m -3 X s 994 191 m -3 X s 994 197 m -3 X s 997 204 m -6 X s 994 210 m -3 X s 994 217 m -3 X s 994 224 m -3 X s 997 230 m -6 X s 994 237 m -3 X s 994 243 m -3 X s 994 250 m -3 X s 997 256 m -6 X s 994 263 m -3 X s 994 269 m -3 X s 994
 276 m -3 X s 997 282 m -6 X s 997 73 m -6 X s 994 66 m -3 X s 994 60 m -3 X s 997 282 m -6 X s
 gsave  408 306 930 13 C 937.285 65.5245 t 0 r /Helvetica findfont 22.8295 sf 0 0 m (\2550.08) show NC gr 
 gsave  408 306 930 13 C 937.285 91.1645 t 0 r /Helvetica findfont 22.8295 sf 0 0 m (\2550.06) show NC gr 
 gsave  408 306 930 13 C 937.285 116.804 t 0 r /Helvetica findfont 22.8295 sf 0 0 m (\2550.04) show NC gr 
 gsave  408 306 930 13 C 937.285 145.293 t 0 r /Helvetica findfont 22.8295 sf 0 0 m (\2550.02) show NC gr 
 gsave  408 306 930 13 C 974.32 170.933 t 0 r /Helvetica findfont 22.8295 sf 0 0 m (0) show NC gr 
 gsave  408 306 930 13 C 942.983 196.573 t 0 r /Helvetica findfont 22.8295 sf 0 0 m (0.02) show NC gr 
 gsave  408 306 930 13 C 942.983 222.213 t 0 r /Helvetica findfont 22.8295 sf 0 0 m (0.04) show NC gr 
 gsave  408 306 930 13 C 942.983 247.853 t 0 r /Helvetica findfont 22.8295 sf 0 0 m (0.06) show NC gr 
 gsave  408 306 930 13 C 942.983 276.342 t 0 r /Helvetica findfont 22.8295 sf 0 0 m (0.08) show NC gr  1297 59 m 229 Y s 1292 73 m 5 X s 1294 80 m 3 X s 1294 86 m 3 X s 1294 93 m 3 X s 1292 99 m 5 X s 1294 106 m 3 X s 1294 112 m 3 X s 1294 119 m 3 X
 s 1292 125 m 5 X s 1294 132 m 3 X s 1294 138 m 3 X s 1294 145 m 3 X s 1292 152 m 5 X s 1294 158 m 3 X s 1294 165 m 3 X s 1294 171 m 3 X s 1292 178 m 5 X s 1294 184 m 3 X s 1294 191 m 3 X s 1294 197 m 3 X s 1292 204 m 5 X s 1294 210 m 3 X s 1294 217
 m 3 X s 1294 224 m 3 X s 1292 230 m 5 X s 1294 237 m 3 X s 1294 243 m 3 X s 1294 250 m 3 X s 1292 256 m 5 X s 1294 263 m 3 X s 1294 269 m 3 X s 1294 276 m 3 X s 1292 282 m 5 X s 1292 73 m 5 X s 1294 66 m 3 X s 1294 60 m 3 X s 1292 282 m 5 X s 1016
 176 1058 112 1101 179 1122 154 1164 232 1185 140 1227 186 1269 175 8 { m21} R 1016 187 m 25 Y s 1011 212 m 11 X s 1016 165 m -25 Y s 1011 140 m 11 X s 1058 123 m 22 Y s 1053 145 m 11 X s 1058 100 m -22 Y s 1053 78 m 11 X s 1101 190 m 24 Y s 1095 214
 m 11 X s 1101 167 m -24 Y s 1095 143 m 11 X s 1122 165 m 23 Y s 1116 188 m 11 X s 1122 142 m -23 Y s 1116 119 m 11 X s 1164 244 m 25 Y s 1158 269 m 12 X s 1164 221 m -26 Y s 1158 195 m 12 X s 1185 151 m 24 Y s 1179 175 m 12 X s 1185 129 m -24 Y s
 1179 105 m 12 X s 1227 198 m 24 Y s 1221 222 m 12 X s 1227 175 m -25 Y s 1221 150 m 12 X s 1269 187 m 23 Y s 1264 210 m 11 X s 1269 164 m -24 Y s 1264 140 m 11 X s 9 lw 0.95 0.95 0.95 c black 993 158 m 3 1 d 6 X 3 1 d 3 X 3 1 d 6 X 3 1 d 3 X 3 1 d 6
 X 3 1 d 3 X 4 1 d 6 X 3 1 d 3 X 3 1 d 6 X 3 1 d 3 X 3 1 d 6 X 3 1 d 3 X 3 1 d 7 X 3 1 d 3 X 3 1 d 6 X 3 1 d 3 X 3 1 d 6 X 3 1 d 6 X 3 1 d 3 X 4 1 d s 1143 178 m 6 X 3 1 d 3 X 3 1 d 6 X 3 1 d 3 X 3 1 d 6 X 3 1 d 3 X 3 1 d 7 X 3 1 d 3 X 3 1 d 6 X 3 1
 d 3 X 3 1 d 6 X 3 1 d 3 X 3 1 d 6 X 4 1 d 6 X 3 1 d 3 X 3 1 d 6 X 3 1 d 3 X 3 1 d 6 X 3 1 d 3 X 3 1 d 4 X s 1293 197 m 3 X s 0.49 0.6 0.82 c black 0.49 0.6 0.82 c
 gsave  408 306 930 13 C 1051.24 296.285 t 0 r /Helvetica-Bold findfont 25.6831 sf 0 0 m (8.5 < E < 9.0 GeV) show NC gr  0.52 0.76 0.64 c black 0.52 0.76 0.64 c
 gsave  408 306 930 13 C 1037 259.249 t 0 r /Helvetica-Bold findfont 25.6831 sf 0 0 m 
 220 206 192 185 170 163 148 141 126 118 111 97 83 69 61 47 40 25 18
(A = 0.021, p = 1.000) K NC gr  1 0.6 1 c black 1 0.6 1 c
 gsave  408 306 930 13 C 1336.13 128.2 t 90 r /Helvetica-Bold findfont 28.5368 sf 0 0 m (/dof=1.0) show NC gr  black 1 0.6 1 c
 gsave  408 306 930 13 C 1324.73 116.804 t 90 r /Helvetica-Bold findfont 19.9758 sf 0 0 m (2) show NC gr  black 1 0.6 1 c
 gsave  408 306 930 13 C 1336.13 99.7112 t 90 r /Symbol findfont 28.5368 sf 0 0 m (c) show NC gr  black 3 lw 1 1 1 c 408 306 1383 13 bf black 1 1 1 c black 306 229 1445 59 bl 306 229 1445 59 bl 1445 59 m 306 X s 1491 63 m -4 Y s 1596 63 m -4 Y s 1702
 63 m -4 Y s 1491 63 m -4 Y s 1702 63 m -4 Y s
 gsave  408 306 1383 13 C 1470.03 39.8845 t 0 r /Helvetica findfont 22.8295 sf 0 0 m (\2550.5) show NC gr 
 gsave  408 306 1383 13 C 1586.83 39.8845 t 0 r /Helvetica findfont 22.8295 sf 0 0 m (0) show NC gr 
 gsave  408 306 1383 13 C 1683.69 39.8845 t 0 r /Helvetica findfont 22.8295 sf 0 0 m (0.5) show NC gr  1445 288 m 306 X s 1491 284 m 4 Y s 1596 284 m 4 Y s 1702 284 m 4 Y s 1491 284 m 4 Y s 1702 284 m 4 Y s 1445 59 m 229 Y s 1450 70 m -5 X s 1447 77
 m -2 X s 1447 85 m -2 X s 1447 93 m -2 X s 1450 100 m -5 X s 1447 108 m -2 X s 1447 116 m -2 X s 1447 123 m -2 X s 1450 131 m -5 X s 1447 139 m -2 X s 1447 146 m -2 X s 1447 154 m -2 X s 1450 161 m -5 X s 1447 169 m -2 X s 1447 177 m -2 X s 1447 184
 m -2 X s 1450 192 m -5 X s 1447 200 m -2 X s 1447 207 m -2 X s 1447 215 m -2 X s 1450 223 m -5 X s 1447 230 m -2 X s 1447 238 m -2 X s 1447 246 m -2 X s 1450 253 m -5 X s 1447 261 m -2 X s 1447 268 m -2 X s 1447 276 m -2 X s 1450 284 m -5 X s 1450
 70 m -5 X s 1447 62 m -2 X s 1450 284 m -5 X s
 gsave  408 306 1383 13 C 1390.26 62.6756 t 0 r /Helvetica findfont 22.8295 sf 0 0 m (\2550.04) show NC gr 
 gsave  408 306 1383 13 C 1390.26 94.0134 t 0 r /Helvetica findfont 22.8295 sf 0 0 m (\2550.02) show NC gr 
 gsave  408 306 1383 13 C 1427.29 122.502 t 0 r /Helvetica findfont 22.8295 sf 0 0 m (0) show NC gr 
 gsave  408 306 1383 13 C 1395.96 153.84 t 0 r /Helvetica findfont 22.8295 sf 0 0 m (0.02) show NC gr 
 gsave  408 306 1383 13 C 1395.96 185.178 t 0 r /Helvetica findfont 22.8295 sf 0 0 m (0.04) show NC gr 
 gsave  408 306 1383 13 C 1395.96 216.516 t 0 r /Helvetica findfont 22.8295 sf 0 0 m (0.06) show NC gr 
 gsave  408 306 1383 13 C 1395.96 245.005 t 0 r /Helvetica findfont 22.8295 sf 0 0 m (0.08) show NC gr 
 gsave  408 306 1383 13 C 1413.05 276.342 t 0 r /Helvetica findfont 22.8295 sf 0 0 m (0.1) show NC gr  1751 59 m 229 Y s 1745 70 m 6 X s 1748 77 m 3 X s 1748 85 m 3 X s 1748 93 m 3 X s 1745 100 m 6 X s 1748 108 m 3 X s 1748 116 m 3 X s 1748 123 m 3 X
 s 1745 131 m 6 X s 1748 139 m 3 X s 1748 146 m 3 X s 1748 154 m 3 X s 1745 161 m 6 X s 1748 169 m 3 X s 1748 177 m 3 X s 1748 184 m 3 X s 1745 192 m 6 X s 1748 200 m 3 X s 1748 207 m 3 X s 1748 215 m 3 X s 1745 223 m 6 X s 1748 230 m 3 X s 1748 238
 m 3 X s 1748 246 m 3 X s 1745 253 m 6 X s 1748 261 m 3 X s 1748 268 m 3 X s 1748 276 m 3 X s 1745 284 m 6 X s 1745 70 m 6 X s 1748 62 m 3 X s 1745 284 m 6 X s 1470 197 1512 127 1554 222 1575 122 1617 144 1639 169 1681 123 1723 130 8 { m21} R 1470
 208 m 35 Y s 1464 243 m 12 X s 1470 186 m -35 Y s 1464 151 m 12 X s 1512 139 m 33 Y s 1506 172 m 12 X s 1512 116 m -33 Y s 1506 83 m 12 X s 1554 233 m 36 Y s 1548 269 m 12 X s 1554 211 m -36 Y s 1548 175 m 12 X s 1575 133 m 33 Y s 1570 166 m 11 X s
 1575 111 m -33 Y s 1570 78 m 11 X s 1617 155 m 33 Y s 1612 188 m 11 X s 1617 132 m -33 Y s 1612 99 m 11 X s 1639 181 m 33 Y s 1633 214 m 11 X s 1639 158 m -34 Y s 1633 124 m 11 X s 1681 134 m 32 Y s 1675 166 m 11 X s 1681 111 m -32 Y s 1675 79 m 11
 X s 1723 142 m 32 Y s 1717 174 m 12 X s 1723 119 m -33 Y s 1717 86 m 12 X s 1 0 0 c 9 lw 0.95 0.95 0.95 c black 1 0 0 c 1446 171 m 3 -1 d 3 -2 d 3 -1 d 3 -2 d 3 -1 d 3 -2 d 3 -1 d 4 -2 d 3 -1 d 3 -1 d 3 -2 d 3 -1 d 3 -1 d 3 -1 d 3 -2 d 3 -1 d 3 -1 d
 3 -1 d 3 -1 d 3 -1 d 3 -1 d 3 -1 d 3 -1 d 4 -1 d 3 X 3 -1 d 3 -1 d 3 -1 d 3 X 3 -1 d 3 -1 d 3 X 3 -1 d 3 X 3 -1 d 3 X 3 -1 d 6 X 4 -1 d 9 X 3 -1 d 15 X s 1596 131 m 15 X 3 1 d 10 X 3 1 d 6 X 3 1 d 3 X 3 1 d 3 X 3 1 d 3 X 3 1 d 3 1 d 3 X 3 1 d 3 1 d
 4 1 d 3 X 3 1 d 3 1 d 3 1 d 3 1 d 3 1 d 3 1 d 3 1 d 3 1 d 3 1 d 3 1 d 3 2 d 3 1 d 3 1 d 3 1 d 4 2 d 3 1 d 3 1 d 3 2 d 3 1 d 3 2 d 3 1 d 3 2 d 3 1 d 3 2 d s 1746 171 m 3 2 d s 0.49 0.6 0.82 c black 0.49 0.6 0.82 c
 gsave  408 306 1383 13 C 1504.21 296.285 t 0 r /Helvetica-Bold findfont 25.6831 sf 0 0 m (9.0 < E < 9.5 GeV) show NC gr  0.52 0.76 0.64 c black 0.52 0.76 0.64 c
 gsave  408 306 1383 13 C 1489.97 259.249 t 0 r /Helvetica-Bold findfont 25.6831 sf 0 0 m 
 220 206 192 185 170 163 148 141 125 118 111 97 83 68 61 47 40 25 18
(A = 0.052, p = 2.000) K NC gr  1 0.6 1 c black 1 0.6 1 c
 gsave  408 306 1383 13 C 1789.1 128.2 t 90 r /Helvetica-Bold findfont 28.5368 sf 0 0 m (/dof=0.8) show NC gr  black 1 0.6 1 c
 gsave  408 306 1383 13 C 1777.71 116.804 t 90 r /Helvetica-Bold findfont 19.9758 sf 0 0 m (2) show NC gr  black 1 0.6 1 c
 gsave  408 306 1383 13 C 1789.1 99.7112 t 90 r /Symbol findfont 28.5368 sf 0 0 m (c) show NC gr  black 3 lw 1 1 1 c 408 306 1837 13 bf black 1 1 1 c black 306 229 1898 59 bl 306 229 1898 59 bl 1898 59 m 306 X s 1944 63 m -4 Y s 2050 63 m -4 Y s 2155
 63 m -4 Y s 1944 63 m -4 Y s 2155 63 m -4 Y s
 gsave  408 306 1837 13 C 1923 39.8845 t 0 r /Helvetica findfont 22.8295 sf 0 0 m (\2550.5) show NC gr 
 gsave  408 306 1837 13 C 2039.81 39.8845 t 0 r /Helvetica findfont 22.8295 sf 0 0 m (0) show NC gr 
 gsave  408 306 1837 13 C 2136.67 39.8845 t 0 r /Helvetica findfont 22.8295 sf 0 0 m (0.5) show NC gr  1898 288 m 306 X s 1944 284 m 4 Y s 2050 284 m 4 Y s 2155 284 m 4 Y s 1944 284 m 4 Y s 2155 284 m 4 Y s 1898 59 m 229 Y s 1904 77 m -6 X s 1901 83
 m -3 X s 1901 90 m -3 X s 1901 97 m -3 X s 1904 104 m -6 X s 1901 110 m -3 X s 1901 117 m -3 X s 1901 124 m -3 X s 1904 130 m -6 X s 1901 137 m -3 X s 1901 144 m -3 X s 1901 150 m -3 X s 1904 157 m -6 X s 1901 164 m -3 X s 1901 170 m -3 X s 1901 177
 m -3 X s 1904 184 m -6 X s 1901 190 m -3 X s 1901 197 m -3 X s 1901 204 m -3 X s 1904 210 m -6 X s 1901 217 m -3 X s 1901 224 m -3 X s 1901 230 m -3 X s 1904 237 m -6 X s 1901 244 m -3 X s 1901 250 m -3 X s 1901 257 m -3 X s 1904 264 m -6 X s 1904
 77 m -6 X s 1901 70 m -3 X s 1901 63 m -3 X s 1904 264 m -6 X s 1901 270 m -3 X s 1901 277 m -3 X s 1901 284 m -3 X s
 gsave  408 306 1837 13 C 1843.23 68.3734 t 0 r /Helvetica findfont 22.8295 sf 0 0 m (\2550.08) show NC gr 
 gsave  408 306 1837 13 C 1843.23 96.8623 t 0 r /Helvetica findfont 22.8295 sf 0 0 m (\2550.06) show NC gr 
 gsave  408 306 1837 13 C 1843.23 122.502 t 0 r /Helvetica findfont 22.8295 sf 0 0 m (\2550.04) show NC gr 
 gsave  408 306 1837 13 C 1843.23 150.991 t 0 r /Helvetica findfont 22.8295 sf 0 0 m (\2550.02) show NC gr 
 gsave  408 306 1837 13 C 1880.27 176.631 t 0 r /Helvetica findfont 22.8295 sf 0 0 m (0) show NC gr 
 gsave  408 306 1837 13 C 1848.93 202.271 t 0 r /Helvetica findfont 22.8295 sf 0 0 m (0.02) show NC gr 
 gsave  408 306 1837 13 C 1848.93 230.76 t 0 r /Helvetica findfont 22.8295 sf 0 0 m (0.04) show NC gr 
 gsave  408 306 1837 13 C 1848.93 256.4 t 0 r /Helvetica findfont 22.8295 sf 0 0 m (0.06) show NC gr  2204 59 m 229 Y s 2199 77 m 5 X s 2201 83 m 3 X s 2201 90 m 3 X s 2201 97 m 3 X s 2199 104 m 5 X s 2201 110 m 3 X s 2201 117 m 3 X s 2201 124 m 3 X
 s 2199 130 m 5 X s 2201 137 m 3 X s 2201 144 m 3 X s 2201 150 m 3 X s 2199 157 m 5 X s 2201 164 m 3 X s 2201 170 m 3 X s 2201 177 m 3 X s 2199 184 m 5 X s 2201 190 m 3 X s 2201 197 m 3 X s 2201 204 m 3 X s 2199 210 m 5 X s 2201 217 m 3 X s 2201 224
 m 3 X s 2201 230 m 3 X s 2199 237 m 5 X s 2201 244 m 3 X s 2201 250 m 3 X s 2201 257 m 3 X s 2199 264 m 5 X s 2199 77 m 5 X s 2201 70 m 3 X s 2201 63 m 3 X s 2199 264 m 5 X s 2201 270 m 3 X s 2201 277 m 3 X s 2201 284 m 3 X s 1923 199 1966 189 2008
 117 2029 200 2071 158 2092 158 2134 227 2176 151 8 { m21} R 1923 211 m 29 Y s 1918 240 m 11 X s 1923 188 m -30 Y s 1918 158 m 11 X s 1966 201 m 29 Y s 1960 230 m 11 X s 1966 178 m -29 Y s 1960 149 m 11 X s 2008 128 m 27 Y s 2002 155 m 11 X s 2008
 105 m -27 Y s 2002 78 m 11 X s 2029 212 m 30 Y s 2023 242 m 11 X s 2029 189 m -30 Y s 2023 159 m 11 X s 2071 169 m 29 Y s 2065 198 m 12 X s 2071 146 m -28 Y s 2065 118 m 12 X s 2092 170 m 28 Y s 2086 198 m 12 X s 2092 147 m -28 Y s 2086 119 m 12 X s
 2134 238 m 31 Y s 2129 269 m 11 X s 2134 215 m -31 Y s 2129 184 m 11 X s 2176 163 m 28 Y s 2171 191 m 11 X s 2176 140 m -28 Y s 2171 112 m 11 X s 9 lw 0.95 0.95 0.95 c black 1900 190 m 15 X 3 -1 d 21 X 3 -1 d 19 X 3 -1 d 18 X 3 -1 d 22 X 3 -1 d 18 X
 3 -1 d 19 X s 2050 184 m 3 X 3 -1 d 18 X 3 -1 d 19 X 3 -1 d 21 X 3 -1 d 18 X 4 -1 d 21 X 3 -1 d 18 X 3 -1 d 10 X s 2200 177 m 3 X s 0.49 0.6 0.82 c black 0.49 0.6 0.82 c
 gsave  408 306 1837 13 C 1948.64 296.285 t 0 r /Helvetica-Bold findfont 25.6831 sf 0 0 m (9.5 < E < 10.0 GeV) show NC gr  0.52 0.76 0.64 c black 0.52 0.76 0.64 c
 gsave  408 306 1837 13 C 1937.25 259.249 t 0 r /Helvetica-Bold findfont 25.6831 sf 0 0 m 
 228 214 200 193 178 171 156 149 134 126 119 105 91 77 69 55 47 39 25 17
(A = \2550.007, p = 1.000) K NC gr  1 0.6 1 c black 1 0.6 1 c
 gsave  408 306 1837 13 C 2242.08 128.2 t 90 r /Helvetica-Bold findfont 28.5368 sf 0 0 m (/dof=0.8) show NC gr  black 1 0.6 1 c
 gsave  408 306 1837 13 C 2230.68 116.804 t 90 r /Helvetica-Bold findfont 19.9758 sf 0 0 m (2) show NC gr  black 1 0.6 1 c
 gsave  408 306 1837 13 C 2242.08 99.7112 t 90 r /Symbol findfont 28.5368 sf 0 0 m (c) show NC gr 
 gr  gr showpage
end
%%EOF
