%!PS-Adobe-2.0 EPSF-2.0
%%BoundingBox:  0 0 567 332
%%Title: DecayPipeOffsetX_near_summary.eps: Summary
%%Creator: ROOT Version 5.30/06
%%CreationDate: Sun Feb  2 09:42:21 2014
%%EndComments
%%BeginProlog
80 dict begin
/s {stroke} def /l {lineto} def /m {moveto} def /t {translate} def
/r {rotate} def /rl {roll}  def /R {repeat} def
/d {rlineto} def /rm {rmoveto} def /gr {grestore} def /f {eofill} def
/c {setrgbcolor} def /black {0 setgray} def /sd {setdash} def
/cl {closepath} def /sf {scalefont setfont} def /lw {setlinewidth} def
/box {m dup 0 exch d exch 0 d 0 exch neg d cl} def
/NC{systemdict begin initclip end}def/C{NC box clip newpath}def
/bl {box s} def /bf {box f} def /Y { 0 exch d} def /X { 0 d} def 
/K {{pop pop 0 moveto} exch kshow} bind def
/ita {/ang 15 def gsave [1 0 ang dup sin exch cos div 1 0 0] concat} def 
/mp {newpath /y exch def /x exch def} def
/side {[w .77 mul w .23 mul] .385 w mul sd w 0 l currentpoint t -144 r} def
/mr {mp x y w2 0 360 arc} def /m24 {mr s} def /m20 {mr f} def
/mb {mp x y w2 add m w2 neg 0 d 0 w neg d w 0 d 0 w d cl} def
/mt {mp x y w2 add m w2 neg w neg d w 0 d cl} def
/m21 {mb f} def /m25 {mb s} def /m22 {mt f} def /m26{mt s} def
/m23 {mp x y w2 sub m w2 w d w neg 0 d cl f} def
/m27 {mp x y w2 add m w3 neg w2 neg d w3 w2 neg d w3 w2 d cl s} def
/m28 {mp x w2 sub y w2 sub w3 add m w3 0 d  0 w3 neg d w3 0 d 0 w3 d w3 0 d  0 w3 d w3 neg 0 d 0 w3 d w3 neg 0 d 0 w3 neg d w3 neg 0 d cl s } def
/m29 {mp gsave x w2 sub y w2 add w3 sub m currentpoint t 4 {side} repeat cl fill gr} def
/m30 {mp gsave x w2 sub y w2 add w3 sub m currentpoint t 4 {side} repeat cl s gr} def
/m31 {mp x y w2 sub m 0 w d x w2 sub y m w 0 d x w2 sub y w2 add m w w neg d x w2 sub y w2 sub m w w d s} def
/m32 {mp x y w2 sub m w2 w d w neg 0 d cl s} def
/m33 {mp x y w2 add m w3 neg w2 neg d w3 w2 neg d w3 w2 d cl f} def
/m34 {mp x w2 sub y w2 sub w3 add m w3 0 d  0 w3 neg d w3 0 d 0 w3 d w3 0 d  0 w3 d w3 neg 0 d 0 w3 d w3 neg 0 d 0 w3 neg d w3 neg 0 d cl f } def
/m2 {mp x y w2 sub m 0 w d x w2 sub y m w 0 d s} def
/m5 {mp x w2 sub y w2 sub m w w d x w2 sub y w2 add m w w neg d s} def
/reEncode {exch findfont dup length dict begin {1 index /FID eq  {pop pop} {def} ifelse } forall /Encoding exch def currentdict end dup /FontName get exch definefont pop } def [/Times-Bold /Times-Italic /Times-BoldItalic /Helvetica /Helvetica-Oblique
 /Helvetica-Bold /Helvetica-BoldOblique /Courier /Courier-Oblique /Courier-Bold /Courier-BoldOblique /Times-Roman /AvantGarde-Book /AvantGarde-BookOblique /AvantGarde-Demi /AvantGarde-DemiOblique /Bookman-Demi /Bookman-DemiItalic /Bookman-Light
 /Bookman-LightItalic /Helvetica-Narrow /Helvetica-Narrow-Bold /Helvetica-Narrow-BoldOblique /Helvetica-Narrow-Oblique /NewCenturySchlbk-Roman /NewCenturySchlbk-Bold /NewCenturySchlbk-BoldItalic /NewCenturySchlbk-Italic /Palatino-Bold
 /Palatino-BoldItalic /Palatino-Italic /Palatino-Roman ] {ISOLatin1Encoding reEncode } forall%%EndProlog
%%BeginSetup
%%EndSetup
newpath  gsave  .25 .25 scale  gsave  0 0 t black[  ] 0 sd 3 lw 1 1 1 c 2268 1328 0 0 bf black 1 1 1 c black 1588 996 340 199 bl 1588 996 340 199 bl 1 1 1 c 1 0 0 c /w 23 def /w2 {w 2 div} def /w3 {w 3 div} def 380 253 m21 459 251 m21 539 251 m21 618
 252 m21 697 255 m21 777 249 m21 856 254 m21 935 253 m21 1015 248 m21 1094 247 m21 1174 252 m21 1253 247 m21 1332 251 m21 1412 243 m21 1491 253 m21 1570 256 m21 1650 250 m21 black 1729 236 m s 1729 259 m 1 Y s 1723 236 m 12 X s 1723 260 m 12 X s 1 0
 0 c 1729 248 m21 black 1809 261 m 1 Y s 1809 285 m 1 Y s 1803 261 m 11 X s 1803 286 m 11 X s 1 0 0 c 1809 273 m21 black 1888 235 m 2 Y s 1888 260 m 2 Y s 1882 235 m 12 X s 1882 262 m 12 X s 1 0 0 c 1888 248 m21 black 340 199 m 1588 X s
 gsave  2268 1328 0 0 C 954.378 68.3734 t 0 r /Helvetica findfont 62.6756 sf 0 0 m ( Energy \(GeV\) ) show NC gr 
 gsave  2268 1328 0 0 C 928.738 51.28 t 0 r /Symbol findfont 42.7334 sf 0 0 m (m) show NC gr 
 gsave  2268 1328 0 0 C 894.552 68.3734 t 0 r /Symbol findfont 62.6756 sf 0 0 m (n) show NC gr  340 216 m -17 Y s 372 208 m -9 Y s 404 208 m -9 Y s 435 208 m -9 Y s 467 208 m -9 Y s 499 216 m -17 Y s 531 208 m -9 Y s 562 208 m -9 Y s 594 208 m -9 Y s
 626 208 m -9 Y s 658 216 m -17 Y s 689 208 m -9 Y s 721 208 m -9 Y s 753 208 m -9 Y s 785 208 m -9 Y s 816 216 m -17 Y s 848 208 m -9 Y s 880 208 m -9 Y s 912 208 m -9 Y s 943 208 m -9 Y s 975 216 m -17 Y s 1007 208 m -9 Y s 1039 208 m -9 Y s 1070
 208 m -9 Y s 1102 208 m -9 Y s 1134 216 m -17 Y s 1166 208 m -9 Y s 1197 208 m -9 Y s 1229 208 m -9 Y s 1261 208 m -9 Y s 1293 216 m -17 Y s 1324 208 m -9 Y s 1356 208 m -9 Y s 1388 208 m -9 Y s 1420 208 m -9 Y s 1451 216 m -17 Y s 1483 208 m -9 Y s
 1515 208 m -9 Y s 1547 208 m -9 Y s 1578 208 m -9 Y s 1610 216 m -17 Y s 1642 208 m -9 Y s 1674 208 m -9 Y s 1705 208 m -9 Y s 1737 208 m -9 Y s 1769 216 m -17 Y s 1801 208 m -9 Y s 1832 208 m -9 Y s 1864 208 m -9 Y s 1896 208 m -9 Y s 1928 216 m
 -17 Y s
 gsave  2268 1328 0 0 C 319.076 136.747 t 0 r /Helvetica findfont 68.3734 sf 0 0 m (0) show NC gr 
 gsave  2268 1328 0 0 C 484.311 136.747 t 0 r /Helvetica findfont 68.3734 sf 0 0 m (1) show NC gr 
 gsave  2268 1328 0 0 C 635.302 136.747 t 0 r /Helvetica findfont 68.3734 sf 0 0 m (2) show NC gr 
 gsave  2268 1328 0 0 C 794.84 136.747 t 0 r /Helvetica findfont 68.3734 sf 0 0 m (3) show NC gr 
 gsave  2268 1328 0 0 C 954.378 136.747 t 0 r /Helvetica findfont 68.3734 sf 0 0 m (4) show NC gr 
 gsave  2268 1328 0 0 C 1113.92 136.747 t 0 r /Helvetica findfont 68.3734 sf 0 0 m (5) show NC gr 
 gsave  2268 1328 0 0 C 1270.6 136.747 t 0 r /Helvetica findfont 68.3734 sf 0 0 m (6) show NC gr 
 gsave  2268 1328 0 0 C 1430.14 136.747 t 0 r /Helvetica findfont 68.3734 sf 0 0 m (7) show NC gr 
 gsave  2268 1328 0 0 C 1589.68 136.747 t 0 r /Helvetica findfont 68.3734 sf 0 0 m (8) show NC gr 
 gsave  2268 1328 0 0 C 1746.37 136.747 t 0 r /Helvetica findfont 68.3734 sf 0 0 m (9) show NC gr 
 gsave  2268 1328 0 0 C 1888.81 136.747 t 0 r /Helvetica findfont 68.3734 sf 0 0 m (10) show NC gr  340 1195 m 1588 X s 340 1178 m 17 Y s 372 1186 m 9 Y s 404 1186 m 9 Y s 435 1186 m 9 Y s 467 1186 m 9 Y s 499 1178 m 17 Y s 531 1186 m 9 Y s 562 1186
 m 9 Y s 594 1186 m 9 Y s 626 1186 m 9 Y s 658 1178 m 17 Y s 689 1186 m 9 Y s 721 1186 m 9 Y s 753 1186 m 9 Y s 785 1186 m 9 Y s 816 1178 m 17 Y s 848 1186 m 9 Y s 880 1186 m 9 Y s 912 1186 m 9 Y s 943 1186 m 9 Y s 975 1178 m 17 Y s 1007 1186 m 9 Y s
 1039 1186 m 9 Y s 1070 1186 m 9 Y s 1102 1186 m 9 Y s 1134 1178 m 17 Y s 1166 1186 m 9 Y s 1197 1186 m 9 Y s 1229 1186 m 9 Y s 1261 1186 m 9 Y s 1293 1178 m 17 Y s 1324 1186 m 9 Y s 1356 1186 m 9 Y s 1388 1186 m 9 Y s 1420 1186 m 9 Y s 1451 1178 m
 17 Y s 1483 1186 m 9 Y s 1515 1186 m 9 Y s 1547 1186 m 9 Y s 1578 1186 m 9 Y s 1610 1178 m 17 Y s 1642 1186 m 9 Y s 1674 1186 m 9 Y s 1705 1186 m 9 Y s 1737 1186 m 9 Y s 1769 1178 m 17 Y s 1801 1186 m 9 Y s 1832 1186 m 9 Y s 1864 1186 m 9 Y s 1896
 1186 m 9 Y s 1928 1178 m 17 Y s 340 199 m 996 Y s
 gsave  2268 1328 0 0 C 170.933 324.773 t 90 r /Helvetica findfont 62.6756 sf 0 0 m (Near Flux Ratio to Nominal) show NC gr  371 252 m -31 X s 355 273 m -15 X s 355 293 m -15 X s 355 314 m -15 X s 355 335 m -15 X s 371 356 m -31 X s 355 377 m -15 X s
 355 398 m -15 X s 355 419 m -15 X s 355 440 m -15 X s 371 461 m -31 X s 355 482 m -15 X s 355 503 m -15 X s 355 524 m -15 X s 355 545 m -15 X s 371 566 m -31 X s 355 587 m -15 X s 355 608 m -15 X s 355 629 m -15 X s 355 650 m -15 X s 371 671 m -31 X
 s 355 692 m -15 X s 355 713 m -15 X s 355 734 m -15 X s 355 755 m -15 X s 371 776 m -31 X s 355 797 m -15 X s 355 818 m -15 X s 355 838 m -15 X s 355 859 m -15 X s 371 880 m -31 X s 355 901 m -15 X s 355 922 m -15 X s 355 943 m -15 X s 355 964 m -15
 X s 371 985 m -31 X s 355 1006 m -15 X s 355 1027 m -15 X s 355 1048 m -15 X s 355 1069 m -15 X s 371 1090 m -31 X s 355 1111 m -15 X s 355 1132 m -15 X s 355 1153 m -15 X s 355 1174 m -15 X s 371 1195 m -31 X s 371 252 m -31 X s 355 231 m -15 X s
 355 210 m -15 X s
 gsave  2268 1328 0 0 C 301.982 225.062 t 0 r /Helvetica findfont 68.3734 sf 0 0 m (1) show NC gr 
 gsave  2268 1328 0 0 C 245.005 330.471 t 0 r /Helvetica findfont 68.3734 sf 0 0 m (1.1) show NC gr 
 gsave  2268 1328 0 0 C 233.609 433.031 t 0 r /Helvetica findfont 68.3734 sf 0 0 m (1.2) show NC gr 
 gsave  2268 1328 0 0 C 233.609 541.289 t 0 r /Helvetica findfont 68.3734 sf 0 0 m (1.3) show NC gr 
 gsave  2268 1328 0 0 C 233.609 643.849 t 0 r /Helvetica findfont 68.3734 sf 0 0 m (1.4) show NC gr 
 gsave  2268 1328 0 0 C 233.609 752.107 t 0 r /Helvetica findfont 68.3734 sf 0 0 m (1.5) show NC gr 
 gsave  2268 1328 0 0 C 233.609 857.516 t 0 r /Helvetica findfont 68.3734 sf 0 0 m (1.6) show NC gr 
 gsave  2268 1328 0 0 C 233.609 957.227 t 0 r /Helvetica findfont 68.3734 sf 0 0 m (1.7) show NC gr 
 gsave  2268 1328 0 0 C 233.609 1065.48 t 0 r /Helvetica findfont 68.3734 sf 0 0 m (1.8) show NC gr 
 gsave  2268 1328 0 0 C 233.609 1170.89 t 0 r /Helvetica findfont 68.3734 sf 0 0 m (1.9) show NC gr  1928 199 m 996 Y s 1897 252 m 31 X s 1912 273 m 16 X s 1912 293 m 16 X s 1912 314 m 16 X s 1912 335 m 16 X s 1897 356 m 31 X s 1912 377 m 16 X s 1912
 398 m 16 X s 1912 419 m 16 X s 1912 440 m 16 X s 1897 461 m 31 X s 1912 482 m 16 X s 1912 503 m 16 X s 1912 524 m 16 X s 1912 545 m 16 X s 1897 566 m 31 X s 1912 587 m 16 X s 1912 608 m 16 X s 1912 629 m 16 X s 1912 650 m 16 X s 1897 671 m 31 X s
 1912 692 m 16 X s 1912 713 m 16 X s 1912 734 m 16 X s 1912 755 m 16 X s 1897 776 m 31 X s 1912 797 m 16 X s 1912 818 m 16 X s 1912 838 m 16 X s 1912 859 m 16 X s 1897 880 m 31 X s 1912 901 m 16 X s 1912 922 m 16 X s 1912 943 m 16 X s 1912 964 m 16 X
 s 1897 985 m 31 X s 1912 1006 m 16 X s 1912 1027 m 16 X s 1912 1048 m 16 X s 1912 1069 m 16 X s 1897 1090 m 31 X s 1912 1111 m 16 X s 1912 1132 m 16 X s 1912 1153 m 16 X s 1912 1174 m 16 X s 1897 1195 m 31 X s 1897 252 m 31 X s 1912 231 m 16 X s
 1912 210 m 16 X s 1 0 0 c 6 lw 1 1 1 c 1 0 0 c 380 252 m 181 X 33 -1 d 53 X 31 1 d 286 X 19 -1 d 51 X 6 1 d 182 X 8 -1 d 56 X 15 1 d 127 X 7 -1 d 318 X 4 1 d 129 X 1 -1 d 1 X s 3 lw /w 2 def /w2 {w 2 div} def /w3 {w 3 div} def 380 252 459 252 539
 252 618 251 697 252 777 252 856 252 935 252 1015 251 1094 252 1174 252 1253 251 1332 252 1412 252 1491 251 1570 251 1650 251 1729 251 1809 252 1888 251 20 { m20} R 6 lw black 1 0 0 c
 gsave  2268 1328 0 0 C 2036.96 227.911 t 0 r /Helvetica-Bold findfont 48.4311 sf 0 0 m (/dof=0.9) show NC gr  black 1 0 0 c
 gsave  2268 1328 0 0 C 2017.01 245.005 t 0 r /Helvetica-Bold findfont 34.1867 sf 0 0 m (2) show NC gr  black 1 0 0 c
 gsave  2268 1328 0 0 C 1991.37 227.911 t 0 r /Symbol findfont 48.4311 sf 0 0 m (c) show NC gr  black 3 lw 340 252 m 1588 X s
 gsave  2268 1328 0 0 C 170.933 1213.63 t 0 r /Helvetica-Bold findfont 42.7334 sf 0 0 m (20 ) show NC gr  1 0 0 c /w 23 def /w2 {w 2 div} def /w3 {w 3 div} def 131 1228 m21 black 1 1 1 c 0 0 1 c 380 356 m21 459 356 m21 539 358 m21 618 353 m21 697 352
 m21 777 356 m21 856 356 m21 935 355 m21 1015 354 m21 1094 359 m21 1174 355 m21 1253 362 m21 1332 361 m21 1412 355 m21 black 1491 359 m 1 Y s 1491 383 m 1 Y s 1485 359 m 12 X s 1485 384 m 12 X s 0 0 1 c 1491 371 m21 black 1570 367 m 1 Y s 1570 391 m
 s 1565 367 m 11 X s 1565 391 m 11 X s 0 0 1 c 1570 379 m21 black 1650 333 m 1 Y s 1650 357 m 1 Y s 1644 333 m 11 X s 1644 358 m 11 X s 0 0 1 c 1650 345 m21 black 1729 330 m 1 Y s 1729 354 m 2 Y s 1723 330 m 12 X s 1723 356 m 12 X s 0 0 1 c 1729 343
 m21 black 1809 354 m 2 Y s 1809 379 m 3 Y s 1803 354 m 11 X s 1803 382 m 11 X s 0 0 1 c 1809 368 m21 black 1888 313 m 3 Y s 1888 339 m 2 Y s 1882 313 m 12 X s 1882 341 m 12 X s 0 0 1 c 1888 327 m21 6 lw 1 1 1 c 0 0 1 c 380 356 m 685 X 7 1 d 64 X 38
 -1 d 587 X 9 1 d 109 X 3 -1 d 6 X s 3 lw /w 2 def /w2 {w 2 div} def /w3 {w 3 div} def 380 356 459 356 539 356 618 356 697 356 777 356 856 356 935 356 1015 356 1094 357 1174 356 1253 356 1332 356 1412 356 1491 356 1570 356 1650 356 1729 356 1809 357
 1888 356 20 { m20} R 6 lw black 0 0 1 c
 gsave  2268 1328 0 0 C 2036.96 339.018 t 0 r /Helvetica-Bold findfont 48.4311 sf 0 0 m (/dof=1.4) show NC gr  black 0 0 1 c
 gsave  2268 1328 0 0 C 2017.01 356.111 t 0 r /Helvetica-Bold findfont 34.1867 sf 0 0 m (2) show NC gr  black 0 0 1 c
 gsave  2268 1328 0 0 C 1991.37 339.018 t 0 r /Symbol findfont 48.4311 sf 0 0 m (c) show NC gr  black 3 lw 340 356 m 1588 X s
 gsave  2268 1328 0 0 C 373.205 1213.63 t 0 r /Helvetica-Bold findfont 42.7334 sf 0 0 m (40 ) show NC gr  0 0 1 c /w 23 def /w2 {w 2 div} def /w3 {w 3 div} def 332 1228 m21 black 1 1 1 c 1 0 1 c 380 462 m21 459 460 m21 539 461 m21 618 461 m21 697 460
 m21 777 459 m21 856 460 m21 935 466 m21 1015 460 m21 1094 472 m21 1174 469 m21 1253 474 m21 1332 457 m21 1412 458 m21 black 1491 440 m s 1491 463 m s 1485 440 m 12 X s 1485 463 m 12 X s 1 0 1 c 1491 452 m21 black 1570 439 m 1 Y s 1570 463 m 1 Y s
 1565 439 m 11 X s 1565 464 m 11 X s 1 0 1 c 1570 451 m21 black 1650 411 m 2 Y s 1650 436 m 2 Y s 1644 411 m 11 X s 1644 438 m 11 X s 1 0 1 c 1650 425 m21 black 1729 436 m 3 Y s 1729 461 m 3 Y s 1723 436 m 12 X s 1723 464 m 12 X s 1 0 1 c 1729 450
 m21 black 1809 475 m 4 Y s 1809 502 m 4 Y s 1803 475 m 11 X s 1803 506 m 11 X s 1 0 1 c 1809 491 m21 black 1888 442 m 4 Y s 1888 469 m 4 Y s 1882 442 m 12 X s 1882 473 m 12 X s 1 0 1 c 1888 457 m21 6 lw 1 1 1 c 1 0 1 c 380 461 m 697 X 6 1 d 53 X 38
 -1 d 302 X 5 -1 d 39 X 16 1 d 50 X 7 -1 d 145 X 3 1 d 20 X 9 1 d 15 X 3 1 d 55 X 3 -1 d 31 X 2 -1 d 9 X s 3 lw /w 2 def /w2 {w 2 div} def /w3 {w 3 div} def 380 461 459 461 539 461 618 461 697 461 777 461 856 461 935 461 1015 461 1094 462 1174 461
 1253 461 1332 461 1412 461 1491 460 1570 461 1650 460 1729 460 1809 463 1888 461 20 { m20} R 6 lw black 1 0 1 c
 gsave  2268 1328 0 0 C 2036.96 450.125 t 0 r /Helvetica-Bold findfont 48.4311 sf 0 0 m (/dof=1.3) show NC gr  black 1 0 1 c
 gsave  2268 1328 0 0 C 2017.01 467.218 t 0 r /Helvetica-Bold findfont 34.1867 sf 0 0 m (2) show NC gr  black 1 0 1 c
 gsave  2268 1328 0 0 C 1991.37 450.125 t 0 r /Symbol findfont 48.4311 sf 0 0 m (c) show NC gr  black 3 lw 340 461 m 1588 X s
 gsave  2268 1328 0 0 C 575.476 1213.63 t 0 r /Helvetica-Bold findfont 42.7334 sf 0 0 m (60 ) show NC gr  1 0 1 c /w 23 def /w2 {w 2 div} def /w3 {w 3 div} def 534 1228 m21 black 1 1 1 c 0 0.733333 1 c 380 565 m21 459 567 m21 539 565 m21 618 563 m21
 697 566 m21 777 565 m21 856 568 m21 935 570 m21 1015 564 m21 1094 574 m21 1174 566 m21 1253 566 m21 1332 567 m21 black 1412 569 m 1 Y s 1412 592 m 1 Y s 1406 569 m 11 X s 1406 593 m 11 X s 0 0.733333 1 c 1412 581 m21 black 1491 559 m 1 Y s 1491 583
 m 2 Y s 1485 559 m 12 X s 1485 585 m 12 X s 0 0.733333 1 c 1491 572 m21 black 1570 541 m 2 Y s 1570 566 m 2 Y s 1565 541 m 11 X s 1565 568 m 11 X s 0 0.733333 1 c 1570 554 m21 black 1650 548 m 3 Y s 1650 574 m 3 Y s 1644 548 m 11 X s 1644 577 m 11 X
 s 0 0.733333 1 c 1650 562 m21 black 1729 548 m 4 Y s 1729 574 m 5 Y s 1723 548 m 12 X s 1723 579 m 12 X s 0 0.733333 1 c 1729 563 m21 black 1809 551 m 5 Y s 1809 579 m 5 Y s 1803 551 m 11 X s 1803 584 m 11 X s 0 0.733333 1 c 1809 567 m21 black 1888
 514 m 6 Y s 1888 542 m 6 Y s 1882 514 m 12 X s 1882 548 m 12 X s 0 0.733333 1 c 1888 531 m21 6 lw 1 1 1 c 0 0.733333 1 c 380 566 m 79 X 49 -1 d 189 X 25 1 d 355 X 6 1 d 53 X 38 -1 d 272 X 16 -1 d 162 X 7 -1 d 87 X 5 1 d 27 X 3 1 d 8 X 9 1 d 7 X 3 1
 d 77 X 4 -1 d 16 X 2 -1 d 8 X 1 -1 d s 3 lw /w 2 def /w2 {w 2 div} def /w3 {w 3 div} def 380 566 459 566 539 565 618 565 697 565 777 566 856 566 935 566 1015 566 1094 567 1174 566 1253 566 1332 566 1412 566 1491 565 1570 565 1650 564 1729 565 1809
 568 1888 565 20 { m20} R 6 lw black 0 0.733333 1 c
 gsave  2268 1328 0 0 C 2036.96 558.382 t 0 r /Helvetica-Bold findfont 48.4311 sf 0 0 m (/dof=0.8) show NC gr  black 0 0.733333 1 c
 gsave  2268 1328 0 0 C 2017.01 575.476 t 0 r /Helvetica-Bold findfont 34.1867 sf 0 0 m (2) show NC gr  black 0 0.733333 1 c
 gsave  2268 1328 0 0 C 1991.37 558.382 t 0 r /Symbol findfont 48.4311 sf 0 0 m (c) show NC gr  black 3 lw 340 566 m 1588 X s
 gsave  2268 1328 0 0 C 777.747 1213.63 t 0 r /Helvetica-Bold findfont 42.7334 sf 0 0 m (80 ) show NC gr  0 0.733333 1 c /w 23 def /w2 {w 2 div} def /w3 {w 3 div} def 735 1228 m21 black 1 1 1 c 0.35 0.83 0.33 c 380 671 m21 459 669 m21 539 669 m21 618
 665 m21 697 669 m21 777 671 m21 856 674 m21 935 670 m21 1015 669 m21 1094 677 m21 1174 671 m21 1253 660 m21 1332 686 m21 black 1412 655 m 1 Y s 1412 679 m 1 Y s 1406 655 m 11 X s 1406 680 m 11 X s 0.35 0.83 0.33 c 1412 667 m21 black 1491 658 m 3 Y s
 1491 683 m 3 Y s 1485 658 m 12 X s 1485 686 m 12 X s 0.35 0.83 0.33 c 1491 672 m21 black 1570 653 m 4 Y s 1570 679 m 4 Y s 1565 653 m 11 X s 1565 683 m 11 X s 0.35 0.83 0.33 c 1570 668 m21 black 1650 662 m 4 Y s 1650 689 m 5 Y s 1644 662 m 11 X s
 1644 694 m 11 X s 0.35 0.83 0.33 c 1650 678 m21 black 1729 613 m 5 Y s 1729 641 m 5 Y s 1723 613 m 12 X s 1723 646 m 12 X s 0.35 0.83 0.33 c 1729 629 m21 black 1809 689 m 7 Y s 1809 719 m 7 Y s 1803 689 m 11 X s 1803 726 m 11 X s 0.35 0.83 0.33 c
 1809 708 m21 black 1888 642 m 7 Y s 1888 672 m 7 Y s 1882 642 m 12 X s 1882 679 m 12 X s 0.35 0.83 0.33 c 1888 660 m21 6 lw 1 1 1 c 0.35 0.83 0.33 c 380 671 m 44 -1 d 131 X 19 -1 d 78 X 15 1 d 86 X 13 1 d 198 X 19 -1 d 51 X 6 1 d 37 X 6 1 d 53 X 38
 -1 d 24 X 23 -1 d 64 X 15 1 d 129 X 7 -1 d 44 X 5 -1 d 35 X 16 1 d 50 X 7 -1 d 145 X 3 1 d 12 X 4 1 d 4 X 9 1 d 4 X 3 1 d 11 X 2 1 d 49 X 4 -1 d 21 X 4 -1 d 9 X 2 -1 d 7 X 1 -1 d 1 X s 3 lw /w 2 def /w2 {w 2 div} def /w3 {w 3 div} def 380 671 459
 670 539 670 618 669 697 670 777 671 856 671 935 671 1015 670 1094 672 1174 671 1253 670 1332 671 1412 671 1491 669 1570 670 1650 669 1729 669 1809 674 1888 670 20 { m20} R 6 lw black 0.35 0.83 0.33 c
 gsave  2268 1328 0 0 C 2036.96 669.489 t 0 r /Helvetica-Bold findfont 48.4311 sf 0 0 m (/dof=1.0) show NC gr  black 0.35 0.83 0.33 c
 gsave  2268 1328 0 0 C 2017.01 686.583 t 0 r /Helvetica-Bold findfont 34.1867 sf 0 0 m (2) show NC gr  black 0.35 0.83 0.33 c
 gsave  2268 1328 0 0 C 1991.37 669.489 t 0 r /Symbol findfont 48.4311 sf 0 0 m (c) show NC gr  black 3 lw 340 671 m 1588 X s
 gsave  2268 1328 0 0 C 977.169 1213.63 t 0 r /Helvetica-Bold findfont 42.7334 sf 0 0 m (100 ) show NC gr  0.35 0.83 0.33 c /w 23 def /w2 {w 2 div} def /w3 {w 3 div} def 937 1228 m21 black 1 1 1 c 0.53 0.4 0.34 c 380 773 m21 459 774 m21 539 768 m21
 618 750 m21 697 771 m21 777 772 m21 856 775 m21 935 778 m21 1015 770 m21 1094 782 m21 1174 785 m21 1253 780 m21 black 1332 754 m s 1332 777 m 1 Y s 1327 754 m 11 X s 1327 778 m 11 X s 0.53 0.4 0.34 c 1332 766 m21 black 1412 770 m 2 Y s 1412 795 m 2
 Y s 1406 770 m 11 X s 1406 797 m 11 X s 0.53 0.4 0.34 c 1412 783 m21 black 1491 757 m 4 Y s 1491 783 m 4 Y s 1485 757 m 12 X s 1485 787 m 12 X s 0.53 0.4 0.34 c 1491 772 m21 black 1570 763 m 5 Y s 1570 791 m 5 Y s 1565 763 m 11 X s 1565 796 m 11 X s
 0.53 0.4 0.34 c 1570 780 m21 black 1650 743 m 6 Y s 1650 772 m 6 Y s 1644 743 m 11 X s 1644 778 m 11 X s 0.53 0.4 0.34 c 1650 760 m21 black 1729 742 m 7 Y s 1729 771 m 7 Y s 1723 742 m 12 X s 1723 778 m 12 X s 0.53 0.4 0.34 c 1729 760 m21 black 1809
 755 m 8 Y s 1809 786 m 8 Y s 1803 755 m 11 X s 1803 794 m 11 X s 0.53 0.4 0.34 c 1809 774 m21 black 1888 777 m 9 Y s 1888 809 m 9 Y s 1882 777 m 12 X s 1882 818 m 12 X s 0.53 0.4 0.34 c 1888 798 m21 6 lw 1 1 1 c 0.53 0.4 0.34 c 380 774 m 31 -1 d 33
 -2 d 15 -1 d 25 -1 d 23 -1 d 12 -1 d 11 -1 d 9 X 5 -1 d 6 X 7 -1 d 30 -4 d 5 X 6 -1 d 10 X 4 -1 d 6 X 4 1 d 14 X 5 1 d 5 X 7 1 d 9 2 d 16 2 d 6 1 d 5 1 d 8 X 20 2 d 14 1 d 12 1 d 11 1 d 9 1 d 9 X 5 1 d 18 X 10 1 d 51 X 32 1 d 62 X 10 -1 d 27 -1 d 45
 X 7 1 d 9 X 19 2 d 9 1 d 65 X 33 -1 d 8 X 11 -1 d 32 -2 d 48 X 9 1 d 15 X 14 1 d 7 X 7 1 d 65 X 12 -1 d 16 X 8 -1 d 11 -1 d 30 -2 d 8 X 6 -1 d 39 X 15 1 d 57 X 8 -1 d 27 -2 d 23 X 24 -1 d 31 X 6 1 d 11 X 5 1 d 5 X 4 1 d 3 X 4 1 d 4 1 d 4 1 d 6 1 d 6
 2 d 9 3 d 5 1 d 5 2 d 4 X 3 1 d 3 1 d 7 X 3 1 d 25 X 5 -1 d 4 X 5 -1 d 4 X 5 -1 d 4 X 4 -1 d 5 -1 d 4 -1 d 3 -1 d 5 -1 d 3 -1 d 4 -1 d 3 -1 d 3 -2 d s 3 lw /w 2 def /w2 {w 2 div} def /w3 {w 3 div} def 380 774 459 770 539 766 618 758 697 767 777 774
 856 775 935 776 1015 774 1094 778 1174 777 1253 774 1332 777 1412 776 1491 771 1570 772 1650 769 1729 770 1809 786 1888 773 20 { m20} R 6 lw black 0.53 0.4 0.34 c
 gsave  2268 1328 0 0 C 2036.96 780.596 t 0 r /Helvetica-Bold findfont 48.4311 sf 0 0 m (/dof=1.8) show NC gr  black 0.53 0.4 0.34 c
 gsave  2268 1328 0 0 C 2017.01 797.689 t 0 r /Helvetica-Bold findfont 34.1867 sf 0 0 m (2) show NC gr  black 0.53 0.4 0.34 c
 gsave  2268 1328 0 0 C 1991.37 780.596 t 0 r /Symbol findfont 48.4311 sf 0 0 m (c) show NC gr  black 3 lw 340 776 m 1588 X s
 gsave  2268 1328 0 0 C 1179.44 1213.63 t 0 r /Helvetica-Bold findfont 42.7334 sf 0 0 m (300 ) show NC gr  0.53 0.4 0.34 c /w 23 def /w2 {w 2 div} def /w3 {w 3 div} def 1139 1228 m21 black 1 1 1 c black 380 877 m21 459 865 m21 539 853 m21 618 818 m21
 697 872 m21 777 882 m21 856 879 m21 935 880 m21 1015 877 m21 1094 880 m21 1174 882 m21 1253 862 m 1 Y s 1253 886 m 1 Y s 1247 862 m 12 X s 1247 887 m 12 X s 1253 875 m21 1332 869 m 4 Y s 1332 896 m 3 Y s 1327 869 m 11 X s 1327 899 m 11 X s 1332 884
 m21 1412 843 m 5 Y s 1412 871 m 5 Y s 1406 843 m 11 X s 1406 876 m 11 X s 1412 860 m21 1491 872 m 7 Y s 1491 902 m 7 Y s 1485 872 m 12 X s 1485 909 m 12 X s 1491 890 m21 1570 827 m 8 Y s 1570 858 m 8 Y s 1565 827 m 11 X s 1565 866 m 11 X s 1570 846
 m21 1650 821 m 9 Y s 1650 853 m 10 Y s 1644 821 m 11 X s 1644 863 m 11 X s 1650 842 m21 1729 847 m 11 Y s 1729 880 m 11 Y s 1723 847 m 12 X s 1723 891 m 12 X s 1729 869 m21 1809 927 m 13 Y s 1809 963 m 13 Y s 1803 927 m 11 X s 1803 976 m 11 X s 1809
 952 m21 1888 842 m 13 Y s 1888 878 m 13 Y s 1882 842 m 12 X s 1882 891 m 12 X s 1888 866 m21 6 lw 1 1 1 c black 380 877 m 30 -5 d 30 -4 d 19 -3 d 25 -4 d 21 -4 d 12 -2 d 10 -1 d 12 -3 d 5 -1 d 5 -2 d 6 -2 d 8 -2 d 18 -7 d 6 -2 d 5 -2 d 5 -1 d 5 -1 d
 4 -1 d 21 X 4 1 d 4 1 d 4 1 d 5 2 d 6 2 d 6 2 d 11 5 d 11 5 d 6 2 d 5 2 d 5 2 d 3 1 d 19 5 d 13 4 d 11 3 d 12 2 d 9 2 d 8 2 d 8 1 d 8 1 d 8 1 d 11 1 d 10 X 15 1 d 27 1 d 20 1 d 68 X 9 -1 d 20 -1 d 13 -1 d 9 -1 d 26 X 7 1 d 8 1 d 9 1 d 25 3 d 8 1 d 6
 1 d 10 X 9 1 d 9 X 11 -1 d 13 X 38 -2 d 9 -1 d 11 -1 d 32 -3 d 9 X 7 -1 d 17 X 8 1 d 8 X 12 2 d 21 2 d 8 1 d 7 1 d 42 X 13 -1 d 17 -1 d 17 -1 d 8 X 10 -2 d 19 -2 d 17 -2 d 8 -1 d 8 -1 d 7 X 2 -1 d 15 X 10 1 d 17 1 d 15 X 8 1 d 14 X 8 -1 d 9 X 11 -1
 d 32 -4 d 8 -1 d 12 X 29 -1 d 19 X 8 1 d 7 X 6 1 d 6 1 d 4 X 4 1 d 5 2 d 4 1 d 5 2 d 5 2 d 7 4 d 15 7 d 5 2 d 4 2 d 5 2 d 4 1 d 4 1 d 4 1 d 3 X 4 1 d 12 X 5 -1 d 5 X 5 -1 d 5 -1 d 6 -1 d 5 -1 d 5 -2 d 5 -2 d 5 -1 d 5 -3 d 5 -2 d 5 -3 d 4 -2 d 4 -2 d
 s 3 lw /w 2 def /w2 {w 2 div} def /w3 {w 3 div} def 380 877 459 865 539 851 618 830 697 856 777 875 856 880 935 881 1015 877 1094 885 1174 883 1253 877 1332 884 1412 881 1491 872 1570 875 1650 868 1729 870 1809 899 1888 877 20 { m20} R 6 lw
 gsave  2268 1328 0 0 C 2039.81 891.703 t 0 r /Helvetica-Bold findfont 48.4311 sf 0 0 m (/dof=4.1) show NC gr 
 gsave  2268 1328 0 0 C 2019.86 908.796 t 0 r /Helvetica-Bold findfont 34.1867 sf 0 0 m (2) show NC gr 
 gsave  2268 1328 0 0 C 1994.22 891.703 t 0 r /Symbol findfont 48.4311 sf 0 0 m (c) show NC gr  3 lw 340 880 m 1588 X s
 gsave  2268 1328 0 0 C 1381.71 1213.63 t 0 r /Helvetica-Bold findfont 42.7334 sf 0 0 m (500 ) show NC gr  /w 23 def /w2 {w 2 div} def /w3 {w 3 div} def 1340 1228 m21 1 1 1 c 0.48 0 1 c 380 978 m21 459 957 m21 539 926 m21 618 875 m21 697 941 m21 777
 982 m21 856 985 m21 935 987 m21 1015 974 m21 1094 989 m21 1174 984 m21 1253 973 m21 black 1332 977 m 2 Y s 1332 1001 m 3 Y s 1327 977 m 11 X s 1327 1004 m 11 X s 0.48 0 1 c 1332 990 m21 black 1412 981 m 4 Y s 1412 1008 m 4 Y s 1406 981 m 11 X s 1406
 1012 m 11 X s 0.48 0 1 c 1412 996 m21 black 1491 934 m 5 Y s 1491 962 m 5 Y s 1485 934 m 12 X s 1485 967 m 12 X s 0.48 0 1 c 1491 950 m21 black 1570 965 m 6 Y s 1570 994 m 6 Y s 1565 965 m 11 X s 1565 1000 m 11 X s 0.48 0 1 c 1570 982 m21 black 1650
 950 m 7 Y s 1650 980 m 7 Y s 1644 950 m 11 X s 1644 987 m 11 X s 0.48 0 1 c 1650 968 m21 black 1729 955 m 9 Y s 1729 986 m 9 Y s 1723 955 m 12 X s 1723 995 m 12 X s 0.48 0 1 c 1729 975 m21 black 1809 964 m 10 Y s 1809 997 m 10 Y s 1803 964 m 11 X s
 1803 1007 m 11 X s 0.48 0 1 c 1809 985 m21 black 1888 972 m 11 Y s 1888 1006 m 11 Y s 1882 972 m 12 X s 1882 1017 m 12 X s 0.48 0 1 c 1888 994 m21 6 lw 1 1 1 c 0.48 0 1 c 380 977 m 29 -8 d 29 -10 d 21 -7 d 25 -8 d 17 -5 d 13 -5 d 10 -4 d 10 -4 d 5
 -2 d 4 -2 d 6 -3 d 6 -4 d 8 -6 d 18 -15 d 5 -4 d 5 -3 d 5 -2 d 5 -2 d 4 -2 d 4 -1 d 4 -1 d 5 X 4 1 d 4 1 d 4 1 d 4 2 d 4 2 d 5 3 d 5 4 d 6 4 d 6 6 d 17 16 d 6 5 d 5 4 d 5 4 d 4 2 d 19 11 d 12 7 d 11 6 d 10 5 d 9 4 d 8 3 d 8 3 d 3 X 7 3 d 9 2 d 10 1
 d 10 2 d 13 1 d 30 2 d 17 1 d 17 1 d 17 1 d 17 X 11 -1 d 10 X 12 -1 d 35 -4 d 8 -1 d 15 X 7 1 d 8 1 d 10 1 d 17 4 d 15 3 d 8 1 d 7 1 d 7 1 d 22 X 12 -1 d 46 -3 d 10 -2 d 18 -2 d 20 -3 d 11 -1 d 8 X 8 -1 d 4 X 7 1 d 8 1 d 10 1 d 17 4 d 14 3 d 8 1 d 7
 1 d 7 1 d 22 X 12 -1 d 15 -1 d 32 -4 d 10 -2 d 12 -2 d 34 -7 d 9 -1 d 8 -1 d 6 -1 d 17 X 10 1 d 17 1 d 15 1 d 10 1 d 10 X 9 -1 d 71 -9 d 31 -2 d 11 X 8 1 d 10 1 d 7 1 d 6 1 d 6 1 d 5 2 d 4 2 d 5 2 d 6 4 d 7 5 d 19 13 d 6 5 d 6 3 d 4 2 d 5 2 d 4 1 d
 4 1 d 4 1 d 6 X 6 -1 d 6 X 6 -1 d 5 -2 d 6 -2 d 6 -2 d 6 -3 d 6 -2 d 5 -4 d 6 -3 d 6 -5 d 5 -4 d 5 -5 d s 3 lw /w 2 def /w2 {w 2 div} def /w3 {w 3 div} def 380 977 459 952 539 924 618 879 697 934 777 973 856 984 935 986 1015 980 1094 993 1174 989
 1253 980 1332 993 1412 987 1491 973 1570 977 1650 967 1729 970 1809 1013 1888 979 20 { m20} R 6 lw black 0.48 0 1 c
 gsave  2268 1328 0 0 C 2036.96 1002.81 t 0 r /Helvetica-Bold findfont 48.4311 sf 0 0 m (/dof=1.8) show NC gr  black 0.48 0 1 c
 gsave  2268 1328 0 0 C 2017.01 1019.9 t 0 r /Helvetica-Bold findfont 34.1867 sf 0 0 m (2) show NC gr  black 0.48 0 1 c
 gsave  2268 1328 0 0 C 1991.37 1002.81 t 0 r /Symbol findfont 48.4311 sf 0 0 m (c) show NC gr  black 3 lw 340 985 m 1588 X s
 gsave  2268 1328 0 0 C 1583.98 1213.63 t 0 r /Helvetica-Bold findfont 42.7334 sf 0 0 m (700 ) show NC gr  0.48 0 1 c /w 23 def /w2 {w 2 div} def /w3 {w 3 div} def 1542 1228 m21 black 1 1 1 c 1 0.373333 0 c 380 1076 m21 459 1029 m21 539 982 m21 618
 911 m21 697 993 m21 777 1063 m21 856 1088 m21 935 1090 m21 1015 1091 m21 1094 1102 m21 1174 1095 m21 black 1253 1076 m 1 Y s 1253 1099 m 1 Y s 1247 1076 m 12 X s 1247 1100 m 12 X s 1 0.373333 0 c 1253 1088 m21 black 1332 1092 m 3 Y s 1332 1118 m 3 Y
 s 1327 1092 m 11 X s 1327 1121 m 11 X s 1 0.373333 0 c 1332 1106 m21 black 1412 1076 m 5 Y s 1412 1103 m 5 Y s 1406 1076 m 11 X s 1406 1108 m 11 X s 1 0.373333 0 c 1412 1092 m21 black 1491 1067 m 6 Y s 1491 1096 m 6 Y s 1485 1067 m 12 X s 1485 1102
 m 12 X s 1 0.373333 0 c 1491 1084 m21 black 1570 1066 m 7 Y s 1570 1096 m 8 Y s 1565 1066 m 11 X s 1565 1104 m 11 X s 1 0.373333 0 c 1570 1085 m21 black 1650 1061 m 9 Y s 1650 1093 m 9 Y s 1644 1061 m 11 X s 1644 1102 m 11 X s 1 0.373333 0 c 1650
 1082 m21 black 1729 1057 m 10 Y s 1729 1090 m 10 Y s 1723 1057 m 12 X s 1723 1100 m 12 X s 1 0.373333 0 c 1729 1079 m21 black 1809 1100 m 12 Y s 1809 1135 m 12 Y s 1803 1100 m 11 X s 1803 1147 m 11 X s 1 0.373333 0 c 1809 1123 m21 black 1888 1051 m
 12 Y s 1888 1086 m 12 Y s 1882 1051 m 12 X s 1882 1098 m 12 X s 1 0.373333 0 c 1888 1074 m21 6 lw 1 1 1 c 1 0.373333 0 c 380 1076 m 29 -15 d 27 -15 d 23 -14 d 25 -14 d 17 -9 d 13 -8 d 10 -7 d 9 -7 d 6 -4 d 4 -4 d 5 -5 d 6 -7 d 8 -10 d 20 -27 d 5 -6
 d 5 -6 d 4 -4 d 4 -3 d 5 -3 d 4 -2 d 3 -1 d 10 X 4 2 d 4 2 d 4 3 d 4 4 d 4 5 d 5 6 d 6 8 d 6 10 d 18 29 d 6 9 d 5 7 d 5 6 d 4 5 d 19 19 d 13 13 d 11 10 d 10 8 d 9 7 d 7 5 d 8 5 d 3 1 d 7 4 d 8 3 d 10 4 d 10 2 d 12 2 d 32 4 d 15 2 d 17 1 d 18 1 d 29
 X 11 -1 d 12 -2 d 34 -5 d 10 -1 d 13 X 8 1 d 9 2 d 10 2 d 28 8 d 11 2 d 9 2 d 4 X 11 1 d 12 -1 d 15 -1 d 42 -4 d 11 -2 d 22 -4 d 18 -4 d 10 -1 d 8 -1 d 10 X 7 1 d 8 2 d 10 2 d 17 6 d 15 5 d 8 2 d 7 2 d 7 X 10 1 d 11 -1 d 11 -1 d 15 -2 d 33 -7 d 79
 -19 d 19 X 14 1 d 24 3 d 22 X 10 -1 d 70 -12 d 34 -2 d 11 X 9 1 d 9 1 d 7 2 d 7 2 d 2 1 d 5 2 d 5 3 d 6 4 d 7 6 d 9 9 d 14 14 d 8 7 d 5 4 d 6 3 d 4 3 d 5 1 d 4 1 d 14 X 7 -1 d 6 -2 d 7 -3 d 7 -3 d 6 -4 d 7 -5 d 6 -5 d 7 -6 d 6 -6 d 6 -8 d 2 -2 d s 3
 lw /w 2 def /w2 {w 2 div} def /w3 {w 3 div} def 380 1076 459 1032 539 983 618 905 697 1001 777 1069 856 1088 935 1092 1015 1083 1094 1100 1174 1095 1253 1083 1332 1103 1412 1093 1491 1074 1570 1078 1650 1065 1729 1070 1809 1127 1888 1082 20 { m20} R
 6 lw black 1 0.373333 0 c
 gsave  2268 1328 0 0 C 2036.96 1113.92 t 0 r /Helvetica-Bold findfont 48.4311 sf 0 0 m (/dof=1.7) show NC gr  black 1 0.373333 0 c
 gsave  2268 1328 0 0 C 2017.01 1131.01 t 0 r /Helvetica-Bold findfont 34.1867 sf 0 0 m (2) show NC gr  black 1 0.373333 0 c
 gsave  2268 1328 0 0 C 1991.37 1113.92 t 0 r /Symbol findfont 48.4311 sf 0 0 m (c) show NC gr  black 3 lw 340 1090 m 1588 X s
 gsave  2268 1328 0 0 C 1783.41 1213.63 t 0 r /Helvetica-Bold findfont 42.7334 sf 0 0 m (900 ) show NC gr  1 0.373333 0 c /w 23 def /w2 {w 2 div} def /w3 {w 3 div} def 1743 1228 m21
 gr  gr showpage
end
%%EOF
