%!PS-Adobe-2.0 EPSF-2.0
%%BoundingBox:  0 0 567 332
%%Title: DecayPipeOffsetX_nof_summary.eps: Summary
%%Creator: ROOT Version 5.30/06
%%CreationDate: Sun Feb  2 09:31:34 2014
%%EndComments
%%BeginProlog
80 dict begin
/s {stroke} def /l {lineto} def /m {moveto} def /t {translate} def
/r {rotate} def /rl {roll}  def /R {repeat} def
/d {rlineto} def /rm {rmoveto} def /gr {grestore} def /f {eofill} def
/c {setrgbcolor} def /black {0 setgray} def /sd {setdash} def
/cl {closepath} def /sf {scalefont setfont} def /lw {setlinewidth} def
/box {m dup 0 exch d exch 0 d 0 exch neg d cl} def
/NC{systemdict begin initclip end}def/C{NC box clip newpath}def
/bl {box s} def /bf {box f} def /Y { 0 exch d} def /X { 0 d} def 
/K {{pop pop 0 moveto} exch kshow} bind def
/ita {/ang 15 def gsave [1 0 ang dup sin exch cos div 1 0 0] concat} def 
/mp {newpath /y exch def /x exch def} def
/side {[w .77 mul w .23 mul] .385 w mul sd w 0 l currentpoint t -144 r} def
/mr {mp x y w2 0 360 arc} def /m24 {mr s} def /m20 {mr f} def
/mb {mp x y w2 add m w2 neg 0 d 0 w neg d w 0 d 0 w d cl} def
/mt {mp x y w2 add m w2 neg w neg d w 0 d cl} def
/m21 {mb f} def /m25 {mb s} def /m22 {mt f} def /m26{mt s} def
/m23 {mp x y w2 sub m w2 w d w neg 0 d cl f} def
/m27 {mp x y w2 add m w3 neg w2 neg d w3 w2 neg d w3 w2 d cl s} def
/m28 {mp x w2 sub y w2 sub w3 add m w3 0 d  0 w3 neg d w3 0 d 0 w3 d w3 0 d  0 w3 d w3 neg 0 d 0 w3 d w3 neg 0 d 0 w3 neg d w3 neg 0 d cl s } def
/m29 {mp gsave x w2 sub y w2 add w3 sub m currentpoint t 4 {side} repeat cl fill gr} def
/m30 {mp gsave x w2 sub y w2 add w3 sub m currentpoint t 4 {side} repeat cl s gr} def
/m31 {mp x y w2 sub m 0 w d x w2 sub y m w 0 d x w2 sub y w2 add m w w neg d x w2 sub y w2 sub m w w d s} def
/m32 {mp x y w2 sub m w2 w d w neg 0 d cl s} def
/m33 {mp x y w2 add m w3 neg w2 neg d w3 w2 neg d w3 w2 d cl f} def
/m34 {mp x w2 sub y w2 sub w3 add m w3 0 d  0 w3 neg d w3 0 d 0 w3 d w3 0 d  0 w3 d w3 neg 0 d 0 w3 d w3 neg 0 d 0 w3 neg d w3 neg 0 d cl f } def
/m2 {mp x y w2 sub m 0 w d x w2 sub y m w 0 d s} def
/m5 {mp x w2 sub y w2 sub m w w d x w2 sub y w2 add m w w neg d s} def
/reEncode {exch findfont dup length dict begin {1 index /FID eq  {pop pop} {def} ifelse } forall /Encoding exch def currentdict end dup /FontName get exch definefont pop } def [/Times-Bold /Times-Italic /Times-BoldItalic /Helvetica /Helvetica-Oblique
 /Helvetica-Bold /Helvetica-BoldOblique /Courier /Courier-Oblique /Courier-Bold /Courier-BoldOblique /Times-Roman /AvantGarde-Book /AvantGarde-BookOblique /AvantGarde-Demi /AvantGarde-DemiOblique /Bookman-Demi /Bookman-DemiItalic /Bookman-Light
 /Bookman-LightItalic /Helvetica-Narrow /Helvetica-Narrow-Bold /Helvetica-Narrow-BoldOblique /Helvetica-Narrow-Oblique /NewCenturySchlbk-Roman /NewCenturySchlbk-Bold /NewCenturySchlbk-BoldItalic /NewCenturySchlbk-Italic /Palatino-Bold
 /Palatino-BoldItalic /Palatino-Italic /Palatino-Roman ] {ISOLatin1Encoding reEncode } forall%%EndProlog
%%BeginSetup
%%EndSetup
newpath  gsave  .25 .25 scale  gsave  0 0 t black[  ] 0 sd 3 lw 1 1 1 c 2268 1328 0 0 bf black 1 1 1 c black 1588 996 340 199 bl 1588 996 340 199 bl 1 1 1 c 1 0 0 c /w 23 def /w2 {w 2 div} def /w3 {w 3 div} def 380 252 m21 459 252 m21 539 250 m21 618
 253 m21 697 253 m21 777 250 m21 856 254 m21 935 253 m21 1015 249 m21 1094 250 m21 1174 253 m21 1253 245 m21 1332 253 m21 1412 251 m21 1491 249 m21 black 1570 241 m s 1570 264 m 1 Y s 1565 241 m 11 X s 1565 265 m 11 X s 1 0 0 c 1570 253 m21 black
 1650 262 m 2 Y s 1650 286 m 2 Y s 1644 262 m 11 X s 1644 288 m 11 X s 1 0 0 c 1650 275 m21 black 1729 232 m 2 Y s 1729 257 m 2 Y s 1723 232 m 12 X s 1723 259 m 12 X s 1 0 0 c 1729 246 m21 black 1809 265 m 4 Y s 1809 291 m 4 Y s 1803 265 m 11 X s
 1803 295 m 11 X s 1 0 0 c 1809 280 m21 black 1888 216 m 4 Y s 1888 243 m 3 Y s 1882 216 m 12 X s 1882 246 m 12 X s 1 0 0 c 1888 231 m21 black 340 199 m 1588 X s
 gsave  2268 1328 0 0 C 954.378 68.3734 t 0 r /Helvetica findfont 62.6756 sf 0 0 m ( Energy \(GeV\) ) show NC gr 
 gsave  2268 1328 0 0 C 928.738 51.28 t 0 r /Symbol findfont 42.7334 sf 0 0 m (m) show NC gr 
 gsave  2268 1328 0 0 C 894.552 68.3734 t 0 r /Symbol findfont 62.6756 sf 0 0 m (n) show NC gr  340 216 m -17 Y s 372 208 m -9 Y s 404 208 m -9 Y s 435 208 m -9 Y s 467 208 m -9 Y s 499 216 m -17 Y s 531 208 m -9 Y s 562 208 m -9 Y s 594 208 m -9 Y s
 626 208 m -9 Y s 658 216 m -17 Y s 689 208 m -9 Y s 721 208 m -9 Y s 753 208 m -9 Y s 785 208 m -9 Y s 816 216 m -17 Y s 848 208 m -9 Y s 880 208 m -9 Y s 912 208 m -9 Y s 943 208 m -9 Y s 975 216 m -17 Y s 1007 208 m -9 Y s 1039 208 m -9 Y s 1070
 208 m -9 Y s 1102 208 m -9 Y s 1134 216 m -17 Y s 1166 208 m -9 Y s 1197 208 m -9 Y s 1229 208 m -9 Y s 1261 208 m -9 Y s 1293 216 m -17 Y s 1324 208 m -9 Y s 1356 208 m -9 Y s 1388 208 m -9 Y s 1420 208 m -9 Y s 1451 216 m -17 Y s 1483 208 m -9 Y s
 1515 208 m -9 Y s 1547 208 m -9 Y s 1578 208 m -9 Y s 1610 216 m -17 Y s 1642 208 m -9 Y s 1674 208 m -9 Y s 1705 208 m -9 Y s 1737 208 m -9 Y s 1769 216 m -17 Y s 1801 208 m -9 Y s 1832 208 m -9 Y s 1864 208 m -9 Y s 1896 208 m -9 Y s 1928 216 m
 -17 Y s
 gsave  2268 1328 0 0 C 319.076 136.747 t 0 r /Helvetica findfont 68.3734 sf 0 0 m (0) show NC gr 
 gsave  2268 1328 0 0 C 484.311 136.747 t 0 r /Helvetica findfont 68.3734 sf 0 0 m (1) show NC gr 
 gsave  2268 1328 0 0 C 635.302 136.747 t 0 r /Helvetica findfont 68.3734 sf 0 0 m (2) show NC gr 
 gsave  2268 1328 0 0 C 794.84 136.747 t 0 r /Helvetica findfont 68.3734 sf 0 0 m (3) show NC gr 
 gsave  2268 1328 0 0 C 954.378 136.747 t 0 r /Helvetica findfont 68.3734 sf 0 0 m (4) show NC gr 
 gsave  2268 1328 0 0 C 1113.92 136.747 t 0 r /Helvetica findfont 68.3734 sf 0 0 m (5) show NC gr 
 gsave  2268 1328 0 0 C 1270.6 136.747 t 0 r /Helvetica findfont 68.3734 sf 0 0 m (6) show NC gr 
 gsave  2268 1328 0 0 C 1430.14 136.747 t 0 r /Helvetica findfont 68.3734 sf 0 0 m (7) show NC gr 
 gsave  2268 1328 0 0 C 1589.68 136.747 t 0 r /Helvetica findfont 68.3734 sf 0 0 m (8) show NC gr 
 gsave  2268 1328 0 0 C 1746.37 136.747 t 0 r /Helvetica findfont 68.3734 sf 0 0 m (9) show NC gr 
 gsave  2268 1328 0 0 C 1888.81 136.747 t 0 r /Helvetica findfont 68.3734 sf 0 0 m (10) show NC gr  340 1195 m 1588 X s 340 1178 m 17 Y s 372 1186 m 9 Y s 404 1186 m 9 Y s 435 1186 m 9 Y s 467 1186 m 9 Y s 499 1178 m 17 Y s 531 1186 m 9 Y s 562 1186
 m 9 Y s 594 1186 m 9 Y s 626 1186 m 9 Y s 658 1178 m 17 Y s 689 1186 m 9 Y s 721 1186 m 9 Y s 753 1186 m 9 Y s 785 1186 m 9 Y s 816 1178 m 17 Y s 848 1186 m 9 Y s 880 1186 m 9 Y s 912 1186 m 9 Y s 943 1186 m 9 Y s 975 1178 m 17 Y s 1007 1186 m 9 Y s
 1039 1186 m 9 Y s 1070 1186 m 9 Y s 1102 1186 m 9 Y s 1134 1178 m 17 Y s 1166 1186 m 9 Y s 1197 1186 m 9 Y s 1229 1186 m 9 Y s 1261 1186 m 9 Y s 1293 1178 m 17 Y s 1324 1186 m 9 Y s 1356 1186 m 9 Y s 1388 1186 m 9 Y s 1420 1186 m 9 Y s 1451 1178 m
 17 Y s 1483 1186 m 9 Y s 1515 1186 m 9 Y s 1547 1186 m 9 Y s 1578 1186 m 9 Y s 1610 1178 m 17 Y s 1642 1186 m 9 Y s 1674 1186 m 9 Y s 1705 1186 m 9 Y s 1737 1186 m 9 Y s 1769 1178 m 17 Y s 1801 1186 m 9 Y s 1832 1186 m 9 Y s 1864 1186 m 9 Y s 1896
 1186 m 9 Y s 1928 1178 m 17 Y s 340 199 m 996 Y s
 gsave  2268 1328 0 0 C 170.933 336.169 t 90 r /Helvetica findfont 62.6756 sf 0 0 m (Near/Far Ratio to Nominal) show NC gr  371 252 m -31 X s 355 273 m -15 X s 355 293 m -15 X s 355 314 m -15 X s 355 335 m -15 X s 371 356 m -31 X s 355 377 m -15 X s
 355 398 m -15 X s 355 419 m -15 X s 355 440 m -15 X s 371 461 m -31 X s 355 482 m -15 X s 355 503 m -15 X s 355 524 m -15 X s 355 545 m -15 X s 371 566 m -31 X s 355 587 m -15 X s 355 608 m -15 X s 355 629 m -15 X s 355 650 m -15 X s 371 671 m -31 X
 s 355 692 m -15 X s 355 713 m -15 X s 355 734 m -15 X s 355 755 m -15 X s 371 776 m -31 X s 355 797 m -15 X s 355 818 m -15 X s 355 838 m -15 X s 355 859 m -15 X s 371 880 m -31 X s 355 901 m -15 X s 355 922 m -15 X s 355 943 m -15 X s 355 964 m -15
 X s 371 985 m -31 X s 355 1006 m -15 X s 355 1027 m -15 X s 355 1048 m -15 X s 355 1069 m -15 X s 371 1090 m -31 X s 355 1111 m -15 X s 355 1132 m -15 X s 355 1153 m -15 X s 355 1174 m -15 X s 371 1195 m -31 X s 371 252 m -31 X s 355 231 m -15 X s
 355 210 m -15 X s
 gsave  2268 1328 0 0 C 301.982 225.062 t 0 r /Helvetica findfont 68.3734 sf 0 0 m (1) show NC gr 
 gsave  2268 1328 0 0 C 245.005 330.471 t 0 r /Helvetica findfont 68.3734 sf 0 0 m (1.1) show NC gr 
 gsave  2268 1328 0 0 C 233.609 433.031 t 0 r /Helvetica findfont 68.3734 sf 0 0 m (1.2) show NC gr 
 gsave  2268 1328 0 0 C 233.609 541.289 t 0 r /Helvetica findfont 68.3734 sf 0 0 m (1.3) show NC gr 
 gsave  2268 1328 0 0 C 233.609 643.849 t 0 r /Helvetica findfont 68.3734 sf 0 0 m (1.4) show NC gr 
 gsave  2268 1328 0 0 C 233.609 752.107 t 0 r /Helvetica findfont 68.3734 sf 0 0 m (1.5) show NC gr 
 gsave  2268 1328 0 0 C 233.609 857.516 t 0 r /Helvetica findfont 68.3734 sf 0 0 m (1.6) show NC gr 
 gsave  2268 1328 0 0 C 233.609 957.227 t 0 r /Helvetica findfont 68.3734 sf 0 0 m (1.7) show NC gr 
 gsave  2268 1328 0 0 C 233.609 1065.48 t 0 r /Helvetica findfont 68.3734 sf 0 0 m (1.8) show NC gr 
 gsave  2268 1328 0 0 C 233.609 1170.89 t 0 r /Helvetica findfont 68.3734 sf 0 0 m (1.9) show NC gr  1928 199 m 996 Y s 1897 252 m 31 X s 1912 273 m 16 X s 1912 293 m 16 X s 1912 314 m 16 X s 1912 335 m 16 X s 1897 356 m 31 X s 1912 377 m 16 X s 1912
 398 m 16 X s 1912 419 m 16 X s 1912 440 m 16 X s 1897 461 m 31 X s 1912 482 m 16 X s 1912 503 m 16 X s 1912 524 m 16 X s 1912 545 m 16 X s 1897 566 m 31 X s 1912 587 m 16 X s 1912 608 m 16 X s 1912 629 m 16 X s 1912 650 m 16 X s 1897 671 m 31 X s
 1912 692 m 16 X s 1912 713 m 16 X s 1912 734 m 16 X s 1912 755 m 16 X s 1897 776 m 31 X s 1912 797 m 16 X s 1912 818 m 16 X s 1912 838 m 16 X s 1912 859 m 16 X s 1897 880 m 31 X s 1912 901 m 16 X s 1912 922 m 16 X s 1912 943 m 16 X s 1912 964 m 16 X
 s 1897 985 m 31 X s 1912 1006 m 16 X s 1912 1027 m 16 X s 1912 1048 m 16 X s 1912 1069 m 16 X s 1897 1090 m 31 X s 1912 1111 m 16 X s 1912 1132 m 16 X s 1912 1153 m 16 X s 1912 1174 m 16 X s 1897 1195 m 31 X s 1897 252 m 31 X s 1912 231 m 16 X s
 1912 210 m 16 X s 1 0 0 c 6 lw 1 1 1 c 1 0 0 c 380 251 m 18 1 d 797 X 9 -1 d 93 X 11 1 d 136 X 18 -1 d 104 X 4 1 d 105 X 18 -1 d 45 X 3 1 d 143 X 1 -1 d 3 X s 3 lw /w 2 def /w2 {w 2 div} def /w3 {w 3 div} def 380 251 459 252 539 252 618 252 697 252
 777 252 856 252 935 252 1015 252 1094 252 1174 252 1253 251 1332 252 1412 252 1491 251 1570 252 1650 252 1729 251 1809 252 1888 251 20 { m20} R 6 lw black 1 0 0 c
 gsave  2268 1328 0 0 C 2036.96 227.911 t 0 r /Helvetica-Bold findfont 48.4311 sf 0 0 m (/dof=0.7) show NC gr  black 1 0 0 c
 gsave  2268 1328 0 0 C 2017.01 245.005 t 0 r /Helvetica-Bold findfont 34.1867 sf 0 0 m (2) show NC gr  black 1 0 0 c
 gsave  2268 1328 0 0 C 1991.37 227.911 t 0 r /Symbol findfont 48.4311 sf 0 0 m (c) show NC gr  black 3 lw 340 252 m 1588 X s
 gsave  2268 1328 0 0 C 170.933 1213.63 t 0 r /Helvetica-Bold findfont 42.7334 sf 0 0 m (20 ) show NC gr  1 0 0 c /w 23 def /w2 {w 2 div} def /w3 {w 3 div} def 131 1228 m21 black 1 1 1 c 0 0 1 c 380 356 m21 459 356 m21 539 357 m21 618 355 m21 697 357
 m21 777 356 m21 856 356 m21 935 357 m21 1015 356 m21 1094 361 m21 1174 353 m21 1253 367 m21 1332 351 m21 1412 361 m21 black 1491 348 m 2 Y s 1491 372 m 2 Y s 1485 348 m 12 X s 1485 374 m 12 X s 0 0 1 c 1491 361 m21 black 1570 366 m 1 Y s 1570 390 m
 2 Y s 1565 366 m 11 X s 1565 392 m 11 X s 0 0 1 c 1570 379 m21 black 1650 340 m 3 Y s 1650 366 m 2 Y s 1644 340 m 11 X s 1644 368 m 11 X s 0 0 1 c 1650 354 m21 black 1729 326 m 3 Y s 1729 352 m 3 Y s 1723 326 m 12 X s 1723 355 m 12 X s 0 0 1 c 1729
 340 m21 black 1809 348 m 5 Y s 1809 376 m 5 Y s 1803 348 m 11 X s 1803 381 m 11 X s 0 0 1 c 1809 365 m21 black 1888 320 m 5 Y s 1888 348 m 5 Y s 1882 320 m 12 X s 1882 353 m 12 X s 0 0 1 c 1888 337 m21 6 lw 1 1 1 c 0 0 1 c 380 356 m 648 X 5 1 d 124
 X 5 -1 d 185 X 7 1 d 85 X 5 -1 d 306 X 3 1 d 27 X 3 1 d 67 X 4 -1 d 26 X 2 -1 d 5 X s 1887 356 m 1 X s 3 lw /w 2 def /w2 {w 2 div} def /w3 {w 3 div} def 380 356 459 356 539 356 618 356 697 356 777 356 856 356 935 356 1015 356 1094 357 1174 356 1253
 356 1332 356 1412 357 1491 356 1570 356 1650 356 1729 356 1809 358 1888 356 20 { m20} R 6 lw black 0 0 1 c
 gsave  2268 1328 0 0 C 2036.96 339.018 t 0 r /Helvetica-Bold findfont 48.4311 sf 0 0 m (/dof=0.5) show NC gr  black 0 0 1 c
 gsave  2268 1328 0 0 C 2017.01 356.111 t 0 r /Helvetica-Bold findfont 34.1867 sf 0 0 m (2) show NC gr  black 0 0 1 c
 gsave  2268 1328 0 0 C 1991.37 339.018 t 0 r /Symbol findfont 48.4311 sf 0 0 m (c) show NC gr  black 3 lw 340 356 m 1588 X s
 gsave  2268 1328 0 0 C 373.205 1213.63 t 0 r /Helvetica-Bold findfont 42.7334 sf 0 0 m (40 ) show NC gr  0 0 1 c /w 23 def /w2 {w 2 div} def /w3 {w 3 div} def 332 1228 m21 black 1 1 1 c 1 0 1 c 380 461 m21 459 461 m21 539 461 m21 618 460 m21 697 461
 m21 777 462 m21 856 461 m21 935 464 m21 1015 462 m21 1094 469 m21 1174 459 m21 1253 464 m21 1332 457 m21 black 1412 454 m s 1412 477 m s 1406 454 m 11 X s 1406 477 m 11 X s 1 0 1 c 1412 466 m21 black 1491 415 m 2 Y s 1491 439 m 2 Y s 1485 415 m 12 X
 s 1485 441 m 12 X s 1 0 1 c 1491 428 m21 black 1570 441 m 3 Y s 1570 466 m 3 Y s 1565 441 m 11 X s 1565 469 m 11 X s 1 0 1 c 1570 455 m21 black 1650 423 m 3 Y s 1650 449 m 4 Y s 1644 423 m 11 X s 1644 453 m 11 X s 1 0 1 c 1650 438 m21 black 1729 446
 m 5 Y s 1729 474 m 5 Y s 1723 446 m 12 X s 1723 479 m 12 X s 1 0 1 c 1729 462 m21 black 1809 480 m 6 Y s 1809 509 m 7 Y s 1803 480 m 11 X s 1803 516 m 11 X s 1 0 1 c 1809 498 m21 black 1888 425 m 7 Y s 1888 455 m 7 Y s 1882 425 m 12 X s 1882 462 m
 12 X s 1 0 1 c 1888 443 m21 6 lw 1 1 1 c 1 0 1 c 380 461 m 648 X 5 1 d 58 X 3 1 d 4 -1 d 53 X 6 -1 d 197 X 17 1 d 64 X 4 -1 d 23 X 4 -1 d 65 X 15 1 d 204 X 3 1 d 9 X 11 1 d 18 X 3 1 d 36 X 4 -1 d 30 X 3 -1 d 11 X s 1878 462 m 2 X 2 -1 d 6 X s 3 lw
 /w 2 def /w2 {w 2 div} def /w3 {w 3 div} def 380 461 459 461 539 461 618 461 697 461 777 461 856 461 935 461 1015 461 1094 463 1174 461 1253 461 1332 461 1412 462 1491 460 1570 461 1650 461 1729 461 1809 464 1888 461 20 { m20} R 6 lw black 1 0 1 c
 gsave  2268 1328 0 0 C 2036.96 450.125 t 0 r /Helvetica-Bold findfont 48.4311 sf 0 0 m (/dof=0.8) show NC gr  black 1 0 1 c
 gsave  2268 1328 0 0 C 2017.01 467.218 t 0 r /Helvetica-Bold findfont 34.1867 sf 0 0 m (2) show NC gr  black 1 0 1 c
 gsave  2268 1328 0 0 C 1991.37 450.125 t 0 r /Symbol findfont 48.4311 sf 0 0 m (c) show NC gr  black 3 lw 340 461 m 1588 X s
 gsave  2268 1328 0 0 C 575.476 1213.63 t 0 r /Helvetica-Bold findfont 42.7334 sf 0 0 m (60 ) show NC gr  1 0 1 c /w 23 def /w2 {w 2 div} def /w3 {w 3 div} def 534 1228 m21 black 1 1 1 c 0 0.733333 1 c 380 565 m21 459 567 m21 539 565 m21 618 564 m21
 697 567 m21 777 565 m21 856 568 m21 935 568 m21 1015 565 m21 1094 574 m21 1174 567 m21 1253 559 m21 1332 559 m21 black 1412 567 m 1 Y s 1412 591 m 2 Y s 1406 567 m 11 X s 1406 593 m 11 X s 0 0.733333 1 c 1412 580 m21 black 1491 551 m 3 Y s 1491 577
 m 2 Y s 1485 551 m 12 X s 1485 579 m 12 X s 0 0.733333 1 c 1491 565 m21 black 1570 543 m 4 Y s 1570 570 m 4 Y s 1565 543 m 11 X s 1565 574 m 11 X s 0 0.733333 1 c 1570 558 m21 black 1650 565 m 5 Y s 1650 593 m 5 Y s 1644 565 m 11 X s 1644 598 m 11 X
 s 0 0.733333 1 c 1650 582 m21 black 1729 561 m 6 Y s 1729 590 m 7 Y s 1723 561 m 12 X s 1723 597 m 12 X s 0 0.733333 1 c 1729 579 m21 black 1809 532 m 7 Y s 1809 562 m 7 Y s 1803 532 m 11 X s 1803 569 m 11 X s 0 0.733333 1 c 1809 550 m21 black 1888
 512 m 8 Y s 1888 543 m 8 Y s 1882 512 m 12 X s 1882 551 m 12 X s 0 0.733333 1 c 1888 532 m21 6 lw 1 1 1 c 0 0.733333 1 c 380 566 m 181 X 26 -1 d 56 X 11 1 d 162 X 19 1 d 35 X 19 -1 d 139 X 5 1 d 33 X 5 1 d 44 X 59 -2 d 180 X 18 1 d 63 X 4 -1 d 5 X
 18 -1 d 10 X 4 -1 d 43 X 5 1 d 28 X 6 1 d 115 X 22 -1 d 34 X 3 1 d 18 X 3 1 d 9 X 10 1 d 4 X 4 1 d 16 X 3 1 d 22 X 5 -1 d 28 X 3 -1 d 13 X 3 -1 d 7 X 2 -1 d 3 X s 1885 566 m 2 -1 d 1 X s 3 lw /w 2 def /w2 {w 2 div} def /w3 {w 3 div} def 380 566 459
 566 539 566 618 565 697 566 777 566 856 567 935 566 1015 566 1094 568 1174 566 1253 566 1332 566 1412 567 1491 564 1570 566 1650 566 1729 565 1809 570 1888 565 20 { m20} R 6 lw black 0 0.733333 1 c
 gsave  2268 1328 0 0 C 2036.96 558.382 t 0 r /Helvetica-Bold findfont 48.4311 sf 0 0 m (/dof=0.5) show NC gr  black 0 0.733333 1 c
 gsave  2268 1328 0 0 C 2017.01 575.476 t 0 r /Helvetica-Bold findfont 34.1867 sf 0 0 m (2) show NC gr  black 0 0.733333 1 c
 gsave  2268 1328 0 0 C 1991.37 558.382 t 0 r /Symbol findfont 48.4311 sf 0 0 m (c) show NC gr  black 3 lw 340 566 m 1588 X s
 gsave  2268 1328 0 0 C 777.747 1213.63 t 0 r /Helvetica-Bold findfont 42.7334 sf 0 0 m (80 ) show NC gr  0 0.733333 1 c /w 23 def /w2 {w 2 div} def /w3 {w 3 div} def 735 1228 m21 black 1 1 1 c 0.35 0.83 0.33 c 380 669 m21 459 671 m21 539 671 m21 618
 668 m21 697 672 m21 777 670 m21 856 673 m21 935 670 m21 1015 672 m21 1094 674 m21 1174 670 m21 1253 655 m21 black 1332 674 m 1 Y s 1332 697 m 1 Y s 1327 674 m 11 X s 1327 698 m 11 X s 0.35 0.83 0.33 c 1332 686 m21 black 1412 649 m 2 Y s 1412 674 m 3
 Y s 1406 649 m 11 X s 1406 677 m 11 X s 0.35 0.83 0.33 c 1412 663 m21 black 1491 646 m 4 Y s 1491 672 m 4 Y s 1485 646 m 12 X s 1485 676 m 12 X s 0.35 0.83 0.33 c 1491 661 m21 black 1570 649 m 5 Y s 1570 677 m 5 Y s 1565 649 m 11 X s 1565 682 m 11 X
 s 0.35 0.83 0.33 c 1570 666 m21 black 1650 663 m 7 Y s 1650 693 m 6 Y s 1644 663 m 11 X s 1644 699 m 11 X s 0.35 0.83 0.33 c 1650 681 m21 black 1729 611 m 7 Y s 1729 641 m 7 Y s 1723 611 m 12 X s 1723 648 m 12 X s 0.35 0.83 0.33 c 1729 629 m21 black
 1809 674 m 9 Y s 1809 706 m 9 Y s 1803 674 m 11 X s 1803 715 m 11 X s 0.35 0.83 0.33 c 1809 694 m21 black 1888 640 m 10 Y s 1888 673 m 10 Y s 1882 640 m 12 X s 1882 683 m 12 X s 0.35 0.83 0.33 c 1888 662 m21 6 lw 1 1 1 c 0.35 0.83 0.33 c 380 670 m
 14 1 d 125 X 20 -1 d 145 X 9 1 d 84 X 17 1 d 141 X 9 -1 d 84 X 5 1 d 15 X 12 1 d 67 X 9 -1 d 15 X 6 -1 d 51 X 10 -1 d 69 X 11 1 d 57 X 17 1 d 15 X 5 1 d 23 X 3 -1 d 17 X 4 -1 d 5 X 18 -1 d 4 -1 d 13 X 3 -1 d 28 X 4 1 d 17 X 15 1 d 20 X 4 1 d 103 X
 23 -1 d 42 X 3 1 d 12 X 4 1 d 5 X 10 2 d 8 X 3 1 d 13 X 3 1 d 22 X 5 -1 d 20 X 4 -1 d 7 X s 1857 674 m 4 X 3 -1 d 9 X 3 -1 d 4 X 2 -1 d 2 X 1 -1 d 3 X s 3 lw /w 2 def /w2 {w 2 div} def /w3 {w 3 div} def 380 670 459 671 539 670 618 670 697 671 777
 671 856 672 935 672 1015 671 1094 673 1174 671 1253 670 1332 671 1412 673 1491 668 1570 671 1650 671 1729 670 1809 676 1888 670 20 { m20} R 6 lw black 0.35 0.83 0.33 c
 gsave  2268 1328 0 0 C 2036.96 669.489 t 0 r /Helvetica-Bold findfont 48.4311 sf 0 0 m (/dof=0.7) show NC gr  black 0.35 0.83 0.33 c
 gsave  2268 1328 0 0 C 2017.01 686.583 t 0 r /Helvetica-Bold findfont 34.1867 sf 0 0 m (2) show NC gr  black 0.35 0.83 0.33 c
 gsave  2268 1328 0 0 C 1991.37 669.489 t 0 r /Symbol findfont 48.4311 sf 0 0 m (c) show NC gr  black 3 lw 340 671 m 1588 X s
 gsave  2268 1328 0 0 C 977.169 1213.63 t 0 r /Helvetica-Bold findfont 42.7334 sf 0 0 m (100 ) show NC gr  0.35 0.83 0.33 c /w 23 def /w2 {w 2 div} def /w3 {w 3 div} def 937 1228 m21 black 1 1 1 c 0.53 0.4 0.34 c 380 774 m21 459 776 m21 539 772 m21
 618 760 m21 697 782 m21 777 780 m21 856 789 m21 935 783 m21 1015 776 m21 1094 783 m21 1174 782 m21 1253 770 m21 black 1332 748 m 2 Y s 1332 772 m 2 Y s 1327 748 m 11 X s 1327 774 m 11 X s 0.53 0.4 0.34 c 1332 761 m21 black 1412 772 m 4 Y s 1412 799
 m 4 Y s 1406 772 m 11 X s 1406 803 m 11 X s 0.53 0.4 0.34 c 1412 788 m21 black 1491 741 m 6 Y s 1491 769 m 6 Y s 1485 741 m 12 X s 1485 775 m 12 X s 0.53 0.4 0.34 c 1491 758 m21 black 1570 756 m 8 Y s 1570 786 m 7 Y s 1565 756 m 11 X s 1565 793 m 11
 X s 0.53 0.4 0.34 c 1570 775 m21 black 1650 772 m 9 Y s 1650 803 m 9 Y s 1644 772 m 11 X s 1644 812 m 11 X s 0.53 0.4 0.34 c 1650 792 m21 black 1729 765 m 10 Y s 1729 798 m 10 Y s 1723 765 m 12 X s 1723 808 m 12 X s 0.53 0.4 0.34 c 1729 787 m21
 black 1809 761 m 11 Y s 1809 795 m 11 Y s 1803 761 m 11 X s 1803 806 m 11 X s 0.53 0.4 0.34 c 1809 783 m21 black 1888 739 m 13 Y s 1888 775 m 12 Y s 1882 739 m 12 X s 1882 787 m 12 X s 0.53 0.4 0.34 c 1888 763 m21 6 lw 1 1 1 c 0.53 0.4 0.34 c 380
 774 m 12 1 d 88 X 11 -1 d 12 X 13 -1 d 14 -1 d 14 X 5 -1 d 7 -1 d 8 X 18 -2 d 7 -1 d 5 -1 d 15 X 3 -1 d 6 X 4 1 d 14 X 5 1 d 5 1 d 6 X 7 1 d 20 3 d 6 1 d 6 1 d 6 X 31 4 d 12 1 d 12 1 d 9 1 d 8 X 8 1 d 10 X 11 1 d 9 X 10 1 d 79 X 39 -1 d 8 -1 d 9 X
 35 -2 d 20 X 6 -1 d 2 1 d 21 X 7 1 d 20 2 d 7 X 6 1 d 28 X 6 -1 d 5 X 7 -1 d 9 X 27 -3 d 6 -1 d 5 X 5 -1 d 18 -1 d 14 X 10 -1 d 19 X 8 -1 d 25 X 9 1 d 21 X 18 1 d 16 1 d 6 X 6 1 d 7 X 18 2 d 8 1 d 12 X 5 1 d 16 X 2 -1 d 9 X 70 -13 d 20 X 4 1 d 6 X 6
 1 d 9 1 d 11 1 d 7 1 d 5 1 d 5 X 4 1 d 14 X 11 1 d 8 X 10 1 d 48 X 6 -1 d 6 X 18 -2 d 8 X 5 -1 d 27 X 3 1 d 6 X 3 1 d 3 X 3 1 d 3 1 d 4 1 d 4 1 d 5 2 d 9 4 d 5 1 d 4 1 d 3 1 d 3 1 d 3 1 d 5 X 3 1 d 28 X 5 -1 d 4 X 4 -1 d 4 X 4 -1 d 4 -1 d 3 -1 d 4 X
 3 -1 d 4 -1 d 3 -1 d s 1868 783 m 3 -2 d 3 -1 d 3 -1 d 2 -1 d 3 -1 d 2 -2 d 2 -1 d 1 -1 d 1 -1 d s 3 lw /w 2 def /w2 {w 2 div} def /w3 {w 3 div} def 380 774 459 775 539 772 618 765 697 774 777 782 856 784 935 783 1015 780 1094 784 1174 777 1253 774
 1332 777 1412 781 1491 768 1570 775 1650 777 1729 773 1809 791 1888 772 20 { m20} R 6 lw black 0.53 0.4 0.34 c
 gsave  2268 1328 0 0 C 2036.96 780.596 t 0 r /Helvetica-Bold findfont 48.4311 sf 0 0 m (/dof=0.9) show NC gr  black 0.53 0.4 0.34 c
 gsave  2268 1328 0 0 C 2017.01 797.689 t 0 r /Helvetica-Bold findfont 34.1867 sf 0 0 m (2) show NC gr  black 0.53 0.4 0.34 c
 gsave  2268 1328 0 0 C 1991.37 780.596 t 0 r /Symbol findfont 48.4311 sf 0 0 m (c) show NC gr  black 3 lw 340 776 m 1588 X s
 gsave  2268 1328 0 0 C 1179.44 1213.63 t 0 r /Helvetica-Bold findfont 42.7334 sf 0 0 m (300 ) show NC gr  0.53 0.4 0.34 c /w 23 def /w2 {w 2 div} def /w3 {w 3 div} def 1139 1228 m21 black 1 1 1 c black 380 878 m21 459 880 m21 539 871 m21 618 840 m21
 697 890 m21 777 905 m21 856 905 m21 935 896 m21 1015 879 m21 1094 888 m21 1174 883 m21 1253 863 m 3 Y s 1253 889 m 2 Y s 1247 863 m 12 X s 1247 891 m 12 X s 1253 877 m21 1332 867 m 6 Y s 1332 895 m 6 Y s 1327 867 m 11 X s 1327 901 m 11 X s 1332 884
 m21 1412 846 m 8 Y s 1412 876 m 8 Y s 1406 846 m 11 X s 1406 884 m 11 X s 1412 865 m21 1491 870 m 10 Y s 1491 903 m 10 Y s 1485 870 m 12 X s 1485 913 m 12 X s 1491 892 m21 1570 852 m 11 Y s 1570 886 m 12 Y s 1565 852 m 11 X s 1565 898 m 11 X s 1570
 875 m21 1650 825 m 14 Y s 1650 861 m 13 Y s 1644 825 m 11 X s 1644 874 m 11 X s 1650 850 m21 1729 854 m 15 Y s 1729 892 m 15 Y s 1723 854 m 12 X s 1723 907 m 12 X s 1729 880 m21 1809 954 m 18 Y s 1809 995 m 19 Y s 1803 954 m 11 X s 1803 1014 m 11 X
 s 1809 984 m21 1888 823 m 18 Y s 1888 864 m 18 Y s 1882 823 m 12 X s 1882 882 m 12 X s 1888 853 m21 6 lw 1 1 1 c black 380 878 m 10 1 d 11 1 d 50 X 8 -1 d 10 X 11 -1 d 9 -1 d 12 -2 d 10 -1 d 12 -2 d 12 -2 d 4 X 4 -1 d 5 -2 d 6 -1 d 7 -2 d 23 -8 d 5
 -2 d 4 -1 d 5 -1 d 4 X 4 -1 d 4 X 3 -1 d 5 X 4 1 d 4 X 4 1 d 4 1 d 4 1 d 4 1 d 5 2 d 6 2 d 6 3 d 12 5 d 8 3 d 6 3 d 5 2 d 4 1 d 3 1 d 31 10 d 11 3 d 10 2 d 9 3 d 7 1 d 7 2 d 5 1 d 9 1 d 11 2 d 9 1 d 9 1 d 9 1 d 9 1 d 9 X 9 1 d 20 X 8 -1 d 10 X 12 -1
 d 34 -4 d 9 -1 d 9 -1 d 19 -3 d 14 -1 d 9 -1 d 7 -1 d 6 -1 d 26 X 9 1 d 16 1 d 11 1 d 31 X 7 -1 d 8 X 10 -2 d 28 -4 d 11 -1 d 9 -1 d 12 -2 d 30 -3 d 10 -1 d 8 -1 d 7 -1 d 26 X 7 1 d 10 1 d 11 1 d 27 2 d 10 1 d 7 1 d 8 1 d 20 3 d 9 1 d 7 1 d 29 X 3
 -1 d 4 X 4 -1 d 4 -1 d 5 -2 d 5 -2 d 6 -2 d 19 -8 d 5 -2 d 5 -2 d 4 -1 d 3 -1 d 4 -1 d 4 X 3 -1 d 14 X 4 1 d 5 X 6 1 d 6 2 d 7 1 d 18 4 d 6 2 d 6 1 d 4 1 d 4 X 17 2 d 14 1 d 11 1 d 10 1 d 28 X 79 -7 d 3 X 3 1 d 4 X 3 2 d 4 1 d 3 2 d 4 2 d 5 2 d 6 4
 d 9 6 d 5 3 d 4 2 d 4 1 d 3 2 d 3 1 d 3 1 d 3 X 3 1 d 17 X 5 -1 d 4 X 5 -1 d 4 -1 d 4 -1 d 4 -2 d 4 -1 d 4 -2 d 5 -1 d 4 -2 d 3 -2 d 5 -3 d 3 -2 d 3 -3 d 4 -2 d 3 -3 d 2 -3 d 3 -3 d 1 -1 d s 3 lw /w 2 def /w2 {w 2 div} def /w3 {w 3 div} def 380 878
 459 879 539 870 618 850 697 877 777 899 856 907 935 901 1015 892 1094 895 1174 886 1253 878 1332 884 1412 891 1491 866 1570 879 1650 884 1729 877 1809 908 1888 874 20 { m20} R 6 lw
 gsave  2268 1328 0 0 C 2036.96 891.703 t 0 r /Helvetica-Bold findfont 48.4311 sf 0 0 m (/dof=2.4) show NC gr 
 gsave  2268 1328 0 0 C 2017.01 908.796 t 0 r /Helvetica-Bold findfont 34.1867 sf 0 0 m (2) show NC gr 
 gsave  2268 1328 0 0 C 1991.37 891.703 t 0 r /Symbol findfont 48.4311 sf 0 0 m (c) show NC gr  3 lw 340 880 m 1588 X s
 gsave  2268 1328 0 0 C 1381.71 1213.63 t 0 r /Helvetica-Bold findfont 42.7334 sf 0 0 m (500 ) show NC gr  /w 23 def /w2 {w 2 div} def /w3 {w 3 div} def 1340 1228 m21 1 1 1 c 0.48 0 1 c 380 983 m21 459 984 m21 539 964 m21 618 917 m21 697 984 m21 777
 1031 m21 856 1042 m21 935 1026 m21 1015 996 m21 1094 1000 m21 1174 988 m21 black 1253 966 m 1 Y s 1253 989 m 1 Y s 1247 966 m 12 X s 1247 990 m 12 X s 0.48 0 1 c 1253 978 m21 black 1332 975 m 3 Y s 1332 1001 m 3 Y s 1327 975 m 11 X s 1327 1004 m 11
 X s 0.48 0 1 c 1332 990 m21 black 1412 994 m 5 Y s 1412 1022 m 6 Y s 1406 994 m 11 X s 1406 1028 m 11 X s 0.48 0 1 c 1412 1011 m21 black 1491 928 m 7 Y s 1491 958 m 6 Y s 1485 928 m 12 X s 1485 964 m 12 X s 0.48 0 1 c 1491 946 m21 black 1570 963 m 9
 Y s 1570 995 m 9 Y s 1565 963 m 11 X s 1565 1004 m 11 X s 0.48 0 1 c 1570 984 m21 black 1650 973 m 11 Y s 1650 1007 m 10 Y s 1644 973 m 11 X s 1644 1017 m 11 X s 0.48 0 1 c 1650 995 m21 black 1729 965 m 12 Y s 1729 1000 m 11 Y s 1723 965 m 12 X s
 1723 1011 m 12 X s 0.48 0 1 c 1729 988 m21 black 1809 965 m 14 Y s 1809 1002 m 13 Y s 1803 965 m 11 X s 1803 1015 m 11 X s 0.48 0 1 c 1809 990 m21 black 1888 965 m 15 Y s 1888 1003 m 15 Y s 1882 965 m 12 X s 1882 1018 m 12 X s 0.48 0 1 c 1888 992
 m21 6 lw 1 1 1 c 0.48 0 1 c 380 982 m 10 1 d 11 1 d 9 1 d 31 X 10 -1 d 8 -1 d 10 -1 d 11 -2 d 9 -2 d 10 -3 d 11 -3 d 11 -3 d 12 -4 d 6 -2 d 4 -2 d 5 -3 d 6 -3 d 6 -4 d 25 -17 d 5 -3 d 4 -2 d 4 -2 d 4 -2 d 4 -1 d 4 -1 d 12 X 4 1 d 4 2 d 4 1 d 4 3 d 4
 2 d 5 3 d 5 4 d 7 6 d 12 11 d 8 8 d 6 5 d 4 4 d 5 3 d 3 2 d 32 20 d 10 7 d 10 5 d 9 5 d 7 4 d 7 3 d 5 2 d 9 3 d 9 3 d 9 2 d 8 2 d 10 2 d 9 2 d 9 1 d 9 1 d 22 X 8 -1 d 10 -1 d 12 -2 d 34 -7 d 10 -2 d 12 -3 d 36 -10 d 8 -2 d 8 -2 d 6 -1 d 7 X 9 -1 d
 55 X 8 -1 d 13 -1 d 15 -2 d 19 -2 d 33 -6 d 9 -1 d 12 -3 d 25 -6 d 11 -2 d 7 -1 d 7 -1 d 22 X 8 1 d 10 2 d 16 3 d 17 3 d 9 2 d 5 X 10 2 d 21 4 d 10 1 d 8 1 d 8 1 d 13 X 5 -1 d 5 X 4 -1 d 5 -2 d 5 -2 d 5 -2 d 6 -3 d 9 -6 d 14 -8 d 7 -4 d 5 -3 d 5 -2
 d 4 -2 d 4 -1 d 4 -1 d 16 X 6 1 d 6 2 d 7 2 d 10 3 d 17 6 d 8 2 d 6 2 d 5 1 d 31 6 d 12 2 d 12 1 d 8 1 d 8 X 9 1 d 5 -1 d 5 X 6 -2 d 7 -2 d 28 -8 d 6 -1 d 5 -1 d 17 X 4 1 d 3 1 d 4 2 d 4 3 d 4 2 d 5 4 d 6 5 d 15 13 d 5 4 d 5 3 d 3 3 d 4 2 d 4 2 d 3
 1 d 4 1 d 3 1 d 8 X 5 -1 d 5 -1 d 5 -1 d 5 -2 d 5 -2 d 4 -2 d 5 -2 d 5 -3 d 5 -4 d 5 -4 d 4 -4 d 5 -4 d 4 -4 d 4 -6 d 4 -4 d 4 -6 d 1 -1 d s 3 lw /w 2 def /w2 {w 2 div} def /w3 {w 3 div} def 380 982 459 983 539 963 618 923 697 978 777 1024 856 1040
 935 1029 1015 1009 1094 1007 1174 996 1253 982 1332 993 1412 1001 1491 964 1570 983 1650 994 1729 979 1809 1027 1888 976 20 { m20} R 6 lw black 0.48 0 1 c
 gsave  2268 1328 0 0 C 2036.96 1002.81 t 0 r /Helvetica-Bold findfont 48.4311 sf 0 0 m (/dof=1.4) show NC gr  black 0.48 0 1 c
 gsave  2268 1328 0 0 C 2017.01 1019.9 t 0 r /Helvetica-Bold findfont 34.1867 sf 0 0 m (2) show NC gr  black 0.48 0 1 c
 gsave  2268 1328 0 0 C 1991.37 1002.81 t 0 r /Symbol findfont 48.4311 sf 0 0 m (c) show NC gr  black 3 lw 340 985 m 1588 X s
 gsave  2268 1328 0 0 C 1583.98 1213.63 t 0 r /Helvetica-Bold findfont 42.7334 sf 0 0 m (700 ) show NC gr  0.48 0 1 c /w 23 def /w2 {w 2 div} def /w3 {w 3 div} def 1542 1228 m21 black 1 1 1 c 1 0.373333 0 c 380 1085 m21 459 1085 m21 539 1050 m21 618
 988 m21 697 1070 m21 777 1151 m21 856 1185 m21 935 1169 m21 1015 1146 m21 1094 1128 m21 1174 1115 m21 black 1253 1080 m 2 Y s 1253 1104 m 2 Y s 1247 1080 m 12 X s 1247 1106 m 12 X s 1 0.373333 0 c 1253 1093 m21 black 1332 1093 m 4 Y s 1332 1120 m 4
 Y s 1327 1093 m 11 X s 1327 1124 m 11 X s 1 0.373333 0 c 1332 1109 m21 black 1412 1094 m 6 Y s 1412 1123 m 6 Y s 1406 1094 m 11 X s 1406 1129 m 11 X s 1 0.373333 0 c 1412 1111 m21 black 1491 1054 m 8 Y s 1491 1085 m 8 Y s 1485 1054 m 12 X s 1485
 1093 m 12 X s 1 0.373333 0 c 1491 1074 m21 black 1570 1068 m 10 Y s 1570 1101 m 10 Y s 1565 1068 m 11 X s 1565 1111 m 11 X s 1 0.373333 0 c 1570 1089 m21 black 1650 1087 m 12 Y s 1650 1121 m 12 Y s 1644 1087 m 11 X s 1644 1133 m 11 X s 1 0.373333 0
 c 1650 1110 m21 black 1729 1050 m 13 Y s 1729 1086 m 13 Y s 1723 1050 m 12 X s 1723 1099 m 12 X s 1 0.373333 0 c 1729 1074 m21 black 1809 1119 m 16 Y s 1809 1158 m 15 Y s 1803 1119 m 11 X s 1803 1173 m 11 X s 1 0.373333 0 c 1809 1146 m21 black 1888
 1059 m 17 Y s 1888 1099 m 16 Y s 1882 1059 m 12 X s 1882 1115 m 12 X s 1 0.373333 0 c 1888 1087 m21 6 lw 1 1 1 c 1 0.373333 0 c 380 1086 m 10 2 d 11 1 d 9 1 d 21 X 10 -1 d 11 -2 d 7 -1 d 10 -3 d 11 -3 d 9 -3 d 11 -5 d 11 -5 d 11 -6 d 11 -7 d 6 -4 d
 4 -3 d 5 -4 d 6 -6 d 6 -8 d 25 -29 d 5 -5 d 4 -4 d 4 -4 d 4 -2 d 4 -2 d 4 -2 d 8 X 4 1 d 4 1 d 4 3 d 4 3 d 4 4 d 4 4 d 5 6 d 5 7 d 7 10 d 12 19 d 8 14 d 6 9 d 4 6 d 5 6 d 3 4 d 32 35 d 10 12 d 10 9 d 9 8 d 7 6 d 7 6 d 5 3 d 9 6 d 9 5 d 9 5 d 8 3 d
 10 4 d 9 2 d 9 2 d 9 1 d 7 1 d 7 X 8 -1 d 8 -1 d 10 -2 d 12 -4 d 34 -12 d 10 -3 d 13 -6 d 38 -18 d 9 -4 d 10 -3 d 10 -2 d 12 -3 d 12 -2 d 36 -4 d 9 -1 d 20 -2 d 32 -4 d 15 -2 d 13 -2 d 8 -3 d 11 -3 d 34 -14 d 9 -2 d 6 -1 d 7 -1 d 4 -1 d 6 1 d 8 X 8
 2 d 9 2 d 16 5 d 16 5 d 8 3 d 8 1 d 14 3 d 20 4 d 11 2 d 8 1 d 9 X 7 -1 d 6 -1 d 5 -1 d 5 -1 d 5 -3 d 5 -3 d 7 -5 d 9 -7 d 19 -16 d 7 -5 d 6 -3 d 5 -3 d 5 -2 d 4 -1 d 2 -1 d 10 X 6 1 d 7 2 d 7 2 d 8 3 d 14 7 d 12 6 d 8 3 d 7 2 d 21 6 d 18 6 d 13 3 d
 9 1 d 8 1 d 8 1 d 3 X 5 -1 d 6 -1 d 6 -2 d 9 -4 d 25 -11 d 6 -3 d 6 -1 d 5 -1 d 5 X 4 1 d 2 X 4 2 d 5 2 d 4 3 d 5 4 d 5 5 d 6 7 d 17 19 d 6 7 d 5 5 d 5 4 d 4 3 d 4 2 d 4 1 d 3 1 d 3 X 5 -1 d 5 -1 d 6 -1 d 5 -2 d 5 -3 d 6 -4 d 5 -4 d 6 -4 d 6 -6 d 5
 -5 d 5 -7 d 5 -7 d 5 -7 d 5 -8 d 5 -10 d s 3 lw /w 2 def /w2 {w 2 div} def /w3 {w 3 div} def 380 1086 459 1086 539 1050 618 981 697 1078 777 1157 856 1186 935 1166 1015 1132 1094 1120 1174 1110 1253 1085 1332 1104 1412 1111 1491 1061 1570 1087 1650
 1105 1729 1082 1809 1147 1888 1077 20 { m20} R 6 lw black 1 0.373333 0 c
 gsave  2268 1328 0 0 C 2036.96 1113.92 t 0 r /Helvetica-Bold findfont 48.4311 sf 0 0 m (/dof=1.2) show NC gr  black 1 0.373333 0 c
 gsave  2268 1328 0 0 C 2017.01 1131.01 t 0 r /Helvetica-Bold findfont 34.1867 sf 0 0 m (2) show NC gr  black 1 0.373333 0 c
 gsave  2268 1328 0 0 C 1991.37 1113.92 t 0 r /Symbol findfont 48.4311 sf 0 0 m (c) show NC gr  black 3 lw 340 1090 m 1588 X s
 gsave  2268 1328 0 0 C 1783.41 1213.63 t 0 r /Helvetica-Bold findfont 42.7334 sf 0 0 m (900 ) show NC gr  1 0.373333 0 c /w 23 def /w2 {w 2 div} def /w3 {w 3 div} def 1743 1228 m21
 gr  gr showpage
end
%%EOF
