%!PS-Adobe-2.0 EPSF-2.0
%%BoundingBox:  0 0 567 332
%%Title: DecayPipeRadius_nof_summary.eps: Summary
%%Creator: ROOT Version 5.30/06
%%CreationDate: Sun Feb  2 09:31:03 2014
%%EndComments
%%BeginProlog
80 dict begin
/s {stroke} def /l {lineto} def /m {moveto} def /t {translate} def
/r {rotate} def /rl {roll}  def /R {repeat} def
/d {rlineto} def /rm {rmoveto} def /gr {grestore} def /f {eofill} def
/c {setrgbcolor} def /black {0 setgray} def /sd {setdash} def
/cl {closepath} def /sf {scalefont setfont} def /lw {setlinewidth} def
/box {m dup 0 exch d exch 0 d 0 exch neg d cl} def
/NC{systemdict begin initclip end}def/C{NC box clip newpath}def
/bl {box s} def /bf {box f} def /Y { 0 exch d} def /X { 0 d} def 
/K {{pop pop 0 moveto} exch kshow} bind def
/ita {/ang 15 def gsave [1 0 ang dup sin exch cos div 1 0 0] concat} def 
/mp {newpath /y exch def /x exch def} def
/side {[w .77 mul w .23 mul] .385 w mul sd w 0 l currentpoint t -144 r} def
/mr {mp x y w2 0 360 arc} def /m24 {mr s} def /m20 {mr f} def
/mb {mp x y w2 add m w2 neg 0 d 0 w neg d w 0 d 0 w d cl} def
/mt {mp x y w2 add m w2 neg w neg d w 0 d cl} def
/m21 {mb f} def /m25 {mb s} def /m22 {mt f} def /m26{mt s} def
/m23 {mp x y w2 sub m w2 w d w neg 0 d cl f} def
/m27 {mp x y w2 add m w3 neg w2 neg d w3 w2 neg d w3 w2 d cl s} def
/m28 {mp x w2 sub y w2 sub w3 add m w3 0 d  0 w3 neg d w3 0 d 0 w3 d w3 0 d  0 w3 d w3 neg 0 d 0 w3 d w3 neg 0 d 0 w3 neg d w3 neg 0 d cl s } def
/m29 {mp gsave x w2 sub y w2 add w3 sub m currentpoint t 4 {side} repeat cl fill gr} def
/m30 {mp gsave x w2 sub y w2 add w3 sub m currentpoint t 4 {side} repeat cl s gr} def
/m31 {mp x y w2 sub m 0 w d x w2 sub y m w 0 d x w2 sub y w2 add m w w neg d x w2 sub y w2 sub m w w d s} def
/m32 {mp x y w2 sub m w2 w d w neg 0 d cl s} def
/m33 {mp x y w2 add m w3 neg w2 neg d w3 w2 neg d w3 w2 d cl f} def
/m34 {mp x w2 sub y w2 sub w3 add m w3 0 d  0 w3 neg d w3 0 d 0 w3 d w3 0 d  0 w3 d w3 neg 0 d 0 w3 d w3 neg 0 d 0 w3 neg d w3 neg 0 d cl f } def
/m2 {mp x y w2 sub m 0 w d x w2 sub y m w 0 d s} def
/m5 {mp x w2 sub y w2 sub m w w d x w2 sub y w2 add m w w neg d s} def
/reEncode {exch findfont dup length dict begin {1 index /FID eq  {pop pop} {def} ifelse } forall /Encoding exch def currentdict end dup /FontName get exch definefont pop } def [/Times-Bold /Times-Italic /Times-BoldItalic /Helvetica /Helvetica-Oblique
 /Helvetica-Bold /Helvetica-BoldOblique /Courier /Courier-Oblique /Courier-Bold /Courier-BoldOblique /Times-Roman /AvantGarde-Book /AvantGarde-BookOblique /AvantGarde-Demi /AvantGarde-DemiOblique /Bookman-Demi /Bookman-DemiItalic /Bookman-Light
 /Bookman-LightItalic /Helvetica-Narrow /Helvetica-Narrow-Bold /Helvetica-Narrow-BoldOblique /Helvetica-Narrow-Oblique /NewCenturySchlbk-Roman /NewCenturySchlbk-Bold /NewCenturySchlbk-BoldItalic /NewCenturySchlbk-Italic /Palatino-Bold
 /Palatino-BoldItalic /Palatino-Italic /Palatino-Roman ] {ISOLatin1Encoding reEncode } forall%%EndProlog
%%BeginSetup
%%EndSetup
newpath  gsave  .25 .25 scale  gsave  0 0 t black[  ] 0 sd 3 lw 1 1 1 c 2268 1328 0 0 bf black 1 1 1 c black 1588 996 340 199 bl 1588 996 340 199 bl 1 1 1 c 1 0 0 c /w 23 def /w2 {w 2 div} def /w3 {w 3 div} def 380 231 m21 697 306 m21 777 364 m21 856
 355 m21 935 324 m21 1015 287 m21 1094 271 m21 black 1174 241 m 2 Y s 1174 266 m 2 Y s 1168 241 m 11 X s 1168 268 m 11 X s 1 0 0 c 1174 254 m21 black 1253 242 m 6 Y s 1253 271 m 5 Y s 1247 242 m 12 X s 1247 276 m 12 X s 1 0 0 c 1253 259 m21 black
 1332 205 m 9 Y s 1332 237 m 8 Y s 1327 205 m 11 X s 1327 245 m 11 X s 1 0 0 c 1332 225 m21 black 1412 250 m 12 Y s 1412 285 m 12 Y s 1406 250 m 11 X s 1406 297 m 11 X s 1 0 0 c 1412 273 m21 black 1491 262 m 15 Y s 1491 300 m 15 Y s 1485 262 m 12 X s
 1485 315 m 12 X s 1 0 0 c 1491 288 m21 black 1570 254 m 18 Y s 1570 294 m 18 Y s 1565 254 m 11 X s 1565 312 m 11 X s 1 0 0 c 1570 283 m21 black 1650 216 m 19 Y s 1650 258 m 18 Y s 1644 216 m 11 X s 1644 276 m 11 X s 1 0 0 c 1650 246 m21 black 1729
 199 m 5 Y s 1729 227 m 19 Y s 1723 199 m 12 X s 1723 246 m 12 X s 1 0 0 c 1729 215 m21 black 1809 231 m 24 Y s 1809 278 m 23 Y s 1803 231 m 11 X s 1803 301 m 11 X s 1 0 0 c 1809 266 m21 black 1888 213 m 26 Y s 1888 261 m 26 Y s 1882 213 m 12 X s
 1882 287 m 12 X s 1 0 0 c 1888 250 m21 black 340 199 m 1588 X s
 gsave  2268 1328 0 0 C 954.378 68.3734 t 0 r /Helvetica findfont 62.6756 sf 0 0 m ( Energy \(GeV\) ) show NC gr 
 gsave  2268 1328 0 0 C 928.738 51.28 t 0 r /Symbol findfont 42.7334 sf 0 0 m (m) show NC gr 
 gsave  2268 1328 0 0 C 894.552 68.3734 t 0 r /Symbol findfont 62.6756 sf 0 0 m (n) show NC gr  340 216 m -17 Y s 372 208 m -9 Y s 404 208 m -9 Y s 435 208 m -9 Y s 467 208 m -9 Y s 499 216 m -17 Y s 531 208 m -9 Y s 562 208 m -9 Y s 594 208 m -9 Y s
 626 208 m -9 Y s 658 216 m -17 Y s 689 208 m -9 Y s 721 208 m -9 Y s 753 208 m -9 Y s 785 208 m -9 Y s 816 216 m -17 Y s 848 208 m -9 Y s 880 208 m -9 Y s 912 208 m -9 Y s 943 208 m -9 Y s 975 216 m -17 Y s 1007 208 m -9 Y s 1039 208 m -9 Y s 1070
 208 m -9 Y s 1102 208 m -9 Y s 1134 216 m -17 Y s 1166 208 m -9 Y s 1197 208 m -9 Y s 1229 208 m -9 Y s 1261 208 m -9 Y s 1293 216 m -17 Y s 1324 208 m -9 Y s 1356 208 m -9 Y s 1388 208 m -9 Y s 1420 208 m -9 Y s 1451 216 m -17 Y s 1483 208 m -9 Y s
 1515 208 m -9 Y s 1547 208 m -9 Y s 1578 208 m -9 Y s 1610 216 m -17 Y s 1642 208 m -9 Y s 1674 208 m -9 Y s 1705 208 m -9 Y s 1737 208 m -9 Y s 1769 216 m -17 Y s 1801 208 m -9 Y s 1832 208 m -9 Y s 1864 208 m -9 Y s 1896 208 m -9 Y s 1928 216 m
 -17 Y s
 gsave  2268 1328 0 0 C 319.076 136.747 t 0 r /Helvetica findfont 68.3734 sf 0 0 m (0) show NC gr 
 gsave  2268 1328 0 0 C 484.311 136.747 t 0 r /Helvetica findfont 68.3734 sf 0 0 m (1) show NC gr 
 gsave  2268 1328 0 0 C 635.302 136.747 t 0 r /Helvetica findfont 68.3734 sf 0 0 m (2) show NC gr 
 gsave  2268 1328 0 0 C 794.84 136.747 t 0 r /Helvetica findfont 68.3734 sf 0 0 m (3) show NC gr 
 gsave  2268 1328 0 0 C 954.378 136.747 t 0 r /Helvetica findfont 68.3734 sf 0 0 m (4) show NC gr 
 gsave  2268 1328 0 0 C 1113.92 136.747 t 0 r /Helvetica findfont 68.3734 sf 0 0 m (5) show NC gr 
 gsave  2268 1328 0 0 C 1270.6 136.747 t 0 r /Helvetica findfont 68.3734 sf 0 0 m (6) show NC gr 
 gsave  2268 1328 0 0 C 1430.14 136.747 t 0 r /Helvetica findfont 68.3734 sf 0 0 m (7) show NC gr 
 gsave  2268 1328 0 0 C 1589.68 136.747 t 0 r /Helvetica findfont 68.3734 sf 0 0 m (8) show NC gr 
 gsave  2268 1328 0 0 C 1746.37 136.747 t 0 r /Helvetica findfont 68.3734 sf 0 0 m (9) show NC gr 
 gsave  2268 1328 0 0 C 1888.81 136.747 t 0 r /Helvetica findfont 68.3734 sf 0 0 m (10) show NC gr  340 1195 m 1588 X s 340 1178 m 17 Y s 372 1186 m 9 Y s 404 1186 m 9 Y s 435 1186 m 9 Y s 467 1186 m 9 Y s 499 1178 m 17 Y s 531 1186 m 9 Y s 562 1186
 m 9 Y s 594 1186 m 9 Y s 626 1186 m 9 Y s 658 1178 m 17 Y s 689 1186 m 9 Y s 721 1186 m 9 Y s 753 1186 m 9 Y s 785 1186 m 9 Y s 816 1178 m 17 Y s 848 1186 m 9 Y s 880 1186 m 9 Y s 912 1186 m 9 Y s 943 1186 m 9 Y s 975 1178 m 17 Y s 1007 1186 m 9 Y s
 1039 1186 m 9 Y s 1070 1186 m 9 Y s 1102 1186 m 9 Y s 1134 1178 m 17 Y s 1166 1186 m 9 Y s 1197 1186 m 9 Y s 1229 1186 m 9 Y s 1261 1186 m 9 Y s 1293 1178 m 17 Y s 1324 1186 m 9 Y s 1356 1186 m 9 Y s 1388 1186 m 9 Y s 1420 1186 m 9 Y s 1451 1178 m
 17 Y s 1483 1186 m 9 Y s 1515 1186 m 9 Y s 1547 1186 m 9 Y s 1578 1186 m 9 Y s 1610 1178 m 17 Y s 1642 1186 m 9 Y s 1674 1186 m 9 Y s 1705 1186 m 9 Y s 1737 1186 m 9 Y s 1769 1178 m 17 Y s 1801 1186 m 9 Y s 1832 1186 m 9 Y s 1864 1186 m 9 Y s 1896
 1186 m 9 Y s 1928 1178 m 17 Y s 340 199 m 996 Y s
 gsave  2268 1328 0 0 C 170.933 336.169 t 90 r /Helvetica findfont 62.6756 sf 0 0 m (Near/Far Ratio to Nominal) show NC gr  371 258 m -31 X s 355 281 m -15 X s 355 305 m -15 X s 355 328 m -15 X s 355 351 m -15 X s 371 375 m -31 X s 355 398 m -15 X s
 355 422 m -15 X s 355 445 m -15 X s 355 469 m -15 X s 371 492 m -31 X s 355 515 m -15 X s 355 539 m -15 X s 355 562 m -15 X s 355 586 m -15 X s 371 609 m -31 X s 355 633 m -15 X s 355 656 m -15 X s 355 679 m -15 X s 355 703 m -15 X s 371 726 m -31 X
 s 355 750 m -15 X s 355 773 m -15 X s 355 797 m -15 X s 355 820 m -15 X s 371 843 m -31 X s 355 867 m -15 X s 355 890 m -15 X s 355 914 m -15 X s 355 937 m -15 X s 371 961 m -31 X s 355 984 m -15 X s 355 1007 m -15 X s 355 1031 m -15 X s 355 1054 m
 -15 X s 371 1078 m -31 X s 355 1101 m -15 X s 355 1125 m -15 X s 355 1148 m -15 X s 355 1171 m -15 X s 371 1195 m -31 X s 371 258 m -31 X s 355 234 m -15 X s 355 211 m -15 X s
 gsave  2268 1328 0 0 C 301.982 230.76 t 0 r /Helvetica findfont 68.3734 sf 0 0 m (1) show NC gr 
 gsave  2268 1328 0 0 C 245.005 347.565 t 0 r /Helvetica findfont 68.3734 sf 0 0 m (1.1) show NC gr 
 gsave  2268 1328 0 0 C 233.609 464.369 t 0 r /Helvetica findfont 68.3734 sf 0 0 m (1.2) show NC gr 
 gsave  2268 1328 0 0 C 233.609 584.022 t 0 r /Helvetica findfont 68.3734 sf 0 0 m (1.3) show NC gr 
 gsave  2268 1328 0 0 C 233.609 697.978 t 0 r /Helvetica findfont 68.3734 sf 0 0 m (1.4) show NC gr 
 gsave  2268 1328 0 0 C 233.609 820.48 t 0 r /Helvetica findfont 68.3734 sf 0 0 m (1.5) show NC gr 
 gsave  2268 1328 0 0 C 233.609 937.285 t 0 r /Helvetica findfont 68.3734 sf 0 0 m (1.6) show NC gr 
 gsave  2268 1328 0 0 C 233.609 1051.24 t 0 r /Helvetica findfont 68.3734 sf 0 0 m (1.7) show NC gr 
 gsave  2268 1328 0 0 C 233.609 1170.89 t 0 r /Helvetica findfont 68.3734 sf 0 0 m (1.8) show NC gr  1928 199 m 996 Y s 1897 258 m 31 X s 1912 281 m 16 X s 1912 305 m 16 X s 1912 328 m 16 X s 1912 351 m 16 X s 1897 375 m 31 X s 1912 398 m 16 X s 1912
 422 m 16 X s 1912 445 m 16 X s 1912 469 m 16 X s 1897 492 m 31 X s 1912 515 m 16 X s 1912 539 m 16 X s 1912 562 m 16 X s 1912 586 m 16 X s 1897 609 m 31 X s 1912 633 m 16 X s 1912 656 m 16 X s 1912 679 m 16 X s 1912 703 m 16 X s 1897 726 m 31 X s
 1912 750 m 16 X s 1912 773 m 16 X s 1912 797 m 16 X s 1912 820 m 16 X s 1897 843 m 31 X s 1912 867 m 16 X s 1912 890 m 16 X s 1912 914 m 16 X s 1912 937 m 16 X s 1897 961 m 31 X s 1912 984 m 16 X s 1912 1007 m 16 X s 1912 1031 m 16 X s 1912 1054 m
 16 X s 1897 1078 m 31 X s 1912 1101 m 16 X s 1912 1125 m 16 X s 1912 1148 m 16 X s 1912 1171 m 16 X s 1897 1195 m 31 X s 1897 258 m 31 X s 1912 234 m 16 X s 1912 211 m 16 X s 1 0 0 c 6 lw 1 1 1 c 1 0 0 c 380 242 m 7 -4 d 7 -5 d 8 -4 d 7 -5 d 8 -4 d
 6 -3 d 9 -4 d 7 -4 d 7 -3 d 8 -3 d 5 -2 d 4 -2 d s 619 199 m 2 5 d s 621 204 m 3 8 d 3 8 d 3 8 d 4 8 d 3 7 d 4 7 d 3 7 d 4 7 d 4 6 d 5 6 d 4 6 d 5 6 d 4 6 d 4 4 d 5 5 d 5 4 d 5 4 d 4 3 d 4 3 d 4 2 d 5 2 d 4 2 d 4 1 d 5 1 d 5 1 d 12 X 41 -5 d 7 -1 d
 9 -1 d 63 -16 d 33 -7 d 46 -10 d 14 -3 d 39 -10 d 11 -2 d 9 -2 d 7 -1 d 10 -1 d 11 -1 d 14 X 44 -1 d 63 X 9 -1 d 8 -1 d 8 -1 d 10 -1 d 13 -3 d 32 -8 d 10 -1 d 6 -1 d 14 -3 d 20 -3 d 11 -1 d 7 -1 d 20 X 6 1 d 1 X 5 2 d 4 1 d 5 2 d 6 3 d 6 4 d 9 5 d
 13 9 d 7 4 d 6 3 d 5 2 d 4 2 d 4 1 d 4 1 d 15 X 6 -2 d 5 -1 d 8 -2 d 14 -6 d 10 -4 d 7 -2 d 6 -1 d 4 -1 d 16 X 6 1 d 7 2 d 8 2 d 19 6 d 7 2 d 7 2 d 6 1 d 15 X 6 -1 d 7 -1 d 8 -2 d 53 -19 d 5 -2 d 6 -2 d 8 -4 d 24 -13 d 5 -3 d 5 -2 d 5 -1 d 4 -1 d 5
 -1 d 11 X 1 1 d 3 X 3 2 d 3 1 d 3 2 d 4 3 d 4 4 d 4 4 d 4 5 d 7 8 d 10 14 d 5 6 d 4 4 d 4 4 d 3 3 d 3 2 d 4 2 d 3 2 d 3 1 d 15 X 4 -1 d 5 -1 d 4 -2 d 4 -2 d 5 -2 d 4 -3 d 4 -3 d 4 -4 d 5 -3 d 4 -5 d 4 -5 d 4 -4 d 4 -5 d 4 -6 d 3 -6 d 4 -6 d 3 -6 d 1
 -2 d s 3 lw /w 2 def /w2 {w 2 div} def /w3 {w 3 div} def 380 242 459 201 697 317 777 321 856 303 935 286 1015 268 1094 265 1174 263 1253 248 1332 241 1412 280 1491 261 1570 277 1650 254 1729 226 1809 293 1888 227 18 { m20} R 6 lw black 1 0 0 c
 gsave  2268 1328 0 0 C 2025.56 242.156 t 0 r /Helvetica-Bold findfont 48.4311 sf 0 0 m (/dof=14.1) show NC gr  black 1 0 0 c
 gsave  2268 1328 0 0 C 2005.62 259.249 t 0 r /Helvetica-Bold findfont 34.1867 sf 0 0 m (2) show NC gr  black 1 0 0 c
 gsave  2268 1328 0 0 C 1979.98 242.156 t 0 r /Symbol findfont 48.4311 sf 0 0 m (c) show NC gr  black 3 lw 340 258 m 1588 X s
 gsave  2268 1328 0 0 C 196.573 1213.63 t 0 r /Helvetica-Bold findfont 39.8845 sf 0 0 m (1.4 m) show NC gr  1 0 0 c /w 23 def /w2 {w 2 div} def /w3 {w 3 div} def 156 1228 m21 black 1 1 1 c 0 0 1 c 380 359 m21 459 333 m21 539 309 m21 618 329 m21 697
 435 m21 777 441 m21 856 432 m21 935 402 m21 1015 378 m21 1094 380 m21 black 1174 380 m 4 Y s 1174 407 m 4 Y s 1168 380 m 11 X s 1168 411 m 11 X s 0 0 1 c 1174 396 m21 black 1253 344 m 7 Y s 1253 374 m 7 Y s 1247 344 m 12 X s 1247 381 m 12 X s 0 0 1
 c 1253 362 m21 black 1332 324 m 10 Y s 1332 357 m 11 Y s 1327 324 m 11 X s 1327 368 m 11 X s 0 0 1 c 1332 346 m21 black 1412 370 m 14 Y s 1412 407 m 14 Y s 1406 370 m 11 X s 1406 421 m 11 X s 0 0 1 c 1412 395 m21 black 1491 299 m 16 Y s 1491 337 m
 16 Y s 1485 299 m 12 X s 1485 353 m 12 X s 0 0 1 c 1491 326 m21 black 1570 381 m 20 Y s 1570 424 m 20 Y s 1565 381 m 11 X s 1565 444 m 11 X s 0 0 1 c 1570 413 m21 black 1650 361 m 22 Y s 1650 406 m 22 Y s 1644 361 m 11 X s 1644 428 m 11 X s 0 0 1 c
 1650 394 m21 black 1729 332 m 24 Y s 1729 378 m 24 Y s 1723 332 m 12 X s 1723 402 m 12 X s 0 0 1 c 1729 367 m21 black 1809 345 m 27 Y s 1809 394 m 27 Y s 1803 345 m 11 X s 1803 421 m 11 X s 0 0 1 c 1809 383 m21 black 1888 322 m 28 Y s 1888 373 m 28
 Y s 1882 322 m 12 X s 1882 401 m 12 X s 0 0 1 c 1888 362 m21 6 lw 1 1 1 c 0 0 1 c 380 364 m 12 -6 d 10 -5 d 11 -4 d 11 -5 d 12 -4 d 11 -3 d 12 -4 d 30 -9 d 10 -2 d 8 -2 d 7 -1 d 6 X 7 -1 d 12 X 6 1 d 7 1 d 7 1 d 7 1 d 7 2 d 7 2 d 7 3 d 7 3 d 8 4 d 7
 3 d 7 4 d 2 1 d 4 2 d 4 3 d 4 4 d 4 4 d 5 4 d 5 6 d 8 9 d 11 13 d 4 6 d 5 5 d 3 3 d 4 4 d 4 3 d 4 3 d 3 2 d 4 2 d 3 1 d 5 2 d 4 1 d 5 1 d 5 1 d 6 1 d 21 X 34 -3 d 8 X 9 -1 d 11 -2 d 51 -10 d 34 -5 d 45 -7 d 17 -3 d 35 -6 d 14 -3 d 11 -1 d 3 X 12 -2
 d 15 -1 d 17 -1 d 29 -1 d 86 X 12 -1 d 67 -7 d 10 -1 d 21 -3 d 12 -2 d 9 -1 d 9 X 6 -1 d 6 X 6 1 d 5 1 d 5 1 d 6 1 d 7 2 d 8 3 d 20 7 d 7 3 d 7 2 d 5 1 d 5 1 d 5 1 d 17 X 62 -9 d 7 X 7 1 d 9 X 13 2 d 16 3 d 9 1 d 27 X 9 -1 d 10 -1 d 11 -2 d 13 -2 d
 23 -5 d 5 -1 d 5 -1 d 6 -2 d 8 -2 d 28 -11 d 6 -2 d 6 -1 d 5 -1 d 5 -1 d 10 X 4 1 d 3 1 d 4 1 d 4 2 d 4 2 d 4 3 d 6 3 d 8 7 d 9 7 d 5 3 d 4 3 d 4 2 d 4 2 d 3 2 d 4 1 d 3 1 d 17 X 4 -1 d 5 -1 d 5 -1 d 5 -2 d 5 -2 d 5 -2 d 5 -2 d 5 -3 d 5 -3 d 4 -3 d
 5 -4 d 4 -4 d 5 -4 d 3 -4 d 4 -4 d s 3 lw /w 2 def /w2 {w 2 div} def /w3 {w 3 div} def 380 364 459 333 539 318 618 344 697 418 777 421 856 408 935 396 1015 383 1094 378 1174 378 1253 370 1332 363 1412 386 1491 377 1570 384 1650 372 1729 351 1809 392
 1888 352 20 { m20} R 6 lw black 0 0 1 c
 gsave  2268 1328 0 0 C 2036.96 364.658 t 0 r /Helvetica-Bold findfont 48.4311 sf 0 0 m (/dof=4.0) show NC gr  black 0 0 1 c
 gsave  2268 1328 0 0 C 2017.01 381.751 t 0 r /Helvetica-Bold findfont 34.1867 sf 0 0 m (2) show NC gr  black 0 0 1 c
 gsave  2268 1328 0 0 C 1991.37 364.658 t 0 r /Symbol findfont 48.4311 sf 0 0 m (c) show NC gr  black 3 lw 340 375 m 1588 X s
 gsave  2268 1328 0 0 C 424.485 1213.63 t 0 r /Helvetica-Bold findfont 42.7334 sf 0 0 m (1.6 m) show NC gr  0 0 1 c /w 23 def /w2 {w 2 div} def /w3 {w 3 div} def 383 1228 m21 black 1 1 1 c 1 0 1 c 380 486 m21 459 470 m21 539 457 m21 618 478 m21 697
 524 m21 777 527 m21 856 518 m21 935 499 m21 1015 480 m21 black 1094 483 m 1 Y s 1094 506 m 1 Y s 1088 483 m 12 X s 1088 507 m 12 X s 1 0 1 c 1094 495 m21 black 1174 511 m 5 Y s 1174 539 m 5 Y s 1168 511 m 11 X s 1168 544 m 11 X s 1 0 1 c 1174 527
 m21 black 1253 473 m 9 Y s 1253 504 m 9 Y s 1247 473 m 12 X s 1247 513 m 12 X s 1 0 1 c 1253 493 m21 black 1332 472 m 13 Y s 1332 507 m 13 Y s 1327 472 m 11 X s 1327 520 m 11 X s 1 0 1 c 1332 496 m21 black 1412 486 m 17 Y s 1412 526 m 17 Y s 1406
 486 m 11 X s 1406 543 m 11 X s 1 0 1 c 1412 515 m21 black 1491 459 m 20 Y s 1491 501 m 20 Y s 1485 459 m 12 X s 1485 521 m 12 X s 1 0 1 c 1491 490 m21 black 1570 479 m 23 Y s 1570 524 m 23 Y s 1565 479 m 11 X s 1565 547 m 11 X s 1 0 1 c 1570 513 m21
 black 1650 432 m 24 Y s 1650 479 m 24 Y s 1644 432 m 11 X s 1644 503 m 11 X s 1 0 1 c 1650 467 m21 black 1729 407 m 26 Y s 1729 455 m 26 Y s 1723 407 m 12 X s 1723 481 m 12 X s 1 0 1 c 1729 444 m21 black 1809 469 m 30 Y s 1809 522 m 30 Y s 1803 469
 m 11 X s 1803 552 m 11 X s 1 0 1 c 1809 511 m21 black 1888 454 m 34 Y s 1888 511 m 34 Y s 1882 454 m 12 X s 1882 545 m 12 X s 1 0 1 c 1888 500 m21 6 lw 1 1 1 c 1 0 1 c 380 486 m 12 -3 d 10 -3 d 11 -2 d 11 -3 d 12 -2 d 11 -2 d 12 -2 d 24 -4 d 11 -1 d
 6 -1 d 7 -1 d 7 -1 d 25 X 4 1 d 5 X 5 1 d 5 1 d 6 1 d 6 2 d 6 2 d 7 2 d 11 4 d 19 7 d 5 2 d 5 1 d 5 2 d 6 3 d 8 4 d 18 8 d 6 4 d 6 2 d 6 2 d 4 2 d 5 1 d 4 1 d 4 1 d 2 1 d 5 1 d 5 X 6 1 d 5 X 7 1 d 15 X 9 -1 d 28 -1 d 8 X 9 -1 d 11 -1 d 51 -5 d 34 -3
 d 45 -4 d 20 -2 d 34 -3 d 13 -1 d 13 -1 d 16 -1 d 17 -1 d 18 X 19 -1 d 89 X 25 -1 d 19 X 17 -1 d 18 X 8 -1 d 10 -1 d 34 -3 d 9 X 6 -1 d 12 X 6 1 d 5 X 7 1 d 7 1 d 12 1 d 17 3 d 8 1 d 6 1 d 6 1 d 29 X 56 -2 d 21 X 34 1 d 12 1 d 12 X 19 -1 d 14 X 13
 -1 d 12 -1 d 10 X 12 -1 d 5 -1 d 6 -1 d 7 -1 d 8 -2 d 19 -4 d 7 -1 d 6 -1 d 5 X 5 -1 d 15 X 4 1 d 4 X 4 1 d 5 1 d 5 2 d 7 2 d 14 5 d 6 1 d 5 2 d 5 1 d 4 1 d 4 X 3 1 d 11 X 5 -1 d 12 X 5 -1 d 6 -1 d 5 -1 d 6 -1 d 6 -2 d 4 -1 d 6 -2 d 5 -1 d 5 -2 d 5
 -2 d 4 -2 d s 3 lw /w 2 def /w2 {w 2 div} def /w3 {w 3 div} def 380 486 459 469 539 461 618 484 697 516 777 517 856 510 935 503 1015 496 1094 493 1174 493 1253 491 1332 485 1412 495 1491 493 1570 495 1650 491 1729 479 1809 497 1888 480 20 { m20} R 6
 lw black 1 0 1 c
 gsave  2268 1328 0 0 C 2039.81 490.009 t 0 r /Helvetica-Bold findfont 48.4311 sf 0 0 m (/dof=1.1) show NC gr  black 1 0 1 c
 gsave  2268 1328 0 0 C 2019.86 507.102 t 0 r /Helvetica-Bold findfont 34.1867 sf 0 0 m (2) show NC gr  black 1 0 1 c
 gsave  2268 1328 0 0 C 1994.22 490.009 t 0 r /Symbol findfont 48.4311 sf 0 0 m (c) show NC gr  black 3 lw 340 492 m 1588 X s
 gsave  2268 1328 0 0 C 649.547 1213.63 t 0 r /Helvetica-Bold findfont 42.7334 sf 0 0 m (1.8 m) show NC gr  1 0 1 c /w 23 def /w2 {w 2 div} def /w3 {w 3 div} def 609 1228 m21 black 1 1 1 c 0 0.733333 1 c 380 606 m21 459 596 m21 539 591 m21 618 606
 m21 697 630 m21 777 621 m21 856 625 m21 935 614 m21 1015 606 m21 black 1094 589 m 2 Y s 1094 614 m 2 Y s 1088 589 m 12 X s 1088 616 m 12 X s 0 0.733333 1 c 1094 602 m21 black 1174 606 m 6 Y s 1174 635 m 6 Y s 1168 606 m 11 X s 1168 641 m 11 X s 0
 0.733333 1 c 1174 624 m21 black 1253 622 m 11 Y s 1253 656 m 11 Y s 1247 622 m 12 X s 1247 667 m 12 X s 0 0.733333 1 c 1253 645 m21 black 1332 572 m 14 Y s 1332 609 m 15 Y s 1327 572 m 11 X s 1327 624 m 11 X s 0 0.733333 1 c 1332 598 m21 black 1412
 546 m 18 Y s 1412 587 m 18 Y s 1406 546 m 11 X s 1406 605 m 11 X s 0 0.733333 1 c 1412 576 m21 black 1491 546 m 22 Y s 1491 590 m 22 Y s 1485 546 m 12 X s 1485 612 m 12 X s 0 0.733333 1 c 1491 579 m21 black 1570 582 m 25 Y s 1570 629 m 25 Y s 1565
 582 m 11 X s 1565 654 m 11 X s 0 0.733333 1 c 1570 618 m21 black 1650 625 m 29 Y s 1650 677 m 28 Y s 1644 625 m 11 X s 1644 705 m 11 X s 0 0.733333 1 c 1650 665 m21 black 1729 489 m 27 Y s 1729 539 m 28 Y s 1723 489 m 12 X s 1723 567 m 12 X s 0
 0.733333 1 c 1729 528 m21 black 1809 542 m 32 Y s 1809 597 m 32 Y s 1803 542 m 11 X s 1803 629 m 11 X s 0 0.733333 1 c 1809 585 m21 black 1888 583 m 35 Y s 1888 641 m 36 Y s 1882 583 m 12 X s 1882 677 m 12 X s 0 0.733333 1 c 1888 630 m21 6 lw 1 1 1
 c 0 0.733333 1 c 380 606 m 12 -2 d 10 -1 d 11 -2 d 11 -1 d 12 -1 d 11 -1 d 12 -1 d 10 -1 d 23 -2 d 7 -1 d 6 X 6 -1 d 28 X 4 1 d 5 X 4 1 d 5 X 4 1 d 6 1 d 5 1 d 8 1 d 10 3 d 13 3 d 8 1 d 6 2 d 1 X 6 1 d 8 2 d 12 2 d 13 3 d 8 2 d 6 1 d 6 1 d 5 1 d 5 1
 d 5 X 5 1 d 6 X 5 1 d 19 X 8 1 d 8 -1 d 42 X 9 -1 d 11 X 51 -3 d 34 -2 d 45 -2 d 23 -1 d 32 -2 d 14 X 11 -1 d 19 X 20 -1 d 16 X 16 -1 d 174 X 9 -1 d 11 X 22 -2 d 49 X 8 1 d 12 1 d 17 1 d 8 X 6 1 d 202 X 15 -1 d 28 X 3 -1 d 11 X 7 -1 d 11 -1 d 16 -2
 d 8 -1 d 11 X 5 -1 d 19 X 4 1 d 5 X 5 1 d 6 1 d 9 1 d 11 2 d 6 1 d 6 X 4 1 d 38 X 6 -1 d 6 X 7 -1 d 6 X 6 -1 d 6 -1 d 6 -1 d 6 -1 d 5 -1 d 2 X s 3 lw /w 2 def /w2 {w 2 div} def /w3 {w 3 div} def 380 606 459 597 539 592 618 607 697 622 777 623 856
 619 935 615 1015 611 1094 609 1174 609 1253 609 1332 606 1412 610 1491 610 1570 610 1650 608 1729 602 1809 610 1888 603 20 { m20} R 6 lw black 0 0.733333 1 c
 gsave  2268 1328 0 0 C 2036.96 615.36 t 0 r /Helvetica-Bold findfont 48.4311 sf 0 0 m (/dof=0.8) show NC gr  black 0 0.733333 1 c
 gsave  2268 1328 0 0 C 2017.01 632.454 t 0 r /Helvetica-Bold findfont 34.1867 sf 0 0 m (2) show NC gr  black 0 0.733333 1 c
 gsave  2268 1328 0 0 C 1991.37 615.36 t 0 r /Symbol findfont 48.4311 sf 0 0 m (c) show NC gr  black 3 lw 340 609 m 1588 X s
 gsave  2268 1328 0 0 C 877.458 1213.63 t 0 r /Helvetica-Bold findfont 42.7334 sf 0 0 m (1.9 m) show NC gr  0 0.733333 1 c /w 23 def /w2 {w 2 div} def /w3 {w 3 div} def 836 1228 m21 black 1 1 1 c 0.35 0.83 0.33 c 380 728 m21 459 740 m21 539 746 m21
 618 719 m21 697 708 m21 777 715 m21 856 718 m21 935 725 m21 1015 714 m21 black 1094 719 m 3 Y s 1094 745 m 3 Y s 1088 719 m 12 X s 1088 748 m 12 X s 0.35 0.83 0.33 c 1094 733 m21 black 1174 726 m 8 Y s 1174 756 m 8 Y s 1168 726 m 11 X s 1168 764 m
 11 X s 0.35 0.83 0.33 c 1174 745 m21 black 1253 705 m 12 Y s 1253 740 m 12 Y s 1247 705 m 12 X s 1247 752 m 12 X s 0.35 0.83 0.33 c 1253 729 m21 black 1332 681 m 17 Y s 1332 721 m 16 Y s 1327 681 m 11 X s 1327 737 m 11 X s 0.35 0.83 0.33 c 1332 709
 m21 black 1412 702 m 21 Y s 1412 745 m 21 Y s 1406 702 m 11 X s 1406 766 m 11 X s 0.35 0.83 0.33 c 1412 734 m21 black 1491 711 m 24 Y s 1491 758 m 25 Y s 1485 711 m 12 X s 1485 783 m 12 X s 0.35 0.83 0.33 c 1491 747 m21 black 1570 705 m 28 Y s 1570
 756 m 27 Y s 1565 705 m 11 X s 1565 783 m 11 X s 0.35 0.83 0.33 c 1570 744 m21 black 1650 677 m 29 Y s 1650 729 m 29 Y s 1644 677 m 11 X s 1644 758 m 11 X s 0.35 0.83 0.33 c 1650 717 m21 black 1729 661 m 33 Y s 1729 716 m 33 Y s 1723 661 m 12 X s
 1723 749 m 12 X s 0.35 0.83 0.33 c 1729 705 m21 black 1809 752 m 38 Y s 1809 812 m 38 Y s 1803 752 m 11 X s 1803 850 m 11 X s 0.35 0.83 0.33 c 1809 801 m21 black 1888 659 m 38 Y s 1888 720 m 38 Y s 1882 659 m 12 X s 1882 758 m 12 X s 0.35 0.83 0.33
 c 1888 709 m21 6 lw 1 1 1 c 0.35 0.83 0.33 c 380 730 m 12 2 d 10 1 d 11 2 d 11 1 d 12 1 d 11 1 d 12 2 d 9 X 22 3 d 7 X 6 1 d 6 X 5 1 d 19 X 4 -1 d 9 X 4 -1 d 4 -1 d 4 -1 d 4 -1 d 56 -16 d 12 -2 d 10 -2 d 8 -2 d 8 -1 d 8 -1 d 8 -1 d 8 -1 d 7 -1 d 7 X
 3 -1 d 14 X 7 -1 d 59 X 8 1 d 9 X 11 1 d 12 X 28 2 d 11 1 d 79 4 d 29 1 d 29 2 d 16 1 d 6 X 29 1 d 17 1 d 26 X 7 1 d 27 X 53 -1 d 93 X 8 1 d 15 1 d 13 1 d 9 X 7 1 d 20 X 73 -3 d 31 -1 d 87 X 24 1 d 101 X 5 1 d 7 X 8 1 d 16 2 d 9 1 d 6 1 d 12 X 4 1 d
 16 X 5 -1 d 6 X 6 -1 d 8 -1 d 19 -2 d 7 X 5 -1 d 44 X 7 1 d 7 X 7 1 d 8 1 d 7 1 d 7 X 7 1 d s 3 lw /w 2 def /w2 {w 2 div} def /w3 {w 3 div} def 380 730 459 740 539 744 618 724 697 712 777 711 856 716 935 720 1015 724 1094 727 1174 726 1253 726 1332
 730 1412 727 1491 726 1570 727 1650 727 1729 734 1809 728 1888 733 20 { m20} R 6 lw black 0.35 0.83 0.33 c
 gsave  2268 1328 0 0 C 2036.96 740.711 t 0 r /Helvetica-Bold findfont 48.4311 sf 0 0 m (/dof=0.5) show NC gr  black 0.35 0.83 0.33 c
 gsave  2268 1328 0 0 C 2017.01 757.805 t 0 r /Helvetica-Bold findfont 34.1867 sf 0 0 m (2) show NC gr  black 0.35 0.83 0.33 c
 gsave  2268 1328 0 0 C 1991.37 740.711 t 0 r /Symbol findfont 48.4311 sf 0 0 m (c) show NC gr  black 3 lw 340 726 m 1588 X s
 gsave  2268 1328 0 0 C 1105.37 1213.63 t 0 r /Helvetica-Bold findfont 39.8845 sf 0 0 m (2.1 m) show NC gr  0.35 0.83 0.33 c /w 23 def /w2 {w 2 div} def /w3 {w 3 div} def 1063 1228 m21 black 1 1 1 c 0.53 0.4 0.34 c 380 847 m21 459 874 m21 539 882 m21
 618 832 m21 697 806 m21 777 818 m21 856 830 m21 935 843 m21 1015 840 m21 black 1094 839 m 4 Y s 1094 866 m 4 Y s 1088 839 m 12 X s 1088 870 m 12 X s 0.53 0.4 0.34 c 1094 854 m21 black 1174 804 m 9 Y s 1174 836 m 8 Y s 1168 804 m 11 X s 1168 844 m 11
 X s 0.53 0.4 0.34 c 1174 824 m21 black 1253 835 m 14 Y s 1253 872 m 14 Y s 1247 835 m 12 X s 1247 886 m 12 X s 0.53 0.4 0.34 c 1253 860 m21 black 1332 829 m 19 Y s 1332 871 m 18 Y s 1327 829 m 11 X s 1327 889 m 11 X s 0.53 0.4 0.34 c 1332 859 m21
 black 1412 771 m 23 Y s 1412 817 m 22 Y s 1406 771 m 11 X s 1406 839 m 11 X s 0.53 0.4 0.34 c 1412 805 m21 black 1491 750 m 25 Y s 1491 798 m 25 Y s 1485 750 m 12 X s 1485 823 m 12 X s 0.53 0.4 0.34 c 1491 787 m21 black 1570 823 m 31 Y s 1570 877 m
 30 Y s 1565 823 m 11 X s 1565 907 m 11 X s 0.53 0.4 0.34 c 1570 865 m21 black 1650 798 m 33 Y s 1650 854 m 33 Y s 1644 798 m 11 X s 1644 887 m 11 X s 0.53 0.4 0.34 c 1650 842 m21 black 1729 774 m 35 Y s 1729 832 m 35 Y s 1723 774 m 12 X s 1723 867 m
 12 X s 0.53 0.4 0.34 c 1729 821 m21 black 1809 881 m 41 Y s 1809 945 m 41 Y s 1803 881 m 11 X s 1803 986 m 11 X s 0.53 0.4 0.34 c 1809 934 m21 black 1888 868 m 43 Y s 1888 934 m 44 Y s 1882 868 m 12 X s 1882 978 m 12 X s 0.53 0.4 0.34 c 1888 923 m21
 6 lw 1 1 1 c 0.53 0.4 0.34 c 380 851 m 12 4 d 10 3 d 11 3 d 11 3 d 12 3 d 11 2 d 12 3 d 9 2 d 21 5 d 8 1 d 6 1 d 6 1 d 4 1 d 22 X 4 -1 d 3 -1 d 3 -1 d 4 -1 d 4 -1 d 4 -2 d 3 -3 d 4 -2 d 5 -3 d 5 -4 d 8 -7 d 10 -8 d 6 -5 d 4 -3 d 4 -2 d 4 -2 d 3 -2 d
 4 -2 d 1 X 6 -3 d 7 -2 d 7 -2 d 8 -2 d 7 -2 d 9 -2 d 8 -2 d 10 -2 d 10 -1 d 7 -1 d 8 -1 d 9 -1 d 9 -1 d 43 X 11 1 d 8 X 9 1 d 11 1 d 12 2 d 28 3 d 11 2 d 79 8 d 32 4 d 29 3 d 19 2 d 35 4 d 15 1 d 12 1 d 12 X 5 1 d 40 X 40 -1 d 10 X 12 -1 d 26 -1 d
 10 X 8 -1 d 7 1 d 12 X 7 1 d 8 1 d 9 1 d 21 4 d 9 1 d 7 1 d 6 X 6 1 d 15 X 9 -1 d 12 X 44 -4 d 13 -1 d 40 -3 d 9 -1 d 33 X 11 1 d 16 1 d 16 2 d 11 X 8 1 d 1 X 80 -2 d 5 1 d 5 X 7 1 d 7 2 d 10 3 d 14 3 d 7 1 d 6 2 d 6 1 d 27 X 6 -1 d 7 -1 d 16 -3 d
 11 -2 d 8 -1 d 5 -1 d 5 X 5 -1 d 10 X 8 1 d 9 X 8 1 d 7 1 d 8 1 d 9 1 d 8 2 d 8 1 d 6 2 d s 3 lw /w 2 def /w2 {w 2 div} def /w3 {w 3 div} def 380 851 459 872 539 882 618 833 697 814 777 812 856 821 935 829 1015 838 1094 845 1174 844 1253 842 1332
 852 1412 847 1491 842 1570 847 1650 845 1729 859 1809 849 1888 859 20 { m20} R 6 lw black 0.53 0.4 0.34 c
 gsave  2268 1328 0 0 C 2036.96 863.214 t 0 r /Helvetica-Bold findfont 48.4311 sf 0 0 m (/dof=0.9) show NC gr  black 0.53 0.4 0.34 c
 gsave  2268 1328 0 0 C 2017.01 880.307 t 0 r /Helvetica-Bold findfont 34.1867 sf 0 0 m (2) show NC gr  black 0.53 0.4 0.34 c
 gsave  2268 1328 0 0 C 1991.37 863.214 t 0 r /Symbol findfont 48.4311 sf 0 0 m (c) show NC gr  black 3 lw 340 843 m 1588 X s
 gsave  2268 1328 0 0 C 1330.43 1213.63 t 0 r /Helvetica-Bold findfont 39.8845 sf 0 0 m (2.2 m) show NC gr  0.53 0.4 0.34 c /w 23 def /w2 {w 2 div} def /w3 {w 3 div} def 1290 1228 m21 black 1 1 1 c black 380 966 m21 459 1020 m21 539 1040 m21 618 912
 m21 697 897 m21 777 920 m21 856 952 m21 935 946 m21 1015 949 m s 1015 972 m 1 Y s 1009 949 m 12 X s 1009 973 m 12 X s 1015 961 m21 1094 944 m 5 Y s 1094 972 m 5 Y s 1088 944 m 12 X s 1088 977 m 12 X s 1094 960 m21 1174 982 m 11 Y s 1174 1016 m 10 Y
 s 1168 982 m 11 X s 1168 1026 m 11 X s 1174 1004 m21 1253 896 m 15 Y s 1253 934 m 15 Y s 1247 896 m 12 X s 1247 949 m 12 X s 1253 922 m21 1332 913 m 21 Y s 1332 957 m 20 Y s 1327 913 m 11 X s 1327 977 m 11 X s 1332 945 m21 1412 950 m 25 Y s 1412 998
 m 26 Y s 1406 950 m 11 X s 1406 1024 m 11 X s 1412 987 m21 1491 909 m 29 Y s 1491 961 m 29 Y s 1485 909 m 12 X s 1485 990 m 12 X s 1491 949 m21 1570 892 m 32 Y s 1570 947 m 32 Y s 1565 892 m 11 X s 1565 979 m 11 X s 1570 936 m21 1650 935 m 36 Y s
 1650 994 m 37 Y s 1644 935 m 11 X s 1644 1031 m 11 X s 1650 983 m21 1729 922 m 40 Y s 1729 985 m 39 Y s 1723 922 m 12 X s 1723 1024 m 12 X s 1729 973 m21 1809 975 m 44 Y s 1809 1042 m 44 Y s 1803 975 m 11 X s 1803 1086 m 11 X s 1809 1030 m21 1888
 985 m 47 Y s 1888 1055 m 46 Y s 1882 985 m 12 X s 1882 1101 m 12 X s 1888 1043 m21 6 lw 1 1 1 c black 380 977 m 12 8 d 10 7 d 11 7 d 11 6 d 12 6 d 11 5 d 12 5 d 8 4 d 9 5 d 15 7 d 7 3 d 6 3 d 5 1 d 5 1 d 5 1 d 8 X 4 -1 d 4 -1 d 4 -1 d 3 -2 d 3 -2 d
 3 -2 d 3 -3 d 3 -4 d 3 -4 d 4 -5 d 3 -6 d 4 -7 d 4 -9 d 5 -11 d 12 -28 d 3 -8 d 4 -7 d 3 -6 d 3 -5 d 3 -5 d 4 -4 d 3 -4 d 3 -3 d 3 -2 d 4 -4 d 5 -2 d 5 -3 d 5 -2 d 5 -1 d 7 -2 d 8 -1 d 9 -1 d 23 -2 d 8 -1 d 19 -2 d 14 -2 d 12 -1 d 21 X 10 1 d 4 X 8
 1 d 9 1 d 11 3 d 12 3 d 28 8 d 11 3 d 79 18 d 47 11 d 28 7 d 5 1 d 24 6 d 22 5 d 11 2 d 10 2 d 10 1 d 2 1 d 12 X 11 1 d 14 X 17 -1 d 20 -1 d 6 X 7 -1 d 10 -2 d 19 -4 d 13 -3 d 10 -1 d 7 -1 d 13 X 5 1 d 7 1 d 6 2 d 8 3 d 13 5 d 15 6 d 8 3 d 7 2 d 6 1
 d 4 1 d 10 1 d 10 1 d 21 X 14 -1 d 15 -1 d 10 -2 d 7 -1 d 8 -2 d 10 -3 d 28 -8 d 8 -2 d 7 -2 d 6 X 5 -1 d 6 1 d 6 X 7 2 d 8 1 d 13 4 d 14 5 d 8 2 d 7 1 d 6 1 d 10 X 74 -10 d 5 1 d 5 1 d 6 2 d 7 3 d 9 4 d 18 10 d 8 3 d 7 3 d 5 2 d 5 1 d 4 1 d 18 X 9
 -1 d 9 -1 d 26 -5 d 7 -1 d 7 -1 d 16 X 13 1 d 14 1 d 14 1 d 12 2 d 14 2 d s 3 lw /w 2 def /w2 {w 2 div} def /w3 {w 3 div} def 380 977 459 1021 539 1043 618 916 697 897 777 893 856 912 935 930 1015 949 1094 966 1174 965 1253 953 1332 978 1412 976
 1491 957 1570 974 1650 964 1729 995 1809 986 1888 993 20 { m20} R 6 lw
 gsave  2268 1328 0 0 C 2036.96 988.565 t 0 r /Helvetica-Bold findfont 48.4311 sf 0 0 m (/dof=3.2) show NC gr 
 gsave  2268 1328 0 0 C 2017.01 1005.66 t 0 r /Helvetica-Bold findfont 34.1867 sf 0 0 m (2) show NC gr 
 gsave  2268 1328 0 0 C 1991.37 988.565 t 0 r /Symbol findfont 48.4311 sf 0 0 m (c) show NC gr  3 lw 340 961 m 1588 X s
 gsave  2268 1328 0 0 C 1558.34 1213.63 t 0 r /Helvetica-Bold findfont 39.8845 sf 0 0 m (2.4 m) show NC gr  /w 23 def /w2 {w 2 div} def /w3 {w 3 div} def 1517 1228 m21 1 1 1 c 0.48 0 1 c 380 1091 m21 459 1172 m21 539 1177 m21 618 1003 m21 697 985 m21
 777 1020 m21 856 1065 m21 935 1072 m21 black 1015 1056 m 2 Y s 1015 1080 m 2 Y s 1009 1056 m 12 X s 1009 1082 m 12 X s 0.48 0 1 c 1015 1069 m21 black 1094 1062 m 6 Y s 1094 1091 m 6 Y s 1088 1062 m 12 X s 1088 1097 m 12 X s 0.48 0 1 c 1094 1080 m21
 black 1174 1047 m 11 Y s 1174 1081 m 11 Y s 1168 1047 m 11 X s 1168 1092 m 11 X s 0.48 0 1 c 1174 1069 m21 black 1253 1029 m 17 Y s 1253 1069 m 17 Y s 1247 1029 m 12 X s 1247 1086 m 12 X s 0.48 0 1 c 1253 1057 m21 black 1332 1053 m 23 Y s 1332 1099
 m 22 Y s 1327 1053 m 11 X s 1327 1121 m 11 X s 0.48 0 1 c 1332 1087 m21 black 1412 1079 m 28 Y s 1412 1130 m 28 Y s 1406 1079 m 11 X s 1406 1158 m 11 X s 0.48 0 1 c 1412 1118 m21 black 1491 1034 m 31 Y s 1491 1088 m 32 Y s 1485 1034 m 12 X s 1485
 1120 m 12 X s 0.48 0 1 c 1491 1077 m21 black 1570 1050 m 35 Y s 1570 1108 m 36 Y s 1565 1050 m 11 X s 1565 1144 m 11 X s 0.48 0 1 c 1570 1097 m21 black 1650 1032 m 38 Y s 1650 1093 m 39 Y s 1644 1032 m 11 X s 1644 1132 m 11 X s 0.48 0 1 c 1650 1082
 m21 black 1729 1077 m 42 Y s 1729 1142 m 43 Y s 1723 1077 m 12 X s 1723 1185 m 12 X s 0.48 0 1 c 1729 1131 m21 black 1809 1097 m 46 Y s 1809 1166 m 29 Y s 1803 1097 m 11 X s 1803 1195 m 11 X s 0.48 0 1 c 1809 1155 m21 black 1888 1077 m 49 Y s 1888
 1149 m 46 Y s 1882 1077 m 12 X s 1882 1195 m 12 X s 0.48 0 1 c 1888 1137 m21 6 lw 1 1 1 c 0.48 0 1 c 380 1104 m 7 8 d 7 8 d 8 7 d 7 7 d 8 8 d 6 5 d 9 7 d 7 6 d 7 6 d 8 5 d 5 4 d 7 4 d 8 5 d 7 4 d 8 4 d 6 3 d s 541 1195 m -3 Y s 541 1192 m 3 -17 d 2
 -15 d 3 -15 d 3 -14 d 3 -14 d 4 -13 d 3 -13 d 4 -12 d 3 -12 d 4 -12 d 4 -11 d 4 -11 d 5 -10 d 4 -11 d 4 -8 d 5 -8 d 5 -7 d 5 -7 d 4 -6 d 5 -6 d 4 -4 d 4 -2 d 4 -2 d 4 -2 d 9 X 5 1 d 7 1 d 9 4 d 15 7 d 6 2 d 5 1 d 5 1 d 2 X 80 -7 d 8 1 d 9 3 d 11 4 d
 12 5 d 28 13 d 11 5 d 79 29 d 80 30 d 12 5 d 32 13 d 11 5 d 10 3 d 8 2 d 6 2 d 12 1 d 11 1 d 25 X 13 -2 d 16 -2 d 3 X 6 -2 d 8 -3 d 10 -4 d 26 -13 d 7 -3 d 7 -2 d 6 -1 d 9 X 5 1 d 6 2 d 6 3 d 7 4 d 8 5 d 15 11 d 10 7 d 7 5 d 7 4 d 6 2 d 2 1 d 15 5 d
 12 3 d 12 3 d 10 1 d 18 X 9 -1 d 4 -1 d 5 -1 d 74 -41 d 5 X 5 1 d 5 2 d 6 3 d 8 4 d 12 9 d 12 8 d 7 4 d 6 3 d 5 2 d 5 1 d 3 1 d 5 X 6 -1 d 6 -2 d 7 -3 d 9 -4 d 20 -11 d 7 -3 d 6 -3 d 5 -1 d 9 X 5 1 d 5 2 d 6 3 d 6 4 d 9 6 d 15 12 d 10 8 d 8 5 d 5 4
 d 6 3 d 4 1 d 9 3 d 9 2 d 10 1 d 10 1 d 42 X 17 -1 d 17 -1 d 17 -3 d 17 -2 d 11 -2 d s 3 lw /w 2 def /w2 {w 2 div} def /w3 {w 3 div} def 380 1104 459 1175 539 1195 3 { m20} R 6 lw 3 lw 539 1195 618 970 697 977 777 970 856 1001 935 1030 1015 1060
 1094 1090 1174 1088 1253 1060 1332 1105 1412 1115 1491 1073 1570 1111 1650 1083 1729 1132 1809 1139 1888 1130 18 { m20} R 6 lw black 0.48 0 1 c
 gsave  2268 1328 0 0 C 2022.71 1113.92 t 0 r /Helvetica-Bold findfont 48.4311 sf 0 0 m (/dof=10.7) show NC gr  black 0.48 0 1 c
 gsave  2268 1328 0 0 C 2002.77 1131.01 t 0 r /Helvetica-Bold findfont 34.1867 sf 0 0 m (2) show NC gr  black 0.48 0 1 c
 gsave  2268 1328 0 0 C 1977.13 1113.92 t 0 r /Symbol findfont 48.4311 sf 0 0 m (c) show NC gr  black 3 lw 340 1078 m 1588 X s
 gsave  2268 1328 0 0 C 1783.41 1213.63 t 0 r /Helvetica-Bold findfont 42.7334 sf 0 0 m (2.6 m) show NC gr  0.48 0 1 c /w 23 def /w2 {w 2 div} def /w3 {w 3 div} def 1743 1228 m21
 gr  gr showpage
end
%%EOF
