%!PS-Adobe-2.0 EPSF-2.0
%%BoundingBox:  0 0 567 332
%%Title: DecayPipeRadius_nof_fits.eps: Fits
%%Creator: ROOT Version 5.30/06
%%CreationDate: Sun Feb  2 09:31:02 2014
%%EndComments
%%BeginProlog
80 dict begin
/s {stroke} def /l {lineto} def /m {moveto} def /t {translate} def
/r {rotate} def /rl {roll}  def /R {repeat} def
/d {rlineto} def /rm {rmoveto} def /gr {grestore} def /f {eofill} def
/c {setrgbcolor} def /black {0 setgray} def /sd {setdash} def
/cl {closepath} def /sf {scalefont setfont} def /lw {setlinewidth} def
/box {m dup 0 exch d exch 0 d 0 exch neg d cl} def
/NC{systemdict begin initclip end}def/C{NC box clip newpath}def
/bl {box s} def /bf {box f} def /Y { 0 exch d} def /X { 0 d} def 
/K {{pop pop 0 moveto} exch kshow} bind def
/ita {/ang 15 def gsave [1 0 ang dup sin exch cos div 1 0 0] concat} def 
/mp {newpath /y exch def /x exch def} def
/side {[w .77 mul w .23 mul] .385 w mul sd w 0 l currentpoint t -144 r} def
/mr {mp x y w2 0 360 arc} def /m24 {mr s} def /m20 {mr f} def
/mb {mp x y w2 add m w2 neg 0 d 0 w neg d w 0 d 0 w d cl} def
/mt {mp x y w2 add m w2 neg w neg d w 0 d cl} def
/m21 {mb f} def /m25 {mb s} def /m22 {mt f} def /m26{mt s} def
/m23 {mp x y w2 sub m w2 w d w neg 0 d cl f} def
/m27 {mp x y w2 add m w3 neg w2 neg d w3 w2 neg d w3 w2 d cl s} def
/m28 {mp x w2 sub y w2 sub w3 add m w3 0 d  0 w3 neg d w3 0 d 0 w3 d w3 0 d  0 w3 d w3 neg 0 d 0 w3 d w3 neg 0 d 0 w3 neg d w3 neg 0 d cl s } def
/m29 {mp gsave x w2 sub y w2 add w3 sub m currentpoint t 4 {side} repeat cl fill gr} def
/m30 {mp gsave x w2 sub y w2 add w3 sub m currentpoint t 4 {side} repeat cl s gr} def
/m31 {mp x y w2 sub m 0 w d x w2 sub y m w 0 d x w2 sub y w2 add m w w neg d x w2 sub y w2 sub m w w d s} def
/m32 {mp x y w2 sub m w2 w d w neg 0 d cl s} def
/m33 {mp x y w2 add m w3 neg w2 neg d w3 w2 neg d w3 w2 d cl f} def
/m34 {mp x w2 sub y w2 sub w3 add m w3 0 d  0 w3 neg d w3 0 d 0 w3 d w3 0 d  0 w3 d w3 neg 0 d 0 w3 d w3 neg 0 d 0 w3 neg d w3 neg 0 d cl f } def
/m2 {mp x y w2 sub m 0 w d x w2 sub y m w 0 d s} def
/m5 {mp x w2 sub y w2 sub m w w d x w2 sub y w2 add m w w neg d s} def
/reEncode {exch findfont dup length dict begin {1 index /FID eq  {pop pop} {def} ifelse } forall /Encoding exch def currentdict end dup /FontName get exch definefont pop } def [/Times-Bold /Times-Italic /Times-BoldItalic /Helvetica /Helvetica-Oblique
 /Helvetica-Bold /Helvetica-BoldOblique /Courier /Courier-Oblique /Courier-Bold /Courier-BoldOblique /Times-Roman /AvantGarde-Book /AvantGarde-BookOblique /AvantGarde-Demi /AvantGarde-DemiOblique /Bookman-Demi /Bookman-DemiItalic /Bookman-Light
 /Bookman-LightItalic /Helvetica-Narrow /Helvetica-Narrow-Bold /Helvetica-Narrow-BoldOblique /Helvetica-Narrow-Oblique /NewCenturySchlbk-Roman /NewCenturySchlbk-Bold /NewCenturySchlbk-BoldItalic /NewCenturySchlbk-Italic /Palatino-Bold
 /Palatino-BoldItalic /Palatino-Italic /Palatino-Roman ] {ISOLatin1Encoding reEncode } forall%%EndProlog
%%BeginSetup
%%EndSetup
newpath  gsave  .25 .25 scale  gsave  0 0 t black[  ] 0 sd 3 lw 1 1 1 c 2268 1328 0 0 bf black 1 1 1 c 408 305 23 1009 bf black 1 1 1 c black 306 229 84 1055 bl 306 229 84 1055 bl 84 1055 m 306 X s 130 1059 m -4 Y s 236 1059 m -4 Y s 341 1059 m -4 Y
 s 130 1059 m -4 Y s 341 1059 m -4 Y s
 gsave  408 305 23 1009 C 108.258 1034.15 t 0 r /Helvetica findfont 22.8295 sf 0 0 m (\2550.5) show NC gr 
 gsave  408 305 23 1009 C 225.062 1034.15 t 0 r /Helvetica findfont 22.8295 sf 0 0 m (0) show NC gr 
 gsave  408 305 23 1009 C 321.925 1034.15 t 0 r /Helvetica findfont 22.8295 sf 0 0 m (0.5) show NC gr  84 1284 m 306 X s 130 1280 m 4 Y s 236 1280 m 4 Y s 341 1280 m 4 Y s 130 1280 m 4 Y s 341 1280 m 4 Y s 84 1055 m 229 Y s 89 1077 m -5 X s 87 1083 m
 -3 X s 87 1088 m -3 X s 87 1094 m -3 X s 87 1099 m -3 X s 89 1105 m -5 X s 87 1110 m -3 X s 87 1116 m -3 X s 87 1121 m -3 X s 87 1127 m -3 X s 89 1132 m -5 X s 87 1138 m -3 X s 87 1143 m -3 X s 87 1149 m -3 X s 87 1154 m -3 X s 89 1160 m -5 X s 87
 1165 m -3 X s 87 1171 m -3 X s 87 1176 m -3 X s 87 1182 m -3 X s 89 1187 m -5 X s 87 1193 m -3 X s 87 1198 m -3 X s 87 1204 m -3 X s 87 1209 m -3 X s 89 1215 m -5 X s 87 1220 m -3 X s 87 1226 m -3 X s 87 1231 m -3 X s 87 1237 m -3 X s 89 1242 m -5 X
 s 87 1248 m -3 X s 87 1253 m -3 X s 87 1259 m -3 X s 87 1264 m -3 X s 89 1270 m -5 X s 89 1077 m -5 X s 87 1072 m -3 X s 87 1066 m -3 X s 87 1061 m -3 X s 87 1055 m -3 X s 89 1270 m -5 X s 87 1275 m -3 X s 87 1281 m -3 X s
 gsave  408 305 23 1009 C 14.2445 1071.18 t 0 r /Helvetica findfont 22.8295 sf 0 0 m (\2550.025) show NC gr 
 gsave  408 305 23 1009 C 28.4889 1096.82 t 0 r /Helvetica findfont 22.8295 sf 0 0 m (\2550.02) show NC gr 
 gsave  408 305 23 1009 C 14.2445 1125.31 t 0 r /Helvetica findfont 22.8295 sf 0 0 m (\2550.015) show NC gr 
 gsave  408 305 23 1009 C 31.3378 1153.8 t 0 r /Helvetica findfont 22.8295 sf 0 0 m (\2550.01) show NC gr 
 gsave  408 305 23 1009 C 14.2445 1179.44 t 0 r /Helvetica findfont 22.8295 sf 0 0 m (\2550.005) show NC gr 
 gsave  408 305 23 1009 C 65.5245 1207.93 t 0 r /Helvetica findfont 22.8295 sf 0 0 m (0) show NC gr 
 gsave  408 305 23 1009 C 22.7911 1236.42 t 0 r /Helvetica findfont 22.8295 sf 0 0 m (0.005) show NC gr 
 gsave  408 305 23 1009 C 37.0356 1262.06 t 0 r /Helvetica findfont 22.8295 sf 0 0 m (0.01) show NC gr  390 1055 m 229 Y s 385 1077 m 5 X s 387 1083 m 3 X s 387 1088 m 3 X s 387 1094 m 3 X s 387 1099 m 3 X s 385 1105 m 5 X s 387 1110 m 3 X s 387 1116
 m 3 X s 387 1121 m 3 X s 387 1127 m 3 X s 385 1132 m 5 X s 387 1138 m 3 X s 387 1143 m 3 X s 387 1149 m 3 X s 387 1154 m 3 X s 385 1160 m 5 X s 387 1165 m 3 X s 387 1171 m 3 X s 387 1176 m 3 X s 387 1182 m 3 X s 385 1187 m 5 X s 387 1193 m 3 X s 387
 1198 m 3 X s 387 1204 m 3 X s 387 1209 m 3 X s 385 1215 m 5 X s 387 1220 m 3 X s 387 1226 m 3 X s 387 1231 m 3 X s 387 1237 m 3 X s 385 1242 m 5 X s 387 1248 m 3 X s 387 1253 m 3 X s 387 1259 m 3 X s 387 1264 m 3 X s 385 1270 m 5 X s 385 1077 m 5 X
 s 387 1072 m 3 X s 387 1066 m 3 X s 387 1061 m 3 X s 387 1055 m 3 X s 385 1270 m 5 X s 387 1275 m 3 X s 387 1281 m 3 X s /w 22 def /w2 {w 2 div} def /w3 {w 3 div} def 109 1088 151 1146 194 1191 215 1204 257 1219 278 1227 320 1231 362 1251 8 { m21} R
 109 1099 m 3 Y s 104 1102 m 11 X s 109 1077 m -3 Y s 104 1074 m 11 X s 151 1158 m 3 Y s 146 1161 m 11 X s 151 1135 m -3 Y s 146 1132 m 11 X s 194 1203 m 2 Y s 188 1205 m 11 X s 194 1180 m -3 Y s 188 1177 m 11 X s 215 1215 m 3 Y s 209 1218 m 11 X s
 215 1193 m -3 Y s 209 1190 m 11 X s 257 1231 m 2 Y s 251 1233 m 11 X s 257 1208 m -3 Y s 251 1205 m 11 X s 278 1238 m 3 Y s 272 1241 m 12 X s 278 1215 m -2 Y s 272 1213 m 12 X s 320 1243 m 2 Y s 314 1245 m 12 X s 320 1220 m -3 Y s 314 1217 m 12 X s
 362 1262 m 3 Y s 357 1265 m 11 X s 362 1240 m -3 Y s 357 1237 m 11 X s 9 lw 0.95 0.95 0.95 c black 85 1129 m 3 1 d 4 2 d 3 2 d 3 2 d 3 1 d 3 2 d 3 2 d 3 2 d 3 1 d 3 2 d 3 2 d 3 2 d 3 1 d 3 2 d 3 2 d 3 2 d 3 1 d 4 2 d 3 2 d 3 2 d 3 1 d 3 2 d 3 2 d 3
 2 d 3 1 d 3 2 d 3 2 d 3 2 d 3 1 d 3 2 d 3 2 d 3 2 d 3 1 d 4 2 d 3 2 d 3 2 d 3 1 d 3 2 d 3 2 d 3 2 d 3 1 d 3 2 d 3 2 d 3 2 d 3 2 d 3 1 d 3 2 d 3 2 d 3 2 d s 235 1215 m 4 1 d 3 2 d 3 2 d 3 2 d 3 1 d 3 2 d 3 2 d 3 2 d 3 1 d 3 2 d 3 2 d 3 2 d 3 1 d 3 2
 d 3 2 d 3 2 d 3 1 d 4 2 d 3 2 d 3 2 d 3 1 d 3 2 d 3 2 d 3 2 d 3 1 d 3 2 d 3 2 d 3 2 d 3 1 d 3 2 d 3 2 d 3 2 d 3 1 d 4 2 d 3 2 d 3 2 d 3 1 d 3 2 d 3 2 d 3 1 d s 0.49 0.6 0.82 c black 0.49 0.6 0.82 c
 gsave  408 305 23 1009 C 142.445 1293.4 t 0 r /Helvetica-Bold findfont 25.6831 sf 0 0 m (0.0 < E < 0.5 GeV) show NC gr  0.52 0.76 0.64 c black 0.52 0.76 0.64 c
 gsave  408 305 23 1009 C 128.2 1256.36 t 0 r /Helvetica-Bold findfont 25.6831 sf 0 0 m 
 220 206 192 185 170 163 148 141 126 118 111 97 83 69 61 47 40 25 18
(A = 0.022, p = 1.000) K NC gr  1 0.6 1 c black 1 0.6 1 c
 gsave  408 305 23 1009 C 427.334 1122.46 t 90 r /Helvetica-Bold findfont 28.5368 sf 0 0 m (/dof=4.3) show NC gr  black 1 0.6 1 c
 gsave  408 305 23 1009 C 415.938 1111.07 t 90 r /Helvetica-Bold findfont 19.9758 sf 0 0 m (2) show NC gr  black 1 0.6 1 c
 gsave  408 305 23 1009 C 427.334 1093.97 t 90 r /Symbol findfont 28.5368 sf 0 0 m (c) show NC gr  black 3 lw 1 1 1 c 408 305 476 1009 bf black 1 1 1 c black 307 229 537 1055 bl 307 229 537 1055 bl 537 1055 m 307 X s 584 1059 m -4 Y s 689 1059 m -4 Y
 s 795 1059 m -4 Y s 584 1059 m -4 Y s 795 1059 m -4 Y s
 gsave  408 305 476 1009 C 561.231 1034.15 t 0 r /Helvetica findfont 22.8295 sf 0 0 m (\2550.5) show NC gr 
 gsave  408 305 476 1009 C 678.036 1034.15 t 0 r /Helvetica findfont 22.8295 sf 0 0 m (0) show NC gr 
 gsave  408 305 476 1009 C 774.898 1034.15 t 0 r /Helvetica findfont 22.8295 sf 0 0 m (0.5) show NC gr  537 1284 m 307 X s 584 1280 m 4 Y s 689 1280 m 4 Y s 795 1280 m 4 Y s 584 1280 m 4 Y s 795 1280 m 4 Y s 537 1055 m 229 Y s 543 1061 m -6 X s 540
 1071 m -3 X s 540 1080 m -3 X s 540 1089 m -3 X s 543 1098 m -6 X s 540 1107 m -3 X s 540 1117 m -3 X s 540 1126 m -3 X s 543 1135 m -6 X s 540 1144 m -3 X s 540 1153 m -3 X s 540 1163 m -3 X s 543 1172 m -6 X s 540 1181 m -3 X s 540 1190 m -3 X s
 540 1199 m -3 X s 543 1209 m -6 X s 540 1218 m -3 X s 540 1227 m -3 X s 540 1236 m -3 X s 543 1245 m -6 X s 540 1255 m -3 X s 540 1264 m -3 X s 540 1273 m -3 X s 543 1282 m -6 X s 543 1061 m -6 X s 543 1282 m -6 X s
 gsave  408 305 476 1009 C 481.462 1054.09 t 0 r /Helvetica findfont 22.8295 sf 0 0 m (\2550.06) show NC gr 
 gsave  408 305 476 1009 C 481.462 1091.12 t 0 r /Helvetica findfont 22.8295 sf 0 0 m (\2550.04) show NC gr 
 gsave  408 305 476 1009 C 481.462 1128.16 t 0 r /Helvetica findfont 22.8295 sf 0 0 m (\2550.02) show NC gr 
 gsave  408 305 476 1009 C 518.498 1165.2 t 0 r /Helvetica findfont 22.8295 sf 0 0 m (0) show NC gr 
 gsave  408 305 476 1009 C 487.16 1202.23 t 0 r /Helvetica findfont 22.8295 sf 0 0 m (0.02) show NC gr 
 gsave  408 305 476 1009 C 487.16 1239.27 t 0 r /Helvetica findfont 22.8295 sf 0 0 m (0.04) show NC gr 
 gsave  408 305 476 1009 C 487.16 1276.3 t 0 r /Helvetica findfont 22.8295 sf 0 0 m (0.06) show NC gr  844 1055 m 229 Y s 838 1061 m 6 X s 841 1071 m 3 X s 841 1080 m 3 X s 841 1089 m 3 X s 838 1098 m 6 X s 841 1107 m 3 X s 841 1117 m 3 X s 841 1126
 m 3 X s 838 1135 m 6 X s 841 1144 m 3 X s 841 1153 m 3 X s 841 1163 m 3 X s 838 1172 m 6 X s 841 1181 m 3 X s 841 1190 m 3 X s 841 1199 m 3 X s 838 1209 m 6 X s 841 1218 m 3 X s 841 1227 m 3 X s 841 1236 m 3 X s 838 1245 m 6 X s 841 1255 m 3 X s 841
 1264 m 3 X s 841 1273 m 3 X s 838 1282 m 6 X s 838 1061 m 6 X s 838 1282 m 6 X s /w 23 def /w2 {w 2 div} def /w3 {w 3 div} def 563 1080 605 1112 647 1143 668 1155 710 1187 731 1204 774 1230 816 1259 8 { m21} R 9 lw 0.95 0.95 0.95 c black 539 1065 m
 3 2 d 3 3 d 3 2 d 3 2 d 3 2 d 3 2 d 3 2 d 3 3 d 4 2 d 3 2 d 3 2 d 3 2 d 3 2 d 3 3 d 3 2 d 3 2 d 3 2 d 3 2 d 3 2 d 3 3 d 3 2 d 3 2 d 3 2 d 3 2 d 4 2 d 3 3 d 3 2 d 3 2 d 3 2 d 3 2 d 3 3 d 3 2 d 3 2 d 3 2 d 3 2 d 3 2 d 3 3 d 3 2 d 3 2 d 3 2 d 3 2 d 4 2
 d 3 3 d 3 2 d 3 2 d 3 2 d 3 2 d 3 2 d 3 3 d s 689 1172 m 3 2 d 3 2 d 3 2 d 3 2 d 3 2 d 3 3 d 3 2 d 3 2 d 4 2 d 3 2 d 3 2 d 3 3 d 3 2 d 3 2 d 3 2 d 3 2 d 3 3 d 3 2 d 3 2 d 3 2 d 3 2 d 3 2 d 3 3 d 3 2 d 4 2 d 3 2 d 3 2 d 3 2 d 3 3 d 3 2 d 3 2 d 3 2 d
 3 2 d 3 2 d 3 3 d 3 2 d 3 2 d 3 2 d 3 2 d 3 2 d 4 3 d 3 2 d 3 2 d 3 2 d 3 2 d 3 2 d 3 3 d 3 2 d 3 2 d s 839 1278 m 3 2 d s 0.49 0.6 0.82 c black 0.49 0.6 0.82 c
 gsave  408 305 476 1009 C 595.418 1293.4 t 0 r /Helvetica-Bold findfont 25.6831 sf 0 0 m (0.5 < E < 1.0 GeV) show NC gr  0.52 0.76 0.64 c black 0.52 0.76 0.64 c
 gsave  408 305 476 1009 C 581.174 1256.36 t 0 r /Helvetica-Bold findfont 25.6831 sf 0 0 m 
 220 206 192 185 170 163 148 141 125 118 111 97 83 69 61 47 40 25 18
(A = 0.081, p = 1.000) K NC gr  1 0.6 1 c black 1 0.6 1 c
 gsave  408 305 476 1009 C 883.156 1122.46 t 90 r /Helvetica-Bold findfont 28.5368 sf 0 0 m (/dof=0.1) show NC gr  black 1 0.6 1 c
 gsave  408 305 476 1009 C 871.76 1111.07 t 90 r /Helvetica-Bold findfont 19.9758 sf 0 0 m (2) show NC gr  black 1 0.6 1 c
 gsave  408 305 476 1009 C 883.156 1093.97 t 90 r /Symbol findfont 28.5368 sf 0 0 m (c) show NC gr  black 3 lw 1 1 1 c 408 305 930 1009 bf black 1 1 1 c black 306 229 991 1055 bl 306 229 991 1055 bl 991 1055 m 306 X s 1037 1059 m -4 Y s 1143 1059 m
 -4 Y s 1248 1059 m -4 Y s 1037 1059 m -4 Y s 1248 1059 m -4 Y s
 gsave  408 305 930 1009 C 1017.05 1034.15 t 0 r /Helvetica findfont 22.8295 sf 0 0 m (\2550.5) show NC gr 
 gsave  408 305 930 1009 C 1133.86 1034.15 t 0 r /Helvetica findfont 22.8295 sf 0 0 m (0) show NC gr 
 gsave  408 305 930 1009 C 1230.72 1034.15 t 0 r /Helvetica findfont 22.8295 sf 0 0 m (0.5) show NC gr  991 1284 m 306 X s 1037 1280 m 4 Y s 1143 1280 m 4 Y s 1248 1280 m 4 Y s 1037 1280 m 4 Y s 1248 1280 m 4 Y s 991 1055 m 229 Y s 997 1074 m -6 X s
 994 1081 m -3 X s 994 1088 m -3 X s 994 1095 m -3 X s 997 1102 m -6 X s 994 1110 m -3 X s 994 1117 m -3 X s 994 1124 m -3 X s 997 1131 m -6 X s 994 1138 m -3 X s 994 1145 m -3 X s 994 1153 m -3 X s 997 1160 m -6 X s 994 1167 m -3 X s 994 1174 m -3 X
 s 994 1181 m -3 X s 997 1189 m -6 X s 994 1196 m -3 X s 994 1203 m -3 X s 994 1210 m -3 X s 997 1217 m -6 X s 994 1224 m -3 X s 994 1232 m -3 X s 994 1239 m -3 X s 997 1246 m -6 X s 994 1253 m -3 X s 994 1260 m -3 X s 994 1268 m -3 X s 997 1275 m -6
 X s 997 1074 m -6 X s 994 1067 m -3 X s 994 1059 m -3 X s 997 1275 m -6 X s 994 1282 m -3 X s
 gsave  408 305 930 1009 C 937.285 1065.48 t 0 r /Helvetica findfont 22.8295 sf 0 0 m (\2550.08) show NC gr 
 gsave  408 305 930 1009 C 937.285 1093.97 t 0 r /Helvetica findfont 22.8295 sf 0 0 m (\2550.06) show NC gr 
 gsave  408 305 930 1009 C 937.285 1125.31 t 0 r /Helvetica findfont 22.8295 sf 0 0 m (\2550.04) show NC gr 
 gsave  408 305 930 1009 C 937.285 1153.8 t 0 r /Helvetica findfont 22.8295 sf 0 0 m (\2550.02) show NC gr 
 gsave  408 305 930 1009 C 974.32 1182.29 t 0 r /Helvetica findfont 22.8295 sf 0 0 m (0) show NC gr 
 gsave  408 305 930 1009 C 942.983 1210.78 t 0 r /Helvetica findfont 22.8295 sf 0 0 m (0.02) show NC gr 
 gsave  408 305 930 1009 C 942.983 1239.27 t 0 r /Helvetica findfont 22.8295 sf 0 0 m (0.04) show NC gr 
 gsave  408 305 930 1009 C 942.983 1267.76 t 0 r /Helvetica findfont 22.8295 sf 0 0 m (0.06) show NC gr  1297 1055 m 229 Y s 1292 1074 m 5 X s 1294 1081 m 3 X s 1294 1088 m 3 X s 1294 1095 m 3 X s 1292 1102 m 5 X s 1294 1110 m 3 X s 1294 1117 m 3 X s
 1294 1124 m 3 X s 1292 1131 m 5 X s 1294 1138 m 3 X s 1294 1145 m 3 X s 1294 1153 m 3 X s 1292 1160 m 5 X s 1294 1167 m 3 X s 1294 1174 m 3 X s 1294 1181 m 3 X s 1292 1189 m 5 X s 1294 1196 m 3 X s 1294 1203 m 3 X s 1294 1210 m 3 X s 1292 1217 m 5 X
 s 1294 1224 m 3 X s 1294 1232 m 3 X s 1294 1239 m 3 X s 1292 1246 m 5 X s 1294 1253 m 3 X s 1294 1260 m 3 X s 1294 1268 m 3 X s 1292 1275 m 5 X s 1292 1074 m 5 X s 1294 1067 m 3 X s 1294 1059 m 3 X s 1292 1275 m 5 X s 1294 1282 m 3 X s 1016 1078
 1058 1115 1101 1152 1122 1172 1164 1206 1185 1220 1227 1249 1269 1260 8 { m21} R 9 lw 0.95 0.95 0.95 c black 993 1076 m 3 2 d 3 3 d 3 2 d 3 2 d 3 3 d 3 2 d 3 2 d 3 2 d 3 3 d 3 2 d 3 2 d 3 3 d 3 2 d 3 2 d 3 2 d 4 3 d 3 2 d 3 2 d 3 3 d 3 2 d 3 2 d 3 2
 d 3 3 d 3 2 d 3 2 d 3 3 d 3 2 d 3 2 d 3 3 d 3 2 d 3 2 d 3 2 d 4 3 d 3 2 d 3 2 d 3 3 d 3 2 d 3 2 d 3 2 d 3 3 d 3 2 d 3 2 d 3 3 d 3 2 d 3 2 d 3 2 d 3 3 d 3 2 d 4 2 d s 1143 1188 m 3 3 d 3 2 d 3 2 d 3 3 d 3 2 d 3 2 d 3 2 d 3 3 d 3 2 d 3 2 d 3 3 d 3 2 d
 3 2 d 3 2 d 3 3 d 4 2 d 3 2 d 3 3 d 3 2 d 3 2 d 3 3 d 3 2 d 3 2 d 3 2 d 3 3 d 3 2 d 3 2 d 3 3 d 3 2 d 3 2 d 3 2 d 3 3 d 4 2 d 3 2 d 3 3 d 3 2 d 3 2 d 3 2 d 3 3 d 3 2 d 3 2 d 3 2 d s 0.49 0.6 0.82 c black 0.49 0.6 0.82 c
 gsave  408 305 930 1009 C 1051.24 1293.4 t 0 r /Helvetica-Bold findfont 25.6831 sf 0 0 m (1.0 < E < 1.5 GeV) show NC gr  0.52 0.76 0.64 c black 0.52 0.76 0.64 c
 gsave  408 305 930 1009 C 1037 1256.36 t 0 r /Helvetica-Bold findfont 25.6831 sf 0 0 m 
 218 204 190 183 168 161 146 139 124 116 109 95 81 68 61 47 39 24 17
(A = 0.110, p = 1.000) K NC gr  1 0.6 1 c black 1 0.6 1 c
 gsave  408 305 930 1009 C 1336.13 1122.46 t 90 r /Helvetica-Bold findfont 28.5368 sf 0 0 m (/dof=6.8) show NC gr  black 1 0.6 1 c
 gsave  408 305 930 1009 C 1324.73 1111.07 t 90 r /Helvetica-Bold findfont 19.9758 sf 0 0 m (2) show NC gr  black 1 0.6 1 c
 gsave  408 305 930 1009 C 1336.13 1093.97 t 90 r /Symbol findfont 28.5368 sf 0 0 m (c) show NC gr  black 3 lw 1 1 1 c 408 305 1383 1009 bf black 1 1 1 c black 306 229 1445 1055 bl 306 229 1445 1055 bl 1445 1055 m 306 X s 1491 1059 m -4 Y s 1596 1059
 m -4 Y s 1702 1059 m -4 Y s 1491 1059 m -4 Y s 1702 1059 m -4 Y s
 gsave  408 305 1383 1009 C 1470.03 1034.15 t 0 r /Helvetica findfont 22.8295 sf 0 0 m (\2550.5) show NC gr 
 gsave  408 305 1383 1009 C 1586.83 1034.15 t 0 r /Helvetica findfont 22.8295 sf 0 0 m (0) show NC gr 
 gsave  408 305 1383 1009 C 1683.69 1034.15 t 0 r /Helvetica findfont 22.8295 sf 0 0 m (0.5) show NC gr  1445 1284 m 306 X s 1491 1280 m 4 Y s 1596 1280 m 4 Y s 1702 1280 m 4 Y s 1491 1280 m 4 Y s 1702 1280 m 4 Y s 1445 1055 m 229 Y s 1450 1073 m -5
 X s 1447 1078 m -2 X s 1447 1084 m -2 X s 1447 1089 m -2 X s 1447 1094 m -2 X s 1450 1100 m -5 X s 1447 1105 m -2 X s 1447 1111 m -2 X s 1447 1116 m -2 X s 1447 1121 m -2 X s 1450 1127 m -5 X s 1447 1132 m -2 X s 1447 1137 m -2 X s 1447 1143 m -2 X
 s 1447 1148 m -2 X s 1450 1154 m -5 X s 1447 1159 m -2 X s 1447 1164 m -2 X s 1447 1170 m -2 X s 1447 1175 m -2 X s 1450 1180 m -5 X s 1447 1186 m -2 X s 1447 1191 m -2 X s 1447 1196 m -2 X s 1447 1202 m -2 X s 1450 1207 m -5 X s 1447 1213 m -2 X s
 1447 1218 m -2 X s 1447 1223 m -2 X s 1447 1229 m -2 X s 1450 1234 m -5 X s 1447 1239 m -2 X s 1447 1245 m -2 X s 1447 1250 m -2 X s 1447 1256 m -2 X s 1450 1261 m -5 X s 1450 1073 m -5 X s 1447 1068 m -2 X s 1447 1062 m -2 X s 1447 1057 m -2 X s
 1450 1261 m -5 X s 1447 1266 m -2 X s 1447 1272 m -2 X s 1447 1277 m -2 X s 1447 1282 m -2 X s
 gsave  408 305 1383 1009 C 1390.26 1065.48 t 0 r /Helvetica findfont 22.8295 sf 0 0 m (\2550.07) show NC gr 
 gsave  408 305 1383 1009 C 1390.26 1093.97 t 0 r /Helvetica findfont 22.8295 sf 0 0 m (\2550.06) show NC gr 
 gsave  408 305 1383 1009 C 1390.26 1119.61 t 0 r /Helvetica findfont 22.8295 sf 0 0 m (\2550.05) show NC gr 
 gsave  408 305 1383 1009 C 1390.26 1145.25 t 0 r /Helvetica findfont 22.8295 sf 0 0 m (\2550.04) show NC gr 
 gsave  408 305 1383 1009 C 1390.26 1173.74 t 0 r /Helvetica findfont 22.8295 sf 0 0 m (\2550.03) show NC gr 
 gsave  408 305 1383 1009 C 1390.26 1199.38 t 0 r /Helvetica findfont 22.8295 sf 0 0 m (\2550.02) show NC gr 
 gsave  408 305 1383 1009 C 1393.11 1227.87 t 0 r /Helvetica findfont 22.8295 sf 0 0 m (\2550.01) show NC gr 
 gsave  408 305 1383 1009 C 1427.29 1253.51 t 0 r /Helvetica findfont 22.8295 sf 0 0 m (0) show NC gr  1751 1055 m 229 Y s 1745 1073 m 6 X s 1748 1078 m 3 X s 1748 1084 m 3 X s 1748 1089 m 3 X s 1748 1094 m 3 X s 1745 1100 m 6 X s 1748 1105 m 3 X s
 1748 1111 m 3 X s 1748 1116 m 3 X s 1748 1121 m 3 X s 1745 1127 m 6 X s 1748 1132 m 3 X s 1748 1137 m 3 X s 1748 1143 m 3 X s 1748 1148 m 3 X s 1745 1154 m 6 X s 1748 1159 m 3 X s 1748 1164 m 3 X s 1748 1170 m 3 X s 1748 1175 m 3 X s 1745 1180 m 6 X
 s 1748 1186 m 3 X s 1748 1191 m 3 X s 1748 1196 m 3 X s 1748 1202 m 3 X s 1745 1207 m 6 X s 1748 1213 m 3 X s 1748 1218 m 3 X s 1748 1223 m 3 X s 1748 1229 m 3 X s 1745 1234 m 6 X s 1748 1239 m 3 X s 1748 1245 m 3 X s 1748 1250 m 3 X s 1748 1256 m 3
 X s 1745 1261 m 6 X s 1745 1073 m 6 X s 1748 1068 m 3 X s 1748 1062 m 3 X s 1748 1057 m 3 X s 1745 1261 m 6 X s 1748 1266 m 3 X s 1748 1272 m 3 X s 1748 1277 m 3 X s 1748 1282 m 3 X s 1470 1082 1512 1166 1554 1235 1575 1256 1617 1250 1639 1243 1681
 1191 1723 1161 8 { m21} R 1 0 0 c 9 lw 0.95 0.95 0.95 c black 1 0 0 c 1446 1056 m 3 8 d 3 9 d 3 8 d 3 7 d 3 8 d 3 7 d 3 7 d 4 8 d 3 6 d 3 7 d 3 7 d 3 6 d 3 6 d 3 6 d 3 6 d 3 6 d 3 5 d 3 6 d 3 5 d 3 5 d 3 5 d 3 5 d 3 4 d 4 4 d 3 5 d 3 4 d 3 4 d 3 3 d
 3 4 d 3 3 d 3 3 d 3 3 d 3 3 d 3 3 d 3 2 d 3 2 d 3 3 d 3 2 d 3 1 d 4 2 d 3 1 d 3 2 d 3 1 d 3 1 d 3 1 d 3 X 3 1 d 6 X s 1596 1261 m 6 X 3 -1 d 3 X 3 -1 d 3 -1 d 4 -1 d 3 -1 d 3 -2 d 3 -1 d 3 -2 d 3 -2 d 3 -2 d 3 -2 d 3 -3 d 3 -3 d 3 -2 d 3 -3 d 3 -3 d
 3 -4 d 3 -3 d 3 -4 d 3 -4 d 4 -4 d 3 -4 d 3 -4 d 3 -5 d 3 -4 d 3 -5 d 3 -5 d 3 -5 d 3 -6 d 3 -5 d 3 -6 d 3 -6 d 3 -6 d 3 -6 d 3 -6 d 3 -7 d 4 -6 d 3 -7 d 3 -7 d 3 -7 d 3 -8 d 3 -7 d 3 -8 d 3 -8 d 3 -8 d 3 -8 d s 0.49 0.6 0.82 c black 0.49 0.6 0.82 c
 gsave  408 305 1383 1009 C 1504.21 1293.4 t 0 r /Helvetica-Bold findfont 25.6831 sf 0 0 m (1.5 < E < 2.0 GeV) show NC gr  0.52 0.76 0.64 c black 0.52 0.76 0.64 c
 gsave  408 305 1383 1009 C 1484.27 1256.36 t 0 r /Helvetica-Bold findfont 25.6831 sf 0 0 m 
 228 214 200 193 178 171 156 149 133 126 119 105 91 76 69 55 47 39 25 17
(A = \2550.150, p = 2.000) K NC gr  1 0.6 1 c black 1 0.6 1 c
 gsave  408 305 1383 1009 C 1789.1 1122.46 t 90 r /Helvetica-Bold findfont 28.5368 sf 0 0 m (/dof=9.2) show NC gr  black 1 0.6 1 c
 gsave  408 305 1383 1009 C 1777.71 1111.07 t 90 r /Helvetica-Bold findfont 19.9758 sf 0 0 m (2) show NC gr  black 1 0.6 1 c
 gsave  408 305 1383 1009 C 1789.1 1093.97 t 90 r /Symbol findfont 28.5368 sf 0 0 m (c) show NC gr  black 3 lw 1 1 1 c 408 305 1837 1009 bf black 1 1 1 c black 306 229 1898 1055 bl 306 229 1898 1055 bl 1898 1055 m 306 X s 1944 1059 m -4 Y s 2050 1059
 m -4 Y s 2155 1059 m -4 Y s 1944 1059 m -4 Y s 2155 1059 m -4 Y s
 gsave  408 305 1837 1009 C 1923 1034.15 t 0 r /Helvetica findfont 22.8295 sf 0 0 m (\2550.5) show NC gr 
 gsave  408 305 1837 1009 C 2039.81 1034.15 t 0 r /Helvetica findfont 22.8295 sf 0 0 m (0) show NC gr 
 gsave  408 305 1837 1009 C 2136.67 1034.15 t 0 r /Helvetica findfont 22.8295 sf 0 0 m (0.5) show NC gr  1898 1284 m 306 X s 1944 1280 m 4 Y s 2050 1280 m 4 Y s 2155 1280 m 4 Y s 1944 1280 m 4 Y s 2155 1280 m 4 Y s 1898 1055 m 229 Y s 1904 1092 m -6
 X s 1901 1102 m -3 X s 1901 1111 m -3 X s 1901 1121 m -3 X s 1904 1130 m -6 X s 1901 1140 m -3 X s 1901 1149 m -3 X s 1901 1159 m -3 X s 1904 1168 m -6 X s 1901 1178 m -3 X s 1901 1187 m -3 X s 1901 1197 m -3 X s 1904 1206 m -6 X s 1901 1216 m -3 X
 s 1901 1226 m -3 X s 1901 1235 m -3 X s 1904 1245 m -6 X s 1901 1254 m -3 X s 1901 1264 m -3 X s 1901 1273 m -3 X s 1904 1283 m -6 X s 1904 1092 m -6 X s 1901 1083 m -3 X s 1901 1073 m -3 X s 1901 1063 m -3 X s 1904 1283 m -6 X s
 gsave  408 305 1837 1009 C 1843.23 1085.43 t 0 r /Helvetica findfont 22.8295 sf 0 0 m (\2550.04) show NC gr 
 gsave  408 305 1837 1009 C 1843.23 1122.46 t 0 r /Helvetica findfont 22.8295 sf 0 0 m (\2550.02) show NC gr 
 gsave  408 305 1837 1009 C 1880.27 1162.35 t 0 r /Helvetica findfont 22.8295 sf 0 0 m (0) show NC gr 
 gsave  408 305 1837 1009 C 1848.93 1199.38 t 0 r /Helvetica findfont 22.8295 sf 0 0 m (0.02) show NC gr 
 gsave  408 305 1837 1009 C 1848.93 1236.42 t 0 r /Helvetica findfont 22.8295 sf 0 0 m (0.04) show NC gr 
 gsave  408 305 1837 1009 C 1848.93 1276.3 t 0 r /Helvetica findfont 22.8295 sf 0 0 m (0.06) show NC gr  2204 1055 m 229 Y s 2199 1092 m 5 X s 2201 1102 m 3 X s 2201 1111 m 3 X s 2201 1121 m 3 X s 2199 1130 m 5 X s 2201 1140 m 3 X s 2201 1149 m 3 X s
 2201 1159 m 3 X s 2199 1168 m 5 X s 2201 1178 m 3 X s 2201 1187 m 3 X s 2201 1197 m 3 X s 2199 1206 m 5 X s 2201 1216 m 3 X s 2201 1226 m 3 X s 2201 1235 m 3 X s 2199 1245 m 5 X s 2201 1254 m 3 X s 2201 1264 m 3 X s 2201 1273 m 3 X s 2199 1283 m 5 X
 s 2199 1092 m 5 X s 2201 1083 m 3 X s 2201 1073 m 3 X s 2201 1063 m 3 X s 2199 1283 m 5 X s 1923 1247 1966 1258 2008 1212 2029 1194 2071 1148 2092 1128 2134 1104 2176 1080 8 { m21} R 9 lw 0.95 0.95 0.95 c black 1900 1283 m 3 -2 d 3 -3 d 3 -2 d 3 -2
 d 3 -3 d 3 -2 d 3 -2 d 3 -3 d 3 -2 d 3 -2 d 3 -3 d 3 -2 d 3 -2 d 3 -3 d 4 -2 d 3 -2 d 3 -3 d 3 -2 d 3 -2 d 3 -3 d 3 -2 d 3 -2 d 3 -3 d 3 -2 d 3 -2 d 3 -3 d 3 -2 d 3 -2 d 3 -3 d 3 -2 d 4 -2 d 3 -3 d 3 -2 d 3 -2 d 3 -3 d 3 -2 d 3 -2 d 3 -3 d 3 -2 d 3
 -2 d 3 -3 d 3 -2 d 3 -2 d 3 -3 d 3 -2 d 3 -2 d 3 -3 d 4 -2 d 3 -2 d s 2050 1169 m 3 -3 d 3 -2 d 3 -2 d 3 -3 d 3 -2 d 3 -3 d 3 -2 d 3 -2 d 3 -3 d 3 -2 d 3 -2 d 3 -3 d 3 -2 d 3 -2 d 4 -3 d 3 -2 d 3 -2 d 3 -3 d 3 -2 d 3 -2 d 3 -3 d 3 -2 d 3 -2 d 3 -3 d
 3 -2 d 3 -2 d 3 -3 d 3 -2 d 3 -2 d 3 -3 d 4 -2 d 3 -2 d 3 -3 d 3 -2 d 3 -2 d 3 -3 d 3 -2 d 3 -2 d 3 -3 d 3 -2 d 3 -2 d 3 -3 d 3 -2 d 3 -2 d 3 -3 d 3 -2 d 4 -2 d 3 -3 d 3 -1 d s 0.49 0.6 0.82 c black 0.49 0.6 0.82 c
 gsave  408 305 1837 1009 C 1957.19 1293.4 t 0 r /Helvetica-Bold findfont 25.6831 sf 0 0 m (2.0 < E < 2.5 GeV) show NC gr  0.52 0.76 0.64 c black 0.52 0.76 0.64 c
 gsave  408 305 1837 1009 C 1937.25 1256.36 t 0 r /Helvetica-Bold findfont 25.6831 sf 0 0 m 
 228 214 200 193 178 171 156 149 134 126 119 105 91 77 69 55 47 39 25 17
(A = \2550.084, p = 1.000) K NC gr  1 0.6 1 c black 1 0.6 1 c
 gsave  408 305 1837 1009 C 2242.08 1122.46 t 90 r /Helvetica-Bold findfont 28.5368 sf 0 0 m (/dof=4.4) show NC gr  black 1 0.6 1 c
 gsave  408 305 1837 1009 C 2230.68 1111.07 t 90 r /Helvetica-Bold findfont 19.9758 sf 0 0 m (2) show NC gr  black 1 0.6 1 c
 gsave  408 305 1837 1009 C 2242.08 1093.97 t 90 r /Symbol findfont 28.5368 sf 0 0 m (c) show NC gr  black 3 lw 1 1 1 c 408 305 23 677 bf black 1 1 1 c black 306 229 84 723 bl 306 229 84 723 bl 84 723 m 306 X s 130 727 m -4 Y s 236 727 m -4 Y s 341
 727 m -4 Y s 130 727 m -4 Y s 341 727 m -4 Y s
 gsave  408 305 23 677 C 108.258 703.676 t 0 r /Helvetica findfont 22.8295 sf 0 0 m (\2550.5) show NC gr 
 gsave  408 305 23 677 C 225.062 703.676 t 0 r /Helvetica findfont 22.8295 sf 0 0 m (0) show NC gr 
 gsave  408 305 23 677 C 321.925 703.676 t 0 r /Helvetica findfont 22.8295 sf 0 0 m (0.5) show NC gr  84 952 m 306 X s 130 948 m 4 Y s 236 948 m 4 Y s 341 948 m 4 Y s 130 948 m 4 Y s 341 948 m 4 Y s 84 723 m 229 Y s 89 730 m -5 X s 87 738 m -3 X s 87
 745 m -3 X s 87 753 m -3 X s 89 760 m -5 X s 87 768 m -3 X s 87 775 m -3 X s 87 783 m -3 X s 89 790 m -5 X s 87 798 m -3 X s 87 806 m -3 X s 87 813 m -3 X s 89 821 m -5 X s 87 828 m -3 X s 87 836 m -3 X s 87 843 m -3 X s 89 851 m -5 X s 87 858 m -3
 X s 87 866 m -3 X s 87 873 m -3 X s 89 881 m -5 X s 87 888 m -3 X s 87 896 m -3 X s 87 903 m -3 X s 89 911 m -5 X s 87 918 m -3 X s 87 926 m -3 X s 87 933 m -3 X s 89 941 m -5 X s 89 730 m -5 X s 89 941 m -5 X s 87 948 m -3 X s
 gsave  408 305 23 677 C 28.4889 723.618 t 0 r /Helvetica findfont 22.8295 sf 0 0 m (\2550.04) show NC gr 
 gsave  408 305 23 677 C 28.4889 752.107 t 0 r /Helvetica findfont 22.8295 sf 0 0 m (\2550.02) show NC gr 
 gsave  408 305 23 677 C 65.5245 783.445 t 0 r /Helvetica findfont 22.8295 sf 0 0 m (0) show NC gr 
 gsave  408 305 23 677 C 34.1867 814.783 t 0 r /Helvetica findfont 22.8295 sf 0 0 m (0.02) show NC gr 
 gsave  408 305 23 677 C 34.1867 843.271 t 0 r /Helvetica findfont 22.8295 sf 0 0 m (0.04) show NC gr 
 gsave  408 305 23 677 C 34.1867 874.609 t 0 r /Helvetica findfont 22.8295 sf 0 0 m (0.06) show NC gr 
 gsave  408 305 23 677 C 34.1867 903.098 t 0 r /Helvetica findfont 22.8295 sf 0 0 m (0.08) show NC gr 
 gsave  408 305 23 677 C 51.28 934.436 t 0 r /Helvetica findfont 22.8295 sf 0 0 m (0.1) show NC gr  390 723 m 229 Y s 385 730 m 5 X s 387 738 m 3 X s 387 745 m 3 X s 387 753 m 3 X s 385 760 m 5 X s 387 768 m 3 X s 387 775 m 3 X s 387 783 m 3 X s 385
 790 m 5 X s 387 798 m 3 X s 387 806 m 3 X s 387 813 m 3 X s 385 821 m 5 X s 387 828 m 3 X s 387 836 m 3 X s 387 843 m 3 X s 385 851 m 5 X s 387 858 m 3 X s 387 866 m 3 X s 387 873 m 3 X s 385 881 m 5 X s 387 888 m 3 X s 387 896 m 3 X s 387 903 m 3 X
 s 385 911 m 5 X s 387 918 m 3 X s 387 926 m 3 X s 387 933 m 3 X s 385 941 m 5 X s 385 730 m 5 X s 385 941 m 5 X s 387 948 m 3 X s /w 22 def /w2 {w 2 div} def /w3 {w 3 div} def 109 927 151 868 194 828 215 802 257 780 278 769 320 758 362 747 8 { m21}
 R 9 lw 0.95 0.95 0.95 c black 85 887 m 3 -2 d 4 -2 d 3 -2 d 3 -2 d 3 -2 d 3 -2 d 3 -1 d 3 -2 d 3 -2 d 3 -2 d 3 -2 d 3 -2 d 3 -2 d 3 -2 d 3 -2 d 3 -2 d 3 -2 d 4 -2 d 3 -2 d 3 -2 d 3 -2 d 3 -2 d 3 -2 d 3 -2 d 3 -2 d 3 -2 d 3 -2 d 3 -2 d 3 -2 d 3 -2 d
 3 -2 d 3 -2 d 3 -2 d 4 -2 d 3 -2 d 3 -2 d 3 -2 d 3 -2 d 3 -2 d 3 -2 d 3 -2 d 3 -2 d 3 -2 d 3 -1 d 3 -2 d 3 -2 d 3 -2 d 3 -2 d 3 -2 d s 235 791 m 4 -2 d 3 -2 d 3 -2 d 3 -2 d 3 -2 d 3 -2 d 3 -2 d 3 -2 d 3 -2 d 3 -2 d 3 -2 d 3 -2 d 3 -2 d 3 -2 d 3 -2 d
 3 -2 d 3 -2 d 4 -2 d 3 -2 d 3 -2 d 3 -2 d 3 -2 d 3 -2 d 3 -2 d 3 -2 d 3 -2 d 3 -2 d 3 -2 d 3 -2 d 3 -2 d 3 -2 d 3 -2 d 3 -1 d 4 -2 d 3 -1 d s 0.49 0.6 0.82 c black 0.49 0.6 0.82 c
 gsave  408 305 23 677 C 142.445 960.076 t 0 r /Helvetica-Bold findfont 25.6831 sf 0 0 m (2.5 < E < 3.0 GeV) show NC gr  0.52 0.76 0.64 c black 0.52 0.76 0.64 c
 gsave  408 305 23 677 C 122.502 923.04 t 0 r /Helvetica-Bold findfont 25.6831 sf 0 0 m 
 228 214 200 193 178 171 156 149 134 126 119 105 91 77 69 55 47 40 25 17
(A = \2550.090, p = 1.000) K NC gr  1 0.6 1 c black 1 0.6 1 c
 gsave  408 305 23 677 C 427.334 783.445 t 90 r /Helvetica-Bold findfont 28.5368 sf 0 0 m (/dof=25.5) show NC gr  black 1 0.6 1 c
 gsave  408 305 23 677 C 415.938 772.049 t 90 r /Helvetica-Bold findfont 19.9758 sf 0 0 m (2) show NC gr  black 1 0.6 1 c
 gsave  408 305 23 677 C 427.334 754.956 t 90 r /Symbol findfont 28.5368 sf 0 0 m (c) show NC gr  black 3 lw 1 1 1 c 408 305 476 677 bf black 1 1 1 c black 307 229 537 723 bl 307 229 537 723 bl 537 723 m 307 X s 584 727 m -4 Y s 689 727 m -4 Y s 795
 727 m -4 Y s 584 727 m -4 Y s 795 727 m -4 Y s
 gsave  408 305 476 677 C 561.231 703.676 t 0 r /Helvetica findfont 22.8295 sf 0 0 m (\2550.5) show NC gr 
 gsave  408 305 476 677 C 678.036 703.676 t 0 r /Helvetica findfont 22.8295 sf 0 0 m (0) show NC gr 
 gsave  408 305 476 677 C 774.898 703.676 t 0 r /Helvetica findfont 22.8295 sf 0 0 m (0.5) show NC gr  537 952 m 307 X s 584 948 m 4 Y s 689 948 m 4 Y s 795 948 m 4 Y s 584 948 m 4 Y s 795 948 m 4 Y s 537 723 m 229 Y s 543 726 m -6 X s 540 736 m -3 X
 s 540 745 m -3 X s 540 755 m -3 X s 543 765 m -6 X s 540 774 m -3 X s 540 784 m -3 X s 540 794 m -3 X s 543 803 m -6 X s 540 813 m -3 X s 540 822 m -3 X s 540 832 m -3 X s 543 842 m -6 X s 540 851 m -3 X s 540 861 m -3 X s 540 871 m -3 X s 543 880 m
 -6 X s 540 890 m -3 X s 540 899 m -3 X s 540 909 m -3 X s 543 919 m -6 X s 543 726 m -6 X s 543 919 m -6 X s 540 928 m -3 X s 540 938 m -3 X s 540 948 m -3 X s
 gsave  408 305 476 677 C 481.462 717.92 t 0 r /Helvetica findfont 22.8295 sf 0 0 m (\2550.02) show NC gr 
 gsave  408 305 476 677 C 518.498 757.805 t 0 r /Helvetica findfont 22.8295 sf 0 0 m (0) show NC gr 
 gsave  408 305 476 677 C 487.16 794.84 t 0 r /Helvetica findfont 22.8295 sf 0 0 m (0.02) show NC gr 
 gsave  408 305 476 677 C 487.16 834.725 t 0 r /Helvetica findfont 22.8295 sf 0 0 m (0.04) show NC gr 
 gsave  408 305 476 677 C 487.16 871.76 t 0 r /Helvetica findfont 22.8295 sf 0 0 m (0.06) show NC gr 
 gsave  408 305 476 677 C 487.16 911.645 t 0 r /Helvetica findfont 22.8295 sf 0 0 m (0.08) show NC gr  844 723 m 229 Y s 838 726 m 6 X s 841 736 m 3 X s 841 745 m 3 X s 841 755 m 3 X s 838 765 m 6 X s 841 774 m 3 X s 841 784 m 3 X s 841 794 m 3 X s
 838 803 m 6 X s 841 813 m 3 X s 841 822 m 3 X s 841 832 m 3 X s 838 842 m 6 X s 841 851 m 3 X s 841 861 m 3 X s 841 871 m 3 X s 838 880 m 6 X s 841 890 m 3 X s 841 899 m 3 X s 841 909 m 3 X s 838 919 m 6 X s 838 726 m 6 X s 838 919 m 6 X s 841 928 m
 3 X s 841 938 m 3 X s 841 948 m 3 X s /w 23 def /w2 {w 2 div} def /w3 {w 3 div} def 563 924 605 850 647 800 668 785 710 755 731 750 774 756 816 753 8 { m21} R 9 lw 0.95 0.95 0.95 c black 539 853 m 3 -2 d 3 -2 d 3 -1 d 3 -2 d 3 -2 d 3 -2 d 3 -2 d 3
 -1 d 4 -2 d 3 -2 d 3 -2 d 3 -2 d 3 -1 d 3 -2 d 3 -2 d 3 -2 d 3 -2 d 3 -1 d 3 -2 d 3 -2 d 3 -2 d 3 -2 d 3 -1 d 3 -2 d 4 -2 d 3 -2 d 3 -2 d 3 -1 d 3 -2 d 3 -2 d 3 -2 d 3 -2 d 3 -1 d 3 -2 d 3 -2 d 3 -2 d 3 -2 d 3 -1 d 3 -2 d 3 -2 d 3 -2 d 4 -2 d 3 -1 d
 3 -2 d 3 -2 d 3 -2 d 3 -2 d 3 -1 d 3 -2 d s 689 765 m 3 -2 d 3 -2 d 3 -2 d 3 -1 d 3 -2 d 3 -2 d 3 -2 d 3 -2 d 4 -1 d 3 -2 d 3 -2 d 3 -2 d 3 -2 d 3 -1 d 3 -2 d 3 -2 d 3 -2 d 3 -2 d 3 -1 d 3 -2 d 3 -2 d 3 -2 d 3 -2 d 3 X s 0.49 0.6 0.82 c black 0.49
 0.6 0.82 c
 gsave  408 305 476 677 C 595.418 960.076 t 0 r /Helvetica-Bold findfont 25.6831 sf 0 0 m (3.0 < E < 3.5 GeV) show NC gr  0.52 0.76 0.64 c black 0.52 0.76 0.64 c
 gsave  408 305 476 677 C 575.476 923.04 t 0 r /Helvetica-Bold findfont 25.6831 sf 0 0 m 
 228 214 200 193 178 171 156 149 133 126 119 105 91 77 69 55 47 39 25 17
(A = \2550.064, p = 1.000) K NC gr  1 0.6 1 c black 1 0.6 1 c
 gsave  408 305 476 677 C 883.156 783.445 t 90 r /Helvetica-Bold findfont 28.5368 sf 0 0 m (/dof=31.4) show NC gr  black 1 0.6 1 c
 gsave  408 305 476 677 C 871.76 772.049 t 90 r /Helvetica-Bold findfont 19.9758 sf 0 0 m (2) show NC gr  black 1 0.6 1 c
 gsave  408 305 476 677 C 883.156 754.956 t 90 r /Symbol findfont 28.5368 sf 0 0 m (c) show NC gr  black 3 lw 1 1 1 c 408 305 930 677 bf black 1 1 1 c black 306 229 991 723 bl 306 229 991 723 bl 991 723 m 306 X s 1037 727 m -4 Y s 1143 727 m -4 Y s
 1248 727 m -4 Y s 1037 727 m -4 Y s 1248 727 m -4 Y s
 gsave  408 305 930 677 C 1017.05 703.676 t 0 r /Helvetica findfont 22.8295 sf 0 0 m (\2550.5) show NC gr 
 gsave  408 305 930 677 C 1133.86 703.676 t 0 r /Helvetica findfont 22.8295 sf 0 0 m (0) show NC gr 
 gsave  408 305 930 677 C 1230.72 703.676 t 0 r /Helvetica findfont 22.8295 sf 0 0 m (0.5) show NC gr  991 952 m 306 X s 1037 948 m 4 Y s 1143 948 m 4 Y s 1248 948 m 4 Y s 1037 948 m 4 Y s 1248 948 m 4 Y s 991 723 m 229 Y s 997 749 m -6 X s 994 754 m
 -3 X s 994 759 m -3 X s 994 764 m -3 X s 994 769 m -3 X s 997 774 m -6 X s 994 780 m -3 X s 994 785 m -3 X s 994 790 m -3 X s 994 795 m -3 X s 997 800 m -6 X s 994 805 m -3 X s 994 810 m -3 X s 994 816 m -3 X s 994 821 m -3 X s 997 826 m -6 X s 994
 831 m -3 X s 994 836 m -3 X s 994 841 m -3 X s 994 847 m -3 X s 997 852 m -6 X s 994 857 m -3 X s 994 862 m -3 X s 994 867 m -3 X s 994 872 m -3 X s 997 878 m -6 X s 994 883 m -3 X s 994 888 m -3 X s 994 893 m -3 X s 994 898 m -3 X s 997 903 m -6 X
 s 994 909 m -3 X s 994 914 m -3 X s 994 919 m -3 X s 994 924 m -3 X s 997 929 m -6 X s 997 749 m -6 X s 994 743 m -3 X s 994 738 m -3 X s 994 733 m -3 X s 994 728 m -3 X s 997 929 m -6 X s 994 934 m -3 X s 994 939 m -3 X s 994 945 m -3 X s 994 950 m
 -3 X s
 gsave  408 305 930 677 C 940.134 740.711 t 0 r /Helvetica findfont 22.8295 sf 0 0 m (\2550.01) show NC gr 
 gsave  408 305 930 677 C 974.32 766.351 t 0 r /Helvetica findfont 22.8295 sf 0 0 m (0) show NC gr 
 gsave  408 305 930 677 C 945.832 791.991 t 0 r /Helvetica findfont 22.8295 sf 0 0 m (0.01) show NC gr 
 gsave  408 305 930 677 C 942.983 817.631 t 0 r /Helvetica findfont 22.8295 sf 0 0 m (0.02) show NC gr 
 gsave  408 305 930 677 C 942.983 843.271 t 0 r /Helvetica findfont 22.8295 sf 0 0 m (0.03) show NC gr 
 gsave  408 305 930 677 C 942.983 871.76 t 0 r /Helvetica findfont 22.8295 sf 0 0 m (0.04) show NC gr 
 gsave  408 305 930 677 C 942.983 897.4 t 0 r /Helvetica findfont 22.8295 sf 0 0 m (0.05) show NC gr 
 gsave  408 305 930 677 C 942.983 923.04 t 0 r /Helvetica findfont 22.8295 sf 0 0 m (0.06) show NC gr  1297 723 m 229 Y s 1292 749 m 5 X s 1294 754 m 3 X s 1294 759 m 3 X s 1294 764 m 3 X s 1294 769 m 3 X s 1292 774 m 5 X s 1294 780 m 3 X s 1294 785
 m 3 X s 1294 790 m 3 X s 1294 795 m 3 X s 1292 800 m 5 X s 1294 805 m 3 X s 1294 810 m 3 X s 1294 816 m 3 X s 1294 821 m 3 X s 1292 826 m 5 X s 1294 831 m 3 X s 1294 836 m 3 X s 1294 841 m 3 X s 1294 847 m 3 X s 1292 852 m 5 X s 1294 857 m 3 X s
 1294 862 m 3 X s 1294 867 m 3 X s 1294 872 m 3 X s 1292 878 m 5 X s 1294 883 m 3 X s 1294 888 m 3 X s 1294 893 m 3 X s 1294 898 m 3 X s 1292 903 m 5 X s 1294 909 m 3 X s 1294 914 m 3 X s 1294 919 m 3 X s 1294 924 m 3 X s 1292 929 m 5 X s 1292 749 m
 5 X s 1294 743 m 3 X s 1294 738 m 3 X s 1294 733 m 3 X s 1294 728 m 3 X s 1292 929 m 5 X s 1294 934 m 3 X s 1294 939 m 3 X s 1294 945 m 3 X s 1294 950 m 3 X s 1016 919 1058 829 1101 788 1122 783 1164 773 1185 774 1227 754 1269 767 8 { m21} R 1016
 931 m 2 Y s 1011 933 m 11 X s 1016 908 m -2 Y s 1011 906 m 11 X s 1058 840 m 2 Y s 1053 842 m 11 X s 1058 817 m -1 Y s 1053 816 m 11 X s 1101 799 m 1 Y s 1095 800 m 11 X s 1101 776 m -1 Y s 1095 775 m 11 X s 1122 795 m 1 Y s 1116 796 m 11 X s 1122
 772 m -1 Y s 1116 771 m 11 X s 1164 785 m 1 Y s 1158 786 m 12 X s 1164 762 m -1 Y s 1158 761 m 12 X s 1185 785 m 1 Y s 1179 786 m 12 X s 1185 762 m -1 Y s 1179 761 m 12 X s 1227 766 m 1 Y s 1221 767 m 12 X s 1227 743 m -1 Y s 1221 742 m 12 X s 1269
 779 m 1 Y s 1264 780 m 11 X s 1269 756 m -1 Y s 1264 755 m 11 X s 9 lw 0.95 0.95 0.95 c black 993 848 m 3 -1 d 3 -2 d 3 -1 d 3 -2 d 3 -1 d 3 -2 d 3 -1 d 3 -2 d 3 -1 d 3 -2 d 3 -1 d 3 -2 d 3 -1 d 3 -2 d 3 -1 d 4 -2 d 3 -1 d 3 -2 d 3 -1 d 3 -2 d 3 -1
 d 3 -2 d 3 -1 d 3 -2 d 3 -1 d 3 -2 d 3 -1 d 3 -2 d 3 -1 d 3 -2 d 3 -1 d 3 -2 d 4 -1 d 3 -2 d 3 -1 d 3 -2 d 3 -1 d 3 -2 d 3 -1 d 3 -2 d 3 -1 d 3 -2 d 3 -1 d 3 -2 d 3 -1 d 3 -2 d 3 -1 d 3 -2 d 4 -1 d s 1143 775 m 3 -2 d 3 -2 d 3 -1 d 3 -2 d 3 -1 d 3
 -2 d 3 -1 d 3 -2 d 3 -1 d 3 -2 d 3 -1 d 3 -2 d 3 -1 d 3 -2 d 3 -1 d 4 -2 d 3 -1 d 3 -2 d 3 -1 d 3 -2 d 3 -1 d 3 -2 d 3 -1 d 3 -2 d 3 -1 d 3 -2 d 3 -1 d 3 -2 d 3 -1 d 3 -2 d 3 -1 d 3 -2 d 4 -1 d 3 -2 d 3 X s 0.49 0.6 0.82 c black 0.49 0.6 0.82 c
 gsave  408 305 930 677 C 1051.24 960.076 t 0 r /Helvetica-Bold findfont 25.6831 sf 0 0 m (3.5 < E < 4.0 GeV) show NC gr  0.52 0.76 0.64 c black 0.52 0.76 0.64 c
 gsave  408 305 930 677 C 1031.3 923.04 t 0 r /Helvetica-Bold findfont 25.6831 sf 0 0 m 
 228 214 200 193 178 171 156 149 134 126 119 105 91 77 69 55 47 39 25 17
(A = \2550.040, p = 1.000) K NC gr  1 0.6 1 c black 1 0.6 1 c
 gsave  408 305 930 677 C 1336.13 791.991 t 90 r /Helvetica-Bold findfont 28.5368 sf 0 0 m (/dof=9.2) show NC gr  black 1 0.6 1 c
 gsave  408 305 930 677 C 1324.73 780.596 t 90 r /Helvetica-Bold findfont 19.9758 sf 0 0 m (2) show NC gr  black 1 0.6 1 c
 gsave  408 305 930 677 C 1336.13 763.503 t 90 r /Symbol findfont 28.5368 sf 0 0 m (c) show NC gr  black 3 lw 1 1 1 c 408 305 1383 677 bf black 1 1 1 c black 306 229 1445 723 bl 306 229 1445 723 bl 1445 723 m 306 X s 1491 727 m -4 Y s 1596 727 m -4 Y
 s 1702 727 m -4 Y s 1491 727 m -4 Y s 1702 727 m -4 Y s
 gsave  408 305 1383 677 C 1470.03 703.676 t 0 r /Helvetica findfont 22.8295 sf 0 0 m (\2550.5) show NC gr 
 gsave  408 305 1383 677 C 1586.83 703.676 t 0 r /Helvetica findfont 22.8295 sf 0 0 m (0) show NC gr 
 gsave  408 305 1383 677 C 1683.69 703.676 t 0 r /Helvetica findfont 22.8295 sf 0 0 m (0.5) show NC gr  1445 952 m 306 X s 1491 948 m 4 Y s 1596 948 m 4 Y s 1702 948 m 4 Y s 1491 948 m 4 Y s 1702 948 m 4 Y s 1445 723 m 229 Y s 1450 762 m -5 X s 1447
 771 m -2 X s 1447 779 m -2 X s 1447 787 m -2 X s 1447 795 m -2 X s 1450 803 m -5 X s 1447 811 m -2 X s 1447 820 m -2 X s 1447 828 m -2 X s 1447 836 m -2 X s 1450 844 m -5 X s 1447 852 m -2 X s 1447 860 m -2 X s 1447 868 m -2 X s 1447 877 m -2 X s
 1450 885 m -5 X s 1447 893 m -2 X s 1447 901 m -2 X s 1447 909 m -2 X s 1447 917 m -2 X s 1450 925 m -5 X s 1450 762 m -5 X s 1447 754 m -2 X s 1447 746 m -2 X s 1447 738 m -2 X s 1447 730 m -2 X s 1450 925 m -5 X s 1447 934 m -2 X s 1447 942 m -2 X
 s 1447 950 m -2 X s
 gsave  408 305 1383 677 C 1393.11 754.956 t 0 r /Helvetica findfont 22.8295 sf 0 0 m (\2550.01) show NC gr 
 gsave  408 305 1383 677 C 1427.29 794.84 t 0 r /Helvetica findfont 22.8295 sf 0 0 m (0) show NC gr 
 gsave  408 305 1383 677 C 1398.81 837.574 t 0 r /Helvetica findfont 22.8295 sf 0 0 m (0.01) show NC gr 
 gsave  408 305 1383 677 C 1395.96 877.458 t 0 r /Helvetica findfont 22.8295 sf 0 0 m (0.02) show NC gr 
 gsave  408 305 1383 677 C 1395.96 917.343 t 0 r /Helvetica findfont 22.8295 sf 0 0 m (0.03) show NC gr  1751 723 m 229 Y s 1745 762 m 6 X s 1748 771 m 3 X s 1748 779 m 3 X s 1748 787 m 3 X s 1748 795 m 3 X s 1745 803 m 6 X s 1748 811 m 3 X s 1748
 820 m 3 X s 1748 828 m 3 X s 1748 836 m 3 X s 1745 844 m 6 X s 1748 852 m 3 X s 1748 860 m 3 X s 1748 868 m 3 X s 1748 877 m 3 X s 1745 885 m 6 X s 1748 893 m 3 X s 1748 901 m 3 X s 1748 909 m 3 X s 1748 917 m 3 X s 1745 925 m 6 X s 1745 762 m 6 X s
 1748 754 m 3 X s 1748 746 m 3 X s 1748 738 m 3 X s 1748 730 m 3 X s 1745 925 m 6 X s 1748 934 m 3 X s 1748 942 m 3 X s 1748 950 m 3 X s 1470 906 1512 813 1554 768 1575 794 1617 772 1639 794 1681 804 1723 786 8 { m21} R 1470 917 m 16 Y s 1464 933 m
 12 X s 1470 894 m -16 Y s 1464 878 m 12 X s 1512 824 m 16 Y s 1506 840 m 12 X s 1512 802 m -16 Y s 1506 786 m 12 X s 1554 780 m 14 Y s 1548 794 m 12 X s 1554 757 m -15 Y s 1548 742 m 12 X s 1575 805 m 15 Y s 1570 820 m 11 X s 1575 783 m -15 Y s 1570
 768 m 11 X s 1617 783 m 15 Y s 1612 798 m 11 X s 1617 761 m -15 Y s 1612 746 m 11 X s 1639 806 m 14 Y s 1633 820 m 11 X s 1639 783 m -15 Y s 1633 768 m 11 X s 1681 815 m 15 Y s 1675 830 m 11 X s 1681 792 m -15 Y s 1675 777 m 11 X s 1723 797 m 15 Y s
 1717 812 m 12 X s 1723 774 m -15 Y s 1717 759 m 12 X s 9 lw 0.95 0.95 0.95 c black 1446 847 m 3 -1 d 3 -1 d 3 X 3 -1 d 3 -1 d 3 -1 d 3 -1 d 4 -1 d 3 -1 d 3 -1 d 3 -1 d 3 -1 d 3 X 3 -1 d 3 -1 d 3 -1 d 3 -1 d 3 -1 d 3 -1 d 3 -1 d 3 -1 d 3 X 3 -1 d 4
 -1 d 3 -1 d 3 -1 d 3 -1 d 3 -1 d 3 -1 d 3 -1 d 3 -1 d 3 X 3 -1 d 3 -1 d 3 -1 d 3 -1 d 3 -1 d 3 -1 d 3 -1 d 4 -1 d 3 -1 d 3 X 3 -1 d 3 -1 d 3 -1 d 3 -1 d 3 -1 d 3 -1 d 3 -1 d s 1596 803 m 3 -1 d 3 X 3 -1 d 3 -1 d 3 -1 d 3 -1 d 4 -1 d 3 -1 d 3 -1 d 3
 -1 d 3 -1 d 3 X 3 -1 d 3 -1 d 3 -1 d 3 -1 d 3 -1 d 3 -1 d 3 -1 d 3 -1 d 3 -1 d 3 X 3 -1 d 4 -1 d 3 -1 d 3 -1 d 3 -1 d 3 -1 d 3 -1 d 3 -1 d 3 X 3 -1 d 3 -1 d 3 -1 d 3 -1 d 3 -1 d 3 -1 d 3 -1 d 3 -1 d 4 -1 d 3 X 3 -1 d 3 -1 d 3 -1 d 3 -1 d 3 -1 d 3 -1
 d 3 -1 d 3 -1 d s 1746 759 m 3 -1 d s 0.49 0.6 0.82 c black 0.49 0.6 0.82 c
 gsave  408 305 1383 677 C 1504.21 960.076 t 0 r /Helvetica-Bold findfont 25.6831 sf 0 0 m (4.0 < E < 4.5 GeV) show NC gr  0.52 0.76 0.64 c black 0.52 0.76 0.64 c
 gsave  408 305 1383 677 C 1484.27 923.04 t 0 r /Helvetica-Bold findfont 25.6831 sf 0 0 m 
 228 214 200 193 178 171 156 149 133 126 119 105 91 76 69 55 47 39 25 17
(A = \2550.015, p = 1.000) K NC gr  1 0.6 1 c black 1 0.6 1 c
 gsave  408 305 1383 677 C 1789.1 791.991 t 90 r /Helvetica-Bold findfont 28.5368 sf 0 0 m (/dof=1.7) show NC gr  black 1 0.6 1 c
 gsave  408 305 1383 677 C 1777.71 780.596 t 90 r /Helvetica-Bold findfont 19.9758 sf 0 0 m (2) show NC gr  black 1 0.6 1 c
 gsave  408 305 1383 677 C 1789.1 763.503 t 90 r /Symbol findfont 28.5368 sf 0 0 m (c) show NC gr  black 3 lw 1 1 1 c 408 305 1837 677 bf black 1 1 1 c black 306 229 1898 723 bl 306 229 1898 723 bl 1898 723 m 306 X s 1944 727 m -4 Y s 2050 727 m -4 Y
 s 2155 727 m -4 Y s 1944 727 m -4 Y s 2155 727 m -4 Y s
 gsave  408 305 1837 677 C 1923 703.676 t 0 r /Helvetica findfont 22.8295 sf 0 0 m (\2550.5) show NC gr 
 gsave  408 305 1837 677 C 2039.81 703.676 t 0 r /Helvetica findfont 22.8295 sf 0 0 m (0) show NC gr 
 gsave  408 305 1837 677 C 2136.67 703.676 t 0 r /Helvetica findfont 22.8295 sf 0 0 m (0.5) show NC gr  1898 952 m 306 X s 1944 948 m 4 Y s 2050 948 m 4 Y s 2155 948 m 4 Y s 1944 948 m 4 Y s 2155 948 m 4 Y s 1898 723 m 229 Y s 1904 731 m -6 X s 1901
 737 m -3 X s 1901 743 m -3 X s 1901 749 m -3 X s 1901 754 m -3 X s 1904 760 m -6 X s 1901 766 m -3 X s 1901 772 m -3 X s 1901 777 m -3 X s 1901 783 m -3 X s 1904 789 m -6 X s 1901 795 m -3 X s 1901 800 m -3 X s 1901 806 m -3 X s 1901 812 m -3 X s
 1904 818 m -6 X s 1901 823 m -3 X s 1901 829 m -3 X s 1901 835 m -3 X s 1901 841 m -3 X s 1904 847 m -6 X s 1901 852 m -3 X s 1901 858 m -3 X s 1901 864 m -3 X s 1901 870 m -3 X s 1904 875 m -6 X s 1901 881 m -3 X s 1901 887 m -3 X s 1901 893 m -3 X
 s 1901 898 m -3 X s 1904 904 m -6 X s 1901 910 m -3 X s 1901 916 m -3 X s 1901 921 m -3 X s 1901 927 m -3 X s 1904 933 m -6 X s 1904 731 m -6 X s 1901 726 m -3 X s 1904 933 m -6 X s 1901 939 m -3 X s 1901 944 m -3 X s 1901 950 m -3 X s
 gsave  408 305 1837 677 C 1828.99 723.618 t 0 r /Helvetica findfont 22.8295 sf 0 0 m (\2550.015) show NC gr 
 gsave  408 305 1837 677 C 1846.08 752.107 t 0 r /Helvetica findfont 22.8295 sf 0 0 m (\2550.01) show NC gr 
 gsave  408 305 1837 677 C 1828.99 780.596 t 0 r /Helvetica findfont 22.8295 sf 0 0 m (\2550.005) show NC gr 
 gsave  408 305 1837 677 C 1880.27 811.934 t 0 r /Helvetica findfont 22.8295 sf 0 0 m (0) show NC gr 
 gsave  408 305 1837 677 C 1837.53 840.423 t 0 r /Helvetica findfont 22.8295 sf 0 0 m (0.005) show NC gr 
 gsave  408 305 1837 677 C 1851.78 868.911 t 0 r /Helvetica findfont 22.8295 sf 0 0 m (0.01) show NC gr 
 gsave  408 305 1837 677 C 1837.53 897.4 t 0 r /Helvetica findfont 22.8295 sf 0 0 m (0.015) show NC gr 
 gsave  408 305 1837 677 C 1848.93 925.889 t 0 r /Helvetica findfont 22.8295 sf 0 0 m (0.02) show NC gr  2204 723 m 229 Y s 2199 731 m 5 X s 2201 737 m 3 X s 2201 743 m 3 X s 2201 749 m 3 X s 2201 754 m 3 X s 2199 760 m 5 X s 2201 766 m 3 X s 2201
 772 m 3 X s 2201 777 m 3 X s 2201 783 m 3 X s 2199 789 m 5 X s 2201 795 m 3 X s 2201 800 m 3 X s 2201 806 m 3 X s 2201 812 m 3 X s 2199 818 m 5 X s 2201 823 m 3 X s 2201 829 m 3 X s 2201 835 m 3 X s 2201 841 m 3 X s 2199 847 m 5 X s 2201 852 m 3 X s
 2201 858 m 3 X s 2201 864 m 3 X s 2201 870 m 3 X s 2199 875 m 5 X s 2201 881 m 3 X s 2201 887 m 3 X s 2201 893 m 3 X s 2201 898 m 3 X s 2199 904 m 5 X s 2201 910 m 3 X s 2201 916 m 3 X s 2201 921 m 3 X s 2201 927 m 3 X s 2199 933 m 5 X s 2199 731 m
 5 X s 2201 726 m 3 X s 2199 933 m 5 X s 2201 939 m 3 X s 2201 944 m 3 X s 2201 950 m 3 X s 1923 882 1966 839 2008 830 2029 792 2071 843 2092 854 2134 817 2176 824 8 { m21} R 1923 893 m 40 Y s 1918 933 m 11 X s 1923 870 m -40 Y s 1918 830 m 11 X s
 1966 851 m 39 Y s 1960 890 m 11 X s 1966 828 m -40 Y s 1960 788 m 11 X s 2008 841 m 39 Y s 2002 880 m 11 X s 2008 818 m -39 Y s 2002 779 m 11 X s 2029 804 m 39 Y s 2023 843 m 11 X s 2029 781 m -39 Y s 2023 742 m 11 X s 2071 854 m 39 Y s 2065 893 m
 12 X s 2071 831 m -39 Y s 2065 792 m 12 X s 2092 865 m 40 Y s 2086 905 m 12 X s 2092 842 m -39 Y s 2086 803 m 12 X s 2134 829 m 39 Y s 2129 868 m 11 X s 2134 806 m -40 Y s 2129 766 m 11 X s 2176 835 m 39 Y s 2171 874 m 11 X s 2176 812 m -39 Y s 2171
 773 m 11 X s 1 0 0 c 9 lw 0.95 0.95 0.95 c black 1 0 0 c 1900 866 m 3 -2 d 3 -1 d 3 -2 d 3 -2 d 3 -2 d 3 -2 d 3 -1 d 3 -2 d 3 -2 d 3 -1 d 3 -2 d 3 -1 d 3 -2 d 3 -1 d 4 -2 d 3 -1 d 3 -1 d 3 -2 d 3 -1 d 3 -1 d 3 -1 d 3 -1 d 3 -2 d 3 -1 d 3 -1 d 3 X 3
 -1 d 3 -1 d 3 -1 d 3 -1 d 4 -1 d 3 X 3 -1 d 3 -1 d 3 X 3 -1 d 3 X 3 -1 d 3 X 3 -1 d 6 X 3 -1 d 19 X s 2050 818 m 18 X 3 1 d 6 X 3 1 d 3 X 3 1 d 3 X 3 1 d 4 X 3 1 d 3 1 d 3 X 3 1 d 3 1 d 3 1 d 3 X 3 1 d 3 1 d 3 1 d 3 1 d 3 1 d 3 1 d 3 2 d 3 1 d 4 1 d
 3 1 d 3 2 d 3 1 d 3 1 d 3 2 d 3 1 d 3 2 d 3 1 d 3 2 d 3 2 d 3 1 d 3 2 d 3 2 d 3 1 d 3 2 d 4 2 d 3 2 d 3 2 d s 2200 866 m 3 2 d s 0.49 0.6 0.82 c black 0.49 0.6 0.82 c
 gsave  408 305 1837 677 C 1957.19 960.076 t 0 r /Helvetica-Bold findfont 25.6831 sf 0 0 m (4.5 < E < 5.0 GeV) show NC gr  0.52 0.76 0.64 c black 0.52 0.76 0.64 c
 gsave  408 305 1837 677 C 1942.94 923.04 t 0 r /Helvetica-Bold findfont 25.6831 sf 0 0 m 
 220 206 192 185 170 163 148 141 126 118 111 97 83 69 61 47 40 25 18
(A = 0.017, p = 2.000) K NC gr  1 0.6 1 c black 1 0.6 1 c
 gsave  408 305 1837 677 C 2242.08 791.991 t 90 r /Helvetica-Bold findfont 28.5368 sf 0 0 m (/dof=0.2) show NC gr  black 1 0.6 1 c
 gsave  408 305 1837 677 C 2230.68 780.596 t 90 r /Helvetica-Bold findfont 19.9758 sf 0 0 m (2) show NC gr  black 1 0.6 1 c
 gsave  408 305 1837 677 C 2242.08 763.503 t 90 r /Symbol findfont 28.5368 sf 0 0 m (c) show NC gr  black 3 lw 1 1 1 c 408 306 23 345 bf black 1 1 1 c black 306 229 84 391 bl 306 229 84 391 bl 84 391 m 306 X s 130 395 m -4 Y s 236 395 m -4 Y s 341
 395 m -4 Y s 130 395 m -4 Y s 341 395 m -4 Y s
 gsave  408 306 23 345 C 108.258 370.356 t 0 r /Helvetica findfont 22.8295 sf 0 0 m (\2550.5) show NC gr 
 gsave  408 306 23 345 C 225.062 370.356 t 0 r /Helvetica findfont 22.8295 sf 0 0 m (0) show NC gr 
 gsave  408 306 23 345 C 321.925 370.356 t 0 r /Helvetica findfont 22.8295 sf 0 0 m (0.5) show NC gr  84 620 m 306 X s 130 616 m 4 Y s 236 616 m 4 Y s 341 616 m 4 Y s 130 616 m 4 Y s 341 616 m 4 Y s 84 391 m 229 Y s 89 417 m -5 X s 87 424 m -3 X s 87
 430 m -3 X s 87 437 m -3 X s 87 443 m -3 X s 89 450 m -5 X s 87 456 m -3 X s 87 463 m -3 X s 87 469 m -3 X s 87 476 m -3 X s 89 482 m -5 X s 87 488 m -3 X s 87 495 m -3 X s 87 501 m -3 X s 87 508 m -3 X s 89 514 m -5 X s 87 521 m -3 X s 87 527 m -3
 X s 87 534 m -3 X s 87 540 m -3 X s 89 546 m -5 X s 87 553 m -3 X s 87 559 m -3 X s 87 566 m -3 X s 87 572 m -3 X s 89 579 m -5 X s 87 585 m -3 X s 87 592 m -3 X s 87 598 m -3 X s 87 604 m -3 X s 89 611 m -5 X s 89 417 m -5 X s 87 411 m -3 X s 87
 405 m -3 X s 87 398 m -3 X s 87 392 m -3 X s 89 611 m -5 X s 87 617 m -3 X s
 gsave  408 306 23 345 C 28.4889 410.24 t 0 r /Helvetica findfont 22.8295 sf 0 0 m (\2550.02) show NC gr 
 gsave  408 306 23 345 C 31.3378 441.578 t 0 r /Helvetica findfont 22.8295 sf 0 0 m (\2550.01) show NC gr 
 gsave  408 306 23 345 C 65.5245 475.765 t 0 r /Helvetica findfont 22.8295 sf 0 0 m (0) show NC gr 
 gsave  408 306 23 345 C 37.0356 507.102 t 0 r /Helvetica findfont 22.8295 sf 0 0 m (0.01) show NC gr 
 gsave  408 306 23 345 C 34.1867 538.44 t 0 r /Helvetica findfont 22.8295 sf 0 0 m (0.02) show NC gr 
 gsave  408 306 23 345 C 34.1867 572.627 t 0 r /Helvetica findfont 22.8295 sf 0 0 m (0.03) show NC gr 
 gsave  408 306 23 345 C 34.1867 603.965 t 0 r /Helvetica findfont 22.8295 sf 0 0 m (0.04) show NC gr  390 391 m 229 Y s 385 417 m 5 X s 387 424 m 3 X s 387 430 m 3 X s 387 437 m 3 X s 387 443 m 3 X s 385 450 m 5 X s 387 456 m 3 X s 387 463 m 3 X s
 387 469 m 3 X s 387 476 m 3 X s 385 482 m 5 X s 387 488 m 3 X s 387 495 m 3 X s 387 501 m 3 X s 387 508 m 3 X s 385 514 m 5 X s 387 521 m 3 X s 387 527 m 3 X s 387 534 m 3 X s 387 540 m 3 X s 385 546 m 5 X s 387 553 m 3 X s 387 559 m 3 X s 387 566 m
 3 X s 387 572 m 3 X s 385 579 m 5 X s 387 585 m 3 X s 387 592 m 3 X s 387 598 m 3 X s 387 604 m 3 X s 385 611 m 5 X s 385 417 m 5 X s 387 411 m 3 X s 387 405 m 3 X s 387 398 m 3 X s 387 392 m 3 X s 385 611 m 5 X s 387 617 m 3 X s /w 22 def /w2 {w 2
 div} def /w3 {w 3 div} def 109 472 151 534 194 563 215 513 257 519 278 447 320 557 362 469 8 { m21} R 109 484 m 26 Y s 104 510 m 11 X s 109 461 m -26 Y s 104 435 m 11 X s 151 545 m 27 Y s 146 572 m 11 X s 151 523 m -27 Y s 146 496 m 11 X s 194 575 m
 26 Y s 188 601 m 11 X s 194 552 m -27 Y s 188 525 m 11 X s 215 524 m 26 Y s 209 550 m 11 X s 215 501 m -26 Y s 209 475 m 11 X s 257 530 m 26 Y s 251 556 m 11 X s 257 507 m -26 Y s 251 481 m 11 X s 278 458 m 25 Y s 272 483 m 12 X s 278 435 m -25 Y s
 272 410 m 12 X s 320 569 m 26 Y s 314 595 m 12 X s 320 546 m -26 Y s 314 520 m 12 X s 362 480 m 26 Y s 357 506 m 11 X s 362 457 m -25 Y s 357 432 m 11 X s 1 0 0 c 9 lw 0.95 0.95 0.95 c black 1 0 0 c 85 504 m 3 -1 d 4 X 3 -1 d 3 -1 d 3 -1 d 3 -1 d 3
 -1 d 3 X 3 -1 d 3 -1 d 3 -1 d 3 X 3 -1 d 3 -1 d 3 X 3 -1 d 3 X 4 -1 d 3 -1 d 3 X 3 -1 d 3 X 3 -1 d 3 X 3 -1 d 6 X 3 -1 d 3 X 3 -1 d 6 X 3 -1 d 10 X 3 -1 d 12 X 3 -1 d 21 X s 235 482 m 22 X 3 1 d 12 X 3 1 d 9 X 3 1 d 7 X 3 1 d 6 X 3 1 d 3 X 3 1 d 3 X
 3 1 d 3 X 3 1 d 3 X 3 1 d 3 X 3 1 d 4 1 d 3 X 3 1 d 3 1 d 3 X 3 1 d 3 1 d 3 1 d 3 X 3 1 d 3 1 d 3 1 d 3 1 d 3 X 3 1 d 3 1 d s 385 504 m 4 1 d s 0.49 0.6 0.82 c black 0.49 0.6 0.82 c
 gsave  408 306 23 345 C 142.445 629.605 t 0 r /Helvetica-Bold findfont 25.6831 sf 0 0 m (5.0 < E < 5.5 GeV) show NC gr  0.52 0.76 0.64 c black 0.52 0.76 0.64 c
 gsave  408 306 23 345 C 128.2 592.569 t 0 r /Helvetica-Bold findfont 25.6831 sf 0 0 m 
 220 206 192 185 170 163 148 141 126 118 111 97 83 69 61 47 40 25 18
(A = 0.014, p = 2.000) K NC gr  1 0.6 1 c black 1 0.6 1 c
 gsave  408 306 23 345 C 427.334 458.671 t 90 r /Helvetica-Bold findfont 28.5368 sf 0 0 m (/dof=1.8) show NC gr  black 1 0.6 1 c
 gsave  408 306 23 345 C 415.938 447.276 t 90 r /Helvetica-Bold findfont 19.9758 sf 0 0 m (2) show NC gr  black 1 0.6 1 c
 gsave  408 306 23 345 C 427.334 430.182 t 90 r /Symbol findfont 28.5368 sf 0 0 m (c) show NC gr  black 3 lw 1 1 1 c 408 306 476 345 bf black 1 1 1 c black 307 229 537 391 bl 307 229 537 391 bl 537 391 m 307 X s 584 395 m -4 Y s 689 395 m -4 Y s 795
 395 m -4 Y s 584 395 m -4 Y s 795 395 m -4 Y s
 gsave  408 306 476 345 C 561.231 370.356 t 0 r /Helvetica findfont 22.8295 sf 0 0 m (\2550.5) show NC gr 
 gsave  408 306 476 345 C 678.036 370.356 t 0 r /Helvetica findfont 22.8295 sf 0 0 m (0) show NC gr 
 gsave  408 306 476 345 C 774.898 370.356 t 0 r /Helvetica findfont 22.8295 sf 0 0 m (0.5) show NC gr  537 620 m 307 X s 584 616 m 4 Y s 689 616 m 4 Y s 795 616 m 4 Y s 584 616 m 4 Y s 795 616 m 4 Y s 537 391 m 229 Y s 543 395 m -6 X s 540 401 m -3 X
 s 540 406 m -3 X s 540 411 m -3 X s 540 416 m -3 X s 543 422 m -6 X s 540 427 m -3 X s 540 432 m -3 X s 540 438 m -3 X s 540 443 m -3 X s 543 448 m -6 X s 540 453 m -3 X s 540 459 m -3 X s 540 464 m -3 X s 540 469 m -3 X s 543 474 m -6 X s 540 480 m
 -3 X s 540 485 m -3 X s 540 490 m -3 X s 540 496 m -3 X s 543 501 m -6 X s 540 506 m -3 X s 540 511 m -3 X s 540 517 m -3 X s 540 522 m -3 X s 543 527 m -6 X s 540 532 m -3 X s 540 538 m -3 X s 540 543 m -3 X s 540 548 m -3 X s 543 554 m -6 X s 540
 559 m -3 X s 540 564 m -3 X s 540 569 m -3 X s 540 575 m -3 X s 543 580 m -6 X s 540 585 m -3 X s 540 590 m -3 X s 540 596 m -3 X s 540 601 m -3 X s 543 606 m -6 X s 543 395 m -6 X s 543 606 m -6 X s 540 612 m -3 X s 540 617 m -3 X s
 gsave  408 306 476 345 C 481.462 387.449 t 0 r /Helvetica findfont 22.8295 sf 0 0 m (\2550.04) show NC gr 
 gsave  408 306 476 345 C 481.462 415.938 t 0 r /Helvetica findfont 22.8295 sf 0 0 m (\2550.03) show NC gr 
 gsave  408 306 476 345 C 481.462 441.578 t 0 r /Helvetica findfont 22.8295 sf 0 0 m (\2550.02) show NC gr 
 gsave  408 306 476 345 C 484.311 467.218 t 0 r /Helvetica findfont 22.8295 sf 0 0 m (\2550.01) show NC gr 
 gsave  408 306 476 345 C 518.498 492.858 t 0 r /Helvetica findfont 22.8295 sf 0 0 m (0) show NC gr 
 gsave  408 306 476 345 C 490.009 521.347 t 0 r /Helvetica findfont 22.8295 sf 0 0 m (0.01) show NC gr 
 gsave  408 306 476 345 C 487.16 546.987 t 0 r /Helvetica findfont 22.8295 sf 0 0 m (0.02) show NC gr 
 gsave  408 306 476 345 C 487.16 572.627 t 0 r /Helvetica findfont 22.8295 sf 0 0 m (0.03) show NC gr 
 gsave  408 306 476 345 C 487.16 598.267 t 0 r /Helvetica findfont 22.8295 sf 0 0 m (0.04) show NC gr  844 391 m 229 Y s 838 395 m 6 X s 841 401 m 3 X s 841 406 m 3 X s 841 411 m 3 X s 841 416 m 3 X s 838 422 m 6 X s 841 427 m 3 X s 841 432 m 3 X s
 841 438 m 3 X s 841 443 m 3 X s 838 448 m 6 X s 841 453 m 3 X s 841 459 m 3 X s 841 464 m 3 X s 841 469 m 3 X s 838 474 m 6 X s 841 480 m 3 X s 841 485 m 3 X s 841 490 m 3 X s 841 496 m 3 X s 838 501 m 6 X s 841 506 m 3 X s 841 511 m 3 X s 841 517 m
 3 X s 841 522 m 3 X s 838 527 m 6 X s 841 532 m 3 X s 841 538 m 3 X s 841 543 m 3 X s 841 548 m 3 X s 838 554 m 6 X s 841 559 m 3 X s 841 564 m 3 X s 841 569 m 3 X s 841 575 m 3 X s 838 580 m 6 X s 841 585 m 3 X s 841 590 m 3 X s 841 596 m 3 X s 841
 601 m 3 X s 838 606 m 6 X s 838 395 m 6 X s 838 606 m 6 X s 841 612 m 3 X s 841 617 m 3 X s /w 23 def /w2 {w 2 div} def /w3 {w 3 div} def 563 505 605 475 647 503 668 562 710 505 731 526 774 447 816 474 8 { m21} R 563 516 m 27 Y s 557 543 m 11 X s
 563 493 m -27 Y s 557 466 m 11 X s 605 487 m 26 Y s 599 513 m 12 X s 605 464 m -26 Y s 599 438 m 12 X s 647 514 m 27 Y s 641 541 m 12 X s 647 491 m -26 Y s 641 465 m 12 X s 668 574 m 27 Y s 662 601 m 12 X s 668 551 m -27 Y s 662 524 m 12 X s 710 516
 m 26 Y s 705 542 m 11 X s 710 493 m -26 Y s 705 467 m 11 X s 731 537 m 27 Y s 726 564 m 11 X s 731 514 m -26 Y s 726 488 m 11 X s 774 458 m 26 Y s 768 484 m 11 X s 774 436 m -26 Y s 768 410 m 11 X s 816 485 m 26 Y s 810 511 m 11 X s 816 463 m -27 Y
 s 810 436 m 11 X s 1 0 0 c 9 lw 0.95 0.95 0.95 c black 1 0 0 c 539 469 m 3 1 d 3 1 d 3 1 d 3 2 d 3 1 d 3 1 d 3 1 d 3 1 d 4 1 d 3 1 d 3 1 d 3 1 d 3 1 d 3 1 d 3 1 d 3 1 d 3 1 d 3 1 d 3 1 d 3 1 d 3 X 3 1 d 3 1 d 3 X 4 1 d 3 1 d 3 X 3 1 d 3 X 3 1 d 3 X
 3 1 d 3 X 3 1 d 3 X 3 1 d 9 X 3 1 d 13 X 3 1 d 12 X s 689 501 m 12 X 3 -1 d 13 X 3 -1 d 9 X 3 -1 d 3 X 3 -1 d 6 X 3 -1 d 3 X 3 -1 d 3 -1 d 3 X 3 -1 d 4 X 3 -1 d 3 -1 d 3 -1 d 3 X 3 -1 d 3 -1 d 3 -1 d 3 -1 d 3 -1 d 3 X 3 -1 d 3 -1 d 3 -1 d 3 -1 d 3
 -1 d 4 -2 d 3 -1 d 3 -1 d 3 -1 d 3 -1 d 3 -1 d 3 -2 d 3 -1 d 3 -1 d s 839 469 m 3 -1 d s 0.49 0.6 0.82 c black 0.49 0.6 0.82 c
 gsave  408 306 476 345 C 595.418 629.605 t 0 r /Helvetica-Bold findfont 25.6831 sf 0 0 m (5.5 < E < 6.0 GeV) show NC gr  0.52 0.76 0.64 c black 0.52 0.76 0.64 c
 gsave  408 306 476 345 C 575.476 592.569 t 0 r /Helvetica-Bold findfont 25.6831 sf 0 0 m 
 228 214 200 193 178 171 156 149 133 126 119 105 91 77 69 55 47 39 25 17
(A = \2550.024, p = 2.000) K NC gr  1 0.6 1 c black 1 0.6 1 c
 gsave  408 306 476 345 C 883.156 458.671 t 90 r /Helvetica-Bold findfont 28.5368 sf 0 0 m (/dof=0.7) show NC gr  black 1 0.6 1 c
 gsave  408 306 476 345 C 871.76 447.276 t 90 r /Helvetica-Bold findfont 19.9758 sf 0 0 m (2) show NC gr  black 1 0.6 1 c
 gsave  408 306 476 345 C 883.156 430.182 t 90 r /Symbol findfont 28.5368 sf 0 0 m (c) show NC gr  black 3 lw 1 1 1 c 408 306 930 345 bf black 1 1 1 c black 306 229 991 391 bl 306 229 991 391 bl 991 391 m 306 X s 1037 395 m -4 Y s 1143 395 m -4 Y s
 1248 395 m -4 Y s 1037 395 m -4 Y s 1248 395 m -4 Y s
 gsave  408 306 930 345 C 1017.05 370.356 t 0 r /Helvetica findfont 22.8295 sf 0 0 m (\2550.5) show NC gr 
 gsave  408 306 930 345 C 1133.86 370.356 t 0 r /Helvetica findfont 22.8295 sf 0 0 m (0) show NC gr 
 gsave  408 306 930 345 C 1230.72 370.356 t 0 r /Helvetica findfont 22.8295 sf 0 0 m (0.5) show NC gr  991 620 m 306 X s 1037 616 m 4 Y s 1143 616 m 4 Y s 1248 616 m 4 Y s 1037 616 m 4 Y s 1248 616 m 4 Y s 991 391 m 229 Y s 997 396 m -6 X s 994 401 m
 -3 X s 994 406 m -3 X s 994 412 m -3 X s 994 417 m -3 X s 997 423 m -6 X s 994 428 m -3 X s 994 433 m -3 X s 994 439 m -3 X s 994 444 m -3 X s 997 450 m -6 X s 994 455 m -3 X s 994 460 m -3 X s 994 466 m -3 X s 994 471 m -3 X s 997 476 m -6 X s 994
 482 m -3 X s 994 487 m -3 X s 994 493 m -3 X s 994 498 m -3 X s 997 503 m -6 X s 994 509 m -3 X s 994 514 m -3 X s 994 520 m -3 X s 994 525 m -3 X s 997 530 m -6 X s 994 536 m -3 X s 994 541 m -3 X s 994 547 m -3 X s 994 552 m -3 X s 997 557 m -6 X
 s 994 563 m -3 X s 994 568 m -3 X s 994 573 m -3 X s 994 579 m -3 X s 997 584 m -6 X s 994 590 m -3 X s 994 595 m -3 X s 994 600 m -3 X s 994 606 m -3 X s 997 611 m -6 X s 997 396 m -6 X s 997 611 m -6 X s 994 617 m -3 X s
 gsave  408 306 930 345 C 937.285 387.449 t 0 r /Helvetica findfont 22.8295 sf 0 0 m (\2550.05) show NC gr 
 gsave  408 306 930 345 C 937.285 415.938 t 0 r /Helvetica findfont 22.8295 sf 0 0 m (\2550.04) show NC gr 
 gsave  408 306 930 345 C 937.285 441.578 t 0 r /Helvetica findfont 22.8295 sf 0 0 m (\2550.03) show NC gr 
 gsave  408 306 930 345 C 937.285 470.067 t 0 r /Helvetica findfont 22.8295 sf 0 0 m (\2550.02) show NC gr 
 gsave  408 306 930 345 C 940.134 495.707 t 0 r /Helvetica findfont 22.8295 sf 0 0 m (\2550.01) show NC gr 
 gsave  408 306 930 345 C 974.32 524.196 t 0 r /Helvetica findfont 22.8295 sf 0 0 m (0) show NC gr 
 gsave  408 306 930 345 C 945.832 549.836 t 0 r /Helvetica findfont 22.8295 sf 0 0 m (0.01) show NC gr 
 gsave  408 306 930 345 C 942.983 578.325 t 0 r /Helvetica findfont 22.8295 sf 0 0 m (0.02) show NC gr 
 gsave  408 306 930 345 C 942.983 603.965 t 0 r /Helvetica findfont 22.8295 sf 0 0 m (0.03) show NC gr  1297 391 m 229 Y s 1292 396 m 5 X s 1294 401 m 3 X s 1294 406 m 3 X s 1294 412 m 3 X s 1294 417 m 3 X s 1292 423 m 5 X s 1294 428 m 3 X s 1294 433
 m 3 X s 1294 439 m 3 X s 1294 444 m 3 X s 1292 450 m 5 X s 1294 455 m 3 X s 1294 460 m 3 X s 1294 466 m 3 X s 1294 471 m 3 X s 1292 476 m 5 X s 1294 482 m 3 X s 1294 487 m 3 X s 1294 493 m 3 X s 1294 498 m 3 X s 1292 503 m 5 X s 1294 509 m 3 X s
 1294 514 m 3 X s 1294 520 m 3 X s 1294 525 m 3 X s 1292 530 m 5 X s 1294 536 m 3 X s 1294 541 m 3 X s 1294 547 m 3 X s 1294 552 m 3 X s 1292 557 m 5 X s 1294 563 m 3 X s 1294 568 m 3 X s 1294 573 m 3 X s 1294 579 m 3 X s 1292 584 m 5 X s 1294 590 m
 3 X s 1294 595 m 3 X s 1294 600 m 3 X s 1294 606 m 3 X s 1292 611 m 5 X s 1292 396 m 5 X s 1292 611 m 5 X s 1294 617 m 3 X s 1016 456 1058 470 1101 538 1122 510 1164 502 1185 555 1227 508 1269 543 8 { m21} R 1016 467 m 34 Y s 1011 501 m 11 X s 1016
 444 m -34 Y s 1011 410 m 11 X s 1058 481 m 34 Y s 1053 515 m 11 X s 1058 458 m -34 Y s 1053 424 m 11 X s 1101 550 m 35 Y s 1095 585 m 11 X s 1101 527 m -35 Y s 1095 492 m 11 X s 1122 521 m 35 Y s 1116 556 m 11 X s 1122 499 m -35 Y s 1116 464 m 11 X
 s 1164 514 m 34 Y s 1158 548 m 12 X s 1164 491 m -34 Y s 1158 457 m 12 X s 1185 566 m 35 Y s 1179 601 m 12 X s 1185 543 m -35 Y s 1179 508 m 12 X s 1227 520 m 34 Y s 1221 554 m 12 X s 1227 497 m -35 Y s 1221 462 m 12 X s 1269 555 m 34 Y s 1264 589 m
 11 X s 1269 532 m -35 Y s 1264 497 m 11 X s 9 lw 0.95 0.95 0.95 c black 993 486 m 3 1 d 3 1 d 3 1 d 3 X 3 1 d 3 1 d 3 1 d 3 1 d 3 1 d 3 1 d 3 1 d 3 1 d 3 1 d 3 1 d 3 X 4 1 d 3 1 d 3 1 d 3 1 d 3 1 d 3 1 d 3 1 d 3 1 d 3 1 d 3 1 d 3 X 3 1 d 3 1 d 3 1 d
 3 1 d 3 1 d 3 1 d 4 1 d 3 1 d 3 1 d 3 X 3 1 d 3 1 d 3 1 d 3 1 d 3 1 d 3 1 d 3 1 d 3 1 d 3 1 d 3 1 d 3 X 3 1 d 4 1 d s 1143 530 m 3 1 d 3 1 d 3 1 d 3 1 d 3 1 d 3 1 d 3 1 d 3 1 d 3 X 3 1 d 3 1 d 3 1 d 3 1 d 3 1 d 3 1 d 4 1 d 3 1 d 3 1 d 3 1 d 3 X 3 1
 d 3 1 d 3 1 d 3 1 d 3 1 d 3 1 d 3 1 d 3 1 d 3 1 d 3 X 3 1 d 3 1 d 4 1 d 3 1 d 3 1 d 3 1 d 3 1 d 3 1 d 3 1 d 3 1 d 3 X 3 1 d 3 1 d 3 1 d 3 1 d 3 1 d 3 1 d 3 1 d 4 1 d s 1293 575 m 3 1 d s 0.49 0.6 0.82 c black 0.49 0.6 0.82 c
 gsave  408 306 930 345 C 1051.24 629.605 t 0 r /Helvetica-Bold findfont 25.6831 sf 0 0 m (6.0 < E < 6.5 GeV) show NC gr  0.52 0.76 0.64 c black 0.52 0.76 0.64 c
 gsave  408 306 930 345 C 1037 592.569 t 0 r /Helvetica-Bold findfont 25.6831 sf 0 0 m 
 220 206 192 185 170 163 148 141 126 118 111 97 83 69 61 47 40 25 18
(A = 0.023, p = 1.000) K NC gr  1 0.6 1 c black 1 0.6 1 c
 gsave  408 306 930 345 C 1336.13 458.671 t 90 r /Helvetica-Bold findfont 28.5368 sf 0 0 m (/dof=0.5) show NC gr  black 1 0.6 1 c
 gsave  408 306 930 345 C 1324.73 447.276 t 90 r /Helvetica-Bold findfont 19.9758 sf 0 0 m (2) show NC gr  black 1 0.6 1 c
 gsave  408 306 930 345 C 1336.13 430.182 t 90 r /Symbol findfont 28.5368 sf 0 0 m (c) show NC gr  black 3 lw 1 1 1 c 408 306 1383 345 bf black 1 1 1 c black 306 229 1445 391 bl 306 229 1445 391 bl 1445 391 m 306 X s 1491 395 m -4 Y s 1596 395 m -4 Y
 s 1702 395 m -4 Y s 1491 395 m -4 Y s 1702 395 m -4 Y s
 gsave  408 306 1383 345 C 1470.03 370.356 t 0 r /Helvetica findfont 22.8295 sf 0 0 m (\2550.5) show NC gr 
 gsave  408 306 1383 345 C 1586.83 370.356 t 0 r /Helvetica findfont 22.8295 sf 0 0 m (0) show NC gr 
 gsave  408 306 1383 345 C 1683.69 370.356 t 0 r /Helvetica findfont 22.8295 sf 0 0 m (0.5) show NC gr  1445 620 m 306 X s 1491 616 m 4 Y s 1596 616 m 4 Y s 1702 616 m 4 Y s 1491 616 m 4 Y s 1702 616 m 4 Y s 1445 391 m 229 Y s 1450 413 m -5 X s 1447
 418 m -2 X s 1447 422 m -2 X s 1447 427 m -2 X s 1447 432 m -2 X s 1450 436 m -5 X s 1447 441 m -2 X s 1447 446 m -2 X s 1447 450 m -2 X s 1447 455 m -2 X s 1450 460 m -5 X s 1447 465 m -2 X s 1447 469 m -2 X s 1447 474 m -2 X s 1447 479 m -2 X s
 1450 483 m -5 X s 1447 488 m -2 X s 1447 493 m -2 X s 1447 497 m -2 X s 1447 502 m -2 X s 1450 507 m -5 X s 1447 511 m -2 X s 1447 516 m -2 X s 1447 521 m -2 X s 1447 525 m -2 X s 1450 530 m -5 X s 1447 535 m -2 X s 1447 539 m -2 X s 1447 544 m -2 X
 s 1447 549 m -2 X s 1450 554 m -5 X s 1447 558 m -2 X s 1447 563 m -2 X s 1447 568 m -2 X s 1447 572 m -2 X s 1450 577 m -5 X s 1447 582 m -2 X s 1447 586 m -2 X s 1447 591 m -2 X s 1447 596 m -2 X s 1450 600 m -5 X s 1450 413 m -5 X s 1447 408 m -2
 X s 1447 404 m -2 X s 1447 399 m -2 X s 1447 394 m -2 X s 1450 600 m -5 X s 1447 605 m -2 X s 1447 610 m -2 X s 1447 614 m -2 X s 1447 619 m -2 X s
 gsave  408 306 1383 345 C 1390.26 404.542 t 0 r /Helvetica findfont 22.8295 sf 0 0 m (\2550.04) show NC gr 
 gsave  408 306 1383 345 C 1390.26 430.182 t 0 r /Helvetica findfont 22.8295 sf 0 0 m (\2550.03) show NC gr 
 gsave  408 306 1383 345 C 1390.26 452.974 t 0 r /Helvetica findfont 22.8295 sf 0 0 m (\2550.02) show NC gr 
 gsave  408 306 1383 345 C 1393.11 475.765 t 0 r /Helvetica findfont 22.8295 sf 0 0 m (\2550.01) show NC gr 
 gsave  408 306 1383 345 C 1427.29 498.556 t 0 r /Helvetica findfont 22.8295 sf 0 0 m (0) show NC gr 
 gsave  408 306 1383 345 C 1398.81 524.196 t 0 r /Helvetica findfont 22.8295 sf 0 0 m (0.01) show NC gr 
 gsave  408 306 1383 345 C 1395.96 546.987 t 0 r /Helvetica findfont 22.8295 sf 0 0 m (0.02) show NC gr 
 gsave  408 306 1383 345 C 1395.96 569.778 t 0 r /Helvetica findfont 22.8295 sf 0 0 m (0.03) show NC gr 
 gsave  408 306 1383 345 C 1395.96 592.569 t 0 r /Helvetica findfont 22.8295 sf 0 0 m (0.04) show NC gr  1751 391 m 229 Y s 1745 413 m 6 X s 1748 418 m 3 X s 1748 422 m 3 X s 1748 427 m 3 X s 1748 432 m 3 X s 1745 436 m 6 X s 1748 441 m 3 X s 1748
 446 m 3 X s 1748 450 m 3 X s 1748 455 m 3 X s 1745 460 m 6 X s 1748 465 m 3 X s 1748 469 m 3 X s 1748 474 m 3 X s 1748 479 m 3 X s 1745 483 m 6 X s 1748 488 m 3 X s 1748 493 m 3 X s 1748 497 m 3 X s 1748 502 m 3 X s 1745 507 m 6 X s 1748 511 m 3 X s
 1748 516 m 3 X s 1748 521 m 3 X s 1748 525 m 3 X s 1745 530 m 6 X s 1748 535 m 3 X s 1748 539 m 3 X s 1748 544 m 3 X s 1748 549 m 3 X s 1745 554 m 6 X s 1748 558 m 3 X s 1748 563 m 3 X s 1748 568 m 3 X s 1748 572 m 3 X s 1745 577 m 6 X s 1748 582 m
 3 X s 1748 586 m 3 X s 1748 591 m 3 X s 1748 596 m 3 X s 1745 600 m 6 X s 1745 413 m 6 X s 1748 408 m 3 X s 1748 404 m 3 X s 1748 399 m 3 X s 1748 394 m 3 X s 1745 600 m 6 X s 1748 605 m 3 X s 1748 610 m 3 X s 1748 614 m 3 X s 1748 619 m 3 X s 1470
 538 1512 544 1554 544 1575 455 1617 518 1639 456 1681 539 1723 555 8 { m21} R 1470 549 m 36 Y s 1464 585 m 12 X s 1470 527 m -36 Y s 1464 491 m 12 X s 1512 556 m 35 Y s 1506 591 m 12 X s 1512 533 m -36 Y s 1506 497 m 12 X s 1554 556 m 35 Y s 1548
 591 m 12 X s 1554 533 m -35 Y s 1548 498 m 12 X s 1575 467 m 33 Y s 1570 500 m 11 X s 1575 444 m -34 Y s 1570 410 m 11 X s 1617 529 m 35 Y s 1612 564 m 11 X s 1617 506 m -34 Y s 1612 472 m 11 X s 1639 467 m 34 Y s 1633 501 m 11 X s 1639 444 m -33 Y
 s 1633 411 m 11 X s 1681 551 m 35 Y s 1675 586 m 11 X s 1681 528 m -35 Y s 1675 493 m 11 X s 1723 566 m 35 Y s 1717 601 m 12 X s 1723 543 m -35 Y s 1717 508 m 12 X s 1 0 0 c 9 lw 0.95 0.95 0.95 c black 1 0 0 c 1446 569 m 3 -2 d 3 -3 d 3 -2 d 3 -2 d
 3 -3 d 3 -2 d 3 -2 d 4 -2 d 3 -2 d 3 -3 d 3 -2 d 3 -2 d 3 -1 d 3 -2 d 3 -2 d 3 -2 d 3 -2 d 3 -1 d 3 -2 d 3 -1 d 3 -2 d 3 -1 d 3 -2 d 4 -1 d 3 -1 d 3 -1 d 3 -2 d 3 -1 d 3 -1 d 3 -1 d 3 -1 d 3 -1 d 3 -1 d 3 X 3 -1 d 3 -1 d 3 -1 d 3 X 3 -1 d 4 X 3 -1 d
 6 X 3 -1 d 15 X s 1596 507 m 15 X 3 1 d 7 X 3 1 d 3 X 3 1 d 3 X 3 1 d 3 1 d 3 X 3 1 d 3 1 d 3 1 d 3 1 d 3 1 d 3 1 d 3 1 d 3 1 d 4 2 d 3 1 d 3 1 d 3 2 d 3 1 d 3 1 d 3 2 d 3 2 d 3 1 d 3 2 d 3 2 d 3 1 d 3 2 d 3 2 d 3 2 d 3 2 d 4 2 d 3 2 d 3 2 d 3 3 d 3
 2 d 3 2 d 3 3 d 3 2 d 3 2 d 3 3 d s 1746 569 m 3 3 d s 0.49 0.6 0.82 c black 0.49 0.6 0.82 c
 gsave  408 306 1383 345 C 1504.21 629.605 t 0 r /Helvetica-Bold findfont 25.6831 sf 0 0 m (6.5 < E < 7.0 GeV) show NC gr  0.52 0.76 0.64 c black 0.52 0.76 0.64 c
 gsave  408 306 1383 345 C 1489.97 592.569 t 0 r /Helvetica-Bold findfont 25.6831 sf 0 0 m 
 220 206 192 185 170 163 148 141 125 118 111 97 83 68 61 47 40 25 18
(A = 0.053, p = 2.000) K NC gr  1 0.6 1 c black 1 0.6 1 c
 gsave  408 306 1383 345 C 1789.1 458.671 t 90 r /Helvetica-Bold findfont 28.5368 sf 0 0 m (/dof=0.5) show NC gr  black 1 0.6 1 c
 gsave  408 306 1383 345 C 1777.71 447.276 t 90 r /Helvetica-Bold findfont 19.9758 sf 0 0 m (2) show NC gr  black 1 0.6 1 c
 gsave  408 306 1383 345 C 1789.1 430.182 t 90 r /Symbol findfont 28.5368 sf 0 0 m (c) show NC gr  black 3 lw 1 1 1 c 408 306 1837 345 bf black 1 1 1 c black 306 229 1898 391 bl 306 229 1898 391 bl 1898 391 m 306 X s 1944 395 m -4 Y s 2050 395 m -4 Y
 s 2155 395 m -4 Y s 1944 395 m -4 Y s 2155 395 m -4 Y s
 gsave  408 306 1837 345 C 1923 370.356 t 0 r /Helvetica findfont 22.8295 sf 0 0 m (\2550.5) show NC gr 
 gsave  408 306 1837 345 C 2039.81 370.356 t 0 r /Helvetica findfont 22.8295 sf 0 0 m (0) show NC gr 
 gsave  408 306 1837 345 C 2136.67 370.356 t 0 r /Helvetica findfont 22.8295 sf 0 0 m (0.5) show NC gr  1898 620 m 306 X s 1944 616 m 4 Y s 2050 616 m 4 Y s 2155 616 m 4 Y s 1944 616 m 4 Y s 2155 616 m 4 Y s 1898 391 m 229 Y s 1904 408 m -6 X s 1901
 417 m -3 X s 1901 426 m -3 X s 1901 435 m -3 X s 1904 444 m -6 X s 1901 453 m -3 X s 1901 462 m -3 X s 1901 470 m -3 X s 1904 479 m -6 X s 1901 488 m -3 X s 1901 497 m -3 X s 1901 506 m -3 X s 1904 515 m -6 X s 1901 524 m -3 X s 1901 532 m -3 X s
 1901 541 m -3 X s 1904 550 m -6 X s 1901 559 m -3 X s 1901 568 m -3 X s 1901 577 m -3 X s 1904 586 m -6 X s 1904 408 m -6 X s 1901 400 m -3 X s 1904 586 m -6 X s 1901 594 m -3 X s 1901 603 m -3 X s 1901 612 m -3 X s
 gsave  408 306 1837 345 C 1843.23 401.694 t 0 r /Helvetica findfont 22.8295 sf 0 0 m (\2550.06) show NC gr 
 gsave  408 306 1837 345 C 1843.23 435.88 t 0 r /Helvetica findfont 22.8295 sf 0 0 m (\2550.04) show NC gr 
 gsave  408 306 1837 345 C 1843.23 472.916 t 0 r /Helvetica findfont 22.8295 sf 0 0 m (\2550.02) show NC gr 
 gsave  408 306 1837 345 C 1880.27 507.102 t 0 r /Helvetica findfont 22.8295 sf 0 0 m (0) show NC gr 
 gsave  408 306 1837 345 C 1848.93 544.138 t 0 r /Helvetica findfont 22.8295 sf 0 0 m (0.02) show NC gr 
 gsave  408 306 1837 345 C 1848.93 578.325 t 0 r /Helvetica findfont 22.8295 sf 0 0 m (0.04) show NC gr  2204 391 m 229 Y s 2199 408 m 5 X s 2201 417 m 3 X s 2201 426 m 3 X s 2201 435 m 3 X s 2199 444 m 5 X s 2201 453 m 3 X s 2201 462 m 3 X s 2201
 470 m 3 X s 2199 479 m 5 X s 2201 488 m 3 X s 2201 497 m 3 X s 2201 506 m 3 X s 2199 515 m 5 X s 2201 524 m 3 X s 2201 532 m 3 X s 2201 541 m 3 X s 2199 550 m 5 X s 2201 559 m 3 X s 2201 568 m 3 X s 2201 577 m 3 X s 2199 586 m 5 X s 2199 408 m 5 X s
 2201 400 m 3 X s 2199 586 m 5 X s 2201 594 m 3 X s 2201 603 m 3 X s 2201 612 m 3 X s 1923 561 1966 448 2008 512 2029 480 2071 537 2092 457 2134 504 2176 514 8 { m21} R 1923 572 m 29 Y s 1918 601 m 11 X s 1923 549 m -28 Y s 1918 521 m 11 X s 1966 459
 m 26 Y s 1960 485 m 11 X s 1966 436 m -26 Y s 1960 410 m 11 X s 2008 524 m 27 Y s 2002 551 m 11 X s 2008 501 m -27 Y s 2002 474 m 11 X s 2029 491 m 27 Y s 2023 518 m 11 X s 2029 468 m -26 Y s 2023 442 m 11 X s 2071 548 m 28 Y s 2065 576 m 12 X s
 2071 526 m -28 Y s 2065 498 m 12 X s 2092 469 m 26 Y s 2086 495 m 12 X s 2092 446 m -26 Y s 2086 420 m 12 X s 2134 515 m 27 Y s 2129 542 m 11 X s 2134 493 m -27 Y s 2129 466 m 11 X s 2176 525 m 27 Y s 2171 552 m 11 X s 2176 502 m -27 Y s 2171 475 m
 11 X s 9 lw 0.95 0.95 0.95 c black 1900 520 m 9 X 3 -1 d 24 X 3 -1 d 28 X 3 -1 d 25 X 3 -1 d 27 X 3 -1 d 22 X s 2050 515 m 3 X 3 -1 d 27 X 3 -1 d 25 X 3 -1 d 27 X 4 -1 d 24 X 3 -1 d 28 X s 2200 510 m 3 -1 d s 0.49 0.6 0.82 c black 0.49 0.6 0.82 c
 gsave  408 306 1837 345 C 1957.19 629.605 t 0 r /Helvetica-Bold findfont 25.6831 sf 0 0 m (7.0 < E < 7.5 GeV) show NC gr  0.52 0.76 0.64 c black 0.52 0.76 0.64 c
 gsave  408 306 1837 345 C 1937.25 592.569 t 0 r /Helvetica-Bold findfont 25.6831 sf 0 0 m 
 228 214 200 193 178 171 156 149 134 126 119 105 91 77 69 55 47 39 25 17
(A = \2550.004, p = 1.000) K NC gr  1 0.6 1 c black 1 0.6 1 c
 gsave  408 306 1837 345 C 2242.08 458.671 t 90 r /Helvetica-Bold findfont 28.5368 sf 0 0 m (/dof=1.2) show NC gr  black 1 0.6 1 c
 gsave  408 306 1837 345 C 2230.68 447.276 t 90 r /Helvetica-Bold findfont 19.9758 sf 0 0 m (2) show NC gr  black 1 0.6 1 c
 gsave  408 306 1837 345 C 2242.08 430.182 t 90 r /Symbol findfont 28.5368 sf 0 0 m (c) show NC gr  black 3 lw 1 1 1 c 408 306 23 13 bf black 1 1 1 c black 306 229 84 59 bl 306 229 84 59 bl 84 59 m 306 X s 130 63 m -4 Y s 236 63 m -4 Y s 341 63 m -4
 Y s 130 63 m -4 Y s 341 63 m -4 Y s
 gsave  408 306 23 13 C 108.258 39.8845 t 0 r /Helvetica findfont 22.8295 sf 0 0 m (\2550.5) show NC gr 
 gsave  408 306 23 13 C 225.062 39.8845 t 0 r /Helvetica findfont 22.8295 sf 0 0 m (0) show NC gr 
 gsave  408 306 23 13 C 321.925 39.8845 t 0 r /Helvetica findfont 22.8295 sf 0 0 m (0.5) show NC gr  84 288 m 306 X s 130 284 m 4 Y s 236 284 m 4 Y s 341 284 m 4 Y s 130 284 m 4 Y s 341 284 m 4 Y s 84 59 m 229 Y s 89 70 m -5 X s 87 81 m -3 X s 87 92
 m -3 X s 87 102 m -3 X s 89 113 m -5 X s 87 123 m -3 X s 87 134 m -3 X s 87 145 m -3 X s 89 155 m -5 X s 87 166 m -3 X s 87 176 m -3 X s 87 187 m -3 X s 89 198 m -5 X s 87 208 m -3 X s 87 219 m -3 X s 87 229 m -3 X s 89 240 m -5 X s 87 251 m -3 X s
 87 261 m -3 X s 87 272 m -3 X s 89 282 m -5 X s 89 70 m -5 X s 87 60 m -3 X s 89 282 m -5 X s
 gsave  408 306 23 13 C 28.4889 62.6756 t 0 r /Helvetica findfont 22.8295 sf 0 0 m (\2550.04) show NC gr 
 gsave  408 306 23 13 C 28.4889 105.409 t 0 r /Helvetica findfont 22.8295 sf 0 0 m (\2550.02) show NC gr 
 gsave  408 306 23 13 C 65.5245 148.142 t 0 r /Helvetica findfont 22.8295 sf 0 0 m (0) show NC gr 
 gsave  408 306 23 13 C 34.1867 190.876 t 0 r /Helvetica findfont 22.8295 sf 0 0 m (0.02) show NC gr 
 gsave  408 306 23 13 C 34.1867 233.609 t 0 r /Helvetica findfont 22.8295 sf 0 0 m (0.04) show NC gr 
 gsave  408 306 23 13 C 34.1867 276.342 t 0 r /Helvetica findfont 22.8295 sf 0 0 m (0.06) show NC gr  390 59 m 229 Y s 385 70 m 5 X s 387 81 m 3 X s 387 92 m 3 X s 387 102 m 3 X s 385 113 m 5 X s 387 123 m 3 X s 387 134 m 3 X s 387 145 m 3 X s 385
 155 m 5 X s 387 166 m 3 X s 387 176 m 3 X s 387 187 m 3 X s 385 198 m 5 X s 387 208 m 3 X s 387 219 m 3 X s 387 229 m 3 X s 385 240 m 5 X s 387 251 m 3 X s 387 261 m 3 X s 387 272 m 3 X s 385 282 m 5 X s 385 70 m 5 X s 387 60 m 3 X s 385 282 m 5 X s
 /w 22 def /w2 {w 2 div} def /w3 {w 3 div} def 109 201 151 217 194 187 215 168 257 179 278 182 320 127 362 175 8 { m21} R 109 212 m 41 Y s 104 253 m 11 X s 109 189 m -40 Y s 104 149 m 11 X s 151 229 m 40 Y s 146 269 m 11 X s 151 206 m -40 Y s 146 166
 m 11 X s 194 198 m 40 Y s 188 238 m 11 X s 194 175 m -39 Y s 188 136 m 11 X s 215 179 m 39 Y s 209 218 m 11 X s 215 156 m -39 Y s 209 117 m 11 X s 257 190 m 39 Y s 251 229 m 11 X s 257 167 m -39 Y s 251 128 m 11 X s 278 193 m 39 Y s 272 232 m 12 X s
 278 170 m -39 Y s 272 131 m 12 X s 320 139 m 37 Y s 314 176 m 12 X s 320 116 m -38 Y s 314 78 m 12 X s 362 187 m 38 Y s 357 225 m 11 X s 362 164 m -39 Y s 357 125 m 11 X s 1 0 0 c 9 lw 0.95 0.95 0.95 c black 1 0 0 c 85 205 m 3 -2 d 4 -2 d 3 -2 d 3
 -2 d 3 -2 d 3 -2 d 3 -1 d 3 -2 d 3 -2 d 3 -1 d 3 -2 d 3 -1 d 3 -2 d 3 -1 d 3 -2 d 3 -1 d 3 -2 d 4 -1 d 3 -1 d 3 -1 d 3 -2 d 3 -1 d 3 -1 d 3 -1 d 3 -1 d 3 -1 d 3 -1 d 3 -1 d 3 X 3 -1 d 3 -1 d 3 -1 d 3 X 4 -1 d 3 -1 d 3 X 3 -1 d 3 X 3 -1 d 6 X 3 -1 d
 9 X 3 -1 d 9 X s 235 155 m 10 X 3 1 d 9 X 3 1 d 6 X 3 1 d 3 X 3 1 d 3 X 3 1 d 3 X 3 1 d 4 1 d 3 1 d 3 X 3 1 d 3 1 d 3 1 d 3 1 d 3 1 d 3 1 d 3 1 d 3 1 d 3 1 d 3 2 d 3 1 d 3 1 d 3 2 d 4 1 d 3 1 d 3 2 d 3 1 d 3 2 d 3 1 d 3 2 d 3 2 d 3 1 d 3 2 d 3 2 d 3
 2 d 3 2 d 3 2 d 3 1 d 3 2 d s 385 204 m 4 3 d s 0.49 0.6 0.82 c black 0.49 0.6 0.82 c
 gsave  408 306 23 13 C 142.445 296.285 t 0 r /Helvetica-Bold findfont 25.6831 sf 0 0 m (7.5 < E < 8.0 GeV) show NC gr  0.52 0.76 0.64 c black 0.52 0.76 0.64 c
 gsave  408 306 23 13 C 128.2 259.249 t 0 r /Helvetica-Bold findfont 25.6831 sf 0 0 m 
 220 206 192 185 170 163 148 141 126 118 111 97 83 69 61 47 40 25 18
(A = 0.046, p = 2.000) K NC gr  1 0.6 1 c black 1 0.6 1 c
 gsave  408 306 23 13 C 427.334 128.2 t 90 r /Helvetica-Bold findfont 28.5368 sf 0 0 m (/dof=0.4) show NC gr  black 1 0.6 1 c
 gsave  408 306 23 13 C 415.938 116.804 t 90 r /Helvetica-Bold findfont 19.9758 sf 0 0 m (2) show NC gr  black 1 0.6 1 c
 gsave  408 306 23 13 C 427.334 99.7112 t 90 r /Symbol findfont 28.5368 sf 0 0 m (c) show NC gr  black 3 lw 1 1 1 c 408 306 476 13 bf black 1 1 1 c black 307 229 537 59 bl 307 229 537 59 bl 537 59 m 307 X s 584 63 m -4 Y s 689 63 m -4 Y s 795 63 m -4
 Y s 584 63 m -4 Y s 795 63 m -4 Y s
 gsave  408 306 476 13 C 561.231 39.8845 t 0 r /Helvetica findfont 22.8295 sf 0 0 m (\2550.5) show NC gr 
 gsave  408 306 476 13 C 678.036 39.8845 t 0 r /Helvetica findfont 22.8295 sf 0 0 m (0) show NC gr 
 gsave  408 306 476 13 C 774.898 39.8845 t 0 r /Helvetica findfont 22.8295 sf 0 0 m (0.5) show NC gr  537 288 m 307 X s 584 284 m 4 Y s 689 284 m 4 Y s 795 284 m 4 Y s 584 284 m 4 Y s 795 284 m 4 Y s 537 59 m 229 Y s 543 83 m -6 X s 540 92 m -3 X s
 540 101 m -3 X s 540 110 m -3 X s 543 119 m -6 X s 540 128 m -3 X s 540 137 m -3 X s 540 146 m -3 X s 543 155 m -6 X s 540 164 m -3 X s 540 173 m -3 X s 540 182 m -3 X s 543 191 m -6 X s 540 200 m -3 X s 540 209 m -3 X s 540 218 m -3 X s 543 227 m
 -6 X s 540 236 m -3 X s 540 245 m -3 X s 540 254 m -3 X s 543 263 m -6 X s 543 83 m -6 X s 540 74 m -3 X s 540 65 m -3 X s 543 263 m -6 X s 540 272 m -3 X s 540 281 m -3 X s
 gsave  408 306 476 13 C 481.462 76.92 t 0 r /Helvetica findfont 22.8295 sf 0 0 m (\2550.04) show NC gr 
 gsave  408 306 476 13 C 481.462 111.107 t 0 r /Helvetica findfont 22.8295 sf 0 0 m (\2550.02) show NC gr 
 gsave  408 306 476 13 C 518.498 148.142 t 0 r /Helvetica findfont 22.8295 sf 0 0 m (0) show NC gr 
 gsave  408 306 476 13 C 487.16 185.178 t 0 r /Helvetica findfont 22.8295 sf 0 0 m (0.02) show NC gr 
 gsave  408 306 476 13 C 487.16 219.365 t 0 r /Helvetica findfont 22.8295 sf 0 0 m (0.04) show NC gr 
 gsave  408 306 476 13 C 487.16 256.4 t 0 r /Helvetica findfont 22.8295 sf 0 0 m (0.06) show NC gr  844 59 m 229 Y s 838 83 m 6 X s 841 92 m 3 X s 841 101 m 3 X s 841 110 m 3 X s 838 119 m 6 X s 841 128 m 3 X s 841 137 m 3 X s 841 146 m 3 X s 838 155
 m 6 X s 841 164 m 3 X s 841 173 m 3 X s 841 182 m 3 X s 838 191 m 6 X s 841 200 m 3 X s 841 209 m 3 X s 841 218 m 3 X s 838 227 m 6 X s 841 236 m 3 X s 841 245 m 3 X s 841 254 m 3 X s 838 263 m 6 X s 838 83 m 6 X s 841 74 m 3 X s 841 65 m 3 X s 838
 263 m 6 X s 841 272 m 3 X s 841 281 m 3 X s /w 23 def /w2 {w 2 div} def /w3 {w 3 div} def 563 137 605 182 647 123 668 222 710 145 731 154 774 176 816 159 8 { m21} R 563 149 m 35 Y s 557 184 m 11 X s 563 126 m -35 Y s 557 91 m 11 X s 605 193 m 36 Y s
 599 229 m 12 X s 605 171 m -36 Y s 599 135 m 12 X s 647 135 m 34 Y s 641 169 m 12 X s 647 112 m -34 Y s 641 78 m 12 X s 668 233 m 36 Y s 662 269 m 12 X s 668 210 m -36 Y s 662 174 m 12 X s 710 157 m 33 Y s 705 190 m 11 X s 710 134 m -34 Y s 705 100
 m 11 X s 731 165 m 34 Y s 726 199 m 11 X s 731 143 m -34 Y s 726 109 m 11 X s 774 188 m 34 Y s 768 222 m 11 X s 774 165 m -35 Y s 768 130 m 11 X s 816 170 m 34 Y s 810 204 m 11 X s 816 147 m -33 Y s 810 114 m 11 X s 9 lw 0.95 0.95 0.95 c black 539
 149 m 15 X 3 1 d 22 X 3 1 d 21 X 3 1 d 22 X 3 1 d 21 X 3 1 d 22 X 3 1 d 9 X s 689 155 m 12 X 3 1 d 22 X 3 1 d 21 X 3 1 d 22 X 3 1 d 24 X 3 1 d 22 X 3 1 d 9 X s 839 161 m 3 X s 0.49 0.6 0.82 c black 0.49 0.6 0.82 c
 gsave  408 306 476 13 C 595.418 296.285 t 0 r /Helvetica-Bold findfont 25.6831 sf 0 0 m (8.0 < E < 8.5 GeV) show NC gr  0.52 0.76 0.64 c black 0.52 0.76 0.64 c
 gsave  408 306 476 13 C 581.174 259.249 t 0 r /Helvetica-Bold findfont 25.6831 sf 0 0 m 
 220 206 192 185 170 163 148 141 125 118 111 97 83 69 61 47 40 25 18
(A = 0.005, p = 1.000) K NC gr  1 0.6 1 c black 1 0.6 1 c
 gsave  408 306 476 13 C 883.156 128.2 t 90 r /Helvetica-Bold findfont 28.5368 sf 0 0 m (/dof=0.5) show NC gr  black 1 0.6 1 c
 gsave  408 306 476 13 C 871.76 116.804 t 90 r /Helvetica-Bold findfont 19.9758 sf 0 0 m (2) show NC gr  black 1 0.6 1 c
 gsave  408 306 476 13 C 883.156 99.7112 t 90 r /Symbol findfont 28.5368 sf 0 0 m (c) show NC gr  black 3 lw 1 1 1 c 408 306 930 13 bf black 1 1 1 c black 306 229 991 59 bl 306 229 991 59 bl 991 59 m 306 X s 1037 63 m -4 Y s 1143 63 m -4 Y s 1248 63
 m -4 Y s 1037 63 m -4 Y s 1248 63 m -4 Y s
 gsave  408 306 930 13 C 1017.05 39.8845 t 0 r /Helvetica findfont 22.8295 sf 0 0 m (\2550.5) show NC gr 
 gsave  408 306 930 13 C 1133.86 39.8845 t 0 r /Helvetica findfont 22.8295 sf 0 0 m (0) show NC gr 
 gsave  408 306 930 13 C 1230.72 39.8845 t 0 r /Helvetica findfont 22.8295 sf 0 0 m (0.5) show NC gr  991 288 m 306 X s 1037 284 m 4 Y s 1143 284 m 4 Y s 1248 284 m 4 Y s 1037 284 m 4 Y s 1248 284 m 4 Y s 991 59 m 229 Y s 997 77 m -6 X s 994 84 m -3
 X s 994 91 m -3 X s 994 98 m -3 X s 997 106 m -6 X s 994 113 m -3 X s 994 120 m -3 X s 994 127 m -3 X s 997 134 m -6 X s 994 141 m -3 X s 994 149 m -3 X s 994 156 m -3 X s 997 163 m -6 X s 994 170 m -3 X s 994 177 m -3 X s 994 184 m -3 X s 997 192 m
 -6 X s 994 199 m -3 X s 994 206 m -3 X s 994 213 m -3 X s 997 220 m -6 X s 994 227 m -3 X s 994 235 m -3 X s 994 242 m -3 X s 997 249 m -6 X s 994 256 m -3 X s 994 263 m -3 X s 994 271 m -3 X s 997 278 m -6 X s 997 77 m -6 X s 994 70 m -3 X s 994 63
 m -3 X s 997 278 m -6 X s 994 285 m -3 X s
 gsave  408 306 930 13 C 937.285 71.2223 t 0 r /Helvetica findfont 22.8295 sf 0 0 m (\2550.08) show NC gr 
 gsave  408 306 930 13 C 937.285 99.7112 t 0 r /Helvetica findfont 22.8295 sf 0 0 m (\2550.06) show NC gr 
 gsave  408 306 930 13 C 937.285 128.2 t 0 r /Helvetica findfont 22.8295 sf 0 0 m (\2550.04) show NC gr 
 gsave  408 306 930 13 C 937.285 156.689 t 0 r /Helvetica findfont 22.8295 sf 0 0 m (\2550.02) show NC gr 
 gsave  408 306 930 13 C 974.32 185.178 t 0 r /Helvetica findfont 22.8295 sf 0 0 m (0) show NC gr 
 gsave  408 306 930 13 C 942.983 213.667 t 0 r /Helvetica findfont 22.8295 sf 0 0 m (0.02) show NC gr 
 gsave  408 306 930 13 C 942.983 242.156 t 0 r /Helvetica findfont 22.8295 sf 0 0 m (0.04) show NC gr 
 gsave  408 306 930 13 C 942.983 270.645 t 0 r /Helvetica findfont 22.8295 sf 0 0 m (0.06) show NC gr  1297 59 m 229 Y s 1292 77 m 5 X s 1294 84 m 3 X s 1294 91 m 3 X s 1294 98 m 3 X s 1292 106 m 5 X s 1294 113 m 3 X s 1294 120 m 3 X s 1294 127 m 3 X
 s 1292 134 m 5 X s 1294 141 m 3 X s 1294 149 m 3 X s 1294 156 m 3 X s 1292 163 m 5 X s 1294 170 m 3 X s 1294 177 m 3 X s 1294 184 m 3 X s 1292 192 m 5 X s 1294 199 m 3 X s 1294 206 m 3 X s 1294 213 m 3 X s 1292 220 m 5 X s 1294 227 m 3 X s 1294 235
 m 3 X s 1294 242 m 3 X s 1292 249 m 5 X s 1294 256 m 3 X s 1294 263 m 3 X s 1294 271 m 3 X s 1292 278 m 5 X s 1292 77 m 5 X s 1294 70 m 3 X s 1294 63 m 3 X s 1292 278 m 5 X s 1294 285 m 3 X s 1016 140 1058 183 1101 143 1122 115 1164 173 1185 173
 1227 202 1269 230 8 { m21} R 1016 151 m 27 Y s 1011 178 m 11 X s 1016 128 m -26 Y s 1011 102 m 11 X s 1058 194 m 28 Y s 1053 222 m 11 X s 1058 171 m -27 Y s 1053 144 m 11 X s 1101 154 m 27 Y s 1095 181 m 11 X s 1101 131 m -26 Y s 1095 105 m 11 X s
 1122 126 m 26 Y s 1116 152 m 11 X s 1122 103 m -25 Y s 1116 78 m 11 X s 1164 184 m 28 Y s 1158 212 m 12 X s 1164 162 m -27 Y s 1158 135 m 12 X s 1185 184 m 27 Y s 1179 211 m 12 X s 1185 162 m -27 Y s 1179 135 m 12 X s 1227 213 m 28 Y s 1221 241 m 12
 X s 1227 190 m -28 Y s 1221 162 m 12 X s 1269 241 m 28 Y s 1264 269 m 11 X s 1269 219 m -28 Y s 1264 191 m 11 X s 9 lw 0.95 0.95 0.95 c black 993 145 m 3 1 d 3 1 d 3 1 d 3 1 d 3 1 d 3 1 d 3 1 d 3 1 d 3 X 3 1 d 3 1 d 3 1 d 3 1 d 3 1 d 3 1 d 4 1 d 3 1
 d 3 1 d 3 1 d 3 1 d 3 1 d 3 1 d 3 1 d 3 1 d 3 1 d 3 1 d 3 1 d 3 1 d 3 1 d 3 X 3 1 d 3 1 d 4 1 d 3 1 d 3 1 d 3 1 d 3 1 d 3 1 d 3 1 d 3 1 d 3 1 d 3 1 d 3 1 d 3 1 d 3 1 d 3 1 d 3 1 d 3 1 d 4 1 d s 1143 192 m 3 1 d 3 X 3 1 d 3 1 d 3 1 d 3 1 d 3 1 d 3 1
 d 3 1 d 3 1 d 3 1 d 3 1 d 3 1 d 3 1 d 3 1 d 4 1 d 3 1 d 3 1 d 3 1 d 3 1 d 3 1 d 3 1 d 3 X 3 1 d 3 1 d 3 1 d 3 1 d 3 1 d 3 1 d 3 1 d 3 1 d 3 1 d 4 1 d 3 1 d 3 1 d 3 1 d 3 1 d 3 1 d 3 1 d 3 1 d 3 1 d 3 1 d 3 1 d 3 X 3 1 d 3 1 d 3 1 d 3 1 d 4 1 d s
 1293 238 m 3 1 d s 0.49 0.6 0.82 c black 0.49 0.6 0.82 c
 gsave  408 306 930 13 C 1051.24 296.285 t 0 r /Helvetica-Bold findfont 25.6831 sf 0 0 m (8.5 < E < 9.0 GeV) show NC gr  0.52 0.76 0.64 c black 0.52 0.76 0.64 c
 gsave  408 306 930 13 C 1037 259.249 t 0 r /Helvetica-Bold findfont 25.6831 sf 0 0 m 
 220 206 192 185 170 163 148 141 126 118 111 97 83 69 61 47 40 25 18
(A = 0.046, p = 1.000) K NC gr  1 0.6 1 c black 1 0.6 1 c
 gsave  408 306 930 13 C 1336.13 128.2 t 90 r /Helvetica-Bold findfont 28.5368 sf 0 0 m (/dof=0.9) show NC gr  black 1 0.6 1 c
 gsave  408 306 930 13 C 1324.73 116.804 t 90 r /Helvetica-Bold findfont 19.9758 sf 0 0 m (2) show NC gr  black 1 0.6 1 c
 gsave  408 306 930 13 C 1336.13 99.7112 t 90 r /Symbol findfont 28.5368 sf 0 0 m (c) show NC gr  black 3 lw 1 1 1 c 408 306 1383 13 bf black 1 1 1 c black 306 229 1445 59 bl 306 229 1445 59 bl 1445 59 m 306 X s 1491 63 m -4 Y s 1596 63 m -4 Y s 1702
 63 m -4 Y s 1491 63 m -4 Y s 1702 63 m -4 Y s
 gsave  408 306 1383 13 C 1470.03 39.8845 t 0 r /Helvetica findfont 22.8295 sf 0 0 m (\2550.5) show NC gr 
 gsave  408 306 1383 13 C 1586.83 39.8845 t 0 r /Helvetica findfont 22.8295 sf 0 0 m (0) show NC gr 
 gsave  408 306 1383 13 C 1683.69 39.8845 t 0 r /Helvetica findfont 22.8295 sf 0 0 m (0.5) show NC gr  1445 288 m 306 X s 1491 284 m 4 Y s 1596 284 m 4 Y s 1702 284 m 4 Y s 1491 284 m 4 Y s 1702 284 m 4 Y s 1445 59 m 229 Y s 1450 85 m -5 X s 1447 92
 m -2 X s 1447 100 m -2 X s 1447 107 m -2 X s 1450 115 m -5 X s 1447 123 m -2 X s 1447 130 m -2 X s 1447 138 m -2 X s 1450 145 m -5 X s 1447 153 m -2 X s 1447 161 m -2 X s 1447 168 m -2 X s 1450 176 m -5 X s 1447 183 m -2 X s 1447 191 m -2 X s 1447
 199 m -2 X s 1450 206 m -5 X s 1447 214 m -2 X s 1447 221 m -2 X s 1447 229 m -2 X s 1450 237 m -5 X s 1447 244 m -2 X s 1447 252 m -2 X s 1447 259 m -2 X s 1450 267 m -5 X s 1450 85 m -5 X s 1447 77 m -2 X s 1447 69 m -2 X s 1447 62 m -2 X s 1450
 267 m -5 X s 1447 275 m -2 X s 1447 282 m -2 X s
 gsave  408 306 1383 13 C 1390.26 76.92 t 0 r /Helvetica findfont 22.8295 sf 0 0 m (\2550.04) show NC gr 
 gsave  408 306 1383 13 C 1390.26 108.258 t 0 r /Helvetica findfont 22.8295 sf 0 0 m (\2550.02) show NC gr 
 gsave  408 306 1383 13 C 1427.29 139.596 t 0 r /Helvetica findfont 22.8295 sf 0 0 m (0) show NC gr 
 gsave  408 306 1383 13 C 1395.96 168.085 t 0 r /Helvetica findfont 22.8295 sf 0 0 m (0.02) show NC gr 
 gsave  408 306 1383 13 C 1395.96 199.422 t 0 r /Helvetica findfont 22.8295 sf 0 0 m (0.04) show NC gr 
 gsave  408 306 1383 13 C 1395.96 230.76 t 0 r /Helvetica findfont 22.8295 sf 0 0 m (0.06) show NC gr 
 gsave  408 306 1383 13 C 1395.96 259.249 t 0 r /Helvetica findfont 22.8295 sf 0 0 m (0.08) show NC gr  1751 59 m 229 Y s 1745 85 m 6 X s 1748 92 m 3 X s 1748 100 m 3 X s 1748 107 m 3 X s 1745 115 m 6 X s 1748 123 m 3 X s 1748 130 m 3 X s 1748 138 m
 3 X s 1745 145 m 6 X s 1748 153 m 3 X s 1748 161 m 3 X s 1748 168 m 3 X s 1745 176 m 6 X s 1748 183 m 3 X s 1748 191 m 3 X s 1748 199 m 3 X s 1745 206 m 6 X s 1748 214 m 3 X s 1748 221 m 3 X s 1748 229 m 3 X s 1745 237 m 6 X s 1748 244 m 3 X s 1748
 252 m 3 X s 1748 259 m 3 X s 1745 267 m 6 X s 1745 85 m 6 X s 1748 77 m 3 X s 1748 69 m 3 X s 1748 62 m 3 X s 1745 267 m 6 X s 1748 275 m 3 X s 1748 282 m 3 X s 1470 156 1512 155 1554 166 1575 122 1617 215 1639 223 1681 202 1723 204 8 { m21} R 1470
 168 m 34 Y s 1464 202 m 12 X s 1470 145 m -34 Y s 1464 111 m 12 X s 1512 166 m 34 Y s 1506 200 m 12 X s 1512 144 m -34 Y s 1506 110 m 12 X s 1554 177 m 33 Y s 1548 210 m 12 X s 1554 154 m -33 Y s 1548 121 m 12 X s 1575 133 m 32 Y s 1570 165 m 11 X s
 1575 110 m -32 Y s 1570 78 m 11 X s 1617 226 m 34 Y s 1612 260 m 11 X s 1617 203 m -34 Y s 1612 169 m 11 X s 1639 235 m 34 Y s 1633 269 m 11 X s 1639 212 m -34 Y s 1633 178 m 11 X s 1681 213 m 34 Y s 1675 247 m 11 X s 1681 191 m -34 Y s 1675 157 m
 11 X s 1723 216 m 32 Y s 1717 248 m 12 X s 1723 193 m -33 Y s 1717 160 m 12 X s 1 0 0 c 9 lw 0.95 0.95 0.95 c black 1 0 0 c 1446 211 m 3 -3 d 3 -2 d 3 -3 d 3 -2 d 3 -3 d 3 -2 d 3 -2 d 4 -3 d 3 -2 d 3 -2 d 3 -2 d 3 -2 d 3 -2 d 3 -2 d 3 -2 d 3 -2 d 3
 -2 d 3 -1 d 3 -2 d 3 -2 d 3 -1 d 3 -2 d 3 -1 d 4 -1 d 3 -2 d 3 -1 d 3 -1 d 3 -1 d 3 -2 d 3 -1 d 3 -1 d 3 -1 d 3 -1 d 3 X 3 -1 d 3 -1 d 3 -1 d 3 X 3 -1 d 4 X 3 -1 d 3 X 3 -1 d 12 X 3 -1 d 3 X s 1596 145 m 3 X 3 1 d 12 X 4 1 d 3 X 3 1 d 3 X 3 1 d 3 X
 3 1 d 3 1 d 3 X 3 1 d 3 1 d 3 1 d 3 1 d 3 1 d 3 1 d 3 1 d 3 2 d 4 1 d 3 1 d 3 2 d 3 1 d 3 2 d 3 1 d 3 2 d 3 1 d 3 2 d 3 2 d 3 2 d 3 2 d 3 1 d 3 2 d 3 2 d 3 3 d 4 2 d 3 2 d 3 2 d 3 2 d 3 3 d 3 2 d 3 3 d 3 2 d 3 3 d 3 2 d s 1746 210 m 3 3 d s 0.49 0.6
 0.82 c black 0.49 0.6 0.82 c
 gsave  408 306 1383 13 C 1504.21 296.285 t 0 r /Helvetica-Bold findfont 25.6831 sf 0 0 m (9.0 < E < 9.5 GeV) show NC gr  0.52 0.76 0.64 c black 0.52 0.76 0.64 c
 gsave  408 306 1383 13 C 1489.97 259.249 t 0 r /Helvetica-Bold findfont 25.6831 sf 0 0 m 
 220 206 192 185 170 163 148 141 125 118 111 97 83 68 61 47 40 25 18
(A = 0.085, p = 2.000) K NC gr  1 0.6 1 c black 1 0.6 1 c
 gsave  408 306 1383 13 C 1789.1 128.2 t 90 r /Helvetica-Bold findfont 28.5368 sf 0 0 m (/dof=0.9) show NC gr  black 1 0.6 1 c
 gsave  408 306 1383 13 C 1777.71 116.804 t 90 r /Helvetica-Bold findfont 19.9758 sf 0 0 m (2) show NC gr  black 1 0.6 1 c
 gsave  408 306 1383 13 C 1789.1 99.7112 t 90 r /Symbol findfont 28.5368 sf 0 0 m (c) show NC gr  black 3 lw 1 1 1 c 408 306 1837 13 bf black 1 1 1 c black 306 229 1898 59 bl 306 229 1898 59 bl 1898 59 m 306 X s 1944 63 m -4 Y s 2050 63 m -4 Y s 2155
 63 m -4 Y s 1944 63 m -4 Y s 2155 63 m -4 Y s
 gsave  408 306 1837 13 C 1923 39.8845 t 0 r /Helvetica findfont 22.8295 sf 0 0 m (\2550.5) show NC gr 
 gsave  408 306 1837 13 C 2039.81 39.8845 t 0 r /Helvetica findfont 22.8295 sf 0 0 m (0) show NC gr 
 gsave  408 306 1837 13 C 2136.67 39.8845 t 0 r /Helvetica findfont 22.8295 sf 0 0 m (0.5) show NC gr  1898 288 m 306 X s 1944 284 m 4 Y s 2050 284 m 4 Y s 2155 284 m 4 Y s 1944 284 m 4 Y s 2155 284 m 4 Y s 1898 59 m 229 Y s 1904 80 m -6 X s 1901 88
 m -3 X s 1901 96 m -3 X s 1901 104 m -3 X s 1904 112 m -6 X s 1901 120 m -3 X s 1901 128 m -3 X s 1901 136 m -3 X s 1904 145 m -6 X s 1901 153 m -3 X s 1901 161 m -3 X s 1901 169 m -3 X s 1904 177 m -6 X s 1901 185 m -3 X s 1901 193 m -3 X s 1901
 201 m -3 X s 1904 210 m -6 X s 1901 218 m -3 X s 1901 226 m -3 X s 1901 234 m -3 X s 1904 242 m -6 X s 1901 250 m -3 X s 1901 258 m -3 X s 1901 266 m -3 X s 1904 275 m -6 X s 1904 80 m -6 X s 1901 72 m -3 X s 1901 63 m -3 X s 1904 275 m -6 X s 1901
 283 m -3 X s
 gsave  408 306 1837 13 C 1843.23 71.2223 t 0 r /Helvetica findfont 22.8295 sf 0 0 m (\2550.04) show NC gr 
 gsave  408 306 1837 13 C 1843.23 105.409 t 0 r /Helvetica findfont 22.8295 sf 0 0 m (\2550.02) show NC gr 
 gsave  408 306 1837 13 C 1880.27 136.747 t 0 r /Helvetica findfont 22.8295 sf 0 0 m (0) show NC gr 
 gsave  408 306 1837 13 C 1848.93 170.933 t 0 r /Helvetica findfont 22.8295 sf 0 0 m (0.02) show NC gr 
 gsave  408 306 1837 13 C 1848.93 202.271 t 0 r /Helvetica findfont 22.8295 sf 0 0 m (0.04) show NC gr 
 gsave  408 306 1837 13 C 1848.93 233.609 t 0 r /Helvetica findfont 22.8295 sf 0 0 m (0.06) show NC gr 
 gsave  408 306 1837 13 C 1848.93 267.796 t 0 r /Helvetica findfont 22.8295 sf 0 0 m (0.08) show NC gr  2204 59 m 229 Y s 2199 80 m 5 X s 2201 88 m 3 X s 2201 96 m 3 X s 2201 104 m 3 X s 2199 112 m 5 X s 2201 120 m 3 X s 2201 128 m 3 X s 2201 136 m 3
 X s 2199 145 m 5 X s 2201 153 m 3 X s 2201 161 m 3 X s 2201 169 m 3 X s 2199 177 m 5 X s 2201 185 m 3 X s 2201 193 m 3 X s 2201 201 m 3 X s 2199 210 m 5 X s 2201 218 m 3 X s 2201 226 m 3 X s 2201 234 m 3 X s 2199 242 m 5 X s 2201 250 m 3 X s 2201
 258 m 3 X s 2201 266 m 3 X s 2199 275 m 5 X s 2199 80 m 5 X s 2201 72 m 3 X s 2201 63 m 3 X s 2199 275 m 5 X s 2201 283 m 3 X s 1923 134 1966 128 2008 153 2029 167 2071 127 2092 218 2134 216 2176 193 8 { m21} R 1923 145 m 40 Y s 1918 185 m 11 X s
 1923 123 m -40 Y s 1918 83 m 11 X s 1966 140 m 38 Y s 1960 178 m 11 X s 1966 117 m -39 Y s 1960 78 m 11 X s 2008 165 m 40 Y s 2002 205 m 11 X s 2008 142 m -41 Y s 2002 101 m 11 X s 2029 178 m 39 Y s 2023 217 m 11 X s 2029 155 m -39 Y s 2023 116 m 11
 X s 2071 138 m 38 Y s 2065 176 m 12 X s 2071 116 m -38 Y s 2065 78 m 12 X s 2092 229 m 40 Y s 2086 269 m 12 X s 2092 207 m -40 Y s 2086 167 m 12 X s 2134 228 m 39 Y s 2129 267 m 11 X s 2134 205 m -39 Y s 2129 166 m 11 X s 2176 205 m 37 Y s 2171 242
 m 11 X s 2176 182 m -38 Y s 2171 144 m 11 X s 9 lw 0.95 0.95 0.95 c black 1900 94 m 3 1 d 3 1 d 3 1 d 3 1 d 3 1 d 3 1 d 3 1 d 3 1 d 3 1 d 3 2 d 3 1 d 3 1 d 3 1 d 3 1 d 4 1 d 3 1 d 3 1 d 3 1 d 3 1 d 3 1 d 3 1 d 3 1 d 3 1 d 3 1 d 3 1 d 3 1 d 3 1 d 3 1
 d 3 1 d 3 1 d 4 1 d 3 1 d 3 1 d 3 1 d 3 1 d 3 1 d 3 1 d 3 1 d 3 1 d 3 1 d 3 1 d 3 1 d 3 1 d 3 1 d 3 1 d 3 1 d 3 1 d 4 1 d 3 2 d s 2050 145 m 3 1 d 3 1 d 3 1 d 3 1 d 3 1 d 3 1 d 3 1 d 3 1 d 3 1 d 3 1 d 3 1 d 3 1 d 3 1 d 3 1 d 4 1 d 3 1 d 3 1 d 3 1 d
 3 1 d 3 1 d 3 1 d 3 1 d 3 1 d 3 1 d 3 1 d 3 1 d 3 1 d 3 1 d 3 1 d 3 1 d 4 1 d 3 1 d 3 1 d 3 1 d 3 1 d 3 1 d 3 1 d 3 1 d 3 2 d 3 1 d 3 1 d 3 1 d 3 1 d 3 1 d 3 1 d 3 1 d 4 1 d 3 1 d 3 1 d s 2200 195 m 3 1 d s 0.49 0.6 0.82 c black 0.49 0.6 0.82 c
 gsave  408 306 1837 13 C 1948.64 296.285 t 0 r /Helvetica-Bold findfont 25.6831 sf 0 0 m (9.5 < E < 10.0 GeV) show NC gr  0.52 0.76 0.64 c black 0.52 0.76 0.64 c
 gsave  408 306 1837 13 C 1942.94 259.249 t 0 r /Helvetica-Bold findfont 25.6831 sf 0 0 m 
 220 206 192 185 170 163 148 141 126 118 111 97 83 69 61 47 40 25 18
(A = 0.044, p = 1.000) K NC gr  1 0.6 1 c black 1 0.6 1 c
 gsave  408 306 1837 13 C 2242.08 128.2 t 90 r /Helvetica-Bold findfont 28.5368 sf 0 0 m (/dof=0.5) show NC gr  black 1 0.6 1 c
 gsave  408 306 1837 13 C 2230.68 116.804 t 90 r /Helvetica-Bold findfont 19.9758 sf 0 0 m (2) show NC gr  black 1 0.6 1 c
 gsave  408 306 1837 13 C 2242.08 99.7112 t 90 r /Symbol findfont 28.5368 sf 0 0 m (c) show NC gr 
 gr  gr showpage
end
%%EOF
