%!PS-Adobe-2.0 EPSF-2.0
%%BoundingBox:  0 0 567 332
%%Title: Density__far_fits.eps: Fits
%%Creator: ROOT Version 5.30/06
%%CreationDate: Sun Feb  2 09:38:17 2014
%%EndComments
%%BeginProlog
80 dict begin
/s {stroke} def /l {lineto} def /m {moveto} def /t {translate} def
/r {rotate} def /rl {roll}  def /R {repeat} def
/d {rlineto} def /rm {rmoveto} def /gr {grestore} def /f {eofill} def
/c {setrgbcolor} def /black {0 setgray} def /sd {setdash} def
/cl {closepath} def /sf {scalefont setfont} def /lw {setlinewidth} def
/box {m dup 0 exch d exch 0 d 0 exch neg d cl} def
/NC{systemdict begin initclip end}def/C{NC box clip newpath}def
/bl {box s} def /bf {box f} def /Y { 0 exch d} def /X { 0 d} def 
/K {{pop pop 0 moveto} exch kshow} bind def
/ita {/ang 15 def gsave [1 0 ang dup sin exch cos div 1 0 0] concat} def 
/mp {newpath /y exch def /x exch def} def
/side {[w .77 mul w .23 mul] .385 w mul sd w 0 l currentpoint t -144 r} def
/mr {mp x y w2 0 360 arc} def /m24 {mr s} def /m20 {mr f} def
/mb {mp x y w2 add m w2 neg 0 d 0 w neg d w 0 d 0 w d cl} def
/mt {mp x y w2 add m w2 neg w neg d w 0 d cl} def
/m21 {mb f} def /m25 {mb s} def /m22 {mt f} def /m26{mt s} def
/m23 {mp x y w2 sub m w2 w d w neg 0 d cl f} def
/m27 {mp x y w2 add m w3 neg w2 neg d w3 w2 neg d w3 w2 d cl s} def
/m28 {mp x w2 sub y w2 sub w3 add m w3 0 d  0 w3 neg d w3 0 d 0 w3 d w3 0 d  0 w3 d w3 neg 0 d 0 w3 d w3 neg 0 d 0 w3 neg d w3 neg 0 d cl s } def
/m29 {mp gsave x w2 sub y w2 add w3 sub m currentpoint t 4 {side} repeat cl fill gr} def
/m30 {mp gsave x w2 sub y w2 add w3 sub m currentpoint t 4 {side} repeat cl s gr} def
/m31 {mp x y w2 sub m 0 w d x w2 sub y m w 0 d x w2 sub y w2 add m w w neg d x w2 sub y w2 sub m w w d s} def
/m32 {mp x y w2 sub m w2 w d w neg 0 d cl s} def
/m33 {mp x y w2 add m w3 neg w2 neg d w3 w2 neg d w3 w2 d cl f} def
/m34 {mp x w2 sub y w2 sub w3 add m w3 0 d  0 w3 neg d w3 0 d 0 w3 d w3 0 d  0 w3 d w3 neg 0 d 0 w3 d w3 neg 0 d 0 w3 neg d w3 neg 0 d cl f } def
/m2 {mp x y w2 sub m 0 w d x w2 sub y m w 0 d s} def
/m5 {mp x w2 sub y w2 sub m w w d x w2 sub y w2 add m w w neg d s} def
/reEncode {exch findfont dup length dict begin {1 index /FID eq  {pop pop} {def} ifelse } forall /Encoding exch def currentdict end dup /FontName get exch definefont pop } def [/Times-Bold /Times-Italic /Times-BoldItalic /Helvetica /Helvetica-Oblique
 /Helvetica-Bold /Helvetica-BoldOblique /Courier /Courier-Oblique /Courier-Bold /Courier-BoldOblique /Times-Roman /AvantGarde-Book /AvantGarde-BookOblique /AvantGarde-Demi /AvantGarde-DemiOblique /Bookman-Demi /Bookman-DemiItalic /Bookman-Light
 /Bookman-LightItalic /Helvetica-Narrow /Helvetica-Narrow-Bold /Helvetica-Narrow-BoldOblique /Helvetica-Narrow-Oblique /NewCenturySchlbk-Roman /NewCenturySchlbk-Bold /NewCenturySchlbk-BoldItalic /NewCenturySchlbk-Italic /Palatino-Bold
 /Palatino-BoldItalic /Palatino-Italic /Palatino-Roman ] {ISOLatin1Encoding reEncode } forall%%EndProlog
%%BeginSetup
%%EndSetup
newpath  gsave  .25 .25 scale  gsave  0 0 t black[  ] 0 sd 3 lw 1 1 1 c 2268 1328 0 0 bf black 1 1 1 c 408 305 23 1009 bf black 1 1 1 c black 306 229 84 1055 bl 306 229 84 1055 bl 84 1055 m 306 X s 117 1059 m -4 Y s 236 1059 m -4 Y s 354 1059 m -4 Y
 s 117 1059 m -4 Y s 354 1059 m -4 Y s
 gsave  408 305 23 1009 C 96.8623 1034.15 t 0 r /Helvetica findfont 22.8295 sf 0 0 m (\2550.1) show NC gr 
 gsave  408 305 23 1009 C 225.062 1034.15 t 0 r /Helvetica findfont 22.8295 sf 0 0 m (0) show NC gr 
 gsave  408 305 23 1009 C 339.018 1034.15 t 0 r /Helvetica findfont 22.8295 sf 0 0 m (0.1) show NC gr  84 1284 m 306 X s 117 1280 m 4 Y s 236 1280 m 4 Y s 354 1280 m 4 Y s 117 1280 m 4 Y s 354 1280 m 4 Y s 84 1055 m 229 Y s 89 1088 m -5 X s 87 1097 m
 -3 X s 87 1105 m -3 X s 87 1114 m -3 X s 87 1122 m -3 X s 89 1131 m -5 X s 87 1139 m -3 X s 87 1148 m -3 X s 87 1156 m -3 X s 87 1165 m -3 X s 89 1173 m -5 X s 87 1182 m -3 X s 87 1190 m -3 X s 87 1199 m -3 X s 87 1207 m -3 X s 89 1215 m -5 X s 87
 1224 m -3 X s 87 1232 m -3 X s 87 1241 m -3 X s 87 1249 m -3 X s 89 1258 m -5 X s 89 1088 m -5 X s 87 1080 m -3 X s 87 1071 m -3 X s 87 1063 m -3 X s 89 1258 m -5 X s 87 1266 m -3 X s 87 1275 m -3 X s 87 1283 m -3 X s
 gsave  408 305 23 1009 C 28.4889 1082.58 t 0 r /Helvetica findfont 22.8295 sf 0 0 m (\2550.02) show NC gr 
 gsave  408 305 23 1009 C 31.3378 1122.46 t 0 r /Helvetica findfont 22.8295 sf 0 0 m (\2550.01) show NC gr 
 gsave  408 305 23 1009 C 65.5245 1165.2 t 0 r /Helvetica findfont 22.8295 sf 0 0 m (0) show NC gr 
 gsave  408 305 23 1009 C 37.0356 1207.93 t 0 r /Helvetica findfont 22.8295 sf 0 0 m (0.01) show NC gr 
 gsave  408 305 23 1009 C 34.1867 1250.66 t 0 r /Helvetica findfont 22.8295 sf 0 0 m (0.02) show NC gr  390 1055 m 229 Y s 385 1088 m 5 X s 387 1097 m 3 X s 387 1105 m 3 X s 387 1114 m 3 X s 387 1122 m 3 X s 385 1131 m 5 X s 387 1139 m 3 X s 387 1148
 m 3 X s 387 1156 m 3 X s 387 1165 m 3 X s 385 1173 m 5 X s 387 1182 m 3 X s 387 1190 m 3 X s 387 1199 m 3 X s 387 1207 m 3 X s 385 1215 m 5 X s 387 1224 m 3 X s 387 1232 m 3 X s 387 1241 m 3 X s 387 1249 m 3 X s 385 1258 m 5 X s 385 1088 m 5 X s 387
 1080 m 3 X s 387 1071 m 3 X s 387 1063 m 3 X s 385 1258 m 5 X s 387 1266 m 3 X s 387 1275 m 3 X s 387 1283 m 3 X s /w 22 def /w2 {w 2 div} def /w3 {w 3 div} def 109 1078 151 1113 194 1145 215 1161 257 1188 278 1197 320 1231 362 1261 8 { m21} R 9 lw
 0.95 0.95 0.95 c black 85 1066 m 3 3 d 4 2 d 3 2 d 3 2 d 3 2 d 3 2 d 3 3 d 3 2 d 3 2 d 3 2 d 3 2 d 3 3 d 3 2 d 3 2 d 3 2 d 3 2 d 3 2 d 4 3 d 3 2 d 3 2 d 3 2 d 3 2 d 3 2 d 3 3 d 3 2 d 3 2 d 3 2 d 3 2 d 3 2 d 3 3 d 3 2 d 3 2 d 3 2 d 4 2 d 3 2 d 3 3 d
 3 2 d 3 2 d 3 2 d 3 2 d 3 3 d 3 2 d 3 2 d 3 2 d 3 2 d 3 2 d 3 3 d 3 2 d 3 2 d s 235 1173 m 4 2 d 3 2 d 3 2 d 3 3 d 3 2 d 3 2 d 3 2 d 3 2 d 3 2 d 3 3 d 3 2 d 3 2 d 3 2 d 3 2 d 3 2 d 3 3 d 3 2 d 4 2 d 3 2 d 3 2 d 3 3 d 3 2 d 3 2 d 3 2 d 3 2 d 3 2 d 3
 3 d 3 2 d 3 2 d 3 2 d 3 2 d 3 2 d 3 3 d 4 2 d 3 2 d 3 2 d 3 2 d 3 2 d 3 3 d 3 2 d 3 2 d 3 2 d 3 2 d 3 2 d 3 3 d 3 2 d 3 2 d 3 2 d 3 2 d s 385 1279 m 4 3 d s 0.49 0.6 0.82 c black 0.49 0.6 0.82 c
 gsave  408 305 23 1009 C 142.445 1293.4 t 0 r /Helvetica-Bold findfont 25.6831 sf 0 0 m (0.0 < E < 0.5 GeV) show NC gr  0.52 0.76 0.64 c black 0.52 0.76 0.64 c
 gsave  408 305 23 1009 C 128.2 1256.36 t 0 r /Helvetica-Bold findfont 25.6831 sf 0 0 m 
 220 206 192 185 170 163 148 141 126 118 111 97 83 69 61 47 40 25 18
(A = 0.198, p = 1.000) K NC gr  1 0.6 1 c black 1 0.6 1 c
 gsave  408 305 23 1009 C 427.334 1122.46 t 90 r /Helvetica-Bold findfont 28.5368 sf 0 0 m (/dof=0.7) show NC gr  black 1 0.6 1 c
 gsave  408 305 23 1009 C 415.938 1111.07 t 90 r /Helvetica-Bold findfont 19.9758 sf 0 0 m (2) show NC gr  black 1 0.6 1 c
 gsave  408 305 23 1009 C 427.334 1093.97 t 90 r /Symbol findfont 28.5368 sf 0 0 m (c) show NC gr  black 3 lw 1 1 1 c 408 305 476 1009 bf black 1 1 1 c black 307 229 537 1055 bl 307 229 537 1055 bl 537 1055 m 307 X s 571 1059 m -4 Y s 689 1059 m -4 Y
 s 808 1059 m -4 Y s 571 1059 m -4 Y s 808 1059 m -4 Y s
 gsave  408 305 476 1009 C 549.836 1034.15 t 0 r /Helvetica findfont 22.8295 sf 0 0 m (\2550.1) show NC gr 
 gsave  408 305 476 1009 C 678.036 1034.15 t 0 r /Helvetica findfont 22.8295 sf 0 0 m (0) show NC gr 
 gsave  408 305 476 1009 C 791.991 1034.15 t 0 r /Helvetica findfont 22.8295 sf 0 0 m (0.1) show NC gr  537 1284 m 307 X s 571 1280 m 4 Y s 689 1280 m 4 Y s 808 1280 m 4 Y s 571 1280 m 4 Y s 808 1280 m 4 Y s 537 1055 m 229 Y s 543 1065 m -6 X s 540
 1073 m -3 X s 540 1080 m -3 X s 540 1087 m -3 X s 540 1095 m -3 X s 543 1102 m -6 X s 540 1110 m -3 X s 540 1117 m -3 X s 540 1124 m -3 X s 540 1132 m -3 X s 543 1139 m -6 X s 540 1147 m -3 X s 540 1154 m -3 X s 540 1161 m -3 X s 540 1169 m -3 X s
 543 1176 m -6 X s 540 1184 m -3 X s 540 1191 m -3 X s 540 1198 m -3 X s 540 1206 m -3 X s 543 1213 m -6 X s 540 1221 m -3 X s 540 1228 m -3 X s 540 1235 m -3 X s 540 1243 m -3 X s 543 1250 m -6 X s 543 1065 m -6 X s 540 1058 m -3 X s 543 1250 m -6 X
 s 540 1258 m -3 X s 540 1265 m -3 X s 540 1272 m -3 X s 540 1280 m -3 X s
 gsave  408 305 476 1009 C 481.462 1056.94 t 0 r /Helvetica findfont 22.8295 sf 0 0 m (\2550.03) show NC gr 
 gsave  408 305 476 1009 C 481.462 1093.97 t 0 r /Helvetica findfont 22.8295 sf 0 0 m (\2550.02) show NC gr 
 gsave  408 305 476 1009 C 484.311 1131.01 t 0 r /Helvetica findfont 22.8295 sf 0 0 m (\2550.01) show NC gr 
 gsave  408 305 476 1009 C 518.498 1168.04 t 0 r /Helvetica findfont 22.8295 sf 0 0 m (0) show NC gr 
 gsave  408 305 476 1009 C 490.009 1205.08 t 0 r /Helvetica findfont 22.8295 sf 0 0 m (0.01) show NC gr 
 gsave  408 305 476 1009 C 487.16 1242.12 t 0 r /Helvetica findfont 22.8295 sf 0 0 m (0.02) show NC gr  844 1055 m 229 Y s 838 1065 m 6 X s 841 1073 m 3 X s 841 1080 m 3 X s 841 1087 m 3 X s 841 1095 m 3 X s 838 1102 m 6 X s 841 1110 m 3 X s 841 1117
 m 3 X s 841 1124 m 3 X s 841 1132 m 3 X s 838 1139 m 6 X s 841 1147 m 3 X s 841 1154 m 3 X s 841 1161 m 3 X s 841 1169 m 3 X s 838 1176 m 6 X s 841 1184 m 3 X s 841 1191 m 3 X s 841 1198 m 3 X s 841 1206 m 3 X s 838 1213 m 6 X s 841 1221 m 3 X s 841
 1228 m 3 X s 841 1235 m 3 X s 841 1243 m 3 X s 838 1250 m 6 X s 838 1065 m 6 X s 841 1058 m 3 X s 838 1250 m 6 X s 841 1258 m 3 X s 841 1265 m 3 X s 841 1272 m 3 X s 841 1280 m 3 X s /w 23 def /w2 {w 2 div} def /w3 {w 3 div} def 563 1078 605 1117
 647 1144 668 1160 710 1191 731 1211 774 1239 816 1260 8 { m21} R 9 lw 0.95 0.95 0.95 c black 539 1067 m 3 2 d 3 2 d 3 2 d 3 3 d 3 2 d 3 2 d 3 2 d 3 3 d 4 2 d 3 2 d 3 2 d 3 3 d 3 2 d 3 2 d 3 2 d 3 2 d 3 3 d 3 2 d 3 2 d 3 2 d 3 3 d 3 2 d 3 2 d 3 2 d 4
 3 d 3 2 d 3 2 d 3 2 d 3 2 d 3 3 d 3 2 d 3 2 d 3 2 d 3 3 d 3 2 d 3 2 d 3 2 d 3 3 d 3 2 d 3 2 d 3 2 d 4 2 d 3 3 d 3 2 d 3 2 d 3 2 d 3 3 d 3 2 d 3 2 d s 689 1176 m 3 2 d 3 3 d 3 2 d 3 2 d 3 2 d 3 2 d 3 3 d 3 2 d 4 2 d 3 2 d 3 3 d 3 2 d 3 2 d 3 2 d 3 3
 d 3 2 d 3 2 d 3 2 d 3 2 d 3 3 d 3 2 d 3 2 d 3 2 d 3 3 d 4 2 d 3 2 d 3 2 d 3 3 d 3 2 d 3 2 d 3 2 d 3 2 d 3 3 d 3 2 d 3 2 d 3 2 d 3 3 d 3 2 d 3 2 d 3 2 d 4 3 d 3 2 d 3 2 d 3 2 d 3 2 d 3 3 d 3 2 d 3 2 d 3 1 d s 0.49 0.6 0.82 c black 0.49 0.6 0.82 c
 gsave  408 305 476 1009 C 595.418 1293.4 t 0 r /Helvetica-Bold findfont 25.6831 sf 0 0 m (0.5 < E < 1.0 GeV) show NC gr  0.52 0.76 0.64 c black 0.52 0.76 0.64 c
 gsave  408 305 476 1009 C 581.174 1256.36 t 0 r /Helvetica-Bold findfont 25.6831 sf 0 0 m 
 220 206 192 185 170 163 148 141 125 118 111 97 83 69 61 47 40 25 18
(A = 0.233, p = 1.000) K NC gr  1 0.6 1 c black 1 0.6 1 c
 gsave  408 305 476 1009 C 883.156 1122.46 t 90 r /Helvetica-Bold findfont 28.5368 sf 0 0 m (/dof=1.0) show NC gr  black 1 0.6 1 c
 gsave  408 305 476 1009 C 871.76 1111.07 t 90 r /Helvetica-Bold findfont 19.9758 sf 0 0 m (2) show NC gr  black 1 0.6 1 c
 gsave  408 305 476 1009 C 883.156 1093.97 t 90 r /Symbol findfont 28.5368 sf 0 0 m (c) show NC gr  black 3 lw 1 1 1 c 408 305 930 1009 bf black 1 1 1 c black 306 229 991 1055 bl 306 229 991 1055 bl 991 1055 m 306 X s 1024 1059 m -4 Y s 1143 1059 m
 -4 Y s 1261 1059 m -4 Y s 1024 1059 m -4 Y s 1261 1059 m -4 Y s
 gsave  408 305 930 1009 C 1002.81 1034.15 t 0 r /Helvetica findfont 22.8295 sf 0 0 m (\2550.1) show NC gr 
 gsave  408 305 930 1009 C 1133.86 1034.15 t 0 r /Helvetica findfont 22.8295 sf 0 0 m (0) show NC gr 
 gsave  408 305 930 1009 C 1244.96 1034.15 t 0 r /Helvetica findfont 22.8295 sf 0 0 m (0.1) show NC gr  991 1284 m 306 X s 1024 1280 m 4 Y s 1143 1280 m 4 Y s 1261 1280 m 4 Y s 1024 1280 m 4 Y s 1261 1280 m 4 Y s 991 1055 m 229 Y s 997 1059 m -6 X s
 994 1066 m -3 X s 994 1074 m -3 X s 994 1081 m -3 X s 994 1089 m -3 X s 997 1096 m -6 X s 994 1103 m -3 X s 994 1111 m -3 X s 994 1118 m -3 X s 994 1126 m -3 X s 997 1133 m -6 X s 994 1141 m -3 X s 994 1148 m -3 X s 994 1156 m -3 X s 994 1163 m -3 X
 s 997 1171 m -6 X s 994 1178 m -3 X s 994 1186 m -3 X s 994 1193 m -3 X s 994 1201 m -3 X s 997 1208 m -6 X s 994 1216 m -3 X s 994 1223 m -3 X s 994 1231 m -3 X s 994 1238 m -3 X s 997 1246 m -6 X s 994 1253 m -3 X s 994 1261 m -3 X s 994 1268 m -3
 X s 994 1276 m -3 X s 997 1283 m -6 X s 997 1059 m -6 X s 997 1283 m -6 X s
 gsave  408 305 930 1009 C 937.285 1051.24 t 0 r /Helvetica findfont 22.8295 sf 0 0 m (\2550.03) show NC gr 
 gsave  408 305 930 1009 C 937.285 1088.28 t 0 r /Helvetica findfont 22.8295 sf 0 0 m (\2550.02) show NC gr 
 gsave  408 305 930 1009 C 940.134 1125.31 t 0 r /Helvetica findfont 22.8295 sf 0 0 m (\2550.01) show NC gr 
 gsave  408 305 930 1009 C 974.32 1162.35 t 0 r /Helvetica findfont 22.8295 sf 0 0 m (0) show NC gr 
 gsave  408 305 930 1009 C 945.832 1202.23 t 0 r /Helvetica findfont 22.8295 sf 0 0 m (0.01) show NC gr 
 gsave  408 305 930 1009 C 942.983 1239.27 t 0 r /Helvetica findfont 22.8295 sf 0 0 m (0.02) show NC gr 
 gsave  408 305 930 1009 C 942.983 1276.3 t 0 r /Helvetica findfont 22.8295 sf 0 0 m (0.03) show NC gr  1297 1055 m 229 Y s 1292 1059 m 5 X s 1294 1066 m 3 X s 1294 1074 m 3 X s 1294 1081 m 3 X s 1294 1089 m 3 X s 1292 1096 m 5 X s 1294 1103 m 3 X s
 1294 1111 m 3 X s 1294 1118 m 3 X s 1294 1126 m 3 X s 1292 1133 m 5 X s 1294 1141 m 3 X s 1294 1148 m 3 X s 1294 1156 m 3 X s 1294 1163 m 3 X s 1292 1171 m 5 X s 1294 1178 m 3 X s 1294 1186 m 3 X s 1294 1193 m 3 X s 1294 1201 m 3 X s 1292 1208 m 5 X
 s 1294 1216 m 3 X s 1294 1223 m 3 X s 1294 1231 m 3 X s 1294 1238 m 3 X s 1292 1246 m 5 X s 1294 1253 m 3 X s 1294 1261 m 3 X s 1294 1268 m 3 X s 1294 1276 m 3 X s 1292 1283 m 5 X s 1292 1059 m 5 X s 1292 1283 m 5 X s 1016 1078 1058 1114 1101 1135
 1122 1160 1164 1178 1185 1200 1227 1227 1269 1260 8 { m21} R 9 lw 0.95 0.95 0.95 c black 993 1065 m 3 2 d 3 2 d 3 3 d 3 2 d 3 2 d 3 2 d 3 2 d 3 2 d 3 2 d 3 3 d 3 2 d 3 2 d 3 2 d 3 2 d 3 2 d 4 3 d 3 2 d 3 2 d 3 2 d 3 2 d 3 2 d 3 2 d 3 3 d 3 2 d 3 2 d
 3 2 d 3 2 d 3 2 d 3 3 d 3 2 d 3 2 d 3 2 d 4 2 d 3 2 d 3 2 d 3 3 d 3 2 d 3 2 d 3 2 d 3 2 d 3 2 d 3 3 d 3 2 d 3 2 d 3 2 d 3 2 d 3 2 d 3 2 d 4 3 d s 1143 1171 m 3 2 d 3 2 d 3 2 d 3 2 d 3 2 d 3 3 d 3 2 d 3 2 d 3 2 d 3 2 d 3 2 d 3 2 d 3 3 d 3 2 d 3 2 d 4
 2 d 3 2 d 3 2 d 3 3 d 3 2 d 3 2 d 3 2 d 3 2 d 3 2 d 3 3 d 3 2 d 3 2 d 3 2 d 3 2 d 3 2 d 3 2 d 3 3 d 4 2 d 3 2 d 3 2 d 3 2 d 3 2 d 3 3 d 3 2 d 3 2 d 3 2 d 3 2 d 3 2 d 3 2 d 3 3 d 3 2 d 3 2 d 3 2 d 4 2 d s 1293 1276 m 3 2 d s 0.49 0.6 0.82 c black
 0.49 0.6 0.82 c
 gsave  408 305 930 1009 C 1051.24 1293.4 t 0 r /Helvetica-Bold findfont 25.6831 sf 0 0 m (1.0 < E < 1.5 GeV) show NC gr  0.52 0.76 0.64 c black 0.52 0.76 0.64 c
 gsave  408 305 930 1009 C 1037 1256.36 t 0 r /Helvetica-Bold findfont 25.6831 sf 0 0 m 
 220 206 192 185 170 163 148 141 126 118 111 97 83 69 61 47 40 25 18
(A = 0.223, p = 1.000) K NC gr  1 0.6 1 c black 1 0.6 1 c
 gsave  408 305 930 1009 C 1336.13 1122.46 t 90 r /Helvetica-Bold findfont 28.5368 sf 0 0 m (/dof=1.2) show NC gr  black 1 0.6 1 c
 gsave  408 305 930 1009 C 1324.73 1111.07 t 90 r /Helvetica-Bold findfont 19.9758 sf 0 0 m (2) show NC gr  black 1 0.6 1 c
 gsave  408 305 930 1009 C 1336.13 1093.97 t 90 r /Symbol findfont 28.5368 sf 0 0 m (c) show NC gr  black 3 lw 1 1 1 c 408 305 1383 1009 bf black 1 1 1 c black 306 229 1445 1055 bl 306 229 1445 1055 bl 1445 1055 m 306 X s 1478 1059 m -4 Y s 1596 1059
 m -4 Y s 1715 1059 m -4 Y s 1478 1059 m -4 Y s 1715 1059 m -4 Y s
 gsave  408 305 1383 1009 C 1455.78 1034.15 t 0 r /Helvetica findfont 22.8295 sf 0 0 m (\2550.1) show NC gr 
 gsave  408 305 1383 1009 C 1586.83 1034.15 t 0 r /Helvetica findfont 22.8295 sf 0 0 m (0) show NC gr 
 gsave  408 305 1383 1009 C 1697.94 1034.15 t 0 r /Helvetica findfont 22.8295 sf 0 0 m (0.1) show NC gr  1445 1284 m 306 X s 1478 1280 m 4 Y s 1596 1280 m 4 Y s 1715 1280 m 4 Y s 1478 1280 m 4 Y s 1715 1280 m 4 Y s 1445 1055 m 229 Y s 1450 1093 m -5
 X s 1447 1102 m -2 X s 1447 1111 m -2 X s 1447 1120 m -2 X s 1447 1129 m -2 X s 1450 1138 m -5 X s 1447 1147 m -2 X s 1447 1156 m -2 X s 1447 1164 m -2 X s 1447 1173 m -2 X s 1450 1182 m -5 X s 1447 1191 m -2 X s 1447 1200 m -2 X s 1447 1209 m -2 X
 s 1447 1218 m -2 X s 1450 1227 m -5 X s 1447 1236 m -2 X s 1447 1245 m -2 X s 1447 1254 m -2 X s 1447 1263 m -2 X s 1450 1272 m -5 X s 1450 1093 m -5 X s 1447 1084 m -2 X s 1447 1075 m -2 X s 1447 1066 m -2 X s 1447 1057 m -2 X s 1450 1272 m -5 X s
 1447 1281 m -2 X s
 gsave  408 305 1383 1009 C 1390.26 1085.43 t 0 r /Helvetica findfont 22.8295 sf 0 0 m (\2550.02) show NC gr 
 gsave  408 305 1383 1009 C 1393.11 1131.01 t 0 r /Helvetica findfont 22.8295 sf 0 0 m (\2550.01) show NC gr 
 gsave  408 305 1383 1009 C 1427.29 1176.59 t 0 r /Helvetica findfont 22.8295 sf 0 0 m (0) show NC gr 
 gsave  408 305 1383 1009 C 1398.81 1219.32 t 0 r /Helvetica findfont 22.8295 sf 0 0 m (0.01) show NC gr 
 gsave  408 305 1383 1009 C 1395.96 1264.91 t 0 r /Helvetica findfont 22.8295 sf 0 0 m (0.02) show NC gr  1751 1055 m 229 Y s 1745 1093 m 6 X s 1748 1102 m 3 X s 1748 1111 m 3 X s 1748 1120 m 3 X s 1748 1129 m 3 X s 1745 1138 m 6 X s 1748 1147 m 3 X
 s 1748 1156 m 3 X s 1748 1164 m 3 X s 1748 1173 m 3 X s 1745 1182 m 6 X s 1748 1191 m 3 X s 1748 1200 m 3 X s 1748 1209 m 3 X s 1748 1218 m 3 X s 1745 1227 m 6 X s 1748 1236 m 3 X s 1748 1245 m 3 X s 1748 1254 m 3 X s 1748 1263 m 3 X s 1745 1272 m 6
 X s 1745 1093 m 6 X s 1748 1084 m 3 X s 1748 1075 m 3 X s 1748 1066 m 3 X s 1748 1057 m 3 X s 1745 1272 m 6 X s 1748 1281 m 3 X s 1470 1079 1512 1120 1554 1146 1575 1159 1617 1192 1639 1202 1681 1226 1723 1259 8 { m21} R 9 lw 0.95 0.95 0.95 c black
 1446 1079 m 3 2 d 3 2 d 3 2 d 3 2 d 3 2 d 3 2 d 3 2 d 4 3 d 3 2 d 3 2 d 3 2 d 3 2 d 3 2 d 3 2 d 3 2 d 3 2 d 3 3 d 3 2 d 3 2 d 3 2 d 3 2 d 3 2 d 3 2 d 4 2 d 3 2 d 3 3 d 3 2 d 3 2 d 3 2 d 3 2 d 3 2 d 3 2 d 3 2 d 3 2 d 3 3 d 3 2 d 3 2 d 3 2 d 3 2 d 4 2
 d 3 2 d 3 2 d 3 2 d 3 3 d 3 2 d 3 2 d 3 2 d 3 2 d 3 2 d s 1596 1182 m 3 2 d 3 2 d 3 2 d 3 3 d 3 2 d 3 2 d 4 2 d 3 2 d 3 2 d 3 2 d 3 2 d 3 2 d 3 3 d 3 2 d 3 2 d 3 2 d 3 2 d 3 2 d 3 2 d 3 2 d 3 3 d 3 2 d 3 2 d 4 2 d 3 2 d 3 2 d 3 2 d 3 2 d 3 2 d 3 3 d
 3 2 d 3 2 d 3 2 d 3 2 d 3 2 d 3 2 d 3 2 d 3 2 d 3 3 d 4 2 d 3 2 d 3 2 d 3 2 d 3 2 d 3 2 d 3 2 d 3 2 d 3 3 d 3 X s 0.49 0.6 0.82 c black 0.49 0.6 0.82 c
 gsave  408 305 1383 1009 C 1504.21 1293.4 t 0 r /Helvetica-Bold findfont 25.6831 sf 0 0 m (1.5 < E < 2.0 GeV) show NC gr  0.52 0.76 0.64 c black 0.52 0.76 0.64 c
 gsave  408 305 1383 1009 C 1489.97 1256.36 t 0 r /Helvetica-Bold findfont 25.6831 sf 0 0 m 
 220 206 192 185 170 163 148 141 125 118 111 97 83 68 61 47 40 25 18
(A = 0.183, p = 1.000) K NC gr  1 0.6 1 c black 1 0.6 1 c
 gsave  408 305 1383 1009 C 1789.1 1122.46 t 90 r /Helvetica-Bold findfont 28.5368 sf 0 0 m (/dof=4.3) show NC gr  black 1 0.6 1 c
 gsave  408 305 1383 1009 C 1777.71 1111.07 t 90 r /Helvetica-Bold findfont 19.9758 sf 0 0 m (2) show NC gr  black 1 0.6 1 c
 gsave  408 305 1383 1009 C 1789.1 1093.97 t 90 r /Symbol findfont 28.5368 sf 0 0 m (c) show NC gr  black 3 lw 1 1 1 c 408 305 1837 1009 bf black 1 1 1 c black 306 229 1898 1055 bl 306 229 1898 1055 bl 1898 1055 m 306 X s 1931 1059 m -4 Y s 2050 1059
 m -4 Y s 2168 1059 m -4 Y s 1931 1059 m -4 Y s 2168 1059 m -4 Y s
 gsave  408 305 1837 1009 C 1908.76 1034.15 t 0 r /Helvetica findfont 22.8295 sf 0 0 m (\2550.1) show NC gr 
 gsave  408 305 1837 1009 C 2039.81 1034.15 t 0 r /Helvetica findfont 22.8295 sf 0 0 m (0) show NC gr 
 gsave  408 305 1837 1009 C 2153.76 1034.15 t 0 r /Helvetica findfont 22.8295 sf 0 0 m (0.1) show NC gr  1898 1284 m 306 X s 1931 1280 m 4 Y s 2050 1280 m 4 Y s 2168 1280 m 4 Y s 1931 1280 m 4 Y s 2168 1280 m 4 Y s 1898 1055 m 229 Y s 1904 1057 m -6
 X s 1901 1062 m -3 X s 1901 1067 m -3 X s 1901 1072 m -3 X s 1901 1077 m -3 X s 1904 1082 m -6 X s 1901 1087 m -3 X s 1901 1092 m -3 X s 1901 1096 m -3 X s 1901 1101 m -3 X s 1904 1106 m -6 X s 1901 1111 m -3 X s 1901 1116 m -3 X s 1901 1121 m -3 X
 s 1901 1126 m -3 X s 1904 1131 m -6 X s 1901 1136 m -3 X s 1901 1141 m -3 X s 1901 1146 m -3 X s 1901 1151 m -3 X s 1904 1156 m -6 X s 1901 1160 m -3 X s 1901 1165 m -3 X s 1901 1170 m -3 X s 1901 1175 m -3 X s 1904 1180 m -6 X s 1901 1185 m -3 X s
 1901 1190 m -3 X s 1901 1195 m -3 X s 1901 1200 m -3 X s 1904 1205 m -6 X s 1901 1210 m -3 X s 1901 1215 m -3 X s 1901 1220 m -3 X s 1901 1224 m -3 X s 1904 1229 m -6 X s 1901 1234 m -3 X s 1901 1239 m -3 X s 1901 1244 m -3 X s 1901 1249 m -3 X s
 1904 1254 m -6 X s 1901 1259 m -3 X s 1901 1264 m -3 X s 1901 1269 m -3 X s 1901 1274 m -3 X s 1904 1279 m -6 X s 1904 1057 m -6 X s 1904 1279 m -6 X s 1901 1284 m -3 X s
 gsave  408 305 1837 1009 C 1828.99 1051.24 t 0 r /Helvetica findfont 22.8295 sf 0 0 m (\2550.025) show NC gr 
 gsave  408 305 1837 1009 C 1843.23 1074.03 t 0 r /Helvetica findfont 22.8295 sf 0 0 m (\2550.02) show NC gr 
 gsave  408 305 1837 1009 C 1828.99 1099.67 t 0 r /Helvetica findfont 22.8295 sf 0 0 m (\2550.015) show NC gr 
 gsave  408 305 1837 1009 C 1846.08 1122.46 t 0 r /Helvetica findfont 22.8295 sf 0 0 m (\2550.01) show NC gr 
 gsave  408 305 1837 1009 C 1828.99 1148.1 t 0 r /Helvetica findfont 22.8295 sf 0 0 m (\2550.005) show NC gr 
 gsave  408 305 1837 1009 C 1880.27 1173.74 t 0 r /Helvetica findfont 22.8295 sf 0 0 m (0) show NC gr 
 gsave  408 305 1837 1009 C 1837.53 1196.53 t 0 r /Helvetica findfont 22.8295 sf 0 0 m (0.005) show NC gr 
 gsave  408 305 1837 1009 C 1851.78 1222.17 t 0 r /Helvetica findfont 22.8295 sf 0 0 m (0.01) show NC gr 
 gsave  408 305 1837 1009 C 1837.53 1247.81 t 0 r /Helvetica findfont 22.8295 sf 0 0 m (0.015) show NC gr 
 gsave  408 305 1837 1009 C 1848.93 1270.6 t 0 r /Helvetica findfont 22.8295 sf 0 0 m (0.02) show NC gr  2204 1055 m 229 Y s 2199 1057 m 5 X s 2201 1062 m 3 X s 2201 1067 m 3 X s 2201 1072 m 3 X s 2201 1077 m 3 X s 2199 1082 m 5 X s 2201 1087 m 3 X s
 2201 1092 m 3 X s 2201 1096 m 3 X s 2201 1101 m 3 X s 2199 1106 m 5 X s 2201 1111 m 3 X s 2201 1116 m 3 X s 2201 1121 m 3 X s 2201 1126 m 3 X s 2199 1131 m 5 X s 2201 1136 m 3 X s 2201 1141 m 3 X s 2201 1146 m 3 X s 2201 1151 m 3 X s 2199 1156 m 5 X
 s 2201 1160 m 3 X s 2201 1165 m 3 X s 2201 1170 m 3 X s 2201 1175 m 3 X s 2199 1180 m 5 X s 2201 1185 m 3 X s 2201 1190 m 3 X s 2201 1195 m 3 X s 2201 1200 m 3 X s 2199 1205 m 5 X s 2201 1210 m 3 X s 2201 1215 m 3 X s 2201 1220 m 3 X s 2201 1224 m 3
 X s 2199 1229 m 5 X s 2201 1234 m 3 X s 2201 1239 m 3 X s 2201 1244 m 3 X s 2201 1249 m 3 X s 2199 1254 m 5 X s 2201 1259 m 3 X s 2201 1264 m 3 X s 2201 1269 m 3 X s 2201 1274 m 3 X s 2199 1279 m 5 X s 2199 1057 m 5 X s 2199 1279 m 5 X s 2201 1284 m
 3 X s 1923 1080 1966 1127 2008 1146 2029 1153 2071 1183 2092 1210 2134 1228 2176 1259 8 { m21} R 9 lw 0.95 0.95 0.95 c black 1900 1078 m 3 2 d 3 2 d 3 2 d 3 2 d 3 2 d 3 2 d 3 2 d 3 2 d 3 2 d 3 2 d 3 3 d 3 2 d 3 2 d 3 2 d 4 2 d 3 2 d 3 2 d 3 2 d 3 2
 d 3 2 d 3 2 d 3 3 d 3 2 d 3 2 d 3 2 d 3 2 d 3 2 d 3 2 d 3 2 d 3 2 d 4 2 d 3 2 d 3 3 d 3 2 d 3 2 d 3 2 d 3 2 d 3 2 d 3 2 d 3 2 d 3 2 d 3 2 d 3 2 d 3 3 d 3 2 d 3 2 d 3 2 d 4 2 d 3 2 d s 2050 1180 m 3 2 d 3 2 d 3 2 d 3 2 d 3 2 d 3 3 d 3 2 d 3 2 d 3 2 d
 3 2 d 3 2 d 3 2 d 3 2 d 3 2 d 4 2 d 3 2 d 3 2 d 3 3 d 3 2 d 3 2 d 3 2 d 3 2 d 3 2 d 3 2 d 3 2 d 3 2 d 3 2 d 3 2 d 3 3 d 3 2 d 4 2 d 3 2 d 3 2 d 3 2 d 3 2 d 3 2 d 3 2 d 3 2 d 3 2 d 3 3 d 3 2 d 3 2 d 3 2 d 3 2 d 3 2 d 3 2 d 4 2 d 3 2 d 3 2 d s 0.49
 0.6 0.82 c black 0.49 0.6 0.82 c
 gsave  408 305 1837 1009 C 1957.19 1293.4 t 0 r /Helvetica-Bold findfont 25.6831 sf 0 0 m (2.0 < E < 2.5 GeV) show NC gr  0.52 0.76 0.64 c black 0.52 0.76 0.64 c
 gsave  408 305 1837 1009 C 1942.94 1256.36 t 0 r /Helvetica-Bold findfont 25.6831 sf 0 0 m 
 220 206 192 185 170 163 148 141 126 118 111 97 83 69 61 47 40 25 18
(A = 0.164, p = 1.000) K NC gr  1 0.6 1 c black 1 0.6 1 c
 gsave  408 305 1837 1009 C 2242.08 1122.46 t 90 r /Helvetica-Bold findfont 28.5368 sf 0 0 m (/dof=2.8) show NC gr  black 1 0.6 1 c
 gsave  408 305 1837 1009 C 2230.68 1111.07 t 90 r /Helvetica-Bold findfont 19.9758 sf 0 0 m (2) show NC gr  black 1 0.6 1 c
 gsave  408 305 1837 1009 C 2242.08 1093.97 t 90 r /Symbol findfont 28.5368 sf 0 0 m (c) show NC gr  black 3 lw 1 1 1 c 408 305 23 677 bf black 1 1 1 c black 306 229 84 723 bl 306 229 84 723 bl 84 723 m 306 X s 117 727 m -4 Y s 236 727 m -4 Y s 354
 727 m -4 Y s 117 727 m -4 Y s 354 727 m -4 Y s
 gsave  408 305 23 677 C 96.8623 703.676 t 0 r /Helvetica findfont 22.8295 sf 0 0 m (\2550.1) show NC gr 
 gsave  408 305 23 677 C 225.062 703.676 t 0 r /Helvetica findfont 22.8295 sf 0 0 m (0) show NC gr 
 gsave  408 305 23 677 C 339.018 703.676 t 0 r /Helvetica findfont 22.8295 sf 0 0 m (0.1) show NC gr  84 952 m 306 X s 117 948 m 4 Y s 236 948 m 4 Y s 354 948 m 4 Y s 117 948 m 4 Y s 354 948 m 4 Y s 84 723 m 229 Y s 89 744 m -5 X s 87 749 m -3 X s 87
 754 m -3 X s 87 759 m -3 X s 87 764 m -3 X s 89 769 m -5 X s 87 775 m -3 X s 87 780 m -3 X s 87 785 m -3 X s 87 790 m -3 X s 89 795 m -5 X s 87 800 m -3 X s 87 805 m -3 X s 87 810 m -3 X s 87 815 m -3 X s 89 820 m -5 X s 87 825 m -3 X s 87 830 m -3
 X s 87 835 m -3 X s 87 840 m -3 X s 89 845 m -5 X s 87 850 m -3 X s 87 855 m -3 X s 87 860 m -3 X s 87 865 m -3 X s 89 871 m -5 X s 87 876 m -3 X s 87 881 m -3 X s 87 886 m -3 X s 87 891 m -3 X s 89 896 m -5 X s 87 901 m -3 X s 87 906 m -3 X s 87
 911 m -3 X s 87 916 m -3 X s 89 921 m -5 X s 87 926 m -3 X s 87 931 m -3 X s 87 936 m -3 X s 87 941 m -3 X s 89 946 m -5 X s 89 744 m -5 X s 87 739 m -3 X s 87 734 m -3 X s 87 729 m -3 X s 87 724 m -3 X s 89 946 m -5 X s 87 951 m -3 X s
 gsave  408 305 23 677 C 28.4889 737.863 t 0 r /Helvetica findfont 22.8295 sf 0 0 m (\2550.02) show NC gr 
 gsave  408 305 23 677 C 14.2445 763.503 t 0 r /Helvetica findfont 22.8295 sf 0 0 m (\2550.015) show NC gr 
 gsave  408 305 23 677 C 31.3378 786.294 t 0 r /Helvetica findfont 22.8295 sf 0 0 m (\2550.01) show NC gr 
 gsave  408 305 23 677 C 14.2445 811.934 t 0 r /Helvetica findfont 22.8295 sf 0 0 m (\2550.005) show NC gr 
 gsave  408 305 23 677 C 65.5245 837.574 t 0 r /Helvetica findfont 22.8295 sf 0 0 m (0) show NC gr 
 gsave  408 305 23 677 C 22.7911 863.214 t 0 r /Helvetica findfont 22.8295 sf 0 0 m (0.005) show NC gr 
 gsave  408 305 23 677 C 37.0356 888.854 t 0 r /Helvetica findfont 22.8295 sf 0 0 m (0.01) show NC gr 
 gsave  408 305 23 677 C 22.7911 914.494 t 0 r /Helvetica findfont 22.8295 sf 0 0 m (0.015) show NC gr 
 gsave  408 305 23 677 C 34.1867 940.134 t 0 r /Helvetica findfont 22.8295 sf 0 0 m (0.02) show NC gr  390 723 m 229 Y s 385 744 m 5 X s 387 749 m 3 X s 387 754 m 3 X s 387 759 m 3 X s 387 764 m 3 X s 385 769 m 5 X s 387 775 m 3 X s 387 780 m 3 X s
 387 785 m 3 X s 387 790 m 3 X s 385 795 m 5 X s 387 800 m 3 X s 387 805 m 3 X s 387 810 m 3 X s 387 815 m 3 X s 385 820 m 5 X s 387 825 m 3 X s 387 830 m 3 X s 387 835 m 3 X s 387 840 m 3 X s 385 845 m 5 X s 387 850 m 3 X s 387 855 m 3 X s 387 860 m
 3 X s 387 865 m 3 X s 385 871 m 5 X s 387 876 m 3 X s 387 881 m 3 X s 387 886 m 3 X s 387 891 m 3 X s 385 896 m 5 X s 387 901 m 3 X s 387 906 m 3 X s 387 911 m 3 X s 387 916 m 3 X s 385 921 m 5 X s 387 926 m 3 X s 387 931 m 3 X s 387 936 m 3 X s 387
 941 m 3 X s 385 946 m 5 X s 385 744 m 5 X s 387 739 m 3 X s 387 734 m 3 X s 387 729 m 3 X s 387 724 m 3 X s 385 946 m 5 X s 387 951 m 3 X s /w 22 def /w2 {w 2 div} def /w3 {w 3 div} def 109 748 151 780 194 811 215 838 257 859 278 863 320 897 362 926
 8 { m21} R 9 lw 0.95 0.95 0.95 c black 85 741 m 3 2 d 4 2 d 3 3 d 3 2 d 3 2 d 3 2 d 3 2 d 3 2 d 3 2 d 3 2 d 3 3 d 3 2 d 3 2 d 3 2 d 3 2 d 3 2 d 3 2 d 4 2 d 3 2 d 3 3 d 3 2 d 3 2 d 3 2 d 3 2 d 3 2 d 3 2 d 3 2 d 3 3 d 3 2 d 3 2 d 3 2 d 3 2 d 3 2 d 4 2
 d 3 2 d 3 3 d 3 2 d 3 2 d 3 2 d 3 2 d 3 2 d 3 2 d 3 2 d 3 2 d 3 3 d 3 2 d 3 2 d 3 2 d 3 2 d s 235 845 m 4 2 d 3 2 d 3 2 d 3 3 d 3 2 d 3 2 d 3 2 d 3 2 d 3 2 d 3 2 d 3 2 d 3 3 d 3 2 d 3 2 d 3 2 d 3 2 d 3 2 d 4 2 d 3 2 d 3 2 d 3 3 d 3 2 d 3 2 d 3 2 d 3
 2 d 3 2 d 3 2 d 3 2 d 3 3 d 3 2 d 3 2 d 3 2 d 3 2 d 4 2 d 3 2 d 3 2 d 3 3 d 3 2 d 3 2 d 3 2 d 3 2 d 3 2 d 3 2 d 3 2 d 3 2 d 3 3 d 3 2 d 3 2 d 3 2 d s 385 949 m 4 2 d s 0.49 0.6 0.82 c black 0.49 0.6 0.82 c
 gsave  408 305 23 677 C 142.445 960.076 t 0 r /Helvetica-Bold findfont 25.6831 sf 0 0 m (2.5 < E < 3.0 GeV) show NC gr  0.52 0.76 0.64 c black 0.52 0.76 0.64 c
 gsave  408 305 23 677 C 128.2 923.04 t 0 r /Helvetica-Bold findfont 25.6831 sf 0 0 m 
 220 206 192 185 170 163 148 141 126 118 111 97 83 69 61 47 40 25 18
(A = 0.162, p = 1.000) K NC gr  1 0.6 1 c black 1 0.6 1 c
 gsave  408 305 23 677 C 427.334 791.991 t 90 r /Helvetica-Bold findfont 28.5368 sf 0 0 m (/dof=1.5) show NC gr  black 1 0.6 1 c
 gsave  408 305 23 677 C 415.938 780.596 t 90 r /Helvetica-Bold findfont 19.9758 sf 0 0 m (2) show NC gr  black 1 0.6 1 c
 gsave  408 305 23 677 C 427.334 763.503 t 90 r /Symbol findfont 28.5368 sf 0 0 m (c) show NC gr  black 3 lw 1 1 1 c 408 305 476 677 bf black 1 1 1 c black 307 229 537 723 bl 307 229 537 723 bl 537 723 m 307 X s 571 727 m -4 Y s 689 727 m -4 Y s 808
 727 m -4 Y s 571 727 m -4 Y s 808 727 m -4 Y s
 gsave  408 305 476 677 C 549.836 703.676 t 0 r /Helvetica findfont 22.8295 sf 0 0 m (\2550.1) show NC gr 
 gsave  408 305 476 677 C 678.036 703.676 t 0 r /Helvetica findfont 22.8295 sf 0 0 m (0) show NC gr 
 gsave  408 305 476 677 C 791.991 703.676 t 0 r /Helvetica findfont 22.8295 sf 0 0 m (0.1) show NC gr  537 952 m 307 X s 571 948 m 4 Y s 689 948 m 4 Y s 808 948 m 4 Y s 571 948 m 4 Y s 808 948 m 4 Y s 537 723 m 229 Y s 543 755 m -6 X s 540 764 m -3 X
 s 540 773 m -3 X s 540 782 m -3 X s 540 791 m -3 X s 543 800 m -6 X s 540 809 m -3 X s 540 818 m -3 X s 540 827 m -3 X s 540 836 m -3 X s 543 845 m -6 X s 540 854 m -3 X s 540 863 m -3 X s 540 872 m -3 X s 540 880 m -3 X s 543 889 m -6 X s 540 898 m
 -3 X s 540 907 m -3 X s 540 916 m -3 X s 540 925 m -3 X s 543 934 m -6 X s 543 755 m -6 X s 540 746 m -3 X s 540 737 m -3 X s 540 728 m -3 X s 543 934 m -6 X s 540 943 m -3 X s
 gsave  408 305 476 677 C 481.462 746.409 t 0 r /Helvetica findfont 22.8295 sf 0 0 m (\2550.02) show NC gr 
 gsave  408 305 476 677 C 484.311 791.991 t 0 r /Helvetica findfont 22.8295 sf 0 0 m (\2550.01) show NC gr 
 gsave  408 305 476 677 C 518.498 837.574 t 0 r /Helvetica findfont 22.8295 sf 0 0 m (0) show NC gr 
 gsave  408 305 476 677 C 490.009 883.156 t 0 r /Helvetica findfont 22.8295 sf 0 0 m (0.01) show NC gr 
 gsave  408 305 476 677 C 487.16 925.889 t 0 r /Helvetica findfont 22.8295 sf 0 0 m (0.02) show NC gr  844 723 m 229 Y s 838 755 m 6 X s 841 764 m 3 X s 841 773 m 3 X s 841 782 m 3 X s 841 791 m 3 X s 838 800 m 6 X s 841 809 m 3 X s 841 818 m 3 X s
 841 827 m 3 X s 841 836 m 3 X s 838 845 m 6 X s 841 854 m 3 X s 841 863 m 3 X s 841 872 m 3 X s 841 880 m 3 X s 838 889 m 6 X s 841 898 m 3 X s 841 907 m 3 X s 841 916 m 3 X s 841 925 m 3 X s 838 934 m 6 X s 838 755 m 6 X s 841 746 m 3 X s 841 737 m
 3 X s 841 728 m 3 X s 838 934 m 6 X s 841 943 m 3 X s /w 23 def /w2 {w 2 div} def /w3 {w 3 div} def 563 748 605 778 647 819 668 827 710 857 731 865 774 905 816 926 8 { m21} R 9 lw 0.95 0.95 0.95 c black 539 738 m 3 2 d 3 2 d 3 3 d 3 2 d 3 2 d 3 2 d
 3 2 d 3 2 d 4 3 d 3 2 d 3 2 d 3 2 d 3 2 d 3 2 d 3 3 d 3 2 d 3 2 d 3 2 d 3 2 d 3 2 d 3 3 d 3 2 d 3 2 d 3 2 d 4 2 d 3 2 d 3 3 d 3 2 d 3 2 d 3 2 d 3 2 d 3 3 d 3 2 d 3 2 d 3 2 d 3 2 d 3 2 d 3 3 d 3 2 d 3 2 d 3 2 d 4 2 d 3 2 d 3 3 d 3 2 d 3 2 d 3 2 d 3 2
 d 3 2 d s 689 844 m 3 3 d 3 2 d 3 2 d 3 2 d 3 2 d 3 2 d 3 3 d 3 2 d 4 2 d 3 2 d 3 2 d 3 2 d 3 3 d 3 2 d 3 2 d 3 2 d 3 2 d 3 2 d 3 3 d 3 2 d 3 2 d 3 2 d 3 2 d 3 2 d 4 3 d 3 2 d 3 2 d 3 2 d 3 2 d 3 2 d 3 3 d 3 2 d 3 2 d 3 2 d 3 2 d 3 3 d 3 2 d 3 2 d 3
 2 d 3 2 d 4 2 d 3 3 d 3 2 d 3 2 d 3 2 d 3 2 d 3 2 d 3 3 d 3 2 d s 0.49 0.6 0.82 c black 0.49 0.6 0.82 c
 gsave  408 305 476 677 C 595.418 960.076 t 0 r /Helvetica-Bold findfont 25.6831 sf 0 0 m (3.0 < E < 3.5 GeV) show NC gr  0.52 0.76 0.64 c black 0.52 0.76 0.64 c
 gsave  408 305 476 677 C 581.174 923.04 t 0 r /Helvetica-Bold findfont 25.6831 sf 0 0 m 
 220 206 192 185 170 163 148 141 125 118 111 97 83 69 61 47 40 25 18
(A = 0.187, p = 1.000) K NC gr  1 0.6 1 c black 1 0.6 1 c
 gsave  408 305 476 677 C 883.156 791.991 t 90 r /Helvetica-Bold findfont 28.5368 sf 0 0 m (/dof=1.0) show NC gr  black 1 0.6 1 c
 gsave  408 305 476 677 C 871.76 780.596 t 90 r /Helvetica-Bold findfont 19.9758 sf 0 0 m (2) show NC gr  black 1 0.6 1 c
 gsave  408 305 476 677 C 883.156 763.503 t 90 r /Symbol findfont 28.5368 sf 0 0 m (c) show NC gr  black 3 lw 1 1 1 c 408 305 930 677 bf black 1 1 1 c black 306 229 991 723 bl 306 229 991 723 bl 991 723 m 306 X s 1024 727 m -4 Y s 1143 727 m -4 Y s
 1261 727 m -4 Y s 1024 727 m -4 Y s 1261 727 m -4 Y s
 gsave  408 305 930 677 C 1002.81 703.676 t 0 r /Helvetica findfont 22.8295 sf 0 0 m (\2550.1) show NC gr 
 gsave  408 305 930 677 C 1133.86 703.676 t 0 r /Helvetica findfont 22.8295 sf 0 0 m (0) show NC gr 
 gsave  408 305 930 677 C 1244.96 703.676 t 0 r /Helvetica findfont 22.8295 sf 0 0 m (0.1) show NC gr  991 952 m 306 X s 1024 948 m 4 Y s 1143 948 m 4 Y s 1261 948 m 4 Y s 1024 948 m 4 Y s 1261 948 m 4 Y s 991 723 m 229 Y s 997 741 m -6 X s 994 746 m
 -3 X s 994 751 m -3 X s 994 756 m -3 X s 994 761 m -3 X s 997 766 m -6 X s 994 772 m -3 X s 994 777 m -3 X s 994 782 m -3 X s 994 787 m -3 X s 997 792 m -6 X s 994 797 m -3 X s 994 802 m -3 X s 994 807 m -3 X s 994 812 m -3 X s 997 818 m -6 X s 994
 823 m -3 X s 994 828 m -3 X s 994 833 m -3 X s 994 838 m -3 X s 997 843 m -6 X s 994 848 m -3 X s 994 853 m -3 X s 994 858 m -3 X s 994 864 m -3 X s 997 869 m -6 X s 994 874 m -3 X s 994 879 m -3 X s 994 884 m -3 X s 994 889 m -3 X s 997 894 m -6 X
 s 994 899 m -3 X s 994 905 m -3 X s 994 910 m -3 X s 994 915 m -3 X s 997 920 m -6 X s 994 925 m -3 X s 994 930 m -3 X s 994 935 m -3 X s 994 940 m -3 X s 997 945 m -6 X s 997 741 m -6 X s 994 736 m -3 X s 994 731 m -3 X s 994 726 m -3 X s 997 945 m
 -6 X s 994 951 m -3 X s
 gsave  408 305 930 677 C 937.285 735.014 t 0 r /Helvetica findfont 22.8295 sf 0 0 m (\2550.02) show NC gr 
 gsave  408 305 930 677 C 923.04 760.654 t 0 r /Helvetica findfont 22.8295 sf 0 0 m (\2550.015) show NC gr 
 gsave  408 305 930 677 C 940.134 786.294 t 0 r /Helvetica findfont 22.8295 sf 0 0 m (\2550.01) show NC gr 
 gsave  408 305 930 677 C 923.04 809.085 t 0 r /Helvetica findfont 22.8295 sf 0 0 m (\2550.005) show NC gr 
 gsave  408 305 930 677 C 974.32 834.725 t 0 r /Helvetica findfont 22.8295 sf 0 0 m (0) show NC gr 
 gsave  408 305 930 677 C 931.587 860.365 t 0 r /Helvetica findfont 22.8295 sf 0 0 m (0.005) show NC gr 
 gsave  408 305 930 677 C 945.832 886.005 t 0 r /Helvetica findfont 22.8295 sf 0 0 m (0.01) show NC gr 
 gsave  408 305 930 677 C 931.587 911.645 t 0 r /Helvetica findfont 22.8295 sf 0 0 m (0.015) show NC gr 
 gsave  408 305 930 677 C 942.983 937.285 t 0 r /Helvetica findfont 22.8295 sf 0 0 m (0.02) show NC gr  1297 723 m 229 Y s 1292 741 m 5 X s 1294 746 m 3 X s 1294 751 m 3 X s 1294 756 m 3 X s 1294 761 m 3 X s 1292 766 m 5 X s 1294 772 m 3 X s 1294 777
 m 3 X s 1294 782 m 3 X s 1294 787 m 3 X s 1292 792 m 5 X s 1294 797 m 3 X s 1294 802 m 3 X s 1294 807 m 3 X s 1294 812 m 3 X s 1292 818 m 5 X s 1294 823 m 3 X s 1294 828 m 3 X s 1294 833 m 3 X s 1294 838 m 3 X s 1292 843 m 5 X s 1294 848 m 3 X s
 1294 853 m 3 X s 1294 858 m 3 X s 1294 864 m 3 X s 1292 869 m 5 X s 1294 874 m 3 X s 1294 879 m 3 X s 1294 884 m 3 X s 1294 889 m 3 X s 1292 894 m 5 X s 1294 899 m 3 X s 1294 905 m 3 X s 1294 910 m 3 X s 1294 915 m 3 X s 1292 920 m 5 X s 1294 925 m
 3 X s 1294 930 m 3 X s 1294 935 m 3 X s 1294 940 m 3 X s 1292 945 m 5 X s 1292 741 m 5 X s 1294 736 m 3 X s 1294 731 m 3 X s 1294 726 m 3 X s 1292 945 m 5 X s 1294 951 m 3 X s 1016 750 1058 780 1101 816 1122 816 1164 850 1185 867 1227 906 1269 924 8
 { m21} R 9 lw 0.95 0.95 0.95 c black 993 738 m 3 2 d 3 2 d 3 2 d 3 2 d 3 3 d 3 2 d 3 2 d 3 2 d 3 2 d 3 2 d 3 2 d 3 3 d 3 2 d 3 2 d 3 2 d 4 2 d 3 2 d 3 2 d 3 3 d 3 2 d 3 2 d 3 2 d 3 2 d 3 2 d 3 2 d 3 3 d 3 2 d 3 2 d 3 2 d 3 2 d 3 2 d 3 2 d 4 3 d 3 2
 d 3 2 d 3 2 d 3 2 d 3 2 d 3 3 d 3 2 d 3 2 d 3 2 d 3 2 d 3 2 d 3 2 d 3 3 d 3 2 d 3 2 d 4 2 d s 1143 843 m 3 2 d 3 2 d 3 2 d 3 3 d 3 2 d 3 2 d 3 2 d 3 2 d 3 2 d 3 2 d 3 3 d 3 2 d 3 2 d 3 2 d 3 2 d 4 2 d 3 2 d 3 3 d 3 2 d 3 2 d 3 2 d 3 2 d 3 2 d 3 2 d
 3 3 d 3 2 d 3 2 d 3 2 d 3 2 d 3 2 d 3 3 d 3 2 d 4 2 d 3 2 d 3 2 d 3 2 d 3 2 d 3 3 d 3 2 d 3 2 d 3 2 d 3 2 d 3 2 d 3 2 d 3 3 d 3 2 d 3 2 d 3 2 d 4 2 d s 1293 948 m 3 2 d s 0.49 0.6 0.82 c black 0.49 0.6 0.82 c
 gsave  408 305 930 677 C 1051.24 960.076 t 0 r /Helvetica-Bold findfont 25.6831 sf 0 0 m (3.5 < E < 4.0 GeV) show NC gr  0.52 0.76 0.64 c black 0.52 0.76 0.64 c
 gsave  408 305 930 677 C 1037 923.04 t 0 r /Helvetica-Bold findfont 25.6831 sf 0 0 m 
 220 206 192 185 170 163 148 141 126 118 111 97 83 69 61 47 40 25 18
(A = 0.162, p = 1.000) K NC gr  1 0.6 1 c black 1 0.6 1 c
 gsave  408 305 930 677 C 1336.13 791.991 t 90 r /Helvetica-Bold findfont 28.5368 sf 0 0 m (/dof=0.7) show NC gr  black 1 0.6 1 c
 gsave  408 305 930 677 C 1324.73 780.596 t 90 r /Helvetica-Bold findfont 19.9758 sf 0 0 m (2) show NC gr  black 1 0.6 1 c
 gsave  408 305 930 677 C 1336.13 763.503 t 90 r /Symbol findfont 28.5368 sf 0 0 m (c) show NC gr  black 3 lw 1 1 1 c 408 305 1383 677 bf black 1 1 1 c black 306 229 1445 723 bl 306 229 1445 723 bl 1445 723 m 306 X s 1478 727 m -4 Y s 1596 727 m -4 Y
 s 1715 727 m -4 Y s 1478 727 m -4 Y s 1715 727 m -4 Y s
 gsave  408 305 1383 677 C 1455.78 703.676 t 0 r /Helvetica findfont 22.8295 sf 0 0 m (\2550.1) show NC gr 
 gsave  408 305 1383 677 C 1586.83 703.676 t 0 r /Helvetica findfont 22.8295 sf 0 0 m (0) show NC gr 
 gsave  408 305 1383 677 C 1697.94 703.676 t 0 r /Helvetica findfont 22.8295 sf 0 0 m (0.1) show NC gr  1445 952 m 306 X s 1478 948 m 4 Y s 1596 948 m 4 Y s 1715 948 m 4 Y s 1478 948 m 4 Y s 1715 948 m 4 Y s 1445 723 m 229 Y s 1450 736 m -5 X s 1447
 743 m -2 X s 1447 750 m -2 X s 1447 757 m -2 X s 1447 764 m -2 X s 1450 772 m -5 X s 1447 779 m -2 X s 1447 786 m -2 X s 1447 793 m -2 X s 1447 800 m -2 X s 1450 807 m -5 X s 1447 814 m -2 X s 1447 821 m -2 X s 1447 828 m -2 X s 1447 836 m -2 X s
 1450 843 m -5 X s 1447 850 m -2 X s 1447 857 m -2 X s 1447 864 m -2 X s 1447 871 m -2 X s 1450 878 m -5 X s 1447 885 m -2 X s 1447 892 m -2 X s 1447 900 m -2 X s 1447 907 m -2 X s 1450 914 m -5 X s 1447 921 m -2 X s 1447 928 m -2 X s 1447 935 m -2 X
 s 1447 942 m -2 X s 1450 949 m -5 X s 1450 736 m -5 X s 1447 729 m -2 X s 1450 949 m -5 X s
 gsave  408 305 1383 677 C 1376.01 729.316 t 0 r /Helvetica findfont 22.8295 sf 0 0 m (\2550.015) show NC gr 
 gsave  408 305 1383 677 C 1393.11 763.503 t 0 r /Helvetica findfont 22.8295 sf 0 0 m (\2550.01) show NC gr 
 gsave  408 305 1383 677 C 1376.01 800.538 t 0 r /Helvetica findfont 22.8295 sf 0 0 m (\2550.005) show NC gr 
 gsave  408 305 1383 677 C 1427.29 834.725 t 0 r /Helvetica findfont 22.8295 sf 0 0 m (0) show NC gr 
 gsave  408 305 1383 677 C 1384.56 871.76 t 0 r /Helvetica findfont 22.8295 sf 0 0 m (0.005) show NC gr 
 gsave  408 305 1383 677 C 1398.81 905.947 t 0 r /Helvetica findfont 22.8295 sf 0 0 m (0.01) show NC gr 
 gsave  408 305 1383 677 C 1384.56 942.983 t 0 r /Helvetica findfont 22.8295 sf 0 0 m (0.015) show NC gr  1751 723 m 229 Y s 1745 736 m 6 X s 1748 743 m 3 X s 1748 750 m 3 X s 1748 757 m 3 X s 1748 764 m 3 X s 1745 772 m 6 X s 1748 779 m 3 X s 1748
 786 m 3 X s 1748 793 m 3 X s 1748 800 m 3 X s 1745 807 m 6 X s 1748 814 m 3 X s 1748 821 m 3 X s 1748 828 m 3 X s 1748 836 m 3 X s 1745 843 m 6 X s 1748 850 m 3 X s 1748 857 m 3 X s 1748 864 m 3 X s 1748 871 m 3 X s 1745 878 m 6 X s 1748 885 m 3 X s
 1748 892 m 3 X s 1748 900 m 3 X s 1748 907 m 3 X s 1745 914 m 6 X s 1748 921 m 3 X s 1748 928 m 3 X s 1748 935 m 3 X s 1748 942 m 3 X s 1745 949 m 6 X s 1745 736 m 6 X s 1748 729 m 3 X s 1745 949 m 6 X s 1470 756 1512 757 1554 799 1575 811 1617 848
 1639 873 1681 901 1723 918 8 { m21} R 1470 768 m 3 Y s 1464 771 m 12 X s 1470 745 m -3 Y s 1464 742 m 12 X s 1512 768 m 3 Y s 1506 771 m 12 X s 1512 745 m -3 Y s 1506 742 m 12 X s 1554 810 m 4 Y s 1548 814 m 12 X s 1554 788 m -3 Y s 1548 785 m 12 X
 s 1575 823 m 3 Y s 1570 826 m 11 X s 1575 800 m -3 Y s 1570 797 m 11 X s 1617 859 m 4 Y s 1612 863 m 11 X s 1617 837 m -4 Y s 1612 833 m 11 X s 1639 884 m 4 Y s 1633 888 m 11 X s 1639 862 m -4 Y s 1633 858 m 11 X s 1681 912 m 4 Y s 1675 916 m 11 X s
 1681 890 m -4 Y s 1675 886 m 11 X s 1723 929 m 4 Y s 1717 933 m 12 X s 1723 907 m -4 Y s 1717 903 m 12 X s 9 lw 0.95 0.95 0.95 c black 1446 734 m 3 2 d 3 3 d 3 2 d 3 2 d 3 2 d 3 2 d 3 3 d 4 2 d 3 2 d 3 2 d 3 3 d 3 2 d 3 2 d 3 2 d 3 2 d 3 3 d 3 2 d 3
 2 d 3 2 d 3 2 d 3 3 d 3 2 d 3 2 d 4 2 d 3 2 d 3 3 d 3 2 d 3 2 d 3 2 d 3 3 d 3 2 d 3 2 d 3 2 d 3 2 d 3 3 d 3 2 d 3 2 d 3 2 d 3 2 d 4 3 d 3 2 d 3 2 d 3 2 d 3 2 d 3 3 d 3 2 d 3 2 d 3 2 d 3 2 d s 1596 842 m 3 3 d 3 2 d 3 2 d 3 2 d 3 3 d 3 2 d 4 2 d 3 2
 d 3 2 d 3 3 d 3 2 d 3 2 d 3 2 d 3 2 d 3 3 d 3 2 d 3 2 d 3 2 d 3 2 d 3 3 d 3 2 d 3 2 d 3 2 d 4 3 d 3 2 d 3 2 d 3 2 d 3 2 d 3 3 d 3 2 d 3 2 d 3 2 d 3 2 d 3 3 d 3 2 d 3 2 d 3 2 d 3 2 d 3 3 d 4 2 d 3 2 d 3 2 d 3 3 d 3 2 d 3 2 d 3 2 d 3 2 d 3 3 d 3 2 d s
 0.49 0.6 0.82 c black 0.49 0.6 0.82 c
 gsave  408 305 1383 677 C 1504.21 960.076 t 0 r /Helvetica-Bold findfont 25.6831 sf 0 0 m (4.0 < E < 4.5 GeV) show NC gr  0.52 0.76 0.64 c black 0.52 0.76 0.64 c
 gsave  408 305 1383 677 C 1489.97 923.04 t 0 r /Helvetica-Bold findfont 25.6831 sf 0 0 m 
 220 206 192 185 170 163 148 141 125 118 111 97 83 68 61 47 40 25 18
(A = 0.120, p = 1.000) K NC gr  1 0.6 1 c black 1 0.6 1 c
 gsave  408 305 1383 677 C 1789.1 791.991 t 90 r /Helvetica-Bold findfont 28.5368 sf 0 0 m (/dof=1.0) show NC gr  black 1 0.6 1 c
 gsave  408 305 1383 677 C 1777.71 780.596 t 90 r /Helvetica-Bold findfont 19.9758 sf 0 0 m (2) show NC gr  black 1 0.6 1 c
 gsave  408 305 1383 677 C 1789.1 763.503 t 90 r /Symbol findfont 28.5368 sf 0 0 m (c) show NC gr  black 3 lw 1 1 1 c 408 305 1837 677 bf black 1 1 1 c black 306 229 1898 723 bl 306 229 1898 723 bl 1898 723 m 306 X s 1931 727 m -4 Y s 2050 727 m -4 Y
 s 2168 727 m -4 Y s 1931 727 m -4 Y s 2168 727 m -4 Y s
 gsave  408 305 1837 677 C 1908.76 703.676 t 0 r /Helvetica findfont 22.8295 sf 0 0 m (\2550.1) show NC gr 
 gsave  408 305 1837 677 C 2039.81 703.676 t 0 r /Helvetica findfont 22.8295 sf 0 0 m (0) show NC gr 
 gsave  408 305 1837 677 C 2153.76 703.676 t 0 r /Helvetica findfont 22.8295 sf 0 0 m (0.1) show NC gr  1898 952 m 306 X s 1931 948 m 4 Y s 2050 948 m 4 Y s 2168 948 m 4 Y s 1931 948 m 4 Y s 2168 948 m 4 Y s 1898 723 m 229 Y s 1904 728 m -6 X s 1901
 735 m -3 X s 1901 741 m -3 X s 1901 747 m -3 X s 1904 753 m -6 X s 1901 759 m -3 X s 1901 766 m -3 X s 1901 772 m -3 X s 1904 778 m -6 X s 1901 784 m -3 X s 1901 790 m -3 X s 1901 797 m -3 X s 1904 803 m -6 X s 1901 809 m -3 X s 1901 815 m -3 X s
 1901 821 m -3 X s 1904 827 m -6 X s 1901 834 m -3 X s 1901 840 m -3 X s 1901 846 m -3 X s 1904 852 m -6 X s 1901 858 m -3 X s 1901 865 m -3 X s 1901 871 m -3 X s 1904 877 m -6 X s 1901 883 m -3 X s 1901 889 m -3 X s 1901 896 m -3 X s 1904 902 m -6 X
 s 1901 908 m -3 X s 1901 914 m -3 X s 1901 920 m -3 X s 1904 927 m -6 X s 1901 933 m -3 X s 1901 939 m -3 X s 1901 945 m -3 X s 1904 951 m -6 X s 1904 728 m -6 X s 1904 951 m -6 X s
 gsave  408 305 1837 677 C 1828.99 720.769 t 0 r /Helvetica findfont 22.8295 sf 0 0 m (\2550.008) show NC gr 
 gsave  408 305 1837 677 C 1828.99 746.409 t 0 r /Helvetica findfont 22.8295 sf 0 0 m (\2550.006) show NC gr 
 gsave  408 305 1837 677 C 1828.99 772.049 t 0 r /Helvetica findfont 22.8295 sf 0 0 m (\2550.004) show NC gr 
 gsave  408 305 1837 677 C 1828.99 794.84 t 0 r /Helvetica findfont 22.8295 sf 0 0 m (\2550.002) show NC gr 
 gsave  408 305 1837 677 C 1880.27 820.48 t 0 r /Helvetica findfont 22.8295 sf 0 0 m (0) show NC gr 
 gsave  408 305 1837 677 C 1837.53 846.12 t 0 r /Helvetica findfont 22.8295 sf 0 0 m (0.002) show NC gr 
 gsave  408 305 1837 677 C 1837.53 868.911 t 0 r /Helvetica findfont 22.8295 sf 0 0 m (0.004) show NC gr 
 gsave  408 305 1837 677 C 1837.53 894.552 t 0 r /Helvetica findfont 22.8295 sf 0 0 m (0.006) show NC gr 
 gsave  408 305 1837 677 C 1837.53 920.192 t 0 r /Helvetica findfont 22.8295 sf 0 0 m (0.008) show NC gr 
 gsave  408 305 1837 677 C 1851.78 942.983 t 0 r /Helvetica findfont 22.8295 sf 0 0 m (0.01) show NC gr  2204 723 m 229 Y s 2199 728 m 5 X s 2201 735 m 3 X s 2201 741 m 3 X s 2201 747 m 3 X s 2199 753 m 5 X s 2201 759 m 3 X s 2201 766 m 3 X s 2201
 772 m 3 X s 2199 778 m 5 X s 2201 784 m 3 X s 2201 790 m 3 X s 2201 797 m 3 X s 2199 803 m 5 X s 2201 809 m 3 X s 2201 815 m 3 X s 2201 821 m 3 X s 2199 827 m 5 X s 2201 834 m 3 X s 2201 840 m 3 X s 2201 846 m 3 X s 2199 852 m 5 X s 2201 858 m 3 X s
 2201 865 m 3 X s 2201 871 m 3 X s 2199 877 m 5 X s 2201 883 m 3 X s 2201 889 m 3 X s 2201 896 m 3 X s 2199 902 m 5 X s 2201 908 m 3 X s 2201 914 m 3 X s 2201 920 m 3 X s 2199 927 m 5 X s 2201 933 m 3 X s 2201 939 m 3 X s 2201 945 m 3 X s 2199 951 m
 5 X s 2199 728 m 5 X s 2199 951 m 5 X s 1923 775 1966 818 2008 818 2029 845 2071 837 2092 847 2134 899 2176 883 8 { m21} R 1923 787 m 22 Y s 1918 809 m 11 X s 1923 764 m -22 Y s 1918 742 m 11 X s 1966 830 m 22 Y s 1960 852 m 11 X s 1966 807 m -22 Y
 s 1960 785 m 11 X s 2008 830 m 22 Y s 2002 852 m 11 X s 2008 807 m -22 Y s 2002 785 m 11 X s 2029 856 m 22 Y s 2023 878 m 11 X s 2029 833 m -22 Y s 2023 811 m 11 X s 2071 848 m 22 Y s 2065 870 m 12 X s 2071 825 m -22 Y s 2065 803 m 12 X s 2092 859 m
 22 Y s 2086 881 m 12 X s 2092 836 m -22 Y s 2086 814 m 12 X s 2134 910 m 23 Y s 2129 933 m 11 X s 2134 888 m -23 Y s 2129 865 m 11 X s 2176 895 m 22 Y s 2171 917 m 11 X s 2176 872 m -22 Y s 2171 850 m 11 X s 9 lw 0.95 0.95 0.95 c black 1900 764 m 3
 1 d 3 1 d 3 2 d 3 1 d 3 1 d 3 2 d 3 1 d 3 1 d 3 1 d 3 2 d 3 1 d 3 1 d 3 2 d 3 1 d 4 1 d 3 1 d 3 2 d 3 1 d 3 1 d 3 2 d 3 1 d 3 1 d 3 2 d 3 1 d 3 1 d 3 1 d 3 2 d 3 1 d 3 1 d 3 2 d 4 1 d 3 1 d 3 2 d 3 1 d 3 1 d 3 1 d 3 2 d 3 1 d 3 1 d 3 2 d 3 1 d 3 1 d
 3 2 d 3 1 d 3 1 d 3 1 d 3 2 d 4 1 d 3 1 d s 2050 827 m 3 2 d 3 1 d 3 1 d 3 2 d 3 1 d 3 1 d 3 1 d 3 2 d 3 1 d 3 1 d 3 2 d 3 1 d 3 1 d 3 2 d 4 1 d 3 1 d 3 1 d 3 2 d 3 1 d 3 1 d 3 2 d 3 1 d 3 1 d 3 2 d 3 1 d 3 1 d 3 1 d 3 2 d 3 1 d 3 1 d 4 2 d 3 1 d 3
 1 d 3 2 d 3 1 d 3 1 d 3 1 d 3 2 d 3 1 d 3 1 d 3 2 d 3 1 d 3 1 d 3 2 d 3 1 d 3 1 d 4 1 d 3 2 d 3 1 d s 2200 891 m 3 1 d s 0.49 0.6 0.82 c black 0.49 0.6 0.82 c
 gsave  408 305 1837 677 C 1957.19 960.076 t 0 r /Helvetica-Bold findfont 25.6831 sf 0 0 m (4.5 < E < 5.0 GeV) show NC gr  0.52 0.76 0.64 c black 0.52 0.76 0.64 c
 gsave  408 305 1837 677 C 1942.94 923.04 t 0 r /Helvetica-Bold findfont 25.6831 sf 0 0 m 
 220 206 192 185 170 163 148 141 126 118 111 97 83 69 61 47 40 25 18
(A = 0.041, p = 1.000) K NC gr  1 0.6 1 c black 1 0.6 1 c
 gsave  408 305 1837 677 C 2242.08 791.991 t 90 r /Helvetica-Bold findfont 28.5368 sf 0 0 m (/dof=0.4) show NC gr  black 1 0.6 1 c
 gsave  408 305 1837 677 C 2230.68 780.596 t 90 r /Helvetica-Bold findfont 19.9758 sf 0 0 m (2) show NC gr  black 1 0.6 1 c
 gsave  408 305 1837 677 C 2242.08 763.503 t 90 r /Symbol findfont 28.5368 sf 0 0 m (c) show NC gr  black 3 lw 1 1 1 c 408 306 23 345 bf black 1 1 1 c black 306 229 84 391 bl 306 229 84 391 bl 84 391 m 306 X s 117 395 m -4 Y s 236 395 m -4 Y s 354
 395 m -4 Y s 117 395 m -4 Y s 354 395 m -4 Y s
 gsave  408 306 23 345 C 96.8623 370.356 t 0 r /Helvetica findfont 22.8295 sf 0 0 m (\2550.1) show NC gr 
 gsave  408 306 23 345 C 225.062 370.356 t 0 r /Helvetica findfont 22.8295 sf 0 0 m (0) show NC gr 
 gsave  408 306 23 345 C 339.018 370.356 t 0 r /Helvetica findfont 22.8295 sf 0 0 m (0.1) show NC gr  84 620 m 306 X s 117 616 m 4 Y s 236 616 m 4 Y s 354 616 m 4 Y s 117 616 m 4 Y s 354 616 m 4 Y s 84 391 m 229 Y s 89 409 m -5 X s 87 418 m -3 X s 87
 427 m -3 X s 87 436 m -3 X s 87 446 m -3 X s 89 455 m -5 X s 87 464 m -3 X s 87 474 m -3 X s 87 483 m -3 X s 87 492 m -3 X s 89 501 m -5 X s 87 511 m -3 X s 87 520 m -3 X s 87 529 m -3 X s 87 538 m -3 X s 89 548 m -5 X s 87 557 m -3 X s 87 566 m -3
 X s 87 575 m -3 X s 87 585 m -3 X s 89 594 m -5 X s 89 409 m -5 X s 87 399 m -3 X s 89 594 m -5 X s 87 603 m -3 X s 87 612 m -3 X s
 gsave  408 306 23 345 C 31.3378 401.694 t 0 r /Helvetica findfont 22.8295 sf 0 0 m (\2550.01) show NC gr 
 gsave  408 306 23 345 C 14.2445 447.276 t 0 r /Helvetica findfont 22.8295 sf 0 0 m (\2550.005) show NC gr 
 gsave  408 306 23 345 C 65.5245 492.858 t 0 r /Helvetica findfont 22.8295 sf 0 0 m (0) show NC gr 
 gsave  408 306 23 345 C 22.7911 541.289 t 0 r /Helvetica findfont 22.8295 sf 0 0 m (0.005) show NC gr 
 gsave  408 306 23 345 C 37.0356 586.871 t 0 r /Helvetica findfont 22.8295 sf 0 0 m (0.01) show NC gr  390 391 m 229 Y s 385 409 m 5 X s 387 418 m 3 X s 387 427 m 3 X s 387 436 m 3 X s 387 446 m 3 X s 385 455 m 5 X s 387 464 m 3 X s 387 474 m 3 X s
 387 483 m 3 X s 387 492 m 3 X s 385 501 m 5 X s 387 511 m 3 X s 387 520 m 3 X s 387 529 m 3 X s 387 538 m 3 X s 385 548 m 5 X s 387 557 m 3 X s 387 566 m 3 X s 387 575 m 3 X s 387 585 m 3 X s 385 594 m 5 X s 385 409 m 5 X s 387 399 m 3 X s 385 594 m
 5 X s 387 603 m 3 X s 387 612 m 3 X s /w 22 def /w2 {w 2 div} def /w3 {w 3 div} def 109 507 151 568 194 445 215 510 257 492 278 524 320 466 362 442 8 { m21} R 109 518 m 21 Y s 104 539 m 11 X s 109 496 m -21 Y s 104 475 m 11 X s 151 580 m 21 Y s 146
 601 m 11 X s 151 557 m -21 Y s 146 536 m 11 X s 194 457 m 21 Y s 188 478 m 11 X s 194 434 m -21 Y s 188 413 m 11 X s 215 521 m 21 Y s 209 542 m 11 X s 215 499 m -21 Y s 209 478 m 11 X s 257 503 m 21 Y s 251 524 m 11 X s 257 480 m -21 Y s 251 459 m
 11 X s 278 536 m 21 Y s 272 557 m 12 X s 278 513 m -21 Y s 272 492 m 12 X s 320 477 m 21 Y s 314 498 m 12 X s 320 454 m -20 Y s 314 434 m 12 X s 362 454 m 20 Y s 357 474 m 11 X s 362 431 m -21 Y s 357 410 m 11 X s 9 lw 0.95 0.95 0.95 c black 85 543
 m 3 -1 d 4 -1 d 3 -1 d 3 -1 d 3 -1 d 3 -1 d 3 X 3 -1 d 3 -1 d 3 -1 d 3 -1 d 3 -1 d 3 X 3 -1 d 3 -1 d 3 -1 d 3 -1 d 4 -1 d 3 X 3 -1 d 3 -1 d 3 -1 d 3 -1 d 3 -1 d 3 X 3 -1 d 3 -1 d 3 -1 d 3 -1 d 3 -1 d 3 -1 d 3 X 3 -1 d 4 -1 d 3 -1 d 3 -1 d 3 -1 d 3 X
 3 -1 d 3 -1 d 3 -1 d 3 -1 d 3 -1 d 3 X 3 -1 d 3 -1 d 3 -1 d 3 -1 d 3 -1 d s 235 501 m 4 X 3 -1 d 3 -1 d 3 -1 d 3 -1 d 3 -1 d 3 -1 d 3 X 3 -1 d 3 -1 d 3 -1 d 3 -1 d 3 -1 d 3 X 3 -1 d 3 -1 d 3 -1 d 4 -1 d 3 -1 d 3 X 3 -1 d 3 -1 d 3 -1 d 3 -1 d 3 -1 d
 3 X 3 -1 d 3 -1 d 3 -1 d 3 -1 d 3 -1 d 3 -1 d 3 X 4 -1 d 3 -1 d 3 -1 d 3 -1 d 3 -1 d 3 X 3 -1 d 3 -1 d 3 -1 d 3 -1 d 3 -1 d 3 X 3 -1 d 3 -1 d 3 -1 d 3 -1 d s 385 460 m 4 -1 d s 0.49 0.6 0.82 c black 0.49 0.6 0.82 c
 gsave  408 306 23 345 C 142.445 629.605 t 0 r /Helvetica-Bold findfont 25.6831 sf 0 0 m (5.0 < E < 5.5 GeV) show NC gr  0.52 0.76 0.64 c black 0.52 0.76 0.64 c
 gsave  408 306 23 345 C 122.502 592.569 t 0 r /Helvetica-Bold findfont 25.6831 sf 0 0 m 
 228 214 200 193 178 171 156 149 134 126 119 105 91 77 69 55 47 40 25 17
(A = \2550.035, p = 1.000) K NC gr  1 0.6 1 c black 1 0.6 1 c
 gsave  408 306 23 345 C 427.334 458.671 t 90 r /Helvetica-Bold findfont 28.5368 sf 0 0 m (/dof=1.3) show NC gr  black 1 0.6 1 c
 gsave  408 306 23 345 C 415.938 447.276 t 90 r /Helvetica-Bold findfont 19.9758 sf 0 0 m (2) show NC gr  black 1 0.6 1 c
 gsave  408 306 23 345 C 427.334 430.182 t 90 r /Symbol findfont 28.5368 sf 0 0 m (c) show NC gr  black 3 lw 1 1 1 c 408 306 476 345 bf black 1 1 1 c black 307 229 537 391 bl 307 229 537 391 bl 537 391 m 307 X s 571 395 m -4 Y s 689 395 m -4 Y s 808
 395 m -4 Y s 571 395 m -4 Y s 808 395 m -4 Y s
 gsave  408 306 476 345 C 549.836 370.356 t 0 r /Helvetica findfont 22.8295 sf 0 0 m (\2550.1) show NC gr 
 gsave  408 306 476 345 C 678.036 370.356 t 0 r /Helvetica findfont 22.8295 sf 0 0 m (0) show NC gr 
 gsave  408 306 476 345 C 791.991 370.356 t 0 r /Helvetica findfont 22.8295 sf 0 0 m (0.1) show NC gr  537 620 m 307 X s 571 616 m 4 Y s 689 616 m 4 Y s 808 616 m 4 Y s 571 616 m 4 Y s 808 616 m 4 Y s 537 391 m 229 Y s 543 400 m -6 X s 540 405 m -3 X
 s 540 411 m -3 X s 540 416 m -3 X s 540 421 m -3 X s 543 427 m -6 X s 540 432 m -3 X s 540 438 m -3 X s 540 443 m -3 X s 540 448 m -3 X s 543 454 m -6 X s 540 459 m -3 X s 540 465 m -3 X s 540 470 m -3 X s 540 476 m -3 X s 543 481 m -6 X s 540 486 m
 -3 X s 540 492 m -3 X s 540 497 m -3 X s 540 503 m -3 X s 543 508 m -6 X s 540 513 m -3 X s 540 519 m -3 X s 540 524 m -3 X s 540 530 m -3 X s 543 535 m -6 X s 540 540 m -3 X s 540 546 m -3 X s 540 551 m -3 X s 540 557 m -3 X s 543 562 m -6 X s 540
 567 m -3 X s 540 573 m -3 X s 540 578 m -3 X s 540 584 m -3 X s 543 589 m -6 X s 540 594 m -3 X s 540 600 m -3 X s 540 605 m -3 X s 540 611 m -3 X s 543 616 m -6 X s 543 400 m -6 X s 540 394 m -3 X s 543 616 m -6 X s
 gsave  408 306 476 345 C 481.462 393.147 t 0 r /Helvetica findfont 22.8295 sf 0 0 m (\2550.02) show NC gr 
 gsave  408 306 476 345 C 467.218 418.787 t 0 r /Helvetica findfont 22.8295 sf 0 0 m (\2550.015) show NC gr 
 gsave  408 306 476 345 C 484.311 447.276 t 0 r /Helvetica findfont 22.8295 sf 0 0 m (\2550.01) show NC gr 
 gsave  408 306 476 345 C 467.218 472.916 t 0 r /Helvetica findfont 22.8295 sf 0 0 m (\2550.005) show NC gr 
 gsave  408 306 476 345 C 518.498 501.405 t 0 r /Helvetica findfont 22.8295 sf 0 0 m (0) show NC gr 
 gsave  408 306 476 345 C 475.765 527.045 t 0 r /Helvetica findfont 22.8295 sf 0 0 m (0.005) show NC gr 
 gsave  408 306 476 345 C 490.009 555.534 t 0 r /Helvetica findfont 22.8295 sf 0 0 m (0.01) show NC gr 
 gsave  408 306 476 345 C 475.765 581.174 t 0 r /Helvetica findfont 22.8295 sf 0 0 m (0.015) show NC gr 
 gsave  408 306 476 345 C 487.16 609.662 t 0 r /Helvetica findfont 22.8295 sf 0 0 m (0.02) show NC gr  844 391 m 229 Y s 838 400 m 6 X s 841 405 m 3 X s 841 411 m 3 X s 841 416 m 3 X s 841 421 m 3 X s 838 427 m 6 X s 841 432 m 3 X s 841 438 m 3 X s
 841 443 m 3 X s 841 448 m 3 X s 838 454 m 6 X s 841 459 m 3 X s 841 465 m 3 X s 841 470 m 3 X s 841 476 m 3 X s 838 481 m 6 X s 841 486 m 3 X s 841 492 m 3 X s 841 497 m 3 X s 841 503 m 3 X s 838 508 m 6 X s 841 513 m 3 X s 841 519 m 3 X s 841 524 m
 3 X s 841 530 m 3 X s 838 535 m 6 X s 841 540 m 3 X s 841 546 m 3 X s 841 551 m 3 X s 841 557 m 3 X s 838 562 m 6 X s 841 567 m 3 X s 841 573 m 3 X s 841 578 m 3 X s 841 584 m 3 X s 838 589 m 6 X s 841 594 m 3 X s 841 600 m 3 X s 841 605 m 3 X s 841
 611 m 3 X s 838 616 m 6 X s 838 400 m 6 X s 841 394 m 3 X s 838 616 m 6 X s /w 23 def /w2 {w 2 div} def /w3 {w 3 div} def 563 556 605 577 647 573 668 512 710 532 731 490 774 458 816 433 8 { m21} R 563 567 m 13 Y s 557 580 m 11 X s 563 545 m -13 Y s
 557 532 m 11 X s 605 589 m 12 Y s 599 601 m 12 X s 605 566 m -13 Y s 599 553 m 12 X s 647 585 m 12 Y s 641 597 m 12 X s 647 562 m -13 Y s 641 549 m 12 X s 668 523 m 12 Y s 662 535 m 12 X s 668 500 m -12 Y s 662 488 m 12 X s 710 543 m 12 Y s 705 555
 m 11 X s 710 520 m -12 Y s 705 508 m 11 X s 731 501 m 12 Y s 726 513 m 11 X s 731 478 m -12 Y s 726 466 m 11 X s 774 469 m 12 Y s 768 481 m 11 X s 774 446 m -12 Y s 768 434 m 11 X s 816 445 m 12 Y s 810 457 m 11 X s 816 422 m -12 Y s 810 410 m 11 X
 s 9 lw 0.95 0.95 0.95 c black 539 593 m 3 -2 d 3 -2 d 3 -1 d 3 -2 d 3 -2 d 3 -1 d 3 -2 d 3 -2 d 4 -2 d 3 -1 d 3 -2 d 3 -2 d 3 -2 d 3 -1 d 3 -2 d 3 -2 d 3 -1 d 3 -2 d 3 -2 d 3 -2 d 3 -1 d 3 -2 d 3 -2 d 3 -2 d 4 -1 d 3 -2 d 3 -2 d 3 -2 d 3 -1 d 3 -2 d
 3 -2 d 3 -1 d 3 -2 d 3 -2 d 3 -2 d 3 -1 d 3 -2 d 3 -2 d 3 -2 d 3 -1 d 3 -2 d 4 -2 d 3 -2 d 3 -1 d 3 -2 d 3 -2 d 3 -1 d 3 -2 d 3 -2 d s 689 508 m 3 -2 d 3 -1 d 3 -2 d 3 -2 d 3 -2 d 3 -1 d 3 -2 d 3 -2 d 4 -2 d 3 -1 d 3 -2 d 3 -2 d 3 -1 d 3 -2 d 3 -2 d
 3 -2 d 3 -1 d 3 -2 d 3 -2 d 3 -2 d 3 -1 d 3 -2 d 3 -2 d 3 -2 d 4 -1 d 3 -2 d 3 -2 d 3 -1 d 3 -2 d 3 -2 d 3 -2 d 3 -1 d 3 -2 d 3 -2 d 3 -2 d 3 -1 d 3 -2 d 3 -2 d 3 -2 d 3 -1 d 4 -2 d 3 -2 d 3 -1 d 3 -2 d 3 -2 d 3 -2 d 3 -1 d 3 -2 d 3 -2 d s 839 423 m
 3 -2 d s 0.49 0.6 0.82 c black 0.49 0.6 0.82 c
 gsave  408 306 476 345 C 595.418 629.605 t 0 r /Helvetica-Bold findfont 25.6831 sf 0 0 m (5.5 < E < 6.0 GeV) show NC gr  0.52 0.76 0.64 c black 0.52 0.76 0.64 c
 gsave  408 306 476 345 C 575.476 592.569 t 0 r /Helvetica-Bold findfont 25.6831 sf 0 0 m 
 228 214 200 193 178 171 156 149 133 126 119 105 91 77 69 55 47 39 25 17
(A = \2550.124, p = 1.000) K NC gr  1 0.6 1 c black 1 0.6 1 c
 gsave  408 306 476 345 C 883.156 458.671 t 90 r /Helvetica-Bold findfont 28.5368 sf 0 0 m (/dof=1.0) show NC gr  black 1 0.6 1 c
 gsave  408 306 476 345 C 871.76 447.276 t 90 r /Helvetica-Bold findfont 19.9758 sf 0 0 m (2) show NC gr  black 1 0.6 1 c
 gsave  408 306 476 345 C 883.156 430.182 t 90 r /Symbol findfont 28.5368 sf 0 0 m (c) show NC gr  black 3 lw 1 1 1 c 408 306 930 345 bf black 1 1 1 c black 306 229 991 391 bl 306 229 991 391 bl 991 391 m 306 X s 1024 395 m -4 Y s 1143 395 m -4 Y s
 1261 395 m -4 Y s 1024 395 m -4 Y s 1261 395 m -4 Y s
 gsave  408 306 930 345 C 1002.81 370.356 t 0 r /Helvetica findfont 22.8295 sf 0 0 m (\2550.1) show NC gr 
 gsave  408 306 930 345 C 1133.86 370.356 t 0 r /Helvetica findfont 22.8295 sf 0 0 m (0) show NC gr 
 gsave  408 306 930 345 C 1244.96 370.356 t 0 r /Helvetica findfont 22.8295 sf 0 0 m (0.1) show NC gr  991 620 m 306 X s 1024 616 m 4 Y s 1143 616 m 4 Y s 1261 616 m 4 Y s 1024 616 m 4 Y s 1261 616 m 4 Y s 991 391 m 229 Y s 997 433 m -6 X s 994 442 m
 -3 X s 994 450 m -3 X s 994 459 m -3 X s 994 467 m -3 X s 997 476 m -6 X s 994 484 m -3 X s 994 493 m -3 X s 994 501 m -3 X s 994 510 m -3 X s 997 519 m -6 X s 994 527 m -3 X s 994 536 m -3 X s 994 544 m -3 X s 994 553 m -3 X s 997 561 m -6 X s 994
 570 m -3 X s 994 578 m -3 X s 994 587 m -3 X s 994 595 m -3 X s 997 604 m -6 X s 997 433 m -6 X s 994 425 m -3 X s 994 416 m -3 X s 994 407 m -3 X s 994 399 m -3 X s 997 604 m -6 X s 994 613 m -3 X s
 gsave  408 306 930 345 C 937.285 427.334 t 0 r /Helvetica findfont 22.8295 sf 0 0 m (\2550.02) show NC gr 
 gsave  408 306 930 345 C 940.134 470.067 t 0 r /Helvetica findfont 22.8295 sf 0 0 m (\2550.01) show NC gr 
 gsave  408 306 930 345 C 974.32 512.8 t 0 r /Helvetica findfont 22.8295 sf 0 0 m (0) show NC gr 
 gsave  408 306 930 345 C 945.832 555.534 t 0 r /Helvetica findfont 22.8295 sf 0 0 m (0.01) show NC gr 
 gsave  408 306 930 345 C 942.983 598.267 t 0 r /Helvetica findfont 22.8295 sf 0 0 m (0.02) show NC gr  1297 391 m 229 Y s 1292 433 m 5 X s 1294 442 m 3 X s 1294 450 m 3 X s 1294 459 m 3 X s 1294 467 m 3 X s 1292 476 m 5 X s 1294 484 m 3 X s 1294 493
 m 3 X s 1294 501 m 3 X s 1294 510 m 3 X s 1292 519 m 5 X s 1294 527 m 3 X s 1294 536 m 3 X s 1294 544 m 3 X s 1294 553 m 3 X s 1292 561 m 5 X s 1294 570 m 3 X s 1294 578 m 3 X s 1294 587 m 3 X s 1294 595 m 3 X s 1292 604 m 5 X s 1292 433 m 5 X s
 1294 425 m 3 X s 1294 416 m 3 X s 1294 407 m 3 X s 1294 399 m 3 X s 1292 604 m 5 X s 1294 613 m 3 X s 1016 578 1058 565 1101 535 1122 523 1164 501 1185 500 1227 475 1269 432 8 { m21} R 1016 589 m 12 Y s 1011 601 m 11 X s 1016 567 m -12 Y s 1011 555
 m 11 X s 1058 576 m 11 Y s 1053 587 m 11 X s 1058 553 m -11 Y s 1053 542 m 11 X s 1101 547 m 11 Y s 1095 558 m 11 X s 1101 524 m -12 Y s 1095 512 m 11 X s 1122 535 m 11 Y s 1116 546 m 11 X s 1122 512 m -11 Y s 1116 501 m 11 X s 1164 512 m 11 Y s
 1158 523 m 12 X s 1164 489 m -11 Y s 1158 478 m 12 X s 1185 511 m 11 Y s 1179 522 m 12 X s 1185 488 m -11 Y s 1179 477 m 12 X s 1227 486 m 11 Y s 1221 497 m 12 X s 1227 463 m -11 Y s 1221 452 m 12 X s 1269 444 m 11 Y s 1264 455 m 11 X s 1269 421 m
 -11 Y s 1264 410 m 11 X s 9 lw 0.95 0.95 0.95 c black 993 602 m 3 -2 d 3 -2 d 3 -1 d 3 -2 d 3 -2 d 3 -1 d 3 -2 d 3 -2 d 3 -2 d 3 -1 d 3 -2 d 3 -2 d 3 -1 d 3 -2 d 3 -2 d 4 -1 d 3 -2 d 3 -2 d 3 -2 d 3 -1 d 3 -2 d 3 -2 d 3 -1 d 3 -2 d 3 -2 d 3 -1 d 3
 -2 d 3 -2 d 3 -1 d 3 -2 d 3 -2 d 3 -2 d 4 -1 d 3 -2 d 3 -2 d 3 -1 d 3 -2 d 3 -2 d 3 -1 d 3 -2 d 3 -2 d 3 -1 d 3 -2 d 3 -2 d 3 -2 d 3 -1 d 3 -2 d 3 -2 d 4 -1 d s 1143 519 m 3 -2 d 3 -2 d 3 -1 d 3 -2 d 3 -2 d 3 -1 d 3 -2 d 3 -2 d 3 -2 d 3 -1 d 3 -2 d
 3 -2 d 3 -1 d 3 -2 d 3 -2 d 4 -1 d 3 -2 d 3 -2 d 3 -1 d 3 -2 d 3 -2 d 3 -2 d 3 -1 d 3 -2 d 3 -2 d 3 -1 d 3 -2 d 3 -2 d 3 -1 d 3 -2 d 3 -2 d 3 -2 d 4 -1 d 3 -2 d 3 -2 d 3 -1 d 3 -2 d 3 -2 d 3 -1 d 3 -2 d 3 -2 d 3 -1 d 3 -2 d 3 -2 d 3 -2 d 3 -1 d 3 -2
 d 3 -2 d 4 -1 d s 1293 436 m 3 -2 d s 0.49 0.6 0.82 c black 0.49 0.6 0.82 c
 gsave  408 306 930 345 C 1051.24 629.605 t 0 r /Helvetica-Bold findfont 25.6831 sf 0 0 m (6.0 < E < 6.5 GeV) show NC gr  0.52 0.76 0.64 c black 0.52 0.76 0.64 c
 gsave  408 306 930 345 C 1031.3 592.569 t 0 r /Helvetica-Bold findfont 25.6831 sf 0 0 m 
 228 214 200 193 178 171 156 149 134 126 119 105 91 77 69 55 47 39 25 17
(A = \2550.153, p = 1.000) K NC gr  1 0.6 1 c black 1 0.6 1 c
 gsave  408 306 930 345 C 1336.13 458.671 t 90 r /Helvetica-Bold findfont 28.5368 sf 0 0 m (/dof=0.1) show NC gr  black 1 0.6 1 c
 gsave  408 306 930 345 C 1324.73 447.276 t 90 r /Helvetica-Bold findfont 19.9758 sf 0 0 m (2) show NC gr  black 1 0.6 1 c
 gsave  408 306 930 345 C 1336.13 430.182 t 90 r /Symbol findfont 28.5368 sf 0 0 m (c) show NC gr  black 3 lw 1 1 1 c 408 306 1383 345 bf black 1 1 1 c black 306 229 1445 391 bl 306 229 1445 391 bl 1445 391 m 306 X s 1478 395 m -4 Y s 1596 395 m -4 Y
 s 1715 395 m -4 Y s 1478 395 m -4 Y s 1715 395 m -4 Y s
 gsave  408 306 1383 345 C 1455.78 370.356 t 0 r /Helvetica findfont 22.8295 sf 0 0 m (\2550.1) show NC gr 
 gsave  408 306 1383 345 C 1586.83 370.356 t 0 r /Helvetica findfont 22.8295 sf 0 0 m (0) show NC gr 
 gsave  408 306 1383 345 C 1697.94 370.356 t 0 r /Helvetica findfont 22.8295 sf 0 0 m (0.1) show NC gr  1445 620 m 306 X s 1478 616 m 4 Y s 1596 616 m 4 Y s 1715 616 m 4 Y s 1478 616 m 4 Y s 1715 616 m 4 Y s 1445 391 m 229 Y s 1450 406 m -5 X s 1447
 412 m -2 X s 1447 417 m -2 X s 1447 423 m -2 X s 1447 429 m -2 X s 1450 435 m -5 X s 1447 440 m -2 X s 1447 446 m -2 X s 1447 452 m -2 X s 1447 458 m -2 X s 1450 463 m -5 X s 1447 469 m -2 X s 1447 475 m -2 X s 1447 481 m -2 X s 1447 486 m -2 X s
 1450 492 m -5 X s 1447 498 m -2 X s 1447 504 m -2 X s 1447 509 m -2 X s 1447 515 m -2 X s 1450 521 m -5 X s 1447 527 m -2 X s 1447 532 m -2 X s 1447 538 m -2 X s 1447 544 m -2 X s 1450 550 m -5 X s 1447 555 m -2 X s 1447 561 m -2 X s 1447 567 m -2 X
 s 1447 572 m -2 X s 1450 578 m -5 X s 1447 584 m -2 X s 1447 590 m -2 X s 1447 595 m -2 X s 1447 601 m -2 X s 1450 607 m -5 X s 1450 406 m -5 X s 1447 400 m -2 X s 1447 395 m -2 X s 1450 607 m -5 X s 1447 613 m -2 X s 1447 618 m -2 X s
 gsave  408 306 1383 345 C 1390.26 398.845 t 0 r /Helvetica findfont 22.8295 sf 0 0 m (\2550.04) show NC gr 
 gsave  408 306 1383 345 C 1390.26 427.334 t 0 r /Helvetica findfont 22.8295 sf 0 0 m (\2550.03) show NC gr 
 gsave  408 306 1383 345 C 1390.26 455.822 t 0 r /Helvetica findfont 22.8295 sf 0 0 m (\2550.02) show NC gr 
 gsave  408 306 1383 345 C 1393.11 484.311 t 0 r /Helvetica findfont 22.8295 sf 0 0 m (\2550.01) show NC gr 
 gsave  408 306 1383 345 C 1427.29 512.8 t 0 r /Helvetica findfont 22.8295 sf 0 0 m (0) show NC gr 
 gsave  408 306 1383 345 C 1398.81 541.289 t 0 r /Helvetica findfont 22.8295 sf 0 0 m (0.01) show NC gr 
 gsave  408 306 1383 345 C 1395.96 569.778 t 0 r /Helvetica findfont 22.8295 sf 0 0 m (0.02) show NC gr 
 gsave  408 306 1383 345 C 1395.96 601.116 t 0 r /Helvetica findfont 22.8295 sf 0 0 m (0.03) show NC gr  1751 391 m 229 Y s 1745 406 m 6 X s 1748 412 m 3 X s 1748 417 m 3 X s 1748 423 m 3 X s 1748 429 m 3 X s 1745 435 m 6 X s 1748 440 m 3 X s 1748
 446 m 3 X s 1748 452 m 3 X s 1748 458 m 3 X s 1745 463 m 6 X s 1748 469 m 3 X s 1748 475 m 3 X s 1748 481 m 3 X s 1748 486 m 3 X s 1745 492 m 6 X s 1748 498 m 3 X s 1748 504 m 3 X s 1748 509 m 3 X s 1748 515 m 3 X s 1745 521 m 6 X s 1748 527 m 3 X s
 1748 532 m 3 X s 1748 538 m 3 X s 1748 544 m 3 X s 1745 550 m 6 X s 1748 555 m 3 X s 1748 561 m 3 X s 1748 567 m 3 X s 1748 572 m 3 X s 1745 578 m 6 X s 1748 584 m 3 X s 1748 590 m 3 X s 1748 595 m 3 X s 1748 601 m 3 X s 1745 607 m 6 X s 1745 406 m
 6 X s 1748 400 m 3 X s 1748 395 m 3 X s 1745 607 m 6 X s 1748 613 m 3 X s 1748 618 m 3 X s 1470 583 1512 530 1554 523 1575 522 1617 517 1639 488 1681 459 1723 428 8 { m21} R 1470 594 m 7 Y s 1464 601 m 12 X s 1470 571 m -7 Y s 1464 564 m 12 X s 1512
 541 m 7 Y s 1506 548 m 12 X s 1512 519 m -7 Y s 1506 512 m 12 X s 1554 535 m 6 Y s 1548 541 m 12 X s 1554 512 m -7 Y s 1548 505 m 12 X s 1575 533 m 7 Y s 1570 540 m 11 X s 1575 511 m -7 Y s 1570 504 m 11 X s 1617 529 m 6 Y s 1612 535 m 11 X s 1617
 506 m -7 Y s 1612 499 m 11 X s 1639 499 m 6 Y s 1633 505 m 11 X s 1639 476 m -6 Y s 1633 470 m 11 X s 1681 470 m 7 Y s 1675 477 m 11 X s 1681 448 m -7 Y s 1675 441 m 11 X s 1723 439 m 6 Y s 1717 445 m 12 X s 1723 416 m -6 Y s 1717 410 m 12 X s 9 lw
 0.95 0.95 0.95 c black 1446 602 m 3 -1 d 3 -2 d 3 -2 d 3 -1 d 3 -2 d 3 -2 d 3 -1 d 4 -2 d 3 -2 d 3 -1 d 3 -2 d 3 -2 d 3 -1 d 3 -2 d 3 -2 d 3 -1 d 3 -2 d 3 -2 d 3 -1 d 3 -2 d 3 -2 d 3 -1 d 3 -2 d 4 -2 d 3 -1 d 3 -2 d 3 -2 d 3 -1 d 3 -2 d 3 -2 d 3 -1
 d 3 -2 d 3 -2 d 3 -1 d 3 -2 d 3 -1 d 3 -2 d 3 -2 d 3 -1 d 4 -2 d 3 -2 d 3 -1 d 3 -2 d 3 -2 d 3 -1 d 3 -2 d 3 -2 d 3 -1 d 3 -2 d s 1596 521 m 3 -2 d 3 -1 d 3 -2 d 3 -2 d 3 -1 d 3 -2 d 4 -2 d 3 -1 d 3 -2 d 3 -2 d 3 -1 d 3 -2 d 3 -2 d 3 -1 d 3 -2 d 3
 -2 d 3 -1 d 3 -2 d 3 -2 d 3 -1 d 3 -2 d 3 -2 d 3 -1 d 4 -2 d 3 -1 d 3 -2 d 3 -2 d 3 -1 d 3 -2 d 3 -2 d 3 -1 d 3 -2 d 3 -2 d 3 -1 d 3 -2 d 3 -2 d 3 -1 d 3 -2 d 3 -2 d 4 -1 d 3 -2 d 3 -2 d 3 -1 d 3 -2 d 3 -2 d 3 -1 d 3 -2 d 3 -2 d 3 -1 d s 1746 440 m
 3 -2 d s 0.49 0.6 0.82 c black 0.49 0.6 0.82 c
 gsave  408 306 1383 345 C 1504.21 629.605 t 0 r /Helvetica-Bold findfont 25.6831 sf 0 0 m (6.5 < E < 7.0 GeV) show NC gr  0.52 0.76 0.64 c black 0.52 0.76 0.64 c
 gsave  408 306 1383 345 C 1484.27 592.569 t 0 r /Helvetica-Bold findfont 25.6831 sf 0 0 m 
 228 214 200 193 178 171 156 149 133 126 119 105 91 76 69 55 47 39 25 17
(A = \2550.223, p = 1.000) K NC gr  1 0.6 1 c black 1 0.6 1 c
 gsave  408 306 1383 345 C 1789.1 458.671 t 90 r /Helvetica-Bold findfont 28.5368 sf 0 0 m (/dof=1.3) show NC gr  black 1 0.6 1 c
 gsave  408 306 1383 345 C 1777.71 447.276 t 90 r /Helvetica-Bold findfont 19.9758 sf 0 0 m (2) show NC gr  black 1 0.6 1 c
 gsave  408 306 1383 345 C 1789.1 430.182 t 90 r /Symbol findfont 28.5368 sf 0 0 m (c) show NC gr  black 3 lw 1 1 1 c 408 306 1837 345 bf black 1 1 1 c black 306 229 1898 391 bl 306 229 1898 391 bl 1898 391 m 306 X s 1931 395 m -4 Y s 2050 395 m -4 Y
 s 2168 395 m -4 Y s 1931 395 m -4 Y s 2168 395 m -4 Y s
 gsave  408 306 1837 345 C 1908.76 370.356 t 0 r /Helvetica findfont 22.8295 sf 0 0 m (\2550.1) show NC gr 
 gsave  408 306 1837 345 C 2039.81 370.356 t 0 r /Helvetica findfont 22.8295 sf 0 0 m (0) show NC gr 
 gsave  408 306 1837 345 C 2153.76 370.356 t 0 r /Helvetica findfont 22.8295 sf 0 0 m (0.1) show NC gr  1898 620 m 306 X s 1931 616 m 4 Y s 2050 616 m 4 Y s 2168 616 m 4 Y s 1931 616 m 4 Y s 2168 616 m 4 Y s 1898 391 m 229 Y s 1904 395 m -6 X s 1901
 401 m -3 X s 1901 407 m -3 X s 1901 414 m -3 X s 1901 420 m -3 X s 1904 426 m -6 X s 1901 433 m -3 X s 1901 439 m -3 X s 1901 445 m -3 X s 1901 451 m -3 X s 1904 458 m -6 X s 1901 464 m -3 X s 1901 470 m -3 X s 1901 476 m -3 X s 1901 483 m -3 X s
 1904 489 m -6 X s 1901 495 m -3 X s 1901 502 m -3 X s 1901 508 m -3 X s 1901 514 m -3 X s 1904 520 m -6 X s 1901 527 m -3 X s 1901 533 m -3 X s 1901 539 m -3 X s 1901 546 m -3 X s 1904 552 m -6 X s 1901 558 m -3 X s 1901 564 m -3 X s 1901 571 m -3 X
 s 1901 577 m -3 X s 1904 583 m -6 X s 1901 589 m -3 X s 1901 596 m -3 X s 1901 602 m -3 X s 1901 608 m -3 X s 1904 615 m -6 X s 1904 395 m -6 X s 1904 615 m -6 X s
 gsave  408 306 1837 345 C 1843.23 387.449 t 0 r /Helvetica findfont 22.8295 sf 0 0 m (\2550.03) show NC gr 
 gsave  408 306 1837 345 C 1843.23 418.787 t 0 r /Helvetica findfont 22.8295 sf 0 0 m (\2550.02) show NC gr 
 gsave  408 306 1837 345 C 1846.08 450.125 t 0 r /Helvetica findfont 22.8295 sf 0 0 m (\2550.01) show NC gr 
 gsave  408 306 1837 345 C 1880.27 481.462 t 0 r /Helvetica findfont 22.8295 sf 0 0 m (0) show NC gr 
 gsave  408 306 1837 345 C 1851.78 512.8 t 0 r /Helvetica findfont 22.8295 sf 0 0 m (0.01) show NC gr 
 gsave  408 306 1837 345 C 1848.93 544.138 t 0 r /Helvetica findfont 22.8295 sf 0 0 m (0.02) show NC gr 
 gsave  408 306 1837 345 C 1848.93 575.476 t 0 r /Helvetica findfont 22.8295 sf 0 0 m (0.03) show NC gr 
 gsave  408 306 1837 345 C 1848.93 606.814 t 0 r /Helvetica findfont 22.8295 sf 0 0 m (0.04) show NC gr  2204 391 m 229 Y s 2199 395 m 5 X s 2201 401 m 3 X s 2201 407 m 3 X s 2201 414 m 3 X s 2201 420 m 3 X s 2199 426 m 5 X s 2201 433 m 3 X s 2201
 439 m 3 X s 2201 445 m 3 X s 2201 451 m 3 X s 2199 458 m 5 X s 2201 464 m 3 X s 2201 470 m 3 X s 2201 476 m 3 X s 2201 483 m 3 X s 2199 489 m 5 X s 2201 495 m 3 X s 2201 502 m 3 X s 2201 508 m 3 X s 2201 514 m 3 X s 2199 520 m 5 X s 2201 527 m 3 X s
 2201 533 m 3 X s 2201 539 m 3 X s 2201 546 m 3 X s 2199 552 m 5 X s 2201 558 m 3 X s 2201 564 m 3 X s 2201 571 m 3 X s 2201 577 m 3 X s 2199 583 m 5 X s 2201 589 m 3 X s 2201 596 m 3 X s 2201 602 m 3 X s 2201 608 m 3 X s 2199 615 m 5 X s 2199 395 m
 5 X s 2199 615 m 5 X s 1923 561 1966 528 2008 578 2029 519 2071 494 2092 460 2134 453 2176 432 8 { m21} R 1923 573 m 11 Y s 1918 584 m 11 X s 1923 550 m -11 Y s 1918 539 m 11 X s 1966 540 m 11 Y s 1960 551 m 11 X s 1966 517 m -11 Y s 1960 506 m 11 X
 s 2008 590 m 11 Y s 2002 601 m 11 X s 2008 567 m -12 Y s 2002 555 m 11 X s 2029 530 m 11 Y s 2023 541 m 11 X s 2029 507 m -11 Y s 2023 496 m 11 X s 2071 505 m 11 Y s 2065 516 m 12 X s 2071 483 m -11 Y s 2065 472 m 12 X s 2092 471 m 11 Y s 2086 482 m
 12 X s 2092 448 m -11 Y s 2086 437 m 12 X s 2134 465 m 11 Y s 2129 476 m 11 X s 2134 442 m -11 Y s 2129 431 m 11 X s 2176 443 m 11 Y s 2171 454 m 11 X s 2176 421 m -11 Y s 2171 410 m 11 X s 9 lw 0.95 0.95 0.95 c black 1900 572 m 3 -2 d 3 -1 d 3 -2 d
 3 -2 d 3 -1 d 3 -2 d 3 -2 d 3 -1 d 3 -2 d 3 -2 d 3 -1 d 3 -2 d 3 -2 d 3 -2 d 4 -1 d 3 -2 d 3 -2 d 3 -1 d 3 -2 d 3 -2 d 3 -1 d 3 -2 d 3 -2 d 3 -1 d 3 -2 d 3 -2 d 3 -2 d 3 -1 d 3 -2 d 3 -2 d 4 -1 d 3 -2 d 3 -2 d 3 -1 d 3 -2 d 3 -2 d 3 -1 d 3 -2 d 3 -2
 d 3 -2 d 3 -1 d 3 -2 d 3 -2 d 3 -1 d 3 -2 d 3 -2 d 3 -1 d 4 -2 d 3 -2 d s 2050 489 m 3 -2 d 3 -1 d 3 -2 d 3 -2 d 3 -1 d 3 -2 d 3 -2 d 3 -1 d 3 -2 d 3 -2 d 3 -1 d 3 -2 d 3 -2 d 3 -2 d 4 -1 d 3 -2 d 3 -2 d 3 -1 d 3 -2 d 3 -2 d 3 -1 d 3 -2 d 3 -2 d 3
 -1 d 3 -2 d 3 -2 d 3 -2 d 3 -1 d 3 -2 d 3 -2 d 4 -1 d 3 -2 d 3 -2 d 3 -1 d 3 -2 d 3 -2 d 3 -1 d 3 -2 d 3 -2 d 3 -2 d 3 -1 d 3 -2 d 3 -2 d 3 -1 d 3 -2 d 3 -2 d 4 -1 d 3 -2 d 3 -2 d s 2200 406 m 3 -2 d s 0.49 0.6 0.82 c black 0.49 0.6 0.82 c
 gsave  408 306 1837 345 C 1957.19 629.605 t 0 r /Helvetica-Bold findfont 25.6831 sf 0 0 m (7.0 < E < 7.5 GeV) show NC gr  0.52 0.76 0.64 c black 0.52 0.76 0.64 c
 gsave  408 306 1837 345 C 1937.25 592.569 t 0 r /Helvetica-Bold findfont 25.6831 sf 0 0 m 
 228 214 200 193 178 171 156 149 134 126 119 105 91 77 69 55 47 39 25 17
(A = \2550.209, p = 1.000) K NC gr  1 0.6 1 c black 1 0.6 1 c
 gsave  408 306 1837 345 C 2242.08 458.671 t 90 r /Helvetica-Bold findfont 28.5368 sf 0 0 m (/dof=1.5) show NC gr  black 1 0.6 1 c
 gsave  408 306 1837 345 C 2230.68 447.276 t 90 r /Helvetica-Bold findfont 19.9758 sf 0 0 m (2) show NC gr  black 1 0.6 1 c
 gsave  408 306 1837 345 C 2242.08 430.182 t 90 r /Symbol findfont 28.5368 sf 0 0 m (c) show NC gr  black 3 lw 1 1 1 c 408 306 23 13 bf black 1 1 1 c black 306 229 84 59 bl 306 229 84 59 bl 84 59 m 306 X s 117 63 m -4 Y s 236 63 m -4 Y s 354 63 m -4
 Y s 117 63 m -4 Y s 354 63 m -4 Y s
 gsave  408 306 23 13 C 96.8623 39.8845 t 0 r /Helvetica findfont 22.8295 sf 0 0 m (\2550.1) show NC gr 
 gsave  408 306 23 13 C 225.062 39.8845 t 0 r /Helvetica findfont 22.8295 sf 0 0 m (0) show NC gr 
 gsave  408 306 23 13 C 339.018 39.8845 t 0 r /Helvetica findfont 22.8295 sf 0 0 m (0.1) show NC gr  84 288 m 306 X s 117 284 m 4 Y s 236 284 m 4 Y s 354 284 m 4 Y s 117 284 m 4 Y s 354 284 m 4 Y s 84 59 m 229 Y s 89 79 m -5 X s 87 85 m -3 X s 87 92
 m -3 X s 87 98 m -3 X s 87 104 m -3 X s 89 110 m -5 X s 87 116 m -3 X s 87 123 m -3 X s 87 129 m -3 X s 87 135 m -3 X s 89 141 m -5 X s 87 147 m -3 X s 87 153 m -3 X s 87 160 m -3 X s 87 166 m -3 X s 89 172 m -5 X s 87 178 m -3 X s 87 184 m -3 X s
 87 191 m -3 X s 87 197 m -3 X s 89 203 m -5 X s 87 209 m -3 X s 87 215 m -3 X s 87 221 m -3 X s 87 228 m -3 X s 89 234 m -5 X s 87 240 m -3 X s 87 246 m -3 X s 87 252 m -3 X s 87 259 m -3 X s 89 265 m -5 X s 89 79 m -5 X s 87 73 m -3 X s 87 67 m -3
 X s 87 61 m -3 X s 89 265 m -5 X s 87 271 m -3 X s 87 277 m -3 X s 87 283 m -3 X s
 gsave  408 306 23 13 C 28.4889 71.2223 t 0 r /Helvetica findfont 22.8295 sf 0 0 m (\2550.04) show NC gr 
 gsave  408 306 23 13 C 28.4889 102.56 t 0 r /Helvetica findfont 22.8295 sf 0 0 m (\2550.03) show NC gr 
 gsave  408 306 23 13 C 28.4889 133.898 t 0 r /Helvetica findfont 22.8295 sf 0 0 m (\2550.02) show NC gr 
 gsave  408 306 23 13 C 31.3378 165.236 t 0 r /Helvetica findfont 22.8295 sf 0 0 m (\2550.01) show NC gr 
 gsave  408 306 23 13 C 65.5245 196.573 t 0 r /Helvetica findfont 22.8295 sf 0 0 m (0) show NC gr 
 gsave  408 306 23 13 C 37.0356 227.911 t 0 r /Helvetica findfont 22.8295 sf 0 0 m (0.01) show NC gr 
 gsave  408 306 23 13 C 34.1867 256.4 t 0 r /Helvetica findfont 22.8295 sf 0 0 m (0.02) show NC gr  390 59 m 229 Y s 385 79 m 5 X s 387 85 m 3 X s 387 92 m 3 X s 387 98 m 3 X s 387 104 m 3 X s 385 110 m 5 X s 387 116 m 3 X s 387 123 m 3 X s 387 129 m
 3 X s 387 135 m 3 X s 385 141 m 5 X s 387 147 m 3 X s 387 153 m 3 X s 387 160 m 3 X s 387 166 m 3 X s 385 172 m 5 X s 387 178 m 3 X s 387 184 m 3 X s 387 191 m 3 X s 387 197 m 3 X s 385 203 m 5 X s 387 209 m 3 X s 387 215 m 3 X s 387 221 m 3 X s 387
 228 m 3 X s 385 234 m 5 X s 387 240 m 3 X s 387 246 m 3 X s 387 252 m 3 X s 387 259 m 3 X s 385 265 m 5 X s 385 79 m 5 X s 387 73 m 3 X s 387 67 m 3 X s 387 61 m 3 X s 385 265 m 5 X s 387 271 m 3 X s 387 277 m 3 X s 387 283 m 3 X s /w 22 def /w2 {w
 2 div} def /w3 {w 3 div} def 109 245 151 232 194 213 215 213 257 162 278 169 320 135 362 102 8 { m21} R 109 256 m 13 Y s 104 269 m 11 X s 109 233 m -13 Y s 104 220 m 11 X s 151 244 m 13 Y s 146 257 m 11 X s 151 221 m -13 Y s 146 208 m 11 X s 194 225
 m 12 Y s 188 237 m 11 X s 194 202 m -13 Y s 188 189 m 11 X s 215 224 m 13 Y s 209 237 m 11 X s 215 202 m -13 Y s 209 189 m 11 X s 257 174 m 12 Y s 251 186 m 11 X s 257 151 m -13 Y s 251 138 m 11 X s 278 181 m 12 Y s 272 193 m 12 X s 278 158 m -13 Y
 s 272 145 m 12 X s 320 147 m 12 Y s 314 159 m 12 X s 320 124 m -12 Y s 314 112 m 12 X s 362 113 m 12 Y s 357 125 m 11 X s 362 90 m -12 Y s 357 78 m 11 X s 9 lw 0.95 0.95 0.95 c black 88 288 m 4 -1 d 3 -2 d 3 -2 d 3 -1 d 3 -2 d 3 -2 d 3 -2 d 3 -1 d 3
 -2 d 3 -2 d 3 -2 d 3 -2 d 3 -1 d 3 -2 d 3 -2 d 3 -2 d 4 -2 d 3 -1 d 3 -2 d 3 -2 d 3 -2 d 3 -1 d 3 -2 d 3 -2 d 3 -2 d 3 -2 d 3 -1 d 3 -2 d 3 -2 d 3 -2 d 3 -2 d 3 -1 d 4 -2 d 3 -2 d 3 -2 d 3 -2 d 3 -1 d 3 -2 d 3 -2 d 3 -2 d 3 -1 d 3 -2 d 3 -2 d 3 -2 d
 3 -2 d 3 -1 d 3 -2 d 3 -2 d 4 -2 d s 239 201 m 3 -2 d 3 -1 d 3 -2 d 3 -2 d 3 -2 d 3 -1 d 3 -2 d 3 -2 d 3 -2 d 3 -2 d 3 -1 d 3 -2 d 3 -2 d 3 -2 d 3 -2 d 3 -1 d 4 -2 d 3 -2 d 3 -2 d 3 -1 d 3 -2 d 3 -2 d 3 -2 d 3 -2 d 3 -1 d 3 -2 d 3 -2 d 3 -2 d 3 -2 d
 3 -1 d 3 -2 d 3 -2 d 4 -2 d 3 -1 d 3 -2 d 3 -2 d 3 -2 d 3 -2 d 3 -1 d 3 -2 d 3 -2 d 3 -2 d 3 -2 d 3 -1 d 3 -2 d 3 -2 d 3 -2 d 3 -2 d 4 -1 d s 0.49 0.6 0.82 c black 0.49 0.6 0.82 c
 gsave  408 306 23 13 C 142.445 296.285 t 0 r /Helvetica-Bold findfont 25.6831 sf 0 0 m (7.5 < E < 8.0 GeV) show NC gr  0.52 0.76 0.64 c black 0.52 0.76 0.64 c
 gsave  408 306 23 13 C 122.502 259.249 t 0 r /Helvetica-Bold findfont 25.6831 sf 0 0 m 
 228 214 200 193 178 171 156 149 134 126 119 105 91 77 69 55 47 40 25 17
(A = \2550.224, p = 1.000) K NC gr  1 0.6 1 c black 1 0.6 1 c
 gsave  408 306 23 13 C 427.334 128.2 t 90 r /Helvetica-Bold findfont 28.5368 sf 0 0 m (/dof=0.9) show NC gr  black 1 0.6 1 c
 gsave  408 306 23 13 C 415.938 116.804 t 90 r /Helvetica-Bold findfont 19.9758 sf 0 0 m (2) show NC gr  black 1 0.6 1 c
 gsave  408 306 23 13 C 427.334 99.7112 t 90 r /Symbol findfont 28.5368 sf 0 0 m (c) show NC gr  black 3 lw 1 1 1 c 408 306 476 13 bf black 1 1 1 c black 307 229 537 59 bl 307 229 537 59 bl 537 59 m 307 X s 571 63 m -4 Y s 689 63 m -4 Y s 808 63 m -4
 Y s 571 63 m -4 Y s 808 63 m -4 Y s
 gsave  408 306 476 13 C 549.836 39.8845 t 0 r /Helvetica findfont 22.8295 sf 0 0 m (\2550.1) show NC gr 
 gsave  408 306 476 13 C 678.036 39.8845 t 0 r /Helvetica findfont 22.8295 sf 0 0 m (0) show NC gr 
 gsave  408 306 476 13 C 791.991 39.8845 t 0 r /Helvetica findfont 22.8295 sf 0 0 m (0.1) show NC gr  537 288 m 307 X s 571 284 m 4 Y s 689 284 m 4 Y s 808 284 m 4 Y s 571 284 m 4 Y s 808 284 m 4 Y s 537 59 m 229 Y s 543 63 m -6 X s 540 69 m -3 X s
 540 75 m -3 X s 540 80 m -3 X s 540 86 m -3 X s 543 92 m -6 X s 540 97 m -3 X s 540 103 m -3 X s 540 109 m -3 X s 540 114 m -3 X s 543 120 m -6 X s 540 126 m -3 X s 540 132 m -3 X s 540 137 m -3 X s 540 143 m -3 X s 543 149 m -6 X s 540 154 m -3 X s
 540 160 m -3 X s 540 166 m -3 X s 540 172 m -3 X s 543 177 m -6 X s 540 183 m -3 X s 540 189 m -3 X s 540 194 m -3 X s 540 200 m -3 X s 543 206 m -6 X s 540 212 m -3 X s 540 217 m -3 X s 540 223 m -3 X s 540 229 m -3 X s 543 234 m -6 X s 540 240 m
 -3 X s 540 246 m -3 X s 540 252 m -3 X s 540 257 m -3 X s 543 263 m -6 X s 543 63 m -6 X s 543 263 m -6 X s 540 269 m -3 X s 540 274 m -3 X s 540 280 m -3 X s 540 286 m -3 X s
 gsave  408 306 476 13 C 481.462 56.9778 t 0 r /Helvetica findfont 22.8295 sf 0 0 m (\2550.04) show NC gr 
 gsave  408 306 476 13 C 481.462 85.4667 t 0 r /Helvetica findfont 22.8295 sf 0 0 m (\2550.03) show NC gr 
 gsave  408 306 476 13 C 481.462 113.956 t 0 r /Helvetica findfont 22.8295 sf 0 0 m (\2550.02) show NC gr 
 gsave  408 306 476 13 C 484.311 142.445 t 0 r /Helvetica findfont 22.8295 sf 0 0 m (\2550.01) show NC gr 
 gsave  408 306 476 13 C 518.498 170.933 t 0 r /Helvetica findfont 22.8295 sf 0 0 m (0) show NC gr 
 gsave  408 306 476 13 C 490.009 199.422 t 0 r /Helvetica findfont 22.8295 sf 0 0 m (0.01) show NC gr 
 gsave  408 306 476 13 C 487.16 227.911 t 0 r /Helvetica findfont 22.8295 sf 0 0 m (0.02) show NC gr 
 gsave  408 306 476 13 C 487.16 256.4 t 0 r /Helvetica findfont 22.8295 sf 0 0 m (0.03) show NC gr  844 59 m 229 Y s 838 63 m 6 X s 841 69 m 3 X s 841 75 m 3 X s 841 80 m 3 X s 841 86 m 3 X s 838 92 m 6 X s 841 97 m 3 X s 841 103 m 3 X s 841 109 m 3
 X s 841 114 m 3 X s 838 120 m 6 X s 841 126 m 3 X s 841 132 m 3 X s 841 137 m 3 X s 841 143 m 3 X s 838 149 m 6 X s 841 154 m 3 X s 841 160 m 3 X s 841 166 m 3 X s 841 172 m 3 X s 838 177 m 6 X s 841 183 m 3 X s 841 189 m 3 X s 841 194 m 3 X s 841
 200 m 3 X s 838 206 m 6 X s 841 212 m 3 X s 841 217 m 3 X s 841 223 m 3 X s 841 229 m 3 X s 838 234 m 6 X s 841 240 m 3 X s 841 246 m 3 X s 841 252 m 3 X s 841 257 m 3 X s 838 263 m 6 X s 838 63 m 6 X s 838 263 m 6 X s 841 269 m 3 X s 841 274 m 3 X
 s 841 280 m 3 X s 841 286 m 3 X s /w 23 def /w2 {w 2 div} def /w3 {w 3 div} def 563 244 605 211 647 217 668 185 710 178 731 138 774 102 816 102 8 { m21} R 563 256 m 13 Y s 557 269 m 11 X s 563 233 m -13 Y s 557 220 m 11 X s 605 222 m 13 Y s 599 235
 m 12 X s 605 200 m -13 Y s 599 187 m 12 X s 647 228 m 13 Y s 641 241 m 12 X s 647 205 m -13 Y s 641 192 m 12 X s 668 197 m 12 Y s 662 209 m 12 X s 668 174 m -13 Y s 662 161 m 12 X s 710 190 m 13 Y s 705 203 m 11 X s 710 167 m -13 Y s 705 154 m 11 X
 s 731 149 m 13 Y s 726 162 m 11 X s 731 127 m -13 Y s 726 114 m 11 X s 774 113 m 13 Y s 768 126 m 11 X s 774 91 m -13 Y s 768 78 m 11 X s 816 113 m 12 Y s 810 125 m 11 X s 816 90 m -12 Y s 810 78 m 11 X s 9 lw 0.95 0.95 0.95 c black 539 269 m 3 -2 d
 3 -2 d 3 -2 d 3 -2 d 3 -1 d 3 -2 d 3 -2 d 3 -2 d 4 -2 d 3 -2 d 3 -2 d 3 -2 d 3 -1 d 3 -2 d 3 -2 d 3 -2 d 3 -2 d 3 -2 d 3 -2 d 3 -1 d 3 -2 d 3 -2 d 3 -2 d 3 -2 d 4 -2 d 3 -2 d 3 -1 d 3 -2 d 3 -2 d 3 -2 d 3 -2 d 3 -2 d 3 -2 d 3 -2 d 3 -1 d 3 -2 d 3 -2
 d 3 -2 d 3 -2 d 3 -2 d 3 -2 d 4 -1 d 3 -2 d 3 -2 d 3 -2 d 3 -2 d 3 -2 d 3 -2 d 3 -2 d s 689 177 m 3 -1 d 3 -2 d 3 -2 d 3 -2 d 3 -2 d 3 -2 d 3 -2 d 3 -1 d 4 -2 d 3 -2 d 3 -2 d 3 -2 d 3 -2 d 3 -2 d 3 -1 d 3 -2 d 3 -2 d 3 -2 d 3 -2 d 3 -2 d 3 -2 d 3 -2
 d 3 -1 d 3 -2 d 4 -2 d 3 -2 d 3 -2 d 3 -2 d 3 -2 d 3 -1 d 3 -2 d 3 -2 d 3 -2 d 3 -2 d 3 -2 d 3 -2 d 3 -1 d 3 -2 d 3 -2 d 3 -2 d 4 -2 d 3 -2 d 3 -2 d 3 -2 d 3 -1 d 3 -2 d 3 -2 d 3 -2 d 3 -2 d s 839 86 m 3 -2 d s 0.49 0.6 0.82 c black 0.49 0.6 0.82 c
 gsave  408 306 476 13 C 595.418 296.285 t 0 r /Helvetica-Bold findfont 25.6831 sf 0 0 m (8.0 < E < 8.5 GeV) show NC gr  0.52 0.76 0.64 c black 0.52 0.76 0.64 c
 gsave  408 306 476 13 C 575.476 259.249 t 0 r /Helvetica-Bold findfont 25.6831 sf 0 0 m 
 228 214 200 193 178 171 156 149 133 126 119 105 91 77 69 55 47 39 25 17
(A = \2550.253, p = 1.000) K NC gr  1 0.6 1 c black 1 0.6 1 c
 gsave  408 306 476 13 C 883.156 128.2 t 90 r /Helvetica-Bold findfont 28.5368 sf 0 0 m (/dof=0.4) show NC gr  black 1 0.6 1 c
 gsave  408 306 476 13 C 871.76 116.804 t 90 r /Helvetica-Bold findfont 19.9758 sf 0 0 m (2) show NC gr  black 1 0.6 1 c
 gsave  408 306 476 13 C 883.156 99.7112 t 90 r /Symbol findfont 28.5368 sf 0 0 m (c) show NC gr  black 3 lw 1 1 1 c 408 306 930 13 bf black 1 1 1 c black 306 229 991 59 bl 306 229 991 59 bl 991 59 m 306 X s 1024 63 m -4 Y s 1143 63 m -4 Y s 1261 63
 m -4 Y s 1024 63 m -4 Y s 1261 63 m -4 Y s
 gsave  408 306 930 13 C 1002.81 39.8845 t 0 r /Helvetica findfont 22.8295 sf 0 0 m (\2550.1) show NC gr 
 gsave  408 306 930 13 C 1133.86 39.8845 t 0 r /Helvetica findfont 22.8295 sf 0 0 m (0) show NC gr 
 gsave  408 306 930 13 C 1244.96 39.8845 t 0 r /Helvetica findfont 22.8295 sf 0 0 m (0.1) show NC gr  991 288 m 306 X s 1024 284 m 4 Y s 1143 284 m 4 Y s 1261 284 m 4 Y s 1024 284 m 4 Y s 1261 284 m 4 Y s 991 59 m 229 Y s 997 61 m -6 X s 994 67 m -3
 X s 994 72 m -3 X s 994 78 m -3 X s 994 83 m -3 X s 997 88 m -6 X s 994 94 m -3 X s 994 99 m -3 X s 994 105 m -3 X s 994 110 m -3 X s 997 116 m -6 X s 994 121 m -3 X s 994 127 m -3 X s 994 132 m -3 X s 994 137 m -3 X s 997 143 m -6 X s 994 148 m -3
 X s 994 154 m -3 X s 994 159 m -3 X s 994 165 m -3 X s 997 170 m -6 X s 994 176 m -3 X s 994 181 m -3 X s 994 186 m -3 X s 994 192 m -3 X s 997 197 m -6 X s 994 203 m -3 X s 994 208 m -3 X s 994 214 m -3 X s 994 219 m -3 X s 997 225 m -6 X s 994 230
 m -3 X s 994 236 m -3 X s 994 241 m -3 X s 994 246 m -3 X s 997 252 m -6 X s 994 257 m -3 X s 994 263 m -3 X s 994 268 m -3 X s 994 274 m -3 X s 997 279 m -6 X s 997 61 m -6 X s 997 279 m -6 X s 994 285 m -3 X s
 gsave  408 306 930 13 C 937.285 54.1289 t 0 r /Helvetica findfont 22.8295 sf 0 0 m (\2550.05) show NC gr 
 gsave  408 306 930 13 C 937.285 82.6178 t 0 r /Helvetica findfont 22.8295 sf 0 0 m (\2550.04) show NC gr 
 gsave  408 306 930 13 C 937.285 108.258 t 0 r /Helvetica findfont 22.8295 sf 0 0 m (\2550.03) show NC gr 
 gsave  408 306 930 13 C 937.285 136.747 t 0 r /Helvetica findfont 22.8295 sf 0 0 m (\2550.02) show NC gr 
 gsave  408 306 930 13 C 940.134 162.387 t 0 r /Helvetica findfont 22.8295 sf 0 0 m (\2550.01) show NC gr 
 gsave  408 306 930 13 C 974.32 190.876 t 0 r /Helvetica findfont 22.8295 sf 0 0 m (0) show NC gr 
 gsave  408 306 930 13 C 945.832 216.516 t 0 r /Helvetica findfont 22.8295 sf 0 0 m (0.01) show NC gr 
 gsave  408 306 930 13 C 942.983 245.005 t 0 r /Helvetica findfont 22.8295 sf 0 0 m (0.02) show NC gr 
 gsave  408 306 930 13 C 942.983 270.645 t 0 r /Helvetica findfont 22.8295 sf 0 0 m (0.03) show NC gr  1297 59 m 229 Y s 1292 61 m 5 X s 1294 67 m 3 X s 1294 72 m 3 X s 1294 78 m 3 X s 1294 83 m 3 X s 1292 88 m 5 X s 1294 94 m 3 X s 1294 99 m 3 X s
 1294 105 m 3 X s 1294 110 m 3 X s 1292 116 m 5 X s 1294 121 m 3 X s 1294 127 m 3 X s 1294 132 m 3 X s 1294 137 m 3 X s 1292 143 m 5 X s 1294 148 m 3 X s 1294 154 m 3 X s 1294 159 m 3 X s 1294 165 m 3 X s 1292 170 m 5 X s 1294 176 m 3 X s 1294 181 m
 3 X s 1294 186 m 3 X s 1294 192 m 3 X s 1292 197 m 5 X s 1294 203 m 3 X s 1294 208 m 3 X s 1294 214 m 3 X s 1294 219 m 3 X s 1292 225 m 5 X s 1294 230 m 3 X s 1294 236 m 3 X s 1294 241 m 3 X s 1294 246 m 3 X s 1292 252 m 5 X s 1294 257 m 3 X s 1294
 263 m 3 X s 1294 268 m 3 X s 1294 274 m 3 X s 1292 279 m 5 X s 1292 61 m 5 X s 1292 279 m 5 X s 1294 285 m 3 X s 1016 244 1058 236 1101 189 1122 181 1164 154 1185 137 1227 106 1269 102 8 { m21} R 1016 255 m 14 Y s 1011 269 m 11 X s 1016 232 m -13 Y
 s 1011 219 m 11 X s 1058 248 m 13 Y s 1053 261 m 11 X s 1058 225 m -14 Y s 1053 211 m 11 X s 1101 201 m 13 Y s 1095 214 m 11 X s 1101 178 m -13 Y s 1095 165 m 11 X s 1122 192 m 13 Y s 1116 205 m 11 X s 1122 169 m -13 Y s 1116 156 m 11 X s 1164 165 m
 13 Y s 1158 178 m 12 X s 1164 143 m -14 Y s 1158 129 m 12 X s 1185 149 m 13 Y s 1179 162 m 12 X s 1185 126 m -13 Y s 1179 113 m 12 X s 1227 117 m 13 Y s 1221 130 m 12 X s 1227 94 m -12 Y s 1221 82 m 12 X s 1269 114 m 12 Y s 1264 126 m 11 X s 1269 91
 m -13 Y s 1264 78 m 11 X s 9 lw 0.95 0.95 0.95 c black 999 288 m 3 -1 d 3 -2 d 3 -2 d 3 -2 d 3 -2 d 3 -2 d 3 -2 d 3 -2 d 3 -2 d 3 -2 d 3 -2 d 3 -1 d 3 -2 d 4 -2 d 3 -2 d 3 -2 d 3 -2 d 3 -2 d 3 -2 d 3 -2 d 3 -2 d 3 -2 d 3 -2 d 3 -2 d 3 -2 d 3 -2 d 3
 -2 d 3 -2 d 3 -1 d 3 -2 d 4 -2 d 3 -2 d 3 -2 d 3 -2 d 3 -2 d 3 -2 d 3 -2 d 3 -2 d 3 -2 d 3 -2 d 3 -2 d 3 -2 d 3 -2 d 3 -2 d 3 -2 d 3 -1 d 4 -2 d 3 -2 d 3 -2 d s 1149 194 m 3 -2 d 3 -2 d 3 -2 d 3 -2 d 3 -2 d 3 -2 d 3 -2 d 3 -2 d 3 -2 d 3 -2 d 3 -2 d
 3 -2 d 3 -2 d 4 -2 d 3 -1 d 3 -2 d 3 -2 d 3 -2 d 3 -2 d 3 -2 d 3 -2 d 3 -2 d 3 -2 d 3 -2 d 3 -2 d 3 -2 d 3 -2 d 3 -2 d 3 -2 d 3 -2 d 4 -2 d 3 -1 d 3 -2 d 3 -2 d 3 -2 d 3 -2 d 3 -2 d 3 -2 d 3 -2 d 3 -2 d 3 -2 d 3 -2 d 3 -2 d 3 -2 d 3 -2 d 3 -2 d 4 -2
 d 3 -2 d s 0.49 0.6 0.82 c black 0.49 0.6 0.82 c
 gsave  408 306 930 13 C 1051.24 296.285 t 0 r /Helvetica-Bold findfont 25.6831 sf 0 0 m (8.5 < E < 9.0 GeV) show NC gr  0.52 0.76 0.64 c black 0.52 0.76 0.64 c
 gsave  408 306 930 13 C 1031.3 259.249 t 0 r /Helvetica-Bold findfont 25.6831 sf 0 0 m 
 228 214 200 193 178 171 156 149 134 126 119 105 91 77 69 55 47 39 25 17
(A = \2550.276, p = 1.000) K NC gr  1 0.6 1 c black 1 0.6 1 c
 gsave  408 306 930 13 C 1336.13 128.2 t 90 r /Helvetica-Bold findfont 28.5368 sf 0 0 m (/dof=1.7) show NC gr  black 1 0.6 1 c
 gsave  408 306 930 13 C 1324.73 116.804 t 90 r /Helvetica-Bold findfont 19.9758 sf 0 0 m (2) show NC gr  black 1 0.6 1 c
 gsave  408 306 930 13 C 1336.13 99.7112 t 90 r /Symbol findfont 28.5368 sf 0 0 m (c) show NC gr  black 3 lw 1 1 1 c 408 306 1383 13 bf black 1 1 1 c black 306 229 1445 59 bl 306 229 1445 59 bl 1445 59 m 306 X s 1478 63 m -4 Y s 1596 63 m -4 Y s 1715
 63 m -4 Y s 1478 63 m -4 Y s 1715 63 m -4 Y s
 gsave  408 306 1383 13 C 1455.78 39.8845 t 0 r /Helvetica findfont 22.8295 sf 0 0 m (\2550.1) show NC gr 
 gsave  408 306 1383 13 C 1586.83 39.8845 t 0 r /Helvetica findfont 22.8295 sf 0 0 m (0) show NC gr 
 gsave  408 306 1383 13 C 1697.94 39.8845 t 0 r /Helvetica findfont 22.8295 sf 0 0 m (0.1) show NC gr  1445 288 m 306 X s 1478 284 m 4 Y s 1596 284 m 4 Y s 1715 284 m 4 Y s 1478 284 m 4 Y s 1715 284 m 4 Y s 1445 59 m 229 Y s 1450 78 m -5 X s 1447 84
 m -2 X s 1447 90 m -2 X s 1447 97 m -2 X s 1447 103 m -2 X s 1450 109 m -5 X s 1447 115 m -2 X s 1447 122 m -2 X s 1447 128 m -2 X s 1447 134 m -2 X s 1450 141 m -5 X s 1447 147 m -2 X s 1447 153 m -2 X s 1447 159 m -2 X s 1447 166 m -2 X s 1450 172
 m -5 X s 1447 178 m -2 X s 1447 185 m -2 X s 1447 191 m -2 X s 1447 197 m -2 X s 1450 204 m -5 X s 1447 210 m -2 X s 1447 216 m -2 X s 1447 222 m -2 X s 1447 229 m -2 X s 1450 235 m -5 X s 1447 241 m -2 X s 1447 248 m -2 X s 1447 254 m -2 X s 1447
 260 m -2 X s 1450 266 m -5 X s 1450 78 m -5 X s 1447 71 m -2 X s 1447 65 m -2 X s 1450 266 m -5 X s 1447 273 m -2 X s 1447 279 m -2 X s 1447 285 m -2 X s
 gsave  408 306 1383 13 C 1390.26 71.2223 t 0 r /Helvetica findfont 22.8295 sf 0 0 m (\2550.03) show NC gr 
 gsave  408 306 1383 13 C 1390.26 102.56 t 0 r /Helvetica findfont 22.8295 sf 0 0 m (\2550.02) show NC gr 
 gsave  408 306 1383 13 C 1393.11 133.898 t 0 r /Helvetica findfont 22.8295 sf 0 0 m (\2550.01) show NC gr 
 gsave  408 306 1383 13 C 1427.29 165.236 t 0 r /Helvetica findfont 22.8295 sf 0 0 m (0) show NC gr 
 gsave  408 306 1383 13 C 1398.81 196.573 t 0 r /Helvetica findfont 22.8295 sf 0 0 m (0.01) show NC gr 
 gsave  408 306 1383 13 C 1395.96 227.911 t 0 r /Helvetica findfont 22.8295 sf 0 0 m (0.02) show NC gr 
 gsave  408 306 1383 13 C 1395.96 259.249 t 0 r /Helvetica findfont 22.8295 sf 0 0 m (0.03) show NC gr  1751 59 m 229 Y s 1745 78 m 6 X s 1748 84 m 3 X s 1748 90 m 3 X s 1748 97 m 3 X s 1748 103 m 3 X s 1745 109 m 6 X s 1748 115 m 3 X s 1748 122 m 3
 X s 1748 128 m 3 X s 1748 134 m 3 X s 1745 141 m 6 X s 1748 147 m 3 X s 1748 153 m 3 X s 1748 159 m 3 X s 1748 166 m 3 X s 1745 172 m 6 X s 1748 178 m 3 X s 1748 185 m 3 X s 1748 191 m 3 X s 1748 197 m 3 X s 1745 204 m 6 X s 1748 210 m 3 X s 1748
 216 m 3 X s 1748 222 m 3 X s 1748 229 m 3 X s 1745 235 m 6 X s 1748 241 m 3 X s 1748 248 m 3 X s 1748 254 m 3 X s 1748 260 m 3 X s 1745 266 m 6 X s 1745 78 m 6 X s 1748 71 m 3 X s 1748 65 m 3 X s 1745 266 m 6 X s 1748 273 m 3 X s 1748 279 m 3 X s
 1748 285 m 3 X s 1470 238 1512 217 1554 184 1575 149 1617 140 1639 157 1681 108 1723 109 8 { m21} R 1470 249 m 20 Y s 1464 269 m 12 X s 1470 226 m -19 Y s 1464 207 m 12 X s 1512 228 m 20 Y s 1506 248 m 12 X s 1512 206 m -20 Y s 1506 186 m 12 X s
 1554 195 m 20 Y s 1548 215 m 12 X s 1554 173 m -20 Y s 1548 153 m 12 X s 1575 161 m 19 Y s 1570 180 m 11 X s 1575 138 m -19 Y s 1570 119 m 11 X s 1617 152 m 19 Y s 1612 171 m 11 X s 1617 129 m -19 Y s 1612 110 m 11 X s 1639 168 m 19 Y s 1633 187 m
 11 X s 1639 145 m -19 Y s 1633 126 m 11 X s 1681 120 m 18 Y s 1675 138 m 11 X s 1681 97 m -19 Y s 1675 78 m 11 X s 1723 120 m 19 Y s 1717 139 m 12 X s 1723 97 m -19 Y s 1717 78 m 12 X s 9 lw 0.95 0.95 0.95 c black 1446 252 m 3 -2 d 3 -1 d 3 -2 d 3
 -2 d 3 -1 d 3 -2 d 3 -2 d 4 -1 d 3 -2 d 3 -1 d 3 -2 d 3 -2 d 3 -1 d 3 -2 d 3 -2 d 3 -1 d 3 -2 d 3 -1 d 3 -2 d 3 -2 d 3 -1 d 3 -2 d 3 -2 d 4 -1 d 3 -2 d 3 -1 d 3 -2 d 3 -2 d 3 -1 d 3 -2 d 3 -2 d 3 -1 d 3 -2 d 3 -1 d 3 -2 d 3 -2 d 3 -1 d 3 -2 d 3 -2 d
 4 -1 d 3 -2 d 3 -1 d 3 -2 d 3 -2 d 3 -1 d 3 -2 d 3 -2 d 3 -1 d 3 -2 d s 1596 172 m 3 -1 d 3 -2 d 3 -2 d 3 -1 d 3 -2 d 3 -2 d 4 -1 d 3 -2 d 3 -1 d 3 -2 d 3 -2 d 3 -1 d 3 -2 d 3 -2 d 3 -1 d 3 -2 d 3 -1 d 3 -2 d 3 -2 d 3 -1 d 3 -2 d 3 -2 d 3 -1 d 4 -2
 d 3 -1 d 3 -2 d 3 -2 d 3 -1 d 3 -2 d 3 -2 d 3 -1 d 3 -2 d 3 -1 d 3 -2 d 3 -2 d 3 -1 d 3 -2 d 3 -2 d 3 -1 d 4 -2 d 3 -1 d 3 -2 d 3 -2 d 3 -1 d 3 -2 d 3 -2 d 3 -1 d 3 -2 d 3 -1 d s 1746 93 m 3 -2 d s 0.49 0.6 0.82 c black 0.49 0.6 0.82 c
 gsave  408 306 1383 13 C 1504.21 296.285 t 0 r /Helvetica-Bold findfont 25.6831 sf 0 0 m (9.0 < E < 9.5 GeV) show NC gr  0.52 0.76 0.64 c black 0.52 0.76 0.64 c
 gsave  408 306 1383 13 C 1484.27 259.249 t 0 r /Helvetica-Bold findfont 25.6831 sf 0 0 m 
 228 214 200 193 178 171 156 149 133 126 119 105 91 76 69 55 47 39 25 17
(A = \2550.200, p = 1.000) K NC gr  1 0.6 1 c black 1 0.6 1 c
 gsave  408 306 1383 13 C 1789.1 128.2 t 90 r /Helvetica-Bold findfont 28.5368 sf 0 0 m (/dof=0.3) show NC gr  black 1 0.6 1 c
 gsave  408 306 1383 13 C 1777.71 116.804 t 90 r /Helvetica-Bold findfont 19.9758 sf 0 0 m (2) show NC gr  black 1 0.6 1 c
 gsave  408 306 1383 13 C 1789.1 99.7112 t 90 r /Symbol findfont 28.5368 sf 0 0 m (c) show NC gr  black 3 lw 1 1 1 c 408 306 1837 13 bf black 1 1 1 c black 306 229 1898 59 bl 306 229 1898 59 bl 1898 59 m 306 X s 1931 63 m -4 Y s 2050 63 m -4 Y s 2168
 63 m -4 Y s 1931 63 m -4 Y s 2168 63 m -4 Y s
 gsave  408 306 1837 13 C 1908.76 39.8845 t 0 r /Helvetica findfont 22.8295 sf 0 0 m (\2550.1) show NC gr 
 gsave  408 306 1837 13 C 2039.81 39.8845 t 0 r /Helvetica findfont 22.8295 sf 0 0 m (0) show NC gr 
 gsave  408 306 1837 13 C 2153.76 39.8845 t 0 r /Helvetica findfont 22.8295 sf 0 0 m (0.1) show NC gr  1898 288 m 306 X s 1931 284 m 4 Y s 2050 284 m 4 Y s 2168 284 m 4 Y s 1931 284 m 4 Y s 2168 284 m 4 Y s 1898 59 m 229 Y s 1904 71 m -6 X s 1901 76
 m -3 X s 1901 81 m -3 X s 1901 86 m -3 X s 1901 91 m -3 X s 1904 96 m -6 X s 1901 101 m -3 X s 1901 106 m -3 X s 1901 111 m -3 X s 1901 116 m -3 X s 1904 121 m -6 X s 1901 126 m -3 X s 1901 131 m -3 X s 1901 136 m -3 X s 1901 141 m -3 X s 1904 146 m
 -6 X s 1901 151 m -3 X s 1901 156 m -3 X s 1901 161 m -3 X s 1901 166 m -3 X s 1904 171 m -6 X s 1901 176 m -3 X s 1901 181 m -3 X s 1901 186 m -3 X s 1901 191 m -3 X s 1904 196 m -6 X s 1901 201 m -3 X s 1901 206 m -3 X s 1901 211 m -3 X s 1901 216
 m -3 X s 1904 221 m -6 X s 1901 226 m -3 X s 1901 231 m -3 X s 1901 236 m -3 X s 1901 241 m -3 X s 1904 246 m -6 X s 1901 251 m -3 X s 1901 256 m -3 X s 1901 261 m -3 X s 1901 266 m -3 X s 1904 271 m -6 X s 1904 71 m -6 X s 1901 66 m -3 X s 1901 61
 m -3 X s 1904 271 m -6 X s 1901 276 m -3 X s 1901 281 m -3 X s 1901 286 m -3 X s
 gsave  408 306 1837 13 C 1843.23 62.6756 t 0 r /Helvetica findfont 22.8295 sf 0 0 m (\2550.03) show NC gr 
 gsave  408 306 1837 13 C 1843.23 88.3156 t 0 r /Helvetica findfont 22.8295 sf 0 0 m (\2550.02) show NC gr 
 gsave  408 306 1837 13 C 1846.08 113.956 t 0 r /Helvetica findfont 22.8295 sf 0 0 m (\2550.01) show NC gr 
 gsave  408 306 1837 13 C 1880.27 139.596 t 0 r /Helvetica findfont 22.8295 sf 0 0 m (0) show NC gr 
 gsave  408 306 1837 13 C 1851.78 165.236 t 0 r /Helvetica findfont 22.8295 sf 0 0 m (0.01) show NC gr 
 gsave  408 306 1837 13 C 1848.93 188.027 t 0 r /Helvetica findfont 22.8295 sf 0 0 m (0.02) show NC gr 
 gsave  408 306 1837 13 C 1848.93 213.667 t 0 r /Helvetica findfont 22.8295 sf 0 0 m (0.03) show NC gr 
 gsave  408 306 1837 13 C 1848.93 239.307 t 0 r /Helvetica findfont 22.8295 sf 0 0 m (0.04) show NC gr 
 gsave  408 306 1837 13 C 1848.93 264.947 t 0 r /Helvetica findfont 22.8295 sf 0 0 m (0.05) show NC gr  2204 59 m 229 Y s 2199 71 m 5 X s 2201 76 m 3 X s 2201 81 m 3 X s 2201 86 m 3 X s 2201 91 m 3 X s 2199 96 m 5 X s 2201 101 m 3 X s 2201 106 m 3 X
 s 2201 111 m 3 X s 2201 116 m 3 X s 2199 121 m 5 X s 2201 126 m 3 X s 2201 131 m 3 X s 2201 136 m 3 X s 2201 141 m 3 X s 2199 146 m 5 X s 2201 151 m 3 X s 2201 156 m 3 X s 2201 161 m 3 X s 2201 166 m 3 X s 2199 171 m 5 X s 2201 176 m 3 X s 2201 181
 m 3 X s 2201 186 m 3 X s 2201 191 m 3 X s 2199 196 m 5 X s 2201 201 m 3 X s 2201 206 m 3 X s 2201 211 m 3 X s 2201 216 m 3 X s 2199 221 m 5 X s 2201 226 m 3 X s 2201 231 m 3 X s 2201 236 m 3 X s 2201 241 m 3 X s 2199 246 m 5 X s 2201 251 m 3 X s
 2201 256 m 3 X s 2201 261 m 3 X s 2201 266 m 3 X s 2199 271 m 5 X s 2199 71 m 5 X s 2201 66 m 3 X s 2201 61 m 3 X s 2199 271 m 5 X s 2201 276 m 3 X s 2201 281 m 3 X s 2201 286 m 3 X s 1923 242 1966 198 2008 201 2029 185 2071 161 2092 126 2134 114
 2176 104 8 { m21} R 1923 253 m 16 Y s 1918 269 m 11 X s 1923 231 m -16 Y s 1918 215 m 11 X s 1966 209 m 15 Y s 1960 224 m 11 X s 1966 186 m -15 Y s 1960 171 m 11 X s 2008 212 m 15 Y s 2002 227 m 11 X s 2008 189 m -15 Y s 2002 174 m 11 X s 2029 197 m
 15 Y s 2023 212 m 11 X s 2029 174 m -15 Y s 2023 159 m 11 X s 2071 172 m 15 Y s 2065 187 m 12 X s 2071 150 m -15 Y s 2065 135 m 12 X s 2092 137 m 15 Y s 2086 152 m 12 X s 2092 114 m -14 Y s 2086 100 m 12 X s 2134 126 m 14 Y s 2129 140 m 11 X s 2134
 103 m -15 Y s 2129 88 m 11 X s 2176 115 m 15 Y s 2171 130 m 11 X s 2176 92 m -14 Y s 2171 78 m 11 X s 9 lw 0.95 0.95 0.95 c black 1900 228 m 3 -1 d 3 -2 d 3 -2 d 3 -1 d 3 -2 d 3 -2 d 3 -1 d 3 -2 d 3 -2 d 3 -1 d 3 -2 d 3 -2 d 3 -1 d 3 -2 d 4 -2 d 3
 -1 d 3 -2 d 3 -2 d 3 -1 d 3 -2 d 3 -2 d 3 -1 d 3 -2 d 3 -2 d 3 -1 d 3 -2 d 3 -2 d 3 -2 d 3 -1 d 3 -2 d 4 -2 d 3 -1 d 3 -2 d 3 -2 d 3 -1 d 3 -2 d 3 -2 d 3 -1 d 3 -2 d 3 -2 d 3 -1 d 3 -2 d 3 -2 d 3 -1 d 3 -2 d 3 -2 d 3 -1 d 4 -2 d 3 -2 d s 2050 146 m
 3 -1 d 3 -2 d 3 -2 d 3 -1 d 3 -2 d 3 -2 d 3 -1 d 3 -2 d 3 -2 d 3 -2 d 3 -1 d 3 -2 d 3 -2 d 3 -1 d 4 -2 d 3 -2 d 3 -1 d 3 -2 d 3 -2 d 3 -1 d 3 -2 d 3 -2 d 3 -1 d 3 -2 d 3 -2 d 3 -1 d 3 -2 d 3 -2 d 3 -1 d 3 -2 d 4 -2 d 3 -1 d 3 -2 d 3 -2 d 3 -1 d 3 -2
 d 3 -2 d 3 -1 d 3 -2 d 3 -2 d 3 -1 d 3 -2 d 3 -2 d 3 -2 d 3 -1 d 3 -2 d 4 -2 d 3 -1 d 3 -2 d s 2200 64 m 3 -2 d s 0.49 0.6 0.82 c black 0.49 0.6 0.82 c
 gsave  408 306 1837 13 C 1948.64 296.285 t 0 r /Helvetica-Bold findfont 25.6831 sf 0 0 m (9.5 < E < 10.0 GeV) show NC gr  0.52 0.76 0.64 c black 0.52 0.76 0.64 c
 gsave  408 306 1837 13 C 1937.25 259.249 t 0 r /Helvetica-Bold findfont 25.6831 sf 0 0 m 
 228 214 200 193 178 171 156 149 134 126 119 105 91 77 69 55 47 39 25 17
(A = \2550.260, p = 1.000) K NC gr  1 0.6 1 c black 1 0.6 1 c
 gsave  408 306 1837 13 C 2242.08 128.2 t 90 r /Helvetica-Bold findfont 28.5368 sf 0 0 m (/dof=0.8) show NC gr  black 1 0.6 1 c
 gsave  408 306 1837 13 C 2230.68 116.804 t 90 r /Helvetica-Bold findfont 19.9758 sf 0 0 m (2) show NC gr  black 1 0.6 1 c
 gsave  408 306 1837 13 C 2242.08 99.7112 t 90 r /Symbol findfont 28.5368 sf 0 0 m (c) show NC gr 
 gr  gr showpage
end
%%EOF
