%!PS-Adobe-2.0 EPSF-2.0
%%BoundingBox:  0 0 567 332
%%Title: Horn2XOffset_far_fits.eps: Fits
%%Creator: ROOT Version 5.30/06
%%CreationDate: Sun Feb  2 09:35:19 2014
%%EndComments
%%BeginProlog
80 dict begin
/s {stroke} def /l {lineto} def /m {moveto} def /t {translate} def
/r {rotate} def /rl {roll}  def /R {repeat} def
/d {rlineto} def /rm {rmoveto} def /gr {grestore} def /f {eofill} def
/c {setrgbcolor} def /black {0 setgray} def /sd {setdash} def
/cl {closepath} def /sf {scalefont setfont} def /lw {setlinewidth} def
/box {m dup 0 exch d exch 0 d 0 exch neg d cl} def
/NC{systemdict begin initclip end}def/C{NC box clip newpath}def
/bl {box s} def /bf {box f} def /Y { 0 exch d} def /X { 0 d} def 
/K {{pop pop 0 moveto} exch kshow} bind def
/ita {/ang 15 def gsave [1 0 ang dup sin exch cos div 1 0 0] concat} def 
/mp {newpath /y exch def /x exch def} def
/side {[w .77 mul w .23 mul] .385 w mul sd w 0 l currentpoint t -144 r} def
/mr {mp x y w2 0 360 arc} def /m24 {mr s} def /m20 {mr f} def
/mb {mp x y w2 add m w2 neg 0 d 0 w neg d w 0 d 0 w d cl} def
/mt {mp x y w2 add m w2 neg w neg d w 0 d cl} def
/m21 {mb f} def /m25 {mb s} def /m22 {mt f} def /m26{mt s} def
/m23 {mp x y w2 sub m w2 w d w neg 0 d cl f} def
/m27 {mp x y w2 add m w3 neg w2 neg d w3 w2 neg d w3 w2 d cl s} def
/m28 {mp x w2 sub y w2 sub w3 add m w3 0 d  0 w3 neg d w3 0 d 0 w3 d w3 0 d  0 w3 d w3 neg 0 d 0 w3 d w3 neg 0 d 0 w3 neg d w3 neg 0 d cl s } def
/m29 {mp gsave x w2 sub y w2 add w3 sub m currentpoint t 4 {side} repeat cl fill gr} def
/m30 {mp gsave x w2 sub y w2 add w3 sub m currentpoint t 4 {side} repeat cl s gr} def
/m31 {mp x y w2 sub m 0 w d x w2 sub y m w 0 d x w2 sub y w2 add m w w neg d x w2 sub y w2 sub m w w d s} def
/m32 {mp x y w2 sub m w2 w d w neg 0 d cl s} def
/m33 {mp x y w2 add m w3 neg w2 neg d w3 w2 neg d w3 w2 d cl f} def
/m34 {mp x w2 sub y w2 sub w3 add m w3 0 d  0 w3 neg d w3 0 d 0 w3 d w3 0 d  0 w3 d w3 neg 0 d 0 w3 d w3 neg 0 d 0 w3 neg d w3 neg 0 d cl f } def
/m2 {mp x y w2 sub m 0 w d x w2 sub y m w 0 d s} def
/m5 {mp x w2 sub y w2 sub m w w d x w2 sub y w2 add m w w neg d s} def
/reEncode {exch findfont dup length dict begin {1 index /FID eq  {pop pop} {def} ifelse } forall /Encoding exch def currentdict end dup /FontName get exch definefont pop } def [/Times-Bold /Times-Italic /Times-BoldItalic /Helvetica /Helvetica-Oblique
 /Helvetica-Bold /Helvetica-BoldOblique /Courier /Courier-Oblique /Courier-Bold /Courier-BoldOblique /Times-Roman /AvantGarde-Book /AvantGarde-BookOblique /AvantGarde-Demi /AvantGarde-DemiOblique /Bookman-Demi /Bookman-DemiItalic /Bookman-Light
 /Bookman-LightItalic /Helvetica-Narrow /Helvetica-Narrow-Bold /Helvetica-Narrow-BoldOblique /Helvetica-Narrow-Oblique /NewCenturySchlbk-Roman /NewCenturySchlbk-Bold /NewCenturySchlbk-BoldItalic /NewCenturySchlbk-Italic /Palatino-Bold
 /Palatino-BoldItalic /Palatino-Italic /Palatino-Roman ] {ISOLatin1Encoding reEncode } forall%%EndProlog
%%BeginSetup
%%EndSetup
newpath  gsave  .25 .25 scale  gsave  0 0 t black[  ] 0 sd 3 lw 1 1 1 c 2268 1328 0 0 bf black 1 1 1 c 408 305 23 1009 bf black 1 1 1 c black 306 229 84 1055 bl 306 229 84 1055 bl 84 1055 m 306 X s 84 1059 m -4 Y s 196 1059 m -4 Y s 309 1059 m -4 Y s
 309 1059 m -4 Y s
 gsave  408 305 23 1009 C 74.0711 1034.15 t 0 r /Helvetica findfont 22.8295 sf 0 0 m (0) show NC gr 
 gsave  408 305 23 1009 C 188.027 1034.15 t 0 r /Helvetica findfont 22.8295 sf 0 0 m (1) show NC gr 
 gsave  408 305 23 1009 C 299.133 1034.15 t 0 r /Helvetica findfont 22.8295 sf 0 0 m (2) show NC gr  84 1284 m 306 X s 84 1280 m 4 Y s 196 1280 m 4 Y s 309 1280 m 4 Y s 309 1280 m 4 Y s 84 1055 m 229 Y s 89 1060 m -5 X s 87 1064 m -3 X s 87 1069 m -3
 X s 87 1073 m -3 X s 87 1078 m -3 X s 89 1083 m -5 X s 87 1087 m -3 X s 87 1092 m -3 X s 87 1097 m -3 X s 87 1101 m -3 X s 89 1106 m -5 X s 87 1110 m -3 X s 87 1115 m -3 X s 87 1120 m -3 X s 87 1124 m -3 X s 89 1129 m -5 X s 87 1133 m -3 X s 87 1138
 m -3 X s 87 1143 m -3 X s 87 1147 m -3 X s 89 1152 m -5 X s 87 1157 m -3 X s 87 1161 m -3 X s 87 1166 m -3 X s 87 1170 m -3 X s 89 1175 m -5 X s 87 1180 m -3 X s 87 1184 m -3 X s 87 1189 m -3 X s 87 1194 m -3 X s 89 1198 m -5 X s 87 1203 m -3 X s 87
 1207 m -3 X s 87 1212 m -3 X s 87 1217 m -3 X s 89 1221 m -5 X s 87 1226 m -3 X s 87 1230 m -3 X s 87 1235 m -3 X s 87 1240 m -3 X s 89 1244 m -5 X s 87 1249 m -3 X s 87 1254 m -3 X s 87 1258 m -3 X s 87 1263 m -3 X s 89 1267 m -5 X s 89 1060 m -5 X
 s 87 1055 m -3 X s 89 1267 m -5 X s 87 1272 m -3 X s 87 1277 m -3 X s 87 1281 m -3 X s
 gsave  408 305 23 1009 C 14.2445 1051.24 t 0 r /Helvetica findfont 22.8295 sf 0 0 m (\2550.004) show NC gr 
 gsave  408 305 23 1009 C 14.2445 1076.88 t 0 r /Helvetica findfont 22.8295 sf 0 0 m (\2550.003) show NC gr 
 gsave  408 305 23 1009 C 14.2445 1099.67 t 0 r /Helvetica findfont 22.8295 sf 0 0 m (\2550.002) show NC gr 
 gsave  408 305 23 1009 C 17.0933 1122.46 t 0 r /Helvetica findfont 22.8295 sf 0 0 m (\2550.001) show NC gr 
 gsave  408 305 23 1009 C 65.5245 1145.25 t 0 r /Helvetica findfont 22.8295 sf 0 0 m (0) show NC gr 
 gsave  408 305 23 1009 C 25.64 1168.04 t 0 r /Helvetica findfont 22.8295 sf 0 0 m (0.001) show NC gr 
 gsave  408 305 23 1009 C 22.7911 1190.84 t 0 r /Helvetica findfont 22.8295 sf 0 0 m (0.002) show NC gr 
 gsave  408 305 23 1009 C 22.7911 1213.63 t 0 r /Helvetica findfont 22.8295 sf 0 0 m (0.003) show NC gr 
 gsave  408 305 23 1009 C 22.7911 1236.42 t 0 r /Helvetica findfont 22.8295 sf 0 0 m (0.004) show NC gr 
 gsave  408 305 23 1009 C 22.7911 1259.21 t 0 r /Helvetica findfont 22.8295 sf 0 0 m (0.005) show NC gr  390 1055 m 229 Y s 385 1060 m 5 X s 387 1064 m 3 X s 387 1069 m 3 X s 387 1073 m 3 X s 387 1078 m 3 X s 385 1083 m 5 X s 387 1087 m 3 X s 387
 1092 m 3 X s 387 1097 m 3 X s 387 1101 m 3 X s 385 1106 m 5 X s 387 1110 m 3 X s 387 1115 m 3 X s 387 1120 m 3 X s 387 1124 m 3 X s 385 1129 m 5 X s 387 1133 m 3 X s 387 1138 m 3 X s 387 1143 m 3 X s 387 1147 m 3 X s 385 1152 m 5 X s 387 1157 m 3 X
 s 387 1161 m 3 X s 387 1166 m 3 X s 387 1170 m 3 X s 385 1175 m 5 X s 387 1180 m 3 X s 387 1184 m 3 X s 387 1189 m 3 X s 387 1194 m 3 X s 385 1198 m 5 X s 387 1203 m 3 X s 387 1207 m 3 X s 387 1212 m 3 X s 387 1217 m 3 X s 385 1221 m 5 X s 387 1226
 m 3 X s 387 1230 m 3 X s 387 1235 m 3 X s 387 1240 m 3 X s 385 1244 m 5 X s 387 1249 m 3 X s 387 1254 m 3 X s 387 1258 m 3 X s 387 1263 m 3 X s 385 1267 m 5 X s 385 1060 m 5 X s 387 1055 m 3 X s 385 1267 m 5 X s 387 1272 m 3 X s 387 1277 m 3 X s 387
 1281 m 3 X s /w 22 def /w2 {w 2 div} def /w3 {w 3 div} def 140 1210 196 1178 309 1115 365 1223 4 { m21} R 140 1222 m 30 Y s 134 1252 m 12 X s 140 1199 m -30 Y s 134 1169 m 12 X s 196 1189 m 31 Y s 191 1220 m 11 X s 196 1167 m -31 Y s 191 1136 m 11 X
 s 309 1127 m 30 Y s 303 1157 m 12 X s 309 1104 m -30 Y s 303 1074 m 12 X s 365 1234 m 31 Y s 360 1265 m 11 X s 365 1211 m -30 Y s 360 1181 m 11 X s 9 lw 0.95 0.95 0.95 c black 85 1152 m 3 1 d 7 X 3 1 d 6 X 3 1 d 6 X 3 1 d 3 X 3 1 d 6 X 3 1 d 6 X 4 1
 d 3 X 3 1 d 6 X 3 1 d 6 X 3 1 d 3 X 3 1 d 6 X 3 1 d 6 X 4 1 d 3 X 3 1 d 6 X 3 1 d 6 X 3 1 d 6 X 3 1 d 3 X 3 1 d 6 X s 235 1170 m 4 1 d 6 X 3 1 d 3 X 3 1 d 6 X 3 1 d 6 X 3 1 d 3 X 3 1 d 6 X 3 1 d 7 X 3 1 d 3 X 3 1 d 6 X 3 1 d 6 X 3 1 d 6 X 3 1 d 3 X
 3 1 d 7 X 3 1 d 6 X 3 1 d 3 X 3 1 d 6 X 3 1 d 6 X 3 1 d 3 X 3 1 d s 385 1189 m 4 X s 0.49 0.6 0.82 c black 0.49 0.6 0.82 c
 gsave  408 305 23 1009 C 142.445 1293.4 t 0 r /Helvetica-Bold findfont 25.6831 sf 0 0 m (0.0 < E < 0.5 GeV) show NC gr  0.52 0.76 0.64 c black 0.52 0.76 0.64 c
 gsave  408 305 23 1009 C 128.2 1256.36 t 0 r /Helvetica-Bold findfont 25.6831 sf 0 0 m 
 220 206 192 185 170 163 148 141 126 118 111 97 83 69 61 47 40 25 18
(A = 0.001, p = 1.000) K NC gr  1 0.6 1 c black 1 0.6 1 c
 gsave  408 305 23 1009 C 427.334 1122.46 t 90 r /Helvetica-Bold findfont 28.5368 sf 0 0 m (/dof=1.6) show NC gr  black 1 0.6 1 c
 gsave  408 305 23 1009 C 415.938 1111.07 t 90 r /Helvetica-Bold findfont 19.9758 sf 0 0 m (2) show NC gr  black 1 0.6 1 c
 gsave  408 305 23 1009 C 427.334 1093.97 t 90 r /Symbol findfont 28.5368 sf 0 0 m (c) show NC gr  black 3 lw 1 1 1 c 408 305 476 1009 bf black 1 1 1 c black 307 229 537 1055 bl 307 229 537 1055 bl 537 1055 m 307 X s 537 1059 m -4 Y s 650 1059 m -4 Y
 s 763 1059 m -4 Y s 763 1059 m -4 Y s
 gsave  408 305 476 1009 C 527.045 1034.15 t 0 r /Helvetica findfont 22.8295 sf 0 0 m (0) show NC gr 
 gsave  408 305 476 1009 C 643.849 1034.15 t 0 r /Helvetica findfont 22.8295 sf 0 0 m (1) show NC gr 
 gsave  408 305 476 1009 C 752.107 1034.15 t 0 r /Helvetica findfont 22.8295 sf 0 0 m (2) show NC gr  537 1284 m 307 X s 537 1280 m 4 Y s 650 1280 m 4 Y s 763 1280 m 4 Y s 763 1280 m 4 Y s 537 1055 m 229 Y s 543 1064 m -6 X s 540 1071 m -3 X s 540
 1079 m -3 X s 540 1086 m -3 X s 543 1094 m -6 X s 540 1101 m -3 X s 540 1109 m -3 X s 540 1116 m -3 X s 543 1124 m -6 X s 540 1131 m -3 X s 540 1139 m -3 X s 540 1146 m -3 X s 543 1154 m -6 X s 540 1161 m -3 X s 540 1169 m -3 X s 540 1176 m -3 X s
 543 1184 m -6 X s 540 1191 m -3 X s 540 1198 m -3 X s 540 1206 m -3 X s 543 1213 m -6 X s 540 1221 m -3 X s 540 1228 m -3 X s 540 1236 m -3 X s 543 1243 m -6 X s 540 1251 m -3 X s 540 1258 m -3 X s 540 1266 m -3 X s 543 1273 m -6 X s 543 1064 m -6 X
 s 540 1057 m -3 X s 543 1273 m -6 X s 540 1281 m -3 X s
 gsave  408 305 476 1009 C 467.218 1056.94 t 0 r /Helvetica findfont 22.8295 sf 0 0 m (\2550.006) show NC gr 
 gsave  408 305 476 1009 C 467.218 1085.43 t 0 r /Helvetica findfont 22.8295 sf 0 0 m (\2550.004) show NC gr 
 gsave  408 305 476 1009 C 467.218 1116.76 t 0 r /Helvetica findfont 22.8295 sf 0 0 m (\2550.002) show NC gr 
 gsave  408 305 476 1009 C 518.498 1145.25 t 0 r /Helvetica findfont 22.8295 sf 0 0 m (0) show NC gr 
 gsave  408 305 476 1009 C 475.765 1176.59 t 0 r /Helvetica findfont 22.8295 sf 0 0 m (0.002) show NC gr 
 gsave  408 305 476 1009 C 475.765 1205.08 t 0 r /Helvetica findfont 22.8295 sf 0 0 m (0.004) show NC gr 
 gsave  408 305 476 1009 C 475.765 1236.42 t 0 r /Helvetica findfont 22.8295 sf 0 0 m (0.006) show NC gr 
 gsave  408 305 476 1009 C 475.765 1264.91 t 0 r /Helvetica findfont 22.8295 sf 0 0 m (0.008) show NC gr  844 1055 m 229 Y s 838 1064 m 6 X s 841 1071 m 3 X s 841 1079 m 3 X s 841 1086 m 3 X s 838 1094 m 6 X s 841 1101 m 3 X s 841 1109 m 3 X s 841
 1116 m 3 X s 838 1124 m 6 X s 841 1131 m 3 X s 841 1139 m 3 X s 841 1146 m 3 X s 838 1154 m 6 X s 841 1161 m 3 X s 841 1169 m 3 X s 841 1176 m 3 X s 838 1184 m 6 X s 841 1191 m 3 X s 841 1198 m 3 X s 841 1206 m 3 X s 838 1213 m 6 X s 841 1221 m 3 X
 s 841 1228 m 3 X s 841 1236 m 3 X s 838 1243 m 6 X s 841 1251 m 3 X s 841 1258 m 3 X s 841 1266 m 3 X s 838 1273 m 6 X s 838 1064 m 6 X s 841 1057 m 3 X s 838 1273 m 6 X s 841 1281 m 3 X s /w 23 def /w2 {w 2 div} def /w3 {w 3 div} def 594 1126 650
 1106 763 1232 819 1184 4 { m21} R 594 1137 m 22 Y s 588 1159 m 11 X s 594 1115 m -22 Y s 588 1093 m 11 X s 650 1118 m 21 Y s 644 1139 m 12 X s 650 1095 m -21 Y s 644 1074 m 12 X s 763 1243 m 22 Y s 757 1265 m 11 X s 763 1220 m -21 Y s 757 1199 m 11
 X s 819 1195 m 22 Y s 813 1217 m 12 X s 819 1172 m -21 Y s 813 1151 m 12 X s 1 0 0 c 9 lw 0.95 0.95 0.95 c black 1 0 0 c 539 1154 m 34 X 3 1 d 15 X 3 1 d 9 X 3 1 d 10 X 3 1 d 6 X 3 1 d 6 X 3 1 d 3 X 3 1 d 6 X 3 1 d 3 X 3 1 d 3 X 3 1 d 4 X 3 1 d 3 X
 3 1 d 3 X 3 1 d 3 X 3 1 d s 689 1168 m 3 1 d 3 X 3 1 d 3 X 3 1 d 3 1 d 3 X 3 1 d 4 1 d 3 X 3 1 d 3 1 d 3 1 d 3 X 3 1 d 3 1 d 3 1 d 3 X 3 1 d 3 1 d 3 1 d 3 1 d 3 1 d 3 X 4 1 d 3 1 d 3 1 d 3 1 d 3 1 d 3 1 d 3 1 d 3 1 d 3 1 d 3 1 d 3 1 d 3 1 d 3 1 d 3
 1 d 3 1 d 3 1 d 4 1 d 3 1 d 3 1 d 3 1 d 3 1 d 3 1 d 3 1 d 3 1 d 3 2 d s 839 1211 m 3 1 d s 0.49 0.6 0.82 c black 0.49 0.6 0.82 c
 gsave  408 305 476 1009 C 595.418 1293.4 t 0 r /Helvetica-Bold findfont 25.6831 sf 0 0 m (0.5 < E < 1.0 GeV) show NC gr  0.52 0.76 0.64 c black 0.52 0.76 0.64 c
 gsave  408 305 476 1009 C 581.174 1256.36 t 0 r /Helvetica-Bold findfont 25.6831 sf 0 0 m 
 220 206 192 185 170 163 148 141 125 118 111 97 83 68 61 47 40 25 18
(A = 0.001, p = 2.000) K NC gr  1 0.6 1 c black 1 0.6 1 c
 gsave  408 305 476 1009 C 883.156 1122.46 t 90 r /Helvetica-Bold findfont 28.5368 sf 0 0 m (/dof=2.0) show NC gr  black 1 0.6 1 c
 gsave  408 305 476 1009 C 871.76 1111.07 t 90 r /Helvetica-Bold findfont 19.9758 sf 0 0 m (2) show NC gr  black 1 0.6 1 c
 gsave  408 305 476 1009 C 883.156 1093.97 t 90 r /Symbol findfont 28.5368 sf 0 0 m (c) show NC gr  black 3 lw 1 1 1 c 408 305 930 1009 bf black 1 1 1 c black 306 229 991 1055 bl 306 229 991 1055 bl 991 1055 m 306 X s 991 1059 m -4 Y s 1104 1059 m -4
 Y s 1216 1059 m -4 Y s 1216 1059 m -4 Y s
 gsave  408 305 930 1009 C 980.018 1034.15 t 0 r /Helvetica findfont 22.8295 sf 0 0 m (0) show NC gr 
 gsave  408 305 930 1009 C 1096.82 1034.15 t 0 r /Helvetica findfont 22.8295 sf 0 0 m (1) show NC gr 
 gsave  408 305 930 1009 C 1205.08 1034.15 t 0 r /Helvetica findfont 22.8295 sf 0 0 m (2) show NC gr  991 1284 m 306 X s 991 1280 m 4 Y s 1104 1280 m 4 Y s 1216 1280 m 4 Y s 1216 1280 m 4 Y s 991 1055 m 229 Y s 997 1063 m -6 X s 994 1068 m -3 X s 994
 1073 m -3 X s 994 1077 m -3 X s 994 1082 m -3 X s 997 1086 m -6 X s 994 1091 m -3 X s 994 1096 m -3 X s 994 1100 m -3 X s 994 1105 m -3 X s 997 1110 m -6 X s 994 1114 m -3 X s 994 1119 m -3 X s 994 1123 m -3 X s 994 1128 m -3 X s 997 1133 m -6 X s
 994 1137 m -3 X s 994 1142 m -3 X s 994 1147 m -3 X s 994 1151 m -3 X s 997 1156 m -6 X s 994 1160 m -3 X s 994 1165 m -3 X s 994 1170 m -3 X s 994 1174 m -3 X s 997 1179 m -6 X s 994 1183 m -3 X s 994 1188 m -3 X s 994 1193 m -3 X s 994 1197 m -3 X
 s 997 1202 m -6 X s 994 1207 m -3 X s 994 1211 m -3 X s 994 1216 m -3 X s 994 1220 m -3 X s 997 1225 m -6 X s 994 1230 m -3 X s 994 1234 m -3 X s 994 1239 m -3 X s 994 1244 m -3 X s 997 1248 m -6 X s 994 1253 m -3 X s 994 1257 m -3 X s 994 1262 m -3
 X s 994 1267 m -3 X s 997 1271 m -6 X s 997 1063 m -6 X s 994 1059 m -3 X s 997 1271 m -6 X s 994 1276 m -3 X s 994 1280 m -3 X s
 gsave  408 305 930 1009 C 923.04 1056.94 t 0 r /Helvetica findfont 22.8295 sf 0 0 m (\2550.004) show NC gr 
 gsave  408 305 930 1009 C 923.04 1079.73 t 0 r /Helvetica findfont 22.8295 sf 0 0 m (\2550.003) show NC gr 
 gsave  408 305 930 1009 C 923.04 1102.52 t 0 r /Helvetica findfont 22.8295 sf 0 0 m (\2550.002) show NC gr 
 gsave  408 305 930 1009 C 925.889 1125.31 t 0 r /Helvetica findfont 22.8295 sf 0 0 m (\2550.001) show NC gr 
 gsave  408 305 930 1009 C 974.32 1148.1 t 0 r /Helvetica findfont 22.8295 sf 0 0 m (0) show NC gr 
 gsave  408 305 930 1009 C 934.436 1170.89 t 0 r /Helvetica findfont 22.8295 sf 0 0 m (0.001) show NC gr 
 gsave  408 305 930 1009 C 931.587 1193.68 t 0 r /Helvetica findfont 22.8295 sf 0 0 m (0.002) show NC gr 
 gsave  408 305 930 1009 C 931.587 1219.32 t 0 r /Helvetica findfont 22.8295 sf 0 0 m (0.003) show NC gr 
 gsave  408 305 930 1009 C 931.587 1242.12 t 0 r /Helvetica findfont 22.8295 sf 0 0 m (0.004) show NC gr 
 gsave  408 305 930 1009 C 931.587 1264.91 t 0 r /Helvetica findfont 22.8295 sf 0 0 m (0.005) show NC gr  1297 1055 m 229 Y s 1292 1063 m 5 X s 1294 1068 m 3 X s 1294 1073 m 3 X s 1294 1077 m 3 X s 1294 1082 m 3 X s 1292 1086 m 5 X s 1294 1091 m 3 X
 s 1294 1096 m 3 X s 1294 1100 m 3 X s 1294 1105 m 3 X s 1292 1110 m 5 X s 1294 1114 m 3 X s 1294 1119 m 3 X s 1294 1123 m 3 X s 1294 1128 m 3 X s 1292 1133 m 5 X s 1294 1137 m 3 X s 1294 1142 m 3 X s 1294 1147 m 3 X s 1294 1151 m 3 X s 1292 1156 m 5
 X s 1294 1160 m 3 X s 1294 1165 m 3 X s 1294 1170 m 3 X s 1294 1174 m 3 X s 1292 1179 m 5 X s 1294 1183 m 3 X s 1294 1188 m 3 X s 1294 1193 m 3 X s 1294 1197 m 3 X s 1292 1202 m 5 X s 1294 1207 m 3 X s 1294 1211 m 3 X s 1294 1216 m 3 X s 1294 1220 m
 3 X s 1292 1225 m 5 X s 1294 1230 m 3 X s 1294 1234 m 3 X s 1294 1239 m 3 X s 1294 1244 m 3 X s 1292 1248 m 5 X s 1294 1253 m 3 X s 1294 1257 m 3 X s 1294 1262 m 3 X s 1294 1267 m 3 X s 1292 1271 m 5 X s 1292 1063 m 5 X s 1294 1059 m 3 X s 1292 1271
 m 5 X s 1294 1276 m 3 X s 1294 1280 m 3 X s 1047 1125 1104 1180 1216 1214 1272 1150 4 { m21} R 1047 1136 m 39 Y s 1042 1175 m 11 X s 1047 1113 m -39 Y s 1042 1074 m 11 X s 1104 1192 m 39 Y s 1098 1231 m 11 X s 1104 1169 m -40 Y s 1098 1129 m 11 X s
 1216 1225 m 40 Y s 1210 1265 m 12 X s 1216 1202 m -39 Y s 1210 1163 m 12 X s 1272 1162 m 39 Y s 1267 1201 m 11 X s 1272 1139 m -40 Y s 1267 1099 m 11 X s 9 lw 0.95 0.95 0.95 c black 993 1156 m 6 X 3 1 d 9 X 3 1 d 6 X 3 1 d 9 X 3 1 d 10 X 3 1 d 9 X 3
 1 d 9 X 3 1 d 6 X 3 1 d 9 X 4 1 d 9 X 3 1 d 9 X 3 1 d 6 X 3 1 d 9 X 3 1 d 4 X s 1143 1169 m 6 X 3 1 d 9 X 3 1 d 9 X 3 1 d 6 X 3 1 d 10 X 3 1 d 9 X 3 1 d 9 X 3 1 d 9 X 3 1 d 6 X 4 1 d 9 X 3 1 d 9 X 3 1 d 9 X 3 1 d 6 X 3 1 d 4 X s 1293 1182 m 3 X s
 0.49 0.6 0.82 c black 0.49 0.6 0.82 c
 gsave  408 305 930 1009 C 1051.24 1293.4 t 0 r /Helvetica-Bold findfont 25.6831 sf 0 0 m (1.0 < E < 1.5 GeV) show NC gr  0.52 0.76 0.64 c black 0.52 0.76 0.64 c
 gsave  408 305 930 1009 C 1037 1256.36 t 0 r /Helvetica-Bold findfont 25.6831 sf 0 0 m 
 220 206 192 185 170 163 148 141 125 118 111 97 83 69 61 47 40 25 18
(A = 0.000, p = 1.000) K NC gr  1 0.6 1 c black 1 0.6 1 c
 gsave  408 305 930 1009 C 1336.13 1122.46 t 90 r /Helvetica-Bold findfont 28.5368 sf 0 0 m (/dof=0.5) show NC gr  black 1 0.6 1 c
 gsave  408 305 930 1009 C 1324.73 1111.07 t 90 r /Helvetica-Bold findfont 19.9758 sf 0 0 m (2) show NC gr  black 1 0.6 1 c
 gsave  408 305 930 1009 C 1336.13 1093.97 t 90 r /Symbol findfont 28.5368 sf 0 0 m (c) show NC gr  black 3 lw 1 1 1 c 408 305 1383 1009 bf black 1 1 1 c black 306 229 1445 1055 bl 306 229 1445 1055 bl 1445 1055 m 306 X s 1445 1059 m -4 Y s 1557 1059
 m -4 Y s 1670 1059 m -4 Y s 1670 1059 m -4 Y s
 gsave  408 305 1383 1009 C 1435.84 1034.15 t 0 r /Helvetica findfont 22.8295 sf 0 0 m (0) show NC gr 
 gsave  408 305 1383 1009 C 1549.8 1034.15 t 0 r /Helvetica findfont 22.8295 sf 0 0 m (1) show NC gr 
 gsave  408 305 1383 1009 C 1660.9 1034.15 t 0 r /Helvetica findfont 22.8295 sf 0 0 m (2) show NC gr  1445 1284 m 306 X s 1445 1280 m 4 Y s 1557 1280 m 4 Y s 1670 1280 m 4 Y s 1670 1280 m 4 Y s 1445 1055 m 229 Y s 1450 1060 m -5 X s 1447 1065 m -2 X
 s 1447 1070 m -2 X s 1447 1075 m -2 X s 1447 1080 m -2 X s 1450 1085 m -5 X s 1447 1090 m -2 X s 1447 1094 m -2 X s 1447 1099 m -2 X s 1447 1104 m -2 X s 1450 1109 m -5 X s 1447 1114 m -2 X s 1447 1119 m -2 X s 1447 1124 m -2 X s 1447 1129 m -2 X s
 1450 1134 m -5 X s 1447 1138 m -2 X s 1447 1143 m -2 X s 1447 1148 m -2 X s 1447 1153 m -2 X s 1450 1158 m -5 X s 1447 1163 m -2 X s 1447 1168 m -2 X s 1447 1173 m -2 X s 1447 1177 m -2 X s 1450 1182 m -5 X s 1447 1187 m -2 X s 1447 1192 m -2 X s
 1447 1197 m -2 X s 1447 1202 m -2 X s 1450 1207 m -5 X s 1447 1212 m -2 X s 1447 1216 m -2 X s 1447 1221 m -2 X s 1447 1226 m -2 X s 1450 1231 m -5 X s 1447 1236 m -2 X s 1447 1241 m -2 X s 1447 1246 m -2 X s 1447 1251 m -2 X s 1450 1256 m -5 X s
 1447 1260 m -2 X s 1447 1265 m -2 X s 1447 1270 m -2 X s 1447 1275 m -2 X s 1450 1280 m -5 X s 1450 1060 m -5 X s 1447 1055 m -2 X s 1450 1280 m -5 X s
 gsave  408 305 1383 1009 C 1376.01 1054.09 t 0 r /Helvetica findfont 22.8295 sf 0 0 m (\2550.008) show NC gr 
 gsave  408 305 1383 1009 C 1376.01 1076.88 t 0 r /Helvetica findfont 22.8295 sf 0 0 m (\2550.007) show NC gr 
 gsave  408 305 1383 1009 C 1376.01 1102.52 t 0 r /Helvetica findfont 22.8295 sf 0 0 m (\2550.006) show NC gr 
 gsave  408 305 1383 1009 C 1376.01 1125.31 t 0 r /Helvetica findfont 22.8295 sf 0 0 m (\2550.005) show NC gr 
 gsave  408 305 1383 1009 C 1376.01 1150.95 t 0 r /Helvetica findfont 22.8295 sf 0 0 m (\2550.004) show NC gr 
 gsave  408 305 1383 1009 C 1376.01 1176.59 t 0 r /Helvetica findfont 22.8295 sf 0 0 m (\2550.003) show NC gr 
 gsave  408 305 1383 1009 C 1376.01 1199.38 t 0 r /Helvetica findfont 22.8295 sf 0 0 m (\2550.002) show NC gr 
 gsave  408 305 1383 1009 C 1378.86 1225.02 t 0 r /Helvetica findfont 22.8295 sf 0 0 m (\2550.001) show NC gr 
 gsave  408 305 1383 1009 C 1427.29 1247.81 t 0 r /Helvetica findfont 22.8295 sf 0 0 m (0) show NC gr 
 gsave  408 305 1383 1009 C 1387.41 1273.45 t 0 r /Helvetica findfont 22.8295 sf 0 0 m (0.001) show NC gr  1751 1055 m 229 Y s 1745 1060 m 6 X s 1748 1065 m 3 X s 1748 1070 m 3 X s 1748 1075 m 3 X s 1748 1080 m 3 X s 1745 1085 m 6 X s 1748 1090 m 3 X
 s 1748 1094 m 3 X s 1748 1099 m 3 X s 1748 1104 m 3 X s 1745 1109 m 6 X s 1748 1114 m 3 X s 1748 1119 m 3 X s 1748 1124 m 3 X s 1748 1129 m 3 X s 1745 1134 m 6 X s 1748 1138 m 3 X s 1748 1143 m 3 X s 1748 1148 m 3 X s 1748 1153 m 3 X s 1745 1158 m 6
 X s 1748 1163 m 3 X s 1748 1168 m 3 X s 1748 1173 m 3 X s 1748 1177 m 3 X s 1745 1182 m 6 X s 1748 1187 m 3 X s 1748 1192 m 3 X s 1748 1197 m 3 X s 1748 1202 m 3 X s 1745 1207 m 6 X s 1748 1212 m 3 X s 1748 1216 m 3 X s 1748 1221 m 3 X s 1748 1226 m
 3 X s 1745 1231 m 6 X s 1748 1236 m 3 X s 1748 1241 m 3 X s 1748 1246 m 3 X s 1748 1251 m 3 X s 1745 1256 m 6 X s 1748 1260 m 3 X s 1748 1265 m 3 X s 1748 1270 m 3 X s 1748 1275 m 3 X s 1745 1280 m 6 X s 1745 1060 m 6 X s 1748 1055 m 3 X s 1745 1280
 m 6 X s 1501 1129 1557 1198 1670 1210 1726 1164 4 { m21} R 1501 1140 m 44 Y s 1495 1184 m 12 X s 1501 1117 m -43 Y s 1495 1074 m 12 X s 1557 1209 m 44 Y s 1551 1253 m 12 X s 1557 1187 m -44 Y s 1551 1143 m 12 X s 1670 1221 m 44 Y s 1664 1265 m 11 X
 s 1670 1198 m -43 Y s 1664 1155 m 11 X s 1726 1176 m 43 Y s 1720 1219 m 12 X s 1726 1153 m -44 Y s 1720 1109 m 12 X s 9 lw 0.95 0.95 0.95 c black 1446 1255 m 3 -1 d 3 -1 d 3 -1 d 3 -1 d 3 -1 d 3 -1 d 3 -1 d 4 -1 d 3 -1 d 3 -1 d 3 -1 d 3 -1 d 3 -2 d
 3 -1 d 3 -1 d 3 -1 d 3 -1 d 3 -1 d 3 -1 d 3 -1 d 3 -1 d 3 -1 d 3 -1 d 4 -1 d 3 -1 d 3 -1 d 3 -1 d 3 -1 d 3 -1 d 3 -1 d 3 -1 d 3 -1 d 3 -1 d 3 -1 d 3 -1 d 3 -2 d 3 -1 d 3 -1 d 3 -1 d 4 -1 d 3 -1 d 3 -1 d 3 -1 d 3 -1 d 3 -1 d 3 -1 d 3 -1 d 3 -1 d 3 -1
 d s 1596 1204 m 3 -1 d 3 -1 d 3 -1 d 3 -1 d 3 -1 d 3 -1 d 4 -1 d 3 -1 d 3 -1 d 3 -1 d 3 -2 d 3 -1 d 3 -1 d 3 -1 d 3 -1 d 3 -1 d 3 -1 d 3 -1 d 3 -1 d 3 -1 d 3 -1 d 3 -1 d 3 -1 d 4 -1 d 3 -1 d 3 -1 d 3 -1 d 3 -1 d 3 -1 d 3 -1 d 3 -1 d 3 -1 d 3 -1 d 3
 -2 d 3 -1 d 3 -1 d 3 -1 d 3 -1 d 3 -1 d 4 -1 d 3 -1 d 3 -1 d 3 -1 d 3 -1 d 3 -1 d 3 -1 d 3 -1 d 3 -1 d 3 -1 d s 1746 1153 m 3 -1 d s 0.49 0.6 0.82 c black 0.49 0.6 0.82 c
 gsave  408 305 1383 1009 C 1504.21 1293.4 t 0 r /Helvetica-Bold findfont 25.6831 sf 0 0 m (1.5 < E < 2.0 GeV) show NC gr  0.52 0.76 0.64 c black 0.52 0.76 0.64 c
 gsave  408 305 1383 1009 C 1484.27 1256.36 t 0 r /Helvetica-Bold findfont 25.6831 sf 0 0 m 
 228 214 200 193 178 171 156 149 134 126 119 105 91 77 69 55 47 40 25 17
(A = \2550.002, p = 1.000) K NC gr  1 0.6 1 c black 1 0.6 1 c
 gsave  408 305 1383 1009 C 1789.1 1122.46 t 90 r /Helvetica-Bold findfont 28.5368 sf 0 0 m (/dof=1.4) show NC gr  black 1 0.6 1 c
 gsave  408 305 1383 1009 C 1777.71 1111.07 t 90 r /Helvetica-Bold findfont 19.9758 sf 0 0 m (2) show NC gr  black 1 0.6 1 c
 gsave  408 305 1383 1009 C 1789.1 1093.97 t 90 r /Symbol findfont 28.5368 sf 0 0 m (c) show NC gr  black 3 lw 1 1 1 c 408 305 1837 1009 bf black 1 1 1 c black 306 229 1898 1055 bl 306 229 1898 1055 bl 1898 1055 m 306 X s 1898 1059 m -4 Y s 2011 1059
 m -4 Y s 2123 1059 m -4 Y s 2123 1059 m -4 Y s
 gsave  408 305 1837 1009 C 1888.81 1034.15 t 0 r /Helvetica findfont 22.8295 sf 0 0 m (0) show NC gr 
 gsave  408 305 1837 1009 C 2002.77 1034.15 t 0 r /Helvetica findfont 22.8295 sf 0 0 m (1) show NC gr 
 gsave  408 305 1837 1009 C 2113.88 1034.15 t 0 r /Helvetica findfont 22.8295 sf 0 0 m (2) show NC gr  1898 1284 m 306 X s 1898 1280 m 4 Y s 2011 1280 m 4 Y s 2123 1280 m 4 Y s 2123 1280 m 4 Y s 1898 1055 m 229 Y s 1904 1085 m -6 X s 1901 1095 m -3 X
 s 1901 1105 m -3 X s 1901 1115 m -3 X s 1904 1125 m -6 X s 1901 1135 m -3 X s 1901 1146 m -3 X s 1901 1156 m -3 X s 1904 1166 m -6 X s 1901 1176 m -3 X s 1901 1186 m -3 X s 1901 1197 m -3 X s 1904 1207 m -6 X s 1901 1217 m -3 X s 1901 1227 m -3 X s
 1901 1237 m -3 X s 1904 1247 m -6 X s 1904 1085 m -6 X s 1901 1074 m -3 X s 1901 1064 m -3 X s 1904 1247 m -6 X s 1901 1258 m -3 X s 1901 1268 m -3 X s 1901 1278 m -3 X s
 gsave  408 305 1837 1009 C 1828.99 1076.88 t 0 r /Helvetica findfont 22.8295 sf 0 0 m (\2550.004) show NC gr 
 gsave  408 305 1837 1009 C 1828.99 1119.61 t 0 r /Helvetica findfont 22.8295 sf 0 0 m (\2550.002) show NC gr 
 gsave  408 305 1837 1009 C 1880.27 1159.5 t 0 r /Helvetica findfont 22.8295 sf 0 0 m (0) show NC gr 
 gsave  408 305 1837 1009 C 1837.53 1199.38 t 0 r /Helvetica findfont 22.8295 sf 0 0 m (0.002) show NC gr 
 gsave  408 305 1837 1009 C 1837.53 1239.27 t 0 r /Helvetica findfont 22.8295 sf 0 0 m (0.004) show NC gr  2204 1055 m 229 Y s 2199 1085 m 5 X s 2201 1095 m 3 X s 2201 1105 m 3 X s 2201 1115 m 3 X s 2199 1125 m 5 X s 2201 1135 m 3 X s 2201 1146 m 3 X
 s 2201 1156 m 3 X s 2199 1166 m 5 X s 2201 1176 m 3 X s 2201 1186 m 3 X s 2201 1197 m 3 X s 2199 1207 m 5 X s 2201 1217 m 3 X s 2201 1227 m 3 X s 2201 1237 m 3 X s 2199 1247 m 5 X s 2199 1085 m 5 X s 2201 1074 m 3 X s 2201 1064 m 3 X s 2199 1247 m 5
 X s 2201 1258 m 3 X s 2201 1268 m 3 X s 2201 1278 m 3 X s 1954 1142 2011 1156 2123 1121 2179 1217 4 { m21} R 1954 1153 m 36 Y s 1949 1189 m 11 X s 1954 1131 m -36 Y s 1949 1095 m 11 X s 2011 1167 m 36 Y s 2005 1203 m 11 X s 2011 1145 m -36 Y s 2005
 1109 m 11 X s 2123 1132 m 36 Y s 2117 1168 m 12 X s 2123 1109 m -35 Y s 2117 1074 m 12 X s 2179 1229 m 36 Y s 2174 1265 m 11 X s 2179 1206 m -36 Y s 2174 1170 m 11 X s 1 0 0 c 9 lw 0.95 0.95 0.95 c black 1 0 0 c 1900 1166 m 49 X 3 1 d 36 X 3 1 d 25
 X 3 1 d 18 X 3 1 d 10 X s 2050 1170 m 9 X 3 1 d 12 X 3 1 d 12 X 3 1 d 13 X 3 1 d 9 X 3 1 d 9 X 3 1 d 9 X 4 1 d 9 X 3 1 d 9 X 3 1 d 6 X 3 1 d 9 X 3 1 d 7 X 3 1 d s 2200 1182 m 3 X s 0.49 0.6 0.82 c black 0.49 0.6 0.82 c
 gsave  408 305 1837 1009 C 1957.19 1293.4 t 0 r /Helvetica-Bold findfont 25.6831 sf 0 0 m (2.0 < E < 2.5 GeV) show NC gr  0.52 0.76 0.64 c black 0.52 0.76 0.64 c
 gsave  408 305 1837 1009 C 1942.94 1256.36 t 0 r /Helvetica-Bold findfont 25.6831 sf 0 0 m 
 220 206 192 185 170 163 148 141 125 118 111 97 83 69 61 47 40 25 18
(A = 0.000, p = 2.000) K NC gr  1 0.6 1 c black 1 0.6 1 c
 gsave  408 305 1837 1009 C 2242.08 1122.46 t 90 r /Helvetica-Bold findfont 28.5368 sf 0 0 m (/dof=0.8) show NC gr  black 1 0.6 1 c
 gsave  408 305 1837 1009 C 2230.68 1111.07 t 90 r /Helvetica-Bold findfont 19.9758 sf 0 0 m (2) show NC gr  black 1 0.6 1 c
 gsave  408 305 1837 1009 C 2242.08 1093.97 t 90 r /Symbol findfont 28.5368 sf 0 0 m (c) show NC gr  black 3 lw 1 1 1 c 408 305 23 677 bf black 1 1 1 c black 306 229 84 723 bl 306 229 84 723 bl 84 723 m 306 X s 84 727 m -4 Y s 196 727 m -4 Y s 309
 727 m -4 Y s 309 727 m -4 Y s
 gsave  408 305 23 677 C 74.0711 703.676 t 0 r /Helvetica findfont 22.8295 sf 0 0 m (0) show NC gr 
 gsave  408 305 23 677 C 188.027 703.676 t 0 r /Helvetica findfont 22.8295 sf 0 0 m (1) show NC gr 
 gsave  408 305 23 677 C 299.133 703.676 t 0 r /Helvetica findfont 22.8295 sf 0 0 m (2) show NC gr  84 952 m 306 X s 84 948 m 4 Y s 196 948 m 4 Y s 309 948 m 4 Y s 309 948 m 4 Y s 84 723 m 229 Y s 89 731 m -5 X s 87 740 m -3 X s 87 748 m -3 X s 87
 756 m -3 X s 89 765 m -5 X s 87 773 m -3 X s 87 781 m -3 X s 87 790 m -3 X s 89 798 m -5 X s 87 806 m -3 X s 87 815 m -3 X s 87 823 m -3 X s 89 831 m -5 X s 87 840 m -3 X s 87 848 m -3 X s 87 856 m -3 X s 89 864 m -5 X s 87 873 m -3 X s 87 881 m -3
 X s 87 889 m -3 X s 89 898 m -5 X s 87 906 m -3 X s 87 914 m -3 X s 87 923 m -3 X s 89 931 m -5 X s 89 731 m -5 X s 87 723 m -3 X s 89 931 m -5 X s 87 939 m -3 X s 87 948 m -3 X s
 gsave  408 305 23 677 C 14.2445 723.618 t 0 r /Helvetica findfont 22.8295 sf 0 0 m (\2550.006) show NC gr 
 gsave  408 305 23 677 C 14.2445 757.805 t 0 r /Helvetica findfont 22.8295 sf 0 0 m (\2550.004) show NC gr 
 gsave  408 305 23 677 C 14.2445 791.991 t 0 r /Helvetica findfont 22.8295 sf 0 0 m (\2550.002) show NC gr 
 gsave  408 305 23 677 C 65.5245 823.329 t 0 r /Helvetica findfont 22.8295 sf 0 0 m (0) show NC gr 
 gsave  408 305 23 677 C 22.7911 857.516 t 0 r /Helvetica findfont 22.8295 sf 0 0 m (0.002) show NC gr 
 gsave  408 305 23 677 C 22.7911 891.703 t 0 r /Helvetica findfont 22.8295 sf 0 0 m (0.004) show NC gr 
 gsave  408 305 23 677 C 22.7911 923.04 t 0 r /Helvetica findfont 22.8295 sf 0 0 m (0.006) show NC gr  390 723 m 229 Y s 385 731 m 5 X s 387 740 m 3 X s 387 748 m 3 X s 387 756 m 3 X s 385 765 m 5 X s 387 773 m 3 X s 387 781 m 3 X s 387 790 m 3 X s
 385 798 m 5 X s 387 806 m 3 X s 387 815 m 3 X s 387 823 m 3 X s 385 831 m 5 X s 387 840 m 3 X s 387 848 m 3 X s 387 856 m 3 X s 385 864 m 5 X s 387 873 m 3 X s 387 881 m 3 X s 387 889 m 3 X s 385 898 m 5 X s 387 906 m 3 X s 387 914 m 3 X s 387 923 m
 3 X s 385 931 m 5 X s 385 731 m 5 X s 387 723 m 3 X s 385 931 m 5 X s 387 939 m 3 X s 387 948 m 3 X s /w 22 def /w2 {w 2 div} def /w3 {w 3 div} def 140 892 196 782 309 783 365 841 4 { m21} R 140 903 m 30 Y s 134 933 m 12 X s 140 881 m -30 Y s 134
 851 m 12 X s 196 793 m 29 Y s 191 822 m 11 X s 196 771 m -29 Y s 191 742 m 11 X s 309 794 m 29 Y s 303 823 m 12 X s 309 771 m -29 Y s 303 742 m 12 X s 365 852 m 29 Y s 360 881 m 11 X s 365 829 m -29 Y s 360 800 m 11 X s 9 lw 0.95 0.95 0.95 c black
 85 831 m 7 X 3 -1 d 12 X 3 -1 d 9 X 3 -1 d 12 X 3 -1 d 10 X 3 -1 d 12 X 3 -1 d 9 X 3 -1 d 13 X 3 -1 d 9 X 3 -1 d 12 X 3 -1 d 9 X 3 -1 d 3 X s 235 820 m 10 X 3 -1 d 9 X 3 -1 d 12 X 3 -1 d 9 X 3 -1 d 13 X 3 -1 d 9 X 3 -1 d 9 X 3 -1 d 13 X 3 -1 d 9 X 3
 -1 d 12 X 3 -1 d 9 X 3 -1 d 3 X s 385 809 m 4 X s 0.49 0.6 0.82 c black 0.49 0.6 0.82 c
 gsave  408 305 23 677 C 142.445 960.076 t 0 r /Helvetica-Bold findfont 25.6831 sf 0 0 m (2.5 < E < 3.0 GeV) show NC gr  0.52 0.76 0.64 c black 0.52 0.76 0.64 c
 gsave  408 305 23 677 C 122.502 923.04 t 0 r /Helvetica-Bold findfont 25.6831 sf 0 0 m 
 228 214 200 193 178 171 156 149 134 126 119 105 91 77 69 55 47 39 25 17
(A = \2550.000, p = 1.000) K NC gr  1 0.6 1 c black 1 0.6 1 c
 gsave  408 305 23 677 C 427.334 791.991 t 90 r /Helvetica-Bold findfont 28.5368 sf 0 0 m (/dof=1.6) show NC gr  black 1 0.6 1 c
 gsave  408 305 23 677 C 415.938 780.596 t 90 r /Helvetica-Bold findfont 19.9758 sf 0 0 m (2) show NC gr  black 1 0.6 1 c
 gsave  408 305 23 677 C 427.334 763.503 t 90 r /Symbol findfont 28.5368 sf 0 0 m (c) show NC gr  black 3 lw 1 1 1 c 408 305 476 677 bf black 1 1 1 c black 307 229 537 723 bl 307 229 537 723 bl 537 723 m 307 X s 537 727 m -4 Y s 650 727 m -4 Y s 763
 727 m -4 Y s 763 727 m -4 Y s
 gsave  408 305 476 677 C 527.045 703.676 t 0 r /Helvetica findfont 22.8295 sf 0 0 m (0) show NC gr 
 gsave  408 305 476 677 C 643.849 703.676 t 0 r /Helvetica findfont 22.8295 sf 0 0 m (1) show NC gr 
 gsave  408 305 476 677 C 752.107 703.676 t 0 r /Helvetica findfont 22.8295 sf 0 0 m (2) show NC gr  537 952 m 307 X s 537 948 m 4 Y s 650 948 m 4 Y s 763 948 m 4 Y s 763 948 m 4 Y s 537 723 m 229 Y s 543 728 m -6 X s 540 737 m -3 X s 540 746 m -3 X
 s 540 755 m -3 X s 543 764 m -6 X s 540 772 m -3 X s 540 781 m -3 X s 540 790 m -3 X s 543 799 m -6 X s 540 808 m -3 X s 540 816 m -3 X s 540 825 m -3 X s 543 834 m -6 X s 540 843 m -3 X s 540 851 m -3 X s 540 860 m -3 X s 543 869 m -6 X s 540 878 m
 -3 X s 540 887 m -3 X s 540 895 m -3 X s 543 904 m -6 X s 540 913 m -3 X s 540 922 m -3 X s 540 930 m -3 X s 543 939 m -6 X s 543 728 m -6 X s 543 939 m -6 X s 540 948 m -3 X s
 gsave  408 305 476 677 C 467.218 720.769 t 0 r /Helvetica findfont 22.8295 sf 0 0 m (\2550.006) show NC gr 
 gsave  408 305 476 677 C 467.218 757.805 t 0 r /Helvetica findfont 22.8295 sf 0 0 m (\2550.004) show NC gr 
 gsave  408 305 476 677 C 467.218 791.991 t 0 r /Helvetica findfont 22.8295 sf 0 0 m (\2550.002) show NC gr 
 gsave  408 305 476 677 C 518.498 826.178 t 0 r /Helvetica findfont 22.8295 sf 0 0 m (0) show NC gr 
 gsave  408 305 476 677 C 475.765 863.214 t 0 r /Helvetica findfont 22.8295 sf 0 0 m (0.002) show NC gr 
 gsave  408 305 476 677 C 475.765 897.4 t 0 r /Helvetica findfont 22.8295 sf 0 0 m (0.004) show NC gr 
 gsave  408 305 476 677 C 475.765 931.587 t 0 r /Helvetica findfont 22.8295 sf 0 0 m (0.006) show NC gr  844 723 m 229 Y s 838 728 m 6 X s 841 737 m 3 X s 841 746 m 3 X s 841 755 m 3 X s 838 764 m 6 X s 841 772 m 3 X s 841 781 m 3 X s 841 790 m 3 X s
 838 799 m 6 X s 841 808 m 3 X s 841 816 m 3 X s 841 825 m 3 X s 838 834 m 6 X s 841 843 m 3 X s 841 851 m 3 X s 841 860 m 3 X s 838 869 m 6 X s 841 878 m 3 X s 841 887 m 3 X s 841 895 m 3 X s 838 904 m 6 X s 841 913 m 3 X s 841 922 m 3 X s 841 930 m
 3 X s 838 939 m 6 X s 838 728 m 6 X s 838 939 m 6 X s 841 948 m 3 X s /w 23 def /w2 {w 2 div} def /w3 {w 3 div} def 594 809 650 788 763 801 819 886 4 { m21} R 594 820 m 35 Y s 588 855 m 11 X s 594 797 m -35 Y s 588 762 m 11 X s 650 800 m 35 Y s 644
 835 m 12 X s 650 777 m -35 Y s 644 742 m 12 X s 763 813 m 35 Y s 757 848 m 11 X s 763 790 m -35 Y s 757 755 m 11 X s 819 897 m 36 Y s 813 933 m 12 X s 819 874 m -35 Y s 813 839 m 12 X s 1 0 0 c 9 lw 0.95 0.95 0.95 c black 1 0 0 c 539 834 m 55 X 3 1
 d 31 X 3 1 d 21 X 3 1 d 19 X 3 1 d 12 X s 689 838 m 3 X 3 1 d 12 X 3 1 d 13 X 3 1 d 9 X 3 1 d 9 X 3 1 d 9 X 3 1 d 10 X 3 1 d 6 X 3 1 d 9 X 3 1 d 6 X 3 1 d 6 X 4 1 d 6 X 3 1 d 6 X 3 1 d 6 X s 839 851 m 3 1 d s 0.49 0.6 0.82 c black 0.49 0.6 0.82 c
 gsave  408 305 476 677 C 595.418 960.076 t 0 r /Helvetica-Bold findfont 25.6831 sf 0 0 m (3.0 < E < 3.5 GeV) show NC gr  0.52 0.76 0.64 c black 0.52 0.76 0.64 c
 gsave  408 305 476 677 C 581.174 923.04 t 0 r /Helvetica-Bold findfont 25.6831 sf 0 0 m 
 220 206 192 185 170 163 148 141 125 118 111 97 83 68 61 47 40 25 18
(A = 0.000, p = 2.000) K NC gr  1 0.6 1 c black 1 0.6 1 c
 gsave  408 305 476 677 C 883.156 791.991 t 90 r /Helvetica-Bold findfont 28.5368 sf 0 0 m (/dof=0.9) show NC gr  black 1 0.6 1 c
 gsave  408 305 476 677 C 871.76 780.596 t 90 r /Helvetica-Bold findfont 19.9758 sf 0 0 m (2) show NC gr  black 1 0.6 1 c
 gsave  408 305 476 677 C 883.156 763.503 t 90 r /Symbol findfont 28.5368 sf 0 0 m (c) show NC gr  black 3 lw 1 1 1 c 408 305 930 677 bf black 1 1 1 c black 306 229 991 723 bl 306 229 991 723 bl 991 723 m 306 X s 991 727 m -4 Y s 1104 727 m -4 Y s
 1216 727 m -4 Y s 1216 727 m -4 Y s
 gsave  408 305 930 677 C 980.018 703.676 t 0 r /Helvetica findfont 22.8295 sf 0 0 m (0) show NC gr 
 gsave  408 305 930 677 C 1096.82 703.676 t 0 r /Helvetica findfont 22.8295 sf 0 0 m (1) show NC gr 
 gsave  408 305 930 677 C 1205.08 703.676 t 0 r /Helvetica findfont 22.8295 sf 0 0 m (2) show NC gr  991 952 m 306 X s 991 948 m 4 Y s 1104 948 m 4 Y s 1216 948 m 4 Y s 1216 948 m 4 Y s 991 723 m 229 Y s 997 732 m -6 X s 994 739 m -3 X s 994 746 m -3
 X s 994 753 m -3 X s 997 760 m -6 X s 994 767 m -3 X s 994 774 m -3 X s 994 781 m -3 X s 997 788 m -6 X s 994 795 m -3 X s 994 802 m -3 X s 994 809 m -3 X s 997 816 m -6 X s 994 823 m -3 X s 994 830 m -3 X s 994 837 m -3 X s 997 844 m -6 X s 994 851
 m -3 X s 994 858 m -3 X s 994 865 m -3 X s 997 872 m -6 X s 994 879 m -3 X s 994 886 m -3 X s 994 893 m -3 X s 997 900 m -6 X s 994 908 m -3 X s 994 915 m -3 X s 994 922 m -3 X s 997 929 m -6 X s 997 732 m -6 X s 994 725 m -3 X s 997 929 m -6 X s
 994 936 m -3 X s 994 943 m -3 X s 994 950 m -3 X s
 gsave  408 305 930 677 C 923.04 723.618 t 0 r /Helvetica findfont 22.8295 sf 0 0 m (\2550.012) show NC gr 
 gsave  408 305 930 677 C 940.134 752.107 t 0 r /Helvetica findfont 22.8295 sf 0 0 m (\2550.01) show NC gr 
 gsave  408 305 930 677 C 923.04 780.596 t 0 r /Helvetica findfont 22.8295 sf 0 0 m (\2550.008) show NC gr 
 gsave  408 305 930 677 C 923.04 809.085 t 0 r /Helvetica findfont 22.8295 sf 0 0 m (\2550.006) show NC gr 
 gsave  408 305 930 677 C 923.04 837.574 t 0 r /Helvetica findfont 22.8295 sf 0 0 m (\2550.004) show NC gr 
 gsave  408 305 930 677 C 923.04 866.063 t 0 r /Helvetica findfont 22.8295 sf 0 0 m (\2550.002) show NC gr 
 gsave  408 305 930 677 C 974.32 894.552 t 0 r /Helvetica findfont 22.8295 sf 0 0 m (0) show NC gr 
 gsave  408 305 930 677 C 931.587 920.192 t 0 r /Helvetica findfont 22.8295 sf 0 0 m (0.002) show NC gr  1297 723 m 229 Y s 1292 732 m 5 X s 1294 739 m 3 X s 1294 746 m 3 X s 1294 753 m 3 X s 1292 760 m 5 X s 1294 767 m 3 X s 1294 774 m 3 X s 1294
 781 m 3 X s 1292 788 m 5 X s 1294 795 m 3 X s 1294 802 m 3 X s 1294 809 m 3 X s 1292 816 m 5 X s 1294 823 m 3 X s 1294 830 m 3 X s 1294 837 m 3 X s 1292 844 m 5 X s 1294 851 m 3 X s 1294 858 m 3 X s 1294 865 m 3 X s 1292 872 m 5 X s 1294 879 m 3 X s
 1294 886 m 3 X s 1294 893 m 3 X s 1292 900 m 5 X s 1294 908 m 3 X s 1294 915 m 3 X s 1294 922 m 3 X s 1292 929 m 5 X s 1292 732 m 5 X s 1294 725 m 3 X s 1292 929 m 5 X s 1294 936 m 3 X s 1294 943 m 3 X s 1294 950 m 3 X s 1047 785 1104 827 1216 803
 1272 889 4 { m21} R 1047 797 m 31 Y s 1042 828 m 11 X s 1047 774 m -32 Y s 1042 742 m 11 X s 1104 839 m 32 Y s 1098 871 m 11 X s 1104 816 m -32 Y s 1098 784 m 11 X s 1216 814 m 32 Y s 1210 846 m 12 X s 1216 791 m -32 Y s 1210 759 m 12 X s 1272 901 m
 32 Y s 1267 933 m 11 X s 1272 878 m -32 Y s 1267 846 m 11 X s 9 lw 0.95 0.95 0.95 c black 993 900 m 3 -1 d 3 -1 d 3 X 3 -1 d 3 -1 d 3 -1 d 3 -1 d 3 -1 d 3 -1 d 3 X 3 -1 d 3 -1 d 3 -1 d 3 -1 d 3 -1 d 4 X 3 -1 d 3 -1 d 3 -1 d 3 -1 d 3 -1 d 3 X 3 -1 d
 3 -1 d 3 -1 d 3 -1 d 3 -1 d 3 X 3 -1 d 3 -1 d 3 -1 d 3 -1 d 4 -1 d 3 -1 d 3 X 3 -1 d 3 -1 d 3 -1 d 3 -1 d 3 -1 d 3 X 3 -1 d 3 -1 d 3 -1 d 3 -1 d 3 -1 d 3 X 3 -1 d 4 -1 d s 1143 859 m 3 -1 d 3 -1 d 3 -1 d 3 -1 d 3 X 3 -1 d 3 -1 d 3 -1 d 3 -1 d 3 -1 d
 3 X 3 -1 d 3 -1 d 3 -1 d 3 -1 d 4 -1 d 3 X 3 -1 d 3 -1 d 3 -1 d 3 -1 d 3 -1 d 3 X 3 -1 d 3 -1 d 3 -1 d 3 -1 d 3 -1 d 3 -1 d 3 X 3 -1 d 3 -1 d 4 -1 d 3 -1 d 3 -1 d 3 X 3 -1 d 3 -1 d 3 -1 d 3 -1 d 3 -1 d 3 X 3 -1 d 3 -1 d 3 -1 d 3 -1 d 3 -1 d 3 -1 d 4
 X s 1293 818 m 3 -1 d s 0.49 0.6 0.82 c black 0.49 0.6 0.82 c
 gsave  408 305 930 677 C 1051.24 960.076 t 0 r /Helvetica-Bold findfont 25.6831 sf 0 0 m (3.5 < E < 4.0 GeV) show NC gr  0.52 0.76 0.64 c black 0.52 0.76 0.64 c
 gsave  408 305 930 677 C 1031.3 923.04 t 0 r /Helvetica-Bold findfont 25.6831 sf 0 0 m 
 228 214 200 193 178 171 156 149 133 126 119 105 91 77 69 55 47 39 25 17
(A = \2550.002, p = 1.000) K NC gr  1 0.6 1 c black 1 0.6 1 c
 gsave  408 305 930 677 C 1336.13 791.991 t 90 r /Helvetica-Bold findfont 28.5368 sf 0 0 m (/dof=3.1) show NC gr  black 1 0.6 1 c
 gsave  408 305 930 677 C 1324.73 780.596 t 90 r /Helvetica-Bold findfont 19.9758 sf 0 0 m (2) show NC gr  black 1 0.6 1 c
 gsave  408 305 930 677 C 1336.13 763.503 t 90 r /Symbol findfont 28.5368 sf 0 0 m (c) show NC gr  black 3 lw 1 1 1 c 408 305 1383 677 bf black 1 1 1 c black 306 229 1445 723 bl 306 229 1445 723 bl 1445 723 m 306 X s 1445 727 m -4 Y s 1557 727 m -4 Y
 s 1670 727 m -4 Y s 1670 727 m -4 Y s
 gsave  408 305 1383 677 C 1435.84 703.676 t 0 r /Helvetica findfont 22.8295 sf 0 0 m (0) show NC gr 
 gsave  408 305 1383 677 C 1549.8 703.676 t 0 r /Helvetica findfont 22.8295 sf 0 0 m (1) show NC gr 
 gsave  408 305 1383 677 C 1660.9 703.676 t 0 r /Helvetica findfont 22.8295 sf 0 0 m (2) show NC gr  1445 952 m 306 X s 1445 948 m 4 Y s 1557 948 m 4 Y s 1670 948 m 4 Y s 1670 948 m 4 Y s 1445 723 m 229 Y s 1450 738 m -5 X s 1447 744 m -2 X s 1447
 750 m -2 X s 1447 755 m -2 X s 1450 761 m -5 X s 1447 766 m -2 X s 1447 772 m -2 X s 1447 777 m -2 X s 1450 783 m -5 X s 1447 788 m -2 X s 1447 794 m -2 X s 1447 800 m -2 X s 1450 805 m -5 X s 1447 811 m -2 X s 1447 816 m -2 X s 1447 822 m -2 X s
 1450 827 m -5 X s 1447 833 m -2 X s 1447 838 m -2 X s 1447 844 m -2 X s 1450 849 m -5 X s 1447 855 m -2 X s 1447 861 m -2 X s 1447 866 m -2 X s 1450 872 m -5 X s 1447 877 m -2 X s 1447 883 m -2 X s 1447 888 m -2 X s 1450 894 m -5 X s 1447 899 m -2 X
 s 1447 905 m -2 X s 1447 911 m -2 X s 1450 916 m -5 X s 1447 922 m -2 X s 1447 927 m -2 X s 1447 933 m -2 X s 1450 938 m -5 X s 1450 738 m -5 X s 1447 733 m -2 X s 1447 727 m -2 X s 1450 938 m -5 X s 1447 944 m -2 X s 1447 949 m -2 X s
 gsave  408 305 1383 677 C 1376.01 732.165 t 0 r /Helvetica findfont 22.8295 sf 0 0 m (\2550.008) show NC gr 
 gsave  408 305 1383 677 C 1376.01 752.107 t 0 r /Helvetica findfont 22.8295 sf 0 0 m (\2550.006) show NC gr 
 gsave  408 305 1383 677 C 1376.01 774.898 t 0 r /Helvetica findfont 22.8295 sf 0 0 m (\2550.004) show NC gr 
 gsave  408 305 1383 677 C 1376.01 797.689 t 0 r /Helvetica findfont 22.8295 sf 0 0 m (\2550.002) show NC gr 
 gsave  408 305 1383 677 C 1427.29 820.48 t 0 r /Helvetica findfont 22.8295 sf 0 0 m (0) show NC gr 
 gsave  408 305 1383 677 C 1384.56 843.271 t 0 r /Helvetica findfont 22.8295 sf 0 0 m (0.002) show NC gr 
 gsave  408 305 1383 677 C 1384.56 863.214 t 0 r /Helvetica findfont 22.8295 sf 0 0 m (0.004) show NC gr 
 gsave  408 305 1383 677 C 1384.56 886.005 t 0 r /Helvetica findfont 22.8295 sf 0 0 m (0.006) show NC gr 
 gsave  408 305 1383 677 C 1384.56 908.796 t 0 r /Helvetica findfont 22.8295 sf 0 0 m (0.008) show NC gr 
 gsave  408 305 1383 677 C 1398.81 931.587 t 0 r /Helvetica findfont 22.8295 sf 0 0 m (0.01) show NC gr  1751 723 m 229 Y s 1745 738 m 6 X s 1748 744 m 3 X s 1748 750 m 3 X s 1748 755 m 3 X s 1745 761 m 6 X s 1748 766 m 3 X s 1748 772 m 3 X s 1748
 777 m 3 X s 1745 783 m 6 X s 1748 788 m 3 X s 1748 794 m 3 X s 1748 800 m 3 X s 1745 805 m 6 X s 1748 811 m 3 X s 1748 816 m 3 X s 1748 822 m 3 X s 1745 827 m 6 X s 1748 833 m 3 X s 1748 838 m 3 X s 1748 844 m 3 X s 1745 849 m 6 X s 1748 855 m 3 X s
 1748 861 m 3 X s 1748 866 m 3 X s 1745 872 m 6 X s 1748 877 m 3 X s 1748 883 m 3 X s 1748 888 m 3 X s 1745 894 m 6 X s 1748 899 m 3 X s 1748 905 m 3 X s 1748 911 m 3 X s 1745 916 m 6 X s 1748 922 m 3 X s 1748 927 m 3 X s 1748 933 m 3 X s 1745 938 m
 6 X s 1745 738 m 6 X s 1748 733 m 3 X s 1748 727 m 3 X s 1745 938 m 6 X s 1748 944 m 3 X s 1748 949 m 3 X s 1501 889 1557 786 1670 789 1726 838 4 { m21} R 1501 900 m 33 Y s 1495 933 m 12 X s 1501 877 m -32 Y s 1495 845 m 12 X s 1557 797 m 32 Y s
 1551 829 m 12 X s 1557 774 m -32 Y s 1551 742 m 12 X s 1670 800 m 32 Y s 1664 832 m 11 X s 1670 777 m -32 Y s 1664 745 m 11 X s 1726 849 m 33 Y s 1720 882 m 12 X s 1726 826 m -32 Y s 1720 794 m 12 X s 9 lw 0.95 0.95 0.95 c black 1446 827 m 12 X 3 -1
 d 19 X 3 -1 d 15 X 3 -1 d 19 X 3 -1 d 15 X 3 -1 d 18 X 3 -1 d 19 X 3 -1 d 12 X s 1596 820 m 3 X 3 -1 d 19 X 3 -1 d 15 X 3 -1 d 18 X 3 -1 d 16 X 3 -1 d 18 X 3 -1 d 19 X 3 -1 d 15 X 3 -1 d 3 X s 1746 812 m 3 X s 0.49 0.6 0.82 c black 0.49 0.6 0.82 c
 gsave  408 305 1383 677 C 1504.21 960.076 t 0 r /Helvetica-Bold findfont 25.6831 sf 0 0 m (4.0 < E < 4.5 GeV) show NC gr  0.52 0.76 0.64 c black 0.52 0.76 0.64 c
 gsave  408 305 1383 677 C 1484.27 923.04 t 0 r /Helvetica-Bold findfont 25.6831 sf 0 0 m 
 228 214 200 193 178 171 156 149 134 126 119 105 91 77 69 55 47 40 25 17
(A = \2550.001, p = 1.000) K NC gr  1 0.6 1 c black 1 0.6 1 c
 gsave  408 305 1383 677 C 1789.1 791.991 t 90 r /Helvetica-Bold findfont 28.5368 sf 0 0 m (/dof=1.2) show NC gr  black 1 0.6 1 c
 gsave  408 305 1383 677 C 1777.71 780.596 t 90 r /Helvetica-Bold findfont 19.9758 sf 0 0 m (2) show NC gr  black 1 0.6 1 c
 gsave  408 305 1383 677 C 1789.1 763.503 t 90 r /Symbol findfont 28.5368 sf 0 0 m (c) show NC gr  black 3 lw 1 1 1 c 408 305 1837 677 bf black 1 1 1 c black 306 229 1898 723 bl 306 229 1898 723 bl 1898 723 m 306 X s 1898 727 m -4 Y s 2011 727 m -4 Y
 s 2123 727 m -4 Y s 2123 727 m -4 Y s
 gsave  408 305 1837 677 C 1888.81 703.676 t 0 r /Helvetica findfont 22.8295 sf 0 0 m (0) show NC gr 
 gsave  408 305 1837 677 C 2002.77 703.676 t 0 r /Helvetica findfont 22.8295 sf 0 0 m (1) show NC gr 
 gsave  408 305 1837 677 C 2113.88 703.676 t 0 r /Helvetica findfont 22.8295 sf 0 0 m (2) show NC gr  1898 952 m 306 X s 1898 948 m 4 Y s 2011 948 m 4 Y s 2123 948 m 4 Y s 2123 948 m 4 Y s 1898 723 m 229 Y s 1904 767 m -6 X s 1901 776 m -3 X s 1901
 786 m -3 X s 1901 795 m -3 X s 1901 804 m -3 X s 1904 813 m -6 X s 1901 822 m -3 X s 1901 832 m -3 X s 1901 841 m -3 X s 1901 850 m -3 X s 1904 859 m -6 X s 1901 869 m -3 X s 1901 878 m -3 X s 1901 887 m -3 X s 1901 896 m -3 X s 1904 905 m -6 X s
 1901 915 m -3 X s 1901 924 m -3 X s 1901 933 m -3 X s 1901 942 m -3 X s 1904 951 m -6 X s 1904 767 m -6 X s 1901 758 m -3 X s 1901 749 m -3 X s 1901 740 m -3 X s 1901 730 m -3 X s 1904 951 m -6 X s
 gsave  408 305 1837 677 C 1828.99 760.654 t 0 r /Helvetica findfont 22.8295 sf 0 0 m (\2550.005) show NC gr 
 gsave  408 305 1837 677 C 1880.27 806.236 t 0 r /Helvetica findfont 22.8295 sf 0 0 m (0) show NC gr 
 gsave  408 305 1837 677 C 1837.53 851.818 t 0 r /Helvetica findfont 22.8295 sf 0 0 m (0.005) show NC gr 
 gsave  408 305 1837 677 C 1851.78 897.4 t 0 r /Helvetica findfont 22.8295 sf 0 0 m (0.01) show NC gr 
 gsave  408 305 1837 677 C 1837.53 942.983 t 0 r /Helvetica findfont 22.8295 sf 0 0 m (0.015) show NC gr  2204 723 m 229 Y s 2199 767 m 5 X s 2201 776 m 3 X s 2201 786 m 3 X s 2201 795 m 3 X s 2201 804 m 3 X s 2199 813 m 5 X s 2201 822 m 3 X s 2201
 832 m 3 X s 2201 841 m 3 X s 2201 850 m 3 X s 2199 859 m 5 X s 2201 869 m 3 X s 2201 878 m 3 X s 2201 887 m 3 X s 2201 896 m 3 X s 2199 905 m 5 X s 2201 915 m 3 X s 2201 924 m 3 X s 2201 933 m 3 X s 2201 942 m 3 X s 2199 951 m 5 X s 2199 767 m 5 X s
 2201 758 m 3 X s 2201 749 m 3 X s 2201 740 m 3 X s 2201 730 m 3 X s 2199 951 m 5 X s 1954 881 2011 885 2123 815 2179 790 4 { m21} R 1954 892 m 37 Y s 1949 929 m 11 X s 1954 869 m -36 Y s 1949 833 m 11 X s 2011 896 m 37 Y s 2005 933 m 11 X s 2011 873
 m -36 Y s 2005 837 m 11 X s 2123 826 m 36 Y s 2117 862 m 12 X s 2123 803 m -36 Y s 2117 767 m 12 X s 2179 801 m 37 Y s 2174 838 m 11 X s 2179 778 m -36 Y s 2174 742 m 11 X s 9 lw 0.95 0.95 0.95 c black 1900 813 m 3 X 3 1 d 24 X 3 1 d 25 X 3 1 d 21 X
 3 1 d 25 X 3 1 d 24 X 3 1 d 10 X s 2050 819 m 12 X 3 1 d 24 X 3 1 d 22 X 3 1 d 24 X 4 1 d 24 X 3 1 d 22 X 3 1 d 3 X s 2200 825 m 3 X s 0.49 0.6 0.82 c black 0.49 0.6 0.82 c
 gsave  408 305 1837 677 C 1957.19 960.076 t 0 r /Helvetica-Bold findfont 25.6831 sf 0 0 m (4.5 < E < 5.0 GeV) show NC gr  0.52 0.76 0.64 c black 0.52 0.76 0.64 c
 gsave  408 305 1837 677 C 1942.94 923.04 t 0 r /Helvetica-Bold findfont 25.6831 sf 0 0 m 
 220 206 192 185 170 163 148 141 125 118 111 97 83 69 61 47 40 25 18
(A = 0.000, p = 1.000) K NC gr  1 0.6 1 c black 1 0.6 1 c
 gsave  408 305 1837 677 C 2242.08 791.991 t 90 r /Helvetica-Bold findfont 28.5368 sf 0 0 m (/dof=1.5) show NC gr  black 1 0.6 1 c
 gsave  408 305 1837 677 C 2230.68 780.596 t 90 r /Helvetica-Bold findfont 19.9758 sf 0 0 m (2) show NC gr  black 1 0.6 1 c
 gsave  408 305 1837 677 C 2242.08 763.503 t 90 r /Symbol findfont 28.5368 sf 0 0 m (c) show NC gr  black 3 lw 1 1 1 c 408 306 23 345 bf black 1 1 1 c black 306 229 84 391 bl 306 229 84 391 bl 84 391 m 306 X s 84 395 m -4 Y s 196 395 m -4 Y s 309 395
 m -4 Y s 309 395 m -4 Y s
 gsave  408 306 23 345 C 74.0711 370.356 t 0 r /Helvetica findfont 22.8295 sf 0 0 m (0) show NC gr 
 gsave  408 306 23 345 C 188.027 370.356 t 0 r /Helvetica findfont 22.8295 sf 0 0 m (1) show NC gr 
 gsave  408 306 23 345 C 299.133 370.356 t 0 r /Helvetica findfont 22.8295 sf 0 0 m (2) show NC gr  84 620 m 306 X s 84 616 m 4 Y s 196 616 m 4 Y s 309 616 m 4 Y s 309 616 m 4 Y s 84 391 m 229 Y s 89 401 m -5 X s 87 406 m -3 X s 87 410 m -3 X s 87
 415 m -3 X s 87 420 m -3 X s 89 424 m -5 X s 87 429 m -3 X s 87 434 m -3 X s 87 439 m -3 X s 87 443 m -3 X s 89 448 m -5 X s 87 453 m -3 X s 87 457 m -3 X s 87 462 m -3 X s 87 467 m -3 X s 89 471 m -5 X s 87 476 m -3 X s 87 481 m -3 X s 87 485 m -3
 X s 87 490 m -3 X s 89 495 m -5 X s 87 499 m -3 X s 87 504 m -3 X s 87 509 m -3 X s 87 514 m -3 X s 89 518 m -5 X s 87 523 m -3 X s 87 528 m -3 X s 87 532 m -3 X s 87 537 m -3 X s 89 542 m -5 X s 87 546 m -3 X s 87 551 m -3 X s 87 556 m -3 X s 87
 560 m -3 X s 89 565 m -5 X s 87 570 m -3 X s 87 574 m -3 X s 87 579 m -3 X s 87 584 m -3 X s 89 588 m -5 X s 87 593 m -3 X s 87 598 m -3 X s 87 603 m -3 X s 87 607 m -3 X s 89 612 m -5 X s 89 401 m -5 X s 87 396 m -3 X s 87 392 m -3 X s 89 612 m -5
 X s 87 617 m -3 X s
 gsave  408 306 23 345 C 14.2445 393.147 t 0 r /Helvetica findfont 22.8295 sf 0 0 m (\2550.025) show NC gr 
 gsave  408 306 23 345 C 28.4889 418.787 t 0 r /Helvetica findfont 22.8295 sf 0 0 m (\2550.02) show NC gr 
 gsave  408 306 23 345 C 14.2445 441.578 t 0 r /Helvetica findfont 22.8295 sf 0 0 m (\2550.015) show NC gr 
 gsave  408 306 23 345 C 31.3378 464.369 t 0 r /Helvetica findfont 22.8295 sf 0 0 m (\2550.01) show NC gr 
 gsave  408 306 23 345 C 14.2445 487.16 t 0 r /Helvetica findfont 22.8295 sf 0 0 m (\2550.005) show NC gr 
 gsave  408 306 23 345 C 65.5245 509.951 t 0 r /Helvetica findfont 22.8295 sf 0 0 m (0) show NC gr 
 gsave  408 306 23 345 C 22.7911 535.591 t 0 r /Helvetica findfont 22.8295 sf 0 0 m (0.005) show NC gr 
 gsave  408 306 23 345 C 37.0356 558.382 t 0 r /Helvetica findfont 22.8295 sf 0 0 m (0.01) show NC gr 
 gsave  408 306 23 345 C 22.7911 581.174 t 0 r /Helvetica findfont 22.8295 sf 0 0 m (0.015) show NC gr 
 gsave  408 306 23 345 C 34.1867 603.965 t 0 r /Helvetica findfont 22.8295 sf 0 0 m (0.02) show NC gr  390 391 m 229 Y s 385 401 m 5 X s 387 406 m 3 X s 387 410 m 3 X s 387 415 m 3 X s 387 420 m 3 X s 385 424 m 5 X s 387 429 m 3 X s 387 434 m 3 X s
 387 439 m 3 X s 387 443 m 3 X s 385 448 m 5 X s 387 453 m 3 X s 387 457 m 3 X s 387 462 m 3 X s 387 467 m 3 X s 385 471 m 5 X s 387 476 m 3 X s 387 481 m 3 X s 387 485 m 3 X s 387 490 m 3 X s 385 495 m 5 X s 387 499 m 3 X s 387 504 m 3 X s 387 509 m
 3 X s 387 514 m 3 X s 385 518 m 5 X s 387 523 m 3 X s 387 528 m 3 X s 387 532 m 3 X s 387 537 m 3 X s 385 542 m 5 X s 387 546 m 3 X s 387 551 m 3 X s 387 556 m 3 X s 387 560 m 3 X s 385 565 m 5 X s 387 570 m 3 X s 387 574 m 3 X s 387 579 m 3 X s 387
 584 m 3 X s 385 588 m 5 X s 387 593 m 3 X s 387 598 m 3 X s 387 603 m 3 X s 387 607 m 3 X s 385 612 m 5 X s 385 401 m 5 X s 387 396 m 3 X s 387 392 m 3 X s 385 612 m 5 X s 387 617 m 3 X s /w 22 def /w2 {w 2 div} def /w3 {w 3 div} def 140 560 196 569
 309 441 365 519 4 { m21} R 140 571 m 20 Y s 134 591 m 12 X s 140 548 m -20 Y s 134 528 m 12 X s 196 581 m 20 Y s 191 601 m 11 X s 196 558 m -20 Y s 191 538 m 11 X s 309 452 m 20 Y s 303 472 m 12 X s 309 430 m -20 Y s 303 410 m 12 X s 365 531 m 20 Y
 s 360 551 m 11 X s 365 508 m -20 Y s 360 488 m 11 X s 1 0 0 c 9 lw 0.95 0.95 0.95 c black 1 0 0 c 85 518 m 43 X 3 -1 d 22 X 3 -1 d 15 X 3 -1 d 12 X 4 -1 d 9 X 3 -1 d 9 X 3 -1 d 6 X 3 -1 d 9 X 3 -1 d s 235 510 m 7 X 3 -1 d 6 X 3 -1 d 3 X 3 -1 d 6 X 3
 -1 d 3 X 3 -1 d 6 X 3 -1 d 3 X 4 -1 d 3 X 3 -1 d 6 X 3 -1 d 3 X 3 -1 d 3 X 3 -1 d 3 X 3 -1 d 3 X 3 -1 d 3 X 3 -1 d 4 X 3 -1 d 3 -1 d 3 X 3 -1 d 3 X 3 -1 d 3 X 3 -1 d 3 -1 d 3 X 3 -1 d 3 X 3 -1 d 3 -1 d 3 X s 385 487 m 4 -1 d s 0.49 0.6 0.82 c black
 0.49 0.6 0.82 c
 gsave  408 306 23 345 C 142.445 629.605 t 0 r /Helvetica-Bold findfont 25.6831 sf 0 0 m (5.0 < E < 5.5 GeV) show NC gr  0.52 0.76 0.64 c black 0.52 0.76 0.64 c
 gsave  408 306 23 345 C 122.502 592.569 t 0 r /Helvetica-Bold findfont 25.6831 sf 0 0 m 
 228 214 200 193 178 171 156 149 134 126 119 105 91 77 69 55 47 39 25 17
(A = \2550.001, p = 2.000) K NC gr  1 0.6 1 c black 1 0.6 1 c
 gsave  408 306 23 345 C 427.334 458.671 t 90 r /Helvetica-Bold findfont 28.5368 sf 0 0 m (/dof=3.2) show NC gr  black 1 0.6 1 c
 gsave  408 306 23 345 C 415.938 447.276 t 90 r /Helvetica-Bold findfont 19.9758 sf 0 0 m (2) show NC gr  black 1 0.6 1 c
 gsave  408 306 23 345 C 427.334 430.182 t 90 r /Symbol findfont 28.5368 sf 0 0 m (c) show NC gr  black 3 lw 1 1 1 c 408 306 476 345 bf black 1 1 1 c black 307 229 537 391 bl 307 229 537 391 bl 537 391 m 307 X s 537 395 m -4 Y s 650 395 m -4 Y s 763
 395 m -4 Y s 763 395 m -4 Y s
 gsave  408 306 476 345 C 527.045 370.356 t 0 r /Helvetica findfont 22.8295 sf 0 0 m (0) show NC gr 
 gsave  408 306 476 345 C 643.849 370.356 t 0 r /Helvetica findfont 22.8295 sf 0 0 m (1) show NC gr 
 gsave  408 306 476 345 C 752.107 370.356 t 0 r /Helvetica findfont 22.8295 sf 0 0 m (2) show NC gr  537 620 m 307 X s 537 616 m 4 Y s 650 616 m 4 Y s 763 616 m 4 Y s 763 616 m 4 Y s 537 391 m 229 Y s 543 402 m -6 X s 540 407 m -3 X s 540 412 m -3 X
 s 540 416 m -3 X s 540 421 m -3 X s 543 426 m -6 X s 540 430 m -3 X s 540 435 m -3 X s 540 440 m -3 X s 540 444 m -3 X s 543 449 m -6 X s 540 454 m -3 X s 540 458 m -3 X s 540 463 m -3 X s 540 468 m -3 X s 543 472 m -6 X s 540 477 m -3 X s 540 482 m
 -3 X s 540 486 m -3 X s 540 491 m -3 X s 543 496 m -6 X s 540 500 m -3 X s 540 505 m -3 X s 540 510 m -3 X s 540 514 m -3 X s 543 519 m -6 X s 540 524 m -3 X s 540 528 m -3 X s 540 533 m -3 X s 540 538 m -3 X s 543 542 m -6 X s 540 547 m -3 X s 540
 552 m -3 X s 540 556 m -3 X s 540 561 m -3 X s 543 566 m -6 X s 540 570 m -3 X s 540 575 m -3 X s 540 580 m -3 X s 540 584 m -3 X s 543 589 m -6 X s 540 594 m -3 X s 540 598 m -3 X s 540 603 m -3 X s 540 608 m -3 X s 543 612 m -6 X s 543 402 m -6 X
 s 540 398 m -3 X s 540 393 m -3 X s 543 612 m -6 X s 540 617 m -3 X s
 gsave  408 306 476 345 C 481.462 395.996 t 0 r /Helvetica findfont 22.8295 sf 0 0 m (\2550.02) show NC gr 
 gsave  408 306 476 345 C 467.218 418.787 t 0 r /Helvetica findfont 22.8295 sf 0 0 m (\2550.015) show NC gr 
 gsave  408 306 476 345 C 484.311 441.578 t 0 r /Helvetica findfont 22.8295 sf 0 0 m (\2550.01) show NC gr 
 gsave  408 306 476 345 C 467.218 464.369 t 0 r /Helvetica findfont 22.8295 sf 0 0 m (\2550.005) show NC gr 
 gsave  408 306 476 345 C 518.498 490.009 t 0 r /Helvetica findfont 22.8295 sf 0 0 m (0) show NC gr 
 gsave  408 306 476 345 C 475.765 512.8 t 0 r /Helvetica findfont 22.8295 sf 0 0 m (0.005) show NC gr 
 gsave  408 306 476 345 C 490.009 535.591 t 0 r /Helvetica findfont 22.8295 sf 0 0 m (0.01) show NC gr 
 gsave  408 306 476 345 C 475.765 558.382 t 0 r /Helvetica findfont 22.8295 sf 0 0 m (0.015) show NC gr 
 gsave  408 306 476 345 C 487.16 581.174 t 0 r /Helvetica findfont 22.8295 sf 0 0 m (0.02) show NC gr 
 gsave  408 306 476 345 C 475.765 603.965 t 0 r /Helvetica findfont 22.8295 sf 0 0 m (0.025) show NC gr  844 391 m 229 Y s 838 402 m 6 X s 841 407 m 3 X s 841 412 m 3 X s 841 416 m 3 X s 841 421 m 3 X s 838 426 m 6 X s 841 430 m 3 X s 841 435 m 3 X s
 841 440 m 3 X s 841 444 m 3 X s 838 449 m 6 X s 841 454 m 3 X s 841 458 m 3 X s 841 463 m 3 X s 841 468 m 3 X s 838 472 m 6 X s 841 477 m 3 X s 841 482 m 3 X s 841 486 m 3 X s 841 491 m 3 X s 838 496 m 6 X s 841 500 m 3 X s 841 505 m 3 X s 841 510 m
 3 X s 841 514 m 3 X s 838 519 m 6 X s 841 524 m 3 X s 841 528 m 3 X s 841 533 m 3 X s 841 538 m 3 X s 838 542 m 6 X s 841 547 m 3 X s 841 552 m 3 X s 841 556 m 3 X s 841 561 m 3 X s 838 566 m 6 X s 841 570 m 3 X s 841 575 m 3 X s 841 580 m 3 X s 841
 584 m 3 X s 838 589 m 6 X s 841 594 m 3 X s 841 598 m 3 X s 841 603 m 3 X s 841 608 m 3 X s 838 612 m 6 X s 838 402 m 6 X s 841 398 m 3 X s 841 393 m 3 X s 838 612 m 6 X s 841 617 m 3 X s /w 23 def /w2 {w 2 div} def /w3 {w 3 div} def 594 562 650 495
 763 449 819 482 4 { m21} R 594 573 m 28 Y s 588 601 m 11 X s 594 550 m -28 Y s 588 522 m 11 X s 650 506 m 28 Y s 644 534 m 12 X s 650 483 m -27 Y s 644 456 m 12 X s 763 460 m 27 Y s 757 487 m 11 X s 763 437 m -27 Y s 757 410 m 11 X s 819 494 m 27 Y
 s 813 521 m 12 X s 819 471 m -28 Y s 813 443 m 12 X s 1 0 0 c 9 lw 0.95 0.95 0.95 c black 1 0 0 c 539 496 m 21 X 3 -1 d 31 X 3 -1 d 19 X 3 -1 d 12 X 3 -1 d 9 X 3 -1 d 9 X 3 -1 d 10 X 3 -1 d 6 X 3 -1 d 6 X 3 -1 d s 689 487 m 6 X 3 -1 d 6 X 3 -1 d 3 X
 3 -1 d 7 X 3 -1 d 3 X 3 -1 d 6 X 3 -1 d 3 X 3 -1 d 3 X 3 -1 d 3 X 3 -1 d 3 X 3 -1 d 4 X 3 -1 d 3 X 3 -1 d 3 X 3 -1 d 3 X 3 -1 d 3 -1 d 3 X 3 -1 d 3 X 3 -1 d 3 X 3 -1 d 3 -1 d 4 X 3 -1 d 3 X 3 -1 d 3 -1 d 3 X 3 -1 d 3 -1 d 3 X s 839 463 m 3 -1 d s
 0.49 0.6 0.82 c black 0.49 0.6 0.82 c
 gsave  408 306 476 345 C 595.418 629.605 t 0 r /Helvetica-Bold findfont 25.6831 sf 0 0 m (5.5 < E < 6.0 GeV) show NC gr  0.52 0.76 0.64 c black 0.52 0.76 0.64 c
 gsave  408 306 476 345 C 575.476 592.569 t 0 r /Helvetica-Bold findfont 25.6831 sf 0 0 m 
 228 214 200 193 178 171 156 149 133 126 119 105 91 76 69 55 47 39 25 17
(A = \2550.001, p = 2.000) K NC gr  1 0.6 1 c black 1 0.6 1 c
 gsave  408 306 476 345 C 883.156 458.671 t 90 r /Helvetica-Bold findfont 28.5368 sf 0 0 m (/dof=1.2) show NC gr  black 1 0.6 1 c
 gsave  408 306 476 345 C 871.76 447.276 t 90 r /Helvetica-Bold findfont 19.9758 sf 0 0 m (2) show NC gr  black 1 0.6 1 c
 gsave  408 306 476 345 C 883.156 430.182 t 90 r /Symbol findfont 28.5368 sf 0 0 m (c) show NC gr  black 3 lw 1 1 1 c 408 306 930 345 bf black 1 1 1 c black 306 229 991 391 bl 306 229 991 391 bl 991 391 m 306 X s 991 395 m -4 Y s 1104 395 m -4 Y s
 1216 395 m -4 Y s 1216 395 m -4 Y s
 gsave  408 306 930 345 C 980.018 370.356 t 0 r /Helvetica findfont 22.8295 sf 0 0 m (0) show NC gr 
 gsave  408 306 930 345 C 1096.82 370.356 t 0 r /Helvetica findfont 22.8295 sf 0 0 m (1) show NC gr 
 gsave  408 306 930 345 C 1205.08 370.356 t 0 r /Helvetica findfont 22.8295 sf 0 0 m (2) show NC gr  991 620 m 306 X s 991 616 m 4 Y s 1104 616 m 4 Y s 1216 616 m 4 Y s 1216 616 m 4 Y s 991 391 m 229 Y s 997 424 m -6 X s 994 431 m -3 X s 994 438 m -3
 X s 994 445 m -3 X s 994 453 m -3 X s 997 460 m -6 X s 994 467 m -3 X s 994 474 m -3 X s 994 482 m -3 X s 994 489 m -3 X s 997 496 m -6 X s 994 503 m -3 X s 994 511 m -3 X s 994 518 m -3 X s 994 525 m -3 X s 997 532 m -6 X s 994 540 m -3 X s 994 547
 m -3 X s 994 554 m -3 X s 994 561 m -3 X s 997 569 m -6 X s 994 576 m -3 X s 994 583 m -3 X s 994 590 m -3 X s 994 598 m -3 X s 997 605 m -6 X s 997 424 m -6 X s 994 416 m -3 X s 994 409 m -3 X s 994 402 m -3 X s 994 395 m -3 X s 997 605 m -6 X s
 994 612 m -3 X s 994 619 m -3 X s
 gsave  408 306 930 345 C 940.134 415.938 t 0 r /Helvetica findfont 22.8295 sf 0 0 m (\2550.01) show NC gr 
 gsave  408 306 930 345 C 974.32 452.974 t 0 r /Helvetica findfont 22.8295 sf 0 0 m (0) show NC gr 
 gsave  408 306 930 345 C 945.832 490.009 t 0 r /Helvetica findfont 22.8295 sf 0 0 m (0.01) show NC gr 
 gsave  408 306 930 345 C 942.983 524.196 t 0 r /Helvetica findfont 22.8295 sf 0 0 m (0.02) show NC gr 
 gsave  408 306 930 345 C 942.983 561.231 t 0 r /Helvetica findfont 22.8295 sf 0 0 m (0.03) show NC gr 
 gsave  408 306 930 345 C 942.983 598.267 t 0 r /Helvetica findfont 22.8295 sf 0 0 m (0.04) show NC gr  1297 391 m 229 Y s 1292 424 m 5 X s 1294 431 m 3 X s 1294 438 m 3 X s 1294 445 m 3 X s 1294 453 m 3 X s 1292 460 m 5 X s 1294 467 m 3 X s 1294 474
 m 3 X s 1294 482 m 3 X s 1294 489 m 3 X s 1292 496 m 5 X s 1294 503 m 3 X s 1294 511 m 3 X s 1294 518 m 3 X s 1294 525 m 3 X s 1292 532 m 5 X s 1294 540 m 3 X s 1294 547 m 3 X s 1294 554 m 3 X s 1294 561 m 3 X s 1292 569 m 5 X s 1294 576 m 3 X s
 1294 583 m 3 X s 1294 590 m 3 X s 1294 598 m 3 X s 1292 605 m 5 X s 1292 424 m 5 X s 1294 416 m 3 X s 1294 409 m 3 X s 1294 402 m 3 X s 1294 395 m 3 X s 1292 605 m 5 X s 1294 612 m 3 X s 1294 619 m 3 X s 1047 447 1104 462 1216 467 1272 563 4 { m21}
 R 1047 458 m 26 Y s 1042 484 m 11 X s 1047 436 m -26 Y s 1042 410 m 11 X s 1104 474 m 25 Y s 1098 499 m 11 X s 1104 451 m -26 Y s 1098 425 m 11 X s 1216 479 m 25 Y s 1210 504 m 12 X s 1216 456 m -26 Y s 1210 430 m 12 X s 1272 575 m 26 Y s 1267 601 m
 11 X s 1272 552 m -27 Y s 1267 525 m 11 X s 1 0 0 c 9 lw 0.95 0.95 0.95 c black 1 0 0 c 993 460 m 24 X 3 1 d 12 X 3 1 d 7 X 3 1 d 6 X 3 1 d 6 X 3 1 d 3 X 3 1 d 6 X 3 1 d 3 X 3 1 d 3 1 d 3 X 4 1 d 3 X 3 1 d 3 1 d 3 X 3 1 d 3 1 d 3 X 3 1 d 3 1 d 3 X 3
 1 d 3 1 d 3 1 d 3 1 d 3 1 d 4 X s 1143 481 m 3 1 d 3 1 d 3 1 d 3 1 d 3 1 d 3 1 d 3 1 d 3 1 d 3 1 d 3 1 d 3 1 d 3 1 d 3 1 d 3 1 d 3 1 d 4 2 d 3 1 d 3 1 d 3 1 d 3 1 d 3 2 d 3 1 d 3 1 d 3 1 d 3 2 d 3 1 d 3 1 d 3 2 d 3 1 d 3 1 d 3 2 d 3 1 d 4 2 d 3 1 d
 3 2 d 3 1 d 3 2 d 3 1 d 3 2 d 3 1 d 3 2 d 3 1 d 3 2 d 3 2 d 3 1 d 3 2 d 3 2 d 3 1 d 4 2 d s 1293 545 m 3 2 d s 0.49 0.6 0.82 c black 0.49 0.6 0.82 c
 gsave  408 306 930 345 C 1051.24 629.605 t 0 r /Helvetica-Bold findfont 25.6831 sf 0 0 m (6.0 < E < 6.5 GeV) show NC gr  0.52 0.76 0.64 c black 0.52 0.76 0.64 c
 gsave  408 306 930 345 C 1037 592.569 t 0 r /Helvetica-Bold findfont 25.6831 sf 0 0 m 
 220 206 192 185 170 163 148 141 125 118 111 97 83 69 61 47 40 25 18
(A = 0.003, p = 2.000) K NC gr  1 0.6 1 c black 1 0.6 1 c
 gsave  408 306 930 345 C 1336.13 458.671 t 90 r /Helvetica-Bold findfont 28.5368 sf 0 0 m (/dof=0.7) show NC gr  black 1 0.6 1 c
 gsave  408 306 930 345 C 1324.73 447.276 t 90 r /Helvetica-Bold findfont 19.9758 sf 0 0 m (2) show NC gr  black 1 0.6 1 c
 gsave  408 306 930 345 C 1336.13 430.182 t 90 r /Symbol findfont 28.5368 sf 0 0 m (c) show NC gr  black 3 lw 1 1 1 c 408 306 1383 345 bf black 1 1 1 c black 306 229 1445 391 bl 306 229 1445 391 bl 1445 391 m 306 X s 1445 395 m -4 Y s 1557 395 m -4 Y
 s 1670 395 m -4 Y s 1670 395 m -4 Y s
 gsave  408 306 1383 345 C 1435.84 370.356 t 0 r /Helvetica findfont 22.8295 sf 0 0 m (0) show NC gr 
 gsave  408 306 1383 345 C 1549.8 370.356 t 0 r /Helvetica findfont 22.8295 sf 0 0 m (1) show NC gr 
 gsave  408 306 1383 345 C 1660.9 370.356 t 0 r /Helvetica findfont 22.8295 sf 0 0 m (2) show NC gr  1445 620 m 306 X s 1445 616 m 4 Y s 1557 616 m 4 Y s 1670 616 m 4 Y s 1670 616 m 4 Y s 1445 391 m 229 Y s 1450 409 m -5 X s 1447 416 m -2 X s 1447
 423 m -2 X s 1447 430 m -2 X s 1447 437 m -2 X s 1450 444 m -5 X s 1447 451 m -2 X s 1447 458 m -2 X s 1447 465 m -2 X s 1447 472 m -2 X s 1450 479 m -5 X s 1447 486 m -2 X s 1447 493 m -2 X s 1447 500 m -2 X s 1447 507 m -2 X s 1450 514 m -5 X s
 1447 521 m -2 X s 1447 528 m -2 X s 1447 535 m -2 X s 1447 542 m -2 X s 1450 549 m -5 X s 1447 556 m -2 X s 1447 563 m -2 X s 1447 570 m -2 X s 1447 577 m -2 X s 1450 584 m -5 X s 1447 591 m -2 X s 1447 598 m -2 X s 1447 605 m -2 X s 1447 612 m -2 X
 s 1450 619 m -5 X s 1450 409 m -5 X s 1447 401 m -2 X s 1447 394 m -2 X s 1450 619 m -5 X s
 gsave  408 306 1383 345 C 1390.26 401.694 t 0 r /Helvetica findfont 22.8295 sf 0 0 m (\2550.03) show NC gr 
 gsave  408 306 1383 345 C 1390.26 435.88 t 0 r /Helvetica findfont 22.8295 sf 0 0 m (\2550.02) show NC gr 
 gsave  408 306 1383 345 C 1393.11 472.916 t 0 r /Helvetica findfont 22.8295 sf 0 0 m (\2550.01) show NC gr 
 gsave  408 306 1383 345 C 1427.29 507.102 t 0 r /Helvetica findfont 22.8295 sf 0 0 m (0) show NC gr 
 gsave  408 306 1383 345 C 1398.81 541.289 t 0 r /Helvetica findfont 22.8295 sf 0 0 m (0.01) show NC gr 
 gsave  408 306 1383 345 C 1395.96 578.325 t 0 r /Helvetica findfont 22.8295 sf 0 0 m (0.02) show NC gr 
 gsave  408 306 1383 345 C 1395.96 612.511 t 0 r /Helvetica findfont 22.8295 sf 0 0 m (0.03) show NC gr  1751 391 m 229 Y s 1745 409 m 6 X s 1748 416 m 3 X s 1748 423 m 3 X s 1748 430 m 3 X s 1748 437 m 3 X s 1745 444 m 6 X s 1748 451 m 3 X s 1748
 458 m 3 X s 1748 465 m 3 X s 1748 472 m 3 X s 1745 479 m 6 X s 1748 486 m 3 X s 1748 493 m 3 X s 1748 500 m 3 X s 1748 507 m 3 X s 1745 514 m 6 X s 1748 521 m 3 X s 1748 528 m 3 X s 1748 535 m 3 X s 1748 542 m 3 X s 1745 549 m 6 X s 1748 556 m 3 X s
 1748 563 m 3 X s 1748 570 m 3 X s 1748 577 m 3 X s 1745 584 m 6 X s 1748 591 m 3 X s 1748 598 m 3 X s 1748 605 m 3 X s 1748 612 m 3 X s 1745 619 m 6 X s 1745 409 m 6 X s 1748 401 m 3 X s 1748 394 m 3 X s 1745 619 m 6 X s 1501 452 1557 559 1670 521
 1726 525 4 { m21} R 1501 463 m 30 Y s 1495 493 m 12 X s 1501 440 m -30 Y s 1495 410 m 12 X s 1557 570 m 31 Y s 1551 601 m 12 X s 1557 547 m -31 Y s 1551 516 m 12 X s 1670 532 m 31 Y s 1664 563 m 11 X s 1670 510 m -31 Y s 1664 479 m 11 X s 1726 537 m
 31 Y s 1720 568 m 12 X s 1726 514 m -31 Y s 1720 483 m 12 X s 1 0 0 c 9 lw 0.95 0.95 0.95 c black 1 0 0 c 1446 514 m 58 X 3 1 d 31 X 3 1 d 21 X 3 1 d 19 X 3 1 d 9 X s 1596 518 m 6 X 3 1 d 16 X 3 1 d 12 X 3 1 d 9 X 3 1 d 9 X 3 1 d 10 X 3 1 d 9 X 3 1
 d 9 X 3 1 d 6 X 3 1 d 10 X 3 1 d 6 X 3 1 d 6 X 3 1 d 6 X s 1746 530 m 3 1 d s 0.49 0.6 0.82 c black 0.49 0.6 0.82 c
 gsave  408 306 1383 345 C 1504.21 629.605 t 0 r /Helvetica-Bold findfont 25.6831 sf 0 0 m (6.5 < E < 7.0 GeV) show NC gr  0.52 0.76 0.64 c black 0.52 0.76 0.64 c
 gsave  408 306 1383 345 C 1489.97 592.569 t 0 r /Helvetica-Bold findfont 25.6831 sf 0 0 m 
 220 206 192 185 170 163 148 141 126 118 111 97 83 69 61 47 40 25 18
(A = 0.001, p = 2.000) K NC gr  1 0.6 1 c black 1 0.6 1 c
 gsave  408 306 1383 345 C 1789.1 458.671 t 90 r /Helvetica-Bold findfont 28.5368 sf 0 0 m (/dof=1.1) show NC gr  black 1 0.6 1 c
 gsave  408 306 1383 345 C 1777.71 447.276 t 90 r /Helvetica-Bold findfont 19.9758 sf 0 0 m (2) show NC gr  black 1 0.6 1 c
 gsave  408 306 1383 345 C 1789.1 430.182 t 90 r /Symbol findfont 28.5368 sf 0 0 m (c) show NC gr  black 3 lw 1 1 1 c 408 306 1837 345 bf black 1 1 1 c black 306 229 1898 391 bl 306 229 1898 391 bl 1898 391 m 306 X s 1898 395 m -4 Y s 2011 395 m -4 Y
 s 2123 395 m -4 Y s 2123 395 m -4 Y s
 gsave  408 306 1837 345 C 1888.81 370.356 t 0 r /Helvetica findfont 22.8295 sf 0 0 m (0) show NC gr 
 gsave  408 306 1837 345 C 2002.77 370.356 t 0 r /Helvetica findfont 22.8295 sf 0 0 m (1) show NC gr 
 gsave  408 306 1837 345 C 2113.88 370.356 t 0 r /Helvetica findfont 22.8295 sf 0 0 m (2) show NC gr  1898 620 m 306 X s 1898 616 m 4 Y s 2011 616 m 4 Y s 2123 616 m 4 Y s 2123 616 m 4 Y s 1898 391 m 229 Y s 1904 412 m -6 X s 1901 419 m -3 X s 1901
 426 m -3 X s 1901 433 m -3 X s 1901 440 m -3 X s 1904 448 m -6 X s 1901 455 m -3 X s 1901 462 m -3 X s 1901 469 m -3 X s 1901 476 m -3 X s 1904 483 m -6 X s 1901 491 m -3 X s 1901 498 m -3 X s 1901 505 m -3 X s 1901 512 m -3 X s 1904 519 m -6 X s
 1901 527 m -3 X s 1901 534 m -3 X s 1901 541 m -3 X s 1901 548 m -3 X s 1904 555 m -6 X s 1901 562 m -3 X s 1901 570 m -3 X s 1901 577 m -3 X s 1901 584 m -3 X s 1904 591 m -6 X s 1904 412 m -6 X s 1901 405 m -3 X s 1901 397 m -3 X s 1904 591 m -6 X
 s 1901 598 m -3 X s 1901 605 m -3 X s 1901 613 m -3 X s 1901 620 m -3 X s
 gsave  408 306 1837 345 C 1846.08 404.542 t 0 r /Helvetica findfont 22.8295 sf 0 0 m (\2550.01) show NC gr 
 gsave  408 306 1837 345 C 1880.27 441.578 t 0 r /Helvetica findfont 22.8295 sf 0 0 m (0) show NC gr 
 gsave  408 306 1837 345 C 1851.78 475.765 t 0 r /Helvetica findfont 22.8295 sf 0 0 m (0.01) show NC gr 
 gsave  408 306 1837 345 C 1848.93 512.8 t 0 r /Helvetica findfont 22.8295 sf 0 0 m (0.02) show NC gr 
 gsave  408 306 1837 345 C 1848.93 546.987 t 0 r /Helvetica findfont 22.8295 sf 0 0 m (0.03) show NC gr 
 gsave  408 306 1837 345 C 1848.93 584.022 t 0 r /Helvetica findfont 22.8295 sf 0 0 m (0.04) show NC gr  2204 391 m 229 Y s 2199 412 m 5 X s 2201 419 m 3 X s 2201 426 m 3 X s 2201 433 m 3 X s 2201 440 m 3 X s 2199 448 m 5 X s 2201 455 m 3 X s 2201
 462 m 3 X s 2201 469 m 3 X s 2201 476 m 3 X s 2199 483 m 5 X s 2201 491 m 3 X s 2201 498 m 3 X s 2201 505 m 3 X s 2201 512 m 3 X s 2199 519 m 5 X s 2201 527 m 3 X s 2201 534 m 3 X s 2201 541 m 3 X s 2201 548 m 3 X s 2199 555 m 5 X s 2201 562 m 3 X s
 2201 570 m 3 X s 2201 577 m 3 X s 2201 584 m 3 X s 2199 591 m 5 X s 2199 412 m 5 X s 2201 405 m 3 X s 2201 397 m 3 X s 2199 591 m 5 X s 2201 598 m 3 X s 2201 605 m 3 X s 2201 613 m 3 X s 2201 620 m 3 X s 1954 459 2011 551 2123 539 2179 518 4 { m21}
 R 1954 470 m 37 Y s 1949 507 m 11 X s 1954 447 m -37 Y s 1949 410 m 11 X s 2011 563 m 38 Y s 2005 601 m 11 X s 2011 540 m -38 Y s 2005 502 m 11 X s 2123 550 m 38 Y s 2117 588 m 12 X s 2123 527 m -38 Y s 2117 489 m 12 X s 2179 530 m 38 Y s 2174 568 m
 11 X s 2179 507 m -38 Y s 2174 469 m 11 X s 9 lw 0.95 0.95 0.95 c black 1900 448 m 3 1 d 3 1 d 3 1 d 3 2 d 3 1 d 3 1 d 3 1 d 3 1 d 3 1 d 3 1 d 3 1 d 3 1 d 3 2 d 3 1 d 4 1 d 3 1 d 3 1 d 3 1 d 3 1 d 3 1 d 3 1 d 3 2 d 3 1 d 3 1 d 3 1 d 3 1 d 3 1 d 3 1
 d 3 1 d 3 1 d 4 1 d 3 2 d 3 1 d 3 1 d 3 1 d 3 1 d 3 1 d 3 1 d 3 1 d 3 1 d 3 2 d 3 1 d 3 1 d 3 1 d 3 1 d 3 1 d 3 1 d 4 1 d 3 1 d s 2050 502 m 3 2 d 3 1 d 3 1 d 3 1 d 3 1 d 3 1 d 3 1 d 3 1 d 3 1 d 3 2 d 3 1 d 3 1 d 3 1 d 3 1 d 4 1 d 3 1 d 3 1 d 3 1 d
 3 1 d 3 2 d 3 1 d 3 1 d 3 1 d 3 1 d 3 1 d 3 1 d 3 1 d 3 1 d 3 2 d 3 1 d 4 1 d 3 1 d 3 1 d 3 1 d 3 1 d 3 1 d 3 1 d 3 2 d 3 1 d 3 1 d 3 1 d 3 1 d 3 1 d 3 1 d 3 1 d 3 1 d 4 1 d 3 2 d 3 1 d s 2200 557 m 3 1 d s 0.49 0.6 0.82 c black 0.49 0.6 0.82 c
 gsave  408 306 1837 345 C 1957.19 629.605 t 0 r /Helvetica-Bold findfont 25.6831 sf 0 0 m (7.0 < E < 7.5 GeV) show NC gr  0.52 0.76 0.64 c black 0.52 0.76 0.64 c
 gsave  408 306 1837 345 C 1942.94 592.569 t 0 r /Helvetica-Bold findfont 25.6831 sf 0 0 m 
 218 204 190 183 168 161 146 139 123 116 109 95 82 68 61 47 39 24 17
(A = 0.011, p = 1.000) K NC gr  1 0.6 1 c black 1 0.6 1 c
 gsave  408 306 1837 345 C 2242.08 458.671 t 90 r /Helvetica-Bold findfont 28.5368 sf 0 0 m (/dof=0.7) show NC gr  black 1 0.6 1 c
 gsave  408 306 1837 345 C 2230.68 447.276 t 90 r /Helvetica-Bold findfont 19.9758 sf 0 0 m (2) show NC gr  black 1 0.6 1 c
 gsave  408 306 1837 345 C 2242.08 430.182 t 90 r /Symbol findfont 28.5368 sf 0 0 m (c) show NC gr  black 3 lw 1 1 1 c 408 306 23 13 bf black 1 1 1 c black 306 229 84 59 bl 306 229 84 59 bl 84 59 m 306 X s 84 63 m -4 Y s 196 63 m -4 Y s 309 63 m -4 Y
 s 309 63 m -4 Y s
 gsave  408 306 23 13 C 74.0711 39.8845 t 0 r /Helvetica findfont 22.8295 sf 0 0 m (0) show NC gr 
 gsave  408 306 23 13 C 188.027 39.8845 t 0 r /Helvetica findfont 22.8295 sf 0 0 m (1) show NC gr 
 gsave  408 306 23 13 C 299.133 39.8845 t 0 r /Helvetica findfont 22.8295 sf 0 0 m (2) show NC gr  84 288 m 306 X s 84 284 m 4 Y s 196 284 m 4 Y s 309 284 m 4 Y s 309 284 m 4 Y s 84 59 m 229 Y s 89 74 m -5 X s 87 80 m -3 X s 87 85 m -3 X s 87 91 m -3
 X s 87 96 m -3 X s 89 102 m -5 X s 87 107 m -3 X s 87 113 m -3 X s 87 118 m -3 X s 87 124 m -3 X s 89 129 m -5 X s 87 134 m -3 X s 87 140 m -3 X s 87 145 m -3 X s 87 151 m -3 X s 89 156 m -5 X s 87 162 m -3 X s 87 167 m -3 X s 87 173 m -3 X s 87 178
 m -3 X s 89 184 m -5 X s 87 189 m -3 X s 87 195 m -3 X s 87 200 m -3 X s 87 206 m -3 X s 89 211 m -5 X s 87 217 m -3 X s 87 222 m -3 X s 87 228 m -3 X s 87 233 m -3 X s 89 239 m -5 X s 87 244 m -3 X s 87 250 m -3 X s 87 255 m -3 X s 87 261 m -3 X s
 89 266 m -5 X s 89 74 m -5 X s 87 69 m -3 X s 87 63 m -3 X s 89 266 m -5 X s 87 272 m -3 X s 87 277 m -3 X s 87 283 m -3 X s
 gsave  408 306 23 13 C 14.2445 65.5245 t 0 r /Helvetica findfont 22.8295 sf 0 0 m (\2550.025) show NC gr 
 gsave  408 306 23 13 C 28.4889 94.0134 t 0 r /Helvetica findfont 22.8295 sf 0 0 m (\2550.02) show NC gr 
 gsave  408 306 23 13 C 14.2445 122.502 t 0 r /Helvetica findfont 22.8295 sf 0 0 m (\2550.015) show NC gr 
 gsave  408 306 23 13 C 31.3378 148.142 t 0 r /Helvetica findfont 22.8295 sf 0 0 m (\2550.01) show NC gr 
 gsave  408 306 23 13 C 14.2445 176.631 t 0 r /Helvetica findfont 22.8295 sf 0 0 m (\2550.005) show NC gr 
 gsave  408 306 23 13 C 65.5245 205.12 t 0 r /Helvetica findfont 22.8295 sf 0 0 m (0) show NC gr 
 gsave  408 306 23 13 C 22.7911 230.76 t 0 r /Helvetica findfont 22.8295 sf 0 0 m (0.005) show NC gr 
 gsave  408 306 23 13 C 37.0356 259.249 t 0 r /Helvetica findfont 22.8295 sf 0 0 m (0.01) show NC gr  390 59 m 229 Y s 385 74 m 5 X s 387 80 m 3 X s 387 85 m 3 X s 387 91 m 3 X s 387 96 m 3 X s 385 102 m 5 X s 387 107 m 3 X s 387 113 m 3 X s 387 118
 m 3 X s 387 124 m 3 X s 385 129 m 5 X s 387 134 m 3 X s 387 140 m 3 X s 387 145 m 3 X s 387 151 m 3 X s 385 156 m 5 X s 387 162 m 3 X s 387 167 m 3 X s 387 173 m 3 X s 387 178 m 3 X s 385 184 m 5 X s 387 189 m 3 X s 387 195 m 3 X s 387 200 m 3 X s
 387 206 m 3 X s 385 211 m 5 X s 387 217 m 3 X s 387 222 m 3 X s 387 228 m 3 X s 387 233 m 3 X s 385 239 m 5 X s 387 244 m 3 X s 387 250 m 3 X s 387 255 m 3 X s 387 261 m 3 X s 385 266 m 5 X s 385 74 m 5 X s 387 69 m 3 X s 387 63 m 3 X s 385 266 m 5
 X s 387 272 m 3 X s 387 277 m 3 X s 387 283 m 3 X s /w 22 def /w2 {w 2 div} def /w3 {w 3 div} def 140 159 196 188 309 173 365 162 4 { m21} R 140 171 m 70 Y s 134 241 m 12 X s 140 148 m -70 Y s 134 78 m 12 X s 196 199 m 70 Y s 191 269 m 11 X s 196
 176 m -70 Y s 191 106 m 11 X s 309 184 m 70 Y s 303 254 m 12 X s 309 161 m -70 Y s 303 91 m 12 X s 365 174 m 70 Y s 360 244 m 11 X s 365 151 m -70 Y s 360 81 m 11 X s 9 lw 0.95 0.95 0.95 c black 85 211 m 3 X 4 -1 d 3 -1 d 3 X 3 -1 d 3 X 3 -1 d 3 -1
 d 3 X 3 -1 d 3 X 3 -1 d 3 -1 d 3 X 3 -1 d 3 X 3 -1 d 4 -1 d 3 X 3 -1 d 3 X 3 -1 d 3 X 3 -1 d 3 -1 d 3 X 3 -1 d 3 X 3 -1 d 3 -1 d 3 X 3 -1 d 3 X 4 -1 d 3 -1 d 3 X 3 -1 d 3 X 3 -1 d 3 -1 d 3 X 3 -1 d 3 X 3 -1 d 3 X 3 -1 d 3 -1 d 3 X 3 -1 d s 235 182 m
 4 X 3 -1 d 3 -1 d 3 X 3 -1 d 3 X 3 -1 d 3 -1 d 3 X 3 -1 d 3 X 3 -1 d 3 -1 d 3 X 3 -1 d 3 X 3 -1 d 4 X 3 -1 d 3 -1 d 3 X 3 -1 d 3 X 3 -1 d 3 -1 d 3 X 3 -1 d 3 X 3 -1 d 3 -1 d 3 X 3 -1 d 3 X 4 -1 d 3 -1 d 3 X 3 -1 d 3 X 3 -1 d 3 X 3 -1 d 3 -1 d 3 X 3
 -1 d 3 X 3 -1 d 3 -1 d 3 X 3 -1 d s 385 153 m 4 X s 0.49 0.6 0.82 c black 0.49 0.6 0.82 c
 gsave  408 306 23 13 C 142.445 296.285 t 0 r /Helvetica-Bold findfont 25.6831 sf 0 0 m (7.5 < E < 8.0 GeV) show NC gr  0.52 0.76 0.64 c black 0.52 0.76 0.64 c
 gsave  408 306 23 13 C 122.502 259.249 t 0 r /Helvetica-Bold findfont 25.6831 sf 0 0 m 
 228 214 200 193 178 171 156 149 134 126 119 105 91 77 69 55 47 39 25 17
(A = \2550.004, p = 1.000) K NC gr  1 0.6 1 c black 1 0.6 1 c
 gsave  408 306 23 13 C 427.334 128.2 t 90 r /Helvetica-Bold findfont 28.5368 sf 0 0 m (/dof=0.1) show NC gr  black 1 0.6 1 c
 gsave  408 306 23 13 C 415.938 116.804 t 90 r /Helvetica-Bold findfont 19.9758 sf 0 0 m (2) show NC gr  black 1 0.6 1 c
 gsave  408 306 23 13 C 427.334 99.7112 t 90 r /Symbol findfont 28.5368 sf 0 0 m (c) show NC gr  black 3 lw 1 1 1 c 408 306 476 13 bf black 1 1 1 c black 307 229 537 59 bl 307 229 537 59 bl 537 59 m 307 X s 537 63 m -4 Y s 650 63 m -4 Y s 763 63 m -4
 Y s 763 63 m -4 Y s
 gsave  408 306 476 13 C 527.045 39.8845 t 0 r /Helvetica findfont 22.8295 sf 0 0 m (0) show NC gr 
 gsave  408 306 476 13 C 643.849 39.8845 t 0 r /Helvetica findfont 22.8295 sf 0 0 m (1) show NC gr 
 gsave  408 306 476 13 C 752.107 39.8845 t 0 r /Helvetica findfont 22.8295 sf 0 0 m (2) show NC gr  537 288 m 307 X s 537 284 m 4 Y s 650 284 m 4 Y s 763 284 m 4 Y s 763 284 m 4 Y s 537 59 m 229 Y s 543 77 m -6 X s 540 84 m -3 X s 540 92 m -3 X s 540
 99 m -3 X s 540 106 m -3 X s 543 113 m -6 X s 540 120 m -3 X s 540 128 m -3 X s 540 135 m -3 X s 540 142 m -3 X s 543 149 m -6 X s 540 157 m -3 X s 540 164 m -3 X s 540 171 m -3 X s 540 178 m -3 X s 543 185 m -6 X s 540 193 m -3 X s 540 200 m -3 X s
 540 207 m -3 X s 540 214 m -3 X s 543 221 m -6 X s 540 229 m -3 X s 540 236 m -3 X s 540 243 m -3 X s 540 250 m -3 X s 543 258 m -6 X s 543 77 m -6 X s 540 70 m -3 X s 540 63 m -3 X s 543 258 m -6 X s 540 265 m -3 X s 540 272 m -3 X s 540 279 m -3 X
 s 540 286 m -3 X s
 gsave  408 306 476 13 C 481.462 71.2223 t 0 r /Helvetica findfont 22.8295 sf 0 0 m (\2550.03) show NC gr 
 gsave  408 306 476 13 C 481.462 105.409 t 0 r /Helvetica findfont 22.8295 sf 0 0 m (\2550.02) show NC gr 
 gsave  408 306 476 13 C 484.311 142.445 t 0 r /Helvetica findfont 22.8295 sf 0 0 m (\2550.01) show NC gr 
 gsave  408 306 476 13 C 518.498 179.48 t 0 r /Helvetica findfont 22.8295 sf 0 0 m (0) show NC gr 
 gsave  408 306 476 13 C 490.009 213.667 t 0 r /Helvetica findfont 22.8295 sf 0 0 m (0.01) show NC gr 
 gsave  408 306 476 13 C 487.16 250.702 t 0 r /Helvetica findfont 22.8295 sf 0 0 m (0.02) show NC gr  844 59 m 229 Y s 838 77 m 6 X s 841 84 m 3 X s 841 92 m 3 X s 841 99 m 3 X s 841 106 m 3 X s 838 113 m 6 X s 841 120 m 3 X s 841 128 m 3 X s 841 135
 m 3 X s 841 142 m 3 X s 838 149 m 6 X s 841 157 m 3 X s 841 164 m 3 X s 841 171 m 3 X s 841 178 m 3 X s 838 185 m 6 X s 841 193 m 3 X s 841 200 m 3 X s 841 207 m 3 X s 841 214 m 3 X s 838 221 m 6 X s 841 229 m 3 X s 841 236 m 3 X s 841 243 m 3 X s
 841 250 m 3 X s 838 258 m 6 X s 838 77 m 6 X s 841 70 m 3 X s 841 63 m 3 X s 838 258 m 6 X s 841 265 m 3 X s 841 272 m 3 X s 841 279 m 3 X s 841 286 m 3 X s /w 23 def /w2 {w 2 div} def /w3 {w 3 div} def 594 136 650 179 763 190 819 210 4 { m21} R 594
 147 m 47 Y s 588 194 m 11 X s 594 125 m -47 Y s 588 78 m 11 X s 650 190 m 47 Y s 644 237 m 12 X s 650 167 m -47 Y s 644 120 m 12 X s 763 201 m 47 Y s 757 248 m 11 X s 763 178 m -47 Y s 757 131 m 11 X s 819 222 m 47 Y s 813 269 m 12 X s 819 199 m -47
 Y s 813 152 m 12 X s 1 0 0 c 9 lw 0.95 0.95 0.95 c black 1 0 0 c 539 185 m 18 X 3 1 d 49 X 3 1 d 22 X 3 1 d 18 X 3 1 d 16 X 3 1 d 12 X s 689 190 m 3 1 d 12 X 3 1 d 13 X 3 1 d 9 X 3 1 d 6 X 3 1 d 9 X 3 1 d 6 X 4 1 d 9 X 3 1 d 6 X 3 1 d 6 X 3 1 d 6 X
 3 1 d 6 X 4 1 d 3 X 3 1 d 6 X 3 1 d 6 X 3 1 d s 839 205 m 3 X s 0.49 0.6 0.82 c black 0.49 0.6 0.82 c
 gsave  408 306 476 13 C 595.418 296.285 t 0 r /Helvetica-Bold findfont 25.6831 sf 0 0 m (8.0 < E < 8.5 GeV) show NC gr  0.52 0.76 0.64 c black 0.52 0.76 0.64 c
 gsave  408 306 476 13 C 581.174 259.249 t 0 r /Helvetica-Bold findfont 25.6831 sf 0 0 m 
 220 206 192 185 170 163 148 141 125 118 111 97 83 68 61 47 40 25 18
(A = 0.001, p = 2.000) K NC gr  1 0.6 1 c black 1 0.6 1 c
 gsave  408 306 476 13 C 883.156 128.2 t 90 r /Helvetica-Bold findfont 28.5368 sf 0 0 m (/dof=0.3) show NC gr  black 1 0.6 1 c
 gsave  408 306 476 13 C 871.76 116.804 t 90 r /Helvetica-Bold findfont 19.9758 sf 0 0 m (2) show NC gr  black 1 0.6 1 c
 gsave  408 306 476 13 C 883.156 99.7112 t 90 r /Symbol findfont 28.5368 sf 0 0 m (c) show NC gr  black 3 lw 1 1 1 c 408 306 930 13 bf black 1 1 1 c black 306 229 991 59 bl 306 229 991 59 bl 991 59 m 306 X s 991 63 m -4 Y s 1104 63 m -4 Y s 1216 63 m
 -4 Y s 1216 63 m -4 Y s
 gsave  408 306 930 13 C 980.018 39.8845 t 0 r /Helvetica findfont 22.8295 sf 0 0 m (0) show NC gr 
 gsave  408 306 930 13 C 1096.82 39.8845 t 0 r /Helvetica findfont 22.8295 sf 0 0 m (1) show NC gr 
 gsave  408 306 930 13 C 1205.08 39.8845 t 0 r /Helvetica findfont 22.8295 sf 0 0 m (2) show NC gr  991 288 m 306 X s 991 284 m 4 Y s 1104 284 m 4 Y s 1216 284 m 4 Y s 1216 284 m 4 Y s 991 59 m 229 Y s 997 65 m -6 X s 994 70 m -3 X s 994 75 m -3 X s
 994 80 m -3 X s 994 85 m -3 X s 997 91 m -6 X s 994 96 m -3 X s 994 101 m -3 X s 994 106 m -3 X s 994 111 m -3 X s 997 117 m -6 X s 994 122 m -3 X s 994 127 m -3 X s 994 132 m -3 X s 994 137 m -3 X s 997 143 m -6 X s 994 148 m -3 X s 994 153 m -3 X
 s 994 158 m -3 X s 994 163 m -3 X s 997 169 m -6 X s 994 174 m -3 X s 994 179 m -3 X s 994 184 m -3 X s 994 190 m -3 X s 997 195 m -6 X s 994 200 m -3 X s 994 205 m -3 X s 994 210 m -3 X s 994 216 m -3 X s 997 221 m -6 X s 994 226 m -3 X s 994 231 m
 -3 X s 994 236 m -3 X s 994 242 m -3 X s 997 247 m -6 X s 994 252 m -3 X s 994 257 m -3 X s 994 262 m -3 X s 994 268 m -3 X s 997 273 m -6 X s 997 65 m -6 X s 994 59 m -3 X s 997 273 m -6 X s 994 278 m -3 X s 994 283 m -3 X s
 gsave  408 306 930 13 C 937.285 56.9778 t 0 r /Helvetica findfont 22.8295 sf 0 0 m (\2550.05) show NC gr 
 gsave  408 306 930 13 C 937.285 82.6178 t 0 r /Helvetica findfont 22.8295 sf 0 0 m (\2550.04) show NC gr 
 gsave  408 306 930 13 C 937.285 108.258 t 0 r /Helvetica findfont 22.8295 sf 0 0 m (\2550.03) show NC gr 
 gsave  408 306 930 13 C 937.285 136.747 t 0 r /Helvetica findfont 22.8295 sf 0 0 m (\2550.02) show NC gr 
 gsave  408 306 930 13 C 940.134 162.387 t 0 r /Helvetica findfont 22.8295 sf 0 0 m (\2550.01) show NC gr 
 gsave  408 306 930 13 C 974.32 188.027 t 0 r /Helvetica findfont 22.8295 sf 0 0 m (0) show NC gr 
 gsave  408 306 930 13 C 945.832 213.667 t 0 r /Helvetica findfont 22.8295 sf 0 0 m (0.01) show NC gr 
 gsave  408 306 930 13 C 942.983 239.307 t 0 r /Helvetica findfont 22.8295 sf 0 0 m (0.02) show NC gr 
 gsave  408 306 930 13 C 942.983 264.947 t 0 r /Helvetica findfont 22.8295 sf 0 0 m (0.03) show NC gr  1297 59 m 229 Y s 1292 65 m 5 X s 1294 70 m 3 X s 1294 75 m 3 X s 1294 80 m 3 X s 1294 85 m 3 X s 1292 91 m 5 X s 1294 96 m 3 X s 1294 101 m 3 X s
 1294 106 m 3 X s 1294 111 m 3 X s 1292 117 m 5 X s 1294 122 m 3 X s 1294 127 m 3 X s 1294 132 m 3 X s 1294 137 m 3 X s 1292 143 m 5 X s 1294 148 m 3 X s 1294 153 m 3 X s 1294 158 m 3 X s 1294 163 m 3 X s 1292 169 m 5 X s 1294 174 m 3 X s 1294 179 m
 3 X s 1294 184 m 3 X s 1294 190 m 3 X s 1292 195 m 5 X s 1294 200 m 3 X s 1294 205 m 3 X s 1294 210 m 3 X s 1294 216 m 3 X s 1292 221 m 5 X s 1294 226 m 3 X s 1294 231 m 3 X s 1294 236 m 3 X s 1294 242 m 3 X s 1292 247 m 5 X s 1294 252 m 3 X s 1294
 257 m 3 X s 1294 262 m 3 X s 1294 268 m 3 X s 1292 273 m 5 X s 1292 65 m 5 X s 1294 59 m 3 X s 1292 273 m 5 X s 1294 278 m 3 X s 1294 283 m 3 X s 1047 223 1104 123 1216 201 1272 196 4 { m21} R 1047 235 m 34 Y s 1042 269 m 11 X s 1047 212 m -34 Y s
 1042 178 m 11 X s 1104 134 m 33 Y s 1098 167 m 11 X s 1104 111 m -33 Y s 1098 78 m 11 X s 1216 212 m 34 Y s 1210 246 m 12 X s 1216 189 m -34 Y s 1210 155 m 12 X s 1272 207 m 34 Y s 1267 241 m 11 X s 1272 184 m -34 Y s 1267 150 m 11 X s 9 lw 0.95
 0.95 0.95 c black 993 195 m 3 X 3 -1 d 24 X 3 -1 d 28 X 3 -1 d 24 X 3 -1 d 25 X 3 -1 d 24 X 3 -1 d 4 X s 1143 189 m 21 X 3 -1 d 28 X 3 -1 d 24 X 3 -1 d 25 X 3 -1 d 24 X 3 -1 d 13 X s 1293 184 m 3 X s 0.49 0.6 0.82 c black 0.49 0.6 0.82 c
 gsave  408 306 930 13 C 1051.24 296.285 t 0 r /Helvetica-Bold findfont 25.6831 sf 0 0 m (8.5 < E < 9.0 GeV) show NC gr  0.52 0.76 0.64 c black 0.52 0.76 0.64 c
 gsave  408 306 930 13 C 1031.3 259.249 t 0 r /Helvetica-Bold findfont 25.6831 sf 0 0 m 
 228 214 200 193 178 171 156 149 133 126 119 105 91 77 69 55 47 39 25 17
(A = \2550.002, p = 1.000) K NC gr  1 0.6 1 c black 1 0.6 1 c
 gsave  408 306 930 13 C 1336.13 128.2 t 90 r /Helvetica-Bold findfont 28.5368 sf 0 0 m (/dof=1.0) show NC gr  black 1 0.6 1 c
 gsave  408 306 930 13 C 1324.73 116.804 t 90 r /Helvetica-Bold findfont 19.9758 sf 0 0 m (2) show NC gr  black 1 0.6 1 c
 gsave  408 306 930 13 C 1336.13 99.7112 t 90 r /Symbol findfont 28.5368 sf 0 0 m (c) show NC gr  black 3 lw 1 1 1 c 408 306 1383 13 bf black 1 1 1 c black 306 229 1445 59 bl 306 229 1445 59 bl 1445 59 m 306 X s 1445 63 m -4 Y s 1557 63 m -4 Y s 1670
 63 m -4 Y s 1670 63 m -4 Y s
 gsave  408 306 1383 13 C 1435.84 39.8845 t 0 r /Helvetica findfont 22.8295 sf 0 0 m (0) show NC gr 
 gsave  408 306 1383 13 C 1549.8 39.8845 t 0 r /Helvetica findfont 22.8295 sf 0 0 m (1) show NC gr 
 gsave  408 306 1383 13 C 1660.9 39.8845 t 0 r /Helvetica findfont 22.8295 sf 0 0 m (2) show NC gr  1445 288 m 306 X s 1445 284 m 4 Y s 1557 284 m 4 Y s 1670 284 m 4 Y s 1670 284 m 4 Y s 1445 59 m 229 Y s 1450 76 m -5 X s 1447 82 m -2 X s 1447 88 m
 -2 X s 1447 94 m -2 X s 1447 101 m -2 X s 1450 107 m -5 X s 1447 113 m -2 X s 1447 119 m -2 X s 1447 125 m -2 X s 1447 131 m -2 X s 1450 137 m -5 X s 1447 143 m -2 X s 1447 149 m -2 X s 1447 155 m -2 X s 1447 161 m -2 X s 1450 167 m -5 X s 1447 174
 m -2 X s 1447 180 m -2 X s 1447 186 m -2 X s 1447 192 m -2 X s 1450 198 m -5 X s 1447 204 m -2 X s 1447 210 m -2 X s 1447 216 m -2 X s 1447 222 m -2 X s 1450 228 m -5 X s 1447 234 m -2 X s 1447 240 m -2 X s 1447 247 m -2 X s 1447 253 m -2 X s 1450
 259 m -5 X s 1450 76 m -5 X s 1447 70 m -2 X s 1447 64 m -2 X s 1450 259 m -5 X s 1447 265 m -2 X s 1447 271 m -2 X s 1447 277 m -2 X s 1447 283 m -2 X s
 gsave  408 306 1383 13 C 1390.26 68.3734 t 0 r /Helvetica findfont 22.8295 sf 0 0 m (\2550.04) show NC gr 
 gsave  408 306 1383 13 C 1390.26 99.7112 t 0 r /Helvetica findfont 22.8295 sf 0 0 m (\2550.03) show NC gr 
 gsave  408 306 1383 13 C 1390.26 131.049 t 0 r /Helvetica findfont 22.8295 sf 0 0 m (\2550.02) show NC gr 
 gsave  408 306 1383 13 C 1393.11 159.538 t 0 r /Helvetica findfont 22.8295 sf 0 0 m (\2550.01) show NC gr 
 gsave  408 306 1383 13 C 1427.29 190.876 t 0 r /Helvetica findfont 22.8295 sf 0 0 m (0) show NC gr 
 gsave  408 306 1383 13 C 1398.81 222.213 t 0 r /Helvetica findfont 22.8295 sf 0 0 m (0.01) show NC gr 
 gsave  408 306 1383 13 C 1395.96 250.702 t 0 r /Helvetica findfont 22.8295 sf 0 0 m (0.02) show NC gr  1751 59 m 229 Y s 1745 76 m 6 X s 1748 82 m 3 X s 1748 88 m 3 X s 1748 94 m 3 X s 1748 101 m 3 X s 1745 107 m 6 X s 1748 113 m 3 X s 1748 119 m 3
 X s 1748 125 m 3 X s 1748 131 m 3 X s 1745 137 m 6 X s 1748 143 m 3 X s 1748 149 m 3 X s 1748 155 m 3 X s 1748 161 m 3 X s 1745 167 m 6 X s 1748 174 m 3 X s 1748 180 m 3 X s 1748 186 m 3 X s 1748 192 m 3 X s 1745 198 m 6 X s 1748 204 m 3 X s 1748
 210 m 3 X s 1748 216 m 3 X s 1748 222 m 3 X s 1745 228 m 6 X s 1748 234 m 3 X s 1748 240 m 3 X s 1748 247 m 3 X s 1748 253 m 3 X s 1745 259 m 6 X s 1745 76 m 6 X s 1748 70 m 3 X s 1748 64 m 3 X s 1745 259 m 6 X s 1748 265 m 3 X s 1748 271 m 3 X s
 1748 277 m 3 X s 1748 283 m 3 X s 1501 197 1557 134 1670 159 1726 212 4 { m21} R 1501 209 m 45 Y s 1495 254 m 12 X s 1501 186 m -46 Y s 1495 140 m 12 X s 1557 145 m 45 Y s 1551 190 m 12 X s 1557 123 m -45 Y s 1551 78 m 12 X s 1670 170 m 45 Y s 1664
 215 m 11 X s 1670 148 m -45 Y s 1664 103 m 11 X s 1726 223 m 46 Y s 1720 269 m 12 X s 1726 201 m -46 Y s 1720 155 m 12 X s 9 lw 0.95 0.95 0.95 c black 1446 198 m 3 -1 d 9 X 3 -1 d 10 X 3 -1 d 9 X 3 -1 d 9 X 3 -1 d 9 X 3 -1 d 6 X 4 -1 d 9 X 3 -1 d 9
 X 3 -1 d 9 X 3 -1 d 9 X 4 -1 d 9 X 3 -1 d 9 X 3 -1 d 3 X s 1596 185 m 3 X 3 -1 d 9 X 3 -1 d 10 X 3 -1 d 9 X 3 -1 d 9 X 3 -1 d 9 X 3 -1 d 7 X 3 -1 d 9 X 3 -1 d 9 X 3 -1 d 9 X 3 -1 d 10 X 3 -1 d 9 X 3 -1 d 9 X 3 -1 d s 1746 172 m 3 X s 0.49 0.6 0.82 c
 black 0.49 0.6 0.82 c
 gsave  408 306 1383 13 C 1504.21 296.285 t 0 r /Helvetica-Bold findfont 25.6831 sf 0 0 m (9.0 < E < 9.5 GeV) show NC gr  0.52 0.76 0.64 c black 0.52 0.76 0.64 c
 gsave  408 306 1383 13 C 1484.27 259.249 t 0 r /Helvetica-Bold findfont 25.6831 sf 0 0 m 
 228 214 200 193 178 171 156 149 134 126 119 105 91 77 69 55 47 40 25 17
(A = \2550.003, p = 1.000) K NC gr  1 0.6 1 c black 1 0.6 1 c
 gsave  408 306 1383 13 C 1789.1 128.2 t 90 r /Helvetica-Bold findfont 28.5368 sf 0 0 m (/dof=0.5) show NC gr  black 1 0.6 1 c
 gsave  408 306 1383 13 C 1777.71 116.804 t 90 r /Helvetica-Bold findfont 19.9758 sf 0 0 m (2) show NC gr  black 1 0.6 1 c
 gsave  408 306 1383 13 C 1789.1 99.7112 t 90 r /Symbol findfont 28.5368 sf 0 0 m (c) show NC gr  black 3 lw 1 1 1 c 408 306 1837 13 bf black 1 1 1 c black 306 229 1898 59 bl 306 229 1898 59 bl 1898 59 m 306 X s 1898 63 m -4 Y s 2011 63 m -4 Y s 2123
 63 m -4 Y s 2123 63 m -4 Y s
 gsave  408 306 1837 13 C 1888.81 39.8845 t 0 r /Helvetica findfont 22.8295 sf 0 0 m (0) show NC gr 
 gsave  408 306 1837 13 C 2002.77 39.8845 t 0 r /Helvetica findfont 22.8295 sf 0 0 m (1) show NC gr 
 gsave  408 306 1837 13 C 2113.88 39.8845 t 0 r /Helvetica findfont 22.8295 sf 0 0 m (2) show NC gr  1898 288 m 306 X s 1898 284 m 4 Y s 2011 284 m 4 Y s 2123 284 m 4 Y s 2123 284 m 4 Y s 1898 59 m 229 Y s 1904 66 m -6 X s 1901 71 m -3 X s 1901 75 m
 -3 X s 1901 80 m -3 X s 1901 85 m -3 X s 1904 90 m -6 X s 1901 95 m -3 X s 1901 100 m -3 X s 1901 104 m -3 X s 1901 109 m -3 X s 1904 114 m -6 X s 1901 119 m -3 X s 1901 124 m -3 X s 1901 129 m -3 X s 1901 134 m -3 X s 1904 138 m -6 X s 1901 143 m
 -3 X s 1901 148 m -3 X s 1901 153 m -3 X s 1901 158 m -3 X s 1904 163 m -6 X s 1901 167 m -3 X s 1901 172 m -3 X s 1901 177 m -3 X s 1901 182 m -3 X s 1904 187 m -6 X s 1901 192 m -3 X s 1901 197 m -3 X s 1901 201 m -3 X s 1901 206 m -3 X s 1904 211
 m -6 X s 1901 216 m -3 X s 1901 221 m -3 X s 1901 226 m -3 X s 1901 231 m -3 X s 1904 235 m -6 X s 1901 240 m -3 X s 1901 245 m -3 X s 1901 250 m -3 X s 1901 255 m -3 X s 1904 260 m -6 X s 1901 264 m -3 X s 1901 269 m -3 X s 1901 274 m -3 X s 1901
 279 m -3 X s 1904 284 m -6 X s 1904 66 m -6 X s 1901 61 m -3 X s 1904 284 m -6 X s
 gsave  408 306 1837 13 C 1843.23 59.8267 t 0 r /Helvetica findfont 22.8295 sf 0 0 m (\2550.03) show NC gr 
 gsave  408 306 1837 13 C 1843.23 82.6178 t 0 r /Helvetica findfont 22.8295 sf 0 0 m (\2550.02) show NC gr 
 gsave  408 306 1837 13 C 1846.08 108.258 t 0 r /Helvetica findfont 22.8295 sf 0 0 m (\2550.01) show NC gr 
 gsave  408 306 1837 13 C 1880.27 131.049 t 0 r /Helvetica findfont 22.8295 sf 0 0 m (0) show NC gr 
 gsave  408 306 1837 13 C 1851.78 156.689 t 0 r /Helvetica findfont 22.8295 sf 0 0 m (0.01) show NC gr 
 gsave  408 306 1837 13 C 1848.93 179.48 t 0 r /Helvetica findfont 22.8295 sf 0 0 m (0.02) show NC gr 
 gsave  408 306 1837 13 C 1848.93 205.12 t 0 r /Helvetica findfont 22.8295 sf 0 0 m (0.03) show NC gr 
 gsave  408 306 1837 13 C 1848.93 227.911 t 0 r /Helvetica findfont 22.8295 sf 0 0 m (0.04) show NC gr 
 gsave  408 306 1837 13 C 1848.93 253.551 t 0 r /Helvetica findfont 22.8295 sf 0 0 m (0.05) show NC gr 
 gsave  408 306 1837 13 C 1848.93 276.342 t 0 r /Helvetica findfont 22.8295 sf 0 0 m (0.06) show NC gr  2204 59 m 229 Y s 2199 66 m 5 X s 2201 71 m 3 X s 2201 75 m 3 X s 2201 80 m 3 X s 2201 85 m 3 X s 2199 90 m 5 X s 2201 95 m 3 X s 2201 100 m 3 X s
 2201 104 m 3 X s 2201 109 m 3 X s 2199 114 m 5 X s 2201 119 m 3 X s 2201 124 m 3 X s 2201 129 m 3 X s 2201 134 m 3 X s 2199 138 m 5 X s 2201 143 m 3 X s 2201 148 m 3 X s 2201 153 m 3 X s 2201 158 m 3 X s 2199 163 m 5 X s 2201 167 m 3 X s 2201 172 m
 3 X s 2201 177 m 3 X s 2201 182 m 3 X s 2199 187 m 5 X s 2201 192 m 3 X s 2201 197 m 3 X s 2201 201 m 3 X s 2201 206 m 3 X s 2199 211 m 5 X s 2201 216 m 3 X s 2201 221 m 3 X s 2201 226 m 3 X s 2201 231 m 3 X s 2199 235 m 5 X s 2201 240 m 3 X s 2201
 245 m 3 X s 2201 250 m 3 X s 2201 255 m 3 X s 2199 260 m 5 X s 2201 264 m 3 X s 2201 269 m 3 X s 2201 274 m 3 X s 2201 279 m 3 X s 2199 284 m 5 X s 2199 66 m 5 X s 2201 61 m 3 X s 2199 284 m 5 X s 1954 182 2011 198 2123 127 2179 219 4 { m21} R 1954
 193 m 38 Y s 1949 231 m 11 X s 1954 171 m -38 Y s 1949 133 m 11 X s 2011 209 m 38 Y s 2005 247 m 11 X s 2011 187 m -38 Y s 2005 149 m 11 X s 2123 138 m 37 Y s 2117 175 m 12 X s 2123 115 m -37 Y s 2117 78 m 12 X s 2179 231 m 38 Y s 2174 269 m 11 X s
 2179 208 m -38 Y s 2174 170 m 11 X s 9 lw 0.95 0.95 0.95 c black 1900 139 m 3 X 3 1 d 3 1 d 3 X 3 1 d 3 X 3 1 d 3 1 d 3 X 3 1 d 3 X 3 1 d 3 1 d 3 X 4 1 d 3 X 3 1 d 3 1 d 3 X 3 1 d 3 X 3 1 d 3 1 d 3 X 3 1 d 3 X 3 1 d 3 1 d 3 X 3 1 d 4 1 d 3 X 3 1 d 3
 X 3 1 d 3 1 d 3 X 3 1 d 3 X 3 1 d 3 1 d 3 X 3 1 d 3 X 3 1 d 3 1 d 3 X 4 1 d 3 X s 2050 168 m 3 1 d 3 1 d 3 X 3 1 d 3 X 3 1 d 3 1 d 3 X 3 1 d 3 X 3 1 d 3 1 d 3 X 3 1 d 4 1 d 3 X 3 1 d 3 X 3 1 d 3 1 d 3 X 3 1 d 3 X 3 1 d 3 1 d 3 X 3 1 d 3 X 3 1 d 3 1
 d 4 X 3 1 d 3 X 3 1 d 3 1 d 3 X 3 1 d 3 X 3 1 d 3 1 d 3 X 3 1 d 3 1 d 3 X 3 1 d 3 X 4 1 d 3 1 d 3 X s 2200 198 m 3 1 d s 0.49 0.6 0.82 c black 0.49 0.6 0.82 c
 gsave  408 306 1837 13 C 1948.64 296.285 t 0 r /Helvetica-Bold findfont 25.6831 sf 0 0 m (9.5 < E < 10.0 GeV) show NC gr  0.52 0.76 0.64 c black 0.52 0.76 0.64 c
 gsave  408 306 1837 13 C 1942.94 259.249 t 0 r /Helvetica-Bold findfont 25.6831 sf 0 0 m 
 220 206 192 185 170 163 148 141 125 118 111 97 83 69 61 47 40 25 18
(A = 0.009, p = 1.000) K NC gr  1 0.6 1 c black 1 0.6 1 c
 gsave  408 306 1837 13 C 2242.08 128.2 t 90 r /Helvetica-Bold findfont 28.5368 sf 0 0 m (/dof=0.9) show NC gr  black 1 0.6 1 c
 gsave  408 306 1837 13 C 2230.68 116.804 t 90 r /Helvetica-Bold findfont 19.9758 sf 0 0 m (2) show NC gr  black 1 0.6 1 c
 gsave  408 306 1837 13 C 2242.08 99.7112 t 90 r /Symbol findfont 28.5368 sf 0 0 m (c) show NC gr 
 gr  gr showpage
end
%%EOF
