%!PS-Adobe-2.0 EPSF-2.0
%%BoundingBox:  0 0 567 332
%%Title: Horn1XOffset_nof_fits.eps: Fits
%%Creator: ROOT Version 5.30/06
%%CreationDate: Sun Feb  2 09:29:03 2014
%%EndComments
%%BeginProlog
80 dict begin
/s {stroke} def /l {lineto} def /m {moveto} def /t {translate} def
/r {rotate} def /rl {roll}  def /R {repeat} def
/d {rlineto} def /rm {rmoveto} def /gr {grestore} def /f {eofill} def
/c {setrgbcolor} def /black {0 setgray} def /sd {setdash} def
/cl {closepath} def /sf {scalefont setfont} def /lw {setlinewidth} def
/box {m dup 0 exch d exch 0 d 0 exch neg d cl} def
/NC{systemdict begin initclip end}def/C{NC box clip newpath}def
/bl {box s} def /bf {box f} def /Y { 0 exch d} def /X { 0 d} def 
/K {{pop pop 0 moveto} exch kshow} bind def
/ita {/ang 15 def gsave [1 0 ang dup sin exch cos div 1 0 0] concat} def 
/mp {newpath /y exch def /x exch def} def
/side {[w .77 mul w .23 mul] .385 w mul sd w 0 l currentpoint t -144 r} def
/mr {mp x y w2 0 360 arc} def /m24 {mr s} def /m20 {mr f} def
/mb {mp x y w2 add m w2 neg 0 d 0 w neg d w 0 d 0 w d cl} def
/mt {mp x y w2 add m w2 neg w neg d w 0 d cl} def
/m21 {mb f} def /m25 {mb s} def /m22 {mt f} def /m26{mt s} def
/m23 {mp x y w2 sub m w2 w d w neg 0 d cl f} def
/m27 {mp x y w2 add m w3 neg w2 neg d w3 w2 neg d w3 w2 d cl s} def
/m28 {mp x w2 sub y w2 sub w3 add m w3 0 d  0 w3 neg d w3 0 d 0 w3 d w3 0 d  0 w3 d w3 neg 0 d 0 w3 d w3 neg 0 d 0 w3 neg d w3 neg 0 d cl s } def
/m29 {mp gsave x w2 sub y w2 add w3 sub m currentpoint t 4 {side} repeat cl fill gr} def
/m30 {mp gsave x w2 sub y w2 add w3 sub m currentpoint t 4 {side} repeat cl s gr} def
/m31 {mp x y w2 sub m 0 w d x w2 sub y m w 0 d x w2 sub y w2 add m w w neg d x w2 sub y w2 sub m w w d s} def
/m32 {mp x y w2 sub m w2 w d w neg 0 d cl s} def
/m33 {mp x y w2 add m w3 neg w2 neg d w3 w2 neg d w3 w2 d cl f} def
/m34 {mp x w2 sub y w2 sub w3 add m w3 0 d  0 w3 neg d w3 0 d 0 w3 d w3 0 d  0 w3 d w3 neg 0 d 0 w3 d w3 neg 0 d 0 w3 neg d w3 neg 0 d cl f } def
/m2 {mp x y w2 sub m 0 w d x w2 sub y m w 0 d s} def
/m5 {mp x w2 sub y w2 sub m w w d x w2 sub y w2 add m w w neg d s} def
/reEncode {exch findfont dup length dict begin {1 index /FID eq  {pop pop} {def} ifelse } forall /Encoding exch def currentdict end dup /FontName get exch definefont pop } def [/Times-Bold /Times-Italic /Times-BoldItalic /Helvetica /Helvetica-Oblique
 /Helvetica-Bold /Helvetica-BoldOblique /Courier /Courier-Oblique /Courier-Bold /Courier-BoldOblique /Times-Roman /AvantGarde-Book /AvantGarde-BookOblique /AvantGarde-Demi /AvantGarde-DemiOblique /Bookman-Demi /Bookman-DemiItalic /Bookman-Light
 /Bookman-LightItalic /Helvetica-Narrow /Helvetica-Narrow-Bold /Helvetica-Narrow-BoldOblique /Helvetica-Narrow-Oblique /NewCenturySchlbk-Roman /NewCenturySchlbk-Bold /NewCenturySchlbk-BoldItalic /NewCenturySchlbk-Italic /Palatino-Bold
 /Palatino-BoldItalic /Palatino-Italic /Palatino-Roman ] {ISOLatin1Encoding reEncode } forall%%EndProlog
%%BeginSetup
%%EndSetup
newpath  gsave  .25 .25 scale  gsave  0 0 t black[  ] 0 sd 3 lw 1 1 1 c 2268 1328 0 0 bf black 1 1 1 c 408 305 23 1009 bf black 1 1 1 c black 306 229 84 1055 bl 306 229 84 1055 bl 84 1055 m 306 X s 84 1059 m -4 Y s 196 1059 m -4 Y s 309 1059 m -4 Y s
 309 1059 m -4 Y s
 gsave  408 305 23 1009 C 74.0711 1034.15 t 0 r /Helvetica findfont 22.8295 sf 0 0 m (0) show NC gr 
 gsave  408 305 23 1009 C 188.027 1034.15 t 0 r /Helvetica findfont 22.8295 sf 0 0 m (1) show NC gr 
 gsave  408 305 23 1009 C 299.133 1034.15 t 0 r /Helvetica findfont 22.8295 sf 0 0 m (2) show NC gr  84 1284 m 306 X s 84 1280 m 4 Y s 196 1280 m 4 Y s 309 1280 m 4 Y s 309 1280 m 4 Y s 84 1055 m 229 Y s 89 1060 m -5 X s 87 1071 m -3 X s 87 1083 m -3
 X s 87 1094 m -3 X s 89 1105 m -5 X s 87 1117 m -3 X s 87 1128 m -3 X s 87 1139 m -3 X s 89 1151 m -5 X s 87 1162 m -3 X s 87 1173 m -3 X s 87 1185 m -3 X s 89 1196 m -5 X s 87 1207 m -3 X s 87 1219 m -3 X s 87 1230 m -3 X s 89 1241 m -5 X s 89 1060
 m -5 X s 89 1241 m -5 X s 87 1252 m -3 X s 87 1264 m -3 X s 87 1275 m -3 X s
 gsave  408 305 23 1009 C 14.2445 1054.09 t 0 r /Helvetica findfont 22.8295 sf 0 0 m (\2550.006) show NC gr 
 gsave  408 305 23 1009 C 14.2445 1096.82 t 0 r /Helvetica findfont 22.8295 sf 0 0 m (\2550.004) show NC gr 
 gsave  408 305 23 1009 C 14.2445 1142.4 t 0 r /Helvetica findfont 22.8295 sf 0 0 m (\2550.002) show NC gr 
 gsave  408 305 23 1009 C 65.5245 1187.99 t 0 r /Helvetica findfont 22.8295 sf 0 0 m (0) show NC gr 
 gsave  408 305 23 1009 C 22.7911 1233.57 t 0 r /Helvetica findfont 22.8295 sf 0 0 m (0.002) show NC gr  390 1055 m 229 Y s 385 1060 m 5 X s 387 1071 m 3 X s 387 1083 m 3 X s 387 1094 m 3 X s 385 1105 m 5 X s 387 1117 m 3 X s 387 1128 m 3 X s 387
 1139 m 3 X s 385 1151 m 5 X s 387 1162 m 3 X s 387 1173 m 3 X s 387 1185 m 3 X s 385 1196 m 5 X s 387 1207 m 3 X s 387 1219 m 3 X s 387 1230 m 3 X s 385 1241 m 5 X s 385 1060 m 5 X s 385 1241 m 5 X s 387 1252 m 3 X s 387 1264 m 3 X s 387 1275 m 3 X
 s /w 22 def /w2 {w 2 div} def /w3 {w 3 div} def 140 1207 196 1197 309 1170 365 1131 4 { m21} R 140 1218 m 47 Y s 134 1265 m 12 X s 140 1195 m -46 Y s 134 1149 m 12 X s 196 1209 m 46 Y s 191 1255 m 11 X s 196 1186 m -46 Y s 191 1140 m 11 X s 309 1181
 m 46 Y s 303 1227 m 12 X s 309 1159 m -47 Y s 303 1112 m 12 X s 365 1143 m 46 Y s 360 1189 m 11 X s 365 1120 m -46 Y s 360 1074 m 11 X s 1 0 0 c 9 lw 0.95 0.95 0.95 c black 1 0 0 c 85 1196 m 22 X 3 -1 d 15 X 3 -1 d 13 X 3 -1 d 9 X 3 -1 d 6 X 3 -1 d
 3 X 3 -1 d 6 X 3 -1 d 3 X 3 -1 d 7 X 3 -1 d 3 X 3 -1 d 3 X 3 -1 d 3 -1 d 3 X 3 -1 d 3 X 3 -1 d 3 X 3 -1 d 3 -1 d 3 X s 235 1180 m 4 -1 d 3 -1 d 3 X 3 -1 d 3 -1 d 3 -1 d 3 X 3 -1 d 3 -1 d 3 -1 d 3 X 3 -1 d 3 -1 d 3 -1 d 3 -1 d 3 -1 d 3 X 4 -1 d 3 -1
 d 3 -1 d 3 -1 d 3 -1 d 3 -1 d 3 -1 d 3 -1 d 3 -1 d 3 -1 d 3 -1 d 3 -1 d 3 -1 d 3 -1 d 3 -1 d 3 -1 d 4 -1 d 3 -2 d 3 -1 d 3 -1 d 3 -1 d 3 -1 d 3 -1 d 3 -1 d 3 -2 d 3 -1 d 3 -1 d 3 -1 d 3 -2 d 3 -1 d 3 -1 d 3 -2 d s 385 1131 m 4 -1 d s 0.49 0.6 0.82 c
 black 0.49 0.6 0.82 c
 gsave  408 305 23 1009 C 142.445 1293.4 t 0 r /Helvetica-Bold findfont 25.6831 sf 0 0 m (0.0 < E < 0.5 GeV) show NC gr  0.52 0.76 0.64 c black 0.52 0.76 0.64 c
 gsave  408 305 23 1009 C 122.502 1256.36 t 0 r /Helvetica-Bold findfont 25.6831 sf 0 0 m 
 228 214 200 193 178 171 156 149 134 126 119 105 91 77 69 55 47 39 25 17
(A = \2550.000, p = 2.000) K NC gr  1 0.6 1 c black 1 0.6 1 c
 gsave  408 305 23 1009 C 427.334 1122.46 t 90 r /Helvetica-Bold findfont 28.5368 sf 0 0 m (/dof=0.0) show NC gr  black 1 0.6 1 c
 gsave  408 305 23 1009 C 415.938 1111.07 t 90 r /Helvetica-Bold findfont 19.9758 sf 0 0 m (2) show NC gr  black 1 0.6 1 c
 gsave  408 305 23 1009 C 427.334 1093.97 t 90 r /Symbol findfont 28.5368 sf 0 0 m (c) show NC gr  black 3 lw 1 1 1 c 408 305 476 1009 bf black 1 1 1 c black 307 229 537 1055 bl 307 229 537 1055 bl 537 1055 m 307 X s 537 1059 m -4 Y s 650 1059 m -4 Y
 s 763 1059 m -4 Y s 763 1059 m -4 Y s
 gsave  408 305 476 1009 C 527.045 1034.15 t 0 r /Helvetica findfont 22.8295 sf 0 0 m (0) show NC gr 
 gsave  408 305 476 1009 C 643.849 1034.15 t 0 r /Helvetica findfont 22.8295 sf 0 0 m (1) show NC gr 
 gsave  408 305 476 1009 C 752.107 1034.15 t 0 r /Helvetica findfont 22.8295 sf 0 0 m (2) show NC gr  537 1284 m 307 X s 537 1280 m 4 Y s 650 1280 m 4 Y s 763 1280 m 4 Y s 763 1280 m 4 Y s 537 1055 m 229 Y s 543 1055 m -6 X s 540 1060 m -3 X s 540
 1065 m -3 X s 540 1070 m -3 X s 540 1075 m -3 X s 543 1080 m -6 X s 540 1085 m -3 X s 540 1090 m -3 X s 540 1095 m -3 X s 540 1100 m -3 X s 543 1105 m -6 X s 540 1110 m -3 X s 540 1115 m -3 X s 540 1120 m -3 X s 540 1125 m -3 X s 543 1130 m -6 X s
 540 1135 m -3 X s 540 1140 m -3 X s 540 1145 m -3 X s 540 1150 m -3 X s 543 1155 m -6 X s 540 1160 m -3 X s 540 1165 m -3 X s 540 1170 m -3 X s 540 1175 m -3 X s 543 1180 m -6 X s 540 1185 m -3 X s 540 1190 m -3 X s 540 1195 m -3 X s 540 1200 m -3 X
 s 543 1205 m -6 X s 540 1210 m -3 X s 540 1215 m -3 X s 540 1220 m -3 X s 540 1225 m -3 X s 543 1230 m -6 X s 540 1235 m -3 X s 540 1240 m -3 X s 540 1245 m -3 X s 540 1250 m -3 X s 543 1255 m -6 X s 540 1260 m -3 X s 540 1265 m -3 X s 540 1270 m -3
 X s 540 1275 m -3 X s 543 1280 m -6 X s 543 1055 m -6 X s 543 1280 m -6 X s
 gsave  408 305 476 1009 C 467.218 1048.39 t 0 r /Helvetica findfont 22.8295 sf 0 0 m (\2550.004) show NC gr 
 gsave  408 305 476 1009 C 467.218 1074.03 t 0 r /Helvetica findfont 22.8295 sf 0 0 m (\2550.003) show NC gr 
 gsave  408 305 476 1009 C 467.218 1096.82 t 0 r /Helvetica findfont 22.8295 sf 0 0 m (\2550.002) show NC gr 
 gsave  408 305 476 1009 C 470.067 1122.46 t 0 r /Helvetica findfont 22.8295 sf 0 0 m (\2550.001) show NC gr 
 gsave  408 305 476 1009 C 518.498 1148.1 t 0 r /Helvetica findfont 22.8295 sf 0 0 m (0) show NC gr 
 gsave  408 305 476 1009 C 478.614 1173.74 t 0 r /Helvetica findfont 22.8295 sf 0 0 m (0.001) show NC gr 
 gsave  408 305 476 1009 C 475.765 1199.38 t 0 r /Helvetica findfont 22.8295 sf 0 0 m (0.002) show NC gr 
 gsave  408 305 476 1009 C 475.765 1222.17 t 0 r /Helvetica findfont 22.8295 sf 0 0 m (0.003) show NC gr 
 gsave  408 305 476 1009 C 475.765 1247.81 t 0 r /Helvetica findfont 22.8295 sf 0 0 m (0.004) show NC gr 
 gsave  408 305 476 1009 C 475.765 1273.45 t 0 r /Helvetica findfont 22.8295 sf 0 0 m (0.005) show NC gr  844 1055 m 229 Y s 838 1055 m 6 X s 841 1060 m 3 X s 841 1065 m 3 X s 841 1070 m 3 X s 841 1075 m 3 X s 838 1080 m 6 X s 841 1085 m 3 X s 841
 1090 m 3 X s 841 1095 m 3 X s 841 1100 m 3 X s 838 1105 m 6 X s 841 1110 m 3 X s 841 1115 m 3 X s 841 1120 m 3 X s 841 1125 m 3 X s 838 1130 m 6 X s 841 1135 m 3 X s 841 1140 m 3 X s 841 1145 m 3 X s 841 1150 m 3 X s 838 1155 m 6 X s 841 1160 m 3 X
 s 841 1165 m 3 X s 841 1170 m 3 X s 841 1175 m 3 X s 838 1180 m 6 X s 841 1185 m 3 X s 841 1190 m 3 X s 841 1195 m 3 X s 841 1200 m 3 X s 838 1205 m 6 X s 841 1210 m 3 X s 841 1215 m 3 X s 841 1220 m 3 X s 841 1225 m 3 X s 838 1230 m 6 X s 841 1235
 m 3 X s 841 1240 m 3 X s 841 1245 m 3 X s 841 1250 m 3 X s 838 1255 m 6 X s 841 1260 m 3 X s 841 1265 m 3 X s 841 1270 m 3 X s 841 1275 m 3 X s 838 1280 m 6 X s 838 1055 m 6 X s 838 1280 m 6 X s /w 23 def /w2 {w 2 div} def /w3 {w 3 div} def 594 1188
 650 1162 763 1151 819 1155 4 { m21} R 594 1199 m 66 Y s 588 1265 m 11 X s 594 1176 m -66 Y s 588 1110 m 11 X s 650 1173 m 66 Y s 644 1239 m 12 X s 650 1150 m -65 Y s 644 1085 m 12 X s 763 1162 m 66 Y s 757 1228 m 11 X s 763 1139 m -65 Y s 757 1074 m
 11 X s 819 1166 m 65 Y s 813 1231 m 12 X s 819 1143 m -65 Y s 813 1078 m 12 X s 9 lw 0.95 0.95 0.95 c black 539 1155 m 24 X 4 1 d 107 X 3 1 d 12 X s 689 1157 m 95 X 3 1 d 52 X s 839 1158 m 3 X s 0.49 0.6 0.82 c black 0.49 0.6 0.82 c
 gsave  408 305 476 1009 C 595.418 1293.4 t 0 r /Helvetica-Bold findfont 25.6831 sf 0 0 m (0.5 < E < 1.0 GeV) show NC gr  0.52 0.76 0.64 c black 0.52 0.76 0.64 c
 gsave  408 305 476 1009 C 581.174 1256.36 t 0 r /Helvetica-Bold findfont 25.6831 sf 0 0 m 
 220 206 192 185 170 163 148 141 125 118 111 97 83 68 61 47 40 25 18
(A = 0.000, p = 1.000) K NC gr  1 0.6 1 c black 1 0.6 1 c
 gsave  408 305 476 1009 C 883.156 1122.46 t 90 r /Helvetica-Bold findfont 28.5368 sf 0 0 m (/dof=0.1) show NC gr  black 1 0.6 1 c
 gsave  408 305 476 1009 C 871.76 1111.07 t 90 r /Helvetica-Bold findfont 19.9758 sf 0 0 m (2) show NC gr  black 1 0.6 1 c
 gsave  408 305 476 1009 C 883.156 1093.97 t 90 r /Symbol findfont 28.5368 sf 0 0 m (c) show NC gr  black 3 lw 1 1 1 c 408 305 930 1009 bf black 1 1 1 c black 306 229 991 1055 bl 306 229 991 1055 bl 991 1055 m 306 X s 991 1059 m -4 Y s 1104 1059 m -4
 Y s 1216 1059 m -4 Y s 1216 1059 m -4 Y s
 gsave  408 305 930 1009 C 980.018 1034.15 t 0 r /Helvetica findfont 22.8295 sf 0 0 m (0) show NC gr 
 gsave  408 305 930 1009 C 1096.82 1034.15 t 0 r /Helvetica findfont 22.8295 sf 0 0 m (1) show NC gr 
 gsave  408 305 930 1009 C 1205.08 1034.15 t 0 r /Helvetica findfont 22.8295 sf 0 0 m (2) show NC gr  991 1284 m 306 X s 991 1280 m 4 Y s 1104 1280 m 4 Y s 1216 1280 m 4 Y s 1216 1280 m 4 Y s 991 1055 m 229 Y s 997 1087 m -6 X s 994 1097 m -3 X s 994
 1108 m -3 X s 994 1118 m -3 X s 997 1129 m -6 X s 994 1139 m -3 X s 994 1150 m -3 X s 994 1161 m -3 X s 997 1171 m -6 X s 994 1182 m -3 X s 994 1192 m -3 X s 994 1203 m -3 X s 997 1213 m -6 X s 994 1224 m -3 X s 994 1234 m -3 X s 994 1245 m -3 X s
 997 1256 m -6 X s 997 1087 m -6 X s 994 1076 m -3 X s 994 1066 m -3 X s 994 1055 m -3 X s 997 1256 m -6 X s 994 1266 m -3 X s 994 1277 m -3 X s
 gsave  408 305 930 1009 C 923.04 1079.73 t 0 r /Helvetica findfont 22.8295 sf 0 0 m (\2550.004) show NC gr 
 gsave  408 305 930 1009 C 923.04 1122.46 t 0 r /Helvetica findfont 22.8295 sf 0 0 m (\2550.002) show NC gr 
 gsave  408 305 930 1009 C 974.32 1165.2 t 0 r /Helvetica findfont 22.8295 sf 0 0 m (0) show NC gr 
 gsave  408 305 930 1009 C 931.587 1205.08 t 0 r /Helvetica findfont 22.8295 sf 0 0 m (0.002) show NC gr 
 gsave  408 305 930 1009 C 931.587 1247.81 t 0 r /Helvetica findfont 22.8295 sf 0 0 m (0.004) show NC gr  1297 1055 m 229 Y s 1292 1087 m 5 X s 1294 1097 m 3 X s 1294 1108 m 3 X s 1294 1118 m 3 X s 1292 1129 m 5 X s 1294 1139 m 3 X s 1294 1150 m 3 X
 s 1294 1161 m 3 X s 1292 1171 m 5 X s 1294 1182 m 3 X s 1294 1192 m 3 X s 1294 1203 m 3 X s 1292 1213 m 5 X s 1294 1224 m 3 X s 1294 1234 m 3 X s 1294 1245 m 3 X s 1292 1256 m 5 X s 1292 1087 m 5 X s 1294 1076 m 3 X s 1294 1066 m 3 X s 1294 1055 m 3
 X s 1292 1256 m 5 X s 1294 1266 m 3 X s 1294 1277 m 3 X s 1047 1145 1104 1138 1216 1146 1272 1200 4 { m21} R 1047 1156 m 53 Y s 1042 1209 m 11 X s 1047 1134 m -53 Y s 1042 1081 m 11 X s 1104 1150 m 53 Y s 1098 1203 m 11 X s 1104 1127 m -53 Y s 1098
 1074 m 11 X s 1216 1157 m 53 Y s 1210 1210 m 12 X s 1216 1135 m -53 Y s 1210 1082 m 12 X s 1272 1211 m 54 Y s 1267 1265 m 11 X s 1272 1189 m -54 Y s 1267 1135 m 11 X s 9 lw 0.95 0.95 0.95 c black 993 1171 m 27 X 3 -1 d 49 X 3 -1 d 49 X 3 -1 d 16 X s
 1143 1168 m 33 X 3 -1 d 49 X 3 -1 d 52 X 3 -1 d 7 X s 1293 1165 m 3 X s 0.49 0.6 0.82 c black 0.49 0.6 0.82 c
 gsave  408 305 930 1009 C 1051.24 1293.4 t 0 r /Helvetica-Bold findfont 25.6831 sf 0 0 m (1.0 < E < 1.5 GeV) show NC gr  0.52 0.76 0.64 c black 0.52 0.76 0.64 c
 gsave  408 305 930 1009 C 1031.3 1256.36 t 0 r /Helvetica-Bold findfont 25.6831 sf 0 0 m 
 228 214 200 193 178 171 156 149 133 126 119 105 91 77 69 55 47 39 25 17
(A = \2550.000, p = 1.000) K NC gr  1 0.6 1 c black 1 0.6 1 c
 gsave  408 305 930 1009 C 1336.13 1122.46 t 90 r /Helvetica-Bold findfont 28.5368 sf 0 0 m (/dof=0.3) show NC gr  black 1 0.6 1 c
 gsave  408 305 930 1009 C 1324.73 1111.07 t 90 r /Helvetica-Bold findfont 19.9758 sf 0 0 m (2) show NC gr  black 1 0.6 1 c
 gsave  408 305 930 1009 C 1336.13 1093.97 t 90 r /Symbol findfont 28.5368 sf 0 0 m (c) show NC gr  black 3 lw 1 1 1 c 408 305 1383 1009 bf black 1 1 1 c black 306 229 1445 1055 bl 306 229 1445 1055 bl 1445 1055 m 306 X s 1445 1059 m -4 Y s 1557 1059
 m -4 Y s 1670 1059 m -4 Y s 1670 1059 m -4 Y s
 gsave  408 305 1383 1009 C 1435.84 1034.15 t 0 r /Helvetica findfont 22.8295 sf 0 0 m (0) show NC gr 
 gsave  408 305 1383 1009 C 1549.8 1034.15 t 0 r /Helvetica findfont 22.8295 sf 0 0 m (1) show NC gr 
 gsave  408 305 1383 1009 C 1660.9 1034.15 t 0 r /Helvetica findfont 22.8295 sf 0 0 m (2) show NC gr  1445 1284 m 306 X s 1445 1280 m 4 Y s 1557 1280 m 4 Y s 1670 1280 m 4 Y s 1670 1280 m 4 Y s 1445 1055 m 229 Y s 1450 1070 m -5 X s 1447 1076 m -2 X
 s 1447 1082 m -2 X s 1447 1087 m -2 X s 1447 1093 m -2 X s 1450 1099 m -5 X s 1447 1104 m -2 X s 1447 1110 m -2 X s 1447 1116 m -2 X s 1447 1121 m -2 X s 1450 1127 m -5 X s 1447 1133 m -2 X s 1447 1138 m -2 X s 1447 1144 m -2 X s 1447 1150 m -2 X s
 1450 1155 m -5 X s 1447 1161 m -2 X s 1447 1167 m -2 X s 1447 1172 m -2 X s 1447 1178 m -2 X s 1450 1184 m -5 X s 1447 1189 m -2 X s 1447 1195 m -2 X s 1447 1201 m -2 X s 1447 1206 m -2 X s 1450 1212 m -5 X s 1447 1218 m -2 X s 1447 1223 m -2 X s
 1447 1229 m -2 X s 1447 1235 m -2 X s 1450 1240 m -5 X s 1447 1246 m -2 X s 1447 1252 m -2 X s 1447 1257 m -2 X s 1447 1263 m -2 X s 1450 1269 m -5 X s 1450 1070 m -5 X s 1447 1065 m -2 X s 1447 1059 m -2 X s 1450 1269 m -5 X s 1447 1274 m -2 X s
 1447 1280 m -2 X s
 gsave  408 305 1383 1009 C 1376.01 1062.64 t 0 r /Helvetica findfont 22.8295 sf 0 0 m (\2550.004) show NC gr 
 gsave  408 305 1383 1009 C 1376.01 1091.12 t 0 r /Helvetica findfont 22.8295 sf 0 0 m (\2550.003) show NC gr 
 gsave  408 305 1383 1009 C 1376.01 1119.61 t 0 r /Helvetica findfont 22.8295 sf 0 0 m (\2550.002) show NC gr 
 gsave  408 305 1383 1009 C 1378.86 1148.1 t 0 r /Helvetica findfont 22.8295 sf 0 0 m (\2550.001) show NC gr 
 gsave  408 305 1383 1009 C 1427.29 1176.59 t 0 r /Helvetica findfont 22.8295 sf 0 0 m (0) show NC gr 
 gsave  408 305 1383 1009 C 1387.41 1205.08 t 0 r /Helvetica findfont 22.8295 sf 0 0 m (0.001) show NC gr 
 gsave  408 305 1383 1009 C 1384.56 1233.57 t 0 r /Helvetica findfont 22.8295 sf 0 0 m (0.002) show NC gr 
 gsave  408 305 1383 1009 C 1384.56 1262.06 t 0 r /Helvetica findfont 22.8295 sf 0 0 m (0.003) show NC gr  1751 1055 m 229 Y s 1745 1070 m 6 X s 1748 1076 m 3 X s 1748 1082 m 3 X s 1748 1087 m 3 X s 1748 1093 m 3 X s 1745 1099 m 6 X s 1748 1104 m 3 X
 s 1748 1110 m 3 X s 1748 1116 m 3 X s 1748 1121 m 3 X s 1745 1127 m 6 X s 1748 1133 m 3 X s 1748 1138 m 3 X s 1748 1144 m 3 X s 1748 1150 m 3 X s 1745 1155 m 6 X s 1748 1161 m 3 X s 1748 1167 m 3 X s 1748 1172 m 3 X s 1748 1178 m 3 X s 1745 1184 m 6
 X s 1748 1189 m 3 X s 1748 1195 m 3 X s 1748 1201 m 3 X s 1748 1206 m 3 X s 1745 1212 m 6 X s 1748 1218 m 3 X s 1748 1223 m 3 X s 1748 1229 m 3 X s 1748 1235 m 3 X s 1745 1240 m 6 X s 1748 1246 m 3 X s 1748 1252 m 3 X s 1748 1257 m 3 X s 1748 1263 m
 3 X s 1745 1269 m 6 X s 1745 1070 m 6 X s 1748 1065 m 3 X s 1748 1059 m 3 X s 1745 1269 m 6 X s 1748 1274 m 3 X s 1748 1280 m 3 X s 1501 1173 1557 1166 1670 1177 1726 1162 4 { m21} R 1501 1184 m 77 Y s 1495 1261 m 12 X s 1501 1161 m -77 Y s 1495
 1084 m 12 X s 1557 1178 m 76 Y s 1551 1254 m 12 X s 1557 1155 m -76 Y s 1551 1079 m 12 X s 1670 1188 m 77 Y s 1664 1265 m 11 X s 1670 1165 m -76 Y s 1664 1089 m 11 X s 1726 1174 m 76 Y s 1720 1250 m 12 X s 1726 1151 m -77 Y s 1720 1074 m 12 X s 9 lw
 0.95 0.95 0.95 c black 1446 1184 m 3 -1 d 12 X 3 -1 d 10 X 3 -1 d 12 X 3 -1 d 12 X 3 -1 d 9 X 4 -1 d 12 X 3 -1 d 12 X 3 -1 d 9 X 3 -1 d 13 X 3 -1 d 12 X 3 -1 d 3 X s 1596 1173 m 6 X 3 -1 d 13 X 3 -1 d 12 X 3 -1 d 9 X 3 -1 d 12 X 3 -1 d 13 X 3 -1 d 9
 X 3 -1 d 12 X 3 -1 d 13 X 3 -1 d 9 X 3 -1 d 12 X s 1746 1163 m 3 -1 d s 0.49 0.6 0.82 c black 0.49 0.6 0.82 c
 gsave  408 305 1383 1009 C 1504.21 1293.4 t 0 r /Helvetica-Bold findfont 25.6831 sf 0 0 m (1.5 < E < 2.0 GeV) show NC gr  0.52 0.76 0.64 c black 0.52 0.76 0.64 c
 gsave  408 305 1383 1009 C 1484.27 1256.36 t 0 r /Helvetica-Bold findfont 25.6831 sf 0 0 m 
 228 214 200 193 178 171 156 149 134 126 119 105 91 77 69 55 47 40 25 17
(A = \2550.000, p = 1.000) K NC gr  1 0.6 1 c black 1 0.6 1 c
 gsave  408 305 1383 1009 C 1789.1 1122.46 t 90 r /Helvetica-Bold findfont 28.5368 sf 0 0 m (/dof=0.0) show NC gr  black 1 0.6 1 c
 gsave  408 305 1383 1009 C 1777.71 1111.07 t 90 r /Helvetica-Bold findfont 19.9758 sf 0 0 m (2) show NC gr  black 1 0.6 1 c
 gsave  408 305 1383 1009 C 1789.1 1093.97 t 90 r /Symbol findfont 28.5368 sf 0 0 m (c) show NC gr  black 3 lw 1 1 1 c 408 305 1837 1009 bf black 1 1 1 c black 306 229 1898 1055 bl 306 229 1898 1055 bl 1898 1055 m 306 X s 1898 1059 m -4 Y s 2011 1059
 m -4 Y s 2123 1059 m -4 Y s 2123 1059 m -4 Y s
 gsave  408 305 1837 1009 C 1888.81 1034.15 t 0 r /Helvetica findfont 22.8295 sf 0 0 m (0) show NC gr 
 gsave  408 305 1837 1009 C 2002.77 1034.15 t 0 r /Helvetica findfont 22.8295 sf 0 0 m (1) show NC gr 
 gsave  408 305 1837 1009 C 2113.88 1034.15 t 0 r /Helvetica findfont 22.8295 sf 0 0 m (2) show NC gr  1898 1284 m 306 X s 1898 1280 m 4 Y s 2011 1280 m 4 Y s 2123 1280 m 4 Y s 2123 1280 m 4 Y s 1898 1055 m 229 Y s 1904 1072 m -6 X s 1901 1082 m -3 X
 s 1901 1092 m -3 X s 1901 1102 m -3 X s 1904 1112 m -6 X s 1901 1121 m -3 X s 1901 1131 m -3 X s 1901 1141 m -3 X s 1904 1151 m -6 X s 1901 1161 m -3 X s 1901 1171 m -3 X s 1901 1180 m -3 X s 1904 1190 m -6 X s 1901 1200 m -3 X s 1901 1210 m -3 X s
 1901 1220 m -3 X s 1904 1230 m -6 X s 1901 1239 m -3 X s 1901 1249 m -3 X s 1901 1259 m -3 X s 1904 1269 m -6 X s 1904 1072 m -6 X s 1901 1062 m -3 X s 1904 1269 m -6 X s 1901 1279 m -3 X s
 gsave  408 305 1837 1009 C 1828.99 1065.48 t 0 r /Helvetica findfont 22.8295 sf 0 0 m (\2550.006) show NC gr 
 gsave  408 305 1837 1009 C 1828.99 1105.37 t 0 r /Helvetica findfont 22.8295 sf 0 0 m (\2550.004) show NC gr 
 gsave  408 305 1837 1009 C 1828.99 1142.4 t 0 r /Helvetica findfont 22.8295 sf 0 0 m (\2550.002) show NC gr 
 gsave  408 305 1837 1009 C 1880.27 1182.29 t 0 r /Helvetica findfont 22.8295 sf 0 0 m (0) show NC gr 
 gsave  408 305 1837 1009 C 1837.53 1222.17 t 0 r /Helvetica findfont 22.8295 sf 0 0 m (0.002) show NC gr 
 gsave  408 305 1837 1009 C 1837.53 1262.06 t 0 r /Helvetica findfont 22.8295 sf 0 0 m (0.004) show NC gr  2204 1055 m 229 Y s 2199 1072 m 5 X s 2201 1082 m 3 X s 2201 1092 m 3 X s 2201 1102 m 3 X s 2199 1112 m 5 X s 2201 1121 m 3 X s 2201 1131 m 3 X
 s 2201 1141 m 3 X s 2199 1151 m 5 X s 2201 1161 m 3 X s 2201 1171 m 3 X s 2201 1180 m 3 X s 2199 1190 m 5 X s 2201 1200 m 3 X s 2201 1210 m 3 X s 2201 1220 m 3 X s 2199 1230 m 5 X s 2201 1239 m 3 X s 2201 1249 m 3 X s 2201 1259 m 3 X s 2199 1269 m 5
 X s 2199 1072 m 5 X s 2201 1062 m 3 X s 2199 1269 m 5 X s 2201 1279 m 3 X s 1954 1200 2011 1194 2123 1159 2179 1138 4 { m21} R 1954 1212 m 53 Y s 1949 1265 m 11 X s 1954 1189 m -53 Y s 1949 1136 m 11 X s 2011 1206 m 53 Y s 2005 1259 m 11 X s 2011
 1183 m -53 Y s 2005 1130 m 11 X s 2123 1170 m 53 Y s 2117 1223 m 12 X s 2123 1147 m -52 Y s 2117 1095 m 12 X s 2179 1149 m 53 Y s 2174 1202 m 11 X s 2179 1126 m -52 Y s 2174 1074 m 11 X s 1 0 0 c 9 lw 0.95 0.95 0.95 c black 1 0 0 c 1900 1190 m 33 X
 3 -1 d 13 X 3 -1 d 12 X 3 -1 d 6 X 3 -1 d 6 X 3 -1 d 6 X 4 -1 d 6 X 3 -1 d 3 X 3 -1 d 6 X 3 -1 d 3 X 3 -1 d 3 X 3 -1 d 3 X 3 -1 d 3 -1 d 3 X 4 -1 d 3 X s 2050 1176 m 3 -1 d 3 X 3 -1 d 3 -1 d 3 X 3 -1 d 3 -1 d 3 X 3 -1 d 3 -1 d 3 X 3 -1 d 3 -1 d 3 -1
 d 4 X 3 -1 d 3 -1 d 3 -1 d 3 X 3 -1 d 3 -1 d 3 -1 d 3 -1 d 3 -1 d 3 -1 d 3 X 3 -1 d 3 -1 d 3 -1 d 3 -1 d 4 -1 d 3 -1 d 3 -1 d 3 -1 d 3 -1 d 3 -1 d 3 -1 d 3 -1 d 3 -1 d 3 -1 d 3 -1 d 3 -1 d 3 -1 d 3 -1 d 3 -2 d 3 -1 d 4 -1 d 3 -1 d 3 -1 d s 2200 1133
 m 3 -1 d s 0.49 0.6 0.82 c black 0.49 0.6 0.82 c
 gsave  408 305 1837 1009 C 1957.19 1293.4 t 0 r /Helvetica-Bold findfont 25.6831 sf 0 0 m (2.0 < E < 2.5 GeV) show NC gr  0.52 0.76 0.64 c black 0.52 0.76 0.64 c
 gsave  408 305 1837 1009 C 1937.25 1256.36 t 0 r /Helvetica-Bold findfont 25.6831 sf 0 0 m 
 228 214 200 193 178 171 156 149 133 126 119 105 91 77 69 55 47 39 25 17
(A = \2550.000, p = 2.000) K NC gr  1 0.6 1 c black 1 0.6 1 c
 gsave  408 305 1837 1009 C 2242.08 1122.46 t 90 r /Helvetica-Bold findfont 28.5368 sf 0 0 m (/dof=0.0) show NC gr  black 1 0.6 1 c
 gsave  408 305 1837 1009 C 2230.68 1111.07 t 90 r /Helvetica-Bold findfont 19.9758 sf 0 0 m (2) show NC gr  black 1 0.6 1 c
 gsave  408 305 1837 1009 C 2242.08 1093.97 t 90 r /Symbol findfont 28.5368 sf 0 0 m (c) show NC gr  black 3 lw 1 1 1 c 408 305 23 677 bf black 1 1 1 c black 306 229 84 723 bl 306 229 84 723 bl 84 723 m 306 X s 84 727 m -4 Y s 196 727 m -4 Y s 309
 727 m -4 Y s 309 727 m -4 Y s
 gsave  408 305 23 677 C 74.0711 703.676 t 0 r /Helvetica findfont 22.8295 sf 0 0 m (0) show NC gr 
 gsave  408 305 23 677 C 188.027 703.676 t 0 r /Helvetica findfont 22.8295 sf 0 0 m (1) show NC gr 
 gsave  408 305 23 677 C 299.133 703.676 t 0 r /Helvetica findfont 22.8295 sf 0 0 m (2) show NC gr  84 952 m 306 X s 84 948 m 4 Y s 196 948 m 4 Y s 309 948 m 4 Y s 309 948 m 4 Y s 84 723 m 229 Y s 89 749 m -5 X s 87 758 m -3 X s 87 766 m -3 X s 87
 774 m -3 X s 89 783 m -5 X s 87 791 m -3 X s 87 800 m -3 X s 87 808 m -3 X s 89 817 m -5 X s 87 825 m -3 X s 87 834 m -3 X s 87 842 m -3 X s 89 851 m -5 X s 87 859 m -3 X s 87 867 m -3 X s 87 876 m -3 X s 89 884 m -5 X s 87 893 m -3 X s 87 901 m -3
 X s 87 910 m -3 X s 89 918 m -5 X s 89 749 m -5 X s 87 741 m -3 X s 87 732 m -3 X s 87 724 m -3 X s 89 918 m -5 X s 87 927 m -3 X s 87 935 m -3 X s 87 944 m -3 X s
 gsave  408 305 23 677 C 14.2445 740.711 t 0 r /Helvetica findfont 22.8295 sf 0 0 m (\2550.008) show NC gr 
 gsave  408 305 23 677 C 14.2445 774.898 t 0 r /Helvetica findfont 22.8295 sf 0 0 m (\2550.006) show NC gr 
 gsave  408 305 23 677 C 14.2445 809.085 t 0 r /Helvetica findfont 22.8295 sf 0 0 m (\2550.004) show NC gr 
 gsave  408 305 23 677 C 14.2445 843.271 t 0 r /Helvetica findfont 22.8295 sf 0 0 m (\2550.002) show NC gr 
 gsave  408 305 23 677 C 65.5245 877.458 t 0 r /Helvetica findfont 22.8295 sf 0 0 m (0) show NC gr 
 gsave  408 305 23 677 C 22.7911 911.645 t 0 r /Helvetica findfont 22.8295 sf 0 0 m (0.002) show NC gr  390 723 m 229 Y s 385 749 m 5 X s 387 758 m 3 X s 387 766 m 3 X s 387 774 m 3 X s 385 783 m 5 X s 387 791 m 3 X s 387 800 m 3 X s 387 808 m 3 X s
 385 817 m 5 X s 387 825 m 3 X s 387 834 m 3 X s 387 842 m 3 X s 385 851 m 5 X s 387 859 m 3 X s 387 867 m 3 X s 387 876 m 3 X s 385 884 m 5 X s 387 893 m 3 X s 387 901 m 3 X s 387 910 m 3 X s 385 918 m 5 X s 385 749 m 5 X s 387 741 m 3 X s 387 732 m
 3 X s 387 724 m 3 X s 385 918 m 5 X s 387 927 m 3 X s 387 935 m 3 X s 387 944 m 3 X s /w 22 def /w2 {w 2 div} def /w3 {w 3 div} def 140 873 196 840 309 838 365 802 4 { m21} R 140 884 m 49 Y s 134 933 m 12 X s 140 862 m -49 Y s 134 813 m 12 X s 196
 852 m 48 Y s 191 900 m 11 X s 196 829 m -48 Y s 191 781 m 11 X s 309 849 m 49 Y s 303 898 m 12 X s 309 827 m -49 Y s 303 778 m 12 X s 365 813 m 48 Y s 360 861 m 11 X s 365 790 m -48 Y s 360 742 m 11 X s 9 lw 0.95 0.95 0.95 c black 85 884 m 3 -1 d 4
 -1 d 3 -1 d 3 X 3 -1 d 3 -1 d 3 -1 d 3 -1 d 3 X 3 -1 d 3 -1 d 3 -1 d 3 -1 d 3 -1 d 3 X 3 -1 d 3 -1 d 4 -1 d 3 -1 d 3 -1 d 3 X 3 -1 d 3 -1 d 3 -1 d 3 -1 d 3 -1 d 3 X 3 -1 d 3 -1 d 3 -1 d 3 -1 d 3 X 3 -1 d 4 -1 d 3 -1 d 3 -1 d 3 -1 d 3 X 3 -1 d 3 -1 d
 3 -1 d 3 -1 d 3 -1 d 3 X 3 -1 d 3 -1 d 3 -1 d 3 -1 d 3 -1 d s 235 843 m 4 X 3 -1 d 3 -1 d 3 -1 d 3 -1 d 3 -1 d 3 X 3 -1 d 3 -1 d 3 -1 d 3 -1 d 3 X 3 -1 d 3 -1 d 3 -1 d 3 -1 d 3 -1 d 4 X 3 -1 d 3 -1 d 3 -1 d 3 -1 d 3 -1 d 3 X 3 -1 d 3 -1 d 3 -1 d 3
 -1 d 3 -1 d 3 X 3 -1 d 3 -1 d 3 -1 d 4 -1 d 3 -1 d 3 X 3 -1 d 3 -1 d 3 -1 d 3 -1 d 3 X 3 -1 d 3 -1 d 3 -1 d 3 -1 d 3 -1 d 3 X 3 -1 d 3 -1 d s 385 803 m 4 -1 d s 0.49 0.6 0.82 c black 0.49 0.6 0.82 c
 gsave  408 305 23 677 C 142.445 960.076 t 0 r /Helvetica-Bold findfont 25.6831 sf 0 0 m (2.5 < E < 3.0 GeV) show NC gr  0.52 0.76 0.64 c black 0.52 0.76 0.64 c
 gsave  408 305 23 677 C 122.502 923.04 t 0 r /Helvetica-Bold findfont 25.6831 sf 0 0 m 
 228 214 200 193 178 171 156 149 134 126 119 105 91 77 69 55 47 39 25 17
(A = \2550.002, p = 1.000) K NC gr  1 0.6 1 c black 1 0.6 1 c
 gsave  408 305 23 677 C 427.334 791.991 t 90 r /Helvetica-Bold findfont 28.5368 sf 0 0 m (/dof=0.0) show NC gr  black 1 0.6 1 c
 gsave  408 305 23 677 C 415.938 780.596 t 90 r /Helvetica-Bold findfont 19.9758 sf 0 0 m (2) show NC gr  black 1 0.6 1 c
 gsave  408 305 23 677 C 427.334 763.503 t 90 r /Symbol findfont 28.5368 sf 0 0 m (c) show NC gr  black 3 lw 1 1 1 c 408 305 476 677 bf black 1 1 1 c black 307 229 537 723 bl 307 229 537 723 bl 537 723 m 307 X s 537 727 m -4 Y s 650 727 m -4 Y s 763
 727 m -4 Y s 763 727 m -4 Y s
 gsave  408 305 476 677 C 527.045 703.676 t 0 r /Helvetica findfont 22.8295 sf 0 0 m (0) show NC gr 
 gsave  408 305 476 677 C 643.849 703.676 t 0 r /Helvetica findfont 22.8295 sf 0 0 m (1) show NC gr 
 gsave  408 305 476 677 C 752.107 703.676 t 0 r /Helvetica findfont 22.8295 sf 0 0 m (2) show NC gr  537 952 m 307 X s 537 948 m 4 Y s 650 948 m 4 Y s 763 948 m 4 Y s 763 948 m 4 Y s 537 723 m 229 Y s 543 741 m -6 X s 540 747 m -3 X s 540 753 m -3 X
 s 540 759 m -3 X s 543 765 m -6 X s 540 771 m -3 X s 540 777 m -3 X s 540 783 m -3 X s 543 789 m -6 X s 540 795 m -3 X s 540 801 m -3 X s 540 807 m -3 X s 543 813 m -6 X s 540 819 m -3 X s 540 825 m -3 X s 540 831 m -3 X s 543 837 m -6 X s 540 843 m
 -3 X s 540 849 m -3 X s 540 855 m -3 X s 543 861 m -6 X s 540 867 m -3 X s 540 873 m -3 X s 540 879 m -3 X s 543 885 m -6 X s 540 891 m -3 X s 540 897 m -3 X s 540 903 m -3 X s 543 909 m -6 X s 540 915 m -3 X s 540 921 m -3 X s 540 927 m -3 X s 543
 933 m -6 X s 543 741 m -6 X s 540 735 m -3 X s 540 729 m -3 X s 540 723 m -3 X s 543 933 m -6 X s 540 939 m -3 X s 540 945 m -3 X s 540 951 m -3 X s
 gsave  408 305 476 677 C 467.218 735.014 t 0 r /Helvetica findfont 22.8295 sf 0 0 m (\2550.012) show NC gr 
 gsave  408 305 476 677 C 484.311 757.805 t 0 r /Helvetica findfont 22.8295 sf 0 0 m (\2550.01) show NC gr 
 gsave  408 305 476 677 C 467.218 780.596 t 0 r /Helvetica findfont 22.8295 sf 0 0 m (\2550.008) show NC gr 
 gsave  408 305 476 677 C 467.218 806.236 t 0 r /Helvetica findfont 22.8295 sf 0 0 m (\2550.006) show NC gr 
 gsave  408 305 476 677 C 467.218 829.027 t 0 r /Helvetica findfont 22.8295 sf 0 0 m (\2550.004) show NC gr 
 gsave  408 305 476 677 C 467.218 854.667 t 0 r /Helvetica findfont 22.8295 sf 0 0 m (\2550.002) show NC gr 
 gsave  408 305 476 677 C 518.498 877.458 t 0 r /Helvetica findfont 22.8295 sf 0 0 m (0) show NC gr 
 gsave  408 305 476 677 C 475.765 903.098 t 0 r /Helvetica findfont 22.8295 sf 0 0 m (0.002) show NC gr 
 gsave  408 305 476 677 C 475.765 925.889 t 0 r /Helvetica findfont 22.8295 sf 0 0 m (0.004) show NC gr  844 723 m 229 Y s 838 741 m 6 X s 841 747 m 3 X s 841 753 m 3 X s 841 759 m 3 X s 838 765 m 6 X s 841 771 m 3 X s 841 777 m 3 X s 841 783 m 3 X s
 838 789 m 6 X s 841 795 m 3 X s 841 801 m 3 X s 841 807 m 3 X s 838 813 m 6 X s 841 819 m 3 X s 841 825 m 3 X s 841 831 m 3 X s 838 837 m 6 X s 841 843 m 3 X s 841 849 m 3 X s 841 855 m 3 X s 838 861 m 6 X s 841 867 m 3 X s 841 873 m 3 X s 841 879 m
 3 X s 838 885 m 6 X s 841 891 m 3 X s 841 897 m 3 X s 841 903 m 3 X s 838 909 m 6 X s 841 915 m 3 X s 841 921 m 3 X s 841 927 m 3 X s 838 933 m 6 X s 838 741 m 6 X s 841 735 m 3 X s 841 729 m 3 X s 841 723 m 3 X s 838 933 m 6 X s 841 939 m 3 X s 841
 945 m 3 X s 841 951 m 3 X s /w 23 def /w2 {w 2 div} def /w3 {w 3 div} def 594 885 650 875 763 808 819 790 4 { m21} R 594 896 m 37 Y s 588 933 m 11 X s 594 873 m -37 Y s 588 836 m 11 X s 650 886 m 37 Y s 644 923 m 12 X s 650 863 m -37 Y s 644 826 m
 12 X s 763 820 m 36 Y s 757 856 m 11 X s 763 797 m -37 Y s 757 760 m 11 X s 819 801 m 37 Y s 813 838 m 12 X s 819 778 m -36 Y s 813 742 m 12 X s 1 0 0 c 9 lw 0.95 0.95 0.95 c black 1 0 0 c 539 885 m 21 X 3 -1 d 10 X 3 -1 d 6 X 3 -1 d 6 X 3 -1 d 3 X
 3 -1 d 3 X 3 -1 d 3 X 3 -1 d 4 -1 d 3 X 3 -1 d 3 X 3 -1 d 3 -1 d 3 -1 d 3 X 3 -1 d 3 -1 d 3 -1 d 3 -1 d 3 -1 d 3 -1 d 3 X 3 -1 d 3 -1 d 4 -1 d 3 -2 d 3 -1 d 3 -1 d 3 -1 d 3 -1 d 3 -1 d 3 -1 d s 689 856 m 3 -1 d 3 -2 d 3 -1 d 3 -1 d 3 -2 d 3 -1 d 3
 -1 d 3 -2 d 4 -1 d 3 -1 d 3 -2 d 3 -1 d 3 -2 d 3 -1 d 3 -2 d 3 -1 d 3 -2 d 3 -2 d 3 -1 d 3 -2 d 3 -2 d 3 -1 d 3 -2 d 3 -2 d 4 -2 d 3 -1 d 3 -2 d 3 -2 d 3 -2 d 3 -2 d 3 -2 d 3 -2 d 3 -2 d 3 -2 d 3 -2 d 3 -2 d 3 -2 d 3 -2 d 3 -2 d 3 -2 d 4 -2 d 3 -3 d
 3 -2 d 3 -2 d 3 -2 d 3 -3 d 3 -2 d 3 -2 d 3 -3 d s 839 768 m 3 -2 d s 0.49 0.6 0.82 c black 0.49 0.6 0.82 c
 gsave  408 305 476 677 C 595.418 960.076 t 0 r /Helvetica-Bold findfont 25.6831 sf 0 0 m (3.0 < E < 3.5 GeV) show NC gr  0.52 0.76 0.64 c black 0.52 0.76 0.64 c
 gsave  408 305 476 677 C 575.476 923.04 t 0 r /Helvetica-Bold findfont 25.6831 sf 0 0 m 
 228 214 200 193 178 171 156 149 133 126 119 105 91 76 69 55 47 39 25 17
(A = \2550.001, p = 2.000) K NC gr  1 0.6 1 c black 1 0.6 1 c
 gsave  408 305 476 677 C 883.156 791.991 t 90 r /Helvetica-Bold findfont 28.5368 sf 0 0 m (/dof=0.0) show NC gr  black 1 0.6 1 c
 gsave  408 305 476 677 C 871.76 780.596 t 90 r /Helvetica-Bold findfont 19.9758 sf 0 0 m (2) show NC gr  black 1 0.6 1 c
 gsave  408 305 476 677 C 883.156 763.503 t 90 r /Symbol findfont 28.5368 sf 0 0 m (c) show NC gr  black 3 lw 1 1 1 c 408 305 930 677 bf black 1 1 1 c black 306 229 991 723 bl 306 229 991 723 bl 991 723 m 306 X s 991 727 m -4 Y s 1104 727 m -4 Y s
 1216 727 m -4 Y s 1216 727 m -4 Y s
 gsave  408 305 930 677 C 980.018 703.676 t 0 r /Helvetica findfont 22.8295 sf 0 0 m (0) show NC gr 
 gsave  408 305 930 677 C 1096.82 703.676 t 0 r /Helvetica findfont 22.8295 sf 0 0 m (1) show NC gr 
 gsave  408 305 930 677 C 1205.08 703.676 t 0 r /Helvetica findfont 22.8295 sf 0 0 m (2) show NC gr  991 952 m 306 X s 991 948 m 4 Y s 1104 948 m 4 Y s 1216 948 m 4 Y s 1216 948 m 4 Y s 991 723 m 229 Y s 997 746 m -6 X s 994 754 m -3 X s 994 762 m -3
 X s 994 770 m -3 X s 997 778 m -6 X s 994 786 m -3 X s 994 794 m -3 X s 994 802 m -3 X s 997 810 m -6 X s 994 819 m -3 X s 994 827 m -3 X s 994 835 m -3 X s 997 843 m -6 X s 994 851 m -3 X s 994 859 m -3 X s 994 867 m -3 X s 997 875 m -6 X s 994 883
 m -3 X s 994 891 m -3 X s 994 899 m -3 X s 997 907 m -6 X s 994 915 m -3 X s 994 923 m -3 X s 994 932 m -3 X s 997 940 m -6 X s 997 746 m -6 X s 994 738 m -3 X s 994 730 m -3 X s 997 940 m -6 X s 994 948 m -3 X s
 gsave  408 305 930 677 C 923.04 737.863 t 0 r /Helvetica findfont 22.8295 sf 0 0 m (\2550.004) show NC gr 
 gsave  408 305 930 677 C 923.04 772.049 t 0 r /Helvetica findfont 22.8295 sf 0 0 m (\2550.002) show NC gr 
 gsave  408 305 930 677 C 974.32 803.387 t 0 r /Helvetica findfont 22.8295 sf 0 0 m (0) show NC gr 
 gsave  408 305 930 677 C 931.587 834.725 t 0 r /Helvetica findfont 22.8295 sf 0 0 m (0.002) show NC gr 
 gsave  408 305 930 677 C 931.587 868.911 t 0 r /Helvetica findfont 22.8295 sf 0 0 m (0.004) show NC gr 
 gsave  408 305 930 677 C 931.587 900.249 t 0 r /Helvetica findfont 22.8295 sf 0 0 m (0.006) show NC gr 
 gsave  408 305 930 677 C 931.587 931.587 t 0 r /Helvetica findfont 22.8295 sf 0 0 m (0.008) show NC gr  1297 723 m 229 Y s 1292 746 m 5 X s 1294 754 m 3 X s 1294 762 m 3 X s 1294 770 m 3 X s 1292 778 m 5 X s 1294 786 m 3 X s 1294 794 m 3 X s 1294
 802 m 3 X s 1292 810 m 5 X s 1294 819 m 3 X s 1294 827 m 3 X s 1294 835 m 3 X s 1292 843 m 5 X s 1294 851 m 3 X s 1294 859 m 3 X s 1294 867 m 3 X s 1292 875 m 5 X s 1294 883 m 3 X s 1294 891 m 3 X s 1294 899 m 3 X s 1292 907 m 5 X s 1294 915 m 3 X s
 1294 923 m 3 X s 1294 932 m 3 X s 1292 940 m 5 X s 1292 746 m 5 X s 1294 738 m 3 X s 1294 730 m 3 X s 1292 940 m 5 X s 1294 948 m 3 X s 1047 821 1104 853 1216 851 1272 840 4 { m21} R 1047 832 m 68 Y s 1042 900 m 11 X s 1047 809 m -67 Y s 1042 742 m
 11 X s 1104 865 m 68 Y s 1098 933 m 11 X s 1104 842 m -68 Y s 1098 774 m 11 X s 1216 862 m 68 Y s 1210 930 m 12 X s 1216 839 m -68 Y s 1210 771 m 12 X s 1272 852 m 68 Y s 1267 920 m 11 X s 1272 829 m -69 Y s 1267 760 m 11 X s 9 lw 0.95 0.95 0.95 c
 black 993 811 m 3 X 3 1 d 3 X 3 1 d 3 X 3 1 d 3 X 3 1 d 3 X 3 1 d 6 X 3 1 d 3 X 3 1 d 4 X 3 1 d 3 X 3 1 d 3 X 3 1 d 3 X 3 1 d 3 X 3 1 d 3 X 3 1 d 3 X 3 1 d 3 X 3 1 d 3 X 4 1 d 3 X 3 1 d 6 X 3 1 d 3 X 3 1 d 3 X 3 1 d 3 X 3 1 d 3 X 3 1 d 3 X 3 1 d 4 X
 s 1143 834 m 3 1 d 3 X 3 1 d 3 X 3 1 d 3 X 3 1 d 3 X 3 1 d 3 X 3 1 d 6 X 3 1 d 3 X 4 1 d 3 X 3 1 d 3 X 3 1 d 3 X 3 1 d 3 X 3 1 d 3 X 3 1 d 3 X 3 1 d 3 X 3 1 d 3 X 3 1 d 4 X 3 1 d 3 X 3 1 d 3 X 3 1 d 6 X 3 1 d 3 X 3 1 d 3 X 3 1 d 3 X 3 1 d 3 X 4 1 d
 s 1293 858 m 3 X s 0.49 0.6 0.82 c black 0.49 0.6 0.82 c
 gsave  408 305 930 677 C 1051.24 960.076 t 0 r /Helvetica-Bold findfont 25.6831 sf 0 0 m (3.5 < E < 4.0 GeV) show NC gr  0.52 0.76 0.64 c black 0.52 0.76 0.64 c
 gsave  408 305 930 677 C 1037 923.04 t 0 r /Helvetica-Bold findfont 25.6831 sf 0 0 m 
 220 206 192 185 170 163 148 141 125 118 111 97 83 69 61 47 40 25 18
(A = 0.001, p = 1.000) K NC gr  1 0.6 1 c black 1 0.6 1 c
 gsave  408 305 930 677 C 1336.13 791.991 t 90 r /Helvetica-Bold findfont 28.5368 sf 0 0 m (/dof=0.0) show NC gr  black 1 0.6 1 c
 gsave  408 305 930 677 C 1324.73 780.596 t 90 r /Helvetica-Bold findfont 19.9758 sf 0 0 m (2) show NC gr  black 1 0.6 1 c
 gsave  408 305 930 677 C 1336.13 763.503 t 90 r /Symbol findfont 28.5368 sf 0 0 m (c) show NC gr  black 3 lw 1 1 1 c 408 305 1383 677 bf black 1 1 1 c black 306 229 1445 723 bl 306 229 1445 723 bl 1445 723 m 306 X s 1445 727 m -4 Y s 1557 727 m -4 Y
 s 1670 727 m -4 Y s 1670 727 m -4 Y s
 gsave  408 305 1383 677 C 1435.84 703.676 t 0 r /Helvetica findfont 22.8295 sf 0 0 m (0) show NC gr 
 gsave  408 305 1383 677 C 1549.8 703.676 t 0 r /Helvetica findfont 22.8295 sf 0 0 m (1) show NC gr 
 gsave  408 305 1383 677 C 1660.9 703.676 t 0 r /Helvetica findfont 22.8295 sf 0 0 m (2) show NC gr  1445 952 m 306 X s 1445 948 m 4 Y s 1557 948 m 4 Y s 1670 948 m 4 Y s 1670 948 m 4 Y s 1445 723 m 229 Y s 1450 746 m -5 X s 1447 751 m -2 X s 1447
 755 m -2 X s 1447 760 m -2 X s 1447 765 m -2 X s 1450 770 m -5 X s 1447 775 m -2 X s 1447 780 m -2 X s 1447 785 m -2 X s 1447 789 m -2 X s 1450 794 m -5 X s 1447 799 m -2 X s 1447 804 m -2 X s 1447 809 m -2 X s 1447 814 m -2 X s 1450 818 m -5 X s
 1447 823 m -2 X s 1447 828 m -2 X s 1447 833 m -2 X s 1447 838 m -2 X s 1450 843 m -5 X s 1447 847 m -2 X s 1447 852 m -2 X s 1447 857 m -2 X s 1447 862 m -2 X s 1450 867 m -5 X s 1447 872 m -2 X s 1447 876 m -2 X s 1447 881 m -2 X s 1447 886 m -2 X
 s 1450 891 m -5 X s 1447 896 m -2 X s 1447 901 m -2 X s 1447 905 m -2 X s 1447 910 m -2 X s 1450 915 m -5 X s 1447 920 m -2 X s 1447 925 m -2 X s 1447 930 m -2 X s 1447 934 m -2 X s 1450 939 m -5 X s 1450 746 m -5 X s 1447 741 m -2 X s 1447 736 m -2
 X s 1447 731 m -2 X s 1447 726 m -2 X s 1450 939 m -5 X s 1447 944 m -2 X s 1447 949 m -2 X s
 gsave  408 305 1383 677 C 1376.01 737.863 t 0 r /Helvetica findfont 22.8295 sf 0 0 m (\2550.015) show NC gr 
 gsave  408 305 1383 677 C 1393.11 763.503 t 0 r /Helvetica findfont 22.8295 sf 0 0 m (\2550.01) show NC gr 
 gsave  408 305 1383 677 C 1376.01 786.294 t 0 r /Helvetica findfont 22.8295 sf 0 0 m (\2550.005) show NC gr 
 gsave  408 305 1383 677 C 1427.29 811.934 t 0 r /Helvetica findfont 22.8295 sf 0 0 m (0) show NC gr 
 gsave  408 305 1383 677 C 1384.56 834.725 t 0 r /Helvetica findfont 22.8295 sf 0 0 m (0.005) show NC gr 
 gsave  408 305 1383 677 C 1398.81 860.365 t 0 r /Helvetica findfont 22.8295 sf 0 0 m (0.01) show NC gr 
 gsave  408 305 1383 677 C 1384.56 883.156 t 0 r /Helvetica findfont 22.8295 sf 0 0 m (0.015) show NC gr 
 gsave  408 305 1383 677 C 1395.96 908.796 t 0 r /Helvetica findfont 22.8295 sf 0 0 m (0.02) show NC gr 
 gsave  408 305 1383 677 C 1384.56 931.587 t 0 r /Helvetica findfont 22.8295 sf 0 0 m (0.025) show NC gr  1751 723 m 229 Y s 1745 746 m 6 X s 1748 751 m 3 X s 1748 755 m 3 X s 1748 760 m 3 X s 1748 765 m 3 X s 1745 770 m 6 X s 1748 775 m 3 X s 1748
 780 m 3 X s 1748 785 m 3 X s 1748 789 m 3 X s 1745 794 m 6 X s 1748 799 m 3 X s 1748 804 m 3 X s 1748 809 m 3 X s 1748 814 m 3 X s 1745 818 m 6 X s 1748 823 m 3 X s 1748 828 m 3 X s 1748 833 m 3 X s 1748 838 m 3 X s 1745 843 m 6 X s 1748 847 m 3 X s
 1748 852 m 3 X s 1748 857 m 3 X s 1748 862 m 3 X s 1745 867 m 6 X s 1748 872 m 3 X s 1748 876 m 3 X s 1748 881 m 3 X s 1748 886 m 3 X s 1745 891 m 6 X s 1748 896 m 3 X s 1748 901 m 3 X s 1748 905 m 3 X s 1748 910 m 3 X s 1745 915 m 6 X s 1748 920 m
 3 X s 1748 925 m 3 X s 1748 930 m 3 X s 1748 934 m 3 X s 1745 939 m 6 X s 1745 746 m 6 X s 1748 741 m 3 X s 1748 736 m 3 X s 1748 731 m 3 X s 1748 726 m 3 X s 1745 939 m 6 X s 1748 944 m 3 X s 1748 949 m 3 X s 1501 773 1557 837 1670 885 1726 901 4 {
 m21} R 1501 784 m 20 Y s 1495 804 m 12 X s 1501 762 m -20 Y s 1495 742 m 12 X s 1557 849 m 20 Y s 1551 869 m 12 X s 1557 826 m -20 Y s 1551 806 m 12 X s 1670 897 m 20 Y s 1664 917 m 11 X s 1670 874 m -20 Y s 1664 854 m 11 X s 1726 912 m 21 Y s 1720
 933 m 12 X s 1726 889 m -20 Y s 1720 869 m 12 X s 1 0 0 c 9 lw 0.95 0.95 0.95 c black 1 0 0 c 1446 818 m 9 X 3 1 d 16 X 3 1 d 9 X 3 1 d 6 X 3 1 d 6 X 3 1 d 3 X 3 1 d 3 X 4 1 d 3 X 3 1 d 3 X 3 1 d 3 X 3 1 d 3 1 d 3 X 3 1 d 3 1 d 3 1 d 3 X 3 1 d 3 1 d
 3 1 d 4 X 3 1 d 3 1 d 3 1 d 3 1 d 3 1 d 3 1 d 3 1 d 3 1 d 3 1 d s 1596 844 m 3 1 d 3 1 d 3 1 d 3 1 d 3 1 d 3 1 d 4 2 d 3 1 d 3 1 d 3 1 d 3 2 d 3 1 d 3 1 d 3 1 d 3 2 d 3 1 d 3 1 d 3 2 d 3 1 d 3 2 d 3 1 d 3 2 d 3 1 d 4 2 d 3 1 d 3 2 d 3 1 d 3 2 d 3 2
 d 3 1 d 3 2 d 3 2 d 3 1 d 3 2 d 3 2 d 3 2 d 3 1 d 3 2 d 3 2 d 4 2 d 3 2 d 3 2 d 3 2 d 3 2 d 3 1 d 3 2 d 3 2 d 3 2 d 3 3 d s 1746 920 m 3 2 d s 0.49 0.6 0.82 c black 0.49 0.6 0.82 c
 gsave  408 305 1383 677 C 1504.21 960.076 t 0 r /Helvetica-Bold findfont 25.6831 sf 0 0 m (4.0 < E < 4.5 GeV) show NC gr  0.52 0.76 0.64 c black 0.52 0.76 0.64 c
 gsave  408 305 1383 677 C 1489.97 923.04 t 0 r /Helvetica-Bold findfont 25.6831 sf 0 0 m 
 220 206 192 185 170 163 148 141 126 118 111 97 83 69 61 47 40 25 18
(A = 0.003, p = 2.000) K NC gr  1 0.6 1 c black 1 0.6 1 c
 gsave  408 305 1383 677 C 1789.1 791.991 t 90 r /Helvetica-Bold findfont 28.5368 sf 0 0 m (/dof=0.9) show NC gr  black 1 0.6 1 c
 gsave  408 305 1383 677 C 1777.71 780.596 t 90 r /Helvetica-Bold findfont 19.9758 sf 0 0 m (2) show NC gr  black 1 0.6 1 c
 gsave  408 305 1383 677 C 1789.1 763.503 t 90 r /Symbol findfont 28.5368 sf 0 0 m (c) show NC gr  black 3 lw 1 1 1 c 408 305 1837 677 bf black 1 1 1 c black 306 229 1898 723 bl 306 229 1898 723 bl 1898 723 m 306 X s 1898 727 m -4 Y s 2011 727 m -4 Y
 s 2123 727 m -4 Y s 2123 727 m -4 Y s
 gsave  408 305 1837 677 C 1888.81 703.676 t 0 r /Helvetica findfont 22.8295 sf 0 0 m (0) show NC gr 
 gsave  408 305 1837 677 C 2002.77 703.676 t 0 r /Helvetica findfont 22.8295 sf 0 0 m (1) show NC gr 
 gsave  408 305 1837 677 C 2113.88 703.676 t 0 r /Helvetica findfont 22.8295 sf 0 0 m (2) show NC gr  1898 952 m 306 X s 1898 948 m 4 Y s 2011 948 m 4 Y s 2123 948 m 4 Y s 2123 948 m 4 Y s 1898 723 m 229 Y s 1904 723 m -6 X s 1901 728 m -3 X s 1901
 733 m -3 X s 1901 737 m -3 X s 1901 742 m -3 X s 1904 747 m -6 X s 1901 752 m -3 X s 1901 757 m -3 X s 1901 761 m -3 X s 1901 766 m -3 X s 1904 771 m -6 X s 1901 776 m -3 X s 1901 781 m -3 X s 1901 786 m -3 X s 1901 790 m -3 X s 1904 795 m -6 X s
 1901 800 m -3 X s 1901 805 m -3 X s 1901 810 m -3 X s 1901 814 m -3 X s 1904 819 m -6 X s 1901 824 m -3 X s 1901 829 m -3 X s 1901 834 m -3 X s 1901 839 m -3 X s 1904 843 m -6 X s 1901 848 m -3 X s 1901 853 m -3 X s 1901 858 m -3 X s 1901 863 m -3 X
 s 1904 867 m -6 X s 1901 872 m -3 X s 1901 877 m -3 X s 1901 882 m -3 X s 1901 887 m -3 X s 1904 892 m -6 X s 1901 896 m -3 X s 1901 901 m -3 X s 1901 906 m -3 X s 1901 911 m -3 X s 1904 916 m -6 X s 1901 921 m -3 X s 1901 925 m -3 X s 1901 930 m -3
 X s 1901 935 m -3 X s 1904 940 m -6 X s 1904 940 m -6 X s 1901 945 m -3 X s 1901 949 m -3 X s
 gsave  408 305 1837 677 C 1880.27 715.071 t 0 r /Helvetica findfont 22.8295 sf 0 0 m (0) show NC gr 
 gsave  408 305 1837 677 C 1837.53 740.711 t 0 r /Helvetica findfont 22.8295 sf 0 0 m (0.005) show NC gr 
 gsave  408 305 1837 677 C 1851.78 763.503 t 0 r /Helvetica findfont 22.8295 sf 0 0 m (0.01) show NC gr 
 gsave  408 305 1837 677 C 1837.53 789.143 t 0 r /Helvetica findfont 22.8295 sf 0 0 m (0.015) show NC gr 
 gsave  408 305 1837 677 C 1848.93 811.934 t 0 r /Helvetica findfont 22.8295 sf 0 0 m (0.02) show NC gr 
 gsave  408 305 1837 677 C 1837.53 837.574 t 0 r /Helvetica findfont 22.8295 sf 0 0 m (0.025) show NC gr 
 gsave  408 305 1837 677 C 1848.93 860.365 t 0 r /Helvetica findfont 22.8295 sf 0 0 m (0.03) show NC gr 
 gsave  408 305 1837 677 C 1837.53 883.156 t 0 r /Helvetica findfont 22.8295 sf 0 0 m (0.035) show NC gr 
 gsave  408 305 1837 677 C 1848.93 908.796 t 0 r /Helvetica findfont 22.8295 sf 0 0 m (0.04) show NC gr 
 gsave  408 305 1837 677 C 1837.53 931.587 t 0 r /Helvetica findfont 22.8295 sf 0 0 m (0.045) show NC gr  2204 723 m 229 Y s 2199 723 m 5 X s 2201 728 m 3 X s 2201 733 m 3 X s 2201 737 m 3 X s 2201 742 m 3 X s 2199 747 m 5 X s 2201 752 m 3 X s 2201
 757 m 3 X s 2201 761 m 3 X s 2201 766 m 3 X s 2199 771 m 5 X s 2201 776 m 3 X s 2201 781 m 3 X s 2201 786 m 3 X s 2201 790 m 3 X s 2199 795 m 5 X s 2201 800 m 3 X s 2201 805 m 3 X s 2201 810 m 3 X s 2201 814 m 3 X s 2199 819 m 5 X s 2201 824 m 3 X s
 2201 829 m 3 X s 2201 834 m 3 X s 2201 839 m 3 X s 2199 843 m 5 X s 2201 848 m 3 X s 2201 853 m 3 X s 2201 858 m 3 X s 2201 863 m 3 X s 2199 867 m 5 X s 2201 872 m 3 X s 2201 877 m 3 X s 2201 882 m 3 X s 2201 887 m 3 X s 2199 892 m 5 X s 2201 896 m
 3 X s 2201 901 m 3 X s 2201 906 m 3 X s 2201 911 m 3 X s 2199 916 m 5 X s 2201 921 m 3 X s 2201 925 m 3 X s 2201 930 m 3 X s 2201 935 m 3 X s 2199 940 m 5 X s 2199 940 m 5 X s 2201 945 m 3 X s 2201 949 m 3 X s 1954 791 2011 775 2123 889 2179 885 4 {
 m21} R 1954 802 m 32 Y s 1949 834 m 11 X s 1954 779 m -31 Y s 1949 748 m 11 X s 2011 787 m 31 Y s 2005 818 m 11 X s 2011 764 m -32 Y s 2005 732 m 11 X s 2123 900 m 32 Y s 2117 932 m 12 X s 2123 877 m -31 Y s 2117 846 m 12 X s 2179 897 m 31 Y s 2174
 928 m 11 X s 2179 874 m -32 Y s 2174 842 m 11 X s 9 lw 0.95 0.95 0.95 c black 1900 724 m 3 2 d 3 2 d 3 2 d 3 2 d 3 2 d 3 2 d 3 1 d 3 2 d 3 2 d 3 2 d 3 2 d 3 2 d 3 2 d 3 2 d 4 2 d 3 2 d 3 2 d 3 2 d 3 2 d 3 2 d 3 2 d 3 2 d 3 2 d 3 2 d 3 2 d 3 1 d 3 2
 d 3 2 d 3 2 d 3 2 d 4 2 d 3 2 d 3 2 d 3 2 d 3 2 d 3 2 d 3 2 d 3 2 d 3 2 d 3 2 d 3 2 d 3 2 d 3 2 d 3 2 d 3 2 d 3 1 d 3 2 d 4 2 d 3 2 d s 2050 819 m 3 2 d 3 2 d 3 2 d 3 2 d 3 2 d 3 2 d 3 2 d 3 2 d 3 2 d 3 2 d 3 2 d 3 2 d 3 2 d 3 2 d 4 2 d 3 1 d 3 2 d
 3 2 d 3 2 d 3 2 d 3 2 d 3 2 d 3 2 d 3 2 d 3 2 d 3 2 d 3 2 d 3 2 d 3 2 d 3 2 d 4 2 d 3 2 d 3 2 d 3 2 d 3 1 d 3 2 d 3 2 d 3 2 d 3 2 d 3 2 d 3 2 d 3 2 d 3 2 d 3 2 d 3 2 d 3 2 d 4 2 d 3 2 d 3 2 d s 2200 915 m 3 2 d s 0.49 0.6 0.82 c black 0.49 0.6 0.82
 c
 gsave  408 305 1837 677 C 1957.19 960.076 t 0 r /Helvetica-Bold findfont 25.6831 sf 0 0 m (4.5 < E < 5.0 GeV) show NC gr  0.52 0.76 0.64 c black 0.52 0.76 0.64 c
 gsave  408 305 1837 677 C 1942.94 923.04 t 0 r /Helvetica-Bold findfont 25.6831 sf 0 0 m 
 220 206 192 185 170 163 148 141 125 118 111 97 83 69 61 47 40 25 18
(A = 0.015, p = 1.000) K NC gr  1 0.6 1 c black 1 0.6 1 c
 gsave  408 305 1837 677 C 2242.08 791.991 t 90 r /Helvetica-Bold findfont 28.5368 sf 0 0 m (/dof=0.4) show NC gr  black 1 0.6 1 c
 gsave  408 305 1837 677 C 2230.68 780.596 t 90 r /Helvetica-Bold findfont 19.9758 sf 0 0 m (2) show NC gr  black 1 0.6 1 c
 gsave  408 305 1837 677 C 2242.08 763.503 t 90 r /Symbol findfont 28.5368 sf 0 0 m (c) show NC gr  black 3 lw 1 1 1 c 408 306 23 345 bf black 1 1 1 c black 306 229 84 391 bl 306 229 84 391 bl 84 391 m 306 X s 84 395 m -4 Y s 196 395 m -4 Y s 309 395
 m -4 Y s 309 395 m -4 Y s
 gsave  408 306 23 345 C 74.0711 370.356 t 0 r /Helvetica findfont 22.8295 sf 0 0 m (0) show NC gr 
 gsave  408 306 23 345 C 188.027 370.356 t 0 r /Helvetica findfont 22.8295 sf 0 0 m (1) show NC gr 
 gsave  408 306 23 345 C 299.133 370.356 t 0 r /Helvetica findfont 22.8295 sf 0 0 m (2) show NC gr  84 620 m 306 X s 84 616 m 4 Y s 196 616 m 4 Y s 309 616 m 4 Y s 309 616 m 4 Y s 84 391 m 229 Y s 89 420 m -5 X s 87 428 m -3 X s 87 437 m -3 X s 87
 445 m -3 X s 87 453 m -3 X s 89 461 m -5 X s 87 469 m -3 X s 87 477 m -3 X s 87 486 m -3 X s 87 494 m -3 X s 89 502 m -5 X s 87 510 m -3 X s 87 518 m -3 X s 87 526 m -3 X s 87 535 m -3 X s 89 543 m -5 X s 87 551 m -3 X s 87 559 m -3 X s 87 567 m -3
 X s 87 575 m -3 X s 89 583 m -5 X s 89 420 m -5 X s 87 412 m -3 X s 87 404 m -3 X s 87 396 m -3 X s 89 583 m -5 X s 87 592 m -3 X s 87 600 m -3 X s 87 608 m -3 X s 87 616 m -3 X s
 gsave  408 306 23 345 C 31.3378 413.089 t 0 r /Helvetica findfont 22.8295 sf 0 0 m (\2550.01) show NC gr 
 gsave  408 306 23 345 C 65.5245 452.974 t 0 r /Helvetica findfont 22.8295 sf 0 0 m (0) show NC gr 
 gsave  408 306 23 345 C 37.0356 495.707 t 0 r /Helvetica findfont 22.8295 sf 0 0 m (0.01) show NC gr 
 gsave  408 306 23 345 C 34.1867 535.591 t 0 r /Helvetica findfont 22.8295 sf 0 0 m (0.02) show NC gr 
 gsave  408 306 23 345 C 34.1867 575.476 t 0 r /Helvetica findfont 22.8295 sf 0 0 m (0.03) show NC gr  390 391 m 229 Y s 385 420 m 5 X s 387 428 m 3 X s 387 437 m 3 X s 387 445 m 3 X s 387 453 m 3 X s 385 461 m 5 X s 387 469 m 3 X s 387 477 m 3 X s
 387 486 m 3 X s 387 494 m 3 X s 385 502 m 5 X s 387 510 m 3 X s 387 518 m 3 X s 387 526 m 3 X s 387 535 m 3 X s 385 543 m 5 X s 387 551 m 3 X s 387 559 m 3 X s 387 567 m 3 X s 387 575 m 3 X s 385 583 m 5 X s 385 420 m 5 X s 387 412 m 3 X s 387 404 m
 3 X s 387 396 m 3 X s 385 583 m 5 X s 387 592 m 3 X s 387 600 m 3 X s 387 608 m 3 X s 387 616 m 3 X s /w 22 def /w2 {w 2 div} def /w3 {w 3 div} def 140 477 196 457 309 534 365 554 4 { m21} R 140 488 m 36 Y s 134 524 m 12 X s 140 466 m -36 Y s 134
 430 m 12 X s 196 468 m 35 Y s 191 503 m 11 X s 196 445 m -35 Y s 191 410 m 11 X s 309 545 m 36 Y s 303 581 m 12 X s 309 523 m -36 Y s 303 487 m 12 X s 365 565 m 36 Y s 360 601 m 11 X s 365 543 m -36 Y s 360 507 m 11 X s 1 0 0 c 9 lw 0.95 0.95 0.95 c
 black 1 0 0 c 85 461 m 16 X 3 1 d 12 X 3 1 d 9 X 3 1 d 3 X 3 1 d 7 X 3 1 d 3 X 3 1 d 3 X 3 1 d 3 1 d 3 X 3 1 d 3 X 3 1 d 3 1 d 3 X 3 1 d 3 1 d 4 1 d 3 1 d 3 X 3 1 d 3 1 d 3 1 d 3 1 d 3 1 d 3 1 d 3 1 d 3 1 d 3 1 d 3 1 d 3 1 d 3 1 d 3 1 d s 235 489 m
 4 1 d 3 2 d 3 1 d 3 1 d 3 1 d 3 1 d 3 2 d 3 1 d 3 1 d 3 2 d 3 1 d 3 2 d 3 1 d 3 1 d 3 2 d 3 1 d 3 2 d 4 1 d 3 2 d 3 2 d 3 1 d 3 2 d 3 2 d 3 1 d 3 2 d 3 2 d 3 1 d 3 2 d 3 2 d 3 2 d 3 2 d 3 1 d 3 2 d 4 2 d 3 2 d 3 2 d 3 2 d 3 2 d 3 2 d 3 2 d 3 2 d 3 2
 d 3 2 d 3 3 d 3 2 d 3 2 d 3 2 d 3 2 d 3 3 d s 385 573 m 4 2 d s 0.49 0.6 0.82 c black 0.49 0.6 0.82 c
 gsave  408 306 23 345 C 142.445 629.605 t 0 r /Helvetica-Bold findfont 25.6831 sf 0 0 m (5.0 < E < 5.5 GeV) show NC gr  0.52 0.76 0.64 c black 0.52 0.76 0.64 c
 gsave  408 306 23 345 C 128.2 592.569 t 0 r /Helvetica-Bold findfont 25.6831 sf 0 0 m 
 220 206 192 185 170 163 148 141 126 118 111 97 83 69 61 47 40 25 18
(A = 0.004, p = 2.000) K NC gr  1 0.6 1 c black 1 0.6 1 c
 gsave  408 306 23 345 C 427.334 458.671 t 90 r /Helvetica-Bold findfont 28.5368 sf 0 0 m (/dof=0.1) show NC gr  black 1 0.6 1 c
 gsave  408 306 23 345 C 415.938 447.276 t 90 r /Helvetica-Bold findfont 19.9758 sf 0 0 m (2) show NC gr  black 1 0.6 1 c
 gsave  408 306 23 345 C 427.334 430.182 t 90 r /Symbol findfont 28.5368 sf 0 0 m (c) show NC gr  black 3 lw 1 1 1 c 408 306 476 345 bf black 1 1 1 c black 307 229 537 391 bl 307 229 537 391 bl 537 391 m 307 X s 537 395 m -4 Y s 650 395 m -4 Y s 763
 395 m -4 Y s 763 395 m -4 Y s
 gsave  408 306 476 345 C 527.045 370.356 t 0 r /Helvetica findfont 22.8295 sf 0 0 m (0) show NC gr 
 gsave  408 306 476 345 C 643.849 370.356 t 0 r /Helvetica findfont 22.8295 sf 0 0 m (1) show NC gr 
 gsave  408 306 476 345 C 752.107 370.356 t 0 r /Helvetica findfont 22.8295 sf 0 0 m (2) show NC gr  537 620 m 307 X s 537 616 m 4 Y s 650 616 m 4 Y s 763 616 m 4 Y s 763 616 m 4 Y s 537 391 m 229 Y s 543 421 m -6 X s 540 429 m -3 X s 540 437 m -3 X
 s 540 444 m -3 X s 540 452 m -3 X s 543 460 m -6 X s 540 468 m -3 X s 540 476 m -3 X s 540 483 m -3 X s 540 491 m -3 X s 543 499 m -6 X s 540 507 m -3 X s 540 515 m -3 X s 540 522 m -3 X s 540 530 m -3 X s 543 538 m -6 X s 540 546 m -3 X s 540 554 m
 -3 X s 540 561 m -3 X s 540 569 m -3 X s 543 577 m -6 X s 540 585 m -3 X s 540 593 m -3 X s 540 600 m -3 X s 540 608 m -3 X s 543 616 m -6 X s 543 421 m -6 X s 540 413 m -3 X s 540 405 m -3 X s 540 398 m -3 X s 543 616 m -6 X s
 gsave  408 306 476 345 C 481.462 413.089 t 0 r /Helvetica findfont 22.8295 sf 0 0 m (\2550.02) show NC gr 
 gsave  408 306 476 345 C 484.311 452.974 t 0 r /Helvetica findfont 22.8295 sf 0 0 m (\2550.01) show NC gr 
 gsave  408 306 476 345 C 518.498 492.858 t 0 r /Helvetica findfont 22.8295 sf 0 0 m (0) show NC gr 
 gsave  408 306 476 345 C 490.009 529.894 t 0 r /Helvetica findfont 22.8295 sf 0 0 m (0.01) show NC gr 
 gsave  408 306 476 345 C 487.16 569.778 t 0 r /Helvetica findfont 22.8295 sf 0 0 m (0.02) show NC gr 
 gsave  408 306 476 345 C 487.16 609.662 t 0 r /Helvetica findfont 22.8295 sf 0 0 m (0.03) show NC gr  844 391 m 229 Y s 838 421 m 6 X s 841 429 m 3 X s 841 437 m 3 X s 841 444 m 3 X s 841 452 m 3 X s 838 460 m 6 X s 841 468 m 3 X s 841 476 m 3 X s
 841 483 m 3 X s 841 491 m 3 X s 838 499 m 6 X s 841 507 m 3 X s 841 515 m 3 X s 841 522 m 3 X s 841 530 m 3 X s 838 538 m 6 X s 841 546 m 3 X s 841 554 m 3 X s 841 561 m 3 X s 841 569 m 3 X s 838 577 m 6 X s 841 585 m 3 X s 841 593 m 3 X s 841 600 m
 3 X s 841 608 m 3 X s 838 616 m 6 X s 838 421 m 6 X s 841 413 m 3 X s 841 405 m 3 X s 841 398 m 3 X s 838 616 m 6 X s /w 23 def /w2 {w 2 div} def /w3 {w 3 div} def 594 522 650 477 763 464 819 546 4 { m21} R 594 533 m 45 Y s 588 578 m 11 X s 594 510
 m -45 Y s 588 465 m 11 X s 650 488 m 44 Y s 644 532 m 12 X s 650 465 m -44 Y s 644 421 m 12 X s 763 476 m 43 Y s 757 519 m 11 X s 763 453 m -43 Y s 757 410 m 11 X s 819 557 m 44 Y s 813 601 m 12 X s 819 534 m -43 Y s 813 491 m 12 X s 1 0 0 c 9 lw
 0.95 0.95 0.95 c black 1 0 0 c 539 499 m 46 X 3 1 d 37 X 3 1 d 24 X 3 1 d 19 X 3 1 d 12 X s 689 503 m 3 X 3 1 d 12 X 3 1 d 13 X 3 1 d 12 X 3 1 d 9 X 3 1 d 9 X 4 1 d 9 X 3 1 d 6 X 3 1 d 9 X 3 1 d 6 X 3 1 d 7 X 3 1 d 6 X 3 1 d 6 X 3 1 d 3 X s 839 516
 m 3 X s 0.49 0.6 0.82 c black 0.49 0.6 0.82 c
 gsave  408 306 476 345 C 595.418 629.605 t 0 r /Helvetica-Bold findfont 25.6831 sf 0 0 m (5.5 < E < 6.0 GeV) show NC gr  0.52 0.76 0.64 c black 0.52 0.76 0.64 c
 gsave  408 306 476 345 C 581.174 592.569 t 0 r /Helvetica-Bold findfont 25.6831 sf 0 0 m 
 220 206 192 185 170 163 148 141 125 118 111 97 83 68 61 47 40 25 18
(A = 0.001, p = 2.000) K NC gr  1 0.6 1 c black 1 0.6 1 c
 gsave  408 306 476 345 C 883.156 458.671 t 90 r /Helvetica-Bold findfont 28.5368 sf 0 0 m (/dof=0.4) show NC gr  black 1 0.6 1 c
 gsave  408 306 476 345 C 871.76 447.276 t 90 r /Helvetica-Bold findfont 19.9758 sf 0 0 m (2) show NC gr  black 1 0.6 1 c
 gsave  408 306 476 345 C 883.156 430.182 t 90 r /Symbol findfont 28.5368 sf 0 0 m (c) show NC gr  black 3 lw 1 1 1 c 408 306 930 345 bf black 1 1 1 c black 306 229 991 391 bl 306 229 991 391 bl 991 391 m 306 X s 991 395 m -4 Y s 1104 395 m -4 Y s
 1216 395 m -4 Y s 1216 395 m -4 Y s
 gsave  408 306 930 345 C 980.018 370.356 t 0 r /Helvetica findfont 22.8295 sf 0 0 m (0) show NC gr 
 gsave  408 306 930 345 C 1096.82 370.356 t 0 r /Helvetica findfont 22.8295 sf 0 0 m (1) show NC gr 
 gsave  408 306 930 345 C 1205.08 370.356 t 0 r /Helvetica findfont 22.8295 sf 0 0 m (2) show NC gr  991 620 m 306 X s 991 616 m 4 Y s 1104 616 m 4 Y s 1216 616 m 4 Y s 1216 616 m 4 Y s 991 391 m 229 Y s 997 404 m -6 X s 994 413 m -3 X s 994 422 m -3
 X s 994 431 m -3 X s 994 439 m -3 X s 997 448 m -6 X s 994 457 m -3 X s 994 466 m -3 X s 994 475 m -3 X s 994 484 m -3 X s 997 493 m -6 X s 994 501 m -3 X s 994 510 m -3 X s 994 519 m -3 X s 994 528 m -3 X s 997 537 m -6 X s 994 546 m -3 X s 994 555
 m -3 X s 994 564 m -3 X s 994 572 m -3 X s 997 581 m -6 X s 997 404 m -6 X s 994 395 m -3 X s 997 581 m -6 X s 994 590 m -3 X s 994 599 m -3 X s 994 608 m -3 X s 994 617 m -3 X s
 gsave  408 306 930 345 C 937.285 395.996 t 0 r /Helvetica findfont 22.8295 sf 0 0 m (\2550.03) show NC gr 
 gsave  408 306 930 345 C 937.285 441.578 t 0 r /Helvetica findfont 22.8295 sf 0 0 m (\2550.02) show NC gr 
 gsave  408 306 930 345 C 940.134 484.311 t 0 r /Helvetica findfont 22.8295 sf 0 0 m (\2550.01) show NC gr 
 gsave  408 306 930 345 C 974.32 529.894 t 0 r /Helvetica findfont 22.8295 sf 0 0 m (0) show NC gr 
 gsave  408 306 930 345 C 945.832 575.476 t 0 r /Helvetica findfont 22.8295 sf 0 0 m (0.01) show NC gr  1297 391 m 229 Y s 1292 404 m 5 X s 1294 413 m 3 X s 1294 422 m 3 X s 1294 431 m 3 X s 1294 439 m 3 X s 1292 448 m 5 X s 1294 457 m 3 X s 1294 466
 m 3 X s 1294 475 m 3 X s 1294 484 m 3 X s 1292 493 m 5 X s 1294 501 m 3 X s 1294 510 m 3 X s 1294 519 m 3 X s 1294 528 m 3 X s 1292 537 m 5 X s 1294 546 m 3 X s 1294 555 m 3 X s 1294 564 m 3 X s 1294 572 m 3 X s 1292 581 m 5 X s 1292 404 m 5 X s
 1294 395 m 3 X s 1292 581 m 5 X s 1294 590 m 3 X s 1294 599 m 3 X s 1294 608 m 3 X s 1294 617 m 3 X s 1047 485 1104 525 1216 519 1272 488 4 { m21} R 1047 496 m 64 Y s 1042 560 m 11 X s 1047 474 m -64 Y s 1042 410 m 11 X s 1104 536 m 65 Y s 1098 601
 m 11 X s 1104 513 m -65 Y s 1098 448 m 11 X s 1216 530 m 64 Y s 1210 594 m 12 X s 1216 507 m -63 Y s 1210 444 m 12 X s 1272 500 m 61 Y s 1267 561 m 11 X s 1272 477 m -62 Y s 1267 415 m 11 X s 9 lw 0.95 0.95 0.95 c black 993 537 m 3 -1 d 3 X 3 -1 d 3
 X 3 -1 d 3 X 3 -1 d 6 X 3 -1 d 3 X 3 -1 d 3 X 3 -1 d 3 X 4 -1 d 3 X 3 -1 d 3 X 3 -1 d 3 X 3 -1 d 3 X 3 -1 d 6 X 3 -1 d 3 X 3 -1 d 3 X 3 -1 d 3 X 4 -1 d 3 X 3 -1 d 3 X 3 -1 d 3 X 3 -1 d 6 X 3 -1 d 3 X 3 -1 d 3 X 3 -1 d 3 X 3 -1 d 4 X s 1143 514 m 3
 -1 d 3 X 3 -1 d 3 X 3 -1 d 6 X 3 -1 d 3 X 3 -1 d 3 X 3 -1 d 3 X 3 -1 d 3 X 4 -1 d 3 X 3 -1 d 3 X 3 -1 d 6 X 3 -1 d 3 X 3 -1 d 3 X 3 -1 d 3 X 3 -1 d 3 X 3 -1 d 3 X 4 -1 d 3 X 3 -1 d 6 X 3 -1 d 3 X 3 -1 d 3 X 3 -1 d 3 X 3 -1 d 3 X 3 -1 d 3 X 3 -1 d 4
 X s 1293 491 m 3 -1 d s 0.49 0.6 0.82 c black 0.49 0.6 0.82 c
 gsave  408 306 930 345 C 1051.24 629.605 t 0 r /Helvetica-Bold findfont 25.6831 sf 0 0 m (6.0 < E < 6.5 GeV) show NC gr  0.52 0.76 0.64 c black 0.52 0.76 0.64 c
 gsave  408 306 930 345 C 1031.3 592.569 t 0 r /Helvetica-Bold findfont 25.6831 sf 0 0 m 
 228 214 200 193 178 171 156 149 133 126 119 105 91 77 69 55 47 39 25 17
(A = \2550.004, p = 1.000) K NC gr  1 0.6 1 c black 1 0.6 1 c
 gsave  408 306 930 345 C 1336.13 458.671 t 90 r /Helvetica-Bold findfont 28.5368 sf 0 0 m (/dof=0.1) show NC gr  black 1 0.6 1 c
 gsave  408 306 930 345 C 1324.73 447.276 t 90 r /Helvetica-Bold findfont 19.9758 sf 0 0 m (2) show NC gr  black 1 0.6 1 c
 gsave  408 306 930 345 C 1336.13 430.182 t 90 r /Symbol findfont 28.5368 sf 0 0 m (c) show NC gr  black 3 lw 1 1 1 c 408 306 1383 345 bf black 1 1 1 c black 306 229 1445 391 bl 306 229 1445 391 bl 1445 391 m 306 X s 1445 395 m -4 Y s 1557 395 m -4 Y
 s 1670 395 m -4 Y s 1670 395 m -4 Y s
 gsave  408 306 1383 345 C 1435.84 370.356 t 0 r /Helvetica findfont 22.8295 sf 0 0 m (0) show NC gr 
 gsave  408 306 1383 345 C 1549.8 370.356 t 0 r /Helvetica findfont 22.8295 sf 0 0 m (1) show NC gr 
 gsave  408 306 1383 345 C 1660.9 370.356 t 0 r /Helvetica findfont 22.8295 sf 0 0 m (2) show NC gr  1445 620 m 306 X s 1445 616 m 4 Y s 1557 616 m 4 Y s 1670 616 m 4 Y s 1670 616 m 4 Y s 1445 391 m 229 Y s 1450 417 m -5 X s 1447 427 m -2 X s 1447
 437 m -2 X s 1447 447 m -2 X s 1450 457 m -5 X s 1447 467 m -2 X s 1447 477 m -2 X s 1447 487 m -2 X s 1450 497 m -5 X s 1447 507 m -2 X s 1447 517 m -2 X s 1447 527 m -2 X s 1450 537 m -5 X s 1447 547 m -2 X s 1447 557 m -2 X s 1447 567 m -2 X s
 1450 577 m -5 X s 1447 587 m -2 X s 1447 597 m -2 X s 1447 607 m -2 X s 1450 617 m -5 X s 1450 417 m -5 X s 1447 407 m -2 X s 1447 397 m -2 X s 1450 617 m -5 X s
 gsave  408 306 1383 345 C 1390.26 410.24 t 0 r /Helvetica findfont 22.8295 sf 0 0 m (\2550.06) show NC gr 
 gsave  408 306 1383 345 C 1390.26 450.125 t 0 r /Helvetica findfont 22.8295 sf 0 0 m (\2550.04) show NC gr 
 gsave  408 306 1383 345 C 1390.26 490.009 t 0 r /Helvetica findfont 22.8295 sf 0 0 m (\2550.02) show NC gr 
 gsave  408 306 1383 345 C 1427.29 529.894 t 0 r /Helvetica findfont 22.8295 sf 0 0 m (0) show NC gr 
 gsave  408 306 1383 345 C 1395.96 569.778 t 0 r /Helvetica findfont 22.8295 sf 0 0 m (0.02) show NC gr 
 gsave  408 306 1383 345 C 1395.96 609.662 t 0 r /Helvetica findfont 22.8295 sf 0 0 m (0.04) show NC gr  1751 391 m 229 Y s 1745 417 m 6 X s 1748 427 m 3 X s 1748 437 m 3 X s 1748 447 m 3 X s 1745 457 m 6 X s 1748 467 m 3 X s 1748 477 m 3 X s 1748
 487 m 3 X s 1745 497 m 6 X s 1748 507 m 3 X s 1748 517 m 3 X s 1748 527 m 3 X s 1745 537 m 6 X s 1748 547 m 3 X s 1748 557 m 3 X s 1748 567 m 3 X s 1745 577 m 6 X s 1748 587 m 3 X s 1748 597 m 3 X s 1748 607 m 3 X s 1745 617 m 6 X s 1745 417 m 6 X s
 1748 407 m 3 X s 1748 397 m 3 X s 1745 617 m 6 X s 1501 495 1557 561 1670 510 1726 447 4 { m21} R 1501 506 m 28 Y s 1495 534 m 12 X s 1501 484 m -28 Y s 1495 456 m 12 X s 1557 573 m 28 Y s 1551 601 m 12 X s 1557 550 m -28 Y s 1551 522 m 12 X s 1670
 521 m 27 Y s 1664 548 m 11 X s 1670 498 m -26 Y s 1664 472 m 11 X s 1726 458 m 25 Y s 1720 483 m 12 X s 1726 435 m -25 Y s 1720 410 m 12 X s 1 0 0 c 9 lw 0.95 0.95 0.95 c black 1 0 0 c 1446 537 m 18 X 3 -1 d 16 X 3 -1 d 9 X 3 -1 d 6 X 3 -1 d 3 X 3
 -1 d 7 X 3 -1 d 3 X 3 -1 d 3 X 3 -1 d 3 X 3 -1 d 3 X 3 -1 d 3 -1 d 3 X 3 -1 d 3 X 3 -1 d 3 -1 d 4 -1 d 3 X 3 -1 d 3 -1 d 3 -1 d 3 X 3 -1 d 3 -1 d 3 -1 d 3 -1 d s 1596 515 m 3 -1 d 3 X 3 -1 d 3 -1 d 3 -1 d 3 -1 d 4 -1 d 3 -1 d 3 -1 d 3 -1 d 3 -1 d 3
 -1 d 3 -2 d 3 -1 d 3 -1 d 3 -1 d 3 -1 d 3 -1 d 3 -1 d 3 -2 d 3 -1 d 3 -1 d 3 -1 d 4 -2 d 3 -1 d 3 -1 d 3 -2 d 3 -1 d 3 -1 d 3 -2 d 3 -1 d 3 -2 d 3 -1 d 3 -2 d 3 -1 d 3 -2 d 3 -1 d 3 -2 d 3 -1 d 4 -2 d 3 -1 d 3 -2 d 3 -2 d 3 -1 d 3 -2 d 3 -2 d 3 -1 d
 3 -2 d 3 -2 d s 1746 451 m 3 -1 d s 0.49 0.6 0.82 c black 0.49 0.6 0.82 c
 gsave  408 306 1383 345 C 1504.21 629.605 t 0 r /Helvetica-Bold findfont 25.6831 sf 0 0 m (6.5 < E < 7.0 GeV) show NC gr  0.52 0.76 0.64 c black 0.52 0.76 0.64 c
 gsave  408 306 1383 345 C 1484.27 592.569 t 0 r /Helvetica-Bold findfont 25.6831 sf 0 0 m 
 228 214 200 193 178 171 156 149 134 126 119 105 91 77 69 55 47 40 25 17
(A = \2550.006, p = 2.000) K NC gr  1 0.6 1 c black 1 0.6 1 c
 gsave  408 306 1383 345 C 1789.1 458.671 t 90 r /Helvetica-Bold findfont 28.5368 sf 0 0 m (/dof=0.8) show NC gr  black 1 0.6 1 c
 gsave  408 306 1383 345 C 1777.71 447.276 t 90 r /Helvetica-Bold findfont 19.9758 sf 0 0 m (2) show NC gr  black 1 0.6 1 c
 gsave  408 306 1383 345 C 1789.1 430.182 t 90 r /Symbol findfont 28.5368 sf 0 0 m (c) show NC gr  black 3 lw 1 1 1 c 408 306 1837 345 bf black 1 1 1 c black 306 229 1898 391 bl 306 229 1898 391 bl 1898 391 m 306 X s 1898 395 m -4 Y s 2011 395 m -4 Y
 s 2123 395 m -4 Y s 2123 395 m -4 Y s
 gsave  408 306 1837 345 C 1888.81 370.356 t 0 r /Helvetica findfont 22.8295 sf 0 0 m (0) show NC gr 
 gsave  408 306 1837 345 C 2002.77 370.356 t 0 r /Helvetica findfont 22.8295 sf 0 0 m (1) show NC gr 
 gsave  408 306 1837 345 C 2113.88 370.356 t 0 r /Helvetica findfont 22.8295 sf 0 0 m (2) show NC gr  1898 620 m 306 X s 1898 616 m 4 Y s 2011 616 m 4 Y s 2123 616 m 4 Y s 2123 616 m 4 Y s 1898 391 m 229 Y s 1904 392 m -6 X s 1901 402 m -3 X s 1901
 413 m -3 X s 1901 423 m -3 X s 1904 433 m -6 X s 1901 443 m -3 X s 1901 453 m -3 X s 1901 463 m -3 X s 1904 473 m -6 X s 1901 483 m -3 X s 1901 494 m -3 X s 1901 504 m -3 X s 1904 514 m -6 X s 1901 524 m -3 X s 1901 534 m -3 X s 1901 544 m -3 X s
 1904 554 m -6 X s 1901 564 m -3 X s 1901 574 m -3 X s 1901 585 m -3 X s 1904 595 m -6 X s 1904 392 m -6 X s 1904 595 m -6 X s 1901 605 m -3 X s 1901 615 m -3 X s
 gsave  408 306 1837 345 C 1843.23 384.6 t 0 r /Helvetica findfont 22.8295 sf 0 0 m (\2550.06) show NC gr 
 gsave  408 306 1837 345 C 1843.23 424.485 t 0 r /Helvetica findfont 22.8295 sf 0 0 m (\2550.04) show NC gr 
 gsave  408 306 1837 345 C 1843.23 467.218 t 0 r /Helvetica findfont 22.8295 sf 0 0 m (\2550.02) show NC gr 
 gsave  408 306 1837 345 C 1880.27 507.102 t 0 r /Helvetica findfont 22.8295 sf 0 0 m (0) show NC gr 
 gsave  408 306 1837 345 C 1848.93 546.987 t 0 r /Helvetica findfont 22.8295 sf 0 0 m (0.02) show NC gr 
 gsave  408 306 1837 345 C 1848.93 586.871 t 0 r /Helvetica findfont 22.8295 sf 0 0 m (0.04) show NC gr  2204 391 m 229 Y s 2199 392 m 5 X s 2201 402 m 3 X s 2201 413 m 3 X s 2201 423 m 3 X s 2199 433 m 5 X s 2201 443 m 3 X s 2201 453 m 3 X s 2201
 463 m 3 X s 2199 473 m 5 X s 2201 483 m 3 X s 2201 494 m 3 X s 2201 504 m 3 X s 2199 514 m 5 X s 2201 524 m 3 X s 2201 534 m 3 X s 2201 544 m 3 X s 2199 554 m 5 X s 2201 564 m 3 X s 2201 574 m 3 X s 2201 585 m 3 X s 2199 595 m 5 X s 2199 392 m 5 X s
 2199 595 m 5 X s 2201 605 m 3 X s 2201 615 m 3 X s 1954 556 2011 493 2123 499 2179 452 4 { m21} R 1954 567 m 34 Y s 1949 601 m 11 X s 1954 545 m -34 Y s 1949 511 m 11 X s 2011 504 m 32 Y s 2005 536 m 11 X s 2011 481 m -32 Y s 2005 449 m 11 X s 2123
 510 m 32 Y s 2117 542 m 12 X s 2123 487 m -32 Y s 2117 455 m 12 X s 2179 464 m 31 Y s 2174 495 m 11 X s 2179 441 m -31 Y s 2174 410 m 11 X s 1 0 0 c 9 lw 0.95 0.95 0.95 c black 1 0 0 c 1900 514 m 15 X 3 -1 d 21 X 3 -1 d 13 X 3 -1 d 9 X 3 -1 d 9 X 3
 -1 d 3 X 3 -1 d 7 X 3 -1 d 6 X 3 -1 d 3 X 3 -1 d 3 X 3 -1 d 3 X 3 -1 d 3 X 3 -1 d 3 X 3 -1 d 3 X 3 -1 d 4 X 3 -1 d s 2050 499 m 3 -1 d 3 X 3 -1 d 3 -1 d 3 X 3 -1 d 3 -1 d 3 X 3 -1 d 3 -1 d 3 X 3 -1 d 3 -1 d 3 -1 d 4 X 3 -1 d 3 -1 d 3 -1 d 3 -1 d 3 X
 3 -1 d 3 -1 d 3 -1 d 3 -1 d 3 -1 d 3 -1 d 3 -1 d 3 -1 d 3 -1 d 3 X 4 -1 d 3 -1 d 3 -1 d 3 -1 d 3 -1 d 3 -1 d 3 -2 d 3 -1 d 3 -1 d 3 -1 d 3 -1 d 3 -1 d 3 -1 d 3 -1 d 3 -1 d 3 -1 d 4 -2 d 3 -1 d 3 -1 d s 2200 455 m 3 -1 d s 0.49 0.6 0.82 c black 0.49
 0.6 0.82 c
 gsave  408 306 1837 345 C 1957.19 629.605 t 0 r /Helvetica-Bold findfont 25.6831 sf 0 0 m (7.0 < E < 7.5 GeV) show NC gr  0.52 0.76 0.64 c black 0.52 0.76 0.64 c
 gsave  408 306 1837 345 C 1937.25 592.569 t 0 r /Helvetica-Bold findfont 25.6831 sf 0 0 m 
 228 214 200 193 178 171 156 149 133 126 119 105 91 77 69 55 47 39 25 17
(A = \2550.004, p = 2.000) K NC gr  1 0.6 1 c black 1 0.6 1 c
 gsave  408 306 1837 345 C 2242.08 458.671 t 90 r /Helvetica-Bold findfont 28.5368 sf 0 0 m (/dof=0.4) show NC gr  black 1 0.6 1 c
 gsave  408 306 1837 345 C 2230.68 447.276 t 90 r /Helvetica-Bold findfont 19.9758 sf 0 0 m (2) show NC gr  black 1 0.6 1 c
 gsave  408 306 1837 345 C 2242.08 430.182 t 90 r /Symbol findfont 28.5368 sf 0 0 m (c) show NC gr  black 3 lw 1 1 1 c 408 306 23 13 bf black 1 1 1 c black 306 229 84 59 bl 306 229 84 59 bl 84 59 m 306 X s 84 63 m -4 Y s 196 63 m -4 Y s 309 63 m -4 Y
 s 309 63 m -4 Y s
 gsave  408 306 23 13 C 74.0711 39.8845 t 0 r /Helvetica findfont 22.8295 sf 0 0 m (0) show NC gr 
 gsave  408 306 23 13 C 188.027 39.8845 t 0 r /Helvetica findfont 22.8295 sf 0 0 m (1) show NC gr 
 gsave  408 306 23 13 C 299.133 39.8845 t 0 r /Helvetica findfont 22.8295 sf 0 0 m (2) show NC gr  84 288 m 306 X s 84 284 m 4 Y s 196 284 m 4 Y s 309 284 m 4 Y s 309 284 m 4 Y s 84 59 m 229 Y s 89 73 m -5 X s 87 79 m -3 X s 87 84 m -3 X s 87 90 m -3
 X s 87 96 m -3 X s 89 101 m -5 X s 87 107 m -3 X s 87 113 m -3 X s 87 118 m -3 X s 87 124 m -3 X s 89 130 m -5 X s 87 135 m -3 X s 87 141 m -3 X s 87 147 m -3 X s 87 152 m -3 X s 89 158 m -5 X s 87 164 m -3 X s 87 169 m -3 X s 87 175 m -3 X s 87 181
 m -3 X s 89 186 m -5 X s 87 192 m -3 X s 87 197 m -3 X s 87 203 m -3 X s 87 209 m -3 X s 89 214 m -5 X s 87 220 m -3 X s 87 226 m -3 X s 87 231 m -3 X s 87 237 m -3 X s 89 243 m -5 X s 87 248 m -3 X s 87 254 m -3 X s 87 260 m -3 X s 87 265 m -3 X s
 89 271 m -5 X s 89 73 m -5 X s 87 68 m -3 X s 87 62 m -3 X s 89 271 m -5 X s 87 277 m -3 X s 87 282 m -3 X s 87 288 m -3 X s
 gsave  408 306 23 13 C 28.4889 65.5245 t 0 r /Helvetica findfont 22.8295 sf 0 0 m (\2550.05) show NC gr 
 gsave  408 306 23 13 C 28.4889 94.0134 t 0 r /Helvetica findfont 22.8295 sf 0 0 m (\2550.04) show NC gr 
 gsave  408 306 23 13 C 28.4889 122.502 t 0 r /Helvetica findfont 22.8295 sf 0 0 m (\2550.03) show NC gr 
 gsave  408 306 23 13 C 28.4889 150.991 t 0 r /Helvetica findfont 22.8295 sf 0 0 m (\2550.02) show NC gr 
 gsave  408 306 23 13 C 31.3378 179.48 t 0 r /Helvetica findfont 22.8295 sf 0 0 m (\2550.01) show NC gr 
 gsave  408 306 23 13 C 65.5245 207.969 t 0 r /Helvetica findfont 22.8295 sf 0 0 m (0) show NC gr 
 gsave  408 306 23 13 C 37.0356 236.458 t 0 r /Helvetica findfont 22.8295 sf 0 0 m (0.01) show NC gr 
 gsave  408 306 23 13 C 34.1867 264.947 t 0 r /Helvetica findfont 22.8295 sf 0 0 m (0.02) show NC gr  390 59 m 229 Y s 385 73 m 5 X s 387 79 m 3 X s 387 84 m 3 X s 387 90 m 3 X s 387 96 m 3 X s 385 101 m 5 X s 387 107 m 3 X s 387 113 m 3 X s 387 118
 m 3 X s 387 124 m 3 X s 385 130 m 5 X s 387 135 m 3 X s 387 141 m 3 X s 387 147 m 3 X s 387 152 m 3 X s 385 158 m 5 X s 387 164 m 3 X s 387 169 m 3 X s 387 175 m 3 X s 387 181 m 3 X s 385 186 m 5 X s 387 192 m 3 X s 387 197 m 3 X s 387 203 m 3 X s
 387 209 m 3 X s 385 214 m 5 X s 387 220 m 3 X s 387 226 m 3 X s 387 231 m 3 X s 387 237 m 3 X s 385 243 m 5 X s 387 248 m 3 X s 387 254 m 3 X s 387 260 m 3 X s 387 265 m 3 X s 385 271 m 5 X s 385 73 m 5 X s 387 68 m 3 X s 387 62 m 3 X s 385 271 m 5
 X s 387 277 m 3 X s 387 282 m 3 X s 387 288 m 3 X s /w 22 def /w2 {w 2 div} def /w3 {w 3 div} def 140 144 196 203 309 202 365 147 4 { m21} R 140 155 m 54 Y s 134 209 m 12 X s 140 132 m -54 Y s 134 78 m 12 X s 196 214 m 55 Y s 191 269 m 11 X s 196
 192 m -55 Y s 191 137 m 11 X s 309 213 m 55 Y s 303 268 m 12 X s 309 190 m -54 Y s 303 136 m 12 X s 365 159 m 54 Y s 360 213 m 11 X s 365 136 m -54 Y s 360 82 m 11 X s 9 lw 0.95 0.95 0.95 c black 85 214 m 3 X 4 -1 d 3 -1 d 3 X 3 -1 d 3 X 3 -1 d 3 X
 3 -1 d 3 -1 d 3 X 3 -1 d 3 X 3 -1 d 3 X 3 -1 d 3 -1 d 4 X 3 -1 d 3 X 3 -1 d 3 X 3 -1 d 3 -1 d 3 X 3 -1 d 3 X 3 -1 d 3 X 3 -1 d 3 -1 d 3 X 3 -1 d 4 X 3 -1 d 3 X 3 -1 d 3 -1 d 3 X 3 -1 d 3 X 3 -1 d 3 X 3 -1 d 3 -1 d 3 X 3 -1 d 3 X 3 -1 d s 235 186 m 4
 X 3 -1 d 3 -1 d 3 X 3 -1 d 3 X 3 -1 d 3 X 3 -1 d 3 -1 d 3 X 3 -1 d 3 X 3 -1 d 3 X 3 -1 d 3 -1 d 4 X 3 -1 d 3 X 3 -1 d 3 X 3 -1 d 3 -1 d 3 X 3 -1 d 3 X 3 -1 d 3 X 3 -1 d 3 X 3 -1 d 3 -1 d 4 X 3 -1 d 3 X 3 -1 d 3 X 3 -1 d 3 -1 d 3 X 3 -1 d 3 X 3 -1 d
 3 X 3 -1 d 3 -1 d 3 X 3 -1 d s 385 158 m 4 X s 0.49 0.6 0.82 c black 0.49 0.6 0.82 c
 gsave  408 306 23 13 C 142.445 296.285 t 0 r /Helvetica-Bold findfont 25.6831 sf 0 0 m (7.5 < E < 8.0 GeV) show NC gr  0.52 0.76 0.64 c black 0.52 0.76 0.64 c
 gsave  408 306 23 13 C 122.502 259.249 t 0 r /Helvetica-Bold findfont 25.6831 sf 0 0 m 
 228 214 200 193 178 171 156 149 134 126 119 105 91 77 69 55 47 39 25 17
(A = \2550.007, p = 1.000) K NC gr  1 0.6 1 c black 1 0.6 1 c
 gsave  408 306 23 13 C 427.334 128.2 t 90 r /Helvetica-Bold findfont 28.5368 sf 0 0 m (/dof=0.4) show NC gr  black 1 0.6 1 c
 gsave  408 306 23 13 C 415.938 116.804 t 90 r /Helvetica-Bold findfont 19.9758 sf 0 0 m (2) show NC gr  black 1 0.6 1 c
 gsave  408 306 23 13 C 427.334 99.7112 t 90 r /Symbol findfont 28.5368 sf 0 0 m (c) show NC gr  black 3 lw 1 1 1 c 408 306 476 13 bf black 1 1 1 c black 307 229 537 59 bl 307 229 537 59 bl 537 59 m 307 X s 537 63 m -4 Y s 650 63 m -4 Y s 763 63 m -4
 Y s 763 63 m -4 Y s
 gsave  408 306 476 13 C 527.045 39.8845 t 0 r /Helvetica findfont 22.8295 sf 0 0 m (0) show NC gr 
 gsave  408 306 476 13 C 643.849 39.8845 t 0 r /Helvetica findfont 22.8295 sf 0 0 m (1) show NC gr 
 gsave  408 306 476 13 C 752.107 39.8845 t 0 r /Helvetica findfont 22.8295 sf 0 0 m (2) show NC gr  537 288 m 307 X s 537 284 m 4 Y s 650 284 m 4 Y s 763 284 m 4 Y s 763 284 m 4 Y s 537 59 m 229 Y s 543 81 m -6 X s 540 90 m -3 X s 540 99 m -3 X s 540
 108 m -3 X s 543 117 m -6 X s 540 126 m -3 X s 540 135 m -3 X s 540 144 m -3 X s 543 153 m -6 X s 540 162 m -3 X s 540 171 m -3 X s 540 180 m -3 X s 543 189 m -6 X s 540 198 m -3 X s 540 207 m -3 X s 540 216 m -3 X s 543 225 m -6 X s 540 234 m -3 X
 s 540 243 m -3 X s 540 252 m -3 X s 543 261 m -6 X s 543 81 m -6 X s 540 73 m -3 X s 540 64 m -3 X s 543 261 m -6 X s 540 270 m -3 X s 540 279 m -3 X s 540 288 m -3 X s
 gsave  408 306 476 13 C 481.462 74.0711 t 0 r /Helvetica findfont 22.8295 sf 0 0 m (\2550.04) show NC gr 
 gsave  408 306 476 13 C 481.462 111.107 t 0 r /Helvetica findfont 22.8295 sf 0 0 m (\2550.02) show NC gr 
 gsave  408 306 476 13 C 518.498 145.293 t 0 r /Helvetica findfont 22.8295 sf 0 0 m (0) show NC gr 
 gsave  408 306 476 13 C 487.16 182.329 t 0 r /Helvetica findfont 22.8295 sf 0 0 m (0.02) show NC gr 
 gsave  408 306 476 13 C 487.16 219.365 t 0 r /Helvetica findfont 22.8295 sf 0 0 m (0.04) show NC gr 
 gsave  408 306 476 13 C 487.16 253.551 t 0 r /Helvetica findfont 22.8295 sf 0 0 m (0.06) show NC gr  844 59 m 229 Y s 838 81 m 6 X s 841 90 m 3 X s 841 99 m 3 X s 841 108 m 3 X s 838 117 m 6 X s 841 126 m 3 X s 841 135 m 3 X s 841 144 m 3 X s 838
 153 m 6 X s 841 162 m 3 X s 841 171 m 3 X s 841 180 m 3 X s 838 189 m 6 X s 841 198 m 3 X s 841 207 m 3 X s 841 216 m 3 X s 838 225 m 6 X s 841 234 m 3 X s 841 243 m 3 X s 841 252 m 3 X s 838 261 m 6 X s 838 81 m 6 X s 841 73 m 3 X s 841 64 m 3 X s
 838 261 m 6 X s 841 270 m 3 X s 841 279 m 3 X s 841 288 m 3 X s /w 23 def /w2 {w 2 div} def /w3 {w 3 div} def 594 123 650 179 763 146 819 222 4 { m21} R 594 135 m 34 Y s 588 169 m 11 X s 594 112 m -34 Y s 588 78 m 11 X s 650 190 m 35 Y s 644 225 m
 12 X s 650 168 m -35 Y s 644 133 m 12 X s 763 158 m 34 Y s 757 192 m 11 X s 763 135 m -34 Y s 757 101 m 11 X s 819 233 m 36 Y s 813 269 m 12 X s 819 210 m -36 Y s 813 174 m 12 X s 1 0 0 c 9 lw 0.95 0.95 0.95 c black 1 0 0 c 539 153 m 15 X 3 1 d 25 X
 3 1 d 12 X 3 1 d 12 X 4 1 d 6 X 3 1 d 6 X 3 1 d 6 X 3 1 d 6 X 3 1 d 3 X 3 1 d 6 X 4 1 d 3 X 3 1 d 3 X 3 1 d 3 X 3 1 d 3 X s 689 166 m 3 1 d 3 X 3 1 d 3 X 3 1 d 3 1 d 3 X 3 1 d 4 X 3 1 d 3 1 d 3 X 3 1 d 3 1 d 3 X 3 1 d 3 1 d 3 X 3 1 d 3 1 d 3 1 d 3 X
 3 1 d 3 1 d 4 1 d 3 1 d 3 X 3 1 d 3 1 d 3 1 d 3 1 d 3 1 d 3 X 3 1 d 3 1 d 3 1 d 3 1 d 3 1 d 3 1 d 3 1 d 4 1 d 3 1 d 3 1 d 3 1 d 3 1 d 3 1 d 3 1 d 3 1 d 3 1 d s 839 205 m 3 1 d s 0.49 0.6 0.82 c black 0.49 0.6 0.82 c
 gsave  408 306 476 13 C 595.418 296.285 t 0 r /Helvetica-Bold findfont 25.6831 sf 0 0 m (8.0 < E < 8.5 GeV) show NC gr  0.52 0.76 0.64 c black 0.52 0.76 0.64 c
 gsave  408 306 476 13 C 581.174 259.249 t 0 r /Helvetica-Bold findfont 25.6831 sf 0 0 m 
 220 206 192 185 170 163 148 141 125 118 111 97 83 68 61 47 40 25 18
(A = 0.004, p = 2.000) K NC gr  1 0.6 1 c black 1 0.6 1 c
 gsave  408 306 476 13 C 883.156 128.2 t 90 r /Helvetica-Bold findfont 28.5368 sf 0 0 m (/dof=0.5) show NC gr  black 1 0.6 1 c
 gsave  408 306 476 13 C 871.76 116.804 t 90 r /Helvetica-Bold findfont 19.9758 sf 0 0 m (2) show NC gr  black 1 0.6 1 c
 gsave  408 306 476 13 C 883.156 99.7112 t 90 r /Symbol findfont 28.5368 sf 0 0 m (c) show NC gr  black 3 lw 1 1 1 c 408 306 930 13 bf black 1 1 1 c black 306 229 991 59 bl 306 229 991 59 bl 991 59 m 306 X s 991 63 m -4 Y s 1104 63 m -4 Y s 1216 63 m
 -4 Y s 1216 63 m -4 Y s
 gsave  408 306 930 13 C 980.018 39.8845 t 0 r /Helvetica findfont 22.8295 sf 0 0 m (0) show NC gr 
 gsave  408 306 930 13 C 1096.82 39.8845 t 0 r /Helvetica findfont 22.8295 sf 0 0 m (1) show NC gr 
 gsave  408 306 930 13 C 1205.08 39.8845 t 0 r /Helvetica findfont 22.8295 sf 0 0 m (2) show NC gr  991 288 m 306 X s 991 284 m 4 Y s 1104 284 m 4 Y s 1216 284 m 4 Y s 1216 284 m 4 Y s 991 59 m 229 Y s 997 68 m -6 X s 994 79 m -3 X s 994 89 m -3 X s
 994 100 m -3 X s 997 110 m -6 X s 994 121 m -3 X s 994 131 m -3 X s 994 141 m -3 X s 997 152 m -6 X s 994 162 m -3 X s 994 173 m -3 X s 994 183 m -3 X s 997 194 m -6 X s 994 204 m -3 X s 994 214 m -3 X s 994 225 m -3 X s 997 235 m -6 X s 994 246 m
 -3 X s 994 256 m -3 X s 994 267 m -3 X s 997 277 m -6 X s 997 68 m -6 X s 997 277 m -6 X s 994 288 m -3 X s
 gsave  408 306 930 13 C 937.285 62.6756 t 0 r /Helvetica findfont 22.8295 sf 0 0 m (\2550.06) show NC gr 
 gsave  408 306 930 13 C 937.285 102.56 t 0 r /Helvetica findfont 22.8295 sf 0 0 m (\2550.04) show NC gr 
 gsave  408 306 930 13 C 937.285 145.293 t 0 r /Helvetica findfont 22.8295 sf 0 0 m (\2550.02) show NC gr 
 gsave  408 306 930 13 C 974.32 185.178 t 0 r /Helvetica findfont 22.8295 sf 0 0 m (0) show NC gr 
 gsave  408 306 930 13 C 942.983 227.911 t 0 r /Helvetica findfont 22.8295 sf 0 0 m (0.02) show NC gr 
 gsave  408 306 930 13 C 942.983 270.645 t 0 r /Helvetica findfont 22.8295 sf 0 0 m (0.04) show NC gr  1297 59 m 229 Y s 1292 68 m 5 X s 1294 79 m 3 X s 1294 89 m 3 X s 1294 100 m 3 X s 1292 110 m 5 X s 1294 121 m 3 X s 1294 131 m 3 X s 1294 141 m 3
 X s 1292 152 m 5 X s 1294 162 m 3 X s 1294 173 m 3 X s 1294 183 m 3 X s 1292 194 m 5 X s 1294 204 m 3 X s 1294 214 m 3 X s 1294 225 m 3 X s 1292 235 m 5 X s 1294 246 m 3 X s 1294 256 m 3 X s 1294 267 m 3 X s 1292 277 m 5 X s 1292 68 m 5 X s 1292 277
 m 5 X s 1294 288 m 3 X s 1047 212 1104 174 1216 169 1272 133 4 { m21} R 1047 223 m 46 Y s 1042 269 m 11 X s 1047 200 m -45 Y s 1042 155 m 11 X s 1104 186 m 44 Y s 1098 230 m 11 X s 1104 163 m -45 Y s 1098 118 m 11 X s 1216 180 m 44 Y s 1210 224 m 12
 X s 1216 157 m -44 Y s 1210 113 m 12 X s 1272 144 m 44 Y s 1267 188 m 11 X s 1272 122 m -44 Y s 1267 78 m 11 X s 1 0 0 c 9 lw 0.95 0.95 0.95 c black 1 0 0 c 993 194 m 9 X 3 -1 d 24 X 3 -1 d 13 X 3 -1 d 9 X 3 -1 d 6 X 3 -1 d 6 X 3 -1 d 6 X 3 -1 d 3 X
 4 -1 d 3 X 3 -1 d 3 X 3 -1 d 3 X 3 -1 d 3 X 3 -1 d 3 X 3 -1 d 3 X 3 -1 d 3 X 3 -1 d 3 -1 d 4 X s 1143 178 m 3 -1 d 3 -1 d 3 X 3 -1 d 3 -1 d 3 X 3 -1 d 3 -1 d 3 -1 d 3 X 3 -1 d 3 -1 d 3 -1 d 3 -1 d 3 -1 d 4 X 3 -1 d 3 -1 d 3 -1 d 3 -1 d 3 -1 d 3 -1 d
 3 -1 d 3 -1 d 3 -1 d 3 -1 d 3 -1 d 3 -1 d 3 -1 d 3 -1 d 3 -1 d 3 -1 d 4 -1 d 3 -1 d 3 -1 d 3 -1 d 3 -1 d 3 -1 d 3 -1 d 3 -2 d 3 -1 d 3 -1 d 3 -1 d 3 -1 d 3 -2 d 3 -1 d 3 -1 d 3 -1 d 4 -2 d s 1293 130 m 3 -1 d s 0.49 0.6 0.82 c black 0.49 0.6 0.82 c
 gsave  408 306 930 13 C 1051.24 296.285 t 0 r /Helvetica-Bold findfont 25.6831 sf 0 0 m (8.5 < E < 9.0 GeV) show NC gr  0.52 0.76 0.64 c black 0.52 0.76 0.64 c
 gsave  408 306 930 13 C 1031.3 259.249 t 0 r /Helvetica-Bold findfont 25.6831 sf 0 0 m 
 228 214 200 193 178 171 156 149 133 126 119 105 91 77 69 55 47 39 25 17
(A = \2550.004, p = 2.000) K NC gr  1 0.6 1 c black 1 0.6 1 c
 gsave  408 306 930 13 C 1336.13 128.2 t 90 r /Helvetica-Bold findfont 28.5368 sf 0 0 m (/dof=0.1) show NC gr  black 1 0.6 1 c
 gsave  408 306 930 13 C 1324.73 116.804 t 90 r /Helvetica-Bold findfont 19.9758 sf 0 0 m (2) show NC gr  black 1 0.6 1 c
 gsave  408 306 930 13 C 1336.13 99.7112 t 90 r /Symbol findfont 28.5368 sf 0 0 m (c) show NC gr  black 3 lw 1 1 1 c 408 306 1383 13 bf black 1 1 1 c black 306 229 1445 59 bl 306 229 1445 59 bl 1445 59 m 306 X s 1445 63 m -4 Y s 1557 63 m -4 Y s 1670
 63 m -4 Y s 1670 63 m -4 Y s
 gsave  408 306 1383 13 C 1435.84 39.8845 t 0 r /Helvetica findfont 22.8295 sf 0 0 m (0) show NC gr 
 gsave  408 306 1383 13 C 1549.8 39.8845 t 0 r /Helvetica findfont 22.8295 sf 0 0 m (1) show NC gr 
 gsave  408 306 1383 13 C 1660.9 39.8845 t 0 r /Helvetica findfont 22.8295 sf 0 0 m (2) show NC gr  1445 288 m 306 X s 1445 284 m 4 Y s 1557 284 m 4 Y s 1670 284 m 4 Y s 1670 284 m 4 Y s 1445 59 m 229 Y s 1450 83 m -5 X s 1447 90 m -2 X s 1447 97 m
 -2 X s 1447 104 m -2 X s 1450 111 m -5 X s 1447 118 m -2 X s 1447 125 m -2 X s 1447 132 m -2 X s 1450 139 m -5 X s 1447 146 m -2 X s 1447 153 m -2 X s 1447 160 m -2 X s 1450 167 m -5 X s 1447 174 m -2 X s 1447 181 m -2 X s 1447 188 m -2 X s 1450 194
 m -5 X s 1447 201 m -2 X s 1447 208 m -2 X s 1447 215 m -2 X s 1450 222 m -5 X s 1447 229 m -2 X s 1447 236 m -2 X s 1447 243 m -2 X s 1450 250 m -5 X s 1447 257 m -2 X s 1447 264 m -2 X s 1447 271 m -2 X s 1450 278 m -5 X s 1450 83 m -5 X s 1447 77
 m -2 X s 1447 70 m -2 X s 1447 63 m -2 X s 1450 278 m -5 X s 1447 285 m -2 X s
 gsave  408 306 1383 13 C 1390.26 76.92 t 0 r /Helvetica findfont 22.8295 sf 0 0 m (\2550.06) show NC gr 
 gsave  408 306 1383 13 C 1390.26 105.409 t 0 r /Helvetica findfont 22.8295 sf 0 0 m (\2550.04) show NC gr 
 gsave  408 306 1383 13 C 1390.26 131.049 t 0 r /Helvetica findfont 22.8295 sf 0 0 m (\2550.02) show NC gr 
 gsave  408 306 1383 13 C 1427.29 159.538 t 0 r /Helvetica findfont 22.8295 sf 0 0 m (0) show NC gr 
 gsave  408 306 1383 13 C 1395.96 188.027 t 0 r /Helvetica findfont 22.8295 sf 0 0 m (0.02) show NC gr 
 gsave  408 306 1383 13 C 1395.96 213.667 t 0 r /Helvetica findfont 22.8295 sf 0 0 m (0.04) show NC gr 
 gsave  408 306 1383 13 C 1395.96 242.156 t 0 r /Helvetica findfont 22.8295 sf 0 0 m (0.06) show NC gr 
 gsave  408 306 1383 13 C 1395.96 270.645 t 0 r /Helvetica findfont 22.8295 sf 0 0 m (0.08) show NC gr  1751 59 m 229 Y s 1745 83 m 6 X s 1748 90 m 3 X s 1748 97 m 3 X s 1748 104 m 3 X s 1745 111 m 6 X s 1748 118 m 3 X s 1748 125 m 3 X s 1748 132 m 3
 X s 1745 139 m 6 X s 1748 146 m 3 X s 1748 153 m 3 X s 1748 160 m 3 X s 1745 167 m 6 X s 1748 174 m 3 X s 1748 181 m 3 X s 1748 188 m 3 X s 1745 194 m 6 X s 1748 201 m 3 X s 1748 208 m 3 X s 1748 215 m 3 X s 1745 222 m 6 X s 1748 229 m 3 X s 1748
 236 m 3 X s 1748 243 m 3 X s 1745 250 m 6 X s 1748 257 m 3 X s 1748 264 m 3 X s 1748 271 m 3 X s 1745 278 m 6 X s 1745 83 m 6 X s 1748 77 m 3 X s 1748 70 m 3 X s 1748 63 m 3 X s 1745 278 m 6 X s 1748 285 m 3 X s 1501 203 1557 227 1670 117 1726 203 4
 { m21} R 1501 214 m 31 Y s 1495 245 m 12 X s 1501 192 m -30 Y s 1495 162 m 12 X s 1557 239 m 30 Y s 1551 269 m 12 X s 1557 216 m -31 Y s 1551 185 m 12 X s 1670 128 m 28 Y s 1664 156 m 11 X s 1670 105 m -27 Y s 1664 78 m 11 X s 1726 214 m 30 Y s 1720
 244 m 12 X s 1726 191 m -29 Y s 1720 162 m 12 X s 9 lw 0.95 0.95 0.95 c black 1446 167 m 15 X 3 1 d 25 X 3 1 d 21 X 3 1 d 22 X 3 1 d 21 X 3 1 d 22 X 3 1 d 6 X s 1596 173 m 15 X 3 1 d 25 X 3 1 d 21 X 3 1 d 22 X 3 1 d 21 X 3 1 d 22 X 3 1 d 6 X s 1746
 179 m 3 X s 0.49 0.6 0.82 c black 0.49 0.6 0.82 c
 gsave  408 306 1383 13 C 1504.21 296.285 t 0 r /Helvetica-Bold findfont 25.6831 sf 0 0 m (9.0 < E < 9.5 GeV) show NC gr  0.52 0.76 0.64 c black 0.52 0.76 0.64 c
 gsave  408 306 1383 13 C 1489.97 259.249 t 0 r /Helvetica-Bold findfont 25.6831 sf 0 0 m 
 220 206 192 185 170 163 148 141 126 118 111 97 83 69 61 47 40 25 18
(A = 0.003, p = 1.000) K NC gr  1 0.6 1 c black 1 0.6 1 c
 gsave  408 306 1383 13 C 1789.1 128.2 t 90 r /Helvetica-Bold findfont 28.5368 sf 0 0 m (/dof=1.7) show NC gr  black 1 0.6 1 c
 gsave  408 306 1383 13 C 1777.71 116.804 t 90 r /Helvetica-Bold findfont 19.9758 sf 0 0 m (2) show NC gr  black 1 0.6 1 c
 gsave  408 306 1383 13 C 1789.1 99.7112 t 90 r /Symbol findfont 28.5368 sf 0 0 m (c) show NC gr  black 3 lw 1 1 1 c 408 306 1837 13 bf black 1 1 1 c black 306 229 1898 59 bl 306 229 1898 59 bl 1898 59 m 306 X s 1898 63 m -4 Y s 2011 63 m -4 Y s 2123
 63 m -4 Y s 2123 63 m -4 Y s
 gsave  408 306 1837 13 C 1888.81 39.8845 t 0 r /Helvetica findfont 22.8295 sf 0 0 m (0) show NC gr 
 gsave  408 306 1837 13 C 2002.77 39.8845 t 0 r /Helvetica findfont 22.8295 sf 0 0 m (1) show NC gr 
 gsave  408 306 1837 13 C 2113.88 39.8845 t 0 r /Helvetica findfont 22.8295 sf 0 0 m (2) show NC gr  1898 288 m 306 X s 1898 284 m 4 Y s 2011 284 m 4 Y s 2123 284 m 4 Y s 2123 284 m 4 Y s 1898 59 m 229 Y s 1904 75 m -6 X s 1901 82 m -3 X s 1901 90 m
 -3 X s 1901 97 m -3 X s 1904 104 m -6 X s 1901 112 m -3 X s 1901 119 m -3 X s 1901 126 m -3 X s 1904 134 m -6 X s 1901 141 m -3 X s 1901 149 m -3 X s 1901 156 m -3 X s 1904 163 m -6 X s 1901 171 m -3 X s 1901 178 m -3 X s 1901 185 m -3 X s 1904 193
 m -6 X s 1901 200 m -3 X s 1901 207 m -3 X s 1901 215 m -3 X s 1904 222 m -6 X s 1901 229 m -3 X s 1901 237 m -3 X s 1901 244 m -3 X s 1904 252 m -6 X s 1901 259 m -3 X s 1901 266 m -3 X s 1901 274 m -3 X s 1904 281 m -6 X s 1904 75 m -6 X s 1901 68
 m -3 X s 1901 60 m -3 X s 1904 281 m -6 X s
 gsave  408 306 1837 13 C 1843.23 68.3734 t 0 r /Helvetica findfont 22.8295 sf 0 0 m (\2550.06) show NC gr 
 gsave  408 306 1837 13 C 1843.23 96.8623 t 0 r /Helvetica findfont 22.8295 sf 0 0 m (\2550.04) show NC gr 
 gsave  408 306 1837 13 C 1843.23 125.351 t 0 r /Helvetica findfont 22.8295 sf 0 0 m (\2550.02) show NC gr 
 gsave  408 306 1837 13 C 1880.27 156.689 t 0 r /Helvetica findfont 22.8295 sf 0 0 m (0) show NC gr 
 gsave  408 306 1837 13 C 1848.93 185.178 t 0 r /Helvetica findfont 22.8295 sf 0 0 m (0.02) show NC gr 
 gsave  408 306 1837 13 C 1848.93 213.667 t 0 r /Helvetica findfont 22.8295 sf 0 0 m (0.04) show NC gr 
 gsave  408 306 1837 13 C 1848.93 245.005 t 0 r /Helvetica findfont 22.8295 sf 0 0 m (0.06) show NC gr 
 gsave  408 306 1837 13 C 1848.93 273.493 t 0 r /Helvetica findfont 22.8295 sf 0 0 m (0.08) show NC gr  2204 59 m 229 Y s 2199 75 m 5 X s 2201 82 m 3 X s 2201 90 m 3 X s 2201 97 m 3 X s 2199 104 m 5 X s 2201 112 m 3 X s 2201 119 m 3 X s 2201 126 m 3
 X s 2199 134 m 5 X s 2201 141 m 3 X s 2201 149 m 3 X s 2201 156 m 3 X s 2199 163 m 5 X s 2201 171 m 3 X s 2201 178 m 3 X s 2201 185 m 3 X s 2199 193 m 5 X s 2201 200 m 3 X s 2201 207 m 3 X s 2201 215 m 3 X s 2199 222 m 5 X s 2201 229 m 3 X s 2201
 237 m 3 X s 2201 244 m 3 X s 2199 252 m 5 X s 2201 259 m 3 X s 2201 266 m 3 X s 2201 274 m 3 X s 2199 281 m 5 X s 2199 75 m 5 X s 2201 68 m 3 X s 2201 60 m 3 X s 2199 281 m 5 X s 1954 180 2011 122 2123 179 2179 223 4 { m21} R 1954 191 m 34 Y s 1949
 225 m 11 X s 1954 169 m -34 Y s 1949 135 m 11 X s 2011 133 m 33 Y s 2005 166 m 11 X s 2011 111 m -33 Y s 2005 78 m 11 X s 2123 191 m 34 Y s 2117 225 m 12 X s 2123 168 m -34 Y s 2117 134 m 12 X s 2179 234 m 35 Y s 2174 269 m 11 X s 2179 211 m -35 Y s
 2174 176 m 11 X s 1 0 0 c 9 lw 0.95 0.95 0.95 c black 1 0 0 c 1900 163 m 18 X 3 1 d 25 X 3 1 d 12 X 3 1 d 9 X 3 1 d 9 X 3 1 d 7 X 3 1 d 6 X 3 1 d 6 X 3 1 d 3 X 3 1 d 3 X 3 1 d 6 X 3 1 d 3 X 3 1 d 4 X 3 1 d s 2050 176 m 3 X 3 1 d 3 X 3 1 d 3 1 d 3 X
 3 1 d 3 X 3 1 d 3 X 3 1 d 3 1 d 3 X 3 1 d 4 1 d 3 X 3 1 d 3 1 d 3 X 3 1 d 3 1 d 3 1 d 3 X 3 1 d 3 1 d 3 1 d 3 X 3 1 d 3 1 d 3 1 d 4 1 d 3 X 3 1 d 3 1 d 3 1 d 3 1 d 3 1 d 3 1 d 3 1 d 3 X 3 1 d 3 1 d 3 1 d 3 1 d 3 1 d 3 1 d 4 1 d 3 1 d 3 1 d s 2200
 213 m 3 1 d s 0.49 0.6 0.82 c black 0.49 0.6 0.82 c
 gsave  408 306 1837 13 C 1948.64 296.285 t 0 r /Helvetica-Bold findfont 25.6831 sf 0 0 m (9.5 < E < 10.0 GeV) show NC gr  0.52 0.76 0.64 c black 0.52 0.76 0.64 c
 gsave  408 306 1837 13 C 1942.94 259.249 t 0 r /Helvetica-Bold findfont 25.6831 sf 0 0 m 
 220 206 192 185 170 163 148 141 125 118 111 97 83 69 61 47 40 25 18
(A = 0.005, p = 2.000) K NC gr  1 0.6 1 c black 1 0.6 1 c
 gsave  408 306 1837 13 C 2242.08 128.2 t 90 r /Helvetica-Bold findfont 28.5368 sf 0 0 m (/dof=0.5) show NC gr  black 1 0.6 1 c
 gsave  408 306 1837 13 C 2230.68 116.804 t 90 r /Helvetica-Bold findfont 19.9758 sf 0 0 m (2) show NC gr  black 1 0.6 1 c
 gsave  408 306 1837 13 C 2242.08 99.7112 t 90 r /Symbol findfont 28.5368 sf 0 0 m (c) show NC gr 
 gr  gr showpage
end
%%EOF
