%!PS-Adobe-2.0 EPSF-2.0
%%BoundingBox:  0 0 567 332
%%Title: Horn1YTilt_far_summary.eps: Summary
%%Creator: ROOT Version 5.30/06
%%CreationDate: Sun Feb  2 09:35:01 2014
%%EndComments
%%BeginProlog
80 dict begin
/s {stroke} def /l {lineto} def /m {moveto} def /t {translate} def
/r {rotate} def /rl {roll}  def /R {repeat} def
/d {rlineto} def /rm {rmoveto} def /gr {grestore} def /f {eofill} def
/c {setrgbcolor} def /black {0 setgray} def /sd {setdash} def
/cl {closepath} def /sf {scalefont setfont} def /lw {setlinewidth} def
/box {m dup 0 exch d exch 0 d 0 exch neg d cl} def
/NC{systemdict begin initclip end}def/C{NC box clip newpath}def
/bl {box s} def /bf {box f} def /Y { 0 exch d} def /X { 0 d} def 
/K {{pop pop 0 moveto} exch kshow} bind def
/ita {/ang 15 def gsave [1 0 ang dup sin exch cos div 1 0 0] concat} def 
/mp {newpath /y exch def /x exch def} def
/side {[w .77 mul w .23 mul] .385 w mul sd w 0 l currentpoint t -144 r} def
/mr {mp x y w2 0 360 arc} def /m24 {mr s} def /m20 {mr f} def
/mb {mp x y w2 add m w2 neg 0 d 0 w neg d w 0 d 0 w d cl} def
/mt {mp x y w2 add m w2 neg w neg d w 0 d cl} def
/m21 {mb f} def /m25 {mb s} def /m22 {mt f} def /m26{mt s} def
/m23 {mp x y w2 sub m w2 w d w neg 0 d cl f} def
/m27 {mp x y w2 add m w3 neg w2 neg d w3 w2 neg d w3 w2 d cl s} def
/m28 {mp x w2 sub y w2 sub w3 add m w3 0 d  0 w3 neg d w3 0 d 0 w3 d w3 0 d  0 w3 d w3 neg 0 d 0 w3 d w3 neg 0 d 0 w3 neg d w3 neg 0 d cl s } def
/m29 {mp gsave x w2 sub y w2 add w3 sub m currentpoint t 4 {side} repeat cl fill gr} def
/m30 {mp gsave x w2 sub y w2 add w3 sub m currentpoint t 4 {side} repeat cl s gr} def
/m31 {mp x y w2 sub m 0 w d x w2 sub y m w 0 d x w2 sub y w2 add m w w neg d x w2 sub y w2 sub m w w d s} def
/m32 {mp x y w2 sub m w2 w d w neg 0 d cl s} def
/m33 {mp x y w2 add m w3 neg w2 neg d w3 w2 neg d w3 w2 d cl f} def
/m34 {mp x w2 sub y w2 sub w3 add m w3 0 d  0 w3 neg d w3 0 d 0 w3 d w3 0 d  0 w3 d w3 neg 0 d 0 w3 d w3 neg 0 d 0 w3 neg d w3 neg 0 d cl f } def
/m2 {mp x y w2 sub m 0 w d x w2 sub y m w 0 d s} def
/m5 {mp x w2 sub y w2 sub m w w d x w2 sub y w2 add m w w neg d s} def
/reEncode {exch findfont dup length dict begin {1 index /FID eq  {pop pop} {def} ifelse } forall /Encoding exch def currentdict end dup /FontName get exch definefont pop } def [/Times-Bold /Times-Italic /Times-BoldItalic /Helvetica /Helvetica-Oblique
 /Helvetica-Bold /Helvetica-BoldOblique /Courier /Courier-Oblique /Courier-Bold /Courier-BoldOblique /Times-Roman /AvantGarde-Book /AvantGarde-BookOblique /AvantGarde-Demi /AvantGarde-DemiOblique /Bookman-Demi /Bookman-DemiItalic /Bookman-Light
 /Bookman-LightItalic /Helvetica-Narrow /Helvetica-Narrow-Bold /Helvetica-Narrow-BoldOblique /Helvetica-Narrow-Oblique /NewCenturySchlbk-Roman /NewCenturySchlbk-Bold /NewCenturySchlbk-BoldItalic /NewCenturySchlbk-Italic /Palatino-Bold
 /Palatino-BoldItalic /Palatino-Italic /Palatino-Roman ] {ISOLatin1Encoding reEncode } forall%%EndProlog
%%BeginSetup
%%EndSetup
newpath  gsave  .25 .25 scale  gsave  0 0 t black[  ] 0 sd 3 lw 1 1 1 c 2268 1328 0 0 bf black 1 1 1 c black 1588 996 340 199 bl 1588 996 340 199 bl 1 1 1 c 1 0 0 c /w 23 def /w2 {w 2 div} def /w3 {w 3 div} def 380 307 m21 459 312 m21 539 307 m21 618
 304 m21 697 308 m21 777 316 m21 856 303 m21 935 304 m21 1015 321 m21 black 1094 302 m 1 Y s 1094 325 m s 1088 302 m 12 X s 1088 325 m 12 X s 1 0 0 c 1094 314 m21 black 1174 301 m 3 Y s 1174 327 m 3 Y s 1168 301 m 11 X s 1168 330 m 11 X s 1 0 0 c
 1174 316 m21 black 1253 269 m 7 Y s 1253 299 m 7 Y s 1247 269 m 12 X s 1247 306 m 12 X s 1 0 0 c 1253 288 m21 black 1332 289 m 11 Y s 1332 323 m 11 Y s 1327 289 m 11 X s 1327 334 m 11 X s 1 0 0 c 1332 312 m21 black 1412 237 m 15 Y s 1412 275 m 15 Y
 s 1406 237 m 11 X s 1406 290 m 11 X s 1 0 0 c 1412 263 m21 black 1491 305 m 19 Y s 1491 347 m 19 Y s 1485 305 m 12 X s 1485 366 m 12 X s 1 0 0 c 1491 336 m21 black 1570 309 m 22 Y s 1570 354 m 22 Y s 1565 309 m 11 X s 1565 376 m 11 X s 1 0 0 c 1570
 343 m21 black 1650 199 m 16 Y s 1650 238 m 23 Y s 1644 199 m 11 X s 1644 261 m 11 X s 1 0 0 c 1650 226 m21 black 1729 359 m 28 Y s 1729 410 m 28 Y s 1723 359 m 12 X s 1723 438 m 12 X s 1 0 0 c 1729 399 m21 black 1809 321 m 30 Y s 1809 374 m 31 Y s
 1803 321 m 11 X s 1803 405 m 11 X s 1 0 0 c 1809 363 m21 black 1888 199 m 16 Y s 1888 237 m 32 Y s 1882 199 m 12 X s 1882 269 m 12 X s 1 0 0 c 1888 226 m21 black 340 199 m 1588 X s
 gsave  2268 1328 0 0 C 954.378 68.3734 t 0 r /Helvetica findfont 62.6756 sf 0 0 m ( Energy \(GeV\) ) show NC gr 
 gsave  2268 1328 0 0 C 928.738 51.28 t 0 r /Symbol findfont 42.7334 sf 0 0 m (m) show NC gr 
 gsave  2268 1328 0 0 C 894.552 68.3734 t 0 r /Symbol findfont 62.6756 sf 0 0 m (n) show NC gr  340 216 m -17 Y s 372 208 m -9 Y s 404 208 m -9 Y s 435 208 m -9 Y s 467 208 m -9 Y s 499 216 m -17 Y s 531 208 m -9 Y s 562 208 m -9 Y s 594 208 m -9 Y s
 626 208 m -9 Y s 658 216 m -17 Y s 689 208 m -9 Y s 721 208 m -9 Y s 753 208 m -9 Y s 785 208 m -9 Y s 816 216 m -17 Y s 848 208 m -9 Y s 880 208 m -9 Y s 912 208 m -9 Y s 943 208 m -9 Y s 975 216 m -17 Y s 1007 208 m -9 Y s 1039 208 m -9 Y s 1070
 208 m -9 Y s 1102 208 m -9 Y s 1134 216 m -17 Y s 1166 208 m -9 Y s 1197 208 m -9 Y s 1229 208 m -9 Y s 1261 208 m -9 Y s 1293 216 m -17 Y s 1324 208 m -9 Y s 1356 208 m -9 Y s 1388 208 m -9 Y s 1420 208 m -9 Y s 1451 216 m -17 Y s 1483 208 m -9 Y s
 1515 208 m -9 Y s 1547 208 m -9 Y s 1578 208 m -9 Y s 1610 216 m -17 Y s 1642 208 m -9 Y s 1674 208 m -9 Y s 1705 208 m -9 Y s 1737 208 m -9 Y s 1769 216 m -17 Y s 1801 208 m -9 Y s 1832 208 m -9 Y s 1864 208 m -9 Y s 1896 208 m -9 Y s 1928 216 m
 -17 Y s
 gsave  2268 1328 0 0 C 319.076 136.747 t 0 r /Helvetica findfont 68.3734 sf 0 0 m (0) show NC gr 
 gsave  2268 1328 0 0 C 484.311 136.747 t 0 r /Helvetica findfont 68.3734 sf 0 0 m (1) show NC gr 
 gsave  2268 1328 0 0 C 635.302 136.747 t 0 r /Helvetica findfont 68.3734 sf 0 0 m (2) show NC gr 
 gsave  2268 1328 0 0 C 794.84 136.747 t 0 r /Helvetica findfont 68.3734 sf 0 0 m (3) show NC gr 
 gsave  2268 1328 0 0 C 954.378 136.747 t 0 r /Helvetica findfont 68.3734 sf 0 0 m (4) show NC gr 
 gsave  2268 1328 0 0 C 1113.92 136.747 t 0 r /Helvetica findfont 68.3734 sf 0 0 m (5) show NC gr 
 gsave  2268 1328 0 0 C 1270.6 136.747 t 0 r /Helvetica findfont 68.3734 sf 0 0 m (6) show NC gr 
 gsave  2268 1328 0 0 C 1430.14 136.747 t 0 r /Helvetica findfont 68.3734 sf 0 0 m (7) show NC gr 
 gsave  2268 1328 0 0 C 1589.68 136.747 t 0 r /Helvetica findfont 68.3734 sf 0 0 m (8) show NC gr 
 gsave  2268 1328 0 0 C 1746.37 136.747 t 0 r /Helvetica findfont 68.3734 sf 0 0 m (9) show NC gr 
 gsave  2268 1328 0 0 C 1888.81 136.747 t 0 r /Helvetica findfont 68.3734 sf 0 0 m (10) show NC gr  340 1195 m 1588 X s 340 1178 m 17 Y s 372 1186 m 9 Y s 404 1186 m 9 Y s 435 1186 m 9 Y s 467 1186 m 9 Y s 499 1178 m 17 Y s 531 1186 m 9 Y s 562 1186
 m 9 Y s 594 1186 m 9 Y s 626 1186 m 9 Y s 658 1178 m 17 Y s 689 1186 m 9 Y s 721 1186 m 9 Y s 753 1186 m 9 Y s 785 1186 m 9 Y s 816 1178 m 17 Y s 848 1186 m 9 Y s 880 1186 m 9 Y s 912 1186 m 9 Y s 943 1186 m 9 Y s 975 1178 m 17 Y s 1007 1186 m 9 Y s
 1039 1186 m 9 Y s 1070 1186 m 9 Y s 1102 1186 m 9 Y s 1134 1178 m 17 Y s 1166 1186 m 9 Y s 1197 1186 m 9 Y s 1229 1186 m 9 Y s 1261 1186 m 9 Y s 1293 1178 m 17 Y s 1324 1186 m 9 Y s 1356 1186 m 9 Y s 1388 1186 m 9 Y s 1420 1186 m 9 Y s 1451 1178 m
 17 Y s 1483 1186 m 9 Y s 1515 1186 m 9 Y s 1547 1186 m 9 Y s 1578 1186 m 9 Y s 1610 1178 m 17 Y s 1642 1186 m 9 Y s 1674 1186 m 9 Y s 1705 1186 m 9 Y s 1737 1186 m 9 Y s 1769 1178 m 17 Y s 1801 1186 m 9 Y s 1832 1186 m 9 Y s 1864 1186 m 9 Y s 1896
 1186 m 9 Y s 1928 1178 m 17 Y s 340 199 m 996 Y s
 gsave  2268 1328 0 0 C 170.933 427.334 t 90 r /Helvetica findfont 62.6756 sf 0 0 m (Far Flux to Nominal) show NC gr  371 199 m -31 X s 355 221 m -15 X s 355 243 m -15 X s 355 266 m -15 X s 355 288 m -15 X s 371 310 m -31 X s 355 332 m -15 X s 355
 354 m -15 X s 355 376 m -15 X s 355 398 m -15 X s 371 420 m -31 X s 355 443 m -15 X s 355 465 m -15 X s 355 487 m -15 X s 355 509 m -15 X s 371 531 m -31 X s 355 553 m -15 X s 355 575 m -15 X s 355 597 m -15 X s 355 620 m -15 X s 371 642 m -31 X s
 355 664 m -15 X s 355 686 m -15 X s 355 708 m -15 X s 355 730 m -15 X s 371 752 m -31 X s 355 774 m -15 X s 355 797 m -15 X s 355 819 m -15 X s 355 841 m -15 X s 371 863 m -31 X s 355 885 m -15 X s 355 907 m -15 X s 355 929 m -15 X s 355 951 m -15 X
 s 371 974 m -31 X s 355 996 m -15 X s 355 1018 m -15 X s 355 1040 m -15 X s 355 1062 m -15 X s 371 1084 m -31 X s 355 1106 m -15 X s 355 1128 m -15 X s 355 1151 m -15 X s 355 1173 m -15 X s 371 1195 m -31 X s 371 199 m -31 X s 371 1195 m -31 X s
 gsave  2268 1328 0 0 C 196.573 173.782 t 0 r /Helvetica findfont 68.3734 sf 0 0 m (0.95) show NC gr 
 gsave  2268 1328 0 0 C 301.982 282.04 t 0 r /Helvetica findfont 68.3734 sf 0 0 m (1) show NC gr 
 gsave  2268 1328 0 0 C 196.573 395.996 t 0 r /Helvetica findfont 68.3734 sf 0 0 m (1.05) show NC gr 
 gsave  2268 1328 0 0 C 245.005 504.254 t 0 r /Helvetica findfont 68.3734 sf 0 0 m (1.1) show NC gr 
 gsave  2268 1328 0 0 C 196.573 618.209 t 0 r /Helvetica findfont 68.3734 sf 0 0 m (1.15) show NC gr 
 gsave  2268 1328 0 0 C 233.609 726.467 t 0 r /Helvetica findfont 68.3734 sf 0 0 m (1.2) show NC gr 
 gsave  2268 1328 0 0 C 196.573 837.574 t 0 r /Helvetica findfont 68.3734 sf 0 0 m (1.25) show NC gr 
 gsave  2268 1328 0 0 C 233.609 948.68 t 0 r /Helvetica findfont 68.3734 sf 0 0 m (1.3) show NC gr 
 gsave  2268 1328 0 0 C 196.573 1059.79 t 0 r /Helvetica findfont 68.3734 sf 0 0 m (1.35) show NC gr 
 gsave  2268 1328 0 0 C 233.609 1168.04 t 0 r /Helvetica findfont 68.3734 sf 0 0 m (1.4) show NC gr  1928 199 m 996 Y s 1897 199 m 31 X s 1912 221 m 16 X s 1912 243 m 16 X s 1912 266 m 16 X s 1912 288 m 16 X s 1897 310 m 31 X s 1912 332 m 16 X s 1912
 354 m 16 X s 1912 376 m 16 X s 1912 398 m 16 X s 1897 420 m 31 X s 1912 443 m 16 X s 1912 465 m 16 X s 1912 487 m 16 X s 1912 509 m 16 X s 1897 531 m 31 X s 1912 553 m 16 X s 1912 575 m 16 X s 1912 597 m 16 X s 1912 620 m 16 X s 1897 642 m 31 X s
 1912 664 m 16 X s 1912 686 m 16 X s 1912 708 m 16 X s 1912 730 m 16 X s 1897 752 m 31 X s 1912 774 m 16 X s 1912 797 m 16 X s 1912 819 m 16 X s 1912 841 m 16 X s 1897 863 m 31 X s 1912 885 m 16 X s 1912 907 m 16 X s 1912 929 m 16 X s 1912 951 m 16 X
 s 1897 974 m 31 X s 1912 996 m 16 X s 1912 1018 m 16 X s 1912 1040 m 16 X s 1912 1062 m 16 X s 1897 1084 m 31 X s 1912 1106 m 16 X s 1912 1128 m 16 X s 1912 1151 m 16 X s 1912 1173 m 16 X s 1897 1195 m 31 X s 1897 199 m 31 X s 1897 1195 m 31 X s 1 0
 0 c 6 lw 1 1 1 c 1 0 0 c 380 309 m 10 1 d 108 X 17 -1 d 69 X 17 1 d 77 X 19 -1 d 179 X 33 -1 d 56 X 10 1 d 40 X 5 1 d 23 X 19 1 d 8 1 d 121 X 10 -1 d 13 X 37 -1 d 12 X 21 -1 d 33 X 7 -1 d 82 X 6 1 d 42 X 11 1 d 112 X 3 -1 d 9 X 4 -1 d 4 X 4 -1 d 15
 -2 d 3 X 4 -1 d 11 X 3 -1 d 27 X 2 1 d 9 X 3 1 d 3 X 5 1 d 11 1 d 4 1 d 4 X 3 1 d 9 X 3 1 d 49 X 22 -1 d 76 X 11 1 d 10 X s 3 lw /w 2 def /w2 {w 2 div} def /w3 {w 3 div} def 380 309 459 310 539 309 618 310 697 309 777 309 856 309 935 308 1015 309
 1094 312 1174 312 1253 310 1332 308 1412 309 1491 310 1570 310 1650 303 1729 310 1809 309 1888 310 20 { m20} R 6 lw black 1 0 0 c
 gsave  2268 1328 0 0 C 2036.96 364.658 t 0 r /Helvetica-Bold findfont 48.4311 sf 0 0 m (/dof=1.4) show NC gr  black 1 0 0 c
 gsave  2268 1328 0 0 C 2017.01 381.751 t 0 r /Helvetica-Bold findfont 34.1867 sf 0 0 m (2) show NC gr  black 1 0 0 c
 gsave  2268 1328 0 0 C 1991.37 364.658 t 0 r /Symbol findfont 48.4311 sf 0 0 m (c) show NC gr  black 3 lw 340 310 m 1588 X s
 gsave  2268 1328 0 0 C 424.485 1213.63 t 0 r /Helvetica-Bold findfont 42.7334 sf 0 0 m (0.25 mm) show NC gr  1 0 0 c /w 23 def /w2 {w 2 div} def /w3 {w 3 div} def 383 1228 m21 black 1 1 1 c 0 0 1 c 380 533 m21 459 536 m21 539 525 m21 618 533 m21 697
 527 m21 777 530 m21 856 523 m21 935 528 m21 1015 526 m21 black 1094 525 m 1 Y s 1094 549 m 1 Y s 1088 525 m 12 X s 1088 550 m 12 X s 0 0 1 c 1094 538 m21 black 1174 523 m 4 Y s 1174 550 m 5 Y s 1168 523 m 11 X s 1168 555 m 11 X s 0 0 1 c 1174 539
 m21 black 1253 519 m 9 Y s 1253 551 m 9 Y s 1247 519 m 12 X s 1247 560 m 12 X s 0 0 1 c 1253 540 m21 black 1332 537 m 13 Y s 1332 573 m 14 Y s 1327 537 m 11 X s 1327 587 m 11 X s 0 0 1 c 1332 562 m21 black 1412 494 m 17 Y s 1412 534 m 18 Y s 1406
 494 m 11 X s 1406 552 m 11 X s 0 0 1 c 1412 523 m21 black 1491 470 m 22 Y s 1491 515 m 21 Y s 1485 470 m 12 X s 1485 536 m 12 X s 0 0 1 c 1491 503 m21 black 1570 416 m 24 Y s 1570 463 m 24 Y s 1565 416 m 11 X s 1565 487 m 11 X s 0 0 1 c 1570 452 m21
 black 1650 513 m 28 Y s 1650 564 m 28 Y s 1644 513 m 11 X s 1644 592 m 11 X s 0 0 1 c 1650 552 m21 black 1729 416 m 30 Y s 1729 469 m 30 Y s 1723 416 m 12 X s 1723 499 m 12 X s 0 0 1 c 1729 458 m21 black 1809 448 m 33 Y s 1809 504 m 34 Y s 1803 448
 m 11 X s 1803 538 m 11 X s 0 0 1 c 1809 493 m21 black 1888 518 m 38 Y s 1888 579 m 37 Y s 1882 518 m 12 X s 1882 616 m 12 X s 0 0 1 c 1888 567 m21 6 lw 1 1 1 c 0 0 1 c 380 530 m 10 1 d 32 X 11 1 d 41 X 65 -2 d 183 X 55 -1 d 100 X 33 -1 d 78 X 9 1 d
 16 X 2 1 d 10 X 6 1 d 7 X 8 1 d 16 2 d 7 1 d 6 X 6 1 d 13 X 6 1 d 48 X 26 -1 d 12 X 10 -1 d 13 X 15 -1 d 15 -1 d 14 X 7 -1 d 8 X 10 -1 d 23 -2 d 9 X 7 -1 d 30 X 8 -1 d 9 X 9 1 d 45 X 8 1 d 8 X 14 1 d 16 1 d 9 X 6 1 d 27 X 13 1 d 37 X 5 -1 d 12 X 4
 -1 d 3 X 3 -1 d 3 X 3 -1 d 3 -1 d 4 -1 d 4 -1 d 13 -4 d 4 -1 d 4 -1 d 3 -1 d 3 X 3 -1 d 2 X 3 -1 d 5 X 3 -1 d 12 X 3 1 d 8 X 2 1 d 3 X 3 1 d 3 1 d 3 1 d 4 1 d 5 1 d 8 3 d 4 1 d 3 1 d 4 1 d 3 1 d 2 X 3 1 d 3 X 2 1 d 12 X 3 1 d 4 X 4 -1 d 14 X 6 -1 d
 14 -1 d 8 X 6 -1 d 68 X 10 1 d 18 X s 3 lw /w 2 def /w2 {w 2 div} def /w3 {w 3 div} def 380 530 459 532 539 530 618 530 697 530 777 529 856 529 935 528 1015 530 1094 536 1174 536 1253 533 1332 528 1412 528 1491 532 1570 532 1650 516 1729 532 1809
 529 1888 530 20 { m20} R 6 lw black 0 0 1 c
 gsave  2268 1328 0 0 C 2036.96 615.36 t 0 r /Helvetica-Bold findfont 48.4311 sf 0 0 m (/dof=0.8) show NC gr  black 0 0 1 c
 gsave  2268 1328 0 0 C 2017.01 632.454 t 0 r /Helvetica-Bold findfont 34.1867 sf 0 0 m (2) show NC gr  black 0 0 1 c
 gsave  2268 1328 0 0 C 1991.37 615.36 t 0 r /Symbol findfont 48.4311 sf 0 0 m (c) show NC gr  black 3 lw 340 531 m 1588 X s
 gsave  2268 1328 0 0 C 877.458 1213.63 t 0 r /Helvetica-Bold findfont 42.7334 sf 0 0 m (0.5 mm) show NC gr  0 0 1 c /w 23 def /w2 {w 2 div} def /w3 {w 3 div} def 836 1228 m21 black 1 1 1 c 1 0 1 c 380 749 m21 459 753 m21 539 745 m21 618 750 m21 697
 747 m21 777 746 m21 856 746 m21 935 737 m21 1015 752 m21 black 1094 768 m 2 Y s 1094 793 m 3 Y s 1088 768 m 12 X s 1088 796 m 12 X s 1 0 1 c 1094 782 m21 black 1174 742 m 6 Y s 1174 771 m 6 Y s 1168 742 m 11 X s 1168 777 m 11 X s 1 0 1 c 1174 759
 m21 black 1253 722 m 11 Y s 1253 756 m 11 Y s 1247 722 m 12 X s 1247 767 m 12 X s 1 0 1 c 1253 745 m21 black 1332 687 m 15 Y s 1332 725 m 16 Y s 1327 687 m 11 X s 1327 741 m 11 X s 1 0 1 c 1332 714 m21 black 1412 734 m 20 Y s 1412 777 m 21 Y s 1406
 734 m 11 X s 1406 798 m 11 X s 1 0 1 c 1412 766 m21 black 1491 694 m 25 Y s 1491 741 m 25 Y s 1485 694 m 12 X s 1485 766 m 12 X s 1 0 1 c 1491 730 m21 black 1570 712 m 28 Y s 1570 763 m 28 Y s 1565 712 m 11 X s 1565 791 m 11 X s 1 0 1 c 1570 752 m21
 black 1650 693 m 32 Y s 1650 747 m 32 Y s 1644 693 m 11 X s 1644 779 m 11 X s 1 0 1 c 1650 736 m21 black 1729 675 m 35 Y s 1729 733 m 34 Y s 1723 675 m 12 X s 1723 767 m 12 X s 1 0 1 c 1729 721 m21 black 1809 736 m 38 Y s 1809 797 m 39 Y s 1803 736
 m 11 X s 1803 836 m 11 X s 1 0 1 c 1809 786 m21 black 1888 716 m 42 Y s 1888 780 m 42 Y s 1882 716 m 12 X s 1882 822 m 12 X s 1 0 1 c 1888 769 m21 6 lw 1 1 1 c 1 0 1 c 380 751 m 10 X 11 1 d 10 1 d 11 X 11 1 d 33 X 8 -1 d 10 X 12 -1 d 24 -1 d 10 -1 d
 9 X 10 -1 d 80 X 12 -1 d 34 -1 d 56 X 25 1 d 12 1 d 60 X 21 -1 d 19 X 14 -1 d 31 -1 d 10 -1 d 28 X 19 -1 d 25 X 7 1 d 5 X 6 1 d 6 X 5 1 d 4 1 d 5 1 d 6 2 d 7 2 d 17 5 d 7 2 d 5 1 d 5 1 d 5 1 d 3 1 d 6 X 5 1 d 17 X 58 -2 d 12 X 27 -1 d 19 X 7 -1 d 7
 X 7 -1 d 5 -1 d 5 X 6 -1 d 6 -2 d 9 -2 d 20 -4 d 6 -2 d 6 -1 d 5 X 5 -1 d 4 -1 d 8 X 7 -1 d 31 X 9 1 d 12 X 15 1 d 5 1 d 7 X 7 1 d 9 2 d 22 3 d 9 1 d 7 1 d 6 X 5 1 d 2 X 24 1 d 9 1 d 29 X 6 -1 d 4 X 5 -1 d 2 X 3 -1 d 3 -1 d 3 X 3 -1 d 3 -2 d 3 -1 d
 3 -2 d 4 -2 d 4 -2 d 15 -11 d 3 -3 d 3 -2 d 3 -1 d 3 -2 d 3 -1 d 3 -1 d 2 -1 d 3 X 2 -1 d 3 X 3 -1 d 10 X 2 1 d 3 X 2 1 d 3 X 2 1 d 3 1 d 2 2 d 3 1 d 3 2 d 3 2 d 4 3 d 11 9 d 3 3 d 3 2 d 3 2 d 3 1 d 2 2 d 3 1 d 2 1 d 3 1 d 2 X 3 1 d 3 X 2 1 d 10 X 4
 -1 d 3 X 4 -1 d 4 X 4 -1 d 5 -2 d 5 -1 d 15 -5 d 5 -1 d 5 -2 d 4 X 4 -1 d 3 -1 d 36 X 6 1 d 6 X 6 1 d s 1857 744 m 6 1 d 6 1 d 7 1 d 5 1 d 6 2 d 1 X s 3 lw /w 2 def /w2 {w 2 div} def /w3 {w 3 div} def 380 751 459 754 539 750 618 749 697 747 777 749
 856 748 935 745 1015 746 1094 764 1174 763 1253 760 1332 745 1412 746 1491 756 1570 756 1650 720 1729 758 1809 742 1888 750 20 { m20} R 6 lw black 1 0 1 c
 gsave  2268 1328 0 0 C 2036.96 863.214 t 0 r /Helvetica-Bold findfont 48.4311 sf 0 0 m (/dof=0.4) show NC gr  black 1 0 1 c
 gsave  2268 1328 0 0 C 2017.01 880.307 t 0 r /Helvetica-Bold findfont 34.1867 sf 0 0 m (2) show NC gr  black 1 0 1 c
 gsave  2268 1328 0 0 C 1991.37 863.214 t 0 r /Symbol findfont 48.4311 sf 0 0 m (c) show NC gr  black 3 lw 340 752 m 1588 X s
 gsave  2268 1328 0 0 C 1330.43 1213.63 t 0 r /Helvetica-Bold findfont 39.8845 sf 0 0 m (1 mm) show NC gr  1 0 1 c /w 23 def /w2 {w 2 div} def /w3 {w 3 div} def 1290 1228 m21 black 1 1 1 c 0 0.733333 1 c 380 970 m21 459 976 m21 539 972 m21 618 960
 m21 697 949 m21 777 966 m21 856 968 m21 935 963 m21 1015 944 m21 black 1094 974 m 4 Y s 1094 1001 m 3 Y s 1088 974 m 12 X s 1088 1004 m 12 X s 0 0.733333 1 c 1094 989 m21 black 1174 978 m 7 Y s 1174 1008 m 8 Y s 1168 978 m 11 X s 1168 1016 m 11 X s
 0 0.733333 1 c 1174 997 m21 black 1253 987 m 13 Y s 1253 1023 m 13 Y s 1247 987 m 12 X s 1247 1036 m 12 X s 0 0.733333 1 c 1253 1012 m21 black 1332 936 m 18 Y s 1332 977 m 17 Y s 1327 936 m 11 X s 1327 994 m 11 X s 0 0.733333 1 c 1332 965 m21 black
 1412 925 m 23 Y s 1412 970 m 23 Y s 1406 925 m 11 X s 1406 993 m 11 X s 0 0.733333 1 c 1412 959 m21 black 1491 959 m 28 Y s 1491 1010 m 28 Y s 1485 959 m 12 X s 1485 1038 m 12 X s 0 0.733333 1 c 1491 998 m21 black 1570 952 m 32 Y s 1570 1006 m 32 Y
 s 1565 952 m 11 X s 1565 1038 m 11 X s 0 0.733333 1 c 1570 995 m21 black 1650 853 m 34 Y s 1650 910 m 34 Y s 1644 853 m 11 X s 1644 944 m 11 X s 0 0.733333 1 c 1650 898 m21 black 1729 961 m 39 Y s 1729 1023 m 39 Y s 1723 961 m 12 X s 1723 1062 m 12
 X s 0 0.733333 1 c 1729 1011 m21 black 1809 866 m 42 Y s 1809 931 m 41 Y s 1803 866 m 11 X s 1803 972 m 11 X s 0 0.733333 1 c 1809 919 m21 black 1888 900 m 46 Y s 1888 968 m 46 Y s 1882 900 m 12 X s 1882 1014 m 12 X s 0 0.733333 1 c 1888 957 m21 6
 lw 1 1 1 c 0 0.733333 1 c 380 970 m 12 2 d 10 2 d 11 1 d 11 1 d 12 1 d 31 X 9 -1 d 11 -1 d 52 -7 d 24 -3 d 36 -3 d 19 -2 d 8 -1 d 11 -2 d 29 -5 d 8 -2 d 8 -1 d 21 X 5 1 d 7 1 d 7 2 d 8 2 d 22 6 d 8 2 d 6 1 d 6 1 d 5 1 d 8 1 d 32 X 39 -3 d 21 -1 d 20
 -1 d 17 -2 d 18 -2 d 3 X 6 -1 d 7 -1 d 8 -3 d 23 -6 d 7 -1 d 5 -1 d 5 -1 d 10 X 4 1 d 5 X 3 1 d 4 2 d 4 1 d 4 3 d 4 2 d 4 3 d 5 4 d 6 6 d 15 13 d 5 5 d 5 4 d 4 3 d 4 2 d 4 2 d 3 2 d 4 1 d 1 X 5 1 d 4 1 d 5 1 d 11 X 7 -1 d 7 -1 d 23 -3 d 6 X 5 -1 d 7
 X 5 1 d 6 1 d 7 1 d 9 2 d 16 4 d 7 2 d 7 1 d 5 X 5 1 d 4 -1 d 4 X 4 -1 d 4 -1 d 4 -1 d 4 -2 d 4 -2 d 4 -3 d 5 -3 d 6 -5 d 14 -11 d 8 -6 d 6 -4 d 4 -3 d 4 -3 d 4 -2 d 4 -1 d 3 -1 d 1 -1 d 6 -1 d 5 -1 d 6 -1 d 27 X 8 1 d 11 2 d 13 2 d 4 X 5 2 d 5 1 d
 6 2 d 7 3 d 9 4 d 18 8 d 8 3 d 6 3 d 6 1 d 4 2 d 5 1 d 16 2 d 10 2 d 8 X 7 1 d 6 X 5 -1 d 6 X 5 -1 d 5 -1 d 5 -1 d 4 -2 d 2 -1 d 3 -1 d 3 -2 d 3 -2 d 3 -2 d 3 -3 d 3 -3 d 3 -5 d 4 -4 d 4 -6 d 15 -27 d 3 -5 d 4 -5 d 2 -4 d 3 -3 d 3 -3 d 3 -2 d 2 -2 d
 3 -2 d 2 -1 d 3 -1 d 3 -1 d 7 X 3 1 d 2 X 3 1 d 2 1 d 2 2 d 2 2 d 3 2 d 2 3 d 3 3 d 2 4 d 3 4 d 3 6 d 3 8 d 10 20 d 3 7 d 2 5 d 3 5 d 2 3 d 3 3 d 2 3 d 3 3 d 2 1 d 2 2 d 3 1 d 2 2 d 3 X 2 1 d 2 X s 1729 997 m 3 X 3 -1 d 2 X 3 -1 d 3 -1 d 2 -2 d 3 -2
 d 4 -3 d 3 -3 d 3 -4 d 4 -5 d 13 -18 d 4 -6 d 4 -5 d 4 -4 d 3 -3 d 2 -2 d 3 -3 d 3 -1 d 3 -2 d 2 -1 d 3 -1 d 3 X 4 -1 d 10 X 4 1 d 5 X 5 1 d 4 2 d 5 1 d 5 2 d 5 2 d 4 3 d 5 3 d 4 2 d 4 3 d 4 4 d 4 4 d 4 4 d 3 3 d s 3 lw /w 2 def /w2 {w 2 div} def
 /w3 {w 3 div} def 380 970 459 977 539 968 618 960 697 949 777 966 856 964 935 958 1015 945 1094 999 1174 996 1253 1007 1332 958 1412 960 1491 990 1570 988 1650 904 1729 997 1809 929 1888 963 20 { m20} R 6 lw black 0 0.733333 1 c
 gsave  2268 1328 0 0 C 2039.81 1113.92 t 0 r /Helvetica-Bold findfont 48.4311 sf 0 0 m (/dof=0.1) show NC gr  black 0 0.733333 1 c
 gsave  2268 1328 0 0 C 2019.86 1131.01 t 0 r /Helvetica-Bold findfont 34.1867 sf 0 0 m (2) show NC gr  black 0 0.733333 1 c
 gsave  2268 1328 0 0 C 1994.22 1113.92 t 0 r /Symbol findfont 48.4311 sf 0 0 m (c) show NC gr  black 3 lw 340 974 m 1588 X s
 gsave  2268 1328 0 0 C 1783.41 1213.63 t 0 r /Helvetica-Bold findfont 39.8845 sf 0 0 m (2 mm) show NC gr  0 0.733333 1 c /w 23 def /w2 {w 2 div} def /w3 {w 3 div} def 1743 1228 m21
 gr  gr showpage
end
%%EOF
