%!PS-Adobe-2.0 EPSF-2.0
%%BoundingBox:  0 0 567 332
%%Title: Horn1YTilt_nof_summary.eps: Summary
%%Creator: ROOT Version 5.30/06
%%CreationDate: Sun Feb  2 09:28:57 2014
%%EndComments
%%BeginProlog
80 dict begin
/s {stroke} def /l {lineto} def /m {moveto} def /t {translate} def
/r {rotate} def /rl {roll}  def /R {repeat} def
/d {rlineto} def /rm {rmoveto} def /gr {grestore} def /f {eofill} def
/c {setrgbcolor} def /black {0 setgray} def /sd {setdash} def
/cl {closepath} def /sf {scalefont setfont} def /lw {setlinewidth} def
/box {m dup 0 exch d exch 0 d 0 exch neg d cl} def
/NC{systemdict begin initclip end}def/C{NC box clip newpath}def
/bl {box s} def /bf {box f} def /Y { 0 exch d} def /X { 0 d} def 
/K {{pop pop 0 moveto} exch kshow} bind def
/ita {/ang 15 def gsave [1 0 ang dup sin exch cos div 1 0 0] concat} def 
/mp {newpath /y exch def /x exch def} def
/side {[w .77 mul w .23 mul] .385 w mul sd w 0 l currentpoint t -144 r} def
/mr {mp x y w2 0 360 arc} def /m24 {mr s} def /m20 {mr f} def
/mb {mp x y w2 add m w2 neg 0 d 0 w neg d w 0 d 0 w d cl} def
/mt {mp x y w2 add m w2 neg w neg d w 0 d cl} def
/m21 {mb f} def /m25 {mb s} def /m22 {mt f} def /m26{mt s} def
/m23 {mp x y w2 sub m w2 w d w neg 0 d cl f} def
/m27 {mp x y w2 add m w3 neg w2 neg d w3 w2 neg d w3 w2 d cl s} def
/m28 {mp x w2 sub y w2 sub w3 add m w3 0 d  0 w3 neg d w3 0 d 0 w3 d w3 0 d  0 w3 d w3 neg 0 d 0 w3 d w3 neg 0 d 0 w3 neg d w3 neg 0 d cl s } def
/m29 {mp gsave x w2 sub y w2 add w3 sub m currentpoint t 4 {side} repeat cl fill gr} def
/m30 {mp gsave x w2 sub y w2 add w3 sub m currentpoint t 4 {side} repeat cl s gr} def
/m31 {mp x y w2 sub m 0 w d x w2 sub y m w 0 d x w2 sub y w2 add m w w neg d x w2 sub y w2 sub m w w d s} def
/m32 {mp x y w2 sub m w2 w d w neg 0 d cl s} def
/m33 {mp x y w2 add m w3 neg w2 neg d w3 w2 neg d w3 w2 d cl f} def
/m34 {mp x w2 sub y w2 sub w3 add m w3 0 d  0 w3 neg d w3 0 d 0 w3 d w3 0 d  0 w3 d w3 neg 0 d 0 w3 d w3 neg 0 d 0 w3 neg d w3 neg 0 d cl f } def
/m2 {mp x y w2 sub m 0 w d x w2 sub y m w 0 d s} def
/m5 {mp x w2 sub y w2 sub m w w d x w2 sub y w2 add m w w neg d s} def
/reEncode {exch findfont dup length dict begin {1 index /FID eq  {pop pop} {def} ifelse } forall /Encoding exch def currentdict end dup /FontName get exch definefont pop } def [/Times-Bold /Times-Italic /Times-BoldItalic /Helvetica /Helvetica-Oblique
 /Helvetica-Bold /Helvetica-BoldOblique /Courier /Courier-Oblique /Courier-Bold /Courier-BoldOblique /Times-Roman /AvantGarde-Book /AvantGarde-BookOblique /AvantGarde-Demi /AvantGarde-DemiOblique /Bookman-Demi /Bookman-DemiItalic /Bookman-Light
 /Bookman-LightItalic /Helvetica-Narrow /Helvetica-Narrow-Bold /Helvetica-Narrow-BoldOblique /Helvetica-Narrow-Oblique /NewCenturySchlbk-Roman /NewCenturySchlbk-Bold /NewCenturySchlbk-BoldItalic /NewCenturySchlbk-Italic /Palatino-Bold
 /Palatino-BoldItalic /Palatino-Italic /Palatino-Roman ] {ISOLatin1Encoding reEncode } forall%%EndProlog
%%BeginSetup
%%EndSetup
newpath  gsave  .25 .25 scale  gsave  0 0 t black[  ] 0 sd 3 lw 1 1 1 c 2268 1328 0 0 bf black 1 1 1 c black 1588 996 340 199 bl 1588 996 340 199 bl 1 1 1 c 1 0 0 c /w 23 def /w2 {w 2 div} def /w3 {w 3 div} def 380 310 m21 459 311 m21 539 311 m21 618
 311 m21 697 311 m21 777 307 m21 856 310 m21 935 321 m21 black 1015 289 m 3 Y s 1015 315 m 3 Y s 1009 289 m 12 X s 1009 318 m 12 X s 1 0 0 c 1015 303 m21 black 1094 281 m 8 Y s 1094 312 m 8 Y s 1088 281 m 12 X s 1088 320 m 12 X s 1 0 0 c 1094 300 m21
 black 1174 286 m 14 Y s 1174 323 m 14 Y s 1168 286 m 11 X s 1168 337 m 11 X s 1 0 0 c 1174 311 m21 black 1253 266 m 20 Y s 1253 309 m 20 Y s 1247 266 m 12 X s 1247 329 m 12 X s 1 0 0 c 1253 297 m21 black 1332 274 m 27 Y s 1332 324 m 26 Y s 1327 274
 m 11 X s 1327 350 m 11 X s 1 0 0 c 1332 312 m21 black 1412 257 m 32 Y s 1412 312 m 32 Y s 1406 257 m 11 X s 1406 344 m 11 X s 1 0 0 c 1412 301 m21 black 1491 227 m 35 Y s 1491 285 m 36 Y s 1485 227 m 12 X s 1485 321 m 12 X s 1 0 0 c 1491 274 m21
 black 1570 276 m 41 Y s 1570 340 m 41 Y s 1565 276 m 11 X s 1565 381 m 11 X s 1 0 0 c 1570 329 m21 black 1650 411 m 49 Y s 1650 483 m 48 Y s 1644 411 m 11 X s 1644 531 m 11 X s 1 0 0 c 1650 471 m21 black 1809 199 m 23 Y s 1809 245 m 50 Y s 1803 199
 m 11 X s 1803 295 m 11 X s 1 0 0 c 1809 233 m21 black 1888 208 m 55 Y s 1888 286 m 56 Y s 1882 208 m 12 X s 1882 342 m 12 X s 1 0 0 c 1888 275 m21 black 340 199 m 1588 X s
 gsave  2268 1328 0 0 C 954.378 68.3734 t 0 r /Helvetica findfont 62.6756 sf 0 0 m ( Energy \(GeV\) ) show NC gr 
 gsave  2268 1328 0 0 C 928.738 51.28 t 0 r /Symbol findfont 42.7334 sf 0 0 m (m) show NC gr 
 gsave  2268 1328 0 0 C 894.552 68.3734 t 0 r /Symbol findfont 62.6756 sf 0 0 m (n) show NC gr  340 216 m -17 Y s 372 208 m -9 Y s 404 208 m -9 Y s 435 208 m -9 Y s 467 208 m -9 Y s 499 216 m -17 Y s 531 208 m -9 Y s 562 208 m -9 Y s 594 208 m -9 Y s
 626 208 m -9 Y s 658 216 m -17 Y s 689 208 m -9 Y s 721 208 m -9 Y s 753 208 m -9 Y s 785 208 m -9 Y s 816 216 m -17 Y s 848 208 m -9 Y s 880 208 m -9 Y s 912 208 m -9 Y s 943 208 m -9 Y s 975 216 m -17 Y s 1007 208 m -9 Y s 1039 208 m -9 Y s 1070
 208 m -9 Y s 1102 208 m -9 Y s 1134 216 m -17 Y s 1166 208 m -9 Y s 1197 208 m -9 Y s 1229 208 m -9 Y s 1261 208 m -9 Y s 1293 216 m -17 Y s 1324 208 m -9 Y s 1356 208 m -9 Y s 1388 208 m -9 Y s 1420 208 m -9 Y s 1451 216 m -17 Y s 1483 208 m -9 Y s
 1515 208 m -9 Y s 1547 208 m -9 Y s 1578 208 m -9 Y s 1610 216 m -17 Y s 1642 208 m -9 Y s 1674 208 m -9 Y s 1705 208 m -9 Y s 1737 208 m -9 Y s 1769 216 m -17 Y s 1801 208 m -9 Y s 1832 208 m -9 Y s 1864 208 m -9 Y s 1896 208 m -9 Y s 1928 216 m
 -17 Y s
 gsave  2268 1328 0 0 C 319.076 136.747 t 0 r /Helvetica findfont 68.3734 sf 0 0 m (0) show NC gr 
 gsave  2268 1328 0 0 C 484.311 136.747 t 0 r /Helvetica findfont 68.3734 sf 0 0 m (1) show NC gr 
 gsave  2268 1328 0 0 C 635.302 136.747 t 0 r /Helvetica findfont 68.3734 sf 0 0 m (2) show NC gr 
 gsave  2268 1328 0 0 C 794.84 136.747 t 0 r /Helvetica findfont 68.3734 sf 0 0 m (3) show NC gr 
 gsave  2268 1328 0 0 C 954.378 136.747 t 0 r /Helvetica findfont 68.3734 sf 0 0 m (4) show NC gr 
 gsave  2268 1328 0 0 C 1113.92 136.747 t 0 r /Helvetica findfont 68.3734 sf 0 0 m (5) show NC gr 
 gsave  2268 1328 0 0 C 1270.6 136.747 t 0 r /Helvetica findfont 68.3734 sf 0 0 m (6) show NC gr 
 gsave  2268 1328 0 0 C 1430.14 136.747 t 0 r /Helvetica findfont 68.3734 sf 0 0 m (7) show NC gr 
 gsave  2268 1328 0 0 C 1589.68 136.747 t 0 r /Helvetica findfont 68.3734 sf 0 0 m (8) show NC gr 
 gsave  2268 1328 0 0 C 1746.37 136.747 t 0 r /Helvetica findfont 68.3734 sf 0 0 m (9) show NC gr 
 gsave  2268 1328 0 0 C 1888.81 136.747 t 0 r /Helvetica findfont 68.3734 sf 0 0 m (10) show NC gr  340 1195 m 1588 X s 340 1178 m 17 Y s 372 1186 m 9 Y s 404 1186 m 9 Y s 435 1186 m 9 Y s 467 1186 m 9 Y s 499 1178 m 17 Y s 531 1186 m 9 Y s 562 1186
 m 9 Y s 594 1186 m 9 Y s 626 1186 m 9 Y s 658 1178 m 17 Y s 689 1186 m 9 Y s 721 1186 m 9 Y s 753 1186 m 9 Y s 785 1186 m 9 Y s 816 1178 m 17 Y s 848 1186 m 9 Y s 880 1186 m 9 Y s 912 1186 m 9 Y s 943 1186 m 9 Y s 975 1178 m 17 Y s 1007 1186 m 9 Y s
 1039 1186 m 9 Y s 1070 1186 m 9 Y s 1102 1186 m 9 Y s 1134 1178 m 17 Y s 1166 1186 m 9 Y s 1197 1186 m 9 Y s 1229 1186 m 9 Y s 1261 1186 m 9 Y s 1293 1178 m 17 Y s 1324 1186 m 9 Y s 1356 1186 m 9 Y s 1388 1186 m 9 Y s 1420 1186 m 9 Y s 1451 1178 m
 17 Y s 1483 1186 m 9 Y s 1515 1186 m 9 Y s 1547 1186 m 9 Y s 1578 1186 m 9 Y s 1610 1178 m 17 Y s 1642 1186 m 9 Y s 1674 1186 m 9 Y s 1705 1186 m 9 Y s 1737 1186 m 9 Y s 1769 1178 m 17 Y s 1801 1186 m 9 Y s 1832 1186 m 9 Y s 1864 1186 m 9 Y s 1896
 1186 m 9 Y s 1928 1178 m 17 Y s 340 199 m 996 Y s
 gsave  2268 1328 0 0 C 170.933 336.169 t 90 r /Helvetica findfont 62.6756 sf 0 0 m (Near/Far Ratio to Nominal) show NC gr  371 199 m -31 X s 355 221 m -15 X s 355 243 m -15 X s 355 266 m -15 X s 355 288 m -15 X s 371 310 m -31 X s 355 332 m -15 X s
 355 354 m -15 X s 355 376 m -15 X s 355 398 m -15 X s 371 420 m -31 X s 355 443 m -15 X s 355 465 m -15 X s 355 487 m -15 X s 355 509 m -15 X s 371 531 m -31 X s 355 553 m -15 X s 355 575 m -15 X s 355 597 m -15 X s 355 620 m -15 X s 371 642 m -31 X
 s 355 664 m -15 X s 355 686 m -15 X s 355 708 m -15 X s 355 730 m -15 X s 371 752 m -31 X s 355 774 m -15 X s 355 797 m -15 X s 355 819 m -15 X s 355 841 m -15 X s 371 863 m -31 X s 355 885 m -15 X s 355 907 m -15 X s 355 929 m -15 X s 355 951 m -15
 X s 371 974 m -31 X s 355 996 m -15 X s 355 1018 m -15 X s 355 1040 m -15 X s 355 1062 m -15 X s 371 1084 m -31 X s 355 1106 m -15 X s 355 1128 m -15 X s 355 1151 m -15 X s 355 1173 m -15 X s 371 1195 m -31 X s 371 199 m -31 X s 371 1195 m -31 X s
 gsave  2268 1328 0 0 C 196.573 173.782 t 0 r /Helvetica findfont 68.3734 sf 0 0 m (0.95) show NC gr 
 gsave  2268 1328 0 0 C 301.982 282.04 t 0 r /Helvetica findfont 68.3734 sf 0 0 m (1) show NC gr 
 gsave  2268 1328 0 0 C 196.573 395.996 t 0 r /Helvetica findfont 68.3734 sf 0 0 m (1.05) show NC gr 
 gsave  2268 1328 0 0 C 245.005 504.254 t 0 r /Helvetica findfont 68.3734 sf 0 0 m (1.1) show NC gr 
 gsave  2268 1328 0 0 C 196.573 618.209 t 0 r /Helvetica findfont 68.3734 sf 0 0 m (1.15) show NC gr 
 gsave  2268 1328 0 0 C 233.609 726.467 t 0 r /Helvetica findfont 68.3734 sf 0 0 m (1.2) show NC gr 
 gsave  2268 1328 0 0 C 196.573 837.574 t 0 r /Helvetica findfont 68.3734 sf 0 0 m (1.25) show NC gr 
 gsave  2268 1328 0 0 C 233.609 948.68 t 0 r /Helvetica findfont 68.3734 sf 0 0 m (1.3) show NC gr 
 gsave  2268 1328 0 0 C 196.573 1059.79 t 0 r /Helvetica findfont 68.3734 sf 0 0 m (1.35) show NC gr 
 gsave  2268 1328 0 0 C 233.609 1168.04 t 0 r /Helvetica findfont 68.3734 sf 0 0 m (1.4) show NC gr  1928 199 m 996 Y s 1897 199 m 31 X s 1912 221 m 16 X s 1912 243 m 16 X s 1912 266 m 16 X s 1912 288 m 16 X s 1897 310 m 31 X s 1912 332 m 16 X s 1912
 354 m 16 X s 1912 376 m 16 X s 1912 398 m 16 X s 1897 420 m 31 X s 1912 443 m 16 X s 1912 465 m 16 X s 1912 487 m 16 X s 1912 509 m 16 X s 1897 531 m 31 X s 1912 553 m 16 X s 1912 575 m 16 X s 1912 597 m 16 X s 1912 620 m 16 X s 1897 642 m 31 X s
 1912 664 m 16 X s 1912 686 m 16 X s 1912 708 m 16 X s 1912 730 m 16 X s 1897 752 m 31 X s 1912 774 m 16 X s 1912 797 m 16 X s 1912 819 m 16 X s 1912 841 m 16 X s 1897 863 m 31 X s 1912 885 m 16 X s 1912 907 m 16 X s 1912 929 m 16 X s 1912 951 m 16 X
 s 1897 974 m 31 X s 1912 996 m 16 X s 1912 1018 m 16 X s 1912 1040 m 16 X s 1912 1062 m 16 X s 1897 1084 m 31 X s 1912 1106 m 16 X s 1912 1128 m 16 X s 1912 1151 m 16 X s 1912 1173 m 16 X s 1897 1195 m 31 X s 1897 199 m 31 X s 1897 1195 m 31 X s 1 0
 0 c 6 lw 1 1 1 c 1 0 0 c 380 309 m 27 1 d 379 X 13 -1 d 85 X 16 1 d 11 X 8 1 d 96 X 79 -1 d 80 X 3 -1 d 12 X 4 -1 d 5 X 7 -1 d 13 -2 d 5 X 4 -1 d 10 X 4 -1 d 21 X 3 1 d 10 X 4 1 d 4 X 6 1 d 11 2 d 5 X 3 1 d 7 X 4 1 d 35 X 4 -1 d 6 X 14 -1 d 7 -1 d 9
 X 4 -1 d 30 X 4 1 d 11 X 8 1 d 10 1 d 12 X 4 1 d 36 X 6 -1 d 23 -1 d 37 X 3 1 d 7 X 3 1 d 4 X 5 1 d 5 1 d 8 1 d 5 1 d 3 1 d 7 X 3 1 d 32 X 3 -1 d 4 X 3 -1 d 2 X 3 -1 d 3 X 3 -2 d 12 -3 d 2 -1 d 3 X 2 -1 d 3 X 2 -1 d 5 X 2 -1 d 30 X 3 1 d 6 X s 1755
 305 m 4 1 d 5 1 d 12 2 d 5 X 3 1 d 7 X 2 1 d 39 X 4 -1 d 12 X 4 -1 d 4 X 4 -1 d 4 X 4 -1 d 4 X 3 -1 d 3 X 4 -1 d 2 -1 d 3 X 1 -1 d s 3 lw /w 2 def /w2 {w 2 div} def /w3 {w 3 div} def 380 309 459 310 539 310 618 310 697 310 777 310 856 309 935 311
 1015 311 1094 310 1174 310 1253 303 1332 310 1412 306 1491 310 1570 308 1650 316 1729 304 1809 311 1888 303 20 { m20} R 6 lw black 1 0 0 c
 gsave  2268 1328 0 0 C 2036.96 364.658 t 0 r /Helvetica-Bold findfont 48.4311 sf 0 0 m (/dof=0.8) show NC gr  black 1 0 0 c
 gsave  2268 1328 0 0 C 2017.01 381.751 t 0 r /Helvetica-Bold findfont 34.1867 sf 0 0 m (2) show NC gr  black 1 0 0 c
 gsave  2268 1328 0 0 C 1991.37 364.658 t 0 r /Symbol findfont 48.4311 sf 0 0 m (c) show NC gr  black 3 lw 340 310 m 1588 X s
 gsave  2268 1328 0 0 C 424.485 1213.63 t 0 r /Helvetica-Bold findfont 42.7334 sf 0 0 m (0.25 mm) show NC gr  1 0 0 c /w 23 def /w2 {w 2 div} def /w3 {w 3 div} def 383 1228 m21 black 1 1 1 c 0 0 1 c 380 531 m21 459 530 m21 539 527 m21 618 529 m21 697
 533 m21 777 529 m21 856 530 m21 black 935 524 m s 935 547 m s 930 524 m 11 X s 930 547 m 11 X s 0 0 1 c 935 535 m21 black 1015 518 m 4 Y s 1015 545 m 4 Y s 1009 518 m 12 X s 1009 549 m 12 X s 0 0 1 c 1015 533 m21 black 1094 521 m 10 Y s 1094 554 m
 10 Y s 1088 521 m 12 X s 1088 564 m 12 X s 0 0 1 c 1094 543 m21 black 1174 519 m 16 Y s 1174 558 m 17 Y s 1168 519 m 11 X s 1168 575 m 11 X s 0 0 1 c 1174 547 m21 black 1253 479 m 23 Y s 1253 525 m 23 Y s 1247 479 m 12 X s 1247 548 m 12 X s 0 0 1 c
 1253 513 m21 black 1332 436 m 30 Y s 1332 489 m 29 Y s 1327 436 m 11 X s 1327 518 m 11 X s 0 0 1 c 1332 477 m21 black 1412 452 m 36 Y s 1412 511 m 36 Y s 1406 452 m 11 X s 1406 547 m 11 X s 0 0 1 c 1412 500 m21 black 1491 464 m 41 Y s 1491 528 m 41
 Y s 1485 464 m 12 X s 1485 569 m 12 X s 0 0 1 c 1491 517 m21 black 1570 556 m 49 Y s 1570 628 m 49 Y s 1565 556 m 11 X s 1565 677 m 11 X s 0 0 1 c 1570 617 m21 black 1650 480 m 51 Y s 1650 553 m 51 Y s 1644 480 m 11 X s 1644 604 m 11 X s 0 0 1 c
 1650 542 m21 black 1729 484 m 55 Y s 1729 562 m 56 Y s 1723 484 m 12 X s 1723 618 m 12 X s 0 0 1 c 1729 551 m21 black 1809 528 m 61 Y s 1809 612 m 61 Y s 1803 528 m 11 X s 1803 673 m 11 X s 0 0 1 c 1809 601 m21 black 1888 424 m 61 Y s 1888 508 m 62
 Y s 1882 424 m 12 X s 1882 570 m 12 X s 0 0 1 c 1888 497 m21 6 lw 1 1 1 c 0 0 1 c 380 530 m 22 1 d 229 X 18 1 d 33 X 10 1 d 5 X 11 -1 d 28 X 41 -1 d 9 X 13 -1 d 24 -1 d 45 X 7 1 d 9 X 16 1 d 11 1 d 8 1 d 16 X 8 1 d 19 X 13 -1 d 40 X 53 -1 d 83 X 7
 -1 d 11 X 5 -1 d 3 X 4 -1 d 4 X 4 -1 d 5 -1 d 5 -1 d 23 -6 d 5 -1 d 3 X 4 -1 d 3 X 3 -1 d 25 X 3 1 d 3 1 d 4 X 4 1 d 4 1 d 5 2 d 13 4 d 4 1 d 4 1 d 3 1 d 3 X 3 1 d 3 X 4 1 d 24 X 4 -1 d 5 -1 d 5 X 5 -1 d 15 -3 d 5 -1 d 4 -1 d 5 X 3 -1 d 26 X 4 1 d 5
 1 d 5 X 8 2 d 11 2 d 6 1 d 5 1 d 5 X 3 1 d 23 X 4 -1 d 4 X 4 -1 d 6 -1 d 15 -3 d 5 -1 d 5 X 4 -1 d 3 X 4 -1 d 21 X 2 1 d 3 X 3 1 d 2 X 3 1 d 3 1 d 3 1 d 3 1 d 4 2 d 4 2 d 8 4 d 4 2 d 3 1 d 3 1 d 3 1 d 2 1 d 3 1 d 2 X 3 1 d 5 X 3 1 d 10 X 3 -1 d 4 X
 2 -1 d 2 X 3 -1 d 2 -1 d 2 -1 d 3 -1 d 3 -1 d 2 -2 d 4 -2 d 12 -8 d 3 -2 d 2 -1 d 3 -1 d 2 -1 d 2 -1 d 3 -1 d 2 X 2 -1 d 3 X 2 -1 d 3 X s 1724 518 m 15 X 3 1 d 3 X 2 1 d 3 1 d 3 X 3 1 d 4 2 d 4 2 d 10 4 d 5 2 d 3 1 d 3 1 d 3 1 d 3 X 2 1 d 3 X 3 1 d
 28 X 4 -1 d 4 X 4 -1 d 4 -1 d 4 X 4 -1 d 4 -1 d 3 -1 d 4 -1 d 4 -1 d 3 -1 d 3 -2 d 3 -1 d 2 -1 d 3 -2 d 2 -1 d 2 -1 d 2 -2 d 2 -1 d s 3 lw /w 2 def /w2 {w 2 div} def /w3 {w 3 div} def 380 530 459 531 539 531 618 531 697 533 777 531 856 529 935 533
 1015 533 1094 532 1174 530 1253 517 1332 532 1412 523 1491 532 1570 523 1650 546 1729 518 1809 537 1888 517 20 { m20} R 6 lw black 0 0 1 c
 gsave  2268 1328 0 0 C 2036.96 615.36 t 0 r /Helvetica-Bold findfont 48.4311 sf 0 0 m (/dof=0.3) show NC gr  black 0 0 1 c
 gsave  2268 1328 0 0 C 2017.01 632.454 t 0 r /Helvetica-Bold findfont 34.1867 sf 0 0 m (2) show NC gr  black 0 0 1 c
 gsave  2268 1328 0 0 C 1991.37 615.36 t 0 r /Symbol findfont 48.4311 sf 0 0 m (c) show NC gr  black 3 lw 340 531 m 1588 X s
 gsave  2268 1328 0 0 C 877.458 1213.63 t 0 r /Helvetica-Bold findfont 42.7334 sf 0 0 m (0.5 mm) show NC gr  0 0 1 c /w 23 def /w2 {w 2 div} def /w3 {w 3 div} def 836 1228 m21 black 1 1 1 c 1 0 1 c 380 746 m21 459 750 m21 539 753 m21 618 750 m21 697
 755 m21 777 755 m21 856 747 m21 black 935 751 m 2 Y s 935 776 m 1 Y s 930 751 m 11 X s 930 777 m 11 X s 1 0 1 c 935 764 m21 black 1015 746 m 6 Y s 1015 775 m 6 Y s 1009 746 m 12 X s 1009 781 m 12 X s 1 0 1 c 1015 764 m21 black 1094 724 m 12 Y s 1094
 759 m 11 Y s 1088 724 m 12 X s 1088 770 m 12 X s 1 0 1 c 1094 747 m21 black 1174 714 m 19 Y s 1174 756 m 19 Y s 1168 714 m 11 X s 1168 775 m 11 X s 1 0 1 c 1174 744 m21 black 1253 692 m 26 Y s 1253 741 m 27 Y s 1247 692 m 12 X s 1247 768 m 12 X s 1
 0 1 c 1253 730 m21 black 1332 749 m 35 Y s 1332 807 m 35 Y s 1327 749 m 11 X s 1327 842 m 11 X s 1 0 1 c 1332 795 m21 black 1412 628 m 40 Y s 1412 690 m 40 Y s 1406 628 m 11 X s 1406 730 m 11 X s 1 0 1 c 1412 679 m21 black 1491 702 m 46 Y s 1491 771
 m 47 Y s 1485 702 m 12 X s 1485 818 m 12 X s 1 0 1 c 1491 760 m21 black 1570 624 m 50 Y s 1570 697 m 50 Y s 1565 624 m 11 X s 1565 747 m 11 X s 1 0 1 c 1570 686 m21 black 1650 735 m 57 Y s 1650 815 m 57 Y s 1644 735 m 11 X s 1644 872 m 11 X s 1 0 1
 c 1650 803 m21 black 1729 669 m 60 Y s 1729 752 m 60 Y s 1723 669 m 12 X s 1723 812 m 12 X s 1 0 1 c 1729 740 m21 black 1809 611 m 63 Y s 1809 697 m 63 Y s 1803 611 m 11 X s 1803 760 m 11 X s 1 0 1 c 1809 686 m21 black 1888 601 m 67 Y s 1888 691 m
 67 Y s 1882 601 m 12 X s 1882 758 m 12 X s 1 0 1 c 1888 679 m21 6 lw 1 1 1 c 1 0 1 c 380 751 m 19 1 d 20 X 18 1 d 35 X 67 -2 d 18 X 25 1 d 36 X 13 1 d 21 1 d 19 1 d 12 X 11 1 d 3 X 11 -1 d 14 X 55 -3 d 10 -1 d 21 -1 d 15 -2 d 18 X 7 -1 d 7 1 d 13 X
 8 1 d 9 2 d 16 2 d 10 2 d 8 1 d 7 1 d 6 X 3 1 d 8 X 72 -2 d 12 X 21 1 d 46 X 21 -1 d 13 -1 d 10 -1 d 9 X 8 -2 d 7 -1 d 7 -1 d 5 -1 d 3 -1 d 5 -1 d 4 -2 d 5 -2 d 5 -2 d 21 -11 d 5 -2 d 4 -2 d 4 -1 d 4 -1 d 3 -1 d 4 -1 d 4 -1 d 14 X 3 1 d 3 1 d 3 1 d
 3 2 d 4 1 d 4 3 d 4 2 d 5 4 d 11 8 d 5 3 d 4 3 d 3 2 d 3 1 d 3 2 d 4 1 d 3 1 d 2 1 d 16 X 3 -1 d 67 -23 d 3 X 3 1 d 3 X 4 1 d 4 1 d 4 1 d 5 2 d 6 3 d 14 7 d 4 2 d 5 1 d 3 2 d 4 1 d 4 1 d 3 X 3 1 d 7 X 3 -1 d 3 X 3 -1 d 3 -1 d 3 -1 d 3 -2 d 3 -2 d 4
 -2 d 4 -3 d 5 -4 d 13 -11 d 4 -3 d 3 -2 d 3 -2 d 4 -2 d 2 -1 d 3 -1 d 3 -1 d 2 -1 d 11 X 3 1 d 2 X 3 1 d 2 1 d 2 1 d 2 1 d 3 2 d 2 2 d 2 2 d 3 3 d 2 3 d 3 4 d 3 5 d 4 6 d 5 9 d 3 5 d 2 4 d 3 3 d 2 2 d 2 3 d 2 2 d 3 1 d 2 2 d 2 1 d 3 1 d 2 1 d 2 1 d
 15 X 3 -1 d 2 -1 d 2 -1 d 2 -1 d 3 -1 d 2 -2 d 2 -2 d 3 -3 d 3 -3 d 3 -3 d 3 -5 d 12 -17 d 2 -4 d 3 -3 d 2 -2 d 3 -3 d 2 -1 d 3 -2 d 2 -2 d 2 -1 d 2 X 3 -1 d 3 -1 d 5 X s 1729 724 m 5 X 2 1 d 3 X 2 1 d 3 1 d 2 1 d 2 2 d 3 1 d 2 3 d 3 2 d 3 3 d 4 5 d
 4 5 d 7 9 d 3 5 d 3 3 d 3 3 d 2 2 d 3 2 d 2 2 d 3 1 d 2 1 d 2 1 d 3 1 d 3 X 2 1 d 12 X 4 -1 d 4 -1 d 4 -1 d 5 -1 d 4 -2 d 4 -1 d 4 -2 d 4 -2 d 3 -2 d 4 -2 d 3 -3 d 3 -2 d 3 -3 d 3 -3 d 3 -3 d 3 -3 d 2 -3 d 2 -3 d 2 -3 d 2 -4 d 2 -4 d 1 -3 d 1 -4 d 1
 -3 d s 3 lw /w 2 def /w2 {w 2 div} def /w3 {w 3 div} def 380 751 459 753 539 751 618 752 697 756 777 752 856 748 935 758 1015 756 1094 757 1174 749 1253 721 1332 758 1412 734 1491 758 1570 717 1650 784 1729 724 1809 780 1888 721 20 { m20} R 6 lw
 black 1 0 1 c
 gsave  2268 1328 0 0 C 2036.96 863.214 t 0 r /Helvetica-Bold findfont 48.4311 sf 0 0 m (/dof=0.3) show NC gr  black 1 0 1 c
 gsave  2268 1328 0 0 C 2017.01 880.307 t 0 r /Helvetica-Bold findfont 34.1867 sf 0 0 m (2) show NC gr  black 1 0 1 c
 gsave  2268 1328 0 0 C 1991.37 863.214 t 0 r /Symbol findfont 48.4311 sf 0 0 m (c) show NC gr  black 3 lw 340 752 m 1588 X s
 gsave  2268 1328 0 0 C 1330.43 1213.63 t 0 r /Helvetica-Bold findfont 39.8845 sf 0 0 m (1 mm) show NC gr  1 0 1 c /w 23 def /w2 {w 2 div} def /w3 {w 3 div} def 1290 1228 m21 black 1 1 1 c 0 0.733333 1 c 380 973 m21 459 977 m21 539 968 m21 618 975
 m21 697 981 m21 777 972 m21 black 856 952 m s 856 975 m s 850 952 m 12 X s 850 975 m 12 X s 0 0.733333 1 c 856 963 m21 black 935 965 m 3 Y s 935 991 m 2 Y s 930 965 m 11 X s 930 993 m 11 X s 0 0.733333 1 c 935 979 m21 black 1015 960 m 8 Y s 1015 990
 m 8 Y s 1009 960 m 12 X s 1009 998 m 12 X s 0 0.733333 1 c 1015 979 m21 black 1094 970 m 14 Y s 1094 1007 m 14 Y s 1088 970 m 12 X s 1088 1021 m 12 X s 0 0.733333 1 c 1094 995 m21 black 1174 927 m 22 Y s 1174 972 m 21 Y s 1168 927 m 11 X s 1168 993
 m 11 X s 0 0.733333 1 c 1174 960 m21 black 1253 862 m 29 Y s 1253 914 m 29 Y s 1247 862 m 12 X s 1247 943 m 12 X s 0 0.733333 1 c 1253 903 m21 black 1332 944 m 38 Y s 1332 1005 m 38 Y s 1327 944 m 11 X s 1327 1043 m 11 X s 0 0.733333 1 c 1332 994
 m21 black 1412 917 m 45 Y s 1412 985 m 45 Y s 1406 917 m 11 X s 1406 1030 m 11 X s 0 0.733333 1 c 1412 973 m21 black 1491 935 m 52 Y s 1491 1009 m 52 Y s 1485 935 m 12 X s 1485 1061 m 12 X s 0 0.733333 1 c 1491 998 m21 black 1570 758 m 53 Y s 1570
 834 m 53 Y s 1565 758 m 11 X s 1565 887 m 11 X s 0 0.733333 1 c 1570 822 m21 black 1650 937 m 63 Y s 1650 1023 m 62 Y s 1644 937 m 11 X s 1644 1085 m 11 X s 0 0.733333 1 c 1650 1011 m21 black 1729 838 m 66 Y s 1729 927 m 65 Y s 1723 838 m 12 X s
 1723 992 m 12 X s 0 0.733333 1 c 1729 915 m21 black 1809 1033 m 76 Y s 1809 1131 m 64 Y s 1803 1033 m 11 X s 1803 1195 m 11 X s 0 0.733333 1 c 1809 1120 m21 black 1888 854 m 76 Y s 1888 953 m 76 Y s 1882 854 m 12 X s 1882 1029 m 12 X s 0 0.733333 1
 c 1888 942 m21 6 lw 1 1 1 c 0 0.733333 1 c 380 970 m 20 3 d 21 2 d 20 1 d 18 X 13 -1 d 21 -2 d 29 -4 d 30 X 16 1 d 50 4 d 27 3 d 27 3 d 15 X 10 1 d 16 -1 d 20 -2 d 44 -5 d 13 -2 d 39 -7 d 11 -1 d 16 X 8 1 d 10 3 d 13 4 d 27 9 d 11 3 d 9 2 d 1 X 10 1
 d 12 X 32 -3 d 15 -1 d 11 X 9 1 d 11 2 d 28 6 d 10 2 d 8 1 d 8 X 5 -1 d 9 -1 d 11 -3 d 10 -4 d 12 -5 d 16 -8 d 22 -12 d 5 -4 d 7 -5 d 8 -7 d 25 -25 d 7 -5 d 6 -4 d 5 -2 d 5 -2 d 4 -1 d 7 X 4 2 d 4 2 d 4 3 d 4 5 d 4 5 d 6 8 d 6 10 d 16 27 d 6 9 d 5 7
 d 4 5 d 4 5 d 4 3 d 3 2 d 4 1 d 9 X 4 -2 d 5 -3 d 4 -4 d 6 -5 d 6 -8 d 21 -27 d 6 -5 d 4 -4 d 5 -4 d 4 -1 d 4 -2 d 3 X 3 1 d 4 1 d 5 2 d 4 4 d 5 5 d 6 6 d 9 12 d 9 13 d 5 6 d 5 5 d 4 4 d 5 3 d 3 2 d 7 X 4 -1 d 1 X 3 -2 d 3 -3 d 3 -4 d 3 -5 d 3 -5 d
 3 -7 d 4 -9 d 3 -11 d 4 -13 d 14 -50 d 5 -16 d 4 -11 d 3 -9 d 3 -9 d 3 -6 d 3 -5 d 2 -4 d 3 -3 d 3 -2 d 3 -2 d 7 X 2 1 d 3 2 d 2 3 d 3 4 d 2 4 d 3 6 d 2 6 d 3 8 d 3 10 d 3 12 d 3 14 d 4 20 d 10 48 d 4 16 d 3 13 d 2 11 d 3 9 d 3 8 d 2 7 d 3 5 d 2 4 d
 3 4 d 3 3 d 2 2 d 3 2 d 6 X 3 -1 d 3 -3 d 3 -3 d 3 -4 d 3 -6 d 4 -7 d 4 -9 d 4 -12 d 19 -51 d 4 -9 d 3 -7 d 3 -6 d 3 -4 d 4 -4 d 2 -3 d 3 -1 d 3 -1 d 3 X 3 1 d 3 1 d 3 3 d 3 4 d 2 4 d 3 6 d 3 6 d 3 9 d 4 10 d 3 13 d 5 18 d 11 40 d 4 16 d 3 11 d 3 9
 d 3 8 d 3 6 d 3 4 d 2 4 d 3 4 d 3 2 d s 1802 1091 m 3 2 d 8 X 5 -2 d 4 -2 d 5 -3 d 4 -4 d 4 -5 d 4 -6 d 4 -6 d 4 -6 d 4 -8 d 4 -8 d 4 -9 d 3 -10 d 4 -10 d 3 -12 d 4 -13 d 2 -11 d 3 -13 d 3 -13 d 2 -14 d 2 -13 d 2 -14 d 1 -4 d s 3 lw /w 2 def /w2 {w
 2 div} def /w3 {w 3 div} def 380 970 459 976 539 969 618 974 697 981 777 973 856 963 935 985 1015 982 1094 993 1174 960 1253 905 1332 999 1412 934 1491 997 1570 821 1650 1043 1729 912 1809 1093 1888 907 20 { m20} R 6 lw black 0 0.733333 1 c
 gsave  2268 1328 0 0 C 2039.81 1113.92 t 0 r /Helvetica-Bold findfont 48.4311 sf 0 0 m (/dof=0.1) show NC gr  black 0 0.733333 1 c
 gsave  2268 1328 0 0 C 2019.86 1131.01 t 0 r /Helvetica-Bold findfont 34.1867 sf 0 0 m (2) show NC gr  black 0 0.733333 1 c
 gsave  2268 1328 0 0 C 1994.22 1113.92 t 0 r /Symbol findfont 48.4311 sf 0 0 m (c) show NC gr  black 3 lw 340 974 m 1588 X s
 gsave  2268 1328 0 0 C 1783.41 1213.63 t 0 r /Helvetica-Bold findfont 39.8845 sf 0 0 m (2 mm) show NC gr  0 0.733333 1 c /w 23 def /w2 {w 2 div} def /w3 {w 3 div} def 1743 1228 m21
 gr  gr showpage
end
%%EOF
