%!PS-Adobe-2.0 EPSF-2.0
%%BoundingBox:  0 0 567 332
%%Title: HornCurrent_nof_summary.eps: Summary
%%Creator: ROOT Version 5.30/06
%%CreationDate: Sun Feb  2 09:28:38 2014
%%EndComments
%%BeginProlog
80 dict begin
/s {stroke} def /l {lineto} def /m {moveto} def /t {translate} def
/r {rotate} def /rl {roll}  def /R {repeat} def
/d {rlineto} def /rm {rmoveto} def /gr {grestore} def /f {eofill} def
/c {setrgbcolor} def /black {0 setgray} def /sd {setdash} def
/cl {closepath} def /sf {scalefont setfont} def /lw {setlinewidth} def
/box {m dup 0 exch d exch 0 d 0 exch neg d cl} def
/NC{systemdict begin initclip end}def/C{NC box clip newpath}def
/bl {box s} def /bf {box f} def /Y { 0 exch d} def /X { 0 d} def 
/K {{pop pop 0 moveto} exch kshow} bind def
/ita {/ang 15 def gsave [1 0 ang dup sin exch cos div 1 0 0] concat} def 
/mp {newpath /y exch def /x exch def} def
/side {[w .77 mul w .23 mul] .385 w mul sd w 0 l currentpoint t -144 r} def
/mr {mp x y w2 0 360 arc} def /m24 {mr s} def /m20 {mr f} def
/mb {mp x y w2 add m w2 neg 0 d 0 w neg d w 0 d 0 w d cl} def
/mt {mp x y w2 add m w2 neg w neg d w 0 d cl} def
/m21 {mb f} def /m25 {mb s} def /m22 {mt f} def /m26{mt s} def
/m23 {mp x y w2 sub m w2 w d w neg 0 d cl f} def
/m27 {mp x y w2 add m w3 neg w2 neg d w3 w2 neg d w3 w2 d cl s} def
/m28 {mp x w2 sub y w2 sub w3 add m w3 0 d  0 w3 neg d w3 0 d 0 w3 d w3 0 d  0 w3 d w3 neg 0 d 0 w3 d w3 neg 0 d 0 w3 neg d w3 neg 0 d cl s } def
/m29 {mp gsave x w2 sub y w2 add w3 sub m currentpoint t 4 {side} repeat cl fill gr} def
/m30 {mp gsave x w2 sub y w2 add w3 sub m currentpoint t 4 {side} repeat cl s gr} def
/m31 {mp x y w2 sub m 0 w d x w2 sub y m w 0 d x w2 sub y w2 add m w w neg d x w2 sub y w2 sub m w w d s} def
/m32 {mp x y w2 sub m w2 w d w neg 0 d cl s} def
/m33 {mp x y w2 add m w3 neg w2 neg d w3 w2 neg d w3 w2 d cl f} def
/m34 {mp x w2 sub y w2 sub w3 add m w3 0 d  0 w3 neg d w3 0 d 0 w3 d w3 0 d  0 w3 d w3 neg 0 d 0 w3 d w3 neg 0 d 0 w3 neg d w3 neg 0 d cl f } def
/m2 {mp x y w2 sub m 0 w d x w2 sub y m w 0 d s} def
/m5 {mp x w2 sub y w2 sub m w w d x w2 sub y w2 add m w w neg d s} def
/reEncode {exch findfont dup length dict begin {1 index /FID eq  {pop pop} {def} ifelse } forall /Encoding exch def currentdict end dup /FontName get exch definefont pop } def [/Times-Bold /Times-Italic /Times-BoldItalic /Helvetica /Helvetica-Oblique
 /Helvetica-Bold /Helvetica-BoldOblique /Courier /Courier-Oblique /Courier-Bold /Courier-BoldOblique /Times-Roman /AvantGarde-Book /AvantGarde-BookOblique /AvantGarde-Demi /AvantGarde-DemiOblique /Bookman-Demi /Bookman-DemiItalic /Bookman-Light
 /Bookman-LightItalic /Helvetica-Narrow /Helvetica-Narrow-Bold /Helvetica-Narrow-BoldOblique /Helvetica-Narrow-Oblique /NewCenturySchlbk-Roman /NewCenturySchlbk-Bold /NewCenturySchlbk-BoldItalic /NewCenturySchlbk-Italic /Palatino-Bold
 /Palatino-BoldItalic /Palatino-Italic /Palatino-Roman ] {ISOLatin1Encoding reEncode } forall%%EndProlog
%%BeginSetup
%%EndSetup
newpath  gsave  .25 .25 scale  gsave  0 0 t black[  ] 0 sd 3 lw 1 1 1 c 2268 1328 0 0 bf black 1 1 1 c black 1588 996 340 199 bl 1588 996 340 199 bl 1 1 1 c 1 0 0 c /w 23 def /w2 {w 2 div} def /w3 {w 3 div} def 380 254 m21 459 256 m21 539 257 m21 618
 258 m21 697 260 m21 777 269 m21 856 295 m21 935 331 m21 1015 312 m21 1094 303 m21 black 1174 239 m 1 Y s 1174 263 m 1 Y s 1168 239 m 11 X s 1168 264 m 11 X s 1 0 0 c 1174 251 m21 black 1253 212 m 4 Y s 1253 239 m 4 Y s 1247 212 m 12 X s 1247 243 m
 12 X s 1 0 0 c 1253 228 m21 black 1332 217 m 7 Y s 1327 224 m 11 X s 1 0 0 c 1332 205 m21 black 1412 208 m 11 Y s 1412 241 m 11 Y s 1406 208 m 11 X s 1406 252 m 11 X s 1 0 0 c 1412 230 m21 black 1491 229 m 14 Y s 1491 266 m 14 Y s 1485 229 m 12 X s
 1485 280 m 12 X s 1 0 0 c 1491 255 m21 black 1570 238 m 17 Y s 1570 278 m 16 Y s 1565 238 m 11 X s 1565 294 m 11 X s 1 0 0 c 1570 266 m21 black 1650 265 m 19 Y s 1650 307 m 19 Y s 1644 265 m 11 X s 1644 326 m 11 X s 1 0 0 c 1650 296 m21 black 1729
 240 m 20 Y s 1729 283 m 21 Y s 1723 240 m 12 X s 1723 304 m 12 X s 1 0 0 c 1729 272 m21 black 1809 223 m 22 Y s 1809 268 m 23 Y s 1803 223 m 11 X s 1803 291 m 11 X s 1 0 0 c 1809 257 m21 black 1888 213 m 23 Y s 1888 259 m 24 Y s 1882 213 m 12 X s
 1882 283 m 12 X s 1 0 0 c 1888 248 m21 black 340 199 m 1588 X s
 gsave  2268 1328 0 0 C 954.378 68.3734 t 0 r /Helvetica findfont 62.6756 sf 0 0 m ( Energy \(GeV\) ) show NC gr 
 gsave  2268 1328 0 0 C 928.738 51.28 t 0 r /Symbol findfont 42.7334 sf 0 0 m (m) show NC gr 
 gsave  2268 1328 0 0 C 894.552 68.3734 t 0 r /Symbol findfont 62.6756 sf 0 0 m (n) show NC gr  340 216 m -17 Y s 372 208 m -9 Y s 404 208 m -9 Y s 435 208 m -9 Y s 467 208 m -9 Y s 499 216 m -17 Y s 531 208 m -9 Y s 562 208 m -9 Y s 594 208 m -9 Y s
 626 208 m -9 Y s 658 216 m -17 Y s 689 208 m -9 Y s 721 208 m -9 Y s 753 208 m -9 Y s 785 208 m -9 Y s 816 216 m -17 Y s 848 208 m -9 Y s 880 208 m -9 Y s 912 208 m -9 Y s 943 208 m -9 Y s 975 216 m -17 Y s 1007 208 m -9 Y s 1039 208 m -9 Y s 1070
 208 m -9 Y s 1102 208 m -9 Y s 1134 216 m -17 Y s 1166 208 m -9 Y s 1197 208 m -9 Y s 1229 208 m -9 Y s 1261 208 m -9 Y s 1293 216 m -17 Y s 1324 208 m -9 Y s 1356 208 m -9 Y s 1388 208 m -9 Y s 1420 208 m -9 Y s 1451 216 m -17 Y s 1483 208 m -9 Y s
 1515 208 m -9 Y s 1547 208 m -9 Y s 1578 208 m -9 Y s 1610 216 m -17 Y s 1642 208 m -9 Y s 1674 208 m -9 Y s 1705 208 m -9 Y s 1737 208 m -9 Y s 1769 216 m -17 Y s 1801 208 m -9 Y s 1832 208 m -9 Y s 1864 208 m -9 Y s 1896 208 m -9 Y s 1928 216 m
 -17 Y s
 gsave  2268 1328 0 0 C 319.076 136.747 t 0 r /Helvetica findfont 68.3734 sf 0 0 m (0) show NC gr 
 gsave  2268 1328 0 0 C 484.311 136.747 t 0 r /Helvetica findfont 68.3734 sf 0 0 m (1) show NC gr 
 gsave  2268 1328 0 0 C 635.302 136.747 t 0 r /Helvetica findfont 68.3734 sf 0 0 m (2) show NC gr 
 gsave  2268 1328 0 0 C 794.84 136.747 t 0 r /Helvetica findfont 68.3734 sf 0 0 m (3) show NC gr 
 gsave  2268 1328 0 0 C 954.378 136.747 t 0 r /Helvetica findfont 68.3734 sf 0 0 m (4) show NC gr 
 gsave  2268 1328 0 0 C 1113.92 136.747 t 0 r /Helvetica findfont 68.3734 sf 0 0 m (5) show NC gr 
 gsave  2268 1328 0 0 C 1270.6 136.747 t 0 r /Helvetica findfont 68.3734 sf 0 0 m (6) show NC gr 
 gsave  2268 1328 0 0 C 1430.14 136.747 t 0 r /Helvetica findfont 68.3734 sf 0 0 m (7) show NC gr 
 gsave  2268 1328 0 0 C 1589.68 136.747 t 0 r /Helvetica findfont 68.3734 sf 0 0 m (8) show NC gr 
 gsave  2268 1328 0 0 C 1746.37 136.747 t 0 r /Helvetica findfont 68.3734 sf 0 0 m (9) show NC gr 
 gsave  2268 1328 0 0 C 1888.81 136.747 t 0 r /Helvetica findfont 68.3734 sf 0 0 m (10) show NC gr  340 1195 m 1588 X s 340 1178 m 17 Y s 372 1186 m 9 Y s 404 1186 m 9 Y s 435 1186 m 9 Y s 467 1186 m 9 Y s 499 1178 m 17 Y s 531 1186 m 9 Y s 562 1186
 m 9 Y s 594 1186 m 9 Y s 626 1186 m 9 Y s 658 1178 m 17 Y s 689 1186 m 9 Y s 721 1186 m 9 Y s 753 1186 m 9 Y s 785 1186 m 9 Y s 816 1178 m 17 Y s 848 1186 m 9 Y s 880 1186 m 9 Y s 912 1186 m 9 Y s 943 1186 m 9 Y s 975 1178 m 17 Y s 1007 1186 m 9 Y s
 1039 1186 m 9 Y s 1070 1186 m 9 Y s 1102 1186 m 9 Y s 1134 1178 m 17 Y s 1166 1186 m 9 Y s 1197 1186 m 9 Y s 1229 1186 m 9 Y s 1261 1186 m 9 Y s 1293 1178 m 17 Y s 1324 1186 m 9 Y s 1356 1186 m 9 Y s 1388 1186 m 9 Y s 1420 1186 m 9 Y s 1451 1178 m
 17 Y s 1483 1186 m 9 Y s 1515 1186 m 9 Y s 1547 1186 m 9 Y s 1578 1186 m 9 Y s 1610 1178 m 17 Y s 1642 1186 m 9 Y s 1674 1186 m 9 Y s 1705 1186 m 9 Y s 1737 1186 m 9 Y s 1769 1178 m 17 Y s 1801 1186 m 9 Y s 1832 1186 m 9 Y s 1864 1186 m 9 Y s 1896
 1186 m 9 Y s 1928 1178 m 17 Y s 340 199 m 996 Y s
 gsave  2268 1328 0 0 C 170.933 336.169 t 90 r /Helvetica findfont 62.6756 sf 0 0 m (Near/Far Ratio to Nominal) show NC gr  371 258 m -31 X s 355 281 m -15 X s 355 305 m -15 X s 355 328 m -15 X s 355 351 m -15 X s 371 375 m -31 X s 355 398 m -15 X s
 355 422 m -15 X s 355 445 m -15 X s 355 469 m -15 X s 371 492 m -31 X s 355 515 m -15 X s 355 539 m -15 X s 355 562 m -15 X s 355 586 m -15 X s 371 609 m -31 X s 355 633 m -15 X s 355 656 m -15 X s 355 679 m -15 X s 355 703 m -15 X s 371 726 m -31 X
 s 355 750 m -15 X s 355 773 m -15 X s 355 797 m -15 X s 355 820 m -15 X s 371 843 m -31 X s 355 867 m -15 X s 355 890 m -15 X s 355 914 m -15 X s 355 937 m -15 X s 371 961 m -31 X s 355 984 m -15 X s 355 1007 m -15 X s 355 1031 m -15 X s 355 1054 m
 -15 X s 371 1078 m -31 X s 355 1101 m -15 X s 355 1125 m -15 X s 355 1148 m -15 X s 355 1171 m -15 X s 371 1195 m -31 X s 371 258 m -31 X s 355 234 m -15 X s 355 211 m -15 X s
 gsave  2268 1328 0 0 C 301.982 230.76 t 0 r /Helvetica findfont 68.3734 sf 0 0 m (1) show NC gr 
 gsave  2268 1328 0 0 C 245.005 347.565 t 0 r /Helvetica findfont 68.3734 sf 0 0 m (1.1) show NC gr 
 gsave  2268 1328 0 0 C 233.609 464.369 t 0 r /Helvetica findfont 68.3734 sf 0 0 m (1.2) show NC gr 
 gsave  2268 1328 0 0 C 233.609 584.022 t 0 r /Helvetica findfont 68.3734 sf 0 0 m (1.3) show NC gr 
 gsave  2268 1328 0 0 C 233.609 697.978 t 0 r /Helvetica findfont 68.3734 sf 0 0 m (1.4) show NC gr 
 gsave  2268 1328 0 0 C 233.609 820.48 t 0 r /Helvetica findfont 68.3734 sf 0 0 m (1.5) show NC gr 
 gsave  2268 1328 0 0 C 233.609 937.285 t 0 r /Helvetica findfont 68.3734 sf 0 0 m (1.6) show NC gr 
 gsave  2268 1328 0 0 C 233.609 1051.24 t 0 r /Helvetica findfont 68.3734 sf 0 0 m (1.7) show NC gr 
 gsave  2268 1328 0 0 C 233.609 1170.89 t 0 r /Helvetica findfont 68.3734 sf 0 0 m (1.8) show NC gr  1928 199 m 996 Y s 1897 258 m 31 X s 1912 281 m 16 X s 1912 305 m 16 X s 1912 328 m 16 X s 1912 351 m 16 X s 1897 375 m 31 X s 1912 398 m 16 X s 1912
 422 m 16 X s 1912 445 m 16 X s 1912 469 m 16 X s 1897 492 m 31 X s 1912 515 m 16 X s 1912 539 m 16 X s 1912 562 m 16 X s 1912 586 m 16 X s 1897 609 m 31 X s 1912 633 m 16 X s 1912 656 m 16 X s 1912 679 m 16 X s 1912 703 m 16 X s 1897 726 m 31 X s
 1912 750 m 16 X s 1912 773 m 16 X s 1912 797 m 16 X s 1912 820 m 16 X s 1897 843 m 31 X s 1912 867 m 16 X s 1912 890 m 16 X s 1912 914 m 16 X s 1912 937 m 16 X s 1897 961 m 31 X s 1912 984 m 16 X s 1912 1007 m 16 X s 1912 1031 m 16 X s 1912 1054 m
 16 X s 1897 1078 m 31 X s 1912 1101 m 16 X s 1912 1125 m 16 X s 1912 1148 m 16 X s 1912 1171 m 16 X s 1897 1195 m 31 X s 1897 258 m 31 X s 1912 234 m 16 X s 1912 211 m 16 X s 1 0 0 c 6 lw 1 1 1 c 1 0 0 c 380 255 m 79 X 52 1 d 28 1 d 79 2 d 52 X 14 1
 d 12 X 1 1 d 28 2 d 13 1 d 12 2 d 9 1 d 9 2 d 9 2 d 7 2 d 8 3 d 8 3 d 11 4 d 16 8 d 16 7 d 10 4 d 3 1 d 8 3 d 11 5 d 18 9 d 8 3 d 8 3 d 6 2 d 6 1 d 5 2 d 4 X 5 1 d 5 X 5 -1 d 5 X 6 -1 d 59 -20 d 17 -5 d 23 -6 d 13 -4 d 9 -3 d 8 -2 d 8 -3 d 1 -1 d 6
 -3 d 7 -3 d 8 -5 d 9 -5 d 25 -16 d 8 -5 d 6 -3 d 6 -2 d 5 -2 d 10 -4 d 10 -4 d 9 -3 d 10 -2 d 9 -3 d 10 -2 d 9 -1 d 9 -1 d 3 -1 d 8 X 8 -1 d 10 X 8 1 d 11 1 d 14 1 d 20 2 d 8 2 d 9 1 d 14 3 d 22 6 d 9 2 d 8 1 d 8 1 d 2 1 d 22 X 32 -1 d 14 X 5 1 d 5
 1 d 1 X 5 1 d 5 2 d 5 2 d 6 3 d 7 4 d 15 9 d 9 5 d 6 3 d 6 3 d 5 2 d 4 1 d 5 1 d 1 1 d 6 1 d 27 X 10 -1 d 21 -3 d 7 X 7 -1 d 55 X 9 1 d 8 1 d 8 1 d 1 X 5 1 d 5 1 d 5 2 d 6 3 d 10 5 d 11 5 d 6 2 d 5 2 d 5 2 d 4 1 d 4 X 4 1 d 4 X 3 -1 d 3 X 5 -1 d 5
 -2 d 4 -2 d 5 -2 d 5 -2 d 5 -3 d 4 -3 d 5 -3 d 5 -4 d 4 -4 d 5 -4 d 4 -5 d 4 -4 d 4 -5 d 4 -5 d 4 -6 d 3 -6 d 4 -6 d s 3 lw /w 2 def /w2 {w 2 div} def /w3 {w 3 div} def 380 255 459 255 539 257 618 259 697 261 777 271 856 303 935 332 1015 310 1094
 286 1174 242 1253 221 1332 225 1412 242 1491 243 1570 280 1650 276 1729 279 1809 303 1888 236 20 { m20} R 6 lw black 1 0 0 c
 gsave  2268 1328 0 0 C 2036.96 242.156 t 0 r /Helvetica-Bold findfont 48.4311 sf 0 0 m (/dof=0.6) show NC gr  black 1 0 0 c
 gsave  2268 1328 0 0 C 2017.01 259.249 t 0 r /Helvetica-Bold findfont 34.1867 sf 0 0 m (2) show NC gr  black 1 0 0 c
 gsave  2268 1328 0 0 C 1991.37 242.156 t 0 r /Symbol findfont 48.4311 sf 0 0 m (c) show NC gr  black 3 lw 340 258 m 1588 X s
 gsave  2268 1328 0 0 C 196.573 1213.63 t 0 r /Helvetica-Bold findfont 39.8845 sf 0 0 m (212 kA) show NC gr  1 0 0 c /w 23 def /w2 {w 2 div} def /w3 {w 3 div} def 156 1228 m21 black 1 1 1 c 0 0 1 c 380 372 m21 459 372 m21 539 372 m21 618 374 m21 697
 378 m21 777 382 m21 856 407 m21 935 432 m21 1015 420 m21 1094 403 m21 black 1174 351 m 3 Y s 1174 376 m 3 Y s 1168 351 m 11 X s 1168 379 m 11 X s 0 0 1 c 1174 365 m21 black 1253 327 m 6 Y s 1253 356 m 6 Y s 1247 327 m 12 X s 1247 362 m 12 X s 0 0 1
 c 1253 344 m21 black 1332 337 m 10 Y s 1332 370 m 10 Y s 1327 337 m 11 X s 1327 380 m 11 X s 0 0 1 c 1332 359 m21 black 1412 369 m 14 Y s 1412 406 m 14 Y s 1406 369 m 11 X s 1406 420 m 11 X s 0 0 1 c 1412 394 m21 black 1491 304 m 15 Y s 1491 342 m
 16 Y s 1485 304 m 12 X s 1485 358 m 12 X s 0 0 1 c 1491 331 m21 black 1570 356 m 19 Y s 1570 398 m 19 Y s 1565 356 m 11 X s 1565 417 m 11 X s 0 0 1 c 1570 386 m21 black 1650 336 m 21 Y s 1650 380 m 21 Y s 1644 336 m 11 X s 1644 401 m 11 X s 0 0 1 c
 1650 369 m21 black 1729 331 m 23 Y s 1729 376 m 23 Y s 1723 331 m 12 X s 1723 399 m 12 X s 0 0 1 c 1729 365 m21 black 1809 417 m 27 Y s 1809 467 m 28 Y s 1803 417 m 11 X s 1803 495 m 11 X s 0 0 1 c 1809 456 m21 black 1888 305 m 27 Y s 1888 354 m 27
 Y s 1882 305 m 12 X s 1882 381 m 12 X s 0 0 1 c 1888 343 m21 6 lw 1 1 1 c 0 0 1 c 380 373 m 79 X 52 1 d 28 X 79 2 d 66 X 12 1 d 1 X 28 2 d 13 1 d 12 1 d 9 1 d 9 1 d 9 2 d 7 1 d 8 2 d 8 3 d 11 3 d 16 5 d 16 5 d 10 3 d 3 1 d 8 2 d 11 4 d 18 6 d 8 3 d
 8 2 d 6 1 d 6 1 d 5 1 d 4 1 d 15 X 5 -1 d 6 X 59 -15 d 17 -3 d 23 -5 d 13 -3 d 9 -2 d 8 -2 d 8 -2 d 1 X 6 -2 d 7 -3 d 8 -3 d 9 -4 d 25 -12 d 8 -3 d 6 -3 d 6 -2 d 5 -1 d 10 -3 d 10 -2 d 9 -3 d 10 -2 d 9 -1 d 10 -2 d 9 -1 d 9 -1 d 11 X 8 -1 d 10 X 8 1
 d 11 X 14 1 d 20 2 d 8 1 d 9 1 d 14 3 d 22 4 d 9 1 d 8 1 d 8 1 d 8 X 7 1 d 9 -1 d 32 -1 d 8 1 d 11 X 5 1 d 1 X 5 1 d 4 1 d 6 2 d 5 2 d 7 3 d 16 7 d 8 3 d 6 2 d 5 2 d 5 2 d 5 1 d 4 X 3 1 d 6 X 5 1 d 5 -1 d 6 X 7 -1 d 8 -1 d 24 -4 d 6 X 6 -1 d 24 X 10
 1 d 15 1 d 27 3 d 10 1 d 7 1 d 9 1 d 24 4 d 8 1 d 7 1 d 17 X 4 -1 d 4 X 6 -1 d 6 -1 d 6 -2 d 6 -2 d 6 -2 d 7 -2 d 6 -3 d 6 -2 d 6 -3 d 6 -3 d 6 -4 d 5 -3 d 6 -4 d 1 -1 d s 3 lw /w 2 def /w2 {w 2 div} def /w3 {w 3 div} def 380 373 459 373 539 374 618
 376 697 377 777 385 856 408 935 429 1015 413 1094 396 1174 363 1253 348 1332 351 1412 363 1491 364 1570 391 1650 384 1729 390 1809 397 1888 364 20 { m20} R 6 lw black 0 0 1 c
 gsave  2268 1328 0 0 C 2036.96 364.658 t 0 r /Helvetica-Bold findfont 48.4311 sf 0 0 m (/dof=0.5) show NC gr  black 0 0 1 c
 gsave  2268 1328 0 0 C 2017.01 381.751 t 0 r /Helvetica-Bold findfont 34.1867 sf 0 0 m (2) show NC gr  black 0 0 1 c
 gsave  2268 1328 0 0 C 1991.37 364.658 t 0 r /Symbol findfont 48.4311 sf 0 0 m (c) show NC gr  black 3 lw 340 375 m 1588 X s
 gsave  2268 1328 0 0 C 424.485 1213.63 t 0 r /Helvetica-Bold findfont 42.7334 sf 0 0 m (208 kA) show NC gr  0 0 1 c /w 23 def /w2 {w 2 div} def /w3 {w 3 div} def 383 1228 m21 black 1 1 1 c 1 0 1 c 380 489 m21 459 490 m21 539 495 m21 618 492 m21 697
 492 m21 777 500 m21 856 510 m21 935 529 m21 1015 511 m21 black 1094 490 m 1 Y s 1094 514 m 1 Y s 1088 490 m 12 X s 1088 515 m 12 X s 1 0 1 c 1094 503 m21 black 1174 471 m 4 Y s 1174 498 m 4 Y s 1168 471 m 11 X s 1168 502 m 11 X s 1 0 1 c 1174 487
 m21 black 1253 469 m 9 Y s 1253 501 m 8 Y s 1247 469 m 12 X s 1247 509 m 12 X s 1 0 1 c 1253 489 m21 black 1332 461 m 12 Y s 1332 496 m 12 Y s 1327 461 m 11 X s 1327 508 m 11 X s 1 0 1 c 1332 485 m21 black 1412 425 m 16 Y s 1412 464 m 15 Y s 1406
 425 m 11 X s 1406 479 m 11 X s 1 0 1 c 1412 452 m21 black 1491 452 m 19 Y s 1491 494 m 19 Y s 1485 452 m 12 X s 1485 513 m 12 X s 1 0 1 c 1491 482 m21 black 1570 515 m 23 Y s 1570 561 m 23 Y s 1565 515 m 11 X s 1565 584 m 11 X s 1 0 1 c 1570 549 m21
 black 1650 447 m 24 Y s 1650 494 m 24 Y s 1644 447 m 11 X s 1644 518 m 11 X s 1 0 1 c 1650 483 m21 black 1729 486 m 27 Y s 1729 536 m 28 Y s 1723 486 m 12 X s 1723 564 m 12 X s 1 0 1 c 1729 525 m21 black 1809 434 m 29 Y s 1809 486 m 29 Y s 1803 434
 m 11 X s 1803 515 m 11 X s 1 0 1 c 1809 474 m21 black 1888 454 m 32 Y s 1888 508 m 32 Y s 1882 454 m 12 X s 1882 540 m 12 X s 1 0 1 c 1888 497 m21 6 lw 1 1 1 c 1 0 1 c 380 491 m 131 X 28 1 d 79 X 17 1 d 62 X 28 1 d 13 1 d 12 X 9 1 d 9 X 9 1 d 7 1 d
 8 1 d 8 2 d 11 1 d 16 3 d 16 3 d 10 2 d 3 X 8 1 d 11 2 d 18 4 d 8 1 d 8 1 d 6 1 d 6 1 d 9 X 5 1 d 5 X 5 -1 d 11 X 59 -8 d 17 -2 d 23 -3 d 13 -1 d 9 -1 d 8 -1 d 8 -1 d 1 -1 d 6 -1 d 7 -1 d 8 -2 d 9 -2 d 25 -7 d 8 -1 d 6 -2 d 6 -1 d 5 X 10 -2 d 10 -1
 d 9 -2 d 10 -1 d 9 -1 d 10 X 9 -1 d 9 X 3 -1 d 34 X 11 1 d 14 X 20 1 d 8 1 d 9 X 14 1 d 22 3 d 9 X 8 1 d 8 X 2 1 d 22 X 32 -1 d 14 X 5 1 d 6 X 5 1 d 4 X 5 1 d 6 1 d 7 2 d 15 4 d 9 2 d 6 1 d 5 1 d 5 1 d 4 X 4 1 d 18 X 5 -1 d 6 X 7 -1 d 15 -2 d 10 -1
 d 7 -1 d 10 X 4 -1 d 2 X 5 1 d 12 X 7 1 d 9 X 21 3 d 8 1 d 17 X 9 1 d 11 X 9 -1 d 23 X 12 -1 d 13 -1 d 3 X 12 -1 d 10 -1 d 12 -1 d 11 -1 d 12 -2 d 10 -1 d 12 -2 d s 3 lw /w 2 def /w2 {w 2 div} def /w3 {w 3 div} def 380 491 459 491 539 492 618 492
 697 493 777 497 856 510 935 522 1015 513 1094 503 1174 486 1253 477 1332 479 1412 486 1491 486 1570 501 1650 494 1729 500 1809 498 1888 489 20 { m20} R 6 lw black 1 0 1 c
 gsave  2268 1328 0 0 C 2036.96 490.009 t 0 r /Helvetica-Bold findfont 48.4311 sf 0 0 m (/dof=0.4) show NC gr  black 1 0 1 c
 gsave  2268 1328 0 0 C 2017.01 507.102 t 0 r /Helvetica-Bold findfont 34.1867 sf 0 0 m (2) show NC gr  black 1 0 1 c
 gsave  2268 1328 0 0 C 1991.37 490.009 t 0 r /Symbol findfont 48.4311 sf 0 0 m (c) show NC gr  black 3 lw 340 492 m 1588 X s
 gsave  2268 1328 0 0 C 649.547 1213.63 t 0 r /Helvetica-Bold findfont 42.7334 sf 0 0 m (204 kA) show NC gr  1 0 1 c /w 23 def /w2 {w 2 div} def /w3 {w 3 div} def 609 1228 m21 black 1 1 1 c 0 0.733333 1 c 380 607 m21 459 607 m21 539 607 m21 618 609
 m21 697 609 m21 777 612 m21 856 627 m21 935 624 m21 1015 613 m21 black 1094 600 m 2 Y s 1094 625 m 2 Y s 1088 600 m 12 X s 1088 627 m 12 X s 0 0.733333 1 c 1094 613 m21 black 1174 595 m 6 Y s 1174 624 m 6 Y s 1168 595 m 11 X s 1168 630 m 11 X s 0
 0.733333 1 c 1174 612 m21 black 1253 609 m 10 Y s 1253 642 m 11 Y s 1247 609 m 12 X s 1247 653 m 12 X s 0 0.733333 1 c 1253 631 m21 black 1332 544 m 14 Y s 1332 581 m 14 Y s 1327 544 m 11 X s 1327 595 m 11 X s 0 0.733333 1 c 1332 570 m21 black 1412
 545 m 18 Y s 1412 586 m 18 Y s 1406 545 m 11 X s 1406 604 m 11 X s 0 0.733333 1 c 1412 575 m21 black 1491 591 m 22 Y s 1491 636 m 22 Y s 1485 591 m 12 X s 1485 658 m 12 X s 0 0.733333 1 c 1491 625 m21 black 1570 607 m 26 Y s 1570 656 m 25 Y s 1565
 607 m 11 X s 1565 681 m 11 X s 0 0.733333 1 c 1570 644 m21 black 1650 561 m 27 Y s 1650 611 m 27 Y s 1644 561 m 11 X s 1644 638 m 11 X s 0 0.733333 1 c 1650 600 m21 black 1729 580 m 30 Y s 1729 633 m 30 Y s 1723 580 m 12 X s 1723 663 m 12 X s 0
 0.733333 1 c 1729 622 m21 black 1809 620 m 34 Y s 1809 677 m 34 Y s 1803 620 m 11 X s 1803 711 m 11 X s 0 0.733333 1 c 1809 665 m21 black 1888 517 m 34 Y s 1888 573 m 34 Y s 1882 517 m 12 X s 1882 607 m 12 X s 0 0.733333 1 c 1888 562 m21 6 lw 1 1 1
 c 0 0.733333 1 c 380 608 m 55 1 d 235 X 14 1 d 41 X 13 1 d 21 X 9 1 d 16 X 8 1 d 8 1 d 11 1 d 16 1 d 16 2 d 10 1 d 3 X 8 1 d 11 1 d 18 2 d 8 X 8 1 d 6 X 6 1 d 35 X 59 -5 d 17 -1 d 23 -1 d 13 -1 d 9 X 8 -1 d 8 -1 d 7 X 7 -1 d 8 -1 d 9 -1 d 25 -4 d 8
 -1 d 6 X 6 -1 d 5 X 10 -1 d 10 -1 d 9 -1 d 10 X 9 -1 d 19 X 9 -1 d 48 X 14 1 d 28 X 9 1 d 14 X 22 2 d 17 X 8 1 d 24 X 32 -1 d 8 X 6 1 d 16 X 4 1 d 5 X 6 1 d 6 X 14 2 d 9 1 d 7 1 d 5 1 d 9 X 4 1 d 24 X 5 -1 d 7 X 15 -1 d 8 -1 d 6 -1 d 41 X 7 1 d 13 1
 d 12 1 d 13 X 5 1 d 20 X 68 -3 d 29 -1 d 29 -1 d 21 -1 d s 3 lw /w 2 def /w2 {w 2 div} def /w3 {w 3 div} def 380 608 459 609 539 609 618 609 697 610 777 612 856 619 935 625 1015 620 1094 615 1174 606 1253 601 1332 602 1412 606 1491 606 1570 614 1650
 610 1729 614 1809 611 1888 608 20 { m20} R 6 lw black 0 0.733333 1 c
 gsave  2268 1328 0 0 C 2036.96 615.36 t 0 r /Helvetica-Bold findfont 48.4311 sf 0 0 m (/dof=0.5) show NC gr  black 0 0.733333 1 c
 gsave  2268 1328 0 0 C 2017.01 632.454 t 0 r /Helvetica-Bold findfont 34.1867 sf 0 0 m (2) show NC gr  black 0 0.733333 1 c
 gsave  2268 1328 0 0 C 1991.37 615.36 t 0 r /Symbol findfont 48.4311 sf 0 0 m (c) show NC gr  black 3 lw 340 609 m 1588 X s
 gsave  2268 1328 0 0 C 877.458 1213.63 t 0 r /Helvetica-Bold findfont 42.7334 sf 0 0 m (202 kA) show NC gr  0 0.733333 1 c /w 23 def /w2 {w 2 div} def /w3 {w 3 div} def 836 1228 m21 black 1 1 1 c 0.35 0.83 0.33 c 380 724 m21 459 727 m21 539 726 m21
 618 721 m21 697 730 m21 777 721 m21 856 718 m21 935 709 m21 1015 720 m21 black 1094 722 m 3 Y s 1094 748 m 3 Y s 1088 722 m 12 X s 1088 751 m 12 X s 0.35 0.83 0.33 c 1094 736 m21 black 1174 678 m 7 Y s 1174 708 m 7 Y s 1168 678 m 11 X s 1168 715 m
 11 X s 0.35 0.83 0.33 c 1174 696 m21 black 1253 735 m 13 Y s 1253 771 m 13 Y s 1247 735 m 12 X s 1247 784 m 12 X s 0.35 0.83 0.33 c 1253 759 m21 black 1332 699 m 17 Y s 1332 739 m 17 Y s 1327 699 m 11 X s 1327 756 m 11 X s 0.35 0.83 0.33 c 1332 727
 m21 black 1412 665 m 20 Y s 1412 708 m 20 Y s 1406 665 m 11 X s 1406 728 m 11 X s 0.35 0.83 0.33 c 1412 696 m21 black 1491 719 m 25 Y s 1491 767 m 25 Y s 1485 719 m 12 X s 1485 792 m 12 X s 0.35 0.83 0.33 c 1491 756 m21 black 1570 686 m 27 Y s 1570
 736 m 27 Y s 1565 686 m 11 X s 1565 763 m 11 X s 0.35 0.83 0.33 c 1570 724 m21 black 1650 708 m 31 Y s 1650 762 m 31 Y s 1644 708 m 11 X s 1644 793 m 11 X s 0.35 0.83 0.33 c 1650 750 m21 black 1729 676 m 33 Y s 1729 732 m 33 Y s 1723 676 m 12 X s
 1723 765 m 12 X s 0.35 0.83 0.33 c 1729 720 m21 black 1809 740 m 37 Y s 1809 800 m 38 Y s 1803 740 m 11 X s 1803 838 m 11 X s 0.35 0.83 0.33 c 1809 789 m21 black 1888 678 m 39 Y s 1888 739 m 39 Y s 1882 678 m 12 X s 1882 778 m 12 X s 0.35 0.83 0.33
 c 1888 728 m21 6 lw 1 1 1 c 0.35 0.83 0.33 c 380 727 m 131 X 28 -1 d 158 X 25 -1 d 24 X 11 -1 d 8 X 8 -1 d 11 X 8 -1 d 9 -1 d 12 -1 d 36 -4 d 7 X 8 -1 d 12 -1 d 18 -2 d 8 -1 d 8 -1 d 5 X 7 -1 d 28 X 6 1 d 14 X 7 1 d 13 1 d 13 1 d 8 1 d 4 X 14 1 d 29
 2 d 12 1 d 9 X 8 1 d 7 1 d 6 X 7 1 d 7 1 d 10 1 d 21 4 d 9 1 d 7 1 d 5 X 6 1 d 2 X 10 1 d 10 1 d 9 X 10 1 d 9 1 d 19 X 9 1 d 49 X 11 -1 d 30 X 72 -4 d 79 X 5 -1 d 4 X 5 -1 d 5 X 7 -1 d 25 -4 d 6 X 4 -1 d 5 X 4 -1 d 22 X 4 1 d 5 X 6 1 d 8 X 14 2 d 6
 1 d 5 X 5 1 d 27 X 5 -1 d 5 X 7 -1 d 23 -2 d 6 -1 d 10 X 4 -1 d 10 X 5 1 d 9 X 5 1 d 7 X 7 1 d 14 2 d 6 1 d 11 X 4 1 d 51 X 8 -1 d 14 X 7 -1 d 7 -1 d s 3 lw /w 2 def /w2 {w 2 div} def /w3 {w 3 div} def 380 727 459 727 539 726 618 726 697 726 777 723
 856 716 935 709 1015 714 1094 720 1174 730 1253 735 1332 734 1412 730 1491 730 1570 721 1650 727 1729 721 1809 728 1888 725 20 { m20} R 6 lw black 0.35 0.83 0.33 c
 gsave  2268 1328 0 0 C 2036.96 740.711 t 0 r /Helvetica-Bold findfont 48.4311 sf 0 0 m (/dof=0.6) show NC gr  black 0.35 0.83 0.33 c
 gsave  2268 1328 0 0 C 2017.01 757.805 t 0 r /Helvetica-Bold findfont 34.1867 sf 0 0 m (2) show NC gr  black 0.35 0.83 0.33 c
 gsave  2268 1328 0 0 C 1991.37 740.711 t 0 r /Symbol findfont 48.4311 sf 0 0 m (c) show NC gr  black 3 lw 340 726 m 1588 X s
 gsave  2268 1328 0 0 C 1105.37 1213.63 t 0 r /Helvetica-Bold findfont 42.7334 sf 0 0 m (198 kA) show NC gr  0.35 0.83 0.33 c /w 23 def /w2 {w 2 div} def /w3 {w 3 div} def 1063 1228 m21 black 1 1 1 c 0.53 0.4 0.34 c 380 846 m21 459 847 m21 539 848
 m21 618 838 m21 697 846 m21 777 840 m21 856 814 m21 935 810 m21 black 1015 804 m s 1015 826 m s 1009 804 m 12 X s 1009 826 m 12 X s 0.53 0.4 0.34 c 1015 815 m21 black 1094 831 m 4 Y s 1094 858 m 4 Y s 1088 831 m 12 X s 1088 862 m 12 X s 0.53 0.4
 0.34 c 1094 846 m21 black 1174 824 m 9 Y s 1174 856 m 9 Y s 1168 824 m 11 X s 1168 865 m 11 X s 0.53 0.4 0.34 c 1174 845 m21 black 1253 840 m 14 Y s 1253 877 m 15 Y s 1247 840 m 12 X s 1247 892 m 12 X s 0.53 0.4 0.34 c 1253 866 m21 black 1332 801 m
 19 Y s 1332 843 m 19 Y s 1327 801 m 11 X s 1327 862 m 11 X s 0.53 0.4 0.34 c 1332 831 m21 black 1412 797 m 23 Y s 1412 843 m 24 Y s 1406 797 m 11 X s 1406 867 m 11 X s 0.53 0.4 0.34 c 1412 832 m21 black 1491 813 m 28 Y s 1491 863 m 28 Y s 1485 813 m
 12 X s 1485 891 m 12 X s 0.53 0.4 0.34 c 1491 852 m21 black 1570 847 m 32 Y s 1570 901 m 32 Y s 1565 847 m 11 X s 1565 933 m 11 X s 0.53 0.4 0.34 c 1570 890 m21 black 1650 807 m 33 Y s 1650 863 m 33 Y s 1644 807 m 11 X s 1644 896 m 11 X s 0.53 0.4
 0.34 c 1650 851 m21 black 1729 749 m 34 Y s 1729 806 m 35 Y s 1723 749 m 12 X s 1723 841 m 12 X s 0.53 0.4 0.34 c 1729 795 m21 black 1809 811 m 39 Y s 1809 873 m 40 Y s 1803 811 m 11 X s 1803 913 m 11 X s 0.53 0.4 0.34 c 1809 862 m21 black 1888 752
 m 41 Y s 1888 816 m 41 Y s 1882 752 m 12 X s 1882 857 m 12 X s 0.53 0.4 0.34 c 1888 805 m21 6 lw 1 1 1 c 0.53 0.4 0.34 c 380 845 m 79 X 52 -1 d 28 X 79 -1 d 49 X 15 -1 d 15 X 25 -1 d 13 -1 d 11 X 11 -1 d 8 -1 d 8 -1 d 4 X 7 -1 d 8 -2 d 9 -1 d 12 -3
 d 36 -8 d 7 -1 d 8 -2 d 12 -2 d 18 -5 d 8 -1 d 8 -2 d 5 -1 d 7 -1 d 10 X 3 -1 d 5 X 5 1 d 11 X 6 1 d 8 1 d 7 2 d 13 2 d 13 2 d 8 2 d 4 X 14 2 d 29 4 d 12 2 d 9 1 d 8 2 d 7 1 d 6 2 d 7 1 d 7 2 d 10 3 d 21 7 d 9 3 d 7 1 d 5 2 d 6 1 d 2 X 10 2 d 10 2 d
 9 2 d 10 1 d 9 1 d 10 1 d 9 1 d 9 X 3 1 d 34 X 12 -1 d 11 X 22 -1 d 8 -1 d 72 -8 d 21 X 18 1 d 25 X 6 -1 d 9 X 5 -1 d 4 -1 d 5 -1 d 5 -1 d 7 -2 d 25 -8 d 6 -1 d 4 -1 d 5 -1 d 4 -1 d 4 X 4 -1 d 5 X 4 1 d 4 X 4 1 d 5 X 5 2 d 7 1 d 14 4 d 7 2 d 6 1 d 4
 1 d 5 1 d 23 X 5 -1 d 5 -1 d 6 -1 d 15 -5 d 8 -2 d 6 -1 d 4 -1 d 5 X 4 -1 d 17 X 4 1 d 4 1 d 5 1 d 5 1 d 6 2 d 14 5 d 7 2 d 6 2 d 4 1 d 4 1 d 4 X 4 1 d 28 X 7 -1 d 6 -1 d 6 X 6 -1 d 6 -2 d 6 -1 d 7 -2 d 5 -1 d 6 -2 d 1 X s 3 lw /w 2 def /w2 {w 2
 div} def /w3 {w 3 div} def 380 845 459 845 539 844 618 843 697 842 777 837 856 821 935 806 1015 817 1094 829 1174 851 1253 862 1332 860 1412 851 1491 851 1570 832 1650 846 1729 833 1809 851 1888 840 20 { m20} R 6 lw black 0.53 0.4 0.34 c
 gsave  2268 1328 0 0 C 2036.96 863.214 t 0 r /Helvetica-Bold findfont 48.4311 sf 0 0 m (/dof=0.4) show NC gr  black 0.53 0.4 0.34 c
 gsave  2268 1328 0 0 C 2017.01 880.307 t 0 r /Helvetica-Bold findfont 34.1867 sf 0 0 m (2) show NC gr  black 0.53 0.4 0.34 c
 gsave  2268 1328 0 0 C 1991.37 863.214 t 0 r /Symbol findfont 48.4311 sf 0 0 m (c) show NC gr  black 3 lw 340 843 m 1588 X s
 gsave  2268 1328 0 0 C 1330.43 1213.63 t 0 r /Helvetica-Bold findfont 42.7334 sf 0 0 m (196 kA) show NC gr  0.53 0.4 0.34 c /w 23 def /w2 {w 2 div} def /w3 {w 3 div} def 1290 1228 m21 black 1 1 1 c black 380 963 m21 459 961 m21 539 960 m21 618 955
 m21 697 959 m21 777 943 m21 856 906 m21 935 887 m21 1015 898 m 2 Y s 1015 922 m 1 Y s 1009 898 m 12 X s 1009 923 m 12 X s 1015 911 m21 1094 941 m 6 Y s 1094 969 m 6 Y s 1088 941 m 12 X s 1088 975 m 12 X s 1094 958 m21 1174 958 m 11 Y s 1174 992 m 11
 Y s 1168 958 m 11 X s 1168 1003 m 11 X s 1174 980 m21 1253 944 m 17 Y s 1253 983 m 17 Y s 1247 944 m 12 X s 1247 1000 m 12 X s 1253 972 m21 1332 957 m 22 Y s 1332 1001 m 22 Y s 1327 957 m 11 X s 1327 1023 m 11 X s 1332 990 m21 1412 932 m 25 Y s 1412
 980 m 26 Y s 1406 932 m 11 X s 1406 1006 m 11 X s 1412 969 m21 1491 932 m 30 Y s 1491 985 m 29 Y s 1485 932 m 12 X s 1485 1014 m 12 X s 1491 973 m21 1570 888 m 32 Y s 1570 943 m 33 Y s 1565 888 m 11 X s 1565 976 m 11 X s 1570 932 m21 1650 931 m 37 Y
 s 1650 990 m 37 Y s 1644 931 m 11 X s 1644 1027 m 11 X s 1650 979 m21 1729 851 m 38 Y s 1729 912 m 38 Y s 1723 851 m 12 X s 1723 950 m 12 X s 1729 901 m21 1809 970 m 45 Y s 1809 1038 m 44 Y s 1803 970 m 11 X s 1803 1082 m 11 X s 1809 1026 m21 1888
 893 m 46 Y s 1888 961 m 46 Y s 1882 893 m 12 X s 1882 1007 m 12 X s 1888 950 m21 6 lw 1 1 1 c black 380 964 m 55 -1 d 24 X 52 -1 d 28 X 79 -3 d 49 X 15 -1 d 12 X 3 -1 d 25 -2 d 13 -1 d 11 -1 d 11 -2 d 8 -2 d 8 -2 d 4 -1 d 7 -2 d 8 -3 d 9 -4 d 12 -5
 d 36 -17 d 7 -3 d 8 -3 d 12 -6 d 18 -9 d 8 -3 d 8 -4 d 5 -2 d 7 -1 d 5 -1 d 5 -1 d 13 X 5 1 d 6 1 d 6 2 d 8 2 d 7 3 d 13 5 d 13 5 d 8 3 d 4 1 d 14 4 d 29 8 d 12 4 d 9 3 d 8 3 d 7 3 d 6 3 d 7 4 d 7 4 d 10 6 d 21 15 d 9 5 d 7 4 d 5 3 d 6 3 d 2 1 d 10
 4 d 10 4 d 9 3 d 10 3 d 9 2 d 10 2 d 9 2 d 9 1 d 3 X 8 1 d 26 X 12 -1 d 11 -1 d 22 -3 d 8 -1 d 72 -16 d 6 -1 d 15 X 18 1 d 10 1 d 8 X 7 -1 d 6 X 5 -1 d 4 -1 d 5 -1 d 4 -2 d 5 -2 d 5 -3 d 7 -4 d 24 -17 d 6 -3 d 4 -2 d 5 -2 d 4 -1 d 3 -1 d 4 -1 d 7 X
 3 1 d 4 1 d 4 1 d 4 2 d 5 3 d 6 3 d 7 5 d 12 8 d 5 4 d 5 3 d 4 2 d 4 1 d 4 2 d 4 X 3 1 d 5 X 4 -1 d 3 -1 d 4 -1 d 4 -2 d 5 -3 d 6 -3 d 15 -11 d 6 -4 d 4 -3 d 5 -2 d 4 -2 d 3 -2 d 5 -1 d 11 X 3 1 d 4 2 d 3 1 d 4 2 d 3 3 d 5 4 d 4 4 d 7 6 d 10 12 d 5
 5 d 4 3 d 4 3 d 3 3 d 4 2 d 3 1 d 4 2 d 3 X 3 1 d 5 X 5 -1 d 5 X 5 -1 d 5 -2 d 4 -1 d 5 -2 d 5 -3 d 5 -3 d 4 -3 d 6 -3 d 4 -4 d 4 -4 d 5 -4 d 4 -6 d 4 -4 d 4 -5 d 1 -2 d s 3 lw /w 2 def /w2 {w 2 div} def /w3 {w 3 div} def 380 964 459 963 539 962 618
 959 697 957 777 946 856 912 935 882 1015 905 1094 930 1174 978 1253 999 1332 995 1412 978 1491 976 1570 937 1650 974 1729 938 1809 993 1888 945 20 { m20} R 6 lw
 gsave  2268 1328 0 0 C 2036.96 988.565 t 0 r /Helvetica-Bold findfont 48.4311 sf 0 0 m (/dof=0.3) show NC gr 
 gsave  2268 1328 0 0 C 2017.01 1005.66 t 0 r /Helvetica-Bold findfont 34.1867 sf 0 0 m (2) show NC gr 
 gsave  2268 1328 0 0 C 1991.37 988.565 t 0 r /Symbol findfont 48.4311 sf 0 0 m (c) show NC gr  3 lw 340 961 m 1588 X s
 gsave  2268 1328 0 0 C 1558.34 1213.63 t 0 r /Helvetica-Bold findfont 42.7334 sf 0 0 m (192 kA) show NC gr  /w 23 def /w2 {w 2 div} def /w3 {w 3 div} def 1517 1228 m21 1 1 1 c 0.48 0 1 c 380 1080 m21 459 1081 m21 539 1079 m21 618 1077 m21 697 1068
 m21 777 1050 m21 856 994 m21 935 952 m21 black 1015 982 m 2 Y s 1015 1007 m 2 Y s 1009 982 m 12 X s 1009 1009 m 12 X s 0.48 0 1 c 1015 995 m21 black 1094 1024 m 7 Y s 1094 1054 m 7 Y s 1088 1024 m 12 X s 1088 1061 m 12 X s 0.48 0 1 c 1094 1042 m21
 black 1174 1117 m 13 Y s 1174 1153 m 13 Y s 1168 1117 m 11 X s 1168 1166 m 11 X s 0.48 0 1 c 1174 1141 m21 black 1253 1146 m 20 Y s 1253 1188 m 7 Y s 1247 1146 m 12 X s 1247 1195 m 12 X s 0.48 0 1 c 1253 1177 m21 black 1332 1075 m 24 Y s 1332 1122 m
 24 Y s 1327 1075 m 11 X s 1327 1146 m 11 X s 0.48 0 1 c 1332 1110 m21 black 1412 1073 m 29 Y s 1412 1125 m 28 Y s 1406 1073 m 11 X s 1406 1153 m 11 X s 0.48 0 1 c 1412 1113 m21 black 1491 1039 m 32 Y s 1491 1094 m 32 Y s 1485 1039 m 12 X s 1485 1126
 m 12 X s 0.48 0 1 c 1491 1083 m21 black 1570 978 m 35 Y s 1570 1036 m 35 Y s 1565 978 m 11 X s 1565 1071 m 11 X s 0.48 0 1 c 1570 1025 m21 black 1650 1035 m 40 Y s 1650 1098 m 40 Y s 1644 1035 m 11 X s 1644 1138 m 11 X s 0.48 0 1 c 1650 1086 m21
 black 1729 1005 m 42 Y s 1729 1070 m 43 Y s 1723 1005 m 12 X s 1723 1113 m 12 X s 0.48 0 1 c 1729 1059 m21 black 1809 1123 m 50 Y s 1803 1123 m 11 X s 0.48 0 1 c 1809 1184 m21 black 1888 977 m 49 Y s 1888 1049 m 49 Y s 1882 977 m 12 X s 1882 1098 m
 12 X s 0.48 0 1 c 1888 1037 m21 6 lw 1 1 1 c 0.48 0 1 c 380 1083 m 57 -1 d 22 X 54 -2 d 26 -1 d 79 -3 d 20 -1 d 30 X 15 -1 d 12 -1 d 2 X 25 -3 d 14 -3 d 13 -3 d 9 -2 d 9 -3 d 10 -4 d 7 -4 d 8 -4 d 10 -7 d 41 -30 d 10 -7 d 3 -2 d 8 -6 d 13 -10 d 18
 -14 d 9 -6 d 7 -4 d 6 -4 d 6 -2 d 5 -2 d 5 -1 d 7 X 6 1 d 5 1 d 6 2 d 7 3 d 7 4 d 11 6 d 19 13 d 8 4 d 6 3 d 14 7 d 30 13 d 11 6 d 9 5 d 8 5 d 7 5 d 6 4 d 7 7 d 8 7 d 13 13 d 17 19 d 9 9 d 7 6 d 6 5 d 7 5 d 12 8 d 10 6 d 8 4 d 12 5 d 9 4 d 10 3 d 9
 3 d 9 2 d 8 1 d 18 X 11 -1 d 12 -1 d 13 -3 d 17 -3 d 9 -3 d 71 -25 d 6 -1 d 18 X 23 2 d 9 1 d 7 -1 d 6 -1 d 5 -1 d 5 -2 d 5 -2 d 4 -3 d 5 -4 d 6 -5 d 7 -7 d 22 -24 d 5 -5 d 5 -4 d 5 -3 d 4 -2 d 4 -2 d 3 X 4 -1 d 4 1 d 3 1 d 4 2 d 4 3 d 4 3 d 5 5 d 5
 6 d 8 9 d 11 15 d 6 7 d 4 5 d 4 4 d 4 3 d 4 2 d 3 2 d 4 1 d 6 X 3 -1 d 4 -2 d 4 -2 d 4 -4 d 4 -4 d 5 -6 d 5 -7 d 17 -22 d 4 -5 d 4 -4 d 4 -4 d 4 -3 d 3 -2 d 4 -1 d 3 -1 d 3 1 d 1 X 3 1 d 3 1 d 3 3 d 3 3 d 4 3 d 3 5 d 4 6 d 3 7 d 5 10 d 5 12 d 9 20 d
 5 10 d 4 8 d 4 6 d 3 5 d 2 3 d 3 3 d 3 3 d 4 2 d 2 1 d 3 X 2 1 d 4 -1 d 5 -1 d 5 -2 d 4 -2 d 5 -2 d 4 -4 d 4 -4 d 4 -4 d 5 -5 d 4 -5 d 4 -7 d 4 -6 d 4 -8 d 4 -8 d 3 -7 d 4 -9 d 3 -9 d 3 -10 d 3 -9 d 2 -10 d 1 -2 d s 3 lw /w 2 def /w2 {w 2 div} def
 /w3 {w 3 div} def 380 1083 459 1082 539 1079 618 1076 697 1073 777 1055 856 1001 935 952 1015 989 1094 1030 1174 1105 1253 1140 1332 1133 1412 1105 1491 1102 1570 1040 1650 1109 1729 1042 1809 1155 1888 1040 20 { m20} R 6 lw black 0.48 0 1 c
 gsave  2268 1328 0 0 C 2036.96 1113.92 t 0 r /Helvetica-Bold findfont 48.4311 sf 0 0 m (/dof=0.4) show NC gr  black 0.48 0 1 c
 gsave  2268 1328 0 0 C 2017.01 1131.01 t 0 r /Helvetica-Bold findfont 34.1867 sf 0 0 m (2) show NC gr  black 0.48 0 1 c
 gsave  2268 1328 0 0 C 1991.37 1113.92 t 0 r /Symbol findfont 48.4311 sf 0 0 m (c) show NC gr  black 3 lw 340 1078 m 1588 X s
 gsave  2268 1328 0 0 C 1783.41 1213.63 t 0 r /Helvetica-Bold findfont 42.7334 sf 0 0 m (188 kA) show NC gr  0.48 0 1 c /w 23 def /w2 {w 2 div} def /w3 {w 3 div} def 1743 1228 m21
 gr  gr showpage
end
%%EOF
