%!PS-Adobe-2.0 EPSF-2.0
%%BoundingBox:  0 0 567 332
%%Title: Horn2YTilt_far_summary.eps: Summary
%%Creator: ROOT Version 5.30/06
%%CreationDate: Sun Feb  2 09:35:35 2014
%%EndComments
%%BeginProlog
80 dict begin
/s {stroke} def /l {lineto} def /m {moveto} def /t {translate} def
/r {rotate} def /rl {roll}  def /R {repeat} def
/d {rlineto} def /rm {rmoveto} def /gr {grestore} def /f {eofill} def
/c {setrgbcolor} def /black {0 setgray} def /sd {setdash} def
/cl {closepath} def /sf {scalefont setfont} def /lw {setlinewidth} def
/box {m dup 0 exch d exch 0 d 0 exch neg d cl} def
/NC{systemdict begin initclip end}def/C{NC box clip newpath}def
/bl {box s} def /bf {box f} def /Y { 0 exch d} def /X { 0 d} def 
/K {{pop pop 0 moveto} exch kshow} bind def
/ita {/ang 15 def gsave [1 0 ang dup sin exch cos div 1 0 0] concat} def 
/mp {newpath /y exch def /x exch def} def
/side {[w .77 mul w .23 mul] .385 w mul sd w 0 l currentpoint t -144 r} def
/mr {mp x y w2 0 360 arc} def /m24 {mr s} def /m20 {mr f} def
/mb {mp x y w2 add m w2 neg 0 d 0 w neg d w 0 d 0 w d cl} def
/mt {mp x y w2 add m w2 neg w neg d w 0 d cl} def
/m21 {mb f} def /m25 {mb s} def /m22 {mt f} def /m26{mt s} def
/m23 {mp x y w2 sub m w2 w d w neg 0 d cl f} def
/m27 {mp x y w2 add m w3 neg w2 neg d w3 w2 neg d w3 w2 d cl s} def
/m28 {mp x w2 sub y w2 sub w3 add m w3 0 d  0 w3 neg d w3 0 d 0 w3 d w3 0 d  0 w3 d w3 neg 0 d 0 w3 d w3 neg 0 d 0 w3 neg d w3 neg 0 d cl s } def
/m29 {mp gsave x w2 sub y w2 add w3 sub m currentpoint t 4 {side} repeat cl fill gr} def
/m30 {mp gsave x w2 sub y w2 add w3 sub m currentpoint t 4 {side} repeat cl s gr} def
/m31 {mp x y w2 sub m 0 w d x w2 sub y m w 0 d x w2 sub y w2 add m w w neg d x w2 sub y w2 sub m w w d s} def
/m32 {mp x y w2 sub m w2 w d w neg 0 d cl s} def
/m33 {mp x y w2 add m w3 neg w2 neg d w3 w2 neg d w3 w2 d cl f} def
/m34 {mp x w2 sub y w2 sub w3 add m w3 0 d  0 w3 neg d w3 0 d 0 w3 d w3 0 d  0 w3 d w3 neg 0 d 0 w3 d w3 neg 0 d 0 w3 neg d w3 neg 0 d cl f } def
/m2 {mp x y w2 sub m 0 w d x w2 sub y m w 0 d s} def
/m5 {mp x w2 sub y w2 sub m w w d x w2 sub y w2 add m w w neg d s} def
/reEncode {exch findfont dup length dict begin {1 index /FID eq  {pop pop} {def} ifelse } forall /Encoding exch def currentdict end dup /FontName get exch definefont pop } def [/Times-Bold /Times-Italic /Times-BoldItalic /Helvetica /Helvetica-Oblique
 /Helvetica-Bold /Helvetica-BoldOblique /Courier /Courier-Oblique /Courier-Bold /Courier-BoldOblique /Times-Roman /AvantGarde-Book /AvantGarde-BookOblique /AvantGarde-Demi /AvantGarde-DemiOblique /Bookman-Demi /Bookman-DemiItalic /Bookman-Light
 /Bookman-LightItalic /Helvetica-Narrow /Helvetica-Narrow-Bold /Helvetica-Narrow-BoldOblique /Helvetica-Narrow-Oblique /NewCenturySchlbk-Roman /NewCenturySchlbk-Bold /NewCenturySchlbk-BoldItalic /NewCenturySchlbk-Italic /Palatino-Bold
 /Palatino-BoldItalic /Palatino-Italic /Palatino-Roman ] {ISOLatin1Encoding reEncode } forall%%EndProlog
%%BeginSetup
%%EndSetup
newpath  gsave  .25 .25 scale  gsave  0 0 t black[  ] 0 sd 3 lw 1 1 1 c 2268 1328 0 0 bf black 1 1 1 c black 1588 996 340 199 bl 1588 996 340 199 bl 1 1 1 c 1 0 0 c /w 23 def /w2 {w 2 div} def /w3 {w 3 div} def 380 351 m21 459 337 m21 539 346 m21 618
 342 m21 697 338 m21 777 330 m21 856 337 m21 935 341 m21 1015 337 m21 black 1094 333 m 3 Y s 1094 359 m 3 Y s 1088 333 m 12 X s 1088 362 m 12 X s 1 0 0 c 1094 348 m21 black 1174 359 m 7 Y s 1174 389 m 8 Y s 1168 359 m 11 X s 1168 397 m 11 X s 1 0 0 c
 1174 378 m21 black 1253 307 m 12 Y s 1253 342 m 13 Y s 1247 307 m 12 X s 1247 355 m 12 X s 1 0 0 c 1253 331 m21 black 1332 287 m 17 Y s 1332 327 m 18 Y s 1327 287 m 11 X s 1327 345 m 11 X s 1 0 0 c 1332 316 m21 black 1412 295 m 22 Y s 1412 340 m 23
 Y s 1406 295 m 11 X s 1406 363 m 11 X s 1 0 0 c 1412 329 m21 black 1491 362 m 28 Y s 1491 413 m 28 Y s 1485 362 m 12 X s 1485 441 m 12 X s 1 0 0 c 1491 401 m21 black 1570 306 m 31 Y s 1570 360 m 31 Y s 1565 306 m 11 X s 1565 391 m 11 X s 1 0 0 c
 1570 349 m21 black 1650 311 m 35 Y s 1650 369 m 34 Y s 1644 311 m 11 X s 1644 403 m 11 X s 1 0 0 c 1650 357 m21 black 1729 360 m 39 Y s 1729 422 m 38 Y s 1723 360 m 12 X s 1723 460 m 12 X s 1 0 0 c 1729 410 m21 black 1809 234 m 41 Y s 1809 298 m 41
 Y s 1803 234 m 11 X s 1803 339 m 11 X s 1 0 0 c 1809 287 m21 black 1888 321 m 46 Y s 1888 390 m 46 Y s 1882 321 m 12 X s 1882 436 m 12 X s 1 0 0 c 1888 378 m21 black 340 199 m 1588 X s
 gsave  2268 1328 0 0 C 954.378 68.3734 t 0 r /Helvetica findfont 62.6756 sf 0 0 m ( Energy \(GeV\) ) show NC gr 
 gsave  2268 1328 0 0 C 928.738 51.28 t 0 r /Symbol findfont 42.7334 sf 0 0 m (m) show NC gr 
 gsave  2268 1328 0 0 C 894.552 68.3734 t 0 r /Symbol findfont 62.6756 sf 0 0 m (n) show NC gr  340 216 m -17 Y s 372 208 m -9 Y s 404 208 m -9 Y s 435 208 m -9 Y s 467 208 m -9 Y s 499 216 m -17 Y s 531 208 m -9 Y s 562 208 m -9 Y s 594 208 m -9 Y s
 626 208 m -9 Y s 658 216 m -17 Y s 689 208 m -9 Y s 721 208 m -9 Y s 753 208 m -9 Y s 785 208 m -9 Y s 816 216 m -17 Y s 848 208 m -9 Y s 880 208 m -9 Y s 912 208 m -9 Y s 943 208 m -9 Y s 975 216 m -17 Y s 1007 208 m -9 Y s 1039 208 m -9 Y s 1070
 208 m -9 Y s 1102 208 m -9 Y s 1134 216 m -17 Y s 1166 208 m -9 Y s 1197 208 m -9 Y s 1229 208 m -9 Y s 1261 208 m -9 Y s 1293 216 m -17 Y s 1324 208 m -9 Y s 1356 208 m -9 Y s 1388 208 m -9 Y s 1420 208 m -9 Y s 1451 216 m -17 Y s 1483 208 m -9 Y s
 1515 208 m -9 Y s 1547 208 m -9 Y s 1578 208 m -9 Y s 1610 216 m -17 Y s 1642 208 m -9 Y s 1674 208 m -9 Y s 1705 208 m -9 Y s 1737 208 m -9 Y s 1769 216 m -17 Y s 1801 208 m -9 Y s 1832 208 m -9 Y s 1864 208 m -9 Y s 1896 208 m -9 Y s 1928 216 m
 -17 Y s
 gsave  2268 1328 0 0 C 319.076 136.747 t 0 r /Helvetica findfont 68.3734 sf 0 0 m (0) show NC gr 
 gsave  2268 1328 0 0 C 484.311 136.747 t 0 r /Helvetica findfont 68.3734 sf 0 0 m (1) show NC gr 
 gsave  2268 1328 0 0 C 635.302 136.747 t 0 r /Helvetica findfont 68.3734 sf 0 0 m (2) show NC gr 
 gsave  2268 1328 0 0 C 794.84 136.747 t 0 r /Helvetica findfont 68.3734 sf 0 0 m (3) show NC gr 
 gsave  2268 1328 0 0 C 954.378 136.747 t 0 r /Helvetica findfont 68.3734 sf 0 0 m (4) show NC gr 
 gsave  2268 1328 0 0 C 1113.92 136.747 t 0 r /Helvetica findfont 68.3734 sf 0 0 m (5) show NC gr 
 gsave  2268 1328 0 0 C 1270.6 136.747 t 0 r /Helvetica findfont 68.3734 sf 0 0 m (6) show NC gr 
 gsave  2268 1328 0 0 C 1430.14 136.747 t 0 r /Helvetica findfont 68.3734 sf 0 0 m (7) show NC gr 
 gsave  2268 1328 0 0 C 1589.68 136.747 t 0 r /Helvetica findfont 68.3734 sf 0 0 m (8) show NC gr 
 gsave  2268 1328 0 0 C 1746.37 136.747 t 0 r /Helvetica findfont 68.3734 sf 0 0 m (9) show NC gr 
 gsave  2268 1328 0 0 C 1888.81 136.747 t 0 r /Helvetica findfont 68.3734 sf 0 0 m (10) show NC gr  340 1195 m 1588 X s 340 1178 m 17 Y s 372 1186 m 9 Y s 404 1186 m 9 Y s 435 1186 m 9 Y s 467 1186 m 9 Y s 499 1178 m 17 Y s 531 1186 m 9 Y s 562 1186
 m 9 Y s 594 1186 m 9 Y s 626 1186 m 9 Y s 658 1178 m 17 Y s 689 1186 m 9 Y s 721 1186 m 9 Y s 753 1186 m 9 Y s 785 1186 m 9 Y s 816 1178 m 17 Y s 848 1186 m 9 Y s 880 1186 m 9 Y s 912 1186 m 9 Y s 943 1186 m 9 Y s 975 1178 m 17 Y s 1007 1186 m 9 Y s
 1039 1186 m 9 Y s 1070 1186 m 9 Y s 1102 1186 m 9 Y s 1134 1178 m 17 Y s 1166 1186 m 9 Y s 1197 1186 m 9 Y s 1229 1186 m 9 Y s 1261 1186 m 9 Y s 1293 1178 m 17 Y s 1324 1186 m 9 Y s 1356 1186 m 9 Y s 1388 1186 m 9 Y s 1420 1186 m 9 Y s 1451 1178 m
 17 Y s 1483 1186 m 9 Y s 1515 1186 m 9 Y s 1547 1186 m 9 Y s 1578 1186 m 9 Y s 1610 1178 m 17 Y s 1642 1186 m 9 Y s 1674 1186 m 9 Y s 1705 1186 m 9 Y s 1737 1186 m 9 Y s 1769 1178 m 17 Y s 1801 1186 m 9 Y s 1832 1186 m 9 Y s 1864 1186 m 9 Y s 1896
 1186 m 9 Y s 1928 1178 m 17 Y s 340 199 m 996 Y s
 gsave  2268 1328 0 0 C 170.933 427.334 t 90 r /Helvetica findfont 62.6756 sf 0 0 m (Far Flux to Nominal) show NC gr  371 199 m -31 X s 355 228 m -15 X s 355 256 m -15 X s 355 284 m -15 X s 355 313 m -15 X s 371 341 m -31 X s 355 370 m -15 X s 355
 398 m -15 X s 355 427 m -15 X s 355 455 m -15 X s 371 484 m -31 X s 355 512 m -15 X s 355 541 m -15 X s 355 569 m -15 X s 355 597 m -15 X s 371 626 m -31 X s 355 654 m -15 X s 355 683 m -15 X s 355 711 m -15 X s 355 740 m -15 X s 371 768 m -31 X s
 355 797 m -15 X s 355 825 m -15 X s 355 853 m -15 X s 355 882 m -15 X s 371 910 m -31 X s 355 939 m -15 X s 355 967 m -15 X s 355 996 m -15 X s 355 1024 m -15 X s 371 1053 m -31 X s 355 1081 m -15 X s 355 1109 m -15 X s 355 1138 m -15 X s 355 1166 m
 -15 X s 371 1195 m -31 X s 371 199 m -31 X s
 gsave  2268 1328 0 0 C 196.573 173.782 t 0 r /Helvetica findfont 68.3734 sf 0 0 m (0.95) show NC gr 
 gsave  2268 1328 0 0 C 301.982 313.378 t 0 r /Helvetica findfont 68.3734 sf 0 0 m (1) show NC gr 
 gsave  2268 1328 0 0 C 196.573 458.671 t 0 r /Helvetica findfont 68.3734 sf 0 0 m (1.05) show NC gr 
 gsave  2268 1328 0 0 C 245.005 598.267 t 0 r /Helvetica findfont 68.3734 sf 0 0 m (1.1) show NC gr 
 gsave  2268 1328 0 0 C 196.573 743.56 t 0 r /Helvetica findfont 68.3734 sf 0 0 m (1.15) show NC gr 
 gsave  2268 1328 0 0 C 233.609 883.156 t 0 r /Helvetica findfont 68.3734 sf 0 0 m (1.2) show NC gr 
 gsave  2268 1328 0 0 C 196.573 1028.45 t 0 r /Helvetica findfont 68.3734 sf 0 0 m (1.25) show NC gr 
 gsave  2268 1328 0 0 C 233.609 1170.89 t 0 r /Helvetica findfont 68.3734 sf 0 0 m (1.3) show NC gr  1928 199 m 996 Y s 1897 199 m 31 X s 1912 228 m 16 X s 1912 256 m 16 X s 1912 284 m 16 X s 1912 313 m 16 X s 1897 341 m 31 X s 1912 370 m 16 X s 1912
 398 m 16 X s 1912 427 m 16 X s 1912 455 m 16 X s 1897 484 m 31 X s 1912 512 m 16 X s 1912 541 m 16 X s 1912 569 m 16 X s 1912 597 m 16 X s 1897 626 m 31 X s 1912 654 m 16 X s 1912 683 m 16 X s 1912 711 m 16 X s 1912 740 m 16 X s 1897 768 m 31 X s
 1912 797 m 16 X s 1912 825 m 16 X s 1912 853 m 16 X s 1912 882 m 16 X s 1897 910 m 31 X s 1912 939 m 16 X s 1912 967 m 16 X s 1912 996 m 16 X s 1912 1024 m 16 X s 1897 1053 m 31 X s 1912 1081 m 16 X s 1912 1109 m 16 X s 1912 1138 m 16 X s 1912 1166
 m 16 X s 1897 1195 m 31 X s 1897 199 m 31 X s 1 0 0 c 6 lw 1 1 1 c 1 0 0 c 380 341 m 27 X 23 1 d 45 X 55 -1 d 23 X 21 1 d 143 X 52 -1 d 331 X 6 1 d 8 1 d 9 1 d 19 2 d 8 1 d 7 X 6 1 d 27 X 7 -1 d 9 -1 d 29 -3 d 6 X 6 -1 d 46 X 16 1 d 23 X 12 1 d 13 X
 36 2 d 13 X 6 1 d 33 1 d 60 X 10 -1 d 31 -2 d 42 X 7 1 d 13 1 d 13 2 d 7 X 7 1 d 37 X 9 -1 d 7 X 10 -1 d 11 -1 d 14 -2 d 6 X 5 -1 d 4 -1 d 5 -1 d 6 -1 d 27 -7 d 5 -1 d 4 X 4 -1 d 3 X 4 -1 d 10 X 3 1 d 4 X 4 1 d 5 X 5 1 d 4 1 d 5 1 d 4 1 d 4 2 d 4 1
 d 3 2 d 4 1 d 3 2 d 4 1 d 3 2 d 3 2 d 3 2 d 3 2 d 2 2 d 3 3 d 2 2 d 2 2 d 1 2 d 2 3 d 1 2 d 1 2 d s 3 lw /w 2 def /w2 {w 2 div} def /w3 {w 3 div} def 380 341 459 342 539 341 618 342 697 342 777 341 856 341 935 341 1015 341 1094 341 1174 348 1253 342
 1332 343 1412 347 1491 348 1570 345 1650 350 1729 345 1809 332 1888 372 20 { m20} R 6 lw black 1 0 0 c
 gsave  2268 1328 0 0 C 2036.96 450.125 t 0 r /Helvetica-Bold findfont 48.4311 sf 0 0 m (/dof=0.8) show NC gr  black 1 0 0 c
 gsave  2268 1328 0 0 C 2017.01 467.218 t 0 r /Helvetica-Bold findfont 34.1867 sf 0 0 m (2) show NC gr  black 1 0 0 c
 gsave  2268 1328 0 0 C 1991.37 450.125 t 0 r /Symbol findfont 48.4311 sf 0 0 m (c) show NC gr  black 3 lw 340 341 m 1588 X s
 gsave  2268 1328 0 0 C 575.476 1213.63 t 0 r /Helvetica-Bold findfont 42.7334 sf 0 0 m (0.5 mm) show NC gr  1 0 0 c /w 23 def /w2 {w 2 div} def /w3 {w 3 div} def 534 1228 m21 black 1 1 1 c 0 0 1 c 380 631 m21 459 619 m21 539 628 m21 618 635 m21 697
 633 m21 777 638 m21 856 629 m21 935 642 m21 black 1015 618 m 1 Y s 1015 642 m 1 Y s 1009 618 m 12 X s 1009 643 m 12 X s 0 0 1 c 1015 631 m21 black 1094 611 m 5 Y s 1094 639 m 5 Y s 1088 611 m 12 X s 1088 644 m 12 X s 0 0 1 c 1094 628 m21 black 1174
 648 m 10 Y s 1174 680 m 10 Y s 1168 648 m 11 X s 1168 690 m 11 X s 0 0 1 c 1174 669 m21 black 1253 598 m 14 Y s 1253 635 m 15 Y s 1247 598 m 12 X s 1247 650 m 12 X s 0 0 1 c 1253 624 m21 black 1332 606 m 20 Y s 1332 649 m 20 Y s 1327 606 m 11 X s
 1327 669 m 11 X s 0 0 1 c 1332 637 m21 black 1412 640 m 27 Y s 1412 690 m 26 Y s 1406 640 m 11 X s 1406 716 m 11 X s 0 0 1 c 1412 678 m21 black 1491 582 m 31 Y s 1491 636 m 31 Y s 1485 582 m 12 X s 1485 667 m 12 X s 0 0 1 c 1491 625 m21 black 1570
 555 m 35 Y s 1570 613 m 35 Y s 1565 555 m 11 X s 1565 648 m 11 X s 0 0 1 c 1570 602 m21 black 1650 599 m 39 Y s 1650 661 m 39 Y s 1644 599 m 11 X s 1644 700 m 11 X s 0 0 1 c 1650 649 m21 black 1729 526 m 42 Y s 1729 591 m 42 Y s 1723 526 m 12 X s
 1723 633 m 12 X s 0 0 1 c 1729 580 m21 black 1809 502 m 46 Y s 1809 571 m 46 Y s 1803 502 m 11 X s 1803 617 m 11 X s 0 0 1 c 1809 560 m21 black 1888 642 m 53 Y s 1888 717 m 53 Y s 1882 642 m 12 X s 1882 770 m 12 X s 0 0 1 c 1888 706 m21 6 lw 1 1 1 c
 0 0 1 c 380 625 m 17 1 d 17 X 17 1 d 39 X 51 -2 d 10 -1 d 19 X 15 1 d 22 1 d 20 1 d 11 1 d 36 1 d 54 X 69 -5 d 29 X 41 1 d 88 X 80 -1 d 12 X 35 -1 d 11 1 d 16 X 5 1 d 6 1 d 6 1 d 8 1 d 9 2 d 20 6 d 8 2 d 7 1 d 5 1 d 6 X 5 1 d 5 X 5 -1 d 6 X 63 -10 d
 27 X 12 1 d 27 2 d 13 1 d 80 3 d 27 2 d 27 1 d 15 1 d 38 X 30 -1 d 30 X 11 1 d 19 2 d 17 2 d 8 X 8 1 d 41 X 11 -1 d 8 -1 d 7 X 7 -1 d 7 -2 d 6 -1 d 4 -1 d 4 -2 d 4 -2 d 5 -2 d 5 -3 d 6 -4 d 15 -11 d 6 -3 d 4 -2 d 4 -2 d 3 -1 d 4 -2 d 3 X 3 -1 d 10 X
 4 1 d 4 1 d 4 1 d 5 2 d 4 2 d 5 2 d 4 3 d 4 2 d 4 3 d 4 3 d 3 4 d 4 3 d 3 4 d 3 3 d 3 4 d 3 5 d 3 4 d 3 5 d 2 5 d 2 5 d 2 5 d 2 4 d 1 5 d 1 5 d 1 5 d 1 3 d s 3 lw /w 2 def /w2 {w 2 div} def /w3 {w 3 div} def 380 625 459 627 539 624 618 628 697 629
 777 624 856 625 935 625 1015 624 1094 625 1174 641 1253 630 1332 634 1412 637 1491 641 1570 640 1650 646 1729 640 1809 604 1888 693 20 { m20} R 6 lw black 0 0 1 c
 gsave  2268 1328 0 0 C 2036.96 780.596 t 0 r /Helvetica-Bold findfont 48.4311 sf 0 0 m (/dof=0.8) show NC gr  black 0 0 1 c
 gsave  2268 1328 0 0 C 2017.01 797.689 t 0 r /Helvetica-Bold findfont 34.1867 sf 0 0 m (2) show NC gr  black 0 0 1 c
 gsave  2268 1328 0 0 C 1991.37 780.596 t 0 r /Symbol findfont 48.4311 sf 0 0 m (c) show NC gr  black 3 lw 340 626 m 1588 X s
 gsave  2268 1328 0 0 C 1179.44 1213.63 t 0 r /Helvetica-Bold findfont 39.8845 sf 0 0 m (1 mm) show NC gr  0 0 1 c /w 23 def /w2 {w 2 div} def /w3 {w 3 div} def 1139 1228 m21 black 1 1 1 c 1 0 1 c 380 902 m21 459 919 m21 539 902 m21 618 911 m21 697
 924 m21 777 902 m21 856 909 m21 935 902 m21 black 1015 889 m 2 Y s 1015 913 m 2 Y s 1009 889 m 12 X s 1009 915 m 12 X s 1 0 1 c 1015 902 m21 black 1094 887 m 6 Y s 1094 916 m 6 Y s 1088 887 m 12 X s 1088 922 m 12 X s 1 0 1 c 1094 904 m21 black 1174
 895 m 12 Y s 1174 930 m 11 Y s 1168 895 m 11 X s 1168 941 m 11 X s 1 0 1 c 1174 918 m21 black 1253 901 m 17 Y s 1253 941 m 17 Y s 1247 901 m 12 X s 1247 958 m 12 X s 1 0 1 c 1253 930 m21 black 1332 912 m 24 Y s 1332 959 m 23 Y s 1327 912 m 11 X s
 1327 982 m 11 X s 1 0 1 c 1332 947 m21 black 1412 878 m 30 Y s 1412 931 m 29 Y s 1406 878 m 11 X s 1406 960 m 11 X s 1 0 1 c 1412 919 m21 black 1491 890 m 36 Y s 1491 948 m 36 Y s 1485 890 m 12 X s 1485 984 m 12 X s 1 0 1 c 1491 937 m21 black 1570
 931 m 40 Y s 1570 994 m 40 Y s 1565 931 m 11 X s 1565 1034 m 11 X s 1 0 1 c 1570 982 m21 black 1650 894 m 44 Y s 1650 961 m 45 Y s 1644 894 m 11 X s 1644 1006 m 11 X s 1 0 1 c 1650 950 m21 black 1729 924 m 49 Y s 1729 995 m 49 Y s 1723 924 m 12 X s
 1723 1044 m 12 X s 1 0 1 c 1729 984 m21 black 1809 838 m 52 Y s 1809 913 m 52 Y s 1803 838 m 11 X s 1803 965 m 11 X s 1 0 1 c 1809 902 m21 black 1888 978 m 59 Y s 1888 1060 m 58 Y s 1882 978 m 12 X s 1882 1118 m 12 X s 1 0 1 c 1888 1048 m21 6 lw 1 1
 1 c 1 0 1 c 380 905 m 12 3 d 12 3 d 13 2 d 14 2 d 11 1 d 25 X 9 -1 d 11 -3 d 31 -7 d 8 -1 d 8 -1 d 14 X 11 1 d 13 2 d 22 5 d 17 3 d 7 1 d 12 2 d 31 5 d 12 2 d 8 1 d 16 X 7 -1 d 8 -1 d 10 -3 d 18 -6 d 14 -5 d 8 -2 d 8 -2 d 7 -1 d 18 X 11 1 d 18 2 d
 18 2 d 32 X 61 -2 d 58 -3 d 22 -1 d 21 X 18 -1 d 13 X 9 1 d 8 1 d 8 1 d 2 1 d 6 1 d 6 3 d 8 4 d 9 5 d 20 11 d 8 5 d 7 3 d 6 2 d 5 2 d 5 X 5 1 d 6 X 6 -1 d 8 -2 d 9 -2 d 24 -8 d 7 -1 d 6 -1 d 6 -1 d 2 X 6 1 d 8 1 d 8 2 d 12 4 d 20 6 d 8 2 d 7 2 d 7 1
 d 19 X 64 -10 d 29 X 13 1 d 14 2 d 12 2 d 11 2 d 7 2 d 8 3 d 10 4 d 23 11 d 10 4 d 7 2 d 6 2 d 6 1 d 8 X 6 -1 d 7 -1 d 9 -2 d 16 -6 d 11 -4 d 8 -2 d 6 -1 d 6 -1 d 10 X 5 1 d 6 2 d 7 3 d 17 8 d 8 3 d 6 2 d 6 1 d 5 1 d 4 -1 d 4 X 4 -2 d 2 -1 d 3 -1 d
 3 -3 d 3 -3 d 4 -4 d 3 -5 d 4 -6 d 4 -7 d 5 -10 d 15 -31 d 5 -9 d 4 -8 d 4 -6 d 3 -4 d 3 -4 d 3 -2 d 2 -2 d 3 -2 d 3 -1 d 6 X 4 1 d 4 2 d 4 2 d 4 3 d 4 3 d 5 5 d 4 5 d 4 5 d 4 6 d 4 6 d 4 7 d 3 7 d 3 7 d 3 8 d 3 8 d 3 9 d 3 9 d 3 10 d 2 9 d 2 10 d 2
 11 d 2 9 d 1 12 d 2 10 d 1 11 d 10 Y 1 9 d s 3 lw /w 2 def /w2 {w 2 div} def /w3 {w 3 div} def 380 905 459 916 539 903 618 915 697 925 777 904 856 909 935 907 1015 903 1094 906 1174 942 1253 927 1332 946 1412 936 1491 943 1570 972 1650 954 1729 971
 1809 863 1888 1057 20 { m20} R 6 lw black 1 0 1 c
 gsave  2268 1328 0 0 C 2039.81 1113.92 t 0 r /Helvetica-Bold findfont 48.4311 sf 0 0 m (/dof=0.1) show NC gr  black 1 0 1 c
 gsave  2268 1328 0 0 C 2019.86 1131.01 t 0 r /Helvetica-Bold findfont 34.1867 sf 0 0 m (2) show NC gr  black 1 0 1 c
 gsave  2268 1328 0 0 C 1994.22 1113.92 t 0 r /Symbol findfont 48.4311 sf 0 0 m (c) show NC gr  black 3 lw 340 910 m 1588 X s
 gsave  2268 1328 0 0 C 1783.41 1213.63 t 0 r /Helvetica-Bold findfont 39.8845 sf 0 0 m (2 mm) show NC gr  1 0 1 c /w 23 def /w2 {w 2 div} def /w3 {w 3 div} def 1743 1228 m21
 gr  gr showpage
end
%%EOF
