%!PS-Adobe-2.0 EPSF-2.0
%%BoundingBox:  0 0 567 332
%%Title: Horn1YOffset_far_summary.eps: Summary
%%Creator: ROOT Version 5.30/06
%%CreationDate: Sun Feb  2 09:35:13 2014
%%EndComments
%%BeginProlog
80 dict begin
/s {stroke} def /l {lineto} def /m {moveto} def /t {translate} def
/r {rotate} def /rl {roll}  def /R {repeat} def
/d {rlineto} def /rm {rmoveto} def /gr {grestore} def /f {eofill} def
/c {setrgbcolor} def /black {0 setgray} def /sd {setdash} def
/cl {closepath} def /sf {scalefont setfont} def /lw {setlinewidth} def
/box {m dup 0 exch d exch 0 d 0 exch neg d cl} def
/NC{systemdict begin initclip end}def/C{NC box clip newpath}def
/bl {box s} def /bf {box f} def /Y { 0 exch d} def /X { 0 d} def 
/K {{pop pop 0 moveto} exch kshow} bind def
/ita {/ang 15 def gsave [1 0 ang dup sin exch cos div 1 0 0] concat} def 
/mp {newpath /y exch def /x exch def} def
/side {[w .77 mul w .23 mul] .385 w mul sd w 0 l currentpoint t -144 r} def
/mr {mp x y w2 0 360 arc} def /m24 {mr s} def /m20 {mr f} def
/mb {mp x y w2 add m w2 neg 0 d 0 w neg d w 0 d 0 w d cl} def
/mt {mp x y w2 add m w2 neg w neg d w 0 d cl} def
/m21 {mb f} def /m25 {mb s} def /m22 {mt f} def /m26{mt s} def
/m23 {mp x y w2 sub m w2 w d w neg 0 d cl f} def
/m27 {mp x y w2 add m w3 neg w2 neg d w3 w2 neg d w3 w2 d cl s} def
/m28 {mp x w2 sub y w2 sub w3 add m w3 0 d  0 w3 neg d w3 0 d 0 w3 d w3 0 d  0 w3 d w3 neg 0 d 0 w3 d w3 neg 0 d 0 w3 neg d w3 neg 0 d cl s } def
/m29 {mp gsave x w2 sub y w2 add w3 sub m currentpoint t 4 {side} repeat cl fill gr} def
/m30 {mp gsave x w2 sub y w2 add w3 sub m currentpoint t 4 {side} repeat cl s gr} def
/m31 {mp x y w2 sub m 0 w d x w2 sub y m w 0 d x w2 sub y w2 add m w w neg d x w2 sub y w2 sub m w w d s} def
/m32 {mp x y w2 sub m w2 w d w neg 0 d cl s} def
/m33 {mp x y w2 add m w3 neg w2 neg d w3 w2 neg d w3 w2 d cl f} def
/m34 {mp x w2 sub y w2 sub w3 add m w3 0 d  0 w3 neg d w3 0 d 0 w3 d w3 0 d  0 w3 d w3 neg 0 d 0 w3 d w3 neg 0 d 0 w3 neg d w3 neg 0 d cl f } def
/m2 {mp x y w2 sub m 0 w d x w2 sub y m w 0 d s} def
/m5 {mp x w2 sub y w2 sub m w w d x w2 sub y w2 add m w w neg d s} def
/reEncode {exch findfont dup length dict begin {1 index /FID eq  {pop pop} {def} ifelse } forall /Encoding exch def currentdict end dup /FontName get exch definefont pop } def [/Times-Bold /Times-Italic /Times-BoldItalic /Helvetica /Helvetica-Oblique
 /Helvetica-Bold /Helvetica-BoldOblique /Courier /Courier-Oblique /Courier-Bold /Courier-BoldOblique /Times-Roman /AvantGarde-Book /AvantGarde-BookOblique /AvantGarde-Demi /AvantGarde-DemiOblique /Bookman-Demi /Bookman-DemiItalic /Bookman-Light
 /Bookman-LightItalic /Helvetica-Narrow /Helvetica-Narrow-Bold /Helvetica-Narrow-BoldOblique /Helvetica-Narrow-Oblique /NewCenturySchlbk-Roman /NewCenturySchlbk-Bold /NewCenturySchlbk-BoldItalic /NewCenturySchlbk-Italic /Palatino-Bold
 /Palatino-BoldItalic /Palatino-Italic /Palatino-Roman ] {ISOLatin1Encoding reEncode } forall%%EndProlog
%%BeginSetup
%%EndSetup
newpath  gsave  .25 .25 scale  gsave  0 0 t black[  ] 0 sd 3 lw 1 1 1 c 2268 1328 0 0 bf black 1 1 1 c black 1588 996 340 199 bl 1588 996 340 199 bl 1 1 1 c 1 0 0 c /w 23 def /w2 {w 2 div} def /w3 {w 3 div} def 380 310 m21 459 308 m21 539 308 m21 618
 301 m21 697 306 m21 777 308 m21 856 315 m21 935 307 m21 1015 309 m21 black 1094 293 m s 1094 315 m 1 Y s 1088 293 m 12 X s 1088 316 m 12 X s 1 0 0 c 1094 304 m21 black 1174 293 m 3 Y s 1174 319 m 3 Y s 1168 293 m 11 X s 1168 322 m 11 X s 1 0 0 c
 1174 308 m21 black 1253 298 m 7 Y s 1253 328 m 7 Y s 1247 298 m 12 X s 1247 335 m 12 X s 1 0 0 c 1253 316 m21 black 1332 303 m 11 Y s 1332 337 m 11 Y s 1327 303 m 11 X s 1327 348 m 11 X s 1 0 0 c 1332 326 m21 black 1412 287 m 15 Y s 1412 325 m 15 Y
 s 1406 287 m 11 X s 1406 340 m 11 X s 1 0 0 c 1412 314 m21 black 1491 323 m 19 Y s 1491 365 m 19 Y s 1485 323 m 12 X s 1485 384 m 12 X s 1 0 0 c 1491 354 m21 black 1570 252 m 21 Y s 1570 296 m 21 Y s 1565 252 m 11 X s 1565 317 m 11 X s 1 0 0 c 1570
 284 m21 black 1650 242 m 24 Y s 1650 289 m 24 Y s 1644 242 m 11 X s 1644 313 m 11 X s 1 0 0 c 1650 278 m21 black 1729 210 m 27 Y s 1729 260 m 26 Y s 1723 210 m 12 X s 1723 286 m 12 X s 1 0 0 c 1729 248 m21 black 1809 305 m 31 Y s 1809 358 m 31 Y s
 1803 305 m 11 X s 1803 389 m 11 X s 1 0 0 c 1809 347 m21 black 1888 319 m 34 Y s 1888 376 m 33 Y s 1882 319 m 12 X s 1882 409 m 12 X s 1 0 0 c 1888 364 m21 black 340 199 m 1588 X s
 gsave  2268 1328 0 0 C 954.378 68.3734 t 0 r /Helvetica findfont 62.6756 sf 0 0 m ( Energy \(GeV\) ) show NC gr 
 gsave  2268 1328 0 0 C 928.738 51.28 t 0 r /Symbol findfont 42.7334 sf 0 0 m (m) show NC gr 
 gsave  2268 1328 0 0 C 894.552 68.3734 t 0 r /Symbol findfont 62.6756 sf 0 0 m (n) show NC gr  340 216 m -17 Y s 372 208 m -9 Y s 404 208 m -9 Y s 435 208 m -9 Y s 467 208 m -9 Y s 499 216 m -17 Y s 531 208 m -9 Y s 562 208 m -9 Y s 594 208 m -9 Y s
 626 208 m -9 Y s 658 216 m -17 Y s 689 208 m -9 Y s 721 208 m -9 Y s 753 208 m -9 Y s 785 208 m -9 Y s 816 216 m -17 Y s 848 208 m -9 Y s 880 208 m -9 Y s 912 208 m -9 Y s 943 208 m -9 Y s 975 216 m -17 Y s 1007 208 m -9 Y s 1039 208 m -9 Y s 1070
 208 m -9 Y s 1102 208 m -9 Y s 1134 216 m -17 Y s 1166 208 m -9 Y s 1197 208 m -9 Y s 1229 208 m -9 Y s 1261 208 m -9 Y s 1293 216 m -17 Y s 1324 208 m -9 Y s 1356 208 m -9 Y s 1388 208 m -9 Y s 1420 208 m -9 Y s 1451 216 m -17 Y s 1483 208 m -9 Y s
 1515 208 m -9 Y s 1547 208 m -9 Y s 1578 208 m -9 Y s 1610 216 m -17 Y s 1642 208 m -9 Y s 1674 208 m -9 Y s 1705 208 m -9 Y s 1737 208 m -9 Y s 1769 216 m -17 Y s 1801 208 m -9 Y s 1832 208 m -9 Y s 1864 208 m -9 Y s 1896 208 m -9 Y s 1928 216 m
 -17 Y s
 gsave  2268 1328 0 0 C 319.076 136.747 t 0 r /Helvetica findfont 68.3734 sf 0 0 m (0) show NC gr 
 gsave  2268 1328 0 0 C 484.311 136.747 t 0 r /Helvetica findfont 68.3734 sf 0 0 m (1) show NC gr 
 gsave  2268 1328 0 0 C 635.302 136.747 t 0 r /Helvetica findfont 68.3734 sf 0 0 m (2) show NC gr 
 gsave  2268 1328 0 0 C 794.84 136.747 t 0 r /Helvetica findfont 68.3734 sf 0 0 m (3) show NC gr 
 gsave  2268 1328 0 0 C 954.378 136.747 t 0 r /Helvetica findfont 68.3734 sf 0 0 m (4) show NC gr 
 gsave  2268 1328 0 0 C 1113.92 136.747 t 0 r /Helvetica findfont 68.3734 sf 0 0 m (5) show NC gr 
 gsave  2268 1328 0 0 C 1270.6 136.747 t 0 r /Helvetica findfont 68.3734 sf 0 0 m (6) show NC gr 
 gsave  2268 1328 0 0 C 1430.14 136.747 t 0 r /Helvetica findfont 68.3734 sf 0 0 m (7) show NC gr 
 gsave  2268 1328 0 0 C 1589.68 136.747 t 0 r /Helvetica findfont 68.3734 sf 0 0 m (8) show NC gr 
 gsave  2268 1328 0 0 C 1746.37 136.747 t 0 r /Helvetica findfont 68.3734 sf 0 0 m (9) show NC gr 
 gsave  2268 1328 0 0 C 1888.81 136.747 t 0 r /Helvetica findfont 68.3734 sf 0 0 m (10) show NC gr  340 1195 m 1588 X s 340 1178 m 17 Y s 372 1186 m 9 Y s 404 1186 m 9 Y s 435 1186 m 9 Y s 467 1186 m 9 Y s 499 1178 m 17 Y s 531 1186 m 9 Y s 562 1186
 m 9 Y s 594 1186 m 9 Y s 626 1186 m 9 Y s 658 1178 m 17 Y s 689 1186 m 9 Y s 721 1186 m 9 Y s 753 1186 m 9 Y s 785 1186 m 9 Y s 816 1178 m 17 Y s 848 1186 m 9 Y s 880 1186 m 9 Y s 912 1186 m 9 Y s 943 1186 m 9 Y s 975 1178 m 17 Y s 1007 1186 m 9 Y s
 1039 1186 m 9 Y s 1070 1186 m 9 Y s 1102 1186 m 9 Y s 1134 1178 m 17 Y s 1166 1186 m 9 Y s 1197 1186 m 9 Y s 1229 1186 m 9 Y s 1261 1186 m 9 Y s 1293 1178 m 17 Y s 1324 1186 m 9 Y s 1356 1186 m 9 Y s 1388 1186 m 9 Y s 1420 1186 m 9 Y s 1451 1178 m
 17 Y s 1483 1186 m 9 Y s 1515 1186 m 9 Y s 1547 1186 m 9 Y s 1578 1186 m 9 Y s 1610 1178 m 17 Y s 1642 1186 m 9 Y s 1674 1186 m 9 Y s 1705 1186 m 9 Y s 1737 1186 m 9 Y s 1769 1178 m 17 Y s 1801 1186 m 9 Y s 1832 1186 m 9 Y s 1864 1186 m 9 Y s 1896
 1186 m 9 Y s 1928 1178 m 17 Y s 340 199 m 996 Y s
 gsave  2268 1328 0 0 C 170.933 427.334 t 90 r /Helvetica findfont 62.6756 sf 0 0 m (Far Flux to Nominal) show NC gr  371 199 m -31 X s 355 221 m -15 X s 355 243 m -15 X s 355 266 m -15 X s 355 288 m -15 X s 371 310 m -31 X s 355 332 m -15 X s 355
 354 m -15 X s 355 376 m -15 X s 355 398 m -15 X s 371 420 m -31 X s 355 443 m -15 X s 355 465 m -15 X s 355 487 m -15 X s 355 509 m -15 X s 371 531 m -31 X s 355 553 m -15 X s 355 575 m -15 X s 355 597 m -15 X s 355 620 m -15 X s 371 642 m -31 X s
 355 664 m -15 X s 355 686 m -15 X s 355 708 m -15 X s 355 730 m -15 X s 371 752 m -31 X s 355 774 m -15 X s 355 797 m -15 X s 355 819 m -15 X s 355 841 m -15 X s 371 863 m -31 X s 355 885 m -15 X s 355 907 m -15 X s 355 929 m -15 X s 355 951 m -15 X
 s 371 974 m -31 X s 355 996 m -15 X s 355 1018 m -15 X s 355 1040 m -15 X s 355 1062 m -15 X s 371 1084 m -31 X s 355 1106 m -15 X s 355 1128 m -15 X s 355 1151 m -15 X s 355 1173 m -15 X s 371 1195 m -31 X s 371 199 m -31 X s 371 1195 m -31 X s
 gsave  2268 1328 0 0 C 196.573 173.782 t 0 r /Helvetica findfont 68.3734 sf 0 0 m (0.95) show NC gr 
 gsave  2268 1328 0 0 C 301.982 282.04 t 0 r /Helvetica findfont 68.3734 sf 0 0 m (1) show NC gr 
 gsave  2268 1328 0 0 C 196.573 395.996 t 0 r /Helvetica findfont 68.3734 sf 0 0 m (1.05) show NC gr 
 gsave  2268 1328 0 0 C 245.005 504.254 t 0 r /Helvetica findfont 68.3734 sf 0 0 m (1.1) show NC gr 
 gsave  2268 1328 0 0 C 196.573 618.209 t 0 r /Helvetica findfont 68.3734 sf 0 0 m (1.15) show NC gr 
 gsave  2268 1328 0 0 C 233.609 726.467 t 0 r /Helvetica findfont 68.3734 sf 0 0 m (1.2) show NC gr 
 gsave  2268 1328 0 0 C 196.573 837.574 t 0 r /Helvetica findfont 68.3734 sf 0 0 m (1.25) show NC gr 
 gsave  2268 1328 0 0 C 233.609 948.68 t 0 r /Helvetica findfont 68.3734 sf 0 0 m (1.3) show NC gr 
 gsave  2268 1328 0 0 C 196.573 1059.79 t 0 r /Helvetica findfont 68.3734 sf 0 0 m (1.35) show NC gr 
 gsave  2268 1328 0 0 C 233.609 1168.04 t 0 r /Helvetica findfont 68.3734 sf 0 0 m (1.4) show NC gr  1928 199 m 996 Y s 1897 199 m 31 X s 1912 221 m 16 X s 1912 243 m 16 X s 1912 266 m 16 X s 1912 288 m 16 X s 1897 310 m 31 X s 1912 332 m 16 X s 1912
 354 m 16 X s 1912 376 m 16 X s 1912 398 m 16 X s 1897 420 m 31 X s 1912 443 m 16 X s 1912 465 m 16 X s 1912 487 m 16 X s 1912 509 m 16 X s 1897 531 m 31 X s 1912 553 m 16 X s 1912 575 m 16 X s 1912 597 m 16 X s 1912 620 m 16 X s 1897 642 m 31 X s
 1912 664 m 16 X s 1912 686 m 16 X s 1912 708 m 16 X s 1912 730 m 16 X s 1897 752 m 31 X s 1912 774 m 16 X s 1912 797 m 16 X s 1912 819 m 16 X s 1912 841 m 16 X s 1897 863 m 31 X s 1912 885 m 16 X s 1912 907 m 16 X s 1912 929 m 16 X s 1912 951 m 16 X
 s 1897 974 m 31 X s 1912 996 m 16 X s 1912 1018 m 16 X s 1912 1040 m 16 X s 1912 1062 m 16 X s 1897 1084 m 31 X s 1912 1106 m 16 X s 1912 1128 m 16 X s 1912 1151 m 16 X s 1912 1173 m 16 X s 1897 1195 m 31 X s 1897 199 m 31 X s 1897 1195 m 31 X s 1 0
 0 c 6 lw 1 1 1 c 1 0 0 c 380 310 m 12 X 14 -1 d 40 X 13 -1 d 9 X 11 1 d 41 X 12 1 d 165 X 80 -1 d 97 X 11 -1 d 26 -2 d 14 X 10 -1 d 9 X 22 -1 d 11 -1 d 9 X 6 -1 d 23 X 4 1 d 10 X 5 1 d 6 X 7 1 d 12 2 d 11 2 d 7 X 6 1 d 5 1 d 6 X 7 1 d 16 X 10 1 d 47
 X 6 1 d 8 X 20 -1 d 24 X 6 1 d 9 X 5 1 d 8 X 3 1 d 4 1 d 4 X 4 1 d 6 2 d 14 4 d 6 1 d 4 1 d 4 1 d 3 1 d 3 X 3 1 d 24 X 3 -1 d 3 X 3 -1 d 61 -15 d 5 X 5 -1 d 17 X 7 -1 d 24 X 14 1 d 17 X 6 1 d 7 X 9 1 d 16 1 d 8 1 d 6 X 6 1 d 28 X 7 -1 d 56 -3 d 10 X
 13 -1 d 56 X 6 -1 d 13 X 24 -2 d 37 X 5 1 d 5 X 5 1 d 5 1 d 4 X 5 1 d 4 1 d 5 1 d 4 1 d 5 1 d 4 2 d 4 1 d 4 1 d 4 1 d 3 2 d 4 1 d 3 2 d 3 1 d 3 2 d s 3 lw /w 2 def /w2 {w 2 div} def /w3 {w 3 div} def 380 310 459 308 539 310 618 310 697 310 777 309
 856 309 935 305 1015 302 1094 311 1174 313 1253 315 1332 329 1412 312 1491 311 1570 316 1650 312 1729 311 1809 308 1888 329 20 { m20} R 6 lw black 1 0 0 c
 gsave  2268 1328 0 0 C 2036.96 364.658 t 0 r /Helvetica-Bold findfont 48.4311 sf 0 0 m (/dof=0.7) show NC gr  black 1 0 0 c
 gsave  2268 1328 0 0 C 2017.01 381.751 t 0 r /Helvetica-Bold findfont 34.1867 sf 0 0 m (2) show NC gr  black 1 0 0 c
 gsave  2268 1328 0 0 C 1991.37 364.658 t 0 r /Symbol findfont 48.4311 sf 0 0 m (c) show NC gr  black 3 lw 340 310 m 1588 X s
 gsave  2268 1328 0 0 C 424.485 1213.63 t 0 r /Helvetica-Bold findfont 42.7334 sf 0 0 m (0.5 mm) show NC gr  1 0 0 c /w 23 def /w2 {w 2 div} def /w3 {w 3 div} def 383 1228 m21 black 1 1 1 c 0 0 1 c 380 538 m21 459 523 m21 539 535 m21 618 533 m21 697
 537 m21 777 528 m21 856 533 m21 935 513 m21 1015 506 m21 black 1094 523 m 1 Y s 1094 547 m 1 Y s 1088 523 m 12 X s 1088 548 m 12 X s 0 0 1 c 1094 535 m21 black 1174 534 m 5 Y s 1174 561 m 5 Y s 1168 534 m 11 X s 1168 566 m 11 X s 0 0 1 c 1174 550
 m21 black 1253 520 m 9 Y s 1253 552 m 9 Y s 1247 520 m 12 X s 1247 561 m 12 X s 0 0 1 c 1253 541 m21 black 1332 553 m 13 Y s 1332 589 m 14 Y s 1327 553 m 11 X s 1327 603 m 11 X s 0 0 1 c 1332 578 m21 black 1412 496 m 17 Y s 1412 536 m 18 Y s 1406
 496 m 11 X s 1406 554 m 11 X s 0 0 1 c 1412 525 m21 black 1491 438 m 21 Y s 1491 481 m 21 Y s 1485 438 m 12 X s 1485 502 m 12 X s 0 0 1 c 1491 470 m21 black 1570 526 m 26 Y s 1570 574 m 26 Y s 1565 526 m 11 X s 1565 600 m 11 X s 0 0 1 c 1570 563 m21
 black 1650 553 m 29 Y s 1650 604 m 29 Y s 1644 553 m 11 X s 1644 633 m 11 X s 0 0 1 c 1650 593 m21 black 1729 523 m 31 Y s 1729 577 m 32 Y s 1723 523 m 12 X s 1723 609 m 12 X s 0 0 1 c 1729 566 m21 black 1809 452 m 34 Y s 1809 509 m 33 Y s 1803 452
 m 11 X s 1803 542 m 11 X s 0 0 1 c 1809 497 m21 black 1888 531 m 38 Y s 1888 592 m 38 Y s 1882 531 m 12 X s 1882 630 m 12 X s 0 0 1 c 1888 581 m21 6 lw 1 1 1 c 0 0 1 c 380 532 m 12 -1 d 16 -1 d 13 -1 d 14 X 14 -1 d 31 X 16 1 d 26 1 d 12 X 5 1 d 113
 X 21 1 d 36 X 13 -1 d 49 -2 d 78 X 7 -1 d 10 X 69 -7 d 9 -1 d 12 -1 d 18 -3 d 9 -1 d 7 X 6 -1 d 11 X 5 1 d 8 X 4 1 d 5 1 d 6 1 d 6 1 d 7 2 d 11 3 d 15 5 d 7 2 d 6 1 d 6 2 d 1 X 18 4 d 14 2 d 13 2 d 12 2 d 10 2 d 10 1 d 3 X 6 1 d 7 X 9 1 d 18 X 12 1
 d 8 X 7 1 d 5 X 6 1 d 1 X 4 1 d 5 1 d 4 1 d 5 2 d 7 2 d 16 7 d 5 2 d 5 2 d 4 1 d 4 1 d 4 1 d 4 X 4 1 d 12 X 3 -1 d 3 X 4 -1 d 4 -1 d 4 -2 d 4 -1 d 4 -2 d 5 -3 d 13 -8 d 6 -3 d 6 -3 d 4 -2 d 4 -1 d 4 -2 d 3 -1 d 4 -1 d 1 X 6 -1 d 6 -1 d 7 -1 d 7 -1 d
 8 -1 d 7 -1 d 48 X 6 1 d 7 1 d 9 1 d 18 3 d 8 1 d 7 1 d 5 X 5 1 d 4 X 80 -9 d 8 X 10 -1 d 55 X 6 -1 d 5 X 6 -1 d 7 -1 d 23 -3 d 6 -1 d 5 -1 d 5 X 5 -1 d 4 X 5 1 d 7 X 2 1 d 5 1 d 5 1 d 5 1 d 4 2 d 5 1 d 5 2 d 4 2 d 4 2 d 5 2 d 4 3 d 4 2 d 4 3 d 5 3
 d 3 3 d 4 3 d 3 4 d 4 3 d 3 3 d 2 4 d 1 1 d s 3 lw /w 2 def /w2 {w 2 div} def /w3 {w 3 div} def 380 532 459 528 539 531 618 531 697 532 777 529 856 528 935 521 1015 515 1094 534 1174 547 1253 552 1332 574 1412 542 1491 536 1570 545 1650 536 1729 534
 1809 528 1888 574 20 { m20} R 6 lw black 0 0 1 c
 gsave  2268 1328 0 0 C 2036.96 615.36 t 0 r /Helvetica-Bold findfont 48.4311 sf 0 0 m (/dof=0.7) show NC gr  black 0 0 1 c
 gsave  2268 1328 0 0 C 2017.01 632.454 t 0 r /Helvetica-Bold findfont 34.1867 sf 0 0 m (2) show NC gr  black 0 0 1 c
 gsave  2268 1328 0 0 C 1991.37 615.36 t 0 r /Symbol findfont 48.4311 sf 0 0 m (c) show NC gr  black 3 lw 340 531 m 1588 X s
 gsave  2268 1328 0 0 C 877.458 1213.63 t 0 r /Helvetica-Bold findfont 39.8845 sf 0 0 m (1 mm) show NC gr  0 0 1 c /w 23 def /w2 {w 2 div} def /w3 {w 3 div} def 836 1228 m21 black 1 1 1 c 1 0 1 c 380 755 m21 459 749 m21 539 752 m21 618 747 m21 697
 752 m21 777 749 m21 856 745 m21 935 736 m21 1015 724 m21 black 1094 760 m 2 Y s 1094 785 m 2 Y s 1088 760 m 12 X s 1088 787 m 12 X s 1 0 1 c 1094 773 m21 black 1174 794 m 7 Y s 1174 824 m 6 Y s 1168 794 m 11 X s 1168 830 m 11 X s 1 0 1 c 1174 812
 m21 black 1253 848 m 11 Y s 1253 882 m 11 Y s 1247 848 m 12 X s 1247 893 m 12 X s 1 0 1 c 1253 871 m21 black 1332 805 m 16 Y s 1332 844 m 16 Y s 1327 805 m 11 X s 1327 860 m 11 X s 1 0 1 c 1332 832 m21 black 1412 735 m 21 Y s 1412 779 m 20 Y s 1406
 735 m 11 X s 1406 799 m 11 X s 1 0 1 c 1412 767 m21 black 1491 770 m 25 Y s 1491 817 m 25 Y s 1485 770 m 12 X s 1485 842 m 12 X s 1 0 1 c 1491 806 m21 black 1570 747 m 28 Y s 1570 798 m 29 Y s 1565 747 m 11 X s 1565 827 m 11 X s 1 0 1 c 1570 787 m21
 black 1650 690 m 31 Y s 1650 744 m 31 Y s 1644 690 m 11 X s 1644 775 m 11 X s 1 0 1 c 1650 733 m21 black 1729 648 m 35 Y s 1729 705 m 34 Y s 1723 648 m 12 X s 1723 739 m 12 X s 1 0 1 c 1729 694 m21 black 1809 683 m 38 Y s 1809 744 m 38 Y s 1803 683
 m 11 X s 1803 782 m 11 X s 1 0 1 c 1809 732 m21 black 1888 844 m 44 Y s 1888 911 m 43 Y s 1882 844 m 12 X s 1882 954 m 12 X s 1 0 1 c 1888 899 m21 6 lw 1 1 1 c 1 0 1 c 380 754 m 14 -2 d 15 -2 d 14 -2 d 14 -1 d 14 -1 d 31 X 19 2 d 25 2 d 13 X 21 1 d
 58 X 12 1 d 21 1 d 20 2 d 26 X 9 -1 d 10 -1 d 11 -2 d 37 -6 d 10 -1 d 3 X 11 -1 d 12 -1 d 24 X 17 -1 d 15 X 16 -2 d 19 -2 d 24 -4 d 20 -3 d 8 -1 d 8 -2 d 25 -7 d 9 -2 d 6 -1 d 6 -1 d 16 X 2 1 d 5 1 d 5 1 d 6 2 d 6 3 d 7 3 d 8 4 d 7 4 d 10 7 d 25 17
 d 6 4 d 6 4 d 7 7 d 9 8 d 19 17 d 7 6 d 7 6 d 6 4 d 5 3 d 5 4 d 3 1 d 6 3 d 7 3 d 8 3 d 9 3 d 8 2 d 9 2 d 12 3 d 15 2 d 5 1 d 21 3 d 11 1 d 9 X 8 1 d 8 -1 d 7 X 6 -1 d 6 -1 d 3 -1 d 5 -1 d 5 -2 d 5 -3 d 6 -3 d 59 -37 d 24 -11 d 12 -5 d 9 -3 d 8 -3 d
 9 -2 d 6 -2 d 7 -1 d 4 -1 d 10 X 6 1 d 7 1 d 9 1 d 21 5 d 8 1 d 7 1 d 5 1 d 5 X 1 -1 d 6 X 6 -1 d 8 -2 d 10 -3 d 31 -9 d 7 -2 d 6 -1 d 6 -1 d 21 X 13 1 d 18 2 d 9 1 d 12 X 6 -1 d 5 X 5 -2 d 5 -1 d 7 -3 d 21 -10 d 6 -3 d 5 -1 d 4 -2 d 5 X 4 -1 d 4 X
 4 1 d 3 1 d 2 X 5 2 d 5 2 d 5 3 d 4 3 d 5 3 d 4 4 d 5 4 d 4 4 d 4 5 d 4 5 d 4 5 d 4 6 d 4 6 d 4 7 d 3 6 d 4 6 d 3 7 d 3 8 d 2 7 d 3 7 d s 3 lw /w 2 def /w2 {w 2 div} def /w3 {w 3 div} def 380 754 459 746 539 750 618 751 697 755 777 744 856 741 935
 730 1015 717 1094 759 1174 823 1253 845 1332 846 1412 800 1491 772 1570 782 1650 763 1729 766 1809 745 1888 845 20 { m20} R 6 lw black 1 0 1 c
 gsave  2268 1328 0 0 C 2036.96 863.214 t 0 r /Helvetica-Bold findfont 48.4311 sf 0 0 m (/dof=0.6) show NC gr  black 1 0 1 c
 gsave  2268 1328 0 0 C 2017.01 880.307 t 0 r /Helvetica-Bold findfont 34.1867 sf 0 0 m (2) show NC gr  black 1 0 1 c
 gsave  2268 1328 0 0 C 1991.37 863.214 t 0 r /Symbol findfont 48.4311 sf 0 0 m (c) show NC gr  black 3 lw 340 752 m 1588 X s
 gsave  2268 1328 0 0 C 1330.43 1213.63 t 0 r /Helvetica-Bold findfont 39.8845 sf 0 0 m (2 mm) show NC gr  1 0 1 c /w 23 def /w2 {w 2 div} def /w3 {w 3 div} def 1290 1228 m21 black 1 1 1 c 0 0.733333 1 c 380 972 m21 459 965 m21 539 968 m21 618 976
 m21 697 978 m21 777 955 m21 856 949 m21 935 942 m21 1015 922 m21 black 1094 956 m 3 Y s 1094 982 m 4 Y s 1088 956 m 12 X s 1088 986 m 12 X s 0 0.733333 1 c 1094 971 m21 black 1174 1081 m 8 Y s 1174 1112 m 8 Y s 1168 1081 m 11 X s 1168 1120 m 11 X s
 0 0.733333 1 c 1174 1100 m21 black 1253 1090 m 13 Y s 1253 1126 m 13 Y s 1247 1090 m 12 X s 1247 1139 m 12 X s 0 0.733333 1 c 1253 1114 m21 black 1332 1082 m 18 Y s 1332 1123 m 19 Y s 1327 1082 m 11 X s 1327 1142 m 11 X s 0 0.733333 1 c 1332 1112
 m21 black 1412 1047 m 24 Y s 1412 1093 m 24 Y s 1406 1047 m 11 X s 1406 1117 m 11 X s 0 0.733333 1 c 1412 1082 m21 black 1491 956 m 28 Y s 1491 1007 m 28 Y s 1485 956 m 12 X s 1485 1035 m 12 X s 0 0.733333 1 c 1491 996 m21 black 1570 967 m 32 Y s
 1570 1022 m 32 Y s 1565 967 m 11 X s 1565 1054 m 11 X s 0 0.733333 1 c 1570 1011 m21 black 1650 952 m 35 Y s 1650 1010 m 35 Y s 1644 952 m 11 X s 1644 1045 m 11 X s 0 0.733333 1 c 1650 998 m21 black 1729 998 m 39 Y s 1729 1060 m 40 Y s 1723 998 m 12
 X s 1723 1100 m 12 X s 0 0.733333 1 c 1729 1049 m21 black 1809 926 m 42 Y s 1809 991 m 43 Y s 1803 926 m 11 X s 1803 1034 m 11 X s 0 0.733333 1 c 1809 980 m21 black 1888 983 m 48 Y s 1888 1053 m 48 Y s 1882 983 m 12 X s 1882 1101 m 12 X s 0 0.733333
 1 c 1888 1042 m21 6 lw 1 1 1 c 0 0.733333 1 c 380 976 m 16 -3 d 16 -3 d 16 -2 d 15 -2 d 16 -1 d 13 X 14 1 d 30 2 d 17 2 d 6 X 75 2 d 4 X 12 1 d 25 2 d 17 2 d 25 X 9 -1 d 10 -2 d 12 -3 d 35 -9 d 10 -2 d 4 -1 d 13 -2 d 17 -1 d 36 -1 d 13 -1 d 35 -4 d
 23 -3 d 21 -3 d 8 -2 d 9 -3 d 27 -10 d 8 -2 d 7 -2 d 7 -1 d 5 X 5 1 d 4 X 6 2 d 6 2 d 7 4 d 7 3 d 8 6 d 7 5 d 9 7 d 9 8 d 11 11 d 9 9 d 5 6 d 5 6 d 6 8 d 7 10 d 8 13 d 17 27 d 7 11 d 6 8 d 6 8 d 4 6 d 5 5 d 4 3 d 7 7 d 8 6 d 8 5 d 8 5 d 8 4 d 7 3 d
 8 3 d 8 2 d 8 1 d 7 1 d 8 X 6 -1 d 7 -1 d 7 -2 d 8 -3 d 45 -23 d 14 -6 d 15 -9 d 51 -30 d 9 -6 d 13 -9 d 20 -14 d 10 -6 d 8 -5 d 7 -3 d 6 -3 d 6 -1 d 5 -1 d 6 -1 d 7 X 8 1 d 12 2 d 17 4 d 8 1 d 7 1 d 6 X 3 -1 d 7 -1 d 7 -2 d 9 -3 d 16 -6 d 15 -7 d 9
 -3 d 6 -2 d 7 -1 d 4 -1 d 13 X 8 1 d 13 3 d 17 4 d 9 1 d 7 1 d 5 X 7 -1 d 5 -1 d 5 -1 d 5 -3 d 7 -4 d 17 -13 d 8 -5 d 5 -3 d 5 -3 d 4 -1 d 5 -1 d 4 -1 d 4 1 d 3 1 d 3 1 d 5 3 d 5 3 d 5 4 d 4 4 d 5 5 d 5 5 d 4 7 d 5 6 d 5 7 d 4 8 d 5 9 d 4 10 d 4 8 d
 4 10 d 4 11 d 4 11 d 3 10 d 3 12 d 1 2 d s 3 lw /w 2 def /w2 {w 2 div} def /w3 {w 3 div} def 380 976 459 965 539 970 618 972 697 977 777 959 856 954 935 944 1015 925 1094 982 1174 1093 1253 1130 1332 1100 1412 1055 1491 1008 1570 1014 1650 988 1729
 997 1809 964 1888 1099 20 { m20} R 6 lw black 0 0.733333 1 c
 gsave  2268 1328 0 0 C 2036.96 1113.92 t 0 r /Helvetica-Bold findfont 48.4311 sf 0 0 m (/dof=0.3) show NC gr  black 0 0.733333 1 c
 gsave  2268 1328 0 0 C 2017.01 1131.01 t 0 r /Helvetica-Bold findfont 34.1867 sf 0 0 m (2) show NC gr  black 0 0.733333 1 c
 gsave  2268 1328 0 0 C 1991.37 1113.92 t 0 r /Symbol findfont 48.4311 sf 0 0 m (c) show NC gr  black 3 lw 340 974 m 1588 X s
 gsave  2268 1328 0 0 C 1783.41 1213.63 t 0 r /Helvetica-Bold findfont 42.7334 sf 0 0 m (2.5 mm) show NC gr  0 0.733333 1 c /w 23 def /w2 {w 2 div} def /w3 {w 3 div} def 1743 1228 m21
 gr  gr showpage
end
%%EOF
