%!PS-Adobe-2.0 EPSF-2.0
%%BoundingBox:  0 0 567 332
%%Title: Horn1XTilt_nof_summary.eps: Summary
%%Creator: ROOT Version 5.30/06
%%CreationDate: Sun Feb  2 09:28:50 2014
%%EndComments
%%BeginProlog
80 dict begin
/s {stroke} def /l {lineto} def /m {moveto} def /t {translate} def
/r {rotate} def /rl {roll}  def /R {repeat} def
/d {rlineto} def /rm {rmoveto} def /gr {grestore} def /f {eofill} def
/c {setrgbcolor} def /black {0 setgray} def /sd {setdash} def
/cl {closepath} def /sf {scalefont setfont} def /lw {setlinewidth} def
/box {m dup 0 exch d exch 0 d 0 exch neg d cl} def
/NC{systemdict begin initclip end}def/C{NC box clip newpath}def
/bl {box s} def /bf {box f} def /Y { 0 exch d} def /X { 0 d} def 
/K {{pop pop 0 moveto} exch kshow} bind def
/ita {/ang 15 def gsave [1 0 ang dup sin exch cos div 1 0 0] concat} def 
/mp {newpath /y exch def /x exch def} def
/side {[w .77 mul w .23 mul] .385 w mul sd w 0 l currentpoint t -144 r} def
/mr {mp x y w2 0 360 arc} def /m24 {mr s} def /m20 {mr f} def
/mb {mp x y w2 add m w2 neg 0 d 0 w neg d w 0 d 0 w d cl} def
/mt {mp x y w2 add m w2 neg w neg d w 0 d cl} def
/m21 {mb f} def /m25 {mb s} def /m22 {mt f} def /m26{mt s} def
/m23 {mp x y w2 sub m w2 w d w neg 0 d cl f} def
/m27 {mp x y w2 add m w3 neg w2 neg d w3 w2 neg d w3 w2 d cl s} def
/m28 {mp x w2 sub y w2 sub w3 add m w3 0 d  0 w3 neg d w3 0 d 0 w3 d w3 0 d  0 w3 d w3 neg 0 d 0 w3 d w3 neg 0 d 0 w3 neg d w3 neg 0 d cl s } def
/m29 {mp gsave x w2 sub y w2 add w3 sub m currentpoint t 4 {side} repeat cl fill gr} def
/m30 {mp gsave x w2 sub y w2 add w3 sub m currentpoint t 4 {side} repeat cl s gr} def
/m31 {mp x y w2 sub m 0 w d x w2 sub y m w 0 d x w2 sub y w2 add m w w neg d x w2 sub y w2 sub m w w d s} def
/m32 {mp x y w2 sub m w2 w d w neg 0 d cl s} def
/m33 {mp x y w2 add m w3 neg w2 neg d w3 w2 neg d w3 w2 d cl f} def
/m34 {mp x w2 sub y w2 sub w3 add m w3 0 d  0 w3 neg d w3 0 d 0 w3 d w3 0 d  0 w3 d w3 neg 0 d 0 w3 d w3 neg 0 d 0 w3 neg d w3 neg 0 d cl f } def
/m2 {mp x y w2 sub m 0 w d x w2 sub y m w 0 d s} def
/m5 {mp x w2 sub y w2 sub m w w d x w2 sub y w2 add m w w neg d s} def
/reEncode {exch findfont dup length dict begin {1 index /FID eq  {pop pop} {def} ifelse } forall /Encoding exch def currentdict end dup /FontName get exch definefont pop } def [/Times-Bold /Times-Italic /Times-BoldItalic /Helvetica /Helvetica-Oblique
 /Helvetica-Bold /Helvetica-BoldOblique /Courier /Courier-Oblique /Courier-Bold /Courier-BoldOblique /Times-Roman /AvantGarde-Book /AvantGarde-BookOblique /AvantGarde-Demi /AvantGarde-DemiOblique /Bookman-Demi /Bookman-DemiItalic /Bookman-Light
 /Bookman-LightItalic /Helvetica-Narrow /Helvetica-Narrow-Bold /Helvetica-Narrow-BoldOblique /Helvetica-Narrow-Oblique /NewCenturySchlbk-Roman /NewCenturySchlbk-Bold /NewCenturySchlbk-BoldItalic /NewCenturySchlbk-Italic /Palatino-Bold
 /Palatino-BoldItalic /Palatino-Italic /Palatino-Roman ] {ISOLatin1Encoding reEncode } forall%%EndProlog
%%BeginSetup
%%EndSetup
newpath  gsave  .25 .25 scale  gsave  0 0 t black[  ] 0 sd 3 lw 1 1 1 c 2268 1328 0 0 bf black 1 1 1 c black 1588 996 340 199 bl 1588 996 340 199 bl 1 1 1 c 1 0 0 c /w 23 def /w2 {w 2 div} def /w3 {w 3 div} def 380 274 m21 459 277 m21 539 274 m21 618
 273 m21 697 278 m21 777 278 m21 856 276 m21 935 279 m21 1015 266 m21 black 1094 276 m 2 Y s 1094 301 m 2 Y s 1088 276 m 12 X s 1088 303 m 12 X s 1 0 0 c 1094 290 m21 black 1174 266 m 6 Y s 1174 295 m 6 Y s 1168 266 m 11 X s 1168 301 m 11 X s 1 0 0 c
 1174 284 m21 black 1253 250 m 11 Y s 1253 284 m 10 Y s 1247 250 m 12 X s 1247 294 m 12 X s 1 0 0 c 1253 272 m21 black 1332 270 m 15 Y s 1332 308 m 16 Y s 1327 270 m 11 X s 1327 324 m 11 X s 1 0 0 c 1332 297 m21 black 1412 224 m 19 Y s 1412 265 m 18
 Y s 1406 224 m 11 X s 1406 283 m 11 X s 1 0 0 c 1412 254 m21 black 1491 237 m 22 Y s 1491 282 m 21 Y s 1485 237 m 12 X s 1485 303 m 12 X s 1 0 0 c 1491 270 m21 black 1570 257 m 25 Y s 1570 305 m 25 Y s 1565 257 m 11 X s 1565 330 m 11 X s 1 0 0 c
 1570 293 m21 black 1650 199 m 5 Y s 1650 227 m 26 Y s 1644 199 m 11 X s 1644 253 m 11 X s 1 0 0 c 1650 216 m21 black 1729 226 m 30 Y s 1729 279 m 29 Y s 1723 226 m 12 X s 1723 308 m 12 X s 1 0 0 c 1729 267 m21 black 1809 301 m 35 Y s 1809 359 m 35 Y
 s 1803 301 m 11 X s 1803 394 m 11 X s 1 0 0 c 1809 347 m21 black 1888 245 m 36 Y s 1888 304 m 35 Y s 1882 245 m 12 X s 1882 339 m 12 X s 1 0 0 c 1888 292 m21 black 340 199 m 1588 X s
 gsave  2268 1328 0 0 C 954.378 68.3734 t 0 r /Helvetica findfont 62.6756 sf 0 0 m ( Energy \(GeV\) ) show NC gr 
 gsave  2268 1328 0 0 C 928.738 51.28 t 0 r /Symbol findfont 42.7334 sf 0 0 m (m) show NC gr 
 gsave  2268 1328 0 0 C 894.552 68.3734 t 0 r /Symbol findfont 62.6756 sf 0 0 m (n) show NC gr  340 216 m -17 Y s 372 208 m -9 Y s 404 208 m -9 Y s 435 208 m -9 Y s 467 208 m -9 Y s 499 216 m -17 Y s 531 208 m -9 Y s 562 208 m -9 Y s 594 208 m -9 Y s
 626 208 m -9 Y s 658 216 m -17 Y s 689 208 m -9 Y s 721 208 m -9 Y s 753 208 m -9 Y s 785 208 m -9 Y s 816 216 m -17 Y s 848 208 m -9 Y s 880 208 m -9 Y s 912 208 m -9 Y s 943 208 m -9 Y s 975 216 m -17 Y s 1007 208 m -9 Y s 1039 208 m -9 Y s 1070
 208 m -9 Y s 1102 208 m -9 Y s 1134 216 m -17 Y s 1166 208 m -9 Y s 1197 208 m -9 Y s 1229 208 m -9 Y s 1261 208 m -9 Y s 1293 216 m -17 Y s 1324 208 m -9 Y s 1356 208 m -9 Y s 1388 208 m -9 Y s 1420 208 m -9 Y s 1451 216 m -17 Y s 1483 208 m -9 Y s
 1515 208 m -9 Y s 1547 208 m -9 Y s 1578 208 m -9 Y s 1610 216 m -17 Y s 1642 208 m -9 Y s 1674 208 m -9 Y s 1705 208 m -9 Y s 1737 208 m -9 Y s 1769 216 m -17 Y s 1801 208 m -9 Y s 1832 208 m -9 Y s 1864 208 m -9 Y s 1896 208 m -9 Y s 1928 216 m
 -17 Y s
 gsave  2268 1328 0 0 C 319.076 136.747 t 0 r /Helvetica findfont 68.3734 sf 0 0 m (0) show NC gr 
 gsave  2268 1328 0 0 C 484.311 136.747 t 0 r /Helvetica findfont 68.3734 sf 0 0 m (1) show NC gr 
 gsave  2268 1328 0 0 C 635.302 136.747 t 0 r /Helvetica findfont 68.3734 sf 0 0 m (2) show NC gr 
 gsave  2268 1328 0 0 C 794.84 136.747 t 0 r /Helvetica findfont 68.3734 sf 0 0 m (3) show NC gr 
 gsave  2268 1328 0 0 C 954.378 136.747 t 0 r /Helvetica findfont 68.3734 sf 0 0 m (4) show NC gr 
 gsave  2268 1328 0 0 C 1113.92 136.747 t 0 r /Helvetica findfont 68.3734 sf 0 0 m (5) show NC gr 
 gsave  2268 1328 0 0 C 1270.6 136.747 t 0 r /Helvetica findfont 68.3734 sf 0 0 m (6) show NC gr 
 gsave  2268 1328 0 0 C 1430.14 136.747 t 0 r /Helvetica findfont 68.3734 sf 0 0 m (7) show NC gr 
 gsave  2268 1328 0 0 C 1589.68 136.747 t 0 r /Helvetica findfont 68.3734 sf 0 0 m (8) show NC gr 
 gsave  2268 1328 0 0 C 1746.37 136.747 t 0 r /Helvetica findfont 68.3734 sf 0 0 m (9) show NC gr 
 gsave  2268 1328 0 0 C 1888.81 136.747 t 0 r /Helvetica findfont 68.3734 sf 0 0 m (10) show NC gr  340 1195 m 1588 X s 340 1178 m 17 Y s 372 1186 m 9 Y s 404 1186 m 9 Y s 435 1186 m 9 Y s 467 1186 m 9 Y s 499 1178 m 17 Y s 531 1186 m 9 Y s 562 1186
 m 9 Y s 594 1186 m 9 Y s 626 1186 m 9 Y s 658 1178 m 17 Y s 689 1186 m 9 Y s 721 1186 m 9 Y s 753 1186 m 9 Y s 785 1186 m 9 Y s 816 1178 m 17 Y s 848 1186 m 9 Y s 880 1186 m 9 Y s 912 1186 m 9 Y s 943 1186 m 9 Y s 975 1178 m 17 Y s 1007 1186 m 9 Y s
 1039 1186 m 9 Y s 1070 1186 m 9 Y s 1102 1186 m 9 Y s 1134 1178 m 17 Y s 1166 1186 m 9 Y s 1197 1186 m 9 Y s 1229 1186 m 9 Y s 1261 1186 m 9 Y s 1293 1178 m 17 Y s 1324 1186 m 9 Y s 1356 1186 m 9 Y s 1388 1186 m 9 Y s 1420 1186 m 9 Y s 1451 1178 m
 17 Y s 1483 1186 m 9 Y s 1515 1186 m 9 Y s 1547 1186 m 9 Y s 1578 1186 m 9 Y s 1610 1178 m 17 Y s 1642 1186 m 9 Y s 1674 1186 m 9 Y s 1705 1186 m 9 Y s 1737 1186 m 9 Y s 1769 1178 m 17 Y s 1801 1186 m 9 Y s 1832 1186 m 9 Y s 1864 1186 m 9 Y s 1896
 1186 m 9 Y s 1928 1178 m 17 Y s 340 199 m 996 Y s
 gsave  2268 1328 0 0 C 170.933 336.169 t 90 r /Helvetica findfont 62.6756 sf 0 0 m (Near/Far Ratio to Nominal) show NC gr  371 276 m -31 X s 355 306 m -15 X s 355 337 m -15 X s 355 368 m -15 X s 355 398 m -15 X s 371 429 m -31 X s 355 460 m -15 X s
 355 490 m -15 X s 355 521 m -15 X s 355 551 m -15 X s 371 582 m -31 X s 355 613 m -15 X s 355 643 m -15 X s 355 674 m -15 X s 355 705 m -15 X s 371 735 m -31 X s 355 766 m -15 X s 355 797 m -15 X s 355 827 m -15 X s 355 858 m -15 X s 371 888 m -31 X
 s 355 919 m -15 X s 355 950 m -15 X s 355 980 m -15 X s 355 1011 m -15 X s 371 1042 m -31 X s 355 1072 m -15 X s 355 1103 m -15 X s 355 1134 m -15 X s 355 1164 m -15 X s 371 1195 m -31 X s 371 276 m -31 X s 355 245 m -15 X s 355 214 m -15 X s
 gsave  2268 1328 0 0 C 301.982 247.853 t 0 r /Helvetica findfont 68.3734 sf 0 0 m (1) show NC gr 
 gsave  2268 1328 0 0 C 245.005 401.694 t 0 r /Helvetica findfont 68.3734 sf 0 0 m (1.1) show NC gr 
 gsave  2268 1328 0 0 C 233.609 555.534 t 0 r /Helvetica findfont 68.3734 sf 0 0 m (1.2) show NC gr 
 gsave  2268 1328 0 0 C 233.609 712.223 t 0 r /Helvetica findfont 68.3734 sf 0 0 m (1.3) show NC gr 
 gsave  2268 1328 0 0 C 233.609 860.365 t 0 r /Helvetica findfont 68.3734 sf 0 0 m (1.4) show NC gr 
 gsave  2268 1328 0 0 C 233.609 1017.05 t 0 r /Helvetica findfont 68.3734 sf 0 0 m (1.5) show NC gr 
 gsave  2268 1328 0 0 C 233.609 1170.89 t 0 r /Helvetica findfont 68.3734 sf 0 0 m (1.6) show NC gr  1928 199 m 996 Y s 1897 276 m 31 X s 1912 306 m 16 X s 1912 337 m 16 X s 1912 368 m 16 X s 1912 398 m 16 X s 1897 429 m 31 X s 1912 460 m 16 X s 1912
 490 m 16 X s 1912 521 m 16 X s 1912 551 m 16 X s 1897 582 m 31 X s 1912 613 m 16 X s 1912 643 m 16 X s 1912 674 m 16 X s 1912 705 m 16 X s 1897 735 m 31 X s 1912 766 m 16 X s 1912 797 m 16 X s 1912 827 m 16 X s 1912 858 m 16 X s 1897 888 m 31 X s
 1912 919 m 16 X s 1912 950 m 16 X s 1912 980 m 16 X s 1912 1011 m 16 X s 1897 1042 m 31 X s 1912 1072 m 16 X s 1912 1103 m 16 X s 1912 1134 m 16 X s 1912 1164 m 16 X s 1897 1195 m 31 X s 1897 276 m 31 X s 1912 245 m 16 X s 1912 214 m 16 X s 1 0 0 c
 6 lw 1 1 1 c 1 0 0 c 380 276 m 660 X 17 1 d 136 X 31 -1 d 98 X 5 1 d 5 X 10 -1 d 76 X 7 -1 d 17 X 27 -1 d 22 X 27 -1 d 70 X 5 1 d 15 X 11 1 d 25 X 3 1 d 15 X 4 -1 d 36 X 5 -1 d 22 X 3 1 d 17 X 4 1 d 3 X 4 1 d 4 X 9 1 d 4 1 d 9 X 3 1 d 59 X 4 -1 d 12
 X 4 -1 d 10 X 4 -1 d 5 X 1 -1 d s 3 lw /w 2 def /w2 {w 2 div} def /w3 {w 3 div} def 380 276 459 276 539 276 618 276 697 276 777 276 856 276 935 276 1015 276 1094 277 1174 277 1253 276 1332 277 1412 276 1491 274 1570 273 1650 276 1729 274 1809 280
 1888 276 20 { m20} R 6 lw black 1 0 0 c
 gsave  2268 1328 0 0 C 2036.96 282.04 t 0 r /Helvetica-Bold findfont 48.4311 sf 0 0 m (/dof=0.5) show NC gr  black 1 0 0 c
 gsave  2268 1328 0 0 C 2017.01 299.133 t 0 r /Helvetica-Bold findfont 34.1867 sf 0 0 m (2) show NC gr  black 1 0 0 c
 gsave  2268 1328 0 0 C 1991.37 282.04 t 0 r /Symbol findfont 48.4311 sf 0 0 m (c) show NC gr  black 3 lw 340 276 m 1588 X s
 gsave  2268 1328 0 0 C 273.493 1213.63 t 0 r /Helvetica-Bold findfont 42.7334 sf 0 0 m (0.25 mm) show NC gr  1 0 0 c /w 23 def /w2 {w 2 div} def /w3 {w 3 div} def 231 1228 m21 black 1 1 1 c 0 0 1 c 380 430 m21 459 428 m21 539 430 m21 618 426 m21 697
 431 m21 777 430 m21 856 427 m21 935 432 m21 1015 423 m21 black 1094 432 m 4 Y s 1094 458 m 4 Y s 1088 432 m 12 X s 1088 462 m 12 X s 0 0 1 c 1094 447 m21 black 1174 409 m 8 Y s 1174 440 m 8 Y s 1168 409 m 11 X s 1168 448 m 11 X s 0 0 1 c 1174 429
 m21 black 1253 395 m 12 Y s 1253 430 m 13 Y s 1247 395 m 12 X s 1247 443 m 12 X s 0 0 1 c 1253 419 m21 black 1332 411 m 18 Y s 1332 452 m 18 Y s 1327 411 m 11 X s 1327 470 m 11 X s 0 0 1 c 1332 440 m21 black 1412 386 m 22 Y s 1412 430 m 22 Y s 1406
 386 m 11 X s 1406 452 m 11 X s 0 0 1 c 1412 419 m21 black 1491 375 m 25 Y s 1491 423 m 25 Y s 1485 375 m 12 X s 1485 448 m 12 X s 0 0 1 c 1491 411 m21 black 1570 394 m 29 Y s 1570 445 m 29 Y s 1565 394 m 11 X s 1565 474 m 11 X s 0 0 1 c 1570 434 m21
 black 1650 485 m 34 Y s 1650 542 m 34 Y s 1644 485 m 11 X s 1644 576 m 11 X s 0 0 1 c 1650 531 m21 black 1729 334 m 33 Y s 1729 390 m 33 Y s 1723 334 m 12 X s 1723 423 m 12 X s 0 0 1 c 1729 379 m21 black 1809 369 m 37 Y s 1809 428 m 37 Y s 1803 369
 m 11 X s 1803 465 m 11 X s 0 0 1 c 1809 417 m21 black 1888 382 m 41 Y s 1888 445 m 41 Y s 1882 382 m 12 X s 1882 486 m 12 X s 0 0 1 c 1888 434 m21 6 lw 1 1 1 c 0 0 1 c 380 429 m 328 X 69 -1 d 26 X 21 1 d 196 X 6 1 d 17 X 19 2 d 16 X 5 1 d 38 X 53 -2
 d 20 X 29 -1 d 10 -1 d 39 X 10 1 d 34 X 6 1 d 31 X 9 -1 d 32 X 10 -1 d 14 X 7 -1 d 8 X 9 -1 d 28 -1 d 7 -1 d 6 X 6 -1 d 2 X 24 -1 d 69 X 4 1 d 6 X 6 1 d 15 1 d 8 1 d 10 X 5 1 d 39 X 24 -2 d 34 X 3 1 d 6 X 2 1 d 4 1 d 3 X 4 1 d 4 1 d 12 3 d 4 1 d 3 1
 d 4 1 d 2 X 3 1 d 8 X 3 1 d 31 X 4 -1 d 9 X 4 -1 d 8 X 4 -1 d 4 X 4 -1 d 4 -1 d 3 X 3 -1 d 4 -1 d 2 X 3 -1 d 1 X s 3 lw /w 2 def /w2 {w 2 div} def /w3 {w 3 div} def 380 429 459 429 539 429 618 429 697 429 777 428 856 429 935 429 1015 429 1094 433
 1174 431 1253 429 1332 431 1412 429 1491 424 1570 423 1650 428 1729 426 1809 439 1888 431 20 { m20} R 6 lw black 0 0 1 c
 gsave  2268 1328 0 0 C 2036.96 450.125 t 0 r /Helvetica-Bold findfont 48.4311 sf 0 0 m (/dof=0.5) show NC gr  black 0 0 1 c
 gsave  2268 1328 0 0 C 2017.01 467.218 t 0 r /Helvetica-Bold findfont 34.1867 sf 0 0 m (2) show NC gr  black 0 0 1 c
 gsave  2268 1328 0 0 C 1991.37 450.125 t 0 r /Symbol findfont 48.4311 sf 0 0 m (c) show NC gr  black 3 lw 340 429 m 1588 X s
 gsave  2268 1328 0 0 C 575.476 1213.63 t 0 r /Helvetica-Bold findfont 42.7334 sf 0 0 m (0.5 mm) show NC gr  0 0 1 c /w 23 def /w2 {w 2 div} def /w3 {w 3 div} def 534 1228 m21 black 1 1 1 c 1 0 1 c 380 580 m21 459 582 m21 539 582 m21 618 582 m21 697
 585 m21 777 576 m21 856 582 m21 935 581 m21 black 1015 563 m s 1015 586 m s 1009 563 m 12 X s 1009 586 m 12 X s 1 0 1 c 1015 575 m21 black 1094 579 m 5 Y s 1094 607 m 4 Y s 1088 579 m 12 X s 1088 611 m 12 X s 1 0 1 c 1094 595 m21 black 1174 570 m 9
 Y s 1174 602 m 10 Y s 1168 570 m 11 X s 1168 612 m 11 X s 1 0 1 c 1174 591 m21 black 1253 511 m 14 Y s 1253 548 m 15 Y s 1247 511 m 12 X s 1247 563 m 12 X s 1 0 1 c 1253 537 m21 black 1332 546 m 19 Y s 1332 588 m 20 Y s 1327 546 m 11 X s 1327 608 m
 11 X s 1 0 1 c 1332 577 m21 black 1412 571 m 25 Y s 1412 619 m 26 Y s 1406 571 m 11 X s 1406 645 m 11 X s 1 0 1 c 1412 608 m21 black 1491 541 m 28 Y s 1491 592 m 29 Y s 1485 541 m 12 X s 1485 621 m 12 X s 1 0 1 c 1491 581 m21 black 1570 524 m 31 Y s
 1570 578 m 32 Y s 1565 524 m 11 X s 1565 610 m 11 X s 1 0 1 c 1570 567 m21 black 1650 576 m 36 Y s 1650 635 m 37 Y s 1644 576 m 11 X s 1644 672 m 11 X s 1 0 1 c 1650 624 m21 black 1729 523 m 38 Y s 1729 584 m 38 Y s 1723 523 m 12 X s 1723 622 m 12 X
 s 1 0 1 c 1729 573 m21 black 1809 585 m 44 Y s 1809 652 m 43 Y s 1803 585 m 11 X s 1803 695 m 11 X s 1 0 1 c 1809 640 m21 black 1888 538 m 45 Y s 1888 606 m 45 Y s 1882 538 m 12 X s 1882 651 m 12 X s 1 0 1 c 1888 594 m21 6 lw 1 1 1 c 1 0 1 c 380 581
 m 36 1 d 221 X 31 1 d 40 X 15 -1 d 44 -1 d 117 X 27 1 d 49 X 18 1 d 22 X 9 1 d 12 X 7 1 d 8 1 d 16 1 d 13 2 d 7 X 8 1 d 14 X 6 1 d 7 X 7 -1 d 19 X 41 -3 d 10 X 22 -2 d 14 X 11 -1 d 8 X 7 -1 d 20 X 9 1 d 12 X 20 1 d 8 1 d 40 X 11 -1 d 10 X 10 -1 d 9
 X 9 -1 d 8 X 6 -1 d 6 -1 d 7 X 10 -2 d 29 -4 d 7 -1 d 6 -1 d 6 -1 d 2 X 19 -1 d 11 -1 d 9 -1 d 15 X 7 -1 d 12 X 6 1 d 9 X 5 1 d 6 X 6 1 d 8 2 d 17 3 d 7 1 d 5 X 6 1 d 4 X 4 1 d 16 X 6 -1 d 6 X 21 -2 d 6 X 5 -1 d 13 X 4 1 d 8 X 3 1 d 3 1 d 3 X 3 1 d
 3 1 d 3 2 d 3 1 d 4 2 d 5 2 d 11 7 d 4 2 d 3 1 d 3 2 d 3 1 d 3 1 d 3 1 d 2 X 3 1 d 2 X 3 1 d 25 X 4 -1 d 4 X 5 -1 d 4 X 4 -1 d 4 -1 d 4 -1 d 4 -1 d 4 -1 d 4 -2 d 4 -1 d 3 -1 d 3 -2 d 4 -2 d 2 -1 d 3 -2 d 1 X s 3 lw /w 2 def /w2 {w 2 div} def /w3 {w
 3 div} def 380 581 459 582 539 582 618 582 697 583 777 581 856 581 935 582 1015 584 1094 590 1174 587 1253 583 1332 586 1412 583 1491 572 1570 569 1650 579 1729 576 1809 604 1888 586 20 { m20} R 6 lw black 1 0 1 c
 gsave  2268 1328 0 0 C 2036.96 615.36 t 0 r /Helvetica-Bold findfont 48.4311 sf 0 0 m (/dof=0.3) show NC gr  black 1 0 1 c
 gsave  2268 1328 0 0 C 2017.01 632.454 t 0 r /Helvetica-Bold findfont 34.1867 sf 0 0 m (2) show NC gr  black 1 0 1 c
 gsave  2268 1328 0 0 C 1991.37 615.36 t 0 r /Symbol findfont 48.4311 sf 0 0 m (c) show NC gr  black 3 lw 340 582 m 1588 X s
 gsave  2268 1328 0 0 C 877.458 1213.63 t 0 r /Helvetica-Bold findfont 39.8845 sf 0 0 m (1 mm) show NC gr  1 0 1 c /w 23 def /w2 {w 2 div} def /w3 {w 3 div} def 836 1228 m21 black 1 1 1 c 0 0.733333 1 c 380 734 m21 459 737 m21 539 736 m21 618 739 m21
 697 729 m21 777 739 m21 856 733 m21 935 731 m21 black 1015 714 m 2 Y s 1015 738 m 2 Y s 1009 714 m 12 X s 1009 740 m 12 X s 0 0.733333 1 c 1015 727 m21 black 1094 730 m 7 Y s 1094 759 m 7 Y s 1088 730 m 12 X s 1088 766 m 12 X s 0 0.733333 1 c 1094
 748 m21 black 1174 739 m 11 Y s 1174 773 m 12 Y s 1168 739 m 11 X s 1168 785 m 11 X s 0 0.733333 1 c 1174 762 m21 black 1253 734 m 18 Y s 1253 774 m 18 Y s 1247 734 m 12 X s 1247 792 m 12 X s 0 0.733333 1 c 1253 763 m21 black 1332 736 m 23 Y s 1332
 782 m 23 Y s 1327 736 m 11 X s 1327 805 m 11 X s 0 0.733333 1 c 1332 770 m21 black 1412 672 m 27 Y s 1412 722 m 27 Y s 1406 672 m 11 X s 1406 749 m 11 X s 0 0.733333 1 c 1412 710 m21 black 1491 636 m 31 Y s 1491 690 m 31 Y s 1485 636 m 12 X s 1485
 721 m 12 X s 0 0.733333 1 c 1491 679 m21 black 1570 648 m 35 Y s 1570 706 m 35 Y s 1565 648 m 11 X s 1565 741 m 11 X s 0 0.733333 1 c 1570 695 m21 black 1650 708 m 39 Y s 1650 770 m 40 Y s 1644 708 m 11 X s 1644 810 m 11 X s 0 0.733333 1 c 1650 759
 m21 black 1729 672 m 43 Y s 1729 737 m 43 Y s 1723 672 m 12 X s 1723 780 m 12 X s 0 0.733333 1 c 1729 726 m21 black 1809 763 m 49 Y s 1809 834 m 49 Y s 1803 763 m 11 X s 1803 883 m 11 X s 0 0.733333 1 c 1809 823 m21 black 1888 684 m 50 Y s 1888 757
 m 50 Y s 1882 684 m 12 X s 1882 807 m 12 X s 0 0.733333 1 c 1888 745 m21 6 lw 1 1 1 c 0 0.733333 1 c 380 734 m 36 1 d 202 X 19 1 d 31 X 15 1 d 14 X 12 -1 d 14 X 47 -2 d 7 X 25 -1 d 72 X 22 1 d 23 X 16 1 d 35 2 d 15 X 13 1 d 12 1 d 5 X 7 1 d 8 1 d 11
 2 d 21 3 d 8 1 d 8 1 d 6 X 6 1 d 25 X 9 -1 d 12 -1 d 32 -3 d 6 X 12 -1 d 38 -3 d 10 -1 d 9 X 8 -1 d 9 X 8 1 d 10 X 17 1 d 14 1 d 52 X 11 -1 d 10 X 10 -1 d 8 -1 d 8 -1 d 4 X 5 -1 d 6 -1 d 68 -16 d 15 -2 d 10 -1 d 8 -1 d 9 -1 d 8 X 7 -1 d 22 X 5 1 d 5
 X 5 1 d 6 1 d 7 1 d 9 2 d 15 4 d 7 1 d 7 1 d 5 1 d 5 1 d 24 X 8 -1 d 19 -2 d 24 X 4 1 d 4 X 3 1 d 3 1 d 3 1 d 3 2 d 3 1 d 3 2 d 4 2 d 3 3 d 4 3 d 5 5 d 9 8 d 4 3 d 4 3 d 3 2 d 3 2 d 3 2 d 2 1 d 3 1 d 3 1 d 2 1 d 3 X 3 1 d 17 X 5 -1 d 4 X 4 -1 d 5 -1
 d 4 -1 d 4 -1 d 4 -2 d 4 -1 d 4 -2 d 4 -2 d 4 -2 d 4 -2 d 3 -3 d 3 -2 d 4 -3 d 2 -2 d 3 -3 d 1 -1 d s 3 lw /w 2 def /w2 {w 2 div} def /w3 {w 3 div} def 380 734 459 735 539 735 618 735 697 737 777 734 856 733 935 735 1015 739 1094 749 1174 744 1253
 738 1332 741 1412 737 1491 719 1570 713 1650 727 1729 725 1809 771 1888 741 20 { m20} R 6 lw black 0 0.733333 1 c
 gsave  2268 1328 0 0 C 2036.96 780.596 t 0 r /Helvetica-Bold findfont 48.4311 sf 0 0 m (/dof=0.4) show NC gr  black 0 0.733333 1 c
 gsave  2268 1328 0 0 C 2017.01 797.689 t 0 r /Helvetica-Bold findfont 34.1867 sf 0 0 m (2) show NC gr  black 0 0.733333 1 c
 gsave  2268 1328 0 0 C 1991.37 780.596 t 0 r /Symbol findfont 48.4311 sf 0 0 m (c) show NC gr  black 3 lw 340 735 m 1588 X s
 gsave  2268 1328 0 0 C 1179.44 1213.63 t 0 r /Helvetica-Bold findfont 42.7334 sf 0 0 m (1.5 mm) show NC gr  0 0.733333 1 c /w 23 def /w2 {w 2 div} def /w3 {w 3 div} def 1139 1228 m21 black 1 1 1 c 0.35 0.83 0.33 c 380 886 m21 459 885 m21 539 886 m21
 618 884 m21 697 898 m21 777 883 m21 856 880 m21 935 891 m21 black 1015 891 m 3 Y s 1015 917 m 2 Y s 1009 891 m 12 X s 1009 919 m 12 X s 0.35 0.83 0.33 c 1015 905 m21 black 1094 893 m 8 Y s 1094 923 m 8 Y s 1088 893 m 12 X s 1088 931 m 12 X s 0.35
 0.83 0.33 c 1094 912 m21 black 1174 868 m 14 Y s 1174 904 m 13 Y s 1168 868 m 11 X s 1168 917 m 11 X s 0.35 0.83 0.33 c 1174 893 m21 black 1253 847 m 19 Y s 1253 889 m 19 Y s 1247 847 m 12 X s 1247 908 m 12 X s 0.35 0.83 0.33 c 1253 878 m21 black
 1332 851 m 25 Y s 1332 899 m 25 Y s 1327 851 m 11 X s 1327 924 m 11 X s 0.35 0.83 0.33 c 1332 887 m21 black 1412 866 m 32 Y s 1412 920 m 32 Y s 1406 866 m 11 X s 1406 952 m 11 X s 0.35 0.83 0.33 c 1412 909 m21 black 1491 819 m 34 Y s 1491 876 m 35 Y
 s 1485 819 m 12 X s 1485 911 m 12 X s 0.35 0.83 0.33 c 1491 865 m21 black 1570 791 m 38 Y s 1570 852 m 38 Y s 1565 791 m 11 X s 1565 890 m 11 X s 0.35 0.83 0.33 c 1570 840 m21 black 1650 857 m 44 Y s 1650 924 m 44 Y s 1644 857 m 11 X s 1644 968 m 11
 X s 0.35 0.83 0.33 c 1650 913 m21 black 1729 865 m 47 Y s 1729 935 m 48 Y s 1723 865 m 12 X s 1723 983 m 12 X s 0.35 0.83 0.33 c 1729 924 m21 black 1809 882 m 52 Y s 1809 957 m 52 Y s 1803 882 m 11 X s 1803 1009 m 11 X s 0.35 0.83 0.33 c 1809 946
 m21 black 1888 840 m 55 Y s 1888 918 m 55 Y s 1882 840 m 12 X s 1882 973 m 12 X s 0.35 0.83 0.33 c 1888 906 m21 6 lw 1 1 1 c 0.35 0.83 0.33 c 380 887 m 36 X 43 1 d 113 X 46 1 d 20 X 30 1 d 29 X 80 -4 d 41 -2 d 50 X 16 1 d 19 1 d 22 1 d 10 1 d 19 2 d
 22 2 d 23 2 d 16 2 d 9 2 d 10 2 d 25 4 d 11 2 d 8 1 d 7 X 6 1 d 17 X 66 -7 d 25 -3 d 22 -2 d 12 -1 d 10 X 10 -1 d 8 X 10 1 d 13 X 23 2 d 50 X 12 -1 d 10 X 10 -1 d 8 -1 d 8 -1 d 7 -2 d 5 -1 d 6 -1 d 7 -2 d 7 -3 d 10 -4 d 19 -7 d 8 -3 d 6 -2 d 6 -1 d
 5 -1 d 12 -3 d 10 -2 d 9 -1 d 9 -1 d 9 -1 d 8 -1 d 28 X 5 1 d 6 1 d 7 1 d 9 2 d 14 4 d 10 3 d 8 1 d 5 2 d 6 X 4 1 d 24 X 24 -2 d 16 X 5 1 d 4 1 d 4 X 2 1 d 3 1 d 3 2 d 3 1 d 3 2 d 3 3 d 4 3 d 3 3 d 4 4 d 4 5 d 13 17 d 4 5 d 4 4 d 3 3 d 3 3 d 3 2 d 2
 2 d 3 1 d 3 2 d 2 1 d 3 1 d 3 X 3 1 d 10 X 4 -1 d 5 X 4 -1 d 4 -1 d 5 -2 d 4 -1 d 4 -2 d 4 -2 d 4 -2 d 4 -3 d 4 -2 d 4 -4 d 4 -3 d 3 -3 d 3 -3 d 4 -4 d 2 -4 d 3 -4 d 1 -1 d s 3 lw /w 2 def /w2 {w 2 div} def /w3 {w 3 div} def 380 887 459 888 539 888
 618 889 697 890 777 886 856 884 935 888 1015 896 1094 908 1174 901 1253 894 1332 897 1412 891 1491 866 1570 857 1650 873 1729 874 1809 940 1888 897 20 { m20} R 6 lw black 0.35 0.83 0.33 c
 gsave  2268 1328 0 0 C 2036.96 945.832 t 0 r /Helvetica-Bold findfont 48.4311 sf 0 0 m (/dof=0.2) show NC gr  black 0.35 0.83 0.33 c
 gsave  2268 1328 0 0 C 2017.01 962.925 t 0 r /Helvetica-Bold findfont 34.1867 sf 0 0 m (2) show NC gr  black 0.35 0.83 0.33 c
 gsave  2268 1328 0 0 C 1991.37 945.832 t 0 r /Symbol findfont 48.4311 sf 0 0 m (c) show NC gr  black 3 lw 340 888 m 1588 X s
 gsave  2268 1328 0 0 C 1481.42 1213.63 t 0 r /Helvetica-Bold findfont 39.8845 sf 0 0 m (2 mm) show NC gr  0.35 0.83 0.33 c /w 23 def /w2 {w 2 div} def /w3 {w 3 div} def 1441 1228 m21 black 1 1 1 c 0.53 0.4 0.34 c 380 1041 m21 459 1042 m21 539 1041
 m21 618 1044 m21 697 1041 m21 777 1039 m21 856 1036 m21 935 1040 m21 black 1015 1042 m 3 Y s 1015 1068 m 4 Y s 1009 1042 m 12 X s 1009 1072 m 12 X s 0.53 0.4 0.34 c 1015 1057 m21 black 1094 1037 m 8 Y s 1094 1068 m 9 Y s 1088 1037 m 12 X s 1088 1077
 m 12 X s 0.53 0.4 0.34 c 1094 1057 m21 black 1174 1024 m 15 Y s 1174 1062 m 15 Y s 1168 1024 m 11 X s 1168 1077 m 11 X s 0.53 0.4 0.34 c 1174 1050 m21 black 1253 1030 m 22 Y s 1253 1075 m 22 Y s 1247 1030 m 12 X s 1247 1097 m 12 X s 0.53 0.4 0.34 c
 1253 1064 m21 black 1332 1002 m 28 Y s 1332 1053 m 28 Y s 1327 1002 m 11 X s 1327 1081 m 11 X s 0.53 0.4 0.34 c 1332 1042 m21 black 1412 998 m 33 Y s 1412 1054 m 33 Y s 1406 998 m 11 X s 1406 1087 m 11 X s 0.53 0.4 0.34 c 1412 1043 m21 black 1491
 991 m 38 Y s 1491 1052 m 38 Y s 1485 991 m 12 X s 1485 1090 m 12 X s 0.53 0.4 0.34 c 1491 1041 m21 black 1570 968 m 43 Y s 1570 1034 m 43 Y s 1565 968 m 11 X s 1565 1077 m 11 X s 0.53 0.4 0.34 c 1570 1022 m21 black 1650 910 m 45 Y s 1650 978 m 45 Y
 s 1644 910 m 11 X s 1644 1023 m 11 X s 0.53 0.4 0.34 c 1650 966 m21 black 1729 937 m 50 Y s 1729 1009 m 50 Y s 1723 937 m 12 X s 1723 1059 m 12 X s 0.53 0.4 0.34 c 1729 998 m21 black 1809 986 m 55 Y s 1809 1063 m 55 Y s 1803 986 m 11 X s 1803 1118 m
 11 X s 0.53 0.4 0.34 c 1809 1052 m21 black 1888 963 m 59 Y s 1888 1045 m 59 Y s 1882 963 m 12 X s 1882 1104 m 12 X s 0.53 0.4 0.34 c 1888 1034 m21 6 lw 1 1 1 c 0.53 0.4 0.34 c 380 1040 m 36 X 43 1 d 72 -1 d 8 X 32 1 d 47 1 d 20 1 d 30 1 d 42 X 67 -6
 d 25 -2 d 21 -1 d 12 -1 d 33 X 13 1 d 14 1 d 19 2 d 21 3 d 14 2 d 16 3 d 29 5 d 21 4 d 12 2 d 29 6 d 12 2 d 9 2 d 7 X 7 1 d 10 X 8 -1 d 9 -1 d 12 -1 d 36 -6 d 8 -1 d 36 -4 d 15 -1 d 14 -1 d 14 -1 d 10 X 11 1 d 19 X 19 1 d 51 X 11 -1 d 10 -1 d 9 -1 d
 7 -1 d 7 -1 d 5 -1 d 5 -2 d 6 -2 d 6 -3 d 8 -3 d 7 -4 d 24 -13 d 8 -3 d 5 -3 d 6 -2 d 4 -1 d 10 -3 d 11 -2 d 9 -2 d 9 -2 d 9 -1 d 9 -1 d 8 X 8 -1 d 6 X 6 1 d 7 X 7 2 d 8 1 d 12 3 d 20 5 d 9 3 d 8 1 d 3 1 d 5 X 7 1 d 8 X 27 -1 d 6 X 6 1 d 5 1 d 5 1 d
 4 1 d 4 2 d 2 1 d 3 1 d 3 2 d 3 3 d 3 2 d 3 4 d 4 4 d 3 5 d 4 5 d 5 8 d 9 16 d 5 9 d 4 5 d 3 5 d 3 4 d 4 3 d 2 3 d 3 2 d 3 2 d 2 1 d 4 2 d 2 1 d 5 X 4 1 d 5 -1 d 4 X 5 -1 d 4 -1 d 4 -2 d 5 -1 d 4 -2 d 4 -3 d 4 -3 d 4 -3 d 4 -3 d 4 -4 d 4 -4 d 4 -4 d
 3 -4 d 3 -5 d 4 -5 d 2 -5 d 3 -5 d 1 -2 d s 3 lw /w 2 def /w2 {w 2 div} def /w3 {w 3 div} def 380 1040 459 1041 539 1040 618 1042 697 1044 777 1038 856 1034 935 1041 1015 1055 1094 1068 1174 1058 1253 1051 1332 1053 1412 1047 1491 1011 1570 999 1650
 1016 1729 1023 1809 1110 1888 1053 20 { m20} R 6 lw black 0.53 0.4 0.34 c
 gsave  2268 1328 0 0 C 2036.96 1113.92 t 0 r /Helvetica-Bold findfont 48.4311 sf 0 0 m (/dof=0.2) show NC gr  black 0.53 0.4 0.34 c
 gsave  2268 1328 0 0 C 2017.01 1131.01 t 0 r /Helvetica-Bold findfont 34.1867 sf 0 0 m (2) show NC gr  black 0.53 0.4 0.34 c
 gsave  2268 1328 0 0 C 1991.37 1113.92 t 0 r /Symbol findfont 48.4311 sf 0 0 m (c) show NC gr  black 3 lw 340 1042 m 1588 X s
 gsave  2268 1328 0 0 C 1783.41 1213.63 t 0 r /Helvetica-Bold findfont 42.7334 sf 0 0 m (2.5 mm) show NC gr  0.53 0.4 0.34 c /w 23 def /w2 {w 2 div} def /w3 {w 3 div} def 1743 1228 m21
 gr  gr showpage
end
%%EOF
