%!PS-Adobe-2.0 EPSF-2.0
%%BoundingBox:  0 0 567 332
%%Title: HornCurrent_near_fits.eps: Fits
%%Creator: ROOT Version 5.30/06
%%CreationDate: Sun Feb  2 09:39:36 2014
%%EndComments
%%BeginProlog
80 dict begin
/s {stroke} def /l {lineto} def /m {moveto} def /t {translate} def
/r {rotate} def /rl {roll}  def /R {repeat} def
/d {rlineto} def /rm {rmoveto} def /gr {grestore} def /f {eofill} def
/c {setrgbcolor} def /black {0 setgray} def /sd {setdash} def
/cl {closepath} def /sf {scalefont setfont} def /lw {setlinewidth} def
/box {m dup 0 exch d exch 0 d 0 exch neg d cl} def
/NC{systemdict begin initclip end}def/C{NC box clip newpath}def
/bl {box s} def /bf {box f} def /Y { 0 exch d} def /X { 0 d} def 
/K {{pop pop 0 moveto} exch kshow} bind def
/ita {/ang 15 def gsave [1 0 ang dup sin exch cos div 1 0 0] concat} def 
/mp {newpath /y exch def /x exch def} def
/side {[w .77 mul w .23 mul] .385 w mul sd w 0 l currentpoint t -144 r} def
/mr {mp x y w2 0 360 arc} def /m24 {mr s} def /m20 {mr f} def
/mb {mp x y w2 add m w2 neg 0 d 0 w neg d w 0 d 0 w d cl} def
/mt {mp x y w2 add m w2 neg w neg d w 0 d cl} def
/m21 {mb f} def /m25 {mb s} def /m22 {mt f} def /m26{mt s} def
/m23 {mp x y w2 sub m w2 w d w neg 0 d cl f} def
/m27 {mp x y w2 add m w3 neg w2 neg d w3 w2 neg d w3 w2 d cl s} def
/m28 {mp x w2 sub y w2 sub w3 add m w3 0 d  0 w3 neg d w3 0 d 0 w3 d w3 0 d  0 w3 d w3 neg 0 d 0 w3 d w3 neg 0 d 0 w3 neg d w3 neg 0 d cl s } def
/m29 {mp gsave x w2 sub y w2 add w3 sub m currentpoint t 4 {side} repeat cl fill gr} def
/m30 {mp gsave x w2 sub y w2 add w3 sub m currentpoint t 4 {side} repeat cl s gr} def
/m31 {mp x y w2 sub m 0 w d x w2 sub y m w 0 d x w2 sub y w2 add m w w neg d x w2 sub y w2 sub m w w d s} def
/m32 {mp x y w2 sub m w2 w d w neg 0 d cl s} def
/m33 {mp x y w2 add m w3 neg w2 neg d w3 w2 neg d w3 w2 d cl f} def
/m34 {mp x w2 sub y w2 sub w3 add m w3 0 d  0 w3 neg d w3 0 d 0 w3 d w3 0 d  0 w3 d w3 neg 0 d 0 w3 d w3 neg 0 d 0 w3 neg d w3 neg 0 d cl f } def
/m2 {mp x y w2 sub m 0 w d x w2 sub y m w 0 d s} def
/m5 {mp x w2 sub y w2 sub m w w d x w2 sub y w2 add m w w neg d s} def
/reEncode {exch findfont dup length dict begin {1 index /FID eq  {pop pop} {def} ifelse } forall /Encoding exch def currentdict end dup /FontName get exch definefont pop } def [/Times-Bold /Times-Italic /Times-BoldItalic /Helvetica /Helvetica-Oblique
 /Helvetica-Bold /Helvetica-BoldOblique /Courier /Courier-Oblique /Courier-Bold /Courier-BoldOblique /Times-Roman /AvantGarde-Book /AvantGarde-BookOblique /AvantGarde-Demi /AvantGarde-DemiOblique /Bookman-Demi /Bookman-DemiItalic /Bookman-Light
 /Bookman-LightItalic /Helvetica-Narrow /Helvetica-Narrow-Bold /Helvetica-Narrow-BoldOblique /Helvetica-Narrow-Oblique /NewCenturySchlbk-Roman /NewCenturySchlbk-Bold /NewCenturySchlbk-BoldItalic /NewCenturySchlbk-Italic /Palatino-Bold
 /Palatino-BoldItalic /Palatino-Italic /Palatino-Roman ] {ISOLatin1Encoding reEncode } forall%%EndProlog
%%BeginSetup
%%EndSetup
newpath  gsave  .25 .25 scale  gsave  0 0 t black[  ] 0 sd 3 lw 1 1 1 c 2268 1328 0 0 bf black 1 1 1 c 408 305 23 1009 bf black 1 1 1 c black 306 229 84 1055 bl 306 229 84 1055 bl 84 1055 m 306 X s 130 1059 m -4 Y s 236 1059 m -4 Y s 341 1059 m -4 Y
 s 130 1059 m -4 Y s 341 1059 m -4 Y s
 gsave  408 305 23 1009 C 111.107 1034.15 t 0 r /Helvetica findfont 22.8295 sf 0 0 m (\25510) show NC gr 
 gsave  408 305 23 1009 C 225.062 1034.15 t 0 r /Helvetica findfont 22.8295 sf 0 0 m (0) show NC gr 
 gsave  408 305 23 1009 C 324.773 1034.15 t 0 r /Helvetica findfont 22.8295 sf 0 0 m (10) show NC gr  84 1284 m 306 X s 130 1280 m 4 Y s 236 1280 m 4 Y s 341 1280 m 4 Y s 130 1280 m 4 Y s 341 1280 m 4 Y s 84 1055 m 229 Y s 89 1077 m -5 X s 87 1086 m
 -3 X s 87 1094 m -3 X s 87 1103 m -3 X s 89 1111 m -5 X s 87 1120 m -3 X s 87 1128 m -3 X s 87 1137 m -3 X s 89 1145 m -5 X s 87 1154 m -3 X s 87 1162 m -3 X s 87 1171 m -3 X s 89 1179 m -5 X s 87 1188 m -3 X s 87 1196 m -3 X s 87 1205 m -3 X s 89
 1213 m -5 X s 87 1222 m -3 X s 87 1230 m -3 X s 87 1239 m -3 X s 89 1247 m -5 X s 87 1256 m -3 X s 87 1264 m -3 X s 87 1273 m -3 X s 89 1281 m -5 X s 89 1077 m -5 X s 87 1069 m -3 X s 87 1060 m -3 X s 89 1281 m -5 X s
 gsave  408 305 23 1009 C 14.2445 1071.18 t 0 r /Helvetica findfont 22.8295 sf 0 0 m (\2550.006) show NC gr 
 gsave  408 305 23 1009 C 14.2445 1105.37 t 0 r /Helvetica findfont 22.8295 sf 0 0 m (\2550.004) show NC gr 
 gsave  408 305 23 1009 C 14.2445 1136.71 t 0 r /Helvetica findfont 22.8295 sf 0 0 m (\2550.002) show NC gr 
 gsave  408 305 23 1009 C 65.5245 1170.89 t 0 r /Helvetica findfont 22.8295 sf 0 0 m (0) show NC gr 
 gsave  408 305 23 1009 C 22.7911 1205.08 t 0 r /Helvetica findfont 22.8295 sf 0 0 m (0.002) show NC gr 
 gsave  408 305 23 1009 C 22.7911 1239.27 t 0 r /Helvetica findfont 22.8295 sf 0 0 m (0.004) show NC gr 
 gsave  408 305 23 1009 C 22.7911 1273.45 t 0 r /Helvetica findfont 22.8295 sf 0 0 m (0.006) show NC gr  390 1055 m 229 Y s 385 1077 m 5 X s 387 1086 m 3 X s 387 1094 m 3 X s 387 1103 m 3 X s 385 1111 m 5 X s 387 1120 m 3 X s 387 1128 m 3 X s 387
 1137 m 3 X s 385 1145 m 5 X s 387 1154 m 3 X s 387 1162 m 3 X s 387 1171 m 3 X s 385 1179 m 5 X s 387 1188 m 3 X s 387 1196 m 3 X s 387 1205 m 3 X s 385 1213 m 5 X s 387 1222 m 3 X s 387 1230 m 3 X s 387 1239 m 3 X s 385 1247 m 5 X s 387 1256 m 3 X
 s 387 1264 m 3 X s 387 1273 m 3 X s 385 1281 m 5 X s 385 1077 m 5 X s 387 1069 m 3 X s 387 1060 m 3 X s 385 1281 m 5 X s /w 22 def /w2 {w 2 div} def /w3 {w 3 div} def 362 1106 320 1180 278 1113 257 1130 215 1208 194 1175 151 1232 109 1177 8 { m21} R
 362 1117 m 21 Y s 357 1138 m 11 X s 362 1094 m -20 Y s 357 1074 m 11 X s 320 1192 m 20 Y s 314 1212 m 12 X s 320 1169 m -21 Y s 314 1148 m 12 X s 278 1125 m 20 Y s 272 1145 m 12 X s 278 1102 m -21 Y s 272 1081 m 12 X s 257 1142 m 20 Y s 251 1162 m
 11 X s 257 1119 m -21 Y s 251 1098 m 11 X s 215 1220 m 20 Y s 209 1240 m 11 X s 215 1197 m -21 Y s 209 1176 m 11 X s 194 1187 m 20 Y s 188 1207 m 11 X s 194 1164 m -21 Y s 188 1143 m 11 X s 151 1244 m 21 Y s 146 1265 m 11 X s 151 1221 m -21 Y s 146
 1200 m 11 X s 109 1189 m 21 Y s 104 1210 m 11 X s 109 1166 m -21 Y s 104 1145 m 11 X s 9 lw 0.95 0.95 0.95 c black 85 1232 m 3 -1 d 4 -1 d 3 -1 d 3 -1 d 3 -2 d 3 -1 d 3 -1 d 3 -1 d 3 -1 d 3 -1 d 3 -1 d 3 -1 d 3 -1 d 3 -1 d 3 -1 d 3 -1 d 3 -1 d 4 -1
 d 3 -2 d 3 -1 d 3 -1 d 3 -1 d 3 -1 d 3 -1 d 3 -1 d 3 -1 d 3 -1 d 3 -1 d 3 -1 d 3 -1 d 3 -1 d 3 -1 d 3 -2 d 4 -1 d 3 -1 d 3 -1 d 3 -1 d 3 -1 d 3 -1 d 3 -1 d 3 -1 d 3 -1 d 3 -1 d 3 -1 d 3 -1 d 3 -2 d 3 -1 d 3 -1 d 3 -1 d s 235 1179 m 4 -1 d 3 -1 d 3
 -1 d 3 -1 d 3 -1 d 3 -1 d 3 -1 d 3 -1 d 3 -1 d 3 -1 d 3 -2 d 3 -1 d 3 -1 d 3 -1 d 3 -1 d 3 -1 d 3 -1 d 4 -1 d 3 -1 d 3 -1 d 3 -1 d 3 -1 d 3 -1 d 3 -2 d 3 -1 d 3 -1 d 3 -1 d 3 -1 d 3 -1 d 3 -1 d 3 -1 d 3 -1 d 3 -1 d 4 -1 d 3 -1 d 3 -1 d 3 -1 d 3 -2 d
 3 -1 d 3 -1 d 3 -1 d 3 -1 d 3 -1 d 3 -1 d 3 -1 d 3 -1 d 3 -1 d 3 -1 d 3 -1 d s 385 1127 m 4 -1 d s 0.49 0.6 0.82 c black 0.49 0.6 0.82 c
 gsave  408 305 23 1009 C 142.445 1293.4 t 0 r /Helvetica-Bold findfont 25.6831 sf 0 0 m (0.0 < E < 0.5 GeV) show NC gr  0.52 0.76 0.64 c black 0.52 0.76 0.64 c
 gsave  408 305 23 1009 C 122.502 1256.36 t 0 r /Helvetica-Bold findfont 25.6831 sf 0 0 m 
 228 214 200 193 178 171 156 149 134 126 119 105 91 77 69 55 47 40 25 17
(A = \2550.000, p = 1.000) K NC gr  1 0.6 1 c black 1 0.6 1 c
 gsave  408 305 23 1009 C 427.334 1122.46 t 90 r /Helvetica-Bold findfont 28.5368 sf 0 0 m (/dof=1.3) show NC gr  black 1 0.6 1 c
 gsave  408 305 23 1009 C 415.938 1111.07 t 90 r /Helvetica-Bold findfont 19.9758 sf 0 0 m (2) show NC gr  black 1 0.6 1 c
 gsave  408 305 23 1009 C 427.334 1093.97 t 90 r /Symbol findfont 28.5368 sf 0 0 m (c) show NC gr  black 3 lw 1 1 1 c 408 305 476 1009 bf black 1 1 1 c black 307 229 537 1055 bl 307 229 537 1055 bl 537 1055 m 307 X s 584 1059 m -4 Y s 689 1059 m -4 Y
 s 795 1059 m -4 Y s 584 1059 m -4 Y s 795 1059 m -4 Y s
 gsave  408 305 476 1009 C 564.08 1034.15 t 0 r /Helvetica findfont 22.8295 sf 0 0 m (\25510) show NC gr 
 gsave  408 305 476 1009 C 678.036 1034.15 t 0 r /Helvetica findfont 22.8295 sf 0 0 m (0) show NC gr 
 gsave  408 305 476 1009 C 777.747 1034.15 t 0 r /Helvetica findfont 22.8295 sf 0 0 m (10) show NC gr  537 1284 m 307 X s 584 1280 m 4 Y s 689 1280 m 4 Y s 795 1280 m 4 Y s 584 1280 m 4 Y s 795 1280 m 4 Y s 537 1055 m 229 Y s 543 1057 m -6 X s 540
 1063 m -3 X s 540 1069 m -3 X s 540 1075 m -3 X s 543 1081 m -6 X s 540 1087 m -3 X s 540 1093 m -3 X s 540 1099 m -3 X s 543 1105 m -6 X s 540 1111 m -3 X s 540 1117 m -3 X s 540 1123 m -3 X s 543 1129 m -6 X s 540 1135 m -3 X s 540 1141 m -3 X s
 540 1147 m -3 X s 543 1153 m -6 X s 540 1159 m -3 X s 540 1165 m -3 X s 540 1171 m -3 X s 543 1177 m -6 X s 540 1183 m -3 X s 540 1189 m -3 X s 540 1195 m -3 X s 543 1201 m -6 X s 540 1207 m -3 X s 540 1213 m -3 X s 540 1219 m -3 X s 543 1225 m -6 X
 s 540 1231 m -3 X s 540 1237 m -3 X s 540 1243 m -3 X s 543 1249 m -6 X s 540 1256 m -3 X s 540 1262 m -3 X s 540 1268 m -3 X s 543 1274 m -6 X s 543 1057 m -6 X s 543 1274 m -6 X s 540 1280 m -3 X s
 gsave  408 305 476 1009 C 484.311 1048.39 t 0 r /Helvetica findfont 22.8295 sf 0 0 m (\2550.01) show NC gr 
 gsave  408 305 476 1009 C 467.218 1074.03 t 0 r /Helvetica findfont 22.8295 sf 0 0 m (\2550.008) show NC gr 
 gsave  408 305 476 1009 C 467.218 1096.82 t 0 r /Helvetica findfont 22.8295 sf 0 0 m (\2550.006) show NC gr 
 gsave  408 305 476 1009 C 467.218 1122.46 t 0 r /Helvetica findfont 22.8295 sf 0 0 m (\2550.004) show NC gr 
 gsave  408 305 476 1009 C 467.218 1145.25 t 0 r /Helvetica findfont 22.8295 sf 0 0 m (\2550.002) show NC gr 
 gsave  408 305 476 1009 C 518.498 1170.89 t 0 r /Helvetica findfont 22.8295 sf 0 0 m (0) show NC gr 
 gsave  408 305 476 1009 C 475.765 1193.68 t 0 r /Helvetica findfont 22.8295 sf 0 0 m (0.002) show NC gr 
 gsave  408 305 476 1009 C 475.765 1219.32 t 0 r /Helvetica findfont 22.8295 sf 0 0 m (0.004) show NC gr 
 gsave  408 305 476 1009 C 475.765 1242.12 t 0 r /Helvetica findfont 22.8295 sf 0 0 m (0.006) show NC gr 
 gsave  408 305 476 1009 C 475.765 1267.76 t 0 r /Helvetica findfont 22.8295 sf 0 0 m (0.008) show NC gr  844 1055 m 229 Y s 838 1057 m 6 X s 841 1063 m 3 X s 841 1069 m 3 X s 841 1075 m 3 X s 838 1081 m 6 X s 841 1087 m 3 X s 841 1093 m 3 X s 841
 1099 m 3 X s 838 1105 m 6 X s 841 1111 m 3 X s 841 1117 m 3 X s 841 1123 m 3 X s 838 1129 m 6 X s 841 1135 m 3 X s 841 1141 m 3 X s 841 1147 m 3 X s 838 1153 m 6 X s 841 1159 m 3 X s 841 1165 m 3 X s 841 1171 m 3 X s 838 1177 m 6 X s 841 1183 m 3 X
 s 841 1189 m 3 X s 841 1195 m 3 X s 838 1201 m 6 X s 841 1207 m 3 X s 841 1213 m 3 X s 841 1219 m 3 X s 838 1225 m 6 X s 841 1231 m 3 X s 841 1237 m 3 X s 841 1243 m 3 X s 838 1249 m 6 X s 841 1256 m 3 X s 841 1262 m 3 X s 841 1268 m 3 X s 838 1274
 m 6 X s 838 1057 m 6 X s 838 1274 m 6 X s 841 1280 m 3 X s /w 23 def /w2 {w 2 div} def /w3 {w 3 div} def 816 1101 774 1120 731 1170 710 1145 668 1179 647 1168 605 1237 563 1171 8 { m21} R 816 1113 m 15 Y s 810 1128 m 11 X s 816 1090 m -16 Y s 810
 1074 m 11 X s 774 1132 m 15 Y s 768 1147 m 11 X s 774 1109 m -16 Y s 768 1093 m 11 X s 731 1181 m 16 Y s 726 1197 m 11 X s 731 1159 m -16 Y s 726 1143 m 11 X s 710 1157 m 16 Y s 705 1173 m 11 X s 710 1134 m -16 Y s 705 1118 m 11 X s 668 1190 m 16 Y
 s 662 1206 m 12 X s 668 1168 m -16 Y s 662 1152 m 12 X s 647 1179 m 16 Y s 641 1195 m 12 X s 647 1156 m -16 Y s 641 1140 m 12 X s 605 1249 m 16 Y s 599 1265 m 12 X s 605 1226 m -16 Y s 599 1210 m 12 X s 563 1183 m 16 Y s 557 1199 m 11 X s 563 1160 m
 -16 Y s 557 1144 m 11 X s 9 lw 0.95 0.95 0.95 c black 539 1235 m 3 -2 d 3 -1 d 3 -1 d 3 -1 d 3 -1 d 3 -1 d 3 -2 d 3 -1 d 4 -1 d 3 -1 d 3 -1 d 3 -1 d 3 -2 d 3 -1 d 3 -1 d 3 -1 d 3 -1 d 3 -1 d 3 -2 d 3 -1 d 3 -1 d 3 -1 d 3 -1 d 3 -1 d 4 -2 d 3 -1 d 3
 -1 d 3 -1 d 3 -1 d 3 -1 d 3 -2 d 3 -1 d 3 -1 d 3 -1 d 3 -1 d 3 -2 d 3 -1 d 3 -1 d 3 -1 d 3 -1 d 3 -1 d 4 -2 d 3 -1 d 3 -1 d 3 -1 d 3 -1 d 3 -1 d 3 -2 d 3 -1 d s 689 1177 m 3 -1 d 3 -1 d 3 -1 d 3 -1 d 3 -2 d 3 -1 d 3 -1 d 3 -1 d 4 -1 d 3 -1 d 3 -2 d
 3 -1 d 3 -1 d 3 -1 d 3 -1 d 3 -1 d 3 -2 d 3 -1 d 3 -1 d 3 -1 d 3 -1 d 3 -2 d 3 -1 d 3 -1 d 4 -1 d 3 -1 d 3 -1 d 3 -2 d 3 -1 d 3 -1 d 3 -1 d 3 -1 d 3 -1 d 3 -2 d 3 -1 d 3 -1 d 3 -1 d 3 -1 d 3 -1 d 3 -2 d 4 -1 d 3 -1 d 3 -1 d 3 -1 d 3 -1 d 3 -2 d 3 -1
 d 3 -1 d 3 -1 d s 839 1120 m 3 -1 d s 0.49 0.6 0.82 c black 0.49 0.6 0.82 c
 gsave  408 305 476 1009 C 595.418 1293.4 t 0 r /Helvetica-Bold findfont 25.6831 sf 0 0 m (0.5 < E < 1.0 GeV) show NC gr  0.52 0.76 0.64 c black 0.52 0.76 0.64 c
 gsave  408 305 476 1009 C 575.476 1256.36 t 0 r /Helvetica-Bold findfont 25.6831 sf 0 0 m 
 228 214 200 193 178 171 156 149 133 126 119 105 91 77 69 55 47 39 25 17
(A = \2550.000, p = 1.000) K NC gr  1 0.6 1 c black 1 0.6 1 c
 gsave  408 305 476 1009 C 883.156 1122.46 t 90 r /Helvetica-Bold findfont 28.5368 sf 0 0 m (/dof=1.2) show NC gr  black 1 0.6 1 c
 gsave  408 305 476 1009 C 871.76 1111.07 t 90 r /Helvetica-Bold findfont 19.9758 sf 0 0 m (2) show NC gr  black 1 0.6 1 c
 gsave  408 305 476 1009 C 883.156 1093.97 t 90 r /Symbol findfont 28.5368 sf 0 0 m (c) show NC gr  black 3 lw 1 1 1 c 408 305 930 1009 bf black 1 1 1 c black 306 229 991 1055 bl 306 229 991 1055 bl 991 1055 m 306 X s 1037 1059 m -4 Y s 1143 1059 m
 -4 Y s 1248 1059 m -4 Y s 1037 1059 m -4 Y s 1248 1059 m -4 Y s
 gsave  408 305 930 1009 C 1019.9 1034.15 t 0 r /Helvetica findfont 22.8295 sf 0 0 m (\25510) show NC gr 
 gsave  408 305 930 1009 C 1133.86 1034.15 t 0 r /Helvetica findfont 22.8295 sf 0 0 m (0) show NC gr 
 gsave  408 305 930 1009 C 1233.57 1034.15 t 0 r /Helvetica findfont 22.8295 sf 0 0 m (10) show NC gr  991 1284 m 306 X s 1037 1280 m 4 Y s 1143 1280 m 4 Y s 1248 1280 m 4 Y s 1037 1280 m 4 Y s 1248 1280 m 4 Y s 991 1055 m 229 Y s 997 1083 m -6 X s
 994 1091 m -3 X s 994 1099 m -3 X s 994 1108 m -3 X s 994 1116 m -3 X s 997 1124 m -6 X s 994 1133 m -3 X s 994 1141 m -3 X s 994 1149 m -3 X s 994 1158 m -3 X s 997 1166 m -6 X s 994 1174 m -3 X s 994 1183 m -3 X s 994 1191 m -3 X s 994 1199 m -3 X
 s 997 1207 m -6 X s 994 1216 m -3 X s 994 1224 m -3 X s 994 1232 m -3 X s 994 1241 m -3 X s 997 1249 m -6 X s 997 1083 m -6 X s 994 1074 m -3 X s 994 1066 m -3 X s 994 1058 m -3 X s 997 1249 m -6 X s 994 1257 m -3 X s 994 1266 m -3 X s 994 1274 m -3
 X s 994 1282 m -3 X s
 gsave  408 305 930 1009 C 937.285 1076.88 t 0 r /Helvetica findfont 22.8295 sf 0 0 m (\2550.02) show NC gr 
 gsave  408 305 930 1009 C 940.134 1116.76 t 0 r /Helvetica findfont 22.8295 sf 0 0 m (\2550.01) show NC gr 
 gsave  408 305 930 1009 C 974.32 1159.5 t 0 r /Helvetica findfont 22.8295 sf 0 0 m (0) show NC gr 
 gsave  408 305 930 1009 C 945.832 1199.38 t 0 r /Helvetica findfont 22.8295 sf 0 0 m (0.01) show NC gr 
 gsave  408 305 930 1009 C 942.983 1242.12 t 0 r /Helvetica findfont 22.8295 sf 0 0 m (0.02) show NC gr  1297 1055 m 229 Y s 1292 1083 m 5 X s 1294 1091 m 3 X s 1294 1099 m 3 X s 1294 1108 m 3 X s 1294 1116 m 3 X s 1292 1124 m 5 X s 1294 1133 m 3 X s
 1294 1141 m 3 X s 1294 1149 m 3 X s 1294 1158 m 3 X s 1292 1166 m 5 X s 1294 1174 m 3 X s 1294 1183 m 3 X s 1294 1191 m 3 X s 1294 1199 m 3 X s 1292 1207 m 5 X s 1294 1216 m 3 X s 1294 1224 m 3 X s 1294 1232 m 3 X s 1294 1241 m 3 X s 1292 1249 m 5 X
 s 1292 1083 m 5 X s 1294 1074 m 3 X s 1294 1066 m 3 X s 1294 1058 m 3 X s 1292 1249 m 5 X s 1294 1257 m 3 X s 1294 1266 m 3 X s 1294 1274 m 3 X s 1294 1282 m 3 X s 1269 1255 1227 1223 1185 1206 1164 1180 1122 1148 1101 1139 1058 1097 1016 1083 8 {
 m21} R 9 lw 0.95 0.95 0.95 c black 993 1059 m 3 2 d 3 3 d 3 2 d 3 2 d 3 2 d 3 2 d 3 2 d 3 3 d 3 2 d 3 2 d 3 2 d 3 2 d 3 2 d 3 3 d 3 2 d 4 2 d 3 2 d 3 2 d 3 2 d 3 3 d 3 2 d 3 2 d 3 2 d 3 2 d 3 3 d 3 2 d 3 2 d 3 2 d 3 2 d 3 2 d 3 3 d 3 2 d 4 2 d 3 2 d
 3 2 d 3 2 d 3 3 d 3 2 d 3 2 d 3 2 d 3 2 d 3 2 d 3 3 d 3 2 d 3 2 d 3 2 d 3 2 d 3 3 d 4 2 d s 1143 1166 m 3 2 d 3 2 d 3 2 d 3 2 d 3 3 d 3 2 d 3 2 d 3 2 d 3 2 d 3 2 d 3 3 d 3 2 d 3 2 d 3 2 d 3 2 d 4 2 d 3 3 d 3 2 d 3 2 d 3 2 d 3 2 d 3 3 d 3 2 d 3 2 d 3
 2 d 3 2 d 3 2 d 3 3 d 3 2 d 3 2 d 3 2 d 3 2 d 4 2 d 3 3 d 3 2 d 3 2 d 3 2 d 3 2 d 3 2 d 3 3 d 3 2 d 3 2 d 3 2 d 3 2 d 3 3 d 3 2 d 3 2 d 3 2 d 4 2 d s 1293 1272 m 3 2 d s 0.49 0.6 0.82 c black 0.49 0.6 0.82 c
 gsave  408 305 930 1009 C 1051.24 1293.4 t 0 r /Helvetica-Bold findfont 25.6831 sf 0 0 m (1.0 < E < 1.5 GeV) show NC gr  0.52 0.76 0.64 c black 0.52 0.76 0.64 c
 gsave  408 305 930 1009 C 1037 1256.36 t 0 r /Helvetica-Bold findfont 25.6831 sf 0 0 m 
 220 206 192 185 170 163 148 141 126 118 111 97 83 69 61 47 40 25 18
(A = 0.002, p = 1.000) K NC gr  1 0.6 1 c black 1 0.6 1 c
 gsave  408 305 930 1009 C 1336.13 1122.46 t 90 r /Helvetica-Bold findfont 28.5368 sf 0 0 m (/dof=0.5) show NC gr  black 1 0.6 1 c
 gsave  408 305 930 1009 C 1324.73 1111.07 t 90 r /Helvetica-Bold findfont 19.9758 sf 0 0 m (2) show NC gr  black 1 0.6 1 c
 gsave  408 305 930 1009 C 1336.13 1093.97 t 90 r /Symbol findfont 28.5368 sf 0 0 m (c) show NC gr  black 3 lw 1 1 1 c 408 305 1383 1009 bf black 1 1 1 c black 306 229 1445 1055 bl 306 229 1445 1055 bl 1445 1055 m 306 X s 1491 1059 m -4 Y s 1596 1059
 m -4 Y s 1702 1059 m -4 Y s 1491 1059 m -4 Y s 1702 1059 m -4 Y s
 gsave  408 305 1383 1009 C 1472.88 1034.15 t 0 r /Helvetica findfont 22.8295 sf 0 0 m (\25510) show NC gr 
 gsave  408 305 1383 1009 C 1586.83 1034.15 t 0 r /Helvetica findfont 22.8295 sf 0 0 m (0) show NC gr 
 gsave  408 305 1383 1009 C 1686.54 1034.15 t 0 r /Helvetica findfont 22.8295 sf 0 0 m (10) show NC gr  1445 1284 m 306 X s 1491 1280 m 4 Y s 1596 1280 m 4 Y s 1702 1280 m 4 Y s 1491 1280 m 4 Y s 1702 1280 m 4 Y s 1445 1055 m 229 Y s 1450 1061 m -5 X
 s 1447 1066 m -2 X s 1447 1071 m -2 X s 1447 1077 m -2 X s 1447 1082 m -2 X s 1450 1087 m -5 X s 1447 1092 m -2 X s 1447 1097 m -2 X s 1447 1102 m -2 X s 1447 1108 m -2 X s 1450 1113 m -5 X s 1447 1118 m -2 X s 1447 1123 m -2 X s 1447 1128 m -2 X s
 1447 1134 m -2 X s 1450 1139 m -5 X s 1447 1144 m -2 X s 1447 1149 m -2 X s 1447 1154 m -2 X s 1447 1159 m -2 X s 1450 1165 m -5 X s 1447 1170 m -2 X s 1447 1175 m -2 X s 1447 1180 m -2 X s 1447 1185 m -2 X s 1450 1190 m -5 X s 1447 1196 m -2 X s
 1447 1201 m -2 X s 1447 1206 m -2 X s 1447 1211 m -2 X s 1450 1216 m -5 X s 1447 1222 m -2 X s 1447 1227 m -2 X s 1447 1232 m -2 X s 1447 1237 m -2 X s 1450 1242 m -5 X s 1447 1247 m -2 X s 1447 1253 m -2 X s 1447 1258 m -2 X s 1447 1263 m -2 X s
 1450 1268 m -5 X s 1450 1061 m -5 X s 1447 1056 m -2 X s 1450 1268 m -5 X s 1447 1273 m -2 X s 1447 1278 m -2 X s 1447 1284 m -2 X s
 gsave  408 305 1383 1009 C 1390.26 1054.09 t 0 r /Helvetica findfont 22.8295 sf 0 0 m (\2550.02) show NC gr 
 gsave  408 305 1383 1009 C 1376.01 1079.73 t 0 r /Helvetica findfont 22.8295 sf 0 0 m (\2550.015) show NC gr 
 gsave  408 305 1383 1009 C 1393.11 1105.37 t 0 r /Helvetica findfont 22.8295 sf 0 0 m (\2550.01) show NC gr 
 gsave  408 305 1383 1009 C 1376.01 1131.01 t 0 r /Helvetica findfont 22.8295 sf 0 0 m (\2550.005) show NC gr 
 gsave  408 305 1383 1009 C 1427.29 1156.65 t 0 r /Helvetica findfont 22.8295 sf 0 0 m (0) show NC gr 
 gsave  408 305 1383 1009 C 1384.56 1182.29 t 0 r /Helvetica findfont 22.8295 sf 0 0 m (0.005) show NC gr 
 gsave  408 305 1383 1009 C 1398.81 1207.93 t 0 r /Helvetica findfont 22.8295 sf 0 0 m (0.01) show NC gr 
 gsave  408 305 1383 1009 C 1384.56 1236.42 t 0 r /Helvetica findfont 22.8295 sf 0 0 m (0.015) show NC gr 
 gsave  408 305 1383 1009 C 1395.96 1262.06 t 0 r /Helvetica findfont 22.8295 sf 0 0 m (0.02) show NC gr  1751 1055 m 229 Y s 1745 1061 m 6 X s 1748 1066 m 3 X s 1748 1071 m 3 X s 1748 1077 m 3 X s 1748 1082 m 3 X s 1745 1087 m 6 X s 1748 1092 m 3 X
 s 1748 1097 m 3 X s 1748 1102 m 3 X s 1748 1108 m 3 X s 1745 1113 m 6 X s 1748 1118 m 3 X s 1748 1123 m 3 X s 1748 1128 m 3 X s 1748 1134 m 3 X s 1745 1139 m 6 X s 1748 1144 m 3 X s 1748 1149 m 3 X s 1748 1154 m 3 X s 1748 1159 m 3 X s 1745 1165 m 6
 X s 1748 1170 m 3 X s 1748 1175 m 3 X s 1748 1180 m 3 X s 1748 1185 m 3 X s 1745 1190 m 6 X s 1748 1196 m 3 X s 1748 1201 m 3 X s 1748 1206 m 3 X s 1748 1211 m 3 X s 1745 1216 m 6 X s 1748 1222 m 3 X s 1748 1227 m 3 X s 1748 1232 m 3 X s 1748 1237 m
 3 X s 1745 1242 m 6 X s 1748 1247 m 3 X s 1748 1253 m 3 X s 1748 1258 m 3 X s 1748 1263 m 3 X s 1745 1268 m 6 X s 1745 1061 m 6 X s 1748 1056 m 3 X s 1745 1268 m 6 X s 1748 1273 m 3 X s 1748 1278 m 3 X s 1748 1284 m 3 X s 1723 1253 1681 1188 1639
 1182 1617 1174 1575 1139 1554 1121 1512 1111 1470 1085 8 { m21} R 1723 1264 m 1 Y s 1717 1265 m 12 X s 1723 1242 m -1 Y s 1717 1241 m 12 X s 1681 1199 m s 1675 1199 m 11 X s 1681 1176 m s 1675 1176 m 11 X s 1639 1194 m s 1633 1194 m 11 X s 1639 1171
 m s 1633 1171 m 11 X s 1617 1185 m 1 Y s 1612 1186 m 11 X s 1617 1163 m -1 Y s 1612 1162 m 11 X s 1575 1151 m s 1570 1151 m 11 X s 1575 1128 m s 1570 1128 m 11 X s 1554 1132 m s 1548 1132 m 12 X s 1554 1109 m s 1548 1109 m 12 X s 1512 1122 m s 1506
 1122 m 12 X s 1512 1099 m s 1506 1099 m 12 X s 1470 1097 m s 1464 1097 m 12 X s 1470 1074 m s 1464 1074 m 12 X s 9 lw 0.95 0.95 0.95 c black 1446 1073 m 3 1 d 3 2 d 3 2 d 3 2 d 3 2 d 3 2 d 3 2 d 4 2 d 3 1 d 3 2 d 3 2 d 3 2 d 3 2 d 3 2 d 3 2 d 3 2 d
 3 1 d 3 2 d 3 2 d 3 2 d 3 2 d 3 2 d 3 2 d 4 2 d 3 1 d 3 2 d 3 2 d 3 2 d 3 2 d 3 2 d 3 2 d 3 2 d 3 1 d 3 2 d 3 2 d 3 2 d 3 2 d 3 2 d 3 2 d 4 2 d 3 1 d 3 2 d 3 2 d 3 2 d 3 2 d 3 2 d 3 2 d 3 2 d 3 1 d s 1596 1164 m 3 2 d 3 2 d 3 2 d 3 2 d 3 2 d 3 2 d 4
 2 d 3 1 d 3 2 d 3 2 d 3 2 d 3 2 d 3 2 d 3 2 d 3 2 d 3 1 d 3 2 d 3 2 d 3 2 d 3 2 d 3 2 d 3 2 d 3 2 d 4 1 d 3 2 d 3 2 d 3 2 d 3 2 d 3 2 d 3 2 d 3 2 d 3 1 d 3 2 d 3 2 d 3 2 d 3 2 d 3 2 d 3 2 d 3 2 d 4 1 d 3 2 d 3 2 d 3 2 d 3 2 d 3 2 d 3 2 d 3 2 d 3 1 d
 3 2 d s 1746 1256 m 3 2 d s 0.49 0.6 0.82 c black 0.49 0.6 0.82 c
 gsave  408 305 1383 1009 C 1504.21 1293.4 t 0 r /Helvetica-Bold findfont 25.6831 sf 0 0 m (1.5 < E < 2.0 GeV) show NC gr  0.52 0.76 0.64 c black 0.52 0.76 0.64 c
 gsave  408 305 1383 1009 C 1489.97 1256.36 t 0 r /Helvetica-Bold findfont 25.6831 sf 0 0 m 
 220 206 192 185 170 163 148 141 125 118 111 97 83 68 61 47 40 25 18
(A = 0.001, p = 1.000) K NC gr  1 0.6 1 c black 1 0.6 1 c
 gsave  408 305 1383 1009 C 1789.1 1122.46 t 90 r /Helvetica-Bold findfont 28.5368 sf 0 0 m (/dof=1.6) show NC gr  black 1 0.6 1 c
 gsave  408 305 1383 1009 C 1777.71 1111.07 t 90 r /Helvetica-Bold findfont 19.9758 sf 0 0 m (2) show NC gr  black 1 0.6 1 c
 gsave  408 305 1383 1009 C 1789.1 1093.97 t 90 r /Symbol findfont 28.5368 sf 0 0 m (c) show NC gr  black 3 lw 1 1 1 c 408 305 1837 1009 bf black 1 1 1 c black 306 229 1898 1055 bl 306 229 1898 1055 bl 1898 1055 m 306 X s 1944 1059 m -4 Y s 2050 1059
 m -4 Y s 2155 1059 m -4 Y s 1944 1059 m -4 Y s 2155 1059 m -4 Y s
 gsave  408 305 1837 1009 C 1925.85 1034.15 t 0 r /Helvetica findfont 22.8295 sf 0 0 m (\25510) show NC gr 
 gsave  408 305 1837 1009 C 2039.81 1034.15 t 0 r /Helvetica findfont 22.8295 sf 0 0 m (0) show NC gr 
 gsave  408 305 1837 1009 C 2139.52 1034.15 t 0 r /Helvetica findfont 22.8295 sf 0 0 m (10) show NC gr  1898 1284 m 306 X s 1944 1280 m 4 Y s 2050 1280 m 4 Y s 2155 1280 m 4 Y s 1944 1280 m 4 Y s 2155 1280 m 4 Y s 1898 1055 m 229 Y s 1904 1081 m -6 X
 s 1901 1086 m -3 X s 1901 1092 m -3 X s 1901 1097 m -3 X s 1901 1102 m -3 X s 1904 1108 m -6 X s 1901 1113 m -3 X s 1901 1119 m -3 X s 1901 1124 m -3 X s 1901 1130 m -3 X s 1904 1135 m -6 X s 1901 1141 m -3 X s 1901 1146 m -3 X s 1901 1152 m -3 X s
 1901 1157 m -3 X s 1904 1163 m -6 X s 1901 1168 m -3 X s 1901 1173 m -3 X s 1901 1179 m -3 X s 1901 1184 m -3 X s 1904 1190 m -6 X s 1901 1195 m -3 X s 1901 1201 m -3 X s 1901 1206 m -3 X s 1901 1212 m -3 X s 1904 1217 m -6 X s 1901 1223 m -3 X s
 1901 1228 m -3 X s 1901 1234 m -3 X s 1901 1239 m -3 X s 1904 1244 m -6 X s 1901 1250 m -3 X s 1901 1255 m -3 X s 1901 1261 m -3 X s 1901 1266 m -3 X s 1904 1272 m -6 X s 1904 1081 m -6 X s 1901 1075 m -3 X s 1901 1070 m -3 X s 1901 1064 m -3 X s
 1901 1059 m -3 X s 1904 1272 m -6 X s 1901 1277 m -3 X s 1901 1283 m -3 X s
 gsave  408 305 1837 1009 C 1843.23 1074.03 t 0 r /Helvetica findfont 22.8295 sf 0 0 m (\2550.02) show NC gr 
 gsave  408 305 1837 1009 C 1828.99 1099.67 t 0 r /Helvetica findfont 22.8295 sf 0 0 m (\2550.015) show NC gr 
 gsave  408 305 1837 1009 C 1846.08 1128.16 t 0 r /Helvetica findfont 22.8295 sf 0 0 m (\2550.01) show NC gr 
 gsave  408 305 1837 1009 C 1828.99 1156.65 t 0 r /Helvetica findfont 22.8295 sf 0 0 m (\2550.005) show NC gr 
 gsave  408 305 1837 1009 C 1880.27 1182.29 t 0 r /Helvetica findfont 22.8295 sf 0 0 m (0) show NC gr 
 gsave  408 305 1837 1009 C 1837.53 1210.78 t 0 r /Helvetica findfont 22.8295 sf 0 0 m (0.005) show NC gr 
 gsave  408 305 1837 1009 C 1851.78 1236.42 t 0 r /Helvetica findfont 22.8295 sf 0 0 m (0.01) show NC gr 
 gsave  408 305 1837 1009 C 1837.53 1264.91 t 0 r /Helvetica findfont 22.8295 sf 0 0 m (0.015) show NC gr  2204 1055 m 229 Y s 2199 1081 m 5 X s 2201 1086 m 3 X s 2201 1092 m 3 X s 2201 1097 m 3 X s 2201 1102 m 3 X s 2199 1108 m 5 X s 2201 1113 m 3 X
 s 2201 1119 m 3 X s 2201 1124 m 3 X s 2201 1130 m 3 X s 2199 1135 m 5 X s 2201 1141 m 3 X s 2201 1146 m 3 X s 2201 1152 m 3 X s 2201 1157 m 3 X s 2199 1163 m 5 X s 2201 1168 m 3 X s 2201 1173 m 3 X s 2201 1179 m 3 X s 2201 1184 m 3 X s 2199 1190 m 5
 X s 2201 1195 m 3 X s 2201 1201 m 3 X s 2201 1206 m 3 X s 2201 1212 m 3 X s 2199 1217 m 5 X s 2201 1223 m 3 X s 2201 1228 m 3 X s 2201 1234 m 3 X s 2201 1239 m 3 X s 2199 1244 m 5 X s 2201 1250 m 3 X s 2201 1255 m 3 X s 2201 1261 m 3 X s 2201 1266 m
 3 X s 2199 1272 m 5 X s 2199 1081 m 5 X s 2201 1075 m 3 X s 2201 1070 m 3 X s 2201 1064 m 3 X s 2201 1059 m 3 X s 2199 1272 m 5 X s 2201 1277 m 3 X s 2201 1283 m 3 X s 2176 1251 2134 1224 2092 1210 2071 1187 2029 1168 2008 1182 1966 1128 1923 1087 8
 { m21} R 2176 1263 m 2 Y s 2171 1265 m 11 X s 2176 1240 m -2 Y s 2171 1238 m 11 X s 2134 1235 m 2 Y s 2129 1237 m 11 X s 2134 1213 m -2 Y s 2129 1211 m 11 X s 2092 1222 m 1 Y s 2086 1223 m 12 X s 2092 1199 m -2 Y s 2086 1197 m 12 X s 2071 1199 m 2 Y
 s 2065 1201 m 12 X s 2071 1176 m -2 Y s 2065 1174 m 12 X s 2029 1179 m 2 Y s 2023 1181 m 11 X s 2029 1156 m -1 Y s 2023 1155 m 11 X s 2008 1193 m 2 Y s 2002 1195 m 11 X s 2008 1171 m -2 Y s 2002 1169 m 11 X s 1966 1139 m 2 Y s 1960 1141 m 11 X s
 1966 1117 m -2 Y s 1960 1115 m 11 X s 1923 1098 m 2 Y s 1918 1100 m 11 X s 1923 1075 m -1 Y s 1918 1074 m 11 X s 9 lw 0.95 0.95 0.95 c black 1900 1099 m 3 2 d 3 2 d 3 1 d 3 2 d 3 2 d 3 2 d 3 2 d 3 2 d 3 2 d 3 1 d 3 2 d 3 2 d 3 2 d 3 2 d 4 2 d 3 2 d
 3 1 d 3 2 d 3 2 d 3 2 d 3 2 d 3 2 d 3 1 d 3 2 d 3 2 d 3 2 d 3 2 d 3 2 d 3 2 d 3 1 d 4 2 d 3 2 d 3 2 d 3 2 d 3 2 d 3 2 d 3 1 d 3 2 d 3 2 d 3 2 d 3 2 d 3 2 d 3 2 d 3 1 d 3 2 d 3 2 d 3 2 d 4 2 d 3 2 d s 2050 1190 m 3 2 d 3 1 d 3 2 d 3 2 d 3 2 d 3 2 d 3
 2 d 3 2 d 3 1 d 3 2 d 3 2 d 3 2 d 3 2 d 3 2 d 4 2 d 3 1 d 3 2 d 3 2 d 3 2 d 3 2 d 3 2 d 3 1 d 3 2 d 3 2 d 3 2 d 3 2 d 3 2 d 3 2 d 3 1 d 3 2 d 4 2 d 3 2 d 3 2 d 3 2 d 3 2 d 3 1 d 3 2 d 3 2 d 3 2 d 3 2 d 3 2 d 3 2 d 3 1 d 3 2 d 3 2 d 3 2 d 4 2 d 3 2 d
 3 2 d s 2200 1281 m 3 1 d s 0.49 0.6 0.82 c black 0.49 0.6 0.82 c
 gsave  408 305 1837 1009 C 1957.19 1293.4 t 0 r /Helvetica-Bold findfont 25.6831 sf 0 0 m (2.0 < E < 2.5 GeV) show NC gr  0.52 0.76 0.64 c black 0.52 0.76 0.64 c
 gsave  408 305 1837 1009 C 1942.94 1256.36 t 0 r /Helvetica-Bold findfont 25.6831 sf 0 0 m 
 220 206 192 185 170 163 148 141 126 118 111 97 83 69 61 47 40 25 18
(A = 0.001, p = 1.000) K NC gr  1 0.6 1 c black 1 0.6 1 c
 gsave  408 305 1837 1009 C 2242.08 1122.46 t 90 r /Helvetica-Bold findfont 28.5368 sf 0 0 m (/dof=1.6) show NC gr  black 1 0.6 1 c
 gsave  408 305 1837 1009 C 2230.68 1111.07 t 90 r /Helvetica-Bold findfont 19.9758 sf 0 0 m (2) show NC gr  black 1 0.6 1 c
 gsave  408 305 1837 1009 C 2242.08 1093.97 t 90 r /Symbol findfont 28.5368 sf 0 0 m (c) show NC gr  black 3 lw 1 1 1 c 408 305 23 677 bf black 1 1 1 c black 306 229 84 723 bl 306 229 84 723 bl 84 723 m 306 X s 130 727 m -4 Y s 236 727 m -4 Y s 341
 727 m -4 Y s 130 727 m -4 Y s 341 727 m -4 Y s
 gsave  408 305 23 677 C 111.107 703.676 t 0 r /Helvetica findfont 22.8295 sf 0 0 m (\25510) show NC gr 
 gsave  408 305 23 677 C 225.062 703.676 t 0 r /Helvetica findfont 22.8295 sf 0 0 m (0) show NC gr 
 gsave  408 305 23 677 C 324.773 703.676 t 0 r /Helvetica findfont 22.8295 sf 0 0 m (10) show NC gr  84 952 m 306 X s 130 948 m 4 Y s 236 948 m 4 Y s 341 948 m 4 Y s 130 948 m 4 Y s 341 948 m 4 Y s 84 723 m 229 Y s 89 731 m -5 X s 87 737 m -3 X s 87
 743 m -3 X s 87 749 m -3 X s 87 755 m -3 X s 89 761 m -5 X s 87 767 m -3 X s 87 773 m -3 X s 87 779 m -3 X s 87 785 m -3 X s 89 791 m -5 X s 87 797 m -3 X s 87 803 m -3 X s 87 809 m -3 X s 87 815 m -3 X s 89 821 m -5 X s 87 827 m -3 X s 87 833 m -3
 X s 87 839 m -3 X s 87 845 m -3 X s 89 851 m -5 X s 87 857 m -3 X s 87 863 m -3 X s 87 869 m -3 X s 87 875 m -3 X s 89 881 m -5 X s 87 887 m -3 X s 87 893 m -3 X s 87 899 m -3 X s 87 906 m -3 X s 89 912 m -5 X s 87 918 m -3 X s 87 924 m -3 X s 87
 930 m -3 X s 87 936 m -3 X s 89 942 m -5 X s 89 731 m -5 X s 87 725 m -3 X s 89 942 m -5 X s 87 948 m -3 X s
 gsave  408 305 23 677 C 28.4889 723.618 t 0 r /Helvetica findfont 22.8295 sf 0 0 m (\2550.04) show NC gr 
 gsave  408 305 23 677 C 28.4889 754.956 t 0 r /Helvetica findfont 22.8295 sf 0 0 m (\2550.03) show NC gr 
 gsave  408 305 23 677 C 28.4889 783.445 t 0 r /Helvetica findfont 22.8295 sf 0 0 m (\2550.02) show NC gr 
 gsave  408 305 23 677 C 31.3378 814.783 t 0 r /Helvetica findfont 22.8295 sf 0 0 m (\2550.01) show NC gr 
 gsave  408 305 23 677 C 65.5245 843.271 t 0 r /Helvetica findfont 22.8295 sf 0 0 m (0) show NC gr 
 gsave  408 305 23 677 C 37.0356 874.609 t 0 r /Helvetica findfont 22.8295 sf 0 0 m (0.01) show NC gr 
 gsave  408 305 23 677 C 34.1867 903.098 t 0 r /Helvetica findfont 22.8295 sf 0 0 m (0.02) show NC gr 
 gsave  408 305 23 677 C 34.1867 934.436 t 0 r /Helvetica findfont 22.8295 sf 0 0 m (0.03) show NC gr  390 723 m 229 Y s 385 731 m 5 X s 387 737 m 3 X s 387 743 m 3 X s 387 749 m 3 X s 387 755 m 3 X s 385 761 m 5 X s 387 767 m 3 X s 387 773 m 3 X s
 387 779 m 3 X s 387 785 m 3 X s 385 791 m 5 X s 387 797 m 3 X s 387 803 m 3 X s 387 809 m 3 X s 387 815 m 3 X s 385 821 m 5 X s 387 827 m 3 X s 387 833 m 3 X s 387 839 m 3 X s 387 845 m 3 X s 385 851 m 5 X s 387 857 m 3 X s 387 863 m 3 X s 387 869 m
 3 X s 387 875 m 3 X s 385 881 m 5 X s 387 887 m 3 X s 387 893 m 3 X s 387 899 m 3 X s 387 906 m 3 X s 385 912 m 5 X s 387 918 m 3 X s 387 924 m 3 X s 387 930 m 3 X s 387 936 m 3 X s 385 942 m 5 X s 385 731 m 5 X s 387 725 m 3 X s 385 942 m 5 X s 387
 948 m 3 X s /w 22 def /w2 {w 2 div} def /w3 {w 3 div} def 362 924 320 885 278 868 257 861 215 840 194 824 151 777 109 750 8 { m21} R 9 lw 0.95 0.95 0.95 c black 85 751 m 3 2 d 4 2 d 3 2 d 3 2 d 3 2 d 3 3 d 3 2 d 3 2 d 3 2 d 3 2 d 3 2 d 3 2 d 3 2 d 3
 2 d 3 2 d 3 2 d 3 2 d 4 2 d 3 2 d 3 2 d 3 2 d 3 2 d 3 2 d 3 2 d 3 2 d 3 2 d 3 2 d 3 2 d 3 2 d 3 2 d 3 2 d 3 2 d 3 3 d 4 2 d 3 2 d 3 2 d 3 2 d 3 2 d 3 2 d 3 2 d 3 2 d 3 2 d 3 2 d 3 2 d 3 2 d 3 2 d 3 2 d 3 2 d 3 2 d s 235 851 m 4 2 d 3 2 d 3 2 d 3 2 d
 3 2 d 3 2 d 3 2 d 3 2 d 3 2 d 3 3 d 3 2 d 3 2 d 3 2 d 3 2 d 3 2 d 3 2 d 3 2 d 4 2 d 3 2 d 3 2 d 3 2 d 3 2 d 3 2 d 3 2 d 3 2 d 3 2 d 3 2 d 3 2 d 3 2 d 3 2 d 3 2 d 3 2 d 3 2 d 4 2 d 3 2 d 3 2 d 3 3 d 3 2 d 3 2 d 3 2 d 3 2 d 3 2 d 3 2 d 3 2 d 3 2 d 3 2
 d 3 2 d 3 2 d 3 2 d s 0.49 0.6 0.82 c black 0.49 0.6 0.82 c
 gsave  408 305 23 677 C 142.445 960.076 t 0 r /Helvetica-Bold findfont 25.6831 sf 0 0 m (2.5 < E < 3.0 GeV) show NC gr  0.52 0.76 0.64 c black 0.52 0.76 0.64 c
 gsave  408 305 23 677 C 128.2 923.04 t 0 r /Helvetica-Bold findfont 25.6831 sf 0 0 m 
 220 206 192 185 170 163 148 141 126 118 111 97 83 69 61 47 40 25 18
(A = 0.002, p = 1.000) K NC gr  1 0.6 1 c black 1 0.6 1 c
 gsave  408 305 23 677 C 427.334 791.991 t 90 r /Helvetica-Bold findfont 28.5368 sf 0 0 m (/dof=3.1) show NC gr  black 1 0.6 1 c
 gsave  408 305 23 677 C 415.938 780.596 t 90 r /Helvetica-Bold findfont 19.9758 sf 0 0 m (2) show NC gr  black 1 0.6 1 c
 gsave  408 305 23 677 C 427.334 763.503 t 90 r /Symbol findfont 28.5368 sf 0 0 m (c) show NC gr  black 3 lw 1 1 1 c 408 305 476 677 bf black 1 1 1 c black 307 229 537 723 bl 307 229 537 723 bl 537 723 m 307 X s 584 727 m -4 Y s 689 727 m -4 Y s 795
 727 m -4 Y s 584 727 m -4 Y s 795 727 m -4 Y s
 gsave  408 305 476 677 C 564.08 703.676 t 0 r /Helvetica findfont 22.8295 sf 0 0 m (\25510) show NC gr 
 gsave  408 305 476 677 C 678.036 703.676 t 0 r /Helvetica findfont 22.8295 sf 0 0 m (0) show NC gr 
 gsave  408 305 476 677 C 777.747 703.676 t 0 r /Helvetica findfont 22.8295 sf 0 0 m (10) show NC gr  537 952 m 307 X s 584 948 m 4 Y s 689 948 m 4 Y s 795 948 m 4 Y s 584 948 m 4 Y s 795 948 m 4 Y s 537 723 m 229 Y s 543 735 m -6 X s 540 740 m -3 X
 s 540 746 m -3 X s 540 752 m -3 X s 543 757 m -6 X s 540 763 m -3 X s 540 769 m -3 X s 540 774 m -3 X s 543 780 m -6 X s 540 786 m -3 X s 540 791 m -3 X s 540 797 m -3 X s 543 802 m -6 X s 540 808 m -3 X s 540 814 m -3 X s 540 819 m -3 X s 543 825 m
 -6 X s 540 831 m -3 X s 540 836 m -3 X s 540 842 m -3 X s 543 847 m -6 X s 540 853 m -3 X s 540 859 m -3 X s 540 864 m -3 X s 543 870 m -6 X s 540 876 m -3 X s 540 881 m -3 X s 540 887 m -3 X s 543 893 m -6 X s 540 898 m -3 X s 540 904 m -3 X s 540
 909 m -3 X s 543 915 m -6 X s 540 921 m -3 X s 540 926 m -3 X s 540 932 m -3 X s 543 938 m -6 X s 543 735 m -6 X s 540 729 m -3 X s 540 724 m -3 X s 543 938 m -6 X s 540 943 m -3 X s 540 949 m -3 X s
 gsave  408 305 476 677 C 495.707 726.467 t 0 r /Helvetica findfont 22.8295 sf 0 0 m (\2550.1) show NC gr 
 gsave  408 305 476 677 C 481.462 749.258 t 0 r /Helvetica findfont 22.8295 sf 0 0 m (\2550.08) show NC gr 
 gsave  408 305 476 677 C 481.462 772.049 t 0 r /Helvetica findfont 22.8295 sf 0 0 m (\2550.06) show NC gr 
 gsave  408 305 476 677 C 481.462 794.84 t 0 r /Helvetica findfont 22.8295 sf 0 0 m (\2550.04) show NC gr 
 gsave  408 305 476 677 C 481.462 817.631 t 0 r /Helvetica findfont 22.8295 sf 0 0 m (\2550.02) show NC gr 
 gsave  408 305 476 677 C 518.498 840.423 t 0 r /Helvetica findfont 22.8295 sf 0 0 m (0) show NC gr 
 gsave  408 305 476 677 C 487.16 863.214 t 0 r /Helvetica findfont 22.8295 sf 0 0 m (0.02) show NC gr 
 gsave  408 305 476 677 C 487.16 886.005 t 0 r /Helvetica findfont 22.8295 sf 0 0 m (0.04) show NC gr 
 gsave  408 305 476 677 C 487.16 908.796 t 0 r /Helvetica findfont 22.8295 sf 0 0 m (0.06) show NC gr 
 gsave  408 305 476 677 C 487.16 931.587 t 0 r /Helvetica findfont 22.8295 sf 0 0 m (0.08) show NC gr  844 723 m 229 Y s 838 735 m 6 X s 841 740 m 3 X s 841 746 m 3 X s 841 752 m 3 X s 838 757 m 6 X s 841 763 m 3 X s 841 769 m 3 X s 841 774 m 3 X s
 838 780 m 6 X s 841 786 m 3 X s 841 791 m 3 X s 841 797 m 3 X s 838 802 m 6 X s 841 808 m 3 X s 841 814 m 3 X s 841 819 m 3 X s 838 825 m 6 X s 841 831 m 3 X s 841 836 m 3 X s 841 842 m 3 X s 838 847 m 6 X s 841 853 m 3 X s 841 859 m 3 X s 841 864 m
 3 X s 838 870 m 6 X s 841 876 m 3 X s 841 881 m 3 X s 841 887 m 3 X s 838 893 m 6 X s 841 898 m 3 X s 841 904 m 3 X s 841 909 m 3 X s 838 915 m 6 X s 841 921 m 3 X s 841 926 m 3 X s 841 932 m 3 X s 838 938 m 6 X s 838 735 m 6 X s 841 729 m 3 X s 841
 724 m 3 X s 838 938 m 6 X s 841 943 m 3 X s 841 949 m 3 X s /w 23 def /w2 {w 2 div} def /w3 {w 3 div} def 816 929 774 909 731 881 710 866 668 831 647 817 605 777 563 745 8 { m21} R 9 lw 0.95 0.95 0.95 c black 539 734 m 3 3 d 3 2 d 3 2 d 3 3 d 3 2 d
 3 2 d 3 3 d 3 2 d 4 2 d 3 2 d 3 3 d 3 2 d 3 2 d 3 3 d 3 2 d 3 2 d 3 3 d 3 2 d 3 2 d 3 2 d 3 3 d 3 2 d 3 2 d 3 3 d 4 2 d 3 2 d 3 3 d 3 2 d 3 2 d 3 3 d 3 2 d 3 2 d 3 2 d 3 3 d 3 2 d 3 2 d 3 3 d 3 2 d 3 2 d 3 3 d 3 2 d 4 2 d 3 2 d 3 3 d 3 2 d 3 2 d 3 3
 d 3 2 d 3 2 d s 689 847 m 3 3 d 3 2 d 3 2 d 3 2 d 3 3 d 3 2 d 3 2 d 3 3 d 4 2 d 3 2 d 3 3 d 3 2 d 3 2 d 3 2 d 3 3 d 3 2 d 3 2 d 3 3 d 3 2 d 3 2 d 3 3 d 3 2 d 3 2 d 3 3 d 4 2 d 3 2 d 3 2 d 3 3 d 3 2 d 3 2 d 3 3 d 3 2 d 3 2 d 3 3 d 3 2 d 3 2 d 3 2 d 3
 3 d 3 2 d 3 2 d 4 3 d 3 2 d 3 2 d 3 3 d 3 2 d 3 1 d s 0.49 0.6 0.82 c black 0.49 0.6 0.82 c
 gsave  408 305 476 677 C 595.418 960.076 t 0 r /Helvetica-Bold findfont 25.6831 sf 0 0 m (3.0 < E < 3.5 GeV) show NC gr  0.52 0.76 0.64 c black 0.52 0.76 0.64 c
 gsave  408 305 476 677 C 581.174 923.04 t 0 r /Helvetica-Bold findfont 25.6831 sf 0 0 m 
 220 206 192 185 170 163 148 141 125 118 111 97 83 69 61 47 40 25 18
(A = 0.007, p = 1.000) K NC gr  1 0.6 1 c black 1 0.6 1 c
 gsave  408 305 476 677 C 883.156 791.991 t 90 r /Helvetica-Bold findfont 28.5368 sf 0 0 m (/dof=3.2) show NC gr  black 1 0.6 1 c
 gsave  408 305 476 677 C 871.76 780.596 t 90 r /Helvetica-Bold findfont 19.9758 sf 0 0 m (2) show NC gr  black 1 0.6 1 c
 gsave  408 305 476 677 C 883.156 763.503 t 90 r /Symbol findfont 28.5368 sf 0 0 m (c) show NC gr  black 3 lw 1 1 1 c 408 305 930 677 bf black 1 1 1 c black 306 229 991 723 bl 306 229 991 723 bl 991 723 m 306 X s 1037 727 m -4 Y s 1143 727 m -4 Y s
 1248 727 m -4 Y s 1037 727 m -4 Y s 1248 727 m -4 Y s
 gsave  408 305 930 677 C 1019.9 703.676 t 0 r /Helvetica findfont 22.8295 sf 0 0 m (\25510) show NC gr 
 gsave  408 305 930 677 C 1133.86 703.676 t 0 r /Helvetica findfont 22.8295 sf 0 0 m (0) show NC gr 
 gsave  408 305 930 677 C 1233.57 703.676 t 0 r /Helvetica findfont 22.8295 sf 0 0 m (10) show NC gr  991 952 m 306 X s 1037 948 m 4 Y s 1143 948 m 4 Y s 1248 948 m 4 Y s 1037 948 m 4 Y s 1248 948 m 4 Y s 991 723 m 229 Y s 997 728 m -6 X s 994 733 m
 -3 X s 994 739 m -3 X s 994 744 m -3 X s 994 750 m -3 X s 997 755 m -6 X s 994 761 m -3 X s 994 766 m -3 X s 994 772 m -3 X s 994 777 m -3 X s 997 783 m -6 X s 994 788 m -3 X s 994 794 m -3 X s 994 799 m -3 X s 994 805 m -3 X s 997 810 m -6 X s 994
 816 m -3 X s 994 821 m -3 X s 994 827 m -3 X s 994 832 m -3 X s 997 838 m -6 X s 994 843 m -3 X s 994 849 m -3 X s 994 854 m -3 X s 994 860 m -3 X s 997 865 m -6 X s 994 871 m -3 X s 994 876 m -3 X s 994 882 m -3 X s 994 887 m -3 X s 997 893 m -6 X
 s 994 898 m -3 X s 994 904 m -3 X s 994 909 m -3 X s 994 915 m -3 X s 997 920 m -6 X s 994 926 m -3 X s 994 931 m -3 X s 994 937 m -3 X s 994 942 m -3 X s 997 948 m -6 X s 997 728 m -6 X s 997 948 m -6 X s
 gsave  408 305 930 677 C 948.68 720.769 t 0 r /Helvetica findfont 22.8295 sf 0 0 m (\2550.2) show NC gr 
 gsave  408 305 930 677 C 937.285 749.258 t 0 r /Helvetica findfont 22.8295 sf 0 0 m (\2550.15) show NC gr 
 gsave  408 305 930 677 C 951.529 774.898 t 0 r /Helvetica findfont 22.8295 sf 0 0 m (\2550.1) show NC gr 
 gsave  408 305 930 677 C 937.285 803.387 t 0 r /Helvetica findfont 22.8295 sf 0 0 m (\2550.05) show NC gr 
 gsave  408 305 930 677 C 974.32 831.876 t 0 r /Helvetica findfont 22.8295 sf 0 0 m (0) show NC gr 
 gsave  408 305 930 677 C 942.983 857.516 t 0 r /Helvetica findfont 22.8295 sf 0 0 m (0.05) show NC gr 
 gsave  408 305 930 677 C 960.076 886.005 t 0 r /Helvetica findfont 22.8295 sf 0 0 m (0.1) show NC gr 
 gsave  408 305 930 677 C 942.983 914.494 t 0 r /Helvetica findfont 22.8295 sf 0 0 m (0.15) show NC gr 
 gsave  408 305 930 677 C 957.227 940.134 t 0 r /Helvetica findfont 22.8295 sf 0 0 m (0.2) show NC gr  1297 723 m 229 Y s 1292 728 m 5 X s 1294 733 m 3 X s 1294 739 m 3 X s 1294 744 m 3 X s 1294 750 m 3 X s 1292 755 m 5 X s 1294 761 m 3 X s 1294 766
 m 3 X s 1294 772 m 3 X s 1294 777 m 3 X s 1292 783 m 5 X s 1294 788 m 3 X s 1294 794 m 3 X s 1294 799 m 3 X s 1294 805 m 3 X s 1292 810 m 5 X s 1294 816 m 3 X s 1294 821 m 3 X s 1294 827 m 3 X s 1294 832 m 3 X s 1292 838 m 5 X s 1294 843 m 3 X s
 1294 849 m 3 X s 1294 854 m 3 X s 1294 860 m 3 X s 1292 865 m 5 X s 1294 871 m 3 X s 1294 876 m 3 X s 1294 882 m 3 X s 1294 887 m 3 X s 1292 893 m 5 X s 1294 898 m 3 X s 1294 904 m 3 X s 1294 909 m 3 X s 1294 915 m 3 X s 1292 920 m 5 X s 1294 926 m
 3 X s 1294 931 m 3 X s 1294 937 m 3 X s 1294 942 m 3 X s 1292 948 m 5 X s 1292 728 m 5 X s 1292 948 m 5 X s 1269 930 1227 903 1185 869 1164 853 1122 822 1101 806 1058 774 1016 744 8 { m21} R 9 lw 0.95 0.95 0.95 c black 993 726 m 3 2 d 3 2 d 3 3 d 3
 2 d 3 2 d 3 3 d 3 2 d 3 2 d 3 2 d 3 3 d 3 2 d 3 2 d 3 3 d 3 2 d 3 2 d 4 2 d 3 3 d 3 2 d 3 2 d 3 3 d 3 2 d 3 2 d 3 2 d 3 3 d 3 2 d 3 2 d 3 2 d 3 3 d 3 2 d 3 2 d 3 3 d 3 2 d 4 2 d 3 2 d 3 3 d 3 2 d 3 2 d 3 3 d 3 2 d 3 2 d 3 2 d 3 3 d 3 2 d 3 2 d 3 2 d
 3 3 d 3 2 d 3 2 d 4 3 d s 1143 838 m 3 2 d 3 2 d 3 2 d 3 3 d 3 2 d 3 2 d 3 3 d 3 2 d 3 2 d 3 2 d 3 3 d 3 2 d 3 2 d 3 3 d 3 2 d 4 2 d 3 2 d 3 3 d 3 2 d 3 2 d 3 2 d 3 3 d 3 2 d 3 2 d 3 3 d 3 2 d 3 2 d 3 2 d 3 3 d 3 2 d 3 2 d 3 3 d 4 2 d 3 2 d 3 2 d 3
 3 d 3 2 d 3 2 d 3 2 d 3 3 d 3 2 d 3 2 d 3 3 d 3 2 d 3 2 d 3 2 d 3 3 d 3 2 d 4 2 d s 1293 949 m 3 3 d s 0.49 0.6 0.82 c black 0.49 0.6 0.82 c
 gsave  408 305 930 677 C 1051.24 960.076 t 0 r /Helvetica-Bold findfont 25.6831 sf 0 0 m (3.5 < E < 4.0 GeV) show NC gr  0.52 0.76 0.64 c black 0.52 0.76 0.64 c
 gsave  408 305 930 677 C 1037 923.04 t 0 r /Helvetica-Bold findfont 25.6831 sf 0 0 m 
 220 206 192 185 170 163 148 141 126 118 111 97 83 69 61 47 40 25 18
(A = 0.014, p = 1.000) K NC gr  1 0.6 1 c black 1 0.6 1 c
 gsave  408 305 930 677 C 1336.13 791.991 t 90 r /Helvetica-Bold findfont 28.5368 sf 0 0 m (/dof=0.2) show NC gr  black 1 0.6 1 c
 gsave  408 305 930 677 C 1324.73 780.596 t 90 r /Helvetica-Bold findfont 19.9758 sf 0 0 m (2) show NC gr  black 1 0.6 1 c
 gsave  408 305 930 677 C 1336.13 763.503 t 90 r /Symbol findfont 28.5368 sf 0 0 m (c) show NC gr  black 3 lw 1 1 1 c 408 305 1383 677 bf black 1 1 1 c black 306 229 1445 723 bl 306 229 1445 723 bl 1445 723 m 306 X s 1491 727 m -4 Y s 1596 727 m -4 Y
 s 1702 727 m -4 Y s 1491 727 m -4 Y s 1702 727 m -4 Y s
 gsave  408 305 1383 677 C 1472.88 703.676 t 0 r /Helvetica findfont 22.8295 sf 0 0 m (\25510) show NC gr 
 gsave  408 305 1383 677 C 1586.83 703.676 t 0 r /Helvetica findfont 22.8295 sf 0 0 m (0) show NC gr 
 gsave  408 305 1383 677 C 1686.54 703.676 t 0 r /Helvetica findfont 22.8295 sf 0 0 m (10) show NC gr  1445 952 m 306 X s 1491 948 m 4 Y s 1596 948 m 4 Y s 1702 948 m 4 Y s 1491 948 m 4 Y s 1702 948 m 4 Y s 1445 723 m 229 Y s 1450 742 m -5 X s 1447
 751 m -2 X s 1447 760 m -2 X s 1447 769 m -2 X s 1447 778 m -2 X s 1450 787 m -5 X s 1447 796 m -2 X s 1447 805 m -2 X s 1447 814 m -2 X s 1447 823 m -2 X s 1450 832 m -5 X s 1447 841 m -2 X s 1447 850 m -2 X s 1447 859 m -2 X s 1447 868 m -2 X s
 1450 877 m -5 X s 1447 886 m -2 X s 1447 895 m -2 X s 1447 904 m -2 X s 1447 914 m -2 X s 1450 923 m -5 X s 1450 742 m -5 X s 1447 733 m -2 X s 1447 723 m -2 X s 1450 923 m -5 X s 1447 932 m -2 X s 1447 941 m -2 X s 1447 950 m -2 X s
 gsave  408 305 1383 677 C 1401.65 735.014 t 0 r /Helvetica findfont 22.8295 sf 0 0 m (\2550.2) show NC gr 
 gsave  408 305 1383 677 C 1404.5 780.596 t 0 r /Helvetica findfont 22.8295 sf 0 0 m (\2550.1) show NC gr 
 gsave  408 305 1383 677 C 1427.29 826.178 t 0 r /Helvetica findfont 22.8295 sf 0 0 m (0) show NC gr 
 gsave  408 305 1383 677 C 1413.05 868.911 t 0 r /Helvetica findfont 22.8295 sf 0 0 m (0.1) show NC gr 
 gsave  408 305 1383 677 C 1410.2 914.494 t 0 r /Helvetica findfont 22.8295 sf 0 0 m (0.2) show NC gr  1751 723 m 229 Y s 1745 742 m 6 X s 1748 751 m 3 X s 1748 760 m 3 X s 1748 769 m 3 X s 1748 778 m 3 X s 1745 787 m 6 X s 1748 796 m 3 X s 1748 805
 m 3 X s 1748 814 m 3 X s 1748 823 m 3 X s 1745 832 m 6 X s 1748 841 m 3 X s 1748 850 m 3 X s 1748 859 m 3 X s 1748 868 m 3 X s 1745 877 m 6 X s 1748 886 m 3 X s 1748 895 m 3 X s 1748 904 m 3 X s 1748 914 m 3 X s 1745 923 m 6 X s 1745 742 m 6 X s
 1748 733 m 3 X s 1748 723 m 3 X s 1745 923 m 6 X s 1748 932 m 3 X s 1748 941 m 3 X s 1748 950 m 3 X s 1723 930 1681 902 1639 863 1617 847 1575 818 1554 800 1512 772 1470 744 8 { m21} R 9 lw 0.95 0.95 0.95 c black 1446 723 m 3 1 d 3 2 d 3 2 d 3 3 d 3
 2 d 3 2 d 3 2 d 4 3 d 3 2 d 3 2 d 3 2 d 3 3 d 3 2 d 3 2 d 3 2 d 3 3 d 3 2 d 3 2 d 3 2 d 3 3 d 3 2 d 3 2 d 3 2 d 4 3 d 3 2 d 3 2 d 3 2 d 3 3 d 3 2 d 3 2 d 3 2 d 3 3 d 3 2 d 3 2 d 3 2 d 3 3 d 3 2 d 3 2 d 3 2 d 4 3 d 3 2 d 3 2 d 3 2 d 3 3 d 3 2 d 3 2 d
 3 2 d 3 3 d 3 2 d s 1596 832 m 3 2 d 3 2 d 3 3 d 3 2 d 3 2 d 3 2 d 4 3 d 3 2 d 3 2 d 3 2 d 3 3 d 3 2 d 3 2 d 3 2 d 3 3 d 3 2 d 3 2 d 3 2 d 3 3 d 3 2 d 3 2 d 3 2 d 3 3 d 4 2 d 3 2 d 3 2 d 3 3 d 3 2 d 3 2 d 3 2 d 3 3 d 3 2 d 3 2 d 3 2 d 3 3 d 3 2 d 3
 2 d 3 2 d 3 3 d 4 2 d 3 2 d 3 3 d 3 2 d 3 2 d 3 2 d 3 3 d 3 2 d 3 2 d 3 2 d s 1746 942 m 3 3 d s 0.49 0.6 0.82 c black 0.49 0.6 0.82 c
 gsave  408 305 1383 677 C 1504.21 960.076 t 0 r /Helvetica-Bold findfont 25.6831 sf 0 0 m (4.0 < E < 4.5 GeV) show NC gr  0.52 0.76 0.64 c black 0.52 0.76 0.64 c
 gsave  408 305 1383 677 C 1489.97 923.04 t 0 r /Helvetica-Bold findfont 25.6831 sf 0 0 m 
 220 206 192 185 170 163 148 141 125 118 111 97 83 68 61 47 40 25 18
(A = 0.017, p = 1.000) K NC gr  1 0.6 1 c black 1 0.6 1 c
 gsave  408 305 1383 677 C 1789.1 791.991 t 90 r /Helvetica-Bold findfont 28.5368 sf 0 0 m (/dof=2.5) show NC gr  black 1 0.6 1 c
 gsave  408 305 1383 677 C 1777.71 780.596 t 90 r /Helvetica-Bold findfont 19.9758 sf 0 0 m (2) show NC gr  black 1 0.6 1 c
 gsave  408 305 1383 677 C 1789.1 763.503 t 90 r /Symbol findfont 28.5368 sf 0 0 m (c) show NC gr  black 3 lw 1 1 1 c 408 305 1837 677 bf black 1 1 1 c black 306 229 1898 723 bl 306 229 1898 723 bl 1898 723 m 306 X s 1944 727 m -4 Y s 2050 727 m -4 Y
 s 2155 727 m -4 Y s 1944 727 m -4 Y s 2155 727 m -4 Y s
 gsave  408 305 1837 677 C 1925.85 703.676 t 0 r /Helvetica findfont 22.8295 sf 0 0 m (\25510) show NC gr 
 gsave  408 305 1837 677 C 2039.81 703.676 t 0 r /Helvetica findfont 22.8295 sf 0 0 m (0) show NC gr 
 gsave  408 305 1837 677 C 2139.52 703.676 t 0 r /Helvetica findfont 22.8295 sf 0 0 m (10) show NC gr  1898 952 m 306 X s 1944 948 m 4 Y s 2050 948 m 4 Y s 2155 948 m 4 Y s 1944 948 m 4 Y s 2155 948 m 4 Y s 1898 723 m 229 Y s 1904 730 m -6 X s 1901
 735 m -3 X s 1901 739 m -3 X s 1901 744 m -3 X s 1901 749 m -3 X s 1904 754 m -6 X s 1901 758 m -3 X s 1901 763 m -3 X s 1901 768 m -3 X s 1901 773 m -3 X s 1904 777 m -6 X s 1901 782 m -3 X s 1901 787 m -3 X s 1901 792 m -3 X s 1901 796 m -3 X s
 1904 801 m -6 X s 1901 806 m -3 X s 1901 811 m -3 X s 1901 815 m -3 X s 1901 820 m -3 X s 1904 825 m -6 X s 1901 830 m -3 X s 1901 834 m -3 X s 1901 839 m -3 X s 1901 844 m -3 X s 1904 849 m -6 X s 1901 853 m -3 X s 1901 858 m -3 X s 1901 863 m -3 X
 s 1901 868 m -3 X s 1904 872 m -6 X s 1901 877 m -3 X s 1901 882 m -3 X s 1901 887 m -3 X s 1901 891 m -3 X s 1904 896 m -6 X s 1901 901 m -3 X s 1901 906 m -3 X s 1901 910 m -3 X s 1901 915 m -3 X s 1904 920 m -6 X s 1901 925 m -3 X s 1901 929 m -3
 X s 1901 934 m -3 X s 1901 939 m -3 X s 1904 944 m -6 X s 1904 730 m -6 X s 1901 725 m -3 X s 1904 944 m -6 X s 1901 948 m -3 X s
 gsave  408 305 1837 677 C 1854.63 723.618 t 0 r /Helvetica findfont 22.8295 sf 0 0 m (\2550.2) show NC gr 
 gsave  408 305 1837 677 C 1843.23 746.409 t 0 r /Helvetica findfont 22.8295 sf 0 0 m (\2550.15) show NC gr 
 gsave  408 305 1837 677 C 1857.48 769.2 t 0 r /Helvetica findfont 22.8295 sf 0 0 m (\2550.1) show NC gr 
 gsave  408 305 1837 677 C 1843.23 794.84 t 0 r /Helvetica findfont 22.8295 sf 0 0 m (\2550.05) show NC gr 
 gsave  408 305 1837 677 C 1880.27 817.631 t 0 r /Helvetica findfont 22.8295 sf 0 0 m (0) show NC gr 
 gsave  408 305 1837 677 C 1848.93 840.423 t 0 r /Helvetica findfont 22.8295 sf 0 0 m (0.05) show NC gr 
 gsave  408 305 1837 677 C 1866.02 866.063 t 0 r /Helvetica findfont 22.8295 sf 0 0 m (0.1) show NC gr 
 gsave  408 305 1837 677 C 1848.93 888.854 t 0 r /Helvetica findfont 22.8295 sf 0 0 m (0.15) show NC gr 
 gsave  408 305 1837 677 C 1863.17 911.645 t 0 r /Helvetica findfont 22.8295 sf 0 0 m (0.2) show NC gr 
 gsave  408 305 1837 677 C 1848.93 937.285 t 0 r /Helvetica findfont 22.8295 sf 0 0 m (0.25) show NC gr  2204 723 m 229 Y s 2199 730 m 5 X s 2201 735 m 3 X s 2201 739 m 3 X s 2201 744 m 3 X s 2201 749 m 3 X s 2199 754 m 5 X s 2201 758 m 3 X s 2201
 763 m 3 X s 2201 768 m 3 X s 2201 773 m 3 X s 2199 777 m 5 X s 2201 782 m 3 X s 2201 787 m 3 X s 2201 792 m 3 X s 2201 796 m 3 X s 2199 801 m 5 X s 2201 806 m 3 X s 2201 811 m 3 X s 2201 815 m 3 X s 2201 820 m 3 X s 2199 825 m 5 X s 2201 830 m 3 X s
 2201 834 m 3 X s 2201 839 m 3 X s 2201 844 m 3 X s 2199 849 m 5 X s 2201 853 m 3 X s 2201 858 m 3 X s 2201 863 m 3 X s 2201 868 m 3 X s 2199 872 m 5 X s 2201 877 m 3 X s 2201 882 m 3 X s 2201 887 m 3 X s 2201 891 m 3 X s 2199 896 m 5 X s 2201 901 m
 3 X s 2201 906 m 3 X s 2201 910 m 3 X s 2201 915 m 3 X s 2199 920 m 5 X s 2201 925 m 3 X s 2201 929 m 3 X s 2201 934 m 3 X s 2201 939 m 3 X s 2199 944 m 5 X s 2199 730 m 5 X s 2201 725 m 3 X s 2199 944 m 5 X s 2201 948 m 3 X s 2176 929 2134 894 2092
 855 2071 839 2029 812 2008 801 1966 773 1923 745 8 { m21} R 9 lw 0.95 0.95 0.95 c black 1903 723 m 3 1 d 3 3 d 3 2 d 3 2 d 3 2 d 3 2 d 3 2 d 3 2 d 3 2 d 3 3 d 3 2 d 3 2 d 3 2 d 4 2 d 3 2 d 3 2 d 3 3 d 3 2 d 3 2 d 3 2 d 3 2 d 3 2 d 3 2 d 3 2 d 3 3 d
 3 2 d 3 2 d 3 2 d 3 2 d 4 2 d 3 2 d 3 3 d 3 2 d 3 2 d 3 2 d 3 2 d 3 2 d 3 2 d 3 3 d 3 2 d 3 2 d 3 2 d 3 2 d 3 2 d 3 2 d 3 2 d 4 3 d 3 2 d 3 2 d s 2053 827 m 3 2 d 3 2 d 3 2 d 3 2 d 3 3 d 3 2 d 3 2 d 3 2 d 3 2 d 3 2 d 3 2 d 3 2 d 3 3 d 4 2 d 3 2 d 3
 2 d 3 2 d 3 2 d 3 2 d 3 3 d 3 2 d 3 2 d 3 2 d 3 2 d 3 2 d 3 2 d 3 3 d 3 2 d 3 2 d 4 2 d 3 2 d 3 2 d 3 2 d 3 2 d 3 3 d 3 2 d 3 2 d 3 2 d 3 2 d 3 2 d 3 2 d 3 3 d 3 2 d 3 2 d 3 2 d 4 2 d 3 2 d 3 2 d 3 3 d s 0.49 0.6 0.82 c black 0.49 0.6 0.82 c
 gsave  408 305 1837 677 C 1957.19 960.076 t 0 r /Helvetica-Bold findfont 25.6831 sf 0 0 m (4.5 < E < 5.0 GeV) show NC gr  0.52 0.76 0.64 c black 0.52 0.76 0.64 c
 gsave  408 305 1837 677 C 1942.94 923.04 t 0 r /Helvetica-Bold findfont 25.6831 sf 0 0 m 
 220 206 192 185 170 163 148 141 126 118 111 97 83 69 61 47 40 25 18
(A = 0.015, p = 1.000) K NC gr  1 0.6 1 c black 1 0.6 1 c
 gsave  408 305 1837 677 C 2242.08 791.991 t 90 r /Helvetica-Bold findfont 28.5368 sf 0 0 m (/dof=5.4) show NC gr  black 1 0.6 1 c
 gsave  408 305 1837 677 C 2230.68 780.596 t 90 r /Helvetica-Bold findfont 19.9758 sf 0 0 m (2) show NC gr  black 1 0.6 1 c
 gsave  408 305 1837 677 C 2242.08 763.503 t 90 r /Symbol findfont 28.5368 sf 0 0 m (c) show NC gr  black 3 lw 1 1 1 c 408 306 23 345 bf black 1 1 1 c black 306 229 84 391 bl 306 229 84 391 bl 84 391 m 306 X s 130 395 m -4 Y s 236 395 m -4 Y s 341
 395 m -4 Y s 130 395 m -4 Y s 341 395 m -4 Y s
 gsave  408 306 23 345 C 111.107 370.356 t 0 r /Helvetica findfont 22.8295 sf 0 0 m (\25510) show NC gr 
 gsave  408 306 23 345 C 225.062 370.356 t 0 r /Helvetica findfont 22.8295 sf 0 0 m (0) show NC gr 
 gsave  408 306 23 345 C 324.773 370.356 t 0 r /Helvetica findfont 22.8295 sf 0 0 m (10) show NC gr  84 620 m 306 X s 130 616 m 4 Y s 236 616 m 4 Y s 341 616 m 4 Y s 130 616 m 4 Y s 341 616 m 4 Y s 84 391 m 229 Y s 89 422 m -5 X s 87 429 m -3 X s 87
 435 m -3 X s 87 442 m -3 X s 87 448 m -3 X s 89 454 m -5 X s 87 461 m -3 X s 87 467 m -3 X s 87 474 m -3 X s 87 480 m -3 X s 89 487 m -5 X s 87 493 m -3 X s 87 500 m -3 X s 87 506 m -3 X s 87 513 m -3 X s 89 519 m -5 X s 87 525 m -3 X s 87 532 m -3
 X s 87 538 m -3 X s 87 545 m -3 X s 89 551 m -5 X s 87 558 m -3 X s 87 564 m -3 X s 87 571 m -3 X s 87 577 m -3 X s 89 583 m -5 X s 87 590 m -3 X s 87 596 m -3 X s 87 603 m -3 X s 87 609 m -3 X s 89 616 m -5 X s 89 422 m -5 X s 87 416 m -3 X s 87
 409 m -3 X s 87 403 m -3 X s 87 396 m -3 X s 89 616 m -5 X s
 gsave  408 306 23 345 C 42.7334 415.938 t 0 r /Helvetica findfont 22.8295 sf 0 0 m (\2550.1) show NC gr 
 gsave  408 306 23 345 C 28.4889 447.276 t 0 r /Helvetica findfont 22.8295 sf 0 0 m (\2550.05) show NC gr 
 gsave  408 306 23 345 C 65.5245 478.614 t 0 r /Helvetica findfont 22.8295 sf 0 0 m (0) show NC gr 
 gsave  408 306 23 345 C 34.1867 512.8 t 0 r /Helvetica findfont 22.8295 sf 0 0 m (0.05) show NC gr 
 gsave  408 306 23 345 C 51.28 544.138 t 0 r /Helvetica findfont 22.8295 sf 0 0 m (0.1) show NC gr 
 gsave  408 306 23 345 C 34.1867 575.476 t 0 r /Helvetica findfont 22.8295 sf 0 0 m (0.15) show NC gr 
 gsave  408 306 23 345 C 48.4311 609.662 t 0 r /Helvetica findfont 22.8295 sf 0 0 m (0.2) show NC gr  390 391 m 229 Y s 385 422 m 5 X s 387 429 m 3 X s 387 435 m 3 X s 387 442 m 3 X s 387 448 m 3 X s 385 454 m 5 X s 387 461 m 3 X s 387 467 m 3 X s
 387 474 m 3 X s 387 480 m 3 X s 385 487 m 5 X s 387 493 m 3 X s 387 500 m 3 X s 387 506 m 3 X s 387 513 m 3 X s 385 519 m 5 X s 387 525 m 3 X s 387 532 m 3 X s 387 538 m 3 X s 387 545 m 3 X s 385 551 m 5 X s 387 558 m 3 X s 387 564 m 3 X s 387 571 m
 3 X s 387 577 m 3 X s 385 583 m 5 X s 387 590 m 3 X s 387 596 m 3 X s 387 603 m 3 X s 387 609 m 3 X s 385 616 m 5 X s 385 422 m 5 X s 387 416 m 3 X s 387 409 m 3 X s 387 403 m 3 X s 387 396 m 3 X s 385 616 m 5 X s /w 22 def /w2 {w 2 div} def /w3 {w
 3 div} def 362 594 320 555 278 518 257 504 215 460 194 454 151 437 109 416 8 { m21} R 9 lw 0.95 0.95 0.95 c black 98 391 m 3 2 d 3 2 d 3 2 d 3 2 d 3 2 d 3 2 d 3 3 d 3 2 d 3 2 d 3 2 d 3 2 d 3 2 d 3 2 d 4 2 d 3 3 d 3 2 d 3 2 d 3 2 d 3 2 d 3 2 d 3 2 d
 3 3 d 3 2 d 3 2 d 3 2 d 3 2 d 3 2 d 3 2 d 3 2 d 4 3 d 3 2 d 3 2 d 3 2 d 3 2 d 3 2 d 3 2 d 3 2 d 3 3 d 3 2 d 3 2 d 3 2 d 3 2 d 3 2 d 3 2 d 3 3 d 4 2 d 3 2 d 3 2 d 3 2 d s 248 495 m 3 2 d 3 2 d 3 2 d 3 3 d 3 2 d 3 2 d 3 2 d 3 2 d 3 2 d 3 2 d 3 3 d 3 2
 d 3 2 d 4 2 d 3 2 d 3 2 d 3 2 d 3 2 d 3 3 d 3 2 d 3 2 d 3 2 d 3 2 d 3 2 d 3 2 d 3 2 d 3 3 d 3 2 d 3 2 d 4 2 d 3 2 d 3 2 d 3 2 d 3 3 d 3 2 d 3 2 d 3 2 d 3 2 d 3 2 d 3 2 d 3 2 d 3 3 d 3 2 d 3 2 d 3 2 d 4 2 d s 0.49 0.6 0.82 c black 0.49 0.6 0.82 c
 gsave  408 306 23 345 C 142.445 629.605 t 0 r /Helvetica-Bold findfont 25.6831 sf 0 0 m (5.0 < E < 5.5 GeV) show NC gr  0.52 0.76 0.64 c black 0.52 0.76 0.64 c
 gsave  408 306 23 345 C 128.2 592.569 t 0 r /Helvetica-Bold findfont 25.6831 sf 0 0 m 
 218 204 190 183 168 161 146 139 124 116 109 95 82 68 61 47 39 24 17
(A = 0.011, p = 1.000) K NC gr  1 0.6 1 c black 1 0.6 1 c
 gsave  408 306 23 345 C 427.334 458.671 t 90 r /Helvetica-Bold findfont 28.5368 sf 0 0 m (/dof=3.5) show NC gr  black 1 0.6 1 c
 gsave  408 306 23 345 C 415.938 447.276 t 90 r /Helvetica-Bold findfont 19.9758 sf 0 0 m (2) show NC gr  black 1 0.6 1 c
 gsave  408 306 23 345 C 427.334 430.182 t 90 r /Symbol findfont 28.5368 sf 0 0 m (c) show NC gr  black 3 lw 1 1 1 c 408 306 476 345 bf black 1 1 1 c black 307 229 537 391 bl 307 229 537 391 bl 537 391 m 307 X s 584 395 m -4 Y s 689 395 m -4 Y s 795
 395 m -4 Y s 584 395 m -4 Y s 795 395 m -4 Y s
 gsave  408 306 476 345 C 564.08 370.356 t 0 r /Helvetica findfont 22.8295 sf 0 0 m (\25510) show NC gr 
 gsave  408 306 476 345 C 678.036 370.356 t 0 r /Helvetica findfont 22.8295 sf 0 0 m (0) show NC gr 
 gsave  408 306 476 345 C 777.747 370.356 t 0 r /Helvetica findfont 22.8295 sf 0 0 m (10) show NC gr  537 620 m 307 X s 584 616 m 4 Y s 689 616 m 4 Y s 795 616 m 4 Y s 584 616 m 4 Y s 795 616 m 4 Y s 537 391 m 229 Y s 543 408 m -6 X s 540 413 m -3 X
 s 540 418 m -3 X s 540 423 m -3 X s 543 428 m -6 X s 540 432 m -3 X s 540 437 m -3 X s 540 442 m -3 X s 543 447 m -6 X s 540 452 m -3 X s 540 457 m -3 X s 540 462 m -3 X s 543 467 m -6 X s 540 472 m -3 X s 540 477 m -3 X s 540 482 m -3 X s 543 487 m
 -6 X s 540 492 m -3 X s 540 497 m -3 X s 540 502 m -3 X s 543 507 m -6 X s 540 512 m -3 X s 540 517 m -3 X s 540 522 m -3 X s 543 527 m -6 X s 540 532 m -3 X s 540 537 m -3 X s 540 542 m -3 X s 543 547 m -6 X s 540 552 m -3 X s 540 557 m -3 X s 540
 562 m -3 X s 543 567 m -6 X s 540 571 m -3 X s 540 576 m -3 X s 540 581 m -3 X s 543 586 m -6 X s 540 591 m -3 X s 540 596 m -3 X s 540 601 m -3 X s 543 606 m -6 X s 543 408 m -6 X s 540 403 m -3 X s 540 398 m -3 X s 540 393 m -3 X s 543 606 m -6 X
 s 540 611 m -3 X s 540 616 m -3 X s
 gsave  408 306 476 345 C 481.462 401.694 t 0 r /Helvetica findfont 22.8295 sf 0 0 m (\2550.08) show NC gr 
 gsave  408 306 476 345 C 481.462 421.636 t 0 r /Helvetica findfont 22.8295 sf 0 0 m (\2550.06) show NC gr 
 gsave  408 306 476 345 C 481.462 441.578 t 0 r /Helvetica findfont 22.8295 sf 0 0 m (\2550.04) show NC gr 
 gsave  408 306 476 345 C 481.462 461.52 t 0 r /Helvetica findfont 22.8295 sf 0 0 m (\2550.02) show NC gr 
 gsave  408 306 476 345 C 518.498 478.614 t 0 r /Helvetica findfont 22.8295 sf 0 0 m (0) show NC gr 
 gsave  408 306 476 345 C 487.16 498.556 t 0 r /Helvetica findfont 22.8295 sf 0 0 m (0.02) show NC gr 
 gsave  408 306 476 345 C 487.16 518.498 t 0 r /Helvetica findfont 22.8295 sf 0 0 m (0.04) show NC gr 
 gsave  408 306 476 345 C 487.16 538.44 t 0 r /Helvetica findfont 22.8295 sf 0 0 m (0.06) show NC gr 
 gsave  408 306 476 345 C 487.16 558.382 t 0 r /Helvetica findfont 22.8295 sf 0 0 m (0.08) show NC gr 
 gsave  408 306 476 345 C 504.254 578.325 t 0 r /Helvetica findfont 22.8295 sf 0 0 m (0.1) show NC gr 
 gsave  408 306 476 345 C 487.16 598.267 t 0 r /Helvetica findfont 22.8295 sf 0 0 m (0.12) show NC gr  844 391 m 229 Y s 838 408 m 6 X s 841 413 m 3 X s 841 418 m 3 X s 841 423 m 3 X s 838 428 m 6 X s 841 432 m 3 X s 841 437 m 3 X s 841 442 m 3 X s
 838 447 m 6 X s 841 452 m 3 X s 841 457 m 3 X s 841 462 m 3 X s 838 467 m 6 X s 841 472 m 3 X s 841 477 m 3 X s 841 482 m 3 X s 838 487 m 6 X s 841 492 m 3 X s 841 497 m 3 X s 841 502 m 3 X s 838 507 m 6 X s 841 512 m 3 X s 841 517 m 3 X s 841 522 m
 3 X s 838 527 m 6 X s 841 532 m 3 X s 841 537 m 3 X s 841 542 m 3 X s 838 547 m 6 X s 841 552 m 3 X s 841 557 m 3 X s 841 562 m 3 X s 838 567 m 6 X s 841 571 m 3 X s 841 576 m 3 X s 841 581 m 3 X s 838 586 m 6 X s 841 591 m 3 X s 841 596 m 3 X s 841
 601 m 3 X s 838 606 m 6 X s 838 408 m 6 X s 841 403 m 3 X s 841 398 m 3 X s 841 393 m 3 X s 838 606 m 6 X s 841 611 m 3 X s 841 616 m 3 X s /w 23 def /w2 {w 2 div} def /w3 {w 3 div} def 816 588 774 537 731 525 710 512 668 488 647 463 605 422 563 441
 8 { m21} R 816 599 m 2 Y s 810 601 m 11 X s 816 577 m -2 Y s 810 575 m 11 X s 774 549 m 1 Y s 768 550 m 11 X s 774 526 m -1 Y s 768 525 m 11 X s 731 536 m 1 Y s 726 537 m 11 X s 731 514 m -2 Y s 726 512 m 11 X s 710 523 m 1 Y s 705 524 m 11 X s 710
 501 m -1 Y s 705 500 m 11 X s 668 500 m 1 Y s 662 501 m 12 X s 668 477 m -1 Y s 662 476 m 12 X s 647 474 m 1 Y s 641 475 m 12 X s 647 451 m s 641 451 m 12 X s 605 433 m s 599 433 m 12 X s 605 410 m s 599 410 m 12 X s 563 452 m 1 Y s 557 453 m 11 X s
 563 430 m -1 Y s 557 429 m 11 X s 9 lw 0.95 0.95 0.95 c black 539 395 m 3 2 d 3 2 d 3 2 d 3 2 d 3 2 d 3 1 d 3 2 d 3 2 d 4 2 d 3 2 d 3 2 d 3 2 d 3 2 d 3 1 d 3 2 d 3 2 d 3 2 d 3 2 d 3 2 d 3 2 d 3 1 d 3 2 d 3 2 d 3 2 d 4 2 d 3 2 d 3 2 d 3 2 d 3 1 d 3 2
 d 3 2 d 3 2 d 3 2 d 3 2 d 3 2 d 3 2 d 3 1 d 3 2 d 3 2 d 3 2 d 3 2 d 4 2 d 3 2 d 3 2 d 3 1 d 3 2 d 3 2 d 3 2 d 3 2 d s 689 487 m 3 2 d 3 2 d 3 2 d 3 1 d 3 2 d 3 2 d 3 2 d 3 2 d 4 2 d 3 2 d 3 2 d 3 1 d 3 2 d 3 2 d 3 2 d 3 2 d 3 2 d 3 2 d 3 2 d 3 1 d 3
 2 d 3 2 d 3 2 d 3 2 d 4 2 d 3 2 d 3 1 d 3 2 d 3 2 d 3 2 d 3 2 d 3 2 d 3 2 d 3 2 d 3 1 d 3 2 d 3 2 d 3 2 d 3 2 d 3 2 d 4 2 d 3 2 d 3 1 d 3 2 d 3 2 d 3 2 d 3 2 d 3 2 d 3 2 d s 839 579 m 3 2 d s 0.49 0.6 0.82 c black 0.49 0.6 0.82 c
 gsave  408 306 476 345 C 595.418 629.605 t 0 r /Helvetica-Bold findfont 25.6831 sf 0 0 m (5.5 < E < 6.0 GeV) show NC gr  0.52 0.76 0.64 c black 0.52 0.76 0.64 c
 gsave  408 306 476 345 C 581.174 592.569 t 0 r /Helvetica-Bold findfont 25.6831 sf 0 0 m 
 220 206 192 185 170 163 148 141 125 118 111 97 83 69 61 47 40 25 18
(A = 0.006, p = 1.000) K NC gr  1 0.6 1 c black 1 0.6 1 c
 gsave  408 306 476 345 C 883.156 458.671 t 90 r /Helvetica-Bold findfont 28.5368 sf 0 0 m (/dof=2.1) show NC gr  black 1 0.6 1 c
 gsave  408 306 476 345 C 871.76 447.276 t 90 r /Helvetica-Bold findfont 19.9758 sf 0 0 m (2) show NC gr  black 1 0.6 1 c
 gsave  408 306 476 345 C 883.156 430.182 t 90 r /Symbol findfont 28.5368 sf 0 0 m (c) show NC gr  black 3 lw 1 1 1 c 408 306 930 345 bf black 1 1 1 c black 306 229 991 391 bl 306 229 991 391 bl 991 391 m 306 X s 1037 395 m -4 Y s 1143 395 m -4 Y s
 1248 395 m -4 Y s 1037 395 m -4 Y s 1248 395 m -4 Y s
 gsave  408 306 930 345 C 1019.9 370.356 t 0 r /Helvetica findfont 22.8295 sf 0 0 m (\25510) show NC gr 
 gsave  408 306 930 345 C 1133.86 370.356 t 0 r /Helvetica findfont 22.8295 sf 0 0 m (0) show NC gr 
 gsave  408 306 930 345 C 1233.57 370.356 t 0 r /Helvetica findfont 22.8295 sf 0 0 m (10) show NC gr  991 620 m 306 X s 1037 616 m 4 Y s 1143 616 m 4 Y s 1248 616 m 4 Y s 1037 616 m 4 Y s 1248 616 m 4 Y s 991 391 m 229 Y s 997 416 m -6 X s 994 425 m
 -3 X s 994 435 m -3 X s 994 444 m -3 X s 997 454 m -6 X s 994 463 m -3 X s 994 473 m -3 X s 994 482 m -3 X s 997 492 m -6 X s 994 501 m -3 X s 994 511 m -3 X s 994 520 m -3 X s 997 530 m -6 X s 994 539 m -3 X s 994 549 m -3 X s 994 558 m -3 X s 997
 567 m -6 X s 994 577 m -3 X s 994 586 m -3 X s 994 596 m -3 X s 997 605 m -6 X s 997 416 m -6 X s 994 406 m -3 X s 994 397 m -3 X s 997 605 m -6 X s 994 615 m -3 X s
 gsave  408 306 930 345 C 937.285 407.391 t 0 r /Helvetica findfont 22.8295 sf 0 0 m (\2550.04) show NC gr 
 gsave  408 306 930 345 C 937.285 447.276 t 0 r /Helvetica findfont 22.8295 sf 0 0 m (\2550.02) show NC gr 
 gsave  408 306 930 345 C 974.32 484.311 t 0 r /Helvetica findfont 22.8295 sf 0 0 m (0) show NC gr 
 gsave  408 306 930 345 C 942.983 521.347 t 0 r /Helvetica findfont 22.8295 sf 0 0 m (0.02) show NC gr 
 gsave  408 306 930 345 C 942.983 561.231 t 0 r /Helvetica findfont 22.8295 sf 0 0 m (0.04) show NC gr 
 gsave  408 306 930 345 C 942.983 598.267 t 0 r /Helvetica findfont 22.8295 sf 0 0 m (0.06) show NC gr  1297 391 m 229 Y s 1292 416 m 5 X s 1294 425 m 3 X s 1294 435 m 3 X s 1294 444 m 3 X s 1292 454 m 5 X s 1294 463 m 3 X s 1294 473 m 3 X s 1294 482
 m 3 X s 1292 492 m 5 X s 1294 501 m 3 X s 1294 511 m 3 X s 1294 520 m 3 X s 1292 530 m 5 X s 1294 539 m 3 X s 1294 549 m 3 X s 1294 558 m 3 X s 1292 567 m 5 X s 1294 577 m 3 X s 1294 586 m 3 X s 1294 596 m 3 X s 1292 605 m 5 X s 1292 416 m 5 X s
 1294 406 m 3 X s 1294 397 m 3 X s 1292 605 m 5 X s 1294 615 m 3 X s 1269 566 1227 573 1185 564 1164 493 1122 478 1101 439 1058 441 1016 437 8 { m21} R 1269 577 m 17 Y s 1264 594 m 11 X s 1269 555 m -17 Y s 1264 538 m 11 X s 1227 584 m 17 Y s 1221
 601 m 12 X s 1227 561 m -16 Y s 1221 545 m 12 X s 1185 575 m 17 Y s 1179 592 m 12 X s 1185 552 m -17 Y s 1179 535 m 12 X s 1164 504 m 16 Y s 1158 520 m 12 X s 1164 481 m -16 Y s 1158 465 m 12 X s 1122 489 m 16 Y s 1116 505 m 11 X s 1122 466 m -16 Y
 s 1116 450 m 11 X s 1101 450 m 15 Y s 1095 465 m 11 X s 1101 427 m -15 Y s 1095 412 m 11 X s 1058 453 m 15 Y s 1053 468 m 11 X s 1058 430 m -16 Y s 1053 414 m 11 X s 1016 449 m 16 Y s 1011 465 m 11 X s 1016 426 m -16 Y s 1011 410 m 11 X s 9 lw 0.95
 0.95 0.95 c black 993 395 m 3 2 d 3 2 d 3 2 d 3 2 d 3 1 d 3 2 d 3 2 d 3 2 d 3 2 d 3 2 d 3 2 d 3 2 d 3 2 d 3 2 d 3 2 d 4 2 d 3 2 d 3 2 d 3 2 d 3 2 d 3 2 d 3 2 d 3 2 d 3 2 d 3 2 d 3 2 d 3 2 d 3 2 d 3 2 d 3 2 d 3 2 d 3 2 d 4 2 d 3 2 d 3 2 d 3 2 d 3 2 d
 3 2 d 3 2 d 3 2 d 3 2 d 3 2 d 3 2 d 3 2 d 3 2 d 3 2 d 3 2 d 3 1 d 4 2 d s 1143 491 m 3 2 d 3 2 d 3 2 d 3 2 d 3 2 d 3 2 d 3 2 d 3 2 d 3 2 d 3 2 d 3 2 d 3 2 d 3 2 d 3 2 d 3 2 d 4 2 d 3 2 d 3 2 d 3 2 d 3 2 d 3 2 d 3 2 d 3 2 d 3 2 d 3 2 d 3 2 d 3 2 d 3
 2 d 3 2 d 3 2 d 3 2 d 3 2 d 4 2 d 3 2 d 3 2 d 3 2 d 3 2 d 3 2 d 3 2 d 3 2 d 3 1 d 3 2 d 3 2 d 3 2 d 3 2 d 3 2 d 3 2 d 3 2 d 4 2 d s 1293 588 m 3 2 d s 0.49 0.6 0.82 c black 0.49 0.6 0.82 c
 gsave  408 306 930 345 C 1051.24 629.605 t 0 r /Helvetica-Bold findfont 25.6831 sf 0 0 m (6.0 < E < 6.5 GeV) show NC gr  0.52 0.76 0.64 c black 0.52 0.76 0.64 c
 gsave  408 306 930 345 C 1037 592.569 t 0 r /Helvetica-Bold findfont 25.6831 sf 0 0 m 
 220 206 192 185 170 163 148 141 126 118 111 97 83 69 61 47 40 25 18
(A = 0.004, p = 1.000) K NC gr  1 0.6 1 c black 1 0.6 1 c
 gsave  408 306 930 345 C 1336.13 458.671 t 90 r /Helvetica-Bold findfont 28.5368 sf 0 0 m (/dof=0.8) show NC gr  black 1 0.6 1 c
 gsave  408 306 930 345 C 1324.73 447.276 t 90 r /Helvetica-Bold findfont 19.9758 sf 0 0 m (2) show NC gr  black 1 0.6 1 c
 gsave  408 306 930 345 C 1336.13 430.182 t 90 r /Symbol findfont 28.5368 sf 0 0 m (c) show NC gr  black 3 lw 1 1 1 c 408 306 1383 345 bf black 1 1 1 c black 306 229 1445 391 bl 306 229 1445 391 bl 1445 391 m 306 X s 1491 395 m -4 Y s 1596 395 m -4 Y
 s 1702 395 m -4 Y s 1491 395 m -4 Y s 1702 395 m -4 Y s
 gsave  408 306 1383 345 C 1472.88 370.356 t 0 r /Helvetica findfont 22.8295 sf 0 0 m (\25510) show NC gr 
 gsave  408 306 1383 345 C 1586.83 370.356 t 0 r /Helvetica findfont 22.8295 sf 0 0 m (0) show NC gr 
 gsave  408 306 1383 345 C 1686.54 370.356 t 0 r /Helvetica findfont 22.8295 sf 0 0 m (10) show NC gr  1445 620 m 306 X s 1491 616 m 4 Y s 1596 616 m 4 Y s 1702 616 m 4 Y s 1491 616 m 4 Y s 1702 616 m 4 Y s 1445 391 m 229 Y s 1450 417 m -5 X s 1447
 427 m -2 X s 1447 437 m -2 X s 1447 447 m -2 X s 1450 457 m -5 X s 1447 467 m -2 X s 1447 477 m -2 X s 1447 487 m -2 X s 1450 497 m -5 X s 1447 507 m -2 X s 1447 518 m -2 X s 1447 528 m -2 X s 1450 538 m -5 X s 1447 548 m -2 X s 1447 558 m -2 X s
 1447 568 m -2 X s 1450 578 m -5 X s 1447 588 m -2 X s 1447 598 m -2 X s 1447 608 m -2 X s 1450 618 m -5 X s 1450 417 m -5 X s 1447 407 m -2 X s 1447 397 m -2 X s 1450 618 m -5 X s
 gsave  408 306 1383 345 C 1390.26 410.24 t 0 r /Helvetica findfont 22.8295 sf 0 0 m (\2550.04) show NC gr 
 gsave  408 306 1383 345 C 1390.26 450.125 t 0 r /Helvetica findfont 22.8295 sf 0 0 m (\2550.02) show NC gr 
 gsave  408 306 1383 345 C 1427.29 490.009 t 0 r /Helvetica findfont 22.8295 sf 0 0 m (0) show NC gr 
 gsave  408 306 1383 345 C 1395.96 529.894 t 0 r /Helvetica findfont 22.8295 sf 0 0 m (0.02) show NC gr 
 gsave  408 306 1383 345 C 1395.96 569.778 t 0 r /Helvetica findfont 22.8295 sf 0 0 m (0.04) show NC gr 
 gsave  408 306 1383 345 C 1395.96 612.511 t 0 r /Helvetica findfont 22.8295 sf 0 0 m (0.06) show NC gr  1751 391 m 229 Y s 1745 417 m 6 X s 1748 427 m 3 X s 1748 437 m 3 X s 1748 447 m 3 X s 1745 457 m 6 X s 1748 467 m 3 X s 1748 477 m 3 X s 1748
 487 m 3 X s 1745 497 m 6 X s 1748 507 m 3 X s 1748 518 m 3 X s 1748 528 m 3 X s 1745 538 m 6 X s 1748 548 m 3 X s 1748 558 m 3 X s 1748 568 m 3 X s 1745 578 m 6 X s 1748 588 m 3 X s 1748 598 m 3 X s 1748 608 m 3 X s 1745 618 m 6 X s 1745 417 m 6 X s
 1748 407 m 3 X s 1748 397 m 3 X s 1745 618 m 6 X s 1723 505 1681 567 1639 461 1617 471 1575 445 1554 443 1512 485 1470 478 8 { m21} R 1723 516 m 22 Y s 1717 538 m 12 X s 1723 494 m -22 Y s 1717 472 m 12 X s 1681 578 m 23 Y s 1675 601 m 11 X s 1681
 556 m -23 Y s 1675 533 m 11 X s 1639 472 m 21 Y s 1633 493 m 11 X s 1639 450 m -21 Y s 1633 429 m 11 X s 1617 483 m 21 Y s 1612 504 m 11 X s 1617 460 m -21 Y s 1612 439 m 11 X s 1575 456 m 21 Y s 1570 477 m 11 X s 1575 433 m -21 Y s 1570 412 m 11 X
 s 1554 454 m 21 Y s 1548 475 m 12 X s 1554 431 m -21 Y s 1548 410 m 12 X s 1512 496 m 22 Y s 1506 518 m 12 X s 1512 474 m -22 Y s 1506 452 m 12 X s 1470 490 m 21 Y s 1464 511 m 12 X s 1470 467 m -21 Y s 1464 446 m 12 X s 9 lw 0.95 0.95 0.95 c black
 1446 463 m 3 1 d 3 1 d 3 1 d 3 X 3 1 d 3 1 d 3 X 4 1 d 3 1 d 3 X 3 1 d 3 1 d 3 X 3 1 d 3 1 d 3 1 d 3 X 3 1 d 3 1 d 3 X 3 1 d 3 1 d 3 X 4 1 d 3 1 d 3 X 3 1 d 3 1 d 3 X 3 1 d 3 1 d 3 1 d 3 X 3 1 d 3 1 d 3 X 3 1 d 3 1 d 3 X 4 1 d 3 1 d 3 X 3 1 d 3 1 d
 3 1 d 3 X 3 1 d 3 1 d 3 X s 1596 497 m 3 1 d 3 1 d 3 X 3 1 d 3 1 d 3 X 4 1 d 3 1 d 3 1 d 3 X 3 1 d 3 1 d 3 X 3 1 d 3 1 d 3 X 3 1 d 3 1 d 3 X 3 1 d 3 1 d 3 X 3 1 d 4 1 d 3 1 d 3 X 3 1 d 3 1 d 3 X 3 1 d 3 1 d 3 X 3 1 d 3 1 d 3 X 3 1 d 3 1 d 3 1 d 3 X
 4 1 d 3 1 d 3 X 3 1 d 3 1 d 3 X 3 1 d 3 1 d 3 X 3 1 d s 1746 531 m 3 1 d s 0.49 0.6 0.82 c black 0.49 0.6 0.82 c
 gsave  408 306 1383 345 C 1504.21 629.605 t 0 r /Helvetica-Bold findfont 25.6831 sf 0 0 m (6.5 < E < 7.0 GeV) show NC gr  0.52 0.76 0.64 c black 0.52 0.76 0.64 c
 gsave  408 306 1383 345 C 1489.97 592.569 t 0 r /Helvetica-Bold findfont 25.6831 sf 0 0 m 
 220 206 192 185 170 163 148 141 125 118 111 97 83 68 61 47 40 25 18
(A = 0.001, p = 1.000) K NC gr  1 0.6 1 c black 1 0.6 1 c
 gsave  408 306 1383 345 C 1789.1 458.671 t 90 r /Helvetica-Bold findfont 28.5368 sf 0 0 m (/dof=1.4) show NC gr  black 1 0.6 1 c
 gsave  408 306 1383 345 C 1777.71 447.276 t 90 r /Helvetica-Bold findfont 19.9758 sf 0 0 m (2) show NC gr  black 1 0.6 1 c
 gsave  408 306 1383 345 C 1789.1 430.182 t 90 r /Symbol findfont 28.5368 sf 0 0 m (c) show NC gr  black 3 lw 1 1 1 c 408 306 1837 345 bf black 1 1 1 c black 306 229 1898 391 bl 306 229 1898 391 bl 1898 391 m 306 X s 1944 395 m -4 Y s 2050 395 m -4 Y
 s 2155 395 m -4 Y s 1944 395 m -4 Y s 2155 395 m -4 Y s
 gsave  408 306 1837 345 C 1925.85 370.356 t 0 r /Helvetica findfont 22.8295 sf 0 0 m (\25510) show NC gr 
 gsave  408 306 1837 345 C 2039.81 370.356 t 0 r /Helvetica findfont 22.8295 sf 0 0 m (0) show NC gr 
 gsave  408 306 1837 345 C 2139.52 370.356 t 0 r /Helvetica findfont 22.8295 sf 0 0 m (10) show NC gr  1898 620 m 306 X s 1944 616 m 4 Y s 2050 616 m 4 Y s 2155 616 m 4 Y s 1944 616 m 4 Y s 2155 616 m 4 Y s 1898 391 m 229 Y s 1904 393 m -6 X s 1901
 398 m -3 X s 1901 403 m -3 X s 1901 408 m -3 X s 1901 413 m -3 X s 1904 417 m -6 X s 1901 422 m -3 X s 1901 427 m -3 X s 1901 432 m -3 X s 1901 437 m -3 X s 1904 442 m -6 X s 1901 446 m -3 X s 1901 451 m -3 X s 1901 456 m -3 X s 1901 461 m -3 X s
 1904 466 m -6 X s 1901 470 m -3 X s 1901 475 m -3 X s 1901 480 m -3 X s 1901 485 m -3 X s 1904 490 m -6 X s 1901 494 m -3 X s 1901 499 m -3 X s 1901 504 m -3 X s 1901 509 m -3 X s 1904 514 m -6 X s 1901 518 m -3 X s 1901 523 m -3 X s 1901 528 m -3 X
 s 1901 533 m -3 X s 1904 538 m -6 X s 1901 542 m -3 X s 1901 547 m -3 X s 1901 552 m -3 X s 1901 557 m -3 X s 1904 562 m -6 X s 1901 566 m -3 X s 1901 571 m -3 X s 1901 576 m -3 X s 1901 581 m -3 X s 1904 586 m -6 X s 1901 590 m -3 X s 1901 595 m -3
 X s 1901 600 m -3 X s 1901 605 m -3 X s 1904 610 m -6 X s 1904 393 m -6 X s 1904 610 m -6 X s 1901 615 m -3 X s 1901 619 m -3 X s
 gsave  408 306 1837 345 C 1843.23 387.449 t 0 r /Helvetica findfont 22.8295 sf 0 0 m (\2550.04) show NC gr 
 gsave  408 306 1837 345 C 1843.23 410.24 t 0 r /Helvetica findfont 22.8295 sf 0 0 m (\2550.03) show NC gr 
 gsave  408 306 1837 345 C 1843.23 433.031 t 0 r /Helvetica findfont 22.8295 sf 0 0 m (\2550.02) show NC gr 
 gsave  408 306 1837 345 C 1846.08 458.671 t 0 r /Helvetica findfont 22.8295 sf 0 0 m (\2550.01) show NC gr 
 gsave  408 306 1837 345 C 1880.27 481.462 t 0 r /Helvetica findfont 22.8295 sf 0 0 m (0) show NC gr 
 gsave  408 306 1837 345 C 1851.78 507.102 t 0 r /Helvetica findfont 22.8295 sf 0 0 m (0.01) show NC gr 
 gsave  408 306 1837 345 C 1848.93 529.894 t 0 r /Helvetica findfont 22.8295 sf 0 0 m (0.02) show NC gr 
 gsave  408 306 1837 345 C 1848.93 555.534 t 0 r /Helvetica findfont 22.8295 sf 0 0 m (0.03) show NC gr 
 gsave  408 306 1837 345 C 1848.93 578.325 t 0 r /Helvetica findfont 22.8295 sf 0 0 m (0.04) show NC gr 
 gsave  408 306 1837 345 C 1848.93 603.965 t 0 r /Helvetica findfont 22.8295 sf 0 0 m (0.05) show NC gr  2204 391 m 229 Y s 2199 393 m 5 X s 2201 398 m 3 X s 2201 403 m 3 X s 2201 408 m 3 X s 2201 413 m 3 X s 2199 417 m 5 X s 2201 422 m 3 X s 2201
 427 m 3 X s 2201 432 m 3 X s 2201 437 m 3 X s 2199 442 m 5 X s 2201 446 m 3 X s 2201 451 m 3 X s 2201 456 m 3 X s 2201 461 m 3 X s 2199 466 m 5 X s 2201 470 m 3 X s 2201 475 m 3 X s 2201 480 m 3 X s 2201 485 m 3 X s 2199 490 m 5 X s 2201 494 m 3 X s
 2201 499 m 3 X s 2201 504 m 3 X s 2201 509 m 3 X s 2199 514 m 5 X s 2201 518 m 3 X s 2201 523 m 3 X s 2201 528 m 3 X s 2201 533 m 3 X s 2199 538 m 5 X s 2201 542 m 3 X s 2201 547 m 3 X s 2201 552 m 3 X s 2201 557 m 3 X s 2199 562 m 5 X s 2201 566 m
 3 X s 2201 571 m 3 X s 2201 576 m 3 X s 2201 581 m 3 X s 2199 586 m 5 X s 2201 590 m 3 X s 2201 595 m 3 X s 2201 600 m 3 X s 2201 605 m 3 X s 2199 610 m 5 X s 2199 393 m 5 X s 2199 610 m 5 X s 2201 615 m 3 X s 2201 619 m 3 X s 2176 522 2134 454 2092
 453 2071 483 2029 557 2008 466 1966 491 1923 487 8 { m21} R 2176 533 m 33 Y s 2171 566 m 11 X s 2176 511 m -33 Y s 2171 478 m 11 X s 2134 465 m 31 Y s 2129 496 m 11 X s 2134 442 m -30 Y s 2129 412 m 11 X s 2092 464 m 31 Y s 2086 495 m 12 X s 2092
 441 m -31 Y s 2086 410 m 12 X s 2071 494 m 32 Y s 2065 526 m 12 X s 2071 472 m -32 Y s 2065 440 m 12 X s 2029 568 m 33 Y s 2023 601 m 11 X s 2029 545 m -32 Y s 2023 513 m 11 X s 2008 477 m 32 Y s 2002 509 m 11 X s 2008 455 m -32 Y s 2002 423 m 11 X
 s 1966 502 m 32 Y s 1960 534 m 11 X s 1966 479 m -31 Y s 1960 448 m 11 X s 1923 499 m 31 Y s 1918 530 m 11 X s 1923 476 m -32 Y s 1918 444 m 11 X s 1 0 0 c 9 lw 0.95 0.95 0.95 c black 1 0 0 c 1900 494 m 9 X 3 -1 d 15 X 3 -1 d 22 X 3 -1 d 24 X 3 -1 d
 68 X s 2050 490 m 67 X 3 1 d 28 X 3 1 d 18 X 3 1 d 15 X 3 1 d 10 X s 2200 494 m 3 X s 0.49 0.6 0.82 c black 0.49 0.6 0.82 c
 gsave  408 306 1837 345 C 1957.19 629.605 t 0 r /Helvetica-Bold findfont 25.6831 sf 0 0 m (7.0 < E < 7.5 GeV) show NC gr  0.52 0.76 0.64 c black 0.52 0.76 0.64 c
 gsave  408 306 1837 345 C 1942.94 592.569 t 0 r /Helvetica-Bold findfont 25.6831 sf 0 0 m 
 220 206 192 185 170 163 148 141 126 118 111 97 83 69 61 47 40 25 18
(A = 0.000, p = 2.000) K NC gr  1 0.6 1 c black 1 0.6 1 c
 gsave  408 306 1837 345 C 2242.08 458.671 t 90 r /Helvetica-Bold findfont 28.5368 sf 0 0 m (/dof=0.7) show NC gr  black 1 0.6 1 c
 gsave  408 306 1837 345 C 2230.68 447.276 t 90 r /Helvetica-Bold findfont 19.9758 sf 0 0 m (2) show NC gr  black 1 0.6 1 c
 gsave  408 306 1837 345 C 2242.08 430.182 t 90 r /Symbol findfont 28.5368 sf 0 0 m (c) show NC gr  black 3 lw 1 1 1 c 408 306 23 13 bf black 1 1 1 c black 306 229 84 59 bl 306 229 84 59 bl 84 59 m 306 X s 130 63 m -4 Y s 236 63 m -4 Y s 341 63 m -4
 Y s 130 63 m -4 Y s 341 63 m -4 Y s
 gsave  408 306 23 13 C 111.107 39.8845 t 0 r /Helvetica findfont 22.8295 sf 0 0 m (\25510) show NC gr 
 gsave  408 306 23 13 C 225.062 39.8845 t 0 r /Helvetica findfont 22.8295 sf 0 0 m (0) show NC gr 
 gsave  408 306 23 13 C 324.773 39.8845 t 0 r /Helvetica findfont 22.8295 sf 0 0 m (10) show NC gr  84 288 m 306 X s 130 284 m 4 Y s 236 284 m 4 Y s 341 284 m 4 Y s 130 284 m 4 Y s 341 284 m 4 Y s 84 59 m 229 Y s 89 76 m -5 X s 87 85 m -3 X s 87 95 m
 -3 X s 87 104 m -3 X s 89 113 m -5 X s 87 123 m -3 X s 87 132 m -3 X s 87 141 m -3 X s 89 151 m -5 X s 87 160 m -3 X s 87 169 m -3 X s 87 179 m -3 X s 89 188 m -5 X s 87 197 m -3 X s 87 207 m -3 X s 87 216 m -3 X s 89 225 m -5 X s 87 235 m -3 X s 87
 244 m -3 X s 87 253 m -3 X s 89 263 m -5 X s 89 76 m -5 X s 87 67 m -3 X s 89 263 m -5 X s 87 272 m -3 X s 87 281 m -3 X s
 gsave  408 306 23 13 C 28.4889 68.3734 t 0 r /Helvetica findfont 22.8295 sf 0 0 m (\2550.04) show NC gr 
 gsave  408 306 23 13 C 28.4889 105.409 t 0 r /Helvetica findfont 22.8295 sf 0 0 m (\2550.02) show NC gr 
 gsave  408 306 23 13 C 65.5245 142.445 t 0 r /Helvetica findfont 22.8295 sf 0 0 m (0) show NC gr 
 gsave  408 306 23 13 C 34.1867 179.48 t 0 r /Helvetica findfont 22.8295 sf 0 0 m (0.02) show NC gr 
 gsave  408 306 23 13 C 34.1867 219.365 t 0 r /Helvetica findfont 22.8295 sf 0 0 m (0.04) show NC gr 
 gsave  408 306 23 13 C 34.1867 256.4 t 0 r /Helvetica findfont 22.8295 sf 0 0 m (0.06) show NC gr  390 59 m 229 Y s 385 76 m 5 X s 387 85 m 3 X s 387 95 m 3 X s 387 104 m 3 X s 385 113 m 5 X s 387 123 m 3 X s 387 132 m 3 X s 387 141 m 3 X s 385 151
 m 5 X s 387 160 m 3 X s 387 169 m 3 X s 387 179 m 3 X s 385 188 m 5 X s 387 197 m 3 X s 387 207 m 3 X s 387 216 m 3 X s 385 225 m 5 X s 387 235 m 3 X s 387 244 m 3 X s 387 253 m 3 X s 385 263 m 5 X s 385 76 m 5 X s 387 67 m 3 X s 385 263 m 5 X s 387
 272 m 3 X s 387 281 m 3 X s /w 22 def /w2 {w 2 div} def /w3 {w 3 div} def 362 122 320 203 278 232 257 172 215 169 194 181 151 114 109 128 8 { m21} R 362 134 m 24 Y s 357 158 m 11 X s 362 111 m -24 Y s 357 87 m 11 X s 320 214 m 26 Y s 314 240 m 12 X
 s 320 192 m -26 Y s 314 166 m 12 X s 278 243 m 26 Y s 272 269 m 12 X s 278 220 m -25 Y s 272 195 m 12 X s 257 184 m 25 Y s 251 209 m 11 X s 257 161 m -25 Y s 251 136 m 11 X s 215 180 m 25 Y s 209 205 m 11 X s 215 158 m -25 Y s 209 133 m 11 X s 194
 193 m 25 Y s 188 218 m 11 X s 194 170 m -25 Y s 188 145 m 11 X s 151 125 m 24 Y s 146 149 m 11 X s 151 102 m -24 Y s 146 78 m 11 X s 109 140 m 24 Y s 104 164 m 11 X s 109 117 m -24 Y s 104 93 m 11 X s 9 lw 0.95 0.95 0.95 c black 85 125 m 3 1 d 4 X 3
 1 d 3 X 3 1 d 3 X 3 1 d 3 X 3 1 d 3 X 3 1 d 3 X 3 1 d 3 X 3 1 d 3 X 3 1 d 4 X 3 1 d 3 1 d 3 X 3 1 d 3 X 3 1 d 3 X 3 1 d 3 X 3 1 d 3 X 3 1 d 3 X 3 1 d 3 X 4 1 d 3 X 3 1 d 3 X 3 1 d 3 X 3 1 d 3 X 3 1 d 3 1 d 3 X 3 1 d 3 X 3 1 d 3 X 3 1 d s 235 151 m 4
 X 3 1 d 3 X 3 1 d 3 X 3 1 d 3 X 3 1 d 3 X 3 1 d 3 X 3 1 d 3 X 3 1 d 3 X 3 1 d 3 1 d 4 X 3 1 d 3 X 3 1 d 3 X 3 1 d 3 X 3 1 d 3 X 3 1 d 3 X 3 1 d 3 X 3 1 d 3 X 3 1 d 4 X 3 1 d 3 X 3 1 d 3 X 3 1 d 3 1 d 3 X 3 1 d 3 X 3 1 d 3 X 3 1 d 3 X 3 1 d 3 X s 385
 176 m 4 1 d s 0.49 0.6 0.82 c black 0.49 0.6 0.82 c
 gsave  408 306 23 13 C 142.445 296.285 t 0 r /Helvetica-Bold findfont 25.6831 sf 0 0 m (7.5 < E < 8.0 GeV) show NC gr  0.52 0.76 0.64 c black 0.52 0.76 0.64 c
 gsave  408 306 23 13 C 128.2 259.249 t 0 r /Helvetica-Bold findfont 25.6831 sf 0 0 m 
 220 206 192 185 170 163 148 141 126 118 111 97 83 69 61 47 40 25 18
(A = 0.001, p = 1.000) K NC gr  1 0.6 1 c black 1 0.6 1 c
 gsave  408 306 23 13 C 427.334 128.2 t 90 r /Helvetica-Bold findfont 28.5368 sf 0 0 m (/dof=1.3) show NC gr  black 1 0.6 1 c
 gsave  408 306 23 13 C 415.938 116.804 t 90 r /Helvetica-Bold findfont 19.9758 sf 0 0 m (2) show NC gr  black 1 0.6 1 c
 gsave  408 306 23 13 C 427.334 99.7112 t 90 r /Symbol findfont 28.5368 sf 0 0 m (c) show NC gr  black 3 lw 1 1 1 c 408 306 476 13 bf black 1 1 1 c black 307 229 537 59 bl 307 229 537 59 bl 537 59 m 307 X s 584 63 m -4 Y s 689 63 m -4 Y s 795 63 m -4
 Y s 584 63 m -4 Y s 795 63 m -4 Y s
 gsave  408 306 476 13 C 564.08 39.8845 t 0 r /Helvetica findfont 22.8295 sf 0 0 m (\25510) show NC gr 
 gsave  408 306 476 13 C 678.036 39.8845 t 0 r /Helvetica findfont 22.8295 sf 0 0 m (0) show NC gr 
 gsave  408 306 476 13 C 777.747 39.8845 t 0 r /Helvetica findfont 22.8295 sf 0 0 m (10) show NC gr  537 288 m 307 X s 584 284 m 4 Y s 689 284 m 4 Y s 795 284 m 4 Y s 584 284 m 4 Y s 795 284 m 4 Y s 537 59 m 229 Y s 543 64 m -6 X s 540 75 m -3 X s
 540 86 m -3 X s 540 97 m -3 X s 543 108 m -6 X s 540 119 m -3 X s 540 130 m -3 X s 540 141 m -3 X s 543 152 m -6 X s 540 163 m -3 X s 540 174 m -3 X s 540 185 m -3 X s 543 196 m -6 X s 540 207 m -3 X s 540 218 m -3 X s 540 229 m -3 X s 543 240 m -6
 X s 540 251 m -3 X s 540 262 m -3 X s 540 273 m -3 X s 543 284 m -6 X s 543 64 m -6 X s 543 284 m -6 X s
 gsave  408 306 476 13 C 481.462 56.9778 t 0 r /Helvetica findfont 22.8295 sf 0 0 m (\2550.04) show NC gr 
 gsave  408 306 476 13 C 481.462 99.7112 t 0 r /Helvetica findfont 22.8295 sf 0 0 m (\2550.02) show NC gr 
 gsave  408 306 476 13 C 518.498 145.293 t 0 r /Helvetica findfont 22.8295 sf 0 0 m (0) show NC gr 
 gsave  408 306 476 13 C 487.16 188.027 t 0 r /Helvetica findfont 22.8295 sf 0 0 m (0.02) show NC gr 
 gsave  408 306 476 13 C 487.16 233.609 t 0 r /Helvetica findfont 22.8295 sf 0 0 m (0.04) show NC gr 
 gsave  408 306 476 13 C 487.16 276.342 t 0 r /Helvetica findfont 22.8295 sf 0 0 m (0.06) show NC gr  844 59 m 229 Y s 838 64 m 6 X s 841 75 m 3 X s 841 86 m 3 X s 841 97 m 3 X s 838 108 m 6 X s 841 119 m 3 X s 841 130 m 3 X s 841 141 m 3 X s 838 152
 m 6 X s 841 163 m 3 X s 841 174 m 3 X s 841 185 m 3 X s 838 196 m 6 X s 841 207 m 3 X s 841 218 m 3 X s 841 229 m 3 X s 838 240 m 6 X s 841 251 m 3 X s 841 262 m 3 X s 841 273 m 3 X s 838 284 m 6 X s 838 64 m 6 X s 838 284 m 6 X s /w 23 def /w2 {w 2
 div} def /w3 {w 3 div} def 816 223 774 147 731 138 710 188 668 154 647 179 605 166 563 123 8 { m21} R 816 234 m 35 Y s 810 269 m 11 X s 816 211 m -35 Y s 810 176 m 11 X s 774 158 m 34 Y s 768 192 m 11 X s 774 135 m -33 Y s 768 102 m 11 X s 731 150 m
 34 Y s 726 184 m 11 X s 731 127 m -34 Y s 726 93 m 11 X s 710 199 m 35 Y s 705 234 m 11 X s 710 177 m -35 Y s 705 142 m 11 X s 668 165 m 34 Y s 662 199 m 12 X s 668 142 m -34 Y s 662 108 m 12 X s 647 191 m 34 Y s 641 225 m 12 X s 647 168 m -34 Y s
 641 134 m 12 X s 605 177 m 34 Y s 599 211 m 12 X s 605 154 m -34 Y s 599 120 m 12 X s 563 135 m 33 Y s 557 168 m 11 X s 563 112 m -34 Y s 557 78 m 11 X s 9 lw 0.95 0.95 0.95 c black 539 123 m 3 1 d 3 X 3 1 d 3 X 3 1 d 3 1 d 3 X 3 1 d 4 X 3 1 d 3 1 d
 3 X 3 1 d 3 X 3 1 d 3 X 3 1 d 3 1 d 3 X 3 1 d 3 X 3 1 d 3 1 d 3 X 4 1 d 3 X 3 1 d 3 X 3 1 d 3 1 d 3 X 3 1 d 3 X 3 1 d 3 1 d 3 X 3 1 d 3 X 3 1 d 3 X 3 1 d 4 1 d 3 X 3 1 d 3 X 3 1 d 3 1 d 3 X 3 1 d s 689 152 m 3 X 3 1 d 3 X 3 1 d 3 1 d 3 X 3 1 d 3 X 4
 1 d 3 1 d 3 X 3 1 d 3 X 3 1 d 3 X 3 1 d 3 1 d 3 X 3 1 d 3 X 3 1 d 3 1 d 3 X 3 1 d 4 X 3 1 d 3 X 3 1 d 3 1 d 3 X 3 1 d 3 X 3 1 d 3 1 d 3 X 3 1 d 3 X 3 1 d 3 1 d 3 X 4 1 d 3 X 3 1 d 3 X 3 1 d 3 1 d 3 X 3 1 d 3 X s 839 180 m 3 1 d s 0.49 0.6 0.82 c
 black 0.49 0.6 0.82 c
 gsave  408 306 476 13 C 595.418 296.285 t 0 r /Helvetica-Bold findfont 25.6831 sf 0 0 m (8.0 < E < 8.5 GeV) show NC gr  0.52 0.76 0.64 c black 0.52 0.76 0.64 c
 gsave  408 306 476 13 C 581.174 259.249 t 0 r /Helvetica-Bold findfont 25.6831 sf 0 0 m 
 220 206 192 185 170 163 148 141 125 118 111 97 83 69 61 47 40 25 18
(A = 0.001, p = 1.000) K NC gr  1 0.6 1 c black 1 0.6 1 c
 gsave  408 306 476 13 C 883.156 128.2 t 90 r /Helvetica-Bold findfont 28.5368 sf 0 0 m (/dof=0.4) show NC gr  black 1 0.6 1 c
 gsave  408 306 476 13 C 871.76 116.804 t 90 r /Helvetica-Bold findfont 19.9758 sf 0 0 m (2) show NC gr  black 1 0.6 1 c
 gsave  408 306 476 13 C 883.156 99.7112 t 90 r /Symbol findfont 28.5368 sf 0 0 m (c) show NC gr  black 3 lw 1 1 1 c 408 306 930 13 bf black 1 1 1 c black 306 229 991 59 bl 306 229 991 59 bl 991 59 m 306 X s 1037 63 m -4 Y s 1143 63 m -4 Y s 1248 63
 m -4 Y s 1037 63 m -4 Y s 1248 63 m -4 Y s
 gsave  408 306 930 13 C 1019.9 39.8845 t 0 r /Helvetica findfont 22.8295 sf 0 0 m (\25510) show NC gr 
 gsave  408 306 930 13 C 1133.86 39.8845 t 0 r /Helvetica findfont 22.8295 sf 0 0 m (0) show NC gr 
 gsave  408 306 930 13 C 1233.57 39.8845 t 0 r /Helvetica findfont 22.8295 sf 0 0 m (10) show NC gr  991 288 m 306 X s 1037 284 m 4 Y s 1143 284 m 4 Y s 1248 284 m 4 Y s 1037 284 m 4 Y s 1248 284 m 4 Y s 991 59 m 229 Y s 997 92 m -6 X s 994 103 m -3
 X s 994 114 m -3 X s 994 125 m -3 X s 997 136 m -6 X s 994 147 m -3 X s 994 158 m -3 X s 994 169 m -3 X s 997 180 m -6 X s 994 191 m -3 X s 994 202 m -3 X s 994 213 m -3 X s 997 224 m -6 X s 994 235 m -3 X s 994 246 m -3 X s 994 257 m -3 X s 997 269
 m -6 X s 997 92 m -6 X s 994 81 m -3 X s 994 69 m -3 X s 997 269 m -6 X s 994 280 m -3 X s
 gsave  408 306 930 13 C 937.285 85.4667 t 0 r /Helvetica findfont 22.8295 sf 0 0 m (\2550.04) show NC gr 
 gsave  408 306 930 13 C 937.285 128.2 t 0 r /Helvetica findfont 22.8295 sf 0 0 m (\2550.02) show NC gr 
 gsave  408 306 930 13 C 974.32 173.782 t 0 r /Helvetica findfont 22.8295 sf 0 0 m (0) show NC gr 
 gsave  408 306 930 13 C 942.983 216.516 t 0 r /Helvetica findfont 22.8295 sf 0 0 m (0.02) show NC gr 
 gsave  408 306 930 13 C 942.983 262.098 t 0 r /Helvetica findfont 22.8295 sf 0 0 m (0.04) show NC gr  1297 59 m 229 Y s 1292 92 m 5 X s 1294 103 m 3 X s 1294 114 m 3 X s 1294 125 m 3 X s 1292 136 m 5 X s 1294 147 m 3 X s 1294 158 m 3 X s 1294 169 m
 3 X s 1292 180 m 5 X s 1294 191 m 3 X s 1294 202 m 3 X s 1294 213 m 3 X s 1292 224 m 5 X s 1294 235 m 3 X s 1294 246 m 3 X s 1294 257 m 3 X s 1292 269 m 5 X s 1292 92 m 5 X s 1294 81 m 3 X s 1294 69 m 3 X s 1292 269 m 5 X s 1294 280 m 3 X s 1269 190
 1227 220 1185 181 1164 166 1122 125 1101 193 1058 130 1016 152 8 { m21} R 1269 201 m 37 Y s 1264 238 m 11 X s 1269 178 m -37 Y s 1264 141 m 11 X s 1227 232 m 37 Y s 1221 269 m 12 X s 1227 209 m -38 Y s 1221 171 m 12 X s 1185 192 m 37 Y s 1179 229 m
 12 X s 1185 169 m -37 Y s 1179 132 m 12 X s 1164 178 m 36 Y s 1158 214 m 12 X s 1164 155 m -36 Y s 1158 119 m 12 X s 1122 137 m 35 Y s 1116 172 m 11 X s 1122 114 m -36 Y s 1116 78 m 11 X s 1101 205 m 37 Y s 1095 242 m 11 X s 1101 182 m -37 Y s 1095
 145 m 11 X s 1058 141 m 37 Y s 1053 178 m 11 X s 1058 119 m -37 Y s 1053 82 m 11 X s 1016 164 m 36 Y s 1011 200 m 11 X s 1016 141 m -37 Y s 1011 104 m 11 X s 9 lw 0.95 0.95 0.95 c black 993 142 m 3 1 d 3 1 d 3 X 3 1 d 3 1 d 3 1 d 3 1 d 3 X 3 1 d 3 1
 d 3 1 d 3 X 3 1 d 3 1 d 3 1 d 4 X 3 1 d 3 1 d 3 1 d 3 1 d 3 X 3 1 d 3 1 d 3 1 d 3 X 3 1 d 3 1 d 3 1 d 3 1 d 3 X 3 1 d 3 1 d 4 1 d 3 X 3 1 d 3 1 d 3 1 d 3 X 3 1 d 3 1 d 3 1 d 3 1 d 3 X 3 1 d 3 1 d 3 1 d 3 X 3 1 d 4 1 d s 1143 180 m 3 1 d 3 1 d 3 X 3
 1 d 3 1 d 3 1 d 3 X 3 1 d 3 1 d 3 1 d 3 X 3 1 d 3 1 d 3 1 d 3 1 d 4 X 3 1 d 3 1 d 3 1 d 3 X 3 1 d 3 1 d 3 1 d 3 1 d 3 X 3 1 d 3 1 d 3 1 d 3 X 3 1 d 3 1 d 3 1 d 4 1 d 3 X 3 1 d 3 1 d 3 1 d 3 X 3 1 d 3 1 d 3 1 d 3 X 3 1 d 3 1 d 3 1 d 3 1 d 3 X 3 1 d 4
 1 d s 1293 218 m 3 1 d s 0.49 0.6 0.82 c black 0.49 0.6 0.82 c
 gsave  408 306 930 13 C 1051.24 296.285 t 0 r /Helvetica-Bold findfont 25.6831 sf 0 0 m (8.5 < E < 9.0 GeV) show NC gr  0.52 0.76 0.64 c black 0.52 0.76 0.64 c
 gsave  408 306 930 13 C 1037 259.249 t 0 r /Helvetica-Bold findfont 25.6831 sf 0 0 m 
 220 206 192 185 170 163 148 141 126 118 111 97 83 69 61 47 40 25 18
(A = 0.001, p = 1.000) K NC gr  1 0.6 1 c black 1 0.6 1 c
 gsave  408 306 930 13 C 1336.13 128.2 t 90 r /Helvetica-Bold findfont 28.5368 sf 0 0 m (/dof=0.3) show NC gr  black 1 0.6 1 c
 gsave  408 306 930 13 C 1324.73 116.804 t 90 r /Helvetica-Bold findfont 19.9758 sf 0 0 m (2) show NC gr  black 1 0.6 1 c
 gsave  408 306 930 13 C 1336.13 99.7112 t 90 r /Symbol findfont 28.5368 sf 0 0 m (c) show NC gr  black 3 lw 1 1 1 c 408 306 1383 13 bf black 1 1 1 c black 306 229 1445 59 bl 306 229 1445 59 bl 1445 59 m 306 X s 1491 63 m -4 Y s 1596 63 m -4 Y s 1702
 63 m -4 Y s 1491 63 m -4 Y s 1702 63 m -4 Y s
 gsave  408 306 1383 13 C 1472.88 39.8845 t 0 r /Helvetica findfont 22.8295 sf 0 0 m (\25510) show NC gr 
 gsave  408 306 1383 13 C 1586.83 39.8845 t 0 r /Helvetica findfont 22.8295 sf 0 0 m (0) show NC gr 
 gsave  408 306 1383 13 C 1686.54 39.8845 t 0 r /Helvetica findfont 22.8295 sf 0 0 m (10) show NC gr  1445 288 m 306 X s 1491 284 m 4 Y s 1596 284 m 4 Y s 1702 284 m 4 Y s 1491 284 m 4 Y s 1702 284 m 4 Y s 1445 59 m 229 Y s 1450 60 m -5 X s 1447 67 m
 -2 X s 1447 73 m -2 X s 1447 80 m -2 X s 1450 87 m -5 X s 1447 94 m -2 X s 1447 100 m -2 X s 1447 107 m -2 X s 1450 114 m -5 X s 1447 121 m -2 X s 1447 127 m -2 X s 1447 134 m -2 X s 1450 141 m -5 X s 1447 148 m -2 X s 1447 154 m -2 X s 1447 161 m
 -2 X s 1450 168 m -5 X s 1447 175 m -2 X s 1447 181 m -2 X s 1447 188 m -2 X s 1450 195 m -5 X s 1447 202 m -2 X s 1447 208 m -2 X s 1447 215 m -2 X s 1450 222 m -5 X s 1447 229 m -2 X s 1447 236 m -2 X s 1447 242 m -2 X s 1450 249 m -5 X s 1447 256
 m -2 X s 1447 263 m -2 X s 1447 269 m -2 X s 1450 276 m -5 X s 1450 60 m -5 X s 1450 276 m -5 X s 1447 283 m -2 X s
 gsave  408 306 1383 13 C 1390.26 54.1289 t 0 r /Helvetica findfont 22.8295 sf 0 0 m (\2550.06) show NC gr 
 gsave  408 306 1383 13 C 1390.26 79.7689 t 0 r /Helvetica findfont 22.8295 sf 0 0 m (\2550.04) show NC gr 
 gsave  408 306 1383 13 C 1390.26 105.409 t 0 r /Helvetica findfont 22.8295 sf 0 0 m (\2550.02) show NC gr 
 gsave  408 306 1383 13 C 1427.29 133.898 t 0 r /Helvetica findfont 22.8295 sf 0 0 m (0) show NC gr 
 gsave  408 306 1383 13 C 1395.96 159.538 t 0 r /Helvetica findfont 22.8295 sf 0 0 m (0.02) show NC gr 
 gsave  408 306 1383 13 C 1395.96 188.027 t 0 r /Helvetica findfont 22.8295 sf 0 0 m (0.04) show NC gr 
 gsave  408 306 1383 13 C 1395.96 213.667 t 0 r /Helvetica findfont 22.8295 sf 0 0 m (0.06) show NC gr 
 gsave  408 306 1383 13 C 1395.96 242.156 t 0 r /Helvetica findfont 22.8295 sf 0 0 m (0.08) show NC gr 
 gsave  408 306 1383 13 C 1413.05 267.796 t 0 r /Helvetica findfont 22.8295 sf 0 0 m (0.1) show NC gr  1751 59 m 229 Y s 1745 60 m 6 X s 1748 67 m 3 X s 1748 73 m 3 X s 1748 80 m 3 X s 1745 87 m 6 X s 1748 94 m 3 X s 1748 100 m 3 X s 1748 107 m 3 X s
 1745 114 m 6 X s 1748 121 m 3 X s 1748 127 m 3 X s 1748 134 m 3 X s 1745 141 m 6 X s 1748 148 m 3 X s 1748 154 m 3 X s 1748 161 m 3 X s 1745 168 m 6 X s 1748 175 m 3 X s 1748 181 m 3 X s 1748 188 m 3 X s 1745 195 m 6 X s 1748 202 m 3 X s 1748 208 m
 3 X s 1748 215 m 3 X s 1745 222 m 6 X s 1748 229 m 3 X s 1748 236 m 3 X s 1748 242 m 3 X s 1745 249 m 6 X s 1748 256 m 3 X s 1748 263 m 3 X s 1748 269 m 3 X s 1745 276 m 6 X s 1745 60 m 6 X s 1745 276 m 6 X s 1748 283 m 3 X s 1723 160 1681 236 1639
 109 1617 164 1575 179 1554 158 1512 176 1470 181 8 { m21} R 1723 172 m 20 Y s 1717 192 m 12 X s 1723 149 m -20 Y s 1717 129 m 12 X s 1681 247 m 22 Y s 1675 269 m 11 X s 1681 225 m -22 Y s 1675 203 m 11 X s 1639 120 m 19 Y s 1633 139 m 11 X s 1639 97
 m -19 Y s 1633 78 m 11 X s 1617 175 m 21 Y s 1612 196 m 11 X s 1617 153 m -21 Y s 1612 132 m 11 X s 1575 190 m 21 Y s 1570 211 m 11 X s 1575 168 m -21 Y s 1570 147 m 11 X s 1554 170 m 20 Y s 1548 190 m 12 X s 1554 147 m -20 Y s 1548 127 m 12 X s
 1512 188 m 20 Y s 1506 208 m 12 X s 1512 165 m -21 Y s 1506 144 m 12 X s 1470 192 m 22 Y s 1464 214 m 12 X s 1470 170 m -22 Y s 1464 148 m 12 X s 1 0 0 c 9 lw 0.95 0.95 0.95 c black 1 0 0 c 1446 208 m 3 -3 d 3 -2 d 3 -3 d 3 -3 d 3 -2 d 3 -2 d 3 -3 d
 4 -2 d 3 -2 d 3 -3 d 3 -2 d 3 -2 d 3 -2 d 3 -2 d 3 -2 d 3 -2 d 3 -1 d 3 -2 d 3 -2 d 3 -2 d 3 -1 d 3 -2 d 3 -1 d 4 -2 d 3 -1 d 3 -1 d 3 -2 d 3 -1 d 3 -1 d 3 -1 d 3 -1 d 3 -1 d 3 -1 d 3 -1 d 3 -1 d 3 X 3 -1 d 3 -1 d 3 X 4 -1 d 3 X 3 -1 d 6 X 3 -1 d 12
 X s 1596 141 m 12 X 3 1 d 7 X 3 1 d 3 X 3 1 d 3 X 3 1 d 3 1 d 3 X 3 1 d 3 1 d 3 1 d 3 1 d 3 1 d 3 1 d 3 1 d 3 1 d 3 2 d 4 1 d 3 1 d 3 2 d 3 1 d 3 2 d 3 1 d 3 2 d 3 1 d 3 2 d 3 2 d 3 2 d 3 2 d 3 2 d 3 2 d 3 2 d 3 2 d 4 2 d 3 2 d 3 3 d 3 2 d 3 2 d 3 3
 d 3 2 d 3 3 d 3 3 d 3 2 d s 1746 207 m 3 3 d s 0.49 0.6 0.82 c black 0.49 0.6 0.82 c
 gsave  408 306 1383 13 C 1504.21 296.285 t 0 r /Helvetica-Bold findfont 25.6831 sf 0 0 m (9.0 < E < 9.5 GeV) show NC gr  0.52 0.76 0.64 c black 0.52 0.76 0.64 c
 gsave  408 306 1383 13 C 1489.97 259.249 t 0 r /Helvetica-Bold findfont 25.6831 sf 0 0 m 
 220 206 192 185 170 163 148 141 125 118 111 97 83 68 61 47 40 25 18
(A = 0.000, p = 2.000) K NC gr  1 0.6 1 c black 1 0.6 1 c
 gsave  408 306 1383 13 C 1789.1 128.2 t 90 r /Helvetica-Bold findfont 28.5368 sf 0 0 m (/dof=1.4) show NC gr  black 1 0.6 1 c
 gsave  408 306 1383 13 C 1777.71 116.804 t 90 r /Helvetica-Bold findfont 19.9758 sf 0 0 m (2) show NC gr  black 1 0.6 1 c
 gsave  408 306 1383 13 C 1789.1 99.7112 t 90 r /Symbol findfont 28.5368 sf 0 0 m (c) show NC gr  black 3 lw 1 1 1 c 408 306 1837 13 bf black 1 1 1 c black 306 229 1898 59 bl 306 229 1898 59 bl 1898 59 m 306 X s 1944 63 m -4 Y s 2050 63 m -4 Y s 2155
 63 m -4 Y s 1944 63 m -4 Y s 2155 63 m -4 Y s
 gsave  408 306 1837 13 C 1925.85 39.8845 t 0 r /Helvetica findfont 22.8295 sf 0 0 m (\25510) show NC gr 
 gsave  408 306 1837 13 C 2039.81 39.8845 t 0 r /Helvetica findfont 22.8295 sf 0 0 m (0) show NC gr 
 gsave  408 306 1837 13 C 2139.52 39.8845 t 0 r /Helvetica findfont 22.8295 sf 0 0 m (10) show NC gr  1898 288 m 306 X s 1944 284 m 4 Y s 2050 284 m 4 Y s 2155 284 m 4 Y s 1944 284 m 4 Y s 2155 284 m 4 Y s 1898 59 m 229 Y s 1904 67 m -6 X s 1901 75 m
 -3 X s 1901 84 m -3 X s 1901 92 m -3 X s 1904 101 m -6 X s 1901 110 m -3 X s 1901 118 m -3 X s 1901 127 m -3 X s 1904 135 m -6 X s 1901 144 m -3 X s 1901 152 m -3 X s 1901 161 m -3 X s 1904 170 m -6 X s 1901 178 m -3 X s 1901 187 m -3 X s 1901 195 m
 -3 X s 1904 204 m -6 X s 1901 213 m -3 X s 1901 221 m -3 X s 1901 230 m -3 X s 1904 238 m -6 X s 1901 247 m -3 X s 1901 255 m -3 X s 1901 264 m -3 X s 1904 273 m -6 X s 1904 67 m -6 X s 1904 273 m -6 X s 1901 281 m -3 X s
 gsave  408 306 1837 13 C 1843.23 59.8267 t 0 r /Helvetica findfont 22.8295 sf 0 0 m (\2550.06) show NC gr 
 gsave  408 306 1837 13 C 1843.23 94.0134 t 0 r /Helvetica findfont 22.8295 sf 0 0 m (\2550.04) show NC gr 
 gsave  408 306 1837 13 C 1843.23 128.2 t 0 r /Helvetica findfont 22.8295 sf 0 0 m (\2550.02) show NC gr 
 gsave  408 306 1837 13 C 1880.27 162.387 t 0 r /Helvetica findfont 22.8295 sf 0 0 m (0) show NC gr 
 gsave  408 306 1837 13 C 1848.93 196.573 t 0 r /Helvetica findfont 22.8295 sf 0 0 m (0.02) show NC gr 
 gsave  408 306 1837 13 C 1848.93 230.76 t 0 r /Helvetica findfont 22.8295 sf 0 0 m (0.04) show NC gr 
 gsave  408 306 1837 13 C 1848.93 264.947 t 0 r /Helvetica findfont 22.8295 sf 0 0 m (0.06) show NC gr  2204 59 m 229 Y s 2199 67 m 5 X s 2201 75 m 3 X s 2201 84 m 3 X s 2201 92 m 3 X s 2199 101 m 5 X s 2201 110 m 3 X s 2201 118 m 3 X s 2201 127 m 3
 X s 2199 135 m 5 X s 2201 144 m 3 X s 2201 152 m 3 X s 2201 161 m 3 X s 2199 170 m 5 X s 2201 178 m 3 X s 2201 187 m 3 X s 2201 195 m 3 X s 2199 204 m 5 X s 2201 213 m 3 X s 2201 221 m 3 X s 2201 230 m 3 X s 2199 238 m 5 X s 2201 247 m 3 X s 2201
 255 m 3 X s 2201 264 m 3 X s 2199 273 m 5 X s 2199 67 m 5 X s 2199 273 m 5 X s 2201 281 m 3 X s 2176 226 2134 164 2092 207 2071 151 2029 205 2008 160 1966 126 1923 119 8 { m21} R 2176 238 m 31 Y s 2171 269 m 11 X s 2176 215 m -31 Y s 2171 184 m 11 X
 s 2134 176 m 30 Y s 2129 206 m 11 X s 2134 153 m -30 Y s 2129 123 m 11 X s 2092 218 m 31 Y s 2086 249 m 12 X s 2092 195 m -31 Y s 2086 164 m 12 X s 2071 162 m 30 Y s 2065 192 m 12 X s 2071 139 m -29 Y s 2065 110 m 12 X s 2029 216 m 31 Y s 2023 247 m
 11 X s 2029 193 m -31 Y s 2023 162 m 11 X s 2008 171 m 30 Y s 2002 201 m 11 X s 2008 149 m -30 Y s 2002 119 m 11 X s 1966 137 m 29 Y s 1960 166 m 11 X s 1966 114 m -29 Y s 1960 85 m 11 X s 1923 131 m 30 Y s 1918 161 m 11 X s 1923 108 m -30 Y s 1918
 78 m 11 X s 9 lw 0.95 0.95 0.95 c black 1900 117 m 3 1 d 3 1 d 3 2 d 3 1 d 3 1 d 3 1 d 3 1 d 3 1 d 3 1 d 3 1 d 3 1 d 3 1 d 3 1 d 3 1 d 4 1 d 3 1 d 3 1 d 3 2 d 3 1 d 3 1 d 3 1 d 3 1 d 3 1 d 3 1 d 3 1 d 3 1 d 3 1 d 3 1 d 3 1 d 3 1 d 4 1 d 3 1 d 3 1 d
 3 2 d 3 1 d 3 1 d 3 1 d 3 1 d 3 1 d 3 1 d 3 1 d 3 1 d 3 1 d 3 1 d 3 1 d 3 1 d 3 1 d 4 1 d 3 2 d s 2050 170 m 3 1 d 3 1 d 3 1 d 3 1 d 3 1 d 3 1 d 3 1 d 3 1 d 3 1 d 3 1 d 3 1 d 3 1 d 3 1 d 3 1 d 4 1 d 3 2 d 3 1 d 3 1 d 3 1 d 3 1 d 3 1 d 3 1 d 3 1 d 3
 1 d 3 1 d 3 1 d 3 1 d 3 1 d 3 1 d 3 1 d 4 2 d 3 1 d 3 1 d 3 1 d 3 1 d 3 1 d 3 1 d 3 1 d 3 1 d 3 1 d 3 1 d 3 1 d 3 1 d 3 1 d 3 1 d 3 2 d 4 1 d 3 1 d 3 1 d s 2200 222 m 3 1 d s 0.49 0.6 0.82 c black 0.49 0.6 0.82 c
 gsave  408 306 1837 13 C 1948.64 296.285 t 0 r /Helvetica-Bold findfont 25.6831 sf 0 0 m (9.5 < E < 10.0 GeV) show NC gr  0.52 0.76 0.64 c black 0.52 0.76 0.64 c
 gsave  408 306 1837 13 C 1942.94 259.249 t 0 r /Helvetica-Bold findfont 25.6831 sf 0 0 m 
 220 206 192 185 170 163 148 141 126 118 111 97 83 69 61 47 40 25 18
(A = 0.002, p = 1.000) K NC gr  1 0.6 1 c black 1 0.6 1 c
 gsave  408 306 1837 13 C 2242.08 128.2 t 90 r /Helvetica-Bold findfont 28.5368 sf 0 0 m (/dof=0.4) show NC gr  black 1 0.6 1 c
 gsave  408 306 1837 13 C 2230.68 116.804 t 90 r /Helvetica-Bold findfont 19.9758 sf 0 0 m (2) show NC gr  black 1 0.6 1 c
 gsave  408 306 1837 13 C 2242.08 99.7112 t 90 r /Symbol findfont 28.5368 sf 0 0 m (c) show NC gr 
 gr  gr showpage
end
%%EOF
