%!PS-Adobe-2.0 EPSF-2.0
%%BoundingBox:  0 0 567 332
%%Title: Horn2YTilt_near_fits.eps: Fits
%%Creator: ROOT Version 5.30/06
%%CreationDate: Sun Feb  2 09:40:28 2014
%%EndComments
%%BeginProlog
80 dict begin
/s {stroke} def /l {lineto} def /m {moveto} def /t {translate} def
/r {rotate} def /rl {roll}  def /R {repeat} def
/d {rlineto} def /rm {rmoveto} def /gr {grestore} def /f {eofill} def
/c {setrgbcolor} def /black {0 setgray} def /sd {setdash} def
/cl {closepath} def /sf {scalefont setfont} def /lw {setlinewidth} def
/box {m dup 0 exch d exch 0 d 0 exch neg d cl} def
/NC{systemdict begin initclip end}def/C{NC box clip newpath}def
/bl {box s} def /bf {box f} def /Y { 0 exch d} def /X { 0 d} def 
/K {{pop pop 0 moveto} exch kshow} bind def
/ita {/ang 15 def gsave [1 0 ang dup sin exch cos div 1 0 0] concat} def 
/mp {newpath /y exch def /x exch def} def
/side {[w .77 mul w .23 mul] .385 w mul sd w 0 l currentpoint t -144 r} def
/mr {mp x y w2 0 360 arc} def /m24 {mr s} def /m20 {mr f} def
/mb {mp x y w2 add m w2 neg 0 d 0 w neg d w 0 d 0 w d cl} def
/mt {mp x y w2 add m w2 neg w neg d w 0 d cl} def
/m21 {mb f} def /m25 {mb s} def /m22 {mt f} def /m26{mt s} def
/m23 {mp x y w2 sub m w2 w d w neg 0 d cl f} def
/m27 {mp x y w2 add m w3 neg w2 neg d w3 w2 neg d w3 w2 d cl s} def
/m28 {mp x w2 sub y w2 sub w3 add m w3 0 d  0 w3 neg d w3 0 d 0 w3 d w3 0 d  0 w3 d w3 neg 0 d 0 w3 d w3 neg 0 d 0 w3 neg d w3 neg 0 d cl s } def
/m29 {mp gsave x w2 sub y w2 add w3 sub m currentpoint t 4 {side} repeat cl fill gr} def
/m30 {mp gsave x w2 sub y w2 add w3 sub m currentpoint t 4 {side} repeat cl s gr} def
/m31 {mp x y w2 sub m 0 w d x w2 sub y m w 0 d x w2 sub y w2 add m w w neg d x w2 sub y w2 sub m w w d s} def
/m32 {mp x y w2 sub m w2 w d w neg 0 d cl s} def
/m33 {mp x y w2 add m w3 neg w2 neg d w3 w2 neg d w3 w2 d cl f} def
/m34 {mp x w2 sub y w2 sub w3 add m w3 0 d  0 w3 neg d w3 0 d 0 w3 d w3 0 d  0 w3 d w3 neg 0 d 0 w3 d w3 neg 0 d 0 w3 neg d w3 neg 0 d cl f } def
/m2 {mp x y w2 sub m 0 w d x w2 sub y m w 0 d s} def
/m5 {mp x w2 sub y w2 sub m w w d x w2 sub y w2 add m w w neg d s} def
/reEncode {exch findfont dup length dict begin {1 index /FID eq  {pop pop} {def} ifelse } forall /Encoding exch def currentdict end dup /FontName get exch definefont pop } def [/Times-Bold /Times-Italic /Times-BoldItalic /Helvetica /Helvetica-Oblique
 /Helvetica-Bold /Helvetica-BoldOblique /Courier /Courier-Oblique /Courier-Bold /Courier-BoldOblique /Times-Roman /AvantGarde-Book /AvantGarde-BookOblique /AvantGarde-Demi /AvantGarde-DemiOblique /Bookman-Demi /Bookman-DemiItalic /Bookman-Light
 /Bookman-LightItalic /Helvetica-Narrow /Helvetica-Narrow-Bold /Helvetica-Narrow-BoldOblique /Helvetica-Narrow-Oblique /NewCenturySchlbk-Roman /NewCenturySchlbk-Bold /NewCenturySchlbk-BoldItalic /NewCenturySchlbk-Italic /Palatino-Bold
 /Palatino-BoldItalic /Palatino-Italic /Palatino-Roman ] {ISOLatin1Encoding reEncode } forall%%EndProlog
%%BeginSetup
%%EndSetup
newpath  gsave  .25 .25 scale  gsave  0 0 t black[  ] 0 sd 3 lw 1 1 1 c 2268 1328 0 0 bf black 1 1 1 c 408 305 23 1009 bf black 1 1 1 c black 306 229 84 1055 bl 306 229 84 1055 bl 84 1055 m 306 X s 84 1059 m -4 Y s 225 1059 m -4 Y s 367 1059 m -4 Y s
 367 1059 m -4 Y s
 gsave  408 305 23 1009 C 74.0711 1034.15 t 0 r /Helvetica findfont 22.8295 sf 0 0 m (0) show NC gr 
 gsave  408 305 23 1009 C 219.365 1034.15 t 0 r /Helvetica findfont 22.8295 sf 0 0 m (1) show NC gr 
 gsave  408 305 23 1009 C 356.111 1034.15 t 0 r /Helvetica findfont 22.8295 sf 0 0 m (2) show NC gr  84 1284 m 306 X s 84 1280 m 4 Y s 225 1280 m 4 Y s 367 1280 m 4 Y s 367 1280 m 4 Y s 84 1055 m 229 Y s 89 1071 m -5 X s 87 1082 m -3 X s 87 1093 m -3
 X s 87 1104 m -3 X s 89 1115 m -5 X s 87 1127 m -3 X s 87 1138 m -3 X s 87 1149 m -3 X s 89 1160 m -5 X s 87 1171 m -3 X s 87 1183 m -3 X s 87 1194 m -3 X s 89 1205 m -5 X s 87 1216 m -3 X s 87 1227 m -3 X s 87 1239 m -3 X s 89 1250 m -5 X s 89 1071
 m -5 X s 87 1059 m -3 X s 89 1250 m -5 X s 87 1261 m -3 X s 87 1272 m -3 X s 87 1284 m -3 X s
 gsave  408 305 23 1009 C 14.2445 1062.64 t 0 r /Helvetica findfont 22.8295 sf 0 0 m (\2550.004) show NC gr 
 gsave  408 305 23 1009 C 14.2445 1108.22 t 0 r /Helvetica findfont 22.8295 sf 0 0 m (\2550.002) show NC gr 
 gsave  408 305 23 1009 C 65.5245 1153.8 t 0 r /Helvetica findfont 22.8295 sf 0 0 m (0) show NC gr 
 gsave  408 305 23 1009 C 22.7911 1199.38 t 0 r /Helvetica findfont 22.8295 sf 0 0 m (0.002) show NC gr 
 gsave  408 305 23 1009 C 22.7911 1242.12 t 0 r /Helvetica findfont 22.8295 sf 0 0 m (0.004) show NC gr  390 1055 m 229 Y s 385 1071 m 5 X s 387 1082 m 3 X s 387 1093 m 3 X s 387 1104 m 3 X s 385 1115 m 5 X s 387 1127 m 3 X s 387 1138 m 3 X s 387
 1149 m 3 X s 385 1160 m 5 X s 387 1171 m 3 X s 387 1183 m 3 X s 387 1194 m 3 X s 385 1205 m 5 X s 387 1216 m 3 X s 387 1227 m 3 X s 387 1239 m 3 X s 385 1250 m 5 X s 385 1071 m 5 X s 387 1059 m 3 X s 385 1250 m 5 X s 387 1261 m 3 X s 387 1272 m 3 X
 s 387 1284 m 3 X s /w 22 def /w2 {w 2 div} def /w3 {w 3 div} def 155 1222 225 1189 367 1116 3 { m21} R 155 1234 m 31 Y s 149 1265 m 11 X s 155 1211 m -31 Y s 149 1180 m 11 X s 225 1200 m 31 Y s 220 1231 m 11 X s 225 1177 m -31 Y s 220 1146 m 11 X s
 367 1128 m 31 Y s 361 1159 m 11 X s 367 1105 m -31 Y s 361 1074 m 11 X s 1 0 0 c 9 lw 0.95 0.95 0.95 c black 1 0 0 c 85 1160 m 43 X 3 -1 d 19 X 3 -1 d 15 X 3 -1 d 9 X 3 -1 d 10 X 3 -1 d 9 X 3 -1 d 6 X 3 -1 d 6 X 3 -1 d 6 X 3 -1 d s 235 1151 m 7 X 3
 -1 d 3 X 3 -1 d 6 X 3 -1 d 3 X 3 -1 d 6 X 3 -1 d 3 X 3 -1 d 3 X 3 -1 d 4 X 3 -1 d 3 X 3 -1 d 3 X 3 -1 d 3 X 3 -1 d 3 X 3 -1 d 3 -1 d 3 X 3 -1 d 3 X 3 -1 d 3 X 4 -1 d 3 -1 d 3 X 3 -1 d 3 -1 d 3 X 3 -1 d 3 X 3 -1 d 3 -1 d 3 X 3 -1 d 3 -1 d 3 -1 d 3 X
 3 -1 d s 385 1125 m 4 -1 d s 0.49 0.6 0.82 c black 0.49 0.6 0.82 c
 gsave  408 305 23 1009 C 142.445 1293.4 t 0 r /Helvetica-Bold findfont 25.6831 sf 0 0 m (0.0 < E < 0.5 GeV) show NC gr  0.52 0.76 0.64 c black 0.52 0.76 0.64 c
 gsave  408 305 23 1009 C 122.502 1256.36 t 0 r /Helvetica-Bold findfont 25.6831 sf 0 0 m 
 228 214 200 193 178 171 156 149 134 126 119 105 91 77 69 55 47 39 25 17
(A = \2550.000, p = 2.000) K NC gr  1 0.6 1 c black 1 0.6 1 c
 gsave  408 305 23 1009 C 427.334 1122.46 t 90 r /Helvetica-Bold findfont 28.5368 sf 0 0 m (/dof=1.5) show NC gr  black 1 0.6 1 c
 gsave  408 305 23 1009 C 415.938 1111.07 t 90 r /Helvetica-Bold findfont 19.9758 sf 0 0 m (2) show NC gr  black 1 0.6 1 c
 gsave  408 305 23 1009 C 427.334 1093.97 t 90 r /Symbol findfont 28.5368 sf 0 0 m (c) show NC gr  black 3 lw 1 1 1 c 408 305 476 1009 bf black 1 1 1 c black 307 229 537 1055 bl 307 229 537 1055 bl 537 1055 m 307 X s 537 1059 m -4 Y s 679 1059 m -4 Y
 s 820 1059 m -4 Y s 820 1059 m -4 Y s
 gsave  408 305 476 1009 C 527.045 1034.15 t 0 r /Helvetica findfont 22.8295 sf 0 0 m (0) show NC gr 
 gsave  408 305 476 1009 C 672.338 1034.15 t 0 r /Helvetica findfont 22.8295 sf 0 0 m (1) show NC gr 
 gsave  408 305 476 1009 C 809.085 1034.15 t 0 r /Helvetica findfont 22.8295 sf 0 0 m (2) show NC gr  537 1284 m 307 X s 537 1280 m 4 Y s 679 1280 m 4 Y s 820 1280 m 4 Y s 820 1280 m 4 Y s 537 1055 m 229 Y s 543 1058 m -6 X s 540 1068 m -3 X s 540
 1078 m -3 X s 540 1087 m -3 X s 543 1097 m -6 X s 540 1107 m -3 X s 540 1117 m -3 X s 540 1127 m -3 X s 543 1137 m -6 X s 540 1147 m -3 X s 540 1157 m -3 X s 540 1167 m -3 X s 543 1177 m -6 X s 540 1187 m -3 X s 540 1197 m -3 X s 540 1207 m -3 X s
 543 1216 m -6 X s 540 1226 m -3 X s 540 1236 m -3 X s 540 1246 m -3 X s 543 1256 m -6 X s 543 1058 m -6 X s 543 1256 m -6 X s 540 1266 m -3 X s 540 1276 m -3 X s
 gsave  408 305 476 1009 C 467.218 1051.24 t 0 r /Helvetica findfont 22.8295 sf 0 0 m (\2550.006) show NC gr 
 gsave  408 305 476 1009 C 467.218 1091.12 t 0 r /Helvetica findfont 22.8295 sf 0 0 m (\2550.004) show NC gr 
 gsave  408 305 476 1009 C 467.218 1131.01 t 0 r /Helvetica findfont 22.8295 sf 0 0 m (\2550.002) show NC gr 
 gsave  408 305 476 1009 C 518.498 1170.89 t 0 r /Helvetica findfont 22.8295 sf 0 0 m (0) show NC gr 
 gsave  408 305 476 1009 C 475.765 1207.93 t 0 r /Helvetica findfont 22.8295 sf 0 0 m (0.002) show NC gr 
 gsave  408 305 476 1009 C 475.765 1247.81 t 0 r /Helvetica findfont 22.8295 sf 0 0 m (0.004) show NC gr  844 1055 m 229 Y s 838 1058 m 6 X s 841 1068 m 3 X s 841 1078 m 3 X s 841 1087 m 3 X s 838 1097 m 6 X s 841 1107 m 3 X s 841 1117 m 3 X s 841
 1127 m 3 X s 838 1137 m 6 X s 841 1147 m 3 X s 841 1157 m 3 X s 841 1167 m 3 X s 838 1177 m 6 X s 841 1187 m 3 X s 841 1197 m 3 X s 841 1207 m 3 X s 838 1216 m 6 X s 841 1226 m 3 X s 841 1236 m 3 X s 841 1246 m 3 X s 838 1256 m 6 X s 838 1058 m 6 X
 s 838 1256 m 6 X s 841 1266 m 3 X s 841 1276 m 3 X s /w 23 def /w2 {w 2 div} def /w3 {w 3 div} def 608 1150 679 1119 820 1220 3 { m21} R 608 1161 m 34 Y s 602 1195 m 12 X s 608 1138 m -34 Y s 602 1104 m 12 X s 679 1130 m 33 Y s 673 1163 m 12 X s 679
 1107 m -33 Y s 673 1074 m 12 X s 820 1231 m 34 Y s 815 1265 m 11 X s 820 1208 m -33 Y s 815 1175 m 11 X s 1 0 0 c 9 lw 0.95 0.95 0.95 c black 1 0 0 c 539 1177 m 46 X 3 1 d 21 X 3 1 d 19 X 3 1 d 12 X 3 1 d 9 X 3 1 d 10 X 3 1 d 9 X 3 1 d 3 X s 689
 1184 m 3 X 3 1 d 9 X 3 1 d 6 X 4 1 d 6 X 3 1 d 3 X 3 1 d 6 X 3 1 d 6 X 3 1 d 3 X 3 1 d 3 X 3 1 d 7 X 3 1 d 3 X 3 1 d 3 X 3 1 d 3 X 3 1 d 3 X 3 1 d 3 X 3 1 d 3 X 3 1 d 3 X 4 1 d 3 X 3 1 d 3 X 3 1 d 3 X 3 1 d 3 X 3 1 d s 839 1205 m 3 1 d s 0.49 0.6
 0.82 c black 0.49 0.6 0.82 c
 gsave  408 305 476 1009 C 595.418 1293.4 t 0 r /Helvetica-Bold findfont 25.6831 sf 0 0 m (0.5 < E < 1.0 GeV) show NC gr  0.52 0.76 0.64 c black 0.52 0.76 0.64 c
 gsave  408 305 476 1009 C 581.174 1256.36 t 0 r /Helvetica-Bold findfont 25.6831 sf 0 0 m 
 220 206 192 185 170 163 148 141 125 118 111 97 83 68 61 47 40 25 18
(A = 0.000, p = 2.000) K NC gr  1 0.6 1 c black 1 0.6 1 c
 gsave  408 305 476 1009 C 883.156 1122.46 t 90 r /Helvetica-Bold findfont 28.5368 sf 0 0 m (/dof=1.3) show NC gr  black 1 0.6 1 c
 gsave  408 305 476 1009 C 871.76 1111.07 t 90 r /Helvetica-Bold findfont 19.9758 sf 0 0 m (2) show NC gr  black 1 0.6 1 c
 gsave  408 305 476 1009 C 883.156 1093.97 t 90 r /Symbol findfont 28.5368 sf 0 0 m (c) show NC gr  black 3 lw 1 1 1 c 408 305 930 1009 bf black 1 1 1 c black 306 229 991 1055 bl 306 229 991 1055 bl 991 1055 m 306 X s 991 1059 m -4 Y s 1132 1059 m -4
 Y s 1274 1059 m -4 Y s 1274 1059 m -4 Y s
 gsave  408 305 930 1009 C 980.018 1034.15 t 0 r /Helvetica findfont 22.8295 sf 0 0 m (0) show NC gr 
 gsave  408 305 930 1009 C 1125.31 1034.15 t 0 r /Helvetica findfont 22.8295 sf 0 0 m (1) show NC gr 
 gsave  408 305 930 1009 C 1264.91 1034.15 t 0 r /Helvetica findfont 22.8295 sf 0 0 m (2) show NC gr  991 1284 m 306 X s 991 1280 m 4 Y s 1132 1280 m 4 Y s 1274 1280 m 4 Y s 1274 1280 m 4 Y s 991 1055 m 229 Y s 997 1074 m -6 X s 994 1079 m -3 X s 994
 1085 m -3 X s 994 1090 m -3 X s 994 1095 m -3 X s 997 1100 m -6 X s 994 1106 m -3 X s 994 1111 m -3 X s 994 1116 m -3 X s 994 1121 m -3 X s 997 1127 m -6 X s 994 1132 m -3 X s 994 1137 m -3 X s 994 1143 m -3 X s 994 1148 m -3 X s 997 1153 m -6 X s
 994 1158 m -3 X s 994 1164 m -3 X s 994 1169 m -3 X s 994 1174 m -3 X s 997 1179 m -6 X s 994 1185 m -3 X s 994 1190 m -3 X s 994 1195 m -3 X s 994 1200 m -3 X s 997 1206 m -6 X s 994 1211 m -3 X s 994 1216 m -3 X s 994 1222 m -3 X s 994 1227 m -3 X
 s 997 1232 m -6 X s 994 1237 m -3 X s 994 1243 m -3 X s 994 1248 m -3 X s 994 1253 m -3 X s 997 1258 m -6 X s 997 1074 m -6 X s 994 1069 m -3 X s 994 1064 m -3 X s 994 1058 m -3 X s 997 1258 m -6 X s 994 1264 m -3 X s 994 1269 m -3 X s 994 1274 m -3
 X s 994 1279 m -3 X s
 gsave  408 305 930 1009 C 923.04 1068.33 t 0 r /Helvetica findfont 22.8295 sf 0 0 m (\2550.004) show NC gr 
 gsave  408 305 930 1009 C 923.04 1093.97 t 0 r /Helvetica findfont 22.8295 sf 0 0 m (\2550.003) show NC gr 
 gsave  408 305 930 1009 C 923.04 1119.61 t 0 r /Helvetica findfont 22.8295 sf 0 0 m (\2550.002) show NC gr 
 gsave  408 305 930 1009 C 925.889 1145.25 t 0 r /Helvetica findfont 22.8295 sf 0 0 m (\2550.001) show NC gr 
 gsave  408 305 930 1009 C 974.32 1170.89 t 0 r /Helvetica findfont 22.8295 sf 0 0 m (0) show NC gr 
 gsave  408 305 930 1009 C 934.436 1199.38 t 0 r /Helvetica findfont 22.8295 sf 0 0 m (0.001) show NC gr 
 gsave  408 305 930 1009 C 931.587 1225.02 t 0 r /Helvetica findfont 22.8295 sf 0 0 m (0.002) show NC gr 
 gsave  408 305 930 1009 C 931.587 1250.66 t 0 r /Helvetica findfont 22.8295 sf 0 0 m (0.003) show NC gr  1297 1055 m 229 Y s 1292 1074 m 5 X s 1294 1079 m 3 X s 1294 1085 m 3 X s 1294 1090 m 3 X s 1294 1095 m 3 X s 1292 1100 m 5 X s 1294 1106 m 3 X
 s 1294 1111 m 3 X s 1294 1116 m 3 X s 1294 1121 m 3 X s 1292 1127 m 5 X s 1294 1132 m 3 X s 1294 1137 m 3 X s 1294 1143 m 3 X s 1294 1148 m 3 X s 1292 1153 m 5 X s 1294 1158 m 3 X s 1294 1164 m 3 X s 1294 1169 m 3 X s 1294 1174 m 3 X s 1292 1179 m 5
 X s 1294 1185 m 3 X s 1294 1190 m 3 X s 1294 1195 m 3 X s 1294 1200 m 3 X s 1292 1206 m 5 X s 1294 1211 m 3 X s 1294 1216 m 3 X s 1294 1222 m 3 X s 1294 1227 m 3 X s 1292 1232 m 5 X s 1294 1237 m 3 X s 1294 1243 m 3 X s 1294 1248 m 3 X s 1294 1253 m
 3 X s 1292 1258 m 5 X s 1292 1074 m 5 X s 1294 1069 m 3 X s 1294 1064 m 3 X s 1294 1058 m 3 X s 1292 1258 m 5 X s 1294 1264 m 3 X s 1294 1269 m 3 X s 1294 1274 m 3 X s 1294 1279 m 3 X s 1062 1206 1132 1157 1274 1132 3 { m21} R 1062 1217 m 48 Y s
 1056 1265 m 11 X s 1062 1195 m -48 Y s 1056 1147 m 11 X s 1132 1168 m 47 Y s 1127 1215 m 11 X s 1132 1145 m -46 Y s 1127 1099 m 11 X s 1274 1143 m 47 Y s 1268 1190 m 11 X s 1274 1121 m -47 Y s 1268 1074 m 11 X s 1 0 0 c 9 lw 0.95 0.95 0.95 c black 1
 0 0 c 993 1179 m 36 X 3 -1 d 13 X 3 -1 d 12 X 3 -1 d 6 X 3 -1 d 6 X 3 -1 d 6 X 3 -1 d 7 X 3 -1 d 3 X 3 -1 d 6 X 3 -1 d 3 X 3 -1 d 3 X 3 -1 d 3 X 3 -1 d 3 X 3 -1 d 4 X s 1143 1166 m 3 -1 d 3 -1 d 3 X 3 -1 d 3 X 3 -1 d 3 -1 d 3 X 3 -1 d 3 -1 d 3 X 3
 -1 d 3 -1 d 3 X 3 -1 d 4 -1 d 3 -1 d 3 X 3 -1 d 3 -1 d 3 -1 d 3 X 3 -1 d 3 -1 d 3 -1 d 3 -1 d 3 -1 d 3 -1 d 3 X 3 -1 d 3 -1 d 3 -1 d 4 -1 d 3 -1 d 3 -1 d 3 -1 d 3 -1 d 3 -1 d 3 -1 d 3 -1 d 3 -1 d 3 -1 d 3 -1 d 3 -1 d 3 -1 d 3 -1 d 3 -1 d 3 -1 d 4 -1
 d s 1293 1125 m 3 -2 d s 0.49 0.6 0.82 c black 0.49 0.6 0.82 c
 gsave  408 305 930 1009 C 1051.24 1293.4 t 0 r /Helvetica-Bold findfont 25.6831 sf 0 0 m (1.0 < E < 1.5 GeV) show NC gr  0.52 0.76 0.64 c black 0.52 0.76 0.64 c
 gsave  408 305 930 1009 C 1031.3 1256.36 t 0 r /Helvetica-Bold findfont 25.6831 sf 0 0 m 
 228 214 200 193 178 171 156 149 133 126 119 105 91 77 69 55 47 39 25 17
(A = \2550.000, p = 2.000) K NC gr  1 0.6 1 c black 1 0.6 1 c
 gsave  408 305 930 1009 C 1336.13 1122.46 t 90 r /Helvetica-Bold findfont 28.5368 sf 0 0 m (/dof=0.1) show NC gr  black 1 0.6 1 c
 gsave  408 305 930 1009 C 1324.73 1111.07 t 90 r /Helvetica-Bold findfont 19.9758 sf 0 0 m (2) show NC gr  black 1 0.6 1 c
 gsave  408 305 930 1009 C 1336.13 1093.97 t 90 r /Symbol findfont 28.5368 sf 0 0 m (c) show NC gr  black 3 lw 1 1 1 c 408 305 1383 1009 bf black 1 1 1 c black 306 229 1445 1055 bl 306 229 1445 1055 bl 1445 1055 m 306 X s 1445 1059 m -4 Y s 1586 1059
 m -4 Y s 1727 1059 m -4 Y s 1727 1059 m -4 Y s
 gsave  408 305 1383 1009 C 1435.84 1034.15 t 0 r /Helvetica findfont 22.8295 sf 0 0 m (0) show NC gr 
 gsave  408 305 1383 1009 C 1578.29 1034.15 t 0 r /Helvetica findfont 22.8295 sf 0 0 m (1) show NC gr 
 gsave  408 305 1383 1009 C 1717.88 1034.15 t 0 r /Helvetica findfont 22.8295 sf 0 0 m (2) show NC gr  1445 1284 m 306 X s 1445 1280 m 4 Y s 1586 1280 m 4 Y s 1727 1280 m 4 Y s 1727 1280 m 4 Y s 1445 1055 m 229 Y s 1450 1094 m -5 X s 1447 1104 m -2 X
 s 1447 1115 m -2 X s 1447 1125 m -2 X s 1450 1136 m -5 X s 1447 1146 m -2 X s 1447 1157 m -2 X s 1447 1167 m -2 X s 1450 1177 m -5 X s 1447 1188 m -2 X s 1447 1198 m -2 X s 1447 1209 m -2 X s 1450 1219 m -5 X s 1447 1230 m -2 X s 1447 1240 m -2 X s
 1447 1251 m -2 X s 1450 1261 m -5 X s 1450 1094 m -5 X s 1447 1083 m -2 X s 1447 1073 m -2 X s 1447 1063 m -2 X s 1450 1261 m -5 X s 1447 1271 m -2 X s 1447 1282 m -2 X s
 gsave  408 305 1383 1009 C 1376.01 1085.43 t 0 r /Helvetica findfont 22.8295 sf 0 0 m (\2550.002) show NC gr 
 gsave  408 305 1383 1009 C 1427.29 1128.16 t 0 r /Helvetica findfont 22.8295 sf 0 0 m (0) show NC gr 
 gsave  408 305 1383 1009 C 1384.56 1170.89 t 0 r /Helvetica findfont 22.8295 sf 0 0 m (0.002) show NC gr 
 gsave  408 305 1383 1009 C 1384.56 1210.78 t 0 r /Helvetica findfont 22.8295 sf 0 0 m (0.004) show NC gr 
 gsave  408 305 1383 1009 C 1384.56 1253.51 t 0 r /Helvetica findfont 22.8295 sf 0 0 m (0.006) show NC gr  1751 1055 m 229 Y s 1745 1094 m 6 X s 1748 1104 m 3 X s 1748 1115 m 3 X s 1748 1125 m 3 X s 1745 1136 m 6 X s 1748 1146 m 3 X s 1748 1157 m 3 X
 s 1748 1167 m 3 X s 1745 1177 m 6 X s 1748 1188 m 3 X s 1748 1198 m 3 X s 1748 1209 m 3 X s 1745 1219 m 6 X s 1748 1230 m 3 X s 1748 1240 m 3 X s 1748 1251 m 3 X s 1745 1261 m 6 X s 1745 1094 m 6 X s 1748 1083 m 3 X s 1748 1073 m 3 X s 1748 1063 m 3
 X s 1745 1261 m 6 X s 1748 1271 m 3 X s 1748 1282 m 3 X s 1515 1140 1586 1218 1727 1120 3 { m21} R 1515 1151 m 36 Y s 1510 1187 m 11 X s 1515 1129 m -36 Y s 1510 1093 m 11 X s 1586 1229 m 36 Y s 1580 1265 m 12 X s 1586 1206 m -35 Y s 1580 1171 m 12
 X s 1727 1132 m 35 Y s 1722 1167 m 11 X s 1727 1109 m -35 Y s 1722 1074 m 11 X s 9 lw 0.95 0.95 0.95 c black 1446 1136 m 9 X 3 1 d 9 X 4 1 d 12 X 3 1 d 12 X 3 1 d 9 X 3 1 d 13 X 3 1 d 9 X 3 1 d 12 X 3 1 d 13 X 3 1 d 9 X 3 1 d 12 X s 1596 1146 m 3 1
 d 9 X 3 1 d 13 X 3 1 d 12 X 3 1 d 9 X 3 1 d 12 X 4 1 d 9 X 3 1 d 12 X 3 1 d 9 X 3 1 d 13 X 3 1 d 12 X 3 1 d 6 X s 1746 1157 m 3 X s 0.49 0.6 0.82 c black 0.49 0.6 0.82 c
 gsave  408 305 1383 1009 C 1504.21 1293.4 t 0 r /Helvetica-Bold findfont 25.6831 sf 0 0 m (1.5 < E < 2.0 GeV) show NC gr  0.52 0.76 0.64 c black 0.52 0.76 0.64 c
 gsave  408 305 1383 1009 C 1489.97 1256.36 t 0 r /Helvetica-Bold findfont 25.6831 sf 0 0 m 
 220 206 192 185 170 163 148 141 126 118 111 97 83 69 61 47 40 25 18
(A = 0.000, p = 1.000) K NC gr  1 0.6 1 c black 1 0.6 1 c
 gsave  408 305 1383 1009 C 1789.1 1122.46 t 90 r /Helvetica-Bold findfont 28.5368 sf 0 0 m (/dof=1.5) show NC gr  black 1 0.6 1 c
 gsave  408 305 1383 1009 C 1777.71 1111.07 t 90 r /Helvetica-Bold findfont 19.9758 sf 0 0 m (2) show NC gr  black 1 0.6 1 c
 gsave  408 305 1383 1009 C 1789.1 1093.97 t 90 r /Symbol findfont 28.5368 sf 0 0 m (c) show NC gr  black 3 lw 1 1 1 c 408 305 1837 1009 bf black 1 1 1 c black 306 229 1898 1055 bl 306 229 1898 1055 bl 1898 1055 m 306 X s 1898 1059 m -4 Y s 2039 1059
 m -4 Y s 2181 1059 m -4 Y s 2181 1059 m -4 Y s
 gsave  408 305 1837 1009 C 1888.81 1034.15 t 0 r /Helvetica findfont 22.8295 sf 0 0 m (0) show NC gr 
 gsave  408 305 1837 1009 C 2031.26 1034.15 t 0 r /Helvetica findfont 22.8295 sf 0 0 m (1) show NC gr 
 gsave  408 305 1837 1009 C 2170.85 1034.15 t 0 r /Helvetica findfont 22.8295 sf 0 0 m (2) show NC gr  1898 1284 m 306 X s 1898 1280 m 4 Y s 2039 1280 m 4 Y s 2181 1280 m 4 Y s 2181 1280 m 4 Y s 1898 1055 m 229 Y s 1904 1093 m -6 X s 1901 1103 m -3 X
 s 1901 1113 m -3 X s 1901 1123 m -3 X s 1904 1133 m -6 X s 1901 1143 m -3 X s 1901 1152 m -3 X s 1901 1162 m -3 X s 1904 1172 m -6 X s 1901 1182 m -3 X s 1901 1192 m -3 X s 1901 1201 m -3 X s 1904 1211 m -6 X s 1901 1221 m -3 X s 1901 1231 m -3 X s
 1901 1241 m -3 X s 1904 1251 m -6 X s 1904 1093 m -6 X s 1901 1084 m -3 X s 1901 1074 m -3 X s 1901 1064 m -3 X s 1904 1251 m -6 X s 1901 1260 m -3 X s 1901 1270 m -3 X s 1901 1280 m -3 X s
 gsave  408 305 1837 1009 C 1828.99 1085.43 t 0 r /Helvetica findfont 22.8295 sf 0 0 m (\2550.002) show NC gr 
 gsave  408 305 1837 1009 C 1880.27 1125.31 t 0 r /Helvetica findfont 22.8295 sf 0 0 m (0) show NC gr 
 gsave  408 305 1837 1009 C 1837.53 1165.2 t 0 r /Helvetica findfont 22.8295 sf 0 0 m (0.002) show NC gr 
 gsave  408 305 1837 1009 C 1837.53 1205.08 t 0 r /Helvetica findfont 22.8295 sf 0 0 m (0.004) show NC gr 
 gsave  408 305 1837 1009 C 1837.53 1242.12 t 0 r /Helvetica findfont 22.8295 sf 0 0 m (0.006) show NC gr  2204 1055 m 229 Y s 2199 1093 m 5 X s 2201 1103 m 3 X s 2201 1113 m 3 X s 2201 1123 m 3 X s 2199 1133 m 5 X s 2201 1143 m 3 X s 2201 1152 m 3 X
 s 2201 1162 m 3 X s 2199 1172 m 5 X s 2201 1182 m 3 X s 2201 1192 m 3 X s 2201 1201 m 3 X s 2199 1211 m 5 X s 2201 1221 m 3 X s 2201 1231 m 3 X s 2201 1241 m 3 X s 2199 1251 m 5 X s 2199 1093 m 5 X s 2201 1084 m 3 X s 2201 1074 m 3 X s 2201 1064 m 3
 X s 2199 1251 m 5 X s 2201 1260 m 3 X s 2201 1270 m 3 X s 2201 1280 m 3 X s 1969 1121 2039 1201 2181 1217 3 { m21} R 1969 1133 m 36 Y s 1963 1169 m 11 X s 1969 1110 m -36 Y s 1963 1074 m 11 X s 2039 1212 m 36 Y s 2034 1248 m 11 X s 2039 1189 m -36 Y
 s 2034 1153 m 11 X s 2181 1228 m 37 Y s 2175 1265 m 12 X s 2181 1205 m -36 Y s 2175 1169 m 12 X s 9 lw 0.95 0.95 0.95 c black 1900 1133 m 3 1 d 3 1 d 3 1 d 3 1 d 3 1 d 3 1 d 3 1 d 3 1 d 3 1 d 3 1 d 3 1 d 3 1 d 3 1 d 3 1 d 4 X 3 1 d 3 1 d 3 1 d 3 1 d
 3 1 d 3 1 d 3 1 d 3 1 d 3 1 d 3 1 d 3 1 d 3 1 d 3 1 d 3 1 d 3 1 d 4 1 d 3 1 d 3 1 d 3 1 d 3 X 3 1 d 3 1 d 3 1 d 3 1 d 3 1 d 3 1 d 3 1 d 3 1 d 3 1 d 3 1 d 3 1 d 3 1 d 4 1 d 3 1 d s 2050 1180 m 3 1 d 3 1 d 3 1 d 3 1 d 3 1 d 3 X 3 1 d 3 1 d 3 1 d 3 1 d
 3 1 d 3 1 d 3 1 d 3 1 d 4 1 d 3 1 d 3 1 d 3 1 d 3 1 d 3 1 d 3 1 d 3 1 d 3 1 d 3 1 d 3 1 d 3 1 d 3 X 3 1 d 3 1 d 3 1 d 4 1 d 3 1 d 3 1 d 3 1 d 3 1 d 3 1 d 3 1 d 3 1 d 3 1 d 3 1 d 3 1 d 3 1 d 3 1 d 3 1 d 3 1 d 3 1 d 4 X 3 1 d 3 1 d s 2200 1226 m 3 1 d
 s 0.49 0.6 0.82 c black 0.49 0.6 0.82 c
 gsave  408 305 1837 1009 C 1957.19 1293.4 t 0 r /Helvetica-Bold findfont 25.6831 sf 0 0 m (2.0 < E < 2.5 GeV) show NC gr  0.52 0.76 0.64 c black 0.52 0.76 0.64 c
 gsave  408 305 1837 1009 C 1942.94 1256.36 t 0 r /Helvetica-Bold findfont 25.6831 sf 0 0 m 
 220 206 192 185 170 163 148 141 125 118 111 97 83 69 61 47 40 25 18
(A = 0.002, p = 1.000) K NC gr  1 0.6 1 c black 1 0.6 1 c
 gsave  408 305 1837 1009 C 2242.08 1122.46 t 90 r /Helvetica-Bold findfont 28.5368 sf 0 0 m (/dof=0.4) show NC gr  black 1 0.6 1 c
 gsave  408 305 1837 1009 C 2230.68 1111.07 t 90 r /Helvetica-Bold findfont 19.9758 sf 0 0 m (2) show NC gr  black 1 0.6 1 c
 gsave  408 305 1837 1009 C 2242.08 1093.97 t 90 r /Symbol findfont 28.5368 sf 0 0 m (c) show NC gr  black 3 lw 1 1 1 c 408 305 23 677 bf black 1 1 1 c black 306 229 84 723 bl 306 229 84 723 bl 84 723 m 306 X s 84 727 m -4 Y s 225 727 m -4 Y s 367
 727 m -4 Y s 367 727 m -4 Y s
 gsave  408 305 23 677 C 74.0711 703.676 t 0 r /Helvetica findfont 22.8295 sf 0 0 m (0) show NC gr 
 gsave  408 305 23 677 C 219.365 703.676 t 0 r /Helvetica findfont 22.8295 sf 0 0 m (1) show NC gr 
 gsave  408 305 23 677 C 356.111 703.676 t 0 r /Helvetica findfont 22.8295 sf 0 0 m (2) show NC gr  84 952 m 306 X s 84 948 m 4 Y s 225 948 m 4 Y s 367 948 m 4 Y s 367 948 m 4 Y s 84 723 m 229 Y s 89 743 m -5 X s 87 751 m -3 X s 87 758 m -3 X s 87
 766 m -3 X s 89 773 m -5 X s 87 781 m -3 X s 87 788 m -3 X s 87 795 m -3 X s 89 803 m -5 X s 87 810 m -3 X s 87 818 m -3 X s 87 825 m -3 X s 89 833 m -5 X s 87 840 m -3 X s 87 847 m -3 X s 87 855 m -3 X s 89 862 m -5 X s 87 870 m -3 X s 87 877 m -3
 X s 87 885 m -3 X s 89 892 m -5 X s 87 900 m -3 X s 87 907 m -3 X s 87 914 m -3 X s 89 922 m -5 X s 87 929 m -3 X s 87 937 m -3 X s 87 944 m -3 X s 89 952 m -5 X s 89 743 m -5 X s 87 736 m -3 X s 87 729 m -3 X s 89 952 m -5 X s
 gsave  408 305 23 677 C 14.2445 735.014 t 0 r /Helvetica findfont 22.8295 sf 0 0 m (\2550.008) show NC gr 
 gsave  408 305 23 677 C 14.2445 766.351 t 0 r /Helvetica findfont 22.8295 sf 0 0 m (\2550.006) show NC gr 
 gsave  408 305 23 677 C 14.2445 794.84 t 0 r /Helvetica findfont 22.8295 sf 0 0 m (\2550.004) show NC gr 
 gsave  408 305 23 677 C 14.2445 826.178 t 0 r /Helvetica findfont 22.8295 sf 0 0 m (\2550.002) show NC gr 
 gsave  408 305 23 677 C 65.5245 854.667 t 0 r /Helvetica findfont 22.8295 sf 0 0 m (0) show NC gr 
 gsave  408 305 23 677 C 22.7911 886.005 t 0 r /Helvetica findfont 22.8295 sf 0 0 m (0.002) show NC gr 
 gsave  408 305 23 677 C 22.7911 914.494 t 0 r /Helvetica findfont 22.8295 sf 0 0 m (0.004) show NC gr 
 gsave  408 305 23 677 C 22.7911 942.983 t 0 r /Helvetica findfont 22.8295 sf 0 0 m (0.006) show NC gr  390 723 m 229 Y s 385 743 m 5 X s 387 751 m 3 X s 387 758 m 3 X s 387 766 m 3 X s 385 773 m 5 X s 387 781 m 3 X s 387 788 m 3 X s 387 795 m 3 X s
 385 803 m 5 X s 387 810 m 3 X s 387 818 m 3 X s 387 825 m 3 X s 385 833 m 5 X s 387 840 m 3 X s 387 847 m 3 X s 387 855 m 3 X s 385 862 m 5 X s 387 870 m 3 X s 387 877 m 3 X s 387 885 m 3 X s 385 892 m 5 X s 387 900 m 3 X s 387 907 m 3 X s 387 914 m
 3 X s 385 922 m 5 X s 387 929 m 3 X s 387 937 m 3 X s 387 944 m 3 X s 385 952 m 5 X s 385 743 m 5 X s 387 736 m 3 X s 387 729 m 3 X s 385 952 m 5 X s /w 22 def /w2 {w 2 div} def /w3 {w 3 div} def 155 782 225 893 367 861 3 { m21} R 155 793 m 29 Y s
 149 822 m 11 X s 155 770 m -28 Y s 149 742 m 11 X s 225 904 m 29 Y s 220 933 m 11 X s 225 881 m -28 Y s 220 853 m 11 X s 367 873 m 28 Y s 361 901 m 11 X s 367 850 m -29 Y s 361 821 m 11 X s 9 lw 0.95 0.95 0.95 c black 85 862 m 46 X 3 -1 d 56 X 3 -1
 d 42 X s 235 860 m 13 X 3 -1 d 55 X 3 -1 d 55 X 3 -1 d 18 X s 385 857 m 4 X s 0.49 0.6 0.82 c black 0.49 0.6 0.82 c
 gsave  408 305 23 677 C 142.445 960.076 t 0 r /Helvetica-Bold findfont 25.6831 sf 0 0 m (2.5 < E < 3.0 GeV) show NC gr  0.52 0.76 0.64 c black 0.52 0.76 0.64 c
 gsave  408 305 23 677 C 122.502 923.04 t 0 r /Helvetica-Bold findfont 25.6831 sf 0 0 m 
 228 214 200 193 178 171 156 149 134 126 119 105 91 77 69 55 47 39 25 17
(A = \2550.000, p = 1.000) K NC gr  1 0.6 1 c black 1 0.6 1 c
 gsave  408 305 23 677 C 427.334 791.991 t 90 r /Helvetica-Bold findfont 28.5368 sf 0 0 m (/dof=2.3) show NC gr  black 1 0.6 1 c
 gsave  408 305 23 677 C 415.938 780.596 t 90 r /Helvetica-Bold findfont 19.9758 sf 0 0 m (2) show NC gr  black 1 0.6 1 c
 gsave  408 305 23 677 C 427.334 763.503 t 90 r /Symbol findfont 28.5368 sf 0 0 m (c) show NC gr  black 3 lw 1 1 1 c 408 305 476 677 bf black 1 1 1 c black 307 229 537 723 bl 307 229 537 723 bl 537 723 m 307 X s 537 727 m -4 Y s 679 727 m -4 Y s 820
 727 m -4 Y s 820 727 m -4 Y s
 gsave  408 305 476 677 C 527.045 703.676 t 0 r /Helvetica findfont 22.8295 sf 0 0 m (0) show NC gr 
 gsave  408 305 476 677 C 672.338 703.676 t 0 r /Helvetica findfont 22.8295 sf 0 0 m (1) show NC gr 
 gsave  408 305 476 677 C 809.085 703.676 t 0 r /Helvetica findfont 22.8295 sf 0 0 m (2) show NC gr  537 952 m 307 X s 537 948 m 4 Y s 679 948 m 4 Y s 820 948 m 4 Y s 820 948 m 4 Y s 537 723 m 229 Y s 543 746 m -6 X s 540 752 m -3 X s 540 759 m -3 X
 s 540 766 m -3 X s 543 772 m -6 X s 540 779 m -3 X s 540 786 m -3 X s 540 793 m -3 X s 543 799 m -6 X s 540 806 m -3 X s 540 813 m -3 X s 540 819 m -3 X s 543 826 m -6 X s 540 833 m -3 X s 540 839 m -3 X s 540 846 m -3 X s 543 853 m -6 X s 540 859 m
 -3 X s 540 866 m -3 X s 540 873 m -3 X s 543 880 m -6 X s 540 886 m -3 X s 540 893 m -3 X s 540 900 m -3 X s 543 906 m -6 X s 540 913 m -3 X s 540 920 m -3 X s 540 926 m -3 X s 543 933 m -6 X s 543 746 m -6 X s 540 739 m -3 X s 540 732 m -3 X s 540
 726 m -3 X s 543 933 m -6 X s 540 940 m -3 X s 540 947 m -3 X s
 gsave  408 305 476 677 C 467.218 737.863 t 0 r /Helvetica findfont 22.8295 sf 0 0 m (\2550.008) show NC gr 
 gsave  408 305 476 677 C 467.218 766.351 t 0 r /Helvetica findfont 22.8295 sf 0 0 m (\2550.006) show NC gr 
 gsave  408 305 476 677 C 467.218 791.991 t 0 r /Helvetica findfont 22.8295 sf 0 0 m (\2550.004) show NC gr 
 gsave  408 305 476 677 C 467.218 817.631 t 0 r /Helvetica findfont 22.8295 sf 0 0 m (\2550.002) show NC gr 
 gsave  408 305 476 677 C 518.498 846.12 t 0 r /Helvetica findfont 22.8295 sf 0 0 m (0) show NC gr 
 gsave  408 305 476 677 C 475.765 871.76 t 0 r /Helvetica findfont 22.8295 sf 0 0 m (0.002) show NC gr 
 gsave  408 305 476 677 C 475.765 900.249 t 0 r /Helvetica findfont 22.8295 sf 0 0 m (0.004) show NC gr 
 gsave  408 305 476 677 C 475.765 925.889 t 0 r /Helvetica findfont 22.8295 sf 0 0 m (0.006) show NC gr  844 723 m 229 Y s 838 746 m 6 X s 841 752 m 3 X s 841 759 m 3 X s 841 766 m 3 X s 838 772 m 6 X s 841 779 m 3 X s 841 786 m 3 X s 841 793 m 3 X s
 838 799 m 6 X s 841 806 m 3 X s 841 813 m 3 X s 841 819 m 3 X s 838 826 m 6 X s 841 833 m 3 X s 841 839 m 3 X s 841 846 m 3 X s 838 853 m 6 X s 841 859 m 3 X s 841 866 m 3 X s 841 873 m 3 X s 838 880 m 6 X s 841 886 m 3 X s 841 893 m 3 X s 841 900 m
 3 X s 838 906 m 6 X s 841 913 m 3 X s 841 920 m 3 X s 841 926 m 3 X s 838 933 m 6 X s 838 746 m 6 X s 841 739 m 3 X s 841 732 m 3 X s 841 726 m 3 X s 838 933 m 6 X s 841 940 m 3 X s 841 947 m 3 X s /w 23 def /w2 {w 2 div} def /w3 {w 3 div} def 608
 850 679 890 820 784 3 { m21} R 608 861 m 31 Y s 602 892 m 12 X s 608 838 m -31 Y s 602 807 m 12 X s 679 902 m 31 Y s 673 933 m 12 X s 679 879 m -31 Y s 673 848 m 12 X s 820 795 m 30 Y s 815 825 m 11 X s 820 772 m -30 Y s 815 742 m 11 X s 1 0 0 c 9
 lw 0.95 0.95 0.95 c black 1 0 0 c 539 853 m 18 X 3 -1 d 19 X 3 -1 d 12 X 3 -1 d 6 X 3 -1 d 6 X 4 -1 d 6 X 3 -1 d 6 X 3 -1 d 3 X 3 -1 d 3 X 3 -1 d 3 X 3 -1 d 3 X 3 -1 d 3 X 3 -1 d 4 X 3 -1 d 3 X 3 -1 d 3 -1 d 3 X 3 -1 d 3 X s 689 837 m 3 -1 d 3 -1 d
 3 X 3 -1 d 3 -1 d 3 -1 d 3 X 3 -1 d 4 -1 d 3 -1 d 3 X 3 -1 d 3 -1 d 3 -1 d 3 -1 d 3 -1 d 3 -1 d 3 X 3 -1 d 3 -1 d 3 -1 d 3 -1 d 3 -1 d 3 -1 d 4 -1 d 3 -1 d 3 -1 d 3 -1 d 3 -1 d 3 -1 d 3 -1 d 3 -1 d 3 -1 d 3 -1 d 3 -2 d 3 -1 d 3 -1 d 3 -1 d 3 -1 d 3
 -1 d 4 -2 d 3 -1 d 3 -1 d 3 -1 d 3 -1 d 3 -2 d 3 -1 d 3 -1 d 3 -2 d s 839 788 m 3 -1 d s 0.49 0.6 0.82 c black 0.49 0.6 0.82 c
 gsave  408 305 476 677 C 595.418 960.076 t 0 r /Helvetica-Bold findfont 25.6831 sf 0 0 m (3.0 < E < 3.5 GeV) show NC gr  0.52 0.76 0.64 c black 0.52 0.76 0.64 c
 gsave  408 305 476 677 C 575.476 923.04 t 0 r /Helvetica-Bold findfont 25.6831 sf 0 0 m 
 228 214 200 193 178 171 156 149 133 126 119 105 91 76 69 55 47 39 25 17
(A = \2550.001, p = 2.000) K NC gr  1 0.6 1 c black 1 0.6 1 c
 gsave  408 305 476 677 C 883.156 791.991 t 90 r /Helvetica-Bold findfont 28.5368 sf 0 0 m (/dof=0.8) show NC gr  black 1 0.6 1 c
 gsave  408 305 476 677 C 871.76 780.596 t 90 r /Helvetica-Bold findfont 19.9758 sf 0 0 m (2) show NC gr  black 1 0.6 1 c
 gsave  408 305 476 677 C 883.156 763.503 t 90 r /Symbol findfont 28.5368 sf 0 0 m (c) show NC gr  black 3 lw 1 1 1 c 408 305 930 677 bf black 1 1 1 c black 306 229 991 723 bl 306 229 991 723 bl 991 723 m 306 X s 991 727 m -4 Y s 1132 727 m -4 Y s
 1274 727 m -4 Y s 1274 727 m -4 Y s
 gsave  408 305 930 677 C 980.018 703.676 t 0 r /Helvetica findfont 22.8295 sf 0 0 m (0) show NC gr 
 gsave  408 305 930 677 C 1125.31 703.676 t 0 r /Helvetica findfont 22.8295 sf 0 0 m (1) show NC gr 
 gsave  408 305 930 677 C 1264.91 703.676 t 0 r /Helvetica findfont 22.8295 sf 0 0 m (2) show NC gr  991 952 m 306 X s 991 948 m 4 Y s 1132 948 m 4 Y s 1274 948 m 4 Y s 1274 948 m 4 Y s 991 723 m 229 Y s 997 742 m -6 X s 994 749 m -3 X s 994 757 m -3
 X s 994 764 m -3 X s 997 771 m -6 X s 994 779 m -3 X s 994 786 m -3 X s 994 793 m -3 X s 997 801 m -6 X s 994 808 m -3 X s 994 815 m -3 X s 994 823 m -3 X s 997 830 m -6 X s 994 837 m -3 X s 994 845 m -3 X s 994 852 m -3 X s 997 859 m -6 X s 994 867
 m -3 X s 994 874 m -3 X s 994 882 m -3 X s 997 889 m -6 X s 994 896 m -3 X s 994 904 m -3 X s 994 911 m -3 X s 997 918 m -6 X s 994 926 m -3 X s 994 933 m -3 X s 994 940 m -3 X s 997 948 m -6 X s 997 742 m -6 X s 994 735 m -3 X s 994 727 m -3 X s
 997 948 m -6 X s
 gsave  408 305 930 677 C 923.04 735.014 t 0 r /Helvetica findfont 22.8295 sf 0 0 m (\2550.006) show NC gr 
 gsave  408 305 930 677 C 923.04 763.503 t 0 r /Helvetica findfont 22.8295 sf 0 0 m (\2550.004) show NC gr 
 gsave  408 305 930 677 C 923.04 794.84 t 0 r /Helvetica findfont 22.8295 sf 0 0 m (\2550.002) show NC gr 
 gsave  408 305 930 677 C 974.32 823.329 t 0 r /Helvetica findfont 22.8295 sf 0 0 m (0) show NC gr 
 gsave  408 305 930 677 C 931.587 851.818 t 0 r /Helvetica findfont 22.8295 sf 0 0 m (0.002) show NC gr 
 gsave  408 305 930 677 C 931.587 883.156 t 0 r /Helvetica findfont 22.8295 sf 0 0 m (0.004) show NC gr 
 gsave  408 305 930 677 C 931.587 911.645 t 0 r /Helvetica findfont 22.8295 sf 0 0 m (0.006) show NC gr 
 gsave  408 305 930 677 C 931.587 940.134 t 0 r /Helvetica findfont 22.8295 sf 0 0 m (0.008) show NC gr  1297 723 m 229 Y s 1292 742 m 5 X s 1294 749 m 3 X s 1294 757 m 3 X s 1294 764 m 3 X s 1292 771 m 5 X s 1294 779 m 3 X s 1294 786 m 3 X s 1294
 793 m 3 X s 1292 801 m 5 X s 1294 808 m 3 X s 1294 815 m 3 X s 1294 823 m 3 X s 1292 830 m 5 X s 1294 837 m 3 X s 1294 845 m 3 X s 1294 852 m 3 X s 1292 859 m 5 X s 1294 867 m 3 X s 1294 874 m 3 X s 1294 882 m 3 X s 1292 889 m 5 X s 1294 896 m 3 X s
 1294 904 m 3 X s 1294 911 m 3 X s 1292 918 m 5 X s 1294 926 m 3 X s 1294 933 m 3 X s 1294 940 m 3 X s 1292 948 m 5 X s 1292 742 m 5 X s 1294 735 m 3 X s 1294 727 m 3 X s 1292 948 m 5 X s 1062 867 1132 875 1274 800 3 { m21} R 1062 879 m 47 Y s 1056
 926 m 11 X s 1062 856 m -47 Y s 1056 809 m 11 X s 1132 886 m 47 Y s 1127 933 m 11 X s 1132 863 m -46 Y s 1127 817 m 11 X s 1274 811 m 47 Y s 1268 858 m 11 X s 1274 789 m -47 Y s 1268 742 m 11 X s 1 0 0 c 9 lw 0.95 0.95 0.95 c black 1 0 0 c 993 830 m
 52 X 3 -1 d 30 X 3 -1 d 25 X 3 -1 d 15 X 3 -1 d 16 X s 1143 826 m 3 -1 d 12 X 3 -1 d 12 X 3 -1 d 9 X 3 -1 d 10 X 3 -1 d 9 X 3 -1 d 9 X 3 -1 d 6 X 3 -1 d 10 X 3 -1 d 6 X 3 -1 d 6 X 3 -1 d 6 X 3 -1 d 6 X 3 -1 d 6 X 4 -1 d s 1293 812 m 3 X s 0.49 0.6
 0.82 c black 0.49 0.6 0.82 c
 gsave  408 305 930 677 C 1051.24 960.076 t 0 r /Helvetica-Bold findfont 25.6831 sf 0 0 m (3.5 < E < 4.0 GeV) show NC gr  0.52 0.76 0.64 c black 0.52 0.76 0.64 c
 gsave  408 305 930 677 C 1031.3 923.04 t 0 r /Helvetica-Bold findfont 25.6831 sf 0 0 m 
 228 214 200 193 178 171 156 149 133 126 119 105 91 77 69 55 47 39 25 17
(A = \2550.000, p = 2.000) K NC gr  1 0.6 1 c black 1 0.6 1 c
 gsave  408 305 930 677 C 1336.13 791.991 t 90 r /Helvetica-Bold findfont 28.5368 sf 0 0 m (/dof=0.6) show NC gr  black 1 0.6 1 c
 gsave  408 305 930 677 C 1324.73 780.596 t 90 r /Helvetica-Bold findfont 19.9758 sf 0 0 m (2) show NC gr  black 1 0.6 1 c
 gsave  408 305 930 677 C 1336.13 763.503 t 90 r /Symbol findfont 28.5368 sf 0 0 m (c) show NC gr  black 3 lw 1 1 1 c 408 305 1383 677 bf black 1 1 1 c black 306 229 1445 723 bl 306 229 1445 723 bl 1445 723 m 306 X s 1445 727 m -4 Y s 1586 727 m -4 Y
 s 1727 727 m -4 Y s 1727 727 m -4 Y s
 gsave  408 305 1383 677 C 1435.84 703.676 t 0 r /Helvetica findfont 22.8295 sf 0 0 m (0) show NC gr 
 gsave  408 305 1383 677 C 1578.29 703.676 t 0 r /Helvetica findfont 22.8295 sf 0 0 m (1) show NC gr 
 gsave  408 305 1383 677 C 1717.88 703.676 t 0 r /Helvetica findfont 22.8295 sf 0 0 m (2) show NC gr  1445 952 m 306 X s 1445 948 m 4 Y s 1586 948 m 4 Y s 1727 948 m 4 Y s 1727 948 m 4 Y s 1445 723 m 229 Y s 1450 755 m -5 X s 1447 763 m -2 X s 1447
 772 m -2 X s 1447 780 m -2 X s 1447 788 m -2 X s 1450 797 m -5 X s 1447 805 m -2 X s 1447 814 m -2 X s 1447 822 m -2 X s 1447 831 m -2 X s 1450 839 m -5 X s 1447 847 m -2 X s 1447 856 m -2 X s 1447 864 m -2 X s 1447 873 m -2 X s 1450 881 m -5 X s
 1447 890 m -2 X s 1447 898 m -2 X s 1447 907 m -2 X s 1447 915 m -2 X s 1450 923 m -5 X s 1450 755 m -5 X s 1447 746 m -2 X s 1447 738 m -2 X s 1447 729 m -2 X s 1450 923 m -5 X s 1447 932 m -2 X s 1447 940 m -2 X s 1447 949 m -2 X s
 gsave  408 305 1383 677 C 1393.11 746.409 t 0 r /Helvetica findfont 22.8295 sf 0 0 m (\2550.01) show NC gr 
 gsave  408 305 1383 677 C 1376.01 789.143 t 0 r /Helvetica findfont 22.8295 sf 0 0 m (\2550.005) show NC gr 
 gsave  408 305 1383 677 C 1427.29 831.876 t 0 r /Helvetica findfont 22.8295 sf 0 0 m (0) show NC gr 
 gsave  408 305 1383 677 C 1384.56 874.609 t 0 r /Helvetica findfont 22.8295 sf 0 0 m (0.005) show NC gr 
 gsave  408 305 1383 677 C 1398.81 917.343 t 0 r /Helvetica findfont 22.8295 sf 0 0 m (0.01) show NC gr  1751 723 m 229 Y s 1745 755 m 6 X s 1748 763 m 3 X s 1748 772 m 3 X s 1748 780 m 3 X s 1748 788 m 3 X s 1745 797 m 6 X s 1748 805 m 3 X s 1748
 814 m 3 X s 1748 822 m 3 X s 1748 831 m 3 X s 1745 839 m 6 X s 1748 847 m 3 X s 1748 856 m 3 X s 1748 864 m 3 X s 1748 873 m 3 X s 1745 881 m 6 X s 1748 890 m 3 X s 1748 898 m 3 X s 1748 907 m 3 X s 1748 915 m 3 X s 1745 923 m 6 X s 1745 755 m 6 X s
 1748 746 m 3 X s 1748 738 m 3 X s 1748 729 m 3 X s 1745 923 m 6 X s 1748 932 m 3 X s 1748 940 m 3 X s 1748 949 m 3 X s 1515 803 1586 887 1727 787 3 { m21} R 1515 815 m 34 Y s 1510 849 m 11 X s 1515 792 m -34 Y s 1510 758 m 11 X s 1586 899 m 34 Y s
 1580 933 m 12 X s 1586 876 m -34 Y s 1580 842 m 12 X s 1727 799 m 33 Y s 1722 832 m 11 X s 1727 776 m -34 Y s 1722 742 m 11 X s 1 0 0 c 9 lw 0.95 0.95 0.95 c black 1 0 0 c 1446 839 m 31 X 3 -1 d 18 X 3 -1 d 12 X 3 -1 d 13 X 3 -1 d 6 X 3 -1 d 9 X 3
 -1 d 6 X 3 -1 d 3 X 4 -1 d 6 X 3 -1 d 3 X 3 -1 d 6 X 3 -1 d 3 X s 1596 828 m 3 -1 d 3 X 3 -1 d 3 X 3 -1 d 3 X 4 -1 d 3 X 3 -1 d 3 X 3 -1 d 3 -1 d 3 X 3 -1 d 3 X 3 -1 d 3 -1 d 3 X 3 -1 d 3 X 3 -1 d 3 -1 d 3 X 4 -1 d 3 -1 d 3 X 3 -1 d 3 -1 d 3 -1 d 3
 X 3 -1 d 3 -1 d 3 -1 d 3 X 3 -1 d 3 -1 d 3 -1 d 3 -1 d 3 X 4 -1 d 3 -1 d 3 -1 d 3 -1 d 3 -1 d 3 -1 d 3 X 3 -1 d 3 -1 d 3 -1 d s 1746 794 m 3 -1 d s 0.49 0.6 0.82 c black 0.49 0.6 0.82 c
 gsave  408 305 1383 677 C 1504.21 960.076 t 0 r /Helvetica-Bold findfont 25.6831 sf 0 0 m (4.0 < E < 4.5 GeV) show NC gr  0.52 0.76 0.64 c black 0.52 0.76 0.64 c
 gsave  408 305 1383 677 C 1484.27 923.04 t 0 r /Helvetica-Bold findfont 25.6831 sf 0 0 m 
 228 214 200 193 178 171 156 149 134 126 119 105 91 77 69 55 47 40 25 17
(A = \2550.001, p = 2.000) K NC gr  1 0.6 1 c black 1 0.6 1 c
 gsave  408 305 1383 677 C 1789.1 791.991 t 90 r /Helvetica-Bold findfont 28.5368 sf 0 0 m (/dof=1.1) show NC gr  black 1 0.6 1 c
 gsave  408 305 1383 677 C 1777.71 780.596 t 90 r /Helvetica-Bold findfont 19.9758 sf 0 0 m (2) show NC gr  black 1 0.6 1 c
 gsave  408 305 1383 677 C 1789.1 763.503 t 90 r /Symbol findfont 28.5368 sf 0 0 m (c) show NC gr  black 3 lw 1 1 1 c 408 305 1837 677 bf black 1 1 1 c black 306 229 1898 723 bl 306 229 1898 723 bl 1898 723 m 306 X s 1898 727 m -4 Y s 2039 727 m -4 Y
 s 2181 727 m -4 Y s 2181 727 m -4 Y s
 gsave  408 305 1837 677 C 1888.81 703.676 t 0 r /Helvetica findfont 22.8295 sf 0 0 m (0) show NC gr 
 gsave  408 305 1837 677 C 2031.26 703.676 t 0 r /Helvetica findfont 22.8295 sf 0 0 m (1) show NC gr 
 gsave  408 305 1837 677 C 2170.85 703.676 t 0 r /Helvetica findfont 22.8295 sf 0 0 m (2) show NC gr  1898 952 m 306 X s 1898 948 m 4 Y s 2039 948 m 4 Y s 2181 948 m 4 Y s 2181 948 m 4 Y s 1898 723 m 229 Y s 1904 723 m -6 X s 1901 729 m -3 X s 1901
 735 m -3 X s 1901 741 m -3 X s 1904 747 m -6 X s 1901 753 m -3 X s 1901 759 m -3 X s 1901 765 m -3 X s 1904 771 m -6 X s 1901 777 m -3 X s 1901 783 m -3 X s 1901 789 m -3 X s 1904 796 m -6 X s 1901 802 m -3 X s 1901 808 m -3 X s 1901 814 m -3 X s
 1904 820 m -6 X s 1901 826 m -3 X s 1901 832 m -3 X s 1901 838 m -3 X s 1904 844 m -6 X s 1901 850 m -3 X s 1901 856 m -3 X s 1901 862 m -3 X s 1904 868 m -6 X s 1901 874 m -3 X s 1901 880 m -3 X s 1901 886 m -3 X s 1904 892 m -6 X s 1901 898 m -3 X
 s 1901 904 m -3 X s 1901 911 m -3 X s 1904 917 m -6 X s 1901 923 m -3 X s 1901 929 m -3 X s 1901 935 m -3 X s 1904 941 m -6 X s 1904 941 m -6 X s 1901 947 m -3 X s
 gsave  408 305 1837 677 C 1880.27 715.071 t 0 r /Helvetica findfont 22.8295 sf 0 0 m (0) show NC gr 
 gsave  408 305 1837 677 C 1837.53 740.711 t 0 r /Helvetica findfont 22.8295 sf 0 0 m (0.002) show NC gr 
 gsave  408 305 1837 677 C 1837.53 763.503 t 0 r /Helvetica findfont 22.8295 sf 0 0 m (0.004) show NC gr 
 gsave  408 305 1837 677 C 1837.53 789.143 t 0 r /Helvetica findfont 22.8295 sf 0 0 m (0.006) show NC gr 
 gsave  408 305 1837 677 C 1837.53 811.934 t 0 r /Helvetica findfont 22.8295 sf 0 0 m (0.008) show NC gr 
 gsave  408 305 1837 677 C 1851.78 837.574 t 0 r /Helvetica findfont 22.8295 sf 0 0 m (0.01) show NC gr 
 gsave  408 305 1837 677 C 1837.53 860.365 t 0 r /Helvetica findfont 22.8295 sf 0 0 m (0.012) show NC gr 
 gsave  408 305 1837 677 C 1837.53 886.005 t 0 r /Helvetica findfont 22.8295 sf 0 0 m (0.014) show NC gr 
 gsave  408 305 1837 677 C 1837.53 908.796 t 0 r /Helvetica findfont 22.8295 sf 0 0 m (0.016) show NC gr 
 gsave  408 305 1837 677 C 1837.53 934.436 t 0 r /Helvetica findfont 22.8295 sf 0 0 m (0.018) show NC gr  2204 723 m 229 Y s 2199 723 m 5 X s 2201 729 m 3 X s 2201 735 m 3 X s 2201 741 m 3 X s 2199 747 m 5 X s 2201 753 m 3 X s 2201 759 m 3 X s 2201
 765 m 3 X s 2199 771 m 5 X s 2201 777 m 3 X s 2201 783 m 3 X s 2201 789 m 3 X s 2199 796 m 5 X s 2201 802 m 3 X s 2201 808 m 3 X s 2201 814 m 3 X s 2199 820 m 5 X s 2201 826 m 3 X s 2201 832 m 3 X s 2201 838 m 3 X s 2199 844 m 5 X s 2201 850 m 3 X s
 2201 856 m 3 X s 2201 862 m 3 X s 2199 868 m 5 X s 2201 874 m 3 X s 2201 880 m 3 X s 2201 886 m 3 X s 2199 892 m 5 X s 2201 898 m 3 X s 2201 904 m 3 X s 2201 911 m 3 X s 2199 917 m 5 X s 2201 923 m 3 X s 2201 929 m 3 X s 2201 935 m 3 X s 2199 941 m
 5 X s 2199 941 m 5 X s 2201 947 m 3 X s 1969 828 2039 830 2181 842 3 { m21} R 1969 839 m 79 Y s 1963 918 m 11 X s 1969 816 m -79 Y s 1963 737 m 11 X s 2039 841 m 79 Y s 2034 920 m 11 X s 2039 818 m -79 Y s 2034 739 m 11 X s 2181 854 m 78 Y s 2175
 932 m 12 X s 2181 831 m -79 Y s 2175 752 m 12 X s 9 lw 0.95 0.95 0.95 c black 1900 724 m 3 1 d 3 2 d 3 2 d 3 1 d 3 2 d 3 2 d 3 1 d 3 2 d 3 1 d 3 2 d 3 2 d 3 1 d 3 2 d 3 2 d 4 1 d 3 2 d 3 2 d 3 1 d 3 2 d 3 1 d 3 2 d 3 2 d 3 1 d 3 2 d 3 2 d 3 1 d 3 2
 d 3 2 d 3 1 d 3 2 d 4 2 d 3 1 d 3 2 d 3 1 d 3 2 d 3 2 d 3 1 d 3 2 d 3 2 d 3 1 d 3 2 d 3 2 d 3 1 d 3 2 d 3 1 d 3 2 d 3 2 d 4 1 d 3 2 d s 2050 804 m 3 2 d 3 1 d 3 2 d 3 2 d 3 1 d 3 2 d 3 2 d 3 1 d 3 2 d 3 1 d 3 2 d 3 2 d 3 1 d 3 2 d 4 2 d 3 1 d 3 2 d
 3 2 d 3 1 d 3 2 d 3 1 d 3 2 d 3 2 d 3 1 d 3 2 d 3 2 d 3 1 d 3 2 d 3 2 d 3 1 d 4 2 d 3 2 d 3 1 d 3 2 d 3 1 d 3 2 d 3 2 d 3 1 d 3 2 d 3 2 d 3 1 d 3 2 d 3 2 d 3 1 d 3 2 d 3 2 d 4 1 d 3 2 d 3 1 d s 2200 884 m 3 2 d s 0.49 0.6 0.82 c black 0.49 0.6 0.82
 c
 gsave  408 305 1837 677 C 1957.19 960.076 t 0 r /Helvetica-Bold findfont 25.6831 sf 0 0 m (4.5 < E < 5.0 GeV) show NC gr  0.52 0.76 0.64 c black 0.52 0.76 0.64 c
 gsave  408 305 1837 677 C 1942.94 923.04 t 0 r /Helvetica-Bold findfont 25.6831 sf 0 0 m 
 220 206 192 185 170 163 148 141 125 118 111 97 83 69 61 47 40 25 18
(A = 0.006, p = 1.000) K NC gr  1 0.6 1 c black 1 0.6 1 c
 gsave  408 305 1837 677 C 2242.08 791.991 t 90 r /Helvetica-Bold findfont 28.5368 sf 0 0 m (/dof=0.4) show NC gr  black 1 0.6 1 c
 gsave  408 305 1837 677 C 2230.68 780.596 t 90 r /Helvetica-Bold findfont 19.9758 sf 0 0 m (2) show NC gr  black 1 0.6 1 c
 gsave  408 305 1837 677 C 2242.08 763.503 t 90 r /Symbol findfont 28.5368 sf 0 0 m (c) show NC gr  black 3 lw 1 1 1 c 408 306 23 345 bf black 1 1 1 c black 306 229 84 391 bl 306 229 84 391 bl 84 391 m 306 X s 84 395 m -4 Y s 225 395 m -4 Y s 367 395
 m -4 Y s 367 395 m -4 Y s
 gsave  408 306 23 345 C 74.0711 370.356 t 0 r /Helvetica findfont 22.8295 sf 0 0 m (0) show NC gr 
 gsave  408 306 23 345 C 219.365 370.356 t 0 r /Helvetica findfont 22.8295 sf 0 0 m (1) show NC gr 
 gsave  408 306 23 345 C 356.111 370.356 t 0 r /Helvetica findfont 22.8295 sf 0 0 m (2) show NC gr  84 620 m 306 X s 84 616 m 4 Y s 225 616 m 4 Y s 367 616 m 4 Y s 367 616 m 4 Y s 84 391 m 229 Y s 89 396 m -5 X s 87 401 m -3 X s 87 407 m -3 X s 87
 412 m -3 X s 87 417 m -3 X s 89 422 m -5 X s 87 427 m -3 X s 87 433 m -3 X s 87 438 m -3 X s 87 443 m -3 X s 89 448 m -5 X s 87 453 m -3 X s 87 458 m -3 X s 87 464 m -3 X s 87 469 m -3 X s 89 474 m -5 X s 87 479 m -3 X s 87 484 m -3 X s 87 490 m -3
 X s 87 495 m -3 X s 89 500 m -5 X s 87 505 m -3 X s 87 510 m -3 X s 87 515 m -3 X s 87 521 m -3 X s 89 526 m -5 X s 87 531 m -3 X s 87 536 m -3 X s 87 541 m -3 X s 87 547 m -3 X s 89 552 m -5 X s 87 557 m -3 X s 87 562 m -3 X s 87 567 m -3 X s 87
 572 m -3 X s 89 578 m -5 X s 87 583 m -3 X s 87 588 m -3 X s 87 593 m -3 X s 87 598 m -3 X s 89 604 m -5 X s 89 396 m -5 X s 87 391 m -3 X s 89 604 m -5 X s 87 609 m -3 X s 87 614 m -3 X s 87 619 m -3 X s
 gsave  408 306 23 345 C 31.3378 390.298 t 0 r /Helvetica findfont 22.8295 sf 0 0 m (\2550.01) show NC gr 
 gsave  408 306 23 345 C 14.2445 415.938 t 0 r /Helvetica findfont 22.8295 sf 0 0 m (\2550.005) show NC gr 
 gsave  408 306 23 345 C 65.5245 441.578 t 0 r /Helvetica findfont 22.8295 sf 0 0 m (0) show NC gr 
 gsave  408 306 23 345 C 22.7911 467.218 t 0 r /Helvetica findfont 22.8295 sf 0 0 m (0.005) show NC gr 
 gsave  408 306 23 345 C 37.0356 492.858 t 0 r /Helvetica findfont 22.8295 sf 0 0 m (0.01) show NC gr 
 gsave  408 306 23 345 C 22.7911 518.498 t 0 r /Helvetica findfont 22.8295 sf 0 0 m (0.015) show NC gr 
 gsave  408 306 23 345 C 34.1867 544.138 t 0 r /Helvetica findfont 22.8295 sf 0 0 m (0.02) show NC gr 
 gsave  408 306 23 345 C 22.7911 569.778 t 0 r /Helvetica findfont 22.8295 sf 0 0 m (0.025) show NC gr 
 gsave  408 306 23 345 C 34.1867 595.418 t 0 r /Helvetica findfont 22.8295 sf 0 0 m (0.03) show NC gr  390 391 m 229 Y s 385 396 m 5 X s 387 401 m 3 X s 387 407 m 3 X s 387 412 m 3 X s 387 417 m 3 X s 385 422 m 5 X s 387 427 m 3 X s 387 433 m 3 X s
 387 438 m 3 X s 387 443 m 3 X s 385 448 m 5 X s 387 453 m 3 X s 387 458 m 3 X s 387 464 m 3 X s 387 469 m 3 X s 385 474 m 5 X s 387 479 m 3 X s 387 484 m 3 X s 387 490 m 3 X s 387 495 m 3 X s 385 500 m 5 X s 387 505 m 3 X s 387 510 m 3 X s 387 515 m
 3 X s 387 521 m 3 X s 385 526 m 5 X s 387 531 m 3 X s 387 536 m 3 X s 387 541 m 3 X s 387 547 m 3 X s 385 552 m 5 X s 387 557 m 3 X s 387 562 m 3 X s 387 567 m 3 X s 387 572 m 3 X s 385 578 m 5 X s 387 583 m 3 X s 387 588 m 3 X s 387 593 m 3 X s 387
 598 m 3 X s 385 604 m 5 X s 385 396 m 5 X s 387 391 m 3 X s 385 604 m 5 X s 387 609 m 3 X s 387 614 m 3 X s 387 619 m 3 X s /w 22 def /w2 {w 2 div} def /w3 {w 3 div} def 155 504 225 549 367 461 3 { m21} R 155 516 m 40 Y s 149 556 m 11 X s 155 493 m
 -40 Y s 149 453 m 11 X s 225 561 m 40 Y s 220 601 m 11 X s 225 538 m -40 Y s 220 498 m 11 X s 367 472 m 40 Y s 361 512 m 11 X s 367 449 m -39 Y s 361 410 m 11 X s 9 lw 0.95 0.95 0.95 c black 85 448 m 3 1 d 4 1 d 3 X 3 1 d 3 1 d 3 X 3 1 d 3 X 3 1 d 3
 1 d 3 X 3 1 d 3 1 d 3 X 3 1 d 3 X 3 1 d 4 1 d 3 X 3 1 d 3 1 d 3 X 3 1 d 3 X 3 1 d 3 1 d 3 X 3 1 d 3 1 d 3 X 3 1 d 3 X 3 1 d 4 1 d 3 X 3 1 d 3 1 d 3 X 3 1 d 3 X 3 1 d 3 1 d 3 X 3 1 d 3 1 d 3 X 3 1 d 3 X 3 1 d s 235 479 m 4 1 d 3 X 3 1 d 3 1 d 3 X 3 1
 d 3 X 3 1 d 3 1 d 3 X 3 1 d 3 1 d 3 X 3 1 d 3 X 3 1 d 3 1 d 4 X 3 1 d 3 1 d 3 X 3 1 d 3 X 3 1 d 3 1 d 3 X 3 1 d 3 1 d 3 X 3 1 d 3 X 3 1 d 3 1 d 4 X 3 1 d 3 1 d 3 X 3 1 d 3 X 3 1 d 3 1 d 3 X 3 1 d 3 1 d 3 X 3 1 d 3 X 3 1 d 3 1 d s 385 510 m 4 X s
 0.49 0.6 0.82 c black 0.49 0.6 0.82 c
 gsave  408 306 23 345 C 142.445 629.605 t 0 r /Helvetica-Bold findfont 25.6831 sf 0 0 m (5.0 < E < 5.5 GeV) show NC gr  0.52 0.76 0.64 c black 0.52 0.76 0.64 c
 gsave  408 306 23 345 C 128.2 592.569 t 0 r /Helvetica-Bold findfont 25.6831 sf 0 0 m 
 220 206 192 185 170 163 148 141 126 118 111 97 83 69 61 47 40 25 18
(A = 0.006, p = 1.000) K NC gr  1 0.6 1 c black 1 0.6 1 c
 gsave  408 306 23 345 C 427.334 458.671 t 90 r /Helvetica-Bold findfont 28.5368 sf 0 0 m (/dof=1.7) show NC gr  black 1 0.6 1 c
 gsave  408 306 23 345 C 415.938 447.276 t 90 r /Helvetica-Bold findfont 19.9758 sf 0 0 m (2) show NC gr  black 1 0.6 1 c
 gsave  408 306 23 345 C 427.334 430.182 t 90 r /Symbol findfont 28.5368 sf 0 0 m (c) show NC gr  black 3 lw 1 1 1 c 408 306 476 345 bf black 1 1 1 c black 307 229 537 391 bl 307 229 537 391 bl 537 391 m 307 X s 537 395 m -4 Y s 679 395 m -4 Y s 820
 395 m -4 Y s 820 395 m -4 Y s
 gsave  408 306 476 345 C 527.045 370.356 t 0 r /Helvetica findfont 22.8295 sf 0 0 m (0) show NC gr 
 gsave  408 306 476 345 C 672.338 370.356 t 0 r /Helvetica findfont 22.8295 sf 0 0 m (1) show NC gr 
 gsave  408 306 476 345 C 809.085 370.356 t 0 r /Helvetica findfont 22.8295 sf 0 0 m (2) show NC gr  537 620 m 307 X s 537 616 m 4 Y s 679 616 m 4 Y s 820 616 m 4 Y s 820 616 m 4 Y s 537 391 m 229 Y s 543 392 m -6 X s 540 398 m -3 X s 540 404 m -3 X
 s 540 409 m -3 X s 540 415 m -3 X s 543 421 m -6 X s 540 427 m -3 X s 540 433 m -3 X s 540 439 m -3 X s 540 445 m -3 X s 543 451 m -6 X s 540 457 m -3 X s 540 462 m -3 X s 540 468 m -3 X s 540 474 m -3 X s 543 480 m -6 X s 540 486 m -3 X s 540 492 m
 -3 X s 540 498 m -3 X s 540 504 m -3 X s 543 510 m -6 X s 540 515 m -3 X s 540 521 m -3 X s 540 527 m -3 X s 540 533 m -3 X s 543 539 m -6 X s 540 545 m -3 X s 540 551 m -3 X s 540 557 m -3 X s 540 562 m -3 X s 543 568 m -6 X s 540 574 m -3 X s 540
 580 m -3 X s 540 586 m -3 X s 540 592 m -3 X s 543 598 m -6 X s 543 392 m -6 X s 543 598 m -6 X s 540 604 m -3 X s 540 610 m -3 X s 540 615 m -3 X s
 gsave  408 306 476 345 C 481.462 384.6 t 0 r /Helvetica findfont 22.8295 sf 0 0 m (\2550.02) show NC gr 
 gsave  408 306 476 345 C 467.218 413.089 t 0 r /Helvetica findfont 22.8295 sf 0 0 m (\2550.015) show NC gr 
 gsave  408 306 476 345 C 484.311 444.427 t 0 r /Helvetica findfont 22.8295 sf 0 0 m (\2550.01) show NC gr 
 gsave  408 306 476 345 C 467.218 472.916 t 0 r /Helvetica findfont 22.8295 sf 0 0 m (\2550.005) show NC gr 
 gsave  408 306 476 345 C 518.498 501.405 t 0 r /Helvetica findfont 22.8295 sf 0 0 m (0) show NC gr 
 gsave  408 306 476 345 C 475.765 532.742 t 0 r /Helvetica findfont 22.8295 sf 0 0 m (0.005) show NC gr 
 gsave  408 306 476 345 C 490.009 561.231 t 0 r /Helvetica findfont 22.8295 sf 0 0 m (0.01) show NC gr 
 gsave  408 306 476 345 C 475.765 589.72 t 0 r /Helvetica findfont 22.8295 sf 0 0 m (0.015) show NC gr  844 391 m 229 Y s 838 392 m 6 X s 841 398 m 3 X s 841 404 m 3 X s 841 409 m 3 X s 841 415 m 3 X s 838 421 m 6 X s 841 427 m 3 X s 841 433 m 3 X s
 841 439 m 3 X s 841 445 m 3 X s 838 451 m 6 X s 841 457 m 3 X s 841 462 m 3 X s 841 468 m 3 X s 841 474 m 3 X s 838 480 m 6 X s 841 486 m 3 X s 841 492 m 3 X s 841 498 m 3 X s 841 504 m 3 X s 838 510 m 6 X s 841 515 m 3 X s 841 521 m 3 X s 841 527 m
 3 X s 841 533 m 3 X s 838 539 m 6 X s 841 545 m 3 X s 841 551 m 3 X s 841 557 m 3 X s 841 562 m 3 X s 838 568 m 6 X s 841 574 m 3 X s 841 580 m 3 X s 841 586 m 3 X s 841 592 m 3 X s 838 598 m 6 X s 838 392 m 6 X s 838 598 m 6 X s 841 604 m 3 X s 841
 610 m 3 X s 841 615 m 3 X s /w 23 def /w2 {w 2 div} def /w3 {w 3 div} def 608 528 679 482 820 502 3 { m21} R 608 540 m 61 Y s 602 601 m 12 X s 608 517 m -61 Y s 602 456 m 12 X s 679 493 m 61 Y s 673 554 m 12 X s 679 471 m -61 Y s 673 410 m 12 X s
 820 513 m 61 Y s 815 574 m 11 X s 820 490 m -60 Y s 815 430 m 11 X s 9 lw 0.95 0.95 0.95 c black 539 509 m 18 X 3 -1 d 22 X 3 -1 d 18 X 3 -1 d 19 X 3 -1 d 18 X 3 -1 d 22 X 3 -1 d 15 X s 689 503 m 3 X 3 -1 d 18 X 4 -1 d 18 X 3 -1 d 21 X 3 -1 d 19 X 3
 -1 d 18 X 3 -1 d 19 X 3 -1 d 12 X s 839 496 m 3 X s 0.49 0.6 0.82 c black 0.49 0.6 0.82 c
 gsave  408 306 476 345 C 595.418 629.605 t 0 r /Helvetica-Bold findfont 25.6831 sf 0 0 m (5.5 < E < 6.0 GeV) show NC gr  0.52 0.76 0.64 c black 0.52 0.76 0.64 c
 gsave  408 306 476 345 C 575.476 592.569 t 0 r /Helvetica-Bold findfont 25.6831 sf 0 0 m 
 228 214 200 193 178 171 156 149 133 126 119 105 91 76 69 55 47 39 25 17
(A = \2550.001, p = 1.000) K NC gr  1 0.6 1 c black 1 0.6 1 c
 gsave  408 306 476 345 C 883.156 458.671 t 90 r /Helvetica-Bold findfont 28.5368 sf 0 0 m (/dof=0.1) show NC gr  black 1 0.6 1 c
 gsave  408 306 476 345 C 871.76 447.276 t 90 r /Helvetica-Bold findfont 19.9758 sf 0 0 m (2) show NC gr  black 1 0.6 1 c
 gsave  408 306 476 345 C 883.156 430.182 t 90 r /Symbol findfont 28.5368 sf 0 0 m (c) show NC gr  black 3 lw 1 1 1 c 408 306 930 345 bf black 1 1 1 c black 306 229 991 391 bl 306 229 991 391 bl 991 391 m 306 X s 991 395 m -4 Y s 1132 395 m -4 Y s
 1274 395 m -4 Y s 1274 395 m -4 Y s
 gsave  408 306 930 345 C 980.018 370.356 t 0 r /Helvetica findfont 22.8295 sf 0 0 m (0) show NC gr 
 gsave  408 306 930 345 C 1125.31 370.356 t 0 r /Helvetica findfont 22.8295 sf 0 0 m (1) show NC gr 
 gsave  408 306 930 345 C 1264.91 370.356 t 0 r /Helvetica findfont 22.8295 sf 0 0 m (2) show NC gr  991 620 m 306 X s 991 616 m 4 Y s 1132 616 m 4 Y s 1274 616 m 4 Y s 1274 616 m 4 Y s 991 391 m 229 Y s 997 415 m -6 X s 994 421 m -3 X s 994 426 m -3
 X s 994 432 m -3 X s 994 438 m -3 X s 997 443 m -6 X s 994 449 m -3 X s 994 455 m -3 X s 994 460 m -3 X s 994 466 m -3 X s 997 472 m -6 X s 994 477 m -3 X s 994 483 m -3 X s 994 488 m -3 X s 994 494 m -3 X s 997 500 m -6 X s 994 505 m -3 X s 994 511
 m -3 X s 994 517 m -3 X s 994 522 m -3 X s 997 528 m -6 X s 994 534 m -3 X s 994 539 m -3 X s 994 545 m -3 X s 994 551 m -3 X s 997 556 m -6 X s 994 562 m -3 X s 994 568 m -3 X s 994 573 m -3 X s 994 579 m -3 X s 997 584 m -6 X s 994 590 m -3 X s
 994 596 m -3 X s 994 601 m -3 X s 994 607 m -3 X s 997 613 m -6 X s 997 415 m -6 X s 994 409 m -3 X s 994 404 m -3 X s 994 398 m -3 X s 994 392 m -3 X s 997 613 m -6 X s 994 618 m -3 X s
 gsave  408 306 930 345 C 937.285 407.391 t 0 r /Helvetica findfont 22.8295 sf 0 0 m (\2550.03) show NC gr 
 gsave  408 306 930 345 C 937.285 435.88 t 0 r /Helvetica findfont 22.8295 sf 0 0 m (\2550.02) show NC gr 
 gsave  408 306 930 345 C 940.134 464.369 t 0 r /Helvetica findfont 22.8295 sf 0 0 m (\2550.01) show NC gr 
 gsave  408 306 930 345 C 974.32 492.858 t 0 r /Helvetica findfont 22.8295 sf 0 0 m (0) show NC gr 
 gsave  408 306 930 345 C 945.832 521.347 t 0 r /Helvetica findfont 22.8295 sf 0 0 m (0.01) show NC gr 
 gsave  408 306 930 345 C 942.983 549.836 t 0 r /Helvetica findfont 22.8295 sf 0 0 m (0.02) show NC gr 
 gsave  408 306 930 345 C 942.983 578.325 t 0 r /Helvetica findfont 22.8295 sf 0 0 m (0.03) show NC gr 
 gsave  408 306 930 345 C 942.983 606.814 t 0 r /Helvetica findfont 22.8295 sf 0 0 m (0.04) show NC gr  1297 391 m 229 Y s 1292 415 m 5 X s 1294 421 m 3 X s 1294 426 m 3 X s 1294 432 m 3 X s 1294 438 m 3 X s 1292 443 m 5 X s 1294 449 m 3 X s 1294 455
 m 3 X s 1294 460 m 3 X s 1294 466 m 3 X s 1292 472 m 5 X s 1294 477 m 3 X s 1294 483 m 3 X s 1294 488 m 3 X s 1294 494 m 3 X s 1292 500 m 5 X s 1294 505 m 3 X s 1294 511 m 3 X s 1294 517 m 3 X s 1294 522 m 3 X s 1292 528 m 5 X s 1294 534 m 3 X s
 1294 539 m 3 X s 1294 545 m 3 X s 1294 551 m 3 X s 1292 556 m 5 X s 1294 562 m 3 X s 1294 568 m 3 X s 1294 573 m 3 X s 1294 579 m 3 X s 1292 584 m 5 X s 1294 590 m 3 X s 1294 596 m 3 X s 1294 601 m 3 X s 1294 607 m 3 X s 1292 613 m 5 X s 1292 415 m
 5 X s 1294 409 m 3 X s 1294 404 m 3 X s 1294 398 m 3 X s 1294 392 m 3 X s 1292 613 m 5 X s 1294 618 m 3 X s 1062 487 1132 559 1274 450 3 { m21} R 1062 498 m 30 Y s 1056 528 m 11 X s 1062 476 m -30 Y s 1056 446 m 11 X s 1132 571 m 30 Y s 1127 601 m
 11 X s 1132 548 m -30 Y s 1127 518 m 11 X s 1274 462 m 28 Y s 1268 490 m 11 X s 1274 439 m -29 Y s 1268 410 m 11 X s 1 0 0 c 9 lw 0.95 0.95 0.95 c black 1 0 0 c 993 500 m 21 X 3 -1 d 28 X 3 -1 d 15 X 3 -1 d 9 X 3 -1 d 12 X 4 -1 d 6 X 3 -1 d 6 X 3 -1
 d 9 X 3 -1 d 3 X 3 -1 d 6 X 3 -1 d 4 X s 1143 490 m 3 X 3 -1 d 3 X 3 -1 d 3 X 3 -1 d 3 X 3 -1 d 6 X 3 -1 d 3 X 3 -1 d 3 X 3 -1 d 4 X 3 -1 d 3 -1 d 3 X 3 -1 d 3 X 3 -1 d 3 X 3 -1 d 3 -1 d 3 X 3 -1 d 3 X 3 -1 d 3 -1 d 3 X 3 -1 d 4 -1 d 3 X 3 -1 d 3 -1
 d 3 X 3 -1 d 3 -1 d 3 X 3 -1 d 3 -1 d 3 -1 d 3 X 3 -1 d 3 -1 d 3 -1 d 3 X 4 -1 d s 1293 461 m 3 -1 d s 0.49 0.6 0.82 c black 0.49 0.6 0.82 c
 gsave  408 306 930 345 C 1051.24 629.605 t 0 r /Helvetica-Bold findfont 25.6831 sf 0 0 m (6.0 < E < 6.5 GeV) show NC gr  0.52 0.76 0.64 c black 0.52 0.76 0.64 c
 gsave  408 306 930 345 C 1031.3 592.569 t 0 r /Helvetica-Bold findfont 25.6831 sf 0 0 m 
 228 214 200 193 178 171 156 149 133 126 119 105 91 77 69 55 47 39 25 17
(A = \2550.003, p = 2.000) K NC gr  1 0.6 1 c black 1 0.6 1 c
 gsave  408 306 930 345 C 1336.13 458.671 t 90 r /Helvetica-Bold findfont 28.5368 sf 0 0 m (/dof=1.4) show NC gr  black 1 0.6 1 c
 gsave  408 306 930 345 C 1324.73 447.276 t 90 r /Helvetica-Bold findfont 19.9758 sf 0 0 m (2) show NC gr  black 1 0.6 1 c
 gsave  408 306 930 345 C 1336.13 430.182 t 90 r /Symbol findfont 28.5368 sf 0 0 m (c) show NC gr  black 3 lw 1 1 1 c 408 306 1383 345 bf black 1 1 1 c black 306 229 1445 391 bl 306 229 1445 391 bl 1445 391 m 306 X s 1445 395 m -4 Y s 1586 395 m -4 Y
 s 1727 395 m -4 Y s 1727 395 m -4 Y s
 gsave  408 306 1383 345 C 1435.84 370.356 t 0 r /Helvetica findfont 22.8295 sf 0 0 m (0) show NC gr 
 gsave  408 306 1383 345 C 1578.29 370.356 t 0 r /Helvetica findfont 22.8295 sf 0 0 m (1) show NC gr 
 gsave  408 306 1383 345 C 1717.88 370.356 t 0 r /Helvetica findfont 22.8295 sf 0 0 m (2) show NC gr  1445 620 m 306 X s 1445 616 m 4 Y s 1586 616 m 4 Y s 1727 616 m 4 Y s 1727 616 m 4 Y s 1445 391 m 229 Y s 1450 404 m -5 X s 1447 409 m -2 X s 1447
 414 m -2 X s 1447 419 m -2 X s 1447 425 m -2 X s 1450 430 m -5 X s 1447 435 m -2 X s 1447 440 m -2 X s 1447 445 m -2 X s 1447 450 m -2 X s 1450 455 m -5 X s 1447 461 m -2 X s 1447 466 m -2 X s 1447 471 m -2 X s 1447 476 m -2 X s 1450 481 m -5 X s
 1447 486 m -2 X s 1447 491 m -2 X s 1447 497 m -2 X s 1447 502 m -2 X s 1450 507 m -5 X s 1447 512 m -2 X s 1447 517 m -2 X s 1447 522 m -2 X s 1447 527 m -2 X s 1450 533 m -5 X s 1447 538 m -2 X s 1447 543 m -2 X s 1447 548 m -2 X s 1447 553 m -2 X
 s 1450 558 m -5 X s 1447 563 m -2 X s 1447 569 m -2 X s 1447 574 m -2 X s 1447 579 m -2 X s 1450 584 m -5 X s 1447 589 m -2 X s 1447 594 m -2 X s 1447 599 m -2 X s 1447 605 m -2 X s 1450 610 m -5 X s 1450 404 m -5 X s 1447 399 m -2 X s 1447 394 m -2
 X s 1450 610 m -5 X s 1447 615 m -2 X s
 gsave  408 306 1383 345 C 1390.26 395.996 t 0 r /Helvetica findfont 22.8295 sf 0 0 m (\2550.04) show NC gr 
 gsave  408 306 1383 345 C 1390.26 421.636 t 0 r /Helvetica findfont 22.8295 sf 0 0 m (\2550.03) show NC gr 
 gsave  408 306 1383 345 C 1390.26 447.276 t 0 r /Helvetica findfont 22.8295 sf 0 0 m (\2550.02) show NC gr 
 gsave  408 306 1383 345 C 1393.11 472.916 t 0 r /Helvetica findfont 22.8295 sf 0 0 m (\2550.01) show NC gr 
 gsave  408 306 1383 345 C 1427.29 498.556 t 0 r /Helvetica findfont 22.8295 sf 0 0 m (0) show NC gr 
 gsave  408 306 1383 345 C 1398.81 524.196 t 0 r /Helvetica findfont 22.8295 sf 0 0 m (0.01) show NC gr 
 gsave  408 306 1383 345 C 1395.96 549.836 t 0 r /Helvetica findfont 22.8295 sf 0 0 m (0.02) show NC gr 
 gsave  408 306 1383 345 C 1395.96 575.476 t 0 r /Helvetica findfont 22.8295 sf 0 0 m (0.03) show NC gr 
 gsave  408 306 1383 345 C 1395.96 603.965 t 0 r /Helvetica findfont 22.8295 sf 0 0 m (0.04) show NC gr  1751 391 m 229 Y s 1745 404 m 6 X s 1748 409 m 3 X s 1748 414 m 3 X s 1748 419 m 3 X s 1748 425 m 3 X s 1745 430 m 6 X s 1748 435 m 3 X s 1748
 440 m 3 X s 1748 445 m 3 X s 1748 450 m 3 X s 1745 455 m 6 X s 1748 461 m 3 X s 1748 466 m 3 X s 1748 471 m 3 X s 1748 476 m 3 X s 1745 481 m 6 X s 1748 486 m 3 X s 1748 491 m 3 X s 1748 497 m 3 X s 1748 502 m 3 X s 1745 507 m 6 X s 1748 512 m 3 X s
 1748 517 m 3 X s 1748 522 m 3 X s 1748 527 m 3 X s 1745 533 m 6 X s 1748 538 m 3 X s 1748 543 m 3 X s 1748 548 m 3 X s 1748 553 m 3 X s 1745 558 m 6 X s 1748 563 m 3 X s 1748 569 m 3 X s 1748 574 m 3 X s 1748 579 m 3 X s 1745 584 m 6 X s 1748 589 m
 3 X s 1748 594 m 3 X s 1748 599 m 3 X s 1748 605 m 3 X s 1745 610 m 6 X s 1745 404 m 6 X s 1748 399 m 3 X s 1748 394 m 3 X s 1745 610 m 6 X s 1748 615 m 3 X s 1515 451 1586 464 1727 558 3 { m21} R 1515 463 m 30 Y s 1510 493 m 11 X s 1515 440 m -30 Y
 s 1510 410 m 11 X s 1586 476 m 29 Y s 1580 505 m 12 X s 1586 453 m -30 Y s 1580 423 m 12 X s 1727 570 m 31 Y s 1722 601 m 11 X s 1727 547 m -31 Y s 1722 516 m 11 X s 1 0 0 c 9 lw 0.95 0.95 0.95 c black 1 0 0 c 1446 507 m 37 X 3 1 d 18 X 3 1 d 16 X 3
 1 d 9 X 3 1 d 9 X 3 1 d 9 X 3 1 d 7 X 3 1 d 6 X 3 1 d 6 X 3 1 d 3 X 3 1 d s 1596 517 m 6 X 3 1 d 3 X 3 1 d 3 X 4 1 d 6 X 3 1 d 3 X 3 1 d 3 X 3 1 d 3 X 3 1 d 3 X 3 1 d 3 1 d 3 X 3 1 d 3 X 3 1 d 4 X 3 1 d 3 1 d 3 X 3 1 d 3 X 3 1 d 3 1 d 3 X 3 1 d 3 1
 d 3 X 3 1 d 3 1 d 3 X 3 1 d 4 1 d 3 X 3 1 d 3 1 d 3 1 d 3 X 3 1 d 3 1 d 3 1 d 3 X s 1746 545 m 3 1 d s 0.49 0.6 0.82 c black 0.49 0.6 0.82 c
 gsave  408 306 1383 345 C 1504.21 629.605 t 0 r /Helvetica-Bold findfont 25.6831 sf 0 0 m (6.5 < E < 7.0 GeV) show NC gr  0.52 0.76 0.64 c black 0.52 0.76 0.64 c
 gsave  408 306 1383 345 C 1489.97 592.569 t 0 r /Helvetica-Bold findfont 25.6831 sf 0 0 m 
 220 206 192 185 170 163 148 141 126 118 111 97 83 69 61 47 40 25 18
(A = 0.003, p = 2.000) K NC gr  1 0.6 1 c black 1 0.6 1 c
 gsave  408 306 1383 345 C 1789.1 458.671 t 90 r /Helvetica-Bold findfont 28.5368 sf 0 0 m (/dof=1.8) show NC gr  black 1 0.6 1 c
 gsave  408 306 1383 345 C 1777.71 447.276 t 90 r /Helvetica-Bold findfont 19.9758 sf 0 0 m (2) show NC gr  black 1 0.6 1 c
 gsave  408 306 1383 345 C 1789.1 430.182 t 90 r /Symbol findfont 28.5368 sf 0 0 m (c) show NC gr  black 3 lw 1 1 1 c 408 306 1837 345 bf black 1 1 1 c black 306 229 1898 391 bl 306 229 1898 391 bl 1898 391 m 306 X s 1898 395 m -4 Y s 2039 395 m -4 Y
 s 2181 395 m -4 Y s 2181 395 m -4 Y s
 gsave  408 306 1837 345 C 1888.81 370.356 t 0 r /Helvetica findfont 22.8295 sf 0 0 m (0) show NC gr 
 gsave  408 306 1837 345 C 2031.26 370.356 t 0 r /Helvetica findfont 22.8295 sf 0 0 m (1) show NC gr 
 gsave  408 306 1837 345 C 2170.85 370.356 t 0 r /Helvetica findfont 22.8295 sf 0 0 m (2) show NC gr  1898 620 m 306 X s 1898 616 m 4 Y s 2039 616 m 4 Y s 2181 616 m 4 Y s 2181 616 m 4 Y s 1898 391 m 229 Y s 1904 417 m -6 X s 1901 423 m -3 X s 1901
 429 m -3 X s 1901 435 m -3 X s 1901 441 m -3 X s 1904 446 m -6 X s 1901 452 m -3 X s 1901 458 m -3 X s 1901 464 m -3 X s 1901 470 m -3 X s 1904 476 m -6 X s 1901 482 m -3 X s 1901 488 m -3 X s 1901 494 m -3 X s 1901 500 m -3 X s 1904 506 m -6 X s
 1901 512 m -3 X s 1901 518 m -3 X s 1901 524 m -3 X s 1901 530 m -3 X s 1904 536 m -6 X s 1901 542 m -3 X s 1901 548 m -3 X s 1901 554 m -3 X s 1901 560 m -3 X s 1904 566 m -6 X s 1901 571 m -3 X s 1901 577 m -3 X s 1901 583 m -3 X s 1901 589 m -3 X
 s 1904 595 m -6 X s 1904 417 m -6 X s 1901 411 m -3 X s 1901 405 m -3 X s 1901 399 m -3 X s 1901 393 m -3 X s 1904 595 m -6 X s 1901 601 m -3 X s 1901 607 m -3 X s 1901 613 m -3 X s 1901 619 m -3 X s
 gsave  408 306 1837 345 C 1846.08 410.24 t 0 r /Helvetica findfont 22.8295 sf 0 0 m (\2550.01) show NC gr 
 gsave  408 306 1837 345 C 1880.27 438.729 t 0 r /Helvetica findfont 22.8295 sf 0 0 m (0) show NC gr 
 gsave  408 306 1837 345 C 1851.78 470.067 t 0 r /Helvetica findfont 22.8295 sf 0 0 m (0.01) show NC gr 
 gsave  408 306 1837 345 C 1848.93 498.556 t 0 r /Helvetica findfont 22.8295 sf 0 0 m (0.02) show NC gr 
 gsave  408 306 1837 345 C 1848.93 529.894 t 0 r /Helvetica findfont 22.8295 sf 0 0 m (0.03) show NC gr 
 gsave  408 306 1837 345 C 1848.93 558.382 t 0 r /Helvetica findfont 22.8295 sf 0 0 m (0.04) show NC gr 
 gsave  408 306 1837 345 C 1848.93 586.871 t 0 r /Helvetica findfont 22.8295 sf 0 0 m (0.05) show NC gr  2204 391 m 229 Y s 2199 417 m 5 X s 2201 423 m 3 X s 2201 429 m 3 X s 2201 435 m 3 X s 2201 441 m 3 X s 2199 446 m 5 X s 2201 452 m 3 X s 2201
 458 m 3 X s 2201 464 m 3 X s 2201 470 m 3 X s 2199 476 m 5 X s 2201 482 m 3 X s 2201 488 m 3 X s 2201 494 m 3 X s 2201 500 m 3 X s 2199 506 m 5 X s 2201 512 m 3 X s 2201 518 m 3 X s 2201 524 m 3 X s 2201 530 m 3 X s 2199 536 m 5 X s 2201 542 m 3 X s
 2201 548 m 3 X s 2201 554 m 3 X s 2201 560 m 3 X s 2199 566 m 5 X s 2201 571 m 3 X s 2201 577 m 3 X s 2201 583 m 3 X s 2201 589 m 3 X s 2199 595 m 5 X s 2199 417 m 5 X s 2201 411 m 3 X s 2201 405 m 3 X s 2201 399 m 3 X s 2201 393 m 3 X s 2199 595 m
 5 X s 2201 601 m 3 X s 2201 607 m 3 X s 2201 613 m 3 X s 2201 619 m 3 X s 1969 547 2039 498 2181 463 3 { m21} R 1969 558 m 43 Y s 1963 601 m 11 X s 1969 535 m -43 Y s 1963 492 m 11 X s 2039 510 m 42 Y s 2034 552 m 11 X s 2039 487 m -43 Y s 2034 444
 m 11 X s 2181 475 m 41 Y s 2175 516 m 12 X s 2181 452 m -42 Y s 2175 410 m 12 X s 9 lw 0.95 0.95 0.95 c black 1900 447 m 3 X 3 1 d 3 X 3 1 d 3 1 d 3 X 3 1 d 3 X 3 1 d 3 X 3 1 d 3 X 3 1 d 3 X 4 1 d 3 1 d 3 X 3 1 d 3 X 3 1 d 3 X 3 1 d 3 X 3 1 d 3 X 3
 1 d 3 1 d 3 X 3 1 d 3 X 4 1 d 3 X 3 1 d 3 X 3 1 d 3 X 3 1 d 3 1 d 3 X 3 1 d 3 X 3 1 d 3 X 3 1 d 3 X 3 1 d 3 X 4 1 d 3 1 d s 2050 474 m 3 X 3 1 d 3 X 3 1 d 3 X 3 1 d 3 X 3 1 d 3 1 d 3 X 3 1 d 3 X 3 1 d 3 X 4 1 d 3 X 3 1 d 3 X 3 1 d 3 1 d 3 X 3 1 d 3
 X 3 1 d 3 X 3 1 d 3 X 3 1 d 3 X 3 1 d 4 1 d 3 X 3 1 d 3 X 3 1 d 3 X 3 1 d 3 X 3 1 d 3 X 3 1 d 3 1 d 3 X 3 1 d 3 X 3 1 d 4 X 3 1 d 3 X s 2200 500 m 3 1 d s 0.49 0.6 0.82 c black 0.49 0.6 0.82 c
 gsave  408 306 1837 345 C 1957.19 629.605 t 0 r /Helvetica-Bold findfont 25.6831 sf 0 0 m (7.0 < E < 7.5 GeV) show NC gr  0.52 0.76 0.64 c black 0.52 0.76 0.64 c
 gsave  408 306 1837 345 C 1942.94 592.569 t 0 r /Helvetica-Bold findfont 25.6831 sf 0 0 m 
 220 206 192 185 170 163 148 141 125 118 111 97 83 69 61 47 40 25 18
(A = 0.008, p = 1.000) K NC gr  1 0.6 1 c black 1 0.6 1 c
 gsave  408 306 1837 345 C 2242.08 458.671 t 90 r /Helvetica-Bold findfont 28.5368 sf 0 0 m (/dof=1.6) show NC gr  black 1 0.6 1 c
 gsave  408 306 1837 345 C 2230.68 447.276 t 90 r /Helvetica-Bold findfont 19.9758 sf 0 0 m (2) show NC gr  black 1 0.6 1 c
 gsave  408 306 1837 345 C 2242.08 430.182 t 90 r /Symbol findfont 28.5368 sf 0 0 m (c) show NC gr  black 3 lw 1 1 1 c 408 306 23 13 bf black 1 1 1 c black 306 229 84 59 bl 306 229 84 59 bl 84 59 m 306 X s 84 63 m -4 Y s 225 63 m -4 Y s 367 63 m -4 Y
 s 367 63 m -4 Y s
 gsave  408 306 23 13 C 74.0711 39.8845 t 0 r /Helvetica findfont 22.8295 sf 0 0 m (0) show NC gr 
 gsave  408 306 23 13 C 219.365 39.8845 t 0 r /Helvetica findfont 22.8295 sf 0 0 m (1) show NC gr 
 gsave  408 306 23 13 C 356.111 39.8845 t 0 r /Helvetica findfont 22.8295 sf 0 0 m (2) show NC gr  84 288 m 306 X s 84 284 m 4 Y s 225 284 m 4 Y s 367 284 m 4 Y s 367 284 m 4 Y s 84 59 m 229 Y s 89 81 m -5 X s 87 86 m -3 X s 87 91 m -3 X s 87 97 m -3
 X s 87 102 m -3 X s 89 107 m -5 X s 87 113 m -3 X s 87 118 m -3 X s 87 123 m -3 X s 87 128 m -3 X s 89 134 m -5 X s 87 139 m -3 X s 87 144 m -3 X s 87 150 m -3 X s 87 155 m -3 X s 89 160 m -5 X s 87 166 m -3 X s 87 171 m -3 X s 87 176 m -3 X s 87
 182 m -3 X s 89 187 m -5 X s 87 192 m -3 X s 87 198 m -3 X s 87 203 m -3 X s 87 208 m -3 X s 89 214 m -5 X s 87 219 m -3 X s 87 224 m -3 X s 87 230 m -3 X s 87 235 m -3 X s 89 240 m -5 X s 87 246 m -3 X s 87 251 m -3 X s 87 256 m -3 X s 87 262 m -3
 X s 89 267 m -5 X s 89 81 m -5 X s 87 75 m -3 X s 87 70 m -3 X s 87 65 m -3 X s 87 59 m -3 X s 89 267 m -5 X s 87 272 m -3 X s 87 278 m -3 X s 87 283 m -3 X s
 gsave  408 306 23 13 C 28.4889 74.0711 t 0 r /Helvetica findfont 22.8295 sf 0 0 m (\2550.02) show NC gr 
 gsave  408 306 23 13 C 31.3378 99.7112 t 0 r /Helvetica findfont 22.8295 sf 0 0 m (\2550.01) show NC gr 
 gsave  408 306 23 13 C 65.5245 125.351 t 0 r /Helvetica findfont 22.8295 sf 0 0 m (0) show NC gr 
 gsave  408 306 23 13 C 37.0356 153.84 t 0 r /Helvetica findfont 22.8295 sf 0 0 m (0.01) show NC gr 
 gsave  408 306 23 13 C 34.1867 179.48 t 0 r /Helvetica findfont 22.8295 sf 0 0 m (0.02) show NC gr 
 gsave  408 306 23 13 C 34.1867 207.969 t 0 r /Helvetica findfont 22.8295 sf 0 0 m (0.03) show NC gr 
 gsave  408 306 23 13 C 34.1867 233.609 t 0 r /Helvetica findfont 22.8295 sf 0 0 m (0.04) show NC gr 
 gsave  408 306 23 13 C 34.1867 259.249 t 0 r /Helvetica findfont 22.8295 sf 0 0 m (0.05) show NC gr  390 59 m 229 Y s 385 81 m 5 X s 387 86 m 3 X s 387 91 m 3 X s 387 97 m 3 X s 387 102 m 3 X s 385 107 m 5 X s 387 113 m 3 X s 387 118 m 3 X s 387 123
 m 3 X s 387 128 m 3 X s 385 134 m 5 X s 387 139 m 3 X s 387 144 m 3 X s 387 150 m 3 X s 387 155 m 3 X s 385 160 m 5 X s 387 166 m 3 X s 387 171 m 3 X s 387 176 m 3 X s 387 182 m 3 X s 385 187 m 5 X s 387 192 m 3 X s 387 198 m 3 X s 387 203 m 3 X s
 387 208 m 3 X s 385 214 m 5 X s 387 219 m 3 X s 387 224 m 3 X s 387 230 m 3 X s 387 235 m 3 X s 385 240 m 5 X s 387 246 m 3 X s 387 251 m 3 X s 387 256 m 3 X s 387 262 m 3 X s 385 267 m 5 X s 385 81 m 5 X s 387 75 m 3 X s 387 70 m 3 X s 387 65 m 3 X
 s 387 59 m 3 X s 385 267 m 5 X s 387 272 m 3 X s 387 278 m 3 X s 387 283 m 3 X s /w 22 def /w2 {w 2 div} def /w3 {w 3 div} def 155 163 225 129 367 217 3 { m21} R 155 174 m 41 Y s 149 215 m 11 X s 155 152 m -41 Y s 149 111 m 11 X s 225 141 m 39 Y s
 220 180 m 11 X s 225 118 m -40 Y s 220 78 m 11 X s 367 229 m 40 Y s 361 269 m 11 X s 367 206 m -41 Y s 361 165 m 11 X s 1 0 0 c 9 lw 0.95 0.95 0.95 c black 1 0 0 c 85 134 m 25 X 3 1 d 12 X 3 1 d 6 X 3 1 d 7 X 3 1 d 6 X 3 1 d 3 X 3 1 d 3 X 3 1 d 3 X
 3 1 d 3 X 3 1 d 3 1 d 3 X 4 1 d 3 X 3 1 d 3 1 d 3 X 3 1 d 3 1 d 3 1 d 3 X 3 1 d 3 1 d 3 1 d 3 1 d 3 1 d 3 X 3 1 d s 235 156 m 4 1 d 3 1 d 3 1 d 3 1 d 3 1 d 3 1 d 3 1 d 3 1 d 3 1 d 3 1 d 3 2 d 3 1 d 3 1 d 3 1 d 3 1 d 3 1 d 3 2 d 4 1 d 3 1 d 3 1 d 3 2
 d 3 1 d 3 1 d 3 2 d 3 1 d 3 1 d 3 2 d 3 1 d 3 2 d 3 1 d 3 2 d 3 1 d 3 2 d 4 1 d 3 2 d 3 1 d 3 2 d 3 1 d 3 2 d 3 2 d 3 1 d 3 2 d 3 2 d 3 1 d 3 2 d 3 2 d 3 2 d 3 1 d 3 2 d s 385 223 m 4 2 d s 0.49 0.6 0.82 c black 0.49 0.6 0.82 c
 gsave  408 306 23 13 C 142.445 296.285 t 0 r /Helvetica-Bold findfont 25.6831 sf 0 0 m (7.5 < E < 8.0 GeV) show NC gr  0.52 0.76 0.64 c black 0.52 0.76 0.64 c
 gsave  408 306 23 13 C 128.2 259.249 t 0 r /Helvetica-Bold findfont 25.6831 sf 0 0 m 
 220 206 192 185 170 163 148 141 126 118 111 97 83 69 61 47 40 25 18
(A = 0.007, p = 2.000) K NC gr  1 0.6 1 c black 1 0.6 1 c
 gsave  408 306 23 13 C 427.334 128.2 t 90 r /Helvetica-Bold findfont 28.5368 sf 0 0 m (/dof=0.2) show NC gr  black 1 0.6 1 c
 gsave  408 306 23 13 C 415.938 116.804 t 90 r /Helvetica-Bold findfont 19.9758 sf 0 0 m (2) show NC gr  black 1 0.6 1 c
 gsave  408 306 23 13 C 427.334 99.7112 t 90 r /Symbol findfont 28.5368 sf 0 0 m (c) show NC gr  black 3 lw 1 1 1 c 408 306 476 13 bf black 1 1 1 c black 307 229 537 59 bl 307 229 537 59 bl 537 59 m 307 X s 537 63 m -4 Y s 679 63 m -4 Y s 820 63 m -4
 Y s 820 63 m -4 Y s
 gsave  408 306 476 13 C 527.045 39.8845 t 0 r /Helvetica findfont 22.8295 sf 0 0 m (0) show NC gr 
 gsave  408 306 476 13 C 672.338 39.8845 t 0 r /Helvetica findfont 22.8295 sf 0 0 m (1) show NC gr 
 gsave  408 306 476 13 C 809.085 39.8845 t 0 r /Helvetica findfont 22.8295 sf 0 0 m (2) show NC gr  537 288 m 307 X s 537 284 m 4 Y s 679 284 m 4 Y s 820 284 m 4 Y s 820 284 m 4 Y s 537 59 m 229 Y s 543 102 m -6 X s 540 113 m -3 X s 540 124 m -3 X s
 540 135 m -3 X s 543 146 m -6 X s 540 157 m -3 X s 540 168 m -3 X s 540 180 m -3 X s 543 191 m -6 X s 540 202 m -3 X s 540 213 m -3 X s 540 224 m -3 X s 543 235 m -6 X s 540 246 m -3 X s 540 257 m -3 X s 540 268 m -3 X s 543 280 m -6 X s 543 102 m
 -6 X s 540 91 m -3 X s 540 80 m -3 X s 540 68 m -3 X s 543 280 m -6 X s
 gsave  408 306 476 13 C 481.462 94.0134 t 0 r /Helvetica findfont 22.8295 sf 0 0 m (\2550.04) show NC gr 
 gsave  408 306 476 13 C 481.462 139.596 t 0 r /Helvetica findfont 22.8295 sf 0 0 m (\2550.02) show NC gr 
 gsave  408 306 476 13 C 518.498 182.329 t 0 r /Helvetica findfont 22.8295 sf 0 0 m (0) show NC gr 
 gsave  408 306 476 13 C 487.16 227.911 t 0 r /Helvetica findfont 22.8295 sf 0 0 m (0.02) show NC gr 
 gsave  408 306 476 13 C 487.16 273.493 t 0 r /Helvetica findfont 22.8295 sf 0 0 m (0.04) show NC gr  844 59 m 229 Y s 838 102 m 6 X s 841 113 m 3 X s 841 124 m 3 X s 841 135 m 3 X s 838 146 m 6 X s 841 157 m 3 X s 841 168 m 3 X s 841 180 m 3 X s 838
 191 m 6 X s 841 202 m 3 X s 841 213 m 3 X s 841 224 m 3 X s 838 235 m 6 X s 841 246 m 3 X s 841 257 m 3 X s 841 268 m 3 X s 838 280 m 6 X s 838 102 m 6 X s 841 91 m 3 X s 841 80 m 3 X s 841 68 m 3 X s 838 280 m 6 X s /w 23 def /w2 {w 2 div} def /w3
 {w 3 div} def 608 214 679 122 820 223 3 { m21} R 608 226 m 35 Y s 602 261 m 12 X s 608 203 m -35 Y s 602 168 m 12 X s 679 134 m 32 Y s 673 166 m 12 X s 679 111 m -33 Y s 673 78 m 12 X s 820 235 m 34 Y s 815 269 m 11 X s 820 212 m -35 Y s 815 177 m
 11 X s 1 0 0 c 9 lw 0.95 0.95 0.95 c black 1 0 0 c 539 191 m 64 X 3 1 d 31 X 3 1 d 21 X 3 1 d 19 X 3 1 d 3 X s 689 195 m 12 X 3 1 d 13 X 3 1 d 12 X 3 1 d 9 X 3 1 d 12 X 3 1 d 10 X 3 1 d 6 X 3 1 d 9 X 3 1 d 6 X 3 1 d 10 X 3 1 d 6 X 3 1 d 6 X 3 1 d 3
 X s 839 207 m 3 X s 0.49 0.6 0.82 c black 0.49 0.6 0.82 c
 gsave  408 306 476 13 C 595.418 296.285 t 0 r /Helvetica-Bold findfont 25.6831 sf 0 0 m (8.0 < E < 8.5 GeV) show NC gr  0.52 0.76 0.64 c black 0.52 0.76 0.64 c
 gsave  408 306 476 13 C 581.174 259.249 t 0 r /Helvetica-Bold findfont 25.6831 sf 0 0 m 
 220 206 192 185 170 163 148 141 125 118 111 97 83 68 61 47 40 25 18
(A = 0.002, p = 2.000) K NC gr  1 0.6 1 c black 1 0.6 1 c
 gsave  408 306 476 13 C 883.156 128.2 t 90 r /Helvetica-Bold findfont 28.5368 sf 0 0 m (/dof=1.5) show NC gr  black 1 0.6 1 c
 gsave  408 306 476 13 C 871.76 116.804 t 90 r /Helvetica-Bold findfont 19.9758 sf 0 0 m (2) show NC gr  black 1 0.6 1 c
 gsave  408 306 476 13 C 883.156 99.7112 t 90 r /Symbol findfont 28.5368 sf 0 0 m (c) show NC gr  black 3 lw 1 1 1 c 408 306 930 13 bf black 1 1 1 c black 306 229 991 59 bl 306 229 991 59 bl 991 59 m 306 X s 991 63 m -4 Y s 1132 63 m -4 Y s 1274 63 m
 -4 Y s 1274 63 m -4 Y s
 gsave  408 306 930 13 C 980.018 39.8845 t 0 r /Helvetica findfont 22.8295 sf 0 0 m (0) show NC gr 
 gsave  408 306 930 13 C 1125.31 39.8845 t 0 r /Helvetica findfont 22.8295 sf 0 0 m (1) show NC gr 
 gsave  408 306 930 13 C 1264.91 39.8845 t 0 r /Helvetica findfont 22.8295 sf 0 0 m (2) show NC gr  991 288 m 306 X s 991 284 m 4 Y s 1132 284 m 4 Y s 1274 284 m 4 Y s 1274 284 m 4 Y s 991 59 m 229 Y s 997 77 m -6 X s 994 84 m -3 X s 994 90 m -3 X s
 994 96 m -3 X s 994 103 m -3 X s 997 109 m -6 X s 994 116 m -3 X s 994 122 m -3 X s 994 128 m -3 X s 994 135 m -3 X s 997 141 m -6 X s 994 147 m -3 X s 994 154 m -3 X s 994 160 m -3 X s 994 167 m -3 X s 997 173 m -6 X s 994 179 m -3 X s 994 186 m -3
 X s 994 192 m -3 X s 994 199 m -3 X s 997 205 m -6 X s 994 211 m -3 X s 994 218 m -3 X s 994 224 m -3 X s 994 231 m -3 X s 997 237 m -6 X s 994 243 m -3 X s 994 250 m -3 X s 994 256 m -3 X s 994 263 m -3 X s 997 269 m -6 X s 997 77 m -6 X s 994 71 m
 -3 X s 994 64 m -3 X s 997 269 m -6 X s 994 275 m -3 X s 994 282 m -3 X s
 gsave  408 306 930 13 C 937.285 71.2223 t 0 r /Helvetica findfont 22.8295 sf 0 0 m (\2550.04) show NC gr 
 gsave  408 306 930 13 C 937.285 102.56 t 0 r /Helvetica findfont 22.8295 sf 0 0 m (\2550.03) show NC gr 
 gsave  408 306 930 13 C 937.285 133.898 t 0 r /Helvetica findfont 22.8295 sf 0 0 m (\2550.02) show NC gr 
 gsave  408 306 930 13 C 940.134 165.236 t 0 r /Helvetica findfont 22.8295 sf 0 0 m (\2550.01) show NC gr 
 gsave  408 306 930 13 C 974.32 196.573 t 0 r /Helvetica findfont 22.8295 sf 0 0 m (0) show NC gr 
 gsave  408 306 930 13 C 945.832 230.76 t 0 r /Helvetica findfont 22.8295 sf 0 0 m (0.01) show NC gr 
 gsave  408 306 930 13 C 942.983 262.098 t 0 r /Helvetica findfont 22.8295 sf 0 0 m (0.02) show NC gr  1297 59 m 229 Y s 1292 77 m 5 X s 1294 84 m 3 X s 1294 90 m 3 X s 1294 96 m 3 X s 1294 103 m 3 X s 1292 109 m 5 X s 1294 116 m 3 X s 1294 122 m 3 X
 s 1294 128 m 3 X s 1294 135 m 3 X s 1292 141 m 5 X s 1294 147 m 3 X s 1294 154 m 3 X s 1294 160 m 3 X s 1294 167 m 3 X s 1292 173 m 5 X s 1294 179 m 3 X s 1294 186 m 3 X s 1294 192 m 3 X s 1294 199 m 3 X s 1292 205 m 5 X s 1294 211 m 3 X s 1294 218
 m 3 X s 1294 224 m 3 X s 1294 231 m 3 X s 1292 237 m 5 X s 1294 243 m 3 X s 1294 250 m 3 X s 1294 256 m 3 X s 1294 263 m 3 X s 1292 269 m 5 X s 1292 77 m 5 X s 1294 71 m 3 X s 1294 64 m 3 X s 1292 269 m 5 X s 1294 275 m 3 X s 1294 282 m 3 X s 1062
 200 1132 156 1274 147 3 { m21} R 1062 212 m 57 Y s 1056 269 m 11 X s 1062 189 m -57 Y s 1056 132 m 11 X s 1132 168 m 57 Y s 1127 225 m 11 X s 1132 145 m -57 Y s 1127 88 m 11 X s 1274 158 m 57 Y s 1268 215 m 11 X s 1274 135 m -57 Y s 1268 78 m 11 X s
 9 lw 0.95 0.95 0.95 c black 993 205 m 3 -1 d 3 -1 d 3 X 3 -1 d 3 -1 d 3 X 3 -1 d 3 -1 d 3 -1 d 3 X 3 -1 d 3 -1 d 3 X 3 -1 d 3 -1 d 4 X 3 -1 d 3 -1 d 3 X 3 -1 d 3 -1 d 3 -1 d 3 X 3 -1 d 3 -1 d 3 X 3 -1 d 3 -1 d 3 X 3 -1 d 3 -1 d 3 X 4 -1 d 3 -1 d 3
 -1 d 3 X 3 -1 d 3 -1 d 3 X 3 -1 d 3 -1 d 3 X 3 -1 d 3 -1 d 3 X 3 -1 d 3 -1 d 3 -1 d 4 X s 1143 171 m 3 -1 d 3 -1 d 3 X 3 -1 d 3 -1 d 3 X 3 -1 d 3 -1 d 3 X 3 -1 d 3 -1 d 3 -1 d 3 X 3 -1 d 3 -1 d 4 X 3 -1 d 3 -1 d 3 X 3 -1 d 3 -1 d 3 X 3 -1 d 3 -1 d 3
 -1 d 3 X 3 -1 d 3 -1 d 3 X 3 -1 d 3 -1 d 3 X 4 -1 d 3 -1 d 3 X 3 -1 d 3 -1 d 3 -1 d 3 X 3 -1 d 3 -1 d 3 X 3 -1 d 3 -1 d 3 X 3 -1 d 3 -1 d 3 X 4 -1 d s 1293 137 m 3 -1 d s 0.49 0.6 0.82 c black 0.49 0.6 0.82 c
 gsave  408 306 930 13 C 1051.24 296.285 t 0 r /Helvetica-Bold findfont 25.6831 sf 0 0 m (8.5 < E < 9.0 GeV) show NC gr  0.52 0.76 0.64 c black 0.52 0.76 0.64 c
 gsave  408 306 930 13 C 1031.3 259.249 t 0 r /Helvetica-Bold findfont 25.6831 sf 0 0 m 
 228 214 200 193 178 171 156 149 133 126 119 105 91 77 69 55 47 39 25 17
(A = \2550.010, p = 1.000) K NC gr  1 0.6 1 c black 1 0.6 1 c
 gsave  408 306 930 13 C 1336.13 128.2 t 90 r /Helvetica-Bold findfont 28.5368 sf 0 0 m (/dof=0.0) show NC gr  black 1 0.6 1 c
 gsave  408 306 930 13 C 1324.73 116.804 t 90 r /Helvetica-Bold findfont 19.9758 sf 0 0 m (2) show NC gr  black 1 0.6 1 c
 gsave  408 306 930 13 C 1336.13 99.7112 t 90 r /Symbol findfont 28.5368 sf 0 0 m (c) show NC gr  black 3 lw 1 1 1 c 408 306 1383 13 bf black 1 1 1 c black 306 229 1445 59 bl 306 229 1445 59 bl 1445 59 m 306 X s 1445 63 m -4 Y s 1586 63 m -4 Y s 1727
 63 m -4 Y s 1727 63 m -4 Y s
 gsave  408 306 1383 13 C 1435.84 39.8845 t 0 r /Helvetica findfont 22.8295 sf 0 0 m (0) show NC gr 
 gsave  408 306 1383 13 C 1578.29 39.8845 t 0 r /Helvetica findfont 22.8295 sf 0 0 m (1) show NC gr 
 gsave  408 306 1383 13 C 1717.88 39.8845 t 0 r /Helvetica findfont 22.8295 sf 0 0 m (2) show NC gr  1445 288 m 306 X s 1445 284 m 4 Y s 1586 284 m 4 Y s 1727 284 m 4 Y s 1727 284 m 4 Y s 1445 59 m 229 Y s 1450 61 m -5 X s 1447 66 m -2 X s 1447 71 m
 -2 X s 1447 76 m -2 X s 1447 81 m -2 X s 1450 86 m -5 X s 1447 91 m -2 X s 1447 96 m -2 X s 1447 100 m -2 X s 1447 105 m -2 X s 1450 110 m -5 X s 1447 115 m -2 X s 1447 120 m -2 X s 1447 125 m -2 X s 1447 130 m -2 X s 1450 135 m -5 X s 1447 140 m -2
 X s 1447 145 m -2 X s 1447 150 m -2 X s 1447 155 m -2 X s 1450 160 m -5 X s 1447 165 m -2 X s 1447 170 m -2 X s 1447 175 m -2 X s 1447 180 m -2 X s 1450 185 m -5 X s 1447 190 m -2 X s 1447 195 m -2 X s 1447 200 m -2 X s 1447 205 m -2 X s 1450 210 m
 -5 X s 1447 215 m -2 X s 1447 220 m -2 X s 1447 225 m -2 X s 1447 230 m -2 X s 1450 234 m -5 X s 1447 239 m -2 X s 1447 244 m -2 X s 1447 249 m -2 X s 1447 254 m -2 X s 1450 259 m -5 X s 1447 264 m -2 X s 1447 269 m -2 X s 1447 274 m -2 X s 1447 279
 m -2 X s 1450 284 m -5 X s 1450 61 m -5 X s 1450 284 m -5 X s
 gsave  408 306 1383 13 C 1390.26 54.1289 t 0 r /Helvetica findfont 22.8295 sf 0 0 m (\2550.03) show NC gr 
 gsave  408 306 1383 13 C 1390.26 79.7689 t 0 r /Helvetica findfont 22.8295 sf 0 0 m (\2550.02) show NC gr 
 gsave  408 306 1383 13 C 1393.11 102.56 t 0 r /Helvetica findfont 22.8295 sf 0 0 m (\2550.01) show NC gr 
 gsave  408 306 1383 13 C 1427.29 128.2 t 0 r /Helvetica findfont 22.8295 sf 0 0 m (0) show NC gr 
 gsave  408 306 1383 13 C 1398.81 153.84 t 0 r /Helvetica findfont 22.8295 sf 0 0 m (0.01) show NC gr 
 gsave  408 306 1383 13 C 1395.96 176.631 t 0 r /Helvetica findfont 22.8295 sf 0 0 m (0.02) show NC gr 
 gsave  408 306 1383 13 C 1395.96 202.271 t 0 r /Helvetica findfont 22.8295 sf 0 0 m (0.03) show NC gr 
 gsave  408 306 1383 13 C 1395.96 227.911 t 0 r /Helvetica findfont 22.8295 sf 0 0 m (0.04) show NC gr 
 gsave  408 306 1383 13 C 1395.96 253.551 t 0 r /Helvetica findfont 22.8295 sf 0 0 m (0.05) show NC gr 
 gsave  408 306 1383 13 C 1395.96 276.342 t 0 r /Helvetica findfont 22.8295 sf 0 0 m (0.06) show NC gr  1751 59 m 229 Y s 1745 61 m 6 X s 1748 66 m 3 X s 1748 71 m 3 X s 1748 76 m 3 X s 1748 81 m 3 X s 1745 86 m 6 X s 1748 91 m 3 X s 1748 96 m 3 X s
 1748 100 m 3 X s 1748 105 m 3 X s 1745 110 m 6 X s 1748 115 m 3 X s 1748 120 m 3 X s 1748 125 m 3 X s 1748 130 m 3 X s 1745 135 m 6 X s 1748 140 m 3 X s 1748 145 m 3 X s 1748 150 m 3 X s 1748 155 m 3 X s 1745 160 m 6 X s 1748 165 m 3 X s 1748 170 m
 3 X s 1748 175 m 3 X s 1748 180 m 3 X s 1745 185 m 6 X s 1748 190 m 3 X s 1748 195 m 3 X s 1748 200 m 3 X s 1748 205 m 3 X s 1745 210 m 6 X s 1748 215 m 3 X s 1748 220 m 3 X s 1748 225 m 3 X s 1748 230 m 3 X s 1745 234 m 6 X s 1748 239 m 3 X s 1748
 244 m 3 X s 1748 249 m 3 X s 1748 254 m 3 X s 1745 259 m 6 X s 1748 264 m 3 X s 1748 269 m 3 X s 1748 274 m 3 X s 1748 279 m 3 X s 1745 284 m 6 X s 1745 61 m 6 X s 1745 284 m 6 X s 1515 210 1586 206 1727 135 3 { m21} R 1515 222 m 47 Y s 1510 269 m
 11 X s 1515 199 m -47 Y s 1510 152 m 11 X s 1586 218 m 47 Y s 1580 265 m 12 X s 1586 195 m -47 Y s 1580 148 m 12 X s 1727 146 m 45 Y s 1722 191 m 11 X s 1727 123 m -45 Y s 1722 78 m 11 X s 9 lw 0.95 0.95 0.95 c black 1446 135 m 3 1 d 3 X 3 1 d 3 X 3
 1 d 6 X 4 1 d 3 X 3 1 d 6 X 3 1 d 3 X 3 1 d 3 X 3 1 d 6 X 3 1 d 3 X 3 1 d 7 X 3 1 d 3 X 3 1 d 6 X 3 1 d 3 X 3 1 d 3 X 3 1 d 6 X 3 1 d 3 X 3 1 d 7 X 3 1 d 3 X 3 1 d 3 X 3 1 d 6 X 3 1 d s 1596 156 m 3 X 3 1 d 6 X 3 1 d 3 X 4 1 d 3 X 3 1 d 6 X 3 1 d 3
 X 3 1 d 6 X 3 1 d 3 X 3 1 d 3 X 3 1 d 6 X 4 1 d 3 X 3 1 d 6 X 3 1 d 3 X 3 1 d 3 X 3 1 d 6 X 3 1 d 3 X 3 1 d 7 X 3 1 d 3 X 3 1 d 3 X 3 1 d 6 X 3 1 d 3 X s 1746 176 m 3 1 d s 0.49 0.6 0.82 c black 0.49 0.6 0.82 c
 gsave  408 306 1383 13 C 1504.21 296.285 t 0 r /Helvetica-Bold findfont 25.6831 sf 0 0 m (9.0 < E < 9.5 GeV) show NC gr  0.52 0.76 0.64 c black 0.52 0.76 0.64 c
 gsave  408 306 1383 13 C 1489.97 259.249 t 0 r /Helvetica-Bold findfont 25.6831 sf 0 0 m 
 220 206 192 185 170 163 148 141 126 118 111 97 83 69 61 47 40 25 18
(A = 0.008, p = 1.000) K NC gr  1 0.6 1 c black 1 0.6 1 c
 gsave  408 306 1383 13 C 1789.1 128.2 t 90 r /Helvetica-Bold findfont 28.5368 sf 0 0 m (/dof=1.3) show NC gr  black 1 0.6 1 c
 gsave  408 306 1383 13 C 1777.71 116.804 t 90 r /Helvetica-Bold findfont 19.9758 sf 0 0 m (2) show NC gr  black 1 0.6 1 c
 gsave  408 306 1383 13 C 1789.1 99.7112 t 90 r /Symbol findfont 28.5368 sf 0 0 m (c) show NC gr  black 3 lw 1 1 1 c 408 306 1837 13 bf black 1 1 1 c black 306 229 1898 59 bl 306 229 1898 59 bl 1898 59 m 306 X s 1898 63 m -4 Y s 2039 63 m -4 Y s 2181
 63 m -4 Y s 2181 63 m -4 Y s
 gsave  408 306 1837 13 C 1888.81 39.8845 t 0 r /Helvetica findfont 22.8295 sf 0 0 m (0) show NC gr 
 gsave  408 306 1837 13 C 2031.26 39.8845 t 0 r /Helvetica findfont 22.8295 sf 0 0 m (1) show NC gr 
 gsave  408 306 1837 13 C 2170.85 39.8845 t 0 r /Helvetica findfont 22.8295 sf 0 0 m (2) show NC gr  1898 288 m 306 X s 1898 284 m 4 Y s 2039 284 m 4 Y s 2181 284 m 4 Y s 2181 284 m 4 Y s 1898 59 m 229 Y s 1904 78 m -6 X s 1901 83 m -3 X s 1901 88 m
 -3 X s 1901 93 m -3 X s 1901 98 m -3 X s 1904 103 m -6 X s 1901 108 m -3 X s 1901 113 m -3 X s 1901 118 m -3 X s 1901 123 m -3 X s 1904 128 m -6 X s 1901 133 m -3 X s 1901 138 m -3 X s 1901 143 m -3 X s 1901 148 m -3 X s 1904 153 m -6 X s 1901 158 m
 -3 X s 1901 163 m -3 X s 1901 168 m -3 X s 1901 173 m -3 X s 1904 178 m -6 X s 1901 183 m -3 X s 1901 188 m -3 X s 1901 193 m -3 X s 1901 198 m -3 X s 1904 204 m -6 X s 1901 209 m -3 X s 1901 214 m -3 X s 1901 219 m -3 X s 1901 224 m -3 X s 1904 229
 m -6 X s 1901 234 m -3 X s 1901 239 m -3 X s 1901 244 m -3 X s 1901 249 m -3 X s 1904 254 m -6 X s 1901 259 m -3 X s 1901 264 m -3 X s 1901 269 m -3 X s 1901 274 m -3 X s 1904 279 m -6 X s 1904 78 m -6 X s 1901 73 m -3 X s 1901 68 m -3 X s 1901 63 m
 -3 X s 1904 279 m -6 X s 1901 284 m -3 X s
 gsave  408 306 1837 13 C 1843.23 71.2223 t 0 r /Helvetica findfont 22.8295 sf 0 0 m (\2550.05) show NC gr 
 gsave  408 306 1837 13 C 1843.23 96.8623 t 0 r /Helvetica findfont 22.8295 sf 0 0 m (\2550.04) show NC gr 
 gsave  408 306 1837 13 C 1843.23 119.653 t 0 r /Helvetica findfont 22.8295 sf 0 0 m (\2550.03) show NC gr 
 gsave  408 306 1837 13 C 1843.23 145.293 t 0 r /Helvetica findfont 22.8295 sf 0 0 m (\2550.02) show NC gr 
 gsave  408 306 1837 13 C 1846.08 170.933 t 0 r /Helvetica findfont 22.8295 sf 0 0 m (\2550.01) show NC gr 
 gsave  408 306 1837 13 C 1880.27 196.573 t 0 r /Helvetica findfont 22.8295 sf 0 0 m (0) show NC gr 
 gsave  408 306 1837 13 C 1851.78 222.213 t 0 r /Helvetica findfont 22.8295 sf 0 0 m (0.01) show NC gr 
 gsave  408 306 1837 13 C 1848.93 247.853 t 0 r /Helvetica findfont 22.8295 sf 0 0 m (0.02) show NC gr 
 gsave  408 306 1837 13 C 1848.93 270.645 t 0 r /Helvetica findfont 22.8295 sf 0 0 m (0.03) show NC gr  2204 59 m 229 Y s 2199 78 m 5 X s 2201 83 m 3 X s 2201 88 m 3 X s 2201 93 m 3 X s 2201 98 m 3 X s 2199 103 m 5 X s 2201 108 m 3 X s 2201 113 m 3 X
 s 2201 118 m 3 X s 2201 123 m 3 X s 2199 128 m 5 X s 2201 133 m 3 X s 2201 138 m 3 X s 2201 143 m 3 X s 2201 148 m 3 X s 2199 153 m 5 X s 2201 158 m 3 X s 2201 163 m 3 X s 2201 168 m 3 X s 2201 173 m 3 X s 2199 178 m 5 X s 2201 183 m 3 X s 2201 188
 m 3 X s 2201 193 m 3 X s 2201 198 m 3 X s 2199 204 m 5 X s 2201 209 m 3 X s 2201 214 m 3 X s 2201 219 m 3 X s 2201 224 m 3 X s 2199 229 m 5 X s 2201 234 m 3 X s 2201 239 m 3 X s 2201 244 m 3 X s 2201 249 m 3 X s 2199 254 m 5 X s 2201 259 m 3 X s
 2201 264 m 3 X s 2201 269 m 3 X s 2201 274 m 3 X s 2199 279 m 5 X s 2199 78 m 5 X s 2201 73 m 3 X s 2201 68 m 3 X s 2201 63 m 3 X s 2199 279 m 5 X s 2201 284 m 3 X s 1969 208 2039 137 2181 205 3 { m21} R 1969 219 m 50 Y s 1963 269 m 11 X s 1969 197
 m -50 Y s 1963 147 m 11 X s 2039 149 m 47 Y s 2034 196 m 11 X s 2039 126 m -48 Y s 2034 78 m 11 X s 2181 216 m 50 Y s 2175 266 m 12 X s 2181 193 m -49 Y s 2175 144 m 12 X s 9 lw 0.95 0.95 0.95 c black 1900 203 m 9 X 3 -1 d 9 X 3 -1 d 6 X 3 -1 d 9 X
 4 -1 d 9 X 3 -1 d 9 X 3 -1 d 6 X 3 -1 d 9 X 3 -1 d 10 X 3 -1 d 9 X 3 -1 d 6 X 3 -1 d 9 X 3 -1 d 10 X 3 -1 d s 2050 190 m 9 X 3 -1 d 6 X 3 -1 d 9 X 3 -1 d 9 X 4 -1 d 9 X 3 -1 d 6 X 3 -1 d 9 X 3 -1 d 9 X 3 -1 d 10 X 3 -1 d 6 X 3 -1 d 9 X 3 -1 d 9 X 3
 -1 d 10 X 3 -1 d s 2200 177 m 3 X s 0.49 0.6 0.82 c black 0.49 0.6 0.82 c
 gsave  408 306 1837 13 C 1948.64 296.285 t 0 r /Helvetica-Bold findfont 25.6831 sf 0 0 m (9.5 < E < 10.0 GeV) show NC gr  0.52 0.76 0.64 c black 0.52 0.76 0.64 c
 gsave  408 306 1837 13 C 1937.25 259.249 t 0 r /Helvetica-Bold findfont 25.6831 sf 0 0 m 
 228 214 200 193 178 171 156 149 133 126 119 105 91 77 69 55 47 39 25 17
(A = \2550.005, p = 1.000) K NC gr  1 0.6 1 c black 1 0.6 1 c
 gsave  408 306 1837 13 C 2242.08 128.2 t 90 r /Helvetica-Bold findfont 28.5368 sf 0 0 m (/dof=0.5) show NC gr  black 1 0.6 1 c
 gsave  408 306 1837 13 C 2230.68 116.804 t 90 r /Helvetica-Bold findfont 19.9758 sf 0 0 m (2) show NC gr  black 1 0.6 1 c
 gsave  408 306 1837 13 C 2242.08 99.7112 t 90 r /Symbol findfont 28.5368 sf 0 0 m (c) show NC gr 
 gr  gr showpage
end
%%EOF
