%!PS-Adobe-2.0 EPSF-2.0
%%BoundingBox:  0 0 567 332
%%Title: Horn2YTilt_nof_summary.eps: Summary
%%Creator: ROOT Version 5.30/06
%%CreationDate: Sun Feb  2 09:29:34 2014
%%EndComments
%%BeginProlog
80 dict begin
/s {stroke} def /l {lineto} def /m {moveto} def /t {translate} def
/r {rotate} def /rl {roll}  def /R {repeat} def
/d {rlineto} def /rm {rmoveto} def /gr {grestore} def /f {eofill} def
/c {setrgbcolor} def /black {0 setgray} def /sd {setdash} def
/cl {closepath} def /sf {scalefont setfont} def /lw {setlinewidth} def
/box {m dup 0 exch d exch 0 d 0 exch neg d cl} def
/NC{systemdict begin initclip end}def/C{NC box clip newpath}def
/bl {box s} def /bf {box f} def /Y { 0 exch d} def /X { 0 d} def 
/K {{pop pop 0 moveto} exch kshow} bind def
/ita {/ang 15 def gsave [1 0 ang dup sin exch cos div 1 0 0] concat} def 
/mp {newpath /y exch def /x exch def} def
/side {[w .77 mul w .23 mul] .385 w mul sd w 0 l currentpoint t -144 r} def
/mr {mp x y w2 0 360 arc} def /m24 {mr s} def /m20 {mr f} def
/mb {mp x y w2 add m w2 neg 0 d 0 w neg d w 0 d 0 w d cl} def
/mt {mp x y w2 add m w2 neg w neg d w 0 d cl} def
/m21 {mb f} def /m25 {mb s} def /m22 {mt f} def /m26{mt s} def
/m23 {mp x y w2 sub m w2 w d w neg 0 d cl f} def
/m27 {mp x y w2 add m w3 neg w2 neg d w3 w2 neg d w3 w2 d cl s} def
/m28 {mp x w2 sub y w2 sub w3 add m w3 0 d  0 w3 neg d w3 0 d 0 w3 d w3 0 d  0 w3 d w3 neg 0 d 0 w3 d w3 neg 0 d 0 w3 neg d w3 neg 0 d cl s } def
/m29 {mp gsave x w2 sub y w2 add w3 sub m currentpoint t 4 {side} repeat cl fill gr} def
/m30 {mp gsave x w2 sub y w2 add w3 sub m currentpoint t 4 {side} repeat cl s gr} def
/m31 {mp x y w2 sub m 0 w d x w2 sub y m w 0 d x w2 sub y w2 add m w w neg d x w2 sub y w2 sub m w w d s} def
/m32 {mp x y w2 sub m w2 w d w neg 0 d cl s} def
/m33 {mp x y w2 add m w3 neg w2 neg d w3 w2 neg d w3 w2 d cl f} def
/m34 {mp x w2 sub y w2 sub w3 add m w3 0 d  0 w3 neg d w3 0 d 0 w3 d w3 0 d  0 w3 d w3 neg 0 d 0 w3 d w3 neg 0 d 0 w3 neg d w3 neg 0 d cl f } def
/m2 {mp x y w2 sub m 0 w d x w2 sub y m w 0 d s} def
/m5 {mp x w2 sub y w2 sub m w w d x w2 sub y w2 add m w w neg d s} def
/reEncode {exch findfont dup length dict begin {1 index /FID eq  {pop pop} {def} ifelse } forall /Encoding exch def currentdict end dup /FontName get exch definefont pop } def [/Times-Bold /Times-Italic /Times-BoldItalic /Helvetica /Helvetica-Oblique
 /Helvetica-Bold /Helvetica-BoldOblique /Courier /Courier-Oblique /Courier-Bold /Courier-BoldOblique /Times-Roman /AvantGarde-Book /AvantGarde-BookOblique /AvantGarde-Demi /AvantGarde-DemiOblique /Bookman-Demi /Bookman-DemiItalic /Bookman-Light
 /Bookman-LightItalic /Helvetica-Narrow /Helvetica-Narrow-Bold /Helvetica-Narrow-BoldOblique /Helvetica-Narrow-Oblique /NewCenturySchlbk-Roman /NewCenturySchlbk-Bold /NewCenturySchlbk-BoldItalic /NewCenturySchlbk-Italic /Palatino-Bold
 /Palatino-BoldItalic /Palatino-Italic /Palatino-Roman ] {ISOLatin1Encoding reEncode } forall%%EndProlog
%%BeginSetup
%%EndSetup
newpath  gsave  .25 .25 scale  gsave  0 0 t black[  ] 0 sd 3 lw 1 1 1 c 2268 1328 0 0 bf black 1 1 1 c black 1588 996 340 199 bl 1588 996 340 199 bl 1 1 1 c 1 0 0 c /w 23 def /w2 {w 2 div} def /w3 {w 3 div} def 380 340 m21 459 342 m21 539 339 m21 618
 341 m21 697 343 m21 777 337 m21 black 856 333 m 1 Y s 856 356 m s 850 333 m 12 X s 850 356 m 12 X s 1 0 0 c 856 345 m21 black 935 335 m 2 Y s 935 360 m 3 Y s 930 335 m 11 X s 930 363 m 11 X s 1 0 0 c 935 349 m21 black 1015 315 m 7 Y s 1015 345 m 7 Y
 s 1009 315 m 12 X s 1009 352 m 12 X s 1 0 0 c 1015 333 m21 black 1094 335 m 13 Y s 1094 371 m 14 Y s 1088 335 m 12 X s 1088 385 m 12 X s 1 0 0 c 1094 360 m21 black 1174 303 m 21 Y s 1174 347 m 22 Y s 1168 303 m 11 X s 1168 369 m 11 X s 1 0 0 c 1174
 336 m21 black 1253 320 m 30 Y s 1253 373 m 30 Y s 1247 320 m 12 X s 1247 403 m 12 X s 1 0 0 c 1253 361 m21 black 1332 305 m 38 Y s 1332 365 m 38 Y s 1327 305 m 11 X s 1327 403 m 11 X s 1 0 0 c 1332 354 m21 black 1412 237 m 44 Y s 1412 304 m 44 Y s
 1406 237 m 11 X s 1406 348 m 11 X s 1 0 0 c 1412 293 m21 black 1491 314 m 51 Y s 1491 388 m 51 Y s 1485 314 m 12 X s 1485 439 m 12 X s 1 0 0 c 1491 377 m21 black 1570 297 m 57 Y s 1570 376 m 57 Y s 1565 297 m 11 X s 1565 433 m 11 X s 1 0 0 c 1570
 365 m21 black 1650 283 m 62 Y s 1650 367 m 62 Y s 1644 283 m 11 X s 1644 429 m 11 X s 1 0 0 c 1650 356 m21 black 1729 199 m 60 Y s 1729 281 m 63 Y s 1723 199 m 12 X s 1723 344 m 12 X s 1 0 0 c 1729 270 m21 black 1809 399 m 74 Y s 1809 496 m 75 Y s
 1803 399 m 11 X s 1803 571 m 11 X s 1 0 0 c 1809 485 m21 black 1888 224 m 75 Y s 1888 321 m 75 Y s 1882 224 m 12 X s 1882 396 m 12 X s 1 0 0 c 1888 310 m21 black 340 199 m 1588 X s
 gsave  2268 1328 0 0 C 954.378 68.3734 t 0 r /Helvetica findfont 62.6756 sf 0 0 m ( Energy \(GeV\) ) show NC gr 
 gsave  2268 1328 0 0 C 928.738 51.28 t 0 r /Symbol findfont 42.7334 sf 0 0 m (m) show NC gr 
 gsave  2268 1328 0 0 C 894.552 68.3734 t 0 r /Symbol findfont 62.6756 sf 0 0 m (n) show NC gr  340 216 m -17 Y s 372 208 m -9 Y s 404 208 m -9 Y s 435 208 m -9 Y s 467 208 m -9 Y s 499 216 m -17 Y s 531 208 m -9 Y s 562 208 m -9 Y s 594 208 m -9 Y s
 626 208 m -9 Y s 658 216 m -17 Y s 689 208 m -9 Y s 721 208 m -9 Y s 753 208 m -9 Y s 785 208 m -9 Y s 816 216 m -17 Y s 848 208 m -9 Y s 880 208 m -9 Y s 912 208 m -9 Y s 943 208 m -9 Y s 975 216 m -17 Y s 1007 208 m -9 Y s 1039 208 m -9 Y s 1070
 208 m -9 Y s 1102 208 m -9 Y s 1134 216 m -17 Y s 1166 208 m -9 Y s 1197 208 m -9 Y s 1229 208 m -9 Y s 1261 208 m -9 Y s 1293 216 m -17 Y s 1324 208 m -9 Y s 1356 208 m -9 Y s 1388 208 m -9 Y s 1420 208 m -9 Y s 1451 216 m -17 Y s 1483 208 m -9 Y s
 1515 208 m -9 Y s 1547 208 m -9 Y s 1578 208 m -9 Y s 1610 216 m -17 Y s 1642 208 m -9 Y s 1674 208 m -9 Y s 1705 208 m -9 Y s 1737 208 m -9 Y s 1769 216 m -17 Y s 1801 208 m -9 Y s 1832 208 m -9 Y s 1864 208 m -9 Y s 1896 208 m -9 Y s 1928 216 m
 -17 Y s
 gsave  2268 1328 0 0 C 319.076 136.747 t 0 r /Helvetica findfont 68.3734 sf 0 0 m (0) show NC gr 
 gsave  2268 1328 0 0 C 484.311 136.747 t 0 r /Helvetica findfont 68.3734 sf 0 0 m (1) show NC gr 
 gsave  2268 1328 0 0 C 635.302 136.747 t 0 r /Helvetica findfont 68.3734 sf 0 0 m (2) show NC gr 
 gsave  2268 1328 0 0 C 794.84 136.747 t 0 r /Helvetica findfont 68.3734 sf 0 0 m (3) show NC gr 
 gsave  2268 1328 0 0 C 954.378 136.747 t 0 r /Helvetica findfont 68.3734 sf 0 0 m (4) show NC gr 
 gsave  2268 1328 0 0 C 1113.92 136.747 t 0 r /Helvetica findfont 68.3734 sf 0 0 m (5) show NC gr 
 gsave  2268 1328 0 0 C 1270.6 136.747 t 0 r /Helvetica findfont 68.3734 sf 0 0 m (6) show NC gr 
 gsave  2268 1328 0 0 C 1430.14 136.747 t 0 r /Helvetica findfont 68.3734 sf 0 0 m (7) show NC gr 
 gsave  2268 1328 0 0 C 1589.68 136.747 t 0 r /Helvetica findfont 68.3734 sf 0 0 m (8) show NC gr 
 gsave  2268 1328 0 0 C 1746.37 136.747 t 0 r /Helvetica findfont 68.3734 sf 0 0 m (9) show NC gr 
 gsave  2268 1328 0 0 C 1888.81 136.747 t 0 r /Helvetica findfont 68.3734 sf 0 0 m (10) show NC gr  340 1195 m 1588 X s 340 1178 m 17 Y s 372 1186 m 9 Y s 404 1186 m 9 Y s 435 1186 m 9 Y s 467 1186 m 9 Y s 499 1178 m 17 Y s 531 1186 m 9 Y s 562 1186
 m 9 Y s 594 1186 m 9 Y s 626 1186 m 9 Y s 658 1178 m 17 Y s 689 1186 m 9 Y s 721 1186 m 9 Y s 753 1186 m 9 Y s 785 1186 m 9 Y s 816 1178 m 17 Y s 848 1186 m 9 Y s 880 1186 m 9 Y s 912 1186 m 9 Y s 943 1186 m 9 Y s 975 1178 m 17 Y s 1007 1186 m 9 Y s
 1039 1186 m 9 Y s 1070 1186 m 9 Y s 1102 1186 m 9 Y s 1134 1178 m 17 Y s 1166 1186 m 9 Y s 1197 1186 m 9 Y s 1229 1186 m 9 Y s 1261 1186 m 9 Y s 1293 1178 m 17 Y s 1324 1186 m 9 Y s 1356 1186 m 9 Y s 1388 1186 m 9 Y s 1420 1186 m 9 Y s 1451 1178 m
 17 Y s 1483 1186 m 9 Y s 1515 1186 m 9 Y s 1547 1186 m 9 Y s 1578 1186 m 9 Y s 1610 1178 m 17 Y s 1642 1186 m 9 Y s 1674 1186 m 9 Y s 1705 1186 m 9 Y s 1737 1186 m 9 Y s 1769 1178 m 17 Y s 1801 1186 m 9 Y s 1832 1186 m 9 Y s 1864 1186 m 9 Y s 1896
 1186 m 9 Y s 1928 1178 m 17 Y s 340 199 m 996 Y s
 gsave  2268 1328 0 0 C 170.933 336.169 t 90 r /Helvetica findfont 62.6756 sf 0 0 m (Near/Far Ratio to Nominal) show NC gr  371 199 m -31 X s 355 228 m -15 X s 355 256 m -15 X s 355 284 m -15 X s 355 313 m -15 X s 371 341 m -31 X s 355 370 m -15 X s
 355 398 m -15 X s 355 427 m -15 X s 355 455 m -15 X s 371 484 m -31 X s 355 512 m -15 X s 355 541 m -15 X s 355 569 m -15 X s 355 597 m -15 X s 371 626 m -31 X s 355 654 m -15 X s 355 683 m -15 X s 355 711 m -15 X s 355 740 m -15 X s 371 768 m -31 X
 s 355 797 m -15 X s 355 825 m -15 X s 355 853 m -15 X s 355 882 m -15 X s 371 910 m -31 X s 355 939 m -15 X s 355 967 m -15 X s 355 996 m -15 X s 355 1024 m -15 X s 371 1053 m -31 X s 355 1081 m -15 X s 355 1109 m -15 X s 355 1138 m -15 X s 355 1166
 m -15 X s 371 1195 m -31 X s 371 199 m -31 X s
 gsave  2268 1328 0 0 C 196.573 173.782 t 0 r /Helvetica findfont 68.3734 sf 0 0 m (0.95) show NC gr 
 gsave  2268 1328 0 0 C 301.982 313.378 t 0 r /Helvetica findfont 68.3734 sf 0 0 m (1) show NC gr 
 gsave  2268 1328 0 0 C 196.573 458.671 t 0 r /Helvetica findfont 68.3734 sf 0 0 m (1.05) show NC gr 
 gsave  2268 1328 0 0 C 245.005 598.267 t 0 r /Helvetica findfont 68.3734 sf 0 0 m (1.1) show NC gr 
 gsave  2268 1328 0 0 C 196.573 743.56 t 0 r /Helvetica findfont 68.3734 sf 0 0 m (1.15) show NC gr 
 gsave  2268 1328 0 0 C 233.609 883.156 t 0 r /Helvetica findfont 68.3734 sf 0 0 m (1.2) show NC gr 
 gsave  2268 1328 0 0 C 196.573 1028.45 t 0 r /Helvetica findfont 68.3734 sf 0 0 m (1.25) show NC gr 
 gsave  2268 1328 0 0 C 233.609 1170.89 t 0 r /Helvetica findfont 68.3734 sf 0 0 m (1.3) show NC gr  1928 199 m 996 Y s 1897 199 m 31 X s 1912 228 m 16 X s 1912 256 m 16 X s 1912 284 m 16 X s 1912 313 m 16 X s 1897 341 m 31 X s 1912 370 m 16 X s 1912
 398 m 16 X s 1912 427 m 16 X s 1912 455 m 16 X s 1897 484 m 31 X s 1912 512 m 16 X s 1912 541 m 16 X s 1912 569 m 16 X s 1912 597 m 16 X s 1897 626 m 31 X s 1912 654 m 16 X s 1912 683 m 16 X s 1912 711 m 16 X s 1912 740 m 16 X s 1897 768 m 31 X s
 1912 797 m 16 X s 1912 825 m 16 X s 1912 853 m 16 X s 1912 882 m 16 X s 1897 910 m 31 X s 1912 939 m 16 X s 1912 967 m 16 X s 1912 996 m 16 X s 1912 1024 m 16 X s 1897 1053 m 31 X s 1912 1081 m 16 X s 1912 1109 m 16 X s 1912 1138 m 16 X s 1912 1166
 m 16 X s 1897 1195 m 31 X s 1897 199 m 31 X s 1 0 0 c 6 lw 1 1 1 c 1 0 0 c 380 341 m 266 X 42 1 d 89 X 79 -1 d 112 X 14 -1 d 19 X 7 1 d 12 X 6 1 d 8 1 d 9 1 d 20 4 d 7 1 d 7 1 d 6 X 5 1 d 18 X 6 -1 d 7 -1 d 9 -1 d 15 -2 d 12 -1 d 9 -1 d 6 -1 d 4 X
 10 -1 d 12 X 16 -1 d 33 -1 d 21 X 38 -2 d 10 -1 d 18 X 9 1 d 9 X 13 1 d 19 1 d 18 2 d 12 1 d 31 1 d 37 2 d 11 X 9 1 d 12 1 d 18 1 d 9 1 d 31 X 6 -1 d 5 -1 d 6 -1 d 63 -14 d 5 -2 d 6 -1 d 8 -2 d 20 -7 d 6 -1 d 5 -2 d 5 X 3 -1 d 4 -1 d 17 X 3 1 d 2 X
 3 1 d 2 1 d 3 1 d 3 1 d 2 1 d 3 2 d 3 2 d 3 3 d 4 3 d 5 5 d 8 8 d 4 3 d 3 3 d 3 2 d 2 2 d 3 1 d 3 2 d 2 1 d 2 1 d 3 X 3 1 d 5 X 3 1 d 4 -1 d 8 X 4 -1 d 4 -1 d 4 -1 d 4 -1 d 4 -2 d 4 -1 d 4 -2 d 4 -2 d 3 -2 d 4 -2 d 3 -2 d 3 -2 d 3 -3 d 2 -2 d 3 -3 d
 2 -2 d 2 -3 d 2 -3 d 2 -3 d 2 -3 d 1 -3 d 1 -3 d 1 -3 d -3 Y 1 -3 d s 3 lw /w 2 def /w2 {w 2 div} def /w3 {w 3 div} def 380 341 459 341 539 341 618 341 697 342 777 342 856 341 935 341 1015 341 1094 351 1174 343 1253 340 1332 337 1412 343 1491 346
 1570 350 1650 333 1729 316 1809 362 1888 305 20 { m20} R 6 lw black 1 0 0 c
 gsave  2268 1328 0 0 C 2036.96 450.125 t 0 r /Helvetica-Bold findfont 48.4311 sf 0 0 m (/dof=0.3) show NC gr  black 1 0 0 c
 gsave  2268 1328 0 0 C 2017.01 467.218 t 0 r /Helvetica-Bold findfont 34.1867 sf 0 0 m (2) show NC gr  black 1 0 0 c
 gsave  2268 1328 0 0 C 1991.37 450.125 t 0 r /Symbol findfont 48.4311 sf 0 0 m (c) show NC gr  black 3 lw 340 341 m 1588 X s
 gsave  2268 1328 0 0 C 575.476 1213.63 t 0 r /Helvetica-Bold findfont 42.7334 sf 0 0 m (0.5 mm) show NC gr  1 0 0 c /w 23 def /w2 {w 2 div} def /w3 {w 3 div} def 534 1228 m21 black 1 1 1 c 0 0 1 c 380 625 m21 459 623 m21 539 622 m21 618 629 m21 697
 630 m21 777 620 m21 black 856 619 m 2 Y s 856 643 m 2 Y s 850 619 m 12 X s 850 645 m 12 X s 0 0 1 c 856 632 m21 black 935 604 m 4 Y s 935 631 m 3 Y s 930 604 m 11 X s 930 634 m 11 X s 0 0 1 c 935 619 m21 black 1015 619 m 9 Y s 1015 650 m 9 Y s 1009
 619 m 12 X s 1009 659 m 12 X s 0 0 1 c 1015 639 m21 black 1094 624 m 16 Y s 1094 663 m 16 Y s 1088 624 m 12 X s 1088 679 m 12 X s 0 0 1 c 1094 652 m21 black 1174 608 m 24 Y s 1174 655 m 25 Y s 1168 608 m 11 X s 1168 680 m 11 X s 0 0 1 c 1174 644 m21
 black 1253 569 m 33 Y s 1253 625 m 33 Y s 1247 569 m 12 X s 1247 658 m 12 X s 0 0 1 c 1253 613 m21 black 1332 626 m 43 Y s 1332 691 m 43 Y s 1327 626 m 11 X s 1327 734 m 11 X s 0 0 1 c 1332 680 m21 black 1412 464 m 48 Y s 1412 535 m 48 Y s 1406 464
 m 11 X s 1406 583 m 11 X s 0 0 1 c 1412 523 m21 black 1491 612 m 58 Y s 1491 693 m 58 Y s 1485 612 m 12 X s 1485 751 m 12 X s 0 0 1 c 1491 682 m21 black 1570 570 m 63 Y s 1570 656 m 63 Y s 1565 570 m 11 X s 1565 719 m 11 X s 0 0 1 c 1570 645 m21
 black 1650 431 m 64 Y s 1650 518 m 65 Y s 1644 431 m 11 X s 1644 583 m 11 X s 0 0 1 c 1650 507 m21 black 1729 540 m 73 Y s 1729 636 m 74 Y s 1723 540 m 12 X s 1723 710 m 12 X s 0 0 1 c 1729 625 m21 black 1809 690 m 84 Y s 1809 797 m 83 Y s 1803 690
 m 11 X s 1803 880 m 11 X s 0 0 1 c 1809 785 m21 black 1888 377 m 79 Y s 1888 479 m 79 Y s 1882 377 m 12 X s 1882 558 m 12 X s 0 0 1 c 1888 467 m21 6 lw 1 1 1 c 0 0 1 c 380 626 m 33 -1 d 73 X 44 1 d 9 X 71 -1 d 8 X 22 1 d 49 1 d 8 X 46 1 d 19 X 15 -1
 d 14 X 29 -2 d 18 -2 d 43 X 37 2 d 13 1 d 14 X 10 -1 d 32 -2 d 23 X 5 1 d 5 1 d 6 1 d 7 2 d 8 3 d 16 6 d 9 4 d 7 2 d 7 2 d 5 1 d 5 X 4 1 d 5 X 75 -18 d 11 -2 d 13 -1 d 23 -2 d 20 -2 d 12 -2 d 8 -1 d 11 -2 d 28 -6 d 8 -2 d 8 X 6 -1 d 10 X 6 1 d 5 1 d
 7 1 d 7 2 d 9 3 d 16 6 d 10 4 d 7 2 d 6 2 d 7 1 d 9 2 d 10 1 d 12 1 d 48 2 d 8 1 d 11 2 d 21 3 d 9 1 d 7 1 d 19 X 4 -1 d 6 -1 d 5 -2 d 6 -2 d 63 -32 d 5 -3 d 6 -3 d 8 -5 d 20 -14 d 6 -4 d 5 -3 d 5 -2 d 3 -1 d 4 -1 d 4 -1 d 11 X 2 1 d 3 1 d 2 1 d 3 1
 d 2 2 d 3 2 d 3 3 d 2 3 d 3 4 d 3 5 d 3 5 d 4 8 d 5 10 d 8 18 d 4 7 d 3 6 d 3 4 d 2 4 d 3 4 d 3 3 d 2 2 d 2 2 d 3 2 d 3 1 d 2 1 d 10 X 4 -1 d 4 -1 d 4 -1 d 4 -2 d 4 -2 d 4 -3 d 4 -3 d 4 -4 d 4 -4 d 4 -4 d 3 -4 d 4 -5 d 3 -4 d 3 -5 d 3 -5 d 2 -6 d 3
 -6 d 2 -6 d 2 -6 d 2 -6 d 2 -7 d 2 -6 d 1 -6 d 1 -7 d 1 -7 d -6 Y 1 -7 d s 3 lw /w 2 def /w2 {w 2 div} def /w3 {w 3 div} def 380 626 459 625 539 626 618 625 697 627 777 627 856 623 935 626 1015 624 1094 647 1174 629 1253 620 1332 608 1412 631 1491
 637 1570 644 1650 607 1729 571 1809 670 1888 546 20 { m20} R 6 lw black 0 0 1 c
 gsave  2268 1328 0 0 C 2036.96 780.596 t 0 r /Helvetica-Bold findfont 48.4311 sf 0 0 m (/dof=0.6) show NC gr  black 0 0 1 c
 gsave  2268 1328 0 0 C 2017.01 797.689 t 0 r /Helvetica-Bold findfont 34.1867 sf 0 0 m (2) show NC gr  black 0 0 1 c
 gsave  2268 1328 0 0 C 1991.37 780.596 t 0 r /Symbol findfont 48.4311 sf 0 0 m (c) show NC gr  black 3 lw 340 626 m 1588 X s
 gsave  2268 1328 0 0 C 1179.44 1213.63 t 0 r /Helvetica-Bold findfont 39.8845 sf 0 0 m (1 mm) show NC gr  0 0 1 c /w 23 def /w2 {w 2 div} def /w3 {w 3 div} def 1139 1228 m21 black 1 1 1 c 1 0 1 c 380 912 m21 459 909 m21 539 913 m21 618 907 m21 697
 911 m21 black 777 907 m 1 Y s 777 930 m 1 Y s 771 907 m 11 X s 771 931 m 11 X s 1 0 1 c 777 919 m21 black 856 881 m 2 Y s 856 906 m 2 Y s 850 881 m 12 X s 850 908 m 12 X s 1 0 1 c 856 894 m21 black 935 895 m 5 Y s 935 923 m 5 Y s 930 895 m 11 X s
 930 928 m 11 X s 1 0 1 c 935 912 m21 black 1015 876 m 10 Y s 1015 909 m 11 Y s 1009 876 m 12 X s 1009 920 m 12 X s 1 0 1 c 1015 898 m21 black 1094 920 m 19 Y s 1094 961 m 19 Y s 1088 920 m 12 X s 1088 980 m 12 X s 1 0 1 c 1094 950 m21 black 1174 872
 m 27 Y s 1174 922 m 28 Y s 1168 872 m 11 X s 1168 950 m 11 X s 1 0 1 c 1174 911 m21 black 1253 838 m 37 Y s 1253 898 m 37 Y s 1247 838 m 12 X s 1247 935 m 12 X s 1 0 1 c 1253 887 m21 black 1332 758 m 45 Y s 1332 826 m 45 Y s 1327 758 m 11 X s 1327
 871 m 11 X s 1 0 1 c 1332 815 m21 black 1412 902 m 56 Y s 1412 981 m 57 Y s 1406 902 m 11 X s 1406 1038 m 11 X s 1 0 1 c 1412 970 m21 black 1491 829 m 63 Y s 1491 914 m 63 Y s 1485 829 m 12 X s 1485 977 m 12 X s 1 0 1 c 1491 903 m21 black 1570 864 m
 69 Y s 1570 956 m 69 Y s 1565 864 m 11 X s 1565 1025 m 11 X s 1 0 1 c 1570 944 m21 black 1650 834 m 75 Y s 1650 932 m 75 Y s 1644 834 m 11 X s 1644 1007 m 11 X s 1 0 1 c 1650 921 m21 black 1729 689 m 77 Y s 1729 789 m 77 Y s 1723 689 m 12 X s 1723
 866 m 12 X s 1 0 1 c 1729 777 m21 black 1809 821 m 86 Y s 1809 930 m 86 Y s 1803 821 m 11 X s 1803 1016 m 11 X s 1 0 1 c 1809 918 m21 black 1888 680 m 88 Y s 1888 791 m 88 Y s 1882 680 m 12 X s 1882 879 m 12 X s 1 0 1 c 1888 780 m21 6 lw 1 1 1 c 1 0
 1 c 380 911 m 30 -1 d 31 -1 d 41 X 42 2 d 35 X 50 -3 d 9 X 16 1 d 26 1 d 37 3 d 22 2 d 25 2 d 33 X 9 -2 d 11 -2 d 19 -7 d 16 -5 d 9 -2 d 8 -1 d 7 -1 d 8 X 10 1 d 10 2 d 16 4 d 16 4 d 9 1 d 9 1 d 1 X 59 -10 d 7 -1 d 7 1 d 6 1 d 1 X 5 2 d 5 3 d 6 4 d
 8 6 d 9 9 d 14 12 d 8 7 d 6 4 d 6 4 d 5 2 d 4 1 d 3 X 5 1 d 6 -1 d 6 -2 d 7 -3 d 8 -4 d 35 -23 d 8 -4 d 5 -2 d 12 -5 d 22 -8 d 20 -7 d 14 -5 d 11 -6 d 6 -3 d 6 -5 d 8 -7 d 26 -25 d 7 -5 d 6 -4 d 5 -2 d 5 -2 d 8 X 2 1 d 5 1 d 4 3 d 4 3 d 4 5 d 5 6 d
 6 7 d 6 11 d 14 23 d 7 11 d 5 9 d 5 7 d 5 5 d 4 4 d 4 3 d 2 1 d 5 3 d 5 2 d 6 1 d 7 1 d 8 X 11 -2 d 22 -3 d 15 X 7 1 d 9 2 d 17 7 d 11 4 d 8 2 d 7 1 d 12 X 5 -1 d 3 -1 d 6 -3 d 5 -3 d 6 -5 d 63 -71 d 5 -5 d 6 -8 d 8 -11 d 20 -30 d 6 -8 d 5 -6 d 5 -4
 d 3 -3 d 4 -3 d 4 -1 d 4 -1 d 4 X 3 1 d 2 1 d 3 2 d 2 2 d 3 3 d 2 4 d 3 5 d 3 6 d 2 7 d 3 9 d 3 10 d 3 13 d 4 15 d 5 22 d 8 40 d 4 16 d 3 12 d 3 10 d 2 9 d 3 7 d 3 7 d 2 5 d 2 4 d 3 4 d 3 2 d 2 2 d 3 1 d 3 X 4 -1 d 4 -1 d 4 -2 d 4 -3 d 4 -4 d 4 -5 d
 4 -7 d 4 -7 d 4 -7 d 4 -9 d 4 -8 d 3 -10 d 4 -9 d 3 -11 d 3 -11 d 3 -11 d 2 -12 d 3 -13 d 2 -13 d 2 -13 d 2 -14 d 2 -14 d 2 -13 d 1 -14 d 1 -15 d 1 -14 d -14 Y 1 -15 d s 3 lw /w 2 def /w2 {w 2 div} def /w3 {w 3 div} def 380 911 459 909 539 911 618
 908 697 913 777 917 856 897 935 910 1015 901 1094 955 1174 917 1253 886 1332 834 1412 933 1491 935 1570 950 1650 868 1729 790 1809 1007 1888 737 20 { m20} R 6 lw black 1 0 1 c
 gsave  2268 1328 0 0 C 2039.81 1113.92 t 0 r /Helvetica-Bold findfont 48.4311 sf 0 0 m (/dof=0.1) show NC gr  black 1 0 1 c
 gsave  2268 1328 0 0 C 2019.86 1131.01 t 0 r /Helvetica-Bold findfont 34.1867 sf 0 0 m (2) show NC gr  black 1 0 1 c
 gsave  2268 1328 0 0 C 1994.22 1113.92 t 0 r /Symbol findfont 48.4311 sf 0 0 m (c) show NC gr  black 3 lw 340 910 m 1588 X s
 gsave  2268 1328 0 0 C 1783.41 1213.63 t 0 r /Helvetica-Bold findfont 39.8845 sf 0 0 m (2 mm) show NC gr  1 0 1 c /w 23 def /w2 {w 2 div} def /w3 {w 3 div} def 1743 1228 m21
 gr  gr showpage
end
%%EOF
