%!PS-Adobe-2.0 EPSF-2.0
%%BoundingBox:  0 0 567 332
%%Title: Horn2YTilt_far_fits.eps: Fits
%%Creator: ROOT Version 5.30/06
%%CreationDate: Sun Feb  2 09:35:35 2014
%%EndComments
%%BeginProlog
80 dict begin
/s {stroke} def /l {lineto} def /m {moveto} def /t {translate} def
/r {rotate} def /rl {roll}  def /R {repeat} def
/d {rlineto} def /rm {rmoveto} def /gr {grestore} def /f {eofill} def
/c {setrgbcolor} def /black {0 setgray} def /sd {setdash} def
/cl {closepath} def /sf {scalefont setfont} def /lw {setlinewidth} def
/box {m dup 0 exch d exch 0 d 0 exch neg d cl} def
/NC{systemdict begin initclip end}def/C{NC box clip newpath}def
/bl {box s} def /bf {box f} def /Y { 0 exch d} def /X { 0 d} def 
/K {{pop pop 0 moveto} exch kshow} bind def
/ita {/ang 15 def gsave [1 0 ang dup sin exch cos div 1 0 0] concat} def 
/mp {newpath /y exch def /x exch def} def
/side {[w .77 mul w .23 mul] .385 w mul sd w 0 l currentpoint t -144 r} def
/mr {mp x y w2 0 360 arc} def /m24 {mr s} def /m20 {mr f} def
/mb {mp x y w2 add m w2 neg 0 d 0 w neg d w 0 d 0 w d cl} def
/mt {mp x y w2 add m w2 neg w neg d w 0 d cl} def
/m21 {mb f} def /m25 {mb s} def /m22 {mt f} def /m26{mt s} def
/m23 {mp x y w2 sub m w2 w d w neg 0 d cl f} def
/m27 {mp x y w2 add m w3 neg w2 neg d w3 w2 neg d w3 w2 d cl s} def
/m28 {mp x w2 sub y w2 sub w3 add m w3 0 d  0 w3 neg d w3 0 d 0 w3 d w3 0 d  0 w3 d w3 neg 0 d 0 w3 d w3 neg 0 d 0 w3 neg d w3 neg 0 d cl s } def
/m29 {mp gsave x w2 sub y w2 add w3 sub m currentpoint t 4 {side} repeat cl fill gr} def
/m30 {mp gsave x w2 sub y w2 add w3 sub m currentpoint t 4 {side} repeat cl s gr} def
/m31 {mp x y w2 sub m 0 w d x w2 sub y m w 0 d x w2 sub y w2 add m w w neg d x w2 sub y w2 sub m w w d s} def
/m32 {mp x y w2 sub m w2 w d w neg 0 d cl s} def
/m33 {mp x y w2 add m w3 neg w2 neg d w3 w2 neg d w3 w2 d cl f} def
/m34 {mp x w2 sub y w2 sub w3 add m w3 0 d  0 w3 neg d w3 0 d 0 w3 d w3 0 d  0 w3 d w3 neg 0 d 0 w3 d w3 neg 0 d 0 w3 neg d w3 neg 0 d cl f } def
/m2 {mp x y w2 sub m 0 w d x w2 sub y m w 0 d s} def
/m5 {mp x w2 sub y w2 sub m w w d x w2 sub y w2 add m w w neg d s} def
/reEncode {exch findfont dup length dict begin {1 index /FID eq  {pop pop} {def} ifelse } forall /Encoding exch def currentdict end dup /FontName get exch definefont pop } def [/Times-Bold /Times-Italic /Times-BoldItalic /Helvetica /Helvetica-Oblique
 /Helvetica-Bold /Helvetica-BoldOblique /Courier /Courier-Oblique /Courier-Bold /Courier-BoldOblique /Times-Roman /AvantGarde-Book /AvantGarde-BookOblique /AvantGarde-Demi /AvantGarde-DemiOblique /Bookman-Demi /Bookman-DemiItalic /Bookman-Light
 /Bookman-LightItalic /Helvetica-Narrow /Helvetica-Narrow-Bold /Helvetica-Narrow-BoldOblique /Helvetica-Narrow-Oblique /NewCenturySchlbk-Roman /NewCenturySchlbk-Bold /NewCenturySchlbk-BoldItalic /NewCenturySchlbk-Italic /Palatino-Bold
 /Palatino-BoldItalic /Palatino-Italic /Palatino-Roman ] {ISOLatin1Encoding reEncode } forall%%EndProlog
%%BeginSetup
%%EndSetup
newpath  gsave  .25 .25 scale  gsave  0 0 t black[  ] 0 sd 3 lw 1 1 1 c 2268 1328 0 0 bf black 1 1 1 c 408 305 23 1009 bf black 1 1 1 c black 306 229 84 1055 bl 306 229 84 1055 bl 84 1055 m 306 X s 84 1059 m -4 Y s 225 1059 m -4 Y s 367 1059 m -4 Y s
 367 1059 m -4 Y s
 gsave  408 305 23 1009 C 74.0711 1034.15 t 0 r /Helvetica findfont 22.8295 sf 0 0 m (0) show NC gr 
 gsave  408 305 23 1009 C 219.365 1034.15 t 0 r /Helvetica findfont 22.8295 sf 0 0 m (1) show NC gr 
 gsave  408 305 23 1009 C 356.111 1034.15 t 0 r /Helvetica findfont 22.8295 sf 0 0 m (2) show NC gr  84 1284 m 306 X s 84 1280 m 4 Y s 225 1280 m 4 Y s 367 1280 m 4 Y s 367 1280 m 4 Y s 84 1055 m 229 Y s 89 1078 m -5 X s 87 1088 m -3 X s 87 1098 m -3
 X s 87 1108 m -3 X s 89 1118 m -5 X s 87 1129 m -3 X s 87 1139 m -3 X s 87 1149 m -3 X s 89 1159 m -5 X s 87 1169 m -3 X s 87 1179 m -3 X s 87 1189 m -3 X s 89 1199 m -5 X s 87 1209 m -3 X s 87 1220 m -3 X s 87 1230 m -3 X s 89 1240 m -5 X s 87 1250
 m -3 X s 87 1260 m -3 X s 87 1270 m -3 X s 89 1280 m -5 X s 89 1078 m -5 X s 87 1068 m -3 X s 87 1058 m -3 X s 89 1280 m -5 X s
 gsave  408 305 23 1009 C 14.2445 1071.18 t 0 r /Helvetica findfont 22.8295 sf 0 0 m (\2550.004) show NC gr 
 gsave  408 305 23 1009 C 14.2445 1111.07 t 0 r /Helvetica findfont 22.8295 sf 0 0 m (\2550.002) show NC gr 
 gsave  408 305 23 1009 C 65.5245 1150.95 t 0 r /Helvetica findfont 22.8295 sf 0 0 m (0) show NC gr 
 gsave  408 305 23 1009 C 22.7911 1190.84 t 0 r /Helvetica findfont 22.8295 sf 0 0 m (0.002) show NC gr 
 gsave  408 305 23 1009 C 22.7911 1233.57 t 0 r /Helvetica findfont 22.8295 sf 0 0 m (0.004) show NC gr 
 gsave  408 305 23 1009 C 22.7911 1273.45 t 0 r /Helvetica findfont 22.8295 sf 0 0 m (0.006) show NC gr  390 1055 m 229 Y s 385 1078 m 5 X s 387 1088 m 3 X s 387 1098 m 3 X s 387 1108 m 3 X s 385 1118 m 5 X s 387 1129 m 3 X s 387 1139 m 3 X s 387
 1149 m 3 X s 385 1159 m 5 X s 387 1169 m 3 X s 387 1179 m 3 X s 387 1189 m 3 X s 385 1199 m 5 X s 387 1209 m 3 X s 387 1220 m 3 X s 387 1230 m 3 X s 385 1240 m 5 X s 387 1250 m 3 X s 387 1260 m 3 X s 387 1270 m 3 X s 385 1280 m 5 X s 385 1078 m 5 X
 s 387 1068 m 3 X s 387 1058 m 3 X s 385 1280 m 5 X s /w 22 def /w2 {w 2 div} def /w3 {w 3 div} def 155 1228 225 1192 367 1110 3 { m21} R 155 1239 m 26 Y s 149 1265 m 11 X s 155 1217 m -26 Y s 149 1191 m 11 X s 225 1204 m 25 Y s 220 1229 m 11 X s 225
 1181 m -25 Y s 220 1156 m 11 X s 367 1122 m 25 Y s 361 1147 m 11 X s 367 1099 m -25 Y s 361 1074 m 11 X s 1 0 0 c 9 lw 0.95 0.95 0.95 c black 1 0 0 c 85 1159 m 28 X 3 -1 d 25 X 3 -1 d 12 X 3 -1 d 12 X 3 -1 d 9 X 3 -1 d 10 X 3 -1 d 6 X 3 -1 d 6 X 3
 -1 d 6 X 3 -1 d 6 X 3 -1 d s 235 1149 m 4 X 3 -1 d 6 X 3 -1 d 3 X 3 -1 d 3 X 3 -1 d 3 X 3 -1 d 3 X 3 -1 d 3 X 3 -1 d 3 X 3 -1 d 4 X 3 -1 d 3 X 3 -1 d 3 X 3 -1 d 3 -1 d 3 X 3 -1 d 3 X 3 -1 d 3 -1 d 3 X 3 -1 d 3 X 3 -1 d 4 -1 d 3 X 3 -1 d 3 -1 d 3 X 3
 -1 d 3 -1 d 3 -1 d 3 X 3 -1 d 3 -1 d 3 -1 d 3 X 3 -1 d 3 -1 d 3 -1 d s 385 1120 m 4 X s 0.49 0.6 0.82 c black 0.49 0.6 0.82 c
 gsave  408 305 23 1009 C 142.445 1293.4 t 0 r /Helvetica-Bold findfont 25.6831 sf 0 0 m (0.0 < E < 0.5 GeV) show NC gr  0.52 0.76 0.64 c black 0.52 0.76 0.64 c
 gsave  408 305 23 1009 C 122.502 1256.36 t 0 r /Helvetica-Bold findfont 25.6831 sf 0 0 m 
 228 214 200 193 178 171 156 149 134 126 119 105 91 77 69 55 47 39 25 17
(A = \2550.000, p = 2.000) K NC gr  1 0.6 1 c black 1 0.6 1 c
 gsave  408 305 23 1009 C 427.334 1122.46 t 90 r /Helvetica-Bold findfont 28.5368 sf 0 0 m (/dof=2.6) show NC gr  black 1 0.6 1 c
 gsave  408 305 23 1009 C 415.938 1111.07 t 90 r /Helvetica-Bold findfont 19.9758 sf 0 0 m (2) show NC gr  black 1 0.6 1 c
 gsave  408 305 23 1009 C 427.334 1093.97 t 90 r /Symbol findfont 28.5368 sf 0 0 m (c) show NC gr  black 3 lw 1 1 1 c 408 305 476 1009 bf black 1 1 1 c black 307 229 537 1055 bl 307 229 537 1055 bl 537 1055 m 307 X s 537 1059 m -4 Y s 679 1059 m -4 Y
 s 820 1059 m -4 Y s 820 1059 m -4 Y s
 gsave  408 305 476 1009 C 527.045 1034.15 t 0 r /Helvetica findfont 22.8295 sf 0 0 m (0) show NC gr 
 gsave  408 305 476 1009 C 672.338 1034.15 t 0 r /Helvetica findfont 22.8295 sf 0 0 m (1) show NC gr 
 gsave  408 305 476 1009 C 809.085 1034.15 t 0 r /Helvetica findfont 22.8295 sf 0 0 m (2) show NC gr  537 1284 m 307 X s 537 1280 m 4 Y s 679 1280 m 4 Y s 820 1280 m 4 Y s 820 1280 m 4 Y s 537 1055 m 229 Y s 543 1080 m -6 X s 540 1091 m -3 X s 540
 1102 m -3 X s 540 1112 m -3 X s 543 1123 m -6 X s 540 1134 m -3 X s 540 1144 m -3 X s 540 1155 m -3 X s 543 1166 m -6 X s 540 1176 m -3 X s 540 1187 m -3 X s 540 1198 m -3 X s 543 1208 m -6 X s 540 1219 m -3 X s 540 1230 m -3 X s 540 1240 m -3 X s
 543 1251 m -6 X s 543 1080 m -6 X s 540 1070 m -3 X s 540 1059 m -3 X s 543 1251 m -6 X s 540 1262 m -3 X s 540 1272 m -3 X s 540 1283 m -3 X s
 gsave  408 305 476 1009 C 467.218 1074.03 t 0 r /Helvetica findfont 22.8295 sf 0 0 m (\2550.004) show NC gr 
 gsave  408 305 476 1009 C 467.218 1116.76 t 0 r /Helvetica findfont 22.8295 sf 0 0 m (\2550.002) show NC gr 
 gsave  408 305 476 1009 C 518.498 1159.5 t 0 r /Helvetica findfont 22.8295 sf 0 0 m (0) show NC gr 
 gsave  408 305 476 1009 C 475.765 1202.23 t 0 r /Helvetica findfont 22.8295 sf 0 0 m (0.002) show NC gr 
 gsave  408 305 476 1009 C 475.765 1244.96 t 0 r /Helvetica findfont 22.8295 sf 0 0 m (0.004) show NC gr  844 1055 m 229 Y s 838 1080 m 6 X s 841 1091 m 3 X s 841 1102 m 3 X s 841 1112 m 3 X s 838 1123 m 6 X s 841 1134 m 3 X s 841 1144 m 3 X s 841
 1155 m 3 X s 838 1166 m 6 X s 841 1176 m 3 X s 841 1187 m 3 X s 841 1198 m 3 X s 838 1208 m 6 X s 841 1219 m 3 X s 841 1230 m 3 X s 841 1240 m 3 X s 838 1251 m 6 X s 838 1080 m 6 X s 841 1070 m 3 X s 841 1059 m 3 X s 838 1251 m 6 X s 841 1262 m 3 X
 s 841 1272 m 3 X s 841 1283 m 3 X s /w 23 def /w2 {w 2 div} def /w3 {w 3 div} def 608 1132 679 1120 820 1218 3 { m21} R 608 1144 m 35 Y s 602 1179 m 12 X s 608 1121 m -35 Y s 602 1086 m 12 X s 679 1132 m 35 Y s 673 1167 m 12 X s 679 1109 m -35 Y s
 673 1074 m 12 X s 820 1229 m 36 Y s 815 1265 m 11 X s 820 1206 m -35 Y s 815 1171 m 11 X s 1 0 0 c 9 lw 0.95 0.95 0.95 c black 1 0 0 c 539 1166 m 37 X 3 1 d 18 X 3 1 d 16 X 3 1 d 9 X 3 1 d 9 X 3 1 d 6 X 3 1 d 6 X 3 1 d 7 X 3 1 d 6 X 3 1 d 3 X 3 1 d
 3 X s 689 1176 m 3 X 3 1 d 3 X 3 1 d 3 X 3 1 d 3 X 3 1 d 4 X 3 1 d 3 X 3 1 d 3 X 3 1 d 3 X 3 1 d 3 X 3 1 d 3 1 d 3 X 3 1 d 3 X 3 1 d 3 1 d 4 X 3 1 d 3 X 3 1 d 3 1 d 3 X 3 1 d 3 1 d 3 X 3 1 d 3 1 d 3 1 d 3 X 3 1 d 3 1 d 3 1 d 4 X 3 1 d 3 1 d 3 1 d 3
 X 3 1 d 3 1 d 3 1 d 3 1 d s 839 1207 m 3 1 d s 0.49 0.6 0.82 c black 0.49 0.6 0.82 c
 gsave  408 305 476 1009 C 595.418 1293.4 t 0 r /Helvetica-Bold findfont 25.6831 sf 0 0 m (0.5 < E < 1.0 GeV) show NC gr  0.52 0.76 0.64 c black 0.52 0.76 0.64 c
 gsave  408 305 476 1009 C 581.174 1256.36 t 0 r /Helvetica-Bold findfont 25.6831 sf 0 0 m 
 220 206 192 185 170 163 148 141 125 118 111 97 83 68 61 47 40 25 18
(A = 0.000, p = 2.000) K NC gr  1 0.6 1 c black 1 0.6 1 c
 gsave  408 305 476 1009 C 883.156 1122.46 t 90 r /Helvetica-Bold findfont 28.5368 sf 0 0 m (/dof=1.0) show NC gr  black 1 0.6 1 c
 gsave  408 305 476 1009 C 871.76 1111.07 t 90 r /Helvetica-Bold findfont 19.9758 sf 0 0 m (2) show NC gr  black 1 0.6 1 c
 gsave  408 305 476 1009 C 883.156 1093.97 t 90 r /Symbol findfont 28.5368 sf 0 0 m (c) show NC gr  black 3 lw 1 1 1 c 408 305 930 1009 bf black 1 1 1 c black 306 229 991 1055 bl 306 229 991 1055 bl 991 1055 m 306 X s 991 1059 m -4 Y s 1132 1059 m -4
 Y s 1274 1059 m -4 Y s 1274 1059 m -4 Y s
 gsave  408 305 930 1009 C 980.018 1034.15 t 0 r /Helvetica findfont 22.8295 sf 0 0 m (0) show NC gr 
 gsave  408 305 930 1009 C 1125.31 1034.15 t 0 r /Helvetica findfont 22.8295 sf 0 0 m (1) show NC gr 
 gsave  408 305 930 1009 C 1264.91 1034.15 t 0 r /Helvetica findfont 22.8295 sf 0 0 m (2) show NC gr  991 1284 m 306 X s 991 1280 m 4 Y s 1132 1280 m 4 Y s 1274 1280 m 4 Y s 1274 1280 m 4 Y s 991 1055 m 229 Y s 997 1089 m -6 X s 994 1100 m -3 X s 994
 1111 m -3 X s 994 1122 m -3 X s 997 1133 m -6 X s 994 1144 m -3 X s 994 1155 m -3 X s 994 1166 m -3 X s 997 1177 m -6 X s 994 1188 m -3 X s 994 1199 m -3 X s 994 1210 m -3 X s 997 1221 m -6 X s 994 1232 m -3 X s 994 1243 m -3 X s 994 1253 m -3 X s
 997 1264 m -6 X s 997 1089 m -6 X s 994 1078 m -3 X s 994 1067 m -3 X s 994 1056 m -3 X s 997 1264 m -6 X s 994 1275 m -3 X s
 gsave  408 305 930 1009 C 923.04 1082.58 t 0 r /Helvetica findfont 22.8295 sf 0 0 m (\2550.004) show NC gr 
 gsave  408 305 930 1009 C 923.04 1125.31 t 0 r /Helvetica findfont 22.8295 sf 0 0 m (\2550.002) show NC gr 
 gsave  408 305 930 1009 C 974.32 1170.89 t 0 r /Helvetica findfont 22.8295 sf 0 0 m (0) show NC gr 
 gsave  408 305 930 1009 C 931.587 1213.63 t 0 r /Helvetica findfont 22.8295 sf 0 0 m (0.002) show NC gr 
 gsave  408 305 930 1009 C 931.587 1256.36 t 0 r /Helvetica findfont 22.8295 sf 0 0 m (0.004) show NC gr  1297 1055 m 229 Y s 1292 1089 m 5 X s 1294 1100 m 3 X s 1294 1111 m 3 X s 1294 1122 m 3 X s 1292 1133 m 5 X s 1294 1144 m 3 X s 1294 1155 m 3 X
 s 1294 1166 m 3 X s 1292 1177 m 5 X s 1294 1188 m 3 X s 1294 1199 m 3 X s 1294 1210 m 3 X s 1292 1221 m 5 X s 1294 1232 m 3 X s 1294 1243 m 3 X s 1294 1253 m 3 X s 1292 1264 m 5 X s 1292 1089 m 5 X s 1294 1078 m 3 X s 1294 1067 m 3 X s 1294 1056 m 3
 X s 1292 1264 m 5 X s 1294 1275 m 3 X s 1062 1216 1132 1188 1274 1122 3 { m21} R 1062 1228 m 37 Y s 1056 1265 m 11 X s 1062 1205 m -37 Y s 1056 1168 m 11 X s 1132 1200 m 36 Y s 1127 1236 m 11 X s 1132 1177 m -37 Y s 1127 1140 m 11 X s 1274 1133 m 37
 Y s 1268 1170 m 11 X s 1274 1110 m -36 Y s 1268 1074 m 11 X s 1 0 0 c 9 lw 0.95 0.95 0.95 c black 1 0 0 c 993 1177 m 21 X 3 -1 d 21 X 4 -1 d 12 X 3 -1 d 9 X 3 -1 d 6 X 3 -1 d 6 X 3 -1 d 7 X 3 -1 d 6 X 3 -1 d 3 X 3 -1 d 3 X 3 -1 d 3 X 3 -1 d 6 X 3 -1
 d 3 X 3 -1 d 4 -1 d s 1143 1163 m 3 X 3 -1 d 3 X 3 -1 d 3 X 3 -1 d 3 -1 d 3 X 3 -1 d 3 -1 d 3 X 3 -1 d 3 -1 d 3 X 3 -1 d 4 -1 d 3 X 3 -1 d 3 -1 d 3 -1 d 3 X 3 -1 d 3 -1 d 3 -1 d 3 -1 d 3 X 3 -1 d 3 -1 d 3 -1 d 3 -1 d 3 -1 d 3 -1 d 4 X 3 -1 d 3 -1 d
 3 -1 d 3 -1 d 3 -1 d 3 -1 d 3 -1 d 3 -1 d 3 -1 d 3 -1 d 3 -1 d 3 -1 d 3 -1 d 3 -1 d 3 -1 d 4 -1 d s 1293 1124 m 3 -1 d s 0.49 0.6 0.82 c black 0.49 0.6 0.82 c
 gsave  408 305 930 1009 C 1051.24 1293.4 t 0 r /Helvetica-Bold findfont 25.6831 sf 0 0 m (1.0 < E < 1.5 GeV) show NC gr  0.52 0.76 0.64 c black 0.52 0.76 0.64 c
 gsave  408 305 930 1009 C 1031.3 1256.36 t 0 r /Helvetica-Bold findfont 25.6831 sf 0 0 m 
 228 214 200 193 178 171 156 149 133 126 119 105 91 77 69 55 47 39 25 17
(A = \2550.001, p = 2.000) K NC gr  1 0.6 1 c black 1 0.6 1 c
 gsave  408 305 930 1009 C 1336.13 1122.46 t 90 r /Helvetica-Bold findfont 28.5368 sf 0 0 m (/dof=0.5) show NC gr  black 1 0.6 1 c
 gsave  408 305 930 1009 C 1324.73 1111.07 t 90 r /Helvetica-Bold findfont 19.9758 sf 0 0 m (2) show NC gr  black 1 0.6 1 c
 gsave  408 305 930 1009 C 1336.13 1093.97 t 90 r /Symbol findfont 28.5368 sf 0 0 m (c) show NC gr  black 3 lw 1 1 1 c 408 305 1383 1009 bf black 1 1 1 c black 306 229 1445 1055 bl 306 229 1445 1055 bl 1445 1055 m 306 X s 1445 1059 m -4 Y s 1586 1059
 m -4 Y s 1727 1059 m -4 Y s 1727 1059 m -4 Y s
 gsave  408 305 1383 1009 C 1435.84 1034.15 t 0 r /Helvetica findfont 22.8295 sf 0 0 m (0) show NC gr 
 gsave  408 305 1383 1009 C 1578.29 1034.15 t 0 r /Helvetica findfont 22.8295 sf 0 0 m (1) show NC gr 
 gsave  408 305 1383 1009 C 1717.88 1034.15 t 0 r /Helvetica findfont 22.8295 sf 0 0 m (2) show NC gr  1445 1284 m 306 X s 1445 1280 m 4 Y s 1586 1280 m 4 Y s 1727 1280 m 4 Y s 1727 1280 m 4 Y s 1445 1055 m 229 Y s 1450 1075 m -5 X s 1447 1080 m -2 X
 s 1447 1085 m -2 X s 1447 1091 m -2 X s 1447 1096 m -2 X s 1450 1101 m -5 X s 1447 1107 m -2 X s 1447 1112 m -2 X s 1447 1118 m -2 X s 1447 1123 m -2 X s 1450 1128 m -5 X s 1447 1134 m -2 X s 1447 1139 m -2 X s 1447 1144 m -2 X s 1447 1150 m -2 X s
 1450 1155 m -5 X s 1447 1161 m -2 X s 1447 1166 m -2 X s 1447 1171 m -2 X s 1447 1177 m -2 X s 1450 1182 m -5 X s 1447 1187 m -2 X s 1447 1193 m -2 X s 1447 1198 m -2 X s 1447 1204 m -2 X s 1450 1209 m -5 X s 1447 1214 m -2 X s 1447 1220 m -2 X s
 1447 1225 m -2 X s 1447 1230 m -2 X s 1450 1236 m -5 X s 1447 1241 m -2 X s 1447 1247 m -2 X s 1447 1252 m -2 X s 1447 1257 m -2 X s 1450 1263 m -5 X s 1450 1075 m -5 X s 1447 1069 m -2 X s 1447 1064 m -2 X s 1447 1059 m -2 X s 1450 1263 m -5 X s
 1447 1268 m -2 X s 1447 1273 m -2 X s 1447 1279 m -2 X s
 gsave  408 305 1383 1009 C 1376.01 1068.33 t 0 r /Helvetica findfont 22.8295 sf 0 0 m (\2550.002) show NC gr 
 gsave  408 305 1383 1009 C 1378.86 1093.97 t 0 r /Helvetica findfont 22.8295 sf 0 0 m (\2550.001) show NC gr 
 gsave  408 305 1383 1009 C 1427.29 1122.46 t 0 r /Helvetica findfont 22.8295 sf 0 0 m (0) show NC gr 
 gsave  408 305 1383 1009 C 1387.41 1148.1 t 0 r /Helvetica findfont 22.8295 sf 0 0 m (0.001) show NC gr 
 gsave  408 305 1383 1009 C 1384.56 1173.74 t 0 r /Helvetica findfont 22.8295 sf 0 0 m (0.002) show NC gr 
 gsave  408 305 1383 1009 C 1384.56 1202.23 t 0 r /Helvetica findfont 22.8295 sf 0 0 m (0.003) show NC gr 
 gsave  408 305 1383 1009 C 1384.56 1227.87 t 0 r /Helvetica findfont 22.8295 sf 0 0 m (0.004) show NC gr 
 gsave  408 305 1383 1009 C 1384.56 1256.36 t 0 r /Helvetica findfont 22.8295 sf 0 0 m (0.005) show NC gr  1751 1055 m 229 Y s 1745 1075 m 6 X s 1748 1080 m 3 X s 1748 1085 m 3 X s 1748 1091 m 3 X s 1748 1096 m 3 X s 1745 1101 m 6 X s 1748 1107 m 3 X
 s 1748 1112 m 3 X s 1748 1118 m 3 X s 1748 1123 m 3 X s 1745 1128 m 6 X s 1748 1134 m 3 X s 1748 1139 m 3 X s 1748 1144 m 3 X s 1748 1150 m 3 X s 1745 1155 m 6 X s 1748 1161 m 3 X s 1748 1166 m 3 X s 1748 1171 m 3 X s 1748 1177 m 3 X s 1745 1182 m 6
 X s 1748 1187 m 3 X s 1748 1193 m 3 X s 1748 1198 m 3 X s 1748 1204 m 3 X s 1745 1209 m 6 X s 1748 1214 m 3 X s 1748 1220 m 3 X s 1748 1225 m 3 X s 1748 1230 m 3 X s 1745 1236 m 6 X s 1748 1241 m 3 X s 1748 1247 m 3 X s 1748 1252 m 3 X s 1748 1257 m
 3 X s 1745 1263 m 6 X s 1745 1075 m 6 X s 1748 1069 m 3 X s 1748 1064 m 3 X s 1748 1059 m 3 X s 1745 1263 m 6 X s 1748 1268 m 3 X s 1748 1273 m 3 X s 1748 1279 m 3 X s 1515 1135 1586 1204 1727 1135 3 { m21} R 1515 1146 m 50 Y s 1510 1196 m 11 X s
 1515 1123 m -49 Y s 1510 1074 m 11 X s 1586 1215 m 50 Y s 1580 1265 m 12 X s 1586 1192 m -49 Y s 1580 1143 m 12 X s 1727 1146 m 50 Y s 1722 1196 m 11 X s 1727 1124 m -50 Y s 1722 1074 m 11 X s 9 lw 0.95 0.95 0.95 c black 1446 1129 m 6 X 3 1 d 6 X 3
 1 d 3 X 4 1 d 6 X 3 1 d 6 X 3 1 d 3 X 3 1 d 6 X 3 1 d 6 X 3 1 d 3 X 4 1 d 6 X 3 1 d 6 X 3 1 d 3 X 3 1 d 6 X 3 1 d 6 X 3 1 d 3 X 4 1 d 6 X 3 1 d 3 X 3 1 d 6 X 3 1 d 3 X s 1596 1147 m 3 X 3 1 d 3 X 3 1 d 6 X 4 1 d 6 X 3 1 d 3 X 3 1 d 6 X 3 1 d 6 X 3 1
 d 3 X 3 1 d 6 X 3 1 d 7 X 3 1 d 3 X 3 1 d 6 X 3 1 d 6 X 3 1 d 3 X 3 1 d 6 X 3 1 d 7 X 3 1 d 3 X 3 1 d 6 X 3 1 d 6 X s 1746 1165 m 3 1 d s 0.49 0.6 0.82 c black 0.49 0.6 0.82 c
 gsave  408 305 1383 1009 C 1504.21 1293.4 t 0 r /Helvetica-Bold findfont 25.6831 sf 0 0 m (1.5 < E < 2.0 GeV) show NC gr  0.52 0.76 0.64 c black 0.52 0.76 0.64 c
 gsave  408 305 1383 1009 C 1489.97 1256.36 t 0 r /Helvetica-Bold findfont 25.6831 sf 0 0 m 
 220 206 192 185 170 163 148 141 126 118 111 97 83 69 61 47 40 25 18
(A = 0.001, p = 1.000) K NC gr  1 0.6 1 c black 1 0.6 1 c
 gsave  408 305 1383 1009 C 1789.1 1122.46 t 90 r /Helvetica-Bold findfont 28.5368 sf 0 0 m (/dof=0.6) show NC gr  black 1 0.6 1 c
 gsave  408 305 1383 1009 C 1777.71 1111.07 t 90 r /Helvetica-Bold findfont 19.9758 sf 0 0 m (2) show NC gr  black 1 0.6 1 c
 gsave  408 305 1383 1009 C 1789.1 1093.97 t 90 r /Symbol findfont 28.5368 sf 0 0 m (c) show NC gr  black 3 lw 1 1 1 c 408 305 1837 1009 bf black 1 1 1 c black 306 229 1898 1055 bl 306 229 1898 1055 bl 1898 1055 m 306 X s 1898 1059 m -4 Y s 2039 1059
 m -4 Y s 2181 1059 m -4 Y s 2181 1059 m -4 Y s
 gsave  408 305 1837 1009 C 1888.81 1034.15 t 0 r /Helvetica findfont 22.8295 sf 0 0 m (0) show NC gr 
 gsave  408 305 1837 1009 C 2031.26 1034.15 t 0 r /Helvetica findfont 22.8295 sf 0 0 m (1) show NC gr 
 gsave  408 305 1837 1009 C 2170.85 1034.15 t 0 r /Helvetica findfont 22.8295 sf 0 0 m (2) show NC gr  1898 1284 m 306 X s 1898 1280 m 4 Y s 2039 1280 m 4 Y s 2181 1280 m 4 Y s 2181 1280 m 4 Y s 1898 1055 m 229 Y s 1904 1064 m -6 X s 1901 1073 m -3 X
 s 1901 1083 m -3 X s 1901 1093 m -3 X s 1904 1102 m -6 X s 1901 1112 m -3 X s 1901 1122 m -3 X s 1901 1131 m -3 X s 1904 1141 m -6 X s 1901 1151 m -3 X s 1901 1161 m -3 X s 1901 1170 m -3 X s 1904 1180 m -6 X s 1901 1190 m -3 X s 1901 1199 m -3 X s
 1901 1209 m -3 X s 1904 1219 m -6 X s 1901 1228 m -3 X s 1901 1238 m -3 X s 1901 1248 m -3 X s 1904 1257 m -6 X s 1904 1064 m -6 X s 1904 1257 m -6 X s 1901 1267 m -3 X s 1901 1277 m -3 X s
 gsave  408 305 1837 1009 C 1828.99 1056.94 t 0 r /Helvetica findfont 22.8295 sf 0 0 m (\2550.004) show NC gr 
 gsave  408 305 1837 1009 C 1828.99 1093.97 t 0 r /Helvetica findfont 22.8295 sf 0 0 m (\2550.002) show NC gr 
 gsave  408 305 1837 1009 C 1880.27 1133.86 t 0 r /Helvetica findfont 22.8295 sf 0 0 m (0) show NC gr 
 gsave  408 305 1837 1009 C 1837.53 1173.74 t 0 r /Helvetica findfont 22.8295 sf 0 0 m (0.002) show NC gr 
 gsave  408 305 1837 1009 C 1837.53 1210.78 t 0 r /Helvetica findfont 22.8295 sf 0 0 m (0.004) show NC gr 
 gsave  408 305 1837 1009 C 1837.53 1250.66 t 0 r /Helvetica findfont 22.8295 sf 0 0 m (0.006) show NC gr  2204 1055 m 229 Y s 2199 1064 m 5 X s 2201 1073 m 3 X s 2201 1083 m 3 X s 2201 1093 m 3 X s 2199 1102 m 5 X s 2201 1112 m 3 X s 2201 1122 m 3 X
 s 2201 1131 m 3 X s 2199 1141 m 5 X s 2201 1151 m 3 X s 2201 1161 m 3 X s 2201 1170 m 3 X s 2199 1180 m 5 X s 2201 1190 m 3 X s 2201 1199 m 3 X s 2201 1209 m 3 X s 2199 1219 m 5 X s 2201 1228 m 3 X s 2201 1238 m 3 X s 2201 1248 m 3 X s 2199 1257 m 5
 X s 2199 1064 m 5 X s 2199 1257 m 5 X s 2201 1267 m 3 X s 2201 1277 m 3 X s 1969 1119 2039 1185 2181 1220 3 { m21} R 1969 1130 m 34 Y s 1963 1164 m 11 X s 1969 1107 m -33 Y s 1963 1074 m 11 X s 2039 1196 m 34 Y s 2034 1230 m 11 X s 2039 1174 m -34 Y
 s 2034 1140 m 11 X s 2181 1231 m 34 Y s 2175 1265 m 12 X s 2181 1208 m -34 Y s 2175 1174 m 12 X s 1 0 0 c 9 lw 0.95 0.95 0.95 c black 1 0 0 c 1900 1141 m 15 X 3 1 d 15 X 3 1 d 10 X 3 1 d 6 X 3 1 d 3 X 3 1 d 6 X 3 1 d 3 X 3 1 d 3 X 3 1 d 3 1 d 3 X 4
 1 d 3 X 3 1 d 3 1 d 3 X 3 1 d 3 1 d 3 X 3 1 d 3 1 d 3 1 d 3 1 d 3 X 3 1 d 3 1 d 3 1 d 3 1 d 4 1 d 3 1 d s 2050 1165 m 3 1 d 3 1 d 3 1 d 3 1 d 3 1 d 3 1 d 3 1 d 3 1 d 3 1 d 3 1 d 3 1 d 3 2 d 3 1 d 3 1 d 4 1 d 3 2 d 3 1 d 3 1 d 3 1 d 3 2 d 3 1 d 3 2 d
 3 1 d 3 1 d 3 2 d 3 1 d 3 2 d 3 1 d 3 2 d 3 1 d 4 2 d 3 1 d 3 2 d 3 1 d 3 2 d 3 2 d 3 1 d 3 2 d 3 2 d 3 2 d 3 1 d 3 2 d 3 2 d 3 2 d 3 1 d 3 2 d 4 2 d 3 2 d 3 2 d s 2200 1235 m 3 2 d s 0.49 0.6 0.82 c black 0.49 0.6 0.82 c
 gsave  408 305 1837 1009 C 1957.19 1293.4 t 0 r /Helvetica-Bold findfont 25.6831 sf 0 0 m (2.0 < E < 2.5 GeV) show NC gr  0.52 0.76 0.64 c black 0.52 0.76 0.64 c
 gsave  408 305 1837 1009 C 1942.94 1256.36 t 0 r /Helvetica-Bold findfont 25.6831 sf 0 0 m 
 220 206 192 185 170 163 148 141 125 118 111 97 83 69 61 47 40 25 18
(A = 0.001, p = 2.000) K NC gr  1 0.6 1 c black 1 0.6 1 c
 gsave  408 305 1837 1009 C 2242.08 1122.46 t 90 r /Helvetica-Bold findfont 28.5368 sf 0 0 m (/dof=0.3) show NC gr  black 1 0.6 1 c
 gsave  408 305 1837 1009 C 2230.68 1111.07 t 90 r /Helvetica-Bold findfont 19.9758 sf 0 0 m (2) show NC gr  black 1 0.6 1 c
 gsave  408 305 1837 1009 C 2242.08 1093.97 t 90 r /Symbol findfont 28.5368 sf 0 0 m (c) show NC gr  black 3 lw 1 1 1 c 408 305 23 677 bf black 1 1 1 c black 306 229 84 723 bl 306 229 84 723 bl 84 723 m 306 X s 84 727 m -4 Y s 225 727 m -4 Y s 367
 727 m -4 Y s 367 727 m -4 Y s
 gsave  408 305 23 677 C 74.0711 703.676 t 0 r /Helvetica findfont 22.8295 sf 0 0 m (0) show NC gr 
 gsave  408 305 23 677 C 219.365 703.676 t 0 r /Helvetica findfont 22.8295 sf 0 0 m (1) show NC gr 
 gsave  408 305 23 677 C 356.111 703.676 t 0 r /Helvetica findfont 22.8295 sf 0 0 m (2) show NC gr  84 952 m 306 X s 84 948 m 4 Y s 225 948 m 4 Y s 367 948 m 4 Y s 367 948 m 4 Y s 84 723 m 229 Y s 89 748 m -5 X s 87 755 m -3 X s 87 763 m -3 X s 87
 770 m -3 X s 89 778 m -5 X s 87 785 m -3 X s 87 793 m -3 X s 87 800 m -3 X s 89 808 m -5 X s 87 815 m -3 X s 87 823 m -3 X s 87 830 m -3 X s 89 838 m -5 X s 87 845 m -3 X s 87 853 m -3 X s 87 860 m -3 X s 89 868 m -5 X s 87 875 m -3 X s 87 883 m -3
 X s 87 890 m -3 X s 89 898 m -5 X s 87 905 m -3 X s 87 913 m -3 X s 87 920 m -3 X s 89 928 m -5 X s 89 748 m -5 X s 87 740 m -3 X s 87 733 m -3 X s 87 725 m -3 X s 89 928 m -5 X s 87 935 m -3 X s 87 943 m -3 X s 87 950 m -3 X s
 gsave  408 305 23 677 C 14.2445 740.711 t 0 r /Helvetica findfont 22.8295 sf 0 0 m (\2550.006) show NC gr 
 gsave  408 305 23 677 C 14.2445 769.2 t 0 r /Helvetica findfont 22.8295 sf 0 0 m (\2550.004) show NC gr 
 gsave  408 305 23 677 C 14.2445 800.538 t 0 r /Helvetica findfont 22.8295 sf 0 0 m (\2550.002) show NC gr 
 gsave  408 305 23 677 C 65.5245 831.876 t 0 r /Helvetica findfont 22.8295 sf 0 0 m (0) show NC gr 
 gsave  408 305 23 677 C 22.7911 860.365 t 0 r /Helvetica findfont 22.8295 sf 0 0 m (0.002) show NC gr 
 gsave  408 305 23 677 C 22.7911 891.703 t 0 r /Helvetica findfont 22.8295 sf 0 0 m (0.004) show NC gr 
 gsave  408 305 23 677 C 22.7911 920.192 t 0 r /Helvetica findfont 22.8295 sf 0 0 m (0.006) show NC gr  390 723 m 229 Y s 385 748 m 5 X s 387 755 m 3 X s 387 763 m 3 X s 387 770 m 3 X s 385 778 m 5 X s 387 785 m 3 X s 387 793 m 3 X s 387 800 m 3 X s
 385 808 m 5 X s 387 815 m 3 X s 387 823 m 3 X s 387 830 m 3 X s 385 838 m 5 X s 387 845 m 3 X s 387 853 m 3 X s 387 860 m 3 X s 385 868 m 5 X s 387 875 m 3 X s 387 883 m 3 X s 387 890 m 3 X s 385 898 m 5 X s 387 905 m 3 X s 387 913 m 3 X s 387 920 m
 3 X s 385 928 m 5 X s 385 748 m 5 X s 387 740 m 3 X s 387 733 m 3 X s 387 725 m 3 X s 385 928 m 5 X s 387 935 m 3 X s 387 943 m 3 X s 387 950 m 3 X s /w 22 def /w2 {w 2 div} def /w3 {w 3 div} def 155 778 225 896 367 799 3 { m21} R 155 790 m 25 Y s
 149 815 m 11 X s 155 767 m -25 Y s 149 742 m 11 X s 225 908 m 25 Y s 220 933 m 11 X s 225 885 m -25 Y s 220 860 m 11 X s 367 810 m 25 Y s 361 835 m 11 X s 367 787 m -24 Y s 361 763 m 11 X s 1 0 0 c 9 lw 0.95 0.95 0.95 c black 1 0 0 c 85 838 m 19 X 3
 -1 d 34 X 3 -1 d 18 X 3 -1 d 15 X 3 -1 d 13 X 3 -1 d 9 X 3 -1 d 9 X 3 -1 d 6 X 3 -1 d 3 X s 235 830 m 4 X 3 -1 d 6 X 3 -1 d 6 X 3 -1 d 6 X 3 -1 d 6 X 3 -1 d 3 X 3 -1 d 7 X 3 -1 d 3 X 3 -1 d 3 X 3 -1 d 6 X 3 -1 d 3 X 3 -1 d 3 X 3 -1 d 3 X 3 -1 d 3 X
 4 -1 d 3 X 3 -1 d 3 X 3 -1 d 3 -1 d 3 X 3 -1 d 3 X 3 -1 d 3 X 3 -1 d 3 X 3 -1 d 3 -1 d 3 X s 385 808 m 4 -1 d s 0.49 0.6 0.82 c black 0.49 0.6 0.82 c
 gsave  408 305 23 677 C 142.445 960.076 t 0 r /Helvetica-Bold findfont 25.6831 sf 0 0 m (2.5 < E < 3.0 GeV) show NC gr  0.52 0.76 0.64 c black 0.52 0.76 0.64 c
 gsave  408 305 23 677 C 122.502 923.04 t 0 r /Helvetica-Bold findfont 25.6831 sf 0 0 m 
 228 214 200 193 178 171 156 149 134 126 119 105 91 77 69 55 47 39 25 17
(A = \2550.000, p = 2.000) K NC gr  1 0.6 1 c black 1 0.6 1 c
 gsave  408 305 23 677 C 427.334 791.991 t 90 r /Helvetica-Bold findfont 28.5368 sf 0 0 m (/dof=2.9) show NC gr  black 1 0.6 1 c
 gsave  408 305 23 677 C 415.938 780.596 t 90 r /Helvetica-Bold findfont 19.9758 sf 0 0 m (2) show NC gr  black 1 0.6 1 c
 gsave  408 305 23 677 C 427.334 763.503 t 90 r /Symbol findfont 28.5368 sf 0 0 m (c) show NC gr  black 3 lw 1 1 1 c 408 305 476 677 bf black 1 1 1 c black 307 229 537 723 bl 307 229 537 723 bl 537 723 m 307 X s 537 727 m -4 Y s 679 727 m -4 Y s 820
 727 m -4 Y s 820 727 m -4 Y s
 gsave  408 305 476 677 C 527.045 703.676 t 0 r /Helvetica findfont 22.8295 sf 0 0 m (0) show NC gr 
 gsave  408 305 476 677 C 672.338 703.676 t 0 r /Helvetica findfont 22.8295 sf 0 0 m (1) show NC gr 
 gsave  408 305 476 677 C 809.085 703.676 t 0 r /Helvetica findfont 22.8295 sf 0 0 m (2) show NC gr  537 952 m 307 X s 537 948 m 4 Y s 679 948 m 4 Y s 820 948 m 4 Y s 820 948 m 4 Y s 537 723 m 229 Y s 543 745 m -6 X s 540 750 m -3 X s 540 755 m -3 X
 s 540 760 m -3 X s 540 765 m -3 X s 543 770 m -6 X s 540 775 m -3 X s 540 780 m -3 X s 540 785 m -3 X s 540 790 m -3 X s 543 795 m -6 X s 540 800 m -3 X s 540 805 m -3 X s 540 810 m -3 X s 540 815 m -3 X s 543 820 m -6 X s 540 825 m -3 X s 540 830 m
 -3 X s 540 835 m -3 X s 540 840 m -3 X s 543 845 m -6 X s 540 850 m -3 X s 540 855 m -3 X s 540 860 m -3 X s 540 865 m -3 X s 543 870 m -6 X s 540 875 m -3 X s 540 880 m -3 X s 540 885 m -3 X s 540 890 m -3 X s 543 895 m -6 X s 540 900 m -3 X s 540
 905 m -3 X s 540 910 m -3 X s 540 915 m -3 X s 543 920 m -6 X s 540 925 m -3 X s 540 930 m -3 X s 540 935 m -3 X s 540 940 m -3 X s 543 945 m -6 X s 543 745 m -6 X s 540 740 m -3 X s 540 735 m -3 X s 540 730 m -3 X s 540 725 m -3 X s 543 945 m -6 X
 s 540 950 m -3 X s
 gsave  408 305 476 677 C 467.218 737.863 t 0 r /Helvetica findfont 22.8295 sf 0 0 m (\2550.004) show NC gr 
 gsave  408 305 476 677 C 467.218 763.503 t 0 r /Helvetica findfont 22.8295 sf 0 0 m (\2550.003) show NC gr 
 gsave  408 305 476 677 C 467.218 789.143 t 0 r /Helvetica findfont 22.8295 sf 0 0 m (\2550.002) show NC gr 
 gsave  408 305 476 677 C 470.067 811.934 t 0 r /Helvetica findfont 22.8295 sf 0 0 m (\2550.001) show NC gr 
 gsave  408 305 476 677 C 518.498 837.574 t 0 r /Helvetica findfont 22.8295 sf 0 0 m (0) show NC gr 
 gsave  408 305 476 677 C 478.614 863.214 t 0 r /Helvetica findfont 22.8295 sf 0 0 m (0.001) show NC gr 
 gsave  408 305 476 677 C 475.765 888.854 t 0 r /Helvetica findfont 22.8295 sf 0 0 m (0.002) show NC gr 
 gsave  408 305 476 677 C 475.765 914.494 t 0 r /Helvetica findfont 22.8295 sf 0 0 m (0.003) show NC gr 
 gsave  408 305 476 677 C 475.765 937.285 t 0 r /Helvetica findfont 22.8295 sf 0 0 m (0.004) show NC gr  844 723 m 229 Y s 838 745 m 6 X s 841 750 m 3 X s 841 755 m 3 X s 841 760 m 3 X s 841 765 m 3 X s 838 770 m 6 X s 841 775 m 3 X s 841 780 m 3 X s
 841 785 m 3 X s 841 790 m 3 X s 838 795 m 6 X s 841 800 m 3 X s 841 805 m 3 X s 841 810 m 3 X s 841 815 m 3 X s 838 820 m 6 X s 841 825 m 3 X s 841 830 m 3 X s 841 835 m 3 X s 841 840 m 3 X s 838 845 m 6 X s 841 850 m 3 X s 841 855 m 3 X s 841 860 m
 3 X s 841 865 m 3 X s 838 870 m 6 X s 841 875 m 3 X s 841 880 m 3 X s 841 885 m 3 X s 841 890 m 3 X s 838 895 m 6 X s 841 900 m 3 X s 841 905 m 3 X s 841 910 m 3 X s 841 915 m 3 X s 838 920 m 6 X s 841 925 m 3 X s 841 930 m 3 X s 841 935 m 3 X s 841
 940 m 3 X s 838 945 m 6 X s 838 745 m 6 X s 841 740 m 3 X s 841 735 m 3 X s 841 730 m 3 X s 841 725 m 3 X s 838 945 m 6 X s 841 950 m 3 X s /w 23 def /w2 {w 2 div} def /w3 {w 3 div} def 608 808 679 866 820 834 3 { m21} R 608 820 m 54 Y s 602 874 m
 12 X s 608 797 m -55 Y s 602 742 m 12 X s 679 878 m 55 Y s 673 933 m 12 X s 679 855 m -55 Y s 673 800 m 12 X s 820 845 m 55 Y s 815 900 m 11 X s 820 822 m -54 Y s 815 768 m 11 X s 9 lw 0.95 0.95 0.95 c black 539 845 m 24 X 4 -1 d 33 X 3 -1 d 31 X 3
 -1 d 34 X 3 -1 d 15 X s 689 841 m 15 X 3 -1 d 34 X 3 -1 d 34 X 3 -1 d 30 X 4 -1 d 24 X s 839 837 m 3 X s 0.49 0.6 0.82 c black 0.49 0.6 0.82 c
 gsave  408 305 476 677 C 595.418 960.076 t 0 r /Helvetica-Bold findfont 25.6831 sf 0 0 m (3.0 < E < 3.5 GeV) show NC gr  0.52 0.76 0.64 c black 0.52 0.76 0.64 c
 gsave  408 305 476 677 C 575.476 923.04 t 0 r /Helvetica-Bold findfont 25.6831 sf 0 0 m 
 228 214 200 193 178 171 156 149 133 126 119 105 91 76 69 55 47 39 25 17
(A = \2550.000, p = 1.000) K NC gr  1 0.6 1 c black 1 0.6 1 c
 gsave  408 305 476 677 C 883.156 791.991 t 90 r /Helvetica-Bold findfont 28.5368 sf 0 0 m (/dof=0.2) show NC gr  black 1 0.6 1 c
 gsave  408 305 476 677 C 871.76 780.596 t 90 r /Helvetica-Bold findfont 19.9758 sf 0 0 m (2) show NC gr  black 1 0.6 1 c
 gsave  408 305 476 677 C 883.156 763.503 t 90 r /Symbol findfont 28.5368 sf 0 0 m (c) show NC gr  black 3 lw 1 1 1 c 408 305 930 677 bf black 1 1 1 c black 306 229 991 723 bl 306 229 991 723 bl 991 723 m 306 X s 991 727 m -4 Y s 1132 727 m -4 Y s
 1274 727 m -4 Y s 1274 727 m -4 Y s
 gsave  408 305 930 677 C 980.018 703.676 t 0 r /Helvetica findfont 22.8295 sf 0 0 m (0) show NC gr 
 gsave  408 305 930 677 C 1125.31 703.676 t 0 r /Helvetica findfont 22.8295 sf 0 0 m (1) show NC gr 
 gsave  408 305 930 677 C 1264.91 703.676 t 0 r /Helvetica findfont 22.8295 sf 0 0 m (2) show NC gr  991 952 m 306 X s 991 948 m 4 Y s 1132 948 m 4 Y s 1274 948 m 4 Y s 1274 948 m 4 Y s 991 723 m 229 Y s 997 736 m -6 X s 994 742 m -3 X s 994 749 m -3
 X s 994 756 m -3 X s 997 763 m -6 X s 994 770 m -3 X s 994 777 m -3 X s 994 784 m -3 X s 997 791 m -6 X s 994 798 m -3 X s 994 805 m -3 X s 994 811 m -3 X s 997 818 m -6 X s 994 825 m -3 X s 994 832 m -3 X s 994 839 m -3 X s 997 846 m -6 X s 994 853
 m -3 X s 994 860 m -3 X s 994 867 m -3 X s 997 874 m -6 X s 994 880 m -3 X s 994 887 m -3 X s 994 894 m -3 X s 997 901 m -6 X s 994 908 m -3 X s 994 915 m -3 X s 994 922 m -3 X s 997 929 m -6 X s 997 736 m -6 X s 994 729 m -3 X s 997 929 m -6 X s
 994 936 m -3 X s 994 943 m -3 X s 994 949 m -3 X s
 gsave  408 305 930 677 C 923.04 729.316 t 0 r /Helvetica findfont 22.8295 sf 0 0 m (\2550.006) show NC gr 
 gsave  408 305 930 677 C 923.04 754.956 t 0 r /Helvetica findfont 22.8295 sf 0 0 m (\2550.004) show NC gr 
 gsave  408 305 930 677 C 923.04 783.445 t 0 r /Helvetica findfont 22.8295 sf 0 0 m (\2550.002) show NC gr 
 gsave  408 305 930 677 C 974.32 811.934 t 0 r /Helvetica findfont 22.8295 sf 0 0 m (0) show NC gr 
 gsave  408 305 930 677 C 931.587 837.574 t 0 r /Helvetica findfont 22.8295 sf 0 0 m (0.002) show NC gr 
 gsave  408 305 930 677 C 931.587 866.063 t 0 r /Helvetica findfont 22.8295 sf 0 0 m (0.004) show NC gr 
 gsave  408 305 930 677 C 931.587 894.552 t 0 r /Helvetica findfont 22.8295 sf 0 0 m (0.006) show NC gr 
 gsave  408 305 930 677 C 931.587 923.04 t 0 r /Helvetica findfont 22.8295 sf 0 0 m (0.008) show NC gr  1297 723 m 229 Y s 1292 736 m 5 X s 1294 742 m 3 X s 1294 749 m 3 X s 1294 756 m 3 X s 1292 763 m 5 X s 1294 770 m 3 X s 1294 777 m 3 X s 1294 784
 m 3 X s 1292 791 m 5 X s 1294 798 m 3 X s 1294 805 m 3 X s 1294 811 m 3 X s 1292 818 m 5 X s 1294 825 m 3 X s 1294 832 m 3 X s 1294 839 m 3 X s 1292 846 m 5 X s 1294 853 m 3 X s 1294 860 m 3 X s 1294 867 m 3 X s 1292 874 m 5 X s 1294 880 m 3 X s
 1294 887 m 3 X s 1294 894 m 3 X s 1292 901 m 5 X s 1294 908 m 3 X s 1294 915 m 3 X s 1294 922 m 3 X s 1292 929 m 5 X s 1292 736 m 5 X s 1294 729 m 3 X s 1292 929 m 5 X s 1294 936 m 3 X s 1294 943 m 3 X s 1294 949 m 3 X s 1062 819 1132 890 1274 785 3
 { m21} R 1062 830 m 31 Y s 1056 861 m 11 X s 1062 807 m -31 Y s 1056 776 m 11 X s 1132 901 m 32 Y s 1127 933 m 11 X s 1132 879 m -32 Y s 1127 847 m 11 X s 1274 796 m 32 Y s 1268 828 m 11 X s 1274 773 m -31 Y s 1268 742 m 11 X s 1 0 0 c 9 lw 0.95
 0.95 0.95 c black 1 0 0 c 993 818 m 64 X 3 -1 d 30 X 4 -1 d 21 X 3 -1 d 15 X 3 -1 d 7 X s 1143 814 m 9 X 3 -1 d 12 X 3 -1 d 12 X 3 -1 d 10 X 3 -1 d 12 X 3 -1 d 9 X 3 -1 d 6 X 3 -1 d 10 X 3 -1 d 6 X 3 -1 d 9 X 3 -1 d 6 X 3 -1 d 6 X 3 -1 d 7 X s 1293
 802 m 3 -1 d s 0.49 0.6 0.82 c black 0.49 0.6 0.82 c
 gsave  408 305 930 677 C 1051.24 960.076 t 0 r /Helvetica-Bold findfont 25.6831 sf 0 0 m (3.5 < E < 4.0 GeV) show NC gr  0.52 0.76 0.64 c black 0.52 0.76 0.64 c
 gsave  408 305 930 677 C 1031.3 923.04 t 0 r /Helvetica-Bold findfont 25.6831 sf 0 0 m 
 228 214 200 193 178 171 156 149 133 126 119 105 91 77 69 55 47 39 25 17
(A = \2550.000, p = 2.000) K NC gr  1 0.6 1 c black 1 0.6 1 c
 gsave  408 305 930 677 C 1336.13 791.991 t 90 r /Helvetica-Bold findfont 28.5368 sf 0 0 m (/dof=1.6) show NC gr  black 1 0.6 1 c
 gsave  408 305 930 677 C 1324.73 780.596 t 90 r /Helvetica-Bold findfont 19.9758 sf 0 0 m (2) show NC gr  black 1 0.6 1 c
 gsave  408 305 930 677 C 1336.13 763.503 t 90 r /Symbol findfont 28.5368 sf 0 0 m (c) show NC gr  black 3 lw 1 1 1 c 408 305 1383 677 bf black 1 1 1 c black 306 229 1445 723 bl 306 229 1445 723 bl 1445 723 m 306 X s 1445 727 m -4 Y s 1586 727 m -4 Y
 s 1727 727 m -4 Y s 1727 727 m -4 Y s
 gsave  408 305 1383 677 C 1435.84 703.676 t 0 r /Helvetica findfont 22.8295 sf 0 0 m (0) show NC gr 
 gsave  408 305 1383 677 C 1578.29 703.676 t 0 r /Helvetica findfont 22.8295 sf 0 0 m (1) show NC gr 
 gsave  408 305 1383 677 C 1717.88 703.676 t 0 r /Helvetica findfont 22.8295 sf 0 0 m (2) show NC gr  1445 952 m 306 X s 1445 948 m 4 Y s 1586 948 m 4 Y s 1727 948 m 4 Y s 1727 948 m 4 Y s 1445 723 m 229 Y s 1450 748 m -5 X s 1447 756 m -2 X s 1447
 764 m -2 X s 1447 772 m -2 X s 1450 780 m -5 X s 1447 788 m -2 X s 1447 796 m -2 X s 1447 804 m -2 X s 1450 812 m -5 X s 1447 820 m -2 X s 1447 828 m -2 X s 1447 837 m -2 X s 1450 845 m -5 X s 1447 853 m -2 X s 1447 861 m -2 X s 1447 869 m -2 X s
 1450 877 m -5 X s 1447 885 m -2 X s 1447 893 m -2 X s 1447 901 m -2 X s 1450 909 m -5 X s 1447 917 m -2 X s 1447 925 m -2 X s 1447 933 m -2 X s 1450 941 m -5 X s 1450 748 m -5 X s 1447 740 m -2 X s 1447 732 m -2 X s 1447 724 m -2 X s 1450 941 m -5 X
 s 1447 949 m -2 X s
 gsave  408 305 1383 677 C 1376.01 740.711 t 0 r /Helvetica findfont 22.8295 sf 0 0 m (\2550.006) show NC gr 
 gsave  408 305 1383 677 C 1376.01 772.049 t 0 r /Helvetica findfont 22.8295 sf 0 0 m (\2550.004) show NC gr 
 gsave  408 305 1383 677 C 1376.01 806.236 t 0 r /Helvetica findfont 22.8295 sf 0 0 m (\2550.002) show NC gr 
 gsave  408 305 1383 677 C 1427.29 837.574 t 0 r /Helvetica findfont 22.8295 sf 0 0 m (0) show NC gr 
 gsave  408 305 1383 677 C 1384.56 868.911 t 0 r /Helvetica findfont 22.8295 sf 0 0 m (0.002) show NC gr 
 gsave  408 305 1383 677 C 1384.56 903.098 t 0 r /Helvetica findfont 22.8295 sf 0 0 m (0.004) show NC gr 
 gsave  408 305 1383 677 C 1384.56 934.436 t 0 r /Helvetica findfont 22.8295 sf 0 0 m (0.006) show NC gr  1751 723 m 229 Y s 1745 748 m 6 X s 1748 756 m 3 X s 1748 764 m 3 X s 1748 772 m 3 X s 1745 780 m 6 X s 1748 788 m 3 X s 1748 796 m 3 X s 1748
 804 m 3 X s 1745 812 m 6 X s 1748 820 m 3 X s 1748 828 m 3 X s 1748 837 m 3 X s 1745 845 m 6 X s 1748 853 m 3 X s 1748 861 m 3 X s 1748 869 m 3 X s 1745 877 m 6 X s 1748 885 m 3 X s 1748 893 m 3 X s 1748 901 m 3 X s 1745 909 m 6 X s 1748 917 m 3 X s
 1748 925 m 3 X s 1748 933 m 3 X s 1745 941 m 6 X s 1745 748 m 6 X s 1748 740 m 3 X s 1748 732 m 3 X s 1748 724 m 3 X s 1745 941 m 6 X s 1748 949 m 3 X s 1515 821 1586 869 1727 805 3 { m21} R 1515 833 m 52 Y s 1510 885 m 11 X s 1515 810 m -52 Y s
 1510 758 m 11 X s 1586 881 m 52 Y s 1580 933 m 12 X s 1586 858 m -52 Y s 1580 806 m 12 X s 1727 817 m 52 Y s 1722 869 m 11 X s 1727 794 m -52 Y s 1722 742 m 11 X s 1 0 0 c 9 lw 0.95 0.95 0.95 c black 1 0 0 c 1446 845 m 12 X 3 -1 d 34 X 3 -1 d 18 X 4
 -1 d 12 X 3 -1 d 9 X 3 -1 d 9 X 3 -1 d 6 X 4 -1 d 6 X 3 -1 d 6 X 3 -1 d 6 X 3 -1 d s 1596 835 m 6 X 3 -1 d 3 X 3 -1 d 3 X 4 -1 d 6 X 3 -1 d 3 X 3 -1 d 3 X 3 -1 d 3 X 3 -1 d 3 X 3 -1 d 3 X 3 -1 d 3 X 3 -1 d 3 X 4 -1 d 3 X 3 -1 d 3 -1 d 3 X 3 -1 d 3 X
 3 -1 d 3 -1 d 3 X 3 -1 d 3 X 3 -1 d 3 -1 d 3 X 3 -1 d 4 -1 d 3 X 3 -1 d 3 -1 d 3 -1 d 3 X 3 -1 d 3 -1 d 3 X 3 -1 d s 1746 808 m 3 -1 d s 0.49 0.6 0.82 c black 0.49 0.6 0.82 c
 gsave  408 305 1383 677 C 1504.21 960.076 t 0 r /Helvetica-Bold findfont 25.6831 sf 0 0 m (4.0 < E < 4.5 GeV) show NC gr  0.52 0.76 0.64 c black 0.52 0.76 0.64 c
 gsave  408 305 1383 677 C 1484.27 923.04 t 0 r /Helvetica-Bold findfont 25.6831 sf 0 0 m 
 228 214 200 193 178 171 156 149 134 126 119 105 91 77 69 55 47 40 25 17
(A = \2550.001, p = 2.000) K NC gr  1 0.6 1 c black 1 0.6 1 c
 gsave  408 305 1383 677 C 1789.1 791.991 t 90 r /Helvetica-Bold findfont 28.5368 sf 0 0 m (/dof=0.2) show NC gr  black 1 0.6 1 c
 gsave  408 305 1383 677 C 1777.71 780.596 t 90 r /Helvetica-Bold findfont 19.9758 sf 0 0 m (2) show NC gr  black 1 0.6 1 c
 gsave  408 305 1383 677 C 1789.1 763.503 t 90 r /Symbol findfont 28.5368 sf 0 0 m (c) show NC gr  black 3 lw 1 1 1 c 408 305 1837 677 bf black 1 1 1 c black 306 229 1898 723 bl 306 229 1898 723 bl 1898 723 m 306 X s 1898 727 m -4 Y s 2039 727 m -4 Y
 s 2181 727 m -4 Y s 2181 727 m -4 Y s
 gsave  408 305 1837 677 C 1888.81 703.676 t 0 r /Helvetica findfont 22.8295 sf 0 0 m (0) show NC gr 
 gsave  408 305 1837 677 C 2031.26 703.676 t 0 r /Helvetica findfont 22.8295 sf 0 0 m (1) show NC gr 
 gsave  408 305 1837 677 C 2170.85 703.676 t 0 r /Helvetica findfont 22.8295 sf 0 0 m (2) show NC gr  1898 952 m 306 X s 1898 948 m 4 Y s 2039 948 m 4 Y s 2181 948 m 4 Y s 2181 948 m 4 Y s 1898 723 m 229 Y s 1904 727 m -6 X s 1901 734 m -3 X s 1901
 741 m -3 X s 1901 747 m -3 X s 1904 754 m -6 X s 1901 761 m -3 X s 1901 767 m -3 X s 1901 774 m -3 X s 1904 781 m -6 X s 1901 787 m -3 X s 1901 794 m -3 X s 1901 801 m -3 X s 1904 807 m -6 X s 1901 814 m -3 X s 1901 821 m -3 X s 1901 827 m -3 X s
 1904 834 m -6 X s 1901 841 m -3 X s 1901 847 m -3 X s 1901 854 m -3 X s 1904 861 m -6 X s 1901 867 m -3 X s 1901 874 m -3 X s 1901 881 m -3 X s 1904 887 m -6 X s 1901 894 m -3 X s 1901 901 m -3 X s 1901 907 m -3 X s 1904 914 m -6 X s 1901 921 m -3 X
 s 1901 927 m -3 X s 1901 934 m -3 X s 1904 941 m -6 X s 1904 727 m -6 X s 1904 941 m -6 X s 1901 947 m -3 X s
 gsave  408 305 1837 677 C 1828.99 720.769 t 0 r /Helvetica findfont 22.8295 sf 0 0 m (\2550.008) show NC gr 
 gsave  408 305 1837 677 C 1828.99 746.409 t 0 r /Helvetica findfont 22.8295 sf 0 0 m (\2550.006) show NC gr 
 gsave  408 305 1837 677 C 1828.99 774.898 t 0 r /Helvetica findfont 22.8295 sf 0 0 m (\2550.004) show NC gr 
 gsave  408 305 1837 677 C 1828.99 800.538 t 0 r /Helvetica findfont 22.8295 sf 0 0 m (\2550.002) show NC gr 
 gsave  408 305 1837 677 C 1880.27 826.178 t 0 r /Helvetica findfont 22.8295 sf 0 0 m (0) show NC gr 
 gsave  408 305 1837 677 C 1837.53 854.667 t 0 r /Helvetica findfont 22.8295 sf 0 0 m (0.002) show NC gr 
 gsave  408 305 1837 677 C 1837.53 880.307 t 0 r /Helvetica findfont 22.8295 sf 0 0 m (0.004) show NC gr 
 gsave  408 305 1837 677 C 1837.53 905.947 t 0 r /Helvetica findfont 22.8295 sf 0 0 m (0.006) show NC gr 
 gsave  408 305 1837 677 C 1837.53 934.436 t 0 r /Helvetica findfont 22.8295 sf 0 0 m (0.008) show NC gr  2204 723 m 229 Y s 2199 727 m 5 X s 2201 734 m 3 X s 2201 741 m 3 X s 2201 747 m 3 X s 2199 754 m 5 X s 2201 761 m 3 X s 2201 767 m 3 X s 2201
 774 m 3 X s 2199 781 m 5 X s 2201 787 m 3 X s 2201 794 m 3 X s 2201 801 m 3 X s 2199 807 m 5 X s 2201 814 m 3 X s 2201 821 m 3 X s 2201 827 m 3 X s 2199 834 m 5 X s 2201 841 m 3 X s 2201 847 m 3 X s 2201 854 m 3 X s 2199 861 m 5 X s 2201 867 m 3 X s
 2201 874 m 3 X s 2201 881 m 3 X s 2199 887 m 5 X s 2201 894 m 3 X s 2201 901 m 3 X s 2201 907 m 3 X s 2199 914 m 5 X s 2201 921 m 3 X s 2201 927 m 3 X s 2201 934 m 3 X s 2199 941 m 5 X s 2199 727 m 5 X s 2199 941 m 5 X s 2201 947 m 3 X s 1969 864
 2039 841 2181 811 3 { m21} R 1969 875 m 58 Y s 1963 933 m 11 X s 1969 852 m -57 Y s 1963 795 m 11 X s 2039 853 m 57 Y s 2034 910 m 11 X s 2039 830 m -58 Y s 2034 772 m 11 X s 2181 822 m 58 Y s 2175 880 m 12 X s 2181 800 m -58 Y s 2175 742 m 12 X s 1
 0 0 c 9 lw 0.95 0.95 0.95 c black 1 0 0 c 1900 834 m 46 X 3 -1 d 30 X 3 -1 d 22 X 3 -1 d 15 X 3 -1 d 12 X 3 -1 d 10 X s 2050 829 m 3 X 3 -1 d 12 X 3 -1 d 9 X 3 -1 d 6 X 3 -1 d 10 X 3 -1 d 6 X 3 -1 d 9 X 3 -1 d 6 X 3 -1 d 6 X 4 -1 d 6 X 3 -1 d 3 X 3
 -1 d 6 X 3 -1 d 6 X 3 -1 d 3 X 3 -1 d 6 X 4 -1 d 3 X 3 -1 d s 2200 813 m 3 X s 0.49 0.6 0.82 c black 0.49 0.6 0.82 c
 gsave  408 305 1837 677 C 1957.19 960.076 t 0 r /Helvetica-Bold findfont 25.6831 sf 0 0 m (4.5 < E < 5.0 GeV) show NC gr  0.52 0.76 0.64 c black 0.52 0.76 0.64 c
 gsave  408 305 1837 677 C 1937.25 923.04 t 0 r /Helvetica-Bold findfont 25.6831 sf 0 0 m 
 228 214 200 193 178 171 156 149 133 126 119 105 91 77 69 55 47 39 25 17
(A = \2550.000, p = 2.000) K NC gr  1 0.6 1 c black 1 0.6 1 c
 gsave  408 305 1837 677 C 2242.08 791.991 t 90 r /Helvetica-Bold findfont 28.5368 sf 0 0 m (/dof=0.1) show NC gr  black 1 0.6 1 c
 gsave  408 305 1837 677 C 2230.68 780.596 t 90 r /Helvetica-Bold findfont 19.9758 sf 0 0 m (2) show NC gr  black 1 0.6 1 c
 gsave  408 305 1837 677 C 2242.08 763.503 t 90 r /Symbol findfont 28.5368 sf 0 0 m (c) show NC gr  black 3 lw 1 1 1 c 408 306 23 345 bf black 1 1 1 c black 306 229 84 391 bl 306 229 84 391 bl 84 391 m 306 X s 84 395 m -4 Y s 225 395 m -4 Y s 367 395
 m -4 Y s 367 395 m -4 Y s
 gsave  408 306 23 345 C 74.0711 370.356 t 0 r /Helvetica findfont 22.8295 sf 0 0 m (0) show NC gr 
 gsave  408 306 23 345 C 219.365 370.356 t 0 r /Helvetica findfont 22.8295 sf 0 0 m (1) show NC gr 
 gsave  408 306 23 345 C 356.111 370.356 t 0 r /Helvetica findfont 22.8295 sf 0 0 m (2) show NC gr  84 620 m 306 X s 84 616 m 4 Y s 225 616 m 4 Y s 367 616 m 4 Y s 367 616 m 4 Y s 84 391 m 229 Y s 89 405 m -5 X s 87 413 m -3 X s 87 421 m -3 X s 87
 428 m -3 X s 87 436 m -3 X s 89 444 m -5 X s 87 451 m -3 X s 87 459 m -3 X s 87 467 m -3 X s 87 474 m -3 X s 89 482 m -5 X s 87 490 m -3 X s 87 497 m -3 X s 87 505 m -3 X s 87 513 m -3 X s 89 520 m -5 X s 87 528 m -3 X s 87 536 m -3 X s 87 543 m -3
 X s 87 551 m -3 X s 89 559 m -5 X s 87 566 m -3 X s 87 574 m -3 X s 87 582 m -3 X s 87 590 m -3 X s 89 597 m -5 X s 89 405 m -5 X s 87 398 m -3 X s 89 597 m -5 X s 87 605 m -3 X s 87 613 m -3 X s
 gsave  408 306 23 345 C 14.2445 398.845 t 0 r /Helvetica findfont 22.8295 sf 0 0 m (\2550.005) show NC gr 
 gsave  408 306 23 345 C 65.5245 435.88 t 0 r /Helvetica findfont 22.8295 sf 0 0 m (0) show NC gr 
 gsave  408 306 23 345 C 22.7911 475.765 t 0 r /Helvetica findfont 22.8295 sf 0 0 m (0.005) show NC gr 
 gsave  408 306 23 345 C 37.0356 512.8 t 0 r /Helvetica findfont 22.8295 sf 0 0 m (0.01) show NC gr 
 gsave  408 306 23 345 C 22.7911 552.685 t 0 r /Helvetica findfont 22.8295 sf 0 0 m (0.015) show NC gr 
 gsave  408 306 23 345 C 34.1867 589.72 t 0 r /Helvetica findfont 22.8295 sf 0 0 m (0.02) show NC gr  390 391 m 229 Y s 385 405 m 5 X s 387 413 m 3 X s 387 421 m 3 X s 387 428 m 3 X s 387 436 m 3 X s 385 444 m 5 X s 387 451 m 3 X s 387 459 m 3 X s
 387 467 m 3 X s 387 474 m 3 X s 385 482 m 5 X s 387 490 m 3 X s 387 497 m 3 X s 387 505 m 3 X s 387 513 m 3 X s 385 520 m 5 X s 387 528 m 3 X s 387 536 m 3 X s 387 543 m 3 X s 387 551 m 3 X s 385 559 m 5 X s 387 566 m 3 X s 387 574 m 3 X s 387 582 m
 3 X s 387 590 m 3 X s 385 597 m 5 X s 385 405 m 5 X s 387 398 m 3 X s 385 597 m 5 X s 387 605 m 3 X s 387 613 m 3 X s /w 22 def /w2 {w 2 div} def /w3 {w 3 div} def 155 542 225 549 367 461 3 { m21} R 155 553 m 41 Y s 149 594 m 11 X s 155 530 m -40 Y
 s 149 490 m 11 X s 225 561 m 40 Y s 220 601 m 11 X s 225 538 m -40 Y s 220 498 m 11 X s 367 473 m 40 Y s 361 513 m 11 X s 367 450 m -40 Y s 361 410 m 11 X s 9 lw 0.95 0.95 0.95 c black 85 444 m 3 1 d 4 1 d 3 X 3 1 d 3 1 d 3 1 d 3 1 d 3 X 3 1 d 3 1 d
 3 1 d 3 X 3 1 d 3 1 d 3 1 d 3 1 d 3 X 4 1 d 3 1 d 3 1 d 3 X 3 1 d 3 1 d 3 1 d 3 1 d 3 X 3 1 d 3 1 d 3 1 d 3 X 3 1 d 3 1 d 3 1 d 4 1 d 3 X 3 1 d 3 1 d 3 1 d 3 1 d 3 X 3 1 d 3 1 d 3 1 d 3 X 3 1 d 3 1 d 3 1 d 3 1 d 3 X s 235 482 m 4 1 d 3 1 d 3 1 d 3 X
 3 1 d 3 1 d 3 1 d 3 1 d 3 X 3 1 d 3 1 d 3 1 d 3 X 3 1 d 3 1 d 3 1 d 3 1 d 4 X 3 1 d 3 1 d 3 1 d 3 X 3 1 d 3 1 d 3 1 d 3 1 d 3 X 3 1 d 3 1 d 3 1 d 3 X 3 1 d 3 1 d 4 1 d 3 1 d 3 X 3 1 d 3 1 d 3 1 d 3 X 3 1 d 3 1 d 3 1 d 3 1 d 3 X 3 1 d 3 1 d 3 1 d 3 X
 s 385 520 m 4 1 d s 0.49 0.6 0.82 c black 0.49 0.6 0.82 c
 gsave  408 306 23 345 C 142.445 629.605 t 0 r /Helvetica-Bold findfont 25.6831 sf 0 0 m (5.0 < E < 5.5 GeV) show NC gr  0.52 0.76 0.64 c black 0.52 0.76 0.64 c
 gsave  408 306 23 345 C 128.2 592.569 t 0 r /Helvetica-Bold findfont 25.6831 sf 0 0 m 
 220 206 192 185 170 163 148 141 126 118 111 97 83 69 61 47 40 25 18
(A = 0.005, p = 1.000) K NC gr  1 0.6 1 c black 1 0.6 1 c
 gsave  408 306 23 345 C 427.334 458.671 t 90 r /Helvetica-Bold findfont 28.5368 sf 0 0 m (/dof=2.7) show NC gr  black 1 0.6 1 c
 gsave  408 306 23 345 C 415.938 447.276 t 90 r /Helvetica-Bold findfont 19.9758 sf 0 0 m (2) show NC gr  black 1 0.6 1 c
 gsave  408 306 23 345 C 427.334 430.182 t 90 r /Symbol findfont 28.5368 sf 0 0 m (c) show NC gr  black 3 lw 1 1 1 c 408 306 476 345 bf black 1 1 1 c black 307 229 537 391 bl 307 229 537 391 bl 537 391 m 307 X s 537 395 m -4 Y s 679 395 m -4 Y s 820
 395 m -4 Y s 820 395 m -4 Y s
 gsave  408 306 476 345 C 527.045 370.356 t 0 r /Helvetica findfont 22.8295 sf 0 0 m (0) show NC gr 
 gsave  408 306 476 345 C 672.338 370.356 t 0 r /Helvetica findfont 22.8295 sf 0 0 m (1) show NC gr 
 gsave  408 306 476 345 C 809.085 370.356 t 0 r /Helvetica findfont 22.8295 sf 0 0 m (2) show NC gr  537 620 m 307 X s 537 616 m 4 Y s 679 616 m 4 Y s 820 616 m 4 Y s 820 616 m 4 Y s 537 391 m 229 Y s 543 425 m -6 X s 540 433 m -3 X s 540 440 m -3 X
 s 540 447 m -3 X s 540 455 m -3 X s 543 462 m -6 X s 540 469 m -3 X s 540 476 m -3 X s 540 484 m -3 X s 540 491 m -3 X s 543 498 m -6 X s 540 506 m -3 X s 540 513 m -3 X s 540 520 m -3 X s 540 528 m -3 X s 543 535 m -6 X s 540 542 m -3 X s 540 549 m
 -3 X s 540 557 m -3 X s 540 564 m -3 X s 543 571 m -6 X s 540 579 m -3 X s 540 586 m -3 X s 540 593 m -3 X s 540 600 m -3 X s 543 608 m -6 X s 543 425 m -6 X s 540 418 m -3 X s 540 411 m -3 X s 540 404 m -3 X s 540 396 m -3 X s 543 608 m -6 X s 540
 615 m -3 X s
 gsave  408 306 476 345 C 484.311 418.787 t 0 r /Helvetica findfont 22.8295 sf 0 0 m (\2550.01) show NC gr 
 gsave  408 306 476 345 C 467.218 455.822 t 0 r /Helvetica findfont 22.8295 sf 0 0 m (\2550.005) show NC gr 
 gsave  408 306 476 345 C 518.498 490.009 t 0 r /Helvetica findfont 22.8295 sf 0 0 m (0) show NC gr 
 gsave  408 306 476 345 C 475.765 527.045 t 0 r /Helvetica findfont 22.8295 sf 0 0 m (0.005) show NC gr 
 gsave  408 306 476 345 C 490.009 564.08 t 0 r /Helvetica findfont 22.8295 sf 0 0 m (0.01) show NC gr 
 gsave  408 306 476 345 C 475.765 601.116 t 0 r /Helvetica findfont 22.8295 sf 0 0 m (0.015) show NC gr  844 391 m 229 Y s 838 425 m 6 X s 841 433 m 3 X s 841 440 m 3 X s 841 447 m 3 X s 841 455 m 3 X s 838 462 m 6 X s 841 469 m 3 X s 841 476 m 3 X s
 841 484 m 3 X s 841 491 m 3 X s 838 498 m 6 X s 841 506 m 3 X s 841 513 m 3 X s 841 520 m 3 X s 841 528 m 3 X s 838 535 m 6 X s 841 542 m 3 X s 841 549 m 3 X s 841 557 m 3 X s 841 564 m 3 X s 838 571 m 6 X s 841 579 m 3 X s 841 586 m 3 X s 841 593 m
 3 X s 841 600 m 3 X s 838 608 m 6 X s 838 425 m 6 X s 841 418 m 3 X s 841 411 m 3 X s 841 404 m 3 X s 841 396 m 3 X s 838 608 m 6 X s 841 615 m 3 X s /w 23 def /w2 {w 2 div} def /w3 {w 3 div} def 608 471 679 493 820 540 3 { m21} R 608 483 m 49 Y s
 602 532 m 12 X s 608 460 m -50 Y s 602 410 m 12 X s 679 505 m 49 Y s 673 554 m 12 X s 679 482 m -50 Y s 673 432 m 12 X s 820 551 m 50 Y s 815 601 m 11 X s 820 528 m -49 Y s 815 479 m 11 X s 1 0 0 c 9 lw 0.95 0.95 0.95 c black 1 0 0 c 539 498 m 15 X
 3 1 d 31 X 3 1 d 15 X 3 1 d 10 X 3 1 d 9 X 3 1 d 9 X 3 1 d 6 X 3 1 d 6 X 3 1 d 7 X 3 1 d 6 X 3 1 d 3 X 3 1 d s 689 509 m 3 X 3 1 d 6 X 3 1 d 3 X 3 1 d 3 X 4 1 d 3 X 3 1 d 3 X 3 1 d 3 X 3 1 d 3 X 3 1 d 3 1 d 3 X 3 1 d 3 X 3 1 d 3 1 d 3 X 4 1 d 3 X 3
 1 d 3 1 d 3 X 3 1 d 3 1 d 3 X 3 1 d 3 1 d 3 1 d 3 X 3 1 d 3 1 d 3 X 3 1 d 4 1 d 3 1 d 3 1 d 3 X 3 1 d 3 1 d 3 1 d 3 1 d 3 X s 839 539 m 3 1 d s 0.49 0.6 0.82 c black 0.49 0.6 0.82 c
 gsave  408 306 476 345 C 595.418 629.605 t 0 r /Helvetica-Bold findfont 25.6831 sf 0 0 m (5.5 < E < 6.0 GeV) show NC gr  0.52 0.76 0.64 c black 0.52 0.76 0.64 c
 gsave  408 306 476 345 C 581.174 592.569 t 0 r /Helvetica-Bold findfont 25.6831 sf 0 0 m 
 220 206 192 185 170 163 148 141 125 118 111 97 83 68 61 47 40 25 18
(A = 0.001, p = 2.000) K NC gr  1 0.6 1 c black 1 0.6 1 c
 gsave  408 306 476 345 C 883.156 458.671 t 90 r /Helvetica-Bold findfont 28.5368 sf 0 0 m (/dof=0.1) show NC gr  black 1 0.6 1 c
 gsave  408 306 476 345 C 871.76 447.276 t 90 r /Helvetica-Bold findfont 19.9758 sf 0 0 m (2) show NC gr  black 1 0.6 1 c
 gsave  408 306 476 345 C 883.156 430.182 t 90 r /Symbol findfont 28.5368 sf 0 0 m (c) show NC gr  black 3 lw 1 1 1 c 408 306 930 345 bf black 1 1 1 c black 306 229 991 391 bl 306 229 991 391 bl 991 391 m 306 X s 991 395 m -4 Y s 1132 395 m -4 Y s
 1274 395 m -4 Y s 1274 395 m -4 Y s
 gsave  408 306 930 345 C 980.018 370.356 t 0 r /Helvetica findfont 22.8295 sf 0 0 m (0) show NC gr 
 gsave  408 306 930 345 C 1125.31 370.356 t 0 r /Helvetica findfont 22.8295 sf 0 0 m (1) show NC gr 
 gsave  408 306 930 345 C 1264.91 370.356 t 0 r /Helvetica findfont 22.8295 sf 0 0 m (2) show NC gr  991 620 m 306 X s 991 616 m 4 Y s 1132 616 m 4 Y s 1274 616 m 4 Y s 1274 616 m 4 Y s 991 391 m 229 Y s 997 406 m -6 X s 994 410 m -3 X s 994 415 m -3
 X s 994 420 m -3 X s 994 425 m -3 X s 997 429 m -6 X s 994 434 m -3 X s 994 439 m -3 X s 994 444 m -3 X s 994 448 m -3 X s 997 453 m -6 X s 994 458 m -3 X s 994 463 m -3 X s 994 467 m -3 X s 994 472 m -3 X s 997 477 m -6 X s 994 482 m -3 X s 994 487
 m -3 X s 994 491 m -3 X s 994 496 m -3 X s 997 501 m -6 X s 994 506 m -3 X s 994 510 m -3 X s 994 515 m -3 X s 994 520 m -3 X s 997 525 m -6 X s 994 529 m -3 X s 994 534 m -3 X s 994 539 m -3 X s 994 544 m -3 X s 997 548 m -6 X s 994 553 m -3 X s
 994 558 m -3 X s 994 563 m -3 X s 994 567 m -3 X s 997 572 m -6 X s 994 577 m -3 X s 994 582 m -3 X s 994 586 m -3 X s 994 591 m -3 X s 997 596 m -6 X s 994 601 m -3 X s 994 605 m -3 X s 994 610 m -3 X s 994 615 m -3 X s 997 620 m -6 X s 997 406 m
 -6 X s 994 401 m -3 X s 994 396 m -3 X s 994 391 m -3 X s 997 620 m -6 X s
 gsave  408 306 930 345 C 937.285 398.845 t 0 r /Helvetica findfont 22.8295 sf 0 0 m (\2550.02) show NC gr 
 gsave  408 306 930 345 C 923.04 421.636 t 0 r /Helvetica findfont 22.8295 sf 0 0 m (\2550.015) show NC gr 
 gsave  408 306 930 345 C 940.134 447.276 t 0 r /Helvetica findfont 22.8295 sf 0 0 m (\2550.01) show NC gr 
 gsave  408 306 930 345 C 923.04 470.067 t 0 r /Helvetica findfont 22.8295 sf 0 0 m (\2550.005) show NC gr 
 gsave  408 306 930 345 C 974.32 492.858 t 0 r /Helvetica findfont 22.8295 sf 0 0 m (0) show NC gr 
 gsave  408 306 930 345 C 931.587 518.498 t 0 r /Helvetica findfont 22.8295 sf 0 0 m (0.005) show NC gr 
 gsave  408 306 930 345 C 945.832 541.289 t 0 r /Helvetica findfont 22.8295 sf 0 0 m (0.01) show NC gr 
 gsave  408 306 930 345 C 931.587 564.08 t 0 r /Helvetica findfont 22.8295 sf 0 0 m (0.015) show NC gr 
 gsave  408 306 930 345 C 942.983 589.72 t 0 r /Helvetica findfont 22.8295 sf 0 0 m (0.02) show NC gr 
 gsave  408 306 930 345 C 931.587 612.511 t 0 r /Helvetica findfont 22.8295 sf 0 0 m (0.025) show NC gr  1297 391 m 229 Y s 1292 406 m 5 X s 1294 410 m 3 X s 1294 415 m 3 X s 1294 420 m 3 X s 1294 425 m 3 X s 1292 429 m 5 X s 1294 434 m 3 X s 1294
 439 m 3 X s 1294 444 m 3 X s 1294 448 m 3 X s 1292 453 m 5 X s 1294 458 m 3 X s 1294 463 m 3 X s 1294 467 m 3 X s 1294 472 m 3 X s 1292 477 m 5 X s 1294 482 m 3 X s 1294 487 m 3 X s 1294 491 m 3 X s 1294 496 m 3 X s 1292 501 m 5 X s 1294 506 m 3 X s
 1294 510 m 3 X s 1294 515 m 3 X s 1294 520 m 3 X s 1292 525 m 5 X s 1294 529 m 3 X s 1294 534 m 3 X s 1294 539 m 3 X s 1294 544 m 3 X s 1292 548 m 5 X s 1294 553 m 3 X s 1294 558 m 3 X s 1294 563 m 3 X s 1294 567 m 3 X s 1292 572 m 5 X s 1294 577 m
 3 X s 1294 582 m 3 X s 1294 586 m 3 X s 1294 591 m 3 X s 1292 596 m 5 X s 1294 601 m 3 X s 1294 605 m 3 X s 1294 610 m 3 X s 1294 615 m 3 X s 1292 620 m 5 X s 1292 406 m 5 X s 1294 401 m 3 X s 1294 396 m 3 X s 1294 391 m 3 X s 1292 620 m 5 X s 1062
 458 1132 518 1274 552 3 { m21} R 1062 470 m 36 Y s 1056 506 m 11 X s 1062 447 m -37 Y s 1056 410 m 11 X s 1132 530 m 37 Y s 1127 567 m 11 X s 1132 507 m -37 Y s 1127 470 m 11 X s 1274 564 m 37 Y s 1268 601 m 11 X s 1274 541 m -37 Y s 1268 504 m 11 X
 s 1 0 0 c 9 lw 0.95 0.95 0.95 c black 1 0 0 c 993 501 m 30 X 3 1 d 16 X 3 1 d 12 X 3 1 d 6 X 3 1 d 6 X 3 1 d 6 X 3 1 d 7 X 3 1 d 3 X 3 1 d 6 X 3 1 d 3 X 3 1 d 3 X 3 1 d 3 X 3 1 d 3 X 3 1 d 3 1 d 4 X s 1143 515 m 3 1 d 3 X 3 1 d 3 X 3 1 d 3 1 d 3 X 3
 1 d 3 1 d 3 X 3 1 d 3 1 d 3 1 d 3 X 3 1 d 4 1 d 3 1 d 3 X 3 1 d 3 1 d 3 1 d 3 1 d 3 X 3 1 d 3 1 d 3 1 d 3 1 d 3 1 d 3 1 d 3 1 d 3 1 d 3 1 d 4 1 d 3 1 d 3 1 d 3 X 3 1 d 3 2 d 3 1 d 3 1 d 3 1 d 3 1 d 3 1 d 3 1 d 3 1 d 3 1 d 3 1 d 3 1 d 4 1 d s 1293
 557 m 3 2 d s 0.49 0.6 0.82 c black 0.49 0.6 0.82 c
 gsave  408 306 930 345 C 1051.24 629.605 t 0 r /Helvetica-Bold findfont 25.6831 sf 0 0 m (6.0 < E < 6.5 GeV) show NC gr  0.52 0.76 0.64 c black 0.52 0.76 0.64 c
 gsave  408 306 930 345 C 1037 592.569 t 0 r /Helvetica-Bold findfont 25.6831 sf 0 0 m 
 220 206 192 185 170 163 148 141 125 118 111 97 83 69 61 47 40 25 18
(A = 0.003, p = 2.000) K NC gr  1 0.6 1 c black 1 0.6 1 c
 gsave  408 306 930 345 C 1336.13 458.671 t 90 r /Helvetica-Bold findfont 28.5368 sf 0 0 m (/dof=0.5) show NC gr  black 1 0.6 1 c
 gsave  408 306 930 345 C 1324.73 447.276 t 90 r /Helvetica-Bold findfont 19.9758 sf 0 0 m (2) show NC gr  black 1 0.6 1 c
 gsave  408 306 930 345 C 1336.13 430.182 t 90 r /Symbol findfont 28.5368 sf 0 0 m (c) show NC gr  black 3 lw 1 1 1 c 408 306 1383 345 bf black 1 1 1 c black 306 229 1445 391 bl 306 229 1445 391 bl 1445 391 m 306 X s 1445 395 m -4 Y s 1586 395 m -4 Y
 s 1727 395 m -4 Y s 1727 395 m -4 Y s
 gsave  408 306 1383 345 C 1435.84 370.356 t 0 r /Helvetica findfont 22.8295 sf 0 0 m (0) show NC gr 
 gsave  408 306 1383 345 C 1578.29 370.356 t 0 r /Helvetica findfont 22.8295 sf 0 0 m (1) show NC gr 
 gsave  408 306 1383 345 C 1717.88 370.356 t 0 r /Helvetica findfont 22.8295 sf 0 0 m (2) show NC gr  1445 620 m 306 X s 1445 616 m 4 Y s 1586 616 m 4 Y s 1727 616 m 4 Y s 1727 616 m 4 Y s 1445 391 m 229 Y s 1450 395 m -5 X s 1447 403 m -2 X s 1447
 412 m -2 X s 1447 420 m -2 X s 1447 429 m -2 X s 1450 437 m -5 X s 1447 446 m -2 X s 1447 454 m -2 X s 1447 462 m -2 X s 1447 471 m -2 X s 1450 479 m -5 X s 1447 488 m -2 X s 1447 496 m -2 X s 1447 505 m -2 X s 1447 513 m -2 X s 1450 522 m -5 X s
 1447 530 m -2 X s 1447 538 m -2 X s 1447 547 m -2 X s 1447 555 m -2 X s 1450 564 m -5 X s 1447 572 m -2 X s 1447 581 m -2 X s 1447 589 m -2 X s 1447 597 m -2 X s 1450 606 m -5 X s 1450 395 m -5 X s 1450 606 m -5 X s 1447 614 m -2 X s
 gsave  408 306 1383 345 C 1390.26 387.449 t 0 r /Helvetica findfont 22.8295 sf 0 0 m (\2550.02) show NC gr 
 gsave  408 306 1383 345 C 1393.11 430.182 t 0 r /Helvetica findfont 22.8295 sf 0 0 m (\2550.01) show NC gr 
 gsave  408 306 1383 345 C 1427.29 472.916 t 0 r /Helvetica findfont 22.8295 sf 0 0 m (0) show NC gr 
 gsave  408 306 1383 345 C 1398.81 515.649 t 0 r /Helvetica findfont 22.8295 sf 0 0 m (0.01) show NC gr 
 gsave  408 306 1383 345 C 1395.96 555.534 t 0 r /Helvetica findfont 22.8295 sf 0 0 m (0.02) show NC gr 
 gsave  408 306 1383 345 C 1395.96 598.267 t 0 r /Helvetica findfont 22.8295 sf 0 0 m (0.03) show NC gr  1751 391 m 229 Y s 1745 395 m 6 X s 1748 403 m 3 X s 1748 412 m 3 X s 1748 420 m 3 X s 1748 429 m 3 X s 1745 437 m 6 X s 1748 446 m 3 X s 1748
 454 m 3 X s 1748 462 m 3 X s 1748 471 m 3 X s 1745 479 m 6 X s 1748 488 m 3 X s 1748 496 m 3 X s 1748 505 m 3 X s 1748 513 m 3 X s 1745 522 m 6 X s 1748 530 m 3 X s 1748 538 m 3 X s 1748 547 m 3 X s 1748 555 m 3 X s 1745 564 m 6 X s 1748 572 m 3 X s
 1748 581 m 3 X s 1748 589 m 3 X s 1748 597 m 3 X s 1745 606 m 6 X s 1745 395 m 6 X s 1745 606 m 6 X s 1748 614 m 3 X s 1515 460 1586 550 1727 490 3 { m21} R 1515 472 m 39 Y s 1510 511 m 11 X s 1515 449 m -39 Y s 1510 410 m 11 X s 1586 561 m 40 Y s
 1580 601 m 12 X s 1586 539 m -40 Y s 1580 499 m 12 X s 1727 502 m 39 Y s 1722 541 m 11 X s 1727 479 m -39 Y s 1722 440 m 11 X s 9 lw 0.95 0.95 0.95 c black 1446 479 m 3 1 d 6 X 3 1 d 6 X 3 1 d 7 X 3 1 d 3 X 3 1 d 6 X 3 1 d 6 X 3 1 d 6 X 3 1 d 6 X 4
 1 d 6 X 3 1 d 6 X 3 1 d 6 X 3 1 d 6 X 3 1 d 6 X 3 1 d 7 X 3 1 d 6 X 3 1 d 6 X 3 1 d 3 X s 1596 496 m 3 X 3 1 d 6 X 3 1 d 7 X 3 1 d 6 X 3 1 d 6 X 3 1 d 6 X 3 1 d 6 X 3 1 d 6 X 3 1 d 7 X 3 1 d 6 X 3 1 d 6 X 3 1 d 6 X 3 1 d 6 X 3 1 d 7 X 3 1 d 6 X 3 1
 d 3 X 3 1 d 6 X 3 1 d s 1746 513 m 3 X s 0.49 0.6 0.82 c black 0.49 0.6 0.82 c
 gsave  408 306 1383 345 C 1504.21 629.605 t 0 r /Helvetica-Bold findfont 25.6831 sf 0 0 m (6.5 < E < 7.0 GeV) show NC gr  0.52 0.76 0.64 c black 0.52 0.76 0.64 c
 gsave  408 306 1383 345 C 1489.97 592.569 t 0 r /Helvetica-Bold findfont 25.6831 sf 0 0 m 
 220 206 192 185 170 163 148 141 126 118 111 97 83 69 61 47 40 25 18
(A = 0.004, p = 1.000) K NC gr  1 0.6 1 c black 1 0.6 1 c
 gsave  408 306 1383 345 C 1789.1 458.671 t 90 r /Helvetica-Bold findfont 28.5368 sf 0 0 m (/dof=0.8) show NC gr  black 1 0.6 1 c
 gsave  408 306 1383 345 C 1777.71 447.276 t 90 r /Helvetica-Bold findfont 19.9758 sf 0 0 m (2) show NC gr  black 1 0.6 1 c
 gsave  408 306 1383 345 C 1789.1 430.182 t 90 r /Symbol findfont 28.5368 sf 0 0 m (c) show NC gr  black 3 lw 1 1 1 c 408 306 1837 345 bf black 1 1 1 c black 306 229 1898 391 bl 306 229 1898 391 bl 1898 391 m 306 X s 1898 395 m -4 Y s 2039 395 m -4 Y
 s 2181 395 m -4 Y s 2181 395 m -4 Y s
 gsave  408 306 1837 345 C 1888.81 370.356 t 0 r /Helvetica findfont 22.8295 sf 0 0 m (0) show NC gr 
 gsave  408 306 1837 345 C 2031.26 370.356 t 0 r /Helvetica findfont 22.8295 sf 0 0 m (1) show NC gr 
 gsave  408 306 1837 345 C 2170.85 370.356 t 0 r /Helvetica findfont 22.8295 sf 0 0 m (2) show NC gr  1898 620 m 306 X s 1898 616 m 4 Y s 2039 616 m 4 Y s 2181 616 m 4 Y s 2181 616 m 4 Y s 1898 391 m 229 Y s 1904 426 m -6 X s 1901 434 m -3 X s 1901
 441 m -3 X s 1901 449 m -3 X s 1901 457 m -3 X s 1904 465 m -6 X s 1901 473 m -3 X s 1901 480 m -3 X s 1901 488 m -3 X s 1901 496 m -3 X s 1904 504 m -6 X s 1901 512 m -3 X s 1901 519 m -3 X s 1901 527 m -3 X s 1901 535 m -3 X s 1904 543 m -6 X s
 1901 551 m -3 X s 1901 558 m -3 X s 1901 566 m -3 X s 1901 574 m -3 X s 1904 582 m -6 X s 1904 426 m -6 X s 1901 418 m -3 X s 1901 410 m -3 X s 1901 402 m -3 X s 1901 395 m -3 X s 1904 582 m -6 X s 1901 590 m -3 X s 1901 597 m -3 X s 1901 605 m -3 X
 s 1901 613 m -3 X s
 gsave  408 306 1837 345 C 1846.08 418.787 t 0 r /Helvetica findfont 22.8295 sf 0 0 m (\2550.01) show NC gr 
 gsave  408 306 1837 345 C 1880.27 458.671 t 0 r /Helvetica findfont 22.8295 sf 0 0 m (0) show NC gr 
 gsave  408 306 1837 345 C 1851.78 495.707 t 0 r /Helvetica findfont 22.8295 sf 0 0 m (0.01) show NC gr 
 gsave  408 306 1837 345 C 1848.93 535.591 t 0 r /Helvetica findfont 22.8295 sf 0 0 m (0.02) show NC gr 
 gsave  408 306 1837 345 C 1848.93 575.476 t 0 r /Helvetica findfont 22.8295 sf 0 0 m (0.03) show NC gr  2204 391 m 229 Y s 2199 426 m 5 X s 2201 434 m 3 X s 2201 441 m 3 X s 2201 449 m 3 X s 2201 457 m 3 X s 2199 465 m 5 X s 2201 473 m 3 X s 2201
 480 m 3 X s 2201 488 m 3 X s 2201 496 m 3 X s 2199 504 m 5 X s 2201 512 m 3 X s 2201 519 m 3 X s 2201 527 m 3 X s 2201 535 m 3 X s 2199 543 m 5 X s 2201 551 m 3 X s 2201 558 m 3 X s 2201 566 m 3 X s 2201 574 m 3 X s 2199 582 m 5 X s 2199 426 m 5 X s
 2201 418 m 3 X s 2201 410 m 3 X s 2201 402 m 3 X s 2201 395 m 3 X s 2199 582 m 5 X s 2201 590 m 3 X s 2201 597 m 3 X s 2201 605 m 3 X s 2201 613 m 3 X s 1969 547 2039 463 2181 495 3 { m21} R 1969 558 m 43 Y s 1963 601 m 11 X s 1969 535 m -42 Y s
 1963 493 m 11 X s 2039 475 m 41 Y s 2034 516 m 11 X s 2039 452 m -42 Y s 2034 410 m 11 X s 2181 507 m 41 Y s 2175 548 m 12 X s 2181 484 m -42 Y s 2175 442 m 12 X s 9 lw 0.95 0.95 0.95 c black 1900 465 m 3 X 3 1 d 3 X 3 1 d 6 X 3 1 d 3 X 3 1 d 6 X 3
 1 d 3 X 3 1 d 4 X 3 1 d 6 X 3 1 d 3 X 3 1 d 6 X 3 1 d 3 X 3 1 d 6 X 3 1 d 3 X 4 1 d 6 X 3 1 d 3 X 3 1 d 3 X 3 1 d 6 X 3 1 d 3 X 3 1 d 6 X 3 1 d 3 X 4 1 d 3 X s 2050 485 m 3 X 3 1 d 3 X 3 1 d 6 X 3 1 d 3 X 3 1 d 3 X 3 1 d 6 X 3 1 d 4 X 3 1 d 6 X 3 1
 d 3 X 3 1 d 6 X 3 1 d 3 X 3 1 d 6 X 3 1 d 3 X 4 1 d 6 X 3 1 d 3 X 3 1 d 3 X 3 1 d 6 X 3 1 d 3 X 3 1 d 6 X 3 1 d 4 X 3 1 d 3 X s 2200 505 m 3 X s 0.49 0.6 0.82 c black 0.49 0.6 0.82 c
 gsave  408 306 1837 345 C 1957.19 629.605 t 0 r /Helvetica-Bold findfont 25.6831 sf 0 0 m (7.0 < E < 7.5 GeV) show NC gr  0.52 0.76 0.64 c black 0.52 0.76 0.64 c
 gsave  408 306 1837 345 C 1942.94 592.569 t 0 r /Helvetica-Bold findfont 25.6831 sf 0 0 m 
 220 206 192 185 170 163 148 141 125 118 111 97 83 69 61 47 40 25 18
(A = 0.005, p = 1.000) K NC gr  1 0.6 1 c black 1 0.6 1 c
 gsave  408 306 1837 345 C 2242.08 458.671 t 90 r /Helvetica-Bold findfont 28.5368 sf 0 0 m (/dof=1.0) show NC gr  black 1 0.6 1 c
 gsave  408 306 1837 345 C 2230.68 447.276 t 90 r /Helvetica-Bold findfont 19.9758 sf 0 0 m (2) show NC gr  black 1 0.6 1 c
 gsave  408 306 1837 345 C 2242.08 430.182 t 90 r /Symbol findfont 28.5368 sf 0 0 m (c) show NC gr  black 3 lw 1 1 1 c 408 306 23 13 bf black 1 1 1 c black 306 229 84 59 bl 306 229 84 59 bl 84 59 m 306 X s 84 63 m -4 Y s 225 63 m -4 Y s 367 63 m -4 Y
 s 367 63 m -4 Y s
 gsave  408 306 23 13 C 74.0711 39.8845 t 0 r /Helvetica findfont 22.8295 sf 0 0 m (0) show NC gr 
 gsave  408 306 23 13 C 219.365 39.8845 t 0 r /Helvetica findfont 22.8295 sf 0 0 m (1) show NC gr 
 gsave  408 306 23 13 C 356.111 39.8845 t 0 r /Helvetica findfont 22.8295 sf 0 0 m (2) show NC gr  84 288 m 306 X s 84 284 m 4 Y s 225 284 m 4 Y s 367 284 m 4 Y s 367 284 m 4 Y s 84 59 m 229 Y s 89 86 m -5 X s 87 93 m -3 X s 87 99 m -3 X s 87 106 m
 -3 X s 87 112 m -3 X s 89 119 m -5 X s 87 125 m -3 X s 87 132 m -3 X s 87 138 m -3 X s 87 145 m -3 X s 89 151 m -5 X s 87 158 m -3 X s 87 164 m -3 X s 87 171 m -3 X s 87 177 m -3 X s 89 184 m -5 X s 87 190 m -3 X s 87 197 m -3 X s 87 203 m -3 X s 87
 210 m -3 X s 89 216 m -5 X s 87 223 m -3 X s 87 229 m -3 X s 87 236 m -3 X s 87 242 m -3 X s 89 249 m -5 X s 87 255 m -3 X s 87 262 m -3 X s 87 268 m -3 X s 87 275 m -3 X s 89 281 m -5 X s 89 86 m -5 X s 87 80 m -3 X s 87 73 m -3 X s 87 67 m -3 X s
 87 60 m -3 X s 89 281 m -5 X s 87 288 m -3 X s
 gsave  408 306 23 13 C 28.4889 79.7689 t 0 r /Helvetica findfont 22.8295 sf 0 0 m (\2550.02) show NC gr 
 gsave  408 306 23 13 C 31.3378 111.107 t 0 r /Helvetica findfont 22.8295 sf 0 0 m (\2550.01) show NC gr 
 gsave  408 306 23 13 C 65.5245 145.293 t 0 r /Helvetica findfont 22.8295 sf 0 0 m (0) show NC gr 
 gsave  408 306 23 13 C 37.0356 176.631 t 0 r /Helvetica findfont 22.8295 sf 0 0 m (0.01) show NC gr 
 gsave  408 306 23 13 C 34.1867 207.969 t 0 r /Helvetica findfont 22.8295 sf 0 0 m (0.02) show NC gr 
 gsave  408 306 23 13 C 34.1867 242.156 t 0 r /Helvetica findfont 22.8295 sf 0 0 m (0.03) show NC gr 
 gsave  408 306 23 13 C 34.1867 273.493 t 0 r /Helvetica findfont 22.8295 sf 0 0 m (0.04) show NC gr  390 59 m 229 Y s 385 86 m 5 X s 387 93 m 3 X s 387 99 m 3 X s 387 106 m 3 X s 387 112 m 3 X s 385 119 m 5 X s 387 125 m 3 X s 387 132 m 3 X s 387
 138 m 3 X s 387 145 m 3 X s 385 151 m 5 X s 387 158 m 3 X s 387 164 m 3 X s 387 171 m 3 X s 387 177 m 3 X s 385 184 m 5 X s 387 190 m 3 X s 387 197 m 3 X s 387 203 m 3 X s 387 210 m 3 X s 385 216 m 5 X s 387 223 m 3 X s 387 229 m 3 X s 387 236 m 3 X
 s 387 242 m 3 X s 385 249 m 5 X s 387 255 m 3 X s 387 262 m 3 X s 387 268 m 3 X s 387 275 m 3 X s 385 281 m 5 X s 385 86 m 5 X s 387 80 m 3 X s 387 73 m 3 X s 387 67 m 3 X s 387 60 m 3 X s 385 281 m 5 X s 387 288 m 3 X s /w 22 def /w2 {w 2 div} def
 /w3 {w 3 div} def 155 160 225 126 367 220 3 { m21} R 155 171 m 37 Y s 149 208 m 11 X s 155 148 m -37 Y s 149 111 m 11 X s 225 138 m 36 Y s 220 174 m 11 X s 225 115 m -37 Y s 220 78 m 11 X s 367 231 m 38 Y s 361 269 m 11 X s 367 209 m -38 Y s 361 171
 m 11 X s 1 0 0 c 9 lw 0.95 0.95 0.95 c black 1 0 0 c 85 151 m 10 X 3 1 d 24 X 3 1 d 12 X 4 1 d 6 X 3 1 d 9 X 3 1 d 3 X 3 1 d 6 X 3 1 d 3 X 3 1 d 3 X 4 1 d 3 X 3 1 d 3 X 3 1 d 3 X 3 1 d 3 X 3 1 d 3 X 3 1 d 3 1 d 3 X 3 1 d 3 X 3 1 d s 235 168 m 4 1 d
 3 1 d 3 X 3 1 d 3 1 d 3 X 3 1 d 3 1 d 3 1 d 3 1 d 3 X 3 1 d 3 1 d 3 1 d 3 1 d 3 1 d 3 1 d 4 1 d 3 1 d 3 X 3 1 d 3 1 d 3 1 d 3 1 d 3 1 d 3 1 d 3 1 d 3 2 d 3 1 d 3 1 d 3 1 d 3 1 d 3 1 d 4 1 d 3 1 d 3 1 d 3 2 d 3 1 d 3 1 d 3 1 d 3 2 d 3 1 d 3 1 d 3 1 d
 3 2 d 3 1 d 3 1 d 3 2 d 3 1 d s 385 218 m 4 1 d s 0.49 0.6 0.82 c black 0.49 0.6 0.82 c
 gsave  408 306 23 13 C 142.445 296.285 t 0 r /Helvetica-Bold findfont 25.6831 sf 0 0 m (7.5 < E < 8.0 GeV) show NC gr  0.52 0.76 0.64 c black 0.52 0.76 0.64 c
 gsave  408 306 23 13 C 128.2 259.249 t 0 r /Helvetica-Bold findfont 25.6831 sf 0 0 m 
 220 206 192 185 170 163 148 141 126 118 111 97 83 69 61 47 40 25 18
(A = 0.005, p = 2.000) K NC gr  1 0.6 1 c black 1 0.6 1 c
 gsave  408 306 23 13 C 427.334 128.2 t 90 r /Helvetica-Bold findfont 28.5368 sf 0 0 m (/dof=0.4) show NC gr  black 1 0.6 1 c
 gsave  408 306 23 13 C 415.938 116.804 t 90 r /Helvetica-Bold findfont 19.9758 sf 0 0 m (2) show NC gr  black 1 0.6 1 c
 gsave  408 306 23 13 C 427.334 99.7112 t 90 r /Symbol findfont 28.5368 sf 0 0 m (c) show NC gr  black 3 lw 1 1 1 c 408 306 476 13 bf black 1 1 1 c black 307 229 537 59 bl 307 229 537 59 bl 537 59 m 307 X s 537 63 m -4 Y s 679 63 m -4 Y s 820 63 m -4
 Y s 820 63 m -4 Y s
 gsave  408 306 476 13 C 527.045 39.8845 t 0 r /Helvetica findfont 22.8295 sf 0 0 m (0) show NC gr 
 gsave  408 306 476 13 C 672.338 39.8845 t 0 r /Helvetica findfont 22.8295 sf 0 0 m (1) show NC gr 
 gsave  408 306 476 13 C 809.085 39.8845 t 0 r /Helvetica findfont 22.8295 sf 0 0 m (2) show NC gr  537 288 m 307 X s 537 284 m 4 Y s 679 284 m 4 Y s 820 284 m 4 Y s 820 284 m 4 Y s 537 59 m 229 Y s 543 82 m -6 X s 540 87 m -3 X s 540 92 m -3 X s 540
 97 m -3 X s 540 102 m -3 X s 543 106 m -6 X s 540 111 m -3 X s 540 116 m -3 X s 540 121 m -3 X s 540 126 m -3 X s 543 131 m -6 X s 540 136 m -3 X s 540 141 m -3 X s 540 146 m -3 X s 540 151 m -3 X s 543 156 m -6 X s 540 161 m -3 X s 540 166 m -3 X s
 540 171 m -3 X s 540 176 m -3 X s 543 181 m -6 X s 540 186 m -3 X s 540 190 m -3 X s 540 195 m -3 X s 540 200 m -3 X s 543 205 m -6 X s 540 210 m -3 X s 540 215 m -3 X s 540 220 m -3 X s 540 225 m -3 X s 543 230 m -6 X s 540 235 m -3 X s 540 240 m
 -3 X s 540 245 m -3 X s 540 250 m -3 X s 543 255 m -6 X s 540 260 m -3 X s 540 265 m -3 X s 540 270 m -3 X s 540 274 m -3 X s 543 279 m -6 X s 543 82 m -6 X s 540 77 m -3 X s 540 72 m -3 X s 540 67 m -3 X s 540 62 m -3 X s 543 279 m -6 X s 540 284 m
 -3 X s
 gsave  408 306 476 13 C 484.311 74.0711 t 0 r /Helvetica findfont 22.8295 sf 0 0 m (\2550.01) show NC gr 
 gsave  408 306 476 13 C 467.218 99.7112 t 0 r /Helvetica findfont 22.8295 sf 0 0 m (\2550.005) show NC gr 
 gsave  408 306 476 13 C 518.498 125.351 t 0 r /Helvetica findfont 22.8295 sf 0 0 m (0) show NC gr 
 gsave  408 306 476 13 C 475.765 148.142 t 0 r /Helvetica findfont 22.8295 sf 0 0 m (0.005) show NC gr 
 gsave  408 306 476 13 C 490.009 173.782 t 0 r /Helvetica findfont 22.8295 sf 0 0 m (0.01) show NC gr 
 gsave  408 306 476 13 C 475.765 199.422 t 0 r /Helvetica findfont 22.8295 sf 0 0 m (0.015) show NC gr 
 gsave  408 306 476 13 C 487.16 222.213 t 0 r /Helvetica findfont 22.8295 sf 0 0 m (0.02) show NC gr 
 gsave  408 306 476 13 C 475.765 247.853 t 0 r /Helvetica findfont 22.8295 sf 0 0 m (0.025) show NC gr 
 gsave  408 306 476 13 C 487.16 273.493 t 0 r /Helvetica findfont 22.8295 sf 0 0 m (0.03) show NC gr  844 59 m 229 Y s 838 82 m 6 X s 841 87 m 3 X s 841 92 m 3 X s 841 97 m 3 X s 841 102 m 3 X s 838 106 m 6 X s 841 111 m 3 X s 841 116 m 3 X s 841 121
 m 3 X s 841 126 m 3 X s 838 131 m 6 X s 841 136 m 3 X s 841 141 m 3 X s 841 146 m 3 X s 841 151 m 3 X s 838 156 m 6 X s 841 161 m 3 X s 841 166 m 3 X s 841 171 m 3 X s 841 176 m 3 X s 838 181 m 6 X s 841 186 m 3 X s 841 190 m 3 X s 841 195 m 3 X s
 841 200 m 3 X s 838 205 m 6 X s 841 210 m 3 X s 841 215 m 3 X s 841 220 m 3 X s 841 225 m 3 X s 838 230 m 6 X s 841 235 m 3 X s 841 240 m 3 X s 841 245 m 3 X s 841 250 m 3 X s 838 255 m 6 X s 841 260 m 3 X s 841 265 m 3 X s 841 270 m 3 X s 841 274 m
 3 X s 838 279 m 6 X s 838 82 m 6 X s 841 77 m 3 X s 841 72 m 3 X s 841 67 m 3 X s 841 62 m 3 X s 838 279 m 6 X s 841 284 m 3 X s /w 23 def /w2 {w 2 div} def /w3 {w 3 div} def 608 159 679 168 820 188 3 { m21} R 608 170 m 69 Y s 602 239 m 12 X s 608
 147 m -69 Y s 602 78 m 12 X s 679 180 m 69 Y s 673 249 m 12 X s 679 157 m -69 Y s 673 88 m 12 X s 820 200 m 69 Y s 815 269 m 11 X s 820 177 m -69 Y s 815 108 m 11 X s 9 lw 0.95 0.95 0.95 c black 539 132 m 3 X 3 1 d 3 1 d 3 X 3 1 d 3 1 d 3 X 3 1 d 4
 1 d 3 X 3 1 d 3 1 d 3 X 3 1 d 3 1 d 3 X 3 1 d 3 1 d 3 X 3 1 d 3 1 d 3 1 d 3 X 3 1 d 4 1 d 3 X 3 1 d 3 1 d 3 X 3 1 d 3 1 d 3 X 3 1 d 3 1 d 3 X 3 1 d 3 1 d 3 X 3 1 d 3 1 d 3 X 4 1 d 3 1 d 3 1 d 3 X 3 1 d 3 1 d 3 X 3 1 d s 689 165 m 3 1 d 3 X 3 1 d 3 1
 d 3 X 3 1 d 3 1 d 3 X 4 1 d 3 1 d 3 X 3 1 d 3 1 d 3 X 3 1 d 3 1 d 3 1 d 3 X 3 1 d 3 1 d 3 X 3 1 d 3 1 d 3 X 4 1 d 3 1 d 3 X 3 1 d 3 1 d 3 X 3 1 d 3 1 d 3 X 3 1 d 3 1 d 3 X 3 1 d 3 1 d 3 1 d 3 X 4 1 d 3 1 d 3 X 3 1 d 3 1 d 3 X 3 1 d 3 1 d 3 X s 839
 198 m 3 1 d s 0.49 0.6 0.82 c black 0.49 0.6 0.82 c
 gsave  408 306 476 13 C 595.418 296.285 t 0 r /Helvetica-Bold findfont 25.6831 sf 0 0 m (8.0 < E < 8.5 GeV) show NC gr  0.52 0.76 0.64 c black 0.52 0.76 0.64 c
 gsave  408 306 476 13 C 581.174 259.249 t 0 r /Helvetica-Bold findfont 25.6831 sf 0 0 m 
 220 206 192 185 170 163 148 141 125 118 111 97 83 68 61 47 40 25 18
(A = 0.006, p = 1.000) K NC gr  1 0.6 1 c black 1 0.6 1 c
 gsave  408 306 476 13 C 883.156 128.2 t 90 r /Helvetica-Bold findfont 28.5368 sf 0 0 m (/dof=0.0) show NC gr  black 1 0.6 1 c
 gsave  408 306 476 13 C 871.76 116.804 t 90 r /Helvetica-Bold findfont 19.9758 sf 0 0 m (2) show NC gr  black 1 0.6 1 c
 gsave  408 306 476 13 C 883.156 99.7112 t 90 r /Symbol findfont 28.5368 sf 0 0 m (c) show NC gr  black 3 lw 1 1 1 c 408 306 930 13 bf black 1 1 1 c black 306 229 991 59 bl 306 229 991 59 bl 991 59 m 306 X s 991 63 m -4 Y s 1132 63 m -4 Y s 1274 63 m
 -4 Y s 1274 63 m -4 Y s
 gsave  408 306 930 13 C 980.018 39.8845 t 0 r /Helvetica findfont 22.8295 sf 0 0 m (0) show NC gr 
 gsave  408 306 930 13 C 1125.31 39.8845 t 0 r /Helvetica findfont 22.8295 sf 0 0 m (1) show NC gr 
 gsave  408 306 930 13 C 1264.91 39.8845 t 0 r /Helvetica findfont 22.8295 sf 0 0 m (2) show NC gr  991 288 m 306 X s 991 284 m 4 Y s 1132 284 m 4 Y s 1274 284 m 4 Y s 1274 284 m 4 Y s 991 59 m 229 Y s 997 83 m -6 X s 994 88 m -3 X s 994 94 m -3 X s
 994 99 m -3 X s 994 104 m -3 X s 997 109 m -6 X s 994 114 m -3 X s 994 119 m -3 X s 994 125 m -3 X s 994 130 m -3 X s 997 135 m -6 X s 994 140 m -3 X s 994 145 m -3 X s 994 150 m -3 X s 994 156 m -3 X s 997 161 m -6 X s 994 166 m -3 X s 994 171 m -3
 X s 994 176 m -3 X s 994 181 m -3 X s 997 187 m -6 X s 994 192 m -3 X s 994 197 m -3 X s 994 202 m -3 X s 994 207 m -3 X s 997 213 m -6 X s 994 218 m -3 X s 994 223 m -3 X s 994 228 m -3 X s 994 233 m -3 X s 997 238 m -6 X s 994 244 m -3 X s 994 249
 m -3 X s 994 254 m -3 X s 994 259 m -3 X s 997 264 m -6 X s 997 83 m -6 X s 994 78 m -3 X s 994 73 m -3 X s 994 68 m -3 X s 994 63 m -3 X s 997 264 m -6 X s 994 269 m -3 X s 994 275 m -3 X s 994 280 m -3 X s 994 285 m -3 X s
 gsave  408 306 930 13 C 937.285 76.92 t 0 r /Helvetica findfont 22.8295 sf 0 0 m (\2550.03) show NC gr 
 gsave  408 306 930 13 C 937.285 102.56 t 0 r /Helvetica findfont 22.8295 sf 0 0 m (\2550.02) show NC gr 
 gsave  408 306 930 13 C 940.134 128.2 t 0 r /Helvetica findfont 22.8295 sf 0 0 m (\2550.01) show NC gr 
 gsave  408 306 930 13 C 974.32 153.84 t 0 r /Helvetica findfont 22.8295 sf 0 0 m (0) show NC gr 
 gsave  408 306 930 13 C 945.832 179.48 t 0 r /Helvetica findfont 22.8295 sf 0 0 m (0.01) show NC gr 
 gsave  408 306 930 13 C 942.983 205.12 t 0 r /Helvetica findfont 22.8295 sf 0 0 m (0.02) show NC gr 
 gsave  408 306 930 13 C 942.983 230.76 t 0 r /Helvetica findfont 22.8295 sf 0 0 m (0.03) show NC gr 
 gsave  408 306 930 13 C 942.983 256.4 t 0 r /Helvetica findfont 22.8295 sf 0 0 m (0.04) show NC gr  1297 59 m 229 Y s 1292 83 m 5 X s 1294 88 m 3 X s 1294 94 m 3 X s 1294 99 m 3 X s 1294 104 m 3 X s 1292 109 m 5 X s 1294 114 m 3 X s 1294 119 m 3 X s
 1294 125 m 3 X s 1294 130 m 3 X s 1292 135 m 5 X s 1294 140 m 3 X s 1294 145 m 3 X s 1294 150 m 3 X s 1294 156 m 3 X s 1292 161 m 5 X s 1294 166 m 3 X s 1294 171 m 3 X s 1294 176 m 3 X s 1294 181 m 3 X s 1292 187 m 5 X s 1294 192 m 3 X s 1294 197 m
 3 X s 1294 202 m 3 X s 1294 207 m 3 X s 1292 213 m 5 X s 1294 218 m 3 X s 1294 223 m 3 X s 1294 228 m 3 X s 1294 233 m 3 X s 1292 238 m 5 X s 1294 244 m 3 X s 1294 249 m 3 X s 1294 254 m 3 X s 1294 259 m 3 X s 1292 264 m 5 X s 1292 83 m 5 X s 1294
 78 m 3 X s 1294 73 m 3 X s 1294 68 m 3 X s 1294 63 m 3 X s 1292 264 m 5 X s 1294 269 m 3 X s 1294 275 m 3 X s 1294 280 m 3 X s 1294 285 m 3 X s 1062 223 1132 123 1274 217 3 { m21} R 1062 235 m 34 Y s 1056 269 m 11 X s 1062 212 m -34 Y s 1056 178 m
 11 X s 1132 134 m 33 Y s 1127 167 m 11 X s 1132 111 m -33 Y s 1127 78 m 11 X s 1274 228 m 34 Y s 1268 262 m 11 X s 1274 205 m -34 Y s 1268 171 m 11 X s 1 0 0 c 9 lw 0.95 0.95 0.95 c black 1 0 0 c 993 161 m 30 X 3 1 d 19 X 3 1 d 9 X 3 1 d 9 X 3 1 d 6
 X 3 1 d 6 X 3 1 d 7 X 3 1 d 6 X 3 1 d 3 X 3 1 d 3 X 3 1 d 3 X 3 1 d 3 X 3 1 d 3 X 3 1 d 4 X s 1143 174 m 3 1 d 3 X 3 1 d 3 X 3 1 d 3 1 d 3 X 3 1 d 3 X 3 1 d 3 1 d 3 X 3 1 d 3 1 d 3 X 4 1 d 3 1 d 3 1 d 3 X 3 1 d 3 1 d 3 1 d 3 X 3 1 d 3 1 d 3 1 d 3 1
 d 3 X 3 1 d 3 1 d 3 1 d 3 1 d 4 1 d 3 1 d 3 1 d 3 X 3 1 d 3 1 d 3 1 d 3 1 d 3 1 d 3 1 d 3 1 d 3 1 d 3 1 d 3 1 d 3 1 d 3 1 d 4 1 d s 1293 213 m 3 2 d s 0.49 0.6 0.82 c black 0.49 0.6 0.82 c
 gsave  408 306 930 13 C 1051.24 296.285 t 0 r /Helvetica-Bold findfont 25.6831 sf 0 0 m (8.5 < E < 9.0 GeV) show NC gr  0.52 0.76 0.64 c black 0.52 0.76 0.64 c
 gsave  408 306 930 13 C 1037 259.249 t 0 r /Helvetica-Bold findfont 25.6831 sf 0 0 m 
 220 206 192 185 170 163 148 141 125 118 111 97 83 69 61 47 40 25 18
(A = 0.004, p = 2.000) K NC gr  1 0.6 1 c black 1 0.6 1 c
 gsave  408 306 930 13 C 1336.13 128.2 t 90 r /Helvetica-Bold findfont 28.5368 sf 0 0 m (/dof=1.5) show NC gr  black 1 0.6 1 c
 gsave  408 306 930 13 C 1324.73 116.804 t 90 r /Helvetica-Bold findfont 19.9758 sf 0 0 m (2) show NC gr  black 1 0.6 1 c
 gsave  408 306 930 13 C 1336.13 99.7112 t 90 r /Symbol findfont 28.5368 sf 0 0 m (c) show NC gr  black 3 lw 1 1 1 c 408 306 1383 13 bf black 1 1 1 c black 306 229 1445 59 bl 306 229 1445 59 bl 1445 59 m 306 X s 1445 63 m -4 Y s 1586 63 m -4 Y s 1727
 63 m -4 Y s 1727 63 m -4 Y s
 gsave  408 306 1383 13 C 1435.84 39.8845 t 0 r /Helvetica findfont 22.8295 sf 0 0 m (0) show NC gr 
 gsave  408 306 1383 13 C 1578.29 39.8845 t 0 r /Helvetica findfont 22.8295 sf 0 0 m (1) show NC gr 
 gsave  408 306 1383 13 C 1717.88 39.8845 t 0 r /Helvetica findfont 22.8295 sf 0 0 m (2) show NC gr  1445 288 m 306 X s 1445 284 m 4 Y s 1586 284 m 4 Y s 1727 284 m 4 Y s 1727 284 m 4 Y s 1445 59 m 229 Y s 1450 77 m -5 X s 1447 83 m -2 X s 1447 90 m
 -2 X s 1447 97 m -2 X s 1447 104 m -2 X s 1450 111 m -5 X s 1447 118 m -2 X s 1447 125 m -2 X s 1447 132 m -2 X s 1447 138 m -2 X s 1450 145 m -5 X s 1447 152 m -2 X s 1447 159 m -2 X s 1447 166 m -2 X s 1447 173 m -2 X s 1450 180 m -5 X s 1447 187
 m -2 X s 1447 193 m -2 X s 1447 200 m -2 X s 1447 207 m -2 X s 1450 214 m -5 X s 1447 221 m -2 X s 1447 228 m -2 X s 1447 235 m -2 X s 1447 241 m -2 X s 1450 248 m -5 X s 1447 255 m -2 X s 1447 262 m -2 X s 1447 269 m -2 X s 1447 276 m -2 X s 1450
 283 m -5 X s 1450 77 m -5 X s 1447 70 m -2 X s 1447 63 m -2 X s 1450 283 m -5 X s
 gsave  408 306 1383 13 C 1390.26 68.3734 t 0 r /Helvetica findfont 22.8295 sf 0 0 m (\2550.04) show NC gr 
 gsave  408 306 1383 13 C 1390.26 102.56 t 0 r /Helvetica findfont 22.8295 sf 0 0 m (\2550.03) show NC gr 
 gsave  408 306 1383 13 C 1390.26 136.747 t 0 r /Helvetica findfont 22.8295 sf 0 0 m (\2550.02) show NC gr 
 gsave  408 306 1383 13 C 1393.11 173.782 t 0 r /Helvetica findfont 22.8295 sf 0 0 m (\2550.01) show NC gr 
 gsave  408 306 1383 13 C 1427.29 207.969 t 0 r /Helvetica findfont 22.8295 sf 0 0 m (0) show NC gr 
 gsave  408 306 1383 13 C 1398.81 242.156 t 0 r /Helvetica findfont 22.8295 sf 0 0 m (0.01) show NC gr 
 gsave  408 306 1383 13 C 1395.96 276.342 t 0 r /Helvetica findfont 22.8295 sf 0 0 m (0.02) show NC gr  1751 59 m 229 Y s 1745 77 m 6 X s 1748 83 m 3 X s 1748 90 m 3 X s 1748 97 m 3 X s 1748 104 m 3 X s 1745 111 m 6 X s 1748 118 m 3 X s 1748 125 m 3
 X s 1748 132 m 3 X s 1748 138 m 3 X s 1745 145 m 6 X s 1748 152 m 3 X s 1748 159 m 3 X s 1748 166 m 3 X s 1748 173 m 3 X s 1745 180 m 6 X s 1748 187 m 3 X s 1748 193 m 3 X s 1748 200 m 3 X s 1748 207 m 3 X s 1745 214 m 6 X s 1748 221 m 3 X s 1748
 228 m 3 X s 1748 235 m 3 X s 1748 241 m 3 X s 1745 248 m 6 X s 1748 255 m 3 X s 1748 262 m 3 X s 1748 269 m 3 X s 1748 276 m 3 X s 1745 283 m 6 X s 1745 77 m 6 X s 1748 70 m 3 X s 1748 63 m 3 X s 1745 283 m 6 X s 1515 148 1586 141 1727 205 3 { m21}
 R 1515 159 m 52 Y s 1510 211 m 11 X s 1515 137 m -52 Y s 1510 85 m 11 X s 1586 153 m 51 Y s 1580 204 m 12 X s 1586 130 m -52 Y s 1580 78 m 12 X s 1727 217 m 52 Y s 1722 269 m 11 X s 1727 194 m -53 Y s 1722 141 m 11 X s 9 lw 0.95 0.95 0.95 c black
 1446 214 m 3 -1 d 3 X 3 -1 d 3 X 3 -1 d 3 X 3 -1 d 4 X 3 -1 d 3 X 3 -1 d 3 X 3 -1 d 3 X 3 -1 d 3 X 3 -1 d 3 -1 d 3 X 3 -1 d 3 X 3 -1 d 3 X 4 -1 d 3 X 3 -1 d 3 X 3 -1 d 3 X 3 -1 d 3 X 3 -1 d 3 X 3 -1 d 3 X 3 -1 d 3 X 3 -1 d 3 X 4 -1 d 3 X 3 -1 d 3 X
 3 -1 d 3 X 3 -1 d 3 X 3 -1 d 3 X s 1596 189 m 3 -1 d 3 X 3 -1 d 3 -1 d 3 X 3 -1 d 4 X 3 -1 d 3 X 3 -1 d 3 X 3 -1 d 3 X 3 -1 d 3 X 3 -1 d 3 X 3 -1 d 3 X 3 -1 d 3 X 3 -1 d 3 X 4 -1 d 3 X 3 -1 d 3 X 3 -1 d 3 X 3 -1 d 3 X 3 -1 d 3 X 3 -1 d 3 X 3 -1 d 3
 -1 d 3 X 3 -1 d 4 X 3 -1 d 3 X 3 -1 d 3 X 3 -1 d 3 X 3 -1 d 3 X 3 -1 d s 1746 163 m 3 X s 0.49 0.6 0.82 c black 0.49 0.6 0.82 c
 gsave  408 306 1383 13 C 1504.21 296.285 t 0 r /Helvetica-Bold findfont 25.6831 sf 0 0 m (9.0 < E < 9.5 GeV) show NC gr  0.52 0.76 0.64 c black 0.52 0.76 0.64 c
 gsave  408 306 1383 13 C 1484.27 259.249 t 0 r /Helvetica-Bold findfont 25.6831 sf 0 0 m 
 228 214 200 193 178 171 156 149 134 126 119 105 91 77 69 55 47 40 25 17
(A = \2550.007, p = 1.000) K NC gr  1 0.6 1 c black 1 0.6 1 c
 gsave  408 306 1383 13 C 1789.1 128.2 t 90 r /Helvetica-Bold findfont 28.5368 sf 0 0 m (/dof=0.9) show NC gr  black 1 0.6 1 c
 gsave  408 306 1383 13 C 1777.71 116.804 t 90 r /Helvetica-Bold findfont 19.9758 sf 0 0 m (2) show NC gr  black 1 0.6 1 c
 gsave  408 306 1383 13 C 1789.1 99.7112 t 90 r /Symbol findfont 28.5368 sf 0 0 m (c) show NC gr  black 3 lw 1 1 1 c 408 306 1837 13 bf black 1 1 1 c black 306 229 1898 59 bl 306 229 1898 59 bl 1898 59 m 306 X s 1898 63 m -4 Y s 2039 63 m -4 Y s 2181
 63 m -4 Y s 2181 63 m -4 Y s
 gsave  408 306 1837 13 C 1888.81 39.8845 t 0 r /Helvetica findfont 22.8295 sf 0 0 m (0) show NC gr 
 gsave  408 306 1837 13 C 2031.26 39.8845 t 0 r /Helvetica findfont 22.8295 sf 0 0 m (1) show NC gr 
 gsave  408 306 1837 13 C 2170.85 39.8845 t 0 r /Helvetica findfont 22.8295 sf 0 0 m (2) show NC gr  1898 288 m 306 X s 1898 284 m 4 Y s 2039 284 m 4 Y s 2181 284 m 4 Y s 2181 284 m 4 Y s 1898 59 m 229 Y s 1904 70 m -6 X s 1901 76 m -3 X s 1901 82 m
 -3 X s 1901 87 m -3 X s 1901 93 m -3 X s 1904 98 m -6 X s 1901 104 m -3 X s 1901 110 m -3 X s 1901 115 m -3 X s 1901 121 m -3 X s 1904 126 m -6 X s 1901 132 m -3 X s 1901 138 m -3 X s 1901 143 m -3 X s 1901 149 m -3 X s 1904 154 m -6 X s 1901 160 m
 -3 X s 1901 166 m -3 X s 1901 171 m -3 X s 1901 177 m -3 X s 1904 182 m -6 X s 1901 188 m -3 X s 1901 194 m -3 X s 1901 199 m -3 X s 1901 205 m -3 X s 1904 210 m -6 X s 1901 216 m -3 X s 1901 222 m -3 X s 1901 227 m -3 X s 1901 233 m -3 X s 1904 238
 m -6 X s 1901 244 m -3 X s 1901 250 m -3 X s 1901 255 m -3 X s 1901 261 m -3 X s 1904 266 m -6 X s 1904 70 m -6 X s 1901 65 m -3 X s 1901 59 m -3 X s 1904 266 m -6 X s 1901 272 m -3 X s 1901 278 m -3 X s 1901 283 m -3 X s
 gsave  408 306 1837 13 C 1846.08 62.6756 t 0 r /Helvetica findfont 22.8295 sf 0 0 m (\2550.01) show NC gr 
 gsave  408 306 1837 13 C 1880.27 91.1645 t 0 r /Helvetica findfont 22.8295 sf 0 0 m (0) show NC gr 
 gsave  408 306 1837 13 C 1851.78 119.653 t 0 r /Helvetica findfont 22.8295 sf 0 0 m (0.01) show NC gr 
 gsave  408 306 1837 13 C 1848.93 148.142 t 0 r /Helvetica findfont 22.8295 sf 0 0 m (0.02) show NC gr 
 gsave  408 306 1837 13 C 1848.93 176.631 t 0 r /Helvetica findfont 22.8295 sf 0 0 m (0.03) show NC gr 
 gsave  408 306 1837 13 C 1848.93 202.271 t 0 r /Helvetica findfont 22.8295 sf 0 0 m (0.04) show NC gr 
 gsave  408 306 1837 13 C 1848.93 230.76 t 0 r /Helvetica findfont 22.8295 sf 0 0 m (0.05) show NC gr 
 gsave  408 306 1837 13 C 1848.93 259.249 t 0 r /Helvetica findfont 22.8295 sf 0 0 m (0.06) show NC gr  2204 59 m 229 Y s 2199 70 m 5 X s 2201 76 m 3 X s 2201 82 m 3 X s 2201 87 m 3 X s 2201 93 m 3 X s 2199 98 m 5 X s 2201 104 m 3 X s 2201 110 m 3 X
 s 2201 115 m 3 X s 2201 121 m 3 X s 2199 126 m 5 X s 2201 132 m 3 X s 2201 138 m 3 X s 2201 143 m 3 X s 2201 149 m 3 X s 2199 154 m 5 X s 2201 160 m 3 X s 2201 166 m 3 X s 2201 171 m 3 X s 2201 177 m 3 X s 2199 182 m 5 X s 2201 188 m 3 X s 2201 194
 m 3 X s 2201 199 m 3 X s 2201 205 m 3 X s 2199 210 m 5 X s 2201 216 m 3 X s 2201 222 m 3 X s 2201 227 m 3 X s 2201 233 m 3 X s 2199 238 m 5 X s 2201 244 m 3 X s 2201 250 m 3 X s 2201 255 m 3 X s 2201 261 m 3 X s 2199 266 m 5 X s 2199 70 m 5 X s 2201
 65 m 3 X s 2201 59 m 3 X s 2199 266 m 5 X s 2201 272 m 3 X s 2201 278 m 3 X s 2201 283 m 3 X s 1969 135 2039 170 2181 211 3 { m21} R 1969 146 m 45 Y s 1963 191 m 11 X s 1969 123 m -45 Y s 1963 78 m 11 X s 2039 182 m 45 Y s 2034 227 m 11 X s 2039 159
 m -46 Y s 2034 113 m 11 X s 2181 223 m 46 Y s 2175 269 m 12 X s 2181 200 m -46 Y s 2175 154 m 12 X s 9 lw 0.95 0.95 0.95 c black 1900 99 m 3 1 d 3 2 d 3 1 d 3 1 d 3 2 d 3 1 d 3 1 d 3 1 d 3 2 d 3 1 d 3 1 d 3 2 d 3 1 d 3 1 d 4 2 d 3 1 d 3 1 d 3 2 d 3
 1 d 3 1 d 3 1 d 3 2 d 3 1 d 3 1 d 3 2 d 3 1 d 3 1 d 3 2 d 3 1 d 3 1 d 4 1 d 3 2 d 3 1 d 3 1 d 3 2 d 3 1 d 3 1 d 3 2 d 3 1 d 3 1 d 3 2 d 3 1 d 3 1 d 3 1 d 3 2 d 3 1 d 3 1 d 4 2 d 3 1 d s 2050 163 m 3 1 d 3 2 d 3 1 d 3 1 d 3 1 d 3 2 d 3 1 d 3 1 d 3 2
 d 3 1 d 3 1 d 3 2 d 3 1 d 3 1 d 4 2 d 3 1 d 3 1 d 3 1 d 3 2 d 3 1 d 3 1 d 3 2 d 3 1 d 3 1 d 3 2 d 3 1 d 3 1 d 3 2 d 3 1 d 3 1 d 4 1 d 3 2 d 3 1 d 3 1 d 3 2 d 3 1 d 3 1 d 3 2 d 3 1 d 3 1 d 3 1 d 3 2 d 3 1 d 3 1 d 3 2 d 3 1 d 4 1 d 3 2 d 3 1 d s 2200
 227 m 3 1 d s 0.49 0.6 0.82 c black 0.49 0.6 0.82 c
 gsave  408 306 1837 13 C 1948.64 296.285 t 0 r /Helvetica-Bold findfont 25.6831 sf 0 0 m (9.5 < E < 10.0 GeV) show NC gr  0.52 0.76 0.64 c black 0.52 0.76 0.64 c
 gsave  408 306 1837 13 C 1942.94 259.249 t 0 r /Helvetica-Bold findfont 25.6831 sf 0 0 m 
 220 206 192 185 170 163 148 141 125 118 111 97 83 69 61 47 40 25 18
(A = 0.022, p = 1.000) K NC gr  1 0.6 1 c black 1 0.6 1 c
 gsave  408 306 1837 13 C 2242.08 128.2 t 90 r /Helvetica-Bold findfont 28.5368 sf 0 0 m (/dof=0.0) show NC gr  black 1 0.6 1 c
 gsave  408 306 1837 13 C 2230.68 116.804 t 90 r /Helvetica-Bold findfont 19.9758 sf 0 0 m (2) show NC gr  black 1 0.6 1 c
 gsave  408 306 1837 13 C 2242.08 99.7112 t 90 r /Symbol findfont 28.5368 sf 0 0 m (c) show NC gr 
 gr  gr showpage
end
%%EOF
