%!PS-Adobe-2.0 EPSF-2.0
%%BoundingBox:  0 0 567 332
%%Title: Horn1YOffset_near_fits.eps: Fits
%%Creator: ROOT Version 5.30/06
%%CreationDate: Sun Feb  2 09:40:06 2014
%%EndComments
%%BeginProlog
80 dict begin
/s {stroke} def /l {lineto} def /m {moveto} def /t {translate} def
/r {rotate} def /rl {roll}  def /R {repeat} def
/d {rlineto} def /rm {rmoveto} def /gr {grestore} def /f {eofill} def
/c {setrgbcolor} def /black {0 setgray} def /sd {setdash} def
/cl {closepath} def /sf {scalefont setfont} def /lw {setlinewidth} def
/box {m dup 0 exch d exch 0 d 0 exch neg d cl} def
/NC{systemdict begin initclip end}def/C{NC box clip newpath}def
/bl {box s} def /bf {box f} def /Y { 0 exch d} def /X { 0 d} def 
/K {{pop pop 0 moveto} exch kshow} bind def
/ita {/ang 15 def gsave [1 0 ang dup sin exch cos div 1 0 0] concat} def 
/mp {newpath /y exch def /x exch def} def
/side {[w .77 mul w .23 mul] .385 w mul sd w 0 l currentpoint t -144 r} def
/mr {mp x y w2 0 360 arc} def /m24 {mr s} def /m20 {mr f} def
/mb {mp x y w2 add m w2 neg 0 d 0 w neg d w 0 d 0 w d cl} def
/mt {mp x y w2 add m w2 neg w neg d w 0 d cl} def
/m21 {mb f} def /m25 {mb s} def /m22 {mt f} def /m26{mt s} def
/m23 {mp x y w2 sub m w2 w d w neg 0 d cl f} def
/m27 {mp x y w2 add m w3 neg w2 neg d w3 w2 neg d w3 w2 d cl s} def
/m28 {mp x w2 sub y w2 sub w3 add m w3 0 d  0 w3 neg d w3 0 d 0 w3 d w3 0 d  0 w3 d w3 neg 0 d 0 w3 d w3 neg 0 d 0 w3 neg d w3 neg 0 d cl s } def
/m29 {mp gsave x w2 sub y w2 add w3 sub m currentpoint t 4 {side} repeat cl fill gr} def
/m30 {mp gsave x w2 sub y w2 add w3 sub m currentpoint t 4 {side} repeat cl s gr} def
/m31 {mp x y w2 sub m 0 w d x w2 sub y m w 0 d x w2 sub y w2 add m w w neg d x w2 sub y w2 sub m w w d s} def
/m32 {mp x y w2 sub m w2 w d w neg 0 d cl s} def
/m33 {mp x y w2 add m w3 neg w2 neg d w3 w2 neg d w3 w2 d cl f} def
/m34 {mp x w2 sub y w2 sub w3 add m w3 0 d  0 w3 neg d w3 0 d 0 w3 d w3 0 d  0 w3 d w3 neg 0 d 0 w3 d w3 neg 0 d 0 w3 neg d w3 neg 0 d cl f } def
/m2 {mp x y w2 sub m 0 w d x w2 sub y m w 0 d s} def
/m5 {mp x w2 sub y w2 sub m w w d x w2 sub y w2 add m w w neg d s} def
/reEncode {exch findfont dup length dict begin {1 index /FID eq  {pop pop} {def} ifelse } forall /Encoding exch def currentdict end dup /FontName get exch definefont pop } def [/Times-Bold /Times-Italic /Times-BoldItalic /Helvetica /Helvetica-Oblique
 /Helvetica-Bold /Helvetica-BoldOblique /Courier /Courier-Oblique /Courier-Bold /Courier-BoldOblique /Times-Roman /AvantGarde-Book /AvantGarde-BookOblique /AvantGarde-Demi /AvantGarde-DemiOblique /Bookman-Demi /Bookman-DemiItalic /Bookman-Light
 /Bookman-LightItalic /Helvetica-Narrow /Helvetica-Narrow-Bold /Helvetica-Narrow-BoldOblique /Helvetica-Narrow-Oblique /NewCenturySchlbk-Roman /NewCenturySchlbk-Bold /NewCenturySchlbk-BoldItalic /NewCenturySchlbk-Italic /Palatino-Bold
 /Palatino-BoldItalic /Palatino-Italic /Palatino-Roman ] {ISOLatin1Encoding reEncode } forall%%EndProlog
%%BeginSetup
%%EndSetup
newpath  gsave  .25 .25 scale  gsave  0 0 t black[  ] 0 sd 3 lw 1 1 1 c 2268 1328 0 0 bf black 1 1 1 c 408 305 23 1009 bf black 1 1 1 c black 306 229 84 1055 bl 306 229 84 1055 bl 84 1055 m 306 X s 84 1059 m -4 Y s 196 1059 m -4 Y s 309 1059 m -4 Y s
 309 1059 m -4 Y s
 gsave  408 305 23 1009 C 74.0711 1034.15 t 0 r /Helvetica findfont 22.8295 sf 0 0 m (0) show NC gr 
 gsave  408 305 23 1009 C 188.027 1034.15 t 0 r /Helvetica findfont 22.8295 sf 0 0 m (1) show NC gr 
 gsave  408 305 23 1009 C 299.133 1034.15 t 0 r /Helvetica findfont 22.8295 sf 0 0 m (2) show NC gr  84 1284 m 306 X s 84 1280 m 4 Y s 196 1280 m 4 Y s 309 1280 m 4 Y s 309 1280 m 4 Y s 84 1055 m 229 Y s 89 1074 m -5 X s 87 1080 m -3 X s 87 1085 m -3
 X s 87 1091 m -3 X s 87 1096 m -3 X s 89 1102 m -5 X s 87 1108 m -3 X s 87 1113 m -3 X s 87 1119 m -3 X s 87 1124 m -3 X s 89 1130 m -5 X s 87 1135 m -3 X s 87 1141 m -3 X s 87 1146 m -3 X s 87 1152 m -3 X s 89 1157 m -5 X s 87 1163 m -3 X s 87 1168
 m -3 X s 87 1174 m -3 X s 87 1179 m -3 X s 89 1185 m -5 X s 87 1190 m -3 X s 87 1196 m -3 X s 87 1201 m -3 X s 87 1207 m -3 X s 89 1212 m -5 X s 87 1218 m -3 X s 87 1224 m -3 X s 87 1229 m -3 X s 87 1235 m -3 X s 89 1240 m -5 X s 87 1246 m -3 X s 87
 1251 m -3 X s 87 1257 m -3 X s 87 1262 m -3 X s 89 1268 m -5 X s 89 1074 m -5 X s 87 1069 m -3 X s 87 1063 m -3 X s 87 1058 m -3 X s 89 1268 m -5 X s 87 1273 m -3 X s 87 1279 m -3 X s
 gsave  408 305 23 1009 C 14.2445 1068.33 t 0 r /Helvetica findfont 22.8295 sf 0 0 m (\2550.003) show NC gr 
 gsave  408 305 23 1009 C 14.2445 1093.97 t 0 r /Helvetica findfont 22.8295 sf 0 0 m (\2550.002) show NC gr 
 gsave  408 305 23 1009 C 17.0933 1122.46 t 0 r /Helvetica findfont 22.8295 sf 0 0 m (\2550.001) show NC gr 
 gsave  408 305 23 1009 C 65.5245 1150.95 t 0 r /Helvetica findfont 22.8295 sf 0 0 m (0) show NC gr 
 gsave  408 305 23 1009 C 25.64 1176.59 t 0 r /Helvetica findfont 22.8295 sf 0 0 m (0.001) show NC gr 
 gsave  408 305 23 1009 C 22.7911 1205.08 t 0 r /Helvetica findfont 22.8295 sf 0 0 m (0.002) show NC gr 
 gsave  408 305 23 1009 C 22.7911 1233.57 t 0 r /Helvetica findfont 22.8295 sf 0 0 m (0.003) show NC gr 
 gsave  408 305 23 1009 C 22.7911 1259.21 t 0 r /Helvetica findfont 22.8295 sf 0 0 m (0.004) show NC gr  390 1055 m 229 Y s 385 1074 m 5 X s 387 1080 m 3 X s 387 1085 m 3 X s 387 1091 m 3 X s 387 1096 m 3 X s 385 1102 m 5 X s 387 1108 m 3 X s 387
 1113 m 3 X s 387 1119 m 3 X s 387 1124 m 3 X s 385 1130 m 5 X s 387 1135 m 3 X s 387 1141 m 3 X s 387 1146 m 3 X s 387 1152 m 3 X s 385 1157 m 5 X s 387 1163 m 3 X s 387 1168 m 3 X s 387 1174 m 3 X s 387 1179 m 3 X s 385 1185 m 5 X s 387 1190 m 3 X
 s 387 1196 m 3 X s 387 1201 m 3 X s 387 1207 m 3 X s 385 1212 m 5 X s 387 1218 m 3 X s 387 1224 m 3 X s 387 1229 m 3 X s 387 1235 m 3 X s 385 1240 m 5 X s 387 1246 m 3 X s 387 1251 m 3 X s 387 1257 m 3 X s 387 1262 m 3 X s 385 1268 m 5 X s 385 1074
 m 5 X s 387 1069 m 3 X s 387 1063 m 3 X s 387 1058 m 3 X s 385 1268 m 5 X s 387 1273 m 3 X s 387 1279 m 3 X s /w 22 def /w2 {w 2 div} def /w3 {w 3 div} def 140 1130 196 1212 309 1155 365 1126 4 { m21} R 140 1141 m 41 Y s 134 1182 m 12 X s 140 1119 m
 -41 Y s 134 1078 m 12 X s 196 1223 m 42 Y s 191 1265 m 11 X s 196 1201 m -42 Y s 191 1159 m 11 X s 309 1166 m 41 Y s 303 1207 m 12 X s 309 1143 m -41 Y s 303 1102 m 12 X s 365 1138 m 41 Y s 360 1179 m 11 X s 365 1115 m -41 Y s 360 1074 m 11 X s 1 0
 0 c 9 lw 0.95 0.95 0.95 c black 1 0 0 c 85 1157 m 56 X 3 -1 d 27 X 3 -1 d 19 X 3 -1 d 18 X 3 -1 d 12 X 3 -1 d 3 X s 235 1152 m 10 X 3 -1 d 9 X 3 -1 d 9 X 3 -1 d 9 X 3 -1 d 10 X 3 -1 d 6 X 3 -1 d 6 X 3 -1 d 9 X 3 -1 d 6 X 3 -1 d 7 X 3 -1 d 3 X 3 -1 d
 6 X 3 -1 d 6 X 3 -1 d 3 X 3 -1 d 6 X 3 -1 d s 385 1137 m 4 X s 0.49 0.6 0.82 c black 0.49 0.6 0.82 c
 gsave  408 305 23 1009 C 142.445 1293.4 t 0 r /Helvetica-Bold findfont 25.6831 sf 0 0 m (0.0 < E < 0.5 GeV) show NC gr  0.52 0.76 0.64 c black 0.52 0.76 0.64 c
 gsave  408 305 23 1009 C 122.502 1256.36 t 0 r /Helvetica-Bold findfont 25.6831 sf 0 0 m 
 228 214 200 193 178 171 156 149 134 126 119 105 91 77 69 55 47 39 25 17
(A = \2550.000, p = 2.000) K NC gr  1 0.6 1 c black 1 0.6 1 c
 gsave  408 305 23 1009 C 427.334 1122.46 t 90 r /Helvetica-Bold findfont 28.5368 sf 0 0 m (/dof=0.5) show NC gr  black 1 0.6 1 c
 gsave  408 305 23 1009 C 415.938 1111.07 t 90 r /Helvetica-Bold findfont 19.9758 sf 0 0 m (2) show NC gr  black 1 0.6 1 c
 gsave  408 305 23 1009 C 427.334 1093.97 t 90 r /Symbol findfont 28.5368 sf 0 0 m (c) show NC gr  black 3 lw 1 1 1 c 408 305 476 1009 bf black 1 1 1 c black 307 229 537 1055 bl 307 229 537 1055 bl 537 1055 m 307 X s 537 1059 m -4 Y s 650 1059 m -4 Y
 s 763 1059 m -4 Y s 763 1059 m -4 Y s
 gsave  408 305 476 1009 C 527.045 1034.15 t 0 r /Helvetica findfont 22.8295 sf 0 0 m (0) show NC gr 
 gsave  408 305 476 1009 C 643.849 1034.15 t 0 r /Helvetica findfont 22.8295 sf 0 0 m (1) show NC gr 
 gsave  408 305 476 1009 C 752.107 1034.15 t 0 r /Helvetica findfont 22.8295 sf 0 0 m (2) show NC gr  537 1284 m 307 X s 537 1280 m 4 Y s 650 1280 m 4 Y s 763 1280 m 4 Y s 763 1280 m 4 Y s 537 1055 m 229 Y s 543 1081 m -6 X s 540 1087 m -3 X s 540
 1093 m -3 X s 540 1099 m -3 X s 540 1105 m -3 X s 543 1111 m -6 X s 540 1117 m -3 X s 540 1124 m -3 X s 540 1130 m -3 X s 540 1136 m -3 X s 543 1142 m -6 X s 540 1148 m -3 X s 540 1154 m -3 X s 540 1160 m -3 X s 540 1166 m -3 X s 543 1172 m -6 X s
 540 1178 m -3 X s 540 1184 m -3 X s 540 1190 m -3 X s 540 1196 m -3 X s 543 1202 m -6 X s 540 1208 m -3 X s 540 1215 m -3 X s 540 1221 m -3 X s 540 1227 m -3 X s 543 1233 m -6 X s 540 1239 m -3 X s 540 1245 m -3 X s 540 1251 m -3 X s 540 1257 m -3 X
 s 543 1263 m -6 X s 543 1081 m -6 X s 540 1075 m -3 X s 540 1069 m -3 X s 540 1063 m -3 X s 540 1057 m -3 X s 543 1263 m -6 X s 540 1269 m -3 X s 540 1275 m -3 X s 540 1281 m -3 X s
 gsave  408 305 476 1009 C 467.218 1074.03 t 0 r /Helvetica findfont 22.8295 sf 0 0 m (\2550.005) show NC gr 
 gsave  408 305 476 1009 C 467.218 1105.37 t 0 r /Helvetica findfont 22.8295 sf 0 0 m (\2550.004) show NC gr 
 gsave  408 305 476 1009 C 467.218 1133.86 t 0 r /Helvetica findfont 22.8295 sf 0 0 m (\2550.003) show NC gr 
 gsave  408 305 476 1009 C 467.218 1165.2 t 0 r /Helvetica findfont 22.8295 sf 0 0 m (\2550.002) show NC gr 
 gsave  408 305 476 1009 C 470.067 1196.53 t 0 r /Helvetica findfont 22.8295 sf 0 0 m (\2550.001) show NC gr 
 gsave  408 305 476 1009 C 518.498 1225.02 t 0 r /Helvetica findfont 22.8295 sf 0 0 m (0) show NC gr 
 gsave  408 305 476 1009 C 478.614 1256.36 t 0 r /Helvetica findfont 22.8295 sf 0 0 m (0.001) show NC gr  844 1055 m 229 Y s 838 1081 m 6 X s 841 1087 m 3 X s 841 1093 m 3 X s 841 1099 m 3 X s 841 1105 m 3 X s 838 1111 m 6 X s 841 1117 m 3 X s 841
 1124 m 3 X s 841 1130 m 3 X s 841 1136 m 3 X s 838 1142 m 6 X s 841 1148 m 3 X s 841 1154 m 3 X s 841 1160 m 3 X s 841 1166 m 3 X s 838 1172 m 6 X s 841 1178 m 3 X s 841 1184 m 3 X s 841 1190 m 3 X s 841 1196 m 3 X s 838 1202 m 6 X s 841 1208 m 3 X
 s 841 1215 m 3 X s 841 1221 m 3 X s 841 1227 m 3 X s 838 1233 m 6 X s 841 1239 m 3 X s 841 1245 m 3 X s 841 1251 m 3 X s 841 1257 m 3 X s 838 1263 m 6 X s 838 1081 m 6 X s 841 1075 m 3 X s 841 1069 m 3 X s 841 1063 m 3 X s 841 1057 m 3 X s 838 1263
 m 6 X s 841 1269 m 3 X s 841 1275 m 3 X s 841 1281 m 3 X s /w 23 def /w2 {w 2 div} def /w3 {w 3 div} def 594 1142 650 1196 763 1180 819 1153 4 { m21} R 594 1153 m 57 Y s 588 1210 m 11 X s 594 1131 m -57 Y s 588 1074 m 11 X s 650 1207 m 58 Y s 644
 1265 m 12 X s 650 1185 m -58 Y s 644 1127 m 12 X s 763 1191 m 57 Y s 757 1248 m 11 X s 763 1168 m -57 Y s 757 1111 m 11 X s 819 1164 m 57 Y s 813 1221 m 12 X s 819 1141 m -57 Y s 813 1084 m 12 X s 9 lw 0.95 0.95 0.95 c black 539 1232 m 3 -1 d 3 -1 d
 3 X 3 -1 d 3 -1 d 3 -1 d 3 -1 d 3 -1 d 4 -1 d 3 -1 d 3 -1 d 3 -1 d 3 -1 d 3 -1 d 3 -1 d 3 X 3 -1 d 3 -1 d 3 -1 d 3 -1 d 3 -1 d 3 -1 d 3 -1 d 3 -1 d 4 -1 d 3 -1 d 3 -1 d 3 X 3 -1 d 3 -1 d 3 -1 d 3 -1 d 3 -1 d 3 -1 d 3 -1 d 3 -1 d 3 -1 d 3 -1 d 3 -1 d
 3 -1 d 3 X 4 -1 d 3 -1 d 3 -1 d 3 -1 d 3 -1 d 3 -1 d 3 -1 d 3 -1 d s 689 1187 m 3 -1 d 3 -1 d 3 -1 d 3 -1 d 3 X 3 -1 d 3 -1 d 3 -1 d 4 -1 d 3 -1 d 3 -1 d 3 -1 d 3 -1 d 3 -1 d 3 -1 d 3 -1 d 3 -1 d 3 X 3 -1 d 3 -1 d 3 -1 d 3 -1 d 3 -1 d 3 -1 d 4 -1 d
 3 -1 d 3 -1 d 3 -1 d 3 -1 d 3 X 3 -1 d 3 -1 d 3 -1 d 3 -1 d 3 -1 d 3 -1 d 3 -1 d 3 -1 d 3 -1 d 3 -1 d 4 -1 d 3 -1 d 3 X 3 -1 d 3 -1 d 3 -1 d 3 -1 d 3 -1 d 3 -1 d s 839 1142 m 3 -1 d s 0.49 0.6 0.82 c black 0.49 0.6 0.82 c
 gsave  408 305 476 1009 C 595.418 1293.4 t 0 r /Helvetica-Bold findfont 25.6831 sf 0 0 m (0.5 < E < 1.0 GeV) show NC gr  0.52 0.76 0.64 c black 0.52 0.76 0.64 c
 gsave  408 305 476 1009 C 575.476 1256.36 t 0 r /Helvetica-Bold findfont 25.6831 sf 0 0 m 
 228 214 200 193 178 171 156 149 133 126 119 105 91 76 69 55 47 39 25 17
(A = \2550.001, p = 1.000) K NC gr  1 0.6 1 c black 1 0.6 1 c
 gsave  408 305 476 1009 C 883.156 1122.46 t 90 r /Helvetica-Bold findfont 28.5368 sf 0 0 m (/dof=0.4) show NC gr  black 1 0.6 1 c
 gsave  408 305 476 1009 C 871.76 1111.07 t 90 r /Helvetica-Bold findfont 19.9758 sf 0 0 m (2) show NC gr  black 1 0.6 1 c
 gsave  408 305 476 1009 C 883.156 1093.97 t 90 r /Symbol findfont 28.5368 sf 0 0 m (c) show NC gr  black 3 lw 1 1 1 c 408 305 930 1009 bf black 1 1 1 c black 306 229 991 1055 bl 306 229 991 1055 bl 991 1055 m 306 X s 991 1059 m -4 Y s 1104 1059 m -4
 Y s 1216 1059 m -4 Y s 1216 1059 m -4 Y s
 gsave  408 305 930 1009 C 980.018 1034.15 t 0 r /Helvetica findfont 22.8295 sf 0 0 m (0) show NC gr 
 gsave  408 305 930 1009 C 1096.82 1034.15 t 0 r /Helvetica findfont 22.8295 sf 0 0 m (1) show NC gr 
 gsave  408 305 930 1009 C 1205.08 1034.15 t 0 r /Helvetica findfont 22.8295 sf 0 0 m (2) show NC gr  991 1284 m 306 X s 991 1280 m 4 Y s 1104 1280 m 4 Y s 1216 1280 m 4 Y s 1216 1280 m 4 Y s 991 1055 m 229 Y s 997 1097 m -6 X s 994 1108 m -3 X s 994
 1120 m -3 X s 994 1131 m -3 X s 997 1142 m -6 X s 994 1154 m -3 X s 994 1165 m -3 X s 994 1176 m -3 X s 997 1188 m -6 X s 994 1199 m -3 X s 994 1210 m -3 X s 994 1222 m -3 X s 997 1233 m -6 X s 994 1244 m -3 X s 994 1256 m -3 X s 994 1267 m -3 X s
 997 1279 m -6 X s 997 1097 m -6 X s 994 1086 m -3 X s 994 1074 m -3 X s 994 1063 m -3 X s 997 1279 m -6 X s
 gsave  408 305 930 1009 C 923.04 1091.12 t 0 r /Helvetica findfont 22.8295 sf 0 0 m (\2550.004) show NC gr 
 gsave  408 305 930 1009 C 923.04 1133.86 t 0 r /Helvetica findfont 22.8295 sf 0 0 m (\2550.002) show NC gr 
 gsave  408 305 930 1009 C 974.32 1179.44 t 0 r /Helvetica findfont 22.8295 sf 0 0 m (0) show NC gr 
 gsave  408 305 930 1009 C 931.587 1225.02 t 0 r /Helvetica findfont 22.8295 sf 0 0 m (0.002) show NC gr 
 gsave  408 305 930 1009 C 931.587 1270.6 t 0 r /Helvetica findfont 22.8295 sf 0 0 m (0.004) show NC gr  1297 1055 m 229 Y s 1292 1097 m 5 X s 1294 1108 m 3 X s 1294 1120 m 3 X s 1294 1131 m 3 X s 1292 1142 m 5 X s 1294 1154 m 3 X s 1294 1165 m 3 X s
 1294 1176 m 3 X s 1292 1188 m 5 X s 1294 1199 m 3 X s 1294 1210 m 3 X s 1294 1222 m 3 X s 1292 1233 m 5 X s 1294 1244 m 3 X s 1294 1256 m 3 X s 1294 1267 m 3 X s 1292 1279 m 5 X s 1292 1097 m 5 X s 1294 1086 m 3 X s 1294 1074 m 3 X s 1294 1063 m 3 X
 s 1292 1279 m 5 X s 1047 1174 1104 1214 1216 1151 1272 1124 4 { m21} R 1047 1186 m 38 Y s 1042 1224 m 11 X s 1047 1163 m -39 Y s 1042 1124 m 11 X s 1104 1226 m 39 Y s 1098 1265 m 11 X s 1104 1203 m -39 Y s 1098 1164 m 11 X s 1216 1162 m 39 Y s 1210
 1201 m 12 X s 1216 1140 m -39 Y s 1210 1101 m 12 X s 1272 1135 m 39 Y s 1267 1174 m 11 X s 1272 1113 m -39 Y s 1267 1074 m 11 X s 1 0 0 c 9 lw 0.95 0.95 0.95 c black 1 0 0 c 993 1188 m 15 X 3 -1 d 18 X 3 -1 d 13 X 3 -1 d 9 X 3 -1 d 6 X 3 -1 d 6 X 3
 -1 d 3 X 3 -1 d 3 X 3 -1 d 7 X 3 -1 d 3 X 3 -1 d 3 X 3 -1 d 3 -1 d 3 X 3 -1 d 3 X 3 -1 d 3 X 3 -1 d 3 -1 d 3 X 4 -1 d s 1143 1171 m 3 -1 d 3 X 3 -1 d 3 -1 d 3 -1 d 3 X 3 -1 d 3 -1 d 3 -1 d 3 -1 d 3 X 3 -1 d 3 -1 d 3 -1 d 3 -1 d 4 -1 d 3 -1 d 3 -1 d
 3 X 3 -1 d 3 -1 d 3 -1 d 3 -1 d 3 -1 d 3 -1 d 3 -1 d 3 -1 d 3 -2 d 3 -1 d 3 -1 d 3 -1 d 3 -1 d 4 -1 d 3 -1 d 3 -1 d 3 -1 d 3 -2 d 3 -1 d 3 -1 d 3 -1 d 3 -2 d 3 -1 d 3 -1 d 3 -1 d 3 -2 d 3 -1 d 3 -1 d 3 -2 d 4 -1 d s 1293 1121 m 3 -1 d s 0.49 0.6
 0.82 c black 0.49 0.6 0.82 c
 gsave  408 305 930 1009 C 1051.24 1293.4 t 0 r /Helvetica-Bold findfont 25.6831 sf 0 0 m (1.0 < E < 1.5 GeV) show NC gr  0.52 0.76 0.64 c black 0.52 0.76 0.64 c
 gsave  408 305 930 1009 C 1031.3 1256.36 t 0 r /Helvetica-Bold findfont 25.6831 sf 0 0 m 
 228 214 200 193 178 171 156 149 133 126 119 105 91 77 69 55 47 39 25 17
(A = \2550.000, p = 2.000) K NC gr  1 0.6 1 c black 1 0.6 1 c
 gsave  408 305 930 1009 C 1336.13 1122.46 t 90 r /Helvetica-Bold findfont 28.5368 sf 0 0 m (/dof=0.2) show NC gr  black 1 0.6 1 c
 gsave  408 305 930 1009 C 1324.73 1111.07 t 90 r /Helvetica-Bold findfont 19.9758 sf 0 0 m (2) show NC gr  black 1 0.6 1 c
 gsave  408 305 930 1009 C 1336.13 1093.97 t 90 r /Symbol findfont 28.5368 sf 0 0 m (c) show NC gr  black 3 lw 1 1 1 c 408 305 1383 1009 bf black 1 1 1 c black 306 229 1445 1055 bl 306 229 1445 1055 bl 1445 1055 m 306 X s 1445 1059 m -4 Y s 1557 1059
 m -4 Y s 1670 1059 m -4 Y s 1670 1059 m -4 Y s
 gsave  408 305 1383 1009 C 1435.84 1034.15 t 0 r /Helvetica findfont 22.8295 sf 0 0 m (0) show NC gr 
 gsave  408 305 1383 1009 C 1549.8 1034.15 t 0 r /Helvetica findfont 22.8295 sf 0 0 m (1) show NC gr 
 gsave  408 305 1383 1009 C 1660.9 1034.15 t 0 r /Helvetica findfont 22.8295 sf 0 0 m (2) show NC gr  1445 1284 m 306 X s 1445 1280 m 4 Y s 1557 1280 m 4 Y s 1670 1280 m 4 Y s 1670 1280 m 4 Y s 1445 1055 m 229 Y s 1450 1069 m -5 X s 1447 1079 m -2 X
 s 1447 1089 m -2 X s 1447 1099 m -2 X s 1450 1109 m -5 X s 1447 1119 m -2 X s 1447 1129 m -2 X s 1447 1139 m -2 X s 1450 1149 m -5 X s 1447 1159 m -2 X s 1447 1169 m -2 X s 1447 1179 m -2 X s 1450 1189 m -5 X s 1447 1199 m -2 X s 1447 1209 m -2 X s
 1447 1219 m -2 X s 1450 1229 m -5 X s 1447 1239 m -2 X s 1447 1249 m -2 X s 1447 1259 m -2 X s 1450 1269 m -5 X s 1450 1069 m -5 X s 1447 1059 m -2 X s 1450 1269 m -5 X s 1447 1279 m -2 X s
 gsave  408 305 1383 1009 C 1376.01 1062.64 t 0 r /Helvetica findfont 22.8295 sf 0 0 m (\2550.006) show NC gr 
 gsave  408 305 1383 1009 C 1376.01 1102.52 t 0 r /Helvetica findfont 22.8295 sf 0 0 m (\2550.004) show NC gr 
 gsave  408 305 1383 1009 C 1376.01 1142.4 t 0 r /Helvetica findfont 22.8295 sf 0 0 m (\2550.002) show NC gr 
 gsave  408 305 1383 1009 C 1427.29 1182.29 t 0 r /Helvetica findfont 22.8295 sf 0 0 m (0) show NC gr 
 gsave  408 305 1383 1009 C 1384.56 1222.17 t 0 r /Helvetica findfont 22.8295 sf 0 0 m (0.002) show NC gr 
 gsave  408 305 1383 1009 C 1384.56 1262.06 t 0 r /Helvetica findfont 22.8295 sf 0 0 m (0.004) show NC gr  1751 1055 m 229 Y s 1745 1069 m 6 X s 1748 1079 m 3 X s 1748 1089 m 3 X s 1748 1099 m 3 X s 1745 1109 m 6 X s 1748 1119 m 3 X s 1748 1129 m 3 X
 s 1748 1139 m 3 X s 1745 1149 m 6 X s 1748 1159 m 3 X s 1748 1169 m 3 X s 1748 1179 m 3 X s 1745 1189 m 6 X s 1748 1199 m 3 X s 1748 1209 m 3 X s 1748 1219 m 3 X s 1745 1229 m 6 X s 1748 1239 m 3 X s 1748 1249 m 3 X s 1748 1259 m 3 X s 1745 1269 m 6
 X s 1745 1069 m 6 X s 1748 1059 m 3 X s 1745 1269 m 6 X s 1748 1279 m 3 X s 1501 1118 1557 1201 1670 1163 1726 1220 4 { m21} R 1501 1130 m 33 Y s 1495 1163 m 12 X s 1501 1107 m -33 Y s 1495 1074 m 12 X s 1557 1212 m 34 Y s 1551 1246 m 12 X s 1557
 1189 m -33 Y s 1551 1156 m 12 X s 1670 1175 m 33 Y s 1664 1208 m 11 X s 1670 1152 m -33 Y s 1664 1119 m 11 X s 1726 1231 m 34 Y s 1720 1265 m 12 X s 1726 1208 m -33 Y s 1720 1175 m 12 X s 1 0 0 c 9 lw 0.95 0.95 0.95 c black 1 0 0 c 1446 1189 m 61 X
 3 1 d 46 X 3 1 d 31 X 3 1 d 3 X s 1596 1192 m 22 X 3 1 d 18 X 3 1 d 18 X 3 1 d 16 X 3 1 d 15 X 3 1 d 12 X 3 1 d 13 X 3 1 d 12 X 3 1 d s 1746 1200 m 3 X s 0.49 0.6 0.82 c black 0.49 0.6 0.82 c
 gsave  408 305 1383 1009 C 1504.21 1293.4 t 0 r /Helvetica-Bold findfont 25.6831 sf 0 0 m (1.5 < E < 2.0 GeV) show NC gr  0.52 0.76 0.64 c black 0.52 0.76 0.64 c
 gsave  408 305 1383 1009 C 1489.97 1256.36 t 0 r /Helvetica-Bold findfont 25.6831 sf 0 0 m 
 220 206 192 185 170 163 148 141 126 118 111 97 83 69 61 47 40 25 18
(A = 0.000, p = 2.000) K NC gr  1 0.6 1 c black 1 0.6 1 c
 gsave  408 305 1383 1009 C 1789.1 1122.46 t 90 r /Helvetica-Bold findfont 28.5368 sf 0 0 m (/dof=1.1) show NC gr  black 1 0.6 1 c
 gsave  408 305 1383 1009 C 1777.71 1111.07 t 90 r /Helvetica-Bold findfont 19.9758 sf 0 0 m (2) show NC gr  black 1 0.6 1 c
 gsave  408 305 1383 1009 C 1789.1 1093.97 t 90 r /Symbol findfont 28.5368 sf 0 0 m (c) show NC gr  black 3 lw 1 1 1 c 408 305 1837 1009 bf black 1 1 1 c black 306 229 1898 1055 bl 306 229 1898 1055 bl 1898 1055 m 306 X s 1898 1059 m -4 Y s 2011 1059
 m -4 Y s 2123 1059 m -4 Y s 2123 1059 m -4 Y s
 gsave  408 305 1837 1009 C 1888.81 1034.15 t 0 r /Helvetica findfont 22.8295 sf 0 0 m (0) show NC gr 
 gsave  408 305 1837 1009 C 2002.77 1034.15 t 0 r /Helvetica findfont 22.8295 sf 0 0 m (1) show NC gr 
 gsave  408 305 1837 1009 C 2113.88 1034.15 t 0 r /Helvetica findfont 22.8295 sf 0 0 m (2) show NC gr  1898 1284 m 306 X s 1898 1280 m 4 Y s 2011 1280 m 4 Y s 2123 1280 m 4 Y s 2123 1280 m 4 Y s 1898 1055 m 229 Y s 1904 1078 m -6 X s 1901 1083 m -3 X
 s 1901 1088 m -3 X s 1901 1093 m -3 X s 1901 1099 m -3 X s 1904 1104 m -6 X s 1901 1109 m -3 X s 1901 1114 m -3 X s 1901 1119 m -3 X s 1901 1124 m -3 X s 1904 1129 m -6 X s 1901 1134 m -3 X s 1901 1139 m -3 X s 1901 1145 m -3 X s 1901 1150 m -3 X s
 1904 1155 m -6 X s 1901 1160 m -3 X s 1901 1165 m -3 X s 1901 1170 m -3 X s 1901 1175 m -3 X s 1904 1180 m -6 X s 1901 1186 m -3 X s 1901 1191 m -3 X s 1901 1196 m -3 X s 1901 1201 m -3 X s 1904 1206 m -6 X s 1901 1211 m -3 X s 1901 1216 m -3 X s
 1901 1221 m -3 X s 1901 1226 m -3 X s 1904 1232 m -6 X s 1901 1237 m -3 X s 1901 1242 m -3 X s 1901 1247 m -3 X s 1901 1252 m -3 X s 1904 1257 m -6 X s 1901 1262 m -3 X s 1901 1267 m -3 X s 1901 1272 m -3 X s 1901 1278 m -3 X s 1904 1283 m -6 X s
 1904 1078 m -6 X s 1901 1073 m -3 X s 1901 1068 m -3 X s 1901 1063 m -3 X s 1901 1058 m -3 X s 1904 1283 m -6 X s
 gsave  408 305 1837 1009 C 1828.99 1071.18 t 0 r /Helvetica findfont 22.8295 sf 0 0 m (\2550.003) show NC gr 
 gsave  408 305 1837 1009 C 1828.99 1096.82 t 0 r /Helvetica findfont 22.8295 sf 0 0 m (\2550.002) show NC gr 
 gsave  408 305 1837 1009 C 1831.84 1122.46 t 0 r /Helvetica findfont 22.8295 sf 0 0 m (\2550.001) show NC gr 
 gsave  408 305 1837 1009 C 1880.27 1148.1 t 0 r /Helvetica findfont 22.8295 sf 0 0 m (0) show NC gr 
 gsave  408 305 1837 1009 C 1840.38 1173.74 t 0 r /Helvetica findfont 22.8295 sf 0 0 m (0.001) show NC gr 
 gsave  408 305 1837 1009 C 1837.53 1199.38 t 0 r /Helvetica findfont 22.8295 sf 0 0 m (0.002) show NC gr 
 gsave  408 305 1837 1009 C 1837.53 1225.02 t 0 r /Helvetica findfont 22.8295 sf 0 0 m (0.003) show NC gr 
 gsave  408 305 1837 1009 C 1837.53 1250.66 t 0 r /Helvetica findfont 22.8295 sf 0 0 m (0.004) show NC gr 
 gsave  408 305 1837 1009 C 1837.53 1276.3 t 0 r /Helvetica findfont 22.8295 sf 0 0 m (0.005) show NC gr  2204 1055 m 229 Y s 2199 1078 m 5 X s 2201 1083 m 3 X s 2201 1088 m 3 X s 2201 1093 m 3 X s 2201 1099 m 3 X s 2199 1104 m 5 X s 2201 1109 m 3 X
 s 2201 1114 m 3 X s 2201 1119 m 3 X s 2201 1124 m 3 X s 2199 1129 m 5 X s 2201 1134 m 3 X s 2201 1139 m 3 X s 2201 1145 m 3 X s 2201 1150 m 3 X s 2199 1155 m 5 X s 2201 1160 m 3 X s 2201 1165 m 3 X s 2201 1170 m 3 X s 2201 1175 m 3 X s 2199 1180 m 5
 X s 2201 1186 m 3 X s 2201 1191 m 3 X s 2201 1196 m 3 X s 2201 1201 m 3 X s 2199 1206 m 5 X s 2201 1211 m 3 X s 2201 1216 m 3 X s 2201 1221 m 3 X s 2201 1226 m 3 X s 2199 1232 m 5 X s 2201 1237 m 3 X s 2201 1242 m 3 X s 2201 1247 m 3 X s 2201 1252 m
 3 X s 2199 1257 m 5 X s 2201 1262 m 3 X s 2201 1267 m 3 X s 2201 1272 m 3 X s 2201 1278 m 3 X s 2199 1283 m 5 X s 2199 1078 m 5 X s 2201 1073 m 3 X s 2201 1068 m 3 X s 2201 1063 m 3 X s 2201 1058 m 3 X s 2199 1283 m 5 X s 1954 1136 2011 1202 2123
 1150 2179 1195 4 { m21} R 1954 1147 m 50 Y s 1949 1197 m 11 X s 1954 1124 m -50 Y s 1949 1074 m 11 X s 2011 1214 m 51 Y s 2005 1265 m 11 X s 2011 1191 m -51 Y s 2005 1140 m 11 X s 2123 1162 m 50 Y s 2117 1212 m 12 X s 2123 1139 m -51 Y s 2117 1088 m
 12 X s 2179 1206 m 51 Y s 2174 1257 m 11 X s 2179 1184 m -51 Y s 2174 1133 m 11 X s 9 lw 0.95 0.95 0.95 c black 1900 1155 m 3 X 3 1 d 9 X 3 1 d 6 X 3 1 d 6 X 3 1 d 6 X 4 1 d 9 X 3 1 d 6 X 3 1 d 6 X 3 1 d 9 X 3 1 d 7 X 3 1 d 6 X 3 1 d 6 X 3 1 d 9 X 3
 1 d 6 X 3 1 d 6 X 4 1 d 3 X s 2050 1170 m 6 X 3 1 d 6 X 3 1 d 6 X 3 1 d 6 X 3 1 d 10 X 3 1 d 6 X 3 1 d 6 X 3 1 d 9 X 3 1 d 6 X 3 1 d 7 X 3 1 d 9 X 3 1 d 6 X 3 1 d 6 X 3 1 d 6 X 3 1 d 10 X 3 1 d s 2200 1185 m 3 X s 0.49 0.6 0.82 c black 0.49 0.6 0.82
 c
 gsave  408 305 1837 1009 C 1957.19 1293.4 t 0 r /Helvetica-Bold findfont 25.6831 sf 0 0 m (2.0 < E < 2.5 GeV) show NC gr  0.52 0.76 0.64 c black 0.52 0.76 0.64 c
 gsave  408 305 1837 1009 C 1942.94 1256.36 t 0 r /Helvetica-Bold findfont 25.6831 sf 0 0 m 
 220 206 192 185 170 163 148 141 125 118 111 97 83 69 61 47 40 25 18
(A = 0.000, p = 1.000) K NC gr  1 0.6 1 c black 1 0.6 1 c
 gsave  408 305 1837 1009 C 2242.08 1122.46 t 90 r /Helvetica-Bold findfont 28.5368 sf 0 0 m (/dof=0.2) show NC gr  black 1 0.6 1 c
 gsave  408 305 1837 1009 C 2230.68 1111.07 t 90 r /Helvetica-Bold findfont 19.9758 sf 0 0 m (2) show NC gr  black 1 0.6 1 c
 gsave  408 305 1837 1009 C 2242.08 1093.97 t 90 r /Symbol findfont 28.5368 sf 0 0 m (c) show NC gr  black 3 lw 1 1 1 c 408 305 23 677 bf black 1 1 1 c black 306 229 84 723 bl 306 229 84 723 bl 84 723 m 306 X s 84 727 m -4 Y s 196 727 m -4 Y s 309
 727 m -4 Y s 309 727 m -4 Y s
 gsave  408 305 23 677 C 74.0711 703.676 t 0 r /Helvetica findfont 22.8295 sf 0 0 m (0) show NC gr 
 gsave  408 305 23 677 C 188.027 703.676 t 0 r /Helvetica findfont 22.8295 sf 0 0 m (1) show NC gr 
 gsave  408 305 23 677 C 299.133 703.676 t 0 r /Helvetica findfont 22.8295 sf 0 0 m (2) show NC gr  84 952 m 306 X s 84 948 m 4 Y s 196 948 m 4 Y s 309 948 m 4 Y s 309 948 m 4 Y s 84 723 m 229 Y s 89 742 m -5 X s 87 749 m -3 X s 87 755 m -3 X s 87
 762 m -3 X s 89 768 m -5 X s 87 774 m -3 X s 87 781 m -3 X s 87 787 m -3 X s 89 794 m -5 X s 87 800 m -3 X s 87 806 m -3 X s 87 813 m -3 X s 89 819 m -5 X s 87 826 m -3 X s 87 832 m -3 X s 87 838 m -3 X s 89 845 m -5 X s 87 851 m -3 X s 87 858 m -3
 X s 87 864 m -3 X s 89 870 m -5 X s 87 877 m -3 X s 87 883 m -3 X s 87 890 m -3 X s 89 896 m -5 X s 87 902 m -3 X s 87 909 m -3 X s 87 915 m -3 X s 89 922 m -5 X s 87 928 m -3 X s 87 934 m -3 X s 87 941 m -3 X s 89 947 m -5 X s 89 742 m -5 X s 87
 736 m -3 X s 87 730 m -3 X s 87 723 m -3 X s 89 947 m -5 X s
 gsave  408 305 23 677 C 14.2445 735.014 t 0 r /Helvetica findfont 22.8295 sf 0 0 m (\2550.012) show NC gr 
 gsave  408 305 23 677 C 31.3378 760.654 t 0 r /Helvetica findfont 22.8295 sf 0 0 m (\2550.01) show NC gr 
 gsave  408 305 23 677 C 14.2445 786.294 t 0 r /Helvetica findfont 22.8295 sf 0 0 m (\2550.008) show NC gr 
 gsave  408 305 23 677 C 14.2445 811.934 t 0 r /Helvetica findfont 22.8295 sf 0 0 m (\2550.006) show NC gr 
 gsave  408 305 23 677 C 14.2445 837.574 t 0 r /Helvetica findfont 22.8295 sf 0 0 m (\2550.004) show NC gr 
 gsave  408 305 23 677 C 14.2445 863.214 t 0 r /Helvetica findfont 22.8295 sf 0 0 m (\2550.002) show NC gr 
 gsave  408 305 23 677 C 65.5245 888.854 t 0 r /Helvetica findfont 22.8295 sf 0 0 m (0) show NC gr 
 gsave  408 305 23 677 C 22.7911 914.494 t 0 r /Helvetica findfont 22.8295 sf 0 0 m (0.002) show NC gr 
 gsave  408 305 23 677 C 22.7911 940.134 t 0 r /Helvetica findfont 22.8295 sf 0 0 m (0.004) show NC gr  390 723 m 229 Y s 385 742 m 5 X s 387 749 m 3 X s 387 755 m 3 X s 387 762 m 3 X s 385 768 m 5 X s 387 774 m 3 X s 387 781 m 3 X s 387 787 m 3 X s
 385 794 m 5 X s 387 800 m 3 X s 387 806 m 3 X s 387 813 m 3 X s 385 819 m 5 X s 387 826 m 3 X s 387 832 m 3 X s 387 838 m 3 X s 385 845 m 5 X s 387 851 m 3 X s 387 858 m 3 X s 387 864 m 3 X s 385 870 m 5 X s 387 877 m 3 X s 387 883 m 3 X s 387 890 m
 3 X s 385 896 m 5 X s 387 902 m 3 X s 387 909 m 3 X s 387 915 m 3 X s 385 922 m 5 X s 387 928 m 3 X s 387 934 m 3 X s 387 941 m 3 X s 385 947 m 5 X s 385 742 m 5 X s 387 736 m 3 X s 387 730 m 3 X s 387 723 m 3 X s 385 947 m 5 X s /w 22 def /w2 {w 2
 div} def /w3 {w 3 div} def 140 898 196 868 309 832 365 776 4 { m21} R 140 910 m 23 Y s 134 933 m 12 X s 140 887 m -23 Y s 134 864 m 12 X s 196 880 m 23 Y s 191 903 m 11 X s 196 857 m -23 Y s 191 834 m 11 X s 309 843 m 23 Y s 303 866 m 12 X s 309 820
 m -23 Y s 303 797 m 12 X s 365 788 m 23 Y s 360 811 m 11 X s 365 765 m -23 Y s 360 742 m 11 X s 1 0 0 c 9 lw 0.95 0.95 0.95 c black 1 0 0 c 85 896 m 16 X 3 -1 d 9 X 3 -1 d 9 X 3 -1 d 3 X 3 -1 d 3 X 4 -1 d 3 X 3 -1 d 3 X 3 -1 d 3 -1 d 3 X 3 -1 d 3 -1
 d 3 X 3 -1 d 3 -1 d 3 -1 d 3 -1 d 3 X 3 -1 d 4 -1 d 3 -1 d 3 -1 d 3 -1 d 3 -1 d 3 -1 d 3 -1 d 3 -1 d 3 -2 d 3 -1 d 3 -1 d 3 -1 d 3 -1 d 3 -2 d 3 -1 d 3 -1 d s 235 863 m 4 -2 d 3 -1 d 3 -2 d 3 -1 d 3 -1 d 3 -2 d 3 -1 d 3 -2 d 3 -2 d 3 -1 d 3 -2 d 3
 -1 d 3 -2 d 3 -2 d 3 -2 d 3 -1 d 3 -2 d 4 -2 d 3 -2 d 3 -2 d 3 -2 d 3 -2 d 3 -2 d 3 -2 d 3 -2 d 3 -2 d 3 -2 d 3 -2 d 3 -2 d 3 -2 d 3 -2 d 3 -2 d 3 -3 d 4 -2 d 3 -2 d 3 -2 d 3 -3 d 3 -2 d 3 -3 d 3 -2 d 3 -2 d 3 -3 d 3 -2 d 3 -3 d 3 -3 d 3 -2 d 3 -3 d
 3 -2 d 3 -3 d s 385 764 m 4 -3 d s 0.49 0.6 0.82 c black 0.49 0.6 0.82 c
 gsave  408 305 23 677 C 142.445 960.076 t 0 r /Helvetica-Bold findfont 25.6831 sf 0 0 m (2.5 < E < 3.0 GeV) show NC gr  0.52 0.76 0.64 c black 0.52 0.76 0.64 c
 gsave  408 305 23 677 C 122.502 923.04 t 0 r /Helvetica-Bold findfont 25.6831 sf 0 0 m 
 228 214 200 193 178 171 156 149 134 126 119 105 91 77 69 55 47 39 25 17
(A = \2550.001, p = 2.000) K NC gr  1 0.6 1 c black 1 0.6 1 c
 gsave  408 305 23 677 C 427.334 791.991 t 90 r /Helvetica-Bold findfont 28.5368 sf 0 0 m (/dof=0.1) show NC gr  black 1 0.6 1 c
 gsave  408 305 23 677 C 415.938 780.596 t 90 r /Helvetica-Bold findfont 19.9758 sf 0 0 m (2) show NC gr  black 1 0.6 1 c
 gsave  408 305 23 677 C 427.334 763.503 t 90 r /Symbol findfont 28.5368 sf 0 0 m (c) show NC gr  black 3 lw 1 1 1 c 408 305 476 677 bf black 1 1 1 c black 307 229 537 723 bl 307 229 537 723 bl 537 723 m 307 X s 537 727 m -4 Y s 650 727 m -4 Y s 763
 727 m -4 Y s 763 727 m -4 Y s
 gsave  408 305 476 677 C 527.045 703.676 t 0 r /Helvetica findfont 22.8295 sf 0 0 m (0) show NC gr 
 gsave  408 305 476 677 C 643.849 703.676 t 0 r /Helvetica findfont 22.8295 sf 0 0 m (1) show NC gr 
 gsave  408 305 476 677 C 752.107 703.676 t 0 r /Helvetica findfont 22.8295 sf 0 0 m (2) show NC gr  537 952 m 307 X s 537 948 m 4 Y s 650 948 m 4 Y s 763 948 m 4 Y s 763 948 m 4 Y s 537 723 m 229 Y s 543 743 m -6 X s 540 748 m -3 X s 540 753 m -3 X
 s 540 758 m -3 X s 543 763 m -6 X s 540 768 m -3 X s 540 774 m -3 X s 540 779 m -3 X s 543 784 m -6 X s 540 789 m -3 X s 540 794 m -3 X s 540 799 m -3 X s 543 804 m -6 X s 540 810 m -3 X s 540 815 m -3 X s 540 820 m -3 X s 543 825 m -6 X s 540 830 m
 -3 X s 540 835 m -3 X s 540 841 m -3 X s 543 846 m -6 X s 540 851 m -3 X s 540 856 m -3 X s 540 861 m -3 X s 543 866 m -6 X s 540 871 m -3 X s 540 877 m -3 X s 540 882 m -3 X s 543 887 m -6 X s 540 892 m -3 X s 540 897 m -3 X s 540 902 m -3 X s 543
 908 m -6 X s 540 913 m -3 X s 540 918 m -3 X s 540 923 m -3 X s 543 928 m -6 X s 540 933 m -3 X s 540 938 m -3 X s 540 944 m -3 X s 543 949 m -6 X s 543 743 m -6 X s 540 738 m -3 X s 540 732 m -3 X s 540 727 m -3 X s 543 949 m -6 X s
 gsave  408 305 476 677 C 467.218 735.014 t 0 r /Helvetica findfont 22.8295 sf 0 0 m (\2550.016) show NC gr 
 gsave  408 305 476 677 C 467.218 754.956 t 0 r /Helvetica findfont 22.8295 sf 0 0 m (\2550.014) show NC gr 
 gsave  408 305 476 677 C 467.218 777.747 t 0 r /Helvetica findfont 22.8295 sf 0 0 m (\2550.012) show NC gr 
 gsave  408 305 476 677 C 484.311 797.689 t 0 r /Helvetica findfont 22.8295 sf 0 0 m (\2550.01) show NC gr 
 gsave  408 305 476 677 C 467.218 817.631 t 0 r /Helvetica findfont 22.8295 sf 0 0 m (\2550.008) show NC gr 
 gsave  408 305 476 677 C 467.218 837.574 t 0 r /Helvetica findfont 22.8295 sf 0 0 m (\2550.006) show NC gr 
 gsave  408 305 476 677 C 467.218 860.365 t 0 r /Helvetica findfont 22.8295 sf 0 0 m (\2550.004) show NC gr 
 gsave  408 305 476 677 C 467.218 880.307 t 0 r /Helvetica findfont 22.8295 sf 0 0 m (\2550.002) show NC gr 
 gsave  408 305 476 677 C 518.498 900.249 t 0 r /Helvetica findfont 22.8295 sf 0 0 m (0) show NC gr 
 gsave  408 305 476 677 C 475.765 920.192 t 0 r /Helvetica findfont 22.8295 sf 0 0 m (0.002) show NC gr 
 gsave  408 305 476 677 C 475.765 942.983 t 0 r /Helvetica findfont 22.8295 sf 0 0 m (0.004) show NC gr  844 723 m 229 Y s 838 743 m 6 X s 841 748 m 3 X s 841 753 m 3 X s 841 758 m 3 X s 838 763 m 6 X s 841 768 m 3 X s 841 774 m 3 X s 841 779 m 3 X s
 838 784 m 6 X s 841 789 m 3 X s 841 794 m 3 X s 841 799 m 3 X s 838 804 m 6 X s 841 810 m 3 X s 841 815 m 3 X s 841 820 m 3 X s 838 825 m 6 X s 841 830 m 3 X s 841 835 m 3 X s 841 841 m 3 X s 838 846 m 6 X s 841 851 m 3 X s 841 856 m 3 X s 841 861 m
 3 X s 838 866 m 6 X s 841 871 m 3 X s 841 877 m 3 X s 841 882 m 3 X s 838 887 m 6 X s 841 892 m 3 X s 841 897 m 3 X s 841 902 m 3 X s 838 908 m 6 X s 841 913 m 3 X s 841 918 m 3 X s 841 923 m 3 X s 838 928 m 6 X s 841 933 m 3 X s 841 938 m 3 X s 841
 944 m 3 X s 838 949 m 6 X s 838 743 m 6 X s 841 738 m 3 X s 841 732 m 3 X s 841 727 m 3 X s 838 949 m 6 X s /w 23 def /w2 {w 2 div} def /w3 {w 3 div} def 594 900 650 886 763 833 819 774 4 { m21} R 594 912 m 21 Y s 588 933 m 11 X s 594 889 m -21 Y s
 588 868 m 11 X s 650 897 m 21 Y s 644 918 m 12 X s 650 874 m -21 Y s 644 853 m 12 X s 763 845 m 21 Y s 757 866 m 11 X s 763 822 m -21 Y s 757 801 m 11 X s 819 785 m 21 Y s 813 806 m 12 X s 819 763 m -21 Y s 813 742 m 12 X s 1 0 0 c 9 lw 0.95 0.95
 0.95 c black 1 0 0 c 539 908 m 3 X 3 -1 d 15 X 3 -1 d 10 X 3 -1 d 3 X 3 -1 d 3 X 3 -1 d 3 X 3 -1 d 3 X 3 -1 d 3 X 3 -1 d 3 -1 d 3 -1 d 4 X 3 -1 d 3 -1 d 3 -1 d 3 -1 d 3 -1 d 3 -1 d 3 -1 d 3 -1 d 3 -1 d 3 -1 d 3 -1 d 3 -1 d 3 -1 d 3 -1 d 3 -1 d 3 -2
 d 4 -1 d 3 -1 d 3 -2 d 3 -1 d 3 -1 d 3 -2 d 3 -1 d 3 -2 d s 689 870 m 3 -1 d 3 -2 d 3 -1 d 3 -2 d 3 -2 d 3 -1 d 3 -2 d 3 -2 d 4 -2 d 3 -1 d 3 -2 d 3 -2 d 3 -2 d 3 -2 d 3 -2 d 3 -2 d 3 -2 d 3 -2 d 3 -2 d 3 -2 d 3 -2 d 3 -2 d 3 -3 d 3 -2 d 4 -2 d 3 -2
 d 3 -3 d 3 -2 d 3 -2 d 3 -3 d 3 -2 d 3 -3 d 3 -2 d 3 -3 d 3 -2 d 3 -3 d 3 -2 d 3 -3 d 3 -3 d 3 -3 d 4 -2 d 3 -3 d 3 -3 d 3 -3 d 3 -3 d 3 -2 d 3 -3 d 3 -3 d 3 -3 d s 839 760 m 3 -3 d s 0.49 0.6 0.82 c black 0.49 0.6 0.82 c
 gsave  408 305 476 677 C 595.418 960.076 t 0 r /Helvetica-Bold findfont 25.6831 sf 0 0 m (3.0 < E < 3.5 GeV) show NC gr  0.52 0.76 0.64 c black 0.52 0.76 0.64 c
 gsave  408 305 476 677 C 575.476 923.04 t 0 r /Helvetica-Bold findfont 25.6831 sf 0 0 m 
 228 214 200 193 178 171 156 149 133 126 119 105 91 76 69 55 47 39 25 17
(A = \2550.002, p = 2.000) K NC gr  1 0.6 1 c black 1 0.6 1 c
 gsave  408 305 476 677 C 883.156 791.991 t 90 r /Helvetica-Bold findfont 28.5368 sf 0 0 m (/dof=0.0) show NC gr  black 1 0.6 1 c
 gsave  408 305 476 677 C 871.76 780.596 t 90 r /Helvetica-Bold findfont 19.9758 sf 0 0 m (2) show NC gr  black 1 0.6 1 c
 gsave  408 305 476 677 C 883.156 763.503 t 90 r /Symbol findfont 28.5368 sf 0 0 m (c) show NC gr  black 3 lw 1 1 1 c 408 305 930 677 bf black 1 1 1 c black 306 229 991 723 bl 306 229 991 723 bl 991 723 m 306 X s 991 727 m -4 Y s 1104 727 m -4 Y s
 1216 727 m -4 Y s 1216 727 m -4 Y s
 gsave  408 305 930 677 C 980.018 703.676 t 0 r /Helvetica findfont 22.8295 sf 0 0 m (0) show NC gr 
 gsave  408 305 930 677 C 1096.82 703.676 t 0 r /Helvetica findfont 22.8295 sf 0 0 m (1) show NC gr 
 gsave  408 305 930 677 C 1205.08 703.676 t 0 r /Helvetica findfont 22.8295 sf 0 0 m (2) show NC gr  991 952 m 306 X s 991 948 m 4 Y s 1104 948 m 4 Y s 1216 948 m 4 Y s 1216 948 m 4 Y s 991 723 m 229 Y s 997 749 m -6 X s 994 756 m -3 X s 994 762 m -3
 X s 994 769 m -3 X s 994 775 m -3 X s 997 782 m -6 X s 994 788 m -3 X s 994 795 m -3 X s 994 802 m -3 X s 994 808 m -3 X s 997 815 m -6 X s 994 821 m -3 X s 994 828 m -3 X s 994 834 m -3 X s 994 841 m -3 X s 997 847 m -6 X s 994 854 m -3 X s 994 861
 m -3 X s 994 867 m -3 X s 994 874 m -3 X s 997 880 m -6 X s 994 887 m -3 X s 994 893 m -3 X s 994 900 m -3 X s 994 906 m -3 X s 997 913 m -6 X s 994 920 m -3 X s 994 926 m -3 X s 994 933 m -3 X s 994 939 m -3 X s 997 946 m -6 X s 997 749 m -6 X s
 994 743 m -3 X s 994 736 m -3 X s 994 729 m -3 X s 994 723 m -3 X s 997 946 m -6 X s
 gsave  408 305 930 677 C 937.285 740.711 t 0 r /Helvetica findfont 22.8295 sf 0 0 m (\2550.02) show NC gr 
 gsave  408 305 930 677 C 923.04 774.898 t 0 r /Helvetica findfont 22.8295 sf 0 0 m (\2550.015) show NC gr 
 gsave  408 305 930 677 C 940.134 806.236 t 0 r /Helvetica findfont 22.8295 sf 0 0 m (\2550.01) show NC gr 
 gsave  408 305 930 677 C 923.04 840.423 t 0 r /Helvetica findfont 22.8295 sf 0 0 m (\2550.005) show NC gr 
 gsave  408 305 930 677 C 974.32 871.76 t 0 r /Helvetica findfont 22.8295 sf 0 0 m (0) show NC gr 
 gsave  408 305 930 677 C 931.587 905.947 t 0 r /Helvetica findfont 22.8295 sf 0 0 m (0.005) show NC gr 
 gsave  408 305 930 677 C 945.832 937.285 t 0 r /Helvetica findfont 22.8295 sf 0 0 m (0.01) show NC gr  1297 723 m 229 Y s 1292 749 m 5 X s 1294 756 m 3 X s 1294 762 m 3 X s 1294 769 m 3 X s 1294 775 m 3 X s 1292 782 m 5 X s 1294 788 m 3 X s 1294 795
 m 3 X s 1294 802 m 3 X s 1294 808 m 3 X s 1292 815 m 5 X s 1294 821 m 3 X s 1294 828 m 3 X s 1294 834 m 3 X s 1294 841 m 3 X s 1292 847 m 5 X s 1294 854 m 3 X s 1294 861 m 3 X s 1294 867 m 3 X s 1294 874 m 3 X s 1292 880 m 5 X s 1294 887 m 3 X s
 1294 893 m 3 X s 1294 900 m 3 X s 1294 906 m 3 X s 1292 913 m 5 X s 1294 920 m 3 X s 1294 926 m 3 X s 1294 933 m 3 X s 1294 939 m 3 X s 1292 946 m 5 X s 1292 749 m 5 X s 1294 743 m 3 X s 1294 736 m 3 X s 1294 729 m 3 X s 1294 723 m 3 X s 1292 946 m
 5 X s 1047 907 1104 841 1216 817 1272 768 4 { m21} R 1047 918 m 15 Y s 1042 933 m 11 X s 1047 895 m -14 Y s 1042 881 m 11 X s 1104 853 m 14 Y s 1098 867 m 11 X s 1104 830 m -14 Y s 1098 816 m 11 X s 1216 829 m 14 Y s 1210 843 m 12 X s 1216 806 m -14
 Y s 1210 792 m 12 X s 1272 779 m 14 Y s 1267 793 m 11 X s 1272 756 m -14 Y s 1267 742 m 11 X s 1 0 0 c 9 lw 0.95 0.95 0.95 c black 1 0 0 c 993 880 m 18 X 3 -1 d 9 X 3 -1 d 6 X 3 -1 d 7 X 3 -1 d 3 X 3 -1 d 3 X 3 -1 d 3 X 3 -1 d 3 -1 d 3 X 3 -1 d 3 -1
 d 3 X 3 -1 d 3 -1 d 3 -1 d 3 -1 d 4 X 3 -1 d 3 -1 d 3 -1 d 3 -1 d 3 -1 d 3 -1 d 3 -1 d 3 -1 d 3 -1 d 3 -1 d 3 -2 d 3 -1 d 3 -1 d 3 -1 d 3 -1 d 4 -2 d s 1143 848 m 3 -1 d 3 -1 d 3 -2 d 3 -1 d 3 -1 d 3 -2 d 3 -1 d 3 -2 d 3 -1 d 3 -2 d 3 -1 d 3 -2 d 3
 -2 d 3 -1 d 3 -2 d 4 -2 d 3 -1 d 3 -2 d 3 -2 d 3 -2 d 3 -2 d 3 -1 d 3 -2 d 3 -2 d 3 -2 d 3 -2 d 3 -2 d 3 -2 d 3 -2 d 3 -2 d 3 -2 d 3 -2 d 4 -2 d 3 -3 d 3 -2 d 3 -2 d 3 -2 d 3 -2 d 3 -3 d 3 -2 d 3 -2 d 3 -3 d 3 -2 d 3 -3 d 3 -2 d 3 -3 d 3 -2 d 3 -3 d
 4 -2 d s 1293 754 m 3 -3 d s 0.49 0.6 0.82 c black 0.49 0.6 0.82 c
 gsave  408 305 930 677 C 1051.24 960.076 t 0 r /Helvetica-Bold findfont 25.6831 sf 0 0 m (3.5 < E < 4.0 GeV) show NC gr  0.52 0.76 0.64 c black 0.52 0.76 0.64 c
 gsave  408 305 930 677 C 1031.3 923.04 t 0 r /Helvetica-Bold findfont 25.6831 sf 0 0 m 
 228 214 200 193 178 171 156 149 133 126 119 105 91 77 69 55 47 39 25 17
(A = \2550.003, p = 2.000) K NC gr  1 0.6 1 c black 1 0.6 1 c
 gsave  408 305 930 677 C 1336.13 791.991 t 90 r /Helvetica-Bold findfont 28.5368 sf 0 0 m (/dof=0.7) show NC gr  black 1 0.6 1 c
 gsave  408 305 930 677 C 1324.73 780.596 t 90 r /Helvetica-Bold findfont 19.9758 sf 0 0 m (2) show NC gr  black 1 0.6 1 c
 gsave  408 305 930 677 C 1336.13 763.503 t 90 r /Symbol findfont 28.5368 sf 0 0 m (c) show NC gr  black 3 lw 1 1 1 c 408 305 1383 677 bf black 1 1 1 c black 306 229 1445 723 bl 306 229 1445 723 bl 1445 723 m 306 X s 1445 727 m -4 Y s 1557 727 m -4 Y
 s 1670 727 m -4 Y s 1670 727 m -4 Y s
 gsave  408 305 1383 677 C 1435.84 703.676 t 0 r /Helvetica findfont 22.8295 sf 0 0 m (0) show NC gr 
 gsave  408 305 1383 677 C 1549.8 703.676 t 0 r /Helvetica findfont 22.8295 sf 0 0 m (1) show NC gr 
 gsave  408 305 1383 677 C 1660.9 703.676 t 0 r /Helvetica findfont 22.8295 sf 0 0 m (2) show NC gr  1445 952 m 306 X s 1445 948 m 4 Y s 1557 948 m 4 Y s 1670 948 m 4 Y s 1670 948 m 4 Y s 1445 723 m 229 Y s 1450 764 m -5 X s 1447 774 m -2 X s 1447
 783 m -2 X s 1447 792 m -2 X s 1447 801 m -2 X s 1450 810 m -5 X s 1447 819 m -2 X s 1447 829 m -2 X s 1447 838 m -2 X s 1447 847 m -2 X s 1450 856 m -5 X s 1447 865 m -2 X s 1447 874 m -2 X s 1447 884 m -2 X s 1447 893 m -2 X s 1450 902 m -5 X s
 1447 911 m -2 X s 1447 920 m -2 X s 1447 929 m -2 X s 1447 938 m -2 X s 1450 948 m -5 X s 1450 764 m -5 X s 1447 755 m -2 X s 1447 746 m -2 X s 1447 737 m -2 X s 1447 728 m -2 X s 1450 948 m -5 X s
 gsave  408 305 1383 677 C 1376.01 757.805 t 0 r /Helvetica findfont 22.8295 sf 0 0 m (\2550.015) show NC gr 
 gsave  408 305 1383 677 C 1393.11 803.387 t 0 r /Helvetica findfont 22.8295 sf 0 0 m (\2550.01) show NC gr 
 gsave  408 305 1383 677 C 1376.01 848.969 t 0 r /Helvetica findfont 22.8295 sf 0 0 m (\2550.005) show NC gr 
 gsave  408 305 1383 677 C 1427.29 894.552 t 0 r /Helvetica findfont 22.8295 sf 0 0 m (0) show NC gr 
 gsave  408 305 1383 677 C 1384.56 940.134 t 0 r /Helvetica findfont 22.8295 sf 0 0 m (0.005) show NC gr  1751 723 m 229 Y s 1745 764 m 6 X s 1748 774 m 3 X s 1748 783 m 3 X s 1748 792 m 3 X s 1748 801 m 3 X s 1745 810 m 6 X s 1748 819 m 3 X s 1748
 829 m 3 X s 1748 838 m 3 X s 1748 847 m 3 X s 1745 856 m 6 X s 1748 865 m 3 X s 1748 874 m 3 X s 1748 884 m 3 X s 1748 893 m 3 X s 1745 902 m 6 X s 1748 911 m 3 X s 1748 920 m 3 X s 1748 929 m 3 X s 1748 938 m 3 X s 1745 948 m 6 X s 1745 764 m 6 X s
 1748 755 m 3 X s 1748 746 m 3 X s 1748 737 m 3 X s 1748 728 m 3 X s 1745 948 m 6 X s 1501 869 1557 790 1670 884 1726 798 4 { m21} R 1501 881 m 37 Y s 1495 918 m 12 X s 1501 858 m -37 Y s 1495 821 m 12 X s 1557 802 m 37 Y s 1551 839 m 12 X s 1557 779
 m -37 Y s 1551 742 m 12 X s 1670 895 m 38 Y s 1664 933 m 11 X s 1670 872 m -37 Y s 1664 835 m 11 X s 1726 810 m 37 Y s 1720 847 m 12 X s 1726 787 m -37 Y s 1720 750 m 12 X s 9 lw 0.95 0.95 0.95 c black 1446 901 m 3 -1 d 3 -1 d 3 -1 d 3 -1 d 3 -1 d 3
 -1 d 3 -1 d 4 -1 d 3 -1 d 3 -1 d 3 -1 d 3 -1 d 3 -1 d 3 -1 d 3 -1 d 3 -1 d 3 -1 d 3 -1 d 3 -1 d 3 -1 d 3 -1 d 3 -1 d 3 -1 d 4 -1 d 3 -1 d 3 -1 d 3 -1 d 3 -1 d 3 -1 d 3 -1 d 3 -1 d 3 -1 d 3 -1 d 3 -1 d 3 -1 d 3 -1 d 3 -1 d 3 -1 d 3 -1 d 4 -1 d 3 -1 d
 3 -1 d 3 -1 d 3 -1 d 3 -1 d 3 -1 d 3 -1 d 3 -1 d 3 -1 d s 1596 852 m 3 -1 d 3 -1 d 3 -1 d 3 -1 d 3 -1 d 3 -1 d 4 -1 d 3 -1 d 3 -1 d 3 -1 d 3 -1 d 3 -1 d 3 -1 d 3 -1 d 3 -1 d 3 -1 d 3 -1 d 3 -1 d 3 -1 d 3 -1 d 3 -1 d 3 -1 d 3 -1 d 4 -1 d 3 -1 d 3 -1
 d 3 -1 d 3 -1 d 3 -1 d 3 -1 d 3 -1 d 3 -1 d 3 -1 d 3 -1 d 3 -1 d 3 -1 d 3 -1 d 3 -1 d 3 -1 d 4 -1 d 3 -1 d 3 -1 d 3 -1 d 3 -1 d 3 -1 d 3 -1 d 3 -1 d 3 -1 d 3 -1 d s 1746 803 m 3 -1 d s 0.49 0.6 0.82 c black 0.49 0.6 0.82 c
 gsave  408 305 1383 677 C 1504.21 960.076 t 0 r /Helvetica-Bold findfont 25.6831 sf 0 0 m (4.0 < E < 4.5 GeV) show NC gr  0.52 0.76 0.64 c black 0.52 0.76 0.64 c
 gsave  408 305 1383 677 C 1484.27 923.04 t 0 r /Helvetica-Bold findfont 25.6831 sf 0 0 m 
 228 214 200 193 178 171 156 149 134 126 119 105 91 77 69 55 47 40 25 17
(A = \2550.004, p = 1.000) K NC gr  1 0.6 1 c black 1 0.6 1 c
 gsave  408 305 1383 677 C 1789.1 791.991 t 90 r /Helvetica-Bold findfont 28.5368 sf 0 0 m (/dof=1.3) show NC gr  black 1 0.6 1 c
 gsave  408 305 1383 677 C 1777.71 780.596 t 90 r /Helvetica-Bold findfont 19.9758 sf 0 0 m (2) show NC gr  black 1 0.6 1 c
 gsave  408 305 1383 677 C 1789.1 763.503 t 90 r /Symbol findfont 28.5368 sf 0 0 m (c) show NC gr  black 3 lw 1 1 1 c 408 305 1837 677 bf black 1 1 1 c black 306 229 1898 723 bl 306 229 1898 723 bl 1898 723 m 306 X s 1898 727 m -4 Y s 2011 727 m -4 Y
 s 2123 727 m -4 Y s 2123 727 m -4 Y s
 gsave  408 305 1837 677 C 1888.81 703.676 t 0 r /Helvetica findfont 22.8295 sf 0 0 m (0) show NC gr 
 gsave  408 305 1837 677 C 2002.77 703.676 t 0 r /Helvetica findfont 22.8295 sf 0 0 m (1) show NC gr 
 gsave  408 305 1837 677 C 2113.88 703.676 t 0 r /Helvetica findfont 22.8295 sf 0 0 m (2) show NC gr  1898 952 m 306 X s 1898 948 m 4 Y s 2011 948 m 4 Y s 2123 948 m 4 Y s 2123 948 m 4 Y s 1898 723 m 229 Y s 1904 748 m -6 X s 1901 755 m -3 X s 1901
 762 m -3 X s 1901 769 m -3 X s 1901 776 m -3 X s 1904 783 m -6 X s 1901 790 m -3 X s 1901 797 m -3 X s 1901 804 m -3 X s 1901 811 m -3 X s 1904 818 m -6 X s 1901 825 m -3 X s 1901 832 m -3 X s 1901 839 m -3 X s 1901 846 m -3 X s 1904 853 m -6 X s
 1901 860 m -3 X s 1901 867 m -3 X s 1901 874 m -3 X s 1901 881 m -3 X s 1904 888 m -6 X s 1901 895 m -3 X s 1901 902 m -3 X s 1901 909 m -3 X s 1901 916 m -3 X s 1904 923 m -6 X s 1904 748 m -6 X s 1901 741 m -3 X s 1901 734 m -3 X s 1901 727 m -3 X
 s 1904 923 m -6 X s 1901 930 m -3 X s 1901 937 m -3 X s 1901 944 m -3 X s 1901 951 m -3 X s
 gsave  408 305 1837 677 C 1846.08 740.711 t 0 r /Helvetica findfont 22.8295 sf 0 0 m (\2550.01) show NC gr 
 gsave  408 305 1837 677 C 1880.27 774.898 t 0 r /Helvetica findfont 22.8295 sf 0 0 m (0) show NC gr 
 gsave  408 305 1837 677 C 1851.78 811.934 t 0 r /Helvetica findfont 22.8295 sf 0 0 m (0.01) show NC gr 
 gsave  408 305 1837 677 C 1848.93 846.12 t 0 r /Helvetica findfont 22.8295 sf 0 0 m (0.02) show NC gr 
 gsave  408 305 1837 677 C 1848.93 880.307 t 0 r /Helvetica findfont 22.8295 sf 0 0 m (0.03) show NC gr 
 gsave  408 305 1837 677 C 1848.93 914.494 t 0 r /Helvetica findfont 22.8295 sf 0 0 m (0.04) show NC gr  2204 723 m 229 Y s 2199 748 m 5 X s 2201 755 m 3 X s 2201 762 m 3 X s 2201 769 m 3 X s 2201 776 m 3 X s 2199 783 m 5 X s 2201 790 m 3 X s 2201
 797 m 3 X s 2201 804 m 3 X s 2201 811 m 3 X s 2199 818 m 5 X s 2201 825 m 3 X s 2201 832 m 3 X s 2201 839 m 3 X s 2201 846 m 3 X s 2199 853 m 5 X s 2201 860 m 3 X s 2201 867 m 3 X s 2201 874 m 3 X s 2201 881 m 3 X s 2199 888 m 5 X s 2201 895 m 3 X s
 2201 902 m 3 X s 2201 909 m 3 X s 2201 916 m 3 X s 2199 923 m 5 X s 2199 748 m 5 X s 2201 741 m 3 X s 2201 734 m 3 X s 2201 727 m 3 X s 2199 923 m 5 X s 2201 930 m 3 X s 2201 937 m 3 X s 2201 944 m 3 X s 2201 951 m 3 X s 1954 768 2011 817 2123 840
 2179 906 4 { m21} R 1954 779 m 15 Y s 1949 794 m 11 X s 1954 756 m -14 Y s 1949 742 m 11 X s 2011 829 m 14 Y s 2005 843 m 11 X s 2011 806 m -15 Y s 2005 791 m 11 X s 2123 852 m 15 Y s 2117 867 m 12 X s 2123 829 m -15 Y s 2117 814 m 12 X s 2179 918 m
 15 Y s 2174 933 m 11 X s 2179 895 m -15 Y s 2174 880 m 11 X s 1 0 0 c 9 lw 0.95 0.95 0.95 c black 1 0 0 c 1900 783 m 21 X 3 1 d 9 X 3 1 d 3 X 3 1 d 7 X 3 1 d 3 X 3 1 d 3 X 3 1 d 3 1 d 3 X 3 1 d 3 1 d 3 X 3 1 d 3 1 d 3 1 d 3 X 4 1 d 3 1 d 3 1 d 3 1 d
 3 1 d 3 1 d 3 1 d 3 1 d 3 1 d 3 1 d 3 1 d 3 1 d 3 1 d 3 2 d 3 1 d 3 1 d 3 1 d 4 2 d 3 1 d s 2050 816 m 3 1 d 3 2 d 3 1 d 3 2 d 3 1 d 3 2 d 3 1 d 3 2 d 3 1 d 3 2 d 3 1 d 3 2 d 3 2 d 3 2 d 4 1 d 3 2 d 3 2 d 3 2 d 3 2 d 3 1 d 3 2 d 3 2 d 3 2 d 3 2 d 3
 2 d 3 2 d 3 2 d 3 2 d 3 3 d 3 2 d 4 2 d 3 2 d 3 2 d 3 3 d 3 2 d 3 2 d 3 3 d 3 2 d 3 2 d 3 3 d 3 2 d 3 3 d 3 2 d 3 3 d 3 2 d 3 3 d 4 2 d 3 3 d 3 3 d s 2200 915 m 3 2 d s 0.49 0.6 0.82 c black 0.49 0.6 0.82 c
 gsave  408 305 1837 677 C 1957.19 960.076 t 0 r /Helvetica-Bold findfont 25.6831 sf 0 0 m (4.5 < E < 5.0 GeV) show NC gr  0.52 0.76 0.64 c black 0.52 0.76 0.64 c
 gsave  408 305 1837 677 C 1942.94 923.04 t 0 r /Helvetica-Bold findfont 25.6831 sf 0 0 m 
 220 206 192 185 170 163 148 141 125 118 111 97 83 69 61 47 40 25 18
(A = 0.005, p = 2.000) K NC gr  1 0.6 1 c black 1 0.6 1 c
 gsave  408 305 1837 677 C 2242.08 791.991 t 90 r /Helvetica-Bold findfont 28.5368 sf 0 0 m (/dof=0.5) show NC gr  black 1 0.6 1 c
 gsave  408 305 1837 677 C 2230.68 780.596 t 90 r /Helvetica-Bold findfont 19.9758 sf 0 0 m (2) show NC gr  black 1 0.6 1 c
 gsave  408 305 1837 677 C 2242.08 763.503 t 90 r /Symbol findfont 28.5368 sf 0 0 m (c) show NC gr  black 3 lw 1 1 1 c 408 306 23 345 bf black 1 1 1 c black 306 229 84 391 bl 306 229 84 391 bl 84 391 m 306 X s 84 395 m -4 Y s 196 395 m -4 Y s 309 395
 m -4 Y s 309 395 m -4 Y s
 gsave  408 306 23 345 C 74.0711 370.356 t 0 r /Helvetica findfont 22.8295 sf 0 0 m (0) show NC gr 
 gsave  408 306 23 345 C 188.027 370.356 t 0 r /Helvetica findfont 22.8295 sf 0 0 m (1) show NC gr 
 gsave  408 306 23 345 C 299.133 370.356 t 0 r /Helvetica findfont 22.8295 sf 0 0 m (2) show NC gr  84 620 m 306 X s 84 616 m 4 Y s 196 616 m 4 Y s 309 616 m 4 Y s 309 616 m 4 Y s 84 391 m 229 Y s 89 397 m -5 X s 87 404 m -3 X s 87 410 m -3 X s 87
 416 m -3 X s 87 422 m -3 X s 89 429 m -5 X s 87 435 m -3 X s 87 441 m -3 X s 87 448 m -3 X s 87 454 m -3 X s 89 460 m -5 X s 87 467 m -3 X s 87 473 m -3 X s 87 479 m -3 X s 87 486 m -3 X s 89 492 m -5 X s 87 498 m -3 X s 87 504 m -3 X s 87 511 m -3
 X s 87 517 m -3 X s 89 523 m -5 X s 87 530 m -3 X s 87 536 m -3 X s 87 542 m -3 X s 87 549 m -3 X s 89 555 m -5 X s 87 561 m -3 X s 87 568 m -3 X s 87 574 m -3 X s 87 580 m -3 X s 89 586 m -5 X s 87 593 m -3 X s 87 599 m -3 X s 87 605 m -3 X s 87
 612 m -3 X s 89 618 m -5 X s 89 397 m -5 X s 89 618 m -5 X s
 gsave  408 306 23 345 C 31.3378 390.298 t 0 r /Helvetica findfont 22.8295 sf 0 0 m (\2550.01) show NC gr 
 gsave  408 306 23 345 C 65.5245 421.636 t 0 r /Helvetica findfont 22.8295 sf 0 0 m (0) show NC gr 
 gsave  408 306 23 345 C 37.0356 452.974 t 0 r /Helvetica findfont 22.8295 sf 0 0 m (0.01) show NC gr 
 gsave  408 306 23 345 C 34.1867 484.311 t 0 r /Helvetica findfont 22.8295 sf 0 0 m (0.02) show NC gr 
 gsave  408 306 23 345 C 34.1867 515.649 t 0 r /Helvetica findfont 22.8295 sf 0 0 m (0.03) show NC gr 
 gsave  408 306 23 345 C 34.1867 546.987 t 0 r /Helvetica findfont 22.8295 sf 0 0 m (0.04) show NC gr 
 gsave  408 306 23 345 C 34.1867 578.325 t 0 r /Helvetica findfont 22.8295 sf 0 0 m (0.05) show NC gr 
 gsave  408 306 23 345 C 34.1867 609.662 t 0 r /Helvetica findfont 22.8295 sf 0 0 m (0.06) show NC gr  390 391 m 229 Y s 385 397 m 5 X s 387 404 m 3 X s 387 410 m 3 X s 387 416 m 3 X s 387 422 m 3 X s 385 429 m 5 X s 387 435 m 3 X s 387 441 m 3 X s
 387 448 m 3 X s 387 454 m 3 X s 385 460 m 5 X s 387 467 m 3 X s 387 473 m 3 X s 387 479 m 3 X s 387 486 m 3 X s 385 492 m 5 X s 387 498 m 3 X s 387 504 m 3 X s 387 511 m 3 X s 387 517 m 3 X s 385 523 m 5 X s 387 530 m 3 X s 387 536 m 3 X s 387 542 m
 3 X s 387 549 m 3 X s 385 555 m 5 X s 387 561 m 3 X s 387 568 m 3 X s 387 574 m 3 X s 387 580 m 3 X s 385 586 m 5 X s 387 593 m 3 X s 387 599 m 3 X s 387 605 m 3 X s 387 612 m 3 X s 385 618 m 5 X s 385 397 m 5 X s 385 618 m 5 X s /w 22 def /w2 {w 2
 div} def /w3 {w 3 div} def 140 455 196 441 309 498 365 569 4 { m21} R 140 466 m 20 Y s 134 486 m 12 X s 140 443 m -19 Y s 134 424 m 12 X s 196 452 m 20 Y s 191 472 m 11 X s 196 430 m -20 Y s 191 410 m 11 X s 309 510 m 20 Y s 303 530 m 12 X s 309 487
 m -20 Y s 303 467 m 12 X s 365 581 m 20 Y s 360 601 m 11 X s 365 558 m -21 Y s 360 537 m 11 X s 1 0 0 c 9 lw 0.95 0.95 0.95 c black 1 0 0 c 85 429 m 19 X 3 1 d 9 X 3 1 d 3 X 3 1 d 6 X 3 1 d 3 1 d 4 X 3 1 d 3 X 3 1 d 3 1 d 3 X 3 1 d 3 1 d 3 1 d 3 X 3
 1 d 3 1 d 3 1 d 3 1 d 3 1 d 3 1 d 4 1 d 3 1 d 3 1 d 3 2 d 3 1 d 3 1 d 3 1 d 3 1 d 3 2 d 3 1 d 3 1 d 3 2 d 3 1 d 3 2 d 3 1 d 3 2 d s 235 467 m 4 1 d 3 2 d 3 1 d 3 2 d 3 2 d 3 1 d 3 2 d 3 2 d 3 2 d 3 1 d 3 2 d 3 2 d 3 2 d 3 2 d 3 2 d 3 2 d 3 2 d 4 2 d
 3 2 d 3 2 d 3 3 d 3 2 d 3 2 d 3 2 d 3 3 d 3 2 d 3 2 d 3 3 d 3 2 d 3 2 d 3 3 d 3 2 d 3 3 d 4 3 d 3 2 d 3 3 d 3 2 d 3 3 d 3 3 d 3 3 d 3 2 d 3 3 d 3 3 d 3 3 d 3 3 d 3 3 d 3 3 d 3 3 d 3 3 d s 385 579 m 4 3 d s 0.49 0.6 0.82 c black 0.49 0.6 0.82 c
 gsave  408 306 23 345 C 142.445 629.605 t 0 r /Helvetica-Bold findfont 25.6831 sf 0 0 m (5.0 < E < 5.5 GeV) show NC gr  0.52 0.76 0.64 c black 0.52 0.76 0.64 c
 gsave  408 306 23 345 C 128.2 592.569 t 0 r /Helvetica-Bold findfont 25.6831 sf 0 0 m 
 220 206 192 185 170 163 148 141 126 118 111 97 83 69 61 47 40 25 18
(A = 0.007, p = 2.000) K NC gr  1 0.6 1 c black 1 0.6 1 c
 gsave  408 306 23 345 C 427.334 458.671 t 90 r /Helvetica-Bold findfont 28.5368 sf 0 0 m (/dof=0.3) show NC gr  black 1 0.6 1 c
 gsave  408 306 23 345 C 415.938 447.276 t 90 r /Helvetica-Bold findfont 19.9758 sf 0 0 m (2) show NC gr  black 1 0.6 1 c
 gsave  408 306 23 345 C 427.334 430.182 t 90 r /Symbol findfont 28.5368 sf 0 0 m (c) show NC gr  black 3 lw 1 1 1 c 408 306 476 345 bf black 1 1 1 c black 307 229 537 391 bl 307 229 537 391 bl 537 391 m 307 X s 537 395 m -4 Y s 650 395 m -4 Y s 763
 395 m -4 Y s 763 395 m -4 Y s
 gsave  408 306 476 345 C 527.045 370.356 t 0 r /Helvetica findfont 22.8295 sf 0 0 m (0) show NC gr 
 gsave  408 306 476 345 C 643.849 370.356 t 0 r /Helvetica findfont 22.8295 sf 0 0 m (1) show NC gr 
 gsave  408 306 476 345 C 752.107 370.356 t 0 r /Helvetica findfont 22.8295 sf 0 0 m (2) show NC gr  537 620 m 307 X s 537 616 m 4 Y s 650 616 m 4 Y s 763 616 m 4 Y s 763 616 m 4 Y s 537 391 m 229 Y s 543 391 m -6 X s 540 398 m -3 X s 540 405 m -3 X
 s 540 412 m -3 X s 540 419 m -3 X s 543 427 m -6 X s 540 434 m -3 X s 540 441 m -3 X s 540 448 m -3 X s 540 455 m -3 X s 543 462 m -6 X s 540 469 m -3 X s 540 476 m -3 X s 540 484 m -3 X s 540 491 m -3 X s 543 498 m -6 X s 540 505 m -3 X s 540 512 m
 -3 X s 540 519 m -3 X s 540 526 m -3 X s 543 533 m -6 X s 540 541 m -3 X s 540 548 m -3 X s 540 555 m -3 X s 540 562 m -3 X s 543 569 m -6 X s 540 576 m -3 X s 540 583 m -3 X s 540 590 m -3 X s 540 597 m -3 X s 543 605 m -6 X s 543 605 m -6 X s 540
 612 m -3 X s 540 619 m -3 X s
 gsave  408 306 476 345 C 518.498 384.6 t 0 r /Helvetica findfont 22.8295 sf 0 0 m (0) show NC gr 
 gsave  408 306 476 345 C 490.009 418.787 t 0 r /Helvetica findfont 22.8295 sf 0 0 m (0.01) show NC gr 
 gsave  408 306 476 345 C 487.16 455.822 t 0 r /Helvetica findfont 22.8295 sf 0 0 m (0.02) show NC gr 
 gsave  408 306 476 345 C 487.16 490.009 t 0 r /Helvetica findfont 22.8295 sf 0 0 m (0.03) show NC gr 
 gsave  408 306 476 345 C 487.16 527.045 t 0 r /Helvetica findfont 22.8295 sf 0 0 m (0.04) show NC gr 
 gsave  408 306 476 345 C 487.16 561.231 t 0 r /Helvetica findfont 22.8295 sf 0 0 m (0.05) show NC gr 
 gsave  408 306 476 345 C 487.16 598.267 t 0 r /Helvetica findfont 22.8295 sf 0 0 m (0.06) show NC gr  844 391 m 229 Y s 838 391 m 6 X s 841 398 m 3 X s 841 405 m 3 X s 841 412 m 3 X s 841 419 m 3 X s 838 427 m 6 X s 841 434 m 3 X s 841 441 m 3 X s
 841 448 m 3 X s 841 455 m 3 X s 838 462 m 6 X s 841 469 m 3 X s 841 476 m 3 X s 841 484 m 3 X s 841 491 m 3 X s 838 498 m 6 X s 841 505 m 3 X s 841 512 m 3 X s 841 519 m 3 X s 841 526 m 3 X s 838 533 m 6 X s 841 541 m 3 X s 841 548 m 3 X s 841 555 m
 3 X s 841 562 m 3 X s 838 569 m 6 X s 841 576 m 3 X s 841 583 m 3 X s 841 590 m 3 X s 841 597 m 3 X s 838 605 m 6 X s 838 605 m 6 X s 841 612 m 3 X s 841 619 m 3 X s /w 23 def /w2 {w 2 div} def /w3 {w 3 div} def 594 438 650 466 763 554 819 518 4 {
 m21} R 594 449 m 33 Y s 588 482 m 11 X s 594 426 m -33 Y s 588 393 m 11 X s 650 477 m 33 Y s 644 510 m 12 X s 650 454 m -33 Y s 644 421 m 12 X s 763 566 m 33 Y s 757 599 m 11 X s 763 543 m -33 Y s 757 510 m 11 X s 819 529 m 34 Y s 813 563 m 12 X s
 819 507 m -33 Y s 813 474 m 12 X s 9 lw 0.95 0.95 0.95 c black 539 392 m 3 2 d 3 1 d 3 2 d 3 2 d 3 2 d 3 1 d 3 2 d 3 2 d 4 2 d 3 1 d 3 2 d 3 2 d 3 2 d 3 1 d 3 2 d 3 2 d 3 2 d 3 1 d 3 2 d 3 2 d 3 2 d 3 1 d 3 2 d 3 2 d 4 2 d 3 1 d 3 2 d 3 2 d 3 2 d 3
 1 d 3 2 d 3 2 d 3 2 d 3 1 d 3 2 d 3 2 d 3 2 d 3 2 d 3 1 d 3 2 d 3 2 d 4 2 d 3 1 d 3 2 d 3 2 d 3 2 d 3 1 d 3 2 d 3 2 d s 689 478 m 3 2 d 3 1 d 3 2 d 3 2 d 3 2 d 3 1 d 3 2 d 3 2 d 4 2 d 3 1 d 3 2 d 3 2 d 3 2 d 3 1 d 3 2 d 3 2 d 3 2 d 3 1 d 3 2 d 3 2 d
 3 2 d 3 1 d 3 2 d 3 2 d 4 2 d 3 1 d 3 2 d 3 2 d 3 2 d 3 1 d 3 2 d 3 2 d 3 2 d 3 1 d 3 2 d 3 2 d 3 2 d 3 1 d 3 2 d 3 2 d 4 2 d 3 1 d 3 2 d 3 2 d 3 2 d 3 1 d 3 2 d 3 2 d 3 2 d s 839 564 m 3 1 d s 0.49 0.6 0.82 c black 0.49 0.6 0.82 c
 gsave  408 306 476 345 C 595.418 629.605 t 0 r /Helvetica-Bold findfont 25.6831 sf 0 0 m (5.5 < E < 6.0 GeV) show NC gr  0.52 0.76 0.64 c black 0.52 0.76 0.64 c
 gsave  408 306 476 345 C 581.174 592.569 t 0 r /Helvetica-Bold findfont 25.6831 sf 0 0 m 
 220 206 192 185 170 163 148 141 125 118 111 97 83 68 61 47 40 25 18
(A = 0.018, p = 1.000) K NC gr  1 0.6 1 c black 1 0.6 1 c
 gsave  408 306 476 345 C 883.156 458.671 t 90 r /Helvetica-Bold findfont 28.5368 sf 0 0 m (/dof=0.4) show NC gr  black 1 0.6 1 c
 gsave  408 306 476 345 C 871.76 447.276 t 90 r /Helvetica-Bold findfont 19.9758 sf 0 0 m (2) show NC gr  black 1 0.6 1 c
 gsave  408 306 476 345 C 883.156 430.182 t 90 r /Symbol findfont 28.5368 sf 0 0 m (c) show NC gr  black 3 lw 1 1 1 c 408 306 930 345 bf black 1 1 1 c black 306 229 991 391 bl 306 229 991 391 bl 991 391 m 306 X s 991 395 m -4 Y s 1104 395 m -4 Y s
 1216 395 m -4 Y s 1216 395 m -4 Y s
 gsave  408 306 930 345 C 980.018 370.356 t 0 r /Helvetica findfont 22.8295 sf 0 0 m (0) show NC gr 
 gsave  408 306 930 345 C 1096.82 370.356 t 0 r /Helvetica findfont 22.8295 sf 0 0 m (1) show NC gr 
 gsave  408 306 930 345 C 1205.08 370.356 t 0 r /Helvetica findfont 22.8295 sf 0 0 m (2) show NC gr  991 620 m 306 X s 991 616 m 4 Y s 1104 616 m 4 Y s 1216 616 m 4 Y s 1216 616 m 4 Y s 991 391 m 229 Y s 997 403 m -6 X s 994 410 m -3 X s 994 416 m -3
 X s 994 423 m -3 X s 994 430 m -3 X s 997 437 m -6 X s 994 444 m -3 X s 994 451 m -3 X s 994 458 m -3 X s 994 465 m -3 X s 997 471 m -6 X s 994 478 m -3 X s 994 485 m -3 X s 994 492 m -3 X s 994 499 m -3 X s 997 506 m -6 X s 994 513 m -3 X s 994 520
 m -3 X s 994 527 m -3 X s 994 533 m -3 X s 997 540 m -6 X s 994 547 m -3 X s 994 554 m -3 X s 994 561 m -3 X s 994 568 m -3 X s 997 575 m -6 X s 994 582 m -3 X s 994 588 m -3 X s 994 595 m -3 X s 994 602 m -3 X s 997 609 m -6 X s 997 403 m -6 X s
 994 396 m -3 X s 997 609 m -6 X s 994 616 m -3 X s
 gsave  408 306 930 345 C 937.285 395.996 t 0 r /Helvetica findfont 22.8295 sf 0 0 m (\2550.02) show NC gr 
 gsave  408 306 930 345 C 940.134 430.182 t 0 r /Helvetica findfont 22.8295 sf 0 0 m (\2550.01) show NC gr 
 gsave  408 306 930 345 C 974.32 464.369 t 0 r /Helvetica findfont 22.8295 sf 0 0 m (0) show NC gr 
 gsave  408 306 930 345 C 945.832 498.556 t 0 r /Helvetica findfont 22.8295 sf 0 0 m (0.01) show NC gr 
 gsave  408 306 930 345 C 942.983 532.742 t 0 r /Helvetica findfont 22.8295 sf 0 0 m (0.02) show NC gr 
 gsave  408 306 930 345 C 942.983 566.929 t 0 r /Helvetica findfont 22.8295 sf 0 0 m (0.03) show NC gr 
 gsave  408 306 930 345 C 942.983 601.116 t 0 r /Helvetica findfont 22.8295 sf 0 0 m (0.04) show NC gr  1297 391 m 229 Y s 1292 403 m 5 X s 1294 410 m 3 X s 1294 416 m 3 X s 1294 423 m 3 X s 1294 430 m 3 X s 1292 437 m 5 X s 1294 444 m 3 X s 1294 451
 m 3 X s 1294 458 m 3 X s 1294 465 m 3 X s 1292 471 m 5 X s 1294 478 m 3 X s 1294 485 m 3 X s 1294 492 m 3 X s 1294 499 m 3 X s 1292 506 m 5 X s 1294 513 m 3 X s 1294 520 m 3 X s 1294 527 m 3 X s 1294 533 m 3 X s 1292 540 m 5 X s 1294 547 m 3 X s
 1294 554 m 3 X s 1294 561 m 3 X s 1294 568 m 3 X s 1292 575 m 5 X s 1294 582 m 3 X s 1294 588 m 3 X s 1294 595 m 3 X s 1294 602 m 3 X s 1292 609 m 5 X s 1292 403 m 5 X s 1294 396 m 3 X s 1292 609 m 5 X s 1294 616 m 3 X s 1047 460 1104 476 1216 551
 1272 549 4 { m21} R 1047 471 m 38 Y s 1042 509 m 11 X s 1047 448 m -38 Y s 1042 410 m 11 X s 1104 487 m 39 Y s 1098 526 m 11 X s 1104 465 m -39 Y s 1098 426 m 11 X s 1216 562 m 39 Y s 1210 601 m 12 X s 1216 539 m -39 Y s 1210 500 m 12 X s 1272 560 m
 40 Y s 1267 600 m 11 X s 1272 538 m -39 Y s 1267 499 m 11 X s 1 0 0 c 9 lw 0.95 0.95 0.95 c black 1 0 0 c 993 471 m 3 X 3 1 d 21 X 3 1 d 9 X 3 1 d 7 X 3 1 d 6 X 3 1 d 3 X 3 1 d 3 X 3 1 d 3 X 3 1 d 3 X 3 1 d 3 1 d 3 X 3 1 d 3 1 d 4 X 3 1 d 3 1 d 3 1
 d 3 X 3 1 d 3 1 d 3 1 d 3 1 d 3 1 d 3 X 3 1 d 3 1 d 3 1 d 3 1 d 3 1 d 4 1 d s 1143 497 m 3 1 d 3 2 d 3 1 d 3 1 d 3 1 d 3 1 d 3 1 d 3 1 d 3 2 d 3 1 d 3 1 d 3 2 d 3 1 d 3 1 d 3 2 d 4 1 d 3 1 d 3 2 d 3 1 d 3 2 d 3 1 d 3 2 d 3 1 d 3 2 d 3 1 d 3 2 d 3 1
 d 3 2 d 3 2 d 3 1 d 3 2 d 3 2 d 4 2 d 3 1 d 3 2 d 3 2 d 3 2 d 3 2 d 3 1 d 3 2 d 3 2 d 3 2 d 3 2 d 3 2 d 3 2 d 3 2 d 3 2 d 3 2 d 4 2 d s 1293 574 m 3 2 d s 0.49 0.6 0.82 c black 0.49 0.6 0.82 c
 gsave  408 306 930 345 C 1051.24 629.605 t 0 r /Helvetica-Bold findfont 25.6831 sf 0 0 m (6.0 < E < 6.5 GeV) show NC gr  0.52 0.76 0.64 c black 0.52 0.76 0.64 c
 gsave  408 306 930 345 C 1037 592.569 t 0 r /Helvetica-Bold findfont 25.6831 sf 0 0 m 
 220 206 192 185 170 163 148 141 125 118 111 97 83 69 61 47 40 25 18
(A = 0.004, p = 2.000) K NC gr  1 0.6 1 c black 1 0.6 1 c
 gsave  408 306 930 345 C 1336.13 458.671 t 90 r /Helvetica-Bold findfont 28.5368 sf 0 0 m (/dof=0.1) show NC gr  black 1 0.6 1 c
 gsave  408 306 930 345 C 1324.73 447.276 t 90 r /Helvetica-Bold findfont 19.9758 sf 0 0 m (2) show NC gr  black 1 0.6 1 c
 gsave  408 306 930 345 C 1336.13 430.182 t 90 r /Symbol findfont 28.5368 sf 0 0 m (c) show NC gr  black 3 lw 1 1 1 c 408 306 1383 345 bf black 1 1 1 c black 306 229 1445 391 bl 306 229 1445 391 bl 1445 391 m 306 X s 1445 395 m -4 Y s 1557 395 m -4 Y
 s 1670 395 m -4 Y s 1670 395 m -4 Y s
 gsave  408 306 1383 345 C 1435.84 370.356 t 0 r /Helvetica findfont 22.8295 sf 0 0 m (0) show NC gr 
 gsave  408 306 1383 345 C 1549.8 370.356 t 0 r /Helvetica findfont 22.8295 sf 0 0 m (1) show NC gr 
 gsave  408 306 1383 345 C 1660.9 370.356 t 0 r /Helvetica findfont 22.8295 sf 0 0 m (2) show NC gr  1445 620 m 306 X s 1445 616 m 4 Y s 1557 616 m 4 Y s 1670 616 m 4 Y s 1670 616 m 4 Y s 1445 391 m 229 Y s 1450 395 m -5 X s 1447 400 m -2 X s 1447
 406 m -2 X s 1447 412 m -2 X s 1447 418 m -2 X s 1450 424 m -5 X s 1447 429 m -2 X s 1447 435 m -2 X s 1447 441 m -2 X s 1447 447 m -2 X s 1450 452 m -5 X s 1447 458 m -2 X s 1447 464 m -2 X s 1447 470 m -2 X s 1447 475 m -2 X s 1450 481 m -5 X s
 1447 487 m -2 X s 1447 493 m -2 X s 1447 498 m -2 X s 1447 504 m -2 X s 1450 510 m -5 X s 1447 516 m -2 X s 1447 522 m -2 X s 1447 527 m -2 X s 1447 533 m -2 X s 1450 539 m -5 X s 1447 545 m -2 X s 1447 550 m -2 X s 1447 556 m -2 X s 1447 562 m -2 X
 s 1450 568 m -5 X s 1447 573 m -2 X s 1447 579 m -2 X s 1447 585 m -2 X s 1447 591 m -2 X s 1450 596 m -5 X s 1450 395 m -5 X s 1450 596 m -5 X s 1447 602 m -2 X s 1447 608 m -2 X s 1447 614 m -2 X s 1447 620 m -2 X s
 gsave  408 306 1383 345 C 1390.26 387.449 t 0 r /Helvetica findfont 22.8295 sf 0 0 m (\2550.03) show NC gr 
 gsave  408 306 1383 345 C 1390.26 415.938 t 0 r /Helvetica findfont 22.8295 sf 0 0 m (\2550.02) show NC gr 
 gsave  408 306 1383 345 C 1393.11 444.427 t 0 r /Helvetica findfont 22.8295 sf 0 0 m (\2550.01) show NC gr 
 gsave  408 306 1383 345 C 1427.29 472.916 t 0 r /Helvetica findfont 22.8295 sf 0 0 m (0) show NC gr 
 gsave  408 306 1383 345 C 1398.81 504.254 t 0 r /Helvetica findfont 22.8295 sf 0 0 m (0.01) show NC gr 
 gsave  408 306 1383 345 C 1395.96 532.742 t 0 r /Helvetica findfont 22.8295 sf 0 0 m (0.02) show NC gr 
 gsave  408 306 1383 345 C 1395.96 561.231 t 0 r /Helvetica findfont 22.8295 sf 0 0 m (0.03) show NC gr 
 gsave  408 306 1383 345 C 1395.96 589.72 t 0 r /Helvetica findfont 22.8295 sf 0 0 m (0.04) show NC gr  1751 391 m 229 Y s 1745 395 m 6 X s 1748 400 m 3 X s 1748 406 m 3 X s 1748 412 m 3 X s 1748 418 m 3 X s 1745 424 m 6 X s 1748 429 m 3 X s 1748 435
 m 3 X s 1748 441 m 3 X s 1748 447 m 3 X s 1745 452 m 6 X s 1748 458 m 3 X s 1748 464 m 3 X s 1748 470 m 3 X s 1748 475 m 3 X s 1745 481 m 6 X s 1748 487 m 3 X s 1748 493 m 3 X s 1748 498 m 3 X s 1748 504 m 3 X s 1745 510 m 6 X s 1748 516 m 3 X s
 1748 522 m 3 X s 1748 527 m 3 X s 1748 533 m 3 X s 1745 539 m 6 X s 1748 545 m 3 X s 1748 550 m 3 X s 1748 556 m 3 X s 1748 562 m 3 X s 1745 568 m 6 X s 1748 573 m 3 X s 1748 579 m 3 X s 1748 585 m 3 X s 1748 591 m 3 X s 1745 596 m 6 X s 1745 395 m
 6 X s 1745 596 m 6 X s 1748 602 m 3 X s 1748 608 m 3 X s 1748 614 m 3 X s 1748 620 m 3 X s 1501 457 1557 497 1670 503 1726 553 4 { m21} R 1501 468 m 36 Y s 1495 504 m 12 X s 1501 445 m -35 Y s 1495 410 m 12 X s 1557 508 m 36 Y s 1551 544 m 12 X s
 1557 486 m -36 Y s 1551 450 m 12 X s 1670 515 m 35 Y s 1664 550 m 11 X s 1670 492 m -36 Y s 1664 456 m 11 X s 1726 565 m 36 Y s 1720 601 m 12 X s 1726 542 m -36 Y s 1720 506 m 12 X s 1 0 0 c 9 lw 0.95 0.95 0.95 c black 1 0 0 c 1446 481 m 18 X 3 1 d
 19 X 3 1 d 9 X 3 1 d 9 X 3 1 d 7 X 3 1 d 3 X 3 1 d 6 X 3 1 d 3 X 3 1 d 3 X 3 1 d 3 X 3 1 d 3 X 3 1 d 3 X 4 1 d 3 1 d 3 X 3 1 d 3 X 3 1 d 3 1 d 3 X 3 1 d 3 1 d s 1596 499 m 3 1 d 3 X 3 1 d 3 1 d 3 1 d 3 X 4 1 d 3 1 d 3 1 d 3 1 d 3 1 d 3 X 3 1 d 3 1 d
 3 1 d 3 1 d 3 1 d 3 1 d 3 1 d 3 1 d 3 1 d 3 1 d 3 1 d 4 1 d 3 1 d 3 1 d 3 1 d 3 1 d 3 2 d 3 1 d 3 1 d 3 1 d 3 1 d 3 1 d 3 2 d 3 1 d 3 1 d 3 1 d 3 2 d 4 1 d 3 1 d 3 1 d 3 2 d 3 1 d 3 1 d 3 2 d 3 1 d 3 2 d 3 1 d s 1746 551 m 3 1 d s 0.49 0.6 0.82 c
 black 0.49 0.6 0.82 c
 gsave  408 306 1383 345 C 1504.21 629.605 t 0 r /Helvetica-Bold findfont 25.6831 sf 0 0 m (6.5 < E < 7.0 GeV) show NC gr  0.52 0.76 0.64 c black 0.52 0.76 0.64 c
 gsave  408 306 1383 345 C 1489.97 592.569 t 0 r /Helvetica-Bold findfont 25.6831 sf 0 0 m 
 220 206 192 185 170 163 148 141 126 118 111 97 83 69 61 47 40 25 18
(A = 0.003, p = 2.000) K NC gr  1 0.6 1 c black 1 0.6 1 c
 gsave  408 306 1383 345 C 1789.1 458.671 t 90 r /Helvetica-Bold findfont 28.5368 sf 0 0 m (/dof=0.2) show NC gr  black 1 0.6 1 c
 gsave  408 306 1383 345 C 1777.71 447.276 t 90 r /Helvetica-Bold findfont 19.9758 sf 0 0 m (2) show NC gr  black 1 0.6 1 c
 gsave  408 306 1383 345 C 1789.1 430.182 t 90 r /Symbol findfont 28.5368 sf 0 0 m (c) show NC gr  black 3 lw 1 1 1 c 408 306 1837 345 bf black 1 1 1 c black 306 229 1898 391 bl 306 229 1898 391 bl 1898 391 m 306 X s 1898 395 m -4 Y s 2011 395 m -4 Y
 s 2123 395 m -4 Y s 2123 395 m -4 Y s
 gsave  408 306 1837 345 C 1888.81 370.356 t 0 r /Helvetica findfont 22.8295 sf 0 0 m (0) show NC gr 
 gsave  408 306 1837 345 C 2002.77 370.356 t 0 r /Helvetica findfont 22.8295 sf 0 0 m (1) show NC gr 
 gsave  408 306 1837 345 C 2113.88 370.356 t 0 r /Helvetica findfont 22.8295 sf 0 0 m (2) show NC gr  1898 620 m 306 X s 1898 616 m 4 Y s 2011 616 m 4 Y s 2123 616 m 4 Y s 2123 616 m 4 Y s 1898 391 m 229 Y s 1904 405 m -6 X s 1901 412 m -3 X s 1901
 418 m -3 X s 1901 425 m -3 X s 1901 432 m -3 X s 1904 438 m -6 X s 1901 445 m -3 X s 1901 452 m -3 X s 1901 458 m -3 X s 1901 465 m -3 X s 1904 472 m -6 X s 1901 478 m -3 X s 1901 485 m -3 X s 1901 492 m -3 X s 1901 498 m -3 X s 1904 505 m -6 X s
 1901 512 m -3 X s 1901 518 m -3 X s 1901 525 m -3 X s 1901 532 m -3 X s 1904 538 m -6 X s 1901 545 m -3 X s 1901 552 m -3 X s 1901 558 m -3 X s 1901 565 m -3 X s 1904 571 m -6 X s 1901 578 m -3 X s 1901 585 m -3 X s 1901 591 m -3 X s 1901 598 m -3 X
 s 1904 605 m -6 X s 1904 405 m -6 X s 1901 398 m -3 X s 1901 392 m -3 X s 1904 605 m -6 X s 1901 611 m -3 X s 1901 618 m -3 X s
 gsave  408 306 1837 345 C 1843.23 398.845 t 0 r /Helvetica findfont 22.8295 sf 0 0 m (\2550.03) show NC gr 
 gsave  408 306 1837 345 C 1843.23 430.182 t 0 r /Helvetica findfont 22.8295 sf 0 0 m (\2550.02) show NC gr 
 gsave  408 306 1837 345 C 1846.08 464.369 t 0 r /Helvetica findfont 22.8295 sf 0 0 m (\2550.01) show NC gr 
 gsave  408 306 1837 345 C 1880.27 498.556 t 0 r /Helvetica findfont 22.8295 sf 0 0 m (0) show NC gr 
 gsave  408 306 1837 345 C 1851.78 529.894 t 0 r /Helvetica findfont 22.8295 sf 0 0 m (0.01) show NC gr 
 gsave  408 306 1837 345 C 1848.93 564.08 t 0 r /Helvetica findfont 22.8295 sf 0 0 m (0.02) show NC gr 
 gsave  408 306 1837 345 C 1848.93 598.267 t 0 r /Helvetica findfont 22.8295 sf 0 0 m (0.03) show NC gr  2204 391 m 229 Y s 2199 405 m 5 X s 2201 412 m 3 X s 2201 418 m 3 X s 2201 425 m 3 X s 2201 432 m 3 X s 2199 438 m 5 X s 2201 445 m 3 X s 2201
 452 m 3 X s 2201 458 m 3 X s 2201 465 m 3 X s 2199 472 m 5 X s 2201 478 m 3 X s 2201 485 m 3 X s 2201 492 m 3 X s 2201 498 m 3 X s 2199 505 m 5 X s 2201 512 m 3 X s 2201 518 m 3 X s 2201 525 m 3 X s 2201 532 m 3 X s 2199 538 m 5 X s 2201 545 m 3 X s
 2201 552 m 3 X s 2201 558 m 3 X s 2201 565 m 3 X s 2199 571 m 5 X s 2201 578 m 3 X s 2201 585 m 3 X s 2201 591 m 3 X s 2201 598 m 3 X s 2199 605 m 5 X s 2199 405 m 5 X s 2201 398 m 3 X s 2201 392 m 3 X s 2199 605 m 5 X s 2201 611 m 3 X s 2201 618 m
 3 X s 1954 479 2011 469 2123 541 2179 493 4 { m21} R 1954 490 m 48 Y s 1949 538 m 11 X s 1954 468 m -48 Y s 1949 420 m 11 X s 2011 480 m 47 Y s 2005 527 m 11 X s 2011 457 m -47 Y s 2005 410 m 11 X s 2123 552 m 49 Y s 2117 601 m 12 X s 2123 530 m -49
 Y s 2117 481 m 12 X s 2179 504 m 47 Y s 2174 551 m 11 X s 2179 482 m -48 Y s 2174 434 m 11 X s 9 lw 0.95 0.95 0.95 c black 1900 505 m 49 X 3 -1 d 98 X s 2050 504 m 24 X 3 -1 d 123 X s 2200 503 m 3 -1 d s 0.49 0.6 0.82 c black 0.49 0.6 0.82 c
 gsave  408 306 1837 345 C 1957.19 629.605 t 0 r /Helvetica-Bold findfont 25.6831 sf 0 0 m (7.0 < E < 7.5 GeV) show NC gr  0.52 0.76 0.64 c black 0.52 0.76 0.64 c
 gsave  408 306 1837 345 C 1937.25 592.569 t 0 r /Helvetica-Bold findfont 25.6831 sf 0 0 m 
 228 214 200 193 178 171 156 149 133 126 119 105 91 77 69 55 47 39 25 17
(A = \2550.000, p = 1.000) K NC gr  1 0.6 1 c black 1 0.6 1 c
 gsave  408 306 1837 345 C 2242.08 458.671 t 90 r /Helvetica-Bold findfont 28.5368 sf 0 0 m (/dof=0.3) show NC gr  black 1 0.6 1 c
 gsave  408 306 1837 345 C 2230.68 447.276 t 90 r /Helvetica-Bold findfont 19.9758 sf 0 0 m (2) show NC gr  black 1 0.6 1 c
 gsave  408 306 1837 345 C 2242.08 430.182 t 90 r /Symbol findfont 28.5368 sf 0 0 m (c) show NC gr  black 3 lw 1 1 1 c 408 306 23 13 bf black 1 1 1 c black 306 229 84 59 bl 306 229 84 59 bl 84 59 m 306 X s 84 63 m -4 Y s 196 63 m -4 Y s 309 63 m -4 Y
 s 309 63 m -4 Y s
 gsave  408 306 23 13 C 74.0711 39.8845 t 0 r /Helvetica findfont 22.8295 sf 0 0 m (0) show NC gr 
 gsave  408 306 23 13 C 188.027 39.8845 t 0 r /Helvetica findfont 22.8295 sf 0 0 m (1) show NC gr 
 gsave  408 306 23 13 C 299.133 39.8845 t 0 r /Helvetica findfont 22.8295 sf 0 0 m (2) show NC gr  84 288 m 306 X s 84 284 m 4 Y s 196 284 m 4 Y s 309 284 m 4 Y s 309 284 m 4 Y s 84 59 m 229 Y s 89 72 m -5 X s 87 78 m -3 X s 87 83 m -3 X s 87 88 m -3
 X s 87 94 m -3 X s 89 99 m -5 X s 87 104 m -3 X s 87 110 m -3 X s 87 115 m -3 X s 87 121 m -3 X s 89 126 m -5 X s 87 131 m -3 X s 87 137 m -3 X s 87 142 m -3 X s 87 148 m -3 X s 89 153 m -5 X s 87 158 m -3 X s 87 164 m -3 X s 87 169 m -3 X s 87 174
 m -3 X s 89 180 m -5 X s 87 185 m -3 X s 87 191 m -3 X s 87 196 m -3 X s 87 201 m -3 X s 89 207 m -5 X s 87 212 m -3 X s 87 217 m -3 X s 87 223 m -3 X s 87 228 m -3 X s 89 234 m -5 X s 87 239 m -3 X s 87 244 m -3 X s 87 250 m -3 X s 87 255 m -3 X s
 89 260 m -5 X s 87 266 m -3 X s 87 271 m -3 X s 87 277 m -3 X s 87 282 m -3 X s 89 287 m -5 X s 89 72 m -5 X s 87 67 m -3 X s 87 61 m -3 X s 89 287 m -5 X s
 gsave  408 306 23 13 C 28.4889 65.5245 t 0 r /Helvetica findfont 22.8295 sf 0 0 m (\2550.03) show NC gr 
 gsave  408 306 23 13 C 28.4889 91.1645 t 0 r /Helvetica findfont 22.8295 sf 0 0 m (\2550.02) show NC gr 
 gsave  408 306 23 13 C 31.3378 119.653 t 0 r /Helvetica findfont 22.8295 sf 0 0 m (\2550.01) show NC gr 
 gsave  408 306 23 13 C 65.5245 145.293 t 0 r /Helvetica findfont 22.8295 sf 0 0 m (0) show NC gr 
 gsave  408 306 23 13 C 37.0356 173.782 t 0 r /Helvetica findfont 22.8295 sf 0 0 m (0.01) show NC gr 
 gsave  408 306 23 13 C 34.1867 199.422 t 0 r /Helvetica findfont 22.8295 sf 0 0 m (0.02) show NC gr 
 gsave  408 306 23 13 C 34.1867 225.062 t 0 r /Helvetica findfont 22.8295 sf 0 0 m (0.03) show NC gr 
 gsave  408 306 23 13 C 34.1867 253.551 t 0 r /Helvetica findfont 22.8295 sf 0 0 m (0.04) show NC gr 
 gsave  408 306 23 13 C 34.1867 279.191 t 0 r /Helvetica findfont 22.8295 sf 0 0 m (0.05) show NC gr  390 59 m 229 Y s 385 72 m 5 X s 387 78 m 3 X s 387 83 m 3 X s 387 88 m 3 X s 387 94 m 3 X s 385 99 m 5 X s 387 104 m 3 X s 387 110 m 3 X s 387 115 m
 3 X s 387 121 m 3 X s 385 126 m 5 X s 387 131 m 3 X s 387 137 m 3 X s 387 142 m 3 X s 387 148 m 3 X s 385 153 m 5 X s 387 158 m 3 X s 387 164 m 3 X s 387 169 m 3 X s 387 174 m 3 X s 385 180 m 5 X s 387 185 m 3 X s 387 191 m 3 X s 387 196 m 3 X s 387
 201 m 3 X s 385 207 m 5 X s 387 212 m 3 X s 387 217 m 3 X s 387 223 m 3 X s 387 228 m 3 X s 385 234 m 5 X s 387 239 m 3 X s 387 244 m 3 X s 387 250 m 3 X s 387 255 m 3 X s 385 260 m 5 X s 387 266 m 3 X s 387 271 m 3 X s 387 277 m 3 X s 387 282 m 3 X
 s 385 287 m 5 X s 385 72 m 5 X s 387 67 m 3 X s 387 61 m 3 X s 385 287 m 5 X s /w 22 def /w2 {w 2 div} def /w3 {w 3 div} def 140 130 196 203 309 216 365 170 4 { m21} R 140 141 m 40 Y s 134 181 m 12 X s 140 118 m -40 Y s 134 78 m 12 X s 196 214 m 41
 Y s 191 255 m 11 X s 196 191 m -40 Y s 191 151 m 11 X s 309 228 m 41 Y s 303 269 m 12 X s 309 205 m -42 Y s 303 163 m 12 X s 365 181 m 40 Y s 360 221 m 11 X s 365 158 m -40 Y s 360 118 m 11 X s 9 lw 0.95 0.95 0.95 c black 85 153 m 3 1 d 4 X 3 1 d 3
 X 3 1 d 3 X 3 1 d 6 X 3 1 d 3 X 3 1 d 3 X 3 1 d 3 X 3 1 d 3 X 4 1 d 3 X 3 1 d 3 X 3 1 d 3 X 3 1 d 3 X 3 1 d 3 X 3 1 d 3 X 3 1 d 3 X 3 1 d 3 X 4 1 d 6 X 3 1 d 3 X 3 1 d 3 X 3 1 d 3 X 3 1 d 3 X 3 1 d 3 X 3 1 d 3 X 3 1 d s 235 177 m 4 X 3 1 d 3 X 3 1 d
 3 X 3 1 d 3 X 3 1 d 3 X 3 1 d 3 X 3 1 d 6 X 3 1 d 3 X 3 1 d 4 X 3 1 d 3 X 3 1 d 3 X 3 1 d 3 X 3 1 d 3 X 3 1 d 3 X 3 1 d 3 X 3 1 d 3 X 3 1 d 4 X 3 1 d 3 X 3 1 d 3 X 3 1 d 3 X 3 1 d 6 X 3 1 d 3 X 3 1 d 3 X 3 1 d 3 X s 385 200 m 4 1 d s 0.49 0.6 0.82 c
 black 0.49 0.6 0.82 c
 gsave  408 306 23 13 C 142.445 296.285 t 0 r /Helvetica-Bold findfont 25.6831 sf 0 0 m (7.5 < E < 8.0 GeV) show NC gr  0.52 0.76 0.64 c black 0.52 0.76 0.64 c
 gsave  408 306 23 13 C 128.2 259.249 t 0 r /Helvetica-Bold findfont 25.6831 sf 0 0 m 
 220 206 192 185 170 163 148 141 126 118 111 97 83 69 61 47 40 25 18
(A = 0.007, p = 1.000) K NC gr  1 0.6 1 c black 1 0.6 1 c
 gsave  408 306 23 13 C 427.334 128.2 t 90 r /Helvetica-Bold findfont 28.5368 sf 0 0 m (/dof=0.4) show NC gr  black 1 0.6 1 c
 gsave  408 306 23 13 C 415.938 116.804 t 90 r /Helvetica-Bold findfont 19.9758 sf 0 0 m (2) show NC gr  black 1 0.6 1 c
 gsave  408 306 23 13 C 427.334 99.7112 t 90 r /Symbol findfont 28.5368 sf 0 0 m (c) show NC gr  black 3 lw 1 1 1 c 408 306 476 13 bf black 1 1 1 c black 307 229 537 59 bl 307 229 537 59 bl 537 59 m 307 X s 537 63 m -4 Y s 650 63 m -4 Y s 763 63 m -4
 Y s 763 63 m -4 Y s
 gsave  408 306 476 13 C 527.045 39.8845 t 0 r /Helvetica findfont 22.8295 sf 0 0 m (0) show NC gr 
 gsave  408 306 476 13 C 643.849 39.8845 t 0 r /Helvetica findfont 22.8295 sf 0 0 m (1) show NC gr 
 gsave  408 306 476 13 C 752.107 39.8845 t 0 r /Helvetica findfont 22.8295 sf 0 0 m (2) show NC gr  537 288 m 307 X s 537 284 m 4 Y s 650 284 m 4 Y s 763 284 m 4 Y s 763 284 m 4 Y s 537 59 m 229 Y s 543 89 m -6 X s 540 99 m -3 X s 540 109 m -3 X s
 540 120 m -3 X s 543 130 m -6 X s 540 141 m -3 X s 540 151 m -3 X s 540 161 m -3 X s 543 172 m -6 X s 540 182 m -3 X s 540 192 m -3 X s 540 203 m -3 X s 543 213 m -6 X s 540 223 m -3 X s 540 234 m -3 X s 540 244 m -3 X s 543 255 m -6 X s 543 89 m -6
 X s 540 78 m -3 X s 540 68 m -3 X s 543 255 m -6 X s 540 265 m -3 X s 540 275 m -3 X s 540 286 m -3 X s
 gsave  408 306 476 13 C 481.462 82.6178 t 0 r /Helvetica findfont 22.8295 sf 0 0 m (\2550.04) show NC gr 
 gsave  408 306 476 13 C 481.462 122.502 t 0 r /Helvetica findfont 22.8295 sf 0 0 m (\2550.02) show NC gr 
 gsave  408 306 476 13 C 518.498 165.236 t 0 r /Helvetica findfont 22.8295 sf 0 0 m (0) show NC gr 
 gsave  408 306 476 13 C 487.16 205.12 t 0 r /Helvetica findfont 22.8295 sf 0 0 m (0.02) show NC gr 
 gsave  408 306 476 13 C 487.16 247.853 t 0 r /Helvetica findfont 22.8295 sf 0 0 m (0.04) show NC gr  844 59 m 229 Y s 838 89 m 6 X s 841 99 m 3 X s 841 109 m 3 X s 841 120 m 3 X s 838 130 m 6 X s 841 141 m 3 X s 841 151 m 3 X s 841 161 m 3 X s 838
 172 m 6 X s 841 182 m 3 X s 841 192 m 3 X s 841 203 m 3 X s 838 213 m 6 X s 841 223 m 3 X s 841 234 m 3 X s 841 244 m 3 X s 838 255 m 6 X s 838 89 m 6 X s 841 78 m 3 X s 841 68 m 3 X s 838 255 m 6 X s 841 265 m 3 X s 841 275 m 3 X s 841 286 m 3 X s
 /w 23 def /w2 {w 2 div} def /w3 {w 3 div} def 594 172 650 225 763 119 819 159 4 { m21} R 594 184 m 31 Y s 588 215 m 11 X s 594 161 m -31 Y s 588 130 m 11 X s 650 237 m 32 Y s 644 269 m 12 X s 650 214 m -32 Y s 644 182 m 12 X s 763 131 m 29 Y s 757
 160 m 11 X s 763 108 m -30 Y s 757 78 m 11 X s 819 171 m 31 Y s 813 202 m 12 X s 819 148 m -31 Y s 813 117 m 12 X s 1 0 0 c 9 lw 0.95 0.95 0.95 c black 1 0 0 c 539 172 m 18 X 3 -1 d 34 X 3 -1 d 19 X 3 -1 d 12 X 3 -1 d 12 X 3 -1 d 9 X 3 -1 d 10 X 3
 -1 d 6 X 3 -1 d 6 X s 689 164 m 3 -1 d 6 X 3 -1 d 6 X 3 -1 d 7 X 3 -1 d 3 X 3 -1 d 6 X 3 -1 d 3 X 3 -1 d 6 X 3 -1 d 3 X 3 -1 d 3 X 3 -1 d 4 X 3 -1 d 3 X 3 -1 d 3 X 3 -1 d 3 X 3 -1 d 3 X 3 -1 d 3 X 3 -1 d 3 X 3 -1 d 3 -1 d 3 X 4 -1 d 3 X 3 -1 d 3 X 3
 -1 d 3 -1 d 3 X 3 -1 d 3 -1 d s 839 140 m 3 X s 0.49 0.6 0.82 c black 0.49 0.6 0.82 c
 gsave  408 306 476 13 C 595.418 296.285 t 0 r /Helvetica-Bold findfont 25.6831 sf 0 0 m (8.0 < E < 8.5 GeV) show NC gr  0.52 0.76 0.64 c black 0.52 0.76 0.64 c
 gsave  408 306 476 13 C 575.476 259.249 t 0 r /Helvetica-Bold findfont 25.6831 sf 0 0 m 
 228 214 200 193 178 171 156 149 133 126 119 105 91 76 69 55 47 39 25 17
(A = \2550.002, p = 2.000) K NC gr  1 0.6 1 c black 1 0.6 1 c
 gsave  408 306 476 13 C 883.156 128.2 t 90 r /Helvetica-Bold findfont 28.5368 sf 0 0 m (/dof=0.9) show NC gr  black 1 0.6 1 c
 gsave  408 306 476 13 C 871.76 116.804 t 90 r /Helvetica-Bold findfont 19.9758 sf 0 0 m (2) show NC gr  black 1 0.6 1 c
 gsave  408 306 476 13 C 883.156 99.7112 t 90 r /Symbol findfont 28.5368 sf 0 0 m (c) show NC gr  black 3 lw 1 1 1 c 408 306 930 13 bf black 1 1 1 c black 306 229 991 59 bl 306 229 991 59 bl 991 59 m 306 X s 991 63 m -4 Y s 1104 63 m -4 Y s 1216 63 m
 -4 Y s 1216 63 m -4 Y s
 gsave  408 306 930 13 C 980.018 39.8845 t 0 r /Helvetica findfont 22.8295 sf 0 0 m (0) show NC gr 
 gsave  408 306 930 13 C 1096.82 39.8845 t 0 r /Helvetica findfont 22.8295 sf 0 0 m (1) show NC gr 
 gsave  408 306 930 13 C 1205.08 39.8845 t 0 r /Helvetica findfont 22.8295 sf 0 0 m (2) show NC gr  991 288 m 306 X s 991 284 m 4 Y s 1104 284 m 4 Y s 1216 284 m 4 Y s 1216 284 m 4 Y s 991 59 m 229 Y s 997 66 m -6 X s 994 75 m -3 X s 994 84 m -3 X s
 994 93 m -3 X s 997 102 m -6 X s 994 111 m -3 X s 994 120 m -3 X s 994 129 m -3 X s 997 138 m -6 X s 994 147 m -3 X s 994 156 m -3 X s 994 165 m -3 X s 997 174 m -6 X s 994 183 m -3 X s 994 192 m -3 X s 994 201 m -3 X s 997 210 m -6 X s 994 219 m -3
 X s 994 228 m -3 X s 994 237 m -3 X s 997 246 m -6 X s 994 255 m -3 X s 994 264 m -3 X s 994 273 m -3 X s 997 282 m -6 X s 997 66 m -6 X s 997 282 m -6 X s
 gsave  408 306 930 13 C 937.285 59.8267 t 0 r /Helvetica findfont 22.8295 sf 0 0 m (\2550.06) show NC gr 
 gsave  408 306 930 13 C 937.285 94.0134 t 0 r /Helvetica findfont 22.8295 sf 0 0 m (\2550.04) show NC gr 
 gsave  408 306 930 13 C 937.285 131.049 t 0 r /Helvetica findfont 22.8295 sf 0 0 m (\2550.02) show NC gr 
 gsave  408 306 930 13 C 974.32 168.085 t 0 r /Helvetica findfont 22.8295 sf 0 0 m (0) show NC gr 
 gsave  408 306 930 13 C 942.983 202.271 t 0 r /Helvetica findfont 22.8295 sf 0 0 m (0.02) show NC gr 
 gsave  408 306 930 13 C 942.983 239.307 t 0 r /Helvetica findfont 22.8295 sf 0 0 m (0.04) show NC gr 
 gsave  408 306 930 13 C 942.983 276.342 t 0 r /Helvetica findfont 22.8295 sf 0 0 m (0.06) show NC gr  1297 59 m 229 Y s 1292 66 m 5 X s 1294 75 m 3 X s 1294 84 m 3 X s 1294 93 m 3 X s 1292 102 m 5 X s 1294 111 m 3 X s 1294 120 m 3 X s 1294 129 m 3 X
 s 1292 138 m 5 X s 1294 147 m 3 X s 1294 156 m 3 X s 1294 165 m 3 X s 1292 174 m 5 X s 1294 183 m 3 X s 1294 192 m 3 X s 1294 201 m 3 X s 1292 210 m 5 X s 1294 219 m 3 X s 1294 228 m 3 X s 1294 237 m 3 X s 1292 246 m 5 X s 1294 255 m 3 X s 1294 264
 m 3 X s 1294 273 m 3 X s 1292 282 m 5 X s 1292 66 m 5 X s 1292 282 m 5 X s 1047 188 1104 117 1216 201 1272 229 4 { m21} R 1047 199 m 30 Y s 1042 229 m 11 X s 1047 177 m -30 Y s 1042 147 m 11 X s 1104 128 m 28 Y s 1098 156 m 11 X s 1104 106 m -28 Y s
 1098 78 m 11 X s 1216 213 m 28 Y s 1210 241 m 12 X s 1216 190 m -28 Y s 1210 162 m 12 X s 1272 240 m 29 Y s 1267 269 m 11 X s 1272 218 m -29 Y s 1267 189 m 11 X s 1 0 0 c 9 lw 0.95 0.95 0.95 c black 1 0 0 c 993 174 m 24 X 3 1 d 18 X 4 1 d 12 X 3 1 d
 12 X 3 1 d 6 X 3 1 d 6 X 3 1 d 7 X 3 1 d 6 X 3 1 d 3 X 3 1 d 6 X 3 1 d 3 X 3 1 d 3 X 3 1 d 3 X 4 1 d s 1143 187 m 3 X 3 1 d 3 X 3 1 d 3 1 d 3 X 3 1 d 3 X 3 1 d 3 1 d 3 X 3 1 d 3 X 3 1 d 3 1 d 4 X 3 1 d 3 1 d 3 1 d 3 X 3 1 d 3 1 d 3 X 3 1 d 3 1 d 3 1
 d 3 1 d 3 X 3 1 d 3 1 d 3 1 d 3 1 d 4 X 3 1 d 3 1 d 3 1 d 3 1 d 3 1 d 3 1 d 3 1 d 3 1 d 3 1 d 3 1 d 3 1 d 3 1 d 3 1 d 3 1 d 3 1 d 4 1 d s 1293 225 m 3 1 d s 0.49 0.6 0.82 c black 0.49 0.6 0.82 c
 gsave  408 306 930 13 C 1051.24 296.285 t 0 r /Helvetica-Bold findfont 25.6831 sf 0 0 m (8.5 < E < 9.0 GeV) show NC gr  0.52 0.76 0.64 c black 0.52 0.76 0.64 c
 gsave  408 306 930 13 C 1037 259.249 t 0 r /Helvetica-Bold findfont 25.6831 sf 0 0 m 
 220 206 192 185 170 163 148 141 125 118 111 97 83 69 61 47 40 25 18
(A = 0.004, p = 2.000) K NC gr  1 0.6 1 c black 1 0.6 1 c
 gsave  408 306 930 13 C 1336.13 128.2 t 90 r /Helvetica-Bold findfont 28.5368 sf 0 0 m (/dof=1.0) show NC gr  black 1 0.6 1 c
 gsave  408 306 930 13 C 1324.73 116.804 t 90 r /Helvetica-Bold findfont 19.9758 sf 0 0 m (2) show NC gr  black 1 0.6 1 c
 gsave  408 306 930 13 C 1336.13 99.7112 t 90 r /Symbol findfont 28.5368 sf 0 0 m (c) show NC gr  black 3 lw 1 1 1 c 408 306 1383 13 bf black 1 1 1 c black 306 229 1445 59 bl 306 229 1445 59 bl 1445 59 m 306 X s 1445 63 m -4 Y s 1557 63 m -4 Y s 1670
 63 m -4 Y s 1670 63 m -4 Y s
 gsave  408 306 1383 13 C 1435.84 39.8845 t 0 r /Helvetica findfont 22.8295 sf 0 0 m (0) show NC gr 
 gsave  408 306 1383 13 C 1549.8 39.8845 t 0 r /Helvetica findfont 22.8295 sf 0 0 m (1) show NC gr 
 gsave  408 306 1383 13 C 1660.9 39.8845 t 0 r /Helvetica findfont 22.8295 sf 0 0 m (2) show NC gr  1445 288 m 306 X s 1445 284 m 4 Y s 1557 284 m 4 Y s 1670 284 m 4 Y s 1670 284 m 4 Y s 1445 59 m 229 Y s 1450 75 m -5 X s 1447 80 m -2 X s 1447 85 m
 -2 X s 1447 90 m -2 X s 1447 95 m -2 X s 1450 100 m -5 X s 1447 105 m -2 X s 1447 110 m -2 X s 1447 114 m -2 X s 1447 119 m -2 X s 1450 124 m -5 X s 1447 129 m -2 X s 1447 134 m -2 X s 1447 139 m -2 X s 1447 144 m -2 X s 1450 149 m -5 X s 1447 154 m
 -2 X s 1447 159 m -2 X s 1447 164 m -2 X s 1447 169 m -2 X s 1450 174 m -5 X s 1447 179 m -2 X s 1447 184 m -2 X s 1447 189 m -2 X s 1447 194 m -2 X s 1450 198 m -5 X s 1447 203 m -2 X s 1447 208 m -2 X s 1447 213 m -2 X s 1447 218 m -2 X s 1450 223
 m -5 X s 1447 228 m -2 X s 1447 233 m -2 X s 1447 238 m -2 X s 1447 243 m -2 X s 1450 248 m -5 X s 1447 253 m -2 X s 1447 258 m -2 X s 1447 263 m -2 X s 1447 268 m -2 X s 1450 273 m -5 X s 1450 75 m -5 X s 1447 70 m -2 X s 1447 65 m -2 X s 1447 60 m
 -2 X s 1450 273 m -5 X s 1447 278 m -2 X s 1447 283 m -2 X s 1447 287 m -2 X s
 gsave  408 306 1383 13 C 1390.26 68.3734 t 0 r /Helvetica findfont 22.8295 sf 0 0 m (\2550.03) show NC gr 
 gsave  408 306 1383 13 C 1390.26 91.1645 t 0 r /Helvetica findfont 22.8295 sf 0 0 m (\2550.02) show NC gr 
 gsave  408 306 1383 13 C 1393.11 116.804 t 0 r /Helvetica findfont 22.8295 sf 0 0 m (\2550.01) show NC gr 
 gsave  408 306 1383 13 C 1427.29 142.445 t 0 r /Helvetica findfont 22.8295 sf 0 0 m (0) show NC gr 
 gsave  408 306 1383 13 C 1398.81 168.085 t 0 r /Helvetica findfont 22.8295 sf 0 0 m (0.01) show NC gr 
 gsave  408 306 1383 13 C 1395.96 190.876 t 0 r /Helvetica findfont 22.8295 sf 0 0 m (0.02) show NC gr 
 gsave  408 306 1383 13 C 1395.96 216.516 t 0 r /Helvetica findfont 22.8295 sf 0 0 m (0.03) show NC gr 
 gsave  408 306 1383 13 C 1395.96 242.156 t 0 r /Helvetica findfont 22.8295 sf 0 0 m (0.04) show NC gr 
 gsave  408 306 1383 13 C 1395.96 264.947 t 0 r /Helvetica findfont 22.8295 sf 0 0 m (0.05) show NC gr  1751 59 m 229 Y s 1745 75 m 6 X s 1748 80 m 3 X s 1748 85 m 3 X s 1748 90 m 3 X s 1748 95 m 3 X s 1745 100 m 6 X s 1748 105 m 3 X s 1748 110 m 3 X
 s 1748 114 m 3 X s 1748 119 m 3 X s 1745 124 m 6 X s 1748 129 m 3 X s 1748 134 m 3 X s 1748 139 m 3 X s 1748 144 m 3 X s 1745 149 m 6 X s 1748 154 m 3 X s 1748 159 m 3 X s 1748 164 m 3 X s 1748 169 m 3 X s 1745 174 m 6 X s 1748 179 m 3 X s 1748 184
 m 3 X s 1748 189 m 3 X s 1748 194 m 3 X s 1745 198 m 6 X s 1748 203 m 3 X s 1748 208 m 3 X s 1748 213 m 3 X s 1748 218 m 3 X s 1745 223 m 6 X s 1748 228 m 3 X s 1748 233 m 3 X s 1748 238 m 3 X s 1748 243 m 3 X s 1745 248 m 6 X s 1748 253 m 3 X s
 1748 258 m 3 X s 1748 263 m 3 X s 1748 268 m 3 X s 1745 273 m 6 X s 1745 75 m 6 X s 1748 70 m 3 X s 1748 65 m 3 X s 1748 60 m 3 X s 1745 273 m 6 X s 1748 278 m 3 X s 1748 283 m 3 X s 1748 287 m 3 X s 1501 211 1557 156 1670 135 1726 188 4 { m21} R
 1501 222 m 47 Y s 1495 269 m 12 X s 1501 199 m -46 Y s 1495 153 m 12 X s 1557 167 m 45 Y s 1551 212 m 12 X s 1557 144 m -45 Y s 1551 99 m 12 X s 1670 147 m 45 Y s 1664 192 m 11 X s 1670 124 m -46 Y s 1664 78 m 11 X s 1726 200 m 46 Y s 1720 246 m 12
 X s 1726 177 m -46 Y s 1720 131 m 12 X s 9 lw 0.95 0.95 0.95 c black 1446 149 m 3 X 3 1 d 9 X 3 1 d 10 X 3 1 d 9 X 3 1 d 9 X 3 1 d 9 X 3 1 d 10 X 3 1 d 9 X 3 1 d 9 X 3 1 d 9 X 3 1 d 10 X 3 1 d 9 X 3 1 d 9 X s 1596 161 m 3 1 d 9 X 3 1 d 10 X 3 1 d 9
 X 3 1 d 9 X 3 1 d 9 X 3 1 d 10 X 3 1 d 9 X 3 1 d 9 X 3 1 d 9 X 3 1 d 10 X 3 1 d 9 X 3 1 d 6 X 3 1 d 3 X s 1746 174 m 3 X s 0.49 0.6 0.82 c black 0.49 0.6 0.82 c
 gsave  408 306 1383 13 C 1504.21 296.285 t 0 r /Helvetica-Bold findfont 25.6831 sf 0 0 m (9.0 < E < 9.5 GeV) show NC gr  0.52 0.76 0.64 c black 0.52 0.76 0.64 c
 gsave  408 306 1383 13 C 1489.97 259.249 t 0 r /Helvetica-Bold findfont 25.6831 sf 0 0 m 
 220 206 192 185 170 163 148 141 126 118 111 97 83 69 61 47 40 25 18
(A = 0.004, p = 1.000) K NC gr  1 0.6 1 c black 1 0.6 1 c
 gsave  408 306 1383 13 C 1789.1 128.2 t 90 r /Helvetica-Bold findfont 28.5368 sf 0 0 m (/dof=0.5) show NC gr  black 1 0.6 1 c
 gsave  408 306 1383 13 C 1777.71 116.804 t 90 r /Helvetica-Bold findfont 19.9758 sf 0 0 m (2) show NC gr  black 1 0.6 1 c
 gsave  408 306 1383 13 C 1789.1 99.7112 t 90 r /Symbol findfont 28.5368 sf 0 0 m (c) show NC gr  black 3 lw 1 1 1 c 408 306 1837 13 bf black 1 1 1 c black 306 229 1898 59 bl 306 229 1898 59 bl 1898 59 m 306 X s 1898 63 m -4 Y s 2011 63 m -4 Y s 2123
 63 m -4 Y s 2123 63 m -4 Y s
 gsave  408 306 1837 13 C 1888.81 39.8845 t 0 r /Helvetica findfont 22.8295 sf 0 0 m (0) show NC gr 
 gsave  408 306 1837 13 C 2002.77 39.8845 t 0 r /Helvetica findfont 22.8295 sf 0 0 m (1) show NC gr 
 gsave  408 306 1837 13 C 2113.88 39.8845 t 0 r /Helvetica findfont 22.8295 sf 0 0 m (2) show NC gr  1898 288 m 306 X s 1898 284 m 4 Y s 2011 284 m 4 Y s 2123 284 m 4 Y s 2123 284 m 4 Y s 1898 59 m 229 Y s 1904 66 m -6 X s 1901 70 m -3 X s 1901 75 m
 -3 X s 1901 80 m -3 X s 1901 85 m -3 X s 1904 89 m -6 X s 1901 94 m -3 X s 1901 99 m -3 X s 1901 104 m -3 X s 1901 108 m -3 X s 1904 113 m -6 X s 1901 118 m -3 X s 1901 123 m -3 X s 1901 127 m -3 X s 1901 132 m -3 X s 1904 137 m -6 X s 1901 142 m -3
 X s 1901 147 m -3 X s 1901 151 m -3 X s 1901 156 m -3 X s 1904 161 m -6 X s 1901 166 m -3 X s 1901 170 m -3 X s 1901 175 m -3 X s 1901 180 m -3 X s 1904 185 m -6 X s 1901 189 m -3 X s 1901 194 m -3 X s 1901 199 m -3 X s 1901 204 m -3 X s 1904 209 m
 -6 X s 1901 213 m -3 X s 1901 218 m -3 X s 1901 223 m -3 X s 1901 228 m -3 X s 1904 232 m -6 X s 1901 237 m -3 X s 1901 242 m -3 X s 1901 247 m -3 X s 1901 251 m -3 X s 1904 256 m -6 X s 1901 261 m -3 X s 1901 266 m -3 X s 1901 270 m -3 X s 1901 275
 m -3 X s 1904 280 m -6 X s 1904 66 m -6 X s 1901 61 m -3 X s 1904 280 m -6 X s 1901 285 m -3 X s
 gsave  408 306 1837 13 C 1843.23 56.9778 t 0 r /Helvetica findfont 22.8295 sf 0 0 m (\2550.04) show NC gr 
 gsave  408 306 1837 13 C 1843.23 82.6178 t 0 r /Helvetica findfont 22.8295 sf 0 0 m (\2550.03) show NC gr 
 gsave  408 306 1837 13 C 1843.23 105.409 t 0 r /Helvetica findfont 22.8295 sf 0 0 m (\2550.02) show NC gr 
 gsave  408 306 1837 13 C 1846.08 131.049 t 0 r /Helvetica findfont 22.8295 sf 0 0 m (\2550.01) show NC gr 
 gsave  408 306 1837 13 C 1880.27 153.84 t 0 r /Helvetica findfont 22.8295 sf 0 0 m (0) show NC gr 
 gsave  408 306 1837 13 C 1851.78 176.631 t 0 r /Helvetica findfont 22.8295 sf 0 0 m (0.01) show NC gr 
 gsave  408 306 1837 13 C 1848.93 202.271 t 0 r /Helvetica findfont 22.8295 sf 0 0 m (0.02) show NC gr 
 gsave  408 306 1837 13 C 1848.93 225.062 t 0 r /Helvetica findfont 22.8295 sf 0 0 m (0.03) show NC gr 
 gsave  408 306 1837 13 C 1848.93 247.853 t 0 r /Helvetica findfont 22.8295 sf 0 0 m (0.04) show NC gr 
 gsave  408 306 1837 13 C 1848.93 273.493 t 0 r /Helvetica findfont 22.8295 sf 0 0 m (0.05) show NC gr  2204 59 m 229 Y s 2199 66 m 5 X s 2201 70 m 3 X s 2201 75 m 3 X s 2201 80 m 3 X s 2201 85 m 3 X s 2199 89 m 5 X s 2201 94 m 3 X s 2201 99 m 3 X s
 2201 104 m 3 X s 2201 108 m 3 X s 2199 113 m 5 X s 2201 118 m 3 X s 2201 123 m 3 X s 2201 127 m 3 X s 2201 132 m 3 X s 2199 137 m 5 X s 2201 142 m 3 X s 2201 147 m 3 X s 2201 151 m 3 X s 2201 156 m 3 X s 2199 161 m 5 X s 2201 166 m 3 X s 2201 170 m
 3 X s 2201 175 m 3 X s 2201 180 m 3 X s 2199 185 m 5 X s 2201 189 m 3 X s 2201 194 m 3 X s 2201 199 m 3 X s 2201 204 m 3 X s 2199 209 m 5 X s 2201 213 m 3 X s 2201 218 m 3 X s 2201 223 m 3 X s 2201 228 m 3 X s 2199 232 m 5 X s 2201 237 m 3 X s 2201
 242 m 3 X s 2201 247 m 3 X s 2201 251 m 3 X s 2199 256 m 5 X s 2201 261 m 3 X s 2201 266 m 3 X s 2201 270 m 3 X s 2201 275 m 3 X s 2199 280 m 5 X s 2199 66 m 5 X s 2201 61 m 3 X s 2199 280 m 5 X s 2201 285 m 3 X s 1954 210 2011 135 2123 201 2179 148
 4 { m21} R 1954 222 m 47 Y s 1949 269 m 11 X s 1954 199 m -48 Y s 1949 151 m 11 X s 2011 146 m 46 Y s 2005 192 m 11 X s 2011 123 m -45 Y s 2005 78 m 11 X s 2123 213 m 47 Y s 2117 260 m 12 X s 2123 190 m -47 Y s 2117 143 m 12 X s 2179 160 m 46 Y s
 2174 206 m 11 X s 2179 137 m -46 Y s 2174 91 m 11 X s 9 lw 0.95 0.95 0.95 c black 1900 161 m 15 X 3 1 d 28 X 3 1 d 24 X 3 1 d 28 X 3 1 d 27 X 3 1 d 13 X s 2050 166 m 12 X 3 1 d 27 X 4 1 d 24 X 3 1 d 28 X 3 1 d 27 X 3 1 d 16 X s 2200 171 m 3 X s 0.49
 0.6 0.82 c black 0.49 0.6 0.82 c
 gsave  408 306 1837 13 C 1948.64 296.285 t 0 r /Helvetica-Bold findfont 25.6831 sf 0 0 m (9.5 < E < 10.0 GeV) show NC gr  0.52 0.76 0.64 c black 0.52 0.76 0.64 c
 gsave  408 306 1837 13 C 1942.94 259.249 t 0 r /Helvetica-Bold findfont 25.6831 sf 0 0 m 
 220 206 192 185 170 163 148 141 125 118 111 97 83 69 61 47 40 25 18
(A = 0.002, p = 1.000) K NC gr  1 0.6 1 c black 1 0.6 1 c
 gsave  408 306 1837 13 C 2242.08 128.2 t 90 r /Helvetica-Bold findfont 28.5368 sf 0 0 m (/dof=0.5) show NC gr  black 1 0.6 1 c
 gsave  408 306 1837 13 C 2230.68 116.804 t 90 r /Helvetica-Bold findfont 19.9758 sf 0 0 m (2) show NC gr  black 1 0.6 1 c
 gsave  408 306 1837 13 C 2242.08 99.7112 t 90 r /Symbol findfont 28.5368 sf 0 0 m (c) show NC gr 
 gr  gr showpage
end
%%EOF
