%!PS-Adobe-2.0 EPSF-2.0
%%BoundingBox:  0 0 567 332
%%Title: Horn1XTilt_far_fits.eps: Fits
%%Creator: ROOT Version 5.30/06
%%CreationDate: Sun Feb  2 09:34:55 2014
%%EndComments
%%BeginProlog
80 dict begin
/s {stroke} def /l {lineto} def /m {moveto} def /t {translate} def
/r {rotate} def /rl {roll}  def /R {repeat} def
/d {rlineto} def /rm {rmoveto} def /gr {grestore} def /f {eofill} def
/c {setrgbcolor} def /black {0 setgray} def /sd {setdash} def
/cl {closepath} def /sf {scalefont setfont} def /lw {setlinewidth} def
/box {m dup 0 exch d exch 0 d 0 exch neg d cl} def
/NC{systemdict begin initclip end}def/C{NC box clip newpath}def
/bl {box s} def /bf {box f} def /Y { 0 exch d} def /X { 0 d} def 
/K {{pop pop 0 moveto} exch kshow} bind def
/ita {/ang 15 def gsave [1 0 ang dup sin exch cos div 1 0 0] concat} def 
/mp {newpath /y exch def /x exch def} def
/side {[w .77 mul w .23 mul] .385 w mul sd w 0 l currentpoint t -144 r} def
/mr {mp x y w2 0 360 arc} def /m24 {mr s} def /m20 {mr f} def
/mb {mp x y w2 add m w2 neg 0 d 0 w neg d w 0 d 0 w d cl} def
/mt {mp x y w2 add m w2 neg w neg d w 0 d cl} def
/m21 {mb f} def /m25 {mb s} def /m22 {mt f} def /m26{mt s} def
/m23 {mp x y w2 sub m w2 w d w neg 0 d cl f} def
/m27 {mp x y w2 add m w3 neg w2 neg d w3 w2 neg d w3 w2 d cl s} def
/m28 {mp x w2 sub y w2 sub w3 add m w3 0 d  0 w3 neg d w3 0 d 0 w3 d w3 0 d  0 w3 d w3 neg 0 d 0 w3 d w3 neg 0 d 0 w3 neg d w3 neg 0 d cl s } def
/m29 {mp gsave x w2 sub y w2 add w3 sub m currentpoint t 4 {side} repeat cl fill gr} def
/m30 {mp gsave x w2 sub y w2 add w3 sub m currentpoint t 4 {side} repeat cl s gr} def
/m31 {mp x y w2 sub m 0 w d x w2 sub y m w 0 d x w2 sub y w2 add m w w neg d x w2 sub y w2 sub m w w d s} def
/m32 {mp x y w2 sub m w2 w d w neg 0 d cl s} def
/m33 {mp x y w2 add m w3 neg w2 neg d w3 w2 neg d w3 w2 d cl f} def
/m34 {mp x w2 sub y w2 sub w3 add m w3 0 d  0 w3 neg d w3 0 d 0 w3 d w3 0 d  0 w3 d w3 neg 0 d 0 w3 d w3 neg 0 d 0 w3 neg d w3 neg 0 d cl f } def
/m2 {mp x y w2 sub m 0 w d x w2 sub y m w 0 d s} def
/m5 {mp x w2 sub y w2 sub m w w d x w2 sub y w2 add m w w neg d s} def
/reEncode {exch findfont dup length dict begin {1 index /FID eq  {pop pop} {def} ifelse } forall /Encoding exch def currentdict end dup /FontName get exch definefont pop } def [/Times-Bold /Times-Italic /Times-BoldItalic /Helvetica /Helvetica-Oblique
 /Helvetica-Bold /Helvetica-BoldOblique /Courier /Courier-Oblique /Courier-Bold /Courier-BoldOblique /Times-Roman /AvantGarde-Book /AvantGarde-BookOblique /AvantGarde-Demi /AvantGarde-DemiOblique /Bookman-Demi /Bookman-DemiItalic /Bookman-Light
 /Bookman-LightItalic /Helvetica-Narrow /Helvetica-Narrow-Bold /Helvetica-Narrow-BoldOblique /Helvetica-Narrow-Oblique /NewCenturySchlbk-Roman /NewCenturySchlbk-Bold /NewCenturySchlbk-BoldItalic /NewCenturySchlbk-Italic /Palatino-Bold
 /Palatino-BoldItalic /Palatino-Italic /Palatino-Roman ] {ISOLatin1Encoding reEncode } forall%%EndProlog
%%BeginSetup
%%EndSetup
newpath  gsave  .25 .25 scale  gsave  0 0 t black[  ] 0 sd 3 lw 1 1 1 c 2268 1328 0 0 bf black 1 1 1 c 408 305 23 1009 bf black 1 1 1 c black 306 229 84 1055 bl 306 229 84 1055 bl 84 1055 m 306 X s 84 1059 m -4 Y s 195 1059 m -4 Y s 307 1059 m -4 Y s
 307 1059 m -4 Y s
 gsave  408 305 23 1009 C 74.0711 1034.15 t 0 r /Helvetica findfont 22.8295 sf 0 0 m (0) show NC gr 
 gsave  408 305 23 1009 C 188.027 1034.15 t 0 r /Helvetica findfont 22.8295 sf 0 0 m (1) show NC gr 
 gsave  408 305 23 1009 C 296.285 1034.15 t 0 r /Helvetica findfont 22.8295 sf 0 0 m (2) show NC gr  84 1284 m 306 X s 84 1280 m 4 Y s 195 1280 m 4 Y s 307 1280 m 4 Y s 307 1280 m 4 Y s 84 1055 m 229 Y s 89 1064 m -5 X s 87 1071 m -3 X s 87 1079 m -3
 X s 87 1087 m -3 X s 89 1094 m -5 X s 87 1102 m -3 X s 87 1110 m -3 X s 87 1117 m -3 X s 89 1125 m -5 X s 87 1133 m -3 X s 87 1140 m -3 X s 87 1148 m -3 X s 89 1156 m -5 X s 87 1163 m -3 X s 87 1171 m -3 X s 87 1179 m -3 X s 89 1186 m -5 X s 87 1194
 m -3 X s 87 1202 m -3 X s 87 1209 m -3 X s 89 1217 m -5 X s 87 1225 m -3 X s 87 1232 m -3 X s 87 1240 m -3 X s 89 1248 m -5 X s 87 1255 m -3 X s 87 1263 m -3 X s 87 1271 m -3 X s 89 1278 m -5 X s 89 1064 m -5 X s 87 1056 m -3 X s 89 1278 m -5 X s
 gsave  408 305 23 1009 C 14.2445 1056.94 t 0 r /Helvetica findfont 22.8295 sf 0 0 m (\2550.008) show NC gr 
 gsave  408 305 23 1009 C 14.2445 1088.28 t 0 r /Helvetica findfont 22.8295 sf 0 0 m (\2550.006) show NC gr 
 gsave  408 305 23 1009 C 14.2445 1116.76 t 0 r /Helvetica findfont 22.8295 sf 0 0 m (\2550.004) show NC gr 
 gsave  408 305 23 1009 C 14.2445 1148.1 t 0 r /Helvetica findfont 22.8295 sf 0 0 m (\2550.002) show NC gr 
 gsave  408 305 23 1009 C 65.5245 1179.44 t 0 r /Helvetica findfont 22.8295 sf 0 0 m (0) show NC gr 
 gsave  408 305 23 1009 C 22.7911 1210.78 t 0 r /Helvetica findfont 22.8295 sf 0 0 m (0.002) show NC gr 
 gsave  408 305 23 1009 C 22.7911 1239.27 t 0 r /Helvetica findfont 22.8295 sf 0 0 m (0.004) show NC gr 
 gsave  408 305 23 1009 C 22.7911 1270.6 t 0 r /Helvetica findfont 22.8295 sf 0 0 m (0.006) show NC gr  390 1055 m 229 Y s 385 1064 m 5 X s 387 1071 m 3 X s 387 1079 m 3 X s 387 1087 m 3 X s 385 1094 m 5 X s 387 1102 m 3 X s 387 1110 m 3 X s 387 1117
 m 3 X s 385 1125 m 5 X s 387 1133 m 3 X s 387 1140 m 3 X s 387 1148 m 3 X s 385 1156 m 5 X s 387 1163 m 3 X s 387 1171 m 3 X s 387 1179 m 3 X s 385 1186 m 5 X s 387 1194 m 3 X s 387 1202 m 3 X s 387 1209 m 3 X s 385 1217 m 5 X s 387 1225 m 3 X s 387
 1232 m 3 X s 387 1240 m 3 X s 385 1248 m 5 X s 387 1255 m 3 X s 387 1263 m 3 X s 387 1271 m 3 X s 385 1278 m 5 X s 385 1064 m 5 X s 387 1056 m 3 X s 385 1278 m 5 X s /w 22 def /w2 {w 2 div} def /w3 {w 3 div} def 112 1101 140 1122 195 1197 251 1158
 307 1174 362 1237 6 { m21} R 112 1113 m 16 Y s 106 1129 m 11 X s 112 1090 m -16 Y s 106 1074 m 11 X s 140 1134 m 16 Y s 134 1150 m 11 X s 140 1111 m -16 Y s 134 1095 m 11 X s 195 1208 m 17 Y s 190 1225 m 11 X s 195 1186 m -17 Y s 190 1169 m 11 X s
 251 1170 m 16 Y s 245 1186 m 12 X s 251 1147 m -16 Y s 245 1131 m 12 X s 307 1185 m 16 Y s 301 1201 m 11 X s 307 1162 m -16 Y s 301 1146 m 11 X s 362 1248 m 17 Y s 357 1265 m 11 X s 362 1226 m -17 Y s 357 1209 m 11 X s 1 0 0 c 9 lw 0.95 0.95 0.95 c
 black 1 0 0 c 85 1186 m 16 X 3 1 d 46 X 3 1 d 21 X 3 1 d 19 X 3 1 d 12 X 3 1 d 12 X 3 1 d 6 X s 235 1192 m 4 X 3 1 d 9 X 3 1 d 9 X 3 1 d 9 X 3 1 d 6 X 3 1 d 7 X 3 1 d 6 X 3 1 d 6 X 3 1 d 6 X 3 1 d 6 X 3 1 d 3 X 4 1 d 6 X 3 1 d 3 X 3 1 d 6 X 3 1 d 3
 X 3 1 d 6 X 3 1 d 3 X 3 1 d s 385 1209 m 4 X s 0.49 0.6 0.82 c black 0.49 0.6 0.82 c
 gsave  408 305 23 1009 C 142.445 1293.4 t 0 r /Helvetica-Bold findfont 25.6831 sf 0 0 m (0.0 < E < 0.5 GeV) show NC gr  0.52 0.76 0.64 c black 0.52 0.76 0.64 c
 gsave  408 305 23 1009 C 128.2 1256.36 t 0 r /Helvetica-Bold findfont 25.6831 sf 0 0 m 
 220 206 192 185 170 163 148 141 126 118 111 97 83 69 61 47 40 25 18
(A = 0.000, p = 2.000) K NC gr  1 0.6 1 c black 1 0.6 1 c
 gsave  408 305 23 1009 C 427.334 1122.46 t 90 r /Helvetica-Bold findfont 28.5368 sf 0 0 m (/dof=3.8) show NC gr  black 1 0.6 1 c
 gsave  408 305 23 1009 C 415.938 1111.07 t 90 r /Helvetica-Bold findfont 19.9758 sf 0 0 m (2) show NC gr  black 1 0.6 1 c
 gsave  408 305 23 1009 C 427.334 1093.97 t 90 r /Symbol findfont 28.5368 sf 0 0 m (c) show NC gr  black 3 lw 1 1 1 c 408 305 476 1009 bf black 1 1 1 c black 307 229 537 1055 bl 307 229 537 1055 bl 537 1055 m 307 X s 537 1059 m -4 Y s 649 1059 m -4 Y
 s 760 1059 m -4 Y s 760 1059 m -4 Y s
 gsave  408 305 476 1009 C 527.045 1034.15 t 0 r /Helvetica findfont 22.8295 sf 0 0 m (0) show NC gr 
 gsave  408 305 476 1009 C 641 1034.15 t 0 r /Helvetica findfont 22.8295 sf 0 0 m (1) show NC gr 
 gsave  408 305 476 1009 C 749.258 1034.15 t 0 r /Helvetica findfont 22.8295 sf 0 0 m (2) show NC gr  537 1284 m 307 X s 537 1280 m 4 Y s 649 1280 m 4 Y s 760 1280 m 4 Y s 760 1280 m 4 Y s 537 1055 m 229 Y s 543 1069 m -6 X s 540 1076 m -3 X s 540
 1083 m -3 X s 540 1090 m -3 X s 543 1097 m -6 X s 540 1104 m -3 X s 540 1111 m -3 X s 540 1118 m -3 X s 543 1124 m -6 X s 540 1131 m -3 X s 540 1138 m -3 X s 540 1145 m -3 X s 543 1152 m -6 X s 540 1159 m -3 X s 540 1166 m -3 X s 540 1173 m -3 X s
 543 1180 m -6 X s 540 1187 m -3 X s 540 1194 m -3 X s 540 1201 m -3 X s 543 1208 m -6 X s 540 1215 m -3 X s 540 1222 m -3 X s 540 1229 m -3 X s 543 1236 m -6 X s 540 1243 m -3 X s 540 1250 m -3 X s 540 1257 m -3 X s 543 1264 m -6 X s 543 1069 m -6 X
 s 540 1062 m -3 X s 543 1264 m -6 X s 540 1271 m -3 X s 540 1278 m -3 X s
 gsave  408 305 476 1009 C 484.311 1062.64 t 0 r /Helvetica findfont 22.8295 sf 0 0 m (\2550.01) show NC gr 
 gsave  408 305 476 1009 C 467.218 1088.28 t 0 r /Helvetica findfont 22.8295 sf 0 0 m (\2550.008) show NC gr 
 gsave  408 305 476 1009 C 467.218 1116.76 t 0 r /Helvetica findfont 22.8295 sf 0 0 m (\2550.006) show NC gr 
 gsave  408 305 476 1009 C 467.218 1145.25 t 0 r /Helvetica findfont 22.8295 sf 0 0 m (\2550.004) show NC gr 
 gsave  408 305 476 1009 C 467.218 1173.74 t 0 r /Helvetica findfont 22.8295 sf 0 0 m (\2550.002) show NC gr 
 gsave  408 305 476 1009 C 518.498 1202.23 t 0 r /Helvetica findfont 22.8295 sf 0 0 m (0) show NC gr 
 gsave  408 305 476 1009 C 475.765 1227.87 t 0 r /Helvetica findfont 22.8295 sf 0 0 m (0.002) show NC gr 
 gsave  408 305 476 1009 C 475.765 1256.36 t 0 r /Helvetica findfont 22.8295 sf 0 0 m (0.004) show NC gr  844 1055 m 229 Y s 838 1069 m 6 X s 841 1076 m 3 X s 841 1083 m 3 X s 841 1090 m 3 X s 838 1097 m 6 X s 841 1104 m 3 X s 841 1111 m 3 X s 841
 1118 m 3 X s 838 1124 m 6 X s 841 1131 m 3 X s 841 1138 m 3 X s 841 1145 m 3 X s 838 1152 m 6 X s 841 1159 m 3 X s 841 1166 m 3 X s 841 1173 m 3 X s 838 1180 m 6 X s 841 1187 m 3 X s 841 1194 m 3 X s 841 1201 m 3 X s 838 1208 m 6 X s 841 1215 m 3 X
 s 841 1222 m 3 X s 841 1229 m 3 X s 838 1236 m 6 X s 841 1243 m 3 X s 841 1250 m 3 X s 841 1257 m 3 X s 838 1264 m 6 X s 838 1069 m 6 X s 841 1062 m 3 X s 838 1264 m 6 X s 841 1271 m 3 X s 841 1278 m 3 X s /w 23 def /w2 {w 2 div} def /w3 {w 3 div}
 def 565 1104 593 1197 649 1234 705 1212 760 1167 816 1179 6 { m21} R 565 1116 m 19 Y s 560 1135 m 11 X s 565 1093 m -19 Y s 560 1074 m 11 X s 593 1209 m 19 Y s 587 1228 m 12 X s 593 1186 m -19 Y s 587 1167 m 12 X s 649 1245 m 20 Y s 643 1265 m 12 X
 s 649 1223 m -20 Y s 643 1203 m 12 X s 705 1223 m 20 Y s 699 1243 m 11 X s 705 1201 m -20 Y s 699 1181 m 11 X s 760 1178 m 19 Y s 755 1197 m 11 X s 760 1155 m -19 Y s 755 1136 m 11 X s 816 1190 m 19 Y s 810 1209 m 12 X s 816 1167 m -19 Y s 810 1148
 m 12 X s 9 lw 0.95 0.95 0.95 c black 539 1208 m 6 X 3 -1 d 6 X 3 -1 d 6 X 4 -1 d 6 X 3 -1 d 6 X 3 -1 d 6 X 3 -1 d 9 X 3 -1 d 6 X 4 -1 d 6 X 3 -1 d 6 X 3 -1 d 6 X 3 -1 d 6 X 3 -1 d 9 X 3 -1 d 7 X 3 -1 d 6 X 3 -1 d 6 X s 689 1193 m 3 -1 d 6 X 3 -1 d 9
 X 3 -1 d 7 X 3 -1 d 6 X 3 -1 d 6 X 3 -1 d 6 X 3 -1 d 6 X 3 -1 d 10 X 3 -1 d 6 X 3 -1 d 6 X 3 -1 d 6 X 3 -1 d 6 X 3 -1 d 10 X 3 -1 d 6 X 3 -1 d 6 X 3 -1 d s 839 1177 m 3 X s 0.49 0.6 0.82 c black 0.49 0.6 0.82 c
 gsave  408 305 476 1009 C 595.418 1293.4 t 0 r /Helvetica-Bold findfont 25.6831 sf 0 0 m (0.5 < E < 1.0 GeV) show NC gr  0.52 0.76 0.64 c black 0.52 0.76 0.64 c
 gsave  408 305 476 1009 C 575.476 1256.36 t 0 r /Helvetica-Bold findfont 25.6831 sf 0 0 m 
 228 214 200 193 178 171 156 149 133 126 119 105 91 76 69 55 47 39 25 17
(A = \2550.001, p = 1.000) K NC gr  1 0.6 1 c black 1 0.6 1 c
 gsave  408 305 476 1009 C 883.156 1122.46 t 90 r /Helvetica-Bold findfont 28.5368 sf 0 0 m (/dof=2.7) show NC gr  black 1 0.6 1 c
 gsave  408 305 476 1009 C 871.76 1111.07 t 90 r /Helvetica-Bold findfont 19.9758 sf 0 0 m (2) show NC gr  black 1 0.6 1 c
 gsave  408 305 476 1009 C 883.156 1093.97 t 90 r /Symbol findfont 28.5368 sf 0 0 m (c) show NC gr  black 3 lw 1 1 1 c 408 305 930 1009 bf black 1 1 1 c black 306 229 991 1055 bl 306 229 991 1055 bl 991 1055 m 306 X s 991 1059 m -4 Y s 1102 1059 m -4
 Y s 1214 1059 m -4 Y s 1214 1059 m -4 Y s
 gsave  408 305 930 1009 C 980.018 1034.15 t 0 r /Helvetica findfont 22.8295 sf 0 0 m (0) show NC gr 
 gsave  408 305 930 1009 C 1093.97 1034.15 t 0 r /Helvetica findfont 22.8295 sf 0 0 m (1) show NC gr 
 gsave  408 305 930 1009 C 1205.08 1034.15 t 0 r /Helvetica findfont 22.8295 sf 0 0 m (2) show NC gr  991 1284 m 306 X s 991 1280 m 4 Y s 1102 1280 m 4 Y s 1214 1280 m 4 Y s 1214 1280 m 4 Y s 991 1055 m 229 Y s 997 1073 m -6 X s 994 1084 m -3 X s 994
 1095 m -3 X s 994 1106 m -3 X s 997 1117 m -6 X s 994 1127 m -3 X s 994 1138 m -3 X s 994 1149 m -3 X s 997 1160 m -6 X s 994 1171 m -3 X s 994 1182 m -3 X s 994 1193 m -3 X s 997 1203 m -6 X s 994 1214 m -3 X s 994 1225 m -3 X s 994 1236 m -3 X s
 997 1247 m -6 X s 997 1073 m -6 X s 994 1062 m -3 X s 997 1247 m -6 X s 994 1258 m -3 X s 994 1269 m -3 X s 994 1279 m -3 X s
 gsave  408 305 930 1009 C 923.04 1065.48 t 0 r /Helvetica findfont 22.8295 sf 0 0 m (\2550.006) show NC gr 
 gsave  408 305 930 1009 C 923.04 1108.22 t 0 r /Helvetica findfont 22.8295 sf 0 0 m (\2550.004) show NC gr 
 gsave  408 305 930 1009 C 923.04 1153.8 t 0 r /Helvetica findfont 22.8295 sf 0 0 m (\2550.002) show NC gr 
 gsave  408 305 930 1009 C 974.32 1196.53 t 0 r /Helvetica findfont 22.8295 sf 0 0 m (0) show NC gr 
 gsave  408 305 930 1009 C 931.587 1239.27 t 0 r /Helvetica findfont 22.8295 sf 0 0 m (0.002) show NC gr  1297 1055 m 229 Y s 1292 1073 m 5 X s 1294 1084 m 3 X s 1294 1095 m 3 X s 1294 1106 m 3 X s 1292 1117 m 5 X s 1294 1127 m 3 X s 1294 1138 m 3 X
 s 1294 1149 m 3 X s 1292 1160 m 5 X s 1294 1171 m 3 X s 1294 1182 m 3 X s 1294 1193 m 3 X s 1292 1203 m 5 X s 1294 1214 m 3 X s 1294 1225 m 3 X s 1294 1236 m 3 X s 1292 1247 m 5 X s 1292 1073 m 5 X s 1294 1062 m 3 X s 1292 1247 m 5 X s 1294 1258 m 3
 X s 1294 1269 m 3 X s 1294 1279 m 3 X s 1019 1122 1047 1182 1102 1189 1158 1126 1214 1203 1270 1217 6 { m21} R 1019 1133 m 36 Y s 1013 1169 m 12 X s 1019 1110 m -36 Y s 1013 1074 m 12 X s 1047 1193 m 37 Y s 1041 1230 m 11 X s 1047 1170 m -36 Y s
 1041 1134 m 11 X s 1102 1200 m 36 Y s 1097 1236 m 11 X s 1102 1177 m -36 Y s 1097 1141 m 11 X s 1158 1137 m 36 Y s 1152 1173 m 12 X s 1158 1114 m -36 Y s 1152 1078 m 12 X s 1214 1215 m 36 Y s 1208 1251 m 12 X s 1214 1192 m -36 Y s 1208 1156 m 12 X s
 1270 1228 m 37 Y s 1264 1265 m 11 X s 1270 1205 m -36 Y s 1264 1169 m 11 X s 9 lw 0.95 0.95 0.95 c black 993 1203 m 6 X 3 -1 d 9 X 3 -1 d 9 X 3 -1 d 9 X 3 -1 d 10 X 3 -1 d 9 X 3 -1 d 9 X 3 -1 d 9 X 3 -1 d 7 X 3 -1 d 9 X 3 -1 d 9 X 3 -1 d 9 X 3 -1 d
 10 X s 1143 1191 m 3 -1 d 9 X 3 -1 d 9 X 3 -1 d 9 X 3 -1 d 6 X 4 -1 d 9 X 3 -1 d 9 X 3 -1 d 9 X 3 -1 d 9 X 3 -1 d 10 X 3 -1 d 9 X 3 -1 d 6 X 3 -1 d 9 X 3 -1 d 7 X s 1293 1178 m 3 X s 0.49 0.6 0.82 c black 0.49 0.6 0.82 c
 gsave  408 305 930 1009 C 1051.24 1293.4 t 0 r /Helvetica-Bold findfont 25.6831 sf 0 0 m (1.0 < E < 1.5 GeV) show NC gr  0.52 0.76 0.64 c black 0.52 0.76 0.64 c
 gsave  408 305 930 1009 C 1031.3 1256.36 t 0 r /Helvetica-Bold findfont 25.6831 sf 0 0 m 
 228 214 200 193 178 171 156 149 133 126 119 105 91 77 69 55 47 39 25 17
(A = \2550.000, p = 1.000) K NC gr  1 0.6 1 c black 1 0.6 1 c
 gsave  408 305 930 1009 C 1336.13 1122.46 t 90 r /Helvetica-Bold findfont 28.5368 sf 0 0 m (/dof=1.1) show NC gr  black 1 0.6 1 c
 gsave  408 305 930 1009 C 1324.73 1111.07 t 90 r /Helvetica-Bold findfont 19.9758 sf 0 0 m (2) show NC gr  black 1 0.6 1 c
 gsave  408 305 930 1009 C 1336.13 1093.97 t 90 r /Symbol findfont 28.5368 sf 0 0 m (c) show NC gr  black 3 lw 1 1 1 c 408 305 1383 1009 bf black 1 1 1 c black 306 229 1445 1055 bl 306 229 1445 1055 bl 1445 1055 m 306 X s 1445 1059 m -4 Y s 1556 1059
 m -4 Y s 1667 1059 m -4 Y s 1667 1059 m -4 Y s
 gsave  408 305 1383 1009 C 1435.84 1034.15 t 0 r /Helvetica findfont 22.8295 sf 0 0 m (0) show NC gr 
 gsave  408 305 1383 1009 C 1549.8 1034.15 t 0 r /Helvetica findfont 22.8295 sf 0 0 m (1) show NC gr 
 gsave  408 305 1383 1009 C 1658.05 1034.15 t 0 r /Helvetica findfont 22.8295 sf 0 0 m (2) show NC gr  1445 1284 m 306 X s 1445 1280 m 4 Y s 1556 1280 m 4 Y s 1667 1280 m 4 Y s 1667 1280 m 4 Y s 1445 1055 m 229 Y s 1450 1070 m -5 X s 1447 1079 m -2 X
 s 1447 1088 m -2 X s 1447 1098 m -2 X s 1450 1107 m -5 X s 1447 1116 m -2 X s 1447 1125 m -2 X s 1447 1134 m -2 X s 1450 1143 m -5 X s 1447 1152 m -2 X s 1447 1162 m -2 X s 1447 1171 m -2 X s 1450 1180 m -5 X s 1447 1189 m -2 X s 1447 1198 m -2 X s
 1447 1207 m -2 X s 1450 1216 m -5 X s 1447 1225 m -2 X s 1447 1235 m -2 X s 1447 1244 m -2 X s 1450 1253 m -5 X s 1450 1070 m -5 X s 1447 1061 m -2 X s 1450 1253 m -5 X s 1447 1262 m -2 X s 1447 1271 m -2 X s 1447 1280 m -2 X s
 gsave  408 305 1383 1009 C 1376.01 1062.64 t 0 r /Helvetica findfont 22.8295 sf 0 0 m (\2550.008) show NC gr 
 gsave  408 305 1383 1009 C 1376.01 1099.67 t 0 r /Helvetica findfont 22.8295 sf 0 0 m (\2550.006) show NC gr 
 gsave  408 305 1383 1009 C 1376.01 1136.71 t 0 r /Helvetica findfont 22.8295 sf 0 0 m (\2550.004) show NC gr 
 gsave  408 305 1383 1009 C 1376.01 1173.74 t 0 r /Helvetica findfont 22.8295 sf 0 0 m (\2550.002) show NC gr 
 gsave  408 305 1383 1009 C 1427.29 1207.93 t 0 r /Helvetica findfont 22.8295 sf 0 0 m (0) show NC gr 
 gsave  408 305 1383 1009 C 1384.56 1244.96 t 0 r /Helvetica findfont 22.8295 sf 0 0 m (0.002) show NC gr  1751 1055 m 229 Y s 1745 1070 m 6 X s 1748 1079 m 3 X s 1748 1088 m 3 X s 1748 1098 m 3 X s 1745 1107 m 6 X s 1748 1116 m 3 X s 1748 1125 m 3 X
 s 1748 1134 m 3 X s 1745 1143 m 6 X s 1748 1152 m 3 X s 1748 1162 m 3 X s 1748 1171 m 3 X s 1745 1180 m 6 X s 1748 1189 m 3 X s 1748 1198 m 3 X s 1748 1207 m 3 X s 1745 1216 m 6 X s 1748 1225 m 3 X s 1748 1235 m 3 X s 1748 1244 m 3 X s 1745 1253 m 6
 X s 1745 1070 m 6 X s 1748 1061 m 3 X s 1745 1253 m 6 X s 1748 1262 m 3 X s 1748 1271 m 3 X s 1748 1280 m 3 X s 1472 1115 1500 1204 1556 1207 1612 1143 1667 1223 1723 1173 6 { m21} R 1472 1126 m 30 Y s 1467 1156 m 11 X s 1472 1104 m -30 Y s 1467
 1074 m 11 X s 1500 1215 m 30 Y s 1495 1245 m 11 X s 1500 1193 m -30 Y s 1495 1163 m 11 X s 1556 1218 m 30 Y s 1550 1248 m 12 X s 1556 1195 m -30 Y s 1550 1165 m 12 X s 1612 1155 m 29 Y s 1606 1184 m 11 X s 1612 1132 m -30 Y s 1606 1102 m 11 X s 1667
 1235 m 30 Y s 1662 1265 m 11 X s 1667 1212 m -30 Y s 1662 1182 m 11 X s 1723 1185 m 30 Y s 1717 1215 m 12 X s 1723 1162 m -30 Y s 1717 1132 m 12 X s 9 lw 0.95 0.95 0.95 c black 1446 1216 m 3 X 3 -1 d 3 X 3 -1 d 3 X 3 -1 d 3 X 4 -1 d 3 X 3 -1 d 3 X 3
 -1 d 3 X 3 -1 d 3 X 3 -1 d 3 X 3 -1 d 3 X 3 -1 d 3 X 3 -1 d 3 X 4 -1 d 3 X 3 -1 d 3 X 3 -1 d 3 X 3 -1 d 3 X 3 -1 d 6 X 3 -1 d 3 X 3 -1 d 3 X 3 -1 d 4 X 3 -1 d 3 X 3 -1 d 3 X 3 -1 d 3 X 3 -1 d 3 X 3 -1 d s 1596 1192 m 3 X 3 -1 d 3 X 3 -1 d 3 X 3 -1 d
 4 X 3 -1 d 3 X 3 -1 d 3 X 3 -1 d 3 X 3 -1 d 3 X 3 -1 d 3 X 3 -1 d 3 X 3 -1 d 3 X 3 -1 d 3 X 4 -1 d 3 X 3 -1 d 6 X 3 -1 d 3 X 3 -1 d 3 X 3 -1 d 3 X 3 -1 d 3 X 3 -1 d 3 X 3 -1 d 4 X 3 -1 d 3 X 3 -1 d 3 X 3 -1 d 3 X 3 -1 d 3 X 3 -1 d s 1746 1168 m 3 X
 s 0.49 0.6 0.82 c black 0.49 0.6 0.82 c
 gsave  408 305 1383 1009 C 1504.21 1293.4 t 0 r /Helvetica-Bold findfont 25.6831 sf 0 0 m (1.5 < E < 2.0 GeV) show NC gr  0.52 0.76 0.64 c black 0.52 0.76 0.64 c
 gsave  408 305 1383 1009 C 1484.27 1256.36 t 0 r /Helvetica-Bold findfont 25.6831 sf 0 0 m 
 228 214 200 193 178 171 156 149 134 126 119 105 91 77 69 55 47 40 25 17
(A = \2550.001, p = 1.000) K NC gr  1 0.6 1 c black 1 0.6 1 c
 gsave  408 305 1383 1009 C 1789.1 1122.46 t 90 r /Helvetica-Bold findfont 28.5368 sf 0 0 m (/dof=1.6) show NC gr  black 1 0.6 1 c
 gsave  408 305 1383 1009 C 1777.71 1111.07 t 90 r /Helvetica-Bold findfont 19.9758 sf 0 0 m (2) show NC gr  black 1 0.6 1 c
 gsave  408 305 1383 1009 C 1789.1 1093.97 t 90 r /Symbol findfont 28.5368 sf 0 0 m (c) show NC gr  black 3 lw 1 1 1 c 408 305 1837 1009 bf black 1 1 1 c black 306 229 1898 1055 bl 306 229 1898 1055 bl 1898 1055 m 306 X s 1898 1059 m -4 Y s 2010 1059
 m -4 Y s 2121 1059 m -4 Y s 2121 1059 m -4 Y s
 gsave  408 305 1837 1009 C 1888.81 1034.15 t 0 r /Helvetica findfont 22.8295 sf 0 0 m (0) show NC gr 
 gsave  408 305 1837 1009 C 2002.77 1034.15 t 0 r /Helvetica findfont 22.8295 sf 0 0 m (1) show NC gr 
 gsave  408 305 1837 1009 C 2111.03 1034.15 t 0 r /Helvetica findfont 22.8295 sf 0 0 m (2) show NC gr  1898 1284 m 306 X s 1898 1280 m 4 Y s 2010 1280 m 4 Y s 2121 1280 m 4 Y s 2121 1280 m 4 Y s 1898 1055 m 229 Y s 1904 1081 m -6 X s 1901 1089 m -3 X
 s 1901 1097 m -3 X s 1901 1105 m -3 X s 1904 1113 m -6 X s 1901 1121 m -3 X s 1901 1130 m -3 X s 1901 1138 m -3 X s 1904 1146 m -6 X s 1901 1154 m -3 X s 1901 1162 m -3 X s 1901 1170 m -3 X s 1904 1179 m -6 X s 1901 1187 m -3 X s 1901 1195 m -3 X s
 1901 1203 m -3 X s 1904 1211 m -6 X s 1901 1219 m -3 X s 1901 1227 m -3 X s 1901 1236 m -3 X s 1904 1244 m -6 X s 1901 1252 m -3 X s 1901 1260 m -3 X s 1901 1268 m -3 X s 1904 1276 m -6 X s 1904 1081 m -6 X s 1901 1072 m -3 X s 1901 1064 m -3 X s
 1901 1056 m -3 X s 1904 1276 m -6 X s
 gsave  408 305 1837 1009 C 1828.99 1074.03 t 0 r /Helvetica findfont 22.8295 sf 0 0 m (\2550.008) show NC gr 
 gsave  408 305 1837 1009 C 1828.99 1105.37 t 0 r /Helvetica findfont 22.8295 sf 0 0 m (\2550.006) show NC gr 
 gsave  408 305 1837 1009 C 1828.99 1139.56 t 0 r /Helvetica findfont 22.8295 sf 0 0 m (\2550.004) show NC gr 
 gsave  408 305 1837 1009 C 1828.99 1170.89 t 0 r /Helvetica findfont 22.8295 sf 0 0 m (\2550.002) show NC gr 
 gsave  408 305 1837 1009 C 1880.27 1205.08 t 0 r /Helvetica findfont 22.8295 sf 0 0 m (0) show NC gr 
 gsave  408 305 1837 1009 C 1837.53 1236.42 t 0 r /Helvetica findfont 22.8295 sf 0 0 m (0.002) show NC gr 
 gsave  408 305 1837 1009 C 1837.53 1270.6 t 0 r /Helvetica findfont 22.8295 sf 0 0 m (0.004) show NC gr  2204 1055 m 229 Y s 2199 1081 m 5 X s 2201 1089 m 3 X s 2201 1097 m 3 X s 2201 1105 m 3 X s 2199 1113 m 5 X s 2201 1121 m 3 X s 2201 1130 m 3 X
 s 2201 1138 m 3 X s 2199 1146 m 5 X s 2201 1154 m 3 X s 2201 1162 m 3 X s 2201 1170 m 3 X s 2199 1179 m 5 X s 2201 1187 m 3 X s 2201 1195 m 3 X s 2201 1203 m 3 X s 2199 1211 m 5 X s 2201 1219 m 3 X s 2201 1227 m 3 X s 2201 1236 m 3 X s 2199 1244 m 5
 X s 2201 1252 m 3 X s 2201 1260 m 3 X s 2201 1268 m 3 X s 2199 1276 m 5 X s 2199 1081 m 5 X s 2201 1072 m 3 X s 2201 1064 m 3 X s 2201 1056 m 3 X s 2199 1276 m 5 X s 1926 1112 1954 1222 2010 1227 2065 1164 2121 1140 2177 1213 6 { m21} R 1926 1123 m
 26 Y s 1920 1149 m 12 X s 1926 1100 m -26 Y s 1920 1074 m 12 X s 1954 1234 m 26 Y s 1948 1260 m 11 X s 1954 1211 m -26 Y s 1948 1185 m 11 X s 2010 1238 m 27 Y s 2004 1265 m 11 X s 2010 1215 m -26 Y s 2004 1189 m 11 X s 2065 1176 m 26 Y s 2060 1202 m
 11 X s 2065 1153 m -26 Y s 2060 1127 m 11 X s 2121 1151 m 26 Y s 2115 1177 m 12 X s 2121 1128 m -26 Y s 2115 1102 m 12 X s 2177 1225 m 26 Y s 2171 1251 m 11 X s 2177 1202 m -26 Y s 2171 1176 m 11 X s 9 lw 0.95 0.95 0.95 c black 1900 1211 m 3 X 3 -1
 d 3 X 3 -1 d 3 X 3 -1 d 6 X 3 -1 d 3 X 3 -1 d 3 X 3 -1 d 7 X 3 -1 d 3 X 3 -1 d 6 X 3 -1 d 3 X 3 -1 d 3 X 3 -1 d 6 X 3 -1 d 3 X 3 -1 d 4 X 3 -1 d 6 X 3 -1 d 3 X 3 -1 d 6 X 3 -1 d 3 X 3 -1 d 3 X 3 -1 d 6 X 3 -1 d 4 X 3 -1 d s 2050 1190 m 3 X 3 -1 d 6
 X 3 -1 d 3 X 3 -1 d 6 X 3 -1 d 3 X 3 -1 d 3 X 3 -1 d 7 X 3 -1 d 3 X 3 -1 d 3 X 3 -1 d 6 X 3 -1 d 3 X 3 -1 d 6 X 3 -1 d 3 X 4 -1 d 3 X 3 -1 d 6 X 3 -1 d 3 X 3 -1 d 6 X 3 -1 d 3 X 3 -1 d 3 X 3 -1 d 7 X 3 -1 d 3 X s 2200 1170 m 3 -1 d s 0.49 0.6 0.82 c
 black 0.49 0.6 0.82 c
 gsave  408 305 1837 1009 C 1957.19 1293.4 t 0 r /Helvetica-Bold findfont 25.6831 sf 0 0 m (2.0 < E < 2.5 GeV) show NC gr  0.52 0.76 0.64 c black 0.52 0.76 0.64 c
 gsave  408 305 1837 1009 C 1937.25 1256.36 t 0 r /Helvetica-Bold findfont 25.6831 sf 0 0 m 
 228 214 200 193 178 171 156 149 133 126 119 105 91 77 69 55 47 39 25 17
(A = \2550.001, p = 1.000) K NC gr  1 0.6 1 c black 1 0.6 1 c
 gsave  408 305 1837 1009 C 2242.08 1122.46 t 90 r /Helvetica-Bold findfont 28.5368 sf 0 0 m (/dof=2.0) show NC gr  black 1 0.6 1 c
 gsave  408 305 1837 1009 C 2230.68 1111.07 t 90 r /Helvetica-Bold findfont 19.9758 sf 0 0 m (2) show NC gr  black 1 0.6 1 c
 gsave  408 305 1837 1009 C 2242.08 1093.97 t 90 r /Symbol findfont 28.5368 sf 0 0 m (c) show NC gr  black 3 lw 1 1 1 c 408 305 23 677 bf black 1 1 1 c black 306 229 84 723 bl 306 229 84 723 bl 84 723 m 306 X s 84 727 m -4 Y s 195 727 m -4 Y s 307
 727 m -4 Y s 307 727 m -4 Y s
 gsave  408 305 23 677 C 74.0711 703.676 t 0 r /Helvetica findfont 22.8295 sf 0 0 m (0) show NC gr 
 gsave  408 305 23 677 C 188.027 703.676 t 0 r /Helvetica findfont 22.8295 sf 0 0 m (1) show NC gr 
 gsave  408 305 23 677 C 296.285 703.676 t 0 r /Helvetica findfont 22.8295 sf 0 0 m (2) show NC gr  84 952 m 306 X s 84 948 m 4 Y s 195 948 m 4 Y s 307 948 m 4 Y s 307 948 m 4 Y s 84 723 m 229 Y s 89 739 m -5 X s 87 745 m -3 X s 87 751 m -3 X s 87
 757 m -3 X s 89 763 m -5 X s 87 769 m -3 X s 87 775 m -3 X s 87 781 m -3 X s 89 787 m -5 X s 87 793 m -3 X s 87 799 m -3 X s 87 805 m -3 X s 89 811 m -5 X s 87 818 m -3 X s 87 824 m -3 X s 87 830 m -3 X s 89 836 m -5 X s 87 842 m -3 X s 87 848 m -3
 X s 87 854 m -3 X s 89 860 m -5 X s 87 866 m -3 X s 87 872 m -3 X s 87 878 m -3 X s 89 884 m -5 X s 87 890 m -3 X s 87 896 m -3 X s 87 902 m -3 X s 89 909 m -5 X s 87 915 m -3 X s 87 921 m -3 X s 87 927 m -3 X s 89 933 m -5 X s 89 739 m -5 X s 87
 733 m -3 X s 87 726 m -3 X s 89 933 m -5 X s 87 939 m -3 X s 87 945 m -3 X s 87 951 m -3 X s
 gsave  408 305 23 677 C 31.3378 732.165 t 0 r /Helvetica findfont 22.8295 sf 0 0 m (\2550.01) show NC gr 
 gsave  408 305 23 677 C 14.2445 754.956 t 0 r /Helvetica findfont 22.8295 sf 0 0 m (\2550.008) show NC gr 
 gsave  408 305 23 677 C 14.2445 780.596 t 0 r /Helvetica findfont 22.8295 sf 0 0 m (\2550.006) show NC gr 
 gsave  408 305 23 677 C 14.2445 803.387 t 0 r /Helvetica findfont 22.8295 sf 0 0 m (\2550.004) show NC gr 
 gsave  408 305 23 677 C 14.2445 829.027 t 0 r /Helvetica findfont 22.8295 sf 0 0 m (\2550.002) show NC gr 
 gsave  408 305 23 677 C 65.5245 851.818 t 0 r /Helvetica findfont 22.8295 sf 0 0 m (0) show NC gr 
 gsave  408 305 23 677 C 22.7911 877.458 t 0 r /Helvetica findfont 22.8295 sf 0 0 m (0.002) show NC gr 
 gsave  408 305 23 677 C 22.7911 900.249 t 0 r /Helvetica findfont 22.8295 sf 0 0 m (0.004) show NC gr 
 gsave  408 305 23 677 C 22.7911 925.889 t 0 r /Helvetica findfont 22.8295 sf 0 0 m (0.006) show NC gr  390 723 m 229 Y s 385 739 m 5 X s 387 745 m 3 X s 387 751 m 3 X s 387 757 m 3 X s 385 763 m 5 X s 387 769 m 3 X s 387 775 m 3 X s 387 781 m 3 X s
 385 787 m 5 X s 387 793 m 3 X s 387 799 m 3 X s 387 805 m 3 X s 385 811 m 5 X s 387 818 m 3 X s 387 824 m 3 X s 387 830 m 3 X s 385 836 m 5 X s 387 842 m 3 X s 387 848 m 3 X s 387 854 m 3 X s 385 860 m 5 X s 387 866 m 3 X s 387 872 m 3 X s 387 878 m
 3 X s 385 884 m 5 X s 387 890 m 3 X s 387 896 m 3 X s 387 902 m 3 X s 385 909 m 5 X s 387 915 m 3 X s 387 921 m 3 X s 387 927 m 3 X s 385 933 m 5 X s 385 739 m 5 X s 387 733 m 3 X s 387 726 m 3 X s 385 933 m 5 X s 387 939 m 3 X s 387 945 m 3 X s 387
 951 m 3 X s /w 22 def /w2 {w 2 div} def /w3 {w 3 div} def 112 771 140 850 195 903 251 846 307 883 362 870 6 { m21} R 112 783 m 17 Y s 106 800 m 11 X s 112 760 m -18 Y s 106 742 m 11 X s 140 862 m 18 Y s 134 880 m 11 X s 140 839 m -18 Y s 134 821 m
 11 X s 195 915 m 18 Y s 190 933 m 11 X s 195 892 m -18 Y s 190 874 m 11 X s 251 858 m 18 Y s 245 876 m 12 X s 251 835 m -18 Y s 245 817 m 12 X s 307 894 m 19 Y s 301 913 m 11 X s 307 872 m -19 Y s 301 853 m 11 X s 362 882 m 18 Y s 357 900 m 11 X s
 362 859 m -18 Y s 357 841 m 11 X s 1 0 0 c 9 lw 0.95 0.95 0.95 c black 1 0 0 c 85 860 m 46 X 3 1 d 34 X 3 1 d 22 X 3 1 d 15 X 3 1 d 15 X 3 1 d 3 X s 235 865 m 10 X 3 1 d 9 X 3 1 d 12 X 3 1 d 9 X 3 1 d 7 X 3 1 d 9 X 3 1 d 6 X 3 1 d 9 X 3 1 d 6 X 4 1
 d 6 X 3 1 d 6 X 3 1 d 3 X 3 1 d 6 X 3 1 d 6 X 3 1 d 3 X s 385 879 m 4 1 d s 0.49 0.6 0.82 c black 0.49 0.6 0.82 c
 gsave  408 305 23 677 C 142.445 960.076 t 0 r /Helvetica-Bold findfont 25.6831 sf 0 0 m (2.5 < E < 3.0 GeV) show NC gr  0.52 0.76 0.64 c black 0.52 0.76 0.64 c
 gsave  408 305 23 677 C 128.2 923.04 t 0 r /Helvetica-Bold findfont 25.6831 sf 0 0 m 
 220 206 192 185 170 163 148 141 126 118 111 97 83 69 61 47 40 25 18
(A = 0.000, p = 2.000) K NC gr  1 0.6 1 c black 1 0.6 1 c
 gsave  408 305 23 677 C 427.334 791.991 t 90 r /Helvetica-Bold findfont 28.5368 sf 0 0 m (/dof=2.4) show NC gr  black 1 0.6 1 c
 gsave  408 305 23 677 C 415.938 780.596 t 90 r /Helvetica-Bold findfont 19.9758 sf 0 0 m (2) show NC gr  black 1 0.6 1 c
 gsave  408 305 23 677 C 427.334 763.503 t 90 r /Symbol findfont 28.5368 sf 0 0 m (c) show NC gr  black 3 lw 1 1 1 c 408 305 476 677 bf black 1 1 1 c black 307 229 537 723 bl 307 229 537 723 bl 537 723 m 307 X s 537 727 m -4 Y s 649 727 m -4 Y s 760
 727 m -4 Y s 760 727 m -4 Y s
 gsave  408 305 476 677 C 527.045 703.676 t 0 r /Helvetica findfont 22.8295 sf 0 0 m (0) show NC gr 
 gsave  408 305 476 677 C 641 703.676 t 0 r /Helvetica findfont 22.8295 sf 0 0 m (1) show NC gr 
 gsave  408 305 476 677 C 749.258 703.676 t 0 r /Helvetica findfont 22.8295 sf 0 0 m (2) show NC gr  537 952 m 307 X s 537 948 m 4 Y s 649 948 m 4 Y s 760 948 m 4 Y s 760 948 m 4 Y s 537 723 m 229 Y s 543 757 m -6 X s 540 766 m -3 X s 540 776 m -3 X
 s 540 785 m -3 X s 543 795 m -6 X s 540 804 m -3 X s 540 814 m -3 X s 540 823 m -3 X s 543 833 m -6 X s 540 842 m -3 X s 540 852 m -3 X s 540 861 m -3 X s 543 871 m -6 X s 540 880 m -3 X s 540 890 m -3 X s 540 899 m -3 X s 543 909 m -6 X s 540 918 m
 -3 X s 540 928 m -3 X s 540 937 m -3 X s 543 947 m -6 X s 543 757 m -6 X s 540 747 m -3 X s 540 738 m -3 X s 540 728 m -3 X s 543 947 m -6 X s
 gsave  408 305 476 677 C 467.218 749.258 t 0 r /Helvetica findfont 22.8295 sf 0 0 m (\2550.004) show NC gr 
 gsave  408 305 476 677 C 467.218 786.294 t 0 r /Helvetica findfont 22.8295 sf 0 0 m (\2550.002) show NC gr 
 gsave  408 305 476 677 C 518.498 826.178 t 0 r /Helvetica findfont 22.8295 sf 0 0 m (0) show NC gr 
 gsave  408 305 476 677 C 475.765 863.214 t 0 r /Helvetica findfont 22.8295 sf 0 0 m (0.002) show NC gr 
 gsave  408 305 476 677 C 475.765 903.098 t 0 r /Helvetica findfont 22.8295 sf 0 0 m (0.004) show NC gr 
 gsave  408 305 476 677 C 475.765 940.134 t 0 r /Helvetica findfont 22.8295 sf 0 0 m (0.006) show NC gr  844 723 m 229 Y s 838 757 m 6 X s 841 766 m 3 X s 841 776 m 3 X s 841 785 m 3 X s 838 795 m 6 X s 841 804 m 3 X s 841 814 m 3 X s 841 823 m 3 X s
 838 833 m 6 X s 841 842 m 3 X s 841 852 m 3 X s 841 861 m 3 X s 838 871 m 6 X s 841 880 m 3 X s 841 890 m 3 X s 841 899 m 3 X s 838 909 m 6 X s 841 918 m 3 X s 841 928 m 3 X s 841 937 m 3 X s 838 947 m 6 X s 838 757 m 6 X s 841 747 m 3 X s 841 738 m
 3 X s 841 728 m 3 X s 838 947 m 6 X s /w 23 def /w2 {w 2 div} def /w3 {w 3 div} def 565 796 593 874 649 792 705 882 760 798 816 814 6 { m21} R 565 807 m 39 Y s 560 846 m 11 X s 565 785 m -39 Y s 560 746 m 11 X s 593 885 m 39 Y s 587 924 m 12 X s 593
 862 m -39 Y s 587 823 m 12 X s 649 804 m 38 Y s 643 842 m 12 X s 649 781 m -39 Y s 643 742 m 12 X s 705 894 m 39 Y s 699 933 m 11 X s 705 871 m -39 Y s 699 832 m 11 X s 760 809 m 39 Y s 755 848 m 11 X s 760 786 m -39 Y s 755 747 m 11 X s 816 825 m
 39 Y s 810 864 m 12 X s 816 802 m -39 Y s 810 763 m 12 X s 1 0 0 c 9 lw 0.95 0.95 0.95 c black 1 0 0 c 539 833 m 28 X 3 -1 d 39 X 3 -1 d 22 X 3 -1 d 15 X 3 -1 d 16 X 3 -1 d 12 X 3 -1 d s 689 827 m 9 X 3 -1 d 9 X 3 -1 d 10 X 3 -1 d 9 X 3 -1 d 6 X 3
 -1 d 6 X 3 -1 d 6 X 4 -1 d 6 X 3 -1 d 6 X 3 -1 d 6 X 3 -1 d 6 X 3 -1 d 3 X 3 -1 d 7 X 3 -1 d 3 X 3 -1 d 6 X 3 -1 d 3 X 3 -1 d s 839 811 m 3 X s 0.49 0.6 0.82 c black 0.49 0.6 0.82 c
 gsave  408 305 476 677 C 595.418 960.076 t 0 r /Helvetica-Bold findfont 25.6831 sf 0 0 m (3.0 < E < 3.5 GeV) show NC gr  0.52 0.76 0.64 c black 0.52 0.76 0.64 c
 gsave  408 305 476 677 C 575.476 923.04 t 0 r /Helvetica-Bold findfont 25.6831 sf 0 0 m 
 228 214 200 193 178 171 156 149 133 126 119 105 91 76 69 55 47 39 25 17
(A = \2550.000, p = 2.000) K NC gr  1 0.6 1 c black 1 0.6 1 c
 gsave  408 305 476 677 C 883.156 791.991 t 90 r /Helvetica-Bold findfont 28.5368 sf 0 0 m (/dof=0.6) show NC gr  black 1 0.6 1 c
 gsave  408 305 476 677 C 871.76 780.596 t 90 r /Helvetica-Bold findfont 19.9758 sf 0 0 m (2) show NC gr  black 1 0.6 1 c
 gsave  408 305 476 677 C 883.156 763.503 t 90 r /Symbol findfont 28.5368 sf 0 0 m (c) show NC gr  black 3 lw 1 1 1 c 408 305 930 677 bf black 1 1 1 c black 306 229 991 723 bl 306 229 991 723 bl 991 723 m 306 X s 991 727 m -4 Y s 1102 727 m -4 Y s
 1214 727 m -4 Y s 1214 727 m -4 Y s
 gsave  408 305 930 677 C 980.018 703.676 t 0 r /Helvetica findfont 22.8295 sf 0 0 m (0) show NC gr 
 gsave  408 305 930 677 C 1093.97 703.676 t 0 r /Helvetica findfont 22.8295 sf 0 0 m (1) show NC gr 
 gsave  408 305 930 677 C 1205.08 703.676 t 0 r /Helvetica findfont 22.8295 sf 0 0 m (2) show NC gr  991 952 m 306 X s 991 948 m 4 Y s 1102 948 m 4 Y s 1214 948 m 4 Y s 1214 948 m 4 Y s 991 723 m 229 Y s 997 739 m -6 X s 994 746 m -3 X s 994 753 m -3
 X s 994 760 m -3 X s 997 767 m -6 X s 994 774 m -3 X s 994 781 m -3 X s 994 788 m -3 X s 997 795 m -6 X s 994 802 m -3 X s 994 809 m -3 X s 994 816 m -3 X s 997 823 m -6 X s 994 830 m -3 X s 994 837 m -3 X s 994 844 m -3 X s 997 851 m -6 X s 994 858
 m -3 X s 994 865 m -3 X s 994 872 m -3 X s 997 879 m -6 X s 994 886 m -3 X s 994 893 m -3 X s 994 900 m -3 X s 997 907 m -6 X s 994 914 m -3 X s 994 921 m -3 X s 994 928 m -3 X s 997 935 m -6 X s 997 739 m -6 X s 994 732 m -3 X s 994 725 m -3 X s
 997 935 m -6 X s 994 942 m -3 X s 994 949 m -3 X s
 gsave  408 305 930 677 C 940.134 732.165 t 0 r /Helvetica findfont 22.8295 sf 0 0 m (\2550.01) show NC gr 
 gsave  408 305 930 677 C 923.04 760.654 t 0 r /Helvetica findfont 22.8295 sf 0 0 m (\2550.008) show NC gr 
 gsave  408 305 930 677 C 923.04 786.294 t 0 r /Helvetica findfont 22.8295 sf 0 0 m (\2550.006) show NC gr 
 gsave  408 305 930 677 C 923.04 814.783 t 0 r /Helvetica findfont 22.8295 sf 0 0 m (\2550.004) show NC gr 
 gsave  408 305 930 677 C 923.04 843.271 t 0 r /Helvetica findfont 22.8295 sf 0 0 m (\2550.002) show NC gr 
 gsave  408 305 930 677 C 974.32 871.76 t 0 r /Helvetica findfont 22.8295 sf 0 0 m (0) show NC gr 
 gsave  408 305 930 677 C 931.587 900.249 t 0 r /Helvetica findfont 22.8295 sf 0 0 m (0.002) show NC gr 
 gsave  408 305 930 677 C 931.587 928.738 t 0 r /Helvetica findfont 22.8295 sf 0 0 m (0.004) show NC gr  1297 723 m 229 Y s 1292 739 m 5 X s 1294 746 m 3 X s 1294 753 m 3 X s 1294 760 m 3 X s 1292 767 m 5 X s 1294 774 m 3 X s 1294 781 m 3 X s 1294
 788 m 3 X s 1292 795 m 5 X s 1294 802 m 3 X s 1294 809 m 3 X s 1294 816 m 3 X s 1292 823 m 5 X s 1294 830 m 3 X s 1294 837 m 3 X s 1294 844 m 3 X s 1292 851 m 5 X s 1294 858 m 3 X s 1294 865 m 3 X s 1294 872 m 3 X s 1292 879 m 5 X s 1294 886 m 3 X s
 1294 893 m 3 X s 1294 900 m 3 X s 1292 907 m 5 X s 1294 914 m 3 X s 1294 921 m 3 X s 1294 928 m 3 X s 1292 935 m 5 X s 1292 739 m 5 X s 1294 732 m 3 X s 1294 725 m 3 X s 1292 935 m 5 X s 1294 942 m 3 X s 1294 949 m 3 X s 1019 785 1047 889 1102 843
 1158 846 1214 808 1270 872 6 { m21} R 1019 797 m 32 Y s 1013 829 m 12 X s 1019 774 m -32 Y s 1013 742 m 12 X s 1047 901 m 32 Y s 1041 933 m 11 X s 1047 878 m -32 Y s 1041 846 m 11 X s 1102 855 m 32 Y s 1097 887 m 11 X s 1102 832 m -32 Y s 1097 800 m
 11 X s 1158 858 m 32 Y s 1152 890 m 12 X s 1158 835 m -32 Y s 1152 803 m 12 X s 1214 819 m 32 Y s 1208 851 m 12 X s 1214 796 m -32 Y s 1208 764 m 12 X s 1270 884 m 32 Y s 1264 916 m 11 X s 1270 861 m -32 Y s 1264 829 m 11 X s 9 lw 0.95 0.95 0.95 c
 black 993 879 m 3 -1 d 3 X 3 -1 d 3 X 3 -1 d 3 X 3 -1 d 3 X 3 -1 d 3 X 3 -1 d 3 -1 d 3 X 3 -1 d 3 X 4 -1 d 3 X 3 -1 d 3 X 3 -1 d 3 X 3 -1 d 3 X 3 -1 d 3 X 3 -1 d 3 X 3 -1 d 3 X 3 -1 d 3 X 3 -1 d 4 -1 d 3 X 3 -1 d 3 X 3 -1 d 3 X 3 -1 d 3 X 3 -1 d 3 X
 3 -1 d 3 X 3 -1 d 3 X 3 -1 d 3 X 4 -1 d s 1143 853 m 3 X 3 -1 d 3 X 3 -1 d 3 -1 d 3 X 3 -1 d 3 X 3 -1 d 3 X 3 -1 d 3 X 3 -1 d 3 X 3 -1 d 4 X 3 -1 d 3 X 3 -1 d 3 X 3 -1 d 3 X 3 -1 d 3 X 3 -1 d 3 X 3 -1 d 3 -1 d 3 X 3 -1 d 3 X 3 -1 d 4 X 3 -1 d 3 X 3
 -1 d 3 X 3 -1 d 3 X 3 -1 d 3 X 3 -1 d 3 X 3 -1 d 3 X 3 -1 d 3 X 3 -1 d 4 -1 d s 1293 827 m 3 X s 0.49 0.6 0.82 c black 0.49 0.6 0.82 c
 gsave  408 305 930 677 C 1051.24 960.076 t 0 r /Helvetica-Bold findfont 25.6831 sf 0 0 m (3.5 < E < 4.0 GeV) show NC gr  0.52 0.76 0.64 c black 0.52 0.76 0.64 c
 gsave  408 305 930 677 C 1031.3 923.04 t 0 r /Helvetica-Bold findfont 25.6831 sf 0 0 m 
 228 214 200 193 178 171 156 149 133 126 119 105 91 77 69 55 47 39 25 17
(A = \2550.001, p = 1.000) K NC gr  1 0.6 1 c black 1 0.6 1 c
 gsave  408 305 930 677 C 1336.13 791.991 t 90 r /Helvetica-Bold findfont 28.5368 sf 0 0 m (/dof=1.2) show NC gr  black 1 0.6 1 c
 gsave  408 305 930 677 C 1324.73 780.596 t 90 r /Helvetica-Bold findfont 19.9758 sf 0 0 m (2) show NC gr  black 1 0.6 1 c
 gsave  408 305 930 677 C 1336.13 763.503 t 90 r /Symbol findfont 28.5368 sf 0 0 m (c) show NC gr  black 3 lw 1 1 1 c 408 305 1383 677 bf black 1 1 1 c black 306 229 1445 723 bl 306 229 1445 723 bl 1445 723 m 306 X s 1445 727 m -4 Y s 1556 727 m -4 Y
 s 1667 727 m -4 Y s 1667 727 m -4 Y s
 gsave  408 305 1383 677 C 1435.84 703.676 t 0 r /Helvetica findfont 22.8295 sf 0 0 m (0) show NC gr 
 gsave  408 305 1383 677 C 1549.8 703.676 t 0 r /Helvetica findfont 22.8295 sf 0 0 m (1) show NC gr 
 gsave  408 305 1383 677 C 1658.05 703.676 t 0 r /Helvetica findfont 22.8295 sf 0 0 m (2) show NC gr  1445 952 m 306 X s 1445 948 m 4 Y s 1556 948 m 4 Y s 1667 948 m 4 Y s 1667 948 m 4 Y s 1445 723 m 229 Y s 1450 754 m -5 X s 1447 762 m -2 X s 1447
 770 m -2 X s 1447 777 m -2 X s 1447 785 m -2 X s 1450 793 m -5 X s 1447 800 m -2 X s 1447 808 m -2 X s 1447 816 m -2 X s 1447 823 m -2 X s 1450 831 m -5 X s 1447 839 m -2 X s 1447 846 m -2 X s 1447 854 m -2 X s 1447 862 m -2 X s 1450 869 m -5 X s
 1447 877 m -2 X s 1447 885 m -2 X s 1447 892 m -2 X s 1447 900 m -2 X s 1450 908 m -5 X s 1447 915 m -2 X s 1447 923 m -2 X s 1447 931 m -2 X s 1447 938 m -2 X s 1450 946 m -5 X s 1450 754 m -5 X s 1447 747 m -2 X s 1447 739 m -2 X s 1447 731 m -2 X
 s 1447 723 m -2 X s 1450 946 m -5 X s
 gsave  408 305 1383 677 C 1376.01 746.409 t 0 r /Helvetica findfont 22.8295 sf 0 0 m (\2550.015) show NC gr 
 gsave  408 305 1383 677 C 1393.11 786.294 t 0 r /Helvetica findfont 22.8295 sf 0 0 m (\2550.01) show NC gr 
 gsave  408 305 1383 677 C 1376.01 823.329 t 0 r /Helvetica findfont 22.8295 sf 0 0 m (\2550.005) show NC gr 
 gsave  408 305 1383 677 C 1427.29 863.214 t 0 r /Helvetica findfont 22.8295 sf 0 0 m (0) show NC gr 
 gsave  408 305 1383 677 C 1384.56 900.249 t 0 r /Helvetica findfont 22.8295 sf 0 0 m (0.005) show NC gr 
 gsave  408 305 1383 677 C 1398.81 940.134 t 0 r /Helvetica findfont 22.8295 sf 0 0 m (0.01) show NC gr  1751 723 m 229 Y s 1745 754 m 6 X s 1748 762 m 3 X s 1748 770 m 3 X s 1748 777 m 3 X s 1748 785 m 3 X s 1745 793 m 6 X s 1748 800 m 3 X s 1748
 808 m 3 X s 1748 816 m 3 X s 1748 823 m 3 X s 1745 831 m 6 X s 1748 839 m 3 X s 1748 846 m 3 X s 1748 854 m 3 X s 1748 862 m 3 X s 1745 869 m 6 X s 1748 877 m 3 X s 1748 885 m 3 X s 1748 892 m 3 X s 1748 900 m 3 X s 1745 908 m 6 X s 1748 915 m 3 X s
 1748 923 m 3 X s 1748 931 m 3 X s 1748 938 m 3 X s 1745 946 m 6 X s 1745 754 m 6 X s 1748 747 m 3 X s 1748 739 m 3 X s 1748 731 m 3 X s 1748 723 m 3 X s 1745 946 m 6 X s 1472 843 1500 902 1556 883 1612 858 1667 887 1723 772 6 { m21} R 1472 854 m 19
 Y s 1467 873 m 11 X s 1472 831 m -19 Y s 1467 812 m 11 X s 1500 914 m 19 Y s 1495 933 m 11 X s 1500 891 m -19 Y s 1495 872 m 11 X s 1556 895 m 18 Y s 1550 913 m 12 X s 1556 872 m -19 Y s 1550 853 m 12 X s 1612 869 m 19 Y s 1606 888 m 11 X s 1612 846
 m -19 Y s 1606 827 m 11 X s 1667 898 m 19 Y s 1662 917 m 11 X s 1667 876 m -19 Y s 1662 857 m 11 X s 1723 783 m 19 Y s 1717 802 m 12 X s 1723 761 m -19 Y s 1717 742 m 12 X s 1 0 0 c 9 lw 0.95 0.95 0.95 c black 1 0 0 c 1446 869 m 31 X 3 -1 d 12 X 3
 -1 d 9 X 3 -1 d 9 X 4 -1 d 6 X 3 -1 d 3 X 3 -1 d 6 X 3 -1 d 3 X 3 -1 d 3 X 3 -1 d 3 X 3 -1 d 3 X 4 -1 d 3 X 3 -1 d 3 X 3 -1 d 3 -1 d 3 X 3 -1 d 3 -1 d 3 X s 1596 853 m 3 -1 d 3 -1 d 3 X 3 -1 d 3 -1 d 3 X 4 -1 d 3 -1 d 3 -1 d 3 -1 d 3 X 3 -1 d 3 -1 d
 3 -1 d 3 -1 d 3 -1 d 3 -1 d 3 X 3 -1 d 3 -1 d 3 -1 d 3 -1 d 3 -1 d 4 -1 d 3 -1 d 3 -1 d 3 -1 d 3 -1 d 3 -1 d 3 -1 d 3 -1 d 3 -2 d 3 -1 d 3 -1 d 3 -1 d 3 -1 d 3 -1 d 3 -1 d 3 -2 d 4 -1 d 3 -1 d 3 -1 d 3 -1 d 3 -2 d 3 -1 d 3 -1 d 3 -2 d 3 -1 d 3 -1 d
 s 1746 804 m 3 -2 d s 0.49 0.6 0.82 c black 0.49 0.6 0.82 c
 gsave  408 305 1383 677 C 1504.21 960.076 t 0 r /Helvetica-Bold findfont 25.6831 sf 0 0 m (4.0 < E < 4.5 GeV) show NC gr  0.52 0.76 0.64 c black 0.52 0.76 0.64 c
 gsave  408 305 1383 677 C 1484.27 923.04 t 0 r /Helvetica-Bold findfont 25.6831 sf 0 0 m 
 228 214 200 193 178 171 156 149 134 126 119 105 91 77 69 55 47 40 25 17
(A = \2550.001, p = 2.000) K NC gr  1 0.6 1 c black 1 0.6 1 c
 gsave  408 305 1383 677 C 1789.1 791.991 t 90 r /Helvetica-Bold findfont 28.5368 sf 0 0 m (/dof=1.6) show NC gr  black 1 0.6 1 c
 gsave  408 305 1383 677 C 1777.71 780.596 t 90 r /Helvetica-Bold findfont 19.9758 sf 0 0 m (2) show NC gr  black 1 0.6 1 c
 gsave  408 305 1383 677 C 1789.1 763.503 t 90 r /Symbol findfont 28.5368 sf 0 0 m (c) show NC gr  black 3 lw 1 1 1 c 408 305 1837 677 bf black 1 1 1 c black 306 229 1898 723 bl 306 229 1898 723 bl 1898 723 m 306 X s 1898 727 m -4 Y s 2010 727 m -4 Y
 s 2121 727 m -4 Y s 2121 727 m -4 Y s
 gsave  408 305 1837 677 C 1888.81 703.676 t 0 r /Helvetica findfont 22.8295 sf 0 0 m (0) show NC gr 
 gsave  408 305 1837 677 C 2002.77 703.676 t 0 r /Helvetica findfont 22.8295 sf 0 0 m (1) show NC gr 
 gsave  408 305 1837 677 C 2111.03 703.676 t 0 r /Helvetica findfont 22.8295 sf 0 0 m (2) show NC gr  1898 952 m 306 X s 1898 948 m 4 Y s 2010 948 m 4 Y s 2121 948 m 4 Y s 2121 948 m 4 Y s 1898 723 m 229 Y s 1904 738 m -6 X s 1901 746 m -3 X s 1901
 753 m -3 X s 1901 761 m -3 X s 1901 769 m -3 X s 1904 776 m -6 X s 1901 784 m -3 X s 1901 792 m -3 X s 1901 799 m -3 X s 1901 807 m -3 X s 1904 815 m -6 X s 1901 822 m -3 X s 1901 830 m -3 X s 1901 838 m -3 X s 1901 845 m -3 X s 1904 853 m -6 X s
 1901 861 m -3 X s 1901 868 m -3 X s 1901 876 m -3 X s 1901 883 m -3 X s 1904 891 m -6 X s 1901 899 m -3 X s 1901 906 m -3 X s 1901 914 m -3 X s 1901 922 m -3 X s 1904 929 m -6 X s 1904 738 m -6 X s 1901 730 m -3 X s 1904 929 m -6 X s 1901 937 m -3 X
 s 1901 945 m -3 X s
 gsave  408 305 1837 677 C 1828.99 732.165 t 0 r /Helvetica findfont 22.8295 sf 0 0 m (\2550.015) show NC gr 
 gsave  408 305 1837 677 C 1846.08 769.2 t 0 r /Helvetica findfont 22.8295 sf 0 0 m (\2550.01) show NC gr 
 gsave  408 305 1837 677 C 1828.99 806.236 t 0 r /Helvetica findfont 22.8295 sf 0 0 m (\2550.005) show NC gr 
 gsave  408 305 1837 677 C 1880.27 846.12 t 0 r /Helvetica findfont 22.8295 sf 0 0 m (0) show NC gr 
 gsave  408 305 1837 677 C 1837.53 883.156 t 0 r /Helvetica findfont 22.8295 sf 0 0 m (0.005) show NC gr 
 gsave  408 305 1837 677 C 1851.78 923.04 t 0 r /Helvetica findfont 22.8295 sf 0 0 m (0.01) show NC gr  2204 723 m 229 Y s 2199 738 m 5 X s 2201 746 m 3 X s 2201 753 m 3 X s 2201 761 m 3 X s 2201 769 m 3 X s 2199 776 m 5 X s 2201 784 m 3 X s 2201 792
 m 3 X s 2201 799 m 3 X s 2201 807 m 3 X s 2199 815 m 5 X s 2201 822 m 3 X s 2201 830 m 3 X s 2201 838 m 3 X s 2201 845 m 3 X s 2199 853 m 5 X s 2201 861 m 3 X s 2201 868 m 3 X s 2201 876 m 3 X s 2201 883 m 3 X s 2199 891 m 5 X s 2201 899 m 3 X s
 2201 906 m 3 X s 2201 914 m 3 X s 2201 922 m 3 X s 2199 929 m 5 X s 2199 738 m 5 X s 2201 730 m 3 X s 2199 929 m 5 X s 2201 937 m 3 X s 2201 945 m 3 X s 1926 797 1954 829 2010 836 2065 781 2121 893 2177 858 6 { m21} R 1926 809 m 28 Y s 1920 837 m 12
 X s 1926 786 m -28 Y s 1920 758 m 12 X s 1954 841 m 28 Y s 1948 869 m 11 X s 1954 818 m -28 Y s 1948 790 m 11 X s 2010 847 m 29 Y s 2004 876 m 11 X s 2010 825 m -29 Y s 2004 796 m 11 X s 2065 793 m 28 Y s 2060 821 m 11 X s 2065 770 m -28 Y s 2060
 742 m 11 X s 2121 904 m 29 Y s 2115 933 m 12 X s 2121 882 m -29 Y s 2115 853 m 12 X s 2177 869 m 28 Y s 2171 897 m 11 X s 2177 846 m -28 Y s 2171 818 m 11 X s 9 lw 0.95 0.95 0.95 c black 1900 853 m 6 X 3 -1 d 24 X 3 -1 d 22 X 3 -1 d 24 X 3 -1 d 22 X
 3 -1 d 24 X 3 -1 d 10 X s 2050 847 m 12 X 3 -1 d 24 X 3 -1 d 22 X 3 -1 d 24 X 4 -1 d 21 X 3 -1 d 25 X 3 -1 d 3 X s 2200 841 m 3 X s 0.49 0.6 0.82 c black 0.49 0.6 0.82 c
 gsave  408 305 1837 677 C 1957.19 960.076 t 0 r /Helvetica-Bold findfont 25.6831 sf 0 0 m (4.5 < E < 5.0 GeV) show NC gr  0.52 0.76 0.64 c black 0.52 0.76 0.64 c
 gsave  408 305 1837 677 C 1937.25 923.04 t 0 r /Helvetica-Bold findfont 25.6831 sf 0 0 m 
 228 214 200 193 178 171 156 149 133 126 119 105 91 77 69 55 47 39 25 17
(A = \2550.001, p = 1.000) K NC gr  1 0.6 1 c black 1 0.6 1 c
 gsave  408 305 1837 677 C 2242.08 791.991 t 90 r /Helvetica-Bold findfont 28.5368 sf 0 0 m (/dof=1.3) show NC gr  black 1 0.6 1 c
 gsave  408 305 1837 677 C 2230.68 780.596 t 90 r /Helvetica-Bold findfont 19.9758 sf 0 0 m (2) show NC gr  black 1 0.6 1 c
 gsave  408 305 1837 677 C 2242.08 763.503 t 90 r /Symbol findfont 28.5368 sf 0 0 m (c) show NC gr  black 3 lw 1 1 1 c 408 306 23 345 bf black 1 1 1 c black 306 229 84 391 bl 306 229 84 391 bl 84 391 m 306 X s 84 395 m -4 Y s 195 395 m -4 Y s 307 395
 m -4 Y s 307 395 m -4 Y s
 gsave  408 306 23 345 C 74.0711 370.356 t 0 r /Helvetica findfont 22.8295 sf 0 0 m (0) show NC gr 
 gsave  408 306 23 345 C 188.027 370.356 t 0 r /Helvetica findfont 22.8295 sf 0 0 m (1) show NC gr 
 gsave  408 306 23 345 C 296.285 370.356 t 0 r /Helvetica findfont 22.8295 sf 0 0 m (2) show NC gr  84 620 m 306 X s 84 616 m 4 Y s 195 616 m 4 Y s 307 616 m 4 Y s 307 616 m 4 Y s 84 391 m 229 Y s 89 401 m -5 X s 87 407 m -3 X s 87 412 m -3 X s 87
 418 m -3 X s 87 423 m -3 X s 89 429 m -5 X s 87 435 m -3 X s 87 440 m -3 X s 87 446 m -3 X s 87 451 m -3 X s 89 457 m -5 X s 87 463 m -3 X s 87 468 m -3 X s 87 474 m -3 X s 87 479 m -3 X s 89 485 m -5 X s 87 490 m -3 X s 87 496 m -3 X s 87 502 m -3
 X s 87 507 m -3 X s 89 513 m -5 X s 87 518 m -3 X s 87 524 m -3 X s 87 529 m -3 X s 87 535 m -3 X s 89 541 m -5 X s 87 546 m -3 X s 87 552 m -3 X s 87 557 m -3 X s 87 563 m -3 X s 89 568 m -5 X s 87 574 m -3 X s 87 580 m -3 X s 87 585 m -3 X s 87
 591 m -3 X s 89 596 m -5 X s 89 401 m -5 X s 87 396 m -3 X s 89 596 m -5 X s 87 602 m -3 X s 87 608 m -3 X s 87 613 m -3 X s 87 619 m -3 X s
 gsave  408 306 23 345 C 31.3378 393.147 t 0 r /Helvetica findfont 22.8295 sf 0 0 m (\2550.01) show NC gr 
 gsave  408 306 23 345 C 14.2445 421.636 t 0 r /Helvetica findfont 22.8295 sf 0 0 m (\2550.005) show NC gr 
 gsave  408 306 23 345 C 65.5245 450.125 t 0 r /Helvetica findfont 22.8295 sf 0 0 m (0) show NC gr 
 gsave  408 306 23 345 C 22.7911 478.614 t 0 r /Helvetica findfont 22.8295 sf 0 0 m (0.005) show NC gr 
 gsave  408 306 23 345 C 37.0356 504.254 t 0 r /Helvetica findfont 22.8295 sf 0 0 m (0.01) show NC gr 
 gsave  408 306 23 345 C 22.7911 532.742 t 0 r /Helvetica findfont 22.8295 sf 0 0 m (0.015) show NC gr 
 gsave  408 306 23 345 C 34.1867 561.231 t 0 r /Helvetica findfont 22.8295 sf 0 0 m (0.02) show NC gr 
 gsave  408 306 23 345 C 22.7911 589.72 t 0 r /Helvetica findfont 22.8295 sf 0 0 m (0.025) show NC gr  390 391 m 229 Y s 385 401 m 5 X s 387 407 m 3 X s 387 412 m 3 X s 387 418 m 3 X s 387 423 m 3 X s 385 429 m 5 X s 387 435 m 3 X s 387 440 m 3 X s
 387 446 m 3 X s 387 451 m 3 X s 385 457 m 5 X s 387 463 m 3 X s 387 468 m 3 X s 387 474 m 3 X s 387 479 m 3 X s 385 485 m 5 X s 387 490 m 3 X s 387 496 m 3 X s 387 502 m 3 X s 387 507 m 3 X s 385 513 m 5 X s 387 518 m 3 X s 387 524 m 3 X s 387 529 m
 3 X s 387 535 m 3 X s 385 541 m 5 X s 387 546 m 3 X s 387 552 m 3 X s 387 557 m 3 X s 387 563 m 3 X s 385 568 m 5 X s 387 574 m 3 X s 387 580 m 3 X s 387 585 m 3 X s 387 591 m 3 X s 385 596 m 5 X s 385 401 m 5 X s 387 396 m 3 X s 385 596 m 5 X s 387
 602 m 3 X s 387 608 m 3 X s 387 613 m 3 X s 387 619 m 3 X s /w 22 def /w2 {w 2 div} def /w3 {w 3 div} def 112 451 140 472 195 447 251 459 307 536 362 563 6 { m21} R 112 462 m 26 Y s 106 488 m 11 X s 112 440 m -26 Y s 106 414 m 11 X s 140 483 m 26 Y
 s 134 509 m 11 X s 140 460 m -25 Y s 134 435 m 11 X s 195 459 m 25 Y s 190 484 m 11 X s 195 436 m -26 Y s 190 410 m 11 X s 251 470 m 26 Y s 245 496 m 12 X s 251 447 m -26 Y s 245 421 m 12 X s 307 547 m 26 Y s 301 573 m 11 X s 307 524 m -26 Y s 301
 498 m 11 X s 362 575 m 26 Y s 357 601 m 11 X s 362 552 m -27 Y s 357 525 m 11 X s 1 0 0 c 9 lw 0.95 0.95 0.95 c black 1 0 0 c 85 457 m 19 X 3 1 d 9 X 3 1 d 9 X 3 1 d 3 X 3 1 d 4 X 3 1 d 3 X 3 1 d 3 X 3 1 d 3 X 3 1 d 3 X 3 1 d 3 1 d 3 X 3 1 d 3 1 d 3
 1 d 3 X 4 1 d 3 1 d 3 1 d 3 1 d 3 1 d 3 1 d 3 1 d 3 1 d 3 1 d 3 1 d 3 1 d 3 1 d 3 1 d 3 1 d 3 1 d 3 1 d s 235 486 m 4 2 d 3 1 d 3 1 d 3 1 d 3 2 d 3 1 d 3 1 d 3 2 d 3 1 d 3 2 d 3 1 d 3 1 d 3 2 d 3 1 d 3 2 d 3 2 d 3 1 d 4 2 d 3 1 d 3 2 d 3 2 d 3 1 d 3
 2 d 3 2 d 3 2 d 3 1 d 3 2 d 3 2 d 3 2 d 3 2 d 3 2 d 3 2 d 3 2 d 4 2 d 3 2 d 3 2 d 3 2 d 3 2 d 3 2 d 3 2 d 3 2 d 3 3 d 3 2 d 3 2 d 3 2 d 3 3 d 3 2 d 3 2 d 3 3 d s 385 574 m 4 2 d s 0.49 0.6 0.82 c black 0.49 0.6 0.82 c
 gsave  408 306 23 345 C 142.445 629.605 t 0 r /Helvetica-Bold findfont 25.6831 sf 0 0 m (5.0 < E < 5.5 GeV) show NC gr  0.52 0.76 0.64 c black 0.52 0.76 0.64 c
 gsave  408 306 23 345 C 128.2 592.569 t 0 r /Helvetica-Bold findfont 25.6831 sf 0 0 m 
 220 206 192 185 170 163 148 141 126 118 111 97 83 69 61 47 40 25 18
(A = 0.003, p = 2.000) K NC gr  1 0.6 1 c black 1 0.6 1 c
 gsave  408 306 23 345 C 427.334 458.671 t 90 r /Helvetica-Bold findfont 28.5368 sf 0 0 m (/dof=0.3) show NC gr  black 1 0.6 1 c
 gsave  408 306 23 345 C 415.938 447.276 t 90 r /Helvetica-Bold findfont 19.9758 sf 0 0 m (2) show NC gr  black 1 0.6 1 c
 gsave  408 306 23 345 C 427.334 430.182 t 90 r /Symbol findfont 28.5368 sf 0 0 m (c) show NC gr  black 3 lw 1 1 1 c 408 306 476 345 bf black 1 1 1 c black 307 229 537 391 bl 307 229 537 391 bl 537 391 m 307 X s 537 395 m -4 Y s 649 395 m -4 Y s 760
 395 m -4 Y s 760 395 m -4 Y s
 gsave  408 306 476 345 C 527.045 370.356 t 0 r /Helvetica findfont 22.8295 sf 0 0 m (0) show NC gr 
 gsave  408 306 476 345 C 641 370.356 t 0 r /Helvetica findfont 22.8295 sf 0 0 m (1) show NC gr 
 gsave  408 306 476 345 C 749.258 370.356 t 0 r /Helvetica findfont 22.8295 sf 0 0 m (2) show NC gr  537 620 m 307 X s 537 616 m 4 Y s 649 616 m 4 Y s 760 616 m 4 Y s 760 616 m 4 Y s 537 391 m 229 Y s 543 419 m -6 X s 540 426 m -3 X s 540 433 m -3 X
 s 540 440 m -3 X s 540 446 m -3 X s 543 453 m -6 X s 540 460 m -3 X s 540 467 m -3 X s 540 474 m -3 X s 540 481 m -3 X s 543 488 m -6 X s 540 494 m -3 X s 540 501 m -3 X s 540 508 m -3 X s 540 515 m -3 X s 543 522 m -6 X s 540 529 m -3 X s 540 536 m
 -3 X s 540 542 m -3 X s 540 549 m -3 X s 543 556 m -6 X s 540 563 m -3 X s 540 570 m -3 X s 540 577 m -3 X s 540 584 m -3 X s 543 590 m -6 X s 543 419 m -6 X s 540 412 m -3 X s 540 405 m -3 X s 540 398 m -3 X s 540 392 m -3 X s 543 590 m -6 X s 540
 597 m -3 X s 540 604 m -3 X s 540 611 m -3 X s 540 618 m -3 X s
 gsave  408 306 476 345 C 518.498 413.089 t 0 r /Helvetica findfont 22.8295 sf 0 0 m (0) show NC gr 
 gsave  408 306 476 345 C 475.765 447.276 t 0 r /Helvetica findfont 22.8295 sf 0 0 m (0.005) show NC gr 
 gsave  408 306 476 345 C 490.009 481.462 t 0 r /Helvetica findfont 22.8295 sf 0 0 m (0.01) show NC gr 
 gsave  408 306 476 345 C 475.765 515.649 t 0 r /Helvetica findfont 22.8295 sf 0 0 m (0.015) show NC gr 
 gsave  408 306 476 345 C 487.16 549.836 t 0 r /Helvetica findfont 22.8295 sf 0 0 m (0.02) show NC gr 
 gsave  408 306 476 345 C 475.765 584.022 t 0 r /Helvetica findfont 22.8295 sf 0 0 m (0.025) show NC gr  844 391 m 229 Y s 838 419 m 6 X s 841 426 m 3 X s 841 433 m 3 X s 841 440 m 3 X s 841 446 m 3 X s 838 453 m 6 X s 841 460 m 3 X s 841 467 m 3 X s
 841 474 m 3 X s 841 481 m 3 X s 838 488 m 6 X s 841 494 m 3 X s 841 501 m 3 X s 841 508 m 3 X s 841 515 m 3 X s 838 522 m 6 X s 841 529 m 3 X s 841 536 m 3 X s 841 542 m 3 X s 841 549 m 3 X s 838 556 m 6 X s 841 563 m 3 X s 841 570 m 3 X s 841 577 m
 3 X s 841 584 m 3 X s 838 590 m 6 X s 838 419 m 6 X s 841 412 m 3 X s 841 405 m 3 X s 841 398 m 3 X s 841 392 m 3 X s 838 590 m 6 X s 841 597 m 3 X s 841 604 m 3 X s 841 611 m 3 X s 841 618 m 3 X s /w 23 def /w2 {w 2 div} def /w3 {w 3 div} def 565
 481 593 493 649 543 705 484 760 468 816 483 6 { m21} R 565 492 m 47 Y s 560 539 m 11 X s 565 470 m -47 Y s 560 423 m 11 X s 593 505 m 46 Y s 587 551 m 12 X s 593 482 m -46 Y s 587 436 m 12 X s 649 554 m 47 Y s 643 601 m 12 X s 649 532 m -47 Y s 643
 485 m 12 X s 705 495 m 46 Y s 699 541 m 11 X s 705 472 m -46 Y s 699 426 m 11 X s 760 479 m 46 Y s 755 525 m 11 X s 760 456 m -46 Y s 755 410 m 11 X s 816 495 m 46 Y s 810 541 m 12 X s 816 472 m -46 Y s 810 426 m 12 X s 9 lw 0.95 0.95 0.95 c black
 539 420 m 3 1 d 3 1 d 3 1 d 3 1 d 3 1 d 3 1 d 3 1 d 3 1 d 4 1 d 3 1 d 3 1 d 3 1 d 3 1 d 3 1 d 3 1 d 3 1 d 3 2 d 3 1 d 3 1 d 3 1 d 3 1 d 3 1 d 3 1 d 3 1 d 4 1 d 3 1 d 3 1 d 3 1 d 3 1 d 3 1 d 3 1 d 3 1 d 3 1 d 3 1 d 3 2 d 3 1 d 3 1 d 3 1 d 3 1 d 3 1 d
 3 1 d 4 1 d 3 1 d 3 1 d 3 1 d 3 1 d 3 1 d 3 1 d 3 1 d s 689 471 m 3 1 d 3 1 d 3 1 d 3 2 d 3 1 d 3 1 d 3 1 d 3 1 d 4 1 d 3 1 d 3 1 d 3 1 d 3 1 d 3 1 d 3 1 d 3 1 d 3 1 d 3 1 d 3 1 d 3 1 d 3 1 d 3 2 d 3 1 d 3 1 d 4 1 d 3 1 d 3 1 d 3 1 d 3 1 d 3 1 d 3 1
 d 3 1 d 3 1 d 3 1 d 3 1 d 3 1 d 3 1 d 3 1 d 3 1 d 3 2 d 4 1 d 3 1 d 3 1 d 3 1 d 3 1 d 3 1 d 3 1 d 3 1 d 3 1 d s 839 523 m 3 1 d s 0.49 0.6 0.82 c black 0.49 0.6 0.82 c
 gsave  408 306 476 345 C 595.418 629.605 t 0 r /Helvetica-Bold findfont 25.6831 sf 0 0 m (5.5 < E < 6.0 GeV) show NC gr  0.52 0.76 0.64 c black 0.52 0.76 0.64 c
 gsave  408 306 476 345 C 581.174 592.569 t 0 r /Helvetica-Bold findfont 25.6831 sf 0 0 m 
 220 206 192 185 170 163 148 141 125 118 111 97 83 68 61 47 40 25 18
(A = 0.006, p = 1.000) K NC gr  1 0.6 1 c black 1 0.6 1 c
 gsave  408 306 476 345 C 883.156 458.671 t 90 r /Helvetica-Bold findfont 28.5368 sf 0 0 m (/dof=0.9) show NC gr  black 1 0.6 1 c
 gsave  408 306 476 345 C 871.76 447.276 t 90 r /Helvetica-Bold findfont 19.9758 sf 0 0 m (2) show NC gr  black 1 0.6 1 c
 gsave  408 306 476 345 C 883.156 430.182 t 90 r /Symbol findfont 28.5368 sf 0 0 m (c) show NC gr  black 3 lw 1 1 1 c 408 306 930 345 bf black 1 1 1 c black 306 229 991 391 bl 306 229 991 391 bl 991 391 m 306 X s 991 395 m -4 Y s 1102 395 m -4 Y s
 1214 395 m -4 Y s 1214 395 m -4 Y s
 gsave  408 306 930 345 C 980.018 370.356 t 0 r /Helvetica findfont 22.8295 sf 0 0 m (0) show NC gr 
 gsave  408 306 930 345 C 1093.97 370.356 t 0 r /Helvetica findfont 22.8295 sf 0 0 m (1) show NC gr 
 gsave  408 306 930 345 C 1205.08 370.356 t 0 r /Helvetica findfont 22.8295 sf 0 0 m (2) show NC gr  991 620 m 306 X s 991 616 m 4 Y s 1102 616 m 4 Y s 1214 616 m 4 Y s 1214 616 m 4 Y s 991 391 m 229 Y s 997 408 m -6 X s 994 414 m -3 X s 994 420 m -3
 X s 994 426 m -3 X s 994 432 m -3 X s 997 438 m -6 X s 994 444 m -3 X s 994 450 m -3 X s 994 455 m -3 X s 994 461 m -3 X s 997 467 m -6 X s 994 473 m -3 X s 994 479 m -3 X s 994 485 m -3 X s 994 491 m -3 X s 997 497 m -6 X s 994 502 m -3 X s 994 508
 m -3 X s 994 514 m -3 X s 994 520 m -3 X s 997 526 m -6 X s 994 532 m -3 X s 994 538 m -3 X s 994 544 m -3 X s 994 550 m -3 X s 997 555 m -6 X s 994 561 m -3 X s 994 567 m -3 X s 994 573 m -3 X s 994 579 m -3 X s 997 585 m -6 X s 994 591 m -3 X s
 994 597 m -3 X s 994 602 m -3 X s 994 608 m -3 X s 997 614 m -6 X s 997 408 m -6 X s 994 402 m -3 X s 994 397 m -3 X s 997 614 m -6 X s
 gsave  408 306 930 345 C 937.285 401.694 t 0 r /Helvetica findfont 22.8295 sf 0 0 m (\2550.03) show NC gr 
 gsave  408 306 930 345 C 937.285 430.182 t 0 r /Helvetica findfont 22.8295 sf 0 0 m (\2550.02) show NC gr 
 gsave  408 306 930 345 C 940.134 458.671 t 0 r /Helvetica findfont 22.8295 sf 0 0 m (\2550.01) show NC gr 
 gsave  408 306 930 345 C 974.32 490.009 t 0 r /Helvetica findfont 22.8295 sf 0 0 m (0) show NC gr 
 gsave  408 306 930 345 C 945.832 518.498 t 0 r /Helvetica findfont 22.8295 sf 0 0 m (0.01) show NC gr 
 gsave  408 306 930 345 C 942.983 546.987 t 0 r /Helvetica findfont 22.8295 sf 0 0 m (0.02) show NC gr 
 gsave  408 306 930 345 C 942.983 578.325 t 0 r /Helvetica findfont 22.8295 sf 0 0 m (0.03) show NC gr 
 gsave  408 306 930 345 C 942.983 606.814 t 0 r /Helvetica findfont 22.8295 sf 0 0 m (0.04) show NC gr  1297 391 m 229 Y s 1292 408 m 5 X s 1294 414 m 3 X s 1294 420 m 3 X s 1294 426 m 3 X s 1294 432 m 3 X s 1292 438 m 5 X s 1294 444 m 3 X s 1294 450
 m 3 X s 1294 455 m 3 X s 1294 461 m 3 X s 1292 467 m 5 X s 1294 473 m 3 X s 1294 479 m 3 X s 1294 485 m 3 X s 1294 491 m 3 X s 1292 497 m 5 X s 1294 502 m 3 X s 1294 508 m 3 X s 1294 514 m 3 X s 1294 520 m 3 X s 1292 526 m 5 X s 1294 532 m 3 X s
 1294 538 m 3 X s 1294 544 m 3 X s 1294 550 m 3 X s 1292 555 m 5 X s 1294 561 m 3 X s 1294 567 m 3 X s 1294 573 m 3 X s 1294 579 m 3 X s 1292 585 m 5 X s 1294 591 m 3 X s 1294 597 m 3 X s 1294 602 m 3 X s 1294 608 m 3 X s 1292 614 m 5 X s 1292 408 m
 5 X s 1294 402 m 3 X s 1294 397 m 3 X s 1292 614 m 5 X s 1019 440 1047 491 1102 526 1158 476 1214 570 1270 536 6 { m21} R 1019 451 m 18 Y s 1013 469 m 12 X s 1019 428 m -18 Y s 1013 410 m 12 X s 1047 502 m 19 Y s 1041 521 m 11 X s 1047 480 m -19 Y s
 1041 461 m 11 X s 1102 537 m 19 Y s 1097 556 m 11 X s 1102 514 m -19 Y s 1097 495 m 11 X s 1158 488 m 18 Y s 1152 506 m 12 X s 1158 465 m -18 Y s 1152 447 m 12 X s 1214 582 m 19 Y s 1208 601 m 12 X s 1214 559 m -19 Y s 1208 540 m 12 X s 1270 547 m
 19 Y s 1264 566 m 11 X s 1270 524 m -18 Y s 1264 506 m 11 X s 1 0 0 c 9 lw 0.95 0.95 0.95 c black 1 0 0 c 993 497 m 33 X 3 1 d 13 X 3 1 d 9 X 3 1 d 9 X 3 1 d 6 X 3 1 d 6 X 3 1 d 3 X 4 1 d 3 X 3 1 d 6 X 3 1 d 3 X 3 1 d 3 X 3 1 d 3 1 d 3 X 3 1 d 3 X 3
 1 d 3 X 4 1 d s 1143 512 m 3 1 d 3 X 3 1 d 3 1 d 3 X 3 1 d 3 1 d 3 1 d 3 X 3 1 d 3 1 d 3 1 d 3 X 3 1 d 3 1 d 4 1 d 3 1 d 3 X 3 1 d 3 1 d 3 1 d 3 1 d 3 1 d 3 1 d 3 1 d 3 1 d 3 1 d 3 1 d 3 1 d 3 1 d 3 1 d 3 1 d 4 1 d 3 1 d 3 1 d 3 1 d 3 1 d 3 1 d 3 1
 d 3 1 d 3 1 d 3 2 d 3 1 d 3 1 d 3 1 d 3 1 d 3 2 d 3 1 d 4 1 d s 1293 558 m 3 1 d s 0.49 0.6 0.82 c black 0.49 0.6 0.82 c
 gsave  408 306 930 345 C 1051.24 629.605 t 0 r /Helvetica-Bold findfont 25.6831 sf 0 0 m (6.0 < E < 6.5 GeV) show NC gr  0.52 0.76 0.64 c black 0.52 0.76 0.64 c
 gsave  408 306 930 345 C 1037 592.569 t 0 r /Helvetica-Bold findfont 25.6831 sf 0 0 m 
 220 206 192 185 170 163 148 141 125 118 111 97 83 69 61 47 40 25 18
(A = 0.003, p = 2.000) K NC gr  1 0.6 1 c black 1 0.6 1 c
 gsave  408 306 930 345 C 1336.13 458.671 t 90 r /Helvetica-Bold findfont 28.5368 sf 0 0 m (/dof=1.6) show NC gr  black 1 0.6 1 c
 gsave  408 306 930 345 C 1324.73 447.276 t 90 r /Helvetica-Bold findfont 19.9758 sf 0 0 m (2) show NC gr  black 1 0.6 1 c
 gsave  408 306 930 345 C 1336.13 430.182 t 90 r /Symbol findfont 28.5368 sf 0 0 m (c) show NC gr  black 3 lw 1 1 1 c 408 306 1383 345 bf black 1 1 1 c black 306 229 1445 391 bl 306 229 1445 391 bl 1445 391 m 306 X s 1445 395 m -4 Y s 1556 395 m -4 Y
 s 1667 395 m -4 Y s 1667 395 m -4 Y s
 gsave  408 306 1383 345 C 1435.84 370.356 t 0 r /Helvetica findfont 22.8295 sf 0 0 m (0) show NC gr 
 gsave  408 306 1383 345 C 1549.8 370.356 t 0 r /Helvetica findfont 22.8295 sf 0 0 m (1) show NC gr 
 gsave  408 306 1383 345 C 1658.05 370.356 t 0 r /Helvetica findfont 22.8295 sf 0 0 m (2) show NC gr  1445 620 m 306 X s 1445 616 m 4 Y s 1556 616 m 4 Y s 1667 616 m 4 Y s 1667 616 m 4 Y s 1445 391 m 229 Y s 1450 391 m -5 X s 1447 397 m -2 X s 1447
 404 m -2 X s 1447 410 m -2 X s 1447 417 m -2 X s 1450 423 m -5 X s 1447 430 m -2 X s 1447 436 m -2 X s 1447 442 m -2 X s 1447 449 m -2 X s 1450 455 m -5 X s 1447 462 m -2 X s 1447 468 m -2 X s 1447 474 m -2 X s 1447 481 m -2 X s 1450 487 m -5 X s
 1447 494 m -2 X s 1447 500 m -2 X s 1447 507 m -2 X s 1447 513 m -2 X s 1450 519 m -5 X s 1447 526 m -2 X s 1447 532 m -2 X s 1447 539 m -2 X s 1447 545 m -2 X s 1450 552 m -5 X s 1447 558 m -2 X s 1447 564 m -2 X s 1447 571 m -2 X s 1447 577 m -2 X
 s 1450 584 m -5 X s 1447 590 m -2 X s 1447 596 m -2 X s 1447 603 m -2 X s 1447 609 m -2 X s 1450 616 m -5 X s 1450 391 m -5 X s 1450 616 m -5 X s
 gsave  408 306 1383 345 C 1390.26 384.6 t 0 r /Helvetica findfont 22.8295 sf 0 0 m (\2550.03) show NC gr 
 gsave  408 306 1383 345 C 1390.26 415.938 t 0 r /Helvetica findfont 22.8295 sf 0 0 m (\2550.02) show NC gr 
 gsave  408 306 1383 345 C 1393.11 447.276 t 0 r /Helvetica findfont 22.8295 sf 0 0 m (\2550.01) show NC gr 
 gsave  408 306 1383 345 C 1427.29 481.462 t 0 r /Helvetica findfont 22.8295 sf 0 0 m (0) show NC gr 
 gsave  408 306 1383 345 C 1398.81 512.8 t 0 r /Helvetica findfont 22.8295 sf 0 0 m (0.01) show NC gr 
 gsave  408 306 1383 345 C 1395.96 544.138 t 0 r /Helvetica findfont 22.8295 sf 0 0 m (0.02) show NC gr 
 gsave  408 306 1383 345 C 1395.96 575.476 t 0 r /Helvetica findfont 22.8295 sf 0 0 m (0.03) show NC gr 
 gsave  408 306 1383 345 C 1395.96 609.662 t 0 r /Helvetica findfont 22.8295 sf 0 0 m (0.04) show NC gr  1751 391 m 229 Y s 1745 391 m 6 X s 1748 397 m 3 X s 1748 404 m 3 X s 1748 410 m 3 X s 1748 417 m 3 X s 1745 423 m 6 X s 1748 430 m 3 X s 1748
 436 m 3 X s 1748 442 m 3 X s 1748 449 m 3 X s 1745 455 m 6 X s 1748 462 m 3 X s 1748 468 m 3 X s 1748 474 m 3 X s 1748 481 m 3 X s 1745 487 m 6 X s 1748 494 m 3 X s 1748 500 m 3 X s 1748 507 m 3 X s 1748 513 m 3 X s 1745 519 m 6 X s 1748 526 m 3 X s
 1748 532 m 3 X s 1748 539 m 3 X s 1748 545 m 3 X s 1745 552 m 6 X s 1748 558 m 3 X s 1748 564 m 3 X s 1748 571 m 3 X s 1748 577 m 3 X s 1745 584 m 6 X s 1748 590 m 3 X s 1748 596 m 3 X s 1748 603 m 3 X s 1748 609 m 3 X s 1745 616 m 6 X s 1745 391 m
 6 X s 1745 616 m 6 X s 1472 509 1500 526 1556 448 1612 538 1667 487 1723 562 6 { m21} R 1472 520 m 27 Y s 1467 547 m 11 X s 1472 498 m -28 Y s 1467 470 m 11 X s 1500 537 m 27 Y s 1495 564 m 11 X s 1500 514 m -27 Y s 1495 487 m 11 X s 1556 459 m 27 Y
 s 1550 486 m 12 X s 1556 437 m -27 Y s 1550 410 m 12 X s 1612 550 m 27 Y s 1606 577 m 11 X s 1612 527 m -28 Y s 1606 499 m 11 X s 1667 498 m 27 Y s 1662 525 m 11 X s 1667 475 m -27 Y s 1662 448 m 11 X s 1723 573 m 28 Y s 1717 601 m 12 X s 1723 550 m
 -27 Y s 1717 523 m 12 X s 1 0 0 c 9 lw 0.95 0.95 0.95 c black 1 0 0 c 1446 487 m 12 X 3 1 d 22 X 3 1 d 12 X 3 1 d 9 X 3 1 d 7 X 3 1 d 6 X 3 1 d 3 X 3 1 d 6 X 3 1 d 3 X 3 1 d 3 X 3 1 d 3 X 3 1 d 4 X 3 1 d 3 X 3 1 d 3 1 d 3 X 3 1 d 3 X 3 1 d 3 1 d s
 1596 504 m 3 X 3 1 d 3 1 d 3 1 d 3 X 3 1 d 4 1 d 3 1 d 3 X 3 1 d 3 1 d 3 1 d 3 1 d 3 X 3 1 d 3 1 d 3 1 d 3 1 d 3 1 d 3 1 d 3 1 d 3 1 d 3 1 d 4 1 d 3 1 d 3 1 d 3 1 d 3 1 d 3 1 d 3 1 d 3 1 d 3 1 d 3 1 d 3 1 d 3 1 d 3 1 d 3 2 d 3 1 d 3 1 d 4 1 d 3 1 d
 3 2 d 3 1 d 3 1 d 3 1 d 3 2 d 3 1 d 3 1 d 3 1 d s 1746 552 m 3 2 d s 0.49 0.6 0.82 c black 0.49 0.6 0.82 c
 gsave  408 306 1383 345 C 1504.21 629.605 t 0 r /Helvetica-Bold findfont 25.6831 sf 0 0 m (6.5 < E < 7.0 GeV) show NC gr  0.52 0.76 0.64 c black 0.52 0.76 0.64 c
 gsave  408 306 1383 345 C 1489.97 592.569 t 0 r /Helvetica-Bold findfont 25.6831 sf 0 0 m 
 220 206 192 185 170 163 148 141 126 118 111 97 83 69 61 47 40 25 18
(A = 0.003, p = 2.000) K NC gr  1 0.6 1 c black 1 0.6 1 c
 gsave  408 306 1383 345 C 1789.1 458.671 t 90 r /Helvetica-Bold findfont 28.5368 sf 0 0 m (/dof=0.9) show NC gr  black 1 0.6 1 c
 gsave  408 306 1383 345 C 1777.71 447.276 t 90 r /Helvetica-Bold findfont 19.9758 sf 0 0 m (2) show NC gr  black 1 0.6 1 c
 gsave  408 306 1383 345 C 1789.1 430.182 t 90 r /Symbol findfont 28.5368 sf 0 0 m (c) show NC gr  black 3 lw 1 1 1 c 408 306 1837 345 bf black 1 1 1 c black 306 229 1898 391 bl 306 229 1898 391 bl 1898 391 m 306 X s 1898 395 m -4 Y s 2010 395 m -4 Y
 s 2121 395 m -4 Y s 2121 395 m -4 Y s
 gsave  408 306 1837 345 C 1888.81 370.356 t 0 r /Helvetica findfont 22.8295 sf 0 0 m (0) show NC gr 
 gsave  408 306 1837 345 C 2002.77 370.356 t 0 r /Helvetica findfont 22.8295 sf 0 0 m (1) show NC gr 
 gsave  408 306 1837 345 C 2111.03 370.356 t 0 r /Helvetica findfont 22.8295 sf 0 0 m (2) show NC gr  1898 620 m 306 X s 1898 616 m 4 Y s 2010 616 m 4 Y s 2121 616 m 4 Y s 2121 616 m 4 Y s 1898 391 m 229 Y s 1904 412 m -6 X s 1901 417 m -3 X s 1901
 423 m -3 X s 1901 429 m -3 X s 1901 435 m -3 X s 1904 441 m -6 X s 1901 447 m -3 X s 1901 453 m -3 X s 1901 459 m -3 X s 1901 465 m -3 X s 1904 471 m -6 X s 1901 477 m -3 X s 1901 483 m -3 X s 1901 489 m -3 X s 1901 495 m -3 X s 1904 501 m -6 X s
 1901 507 m -3 X s 1901 513 m -3 X s 1901 519 m -3 X s 1901 525 m -3 X s 1904 531 m -6 X s 1901 537 m -3 X s 1901 542 m -3 X s 1901 548 m -3 X s 1901 554 m -3 X s 1904 560 m -6 X s 1901 566 m -3 X s 1901 572 m -3 X s 1901 578 m -3 X s 1901 584 m -3 X
 s 1904 590 m -6 X s 1901 596 m -3 X s 1901 602 m -3 X s 1901 608 m -3 X s 1901 614 m -3 X s 1904 620 m -6 X s 1904 412 m -6 X s 1901 406 m -3 X s 1901 400 m -3 X s 1901 394 m -3 X s 1904 620 m -6 X s
 gsave  408 306 1837 345 C 1843.23 404.542 t 0 r /Helvetica findfont 22.8295 sf 0 0 m (\2550.02) show NC gr 
 gsave  408 306 1837 345 C 1846.08 433.031 t 0 r /Helvetica findfont 22.8295 sf 0 0 m (\2550.01) show NC gr 
 gsave  408 306 1837 345 C 1880.27 464.369 t 0 r /Helvetica findfont 22.8295 sf 0 0 m (0) show NC gr 
 gsave  408 306 1837 345 C 1851.78 492.858 t 0 r /Helvetica findfont 22.8295 sf 0 0 m (0.01) show NC gr 
 gsave  408 306 1837 345 C 1848.93 524.196 t 0 r /Helvetica findfont 22.8295 sf 0 0 m (0.02) show NC gr 
 gsave  408 306 1837 345 C 1848.93 552.685 t 0 r /Helvetica findfont 22.8295 sf 0 0 m (0.03) show NC gr 
 gsave  408 306 1837 345 C 1848.93 584.022 t 0 r /Helvetica findfont 22.8295 sf 0 0 m (0.04) show NC gr 
 gsave  408 306 1837 345 C 1848.93 612.511 t 0 r /Helvetica findfont 22.8295 sf 0 0 m (0.05) show NC gr  2204 391 m 229 Y s 2199 412 m 5 X s 2201 417 m 3 X s 2201 423 m 3 X s 2201 429 m 3 X s 2201 435 m 3 X s 2199 441 m 5 X s 2201 447 m 3 X s 2201
 453 m 3 X s 2201 459 m 3 X s 2201 465 m 3 X s 2199 471 m 5 X s 2201 477 m 3 X s 2201 483 m 3 X s 2201 489 m 3 X s 2201 495 m 3 X s 2199 501 m 5 X s 2201 507 m 3 X s 2201 513 m 3 X s 2201 519 m 3 X s 2201 525 m 3 X s 2199 531 m 5 X s 2201 537 m 3 X s
 2201 542 m 3 X s 2201 548 m 3 X s 2201 554 m 3 X s 2199 560 m 5 X s 2201 566 m 3 X s 2201 572 m 3 X s 2201 578 m 3 X s 2201 584 m 3 X s 2199 590 m 5 X s 2201 596 m 3 X s 2201 602 m 3 X s 2201 608 m 3 X s 2201 614 m 3 X s 2199 620 m 5 X s 2199 412 m
 5 X s 2201 406 m 3 X s 2201 400 m 3 X s 2201 394 m 3 X s 2199 620 m 5 X s 1926 550 1954 450 2010 503 2065 511 2121 500 2177 560 6 { m21} R 1926 562 m 30 Y s 1920 592 m 12 X s 1926 539 m -30 Y s 1920 509 m 12 X s 1954 462 m 28 Y s 1948 490 m 11 X s
 1954 439 m -29 Y s 1948 410 m 11 X s 2010 514 m 29 Y s 2004 543 m 11 X s 2010 491 m -29 Y s 2004 462 m 11 X s 2065 523 m 29 Y s 2060 552 m 11 X s 2065 500 m -29 Y s 2060 471 m 11 X s 2121 511 m 30 Y s 2115 541 m 12 X s 2121 489 m -30 Y s 2115 459 m
 12 X s 2177 571 m 30 Y s 2171 601 m 11 X s 2177 548 m -30 Y s 2171 518 m 11 X s 9 lw 0.95 0.95 0.95 c black 1900 471 m 3 1 d 3 1 d 3 1 d 3 X 3 1 d 3 1 d 3 1 d 3 X 3 1 d 3 1 d 3 1 d 3 X 3 1 d 3 1 d 4 1 d 3 X 3 1 d 3 1 d 3 1 d 3 1 d 3 X 3 1 d 3 1 d 3
 1 d 3 X 3 1 d 3 1 d 3 1 d 3 X 3 1 d 4 1 d 3 1 d 3 X 3 1 d 3 1 d 3 1 d 3 X 3 1 d 3 1 d 3 1 d 3 X 3 1 d 3 1 d 3 1 d 3 X 3 1 d 3 1 d 4 1 d 3 X s 2050 508 m 3 1 d 3 1 d 3 1 d 3 X 3 1 d 3 1 d 3 1 d 3 X 3 1 d 3 1 d 3 1 d 3 X 3 1 d 3 1 d 4 1 d 3 X 3 1 d 3
 1 d 3 1 d 3 X 3 1 d 3 1 d 3 1 d 3 X 3 1 d 3 1 d 3 1 d 3 X 3 1 d 3 1 d 4 1 d 3 1 d 3 X 3 1 d 3 1 d 3 1 d 3 X 3 1 d 3 1 d 3 1 d 3 X 3 1 d 3 1 d 3 1 d 3 X 3 1 d 4 1 d 3 1 d 3 X s 2200 545 m 3 1 d s 0.49 0.6 0.82 c black 0.49 0.6 0.82 c
 gsave  408 306 1837 345 C 1957.19 629.605 t 0 r /Helvetica-Bold findfont 25.6831 sf 0 0 m (7.0 < E < 7.5 GeV) show NC gr  0.52 0.76 0.64 c black 0.52 0.76 0.64 c
 gsave  408 306 1837 345 C 1942.94 592.569 t 0 r /Helvetica-Bold findfont 25.6831 sf 0 0 m 
 220 206 192 185 170 163 148 141 125 118 111 97 83 69 61 47 40 25 18
(A = 0.009, p = 1.000) K NC gr  1 0.6 1 c black 1 0.6 1 c
 gsave  408 306 1837 345 C 2242.08 458.671 t 90 r /Helvetica-Bold findfont 28.5368 sf 0 0 m (/dof=0.9) show NC gr  black 1 0.6 1 c
 gsave  408 306 1837 345 C 2230.68 447.276 t 90 r /Helvetica-Bold findfont 19.9758 sf 0 0 m (2) show NC gr  black 1 0.6 1 c
 gsave  408 306 1837 345 C 2242.08 430.182 t 90 r /Symbol findfont 28.5368 sf 0 0 m (c) show NC gr  black 3 lw 1 1 1 c 408 306 23 13 bf black 1 1 1 c black 306 229 84 59 bl 306 229 84 59 bl 84 59 m 306 X s 84 63 m -4 Y s 195 63 m -4 Y s 307 63 m -4 Y
 s 307 63 m -4 Y s
 gsave  408 306 23 13 C 74.0711 39.8845 t 0 r /Helvetica findfont 22.8295 sf 0 0 m (0) show NC gr 
 gsave  408 306 23 13 C 188.027 39.8845 t 0 r /Helvetica findfont 22.8295 sf 0 0 m (1) show NC gr 
 gsave  408 306 23 13 C 296.285 39.8845 t 0 r /Helvetica findfont 22.8295 sf 0 0 m (2) show NC gr  84 288 m 306 X s 84 284 m 4 Y s 195 284 m 4 Y s 307 284 m 4 Y s 307 284 m 4 Y s 84 59 m 229 Y s 89 91 m -5 X s 87 99 m -3 X s 87 106 m -3 X s 87 114 m
 -3 X s 87 122 m -3 X s 89 130 m -5 X s 87 138 m -3 X s 87 146 m -3 X s 87 154 m -3 X s 87 162 m -3 X s 89 170 m -5 X s 87 178 m -3 X s 87 186 m -3 X s 87 194 m -3 X s 87 202 m -3 X s 89 210 m -5 X s 87 218 m -3 X s 87 226 m -3 X s 87 234 m -3 X s 87
 242 m -3 X s 89 250 m -5 X s 89 91 m -5 X s 87 83 m -3 X s 87 75 m -3 X s 87 67 m -3 X s 89 250 m -5 X s 87 258 m -3 X s 87 266 m -3 X s 87 274 m -3 X s 87 281 m -3 X s
 gsave  408 306 23 13 C 28.4889 82.6178 t 0 r /Helvetica findfont 22.8295 sf 0 0 m (\2550.02) show NC gr 
 gsave  408 306 23 13 C 31.3378 122.502 t 0 r /Helvetica findfont 22.8295 sf 0 0 m (\2550.01) show NC gr 
 gsave  408 306 23 13 C 65.5245 162.387 t 0 r /Helvetica findfont 22.8295 sf 0 0 m (0) show NC gr 
 gsave  408 306 23 13 C 37.0356 202.271 t 0 r /Helvetica findfont 22.8295 sf 0 0 m (0.01) show NC gr 
 gsave  408 306 23 13 C 34.1867 242.156 t 0 r /Helvetica findfont 22.8295 sf 0 0 m (0.02) show NC gr  390 59 m 229 Y s 385 91 m 5 X s 387 99 m 3 X s 387 106 m 3 X s 387 114 m 3 X s 387 122 m 3 X s 385 130 m 5 X s 387 138 m 3 X s 387 146 m 3 X s 387
 154 m 3 X s 387 162 m 3 X s 385 170 m 5 X s 387 178 m 3 X s 387 186 m 3 X s 387 194 m 3 X s 387 202 m 3 X s 385 210 m 5 X s 387 218 m 3 X s 387 226 m 3 X s 387 234 m 3 X s 387 242 m 3 X s 385 250 m 5 X s 385 91 m 5 X s 387 83 m 3 X s 387 75 m 3 X s
 387 67 m 3 X s 385 250 m 5 X s 387 258 m 3 X s 387 266 m 3 X s 387 274 m 3 X s 387 281 m 3 X s /w 22 def /w2 {w 2 div} def /w3 {w 3 div} def 112 137 140 209 195 195 251 165 307 138 362 174 6 { m21} R 112 149 m 47 Y s 106 196 m 11 X s 112 126 m -48 Y
 s 106 78 m 11 X s 140 221 m 48 Y s 134 269 m 11 X s 140 198 m -48 Y s 134 150 m 11 X s 195 206 m 49 Y s 190 255 m 11 X s 195 184 m -48 Y s 190 136 m 11 X s 251 176 m 48 Y s 245 224 m 12 X s 251 153 m -48 Y s 245 105 m 12 X s 307 150 m 47 Y s 301 197
 m 11 X s 307 127 m -48 Y s 301 79 m 11 X s 362 186 m 48 Y s 357 234 m 11 X s 362 163 m -48 Y s 357 115 m 11 X s 1 0 0 c 9 lw 0.95 0.95 0.95 c black 1 0 0 c 85 170 m 71 X 3 -1 d 46 X 3 -1 d 27 X s 235 168 m 4 -1 d 24 X 3 -1 d 21 X 4 -1 d 18 X 3 -1 d
 15 X 3 -1 d 16 X 3 -1 d 12 X 3 -1 d 12 X 3 -1 d 6 X s 385 160 m 4 X s 0.49 0.6 0.82 c black 0.49 0.6 0.82 c
 gsave  408 306 23 13 C 142.445 296.285 t 0 r /Helvetica-Bold findfont 25.6831 sf 0 0 m (7.5 < E < 8.0 GeV) show NC gr  0.52 0.76 0.64 c black 0.52 0.76 0.64 c
 gsave  408 306 23 13 C 122.502 259.249 t 0 r /Helvetica-Bold findfont 25.6831 sf 0 0 m 
 228 214 200 193 178 171 156 149 134 126 119 105 91 77 69 55 47 39 25 17
(A = \2550.000, p = 2.000) K NC gr  1 0.6 1 c black 1 0.6 1 c
 gsave  408 306 23 13 C 427.334 128.2 t 90 r /Helvetica-Bold findfont 28.5368 sf 0 0 m (/dof=0.2) show NC gr  black 1 0.6 1 c
 gsave  408 306 23 13 C 415.938 116.804 t 90 r /Helvetica-Bold findfont 19.9758 sf 0 0 m (2) show NC gr  black 1 0.6 1 c
 gsave  408 306 23 13 C 427.334 99.7112 t 90 r /Symbol findfont 28.5368 sf 0 0 m (c) show NC gr  black 3 lw 1 1 1 c 408 306 476 13 bf black 1 1 1 c black 307 229 537 59 bl 307 229 537 59 bl 537 59 m 307 X s 537 63 m -4 Y s 649 63 m -4 Y s 760 63 m -4
 Y s 760 63 m -4 Y s
 gsave  408 306 476 13 C 527.045 39.8845 t 0 r /Helvetica findfont 22.8295 sf 0 0 m (0) show NC gr 
 gsave  408 306 476 13 C 641 39.8845 t 0 r /Helvetica findfont 22.8295 sf 0 0 m (1) show NC gr 
 gsave  408 306 476 13 C 749.258 39.8845 t 0 r /Helvetica findfont 22.8295 sf 0 0 m (2) show NC gr  537 288 m 307 X s 537 284 m 4 Y s 649 284 m 4 Y s 760 284 m 4 Y s 760 284 m 4 Y s 537 59 m 229 Y s 543 75 m -6 X s 540 86 m -3 X s 540 97 m -3 X s 540
 109 m -3 X s 543 120 m -6 X s 540 131 m -3 X s 540 142 m -3 X s 540 154 m -3 X s 543 165 m -6 X s 540 176 m -3 X s 540 187 m -3 X s 540 199 m -3 X s 543 210 m -6 X s 540 221 m -3 X s 540 233 m -3 X s 540 244 m -3 X s 543 255 m -6 X s 543 75 m -6 X s
 540 64 m -3 X s 543 255 m -6 X s 540 266 m -3 X s 540 278 m -3 X s
 gsave  408 306 476 13 C 481.462 68.3734 t 0 r /Helvetica findfont 22.8295 sf 0 0 m (\2550.06) show NC gr 
 gsave  408 306 476 13 C 481.462 113.956 t 0 r /Helvetica findfont 22.8295 sf 0 0 m (\2550.04) show NC gr 
 gsave  408 306 476 13 C 481.462 156.689 t 0 r /Helvetica findfont 22.8295 sf 0 0 m (\2550.02) show NC gr 
 gsave  408 306 476 13 C 518.498 202.271 t 0 r /Helvetica findfont 22.8295 sf 0 0 m (0) show NC gr 
 gsave  408 306 476 13 C 487.16 247.853 t 0 r /Helvetica findfont 22.8295 sf 0 0 m (0.02) show NC gr  844 59 m 229 Y s 838 75 m 6 X s 841 86 m 3 X s 841 97 m 3 X s 841 109 m 3 X s 838 120 m 6 X s 841 131 m 3 X s 841 142 m 3 X s 841 154 m 3 X s 838
 165 m 6 X s 841 176 m 3 X s 841 187 m 3 X s 841 199 m 3 X s 838 210 m 6 X s 841 221 m 3 X s 841 233 m 3 X s 841 244 m 3 X s 838 255 m 6 X s 838 75 m 6 X s 841 64 m 3 X s 838 255 m 6 X s 841 266 m 3 X s 841 278 m 3 X s /w 23 def /w2 {w 2 div} def /w3
 {w 3 div} def 565 218 593 114 649 172 705 227 760 183 816 232 6 { m21} R 565 229 m 25 Y s 560 254 m 11 X s 565 206 m -25 Y s 560 181 m 11 X s 593 125 m 24 Y s 587 149 m 12 X s 593 102 m -24 Y s 587 78 m 12 X s 649 184 m 24 Y s 643 208 m 12 X s 649
 161 m -25 Y s 643 136 m 12 X s 705 238 m 25 Y s 699 263 m 11 X s 705 215 m -25 Y s 699 190 m 11 X s 760 194 m 25 Y s 755 219 m 11 X s 760 171 m -24 Y s 755 147 m 11 X s 816 244 m 25 Y s 810 269 m 12 X s 816 221 m -25 Y s 810 196 m 12 X s 9 lw 0.95
 0.95 0.95 c black 539 210 m 9 X 3 -1 d 22 X 3 -1 d 21 X 3 -1 d 22 X 3 -1 d 24 X 3 -1 d 22 X 3 -1 d 12 X s 689 204 m 9 X 3 -1 d 22 X 3 -1 d 21 X 3 -1 d 22 X 3 -1 d 21 X 3 -1 d 22 X 3 -1 d 15 X s 839 198 m 3 X s 0.49 0.6 0.82 c black 0.49 0.6 0.82 c
 gsave  408 306 476 13 C 595.418 296.285 t 0 r /Helvetica-Bold findfont 25.6831 sf 0 0 m (8.0 < E < 8.5 GeV) show NC gr  0.52 0.76 0.64 c black 0.52 0.76 0.64 c
 gsave  408 306 476 13 C 575.476 259.249 t 0 r /Helvetica-Bold findfont 25.6831 sf 0 0 m 
 228 214 200 193 178 171 156 149 133 126 119 105 91 76 69 55 47 39 25 17
(A = \2550.002, p = 1.000) K NC gr  1 0.6 1 c black 1 0.6 1 c
 gsave  408 306 476 13 C 883.156 128.2 t 90 r /Helvetica-Bold findfont 28.5368 sf 0 0 m (/dof=1.9) show NC gr  black 1 0.6 1 c
 gsave  408 306 476 13 C 871.76 116.804 t 90 r /Helvetica-Bold findfont 19.9758 sf 0 0 m (2) show NC gr  black 1 0.6 1 c
 gsave  408 306 476 13 C 883.156 99.7112 t 90 r /Symbol findfont 28.5368 sf 0 0 m (c) show NC gr  black 3 lw 1 1 1 c 408 306 930 13 bf black 1 1 1 c black 306 229 991 59 bl 306 229 991 59 bl 991 59 m 306 X s 991 63 m -4 Y s 1102 63 m -4 Y s 1214 63 m
 -4 Y s 1214 63 m -4 Y s
 gsave  408 306 930 13 C 980.018 39.8845 t 0 r /Helvetica findfont 22.8295 sf 0 0 m (0) show NC gr 
 gsave  408 306 930 13 C 1093.97 39.8845 t 0 r /Helvetica findfont 22.8295 sf 0 0 m (1) show NC gr 
 gsave  408 306 930 13 C 1205.08 39.8845 t 0 r /Helvetica findfont 22.8295 sf 0 0 m (2) show NC gr  991 288 m 306 X s 991 284 m 4 Y s 1102 284 m 4 Y s 1214 284 m 4 Y s 1214 284 m 4 Y s 991 59 m 229 Y s 997 60 m -6 X s 994 65 m -3 X s 994 69 m -3 X s
 994 74 m -3 X s 994 79 m -3 X s 997 83 m -6 X s 994 88 m -3 X s 994 92 m -3 X s 994 97 m -3 X s 994 102 m -3 X s 997 106 m -6 X s 994 111 m -3 X s 994 116 m -3 X s 994 120 m -3 X s 994 125 m -3 X s 997 130 m -6 X s 994 134 m -3 X s 994 139 m -3 X s
 994 143 m -3 X s 994 148 m -3 X s 997 153 m -6 X s 994 157 m -3 X s 994 162 m -3 X s 994 167 m -3 X s 994 171 m -3 X s 997 176 m -6 X s 994 181 m -3 X s 994 185 m -3 X s 994 190 m -3 X s 994 194 m -3 X s 997 199 m -6 X s 994 204 m -3 X s 994 208 m
 -3 X s 994 213 m -3 X s 994 218 m -3 X s 997 222 m -6 X s 994 227 m -3 X s 994 231 m -3 X s 994 236 m -3 X s 994 241 m -3 X s 997 245 m -6 X s 994 250 m -3 X s 994 255 m -3 X s 994 259 m -3 X s 994 264 m -3 X s 997 269 m -6 X s 997 60 m -6 X s 997
 269 m -6 X s 994 273 m -3 X s 994 278 m -3 X s 994 282 m -3 X s 994 287 m -3 X s
 gsave  408 306 930 13 C 937.285 54.1289 t 0 r /Helvetica findfont 22.8295 sf 0 0 m (\2550.06) show NC gr 
 gsave  408 306 930 13 C 937.285 76.92 t 0 r /Helvetica findfont 22.8295 sf 0 0 m (\2550.05) show NC gr 
 gsave  408 306 930 13 C 937.285 99.7112 t 0 r /Helvetica findfont 22.8295 sf 0 0 m (\2550.04) show NC gr 
 gsave  408 306 930 13 C 937.285 122.502 t 0 r /Helvetica findfont 22.8295 sf 0 0 m (\2550.03) show NC gr 
 gsave  408 306 930 13 C 937.285 145.293 t 0 r /Helvetica findfont 22.8295 sf 0 0 m (\2550.02) show NC gr 
 gsave  408 306 930 13 C 940.134 168.085 t 0 r /Helvetica findfont 22.8295 sf 0 0 m (\2550.01) show NC gr 
 gsave  408 306 930 13 C 974.32 190.876 t 0 r /Helvetica findfont 22.8295 sf 0 0 m (0) show NC gr 
 gsave  408 306 930 13 C 945.832 216.516 t 0 r /Helvetica findfont 22.8295 sf 0 0 m (0.01) show NC gr 
 gsave  408 306 930 13 C 942.983 239.307 t 0 r /Helvetica findfont 22.8295 sf 0 0 m (0.02) show NC gr 
 gsave  408 306 930 13 C 942.983 262.098 t 0 r /Helvetica findfont 22.8295 sf 0 0 m (0.03) show NC gr  1297 59 m 229 Y s 1292 60 m 5 X s 1294 65 m 3 X s 1294 69 m 3 X s 1294 74 m 3 X s 1294 79 m 3 X s 1292 83 m 5 X s 1294 88 m 3 X s 1294 92 m 3 X s
 1294 97 m 3 X s 1294 102 m 3 X s 1292 106 m 5 X s 1294 111 m 3 X s 1294 116 m 3 X s 1294 120 m 3 X s 1294 125 m 3 X s 1292 130 m 5 X s 1294 134 m 3 X s 1294 139 m 3 X s 1294 143 m 3 X s 1294 148 m 3 X s 1292 153 m 5 X s 1294 157 m 3 X s 1294 162 m 3
 X s 1294 167 m 3 X s 1294 171 m 3 X s 1292 176 m 5 X s 1294 181 m 3 X s 1294 185 m 3 X s 1294 190 m 3 X s 1294 194 m 3 X s 1292 199 m 5 X s 1294 204 m 3 X s 1294 208 m 3 X s 1294 213 m 3 X s 1294 218 m 3 X s 1292 222 m 5 X s 1294 227 m 3 X s 1294
 231 m 3 X s 1294 236 m 3 X s 1294 241 m 3 X s 1292 245 m 5 X s 1294 250 m 3 X s 1294 255 m 3 X s 1294 259 m 3 X s 1294 264 m 3 X s 1292 269 m 5 X s 1292 60 m 5 X s 1292 269 m 5 X s 1294 273 m 3 X s 1294 278 m 3 X s 1294 282 m 3 X s 1294 287 m 3 X s
 1019 210 1047 228 1102 201 1158 117 1214 177 1270 185 6 { m21} R 1019 222 m 29 Y s 1013 251 m 12 X s 1019 199 m -29 Y s 1013 170 m 12 X s 1047 240 m 29 Y s 1041 269 m 11 X s 1047 217 m -29 Y s 1041 188 m 11 X s 1102 213 m 29 Y s 1097 242 m 11 X s
 1102 190 m -29 Y s 1097 161 m 11 X s 1158 129 m 28 Y s 1152 157 m 12 X s 1158 106 m -28 Y s 1152 78 m 12 X s 1214 189 m 28 Y s 1208 217 m 12 X s 1214 166 m -29 Y s 1208 137 m 12 X s 1270 196 m 29 Y s 1264 225 m 11 X s 1270 173 m -29 Y s 1264 144 m
 11 X s 9 lw 0.95 0.95 0.95 c black 993 199 m 3 X 3 -1 d 3 X 3 -1 d 6 X 3 -1 d 6 X 3 -1 d 3 X 3 -1 d 6 X 3 -1 d 7 X 3 -1 d 3 X 3 -1 d 6 X 3 -1 d 6 X 3 -1 d 3 X 3 -1 d 6 X 3 -1 d 7 X 3 -1 d 3 X 3 -1 d 6 X 3 -1 d 6 X 3 -1 d 3 X 3 -1 d 6 X 3 -1 d 7 X s
 1143 181 m 3 -1 d 3 X 3 -1 d 6 X 3 -1 d 6 X 3 -1 d 3 X 3 -1 d 6 X 3 -1 d 7 X 3 -1 d 3 X 3 -1 d 6 X 3 -1 d 6 X 3 -1 d 3 X 3 -1 d 6 X 3 -1 d 6 X 4 -1 d 3 X 3 -1 d 6 X 3 -1 d 6 X 3 -1 d 3 X 3 -1 d 6 X 3 -1 d 6 X 4 -1 d s 1293 162 m 3 X s 0.49 0.6 0.82
 c black 0.49 0.6 0.82 c
 gsave  408 306 930 13 C 1051.24 296.285 t 0 r /Helvetica-Bold findfont 25.6831 sf 0 0 m (8.5 < E < 9.0 GeV) show NC gr  0.52 0.76 0.64 c black 0.52 0.76 0.64 c
 gsave  408 306 930 13 C 1031.3 259.249 t 0 r /Helvetica-Bold findfont 25.6831 sf 0 0 m 
 228 214 200 193 178 171 156 149 133 126 119 105 91 77 69 55 47 39 25 17
(A = \2550.006, p = 1.000) K NC gr  1 0.6 1 c black 1 0.6 1 c
 gsave  408 306 930 13 C 1336.13 128.2 t 90 r /Helvetica-Bold findfont 28.5368 sf 0 0 m (/dof=0.8) show NC gr  black 1 0.6 1 c
 gsave  408 306 930 13 C 1324.73 116.804 t 90 r /Helvetica-Bold findfont 19.9758 sf 0 0 m (2) show NC gr  black 1 0.6 1 c
 gsave  408 306 930 13 C 1336.13 99.7112 t 90 r /Symbol findfont 28.5368 sf 0 0 m (c) show NC gr  black 3 lw 1 1 1 c 408 306 1383 13 bf black 1 1 1 c black 306 229 1445 59 bl 306 229 1445 59 bl 1445 59 m 306 X s 1445 63 m -4 Y s 1556 63 m -4 Y s 1667
 63 m -4 Y s 1667 63 m -4 Y s
 gsave  408 306 1383 13 C 1435.84 39.8845 t 0 r /Helvetica findfont 22.8295 sf 0 0 m (0) show NC gr 
 gsave  408 306 1383 13 C 1549.8 39.8845 t 0 r /Helvetica findfont 22.8295 sf 0 0 m (1) show NC gr 
 gsave  408 306 1383 13 C 1658.05 39.8845 t 0 r /Helvetica findfont 22.8295 sf 0 0 m (2) show NC gr  1445 288 m 306 X s 1445 284 m 4 Y s 1556 284 m 4 Y s 1667 284 m 4 Y s 1667 284 m 4 Y s 1445 59 m 229 Y s 1450 67 m -5 X s 1447 72 m -2 X s 1447 77 m
 -2 X s 1447 82 m -2 X s 1447 88 m -2 X s 1450 93 m -5 X s 1447 98 m -2 X s 1447 103 m -2 X s 1447 108 m -2 X s 1447 113 m -2 X s 1450 118 m -5 X s 1447 123 m -2 X s 1447 128 m -2 X s 1447 134 m -2 X s 1447 139 m -2 X s 1450 144 m -5 X s 1447 149 m
 -2 X s 1447 154 m -2 X s 1447 159 m -2 X s 1447 164 m -2 X s 1450 169 m -5 X s 1447 174 m -2 X s 1447 179 m -2 X s 1447 185 m -2 X s 1447 190 m -2 X s 1450 195 m -5 X s 1447 200 m -2 X s 1447 205 m -2 X s 1447 210 m -2 X s 1447 215 m -2 X s 1450 220
 m -5 X s 1447 225 m -2 X s 1447 230 m -2 X s 1447 236 m -2 X s 1447 241 m -2 X s 1450 246 m -5 X s 1447 251 m -2 X s 1447 256 m -2 X s 1447 261 m -2 X s 1447 266 m -2 X s 1450 271 m -5 X s 1450 67 m -5 X s 1447 62 m -2 X s 1450 271 m -5 X s 1447 276
 m -2 X s 1447 281 m -2 X s 1447 287 m -2 X s
 gsave  408 306 1383 13 C 1390.26 59.8267 t 0 r /Helvetica findfont 22.8295 sf 0 0 m (\2550.05) show NC gr 
 gsave  408 306 1383 13 C 1390.26 85.4667 t 0 r /Helvetica findfont 22.8295 sf 0 0 m (\2550.04) show NC gr 
 gsave  408 306 1383 13 C 1390.26 111.107 t 0 r /Helvetica findfont 22.8295 sf 0 0 m (\2550.03) show NC gr 
 gsave  408 306 1383 13 C 1390.26 136.747 t 0 r /Helvetica findfont 22.8295 sf 0 0 m (\2550.02) show NC gr 
 gsave  408 306 1383 13 C 1393.11 162.387 t 0 r /Helvetica findfont 22.8295 sf 0 0 m (\2550.01) show NC gr 
 gsave  408 306 1383 13 C 1427.29 188.027 t 0 r /Helvetica findfont 22.8295 sf 0 0 m (0) show NC gr 
 gsave  408 306 1383 13 C 1398.81 213.667 t 0 r /Helvetica findfont 22.8295 sf 0 0 m (0.01) show NC gr 
 gsave  408 306 1383 13 C 1395.96 239.307 t 0 r /Helvetica findfont 22.8295 sf 0 0 m (0.02) show NC gr 
 gsave  408 306 1383 13 C 1395.96 264.947 t 0 r /Helvetica findfont 22.8295 sf 0 0 m (0.03) show NC gr  1751 59 m 229 Y s 1745 67 m 6 X s 1748 72 m 3 X s 1748 77 m 3 X s 1748 82 m 3 X s 1748 88 m 3 X s 1745 93 m 6 X s 1748 98 m 3 X s 1748 103 m 3 X s
 1748 108 m 3 X s 1748 113 m 3 X s 1745 118 m 6 X s 1748 123 m 3 X s 1748 128 m 3 X s 1748 134 m 3 X s 1748 139 m 3 X s 1745 144 m 6 X s 1748 149 m 3 X s 1748 154 m 3 X s 1748 159 m 3 X s 1748 164 m 3 X s 1745 169 m 6 X s 1748 174 m 3 X s 1748 179 m
 3 X s 1748 185 m 3 X s 1748 190 m 3 X s 1745 195 m 6 X s 1748 200 m 3 X s 1748 205 m 3 X s 1748 210 m 3 X s 1748 215 m 3 X s 1745 220 m 6 X s 1748 225 m 3 X s 1748 230 m 3 X s 1748 236 m 3 X s 1748 241 m 3 X s 1745 246 m 6 X s 1748 251 m 3 X s 1748
 256 m 3 X s 1748 261 m 3 X s 1748 266 m 3 X s 1745 271 m 6 X s 1745 67 m 6 X s 1748 62 m 3 X s 1745 271 m 6 X s 1748 276 m 3 X s 1748 281 m 3 X s 1748 287 m 3 X s 1472 125 1500 194 1556 127 1612 152 1667 221 1723 170 6 { m21} R 1472 136 m 36 Y s
 1467 172 m 11 X s 1472 114 m -36 Y s 1467 78 m 11 X s 1500 205 m 37 Y s 1495 242 m 11 X s 1500 183 m -36 Y s 1495 147 m 11 X s 1556 138 m 35 Y s 1550 173 m 12 X s 1556 115 m -35 Y s 1550 80 m 12 X s 1612 163 m 36 Y s 1606 199 m 11 X s 1612 140 m -35
 Y s 1606 105 m 11 X s 1667 232 m 37 Y s 1662 269 m 11 X s 1667 210 m -37 Y s 1662 173 m 11 X s 1723 182 m 36 Y s 1717 218 m 12 X s 1723 159 m -36 Y s 1717 123 m 12 X s 9 lw 0.95 0.95 0.95 c black 1446 195 m 3 -1 d 6 X 3 -1 d 6 X 3 -1 d 7 X 3 -1 d 6
 X 3 -1 d 6 X 3 -1 d 6 X 3 -1 d 6 X 3 -1 d 7 X 3 -1 d 6 X 3 -1 d 6 X 3 -1 d 6 X 3 -1 d 6 X 3 -1 d 6 X 4 -1 d 9 X 3 -1 d 6 X 3 -1 d 6 X s 1596 179 m 3 -1 d 6 X 3 -1 d 6 X 4 -1 d 6 X 3 -1 d 6 X 3 -1 d 6 X 3 -1 d 6 X 3 -1 d 6 X 3 -1 d 7 X 3 -1 d 6 X 3
 -1 d 6 X 3 -1 d 6 X 3 -1 d 6 X 3 -1 d 6 X 4 -1 d 6 X 3 -1 d 6 X 3 -1 d 9 X s 1746 163 m 3 -1 d s 0.49 0.6 0.82 c black 0.49 0.6 0.82 c
 gsave  408 306 1383 13 C 1504.21 296.285 t 0 r /Helvetica-Bold findfont 25.6831 sf 0 0 m (9.0 < E < 9.5 GeV) show NC gr  0.52 0.76 0.64 c black 0.52 0.76 0.64 c
 gsave  408 306 1383 13 C 1484.27 259.249 t 0 r /Helvetica-Bold findfont 25.6831 sf 0 0 m 
 228 214 200 193 178 171 156 149 134 126 119 105 91 77 69 55 47 40 25 17
(A = \2550.005, p = 1.000) K NC gr  1 0.6 1 c black 1 0.6 1 c
 gsave  408 306 1383 13 C 1789.1 128.2 t 90 r /Helvetica-Bold findfont 28.5368 sf 0 0 m (/dof=1.0) show NC gr  black 1 0.6 1 c
 gsave  408 306 1383 13 C 1777.71 116.804 t 90 r /Helvetica-Bold findfont 19.9758 sf 0 0 m (2) show NC gr  black 1 0.6 1 c
 gsave  408 306 1383 13 C 1789.1 99.7112 t 90 r /Symbol findfont 28.5368 sf 0 0 m (c) show NC gr  black 3 lw 1 1 1 c 408 306 1837 13 bf black 1 1 1 c black 306 229 1898 59 bl 306 229 1898 59 bl 1898 59 m 306 X s 1898 63 m -4 Y s 2010 63 m -4 Y s 2121
 63 m -4 Y s 2121 63 m -4 Y s
 gsave  408 306 1837 13 C 1888.81 39.8845 t 0 r /Helvetica findfont 22.8295 sf 0 0 m (0) show NC gr 
 gsave  408 306 1837 13 C 2002.77 39.8845 t 0 r /Helvetica findfont 22.8295 sf 0 0 m (1) show NC gr 
 gsave  408 306 1837 13 C 2111.03 39.8845 t 0 r /Helvetica findfont 22.8295 sf 0 0 m (2) show NC gr  1898 288 m 306 X s 1898 284 m 4 Y s 2010 284 m 4 Y s 2121 284 m 4 Y s 2121 284 m 4 Y s 1898 59 m 229 Y s 1904 69 m -6 X s 1901 76 m -3 X s 1901 82 m
 -3 X s 1901 88 m -3 X s 1901 95 m -3 X s 1904 101 m -6 X s 1901 107 m -3 X s 1901 113 m -3 X s 1901 120 m -3 X s 1901 126 m -3 X s 1904 132 m -6 X s 1901 139 m -3 X s 1901 145 m -3 X s 1901 151 m -3 X s 1901 158 m -3 X s 1904 164 m -6 X s 1901 170 m
 -3 X s 1901 177 m -3 X s 1901 183 m -3 X s 1901 189 m -3 X s 1904 196 m -6 X s 1901 202 m -3 X s 1901 208 m -3 X s 1901 214 m -3 X s 1901 221 m -3 X s 1904 227 m -6 X s 1901 233 m -3 X s 1901 240 m -3 X s 1901 246 m -3 X s 1901 252 m -3 X s 1904 259
 m -6 X s 1904 69 m -6 X s 1901 63 m -3 X s 1904 259 m -6 X s 1901 265 m -3 X s 1901 271 m -3 X s 1901 278 m -3 X s 1901 284 m -3 X s
 gsave  408 306 1837 13 C 1843.23 62.6756 t 0 r /Helvetica findfont 22.8295 sf 0 0 m (\2550.04) show NC gr 
 gsave  408 306 1837 13 C 1843.23 94.0134 t 0 r /Helvetica findfont 22.8295 sf 0 0 m (\2550.03) show NC gr 
 gsave  408 306 1837 13 C 1843.23 125.351 t 0 r /Helvetica findfont 22.8295 sf 0 0 m (\2550.02) show NC gr 
 gsave  408 306 1837 13 C 1846.08 156.689 t 0 r /Helvetica findfont 22.8295 sf 0 0 m (\2550.01) show NC gr 
 gsave  408 306 1837 13 C 1880.27 188.027 t 0 r /Helvetica findfont 22.8295 sf 0 0 m (0) show NC gr 
 gsave  408 306 1837 13 C 1851.78 219.365 t 0 r /Helvetica findfont 22.8295 sf 0 0 m (0.01) show NC gr 
 gsave  408 306 1837 13 C 1848.93 250.702 t 0 r /Helvetica findfont 22.8295 sf 0 0 m (0.02) show NC gr  2204 59 m 229 Y s 2199 69 m 5 X s 2201 76 m 3 X s 2201 82 m 3 X s 2201 88 m 3 X s 2201 95 m 3 X s 2199 101 m 5 X s 2201 107 m 3 X s 2201 113 m 3 X
 s 2201 120 m 3 X s 2201 126 m 3 X s 2199 132 m 5 X s 2201 139 m 3 X s 2201 145 m 3 X s 2201 151 m 3 X s 2201 158 m 3 X s 2199 164 m 5 X s 2201 170 m 3 X s 2201 177 m 3 X s 2201 183 m 3 X s 2201 189 m 3 X s 2199 196 m 5 X s 2201 202 m 3 X s 2201 208
 m 3 X s 2201 214 m 3 X s 2201 221 m 3 X s 2199 227 m 5 X s 2201 233 m 3 X s 2201 240 m 3 X s 2201 246 m 3 X s 2201 252 m 3 X s 2199 259 m 5 X s 2199 69 m 5 X s 2201 63 m 3 X s 2199 259 m 5 X s 2201 265 m 3 X s 2201 271 m 3 X s 2201 278 m 3 X s 2201
 284 m 3 X s 1926 181 1954 178 2010 206 2065 141 2121 158 2177 195 6 { m21} R 1926 193 m 51 Y s 1920 244 m 12 X s 1926 170 m -52 Y s 1920 118 m 12 X s 1954 189 m 52 Y s 1948 241 m 11 X s 1954 166 m -51 Y s 1948 115 m 11 X s 2010 217 m 52 Y s 2004 269
 m 11 X s 2010 194 m -51 Y s 2004 143 m 11 X s 2065 152 m 51 Y s 2060 203 m 11 X s 2065 129 m -51 Y s 2060 78 m 11 X s 2121 169 m 51 Y s 2115 220 m 12 X s 2121 146 m -51 Y s 2115 95 m 12 X s 2177 207 m 51 Y s 2171 258 m 11 X s 2177 184 m -51 Y s 2171
 133 m 11 X s 9 lw 0.95 0.95 0.95 c black 1900 195 m 6 X 3 -1 d 6 X 3 -1 d 6 X 3 -1 d 9 X 3 -1 d 7 X 3 -1 d 6 X 3 -1 d 6 X 3 -1 d 6 X 3 -1 d 6 X 3 -1 d 6 X 4 -1 d 6 X 3 -1 d 6 X 3 -1 d 9 X 3 -1 d 6 X 3 -1 d 6 X 3 -1 d 7 X s 2050 180 m 3 -1 d 6 X 3 -1
 d 6 X 3 -1 d 6 X 3 -1 d 6 X 3 -1 d 7 X 3 -1 d 9 X 3 -1 d 6 X 3 -1 d 6 X 3 -1 d 6 X 3 -1 d 7 X 3 -1 d 6 X 3 -1 d 6 X 3 -1 d 6 X 3 -1 d 6 X 3 -1 d 10 X 3 -1 d 3 X s 2200 164 m 3 X s 0.49 0.6 0.82 c black 0.49 0.6 0.82 c
 gsave  408 306 1837 13 C 1948.64 296.285 t 0 r /Helvetica-Bold findfont 25.6831 sf 0 0 m (9.5 < E < 10.0 GeV) show NC gr  0.52 0.76 0.64 c black 0.52 0.76 0.64 c
 gsave  408 306 1837 13 C 1937.25 259.249 t 0 r /Helvetica-Bold findfont 25.6831 sf 0 0 m 
 228 214 200 193 178 171 156 149 133 126 119 105 91 77 69 55 47 39 25 17
(A = \2550.004, p = 1.000) K NC gr  1 0.6 1 c black 1 0.6 1 c
 gsave  408 306 1837 13 C 2242.08 128.2 t 90 r /Helvetica-Bold findfont 28.5368 sf 0 0 m (/dof=0.2) show NC gr  black 1 0.6 1 c
 gsave  408 306 1837 13 C 2230.68 116.804 t 90 r /Helvetica-Bold findfont 19.9758 sf 0 0 m (2) show NC gr  black 1 0.6 1 c
 gsave  408 306 1837 13 C 2242.08 99.7112 t 90 r /Symbol findfont 28.5368 sf 0 0 m (c) show NC gr 
 gr  gr showpage
end
%%EOF
