%!PS-Adobe-2.0 EPSF-2.0
%%BoundingBox:  0 0 567 332
%%Title: Horn2YTilt_nof_fits.eps: Fits
%%Creator: ROOT Version 5.30/06
%%CreationDate: Sun Feb  2 09:29:34 2014
%%EndComments
%%BeginProlog
80 dict begin
/s {stroke} def /l {lineto} def /m {moveto} def /t {translate} def
/r {rotate} def /rl {roll}  def /R {repeat} def
/d {rlineto} def /rm {rmoveto} def /gr {grestore} def /f {eofill} def
/c {setrgbcolor} def /black {0 setgray} def /sd {setdash} def
/cl {closepath} def /sf {scalefont setfont} def /lw {setlinewidth} def
/box {m dup 0 exch d exch 0 d 0 exch neg d cl} def
/NC{systemdict begin initclip end}def/C{NC box clip newpath}def
/bl {box s} def /bf {box f} def /Y { 0 exch d} def /X { 0 d} def 
/K {{pop pop 0 moveto} exch kshow} bind def
/ita {/ang 15 def gsave [1 0 ang dup sin exch cos div 1 0 0] concat} def 
/mp {newpath /y exch def /x exch def} def
/side {[w .77 mul w .23 mul] .385 w mul sd w 0 l currentpoint t -144 r} def
/mr {mp x y w2 0 360 arc} def /m24 {mr s} def /m20 {mr f} def
/mb {mp x y w2 add m w2 neg 0 d 0 w neg d w 0 d 0 w d cl} def
/mt {mp x y w2 add m w2 neg w neg d w 0 d cl} def
/m21 {mb f} def /m25 {mb s} def /m22 {mt f} def /m26{mt s} def
/m23 {mp x y w2 sub m w2 w d w neg 0 d cl f} def
/m27 {mp x y w2 add m w3 neg w2 neg d w3 w2 neg d w3 w2 d cl s} def
/m28 {mp x w2 sub y w2 sub w3 add m w3 0 d  0 w3 neg d w3 0 d 0 w3 d w3 0 d  0 w3 d w3 neg 0 d 0 w3 d w3 neg 0 d 0 w3 neg d w3 neg 0 d cl s } def
/m29 {mp gsave x w2 sub y w2 add w3 sub m currentpoint t 4 {side} repeat cl fill gr} def
/m30 {mp gsave x w2 sub y w2 add w3 sub m currentpoint t 4 {side} repeat cl s gr} def
/m31 {mp x y w2 sub m 0 w d x w2 sub y m w 0 d x w2 sub y w2 add m w w neg d x w2 sub y w2 sub m w w d s} def
/m32 {mp x y w2 sub m w2 w d w neg 0 d cl s} def
/m33 {mp x y w2 add m w3 neg w2 neg d w3 w2 neg d w3 w2 d cl f} def
/m34 {mp x w2 sub y w2 sub w3 add m w3 0 d  0 w3 neg d w3 0 d 0 w3 d w3 0 d  0 w3 d w3 neg 0 d 0 w3 d w3 neg 0 d 0 w3 neg d w3 neg 0 d cl f } def
/m2 {mp x y w2 sub m 0 w d x w2 sub y m w 0 d s} def
/m5 {mp x w2 sub y w2 sub m w w d x w2 sub y w2 add m w w neg d s} def
/reEncode {exch findfont dup length dict begin {1 index /FID eq  {pop pop} {def} ifelse } forall /Encoding exch def currentdict end dup /FontName get exch definefont pop } def [/Times-Bold /Times-Italic /Times-BoldItalic /Helvetica /Helvetica-Oblique
 /Helvetica-Bold /Helvetica-BoldOblique /Courier /Courier-Oblique /Courier-Bold /Courier-BoldOblique /Times-Roman /AvantGarde-Book /AvantGarde-BookOblique /AvantGarde-Demi /AvantGarde-DemiOblique /Bookman-Demi /Bookman-DemiItalic /Bookman-Light
 /Bookman-LightItalic /Helvetica-Narrow /Helvetica-Narrow-Bold /Helvetica-Narrow-BoldOblique /Helvetica-Narrow-Oblique /NewCenturySchlbk-Roman /NewCenturySchlbk-Bold /NewCenturySchlbk-BoldItalic /NewCenturySchlbk-Italic /Palatino-Bold
 /Palatino-BoldItalic /Palatino-Italic /Palatino-Roman ] {ISOLatin1Encoding reEncode } forall%%EndProlog
%%BeginSetup
%%EndSetup
newpath  gsave  .25 .25 scale  gsave  0 0 t black[  ] 0 sd 3 lw 1 1 1 c 2268 1328 0 0 bf black 1 1 1 c 408 305 23 1009 bf black 1 1 1 c black 306 229 84 1055 bl 306 229 84 1055 bl 84 1055 m 306 X s 84 1059 m -4 Y s 225 1059 m -4 Y s 367 1059 m -4 Y s
 367 1059 m -4 Y s
 gsave  408 305 23 1009 C 74.0711 1034.15 t 0 r /Helvetica findfont 22.8295 sf 0 0 m (0) show NC gr 
 gsave  408 305 23 1009 C 219.365 1034.15 t 0 r /Helvetica findfont 22.8295 sf 0 0 m (1) show NC gr 
 gsave  408 305 23 1009 C 356.111 1034.15 t 0 r /Helvetica findfont 22.8295 sf 0 0 m (2) show NC gr  84 1284 m 306 X s 84 1280 m 4 Y s 225 1280 m 4 Y s 367 1280 m 4 Y s 367 1280 m 4 Y s 84 1055 m 229 Y s 89 1080 m -5 X s 87 1086 m -3 X s 87 1092 m -3
 X s 87 1099 m -3 X s 87 1105 m -3 X s 89 1111 m -5 X s 87 1117 m -3 X s 87 1123 m -3 X s 87 1129 m -3 X s 87 1136 m -3 X s 89 1142 m -5 X s 87 1148 m -3 X s 87 1154 m -3 X s 87 1160 m -3 X s 87 1166 m -3 X s 89 1172 m -5 X s 87 1179 m -3 X s 87 1185
 m -3 X s 87 1191 m -3 X s 87 1197 m -3 X s 89 1203 m -5 X s 87 1209 m -3 X s 87 1216 m -3 X s 87 1222 m -3 X s 87 1228 m -3 X s 89 1234 m -5 X s 87 1240 m -3 X s 87 1246 m -3 X s 87 1253 m -3 X s 87 1259 m -3 X s 89 1265 m -5 X s 89 1080 m -5 X s 87
 1074 m -3 X s 87 1068 m -3 X s 87 1062 m -3 X s 87 1055 m -3 X s 89 1265 m -5 X s 87 1271 m -3 X s 87 1277 m -3 X s 87 1283 m -3 X s
 gsave  408 305 23 1009 C 14.2445 1074.03 t 0 r /Helvetica findfont 22.8295 sf 0 0 m (\2550.003) show NC gr 
 gsave  408 305 23 1009 C 14.2445 1102.52 t 0 r /Helvetica findfont 22.8295 sf 0 0 m (\2550.002) show NC gr 
 gsave  408 305 23 1009 C 17.0933 1133.86 t 0 r /Helvetica findfont 22.8295 sf 0 0 m (\2550.001) show NC gr 
 gsave  408 305 23 1009 C 65.5245 1165.2 t 0 r /Helvetica findfont 22.8295 sf 0 0 m (0) show NC gr 
 gsave  408 305 23 1009 C 25.64 1196.53 t 0 r /Helvetica findfont 22.8295 sf 0 0 m (0.001) show NC gr 
 gsave  408 305 23 1009 C 22.7911 1227.87 t 0 r /Helvetica findfont 22.8295 sf 0 0 m (0.002) show NC gr 
 gsave  408 305 23 1009 C 22.7911 1256.36 t 0 r /Helvetica findfont 22.8295 sf 0 0 m (0.003) show NC gr  390 1055 m 229 Y s 385 1080 m 5 X s 387 1086 m 3 X s 387 1092 m 3 X s 387 1099 m 3 X s 387 1105 m 3 X s 385 1111 m 5 X s 387 1117 m 3 X s 387
 1123 m 3 X s 387 1129 m 3 X s 387 1136 m 3 X s 385 1142 m 5 X s 387 1148 m 3 X s 387 1154 m 3 X s 387 1160 m 3 X s 387 1166 m 3 X s 385 1172 m 5 X s 387 1179 m 3 X s 387 1185 m 3 X s 387 1191 m 3 X s 387 1197 m 3 X s 385 1203 m 5 X s 387 1209 m 3 X
 s 387 1216 m 3 X s 387 1222 m 3 X s 387 1228 m 3 X s 385 1234 m 5 X s 387 1240 m 3 X s 387 1246 m 3 X s 387 1253 m 3 X s 387 1259 m 3 X s 385 1265 m 5 X s 385 1080 m 5 X s 387 1074 m 3 X s 387 1068 m 3 X s 387 1062 m 3 X s 387 1055 m 3 X s 385 1265
 m 5 X s 387 1271 m 3 X s 387 1277 m 3 X s 387 1283 m 3 X s /w 22 def /w2 {w 2 div} def /w3 {w 3 div} def 155 1152 225 1161 367 1186 3 { m21} R 155 1164 m 67 Y s 149 1231 m 11 X s 155 1141 m -67 Y s 149 1074 m 11 X s 225 1172 m 67 Y s 220 1239 m 11 X
 s 225 1150 m -68 Y s 220 1082 m 11 X s 367 1197 m 68 Y s 361 1265 m 11 X s 367 1175 m -68 Y s 361 1107 m 11 X s 1 0 0 c 9 lw 0.95 0.95 0.95 c black 1 0 0 c 85 1172 m 16 X 3 1 d 76 X 3 1 d 34 X 3 1 d 15 X s 235 1175 m 13 X 3 1 d 24 X 3 1 d 19 X 3 1 d
 18 X 3 1 d 15 X 4 1 d 12 X 3 1 d 15 X 3 1 d 12 X s 385 1182 m 4 1 d s 0.49 0.6 0.82 c black 0.49 0.6 0.82 c
 gsave  408 305 23 1009 C 142.445 1293.4 t 0 r /Helvetica-Bold findfont 25.6831 sf 0 0 m (0.0 < E < 0.5 GeV) show NC gr  0.52 0.76 0.64 c black 0.52 0.76 0.64 c
 gsave  408 305 23 1009 C 128.2 1256.36 t 0 r /Helvetica-Bold findfont 25.6831 sf 0 0 m 
 220 206 192 185 170 163 148 141 126 118 111 97 83 69 61 47 40 25 18
(A = 0.000, p = 2.000) K NC gr  1 0.6 1 c black 1 0.6 1 c
 gsave  408 305 23 1009 C 427.334 1122.46 t 90 r /Helvetica-Bold findfont 28.5368 sf 0 0 m (/dof=0.1) show NC gr  black 1 0.6 1 c
 gsave  408 305 23 1009 C 415.938 1111.07 t 90 r /Helvetica-Bold findfont 19.9758 sf 0 0 m (2) show NC gr  black 1 0.6 1 c
 gsave  408 305 23 1009 C 427.334 1093.97 t 90 r /Symbol findfont 28.5368 sf 0 0 m (c) show NC gr  black 3 lw 1 1 1 c 408 305 476 1009 bf black 1 1 1 c black 307 229 537 1055 bl 307 229 537 1055 bl 537 1055 m 307 X s 537 1059 m -4 Y s 679 1059 m -4 Y
 s 820 1059 m -4 Y s 820 1059 m -4 Y s
 gsave  408 305 476 1009 C 527.045 1034.15 t 0 r /Helvetica findfont 22.8295 sf 0 0 m (0) show NC gr 
 gsave  408 305 476 1009 C 672.338 1034.15 t 0 r /Helvetica findfont 22.8295 sf 0 0 m (1) show NC gr 
 gsave  408 305 476 1009 C 809.085 1034.15 t 0 r /Helvetica findfont 22.8295 sf 0 0 m (2) show NC gr  537 1284 m 307 X s 537 1280 m 4 Y s 679 1280 m 4 Y s 820 1280 m 4 Y s 820 1280 m 4 Y s 537 1055 m 229 Y s 543 1071 m -6 X s 540 1076 m -3 X s 540
 1081 m -3 X s 540 1087 m -3 X s 540 1092 m -3 X s 543 1097 m -6 X s 540 1103 m -3 X s 540 1108 m -3 X s 540 1113 m -3 X s 540 1119 m -3 X s 543 1124 m -6 X s 540 1129 m -3 X s 540 1135 m -3 X s 540 1140 m -3 X s 540 1145 m -3 X s 543 1151 m -6 X s
 540 1156 m -3 X s 540 1161 m -3 X s 540 1167 m -3 X s 540 1172 m -3 X s 543 1177 m -6 X s 540 1183 m -3 X s 540 1188 m -3 X s 540 1193 m -3 X s 540 1199 m -3 X s 543 1204 m -6 X s 540 1209 m -3 X s 540 1215 m -3 X s 540 1220 m -3 X s 540 1225 m -3 X
 s 543 1231 m -6 X s 540 1236 m -3 X s 540 1241 m -3 X s 540 1247 m -3 X s 540 1252 m -3 X s 543 1257 m -6 X s 543 1071 m -6 X s 540 1065 m -3 X s 540 1060 m -3 X s 543 1257 m -6 X s 540 1263 m -3 X s 540 1268 m -3 X s 540 1273 m -3 X s 540 1279 m -3
 X s
 gsave  408 305 476 1009 C 467.218 1062.64 t 0 r /Helvetica findfont 22.8295 sf 0 0 m (\2550.004) show NC gr 
 gsave  408 305 476 1009 C 467.218 1091.12 t 0 r /Helvetica findfont 22.8295 sf 0 0 m (\2550.003) show NC gr 
 gsave  408 305 476 1009 C 467.218 1116.76 t 0 r /Helvetica findfont 22.8295 sf 0 0 m (\2550.002) show NC gr 
 gsave  408 305 476 1009 C 470.067 1142.4 t 0 r /Helvetica findfont 22.8295 sf 0 0 m (\2550.001) show NC gr 
 gsave  408 305 476 1009 C 518.498 1170.89 t 0 r /Helvetica findfont 22.8295 sf 0 0 m (0) show NC gr 
 gsave  408 305 476 1009 C 478.614 1196.53 t 0 r /Helvetica findfont 22.8295 sf 0 0 m (0.001) show NC gr 
 gsave  408 305 476 1009 C 475.765 1222.17 t 0 r /Helvetica findfont 22.8295 sf 0 0 m (0.002) show NC gr 
 gsave  408 305 476 1009 C 475.765 1250.66 t 0 r /Helvetica findfont 22.8295 sf 0 0 m (0.003) show NC gr  844 1055 m 229 Y s 838 1071 m 6 X s 841 1076 m 3 X s 841 1081 m 3 X s 841 1087 m 3 X s 841 1092 m 3 X s 838 1097 m 6 X s 841 1103 m 3 X s 841
 1108 m 3 X s 841 1113 m 3 X s 841 1119 m 3 X s 838 1124 m 6 X s 841 1129 m 3 X s 841 1135 m 3 X s 841 1140 m 3 X s 841 1145 m 3 X s 838 1151 m 6 X s 841 1156 m 3 X s 841 1161 m 3 X s 841 1167 m 3 X s 841 1172 m 3 X s 838 1177 m 6 X s 841 1183 m 3 X
 s 841 1188 m 3 X s 841 1193 m 3 X s 841 1199 m 3 X s 838 1204 m 6 X s 841 1209 m 3 X s 841 1215 m 3 X s 841 1220 m 3 X s 841 1225 m 3 X s 838 1231 m 6 X s 841 1236 m 3 X s 841 1241 m 3 X s 841 1247 m 3 X s 841 1252 m 3 X s 838 1257 m 6 X s 838 1071
 m 6 X s 841 1065 m 3 X s 841 1060 m 3 X s 838 1257 m 6 X s 841 1263 m 3 X s 841 1268 m 3 X s 841 1273 m 3 X s 841 1279 m 3 X s /w 23 def /w2 {w 2 div} def /w3 {w 3 div} def 608 1182 679 1156 820 1170 3 { m21} R 608 1194 m 71 Y s 602 1265 m 12 X s
 608 1171 m -71 Y s 602 1100 m 12 X s 679 1167 m 71 Y s 673 1238 m 12 X s 679 1144 m -70 Y s 673 1074 m 12 X s 820 1181 m 71 Y s 815 1252 m 11 X s 820 1158 m -70 Y s 815 1088 m 11 X s 9 lw 0.95 0.95 0.95 c black 539 1177 m 15 X 3 -1 d 19 X 3 -1 d 18
 X 3 -1 d 19 X 3 -1 d 18 X 3 -1 d 18 X 3 -1 d 22 X 3 -1 d s 689 1170 m 18 X 3 -1 d 19 X 3 -1 d 18 X 3 -1 d 19 X 3 -1 d 18 X 3 -1 d 19 X 3 -1 d 21 X s 839 1164 m 3 -1 d s 0.49 0.6 0.82 c black 0.49 0.6 0.82 c
 gsave  408 305 476 1009 C 595.418 1293.4 t 0 r /Helvetica-Bold findfont 25.6831 sf 0 0 m (0.5 < E < 1.0 GeV) show NC gr  0.52 0.76 0.64 c black 0.52 0.76 0.64 c
 gsave  408 305 476 1009 C 575.476 1256.36 t 0 r /Helvetica-Bold findfont 25.6831 sf 0 0 m 
 228 214 200 193 178 171 156 149 133 126 119 105 91 76 69 55 47 39 25 17
(A = \2550.000, p = 1.000) K NC gr  1 0.6 1 c black 1 0.6 1 c
 gsave  408 305 476 1009 C 883.156 1122.46 t 90 r /Helvetica-Bold findfont 28.5368 sf 0 0 m (/dof=0.0) show NC gr  black 1 0.6 1 c
 gsave  408 305 476 1009 C 871.76 1111.07 t 90 r /Helvetica-Bold findfont 19.9758 sf 0 0 m (2) show NC gr  black 1 0.6 1 c
 gsave  408 305 476 1009 C 883.156 1093.97 t 90 r /Symbol findfont 28.5368 sf 0 0 m (c) show NC gr  black 3 lw 1 1 1 c 408 305 930 1009 bf black 1 1 1 c black 306 229 991 1055 bl 306 229 991 1055 bl 991 1055 m 306 X s 991 1059 m -4 Y s 1132 1059 m -4
 Y s 1274 1059 m -4 Y s 1274 1059 m -4 Y s
 gsave  408 305 930 1009 C 980.018 1034.15 t 0 r /Helvetica findfont 22.8295 sf 0 0 m (0) show NC gr 
 gsave  408 305 930 1009 C 1125.31 1034.15 t 0 r /Helvetica findfont 22.8295 sf 0 0 m (1) show NC gr 
 gsave  408 305 930 1009 C 1264.91 1034.15 t 0 r /Helvetica findfont 22.8295 sf 0 0 m (2) show NC gr  991 1284 m 306 X s 991 1280 m 4 Y s 1132 1280 m 4 Y s 1274 1280 m 4 Y s 1274 1280 m 4 Y s 991 1055 m 229 Y s 997 1060 m -6 X s 994 1065 m -3 X s 994
 1070 m -3 X s 994 1074 m -3 X s 994 1079 m -3 X s 997 1084 m -6 X s 994 1088 m -3 X s 994 1093 m -3 X s 994 1098 m -3 X s 994 1102 m -3 X s 997 1107 m -6 X s 994 1112 m -3 X s 994 1116 m -3 X s 994 1121 m -3 X s 994 1126 m -3 X s 997 1130 m -6 X s
 994 1135 m -3 X s 994 1140 m -3 X s 994 1144 m -3 X s 994 1149 m -3 X s 997 1154 m -6 X s 994 1158 m -3 X s 994 1163 m -3 X s 994 1168 m -3 X s 994 1172 m -3 X s 997 1177 m -6 X s 994 1182 m -3 X s 994 1186 m -3 X s 994 1191 m -3 X s 994 1196 m -3 X
 s 997 1200 m -6 X s 994 1205 m -3 X s 994 1210 m -3 X s 994 1214 m -3 X s 994 1219 m -3 X s 997 1224 m -6 X s 994 1228 m -3 X s 994 1233 m -3 X s 994 1238 m -3 X s 994 1242 m -3 X s 997 1247 m -6 X s 994 1252 m -3 X s 994 1256 m -3 X s 994 1261 m -3
 X s 994 1266 m -3 X s 997 1270 m -6 X s 997 1060 m -6 X s 994 1056 m -3 X s 997 1270 m -6 X s 994 1275 m -3 X s 994 1280 m -3 X s
 gsave  408 305 930 1009 C 923.04 1054.09 t 0 r /Helvetica findfont 22.8295 sf 0 0 m (\2550.005) show NC gr 
 gsave  408 305 930 1009 C 923.04 1076.88 t 0 r /Helvetica findfont 22.8295 sf 0 0 m (\2550.004) show NC gr 
 gsave  408 305 930 1009 C 923.04 1099.67 t 0 r /Helvetica findfont 22.8295 sf 0 0 m (\2550.003) show NC gr 
 gsave  408 305 930 1009 C 923.04 1122.46 t 0 r /Helvetica findfont 22.8295 sf 0 0 m (\2550.002) show NC gr 
 gsave  408 305 930 1009 C 925.889 1145.25 t 0 r /Helvetica findfont 22.8295 sf 0 0 m (\2550.001) show NC gr 
 gsave  408 305 930 1009 C 974.32 1170.89 t 0 r /Helvetica findfont 22.8295 sf 0 0 m (0) show NC gr 
 gsave  408 305 930 1009 C 934.436 1193.68 t 0 r /Helvetica findfont 22.8295 sf 0 0 m (0.001) show NC gr 
 gsave  408 305 930 1009 C 931.587 1216.48 t 0 r /Helvetica findfont 22.8295 sf 0 0 m (0.002) show NC gr 
 gsave  408 305 930 1009 C 931.587 1239.27 t 0 r /Helvetica findfont 22.8295 sf 0 0 m (0.003) show NC gr 
 gsave  408 305 930 1009 C 931.587 1262.06 t 0 r /Helvetica findfont 22.8295 sf 0 0 m (0.004) show NC gr  1297 1055 m 229 Y s 1292 1060 m 5 X s 1294 1065 m 3 X s 1294 1070 m 3 X s 1294 1074 m 3 X s 1294 1079 m 3 X s 1292 1084 m 5 X s 1294 1088 m 3 X
 s 1294 1093 m 3 X s 1294 1098 m 3 X s 1294 1102 m 3 X s 1292 1107 m 5 X s 1294 1112 m 3 X s 1294 1116 m 3 X s 1294 1121 m 3 X s 1294 1126 m 3 X s 1292 1130 m 5 X s 1294 1135 m 3 X s 1294 1140 m 3 X s 1294 1144 m 3 X s 1294 1149 m 3 X s 1292 1154 m 5
 X s 1294 1158 m 3 X s 1294 1163 m 3 X s 1294 1168 m 3 X s 1294 1172 m 3 X s 1292 1177 m 5 X s 1294 1182 m 3 X s 1294 1186 m 3 X s 1294 1191 m 3 X s 1294 1196 m 3 X s 1292 1200 m 5 X s 1294 1205 m 3 X s 1294 1210 m 3 X s 1294 1214 m 3 X s 1294 1219 m
 3 X s 1292 1224 m 5 X s 1294 1228 m 3 X s 1294 1233 m 3 X s 1294 1238 m 3 X s 1294 1242 m 3 X s 1292 1247 m 5 X s 1294 1252 m 3 X s 1294 1256 m 3 X s 1294 1261 m 3 X s 1294 1266 m 3 X s 1292 1270 m 5 X s 1292 1060 m 5 X s 1294 1056 m 3 X s 1292 1270
 m 5 X s 1294 1275 m 3 X s 1294 1280 m 3 X s 1062 1158 1132 1145 1274 1194 3 { m21} R 1062 1170 m 60 Y s 1056 1230 m 11 X s 1062 1147 m -60 Y s 1056 1087 m 11 X s 1132 1156 m 60 Y s 1127 1216 m 11 X s 1132 1133 m -59 Y s 1127 1074 m 11 X s 1274 1205
 m 60 Y s 1268 1265 m 11 X s 1274 1182 m -59 Y s 1268 1123 m 11 X s 1 0 0 c 9 lw 0.95 0.95 0.95 c black 1 0 0 c 993 1177 m 76 X 3 1 d 52 X 3 1 d 16 X s 1143 1179 m 18 X 3 1 d 28 X 3 1 d 24 X 3 1 d 18 X 4 1 d 18 X 3 1 d 18 X 3 1 d 7 X s 1293 1185 m 3
 X s 0.49 0.6 0.82 c black 0.49 0.6 0.82 c
 gsave  408 305 930 1009 C 1051.24 1293.4 t 0 r /Helvetica-Bold findfont 25.6831 sf 0 0 m (1.0 < E < 1.5 GeV) show NC gr  0.52 0.76 0.64 c black 0.52 0.76 0.64 c
 gsave  408 305 930 1009 C 1037 1256.36 t 0 r /Helvetica-Bold findfont 25.6831 sf 0 0 m 
 220 206 192 185 170 163 148 141 125 118 111 97 83 69 61 47 40 25 18
(A = 0.000, p = 2.000) K NC gr  1 0.6 1 c black 1 0.6 1 c
 gsave  408 305 930 1009 C 1336.13 1122.46 t 90 r /Helvetica-Bold findfont 28.5368 sf 0 0 m (/dof=0.2) show NC gr  black 1 0.6 1 c
 gsave  408 305 930 1009 C 1324.73 1111.07 t 90 r /Helvetica-Bold findfont 19.9758 sf 0 0 m (2) show NC gr  black 1 0.6 1 c
 gsave  408 305 930 1009 C 1336.13 1093.97 t 90 r /Symbol findfont 28.5368 sf 0 0 m (c) show NC gr  black 3 lw 1 1 1 c 408 305 1383 1009 bf black 1 1 1 c black 306 229 1445 1055 bl 306 229 1445 1055 bl 1445 1055 m 306 X s 1445 1059 m -4 Y s 1586 1059
 m -4 Y s 1727 1059 m -4 Y s 1727 1059 m -4 Y s
 gsave  408 305 1383 1009 C 1435.84 1034.15 t 0 r /Helvetica findfont 22.8295 sf 0 0 m (0) show NC gr 
 gsave  408 305 1383 1009 C 1578.29 1034.15 t 0 r /Helvetica findfont 22.8295 sf 0 0 m (1) show NC gr 
 gsave  408 305 1383 1009 C 1717.88 1034.15 t 0 r /Helvetica findfont 22.8295 sf 0 0 m (2) show NC gr  1445 1284 m 306 X s 1445 1280 m 4 Y s 1586 1280 m 4 Y s 1727 1280 m 4 Y s 1727 1280 m 4 Y s 1445 1055 m 229 Y s 1450 1076 m -5 X s 1447 1080 m -2 X
 s 1447 1085 m -2 X s 1447 1089 m -2 X s 1447 1094 m -2 X s 1450 1098 m -5 X s 1447 1103 m -2 X s 1447 1108 m -2 X s 1447 1112 m -2 X s 1447 1117 m -2 X s 1450 1121 m -5 X s 1447 1126 m -2 X s 1447 1131 m -2 X s 1447 1135 m -2 X s 1447 1140 m -2 X s
 1450 1144 m -5 X s 1447 1149 m -2 X s 1447 1154 m -2 X s 1447 1158 m -2 X s 1447 1163 m -2 X s 1450 1167 m -5 X s 1447 1172 m -2 X s 1447 1177 m -2 X s 1447 1181 m -2 X s 1447 1186 m -2 X s 1450 1190 m -5 X s 1447 1195 m -2 X s 1447 1200 m -2 X s
 1447 1204 m -2 X s 1447 1209 m -2 X s 1450 1213 m -5 X s 1447 1218 m -2 X s 1447 1223 m -2 X s 1447 1227 m -2 X s 1447 1232 m -2 X s 1450 1236 m -5 X s 1447 1241 m -2 X s 1447 1246 m -2 X s 1447 1250 m -2 X s 1447 1255 m -2 X s 1450 1259 m -5 X s
 1447 1264 m -2 X s 1447 1269 m -2 X s 1447 1273 m -2 X s 1447 1278 m -2 X s 1450 1282 m -5 X s 1450 1076 m -5 X s 1447 1071 m -2 X s 1447 1066 m -2 X s 1447 1062 m -2 X s 1447 1057 m -2 X s 1450 1282 m -5 X s
 gsave  408 305 1383 1009 C 1376.01 1068.33 t 0 r /Helvetica findfont 22.8295 sf 0 0 m (\2550.004) show NC gr 
 gsave  408 305 1383 1009 C 1376.01 1091.12 t 0 r /Helvetica findfont 22.8295 sf 0 0 m (\2550.003) show NC gr 
 gsave  408 305 1383 1009 C 1376.01 1113.92 t 0 r /Helvetica findfont 22.8295 sf 0 0 m (\2550.002) show NC gr 
 gsave  408 305 1383 1009 C 1378.86 1136.71 t 0 r /Helvetica findfont 22.8295 sf 0 0 m (\2550.001) show NC gr 
 gsave  408 305 1383 1009 C 1427.29 1159.5 t 0 r /Helvetica findfont 22.8295 sf 0 0 m (0) show NC gr 
 gsave  408 305 1383 1009 C 1387.41 1182.29 t 0 r /Helvetica findfont 22.8295 sf 0 0 m (0.001) show NC gr 
 gsave  408 305 1383 1009 C 1384.56 1205.08 t 0 r /Helvetica findfont 22.8295 sf 0 0 m (0.002) show NC gr 
 gsave  408 305 1383 1009 C 1384.56 1227.87 t 0 r /Helvetica findfont 22.8295 sf 0 0 m (0.003) show NC gr 
 gsave  408 305 1383 1009 C 1384.56 1253.51 t 0 r /Helvetica findfont 22.8295 sf 0 0 m (0.004) show NC gr 
 gsave  408 305 1383 1009 C 1384.56 1276.3 t 0 r /Helvetica findfont 22.8295 sf 0 0 m (0.005) show NC gr  1751 1055 m 229 Y s 1745 1076 m 6 X s 1748 1080 m 3 X s 1748 1085 m 3 X s 1748 1089 m 3 X s 1748 1094 m 3 X s 1745 1098 m 6 X s 1748 1103 m 3 X
 s 1748 1108 m 3 X s 1748 1112 m 3 X s 1748 1117 m 3 X s 1745 1121 m 6 X s 1748 1126 m 3 X s 1748 1131 m 3 X s 1748 1135 m 3 X s 1748 1140 m 3 X s 1745 1144 m 6 X s 1748 1149 m 3 X s 1748 1154 m 3 X s 1748 1158 m 3 X s 1748 1163 m 3 X s 1745 1167 m 6
 X s 1748 1172 m 3 X s 1748 1177 m 3 X s 1748 1181 m 3 X s 1748 1186 m 3 X s 1745 1190 m 6 X s 1748 1195 m 3 X s 1748 1200 m 3 X s 1748 1204 m 3 X s 1748 1209 m 3 X s 1745 1213 m 6 X s 1748 1218 m 3 X s 1748 1223 m 3 X s 1748 1227 m 3 X s 1748 1232 m
 3 X s 1745 1236 m 6 X s 1748 1241 m 3 X s 1748 1246 m 3 X s 1748 1250 m 3 X s 1748 1255 m 3 X s 1745 1259 m 6 X s 1748 1264 m 3 X s 1748 1269 m 3 X s 1748 1273 m 3 X s 1748 1278 m 3 X s 1745 1282 m 6 X s 1745 1076 m 6 X s 1748 1071 m 3 X s 1748 1066
 m 3 X s 1748 1062 m 3 X s 1748 1057 m 3 X s 1745 1282 m 6 X s 1515 1167 1586 1193 1727 1145 3 { m21} R 1515 1178 m 60 Y s 1510 1238 m 11 X s 1515 1155 m -60 Y s 1510 1095 m 11 X s 1586 1205 m 60 Y s 1580 1265 m 12 X s 1586 1182 m -60 Y s 1580 1122 m
 12 X s 1727 1156 m 60 Y s 1722 1216 m 11 X s 1727 1134 m -60 Y s 1722 1074 m 11 X s 1 0 0 c 9 lw 0.95 0.95 0.95 c black 1 0 0 c 1446 1167 m 67 X 3 -1 d 28 X 3 -1 d 22 X 3 -1 d 15 X 3 -1 d 6 X s 1596 1163 m 9 X 3 -1 d 13 X 3 -1 d 12 X 3 -1 d 9 X 3 -1
 d 9 X 3 -1 d 10 X 3 -1 d 9 X 3 -1 d 6 X 3 -1 d 9 X 3 -1 d 6 X 4 -1 d 6 X 3 -1 d 6 X 3 -1 d 6 X 3 -1 d s 1746 1150 m 3 X s 0.49 0.6 0.82 c black 0.49 0.6 0.82 c
 gsave  408 305 1383 1009 C 1504.21 1293.4 t 0 r /Helvetica-Bold findfont 25.6831 sf 0 0 m (1.5 < E < 2.0 GeV) show NC gr  0.52 0.76 0.64 c black 0.52 0.76 0.64 c
 gsave  408 305 1383 1009 C 1484.27 1256.36 t 0 r /Helvetica-Bold findfont 25.6831 sf 0 0 m 
 228 214 200 193 178 171 156 149 134 126 119 105 91 77 69 55 47 40 25 17
(A = \2550.000, p = 2.000) K NC gr  1 0.6 1 c black 1 0.6 1 c
 gsave  408 305 1383 1009 C 1789.1 1122.46 t 90 r /Helvetica-Bold findfont 28.5368 sf 0 0 m (/dof=0.1) show NC gr  black 1 0.6 1 c
 gsave  408 305 1383 1009 C 1777.71 1111.07 t 90 r /Helvetica-Bold findfont 19.9758 sf 0 0 m (2) show NC gr  black 1 0.6 1 c
 gsave  408 305 1383 1009 C 1789.1 1093.97 t 90 r /Symbol findfont 28.5368 sf 0 0 m (c) show NC gr  black 3 lw 1 1 1 c 408 305 1837 1009 bf black 1 1 1 c black 306 229 1898 1055 bl 306 229 1898 1055 bl 1898 1055 m 306 X s 1898 1059 m -4 Y s 2039 1059
 m -4 Y s 2181 1059 m -4 Y s 2181 1059 m -4 Y s
 gsave  408 305 1837 1009 C 1888.81 1034.15 t 0 r /Helvetica findfont 22.8295 sf 0 0 m (0) show NC gr 
 gsave  408 305 1837 1009 C 2031.26 1034.15 t 0 r /Helvetica findfont 22.8295 sf 0 0 m (1) show NC gr 
 gsave  408 305 1837 1009 C 2170.85 1034.15 t 0 r /Helvetica findfont 22.8295 sf 0 0 m (2) show NC gr  1898 1284 m 306 X s 1898 1280 m 4 Y s 2039 1280 m 4 Y s 2181 1280 m 4 Y s 2181 1280 m 4 Y s 1898 1055 m 229 Y s 1904 1075 m -6 X s 1901 1080 m -3 X
 s 1901 1085 m -3 X s 1901 1090 m -3 X s 1901 1095 m -3 X s 1904 1100 m -6 X s 1901 1105 m -3 X s 1901 1111 m -3 X s 1901 1116 m -3 X s 1901 1121 m -3 X s 1904 1126 m -6 X s 1901 1131 m -3 X s 1901 1136 m -3 X s 1901 1141 m -3 X s 1901 1146 m -3 X s
 1904 1151 m -6 X s 1901 1156 m -3 X s 1901 1161 m -3 X s 1901 1166 m -3 X s 1901 1171 m -3 X s 1904 1177 m -6 X s 1901 1182 m -3 X s 1901 1187 m -3 X s 1901 1192 m -3 X s 1901 1197 m -3 X s 1904 1202 m -6 X s 1901 1207 m -3 X s 1901 1212 m -3 X s
 1901 1217 m -3 X s 1901 1222 m -3 X s 1904 1227 m -6 X s 1901 1232 m -3 X s 1901 1238 m -3 X s 1901 1243 m -3 X s 1901 1248 m -3 X s 1904 1253 m -6 X s 1901 1258 m -3 X s 1901 1263 m -3 X s 1901 1268 m -3 X s 1901 1273 m -3 X s 1904 1278 m -6 X s
 1904 1075 m -6 X s 1901 1070 m -3 X s 1901 1065 m -3 X s 1901 1060 m -3 X s 1904 1278 m -6 X s 1901 1283 m -3 X s
 gsave  408 305 1837 1009 C 1828.99 1068.33 t 0 r /Helvetica findfont 22.8295 sf 0 0 m (\2550.003) show NC gr 
 gsave  408 305 1837 1009 C 1828.99 1093.97 t 0 r /Helvetica findfont 22.8295 sf 0 0 m (\2550.002) show NC gr 
 gsave  408 305 1837 1009 C 1831.84 1119.61 t 0 r /Helvetica findfont 22.8295 sf 0 0 m (\2550.001) show NC gr 
 gsave  408 305 1837 1009 C 1880.27 1145.25 t 0 r /Helvetica findfont 22.8295 sf 0 0 m (0) show NC gr 
 gsave  408 305 1837 1009 C 1840.38 1168.04 t 0 r /Helvetica findfont 22.8295 sf 0 0 m (0.001) show NC gr 
 gsave  408 305 1837 1009 C 1837.53 1193.68 t 0 r /Helvetica findfont 22.8295 sf 0 0 m (0.002) show NC gr 
 gsave  408 305 1837 1009 C 1837.53 1219.32 t 0 r /Helvetica findfont 22.8295 sf 0 0 m (0.003) show NC gr 
 gsave  408 305 1837 1009 C 1837.53 1244.96 t 0 r /Helvetica findfont 22.8295 sf 0 0 m (0.004) show NC gr 
 gsave  408 305 1837 1009 C 1837.53 1270.6 t 0 r /Helvetica findfont 22.8295 sf 0 0 m (0.005) show NC gr  2204 1055 m 229 Y s 2199 1075 m 5 X s 2201 1080 m 3 X s 2201 1085 m 3 X s 2201 1090 m 3 X s 2201 1095 m 3 X s 2199 1100 m 5 X s 2201 1105 m 3 X
 s 2201 1111 m 3 X s 2201 1116 m 3 X s 2201 1121 m 3 X s 2199 1126 m 5 X s 2201 1131 m 3 X s 2201 1136 m 3 X s 2201 1141 m 3 X s 2201 1146 m 3 X s 2199 1151 m 5 X s 2201 1156 m 3 X s 2201 1161 m 3 X s 2201 1166 m 3 X s 2201 1171 m 3 X s 2199 1177 m 5
 X s 2201 1182 m 3 X s 2201 1187 m 3 X s 2201 1192 m 3 X s 2201 1197 m 3 X s 2199 1202 m 5 X s 2201 1207 m 3 X s 2201 1212 m 3 X s 2201 1217 m 3 X s 2201 1222 m 3 X s 2199 1227 m 5 X s 2201 1232 m 3 X s 2201 1238 m 3 X s 2201 1243 m 3 X s 2201 1248 m
 3 X s 2199 1253 m 5 X s 2201 1258 m 3 X s 2201 1263 m 3 X s 2201 1268 m 3 X s 2201 1273 m 3 X s 2199 1278 m 5 X s 2199 1075 m 5 X s 2201 1070 m 3 X s 2201 1065 m 3 X s 2201 1060 m 3 X s 2199 1278 m 5 X s 2201 1283 m 3 X s 1969 1166 2039 1182 2181
 1157 3 { m21} R 1969 1177 m 72 Y s 1963 1249 m 11 X s 1969 1154 m -71 Y s 1963 1083 m 11 X s 2039 1193 m 72 Y s 2034 1265 m 11 X s 2039 1170 m -71 Y s 2034 1099 m 11 X s 2181 1169 m 71 Y s 2175 1240 m 12 X s 2181 1146 m -72 Y s 2175 1074 m 12 X s 9
 lw 0.95 0.95 0.95 c black 1900 1151 m 3 X 3 1 d 12 X 3 1 d 9 X 3 1 d 13 X 3 1 d 12 X 3 1 d 12 X 3 1 d 12 X 4 1 d 12 X 3 1 d 12 X 3 1 d 9 X 3 1 d 13 X s 2050 1161 m 3 1 d 12 X 3 1 d 12 X 3 1 d 13 X 3 1 d 12 X 3 1 d 9 X 3 1 d 12 X 3 1 d 13 X 3 1 d 12
 X 3 1 d 12 X 3 1 d 13 X s 2200 1171 m 3 1 d s 0.49 0.6 0.82 c black 0.49 0.6 0.82 c
 gsave  408 305 1837 1009 C 1957.19 1293.4 t 0 r /Helvetica-Bold findfont 25.6831 sf 0 0 m (2.0 < E < 2.5 GeV) show NC gr  0.52 0.76 0.64 c black 0.52 0.76 0.64 c
 gsave  408 305 1837 1009 C 1942.94 1256.36 t 0 r /Helvetica-Bold findfont 25.6831 sf 0 0 m 
 220 206 192 185 170 163 148 141 125 118 111 97 83 69 61 47 40 25 18
(A = 0.000, p = 1.000) K NC gr  1 0.6 1 c black 1 0.6 1 c
 gsave  408 305 1837 1009 C 2242.08 1122.46 t 90 r /Helvetica-Bold findfont 28.5368 sf 0 0 m (/dof=0.1) show NC gr  black 1 0.6 1 c
 gsave  408 305 1837 1009 C 2230.68 1111.07 t 90 r /Helvetica-Bold findfont 19.9758 sf 0 0 m (2) show NC gr  black 1 0.6 1 c
 gsave  408 305 1837 1009 C 2242.08 1093.97 t 90 r /Symbol findfont 28.5368 sf 0 0 m (c) show NC gr  black 3 lw 1 1 1 c 408 305 23 677 bf black 1 1 1 c black 306 229 84 723 bl 306 229 84 723 bl 84 723 m 306 X s 84 727 m -4 Y s 225 727 m -4 Y s 367
 727 m -4 Y s 367 727 m -4 Y s
 gsave  408 305 23 677 C 74.0711 703.676 t 0 r /Helvetica findfont 22.8295 sf 0 0 m (0) show NC gr 
 gsave  408 305 23 677 C 219.365 703.676 t 0 r /Helvetica findfont 22.8295 sf 0 0 m (1) show NC gr 
 gsave  408 305 23 677 C 356.111 703.676 t 0 r /Helvetica findfont 22.8295 sf 0 0 m (2) show NC gr  84 952 m 306 X s 84 948 m 4 Y s 225 948 m 4 Y s 367 948 m 4 Y s 367 948 m 4 Y s 84 723 m 229 Y s 89 732 m -5 X s 87 740 m -3 X s 87 748 m -3 X s 87
 757 m -3 X s 89 765 m -5 X s 87 773 m -3 X s 87 782 m -3 X s 87 790 m -3 X s 89 798 m -5 X s 87 807 m -3 X s 87 815 m -3 X s 87 823 m -3 X s 89 832 m -5 X s 87 840 m -3 X s 87 848 m -3 X s 87 857 m -3 X s 89 865 m -5 X s 87 873 m -3 X s 87 882 m -3
 X s 87 890 m -3 X s 89 898 m -5 X s 87 907 m -3 X s 87 915 m -3 X s 87 923 m -3 X s 89 932 m -5 X s 89 732 m -5 X s 87 723 m -3 X s 89 932 m -5 X s 87 940 m -3 X s 87 948 m -3 X s
 gsave  408 305 23 677 C 14.2445 723.618 t 0 r /Helvetica findfont 22.8295 sf 0 0 m (\2550.006) show NC gr 
 gsave  408 305 23 677 C 14.2445 757.805 t 0 r /Helvetica findfont 22.8295 sf 0 0 m (\2550.004) show NC gr 
 gsave  408 305 23 677 C 14.2445 791.991 t 0 r /Helvetica findfont 22.8295 sf 0 0 m (\2550.002) show NC gr 
 gsave  408 305 23 677 C 65.5245 823.329 t 0 r /Helvetica findfont 22.8295 sf 0 0 m (0) show NC gr 
 gsave  408 305 23 677 C 22.7911 857.516 t 0 r /Helvetica findfont 22.8295 sf 0 0 m (0.002) show NC gr 
 gsave  408 305 23 677 C 22.7911 891.703 t 0 r /Helvetica findfont 22.8295 sf 0 0 m (0.004) show NC gr 
 gsave  408 305 23 677 C 22.7911 925.889 t 0 r /Helvetica findfont 22.8295 sf 0 0 m (0.006) show NC gr  390 723 m 229 Y s 385 732 m 5 X s 387 740 m 3 X s 387 748 m 3 X s 387 757 m 3 X s 385 765 m 5 X s 387 773 m 3 X s 387 782 m 3 X s 387 790 m 3 X s
 385 798 m 5 X s 387 807 m 3 X s 387 815 m 3 X s 387 823 m 3 X s 385 832 m 5 X s 387 840 m 3 X s 387 848 m 3 X s 387 857 m 3 X s 385 865 m 5 X s 387 873 m 3 X s 387 882 m 3 X s 387 890 m 3 X s 385 898 m 5 X s 387 907 m 3 X s 387 915 m 3 X s 387 923 m
 3 X s 385 932 m 5 X s 385 732 m 5 X s 387 723 m 3 X s 385 932 m 5 X s 387 940 m 3 X s 387 948 m 3 X s /w 22 def /w2 {w 2 div} def /w3 {w 3 div} def 155 807 225 801 367 874 3 { m21} R 155 819 m 47 Y s 149 866 m 11 X s 155 796 m -48 Y s 149 748 m 11 X
 s 225 812 m 47 Y s 220 859 m 11 X s 225 789 m -47 Y s 220 742 m 11 X s 367 885 m 48 Y s 361 933 m 11 X s 367 862 m -47 Y s 361 815 m 11 X s 1 0 0 c 9 lw 0.95 0.95 0.95 c black 1 0 0 c 85 832 m 43 X 3 1 d 22 X 3 1 d 12 X 3 1 d 12 X 3 1 d 10 X 3 1 d 6
 X 3 1 d 9 X 3 1 d 6 X 3 1 d 6 X s 235 840 m 4 1 d 3 X 3 1 d 6 X 3 1 d 3 X 3 1 d 6 X 3 1 d 3 X 3 1 d 3 X 3 1 d 3 X 3 1 d 7 X 3 1 d 3 X 3 1 d 3 1 d 3 X 3 1 d 3 X 3 1 d 3 X 3 1 d 3 X 3 1 d 3 X 3 1 d 4 1 d 3 X 3 1 d 3 X 3 1 d 3 1 d 3 X 3 1 d 3 1 d 3 X 3
 1 d 3 1 d 3 X 3 1 d 3 1 d 3 X s 385 866 m 4 1 d s 0.49 0.6 0.82 c black 0.49 0.6 0.82 c
 gsave  408 305 23 677 C 142.445 960.076 t 0 r /Helvetica-Bold findfont 25.6831 sf 0 0 m (2.5 < E < 3.0 GeV) show NC gr  0.52 0.76 0.64 c black 0.52 0.76 0.64 c
 gsave  408 305 23 677 C 128.2 923.04 t 0 r /Helvetica-Bold findfont 25.6831 sf 0 0 m 
 220 206 192 185 170 163 148 141 126 118 111 97 83 69 61 47 40 25 18
(A = 0.000, p = 2.000) K NC gr  1 0.6 1 c black 1 0.6 1 c
 gsave  408 305 23 677 C 427.334 791.991 t 90 r /Helvetica-Bold findfont 28.5368 sf 0 0 m (/dof=0.3) show NC gr  black 1 0.6 1 c
 gsave  408 305 23 677 C 415.938 780.596 t 90 r /Helvetica-Bold findfont 19.9758 sf 0 0 m (2) show NC gr  black 1 0.6 1 c
 gsave  408 305 23 677 C 427.334 763.503 t 90 r /Symbol findfont 28.5368 sf 0 0 m (c) show NC gr  black 3 lw 1 1 1 c 408 305 476 677 bf black 1 1 1 c black 307 229 537 723 bl 307 229 537 723 bl 537 723 m 307 X s 537 727 m -4 Y s 679 727 m -4 Y s 820
 727 m -4 Y s 820 727 m -4 Y s
 gsave  408 305 476 677 C 527.045 703.676 t 0 r /Helvetica findfont 22.8295 sf 0 0 m (0) show NC gr 
 gsave  408 305 476 677 C 672.338 703.676 t 0 r /Helvetica findfont 22.8295 sf 0 0 m (1) show NC gr 
 gsave  408 305 476 677 C 809.085 703.676 t 0 r /Helvetica findfont 22.8295 sf 0 0 m (2) show NC gr  537 952 m 307 X s 537 948 m 4 Y s 679 948 m 4 Y s 820 948 m 4 Y s 820 948 m 4 Y s 537 723 m 229 Y s 543 725 m -6 X s 540 731 m -3 X s 540 738 m -3 X
 s 540 744 m -3 X s 543 751 m -6 X s 540 757 m -3 X s 540 764 m -3 X s 540 770 m -3 X s 543 777 m -6 X s 540 783 m -3 X s 540 790 m -3 X s 540 796 m -3 X s 543 803 m -6 X s 540 809 m -3 X s 540 816 m -3 X s 540 822 m -3 X s 543 829 m -6 X s 540 835 m
 -3 X s 540 842 m -3 X s 540 848 m -3 X s 543 855 m -6 X s 540 861 m -3 X s 540 868 m -3 X s 540 874 m -3 X s 543 881 m -6 X s 540 887 m -3 X s 540 894 m -3 X s 540 900 m -3 X s 543 907 m -6 X s 540 914 m -3 X s 540 920 m -3 X s 540 927 m -3 X s 543
 933 m -6 X s 543 725 m -6 X s 543 933 m -6 X s 540 940 m -3 X s 540 946 m -3 X s
 gsave  408 305 476 677 C 484.311 717.92 t 0 r /Helvetica findfont 22.8295 sf 0 0 m (\2550.01) show NC gr 
 gsave  408 305 476 677 C 467.218 743.56 t 0 r /Helvetica findfont 22.8295 sf 0 0 m (\2550.008) show NC gr 
 gsave  408 305 476 677 C 467.218 769.2 t 0 r /Helvetica findfont 22.8295 sf 0 0 m (\2550.006) show NC gr 
 gsave  408 305 476 677 C 467.218 794.84 t 0 r /Helvetica findfont 22.8295 sf 0 0 m (\2550.004) show NC gr 
 gsave  408 305 476 677 C 467.218 820.48 t 0 r /Helvetica findfont 22.8295 sf 0 0 m (\2550.002) show NC gr 
 gsave  408 305 476 677 C 518.498 848.969 t 0 r /Helvetica findfont 22.8295 sf 0 0 m (0) show NC gr 
 gsave  408 305 476 677 C 475.765 874.609 t 0 r /Helvetica findfont 22.8295 sf 0 0 m (0.002) show NC gr 
 gsave  408 305 476 677 C 475.765 900.249 t 0 r /Helvetica findfont 22.8295 sf 0 0 m (0.004) show NC gr 
 gsave  408 305 476 677 C 475.765 925.889 t 0 r /Helvetica findfont 22.8295 sf 0 0 m (0.006) show NC gr  844 723 m 229 Y s 838 725 m 6 X s 841 731 m 3 X s 841 738 m 3 X s 841 744 m 3 X s 838 751 m 6 X s 841 757 m 3 X s 841 764 m 3 X s 841 770 m 3 X s
 838 777 m 6 X s 841 783 m 3 X s 841 790 m 3 X s 841 796 m 3 X s 838 803 m 6 X s 841 809 m 3 X s 841 816 m 3 X s 841 822 m 3 X s 838 829 m 6 X s 841 835 m 3 X s 841 842 m 3 X s 841 848 m 3 X s 838 855 m 6 X s 841 861 m 3 X s 841 868 m 3 X s 841 874 m
 3 X s 838 881 m 6 X s 841 887 m 3 X s 841 894 m 3 X s 841 900 m 3 X s 838 907 m 6 X s 841 914 m 3 X s 841 920 m 3 X s 841 927 m 3 X s 838 933 m 6 X s 838 725 m 6 X s 838 933 m 6 X s 841 940 m 3 X s 841 946 m 3 X s /w 23 def /w2 {w 2 div} def /w3 {w
 3 div} def 608 871 679 880 820 794 3 { m21} R 608 883 m 41 Y s 602 924 m 12 X s 608 860 m -41 Y s 602 819 m 12 X s 679 892 m 41 Y s 673 933 m 12 X s 679 869 m -41 Y s 673 828 m 12 X s 820 805 m 40 Y s 815 845 m 11 X s 820 782 m -40 Y s 815 742 m 11
 X s 1 0 0 c 9 lw 0.95 0.95 0.95 c black 1 0 0 c 539 855 m 21 X 3 -1 d 19 X 3 -1 d 12 X 3 -1 d 9 X 3 -1 d 7 X 3 -1 d 6 X 3 -1 d 6 X 3 -1 d 3 X 3 -1 d 3 X 3 -1 d 6 X 3 -1 d 3 X 4 -1 d 3 X 3 -1 d 3 X 3 -1 d 3 -1 d 3 X 3 -1 d s 689 840 m 3 X 3 -1 d 3 -1
 d 3 X 3 -1 d 3 X 3 -1 d 3 -1 d 4 X 3 -1 d 3 -1 d 3 -1 d 3 X 3 -1 d 3 -1 d 3 -1 d 3 X 3 -1 d 3 -1 d 3 -1 d 3 -1 d 3 -1 d 3 X 3 -1 d 4 -1 d 3 -1 d 3 -1 d 3 -1 d 3 -1 d 3 -1 d 3 -1 d 3 -1 d 3 -1 d 3 -1 d 3 -1 d 3 -1 d 3 -1 d 3 -1 d 3 -1 d 3 -1 d 4 -1 d
 3 -1 d 3 -1 d 3 -1 d 3 -1 d 3 -1 d 3 -2 d 3 -1 d 3 -1 d s 839 797 m 3 -1 d s 0.49 0.6 0.82 c black 0.49 0.6 0.82 c
 gsave  408 305 476 677 C 595.418 960.076 t 0 r /Helvetica-Bold findfont 25.6831 sf 0 0 m (3.0 < E < 3.5 GeV) show NC gr  0.52 0.76 0.64 c black 0.52 0.76 0.64 c
 gsave  408 305 476 677 C 575.476 923.04 t 0 r /Helvetica-Bold findfont 25.6831 sf 0 0 m 
 228 214 200 193 178 171 156 149 133 126 119 105 91 76 69 55 47 39 25 17
(A = \2550.001, p = 2.000) K NC gr  1 0.6 1 c black 1 0.6 1 c
 gsave  408 305 476 677 C 883.156 791.991 t 90 r /Helvetica-Bold findfont 28.5368 sf 0 0 m (/dof=0.4) show NC gr  black 1 0.6 1 c
 gsave  408 305 476 677 C 871.76 780.596 t 90 r /Helvetica-Bold findfont 19.9758 sf 0 0 m (2) show NC gr  black 1 0.6 1 c
 gsave  408 305 476 677 C 883.156 763.503 t 90 r /Symbol findfont 28.5368 sf 0 0 m (c) show NC gr  black 3 lw 1 1 1 c 408 305 930 677 bf black 1 1 1 c black 306 229 991 723 bl 306 229 991 723 bl 991 723 m 306 X s 991 727 m -4 Y s 1132 727 m -4 Y s
 1274 727 m -4 Y s 1274 727 m -4 Y s
 gsave  408 305 930 677 C 980.018 703.676 t 0 r /Helvetica findfont 22.8295 sf 0 0 m (0) show NC gr 
 gsave  408 305 930 677 C 1125.31 703.676 t 0 r /Helvetica findfont 22.8295 sf 0 0 m (1) show NC gr 
 gsave  408 305 930 677 C 1264.91 703.676 t 0 r /Helvetica findfont 22.8295 sf 0 0 m (2) show NC gr  991 952 m 306 X s 991 948 m 4 Y s 1132 948 m 4 Y s 1274 948 m 4 Y s 1274 948 m 4 Y s 991 723 m 229 Y s 997 729 m -6 X s 994 735 m -3 X s 994 742 m -3
 X s 994 749 m -3 X s 997 755 m -6 X s 994 762 m -3 X s 994 768 m -3 X s 994 775 m -3 X s 997 782 m -6 X s 994 788 m -3 X s 994 795 m -3 X s 994 801 m -3 X s 997 808 m -6 X s 994 815 m -3 X s 994 821 m -3 X s 994 828 m -3 X s 997 834 m -6 X s 994 841
 m -3 X s 994 848 m -3 X s 994 854 m -3 X s 997 861 m -6 X s 994 868 m -3 X s 994 874 m -3 X s 994 881 m -3 X s 997 887 m -6 X s 994 894 m -3 X s 994 901 m -3 X s 994 907 m -3 X s 997 914 m -6 X s 994 920 m -3 X s 994 927 m -3 X s 994 934 m -3 X s
 997 940 m -6 X s 997 729 m -6 X s 997 940 m -6 X s 994 947 m -3 X s
 gsave  408 305 930 677 C 923.04 720.769 t 0 r /Helvetica findfont 22.8295 sf 0 0 m (\2550.008) show NC gr 
 gsave  408 305 930 677 C 923.04 749.258 t 0 r /Helvetica findfont 22.8295 sf 0 0 m (\2550.006) show NC gr 
 gsave  408 305 930 677 C 923.04 774.898 t 0 r /Helvetica findfont 22.8295 sf 0 0 m (\2550.004) show NC gr 
 gsave  408 305 930 677 C 923.04 800.538 t 0 r /Helvetica findfont 22.8295 sf 0 0 m (\2550.002) show NC gr 
 gsave  408 305 930 677 C 974.32 826.178 t 0 r /Helvetica findfont 22.8295 sf 0 0 m (0) show NC gr 
 gsave  408 305 930 677 C 931.587 854.667 t 0 r /Helvetica findfont 22.8295 sf 0 0 m (0.002) show NC gr 
 gsave  408 305 930 677 C 931.587 880.307 t 0 r /Helvetica findfont 22.8295 sf 0 0 m (0.004) show NC gr 
 gsave  408 305 930 677 C 931.587 905.947 t 0 r /Helvetica findfont 22.8295 sf 0 0 m (0.006) show NC gr 
 gsave  408 305 930 677 C 931.587 934.436 t 0 r /Helvetica findfont 22.8295 sf 0 0 m (0.008) show NC gr  1297 723 m 229 Y s 1292 729 m 5 X s 1294 735 m 3 X s 1294 742 m 3 X s 1294 749 m 3 X s 1292 755 m 5 X s 1294 762 m 3 X s 1294 768 m 3 X s 1294
 775 m 3 X s 1292 782 m 5 X s 1294 788 m 3 X s 1294 795 m 3 X s 1294 801 m 3 X s 1292 808 m 5 X s 1294 815 m 3 X s 1294 821 m 3 X s 1294 828 m 3 X s 1292 834 m 5 X s 1294 841 m 3 X s 1294 848 m 3 X s 1294 854 m 3 X s 1292 861 m 5 X s 1294 868 m 3 X s
 1294 874 m 3 X s 1294 881 m 3 X s 1292 887 m 5 X s 1294 894 m 3 X s 1294 901 m 3 X s 1294 907 m 3 X s 1292 914 m 5 X s 1294 920 m 3 X s 1294 927 m 3 X s 1294 934 m 3 X s 1292 940 m 5 X s 1292 729 m 5 X s 1292 940 m 5 X s 1294 947 m 3 X s 1062 868
 1132 806 1274 840 3 { m21} R 1062 879 m 54 Y s 1056 933 m 11 X s 1062 856 m -53 Y s 1056 803 m 11 X s 1132 818 m 52 Y s 1127 870 m 11 X s 1132 795 m -53 Y s 1127 742 m 11 X s 1274 851 m 53 Y s 1268 904 m 11 X s 1274 828 m -53 Y s 1268 775 m 11 X s 9
 lw 0.95 0.95 0.95 c black 993 834 m 150 X s 1143 834 m 150 X s 1293 834 m 3 X s 0.49 0.6 0.82 c black 0.49 0.6 0.82 c
 gsave  408 305 930 677 C 1051.24 960.076 t 0 r /Helvetica-Bold findfont 25.6831 sf 0 0 m (3.5 < E < 4.0 GeV) show NC gr  0.52 0.76 0.64 c black 0.52 0.76 0.64 c
 gsave  408 305 930 677 C 1031.3 923.04 t 0 r /Helvetica-Bold findfont 25.6831 sf 0 0 m 
 228 214 200 193 178 171 156 149 133 126 119 105 91 77 69 55 47 39 25 17
(A = \2550.000, p = 1.000) K NC gr  1 0.6 1 c black 1 0.6 1 c
 gsave  408 305 930 677 C 1336.13 791.991 t 90 r /Helvetica-Bold findfont 28.5368 sf 0 0 m (/dof=0.2) show NC gr  black 1 0.6 1 c
 gsave  408 305 930 677 C 1324.73 780.596 t 90 r /Helvetica-Bold findfont 19.9758 sf 0 0 m (2) show NC gr  black 1 0.6 1 c
 gsave  408 305 930 677 C 1336.13 763.503 t 90 r /Symbol findfont 28.5368 sf 0 0 m (c) show NC gr  black 3 lw 1 1 1 c 408 305 1383 677 bf black 1 1 1 c black 306 229 1445 723 bl 306 229 1445 723 bl 1445 723 m 306 X s 1445 727 m -4 Y s 1586 727 m -4 Y
 s 1727 727 m -4 Y s 1727 727 m -4 Y s
 gsave  408 305 1383 677 C 1435.84 703.676 t 0 r /Helvetica findfont 22.8295 sf 0 0 m (0) show NC gr 
 gsave  408 305 1383 677 C 1578.29 703.676 t 0 r /Helvetica findfont 22.8295 sf 0 0 m (1) show NC gr 
 gsave  408 305 1383 677 C 1717.88 703.676 t 0 r /Helvetica findfont 22.8295 sf 0 0 m (2) show NC gr  1445 952 m 306 X s 1445 948 m 4 Y s 1586 948 m 4 Y s 1727 948 m 4 Y s 1727 948 m 4 Y s 1445 723 m 229 Y s 1450 744 m -5 X s 1447 753 m -2 X s 1447
 762 m -2 X s 1447 771 m -2 X s 1447 780 m -2 X s 1450 789 m -5 X s 1447 799 m -2 X s 1447 808 m -2 X s 1447 817 m -2 X s 1447 826 m -2 X s 1450 835 m -5 X s 1447 844 m -2 X s 1447 854 m -2 X s 1447 863 m -2 X s 1447 872 m -2 X s 1450 881 m -5 X s
 1447 890 m -2 X s 1447 899 m -2 X s 1447 908 m -2 X s 1447 918 m -2 X s 1450 927 m -5 X s 1450 744 m -5 X s 1447 734 m -2 X s 1447 725 m -2 X s 1450 927 m -5 X s 1447 936 m -2 X s 1447 945 m -2 X s
 gsave  408 305 1383 677 C 1393.11 737.863 t 0 r /Helvetica findfont 22.8295 sf 0 0 m (\2550.01) show NC gr 
 gsave  408 305 1383 677 C 1376.01 783.445 t 0 r /Helvetica findfont 22.8295 sf 0 0 m (\2550.005) show NC gr 
 gsave  408 305 1383 677 C 1427.29 829.027 t 0 r /Helvetica findfont 22.8295 sf 0 0 m (0) show NC gr 
 gsave  408 305 1383 677 C 1384.56 874.609 t 0 r /Helvetica findfont 22.8295 sf 0 0 m (0.005) show NC gr 
 gsave  408 305 1383 677 C 1398.81 920.192 t 0 r /Helvetica findfont 22.8295 sf 0 0 m (0.01) show NC gr  1751 723 m 229 Y s 1745 744 m 6 X s 1748 753 m 3 X s 1748 762 m 3 X s 1748 771 m 3 X s 1748 780 m 3 X s 1745 789 m 6 X s 1748 799 m 3 X s 1748
 808 m 3 X s 1748 817 m 3 X s 1748 826 m 3 X s 1745 835 m 6 X s 1748 844 m 3 X s 1748 854 m 3 X s 1748 863 m 3 X s 1748 872 m 3 X s 1745 881 m 6 X s 1748 890 m 3 X s 1748 899 m 3 X s 1748 908 m 3 X s 1748 918 m 3 X s 1745 927 m 6 X s 1745 744 m 6 X s
 1748 734 m 3 X s 1748 725 m 3 X s 1745 927 m 6 X s 1748 936 m 3 X s 1748 945 m 3 X s 1515 810 1586 873 1727 801 3 { m21} R 1515 821 m 48 Y s 1510 869 m 11 X s 1515 798 m -47 Y s 1510 751 m 11 X s 1586 885 m 48 Y s 1580 933 m 12 X s 1586 862 m -48 Y
 s 1580 814 m 12 X s 1727 812 m 48 Y s 1722 860 m 11 X s 1727 790 m -48 Y s 1722 742 m 11 X s 1 0 0 c 9 lw 0.95 0.95 0.95 c black 1 0 0 c 1446 835 m 43 X 3 -1 d 24 X 4 -1 d 18 X 3 -1 d 12 X 3 -1 d 9 X 4 -1 d 9 X 3 -1 d 9 X 3 -1 d 3 X s 1596 828 m 6 X
 3 -1 d 6 X 3 -1 d 7 X 3 -1 d 6 X 3 -1 d 6 X 3 -1 d 3 X 3 -1 d 6 X 3 -1 d 3 X 3 -1 d 7 X 3 -1 d 3 X 3 -1 d 3 X 3 -1 d 3 X 3 -1 d 6 X 3 -1 d 3 X 3 -1 d 3 X 3 -1 d 3 X 4 -1 d 3 X 3 -1 d 3 -1 d 3 X 3 -1 d 3 X 3 -1 d 3 X 3 -1 d s 1746 807 m 3 X s 0.49
 0.6 0.82 c black 0.49 0.6 0.82 c
 gsave  408 305 1383 677 C 1504.21 960.076 t 0 r /Helvetica-Bold findfont 25.6831 sf 0 0 m (4.0 < E < 4.5 GeV) show NC gr  0.52 0.76 0.64 c black 0.52 0.76 0.64 c
 gsave  408 305 1383 677 C 1484.27 923.04 t 0 r /Helvetica-Bold findfont 25.6831 sf 0 0 m 
 228 214 200 193 178 171 156 149 134 126 119 105 91 77 69 55 47 40 25 17
(A = \2550.001, p = 2.000) K NC gr  1 0.6 1 c black 1 0.6 1 c
 gsave  408 305 1383 677 C 1789.1 791.991 t 90 r /Helvetica-Bold findfont 28.5368 sf 0 0 m (/dof=0.4) show NC gr  black 1 0.6 1 c
 gsave  408 305 1383 677 C 1777.71 780.596 t 90 r /Helvetica-Bold findfont 19.9758 sf 0 0 m (2) show NC gr  black 1 0.6 1 c
 gsave  408 305 1383 677 C 1789.1 763.503 t 90 r /Symbol findfont 28.5368 sf 0 0 m (c) show NC gr  black 3 lw 1 1 1 c 408 305 1837 677 bf black 1 1 1 c black 306 229 1898 723 bl 306 229 1898 723 bl 1898 723 m 306 X s 1898 727 m -4 Y s 2039 727 m -4 Y
 s 2181 727 m -4 Y s 2181 727 m -4 Y s
 gsave  408 305 1837 677 C 1888.81 703.676 t 0 r /Helvetica findfont 22.8295 sf 0 0 m (0) show NC gr 
 gsave  408 305 1837 677 C 2031.26 703.676 t 0 r /Helvetica findfont 22.8295 sf 0 0 m (1) show NC gr 
 gsave  408 305 1837 677 C 2170.85 703.676 t 0 r /Helvetica findfont 22.8295 sf 0 0 m (2) show NC gr  1898 952 m 306 X s 1898 948 m 4 Y s 2039 948 m 4 Y s 2181 948 m 4 Y s 2181 948 m 4 Y s 1898 723 m 229 Y s 1904 762 m -6 X s 1901 770 m -3 X s 1901
 779 m -3 X s 1901 787 m -3 X s 1901 795 m -3 X s 1904 804 m -6 X s 1901 812 m -3 X s 1901 820 m -3 X s 1901 829 m -3 X s 1901 837 m -3 X s 1904 845 m -6 X s 1901 854 m -3 X s 1901 862 m -3 X s 1901 870 m -3 X s 1901 879 m -3 X s 1904 887 m -6 X s
 1901 896 m -3 X s 1901 904 m -3 X s 1901 912 m -3 X s 1901 921 m -3 X s 1904 929 m -6 X s 1904 762 m -6 X s 1901 753 m -3 X s 1901 745 m -3 X s 1901 737 m -3 X s 1901 728 m -3 X s 1904 929 m -6 X s 1901 937 m -3 X s 1901 946 m -3 X s
 gsave  408 305 1837 677 C 1880.27 754.956 t 0 r /Helvetica findfont 22.8295 sf 0 0 m (0) show NC gr 
 gsave  408 305 1837 677 C 1837.53 797.689 t 0 r /Helvetica findfont 22.8295 sf 0 0 m (0.005) show NC gr 
 gsave  408 305 1837 677 C 1851.78 837.574 t 0 r /Helvetica findfont 22.8295 sf 0 0 m (0.01) show NC gr 
 gsave  408 305 1837 677 C 1837.53 880.307 t 0 r /Helvetica findfont 22.8295 sf 0 0 m (0.015) show NC gr 
 gsave  408 305 1837 677 C 1848.93 923.04 t 0 r /Helvetica findfont 22.8295 sf 0 0 m (0.02) show NC gr  2204 723 m 229 Y s 2199 762 m 5 X s 2201 770 m 3 X s 2201 779 m 3 X s 2201 787 m 3 X s 2201 795 m 3 X s 2199 804 m 5 X s 2201 812 m 3 X s 2201 820
 m 3 X s 2201 829 m 3 X s 2201 837 m 3 X s 2199 845 m 5 X s 2201 854 m 3 X s 2201 862 m 3 X s 2201 870 m 3 X s 2201 879 m 3 X s 2199 887 m 5 X s 2201 896 m 3 X s 2201 904 m 3 X s 2201 912 m 3 X s 2201 921 m 3 X s 2199 929 m 5 X s 2199 762 m 5 X s
 2201 753 m 3 X s 2201 745 m 3 X s 2201 737 m 3 X s 2201 728 m 3 X s 2199 929 m 5 X s 2201 937 m 3 X s 2201 946 m 3 X s 1969 815 2039 831 2181 859 3 { m21} R 1969 827 m 62 Y s 1963 889 m 11 X s 1969 804 m -62 Y s 1963 742 m 11 X s 2039 842 m 63 Y s
 2034 905 m 11 X s 2039 819 m -62 Y s 2034 757 m 11 X s 2181 870 m 63 Y s 2175 933 m 12 X s 2181 848 m -63 Y s 2175 785 m 12 X s 9 lw 0.95 0.95 0.95 c black 1900 762 m 3 2 d 3 1 d 3 1 d 3 1 d 3 1 d 3 2 d 3 1 d 3 1 d 3 1 d 3 1 d 3 2 d 3 1 d 3 1 d 3 1
 d 4 1 d 3 2 d 3 1 d 3 1 d 3 1 d 3 1 d 3 2 d 3 1 d 3 1 d 3 1 d 3 1 d 3 2 d 3 1 d 3 1 d 3 1 d 3 1 d 4 2 d 3 1 d 3 1 d 3 1 d 3 1 d 3 1 d 3 2 d 3 1 d 3 1 d 3 1 d 3 1 d 3 2 d 3 1 d 3 1 d 3 1 d 3 1 d 3 2 d 4 1 d 3 1 d s 2050 821 m 3 1 d 3 1 d 3 2 d 3 1 d
 3 1 d 3 1 d 3 1 d 3 2 d 3 1 d 3 1 d 3 1 d 3 1 d 3 2 d 3 1 d 4 1 d 3 1 d 3 1 d 3 2 d 3 1 d 3 1 d 3 1 d 3 1 d 3 2 d 3 1 d 3 1 d 3 1 d 3 1 d 3 2 d 3 1 d 3 1 d 4 1 d 3 1 d 3 2 d 3 1 d 3 1 d 3 1 d 3 1 d 3 2 d 3 1 d 3 1 d 3 1 d 3 1 d 3 2 d 3 1 d 3 1 d 3 1
 d 4 1 d 3 2 d 3 1 d s 2200 880 m 3 1 d s 0.49 0.6 0.82 c black 0.49 0.6 0.82 c
 gsave  408 305 1837 677 C 1957.19 960.076 t 0 r /Helvetica-Bold findfont 25.6831 sf 0 0 m (4.5 < E < 5.0 GeV) show NC gr  0.52 0.76 0.64 c black 0.52 0.76 0.64 c
 gsave  408 305 1837 677 C 1942.94 923.04 t 0 r /Helvetica-Bold findfont 25.6831 sf 0 0 m 
 220 206 192 185 170 163 148 141 125 118 111 97 83 69 61 47 40 25 18
(A = 0.007, p = 1.000) K NC gr  1 0.6 1 c black 1 0.6 1 c
 gsave  408 305 1837 677 C 2242.08 791.991 t 90 r /Helvetica-Bold findfont 28.5368 sf 0 0 m (/dof=0.1) show NC gr  black 1 0.6 1 c
 gsave  408 305 1837 677 C 2230.68 780.596 t 90 r /Helvetica-Bold findfont 19.9758 sf 0 0 m (2) show NC gr  black 1 0.6 1 c
 gsave  408 305 1837 677 C 2242.08 763.503 t 90 r /Symbol findfont 28.5368 sf 0 0 m (c) show NC gr  black 3 lw 1 1 1 c 408 306 23 345 bf black 1 1 1 c black 306 229 84 391 bl 306 229 84 391 bl 84 391 m 306 X s 84 395 m -4 Y s 225 395 m -4 Y s 367 395
 m -4 Y s 367 395 m -4 Y s
 gsave  408 306 23 345 C 74.0711 370.356 t 0 r /Helvetica findfont 22.8295 sf 0 0 m (0) show NC gr 
 gsave  408 306 23 345 C 219.365 370.356 t 0 r /Helvetica findfont 22.8295 sf 0 0 m (1) show NC gr 
 gsave  408 306 23 345 C 356.111 370.356 t 0 r /Helvetica findfont 22.8295 sf 0 0 m (2) show NC gr  84 620 m 306 X s 84 616 m 4 Y s 225 616 m 4 Y s 367 616 m 4 Y s 367 616 m 4 Y s 84 391 m 229 Y s 89 400 m -5 X s 87 406 m -3 X s 87 413 m -3 X s 87
 419 m -3 X s 87 425 m -3 X s 89 431 m -5 X s 87 438 m -3 X s 87 444 m -3 X s 87 450 m -3 X s 87 456 m -3 X s 89 462 m -5 X s 87 469 m -3 X s 87 475 m -3 X s 87 481 m -3 X s 87 487 m -3 X s 89 494 m -5 X s 87 500 m -3 X s 87 506 m -3 X s 87 512 m -3
 X s 87 519 m -3 X s 89 525 m -5 X s 87 531 m -3 X s 87 537 m -3 X s 87 544 m -3 X s 87 550 m -3 X s 89 556 m -5 X s 87 562 m -3 X s 87 569 m -3 X s 87 575 m -3 X s 87 581 m -3 X s 89 587 m -5 X s 87 593 m -3 X s 87 600 m -3 X s 87 606 m -3 X s 87
 612 m -3 X s 89 618 m -5 X s 89 400 m -5 X s 87 394 m -3 X s 89 618 m -5 X s
 gsave  408 306 23 345 C 14.2445 393.147 t 0 r /Helvetica findfont 22.8295 sf 0 0 m (\2550.015) show NC gr 
 gsave  408 306 23 345 C 31.3378 424.485 t 0 r /Helvetica findfont 22.8295 sf 0 0 m (\2550.01) show NC gr 
 gsave  408 306 23 345 C 14.2445 455.822 t 0 r /Helvetica findfont 22.8295 sf 0 0 m (\2550.005) show NC gr 
 gsave  408 306 23 345 C 65.5245 487.16 t 0 r /Helvetica findfont 22.8295 sf 0 0 m (0) show NC gr 
 gsave  408 306 23 345 C 22.7911 518.498 t 0 r /Helvetica findfont 22.8295 sf 0 0 m (0.005) show NC gr 
 gsave  408 306 23 345 C 37.0356 549.836 t 0 r /Helvetica findfont 22.8295 sf 0 0 m (0.01) show NC gr 
 gsave  408 306 23 345 C 22.7911 581.174 t 0 r /Helvetica findfont 22.8295 sf 0 0 m (0.015) show NC gr 
 gsave  408 306 23 345 C 34.1867 612.511 t 0 r /Helvetica findfont 22.8295 sf 0 0 m (0.02) show NC gr  390 391 m 229 Y s 385 400 m 5 X s 387 406 m 3 X s 387 413 m 3 X s 387 419 m 3 X s 387 425 m 3 X s 385 431 m 5 X s 387 438 m 3 X s 387 444 m 3 X s
 387 450 m 3 X s 387 456 m 3 X s 385 462 m 5 X s 387 469 m 3 X s 387 475 m 3 X s 387 481 m 3 X s 387 487 m 3 X s 385 494 m 5 X s 387 500 m 3 X s 387 506 m 3 X s 387 512 m 3 X s 387 519 m 3 X s 385 525 m 5 X s 387 531 m 3 X s 387 537 m 3 X s 387 544 m
 3 X s 387 550 m 3 X s 385 556 m 5 X s 387 562 m 3 X s 387 569 m 3 X s 387 575 m 3 X s 387 581 m 3 X s 385 587 m 5 X s 387 593 m 3 X s 387 600 m 3 X s 387 606 m 3 X s 387 612 m 3 X s 385 618 m 5 X s 385 400 m 5 X s 387 394 m 3 X s 385 618 m 5 X s /w
 22 def /w2 {w 2 div} def /w3 {w 3 div} def 155 482 225 529 367 495 3 { m21} R 155 493 m 60 Y s 149 553 m 11 X s 155 470 m -60 Y s 149 410 m 11 X s 225 541 m 60 Y s 220 601 m 11 X s 225 518 m -60 Y s 220 458 m 11 X s 367 506 m 60 Y s 361 566 m 11 X s
 367 483 m -60 Y s 361 423 m 11 X s 9 lw 0.95 0.95 0.95 c black 85 494 m 16 X 3 1 d 21 X 3 1 d 22 X 3 1 d 21 X 3 1 d 19 X 3 1 d 21 X 3 1 d 12 X s 235 500 m 10 X 3 1 d 21 X 3 1 d 22 X 3 1 d 18 X 3 1 d 22 X 3 1 d 21 X 3 1 d 18 X s 385 506 m 4 X s 0.49
 0.6 0.82 c black 0.49 0.6 0.82 c
 gsave  408 306 23 345 C 142.445 629.605 t 0 r /Helvetica-Bold findfont 25.6831 sf 0 0 m (5.0 < E < 5.5 GeV) show NC gr  0.52 0.76 0.64 c black 0.52 0.76 0.64 c
 gsave  408 306 23 345 C 128.2 592.569 t 0 r /Helvetica-Bold findfont 25.6831 sf 0 0 m 
 220 206 192 185 170 163 148 141 126 118 111 97 83 69 61 47 40 25 18
(A = 0.001, p = 1.000) K NC gr  1 0.6 1 c black 1 0.6 1 c
 gsave  408 306 23 345 C 427.334 458.671 t 90 r /Helvetica-Bold findfont 28.5368 sf 0 0 m (/dof=0.1) show NC gr  black 1 0.6 1 c
 gsave  408 306 23 345 C 415.938 447.276 t 90 r /Helvetica-Bold findfont 19.9758 sf 0 0 m (2) show NC gr  black 1 0.6 1 c
 gsave  408 306 23 345 C 427.334 430.182 t 90 r /Symbol findfont 28.5368 sf 0 0 m (c) show NC gr  black 3 lw 1 1 1 c 408 306 476 345 bf black 1 1 1 c black 307 229 537 391 bl 307 229 537 391 bl 537 391 m 307 X s 537 395 m -4 Y s 679 395 m -4 Y s 820
 395 m -4 Y s 820 395 m -4 Y s
 gsave  408 306 476 345 C 527.045 370.356 t 0 r /Helvetica findfont 22.8295 sf 0 0 m (0) show NC gr 
 gsave  408 306 476 345 C 672.338 370.356 t 0 r /Helvetica findfont 22.8295 sf 0 0 m (1) show NC gr 
 gsave  408 306 476 345 C 809.085 370.356 t 0 r /Helvetica findfont 22.8295 sf 0 0 m (2) show NC gr  537 620 m 307 X s 537 616 m 4 Y s 679 616 m 4 Y s 820 616 m 4 Y s 820 616 m 4 Y s 537 391 m 229 Y s 543 415 m -6 X s 540 424 m -3 X s 540 433 m -3 X
 s 540 442 m -3 X s 540 451 m -3 X s 543 460 m -6 X s 540 469 m -3 X s 540 478 m -3 X s 540 487 m -3 X s 540 496 m -3 X s 543 505 m -6 X s 540 514 m -3 X s 540 523 m -3 X s 540 532 m -3 X s 540 541 m -3 X s 543 550 m -6 X s 540 558 m -3 X s 540 567 m
 -3 X s 540 576 m -3 X s 540 585 m -3 X s 543 594 m -6 X s 543 415 m -6 X s 540 406 m -3 X s 540 397 m -3 X s 543 594 m -6 X s 540 603 m -3 X s 540 612 m -3 X s
 gsave  408 306 476 345 C 481.462 407.391 t 0 r /Helvetica findfont 22.8295 sf 0 0 m (\2550.02) show NC gr 
 gsave  408 306 476 345 C 484.311 452.974 t 0 r /Helvetica findfont 22.8295 sf 0 0 m (\2550.01) show NC gr 
 gsave  408 306 476 345 C 518.498 498.556 t 0 r /Helvetica findfont 22.8295 sf 0 0 m (0) show NC gr 
 gsave  408 306 476 345 C 490.009 541.289 t 0 r /Helvetica findfont 22.8295 sf 0 0 m (0.01) show NC gr 
 gsave  408 306 476 345 C 487.16 586.871 t 0 r /Helvetica findfont 22.8295 sf 0 0 m (0.02) show NC gr  844 391 m 229 Y s 838 415 m 6 X s 841 424 m 3 X s 841 433 m 3 X s 841 442 m 3 X s 841 451 m 3 X s 838 460 m 6 X s 841 469 m 3 X s 841 478 m 3 X s
 841 487 m 3 X s 841 496 m 3 X s 838 505 m 6 X s 841 514 m 3 X s 841 523 m 3 X s 841 532 m 3 X s 841 541 m 3 X s 838 550 m 6 X s 841 558 m 3 X s 841 567 m 3 X s 841 576 m 3 X s 841 585 m 3 X s 838 594 m 6 X s 838 415 m 6 X s 841 406 m 3 X s 841 397 m
 3 X s 838 594 m 6 X s 841 603 m 3 X s 841 612 m 3 X s /w 23 def /w2 {w 2 div} def /w3 {w 3 div} def 608 536 679 487 820 474 3 { m21} R 608 547 m 54 Y s 602 601 m 12 X s 608 525 m -54 Y s 602 471 m 12 X s 679 498 m 53 Y s 673 551 m 12 X s 679 476 m
 -53 Y s 673 423 m 12 X s 820 485 m 52 Y s 815 537 m 11 X s 820 462 m -52 Y s 815 410 m 11 X s 1 0 0 c 9 lw 0.95 0.95 0.95 c black 1 0 0 c 539 505 m 24 X 4 -1 d 27 X 3 -1 d 15 X 4 -1 d 12 X 3 -1 d 9 X 3 -1 d 9 X 3 -1 d 6 X 3 -1 d 7 X 3 -1 d 6 X 3 -1
 d 6 X s 689 496 m 3 -1 d 6 X 3 -1 d 3 X 3 -1 d 6 X 4 -1 d 3 X 3 -1 d 3 X 3 -1 d 3 X 3 -1 d 3 X 3 -1 d 3 X 3 -1 d 3 X 3 -1 d 3 X 3 -1 d 3 X 4 -1 d 3 X 3 -1 d 3 X 3 -1 d 3 -1 d 3 X 3 -1 d 3 X 3 -1 d 3 -1 d 3 X 3 -1 d 3 X 3 -1 d 3 -1 d 4 X 3 -1 d 3 -1
 d 3 -1 d 3 X 3 -1 d 3 -1 d 3 X 3 -1 d s 839 469 m 3 -1 d s 0.49 0.6 0.82 c black 0.49 0.6 0.82 c
 gsave  408 306 476 345 C 595.418 629.605 t 0 r /Helvetica-Bold findfont 25.6831 sf 0 0 m (5.5 < E < 6.0 GeV) show NC gr  0.52 0.76 0.64 c black 0.52 0.76 0.64 c
 gsave  408 306 476 345 C 575.476 592.569 t 0 r /Helvetica-Bold findfont 25.6831 sf 0 0 m 
 228 214 200 193 178 171 156 149 133 126 119 105 91 76 69 55 47 39 25 17
(A = \2550.002, p = 2.000) K NC gr  1 0.6 1 c black 1 0.6 1 c
 gsave  408 306 476 345 C 883.156 458.671 t 90 r /Helvetica-Bold findfont 28.5368 sf 0 0 m (/dof=0.1) show NC gr  black 1 0.6 1 c
 gsave  408 306 476 345 C 871.76 447.276 t 90 r /Helvetica-Bold findfont 19.9758 sf 0 0 m (2) show NC gr  black 1 0.6 1 c
 gsave  408 306 476 345 C 883.156 430.182 t 90 r /Symbol findfont 28.5368 sf 0 0 m (c) show NC gr  black 3 lw 1 1 1 c 408 306 930 345 bf black 1 1 1 c black 306 229 991 391 bl 306 229 991 391 bl 991 391 m 306 X s 991 395 m -4 Y s 1132 395 m -4 Y s
 1274 395 m -4 Y s 1274 395 m -4 Y s
 gsave  408 306 930 345 C 980.018 370.356 t 0 r /Helvetica findfont 22.8295 sf 0 0 m (0) show NC gr 
 gsave  408 306 930 345 C 1125.31 370.356 t 0 r /Helvetica findfont 22.8295 sf 0 0 m (1) show NC gr 
 gsave  408 306 930 345 C 1264.91 370.356 t 0 r /Helvetica findfont 22.8295 sf 0 0 m (2) show NC gr  991 620 m 306 X s 991 616 m 4 Y s 1132 616 m 4 Y s 1274 616 m 4 Y s 1274 616 m 4 Y s 991 391 m 229 Y s 997 397 m -6 X s 994 402 m -3 X s 994 407 m -3
 X s 994 412 m -3 X s 994 417 m -3 X s 997 421 m -6 X s 994 426 m -3 X s 994 431 m -3 X s 994 436 m -3 X s 994 441 m -3 X s 997 445 m -6 X s 994 450 m -3 X s 994 455 m -3 X s 994 460 m -3 X s 994 465 m -3 X s 997 469 m -6 X s 994 474 m -3 X s 994 479
 m -3 X s 994 484 m -3 X s 994 489 m -3 X s 997 493 m -6 X s 994 498 m -3 X s 994 503 m -3 X s 994 508 m -3 X s 994 513 m -3 X s 997 517 m -6 X s 994 522 m -3 X s 994 527 m -3 X s 994 532 m -3 X s 994 537 m -3 X s 997 542 m -6 X s 994 546 m -3 X s
 994 551 m -3 X s 994 556 m -3 X s 994 561 m -3 X s 997 566 m -6 X s 994 570 m -3 X s 994 575 m -3 X s 994 580 m -3 X s 994 585 m -3 X s 997 590 m -6 X s 994 594 m -3 X s 994 599 m -3 X s 994 604 m -3 X s 994 609 m -3 X s 997 614 m -6 X s 997 397 m
 -6 X s 994 393 m -3 X s 997 614 m -6 X s 994 618 m -3 X s
 gsave  408 306 930 345 C 937.285 390.298 t 0 r /Helvetica findfont 22.8295 sf 0 0 m (\2550.05) show NC gr 
 gsave  408 306 930 345 C 937.285 413.089 t 0 r /Helvetica findfont 22.8295 sf 0 0 m (\2550.04) show NC gr 
 gsave  408 306 930 345 C 937.285 438.729 t 0 r /Helvetica findfont 22.8295 sf 0 0 m (\2550.03) show NC gr 
 gsave  408 306 930 345 C 937.285 461.52 t 0 r /Helvetica findfont 22.8295 sf 0 0 m (\2550.02) show NC gr 
 gsave  408 306 930 345 C 940.134 487.16 t 0 r /Helvetica findfont 22.8295 sf 0 0 m (\2550.01) show NC gr 
 gsave  408 306 930 345 C 974.32 509.951 t 0 r /Helvetica findfont 22.8295 sf 0 0 m (0) show NC gr 
 gsave  408 306 930 345 C 945.832 535.591 t 0 r /Helvetica findfont 22.8295 sf 0 0 m (0.01) show NC gr 
 gsave  408 306 930 345 C 942.983 558.382 t 0 r /Helvetica findfont 22.8295 sf 0 0 m (0.02) show NC gr 
 gsave  408 306 930 345 C 942.983 581.174 t 0 r /Helvetica findfont 22.8295 sf 0 0 m (0.03) show NC gr 
 gsave  408 306 930 345 C 942.983 606.814 t 0 r /Helvetica findfont 22.8295 sf 0 0 m (0.04) show NC gr  1297 391 m 229 Y s 1292 397 m 5 X s 1294 402 m 3 X s 1294 407 m 3 X s 1294 412 m 3 X s 1294 417 m 3 X s 1292 421 m 5 X s 1294 426 m 3 X s 1294 431
 m 3 X s 1294 436 m 3 X s 1294 441 m 3 X s 1292 445 m 5 X s 1294 450 m 3 X s 1294 455 m 3 X s 1294 460 m 3 X s 1294 465 m 3 X s 1292 469 m 5 X s 1294 474 m 3 X s 1294 479 m 3 X s 1294 484 m 3 X s 1294 489 m 3 X s 1292 493 m 5 X s 1294 498 m 3 X s
 1294 503 m 3 X s 1294 508 m 3 X s 1294 513 m 3 X s 1292 517 m 5 X s 1294 522 m 3 X s 1294 527 m 3 X s 1294 532 m 3 X s 1294 537 m 3 X s 1292 542 m 5 X s 1294 546 m 3 X s 1294 551 m 3 X s 1294 556 m 3 X s 1294 561 m 3 X s 1292 566 m 5 X s 1294 570 m
 3 X s 1294 575 m 3 X s 1294 580 m 3 X s 1294 585 m 3 X s 1292 590 m 5 X s 1294 594 m 3 X s 1294 599 m 3 X s 1294 604 m 3 X s 1294 609 m 3 X s 1292 614 m 5 X s 1292 397 m 5 X s 1294 393 m 3 X s 1292 614 m 5 X s 1294 618 m 3 X s 1062 528 1132 559 1274
 450 3 { m21} R 1062 540 m 30 Y s 1056 570 m 11 X s 1062 517 m -30 Y s 1056 487 m 11 X s 1132 571 m 30 Y s 1127 601 m 11 X s 1132 548 m -31 Y s 1127 517 m 11 X s 1274 461 m 29 Y s 1268 490 m 11 X s 1274 439 m -29 Y s 1268 410 m 11 X s 1 0 0 c 9 lw
 0.95 0.95 0.95 c black 1 0 0 c 993 517 m 36 X 3 -1 d 13 X 3 -1 d 9 X 3 -1 d 6 X 3 -1 d 6 X 3 -1 d 6 X 3 -1 d 3 X 4 -1 d 6 X 3 -1 d 3 X 3 -1 d 3 X 3 -1 d 3 X 3 -1 d 3 X 3 -1 d 3 -1 d 3 X 3 -1 d 3 X 4 -1 d s 1143 502 m 3 -1 d 3 X 3 -1 d 3 -1 d 3 X 3
 -1 d 3 -1 d 3 X 3 -1 d 3 -1 d 3 -1 d 3 X 3 -1 d 3 -1 d 3 -1 d 4 -1 d 3 X 3 -1 d 3 -1 d 3 -1 d 3 -1 d 3 -1 d 3 -1 d 3 -1 d 3 -1 d 3 -1 d 3 -1 d 3 -1 d 3 X 3 -1 d 3 -2 d 3 -1 d 4 -1 d 3 -1 d 3 -1 d 3 -1 d 3 -1 d 3 -1 d 3 -1 d 3 -1 d 3 -1 d 3 -1 d 3 -2
 d 3 -1 d 3 -1 d 3 -1 d 3 -1 d 3 -2 d 4 -1 d s 1293 456 m 3 -1 d s 0.49 0.6 0.82 c black 0.49 0.6 0.82 c
 gsave  408 306 930 345 C 1051.24 629.605 t 0 r /Helvetica-Bold findfont 25.6831 sf 0 0 m (6.0 < E < 6.5 GeV) show NC gr  0.52 0.76 0.64 c black 0.52 0.76 0.64 c
 gsave  408 306 930 345 C 1031.3 592.569 t 0 r /Helvetica-Bold findfont 25.6831 sf 0 0 m 
 228 214 200 193 178 171 156 149 133 126 119 105 91 77 69 55 47 39 25 17
(A = \2550.006, p = 2.000) K NC gr  1 0.6 1 c black 1 0.6 1 c
 gsave  408 306 930 345 C 1336.13 458.671 t 90 r /Helvetica-Bold findfont 28.5368 sf 0 0 m (/dof=1.0) show NC gr  black 1 0.6 1 c
 gsave  408 306 930 345 C 1324.73 447.276 t 90 r /Helvetica-Bold findfont 19.9758 sf 0 0 m (2) show NC gr  black 1 0.6 1 c
 gsave  408 306 930 345 C 1336.13 430.182 t 90 r /Symbol findfont 28.5368 sf 0 0 m (c) show NC gr  black 3 lw 1 1 1 c 408 306 1383 345 bf black 1 1 1 c black 306 229 1445 391 bl 306 229 1445 391 bl 1445 391 m 306 X s 1445 395 m -4 Y s 1586 395 m -4 Y
 s 1727 395 m -4 Y s 1727 395 m -4 Y s
 gsave  408 306 1383 345 C 1435.84 370.356 t 0 r /Helvetica findfont 22.8295 sf 0 0 m (0) show NC gr 
 gsave  408 306 1383 345 C 1578.29 370.356 t 0 r /Helvetica findfont 22.8295 sf 0 0 m (1) show NC gr 
 gsave  408 306 1383 345 C 1717.88 370.356 t 0 r /Helvetica findfont 22.8295 sf 0 0 m (2) show NC gr  1445 620 m 306 X s 1445 616 m 4 Y s 1586 616 m 4 Y s 1727 616 m 4 Y s 1727 616 m 4 Y s 1445 391 m 229 Y s 1450 392 m -5 X s 1447 403 m -2 X s 1447
 414 m -2 X s 1447 424 m -2 X s 1450 435 m -5 X s 1447 446 m -2 X s 1447 456 m -2 X s 1447 467 m -2 X s 1450 478 m -5 X s 1447 489 m -2 X s 1447 499 m -2 X s 1447 510 m -2 X s 1450 521 m -5 X s 1447 532 m -2 X s 1447 542 m -2 X s 1447 553 m -2 X s
 1450 564 m -5 X s 1447 575 m -2 X s 1447 585 m -2 X s 1447 596 m -2 X s 1450 607 m -5 X s 1450 392 m -5 X s 1450 607 m -5 X s 1447 617 m -2 X s
 gsave  408 306 1383 345 C 1390.26 384.6 t 0 r /Helvetica findfont 22.8295 sf 0 0 m (\2550.06) show NC gr 
 gsave  408 306 1383 345 C 1390.26 427.334 t 0 r /Helvetica findfont 22.8295 sf 0 0 m (\2550.04) show NC gr 
 gsave  408 306 1383 345 C 1390.26 470.067 t 0 r /Helvetica findfont 22.8295 sf 0 0 m (\2550.02) show NC gr 
 gsave  408 306 1383 345 C 1427.29 512.8 t 0 r /Helvetica findfont 22.8295 sf 0 0 m (0) show NC gr 
 gsave  408 306 1383 345 C 1395.96 555.534 t 0 r /Helvetica findfont 22.8295 sf 0 0 m (0.02) show NC gr 
 gsave  408 306 1383 345 C 1395.96 598.267 t 0 r /Helvetica findfont 22.8295 sf 0 0 m (0.04) show NC gr  1751 391 m 229 Y s 1745 392 m 6 X s 1748 403 m 3 X s 1748 414 m 3 X s 1748 424 m 3 X s 1745 435 m 6 X s 1748 446 m 3 X s 1748 456 m 3 X s 1748
 467 m 3 X s 1745 478 m 6 X s 1748 489 m 3 X s 1748 499 m 3 X s 1748 510 m 3 X s 1745 521 m 6 X s 1748 532 m 3 X s 1748 542 m 3 X s 1748 553 m 3 X s 1745 564 m 6 X s 1748 575 m 3 X s 1748 585 m 3 X s 1748 596 m 3 X s 1745 607 m 6 X s 1745 392 m 6 X s
 1745 607 m 6 X s 1748 617 m 3 X s 1515 484 1586 451 1727 558 3 { m21} R 1515 495 m 31 Y s 1510 526 m 11 X s 1515 473 m -31 Y s 1510 442 m 11 X s 1586 462 m 29 Y s 1580 491 m 12 X s 1586 439 m -29 Y s 1580 410 m 12 X s 1727 570 m 31 Y s 1722 601 m 11
 X s 1727 547 m -31 Y s 1722 516 m 11 X s 1 0 0 c 9 lw 0.95 0.95 0.95 c black 1 0 0 c 1446 521 m 55 X 3 1 d 34 X 3 1 d 21 X 3 1 d 19 X 3 1 d 9 X s 1596 525 m 6 X 3 1 d 16 X 3 1 d 12 X 3 1 d 9 X 3 1 d 9 X 3 1 d 10 X 3 1 d 9 X 3 1 d 9 X 3 1 d 6 X 3 1 d
 10 X 3 1 d 6 X 3 1 d 6 X 3 1 d 6 X s 1746 537 m 3 1 d s 0.49 0.6 0.82 c black 0.49 0.6 0.82 c
 gsave  408 306 1383 345 C 1504.21 629.605 t 0 r /Helvetica-Bold findfont 25.6831 sf 0 0 m (6.5 < E < 7.0 GeV) show NC gr  0.52 0.76 0.64 c black 0.52 0.76 0.64 c
 gsave  408 306 1383 345 C 1489.97 592.569 t 0 r /Helvetica-Bold findfont 25.6831 sf 0 0 m 
 220 206 192 185 170 163 148 141 126 118 111 97 83 69 61 47 40 25 18
(A = 0.002, p = 2.000) K NC gr  1 0.6 1 c black 1 0.6 1 c
 gsave  408 306 1383 345 C 1789.1 458.671 t 90 r /Helvetica-Bold findfont 28.5368 sf 0 0 m (/dof=2.2) show NC gr  black 1 0.6 1 c
 gsave  408 306 1383 345 C 1777.71 447.276 t 90 r /Helvetica-Bold findfont 19.9758 sf 0 0 m (2) show NC gr  black 1 0.6 1 c
 gsave  408 306 1383 345 C 1789.1 430.182 t 90 r /Symbol findfont 28.5368 sf 0 0 m (c) show NC gr  black 3 lw 1 1 1 c 408 306 1837 345 bf black 1 1 1 c black 306 229 1898 391 bl 306 229 1898 391 bl 1898 391 m 306 X s 1898 395 m -4 Y s 2039 395 m -4 Y
 s 2181 395 m -4 Y s 2181 395 m -4 Y s
 gsave  408 306 1837 345 C 1888.81 370.356 t 0 r /Helvetica findfont 22.8295 sf 0 0 m (0) show NC gr 
 gsave  408 306 1837 345 C 2031.26 370.356 t 0 r /Helvetica findfont 22.8295 sf 0 0 m (1) show NC gr 
 gsave  408 306 1837 345 C 2170.85 370.356 t 0 r /Helvetica findfont 22.8295 sf 0 0 m (2) show NC gr  1898 620 m 306 X s 1898 616 m 4 Y s 2039 616 m 4 Y s 2181 616 m 4 Y s 2181 616 m 4 Y s 1898 391 m 229 Y s 1904 392 m -6 X s 1901 397 m -3 X s 1901
 403 m -3 X s 1901 409 m -3 X s 1901 415 m -3 X s 1904 421 m -6 X s 1901 427 m -3 X s 1901 433 m -3 X s 1901 439 m -3 X s 1901 445 m -3 X s 1904 451 m -6 X s 1901 457 m -3 X s 1901 463 m -3 X s 1901 469 m -3 X s 1901 475 m -3 X s 1904 481 m -6 X s
 1901 487 m -3 X s 1901 493 m -3 X s 1901 499 m -3 X s 1901 505 m -3 X s 1904 511 m -6 X s 1901 517 m -3 X s 1901 523 m -3 X s 1901 529 m -3 X s 1901 535 m -3 X s 1904 541 m -6 X s 1901 547 m -3 X s 1901 553 m -3 X s 1901 559 m -3 X s 1901 565 m -3 X
 s 1904 571 m -6 X s 1901 577 m -3 X s 1901 583 m -3 X s 1901 589 m -3 X s 1901 595 m -3 X s 1904 601 m -6 X s 1904 392 m -6 X s 1904 601 m -6 X s 1901 607 m -3 X s 1901 613 m -3 X s 1901 619 m -3 X s
 gsave  408 306 1837 345 C 1843.23 384.6 t 0 r /Helvetica findfont 22.8295 sf 0 0 m (\2550.03) show NC gr 
 gsave  408 306 1837 345 C 1843.23 413.089 t 0 r /Helvetica findfont 22.8295 sf 0 0 m (\2550.02) show NC gr 
 gsave  408 306 1837 345 C 1846.08 444.427 t 0 r /Helvetica findfont 22.8295 sf 0 0 m (\2550.01) show NC gr 
 gsave  408 306 1837 345 C 1880.27 472.916 t 0 r /Helvetica findfont 22.8295 sf 0 0 m (0) show NC gr 
 gsave  408 306 1837 345 C 1851.78 504.254 t 0 r /Helvetica findfont 22.8295 sf 0 0 m (0.01) show NC gr 
 gsave  408 306 1837 345 C 1848.93 532.742 t 0 r /Helvetica findfont 22.8295 sf 0 0 m (0.02) show NC gr 
 gsave  408 306 1837 345 C 1848.93 564.08 t 0 r /Helvetica findfont 22.8295 sf 0 0 m (0.03) show NC gr 
 gsave  408 306 1837 345 C 1848.93 592.569 t 0 r /Helvetica findfont 22.8295 sf 0 0 m (0.04) show NC gr  2204 391 m 229 Y s 2199 392 m 5 X s 2201 397 m 3 X s 2201 403 m 3 X s 2201 409 m 3 X s 2201 415 m 3 X s 2199 421 m 5 X s 2201 427 m 3 X s 2201
 433 m 3 X s 2201 439 m 3 X s 2201 445 m 3 X s 2199 451 m 5 X s 2201 457 m 3 X s 2201 463 m 3 X s 2201 469 m 3 X s 2201 475 m 3 X s 2199 481 m 5 X s 2201 487 m 3 X s 2201 493 m 3 X s 2201 499 m 3 X s 2201 505 m 3 X s 2199 511 m 5 X s 2201 517 m 3 X s
 2201 523 m 3 X s 2201 529 m 3 X s 2201 535 m 3 X s 2199 541 m 5 X s 2201 547 m 3 X s 2201 553 m 3 X s 2201 559 m 3 X s 2201 565 m 3 X s 2199 571 m 5 X s 2201 577 m 3 X s 2201 583 m 3 X s 2201 589 m 3 X s 2201 595 m 3 X s 2199 601 m 5 X s 2199 392 m
 5 X s 2199 601 m 5 X s 2201 607 m 3 X s 2201 613 m 3 X s 2201 619 m 3 X s 1969 518 2039 534 2181 475 3 { m21} R 1969 530 m 54 Y s 1963 584 m 11 X s 1969 507 m -54 Y s 1963 453 m 11 X s 2039 546 m 55 Y s 2034 601 m 11 X s 2039 523 m -55 Y s 2034 468
 m 11 X s 2181 486 m 53 Y s 2175 539 m 12 X s 2181 463 m -53 Y s 2175 410 m 12 X s 9 lw 0.95 0.95 0.95 c black 1900 481 m 3 1 d 12 X 3 1 d 9 X 3 1 d 9 X 3 1 d 13 X 3 1 d 9 X 3 1 d 9 X 3 1 d 9 X 4 1 d 12 X 3 1 d 9 X 3 1 d 9 X 3 1 d 13 X 3 1 d s 2050
 493 m 9 X 3 1 d 9 X 3 1 d 12 X 3 1 d 10 X 3 1 d 9 X 3 1 d 9 X 3 1 d 12 X 3 1 d 10 X 3 1 d 9 X 3 1 d 12 X 3 1 d 9 X 4 1 d 6 X s 2200 504 m 3 X s 0.49 0.6 0.82 c black 0.49 0.6 0.82 c
 gsave  408 306 1837 345 C 1957.19 629.605 t 0 r /Helvetica-Bold findfont 25.6831 sf 0 0 m (7.0 < E < 7.5 GeV) show NC gr  0.52 0.76 0.64 c black 0.52 0.76 0.64 c
 gsave  408 306 1837 345 C 1942.94 592.569 t 0 r /Helvetica-Bold findfont 25.6831 sf 0 0 m 
 220 206 192 185 170 163 148 141 125 118 111 97 83 69 61 47 40 25 18
(A = 0.004, p = 1.000) K NC gr  1 0.6 1 c black 1 0.6 1 c
 gsave  408 306 1837 345 C 2242.08 458.671 t 90 r /Helvetica-Bold findfont 28.5368 sf 0 0 m (/dof=0.4) show NC gr  black 1 0.6 1 c
 gsave  408 306 1837 345 C 2230.68 447.276 t 90 r /Helvetica-Bold findfont 19.9758 sf 0 0 m (2) show NC gr  black 1 0.6 1 c
 gsave  408 306 1837 345 C 2242.08 430.182 t 90 r /Symbol findfont 28.5368 sf 0 0 m (c) show NC gr  black 3 lw 1 1 1 c 408 306 23 13 bf black 1 1 1 c black 306 229 84 59 bl 306 229 84 59 bl 84 59 m 306 X s 84 63 m -4 Y s 225 63 m -4 Y s 367 63 m -4 Y
 s 367 63 m -4 Y s
 gsave  408 306 23 13 C 74.0711 39.8845 t 0 r /Helvetica findfont 22.8295 sf 0 0 m (0) show NC gr 
 gsave  408 306 23 13 C 219.365 39.8845 t 0 r /Helvetica findfont 22.8295 sf 0 0 m (1) show NC gr 
 gsave  408 306 23 13 C 356.111 39.8845 t 0 r /Helvetica findfont 22.8295 sf 0 0 m (2) show NC gr  84 288 m 306 X s 84 284 m 4 Y s 225 284 m 4 Y s 367 284 m 4 Y s 367 284 m 4 Y s 84 59 m 229 Y s 89 70 m -5 X s 87 77 m -3 X s 87 85 m -3 X s 87 92 m -3
 X s 87 99 m -3 X s 89 107 m -5 X s 87 114 m -3 X s 87 122 m -3 X s 87 129 m -3 X s 87 137 m -3 X s 89 144 m -5 X s 87 152 m -3 X s 87 159 m -3 X s 87 167 m -3 X s 87 174 m -3 X s 89 181 m -5 X s 87 189 m -3 X s 87 196 m -3 X s 87 204 m -3 X s 87 211
 m -3 X s 89 219 m -5 X s 87 226 m -3 X s 87 234 m -3 X s 87 241 m -3 X s 87 248 m -3 X s 89 256 m -5 X s 89 70 m -5 X s 87 62 m -3 X s 89 256 m -5 X s 87 263 m -3 X s 87 271 m -3 X s 87 278 m -3 X s 87 286 m -3 X s
 gsave  408 306 23 13 C 28.4889 62.6756 t 0 r /Helvetica findfont 22.8295 sf 0 0 m (\2550.02) show NC gr 
 gsave  408 306 23 13 C 31.3378 99.7112 t 0 r /Helvetica findfont 22.8295 sf 0 0 m (\2550.01) show NC gr 
 gsave  408 306 23 13 C 65.5245 136.747 t 0 r /Helvetica findfont 22.8295 sf 0 0 m (0) show NC gr 
 gsave  408 306 23 13 C 37.0356 173.782 t 0 r /Helvetica findfont 22.8295 sf 0 0 m (0.01) show NC gr 
 gsave  408 306 23 13 C 34.1867 210.818 t 0 r /Helvetica findfont 22.8295 sf 0 0 m (0.02) show NC gr 
 gsave  408 306 23 13 C 34.1867 247.853 t 0 r /Helvetica findfont 22.8295 sf 0 0 m (0.03) show NC gr  390 59 m 229 Y s 385 70 m 5 X s 387 77 m 3 X s 387 85 m 3 X s 387 92 m 3 X s 387 99 m 3 X s 385 107 m 5 X s 387 114 m 3 X s 387 122 m 3 X s 387 129
 m 3 X s 387 137 m 3 X s 385 144 m 5 X s 387 152 m 3 X s 387 159 m 3 X s 387 167 m 3 X s 387 174 m 3 X s 385 181 m 5 X s 387 189 m 3 X s 387 196 m 3 X s 387 204 m 3 X s 387 211 m 3 X s 385 219 m 5 X s 387 226 m 3 X s 387 234 m 3 X s 387 241 m 3 X s
 387 248 m 3 X s 385 256 m 5 X s 385 70 m 5 X s 387 62 m 3 X s 385 256 m 5 X s 387 263 m 3 X s 387 271 m 3 X s 387 278 m 3 X s 387 286 m 3 X s /w 22 def /w2 {w 2 div} def /w3 {w 3 div} def 155 175 225 167 367 181 3 { m21} R 155 187 m 77 Y s 149 264 m
 11 X s 155 164 m -78 Y s 149 86 m 11 X s 225 178 m 77 Y s 220 255 m 11 X s 225 155 m -77 Y s 220 78 m 11 X s 367 193 m 76 Y s 361 269 m 11 X s 367 170 m -76 Y s 361 94 m 11 X s 9 lw 0.95 0.95 0.95 c black 85 144 m 3 1 d 4 X 3 1 d 3 X 3 1 d 3 X 3 1 d
 3 X 3 1 d 3 X 3 1 d 6 X 3 1 d 3 X 3 1 d 3 X 4 1 d 3 X 3 1 d 3 X 3 1 d 3 X 3 1 d 6 X 3 1 d 3 X 3 1 d 3 X 3 1 d 3 X 3 1 d 4 X 3 1 d 3 X 3 1 d 6 X 3 1 d 3 X 3 1 d 3 X 3 1 d 3 X 3 1 d 3 X 3 1 d 3 X s 235 167 m 4 1 d 6 X 3 1 d 3 X 3 1 d 3 X 3 1 d 3 X 3 1
 d 3 X 3 1 d 3 X 3 1 d 3 X 3 1 d 7 X 3 1 d 3 X 3 1 d 3 X 3 1 d 3 X 3 1 d 3 X 3 1 d 3 X 3 1 d 6 X 3 1 d 3 X 4 1 d 3 X 3 1 d 3 X 3 1 d 3 X 3 1 d 3 X 3 1 d 6 X 3 1 d 3 X 3 1 d 3 X 3 1 d s 385 190 m 4 X s 0.49 0.6 0.82 c black 0.49 0.6 0.82 c
 gsave  408 306 23 13 C 142.445 296.285 t 0 r /Helvetica-Bold findfont 25.6831 sf 0 0 m (7.5 < E < 8.0 GeV) show NC gr  0.52 0.76 0.64 c black 0.52 0.76 0.64 c
 gsave  408 306 23 13 C 128.2 259.249 t 0 r /Helvetica-Bold findfont 25.6831 sf 0 0 m 
 220 206 192 185 170 163 148 141 126 118 111 97 83 69 61 47 40 25 18
(A = 0.006, p = 1.000) K NC gr  1 0.6 1 c black 1 0.6 1 c
 gsave  408 306 23 13 C 427.334 128.2 t 90 r /Helvetica-Bold findfont 28.5368 sf 0 0 m (/dof=0.0) show NC gr  black 1 0.6 1 c
 gsave  408 306 23 13 C 415.938 116.804 t 90 r /Helvetica-Bold findfont 19.9758 sf 0 0 m (2) show NC gr  black 1 0.6 1 c
 gsave  408 306 23 13 C 427.334 99.7112 t 90 r /Symbol findfont 28.5368 sf 0 0 m (c) show NC gr  black 3 lw 1 1 1 c 408 306 476 13 bf black 1 1 1 c black 307 229 537 59 bl 307 229 537 59 bl 537 59 m 307 X s 537 63 m -4 Y s 679 63 m -4 Y s 820 63 m -4
 Y s 820 63 m -4 Y s
 gsave  408 306 476 13 C 527.045 39.8845 t 0 r /Helvetica findfont 22.8295 sf 0 0 m (0) show NC gr 
 gsave  408 306 476 13 C 672.338 39.8845 t 0 r /Helvetica findfont 22.8295 sf 0 0 m (1) show NC gr 
 gsave  408 306 476 13 C 809.085 39.8845 t 0 r /Helvetica findfont 22.8295 sf 0 0 m (2) show NC gr  537 288 m 307 X s 537 284 m 4 Y s 679 284 m 4 Y s 820 284 m 4 Y s 820 284 m 4 Y s 537 59 m 229 Y s 543 83 m -6 X s 540 93 m -3 X s 540 104 m -3 X s
 540 114 m -3 X s 543 124 m -6 X s 540 134 m -3 X s 540 144 m -3 X s 540 155 m -3 X s 543 165 m -6 X s 540 175 m -3 X s 540 185 m -3 X s 540 196 m -3 X s 543 206 m -6 X s 540 216 m -3 X s 540 226 m -3 X s 540 237 m -3 X s 543 247 m -6 X s 540 257 m
 -3 X s 540 267 m -3 X s 540 278 m -3 X s 543 288 m -6 X s 543 83 m -6 X s 540 73 m -3 X s 540 63 m -3 X s 543 288 m -6 X s
 gsave  408 306 476 13 C 481.462 76.92 t 0 r /Helvetica findfont 22.8295 sf 0 0 m (\2550.06) show NC gr 
 gsave  408 306 476 13 C 481.462 116.804 t 0 r /Helvetica findfont 22.8295 sf 0 0 m (\2550.04) show NC gr 
 gsave  408 306 476 13 C 481.462 156.689 t 0 r /Helvetica findfont 22.8295 sf 0 0 m (\2550.02) show NC gr 
 gsave  408 306 476 13 C 518.498 199.422 t 0 r /Helvetica findfont 22.8295 sf 0 0 m (0) show NC gr 
 gsave  408 306 476 13 C 487.16 239.307 t 0 r /Helvetica findfont 22.8295 sf 0 0 m (0.02) show NC gr 
 gsave  408 306 476 13 C 487.16 282.04 t 0 r /Helvetica findfont 22.8295 sf 0 0 m (0.04) show NC gr  844 59 m 229 Y s 838 83 m 6 X s 841 93 m 3 X s 841 104 m 3 X s 841 114 m 3 X s 838 124 m 6 X s 841 134 m 3 X s 841 144 m 3 X s 841 155 m 3 X s 838
 165 m 6 X s 841 175 m 3 X s 841 185 m 3 X s 841 196 m 3 X s 838 206 m 6 X s 841 216 m 3 X s 841 226 m 3 X s 841 237 m 3 X s 838 247 m 6 X s 841 257 m 3 X s 841 267 m 3 X s 841 278 m 3 X s 838 288 m 6 X s 838 83 m 6 X s 841 73 m 3 X s 841 63 m 3 X s
 838 288 m 6 X s /w 23 def /w2 {w 2 div} def /w3 {w 3 div} def 608 216 679 128 820 212 3 { m21} R 608 228 m 41 Y s 602 269 m 12 X s 608 205 m -41 Y s 602 164 m 12 X s 679 139 m 39 Y s 673 178 m 12 X s 679 117 m -39 Y s 673 78 m 12 X s 820 223 m 41 Y
 s 815 264 m 11 X s 820 201 m -41 Y s 815 160 m 11 X s 9 lw 0.95 0.95 0.95 c black 539 206 m 3 -1 d 9 X 3 -1 d 9 X 4 -1 d 6 X 3 -1 d 9 X 3 -1 d 9 X 3 -1 d 9 X 3 -1 d 7 X 3 -1 d 9 X 3 -1 d 9 X 3 -1 d 6 X 3 -1 d 9 X 4 -1 d 9 X 3 -1 d 6 X 3 -1 d s 689
 192 m 9 X 3 -1 d 9 X 3 -1 d 7 X 3 -1 d 9 X 3 -1 d 9 X 3 -1 d 6 X 3 -1 d 10 X 3 -1 d 9 X 3 -1 d 6 X 3 -1 d 9 X 3 -1 d 9 X 4 -1 d 6 X 3 -1 d 9 X 3 -1 d 3 X s 839 179 m 3 X s 0.49 0.6 0.82 c black 0.49 0.6 0.82 c
 gsave  408 306 476 13 C 595.418 296.285 t 0 r /Helvetica-Bold findfont 25.6831 sf 0 0 m (8.0 < E < 8.5 GeV) show NC gr  0.52 0.76 0.64 c black 0.52 0.76 0.64 c
 gsave  408 306 476 13 C 575.476 259.249 t 0 r /Helvetica-Bold findfont 25.6831 sf 0 0 m 
 228 214 200 193 178 171 156 149 133 126 119 105 91 76 69 55 47 39 25 17
(A = \2550.006, p = 1.000) K NC gr  1 0.6 1 c black 1 0.6 1 c
 gsave  408 306 476 13 C 883.156 128.2 t 90 r /Helvetica-Bold findfont 28.5368 sf 0 0 m (/dof=1.1) show NC gr  black 1 0.6 1 c
 gsave  408 306 476 13 C 871.76 116.804 t 90 r /Helvetica-Bold findfont 19.9758 sf 0 0 m (2) show NC gr  black 1 0.6 1 c
 gsave  408 306 476 13 C 883.156 99.7112 t 90 r /Symbol findfont 28.5368 sf 0 0 m (c) show NC gr  black 3 lw 1 1 1 c 408 306 930 13 bf black 1 1 1 c black 306 229 991 59 bl 306 229 991 59 bl 991 59 m 306 X s 991 63 m -4 Y s 1132 63 m -4 Y s 1274 63 m
 -4 Y s 1274 63 m -4 Y s
 gsave  408 306 930 13 C 980.018 39.8845 t 0 r /Helvetica findfont 22.8295 sf 0 0 m (0) show NC gr 
 gsave  408 306 930 13 C 1125.31 39.8845 t 0 r /Helvetica findfont 22.8295 sf 0 0 m (1) show NC gr 
 gsave  408 306 930 13 C 1264.91 39.8845 t 0 r /Helvetica findfont 22.8295 sf 0 0 m (2) show NC gr  991 288 m 306 X s 991 284 m 4 Y s 1132 284 m 4 Y s 1274 284 m 4 Y s 1274 284 m 4 Y s 991 59 m 229 Y s 997 89 m -6 X s 994 99 m -3 X s 994 109 m -3 X s
 994 120 m -3 X s 997 130 m -6 X s 994 141 m -3 X s 994 151 m -3 X s 994 161 m -3 X s 997 172 m -6 X s 994 182 m -3 X s 994 193 m -3 X s 994 203 m -3 X s 997 213 m -6 X s 994 224 m -3 X s 994 234 m -3 X s 994 245 m -3 X s 997 255 m -6 X s 997 89 m -6
 X s 994 78 m -3 X s 994 68 m -3 X s 997 255 m -6 X s 994 265 m -3 X s 994 276 m -3 X s 994 286 m -3 X s
 gsave  408 306 930 13 C 937.285 82.6178 t 0 r /Helvetica findfont 22.8295 sf 0 0 m (\2550.06) show NC gr 
 gsave  408 306 930 13 C 937.285 122.502 t 0 r /Helvetica findfont 22.8295 sf 0 0 m (\2550.04) show NC gr 
 gsave  408 306 930 13 C 937.285 165.236 t 0 r /Helvetica findfont 22.8295 sf 0 0 m (\2550.02) show NC gr 
 gsave  408 306 930 13 C 974.32 205.12 t 0 r /Helvetica findfont 22.8295 sf 0 0 m (0) show NC gr 
 gsave  408 306 930 13 C 942.983 247.853 t 0 r /Helvetica findfont 22.8295 sf 0 0 m (0.02) show NC gr  1297 59 m 229 Y s 1292 89 m 5 X s 1294 99 m 3 X s 1294 109 m 3 X s 1294 120 m 3 X s 1292 130 m 5 X s 1294 141 m 3 X s 1294 151 m 3 X s 1294 161 m 3
 X s 1292 172 m 5 X s 1294 182 m 3 X s 1294 193 m 3 X s 1294 203 m 3 X s 1292 213 m 5 X s 1294 224 m 3 X s 1294 234 m 3 X s 1294 245 m 3 X s 1292 255 m 5 X s 1292 89 m 5 X s 1294 78 m 3 X s 1294 68 m 3 X s 1292 255 m 5 X s 1294 265 m 3 X s 1294 276 m
 3 X s 1294 286 m 3 X s 1062 161 1132 213 1274 132 3 { m21} R 1062 173 m 43 Y s 1056 216 m 11 X s 1062 150 m -43 Y s 1056 107 m 11 X s 1132 224 m 45 Y s 1127 269 m 11 X s 1132 201 m -45 Y s 1127 156 m 11 X s 1274 144 m 42 Y s 1268 186 m 11 X s 1274
 121 m -43 Y s 1268 78 m 11 X s 9 lw 0.95 0.95 0.95 c black 993 213 m 3 -1 d 3 -1 d 3 X 3 -1 d 3 -1 d 3 -1 d 3 -1 d 3 X 3 -1 d 3 -1 d 3 -1 d 3 -1 d 3 X 3 -1 d 3 -1 d 4 -1 d 3 -1 d 3 X 3 -1 d 3 -1 d 3 -1 d 3 X 3 -1 d 3 -1 d 3 -1 d 3 -1 d 3 X 3 -1 d 3
 -1 d 3 -1 d 3 -1 d 3 X 4 -1 d 3 -1 d 3 -1 d 3 -1 d 3 X 3 -1 d 3 -1 d 3 -1 d 3 -1 d 3 X 3 -1 d 3 -1 d 3 -1 d 3 X 3 -1 d 3 -1 d 4 -1 d s 1143 174 m 3 -1 d 3 X 3 -1 d 3 -1 d 3 -1 d 3 -1 d 3 X 3 -1 d 3 -1 d 3 -1 d 3 -1 d 3 X 3 -1 d 3 -1 d 3 -1 d 4 -1 d
 3 X 3 -1 d 3 -1 d 3 -1 d 3 -1 d 3 X 3 -1 d 3 -1 d 3 -1 d 3 X 3 -1 d 3 -1 d 3 -1 d 3 -1 d 3 X 3 -1 d 4 -1 d 3 -1 d 3 -1 d 3 X 3 -1 d 3 -1 d 3 -1 d 3 -1 d 3 X 3 -1 d 3 -1 d 3 -1 d 3 -1 d 3 X 3 -1 d 3 -1 d 4 -1 d s 1293 135 m 3 -1 d s 0.49 0.6 0.82 c
 black 0.49 0.6 0.82 c
 gsave  408 306 930 13 C 1051.24 296.285 t 0 r /Helvetica-Bold findfont 25.6831 sf 0 0 m (8.5 < E < 9.0 GeV) show NC gr  0.52 0.76 0.64 c black 0.52 0.76 0.64 c
 gsave  408 306 930 13 C 1031.3 259.249 t 0 r /Helvetica-Bold findfont 25.6831 sf 0 0 m 
 228 214 200 193 178 171 156 149 133 126 119 105 91 77 69 55 47 39 25 17
(A = \2550.018, p = 1.000) K NC gr  1 0.6 1 c black 1 0.6 1 c
 gsave  408 306 930 13 C 1336.13 128.2 t 90 r /Helvetica-Bold findfont 28.5368 sf 0 0 m (/dof=0.4) show NC gr  black 1 0.6 1 c
 gsave  408 306 930 13 C 1324.73 116.804 t 90 r /Helvetica-Bold findfont 19.9758 sf 0 0 m (2) show NC gr  black 1 0.6 1 c
 gsave  408 306 930 13 C 1336.13 99.7112 t 90 r /Symbol findfont 28.5368 sf 0 0 m (c) show NC gr  black 3 lw 1 1 1 c 408 306 1383 13 bf black 1 1 1 c black 306 229 1445 59 bl 306 229 1445 59 bl 1445 59 m 306 X s 1445 63 m -4 Y s 1586 63 m -4 Y s 1727
 63 m -4 Y s 1727 63 m -4 Y s
 gsave  408 306 1383 13 C 1435.84 39.8845 t 0 r /Helvetica findfont 22.8295 sf 0 0 m (0) show NC gr 
 gsave  408 306 1383 13 C 1578.29 39.8845 t 0 r /Helvetica findfont 22.8295 sf 0 0 m (1) show NC gr 
 gsave  408 306 1383 13 C 1717.88 39.8845 t 0 r /Helvetica findfont 22.8295 sf 0 0 m (2) show NC gr  1445 288 m 306 X s 1445 284 m 4 Y s 1586 284 m 4 Y s 1727 284 m 4 Y s 1727 284 m 4 Y s 1445 59 m 229 Y s 1450 89 m -5 X s 1447 98 m -2 X s 1447 107 m
 -2 X s 1447 116 m -2 X s 1450 125 m -5 X s 1447 134 m -2 X s 1447 143 m -2 X s 1447 151 m -2 X s 1450 160 m -5 X s 1447 169 m -2 X s 1447 178 m -2 X s 1447 187 m -2 X s 1450 196 m -5 X s 1447 205 m -2 X s 1447 214 m -2 X s 1447 222 m -2 X s 1450 231
 m -5 X s 1447 240 m -2 X s 1447 249 m -2 X s 1447 258 m -2 X s 1450 267 m -5 X s 1450 89 m -5 X s 1447 80 m -2 X s 1447 72 m -2 X s 1447 63 m -2 X s 1450 267 m -5 X s 1447 276 m -2 X s 1447 285 m -2 X s
 gsave  408 306 1383 13 C 1390.26 82.6178 t 0 r /Helvetica findfont 22.8295 sf 0 0 m (\2550.02) show NC gr 
 gsave  408 306 1383 13 C 1427.29 116.804 t 0 r /Helvetica findfont 22.8295 sf 0 0 m (0) show NC gr 
 gsave  408 306 1383 13 C 1395.96 153.84 t 0 r /Helvetica findfont 22.8295 sf 0 0 m (0.02) show NC gr 
 gsave  408 306 1383 13 C 1395.96 188.027 t 0 r /Helvetica findfont 22.8295 sf 0 0 m (0.04) show NC gr 
 gsave  408 306 1383 13 C 1395.96 225.062 t 0 r /Helvetica findfont 22.8295 sf 0 0 m (0.06) show NC gr 
 gsave  408 306 1383 13 C 1395.96 259.249 t 0 r /Helvetica findfont 22.8295 sf 0 0 m (0.08) show NC gr  1751 59 m 229 Y s 1745 89 m 6 X s 1748 98 m 3 X s 1748 107 m 3 X s 1748 116 m 3 X s 1745 125 m 6 X s 1748 134 m 3 X s 1748 143 m 3 X s 1748 151 m
 3 X s 1745 160 m 6 X s 1748 169 m 3 X s 1748 178 m 3 X s 1748 187 m 3 X s 1745 196 m 6 X s 1748 205 m 3 X s 1748 214 m 3 X s 1748 222 m 3 X s 1745 231 m 6 X s 1748 240 m 3 X s 1748 249 m 3 X s 1748 258 m 3 X s 1745 267 m 6 X s 1745 89 m 6 X s 1748
 80 m 3 X s 1748 72 m 3 X s 1748 63 m 3 X s 1745 267 m 6 X s 1748 276 m 3 X s 1748 285 m 3 X s 1515 214 1586 215 1727 129 3 { m21} R 1515 226 m 42 Y s 1510 268 m 11 X s 1515 203 m -42 Y s 1510 161 m 11 X s 1586 227 m 42 Y s 1580 269 m 12 X s 1586 204
 m -43 Y s 1580 161 m 12 X s 1727 140 m 40 Y s 1722 180 m 11 X s 1727 118 m -40 Y s 1722 78 m 11 X s 9 lw 0.95 0.95 0.95 c black 1446 125 m 3 1 d 3 X 3 1 d 3 X 3 1 d 3 X 3 1 d 4 X 3 1 d 3 1 d 3 X 3 1 d 3 X 3 1 d 3 X 3 1 d 3 X 3 1 d 3 X 3 1 d 3 1 d 3
 X 3 1 d 4 X 3 1 d 3 X 3 1 d 3 X 3 1 d 3 X 3 1 d 3 1 d 3 X 3 1 d 3 X 3 1 d 3 X 3 1 d 3 X 4 1 d 3 X 3 1 d 3 1 d 3 X 3 1 d 3 X 3 1 d 3 X 3 1 d s 1596 152 m 3 X 3 1 d 3 X 3 1 d 3 1 d 3 X 4 1 d 3 X 3 1 d 3 X 3 1 d 3 X 3 1 d 3 X 3 1 d 3 1 d 3 X 3 1 d 3 X
 3 1 d 3 X 3 1 d 3 X 4 1 d 3 X 3 1 d 3 X 3 1 d 3 1 d 3 X 3 1 d 3 X 3 1 d 3 X 3 1 d 3 X 3 1 d 3 X 3 1 d 4 1 d 3 X 3 1 d 3 X 3 1 d 3 X 3 1 d 3 X 3 1 d 3 X s 1746 178 m 3 1 d s 0.49 0.6 0.82 c black 0.49 0.6 0.82 c
 gsave  408 306 1383 13 C 1504.21 296.285 t 0 r /Helvetica-Bold findfont 25.6831 sf 0 0 m (9.0 < E < 9.5 GeV) show NC gr  0.52 0.76 0.64 c black 0.52 0.76 0.64 c
 gsave  408 306 1383 13 C 1489.97 259.249 t 0 r /Helvetica-Bold findfont 25.6831 sf 0 0 m 
 220 206 192 185 170 163 148 141 126 118 111 97 83 69 61 47 40 25 18
(A = 0.014, p = 1.000) K NC gr  1 0.6 1 c black 1 0.6 1 c
 gsave  408 306 1383 13 C 1789.1 128.2 t 90 r /Helvetica-Bold findfont 28.5368 sf 0 0 m (/dof=2.2) show NC gr  black 1 0.6 1 c
 gsave  408 306 1383 13 C 1777.71 116.804 t 90 r /Helvetica-Bold findfont 19.9758 sf 0 0 m (2) show NC gr  black 1 0.6 1 c
 gsave  408 306 1383 13 C 1789.1 99.7112 t 90 r /Symbol findfont 28.5368 sf 0 0 m (c) show NC gr  black 3 lw 1 1 1 c 408 306 1837 13 bf black 1 1 1 c black 306 229 1898 59 bl 306 229 1898 59 bl 1898 59 m 306 X s 1898 63 m -4 Y s 2039 63 m -4 Y s 2181
 63 m -4 Y s 2181 63 m -4 Y s
 gsave  408 306 1837 13 C 1888.81 39.8845 t 0 r /Helvetica findfont 22.8295 sf 0 0 m (0) show NC gr 
 gsave  408 306 1837 13 C 2031.26 39.8845 t 0 r /Helvetica findfont 22.8295 sf 0 0 m (1) show NC gr 
 gsave  408 306 1837 13 C 2170.85 39.8845 t 0 r /Helvetica findfont 22.8295 sf 0 0 m (2) show NC gr  1898 288 m 306 X s 1898 284 m 4 Y s 2039 284 m 4 Y s 2181 284 m 4 Y s 2181 284 m 4 Y s 1898 59 m 229 Y s 1904 77 m -6 X s 1901 87 m -3 X s 1901 97 m
 -3 X s 1901 106 m -3 X s 1904 116 m -6 X s 1901 126 m -3 X s 1901 135 m -3 X s 1901 145 m -3 X s 1904 155 m -6 X s 1901 164 m -3 X s 1901 174 m -3 X s 1901 184 m -3 X s 1904 193 m -6 X s 1901 203 m -3 X s 1901 213 m -3 X s 1901 222 m -3 X s 1904 232
 m -6 X s 1901 242 m -3 X s 1901 251 m -3 X s 1901 261 m -3 X s 1904 271 m -6 X s 1904 77 m -6 X s 1901 68 m -3 X s 1904 271 m -6 X s 1901 280 m -3 X s
 gsave  408 306 1837 13 C 1843.23 71.2223 t 0 r /Helvetica findfont 22.8295 sf 0 0 m (\2550.08) show NC gr 
 gsave  408 306 1837 13 C 1843.23 108.258 t 0 r /Helvetica findfont 22.8295 sf 0 0 m (\2550.06) show NC gr 
 gsave  408 306 1837 13 C 1843.23 148.142 t 0 r /Helvetica findfont 22.8295 sf 0 0 m (\2550.04) show NC gr 
 gsave  408 306 1837 13 C 1843.23 185.178 t 0 r /Helvetica findfont 22.8295 sf 0 0 m (\2550.02) show NC gr 
 gsave  408 306 1837 13 C 1880.27 225.062 t 0 r /Helvetica findfont 22.8295 sf 0 0 m (0) show NC gr 
 gsave  408 306 1837 13 C 1848.93 262.098 t 0 r /Helvetica findfont 22.8295 sf 0 0 m (0.02) show NC gr  2204 59 m 229 Y s 2199 77 m 5 X s 2201 87 m 3 X s 2201 97 m 3 X s 2201 106 m 3 X s 2199 116 m 5 X s 2201 126 m 3 X s 2201 135 m 3 X s 2201 145 m 3
 X s 2199 155 m 5 X s 2201 164 m 3 X s 2201 174 m 3 X s 2201 184 m 3 X s 2199 193 m 5 X s 2201 203 m 3 X s 2201 213 m 3 X s 2201 222 m 3 X s 2199 232 m 5 X s 2201 242 m 3 X s 2201 251 m 3 X s 2201 261 m 3 X s 2199 271 m 5 X s 2199 77 m 5 X s 2201 68
 m 3 X s 2199 271 m 5 X s 2201 280 m 3 X s 1969 211 2039 134 2181 158 3 { m21} R 1969 222 m 47 Y s 1963 269 m 11 X s 1969 199 m -47 Y s 1963 152 m 11 X s 2039 145 m 45 Y s 2034 190 m 11 X s 2039 123 m -45 Y s 2034 78 m 11 X s 2181 169 m 45 Y s 2175
 214 m 12 X s 2181 147 m -46 Y s 2175 101 m 12 X s 9 lw 0.95 0.95 0.95 c black 1900 231 m 3 -1 d 3 -1 d 3 -1 d 3 -1 d 3 -1 d 3 -1 d 3 -1 d 3 -1 d 3 -1 d 3 -1 d 3 -1 d 3 -1 d 3 -1 d 3 -1 d 4 -2 d 3 -1 d 3 -1 d 3 -1 d 3 -1 d 3 -1 d 3 -1 d 3 -1 d 3 -1 d
 3 -1 d 3 -1 d 3 -1 d 3 -1 d 3 -1 d 3 -1 d 3 -1 d 4 -2 d 3 -1 d 3 -1 d 3 -1 d 3 -1 d 3 -1 d 3 -1 d 3 -1 d 3 -1 d 3 -1 d 3 -1 d 3 -1 d 3 -1 d 3 -1 d 3 -1 d 3 -1 d 3 -2 d 4 -1 d 3 -1 d s 2050 179 m 3 -1 d 3 -1 d 3 -1 d 3 -1 d 3 -1 d 3 -1 d 3 -1 d 3 -1
 d 3 -1 d 3 -1 d 3 -1 d 3 -1 d 3 -2 d 3 -1 d 4 -1 d 3 -1 d 3 -1 d 3 -1 d 3 -1 d 3 -1 d 3 -1 d 3 -1 d 3 -1 d 3 -1 d 3 -1 d 3 -1 d 3 -1 d 3 -1 d 3 -2 d 3 -1 d 4 -1 d 3 -1 d 3 -1 d 3 -1 d 3 -1 d 3 -1 d 3 -1 d 3 -1 d 3 -1 d 3 -1 d 3 -1 d 3 -1 d 3 -1 d 3
 -1 d 3 -2 d 3 -1 d 4 -1 d 3 -1 d 3 -1 d s 2200 127 m 3 -1 d s 0.49 0.6 0.82 c black 0.49 0.6 0.82 c
 gsave  408 306 1837 13 C 1948.64 296.285 t 0 r /Helvetica-Bold findfont 25.6831 sf 0 0 m (9.5 < E < 10.0 GeV) show NC gr  0.52 0.76 0.64 c black 0.52 0.76 0.64 c
 gsave  408 306 1837 13 C 1937.25 259.249 t 0 r /Helvetica-Bold findfont 25.6831 sf 0 0 m 
 228 214 200 193 178 171 156 149 133 126 119 105 91 77 69 55 47 39 25 17
(A = \2550.025, p = 1.000) K NC gr  1 0.6 1 c black 1 0.6 1 c
 gsave  408 306 1837 13 C 2242.08 128.2 t 90 r /Helvetica-Bold findfont 28.5368 sf 0 0 m (/dof=0.5) show NC gr  black 1 0.6 1 c
 gsave  408 306 1837 13 C 2230.68 116.804 t 90 r /Helvetica-Bold findfont 19.9758 sf 0 0 m (2) show NC gr  black 1 0.6 1 c
 gsave  408 306 1837 13 C 2242.08 99.7112 t 90 r /Symbol findfont 28.5368 sf 0 0 m (c) show NC gr 
 gr  gr showpage
end
%%EOF
