%!PS-Adobe-2.0 EPSF-2.0
%%BoundingBox:  0 0 567 332
%%Title: Horn2XTilt_nof_fits.eps: Fits
%%Creator: ROOT Version 5.30/06
%%CreationDate: Sun Feb  2 09:29:30 2014
%%EndComments
%%BeginProlog
80 dict begin
/s {stroke} def /l {lineto} def /m {moveto} def /t {translate} def
/r {rotate} def /rl {roll}  def /R {repeat} def
/d {rlineto} def /rm {rmoveto} def /gr {grestore} def /f {eofill} def
/c {setrgbcolor} def /black {0 setgray} def /sd {setdash} def
/cl {closepath} def /sf {scalefont setfont} def /lw {setlinewidth} def
/box {m dup 0 exch d exch 0 d 0 exch neg d cl} def
/NC{systemdict begin initclip end}def/C{NC box clip newpath}def
/bl {box s} def /bf {box f} def /Y { 0 exch d} def /X { 0 d} def 
/K {{pop pop 0 moveto} exch kshow} bind def
/ita {/ang 15 def gsave [1 0 ang dup sin exch cos div 1 0 0] concat} def 
/mp {newpath /y exch def /x exch def} def
/side {[w .77 mul w .23 mul] .385 w mul sd w 0 l currentpoint t -144 r} def
/mr {mp x y w2 0 360 arc} def /m24 {mr s} def /m20 {mr f} def
/mb {mp x y w2 add m w2 neg 0 d 0 w neg d w 0 d 0 w d cl} def
/mt {mp x y w2 add m w2 neg w neg d w 0 d cl} def
/m21 {mb f} def /m25 {mb s} def /m22 {mt f} def /m26{mt s} def
/m23 {mp x y w2 sub m w2 w d w neg 0 d cl f} def
/m27 {mp x y w2 add m w3 neg w2 neg d w3 w2 neg d w3 w2 d cl s} def
/m28 {mp x w2 sub y w2 sub w3 add m w3 0 d  0 w3 neg d w3 0 d 0 w3 d w3 0 d  0 w3 d w3 neg 0 d 0 w3 d w3 neg 0 d 0 w3 neg d w3 neg 0 d cl s } def
/m29 {mp gsave x w2 sub y w2 add w3 sub m currentpoint t 4 {side} repeat cl fill gr} def
/m30 {mp gsave x w2 sub y w2 add w3 sub m currentpoint t 4 {side} repeat cl s gr} def
/m31 {mp x y w2 sub m 0 w d x w2 sub y m w 0 d x w2 sub y w2 add m w w neg d x w2 sub y w2 sub m w w d s} def
/m32 {mp x y w2 sub m w2 w d w neg 0 d cl s} def
/m33 {mp x y w2 add m w3 neg w2 neg d w3 w2 neg d w3 w2 d cl f} def
/m34 {mp x w2 sub y w2 sub w3 add m w3 0 d  0 w3 neg d w3 0 d 0 w3 d w3 0 d  0 w3 d w3 neg 0 d 0 w3 d w3 neg 0 d 0 w3 neg d w3 neg 0 d cl f } def
/m2 {mp x y w2 sub m 0 w d x w2 sub y m w 0 d s} def
/m5 {mp x w2 sub y w2 sub m w w d x w2 sub y w2 add m w w neg d s} def
/reEncode {exch findfont dup length dict begin {1 index /FID eq  {pop pop} {def} ifelse } forall /Encoding exch def currentdict end dup /FontName get exch definefont pop } def [/Times-Bold /Times-Italic /Times-BoldItalic /Helvetica /Helvetica-Oblique
 /Helvetica-Bold /Helvetica-BoldOblique /Courier /Courier-Oblique /Courier-Bold /Courier-BoldOblique /Times-Roman /AvantGarde-Book /AvantGarde-BookOblique /AvantGarde-Demi /AvantGarde-DemiOblique /Bookman-Demi /Bookman-DemiItalic /Bookman-Light
 /Bookman-LightItalic /Helvetica-Narrow /Helvetica-Narrow-Bold /Helvetica-Narrow-BoldOblique /Helvetica-Narrow-Oblique /NewCenturySchlbk-Roman /NewCenturySchlbk-Bold /NewCenturySchlbk-BoldItalic /NewCenturySchlbk-Italic /Palatino-Bold
 /Palatino-BoldItalic /Palatino-Italic /Palatino-Roman ] {ISOLatin1Encoding reEncode } forall%%EndProlog
%%BeginSetup
%%EndSetup
newpath  gsave  .25 .25 scale  gsave  0 0 t black[  ] 0 sd 3 lw 1 1 1 c 2268 1328 0 0 bf black 1 1 1 c 408 305 23 1009 bf black 1 1 1 c black 306 229 84 1055 bl 306 229 84 1055 bl 84 1055 m 306 X s 84 1059 m -4 Y s 196 1059 m -4 Y s 309 1059 m -4 Y s
 309 1059 m -4 Y s
 gsave  408 305 23 1009 C 74.0711 1034.15 t 0 r /Helvetica findfont 22.8295 sf 0 0 m (0) show NC gr 
 gsave  408 305 23 1009 C 188.027 1034.15 t 0 r /Helvetica findfont 22.8295 sf 0 0 m (1) show NC gr 
 gsave  408 305 23 1009 C 299.133 1034.15 t 0 r /Helvetica findfont 22.8295 sf 0 0 m (2) show NC gr  84 1284 m 306 X s 84 1280 m 4 Y s 196 1280 m 4 Y s 309 1280 m 4 Y s 309 1280 m 4 Y s 84 1055 m 229 Y s 89 1057 m -5 X s 87 1062 m -3 X s 87 1068 m -3
 X s 87 1074 m -3 X s 87 1080 m -3 X s 89 1085 m -5 X s 87 1091 m -3 X s 87 1097 m -3 X s 87 1103 m -3 X s 87 1108 m -3 X s 89 1114 m -5 X s 87 1120 m -3 X s 87 1126 m -3 X s 87 1131 m -3 X s 87 1137 m -3 X s 89 1143 m -5 X s 87 1148 m -3 X s 87 1154
 m -3 X s 87 1160 m -3 X s 87 1166 m -3 X s 89 1171 m -5 X s 87 1177 m -3 X s 87 1183 m -3 X s 87 1189 m -3 X s 87 1194 m -3 X s 89 1200 m -5 X s 87 1206 m -3 X s 87 1212 m -3 X s 87 1217 m -3 X s 87 1223 m -3 X s 89 1229 m -5 X s 87 1234 m -3 X s 87
 1240 m -3 X s 87 1246 m -3 X s 87 1252 m -3 X s 89 1257 m -5 X s 89 1057 m -5 X s 89 1257 m -5 X s 87 1263 m -3 X s 87 1269 m -3 X s 87 1275 m -3 X s 87 1280 m -3 X s
 gsave  408 305 23 1009 C 14.2445 1048.39 t 0 r /Helvetica findfont 22.8295 sf 0 0 m (\2550.004) show NC gr 
 gsave  408 305 23 1009 C 14.2445 1076.88 t 0 r /Helvetica findfont 22.8295 sf 0 0 m (\2550.003) show NC gr 
 gsave  408 305 23 1009 C 14.2445 1108.22 t 0 r /Helvetica findfont 22.8295 sf 0 0 m (\2550.002) show NC gr 
 gsave  408 305 23 1009 C 17.0933 1136.71 t 0 r /Helvetica findfont 22.8295 sf 0 0 m (\2550.001) show NC gr 
 gsave  408 305 23 1009 C 65.5245 1165.2 t 0 r /Helvetica findfont 22.8295 sf 0 0 m (0) show NC gr 
 gsave  408 305 23 1009 C 25.64 1193.68 t 0 r /Helvetica findfont 22.8295 sf 0 0 m (0.001) show NC gr 
 gsave  408 305 23 1009 C 22.7911 1222.17 t 0 r /Helvetica findfont 22.8295 sf 0 0 m (0.002) show NC gr 
 gsave  408 305 23 1009 C 22.7911 1250.66 t 0 r /Helvetica findfont 22.8295 sf 0 0 m (0.003) show NC gr  390 1055 m 229 Y s 385 1057 m 5 X s 387 1062 m 3 X s 387 1068 m 3 X s 387 1074 m 3 X s 387 1080 m 3 X s 385 1085 m 5 X s 387 1091 m 3 X s 387
 1097 m 3 X s 387 1103 m 3 X s 387 1108 m 3 X s 385 1114 m 5 X s 387 1120 m 3 X s 387 1126 m 3 X s 387 1131 m 3 X s 387 1137 m 3 X s 385 1143 m 5 X s 387 1148 m 3 X s 387 1154 m 3 X s 387 1160 m 3 X s 387 1166 m 3 X s 385 1171 m 5 X s 387 1177 m 3 X
 s 387 1183 m 3 X s 387 1189 m 3 X s 387 1194 m 3 X s 385 1200 m 5 X s 387 1206 m 3 X s 387 1212 m 3 X s 387 1217 m 3 X s 387 1223 m 3 X s 385 1229 m 5 X s 387 1234 m 3 X s 387 1240 m 3 X s 387 1246 m 3 X s 387 1252 m 3 X s 385 1257 m 5 X s 385 1057
 m 5 X s 385 1257 m 5 X s 387 1263 m 3 X s 387 1269 m 3 X s 387 1275 m 3 X s 387 1280 m 3 X s /w 22 def /w2 {w 2 div} def /w3 {w 3 div} def 140 1147 196 1184 309 1148 365 1191 4 { m21} R 140 1158 m 62 Y s 134 1220 m 12 X s 140 1136 m -62 Y s 134 1074
 m 12 X s 196 1195 m 62 Y s 191 1257 m 11 X s 196 1172 m -62 Y s 191 1110 m 11 X s 309 1159 m 62 Y s 303 1221 m 12 X s 309 1136 m -61 Y s 303 1075 m 12 X s 365 1203 m 62 Y s 360 1265 m 11 X s 365 1180 m -62 Y s 360 1118 m 11 X s 1 0 0 c 9 lw 0.95
 0.95 0.95 c black 1 0 0 c 85 1171 m 46 X 3 1 d 101 X s 235 1172 m 4 1 d 55 X 3 1 d 39 X 4 1 d 36 X 3 1 d 6 X s 385 1176 m 4 X s 0.49 0.6 0.82 c black 0.49 0.6 0.82 c
 gsave  408 305 23 1009 C 142.445 1293.4 t 0 r /Helvetica-Bold findfont 25.6831 sf 0 0 m (0.0 < E < 0.5 GeV) show NC gr  0.52 0.76 0.64 c black 0.52 0.76 0.64 c
 gsave  408 305 23 1009 C 128.2 1256.36 t 0 r /Helvetica-Bold findfont 25.6831 sf 0 0 m 
 220 206 192 185 170 163 148 141 126 118 111 97 83 69 61 47 40 25 18
(A = 0.000, p = 2.000) K NC gr  1 0.6 1 c black 1 0.6 1 c
 gsave  408 305 23 1009 C 427.334 1122.46 t 90 r /Helvetica-Bold findfont 28.5368 sf 0 0 m (/dof=0.1) show NC gr  black 1 0.6 1 c
 gsave  408 305 23 1009 C 415.938 1111.07 t 90 r /Helvetica-Bold findfont 19.9758 sf 0 0 m (2) show NC gr  black 1 0.6 1 c
 gsave  408 305 23 1009 C 427.334 1093.97 t 90 r /Symbol findfont 28.5368 sf 0 0 m (c) show NC gr  black 3 lw 1 1 1 c 408 305 476 1009 bf black 1 1 1 c black 307 229 537 1055 bl 307 229 537 1055 bl 537 1055 m 307 X s 537 1059 m -4 Y s 650 1059 m -4 Y
 s 763 1059 m -4 Y s 763 1059 m -4 Y s
 gsave  408 305 476 1009 C 527.045 1034.15 t 0 r /Helvetica findfont 22.8295 sf 0 0 m (0) show NC gr 
 gsave  408 305 476 1009 C 643.849 1034.15 t 0 r /Helvetica findfont 22.8295 sf 0 0 m (1) show NC gr 
 gsave  408 305 476 1009 C 752.107 1034.15 t 0 r /Helvetica findfont 22.8295 sf 0 0 m (2) show NC gr  537 1284 m 307 X s 537 1280 m 4 Y s 650 1280 m 4 Y s 763 1280 m 4 Y s 763 1280 m 4 Y s 537 1055 m 229 Y s 543 1070 m -6 X s 540 1075 m -3 X s 540
 1080 m -3 X s 540 1085 m -3 X s 540 1090 m -3 X s 543 1094 m -6 X s 540 1099 m -3 X s 540 1104 m -3 X s 540 1109 m -3 X s 540 1114 m -3 X s 543 1118 m -6 X s 540 1123 m -3 X s 540 1128 m -3 X s 540 1133 m -3 X s 540 1137 m -3 X s 543 1142 m -6 X s
 540 1147 m -3 X s 540 1152 m -3 X s 540 1157 m -3 X s 540 1161 m -3 X s 543 1166 m -6 X s 540 1171 m -3 X s 540 1176 m -3 X s 540 1181 m -3 X s 540 1185 m -3 X s 543 1190 m -6 X s 540 1195 m -3 X s 540 1200 m -3 X s 540 1205 m -3 X s 540 1209 m -3 X
 s 543 1214 m -6 X s 540 1219 m -3 X s 540 1224 m -3 X s 540 1229 m -3 X s 540 1233 m -3 X s 543 1238 m -6 X s 540 1243 m -3 X s 540 1248 m -3 X s 540 1252 m -3 X s 540 1257 m -3 X s 543 1262 m -6 X s 543 1070 m -6 X s 540 1066 m -3 X s 540 1061 m -3
 X s 540 1056 m -3 X s 543 1262 m -6 X s 540 1267 m -3 X s 540 1272 m -3 X s 540 1276 m -3 X s 540 1281 m -3 X s
 gsave  408 305 476 1009 C 467.218 1062.64 t 0 r /Helvetica findfont 22.8295 sf 0 0 m (\2550.004) show NC gr 
 gsave  408 305 476 1009 C 467.218 1088.28 t 0 r /Helvetica findfont 22.8295 sf 0 0 m (\2550.003) show NC gr 
 gsave  408 305 476 1009 C 467.218 1111.07 t 0 r /Helvetica findfont 22.8295 sf 0 0 m (\2550.002) show NC gr 
 gsave  408 305 476 1009 C 470.067 1133.86 t 0 r /Helvetica findfont 22.8295 sf 0 0 m (\2550.001) show NC gr 
 gsave  408 305 476 1009 C 518.498 1159.5 t 0 r /Helvetica findfont 22.8295 sf 0 0 m (0) show NC gr 
 gsave  408 305 476 1009 C 478.614 1182.29 t 0 r /Helvetica findfont 22.8295 sf 0 0 m (0.001) show NC gr 
 gsave  408 305 476 1009 C 475.765 1207.93 t 0 r /Helvetica findfont 22.8295 sf 0 0 m (0.002) show NC gr 
 gsave  408 305 476 1009 C 475.765 1230.72 t 0 r /Helvetica findfont 22.8295 sf 0 0 m (0.003) show NC gr 
 gsave  408 305 476 1009 C 475.765 1256.36 t 0 r /Helvetica findfont 22.8295 sf 0 0 m (0.004) show NC gr  844 1055 m 229 Y s 838 1070 m 6 X s 841 1075 m 3 X s 841 1080 m 3 X s 841 1085 m 3 X s 841 1090 m 3 X s 838 1094 m 6 X s 841 1099 m 3 X s 841
 1104 m 3 X s 841 1109 m 3 X s 841 1114 m 3 X s 838 1118 m 6 X s 841 1123 m 3 X s 841 1128 m 3 X s 841 1133 m 3 X s 841 1137 m 3 X s 838 1142 m 6 X s 841 1147 m 3 X s 841 1152 m 3 X s 841 1157 m 3 X s 841 1161 m 3 X s 838 1166 m 6 X s 841 1171 m 3 X
 s 841 1176 m 3 X s 841 1181 m 3 X s 841 1185 m 3 X s 838 1190 m 6 X s 841 1195 m 3 X s 841 1200 m 3 X s 841 1205 m 3 X s 841 1209 m 3 X s 838 1214 m 6 X s 841 1219 m 3 X s 841 1224 m 3 X s 841 1229 m 3 X s 841 1233 m 3 X s 838 1238 m 6 X s 841 1243
 m 3 X s 841 1248 m 3 X s 841 1252 m 3 X s 841 1257 m 3 X s 838 1262 m 6 X s 838 1070 m 6 X s 841 1066 m 3 X s 841 1061 m 3 X s 841 1056 m 3 X s 838 1262 m 6 X s 841 1267 m 3 X s 841 1272 m 3 X s 841 1276 m 3 X s 841 1281 m 3 X s /w 23 def /w2 {w 2
 div} def /w3 {w 3 div} def 594 1189 650 1147 763 1182 819 1191 4 { m21} R 594 1201 m 62 Y s 588 1263 m 11 X s 594 1178 m -63 Y s 588 1115 m 11 X s 650 1159 m 62 Y s 644 1221 m 12 X s 650 1136 m -62 Y s 644 1074 m 12 X s 763 1193 m 63 Y s 757 1256 m
 11 X s 763 1170 m -62 Y s 757 1108 m 11 X s 819 1202 m 63 Y s 813 1265 m 12 X s 819 1179 m -62 Y s 813 1117 m 12 X s 1 0 0 c 9 lw 0.95 0.95 0.95 c black 1 0 0 c 539 1166 m 28 X 3 1 d 33 X 3 1 d 19 X 3 1 d 15 X 3 1 d 12 X 3 1 d 10 X 3 1 d 9 X 3 1 d 3
 X s 689 1173 m 6 X 3 1 d 9 X 3 1 d 7 X 3 1 d 6 X 3 1 d 6 X 3 1 d 6 X 3 1 d 6 X 3 1 d 3 X 3 1 d 7 X 3 1 d 3 X 3 1 d 3 X 3 1 d 6 X 3 1 d 3 X 3 1 d 3 X 3 1 d 3 X 3 1 d 4 X 3 1 d 3 X 3 1 d 3 X 3 1 d 3 X 3 1 d 3 X s 839 1192 m 3 1 d s 0.49 0.6 0.82 c
 black 0.49 0.6 0.82 c
 gsave  408 305 476 1009 C 595.418 1293.4 t 0 r /Helvetica-Bold findfont 25.6831 sf 0 0 m (0.5 < E < 1.0 GeV) show NC gr  0.52 0.76 0.64 c black 0.52 0.76 0.64 c
 gsave  408 305 476 1009 C 581.174 1256.36 t 0 r /Helvetica-Bold findfont 25.6831 sf 0 0 m 
 220 206 192 185 170 163 148 141 125 118 111 97 83 68 61 47 40 25 18
(A = 0.000, p = 2.000) K NC gr  1 0.6 1 c black 1 0.6 1 c
 gsave  408 305 476 1009 C 883.156 1122.46 t 90 r /Helvetica-Bold findfont 28.5368 sf 0 0 m (/dof=0.1) show NC gr  black 1 0.6 1 c
 gsave  408 305 476 1009 C 871.76 1111.07 t 90 r /Helvetica-Bold findfont 19.9758 sf 0 0 m (2) show NC gr  black 1 0.6 1 c
 gsave  408 305 476 1009 C 883.156 1093.97 t 90 r /Symbol findfont 28.5368 sf 0 0 m (c) show NC gr  black 3 lw 1 1 1 c 408 305 930 1009 bf black 1 1 1 c black 306 229 991 1055 bl 306 229 991 1055 bl 991 1055 m 306 X s 991 1059 m -4 Y s 1104 1059 m -4
 Y s 1216 1059 m -4 Y s 1216 1059 m -4 Y s
 gsave  408 305 930 1009 C 980.018 1034.15 t 0 r /Helvetica findfont 22.8295 sf 0 0 m (0) show NC gr 
 gsave  408 305 930 1009 C 1096.82 1034.15 t 0 r /Helvetica findfont 22.8295 sf 0 0 m (1) show NC gr 
 gsave  408 305 930 1009 C 1205.08 1034.15 t 0 r /Helvetica findfont 22.8295 sf 0 0 m (2) show NC gr  991 1284 m 306 X s 991 1280 m 4 Y s 1104 1280 m 4 Y s 1216 1280 m 4 Y s 1216 1280 m 4 Y s 991 1055 m 229 Y s 997 1069 m -6 X s 994 1074 m -3 X s 994
 1079 m -3 X s 994 1084 m -3 X s 994 1089 m -3 X s 997 1094 m -6 X s 994 1099 m -3 X s 994 1104 m -3 X s 994 1109 m -3 X s 994 1114 m -3 X s 997 1120 m -6 X s 994 1125 m -3 X s 994 1130 m -3 X s 994 1135 m -3 X s 994 1140 m -3 X s 997 1145 m -6 X s
 994 1150 m -3 X s 994 1155 m -3 X s 994 1160 m -3 X s 994 1165 m -3 X s 997 1170 m -6 X s 994 1175 m -3 X s 994 1180 m -3 X s 994 1185 m -3 X s 994 1190 m -3 X s 997 1195 m -6 X s 994 1200 m -3 X s 994 1205 m -3 X s 994 1210 m -3 X s 994 1215 m -3 X
 s 997 1220 m -6 X s 994 1225 m -3 X s 994 1230 m -3 X s 994 1235 m -3 X s 994 1241 m -3 X s 997 1246 m -6 X s 994 1251 m -3 X s 994 1256 m -3 X s 994 1261 m -3 X s 994 1266 m -3 X s 997 1271 m -6 X s 997 1069 m -6 X s 994 1064 m -3 X s 994 1059 m -3
 X s 997 1271 m -6 X s 994 1276 m -3 X s 994 1281 m -3 X s
 gsave  408 305 930 1009 C 923.04 1062.64 t 0 r /Helvetica findfont 22.8295 sf 0 0 m (\2550.004) show NC gr 
 gsave  408 305 930 1009 C 923.04 1088.28 t 0 r /Helvetica findfont 22.8295 sf 0 0 m (\2550.003) show NC gr 
 gsave  408 305 930 1009 C 923.04 1111.07 t 0 r /Helvetica findfont 22.8295 sf 0 0 m (\2550.002) show NC gr 
 gsave  408 305 930 1009 C 925.889 1136.71 t 0 r /Helvetica findfont 22.8295 sf 0 0 m (\2550.001) show NC gr 
 gsave  408 305 930 1009 C 974.32 1162.35 t 0 r /Helvetica findfont 22.8295 sf 0 0 m (0) show NC gr 
 gsave  408 305 930 1009 C 934.436 1187.99 t 0 r /Helvetica findfont 22.8295 sf 0 0 m (0.001) show NC gr 
 gsave  408 305 930 1009 C 931.587 1213.63 t 0 r /Helvetica findfont 22.8295 sf 0 0 m (0.002) show NC gr 
 gsave  408 305 930 1009 C 931.587 1239.27 t 0 r /Helvetica findfont 22.8295 sf 0 0 m (0.003) show NC gr 
 gsave  408 305 930 1009 C 931.587 1264.91 t 0 r /Helvetica findfont 22.8295 sf 0 0 m (0.004) show NC gr  1297 1055 m 229 Y s 1292 1069 m 5 X s 1294 1074 m 3 X s 1294 1079 m 3 X s 1294 1084 m 3 X s 1294 1089 m 3 X s 1292 1094 m 5 X s 1294 1099 m 3 X
 s 1294 1104 m 3 X s 1294 1109 m 3 X s 1294 1114 m 3 X s 1292 1120 m 5 X s 1294 1125 m 3 X s 1294 1130 m 3 X s 1294 1135 m 3 X s 1294 1140 m 3 X s 1292 1145 m 5 X s 1294 1150 m 3 X s 1294 1155 m 3 X s 1294 1160 m 3 X s 1294 1165 m 3 X s 1292 1170 m 5
 X s 1294 1175 m 3 X s 1294 1180 m 3 X s 1294 1185 m 3 X s 1294 1190 m 3 X s 1292 1195 m 5 X s 1294 1200 m 3 X s 1294 1205 m 3 X s 1294 1210 m 3 X s 1294 1215 m 3 X s 1292 1220 m 5 X s 1294 1225 m 3 X s 1294 1230 m 3 X s 1294 1235 m 3 X s 1294 1241 m
 3 X s 1292 1246 m 5 X s 1294 1251 m 3 X s 1294 1256 m 3 X s 1294 1261 m 3 X s 1294 1266 m 3 X s 1292 1271 m 5 X s 1292 1069 m 5 X s 1294 1064 m 3 X s 1294 1059 m 3 X s 1292 1271 m 5 X s 1294 1276 m 3 X s 1294 1281 m 3 X s 1047 1151 1104 1175 1216
 1169 1272 1187 4 { m21} R 1047 1162 m 65 Y s 1042 1227 m 11 X s 1047 1139 m -65 Y s 1042 1074 m 11 X s 1104 1187 m 65 Y s 1098 1252 m 11 X s 1104 1164 m -65 Y s 1098 1099 m 11 X s 1216 1181 m 65 Y s 1210 1246 m 12 X s 1216 1158 m -66 Y s 1210 1092 m
 12 X s 1272 1199 m 66 Y s 1267 1265 m 11 X s 1272 1176 m -66 Y s 1267 1110 m 11 X s 1 0 0 c 9 lw 0.95 0.95 0.95 c black 1 0 0 c 993 1170 m 58 X 3 1 d 36 X 4 1 d 27 X 3 1 d 19 X s 1143 1173 m 3 1 d 18 X 3 1 d 15 X 3 1 d 13 X 3 1 d 12 X 3 1 d 12 X 3 1
 d 9 X 4 1 d 12 X 3 1 d 9 X 3 1 d 6 X 3 1 d 9 X 4 1 d s 1293 1184 m 3 X s 0.49 0.6 0.82 c black 0.49 0.6 0.82 c
 gsave  408 305 930 1009 C 1051.24 1293.4 t 0 r /Helvetica-Bold findfont 25.6831 sf 0 0 m (1.0 < E < 1.5 GeV) show NC gr  0.52 0.76 0.64 c black 0.52 0.76 0.64 c
 gsave  408 305 930 1009 C 1037 1256.36 t 0 r /Helvetica-Bold findfont 25.6831 sf 0 0 m 
 220 206 192 185 170 163 148 141 125 118 111 97 83 69 61 47 40 25 18
(A = 0.000, p = 2.000) K NC gr  1 0.6 1 c black 1 0.6 1 c
 gsave  408 305 930 1009 C 1336.13 1122.46 t 90 r /Helvetica-Bold findfont 28.5368 sf 0 0 m (/dof=0.0) show NC gr  black 1 0.6 1 c
 gsave  408 305 930 1009 C 1324.73 1111.07 t 90 r /Helvetica-Bold findfont 19.9758 sf 0 0 m (2) show NC gr  black 1 0.6 1 c
 gsave  408 305 930 1009 C 1336.13 1093.97 t 90 r /Symbol findfont 28.5368 sf 0 0 m (c) show NC gr  black 3 lw 1 1 1 c 408 305 1383 1009 bf black 1 1 1 c black 306 229 1445 1055 bl 306 229 1445 1055 bl 1445 1055 m 306 X s 1445 1059 m -4 Y s 1557 1059
 m -4 Y s 1670 1059 m -4 Y s 1670 1059 m -4 Y s
 gsave  408 305 1383 1009 C 1435.84 1034.15 t 0 r /Helvetica findfont 22.8295 sf 0 0 m (0) show NC gr 
 gsave  408 305 1383 1009 C 1549.8 1034.15 t 0 r /Helvetica findfont 22.8295 sf 0 0 m (1) show NC gr 
 gsave  408 305 1383 1009 C 1660.9 1034.15 t 0 r /Helvetica findfont 22.8295 sf 0 0 m (2) show NC gr  1445 1284 m 306 X s 1445 1280 m 4 Y s 1557 1280 m 4 Y s 1670 1280 m 4 Y s 1670 1280 m 4 Y s 1445 1055 m 229 Y s 1450 1072 m -5 X s 1447 1081 m -2 X
 s 1447 1089 m -2 X s 1447 1098 m -2 X s 1450 1106 m -5 X s 1447 1115 m -2 X s 1447 1124 m -2 X s 1447 1132 m -2 X s 1450 1141 m -5 X s 1447 1149 m -2 X s 1447 1158 m -2 X s 1447 1167 m -2 X s 1450 1175 m -5 X s 1447 1184 m -2 X s 1447 1193 m -2 X s
 1447 1201 m -2 X s 1450 1210 m -5 X s 1447 1218 m -2 X s 1447 1227 m -2 X s 1447 1236 m -2 X s 1450 1244 m -5 X s 1447 1253 m -2 X s 1447 1261 m -2 X s 1447 1270 m -2 X s 1450 1279 m -5 X s 1450 1072 m -5 X s 1447 1063 m -2 X s 1447 1055 m -2 X s
 1450 1279 m -5 X s
 gsave  408 305 1383 1009 C 1376.01 1065.48 t 0 r /Helvetica findfont 22.8295 sf 0 0 m (\2550.006) show NC gr 
 gsave  408 305 1383 1009 C 1376.01 1099.67 t 0 r /Helvetica findfont 22.8295 sf 0 0 m (\2550.004) show NC gr 
 gsave  408 305 1383 1009 C 1376.01 1133.86 t 0 r /Helvetica findfont 22.8295 sf 0 0 m (\2550.002) show NC gr 
 gsave  408 305 1383 1009 C 1427.29 1168.04 t 0 r /Helvetica findfont 22.8295 sf 0 0 m (0) show NC gr 
 gsave  408 305 1383 1009 C 1384.56 1202.23 t 0 r /Helvetica findfont 22.8295 sf 0 0 m (0.002) show NC gr 
 gsave  408 305 1383 1009 C 1384.56 1236.42 t 0 r /Helvetica findfont 22.8295 sf 0 0 m (0.004) show NC gr 
 gsave  408 305 1383 1009 C 1384.56 1270.6 t 0 r /Helvetica findfont 22.8295 sf 0 0 m (0.006) show NC gr  1751 1055 m 229 Y s 1745 1072 m 6 X s 1748 1081 m 3 X s 1748 1089 m 3 X s 1748 1098 m 3 X s 1745 1106 m 6 X s 1748 1115 m 3 X s 1748 1124 m 3 X
 s 1748 1132 m 3 X s 1745 1141 m 6 X s 1748 1149 m 3 X s 1748 1158 m 3 X s 1748 1167 m 3 X s 1745 1175 m 6 X s 1748 1184 m 3 X s 1748 1193 m 3 X s 1748 1201 m 3 X s 1745 1210 m 6 X s 1748 1218 m 3 X s 1748 1227 m 3 X s 1748 1236 m 3 X s 1745 1244 m 6
 X s 1748 1253 m 3 X s 1748 1261 m 3 X s 1748 1270 m 3 X s 1745 1279 m 6 X s 1745 1072 m 6 X s 1748 1063 m 3 X s 1748 1055 m 3 X s 1745 1279 m 6 X s 1501 1159 1557 1127 1670 1153 1726 1211 4 { m21} R 1501 1170 m 42 Y s 1495 1212 m 12 X s 1501 1148 m
 -42 Y s 1495 1106 m 12 X s 1557 1138 m 42 Y s 1551 1180 m 12 X s 1557 1116 m -42 Y s 1551 1074 m 12 X s 1670 1164 m 42 Y s 1664 1206 m 11 X s 1670 1141 m -42 Y s 1664 1099 m 11 X s 1726 1223 m 42 Y s 1720 1265 m 12 X s 1726 1200 m -42 Y s 1720 1158
 m 12 X s 1 0 0 c 9 lw 0.95 0.95 0.95 c black 1 0 0 c 1446 1175 m 37 X 3 1 d 58 X 3 1 d 34 X 3 1 d 12 X s 1596 1178 m 15 X 3 1 d 19 X 3 1 d 21 X 3 1 d 16 X 3 1 d 15 X 3 1 d 12 X 3 1 d 16 X 3 1 d 9 X 3 1 d 3 X s 1746 1186 m 3 X s 0.49 0.6 0.82 c black
 0.49 0.6 0.82 c
 gsave  408 305 1383 1009 C 1504.21 1293.4 t 0 r /Helvetica-Bold findfont 25.6831 sf 0 0 m (1.5 < E < 2.0 GeV) show NC gr  0.52 0.76 0.64 c black 0.52 0.76 0.64 c
 gsave  408 305 1383 1009 C 1489.97 1256.36 t 0 r /Helvetica-Bold findfont 25.6831 sf 0 0 m 
 220 206 192 185 170 163 148 141 126 118 111 97 83 69 61 47 40 25 18
(A = 0.000, p = 2.000) K NC gr  1 0.6 1 c black 1 0.6 1 c
 gsave  408 305 1383 1009 C 1789.1 1122.46 t 90 r /Helvetica-Bold findfont 28.5368 sf 0 0 m (/dof=0.5) show NC gr  black 1 0.6 1 c
 gsave  408 305 1383 1009 C 1777.71 1111.07 t 90 r /Helvetica-Bold findfont 19.9758 sf 0 0 m (2) show NC gr  black 1 0.6 1 c
 gsave  408 305 1383 1009 C 1789.1 1093.97 t 90 r /Symbol findfont 28.5368 sf 0 0 m (c) show NC gr  black 3 lw 1 1 1 c 408 305 1837 1009 bf black 1 1 1 c black 306 229 1898 1055 bl 306 229 1898 1055 bl 1898 1055 m 306 X s 1898 1059 m -4 Y s 2011 1059
 m -4 Y s 2123 1059 m -4 Y s 2123 1059 m -4 Y s
 gsave  408 305 1837 1009 C 1888.81 1034.15 t 0 r /Helvetica findfont 22.8295 sf 0 0 m (0) show NC gr 
 gsave  408 305 1837 1009 C 2002.77 1034.15 t 0 r /Helvetica findfont 22.8295 sf 0 0 m (1) show NC gr 
 gsave  408 305 1837 1009 C 2113.88 1034.15 t 0 r /Helvetica findfont 22.8295 sf 0 0 m (2) show NC gr  1898 1284 m 306 X s 1898 1280 m 4 Y s 2011 1280 m 4 Y s 2123 1280 m 4 Y s 2123 1280 m 4 Y s 1898 1055 m 229 Y s 1904 1082 m -6 X s 1901 1090 m -3 X
 s 1901 1098 m -3 X s 1901 1106 m -3 X s 1904 1114 m -6 X s 1901 1122 m -3 X s 1901 1130 m -3 X s 1901 1138 m -3 X s 1904 1146 m -6 X s 1901 1154 m -3 X s 1901 1162 m -3 X s 1901 1170 m -3 X s 1904 1178 m -6 X s 1901 1186 m -3 X s 1901 1194 m -3 X s
 1901 1202 m -3 X s 1904 1210 m -6 X s 1901 1218 m -3 X s 1901 1226 m -3 X s 1901 1234 m -3 X s 1904 1242 m -6 X s 1901 1250 m -3 X s 1901 1258 m -3 X s 1901 1266 m -3 X s 1904 1274 m -6 X s 1904 1082 m -6 X s 1901 1074 m -3 X s 1901 1066 m -3 X s
 1901 1058 m -3 X s 1904 1274 m -6 X s 1901 1282 m -3 X s
 gsave  408 305 1837 1009 C 1828.99 1074.03 t 0 r /Helvetica findfont 22.8295 sf 0 0 m (\2550.004) show NC gr 
 gsave  408 305 1837 1009 C 1828.99 1108.22 t 0 r /Helvetica findfont 22.8295 sf 0 0 m (\2550.002) show NC gr 
 gsave  408 305 1837 1009 C 1880.27 1139.56 t 0 r /Helvetica findfont 22.8295 sf 0 0 m (0) show NC gr 
 gsave  408 305 1837 1009 C 1837.53 1170.89 t 0 r /Helvetica findfont 22.8295 sf 0 0 m (0.002) show NC gr 
 gsave  408 305 1837 1009 C 1837.53 1202.23 t 0 r /Helvetica findfont 22.8295 sf 0 0 m (0.004) show NC gr 
 gsave  408 305 1837 1009 C 1837.53 1233.57 t 0 r /Helvetica findfont 22.8295 sf 0 0 m (0.006) show NC gr 
 gsave  408 305 1837 1009 C 1837.53 1267.76 t 0 r /Helvetica findfont 22.8295 sf 0 0 m (0.008) show NC gr  2204 1055 m 229 Y s 2199 1082 m 5 X s 2201 1090 m 3 X s 2201 1098 m 3 X s 2201 1106 m 3 X s 2199 1114 m 5 X s 2201 1122 m 3 X s 2201 1130 m 3 X
 s 2201 1138 m 3 X s 2199 1146 m 5 X s 2201 1154 m 3 X s 2201 1162 m 3 X s 2201 1170 m 3 X s 2199 1178 m 5 X s 2201 1186 m 3 X s 2201 1194 m 3 X s 2201 1202 m 3 X s 2199 1210 m 5 X s 2201 1218 m 3 X s 2201 1226 m 3 X s 2201 1234 m 3 X s 2199 1242 m 5
 X s 2201 1250 m 3 X s 2201 1258 m 3 X s 2201 1266 m 3 X s 2199 1274 m 5 X s 2199 1082 m 5 X s 2201 1074 m 3 X s 2201 1066 m 3 X s 2201 1058 m 3 X s 2199 1274 m 5 X s 2201 1282 m 3 X s 1954 1126 2011 1202 2123 1212 2179 1131 4 { m21} R 1954 1137 m 40
 Y s 1949 1177 m 11 X s 1954 1114 m -40 Y s 1949 1074 m 11 X s 2011 1213 m 41 Y s 2005 1254 m 11 X s 2011 1190 m -41 Y s 2005 1149 m 11 X s 2123 1224 m 41 Y s 2117 1265 m 12 X s 2123 1201 m -41 Y s 2117 1160 m 12 X s 2179 1143 m 40 Y s 2174 1183 m 11
 X s 2179 1120 m -41 Y s 2174 1079 m 11 X s 9 lw 0.95 0.95 0.95 c black 1900 1146 m 3 1 d 6 X 3 1 d 6 X 3 1 d 6 X 3 1 d 6 X 3 1 d 7 X 3 1 d 6 X 3 1 d 9 X 3 1 d 6 X 3 1 d 6 X 3 1 d 7 X 3 1 d 6 X 3 1 d 6 X 3 1 d 6 X 3 1 d 6 X 3 1 d 6 X 3 1 d 7 X s 2050
 1162 m 3 1 d 6 X 3 1 d 6 X 3 1 d 6 X 3 1 d 6 X 3 1 d 7 X 3 1 d 6 X 3 1 d 9 X 3 1 d 6 X 3 1 d 6 X 3 1 d 7 X 3 1 d 6 X 3 1 d 6 X 3 1 d 6 X 3 1 d 6 X 3 1 d 6 X 4 1 d 6 X s 2200 1178 m 3 1 d s 0.49 0.6 0.82 c black 0.49 0.6 0.82 c
 gsave  408 305 1837 1009 C 1957.19 1293.4 t 0 r /Helvetica-Bold findfont 25.6831 sf 0 0 m (2.0 < E < 2.5 GeV) show NC gr  0.52 0.76 0.64 c black 0.52 0.76 0.64 c
 gsave  408 305 1837 1009 C 1942.94 1256.36 t 0 r /Helvetica-Bold findfont 25.6831 sf 0 0 m 
 220 206 192 185 170 163 148 141 125 118 111 97 83 69 61 47 40 25 18
(A = 0.001, p = 1.000) K NC gr  1 0.6 1 c black 1 0.6 1 c
 gsave  408 305 1837 1009 C 2242.08 1122.46 t 90 r /Helvetica-Bold findfont 28.5368 sf 0 0 m (/dof=0.8) show NC gr  black 1 0.6 1 c
 gsave  408 305 1837 1009 C 2230.68 1111.07 t 90 r /Helvetica-Bold findfont 19.9758 sf 0 0 m (2) show NC gr  black 1 0.6 1 c
 gsave  408 305 1837 1009 C 2242.08 1093.97 t 90 r /Symbol findfont 28.5368 sf 0 0 m (c) show NC gr  black 3 lw 1 1 1 c 408 305 23 677 bf black 1 1 1 c black 306 229 84 723 bl 306 229 84 723 bl 84 723 m 306 X s 84 727 m -4 Y s 196 727 m -4 Y s 309
 727 m -4 Y s 309 727 m -4 Y s
 gsave  408 305 23 677 C 74.0711 703.676 t 0 r /Helvetica findfont 22.8295 sf 0 0 m (0) show NC gr 
 gsave  408 305 23 677 C 188.027 703.676 t 0 r /Helvetica findfont 22.8295 sf 0 0 m (1) show NC gr 
 gsave  408 305 23 677 C 299.133 703.676 t 0 r /Helvetica findfont 22.8295 sf 0 0 m (2) show NC gr  84 952 m 306 X s 84 948 m 4 Y s 196 948 m 4 Y s 309 948 m 4 Y s 309 948 m 4 Y s 84 723 m 229 Y s 89 752 m -5 X s 87 761 m -3 X s 87 770 m -3 X s 87
 780 m -3 X s 89 789 m -5 X s 87 799 m -3 X s 87 808 m -3 X s 87 818 m -3 X s 89 827 m -5 X s 87 836 m -3 X s 87 846 m -3 X s 87 855 m -3 X s 89 865 m -5 X s 87 874 m -3 X s 87 883 m -3 X s 87 893 m -3 X s 89 902 m -5 X s 87 912 m -3 X s 87 921 m -3
 X s 87 930 m -3 X s 89 940 m -5 X s 89 752 m -5 X s 87 742 m -3 X s 87 733 m -3 X s 87 723 m -3 X s 89 940 m -5 X s 87 949 m -3 X s
 gsave  408 305 23 677 C 14.2445 743.56 t 0 r /Helvetica findfont 22.8295 sf 0 0 m (\2550.004) show NC gr 
 gsave  408 305 23 677 C 14.2445 783.445 t 0 r /Helvetica findfont 22.8295 sf 0 0 m (\2550.002) show NC gr 
 gsave  408 305 23 677 C 65.5245 820.48 t 0 r /Helvetica findfont 22.8295 sf 0 0 m (0) show NC gr 
 gsave  408 305 23 677 C 22.7911 857.516 t 0 r /Helvetica findfont 22.8295 sf 0 0 m (0.002) show NC gr 
 gsave  408 305 23 677 C 22.7911 894.552 t 0 r /Helvetica findfont 22.8295 sf 0 0 m (0.004) show NC gr 
 gsave  408 305 23 677 C 22.7911 931.587 t 0 r /Helvetica findfont 22.8295 sf 0 0 m (0.006) show NC gr  390 723 m 229 Y s 385 752 m 5 X s 387 761 m 3 X s 387 770 m 3 X s 387 780 m 3 X s 385 789 m 5 X s 387 799 m 3 X s 387 808 m 3 X s 387 818 m 3 X s
 385 827 m 5 X s 387 836 m 3 X s 387 846 m 3 X s 387 855 m 3 X s 385 865 m 5 X s 387 874 m 3 X s 387 883 m 3 X s 387 893 m 3 X s 385 902 m 5 X s 387 912 m 3 X s 387 921 m 3 X s 387 930 m 3 X s 385 940 m 5 X s 385 752 m 5 X s 387 742 m 3 X s 387 733 m
 3 X s 387 723 m 3 X s 385 940 m 5 X s 387 949 m 3 X s /w 22 def /w2 {w 2 div} def /w3 {w 3 div} def 140 828 196 850 309 808 365 866 4 { m21} R 140 839 m 55 Y s 134 894 m 12 X s 140 816 m -55 Y s 134 761 m 12 X s 196 861 m 55 Y s 191 916 m 11 X s 196
 838 m -55 Y s 191 783 m 11 X s 309 820 m 55 Y s 303 875 m 12 X s 309 797 m -55 Y s 303 742 m 12 X s 365 877 m 56 Y s 360 933 m 11 X s 365 855 m -56 Y s 360 799 m 11 X s 1 0 0 c 9 lw 0.95 0.95 0.95 c black 1 0 0 c 85 827 m 43 X 3 1 d 28 X 3 1 d 18 X
 3 1 d 13 X 3 1 d 12 X 3 1 d 12 X 3 1 d 6 X s 235 833 m 4 X 3 1 d 9 X 3 1 d 6 X 3 1 d 6 X 3 1 d 6 X 3 1 d 6 X 4 1 d 6 X 3 1 d 6 X 3 1 d 6 X 3 1 d 3 X 3 1 d 6 X 3 1 d 3 X 4 1 d 3 X 3 1 d 6 X 3 1 d 3 X 3 1 d 3 X 3 1 d 3 X 3 1 d 3 X 3 1 d 3 X 3 1 d s
 385 852 m 4 X s 0.49 0.6 0.82 c black 0.49 0.6 0.82 c
 gsave  408 305 23 677 C 142.445 960.076 t 0 r /Helvetica-Bold findfont 25.6831 sf 0 0 m (2.5 < E < 3.0 GeV) show NC gr  0.52 0.76 0.64 c black 0.52 0.76 0.64 c
 gsave  408 305 23 677 C 128.2 923.04 t 0 r /Helvetica-Bold findfont 25.6831 sf 0 0 m 
 220 206 192 185 170 163 148 141 126 118 111 97 83 69 61 47 40 25 18
(A = 0.000, p = 2.000) K NC gr  1 0.6 1 c black 1 0.6 1 c
 gsave  408 305 23 677 C 427.334 791.991 t 90 r /Helvetica-Bold findfont 28.5368 sf 0 0 m (/dof=0.1) show NC gr  black 1 0.6 1 c
 gsave  408 305 23 677 C 415.938 780.596 t 90 r /Helvetica-Bold findfont 19.9758 sf 0 0 m (2) show NC gr  black 1 0.6 1 c
 gsave  408 305 23 677 C 427.334 763.503 t 90 r /Symbol findfont 28.5368 sf 0 0 m (c) show NC gr  black 3 lw 1 1 1 c 408 305 476 677 bf black 1 1 1 c black 307 229 537 723 bl 307 229 537 723 bl 537 723 m 307 X s 537 727 m -4 Y s 650 727 m -4 Y s 763
 727 m -4 Y s 763 727 m -4 Y s
 gsave  408 305 476 677 C 527.045 703.676 t 0 r /Helvetica findfont 22.8295 sf 0 0 m (0) show NC gr 
 gsave  408 305 476 677 C 643.849 703.676 t 0 r /Helvetica findfont 22.8295 sf 0 0 m (1) show NC gr 
 gsave  408 305 476 677 C 752.107 703.676 t 0 r /Helvetica findfont 22.8295 sf 0 0 m (2) show NC gr  537 952 m 307 X s 537 948 m 4 Y s 650 948 m 4 Y s 763 948 m 4 Y s 763 948 m 4 Y s 537 723 m 229 Y s 543 730 m -6 X s 540 735 m -3 X s 540 739 m -3 X
 s 540 744 m -3 X s 540 749 m -3 X s 543 753 m -6 X s 540 758 m -3 X s 540 763 m -3 X s 540 767 m -3 X s 540 772 m -3 X s 543 777 m -6 X s 540 781 m -3 X s 540 786 m -3 X s 540 791 m -3 X s 540 795 m -3 X s 543 800 m -6 X s 540 805 m -3 X s 540 809 m
 -3 X s 540 814 m -3 X s 540 819 m -3 X s 543 823 m -6 X s 540 828 m -3 X s 540 833 m -3 X s 540 837 m -3 X s 540 842 m -3 X s 543 847 m -6 X s 540 851 m -3 X s 540 856 m -3 X s 540 860 m -3 X s 540 865 m -3 X s 543 870 m -6 X s 540 874 m -3 X s 540
 879 m -3 X s 540 884 m -3 X s 540 888 m -3 X s 543 893 m -6 X s 540 898 m -3 X s 540 902 m -3 X s 540 907 m -3 X s 540 912 m -3 X s 543 916 m -6 X s 540 921 m -3 X s 540 926 m -3 X s 540 930 m -3 X s 540 935 m -3 X s 543 940 m -6 X s 543 730 m -6 X
 s 540 725 m -3 X s 543 940 m -6 X s 540 944 m -3 X s 540 949 m -3 X s
 gsave  408 305 476 677 C 467.218 723.618 t 0 r /Helvetica findfont 22.8295 sf 0 0 m (\2550.003) show NC gr 
 gsave  408 305 476 677 C 467.218 746.409 t 0 r /Helvetica findfont 22.8295 sf 0 0 m (\2550.002) show NC gr 
 gsave  408 305 476 677 C 470.067 769.2 t 0 r /Helvetica findfont 22.8295 sf 0 0 m (\2550.001) show NC gr 
 gsave  408 305 476 677 C 518.498 791.991 t 0 r /Helvetica findfont 22.8295 sf 0 0 m (0) show NC gr 
 gsave  408 305 476 677 C 478.614 814.783 t 0 r /Helvetica findfont 22.8295 sf 0 0 m (0.001) show NC gr 
 gsave  408 305 476 677 C 475.765 840.423 t 0 r /Helvetica findfont 22.8295 sf 0 0 m (0.002) show NC gr 
 gsave  408 305 476 677 C 475.765 863.214 t 0 r /Helvetica findfont 22.8295 sf 0 0 m (0.003) show NC gr 
 gsave  408 305 476 677 C 475.765 886.005 t 0 r /Helvetica findfont 22.8295 sf 0 0 m (0.004) show NC gr 
 gsave  408 305 476 677 C 475.765 908.796 t 0 r /Helvetica findfont 22.8295 sf 0 0 m (0.005) show NC gr 
 gsave  408 305 476 677 C 475.765 931.587 t 0 r /Helvetica findfont 22.8295 sf 0 0 m (0.006) show NC gr  844 723 m 229 Y s 838 730 m 6 X s 841 735 m 3 X s 841 739 m 3 X s 841 744 m 3 X s 841 749 m 3 X s 838 753 m 6 X s 841 758 m 3 X s 841 763 m 3 X s
 841 767 m 3 X s 841 772 m 3 X s 838 777 m 6 X s 841 781 m 3 X s 841 786 m 3 X s 841 791 m 3 X s 841 795 m 3 X s 838 800 m 6 X s 841 805 m 3 X s 841 809 m 3 X s 841 814 m 3 X s 841 819 m 3 X s 838 823 m 6 X s 841 828 m 3 X s 841 833 m 3 X s 841 837 m
 3 X s 841 842 m 3 X s 838 847 m 6 X s 841 851 m 3 X s 841 856 m 3 X s 841 860 m 3 X s 841 865 m 3 X s 838 870 m 6 X s 841 874 m 3 X s 841 879 m 3 X s 841 884 m 3 X s 841 888 m 3 X s 838 893 m 6 X s 841 898 m 3 X s 841 902 m 3 X s 841 907 m 3 X s 841
 912 m 3 X s 838 916 m 6 X s 841 921 m 3 X s 841 926 m 3 X s 841 930 m 3 X s 841 935 m 3 X s 838 940 m 6 X s 838 730 m 6 X s 841 725 m 3 X s 838 940 m 6 X s 841 944 m 3 X s 841 949 m 3 X s /w 23 def /w2 {w 2 div} def /w3 {w 3 div} def 594 840 650 835
 763 837 819 837 4 { m21} R 594 851 m 82 Y s 588 933 m 11 X s 594 828 m -82 Y s 588 746 m 11 X s 650 846 m 82 Y s 644 928 m 12 X s 650 824 m -82 Y s 644 742 m 12 X s 763 848 m 82 Y s 757 930 m 11 X s 763 826 m -82 Y s 757 744 m 11 X s 819 848 m 82 Y
 s 813 930 m 12 X s 819 825 m -82 Y s 813 743 m 12 X s 9 lw 0.95 0.95 0.95 c black 539 800 m 3 1 d 3 X 3 1 d 3 X 3 1 d 3 X 3 1 d 3 X 4 1 d 3 X 3 1 d 3 X 3 1 d 3 X 3 1 d 3 1 d 3 X 3 1 d 3 X 3 1 d 3 X 3 1 d 3 X 3 1 d 4 X 3 1 d 3 X 3 1 d 3 X 3 1 d 3 X 3
 1 d 3 X 3 1 d 3 X 3 1 d 3 X 3 1 d 3 1 d 3 X 3 1 d 4 X 3 1 d 3 X 3 1 d 3 X 3 1 d 3 X 3 1 d s 689 826 m 3 X 3 1 d 3 X 3 1 d 3 X 3 1 d 3 X 3 1 d 4 X 3 1 d 3 X 3 1 d 3 1 d 3 X 3 1 d 3 X 3 1 d 3 X 3 1 d 3 X 3 1 d 3 X 3 1 d 3 X 4 1 d 3 X 3 1 d 3 X 3 1 d 3
 X 3 1 d 3 X 3 1 d 3 1 d 3 X 3 1 d 3 X 3 1 d 3 X 3 1 d 4 X 3 1 d 3 X 3 1 d 3 X 3 1 d 3 X 3 1 d 3 X s 839 851 m 3 1 d s 0.49 0.6 0.82 c black 0.49 0.6 0.82 c
 gsave  408 305 476 677 C 595.418 960.076 t 0 r /Helvetica-Bold findfont 25.6831 sf 0 0 m (3.0 < E < 3.5 GeV) show NC gr  0.52 0.76 0.64 c black 0.52 0.76 0.64 c
 gsave  408 305 476 677 C 581.174 923.04 t 0 r /Helvetica-Bold findfont 25.6831 sf 0 0 m 
 220 206 192 185 170 163 148 141 125 118 111 97 83 68 61 47 40 25 18
(A = 0.001, p = 1.000) K NC gr  1 0.6 1 c black 1 0.6 1 c
 gsave  408 305 476 677 C 883.156 791.991 t 90 r /Helvetica-Bold findfont 28.5368 sf 0 0 m (/dof=0.0) show NC gr  black 1 0.6 1 c
 gsave  408 305 476 677 C 871.76 780.596 t 90 r /Helvetica-Bold findfont 19.9758 sf 0 0 m (2) show NC gr  black 1 0.6 1 c
 gsave  408 305 476 677 C 883.156 763.503 t 90 r /Symbol findfont 28.5368 sf 0 0 m (c) show NC gr  black 3 lw 1 1 1 c 408 305 930 677 bf black 1 1 1 c black 306 229 991 723 bl 306 229 991 723 bl 991 723 m 306 X s 991 727 m -4 Y s 1104 727 m -4 Y s
 1216 727 m -4 Y s 1216 727 m -4 Y s
 gsave  408 305 930 677 C 980.018 703.676 t 0 r /Helvetica findfont 22.8295 sf 0 0 m (0) show NC gr 
 gsave  408 305 930 677 C 1096.82 703.676 t 0 r /Helvetica findfont 22.8295 sf 0 0 m (1) show NC gr 
 gsave  408 305 930 677 C 1205.08 703.676 t 0 r /Helvetica findfont 22.8295 sf 0 0 m (2) show NC gr  991 952 m 306 X s 991 948 m 4 Y s 1104 948 m 4 Y s 1216 948 m 4 Y s 1216 948 m 4 Y s 991 723 m 229 Y s 997 735 m -6 X s 994 742 m -3 X s 994 750 m -3
 X s 994 757 m -3 X s 997 764 m -6 X s 994 771 m -3 X s 994 778 m -3 X s 994 785 m -3 X s 997 792 m -6 X s 994 799 m -3 X s 994 807 m -3 X s 994 814 m -3 X s 997 821 m -6 X s 994 828 m -3 X s 994 835 m -3 X s 994 842 m -3 X s 997 849 m -6 X s 994 856
 m -3 X s 994 863 m -3 X s 994 871 m -3 X s 997 878 m -6 X s 994 885 m -3 X s 994 892 m -3 X s 994 899 m -3 X s 997 906 m -6 X s 994 913 m -3 X s 994 920 m -3 X s 994 927 m -3 X s 997 935 m -6 X s 997 735 m -6 X s 994 728 m -3 X s 997 935 m -6 X s
 994 942 m -3 X s 994 949 m -3 X s
 gsave  408 305 930 677 C 923.04 729.316 t 0 r /Helvetica findfont 22.8295 sf 0 0 m (\2550.008) show NC gr 
 gsave  408 305 930 677 C 923.04 757.805 t 0 r /Helvetica findfont 22.8295 sf 0 0 m (\2550.006) show NC gr 
 gsave  408 305 930 677 C 923.04 786.294 t 0 r /Helvetica findfont 22.8295 sf 0 0 m (\2550.004) show NC gr 
 gsave  408 305 930 677 C 923.04 814.783 t 0 r /Helvetica findfont 22.8295 sf 0 0 m (\2550.002) show NC gr 
 gsave  408 305 930 677 C 974.32 843.271 t 0 r /Helvetica findfont 22.8295 sf 0 0 m (0) show NC gr 
 gsave  408 305 930 677 C 931.587 871.76 t 0 r /Helvetica findfont 22.8295 sf 0 0 m (0.002) show NC gr 
 gsave  408 305 930 677 C 931.587 900.249 t 0 r /Helvetica findfont 22.8295 sf 0 0 m (0.004) show NC gr 
 gsave  408 305 930 677 C 931.587 928.738 t 0 r /Helvetica findfont 22.8295 sf 0 0 m (0.006) show NC gr  1297 723 m 229 Y s 1292 735 m 5 X s 1294 742 m 3 X s 1294 750 m 3 X s 1294 757 m 3 X s 1292 764 m 5 X s 1294 771 m 3 X s 1294 778 m 3 X s 1294
 785 m 3 X s 1292 792 m 5 X s 1294 799 m 3 X s 1294 807 m 3 X s 1294 814 m 3 X s 1292 821 m 5 X s 1294 828 m 3 X s 1294 835 m 3 X s 1294 842 m 3 X s 1292 849 m 5 X s 1294 856 m 3 X s 1294 863 m 3 X s 1294 871 m 3 X s 1292 878 m 5 X s 1294 885 m 3 X s
 1294 892 m 3 X s 1294 899 m 3 X s 1292 906 m 5 X s 1294 913 m 3 X s 1294 920 m 3 X s 1294 927 m 3 X s 1292 935 m 5 X s 1292 735 m 5 X s 1294 728 m 3 X s 1292 935 m 5 X s 1294 942 m 3 X s 1294 949 m 3 X s 1047 863 1104 812 1216 834 1272 829 4 { m21}
 R 1047 875 m 58 Y s 1042 933 m 11 X s 1047 852 m -58 Y s 1042 794 m 11 X s 1104 823 m 58 Y s 1098 881 m 11 X s 1104 800 m -58 Y s 1098 742 m 11 X s 1216 845 m 58 Y s 1210 903 m 12 X s 1216 822 m -58 Y s 1210 764 m 12 X s 1272 840 m 58 Y s 1267 898 m
 11 X s 1272 817 m -58 Y s 1267 759 m 11 X s 9 lw 0.95 0.95 0.95 c black 993 849 m 6 X 3 -1 d 6 X 3 -1 d 9 X 3 -1 d 9 X 3 -1 d 10 X 3 -1 d 6 X 3 -1 d 9 X 3 -1 d 9 X 3 -1 d 9 X 4 -1 d 6 X 3 -1 d 9 X 3 -1 d 9 X 3 -1 d 6 X 3 -1 d 7 X s 1143 836 m 3 X 3
 -1 d 9 X 3 -1 d 9 X 3 -1 d 6 X 3 -1 d 10 X 3 -1 d 9 X 3 -1 d 9 X 3 -1 d 6 X 3 -1 d 9 X 3 -1 d 10 X 3 -1 d 9 X 3 -1 d 6 X 3 -1 d 9 X 3 -1 d 7 X s 1293 823 m 3 X s 0.49 0.6 0.82 c black 0.49 0.6 0.82 c
 gsave  408 305 930 677 C 1051.24 960.076 t 0 r /Helvetica-Bold findfont 25.6831 sf 0 0 m (3.5 < E < 4.0 GeV) show NC gr  0.52 0.76 0.64 c black 0.52 0.76 0.64 c
 gsave  408 305 930 677 C 1031.3 923.04 t 0 r /Helvetica-Bold findfont 25.6831 sf 0 0 m 
 228 214 200 193 178 171 156 149 133 126 119 105 91 77 69 55 47 39 25 17
(A = \2550.001, p = 1.000) K NC gr  1 0.6 1 c black 1 0.6 1 c
 gsave  408 305 930 677 C 1336.13 791.991 t 90 r /Helvetica-Bold findfont 28.5368 sf 0 0 m (/dof=0.1) show NC gr  black 1 0.6 1 c
 gsave  408 305 930 677 C 1324.73 780.596 t 90 r /Helvetica-Bold findfont 19.9758 sf 0 0 m (2) show NC gr  black 1 0.6 1 c
 gsave  408 305 930 677 C 1336.13 763.503 t 90 r /Symbol findfont 28.5368 sf 0 0 m (c) show NC gr  black 3 lw 1 1 1 c 408 305 1383 677 bf black 1 1 1 c black 306 229 1445 723 bl 306 229 1445 723 bl 1445 723 m 306 X s 1445 727 m -4 Y s 1557 727 m -4 Y
 s 1670 727 m -4 Y s 1670 727 m -4 Y s
 gsave  408 305 1383 677 C 1435.84 703.676 t 0 r /Helvetica findfont 22.8295 sf 0 0 m (0) show NC gr 
 gsave  408 305 1383 677 C 1549.8 703.676 t 0 r /Helvetica findfont 22.8295 sf 0 0 m (1) show NC gr 
 gsave  408 305 1383 677 C 1660.9 703.676 t 0 r /Helvetica findfont 22.8295 sf 0 0 m (2) show NC gr  1445 952 m 306 X s 1445 948 m 4 Y s 1557 948 m 4 Y s 1670 948 m 4 Y s 1670 948 m 4 Y s 1445 723 m 229 Y s 1450 766 m -5 X s 1447 775 m -2 X s 1447
 783 m -2 X s 1447 792 m -2 X s 1447 801 m -2 X s 1450 810 m -5 X s 1447 818 m -2 X s 1447 827 m -2 X s 1447 836 m -2 X s 1447 845 m -2 X s 1450 853 m -5 X s 1447 862 m -2 X s 1447 871 m -2 X s 1447 880 m -2 X s 1447 888 m -2 X s 1450 897 m -5 X s
 1447 906 m -2 X s 1447 915 m -2 X s 1447 923 m -2 X s 1447 932 m -2 X s 1450 941 m -5 X s 1450 766 m -5 X s 1447 757 m -2 X s 1447 748 m -2 X s 1447 740 m -2 X s 1447 731 m -2 X s 1450 941 m -5 X s 1447 950 m -2 X s
 gsave  408 305 1383 677 C 1393.11 757.805 t 0 r /Helvetica findfont 22.8295 sf 0 0 m (\2550.01) show NC gr 
 gsave  408 305 1383 677 C 1376.01 803.387 t 0 r /Helvetica findfont 22.8295 sf 0 0 m (\2550.005) show NC gr 
 gsave  408 305 1383 677 C 1427.29 846.12 t 0 r /Helvetica findfont 22.8295 sf 0 0 m (0) show NC gr 
 gsave  408 305 1383 677 C 1384.56 888.854 t 0 r /Helvetica findfont 22.8295 sf 0 0 m (0.005) show NC gr 
 gsave  408 305 1383 677 C 1398.81 934.436 t 0 r /Helvetica findfont 22.8295 sf 0 0 m (0.01) show NC gr  1751 723 m 229 Y s 1745 766 m 6 X s 1748 775 m 3 X s 1748 783 m 3 X s 1748 792 m 3 X s 1748 801 m 3 X s 1745 810 m 6 X s 1748 818 m 3 X s 1748
 827 m 3 X s 1748 836 m 3 X s 1748 845 m 3 X s 1745 853 m 6 X s 1748 862 m 3 X s 1748 871 m 3 X s 1748 880 m 3 X s 1748 888 m 3 X s 1745 897 m 6 X s 1748 906 m 3 X s 1748 915 m 3 X s 1748 923 m 3 X s 1748 932 m 3 X s 1745 941 m 6 X s 1745 766 m 6 X s
 1748 757 m 3 X s 1748 748 m 3 X s 1748 740 m 3 X s 1748 731 m 3 X s 1745 941 m 6 X s 1748 950 m 3 X s 1501 876 1557 798 1670 831 1726 806 4 { m21} R 1501 887 m 46 Y s 1495 933 m 12 X s 1501 864 m -45 Y s 1495 819 m 12 X s 1557 810 m 44 Y s 1551 854
 m 12 X s 1557 787 m -45 Y s 1551 742 m 12 X s 1670 843 m 45 Y s 1664 888 m 11 X s 1670 820 m -45 Y s 1664 775 m 11 X s 1726 818 m 45 Y s 1720 863 m 12 X s 1726 795 m -45 Y s 1720 750 m 12 X s 9 lw 0.95 0.95 0.95 c black 1446 853 m 3 X 3 -1 d 3 X 3
 -1 d 3 X 3 -1 d 3 X 4 -1 d 3 X 3 -1 d 3 X 3 -1 d 3 X 3 -1 d 3 X 3 -1 d 3 X 3 -1 d 3 X 3 -1 d 3 X 3 -1 d 3 X 4 -1 d 3 X 3 -1 d 3 X 3 -1 d 3 X 3 -1 d 3 X 3 -1 d 6 X 3 -1 d 3 X 3 -1 d 3 X 3 -1 d 4 X 3 -1 d 3 X 3 -1 d 3 X 3 -1 d 3 X 3 -1 d 3 X 3 -1 d s
 1596 829 m 3 X 3 -1 d 3 X 3 -1 d 3 X 3 -1 d 4 X 3 -1 d 3 X 3 -1 d 3 X 3 -1 d 3 X 3 -1 d 3 X 3 -1 d 3 X 3 -1 d 3 X 3 -1 d 6 X 3 -1 d 4 X 3 -1 d 3 X 3 -1 d 3 X 3 -1 d 3 X 3 -1 d 3 X 3 -1 d 3 X 3 -1 d 3 X 3 -1 d 3 X 3 -1 d 4 X 3 -1 d 3 X 3 -1 d 3 X 3
 -1 d 3 X 3 -1 d 3 X 3 -1 d s 1746 805 m 3 X s 0.49 0.6 0.82 c black 0.49 0.6 0.82 c
 gsave  408 305 1383 677 C 1504.21 960.076 t 0 r /Helvetica-Bold findfont 25.6831 sf 0 0 m (4.0 < E < 4.5 GeV) show NC gr  0.52 0.76 0.64 c black 0.52 0.76 0.64 c
 gsave  408 305 1383 677 C 1484.27 923.04 t 0 r /Helvetica-Bold findfont 25.6831 sf 0 0 m 
 228 214 200 193 178 171 156 149 134 126 119 105 91 77 69 55 47 40 25 17
(A = \2550.002, p = 1.000) K NC gr  1 0.6 1 c black 1 0.6 1 c
 gsave  408 305 1383 677 C 1789.1 791.991 t 90 r /Helvetica-Bold findfont 28.5368 sf 0 0 m (/dof=0.3) show NC gr  black 1 0.6 1 c
 gsave  408 305 1383 677 C 1777.71 780.596 t 90 r /Helvetica-Bold findfont 19.9758 sf 0 0 m (2) show NC gr  black 1 0.6 1 c
 gsave  408 305 1383 677 C 1789.1 763.503 t 90 r /Symbol findfont 28.5368 sf 0 0 m (c) show NC gr  black 3 lw 1 1 1 c 408 305 1837 677 bf black 1 1 1 c black 306 229 1898 723 bl 306 229 1898 723 bl 1898 723 m 306 X s 1898 727 m -4 Y s 2011 727 m -4 Y
 s 2123 727 m -4 Y s 2123 727 m -4 Y s
 gsave  408 305 1837 677 C 1888.81 703.676 t 0 r /Helvetica findfont 22.8295 sf 0 0 m (0) show NC gr 
 gsave  408 305 1837 677 C 2002.77 703.676 t 0 r /Helvetica findfont 22.8295 sf 0 0 m (1) show NC gr 
 gsave  408 305 1837 677 C 2113.88 703.676 t 0 r /Helvetica findfont 22.8295 sf 0 0 m (2) show NC gr  1898 952 m 306 X s 1898 948 m 4 Y s 2011 948 m 4 Y s 2123 948 m 4 Y s 2123 948 m 4 Y s 1898 723 m 229 Y s 1904 748 m -6 X s 1901 755 m -3 X s 1901
 762 m -3 X s 1901 769 m -3 X s 1901 776 m -3 X s 1904 783 m -6 X s 1901 790 m -3 X s 1901 796 m -3 X s 1901 803 m -3 X s 1901 810 m -3 X s 1904 817 m -6 X s 1901 824 m -3 X s 1901 831 m -3 X s 1901 838 m -3 X s 1901 845 m -3 X s 1904 852 m -6 X s
 1901 858 m -3 X s 1901 865 m -3 X s 1901 872 m -3 X s 1901 879 m -3 X s 1904 886 m -6 X s 1901 893 m -3 X s 1901 900 m -3 X s 1901 907 m -3 X s 1901 913 m -3 X s 1904 920 m -6 X s 1904 748 m -6 X s 1901 741 m -3 X s 1901 735 m -3 X s 1901 728 m -3 X
 s 1904 920 m -6 X s 1901 927 m -3 X s 1901 934 m -3 X s 1901 941 m -3 X s 1901 948 m -3 X s
 gsave  408 305 1837 677 C 1846.08 740.711 t 0 r /Helvetica findfont 22.8295 sf 0 0 m (\2550.01) show NC gr 
 gsave  408 305 1837 677 C 1828.99 774.898 t 0 r /Helvetica findfont 22.8295 sf 0 0 m (\2550.005) show NC gr 
 gsave  408 305 1837 677 C 1880.27 809.085 t 0 r /Helvetica findfont 22.8295 sf 0 0 m (0) show NC gr 
 gsave  408 305 1837 677 C 1837.53 843.271 t 0 r /Helvetica findfont 22.8295 sf 0 0 m (0.005) show NC gr 
 gsave  408 305 1837 677 C 1851.78 877.458 t 0 r /Helvetica findfont 22.8295 sf 0 0 m (0.01) show NC gr 
 gsave  408 305 1837 677 C 1837.53 914.494 t 0 r /Helvetica findfont 22.8295 sf 0 0 m (0.015) show NC gr  2204 723 m 229 Y s 2199 748 m 5 X s 2201 755 m 3 X s 2201 762 m 3 X s 2201 769 m 3 X s 2201 776 m 3 X s 2199 783 m 5 X s 2201 790 m 3 X s 2201
 796 m 3 X s 2201 803 m 3 X s 2201 810 m 3 X s 2199 817 m 5 X s 2201 824 m 3 X s 2201 831 m 3 X s 2201 838 m 3 X s 2201 845 m 3 X s 2199 852 m 5 X s 2201 858 m 3 X s 2201 865 m 3 X s 2201 872 m 3 X s 2201 879 m 3 X s 2199 886 m 5 X s 2201 893 m 3 X s
 2201 900 m 3 X s 2201 907 m 3 X s 2201 913 m 3 X s 2199 920 m 5 X s 2199 748 m 5 X s 2201 741 m 3 X s 2201 735 m 3 X s 2201 728 m 3 X s 2199 920 m 5 X s 2201 927 m 3 X s 2201 934 m 3 X s 2201 941 m 3 X s 2201 948 m 3 X s 1954 802 2011 806 2123 872
 2179 834 4 { m21} R 1954 814 m 48 Y s 1949 862 m 11 X s 1954 791 m -49 Y s 1949 742 m 11 X s 2011 817 m 49 Y s 2005 866 m 11 X s 2011 794 m -49 Y s 2005 745 m 11 X s 2123 883 m 50 Y s 2117 933 m 12 X s 2123 860 m -49 Y s 2117 811 m 12 X s 2179 846 m
 49 Y s 2174 895 m 11 X s 2179 823 m -49 Y s 2174 774 m 11 X s 1 0 0 c 9 lw 0.95 0.95 0.95 c black 1 0 0 c 1900 817 m 27 X 3 1 d 22 X 3 1 d 15 X 3 1 d 12 X 3 1 d 10 X 3 1 d 6 X 3 1 d 9 X 3 1 d 6 X 3 1 d 3 X 3 1 d 6 X 4 1 d 3 X s 2050 827 m 3 1 d 6 X
 3 1 d 3 X 3 1 d 3 X 3 1 d 3 X 3 1 d 3 X 3 1 d 3 X 3 1 d 4 X 3 1 d 3 X 3 1 d 3 X 3 1 d 3 X 3 1 d 3 1 d 3 X 3 1 d 3 X 3 1 d 3 1 d 3 X 3 1 d 4 1 d 3 X 3 1 d 3 1 d 3 X 3 1 d 3 1 d 3 X 3 1 d 3 1 d 3 1 d 3 X 3 1 d 3 1 d 3 1 d 3 X 4 1 d 3 1 d 3 1 d s 2200
 857 m 3 1 d s 0.49 0.6 0.82 c black 0.49 0.6 0.82 c
 gsave  408 305 1837 677 C 1957.19 960.076 t 0 r /Helvetica-Bold findfont 25.6831 sf 0 0 m (4.5 < E < 5.0 GeV) show NC gr  0.52 0.76 0.64 c black 0.52 0.76 0.64 c
 gsave  408 305 1837 677 C 1942.94 923.04 t 0 r /Helvetica-Bold findfont 25.6831 sf 0 0 m 
 220 206 192 185 170 163 148 141 125 118 111 97 83 69 61 47 40 25 18
(A = 0.001, p = 2.000) K NC gr  1 0.6 1 c black 1 0.6 1 c
 gsave  408 305 1837 677 C 2242.08 791.991 t 90 r /Helvetica-Bold findfont 28.5368 sf 0 0 m (/dof=0.2) show NC gr  black 1 0.6 1 c
 gsave  408 305 1837 677 C 2230.68 780.596 t 90 r /Helvetica-Bold findfont 19.9758 sf 0 0 m (2) show NC gr  black 1 0.6 1 c
 gsave  408 305 1837 677 C 2242.08 763.503 t 90 r /Symbol findfont 28.5368 sf 0 0 m (c) show NC gr  black 3 lw 1 1 1 c 408 306 23 345 bf black 1 1 1 c black 306 229 84 391 bl 306 229 84 391 bl 84 391 m 306 X s 84 395 m -4 Y s 196 395 m -4 Y s 309 395
 m -4 Y s 309 395 m -4 Y s
 gsave  408 306 23 345 C 74.0711 370.356 t 0 r /Helvetica findfont 22.8295 sf 0 0 m (0) show NC gr 
 gsave  408 306 23 345 C 188.027 370.356 t 0 r /Helvetica findfont 22.8295 sf 0 0 m (1) show NC gr 
 gsave  408 306 23 345 C 299.133 370.356 t 0 r /Helvetica findfont 22.8295 sf 0 0 m (2) show NC gr  84 620 m 306 X s 84 616 m 4 Y s 196 616 m 4 Y s 309 616 m 4 Y s 309 616 m 4 Y s 84 391 m 229 Y s 89 393 m -5 X s 87 401 m -3 X s 87 409 m -3 X s 87
 416 m -3 X s 87 424 m -3 X s 89 432 m -5 X s 87 440 m -3 X s 87 448 m -3 X s 87 456 m -3 X s 87 464 m -3 X s 89 472 m -5 X s 87 480 m -3 X s 87 488 m -3 X s 87 495 m -3 X s 87 503 m -3 X s 89 511 m -5 X s 87 519 m -3 X s 87 527 m -3 X s 87 535 m -3
 X s 87 543 m -3 X s 89 551 m -5 X s 87 559 m -3 X s 87 566 m -3 X s 87 574 m -3 X s 87 582 m -3 X s 89 590 m -5 X s 89 393 m -5 X s 89 590 m -5 X s 87 598 m -3 X s 87 606 m -3 X s 87 614 m -3 X s
 gsave  408 306 23 345 C 28.4889 384.6 t 0 r /Helvetica findfont 22.8295 sf 0 0 m (\2550.03) show NC gr 
 gsave  408 306 23 345 C 28.4889 424.485 t 0 r /Helvetica findfont 22.8295 sf 0 0 m (\2550.02) show NC gr 
 gsave  408 306 23 345 C 31.3378 464.369 t 0 r /Helvetica findfont 22.8295 sf 0 0 m (\2550.01) show NC gr 
 gsave  408 306 23 345 C 65.5245 504.254 t 0 r /Helvetica findfont 22.8295 sf 0 0 m (0) show NC gr 
 gsave  408 306 23 345 C 37.0356 544.138 t 0 r /Helvetica findfont 22.8295 sf 0 0 m (0.01) show NC gr 
 gsave  408 306 23 345 C 34.1867 584.022 t 0 r /Helvetica findfont 22.8295 sf 0 0 m (0.02) show NC gr  390 391 m 229 Y s 385 393 m 5 X s 387 401 m 3 X s 387 409 m 3 X s 387 416 m 3 X s 387 424 m 3 X s 385 432 m 5 X s 387 440 m 3 X s 387 448 m 3 X s
 387 456 m 3 X s 387 464 m 3 X s 385 472 m 5 X s 387 480 m 3 X s 387 488 m 3 X s 387 495 m 3 X s 387 503 m 3 X s 385 511 m 5 X s 387 519 m 3 X s 387 527 m 3 X s 387 535 m 3 X s 387 543 m 3 X s 385 551 m 5 X s 387 559 m 3 X s 387 566 m 3 X s 387 574 m
 3 X s 387 582 m 3 X s 385 590 m 5 X s 385 393 m 5 X s 385 590 m 5 X s 387 598 m 3 X s 387 606 m 3 X s 387 614 m 3 X s /w 22 def /w2 {w 2 div} def /w3 {w 3 div} def 140 555 196 516 309 455 365 477 4 { m21} R 140 567 m 34 Y s 134 601 m 12 X s 140 544
 m -35 Y s 134 509 m 12 X s 196 527 m 34 Y s 191 561 m 11 X s 196 504 m -34 Y s 191 470 m 11 X s 309 466 m 34 Y s 303 500 m 12 X s 309 443 m -33 Y s 303 410 m 12 X s 365 489 m 33 Y s 360 522 m 11 X s 365 466 m -34 Y s 360 432 m 11 X s 1 0 0 c 9 lw
 0.95 0.95 0.95 c black 1 0 0 c 85 511 m 31 X 3 -1 d 15 X 3 -1 d 13 X 3 -1 d 9 X 3 -1 d 6 X 3 -1 d 6 X 3 -1 d 7 X 3 -1 d 3 X 3 -1 d 3 X 3 -1 d 6 X 3 -1 d 3 X 3 -1 d 3 X 3 -1 d 3 X 3 -1 d 3 -1 d s 235 497 m 4 X 3 -1 d 3 X 3 -1 d 3 X 3 -1 d 3 -1 d 3 X
 3 -1 d 3 -1 d 3 X 3 -1 d 3 -1 d 3 X 3 -1 d 3 -1 d 3 -1 d 4 X 3 -1 d 3 -1 d 3 -1 d 3 X 3 -1 d 3 -1 d 3 -1 d 3 -1 d 3 -1 d 3 X 3 -1 d 3 -1 d 3 -1 d 3 -1 d 3 -1 d 4 -1 d 3 -1 d 3 -1 d 3 -1 d 3 -1 d 3 -1 d 3 -1 d 3 -1 d 3 -1 d 3 -1 d 3 -1 d 3 -1 d 3 -1
 d 3 -1 d 3 -1 d 3 -1 d s 385 457 m 4 -1 d s 0.49 0.6 0.82 c black 0.49 0.6 0.82 c
 gsave  408 306 23 345 C 142.445 629.605 t 0 r /Helvetica-Bold findfont 25.6831 sf 0 0 m (5.0 < E < 5.5 GeV) show NC gr  0.52 0.76 0.64 c black 0.52 0.76 0.64 c
 gsave  408 306 23 345 C 122.502 592.569 t 0 r /Helvetica-Bold findfont 25.6831 sf 0 0 m 
 228 214 200 193 178 171 156 149 134 126 119 105 91 77 69 55 47 39 25 17
(A = \2550.002, p = 2.000) K NC gr  1 0.6 1 c black 1 0.6 1 c
 gsave  408 306 23 345 C 427.334 458.671 t 90 r /Helvetica-Bold findfont 28.5368 sf 0 0 m (/dof=0.5) show NC gr  black 1 0.6 1 c
 gsave  408 306 23 345 C 415.938 447.276 t 90 r /Helvetica-Bold findfont 19.9758 sf 0 0 m (2) show NC gr  black 1 0.6 1 c
 gsave  408 306 23 345 C 427.334 430.182 t 90 r /Symbol findfont 28.5368 sf 0 0 m (c) show NC gr  black 3 lw 1 1 1 c 408 306 476 345 bf black 1 1 1 c black 307 229 537 391 bl 307 229 537 391 bl 537 391 m 307 X s 537 395 m -4 Y s 650 395 m -4 Y s 763
 395 m -4 Y s 763 395 m -4 Y s
 gsave  408 306 476 345 C 527.045 370.356 t 0 r /Helvetica findfont 22.8295 sf 0 0 m (0) show NC gr 
 gsave  408 306 476 345 C 643.849 370.356 t 0 r /Helvetica findfont 22.8295 sf 0 0 m (1) show NC gr 
 gsave  408 306 476 345 C 752.107 370.356 t 0 r /Helvetica findfont 22.8295 sf 0 0 m (2) show NC gr  537 620 m 307 X s 537 616 m 4 Y s 650 616 m 4 Y s 763 616 m 4 Y s 763 616 m 4 Y s 537 391 m 229 Y s 543 414 m -6 X s 540 418 m -3 X s 540 423 m -3 X
 s 540 428 m -3 X s 540 432 m -3 X s 543 437 m -6 X s 540 442 m -3 X s 540 447 m -3 X s 540 451 m -3 X s 540 456 m -3 X s 543 461 m -6 X s 540 466 m -3 X s 540 470 m -3 X s 540 475 m -3 X s 540 480 m -3 X s 543 485 m -6 X s 540 489 m -3 X s 540 494 m
 -3 X s 540 499 m -3 X s 540 504 m -3 X s 543 508 m -6 X s 540 513 m -3 X s 540 518 m -3 X s 540 523 m -3 X s 540 527 m -3 X s 543 532 m -6 X s 540 537 m -3 X s 540 541 m -3 X s 540 546 m -3 X s 540 551 m -3 X s 543 556 m -6 X s 540 560 m -3 X s 540
 565 m -3 X s 540 570 m -3 X s 540 575 m -3 X s 543 579 m -6 X s 540 584 m -3 X s 540 589 m -3 X s 540 594 m -3 X s 540 598 m -3 X s 543 603 m -6 X s 543 414 m -6 X s 540 409 m -3 X s 540 404 m -3 X s 540 399 m -3 X s 540 395 m -3 X s 543 603 m -6 X
 s 540 608 m -3 X s 540 613 m -3 X s 540 617 m -3 X s
 gsave  408 306 476 345 C 481.462 407.391 t 0 r /Helvetica findfont 22.8295 sf 0 0 m (\2550.02) show NC gr 
 gsave  408 306 476 345 C 467.218 430.182 t 0 r /Helvetica findfont 22.8295 sf 0 0 m (\2550.015) show NC gr 
 gsave  408 306 476 345 C 484.311 452.974 t 0 r /Helvetica findfont 22.8295 sf 0 0 m (\2550.01) show NC gr 
 gsave  408 306 476 345 C 467.218 478.614 t 0 r /Helvetica findfont 22.8295 sf 0 0 m (\2550.005) show NC gr 
 gsave  408 306 476 345 C 518.498 501.405 t 0 r /Helvetica findfont 22.8295 sf 0 0 m (0) show NC gr 
 gsave  408 306 476 345 C 475.765 524.196 t 0 r /Helvetica findfont 22.8295 sf 0 0 m (0.005) show NC gr 
 gsave  408 306 476 345 C 490.009 549.836 t 0 r /Helvetica findfont 22.8295 sf 0 0 m (0.01) show NC gr 
 gsave  408 306 476 345 C 475.765 572.627 t 0 r /Helvetica findfont 22.8295 sf 0 0 m (0.015) show NC gr 
 gsave  408 306 476 345 C 487.16 595.418 t 0 r /Helvetica findfont 22.8295 sf 0 0 m (0.02) show NC gr  844 391 m 229 Y s 838 414 m 6 X s 841 418 m 3 X s 841 423 m 3 X s 841 428 m 3 X s 841 432 m 3 X s 838 437 m 6 X s 841 442 m 3 X s 841 447 m 3 X s
 841 451 m 3 X s 841 456 m 3 X s 838 461 m 6 X s 841 466 m 3 X s 841 470 m 3 X s 841 475 m 3 X s 841 480 m 3 X s 838 485 m 6 X s 841 489 m 3 X s 841 494 m 3 X s 841 499 m 3 X s 841 504 m 3 X s 838 508 m 6 X s 841 513 m 3 X s 841 518 m 3 X s 841 523 m
 3 X s 841 527 m 3 X s 838 532 m 6 X s 841 537 m 3 X s 841 541 m 3 X s 841 546 m 3 X s 841 551 m 3 X s 838 556 m 6 X s 841 560 m 3 X s 841 565 m 3 X s 841 570 m 3 X s 841 575 m 3 X s 838 579 m 6 X s 841 584 m 3 X s 841 589 m 3 X s 841 594 m 3 X s 841
 598 m 3 X s 838 603 m 6 X s 838 414 m 6 X s 841 409 m 3 X s 841 404 m 3 X s 841 399 m 3 X s 841 395 m 3 X s 838 603 m 6 X s 841 608 m 3 X s 841 613 m 3 X s 841 617 m 3 X s /w 23 def /w2 {w 2 div} def /w3 {w 3 div} def 594 518 650 512 763 532 819 478
 4 { m21} R 594 529 m 57 Y s 588 586 m 11 X s 594 506 m -56 Y s 588 450 m 11 X s 650 524 m 57 Y s 644 581 m 12 X s 650 501 m -57 Y s 644 444 m 12 X s 763 544 m 57 Y s 757 601 m 11 X s 763 521 m -57 Y s 757 464 m 11 X s 819 490 m 56 Y s 813 546 m 12 X
 s 819 467 m -57 Y s 813 410 m 12 X s 1 0 0 c 9 lw 0.95 0.95 0.95 c black 1 0 0 c 539 508 m 77 X 3 -1 d 39 X 3 -1 d 25 X 3 -1 d s 689 505 m 21 X 3 -1 d 19 X 3 -1 d 18 X 3 -1 d 16 X 3 -1 d 12 X 3 -1 d 12 X 3 -1 d 13 X 3 -1 d 12 X 3 -1 d 3 X s 839 497
 m 3 X s 0.49 0.6 0.82 c black 0.49 0.6 0.82 c
 gsave  408 306 476 345 C 595.418 629.605 t 0 r /Helvetica-Bold findfont 25.6831 sf 0 0 m (5.5 < E < 6.0 GeV) show NC gr  0.52 0.76 0.64 c black 0.52 0.76 0.64 c
 gsave  408 306 476 345 C 575.476 592.569 t 0 r /Helvetica-Bold findfont 25.6831 sf 0 0 m 
 228 214 200 193 178 171 156 149 133 126 119 105 91 76 69 55 47 39 25 17
(A = \2550.000, p = 2.000) K NC gr  1 0.6 1 c black 1 0.6 1 c
 gsave  408 306 476 345 C 883.156 458.671 t 90 r /Helvetica-Bold findfont 28.5368 sf 0 0 m (/dof=0.1) show NC gr  black 1 0.6 1 c
 gsave  408 306 476 345 C 871.76 447.276 t 90 r /Helvetica-Bold findfont 19.9758 sf 0 0 m (2) show NC gr  black 1 0.6 1 c
 gsave  408 306 476 345 C 883.156 430.182 t 90 r /Symbol findfont 28.5368 sf 0 0 m (c) show NC gr  black 3 lw 1 1 1 c 408 306 930 345 bf black 1 1 1 c black 306 229 991 391 bl 306 229 991 391 bl 991 391 m 306 X s 991 395 m -4 Y s 1104 395 m -4 Y s
 1216 395 m -4 Y s 1216 395 m -4 Y s
 gsave  408 306 930 345 C 980.018 370.356 t 0 r /Helvetica findfont 22.8295 sf 0 0 m (0) show NC gr 
 gsave  408 306 930 345 C 1096.82 370.356 t 0 r /Helvetica findfont 22.8295 sf 0 0 m (1) show NC gr 
 gsave  408 306 930 345 C 1205.08 370.356 t 0 r /Helvetica findfont 22.8295 sf 0 0 m (2) show NC gr  991 620 m 306 X s 991 616 m 4 Y s 1104 616 m 4 Y s 1216 616 m 4 Y s 1216 616 m 4 Y s 991 391 m 229 Y s 997 409 m -6 X s 994 416 m -3 X s 994 422 m -3
 X s 994 428 m -3 X s 994 434 m -3 X s 997 440 m -6 X s 994 446 m -3 X s 994 453 m -3 X s 994 459 m -3 X s 994 465 m -3 X s 997 471 m -6 X s 994 477 m -3 X s 994 483 m -3 X s 994 490 m -3 X s 994 496 m -3 X s 997 502 m -6 X s 994 508 m -3 X s 994 514
 m -3 X s 994 520 m -3 X s 994 526 m -3 X s 997 533 m -6 X s 994 539 m -3 X s 994 545 m -3 X s 994 551 m -3 X s 994 557 m -3 X s 997 563 m -6 X s 994 570 m -3 X s 994 576 m -3 X s 994 582 m -3 X s 994 588 m -3 X s 997 594 m -6 X s 997 409 m -6 X s
 994 403 m -3 X s 994 397 m -3 X s 997 594 m -6 X s 994 600 m -3 X s 994 607 m -3 X s 994 613 m -3 X s 994 619 m -3 X s
 gsave  408 306 930 345 C 937.285 401.694 t 0 r /Helvetica findfont 22.8295 sf 0 0 m (\2550.03) show NC gr 
 gsave  408 306 930 345 C 937.285 433.031 t 0 r /Helvetica findfont 22.8295 sf 0 0 m (\2550.02) show NC gr 
 gsave  408 306 930 345 C 940.134 464.369 t 0 r /Helvetica findfont 22.8295 sf 0 0 m (\2550.01) show NC gr 
 gsave  408 306 930 345 C 974.32 495.707 t 0 r /Helvetica findfont 22.8295 sf 0 0 m (0) show NC gr 
 gsave  408 306 930 345 C 945.832 524.196 t 0 r /Helvetica findfont 22.8295 sf 0 0 m (0.01) show NC gr 
 gsave  408 306 930 345 C 942.983 555.534 t 0 r /Helvetica findfont 22.8295 sf 0 0 m (0.02) show NC gr 
 gsave  408 306 930 345 C 942.983 586.871 t 0 r /Helvetica findfont 22.8295 sf 0 0 m (0.03) show NC gr  1297 391 m 229 Y s 1292 409 m 5 X s 1294 416 m 3 X s 1294 422 m 3 X s 1294 428 m 3 X s 1294 434 m 3 X s 1292 440 m 5 X s 1294 446 m 3 X s 1294 453
 m 3 X s 1294 459 m 3 X s 1294 465 m 3 X s 1292 471 m 5 X s 1294 477 m 3 X s 1294 483 m 3 X s 1294 490 m 3 X s 1294 496 m 3 X s 1292 502 m 5 X s 1294 508 m 3 X s 1294 514 m 3 X s 1294 520 m 3 X s 1294 526 m 3 X s 1292 533 m 5 X s 1294 539 m 3 X s
 1294 545 m 3 X s 1294 551 m 3 X s 1294 557 m 3 X s 1292 563 m 5 X s 1294 570 m 3 X s 1294 576 m 3 X s 1294 582 m 3 X s 1294 588 m 3 X s 1292 594 m 5 X s 1292 409 m 5 X s 1294 403 m 3 X s 1294 397 m 3 X s 1292 594 m 5 X s 1294 600 m 3 X s 1294 607 m
 3 X s 1294 613 m 3 X s 1294 619 m 3 X s 1047 535 1104 547 1216 471 1272 462 4 { m21} R 1047 546 m 43 Y s 1042 589 m 11 X s 1047 524 m -42 Y s 1042 482 m 11 X s 1104 559 m 42 Y s 1098 601 m 11 X s 1104 536 m -42 Y s 1098 494 m 11 X s 1216 482 m 41 Y
 s 1210 523 m 12 X s 1216 459 m -41 Y s 1210 418 m 12 X s 1272 474 m 41 Y s 1267 515 m 11 X s 1272 451 m -41 Y s 1267 410 m 11 X s 1 0 0 c 9 lw 0.95 0.95 0.95 c black 1 0 0 c 993 502 m 24 X 3 -1 d 25 X 3 -1 d 15 X 3 -1 d 9 X 3 -1 d 9 X 3 -1 d 10 X 3
 -1 d 6 X 3 -1 d 6 X 3 -1 d 6 X 3 -1 d 3 X 3 -1 d 7 X s 1143 492 m 3 -1 d 3 X 3 -1 d 3 X 3 -1 d 3 X 3 -1 d 3 X 3 -1 d 3 X 3 -1 d 3 X 3 -1 d 3 X 3 -1 d 4 X 3 -1 d 3 X 3 -1 d 3 X 3 -1 d 3 -1 d 3 X 3 -1 d 3 X 3 -1 d 3 -1 d 3 X 3 -1 d 3 -1 d 3 X 3 -1 d 4
 -1 d 3 X 3 -1 d 3 -1 d 3 -1 d 3 X 3 -1 d 3 -1 d 3 -1 d 3 X 3 -1 d 3 -1 d 3 -1 d 3 X 3 -1 d 3 -1 d 4 -1 d s 1293 461 m 3 -1 d s 0.49 0.6 0.82 c black 0.49 0.6 0.82 c
 gsave  408 306 930 345 C 1051.24 629.605 t 0 r /Helvetica-Bold findfont 25.6831 sf 0 0 m (6.0 < E < 6.5 GeV) show NC gr  0.52 0.76 0.64 c black 0.52 0.76 0.64 c
 gsave  408 306 930 345 C 1031.3 592.569 t 0 r /Helvetica-Bold findfont 25.6831 sf 0 0 m 
 228 214 200 193 178 171 156 149 133 126 119 105 91 77 69 55 47 39 25 17
(A = \2550.002, p = 2.000) K NC gr  1 0.6 1 c black 1 0.6 1 c
 gsave  408 306 930 345 C 1336.13 458.671 t 90 r /Helvetica-Bold findfont 28.5368 sf 0 0 m (/dof=0.5) show NC gr  black 1 0.6 1 c
 gsave  408 306 930 345 C 1324.73 447.276 t 90 r /Helvetica-Bold findfont 19.9758 sf 0 0 m (2) show NC gr  black 1 0.6 1 c
 gsave  408 306 930 345 C 1336.13 430.182 t 90 r /Symbol findfont 28.5368 sf 0 0 m (c) show NC gr  black 3 lw 1 1 1 c 408 306 1383 345 bf black 1 1 1 c black 306 229 1445 391 bl 306 229 1445 391 bl 1445 391 m 306 X s 1445 395 m -4 Y s 1557 395 m -4 Y
 s 1670 395 m -4 Y s 1670 395 m -4 Y s
 gsave  408 306 1383 345 C 1435.84 370.356 t 0 r /Helvetica findfont 22.8295 sf 0 0 m (0) show NC gr 
 gsave  408 306 1383 345 C 1549.8 370.356 t 0 r /Helvetica findfont 22.8295 sf 0 0 m (1) show NC gr 
 gsave  408 306 1383 345 C 1660.9 370.356 t 0 r /Helvetica findfont 22.8295 sf 0 0 m (2) show NC gr  1445 620 m 306 X s 1445 616 m 4 Y s 1557 616 m 4 Y s 1670 616 m 4 Y s 1670 616 m 4 Y s 1445 391 m 229 Y s 1450 407 m -5 X s 1447 413 m -2 X s 1447
 419 m -2 X s 1447 424 m -2 X s 1447 430 m -2 X s 1450 436 m -5 X s 1447 442 m -2 X s 1447 448 m -2 X s 1447 454 m -2 X s 1447 459 m -2 X s 1450 465 m -5 X s 1447 471 m -2 X s 1447 477 m -2 X s 1447 483 m -2 X s 1447 489 m -2 X s 1450 494 m -5 X s
 1447 500 m -2 X s 1447 506 m -2 X s 1447 512 m -2 X s 1447 518 m -2 X s 1450 524 m -5 X s 1447 529 m -2 X s 1447 535 m -2 X s 1447 541 m -2 X s 1447 547 m -2 X s 1450 553 m -5 X s 1447 558 m -2 X s 1447 564 m -2 X s 1447 570 m -2 X s 1447 576 m -2 X
 s 1450 582 m -5 X s 1447 588 m -2 X s 1447 593 m -2 X s 1447 599 m -2 X s 1447 605 m -2 X s 1450 611 m -5 X s 1450 407 m -5 X s 1447 401 m -2 X s 1447 395 m -2 X s 1450 611 m -5 X s 1447 617 m -2 X s
 gsave  408 306 1383 345 C 1390.26 398.845 t 0 r /Helvetica findfont 22.8295 sf 0 0 m (\2550.02) show NC gr 
 gsave  408 306 1383 345 C 1393.11 430.182 t 0 r /Helvetica findfont 22.8295 sf 0 0 m (\2550.01) show NC gr 
 gsave  408 306 1383 345 C 1427.29 458.671 t 0 r /Helvetica findfont 22.8295 sf 0 0 m (0) show NC gr 
 gsave  408 306 1383 345 C 1398.81 487.16 t 0 r /Helvetica findfont 22.8295 sf 0 0 m (0.01) show NC gr 
 gsave  408 306 1383 345 C 1395.96 515.649 t 0 r /Helvetica findfont 22.8295 sf 0 0 m (0.02) show NC gr 
 gsave  408 306 1383 345 C 1395.96 544.138 t 0 r /Helvetica findfont 22.8295 sf 0 0 m (0.03) show NC gr 
 gsave  408 306 1383 345 C 1395.96 575.476 t 0 r /Helvetica findfont 22.8295 sf 0 0 m (0.04) show NC gr 
 gsave  408 306 1383 345 C 1395.96 603.965 t 0 r /Helvetica findfont 22.8295 sf 0 0 m (0.05) show NC gr  1751 391 m 229 Y s 1745 407 m 6 X s 1748 413 m 3 X s 1748 419 m 3 X s 1748 424 m 3 X s 1748 430 m 3 X s 1745 436 m 6 X s 1748 442 m 3 X s 1748
 448 m 3 X s 1748 454 m 3 X s 1748 459 m 3 X s 1745 465 m 6 X s 1748 471 m 3 X s 1748 477 m 3 X s 1748 483 m 3 X s 1748 489 m 3 X s 1745 494 m 6 X s 1748 500 m 3 X s 1748 506 m 3 X s 1748 512 m 3 X s 1748 518 m 3 X s 1745 524 m 6 X s 1748 529 m 3 X s
 1748 535 m 3 X s 1748 541 m 3 X s 1748 547 m 3 X s 1745 553 m 6 X s 1748 558 m 3 X s 1748 564 m 3 X s 1748 570 m 3 X s 1748 576 m 3 X s 1745 582 m 6 X s 1748 588 m 3 X s 1748 593 m 3 X s 1748 599 m 3 X s 1748 605 m 3 X s 1745 611 m 6 X s 1745 407 m
 6 X s 1748 401 m 3 X s 1748 395 m 3 X s 1745 611 m 6 X s 1748 617 m 3 X s 1501 487 1557 489 1670 542 1726 468 4 { m21} R 1501 499 m 46 Y s 1495 545 m 12 X s 1501 476 m -46 Y s 1495 430 m 12 X s 1557 500 m 46 Y s 1551 546 m 12 X s 1557 477 m -46 Y s
 1551 431 m 12 X s 1670 553 m 48 Y s 1664 601 m 11 X s 1670 531 m -48 Y s 1664 483 m 11 X s 1726 479 m 46 Y s 1720 525 m 12 X s 1726 456 m -46 Y s 1720 410 m 12 X s 9 lw 0.95 0.95 0.95 c black 1446 465 m 3 1 d 3 X 3 1 d 3 X 3 1 d 3 X 3 1 d 4 X 3 1 d
 6 X 3 1 d 3 X 3 1 d 3 X 3 1 d 3 X 3 1 d 3 X 3 1 d 6 X 3 1 d 4 X 3 1 d 3 X 3 1 d 3 X 3 1 d 6 X 3 1 d 3 X 3 1 d 3 X 3 1 d 3 X 3 1 d 3 X 4 1 d 6 X 3 1 d 3 X 3 1 d 3 X 3 1 d 3 X 3 1 d s 1596 488 m 6 X 3 1 d 3 X 3 1 d 3 X 4 1 d 3 X 3 1 d 3 X 3 1 d 6 X 3
 1 d 3 X 3 1 d 3 X 3 1 d 3 X 3 1 d 6 X 3 1 d 4 X 3 1 d 3 X 3 1 d 3 X 3 1 d 3 X 3 1 d 6 X 3 1 d 3 X 3 1 d 3 X 3 1 d 3 X 4 1 d 3 X 3 1 d 6 X 3 1 d 3 X 3 1 d 3 X 3 1 d s 1746 510 m 3 X s 0.49 0.6 0.82 c black 0.49 0.6 0.82 c
 gsave  408 306 1383 345 C 1504.21 629.605 t 0 r /Helvetica-Bold findfont 25.6831 sf 0 0 m (6.5 < E < 7.0 GeV) show NC gr  0.52 0.76 0.64 c black 0.52 0.76 0.64 c
 gsave  408 306 1383 345 C 1489.97 592.569 t 0 r /Helvetica-Bold findfont 25.6831 sf 0 0 m 
 220 206 192 185 170 163 148 141 126 118 111 97 83 69 61 47 40 25 18
(A = 0.006, p = 1.000) K NC gr  1 0.6 1 c black 1 0.6 1 c
 gsave  408 306 1383 345 C 1789.1 458.671 t 90 r /Helvetica-Bold findfont 28.5368 sf 0 0 m (/dof=0.4) show NC gr  black 1 0.6 1 c
 gsave  408 306 1383 345 C 1777.71 447.276 t 90 r /Helvetica-Bold findfont 19.9758 sf 0 0 m (2) show NC gr  black 1 0.6 1 c
 gsave  408 306 1383 345 C 1789.1 430.182 t 90 r /Symbol findfont 28.5368 sf 0 0 m (c) show NC gr  black 3 lw 1 1 1 c 408 306 1837 345 bf black 1 1 1 c black 306 229 1898 391 bl 306 229 1898 391 bl 1898 391 m 306 X s 1898 395 m -4 Y s 2011 395 m -4 Y
 s 2123 395 m -4 Y s 2123 395 m -4 Y s
 gsave  408 306 1837 345 C 1888.81 370.356 t 0 r /Helvetica findfont 22.8295 sf 0 0 m (0) show NC gr 
 gsave  408 306 1837 345 C 2002.77 370.356 t 0 r /Helvetica findfont 22.8295 sf 0 0 m (1) show NC gr 
 gsave  408 306 1837 345 C 2113.88 370.356 t 0 r /Helvetica findfont 22.8295 sf 0 0 m (2) show NC gr  1898 620 m 306 X s 1898 616 m 4 Y s 2011 616 m 4 Y s 2123 616 m 4 Y s 2123 616 m 4 Y s 1898 391 m 229 Y s 1904 392 m -6 X s 1901 396 m -3 X s 1901
 401 m -3 X s 1901 406 m -3 X s 1901 410 m -3 X s 1904 415 m -6 X s 1901 419 m -3 X s 1901 424 m -3 X s 1901 429 m -3 X s 1901 433 m -3 X s 1904 438 m -6 X s 1901 442 m -3 X s 1901 447 m -3 X s 1901 452 m -3 X s 1901 456 m -3 X s 1904 461 m -6 X s
 1901 465 m -3 X s 1901 470 m -3 X s 1901 475 m -3 X s 1901 479 m -3 X s 1904 484 m -6 X s 1901 488 m -3 X s 1901 493 m -3 X s 1901 498 m -3 X s 1901 502 m -3 X s 1904 507 m -6 X s 1901 512 m -3 X s 1901 516 m -3 X s 1901 521 m -3 X s 1901 525 m -3 X
 s 1904 530 m -6 X s 1901 535 m -3 X s 1901 539 m -3 X s 1901 544 m -3 X s 1901 548 m -3 X s 1904 553 m -6 X s 1901 558 m -3 X s 1901 562 m -3 X s 1901 567 m -3 X s 1901 571 m -3 X s 1904 576 m -6 X s 1901 581 m -3 X s 1901 585 m -3 X s 1901 590 m -3
 X s 1901 594 m -3 X s 1904 599 m -6 X s 1904 392 m -6 X s 1904 599 m -6 X s 1901 604 m -3 X s 1901 608 m -3 X s 1901 613 m -3 X s 1901 618 m -3 X s
 gsave  408 306 1837 345 C 1843.23 384.6 t 0 r /Helvetica findfont 22.8295 sf 0 0 m (\2550.05) show NC gr 
 gsave  408 306 1837 345 C 1843.23 407.391 t 0 r /Helvetica findfont 22.8295 sf 0 0 m (\2550.04) show NC gr 
 gsave  408 306 1837 345 C 1843.23 430.182 t 0 r /Helvetica findfont 22.8295 sf 0 0 m (\2550.03) show NC gr 
 gsave  408 306 1837 345 C 1843.23 452.974 t 0 r /Helvetica findfont 22.8295 sf 0 0 m (\2550.02) show NC gr 
 gsave  408 306 1837 345 C 1846.08 475.765 t 0 r /Helvetica findfont 22.8295 sf 0 0 m (\2550.01) show NC gr 
 gsave  408 306 1837 345 C 1880.27 498.556 t 0 r /Helvetica findfont 22.8295 sf 0 0 m (0) show NC gr 
 gsave  408 306 1837 345 C 1851.78 524.196 t 0 r /Helvetica findfont 22.8295 sf 0 0 m (0.01) show NC gr 
 gsave  408 306 1837 345 C 1848.93 546.987 t 0 r /Helvetica findfont 22.8295 sf 0 0 m (0.02) show NC gr 
 gsave  408 306 1837 345 C 1848.93 569.778 t 0 r /Helvetica findfont 22.8295 sf 0 0 m (0.03) show NC gr 
 gsave  408 306 1837 345 C 1848.93 592.569 t 0 r /Helvetica findfont 22.8295 sf 0 0 m (0.04) show NC gr  2204 391 m 229 Y s 2199 392 m 5 X s 2201 396 m 3 X s 2201 401 m 3 X s 2201 406 m 3 X s 2201 410 m 3 X s 2199 415 m 5 X s 2201 419 m 3 X s 2201
 424 m 3 X s 2201 429 m 3 X s 2201 433 m 3 X s 2199 438 m 5 X s 2201 442 m 3 X s 2201 447 m 3 X s 2201 452 m 3 X s 2201 456 m 3 X s 2199 461 m 5 X s 2201 465 m 3 X s 2201 470 m 3 X s 2201 475 m 3 X s 2201 479 m 3 X s 2199 484 m 5 X s 2201 488 m 3 X s
 2201 493 m 3 X s 2201 498 m 3 X s 2201 502 m 3 X s 2199 507 m 5 X s 2201 512 m 3 X s 2201 516 m 3 X s 2201 521 m 3 X s 2201 525 m 3 X s 2199 530 m 5 X s 2201 535 m 3 X s 2201 539 m 3 X s 2201 544 m 3 X s 2201 548 m 3 X s 2199 553 m 5 X s 2201 558 m
 3 X s 2201 562 m 3 X s 2201 567 m 3 X s 2201 571 m 3 X s 2199 576 m 5 X s 2201 581 m 3 X s 2201 585 m 3 X s 2201 590 m 3 X s 2201 594 m 3 X s 2199 599 m 5 X s 2199 392 m 5 X s 2199 599 m 5 X s 2201 604 m 3 X s 2201 608 m 3 X s 2201 613 m 3 X s 2201
 618 m 3 X s 1954 489 2011 459 2123 536 2179 550 4 { m21} R 1954 501 m 37 Y s 1949 538 m 11 X s 1954 478 m -38 Y s 1949 440 m 11 X s 2011 470 m 38 Y s 2005 508 m 11 X s 2011 448 m -38 Y s 2005 410 m 11 X s 2123 547 m 39 Y s 2117 586 m 12 X s 2123 524
 m -39 Y s 2117 485 m 12 X s 2179 561 m 40 Y s 2174 601 m 11 X s 2179 538 m -40 Y s 2174 498 m 11 X s 1 0 0 c 9 lw 0.95 0.95 0.95 c black 1 0 0 c 1900 507 m 33 X 3 1 d 19 X 3 1 d 15 X 3 1 d 9 X 3 1 d 10 X 3 1 d 6 X 3 1 d 6 X 3 1 d 6 X 3 1 d 6 X 3 1 d
 3 X 3 1 d 7 X s 2050 517 m 3 1 d 3 X 3 1 d 3 X 3 1 d 3 X 3 1 d 3 X 3 1 d 3 X 3 1 d 3 X 3 1 d 3 X 4 1 d 3 X 3 1 d 3 X 3 1 d 3 1 d 3 X 3 1 d 3 X 3 1 d 3 1 d 3 X 3 1 d 3 1 d 3 X 3 1 d 4 1 d 3 X 3 1 d 3 1 d 3 X 3 1 d 3 1 d 3 1 d 3 X 3 1 d 3 1 d 3 1 d 3
 X 3 1 d 3 1 d 3 1 d 4 1 d 3 1 d 3 X s 2200 548 m 3 1 d s 0.49 0.6 0.82 c black 0.49 0.6 0.82 c
 gsave  408 306 1837 345 C 1957.19 629.605 t 0 r /Helvetica-Bold findfont 25.6831 sf 0 0 m (7.0 < E < 7.5 GeV) show NC gr  0.52 0.76 0.64 c black 0.52 0.76 0.64 c
 gsave  408 306 1837 345 C 1942.94 592.569 t 0 r /Helvetica-Bold findfont 25.6831 sf 0 0 m 
 220 206 192 185 170 163 148 141 125 118 111 97 83 69 61 47 40 25 18
(A = 0.003, p = 2.000) K NC gr  1 0.6 1 c black 1 0.6 1 c
 gsave  408 306 1837 345 C 2242.08 458.671 t 90 r /Helvetica-Bold findfont 28.5368 sf 0 0 m (/dof=0.5) show NC gr  black 1 0.6 1 c
 gsave  408 306 1837 345 C 2230.68 447.276 t 90 r /Helvetica-Bold findfont 19.9758 sf 0 0 m (2) show NC gr  black 1 0.6 1 c
 gsave  408 306 1837 345 C 2242.08 430.182 t 90 r /Symbol findfont 28.5368 sf 0 0 m (c) show NC gr  black 3 lw 1 1 1 c 408 306 23 13 bf black 1 1 1 c black 306 229 84 59 bl 306 229 84 59 bl 84 59 m 306 X s 84 63 m -4 Y s 196 63 m -4 Y s 309 63 m -4 Y
 s 309 63 m -4 Y s
 gsave  408 306 23 13 C 74.0711 39.8845 t 0 r /Helvetica findfont 22.8295 sf 0 0 m (0) show NC gr 
 gsave  408 306 23 13 C 188.027 39.8845 t 0 r /Helvetica findfont 22.8295 sf 0 0 m (1) show NC gr 
 gsave  408 306 23 13 C 299.133 39.8845 t 0 r /Helvetica findfont 22.8295 sf 0 0 m (2) show NC gr  84 288 m 306 X s 84 284 m 4 Y s 196 284 m 4 Y s 309 284 m 4 Y s 309 284 m 4 Y s 84 59 m 229 Y s 89 67 m -5 X s 87 72 m -3 X s 87 76 m -3 X s 87 81 m -3
 X s 87 85 m -3 X s 89 90 m -5 X s 87 95 m -3 X s 87 99 m -3 X s 87 104 m -3 X s 87 108 m -3 X s 89 113 m -5 X s 87 118 m -3 X s 87 122 m -3 X s 87 127 m -3 X s 87 131 m -3 X s 89 136 m -5 X s 87 141 m -3 X s 87 145 m -3 X s 87 150 m -3 X s 87 154 m
 -3 X s 89 159 m -5 X s 87 164 m -3 X s 87 168 m -3 X s 87 173 m -3 X s 87 177 m -3 X s 89 182 m -5 X s 87 187 m -3 X s 87 191 m -3 X s 87 196 m -3 X s 87 200 m -3 X s 89 205 m -5 X s 87 210 m -3 X s 87 214 m -3 X s 87 219 m -3 X s 87 223 m -3 X s 89
 228 m -5 X s 87 233 m -3 X s 87 237 m -3 X s 87 242 m -3 X s 87 246 m -3 X s 89 251 m -5 X s 87 256 m -3 X s 87 260 m -3 X s 87 265 m -3 X s 87 269 m -3 X s 89 274 m -5 X s 89 67 m -5 X s 87 62 m -3 X s 89 274 m -5 X s 87 279 m -3 X s 87 283 m -3 X
 s 87 288 m -3 X s
 gsave  408 306 23 13 C 28.4889 59.8267 t 0 r /Helvetica findfont 22.8295 sf 0 0 m (\2550.03) show NC gr 
 gsave  408 306 23 13 C 28.4889 82.6178 t 0 r /Helvetica findfont 22.8295 sf 0 0 m (\2550.02) show NC gr 
 gsave  408 306 23 13 C 31.3378 105.409 t 0 r /Helvetica findfont 22.8295 sf 0 0 m (\2550.01) show NC gr 
 gsave  408 306 23 13 C 65.5245 128.2 t 0 r /Helvetica findfont 22.8295 sf 0 0 m (0) show NC gr 
 gsave  408 306 23 13 C 37.0356 150.991 t 0 r /Helvetica findfont 22.8295 sf 0 0 m (0.01) show NC gr 
 gsave  408 306 23 13 C 34.1867 173.782 t 0 r /Helvetica findfont 22.8295 sf 0 0 m (0.02) show NC gr 
 gsave  408 306 23 13 C 34.1867 196.573 t 0 r /Helvetica findfont 22.8295 sf 0 0 m (0.03) show NC gr 
 gsave  408 306 23 13 C 34.1867 222.213 t 0 r /Helvetica findfont 22.8295 sf 0 0 m (0.04) show NC gr 
 gsave  408 306 23 13 C 34.1867 245.005 t 0 r /Helvetica findfont 22.8295 sf 0 0 m (0.05) show NC gr 
 gsave  408 306 23 13 C 34.1867 267.796 t 0 r /Helvetica findfont 22.8295 sf 0 0 m (0.06) show NC gr  390 59 m 229 Y s 385 67 m 5 X s 387 72 m 3 X s 387 76 m 3 X s 387 81 m 3 X s 387 85 m 3 X s 385 90 m 5 X s 387 95 m 3 X s 387 99 m 3 X s 387 104 m 3
 X s 387 108 m 3 X s 385 113 m 5 X s 387 118 m 3 X s 387 122 m 3 X s 387 127 m 3 X s 387 131 m 3 X s 385 136 m 5 X s 387 141 m 3 X s 387 145 m 3 X s 387 150 m 3 X s 387 154 m 3 X s 385 159 m 5 X s 387 164 m 3 X s 387 168 m 3 X s 387 173 m 3 X s 387
 177 m 3 X s 385 182 m 5 X s 387 187 m 3 X s 387 191 m 3 X s 387 196 m 3 X s 387 200 m 3 X s 385 205 m 5 X s 387 210 m 3 X s 387 214 m 3 X s 387 219 m 3 X s 387 223 m 3 X s 385 228 m 5 X s 387 233 m 3 X s 387 237 m 3 X s 387 242 m 3 X s 387 246 m 3 X
 s 385 251 m 5 X s 387 256 m 3 X s 387 260 m 3 X s 387 265 m 3 X s 387 269 m 3 X s 385 274 m 5 X s 385 67 m 5 X s 387 62 m 3 X s 385 274 m 5 X s 387 279 m 3 X s 387 283 m 3 X s 387 288 m 3 X s /w 22 def /w2 {w 2 div} def /w3 {w 3 div} def 140 153 196
 150 309 132 365 213 4 { m21} R 140 165 m 43 Y s 134 208 m 12 X s 140 142 m -43 Y s 134 99 m 12 X s 196 161 m 43 Y s 191 204 m 11 X s 196 138 m -42 Y s 191 96 m 11 X s 309 143 m 43 Y s 303 186 m 12 X s 309 121 m -43 Y s 303 78 m 12 X s 365 224 m 45 Y
 s 360 269 m 11 X s 365 201 m -44 Y s 360 157 m 11 X s 1 0 0 c 9 lw 0.95 0.95 0.95 c black 1 0 0 c 85 136 m 25 X 3 1 d 15 X 3 1 d 13 X 3 1 d 9 X 3 1 d 6 X 3 1 d 6 X 3 1 d 3 X 3 1 d 7 X 3 1 d 3 X 3 1 d 3 X 3 1 d 3 X 3 1 d 3 X 3 1 d 3 X 3 1 d 3 X 3 1 d
 3 1 d 3 X s 235 151 m 4 1 d 3 X 3 1 d 3 1 d 3 X 3 1 d 3 1 d 3 1 d 3 X 3 1 d 3 1 d 3 X 3 1 d 3 1 d 3 1 d 3 1 d 3 X 4 1 d 3 1 d 3 1 d 3 1 d 3 1 d 3 1 d 3 1 d 3 X 3 1 d 3 1 d 3 1 d 3 1 d 3 1 d 3 1 d 3 1 d 3 1 d 4 1 d 3 1 d 3 1 d 3 1 d 3 1 d 3 2 d 3 1 d
 3 1 d 3 1 d 3 1 d 3 1 d 3 1 d 3 2 d 3 1 d 3 1 d 3 1 d s 385 196 m 4 1 d s 0.49 0.6 0.82 c black 0.49 0.6 0.82 c
 gsave  408 306 23 13 C 142.445 296.285 t 0 r /Helvetica-Bold findfont 25.6831 sf 0 0 m (7.5 < E < 8.0 GeV) show NC gr  0.52 0.76 0.64 c black 0.52 0.76 0.64 c
 gsave  408 306 23 13 C 128.2 259.249 t 0 r /Helvetica-Bold findfont 25.6831 sf 0 0 m 
 220 206 192 185 170 163 148 141 126 118 111 97 83 69 61 47 40 25 18
(A = 0.004, p = 2.000) K NC gr  1 0.6 1 c black 1 0.6 1 c
 gsave  408 306 23 13 C 427.334 128.2 t 90 r /Helvetica-Bold findfont 28.5368 sf 0 0 m (/dof=0.3) show NC gr  black 1 0.6 1 c
 gsave  408 306 23 13 C 415.938 116.804 t 90 r /Helvetica-Bold findfont 19.9758 sf 0 0 m (2) show NC gr  black 1 0.6 1 c
 gsave  408 306 23 13 C 427.334 99.7112 t 90 r /Symbol findfont 28.5368 sf 0 0 m (c) show NC gr  black 3 lw 1 1 1 c 408 306 476 13 bf black 1 1 1 c black 307 229 537 59 bl 307 229 537 59 bl 537 59 m 307 X s 537 63 m -4 Y s 650 63 m -4 Y s 763 63 m -4
 Y s 763 63 m -4 Y s
 gsave  408 306 476 13 C 527.045 39.8845 t 0 r /Helvetica findfont 22.8295 sf 0 0 m (0) show NC gr 
 gsave  408 306 476 13 C 643.849 39.8845 t 0 r /Helvetica findfont 22.8295 sf 0 0 m (1) show NC gr 
 gsave  408 306 476 13 C 752.107 39.8845 t 0 r /Helvetica findfont 22.8295 sf 0 0 m (2) show NC gr  537 288 m 307 X s 537 284 m 4 Y s 650 284 m 4 Y s 763 284 m 4 Y s 763 284 m 4 Y s 537 59 m 229 Y s 543 75 m -6 X s 540 79 m -3 X s 540 84 m -3 X s 540
 89 m -3 X s 540 94 m -3 X s 543 98 m -6 X s 540 103 m -3 X s 540 108 m -3 X s 540 113 m -3 X s 540 117 m -3 X s 543 122 m -6 X s 540 127 m -3 X s 540 132 m -3 X s 540 136 m -3 X s 540 141 m -3 X s 543 146 m -6 X s 540 151 m -3 X s 540 155 m -3 X s
 540 160 m -3 X s 540 165 m -3 X s 543 170 m -6 X s 540 174 m -3 X s 540 179 m -3 X s 540 184 m -3 X s 540 189 m -3 X s 543 194 m -6 X s 540 198 m -3 X s 540 203 m -3 X s 540 208 m -3 X s 540 213 m -3 X s 543 217 m -6 X s 540 222 m -3 X s 540 227 m
 -3 X s 540 232 m -3 X s 540 236 m -3 X s 543 241 m -6 X s 540 246 m -3 X s 540 251 m -3 X s 540 255 m -3 X s 540 260 m -3 X s 543 265 m -6 X s 543 75 m -6 X s 540 70 m -3 X s 540 65 m -3 X s 540 60 m -3 X s 543 265 m -6 X s 540 270 m -3 X s 540 274
 m -3 X s 540 279 m -3 X s 540 284 m -3 X s
 gsave  408 306 476 13 C 481.462 68.3734 t 0 r /Helvetica findfont 22.8295 sf 0 0 m (\2550.05) show NC gr 
 gsave  408 306 476 13 C 481.462 91.1645 t 0 r /Helvetica findfont 22.8295 sf 0 0 m (\2550.04) show NC gr 
 gsave  408 306 476 13 C 481.462 113.956 t 0 r /Helvetica findfont 22.8295 sf 0 0 m (\2550.03) show NC gr 
 gsave  408 306 476 13 C 481.462 139.596 t 0 r /Helvetica findfont 22.8295 sf 0 0 m (\2550.02) show NC gr 
 gsave  408 306 476 13 C 484.311 162.387 t 0 r /Helvetica findfont 22.8295 sf 0 0 m (\2550.01) show NC gr 
 gsave  408 306 476 13 C 518.498 185.178 t 0 r /Helvetica findfont 22.8295 sf 0 0 m (0) show NC gr 
 gsave  408 306 476 13 C 490.009 210.818 t 0 r /Helvetica findfont 22.8295 sf 0 0 m (0.01) show NC gr 
 gsave  408 306 476 13 C 487.16 233.609 t 0 r /Helvetica findfont 22.8295 sf 0 0 m (0.02) show NC gr 
 gsave  408 306 476 13 C 487.16 256.4 t 0 r /Helvetica findfont 22.8295 sf 0 0 m (0.03) show NC gr  844 59 m 229 Y s 838 75 m 6 X s 841 79 m 3 X s 841 84 m 3 X s 841 89 m 3 X s 841 94 m 3 X s 838 98 m 6 X s 841 103 m 3 X s 841 108 m 3 X s 841 113 m 3
 X s 841 117 m 3 X s 838 122 m 6 X s 841 127 m 3 X s 841 132 m 3 X s 841 136 m 3 X s 841 141 m 3 X s 838 146 m 6 X s 841 151 m 3 X s 841 155 m 3 X s 841 160 m 3 X s 841 165 m 3 X s 838 170 m 6 X s 841 174 m 3 X s 841 179 m 3 X s 841 184 m 3 X s 841
 189 m 3 X s 838 194 m 6 X s 841 198 m 3 X s 841 203 m 3 X s 841 208 m 3 X s 841 213 m 3 X s 838 217 m 6 X s 841 222 m 3 X s 841 227 m 3 X s 841 232 m 3 X s 841 236 m 3 X s 838 241 m 6 X s 841 246 m 3 X s 841 251 m 3 X s 841 255 m 3 X s 841 260 m 3 X
 s 838 265 m 6 X s 838 75 m 6 X s 841 70 m 3 X s 841 65 m 3 X s 841 60 m 3 X s 838 265 m 6 X s 841 270 m 3 X s 841 274 m 3 X s 841 279 m 3 X s 841 284 m 3 X s /w 23 def /w2 {w 2 div} def /w3 {w 3 div} def 594 137 650 170 763 208 819 183 4 { m21} R
 594 148 m 47 Y s 588 195 m 11 X s 594 125 m -47 Y s 588 78 m 11 X s 650 181 m 49 Y s 644 230 m 12 X s 650 158 m -48 Y s 644 110 m 12 X s 763 220 m 49 Y s 757 269 m 11 X s 763 197 m -49 Y s 757 148 m 11 X s 819 194 m 48 Y s 813 242 m 12 X s 819 171 m
 -48 Y s 813 123 m 12 X s 9 lw 0.95 0.95 0.95 c black 539 193 m 21 X 3 -1 d 22 X 3 -1 d 21 X 3 -1 d 22 X 3 -1 d 24 X 3 -1 d 22 X 3 -1 d s 689 187 m 21 X 3 -1 d 22 X 3 -1 d 21 X 3 -1 d 22 X 3 -1 d 21 X 3 -1 d 22 X 3 -1 d 3 X s 839 181 m 3 X s 0.49 0.6
 0.82 c black 0.49 0.6 0.82 c
 gsave  408 306 476 13 C 595.418 296.285 t 0 r /Helvetica-Bold findfont 25.6831 sf 0 0 m (8.0 < E < 8.5 GeV) show NC gr  0.52 0.76 0.64 c black 0.52 0.76 0.64 c
 gsave  408 306 476 13 C 575.476 259.249 t 0 r /Helvetica-Bold findfont 25.6831 sf 0 0 m 
 228 214 200 193 178 171 156 149 133 126 119 105 91 76 69 55 47 39 25 17
(A = \2550.002, p = 1.000) K NC gr  1 0.6 1 c black 1 0.6 1 c
 gsave  408 306 476 13 C 883.156 128.2 t 90 r /Helvetica-Bold findfont 28.5368 sf 0 0 m (/dof=0.4) show NC gr  black 1 0.6 1 c
 gsave  408 306 476 13 C 871.76 116.804 t 90 r /Helvetica-Bold findfont 19.9758 sf 0 0 m (2) show NC gr  black 1 0.6 1 c
 gsave  408 306 476 13 C 883.156 99.7112 t 90 r /Symbol findfont 28.5368 sf 0 0 m (c) show NC gr  black 3 lw 1 1 1 c 408 306 930 13 bf black 1 1 1 c black 306 229 991 59 bl 306 229 991 59 bl 991 59 m 306 X s 991 63 m -4 Y s 1104 63 m -4 Y s 1216 63 m
 -4 Y s 1216 63 m -4 Y s
 gsave  408 306 930 13 C 980.018 39.8845 t 0 r /Helvetica findfont 22.8295 sf 0 0 m (0) show NC gr 
 gsave  408 306 930 13 C 1096.82 39.8845 t 0 r /Helvetica findfont 22.8295 sf 0 0 m (1) show NC gr 
 gsave  408 306 930 13 C 1205.08 39.8845 t 0 r /Helvetica findfont 22.8295 sf 0 0 m (2) show NC gr  991 288 m 306 X s 991 284 m 4 Y s 1104 284 m 4 Y s 1216 284 m 4 Y s 1216 284 m 4 Y s 991 59 m 229 Y s 997 75 m -6 X s 994 84 m -3 X s 994 93 m -3 X s
 994 102 m -3 X s 997 111 m -6 X s 994 120 m -3 X s 994 129 m -3 X s 994 138 m -3 X s 997 147 m -6 X s 994 156 m -3 X s 994 165 m -3 X s 994 174 m -3 X s 997 183 m -6 X s 994 192 m -3 X s 994 201 m -3 X s 994 210 m -3 X s 997 219 m -6 X s 994 228 m
 -3 X s 994 237 m -3 X s 994 246 m -3 X s 997 255 m -6 X s 997 75 m -6 X s 994 66 m -3 X s 997 255 m -6 X s 994 264 m -3 X s 994 273 m -3 X s 994 282 m -3 X s
 gsave  408 306 930 13 C 937.285 68.3734 t 0 r /Helvetica findfont 22.8295 sf 0 0 m (\2550.04) show NC gr 
 gsave  408 306 930 13 C 937.285 105.409 t 0 r /Helvetica findfont 22.8295 sf 0 0 m (\2550.02) show NC gr 
 gsave  408 306 930 13 C 974.32 139.596 t 0 r /Helvetica findfont 22.8295 sf 0 0 m (0) show NC gr 
 gsave  408 306 930 13 C 942.983 176.631 t 0 r /Helvetica findfont 22.8295 sf 0 0 m (0.02) show NC gr 
 gsave  408 306 930 13 C 942.983 210.818 t 0 r /Helvetica findfont 22.8295 sf 0 0 m (0.04) show NC gr 
 gsave  408 306 930 13 C 942.983 247.853 t 0 r /Helvetica findfont 22.8295 sf 0 0 m (0.06) show NC gr  1297 59 m 229 Y s 1292 75 m 5 X s 1294 84 m 3 X s 1294 93 m 3 X s 1294 102 m 3 X s 1292 111 m 5 X s 1294 120 m 3 X s 1294 129 m 3 X s 1294 138 m 3
 X s 1292 147 m 5 X s 1294 156 m 3 X s 1294 165 m 3 X s 1294 174 m 3 X s 1292 183 m 5 X s 1294 192 m 3 X s 1294 201 m 3 X s 1294 210 m 3 X s 1292 219 m 5 X s 1294 228 m 3 X s 1294 237 m 3 X s 1294 246 m 3 X s 1292 255 m 5 X s 1292 75 m 5 X s 1294 66
 m 3 X s 1292 255 m 5 X s 1294 264 m 3 X s 1294 273 m 3 X s 1294 282 m 3 X s 1047 126 1104 134 1216 184 1272 218 4 { m21} R 1047 138 m 37 Y s 1042 175 m 11 X s 1047 115 m -37 Y s 1042 78 m 11 X s 1104 146 m 36 Y s 1098 182 m 11 X s 1104 123 m -37 Y s
 1098 86 m 11 X s 1216 196 m 38 Y s 1210 234 m 12 X s 1216 173 m -38 Y s 1210 135 m 12 X s 1272 229 m 40 Y s 1267 269 m 11 X s 1272 206 m -39 Y s 1267 167 m 11 X s 1 0 0 c 9 lw 0.95 0.95 0.95 c black 1 0 0 c 993 147 m 9 X 3 1 d 21 X 3 1 d 13 X 3 1 d
 9 X 3 1 d 6 X 3 1 d 3 X 3 1 d 6 X 3 1 d 3 X 3 1 d 3 X 4 1 d 3 X 3 1 d 3 X 3 1 d 3 X 3 1 d 3 1 d 3 X 3 1 d 3 X 3 1 d 3 1 d 3 X 3 1 d 3 1 d 4 1 d s 1143 166 m 3 X 3 1 d 3 1 d 3 1 d 3 X 3 1 d 3 1 d 3 1 d 3 1 d 3 1 d 3 1 d 3 1 d 3 X 3 1 d 3 1 d 4 1 d 3
 1 d 3 1 d 3 1 d 3 1 d 3 1 d 3 1 d 3 2 d 3 1 d 3 1 d 3 1 d 3 1 d 3 1 d 3 1 d 3 1 d 3 2 d 3 1 d 4 1 d 3 1 d 3 2 d 3 1 d 3 1 d 3 1 d 3 2 d 3 1 d 3 1 d 3 2 d 3 1 d 3 1 d 3 2 d 3 1 d 3 2 d 3 1 d 4 2 d s 1293 220 m 3 1 d s 0.49 0.6 0.82 c black 0.49 0.6
 0.82 c
 gsave  408 306 930 13 C 1051.24 296.285 t 0 r /Helvetica-Bold findfont 25.6831 sf 0 0 m (8.5 < E < 9.0 GeV) show NC gr  0.52 0.76 0.64 c black 0.52 0.76 0.64 c
 gsave  408 306 930 13 C 1037 259.249 t 0 r /Helvetica-Bold findfont 25.6831 sf 0 0 m 
 220 206 192 185 170 163 148 141 125 118 111 97 83 69 61 47 40 25 18
(A = 0.006, p = 2.000) K NC gr  1 0.6 1 c black 1 0.6 1 c
 gsave  408 306 930 13 C 1336.13 128.2 t 90 r /Helvetica-Bold findfont 28.5368 sf 0 0 m (/dof=0.2) show NC gr  black 1 0.6 1 c
 gsave  408 306 930 13 C 1324.73 116.804 t 90 r /Helvetica-Bold findfont 19.9758 sf 0 0 m (2) show NC gr  black 1 0.6 1 c
 gsave  408 306 930 13 C 1336.13 99.7112 t 90 r /Symbol findfont 28.5368 sf 0 0 m (c) show NC gr  black 3 lw 1 1 1 c 408 306 1383 13 bf black 1 1 1 c black 306 229 1445 59 bl 306 229 1445 59 bl 1445 59 m 306 X s 1445 63 m -4 Y s 1557 63 m -4 Y s 1670
 63 m -4 Y s 1670 63 m -4 Y s
 gsave  408 306 1383 13 C 1435.84 39.8845 t 0 r /Helvetica findfont 22.8295 sf 0 0 m (0) show NC gr 
 gsave  408 306 1383 13 C 1549.8 39.8845 t 0 r /Helvetica findfont 22.8295 sf 0 0 m (1) show NC gr 
 gsave  408 306 1383 13 C 1660.9 39.8845 t 0 r /Helvetica findfont 22.8295 sf 0 0 m (2) show NC gr  1445 288 m 306 X s 1445 284 m 4 Y s 1557 284 m 4 Y s 1670 284 m 4 Y s 1670 284 m 4 Y s 1445 59 m 229 Y s 1450 59 m -5 X s 1447 69 m -2 X s 1447 79 m
 -2 X s 1447 88 m -2 X s 1450 98 m -5 X s 1447 107 m -2 X s 1447 117 m -2 X s 1447 127 m -2 X s 1450 136 m -5 X s 1447 146 m -2 X s 1447 155 m -2 X s 1447 165 m -2 X s 1450 175 m -5 X s 1447 184 m -2 X s 1447 194 m -2 X s 1447 203 m -2 X s 1450 213 m
 -5 X s 1447 223 m -2 X s 1447 232 m -2 X s 1447 242 m -2 X s 1450 251 m -5 X s 1450 59 m -5 X s 1450 251 m -5 X s 1447 261 m -2 X s 1447 271 m -2 X s 1447 280 m -2 X s
 gsave  408 306 1383 13 C 1390.26 51.28 t 0 r /Helvetica findfont 22.8295 sf 0 0 m (\2550.04) show NC gr 
 gsave  408 306 1383 13 C 1390.26 91.1645 t 0 r /Helvetica findfont 22.8295 sf 0 0 m (\2550.02) show NC gr 
 gsave  408 306 1383 13 C 1427.29 128.2 t 0 r /Helvetica findfont 22.8295 sf 0 0 m (0) show NC gr 
 gsave  408 306 1383 13 C 1395.96 168.085 t 0 r /Helvetica findfont 22.8295 sf 0 0 m (0.02) show NC gr 
 gsave  408 306 1383 13 C 1395.96 205.12 t 0 r /Helvetica findfont 22.8295 sf 0 0 m (0.04) show NC gr 
 gsave  408 306 1383 13 C 1395.96 245.005 t 0 r /Helvetica findfont 22.8295 sf 0 0 m (0.06) show NC gr  1751 59 m 229 Y s 1745 59 m 6 X s 1748 69 m 3 X s 1748 79 m 3 X s 1748 88 m 3 X s 1745 98 m 6 X s 1748 107 m 3 X s 1748 117 m 3 X s 1748 127 m 3 X
 s 1745 136 m 6 X s 1748 146 m 3 X s 1748 155 m 3 X s 1748 165 m 3 X s 1745 175 m 6 X s 1748 184 m 3 X s 1748 194 m 3 X s 1748 203 m 3 X s 1745 213 m 6 X s 1748 223 m 3 X s 1748 232 m 3 X s 1748 242 m 3 X s 1745 251 m 6 X s 1745 59 m 6 X s 1745 251 m
 6 X s 1748 261 m 3 X s 1748 271 m 3 X s 1748 280 m 3 X s 1501 211 1557 189 1670 133 1726 162 4 { m21} R 1501 223 m 46 Y s 1495 269 m 12 X s 1501 200 m -47 Y s 1495 153 m 12 X s 1557 201 m 45 Y s 1551 246 m 12 X s 1557 178 m -45 Y s 1551 133 m 12 X s
 1670 145 m 44 Y s 1664 189 m 11 X s 1670 122 m -44 Y s 1664 78 m 11 X s 1726 173 m 45 Y s 1720 218 m 12 X s 1726 150 m -45 Y s 1720 105 m 12 X s 9 lw 0.95 0.95 0.95 c black 1446 136 m 3 1 d 6 X 3 1 d 6 X 3 1 d 4 X 3 1 d 6 X 3 1 d 6 X 3 1 d 6 X 3 1 d
 6 X 3 1 d 6 X 4 1 d 6 X 3 1 d 6 X 3 1 d 6 X 3 1 d 6 X 3 1 d 6 X 3 1 d 7 X 3 1 d 6 X 3 1 d 6 X 3 1 d 3 X s 1596 153 m 3 X 3 1 d 3 X 3 1 d 6 X 4 1 d 6 X 3 1 d 6 X 3 1 d 6 X 3 1 d 6 X 3 1 d 6 X 3 1 d 7 X 3 1 d 6 X 3 1 d 6 X 3 1 d 6 X 3 1 d 6 X 3 1 d 6
 X 4 1 d 6 X 3 1 d 6 X 3 1 d 3 X 3 1 d 3 X s 1746 170 m 3 X s 0.49 0.6 0.82 c black 0.49 0.6 0.82 c
 gsave  408 306 1383 13 C 1504.21 296.285 t 0 r /Helvetica-Bold findfont 25.6831 sf 0 0 m (9.0 < E < 9.5 GeV) show NC gr  0.52 0.76 0.64 c black 0.52 0.76 0.64 c
 gsave  408 306 1383 13 C 1489.97 259.249 t 0 r /Helvetica-Bold findfont 25.6831 sf 0 0 m 
 220 206 192 185 170 163 148 141 126 118 111 97 83 69 61 47 40 25 18
(A = 0.007, p = 1.000) K NC gr  1 0.6 1 c black 1 0.6 1 c
 gsave  408 306 1383 13 C 1789.1 128.2 t 90 r /Helvetica-Bold findfont 28.5368 sf 0 0 m (/dof=0.7) show NC gr  black 1 0.6 1 c
 gsave  408 306 1383 13 C 1777.71 116.804 t 90 r /Helvetica-Bold findfont 19.9758 sf 0 0 m (2) show NC gr  black 1 0.6 1 c
 gsave  408 306 1383 13 C 1789.1 99.7112 t 90 r /Symbol findfont 28.5368 sf 0 0 m (c) show NC gr  black 3 lw 1 1 1 c 408 306 1837 13 bf black 1 1 1 c black 306 229 1898 59 bl 306 229 1898 59 bl 1898 59 m 306 X s 1898 63 m -4 Y s 2011 63 m -4 Y s 2123
 63 m -4 Y s 2123 63 m -4 Y s
 gsave  408 306 1837 13 C 1888.81 39.8845 t 0 r /Helvetica findfont 22.8295 sf 0 0 m (0) show NC gr 
 gsave  408 306 1837 13 C 2002.77 39.8845 t 0 r /Helvetica findfont 22.8295 sf 0 0 m (1) show NC gr 
 gsave  408 306 1837 13 C 2113.88 39.8845 t 0 r /Helvetica findfont 22.8295 sf 0 0 m (2) show NC gr  1898 288 m 306 X s 1898 284 m 4 Y s 2011 284 m 4 Y s 2123 284 m 4 Y s 2123 284 m 4 Y s 1898 59 m 229 Y s 1904 82 m -6 X s 1901 93 m -3 X s 1901 104 m
 -3 X s 1901 114 m -3 X s 1904 125 m -6 X s 1901 136 m -3 X s 1901 146 m -3 X s 1901 157 m -3 X s 1904 167 m -6 X s 1901 178 m -3 X s 1901 189 m -3 X s 1901 199 m -3 X s 1904 210 m -6 X s 1901 221 m -3 X s 1901 231 m -3 X s 1901 242 m -3 X s 1904 253
 m -6 X s 1904 82 m -6 X s 1901 72 m -3 X s 1901 61 m -3 X s 1904 253 m -6 X s 1901 263 m -3 X s 1901 274 m -3 X s 1901 285 m -3 X s
 gsave  408 306 1837 13 C 1843.23 74.0711 t 0 r /Helvetica findfont 22.8295 sf 0 0 m (\2550.06) show NC gr 
 gsave  408 306 1837 13 C 1843.23 116.804 t 0 r /Helvetica findfont 22.8295 sf 0 0 m (\2550.04) show NC gr 
 gsave  408 306 1837 13 C 1843.23 159.538 t 0 r /Helvetica findfont 22.8295 sf 0 0 m (\2550.02) show NC gr 
 gsave  408 306 1837 13 C 1880.27 202.271 t 0 r /Helvetica findfont 22.8295 sf 0 0 m (0) show NC gr 
 gsave  408 306 1837 13 C 1848.93 245.005 t 0 r /Helvetica findfont 22.8295 sf 0 0 m (0.02) show NC gr  2204 59 m 229 Y s 2199 82 m 5 X s 2201 93 m 3 X s 2201 104 m 3 X s 2201 114 m 3 X s 2199 125 m 5 X s 2201 136 m 3 X s 2201 146 m 3 X s 2201 157 m
 3 X s 2199 167 m 5 X s 2201 178 m 3 X s 2201 189 m 3 X s 2201 199 m 3 X s 2199 210 m 5 X s 2201 221 m 3 X s 2201 231 m 3 X s 2201 242 m 3 X s 2199 253 m 5 X s 2199 82 m 5 X s 2201 72 m 3 X s 2201 61 m 3 X s 2199 253 m 5 X s 2201 263 m 3 X s 2201 274
 m 3 X s 2201 285 m 3 X s 1954 140 2011 202 2123 190 2179 205 4 { m21} R 1954 152 m 51 Y s 1949 203 m 11 X s 1954 129 m -51 Y s 1949 78 m 11 X s 2011 214 m 53 Y s 2005 267 m 11 X s 2011 191 m -53 Y s 2005 138 m 11 X s 2123 201 m 53 Y s 2117 254 m 12
 X s 2123 178 m -53 Y s 2117 125 m 12 X s 2179 216 m 53 Y s 2174 269 m 11 X s 2179 193 m -53 Y s 2174 140 m 11 X s 9 lw 0.95 0.95 0.95 c black 1900 210 m 3 X 3 -1 d 12 X 3 -1 d 9 X 3 -1 d 9 X 4 -1 d 9 X 3 -1 d 12 X 3 -1 d 9 X 3 -1 d 10 X 3 -1 d 9 X 3
 -1 d 12 X 3 -1 d 9 X 3 -1 d 10 X 3 -1 d s 2050 198 m 12 X 3 -1 d 9 X 3 -1 d 9 X 3 -1 d 10 X 3 -1 d 12 X 3 -1 d 9 X 3 -1 d 9 X 3 -1 d 13 X 3 -1 d 9 X 3 -1 d 9 X 3 -1 d 9 X 4 -1 d 6 X s 2200 187 m 3 X s 0.49 0.6 0.82 c black 0.49 0.6 0.82 c
 gsave  408 306 1837 13 C 1948.64 296.285 t 0 r /Helvetica-Bold findfont 25.6831 sf 0 0 m (9.5 < E < 10.0 GeV) show NC gr  0.52 0.76 0.64 c black 0.52 0.76 0.64 c
 gsave  408 306 1837 13 C 1937.25 259.249 t 0 r /Helvetica-Bold findfont 25.6831 sf 0 0 m 
 228 214 200 193 178 171 156 149 133 126 119 105 91 77 69 55 47 39 25 17
(A = \2550.004, p = 1.000) K NC gr  1 0.6 1 c black 1 0.6 1 c
 gsave  408 306 1837 13 C 2242.08 128.2 t 90 r /Helvetica-Bold findfont 28.5368 sf 0 0 m (/dof=0.4) show NC gr  black 1 0.6 1 c
 gsave  408 306 1837 13 C 2230.68 116.804 t 90 r /Helvetica-Bold findfont 19.9758 sf 0 0 m (2) show NC gr  black 1 0.6 1 c
 gsave  408 306 1837 13 C 2242.08 99.7112 t 90 r /Symbol findfont 28.5368 sf 0 0 m (c) show NC gr 
 gr  gr showpage
end
%%EOF
