%!PS-Adobe-2.0 EPSF-2.0
%%BoundingBox:  0 0 567 332
%%Title: LBNEFDY_nof_fits.eps: Fits
%%Creator: ROOT Version 5.30/06
%%CreationDate: Sun Feb  2 09:28:11 2014
%%EndComments
%%BeginProlog
80 dict begin
/s {stroke} def /l {lineto} def /m {moveto} def /t {translate} def
/r {rotate} def /rl {roll}  def /R {repeat} def
/d {rlineto} def /rm {rmoveto} def /gr {grestore} def /f {eofill} def
/c {setrgbcolor} def /black {0 setgray} def /sd {setdash} def
/cl {closepath} def /sf {scalefont setfont} def /lw {setlinewidth} def
/box {m dup 0 exch d exch 0 d 0 exch neg d cl} def
/NC{systemdict begin initclip end}def/C{NC box clip newpath}def
/bl {box s} def /bf {box f} def /Y { 0 exch d} def /X { 0 d} def 
/K {{pop pop 0 moveto} exch kshow} bind def
/ita {/ang 15 def gsave [1 0 ang dup sin exch cos div 1 0 0] concat} def 
/mp {newpath /y exch def /x exch def} def
/side {[w .77 mul w .23 mul] .385 w mul sd w 0 l currentpoint t -144 r} def
/mr {mp x y w2 0 360 arc} def /m24 {mr s} def /m20 {mr f} def
/mb {mp x y w2 add m w2 neg 0 d 0 w neg d w 0 d 0 w d cl} def
/mt {mp x y w2 add m w2 neg w neg d w 0 d cl} def
/m21 {mb f} def /m25 {mb s} def /m22 {mt f} def /m26{mt s} def
/m23 {mp x y w2 sub m w2 w d w neg 0 d cl f} def
/m27 {mp x y w2 add m w3 neg w2 neg d w3 w2 neg d w3 w2 d cl s} def
/m28 {mp x w2 sub y w2 sub w3 add m w3 0 d  0 w3 neg d w3 0 d 0 w3 d w3 0 d  0 w3 d w3 neg 0 d 0 w3 d w3 neg 0 d 0 w3 neg d w3 neg 0 d cl s } def
/m29 {mp gsave x w2 sub y w2 add w3 sub m currentpoint t 4 {side} repeat cl fill gr} def
/m30 {mp gsave x w2 sub y w2 add w3 sub m currentpoint t 4 {side} repeat cl s gr} def
/m31 {mp x y w2 sub m 0 w d x w2 sub y m w 0 d x w2 sub y w2 add m w w neg d x w2 sub y w2 sub m w w d s} def
/m32 {mp x y w2 sub m w2 w d w neg 0 d cl s} def
/m33 {mp x y w2 add m w3 neg w2 neg d w3 w2 neg d w3 w2 d cl f} def
/m34 {mp x w2 sub y w2 sub w3 add m w3 0 d  0 w3 neg d w3 0 d 0 w3 d w3 0 d  0 w3 d w3 neg 0 d 0 w3 d w3 neg 0 d 0 w3 neg d w3 neg 0 d cl f } def
/m2 {mp x y w2 sub m 0 w d x w2 sub y m w 0 d s} def
/m5 {mp x w2 sub y w2 sub m w w d x w2 sub y w2 add m w w neg d s} def
/reEncode {exch findfont dup length dict begin {1 index /FID eq  {pop pop} {def} ifelse } forall /Encoding exch def currentdict end dup /FontName get exch definefont pop } def [/Times-Bold /Times-Italic /Times-BoldItalic /Helvetica /Helvetica-Oblique
 /Helvetica-Bold /Helvetica-BoldOblique /Courier /Courier-Oblique /Courier-Bold /Courier-BoldOblique /Times-Roman /AvantGarde-Book /AvantGarde-BookOblique /AvantGarde-Demi /AvantGarde-DemiOblique /Bookman-Demi /Bookman-DemiItalic /Bookman-Light
 /Bookman-LightItalic /Helvetica-Narrow /Helvetica-Narrow-Bold /Helvetica-Narrow-BoldOblique /Helvetica-Narrow-Oblique /NewCenturySchlbk-Roman /NewCenturySchlbk-Bold /NewCenturySchlbk-BoldItalic /NewCenturySchlbk-Italic /Palatino-Bold
 /Palatino-BoldItalic /Palatino-Italic /Palatino-Roman ] {ISOLatin1Encoding reEncode } forall%%EndProlog
%%BeginSetup
%%EndSetup
newpath  gsave  .25 .25 scale  gsave  0 0 t black[  ] 0 sd 3 lw 1 1 1 c 2268 1328 0 0 bf black 1 1 1 c 408 305 23 1009 bf black 1 1 1 c black 306 229 84 1055 bl 306 229 84 1055 bl 84 1055 m 306 X s 107 1059 m -4 Y s 234 1059 m -4 Y s 362 1059 m -4 Y
 s 107 1059 m -4 Y s 362 1059 m -4 Y s
 gsave  408 305 23 1009 C 96.8623 1034.15 t 0 r /Helvetica findfont 22.8295 sf 0 0 m (0) show NC gr 
 gsave  408 305 23 1009 C 207.969 1034.15 t 0 r /Helvetica findfont 22.8295 sf 0 0 m (1000) show NC gr 
 gsave  408 305 23 1009 C 336.169 1034.15 t 0 r /Helvetica findfont 22.8295 sf 0 0 m (2000) show NC gr  84 1284 m 306 X s 107 1280 m 4 Y s 234 1280 m 4 Y s 362 1280 m 4 Y s 107 1280 m 4 Y s 362 1280 m 4 Y s 84 1055 m 229 Y s 89 1060 m -5 X s 87 1068
 m -3 X s 87 1077 m -3 X s 87 1085 m -3 X s 87 1093 m -3 X s 89 1101 m -5 X s 87 1110 m -3 X s 87 1118 m -3 X s 87 1126 m -3 X s 87 1134 m -3 X s 89 1143 m -5 X s 87 1151 m -3 X s 87 1159 m -3 X s 87 1167 m -3 X s 87 1176 m -3 X s 89 1184 m -5 X s 87
 1192 m -3 X s 87 1200 m -3 X s 87 1209 m -3 X s 87 1217 m -3 X s 89 1225 m -5 X s 87 1233 m -3 X s 87 1242 m -3 X s 87 1250 m -3 X s 87 1258 m -3 X s 89 1266 m -5 X s 89 1060 m -5 X s 89 1266 m -5 X s 87 1275 m -3 X s 87 1283 m -3 X s
 gsave  408 305 23 1009 C 14.2445 1054.09 t 0 r /Helvetica findfont 22.8295 sf 0 0 m (\2550.004) show NC gr 
 gsave  408 305 23 1009 C 14.2445 1093.97 t 0 r /Helvetica findfont 22.8295 sf 0 0 m (\2550.003) show NC gr 
 gsave  408 305 23 1009 C 14.2445 1136.71 t 0 r /Helvetica findfont 22.8295 sf 0 0 m (\2550.002) show NC gr 
 gsave  408 305 23 1009 C 17.0933 1176.59 t 0 r /Helvetica findfont 22.8295 sf 0 0 m (\2550.001) show NC gr 
 gsave  408 305 23 1009 C 65.5245 1219.32 t 0 r /Helvetica findfont 22.8295 sf 0 0 m (0) show NC gr 
 gsave  408 305 23 1009 C 25.64 1259.21 t 0 r /Helvetica findfont 22.8295 sf 0 0 m (0.001) show NC gr  390 1055 m 229 Y s 385 1060 m 5 X s 387 1068 m 3 X s 387 1077 m 3 X s 387 1085 m 3 X s 387 1093 m 3 X s 385 1101 m 5 X s 387 1110 m 3 X s 387 1118
 m 3 X s 387 1126 m 3 X s 387 1134 m 3 X s 385 1143 m 5 X s 387 1151 m 3 X s 387 1159 m 3 X s 387 1167 m 3 X s 387 1176 m 3 X s 385 1184 m 5 X s 387 1192 m 3 X s 387 1200 m 3 X s 387 1209 m 3 X s 387 1217 m 3 X s 385 1225 m 5 X s 387 1233 m 3 X s 387
 1242 m 3 X s 387 1250 m 3 X s 387 1258 m 3 X s 385 1266 m 5 X s 385 1060 m 5 X s 385 1266 m 5 X s 387 1275 m 3 X s 387 1283 m 3 X s /w 22 def /w2 {w 2 div} def /w3 {w 3 div} def 109 1187 112 1186 117 1186 170 1185 362 1152 5 { m21} R 109 1198 m 67 Y
 s 104 1265 m 11 X s 109 1175 m -66 Y s 104 1109 m 11 X s 112 1197 m 67 Y s 106 1264 m 12 X s 112 1175 m -67 Y s 106 1108 m 12 X s 117 1198 m 66 Y s 112 1264 m 11 X s 117 1175 m -67 Y s 112 1108 m 11 X s 170 1196 m 67 Y s 165 1263 m 11 X s 170 1173 m
 -66 Y s 165 1107 m 11 X s 362 1163 m 67 Y s 357 1230 m 11 X s 362 1140 m -66 Y s 357 1074 m 11 X s 9 lw 0.95 0.95 0.95 c black 85 1232 m 3 -1 d 4 -1 d 3 -1 d 3 -1 d 3 -1 d 3 -1 d 3 -1 d 3 -1 d 3 -1 d 3 -1 d 3 -1 d 3 -1 d 3 -1 d 3 -1 d 3 -1 d 3 -1 d
 3 -1 d 4 -1 d 3 -1 d 3 -1 d 3 -1 d 3 X 3 -1 d 3 -1 d 3 -1 d 3 -1 d 3 -1 d 3 -1 d 3 -1 d 3 -1 d 3 -1 d 3 -1 d 3 -1 d 4 -1 d 3 -1 d 3 -1 d 3 -1 d 3 -1 d 3 -1 d 3 -1 d 3 -1 d 3 -1 d 3 -1 d 3 -1 d 3 -1 d 3 -1 d 3 -1 d 3 -1 d 3 -1 d s 235 1184 m 4 -1 d 3
 -1 d 3 -1 d 3 -1 d 3 -1 d 3 -1 d 3 -1 d 3 X 3 -1 d 3 -1 d 3 -1 d 3 -1 d 3 -1 d 3 -1 d 3 -1 d 3 -1 d 3 -1 d 4 -1 d 3 -1 d 3 -1 d 3 -1 d 3 -1 d 3 -1 d 3 -1 d 3 -1 d 3 -1 d 3 -1 d 3 -1 d 3 -1 d 3 -1 d 3 -1 d 3 -1 d 3 -1 d 4 -1 d 3 -1 d 3 -1 d 3 -1 d 3
 -1 d 3 -1 d 3 -1 d 3 -1 d 3 -1 d 3 X 3 -1 d 3 -1 d 3 -1 d 3 -1 d 3 -1 d 3 -1 d s 385 1137 m 4 -1 d s 0.49 0.6 0.82 c black 0.49 0.6 0.82 c
 gsave  408 305 23 1009 C 142.445 1293.4 t 0 r /Helvetica-Bold findfont 25.6831 sf 0 0 m (0.0 < E < 0.5 GeV) show NC gr  0.52 0.76 0.64 c black 0.52 0.76 0.64 c
 gsave  408 305 23 1009 C 122.502 1256.36 t 0 r /Helvetica-Bold findfont 25.6831 sf 0 0 m 
 228 214 200 193 178 171 156 149 134 126 119 105 91 77 69 55 47 40 25 17
(A = \2550.000, p = 1.000) K NC gr  1 0.6 1 c black 1 0.6 1 c
 gsave  408 305 23 1009 C 427.334 1122.46 t 90 r /Helvetica-Bold findfont 28.5368 sf 0 0 m (/dof=0.2) show NC gr  black 1 0.6 1 c
 gsave  408 305 23 1009 C 415.938 1111.07 t 90 r /Helvetica-Bold findfont 19.9758 sf 0 0 m (2) show NC gr  black 1 0.6 1 c
 gsave  408 305 23 1009 C 427.334 1093.97 t 90 r /Symbol findfont 28.5368 sf 0 0 m (c) show NC gr  black 3 lw 1 1 1 c 408 305 476 1009 bf black 1 1 1 c black 307 229 537 1055 bl 307 229 537 1055 bl 537 1055 m 307 X s 560 1059 m -4 Y s 688 1059 m -4 Y
 s 816 1059 m -4 Y s 560 1059 m -4 Y s 816 1059 m -4 Y s
 gsave  408 305 476 1009 C 549.836 1034.15 t 0 r /Helvetica findfont 22.8295 sf 0 0 m (0) show NC gr 
 gsave  408 305 476 1009 C 660.943 1034.15 t 0 r /Helvetica findfont 22.8295 sf 0 0 m (1000) show NC gr 
 gsave  408 305 476 1009 C 789.143 1034.15 t 0 r /Helvetica findfont 22.8295 sf 0 0 m (2000) show NC gr  537 1284 m 307 X s 560 1280 m 4 Y s 688 1280 m 4 Y s 816 1280 m 4 Y s 560 1280 m 4 Y s 816 1280 m 4 Y s 537 1055 m 229 Y s 543 1064 m -6 X s 540
 1070 m -3 X s 540 1075 m -3 X s 540 1081 m -3 X s 540 1086 m -3 X s 543 1092 m -6 X s 540 1098 m -3 X s 540 1103 m -3 X s 540 1109 m -3 X s 540 1114 m -3 X s 543 1120 m -6 X s 540 1125 m -3 X s 540 1131 m -3 X s 540 1136 m -3 X s 540 1142 m -3 X s
 543 1147 m -6 X s 540 1153 m -3 X s 540 1158 m -3 X s 540 1164 m -3 X s 540 1169 m -3 X s 543 1175 m -6 X s 540 1181 m -3 X s 540 1186 m -3 X s 540 1192 m -3 X s 540 1197 m -3 X s 543 1203 m -6 X s 540 1208 m -3 X s 540 1214 m -3 X s 540 1219 m -3 X
 s 540 1225 m -3 X s 543 1230 m -6 X s 540 1236 m -3 X s 540 1241 m -3 X s 540 1247 m -3 X s 540 1252 m -3 X s 543 1258 m -6 X s 543 1064 m -6 X s 540 1059 m -3 X s 543 1258 m -6 X s 540 1263 m -3 X s 540 1269 m -3 X s 540 1275 m -3 X s 540 1280 m -3
 X s
 gsave  408 305 476 1009 C 467.218 1056.94 t 0 r /Helvetica findfont 22.8295 sf 0 0 m (\2550.006) show NC gr 
 gsave  408 305 476 1009 C 467.218 1085.43 t 0 r /Helvetica findfont 22.8295 sf 0 0 m (\2550.005) show NC gr 
 gsave  408 305 476 1009 C 467.218 1113.92 t 0 r /Helvetica findfont 22.8295 sf 0 0 m (\2550.004) show NC gr 
 gsave  408 305 476 1009 C 467.218 1139.56 t 0 r /Helvetica findfont 22.8295 sf 0 0 m (\2550.003) show NC gr 
 gsave  408 305 476 1009 C 467.218 1168.04 t 0 r /Helvetica findfont 22.8295 sf 0 0 m (\2550.002) show NC gr 
 gsave  408 305 476 1009 C 470.067 1196.53 t 0 r /Helvetica findfont 22.8295 sf 0 0 m (\2550.001) show NC gr 
 gsave  408 305 476 1009 C 518.498 1222.17 t 0 r /Helvetica findfont 22.8295 sf 0 0 m (0) show NC gr 
 gsave  408 305 476 1009 C 478.614 1250.66 t 0 r /Helvetica findfont 22.8295 sf 0 0 m (0.001) show NC gr  844 1055 m 229 Y s 838 1064 m 6 X s 841 1070 m 3 X s 841 1075 m 3 X s 841 1081 m 3 X s 841 1086 m 3 X s 838 1092 m 6 X s 841 1098 m 3 X s 841
 1103 m 3 X s 841 1109 m 3 X s 841 1114 m 3 X s 838 1120 m 6 X s 841 1125 m 3 X s 841 1131 m 3 X s 841 1136 m 3 X s 841 1142 m 3 X s 838 1147 m 6 X s 841 1153 m 3 X s 841 1158 m 3 X s 841 1164 m 3 X s 841 1169 m 3 X s 838 1175 m 6 X s 841 1181 m 3 X
 s 841 1186 m 3 X s 841 1192 m 3 X s 841 1197 m 3 X s 838 1203 m 6 X s 841 1208 m 3 X s 841 1214 m 3 X s 841 1219 m 3 X s 841 1225 m 3 X s 838 1230 m 6 X s 841 1236 m 3 X s 841 1241 m 3 X s 841 1247 m 3 X s 841 1252 m 3 X s 838 1258 m 6 X s 838 1064
 m 6 X s 841 1059 m 3 X s 838 1258 m 6 X s 841 1263 m 3 X s 841 1269 m 3 X s 841 1275 m 3 X s 841 1280 m 3 X s /w 23 def /w2 {w 2 div} def /w3 {w 3 div} def 563 1201 565 1201 571 1201 624 1196 816 1137 5 { m21} R 563 1212 m 52 Y s 557 1264 m 11 X s
 563 1189 m -52 Y s 557 1137 m 11 X s 565 1213 m 52 Y s 560 1265 m 11 X s 565 1190 m -52 Y s 560 1138 m 11 X s 571 1212 m 52 Y s 565 1264 m 12 X s 571 1189 m -52 Y s 565 1137 m 12 X s 624 1208 m 52 Y s 618 1260 m 12 X s 624 1185 m -52 Y s 618 1133 m
 12 X s 816 1148 m 52 Y s 810 1200 m 11 X s 816 1126 m -52 Y s 810 1074 m 11 X s 9 lw 0.95 0.95 0.95 c black 539 1238 m 3 -1 d 3 -1 d 3 -1 d 3 -1 d 3 -1 d 3 -2 d 3 -1 d 3 -1 d 4 -1 d 3 -1 d 3 -2 d 3 -1 d 3 -1 d 3 -1 d 3 -1 d 3 -1 d 3 -2 d 3 -1 d 3 -1
 d 3 -1 d 3 -1 d 3 -1 d 3 -2 d 3 -1 d 4 -1 d 3 -1 d 3 -1 d 3 -1 d 3 -2 d 3 -1 d 3 -1 d 3 -1 d 3 -1 d 3 -1 d 3 -2 d 3 -1 d 3 -1 d 3 -1 d 3 -1 d 3 -1 d 3 -2 d 4 -1 d 3 -1 d 3 -1 d 3 -1 d 3 -1 d 3 -2 d 3 -1 d 3 -1 d s 689 1181 m 3 -1 d 3 -1 d 3 -1 d 3
 -2 d 3 -1 d 3 -1 d 3 -1 d 3 -1 d 4 -1 d 3 -2 d 3 -1 d 3 -1 d 3 -1 d 3 -1 d 3 -1 d 3 -2 d 3 -1 d 3 -1 d 3 -1 d 3 -1 d 3 -1 d 3 -2 d 3 -1 d 3 -1 d 4 -1 d 3 -1 d 3 -1 d 3 -2 d 3 -1 d 3 -1 d 3 -1 d 3 -1 d 3 -1 d 3 -2 d 3 -1 d 3 -1 d 3 -1 d 3 -1 d 3 -1 d
 3 -2 d 4 -1 d 3 -1 d 3 -1 d 3 -1 d 3 -1 d 3 -2 d 3 -1 d 3 -1 d 3 -1 d s 839 1124 m 3 -1 d s 0.49 0.6 0.82 c black 0.49 0.6 0.82 c
 gsave  408 305 476 1009 C 595.418 1293.4 t 0 r /Helvetica-Bold findfont 25.6831 sf 0 0 m (0.5 < E < 1.0 GeV) show NC gr  0.52 0.76 0.64 c black 0.52 0.76 0.64 c
 gsave  408 305 476 1009 C 575.476 1256.36 t 0 r /Helvetica-Bold findfont 25.6831 sf 0 0 m 
 228 214 200 193 178 171 156 149 133 126 119 105 91 77 69 55 47 39 25 17
(A = \2550.000, p = 1.000) K NC gr  1 0.6 1 c black 1 0.6 1 c
 gsave  408 305 476 1009 C 883.156 1122.46 t 90 r /Helvetica-Bold findfont 28.5368 sf 0 0 m (/dof=0.1) show NC gr  black 1 0.6 1 c
 gsave  408 305 476 1009 C 871.76 1111.07 t 90 r /Helvetica-Bold findfont 19.9758 sf 0 0 m (2) show NC gr  black 1 0.6 1 c
 gsave  408 305 476 1009 C 883.156 1093.97 t 90 r /Symbol findfont 28.5368 sf 0 0 m (c) show NC gr  black 3 lw 1 1 1 c 408 305 930 1009 bf black 1 1 1 c black 306 229 991 1055 bl 306 229 991 1055 bl 991 1055 m 306 X s 1014 1059 m -4 Y s 1141 1059 m
 -4 Y s 1269 1059 m -4 Y s 1014 1059 m -4 Y s 1269 1059 m -4 Y s
 gsave  408 305 930 1009 C 1002.81 1034.15 t 0 r /Helvetica findfont 22.8295 sf 0 0 m (0) show NC gr 
 gsave  408 305 930 1009 C 1113.92 1034.15 t 0 r /Helvetica findfont 22.8295 sf 0 0 m (1000) show NC gr 
 gsave  408 305 930 1009 C 1242.12 1034.15 t 0 r /Helvetica findfont 22.8295 sf 0 0 m (2000) show NC gr  991 1284 m 306 X s 1014 1280 m 4 Y s 1141 1280 m 4 Y s 1269 1280 m 4 Y s 1014 1280 m 4 Y s 1269 1280 m 4 Y s 991 1055 m 229 Y s 997 1064 m -6 X s
 994 1070 m -3 X s 994 1077 m -3 X s 994 1083 m -3 X s 994 1089 m -3 X s 997 1095 m -6 X s 994 1101 m -3 X s 994 1107 m -3 X s 994 1113 m -3 X s 994 1119 m -3 X s 997 1125 m -6 X s 994 1131 m -3 X s 994 1138 m -3 X s 994 1144 m -3 X s 994 1150 m -3 X
 s 997 1156 m -6 X s 994 1162 m -3 X s 994 1168 m -3 X s 994 1174 m -3 X s 994 1180 m -3 X s 997 1186 m -6 X s 994 1192 m -3 X s 994 1199 m -3 X s 994 1205 m -3 X s 994 1211 m -3 X s 997 1217 m -6 X s 994 1223 m -3 X s 994 1229 m -3 X s 994 1235 m -3
 X s 994 1241 m -3 X s 997 1247 m -6 X s 994 1253 m -3 X s 994 1260 m -3 X s 994 1266 m -3 X s 994 1272 m -3 X s 997 1278 m -6 X s 997 1064 m -6 X s 994 1058 m -3 X s 997 1278 m -6 X s
 gsave  408 305 930 1009 C 923.04 1056.94 t 0 r /Helvetica findfont 22.8295 sf 0 0 m (\2550.008) show NC gr 
 gsave  408 305 930 1009 C 923.04 1088.28 t 0 r /Helvetica findfont 22.8295 sf 0 0 m (\2550.007) show NC gr 
 gsave  408 305 930 1009 C 923.04 1119.61 t 0 r /Helvetica findfont 22.8295 sf 0 0 m (\2550.006) show NC gr 
 gsave  408 305 930 1009 C 923.04 1148.1 t 0 r /Helvetica findfont 22.8295 sf 0 0 m (\2550.005) show NC gr 
 gsave  408 305 930 1009 C 923.04 1179.44 t 0 r /Helvetica findfont 22.8295 sf 0 0 m (\2550.004) show NC gr 
 gsave  408 305 930 1009 C 923.04 1210.78 t 0 r /Helvetica findfont 22.8295 sf 0 0 m (\2550.003) show NC gr 
 gsave  408 305 930 1009 C 923.04 1239.27 t 0 r /Helvetica findfont 22.8295 sf 0 0 m (\2550.002) show NC gr 
 gsave  408 305 930 1009 C 925.889 1270.6 t 0 r /Helvetica findfont 22.8295 sf 0 0 m (\2550.001) show NC gr  1297 1055 m 229 Y s 1292 1064 m 5 X s 1294 1070 m 3 X s 1294 1077 m 3 X s 1294 1083 m 3 X s 1294 1089 m 3 X s 1292 1095 m 5 X s 1294 1101 m 3
 X s 1294 1107 m 3 X s 1294 1113 m 3 X s 1294 1119 m 3 X s 1292 1125 m 5 X s 1294 1131 m 3 X s 1294 1138 m 3 X s 1294 1144 m 3 X s 1294 1150 m 3 X s 1292 1156 m 5 X s 1294 1162 m 3 X s 1294 1168 m 3 X s 1294 1174 m 3 X s 1294 1180 m 3 X s 1292 1186 m
 5 X s 1294 1192 m 3 X s 1294 1199 m 3 X s 1294 1205 m 3 X s 1294 1211 m 3 X s 1292 1217 m 5 X s 1294 1223 m 3 X s 1294 1229 m 3 X s 1294 1235 m 3 X s 1294 1241 m 3 X s 1292 1247 m 5 X s 1294 1253 m 3 X s 1294 1260 m 3 X s 1294 1266 m 3 X s 1294 1272
 m 3 X s 1292 1278 m 5 X s 1292 1064 m 5 X s 1294 1058 m 3 X s 1292 1278 m 5 X s 1016 1188 1019 1188 1024 1189 1078 1195 1269 1143 5 { m21} R 1016 1200 m 58 Y s 1011 1258 m 11 X s 1016 1177 m -58 Y s 1011 1119 m 11 X s 1019 1199 m 59 Y s 1013 1258 m
 12 X s 1019 1176 m -58 Y s 1013 1118 m 12 X s 1024 1201 m 58 Y s 1019 1259 m 11 X s 1024 1178 m -58 Y s 1019 1120 m 11 X s 1078 1206 m 59 Y s 1072 1265 m 11 X s 1078 1184 m -59 Y s 1072 1125 m 11 X s 1269 1155 m 58 Y s 1264 1213 m 11 X s 1269 1132 m
 -58 Y s 1264 1074 m 11 X s 9 lw 0.95 0.95 0.95 c black 1045 1284 m 3 -1 d 3 -2 d 3 -2 d 3 -3 d 3 -2 d 3 -2 d 3 -3 d 3 -2 d 3 -2 d 3 -2 d 3 -3 d 3 -2 d 3 -2 d 3 -2 d 3 -3 d 4 -2 d 3 -2 d 3 -3 d 3 -2 d 3 -2 d 3 -2 d 3 -3 d 3 -2 d 3 -2 d 3 -2 d 3 -3 d
 3 -2 d 3 -2 d 3 -2 d 3 -3 d 3 -2 d 4 -2 d 3 -3 d 3 -2 d 3 -2 d 3 -2 d 3 -3 d 3 -2 d 3 -2 d 3 -2 d 3 -3 d 3 -2 d 3 -2 d 3 -3 d 3 -2 d 3 -2 d 3 -2 d 4 -3 d 3 -2 d s 1195 1174 m 3 -2 d 3 -2 d 3 -3 d 3 -2 d 3 -2 d 3 -3 d 3 -2 d 3 -2 d 3 -2 d 3 -3 d 3 -2
 d 3 -2 d 3 -2 d 3 -3 d 3 -2 d 4 -2 d 3 -3 d 3 -2 d 3 -2 d 3 -2 d 3 -3 d 3 -2 d 3 -2 d 3 -2 d 3 -3 d 3 -2 d 3 -2 d 3 -3 d 3 -2 d 3 -2 d 3 -2 d 4 -3 d 3 -2 d s 0.49 0.6 0.82 c black 0.49 0.6 0.82 c
 gsave  408 305 930 1009 C 1051.24 1293.4 t 0 r /Helvetica-Bold findfont 25.6831 sf 0 0 m (1.0 < E < 1.5 GeV) show NC gr  0.52 0.76 0.64 c black 0.52 0.76 0.64 c
 gsave  408 305 930 1009 C 1031.3 1256.36 t 0 r /Helvetica-Bold findfont 25.6831 sf 0 0 m 
 228 214 200 193 178 171 156 149 134 126 119 105 91 77 69 55 47 40 25 17
(A = \2550.000, p = 1.000) K NC gr  1 0.6 1 c black 1 0.6 1 c
 gsave  408 305 930 1009 C 1336.13 1122.46 t 90 r /Helvetica-Bold findfont 28.5368 sf 0 0 m (/dof=2.3) show NC gr  black 1 0.6 1 c
 gsave  408 305 930 1009 C 1324.73 1111.07 t 90 r /Helvetica-Bold findfont 19.9758 sf 0 0 m (2) show NC gr  black 1 0.6 1 c
 gsave  408 305 930 1009 C 1336.13 1093.97 t 90 r /Symbol findfont 28.5368 sf 0 0 m (c) show NC gr  black 3 lw 1 1 1 c 408 305 1383 1009 bf black 1 1 1 c black 306 229 1445 1055 bl 306 229 1445 1055 bl 1445 1055 m 306 X s 1467 1059 m -4 Y s 1595 1059
 m -4 Y s 1723 1059 m -4 Y s 1467 1059 m -4 Y s 1723 1059 m -4 Y s
 gsave  408 305 1383 1009 C 1455.78 1034.15 t 0 r /Helvetica findfont 22.8295 sf 0 0 m (0) show NC gr 
 gsave  408 305 1383 1009 C 1566.89 1034.15 t 0 r /Helvetica findfont 22.8295 sf 0 0 m (1000) show NC gr 
 gsave  408 305 1383 1009 C 1695.09 1034.15 t 0 r /Helvetica findfont 22.8295 sf 0 0 m (2000) show NC gr  1445 1284 m 306 X s 1467 1280 m 4 Y s 1595 1280 m 4 Y s 1723 1280 m 4 Y s 1467 1280 m 4 Y s 1723 1280 m 4 Y s 1445 1055 m 229 Y s 1450 1090 m -5
 X s 1447 1100 m -2 X s 1447 1110 m -2 X s 1447 1120 m -2 X s 1450 1131 m -5 X s 1447 1141 m -2 X s 1447 1151 m -2 X s 1447 1162 m -2 X s 1450 1172 m -5 X s 1447 1182 m -2 X s 1447 1193 m -2 X s 1447 1203 m -2 X s 1450 1213 m -5 X s 1447 1223 m -2 X
 s 1447 1234 m -2 X s 1447 1244 m -2 X s 1450 1254 m -5 X s 1450 1090 m -5 X s 1447 1079 m -2 X s 1447 1069 m -2 X s 1447 1059 m -2 X s 1450 1254 m -5 X s 1447 1265 m -2 X s 1447 1275 m -2 X s
 gsave  408 305 1383 1009 C 1376.01 1082.58 t 0 r /Helvetica findfont 22.8295 sf 0 0 m (\2550.004) show NC gr 
 gsave  408 305 1383 1009 C 1376.01 1122.46 t 0 r /Helvetica findfont 22.8295 sf 0 0 m (\2550.002) show NC gr 
 gsave  408 305 1383 1009 C 1427.29 1165.2 t 0 r /Helvetica findfont 22.8295 sf 0 0 m (0) show NC gr 
 gsave  408 305 1383 1009 C 1384.56 1205.08 t 0 r /Helvetica findfont 22.8295 sf 0 0 m (0.002) show NC gr 
 gsave  408 305 1383 1009 C 1384.56 1247.81 t 0 r /Helvetica findfont 22.8295 sf 0 0 m (0.004) show NC gr  1751 1055 m 229 Y s 1745 1090 m 6 X s 1748 1100 m 3 X s 1748 1110 m 3 X s 1748 1120 m 3 X s 1745 1131 m 6 X s 1748 1141 m 3 X s 1748 1151 m 3 X
 s 1748 1162 m 3 X s 1745 1172 m 6 X s 1748 1182 m 3 X s 1748 1193 m 3 X s 1748 1203 m 3 X s 1745 1213 m 6 X s 1748 1223 m 3 X s 1748 1234 m 3 X s 1748 1244 m 3 X s 1745 1254 m 6 X s 1745 1090 m 6 X s 1748 1079 m 3 X s 1748 1069 m 3 X s 1748 1059 m 3
 X s 1745 1254 m 6 X s 1748 1265 m 3 X s 1748 1275 m 3 X s 1470 1214 1473 1216 1478 1215 1531 1210 1723 1122 5 { m21} R 1470 1225 m 37 Y s 1464 1262 m 12 X s 1470 1202 m -37 Y s 1464 1165 m 12 X s 1473 1227 m 38 Y s 1467 1265 m 11 X s 1473 1205 m -38
 Y s 1467 1167 m 11 X s 1478 1226 m 38 Y s 1472 1264 m 12 X s 1478 1204 m -38 Y s 1472 1166 m 12 X s 1531 1222 m 37 Y s 1525 1259 m 12 X s 1531 1199 m -37 Y s 1525 1162 m 12 X s 1723 1134 m 36 Y s 1717 1170 m 12 X s 1723 1111 m -37 Y s 1717 1074 m 12
 X s 1 0 0 c 9 lw 0.95 0.95 0.95 c black 1 0 0 c 1446 1172 m 43 X 3 -1 d 18 X 3 -1 d 10 X 3 -1 d 9 X 3 -1 d 6 X 3 -1 d 6 X 3 -1 d 3 X 3 -1 d 7 X 3 -1 d 3 X 3 -1 d 3 X 3 -1 d 3 X 3 -1 d 3 X 3 -1 d s 1596 1160 m 3 -1 d 3 X 3 -1 d 3 X 3 -1 d 3 -1 d 4 X
 3 -1 d 3 -1 d 3 X 3 -1 d 3 -1 d 3 -1 d 3 X 3 -1 d 3 -1 d 3 -1 d 3 X 3 -1 d 3 -1 d 3 -1 d 3 -1 d 3 -1 d 4 -1 d 3 -1 d 3 X 3 -1 d 3 -1 d 3 -1 d 3 -1 d 3 -1 d 3 -1 d 3 -1 d 3 -1 d 3 -1 d 3 -1 d 3 -1 d 3 -1 d 3 -2 d 4 -1 d 3 -1 d 3 -1 d 3 -1 d 3 -1 d 3
 -1 d 3 -2 d 3 -1 d 3 -1 d 3 -1 d s 1746 1116 m 3 -1 d s 0.49 0.6 0.82 c black 0.49 0.6 0.82 c
 gsave  408 305 1383 1009 C 1504.21 1293.4 t 0 r /Helvetica-Bold findfont 25.6831 sf 0 0 m (1.5 < E < 2.0 GeV) show NC gr  0.52 0.76 0.64 c black 0.52 0.76 0.64 c
 gsave  408 305 1383 1009 C 1484.27 1256.36 t 0 r /Helvetica-Bold findfont 25.6831 sf 0 0 m 
 228 214 200 193 178 171 156 149 133 126 119 105 91 77 69 55 47 39 25 17
(A = \2550.000, p = 2.000) K NC gr  1 0.6 1 c black 1 0.6 1 c
 gsave  408 305 1383 1009 C 1789.1 1122.46 t 90 r /Helvetica-Bold findfont 28.5368 sf 0 0 m (/dof=0.8) show NC gr  black 1 0.6 1 c
 gsave  408 305 1383 1009 C 1777.71 1111.07 t 90 r /Helvetica-Bold findfont 19.9758 sf 0 0 m (2) show NC gr  black 1 0.6 1 c
 gsave  408 305 1383 1009 C 1789.1 1093.97 t 90 r /Symbol findfont 28.5368 sf 0 0 m (c) show NC gr  black 3 lw 1 1 1 c 408 305 1837 1009 bf black 1 1 1 c black 306 229 1898 1055 bl 306 229 1898 1055 bl 1898 1055 m 306 X s 1921 1059 m -4 Y s 2049 1059
 m -4 Y s 2176 1059 m -4 Y s 1921 1059 m -4 Y s 2176 1059 m -4 Y s
 gsave  408 305 1837 1009 C 1911.61 1034.15 t 0 r /Helvetica findfont 22.8295 sf 0 0 m (0) show NC gr 
 gsave  408 305 1837 1009 C 2022.71 1034.15 t 0 r /Helvetica findfont 22.8295 sf 0 0 m (1000) show NC gr 
 gsave  408 305 1837 1009 C 2148.06 1034.15 t 0 r /Helvetica findfont 22.8295 sf 0 0 m (2000) show NC gr  1898 1284 m 306 X s 1921 1280 m 4 Y s 2049 1280 m 4 Y s 2176 1280 m 4 Y s 1921 1280 m 4 Y s 2176 1280 m 4 Y s 1898 1055 m 229 Y s 1904 1081 m -6
 X s 1901 1086 m -3 X s 1901 1091 m -3 X s 1901 1097 m -3 X s 1901 1102 m -3 X s 1904 1108 m -6 X s 1901 1113 m -3 X s 1901 1118 m -3 X s 1901 1124 m -3 X s 1901 1129 m -3 X s 1904 1135 m -6 X s 1901 1140 m -3 X s 1901 1146 m -3 X s 1901 1151 m -3 X
 s 1901 1156 m -3 X s 1904 1162 m -6 X s 1901 1167 m -3 X s 1901 1173 m -3 X s 1901 1178 m -3 X s 1901 1183 m -3 X s 1904 1189 m -6 X s 1901 1194 m -3 X s 1901 1200 m -3 X s 1901 1205 m -3 X s 1901 1210 m -3 X s 1904 1216 m -6 X s 1901 1221 m -3 X s
 1901 1227 m -3 X s 1901 1232 m -3 X s 1901 1237 m -3 X s 1904 1243 m -6 X s 1901 1248 m -3 X s 1901 1254 m -3 X s 1901 1259 m -3 X s 1901 1264 m -3 X s 1904 1270 m -6 X s 1904 1081 m -6 X s 1901 1075 m -3 X s 1901 1070 m -3 X s 1901 1064 m -3 X s
 1901 1059 m -3 X s 1904 1270 m -6 X s 1901 1275 m -3 X s 1901 1281 m -3 X s
 gsave  408 305 1837 1009 C 1828.99 1074.03 t 0 r /Helvetica findfont 22.8295 sf 0 0 m (\2550.006) show NC gr 
 gsave  408 305 1837 1009 C 1828.99 1099.67 t 0 r /Helvetica findfont 22.8295 sf 0 0 m (\2550.005) show NC gr 
 gsave  408 305 1837 1009 C 1828.99 1128.16 t 0 r /Helvetica findfont 22.8295 sf 0 0 m (\2550.004) show NC gr 
 gsave  408 305 1837 1009 C 1828.99 1153.8 t 0 r /Helvetica findfont 22.8295 sf 0 0 m (\2550.003) show NC gr 
 gsave  408 305 1837 1009 C 1828.99 1182.29 t 0 r /Helvetica findfont 22.8295 sf 0 0 m (\2550.002) show NC gr 
 gsave  408 305 1837 1009 C 1831.84 1207.93 t 0 r /Helvetica findfont 22.8295 sf 0 0 m (\2550.001) show NC gr 
 gsave  408 305 1837 1009 C 1880.27 1236.42 t 0 r /Helvetica findfont 22.8295 sf 0 0 m (0) show NC gr 
 gsave  408 305 1837 1009 C 1840.38 1262.06 t 0 r /Helvetica findfont 22.8295 sf 0 0 m (0.001) show NC gr  2204 1055 m 229 Y s 2199 1081 m 5 X s 2201 1086 m 3 X s 2201 1091 m 3 X s 2201 1097 m 3 X s 2201 1102 m 3 X s 2199 1108 m 5 X s 2201 1113 m 3 X
 s 2201 1118 m 3 X s 2201 1124 m 3 X s 2201 1129 m 3 X s 2199 1135 m 5 X s 2201 1140 m 3 X s 2201 1146 m 3 X s 2201 1151 m 3 X s 2201 1156 m 3 X s 2199 1162 m 5 X s 2201 1167 m 3 X s 2201 1173 m 3 X s 2201 1178 m 3 X s 2201 1183 m 3 X s 2199 1189 m 5
 X s 2201 1194 m 3 X s 2201 1200 m 3 X s 2201 1205 m 3 X s 2201 1210 m 3 X s 2199 1216 m 5 X s 2201 1221 m 3 X s 2201 1227 m 3 X s 2201 1232 m 3 X s 2201 1237 m 3 X s 2199 1243 m 5 X s 2201 1248 m 3 X s 2201 1254 m 3 X s 2201 1259 m 3 X s 2201 1264 m
 3 X s 2199 1270 m 5 X s 2199 1081 m 5 X s 2201 1075 m 3 X s 2201 1070 m 3 X s 2201 1064 m 3 X s 2201 1059 m 3 X s 2199 1270 m 5 X s 2201 1275 m 3 X s 2201 1281 m 3 X s 1923 1195 1926 1192 1931 1191 1985 1199 2176 1139 5 { m21} R 1923 1206 m 55 Y s
 1918 1261 m 11 X s 1923 1184 m -55 Y s 1918 1129 m 11 X s 1926 1204 m 54 Y s 1920 1258 m 12 X s 1926 1181 m -54 Y s 1920 1127 m 12 X s 1931 1202 m 55 Y s 1926 1257 m 11 X s 1931 1180 m -55 Y s 1926 1125 m 11 X s 1985 1210 m 55 Y s 1979 1265 m 11 X s
 1985 1187 m -54 Y s 1979 1133 m 11 X s 2176 1151 m 54 Y s 2171 1205 m 11 X s 2176 1128 m -54 Y s 2171 1074 m 11 X s 9 lw 0.95 0.95 0.95 c black 1900 1252 m 3 -1 d 3 -2 d 3 -1 d 3 -1 d 3 -2 d 3 -1 d 3 -1 d 3 -2 d 3 -1 d 3 -1 d 3 -2 d 3 -1 d 3 -1 d 3
 -2 d 4 -1 d 3 -1 d 3 -2 d 3 -1 d 3 -1 d 3 -2 d 3 -1 d 3 -1 d 3 -2 d 3 -1 d 3 -1 d 3 -2 d 3 -1 d 3 -1 d 3 -2 d 3 -1 d 4 -1 d 3 -2 d 3 -1 d 3 -1 d 3 -1 d 3 -2 d 3 -1 d 3 -1 d 3 -2 d 3 -1 d 3 -1 d 3 -2 d 3 -1 d 3 -1 d 3 -2 d 3 -1 d 3 -1 d 4 -2 d 3 -1 d
 s 2050 1187 m 3 -1 d 3 -2 d 3 -1 d 3 -1 d 3 -2 d 3 -1 d 3 -1 d 3 -2 d 3 -1 d 3 -1 d 3 -2 d 3 -1 d 3 -1 d 3 -2 d 4 -1 d 3 -1 d 3 -2 d 3 -1 d 3 -1 d 3 -2 d 3 -1 d 3 -1 d 3 -2 d 3 -1 d 3 -1 d 3 -2 d 3 -1 d 3 -1 d 3 -2 d 3 -1 d 4 -1 d 3 -2 d 3 -1 d 3 -1
 d 3 -2 d 3 -1 d 3 -1 d 3 -2 d 3 -1 d 3 -1 d 3 -2 d 3 -1 d 3 -1 d 3 -2 d 3 -1 d 3 -1 d 4 -2 d 3 -1 d 3 -1 d s 2200 1122 m 3 -2 d s 0.49 0.6 0.82 c black 0.49 0.6 0.82 c
 gsave  408 305 1837 1009 C 1957.19 1293.4 t 0 r /Helvetica-Bold findfont 25.6831 sf 0 0 m (2.0 < E < 2.5 GeV) show NC gr  0.52 0.76 0.64 c black 0.52 0.76 0.64 c
 gsave  408 305 1837 1009 C 1937.25 1256.36 t 0 r /Helvetica-Bold findfont 25.6831 sf 0 0 m 
 228 214 200 193 178 171 156 149 134 126 119 105 91 77 69 55 47 40 25 17
(A = \2550.000, p = 1.000) K NC gr  1 0.6 1 c black 1 0.6 1 c
 gsave  408 305 1837 1009 C 2242.08 1122.46 t 90 r /Helvetica-Bold findfont 28.5368 sf 0 0 m (/dof=0.4) show NC gr  black 1 0.6 1 c
 gsave  408 305 1837 1009 C 2230.68 1111.07 t 90 r /Helvetica-Bold findfont 19.9758 sf 0 0 m (2) show NC gr  black 1 0.6 1 c
 gsave  408 305 1837 1009 C 2242.08 1093.97 t 90 r /Symbol findfont 28.5368 sf 0 0 m (c) show NC gr  black 3 lw 1 1 1 c 408 305 23 677 bf black 1 1 1 c black 306 229 84 723 bl 306 229 84 723 bl 84 723 m 306 X s 107 727 m -4 Y s 234 727 m -4 Y s 362
 727 m -4 Y s 107 727 m -4 Y s 362 727 m -4 Y s
 gsave  408 305 23 677 C 96.8623 703.676 t 0 r /Helvetica findfont 22.8295 sf 0 0 m (0) show NC gr 
 gsave  408 305 23 677 C 207.969 703.676 t 0 r /Helvetica findfont 22.8295 sf 0 0 m (1000) show NC gr 
 gsave  408 305 23 677 C 336.169 703.676 t 0 r /Helvetica findfont 22.8295 sf 0 0 m (2000) show NC gr  84 952 m 306 X s 107 948 m 4 Y s 234 948 m 4 Y s 362 948 m 4 Y s 107 948 m 4 Y s 362 948 m 4 Y s 84 723 m 229 Y s 89 747 m -5 X s 87 759 m -3 X s
 87 770 m -3 X s 87 781 m -3 X s 89 792 m -5 X s 87 803 m -3 X s 87 814 m -3 X s 87 825 m -3 X s 89 836 m -5 X s 87 847 m -3 X s 87 858 m -3 X s 87 870 m -3 X s 89 881 m -5 X s 87 892 m -3 X s 87 903 m -3 X s 87 914 m -3 X s 89 925 m -5 X s 89 747 m
 -5 X s 87 736 m -3 X s 87 725 m -3 X s 89 925 m -5 X s 87 936 m -3 X s 87 947 m -3 X s
 gsave  408 305 23 677 C 14.2445 740.711 t 0 r /Helvetica findfont 22.8295 sf 0 0 m (\2550.002) show NC gr 
 gsave  408 305 23 677 C 65.5245 783.445 t 0 r /Helvetica findfont 22.8295 sf 0 0 m (0) show NC gr 
 gsave  408 305 23 677 C 22.7911 829.027 t 0 r /Helvetica findfont 22.8295 sf 0 0 m (0.002) show NC gr 
 gsave  408 305 23 677 C 22.7911 874.609 t 0 r /Helvetica findfont 22.8295 sf 0 0 m (0.004) show NC gr 
 gsave  408 305 23 677 C 22.7911 917.343 t 0 r /Helvetica findfont 22.8295 sf 0 0 m (0.006) show NC gr  390 723 m 229 Y s 385 747 m 5 X s 387 759 m 3 X s 387 770 m 3 X s 387 781 m 3 X s 385 792 m 5 X s 387 803 m 3 X s 387 814 m 3 X s 387 825 m 3 X s
 385 836 m 5 X s 387 847 m 3 X s 387 858 m 3 X s 387 870 m 3 X s 385 881 m 5 X s 387 892 m 3 X s 387 903 m 3 X s 387 914 m 3 X s 385 925 m 5 X s 385 747 m 5 X s 387 736 m 3 X s 387 725 m 3 X s 385 925 m 5 X s 387 936 m 3 X s 387 947 m 3 X s /w 22 def
 /w2 {w 2 div} def /w3 {w 3 div} def 109 804 112 806 117 804 170 799 362 876 5 { m21} R 109 815 m 46 Y s 104 861 m 11 X s 109 792 m -46 Y s 104 746 m 11 X s 112 817 m 46 Y s 106 863 m 12 X s 112 794 m -45 Y s 106 749 m 12 X s 117 815 m 46 Y s 112 861
 m 11 X s 117 792 m -45 Y s 112 747 m 11 X s 170 810 m 46 Y s 165 856 m 11 X s 170 788 m -46 Y s 165 742 m 11 X s 362 887 m 46 Y s 357 933 m 11 X s 362 864 m -46 Y s 357 818 m 11 X s 1 0 0 c 9 lw 0.95 0.95 0.95 c black 1 0 0 c 85 792 m 43 X 3 1 d 10
 X 3 1 d 6 X 3 1 d 6 X 3 1 d 3 X 3 1 d 3 X 3 1 d 3 X 3 1 d 3 X 3 1 d 4 1 d 3 X 3 1 d 3 1 d 3 X 3 1 d 3 1 d 3 1 d 3 1 d 3 1 d 3 X 3 1 d 3 1 d 3 1 d 3 1 d 3 1 d s 235 813 m 4 1 d 3 1 d 3 1 d 3 1 d 3 2 d 3 1 d 3 1 d 3 1 d 3 1 d 3 1 d 3 2 d 3 1 d 3 1 d 3
 2 d 3 1 d 3 1 d 3 2 d 4 1 d 3 2 d 3 1 d 3 2 d 3 1 d 3 2 d 3 1 d 3 2 d 3 2 d 3 1 d 3 2 d 3 2 d 3 1 d 3 2 d 3 2 d 3 2 d 4 2 d 3 1 d 3 2 d 3 2 d 3 2 d 3 2 d 3 2 d 3 2 d 3 2 d 3 2 d 3 2 d 3 2 d 3 2 d 3 2 d 3 2 d 3 3 d s 385 892 m 4 2 d s 0.49 0.6 0.82 c
 black 0.49 0.6 0.82 c
 gsave  408 305 23 677 C 142.445 960.076 t 0 r /Helvetica-Bold findfont 25.6831 sf 0 0 m (2.5 < E < 3.0 GeV) show NC gr  0.52 0.76 0.64 c black 0.52 0.76 0.64 c
 gsave  408 305 23 677 C 128.2 923.04 t 0 r /Helvetica-Bold findfont 25.6831 sf 0 0 m 
 220 206 192 185 170 163 148 141 126 118 111 97 83 69 61 47 40 25 18
(A = 0.000, p = 2.000) K NC gr  1 0.6 1 c black 1 0.6 1 c
 gsave  408 305 23 677 C 427.334 791.991 t 90 r /Helvetica-Bold findfont 28.5368 sf 0 0 m (/dof=0.0) show NC gr  black 1 0.6 1 c
 gsave  408 305 23 677 C 415.938 780.596 t 90 r /Helvetica-Bold findfont 19.9758 sf 0 0 m (2) show NC gr  black 1 0.6 1 c
 gsave  408 305 23 677 C 427.334 763.503 t 90 r /Symbol findfont 28.5368 sf 0 0 m (c) show NC gr  black 3 lw 1 1 1 c 408 305 476 677 bf black 1 1 1 c black 307 229 537 723 bl 307 229 537 723 bl 537 723 m 307 X s 560 727 m -4 Y s 688 727 m -4 Y s 816
 727 m -4 Y s 560 727 m -4 Y s 816 727 m -4 Y s
 gsave  408 305 476 677 C 549.836 703.676 t 0 r /Helvetica findfont 22.8295 sf 0 0 m (0) show NC gr 
 gsave  408 305 476 677 C 660.943 703.676 t 0 r /Helvetica findfont 22.8295 sf 0 0 m (1000) show NC gr 
 gsave  408 305 476 677 C 789.143 703.676 t 0 r /Helvetica findfont 22.8295 sf 0 0 m (2000) show NC gr  537 952 m 307 X s 560 948 m 4 Y s 688 948 m 4 Y s 816 948 m 4 Y s 560 948 m 4 Y s 816 948 m 4 Y s 537 723 m 229 Y s 543 756 m -6 X s 540 764 m -3
 X s 540 772 m -3 X s 540 781 m -3 X s 540 789 m -3 X s 543 797 m -6 X s 540 805 m -3 X s 540 813 m -3 X s 540 822 m -3 X s 540 830 m -3 X s 543 838 m -6 X s 540 846 m -3 X s 540 854 m -3 X s 540 863 m -3 X s 540 871 m -3 X s 543 879 m -6 X s 540 887
 m -3 X s 540 895 m -3 X s 540 904 m -3 X s 540 912 m -3 X s 543 920 m -6 X s 543 756 m -6 X s 540 748 m -3 X s 540 739 m -3 X s 540 731 m -3 X s 540 723 m -3 X s 543 920 m -6 X s 540 928 m -3 X s 540 936 m -3 X s 540 945 m -3 X s
 gsave  408 305 476 677 C 518.498 749.258 t 0 r /Helvetica findfont 22.8295 sf 0 0 m (0) show NC gr 
 gsave  408 305 476 677 C 475.765 789.143 t 0 r /Helvetica findfont 22.8295 sf 0 0 m (0.005) show NC gr 
 gsave  408 305 476 677 C 490.009 831.876 t 0 r /Helvetica findfont 22.8295 sf 0 0 m (0.01) show NC gr 
 gsave  408 305 476 677 C 475.765 871.76 t 0 r /Helvetica findfont 22.8295 sf 0 0 m (0.015) show NC gr 
 gsave  408 305 476 677 C 487.16 911.645 t 0 r /Helvetica findfont 22.8295 sf 0 0 m (0.02) show NC gr  844 723 m 229 Y s 838 756 m 6 X s 841 764 m 3 X s 841 772 m 3 X s 841 781 m 3 X s 841 789 m 3 X s 838 797 m 6 X s 841 805 m 3 X s 841 813 m 3 X s
 841 822 m 3 X s 841 830 m 3 X s 838 838 m 6 X s 841 846 m 3 X s 841 854 m 3 X s 841 863 m 3 X s 841 871 m 3 X s 838 879 m 6 X s 841 887 m 3 X s 841 895 m 3 X s 841 904 m 3 X s 841 912 m 3 X s 838 920 m 6 X s 838 756 m 6 X s 841 748 m 3 X s 841 739 m
 3 X s 841 731 m 3 X s 841 723 m 3 X s 838 920 m 6 X s 841 928 m 3 X s 841 936 m 3 X s 841 945 m 3 X s /w 23 def /w2 {w 2 div} def /w3 {w 3 div} def 563 765 565 766 571 767 624 774 816 909 5 { m21} R 563 776 m 12 Y s 557 788 m 11 X s 563 754 m -12 Y
 s 557 742 m 11 X s 565 777 m 12 Y s 560 789 m 11 X s 565 754 m -11 Y s 560 743 m 11 X s 571 779 m 11 Y s 565 790 m 12 X s 571 756 m -12 Y s 565 744 m 12 X s 624 786 m 11 Y s 618 797 m 12 X s 624 763 m -12 Y s 618 751 m 12 X s 816 921 m 12 Y s 810
 933 m 11 X s 816 898 m -13 Y s 810 885 m 11 X s 1 0 0 c 9 lw 0.95 0.95 0.95 c black 1 0 0 c 539 757 m 3 X 3 -1 d 31 X 3 1 d 6 X 3 1 d 3 X 3 1 d 3 X 3 1 d 3 X 3 1 d 3 1 d 3 X 4 1 d 3 1 d 3 1 d 3 1 d 3 1 d 3 1 d 3 1 d 3 1 d 3 1 d 3 1 d 3 1 d 3 2 d 3 1
 d 3 1 d 3 2 d 3 1 d 3 2 d 4 1 d 3 2 d 3 1 d 3 2 d 3 2 d 3 1 d 3 2 d 3 2 d s 689 795 m 3 2 d 3 2 d 3 2 d 3 2 d 3 2 d 3 2 d 3 2 d 3 2 d 4 2 d 3 3 d 3 2 d 3 2 d 3 3 d 3 2 d 3 3 d 3 2 d 3 3 d 3 3 d 3 2 d 3 3 d 3 3 d 3 3 d 3 2 d 3 3 d 4 3 d 3 3 d 3 3 d 3
 3 d 3 3 d 3 4 d 3 3 d 3 3 d 3 3 d 3 4 d 3 3 d 3 3 d 3 4 d 3 3 d 3 4 d 3 4 d 4 3 d 3 4 d 3 4 d 3 3 d 3 4 d 3 4 d 3 4 d 3 4 d 3 4 d s 839 939 m 3 4 d s 0.49 0.6 0.82 c black 0.49 0.6 0.82 c
 gsave  408 305 476 677 C 595.418 960.076 t 0 r /Helvetica-Bold findfont 25.6831 sf 0 0 m (3.0 < E < 3.5 GeV) show NC gr  0.52 0.76 0.64 c black 0.52 0.76 0.64 c
 gsave  408 305 476 677 C 581.174 923.04 t 0 r /Helvetica-Bold findfont 25.6831 sf 0 0 m 
 220 206 192 185 170 163 148 141 125 118 111 97 83 69 61 47 40 25 18
(A = 0.000, p = 2.000) K NC gr  1 0.6 1 c black 1 0.6 1 c
 gsave  408 305 476 677 C 883.156 791.991 t 90 r /Helvetica-Bold findfont 28.5368 sf 0 0 m (/dof=0.2) show NC gr  black 1 0.6 1 c
 gsave  408 305 476 677 C 871.76 780.596 t 90 r /Helvetica-Bold findfont 19.9758 sf 0 0 m (2) show NC gr  black 1 0.6 1 c
 gsave  408 305 476 677 C 883.156 763.503 t 90 r /Symbol findfont 28.5368 sf 0 0 m (c) show NC gr  black 3 lw 1 1 1 c 408 305 930 677 bf black 1 1 1 c black 306 229 991 723 bl 306 229 991 723 bl 991 723 m 306 X s 1014 727 m -4 Y s 1141 727 m -4 Y s
 1269 727 m -4 Y s 1014 727 m -4 Y s 1269 727 m -4 Y s
 gsave  408 305 930 677 C 1002.81 703.676 t 0 r /Helvetica findfont 22.8295 sf 0 0 m (0) show NC gr 
 gsave  408 305 930 677 C 1113.92 703.676 t 0 r /Helvetica findfont 22.8295 sf 0 0 m (1000) show NC gr 
 gsave  408 305 930 677 C 1242.12 703.676 t 0 r /Helvetica findfont 22.8295 sf 0 0 m (2000) show NC gr  991 952 m 306 X s 1014 948 m 4 Y s 1141 948 m 4 Y s 1269 948 m 4 Y s 1014 948 m 4 Y s 1269 948 m 4 Y s 991 723 m 229 Y s 997 746 m -6 X s 994 751
 m -3 X s 994 756 m -3 X s 994 761 m -3 X s 994 766 m -3 X s 997 771 m -6 X s 994 776 m -3 X s 994 781 m -3 X s 994 787 m -3 X s 994 792 m -3 X s 997 797 m -6 X s 994 802 m -3 X s 994 807 m -3 X s 994 812 m -3 X s 994 817 m -3 X s 997 822 m -6 X s
 994 827 m -3 X s 994 832 m -3 X s 994 837 m -3 X s 994 842 m -3 X s 997 847 m -6 X s 994 852 m -3 X s 994 857 m -3 X s 994 862 m -3 X s 994 867 m -3 X s 997 872 m -6 X s 994 877 m -3 X s 994 882 m -3 X s 994 887 m -3 X s 994 892 m -3 X s 997 897 m
 -6 X s 994 902 m -3 X s 994 907 m -3 X s 994 913 m -3 X s 994 918 m -3 X s 997 923 m -6 X s 994 928 m -3 X s 994 933 m -3 X s 994 938 m -3 X s 994 943 m -3 X s 997 948 m -6 X s 997 746 m -6 X s 994 741 m -3 X s 994 736 m -3 X s 994 731 m -3 X s 994
 726 m -3 X s 997 948 m -6 X s
 gsave  408 305 930 677 C 974.32 737.863 t 0 r /Helvetica findfont 22.8295 sf 0 0 m (0) show NC gr 
 gsave  408 305 930 677 C 931.587 763.503 t 0 r /Helvetica findfont 22.8295 sf 0 0 m (0.005) show NC gr 
 gsave  408 305 930 677 C 945.832 789.143 t 0 r /Helvetica findfont 22.8295 sf 0 0 m (0.01) show NC gr 
 gsave  408 305 930 677 C 931.587 814.783 t 0 r /Helvetica findfont 22.8295 sf 0 0 m (0.015) show NC gr 
 gsave  408 305 930 677 C 942.983 840.423 t 0 r /Helvetica findfont 22.8295 sf 0 0 m (0.02) show NC gr 
 gsave  408 305 930 677 C 931.587 866.063 t 0 r /Helvetica findfont 22.8295 sf 0 0 m (0.025) show NC gr 
 gsave  408 305 930 677 C 942.983 888.854 t 0 r /Helvetica findfont 22.8295 sf 0 0 m (0.03) show NC gr 
 gsave  408 305 930 677 C 931.587 914.494 t 0 r /Helvetica findfont 22.8295 sf 0 0 m (0.035) show NC gr 
 gsave  408 305 930 677 C 942.983 940.134 t 0 r /Helvetica findfont 22.8295 sf 0 0 m (0.04) show NC gr  1297 723 m 229 Y s 1292 746 m 5 X s 1294 751 m 3 X s 1294 756 m 3 X s 1294 761 m 3 X s 1294 766 m 3 X s 1292 771 m 5 X s 1294 776 m 3 X s 1294 781
 m 3 X s 1294 787 m 3 X s 1294 792 m 3 X s 1292 797 m 5 X s 1294 802 m 3 X s 1294 807 m 3 X s 1294 812 m 3 X s 1294 817 m 3 X s 1292 822 m 5 X s 1294 827 m 3 X s 1294 832 m 3 X s 1294 837 m 3 X s 1294 842 m 3 X s 1292 847 m 5 X s 1294 852 m 3 X s
 1294 857 m 3 X s 1294 862 m 3 X s 1294 867 m 3 X s 1292 872 m 5 X s 1294 877 m 3 X s 1294 882 m 3 X s 1294 887 m 3 X s 1294 892 m 3 X s 1292 897 m 5 X s 1294 902 m 3 X s 1294 907 m 3 X s 1294 913 m 3 X s 1294 918 m 3 X s 1292 923 m 5 X s 1294 928 m
 3 X s 1294 933 m 3 X s 1294 938 m 3 X s 1294 943 m 3 X s 1292 948 m 5 X s 1292 746 m 5 X s 1294 741 m 3 X s 1294 736 m 3 X s 1294 731 m 3 X s 1294 726 m 3 X s 1292 948 m 5 X s 1016 760 1019 759 1024 759 1078 773 1269 915 5 { m21} R 1016 771 m 6 Y s
 1011 777 m 11 X s 1016 748 m -5 Y s 1011 743 m 11 X s 1019 770 m 6 Y s 1013 776 m 12 X s 1019 747 m -5 Y s 1013 742 m 12 X s 1024 770 m 6 Y s 1019 776 m 11 X s 1024 748 m -6 Y s 1019 742 m 11 X s 1078 784 m 5 Y s 1072 789 m 11 X s 1078 761 m -5 Y s
 1072 756 m 11 X s 1269 927 m 6 Y s 1264 933 m 11 X s 1269 904 m -6 Y s 1264 898 m 11 X s 9 lw 0.95 0.95 0.95 c black 993 733 m 3 2 d 3 2 d 3 1 d 3 2 d 3 2 d 3 2 d 3 2 d 3 2 d 3 2 d 3 2 d 3 2 d 3 2 d 3 2 d 3 2 d 3 2 d 4 2 d 3 2 d 3 2 d 3 2 d 3 2 d 3
 2 d 3 2 d 3 2 d 3 2 d 3 2 d 3 2 d 3 2 d 3 2 d 3 2 d 3 2 d 3 2 d 3 2 d 4 2 d 3 2 d 3 2 d 3 2 d 3 2 d 3 2 d 3 2 d 3 2 d 3 2 d 3 2 d 3 2 d 3 2 d 3 2 d 3 2 d 3 2 d 3 2 d 4 2 d s 1143 830 m 3 2 d 3 2 d 3 2 d 3 2 d 3 2 d 3 2 d 3 2 d 3 2 d 3 2 d 3 2 d 3 2
 d 3 2 d 3 1 d 3 2 d 3 2 d 4 2 d 3 2 d 3 2 d 3 2 d 3 2 d 3 2 d 3 2 d 3 2 d 3 2 d 3 2 d 3 2 d 3 2 d 3 2 d 3 2 d 3 2 d 3 2 d 3 2 d 4 2 d 3 2 d 3 2 d 3 2 d 3 2 d 3 2 d 3 2 d 3 2 d 3 2 d 3 2 d 3 2 d 3 2 d 3 2 d 3 2 d 3 2 d 3 2 d 4 2 d s 1293 927 m 3 2 d
 s 0.49 0.6 0.82 c black 0.49 0.6 0.82 c
 gsave  408 305 930 677 C 1051.24 960.076 t 0 r /Helvetica-Bold findfont 25.6831 sf 0 0 m (3.5 < E < 4.0 GeV) show NC gr  0.52 0.76 0.64 c black 0.52 0.76 0.64 c
 gsave  408 305 930 677 C 1037 923.04 t 0 r /Helvetica-Bold findfont 25.6831 sf 0 0 m 
 220 206 192 185 170 163 148 141 126 118 111 97 83 69 61 47 40 25 18
(A = 0.000, p = 1.000) K NC gr  1 0.6 1 c black 1 0.6 1 c
 gsave  408 305 930 677 C 1336.13 791.991 t 90 r /Helvetica-Bold findfont 28.5368 sf 0 0 m (/dof=0.4) show NC gr  black 1 0.6 1 c
 gsave  408 305 930 677 C 1324.73 780.596 t 90 r /Helvetica-Bold findfont 19.9758 sf 0 0 m (2) show NC gr  black 1 0.6 1 c
 gsave  408 305 930 677 C 1336.13 763.503 t 90 r /Symbol findfont 28.5368 sf 0 0 m (c) show NC gr  black 3 lw 1 1 1 c 408 305 1383 677 bf black 1 1 1 c black 306 229 1445 723 bl 306 229 1445 723 bl 1445 723 m 306 X s 1467 727 m -4 Y s 1595 727 m -4 Y
 s 1723 727 m -4 Y s 1467 727 m -4 Y s 1723 727 m -4 Y s
 gsave  408 305 1383 677 C 1455.78 703.676 t 0 r /Helvetica findfont 22.8295 sf 0 0 m (0) show NC gr 
 gsave  408 305 1383 677 C 1566.89 703.676 t 0 r /Helvetica findfont 22.8295 sf 0 0 m (1000) show NC gr 
 gsave  408 305 1383 677 C 1695.09 703.676 t 0 r /Helvetica findfont 22.8295 sf 0 0 m (2000) show NC gr  1445 952 m 306 X s 1467 948 m 4 Y s 1595 948 m 4 Y s 1723 948 m 4 Y s 1467 948 m 4 Y s 1723 948 m 4 Y s 1445 723 m 229 Y s 1450 728 m -5 X s 1447
 737 m -2 X s 1447 745 m -2 X s 1447 754 m -2 X s 1447 762 m -2 X s 1450 771 m -5 X s 1447 779 m -2 X s 1447 787 m -2 X s 1447 796 m -2 X s 1447 804 m -2 X s 1450 813 m -5 X s 1447 821 m -2 X s 1447 829 m -2 X s 1447 838 m -2 X s 1447 846 m -2 X s
 1450 855 m -5 X s 1447 863 m -2 X s 1447 871 m -2 X s 1447 880 m -2 X s 1447 888 m -2 X s 1450 897 m -5 X s 1447 905 m -2 X s 1447 913 m -2 X s 1447 922 m -2 X s 1447 930 m -2 X s 1450 939 m -5 X s 1450 728 m -5 X s 1450 939 m -5 X s 1447 947 m -2 X
 s
 gsave  408 305 1383 677 C 1393.11 720.769 t 0 r /Helvetica findfont 22.8295 sf 0 0 m (\2550.01) show NC gr 
 gsave  408 305 1383 677 C 1427.29 763.503 t 0 r /Helvetica findfont 22.8295 sf 0 0 m (0) show NC gr 
 gsave  408 305 1383 677 C 1398.81 806.236 t 0 r /Helvetica findfont 22.8295 sf 0 0 m (0.01) show NC gr 
 gsave  408 305 1383 677 C 1395.96 846.12 t 0 r /Helvetica findfont 22.8295 sf 0 0 m (0.02) show NC gr 
 gsave  408 305 1383 677 C 1395.96 888.854 t 0 r /Helvetica findfont 22.8295 sf 0 0 m (0.03) show NC gr 
 gsave  408 305 1383 677 C 1395.96 931.587 t 0 r /Helvetica findfont 22.8295 sf 0 0 m (0.04) show NC gr  1751 723 m 229 Y s 1745 728 m 6 X s 1748 737 m 3 X s 1748 745 m 3 X s 1748 754 m 3 X s 1748 762 m 3 X s 1745 771 m 6 X s 1748 779 m 3 X s 1748
 787 m 3 X s 1748 796 m 3 X s 1748 804 m 3 X s 1745 813 m 6 X s 1748 821 m 3 X s 1748 829 m 3 X s 1748 838 m 3 X s 1748 846 m 3 X s 1745 855 m 6 X s 1748 863 m 3 X s 1748 871 m 3 X s 1748 880 m 3 X s 1748 888 m 3 X s 1745 897 m 6 X s 1748 905 m 3 X s
 1748 913 m 3 X s 1748 922 m 3 X s 1748 930 m 3 X s 1745 939 m 6 X s 1745 728 m 6 X s 1745 939 m 6 X s 1748 947 m 3 X s 1470 760 1473 761 1478 761 1531 760 1723 914 5 { m21} R 1470 772 m 6 Y s 1464 778 m 12 X s 1470 749 m -7 Y s 1464 742 m 12 X s
 1473 773 m 6 Y s 1467 779 m 11 X s 1473 750 m -7 Y s 1467 743 m 11 X s 1478 772 m 6 Y s 1472 778 m 12 X s 1478 749 m -6 Y s 1472 743 m 12 X s 1531 771 m 7 Y s 1525 778 m 12 X s 1531 748 m -6 Y s 1525 742 m 12 X s 1723 925 m 8 Y s 1717 933 m 12 X s
 1723 903 m -8 Y s 1717 895 m 12 X s 1 0 0 c 9 lw 0.95 0.95 0.95 c black 1 0 0 c 1446 771 m 40 X 3 1 d 6 X 3 1 d 3 X 3 1 d 3 X 3 1 d 3 X 3 1 d 4 X 3 1 d 3 1 d 3 1 d 3 1 d 3 X 3 1 d 3 1 d 3 1 d 3 1 d 3 1 d 3 2 d 3 1 d 3 1 d 3 1 d 3 2 d 4 1 d 3 1 d 3 2
 d 3 1 d 3 2 d 3 1 d 3 2 d 3 1 d 3 2 d 3 2 d s 1596 807 m 3 1 d 3 2 d 3 2 d 3 2 d 3 2 d 3 2 d 4 2 d 3 2 d 3 2 d 3 2 d 3 2 d 3 2 d 3 2 d 3 3 d 3 2 d 3 2 d 3 3 d 3 2 d 3 3 d 3 2 d 3 3 d 3 2 d 3 3 d 4 3 d 3 2 d 3 3 d 3 3 d 3 3 d 3 3 d 3 2 d 3 3 d 3 3 d
 3 3 d 3 4 d 3 3 d 3 3 d 3 3 d 3 3 d 3 4 d 4 3 d 3 3 d 3 4 d 3 3 d 3 4 d 3 3 d 3 4 d 3 3 d 3 4 d 3 4 d s 1746 940 m 3 3 d s 0.49 0.6 0.82 c black 0.49 0.6 0.82 c
 gsave  408 305 1383 677 C 1504.21 960.076 t 0 r /Helvetica-Bold findfont 25.6831 sf 0 0 m (4.0 < E < 4.5 GeV) show NC gr  0.52 0.76 0.64 c black 0.52 0.76 0.64 c
 gsave  408 305 1383 677 C 1489.97 923.04 t 0 r /Helvetica-Bold findfont 25.6831 sf 0 0 m 
 220 206 192 185 170 163 148 141 125 118 111 97 83 69 61 47 40 25 18
(A = 0.000, p = 2.000) K NC gr  1 0.6 1 c black 1 0.6 1 c
 gsave  408 305 1383 677 C 1789.1 791.991 t 90 r /Helvetica-Bold findfont 28.5368 sf 0 0 m (/dof=0.5) show NC gr  black 1 0.6 1 c
 gsave  408 305 1383 677 C 1777.71 780.596 t 90 r /Helvetica-Bold findfont 19.9758 sf 0 0 m (2) show NC gr  black 1 0.6 1 c
 gsave  408 305 1383 677 C 1789.1 763.503 t 90 r /Symbol findfont 28.5368 sf 0 0 m (c) show NC gr  black 3 lw 1 1 1 c 408 305 1837 677 bf black 1 1 1 c black 306 229 1898 723 bl 306 229 1898 723 bl 1898 723 m 306 X s 1921 727 m -4 Y s 2049 727 m -4 Y
 s 2176 727 m -4 Y s 1921 727 m -4 Y s 2176 727 m -4 Y s
 gsave  408 305 1837 677 C 1911.61 703.676 t 0 r /Helvetica findfont 22.8295 sf 0 0 m (0) show NC gr 
 gsave  408 305 1837 677 C 2022.71 703.676 t 0 r /Helvetica findfont 22.8295 sf 0 0 m (1000) show NC gr 
 gsave  408 305 1837 677 C 2148.06 703.676 t 0 r /Helvetica findfont 22.8295 sf 0 0 m (2000) show NC gr  1898 952 m 306 X s 1921 948 m 4 Y s 2049 948 m 4 Y s 2176 948 m 4 Y s 1921 948 m 4 Y s 2176 948 m 4 Y s 1898 723 m 229 Y s 1904 740 m -6 X s 1901
 748 m -3 X s 1901 757 m -3 X s 1901 765 m -3 X s 1901 773 m -3 X s 1904 782 m -6 X s 1901 790 m -3 X s 1901 798 m -3 X s 1901 807 m -3 X s 1901 815 m -3 X s 1904 823 m -6 X s 1901 831 m -3 X s 1901 840 m -3 X s 1901 848 m -3 X s 1901 856 m -3 X s
 1904 865 m -6 X s 1901 873 m -3 X s 1901 881 m -3 X s 1901 890 m -3 X s 1901 898 m -3 X s 1904 906 m -6 X s 1901 914 m -3 X s 1901 923 m -3 X s 1901 931 m -3 X s 1901 939 m -3 X s 1904 948 m -6 X s 1904 740 m -6 X s 1901 732 m -3 X s 1901 724 m -3 X
 s 1904 948 m -6 X s
 gsave  408 305 1837 677 C 1846.08 732.165 t 0 r /Helvetica findfont 22.8295 sf 0 0 m (\2550.01) show NC gr 
 gsave  408 305 1837 677 C 1880.27 774.898 t 0 r /Helvetica findfont 22.8295 sf 0 0 m (0) show NC gr 
 gsave  408 305 1837 677 C 1851.78 814.783 t 0 r /Helvetica findfont 22.8295 sf 0 0 m (0.01) show NC gr 
 gsave  408 305 1837 677 C 1848.93 857.516 t 0 r /Helvetica findfont 22.8295 sf 0 0 m (0.02) show NC gr 
 gsave  408 305 1837 677 C 1848.93 900.249 t 0 r /Helvetica findfont 22.8295 sf 0 0 m (0.03) show NC gr 
 gsave  408 305 1837 677 C 1848.93 940.134 t 0 r /Helvetica findfont 22.8295 sf 0 0 m (0.04) show NC gr  2204 723 m 229 Y s 2199 740 m 5 X s 2201 748 m 3 X s 2201 757 m 3 X s 2201 765 m 3 X s 2201 773 m 3 X s 2199 782 m 5 X s 2201 790 m 3 X s 2201
 798 m 3 X s 2201 807 m 3 X s 2201 815 m 3 X s 2199 823 m 5 X s 2201 831 m 3 X s 2201 840 m 3 X s 2201 848 m 3 X s 2201 856 m 3 X s 2199 865 m 5 X s 2201 873 m 3 X s 2201 881 m 3 X s 2201 890 m 3 X s 2201 898 m 3 X s 2199 906 m 5 X s 2201 914 m 3 X s
 2201 923 m 3 X s 2201 931 m 3 X s 2201 939 m 3 X s 2199 948 m 5 X s 2199 740 m 5 X s 2201 732 m 3 X s 2201 724 m 3 X s 2199 948 m 5 X s 1923 768 1926 765 1931 769 1985 774 2176 908 5 { m21} R 1923 779 m 12 Y s 1918 791 m 11 X s 1923 756 m -11 Y s
 1918 745 m 11 X s 1926 777 m 12 Y s 1920 789 m 12 X s 1926 754 m -12 Y s 1920 742 m 12 X s 1931 781 m 11 Y s 1926 792 m 11 X s 1931 758 m -12 Y s 1926 746 m 11 X s 1985 786 m 12 Y s 1979 798 m 11 X s 1985 763 m -12 Y s 1979 751 m 11 X s 2176 920 m
 13 Y s 2171 933 m 11 X s 2176 897 m -13 Y s 2171 884 m 11 X s 1 0 0 c 9 lw 0.95 0.95 0.95 c black 1 0 0 c 1900 782 m 39 X 3 1 d 10 X 3 1 d 3 X 3 1 d 3 X 3 1 d 3 X 3 1 d 3 1 d 3 X 3 1 d 3 1 d 3 X 3 1 d 4 1 d 3 1 d 3 1 d 3 1 d 3 1 d 3 1 d 3 1 d 3 1 d
 3 1 d 3 1 d 3 2 d 3 1 d 3 1 d 3 1 d 3 2 d 3 1 d 3 2 d 4 1 d 3 2 d s 2050 814 m 3 1 d 3 2 d 3 1 d 3 2 d 3 2 d 3 1 d 3 2 d 3 2 d 3 2 d 3 2 d 3 1 d 3 2 d 3 2 d 3 2 d 4 2 d 3 2 d 3 3 d 3 2 d 3 2 d 3 2 d 3 2 d 3 3 d 3 2 d 3 2 d 3 3 d 3 2 d 3 3 d 3 2 d 3
 3 d 3 2 d 4 3 d 3 3 d 3 2 d 3 3 d 3 3 d 3 3 d 3 2 d 3 3 d 3 3 d 3 3 d 3 3 d 3 3 d 3 3 d 3 3 d 3 3 d 3 4 d 4 3 d 3 3 d 3 3 d s 2200 931 m 3 3 d s 0.49 0.6 0.82 c black 0.49 0.6 0.82 c
 gsave  408 305 1837 677 C 1957.19 960.076 t 0 r /Helvetica-Bold findfont 25.6831 sf 0 0 m (4.5 < E < 5.0 GeV) show NC gr  0.52 0.76 0.64 c black 0.52 0.76 0.64 c
 gsave  408 305 1837 677 C 1942.94 923.04 t 0 r /Helvetica-Bold findfont 25.6831 sf 0 0 m 
 220 206 192 185 170 163 148 141 126 118 111 97 83 69 61 47 40 25 18
(A = 0.000, p = 2.000) K NC gr  1 0.6 1 c black 1 0.6 1 c
 gsave  408 305 1837 677 C 2242.08 791.991 t 90 r /Helvetica-Bold findfont 28.5368 sf 0 0 m (/dof=0.4) show NC gr  black 1 0.6 1 c
 gsave  408 305 1837 677 C 2230.68 780.596 t 90 r /Helvetica-Bold findfont 19.9758 sf 0 0 m (2) show NC gr  black 1 0.6 1 c
 gsave  408 305 1837 677 C 2242.08 763.503 t 90 r /Symbol findfont 28.5368 sf 0 0 m (c) show NC gr  black 3 lw 1 1 1 c 408 306 23 345 bf black 1 1 1 c black 306 229 84 391 bl 306 229 84 391 bl 84 391 m 306 X s 107 395 m -4 Y s 234 395 m -4 Y s 362
 395 m -4 Y s 107 395 m -4 Y s 362 395 m -4 Y s
 gsave  408 306 23 345 C 96.8623 370.356 t 0 r /Helvetica findfont 22.8295 sf 0 0 m (0) show NC gr 
 gsave  408 306 23 345 C 207.969 370.356 t 0 r /Helvetica findfont 22.8295 sf 0 0 m (1000) show NC gr 
 gsave  408 306 23 345 C 336.169 370.356 t 0 r /Helvetica findfont 22.8295 sf 0 0 m (2000) show NC gr  84 620 m 306 X s 107 616 m 4 Y s 234 616 m 4 Y s 362 616 m 4 Y s 107 616 m 4 Y s 362 616 m 4 Y s 84 391 m 229 Y s 89 421 m -5 X s 87 430 m -3 X s
 87 439 m -3 X s 87 448 m -3 X s 87 457 m -3 X s 89 466 m -5 X s 87 475 m -3 X s 87 484 m -3 X s 87 494 m -3 X s 87 503 m -3 X s 89 512 m -5 X s 87 521 m -3 X s 87 530 m -3 X s 87 539 m -3 X s 87 548 m -3 X s 89 557 m -5 X s 87 567 m -3 X s 87 576 m
 -3 X s 87 585 m -3 X s 87 594 m -3 X s 89 603 m -5 X s 89 421 m -5 X s 87 411 m -3 X s 87 402 m -3 X s 87 393 m -3 X s 89 603 m -5 X s 87 612 m -3 X s
 gsave  408 306 23 345 C 65.5245 413.089 t 0 r /Helvetica findfont 22.8295 sf 0 0 m (0) show NC gr 
 gsave  408 306 23 345 C 37.0356 458.671 t 0 r /Helvetica findfont 22.8295 sf 0 0 m (0.01) show NC gr 
 gsave  408 306 23 345 C 34.1867 504.254 t 0 r /Helvetica findfont 22.8295 sf 0 0 m (0.02) show NC gr 
 gsave  408 306 23 345 C 34.1867 549.836 t 0 r /Helvetica findfont 22.8295 sf 0 0 m (0.03) show NC gr 
 gsave  408 306 23 345 C 34.1867 595.418 t 0 r /Helvetica findfont 22.8295 sf 0 0 m (0.04) show NC gr  390 391 m 229 Y s 385 421 m 5 X s 387 430 m 3 X s 387 439 m 3 X s 387 448 m 3 X s 387 457 m 3 X s 385 466 m 5 X s 387 475 m 3 X s 387 484 m 3 X s
 387 494 m 3 X s 387 503 m 3 X s 385 512 m 5 X s 387 521 m 3 X s 387 530 m 3 X s 387 539 m 3 X s 387 548 m 3 X s 385 557 m 5 X s 387 567 m 3 X s 387 576 m 3 X s 387 585 m 3 X s 387 594 m 3 X s 385 603 m 5 X s 385 421 m 5 X s 387 411 m 3 X s 387 402 m
 3 X s 387 393 m 3 X s 385 603 m 5 X s 387 612 m 3 X s /w 22 def /w2 {w 2 div} def /w3 {w 3 div} def 109 444 112 444 117 447 170 488 362 566 5 { m21} R 109 455 m 23 Y s 104 478 m 11 X s 109 433 m -22 Y s 104 411 m 11 X s 112 455 m 22 Y s 106 477 m 12
 X s 112 432 m -22 Y s 106 410 m 12 X s 117 458 m 22 Y s 112 480 m 11 X s 117 435 m -22 Y s 112 413 m 11 X s 170 499 m 23 Y s 165 522 m 11 X s 170 476 m -22 Y s 165 454 m 11 X s 362 577 m 24 Y s 357 601 m 11 X s 362 555 m -24 Y s 357 531 m 11 X s 9
 lw 0.95 0.95 0.95 c black 85 408 m 3 2 d 4 2 d 3 1 d 3 2 d 3 2 d 3 2 d 3 2 d 3 2 d 3 2 d 3 1 d 3 2 d 3 2 d 3 2 d 3 2 d 3 2 d 3 1 d 3 2 d 4 2 d 3 2 d 3 2 d 3 2 d 3 2 d 3 1 d 3 2 d 3 2 d 3 2 d 3 2 d 3 2 d 3 2 d 3 1 d 3 2 d 3 2 d 3 2 d 4 2 d 3 2 d 3 1
 d 3 2 d 3 2 d 3 2 d 3 2 d 3 2 d 3 2 d 3 1 d 3 2 d 3 2 d 3 2 d 3 2 d 3 2 d 3 2 d s 235 499 m 4 1 d 3 2 d 3 2 d 3 2 d 3 2 d 3 2 d 3 1 d 3 2 d 3 2 d 3 2 d 3 2 d 3 2 d 3 2 d 3 1 d 3 2 d 3 2 d 3 2 d 4 2 d 3 2 d 3 2 d 3 1 d 3 2 d 3 2 d 3 2 d 3 2 d 3 2 d 3
 1 d 3 2 d 3 2 d 3 2 d 3 2 d 3 2 d 3 2 d 4 1 d 3 2 d 3 2 d 3 2 d 3 2 d 3 2 d 3 2 d 3 1 d 3 2 d 3 2 d 3 2 d 3 2 d 3 2 d 3 1 d 3 2 d 3 2 d s 385 589 m 4 2 d s 0.49 0.6 0.82 c black 0.49 0.6 0.82 c
 gsave  408 306 23 345 C 142.445 629.605 t 0 r /Helvetica-Bold findfont 25.6831 sf 0 0 m (5.0 < E < 5.5 GeV) show NC gr  0.52 0.76 0.64 c black 0.52 0.76 0.64 c
 gsave  408 306 23 345 C 128.2 592.569 t 0 r /Helvetica-Bold findfont 25.6831 sf 0 0 m 
 220 206 192 185 170 163 148 141 126 118 111 97 83 69 61 47 40 25 18
(A = 0.000, p = 1.000) K NC gr  1 0.6 1 c black 1 0.6 1 c
 gsave  408 306 23 345 C 427.334 458.671 t 90 r /Helvetica-Bold findfont 28.5368 sf 0 0 m (/dof=0.5) show NC gr  black 1 0.6 1 c
 gsave  408 306 23 345 C 415.938 447.276 t 90 r /Helvetica-Bold findfont 19.9758 sf 0 0 m (2) show NC gr  black 1 0.6 1 c
 gsave  408 306 23 345 C 427.334 430.182 t 90 r /Symbol findfont 28.5368 sf 0 0 m (c) show NC gr  black 3 lw 1 1 1 c 408 306 476 345 bf black 1 1 1 c black 307 229 537 391 bl 307 229 537 391 bl 537 391 m 307 X s 560 395 m -4 Y s 688 395 m -4 Y s 816
 395 m -4 Y s 560 395 m -4 Y s 816 395 m -4 Y s
 gsave  408 306 476 345 C 549.836 370.356 t 0 r /Helvetica findfont 22.8295 sf 0 0 m (0) show NC gr 
 gsave  408 306 476 345 C 660.943 370.356 t 0 r /Helvetica findfont 22.8295 sf 0 0 m (1000) show NC gr 
 gsave  408 306 476 345 C 789.143 370.356 t 0 r /Helvetica findfont 22.8295 sf 0 0 m (2000) show NC gr  537 620 m 307 X s 560 616 m 4 Y s 688 616 m 4 Y s 816 616 m 4 Y s 560 616 m 4 Y s 816 616 m 4 Y s 537 391 m 229 Y s 543 394 m -6 X s 540 399 m -3
 X s 540 404 m -3 X s 540 409 m -3 X s 540 414 m -3 X s 543 419 m -6 X s 540 424 m -3 X s 540 429 m -3 X s 540 434 m -3 X s 540 439 m -3 X s 543 444 m -6 X s 540 449 m -3 X s 540 454 m -3 X s 540 459 m -3 X s 540 464 m -3 X s 543 469 m -6 X s 540 474
 m -3 X s 540 479 m -3 X s 540 484 m -3 X s 540 489 m -3 X s 543 494 m -6 X s 540 499 m -3 X s 540 504 m -3 X s 540 509 m -3 X s 540 515 m -3 X s 543 520 m -6 X s 540 525 m -3 X s 540 530 m -3 X s 540 535 m -3 X s 540 540 m -3 X s 543 545 m -6 X s
 540 550 m -3 X s 540 555 m -3 X s 540 560 m -3 X s 540 565 m -3 X s 543 570 m -6 X s 540 575 m -3 X s 540 580 m -3 X s 540 585 m -3 X s 540 590 m -3 X s 543 595 m -6 X s 540 600 m -3 X s 540 605 m -3 X s 540 610 m -3 X s 540 615 m -3 X s 543 620 m
 -6 X s 543 394 m -6 X s 543 620 m -6 X s
 gsave  408 306 476 345 C 467.218 387.449 t 0 r /Helvetica findfont 22.8295 sf 0 0 m (\2550.005) show NC gr 
 gsave  408 306 476 345 C 518.498 413.089 t 0 r /Helvetica findfont 22.8295 sf 0 0 m (0) show NC gr 
 gsave  408 306 476 345 C 475.765 435.88 t 0 r /Helvetica findfont 22.8295 sf 0 0 m (0.005) show NC gr 
 gsave  408 306 476 345 C 490.009 461.52 t 0 r /Helvetica findfont 22.8295 sf 0 0 m (0.01) show NC gr 
 gsave  408 306 476 345 C 475.765 487.16 t 0 r /Helvetica findfont 22.8295 sf 0 0 m (0.015) show NC gr 
 gsave  408 306 476 345 C 487.16 512.8 t 0 r /Helvetica findfont 22.8295 sf 0 0 m (0.02) show NC gr 
 gsave  408 306 476 345 C 475.765 538.44 t 0 r /Helvetica findfont 22.8295 sf 0 0 m (0.025) show NC gr 
 gsave  408 306 476 345 C 487.16 561.231 t 0 r /Helvetica findfont 22.8295 sf 0 0 m (0.03) show NC gr 
 gsave  408 306 476 345 C 475.765 586.871 t 0 r /Helvetica findfont 22.8295 sf 0 0 m (0.035) show NC gr 
 gsave  408 306 476 345 C 487.16 612.511 t 0 r /Helvetica findfont 22.8295 sf 0 0 m (0.04) show NC gr  844 391 m 229 Y s 838 394 m 6 X s 841 399 m 3 X s 841 404 m 3 X s 841 409 m 3 X s 841 414 m 3 X s 838 419 m 6 X s 841 424 m 3 X s 841 429 m 3 X s
 841 434 m 3 X s 841 439 m 3 X s 838 444 m 6 X s 841 449 m 3 X s 841 454 m 3 X s 841 459 m 3 X s 841 464 m 3 X s 838 469 m 6 X s 841 474 m 3 X s 841 479 m 3 X s 841 484 m 3 X s 841 489 m 3 X s 838 494 m 6 X s 841 499 m 3 X s 841 504 m 3 X s 841 509 m
 3 X s 841 515 m 3 X s 838 520 m 6 X s 841 525 m 3 X s 841 530 m 3 X s 841 535 m 3 X s 841 540 m 3 X s 838 545 m 6 X s 841 550 m 3 X s 841 555 m 3 X s 841 560 m 3 X s 841 565 m 3 X s 838 570 m 6 X s 841 575 m 3 X s 841 580 m 3 X s 841 585 m 3 X s 841
 590 m 3 X s 838 595 m 6 X s 841 600 m 3 X s 841 605 m 3 X s 841 610 m 3 X s 841 615 m 3 X s 838 620 m 6 X s 838 394 m 6 X s 838 620 m 6 X s /w 23 def /w2 {w 2 div} def /w3 {w 3 div} def 563 456 565 461 571 459 624 469 816 553 5 { m21} R 563 468 m 34
 Y s 557 502 m 11 X s 563 445 m -35 Y s 557 410 m 11 X s 565 472 m 35 Y s 560 507 m 11 X s 565 449 m -35 Y s 560 414 m 11 X s 571 471 m 35 Y s 565 506 m 12 X s 571 448 m -35 Y s 565 413 m 12 X s 624 481 m 35 Y s 618 516 m 12 X s 624 458 m -35 Y s 618
 423 m 12 X s 816 565 m 36 Y s 810 601 m 11 X s 816 542 m -37 Y s 810 505 m 11 X s 9 lw 0.95 0.95 0.95 c black 539 408 m 3 1 d 3 2 d 3 2 d 3 1 d 3 2 d 3 2 d 3 2 d 3 1 d 4 2 d 3 2 d 3 1 d 3 2 d 3 2 d 3 1 d 3 2 d 3 2 d 3 1 d 3 2 d 3 2 d 3 1 d 3 2 d 3 2
 d 3 1 d 3 2 d 4 2 d 3 1 d 3 2 d 3 2 d 3 2 d 3 1 d 3 2 d 3 2 d 3 1 d 3 2 d 3 2 d 3 1 d 3 2 d 3 2 d 3 1 d 3 2 d 3 2 d 4 1 d 3 2 d 3 2 d 3 1 d 3 2 d 3 2 d 3 2 d 3 1 d s 689 490 m 3 2 d 3 2 d 3 1 d 3 2 d 3 2 d 3 1 d 3 2 d 3 2 d 4 1 d 3 2 d 3 2 d 3 1 d 3
 2 d 3 2 d 3 1 d 3 2 d 3 2 d 3 1 d 3 2 d 3 2 d 3 2 d 3 1 d 3 2 d 3 2 d 4 1 d 3 2 d 3 2 d 3 1 d 3 2 d 3 2 d 3 1 d 3 2 d 3 2 d 3 1 d 3 2 d 3 2 d 3 1 d 3 2 d 3 2 d 3 2 d 4 1 d 3 2 d 3 2 d 3 1 d 3 2 d 3 2 d 3 1 d 3 2 d 3 2 d s 839 573 m 3 1 d s 0.49 0.6
 0.82 c black 0.49 0.6 0.82 c
 gsave  408 306 476 345 C 595.418 629.605 t 0 r /Helvetica-Bold findfont 25.6831 sf 0 0 m (5.5 < E < 6.0 GeV) show NC gr  0.52 0.76 0.64 c black 0.52 0.76 0.64 c
 gsave  408 306 476 345 C 581.174 592.569 t 0 r /Helvetica-Bold findfont 25.6831 sf 0 0 m 
 220 206 192 185 170 163 148 141 125 118 111 97 83 69 61 47 40 25 18
(A = 0.000, p = 1.000) K NC gr  1 0.6 1 c black 1 0.6 1 c
 gsave  408 306 476 345 C 883.156 458.671 t 90 r /Helvetica-Bold findfont 28.5368 sf 0 0 m (/dof=0.5) show NC gr  black 1 0.6 1 c
 gsave  408 306 476 345 C 871.76 447.276 t 90 r /Helvetica-Bold findfont 19.9758 sf 0 0 m (2) show NC gr  black 1 0.6 1 c
 gsave  408 306 476 345 C 883.156 430.182 t 90 r /Symbol findfont 28.5368 sf 0 0 m (c) show NC gr  black 3 lw 1 1 1 c 408 306 930 345 bf black 1 1 1 c black 306 229 991 391 bl 306 229 991 391 bl 991 391 m 306 X s 1014 395 m -4 Y s 1141 395 m -4 Y s
 1269 395 m -4 Y s 1014 395 m -4 Y s 1269 395 m -4 Y s
 gsave  408 306 930 345 C 1002.81 370.356 t 0 r /Helvetica findfont 22.8295 sf 0 0 m (0) show NC gr 
 gsave  408 306 930 345 C 1113.92 370.356 t 0 r /Helvetica findfont 22.8295 sf 0 0 m (1000) show NC gr 
 gsave  408 306 930 345 C 1242.12 370.356 t 0 r /Helvetica findfont 22.8295 sf 0 0 m (2000) show NC gr  991 620 m 306 X s 1014 616 m 4 Y s 1141 616 m 4 Y s 1269 616 m 4 Y s 1014 616 m 4 Y s 1269 616 m 4 Y s 991 391 m 229 Y s 997 397 m -6 X s 994 404
 m -3 X s 994 411 m -3 X s 994 418 m -3 X s 994 424 m -3 X s 997 431 m -6 X s 994 438 m -3 X s 994 445 m -3 X s 994 451 m -3 X s 994 458 m -3 X s 997 465 m -6 X s 994 471 m -3 X s 994 478 m -3 X s 994 485 m -3 X s 994 492 m -3 X s 997 498 m -6 X s
 994 505 m -3 X s 994 512 m -3 X s 994 519 m -3 X s 994 525 m -3 X s 997 532 m -6 X s 994 539 m -3 X s 994 546 m -3 X s 994 552 m -3 X s 994 559 m -3 X s 997 566 m -6 X s 994 573 m -3 X s 994 579 m -3 X s 994 586 m -3 X s 994 593 m -3 X s 997 599 m
 -6 X s 997 397 m -6 X s 997 599 m -6 X s 994 606 m -3 X s 994 613 m -3 X s 994 620 m -3 X s
 gsave  408 306 930 345 C 937.285 390.298 t 0 r /Helvetica findfont 22.8295 sf 0 0 m (\2550.04) show NC gr 
 gsave  408 306 930 345 C 937.285 424.485 t 0 r /Helvetica findfont 22.8295 sf 0 0 m (\2550.03) show NC gr 
 gsave  408 306 930 345 C 937.285 458.671 t 0 r /Helvetica findfont 22.8295 sf 0 0 m (\2550.02) show NC gr 
 gsave  408 306 930 345 C 940.134 490.009 t 0 r /Helvetica findfont 22.8295 sf 0 0 m (\2550.01) show NC gr 
 gsave  408 306 930 345 C 974.32 524.196 t 0 r /Helvetica findfont 22.8295 sf 0 0 m (0) show NC gr 
 gsave  408 306 930 345 C 945.832 558.382 t 0 r /Helvetica findfont 22.8295 sf 0 0 m (0.01) show NC gr 
 gsave  408 306 930 345 C 942.983 592.569 t 0 r /Helvetica findfont 22.8295 sf 0 0 m (0.02) show NC gr  1297 391 m 229 Y s 1292 397 m 5 X s 1294 404 m 3 X s 1294 411 m 3 X s 1294 418 m 3 X s 1294 424 m 3 X s 1292 431 m 5 X s 1294 438 m 3 X s 1294 445
 m 3 X s 1294 451 m 3 X s 1294 458 m 3 X s 1292 465 m 5 X s 1294 471 m 3 X s 1294 478 m 3 X s 1294 485 m 3 X s 1294 492 m 3 X s 1292 498 m 5 X s 1294 505 m 3 X s 1294 512 m 3 X s 1294 519 m 3 X s 1294 525 m 3 X s 1292 532 m 5 X s 1294 539 m 3 X s
 1294 546 m 3 X s 1294 552 m 3 X s 1294 559 m 3 X s 1292 566 m 5 X s 1294 573 m 3 X s 1294 579 m 3 X s 1294 586 m 3 X s 1294 593 m 3 X s 1292 599 m 5 X s 1292 397 m 5 X s 1292 599 m 5 X s 1294 606 m 3 X s 1294 613 m 3 X s 1294 620 m 3 X s 1016 557
 1019 563 1024 549 1078 514 1269 446 5 { m21} R 1016 568 m 26 Y s 1011 594 m 11 X s 1016 545 m -26 Y s 1011 519 m 11 X s 1019 575 m 26 Y s 1013 601 m 12 X s 1019 552 m -27 Y s 1013 525 m 12 X s 1024 561 m 26 Y s 1019 587 m 11 X s 1024 538 m -26 Y s
 1019 512 m 11 X s 1078 526 m 25 Y s 1072 551 m 11 X s 1078 503 m -26 Y s 1072 477 m 11 X s 1269 458 m 24 Y s 1264 482 m 11 X s 1269 435 m -25 Y s 1264 410 m 11 X s 1 0 0 c 9 lw 0.95 0.95 0.95 c black 1 0 0 c 993 532 m 39 X 3 -1 d 13 X 3 -1 d 6 X 3
 -1 d 3 X 3 -1 d 6 X 3 -1 d 3 X 3 -1 d 3 -1 d 3 X 3 -1 d 4 X 3 -1 d 3 -1 d 3 X 3 -1 d 3 -1 d 3 -1 d 3 -1 d 3 X 3 -1 d 3 -1 d 3 -1 d 3 -1 d 3 -1 d 3 -1 d 3 -1 d 4 -1 d s 1143 510 m 3 -1 d 3 -1 d 3 -1 d 3 -1 d 3 -1 d 3 -2 d 3 -1 d 3 -1 d 3 -1 d 3 -2 d
 3 -1 d 3 -1 d 3 -2 d 3 -1 d 3 -1 d 4 -2 d 3 -1 d 3 -2 d 3 -1 d 3 -2 d 3 -1 d 3 -2 d 3 -2 d 3 -1 d 3 -2 d 3 -1 d 3 -2 d 3 -2 d 3 -2 d 3 -1 d 3 -2 d 3 -2 d 4 -2 d 3 -2 d 3 -2 d 3 -2 d 3 -2 d 3 -2 d 3 -2 d 3 -2 d 3 -2 d 3 -2 d 3 -2 d 3 -2 d 3 -2 d 3 -2
 d 3 -2 d 3 -3 d 4 -2 d s 1293 429 m 3 -2 d s 0.49 0.6 0.82 c black 0.49 0.6 0.82 c
 gsave  408 306 930 345 C 1051.24 629.605 t 0 r /Helvetica-Bold findfont 25.6831 sf 0 0 m (6.0 < E < 6.5 GeV) show NC gr  0.52 0.76 0.64 c black 0.52 0.76 0.64 c
 gsave  408 306 930 345 C 1031.3 592.569 t 0 r /Helvetica-Bold findfont 25.6831 sf 0 0 m 
 228 214 200 193 178 171 156 149 134 126 119 105 91 77 69 55 47 40 25 17
(A = \2550.000, p = 2.000) K NC gr  1 0.6 1 c black 1 0.6 1 c
 gsave  408 306 930 345 C 1336.13 458.671 t 90 r /Helvetica-Bold findfont 28.5368 sf 0 0 m (/dof=0.4) show NC gr  black 1 0.6 1 c
 gsave  408 306 930 345 C 1324.73 447.276 t 90 r /Helvetica-Bold findfont 19.9758 sf 0 0 m (2) show NC gr  black 1 0.6 1 c
 gsave  408 306 930 345 C 1336.13 430.182 t 90 r /Symbol findfont 28.5368 sf 0 0 m (c) show NC gr  black 3 lw 1 1 1 c 408 306 1383 345 bf black 1 1 1 c black 306 229 1445 391 bl 306 229 1445 391 bl 1445 391 m 306 X s 1467 395 m -4 Y s 1595 395 m -4 Y
 s 1723 395 m -4 Y s 1467 395 m -4 Y s 1723 395 m -4 Y s
 gsave  408 306 1383 345 C 1455.78 370.356 t 0 r /Helvetica findfont 22.8295 sf 0 0 m (0) show NC gr 
 gsave  408 306 1383 345 C 1566.89 370.356 t 0 r /Helvetica findfont 22.8295 sf 0 0 m (1000) show NC gr 
 gsave  408 306 1383 345 C 1695.09 370.356 t 0 r /Helvetica findfont 22.8295 sf 0 0 m (2000) show NC gr  1445 620 m 306 X s 1467 616 m 4 Y s 1595 616 m 4 Y s 1723 616 m 4 Y s 1467 616 m 4 Y s 1723 616 m 4 Y s 1445 391 m 229 Y s 1450 422 m -5 X s 1447
 431 m -2 X s 1447 441 m -2 X s 1447 450 m -2 X s 1450 459 m -5 X s 1447 468 m -2 X s 1447 477 m -2 X s 1447 486 m -2 X s 1450 496 m -5 X s 1447 505 m -2 X s 1447 514 m -2 X s 1447 523 m -2 X s 1450 532 m -5 X s 1447 541 m -2 X s 1447 550 m -2 X s
 1447 560 m -2 X s 1450 569 m -5 X s 1447 578 m -2 X s 1447 587 m -2 X s 1447 596 m -2 X s 1450 605 m -5 X s 1450 422 m -5 X s 1447 413 m -2 X s 1447 404 m -2 X s 1447 395 m -2 X s 1450 605 m -5 X s 1447 614 m -2 X s
 gsave  408 306 1383 345 C 1390.26 415.938 t 0 r /Helvetica findfont 22.8295 sf 0 0 m (\2550.08) show NC gr 
 gsave  408 306 1383 345 C 1390.26 452.974 t 0 r /Helvetica findfont 22.8295 sf 0 0 m (\2550.06) show NC gr 
 gsave  408 306 1383 345 C 1390.26 487.16 t 0 r /Helvetica findfont 22.8295 sf 0 0 m (\2550.04) show NC gr 
 gsave  408 306 1383 345 C 1390.26 524.196 t 0 r /Helvetica findfont 22.8295 sf 0 0 m (\2550.02) show NC gr 
 gsave  408 306 1383 345 C 1427.29 561.231 t 0 r /Helvetica findfont 22.8295 sf 0 0 m (0) show NC gr 
 gsave  408 306 1383 345 C 1395.96 598.267 t 0 r /Helvetica findfont 22.8295 sf 0 0 m (0.02) show NC gr  1751 391 m 229 Y s 1745 422 m 6 X s 1748 431 m 3 X s 1748 441 m 3 X s 1748 450 m 3 X s 1745 459 m 6 X s 1748 468 m 3 X s 1748 477 m 3 X s 1748
 486 m 3 X s 1745 496 m 6 X s 1748 505 m 3 X s 1748 514 m 3 X s 1748 523 m 3 X s 1745 532 m 6 X s 1748 541 m 3 X s 1748 550 m 3 X s 1748 560 m 3 X s 1745 569 m 6 X s 1748 578 m 3 X s 1748 587 m 3 X s 1748 596 m 3 X s 1745 605 m 6 X s 1745 422 m 6 X s
 1748 413 m 3 X s 1748 404 m 3 X s 1748 395 m 3 X s 1745 605 m 6 X s 1748 614 m 3 X s 1470 577 1473 566 1478 570 1531 568 1723 431 5 { m21} R 1470 588 m 13 Y s 1464 601 m 12 X s 1470 566 m -13 Y s 1464 553 m 12 X s 1473 578 m 12 Y s 1467 590 m 11 X s
 1473 555 m -12 Y s 1467 543 m 11 X s 1478 581 m 12 Y s 1472 593 m 12 X s 1478 558 m -12 Y s 1472 546 m 12 X s 1531 579 m 13 Y s 1525 592 m 12 X s 1531 557 m -13 Y s 1525 544 m 12 X s 1723 443 m 10 Y s 1717 453 m 12 X s 1723 420 m -10 Y s 1717 410 m
 12 X s 1 0 0 c 9 lw 0.95 0.95 0.95 c black 1 0 0 c 1446 568 m 9 X 3 1 d 19 X 3 -1 d 9 X 3 -1 d 6 X 3 -1 d 3 X 3 -1 d 3 X 3 -1 d 3 X 4 -1 d 3 -1 d 3 X 3 -1 d 3 -1 d 3 -1 d 3 -1 d 3 -1 d 3 -1 d 3 -1 d 3 -1 d 3 -1 d 3 -1 d 3 -1 d 3 -1 d 3 -2 d 4 -1 d 3
 -1 d 3 -1 d 3 -2 d 3 -1 d 3 -2 d 3 -1 d 3 -2 d 3 -1 d 3 -2 d s 1596 534 m 3 -2 d 3 -1 d 3 -2 d 3 -2 d 3 -2 d 3 -2 d 4 -2 d 3 -2 d 3 -2 d 3 -2 d 3 -2 d 3 -2 d 3 -2 d 3 -2 d 3 -2 d 3 -3 d 3 -2 d 3 -2 d 3 -3 d 3 -2 d 3 -2 d 3 -3 d 3 -2 d 4 -3 d 3 -3 d
 3 -2 d 3 -3 d 3 -3 d 3 -3 d 3 -2 d 3 -3 d 3 -3 d 3 -3 d 3 -3 d 3 -3 d 3 -3 d 3 -3 d 3 -3 d 3 -3 d 4 -4 d 3 -3 d 3 -3 d 3 -3 d 3 -4 d 3 -3 d 3 -4 d 3 -3 d 3 -4 d 3 -3 d s 1746 406 m 3 -4 d s 0.49 0.6 0.82 c black 0.49 0.6 0.82 c
 gsave  408 306 1383 345 C 1504.21 629.605 t 0 r /Helvetica-Bold findfont 25.6831 sf 0 0 m (6.5 < E < 7.0 GeV) show NC gr  0.52 0.76 0.64 c black 0.52 0.76 0.64 c
 gsave  408 306 1383 345 C 1484.27 592.569 t 0 r /Helvetica-Bold findfont 25.6831 sf 0 0 m 
 228 214 200 193 178 171 156 149 133 126 119 105 91 77 69 55 47 39 25 17
(A = \2550.000, p = 2.000) K NC gr  1 0.6 1 c black 1 0.6 1 c
 gsave  408 306 1383 345 C 1789.1 458.671 t 90 r /Helvetica-Bold findfont 28.5368 sf 0 0 m (/dof=0.1) show NC gr  black 1 0.6 1 c
 gsave  408 306 1383 345 C 1777.71 447.276 t 90 r /Helvetica-Bold findfont 19.9758 sf 0 0 m (2) show NC gr  black 1 0.6 1 c
 gsave  408 306 1383 345 C 1789.1 430.182 t 90 r /Symbol findfont 28.5368 sf 0 0 m (c) show NC gr  black 3 lw 1 1 1 c 408 306 1837 345 bf black 1 1 1 c black 306 229 1898 391 bl 306 229 1898 391 bl 1898 391 m 306 X s 1921 395 m -4 Y s 2049 395 m -4 Y
 s 2176 395 m -4 Y s 1921 395 m -4 Y s 2176 395 m -4 Y s
 gsave  408 306 1837 345 C 1911.61 370.356 t 0 r /Helvetica findfont 22.8295 sf 0 0 m (0) show NC gr 
 gsave  408 306 1837 345 C 2022.71 370.356 t 0 r /Helvetica findfont 22.8295 sf 0 0 m (1000) show NC gr 
 gsave  408 306 1837 345 C 2148.06 370.356 t 0 r /Helvetica findfont 22.8295 sf 0 0 m (2000) show NC gr  1898 620 m 306 X s 1921 616 m 4 Y s 2049 616 m 4 Y s 2176 616 m 4 Y s 1921 616 m 4 Y s 2176 616 m 4 Y s 1898 391 m 229 Y s 1904 409 m -6 X s 1901
 417 m -3 X s 1901 425 m -3 X s 1901 432 m -3 X s 1904 440 m -6 X s 1901 448 m -3 X s 1901 455 m -3 X s 1901 463 m -3 X s 1904 471 m -6 X s 1901 478 m -3 X s 1901 486 m -3 X s 1901 494 m -3 X s 1904 501 m -6 X s 1901 509 m -3 X s 1901 517 m -3 X s
 1901 524 m -3 X s 1904 532 m -6 X s 1901 540 m -3 X s 1901 548 m -3 X s 1901 555 m -3 X s 1904 563 m -6 X s 1901 571 m -3 X s 1901 578 m -3 X s 1901 586 m -3 X s 1904 594 m -6 X s 1904 409 m -6 X s 1901 402 m -3 X s 1901 394 m -3 X s 1904 594 m -6 X
 s 1901 601 m -3 X s 1901 609 m -3 X s 1901 617 m -3 X s
 gsave  408 306 1837 345 C 1857.48 401.694 t 0 r /Helvetica findfont 22.8295 sf 0 0 m (\2550.1) show NC gr 
 gsave  408 306 1837 345 C 1843.23 433.031 t 0 r /Helvetica findfont 22.8295 sf 0 0 m (\2550.08) show NC gr 
 gsave  408 306 1837 345 C 1843.23 464.369 t 0 r /Helvetica findfont 22.8295 sf 0 0 m (\2550.06) show NC gr 
 gsave  408 306 1837 345 C 1843.23 495.707 t 0 r /Helvetica findfont 22.8295 sf 0 0 m (\2550.04) show NC gr 
 gsave  408 306 1837 345 C 1843.23 524.196 t 0 r /Helvetica findfont 22.8295 sf 0 0 m (\2550.02) show NC gr 
 gsave  408 306 1837 345 C 1880.27 555.534 t 0 r /Helvetica findfont 22.8295 sf 0 0 m (0) show NC gr 
 gsave  408 306 1837 345 C 1848.93 586.871 t 0 r /Helvetica findfont 22.8295 sf 0 0 m (0.02) show NC gr  2204 391 m 229 Y s 2199 409 m 5 X s 2201 417 m 3 X s 2201 425 m 3 X s 2201 432 m 3 X s 2199 440 m 5 X s 2201 448 m 3 X s 2201 455 m 3 X s 2201
 463 m 3 X s 2199 471 m 5 X s 2201 478 m 3 X s 2201 486 m 3 X s 2201 494 m 3 X s 2199 501 m 5 X s 2201 509 m 3 X s 2201 517 m 3 X s 2201 524 m 3 X s 2199 532 m 5 X s 2201 540 m 3 X s 2201 548 m 3 X s 2201 555 m 3 X s 2199 563 m 5 X s 2201 571 m 3 X s
 2201 578 m 3 X s 2201 586 m 3 X s 2199 594 m 5 X s 2199 409 m 5 X s 2201 402 m 3 X s 2201 394 m 3 X s 2199 594 m 5 X s 2201 601 m 3 X s 2201 609 m 3 X s 2201 617 m 3 X s 1923 570 1926 573 1931 578 1985 542 2176 430 5 { m21} R 1923 582 m 11 Y s 1918
 593 m 11 X s 1923 559 m -11 Y s 1918 548 m 11 X s 1926 585 m 11 Y s 1920 596 m 12 X s 1926 562 m -11 Y s 1920 551 m 12 X s 1931 590 m 11 Y s 1926 601 m 11 X s 1931 567 m -12 Y s 1926 555 m 11 X s 1985 553 m 11 Y s 1979 564 m 11 X s 1985 530 m -11 Y
 s 1979 519 m 11 X s 2176 441 m 9 Y s 2171 450 m 11 X s 2176 419 m -9 Y s 2171 410 m 11 X s 1 0 0 c 9 lw 0.95 0.95 0.95 c black 1 0 0 c 1900 562 m 6 X 3 1 d 24 X 3 -1 d 10 X 3 -1 d 6 X 3 -1 d 3 X 3 -1 d 3 X 3 -1 d 3 -1 d 3 X 3 -1 d 3 -1 d 3 -1 d 3 X
 3 -1 d 4 -1 d 3 -1 d 3 -1 d 3 -1 d 3 -1 d 3 -1 d 3 -1 d 3 -2 d 3 -1 d 3 -1 d 3 -1 d 3 -2 d 3 -1 d 3 -1 d 3 -2 d 3 -1 d 3 -2 d 4 -1 d 3 -2 d s 2050 529 m 3 -2 d 3 -1 d 3 -2 d 3 -2 d 3 -2 d 3 -1 d 3 -2 d 3 -2 d 3 -2 d 3 -2 d 3 -2 d 3 -2 d 3 -2 d 3 -2
 d 4 -3 d 3 -2 d 3 -2 d 3 -2 d 3 -3 d 3 -2 d 3 -2 d 3 -3 d 3 -2 d 3 -3 d 3 -2 d 3 -3 d 3 -3 d 3 -2 d 3 -3 d 3 -3 d 4 -2 d 3 -3 d 3 -3 d 3 -3 d 3 -3 d 3 -3 d 3 -3 d 3 -3 d 3 -3 d 3 -3 d 3 -3 d 3 -4 d 3 -3 d 3 -3 d 3 -3 d 3 -4 d 4 -3 d 3 -4 d 3 -3 d s
 2200 404 m 3 -4 d s 0.49 0.6 0.82 c black 0.49 0.6 0.82 c
 gsave  408 306 1837 345 C 1957.19 629.605 t 0 r /Helvetica-Bold findfont 25.6831 sf 0 0 m (7.0 < E < 7.5 GeV) show NC gr  0.52 0.76 0.64 c black 0.52 0.76 0.64 c
 gsave  408 306 1837 345 C 1937.25 592.569 t 0 r /Helvetica-Bold findfont 25.6831 sf 0 0 m 
 228 214 200 193 178 171 156 149 134 126 119 105 91 77 69 55 47 40 25 17
(A = \2550.000, p = 2.000) K NC gr  1 0.6 1 c black 1 0.6 1 c
 gsave  408 306 1837 345 C 2242.08 458.671 t 90 r /Helvetica-Bold findfont 28.5368 sf 0 0 m (/dof=0.3) show NC gr  black 1 0.6 1 c
 gsave  408 306 1837 345 C 2230.68 447.276 t 90 r /Helvetica-Bold findfont 19.9758 sf 0 0 m (2) show NC gr  black 1 0.6 1 c
 gsave  408 306 1837 345 C 2242.08 430.182 t 90 r /Symbol findfont 28.5368 sf 0 0 m (c) show NC gr  black 3 lw 1 1 1 c 408 306 23 13 bf black 1 1 1 c black 306 229 84 59 bl 306 229 84 59 bl 84 59 m 306 X s 107 63 m -4 Y s 234 63 m -4 Y s 362 63 m -4
 Y s 107 63 m -4 Y s 362 63 m -4 Y s
 gsave  408 306 23 13 C 96.8623 39.8845 t 0 r /Helvetica findfont 22.8295 sf 0 0 m (0) show NC gr 
 gsave  408 306 23 13 C 207.969 39.8845 t 0 r /Helvetica findfont 22.8295 sf 0 0 m (1000) show NC gr 
 gsave  408 306 23 13 C 336.169 39.8845 t 0 r /Helvetica findfont 22.8295 sf 0 0 m (2000) show NC gr  84 288 m 306 X s 107 284 m 4 Y s 234 284 m 4 Y s 362 284 m 4 Y s 107 284 m 4 Y s 362 284 m 4 Y s 84 59 m 229 Y s 89 68 m -5 X s 87 76 m -3 X s 87 85
 m -3 X s 87 93 m -3 X s 89 101 m -5 X s 87 109 m -3 X s 87 117 m -3 X s 87 125 m -3 X s 89 133 m -5 X s 87 141 m -3 X s 87 149 m -3 X s 87 157 m -3 X s 89 165 m -5 X s 87 173 m -3 X s 87 181 m -3 X s 87 189 m -3 X s 89 197 m -5 X s 87 205 m -3 X s
 87 214 m -3 X s 87 222 m -3 X s 89 230 m -5 X s 87 238 m -3 X s 87 246 m -3 X s 87 254 m -3 X s 89 262 m -5 X s 89 68 m -5 X s 87 60 m -3 X s 89 262 m -5 X s 87 270 m -3 X s 87 278 m -3 X s 87 286 m -3 X s
 gsave  408 306 23 13 C 28.4889 62.6756 t 0 r /Helvetica findfont 22.8295 sf 0 0 m (\2550.08) show NC gr 
 gsave  408 306 23 13 C 28.4889 94.0134 t 0 r /Helvetica findfont 22.8295 sf 0 0 m (\2550.06) show NC gr 
 gsave  408 306 23 13 C 28.4889 125.351 t 0 r /Helvetica findfont 22.8295 sf 0 0 m (\2550.04) show NC gr 
 gsave  408 306 23 13 C 28.4889 156.689 t 0 r /Helvetica findfont 22.8295 sf 0 0 m (\2550.02) show NC gr 
 gsave  408 306 23 13 C 65.5245 190.876 t 0 r /Helvetica findfont 22.8295 sf 0 0 m (0) show NC gr 
 gsave  408 306 23 13 C 34.1867 222.213 t 0 r /Helvetica findfont 22.8295 sf 0 0 m (0.02) show NC gr 
 gsave  408 306 23 13 C 34.1867 253.551 t 0 r /Helvetica findfont 22.8295 sf 0 0 m (0.04) show NC gr  390 59 m 229 Y s 385 68 m 5 X s 387 76 m 3 X s 387 85 m 3 X s 387 93 m 3 X s 385 101 m 5 X s 387 109 m 3 X s 387 117 m 3 X s 387 125 m 3 X s 385 133
 m 5 X s 387 141 m 3 X s 387 149 m 3 X s 387 157 m 3 X s 385 165 m 5 X s 387 173 m 3 X s 387 181 m 3 X s 387 189 m 3 X s 385 197 m 5 X s 387 205 m 3 X s 387 214 m 3 X s 387 222 m 3 X s 385 230 m 5 X s 387 238 m 3 X s 387 246 m 3 X s 387 254 m 3 X s
 385 262 m 5 X s 385 68 m 5 X s 387 60 m 3 X s 385 262 m 5 X s 387 270 m 3 X s 387 278 m 3 X s 387 286 m 3 X s /w 22 def /w2 {w 2 div} def /w3 {w 3 div} def 109 241 112 239 117 230 170 242 362 102 5 { m21} R 109 253 m 15 Y s 104 268 m 11 X s 109 230
 m -15 Y s 104 215 m 11 X s 112 250 m 15 Y s 106 265 m 12 X s 112 228 m -16 Y s 106 212 m 12 X s 117 241 m 15 Y s 112 256 m 11 X s 117 218 m -15 Y s 112 203 m 11 X s 170 254 m 15 Y s 165 269 m 11 X s 170 231 m -15 Y s 165 216 m 11 X s 362 113 m 13 Y
 s 357 126 m 11 X s 362 91 m -13 Y s 357 78 m 11 X s 1 0 0 c 9 lw 0.95 0.95 0.95 c black 1 0 0 c 85 197 m 46 X 3 -1 d 7 X 3 -1 d 6 X 3 -1 d 6 X 3 -1 d 3 X 3 -1 d 3 -1 d 3 X 3 -1 d 3 X 3 -1 d 3 -1 d 4 X 3 -1 d 3 -1 d 3 -1 d 3 X 3 -1 d 3 -1 d 3 -1 d 3
 -1 d 3 -1 d 3 -1 d 3 -1 d 3 -1 d 3 -1 d 3 -1 d 3 -1 d s 235 174 m 4 -1 d 3 -2 d 3 -1 d 3 -1 d 3 -1 d 3 -1 d 3 -2 d 3 -1 d 3 -1 d 3 -2 d 3 -1 d 3 -2 d 3 -1 d 3 -2 d 3 -1 d 3 -2 d 3 -1 d 4 -2 d 3 -1 d 3 -2 d 3 -2 d 3 -1 d 3 -2 d 3 -2 d 3 -2 d 3 -1 d 3
 -2 d 3 -2 d 3 -2 d 3 -2 d 3 -2 d 3 -2 d 3 -2 d 4 -2 d 3 -2 d 3 -2 d 3 -2 d 3 -2 d 3 -2 d 3 -2 d 3 -3 d 3 -2 d 3 -2 d 3 -2 d 3 -3 d 3 -2 d 3 -2 d 3 -3 d 3 -2 d s 385 87 m 4 -3 d s 0.49 0.6 0.82 c black 0.49 0.6 0.82 c
 gsave  408 306 23 13 C 142.445 296.285 t 0 r /Helvetica-Bold findfont 25.6831 sf 0 0 m (7.5 < E < 8.0 GeV) show NC gr  0.52 0.76 0.64 c black 0.52 0.76 0.64 c
 gsave  408 306 23 13 C 122.502 259.249 t 0 r /Helvetica-Bold findfont 25.6831 sf 0 0 m 
 228 214 200 193 178 171 156 149 134 126 119 105 91 77 69 55 47 40 25 17
(A = \2550.000, p = 2.000) K NC gr  1 0.6 1 c black 1 0.6 1 c
 gsave  408 306 23 13 C 427.334 128.2 t 90 r /Helvetica-Bold findfont 28.5368 sf 0 0 m (/dof=2.6) show NC gr  black 1 0.6 1 c
 gsave  408 306 23 13 C 415.938 116.804 t 90 r /Helvetica-Bold findfont 19.9758 sf 0 0 m (2) show NC gr  black 1 0.6 1 c
 gsave  408 306 23 13 C 427.334 99.7112 t 90 r /Symbol findfont 28.5368 sf 0 0 m (c) show NC gr  black 3 lw 1 1 1 c 408 306 476 13 bf black 1 1 1 c black 307 229 537 59 bl 307 229 537 59 bl 537 59 m 307 X s 560 63 m -4 Y s 688 63 m -4 Y s 816 63 m -4
 Y s 560 63 m -4 Y s 816 63 m -4 Y s
 gsave  408 306 476 13 C 549.836 39.8845 t 0 r /Helvetica findfont 22.8295 sf 0 0 m (0) show NC gr 
 gsave  408 306 476 13 C 660.943 39.8845 t 0 r /Helvetica findfont 22.8295 sf 0 0 m (1000) show NC gr 
 gsave  408 306 476 13 C 789.143 39.8845 t 0 r /Helvetica findfont 22.8295 sf 0 0 m (2000) show NC gr  537 288 m 307 X s 560 284 m 4 Y s 688 284 m 4 Y s 816 284 m 4 Y s 560 284 m 4 Y s 816 284 m 4 Y s 537 59 m 229 Y s 543 89 m -6 X s 540 96 m -3 X s
 540 104 m -3 X s 540 111 m -3 X s 540 118 m -3 X s 543 126 m -6 X s 540 133 m -3 X s 540 140 m -3 X s 540 148 m -3 X s 540 155 m -3 X s 543 163 m -6 X s 540 170 m -3 X s 540 177 m -3 X s 540 185 m -3 X s 540 192 m -3 X s 543 199 m -6 X s 540 207 m
 -3 X s 540 214 m -3 X s 540 221 m -3 X s 540 229 m -3 X s 543 236 m -6 X s 540 243 m -3 X s 540 251 m -3 X s 540 258 m -3 X s 540 265 m -3 X s 543 273 m -6 X s 543 89 m -6 X s 540 82 m -3 X s 540 74 m -3 X s 540 67 m -3 X s 540 60 m -3 X s 543 273 m
 -6 X s 540 280 m -3 X s 540 288 m -3 X s
 gsave  408 306 476 13 C 481.462 82.6178 t 0 r /Helvetica findfont 22.8295 sf 0 0 m (\2550.05) show NC gr 
 gsave  408 306 476 13 C 481.462 119.653 t 0 r /Helvetica findfont 22.8295 sf 0 0 m (\2550.04) show NC gr 
 gsave  408 306 476 13 C 481.462 156.689 t 0 r /Helvetica findfont 22.8295 sf 0 0 m (\2550.03) show NC gr 
 gsave  408 306 476 13 C 481.462 190.876 t 0 r /Helvetica findfont 22.8295 sf 0 0 m (\2550.02) show NC gr 
 gsave  408 306 476 13 C 484.311 227.911 t 0 r /Helvetica findfont 22.8295 sf 0 0 m (\2550.01) show NC gr 
 gsave  408 306 476 13 C 518.498 264.947 t 0 r /Helvetica findfont 22.8295 sf 0 0 m (0) show NC gr  844 59 m 229 Y s 838 89 m 6 X s 841 96 m 3 X s 841 104 m 3 X s 841 111 m 3 X s 841 118 m 3 X s 838 126 m 6 X s 841 133 m 3 X s 841 140 m 3 X s 841 148
 m 3 X s 841 155 m 3 X s 838 163 m 6 X s 841 170 m 3 X s 841 177 m 3 X s 841 185 m 3 X s 841 192 m 3 X s 838 199 m 6 X s 841 207 m 3 X s 841 214 m 3 X s 841 221 m 3 X s 841 229 m 3 X s 838 236 m 6 X s 841 243 m 3 X s 841 251 m 3 X s 841 258 m 3 X s
 841 265 m 3 X s 838 273 m 6 X s 838 89 m 6 X s 841 82 m 3 X s 841 74 m 3 X s 841 67 m 3 X s 841 60 m 3 X s 838 273 m 6 X s 841 280 m 3 X s 841 288 m 3 X s /w 23 def /w2 {w 2 div} def /w3 {w 3 div} def 563 196 565 207 571 206 624 187 816 139 5 { m21}
 R 563 208 m 50 Y s 557 258 m 11 X s 563 185 m -51 Y s 557 134 m 11 X s 565 218 m 51 Y s 560 269 m 11 X s 565 195 m -51 Y s 560 144 m 11 X s 571 217 m 51 Y s 565 268 m 12 X s 571 195 m -51 Y s 565 144 m 12 X s 624 199 m 50 Y s 618 249 m 12 X s 624
 176 m -51 Y s 618 125 m 12 X s 816 150 m 49 Y s 810 199 m 11 X s 816 127 m -49 Y s 810 78 m 11 X s 9 lw 0.95 0.95 0.95 c black 539 285 m 3 -2 d 3 -1 d 3 -2 d 3 -2 d 3 -2 d 3 -2 d 3 -1 d 3 -2 d 4 -2 d 3 -2 d 3 -2 d 3 -1 d 3 -2 d 3 -2 d 3 -2 d 3 -2 d
 3 -1 d 3 -2 d 3 -2 d 3 -2 d 3 -2 d 3 -1 d 3 -2 d 3 -2 d 4 -2 d 3 -2 d 3 -1 d 3 -2 d 3 -2 d 3 -2 d 3 -1 d 3 -2 d 3 -2 d 3 -2 d 3 -2 d 3 -1 d 3 -2 d 3 -2 d 3 -2 d 3 -2 d 3 -1 d 4 -2 d 3 -2 d 3 -2 d 3 -2 d 3 -1 d 3 -2 d 3 -2 d 3 -2 d s 689 197 m 3 -2 d
 3 -1 d 3 -2 d 3 -2 d 3 -2 d 3 -2 d 3 -1 d 3 -2 d 4 -2 d 3 -2 d 3 -2 d 3 -1 d 3 -2 d 3 -2 d 3 -2 d 3 -2 d 3 -1 d 3 -2 d 3 -2 d 3 -2 d 3 -2 d 3 -1 d 3 -2 d 3 -2 d 4 -2 d 3 -2 d 3 -1 d 3 -2 d 3 -2 d 3 -2 d 3 -2 d 3 -1 d 3 -2 d 3 -2 d 3 -2 d 3 -2 d 3 -1
 d 3 -2 d 3 -2 d 3 -2 d 4 -2 d 3 -1 d 3 -2 d 3 -2 d 3 -2 d 3 -2 d 3 -1 d 3 -2 d 3 -2 d s 839 109 m 3 -2 d s 0.49 0.6 0.82 c black 0.49 0.6 0.82 c
 gsave  408 306 476 13 C 595.418 296.285 t 0 r /Helvetica-Bold findfont 25.6831 sf 0 0 m (8.0 < E < 8.5 GeV) show NC gr  0.52 0.76 0.64 c black 0.52 0.76 0.64 c
 gsave  408 306 476 13 C 575.476 259.249 t 0 r /Helvetica-Bold findfont 25.6831 sf 0 0 m 
 228 214 200 193 178 171 156 149 133 126 119 105 91 77 69 55 47 39 25 17
(A = \2550.000, p = 1.000) K NC gr  1 0.6 1 c black 1 0.6 1 c
 gsave  408 306 476 13 C 883.156 128.2 t 90 r /Helvetica-Bold findfont 28.5368 sf 0 0 m (/dof=1.0) show NC gr  black 1 0.6 1 c
 gsave  408 306 476 13 C 871.76 116.804 t 90 r /Helvetica-Bold findfont 19.9758 sf 0 0 m (2) show NC gr  black 1 0.6 1 c
 gsave  408 306 476 13 C 883.156 99.7112 t 90 r /Symbol findfont 28.5368 sf 0 0 m (c) show NC gr  black 3 lw 1 1 1 c 408 306 930 13 bf black 1 1 1 c black 306 229 991 59 bl 306 229 991 59 bl 991 59 m 306 X s 1014 63 m -4 Y s 1141 63 m -4 Y s 1269 63
 m -4 Y s 1014 63 m -4 Y s 1269 63 m -4 Y s
 gsave  408 306 930 13 C 1002.81 39.8845 t 0 r /Helvetica findfont 22.8295 sf 0 0 m (0) show NC gr 
 gsave  408 306 930 13 C 1113.92 39.8845 t 0 r /Helvetica findfont 22.8295 sf 0 0 m (1000) show NC gr 
 gsave  408 306 930 13 C 1242.12 39.8845 t 0 r /Helvetica findfont 22.8295 sf 0 0 m (2000) show NC gr  991 288 m 306 X s 1014 284 m 4 Y s 1141 284 m 4 Y s 1269 284 m 4 Y s 1014 284 m 4 Y s 1269 284 m 4 Y s 991 59 m 229 Y s 997 70 m -6 X s 994 76 m -3
 X s 994 82 m -3 X s 994 88 m -3 X s 994 94 m -3 X s 997 100 m -6 X s 994 106 m -3 X s 994 112 m -3 X s 994 118 m -3 X s 994 123 m -3 X s 997 129 m -6 X s 994 135 m -3 X s 994 141 m -3 X s 994 147 m -3 X s 994 153 m -3 X s 997 159 m -6 X s 994 165 m
 -3 X s 994 171 m -3 X s 994 177 m -3 X s 994 183 m -3 X s 997 189 m -6 X s 994 195 m -3 X s 994 201 m -3 X s 994 207 m -3 X s 994 213 m -3 X s 997 219 m -6 X s 994 225 m -3 X s 994 231 m -3 X s 994 236 m -3 X s 994 242 m -3 X s 997 248 m -6 X s 994
 254 m -3 X s 994 260 m -3 X s 994 266 m -3 X s 994 272 m -3 X s 997 278 m -6 X s 997 70 m -6 X s 994 64 m -3 X s 997 278 m -6 X s 994 284 m -3 X s
 gsave  408 306 930 13 C 937.285 62.6756 t 0 r /Helvetica findfont 22.8295 sf 0 0 m (\2550.04) show NC gr 
 gsave  408 306 930 13 C 937.285 91.1645 t 0 r /Helvetica findfont 22.8295 sf 0 0 m (\2550.03) show NC gr 
 gsave  408 306 930 13 C 937.285 122.502 t 0 r /Helvetica findfont 22.8295 sf 0 0 m (\2550.02) show NC gr 
 gsave  408 306 930 13 C 940.134 150.991 t 0 r /Helvetica findfont 22.8295 sf 0 0 m (\2550.01) show NC gr 
 gsave  408 306 930 13 C 974.32 182.329 t 0 r /Helvetica findfont 22.8295 sf 0 0 m (0) show NC gr 
 gsave  408 306 930 13 C 945.832 210.818 t 0 r /Helvetica findfont 22.8295 sf 0 0 m (0.01) show NC gr 
 gsave  408 306 930 13 C 942.983 242.156 t 0 r /Helvetica findfont 22.8295 sf 0 0 m (0.02) show NC gr 
 gsave  408 306 930 13 C 942.983 270.645 t 0 r /Helvetica findfont 22.8295 sf 0 0 m (0.03) show NC gr  1297 59 m 229 Y s 1292 70 m 5 X s 1294 76 m 3 X s 1294 82 m 3 X s 1294 88 m 3 X s 1294 94 m 3 X s 1292 100 m 5 X s 1294 106 m 3 X s 1294 112 m 3 X
 s 1294 118 m 3 X s 1294 123 m 3 X s 1292 129 m 5 X s 1294 135 m 3 X s 1294 141 m 3 X s 1294 147 m 3 X s 1294 153 m 3 X s 1292 159 m 5 X s 1294 165 m 3 X s 1294 171 m 3 X s 1294 177 m 3 X s 1294 183 m 3 X s 1292 189 m 5 X s 1294 195 m 3 X s 1294 201
 m 3 X s 1294 207 m 3 X s 1294 213 m 3 X s 1292 219 m 5 X s 1294 225 m 3 X s 1294 231 m 3 X s 1294 236 m 3 X s 1294 242 m 3 X s 1292 248 m 5 X s 1294 254 m 3 X s 1294 260 m 3 X s 1294 266 m 3 X s 1294 272 m 3 X s 1292 278 m 5 X s 1292 70 m 5 X s 1294
 64 m 3 X s 1292 278 m 5 X s 1294 284 m 3 X s 1016 174 1019 169 1024 181 1078 213 1269 132 5 { m21} R 1016 185 m 44 Y s 1011 229 m 11 X s 1016 162 m -43 Y s 1011 119 m 11 X s 1019 181 m 43 Y s 1013 224 m 12 X s 1019 158 m -44 Y s 1013 114 m 12 X s
 1024 192 m 44 Y s 1019 236 m 11 X s 1024 169 m -43 Y s 1019 126 m 11 X s 1078 225 m 44 Y s 1072 269 m 11 X s 1078 202 m -45 Y s 1072 157 m 11 X s 1269 143 m 43 Y s 1264 186 m 11 X s 1269 121 m -43 Y s 1264 78 m 11 X s 1 0 0 c 9 lw 0.95 0.95 0.95 c
 black 1 0 0 c 993 189 m 42 X 3 -1 d 16 X 3 -1 d 9 X 3 -1 d 6 X 3 -1 d 6 X 3 -1 d 7 X 3 -1 d 3 X 3 -1 d 3 X 3 -1 d 3 X 3 -1 d 3 X 3 -1 d 3 X 3 -1 d 3 -1 d 3 X 3 -1 d 3 X 4 -1 d s 1143 175 m 3 -1 d 3 -1 d 3 X 3 -1 d 3 -1 d 3 X 3 -1 d 3 -1 d 3 -1 d 3
 -1 d 3 X 3 -1 d 3 -1 d 3 -1 d 3 -1 d 4 -1 d 3 -1 d 3 -1 d 3 -1 d 3 -1 d 3 -1 d 3 -1 d 3 -1 d 3 -1 d 3 -1 d 3 -1 d 3 -1 d 3 -1 d 3 -1 d 3 -1 d 3 -1 d 3 -2 d 4 -1 d 3 -1 d 3 -1 d 3 -1 d 3 -2 d 3 -1 d 3 -1 d 3 -2 d 3 -1 d 3 -1 d 3 -1 d 3 -2 d 3 -1 d 3
 -2 d 3 -1 d 3 -1 d 4 -2 d s 1293 123 m 3 -1 d s 0.49 0.6 0.82 c black 0.49 0.6 0.82 c
 gsave  408 306 930 13 C 1051.24 296.285 t 0 r /Helvetica-Bold findfont 25.6831 sf 0 0 m (8.5 < E < 9.0 GeV) show NC gr  0.52 0.76 0.64 c black 0.52 0.76 0.64 c
 gsave  408 306 930 13 C 1031.3 259.249 t 0 r /Helvetica-Bold findfont 25.6831 sf 0 0 m 
 228 214 200 193 178 171 156 149 134 126 119 105 91 77 69 55 47 40 25 17
(A = \2550.000, p = 2.000) K NC gr  1 0.6 1 c black 1 0.6 1 c
 gsave  408 306 930 13 C 1336.13 128.2 t 90 r /Helvetica-Bold findfont 28.5368 sf 0 0 m (/dof=0.1) show NC gr  black 1 0.6 1 c
 gsave  408 306 930 13 C 1324.73 116.804 t 90 r /Helvetica-Bold findfont 19.9758 sf 0 0 m (2) show NC gr  black 1 0.6 1 c
 gsave  408 306 930 13 C 1336.13 99.7112 t 90 r /Symbol findfont 28.5368 sf 0 0 m (c) show NC gr  black 3 lw 1 1 1 c 408 306 1383 13 bf black 1 1 1 c black 306 229 1445 59 bl 306 229 1445 59 bl 1445 59 m 306 X s 1467 63 m -4 Y s 1595 63 m -4 Y s 1723
 63 m -4 Y s 1467 63 m -4 Y s 1723 63 m -4 Y s
 gsave  408 306 1383 13 C 1455.78 39.8845 t 0 r /Helvetica findfont 22.8295 sf 0 0 m (0) show NC gr 
 gsave  408 306 1383 13 C 1566.89 39.8845 t 0 r /Helvetica findfont 22.8295 sf 0 0 m (1000) show NC gr 
 gsave  408 306 1383 13 C 1695.09 39.8845 t 0 r /Helvetica findfont 22.8295 sf 0 0 m (2000) show NC gr  1445 288 m 306 X s 1467 284 m 4 Y s 1595 284 m 4 Y s 1723 284 m 4 Y s 1467 284 m 4 Y s 1723 284 m 4 Y s 1445 59 m 229 Y s 1450 82 m -5 X s 1447 88
 m -2 X s 1447 93 m -2 X s 1447 98 m -2 X s 1447 104 m -2 X s 1450 109 m -5 X s 1447 115 m -2 X s 1447 120 m -2 X s 1447 126 m -2 X s 1447 131 m -2 X s 1450 136 m -5 X s 1447 142 m -2 X s 1447 147 m -2 X s 1447 153 m -2 X s 1447 158 m -2 X s 1450 163
 m -5 X s 1447 169 m -2 X s 1447 174 m -2 X s 1447 180 m -2 X s 1447 185 m -2 X s 1450 191 m -5 X s 1447 196 m -2 X s 1447 201 m -2 X s 1447 207 m -2 X s 1447 212 m -2 X s 1450 218 m -5 X s 1447 223 m -2 X s 1447 229 m -2 X s 1447 234 m -2 X s 1447
 239 m -2 X s 1450 245 m -5 X s 1447 250 m -2 X s 1447 256 m -2 X s 1447 261 m -2 X s 1447 266 m -2 X s 1450 272 m -5 X s 1450 82 m -5 X s 1447 77 m -2 X s 1447 71 m -2 X s 1447 66 m -2 X s 1447 60 m -2 X s 1450 272 m -5 X s 1447 277 m -2 X s 1447
 283 m -2 X s
 gsave  408 306 1383 13 C 1390.26 74.0711 t 0 r /Helvetica findfont 22.8295 sf 0 0 m (\2550.04) show NC gr 
 gsave  408 306 1383 13 C 1390.26 102.56 t 0 r /Helvetica findfont 22.8295 sf 0 0 m (\2550.03) show NC gr 
 gsave  408 306 1383 13 C 1390.26 128.2 t 0 r /Helvetica findfont 22.8295 sf 0 0 m (\2550.02) show NC gr 
 gsave  408 306 1383 13 C 1393.11 156.689 t 0 r /Helvetica findfont 22.8295 sf 0 0 m (\2550.01) show NC gr 
 gsave  408 306 1383 13 C 1427.29 182.329 t 0 r /Helvetica findfont 22.8295 sf 0 0 m (0) show NC gr 
 gsave  408 306 1383 13 C 1398.81 210.818 t 0 r /Helvetica findfont 22.8295 sf 0 0 m (0.01) show NC gr 
 gsave  408 306 1383 13 C 1395.96 236.458 t 0 r /Helvetica findfont 22.8295 sf 0 0 m (0.02) show NC gr 
 gsave  408 306 1383 13 C 1395.96 264.947 t 0 r /Helvetica findfont 22.8295 sf 0 0 m (0.03) show NC gr  1751 59 m 229 Y s 1745 82 m 6 X s 1748 88 m 3 X s 1748 93 m 3 X s 1748 98 m 3 X s 1748 104 m 3 X s 1745 109 m 6 X s 1748 115 m 3 X s 1748 120 m 3
 X s 1748 126 m 3 X s 1748 131 m 3 X s 1745 136 m 6 X s 1748 142 m 3 X s 1748 147 m 3 X s 1748 153 m 3 X s 1748 158 m 3 X s 1745 163 m 6 X s 1748 169 m 3 X s 1748 174 m 3 X s 1748 180 m 3 X s 1748 185 m 3 X s 1745 191 m 6 X s 1748 196 m 3 X s 1748
 201 m 3 X s 1748 207 m 3 X s 1748 212 m 3 X s 1745 218 m 6 X s 1748 223 m 3 X s 1748 229 m 3 X s 1748 234 m 3 X s 1748 239 m 3 X s 1745 245 m 6 X s 1748 250 m 3 X s 1748 256 m 3 X s 1748 261 m 3 X s 1748 266 m 3 X s 1745 272 m 6 X s 1745 82 m 6 X s
 1748 77 m 3 X s 1748 71 m 3 X s 1748 66 m 3 X s 1748 60 m 3 X s 1745 272 m 6 X s 1748 277 m 3 X s 1748 283 m 3 X s 1470 214 1473 210 1478 204 1531 131 1723 184 5 { m21} R 1470 226 m 43 Y s 1464 269 m 12 X s 1470 203 m -43 Y s 1464 160 m 12 X s 1473
 221 m 43 Y s 1467 264 m 11 X s 1473 198 m -43 Y s 1467 155 m 11 X s 1478 216 m 42 Y s 1472 258 m 12 X s 1478 193 m -43 Y s 1472 150 m 12 X s 1531 142 m 41 Y s 1525 183 m 12 X s 1531 119 m -41 Y s 1525 78 m 12 X s 1723 195 m 42 Y s 1717 237 m 12 X s
 1723 172 m -42 Y s 1717 130 m 12 X s 9 lw 0.95 0.95 0.95 c black 1446 192 m 9 X 3 -1 d 9 X 4 -1 d 9 X 3 -1 d 9 X 3 -1 d 9 X 3 -1 d 9 X 4 -1 d 12 X 3 -1 d 9 X 3 -1 d 9 X 3 -1 d 10 X 3 -1 d 9 X 3 -1 d 9 X 3 -1 d s 1596 180 m 12 X 3 -1 d 10 X 3 -1 d 9
 X 3 -1 d 9 X 3 -1 d 9 X 3 -1 d 10 X 3 -1 d 12 X 3 -1 d 9 X 3 -1 d 9 X 3 -1 d 10 X 3 -1 d 9 X 3 -1 d 9 X s 1746 169 m 3 -1 d s 0.49 0.6 0.82 c black 0.49 0.6 0.82 c
 gsave  408 306 1383 13 C 1504.21 296.285 t 0 r /Helvetica-Bold findfont 25.6831 sf 0 0 m (9.0 < E < 9.5 GeV) show NC gr  0.52 0.76 0.64 c black 0.52 0.76 0.64 c
 gsave  408 306 1383 13 C 1484.27 259.249 t 0 r /Helvetica-Bold findfont 25.6831 sf 0 0 m 
 228 214 200 193 178 171 156 149 133 126 119 105 91 77 69 55 47 39 25 17
(A = \2550.000, p = 1.000) K NC gr  1 0.6 1 c black 1 0.6 1 c
 gsave  408 306 1383 13 C 1789.1 128.2 t 90 r /Helvetica-Bold findfont 28.5368 sf 0 0 m (/dof=0.4) show NC gr  black 1 0.6 1 c
 gsave  408 306 1383 13 C 1777.71 116.804 t 90 r /Helvetica-Bold findfont 19.9758 sf 0 0 m (2) show NC gr  black 1 0.6 1 c
 gsave  408 306 1383 13 C 1789.1 99.7112 t 90 r /Symbol findfont 28.5368 sf 0 0 m (c) show NC gr  black 3 lw 1 1 1 c 408 306 1837 13 bf black 1 1 1 c black 306 229 1898 59 bl 306 229 1898 59 bl 1898 59 m 306 X s 1921 63 m -4 Y s 2049 63 m -4 Y s 2176
 63 m -4 Y s 1921 63 m -4 Y s 2176 63 m -4 Y s
 gsave  408 306 1837 13 C 1911.61 39.8845 t 0 r /Helvetica findfont 22.8295 sf 0 0 m (0) show NC gr 
 gsave  408 306 1837 13 C 2022.71 39.8845 t 0 r /Helvetica findfont 22.8295 sf 0 0 m (1000) show NC gr 
 gsave  408 306 1837 13 C 2148.06 39.8845 t 0 r /Helvetica findfont 22.8295 sf 0 0 m (2000) show NC gr  1898 288 m 306 X s 1921 284 m 4 Y s 2049 284 m 4 Y s 2176 284 m 4 Y s 1921 284 m 4 Y s 2176 284 m 4 Y s 1898 59 m 229 Y s 1904 74 m -6 X s 1901 81
 m -3 X s 1901 87 m -3 X s 1901 94 m -3 X s 1901 100 m -3 X s 1904 106 m -6 X s 1901 113 m -3 X s 1901 119 m -3 X s 1901 126 m -3 X s 1901 132 m -3 X s 1904 139 m -6 X s 1901 145 m -3 X s 1901 152 m -3 X s 1901 158 m -3 X s 1901 165 m -3 X s 1904 171
 m -6 X s 1901 178 m -3 X s 1901 184 m -3 X s 1901 191 m -3 X s 1901 197 m -3 X s 1904 204 m -6 X s 1901 210 m -3 X s 1901 217 m -3 X s 1901 223 m -3 X s 1901 230 m -3 X s 1904 236 m -6 X s 1901 243 m -3 X s 1901 249 m -3 X s 1901 256 m -3 X s 1901
 262 m -3 X s 1904 269 m -6 X s 1904 74 m -6 X s 1901 68 m -3 X s 1901 61 m -3 X s 1904 269 m -6 X s 1901 275 m -3 X s 1901 282 m -3 X s
 gsave  408 306 1837 13 C 1843.23 65.5245 t 0 r /Helvetica findfont 22.8295 sf 0 0 m (\2550.03) show NC gr 
 gsave  408 306 1837 13 C 1843.23 99.7112 t 0 r /Helvetica findfont 22.8295 sf 0 0 m (\2550.02) show NC gr 
 gsave  408 306 1837 13 C 1846.08 131.049 t 0 r /Helvetica findfont 22.8295 sf 0 0 m (\2550.01) show NC gr 
 gsave  408 306 1837 13 C 1880.27 165.236 t 0 r /Helvetica findfont 22.8295 sf 0 0 m (0) show NC gr 
 gsave  408 306 1837 13 C 1851.78 196.573 t 0 r /Helvetica findfont 22.8295 sf 0 0 m (0.01) show NC gr 
 gsave  408 306 1837 13 C 1848.93 227.911 t 0 r /Helvetica findfont 22.8295 sf 0 0 m (0.02) show NC gr 
 gsave  408 306 1837 13 C 1848.93 262.098 t 0 r /Helvetica findfont 22.8295 sf 0 0 m (0.03) show NC gr  2204 59 m 229 Y s 2199 74 m 5 X s 2201 81 m 3 X s 2201 87 m 3 X s 2201 94 m 3 X s 2201 100 m 3 X s 2199 106 m 5 X s 2201 113 m 3 X s 2201 119 m 3
 X s 2201 126 m 3 X s 2201 132 m 3 X s 2199 139 m 5 X s 2201 145 m 3 X s 2201 152 m 3 X s 2201 158 m 3 X s 2201 165 m 3 X s 2199 171 m 5 X s 2201 178 m 3 X s 2201 184 m 3 X s 2201 191 m 3 X s 2201 197 m 3 X s 2199 204 m 5 X s 2201 210 m 3 X s 2201
 217 m 3 X s 2201 223 m 3 X s 2201 230 m 3 X s 2199 236 m 5 X s 2201 243 m 3 X s 2201 249 m 3 X s 2201 256 m 3 X s 2201 262 m 3 X s 2199 269 m 5 X s 2199 74 m 5 X s 2201 68 m 3 X s 2201 61 m 3 X s 2199 269 m 5 X s 2201 275 m 3 X s 2201 282 m 3 X s
 1923 161 1926 185 1931 161 1985 199 2176 147 5 { m21} R 1923 173 m 57 Y s 1918 230 m 11 X s 1923 150 m -58 Y s 1918 92 m 11 X s 1926 197 m 58 Y s 1920 255 m 12 X s 1926 174 m -58 Y s 1920 116 m 12 X s 1931 173 m 57 Y s 1926 230 m 11 X s 1931 150 m
 -58 Y s 1926 92 m 11 X s 1985 211 m 58 Y s 1979 269 m 11 X s 1985 188 m -59 Y s 1979 129 m 11 X s 2176 158 m 57 Y s 2171 215 m 11 X s 2176 135 m -57 Y s 2171 78 m 11 X s 1 0 0 c 9 lw 0.95 0.95 0.95 c black 1 0 0 c 1900 171 m 70 X 3 -1 d 18 X 4 -1 d
 15 X 3 -1 d 12 X 3 -1 d 9 X 3 -1 d 10 X s 2050 166 m 3 -1 d 6 X 3 -1 d 6 X 3 -1 d 6 X 3 -1 d 6 X 3 -1 d 7 X 3 -1 d 3 X 3 -1 d 6 X 3 -1 d 3 X 3 -1 d 6 X 3 -1 d 3 X 3 -1 d 3 X 3 -1 d 4 X 3 -1 d 3 X 3 -1 d 3 X 3 -1 d 3 X 3 -1 d 3 X 3 -1 d 3 X 3 -1 d 3
 -1 d 3 X 3 -1 d 3 X 4 -1 d 3 X 3 -1 d s 2200 144 m 3 -1 d s 0.49 0.6 0.82 c black 0.49 0.6 0.82 c
 gsave  408 306 1837 13 C 1948.64 296.285 t 0 r /Helvetica-Bold findfont 25.6831 sf 0 0 m (9.5 < E < 10.0 GeV) show NC gr  0.52 0.76 0.64 c black 0.52 0.76 0.64 c
 gsave  408 306 1837 13 C 1937.25 259.249 t 0 r /Helvetica-Bold findfont 25.6831 sf 0 0 m 
 228 214 200 193 178 171 156 149 134 126 119 105 91 77 69 55 47 40 25 17
(A = \2550.000, p = 2.000) K NC gr  1 0.6 1 c black 1 0.6 1 c
 gsave  408 306 1837 13 C 2242.08 128.2 t 90 r /Helvetica-Bold findfont 28.5368 sf 0 0 m (/dof=0.1) show NC gr  black 1 0.6 1 c
 gsave  408 306 1837 13 C 2230.68 116.804 t 90 r /Helvetica-Bold findfont 19.9758 sf 0 0 m (2) show NC gr  black 1 0.6 1 c
 gsave  408 306 1837 13 C 2242.08 99.7112 t 90 r /Symbol findfont 28.5368 sf 0 0 m (c) show NC gr 
 gr  gr showpage
end
%%EOF
