%!PS-Adobe-2.0 EPSF-2.0
%%BoundingBox:  0 0 567 332
%%Title: LBNENDX_near_summary.eps: Summary
%%Creator: ROOT Version 5.30/06
%%CreationDate: Sun Feb  2 09:39:14 2014
%%EndComments
%%BeginProlog
80 dict begin
/s {stroke} def /l {lineto} def /m {moveto} def /t {translate} def
/r {rotate} def /rl {roll}  def /R {repeat} def
/d {rlineto} def /rm {rmoveto} def /gr {grestore} def /f {eofill} def
/c {setrgbcolor} def /black {0 setgray} def /sd {setdash} def
/cl {closepath} def /sf {scalefont setfont} def /lw {setlinewidth} def
/box {m dup 0 exch d exch 0 d 0 exch neg d cl} def
/NC{systemdict begin initclip end}def/C{NC box clip newpath}def
/bl {box s} def /bf {box f} def /Y { 0 exch d} def /X { 0 d} def 
/K {{pop pop 0 moveto} exch kshow} bind def
/ita {/ang 15 def gsave [1 0 ang dup sin exch cos div 1 0 0] concat} def 
/mp {newpath /y exch def /x exch def} def
/side {[w .77 mul w .23 mul] .385 w mul sd w 0 l currentpoint t -144 r} def
/mr {mp x y w2 0 360 arc} def /m24 {mr s} def /m20 {mr f} def
/mb {mp x y w2 add m w2 neg 0 d 0 w neg d w 0 d 0 w d cl} def
/mt {mp x y w2 add m w2 neg w neg d w 0 d cl} def
/m21 {mb f} def /m25 {mb s} def /m22 {mt f} def /m26{mt s} def
/m23 {mp x y w2 sub m w2 w d w neg 0 d cl f} def
/m27 {mp x y w2 add m w3 neg w2 neg d w3 w2 neg d w3 w2 d cl s} def
/m28 {mp x w2 sub y w2 sub w3 add m w3 0 d  0 w3 neg d w3 0 d 0 w3 d w3 0 d  0 w3 d w3 neg 0 d 0 w3 d w3 neg 0 d 0 w3 neg d w3 neg 0 d cl s } def
/m29 {mp gsave x w2 sub y w2 add w3 sub m currentpoint t 4 {side} repeat cl fill gr} def
/m30 {mp gsave x w2 sub y w2 add w3 sub m currentpoint t 4 {side} repeat cl s gr} def
/m31 {mp x y w2 sub m 0 w d x w2 sub y m w 0 d x w2 sub y w2 add m w w neg d x w2 sub y w2 sub m w w d s} def
/m32 {mp x y w2 sub m w2 w d w neg 0 d cl s} def
/m33 {mp x y w2 add m w3 neg w2 neg d w3 w2 neg d w3 w2 d cl f} def
/m34 {mp x w2 sub y w2 sub w3 add m w3 0 d  0 w3 neg d w3 0 d 0 w3 d w3 0 d  0 w3 d w3 neg 0 d 0 w3 d w3 neg 0 d 0 w3 neg d w3 neg 0 d cl f } def
/m2 {mp x y w2 sub m 0 w d x w2 sub y m w 0 d s} def
/m5 {mp x w2 sub y w2 sub m w w d x w2 sub y w2 add m w w neg d s} def
/reEncode {exch findfont dup length dict begin {1 index /FID eq  {pop pop} {def} ifelse } forall /Encoding exch def currentdict end dup /FontName get exch definefont pop } def [/Times-Bold /Times-Italic /Times-BoldItalic /Helvetica /Helvetica-Oblique
 /Helvetica-Bold /Helvetica-BoldOblique /Courier /Courier-Oblique /Courier-Bold /Courier-BoldOblique /Times-Roman /AvantGarde-Book /AvantGarde-BookOblique /AvantGarde-Demi /AvantGarde-DemiOblique /Bookman-Demi /Bookman-DemiItalic /Bookman-Light
 /Bookman-LightItalic /Helvetica-Narrow /Helvetica-Narrow-Bold /Helvetica-Narrow-BoldOblique /Helvetica-Narrow-Oblique /NewCenturySchlbk-Roman /NewCenturySchlbk-Bold /NewCenturySchlbk-BoldItalic /NewCenturySchlbk-Italic /Palatino-Bold
 /Palatino-BoldItalic /Palatino-Italic /Palatino-Roman ] {ISOLatin1Encoding reEncode } forall%%EndProlog
%%BeginSetup
%%EndSetup
newpath  gsave  .25 .25 scale  gsave  0 0 t black[  ] 0 sd 3 lw 1 1 1 c 2268 1328 0 0 bf black 1 1 1 c black 1588 996 340 199 bl 1588 996 340 199 bl 1 1 1 c 1 0 0 c /w 23 def /w2 {w 2 div} def /w3 {w 3 div} def 380 391 m21 459 397 m21 539 402 m21 618
 392 m21 697 396 m21 777 388 m21 856 385 m21 935 372 m21 1015 384 m21 black 1094 404 m 4 Y s 1094 431 m 4 Y s 1088 404 m 12 X s 1088 435 m 12 X s 1 0 0 c 1094 420 m21 black 1174 439 m 9 Y s 1174 471 m 9 Y s 1168 439 m 11 X s 1168 480 m 11 X s 1 0 0 c
 1174 460 m21 black 1253 445 m 14 Y s 1253 482 m 15 Y s 1247 445 m 12 X s 1247 497 m 12 X s 1 0 0 c 1253 471 m21 black 1332 444 m 19 Y s 1332 486 m 19 Y s 1327 444 m 11 X s 1327 505 m 11 X s 1 0 0 c 1332 474 m21 black 1412 451 m 23 Y s 1412 496 m 23
 Y s 1406 451 m 11 X s 1406 519 m 11 X s 1 0 0 c 1412 485 m21 black 1491 363 m 25 Y s 1491 411 m 26 Y s 1485 363 m 12 X s 1485 437 m 12 X s 1 0 0 c 1491 400 m21 black 1570 375 m 29 Y s 1570 426 m 29 Y s 1565 375 m 11 X s 1565 455 m 11 X s 1 0 0 c
 1570 415 m21 black 1650 316 m 31 Y s 1650 370 m 31 Y s 1644 316 m 11 X s 1644 401 m 11 X s 1 0 0 c 1650 359 m21 black 1729 268 m 33 Y s 1729 324 m 33 Y s 1723 268 m 12 X s 1723 357 m 12 X s 1 0 0 c 1729 313 m21 black 1809 396 m 37 Y s 1809 456 m 37
 Y s 1803 396 m 11 X s 1803 493 m 11 X s 1 0 0 c 1809 444 m21 black 1888 363 m 39 Y s 1888 425 m 39 Y s 1882 363 m 12 X s 1882 464 m 12 X s 1 0 0 c 1888 414 m21 black 340 199 m 1588 X s
 gsave  2268 1328 0 0 C 954.378 68.3734 t 0 r /Helvetica findfont 62.6756 sf 0 0 m ( Energy \(GeV\) ) show NC gr 
 gsave  2268 1328 0 0 C 928.738 51.28 t 0 r /Symbol findfont 42.7334 sf 0 0 m (m) show NC gr 
 gsave  2268 1328 0 0 C 894.552 68.3734 t 0 r /Symbol findfont 62.6756 sf 0 0 m (n) show NC gr  340 216 m -17 Y s 372 208 m -9 Y s 404 208 m -9 Y s 435 208 m -9 Y s 467 208 m -9 Y s 499 216 m -17 Y s 531 208 m -9 Y s 562 208 m -9 Y s 594 208 m -9 Y s
 626 208 m -9 Y s 658 216 m -17 Y s 689 208 m -9 Y s 721 208 m -9 Y s 753 208 m -9 Y s 785 208 m -9 Y s 816 216 m -17 Y s 848 208 m -9 Y s 880 208 m -9 Y s 912 208 m -9 Y s 943 208 m -9 Y s 975 216 m -17 Y s 1007 208 m -9 Y s 1039 208 m -9 Y s 1070
 208 m -9 Y s 1102 208 m -9 Y s 1134 216 m -17 Y s 1166 208 m -9 Y s 1197 208 m -9 Y s 1229 208 m -9 Y s 1261 208 m -9 Y s 1293 216 m -17 Y s 1324 208 m -9 Y s 1356 208 m -9 Y s 1388 208 m -9 Y s 1420 208 m -9 Y s 1451 216 m -17 Y s 1483 208 m -9 Y s
 1515 208 m -9 Y s 1547 208 m -9 Y s 1578 208 m -9 Y s 1610 216 m -17 Y s 1642 208 m -9 Y s 1674 208 m -9 Y s 1705 208 m -9 Y s 1737 208 m -9 Y s 1769 216 m -17 Y s 1801 208 m -9 Y s 1832 208 m -9 Y s 1864 208 m -9 Y s 1896 208 m -9 Y s 1928 216 m
 -17 Y s
 gsave  2268 1328 0 0 C 319.076 136.747 t 0 r /Helvetica findfont 68.3734 sf 0 0 m (0) show NC gr 
 gsave  2268 1328 0 0 C 484.311 136.747 t 0 r /Helvetica findfont 68.3734 sf 0 0 m (1) show NC gr 
 gsave  2268 1328 0 0 C 635.302 136.747 t 0 r /Helvetica findfont 68.3734 sf 0 0 m (2) show NC gr 
 gsave  2268 1328 0 0 C 794.84 136.747 t 0 r /Helvetica findfont 68.3734 sf 0 0 m (3) show NC gr 
 gsave  2268 1328 0 0 C 954.378 136.747 t 0 r /Helvetica findfont 68.3734 sf 0 0 m (4) show NC gr 
 gsave  2268 1328 0 0 C 1113.92 136.747 t 0 r /Helvetica findfont 68.3734 sf 0 0 m (5) show NC gr 
 gsave  2268 1328 0 0 C 1270.6 136.747 t 0 r /Helvetica findfont 68.3734 sf 0 0 m (6) show NC gr 
 gsave  2268 1328 0 0 C 1430.14 136.747 t 0 r /Helvetica findfont 68.3734 sf 0 0 m (7) show NC gr 
 gsave  2268 1328 0 0 C 1589.68 136.747 t 0 r /Helvetica findfont 68.3734 sf 0 0 m (8) show NC gr 
 gsave  2268 1328 0 0 C 1746.37 136.747 t 0 r /Helvetica findfont 68.3734 sf 0 0 m (9) show NC gr 
 gsave  2268 1328 0 0 C 1888.81 136.747 t 0 r /Helvetica findfont 68.3734 sf 0 0 m (10) show NC gr  340 1195 m 1588 X s 340 1178 m 17 Y s 372 1186 m 9 Y s 404 1186 m 9 Y s 435 1186 m 9 Y s 467 1186 m 9 Y s 499 1178 m 17 Y s 531 1186 m 9 Y s 562 1186
 m 9 Y s 594 1186 m 9 Y s 626 1186 m 9 Y s 658 1178 m 17 Y s 689 1186 m 9 Y s 721 1186 m 9 Y s 753 1186 m 9 Y s 785 1186 m 9 Y s 816 1178 m 17 Y s 848 1186 m 9 Y s 880 1186 m 9 Y s 912 1186 m 9 Y s 943 1186 m 9 Y s 975 1178 m 17 Y s 1007 1186 m 9 Y s
 1039 1186 m 9 Y s 1070 1186 m 9 Y s 1102 1186 m 9 Y s 1134 1178 m 17 Y s 1166 1186 m 9 Y s 1197 1186 m 9 Y s 1229 1186 m 9 Y s 1261 1186 m 9 Y s 1293 1178 m 17 Y s 1324 1186 m 9 Y s 1356 1186 m 9 Y s 1388 1186 m 9 Y s 1420 1186 m 9 Y s 1451 1178 m
 17 Y s 1483 1186 m 9 Y s 1515 1186 m 9 Y s 1547 1186 m 9 Y s 1578 1186 m 9 Y s 1610 1178 m 17 Y s 1642 1186 m 9 Y s 1674 1186 m 9 Y s 1705 1186 m 9 Y s 1737 1186 m 9 Y s 1769 1178 m 17 Y s 1801 1186 m 9 Y s 1832 1186 m 9 Y s 1864 1186 m 9 Y s 1896
 1186 m 9 Y s 1928 1178 m 17 Y s 340 199 m 996 Y s
 gsave  2268 1328 0 0 C 170.933 324.773 t 90 r /Helvetica findfont 62.6756 sf 0 0 m (Near Flux Ratio to Nominal) show NC gr  371 199 m -31 X s 355 239 m -15 X s 355 279 m -15 X s 355 319 m -15 X s 355 358 m -15 X s 371 398 m -31 X s 355 438 m -15 X s
 355 478 m -15 X s 355 518 m -15 X s 355 558 m -15 X s 371 597 m -31 X s 355 637 m -15 X s 355 677 m -15 X s 355 717 m -15 X s 355 757 m -15 X s 371 797 m -31 X s 355 836 m -15 X s 355 876 m -15 X s 355 916 m -15 X s 355 956 m -15 X s 371 996 m -31 X
 s 355 1036 m -15 X s 355 1075 m -15 X s 355 1115 m -15 X s 355 1155 m -15 X s 371 1195 m -31 X s 371 199 m -31 X s
 gsave  2268 1328 0 0 C 196.573 173.782 t 0 r /Helvetica findfont 68.3734 sf 0 0 m (0.95) show NC gr 
 gsave  2268 1328 0 0 C 301.982 370.356 t 0 r /Helvetica findfont 68.3734 sf 0 0 m (1) show NC gr 
 gsave  2268 1328 0 0 C 196.573 572.627 t 0 r /Helvetica findfont 68.3734 sf 0 0 m (1.05) show NC gr 
 gsave  2268 1328 0 0 C 245.005 769.2 t 0 r /Helvetica findfont 68.3734 sf 0 0 m (1.1) show NC gr 
 gsave  2268 1328 0 0 C 196.573 971.472 t 0 r /Helvetica findfont 68.3734 sf 0 0 m (1.15) show NC gr 
 gsave  2268 1328 0 0 C 233.609 1168.04 t 0 r /Helvetica findfont 68.3734 sf 0 0 m (1.2) show NC gr  1928 199 m 996 Y s 1897 199 m 31 X s 1912 239 m 16 X s 1912 279 m 16 X s 1912 319 m 16 X s 1912 358 m 16 X s 1897 398 m 31 X s 1912 438 m 16 X s 1912
 478 m 16 X s 1912 518 m 16 X s 1912 558 m 16 X s 1897 597 m 31 X s 1912 637 m 16 X s 1912 677 m 16 X s 1912 717 m 16 X s 1912 757 m 16 X s 1897 797 m 31 X s 1912 836 m 16 X s 1912 876 m 16 X s 1912 916 m 16 X s 1912 956 m 16 X s 1897 996 m 31 X s
 1912 1036 m 16 X s 1912 1075 m 16 X s 1912 1115 m 16 X s 1912 1155 m 16 X s 1897 1195 m 31 X s 1897 199 m 31 X s 1 0 0 c 6 lw 1 1 1 c 1 0 0 c 380 394 m 37 3 d 42 2 d 25 2 d 21 2 d 34 X 8 -1 d 71 -11 d 19 X 14 1 d 26 3 d 33 X 17 -1 d 21 -1 d 29 -3 d
 79 -9 d 15 -2 d 31 -4 d 11 -2 d 38 X 13 1 d 11 1 d 11 1 d 10 2 d 9 2 d 10 2 d 7 3 d 8 3 d 9 4 d 10 5 d 16 8 d 16 9 d 10 5 d 3 1 d 38 18 d 14 5 d 10 5 d 11 3 d 7 3 d 12 3 d 13 4 d 13 3 d 13 3 d 12 1 d 11 2 d 5 X 7 1 d 8 X 10 -1 d 31 -3 d 14 X 6 1 d 3
 X 5 1 d 5 2 d 6 2 d 6 3 d 11 6 d 12 6 d 6 3 d 6 3 d 5 1 d 4 1 d 5 1 d 7 X 2 -1 d 3 -1 d 5 -1 d 4 -2 d 4 -3 d 5 -3 d 5 -4 d 6 -5 d 7 -8 d 17 -17 d 6 -6 d 5 -4 d 4 -4 d 4 -2 d 4 -2 d 7 -4 d 7 -3 d 8 -2 d 9 -3 d 10 -3 d 13 -2 d 25 -5 d 7 -1 d 8 -1 d 32
 X 8 -1 d 8 -1 d 6 -1 d 5 -1 d 6 -2 d 79 -54 d 3 X 4 1 d 3 2 d 4 2 d 3 3 d 4 3 d 4 4 d 5 5 d 5 7 d 14 18 d 6 7 d 4 5 d 5 4 d 3 4 d 4 2 d 3 2 d 4 2 d 2 X 5 2 d 6 1 d 6 1 d 6 1 d 6 X 6 -1 d 7 -1 d 6 -1 d 6 -2 d 6 -2 d 6 -3 d 6 -3 d 6 -3 d 1 -1 d s 3 lw
 /w 2 def /w2 {w 2 div} def /w3 {w 3 div} def 380 394 459 399 539 403 618 391 697 395 777 390 856 381 935 373 1015 382 1094 420 1174 454 1253 470 1332 468 1412 496 1491 434 1570 412 1650 404 1729 350 1809 421 1888 409 20 { m20} R 6 lw black 1 0 0 c
 gsave  2268 1328 0 0 C 2036.96 615.36 t 0 r /Helvetica-Bold findfont 48.4311 sf 0 0 m (/dof=0.2) show NC gr  black 1 0 0 c
 gsave  2268 1328 0 0 C 2017.01 632.454 t 0 r /Helvetica-Bold findfont 34.1867 sf 0 0 m (2) show NC gr  black 1 0 0 c
 gsave  2268 1328 0 0 C 1991.37 615.36 t 0 r /Symbol findfont 48.4311 sf 0 0 m (c) show NC gr  black 3 lw 340 398 m 1588 X s
 gsave  2268 1328 0 0 C 877.458 1213.63 t 0 r /Helvetica-Bold findfont 42.7334 sf 0 0 m (255 mm) show NC gr  1 0 0 c /w 23 def /w2 {w 2 div} def /w3 {w 3 div} def 836 1228 m21 black 1 1 1 c 0 0 1 c 380 789 m21 459 802 m21 539 817 m21 618 779 m21 697
 790 m21 777 762 m21 856 719 m21 935 684 m21 black 1015 714 m 1 Y s 1015 738 m s 1009 714 m 12 X s 1009 738 m 12 X s 0 0 1 c 1015 726 m21 black 1094 875 m 6 Y s 1094 904 m 6 Y s 1088 875 m 12 X s 1088 910 m 12 X s 0 0 1 c 1094 893 m21 black 1174 1015
 m 12 Y s 1174 1050 m 12 Y s 1168 1015 m 11 X s 1168 1062 m 11 X s 0 0 1 c 1174 1038 m21 black 1253 1084 m 18 Y s 1253 1125 m 18 Y s 1247 1084 m 12 X s 1247 1143 m 12 X s 0 0 1 c 1253 1113 m21 black 1332 1067 m 23 Y s 1332 1113 m 23 Y s 1327 1067 m
 11 X s 1327 1136 m 11 X s 0 0 1 c 1332 1102 m21 black 1412 980 m 27 Y s 1412 1030 m 27 Y s 1406 980 m 11 X s 1406 1057 m 11 X s 0 0 1 c 1412 1019 m21 black 1491 920 m 30 Y s 1491 973 m 31 Y s 1485 920 m 12 X s 1485 1004 m 12 X s 0 0 1 c 1491 962 m21
 black 1570 782 m 32 Y s 1570 837 m 33 Y s 1565 782 m 11 X s 1565 870 m 11 X s 0 0 1 c 1570 826 m21 black 1650 787 m 36 Y s 1650 846 m 36 Y s 1644 787 m 11 X s 1644 882 m 11 X s 0 0 1 c 1650 834 m21 black 1729 662 m 37 Y s 1729 722 m 38 Y s 1723 662
 m 12 X s 1723 760 m 12 X s 0 0 1 c 1729 711 m21 black 1809 781 m 42 Y s 1809 846 m 42 Y s 1803 781 m 11 X s 1803 888 m 11 X s 0 0 1 c 1809 835 m21 black 1888 762 m 44 Y s 1888 829 m 44 Y s 1882 762 m 12 X s 1882 873 m 12 X s 0 0 1 c 1888 817 m21 6
 lw 1 1 1 c 0 0 1 c 380 788 m 79 13 d 17 4 d 28 9 d 12 2 d 9 1 d 14 X 8 -2 d 9 -4 d 12 -6 d 31 -18 d 8 -4 d 8 -2 d 3 -1 d 18 X 14 3 d 24 6 d 11 1 d 9 1 d 3 -1 d 13 -2 d 12 -3 d 14 -6 d 41 -18 d 79 -41 d 12 -7 d 36 -21 d 10 -5 d 8 -2 d 8 -2 d 5 X 13 1
 d 10 3 d 9 2 d 9 4 d 9 6 d 10 7 d 7 7 d 8 8 d 5 6 d 6 8 d 6 10 d 6 12 d 8 15 d 9 20 d 14 34 d 15 34 d 8 17 d 7 16 d 24 49 d 17 33 d 12 23 d 10 16 d 8 13 d 9 13 d 12 16 d 10 12 d 11 12 d 10 10 d 10 8 d 9 7 d 9 5 d 8 4 d 10 3 d 10 2 d 20 X 10 -2 d 10
 -4 d 10 -4 d 9 -5 d 80 -92 d 9 -7 d 11 -8 d 18 -12 d 16 -10 d 9 -7 d 7 -7 d 9 -9 d 6 -8 d 7 -10 d 8 -13 d 18 -34 d 12 -22 d 8 -13 d 7 -10 d 5 -6 d 5 -6 d 3 -3 d 5 -3 d 6 -2 d 6 -1 d 7 X 9 2 d 19 5 d 7 1 d 7 -1 d 5 -1 d 5 -3 d 4 -3 d 5 -4 d 4 -7 d 5
 -8 d 6 -11 d 7 -15 d 21 -50 d 5 -11 d 5 -8 d 5 -7 d 4 -4 d 4 -4 d 3 -1 d 4 -1 d 1 X 4 1 d 4 3 d 4 5 d 4 6 d 4 7 d 5 10 d 5 14 d 7 19 d 14 38 d 6 17 d 5 11 d 5 9 d 4 7 d 3 5 d 4 4 d 2 2 d 6 4 d 7 3 d 7 2 d 7 1 d 6 -1 d 8 -2 d 5 -3 d 7 -4 d 7 -6 d 7
 -7 d 6 -7 d 6 -8 d s 3 lw /w 2 def /w2 {w 2 div} def /w3 {w 3 div} def 380 788 459 801 539 817 618 780 697 790 777 761 856 720 935 683 1015 727 1094 893 1174 1040 1253 1114 1332 1104 1412 1012 1491 952 1570 827 1650 821 1729 690 1809 848 1888 820 20
 { m20} R 6 lw black 0 0 1 c
 gsave  2268 1328 0 0 C 2036.96 1113.92 t 0 r /Helvetica-Bold findfont 48.4311 sf 0 0 m (/dof=0.0) show NC gr  black 0 0 1 c
 gsave  2268 1328 0 0 C 2017.01 1131.01 t 0 r /Helvetica-Bold findfont 34.1867 sf 0 0 m (2) show NC gr  black 0 0 1 c
 gsave  2268 1328 0 0 C 1991.37 1113.92 t 0 r /Symbol findfont 48.4311 sf 0 0 m (c) show NC gr  black 3 lw 340 797 m 1588 X s
 gsave  2268 1328 0 0 C 1783.41 1213.63 t 0 r /Helvetica-Bold findfont 42.7334 sf 0 0 m (510 mm) show NC gr  0 0 1 c /w 23 def /w2 {w 2 div} def /w3 {w 3 div} def 1743 1228 m21
 gr  gr showpage
end
%%EOF
