%!PS-Adobe-2.0 EPSF-2.0
%%BoundingBox:  0 0 567 332
%%Title: LBNENDX_near_fits.eps: Fits
%%Creator: ROOT Version 5.30/06
%%CreationDate: Sun Feb  2 09:39:13 2014
%%EndComments
%%BeginProlog
80 dict begin
/s {stroke} def /l {lineto} def /m {moveto} def /t {translate} def
/r {rotate} def /rl {roll}  def /R {repeat} def
/d {rlineto} def /rm {rmoveto} def /gr {grestore} def /f {eofill} def
/c {setrgbcolor} def /black {0 setgray} def /sd {setdash} def
/cl {closepath} def /sf {scalefont setfont} def /lw {setlinewidth} def
/box {m dup 0 exch d exch 0 d 0 exch neg d cl} def
/NC{systemdict begin initclip end}def/C{NC box clip newpath}def
/bl {box s} def /bf {box f} def /Y { 0 exch d} def /X { 0 d} def 
/K {{pop pop 0 moveto} exch kshow} bind def
/ita {/ang 15 def gsave [1 0 ang dup sin exch cos div 1 0 0] concat} def 
/mp {newpath /y exch def /x exch def} def
/side {[w .77 mul w .23 mul] .385 w mul sd w 0 l currentpoint t -144 r} def
/mr {mp x y w2 0 360 arc} def /m24 {mr s} def /m20 {mr f} def
/mb {mp x y w2 add m w2 neg 0 d 0 w neg d w 0 d 0 w d cl} def
/mt {mp x y w2 add m w2 neg w neg d w 0 d cl} def
/m21 {mb f} def /m25 {mb s} def /m22 {mt f} def /m26{mt s} def
/m23 {mp x y w2 sub m w2 w d w neg 0 d cl f} def
/m27 {mp x y w2 add m w3 neg w2 neg d w3 w2 neg d w3 w2 d cl s} def
/m28 {mp x w2 sub y w2 sub w3 add m w3 0 d  0 w3 neg d w3 0 d 0 w3 d w3 0 d  0 w3 d w3 neg 0 d 0 w3 d w3 neg 0 d 0 w3 neg d w3 neg 0 d cl s } def
/m29 {mp gsave x w2 sub y w2 add w3 sub m currentpoint t 4 {side} repeat cl fill gr} def
/m30 {mp gsave x w2 sub y w2 add w3 sub m currentpoint t 4 {side} repeat cl s gr} def
/m31 {mp x y w2 sub m 0 w d x w2 sub y m w 0 d x w2 sub y w2 add m w w neg d x w2 sub y w2 sub m w w d s} def
/m32 {mp x y w2 sub m w2 w d w neg 0 d cl s} def
/m33 {mp x y w2 add m w3 neg w2 neg d w3 w2 neg d w3 w2 d cl f} def
/m34 {mp x w2 sub y w2 sub w3 add m w3 0 d  0 w3 neg d w3 0 d 0 w3 d w3 0 d  0 w3 d w3 neg 0 d 0 w3 d w3 neg 0 d 0 w3 neg d w3 neg 0 d cl f } def
/m2 {mp x y w2 sub m 0 w d x w2 sub y m w 0 d s} def
/m5 {mp x w2 sub y w2 sub m w w d x w2 sub y w2 add m w w neg d s} def
/reEncode {exch findfont dup length dict begin {1 index /FID eq  {pop pop} {def} ifelse } forall /Encoding exch def currentdict end dup /FontName get exch definefont pop } def [/Times-Bold /Times-Italic /Times-BoldItalic /Helvetica /Helvetica-Oblique
 /Helvetica-Bold /Helvetica-BoldOblique /Courier /Courier-Oblique /Courier-Bold /Courier-BoldOblique /Times-Roman /AvantGarde-Book /AvantGarde-BookOblique /AvantGarde-Demi /AvantGarde-DemiOblique /Bookman-Demi /Bookman-DemiItalic /Bookman-Light
 /Bookman-LightItalic /Helvetica-Narrow /Helvetica-Narrow-Bold /Helvetica-Narrow-BoldOblique /Helvetica-Narrow-Oblique /NewCenturySchlbk-Roman /NewCenturySchlbk-Bold /NewCenturySchlbk-BoldItalic /NewCenturySchlbk-Italic /Palatino-Bold
 /Palatino-BoldItalic /Palatino-Italic /Palatino-Roman ] {ISOLatin1Encoding reEncode } forall%%EndProlog
%%BeginSetup
%%EndSetup
newpath  gsave  .25 .25 scale  gsave  0 0 t black[  ] 0 sd 3 lw 1 1 1 c 2268 1328 0 0 bf black 1 1 1 c 408 305 23 1009 bf black 1 1 1 c black 306 229 84 1055 bl 306 229 84 1055 bl 84 1055 m 306 X s 84 1059 m -4 Y s 198 1059 m -4 Y s 311 1059 m -4 Y s
 311 1059 m -4 Y s
 gsave  408 305 23 1009 C 74.0711 1034.15 t 0 r /Helvetica findfont 22.8295 sf 0 0 m (0) show NC gr 
 gsave  408 305 23 1009 C 176.631 1034.15 t 0 r /Helvetica findfont 22.8295 sf 0 0 m (200) show NC gr 
 gsave  408 305 23 1009 C 290.587 1034.15 t 0 r /Helvetica findfont 22.8295 sf 0 0 m (400) show NC gr  84 1284 m 306 X s 84 1280 m 4 Y s 198 1280 m 4 Y s 311 1280 m 4 Y s 311 1280 m 4 Y s 84 1055 m 229 Y s 89 1059 m -5 X s 87 1067 m -3 X s 87 1076 m
 -3 X s 87 1085 m -3 X s 87 1094 m -3 X s 89 1103 m -5 X s 87 1112 m -3 X s 87 1121 m -3 X s 87 1129 m -3 X s 87 1138 m -3 X s 89 1147 m -5 X s 87 1156 m -3 X s 87 1165 m -3 X s 87 1174 m -3 X s 87 1182 m -3 X s 89 1191 m -5 X s 87 1200 m -3 X s 87
 1209 m -3 X s 87 1218 m -3 X s 87 1227 m -3 X s 89 1236 m -5 X s 87 1244 m -3 X s 87 1253 m -3 X s 87 1262 m -3 X s 87 1271 m -3 X s 89 1280 m -5 X s 89 1059 m -5 X s 89 1280 m -5 X s
 gsave  408 305 23 1009 C 14.2445 1051.24 t 0 r /Helvetica findfont 22.8295 sf 0 0 m (\2550.003) show NC gr 
 gsave  408 305 23 1009 C 2.84889 1096.82 t 0 r /Helvetica findfont 22.8295 sf 0 0 m (\2550.0025) show NC gr 
 gsave  408 305 23 1009 C 14.2445 1139.56 t 0 r /Helvetica findfont 22.8295 sf 0 0 m (\2550.002) show NC gr 
 gsave  408 305 23 1009 C 2.84889 1185.14 t 0 r /Helvetica findfont 22.8295 sf 0 0 m (\2550.0015) show NC gr 
 gsave  408 305 23 1009 C 17.0933 1227.87 t 0 r /Helvetica findfont 22.8295 sf 0 0 m (\2550.001) show NC gr 
 gsave  408 305 23 1009 C 2.84889 1273.45 t 0 r /Helvetica findfont 22.8295 sf 0 0 m (\2550.0005) show NC gr  390 1055 m 229 Y s 385 1059 m 5 X s 387 1067 m 3 X s 387 1076 m 3 X s 387 1085 m 3 X s 387 1094 m 3 X s 385 1103 m 5 X s 387 1112 m 3 X s
 387 1121 m 3 X s 387 1129 m 3 X s 387 1138 m 3 X s 385 1147 m 5 X s 387 1156 m 3 X s 387 1165 m 3 X s 387 1174 m 3 X s 387 1182 m 3 X s 385 1191 m 5 X s 387 1200 m 3 X s 387 1209 m 3 X s 387 1218 m 3 X s 387 1227 m 3 X s 385 1236 m 5 X s 387 1244 m
 3 X s 387 1253 m 3 X s 387 1262 m 3 X s 387 1271 m 3 X s 385 1280 m 5 X s 385 1059 m 5 X s 385 1280 m 5 X s /w 22 def /w2 {w 2 div} def /w3 {w 3 div} def 229 1161 374 1177 2 { m21} R 229 1173 m 76 Y s 223 1249 m 12 X s 229 1150 m -76 Y s 223 1074 m
 12 X s 374 1189 m 76 Y s 368 1265 m 12 X s 374 1166 m -76 Y s 368 1090 m 12 X s 9 lw 0.95 0.95 0.95 c black 147 1284 m 3 -1 d 3 -2 d 3 -2 d 3 -2 d 3 -2 d 3 -2 d 3 -2 d 3 -2 d 3 -2 d 3 -2 d 3 -2 d 3 -2 d 3 -2 d 4 -1 d 3 -2 d 3 -2 d 3 -2 d 3 -2 d 3 -2
 d 3 -2 d 3 -2 d 3 -2 d 3 -2 d 3 -2 d 3 -2 d 3 -2 d 3 -1 d 3 -2 d 3 -2 d 4 -2 d 3 -2 d 3 -2 d 3 -2 d 3 -2 d 3 -2 d 3 -2 d 3 -2 d 3 -2 d 3 -2 d 3 -2 d 3 -1 d 3 -2 d 3 -2 d 3 -2 d 3 -2 d 3 -2 d 4 -2 d 3 -2 d 3 -2 d s 297 1190 m 3 -2 d 3 -2 d 3 -2 d 3
 -2 d 3 -2 d 3 -1 d 3 -2 d 3 -2 d 3 -2 d 3 -2 d 3 -2 d 3 -2 d 3 -2 d 4 -2 d 3 -2 d 3 -2 d 3 -2 d 3 -2 d 3 -1 d 3 -2 d 3 -2 d 3 -2 d 3 -2 d 3 -2 d 3 -2 d 3 -2 d 3 -2 d 3 -2 d 3 -2 d 4 -2 d s 0.49 0.6 0.82 c black 0.49 0.6 0.82 c
 gsave  408 305 23 1009 C 142.445 1293.4 t 0 r /Helvetica-Bold findfont 25.6831 sf 0 0 m (0.0 < E < 0.5 GeV) show NC gr  0.52 0.76 0.64 c black 0.52 0.76 0.64 c
 gsave  408 305 23 1009 C 122.502 1256.36 t 0 r /Helvetica-Bold findfont 25.6831 sf 0 0 m 
 228 214 200 193 178 171 156 149 134 126 119 105 91 77 69 55 47 39 25 17
(A = \2550.000, p = 1.000) K NC gr  1 0.6 1 c black 1 0.6 1 c
 gsave  408 305 23 1009 C 427.334 1122.46 t 90 r /Helvetica-Bold findfont 28.5368 sf 0 0 m (/dof=0.8) show NC gr  black 1 0.6 1 c
 gsave  408 305 23 1009 C 415.938 1111.07 t 90 r /Helvetica-Bold findfont 19.9758 sf 0 0 m (2) show NC gr  black 1 0.6 1 c
 gsave  408 305 23 1009 C 427.334 1093.97 t 90 r /Symbol findfont 28.5368 sf 0 0 m (c) show NC gr  black 3 lw 1 1 1 c 408 305 476 1009 bf black 1 1 1 c black 307 229 537 1055 bl 307 229 537 1055 bl 537 1055 m 307 X s 537 1059 m -4 Y s 651 1059 m -4 Y
 s 765 1059 m -4 Y s 765 1059 m -4 Y s
 gsave  408 305 476 1009 C 527.045 1034.15 t 0 r /Helvetica findfont 22.8295 sf 0 0 m (0) show NC gr 
 gsave  408 305 476 1009 C 629.605 1034.15 t 0 r /Helvetica findfont 22.8295 sf 0 0 m (200) show NC gr 
 gsave  408 305 476 1009 C 743.56 1034.15 t 0 r /Helvetica findfont 22.8295 sf 0 0 m (400) show NC gr  537 1284 m 307 X s 537 1280 m 4 Y s 651 1280 m 4 Y s 765 1280 m 4 Y s 765 1280 m 4 Y s 537 1055 m 229 Y s 543 1068 m -6 X s 540 1073 m -3 X s 540
 1078 m -3 X s 540 1083 m -3 X s 540 1088 m -3 X s 543 1093 m -6 X s 540 1098 m -3 X s 540 1103 m -3 X s 540 1108 m -3 X s 540 1113 m -3 X s 543 1118 m -6 X s 540 1123 m -3 X s 540 1128 m -3 X s 540 1133 m -3 X s 540 1138 m -3 X s 543 1143 m -6 X s
 540 1148 m -3 X s 540 1153 m -3 X s 540 1158 m -3 X s 540 1163 m -3 X s 543 1168 m -6 X s 540 1173 m -3 X s 540 1178 m -3 X s 540 1183 m -3 X s 540 1188 m -3 X s 543 1193 m -6 X s 540 1198 m -3 X s 540 1203 m -3 X s 540 1208 m -3 X s 540 1213 m -3 X
 s 543 1218 m -6 X s 540 1223 m -3 X s 540 1228 m -3 X s 540 1233 m -3 X s 540 1238 m -3 X s 543 1243 m -6 X s 540 1248 m -3 X s 540 1253 m -3 X s 540 1258 m -3 X s 540 1263 m -3 X s 543 1268 m -6 X s 543 1068 m -6 X s 540 1063 m -3 X s 540 1058 m -3
 X s 543 1268 m -6 X s 540 1273 m -3 X s 540 1278 m -3 X s 540 1283 m -3 X s
 gsave  408 305 476 1009 C 455.822 1059.79 t 0 r /Helvetica findfont 22.8295 sf 0 0 m (\2550.0015) show NC gr 
 gsave  408 305 476 1009 C 470.067 1085.43 t 0 r /Helvetica findfont 22.8295 sf 0 0 m (\2550.001) show NC gr 
 gsave  408 305 476 1009 C 455.822 1111.07 t 0 r /Helvetica findfont 22.8295 sf 0 0 m (\2550.0005) show NC gr 
 gsave  408 305 476 1009 C 518.498 1136.71 t 0 r /Helvetica findfont 22.8295 sf 0 0 m (0) show NC gr 
 gsave  408 305 476 1009 C 461.52 1159.5 t 0 r /Helvetica findfont 22.8295 sf 0 0 m (0.0005) show NC gr 
 gsave  408 305 476 1009 C 478.614 1185.14 t 0 r /Helvetica findfont 22.8295 sf 0 0 m (0.001) show NC gr 
 gsave  408 305 476 1009 C 461.52 1210.78 t 0 r /Helvetica findfont 22.8295 sf 0 0 m (0.0015) show NC gr 
 gsave  408 305 476 1009 C 475.765 1236.42 t 0 r /Helvetica findfont 22.8295 sf 0 0 m (0.002) show NC gr 
 gsave  408 305 476 1009 C 461.52 1262.06 t 0 r /Helvetica findfont 22.8295 sf 0 0 m (0.0025) show NC gr  844 1055 m 229 Y s 838 1068 m 6 X s 841 1073 m 3 X s 841 1078 m 3 X s 841 1083 m 3 X s 841 1088 m 3 X s 838 1093 m 6 X s 841 1098 m 3 X s 841
 1103 m 3 X s 841 1108 m 3 X s 841 1113 m 3 X s 838 1118 m 6 X s 841 1123 m 3 X s 841 1128 m 3 X s 841 1133 m 3 X s 841 1138 m 3 X s 838 1143 m 6 X s 841 1148 m 3 X s 841 1153 m 3 X s 841 1158 m 3 X s 841 1163 m 3 X s 838 1168 m 6 X s 841 1173 m 3 X
 s 841 1178 m 3 X s 841 1183 m 3 X s 841 1188 m 3 X s 838 1193 m 6 X s 841 1198 m 3 X s 841 1203 m 3 X s 841 1208 m 3 X s 841 1213 m 3 X s 838 1218 m 6 X s 841 1223 m 3 X s 841 1228 m 3 X s 841 1233 m 3 X s 841 1238 m 3 X s 838 1243 m 6 X s 841 1248
 m 3 X s 841 1253 m 3 X s 841 1258 m 3 X s 841 1263 m 3 X s 838 1268 m 6 X s 838 1068 m 6 X s 841 1063 m 3 X s 841 1058 m 3 X s 838 1268 m 6 X s 841 1273 m 3 X s 841 1278 m 3 X s 841 1283 m 3 X s /w 23 def /w2 {w 2 div} def /w3 {w 3 div} def 683 1133
 828 1205 2 { m21} R 683 1144 m 48 Y s 677 1192 m 11 X s 683 1122 m -48 Y s 677 1074 m 11 X s 828 1217 m 48 Y s 822 1265 m 11 X s 828 1194 m -48 Y s 822 1146 m 11 X s 1 0 0 c 9 lw 0.95 0.95 0.95 c black 1 0 0 c 539 1143 m 28 X 3 1 d 15 X 3 1 d 9 X 3
 1 d 9 X 3 1 d 7 X 3 1 d 6 X 3 1 d 3 X 3 1 d 6 X 3 1 d 3 X 3 1 d 3 X 3 1 d 3 X 3 1 d 4 X 3 1 d 3 X 3 1 d 3 X 3 1 d 3 1 d 3 X s 689 1158 m 3 1 d 3 1 d 3 X 3 1 d 3 1 d 3 X 3 1 d 3 1 d 4 X 3 1 d 3 1 d 3 1 d 3 X 3 1 d 3 1 d 3 1 d 3 1 d 3 1 d 3 X 3 1 d 3
 1 d 3 1 d 3 1 d 3 1 d 4 1 d 3 1 d 3 1 d 3 1 d 3 1 d 3 1 d 3 1 d 3 1 d 3 1 d 3 1 d 3 1 d 3 1 d 3 1 d 3 1 d 3 1 d 3 1 d 4 1 d 3 2 d 3 1 d 3 1 d 3 1 d 3 1 d 3 1 d 3 2 d 3 1 d s 839 1204 m 3 1 d s 0.49 0.6 0.82 c black 0.49 0.6 0.82 c
 gsave  408 305 476 1009 C 595.418 1293.4 t 0 r /Helvetica-Bold findfont 25.6831 sf 0 0 m (0.5 < E < 1.0 GeV) show NC gr  0.52 0.76 0.64 c black 0.52 0.76 0.64 c
 gsave  408 305 476 1009 C 581.174 1256.36 t 0 r /Helvetica-Bold findfont 25.6831 sf 0 0 m 
 220 206 192 185 170 163 148 141 125 118 111 97 83 68 61 47 40 25 18
(A = 0.000, p = 2.000) K NC gr  1 0.6 1 c black 1 0.6 1 c
 gsave  408 305 476 1009 C 883.156 1122.46 t 90 r /Helvetica-Bold findfont 28.5368 sf 0 0 m (/dof=0.2) show NC gr  black 1 0.6 1 c
 gsave  408 305 476 1009 C 871.76 1111.07 t 90 r /Helvetica-Bold findfont 19.9758 sf 0 0 m (2) show NC gr  black 1 0.6 1 c
 gsave  408 305 476 1009 C 883.156 1093.97 t 90 r /Symbol findfont 28.5368 sf 0 0 m (c) show NC gr  black 3 lw 1 1 1 c 408 305 930 1009 bf black 1 1 1 c black 306 229 991 1055 bl 306 229 991 1055 bl 991 1055 m 306 X s 991 1059 m -4 Y s 1105 1059 m -4
 Y s 1219 1059 m -4 Y s 1219 1059 m -4 Y s
 gsave  408 305 930 1009 C 980.018 1034.15 t 0 r /Helvetica findfont 22.8295 sf 0 0 m (0) show NC gr 
 gsave  408 305 930 1009 C 1082.58 1034.15 t 0 r /Helvetica findfont 22.8295 sf 0 0 m (200) show NC gr 
 gsave  408 305 930 1009 C 1196.53 1034.15 t 0 r /Helvetica findfont 22.8295 sf 0 0 m (400) show NC gr  991 1284 m 306 X s 991 1280 m 4 Y s 1105 1280 m 4 Y s 1219 1280 m 4 Y s 1219 1280 m 4 Y s 991 1055 m 229 Y s 997 1080 m -6 X s 994 1086 m -3 X s
 994 1092 m -3 X s 994 1099 m -3 X s 994 1105 m -3 X s 997 1112 m -6 X s 994 1118 m -3 X s 994 1125 m -3 X s 994 1131 m -3 X s 994 1137 m -3 X s 997 1144 m -6 X s 994 1150 m -3 X s 994 1157 m -3 X s 994 1163 m -3 X s 994 1170 m -3 X s 997 1176 m -6 X
 s 994 1182 m -3 X s 994 1189 m -3 X s 994 1195 m -3 X s 994 1202 m -3 X s 997 1208 m -6 X s 994 1214 m -3 X s 994 1221 m -3 X s 994 1227 m -3 X s 994 1234 m -3 X s 997 1240 m -6 X s 994 1247 m -3 X s 994 1253 m -3 X s 994 1259 m -3 X s 994 1266 m -3
 X s 997 1272 m -6 X s 997 1080 m -6 X s 994 1073 m -3 X s 994 1067 m -3 X s 994 1060 m -3 X s 997 1272 m -6 X s 994 1279 m -3 X s
 gsave  408 305 930 1009 C 974.32 1071.18 t 0 r /Helvetica findfont 22.8295 sf 0 0 m (0) show NC gr 
 gsave  408 305 930 1009 C 934.436 1105.37 t 0 r /Helvetica findfont 22.8295 sf 0 0 m (0.001) show NC gr 
 gsave  408 305 930 1009 C 931.587 1136.71 t 0 r /Helvetica findfont 22.8295 sf 0 0 m (0.002) show NC gr 
 gsave  408 305 930 1009 C 931.587 1168.04 t 0 r /Helvetica findfont 22.8295 sf 0 0 m (0.003) show NC gr 
 gsave  408 305 930 1009 C 931.587 1202.23 t 0 r /Helvetica findfont 22.8295 sf 0 0 m (0.004) show NC gr 
 gsave  408 305 930 1009 C 931.587 1233.57 t 0 r /Helvetica findfont 22.8295 sf 0 0 m (0.005) show NC gr 
 gsave  408 305 930 1009 C 931.587 1264.91 t 0 r /Helvetica findfont 22.8295 sf 0 0 m (0.006) show NC gr  1297 1055 m 229 Y s 1292 1080 m 5 X s 1294 1086 m 3 X s 1294 1092 m 3 X s 1294 1099 m 3 X s 1294 1105 m 3 X s 1292 1112 m 5 X s 1294 1118 m 3 X
 s 1294 1125 m 3 X s 1294 1131 m 3 X s 1294 1137 m 3 X s 1292 1144 m 5 X s 1294 1150 m 3 X s 1294 1157 m 3 X s 1294 1163 m 3 X s 1294 1170 m 3 X s 1292 1176 m 5 X s 1294 1182 m 3 X s 1294 1189 m 3 X s 1294 1195 m 3 X s 1294 1202 m 3 X s 1292 1208 m 5
 X s 1294 1214 m 3 X s 1294 1221 m 3 X s 1294 1227 m 3 X s 1294 1234 m 3 X s 1292 1240 m 5 X s 1294 1247 m 3 X s 1294 1253 m 3 X s 1294 1259 m 3 X s 1294 1266 m 3 X s 1292 1272 m 5 X s 1292 1080 m 5 X s 1294 1073 m 3 X s 1294 1067 m 3 X s 1294 1060 m
 3 X s 1292 1272 m 5 X s 1294 1279 m 3 X s 1136 1111 1281 1227 2 { m21} R 1136 1122 m 26 Y s 1130 1148 m 12 X s 1136 1100 m -26 Y s 1130 1074 m 12 X s 1281 1239 m 26 Y s 1275 1265 m 12 X s 1281 1216 m -26 Y s 1275 1190 m 12 X s 1 0 0 c 9 lw 0.95 0.95
 0.95 c black 1 0 0 c 993 1080 m 18 X 3 1 d 9 X 3 1 d 3 X 3 1 d 3 X 3 1 d 4 X 3 1 d 3 X 3 1 d 3 1 d 3 X 3 1 d 3 1 d 3 X 3 1 d 3 1 d 3 1 d 3 1 d 3 1 d 3 1 d 3 1 d 3 1 d 4 1 d 3 1 d 3 1 d 3 1 d 3 2 d 3 1 d 3 1 d 3 1 d 3 2 d 3 1 d 3 2 d 3 1 d 3 1 d 3 2
 d 3 1 d 3 2 d 4 2 d s 1143 1120 m 3 1 d 3 2 d 3 2 d 3 1 d 3 2 d 3 2 d 3 2 d 3 2 d 3 1 d 3 2 d 3 2 d 3 2 d 3 2 d 3 2 d 3 2 d 4 3 d 3 2 d 3 2 d 3 2 d 3 2 d 3 3 d 3 2 d 3 2 d 3 3 d 3 2 d 3 3 d 3 2 d 3 3 d 3 2 d 3 3 d 3 2 d 3 3 d 4 3 d 3 2 d 3 3 d 3 3 d
 3 3 d 3 2 d 3 3 d 3 3 d 3 3 d 3 3 d 3 3 d 3 3 d 3 3 d 3 3 d 3 3 d 3 4 d 4 3 d s 1293 1238 m 3 3 d s 0.49 0.6 0.82 c black 0.49 0.6 0.82 c
 gsave  408 305 930 1009 C 1051.24 1293.4 t 0 r /Helvetica-Bold findfont 25.6831 sf 0 0 m (1.0 < E < 1.5 GeV) show NC gr  0.52 0.76 0.64 c black 0.52 0.76 0.64 c
 gsave  408 305 930 1009 C 1037 1256.36 t 0 r /Helvetica-Bold findfont 25.6831 sf 0 0 m 
 220 206 192 185 170 163 148 141 125 118 111 97 83 69 61 47 40 25 18
(A = 0.000, p = 2.000) K NC gr  1 0.6 1 c black 1 0.6 1 c
 gsave  408 305 930 1009 C 1336.13 1122.46 t 90 r /Helvetica-Bold findfont 28.5368 sf 0 0 m (/dof=0.0) show NC gr  black 1 0.6 1 c
 gsave  408 305 930 1009 C 1324.73 1111.07 t 90 r /Helvetica-Bold findfont 19.9758 sf 0 0 m (2) show NC gr  black 1 0.6 1 c
 gsave  408 305 930 1009 C 1336.13 1093.97 t 90 r /Symbol findfont 28.5368 sf 0 0 m (c) show NC gr  black 3 lw 1 1 1 c 408 305 1383 1009 bf black 1 1 1 c black 306 229 1445 1055 bl 306 229 1445 1055 bl 1445 1055 m 306 X s 1445 1059 m -4 Y s 1558 1059
 m -4 Y s 1672 1059 m -4 Y s 1672 1059 m -4 Y s
 gsave  408 305 1383 1009 C 1435.84 1034.15 t 0 r /Helvetica findfont 22.8295 sf 0 0 m (0) show NC gr 
 gsave  408 305 1383 1009 C 1535.55 1034.15 t 0 r /Helvetica findfont 22.8295 sf 0 0 m (200) show NC gr 
 gsave  408 305 1383 1009 C 1649.51 1034.15 t 0 r /Helvetica findfont 22.8295 sf 0 0 m (400) show NC gr  1445 1284 m 306 X s 1445 1280 m 4 Y s 1558 1280 m 4 Y s 1672 1280 m 4 Y s 1672 1280 m 4 Y s 1445 1055 m 229 Y s 1450 1076 m -5 X s 1447 1084 m -2
 X s 1447 1092 m -2 X s 1447 1100 m -2 X s 1447 1108 m -2 X s 1450 1116 m -5 X s 1447 1124 m -2 X s 1447 1132 m -2 X s 1447 1140 m -2 X s 1447 1148 m -2 X s 1450 1156 m -5 X s 1447 1164 m -2 X s 1447 1172 m -2 X s 1447 1180 m -2 X s 1447 1188 m -2 X
 s 1450 1196 m -5 X s 1447 1204 m -2 X s 1447 1212 m -2 X s 1447 1220 m -2 X s 1447 1228 m -2 X s 1450 1236 m -5 X s 1447 1244 m -2 X s 1447 1252 m -2 X s 1447 1260 m -2 X s 1447 1268 m -2 X s 1450 1276 m -5 X s 1450 1076 m -5 X s 1447 1068 m -2 X s
 1447 1060 m -2 X s 1450 1276 m -5 X s
 gsave  408 305 1383 1009 C 1376.01 1068.33 t 0 r /Helvetica findfont 22.8295 sf 0 0 m (\2550.005) show NC gr 
 gsave  408 305 1383 1009 C 1376.01 1108.22 t 0 r /Helvetica findfont 22.8295 sf 0 0 m (\2550.004) show NC gr 
 gsave  408 305 1383 1009 C 1376.01 1148.1 t 0 r /Helvetica findfont 22.8295 sf 0 0 m (\2550.003) show NC gr 
 gsave  408 305 1383 1009 C 1376.01 1187.99 t 0 r /Helvetica findfont 22.8295 sf 0 0 m (\2550.002) show NC gr 
 gsave  408 305 1383 1009 C 1378.86 1227.87 t 0 r /Helvetica findfont 22.8295 sf 0 0 m (\2550.001) show NC gr 
 gsave  408 305 1383 1009 C 1427.29 1267.76 t 0 r /Helvetica findfont 22.8295 sf 0 0 m (0) show NC gr  1751 1055 m 229 Y s 1745 1076 m 6 X s 1748 1084 m 3 X s 1748 1092 m 3 X s 1748 1100 m 3 X s 1748 1108 m 3 X s 1745 1116 m 6 X s 1748 1124 m 3 X s
 1748 1132 m 3 X s 1748 1140 m 3 X s 1748 1148 m 3 X s 1745 1156 m 6 X s 1748 1164 m 3 X s 1748 1172 m 3 X s 1748 1180 m 3 X s 1748 1188 m 3 X s 1745 1196 m 6 X s 1748 1204 m 3 X s 1748 1212 m 3 X s 1748 1220 m 3 X s 1748 1228 m 3 X s 1745 1236 m 6 X
 s 1748 1244 m 3 X s 1748 1252 m 3 X s 1748 1260 m 3 X s 1748 1268 m 3 X s 1745 1276 m 6 X s 1745 1076 m 6 X s 1748 1068 m 3 X s 1748 1060 m 3 X s 1745 1276 m 6 X s 1590 1218 1735 1120 2 { m21} R 1590 1229 m 36 Y s 1584 1265 m 11 X s 1590 1207 m -35
 Y s 1584 1172 m 11 X s 1735 1132 m 35 Y s 1729 1167 m 11 X s 1735 1109 m -35 Y s 1729 1074 m 11 X s 9 lw 0.95 0.95 0.95 c black 1446 1275 m 3 -1 d 3 -2 d 3 -1 d 3 -2 d 3 -1 d 3 -2 d 3 -2 d 4 -1 d 3 -2 d 3 -1 d 3 -2 d 3 -1 d 3 -2 d 3 -1 d 3 -2 d 3 -2
 d 3 -1 d 3 -2 d 3 -1 d 3 -2 d 3 -1 d 3 -2 d 3 -2 d 4 -1 d 3 -2 d 3 -1 d 3 -2 d 3 -1 d 3 -2 d 3 -1 d 3 -2 d 3 -2 d 3 -1 d 3 -2 d 3 -1 d 3 -2 d 3 -1 d 3 -2 d 3 -1 d 4 -2 d 3 -2 d 3 -1 d 3 -2 d 3 -1 d 3 -2 d 3 -1 d 3 -2 d 3 -2 d 3 -1 d s 1596 1199 m 3
 -2 d 3 -1 d 3 -2 d 3 -1 d 3 -2 d 3 -1 d 4 -2 d 3 -2 d 3 -1 d 3 -2 d 3 -1 d 3 -2 d 3 -1 d 3 -2 d 3 -1 d 3 -2 d 3 -2 d 3 -1 d 3 -2 d 3 -1 d 3 -2 d 3 -1 d 3 -2 d 4 -2 d 3 -1 d 3 -2 d 3 -1 d 3 -2 d 3 -1 d 3 -2 d 3 -1 d 3 -2 d 3 -2 d 3 -1 d 3 -2 d 3 -1 d
 3 -2 d 3 -1 d 3 -2 d 4 -2 d 3 -1 d 3 -2 d 3 -1 d 3 -2 d 3 -1 d 3 -2 d 3 -1 d 3 -2 d 3 -2 d s 1746 1122 m 3 -1 d s 0.49 0.6 0.82 c black 0.49 0.6 0.82 c
 gsave  408 305 1383 1009 C 1504.21 1293.4 t 0 r /Helvetica-Bold findfont 25.6831 sf 0 0 m (1.5 < E < 2.0 GeV) show NC gr  0.52 0.76 0.64 c black 0.52 0.76 0.64 c
 gsave  408 305 1383 1009 C 1484.27 1256.36 t 0 r /Helvetica-Bold findfont 25.6831 sf 0 0 m 
 228 214 200 193 178 171 156 149 134 126 119 105 91 77 69 55 47 40 25 17
(A = \2550.000, p = 1.000) K NC gr  1 0.6 1 c black 1 0.6 1 c
 gsave  408 305 1383 1009 C 1789.1 1122.46 t 90 r /Helvetica-Bold findfont 28.5368 sf 0 0 m (/dof=0.1) show NC gr  black 1 0.6 1 c
 gsave  408 305 1383 1009 C 1777.71 1111.07 t 90 r /Helvetica-Bold findfont 19.9758 sf 0 0 m (2) show NC gr  black 1 0.6 1 c
 gsave  408 305 1383 1009 C 1789.1 1093.97 t 90 r /Symbol findfont 28.5368 sf 0 0 m (c) show NC gr  black 3 lw 1 1 1 c 408 305 1837 1009 bf black 1 1 1 c black 306 229 1898 1055 bl 306 229 1898 1055 bl 1898 1055 m 306 X s 1898 1059 m -4 Y s 2012 1059
 m -4 Y s 2126 1059 m -4 Y s 2126 1059 m -4 Y s
 gsave  408 305 1837 1009 C 1888.81 1034.15 t 0 r /Helvetica findfont 22.8295 sf 0 0 m (0) show NC gr 
 gsave  408 305 1837 1009 C 1991.37 1034.15 t 0 r /Helvetica findfont 22.8295 sf 0 0 m (200) show NC gr 
 gsave  408 305 1837 1009 C 2105.33 1034.15 t 0 r /Helvetica findfont 22.8295 sf 0 0 m (400) show NC gr  1898 1284 m 306 X s 1898 1280 m 4 Y s 2012 1280 m 4 Y s 2126 1280 m 4 Y s 2126 1280 m 4 Y s 1898 1055 m 229 Y s 1904 1057 m -6 X s 1901 1063 m -3
 X s 1901 1068 m -3 X s 1901 1074 m -3 X s 1901 1080 m -3 X s 1904 1086 m -6 X s 1901 1092 m -3 X s 1901 1097 m -3 X s 1901 1103 m -3 X s 1901 1109 m -3 X s 1904 1115 m -6 X s 1901 1121 m -3 X s 1901 1127 m -3 X s 1901 1132 m -3 X s 1901 1138 m -3 X
 s 1904 1144 m -6 X s 1901 1150 m -3 X s 1901 1156 m -3 X s 1901 1161 m -3 X s 1901 1167 m -3 X s 1904 1173 m -6 X s 1901 1179 m -3 X s 1901 1185 m -3 X s 1901 1190 m -3 X s 1901 1196 m -3 X s 1904 1202 m -6 X s 1901 1208 m -3 X s 1901 1214 m -3 X s
 1901 1219 m -3 X s 1901 1225 m -3 X s 1904 1231 m -6 X s 1901 1237 m -3 X s 1901 1243 m -3 X s 1901 1249 m -3 X s 1901 1254 m -3 X s 1904 1260 m -6 X s 1904 1057 m -6 X s 1904 1260 m -6 X s 1901 1266 m -3 X s 1901 1272 m -3 X s 1901 1278 m -3 X s
 1901 1283 m -3 X s
 gsave  408 305 1837 1009 C 1828.99 1048.39 t 0 r /Helvetica findfont 22.8295 sf 0 0 m (\2550.003) show NC gr 
 gsave  408 305 1837 1009 C 1817.59 1079.73 t 0 r /Helvetica findfont 22.8295 sf 0 0 m (\2550.0025) show NC gr 
 gsave  408 305 1837 1009 C 1828.99 1108.22 t 0 r /Helvetica findfont 22.8295 sf 0 0 m (\2550.002) show NC gr 
 gsave  408 305 1837 1009 C 1817.59 1136.71 t 0 r /Helvetica findfont 22.8295 sf 0 0 m (\2550.0015) show NC gr 
 gsave  408 305 1837 1009 C 1831.84 1165.2 t 0 r /Helvetica findfont 22.8295 sf 0 0 m (\2550.001) show NC gr 
 gsave  408 305 1837 1009 C 1817.59 1193.68 t 0 r /Helvetica findfont 22.8295 sf 0 0 m (\2550.0005) show NC gr 
 gsave  408 305 1837 1009 C 1880.27 1225.02 t 0 r /Helvetica findfont 22.8295 sf 0 0 m (0) show NC gr 
 gsave  408 305 1837 1009 C 1823.29 1253.51 t 0 r /Helvetica findfont 22.8295 sf 0 0 m (0.0005) show NC gr  2204 1055 m 229 Y s 2199 1057 m 5 X s 2201 1063 m 3 X s 2201 1068 m 3 X s 2201 1074 m 3 X s 2201 1080 m 3 X s 2199 1086 m 5 X s 2201 1092 m 3
 X s 2201 1097 m 3 X s 2201 1103 m 3 X s 2201 1109 m 3 X s 2199 1115 m 5 X s 2201 1121 m 3 X s 2201 1127 m 3 X s 2201 1132 m 3 X s 2201 1138 m 3 X s 2199 1144 m 5 X s 2201 1150 m 3 X s 2201 1156 m 3 X s 2201 1161 m 3 X s 2201 1167 m 3 X s 2199 1173 m
 5 X s 2201 1179 m 3 X s 2201 1185 m 3 X s 2201 1190 m 3 X s 2201 1196 m 3 X s 2199 1202 m 5 X s 2201 1208 m 3 X s 2201 1214 m 3 X s 2201 1219 m 3 X s 2201 1225 m 3 X s 2199 1231 m 5 X s 2201 1237 m 3 X s 2201 1243 m 3 X s 2201 1249 m 3 X s 2201 1254
 m 3 X s 2199 1260 m 5 X s 2199 1057 m 5 X s 2199 1260 m 5 X s 2201 1266 m 3 X s 2201 1272 m 3 X s 2201 1278 m 3 X s 2201 1283 m 3 X s 2043 1191 2188 1147 2 { m21} R 2043 1203 m 62 Y s 2037 1265 m 12 X s 2043 1180 m -62 Y s 2037 1118 m 12 X s 2188
 1159 m 62 Y s 2183 1221 m 11 X s 2188 1136 m -62 Y s 2183 1074 m 11 X s 9 lw 0.95 0.95 0.95 c black 1900 1231 m 3 -1 d 3 -1 d 3 -1 d 3 -1 d 3 -1 d 3 -1 d 3 X 3 -1 d 3 -1 d 3 -1 d 3 -1 d 3 -1 d 3 -1 d 3 -1 d 4 X 3 -1 d 3 -1 d 3 -1 d 3 -1 d 3 -1 d 3
 -1 d 3 -1 d 3 X 3 -1 d 3 -1 d 3 -1 d 3 -1 d 3 -1 d 3 -1 d 3 -1 d 4 X 3 -1 d 3 -1 d 3 -1 d 3 -1 d 3 -1 d 3 -1 d 3 -1 d 3 -1 d 3 X 3 -1 d 3 -1 d 3 -1 d 3 -1 d 3 -1 d 3 -1 d 3 -1 d 4 X 3 -1 d s 2050 1188 m 3 -1 d 3 -1 d 3 -1 d 3 -1 d 3 -1 d 3 -1 d 3 X
 3 -1 d 3 -1 d 3 -1 d 3 -1 d 3 -1 d 3 -1 d 3 -1 d 4 X 3 -1 d 3 -1 d 3 -1 d 3 -1 d 3 -1 d 3 -1 d 3 -1 d 3 X 3 -1 d 3 -1 d 3 -1 d 3 -1 d 3 -1 d 3 -1 d 3 -1 d 4 X 3 -1 d 3 -1 d 3 -1 d 3 -1 d 3 -1 d 3 -1 d 3 -1 d 3 X 3 -1 d 3 -1 d 3 -1 d 3 -1 d 3 -1 d 3
 -1 d 3 -1 d 4 X 3 -1 d 3 -1 d s 2200 1145 m 3 -1 d s 0.49 0.6 0.82 c black 0.49 0.6 0.82 c
 gsave  408 305 1837 1009 C 1957.19 1293.4 t 0 r /Helvetica-Bold findfont 25.6831 sf 0 0 m (2.0 < E < 2.5 GeV) show NC gr  0.52 0.76 0.64 c black 0.52 0.76 0.64 c
 gsave  408 305 1837 1009 C 1937.25 1256.36 t 0 r /Helvetica-Bold findfont 25.6831 sf 0 0 m 
 228 214 200 193 178 171 156 149 133 126 119 105 91 77 69 55 47 39 25 17
(A = \2550.000, p = 1.000) K NC gr  1 0.6 1 c black 1 0.6 1 c
 gsave  408 305 1837 1009 C 2242.08 1122.46 t 90 r /Helvetica-Bold findfont 28.5368 sf 0 0 m (/dof=0.0) show NC gr  black 1 0.6 1 c
 gsave  408 305 1837 1009 C 2230.68 1111.07 t 90 r /Helvetica-Bold findfont 19.9758 sf 0 0 m (2) show NC gr  black 1 0.6 1 c
 gsave  408 305 1837 1009 C 2242.08 1093.97 t 90 r /Symbol findfont 28.5368 sf 0 0 m (c) show NC gr  black 3 lw 1 1 1 c 408 305 23 677 bf black 1 1 1 c black 306 229 84 723 bl 306 229 84 723 bl 84 723 m 306 X s 84 727 m -4 Y s 198 727 m -4 Y s 311
 727 m -4 Y s 311 727 m -4 Y s
 gsave  408 305 23 677 C 74.0711 703.676 t 0 r /Helvetica findfont 22.8295 sf 0 0 m (0) show NC gr 
 gsave  408 305 23 677 C 176.631 703.676 t 0 r /Helvetica findfont 22.8295 sf 0 0 m (200) show NC gr 
 gsave  408 305 23 677 C 290.587 703.676 t 0 r /Helvetica findfont 22.8295 sf 0 0 m (400) show NC gr  84 952 m 306 X s 84 948 m 4 Y s 198 948 m 4 Y s 311 948 m 4 Y s 311 948 m 4 Y s 84 723 m 229 Y s 89 726 m -5 X s 87 731 m -3 X s 87 736 m -3 X s 87
 741 m -3 X s 87 745 m -3 X s 89 750 m -5 X s 87 755 m -3 X s 87 759 m -3 X s 87 764 m -3 X s 87 769 m -3 X s 89 773 m -5 X s 87 778 m -3 X s 87 783 m -3 X s 87 787 m -3 X s 87 792 m -3 X s 89 797 m -5 X s 87 801 m -3 X s 87 806 m -3 X s 87 811 m -3
 X s 87 816 m -3 X s 89 820 m -5 X s 87 825 m -3 X s 87 830 m -3 X s 87 834 m -3 X s 87 839 m -3 X s 89 844 m -5 X s 87 848 m -3 X s 87 853 m -3 X s 87 858 m -3 X s 87 862 m -3 X s 89 867 m -5 X s 87 872 m -3 X s 87 877 m -3 X s 87 881 m -3 X s 87
 886 m -3 X s 89 891 m -5 X s 87 895 m -3 X s 87 900 m -3 X s 87 905 m -3 X s 87 909 m -3 X s 89 914 m -5 X s 87 919 m -3 X s 87 923 m -3 X s 87 928 m -3 X s 87 933 m -3 X s 89 937 m -5 X s 89 726 m -5 X s 89 937 m -5 X s 87 942 m -3 X s 87 947 m -3
 X s 87 952 m -3 X s
 gsave  408 305 23 677 C 31.3378 717.92 t 0 r /Helvetica findfont 22.8295 sf 0 0 m (\2550.01) show NC gr 
 gsave  408 305 23 677 C 14.2445 743.56 t 0 r /Helvetica findfont 22.8295 sf 0 0 m (\2550.009) show NC gr 
 gsave  408 305 23 677 C 14.2445 766.351 t 0 r /Helvetica findfont 22.8295 sf 0 0 m (\2550.008) show NC gr 
 gsave  408 305 23 677 C 14.2445 789.143 t 0 r /Helvetica findfont 22.8295 sf 0 0 m (\2550.007) show NC gr 
 gsave  408 305 23 677 C 14.2445 811.934 t 0 r /Helvetica findfont 22.8295 sf 0 0 m (\2550.006) show NC gr 
 gsave  408 305 23 677 C 14.2445 837.574 t 0 r /Helvetica findfont 22.8295 sf 0 0 m (\2550.005) show NC gr 
 gsave  408 305 23 677 C 14.2445 860.365 t 0 r /Helvetica findfont 22.8295 sf 0 0 m (\2550.004) show NC gr 
 gsave  408 305 23 677 C 14.2445 883.156 t 0 r /Helvetica findfont 22.8295 sf 0 0 m (\2550.003) show NC gr 
 gsave  408 305 23 677 C 14.2445 905.947 t 0 r /Helvetica findfont 22.8295 sf 0 0 m (\2550.002) show NC gr 
 gsave  408 305 23 677 C 17.0933 931.587 t 0 r /Helvetica findfont 22.8295 sf 0 0 m (\2550.001) show NC gr  390 723 m 229 Y s 385 726 m 5 X s 387 731 m 3 X s 387 736 m 3 X s 387 741 m 3 X s 387 745 m 3 X s 385 750 m 5 X s 387 755 m 3 X s 387 759 m 3
 X s 387 764 m 3 X s 387 769 m 3 X s 385 773 m 5 X s 387 778 m 3 X s 387 783 m 3 X s 387 787 m 3 X s 387 792 m 3 X s 385 797 m 5 X s 387 801 m 3 X s 387 806 m 3 X s 387 811 m 3 X s 387 816 m 3 X s 385 820 m 5 X s 387 825 m 3 X s 387 830 m 3 X s 387
 834 m 3 X s 387 839 m 3 X s 385 844 m 5 X s 387 848 m 3 X s 387 853 m 3 X s 387 858 m 3 X s 387 862 m 3 X s 385 867 m 5 X s 387 872 m 3 X s 387 877 m 3 X s 387 881 m 3 X s 387 886 m 3 X s 385 891 m 5 X s 387 895 m 3 X s 387 900 m 3 X s 387 905 m 3 X
 s 387 909 m 3 X s 385 914 m 5 X s 387 919 m 3 X s 387 923 m 3 X s 387 928 m 3 X s 387 933 m 3 X s 385 937 m 5 X s 385 726 m 5 X s 385 937 m 5 X s 387 942 m 3 X s 387 947 m 3 X s 387 952 m 3 X s /w 22 def /w2 {w 2 div} def /w3 {w 3 div} def 229 900
 374 775 2 { m21} R 229 911 m 22 Y s 223 933 m 12 X s 229 888 m -21 Y s 223 867 m 12 X s 374 786 m 22 Y s 368 808 m 12 X s 374 763 m -21 Y s 368 742 m 12 X s 1 0 0 c 9 lw 0.95 0.95 0.95 c black 1 0 0 c 147 952 m 3 -1 d 3 -1 d 3 -1 d 3 -1 d 3 -1 d 3
 -1 d 3 -1 d 3 -1 d 3 -1 d 3 -2 d 3 -1 d 3 -1 d 3 -2 d 4 -1 d 3 -2 d 3 -1 d 3 -2 d 3 -1 d 3 -2 d 3 -2 d 3 -1 d 3 -2 d 3 -2 d 3 -2 d 3 -2 d 3 -2 d 3 -2 d 3 -2 d 3 -2 d 4 -2 d 3 -2 d 3 -2 d 3 -2 d 3 -3 d 3 -2 d 3 -2 d 3 -3 d 3 -2 d 3 -3 d 3 -2 d 3 -3 d
 3 -2 d 3 -3 d 3 -3 d 3 -3 d 3 -2 d 4 -3 d 3 -3 d 3 -3 d s 297 859 m 3 -3 d 3 -3 d 3 -3 d 3 -3 d 3 -3 d 3 -3 d 3 -3 d 3 -4 d 3 -3 d 3 -3 d 3 -4 d 3 -3 d 3 -4 d 4 -3 d 3 -4 d 3 -3 d 3 -4 d 3 -4 d 3 -3 d 3 -4 d 3 -4 d 3 -4 d 3 -4 d 3 -3 d 3 -4 d 3 -4 d
 3 -4 d 3 -5 d 3 -4 d 4 -4 d s 0.49 0.6 0.82 c black 0.49 0.6 0.82 c
 gsave  408 305 23 677 C 142.445 960.076 t 0 r /Helvetica-Bold findfont 25.6831 sf 0 0 m (2.5 < E < 3.0 GeV) show NC gr  0.52 0.76 0.64 c black 0.52 0.76 0.64 c
 gsave  408 305 23 677 C 122.502 923.04 t 0 r /Helvetica-Bold findfont 25.6831 sf 0 0 m 
 228 214 200 193 178 171 156 149 134 126 119 105 91 77 69 55 47 39 25 17
(A = \2550.000, p = 2.000) K NC gr  1 0.6 1 c black 1 0.6 1 c
 gsave  408 305 23 677 C 427.334 791.991 t 90 r /Helvetica-Bold findfont 28.5368 sf 0 0 m (/dof=0.2) show NC gr  black 1 0.6 1 c
 gsave  408 305 23 677 C 415.938 780.596 t 90 r /Helvetica-Bold findfont 19.9758 sf 0 0 m (2) show NC gr  black 1 0.6 1 c
 gsave  408 305 23 677 C 427.334 763.503 t 90 r /Symbol findfont 28.5368 sf 0 0 m (c) show NC gr  black 3 lw 1 1 1 c 408 305 476 677 bf black 1 1 1 c black 307 229 537 723 bl 307 229 537 723 bl 537 723 m 307 X s 537 727 m -4 Y s 651 727 m -4 Y s 765
 727 m -4 Y s 765 727 m -4 Y s
 gsave  408 305 476 677 C 527.045 703.676 t 0 r /Helvetica findfont 22.8295 sf 0 0 m (0) show NC gr 
 gsave  408 305 476 677 C 629.605 703.676 t 0 r /Helvetica findfont 22.8295 sf 0 0 m (200) show NC gr 
 gsave  408 305 476 677 C 743.56 703.676 t 0 r /Helvetica findfont 22.8295 sf 0 0 m (400) show NC gr  537 952 m 307 X s 537 948 m 4 Y s 651 948 m 4 Y s 765 948 m 4 Y s 765 948 m 4 Y s 537 723 m 229 Y s 543 735 m -6 X s 540 746 m -3 X s 540 757 m -3 X
 s 540 768 m -3 X s 540 778 m -3 X s 543 789 m -6 X s 540 800 m -3 X s 540 810 m -3 X s 540 821 m -3 X s 540 832 m -3 X s 543 843 m -6 X s 540 853 m -3 X s 540 864 m -3 X s 540 875 m -3 X s 540 886 m -3 X s 543 896 m -6 X s 540 907 m -3 X s 540 918 m
 -3 X s 540 928 m -3 X s 540 939 m -3 X s 543 950 m -6 X s 543 735 m -6 X s 540 725 m -3 X s 543 950 m -6 X s
 gsave  408 305 476 677 C 481.462 729.316 t 0 r /Helvetica findfont 22.8295 sf 0 0 m (\2550.02) show NC gr 
 gsave  408 305 476 677 C 467.218 780.596 t 0 r /Helvetica findfont 22.8295 sf 0 0 m (\2550.015) show NC gr 
 gsave  408 305 476 677 C 484.311 834.725 t 0 r /Helvetica findfont 22.8295 sf 0 0 m (\2550.01) show NC gr 
 gsave  408 305 476 677 C 467.218 888.854 t 0 r /Helvetica findfont 22.8295 sf 0 0 m (\2550.005) show NC gr 
 gsave  408 305 476 677 C 518.498 942.983 t 0 r /Helvetica findfont 22.8295 sf 0 0 m (0) show NC gr  844 723 m 229 Y s 838 735 m 6 X s 841 746 m 3 X s 841 757 m 3 X s 841 768 m 3 X s 841 778 m 3 X s 838 789 m 6 X s 841 800 m 3 X s 841 810 m 3 X s 841
 821 m 3 X s 841 832 m 3 X s 838 843 m 6 X s 841 853 m 3 X s 841 864 m 3 X s 841 875 m 3 X s 841 886 m 3 X s 838 896 m 6 X s 841 907 m 3 X s 841 918 m 3 X s 841 928 m 3 X s 841 939 m 3 X s 838 950 m 6 X s 838 735 m 6 X s 841 725 m 3 X s 838 950 m 6 X
 s /w 23 def /w2 {w 2 div} def /w3 {w 3 div} def 683 915 828 759 2 { m21} R 683 927 m 6 Y s 677 933 m 11 X s 683 904 m -6 Y s 677 898 m 11 X s 828 771 m 6 Y s 822 777 m 11 X s 828 748 m -6 Y s 822 742 m 11 X s 1 0 0 c 9 lw 0.95 0.95 0.95 c black 1 0
 0 c 539 950 m 9 X 3 -1 d 9 X 3 -1 d 7 X 3 -1 d 3 X 3 -1 d 3 -1 d 3 X 3 -1 d 3 -1 d 3 X 3 -1 d 3 -1 d 3 -1 d 3 -1 d 3 -1 d 3 -1 d 4 -1 d 3 -1 d 3 -1 d 3 -1 d 3 -1 d 3 -2 d 3 -1 d 3 -1 d 3 -2 d 3 -1 d 3 -1 d 3 -2 d 3 -1 d 3 -2 d 3 -2 d 3 -1 d 3 -2 d 4
 -2 d 3 -2 d 3 -1 d 3 -2 d 3 -2 d 3 -2 d 3 -2 d 3 -2 d s 689 899 m 3 -2 d 3 -2 d 3 -3 d 3 -2 d 3 -2 d 3 -2 d 3 -3 d 3 -2 d 4 -3 d 3 -2 d 3 -3 d 3 -2 d 3 -3 d 3 -2 d 3 -3 d 3 -3 d 3 -2 d 3 -3 d 3 -3 d 3 -3 d 3 -3 d 3 -3 d 3 -3 d 3 -3 d 4 -3 d 3 -3 d 3
 -3 d 3 -4 d 3 -3 d 3 -3 d 3 -3 d 3 -4 d 3 -3 d 3 -4 d 3 -3 d 3 -4 d 3 -3 d 3 -4 d 3 -4 d 3 -3 d 4 -4 d 3 -4 d 3 -4 d 3 -4 d 3 -4 d 3 -4 d 3 -4 d 3 -4 d 3 -4 d s 839 747 m 3 -4 d s 0.49 0.6 0.82 c black 0.49 0.6 0.82 c
 gsave  408 305 476 677 C 595.418 960.076 t 0 r /Helvetica-Bold findfont 25.6831 sf 0 0 m (3.0 < E < 3.5 GeV) show NC gr  0.52 0.76 0.64 c black 0.52 0.76 0.64 c
 gsave  408 305 476 677 C 575.476 923.04 t 0 r /Helvetica-Bold findfont 25.6831 sf 0 0 m 
 228 214 200 193 178 171 156 149 133 126 119 105 91 76 69 55 47 39 25 17
(A = \2550.000, p = 2.000) K NC gr  1 0.6 1 c black 1 0.6 1 c
 gsave  408 305 476 677 C 883.156 791.991 t 90 r /Helvetica-Bold findfont 28.5368 sf 0 0 m (/dof=0.5) show NC gr  black 1 0.6 1 c
 gsave  408 305 476 677 C 871.76 780.596 t 90 r /Helvetica-Bold findfont 19.9758 sf 0 0 m (2) show NC gr  black 1 0.6 1 c
 gsave  408 305 476 677 C 883.156 763.503 t 90 r /Symbol findfont 28.5368 sf 0 0 m (c) show NC gr  black 3 lw 1 1 1 c 408 305 930 677 bf black 1 1 1 c black 306 229 991 723 bl 306 229 991 723 bl 991 723 m 306 X s 991 727 m -4 Y s 1105 727 m -4 Y s
 1219 727 m -4 Y s 1219 727 m -4 Y s
 gsave  408 305 930 677 C 980.018 703.676 t 0 r /Helvetica findfont 22.8295 sf 0 0 m (0) show NC gr 
 gsave  408 305 930 677 C 1082.58 703.676 t 0 r /Helvetica findfont 22.8295 sf 0 0 m (200) show NC gr 
 gsave  408 305 930 677 C 1196.53 703.676 t 0 r /Helvetica findfont 22.8295 sf 0 0 m (400) show NC gr  991 952 m 306 X s 991 948 m 4 Y s 1105 948 m 4 Y s 1219 948 m 4 Y s 1219 948 m 4 Y s 991 723 m 229 Y s 997 724 m -6 X s 994 732 m -3 X s 994 741 m
 -3 X s 994 749 m -3 X s 994 757 m -3 X s 997 765 m -6 X s 994 773 m -3 X s 994 782 m -3 X s 994 790 m -3 X s 994 798 m -3 X s 997 806 m -6 X s 994 815 m -3 X s 994 823 m -3 X s 994 831 m -3 X s 994 839 m -3 X s 997 847 m -6 X s 994 856 m -3 X s 994
 864 m -3 X s 994 872 m -3 X s 994 880 m -3 X s 997 889 m -6 X s 994 897 m -3 X s 994 905 m -3 X s 994 913 m -3 X s 994 921 m -3 X s 997 930 m -6 X s 997 724 m -6 X s 997 930 m -6 X s 994 938 m -3 X s 994 946 m -3 X s
 gsave  408 305 930 677 C 937.285 717.92 t 0 r /Helvetica findfont 22.8295 sf 0 0 m (\2550.03) show NC gr 
 gsave  408 305 930 677 C 923.04 757.805 t 0 r /Helvetica findfont 22.8295 sf 0 0 m (\2550.025) show NC gr 
 gsave  408 305 930 677 C 937.285 800.538 t 0 r /Helvetica findfont 22.8295 sf 0 0 m (\2550.02) show NC gr 
 gsave  408 305 930 677 C 923.04 840.423 t 0 r /Helvetica findfont 22.8295 sf 0 0 m (\2550.015) show NC gr 
 gsave  408 305 930 677 C 940.134 880.307 t 0 r /Helvetica findfont 22.8295 sf 0 0 m (\2550.01) show NC gr 
 gsave  408 305 930 677 C 923.04 923.04 t 0 r /Helvetica findfont 22.8295 sf 0 0 m (\2550.005) show NC gr  1297 723 m 229 Y s 1292 724 m 5 X s 1294 732 m 3 X s 1294 741 m 3 X s 1294 749 m 3 X s 1294 757 m 3 X s 1292 765 m 5 X s 1294 773 m 3 X s 1294
 782 m 3 X s 1294 790 m 3 X s 1294 798 m 3 X s 1292 806 m 5 X s 1294 815 m 3 X s 1294 823 m 3 X s 1294 831 m 3 X s 1294 839 m 3 X s 1292 847 m 5 X s 1294 856 m 3 X s 1294 864 m 3 X s 1294 872 m 3 X s 1294 880 m 3 X s 1292 889 m 5 X s 1294 897 m 3 X s
 1294 905 m 3 X s 1294 913 m 3 X s 1294 921 m 3 X s 1292 930 m 5 X s 1292 724 m 5 X s 1292 930 m 5 X s 1294 938 m 3 X s 1294 946 m 3 X s 1136 916 1281 759 2 { m21} R 1136 927 m 6 Y s 1130 933 m 12 X s 1136 904 m -5 Y s 1130 899 m 12 X s 1281 770 m 5
 Y s 1275 775 m 12 X s 1281 747 m -5 Y s 1275 742 m 12 X s 1 0 0 c 9 lw 0.95 0.95 0.95 c black 1 0 0 c 1075 952 m 3 -1 d 3 -1 d 3 -1 d 3 -2 d 3 -1 d 4 -2 d 3 -1 d 3 -2 d 3 -2 d 3 -2 d 3 -1 d 3 -2 d 3 -2 d 3 -2 d 3 -2 d 3 -2 d 3 -2 d 3 -2 d 3 -2 d 3
 -3 d 3 -2 d 4 -2 d 3 -3 d 3 -2 d 3 -2 d 3 -3 d 3 -3 d 3 -2 d 3 -3 d 3 -2 d 3 -3 d 3 -3 d 3 -3 d 3 -3 d 3 -3 d 3 -3 d 3 -3 d 4 -3 d 3 -3 d 3 -3 d 3 -3 d 3 -4 d 3 -3 d 3 -3 d 3 -4 d 3 -3 d 3 -4 d 3 -3 d 3 -4 d s 1225 832 m 3 -3 d 3 -4 d 3 -4 d 3 -4 d
 3 -3 d 4 -4 d 3 -4 d 3 -4 d 3 -4 d 3 -4 d 3 -4 d 3 -4 d 3 -5 d 3 -4 d 3 -4 d 3 -5 d 3 -4 d 3 -4 d 3 -5 d 3 -4 d 3 -5 d 4 -5 d 3 -4 d s 0.49 0.6 0.82 c black 0.49 0.6 0.82 c
 gsave  408 305 930 677 C 1051.24 960.076 t 0 r /Helvetica-Bold findfont 25.6831 sf 0 0 m (3.5 < E < 4.0 GeV) show NC gr  0.52 0.76 0.64 c black 0.52 0.76 0.64 c
 gsave  408 305 930 677 C 1031.3 923.04 t 0 r /Helvetica-Bold findfont 25.6831 sf 0 0 m 
 228 214 200 193 178 171 156 149 133 126 119 105 91 77 69 55 47 39 25 17
(A = \2550.000, p = 2.000) K NC gr  1 0.6 1 c black 1 0.6 1 c
 gsave  408 305 930 677 C 1336.13 791.991 t 90 r /Helvetica-Bold findfont 28.5368 sf 0 0 m (/dof=0.0) show NC gr  black 1 0.6 1 c
 gsave  408 305 930 677 C 1324.73 780.596 t 90 r /Helvetica-Bold findfont 19.9758 sf 0 0 m (2) show NC gr  black 1 0.6 1 c
 gsave  408 305 930 677 C 1336.13 763.503 t 90 r /Symbol findfont 28.5368 sf 0 0 m (c) show NC gr  black 3 lw 1 1 1 c 408 305 1383 677 bf black 1 1 1 c black 306 229 1445 723 bl 306 229 1445 723 bl 1445 723 m 306 X s 1445 727 m -4 Y s 1558 727 m -4 Y
 s 1672 727 m -4 Y s 1672 727 m -4 Y s
 gsave  408 305 1383 677 C 1435.84 703.676 t 0 r /Helvetica findfont 22.8295 sf 0 0 m (0) show NC gr 
 gsave  408 305 1383 677 C 1535.55 703.676 t 0 r /Helvetica findfont 22.8295 sf 0 0 m (200) show NC gr 
 gsave  408 305 1383 677 C 1649.51 703.676 t 0 r /Helvetica findfont 22.8295 sf 0 0 m (400) show NC gr  1445 952 m 306 X s 1445 948 m 4 Y s 1558 948 m 4 Y s 1672 948 m 4 Y s 1672 948 m 4 Y s 1445 723 m 229 Y s 1450 730 m -5 X s 1447 740 m -2 X s 1447
 751 m -2 X s 1447 761 m -2 X s 1447 772 m -2 X s 1450 782 m -5 X s 1447 793 m -2 X s 1447 804 m -2 X s 1447 814 m -2 X s 1447 825 m -2 X s 1450 835 m -5 X s 1447 846 m -2 X s 1447 856 m -2 X s 1447 867 m -2 X s 1447 878 m -2 X s 1450 888 m -5 X s
 1447 899 m -2 X s 1447 909 m -2 X s 1447 920 m -2 X s 1447 930 m -2 X s 1450 941 m -5 X s 1450 730 m -5 X s 1450 941 m -5 X s 1447 952 m -2 X s
 gsave  408 305 1383 677 C 1390.26 723.618 t 0 r /Helvetica findfont 22.8295 sf 0 0 m (\2550.02) show NC gr 
 gsave  408 305 1383 677 C 1376.01 774.898 t 0 r /Helvetica findfont 22.8295 sf 0 0 m (\2550.015) show NC gr 
 gsave  408 305 1383 677 C 1393.11 829.027 t 0 r /Helvetica findfont 22.8295 sf 0 0 m (\2550.01) show NC gr 
 gsave  408 305 1383 677 C 1376.01 880.307 t 0 r /Helvetica findfont 22.8295 sf 0 0 m (\2550.005) show NC gr 
 gsave  408 305 1383 677 C 1427.29 934.436 t 0 r /Helvetica findfont 22.8295 sf 0 0 m (0) show NC gr  1751 723 m 229 Y s 1745 730 m 6 X s 1748 740 m 3 X s 1748 751 m 3 X s 1748 761 m 3 X s 1748 772 m 3 X s 1745 782 m 6 X s 1748 793 m 3 X s 1748 804 m
 3 X s 1748 814 m 3 X s 1748 825 m 3 X s 1745 835 m 6 X s 1748 846 m 3 X s 1748 856 m 3 X s 1748 867 m 3 X s 1748 878 m 3 X s 1745 888 m 6 X s 1748 899 m 3 X s 1748 909 m 3 X s 1748 920 m 3 X s 1748 930 m 3 X s 1745 941 m 6 X s 1745 730 m 6 X s 1745
 941 m 6 X s 1748 952 m 3 X s 1590 903 1735 771 2 { m21} R 1590 915 m 18 Y s 1584 933 m 11 X s 1590 892 m -19 Y s 1584 873 m 11 X s 1735 783 m 18 Y s 1729 801 m 11 X s 1735 760 m -18 Y s 1729 742 m 11 X s 1 0 0 c 9 lw 0.95 0.95 0.95 c black 1 0 0 c
 1446 941 m 12 X 3 -1 d 10 X 3 -1 d 6 X 3 -1 d 3 X 3 -1 d 3 X 3 -1 d 3 -1 d 3 X 3 -1 d 3 -1 d 3 -1 d 3 X 3 -1 d 4 -1 d 3 -1 d 3 -1 d 3 -1 d 3 -1 d 3 -1 d 3 -1 d 3 -2 d 3 -1 d 3 -1 d 3 -1 d 3 -2 d 3 -1 d 3 -1 d 3 -2 d 3 -1 d 4 -2 d 3 -1 d 3 -2 d 3 -1
 d 3 -2 d 3 -2 d 3 -2 d 3 -1 d 3 -2 d 3 -2 d s 1596 895 m 3 -2 d 3 -2 d 3 -2 d 3 -2 d 3 -2 d 3 -2 d 4 -2 d 3 -2 d 3 -2 d 3 -2 d 3 -3 d 3 -2 d 3 -2 d 3 -3 d 3 -2 d 3 -2 d 3 -3 d 3 -2 d 3 -3 d 3 -3 d 3 -2 d 3 -3 d 3 -3 d 4 -2 d 3 -3 d 3 -3 d 3 -3 d 3
 -3 d 3 -3 d 3 -3 d 3 -3 d 3 -3 d 3 -3 d 3 -3 d 3 -3 d 3 -3 d 3 -3 d 3 -4 d 3 -3 d 4 -3 d 3 -4 d 3 -3 d 3 -4 d 3 -3 d 3 -4 d 3 -3 d 3 -4 d 3 -3 d 3 -4 d s 1746 759 m 3 -4 d s 0.49 0.6 0.82 c black 0.49 0.6 0.82 c
 gsave  408 305 1383 677 C 1504.21 960.076 t 0 r /Helvetica-Bold findfont 25.6831 sf 0 0 m (4.0 < E < 4.5 GeV) show NC gr  0.52 0.76 0.64 c black 0.52 0.76 0.64 c
 gsave  408 305 1383 677 C 1484.27 923.04 t 0 r /Helvetica-Bold findfont 25.6831 sf 0 0 m 
 228 214 200 193 178 171 156 149 134 126 119 105 91 77 69 55 47 40 25 17
(A = \2550.000, p = 2.000) K NC gr  1 0.6 1 c black 1 0.6 1 c
 gsave  408 305 1383 677 C 1789.1 791.991 t 90 r /Helvetica-Bold findfont 28.5368 sf 0 0 m (/dof=0.0) show NC gr  black 1 0.6 1 c
 gsave  408 305 1383 677 C 1777.71 780.596 t 90 r /Helvetica-Bold findfont 19.9758 sf 0 0 m (2) show NC gr  black 1 0.6 1 c
 gsave  408 305 1383 677 C 1789.1 763.503 t 90 r /Symbol findfont 28.5368 sf 0 0 m (c) show NC gr  black 3 lw 1 1 1 c 408 305 1837 677 bf black 1 1 1 c black 306 229 1898 723 bl 306 229 1898 723 bl 1898 723 m 306 X s 1898 727 m -4 Y s 2012 727 m -4 Y
 s 2126 727 m -4 Y s 2126 727 m -4 Y s
 gsave  408 305 1837 677 C 1888.81 703.676 t 0 r /Helvetica findfont 22.8295 sf 0 0 m (0) show NC gr 
 gsave  408 305 1837 677 C 1991.37 703.676 t 0 r /Helvetica findfont 22.8295 sf 0 0 m (200) show NC gr 
 gsave  408 305 1837 677 C 2105.33 703.676 t 0 r /Helvetica findfont 22.8295 sf 0 0 m (400) show NC gr  1898 952 m 306 X s 1898 948 m 4 Y s 2012 948 m 4 Y s 2126 948 m 4 Y s 2126 948 m 4 Y s 1898 723 m 229 Y s 1904 723 m -6 X s 1901 731 m -3 X s 1901
 739 m -3 X s 1901 747 m -3 X s 1901 755 m -3 X s 1904 763 m -6 X s 1901 771 m -3 X s 1901 779 m -3 X s 1901 787 m -3 X s 1901 796 m -3 X s 1904 804 m -6 X s 1901 812 m -3 X s 1901 820 m -3 X s 1901 828 m -3 X s 1901 836 m -3 X s 1904 844 m -6 X s
 1901 852 m -3 X s 1901 860 m -3 X s 1901 868 m -3 X s 1901 876 m -3 X s 1904 884 m -6 X s 1901 892 m -3 X s 1901 900 m -3 X s 1901 909 m -3 X s 1901 917 m -3 X s 1904 925 m -6 X s 1904 925 m -6 X s 1901 933 m -3 X s 1901 941 m -3 X s 1901 949 m -3 X
 s
 gsave  408 305 1837 677 C 1880.27 715.071 t 0 r /Helvetica findfont 22.8295 sf 0 0 m (0) show NC gr 
 gsave  408 305 1837 677 C 1837.53 754.956 t 0 r /Helvetica findfont 22.8295 sf 0 0 m (0.005) show NC gr 
 gsave  408 305 1837 677 C 1851.78 797.689 t 0 r /Helvetica findfont 22.8295 sf 0 0 m (0.01) show NC gr 
 gsave  408 305 1837 677 C 1837.53 837.574 t 0 r /Helvetica findfont 22.8295 sf 0 0 m (0.015) show NC gr 
 gsave  408 305 1837 677 C 1848.93 877.458 t 0 r /Helvetica findfont 22.8295 sf 0 0 m (0.02) show NC gr 
 gsave  408 305 1837 677 C 1837.53 917.343 t 0 r /Helvetica findfont 22.8295 sf 0 0 m (0.025) show NC gr  2204 723 m 229 Y s 2199 723 m 5 X s 2201 731 m 3 X s 2201 739 m 3 X s 2201 747 m 3 X s 2201 755 m 3 X s 2199 763 m 5 X s 2201 771 m 3 X s 2201
 779 m 3 X s 2201 787 m 3 X s 2201 796 m 3 X s 2199 804 m 5 X s 2201 812 m 3 X s 2201 820 m 3 X s 2201 828 m 3 X s 2201 836 m 3 X s 2199 844 m 5 X s 2201 852 m 3 X s 2201 860 m 3 X s 2201 868 m 3 X s 2201 876 m 3 X s 2199 884 m 5 X s 2201 892 m 3 X s
 2201 900 m 3 X s 2201 909 m 3 X s 2201 917 m 3 X s 2199 925 m 5 X s 2199 925 m 5 X s 2201 933 m 3 X s 2201 941 m 3 X s 2201 949 m 3 X s 2043 767 2188 900 2 { m21} R 2043 778 m 20 Y s 2037 798 m 12 X s 2043 755 m -20 Y s 2037 735 m 12 X s 2188 912 m
 20 Y s 2183 932 m 11 X s 2188 889 m -21 Y s 2183 868 m 11 X s 1 0 0 c 9 lw 0.95 0.95 0.95 c black 1 0 0 c 1900 723 m 15 X 3 1 d 6 X 3 1 d 6 X 3 1 d 3 X 3 1 d 4 1 d 3 X 3 1 d 3 1 d 3 X 3 1 d 3 1 d 3 1 d 3 1 d 3 1 d 3 1 d 3 1 d 3 1 d 3 1 d 3 1 d 3 1 d
 4 1 d 3 2 d 3 1 d 3 1 d 3 2 d 3 1 d 3 2 d 3 1 d 3 2 d 3 1 d 3 2 d 3 1 d 3 2 d 3 2 d 3 2 d 3 2 d 3 1 d 4 2 d 3 2 d s 2050 771 m 3 2 d 3 2 d 3 2 d 3 2 d 3 2 d 3 3 d 3 2 d 3 2 d 3 2 d 3 3 d 3 2 d 3 2 d 3 3 d 3 2 d 4 3 d 3 2 d 3 3 d 3 3 d 3 2 d 3 3 d 3
 3 d 3 3 d 3 3 d 3 2 d 3 3 d 3 3 d 3 3 d 3 3 d 3 3 d 3 4 d 4 3 d 3 3 d 3 3 d 3 3 d 3 4 d 3 3 d 3 3 d 3 4 d 3 3 d 3 4 d 3 3 d 3 4 d 3 4 d 3 3 d 3 4 d 3 4 d 4 4 d 3 3 d 3 4 d s 2200 914 m 3 4 d s 0.49 0.6 0.82 c black 0.49 0.6 0.82 c
 gsave  408 305 1837 677 C 1957.19 960.076 t 0 r /Helvetica-Bold findfont 25.6831 sf 0 0 m (4.5 < E < 5.0 GeV) show NC gr  0.52 0.76 0.64 c black 0.52 0.76 0.64 c
 gsave  408 305 1837 677 C 1942.94 923.04 t 0 r /Helvetica-Bold findfont 25.6831 sf 0 0 m 
 220 206 192 185 170 163 148 141 125 118 111 97 83 69 61 47 40 25 18
(A = 0.000, p = 2.000) K NC gr  1 0.6 1 c black 1 0.6 1 c
 gsave  408 305 1837 677 C 2242.08 791.991 t 90 r /Helvetica-Bold findfont 28.5368 sf 0 0 m (/dof=0.0) show NC gr  black 1 0.6 1 c
 gsave  408 305 1837 677 C 2230.68 780.596 t 90 r /Helvetica-Bold findfont 19.9758 sf 0 0 m (2) show NC gr  black 1 0.6 1 c
 gsave  408 305 1837 677 C 2242.08 763.503 t 90 r /Symbol findfont 28.5368 sf 0 0 m (c) show NC gr  black 3 lw 1 1 1 c 408 306 23 345 bf black 1 1 1 c black 306 229 84 391 bl 306 229 84 391 bl 84 391 m 306 X s 84 395 m -4 Y s 198 395 m -4 Y s 311 395
 m -4 Y s 311 395 m -4 Y s
 gsave  408 306 23 345 C 74.0711 370.356 t 0 r /Helvetica findfont 22.8295 sf 0 0 m (0) show NC gr 
 gsave  408 306 23 345 C 176.631 370.356 t 0 r /Helvetica findfont 22.8295 sf 0 0 m (200) show NC gr 
 gsave  408 306 23 345 C 290.587 370.356 t 0 r /Helvetica findfont 22.8295 sf 0 0 m (400) show NC gr  84 620 m 306 X s 84 616 m 4 Y s 198 616 m 4 Y s 311 616 m 4 Y s 311 616 m 4 Y s 84 391 m 229 Y s 89 409 m -5 X s 87 417 m -3 X s 87 424 m -3 X s 87
 432 m -3 X s 87 440 m -3 X s 89 447 m -5 X s 87 455 m -3 X s 87 462 m -3 X s 87 470 m -3 X s 87 478 m -3 X s 89 485 m -5 X s 87 493 m -3 X s 87 500 m -3 X s 87 508 m -3 X s 87 515 m -3 X s 89 523 m -5 X s 87 531 m -3 X s 87 538 m -3 X s 87 546 m -3
 X s 87 553 m -3 X s 89 561 m -5 X s 87 568 m -3 X s 87 576 m -3 X s 87 584 m -3 X s 87 591 m -3 X s 89 599 m -5 X s 89 409 m -5 X s 87 402 m -3 X s 87 394 m -3 X s 89 599 m -5 X s 87 606 m -3 X s 87 614 m -3 X s
 gsave  408 306 23 345 C 37.0356 401.694 t 0 r /Helvetica findfont 22.8295 sf 0 0 m (0.01) show NC gr 
 gsave  408 306 23 345 C 34.1867 438.729 t 0 r /Helvetica findfont 22.8295 sf 0 0 m (0.02) show NC gr 
 gsave  408 306 23 345 C 34.1867 478.614 t 0 r /Helvetica findfont 22.8295 sf 0 0 m (0.03) show NC gr 
 gsave  408 306 23 345 C 34.1867 515.649 t 0 r /Helvetica findfont 22.8295 sf 0 0 m (0.04) show NC gr 
 gsave  408 306 23 345 C 34.1867 552.685 t 0 r /Helvetica findfont 22.8295 sf 0 0 m (0.05) show NC gr 
 gsave  408 306 23 345 C 34.1867 592.569 t 0 r /Helvetica findfont 22.8295 sf 0 0 m (0.06) show NC gr  390 391 m 229 Y s 385 409 m 5 X s 387 417 m 3 X s 387 424 m 3 X s 387 432 m 3 X s 387 440 m 3 X s 385 447 m 5 X s 387 455 m 3 X s 387 462 m 3 X s
 387 470 m 3 X s 387 478 m 3 X s 385 485 m 5 X s 387 493 m 3 X s 387 500 m 3 X s 387 508 m 3 X s 387 515 m 3 X s 385 523 m 5 X s 387 531 m 3 X s 387 538 m 3 X s 387 546 m 3 X s 387 553 m 3 X s 385 561 m 5 X s 387 568 m 3 X s 387 576 m 3 X s 387 584 m
 3 X s 387 591 m 3 X s 385 599 m 5 X s 385 409 m 5 X s 387 402 m 3 X s 387 394 m 3 X s 385 599 m 5 X s 387 606 m 3 X s 387 614 m 3 X s /w 22 def /w2 {w 2 div} def /w3 {w 3 div} def 229 430 374 581 2 { m21} R 229 441 m 8 Y s 223 449 m 12 X s 229 418 m
 -8 Y s 223 410 m 12 X s 374 592 m 9 Y s 368 601 m 12 X s 374 569 m -9 Y s 368 560 m 12 X s 1 0 0 c 9 lw 0.95 0.95 0.95 c black 1 0 0 c 171 391 m 3 1 d 3 1 d 3 2 d 3 1 d 3 2 d 4 1 d 3 2 d 3 2 d 3 1 d 3 2 d 3 2 d 3 2 d 3 2 d 3 2 d 3 2 d 3 2 d 3 2 d 3
 2 d 3 2 d 3 3 d 3 2 d 4 2 d 3 3 d 3 2 d 3 2 d 3 3 d 3 3 d 3 2 d 3 3 d 3 3 d 3 2 d 3 3 d 3 3 d 3 3 d 3 3 d 3 3 d 3 3 d 3 3 d 4 3 d 3 3 d 3 4 d 3 3 d 3 3 d 3 4 d 3 3 d 3 4 d 3 3 d 3 4 d 3 3 d s 321 512 m 3 4 d 3 4 d 3 3 d 3 4 d 3 4 d 4 4 d 3 4 d 3 4 d
 3 4 d 3 4 d 3 4 d 3 4 d 3 4 d 3 5 d 3 4 d 3 4 d 3 5 d 3 4 d 3 5 d 3 4 d 3 5 d 4 5 d s 0.49 0.6 0.82 c black 0.49 0.6 0.82 c
 gsave  408 306 23 345 C 142.445 629.605 t 0 r /Helvetica-Bold findfont 25.6831 sf 0 0 m (5.0 < E < 5.5 GeV) show NC gr  0.52 0.76 0.64 c black 0.52 0.76 0.64 c
 gsave  408 306 23 345 C 128.2 592.569 t 0 r /Helvetica-Bold findfont 25.6831 sf 0 0 m 
 220 206 192 185 170 163 148 141 126 118 111 97 83 69 61 47 40 25 18
(A = 0.000, p = 2.000) K NC gr  1 0.6 1 c black 1 0.6 1 c
 gsave  408 306 23 345 C 427.334 458.671 t 90 r /Helvetica-Bold findfont 28.5368 sf 0 0 m (/dof=0.1) show NC gr  black 1 0.6 1 c
 gsave  408 306 23 345 C 415.938 447.276 t 90 r /Helvetica-Bold findfont 19.9758 sf 0 0 m (2) show NC gr  black 1 0.6 1 c
 gsave  408 306 23 345 C 427.334 430.182 t 90 r /Symbol findfont 28.5368 sf 0 0 m (c) show NC gr  black 3 lw 1 1 1 c 408 306 476 345 bf black 1 1 1 c black 307 229 537 391 bl 307 229 537 391 bl 537 391 m 307 X s 537 395 m -4 Y s 651 395 m -4 Y s 765
 395 m -4 Y s 765 395 m -4 Y s
 gsave  408 306 476 345 C 527.045 370.356 t 0 r /Helvetica findfont 22.8295 sf 0 0 m (0) show NC gr 
 gsave  408 306 476 345 C 629.605 370.356 t 0 r /Helvetica findfont 22.8295 sf 0 0 m (200) show NC gr 
 gsave  408 306 476 345 C 743.56 370.356 t 0 r /Helvetica findfont 22.8295 sf 0 0 m (400) show NC gr  537 620 m 307 X s 537 616 m 4 Y s 651 616 m 4 Y s 765 616 m 4 Y s 765 616 m 4 Y s 537 391 m 229 Y s 543 405 m -6 X s 540 411 m -3 X s 540 417 m -3 X
 s 540 422 m -3 X s 540 428 m -3 X s 543 434 m -6 X s 540 439 m -3 X s 540 445 m -3 X s 540 451 m -3 X s 540 456 m -3 X s 543 462 m -6 X s 540 468 m -3 X s 540 473 m -3 X s 540 479 m -3 X s 540 485 m -3 X s 543 490 m -6 X s 540 496 m -3 X s 540 501 m
 -3 X s 540 507 m -3 X s 540 513 m -3 X s 543 518 m -6 X s 540 524 m -3 X s 540 530 m -3 X s 540 535 m -3 X s 540 541 m -3 X s 543 547 m -6 X s 540 552 m -3 X s 540 558 m -3 X s 540 564 m -3 X s 540 569 m -3 X s 543 575 m -6 X s 540 581 m -3 X s 540
 586 m -3 X s 540 592 m -3 X s 540 598 m -3 X s 543 603 m -6 X s 543 405 m -6 X s 540 400 m -3 X s 540 394 m -3 X s 543 603 m -6 X s 540 609 m -3 X s 540 615 m -3 X s
 gsave  408 306 476 345 C 490.009 398.845 t 0 r /Helvetica findfont 22.8295 sf 0 0 m (0.01) show NC gr 
 gsave  408 306 476 345 C 487.16 427.334 t 0 r /Helvetica findfont 22.8295 sf 0 0 m (0.02) show NC gr 
 gsave  408 306 476 345 C 487.16 455.822 t 0 r /Helvetica findfont 22.8295 sf 0 0 m (0.03) show NC gr 
 gsave  408 306 476 345 C 487.16 484.311 t 0 r /Helvetica findfont 22.8295 sf 0 0 m (0.04) show NC gr 
 gsave  408 306 476 345 C 487.16 509.951 t 0 r /Helvetica findfont 22.8295 sf 0 0 m (0.05) show NC gr 
 gsave  408 306 476 345 C 487.16 538.44 t 0 r /Helvetica findfont 22.8295 sf 0 0 m (0.06) show NC gr 
 gsave  408 306 476 345 C 487.16 566.929 t 0 r /Helvetica findfont 22.8295 sf 0 0 m (0.07) show NC gr 
 gsave  408 306 476 345 C 487.16 595.418 t 0 r /Helvetica findfont 22.8295 sf 0 0 m (0.08) show NC gr  844 391 m 229 Y s 838 405 m 6 X s 841 411 m 3 X s 841 417 m 3 X s 841 422 m 3 X s 841 428 m 3 X s 838 434 m 6 X s 841 439 m 3 X s 841 445 m 3 X s
 841 451 m 3 X s 841 456 m 3 X s 838 462 m 6 X s 841 468 m 3 X s 841 473 m 3 X s 841 479 m 3 X s 841 485 m 3 X s 838 490 m 6 X s 841 496 m 3 X s 841 501 m 3 X s 841 507 m 3 X s 841 513 m 3 X s 838 518 m 6 X s 841 524 m 3 X s 841 530 m 3 X s 841 535 m
 3 X s 841 541 m 3 X s 838 547 m 6 X s 841 552 m 3 X s 841 558 m 3 X s 841 564 m 3 X s 841 569 m 3 X s 838 575 m 6 X s 841 581 m 3 X s 841 586 m 3 X s 841 592 m 3 X s 841 598 m 3 X s 838 603 m 6 X s 838 405 m 6 X s 841 400 m 3 X s 841 394 m 3 X s 838
 603 m 6 X s 841 609 m 3 X s 841 615 m 3 X s /w 23 def /w2 {w 2 div} def /w3 {w 3 div} def 683 428 828 582 2 { m21} R 683 440 m 7 Y s 677 447 m 11 X s 683 417 m -7 Y s 677 410 m 11 X s 828 593 m 8 Y s 822 601 m 11 X s 828 570 m -7 Y s 822 563 m 11 X
 s 1 0 0 c 9 lw 0.95 0.95 0.95 c black 1 0 0 c 612 391 m 4 1 d 3 1 d 3 1 d 3 1 d 3 2 d 3 1 d 3 1 d 3 2 d 3 1 d 3 2 d 3 2 d 3 1 d 3 2 d 3 2 d 3 1 d 3 2 d 3 2 d 4 2 d 3 2 d 3 2 d 3 2 d 3 2 d 3 2 d 3 3 d 3 2 d 3 2 d 3 2 d 3 3 d 3 2 d 3 3 d 3 2 d 3 3 d 3
 2 d 4 3 d 3 3 d 3 2 d 3 3 d 3 3 d 3 3 d 3 3 d 3 3 d 3 3 d 3 3 d 3 3 d 3 3 d 3 3 d 3 4 d 3 3 d 3 3 d s 762 500 m 4 4 d 3 3 d 3 3 d 3 4 d 3 3 d 3 4 d 3 4 d 3 3 d 3 4 d 3 4 d 3 4 d 3 4 d 3 4 d 3 4 d 3 4 d 3 4 d 4 4 d 3 4 d 3 4 d 3 4 d 3 5 d 3 4 d 3 4 d
 3 5 d 3 4 d 3 5 d s 0.49 0.6 0.82 c black 0.49 0.6 0.82 c
 gsave  408 306 476 345 C 595.418 629.605 t 0 r /Helvetica-Bold findfont 25.6831 sf 0 0 m (5.5 < E < 6.0 GeV) show NC gr  0.52 0.76 0.64 c black 0.52 0.76 0.64 c
 gsave  408 306 476 345 C 581.174 592.569 t 0 r /Helvetica-Bold findfont 25.6831 sf 0 0 m 
 220 206 192 185 170 163 148 141 125 118 111 97 83 68 61 47 40 25 18
(A = 0.000, p = 2.000) K NC gr  1 0.6 1 c black 1 0.6 1 c
 gsave  408 306 476 345 C 883.156 458.671 t 90 r /Helvetica-Bold findfont 28.5368 sf 0 0 m (/dof=0.0) show NC gr  black 1 0.6 1 c
 gsave  408 306 476 345 C 871.76 447.276 t 90 r /Helvetica-Bold findfont 19.9758 sf 0 0 m (2) show NC gr  black 1 0.6 1 c
 gsave  408 306 476 345 C 883.156 430.182 t 90 r /Symbol findfont 28.5368 sf 0 0 m (c) show NC gr  black 3 lw 1 1 1 c 408 306 930 345 bf black 1 1 1 c black 306 229 991 391 bl 306 229 991 391 bl 991 391 m 306 X s 991 395 m -4 Y s 1105 395 m -4 Y s
 1219 395 m -4 Y s 1219 395 m -4 Y s
 gsave  408 306 930 345 C 980.018 370.356 t 0 r /Helvetica findfont 22.8295 sf 0 0 m (0) show NC gr 
 gsave  408 306 930 345 C 1082.58 370.356 t 0 r /Helvetica findfont 22.8295 sf 0 0 m (200) show NC gr 
 gsave  408 306 930 345 C 1196.53 370.356 t 0 r /Helvetica findfont 22.8295 sf 0 0 m (400) show NC gr  991 620 m 306 X s 991 616 m 4 Y s 1105 616 m 4 Y s 1219 616 m 4 Y s 1219 616 m 4 Y s 991 391 m 229 Y s 997 406 m -6 X s 994 412 m -3 X s 994 417 m
 -3 X s 994 423 m -3 X s 994 429 m -3 X s 997 435 m -6 X s 994 441 m -3 X s 994 446 m -3 X s 994 452 m -3 X s 994 458 m -3 X s 997 464 m -6 X s 994 469 m -3 X s 994 475 m -3 X s 994 481 m -3 X s 994 487 m -3 X s 997 492 m -6 X s 994 498 m -3 X s 994
 504 m -3 X s 994 510 m -3 X s 994 516 m -3 X s 997 521 m -6 X s 994 527 m -3 X s 994 533 m -3 X s 994 539 m -3 X s 994 544 m -3 X s 997 550 m -6 X s 994 556 m -3 X s 994 562 m -3 X s 994 567 m -3 X s 994 573 m -3 X s 997 579 m -6 X s 994 585 m -3 X
 s 994 591 m -3 X s 994 596 m -3 X s 994 602 m -3 X s 997 608 m -6 X s 997 406 m -6 X s 994 400 m -3 X s 994 394 m -3 X s 997 608 m -6 X s 994 614 m -3 X s 994 619 m -3 X s
 gsave  408 306 930 345 C 945.832 398.845 t 0 r /Helvetica findfont 22.8295 sf 0 0 m (0.01) show NC gr 
 gsave  408 306 930 345 C 942.983 427.334 t 0 r /Helvetica findfont 22.8295 sf 0 0 m (0.02) show NC gr 
 gsave  408 306 930 345 C 942.983 455.822 t 0 r /Helvetica findfont 22.8295 sf 0 0 m (0.03) show NC gr 
 gsave  408 306 930 345 C 942.983 484.311 t 0 r /Helvetica findfont 22.8295 sf 0 0 m (0.04) show NC gr 
 gsave  408 306 930 345 C 942.983 512.8 t 0 r /Helvetica findfont 22.8295 sf 0 0 m (0.05) show NC gr 
 gsave  408 306 930 345 C 942.983 544.138 t 0 r /Helvetica findfont 22.8295 sf 0 0 m (0.06) show NC gr 
 gsave  408 306 930 345 C 942.983 572.627 t 0 r /Helvetica findfont 22.8295 sf 0 0 m (0.07) show NC gr 
 gsave  408 306 930 345 C 942.983 601.116 t 0 r /Helvetica findfont 22.8295 sf 0 0 m (0.08) show NC gr  1297 391 m 229 Y s 1292 406 m 5 X s 1294 412 m 3 X s 1294 417 m 3 X s 1294 423 m 3 X s 1294 429 m 3 X s 1292 435 m 5 X s 1294 441 m 3 X s 1294 446
 m 3 X s 1294 452 m 3 X s 1294 458 m 3 X s 1292 464 m 5 X s 1294 469 m 3 X s 1294 475 m 3 X s 1294 481 m 3 X s 1294 487 m 3 X s 1292 492 m 5 X s 1294 498 m 3 X s 1294 504 m 3 X s 1294 510 m 3 X s 1294 516 m 3 X s 1292 521 m 5 X s 1294 527 m 3 X s
 1294 533 m 3 X s 1294 539 m 3 X s 1294 544 m 3 X s 1292 550 m 5 X s 1294 556 m 3 X s 1294 562 m 3 X s 1294 567 m 3 X s 1294 573 m 3 X s 1292 579 m 5 X s 1294 585 m 3 X s 1294 591 m 3 X s 1294 596 m 3 X s 1294 602 m 3 X s 1292 608 m 5 X s 1292 406 m
 5 X s 1294 400 m 3 X s 1294 394 m 3 X s 1292 608 m 5 X s 1294 614 m 3 X s 1294 619 m 3 X s 1136 432 1281 578 2 { m21} R 1136 444 m 10 Y s 1130 454 m 12 X s 1136 421 m -11 Y s 1130 410 m 12 X s 1281 589 m 12 Y s 1275 601 m 12 X s 1281 567 m -12 Y s
 1275 555 m 12 X s 1 0 0 c 9 lw 0.95 0.95 0.95 c black 1 0 0 c 1066 391 m 3 1 d 3 1 d 3 1 d 3 1 d 3 2 d 3 1 d 3 1 d 3 2 d 4 1 d 3 2 d 3 1 d 3 2 d 3 2 d 3 1 d 3 2 d 3 2 d 3 2 d 3 2 d 3 2 d 3 2 d 3 2 d 3 2 d 3 2 d 3 2 d 4 2 d 3 2 d 3 3 d 3 2 d 3 2 d 3
 3 d 3 2 d 3 3 d 3 2 d 3 3 d 3 3 d 3 2 d 3 3 d 3 3 d 3 3 d 3 3 d 4 3 d 3 3 d 3 3 d 3 3 d 3 3 d 3 3 d 3 3 d 3 3 d 3 4 d s 1216 499 m 3 3 d 3 3 d 3 4 d 3 3 d 3 4 d 3 3 d 3 4 d 3 4 d 4 3 d 3 4 d 3 4 d 3 4 d 3 3 d 3 4 d 3 4 d 3 4 d 3 4 d 3 4 d 3 5 d 3 4
 d 3 4 d 3 4 d 3 5 d 3 4 d 4 4 d 3 5 d s 0.49 0.6 0.82 c black 0.49 0.6 0.82 c
 gsave  408 306 930 345 C 1051.24 629.605 t 0 r /Helvetica-Bold findfont 25.6831 sf 0 0 m (6.0 < E < 6.5 GeV) show NC gr  0.52 0.76 0.64 c black 0.52 0.76 0.64 c
 gsave  408 306 930 345 C 1037 592.569 t 0 r /Helvetica-Bold findfont 25.6831 sf 0 0 m 
 220 206 192 185 170 163 148 141 125 118 111 97 83 69 61 47 40 25 18
(A = 0.000, p = 2.000) K NC gr  1 0.6 1 c black 1 0.6 1 c
 gsave  408 306 930 345 C 1336.13 458.671 t 90 r /Helvetica-Bold findfont 28.5368 sf 0 0 m (/dof=0.0) show NC gr  black 1 0.6 1 c
 gsave  408 306 930 345 C 1324.73 447.276 t 90 r /Helvetica-Bold findfont 19.9758 sf 0 0 m (2) show NC gr  black 1 0.6 1 c
 gsave  408 306 930 345 C 1336.13 430.182 t 90 r /Symbol findfont 28.5368 sf 0 0 m (c) show NC gr  black 3 lw 1 1 1 c 408 306 1383 345 bf black 1 1 1 c black 306 229 1445 391 bl 306 229 1445 391 bl 1445 391 m 306 X s 1445 395 m -4 Y s 1558 395 m -4 Y
 s 1672 395 m -4 Y s 1672 395 m -4 Y s
 gsave  408 306 1383 345 C 1435.84 370.356 t 0 r /Helvetica findfont 22.8295 sf 0 0 m (0) show NC gr 
 gsave  408 306 1383 345 C 1535.55 370.356 t 0 r /Helvetica findfont 22.8295 sf 0 0 m (200) show NC gr 
 gsave  408 306 1383 345 C 1649.51 370.356 t 0 r /Helvetica findfont 22.8295 sf 0 0 m (400) show NC gr  1445 620 m 306 X s 1445 616 m 4 Y s 1558 616 m 4 Y s 1672 616 m 4 Y s 1672 616 m 4 Y s 1445 391 m 229 Y s 1450 397 m -5 X s 1447 405 m -2 X s 1447
 414 m -2 X s 1447 422 m -2 X s 1447 430 m -2 X s 1450 438 m -5 X s 1447 447 m -2 X s 1447 455 m -2 X s 1447 463 m -2 X s 1447 471 m -2 X s 1450 479 m -5 X s 1447 488 m -2 X s 1447 496 m -2 X s 1447 504 m -2 X s 1447 512 m -2 X s 1450 521 m -5 X s
 1447 529 m -2 X s 1447 537 m -2 X s 1447 545 m -2 X s 1447 553 m -2 X s 1450 562 m -5 X s 1447 570 m -2 X s 1447 578 m -2 X s 1447 586 m -2 X s 1447 595 m -2 X s 1450 603 m -5 X s 1450 397 m -5 X s 1450 603 m -5 X s 1447 611 m -2 X s 1447 619 m -2 X
 s
 gsave  408 306 1383 345 C 1398.81 390.298 t 0 r /Helvetica findfont 22.8295 sf 0 0 m (0.01) show NC gr 
 gsave  408 306 1383 345 C 1395.96 430.182 t 0 r /Helvetica findfont 22.8295 sf 0 0 m (0.02) show NC gr 
 gsave  408 306 1383 345 C 1395.96 472.916 t 0 r /Helvetica findfont 22.8295 sf 0 0 m (0.03) show NC gr 
 gsave  408 306 1383 345 C 1395.96 512.8 t 0 r /Helvetica findfont 22.8295 sf 0 0 m (0.04) show NC gr 
 gsave  408 306 1383 345 C 1395.96 555.534 t 0 r /Helvetica findfont 22.8295 sf 0 0 m (0.05) show NC gr 
 gsave  408 306 1383 345 C 1395.96 595.418 t 0 r /Helvetica findfont 22.8295 sf 0 0 m (0.06) show NC gr  1751 391 m 229 Y s 1745 397 m 6 X s 1748 405 m 3 X s 1748 414 m 3 X s 1748 422 m 3 X s 1748 430 m 3 X s 1745 438 m 6 X s 1748 447 m 3 X s 1748
 455 m 3 X s 1748 463 m 3 X s 1748 471 m 3 X s 1745 479 m 6 X s 1748 488 m 3 X s 1748 496 m 3 X s 1748 504 m 3 X s 1748 512 m 3 X s 1745 521 m 6 X s 1748 529 m 3 X s 1748 537 m 3 X s 1748 545 m 3 X s 1748 553 m 3 X s 1745 562 m 6 X s 1748 570 m 3 X s
 1748 578 m 3 X s 1748 586 m 3 X s 1748 595 m 3 X s 1745 603 m 6 X s 1745 397 m 6 X s 1745 603 m 6 X s 1748 611 m 3 X s 1748 619 m 3 X s 1590 446 1735 565 2 { m21} R 1590 457 m 24 Y s 1584 481 m 11 X s 1590 434 m -24 Y s 1584 410 m 11 X s 1735 576 m
 25 Y s 1729 601 m 11 X s 1735 553 m -24 Y s 1729 529 m 11 X s 9 lw 0.95 0.95 0.95 c black 1492 391 m 3 X 3 3 d 3 2 d 3 2 d 3 2 d 3 2 d 3 2 d 3 2 d 4 2 d 3 3 d 3 2 d 3 2 d 3 2 d 3 2 d 3 2 d 3 2 d 3 3 d 3 2 d 3 2 d 3 2 d 3 2 d 3 2 d 3 2 d 3 3 d 4 2 d
 3 2 d 3 2 d 3 2 d 3 2 d 3 2 d 3 2 d 3 3 d 3 2 d 3 2 d 3 2 d 3 2 d 3 2 d 3 2 d 3 3 d 3 2 d 4 2 d 3 2 d 3 2 d 3 2 d 3 2 d 3 3 d 3 2 d 3 2 d 3 2 d s 1642 494 m 3 2 d 3 2 d 3 2 d 3 2 d 3 3 d 3 2 d 3 2 d 3 2 d 4 2 d 3 2 d 3 2 d 3 3 d 3 2 d 3 2 d 3 2 d 3
 2 d 3 2 d 3 2 d 3 3 d 3 2 d 3 2 d 3 2 d 3 2 d 3 2 d 4 2 d 3 2 d 3 3 d 3 2 d 3 2 d 3 2 d 3 2 d 3 2 d 3 2 d 3 3 d 3 2 d s 0.49 0.6 0.82 c black 0.49 0.6 0.82 c
 gsave  408 306 1383 345 C 1504.21 629.605 t 0 r /Helvetica-Bold findfont 25.6831 sf 0 0 m (6.5 < E < 7.0 GeV) show NC gr  0.52 0.76 0.64 c black 0.52 0.76 0.64 c
 gsave  408 306 1383 345 C 1489.97 592.569 t 0 r /Helvetica-Bold findfont 25.6831 sf 0 0 m 
 220 206 192 185 170 163 148 141 126 118 111 97 83 69 61 47 40 25 18
(A = 0.000, p = 1.000) K NC gr  1 0.6 1 c black 1 0.6 1 c
 gsave  408 306 1383 345 C 1789.1 458.671 t 90 r /Helvetica-Bold findfont 28.5368 sf 0 0 m (/dof=0.1) show NC gr  black 1 0.6 1 c
 gsave  408 306 1383 345 C 1777.71 447.276 t 90 r /Helvetica-Bold findfont 19.9758 sf 0 0 m (2) show NC gr  black 1 0.6 1 c
 gsave  408 306 1383 345 C 1789.1 430.182 t 90 r /Symbol findfont 28.5368 sf 0 0 m (c) show NC gr  black 3 lw 1 1 1 c 408 306 1837 345 bf black 1 1 1 c black 306 229 1898 391 bl 306 229 1898 391 bl 1898 391 m 306 X s 1898 395 m -4 Y s 2012 395 m -4 Y
 s 2126 395 m -4 Y s 2126 395 m -4 Y s
 gsave  408 306 1837 345 C 1888.81 370.356 t 0 r /Helvetica findfont 22.8295 sf 0 0 m (0) show NC gr 
 gsave  408 306 1837 345 C 1991.37 370.356 t 0 r /Helvetica findfont 22.8295 sf 0 0 m (200) show NC gr 
 gsave  408 306 1837 345 C 2105.33 370.356 t 0 r /Helvetica findfont 22.8295 sf 0 0 m (400) show NC gr  1898 620 m 306 X s 1898 616 m 4 Y s 2012 616 m 4 Y s 2126 616 m 4 Y s 2126 616 m 4 Y s 1898 391 m 229 Y s 1904 406 m -6 X s 1901 413 m -3 X s 1901
 420 m -3 X s 1901 427 m -3 X s 1901 434 m -3 X s 1904 440 m -6 X s 1901 447 m -3 X s 1901 454 m -3 X s 1901 461 m -3 X s 1901 468 m -3 X s 1904 474 m -6 X s 1901 481 m -3 X s 1901 488 m -3 X s 1901 495 m -3 X s 1901 501 m -3 X s 1904 508 m -6 X s
 1901 515 m -3 X s 1901 522 m -3 X s 1901 529 m -3 X s 1901 535 m -3 X s 1904 542 m -6 X s 1901 549 m -3 X s 1901 556 m -3 X s 1901 563 m -3 X s 1901 569 m -3 X s 1904 576 m -6 X s 1901 583 m -3 X s 1901 590 m -3 X s 1901 596 m -3 X s 1901 603 m -3 X
 s 1904 610 m -6 X s 1904 406 m -6 X s 1901 400 m -3 X s 1901 393 m -3 X s 1904 610 m -6 X s 1901 617 m -3 X s
 gsave  408 306 1837 345 C 1846.08 398.845 t 0 r /Helvetica findfont 22.8295 sf 0 0 m (\2550.01) show NC gr 
 gsave  408 306 1837 345 C 1880.27 433.031 t 0 r /Helvetica findfont 22.8295 sf 0 0 m (0) show NC gr 
 gsave  408 306 1837 345 C 1851.78 467.218 t 0 r /Helvetica findfont 22.8295 sf 0 0 m (0.01) show NC gr 
 gsave  408 306 1837 345 C 1848.93 501.405 t 0 r /Helvetica findfont 22.8295 sf 0 0 m (0.02) show NC gr 
 gsave  408 306 1837 345 C 1848.93 535.591 t 0 r /Helvetica findfont 22.8295 sf 0 0 m (0.03) show NC gr 
 gsave  408 306 1837 345 C 1848.93 569.778 t 0 r /Helvetica findfont 22.8295 sf 0 0 m (0.04) show NC gr 
 gsave  408 306 1837 345 C 1848.93 603.965 t 0 r /Helvetica findfont 22.8295 sf 0 0 m (0.05) show NC gr  2204 391 m 229 Y s 2199 406 m 5 X s 2201 413 m 3 X s 2201 420 m 3 X s 2201 427 m 3 X s 2201 434 m 3 X s 2199 440 m 5 X s 2201 447 m 3 X s 2201
 454 m 3 X s 2201 461 m 3 X s 2201 468 m 3 X s 2199 474 m 5 X s 2201 481 m 3 X s 2201 488 m 3 X s 2201 495 m 3 X s 2201 501 m 3 X s 2199 508 m 5 X s 2201 515 m 3 X s 2201 522 m 3 X s 2201 529 m 3 X s 2201 535 m 3 X s 2199 542 m 5 X s 2201 549 m 3 X s
 2201 556 m 3 X s 2201 563 m 3 X s 2201 569 m 3 X s 2199 576 m 5 X s 2201 583 m 3 X s 2201 590 m 3 X s 2201 596 m 3 X s 2201 603 m 3 X s 2199 610 m 5 X s 2199 406 m 5 X s 2201 400 m 3 X s 2201 393 m 3 X s 2199 610 m 5 X s 2201 617 m 3 X s 2043 442
 2188 568 2 { m21} R 2043 453 m 20 Y s 2037 473 m 12 X s 2043 430 m -20 Y s 2037 410 m 12 X s 2188 580 m 21 Y s 2183 601 m 11 X s 2188 557 m -21 Y s 2183 536 m 11 X s 1 0 0 c 9 lw 0.95 0.95 0.95 c black 1 0 0 c 1900 440 m 6 X 3 1 d 15 X 3 1 d 9 X 3 1
 d 3 X 4 1 d 6 X 3 1 d 3 X 3 1 d 3 1 d 3 X 3 1 d 3 X 3 1 d 3 1 d 3 1 d 3 X 3 1 d 3 1 d 4 1 d 3 1 d 3 X 3 1 d 3 1 d 3 1 d 3 1 d 3 1 d 3 1 d 3 1 d 3 1 d 3 2 d 3 1 d 3 1 d 3 1 d 3 1 d 3 2 d 4 1 d 3 1 d s 2050 473 m 3 2 d 3 1 d 3 1 d 3 2 d 3 1 d 3 2 d 3
 1 d 3 2 d 3 1 d 3 2 d 3 1 d 3 2 d 3 2 d 3 1 d 4 2 d 3 2 d 3 2 d 3 2 d 3 1 d 3 2 d 3 2 d 3 2 d 3 2 d 3 2 d 3 2 d 3 2 d 3 2 d 3 2 d 3 2 d 3 2 d 4 2 d 3 2 d 3 3 d 3 2 d 3 2 d 3 2 d 3 3 d 3 2 d 3 2 d 3 3 d 3 2 d 3 3 d 3 2 d 3 3 d 3 2 d 3 3 d 4 2 d 3 3 d
 3 3 d s 2200 571 m 3 2 d s 0.49 0.6 0.82 c black 0.49 0.6 0.82 c
 gsave  408 306 1837 345 C 1957.19 629.605 t 0 r /Helvetica-Bold findfont 25.6831 sf 0 0 m (7.0 < E < 7.5 GeV) show NC gr  0.52 0.76 0.64 c black 0.52 0.76 0.64 c
 gsave  408 306 1837 345 C 1942.94 592.569 t 0 r /Helvetica-Bold findfont 25.6831 sf 0 0 m 
 220 206 192 185 170 163 148 141 125 118 111 97 83 69 61 47 40 25 18
(A = 0.000, p = 2.000) K NC gr  1 0.6 1 c black 1 0.6 1 c
 gsave  408 306 1837 345 C 2242.08 458.671 t 90 r /Helvetica-Bold findfont 28.5368 sf 0 0 m (/dof=0.9) show NC gr  black 1 0.6 1 c
 gsave  408 306 1837 345 C 2230.68 447.276 t 90 r /Helvetica-Bold findfont 19.9758 sf 0 0 m (2) show NC gr  black 1 0.6 1 c
 gsave  408 306 1837 345 C 2242.08 430.182 t 90 r /Symbol findfont 28.5368 sf 0 0 m (c) show NC gr  black 3 lw 1 1 1 c 408 306 23 13 bf black 1 1 1 c black 306 229 84 59 bl 306 229 84 59 bl 84 59 m 306 X s 84 63 m -4 Y s 198 63 m -4 Y s 311 63 m -4 Y
 s 311 63 m -4 Y s
 gsave  408 306 23 13 C 74.0711 39.8845 t 0 r /Helvetica findfont 22.8295 sf 0 0 m (0) show NC gr 
 gsave  408 306 23 13 C 176.631 39.8845 t 0 r /Helvetica findfont 22.8295 sf 0 0 m (200) show NC gr 
 gsave  408 306 23 13 C 290.587 39.8845 t 0 r /Helvetica findfont 22.8295 sf 0 0 m (400) show NC gr  84 288 m 306 X s 84 284 m 4 Y s 198 284 m 4 Y s 311 284 m 4 Y s 311 284 m 4 Y s 84 59 m 229 Y s 89 86 m -5 X s 87 94 m -3 X s 87 102 m -3 X s 87 111
 m -3 X s 87 119 m -3 X s 89 128 m -5 X s 87 136 m -3 X s 87 145 m -3 X s 87 153 m -3 X s 87 162 m -3 X s 89 170 m -5 X s 87 178 m -3 X s 87 187 m -3 X s 87 195 m -3 X s 87 204 m -3 X s 89 212 m -5 X s 87 221 m -3 X s 87 229 m -3 X s 87 237 m -3 X s
 87 246 m -3 X s 89 254 m -5 X s 89 86 m -5 X s 87 77 m -3 X s 87 69 m -3 X s 87 60 m -3 X s 89 254 m -5 X s 87 263 m -3 X s 87 271 m -3 X s 87 280 m -3 X s 87 288 m -3 X s
 gsave  408 306 23 13 C 14.2445 79.7689 t 0 r /Helvetica findfont 22.8295 sf 0 0 m (\2550.005) show NC gr 
 gsave  408 306 23 13 C 65.5245 119.653 t 0 r /Helvetica findfont 22.8295 sf 0 0 m (0) show NC gr 
 gsave  408 306 23 13 C 22.7911 162.387 t 0 r /Helvetica findfont 22.8295 sf 0 0 m (0.005) show NC gr 
 gsave  408 306 23 13 C 37.0356 205.12 t 0 r /Helvetica findfont 22.8295 sf 0 0 m (0.01) show NC gr 
 gsave  408 306 23 13 C 22.7911 247.853 t 0 r /Helvetica findfont 22.8295 sf 0 0 m (0.015) show NC gr  390 59 m 229 Y s 385 86 m 5 X s 387 94 m 3 X s 387 102 m 3 X s 387 111 m 3 X s 387 119 m 3 X s 385 128 m 5 X s 387 136 m 3 X s 387 145 m 3 X s 387
 153 m 3 X s 387 162 m 3 X s 385 170 m 5 X s 387 178 m 3 X s 387 187 m 3 X s 387 195 m 3 X s 387 204 m 3 X s 385 212 m 5 X s 387 221 m 3 X s 387 229 m 3 X s 387 237 m 3 X s 387 246 m 3 X s 385 254 m 5 X s 385 86 m 5 X s 387 77 m 3 X s 387 69 m 3 X s
 387 60 m 3 X s 385 254 m 5 X s 387 263 m 3 X s 387 271 m 3 X s 387 280 m 3 X s 387 288 m 3 X s /w 22 def /w2 {w 2 div} def /w3 {w 3 div} def 229 163 374 184 2 { m21} R 229 175 m 74 Y s 223 249 m 12 X s 229 152 m -74 Y s 223 78 m 12 X s 374 195 m 74
 Y s 368 269 m 12 X s 374 173 m -74 Y s 368 99 m 12 X s 9 lw 0.95 0.95 0.95 c black 85 128 m 3 1 d 4 X 3 1 d 3 1 d 3 X 3 1 d 3 X 3 1 d 3 1 d 3 X 3 1 d 3 1 d 3 X 3 1 d 3 X 3 1 d 3 1 d 4 X 3 1 d 3 1 d 3 X 3 1 d 3 X 3 1 d 3 1 d 3 X 3 1 d 3 1 d 3 X 3 1 d
 3 X 3 1 d 3 1 d 4 X 3 1 d 3 1 d 3 X 3 1 d 3 X 3 1 d 3 1 d 3 X 3 1 d 3 1 d 3 X 3 1 d 3 X 3 1 d 3 1 d s 235 159 m 4 X 3 1 d 3 1 d 3 X 3 1 d 3 X 3 1 d 3 1 d 3 X 3 1 d 3 1 d 3 X 3 1 d 3 X 3 1 d 3 1 d 3 X 4 1 d 3 1 d 3 X 3 1 d 3 X 3 1 d 3 1 d 3 X 3 1 d 3
 1 d 3 X 3 1 d 3 X 3 1 d 3 1 d 3 X 4 1 d 3 1 d 3 X 3 1 d 3 X 3 1 d 3 1 d 3 X 3 1 d 3 1 d 3 X 3 1 d 3 X 3 1 d 3 1 d 3 X s 385 189 m 4 1 d s 0.49 0.6 0.82 c black 0.49 0.6 0.82 c
 gsave  408 306 23 13 C 142.445 296.285 t 0 r /Helvetica-Bold findfont 25.6831 sf 0 0 m (7.5 < E < 8.0 GeV) show NC gr  0.52 0.76 0.64 c black 0.52 0.76 0.64 c
 gsave  408 306 23 13 C 128.2 259.249 t 0 r /Helvetica-Bold findfont 25.6831 sf 0 0 m 
 220 206 192 185 170 163 148 141 126 118 111 97 83 69 61 47 40 25 18
(A = 0.000, p = 1.000) K NC gr  1 0.6 1 c black 1 0.6 1 c
 gsave  408 306 23 13 C 427.334 128.2 t 90 r /Helvetica-Bold findfont 28.5368 sf 0 0 m (/dof=0.0) show NC gr  black 1 0.6 1 c
 gsave  408 306 23 13 C 415.938 116.804 t 90 r /Helvetica-Bold findfont 19.9758 sf 0 0 m (2) show NC gr  black 1 0.6 1 c
 gsave  408 306 23 13 C 427.334 99.7112 t 90 r /Symbol findfont 28.5368 sf 0 0 m (c) show NC gr  black 3 lw 1 1 1 c 408 306 476 13 bf black 1 1 1 c black 307 229 537 59 bl 307 229 537 59 bl 537 59 m 307 X s 537 63 m -4 Y s 651 63 m -4 Y s 765 63 m -4
 Y s 765 63 m -4 Y s
 gsave  408 306 476 13 C 527.045 39.8845 t 0 r /Helvetica findfont 22.8295 sf 0 0 m (0) show NC gr 
 gsave  408 306 476 13 C 629.605 39.8845 t 0 r /Helvetica findfont 22.8295 sf 0 0 m (200) show NC gr 
 gsave  408 306 476 13 C 743.56 39.8845 t 0 r /Helvetica findfont 22.8295 sf 0 0 m (400) show NC gr  537 288 m 307 X s 537 284 m 4 Y s 651 284 m 4 Y s 765 284 m 4 Y s 765 284 m 4 Y s 537 59 m 229 Y s 543 81 m -6 X s 540 86 m -3 X s 540 90 m -3 X s
 540 95 m -3 X s 540 100 m -3 X s 543 105 m -6 X s 540 109 m -3 X s 540 114 m -3 X s 540 119 m -3 X s 540 124 m -3 X s 543 129 m -6 X s 540 133 m -3 X s 540 138 m -3 X s 540 143 m -3 X s 540 148 m -3 X s 543 152 m -6 X s 540 157 m -3 X s 540 162 m -3
 X s 540 167 m -3 X s 540 172 m -3 X s 543 176 m -6 X s 540 181 m -3 X s 540 186 m -3 X s 540 191 m -3 X s 540 195 m -3 X s 543 200 m -6 X s 540 205 m -3 X s 540 210 m -3 X s 540 215 m -3 X s 540 219 m -3 X s 543 224 m -6 X s 540 229 m -3 X s 540 234
 m -3 X s 540 238 m -3 X s 540 243 m -3 X s 543 248 m -6 X s 540 253 m -3 X s 540 258 m -3 X s 540 262 m -3 X s 540 267 m -3 X s 543 272 m -6 X s 543 81 m -6 X s 540 76 m -3 X s 540 71 m -3 X s 540 66 m -3 X s 540 62 m -3 X s 543 272 m -6 X s 540 277
 m -3 X s 540 281 m -3 X s 540 286 m -3 X s
 gsave  408 306 476 13 C 481.462 74.0711 t 0 r /Helvetica findfont 22.8295 sf 0 0 m (\2550.02) show NC gr 
 gsave  408 306 476 13 C 467.218 96.8623 t 0 r /Helvetica findfont 22.8295 sf 0 0 m (\2550.015) show NC gr 
 gsave  408 306 476 13 C 484.311 122.502 t 0 r /Helvetica findfont 22.8295 sf 0 0 m (\2550.01) show NC gr 
 gsave  408 306 476 13 C 467.218 145.293 t 0 r /Helvetica findfont 22.8295 sf 0 0 m (\2550.005) show NC gr 
 gsave  408 306 476 13 C 518.498 168.085 t 0 r /Helvetica findfont 22.8295 sf 0 0 m (0) show NC gr 
 gsave  408 306 476 13 C 475.765 193.725 t 0 r /Helvetica findfont 22.8295 sf 0 0 m (0.005) show NC gr 
 gsave  408 306 476 13 C 490.009 216.516 t 0 r /Helvetica findfont 22.8295 sf 0 0 m (0.01) show NC gr 
 gsave  408 306 476 13 C 475.765 242.156 t 0 r /Helvetica findfont 22.8295 sf 0 0 m (0.015) show NC gr 
 gsave  408 306 476 13 C 487.16 264.947 t 0 r /Helvetica findfont 22.8295 sf 0 0 m (0.02) show NC gr  844 59 m 229 Y s 838 81 m 6 X s 841 86 m 3 X s 841 90 m 3 X s 841 95 m 3 X s 841 100 m 3 X s 838 105 m 6 X s 841 109 m 3 X s 841 114 m 3 X s 841 119
 m 3 X s 841 124 m 3 X s 838 129 m 6 X s 841 133 m 3 X s 841 138 m 3 X s 841 143 m 3 X s 841 148 m 3 X s 838 152 m 6 X s 841 157 m 3 X s 841 162 m 3 X s 841 167 m 3 X s 841 172 m 3 X s 838 176 m 6 X s 841 181 m 3 X s 841 186 m 3 X s 841 191 m 3 X s
 841 195 m 3 X s 838 200 m 6 X s 841 205 m 3 X s 841 210 m 3 X s 841 215 m 3 X s 841 219 m 3 X s 838 224 m 6 X s 841 229 m 3 X s 841 234 m 3 X s 841 238 m 3 X s 841 243 m 3 X s 838 248 m 6 X s 841 253 m 3 X s 841 258 m 3 X s 841 262 m 3 X s 841 267 m
 3 X s 838 272 m 6 X s 838 81 m 6 X s 841 76 m 3 X s 841 71 m 3 X s 841 66 m 3 X s 841 62 m 3 X s 838 272 m 6 X s 841 277 m 3 X s 841 281 m 3 X s 841 286 m 3 X s /w 23 def /w2 {w 2 div} def /w3 {w 3 div} def 683 129 828 217 2 { m21} R 683 140 m 40 Y
 s 677 180 m 11 X s 683 118 m -40 Y s 677 78 m 11 X s 828 229 m 40 Y s 822 269 m 11 X s 828 206 m -40 Y s 822 166 m 11 X s 1 0 0 c 9 lw 0.95 0.95 0.95 c black 1 0 0 c 539 176 m 18 X 3 1 d 34 X 3 1 d 22 X 3 1 d 12 X 3 1 d 12 X 3 1 d 9 X 3 1 d 10 X 3 1
 d 9 X 3 1 d s 689 184 m 6 X 3 1 d 6 X 3 1 d 6 X 4 1 d 6 X 3 1 d 3 X 3 1 d 6 X 3 1 d 3 X 3 1 d 6 X 3 1 d 3 X 3 1 d 4 X 3 1 d 6 X 3 1 d 3 X 3 1 d 3 X 3 1 d 3 X 3 1 d 3 X 3 1 d 3 X 3 1 d 3 1 d 4 X 3 1 d 3 X 3 1 d 3 X 3 1 d 3 X 3 1 d 3 1 d s 839 206 m 3
 X s 0.49 0.6 0.82 c black 0.49 0.6 0.82 c
 gsave  408 306 476 13 C 595.418 296.285 t 0 r /Helvetica-Bold findfont 25.6831 sf 0 0 m (8.0 < E < 8.5 GeV) show NC gr  0.52 0.76 0.64 c black 0.52 0.76 0.64 c
 gsave  408 306 476 13 C 581.174 259.249 t 0 r /Helvetica-Bold findfont 25.6831 sf 0 0 m 
 220 206 192 185 170 163 148 141 125 118 111 97 83 68 61 47 40 25 18
(A = 0.000, p = 2.000) K NC gr  1 0.6 1 c black 1 0.6 1 c
 gsave  408 306 476 13 C 883.156 128.2 t 90 r /Helvetica-Bold findfont 28.5368 sf 0 0 m (/dof=1.2) show NC gr  black 1 0.6 1 c
 gsave  408 306 476 13 C 871.76 116.804 t 90 r /Helvetica-Bold findfont 19.9758 sf 0 0 m (2) show NC gr  black 1 0.6 1 c
 gsave  408 306 476 13 C 883.156 99.7112 t 90 r /Symbol findfont 28.5368 sf 0 0 m (c) show NC gr  black 3 lw 1 1 1 c 408 306 930 13 bf black 1 1 1 c black 306 229 991 59 bl 306 229 991 59 bl 991 59 m 306 X s 991 63 m -4 Y s 1105 63 m -4 Y s 1219 63 m
 -4 Y s 1219 63 m -4 Y s
 gsave  408 306 930 13 C 980.018 39.8845 t 0 r /Helvetica findfont 22.8295 sf 0 0 m (0) show NC gr 
 gsave  408 306 930 13 C 1082.58 39.8845 t 0 r /Helvetica findfont 22.8295 sf 0 0 m (200) show NC gr 
 gsave  408 306 930 13 C 1196.53 39.8845 t 0 r /Helvetica findfont 22.8295 sf 0 0 m (400) show NC gr  991 288 m 306 X s 991 284 m 4 Y s 1105 284 m 4 Y s 1219 284 m 4 Y s 1219 284 m 4 Y s 991 59 m 229 Y s 997 60 m -6 X s 994 68 m -3 X s 994 76 m -3 X
 s 994 84 m -3 X s 994 92 m -3 X s 997 99 m -6 X s 994 107 m -3 X s 994 115 m -3 X s 994 123 m -3 X s 994 131 m -3 X s 997 139 m -6 X s 994 146 m -3 X s 994 154 m -3 X s 994 162 m -3 X s 994 170 m -3 X s 997 178 m -6 X s 994 186 m -3 X s 994 194 m -3
 X s 994 201 m -3 X s 994 209 m -3 X s 997 217 m -6 X s 994 225 m -3 X s 994 233 m -3 X s 994 241 m -3 X s 994 248 m -3 X s 997 256 m -6 X s 997 60 m -6 X s 997 256 m -6 X s 994 264 m -3 X s 994 272 m -3 X s 994 280 m -3 X s 994 288 m -3 X s
 gsave  408 306 930 13 C 923.04 54.1289 t 0 r /Helvetica findfont 22.8295 sf 0 0 m (\2550.035) show NC gr 
 gsave  408 306 930 13 C 937.285 91.1645 t 0 r /Helvetica findfont 22.8295 sf 0 0 m (\2550.03) show NC gr 
 gsave  408 306 930 13 C 923.04 131.049 t 0 r /Helvetica findfont 22.8295 sf 0 0 m (\2550.025) show NC gr 
 gsave  408 306 930 13 C 937.285 170.933 t 0 r /Helvetica findfont 22.8295 sf 0 0 m (\2550.02) show NC gr 
 gsave  408 306 930 13 C 923.04 210.818 t 0 r /Helvetica findfont 22.8295 sf 0 0 m (\2550.015) show NC gr 
 gsave  408 306 930 13 C 940.134 247.853 t 0 r /Helvetica findfont 22.8295 sf 0 0 m (\2550.01) show NC gr  1297 59 m 229 Y s 1292 60 m 5 X s 1294 68 m 3 X s 1294 76 m 3 X s 1294 84 m 3 X s 1294 92 m 3 X s 1292 99 m 5 X s 1294 107 m 3 X s 1294 115 m 3
 X s 1294 123 m 3 X s 1294 131 m 3 X s 1292 139 m 5 X s 1294 146 m 3 X s 1294 154 m 3 X s 1294 162 m 3 X s 1294 170 m 3 X s 1292 178 m 5 X s 1294 186 m 3 X s 1294 194 m 3 X s 1294 201 m 3 X s 1294 209 m 3 X s 1292 217 m 5 X s 1294 225 m 3 X s 1294
 233 m 3 X s 1294 241 m 3 X s 1294 248 m 3 X s 1292 256 m 5 X s 1292 60 m 5 X s 1292 256 m 5 X s 1294 264 m 3 X s 1294 272 m 3 X s 1294 280 m 3 X s 1294 288 m 3 X s 1136 166 1281 181 2 { m21} R 1136 177 m 77 Y s 1130 254 m 12 X s 1136 155 m -77 Y s
 1130 78 m 12 X s 1281 193 m 76 Y s 1275 269 m 12 X s 1281 170 m -77 Y s 1275 93 m 12 X s 9 lw 0.95 0.95 0.95 c black 1060 288 m 3 -1 d 3 -2 d 3 -2 d 3 -2 d 3 -2 d 3 -2 d 3 -2 d 3 -2 d 3 -2 d 3 -2 d 4 -2 d 3 -2 d 3 -2 d 3 -2 d 3 -2 d 3 -2 d 3 -2 d 3
 -2 d 3 -2 d 3 -2 d 3 -2 d 3 -2 d 3 -2 d 3 -2 d 3 -2 d 3 -2 d 4 -2 d 3 -2 d 3 -2 d 3 -2 d 3 -2 d 3 -2 d 3 -2 d 3 -2 d 3 -2 d 3 -2 d 3 -2 d 3 -2 d 3 -2 d 3 -2 d 3 -2 d 3 -2 d 4 -2 d 3 -2 d 3 -2 d 3 -2 d 3 -2 d 3 -2 d 3 -2 d s 1210 191 m 3 -2 d 3 -2 d
 3 -2 d 3 -2 d 3 -2 d 3 -2 d 3 -2 d 3 -2 d 3 -2 d 3 -2 d 4 -2 d 3 -2 d 3 -2 d 3 -2 d 3 -2 d 3 -2 d 3 -2 d 3 -2 d 3 -2 d 3 -2 d 3 -2 d 3 -2 d 3 -2 d 3 -2 d 3 -2 d 3 -2 d 4 -2 d 3 -2 d s 0.49 0.6 0.82 c black 0.49 0.6 0.82 c
 gsave  408 306 930 13 C 1051.24 296.285 t 0 r /Helvetica-Bold findfont 25.6831 sf 0 0 m (8.5 < E < 9.0 GeV) show NC gr  0.52 0.76 0.64 c black 0.52 0.76 0.64 c
 gsave  408 306 930 13 C 1031.3 259.249 t 0 r /Helvetica-Bold findfont 25.6831 sf 0 0 m 
 228 214 200 193 178 171 156 149 133 126 119 105 91 77 69 55 47 39 25 17
(A = \2550.000, p = 1.000) K NC gr  1 0.6 1 c black 1 0.6 1 c
 gsave  408 306 930 13 C 1336.13 128.2 t 90 r /Helvetica-Bold findfont 28.5368 sf 0 0 m (/dof=0.9) show NC gr  black 1 0.6 1 c
 gsave  408 306 930 13 C 1324.73 116.804 t 90 r /Helvetica-Bold findfont 19.9758 sf 0 0 m (2) show NC gr  black 1 0.6 1 c
 gsave  408 306 930 13 C 1336.13 99.7112 t 90 r /Symbol findfont 28.5368 sf 0 0 m (c) show NC gr  black 3 lw 1 1 1 c 408 306 1383 13 bf black 1 1 1 c black 306 229 1445 59 bl 306 229 1445 59 bl 1445 59 m 306 X s 1445 63 m -4 Y s 1558 63 m -4 Y s 1672
 63 m -4 Y s 1672 63 m -4 Y s
 gsave  408 306 1383 13 C 1435.84 39.8845 t 0 r /Helvetica findfont 22.8295 sf 0 0 m (0) show NC gr 
 gsave  408 306 1383 13 C 1535.55 39.8845 t 0 r /Helvetica findfont 22.8295 sf 0 0 m (200) show NC gr 
 gsave  408 306 1383 13 C 1649.51 39.8845 t 0 r /Helvetica findfont 22.8295 sf 0 0 m (400) show NC gr  1445 288 m 306 X s 1445 284 m 4 Y s 1558 284 m 4 Y s 1672 284 m 4 Y s 1672 284 m 4 Y s 1445 59 m 229 Y s 1450 67 m -5 X s 1447 74 m -2 X s 1447 81
 m -2 X s 1447 88 m -2 X s 1447 95 m -2 X s 1450 102 m -5 X s 1447 109 m -2 X s 1447 116 m -2 X s 1447 123 m -2 X s 1447 130 m -2 X s 1450 137 m -5 X s 1447 144 m -2 X s 1447 151 m -2 X s 1447 158 m -2 X s 1447 165 m -2 X s 1450 172 m -5 X s 1447 179
 m -2 X s 1447 186 m -2 X s 1447 193 m -2 X s 1447 200 m -2 X s 1450 208 m -5 X s 1447 215 m -2 X s 1447 222 m -2 X s 1447 229 m -2 X s 1447 236 m -2 X s 1450 243 m -5 X s 1447 250 m -2 X s 1447 257 m -2 X s 1447 264 m -2 X s 1447 271 m -2 X s 1450
 278 m -5 X s 1450 67 m -5 X s 1447 60 m -2 X s 1450 278 m -5 X s 1447 285 m -2 X s
 gsave  408 306 1383 13 C 1376.01 59.8267 t 0 r /Helvetica findfont 22.8295 sf 0 0 m (\2550.005) show NC gr 
 gsave  408 306 1383 13 C 1427.29 94.0134 t 0 r /Helvetica findfont 22.8295 sf 0 0 m (0) show NC gr 
 gsave  408 306 1383 13 C 1384.56 131.049 t 0 r /Helvetica findfont 22.8295 sf 0 0 m (0.005) show NC gr 
 gsave  408 306 1383 13 C 1398.81 165.236 t 0 r /Helvetica findfont 22.8295 sf 0 0 m (0.01) show NC gr 
 gsave  408 306 1383 13 C 1384.56 199.422 t 0 r /Helvetica findfont 22.8295 sf 0 0 m (0.015) show NC gr 
 gsave  408 306 1383 13 C 1395.96 236.458 t 0 r /Helvetica findfont 22.8295 sf 0 0 m (0.02) show NC gr 
 gsave  408 306 1383 13 C 1384.56 270.645 t 0 r /Helvetica findfont 22.8295 sf 0 0 m (0.025) show NC gr  1751 59 m 229 Y s 1745 67 m 6 X s 1748 74 m 3 X s 1748 81 m 3 X s 1748 88 m 3 X s 1748 95 m 3 X s 1745 102 m 6 X s 1748 109 m 3 X s 1748 116 m 3
 X s 1748 123 m 3 X s 1748 130 m 3 X s 1745 137 m 6 X s 1748 144 m 3 X s 1748 151 m 3 X s 1748 158 m 3 X s 1748 165 m 3 X s 1745 172 m 6 X s 1748 179 m 3 X s 1748 186 m 3 X s 1748 193 m 3 X s 1748 200 m 3 X s 1745 208 m 6 X s 1748 215 m 3 X s 1748
 222 m 3 X s 1748 229 m 3 X s 1748 236 m 3 X s 1745 243 m 6 X s 1748 250 m 3 X s 1748 257 m 3 X s 1748 264 m 3 X s 1748 271 m 3 X s 1745 278 m 6 X s 1745 67 m 6 X s 1748 60 m 3 X s 1745 278 m 6 X s 1748 285 m 3 X s 1590 184 1735 164 2 { m21} R 1590
 195 m 74 Y s 1584 269 m 11 X s 1590 172 m -74 Y s 1584 98 m 11 X s 1735 175 m 74 Y s 1729 249 m 11 X s 1735 152 m -74 Y s 1729 78 m 11 X s 9 lw 0.95 0.95 0.95 c black 1446 103 m 3 1 d 3 X 3 1 d 3 1 d 3 1 d 3 1 d 3 1 d 4 1 d 3 X 3 1 d 3 1 d 3 1 d 3 1
 d 3 1 d 3 1 d 3 1 d 3 X 3 1 d 3 1 d 3 1 d 3 1 d 3 1 d 3 1 d 4 X 3 1 d 3 1 d 3 1 d 3 1 d 3 1 d 3 1 d 3 X 3 1 d 3 1 d 3 1 d 3 1 d 3 1 d 3 1 d 3 X 3 1 d 4 1 d 3 1 d 3 1 d 3 1 d 3 1 d 3 X 3 1 d 3 1 d 3 1 d 3 1 d s 1596 145 m 3 1 d 3 1 d 3 1 d 3 X 3 1 d
 3 1 d 4 1 d 3 1 d 3 1 d 3 1 d 3 X 3 1 d 3 1 d 3 1 d 3 1 d 3 1 d 3 1 d 3 X 3 1 d 3 1 d 3 1 d 3 1 d 3 1 d 4 1 d 3 X 3 1 d 3 1 d 3 1 d 3 1 d 3 1 d 3 1 d 3 1 d 3 X 3 1 d 3 1 d 3 1 d 3 1 d 3 1 d 3 1 d 4 X 3 1 d 3 1 d 3 1 d 3 1 d 3 1 d 3 1 d 3 X 3 1 d 3 1
 d s 1746 187 m 3 1 d s 0.49 0.6 0.82 c black 0.49 0.6 0.82 c
 gsave  408 306 1383 13 C 1504.21 296.285 t 0 r /Helvetica-Bold findfont 25.6831 sf 0 0 m (9.0 < E < 9.5 GeV) show NC gr  0.52 0.76 0.64 c black 0.52 0.76 0.64 c
 gsave  408 306 1383 13 C 1489.97 259.249 t 0 r /Helvetica-Bold findfont 25.6831 sf 0 0 m 
 220 206 192 185 170 163 148 141 126 118 111 97 83 69 61 47 40 25 18
(A = 0.000, p = 1.000) K NC gr  1 0.6 1 c black 1 0.6 1 c
 gsave  408 306 1383 13 C 1789.1 128.2 t 90 r /Helvetica-Bold findfont 28.5368 sf 0 0 m (/dof=0.3) show NC gr  black 1 0.6 1 c
 gsave  408 306 1383 13 C 1777.71 116.804 t 90 r /Helvetica-Bold findfont 19.9758 sf 0 0 m (2) show NC gr  black 1 0.6 1 c
 gsave  408 306 1383 13 C 1789.1 99.7112 t 90 r /Symbol findfont 28.5368 sf 0 0 m (c) show NC gr  black 3 lw 1 1 1 c 408 306 1837 13 bf black 1 1 1 c black 306 229 1898 59 bl 306 229 1898 59 bl 1898 59 m 306 X s 1898 63 m -4 Y s 2012 63 m -4 Y s 2126
 63 m -4 Y s 2126 63 m -4 Y s
 gsave  408 306 1837 13 C 1888.81 39.8845 t 0 r /Helvetica findfont 22.8295 sf 0 0 m (0) show NC gr 
 gsave  408 306 1837 13 C 1991.37 39.8845 t 0 r /Helvetica findfont 22.8295 sf 0 0 m (200) show NC gr 
 gsave  408 306 1837 13 C 2105.33 39.8845 t 0 r /Helvetica findfont 22.8295 sf 0 0 m (400) show NC gr  1898 288 m 306 X s 1898 284 m 4 Y s 2012 284 m 4 Y s 2126 284 m 4 Y s 2126 284 m 4 Y s 1898 59 m 229 Y s 1904 70 m -6 X s 1901 77 m -3 X s 1901 85
 m -3 X s 1901 92 m -3 X s 1901 99 m -3 X s 1904 106 m -6 X s 1901 113 m -3 X s 1901 121 m -3 X s 1901 128 m -3 X s 1901 135 m -3 X s 1904 142 m -6 X s 1901 150 m -3 X s 1901 157 m -3 X s 1901 164 m -3 X s 1901 171 m -3 X s 1904 179 m -6 X s 1901 186
 m -3 X s 1901 193 m -3 X s 1901 200 m -3 X s 1901 207 m -3 X s 1904 215 m -6 X s 1901 222 m -3 X s 1901 229 m -3 X s 1901 236 m -3 X s 1901 244 m -3 X s 1904 251 m -6 X s 1901 258 m -3 X s 1901 265 m -3 X s 1901 272 m -3 X s 1901 280 m -3 X s 1904
 287 m -6 X s 1904 70 m -6 X s 1901 63 m -3 X s 1904 287 m -6 X s
 gsave  408 306 1837 13 C 1846.08 62.6756 t 0 r /Helvetica findfont 22.8295 sf 0 0 m (\2550.01) show NC gr 
 gsave  408 306 1837 13 C 1828.99 99.7112 t 0 r /Helvetica findfont 22.8295 sf 0 0 m (\2550.005) show NC gr 
 gsave  408 306 1837 13 C 1880.27 133.898 t 0 r /Helvetica findfont 22.8295 sf 0 0 m (0) show NC gr 
 gsave  408 306 1837 13 C 1837.53 170.933 t 0 r /Helvetica findfont 22.8295 sf 0 0 m (0.005) show NC gr 
 gsave  408 306 1837 13 C 1851.78 207.969 t 0 r /Helvetica findfont 22.8295 sf 0 0 m (0.01) show NC gr 
 gsave  408 306 1837 13 C 1837.53 245.005 t 0 r /Helvetica findfont 22.8295 sf 0 0 m (0.015) show NC gr 
 gsave  408 306 1837 13 C 1848.93 279.191 t 0 r /Helvetica findfont 22.8295 sf 0 0 m (0.02) show NC gr  2204 59 m 229 Y s 2199 70 m 5 X s 2201 77 m 3 X s 2201 85 m 3 X s 2201 92 m 3 X s 2201 99 m 3 X s 2199 106 m 5 X s 2201 113 m 3 X s 2201 121 m 3 X
 s 2201 128 m 3 X s 2201 135 m 3 X s 2199 142 m 5 X s 2201 150 m 3 X s 2201 157 m 3 X s 2201 164 m 3 X s 2201 171 m 3 X s 2199 179 m 5 X s 2201 186 m 3 X s 2201 193 m 3 X s 2201 200 m 3 X s 2201 207 m 3 X s 2199 215 m 5 X s 2201 222 m 3 X s 2201 229
 m 3 X s 2201 236 m 3 X s 2201 244 m 3 X s 2199 251 m 5 X s 2201 258 m 3 X s 2201 265 m 3 X s 2201 272 m 3 X s 2201 280 m 3 X s 2199 287 m 5 X s 2199 70 m 5 X s 2201 63 m 3 X s 2199 287 m 5 X s 2043 170 2188 177 2 { m21} R 2043 182 m 80 Y s 2037 262
 m 12 X s 2043 159 m -81 Y s 2037 78 m 12 X s 2188 188 m 81 Y s 2183 269 m 11 X s 2188 165 m -80 Y s 2183 85 m 11 X s 9 lw 0.95 0.95 0.95 c black 1900 143 m 6 X 3 1 d 3 X 3 1 d 6 X 3 1 d 3 X 3 1 d 3 X 3 1 d 6 X 4 1 d 3 X 3 1 d 6 X 3 1 d 3 X 3 1 d 6 X
 3 1 d 3 X 3 1 d 6 X 3 1 d 4 X 3 1 d 6 X 3 1 d 3 X 3 1 d 3 X 3 1 d 6 X 3 1 d 3 X 3 1 d 6 X 3 1 d 4 X 3 1 d s 2050 163 m 6 X 3 1 d 3 X 3 1 d 6 X 3 1 d 3 X 3 1 d 3 X 3 1 d 6 X 4 1 d 3 X 3 1 d 6 X 3 1 d 3 X 3 1 d 6 X 3 1 d 3 X 3 1 d 6 X 3 1 d 4 X 3 1 d
 6 X 3 1 d 3 X 3 1 d 3 X 3 1 d 6 X 3 1 d 3 X 3 1 d 6 X 4 1 d 3 X 3 1 d s 2200 183 m 3 X s 0.49 0.6 0.82 c black 0.49 0.6 0.82 c
 gsave  408 306 1837 13 C 1948.64 296.285 t 0 r /Helvetica-Bold findfont 25.6831 sf 0 0 m (9.5 < E < 10.0 GeV) show NC gr  0.52 0.76 0.64 c black 0.52 0.76 0.64 c
 gsave  408 306 1837 13 C 1942.94 259.249 t 0 r /Helvetica-Bold findfont 25.6831 sf 0 0 m 
 220 206 192 185 170 163 148 141 125 118 111 97 83 69 61 47 40 25 18
(A = 0.000, p = 1.000) K NC gr  1 0.6 1 c black 1 0.6 1 c
 gsave  408 306 1837 13 C 2242.08 128.2 t 90 r /Helvetica-Bold findfont 28.5368 sf 0 0 m (/dof=0.0) show NC gr  black 1 0.6 1 c
 gsave  408 306 1837 13 C 2230.68 116.804 t 90 r /Helvetica-Bold findfont 19.9758 sf 0 0 m (2) show NC gr  black 1 0.6 1 c
 gsave  408 306 1837 13 C 2242.08 99.7112 t 90 r /Symbol findfont 28.5368 sf 0 0 m (c) show NC gr 
 gr  gr showpage
end
%%EOF
