%!PS-Adobe-2.0 EPSF-2.0
%%BoundingBox:  0 0 567 332
%%Title: LBNENDY_nof_summary.eps: Summary
%%Creator: ROOT Version 5.30/06
%%CreationDate: Sun Feb  2 09:28:17 2014
%%EndComments
%%BeginProlog
80 dict begin
/s {stroke} def /l {lineto} def /m {moveto} def /t {translate} def
/r {rotate} def /rl {roll}  def /R {repeat} def
/d {rlineto} def /rm {rmoveto} def /gr {grestore} def /f {eofill} def
/c {setrgbcolor} def /black {0 setgray} def /sd {setdash} def
/cl {closepath} def /sf {scalefont setfont} def /lw {setlinewidth} def
/box {m dup 0 exch d exch 0 d 0 exch neg d cl} def
/NC{systemdict begin initclip end}def/C{NC box clip newpath}def
/bl {box s} def /bf {box f} def /Y { 0 exch d} def /X { 0 d} def 
/K {{pop pop 0 moveto} exch kshow} bind def
/ita {/ang 15 def gsave [1 0 ang dup sin exch cos div 1 0 0] concat} def 
/mp {newpath /y exch def /x exch def} def
/side {[w .77 mul w .23 mul] .385 w mul sd w 0 l currentpoint t -144 r} def
/mr {mp x y w2 0 360 arc} def /m24 {mr s} def /m20 {mr f} def
/mb {mp x y w2 add m w2 neg 0 d 0 w neg d w 0 d 0 w d cl} def
/mt {mp x y w2 add m w2 neg w neg d w 0 d cl} def
/m21 {mb f} def /m25 {mb s} def /m22 {mt f} def /m26{mt s} def
/m23 {mp x y w2 sub m w2 w d w neg 0 d cl f} def
/m27 {mp x y w2 add m w3 neg w2 neg d w3 w2 neg d w3 w2 d cl s} def
/m28 {mp x w2 sub y w2 sub w3 add m w3 0 d  0 w3 neg d w3 0 d 0 w3 d w3 0 d  0 w3 d w3 neg 0 d 0 w3 d w3 neg 0 d 0 w3 neg d w3 neg 0 d cl s } def
/m29 {mp gsave x w2 sub y w2 add w3 sub m currentpoint t 4 {side} repeat cl fill gr} def
/m30 {mp gsave x w2 sub y w2 add w3 sub m currentpoint t 4 {side} repeat cl s gr} def
/m31 {mp x y w2 sub m 0 w d x w2 sub y m w 0 d x w2 sub y w2 add m w w neg d x w2 sub y w2 sub m w w d s} def
/m32 {mp x y w2 sub m w2 w d w neg 0 d cl s} def
/m33 {mp x y w2 add m w3 neg w2 neg d w3 w2 neg d w3 w2 d cl f} def
/m34 {mp x w2 sub y w2 sub w3 add m w3 0 d  0 w3 neg d w3 0 d 0 w3 d w3 0 d  0 w3 d w3 neg 0 d 0 w3 d w3 neg 0 d 0 w3 neg d w3 neg 0 d cl f } def
/m2 {mp x y w2 sub m 0 w d x w2 sub y m w 0 d s} def
/m5 {mp x w2 sub y w2 sub m w w d x w2 sub y w2 add m w w neg d s} def
/reEncode {exch findfont dup length dict begin {1 index /FID eq  {pop pop} {def} ifelse } forall /Encoding exch def currentdict end dup /FontName get exch definefont pop } def [/Times-Bold /Times-Italic /Times-BoldItalic /Helvetica /Helvetica-Oblique
 /Helvetica-Bold /Helvetica-BoldOblique /Courier /Courier-Oblique /Courier-Bold /Courier-BoldOblique /Times-Roman /AvantGarde-Book /AvantGarde-BookOblique /AvantGarde-Demi /AvantGarde-DemiOblique /Bookman-Demi /Bookman-DemiItalic /Bookman-Light
 /Bookman-LightItalic /Helvetica-Narrow /Helvetica-Narrow-Bold /Helvetica-Narrow-BoldOblique /Helvetica-Narrow-Oblique /NewCenturySchlbk-Roman /NewCenturySchlbk-Bold /NewCenturySchlbk-BoldItalic /NewCenturySchlbk-Italic /Palatino-Bold
 /Palatino-BoldItalic /Palatino-Italic /Palatino-Roman ] {ISOLatin1Encoding reEncode } forall%%EndProlog
%%BeginSetup
%%EndSetup
newpath  gsave  .25 .25 scale  gsave  0 0 t black[  ] 0 sd 3 lw 1 1 1 c 2268 1328 0 0 bf black 1 1 1 c black 1588 996 340 199 bl 1588 996 340 199 bl 1 1 1 c 1 0 0 c /w 23 def /w2 {w 2 div} def /w3 {w 3 div} def 380 391 m21 459 398 m21 539 402 m21 618
 391 m21 697 396 m21 777 392 m21 856 382 m21 935 380 m21 1015 374 m21 black 1094 396 m 4 Y s 1094 423 m 4 Y s 1088 396 m 12 X s 1088 427 m 12 X s 1 0 0 c 1094 411 m21 black 1174 376 m 9 Y s 1174 408 m 9 Y s 1168 376 m 11 X s 1168 417 m 11 X s 1 0 0 c
 1174 397 m21 black 1253 408 m 14 Y s 1253 445 m 14 Y s 1247 408 m 12 X s 1247 459 m 12 X s 1 0 0 c 1253 433 m21 black 1332 424 m 19 Y s 1332 466 m 19 Y s 1327 424 m 11 X s 1327 485 m 11 X s 1 0 0 c 1332 455 m21 black 1412 392 m 23 Y s 1412 438 m 23
 Y s 1406 392 m 11 X s 1406 461 m 11 X s 1 0 0 c 1412 427 m21 black 1491 392 m 27 Y s 1491 442 m 27 Y s 1485 392 m 12 X s 1485 469 m 12 X s 1 0 0 c 1491 430 m21 black 1570 415 m 30 Y s 1570 468 m 30 Y s 1565 415 m 11 X s 1565 498 m 11 X s 1 0 0 c
 1570 456 m21 black 1650 335 m 33 Y s 1650 390 m 33 Y s 1644 335 m 11 X s 1644 423 m 11 X s 1 0 0 c 1650 379 m21 black 1729 261 m 36 Y s 1729 319 m 35 Y s 1723 261 m 12 X s 1723 354 m 12 X s 1 0 0 c 1729 308 m21 black 1809 409 m 40 Y s 1809 472 m 40
 Y s 1803 409 m 11 X s 1803 512 m 11 X s 1 0 0 c 1809 460 m21 black 1888 355 m 43 Y s 1888 420 m 42 Y s 1882 355 m 12 X s 1882 462 m 12 X s 1 0 0 c 1888 409 m21 black 340 199 m 1588 X s
 gsave  2268 1328 0 0 C 954.378 68.3734 t 0 r /Helvetica findfont 62.6756 sf 0 0 m ( Energy \(GeV\) ) show NC gr 
 gsave  2268 1328 0 0 C 928.738 51.28 t 0 r /Symbol findfont 42.7334 sf 0 0 m (m) show NC gr 
 gsave  2268 1328 0 0 C 894.552 68.3734 t 0 r /Symbol findfont 62.6756 sf 0 0 m (n) show NC gr  340 216 m -17 Y s 372 208 m -9 Y s 404 208 m -9 Y s 435 208 m -9 Y s 467 208 m -9 Y s 499 216 m -17 Y s 531 208 m -9 Y s 562 208 m -9 Y s 594 208 m -9 Y s
 626 208 m -9 Y s 658 216 m -17 Y s 689 208 m -9 Y s 721 208 m -9 Y s 753 208 m -9 Y s 785 208 m -9 Y s 816 216 m -17 Y s 848 208 m -9 Y s 880 208 m -9 Y s 912 208 m -9 Y s 943 208 m -9 Y s 975 216 m -17 Y s 1007 208 m -9 Y s 1039 208 m -9 Y s 1070
 208 m -9 Y s 1102 208 m -9 Y s 1134 216 m -17 Y s 1166 208 m -9 Y s 1197 208 m -9 Y s 1229 208 m -9 Y s 1261 208 m -9 Y s 1293 216 m -17 Y s 1324 208 m -9 Y s 1356 208 m -9 Y s 1388 208 m -9 Y s 1420 208 m -9 Y s 1451 216 m -17 Y s 1483 208 m -9 Y s
 1515 208 m -9 Y s 1547 208 m -9 Y s 1578 208 m -9 Y s 1610 216 m -17 Y s 1642 208 m -9 Y s 1674 208 m -9 Y s 1705 208 m -9 Y s 1737 208 m -9 Y s 1769 216 m -17 Y s 1801 208 m -9 Y s 1832 208 m -9 Y s 1864 208 m -9 Y s 1896 208 m -9 Y s 1928 216 m
 -17 Y s
 gsave  2268 1328 0 0 C 319.076 136.747 t 0 r /Helvetica findfont 68.3734 sf 0 0 m (0) show NC gr 
 gsave  2268 1328 0 0 C 484.311 136.747 t 0 r /Helvetica findfont 68.3734 sf 0 0 m (1) show NC gr 
 gsave  2268 1328 0 0 C 635.302 136.747 t 0 r /Helvetica findfont 68.3734 sf 0 0 m (2) show NC gr 
 gsave  2268 1328 0 0 C 794.84 136.747 t 0 r /Helvetica findfont 68.3734 sf 0 0 m (3) show NC gr 
 gsave  2268 1328 0 0 C 954.378 136.747 t 0 r /Helvetica findfont 68.3734 sf 0 0 m (4) show NC gr 
 gsave  2268 1328 0 0 C 1113.92 136.747 t 0 r /Helvetica findfont 68.3734 sf 0 0 m (5) show NC gr 
 gsave  2268 1328 0 0 C 1270.6 136.747 t 0 r /Helvetica findfont 68.3734 sf 0 0 m (6) show NC gr 
 gsave  2268 1328 0 0 C 1430.14 136.747 t 0 r /Helvetica findfont 68.3734 sf 0 0 m (7) show NC gr 
 gsave  2268 1328 0 0 C 1589.68 136.747 t 0 r /Helvetica findfont 68.3734 sf 0 0 m (8) show NC gr 
 gsave  2268 1328 0 0 C 1746.37 136.747 t 0 r /Helvetica findfont 68.3734 sf 0 0 m (9) show NC gr 
 gsave  2268 1328 0 0 C 1888.81 136.747 t 0 r /Helvetica findfont 68.3734 sf 0 0 m (10) show NC gr  340 1195 m 1588 X s 340 1178 m 17 Y s 372 1186 m 9 Y s 404 1186 m 9 Y s 435 1186 m 9 Y s 467 1186 m 9 Y s 499 1178 m 17 Y s 531 1186 m 9 Y s 562 1186
 m 9 Y s 594 1186 m 9 Y s 626 1186 m 9 Y s 658 1178 m 17 Y s 689 1186 m 9 Y s 721 1186 m 9 Y s 753 1186 m 9 Y s 785 1186 m 9 Y s 816 1178 m 17 Y s 848 1186 m 9 Y s 880 1186 m 9 Y s 912 1186 m 9 Y s 943 1186 m 9 Y s 975 1178 m 17 Y s 1007 1186 m 9 Y s
 1039 1186 m 9 Y s 1070 1186 m 9 Y s 1102 1186 m 9 Y s 1134 1178 m 17 Y s 1166 1186 m 9 Y s 1197 1186 m 9 Y s 1229 1186 m 9 Y s 1261 1186 m 9 Y s 1293 1178 m 17 Y s 1324 1186 m 9 Y s 1356 1186 m 9 Y s 1388 1186 m 9 Y s 1420 1186 m 9 Y s 1451 1178 m
 17 Y s 1483 1186 m 9 Y s 1515 1186 m 9 Y s 1547 1186 m 9 Y s 1578 1186 m 9 Y s 1610 1178 m 17 Y s 1642 1186 m 9 Y s 1674 1186 m 9 Y s 1705 1186 m 9 Y s 1737 1186 m 9 Y s 1769 1178 m 17 Y s 1801 1186 m 9 Y s 1832 1186 m 9 Y s 1864 1186 m 9 Y s 1896
 1186 m 9 Y s 1928 1178 m 17 Y s 340 199 m 996 Y s
 gsave  2268 1328 0 0 C 170.933 336.169 t 90 r /Helvetica findfont 62.6756 sf 0 0 m (Near/Far Ratio to Nominal) show NC gr  371 199 m -31 X s 355 239 m -15 X s 355 279 m -15 X s 355 319 m -15 X s 355 358 m -15 X s 371 398 m -31 X s 355 438 m -15 X s
 355 478 m -15 X s 355 518 m -15 X s 355 558 m -15 X s 371 597 m -31 X s 355 637 m -15 X s 355 677 m -15 X s 355 717 m -15 X s 355 757 m -15 X s 371 797 m -31 X s 355 836 m -15 X s 355 876 m -15 X s 355 916 m -15 X s 355 956 m -15 X s 371 996 m -31 X
 s 355 1036 m -15 X s 355 1075 m -15 X s 355 1115 m -15 X s 355 1155 m -15 X s 371 1195 m -31 X s 371 199 m -31 X s
 gsave  2268 1328 0 0 C 196.573 173.782 t 0 r /Helvetica findfont 68.3734 sf 0 0 m (0.95) show NC gr 
 gsave  2268 1328 0 0 C 301.982 370.356 t 0 r /Helvetica findfont 68.3734 sf 0 0 m (1) show NC gr 
 gsave  2268 1328 0 0 C 196.573 572.627 t 0 r /Helvetica findfont 68.3734 sf 0 0 m (1.05) show NC gr 
 gsave  2268 1328 0 0 C 245.005 769.2 t 0 r /Helvetica findfont 68.3734 sf 0 0 m (1.1) show NC gr 
 gsave  2268 1328 0 0 C 196.573 971.472 t 0 r /Helvetica findfont 68.3734 sf 0 0 m (1.15) show NC gr 
 gsave  2268 1328 0 0 C 233.609 1168.04 t 0 r /Helvetica findfont 68.3734 sf 0 0 m (1.2) show NC gr  1928 199 m 996 Y s 1897 199 m 31 X s 1912 239 m 16 X s 1912 279 m 16 X s 1912 319 m 16 X s 1912 358 m 16 X s 1897 398 m 31 X s 1912 438 m 16 X s 1912
 478 m 16 X s 1912 518 m 16 X s 1912 558 m 16 X s 1897 597 m 31 X s 1912 637 m 16 X s 1912 677 m 16 X s 1912 717 m 16 X s 1912 757 m 16 X s 1897 797 m 31 X s 1912 836 m 16 X s 1912 876 m 16 X s 1912 916 m 16 X s 1912 956 m 16 X s 1897 996 m 31 X s
 1912 1036 m 16 X s 1912 1075 m 16 X s 1912 1115 m 16 X s 1912 1155 m 16 X s 1897 1195 m 31 X s 1897 199 m 31 X s 1 0 0 c 6 lw 1 1 1 c 1 0 0 c 380 394 m 27 2 d 24 2 d 28 1 d 13 1 d 26 2 d 13 1 d 28 X 5 -1 d 7 X 7 -1 d 9 -2 d 28 -5 d 7 -1 d 6 -1 d 6
 -1 d 16 X 8 1 d 9 X 16 2 d 14 1 d 7 1 d 34 X 12 -1 d 15 -1 d 19 -2 d 13 -1 d 13 -1 d 17 -2 d 47 -6 d 2 X 12 -1 d 34 -5 d 11 -1 d 8 -1 d 44 X 10 1 d 10 1 d 10 1 d 9 1 d 11 1 d 6 2 d 7 1 d 8 2 d 9 3 d 16 4 d 14 4 d 10 3 d 7 2 d 2 X 9 2 d 12 2 d 20 4 d
 16 2 d 10 2 d 9 2 d 4 1 d 6 2 d 8 2 d 10 3 d 23 8 d 10 3 d 7 2 d 6 1 d 6 2 d 3 X 7 1 d 8 1 d 9 1 d 9 1 d 10 X 13 1 d 23 X 28 1 d 21 X 7 -1 d 8 X 6 -1 d 6 -1 d 4 X 4 -1 d 4 -1 d 5 -2 d 5 -2 d 5 -2 d 7 -3 d 18 -9 d 5 -2 d 5 -2 d 5 -2 d 4 -1 d 4 -1 d 3
 X 4 -1 d 9 X 4 1 d 4 X 4 1 d 5 2 d 6 2 d 15 4 d 7 3 d 5 1 d 4 1 d 5 1 d 4 X 3 1 d 5 X 5 -1 d 5 X 4 -1 d 5 -1 d 5 -1 d 6 -2 d 50 -19 d 4 -2 d 5 -2 d 5 -3 d 6 -4 d 21 -12 d 6 -3 d 4 -2 d 4 -2 d 4 -1 d 3 -1 d 4 X 3 -1 d 13 X 2 1 d 3 1 d 2 X 3 2 d 2 1 d
 2 2 d 3 1 d 2 3 d 3 2 d 2 4 d 3 3 d 4 5 d 3 7 d 7 11 d 3 4 d 3 4 d 2 3 d 3 3 d 2 3 d 3 2 d 2 1 d 2 2 d 2 1 d 3 1 d 3 1 d 2 1 d 19 X 4 -1 d 5 -1 d 4 -1 d 4 -1 d 4 -2 d 4 -1 d 4 -2 d 3 -2 d 4 -3 d 4 -2 d 3 -3 d 4 -2 d 3 -4 d 3 -3 d 3 -3 d 3 -3 d 2 -4
 d 2 -3 d 2 -4 d 1 -1 d s 3 lw /w 2 def /w2 {w 2 div} def /w3 {w 3 div} def 380 394 459 399 539 403 618 391 697 396 777 391 856 382 935 374 1015 379 1094 400 1174 415 1253 438 1332 443 1412 441 1491 412 1570 429 1650 404 1729 371 1809 440 1888 394 20
 { m20} R 6 lw black 1 0 0 c
 gsave  2268 1328 0 0 C 2036.96 615.36 t 0 r /Helvetica-Bold findfont 48.4311 sf 0 0 m (/dof=0.3) show NC gr  black 1 0 0 c
 gsave  2268 1328 0 0 C 2017.01 632.454 t 0 r /Helvetica-Bold findfont 34.1867 sf 0 0 m (2) show NC gr  black 1 0 0 c
 gsave  2268 1328 0 0 C 1991.37 615.36 t 0 r /Symbol findfont 48.4311 sf 0 0 m (c) show NC gr  black 3 lw 340 398 m 1588 X s
 gsave  2268 1328 0 0 C 877.458 1213.63 t 0 r /Helvetica-Bold findfont 42.7334 sf 0 0 m (255 mm) show NC gr  1 0 0 c /w 23 def /w2 {w 2 div} def /w3 {w 3 div} def 836 1228 m21 black 1 1 1 c 0 0 1 c 380 789 m21 459 802 m21 539 816 m21 618 781 m21 697
 792 m21 777 766 m21 856 725 m21 935 687 m21 black 1015 703 m 1 Y s 1015 727 m s 1009 703 m 12 X s 1009 727 m 12 X s 0 0 1 c 1015 715 m21 black 1094 778 m 6 Y s 1094 806 m 6 Y s 1088 778 m 12 X s 1088 812 m 12 X s 0 0 1 c 1094 795 m21 black 1174 852
 m 12 Y s 1174 886 m 12 Y s 1168 852 m 11 X s 1168 898 m 11 X s 0 0 1 c 1174 875 m21 black 1253 944 m 18 Y s 1253 984 m 18 Y s 1247 944 m 12 X s 1247 1002 m 12 X s 0 0 1 c 1253 973 m21 black 1332 958 m 23 Y s 1332 1003 m 23 Y s 1327 958 m 11 X s 1327
 1026 m 11 X s 0 0 1 c 1332 992 m21 black 1412 948 m 28 Y s 1412 998 m 28 Y s 1406 948 m 11 X s 1406 1026 m 11 X s 0 0 1 c 1412 987 m21 black 1491 776 m 30 Y s 1491 829 m 31 Y s 1485 776 m 12 X s 1485 860 m 12 X s 0 0 1 c 1491 818 m21 black 1570 802
 m 35 Y s 1570 860 m 34 Y s 1565 802 m 11 X s 1565 894 m 11 X s 0 0 1 c 1570 848 m21 black 1650 778 m 37 Y s 1650 838 m 38 Y s 1644 778 m 11 X s 1644 876 m 11 X s 0 0 1 c 1650 827 m21 black 1729 720 m 41 Y s 1729 784 m 40 Y s 1723 720 m 12 X s 1723
 824 m 12 X s 0 0 1 c 1729 772 m21 black 1809 821 m 45 Y s 1809 889 m 45 Y s 1803 821 m 11 X s 1803 934 m 11 X s 0 0 1 c 1809 878 m21 black 1888 714 m 47 Y s 1888 784 m 47 Y s 1882 714 m 12 X s 1882 831 m 12 X s 0 0 1 c 1888 773 m21 6 lw 1 1 1 c 0 0
 1 c 380 787 m 79 15 d 12 3 d 32 8 d 11 2 d 9 2 d 8 X 8 -1 d 6 -1 d 8 -3 d 9 -4 d 15 -9 d 17 -9 d 8 -4 d 7 -3 d 7 -2 d 2 X 7 -1 d 8 1 d 10 1 d 17 5 d 15 3 d 10 2 d 12 X 11 -2 d 11 -2 d 13 -4 d 16 -6 d 29 -12 d 79 -41 d 12 -7 d 34 -19 d 11 -5 d 8 -2 d
 7 -2 d 7 -1 d 21 X 9 2 d 10 3 d 10 3 d 10 5 d 10 5 d 10 7 d 6 5 d 8 6 d 8 9 d 10 11 d 15 19 d 15 19 d 9 9 d 8 9 d 11 10 d 13 11 d 35 28 d 9 8 d 9 9 d 3 3 d 6 8 d 8 10 d 10 14 d 22 32 d 9 12 d 8 10 d 6 6 d 5 6 d 5 4 d 7 5 d 8 4 d 8 4 d 9 3 d 10 3 d
 13 2 d 20 2 d 4 X 15 2 d 16 2 d 17 X 7 -2 d 7 -2 d 6 -3 d 5 -3 d 5 -5 d 2 -1 d 3 -4 d 5 -6 d 4 -7 d 4 -8 d 5 -10 d 5 -13 d 7 -16 d 14 -39 d 6 -13 d 5 -10 d 4 -9 d 4 -7 d 4 -5 d 4 -4 d 3 -3 d 2 -2 d 4 -2 d 4 -1 d 5 X 4 1 d 5 2 d 6 3 d 8 6 d 18 16 d 7
 5 d 6 4 d 4 1 d 5 1 d 3 1 d 7 -1 d 8 -2 d 8 -3 d 9 -4 d 10 -6 d 11 -7 d 14 -11 d 13 -10 d 5 -4 d 5 -6 d 6 -8 d 8 -11 d 19 -29 d 5 -8 d 5 -5 d 5 -5 d 5 -4 d 4 -3 d 4 -1 d 7 X 1 1 d 3 1 d 3 3 d 4 3 d 3 5 d 4 6 d 3 7 d 4 10 d 5 12 d 6 17 d 11 32 d 5 13
 d 4 10 d 4 8 d 3 7 d 3 6 d 4 4 d 3 4 d 3 2 d 3 1 d 2 1 d 9 X 5 -2 d 5 -2 d 5 -3 d 5 -4 d 4 -4 d 5 -6 d 5 -7 d 5 -7 d 5 -9 d 4 -9 d 5 -10 d 4 -11 d 5 -12 d 3 -12 d 5 -14 d s 3 lw /w 2 def /w2 {w 2 div} def /w3 {w 3 div} def 380 787 459 802 539 816
 618 781 697 792 777 766 856 725 935 689 1015 714 1094 801 1174 870 1253 972 1332 995 1412 983 1491 827 1570 864 1650 820 1729 737 1809 889 1888 777 20 { m20} R 6 lw black 0 0 1 c
 gsave  2268 1328 0 0 C 2039.81 1113.92 t 0 r /Helvetica-Bold findfont 48.4311 sf 0 0 m (/dof=0.1) show NC gr  black 0 0 1 c
 gsave  2268 1328 0 0 C 2019.86 1131.01 t 0 r /Helvetica-Bold findfont 34.1867 sf 0 0 m (2) show NC gr  black 0 0 1 c
 gsave  2268 1328 0 0 C 1994.22 1113.92 t 0 r /Symbol findfont 48.4311 sf 0 0 m (c) show NC gr  black 3 lw 340 797 m 1588 X s
 gsave  2268 1328 0 0 C 1783.41 1213.63 t 0 r /Helvetica-Bold findfont 42.7334 sf 0 0 m (510 mm) show NC gr  0 0 1 c /w 23 def /w2 {w 2 div} def /w3 {w 3 div} def 1743 1228 m21
 gr  gr showpage
end
%%EOF
