%!PS-Adobe-2.0 EPSF-2.0
%%BoundingBox:  0 0 567 332
%%Title: NominalX_near_error.eps: Summary
%%Creator: ROOT Version 5.30/06
%%CreationDate: Sun Feb  2 09:42:57 2014
%%EndComments
%%BeginProlog
80 dict begin
/s {stroke} def /l {lineto} def /m {moveto} def /t {translate} def
/r {rotate} def /rl {roll}  def /R {repeat} def
/d {rlineto} def /rm {rmoveto} def /gr {grestore} def /f {eofill} def
/c {setrgbcolor} def /black {0 setgray} def /sd {setdash} def
/cl {closepath} def /sf {scalefont setfont} def /lw {setlinewidth} def
/box {m dup 0 exch d exch 0 d 0 exch neg d cl} def
/NC{systemdict begin initclip end}def/C{NC box clip newpath}def
/bl {box s} def /bf {box f} def /Y { 0 exch d} def /X { 0 d} def 
/K {{pop pop 0 moveto} exch kshow} bind def
/ita {/ang 15 def gsave [1 0 ang dup sin exch cos div 1 0 0] concat} def 
/mp {newpath /y exch def /x exch def} def
/side {[w .77 mul w .23 mul] .385 w mul sd w 0 l currentpoint t -144 r} def
/mr {mp x y w2 0 360 arc} def /m24 {mr s} def /m20 {mr f} def
/mb {mp x y w2 add m w2 neg 0 d 0 w neg d w 0 d 0 w d cl} def
/mt {mp x y w2 add m w2 neg w neg d w 0 d cl} def
/m21 {mb f} def /m25 {mb s} def /m22 {mt f} def /m26{mt s} def
/m23 {mp x y w2 sub m w2 w d w neg 0 d cl f} def
/m27 {mp x y w2 add m w3 neg w2 neg d w3 w2 neg d w3 w2 d cl s} def
/m28 {mp x w2 sub y w2 sub w3 add m w3 0 d  0 w3 neg d w3 0 d 0 w3 d w3 0 d  0 w3 d w3 neg 0 d 0 w3 d w3 neg 0 d 0 w3 neg d w3 neg 0 d cl s } def
/m29 {mp gsave x w2 sub y w2 add w3 sub m currentpoint t 4 {side} repeat cl fill gr} def
/m30 {mp gsave x w2 sub y w2 add w3 sub m currentpoint t 4 {side} repeat cl s gr} def
/m31 {mp x y w2 sub m 0 w d x w2 sub y m w 0 d x w2 sub y w2 add m w w neg d x w2 sub y w2 sub m w w d s} def
/m32 {mp x y w2 sub m w2 w d w neg 0 d cl s} def
/m33 {mp x y w2 add m w3 neg w2 neg d w3 w2 neg d w3 w2 d cl f} def
/m34 {mp x w2 sub y w2 sub w3 add m w3 0 d  0 w3 neg d w3 0 d 0 w3 d w3 0 d  0 w3 d w3 neg 0 d 0 w3 d w3 neg 0 d 0 w3 neg d w3 neg 0 d cl f } def
/m2 {mp x y w2 sub m 0 w d x w2 sub y m w 0 d s} def
/m5 {mp x w2 sub y w2 sub m w w d x w2 sub y w2 add m w w neg d s} def
/reEncode {exch findfont dup length dict begin {1 index /FID eq  {pop pop} {def} ifelse } forall /Encoding exch def currentdict end dup /FontName get exch definefont pop } def [/Times-Bold /Times-Italic /Times-BoldItalic /Helvetica /Helvetica-Oblique
 /Helvetica-Bold /Helvetica-BoldOblique /Courier /Courier-Oblique /Courier-Bold /Courier-BoldOblique /Times-Roman /AvantGarde-Book /AvantGarde-BookOblique /AvantGarde-Demi /AvantGarde-DemiOblique /Bookman-Demi /Bookman-DemiItalic /Bookman-Light
 /Bookman-LightItalic /Helvetica-Narrow /Helvetica-Narrow-Bold /Helvetica-Narrow-BoldOblique /Helvetica-Narrow-Oblique /NewCenturySchlbk-Roman /NewCenturySchlbk-Bold /NewCenturySchlbk-BoldItalic /NewCenturySchlbk-Italic /Palatino-Bold
 /Palatino-BoldItalic /Palatino-Italic /Palatino-Roman ] {ISOLatin1Encoding reEncode } forall%%EndProlog
%%BeginSetup
%%EndSetup
newpath  gsave  .25 .25 scale  gsave  0 0 t black[  ] 0 sd 3 lw 1 1 1 c 2268 1328 0 0 bf black 1 1 1 c black 1588 996 340 199 bl 1588 996 340 199 bl 0.48 0 1 c 6 lw 1 1 1 c 0.48 0 1 c 3 lw /w 23 def /w2 {w 2 div} def /w3 {w 3 div} def 380 288 459 338
 539 345 618 348 697 350 777 347 856 336 935 310 1015 262 1094 209 1174 387 1253 360 1332 285 1412 211 1491 223 1570 225 1650 221 1729 245 1809 242 1888 243 20 { m21} R 6 lw black 3 lw 340 199 m 1588 X s
 gsave  2268 1328 0 0 C 1527.01 68.3734 t 0 r /Helvetica findfont 62.6756 sf 0 0 m ( Energy \(GeV\)) show NC gr 
 gsave  2268 1328 0 0 C 1501.37 51.28 t 0 r /Symbol findfont 42.7334 sf 0 0 m (m) show NC gr 
 gsave  2268 1328 0 0 C 1467.18 68.3734 t 0 r /Symbol findfont 62.6756 sf 0 0 m (n) show NC gr  340 216 m -17 Y s 372 208 m -9 Y s 404 208 m -9 Y s 435 208 m -9 Y s 467 208 m -9 Y s 499 216 m -17 Y s 531 208 m -9 Y s 562 208 m -9 Y s 594 208 m -9 Y s
 626 208 m -9 Y s 658 216 m -17 Y s 689 208 m -9 Y s 721 208 m -9 Y s 753 208 m -9 Y s 785 208 m -9 Y s 816 216 m -17 Y s 848 208 m -9 Y s 880 208 m -9 Y s 912 208 m -9 Y s 943 208 m -9 Y s 975 216 m -17 Y s 1007 208 m -9 Y s 1039 208 m -9 Y s 1070
 208 m -9 Y s 1102 208 m -9 Y s 1134 216 m -17 Y s 1166 208 m -9 Y s 1197 208 m -9 Y s 1229 208 m -9 Y s 1261 208 m -9 Y s 1293 216 m -17 Y s 1324 208 m -9 Y s 1356 208 m -9 Y s 1388 208 m -9 Y s 1420 208 m -9 Y s 1451 216 m -17 Y s 1483 208 m -9 Y s
 1515 208 m -9 Y s 1547 208 m -9 Y s 1578 208 m -9 Y s 1610 216 m -17 Y s 1642 208 m -9 Y s 1674 208 m -9 Y s 1705 208 m -9 Y s 1737 208 m -9 Y s 1769 216 m -17 Y s 1801 208 m -9 Y s 1832 208 m -9 Y s 1864 208 m -9 Y s 1896 208 m -9 Y s 1928 216 m
 -17 Y s
 gsave  2268 1328 0 0 C 319.076 136.747 t 0 r /Helvetica findfont 68.3734 sf 0 0 m (0) show NC gr 
 gsave  2268 1328 0 0 C 484.311 136.747 t 0 r /Helvetica findfont 68.3734 sf 0 0 m (1) show NC gr 
 gsave  2268 1328 0 0 C 635.302 136.747 t 0 r /Helvetica findfont 68.3734 sf 0 0 m (2) show NC gr 
 gsave  2268 1328 0 0 C 794.84 136.747 t 0 r /Helvetica findfont 68.3734 sf 0 0 m (3) show NC gr 
 gsave  2268 1328 0 0 C 954.378 136.747 t 0 r /Helvetica findfont 68.3734 sf 0 0 m (4) show NC gr 
 gsave  2268 1328 0 0 C 1113.92 136.747 t 0 r /Helvetica findfont 68.3734 sf 0 0 m (5) show NC gr 
 gsave  2268 1328 0 0 C 1270.6 136.747 t 0 r /Helvetica findfont 68.3734 sf 0 0 m (6) show NC gr 
 gsave  2268 1328 0 0 C 1430.14 136.747 t 0 r /Helvetica findfont 68.3734 sf 0 0 m (7) show NC gr 
 gsave  2268 1328 0 0 C 1589.68 136.747 t 0 r /Helvetica findfont 68.3734 sf 0 0 m (8) show NC gr 
 gsave  2268 1328 0 0 C 1746.37 136.747 t 0 r /Helvetica findfont 68.3734 sf 0 0 m (9) show NC gr 
 gsave  2268 1328 0 0 C 1888.81 136.747 t 0 r /Helvetica findfont 68.3734 sf 0 0 m (10) show NC gr  340 1195 m 1588 X s 340 1178 m 17 Y s 372 1186 m 9 Y s 404 1186 m 9 Y s 435 1186 m 9 Y s 467 1186 m 9 Y s 499 1178 m 17 Y s 531 1186 m 9 Y s 562 1186
 m 9 Y s 594 1186 m 9 Y s 626 1186 m 9 Y s 658 1178 m 17 Y s 689 1186 m 9 Y s 721 1186 m 9 Y s 753 1186 m 9 Y s 785 1186 m 9 Y s 816 1178 m 17 Y s 848 1186 m 9 Y s 880 1186 m 9 Y s 912 1186 m 9 Y s 943 1186 m 9 Y s 975 1178 m 17 Y s 1007 1186 m 9 Y s
 1039 1186 m 9 Y s 1070 1186 m 9 Y s 1102 1186 m 9 Y s 1134 1178 m 17 Y s 1166 1186 m 9 Y s 1197 1186 m 9 Y s 1229 1186 m 9 Y s 1261 1186 m 9 Y s 1293 1178 m 17 Y s 1324 1186 m 9 Y s 1356 1186 m 9 Y s 1388 1186 m 9 Y s 1420 1186 m 9 Y s 1451 1178 m
 17 Y s 1483 1186 m 9 Y s 1515 1186 m 9 Y s 1547 1186 m 9 Y s 1578 1186 m 9 Y s 1610 1178 m 17 Y s 1642 1186 m 9 Y s 1674 1186 m 9 Y s 1705 1186 m 9 Y s 1737 1186 m 9 Y s 1769 1178 m 17 Y s 1801 1186 m 9 Y s 1832 1186 m 9 Y s 1864 1186 m 9 Y s 1896
 1186 m 9 Y s 1928 1178 m 17 Y s 340 199 m 996 Y s
 gsave  2268 1328 0 0 C 142.445 763.503 t 90 r /Helvetica findfont 62.6756 sf 0 0 m (Fractional Error) show NC gr  371 199 m -31 X s 355 224 m -15 X s 355 249 m -15 X s 355 274 m -15 X s 355 299 m -15 X s 371 324 m -31 X s 355 348 m -15 X s 355 373 m
 -15 X s 355 398 m -15 X s 355 423 m -15 X s 371 448 m -31 X s 355 473 m -15 X s 355 498 m -15 X s 355 523 m -15 X s 355 548 m -15 X s 371 573 m -31 X s 355 597 m -15 X s 355 622 m -15 X s 355 647 m -15 X s 355 672 m -15 X s 371 697 m -31 X s 355 722
 m -15 X s 355 747 m -15 X s 355 772 m -15 X s 355 797 m -15 X s 371 821 m -31 X s 355 846 m -15 X s 355 871 m -15 X s 355 896 m -15 X s 355 921 m -15 X s 371 946 m -31 X s 355 971 m -15 X s 355 996 m -15 X s 355 1021 m -15 X s 355 1045 m -15 X s 371
 1070 m -31 X s 355 1095 m -15 X s 355 1120 m -15 X s 355 1145 m -15 X s 355 1170 m -15 X s 371 1195 m -31 X s
 gsave  2268 1328 0 0 C 290.587 173.782 t 0 r /Helvetica findfont 68.3734 sf 0 0 m (0) show NC gr 
 gsave  2268 1328 0 0 C 156.689 299.133 t 0 r /Helvetica findfont 68.3734 sf 0 0 m (0.005) show NC gr 
 gsave  2268 1328 0 0 C 205.12 424.485 t 0 r /Helvetica findfont 68.3734 sf 0 0 m (0.01) show NC gr 
 gsave  2268 1328 0 0 C 156.689 546.987 t 0 r /Helvetica findfont 68.3734 sf 0 0 m (0.015) show NC gr 
 gsave  2268 1328 0 0 C 196.573 672.338 t 0 r /Helvetica findfont 68.3734 sf 0 0 m (0.02) show NC gr 
 gsave  2268 1328 0 0 C 156.689 797.689 t 0 r /Helvetica findfont 68.3734 sf 0 0 m (0.025) show NC gr 
 gsave  2268 1328 0 0 C 196.573 923.04 t 0 r /Helvetica findfont 68.3734 sf 0 0 m (0.03) show NC gr 
 gsave  2268 1328 0 0 C 156.689 1045.54 t 0 r /Helvetica findfont 68.3734 sf 0 0 m (0.035) show NC gr 
 gsave  2268 1328 0 0 C 196.573 1170.89 t 0 r /Helvetica findfont 68.3734 sf 0 0 m (0.04) show NC gr  1928 199 m 996 Y s 1897 199 m 31 X s 1912 224 m 16 X s 1912 249 m 16 X s 1912 274 m 16 X s 1912 299 m 16 X s 1897 324 m 31 X s 1912 348 m 16 X s
 1912 373 m 16 X s 1912 398 m 16 X s 1912 423 m 16 X s 1897 448 m 31 X s 1912 473 m 16 X s 1912 498 m 16 X s 1912 523 m 16 X s 1912 548 m 16 X s 1897 573 m 31 X s 1912 597 m 16 X s 1912 622 m 16 X s 1912 647 m 16 X s 1912 672 m 16 X s 1897 697 m 31 X
 s 1912 722 m 16 X s 1912 747 m 16 X s 1912 772 m 16 X s 1912 797 m 16 X s 1897 821 m 31 X s 1912 846 m 16 X s 1912 871 m 16 X s 1912 896 m 16 X s 1912 921 m 16 X s 1897 946 m 31 X s 1912 971 m 16 X s 1912 996 m 16 X s 1912 1021 m 16 X s 1912 1045 m
 16 X s 1897 1070 m 31 X s 1912 1095 m 16 X s 1912 1120 m 16 X s 1912 1145 m 16 X s 1912 1170 m 16 X s 1897 1195 m 31 X s
 gsave  2268 1328 0 0 C 791.991 980.018 t 0 r /Helvetica-Bold findfont 54.1289 sf 0 0 m (Beam Shift X \(0.45 mm\)) show NC gr  0.48 0 1 c 680 996 m21
 gr  gr showpage
end
%%EOF
