%!PS-Adobe-2.0 EPSF-2.0
%%BoundingBox:  0 0 567 332
%%Title: NominalY_nof_fits.eps: Fits
%%Creator: ROOT Version 5.30/06
%%CreationDate: Sun Feb  2 09:32:06 2014
%%EndComments
%%BeginProlog
80 dict begin
/s {stroke} def /l {lineto} def /m {moveto} def /t {translate} def
/r {rotate} def /rl {roll}  def /R {repeat} def
/d {rlineto} def /rm {rmoveto} def /gr {grestore} def /f {eofill} def
/c {setrgbcolor} def /black {0 setgray} def /sd {setdash} def
/cl {closepath} def /sf {scalefont setfont} def /lw {setlinewidth} def
/box {m dup 0 exch d exch 0 d 0 exch neg d cl} def
/NC{systemdict begin initclip end}def/C{NC box clip newpath}def
/bl {box s} def /bf {box f} def /Y { 0 exch d} def /X { 0 d} def 
/K {{pop pop 0 moveto} exch kshow} bind def
/ita {/ang 15 def gsave [1 0 ang dup sin exch cos div 1 0 0] concat} def 
/mp {newpath /y exch def /x exch def} def
/side {[w .77 mul w .23 mul] .385 w mul sd w 0 l currentpoint t -144 r} def
/mr {mp x y w2 0 360 arc} def /m24 {mr s} def /m20 {mr f} def
/mb {mp x y w2 add m w2 neg 0 d 0 w neg d w 0 d 0 w d cl} def
/mt {mp x y w2 add m w2 neg w neg d w 0 d cl} def
/m21 {mb f} def /m25 {mb s} def /m22 {mt f} def /m26{mt s} def
/m23 {mp x y w2 sub m w2 w d w neg 0 d cl f} def
/m27 {mp x y w2 add m w3 neg w2 neg d w3 w2 neg d w3 w2 d cl s} def
/m28 {mp x w2 sub y w2 sub w3 add m w3 0 d  0 w3 neg d w3 0 d 0 w3 d w3 0 d  0 w3 d w3 neg 0 d 0 w3 d w3 neg 0 d 0 w3 neg d w3 neg 0 d cl s } def
/m29 {mp gsave x w2 sub y w2 add w3 sub m currentpoint t 4 {side} repeat cl fill gr} def
/m30 {mp gsave x w2 sub y w2 add w3 sub m currentpoint t 4 {side} repeat cl s gr} def
/m31 {mp x y w2 sub m 0 w d x w2 sub y m w 0 d x w2 sub y w2 add m w w neg d x w2 sub y w2 sub m w w d s} def
/m32 {mp x y w2 sub m w2 w d w neg 0 d cl s} def
/m33 {mp x y w2 add m w3 neg w2 neg d w3 w2 neg d w3 w2 d cl f} def
/m34 {mp x w2 sub y w2 sub w3 add m w3 0 d  0 w3 neg d w3 0 d 0 w3 d w3 0 d  0 w3 d w3 neg 0 d 0 w3 d w3 neg 0 d 0 w3 neg d w3 neg 0 d cl f } def
/m2 {mp x y w2 sub m 0 w d x w2 sub y m w 0 d s} def
/m5 {mp x w2 sub y w2 sub m w w d x w2 sub y w2 add m w w neg d s} def
/reEncode {exch findfont dup length dict begin {1 index /FID eq  {pop pop} {def} ifelse } forall /Encoding exch def currentdict end dup /FontName get exch definefont pop } def [/Times-Bold /Times-Italic /Times-BoldItalic /Helvetica /Helvetica-Oblique
 /Helvetica-Bold /Helvetica-BoldOblique /Courier /Courier-Oblique /Courier-Bold /Courier-BoldOblique /Times-Roman /AvantGarde-Book /AvantGarde-BookOblique /AvantGarde-Demi /AvantGarde-DemiOblique /Bookman-Demi /Bookman-DemiItalic /Bookman-Light
 /Bookman-LightItalic /Helvetica-Narrow /Helvetica-Narrow-Bold /Helvetica-Narrow-BoldOblique /Helvetica-Narrow-Oblique /NewCenturySchlbk-Roman /NewCenturySchlbk-Bold /NewCenturySchlbk-BoldItalic /NewCenturySchlbk-Italic /Palatino-Bold
 /Palatino-BoldItalic /Palatino-Italic /Palatino-Roman ] {ISOLatin1Encoding reEncode } forall%%EndProlog
%%BeginSetup
%%EndSetup
newpath  gsave  .25 .25 scale  gsave  0 0 t black[  ] 0 sd 3 lw 1 1 1 c 2268 1328 0 0 bf black 1 1 1 c 408 305 23 1009 bf black 1 1 1 c black 306 229 84 1055 bl 306 229 84 1055 bl 84 1055 m 306 X s 84 1059 m -4 Y s 179 1059 m -4 Y s 274 1059 m -4 Y s
 369 1059 m -4 Y s 369 1059 m -4 Y s
 gsave  408 305 23 1009 C 74.0711 1034.15 t 0 r /Helvetica findfont 22.8295 sf 0 0 m (0) show NC gr 
 gsave  408 305 23 1009 C 170.933 1034.15 t 0 r /Helvetica findfont 22.8295 sf 0 0 m (1) show NC gr 
 gsave  408 305 23 1009 C 264.947 1034.15 t 0 r /Helvetica findfont 22.8295 sf 0 0 m (2) show NC gr 
 gsave  408 305 23 1009 C 358.96 1034.15 t 0 r /Helvetica findfont 22.8295 sf 0 0 m (3) show NC gr  84 1284 m 306 X s 84 1280 m 4 Y s 179 1280 m 4 Y s 274 1280 m 4 Y s 369 1280 m 4 Y s 369 1280 m 4 Y s 84 1055 m 229 Y s 89 1064 m -5 X s 87 1071 m -3
 X s 87 1078 m -3 X s 87 1085 m -3 X s 87 1092 m -3 X s 89 1099 m -5 X s 87 1106 m -3 X s 87 1113 m -3 X s 87 1119 m -3 X s 87 1126 m -3 X s 89 1133 m -5 X s 87 1140 m -3 X s 87 1147 m -3 X s 87 1154 m -3 X s 87 1161 m -3 X s 89 1168 m -5 X s 87 1175
 m -3 X s 87 1181 m -3 X s 87 1188 m -3 X s 87 1195 m -3 X s 89 1202 m -5 X s 87 1209 m -3 X s 87 1216 m -3 X s 87 1223 m -3 X s 87 1230 m -3 X s 89 1237 m -5 X s 87 1243 m -3 X s 87 1250 m -3 X s 87 1257 m -3 X s 87 1264 m -3 X s 89 1271 m -5 X s 89
 1064 m -5 X s 87 1057 m -3 X s 89 1271 m -5 X s 87 1278 m -3 X s
 gsave  408 305 23 1009 C 14.2445 1056.94 t 0 r /Helvetica findfont 22.8295 sf 0 0 m (\2550.002) show NC gr 
 gsave  408 305 23 1009 C 2.84889 1091.12 t 0 r /Helvetica findfont 22.8295 sf 0 0 m (\2550.0015) show NC gr 
 gsave  408 305 23 1009 C 17.0933 1125.31 t 0 r /Helvetica findfont 22.8295 sf 0 0 m (\2550.001) show NC gr 
 gsave  408 305 23 1009 C 2.84889 1159.5 t 0 r /Helvetica findfont 22.8295 sf 0 0 m (\2550.0005) show NC gr 
 gsave  408 305 23 1009 C 65.5245 1193.68 t 0 r /Helvetica findfont 22.8295 sf 0 0 m (0) show NC gr 
 gsave  408 305 23 1009 C 8.54667 1230.72 t 0 r /Helvetica findfont 22.8295 sf 0 0 m (0.0005) show NC gr 
 gsave  408 305 23 1009 C 25.64 1264.91 t 0 r /Helvetica findfont 22.8295 sf 0 0 m (0.001) show NC gr  390 1055 m 229 Y s 385 1064 m 5 X s 387 1071 m 3 X s 387 1078 m 3 X s 387 1085 m 3 X s 387 1092 m 3 X s 385 1099 m 5 X s 387 1106 m 3 X s 387 1113
 m 3 X s 387 1119 m 3 X s 387 1126 m 3 X s 385 1133 m 5 X s 387 1140 m 3 X s 387 1147 m 3 X s 387 1154 m 3 X s 387 1161 m 3 X s 385 1168 m 5 X s 387 1175 m 3 X s 387 1181 m 3 X s 387 1188 m 3 X s 387 1195 m 3 X s 385 1202 m 5 X s 387 1209 m 3 X s 387
 1216 m 3 X s 387 1223 m 3 X s 387 1230 m 3 X s 385 1237 m 5 X s 387 1243 m 3 X s 387 1250 m 3 X s 387 1257 m 3 X s 387 1264 m 3 X s 385 1271 m 5 X s 385 1064 m 5 X s 387 1057 m 3 X s 385 1271 m 5 X s 387 1278 m 3 X s /w 22 def /w2 {w 2 div} def /w3
 {w 3 div} def 179 1179 274 1168 369 1159 3 { m21} R 179 1190 m 75 Y s 173 1265 m 12 X s 179 1167 m -74 Y s 173 1093 m 12 X s 274 1179 m 74 Y s 268 1253 m 12 X s 274 1156 m -74 Y s 268 1082 m 12 X s 369 1170 m 74 Y s 363 1244 m 12 X s 369 1148 m -74
 Y s 363 1074 m 12 X s 9 lw 0.95 0.95 0.95 c black 85 1202 m 3 -1 d 4 X 3 -1 d 3 X 3 -1 d 3 X 3 -1 d 3 X 3 -1 d 3 X 3 -1 d 3 X 3 -1 d 3 X 3 -1 d 3 X 3 -1 d 4 X 3 -1 d 3 X 3 -1 d 3 X 3 -1 d 3 X 3 -1 d 3 X 3 -1 d 3 X 3 -1 d 3 X 3 -1 d 3 X 3 -1 d 4 X 3
 -1 d 3 X 3 -1 d 3 X 3 -1 d 3 X 3 -1 d 3 X 3 -1 d 3 -1 d 3 X 3 -1 d 3 X 3 -1 d 3 X s 235 1177 m 4 -1 d 3 X 3 -1 d 3 X 3 -1 d 3 X 3 -1 d 3 X 3 -1 d 3 X 3 -1 d 3 X 3 -1 d 3 X 3 -1 d 3 X 3 -1 d 4 X 3 -1 d 3 X 3 -1 d 3 X 3 -1 d 3 X 3 -1 d 3 X 3 -1 d 3 X
 3 -1 d 3 X 3 -1 d 3 X 3 -1 d 4 X 3 -1 d 3 X 3 -1 d 3 X 3 -1 d 3 X 3 -1 d 3 X 3 -1 d 3 X 3 -1 d 3 X 3 -1 d 3 X 3 -1 d s 385 1152 m 4 X s 0.49 0.6 0.82 c black 0.49 0.6 0.82 c
 gsave  408 305 23 1009 C 142.445 1293.4 t 0 r /Helvetica-Bold findfont 25.6831 sf 0 0 m (0.0 < E < 0.5 GeV) show NC gr  0.52 0.76 0.64 c black 0.52 0.76 0.64 c
 gsave  408 305 23 1009 C 122.502 1256.36 t 0 r /Helvetica-Bold findfont 25.6831 sf 0 0 m 
 228 214 200 193 178 171 156 149 134 126 119 105 91 77 69 55 47 39 25 17
(A = \2550.000, p = 1.000) K NC gr  1 0.6 1 c black 1 0.6 1 c
 gsave  408 305 23 1009 C 427.334 1122.46 t 90 r /Helvetica-Bold findfont 28.5368 sf 0 0 m (/dof=0.0) show NC gr  black 1 0.6 1 c
 gsave  408 305 23 1009 C 415.938 1111.07 t 90 r /Helvetica-Bold findfont 19.9758 sf 0 0 m (2) show NC gr  black 1 0.6 1 c
 gsave  408 305 23 1009 C 427.334 1093.97 t 90 r /Symbol findfont 28.5368 sf 0 0 m (c) show NC gr  black 3 lw 1 1 1 c 408 305 476 1009 bf black 1 1 1 c black 307 229 537 1055 bl 307 229 537 1055 bl 537 1055 m 307 X s 537 1059 m -4 Y s 633 1059 m -4 Y
 s 728 1059 m -4 Y s 823 1059 m -4 Y s 823 1059 m -4 Y s
 gsave  408 305 476 1009 C 527.045 1034.15 t 0 r /Helvetica findfont 22.8295 sf 0 0 m (0) show NC gr 
 gsave  408 305 476 1009 C 626.756 1034.15 t 0 r /Helvetica findfont 22.8295 sf 0 0 m (1) show NC gr 
 gsave  408 305 476 1009 C 717.92 1034.15 t 0 r /Helvetica findfont 22.8295 sf 0 0 m (2) show NC gr 
 gsave  408 305 476 1009 C 811.934 1034.15 t 0 r /Helvetica findfont 22.8295 sf 0 0 m (3) show NC gr  537 1284 m 307 X s 537 1280 m 4 Y s 633 1280 m 4 Y s 728 1280 m 4 Y s 823 1280 m 4 Y s 823 1280 m 4 Y s 537 1055 m 229 Y s 543 1061 m -6 X s 540
 1066 m -3 X s 540 1072 m -3 X s 540 1077 m -3 X s 540 1083 m -3 X s 543 1088 m -6 X s 540 1093 m -3 X s 540 1099 m -3 X s 540 1104 m -3 X s 540 1109 m -3 X s 543 1115 m -6 X s 540 1120 m -3 X s 540 1126 m -3 X s 540 1131 m -3 X s 540 1136 m -3 X s
 543 1142 m -6 X s 540 1147 m -3 X s 540 1153 m -3 X s 540 1158 m -3 X s 540 1163 m -3 X s 543 1169 m -6 X s 540 1174 m -3 X s 540 1180 m -3 X s 540 1185 m -3 X s 540 1190 m -3 X s 543 1196 m -6 X s 540 1201 m -3 X s 540 1206 m -3 X s 540 1212 m -3 X
 s 540 1217 m -3 X s 543 1223 m -6 X s 540 1228 m -3 X s 540 1233 m -3 X s 540 1239 m -3 X s 540 1244 m -3 X s 543 1250 m -6 X s 540 1255 m -3 X s 540 1260 m -3 X s 540 1266 m -3 X s 540 1271 m -3 X s 543 1276 m -6 X s 543 1061 m -6 X s 540 1056 m -3
 X s 543 1276 m -6 X s 540 1282 m -3 X s
 gsave  408 305 476 1009 C 455.822 1054.09 t 0 r /Helvetica findfont 22.8295 sf 0 0 m (\2550.0025) show NC gr 
 gsave  408 305 476 1009 C 467.218 1079.73 t 0 r /Helvetica findfont 22.8295 sf 0 0 m (\2550.002) show NC gr 
 gsave  408 305 476 1009 C 455.822 1108.22 t 0 r /Helvetica findfont 22.8295 sf 0 0 m (\2550.0015) show NC gr 
 gsave  408 305 476 1009 C 470.067 1133.86 t 0 r /Helvetica findfont 22.8295 sf 0 0 m (\2550.001) show NC gr 
 gsave  408 305 476 1009 C 455.822 1162.35 t 0 r /Helvetica findfont 22.8295 sf 0 0 m (\2550.0005) show NC gr 
 gsave  408 305 476 1009 C 518.498 1187.99 t 0 r /Helvetica findfont 22.8295 sf 0 0 m (0) show NC gr 
 gsave  408 305 476 1009 C 461.52 1216.48 t 0 r /Helvetica findfont 22.8295 sf 0 0 m (0.0005) show NC gr 
 gsave  408 305 476 1009 C 478.614 1242.12 t 0 r /Helvetica findfont 22.8295 sf 0 0 m (0.001) show NC gr 
 gsave  408 305 476 1009 C 461.52 1270.6 t 0 r /Helvetica findfont 22.8295 sf 0 0 m (0.0015) show NC gr  844 1055 m 229 Y s 838 1061 m 6 X s 841 1066 m 3 X s 841 1072 m 3 X s 841 1077 m 3 X s 841 1083 m 3 X s 838 1088 m 6 X s 841 1093 m 3 X s 841
 1099 m 3 X s 841 1104 m 3 X s 841 1109 m 3 X s 838 1115 m 6 X s 841 1120 m 3 X s 841 1126 m 3 X s 841 1131 m 3 X s 841 1136 m 3 X s 838 1142 m 6 X s 841 1147 m 3 X s 841 1153 m 3 X s 841 1158 m 3 X s 841 1163 m 3 X s 838 1169 m 6 X s 841 1174 m 3 X
 s 841 1180 m 3 X s 841 1185 m 3 X s 841 1190 m 3 X s 838 1196 m 6 X s 841 1201 m 3 X s 841 1206 m 3 X s 841 1212 m 3 X s 841 1217 m 3 X s 838 1223 m 6 X s 841 1228 m 3 X s 841 1233 m 3 X s 841 1239 m 3 X s 841 1244 m 3 X s 838 1250 m 6 X s 841 1255
 m 3 X s 841 1260 m 3 X s 841 1266 m 3 X s 841 1271 m 3 X s 838 1276 m 6 X s 838 1061 m 6 X s 841 1056 m 3 X s 838 1276 m 6 X s 841 1282 m 3 X s /w 23 def /w2 {w 2 div} def /w3 {w 3 div} def 633 1170 728 1154 823 1184 3 { m21} R 633 1182 m 69 Y s 627
 1251 m 11 X s 633 1159 m -69 Y s 627 1090 m 11 X s 728 1166 m 69 Y s 722 1235 m 11 X s 728 1143 m -69 Y s 722 1074 m 11 X s 823 1195 m 70 Y s 817 1265 m 11 X s 823 1173 m -70 Y s 817 1103 m 11 X s 9 lw 0.95 0.95 0.95 c black 539 1195 m 9 X 3 -1 d 6
 X 3 -1 d 7 X 3 -1 d 6 X 3 -1 d 6 X 3 -1 d 6 X 3 -1 d 6 X 3 -1 d 6 X 4 -1 d 6 X 3 -1 d 6 X 3 -1 d 6 X 3 -1 d 6 X 3 -1 d 6 X 3 -1 d 7 X 3 -1 d 6 X 3 -1 d 6 X 3 -1 d s 689 1179 m 6 X 3 -1 d 6 X 3 -1 d 6 X 4 -1 d 6 X 3 -1 d 6 X 3 -1 d 6 X 3 -1 d 6 X 3
 -1 d 6 X 3 -1 d 7 X 3 -1 d 6 X 3 -1 d 9 X 3 -1 d 6 X 3 -1 d 6 X 3 -1 d 7 X 3 -1 d 6 X 3 -1 d 6 X 3 -1 d s 839 1163 m 3 X s 0.49 0.6 0.82 c black 0.49 0.6 0.82 c
 gsave  408 305 476 1009 C 595.418 1293.4 t 0 r /Helvetica-Bold findfont 25.6831 sf 0 0 m (0.5 < E < 1.0 GeV) show NC gr  0.52 0.76 0.64 c black 0.52 0.76 0.64 c
 gsave  408 305 476 1009 C 575.476 1256.36 t 0 r /Helvetica-Bold findfont 25.6831 sf 0 0 m 
 228 214 200 193 178 171 156 149 133 126 119 105 91 76 69 55 47 39 25 17
(A = \2550.000, p = 1.000) K NC gr  1 0.6 1 c black 1 0.6 1 c
 gsave  408 305 476 1009 C 883.156 1122.46 t 90 r /Helvetica-Bold findfont 28.5368 sf 0 0 m (/dof=0.1) show NC gr  black 1 0.6 1 c
 gsave  408 305 476 1009 C 871.76 1111.07 t 90 r /Helvetica-Bold findfont 19.9758 sf 0 0 m (2) show NC gr  black 1 0.6 1 c
 gsave  408 305 476 1009 C 883.156 1093.97 t 90 r /Symbol findfont 28.5368 sf 0 0 m (c) show NC gr  black 3 lw 1 1 1 c 408 305 930 1009 bf black 1 1 1 c black 306 229 991 1055 bl 306 229 991 1055 bl 991 1055 m 306 X s 991 1059 m -4 Y s 1086 1059 m -4
 Y s 1181 1059 m -4 Y s 1276 1059 m -4 Y s 1276 1059 m -4 Y s
 gsave  408 305 930 1009 C 980.018 1034.15 t 0 r /Helvetica findfont 22.8295 sf 0 0 m (0) show NC gr 
 gsave  408 305 930 1009 C 1079.73 1034.15 t 0 r /Helvetica findfont 22.8295 sf 0 0 m (1) show NC gr 
 gsave  408 305 930 1009 C 1170.89 1034.15 t 0 r /Helvetica findfont 22.8295 sf 0 0 m (2) show NC gr 
 gsave  408 305 930 1009 C 1264.91 1034.15 t 0 r /Helvetica findfont 22.8295 sf 0 0 m (3) show NC gr  991 1284 m 306 X s 991 1280 m 4 Y s 1086 1280 m 4 Y s 1181 1280 m 4 Y s 1276 1280 m 4 Y s 1276 1280 m 4 Y s 991 1055 m 229 Y s 997 1075 m -6 X s 994
 1080 m -3 X s 994 1086 m -3 X s 994 1091 m -3 X s 994 1096 m -3 X s 997 1101 m -6 X s 994 1106 m -3 X s 994 1111 m -3 X s 994 1117 m -3 X s 994 1122 m -3 X s 997 1127 m -6 X s 994 1132 m -3 X s 994 1137 m -3 X s 994 1142 m -3 X s 994 1147 m -3 X s
 997 1153 m -6 X s 994 1158 m -3 X s 994 1163 m -3 X s 994 1168 m -3 X s 994 1173 m -3 X s 997 1178 m -6 X s 994 1184 m -3 X s 994 1189 m -3 X s 994 1194 m -3 X s 994 1199 m -3 X s 997 1204 m -6 X s 994 1209 m -3 X s 994 1215 m -3 X s 994 1220 m -3 X
 s 994 1225 m -3 X s 997 1230 m -6 X s 994 1235 m -3 X s 994 1240 m -3 X s 994 1246 m -3 X s 994 1251 m -3 X s 997 1256 m -6 X s 994 1261 m -3 X s 994 1266 m -3 X s 994 1271 m -3 X s 994 1277 m -3 X s 997 1282 m -6 X s 997 1075 m -6 X s 994 1070 m -3
 X s 994 1065 m -3 X s 994 1060 m -3 X s 997 1282 m -6 X s
 gsave  408 305 930 1009 C 923.04 1068.33 t 0 r /Helvetica findfont 22.8295 sf 0 0 m (\2550.002) show NC gr 
 gsave  408 305 930 1009 C 911.645 1093.97 t 0 r /Helvetica findfont 22.8295 sf 0 0 m (\2550.0015) show NC gr 
 gsave  408 305 930 1009 C 925.889 1119.61 t 0 r /Helvetica findfont 22.8295 sf 0 0 m (\2550.001) show NC gr 
 gsave  408 305 930 1009 C 911.645 1145.25 t 0 r /Helvetica findfont 22.8295 sf 0 0 m (\2550.0005) show NC gr 
 gsave  408 305 930 1009 C 974.32 1170.89 t 0 r /Helvetica findfont 22.8295 sf 0 0 m (0) show NC gr 
 gsave  408 305 930 1009 C 917.343 1196.53 t 0 r /Helvetica findfont 22.8295 sf 0 0 m (0.0005) show NC gr 
 gsave  408 305 930 1009 C 934.436 1222.17 t 0 r /Helvetica findfont 22.8295 sf 0 0 m (0.001) show NC gr 
 gsave  408 305 930 1009 C 917.343 1247.81 t 0 r /Helvetica findfont 22.8295 sf 0 0 m (0.0015) show NC gr 
 gsave  408 305 930 1009 C 931.587 1273.45 t 0 r /Helvetica findfont 22.8295 sf 0 0 m (0.002) show NC gr  1297 1055 m 229 Y s 1292 1075 m 5 X s 1294 1080 m 3 X s 1294 1086 m 3 X s 1294 1091 m 3 X s 1294 1096 m 3 X s 1292 1101 m 5 X s 1294 1106 m 3 X
 s 1294 1111 m 3 X s 1294 1117 m 3 X s 1294 1122 m 3 X s 1292 1127 m 5 X s 1294 1132 m 3 X s 1294 1137 m 3 X s 1294 1142 m 3 X s 1294 1147 m 3 X s 1292 1153 m 5 X s 1294 1158 m 3 X s 1294 1163 m 3 X s 1294 1168 m 3 X s 1294 1173 m 3 X s 1292 1178 m 5
 X s 1294 1184 m 3 X s 1294 1189 m 3 X s 1294 1194 m 3 X s 1294 1199 m 3 X s 1292 1204 m 5 X s 1294 1209 m 3 X s 1294 1215 m 3 X s 1294 1220 m 3 X s 1294 1225 m 3 X s 1292 1230 m 5 X s 1294 1235 m 3 X s 1294 1240 m 3 X s 1294 1246 m 3 X s 1294 1251 m
 3 X s 1292 1256 m 5 X s 1294 1261 m 3 X s 1294 1266 m 3 X s 1294 1271 m 3 X s 1294 1277 m 3 X s 1292 1282 m 5 X s 1292 1075 m 5 X s 1294 1070 m 3 X s 1294 1065 m 3 X s 1294 1060 m 3 X s 1292 1282 m 5 X s 1086 1151 1181 1177 1276 1188 3 { m21} R 1086
 1162 m 65 Y s 1080 1227 m 12 X s 1086 1139 m -65 Y s 1080 1074 m 12 X s 1181 1189 m 65 Y s 1175 1254 m 12 X s 1181 1166 m -66 Y s 1175 1100 m 12 X s 1276 1199 m 66 Y s 1271 1265 m 11 X s 1276 1176 m -65 Y s 1271 1111 m 11 X s 1 0 0 c 9 lw 0.95 0.95
 0.95 c black 1 0 0 c 993 1178 m 30 X 3 1 d 98 X 3 1 d 16 X s 1143 1180 m 36 X 3 1 d 37 X 3 1 d 34 X 3 1 d 27 X 3 1 d 4 X s 1293 1184 m 3 X s 0.49 0.6 0.82 c black 0.49 0.6 0.82 c
 gsave  408 305 930 1009 C 1051.24 1293.4 t 0 r /Helvetica-Bold findfont 25.6831 sf 0 0 m (1.0 < E < 1.5 GeV) show NC gr  0.52 0.76 0.64 c black 0.52 0.76 0.64 c
 gsave  408 305 930 1009 C 1037 1256.36 t 0 r /Helvetica-Bold findfont 25.6831 sf 0 0 m 
 220 206 192 185 170 163 148 141 125 118 111 97 83 69 61 47 40 25 18
(A = 0.000, p = 2.000) K NC gr  1 0.6 1 c black 1 0.6 1 c
 gsave  408 305 930 1009 C 1336.13 1122.46 t 90 r /Helvetica-Bold findfont 28.5368 sf 0 0 m (/dof=0.1) show NC gr  black 1 0.6 1 c
 gsave  408 305 930 1009 C 1324.73 1111.07 t 90 r /Helvetica-Bold findfont 19.9758 sf 0 0 m (2) show NC gr  black 1 0.6 1 c
 gsave  408 305 930 1009 C 1336.13 1093.97 t 90 r /Symbol findfont 28.5368 sf 0 0 m (c) show NC gr  black 3 lw 1 1 1 c 408 305 1383 1009 bf black 1 1 1 c black 306 229 1445 1055 bl 306 229 1445 1055 bl 1445 1055 m 306 X s 1445 1059 m -4 Y s 1540 1059
 m -4 Y s 1635 1059 m -4 Y s 1730 1059 m -4 Y s 1730 1059 m -4 Y s
 gsave  408 305 1383 1009 C 1435.84 1034.15 t 0 r /Helvetica findfont 22.8295 sf 0 0 m (0) show NC gr 
 gsave  408 305 1383 1009 C 1532.7 1034.15 t 0 r /Helvetica findfont 22.8295 sf 0 0 m (1) show NC gr 
 gsave  408 305 1383 1009 C 1623.87 1034.15 t 0 r /Helvetica findfont 22.8295 sf 0 0 m (2) show NC gr 
 gsave  408 305 1383 1009 C 1720.73 1034.15 t 0 r /Helvetica findfont 22.8295 sf 0 0 m (3) show NC gr  1445 1284 m 306 X s 1445 1280 m 4 Y s 1540 1280 m 4 Y s 1635 1280 m 4 Y s 1730 1280 m 4 Y s 1730 1280 m 4 Y s 1445 1055 m 229 Y s 1450 1082 m -5 X
 s 1447 1088 m -2 X s 1447 1094 m -2 X s 1447 1100 m -2 X s 1447 1106 m -2 X s 1450 1112 m -5 X s 1447 1117 m -2 X s 1447 1123 m -2 X s 1447 1129 m -2 X s 1447 1135 m -2 X s 1450 1141 m -5 X s 1447 1147 m -2 X s 1447 1153 m -2 X s 1447 1159 m -2 X s
 1447 1165 m -2 X s 1450 1170 m -5 X s 1447 1176 m -2 X s 1447 1182 m -2 X s 1447 1188 m -2 X s 1447 1194 m -2 X s 1450 1200 m -5 X s 1447 1206 m -2 X s 1447 1212 m -2 X s 1447 1218 m -2 X s 1447 1223 m -2 X s 1450 1229 m -5 X s 1447 1235 m -2 X s
 1447 1241 m -2 X s 1447 1247 m -2 X s 1447 1253 m -2 X s 1450 1259 m -5 X s 1450 1082 m -5 X s 1447 1076 m -2 X s 1447 1070 m -2 X s 1447 1064 m -2 X s 1447 1059 m -2 X s 1450 1259 m -5 X s 1447 1265 m -2 X s 1447 1271 m -2 X s 1447 1276 m -2 X s
 1447 1282 m -2 X s
 gsave  408 305 1383 1009 C 1376.01 1074.03 t 0 r /Helvetica findfont 22.8295 sf 0 0 m (\2550.002) show NC gr 
 gsave  408 305 1383 1009 C 1378.86 1105.37 t 0 r /Helvetica findfont 22.8295 sf 0 0 m (\2550.001) show NC gr 
 gsave  408 305 1383 1009 C 1427.29 1133.86 t 0 r /Helvetica findfont 22.8295 sf 0 0 m (0) show NC gr 
 gsave  408 305 1383 1009 C 1387.41 1162.35 t 0 r /Helvetica findfont 22.8295 sf 0 0 m (0.001) show NC gr 
 gsave  408 305 1383 1009 C 1384.56 1193.68 t 0 r /Helvetica findfont 22.8295 sf 0 0 m (0.002) show NC gr 
 gsave  408 305 1383 1009 C 1384.56 1222.17 t 0 r /Helvetica findfont 22.8295 sf 0 0 m (0.003) show NC gr 
 gsave  408 305 1383 1009 C 1384.56 1250.66 t 0 r /Helvetica findfont 22.8295 sf 0 0 m (0.004) show NC gr  1751 1055 m 229 Y s 1745 1082 m 6 X s 1748 1088 m 3 X s 1748 1094 m 3 X s 1748 1100 m 3 X s 1748 1106 m 3 X s 1745 1112 m 6 X s 1748 1117 m 3 X
 s 1748 1123 m 3 X s 1748 1129 m 3 X s 1748 1135 m 3 X s 1745 1141 m 6 X s 1748 1147 m 3 X s 1748 1153 m 3 X s 1748 1159 m 3 X s 1748 1165 m 3 X s 1745 1170 m 6 X s 1748 1176 m 3 X s 1748 1182 m 3 X s 1748 1188 m 3 X s 1748 1194 m 3 X s 1745 1200 m 6
 X s 1748 1206 m 3 X s 1748 1212 m 3 X s 1748 1218 m 3 X s 1748 1223 m 3 X s 1745 1229 m 6 X s 1748 1235 m 3 X s 1748 1241 m 3 X s 1748 1247 m 3 X s 1748 1253 m 3 X s 1745 1259 m 6 X s 1745 1082 m 6 X s 1748 1076 m 3 X s 1748 1070 m 3 X s 1748 1064 m
 3 X s 1748 1059 m 3 X s 1745 1259 m 6 X s 1748 1265 m 3 X s 1748 1271 m 3 X s 1748 1276 m 3 X s 1748 1282 m 3 X s 1540 1118 1635 1194 1730 1220 3 { m21} R 1540 1130 m 33 Y s 1534 1163 m 11 X s 1540 1107 m -33 Y s 1534 1074 m 11 X s 1635 1205 m 34 Y
 s 1629 1239 m 11 X s 1635 1182 m -33 Y s 1629 1149 m 11 X s 1730 1231 m 34 Y s 1724 1265 m 11 X s 1730 1209 m -34 Y s 1724 1175 m 11 X s 1 0 0 c 9 lw 0.95 0.95 0.95 c black 1 0 0 c 1446 1141 m 18 X 3 1 d 16 X 3 1 d 6 X 3 1 d 6 X 3 1 d 6 X 3 1 d 3 X
 4 1 d 3 X 3 1 d 3 X 3 1 d 3 X 3 1 d 3 X 3 1 d 3 1 d 3 X 3 1 d 3 1 d 3 X 3 1 d 3 1 d 4 1 d 3 X 3 1 d 3 1 d 3 1 d 3 1 d 3 1 d 3 X 3 1 d 3 1 d s 1596 1164 m 3 1 d 3 1 d 3 1 d 3 1 d 3 1 d 3 1 d 4 1 d 3 1 d 3 2 d 3 1 d 3 1 d 3 1 d 3 1 d 3 1 d 3 2 d 3 1 d
 3 1 d 3 1 d 3 2 d 3 1 d 3 1 d 3 2 d 3 1 d 4 1 d 3 2 d 3 1 d 3 2 d 3 1 d 3 2 d 3 1 d 3 2 d 3 1 d 3 2 d 3 1 d 3 2 d 3 2 d 3 1 d 3 2 d 3 2 d 4 1 d 3 2 d 3 2 d 3 1 d 3 2 d 3 2 d 3 2 d 3 2 d 3 1 d 3 2 d s 1746 1233 m 3 2 d s 0.49 0.6 0.82 c black 0.49
 0.6 0.82 c
 gsave  408 305 1383 1009 C 1504.21 1293.4 t 0 r /Helvetica-Bold findfont 25.6831 sf 0 0 m (1.5 < E < 2.0 GeV) show NC gr  0.52 0.76 0.64 c black 0.52 0.76 0.64 c
 gsave  408 305 1383 1009 C 1489.97 1256.36 t 0 r /Helvetica-Bold findfont 25.6831 sf 0 0 m 
 220 206 192 185 170 163 148 141 126 118 111 97 83 69 61 47 40 25 18
(A = 0.000, p = 2.000) K NC gr  1 0.6 1 c black 1 0.6 1 c
 gsave  408 305 1383 1009 C 1789.1 1122.46 t 90 r /Helvetica-Bold findfont 28.5368 sf 0 0 m (/dof=0.3) show NC gr  black 1 0.6 1 c
 gsave  408 305 1383 1009 C 1777.71 1111.07 t 90 r /Helvetica-Bold findfont 19.9758 sf 0 0 m (2) show NC gr  black 1 0.6 1 c
 gsave  408 305 1383 1009 C 1789.1 1093.97 t 90 r /Symbol findfont 28.5368 sf 0 0 m (c) show NC gr  black 3 lw 1 1 1 c 408 305 1837 1009 bf black 1 1 1 c black 306 229 1898 1055 bl 306 229 1898 1055 bl 1898 1055 m 306 X s 1898 1059 m -4 Y s 1993 1059
 m -4 Y s 2088 1059 m -4 Y s 2183 1059 m -4 Y s 2183 1059 m -4 Y s
 gsave  408 305 1837 1009 C 1888.81 1034.15 t 0 r /Helvetica findfont 22.8295 sf 0 0 m (0) show NC gr 
 gsave  408 305 1837 1009 C 1985.68 1034.15 t 0 r /Helvetica findfont 22.8295 sf 0 0 m (1) show NC gr 
 gsave  408 305 1837 1009 C 2076.84 1034.15 t 0 r /Helvetica findfont 22.8295 sf 0 0 m (2) show NC gr 
 gsave  408 305 1837 1009 C 2173.7 1034.15 t 0 r /Helvetica findfont 22.8295 sf 0 0 m (3) show NC gr  1898 1284 m 306 X s 1898 1280 m 4 Y s 1993 1280 m 4 Y s 2088 1280 m 4 Y s 2183 1280 m 4 Y s 2183 1280 m 4 Y s 1898 1055 m 229 Y s 1904 1085 m -6 X s
 1901 1093 m -3 X s 1901 1100 m -3 X s 1901 1108 m -3 X s 1901 1116 m -3 X s 1904 1124 m -6 X s 1901 1132 m -3 X s 1901 1139 m -3 X s 1901 1147 m -3 X s 1901 1155 m -3 X s 1904 1163 m -6 X s 1901 1170 m -3 X s 1901 1178 m -3 X s 1901 1186 m -3 X s
 1901 1194 m -3 X s 1904 1202 m -6 X s 1901 1209 m -3 X s 1901 1217 m -3 X s 1901 1225 m -3 X s 1901 1233 m -3 X s 1904 1240 m -6 X s 1901 1248 m -3 X s 1901 1256 m -3 X s 1901 1264 m -3 X s 1901 1272 m -3 X s 1904 1279 m -6 X s 1904 1085 m -6 X s
 1901 1077 m -3 X s 1901 1069 m -3 X s 1901 1061 m -3 X s 1904 1279 m -6 X s
 gsave  408 305 1837 1009 C 1828.99 1076.88 t 0 r /Helvetica findfont 22.8295 sf 0 0 m (\2550.002) show NC gr 
 gsave  408 305 1837 1009 C 1831.84 1116.76 t 0 r /Helvetica findfont 22.8295 sf 0 0 m (\2550.001) show NC gr 
 gsave  408 305 1837 1009 C 1880.27 1156.65 t 0 r /Helvetica findfont 22.8295 sf 0 0 m (0) show NC gr 
 gsave  408 305 1837 1009 C 1840.38 1193.68 t 0 r /Helvetica findfont 22.8295 sf 0 0 m (0.001) show NC gr 
 gsave  408 305 1837 1009 C 1837.53 1233.57 t 0 r /Helvetica findfont 22.8295 sf 0 0 m (0.002) show NC gr 
 gsave  408 305 1837 1009 C 1837.53 1273.45 t 0 r /Helvetica findfont 22.8295 sf 0 0 m (0.003) show NC gr  2204 1055 m 229 Y s 2199 1085 m 5 X s 2201 1093 m 3 X s 2201 1100 m 3 X s 2201 1108 m 3 X s 2201 1116 m 3 X s 2199 1124 m 5 X s 2201 1132 m 3 X
 s 2201 1139 m 3 X s 2201 1147 m 3 X s 2201 1155 m 3 X s 2199 1163 m 5 X s 2201 1170 m 3 X s 2201 1178 m 3 X s 2201 1186 m 3 X s 2201 1194 m 3 X s 2199 1202 m 5 X s 2201 1209 m 3 X s 2201 1217 m 3 X s 2201 1225 m 3 X s 2201 1233 m 3 X s 2199 1240 m 5
 X s 2201 1248 m 3 X s 2201 1256 m 3 X s 2201 1264 m 3 X s 2201 1272 m 3 X s 2199 1279 m 5 X s 2199 1085 m 5 X s 2201 1077 m 3 X s 2201 1069 m 3 X s 2201 1061 m 3 X s 2199 1279 m 5 X s 1993 1192 2088 1203 2183 1136 3 { m21} R 1993 1203 m 52 Y s 1987
 1255 m 12 X s 1993 1180 m -51 Y s 1987 1129 m 12 X s 2088 1214 m 51 Y s 2083 1265 m 11 X s 2088 1191 m -50 Y s 2083 1141 m 11 X s 2183 1147 m 50 Y s 2178 1197 m 11 X s 2183 1124 m -50 Y s 2178 1074 m 11 X s 9 lw 0.95 0.95 0.95 c black 1900 1163 m 39
 X 3 1 d 46 X 3 1 d 46 X 3 1 d 10 X s 2050 1166 m 36 X 3 1 d 46 X 3 1 d 46 X 3 1 d 13 X s 2200 1169 m 3 X s 0.49 0.6 0.82 c black 0.49 0.6 0.82 c
 gsave  408 305 1837 1009 C 1957.19 1293.4 t 0 r /Helvetica-Bold findfont 25.6831 sf 0 0 m (2.0 < E < 2.5 GeV) show NC gr  0.52 0.76 0.64 c black 0.52 0.76 0.64 c
 gsave  408 305 1837 1009 C 1942.94 1256.36 t 0 r /Helvetica-Bold findfont 25.6831 sf 0 0 m 
 220 206 192 185 170 163 148 141 125 118 111 97 83 69 61 47 40 25 18
(A = 0.000, p = 1.000) K NC gr  1 0.6 1 c black 1 0.6 1 c
 gsave  408 305 1837 1009 C 2242.08 1122.46 t 90 r /Helvetica-Bold findfont 28.5368 sf 0 0 m (/dof=0.4) show NC gr  black 1 0.6 1 c
 gsave  408 305 1837 1009 C 2230.68 1111.07 t 90 r /Helvetica-Bold findfont 19.9758 sf 0 0 m (2) show NC gr  black 1 0.6 1 c
 gsave  408 305 1837 1009 C 2242.08 1093.97 t 90 r /Symbol findfont 28.5368 sf 0 0 m (c) show NC gr  black 3 lw 1 1 1 c 408 305 23 677 bf black 1 1 1 c black 306 229 84 723 bl 306 229 84 723 bl 84 723 m 306 X s 84 727 m -4 Y s 179 727 m -4 Y s 274
 727 m -4 Y s 369 727 m -4 Y s 369 727 m -4 Y s
 gsave  408 305 23 677 C 74.0711 703.676 t 0 r /Helvetica findfont 22.8295 sf 0 0 m (0) show NC gr 
 gsave  408 305 23 677 C 170.933 703.676 t 0 r /Helvetica findfont 22.8295 sf 0 0 m (1) show NC gr 
 gsave  408 305 23 677 C 264.947 703.676 t 0 r /Helvetica findfont 22.8295 sf 0 0 m (2) show NC gr 
 gsave  408 305 23 677 C 358.96 703.676 t 0 r /Helvetica findfont 22.8295 sf 0 0 m (3) show NC gr  84 952 m 306 X s 84 948 m 4 Y s 179 948 m 4 Y s 274 948 m 4 Y s 369 948 m 4 Y s 369 948 m 4 Y s 84 723 m 229 Y s 89 731 m -5 X s 87 742 m -3 X s 87 752
 m -3 X s 87 763 m -3 X s 89 773 m -5 X s 87 783 m -3 X s 87 794 m -3 X s 87 804 m -3 X s 89 815 m -5 X s 87 825 m -3 X s 87 836 m -3 X s 87 846 m -3 X s 89 857 m -5 X s 87 867 m -3 X s 87 878 m -3 X s 87 888 m -3 X s 89 899 m -5 X s 87 909 m -3 X s
 87 920 m -3 X s 87 930 m -3 X s 89 940 m -5 X s 89 731 m -5 X s 89 940 m -5 X s 87 951 m -3 X s
 gsave  408 305 23 677 C 31.3378 723.618 t 0 r /Helvetica findfont 22.8295 sf 0 0 m (\2550.01) show NC gr 
 gsave  408 305 23 677 C 14.2445 766.351 t 0 r /Helvetica findfont 22.8295 sf 0 0 m (\2550.008) show NC gr 
 gsave  408 305 23 677 C 14.2445 809.085 t 0 r /Helvetica findfont 22.8295 sf 0 0 m (\2550.006) show NC gr 
 gsave  408 305 23 677 C 14.2445 848.969 t 0 r /Helvetica findfont 22.8295 sf 0 0 m (\2550.004) show NC gr 
 gsave  408 305 23 677 C 14.2445 891.703 t 0 r /Helvetica findfont 22.8295 sf 0 0 m (\2550.002) show NC gr 
 gsave  408 305 23 677 C 65.5245 934.436 t 0 r /Helvetica findfont 22.8295 sf 0 0 m (0) show NC gr  390 723 m 229 Y s 385 731 m 5 X s 387 742 m 3 X s 387 752 m 3 X s 387 763 m 3 X s 385 773 m 5 X s 387 783 m 3 X s 387 794 m 3 X s 387 804 m 3 X s 385
 815 m 5 X s 387 825 m 3 X s 387 836 m 3 X s 387 846 m 3 X s 385 857 m 5 X s 387 867 m 3 X s 387 878 m 3 X s 387 888 m 3 X s 385 899 m 5 X s 387 909 m 3 X s 387 920 m 3 X s 387 930 m 3 X s 385 940 m 5 X s 385 731 m 5 X s 385 940 m 5 X s 387 951 m 3 X
 s /w 22 def /w2 {w 2 div} def /w3 {w 3 div} def 179 897 274 860 369 778 3 { m21} R 179 908 m 25 Y s 173 933 m 12 X s 179 886 m -25 Y s 173 861 m 12 X s 274 871 m 25 Y s 268 896 m 12 X s 274 849 m -25 Y s 268 824 m 12 X s 369 789 m 24 Y s 363 813 m
 12 X s 369 766 m -24 Y s 363 742 m 12 X s 9 lw 0.95 0.95 0.95 c black 85 940 m 3 -2 d 4 -2 d 3 -1 d 3 -2 d 3 -1 d 3 -2 d 3 -1 d 3 -2 d 3 -2 d 3 -1 d 3 -2 d 3 -1 d 3 -2 d 3 -2 d 3 -1 d 3 -2 d 3 -1 d 4 -2 d 3 -2 d 3 -1 d 3 -2 d 3 -1 d 3 -2 d 3 -2 d 3
 -1 d 3 -2 d 3 -1 d 3 -2 d 3 -2 d 3 -1 d 3 -2 d 3 -1 d 3 -2 d 4 -2 d 3 -1 d 3 -2 d 3 -1 d 3 -2 d 3 -2 d 3 -1 d 3 -2 d 3 -1 d 3 -2 d 3 -2 d 3 -1 d 3 -2 d 3 -1 d 3 -2 d 3 -1 d s 235 862 m 4 -2 d 3 -2 d 3 -1 d 3 -2 d 3 -1 d 3 -2 d 3 -2 d 3 -1 d 3 -2 d 3
 -1 d 3 -2 d 3 -2 d 3 -1 d 3 -2 d 3 -1 d 3 -2 d 3 -2 d 4 -1 d 3 -2 d 3 -1 d 3 -2 d 3 -2 d 3 -1 d 3 -2 d 3 -1 d 3 -2 d 3 -2 d 3 -1 d 3 -2 d 3 -1 d 3 -2 d 3 -2 d 3 -1 d 4 -2 d 3 -1 d 3 -2 d 3 -2 d 3 -1 d 3 -2 d 3 -1 d 3 -2 d 3 -1 d 3 -2 d 3 -2 d 3 -1 d
 3 -2 d 3 -1 d 3 -2 d 3 -2 d s 385 783 m 4 -1 d s 0.49 0.6 0.82 c black 0.49 0.6 0.82 c
 gsave  408 305 23 677 C 142.445 960.076 t 0 r /Helvetica-Bold findfont 25.6831 sf 0 0 m (2.5 < E < 3.0 GeV) show NC gr  0.52 0.76 0.64 c black 0.52 0.76 0.64 c
 gsave  408 305 23 677 C 122.502 923.04 t 0 r /Helvetica-Bold findfont 25.6831 sf 0 0 m 
 228 214 200 193 178 171 156 149 134 126 119 105 91 77 69 55 47 39 25 17
(A = \2550.002, p = 1.000) K NC gr  1 0.6 1 c black 1 0.6 1 c
 gsave  408 305 23 677 C 427.334 791.991 t 90 r /Helvetica-Bold findfont 28.5368 sf 0 0 m (/dof=0.2) show NC gr  black 1 0.6 1 c
 gsave  408 305 23 677 C 415.938 780.596 t 90 r /Helvetica-Bold findfont 19.9758 sf 0 0 m (2) show NC gr  black 1 0.6 1 c
 gsave  408 305 23 677 C 427.334 763.503 t 90 r /Symbol findfont 28.5368 sf 0 0 m (c) show NC gr  black 3 lw 1 1 1 c 408 305 476 677 bf black 1 1 1 c black 307 229 537 723 bl 307 229 537 723 bl 537 723 m 307 X s 537 727 m -4 Y s 633 727 m -4 Y s 728
 727 m -4 Y s 823 727 m -4 Y s 823 727 m -4 Y s
 gsave  408 305 476 677 C 527.045 703.676 t 0 r /Helvetica findfont 22.8295 sf 0 0 m (0) show NC gr 
 gsave  408 305 476 677 C 626.756 703.676 t 0 r /Helvetica findfont 22.8295 sf 0 0 m (1) show NC gr 
 gsave  408 305 476 677 C 717.92 703.676 t 0 r /Helvetica findfont 22.8295 sf 0 0 m (2) show NC gr 
 gsave  408 305 476 677 C 811.934 703.676 t 0 r /Helvetica findfont 22.8295 sf 0 0 m (3) show NC gr  537 952 m 307 X s 537 948 m 4 Y s 633 948 m 4 Y s 728 948 m 4 Y s 823 948 m 4 Y s 823 948 m 4 Y s 537 723 m 229 Y s 543 733 m -6 X s 540 739 m -3 X s
 540 745 m -3 X s 540 751 m -3 X s 543 757 m -6 X s 540 763 m -3 X s 540 770 m -3 X s 540 776 m -3 X s 543 782 m -6 X s 540 788 m -3 X s 540 794 m -3 X s 540 800 m -3 X s 543 806 m -6 X s 540 812 m -3 X s 540 818 m -3 X s 540 825 m -3 X s 543 831 m
 -6 X s 540 837 m -3 X s 540 843 m -3 X s 540 849 m -3 X s 543 855 m -6 X s 540 861 m -3 X s 540 867 m -3 X s 540 874 m -3 X s 543 880 m -6 X s 540 886 m -3 X s 540 892 m -3 X s 540 898 m -3 X s 543 904 m -6 X s 540 910 m -3 X s 540 916 m -3 X s 540
 922 m -3 X s 543 929 m -6 X s 543 733 m -6 X s 540 727 m -3 X s 543 929 m -6 X s 540 935 m -3 X s 540 941 m -3 X s 540 947 m -3 X s
 gsave  408 305 476 677 C 467.218 726.467 t 0 r /Helvetica findfont 22.8295 sf 0 0 m (\2550.016) show NC gr 
 gsave  408 305 476 677 C 467.218 749.258 t 0 r /Helvetica findfont 22.8295 sf 0 0 m (\2550.014) show NC gr 
 gsave  408 305 476 677 C 467.218 774.898 t 0 r /Helvetica findfont 22.8295 sf 0 0 m (\2550.012) show NC gr 
 gsave  408 305 476 677 C 484.311 800.538 t 0 r /Helvetica findfont 22.8295 sf 0 0 m (\2550.01) show NC gr 
 gsave  408 305 476 677 C 467.218 823.329 t 0 r /Helvetica findfont 22.8295 sf 0 0 m (\2550.008) show NC gr 
 gsave  408 305 476 677 C 467.218 848.969 t 0 r /Helvetica findfont 22.8295 sf 0 0 m (\2550.006) show NC gr 
 gsave  408 305 476 677 C 467.218 871.76 t 0 r /Helvetica findfont 22.8295 sf 0 0 m (\2550.004) show NC gr 
 gsave  408 305 476 677 C 467.218 897.4 t 0 r /Helvetica findfont 22.8295 sf 0 0 m (\2550.002) show NC gr 
 gsave  408 305 476 677 C 518.498 920.192 t 0 r /Helvetica findfont 22.8295 sf 0 0 m (0) show NC gr  844 723 m 229 Y s 838 733 m 6 X s 841 739 m 3 X s 841 745 m 3 X s 841 751 m 3 X s 838 757 m 6 X s 841 763 m 3 X s 841 770 m 3 X s 841 776 m 3 X s 838
 782 m 6 X s 841 788 m 3 X s 841 794 m 3 X s 841 800 m 3 X s 838 806 m 6 X s 841 812 m 3 X s 841 818 m 3 X s 841 825 m 3 X s 838 831 m 6 X s 841 837 m 3 X s 841 843 m 3 X s 841 849 m 3 X s 838 855 m 6 X s 841 861 m 3 X s 841 867 m 3 X s 841 874 m 3 X
 s 838 880 m 6 X s 841 886 m 3 X s 841 892 m 3 X s 841 898 m 3 X s 838 904 m 6 X s 841 910 m 3 X s 841 916 m 3 X s 841 922 m 3 X s 838 929 m 6 X s 838 733 m 6 X s 841 727 m 3 X s 838 929 m 6 X s 841 935 m 3 X s 841 941 m 3 X s 841 947 m 3 X s /w 23
 def /w2 {w 2 div} def /w3 {w 3 div} def 633 909 728 875 823 765 3 { m21} R 633 921 m 12 Y s 627 933 m 11 X s 633 898 m -12 Y s 627 886 m 11 X s 728 887 m 12 Y s 722 899 m 11 X s 728 864 m -12 Y s 722 852 m 11 X s 823 777 m 12 Y s 817 789 m 11 X s
 823 754 m -12 Y s 817 742 m 11 X s 1 0 0 c 9 lw 0.95 0.95 0.95 c black 1 0 0 c 539 929 m 3 X 3 -1 d 15 X 3 -1 d 7 X 3 -1 d 3 X 3 -1 d 3 X 3 -1 d 3 X 3 -1 d 3 -1 d 3 X 3 -1 d 3 -1 d 3 -1 d 3 X 3 -1 d 4 -1 d 3 -1 d 3 -1 d 3 -1 d 3 -1 d 3 -1 d 3 -1 d 3
 -1 d 3 -2 d 3 -1 d 3 -1 d 3 -1 d 3 -2 d 3 -1 d 3 -2 d 3 -1 d 3 -1 d 4 -2 d 3 -2 d 3 -1 d 3 -2 d 3 -1 d 3 -2 d 3 -2 d 3 -2 d s 689 884 m 3 -1 d 3 -2 d 3 -2 d 3 -2 d 3 -2 d 3 -2 d 3 -2 d 3 -2 d 4 -2 d 3 -2 d 3 -2 d 3 -3 d 3 -2 d 3 -2 d 3 -2 d 3 -3 d 3
 -2 d 3 -3 d 3 -2 d 3 -2 d 3 -3 d 3 -3 d 3 -2 d 3 -3 d 4 -2 d 3 -3 d 3 -3 d 3 -3 d 3 -2 d 3 -3 d 3 -3 d 3 -3 d 3 -3 d 3 -3 d 3 -3 d 3 -3 d 3 -3 d 3 -3 d 3 -4 d 3 -3 d 4 -3 d 3 -3 d 3 -4 d 3 -3 d 3 -3 d 3 -4 d 3 -3 d 3 -4 d 3 -3 d s 839 754 m 3 -4 d s
 0.49 0.6 0.82 c black 0.49 0.6 0.82 c
 gsave  408 305 476 677 C 595.418 960.076 t 0 r /Helvetica-Bold findfont 25.6831 sf 0 0 m (3.0 < E < 3.5 GeV) show NC gr  0.52 0.76 0.64 c black 0.52 0.76 0.64 c
 gsave  408 305 476 677 C 575.476 923.04 t 0 r /Helvetica-Bold findfont 25.6831 sf 0 0 m 
 228 214 200 193 178 171 156 149 133 126 119 105 91 76 69 55 47 39 25 17
(A = \2550.001, p = 2.000) K NC gr  1 0.6 1 c black 1 0.6 1 c
 gsave  408 305 476 677 C 883.156 791.991 t 90 r /Helvetica-Bold findfont 28.5368 sf 0 0 m (/dof=0.3) show NC gr  black 1 0.6 1 c
 gsave  408 305 476 677 C 871.76 780.596 t 90 r /Helvetica-Bold findfont 19.9758 sf 0 0 m (2) show NC gr  black 1 0.6 1 c
 gsave  408 305 476 677 C 883.156 763.503 t 90 r /Symbol findfont 28.5368 sf 0 0 m (c) show NC gr  black 3 lw 1 1 1 c 408 305 930 677 bf black 1 1 1 c black 306 229 991 723 bl 306 229 991 723 bl 991 723 m 306 X s 991 727 m -4 Y s 1086 727 m -4 Y s
 1181 727 m -4 Y s 1276 727 m -4 Y s 1276 727 m -4 Y s
 gsave  408 305 930 677 C 980.018 703.676 t 0 r /Helvetica findfont 22.8295 sf 0 0 m (0) show NC gr 
 gsave  408 305 930 677 C 1079.73 703.676 t 0 r /Helvetica findfont 22.8295 sf 0 0 m (1) show NC gr 
 gsave  408 305 930 677 C 1170.89 703.676 t 0 r /Helvetica findfont 22.8295 sf 0 0 m (2) show NC gr 
 gsave  408 305 930 677 C 1264.91 703.676 t 0 r /Helvetica findfont 22.8295 sf 0 0 m (3) show NC gr  991 952 m 306 X s 991 948 m 4 Y s 1086 948 m 4 Y s 1181 948 m 4 Y s 1276 948 m 4 Y s 1276 948 m 4 Y s 991 723 m 229 Y s 997 733 m -6 X s 994 743 m -3
 X s 994 752 m -3 X s 994 762 m -3 X s 994 772 m -3 X s 997 782 m -6 X s 994 792 m -3 X s 994 802 m -3 X s 994 811 m -3 X s 994 821 m -3 X s 997 831 m -6 X s 994 841 m -3 X s 994 851 m -3 X s 994 861 m -3 X s 994 870 m -3 X s 997 880 m -6 X s 994 890
 m -3 X s 994 900 m -3 X s 994 910 m -3 X s 994 920 m -3 X s 997 929 m -6 X s 997 733 m -6 X s 994 723 m -3 X s 997 929 m -6 X s 994 939 m -3 X s 994 949 m -3 X s
 gsave  408 305 930 677 C 923.04 726.467 t 0 r /Helvetica findfont 22.8295 sf 0 0 m (\2550.015) show NC gr 
 gsave  408 305 930 677 C 940.134 774.898 t 0 r /Helvetica findfont 22.8295 sf 0 0 m (\2550.01) show NC gr 
 gsave  408 305 930 677 C 923.04 823.329 t 0 r /Helvetica findfont 22.8295 sf 0 0 m (\2550.005) show NC gr 
 gsave  408 305 930 677 C 974.32 871.76 t 0 r /Helvetica findfont 22.8295 sf 0 0 m (0) show NC gr 
 gsave  408 305 930 677 C 931.587 923.04 t 0 r /Helvetica findfont 22.8295 sf 0 0 m (0.005) show NC gr  1297 723 m 229 Y s 1292 733 m 5 X s 1294 743 m 3 X s 1294 752 m 3 X s 1294 762 m 3 X s 1294 772 m 3 X s 1292 782 m 5 X s 1294 792 m 3 X s 1294 802
 m 3 X s 1294 811 m 3 X s 1294 821 m 3 X s 1292 831 m 5 X s 1294 841 m 3 X s 1294 851 m 3 X s 1294 861 m 3 X s 1294 870 m 3 X s 1292 880 m 5 X s 1294 890 m 3 X s 1294 900 m 3 X s 1294 910 m 3 X s 1294 920 m 3 X s 1292 929 m 5 X s 1292 733 m 5 X s
 1294 723 m 3 X s 1292 929 m 5 X s 1294 939 m 3 X s 1294 949 m 3 X s 1086 910 1181 847 1276 765 3 { m21} R 1086 921 m 12 Y s 1080 933 m 12 X s 1086 898 m -11 Y s 1080 887 m 12 X s 1181 858 m 12 Y s 1175 870 m 12 X s 1181 835 m -11 Y s 1175 824 m 12 X
 s 1276 776 m 12 Y s 1271 788 m 11 X s 1276 754 m -12 Y s 1271 742 m 11 X s 1 0 0 c 9 lw 0.95 0.95 0.95 c black 1 0 0 c 993 880 m 21 X 3 -1 d 9 X 3 -1 d 6 X 3 -1 d 4 X 3 -1 d 6 X 3 -1 d 3 X 3 -1 d 3 X 3 -1 d 3 -1 d 3 X 3 -1 d 3 -1 d 3 X 3 -1 d 3 -1 d
 3 -1 d 4 X 3 -1 d 3 -1 d 3 -1 d 3 -1 d 3 -1 d 3 -1 d 3 -1 d 3 -1 d 3 -1 d 3 -1 d 3 -1 d 3 -1 d 3 -1 d 3 -1 d 3 -1 d 4 -1 d s 1143 851 m 3 -2 d 3 -1 d 3 -1 d 3 -1 d 3 -2 d 3 -1 d 3 -1 d 3 -2 d 3 -1 d 3 -2 d 3 -1 d 3 -2 d 3 -1 d 3 -2 d 3 -1 d 4 -2 d 3
 -1 d 3 -2 d 3 -2 d 3 -1 d 3 -2 d 3 -2 d 3 -1 d 3 -2 d 3 -2 d 3 -2 d 3 -2 d 3 -1 d 3 -2 d 3 -2 d 3 -2 d 3 -2 d 4 -2 d 3 -2 d 3 -2 d 3 -2 d 3 -2 d 3 -2 d 3 -2 d 3 -3 d 3 -2 d 3 -2 d 3 -2 d 3 -2 d 3 -3 d 3 -2 d 3 -2 d 3 -3 d 4 -2 d s 1293 763 m 3 -2 d
 s 0.49 0.6 0.82 c black 0.49 0.6 0.82 c
 gsave  408 305 930 677 C 1051.24 960.076 t 0 r /Helvetica-Bold findfont 25.6831 sf 0 0 m (3.5 < E < 4.0 GeV) show NC gr  0.52 0.76 0.64 c black 0.52 0.76 0.64 c
 gsave  408 305 930 677 C 1031.3 923.04 t 0 r /Helvetica-Bold findfont 25.6831 sf 0 0 m 
 228 214 200 193 178 171 156 149 133 126 119 105 91 77 69 55 47 39 25 17
(A = \2550.001, p = 2.000) K NC gr  1 0.6 1 c black 1 0.6 1 c
 gsave  408 305 930 677 C 1336.13 791.991 t 90 r /Helvetica-Bold findfont 28.5368 sf 0 0 m (/dof=1.9) show NC gr  black 1 0.6 1 c
 gsave  408 305 930 677 C 1324.73 780.596 t 90 r /Helvetica-Bold findfont 19.9758 sf 0 0 m (2) show NC gr  black 1 0.6 1 c
 gsave  408 305 930 677 C 1336.13 763.503 t 90 r /Symbol findfont 28.5368 sf 0 0 m (c) show NC gr  black 3 lw 1 1 1 c 408 305 1383 677 bf black 1 1 1 c black 306 229 1445 723 bl 306 229 1445 723 bl 1445 723 m 306 X s 1445 727 m -4 Y s 1540 727 m -4 Y
 s 1635 727 m -4 Y s 1730 727 m -4 Y s 1730 727 m -4 Y s
 gsave  408 305 1383 677 C 1435.84 703.676 t 0 r /Helvetica findfont 22.8295 sf 0 0 m (0) show NC gr 
 gsave  408 305 1383 677 C 1532.7 703.676 t 0 r /Helvetica findfont 22.8295 sf 0 0 m (1) show NC gr 
 gsave  408 305 1383 677 C 1623.87 703.676 t 0 r /Helvetica findfont 22.8295 sf 0 0 m (2) show NC gr 
 gsave  408 305 1383 677 C 1720.73 703.676 t 0 r /Helvetica findfont 22.8295 sf 0 0 m (3) show NC gr  1445 952 m 306 X s 1445 948 m 4 Y s 1540 948 m 4 Y s 1635 948 m 4 Y s 1730 948 m 4 Y s 1730 948 m 4 Y s 1445 723 m 229 Y s 1450 735 m -5 X s 1447
 740 m -2 X s 1447 746 m -2 X s 1447 751 m -2 X s 1450 756 m -5 X s 1447 762 m -2 X s 1447 767 m -2 X s 1447 772 m -2 X s 1450 778 m -5 X s 1447 783 m -2 X s 1447 788 m -2 X s 1447 794 m -2 X s 1450 799 m -5 X s 1447 804 m -2 X s 1447 810 m -2 X s
 1447 815 m -2 X s 1450 820 m -5 X s 1447 826 m -2 X s 1447 831 m -2 X s 1447 837 m -2 X s 1450 842 m -5 X s 1447 847 m -2 X s 1447 853 m -2 X s 1447 858 m -2 X s 1450 863 m -5 X s 1447 869 m -2 X s 1447 874 m -2 X s 1447 879 m -2 X s 1450 885 m -5 X
 s 1447 890 m -2 X s 1447 895 m -2 X s 1447 901 m -2 X s 1450 906 m -5 X s 1447 912 m -2 X s 1447 917 m -2 X s 1447 922 m -2 X s 1450 928 m -5 X s 1447 933 m -2 X s 1447 938 m -2 X s 1447 944 m -2 X s 1450 949 m -5 X s 1450 735 m -5 X s 1447 729 m -2
 X s 1447 724 m -2 X s 1450 949 m -5 X s
 gsave  408 305 1383 677 C 1376.01 726.467 t 0 r /Helvetica findfont 22.8295 sf 0 0 m (\2550.002) show NC gr 
 gsave  408 305 1383 677 C 1427.29 749.258 t 0 r /Helvetica findfont 22.8295 sf 0 0 m (0) show NC gr 
 gsave  408 305 1383 677 C 1384.56 769.2 t 0 r /Helvetica findfont 22.8295 sf 0 0 m (0.002) show NC gr 
 gsave  408 305 1383 677 C 1384.56 791.991 t 0 r /Helvetica findfont 22.8295 sf 0 0 m (0.004) show NC gr 
 gsave  408 305 1383 677 C 1384.56 814.783 t 0 r /Helvetica findfont 22.8295 sf 0 0 m (0.006) show NC gr 
 gsave  408 305 1383 677 C 1384.56 834.725 t 0 r /Helvetica findfont 22.8295 sf 0 0 m (0.008) show NC gr 
 gsave  408 305 1383 677 C 1398.81 857.516 t 0 r /Helvetica findfont 22.8295 sf 0 0 m (0.01) show NC gr 
 gsave  408 305 1383 677 C 1384.56 877.458 t 0 r /Helvetica findfont 22.8295 sf 0 0 m (0.012) show NC gr 
 gsave  408 305 1383 677 C 1384.56 900.249 t 0 r /Helvetica findfont 22.8295 sf 0 0 m (0.014) show NC gr 
 gsave  408 305 1383 677 C 1384.56 920.192 t 0 r /Helvetica findfont 22.8295 sf 0 0 m (0.016) show NC gr 
 gsave  408 305 1383 677 C 1384.56 942.983 t 0 r /Helvetica findfont 22.8295 sf 0 0 m (0.018) show NC gr  1751 723 m 229 Y s 1745 735 m 6 X s 1748 740 m 3 X s 1748 746 m 3 X s 1748 751 m 3 X s 1745 756 m 6 X s 1748 762 m 3 X s 1748 767 m 3 X s 1748
 772 m 3 X s 1745 778 m 6 X s 1748 783 m 3 X s 1748 788 m 3 X s 1748 794 m 3 X s 1745 799 m 6 X s 1748 804 m 3 X s 1748 810 m 3 X s 1748 815 m 3 X s 1745 820 m 6 X s 1748 826 m 3 X s 1748 831 m 3 X s 1748 837 m 3 X s 1745 842 m 6 X s 1748 847 m 3 X s
 1748 853 m 3 X s 1748 858 m 3 X s 1745 863 m 6 X s 1748 869 m 3 X s 1748 874 m 3 X s 1748 879 m 3 X s 1745 885 m 6 X s 1748 890 m 3 X s 1748 895 m 3 X s 1748 901 m 3 X s 1745 906 m 6 X s 1748 912 m 3 X s 1748 917 m 3 X s 1748 922 m 3 X s 1745 928 m
 6 X s 1748 933 m 3 X s 1748 938 m 3 X s 1748 944 m 3 X s 1745 949 m 6 X s 1745 735 m 6 X s 1748 729 m 3 X s 1748 724 m 3 X s 1745 949 m 6 X s 1540 775 1635 847 1730 899 3 { m21} R 1540 786 m 22 Y s 1534 808 m 11 X s 1540 764 m -22 Y s 1534 742 m 11
 X s 1635 858 m 22 Y s 1629 880 m 11 X s 1635 835 m -22 Y s 1629 813 m 11 X s 1730 910 m 23 Y s 1724 933 m 11 X s 1730 888 m -23 Y s 1724 865 m 11 X s 1 0 0 c 9 lw 0.95 0.95 0.95 c black 1 0 0 c 1446 756 m 9 X 3 1 d 13 X 3 1 d 3 X 3 1 d 6 X 3 1 d 3 X
 3 1 d 3 1 d 3 X 3 1 d 3 1 d 3 X 3 1 d 3 1 d 4 1 d 3 1 d 3 1 d 3 1 d 3 1 d 3 1 d 3 1 d 3 1 d 3 1 d 3 1 d 3 1 d 3 1 d 3 2 d 3 1 d 3 1 d 3 2 d 4 1 d 3 2 d 3 1 d 3 2 d 3 1 d 3 2 d 3 1 d 3 2 d 3 2 d 3 1 d s 1596 799 m 3 2 d 3 2 d 3 2 d 3 2 d 3 2 d 3 2 d
 4 2 d 3 2 d 3 2 d 3 2 d 3 2 d 3 2 d 3 2 d 3 2 d 3 3 d 3 2 d 3 2 d 3 3 d 3 2 d 3 2 d 3 3 d 3 2 d 3 3 d 4 3 d 3 2 d 3 3 d 3 3 d 3 2 d 3 3 d 3 3 d 3 3 d 3 2 d 3 3 d 3 3 d 3 3 d 3 3 d 3 3 d 3 3 d 3 3 d 4 4 d 3 3 d 3 3 d 3 3 d 3 4 d 3 3 d 3 3 d 3 4 d 3 3
 d 3 3 d s 1746 927 m 3 4 d s 0.49 0.6 0.82 c black 0.49 0.6 0.82 c
 gsave  408 305 1383 677 C 1504.21 960.076 t 0 r /Helvetica-Bold findfont 25.6831 sf 0 0 m (4.0 < E < 4.5 GeV) show NC gr  0.52 0.76 0.64 c black 0.52 0.76 0.64 c
 gsave  408 305 1383 677 C 1489.97 923.04 t 0 r /Helvetica-Bold findfont 25.6831 sf 0 0 m 
 220 206 192 185 170 163 148 141 126 118 111 97 83 69 61 47 40 25 18
(A = 0.002, p = 2.000) K NC gr  1 0.6 1 c black 1 0.6 1 c
 gsave  408 305 1383 677 C 1789.1 791.991 t 90 r /Helvetica-Bold findfont 28.5368 sf 0 0 m (/dof=0.3) show NC gr  black 1 0.6 1 c
 gsave  408 305 1383 677 C 1777.71 780.596 t 90 r /Helvetica-Bold findfont 19.9758 sf 0 0 m (2) show NC gr  black 1 0.6 1 c
 gsave  408 305 1383 677 C 1789.1 763.503 t 90 r /Symbol findfont 28.5368 sf 0 0 m (c) show NC gr  black 3 lw 1 1 1 c 408 305 1837 677 bf black 1 1 1 c black 306 229 1898 723 bl 306 229 1898 723 bl 1898 723 m 306 X s 1898 727 m -4 Y s 1993 727 m -4 Y
 s 2088 727 m -4 Y s 2183 727 m -4 Y s 2183 727 m -4 Y s
 gsave  408 305 1837 677 C 1888.81 703.676 t 0 r /Helvetica findfont 22.8295 sf 0 0 m (0) show NC gr 
 gsave  408 305 1837 677 C 1985.68 703.676 t 0 r /Helvetica findfont 22.8295 sf 0 0 m (1) show NC gr 
 gsave  408 305 1837 677 C 2076.84 703.676 t 0 r /Helvetica findfont 22.8295 sf 0 0 m (2) show NC gr 
 gsave  408 305 1837 677 C 2173.7 703.676 t 0 r /Helvetica findfont 22.8295 sf 0 0 m (3) show NC gr  1898 952 m 306 X s 1898 948 m 4 Y s 1993 948 m 4 Y s 2088 948 m 4 Y s 2183 948 m 4 Y s 2183 948 m 4 Y s 1898 723 m 229 Y s 1904 723 m -6 X s 1901 728
 m -3 X s 1901 734 m -3 X s 1901 739 m -3 X s 1901 745 m -3 X s 1904 751 m -6 X s 1901 756 m -3 X s 1901 762 m -3 X s 1901 767 m -3 X s 1901 773 m -3 X s 1904 778 m -6 X s 1901 784 m -3 X s 1901 789 m -3 X s 1901 795 m -3 X s 1901 800 m -3 X s 1904
 806 m -6 X s 1901 812 m -3 X s 1901 817 m -3 X s 1901 823 m -3 X s 1901 828 m -3 X s 1904 834 m -6 X s 1901 839 m -3 X s 1901 845 m -3 X s 1901 850 m -3 X s 1901 856 m -3 X s 1904 861 m -6 X s 1901 867 m -3 X s 1901 873 m -3 X s 1901 878 m -3 X s
 1901 884 m -3 X s 1904 889 m -6 X s 1901 895 m -3 X s 1901 900 m -3 X s 1901 906 m -3 X s 1901 911 m -3 X s 1904 917 m -6 X s 1901 922 m -3 X s 1901 928 m -3 X s 1901 933 m -3 X s 1901 939 m -3 X s 1904 945 m -6 X s 1904 945 m -6 X s 1901 950 m -3 X
 s
 gsave  408 305 1837 677 C 1880.27 715.071 t 0 r /Helvetica findfont 22.8295 sf 0 0 m (0) show NC gr 
 gsave  408 305 1837 677 C 1837.53 743.56 t 0 r /Helvetica findfont 22.8295 sf 0 0 m (0.005) show NC gr 
 gsave  408 305 1837 677 C 1851.78 772.049 t 0 r /Helvetica findfont 22.8295 sf 0 0 m (0.01) show NC gr 
 gsave  408 305 1837 677 C 1837.53 797.689 t 0 r /Helvetica findfont 22.8295 sf 0 0 m (0.015) show NC gr 
 gsave  408 305 1837 677 C 1848.93 826.178 t 0 r /Helvetica findfont 22.8295 sf 0 0 m (0.02) show NC gr 
 gsave  408 305 1837 677 C 1837.53 854.667 t 0 r /Helvetica findfont 22.8295 sf 0 0 m (0.025) show NC gr 
 gsave  408 305 1837 677 C 1848.93 883.156 t 0 r /Helvetica findfont 22.8295 sf 0 0 m (0.03) show NC gr 
 gsave  408 305 1837 677 C 1837.53 908.796 t 0 r /Helvetica findfont 22.8295 sf 0 0 m (0.035) show NC gr 
 gsave  408 305 1837 677 C 1848.93 937.285 t 0 r /Helvetica findfont 22.8295 sf 0 0 m (0.04) show NC gr  2204 723 m 229 Y s 2199 723 m 5 X s 2201 728 m 3 X s 2201 734 m 3 X s 2201 739 m 3 X s 2201 745 m 3 X s 2199 751 m 5 X s 2201 756 m 3 X s 2201
 762 m 3 X s 2201 767 m 3 X s 2201 773 m 3 X s 2199 778 m 5 X s 2201 784 m 3 X s 2201 789 m 3 X s 2201 795 m 3 X s 2201 800 m 3 X s 2199 806 m 5 X s 2201 812 m 3 X s 2201 817 m 3 X s 2201 823 m 3 X s 2201 828 m 3 X s 2199 834 m 5 X s 2201 839 m 3 X s
 2201 845 m 3 X s 2201 850 m 3 X s 2201 856 m 3 X s 2199 861 m 5 X s 2201 867 m 3 X s 2201 873 m 3 X s 2201 878 m 3 X s 2201 884 m 3 X s 2199 889 m 5 X s 2201 895 m 3 X s 2201 900 m 3 X s 2201 906 m 3 X s 2201 911 m 3 X s 2199 917 m 5 X s 2201 922 m
 3 X s 2201 928 m 3 X s 2201 933 m 3 X s 2201 939 m 3 X s 2199 945 m 5 X s 2199 945 m 5 X s 2201 950 m 3 X s 1993 764 2088 804 2183 909 3 { m21} R 1993 776 m 11 Y s 1987 787 m 12 X s 1993 753 m -12 Y s 1987 741 m 12 X s 2088 816 m 11 Y s 2083 827 m
 11 X s 2088 793 m -12 Y s 2083 781 m 11 X s 2183 920 m 13 Y s 2178 933 m 11 X s 2183 898 m -13 Y s 2178 885 m 11 X s 1 0 0 c 9 lw 0.95 0.95 0.95 c black 1 0 0 c 1900 723 m 12 X 3 1 d 9 X 3 1 d 3 X 3 1 d 3 X 3 1 d 3 X 4 1 d 3 1 d 3 X 3 1 d 3 1 d 3 1
 d 3 1 d 3 1 d 3 1 d 3 1 d 3 1 d 3 1 d 3 1 d 3 1 d 3 2 d 3 1 d 4 1 d 3 2 d 3 1 d 3 2 d 3 1 d 3 2 d 3 1 d 3 2 d 3 2 d 3 1 d 3 2 d 3 2 d 3 2 d 3 2 d 3 2 d 3 2 d 3 2 d 4 2 d 3 2 d s 2050 776 m 3 2 d 3 2 d 3 2 d 3 3 d 3 2 d 3 2 d 3 3 d 3 2 d 3 3 d 3 2 d
 3 3 d 3 3 d 3 2 d 3 3 d 4 3 d 3 3 d 3 2 d 3 3 d 3 3 d 3 3 d 3 3 d 3 3 d 3 3 d 3 4 d 3 3 d 3 3 d 3 3 d 3 4 d 3 3 d 3 3 d 4 4 d 3 3 d 3 4 d 3 4 d 3 3 d 3 4 d 3 4 d 3 3 d 3 4 d 3 4 d 3 4 d 3 4 d 3 4 d 3 4 d 3 4 d 3 4 d 4 4 d 3 4 d 3 5 d s 2200 933 m 3
 4 d s 0.49 0.6 0.82 c black 0.49 0.6 0.82 c
 gsave  408 305 1837 677 C 1957.19 960.076 t 0 r /Helvetica-Bold findfont 25.6831 sf 0 0 m (4.5 < E < 5.0 GeV) show NC gr  0.52 0.76 0.64 c black 0.52 0.76 0.64 c
 gsave  408 305 1837 677 C 1942.94 923.04 t 0 r /Helvetica-Bold findfont 25.6831 sf 0 0 m 
 220 206 192 185 170 163 148 141 125 118 111 97 83 69 61 47 40 25 18
(A = 0.004, p = 2.000) K NC gr  1 0.6 1 c black 1 0.6 1 c
 gsave  408 305 1837 677 C 2242.08 791.991 t 90 r /Helvetica-Bold findfont 28.5368 sf 0 0 m (/dof=0.4) show NC gr  black 1 0.6 1 c
 gsave  408 305 1837 677 C 2230.68 780.596 t 90 r /Helvetica-Bold findfont 19.9758 sf 0 0 m (2) show NC gr  black 1 0.6 1 c
 gsave  408 305 1837 677 C 2242.08 763.503 t 90 r /Symbol findfont 28.5368 sf 0 0 m (c) show NC gr  black 3 lw 1 1 1 c 408 306 23 345 bf black 1 1 1 c black 306 229 84 391 bl 306 229 84 391 bl 84 391 m 306 X s 84 395 m -4 Y s 179 395 m -4 Y s 274 395
 m -4 Y s 369 395 m -4 Y s 369 395 m -4 Y s
 gsave  408 306 23 345 C 74.0711 370.356 t 0 r /Helvetica findfont 22.8295 sf 0 0 m (0) show NC gr 
 gsave  408 306 23 345 C 170.933 370.356 t 0 r /Helvetica findfont 22.8295 sf 0 0 m (1) show NC gr 
 gsave  408 306 23 345 C 264.947 370.356 t 0 r /Helvetica findfont 22.8295 sf 0 0 m (2) show NC gr 
 gsave  408 306 23 345 C 358.96 370.356 t 0 r /Helvetica findfont 22.8295 sf 0 0 m (3) show NC gr  84 620 m 306 X s 84 616 m 4 Y s 179 616 m 4 Y s 274 616 m 4 Y s 369 616 m 4 Y s 369 616 m 4 Y s 84 391 m 229 Y s 89 423 m -5 X s 87 431 m -3 X s 87 439
 m -3 X s 87 447 m -3 X s 87 454 m -3 X s 89 462 m -5 X s 87 470 m -3 X s 87 478 m -3 X s 87 486 m -3 X s 87 494 m -3 X s 89 501 m -5 X s 87 509 m -3 X s 87 517 m -3 X s 87 525 m -3 X s 87 533 m -3 X s 89 540 m -5 X s 87 548 m -3 X s 87 556 m -3 X s
 87 564 m -3 X s 87 572 m -3 X s 89 580 m -5 X s 87 587 m -3 X s 87 595 m -3 X s 87 603 m -3 X s 87 611 m -3 X s 89 619 m -5 X s 89 423 m -5 X s 87 415 m -3 X s 87 408 m -3 X s 87 400 m -3 X s 87 392 m -3 X s 89 619 m -5 X s
 gsave  408 306 23 345 C 65.5245 415.938 t 0 r /Helvetica findfont 22.8295 sf 0 0 m (0) show NC gr 
 gsave  408 306 23 345 C 37.0356 455.822 t 0 r /Helvetica findfont 22.8295 sf 0 0 m (0.01) show NC gr 
 gsave  408 306 23 345 C 34.1867 492.858 t 0 r /Helvetica findfont 22.8295 sf 0 0 m (0.02) show NC gr 
 gsave  408 306 23 345 C 34.1867 532.742 t 0 r /Helvetica findfont 22.8295 sf 0 0 m (0.03) show NC gr 
 gsave  408 306 23 345 C 34.1867 572.627 t 0 r /Helvetica findfont 22.8295 sf 0 0 m (0.04) show NC gr 
 gsave  408 306 23 345 C 34.1867 612.511 t 0 r /Helvetica findfont 22.8295 sf 0 0 m (0.05) show NC gr  390 391 m 229 Y s 385 423 m 5 X s 387 431 m 3 X s 387 439 m 3 X s 387 447 m 3 X s 387 454 m 3 X s 385 462 m 5 X s 387 470 m 3 X s 387 478 m 3 X s
 387 486 m 3 X s 387 494 m 3 X s 385 501 m 5 X s 387 509 m 3 X s 387 517 m 3 X s 387 525 m 3 X s 387 533 m 3 X s 385 540 m 5 X s 387 548 m 3 X s 387 556 m 3 X s 387 564 m 3 X s 387 572 m 3 X s 385 580 m 5 X s 387 587 m 3 X s 387 595 m 3 X s 387 603 m
 3 X s 387 611 m 3 X s 385 619 m 5 X s 385 423 m 5 X s 387 415 m 3 X s 387 408 m 3 X s 387 400 m 3 X s 387 392 m 3 X s 385 619 m 5 X s /w 22 def /w2 {w 2 div} def /w3 {w 3 div} def 179 462 274 431 369 579 3 { m21} R 179 474 m 10 Y s 173 484 m 12 X s
 179 451 m -10 Y s 173 441 m 12 X s 274 443 m 9 Y s 268 452 m 12 X s 274 420 m -10 Y s 268 410 m 12 X s 369 591 m 10 Y s 363 601 m 12 X s 369 568 m -10 Y s 363 558 m 12 X s 1 0 0 c 9 lw 0.95 0.95 0.95 c black 1 0 0 c 85 423 m 10 X 3 1 d 12 X 3 1 d 6
 X 3 1 d 6 X 3 1 d 3 X 3 1 d 4 1 d 3 X 3 1 d 3 X 3 1 d 3 1 d 3 1 d 3 X 3 1 d 3 1 d 3 1 d 3 1 d 3 1 d 3 1 d 3 1 d 3 1 d 4 1 d 3 1 d 3 1 d 3 1 d 3 1 d 3 1 d 3 2 d 3 1 d 3 1 d 3 2 d 3 1 d 3 1 d 3 2 d 3 1 d 3 2 d 3 1 d s 235 461 m 4 2 d 3 1 d 3 2 d 3 2 d
 3 1 d 3 2 d 3 2 d 3 1 d 3 2 d 3 2 d 3 2 d 3 2 d 3 2 d 3 2 d 3 2 d 3 2 d 3 2 d 4 2 d 3 2 d 3 2 d 3 2 d 3 2 d 3 3 d 3 2 d 3 2 d 3 3 d 3 2 d 3 2 d 3 3 d 3 2 d 3 3 d 3 2 d 3 3 d 4 2 d 3 3 d 3 3 d 3 2 d 3 3 d 3 3 d 3 2 d 3 3 d 3 3 d 3 3 d 3 3 d 3 3 d 3 3
 d 3 3 d 3 3 d 3 3 d s 385 574 m 4 3 d s 0.49 0.6 0.82 c black 0.49 0.6 0.82 c
 gsave  408 306 23 345 C 142.445 629.605 t 0 r /Helvetica-Bold findfont 25.6831 sf 0 0 m (5.0 < E < 5.5 GeV) show NC gr  0.52 0.76 0.64 c black 0.52 0.76 0.64 c
 gsave  408 306 23 345 C 128.2 592.569 t 0 r /Helvetica-Bold findfont 25.6831 sf 0 0 m 
 220 206 192 185 170 163 148 141 126 118 111 97 83 69 61 47 40 25 18
(A = 0.004, p = 2.000) K NC gr  1 0.6 1 c black 1 0.6 1 c
 gsave  408 306 23 345 C 427.334 458.671 t 90 r /Helvetica-Bold findfont 28.5368 sf 0 0 m (/dof=4.2) show NC gr  black 1 0.6 1 c
 gsave  408 306 23 345 C 415.938 447.276 t 90 r /Helvetica-Bold findfont 19.9758 sf 0 0 m (2) show NC gr  black 1 0.6 1 c
 gsave  408 306 23 345 C 427.334 430.182 t 90 r /Symbol findfont 28.5368 sf 0 0 m (c) show NC gr  black 3 lw 1 1 1 c 408 306 476 345 bf black 1 1 1 c black 307 229 537 391 bl 307 229 537 391 bl 537 391 m 307 X s 537 395 m -4 Y s 633 395 m -4 Y s 728
 395 m -4 Y s 823 395 m -4 Y s 823 395 m -4 Y s
 gsave  408 306 476 345 C 527.045 370.356 t 0 r /Helvetica findfont 22.8295 sf 0 0 m (0) show NC gr 
 gsave  408 306 476 345 C 626.756 370.356 t 0 r /Helvetica findfont 22.8295 sf 0 0 m (1) show NC gr 
 gsave  408 306 476 345 C 717.92 370.356 t 0 r /Helvetica findfont 22.8295 sf 0 0 m (2) show NC gr 
 gsave  408 306 476 345 C 811.934 370.356 t 0 r /Helvetica findfont 22.8295 sf 0 0 m (3) show NC gr  537 620 m 307 X s 537 616 m 4 Y s 633 616 m 4 Y s 728 616 m 4 Y s 823 616 m 4 Y s 823 616 m 4 Y s 537 391 m 229 Y s 543 403 m -6 X s 540 410 m -3 X s
 540 417 m -3 X s 540 424 m -3 X s 540 431 m -3 X s 543 438 m -6 X s 540 445 m -3 X s 540 452 m -3 X s 540 460 m -3 X s 540 467 m -3 X s 543 474 m -6 X s 540 481 m -3 X s 540 488 m -3 X s 540 495 m -3 X s 540 502 m -3 X s 543 509 m -6 X s 540 516 m
 -3 X s 540 523 m -3 X s 540 530 m -3 X s 540 537 m -3 X s 543 544 m -6 X s 540 551 m -3 X s 540 558 m -3 X s 540 565 m -3 X s 540 572 m -3 X s 543 579 m -6 X s 540 586 m -3 X s 540 593 m -3 X s 540 600 m -3 X s 540 607 m -3 X s 543 614 m -6 X s 543
 403 m -6 X s 540 396 m -3 X s 543 614 m -6 X s
 gsave  408 306 476 345 C 481.462 395.996 t 0 r /Helvetica findfont 22.8295 sf 0 0 m (\2550.02) show NC gr 
 gsave  408 306 476 345 C 467.218 430.182 t 0 r /Helvetica findfont 22.8295 sf 0 0 m (\2550.015) show NC gr 
 gsave  408 306 476 345 C 484.311 467.218 t 0 r /Helvetica findfont 22.8295 sf 0 0 m (\2550.01) show NC gr 
 gsave  408 306 476 345 C 467.218 501.405 t 0 r /Helvetica findfont 22.8295 sf 0 0 m (\2550.005) show NC gr 
 gsave  408 306 476 345 C 518.498 535.591 t 0 r /Helvetica findfont 22.8295 sf 0 0 m (0) show NC gr 
 gsave  408 306 476 345 C 475.765 572.627 t 0 r /Helvetica findfont 22.8295 sf 0 0 m (0.005) show NC gr 
 gsave  408 306 476 345 C 490.009 606.814 t 0 r /Helvetica findfont 22.8295 sf 0 0 m (0.01) show NC gr  844 391 m 229 Y s 838 403 m 6 X s 841 410 m 3 X s 841 417 m 3 X s 841 424 m 3 X s 841 431 m 3 X s 838 438 m 6 X s 841 445 m 3 X s 841 452 m 3 X s
 841 460 m 3 X s 841 467 m 3 X s 838 474 m 6 X s 841 481 m 3 X s 841 488 m 3 X s 841 495 m 3 X s 841 502 m 3 X s 838 509 m 6 X s 841 516 m 3 X s 841 523 m 3 X s 841 530 m 3 X s 841 537 m 3 X s 838 544 m 6 X s 841 551 m 3 X s 841 558 m 3 X s 841 565 m
 3 X s 841 572 m 3 X s 838 579 m 6 X s 841 586 m 3 X s 841 593 m 3 X s 841 600 m 3 X s 841 607 m 3 X s 838 614 m 6 X s 838 403 m 6 X s 841 396 m 3 X s 838 614 m 6 X s /w 23 def /w2 {w 2 div} def /w3 {w 3 div} def 633 457 728 554 823 525 3 { m21} R
 633 468 m 36 Y s 627 504 m 11 X s 633 446 m -36 Y s 627 410 m 11 X s 728 565 m 36 Y s 722 601 m 11 X s 728 542 m -36 Y s 722 506 m 11 X s 823 536 m 35 Y s 817 571 m 11 X s 823 513 m -35 Y s 817 478 m 11 X s 9 lw 0.95 0.95 0.95 c black 539 544 m 3 -1
 d 6 X 3 -1 d 9 X 3 -1 d 7 X 3 -1 d 9 X 3 -1 d 6 X 3 -1 d 9 X 3 -1 d 6 X 4 -1 d 9 X 3 -1 d 6 X 3 -1 d 9 X 3 -1 d 6 X 3 -1 d 10 X 3 -1 d 6 X 3 -1 d 9 X s 689 530 m 3 -1 d 6 X 3 -1 d 9 X 3 -1 d 7 X 3 -1 d 9 X 3 -1 d 6 X 3 -1 d 9 X 3 -1 d 6 X 4 -1 d 9 X
 3 -1 d 6 X 3 -1 d 6 X 3 -1 d 9 X 3 -1 d 7 X 3 -1 d 9 X 3 -1 d 6 X 3 -1 d s 839 515 m 3 X s 0.49 0.6 0.82 c black 0.49 0.6 0.82 c
 gsave  408 306 476 345 C 595.418 629.605 t 0 r /Helvetica-Bold findfont 25.6831 sf 0 0 m (5.5 < E < 6.0 GeV) show NC gr  0.52 0.76 0.64 c black 0.52 0.76 0.64 c
 gsave  408 306 476 345 C 575.476 592.569 t 0 r /Helvetica-Bold findfont 25.6831 sf 0 0 m 
 228 214 200 193 178 171 156 149 133 126 119 105 91 76 69 55 47 39 25 17
(A = \2550.001, p = 1.000) K NC gr  1 0.6 1 c black 1 0.6 1 c
 gsave  408 306 476 345 C 883.156 458.671 t 90 r /Helvetica-Bold findfont 28.5368 sf 0 0 m (/dof=1.5) show NC gr  black 1 0.6 1 c
 gsave  408 306 476 345 C 871.76 447.276 t 90 r /Helvetica-Bold findfont 19.9758 sf 0 0 m (2) show NC gr  black 1 0.6 1 c
 gsave  408 306 476 345 C 883.156 430.182 t 90 r /Symbol findfont 28.5368 sf 0 0 m (c) show NC gr  black 3 lw 1 1 1 c 408 306 930 345 bf black 1 1 1 c black 306 229 991 391 bl 306 229 991 391 bl 991 391 m 306 X s 991 395 m -4 Y s 1086 395 m -4 Y s
 1181 395 m -4 Y s 1276 395 m -4 Y s 1276 395 m -4 Y s
 gsave  408 306 930 345 C 980.018 370.356 t 0 r /Helvetica findfont 22.8295 sf 0 0 m (0) show NC gr 
 gsave  408 306 930 345 C 1079.73 370.356 t 0 r /Helvetica findfont 22.8295 sf 0 0 m (1) show NC gr 
 gsave  408 306 930 345 C 1170.89 370.356 t 0 r /Helvetica findfont 22.8295 sf 0 0 m (2) show NC gr 
 gsave  408 306 930 345 C 1264.91 370.356 t 0 r /Helvetica findfont 22.8295 sf 0 0 m (3) show NC gr  991 620 m 306 X s 991 616 m 4 Y s 1086 616 m 4 Y s 1181 616 m 4 Y s 1276 616 m 4 Y s 1276 616 m 4 Y s 991 391 m 229 Y s 997 411 m -6 X s 994 419 m -3
 X s 994 426 m -3 X s 994 434 m -3 X s 994 442 m -3 X s 997 450 m -6 X s 994 458 m -3 X s 994 466 m -3 X s 994 474 m -3 X s 994 482 m -3 X s 997 490 m -6 X s 994 498 m -3 X s 994 506 m -3 X s 994 514 m -3 X s 994 522 m -3 X s 997 530 m -6 X s 994 538
 m -3 X s 994 546 m -3 X s 994 554 m -3 X s 994 562 m -3 X s 997 570 m -6 X s 994 578 m -3 X s 994 585 m -3 X s 994 593 m -3 X s 994 601 m -3 X s 997 609 m -6 X s 997 411 m -6 X s 994 403 m -3 X s 994 395 m -3 X s 997 609 m -6 X s 994 617 m -3 X s
 gsave  408 306 930 345 C 923.04 404.542 t 0 r /Helvetica findfont 22.8295 sf 0 0 m (\2550.025) show NC gr 
 gsave  408 306 930 345 C 937.285 444.427 t 0 r /Helvetica findfont 22.8295 sf 0 0 m (\2550.02) show NC gr 
 gsave  408 306 930 345 C 923.04 484.311 t 0 r /Helvetica findfont 22.8295 sf 0 0 m (\2550.015) show NC gr 
 gsave  408 306 930 345 C 940.134 521.347 t 0 r /Helvetica findfont 22.8295 sf 0 0 m (\2550.01) show NC gr 
 gsave  408 306 930 345 C 923.04 561.231 t 0 r /Helvetica findfont 22.8295 sf 0 0 m (\2550.005) show NC gr 
 gsave  408 306 930 345 C 974.32 601.116 t 0 r /Helvetica findfont 22.8295 sf 0 0 m (0) show NC gr  1297 391 m 229 Y s 1292 411 m 5 X s 1294 419 m 3 X s 1294 426 m 3 X s 1294 434 m 3 X s 1294 442 m 3 X s 1292 450 m 5 X s 1294 458 m 3 X s 1294 466 m 3
 X s 1294 474 m 3 X s 1294 482 m 3 X s 1292 490 m 5 X s 1294 498 m 3 X s 1294 506 m 3 X s 1294 514 m 3 X s 1294 522 m 3 X s 1292 530 m 5 X s 1294 538 m 3 X s 1294 546 m 3 X s 1294 554 m 3 X s 1294 562 m 3 X s 1292 570 m 5 X s 1294 578 m 3 X s 1294
 585 m 3 X s 1294 593 m 3 X s 1294 601 m 3 X s 1292 609 m 5 X s 1292 411 m 5 X s 1294 403 m 3 X s 1294 395 m 3 X s 1292 609 m 5 X s 1294 617 m 3 X s 1086 523 1181 537 1276 472 3 { m21} R 1086 535 m 53 Y s 1080 588 m 12 X s 1086 512 m -53 Y s 1080 459
 m 12 X s 1181 549 m 52 Y s 1175 601 m 12 X s 1181 526 m -52 Y s 1175 474 m 12 X s 1276 484 m 50 Y s 1271 534 m 11 X s 1276 461 m -51 Y s 1271 410 m 11 X s 9 lw 0.95 0.95 0.95 c black 993 609 m 3 -2 d 3 -1 d 3 -2 d 3 -1 d 3 -2 d 3 -1 d 3 -2 d 3 -1 d
 3 -2 d 3 -1 d 3 -2 d 3 -1 d 3 -2 d 3 -1 d 3 -1 d 4 -2 d 3 -1 d 3 -2 d 3 -1 d 3 -2 d 3 -1 d 3 -2 d 3 -1 d 3 -2 d 3 -1 d 3 -2 d 3 -1 d 3 -2 d 3 -1 d 3 -2 d 3 -1 d 3 -2 d 4 -1 d 3 -1 d 3 -2 d 3 -1 d 3 -2 d 3 -1 d 3 -2 d 3 -1 d 3 -2 d 3 -1 d 3 -2 d 3 -1
 d 3 -2 d 3 -1 d 3 -2 d 3 -1 d 4 -2 d s 1143 536 m 3 -1 d 3 -1 d 3 -2 d 3 -1 d 3 -2 d 3 -1 d 3 -2 d 3 -1 d 3 -2 d 3 -1 d 3 -2 d 3 -1 d 3 -2 d 3 -1 d 3 -2 d 4 -1 d 3 -2 d 3 -1 d 3 -2 d 3 -1 d 3 -1 d 3 -2 d 3 -1 d 3 -2 d 3 -1 d 3 -2 d 3 -1 d 3 -2 d 3
 -1 d 3 -2 d 3 -1 d 3 -2 d 4 -1 d 3 -2 d 3 -1 d 3 -2 d 3 -1 d 3 -1 d 3 -2 d 3 -1 d 3 -2 d 3 -1 d 3 -2 d 3 -1 d 3 -2 d 3 -1 d 3 -2 d 3 -1 d 4 -2 d s 1293 464 m 3 -1 d s 0.49 0.6 0.82 c black 0.49 0.6 0.82 c
 gsave  408 306 930 345 C 1051.24 629.605 t 0 r /Helvetica-Bold findfont 25.6831 sf 0 0 m (6.0 < E < 6.5 GeV) show NC gr  0.52 0.76 0.64 c black 0.52 0.76 0.64 c
 gsave  408 306 930 345 C 1031.3 592.569 t 0 r /Helvetica-Bold findfont 25.6831 sf 0 0 m 
 228 214 200 193 178 171 156 149 133 126 119 105 91 77 69 55 47 39 25 17
(A = \2550.006, p = 1.000) K NC gr  1 0.6 1 c black 1 0.6 1 c
 gsave  408 306 930 345 C 1336.13 458.671 t 90 r /Helvetica-Bold findfont 28.5368 sf 0 0 m (/dof=0.2) show NC gr  black 1 0.6 1 c
 gsave  408 306 930 345 C 1324.73 447.276 t 90 r /Helvetica-Bold findfont 19.9758 sf 0 0 m (2) show NC gr  black 1 0.6 1 c
 gsave  408 306 930 345 C 1336.13 430.182 t 90 r /Symbol findfont 28.5368 sf 0 0 m (c) show NC gr  black 3 lw 1 1 1 c 408 306 1383 345 bf black 1 1 1 c black 306 229 1445 391 bl 306 229 1445 391 bl 1445 391 m 306 X s 1445 395 m -4 Y s 1540 395 m -4 Y
 s 1635 395 m -4 Y s 1730 395 m -4 Y s 1730 395 m -4 Y s
 gsave  408 306 1383 345 C 1435.84 370.356 t 0 r /Helvetica findfont 22.8295 sf 0 0 m (0) show NC gr 
 gsave  408 306 1383 345 C 1532.7 370.356 t 0 r /Helvetica findfont 22.8295 sf 0 0 m (1) show NC gr 
 gsave  408 306 1383 345 C 1623.87 370.356 t 0 r /Helvetica findfont 22.8295 sf 0 0 m (2) show NC gr 
 gsave  408 306 1383 345 C 1720.73 370.356 t 0 r /Helvetica findfont 22.8295 sf 0 0 m (3) show NC gr  1445 620 m 306 X s 1445 616 m 4 Y s 1540 616 m 4 Y s 1635 616 m 4 Y s 1730 616 m 4 Y s 1730 616 m 4 Y s 1445 391 m 229 Y s 1450 411 m -5 X s 1447
 416 m -2 X s 1447 421 m -2 X s 1447 426 m -2 X s 1447 431 m -2 X s 1450 437 m -5 X s 1447 442 m -2 X s 1447 447 m -2 X s 1447 452 m -2 X s 1447 457 m -2 X s 1450 462 m -5 X s 1447 467 m -2 X s 1447 472 m -2 X s 1447 478 m -2 X s 1447 483 m -2 X s
 1450 488 m -5 X s 1447 493 m -2 X s 1447 498 m -2 X s 1447 503 m -2 X s 1447 508 m -2 X s 1450 513 m -5 X s 1447 519 m -2 X s 1447 524 m -2 X s 1447 529 m -2 X s 1447 534 m -2 X s 1450 539 m -5 X s 1447 544 m -2 X s 1447 549 m -2 X s 1447 554 m -2 X
 s 1447 560 m -2 X s 1450 565 m -5 X s 1447 570 m -2 X s 1447 575 m -2 X s 1447 580 m -2 X s 1447 585 m -2 X s 1450 590 m -5 X s 1447 595 m -2 X s 1447 601 m -2 X s 1447 606 m -2 X s 1447 611 m -2 X s 1450 616 m -5 X s 1450 411 m -5 X s 1447 406 m -2
 X s 1447 401 m -2 X s 1447 396 m -2 X s 1450 616 m -5 X s
 gsave  408 306 1383 345 C 1376.01 404.542 t 0 r /Helvetica findfont 22.8295 sf 0 0 m (\2550.025) show NC gr 
 gsave  408 306 1383 345 C 1390.26 430.182 t 0 r /Helvetica findfont 22.8295 sf 0 0 m (\2550.02) show NC gr 
 gsave  408 306 1383 345 C 1376.01 455.822 t 0 r /Helvetica findfont 22.8295 sf 0 0 m (\2550.015) show NC gr 
 gsave  408 306 1383 345 C 1393.11 481.462 t 0 r /Helvetica findfont 22.8295 sf 0 0 m (\2550.01) show NC gr 
 gsave  408 306 1383 345 C 1376.01 507.102 t 0 r /Helvetica findfont 22.8295 sf 0 0 m (\2550.005) show NC gr 
 gsave  408 306 1383 345 C 1427.29 532.742 t 0 r /Helvetica findfont 22.8295 sf 0 0 m (0) show NC gr 
 gsave  408 306 1383 345 C 1384.56 558.382 t 0 r /Helvetica findfont 22.8295 sf 0 0 m (0.005) show NC gr 
 gsave  408 306 1383 345 C 1398.81 584.022 t 0 r /Helvetica findfont 22.8295 sf 0 0 m (0.01) show NC gr 
 gsave  408 306 1383 345 C 1384.56 609.662 t 0 r /Helvetica findfont 22.8295 sf 0 0 m (0.015) show NC gr  1751 391 m 229 Y s 1745 411 m 6 X s 1748 416 m 3 X s 1748 421 m 3 X s 1748 426 m 3 X s 1748 431 m 3 X s 1745 437 m 6 X s 1748 442 m 3 X s 1748
 447 m 3 X s 1748 452 m 3 X s 1748 457 m 3 X s 1745 462 m 6 X s 1748 467 m 3 X s 1748 472 m 3 X s 1748 478 m 3 X s 1748 483 m 3 X s 1745 488 m 6 X s 1748 493 m 3 X s 1748 498 m 3 X s 1748 503 m 3 X s 1748 508 m 3 X s 1745 513 m 6 X s 1748 519 m 3 X s
 1748 524 m 3 X s 1748 529 m 3 X s 1748 534 m 3 X s 1745 539 m 6 X s 1748 544 m 3 X s 1748 549 m 3 X s 1748 554 m 3 X s 1748 560 m 3 X s 1745 565 m 6 X s 1748 570 m 3 X s 1748 575 m 3 X s 1748 580 m 3 X s 1748 585 m 3 X s 1745 590 m 6 X s 1748 595 m
 3 X s 1748 601 m 3 X s 1748 606 m 3 X s 1748 611 m 3 X s 1745 616 m 6 X s 1745 411 m 6 X s 1748 406 m 3 X s 1748 401 m 3 X s 1748 396 m 3 X s 1745 616 m 6 X s 1540 553 1635 498 1730 456 3 { m21} R 1540 564 m 37 Y s 1534 601 m 11 X s 1540 541 m -36 Y
 s 1534 505 m 11 X s 1635 509 m 36 Y s 1629 545 m 11 X s 1635 486 m -36 Y s 1629 450 m 11 X s 1730 468 m 35 Y s 1724 503 m 11 X s 1730 445 m -35 Y s 1724 410 m 11 X s 1 0 0 c 9 lw 0.95 0.95 0.95 c black 1 0 0 c 1446 539 m 21 X 4 -1 d 12 X 3 -1 d 9 X
 3 -1 d 3 X 3 -1 d 6 X 3 -1 d 3 X 4 -1 d 3 X 3 -1 d 3 X 3 -1 d 3 X 3 -1 d 3 X 3 -1 d 3 -1 d 3 X 3 -1 d 3 -1 d 3 X 3 -1 d 3 -1 d 4 X 3 -1 d 3 -1 d 3 -1 d 3 -1 d 3 -1 d 3 X 3 -1 d 3 -1 d 3 -1 d s 1596 516 m 3 -1 d 3 -1 d 3 -1 d 3 -1 d 3 -1 d 3 -1 d 4
 -1 d 3 -1 d 3 -1 d 3 -2 d 3 -1 d 3 -1 d 3 -1 d 3 -1 d 3 -1 d 3 -2 d 3 -1 d 3 -1 d 3 -1 d 3 -2 d 3 -1 d 3 -1 d 3 -2 d 4 -1 d 3 -2 d 3 -1 d 3 -1 d 3 -2 d 3 -1 d 3 -2 d 3 -1 d 3 -2 d 3 -1 d 3 -2 d 3 -2 d 3 -1 d 3 -2 d 3 -2 d 3 -1 d 4 -2 d 3 -2 d 3 -1 d
 3 -2 d 3 -2 d 3 -2 d 3 -1 d 3 -2 d 3 -2 d 3 -2 d s 1746 447 m 3 -2 d s 0.49 0.6 0.82 c black 0.49 0.6 0.82 c
 gsave  408 306 1383 345 C 1504.21 629.605 t 0 r /Helvetica-Bold findfont 25.6831 sf 0 0 m (6.5 < E < 7.0 GeV) show NC gr  0.52 0.76 0.64 c black 0.52 0.76 0.64 c
 gsave  408 306 1383 345 C 1484.27 592.569 t 0 r /Helvetica-Bold findfont 25.6831 sf 0 0 m 
 228 214 200 193 178 171 156 149 134 126 119 105 91 77 69 55 47 40 25 17
(A = \2550.002, p = 2.000) K NC gr  1 0.6 1 c black 1 0.6 1 c
 gsave  408 306 1383 345 C 1789.1 458.671 t 90 r /Helvetica-Bold findfont 28.5368 sf 0 0 m (/dof=0.1) show NC gr  black 1 0.6 1 c
 gsave  408 306 1383 345 C 1777.71 447.276 t 90 r /Helvetica-Bold findfont 19.9758 sf 0 0 m (2) show NC gr  black 1 0.6 1 c
 gsave  408 306 1383 345 C 1789.1 430.182 t 90 r /Symbol findfont 28.5368 sf 0 0 m (c) show NC gr  black 3 lw 1 1 1 c 408 306 1837 345 bf black 1 1 1 c black 306 229 1898 391 bl 306 229 1898 391 bl 1898 391 m 306 X s 1898 395 m -4 Y s 1993 395 m -4 Y
 s 2088 395 m -4 Y s 2183 395 m -4 Y s 2183 395 m -4 Y s
 gsave  408 306 1837 345 C 1888.81 370.356 t 0 r /Helvetica findfont 22.8295 sf 0 0 m (0) show NC gr 
 gsave  408 306 1837 345 C 1985.68 370.356 t 0 r /Helvetica findfont 22.8295 sf 0 0 m (1) show NC gr 
 gsave  408 306 1837 345 C 2076.84 370.356 t 0 r /Helvetica findfont 22.8295 sf 0 0 m (2) show NC gr 
 gsave  408 306 1837 345 C 2173.7 370.356 t 0 r /Helvetica findfont 22.8295 sf 0 0 m (3) show NC gr  1898 620 m 306 X s 1898 616 m 4 Y s 1993 616 m 4 Y s 2088 616 m 4 Y s 2183 616 m 4 Y s 2183 616 m 4 Y s 1898 391 m 229 Y s 1904 400 m -6 X s 1901 406
 m -3 X s 1901 413 m -3 X s 1901 420 m -3 X s 1901 426 m -3 X s 1904 433 m -6 X s 1901 440 m -3 X s 1901 446 m -3 X s 1901 453 m -3 X s 1901 460 m -3 X s 1904 466 m -6 X s 1901 473 m -3 X s 1901 480 m -3 X s 1901 487 m -3 X s 1901 493 m -3 X s 1904
 500 m -6 X s 1901 507 m -3 X s 1901 513 m -3 X s 1901 520 m -3 X s 1901 527 m -3 X s 1904 533 m -6 X s 1901 540 m -3 X s 1901 547 m -3 X s 1901 553 m -3 X s 1901 560 m -3 X s 1904 567 m -6 X s 1901 574 m -3 X s 1901 580 m -3 X s 1901 587 m -3 X s
 1901 594 m -3 X s 1904 600 m -6 X s 1904 400 m -6 X s 1901 393 m -3 X s 1904 600 m -6 X s 1901 607 m -3 X s 1901 614 m -3 X s
 gsave  408 306 1837 345 C 1843.23 393.147 t 0 r /Helvetica findfont 22.8295 sf 0 0 m (\2550.05) show NC gr 
 gsave  408 306 1837 345 C 1843.23 427.334 t 0 r /Helvetica findfont 22.8295 sf 0 0 m (\2550.04) show NC gr 
 gsave  408 306 1837 345 C 1843.23 458.671 t 0 r /Helvetica findfont 22.8295 sf 0 0 m (\2550.03) show NC gr 
 gsave  408 306 1837 345 C 1843.23 492.858 t 0 r /Helvetica findfont 22.8295 sf 0 0 m (\2550.02) show NC gr 
 gsave  408 306 1837 345 C 1846.08 527.045 t 0 r /Helvetica findfont 22.8295 sf 0 0 m (\2550.01) show NC gr 
 gsave  408 306 1837 345 C 1880.27 558.382 t 0 r /Helvetica findfont 22.8295 sf 0 0 m (0) show NC gr 
 gsave  408 306 1837 345 C 1851.78 592.569 t 0 r /Helvetica findfont 22.8295 sf 0 0 m (0.01) show NC gr  2204 391 m 229 Y s 2199 400 m 5 X s 2201 406 m 3 X s 2201 413 m 3 X s 2201 420 m 3 X s 2201 426 m 3 X s 2199 433 m 5 X s 2201 440 m 3 X s 2201
 446 m 3 X s 2201 453 m 3 X s 2201 460 m 3 X s 2199 466 m 5 X s 2201 473 m 3 X s 2201 480 m 3 X s 2201 487 m 3 X s 2201 493 m 3 X s 2199 500 m 5 X s 2201 507 m 3 X s 2201 513 m 3 X s 2201 520 m 3 X s 2201 527 m 3 X s 2199 533 m 5 X s 2201 540 m 3 X s
 2201 547 m 3 X s 2201 553 m 3 X s 2201 560 m 3 X s 2199 567 m 5 X s 2201 574 m 3 X s 2201 580 m 3 X s 2201 587 m 3 X s 2201 594 m 3 X s 2199 600 m 5 X s 2199 400 m 5 X s 2201 393 m 3 X s 2199 600 m 5 X s 2201 607 m 3 X s 2201 614 m 3 X s 1993 566
 2088 550 2183 443 3 { m21} R 1993 578 m 23 Y s 1987 601 m 12 X s 1993 555 m -24 Y s 1987 531 m 12 X s 2088 561 m 23 Y s 2083 584 m 11 X s 2088 538 m -23 Y s 2083 515 m 11 X s 2183 454 m 22 Y s 2178 476 m 11 X s 2183 432 m -22 Y s 2178 410 m 11 X s 1
 0 0 c 9 lw 0.95 0.95 0.95 c black 1 0 0 c 1900 567 m 12 X 3 -1 d 12 X 3 -1 d 9 X 3 -1 d 4 X 3 -1 d 6 X 3 -1 d 3 X 3 -1 d 3 -1 d 3 X 3 -1 d 3 X 3 -1 d 3 -1 d 3 X 3 -1 d 3 -1 d 4 -1 d 3 -1 d 3 X 3 -1 d 3 -1 d 3 -1 d 3 -1 d 3 -1 d 3 -1 d 3 -1 d 3 -1 d
 3 -1 d 3 -1 d 3 -1 d 3 -1 d 3 -2 d 3 -1 d 4 -1 d 3 -1 d s 2050 536 m 3 -1 d 3 -2 d 3 -1 d 3 -1 d 3 -2 d 3 -1 d 3 -2 d 3 -1 d 3 -1 d 3 -2 d 3 -1 d 3 -2 d 3 -2 d 3 -1 d 4 -2 d 3 -1 d 3 -2 d 3 -2 d 3 -2 d 3 -1 d 3 -2 d 3 -2 d 3 -2 d 3 -2 d 3 -1 d 3 -2
 d 3 -2 d 3 -2 d 3 -2 d 3 -2 d 4 -2 d 3 -2 d 3 -2 d 3 -2 d 3 -3 d 3 -2 d 3 -2 d 3 -2 d 3 -2 d 3 -3 d 3 -2 d 3 -2 d 3 -3 d 3 -2 d 3 -2 d 3 -3 d 4 -2 d 3 -3 d 3 -2 d s 2200 444 m 3 -3 d s 0.49 0.6 0.82 c black 0.49 0.6 0.82 c
 gsave  408 306 1837 345 C 1957.19 629.605 t 0 r /Helvetica-Bold findfont 25.6831 sf 0 0 m (7.0 < E < 7.5 GeV) show NC gr  0.52 0.76 0.64 c black 0.52 0.76 0.64 c
 gsave  408 306 1837 345 C 1937.25 592.569 t 0 r /Helvetica-Bold findfont 25.6831 sf 0 0 m 
 228 214 200 193 178 171 156 149 133 126 119 105 91 77 69 55 47 39 25 17
(A = \2550.004, p = 2.000) K NC gr  1 0.6 1 c black 1 0.6 1 c
 gsave  408 306 1837 345 C 2242.08 458.671 t 90 r /Helvetica-Bold findfont 28.5368 sf 0 0 m (/dof=0.6) show NC gr  black 1 0.6 1 c
 gsave  408 306 1837 345 C 2230.68 447.276 t 90 r /Helvetica-Bold findfont 19.9758 sf 0 0 m (2) show NC gr  black 1 0.6 1 c
 gsave  408 306 1837 345 C 2242.08 430.182 t 90 r /Symbol findfont 28.5368 sf 0 0 m (c) show NC gr  black 3 lw 1 1 1 c 408 306 23 13 bf black 1 1 1 c black 306 229 84 59 bl 306 229 84 59 bl 84 59 m 306 X s 84 63 m -4 Y s 179 63 m -4 Y s 274 63 m -4 Y
 s 369 63 m -4 Y s 369 63 m -4 Y s
 gsave  408 306 23 13 C 74.0711 39.8845 t 0 r /Helvetica findfont 22.8295 sf 0 0 m (0) show NC gr 
 gsave  408 306 23 13 C 170.933 39.8845 t 0 r /Helvetica findfont 22.8295 sf 0 0 m (1) show NC gr 
 gsave  408 306 23 13 C 264.947 39.8845 t 0 r /Helvetica findfont 22.8295 sf 0 0 m (2) show NC gr 
 gsave  408 306 23 13 C 358.96 39.8845 t 0 r /Helvetica findfont 22.8295 sf 0 0 m (3) show NC gr  84 288 m 306 X s 84 284 m 4 Y s 179 284 m 4 Y s 274 284 m 4 Y s 369 284 m 4 Y s 369 284 m 4 Y s 84 59 m 229 Y s 89 60 m -5 X s 87 67 m -3 X s 87 74 m -3
 X s 87 81 m -3 X s 87 88 m -3 X s 89 95 m -5 X s 87 102 m -3 X s 87 108 m -3 X s 87 115 m -3 X s 87 122 m -3 X s 89 129 m -5 X s 87 136 m -3 X s 87 143 m -3 X s 87 150 m -3 X s 87 157 m -3 X s 89 163 m -5 X s 87 170 m -3 X s 87 177 m -3 X s 87 184 m
 -3 X s 87 191 m -3 X s 89 198 m -5 X s 87 205 m -3 X s 87 211 m -3 X s 87 218 m -3 X s 87 225 m -3 X s 89 232 m -5 X s 87 239 m -3 X s 87 246 m -3 X s 87 253 m -3 X s 87 259 m -3 X s 89 266 m -5 X s 89 60 m -5 X s 89 266 m -5 X s 87 273 m -3 X s 87
 280 m -3 X s 87 287 m -3 X s
 gsave  408 306 23 13 C 31.3378 54.1289 t 0 r /Helvetica findfont 22.8295 sf 0 0 m (\2550.01) show NC gr 
 gsave  408 306 23 13 C 14.2445 88.3156 t 0 r /Helvetica findfont 22.8295 sf 0 0 m (\2550.005) show NC gr 
 gsave  408 306 23 13 C 65.5245 122.502 t 0 r /Helvetica findfont 22.8295 sf 0 0 m (0) show NC gr 
 gsave  408 306 23 13 C 22.7911 156.689 t 0 r /Helvetica findfont 22.8295 sf 0 0 m (0.005) show NC gr 
 gsave  408 306 23 13 C 37.0356 190.876 t 0 r /Helvetica findfont 22.8295 sf 0 0 m (0.01) show NC gr 
 gsave  408 306 23 13 C 22.7911 225.062 t 0 r /Helvetica findfont 22.8295 sf 0 0 m (0.015) show NC gr 
 gsave  408 306 23 13 C 34.1867 259.249 t 0 r /Helvetica findfont 22.8295 sf 0 0 m (0.02) show NC gr  390 59 m 229 Y s 385 60 m 5 X s 387 67 m 3 X s 387 74 m 3 X s 387 81 m 3 X s 387 88 m 3 X s 385 95 m 5 X s 387 102 m 3 X s 387 108 m 3 X s 387 115 m
 3 X s 387 122 m 3 X s 385 129 m 5 X s 387 136 m 3 X s 387 143 m 3 X s 387 150 m 3 X s 387 157 m 3 X s 385 163 m 5 X s 387 170 m 3 X s 387 177 m 3 X s 387 184 m 3 X s 387 191 m 3 X s 385 198 m 5 X s 387 205 m 3 X s 387 211 m 3 X s 387 218 m 3 X s 387
 225 m 3 X s 385 232 m 5 X s 387 239 m 3 X s 387 246 m 3 X s 387 253 m 3 X s 387 259 m 3 X s 385 266 m 5 X s 385 60 m 5 X s 385 266 m 5 X s 387 273 m 3 X s 387 280 m 3 X s 387 287 m 3 X s /w 22 def /w2 {w 2 div} def /w3 {w 3 div} def 179 191 274 172
 369 155 3 { m21} R 179 202 m 67 Y s 173 269 m 12 X s 179 179 m -67 Y s 173 112 m 12 X s 274 183 m 67 Y s 268 250 m 12 X s 274 161 m -67 Y s 268 94 m 12 X s 369 167 m 65 Y s 363 232 m 12 X s 369 144 m -66 Y s 363 78 m 12 X s 9 lw 0.95 0.95 0.95 c
 black 85 129 m 3 1 d 4 X 3 1 d 3 X 3 1 d 3 X 3 1 d 3 X 3 1 d 3 X 3 1 d 3 1 d 3 X 3 1 d 3 X 3 1 d 3 X 4 1 d 3 X 3 1 d 3 X 3 1 d 3 X 3 1 d 3 X 3 1 d 3 X 3 1 d 3 X 3 1 d 3 X 3 1 d 3 X 4 1 d 3 X 3 1 d 3 X 3 1 d 3 X 3 1 d 3 X 3 1 d 3 1 d 3 X 3 1 d 3 X 3
 1 d 3 X 3 1 d s 235 155 m 4 X 3 1 d 3 X 3 1 d 3 X 3 1 d 3 X 3 1 d 3 X 3 1 d 3 X 3 1 d 3 X 3 1 d 3 X 3 1 d 3 X 4 1 d 3 X 3 1 d 3 X 3 1 d 3 X 3 1 d 3 1 d 3 X 3 1 d 3 X 3 1 d 3 X 3 1 d 3 X 3 1 d 4 X 3 1 d 3 X 3 1 d 3 X 3 1 d 3 X 3 1 d 3 X 3 1 d 3 X 3 1
 d 3 X 3 1 d 3 X 3 1 d s 385 180 m 4 X s 0.49 0.6 0.82 c black 0.49 0.6 0.82 c
 gsave  408 306 23 13 C 142.445 296.285 t 0 r /Helvetica-Bold findfont 25.6831 sf 0 0 m (7.5 < E < 8.0 GeV) show NC gr  0.52 0.76 0.64 c black 0.52 0.76 0.64 c
 gsave  408 306 23 13 C 128.2 259.249 t 0 r /Helvetica-Bold findfont 25.6831 sf 0 0 m 
 220 206 192 185 170 163 148 141 126 118 111 97 83 69 61 47 40 25 18
(A = 0.002, p = 1.000) K NC gr  1 0.6 1 c black 1 0.6 1 c
 gsave  408 306 23 13 C 427.334 128.2 t 90 r /Helvetica-Bold findfont 28.5368 sf 0 0 m (/dof=0.2) show NC gr  black 1 0.6 1 c
 gsave  408 306 23 13 C 415.938 116.804 t 90 r /Helvetica-Bold findfont 19.9758 sf 0 0 m (2) show NC gr  black 1 0.6 1 c
 gsave  408 306 23 13 C 427.334 99.7112 t 90 r /Symbol findfont 28.5368 sf 0 0 m (c) show NC gr  black 3 lw 1 1 1 c 408 306 476 13 bf black 1 1 1 c black 307 229 537 59 bl 307 229 537 59 bl 537 59 m 307 X s 537 63 m -4 Y s 633 63 m -4 Y s 728 63 m -4
 Y s 823 63 m -4 Y s 823 63 m -4 Y s
 gsave  408 306 476 13 C 527.045 39.8845 t 0 r /Helvetica findfont 22.8295 sf 0 0 m (0) show NC gr 
 gsave  408 306 476 13 C 626.756 39.8845 t 0 r /Helvetica findfont 22.8295 sf 0 0 m (1) show NC gr 
 gsave  408 306 476 13 C 717.92 39.8845 t 0 r /Helvetica findfont 22.8295 sf 0 0 m (2) show NC gr 
 gsave  408 306 476 13 C 811.934 39.8845 t 0 r /Helvetica findfont 22.8295 sf 0 0 m (3) show NC gr  537 288 m 307 X s 537 284 m 4 Y s 633 284 m 4 Y s 728 284 m 4 Y s 823 284 m 4 Y s 823 284 m 4 Y s 537 59 m 229 Y s 543 82 m -6 X s 540 90 m -3 X s 540
 98 m -3 X s 540 106 m -3 X s 540 113 m -3 X s 543 121 m -6 X s 540 129 m -3 X s 540 137 m -3 X s 540 144 m -3 X s 540 152 m -3 X s 543 160 m -6 X s 540 168 m -3 X s 540 175 m -3 X s 540 183 m -3 X s 540 191 m -3 X s 543 199 m -6 X s 540 206 m -3 X s
 540 214 m -3 X s 540 222 m -3 X s 540 230 m -3 X s 543 237 m -6 X s 540 245 m -3 X s 540 253 m -3 X s 540 261 m -3 X s 540 268 m -3 X s 543 276 m -6 X s 543 82 m -6 X s 540 75 m -3 X s 540 67 m -3 X s 543 276 m -6 X s 540 284 m -3 X s
 gsave  408 306 476 13 C 481.462 74.0711 t 0 r /Helvetica findfont 22.8295 sf 0 0 m (\2550.03) show NC gr 
 gsave  408 306 476 13 C 481.462 113.956 t 0 r /Helvetica findfont 22.8295 sf 0 0 m (\2550.02) show NC gr 
 gsave  408 306 476 13 C 484.311 153.84 t 0 r /Helvetica findfont 22.8295 sf 0 0 m (\2550.01) show NC gr 
 gsave  408 306 476 13 C 518.498 190.876 t 0 r /Helvetica findfont 22.8295 sf 0 0 m (0) show NC gr 
 gsave  408 306 476 13 C 490.009 230.76 t 0 r /Helvetica findfont 22.8295 sf 0 0 m (0.01) show NC gr 
 gsave  408 306 476 13 C 487.16 267.796 t 0 r /Helvetica findfont 22.8295 sf 0 0 m (0.02) show NC gr  844 59 m 229 Y s 838 82 m 6 X s 841 90 m 3 X s 841 98 m 3 X s 841 106 m 3 X s 841 113 m 3 X s 838 121 m 6 X s 841 129 m 3 X s 841 137 m 3 X s 841
 144 m 3 X s 841 152 m 3 X s 838 160 m 6 X s 841 168 m 3 X s 841 175 m 3 X s 841 183 m 3 X s 841 191 m 3 X s 838 199 m 6 X s 841 206 m 3 X s 841 214 m 3 X s 841 222 m 3 X s 841 230 m 3 X s 838 237 m 6 X s 841 245 m 3 X s 841 253 m 3 X s 841 261 m 3 X
 s 841 268 m 3 X s 838 276 m 6 X s 838 82 m 6 X s 841 75 m 3 X s 841 67 m 3 X s 838 276 m 6 X s 841 284 m 3 X s /w 23 def /w2 {w 2 div} def /w3 {w 3 div} def 633 125 728 222 823 209 3 { m21} R 633 136 m 35 Y s 627 171 m 11 X s 633 113 m -35 Y s 627
 78 m 11 X s 728 233 m 36 Y s 722 269 m 11 X s 728 210 m -35 Y s 722 175 m 11 X s 823 220 m 36 Y s 817 256 m 11 X s 823 197 m -35 Y s 817 162 m 11 X s 1 0 0 c 9 lw 0.95 0.95 0.95 c black 1 0 0 c 539 199 m 86 X 3 1 d 33 X 3 1 d 25 X s 689 201 m 3 X 3
 1 d 22 X 3 1 d 18 X 3 1 d 15 X 3 1 d 16 X 3 1 d 15 X 3 1 d 12 X 3 1 d 10 X 3 1 d 12 X 3 1 d s 839 210 m 3 X s 0.49 0.6 0.82 c black 0.49 0.6 0.82 c
 gsave  408 306 476 13 C 595.418 296.285 t 0 r /Helvetica-Bold findfont 25.6831 sf 0 0 m (8.0 < E < 8.5 GeV) show NC gr  0.52 0.76 0.64 c black 0.52 0.76 0.64 c
 gsave  408 306 476 13 C 581.174 259.249 t 0 r /Helvetica-Bold findfont 25.6831 sf 0 0 m 
 220 206 192 185 170 163 148 141 125 118 111 97 83 68 61 47 40 25 18
(A = 0.000, p = 2.000) K NC gr  1 0.6 1 c black 1 0.6 1 c
 gsave  408 306 476 13 C 883.156 128.2 t 90 r /Helvetica-Bold findfont 28.5368 sf 0 0 m (/dof=1.4) show NC gr  black 1 0.6 1 c
 gsave  408 306 476 13 C 871.76 116.804 t 90 r /Helvetica-Bold findfont 19.9758 sf 0 0 m (2) show NC gr  black 1 0.6 1 c
 gsave  408 306 476 13 C 883.156 99.7112 t 90 r /Symbol findfont 28.5368 sf 0 0 m (c) show NC gr  black 3 lw 1 1 1 c 408 306 930 13 bf black 1 1 1 c black 306 229 991 59 bl 306 229 991 59 bl 991 59 m 306 X s 991 63 m -4 Y s 1086 63 m -4 Y s 1181 63 m
 -4 Y s 1276 63 m -4 Y s 1276 63 m -4 Y s
 gsave  408 306 930 13 C 980.018 39.8845 t 0 r /Helvetica findfont 22.8295 sf 0 0 m (0) show NC gr 
 gsave  408 306 930 13 C 1079.73 39.8845 t 0 r /Helvetica findfont 22.8295 sf 0 0 m (1) show NC gr 
 gsave  408 306 930 13 C 1170.89 39.8845 t 0 r /Helvetica findfont 22.8295 sf 0 0 m (2) show NC gr 
 gsave  408 306 930 13 C 1264.91 39.8845 t 0 r /Helvetica findfont 22.8295 sf 0 0 m (3) show NC gr  991 288 m 306 X s 991 284 m 4 Y s 1086 284 m 4 Y s 1181 284 m 4 Y s 1276 284 m 4 Y s 1276 284 m 4 Y s 991 59 m 229 Y s 997 79 m -6 X s 994 85 m -3 X s
 994 91 m -3 X s 994 96 m -3 X s 994 102 m -3 X s 997 108 m -6 X s 994 114 m -3 X s 994 120 m -3 X s 994 126 m -3 X s 994 131 m -3 X s 997 137 m -6 X s 994 143 m -3 X s 994 149 m -3 X s 994 155 m -3 X s 994 160 m -3 X s 997 166 m -6 X s 994 172 m -3
 X s 994 178 m -3 X s 994 184 m -3 X s 994 189 m -3 X s 997 195 m -6 X s 994 201 m -3 X s 994 207 m -3 X s 994 213 m -3 X s 994 219 m -3 X s 997 224 m -6 X s 994 230 m -3 X s 994 236 m -3 X s 994 242 m -3 X s 994 248 m -3 X s 997 253 m -6 X s 994 259
 m -3 X s 994 265 m -3 X s 994 271 m -3 X s 994 277 m -3 X s 997 282 m -6 X s 997 79 m -6 X s 994 73 m -3 X s 994 67 m -3 X s 994 62 m -3 X s 997 282 m -6 X s
 gsave  408 306 930 13 C 937.285 71.2223 t 0 r /Helvetica findfont 22.8295 sf 0 0 m (\2550.03) show NC gr 
 gsave  408 306 930 13 C 937.285 99.7112 t 0 r /Helvetica findfont 22.8295 sf 0 0 m (\2550.02) show NC gr 
 gsave  408 306 930 13 C 940.134 131.049 t 0 r /Helvetica findfont 22.8295 sf 0 0 m (\2550.01) show NC gr 
 gsave  408 306 930 13 C 974.32 159.538 t 0 r /Helvetica findfont 22.8295 sf 0 0 m (0) show NC gr 
 gsave  408 306 930 13 C 945.832 188.027 t 0 r /Helvetica findfont 22.8295 sf 0 0 m (0.01) show NC gr 
 gsave  408 306 930 13 C 942.983 216.516 t 0 r /Helvetica findfont 22.8295 sf 0 0 m (0.02) show NC gr 
 gsave  408 306 930 13 C 942.983 245.005 t 0 r /Helvetica findfont 22.8295 sf 0 0 m (0.03) show NC gr 
 gsave  408 306 930 13 C 942.983 276.342 t 0 r /Helvetica findfont 22.8295 sf 0 0 m (0.04) show NC gr  1297 59 m 229 Y s 1292 79 m 5 X s 1294 85 m 3 X s 1294 91 m 3 X s 1294 96 m 3 X s 1294 102 m 3 X s 1292 108 m 5 X s 1294 114 m 3 X s 1294 120 m 3 X
 s 1294 126 m 3 X s 1294 131 m 3 X s 1292 137 m 5 X s 1294 143 m 3 X s 1294 149 m 3 X s 1294 155 m 3 X s 1294 160 m 3 X s 1292 166 m 5 X s 1294 172 m 3 X s 1294 178 m 3 X s 1294 184 m 3 X s 1294 189 m 3 X s 1292 195 m 5 X s 1294 201 m 3 X s 1294 207
 m 3 X s 1294 213 m 3 X s 1294 219 m 3 X s 1292 224 m 5 X s 1294 230 m 3 X s 1294 236 m 3 X s 1294 242 m 3 X s 1294 248 m 3 X s 1292 253 m 5 X s 1294 259 m 3 X s 1294 265 m 3 X s 1294 271 m 3 X s 1294 277 m 3 X s 1292 282 m 5 X s 1292 79 m 5 X s 1294
 73 m 3 X s 1294 67 m 3 X s 1294 62 m 3 X s 1292 282 m 5 X s 1086 189 1181 115 1276 231 3 { m21} R 1086 200 m 27 Y s 1080 227 m 12 X s 1086 177 m -26 Y s 1080 151 m 12 X s 1181 127 m 26 Y s 1175 153 m 12 X s 1181 104 m -26 Y s 1175 78 m 12 X s 1276
 242 m 27 Y s 1271 269 m 11 X s 1276 219 m -27 Y s 1271 192 m 11 X s 1 0 0 c 9 lw 0.95 0.95 0.95 c black 1 0 0 c 993 166 m 21 X 3 1 d 28 X 3 1 d 15 X 3 1 d 9 X 3 1 d 9 X 3 1 d 10 X 3 1 d 6 X 3 1 d 6 X 3 1 d 6 X 3 1 d 6 X 3 1 d 4 X s 1143 176 m 3 1 d
 6 X 3 1 d 3 X 3 1 d 3 X 3 1 d 3 X 3 1 d 3 X 3 1 d 3 X 3 1 d 3 X 4 1 d 3 X 3 1 d 3 X 3 1 d 3 X 3 1 d 3 1 d 3 X 3 1 d 3 X 3 1 d 3 1 d 3 X 3 1 d 3 X 3 1 d 4 1 d 3 X 3 1 d 3 1 d 3 1 d 3 X 3 1 d 3 1 d 3 X 3 1 d 3 1 d 3 1 d 3 X 3 1 d 3 1 d 3 1 d 4 1 d s
 1293 206 m 3 X s 0.49 0.6 0.82 c black 0.49 0.6 0.82 c
 gsave  408 306 930 13 C 1051.24 296.285 t 0 r /Helvetica-Bold findfont 25.6831 sf 0 0 m (8.5 < E < 9.0 GeV) show NC gr  0.52 0.76 0.64 c black 0.52 0.76 0.64 c
 gsave  408 306 930 13 C 1037 259.249 t 0 r /Helvetica-Bold findfont 25.6831 sf 0 0 m 
 220 206 192 185 170 163 148 141 125 118 111 97 83 69 61 47 40 25 18
(A = 0.001, p = 2.000) K NC gr  1 0.6 1 c black 1 0.6 1 c
 gsave  408 306 930 13 C 1336.13 128.2 t 90 r /Helvetica-Bold findfont 28.5368 sf 0 0 m (/dof=2.0) show NC gr  black 1 0.6 1 c
 gsave  408 306 930 13 C 1324.73 116.804 t 90 r /Helvetica-Bold findfont 19.9758 sf 0 0 m (2) show NC gr  black 1 0.6 1 c
 gsave  408 306 930 13 C 1336.13 99.7112 t 90 r /Symbol findfont 28.5368 sf 0 0 m (c) show NC gr  black 3 lw 1 1 1 c 408 306 1383 13 bf black 1 1 1 c black 306 229 1445 59 bl 306 229 1445 59 bl 1445 59 m 306 X s 1445 63 m -4 Y s 1540 63 m -4 Y s 1635
 63 m -4 Y s 1730 63 m -4 Y s 1730 63 m -4 Y s
 gsave  408 306 1383 13 C 1435.84 39.8845 t 0 r /Helvetica findfont 22.8295 sf 0 0 m (0) show NC gr 
 gsave  408 306 1383 13 C 1532.7 39.8845 t 0 r /Helvetica findfont 22.8295 sf 0 0 m (1) show NC gr 
 gsave  408 306 1383 13 C 1623.87 39.8845 t 0 r /Helvetica findfont 22.8295 sf 0 0 m (2) show NC gr 
 gsave  408 306 1383 13 C 1720.73 39.8845 t 0 r /Helvetica findfont 22.8295 sf 0 0 m (3) show NC gr  1445 288 m 306 X s 1445 284 m 4 Y s 1540 284 m 4 Y s 1635 284 m 4 Y s 1730 284 m 4 Y s 1730 284 m 4 Y s 1445 59 m 229 Y s 1450 88 m -5 X s 1447 96 m
 -2 X s 1447 105 m -2 X s 1447 113 m -2 X s 1447 122 m -2 X s 1450 131 m -5 X s 1447 139 m -2 X s 1447 148 m -2 X s 1447 156 m -2 X s 1447 165 m -2 X s 1450 174 m -5 X s 1447 182 m -2 X s 1447 191 m -2 X s 1447 199 m -2 X s 1447 208 m -2 X s 1450 217
 m -5 X s 1447 225 m -2 X s 1447 234 m -2 X s 1447 242 m -2 X s 1447 251 m -2 X s 1450 259 m -5 X s 1450 88 m -5 X s 1447 79 m -2 X s 1447 70 m -2 X s 1447 62 m -2 X s 1450 259 m -5 X s 1447 268 m -2 X s 1447 277 m -2 X s 1447 285 m -2 X s
 gsave  408 306 1383 13 C 1427.29 79.7689 t 0 r /Helvetica findfont 22.8295 sf 0 0 m (0) show NC gr 
 gsave  408 306 1383 13 C 1398.81 122.502 t 0 r /Helvetica findfont 22.8295 sf 0 0 m (0.01) show NC gr 
 gsave  408 306 1383 13 C 1395.96 165.236 t 0 r /Helvetica findfont 22.8295 sf 0 0 m (0.02) show NC gr 
 gsave  408 306 1383 13 C 1395.96 210.818 t 0 r /Helvetica findfont 22.8295 sf 0 0 m (0.03) show NC gr 
 gsave  408 306 1383 13 C 1395.96 253.551 t 0 r /Helvetica findfont 22.8295 sf 0 0 m (0.04) show NC gr  1751 59 m 229 Y s 1745 88 m 6 X s 1748 96 m 3 X s 1748 105 m 3 X s 1748 113 m 3 X s 1748 122 m 3 X s 1745 131 m 6 X s 1748 139 m 3 X s 1748 148 m
 3 X s 1748 156 m 3 X s 1748 165 m 3 X s 1745 174 m 6 X s 1748 182 m 3 X s 1748 191 m 3 X s 1748 199 m 3 X s 1748 208 m 3 X s 1745 217 m 6 X s 1748 225 m 3 X s 1748 234 m 3 X s 1748 242 m 3 X s 1748 251 m 3 X s 1745 259 m 6 X s 1745 88 m 6 X s 1748
 79 m 3 X s 1748 70 m 3 X s 1748 62 m 3 X s 1745 259 m 6 X s 1748 268 m 3 X s 1748 277 m 3 X s 1748 285 m 3 X s 1540 163 1635 138 1730 208 3 { m21} R 1540 174 m 50 Y s 1534 224 m 11 X s 1540 152 m -50 Y s 1534 102 m 11 X s 1635 150 m 48 Y s 1629 198
 m 11 X s 1635 127 m -49 Y s 1629 78 m 11 X s 1730 220 m 49 Y s 1724 269 m 11 X s 1730 197 m -50 Y s 1724 147 m 11 X s 9 lw 0.95 0.95 0.95 c black 1446 88 m 3 1 d 3 2 d 3 1 d 3 1 d 3 1 d 3 2 d 3 1 d 4 1 d 3 1 d 3 2 d 3 1 d 3 1 d 3 1 d 3 2 d 3 1 d 3 1
 d 3 1 d 3 1 d 3 2 d 3 1 d 3 1 d 3 1 d 3 2 d 4 1 d 3 1 d 3 1 d 3 2 d 3 1 d 3 1 d 3 1 d 3 2 d 3 1 d 3 1 d 3 1 d 3 1 d 3 2 d 3 1 d 3 1 d 3 1 d 4 2 d 3 1 d 3 1 d 3 1 d 3 2 d 3 1 d 3 1 d 3 1 d 3 2 d 3 1 d s 1596 149 m 3 1 d 3 1 d 3 1 d 3 2 d 3 1 d 3 1 d
 4 1 d 3 2 d 3 1 d 3 1 d 3 1 d 3 2 d 3 1 d 3 1 d 3 1 d 3 2 d 3 1 d 3 1 d 3 1 d 3 2 d 3 1 d 3 1 d 3 1 d 4 1 d 3 2 d 3 1 d 3 1 d 3 1 d 3 2 d 3 1 d 3 1 d 3 1 d 3 2 d 3 1 d 3 1 d 3 1 d 3 2 d 3 1 d 3 1 d 4 1 d 3 1 d 3 2 d 3 1 d 3 1 d 3 1 d 3 2 d 3 1 d 3 1
 d 3 1 d s 1746 209 m 3 2 d s 0.49 0.6 0.82 c black 0.49 0.6 0.82 c
 gsave  408 306 1383 13 C 1504.21 296.285 t 0 r /Helvetica-Bold findfont 25.6831 sf 0 0 m (9.0 < E < 9.5 GeV) show NC gr  0.52 0.76 0.64 c black 0.52 0.76 0.64 c
 gsave  408 306 1383 13 C 1489.97 259.249 t 0 r /Helvetica-Bold findfont 25.6831 sf 0 0 m 
 220 206 192 185 170 163 148 141 126 118 111 97 83 69 61 47 40 25 18
(A = 0.009, p = 1.000) K NC gr  1 0.6 1 c black 1 0.6 1 c
 gsave  408 306 1383 13 C 1789.1 128.2 t 90 r /Helvetica-Bold findfont 28.5368 sf 0 0 m (/dof=0.3) show NC gr  black 1 0.6 1 c
 gsave  408 306 1383 13 C 1777.71 116.804 t 90 r /Helvetica-Bold findfont 19.9758 sf 0 0 m (2) show NC gr  black 1 0.6 1 c
 gsave  408 306 1383 13 C 1789.1 99.7112 t 90 r /Symbol findfont 28.5368 sf 0 0 m (c) show NC gr  black 3 lw 1 1 1 c 408 306 1837 13 bf black 1 1 1 c black 306 229 1898 59 bl 306 229 1898 59 bl 1898 59 m 306 X s 1898 63 m -4 Y s 1993 63 m -4 Y s 2088
 63 m -4 Y s 2183 63 m -4 Y s 2183 63 m -4 Y s
 gsave  408 306 1837 13 C 1888.81 39.8845 t 0 r /Helvetica findfont 22.8295 sf 0 0 m (0) show NC gr 
 gsave  408 306 1837 13 C 1985.68 39.8845 t 0 r /Helvetica findfont 22.8295 sf 0 0 m (1) show NC gr 
 gsave  408 306 1837 13 C 2076.84 39.8845 t 0 r /Helvetica findfont 22.8295 sf 0 0 m (2) show NC gr 
 gsave  408 306 1837 13 C 2173.7 39.8845 t 0 r /Helvetica findfont 22.8295 sf 0 0 m (3) show NC gr  1898 288 m 306 X s 1898 284 m 4 Y s 1993 284 m 4 Y s 2088 284 m 4 Y s 2183 284 m 4 Y s 2183 284 m 4 Y s 1898 59 m 229 Y s 1904 67 m -6 X s 1901 75 m
 -3 X s 1901 82 m -3 X s 1901 90 m -3 X s 1901 97 m -3 X s 1904 104 m -6 X s 1901 112 m -3 X s 1901 119 m -3 X s 1901 127 m -3 X s 1901 134 m -3 X s 1904 142 m -6 X s 1901 149 m -3 X s 1901 156 m -3 X s 1901 164 m -3 X s 1901 171 m -3 X s 1904 179 m
 -6 X s 1901 186 m -3 X s 1901 193 m -3 X s 1901 201 m -3 X s 1901 208 m -3 X s 1904 216 m -6 X s 1901 223 m -3 X s 1901 230 m -3 X s 1901 238 m -3 X s 1901 245 m -3 X s 1904 253 m -6 X s 1904 67 m -6 X s 1901 60 m -3 X s 1904 253 m -6 X s 1901 260 m
 -3 X s 1901 268 m -3 X s 1901 275 m -3 X s 1901 282 m -3 X s
 gsave  408 306 1837 13 C 1843.23 59.8267 t 0 r /Helvetica findfont 22.8295 sf 0 0 m (\2550.04) show NC gr 
 gsave  408 306 1837 13 C 1843.23 96.8623 t 0 r /Helvetica findfont 22.8295 sf 0 0 m (\2550.03) show NC gr 
 gsave  408 306 1837 13 C 1843.23 133.898 t 0 r /Helvetica findfont 22.8295 sf 0 0 m (\2550.02) show NC gr 
 gsave  408 306 1837 13 C 1846.08 170.933 t 0 r /Helvetica findfont 22.8295 sf 0 0 m (\2550.01) show NC gr 
 gsave  408 306 1837 13 C 1880.27 207.969 t 0 r /Helvetica findfont 22.8295 sf 0 0 m (0) show NC gr 
 gsave  408 306 1837 13 C 1851.78 245.005 t 0 r /Helvetica findfont 22.8295 sf 0 0 m (0.01) show NC gr  2204 59 m 229 Y s 2199 67 m 5 X s 2201 75 m 3 X s 2201 82 m 3 X s 2201 90 m 3 X s 2201 97 m 3 X s 2199 104 m 5 X s 2201 112 m 3 X s 2201 119 m 3 X
 s 2201 127 m 3 X s 2201 134 m 3 X s 2199 142 m 5 X s 2201 149 m 3 X s 2201 156 m 3 X s 2201 164 m 3 X s 2201 171 m 3 X s 2199 179 m 5 X s 2201 186 m 3 X s 2201 193 m 3 X s 2201 201 m 3 X s 2201 208 m 3 X s 2199 216 m 5 X s 2201 223 m 3 X s 2201 230
 m 3 X s 2201 238 m 3 X s 2201 245 m 3 X s 2199 253 m 5 X s 2199 67 m 5 X s 2201 60 m 3 X s 2199 253 m 5 X s 2201 260 m 3 X s 2201 268 m 3 X s 2201 275 m 3 X s 2201 282 m 3 X s 1993 215 2088 189 2183 131 3 { m21} R 1993 226 m 43 Y s 1987 269 m 12 X s
 1993 204 m -43 Y s 1987 161 m 12 X s 2088 201 m 42 Y s 2083 243 m 11 X s 2088 178 m -42 Y s 2083 136 m 11 X s 2183 142 m 42 Y s 2178 184 m 11 X s 2183 120 m -42 Y s 2178 78 m 11 X s 1 0 0 c 9 lw 0.95 0.95 0.95 c black 1 0 0 c 1900 216 m 9 X 3 -1 d
 18 X 3 -1 d 9 X 4 -1 d 9 X 3 -1 d 3 X 3 -1 d 6 X 3 -1 d 3 X 3 -1 d 3 X 3 -1 d 3 X 3 -1 d 4 X 3 -1 d 3 -1 d 3 X 3 -1 d 3 -1 d 3 X 3 -1 d 3 -1 d 3 X 3 -1 d 3 -1 d 3 -1 d 3 -1 d 3 X 3 -1 d 3 -1 d 4 -1 d 3 -1 d s 2050 193 m 3 -1 d 3 -1 d 3 -1 d 3 -1 d 3
 -1 d 3 -1 d 3 -1 d 3 -1 d 3 -1 d 3 -1 d 3 -1 d 3 -1 d 3 -1 d 3 -1 d 4 -2 d 3 -1 d 3 -1 d 3 -1 d 3 -1 d 3 -2 d 3 -1 d 3 -1 d 3 -2 d 3 -1 d 3 -1 d 3 -2 d 3 -1 d 3 -2 d 3 -1 d 3 -1 d 4 -2 d 3 -1 d 3 -2 d 3 -1 d 3 -2 d 3 -2 d 3 -1 d 3 -2 d 3 -1 d 3 -2 d
 3 -2 d 3 -1 d 3 -2 d 3 -2 d 3 -1 d 3 -2 d 4 -2 d 3 -2 d 3 -2 d s 2200 126 m 3 -1 d s 0.49 0.6 0.82 c black 0.49 0.6 0.82 c
 gsave  408 306 1837 13 C 1948.64 296.285 t 0 r /Helvetica-Bold findfont 25.6831 sf 0 0 m (9.5 < E < 10.0 GeV) show NC gr  0.52 0.76 0.64 c black 0.52 0.76 0.64 c
 gsave  408 306 1837 13 C 1937.25 259.249 t 0 r /Helvetica-Bold findfont 25.6831 sf 0 0 m 
 228 214 200 193 178 171 156 149 133 126 119 105 91 77 69 55 47 39 25 17
(A = \2550.002, p = 2.000) K NC gr  1 0.6 1 c black 1 0.6 1 c
 gsave  408 306 1837 13 C 2242.08 128.2 t 90 r /Helvetica-Bold findfont 28.5368 sf 0 0 m (/dof=0.0) show NC gr  black 1 0.6 1 c
 gsave  408 306 1837 13 C 2230.68 116.804 t 90 r /Helvetica-Bold findfont 19.9758 sf 0 0 m (2) show NC gr  black 1 0.6 1 c
 gsave  408 306 1837 13 C 2242.08 99.7112 t 90 r /Symbol findfont 28.5368 sf 0 0 m (c) show NC gr 
 gr  gr showpage
end
%%EOF
