%!PS-Adobe-2.0 EPSF-2.0
%%BoundingBox:  0 0 567 332
%%Title: NoShielding_near_statcomp.eps: Summary
%%Creator: ROOT Version 5.30/06
%%CreationDate: Wed Jan 15 16:48:41 2014
%%EndComments
%%BeginProlog
80 dict begin
/s {stroke} def /l {lineto} def /m {moveto} def /t {translate} def
/r {rotate} def /rl {roll}  def /R {repeat} def
/d {rlineto} def /rm {rmoveto} def /gr {grestore} def /f {eofill} def
/c {setrgbcolor} def /black {0 setgray} def /sd {setdash} def
/cl {closepath} def /sf {scalefont setfont} def /lw {setlinewidth} def
/box {m dup 0 exch d exch 0 d 0 exch neg d cl} def
/NC{systemdict begin initclip end}def/C{NC box clip newpath}def
/bl {box s} def /bf {box f} def /Y { 0 exch d} def /X { 0 d} def 
/K {{pop pop 0 moveto} exch kshow} bind def
/ita {/ang 15 def gsave [1 0 ang dup sin exch cos div 1 0 0] concat} def 
/mp {newpath /y exch def /x exch def} def
/side {[w .77 mul w .23 mul] .385 w mul sd w 0 l currentpoint t -144 r} def
/mr {mp x y w2 0 360 arc} def /m24 {mr s} def /m20 {mr f} def
/mb {mp x y w2 add m w2 neg 0 d 0 w neg d w 0 d 0 w d cl} def
/mt {mp x y w2 add m w2 neg w neg d w 0 d cl} def
/m21 {mb f} def /m25 {mb s} def /m22 {mt f} def /m26{mt s} def
/m23 {mp x y w2 sub m w2 w d w neg 0 d cl f} def
/m27 {mp x y w2 add m w3 neg w2 neg d w3 w2 neg d w3 w2 d cl s} def
/m28 {mp x w2 sub y w2 sub w3 add m w3 0 d  0 w3 neg d w3 0 d 0 w3 d w3 0 d  0 w3 d w3 neg 0 d 0 w3 d w3 neg 0 d 0 w3 neg d w3 neg 0 d cl s } def
/m29 {mp gsave x w2 sub y w2 add w3 sub m currentpoint t 4 {side} repeat cl fill gr} def
/m30 {mp gsave x w2 sub y w2 add w3 sub m currentpoint t 4 {side} repeat cl s gr} def
/m31 {mp x y w2 sub m 0 w d x w2 sub y m w 0 d x w2 sub y w2 add m w w neg d x w2 sub y w2 sub m w w d s} def
/m32 {mp x y w2 sub m w2 w d w neg 0 d cl s} def
/m33 {mp x y w2 add m w3 neg w2 neg d w3 w2 neg d w3 w2 d cl f} def
/m34 {mp x w2 sub y w2 sub w3 add m w3 0 d  0 w3 neg d w3 0 d 0 w3 d w3 0 d  0 w3 d w3 neg 0 d 0 w3 d w3 neg 0 d 0 w3 neg d w3 neg 0 d cl f } def
/m2 {mp x y w2 sub m 0 w d x w2 sub y m w 0 d s} def
/m5 {mp x w2 sub y w2 sub m w w d x w2 sub y w2 add m w w neg d s} def
/reEncode {exch findfont dup length dict begin {1 index /FID eq  {pop pop} {def} ifelse } forall /Encoding exch def currentdict end dup /FontName get exch definefont pop } def [/Times-Bold /Times-Italic /Times-BoldItalic /Helvetica /Helvetica-Oblique
 /Helvetica-Bold /Helvetica-BoldOblique /Courier /Courier-Oblique /Courier-Bold /Courier-BoldOblique /Times-Roman /AvantGarde-Book /AvantGarde-BookOblique /AvantGarde-Demi /AvantGarde-DemiOblique /Bookman-Demi /Bookman-DemiItalic /Bookman-Light
 /Bookman-LightItalic /Helvetica-Narrow /Helvetica-Narrow-Bold /Helvetica-Narrow-BoldOblique /Helvetica-Narrow-Oblique /NewCenturySchlbk-Roman /NewCenturySchlbk-Bold /NewCenturySchlbk-BoldItalic /NewCenturySchlbk-Italic /Palatino-Bold
 /Palatino-BoldItalic /Palatino-Italic /Palatino-Roman ] {ISOLatin1Encoding reEncode } forall%%EndProlog
%%BeginSetup
%%EndSetup
newpath  gsave  .25 .25 scale  gsave  0 0 t black[  ] 0 sd 3 lw 1 1 1 c 2268 1328 0 0 bf black 1 1 1 c black 1588 996 340 199 bl 1588 996 340 199 bl 6 lw 1 1 1 c black 3 lw /w 23 def /w2 {w 2 div} def /w3 {w 3 div} def 380 202 459 204 539 202 618 213
 697 203 777 200 856 202 935 223 1015 206 1094 213 1174 213 1253 212 1332 201 1412 274 1491 213 1570 248 1650 272 1729 277 1809 296 1888 305 20 { m21} R 6 lw 3 lw 340 199 m 1588 X s
 gsave  2268 1328 0 0 C 1527.01 68.3734 t 0 r /Helvetica findfont 62.6756 sf 0 0 m ( Energy \(GeV\)) show NC gr 
 gsave  2268 1328 0 0 C 1501.37 51.28 t 0 r /Symbol findfont 42.7334 sf 0 0 m (m) show NC gr 
 gsave  2268 1328 0 0 C 1467.18 68.3734 t 0 r /Symbol findfont 62.6756 sf 0 0 m (n) show NC gr  340 216 m -17 Y s 372 208 m -9 Y s 404 208 m -9 Y s 435 208 m -9 Y s 467 208 m -9 Y s 499 216 m -17 Y s 531 208 m -9 Y s 562 208 m -9 Y s 594 208 m -9 Y s
 626 208 m -9 Y s 658 216 m -17 Y s 689 208 m -9 Y s 721 208 m -9 Y s 753 208 m -9 Y s 785 208 m -9 Y s 816 216 m -17 Y s 848 208 m -9 Y s 880 208 m -9 Y s 912 208 m -9 Y s 943 208 m -9 Y s 975 216 m -17 Y s 1007 208 m -9 Y s 1039 208 m -9 Y s 1070
 208 m -9 Y s 1102 208 m -9 Y s 1134 216 m -17 Y s 1166 208 m -9 Y s 1197 208 m -9 Y s 1229 208 m -9 Y s 1261 208 m -9 Y s 1293 216 m -17 Y s 1324 208 m -9 Y s 1356 208 m -9 Y s 1388 208 m -9 Y s 1420 208 m -9 Y s 1451 216 m -17 Y s 1483 208 m -9 Y s
 1515 208 m -9 Y s 1547 208 m -9 Y s 1578 208 m -9 Y s 1610 216 m -17 Y s 1642 208 m -9 Y s 1674 208 m -9 Y s 1705 208 m -9 Y s 1737 208 m -9 Y s 1769 216 m -17 Y s 1801 208 m -9 Y s 1832 208 m -9 Y s 1864 208 m -9 Y s 1896 208 m -9 Y s 1928 216 m
 -17 Y s
 gsave  2268 1328 0 0 C 319.076 136.747 t 0 r /Helvetica findfont 68.3734 sf 0 0 m (0) show NC gr 
 gsave  2268 1328 0 0 C 484.311 136.747 t 0 r /Helvetica findfont 68.3734 sf 0 0 m (1) show NC gr 
 gsave  2268 1328 0 0 C 635.302 136.747 t 0 r /Helvetica findfont 68.3734 sf 0 0 m (2) show NC gr 
 gsave  2268 1328 0 0 C 794.84 136.747 t 0 r /Helvetica findfont 68.3734 sf 0 0 m (3) show NC gr 
 gsave  2268 1328 0 0 C 954.378 136.747 t 0 r /Helvetica findfont 68.3734 sf 0 0 m (4) show NC gr 
 gsave  2268 1328 0 0 C 1113.92 136.747 t 0 r /Helvetica findfont 68.3734 sf 0 0 m (5) show NC gr 
 gsave  2268 1328 0 0 C 1270.6 136.747 t 0 r /Helvetica findfont 68.3734 sf 0 0 m (6) show NC gr 
 gsave  2268 1328 0 0 C 1430.14 136.747 t 0 r /Helvetica findfont 68.3734 sf 0 0 m (7) show NC gr 
 gsave  2268 1328 0 0 C 1589.68 136.747 t 0 r /Helvetica findfont 68.3734 sf 0 0 m (8) show NC gr 
 gsave  2268 1328 0 0 C 1746.37 136.747 t 0 r /Helvetica findfont 68.3734 sf 0 0 m (9) show NC gr 
 gsave  2268 1328 0 0 C 1888.81 136.747 t 0 r /Helvetica findfont 68.3734 sf 0 0 m (10) show NC gr  340 1195 m 1588 X s 340 1178 m 17 Y s 372 1186 m 9 Y s 404 1186 m 9 Y s 435 1186 m 9 Y s 467 1186 m 9 Y s 499 1178 m 17 Y s 531 1186 m 9 Y s 562 1186
 m 9 Y s 594 1186 m 9 Y s 626 1186 m 9 Y s 658 1178 m 17 Y s 689 1186 m 9 Y s 721 1186 m 9 Y s 753 1186 m 9 Y s 785 1186 m 9 Y s 816 1178 m 17 Y s 848 1186 m 9 Y s 880 1186 m 9 Y s 912 1186 m 9 Y s 943 1186 m 9 Y s 975 1178 m 17 Y s 1007 1186 m 9 Y s
 1039 1186 m 9 Y s 1070 1186 m 9 Y s 1102 1186 m 9 Y s 1134 1178 m 17 Y s 1166 1186 m 9 Y s 1197 1186 m 9 Y s 1229 1186 m 9 Y s 1261 1186 m 9 Y s 1293 1178 m 17 Y s 1324 1186 m 9 Y s 1356 1186 m 9 Y s 1388 1186 m 9 Y s 1420 1186 m 9 Y s 1451 1178 m
 17 Y s 1483 1186 m 9 Y s 1515 1186 m 9 Y s 1547 1186 m 9 Y s 1578 1186 m 9 Y s 1610 1178 m 17 Y s 1642 1186 m 9 Y s 1674 1186 m 9 Y s 1705 1186 m 9 Y s 1737 1186 m 9 Y s 1769 1178 m 17 Y s 1801 1186 m 9 Y s 1832 1186 m 9 Y s 1864 1186 m 9 Y s 1896
 1186 m 9 Y s 1928 1178 m 17 Y s 340 199 m 996 Y s
 gsave  2268 1328 0 0 C 142.445 763.503 t 90 r /Helvetica findfont 62.6756 sf 0 0 m (Fractional Error) show NC gr  371 199 m -31 X s 355 232 m -15 X s 355 266 m -15 X s 355 299 m -15 X s 355 332 m -15 X s 371 365 m -31 X s 355 398 m -15 X s 355 431 m
 -15 X s 355 465 m -15 X s 355 498 m -15 X s 371 531 m -31 X s 355 564 m -15 X s 355 597 m -15 X s 355 631 m -15 X s 355 664 m -15 X s 371 697 m -31 X s 355 730 m -15 X s 355 763 m -15 X s 355 797 m -15 X s 355 830 m -15 X s 371 863 m -31 X s 355 896
 m -15 X s 355 929 m -15 X s 355 962 m -15 X s 355 996 m -15 X s 371 1029 m -31 X s 355 1062 m -15 X s 355 1095 m -15 X s 355 1128 m -15 X s 355 1162 m -15 X s 371 1195 m -31 X s 371 1195 m -31 X s
 gsave  2268 1328 0 0 C 290.587 173.782 t 0 r /Helvetica findfont 68.3734 sf 0 0 m (0) show NC gr 
 gsave  2268 1328 0 0 C 196.573 341.867 t 0 r /Helvetica findfont 68.3734 sf 0 0 m (0.05) show NC gr 
 gsave  2268 1328 0 0 C 245.005 507.102 t 0 r /Helvetica findfont 68.3734 sf 0 0 m (0.1) show NC gr 
 gsave  2268 1328 0 0 C 196.573 672.338 t 0 r /Helvetica findfont 68.3734 sf 0 0 m (0.15) show NC gr 
 gsave  2268 1328 0 0 C 233.609 837.574 t 0 r /Helvetica findfont 68.3734 sf 0 0 m (0.2) show NC gr 
 gsave  2268 1328 0 0 C 196.573 1005.66 t 0 r /Helvetica findfont 68.3734 sf 0 0 m (0.25) show NC gr 
 gsave  2268 1328 0 0 C 233.609 1170.89 t 0 r /Helvetica findfont 68.3734 sf 0 0 m (0.3) show NC gr  1928 199 m 996 Y s 1897 199 m 31 X s 1912 232 m 16 X s 1912 266 m 16 X s 1912 299 m 16 X s 1912 332 m 16 X s 1897 365 m 31 X s 1912 398 m 16 X s 1912
 431 m 16 X s 1912 465 m 16 X s 1912 498 m 16 X s 1897 531 m 31 X s 1912 564 m 16 X s 1912 597 m 16 X s 1912 631 m 16 X s 1912 664 m 16 X s 1897 697 m 31 X s 1912 730 m 16 X s 1912 763 m 16 X s 1912 797 m 16 X s 1912 830 m 16 X s 1897 863 m 31 X s
 1912 896 m 16 X s 1912 929 m 16 X s 1912 962 m 16 X s 1912 996 m 16 X s 1897 1029 m 31 X s 1912 1062 m 16 X s 1912 1095 m 16 X s 1912 1128 m 16 X s 1912 1162 m 16 X s 1897 1195 m 31 X s 1897 1195 m 31 X s 6 lw 1 1 1 c 1 0 0 c 3 lw 459 533 539 331
 618 337 697 442 777 423 856 376 935 358 1015 359 1094 366 1174 376 1253 385 1332 391 1412 408 1491 418 1570 425 1650 425 1729 425 1809 425 1888 425 19 { m21} R 6 lw black 1 1 1 c 0 1 0 c 3 lw 380 981 459 760 539 631 618 528 697 501 777 509 856 541
 935 596 1015 673 1094 760 1174 838 1253 891 1332 961 1412 988 1491 997 1570 1014 1650 1026 1729 1037 1809 1048 1888 1056 20 { m21} R 6 lw black
 gsave  2268 1328 0 0 C 871.76 1071.18 t 0 r /Helvetica-Bold findfont 59.8267 sf 0 0 m 
 93 57 14
( App) K NC gr 
 gsave  2268 1328 0 0 C 848.969 1054.09 t 0 r /Helvetica-Bold findfont 39.8845 sf 0 0 m (e) show NC gr 
 gsave  2268 1328 0 0 C 817.631 1071.18 t 0 r /Symbol findfont 59.8267 sf 0 0 m (n) show NC gr 
 gsave  2268 1328 0 0 C 678.036 1071.18 t 0 r /Helvetica-Bold findfont 59.8267 sf 0 0 m (Stat, ) show NC gr  0 1 0 c 3 lw 624 1084 m21 6 lw black
 gsave  2268 1328 0 0 C 871.76 985.716 t 0 r /Helvetica-Bold findfont 59.8267 sf 0 0 m ( Dis) show NC gr 
 gsave  2268 1328 0 0 C 848.969 971.472 t 0 r /Symbol findfont 39.8845 sf 0 0 m (m) show NC gr 
 gsave  2268 1328 0 0 C 817.631 985.716 t 0 r /Symbol findfont 59.8267 sf 0 0 m (n) show NC gr 
 gsave  2268 1328 0 0 C 678.036 985.716 t 0 r /Helvetica-Bold findfont 59.8267 sf 0 0 m (Stat, ) show NC gr  1 0 0 c 3 lw 624 996 m21 6 lw black
 gsave  2268 1328 0 0 C 678.036 891.703 t 0 r /Helvetica-Bold findfont 59.8267 sf 0 0 m (NoShielding) show NC gr  3 lw 624 907 m21 6 lw
 gr  gr showpage
end
%%EOF
