%!PS-Adobe-2.0 EPSF-2.0
%%BoundingBox:  0 0 567 332
%%Title: NoShielding_nof_statcomp.eps: Summary
%%Creator: ROOT Version 5.30/06
%%CreationDate: Thu Jan 23 14:19:10 2014
%%EndComments
%%BeginProlog
80 dict begin
/s {stroke} def /l {lineto} def /m {moveto} def /t {translate} def
/r {rotate} def /rl {roll}  def /R {repeat} def
/d {rlineto} def /rm {rmoveto} def /gr {grestore} def /f {eofill} def
/c {setrgbcolor} def /black {0 setgray} def /sd {setdash} def
/cl {closepath} def /sf {scalefont setfont} def /lw {setlinewidth} def
/box {m dup 0 exch d exch 0 d 0 exch neg d cl} def
/NC{systemdict begin initclip end}def/C{NC box clip newpath}def
/bl {box s} def /bf {box f} def /Y { 0 exch d} def /X { 0 d} def 
/K {{pop pop 0 moveto} exch kshow} bind def
/ita {/ang 15 def gsave [1 0 ang dup sin exch cos div 1 0 0] concat} def 
/mp {newpath /y exch def /x exch def} def
/side {[w .77 mul w .23 mul] .385 w mul sd w 0 l currentpoint t -144 r} def
/mr {mp x y w2 0 360 arc} def /m24 {mr s} def /m20 {mr f} def
/mb {mp x y w2 add m w2 neg 0 d 0 w neg d w 0 d 0 w d cl} def
/mt {mp x y w2 add m w2 neg w neg d w 0 d cl} def
/m21 {mb f} def /m25 {mb s} def /m22 {mt f} def /m26{mt s} def
/m23 {mp x y w2 sub m w2 w d w neg 0 d cl f} def
/m27 {mp x y w2 add m w3 neg w2 neg d w3 w2 neg d w3 w2 d cl s} def
/m28 {mp x w2 sub y w2 sub w3 add m w3 0 d  0 w3 neg d w3 0 d 0 w3 d w3 0 d  0 w3 d w3 neg 0 d 0 w3 d w3 neg 0 d 0 w3 neg d w3 neg 0 d cl s } def
/m29 {mp gsave x w2 sub y w2 add w3 sub m currentpoint t 4 {side} repeat cl fill gr} def
/m30 {mp gsave x w2 sub y w2 add w3 sub m currentpoint t 4 {side} repeat cl s gr} def
/m31 {mp x y w2 sub m 0 w d x w2 sub y m w 0 d x w2 sub y w2 add m w w neg d x w2 sub y w2 sub m w w d s} def
/m32 {mp x y w2 sub m w2 w d w neg 0 d cl s} def
/m33 {mp x y w2 add m w3 neg w2 neg d w3 w2 neg d w3 w2 d cl f} def
/m34 {mp x w2 sub y w2 sub w3 add m w3 0 d  0 w3 neg d w3 0 d 0 w3 d w3 0 d  0 w3 d w3 neg 0 d 0 w3 d w3 neg 0 d 0 w3 neg d w3 neg 0 d cl f } def
/m2 {mp x y w2 sub m 0 w d x w2 sub y m w 0 d s} def
/m5 {mp x w2 sub y w2 sub m w w d x w2 sub y w2 add m w w neg d s} def
/reEncode {exch findfont dup length dict begin {1 index /FID eq  {pop pop} {def} ifelse } forall /Encoding exch def currentdict end dup /FontName get exch definefont pop } def [/Times-Bold /Times-Italic /Times-BoldItalic /Helvetica /Helvetica-Oblique
 /Helvetica-Bold /Helvetica-BoldOblique /Courier /Courier-Oblique /Courier-Bold /Courier-BoldOblique /Times-Roman /AvantGarde-Book /AvantGarde-BookOblique /AvantGarde-Demi /AvantGarde-DemiOblique /Bookman-Demi /Bookman-DemiItalic /Bookman-Light
 /Bookman-LightItalic /Helvetica-Narrow /Helvetica-Narrow-Bold /Helvetica-Narrow-BoldOblique /Helvetica-Narrow-Oblique /NewCenturySchlbk-Roman /NewCenturySchlbk-Bold /NewCenturySchlbk-BoldItalic /NewCenturySchlbk-Italic /Palatino-Bold
 /Palatino-BoldItalic /Palatino-Italic /Palatino-Roman ] {ISOLatin1Encoding reEncode } forall%%EndProlog
%%BeginSetup
%%EndSetup
newpath  gsave  .25 .25 scale  gsave  0 0 t black[  ] 0 sd 3 lw 1 1 1 c 2268 1328 0 0 bf black 1 1 1 c black 1701 996 340 199 bl 1701 996 340 199 bl 6 lw 1 1 1 c black 3 lw /w 23 def /w2 {w 2 div} def /w3 {w 3 div} def 383 200 468 200 553 199 638 200
 723 199 808 201 893 206 978 208 1063 203 1148 205 1233 203 1318 206 1403 211 1488 208 1573 248 1658 245 1743 214 1828 230 1913 216 1998 200 20 { m21} R 6 lw 3 lw 340 199 m 1701 X s
 gsave  2268 1328 0 0 C 1640.96 68.3734 t 0 r /Helvetica findfont 62.6756 sf 0 0 m ( Energy \(GeV\)) show NC gr 
 gsave  2268 1328 0 0 C 1615.32 51.28 t 0 r /Symbol findfont 42.7334 sf 0 0 m (m) show NC gr 
 gsave  2268 1328 0 0 C 1581.13 68.3734 t 0 r /Symbol findfont 62.6756 sf 0 0 m (n) show NC gr  340 217 m -18 Y s 374 208 m -9 Y s 408 208 m -9 Y s 442 208 m -9 Y s 476 208 m -9 Y s 510 217 m -18 Y s 544 208 m -9 Y s 578 208 m -9 Y s 612 208 m -9 Y s
 646 208 m -9 Y s 680 217 m -18 Y s 714 208 m -9 Y s 748 208 m -9 Y s 782 208 m -9 Y s 816 208 m -9 Y s 850 217 m -18 Y s 884 208 m -9 Y s 918 208 m -9 Y s 952 208 m -9 Y s 986 208 m -9 Y s 1020 217 m -18 Y s 1054 208 m -9 Y s 1089 208 m -9 Y s 1123
 208 m -9 Y s 1157 208 m -9 Y s 1191 217 m -18 Y s 1225 208 m -9 Y s 1259 208 m -9 Y s 1293 208 m -9 Y s 1327 208 m -9 Y s 1361 217 m -18 Y s 1395 208 m -9 Y s 1429 208 m -9 Y s 1463 208 m -9 Y s 1497 208 m -9 Y s 1531 217 m -18 Y s 1565 208 m -9 Y s
 1599 208 m -9 Y s 1633 208 m -9 Y s 1667 208 m -9 Y s 1701 217 m -18 Y s 1735 208 m -9 Y s 1769 208 m -9 Y s 1803 208 m -9 Y s 1837 208 m -9 Y s 1871 217 m -18 Y s 1905 208 m -9 Y s 1939 208 m -9 Y s 1973 208 m -9 Y s 2007 208 m -9 Y s 2041 217 m
 -18 Y s
 gsave  2268 1328 0 0 C 319.076 136.747 t 0 r /Helvetica findfont 68.3734 sf 0 0 m (0) show NC gr 
 gsave  2268 1328 0 0 C 495.707 136.747 t 0 r /Helvetica findfont 68.3734 sf 0 0 m (1) show NC gr 
 gsave  2268 1328 0 0 C 658.094 136.747 t 0 r /Helvetica findfont 68.3734 sf 0 0 m (2) show NC gr 
 gsave  2268 1328 0 0 C 829.027 136.747 t 0 r /Helvetica findfont 68.3734 sf 0 0 m (3) show NC gr 
 gsave  2268 1328 0 0 C 999.96 136.747 t 0 r /Helvetica findfont 68.3734 sf 0 0 m (4) show NC gr 
 gsave  2268 1328 0 0 C 1168.04 136.747 t 0 r /Helvetica findfont 68.3734 sf 0 0 m (5) show NC gr 
 gsave  2268 1328 0 0 C 1338.98 136.747 t 0 r /Helvetica findfont 68.3734 sf 0 0 m (6) show NC gr 
 gsave  2268 1328 0 0 C 1509.91 136.747 t 0 r /Helvetica findfont 68.3734 sf 0 0 m (7) show NC gr 
 gsave  2268 1328 0 0 C 1680.85 136.747 t 0 r /Helvetica findfont 68.3734 sf 0 0 m (8) show NC gr 
 gsave  2268 1328 0 0 C 1848.93 136.747 t 0 r /Helvetica findfont 68.3734 sf 0 0 m (9) show NC gr 
 gsave  2268 1328 0 0 C 2002.77 136.747 t 0 r /Helvetica findfont 68.3734 sf 0 0 m (10) show NC gr  340 1195 m 1701 X s 340 1177 m 18 Y s 374 1186 m 9 Y s 408 1186 m 9 Y s 442 1186 m 9 Y s 476 1186 m 9 Y s 510 1177 m 18 Y s 544 1186 m 9 Y s 578 1186
 m 9 Y s 612 1186 m 9 Y s 646 1186 m 9 Y s 680 1177 m 18 Y s 714 1186 m 9 Y s 748 1186 m 9 Y s 782 1186 m 9 Y s 816 1186 m 9 Y s 850 1177 m 18 Y s 884 1186 m 9 Y s 918 1186 m 9 Y s 952 1186 m 9 Y s 986 1186 m 9 Y s 1020 1177 m 18 Y s 1054 1186 m 9 Y
 s 1089 1186 m 9 Y s 1123 1186 m 9 Y s 1157 1186 m 9 Y s 1191 1177 m 18 Y s 1225 1186 m 9 Y s 1259 1186 m 9 Y s 1293 1186 m 9 Y s 1327 1186 m 9 Y s 1361 1177 m 18 Y s 1395 1186 m 9 Y s 1429 1186 m 9 Y s 1463 1186 m 9 Y s 1497 1186 m 9 Y s 1531 1177 m
 18 Y s 1565 1186 m 9 Y s 1599 1186 m 9 Y s 1633 1186 m 9 Y s 1667 1186 m 9 Y s 1701 1177 m 18 Y s 1735 1186 m 9 Y s 1769 1186 m 9 Y s 1803 1186 m 9 Y s 1837 1186 m 9 Y s 1871 1177 m 18 Y s 1905 1186 m 9 Y s 1939 1186 m 9 Y s 1973 1186 m 9 Y s 2007
 1186 m 9 Y s 2041 1177 m 18 Y s 340 199 m 996 Y s
 gsave  2268 1328 0 0 C 170.933 763.503 t 90 r /Helvetica findfont 62.6756 sf 0 0 m (Fractional Error) show NC gr  371 199 m -31 X s 355 232 m -15 X s 355 266 m -15 X s 355 299 m -15 X s 355 332 m -15 X s 371 365 m -31 X s 355 398 m -15 X s 355 431 m
 -15 X s 355 465 m -15 X s 355 498 m -15 X s 371 531 m -31 X s 355 564 m -15 X s 355 597 m -15 X s 355 631 m -15 X s 355 664 m -15 X s 371 697 m -31 X s 355 730 m -15 X s 355 763 m -15 X s 355 797 m -15 X s 355 830 m -15 X s 371 863 m -31 X s 355 896
 m -15 X s 355 929 m -15 X s 355 962 m -15 X s 355 996 m -15 X s 371 1029 m -31 X s 355 1062 m -15 X s 355 1095 m -15 X s 355 1128 m -15 X s 355 1162 m -15 X s 371 1195 m -31 X s 371 1195 m -31 X s
 gsave  2268 1328 0 0 C 290.587 173.782 t 0 r /Helvetica findfont 68.3734 sf 0 0 m (0) show NC gr 
 gsave  2268 1328 0 0 C 196.573 341.867 t 0 r /Helvetica findfont 68.3734 sf 0 0 m (0.05) show NC gr 
 gsave  2268 1328 0 0 C 245.005 507.102 t 0 r /Helvetica findfont 68.3734 sf 0 0 m (0.1) show NC gr 
 gsave  2268 1328 0 0 C 196.573 672.338 t 0 r /Helvetica findfont 68.3734 sf 0 0 m (0.15) show NC gr 
 gsave  2268 1328 0 0 C 233.609 837.574 t 0 r /Helvetica findfont 68.3734 sf 0 0 m (0.2) show NC gr 
 gsave  2268 1328 0 0 C 196.573 1005.66 t 0 r /Helvetica findfont 68.3734 sf 0 0 m (0.25) show NC gr 
 gsave  2268 1328 0 0 C 233.609 1170.89 t 0 r /Helvetica findfont 68.3734 sf 0 0 m (0.3) show NC gr  2041 199 m 996 Y s 2010 199 m 31 X s 2026 232 m 15 X s 2026 266 m 15 X s 2026 299 m 15 X s 2026 332 m 15 X s 2010 365 m 31 X s 2026 398 m 15 X s 2026
 431 m 15 X s 2026 465 m 15 X s 2026 498 m 15 X s 2010 531 m 31 X s 2026 564 m 15 X s 2026 597 m 15 X s 2026 631 m 15 X s 2026 664 m 15 X s 2010 697 m 31 X s 2026 730 m 15 X s 2026 763 m 15 X s 2026 797 m 15 X s 2026 830 m 15 X s 2010 863 m 31 X s
 2026 896 m 15 X s 2026 929 m 15 X s 2026 962 m 15 X s 2026 996 m 15 X s 2010 1029 m 31 X s 2026 1062 m 15 X s 2026 1095 m 15 X s 2026 1128 m 15 X s 2026 1162 m 15 X s 2010 1195 m 31 X s 2010 1195 m 31 X s 6 lw 1 1 1 c 1 0 0 c 3 lw 468 533 553 331
 638 337 723 442 808 423 893 376 978 358 1063 359 1148 366 1233 376 1318 385 1403 391 1488 408 1573 418 1658 425 1743 425 1828 425 1913 425 1998 425 19 { m21} R 6 lw black 1 1 1 c 0 1 0 c 3 lw 383 981 468 760 553 631 638 528 723 501 808 509 893 541
 978 596 1063 673 1148 760 1233 838 1318 891 1403 961 1488 988 1573 997 1658 1014 1743 1026 1828 1037 1913 1048 1998 1056 20 { m21} R 6 lw black
 gsave  2268 1328 0 0 C 871.76 1071.18 t 0 r /Helvetica-Bold findfont 59.8267 sf 0 0 m 
 93 57 14
( App) K NC gr 
 gsave  2268 1328 0 0 C 848.969 1054.09 t 0 r /Helvetica-Bold findfont 39.8845 sf 0 0 m (e) show NC gr 
 gsave  2268 1328 0 0 C 817.631 1071.18 t 0 r /Symbol findfont 59.8267 sf 0 0 m (n) show NC gr 
 gsave  2268 1328 0 0 C 678.036 1071.18 t 0 r /Helvetica-Bold findfont 59.8267 sf 0 0 m (Stat, ) show NC gr  0 1 0 c 3 lw 624 1084 m21 6 lw black
 gsave  2268 1328 0 0 C 871.76 985.716 t 0 r /Helvetica-Bold findfont 59.8267 sf 0 0 m ( Dis) show NC gr 
 gsave  2268 1328 0 0 C 848.969 971.472 t 0 r /Symbol findfont 39.8845 sf 0 0 m (m) show NC gr 
 gsave  2268 1328 0 0 C 817.631 985.716 t 0 r /Symbol findfont 59.8267 sf 0 0 m (n) show NC gr 
 gsave  2268 1328 0 0 C 678.036 985.716 t 0 r /Helvetica-Bold findfont 59.8267 sf 0 0 m (Stat, ) show NC gr  1 0 0 c 3 lw 624 996 m21 6 lw black
 gsave  2268 1328 0 0 C 678.036 891.703 t 0 r /Helvetica-Bold findfont 59.8267 sf 0 0 m (NoShielding) show NC gr  3 lw 624 907 m21 6 lw
 gr  gr showpage
end
%%EOF
