%!PS-Adobe-2.0 EPSF-2.0
%%BoundingBox:  0 0 567 332
%%Title: SkinDepthIC__far_summary.eps: Summary
%%Creator: ROOT Version 5.30/06
%%CreationDate: Sun Feb  2 09:37:36 2014
%%EndComments
%%BeginProlog
80 dict begin
/s {stroke} def /l {lineto} def /m {moveto} def /t {translate} def
/r {rotate} def /rl {roll}  def /R {repeat} def
/d {rlineto} def /rm {rmoveto} def /gr {grestore} def /f {eofill} def
/c {setrgbcolor} def /black {0 setgray} def /sd {setdash} def
/cl {closepath} def /sf {scalefont setfont} def /lw {setlinewidth} def
/box {m dup 0 exch d exch 0 d 0 exch neg d cl} def
/NC{systemdict begin initclip end}def/C{NC box clip newpath}def
/bl {box s} def /bf {box f} def /Y { 0 exch d} def /X { 0 d} def 
/K {{pop pop 0 moveto} exch kshow} bind def
/ita {/ang 15 def gsave [1 0 ang dup sin exch cos div 1 0 0] concat} def 
/mp {newpath /y exch def /x exch def} def
/side {[w .77 mul w .23 mul] .385 w mul sd w 0 l currentpoint t -144 r} def
/mr {mp x y w2 0 360 arc} def /m24 {mr s} def /m20 {mr f} def
/mb {mp x y w2 add m w2 neg 0 d 0 w neg d w 0 d 0 w d cl} def
/mt {mp x y w2 add m w2 neg w neg d w 0 d cl} def
/m21 {mb f} def /m25 {mb s} def /m22 {mt f} def /m26{mt s} def
/m23 {mp x y w2 sub m w2 w d w neg 0 d cl f} def
/m27 {mp x y w2 add m w3 neg w2 neg d w3 w2 neg d w3 w2 d cl s} def
/m28 {mp x w2 sub y w2 sub w3 add m w3 0 d  0 w3 neg d w3 0 d 0 w3 d w3 0 d  0 w3 d w3 neg 0 d 0 w3 d w3 neg 0 d 0 w3 neg d w3 neg 0 d cl s } def
/m29 {mp gsave x w2 sub y w2 add w3 sub m currentpoint t 4 {side} repeat cl fill gr} def
/m30 {mp gsave x w2 sub y w2 add w3 sub m currentpoint t 4 {side} repeat cl s gr} def
/m31 {mp x y w2 sub m 0 w d x w2 sub y m w 0 d x w2 sub y w2 add m w w neg d x w2 sub y w2 sub m w w d s} def
/m32 {mp x y w2 sub m w2 w d w neg 0 d cl s} def
/m33 {mp x y w2 add m w3 neg w2 neg d w3 w2 neg d w3 w2 d cl f} def
/m34 {mp x w2 sub y w2 sub w3 add m w3 0 d  0 w3 neg d w3 0 d 0 w3 d w3 0 d  0 w3 d w3 neg 0 d 0 w3 d w3 neg 0 d 0 w3 neg d w3 neg 0 d cl f } def
/m2 {mp x y w2 sub m 0 w d x w2 sub y m w 0 d s} def
/m5 {mp x w2 sub y w2 sub m w w d x w2 sub y w2 add m w w neg d s} def
/reEncode {exch findfont dup length dict begin {1 index /FID eq  {pop pop} {def} ifelse } forall /Encoding exch def currentdict end dup /FontName get exch definefont pop } def [/Times-Bold /Times-Italic /Times-BoldItalic /Helvetica /Helvetica-Oblique
 /Helvetica-Bold /Helvetica-BoldOblique /Courier /Courier-Oblique /Courier-Bold /Courier-BoldOblique /Times-Roman /AvantGarde-Book /AvantGarde-BookOblique /AvantGarde-Demi /AvantGarde-DemiOblique /Bookman-Demi /Bookman-DemiItalic /Bookman-Light
 /Bookman-LightItalic /Helvetica-Narrow /Helvetica-Narrow-Bold /Helvetica-Narrow-BoldOblique /Helvetica-Narrow-Oblique /NewCenturySchlbk-Roman /NewCenturySchlbk-Bold /NewCenturySchlbk-BoldItalic /NewCenturySchlbk-Italic /Palatino-Bold
 /Palatino-BoldItalic /Palatino-Italic /Palatino-Roman ] {ISOLatin1Encoding reEncode } forall%%EndProlog
%%BeginSetup
%%EndSetup
newpath  gsave  .25 .25 scale  gsave  0 0 t black[  ] 0 sd 3 lw 1 1 1 c 2268 1328 0 0 bf black 1 1 1 c black 1588 996 340 199 bl 1588 996 340 199 bl 1 1 1 c 1 0 0 c /w 23 def /w2 {w 2 div} def /w3 {w 3 div} def 380 293 m21 459 283 m21 539 278 m21 618
 282 m21 697 289 m21 777 286 m21 856 277 m21 935 273 m21 1015 232 m21 1094 246 m21 black 1174 220 m 1 Y s 1168 221 m 11 X s 1 0 0 c 1174 209 m21 black 1253 215 m 3 Y s 1247 218 m 12 X s 1 0 0 c 1253 204 m21 black 1332 209 m 7 Y s 1332 239 m 6 Y s
 1327 209 m 11 X s 1327 245 m 11 X s 1 0 0 c 1332 227 m21 black 1412 230 m 10 Y s 1412 263 m 10 Y s 1406 230 m 11 X s 1406 273 m 11 X s 1 0 0 c 1412 252 m21 black 1491 253 m 13 Y s 1491 289 m 13 Y s 1485 253 m 12 X s 1485 302 m 12 X s 1 0 0 c 1491
 277 m21 black 1570 240 m 16 Y s 1570 278 m 16 Y s 1565 240 m 11 X s 1565 294 m 11 X s 1 0 0 c 1570 267 m21 black 1650 248 m 18 Y s 1650 289 m 17 Y s 1644 248 m 11 X s 1644 306 m 11 X s 1 0 0 c 1650 277 m21 black 1729 253 m 20 Y s 1729 296 m 20 Y s
 1723 253 m 12 X s 1723 316 m 12 X s 1 0 0 c 1729 284 m21 black 1809 209 m 22 Y s 1809 254 m 21 Y s 1803 209 m 11 X s 1803 275 m 11 X s 1 0 0 c 1809 242 m21 black 1888 246 m 25 Y s 1888 294 m 24 Y s 1882 246 m 12 X s 1882 318 m 12 X s 1 0 0 c 1888
 282 m21 black 340 199 m 1588 X s
 gsave  2268 1328 0 0 C 954.378 68.3734 t 0 r /Helvetica findfont 62.6756 sf 0 0 m ( Energy \(GeV\) ) show NC gr 
 gsave  2268 1328 0 0 C 928.738 51.28 t 0 r /Symbol findfont 42.7334 sf 0 0 m (m) show NC gr 
 gsave  2268 1328 0 0 C 894.552 68.3734 t 0 r /Symbol findfont 62.6756 sf 0 0 m (n) show NC gr  340 216 m -17 Y s 372 208 m -9 Y s 404 208 m -9 Y s 435 208 m -9 Y s 467 208 m -9 Y s 499 216 m -17 Y s 531 208 m -9 Y s 562 208 m -9 Y s 594 208 m -9 Y s
 626 208 m -9 Y s 658 216 m -17 Y s 689 208 m -9 Y s 721 208 m -9 Y s 753 208 m -9 Y s 785 208 m -9 Y s 816 216 m -17 Y s 848 208 m -9 Y s 880 208 m -9 Y s 912 208 m -9 Y s 943 208 m -9 Y s 975 216 m -17 Y s 1007 208 m -9 Y s 1039 208 m -9 Y s 1070
 208 m -9 Y s 1102 208 m -9 Y s 1134 216 m -17 Y s 1166 208 m -9 Y s 1197 208 m -9 Y s 1229 208 m -9 Y s 1261 208 m -9 Y s 1293 216 m -17 Y s 1324 208 m -9 Y s 1356 208 m -9 Y s 1388 208 m -9 Y s 1420 208 m -9 Y s 1451 216 m -17 Y s 1483 208 m -9 Y s
 1515 208 m -9 Y s 1547 208 m -9 Y s 1578 208 m -9 Y s 1610 216 m -17 Y s 1642 208 m -9 Y s 1674 208 m -9 Y s 1705 208 m -9 Y s 1737 208 m -9 Y s 1769 216 m -17 Y s 1801 208 m -9 Y s 1832 208 m -9 Y s 1864 208 m -9 Y s 1896 208 m -9 Y s 1928 216 m
 -17 Y s
 gsave  2268 1328 0 0 C 319.076 136.747 t 0 r /Helvetica findfont 68.3734 sf 0 0 m (0) show NC gr 
 gsave  2268 1328 0 0 C 484.311 136.747 t 0 r /Helvetica findfont 68.3734 sf 0 0 m (1) show NC gr 
 gsave  2268 1328 0 0 C 635.302 136.747 t 0 r /Helvetica findfont 68.3734 sf 0 0 m (2) show NC gr 
 gsave  2268 1328 0 0 C 794.84 136.747 t 0 r /Helvetica findfont 68.3734 sf 0 0 m (3) show NC gr 
 gsave  2268 1328 0 0 C 954.378 136.747 t 0 r /Helvetica findfont 68.3734 sf 0 0 m (4) show NC gr 
 gsave  2268 1328 0 0 C 1113.92 136.747 t 0 r /Helvetica findfont 68.3734 sf 0 0 m (5) show NC gr 
 gsave  2268 1328 0 0 C 1270.6 136.747 t 0 r /Helvetica findfont 68.3734 sf 0 0 m (6) show NC gr 
 gsave  2268 1328 0 0 C 1430.14 136.747 t 0 r /Helvetica findfont 68.3734 sf 0 0 m (7) show NC gr 
 gsave  2268 1328 0 0 C 1589.68 136.747 t 0 r /Helvetica findfont 68.3734 sf 0 0 m (8) show NC gr 
 gsave  2268 1328 0 0 C 1746.37 136.747 t 0 r /Helvetica findfont 68.3734 sf 0 0 m (9) show NC gr 
 gsave  2268 1328 0 0 C 1888.81 136.747 t 0 r /Helvetica findfont 68.3734 sf 0 0 m (10) show NC gr  340 1195 m 1588 X s 340 1178 m 17 Y s 372 1186 m 9 Y s 404 1186 m 9 Y s 435 1186 m 9 Y s 467 1186 m 9 Y s 499 1178 m 17 Y s 531 1186 m 9 Y s 562 1186
 m 9 Y s 594 1186 m 9 Y s 626 1186 m 9 Y s 658 1178 m 17 Y s 689 1186 m 9 Y s 721 1186 m 9 Y s 753 1186 m 9 Y s 785 1186 m 9 Y s 816 1178 m 17 Y s 848 1186 m 9 Y s 880 1186 m 9 Y s 912 1186 m 9 Y s 943 1186 m 9 Y s 975 1178 m 17 Y s 1007 1186 m 9 Y s
 1039 1186 m 9 Y s 1070 1186 m 9 Y s 1102 1186 m 9 Y s 1134 1178 m 17 Y s 1166 1186 m 9 Y s 1197 1186 m 9 Y s 1229 1186 m 9 Y s 1261 1186 m 9 Y s 1293 1178 m 17 Y s 1324 1186 m 9 Y s 1356 1186 m 9 Y s 1388 1186 m 9 Y s 1420 1186 m 9 Y s 1451 1178 m
 17 Y s 1483 1186 m 9 Y s 1515 1186 m 9 Y s 1547 1186 m 9 Y s 1578 1186 m 9 Y s 1610 1178 m 17 Y s 1642 1186 m 9 Y s 1674 1186 m 9 Y s 1705 1186 m 9 Y s 1737 1186 m 9 Y s 1769 1178 m 17 Y s 1801 1186 m 9 Y s 1832 1186 m 9 Y s 1864 1186 m 9 Y s 1896
 1186 m 9 Y s 1928 1178 m 17 Y s 340 199 m 996 Y s
 gsave  2268 1328 0 0 C 170.933 427.334 t 90 r /Helvetica findfont 62.6756 sf 0 0 m (Far Flux to Nominal) show NC gr  371 290 m -31 X s 355 326 m -15 X s 355 362 m -15 X s 355 398 m -15 X s 355 434 m -15 X s 371 471 m -31 X s 355 507 m -15 X s 355
 543 m -15 X s 355 579 m -15 X s 355 616 m -15 X s 371 652 m -31 X s 355 688 m -15 X s 355 724 m -15 X s 355 760 m -15 X s 355 797 m -15 X s 371 833 m -31 X s 355 869 m -15 X s 355 905 m -15 X s 355 941 m -15 X s 355 978 m -15 X s 371 1014 m -31 X s
 355 1050 m -15 X s 355 1086 m -15 X s 355 1122 m -15 X s 355 1159 m -15 X s 371 1195 m -31 X s 371 290 m -31 X s 355 253 m -15 X s 355 217 m -15 X s
 gsave  2268 1328 0 0 C 301.982 262.098 t 0 r /Helvetica findfont 68.3734 sf 0 0 m (1) show NC gr 
 gsave  2268 1328 0 0 C 245.005 444.427 t 0 r /Helvetica findfont 68.3734 sf 0 0 m (1.1) show NC gr 
 gsave  2268 1328 0 0 C 233.609 623.907 t 0 r /Helvetica findfont 68.3734 sf 0 0 m (1.2) show NC gr 
 gsave  2268 1328 0 0 C 233.609 809.085 t 0 r /Helvetica findfont 68.3734 sf 0 0 m (1.3) show NC gr 
 gsave  2268 1328 0 0 C 233.609 985.716 t 0 r /Helvetica findfont 68.3734 sf 0 0 m (1.4) show NC gr 
 gsave  2268 1328 0 0 C 233.609 1170.89 t 0 r /Helvetica findfont 68.3734 sf 0 0 m (1.5) show NC gr  1928 199 m 996 Y s 1897 290 m 31 X s 1912 326 m 16 X s 1912 362 m 16 X s 1912 398 m 16 X s 1912 434 m 16 X s 1897 471 m 31 X s 1912 507 m 16 X s 1912
 543 m 16 X s 1912 579 m 16 X s 1912 616 m 16 X s 1897 652 m 31 X s 1912 688 m 16 X s 1912 724 m 16 X s 1912 760 m 16 X s 1912 797 m 16 X s 1897 833 m 31 X s 1912 869 m 16 X s 1912 905 m 16 X s 1912 941 m 16 X s 1912 978 m 16 X s 1897 1014 m 31 X s
 1912 1050 m 16 X s 1912 1086 m 16 X s 1912 1122 m 16 X s 1912 1159 m 16 X s 1897 1195 m 31 X s 1897 290 m 31 X s 1912 253 m 16 X s 1912 217 m 16 X s 1 0 0 c 6 lw 1 1 1 c 1 0 0 c 380 291 m 12 X 14 1 d 14 -1 d 28 X 11 -1 d 8 X 10 -1 d 16 -2 d 19 -3 d
 9 -1 d 8 X 7 -1 d 33 X 13 1 d 21 1 d 15 1 d 9 1 d 11 1 d 28 3 d 10 1 d 38 X 10 -1 d 13 -1 d 40 -4 d 17 -1 d 37 -4 d 11 X 12 -1 d 2 X 7 -1 d 8 X 10 1 d 46 X 6 -1 d 2 X 5 -1 d 5 -1 d 52 -20 d 6 -2 d 4 -1 d 5 -1 d 3 -1 d 5 X 5 -1 d 19 X 11 1 d 16 1 d
 23 X 10 -1 d 10 -1 d 10 -1 d 11 -2 d 15 -2 d 16 -3 d 8 -2 d 5 -1 d 7 -2 d 8 -2 d 29 -9 d 7 -2 d 5 -1 d 6 -1 d 4 -1 d 5 -1 d 13 X 5 1 d 6 X 7 1 d 7 1 d 9 2 d 14 3 d 13 3 d 8 2 d 25 4 d 14 2 d 11 2 d 9 2 d 8 2 d 6 2 d 7 2 d 4 1 d 5 2 d 4 2 d 5 3 d 7 3
 d 16 10 d 6 3 d 4 3 d 4 2 d 5 2 d 4 1 d 4 1 d 3 1 d 4 1 d 15 X 4 -1 d 5 -1 d 4 -1 d 5 -1 d 6 -2 d 12 -5 d 10 -3 d 6 -3 d 5 -1 d 4 -1 d 5 -1 d 2 -1 d 16 -2 d 9 -1 d 9 -1 d 7 -1 d 32 X 7 1 d 3 1 d 4 X 4 2 d 4 1 d 4 2 d 6 2 d 7 4 d 10 5 d 6 3 d 4 2 d 4
 2 d 4 1 d 3 1 d 3 X 3 1 d 10 X 3 -1 d 2 X 3 -1 d 2 -1 d 2 -1 d 3 -1 d 2 -2 d 3 -2 d 2 -2 d 3 -3 d 3 -3 d 3 -4 d 4 -6 d 11 -18 d 3 -4 d 3 -3 d 2 -3 d 3 -2 d 2 -2 d 3 -2 d 2 -1 d 2 -1 d 3 -1 d 2 -1 d 3 -1 d 14 X 4 1 d 4 1 d 4 1 d 5 1 d 4 2 d 4 1 d 4 2
 d 4 2 d 3 2 d s 1853 233 m 4 3 d 3 2 d 3 3 d 3 3 d 3 3 d 3 3 d 3 3 d 2 4 d 2 3 d 2 3 d 2 4 d 2 4 d 1 4 d 1 3 d 1 4 d s 3 lw /w 2 def /w2 {w 2 div} def /w3 {w 3 div} def 380 291 459 290 539 282 618 285 697 291 777 285 856 279 935 278 1015 251 1094
 252 1174 240 1253 220 1332 233 1412 249 1491 284 1570 263 1650 259 1729 286 1809 220 1888 282 20 { m20} R 6 lw black 1 0 0 c
 gsave  2268 1328 0 0 C 2036.96 316.227 t 0 r /Helvetica-Bold findfont 48.4311 sf 0 0 m (/dof=1.2) show NC gr  black 1 0 0 c
 gsave  2268 1328 0 0 C 2017.01 333.32 t 0 r /Helvetica-Bold findfont 34.1867 sf 0 0 m (2) show NC gr  black 1 0 0 c
 gsave  2268 1328 0 0 C 1991.37 316.227 t 0 r /Symbol findfont 48.4311 sf 0 0 m (c) show NC gr  black 3 lw 340 290 m 1588 X s
 gsave  2268 1328 0 0 C 333.32 1213.63 t 0 r /Helvetica-Bold findfont 42.7334 sf 0 0 m (2.5 mm) show NC gr  1 0 0 c /w 23 def /w2 {w 2 div} def /w3 {w 3 div} def 292 1228 m21 black 1 1 1 c 0 0 1 c 380 470 m21 459 474 m21 539 467 m21 618 466 m21 697
 469 m21 777 462 m21 856 464 m21 935 460 m21 1015 451 m21 1094 443 m21 black 1174 442 m 1 Y s 1174 466 m 2 Y s 1168 442 m 11 X s 1168 468 m 11 X s 0 0 1 c 1174 455 m21 black 1253 401 m 5 Y s 1253 429 m 5 Y s 1247 401 m 12 X s 1247 434 m 12 X s 0 0 1
 c 1253 418 m21 black 1332 401 m 9 Y s 1332 432 m 9 Y s 1327 401 m 11 X s 1327 441 m 11 X s 0 0 1 c 1332 421 m21 black 1412 395 m 12 Y s 1412 430 m 12 Y s 1406 395 m 11 X s 1406 442 m 11 X s 0 0 1 c 1412 419 m21 black 1491 428 m 15 Y s 1491 466 m 16
 Y s 1485 428 m 12 X s 1485 482 m 12 X s 0 0 1 c 1491 455 m21 black 1570 408 m 18 Y s 1570 449 m 18 Y s 1565 408 m 11 X s 1565 467 m 11 X s 0 0 1 c 1570 437 m21 black 1650 395 m 20 Y s 1650 438 m 20 Y s 1644 395 m 11 X s 1644 458 m 11 X s 0 0 1 c
 1650 426 m21 black 1729 439 m 23 Y s 1729 485 m 24 Y s 1723 439 m 12 X s 1723 509 m 12 X s 0 0 1 c 1729 474 m21 black 1809 329 m 25 Y s 1809 377 m 24 Y s 1803 329 m 11 X s 1803 401 m 11 X s 0 0 1 c 1809 365 m21 black 1888 433 m 28 Y s 1888 484 m 29
 Y s 1882 433 m 12 X s 1882 513 m 12 X s 0 0 1 c 1888 473 m21 6 lw 1 1 1 c 0 0 1 c 380 472 m 61 X 15 -1 d 12 X 11 -1 d 19 -2 d 16 -2 d 9 -1 d 16 X 10 -1 d 11 1 d 28 X 30 2 d 10 X 10 1 d 28 3 d 10 1 d 39 X 11 -1 d 16 -1 d 29 -2 d 6 -1 d 19 -1 d 34 -3
 d 13 -1 d 13 X 7 -1 d 9 X 11 1 d 41 X 5 -1 d 6 X 5 -1 d 5 -1 d 70 -20 d 5 X 5 -1 d 22 X 15 1 d 10 X 7 1 d 13 X 2 -1 d 10 X 11 -1 d 12 -2 d 12 -1 d 15 -2 d 20 -3 d 6 -1 d 7 -2 d 9 -2 d 26 -7 d 7 -1 d 6 -2 d 6 -1 d 10 X 2 -1 d 10 X 6 1 d 6 X 7 1 d 9 2
 d 13 2 d 13 2 d 8 1 d 7 1 d 8 1 d 10 1 d 31 2 d 7 X 8 1 d 5 1 d 6 1 d 5 1 d 3 2 d 5 1 d 4 2 d 4 2 d 5 2 d 6 4 d 16 9 d 5 3 d 5 2 d 3 2 d 4 2 d 5 1 d 3 1 d 4 1 d 3 1 d 15 X 4 -1 d 4 -1 d 5 -1 d 5 -1 d 6 -2 d 8 -3 d 14 -5 d 6 -2 d 5 -2 d 4 -1 d 4 -1 d
 3 X 14 -2 d 10 -2 d 9 -1 d 7 X 8 -1 d 19 X 6 1 d 7 X 3 1 d 4 1 d 4 1 d 4 1 d 4 2 d 6 2 d 7 4 d 10 5 d 6 3 d 4 2 d 4 1 d 4 1 d 3 1 d 3 1 d 16 X 2 -1 d 3 -1 d 2 X 2 -2 d 3 -1 d 2 -2 d 3 -1 d 2 -3 d 3 -2 d 3 -3 d 3 -4 d 4 -5 d 11 -18 d 3 -3 d 3 -3 d 2
 -3 d 3 -2 d 2 -2 d 3 -2 d 2 -1 d 2 -1 d 3 -1 d 2 -1 d 3 X 2 -1 d 8 X 4 1 d 4 X 4 1 d 4 1 d 5 1 d 4 2 d 4 1 d 4 2 d 4 2 d 3 2 d 4 2 d 3 3 d 3 2 d 3 3 d 3 3 d s 1869 430 m 3 3 d 3 3 d 2 3 d 2 4 d 2 3 d 2 3 d 2 4 d 1 3 d 1 4 d 1 4 d s 3 lw /w 2 def /w2
 {w 2 div} def /w3 {w 3 div} def 380 472 459 471 539 465 618 467 697 472 777 467 856 462 935 461 1015 439 1094 439 1174 430 1253 413 1332 423 1412 431 1491 466 1570 446 1650 441 1729 467 1809 404 1888 464 20 { m20} R 6 lw black 0 0 1 c
 gsave  2268 1328 0 0 C 2036.96 515.649 t 0 r /Helvetica-Bold findfont 48.4311 sf 0 0 m (/dof=0.5) show NC gr  black 0 0 1 c
 gsave  2268 1328 0 0 C 2017.01 532.742 t 0 r /Helvetica-Bold findfont 34.1867 sf 0 0 m (2) show NC gr  black 0 0 1 c
 gsave  2268 1328 0 0 C 1991.37 515.649 t 0 r /Symbol findfont 48.4311 sf 0 0 m (c) show NC gr  black 3 lw 340 471 m 1588 X s
 gsave  2268 1328 0 0 C 695.129 1213.63 t 0 r /Helvetica-Bold findfont 42.7334 sf 0 0 m (3.5 mm) show NC gr  0 0 1 c /w 23 def /w2 {w 2 div} def /w3 {w 3 div} def 655 1228 m21 black 1 1 1 c 1 0 1 c 380 654 m21 459 659 m21 539 649 m21 618 653 m21 697
 660 m21 777 656 m21 856 642 m21 935 659 m21 1015 649 m21 1094 630 m21 black 1174 622 m 3 Y s 1174 648 m 3 Y s 1168 622 m 11 X s 1168 651 m 11 X s 1 0 1 c 1174 637 m21 black 1253 621 m 7 Y s 1253 651 m 6 Y s 1247 621 m 12 X s 1247 657 m 12 X s 1 0 1
 c 1253 639 m21 black 1332 593 m 11 Y s 1332 627 m 10 Y s 1327 593 m 11 X s 1327 637 m 11 X s 1 0 1 c 1332 615 m21 black 1412 600 m 14 Y s 1412 637 m 14 Y s 1406 600 m 11 X s 1406 651 m 11 X s 1 0 1 c 1412 625 m21 black 1491 627 m 19 Y s 1491 668 m
 18 Y s 1485 627 m 12 X s 1485 686 m 12 X s 1 0 1 c 1491 657 m21 black 1570 620 m 21 Y s 1570 663 m 21 Y s 1565 620 m 11 X s 1565 684 m 11 X s 1 0 1 c 1570 652 m21 black 1650 540 m 23 Y s 1650 586 m 23 Y s 1644 540 m 11 X s 1644 609 m 11 X s 1 0 1 c
 1650 574 m21 black 1729 606 m 26 Y s 1729 655 m 27 Y s 1723 606 m 12 X s 1723 682 m 12 X s 1 0 1 c 1729 644 m21 black 1809 528 m 28 Y s 1809 579 m 28 Y s 1803 528 m 11 X s 1803 607 m 11 X s 1 0 1 c 1809 568 m21 black 1888 633 m 32 Y s 1888 688 m 32
 Y s 1882 633 m 12 X s 1882 720 m 12 X s 1 0 1 c 1888 677 m21 6 lw 1 1 1 c 1 0 1 c 380 653 m 64 X 15 -1 d 10 X 12 -1 d 41 -3 d 8 -1 d 46 X 15 1 d 27 1 d 10 X 15 1 d 24 2 d 10 1 d 39 X 61 -4 d 33 -2 d 23 -1 d 14 -1 d 9 X 8 -1 d 10 1 d 54 X 6 -1 d 1 X
 6 -1 d 5 -1 d 6 -1 d 7 -2 d 10 -2 d 20 -5 d 8 -2 d 6 -1 d 5 -1 d 5 -1 d 7 X 6 -1 d 15 X 11 1 d 54 X 11 -1 d 13 -1 d 14 -2 d 17 -2 d 13 -1 d 6 -1 d 8 -2 d 11 -2 d 21 -4 d 8 -1 d 7 -1 d 6 -1 d 5 -1 d 23 X 7 1 d 9 1 d 15 2 d 12 2 d 7 1 d 7 X 6 1 d 21 X
 30 -1 d 22 X 4 1 d 3 1 d 3 X 4 1 d 4 2 d 4 1 d 4 2 d 5 2 d 6 4 d 14 8 d 5 3 d 4 2 d 4 2 d 4 1 d 4 1 d 3 1 d 4 1 d 3 1 d 15 X 4 -1 d 4 X 5 -1 d 5 -2 d 5 -2 d 8 -2 d 15 -6 d 6 -2 d 5 -1 d 4 -1 d 4 -1 d 3 X 12 -2 d 11 -1 d 8 -1 d 8 -1 d 34 X 6 1 d 4 X
 4 1 d 4 1 d 4 1 d 4 2 d 6 2 d 7 3 d 10 5 d 6 2 d 4 2 d 4 2 d 4 1 d 3 X 3 1 d 3 X 4 1 d 3 X 3 -1 d 3 X 2 -1 d 3 X 2 -1 d 2 -1 d 3 -1 d 2 -2 d 3 -1 d 2 -2 d 3 -3 d 3 -3 d 3 -3 d 4 -5 d 11 -16 d 3 -3 d 3 -3 d 2 -3 d 3 -2 d 2 -1 d 3 -2 d 2 -1 d 2 -1 d 3
 -1 d 2 -1 d 5 X 4 -1 d 4 X 4 1 d 4 X 4 1 d 4 1 d 5 1 d 4 1 d 4 2 d 4 2 d 4 1 d 3 2 d 4 2 d s 1857 604 m 3 3 d 3 2 d 3 2 d 3 3 d 3 3 d 3 3 d 2 3 d 2 3 d 2 3 d 2 3 d 2 3 d 1 3 d 1 4 d 1 3 d s 3 lw /w 2 def /w2 {w 2 div} def /w3 {w 3 div} def 380 653
 459 652 539 647 618 649 697 653 777 649 856 645 935 644 1015 627 1094 627 1174 620 1253 607 1332 615 1412 616 1491 648 1570 629 1650 625 1729 648 1809 590 1888 645 20 { m20} R 6 lw black 1 0 1 c
 gsave  2268 1328 0 0 C 2036.96 715.071 t 0 r /Helvetica-Bold findfont 48.4311 sf 0 0 m (/dof=1.3) show NC gr  black 1 0 1 c
 gsave  2268 1328 0 0 C 2017.01 732.165 t 0 r /Helvetica-Bold findfont 34.1867 sf 0 0 m (2) show NC gr  black 1 0 1 c
 gsave  2268 1328 0 0 C 1991.37 715.071 t 0 r /Symbol findfont 48.4311 sf 0 0 m (c) show NC gr  black 3 lw 340 652 m 1588 X s
 gsave  2268 1328 0 0 C 1059.79 1213.63 t 0 r /Helvetica-Bold findfont 42.7334 sf 0 0 m (4.5 mm) show NC gr  1 0 1 c /w 23 def /w2 {w 2 div} def /w3 {w 3 div} def 1018 1228 m21 black 1 1 1 c 0 0.733333 1 c 380 832 m21 459 830 m21 539 836 m21 618 835
 m21 697 833 m21 777 829 m21 856 836 m21 935 824 m21 1015 818 m21 black 1094 812 m s 1094 835 m 1 Y s 1088 812 m 12 X s 1088 836 m 12 X s 0 0.733333 1 c 1094 824 m21 black 1174 828 m 4 Y s 1174 855 m 4 Y s 1168 828 m 11 X s 1168 859 m 11 X s 0
 0.733333 1 c 1174 844 m21 black 1253 768 m 8 Y s 1253 798 m 8 Y s 1247 768 m 12 X s 1247 806 m 12 X s 0 0.733333 1 c 1253 787 m21 black 1332 795 m 12 Y s 1332 830 m 13 Y s 1327 795 m 11 X s 1327 843 m 11 X s 0 0.733333 1 c 1332 819 m21 black 1412
 786 m 16 Y s 1412 825 m 17 Y s 1406 786 m 11 X s 1406 842 m 11 X s 0 0.733333 1 c 1412 814 m21 black 1491 857 m 21 Y s 1491 900 m 21 Y s 1485 857 m 12 X s 1485 921 m 12 X s 0 0.733333 1 c 1491 889 m21 black 1570 784 m 23 Y s 1570 830 m 23 Y s 1565
 784 m 11 X s 1565 853 m 11 X s 0 0.733333 1 c 1570 818 m21 black 1650 829 m 27 Y s 1650 879 m 27 Y s 1644 829 m 11 X s 1644 906 m 11 X s 0 0.733333 1 c 1650 867 m21 black 1729 826 m 30 Y s 1729 879 m 30 Y s 1723 826 m 12 X s 1723 909 m 12 X s 0
 0.733333 1 c 1729 868 m21 black 1809 794 m 33 Y s 1809 849 m 33 Y s 1803 794 m 11 X s 1803 882 m 11 X s 0 0.733333 1 c 1809 838 m21 black 1888 766 m 35 Y s 1888 824 m 35 Y s 1882 766 m 12 X s 1882 859 m 12 X s 0 0.733333 1 c 1888 813 m21 6 lw 1 1 1
 c 0 0.733333 1 c 380 833 m 17 1 d 35 X 17 -1 d 21 X 13 -1 d 37 -2 d 10 X 9 -1 d 26 X 16 1 d 19 X 18 1 d 11 X 16 1 d 23 1 d 10 1 d 39 X 14 -1 d 46 -2 d 65 -3 d 14 X 9 -1 d 11 1 d 51 X 7 -1 d 7 X 6 -1 d 8 -1 d 9 -2 d 28 -5 d 8 -1 d 5 -1 d 6 -1 d 4 X 6
 -1 d 24 X 15 1 d 47 X 13 -1 d 14 -1 d 18 -2 d 22 -1 d 7 -1 d 9 -1 d 19 -3 d 14 -2 d 8 -1 d 7 -1 d 6 X 6 -1 d 14 X 6 1 d 8 X 8 1 d 21 2 d 8 1 d 6 1 d 21 X 6 -1 d 7 -1 d 23 -3 d 6 X 7 -1 d 17 X 4 1 d 3 X 3 1 d 4 1 d 4 1 d 3 1 d 5 2 d 4 2 d 6 3 d 14 8
 d 4 2 d 4 2 d 4 1 d 4 2 d 3 1 d 4 1 d 3 X 3 1 d 15 X 4 -1 d 4 X 4 -1 d 5 -1 d 6 -2 d 7 -2 d 16 -6 d 6 -1 d 5 -2 d 4 -1 d 4 X 3 -1 d 12 -1 d 11 -1 d 8 -1 d 8 -1 d 34 X 6 1 d 4 X 4 1 d 4 1 d 4 1 d 4 1 d 6 2 d 7 3 d 10 4 d 6 3 d 4 1 d 4 1 d 4 1 d 3 1 d
 3 X 3 1 d 10 X 3 -1 d 2 X 3 -1 d 2 X 2 -1 d 3 -1 d 2 -2 d 3 -1 d 2 -2 d 3 -2 d 3 -3 d 3 -3 d 4 -4 d 11 -14 d 3 -3 d 3 -3 d 2 -2 d 3 -2 d 2 -1 d 3 -2 d 2 -1 d 2 X 3 -1 d 2 -1 d 5 X 4 -1 d 4 X 4 1 d 4 X 4 1 d 4 1 d 5 1 d 4 1 d 4 1 d 4 2 d 4 1 d 3 2 d
 4 2 d 3 2 d 3 2 d 3 2 d 3 2 d s 1869 799 m 3 3 d 3 2 d 2 3 d 2 3 d 2 2 d 2 3 d 2 3 d 1 3 d 1 3 d 1 3 d s 3 lw /w 2 def /w2 {w 2 div} def /w3 {w 3 div} def 380 833 459 833 539 829 618 831 697 834 777 831 856 828 935 827 1015 815 1094 815 1174 810
 1253 800 1332 806 1412 801 1491 830 1570 812 1650 809 1729 830 1809 778 1888 827 20 { m20} R 6 lw black 0 0.733333 1 c
 gsave  2268 1328 0 0 C 2036.96 914.494 t 0 r /Helvetica-Bold findfont 48.4311 sf 0 0 m (/dof=1.0) show NC gr  black 0 0.733333 1 c
 gsave  2268 1328 0 0 C 2017.01 931.587 t 0 r /Helvetica-Bold findfont 34.1867 sf 0 0 m (2) show NC gr  black 0 0.733333 1 c
 gsave  2268 1328 0 0 C 1991.37 914.494 t 0 r /Symbol findfont 48.4311 sf 0 0 m (c) show NC gr  black 3 lw 340 833 m 1588 X s
 gsave  2268 1328 0 0 C 1421.6 1213.63 t 0 r /Helvetica-Bold findfont 42.7334 sf 0 0 m (5.5 mm) show NC gr  0 0.733333 1 c /w 23 def /w2 {w 2 div} def /w3 {w 3 div} def 1380 1228 m21 black 1 1 1 c 0.35 0.83 0.33 c 380 1014 m21 459 1020 m21 539 1007
 m21 618 1022 m21 697 1019 m21 777 1015 m21 856 1005 m21 935 1002 m21 1015 1011 m21 black 1094 989 m 2 Y s 1094 1014 m 1 Y s 1088 989 m 12 X s 1088 1015 m 12 X s 0.35 0.83 0.33 c 1094 1002 m21 black 1174 973 m 5 Y s 1174 1001 m 6 Y s 1168 973 m 11 X
 s 1168 1007 m 11 X s 0.35 0.83 0.33 c 1174 990 m21 black 1253 998 m 10 Y s 1253 1031 m 10 Y s 1247 998 m 12 X s 1247 1041 m 12 X s 0.35 0.83 0.33 c 1253 1020 m21 black 1332 994 m 14 Y s 1332 1031 m 15 Y s 1327 994 m 11 X s 1327 1046 m 11 X s 0.35
 0.83 0.33 c 1332 1020 m21 black 1412 942 m 19 Y s 1412 984 m 18 Y s 1406 942 m 11 X s 1406 1002 m 11 X s 0.35 0.83 0.33 c 1412 972 m21 black 1491 945 m 23 Y s 1491 991 m 22 Y s 1485 945 m 12 X s 1485 1013 m 12 X s 0.35 0.83 0.33 c 1491 979 m21 black
 1570 918 m 25 Y s 1570 966 m 26 Y s 1565 918 m 11 X s 1565 992 m 11 X s 0.35 0.83 0.33 c 1570 955 m21 black 1650 952 m 29 Y s 1650 1004 m 29 Y s 1644 952 m 11 X s 1644 1033 m 11 X s 0.35 0.83 0.33 c 1650 993 m21 black 1729 914 m 32 Y s 1729 968 m 32
 Y s 1723 914 m 12 X s 1723 1000 m 12 X s 0.35 0.83 0.33 c 1729 957 m21 black 1809 916 m 35 Y s 1809 974 m 35 Y s 1803 916 m 11 X s 1803 1009 m 11 X s 0.35 0.83 0.33 c 1809 963 m21 black 1888 902 m 38 Y s 1888 963 m 38 Y s 1882 902 m 12 X s 1882 1001
 m 12 X s 0.35 0.83 0.33 c 1888 951 m21 6 lw 1 1 1 c 0.35 0.83 0.33 c 380 1014 m 91 X 16 -1 d 31 -1 d 100 X 13 1 d 18 1 d 20 X 13 1 d 38 X 17 -1 d 33 -1 d 7 X 55 -2 d 98 X 5 -1 d 7 X 8 -1 d 8 -1 d 16 -1 d 16 -2 d 8 -1 d 7 -1 d 17 X 8 -1 d 11 X 14 1 d
 52 X 15 -1 d 20 -1 d 21 -1 d 11 X 8 -1 d 12 -1 d 32 -3 d 9 X 7 -1 d 29 X 10 1 d 22 2 d 38 X 5 -1 d 5 -1 d 7 -1 d 23 -4 d 6 -1 d 5 -1 d 8 X 4 -1 d 3 X 4 1 d 7 X 3 1 d 3 1 d 4 1 d 4 1 d 4 2 d 5 1 d 5 3 d 11 5 d 5 2 d 4 2 d 4 1 d 3 1 d 3 1 d 3 1 d 4 X
 3 1 d 20 X 4 -1 d 4 -1 d 5 -1 d 5 -1 d 7 -2 d 17 -5 d 6 -1 d 5 -1 d 4 -1 d 4 X 3 -1 d 12 -1 d 11 -1 d 8 -1 d 15 X 8 -1 d 7 X 6 1 d 13 X 3 1 d 4 X 4 1 d 4 1 d 4 1 d 6 2 d 7 2 d 10 3 d 6 2 d 4 1 d 4 1 d 4 1 d 3 1 d 21 X 3 -1 d 2 X 2 -1 d 3 -1 d 2 -1 d
 3 -1 d 2 -2 d 3 -1 d 3 -3 d 3 -2 d 4 -4 d 11 -11 d 3 -2 d 3 -2 d 2 -2 d 3 -2 d 2 -1 d 3 -1 d 2 -1 d 2 -1 d 3 X 2 -1 d 21 X 4 1 d 4 X 5 1 d 4 1 d 4 1 d 4 1 d 4 2 d 3 1 d 4 2 d 3 1 d 3 2 d 3 2 d 3 2 d 3 2 d 3 2 d s 1875 991 m 2 2 d 2 2 d 2 2 d 2 2 d 2
 3 d 1 2 d 1 2 d 1 3 d s 3 lw /w 2 def /w2 {w 2 div} def /w3 {w 3 div} def 380 1014 459 1014 539 1012 618 1012 697 1015 777 1013 856 1011 935 1010 1015 1003 1094 1003 1174 1000 1253 994 1332 997 1412 988 1491 1012 1570 997 1650 994 1729 1011 1809 970
 1888 1009 20 { m20} R 6 lw black 0.35 0.83 0.33 c
 gsave  2268 1328 0 0 C 2036.96 1113.92 t 0 r /Helvetica-Bold findfont 48.4311 sf 0 0 m (/dof=0.8) show NC gr  black 0.35 0.83 0.33 c
 gsave  2268 1328 0 0 C 2017.01 1131.01 t 0 r /Helvetica-Bold findfont 34.1867 sf 0 0 m (2) show NC gr  black 0.35 0.83 0.33 c
 gsave  2268 1328 0 0 C 1991.37 1113.92 t 0 r /Symbol findfont 48.4311 sf 0 0 m (c) show NC gr  black 3 lw 340 1014 m 1588 X s
 gsave  2268 1328 0 0 C 1783.41 1213.63 t 0 r /Helvetica-Bold findfont 42.7334 sf 0 0 m (6.6 mm) show NC gr  0.35 0.83 0.33 c /w 23 def /w2 {w 2 div} def /w3 {w 3 div} def 1743 1228 m21
 gr  gr showpage
end
%%EOF
