%!PS-Adobe-2.0 EPSF-2.0
%%BoundingBox:  0 0 567 332
%%Title: TargetYOffset_far_summary.eps: Summary
%%Creator: ROOT Version 5.30/06
%%CreationDate: Sun Feb  2 09:35:48 2014
%%EndComments
%%BeginProlog
80 dict begin
/s {stroke} def /l {lineto} def /m {moveto} def /t {translate} def
/r {rotate} def /rl {roll}  def /R {repeat} def
/d {rlineto} def /rm {rmoveto} def /gr {grestore} def /f {eofill} def
/c {setrgbcolor} def /black {0 setgray} def /sd {setdash} def
/cl {closepath} def /sf {scalefont setfont} def /lw {setlinewidth} def
/box {m dup 0 exch d exch 0 d 0 exch neg d cl} def
/NC{systemdict begin initclip end}def/C{NC box clip newpath}def
/bl {box s} def /bf {box f} def /Y { 0 exch d} def /X { 0 d} def 
/K {{pop pop 0 moveto} exch kshow} bind def
/ita {/ang 15 def gsave [1 0 ang dup sin exch cos div 1 0 0] concat} def 
/mp {newpath /y exch def /x exch def} def
/side {[w .77 mul w .23 mul] .385 w mul sd w 0 l currentpoint t -144 r} def
/mr {mp x y w2 0 360 arc} def /m24 {mr s} def /m20 {mr f} def
/mb {mp x y w2 add m w2 neg 0 d 0 w neg d w 0 d 0 w d cl} def
/mt {mp x y w2 add m w2 neg w neg d w 0 d cl} def
/m21 {mb f} def /m25 {mb s} def /m22 {mt f} def /m26{mt s} def
/m23 {mp x y w2 sub m w2 w d w neg 0 d cl f} def
/m27 {mp x y w2 add m w3 neg w2 neg d w3 w2 neg d w3 w2 d cl s} def
/m28 {mp x w2 sub y w2 sub w3 add m w3 0 d  0 w3 neg d w3 0 d 0 w3 d w3 0 d  0 w3 d w3 neg 0 d 0 w3 d w3 neg 0 d 0 w3 neg d w3 neg 0 d cl s } def
/m29 {mp gsave x w2 sub y w2 add w3 sub m currentpoint t 4 {side} repeat cl fill gr} def
/m30 {mp gsave x w2 sub y w2 add w3 sub m currentpoint t 4 {side} repeat cl s gr} def
/m31 {mp x y w2 sub m 0 w d x w2 sub y m w 0 d x w2 sub y w2 add m w w neg d x w2 sub y w2 sub m w w d s} def
/m32 {mp x y w2 sub m w2 w d w neg 0 d cl s} def
/m33 {mp x y w2 add m w3 neg w2 neg d w3 w2 neg d w3 w2 d cl f} def
/m34 {mp x w2 sub y w2 sub w3 add m w3 0 d  0 w3 neg d w3 0 d 0 w3 d w3 0 d  0 w3 d w3 neg 0 d 0 w3 d w3 neg 0 d 0 w3 neg d w3 neg 0 d cl f } def
/m2 {mp x y w2 sub m 0 w d x w2 sub y m w 0 d s} def
/m5 {mp x w2 sub y w2 sub m w w d x w2 sub y w2 add m w w neg d s} def
/reEncode {exch findfont dup length dict begin {1 index /FID eq  {pop pop} {def} ifelse } forall /Encoding exch def currentdict end dup /FontName get exch definefont pop } def [/Times-Bold /Times-Italic /Times-BoldItalic /Helvetica /Helvetica-Oblique
 /Helvetica-Bold /Helvetica-BoldOblique /Courier /Courier-Oblique /Courier-Bold /Courier-BoldOblique /Times-Roman /AvantGarde-Book /AvantGarde-BookOblique /AvantGarde-Demi /AvantGarde-DemiOblique /Bookman-Demi /Bookman-DemiItalic /Bookman-Light
 /Bookman-LightItalic /Helvetica-Narrow /Helvetica-Narrow-Bold /Helvetica-Narrow-BoldOblique /Helvetica-Narrow-Oblique /NewCenturySchlbk-Roman /NewCenturySchlbk-Bold /NewCenturySchlbk-BoldItalic /NewCenturySchlbk-Italic /Palatino-Bold
 /Palatino-BoldItalic /Palatino-Italic /Palatino-Roman ] {ISOLatin1Encoding reEncode } forall%%EndProlog
%%BeginSetup
%%EndSetup
newpath  gsave  .25 .25 scale  gsave  0 0 t black[  ] 0 sd 3 lw 1 1 1 c 2268 1328 0 0 bf black 1 1 1 c black 1588 996 340 199 bl 1588 996 340 199 bl 1 1 1 c 1 0 0 c /w 23 def /w2 {w 2 div} def /w3 {w 3 div} def 380 314 m21 459 298 m21 539 309 m21 618
 305 m21 697 312 m21 777 310 m21 856 309 m21 935 313 m21 1015 307 m21 black 1094 288 m s 1094 311 m s 1088 288 m 12 X s 1088 311 m 12 X s 1 0 0 c 1094 300 m21 black 1174 307 m 4 Y s 1174 333 m 4 Y s 1168 307 m 11 X s 1168 337 m 11 X s 1 0 0 c 1174
 322 m21 black 1253 319 m 7 Y s 1253 349 m 7 Y s 1247 319 m 12 X s 1247 356 m 12 X s 1 0 0 c 1253 337 m21 black 1332 322 m 11 Y s 1332 356 m 12 Y s 1327 322 m 11 X s 1327 368 m 11 X s 1 0 0 c 1332 345 m21 black 1412 261 m 15 Y s 1412 299 m 15 Y s
 1406 261 m 11 X s 1406 314 m 11 X s 1 0 0 c 1412 288 m21 black 1491 280 m 19 Y s 1491 322 m 18 Y s 1485 280 m 12 X s 1485 340 m 12 X s 1 0 0 c 1491 310 m21 black 1570 258 m 21 Y s 1570 302 m 21 Y s 1565 258 m 11 X s 1565 323 m 11 X s 1 0 0 c 1570
 290 m21 black 1650 285 m 24 Y s 1650 332 m 25 Y s 1644 285 m 11 X s 1644 357 m 11 X s 1 0 0 c 1650 321 m21 black 1729 204 m 26 Y s 1729 253 m 26 Y s 1723 204 m 12 X s 1723 279 m 12 X s 1 0 0 c 1729 241 m21 black 1809 282 m 31 Y s 1809 335 m 30 Y s
 1803 282 m 11 X s 1803 365 m 11 X s 1 0 0 c 1809 324 m21 black 1888 209 m 32 Y s 1888 264 m 32 Y s 1882 209 m 12 X s 1882 296 m 12 X s 1 0 0 c 1888 253 m21 black 340 199 m 1588 X s
 gsave  2268 1328 0 0 C 954.378 68.3734 t 0 r /Helvetica findfont 62.6756 sf 0 0 m ( Energy \(GeV\) ) show NC gr 
 gsave  2268 1328 0 0 C 928.738 51.28 t 0 r /Symbol findfont 42.7334 sf 0 0 m (m) show NC gr 
 gsave  2268 1328 0 0 C 894.552 68.3734 t 0 r /Symbol findfont 62.6756 sf 0 0 m (n) show NC gr  340 216 m -17 Y s 372 208 m -9 Y s 404 208 m -9 Y s 435 208 m -9 Y s 467 208 m -9 Y s 499 216 m -17 Y s 531 208 m -9 Y s 562 208 m -9 Y s 594 208 m -9 Y s
 626 208 m -9 Y s 658 216 m -17 Y s 689 208 m -9 Y s 721 208 m -9 Y s 753 208 m -9 Y s 785 208 m -9 Y s 816 216 m -17 Y s 848 208 m -9 Y s 880 208 m -9 Y s 912 208 m -9 Y s 943 208 m -9 Y s 975 216 m -17 Y s 1007 208 m -9 Y s 1039 208 m -9 Y s 1070
 208 m -9 Y s 1102 208 m -9 Y s 1134 216 m -17 Y s 1166 208 m -9 Y s 1197 208 m -9 Y s 1229 208 m -9 Y s 1261 208 m -9 Y s 1293 216 m -17 Y s 1324 208 m -9 Y s 1356 208 m -9 Y s 1388 208 m -9 Y s 1420 208 m -9 Y s 1451 216 m -17 Y s 1483 208 m -9 Y s
 1515 208 m -9 Y s 1547 208 m -9 Y s 1578 208 m -9 Y s 1610 216 m -17 Y s 1642 208 m -9 Y s 1674 208 m -9 Y s 1705 208 m -9 Y s 1737 208 m -9 Y s 1769 216 m -17 Y s 1801 208 m -9 Y s 1832 208 m -9 Y s 1864 208 m -9 Y s 1896 208 m -9 Y s 1928 216 m
 -17 Y s
 gsave  2268 1328 0 0 C 319.076 136.747 t 0 r /Helvetica findfont 68.3734 sf 0 0 m (0) show NC gr 
 gsave  2268 1328 0 0 C 484.311 136.747 t 0 r /Helvetica findfont 68.3734 sf 0 0 m (1) show NC gr 
 gsave  2268 1328 0 0 C 635.302 136.747 t 0 r /Helvetica findfont 68.3734 sf 0 0 m (2) show NC gr 
 gsave  2268 1328 0 0 C 794.84 136.747 t 0 r /Helvetica findfont 68.3734 sf 0 0 m (3) show NC gr 
 gsave  2268 1328 0 0 C 954.378 136.747 t 0 r /Helvetica findfont 68.3734 sf 0 0 m (4) show NC gr 
 gsave  2268 1328 0 0 C 1113.92 136.747 t 0 r /Helvetica findfont 68.3734 sf 0 0 m (5) show NC gr 
 gsave  2268 1328 0 0 C 1270.6 136.747 t 0 r /Helvetica findfont 68.3734 sf 0 0 m (6) show NC gr 
 gsave  2268 1328 0 0 C 1430.14 136.747 t 0 r /Helvetica findfont 68.3734 sf 0 0 m (7) show NC gr 
 gsave  2268 1328 0 0 C 1589.68 136.747 t 0 r /Helvetica findfont 68.3734 sf 0 0 m (8) show NC gr 
 gsave  2268 1328 0 0 C 1746.37 136.747 t 0 r /Helvetica findfont 68.3734 sf 0 0 m (9) show NC gr 
 gsave  2268 1328 0 0 C 1888.81 136.747 t 0 r /Helvetica findfont 68.3734 sf 0 0 m (10) show NC gr  340 1195 m 1588 X s 340 1178 m 17 Y s 372 1186 m 9 Y s 404 1186 m 9 Y s 435 1186 m 9 Y s 467 1186 m 9 Y s 499 1178 m 17 Y s 531 1186 m 9 Y s 562 1186
 m 9 Y s 594 1186 m 9 Y s 626 1186 m 9 Y s 658 1178 m 17 Y s 689 1186 m 9 Y s 721 1186 m 9 Y s 753 1186 m 9 Y s 785 1186 m 9 Y s 816 1178 m 17 Y s 848 1186 m 9 Y s 880 1186 m 9 Y s 912 1186 m 9 Y s 943 1186 m 9 Y s 975 1178 m 17 Y s 1007 1186 m 9 Y s
 1039 1186 m 9 Y s 1070 1186 m 9 Y s 1102 1186 m 9 Y s 1134 1178 m 17 Y s 1166 1186 m 9 Y s 1197 1186 m 9 Y s 1229 1186 m 9 Y s 1261 1186 m 9 Y s 1293 1178 m 17 Y s 1324 1186 m 9 Y s 1356 1186 m 9 Y s 1388 1186 m 9 Y s 1420 1186 m 9 Y s 1451 1178 m
 17 Y s 1483 1186 m 9 Y s 1515 1186 m 9 Y s 1547 1186 m 9 Y s 1578 1186 m 9 Y s 1610 1178 m 17 Y s 1642 1186 m 9 Y s 1674 1186 m 9 Y s 1705 1186 m 9 Y s 1737 1186 m 9 Y s 1769 1178 m 17 Y s 1801 1186 m 9 Y s 1832 1186 m 9 Y s 1864 1186 m 9 Y s 1896
 1186 m 9 Y s 1928 1178 m 17 Y s 340 199 m 996 Y s
 gsave  2268 1328 0 0 C 170.933 427.334 t 90 r /Helvetica findfont 62.6756 sf 0 0 m (Far Flux to Nominal) show NC gr  371 199 m -31 X s 355 221 m -15 X s 355 243 m -15 X s 355 266 m -15 X s 355 288 m -15 X s 371 310 m -31 X s 355 332 m -15 X s 355
 354 m -15 X s 355 376 m -15 X s 355 398 m -15 X s 371 420 m -31 X s 355 443 m -15 X s 355 465 m -15 X s 355 487 m -15 X s 355 509 m -15 X s 371 531 m -31 X s 355 553 m -15 X s 355 575 m -15 X s 355 597 m -15 X s 355 620 m -15 X s 371 642 m -31 X s
 355 664 m -15 X s 355 686 m -15 X s 355 708 m -15 X s 355 730 m -15 X s 371 752 m -31 X s 355 774 m -15 X s 355 797 m -15 X s 355 819 m -15 X s 355 841 m -15 X s 371 863 m -31 X s 355 885 m -15 X s 355 907 m -15 X s 355 929 m -15 X s 355 951 m -15 X
 s 371 974 m -31 X s 355 996 m -15 X s 355 1018 m -15 X s 355 1040 m -15 X s 355 1062 m -15 X s 371 1084 m -31 X s 355 1106 m -15 X s 355 1128 m -15 X s 355 1151 m -15 X s 355 1173 m -15 X s 371 1195 m -31 X s 371 199 m -31 X s 371 1195 m -31 X s
 gsave  2268 1328 0 0 C 196.573 173.782 t 0 r /Helvetica findfont 68.3734 sf 0 0 m (0.95) show NC gr 
 gsave  2268 1328 0 0 C 301.982 282.04 t 0 r /Helvetica findfont 68.3734 sf 0 0 m (1) show NC gr 
 gsave  2268 1328 0 0 C 196.573 395.996 t 0 r /Helvetica findfont 68.3734 sf 0 0 m (1.05) show NC gr 
 gsave  2268 1328 0 0 C 245.005 504.254 t 0 r /Helvetica findfont 68.3734 sf 0 0 m (1.1) show NC gr 
 gsave  2268 1328 0 0 C 196.573 618.209 t 0 r /Helvetica findfont 68.3734 sf 0 0 m (1.15) show NC gr 
 gsave  2268 1328 0 0 C 233.609 726.467 t 0 r /Helvetica findfont 68.3734 sf 0 0 m (1.2) show NC gr 
 gsave  2268 1328 0 0 C 196.573 837.574 t 0 r /Helvetica findfont 68.3734 sf 0 0 m (1.25) show NC gr 
 gsave  2268 1328 0 0 C 233.609 948.68 t 0 r /Helvetica findfont 68.3734 sf 0 0 m (1.3) show NC gr 
 gsave  2268 1328 0 0 C 196.573 1059.79 t 0 r /Helvetica findfont 68.3734 sf 0 0 m (1.35) show NC gr 
 gsave  2268 1328 0 0 C 233.609 1168.04 t 0 r /Helvetica findfont 68.3734 sf 0 0 m (1.4) show NC gr  1928 199 m 996 Y s 1897 199 m 31 X s 1912 221 m 16 X s 1912 243 m 16 X s 1912 266 m 16 X s 1912 288 m 16 X s 1897 310 m 31 X s 1912 332 m 16 X s 1912
 354 m 16 X s 1912 376 m 16 X s 1912 398 m 16 X s 1897 420 m 31 X s 1912 443 m 16 X s 1912 465 m 16 X s 1912 487 m 16 X s 1912 509 m 16 X s 1897 531 m 31 X s 1912 553 m 16 X s 1912 575 m 16 X s 1912 597 m 16 X s 1912 620 m 16 X s 1897 642 m 31 X s
 1912 664 m 16 X s 1912 686 m 16 X s 1912 708 m 16 X s 1912 730 m 16 X s 1897 752 m 31 X s 1912 774 m 16 X s 1912 797 m 16 X s 1912 819 m 16 X s 1912 841 m 16 X s 1897 863 m 31 X s 1912 885 m 16 X s 1912 907 m 16 X s 1912 929 m 16 X s 1912 951 m 16 X
 s 1897 974 m 31 X s 1912 996 m 16 X s 1912 1018 m 16 X s 1912 1040 m 16 X s 1912 1062 m 16 X s 1897 1084 m 31 X s 1912 1106 m 16 X s 1912 1128 m 16 X s 1912 1151 m 16 X s 1912 1173 m 16 X s 1897 1195 m 31 X s 1897 199 m 31 X s 1897 1195 m 31 X s 1 0
 0 c 6 lw 1 1 1 c 1 0 0 c 380 310 m 10 -1 d 307 X 21 1 d 59 X 79 -1 d 79 X 80 -1 d 279 X 8 1 d 42 X 4 -1 d 10 X 21 -1 d 52 X 4 1 d 7 X 4 1 d 11 1 d 7 X 3 1 d 19 X 3 1 d 8 X 2 -1 d 18 X 3 -1 d 5 X 12 -1 d 5 X 3 -1 d 15 X 3 -1 d 16 X 3 1 d 16 X 4 1 d 6
 X 10 1 d 8 X 4 1 d 68 X 31 -1 d 20 X 23 -1 d 6 -1 d 54 X 4 1 d 16 X 4 1 d 7 X 4 1 d 9 X 3 1 d 2 X 3 1 d 2 X s 1886 313 m 2 X s 3 lw /w 2 def /w2 {w 2 div} def /w3 {w 3 div} def 380 310 459 309 539 309 618 309 697 309 777 310 856 309 935 309 1015 308
 1094 308 1174 308 1253 308 1332 309 1412 307 1491 312 1570 307 1650 311 1729 310 1809 308 1888 313 20 { m20} R 6 lw black 1 0 0 c
 gsave  2268 1328 0 0 C 2036.96 364.658 t 0 r /Helvetica-Bold findfont 48.4311 sf 0 0 m (/dof=1.0) show NC gr  black 1 0 0 c
 gsave  2268 1328 0 0 C 2017.01 381.751 t 0 r /Helvetica-Bold findfont 34.1867 sf 0 0 m (2) show NC gr  black 1 0 0 c
 gsave  2268 1328 0 0 C 1991.37 364.658 t 0 r /Symbol findfont 48.4311 sf 0 0 m (c) show NC gr  black 3 lw 340 310 m 1588 X s
 gsave  2268 1328 0 0 C 424.485 1213.63 t 0 r /Helvetica-Bold findfont 42.7334 sf 0 0 m (0.5 mm) show NC gr  1 0 0 c /w 23 def /w2 {w 2 div} def /w3 {w 3 div} def 383 1228 m21 black 1 1 1 c 0 0 1 c 380 531 m21 459 525 m21 539 527 m21 618 533 m21 697
 539 m21 777 533 m21 856 528 m21 935 538 m21 1015 522 m21 black 1094 517 m 2 Y s 1094 542 m 1 Y s 1088 517 m 12 X s 1088 543 m 12 X s 0 0 1 c 1094 530 m21 black 1174 539 m 5 Y s 1174 567 m 5 Y s 1168 539 m 11 X s 1168 572 m 11 X s 0 0 1 c 1174 555
 m21 black 1253 525 m 9 Y s 1253 557 m 9 Y s 1247 525 m 12 X s 1247 566 m 12 X s 0 0 1 c 1253 546 m21 black 1332 506 m 13 Y s 1332 542 m 13 Y s 1327 506 m 11 X s 1327 555 m 11 X s 0 0 1 c 1332 531 m21 black 1412 473 m 18 Y s 1412 513 m 18 Y s 1406
 473 m 11 X s 1406 531 m 11 X s 0 0 1 c 1412 502 m21 black 1491 542 m 22 Y s 1491 587 m 22 Y s 1485 542 m 12 X s 1485 609 m 12 X s 0 0 1 c 1491 575 m21 black 1570 440 m 24 Y s 1570 487 m 24 Y s 1565 440 m 11 X s 1565 511 m 11 X s 0 0 1 c 1570 476 m21
 black 1650 536 m 28 Y s 1650 587 m 29 Y s 1644 536 m 11 X s 1644 616 m 11 X s 0 0 1 c 1650 576 m21 black 1729 488 m 31 Y s 1729 542 m 31 Y s 1723 488 m 12 X s 1723 573 m 12 X s 0 0 1 c 1729 531 m21 black 1809 470 m 33 Y s 1809 526 m 34 Y s 1803 470
 m 11 X s 1803 560 m 11 X s 0 0 1 c 1809 515 m21 black 1888 526 m 38 Y s 1888 587 m 38 Y s 1882 526 m 12 X s 1882 625 m 12 X s 0 0 1 c 1888 575 m21 6 lw 1 1 1 c 0 0 1 c 380 530 m 28 X 14 -1 d 215 X 29 1 d 86 X 14 1 d 48 X 26 -1 d 78 X 10 -1 d 16 X 9
 -1 d 62 -3 d 41 -2 d 10 -1 d 47 X 9 1 d 16 1 d 11 X 8 1 d 35 X 10 -1 d 27 -1 d 49 X 9 1 d 18 1 d 8 1 d 42 X 10 -1 d 15 -1 d 35 X 4 1 d 4 X 4 1 d 4 X 5 1 d 6 1 d 15 3 d 5 1 d 4 1 d 4 X 3 1 d 8 X 3 1 d 17 X 3 -1 d 7 X 5 -1 d 5 -1 d 14 -3 d 6 -1 d 4 X
 4 -1 d 4 X 4 -1 d 23 X 3 1 d 4 X 3 1 d 4 X 5 1 d 5 1 d 13 3 d 5 1 d 4 1 d 4 1 d 4 1 d 7 X 3 1 d 33 X 6 -1 d 8 X 9 -1 d 17 -2 d 6 X 6 -1 d 5 X 6 -1 d 7 -1 d 26 -3 d 5 X 5 -1 d 31 X 5 1 d 4 X 5 1 d 5 X 4 1 d 4 1 d 4 X 4 1 d 4 1 d 4 1 d 4 1 d 4 1 d 3 1
 d 4 2 d 3 1 d 3 1 d 3 1 d 2 2 d 3 1 d 2 2 d s 3 lw /w 2 def /w2 {w 2 div} def /w3 {w 3 div} def 380 530 459 529 539 529 618 529 697 530 777 531 856 530 935 529 1015 525 1094 522 1174 525 1253 523 1332 526 1412 524 1491 535 1570 526 1650 538 1729 533
 1809 527 1888 547 20 { m20} R 6 lw black 0 0 1 c
 gsave  2268 1328 0 0 C 2036.96 615.36 t 0 r /Helvetica-Bold findfont 48.4311 sf 0 0 m (/dof=0.8) show NC gr  black 0 0 1 c
 gsave  2268 1328 0 0 C 2017.01 632.454 t 0 r /Helvetica-Bold findfont 34.1867 sf 0 0 m (2) show NC gr  black 0 0 1 c
 gsave  2268 1328 0 0 C 1991.37 615.36 t 0 r /Symbol findfont 48.4311 sf 0 0 m (c) show NC gr  black 3 lw 340 531 m 1588 X s
 gsave  2268 1328 0 0 C 877.458 1213.63 t 0 r /Helvetica-Bold findfont 39.8845 sf 0 0 m (1 mm) show NC gr  0 0 1 c /w 23 def /w2 {w 2 div} def /w3 {w 3 div} def 836 1228 m21 black 1 1 1 c 1 0 1 c 380 750 m21 459 749 m21 539 750 m21 618 753 m21 697
 743 m21 777 751 m21 856 751 m21 935 740 m21 1015 742 m21 black 1094 700 m 3 Y s 1094 725 m 3 Y s 1088 700 m 12 X s 1088 728 m 12 X s 1 0 1 c 1094 714 m21 black 1174 713 m 6 Y s 1174 742 m 6 Y s 1168 713 m 11 X s 1168 748 m 11 X s 1 0 1 c 1174 730
 m21 black 1253 705 m 11 Y s 1253 738 m 11 Y s 1247 705 m 12 X s 1247 749 m 12 X s 1 0 1 c 1253 727 m21 black 1332 706 m 16 Y s 1332 745 m 15 Y s 1327 706 m 11 X s 1327 760 m 11 X s 1 0 1 c 1332 733 m21 black 1412 686 m 20 Y s 1412 729 m 20 Y s 1406
 686 m 11 X s 1406 749 m 11 X s 1 0 1 c 1412 718 m21 black 1491 727 m 25 Y s 1491 775 m 25 Y s 1485 727 m 12 X s 1485 800 m 12 X s 1 0 1 c 1491 764 m21 black 1570 703 m 28 Y s 1570 754 m 28 Y s 1565 703 m 11 X s 1565 782 m 11 X s 1 0 1 c 1570 742 m21
 black 1650 689 m 31 Y s 1650 743 m 31 Y s 1644 689 m 11 X s 1644 774 m 11 X s 1 0 1 c 1650 732 m21 black 1729 688 m 35 Y s 1729 746 m 34 Y s 1723 688 m 12 X s 1723 780 m 12 X s 1 0 1 c 1729 734 m21 black 1809 644 m 37 Y s 1809 704 m 38 Y s 1803 644
 m 11 X s 1803 742 m 11 X s 1 0 1 c 1809 693 m21 black 1888 760 m 43 Y s 1888 825 m 43 Y s 1882 760 m 12 X s 1882 868 m 12 X s 1 0 1 c 1888 814 m21 6 lw 1 1 1 c 1 0 1 c 380 750 m 22 -1 d 22 -1 d 23 -1 d 26 X 23 1 d 22 1 d 21 X 11 -1 d 15 -1 d 36 -2 d
 11 -1 d 19 X 12 1 d 19 X 35 2 d 31 2 d 29 1 d 20 1 d 79 X 25 -2 d 17 -1 d 13 -1 d 11 -2 d 13 -1 d 9 -2 d 10 -2 d 40 -11 d 12 -3 d 9 -1 d 41 -8 d 10 -2 d 9 -1 d 7 -1 d 18 X 6 1 d 7 1 d 9 1 d 16 4 d 11 2 d 8 2 d 6 1 d 22 X 7 -1 d 10 -2 d 27 -5 d 8 -1
 d 6 -1 d 10 X 6 1 d 6 X 7 2 d 8 1 d 12 3 d 19 6 d 9 2 d 7 1 d 5 1 d 8 1 d 9 1 d 10 X 29 1 d 8 X 7 1 d 7 1 d 2 X 5 1 d 6 2 d 7 2 d 9 4 d 18 7 d 7 2 d 6 2 d 6 2 d 5 1 d 4 X 5 1 d 5 X 5 -1 d 4 -1 d 5 -1 d 6 -2 d 9 -3 d 16 -7 d 6 -2 d 6 -2 d 4 -1 d 5 X
 4 -1 d 3 1 d 6 X 4 1 d 4 2 d 4 2 d 4 2 d 5 3 d 5 4 d 9 6 d 9 7 d 6 4 d 5 4 d 5 2 d 3 2 d 4 1 d 4 1 d 3 1 d 2 X 4 1 d 5 -1 d 4 X 66 -22 d 6 -2 d 8 -2 d 29 -11 d 5 -1 d 5 -2 d 5 X 4 -1 d 9 X 4 1 d 3 X 2 1 d 5 1 d 5 2 d 5 2 d 4 2 d 5 3 d 4 3 d 5 3 d 4
 4 d 5 4 d 4 4 d 5 4 d 4 5 d 4 5 d 3 5 d 4 5 d 4 6 d 3 6 d 3 6 d 3 6 d s 3 lw /w 2 def /w2 {w 2 div} def /w3 {w 3 div} def 380 750 459 747 539 749 618 744 697 747 777 751 856 751 935 744 1015 725 1094 713 1174 725 1253 715 1332 732 1412 737 1491 761
 1570 741 1650 783 1729 761 1809 744 1888 820 20 { m20} R 6 lw black 1 0 1 c
 gsave  2268 1328 0 0 C 2036.96 863.214 t 0 r /Helvetica-Bold findfont 48.4311 sf 0 0 m (/dof=0.5) show NC gr  black 1 0 1 c
 gsave  2268 1328 0 0 C 2017.01 880.307 t 0 r /Helvetica-Bold findfont 34.1867 sf 0 0 m (2) show NC gr  black 1 0 1 c
 gsave  2268 1328 0 0 C 1991.37 863.214 t 0 r /Symbol findfont 48.4311 sf 0 0 m (c) show NC gr  black 3 lw 340 752 m 1588 X s
 gsave  2268 1328 0 0 C 1330.43 1213.63 t 0 r /Helvetica-Bold findfont 39.8845 sf 0 0 m (2 mm) show NC gr  1 0 1 c /w 23 def /w2 {w 2 div} def /w3 {w 3 div} def 1290 1228 m21 black 1 1 1 c 0 0.733333 1 c 380 967 m21 459 968 m21 539 968 m21 618 949
 m21 697 961 m21 777 969 m21 856 972 m21 935 952 m21 1015 898 m21 black 1094 861 m 4 Y s 1094 887 m 4 Y s 1088 861 m 12 X s 1088 891 m 12 X s 0 0.733333 1 c 1094 876 m21 black 1174 882 m 8 Y s 1174 913 m 7 Y s 1168 882 m 11 X s 1168 920 m 11 X s 0
 0.733333 1 c 1174 901 m21 black 1253 850 m 12 Y s 1253 885 m 12 Y s 1247 850 m 12 X s 1247 897 m 12 X s 0 0.733333 1 c 1253 874 m21 black 1332 893 m 17 Y s 1332 933 m 18 Y s 1327 893 m 11 X s 1327 951 m 11 X s 0 0.733333 1 c 1332 922 m21 black 1412
 942 m 23 Y s 1412 988 m 23 Y s 1406 942 m 11 X s 1406 1011 m 11 X s 0 0.733333 1 c 1412 977 m21 black 1491 931 m 27 Y s 1491 981 m 28 Y s 1485 931 m 12 X s 1485 1009 m 12 X s 0 0.733333 1 c 1491 970 m21 black 1570 935 m 32 Y s 1570 989 m 32 Y s 1565
 935 m 11 X s 1565 1021 m 11 X s 0 0.733333 1 c 1570 978 m21 black 1650 1022 m 36 Y s 1650 1081 m 36 Y s 1644 1022 m 11 X s 1644 1117 m 11 X s 0 0.733333 1 c 1650 1070 m21 black 1729 961 m 39 Y s 1729 1023 m 39 Y s 1723 961 m 12 X s 1723 1062 m 12 X
 s 0 0.733333 1 c 1729 1011 m21 black 1809 945 m 42 Y s 1809 1010 m 43 Y s 1803 945 m 11 X s 1803 1053 m 11 X s 0 0.733333 1 c 1809 999 m21 black 1888 1080 m 49 Y s 1888 1152 m 43 Y s 1882 1080 m 12 X s 1882 1195 m 12 X s 0 0.733333 1 c 1888 1140 m21
 6 lw 1 1 1 c 0 0.733333 1 c 380 968 m 32 -2 d 33 -1 d 14 X 18 1 d 36 2 d 26 X 10 -1 d 15 -3 d 36 -8 d 10 -2 d 33 X 16 2 d 36 5 d 2 X 33 4 d 29 3 d 18 2 d 35 2 d 29 X 13 -1 d 2 X 18 -3 d 16 -2 d 15 -4 d 12 -3 d 12 -5 d 6 -2 d 9 -4 d 11 -6 d 14 -8 d
 28 -19 d 10 -5 d 8 -4 d 41 -20 d 10 -4 d 9 -2 d 7 -2 d 8 -1 d 4 X 6 1 d 6 1 d 7 3 d 9 4 d 16 9 d 11 6 d 8 3 d 6 2 d 5 1 d 6 1 d 5 X 6 -1 d 7 -3 d 10 -3 d 27 -14 d 8 -2 d 6 -2 d 10 X 6 1 d 6 2 d 8 3 d 8 4 d 12 7 d 20 14 d 10 6 d 8 3 d 1 1 d 12 4 d 68
 21 d 8 4 d 9 5 d 19 12 d 11 6 d 9 5 d 7 3 d 6 2 d 6 1 d 9 X 5 -1 d 5 -2 d 7 -4 d 8 -5 d 19 -13 d 6 -4 d 6 -2 d 5 -2 d 9 X 4 1 d 4 2 d 4 2 d 5 4 d 4 5 d 5 6 d 5 9 d 8 12 d 13 22 d 6 9 d 5 7 d 5 5 d 4 4 d 4 3 d 3 2 d 4 2 d 10 X 4 -1 d 5 -2 d 6 -3 d 6
 -5 d 7 -6 d 14 -13 d 11 -11 d 6 -6 d 6 -4 d 5 -3 d 7 -4 d 9 -7 d 22 -18 d 7 -4 d 5 -3 d 5 -3 d 5 -1 d 10 X 3 1 d 4 2 d 3 1 d 5 4 d 5 5 d 5 5 d 4 6 d 5 7 d 5 7 d 5 8 d 4 9 d 5 10 d 4 10 d 5 11 d 4 13 d 4 12 d 4 13 d 4 13 d 4 15 d 3 13 d 3 15 d 1 4 d
 s 3 lw /w 2 def /w2 {w 2 div} def /w3 {w 3 div} def 380 968 459 965 539 968 618 954 697 961 777 970 856 971 935 952 1015 906 1094 877 1174 908 1253 883 1332 924 1412 949 1491 987 1570 955 1650 1049 1729 995 1809 959 1888 1139 20 { m20} R 6 lw black
 0 0.733333 1 c
 gsave  2268 1328 0 0 C 2036.96 1113.92 t 0 r /Helvetica-Bold findfont 48.4311 sf 0 0 m (/dof=0.2) show NC gr  black 0 0.733333 1 c
 gsave  2268 1328 0 0 C 2017.01 1131.01 t 0 r /Helvetica-Bold findfont 34.1867 sf 0 0 m (2) show NC gr  black 0 0.733333 1 c
 gsave  2268 1328 0 0 C 1991.37 1113.92 t 0 r /Symbol findfont 48.4311 sf 0 0 m (c) show NC gr  black 3 lw 340 974 m 1588 X s
 gsave  2268 1328 0 0 C 1783.41 1213.63 t 0 r /Helvetica-Bold findfont 42.7334 sf 0 0 m (3 mm) show NC gr  0 0.733333 1 c /w 23 def /w2 {w 2 div} def /w3 {w 3 div} def 1743 1228 m21
 gr  gr showpage
end
%%EOF
