%!PS-Adobe-2.0 EPSF-2.0
%%BoundingBox:  0 0 567 332
%%Title: TargetXOffset_near_summary.eps: Summary
%%Creator: ROOT Version 5.30/06
%%CreationDate: Sun Feb  2 09:40:35 2014
%%EndComments
%%BeginProlog
80 dict begin
/s {stroke} def /l {lineto} def /m {moveto} def /t {translate} def
/r {rotate} def /rl {roll}  def /R {repeat} def
/d {rlineto} def /rm {rmoveto} def /gr {grestore} def /f {eofill} def
/c {setrgbcolor} def /black {0 setgray} def /sd {setdash} def
/cl {closepath} def /sf {scalefont setfont} def /lw {setlinewidth} def
/box {m dup 0 exch d exch 0 d 0 exch neg d cl} def
/NC{systemdict begin initclip end}def/C{NC box clip newpath}def
/bl {box s} def /bf {box f} def /Y { 0 exch d} def /X { 0 d} def 
/K {{pop pop 0 moveto} exch kshow} bind def
/ita {/ang 15 def gsave [1 0 ang dup sin exch cos div 1 0 0] concat} def 
/mp {newpath /y exch def /x exch def} def
/side {[w .77 mul w .23 mul] .385 w mul sd w 0 l currentpoint t -144 r} def
/mr {mp x y w2 0 360 arc} def /m24 {mr s} def /m20 {mr f} def
/mb {mp x y w2 add m w2 neg 0 d 0 w neg d w 0 d 0 w d cl} def
/mt {mp x y w2 add m w2 neg w neg d w 0 d cl} def
/m21 {mb f} def /m25 {mb s} def /m22 {mt f} def /m26{mt s} def
/m23 {mp x y w2 sub m w2 w d w neg 0 d cl f} def
/m27 {mp x y w2 add m w3 neg w2 neg d w3 w2 neg d w3 w2 d cl s} def
/m28 {mp x w2 sub y w2 sub w3 add m w3 0 d  0 w3 neg d w3 0 d 0 w3 d w3 0 d  0 w3 d w3 neg 0 d 0 w3 d w3 neg 0 d 0 w3 neg d w3 neg 0 d cl s } def
/m29 {mp gsave x w2 sub y w2 add w3 sub m currentpoint t 4 {side} repeat cl fill gr} def
/m30 {mp gsave x w2 sub y w2 add w3 sub m currentpoint t 4 {side} repeat cl s gr} def
/m31 {mp x y w2 sub m 0 w d x w2 sub y m w 0 d x w2 sub y w2 add m w w neg d x w2 sub y w2 sub m w w d s} def
/m32 {mp x y w2 sub m w2 w d w neg 0 d cl s} def
/m33 {mp x y w2 add m w3 neg w2 neg d w3 w2 neg d w3 w2 d cl f} def
/m34 {mp x w2 sub y w2 sub w3 add m w3 0 d  0 w3 neg d w3 0 d 0 w3 d w3 0 d  0 w3 d w3 neg 0 d 0 w3 d w3 neg 0 d 0 w3 neg d w3 neg 0 d cl f } def
/m2 {mp x y w2 sub m 0 w d x w2 sub y m w 0 d s} def
/m5 {mp x w2 sub y w2 sub m w w d x w2 sub y w2 add m w w neg d s} def
/reEncode {exch findfont dup length dict begin {1 index /FID eq  {pop pop} {def} ifelse } forall /Encoding exch def currentdict end dup /FontName get exch definefont pop } def [/Times-Bold /Times-Italic /Times-BoldItalic /Helvetica /Helvetica-Oblique
 /Helvetica-Bold /Helvetica-BoldOblique /Courier /Courier-Oblique /Courier-Bold /Courier-BoldOblique /Times-Roman /AvantGarde-Book /AvantGarde-BookOblique /AvantGarde-Demi /AvantGarde-DemiOblique /Bookman-Demi /Bookman-DemiItalic /Bookman-Light
 /Bookman-LightItalic /Helvetica-Narrow /Helvetica-Narrow-Bold /Helvetica-Narrow-BoldOblique /Helvetica-Narrow-Oblique /NewCenturySchlbk-Roman /NewCenturySchlbk-Bold /NewCenturySchlbk-BoldItalic /NewCenturySchlbk-Italic /Palatino-Bold
 /Palatino-BoldItalic /Palatino-Italic /Palatino-Roman ] {ISOLatin1Encoding reEncode } forall%%EndProlog
%%BeginSetup
%%EndSetup
newpath  gsave  .25 .25 scale  gsave  0 0 t black[  ] 0 sd 3 lw 1 1 1 c 2268 1328 0 0 bf black 1 1 1 c black 1588 996 340 199 bl 1588 996 340 199 bl 1 1 1 c 1 0 0 c /w 23 def /w2 {w 2 div} def /w3 {w 3 div} def 380 308 m21 459 314 m21 539 310 m21 618
 316 m21 697 310 m21 777 305 m21 856 309 m21 935 298 m21 black 1015 294 m 1 Y s 1015 318 m s 1009 294 m 12 X s 1009 318 m 12 X s 1 0 0 c 1015 306 m21 black 1094 304 m 5 Y s 1094 331 m 5 Y s 1088 304 m 12 X s 1088 336 m 12 X s 1 0 0 c 1094 320 m21
 black 1174 297 m 10 Y s 1174 330 m 11 Y s 1168 297 m 11 X s 1168 341 m 11 X s 1 0 0 c 1174 319 m21 black 1253 310 m 16 Y s 1253 349 m 16 Y s 1247 310 m 12 X s 1247 365 m 12 X s 1 0 0 c 1253 338 m21 black 1332 321 m 21 Y s 1332 365 m 21 Y s 1327 321
 m 11 X s 1327 386 m 11 X s 1 0 0 c 1332 354 m21 black 1412 303 m 25 Y s 1412 351 m 25 Y s 1406 303 m 11 X s 1406 376 m 11 X s 1 0 0 c 1412 339 m21 black 1491 222 m 27 Y s 1491 272 m 28 Y s 1485 222 m 12 X s 1485 300 m 12 X s 1 0 0 c 1491 261 m21
 black 1570 250 m 31 Y s 1570 304 m 30 Y s 1565 250 m 11 X s 1565 334 m 11 X s 1 0 0 c 1570 292 m21 black 1650 262 m 34 Y s 1650 318 m 35 Y s 1644 262 m 11 X s 1644 353 m 11 X s 1 0 0 c 1650 307 m21 black 1729 254 m 37 Y s 1729 314 m 37 Y s 1723 254
 m 12 X s 1723 351 m 12 X s 1 0 0 c 1729 303 m21 black 1809 302 m 40 Y s 1809 365 m 40 Y s 1803 302 m 11 X s 1803 405 m 11 X s 1 0 0 c 1809 354 m21 black 1888 229 m 42 Y s 1888 294 m 42 Y s 1882 229 m 12 X s 1882 336 m 12 X s 1 0 0 c 1888 282 m21
 black 340 199 m 1588 X s
 gsave  2268 1328 0 0 C 954.378 68.3734 t 0 r /Helvetica findfont 62.6756 sf 0 0 m ( Energy \(GeV\) ) show NC gr 
 gsave  2268 1328 0 0 C 928.738 51.28 t 0 r /Symbol findfont 42.7334 sf 0 0 m (m) show NC gr 
 gsave  2268 1328 0 0 C 894.552 68.3734 t 0 r /Symbol findfont 62.6756 sf 0 0 m (n) show NC gr  340 216 m -17 Y s 372 208 m -9 Y s 404 208 m -9 Y s 435 208 m -9 Y s 467 208 m -9 Y s 499 216 m -17 Y s 531 208 m -9 Y s 562 208 m -9 Y s 594 208 m -9 Y s
 626 208 m -9 Y s 658 216 m -17 Y s 689 208 m -9 Y s 721 208 m -9 Y s 753 208 m -9 Y s 785 208 m -9 Y s 816 216 m -17 Y s 848 208 m -9 Y s 880 208 m -9 Y s 912 208 m -9 Y s 943 208 m -9 Y s 975 216 m -17 Y s 1007 208 m -9 Y s 1039 208 m -9 Y s 1070
 208 m -9 Y s 1102 208 m -9 Y s 1134 216 m -17 Y s 1166 208 m -9 Y s 1197 208 m -9 Y s 1229 208 m -9 Y s 1261 208 m -9 Y s 1293 216 m -17 Y s 1324 208 m -9 Y s 1356 208 m -9 Y s 1388 208 m -9 Y s 1420 208 m -9 Y s 1451 216 m -17 Y s 1483 208 m -9 Y s
 1515 208 m -9 Y s 1547 208 m -9 Y s 1578 208 m -9 Y s 1610 216 m -17 Y s 1642 208 m -9 Y s 1674 208 m -9 Y s 1705 208 m -9 Y s 1737 208 m -9 Y s 1769 216 m -17 Y s 1801 208 m -9 Y s 1832 208 m -9 Y s 1864 208 m -9 Y s 1896 208 m -9 Y s 1928 216 m
 -17 Y s
 gsave  2268 1328 0 0 C 319.076 136.747 t 0 r /Helvetica findfont 68.3734 sf 0 0 m (0) show NC gr 
 gsave  2268 1328 0 0 C 484.311 136.747 t 0 r /Helvetica findfont 68.3734 sf 0 0 m (1) show NC gr 
 gsave  2268 1328 0 0 C 635.302 136.747 t 0 r /Helvetica findfont 68.3734 sf 0 0 m (2) show NC gr 
 gsave  2268 1328 0 0 C 794.84 136.747 t 0 r /Helvetica findfont 68.3734 sf 0 0 m (3) show NC gr 
 gsave  2268 1328 0 0 C 954.378 136.747 t 0 r /Helvetica findfont 68.3734 sf 0 0 m (4) show NC gr 
 gsave  2268 1328 0 0 C 1113.92 136.747 t 0 r /Helvetica findfont 68.3734 sf 0 0 m (5) show NC gr 
 gsave  2268 1328 0 0 C 1270.6 136.747 t 0 r /Helvetica findfont 68.3734 sf 0 0 m (6) show NC gr 
 gsave  2268 1328 0 0 C 1430.14 136.747 t 0 r /Helvetica findfont 68.3734 sf 0 0 m (7) show NC gr 
 gsave  2268 1328 0 0 C 1589.68 136.747 t 0 r /Helvetica findfont 68.3734 sf 0 0 m (8) show NC gr 
 gsave  2268 1328 0 0 C 1746.37 136.747 t 0 r /Helvetica findfont 68.3734 sf 0 0 m (9) show NC gr 
 gsave  2268 1328 0 0 C 1888.81 136.747 t 0 r /Helvetica findfont 68.3734 sf 0 0 m (10) show NC gr  340 1195 m 1588 X s 340 1178 m 17 Y s 372 1186 m 9 Y s 404 1186 m 9 Y s 435 1186 m 9 Y s 467 1186 m 9 Y s 499 1178 m 17 Y s 531 1186 m 9 Y s 562 1186
 m 9 Y s 594 1186 m 9 Y s 626 1186 m 9 Y s 658 1178 m 17 Y s 689 1186 m 9 Y s 721 1186 m 9 Y s 753 1186 m 9 Y s 785 1186 m 9 Y s 816 1178 m 17 Y s 848 1186 m 9 Y s 880 1186 m 9 Y s 912 1186 m 9 Y s 943 1186 m 9 Y s 975 1178 m 17 Y s 1007 1186 m 9 Y s
 1039 1186 m 9 Y s 1070 1186 m 9 Y s 1102 1186 m 9 Y s 1134 1178 m 17 Y s 1166 1186 m 9 Y s 1197 1186 m 9 Y s 1229 1186 m 9 Y s 1261 1186 m 9 Y s 1293 1178 m 17 Y s 1324 1186 m 9 Y s 1356 1186 m 9 Y s 1388 1186 m 9 Y s 1420 1186 m 9 Y s 1451 1178 m
 17 Y s 1483 1186 m 9 Y s 1515 1186 m 9 Y s 1547 1186 m 9 Y s 1578 1186 m 9 Y s 1610 1178 m 17 Y s 1642 1186 m 9 Y s 1674 1186 m 9 Y s 1705 1186 m 9 Y s 1737 1186 m 9 Y s 1769 1178 m 17 Y s 1801 1186 m 9 Y s 1832 1186 m 9 Y s 1864 1186 m 9 Y s 1896
 1186 m 9 Y s 1928 1178 m 17 Y s 340 199 m 996 Y s
 gsave  2268 1328 0 0 C 170.933 324.773 t 90 r /Helvetica findfont 62.6756 sf 0 0 m (Near Flux Ratio to Nominal) show NC gr  371 199 m -31 X s 355 221 m -15 X s 355 243 m -15 X s 355 266 m -15 X s 355 288 m -15 X s 371 310 m -31 X s 355 332 m -15 X s
 355 354 m -15 X s 355 376 m -15 X s 355 398 m -15 X s 371 420 m -31 X s 355 443 m -15 X s 355 465 m -15 X s 355 487 m -15 X s 355 509 m -15 X s 371 531 m -31 X s 355 553 m -15 X s 355 575 m -15 X s 355 597 m -15 X s 355 620 m -15 X s 371 642 m -31 X
 s 355 664 m -15 X s 355 686 m -15 X s 355 708 m -15 X s 355 730 m -15 X s 371 752 m -31 X s 355 774 m -15 X s 355 797 m -15 X s 355 819 m -15 X s 355 841 m -15 X s 371 863 m -31 X s 355 885 m -15 X s 355 907 m -15 X s 355 929 m -15 X s 355 951 m -15
 X s 371 974 m -31 X s 355 996 m -15 X s 355 1018 m -15 X s 355 1040 m -15 X s 355 1062 m -15 X s 371 1084 m -31 X s 355 1106 m -15 X s 355 1128 m -15 X s 355 1151 m -15 X s 355 1173 m -15 X s 371 1195 m -31 X s 371 199 m -31 X s 371 1195 m -31 X s
 gsave  2268 1328 0 0 C 196.573 173.782 t 0 r /Helvetica findfont 68.3734 sf 0 0 m (0.95) show NC gr 
 gsave  2268 1328 0 0 C 301.982 282.04 t 0 r /Helvetica findfont 68.3734 sf 0 0 m (1) show NC gr 
 gsave  2268 1328 0 0 C 196.573 395.996 t 0 r /Helvetica findfont 68.3734 sf 0 0 m (1.05) show NC gr 
 gsave  2268 1328 0 0 C 245.005 504.254 t 0 r /Helvetica findfont 68.3734 sf 0 0 m (1.1) show NC gr 
 gsave  2268 1328 0 0 C 196.573 618.209 t 0 r /Helvetica findfont 68.3734 sf 0 0 m (1.15) show NC gr 
 gsave  2268 1328 0 0 C 233.609 726.467 t 0 r /Helvetica findfont 68.3734 sf 0 0 m (1.2) show NC gr 
 gsave  2268 1328 0 0 C 196.573 837.574 t 0 r /Helvetica findfont 68.3734 sf 0 0 m (1.25) show NC gr 
 gsave  2268 1328 0 0 C 233.609 948.68 t 0 r /Helvetica findfont 68.3734 sf 0 0 m (1.3) show NC gr 
 gsave  2268 1328 0 0 C 196.573 1059.79 t 0 r /Helvetica findfont 68.3734 sf 0 0 m (1.35) show NC gr 
 gsave  2268 1328 0 0 C 233.609 1168.04 t 0 r /Helvetica findfont 68.3734 sf 0 0 m (1.4) show NC gr  1928 199 m 996 Y s 1897 199 m 31 X s 1912 221 m 16 X s 1912 243 m 16 X s 1912 266 m 16 X s 1912 288 m 16 X s 1897 310 m 31 X s 1912 332 m 16 X s 1912
 354 m 16 X s 1912 376 m 16 X s 1912 398 m 16 X s 1897 420 m 31 X s 1912 443 m 16 X s 1912 465 m 16 X s 1912 487 m 16 X s 1912 509 m 16 X s 1897 531 m 31 X s 1912 553 m 16 X s 1912 575 m 16 X s 1912 597 m 16 X s 1912 620 m 16 X s 1897 642 m 31 X s
 1912 664 m 16 X s 1912 686 m 16 X s 1912 708 m 16 X s 1912 730 m 16 X s 1897 752 m 31 X s 1912 774 m 16 X s 1912 797 m 16 X s 1912 819 m 16 X s 1912 841 m 16 X s 1897 863 m 31 X s 1912 885 m 16 X s 1912 907 m 16 X s 1912 929 m 16 X s 1912 951 m 16 X
 s 1897 974 m 31 X s 1912 996 m 16 X s 1912 1018 m 16 X s 1912 1040 m 16 X s 1912 1062 m 16 X s 1897 1084 m 31 X s 1912 1106 m 16 X s 1912 1128 m 16 X s 1912 1151 m 16 X s 1912 1173 m 16 X s 1897 1195 m 31 X s 1897 199 m 31 X s 1897 1195 m 31 X s 1 0
 0 c 6 lw 1 1 1 c 1 0 0 c 380 304 m 12 1 d 10 1 d 14 X 11 1 d 12 X 12 1 d 40 X 39 -1 d 43 X 35 1 d 89 X 10 -1 d 70 -3 d 26 -1 d 21 -1 d 12 -1 d 20 X 12 -1 d 49 X 18 1 d 38 X 23 1 d 19 X 15 1 d 26 1 d 31 1 d 7 1 d 32 X 15 1 d 18 X 7 1 d 8 X 5 1 d 6 X
 7 1 d 9 1 d 16 3 d 11 1 d 8 1 d 6 1 d 5 X 6 1 d 7 X 7 1 d 105 X 13 -1 d 19 X 8 -1 d 14 X 9 -1 d 18 -2 d 12 -1 d 8 -1 d 7 X 6 -1 d 101 X 25 1 d 60 X 20 -1 d 34 X 3 1 d 4 X 3 1 d 4 X 4 1 d 4 1 d 5 2 d 5 1 d 6 2 d 14 5 d 5 2 d 5 1 d 4 1 d 4 1 d 4 1 d 3
 1 d 6 X 5 1 d 7 1 d 6 X 6 1 d 47 X 6 -1 d 2 X s 3 lw /w 2 def /w2 {w 2 div} def /w3 {w 3 div} def 380 304 459 308 539 307 618 308 697 308 777 304 856 301 935 301 1015 302 1094 306 1174 308 1253 318 1332 319 1412 317 1491 311 1570 311 1650 312 1729
 312 1809 332 1888 334 20 { m20} R 6 lw black 1 0 0 c
 gsave  2268 1328 0 0 C 2036.96 364.658 t 0 r /Helvetica-Bold findfont 48.4311 sf 0 0 m (/dof=0.7) show NC gr  black 1 0 0 c
 gsave  2268 1328 0 0 C 2017.01 381.751 t 0 r /Helvetica-Bold findfont 34.1867 sf 0 0 m (2) show NC gr  black 1 0 0 c
 gsave  2268 1328 0 0 C 1991.37 364.658 t 0 r /Symbol findfont 48.4311 sf 0 0 m (c) show NC gr  black 3 lw 340 310 m 1588 X s
 gsave  2268 1328 0 0 C 424.485 1213.63 t 0 r /Helvetica-Bold findfont 42.7334 sf 0 0 m (0.5 mm) show NC gr  1 0 0 c /w 23 def /w2 {w 2 div} def /w3 {w 3 div} def 383 1228 m21 black 1 1 1 c 0 0 1 c 380 514 m21 459 534 m21 539 532 m21 618 530 m21 697
 524 m21 777 523 m21 856 498 m21 935 516 m21 black 1015 505 m 2 Y s 1015 529 m 2 Y s 1009 505 m 12 X s 1009 531 m 12 X s 0 0 1 c 1015 518 m21 black 1094 554 m 7 Y s 1094 584 m 7 Y s 1088 554 m 12 X s 1088 591 m 12 X s 0 0 1 c 1094 573 m21 black 1174
 515 m 12 Y s 1174 550 m 13 Y s 1168 515 m 11 X s 1168 563 m 11 X s 0 0 1 c 1174 539 m21 black 1253 534 m 19 Y s 1253 575 m 19 Y s 1247 534 m 12 X s 1247 594 m 12 X s 0 0 1 c 1253 564 m21 black 1332 531 m 24 Y s 1332 578 m 25 Y s 1327 531 m 11 X s
 1327 603 m 11 X s 0 0 1 c 1332 567 m21 black 1412 540 m 29 Y s 1412 592 m 29 Y s 1406 540 m 11 X s 1406 621 m 11 X s 0 0 1 c 1412 581 m21 black 1491 452 m 32 Y s 1491 506 m 32 Y s 1485 452 m 12 X s 1485 538 m 12 X s 0 0 1 c 1491 495 m21 black 1570
 550 m 36 Y s 1570 609 m 36 Y s 1565 550 m 11 X s 1565 645 m 11 X s 0 0 1 c 1570 597 m21 black 1650 418 m 38 Y s 1650 478 m 38 Y s 1644 418 m 11 X s 1644 516 m 11 X s 0 0 1 c 1650 467 m21 black 1729 462 m 42 Y s 1729 526 m 42 Y s 1723 462 m 12 X s
 1723 568 m 12 X s 0 0 1 c 1729 515 m21 black 1809 515 m 46 Y s 1809 583 m 47 Y s 1803 515 m 11 X s 1803 630 m 11 X s 0 0 1 c 1809 572 m21 black 1888 593 m 50 Y s 1888 666 m 50 Y s 1882 593 m 12 X s 1882 716 m 12 X s 0 0 1 c 1888 655 m21 6 lw 1 1 1 c
 0 0 1 c 380 519 m 15 1 d 15 1 d 17 1 d 14 1 d 28 X 13 -1 d 22 -1 d 17 -1 d 11 -1 d 20 X 15 1 d 38 1 d 13 1 d 19 X 22 1 d 21 X 8 -1 d 9 X 8 -1 d 9 -2 d 9 -2 d 45 -10 d 9 -2 d 21 -4 d 21 -4 d 12 -3 d 9 -1 d 9 -1 d 7 -1 d 10 -1 d 51 X 18 1 d 13 1 d 16
 1 d 15 1 d 19 3 d 17 2 d 13 2 d 16 3 d 35 6 d 15 3 d 12 1 d 21 3 d 19 2 d 10 2 d 8 1 d 10 2 d 6 2 d 7 2 d 9 3 d 14 5 d 13 5 d 10 3 d 6 2 d 6 1 d 6 1 d 2 1 d 7 1 d 7 1 d 90 X 18 -1 d 14 -1 d 14 X 9 -1 d 9 -1 d 12 -2 d 19 -3 d 17 -2 d 10 -2 d 9 X 3 -1
 d 12 X 11 -1 d 31 X 25 1 d 13 X 18 1 d 28 2 d 12 1 d 23 X 12 -2 d 17 -1 d 7 -1 d 13 X 5 1 d 5 X 5 1 d 1 1 d 5 1 d 4 1 d 4 2 d 5 2 d 6 3 d 6 4 d 9 6 d 12 8 d 6 4 d 5 2 d 5 3 d 5 2 d 4 1 d 4 2 d 7 1 d 7 2 d 7 1 d 7 1 d 8 1 d 30 X 7 -1 d 6 -1 d s 3 lw
 /w 2 def /w2 {w 2 div} def /w3 {w 3 div} def 380 519 459 523 539 519 618 522 697 522 777 505 856 491 935 491 1015 499 1094 513 1174 524 1253 549 1332 551 1412 548 1491 537 1570 537 1650 541 1729 540 1809 581 1888 585 20 { m20} R 6 lw black 0 0 1 c
 gsave  2268 1328 0 0 C 2036.96 615.36 t 0 r /Helvetica-Bold findfont 48.4311 sf 0 0 m (/dof=2.4) show NC gr  black 0 0 1 c
 gsave  2268 1328 0 0 C 2017.01 632.454 t 0 r /Helvetica-Bold findfont 34.1867 sf 0 0 m (2) show NC gr  black 0 0 1 c
 gsave  2268 1328 0 0 C 1991.37 615.36 t 0 r /Symbol findfont 48.4311 sf 0 0 m (c) show NC gr  black 3 lw 340 531 m 1588 X s
 gsave  2268 1328 0 0 C 877.458 1213.63 t 0 r /Helvetica-Bold findfont 39.8845 sf 0 0 m (1 mm) show NC gr  0 0 1 c /w 23 def /w2 {w 2 div} def /w3 {w 3 div} def 836 1228 m21 black 1 1 1 c 1 0 1 c 380 734 m21 459 720 m21 539 718 m21 618 718 m21 697
 724 m21 777 682 m21 856 641 m21 935 643 m21 black 1015 636 m 2 Y s 1015 661 m 3 Y s 1009 636 m 12 X s 1009 664 m 12 X s 1 0 1 c 1015 650 m21 black 1094 678 m 8 Y s 1094 709 m 8 Y s 1088 678 m 12 X s 1088 717 m 12 X s 1 0 1 c 1094 697 m21 black 1174
 723 m 15 Y s 1174 760 m 15 Y s 1168 723 m 11 X s 1168 775 m 11 X s 1 0 1 c 1174 749 m21 black 1253 787 m 22 Y s 1253 831 m 22 Y s 1247 787 m 12 X s 1247 853 m 12 X s 1 0 1 c 1253 820 m21 black 1332 753 m 28 Y s 1332 804 m 27 Y s 1327 753 m 11 X s
 1327 831 m 11 X s 1 0 1 c 1332 792 m21 black 1412 693 m 32 Y s 1412 748 m 31 Y s 1406 693 m 11 X s 1406 779 m 11 X s 1 0 1 c 1412 736 m21 black 1491 681 m 35 Y s 1491 739 m 36 Y s 1485 681 m 12 X s 1485 775 m 12 X s 1 0 1 c 1491 728 m21 black 1570
 664 m 40 Y s 1570 727 m 40 Y s 1565 664 m 11 X s 1565 767 m 11 X s 1 0 1 c 1570 716 m21 black 1650 647 m 42 Y s 1650 712 m 42 Y s 1644 647 m 11 X s 1644 754 m 11 X s 1 0 1 c 1650 700 m21 black 1729 664 m 46 Y s 1729 733 m 46 Y s 1723 664 m 12 X s
 1723 779 m 12 X s 1 0 1 c 1729 721 m21 black 1809 836 m 53 Y s 1809 912 m 53 Y s 1803 836 m 11 X s 1803 965 m 11 X s 1 0 1 c 1809 901 m21 black 1888 743 m 53 Y s 1888 819 m 54 Y s 1882 743 m 12 X s 1882 873 m 12 X s 1 0 1 c 1888 808 m21 6 lw 1 1 1 c
 1 0 1 c 380 726 m 28 -3 d 28 -3 d 23 -4 d 15 -3 d 45 -11 d 11 -1 d 9 -1 d 10 X 11 1 d 17 3 d 25 5 d 12 2 d 4 X 12 1 d 26 4 d 10 1 d 10 -1 d 8 -1 d 7 -1 d 6 -3 d 7 -3 d 6 -5 d 8 -5 d 9 -8 d 50 -50 d 13 -11 d 28 -26 d 12 -10 d 9 -6 d 7 -4 d 7 -4 d 3
 -1 d 8 -3 d 9 -2 d 10 -1 d 10 -1 d 11 1 d 14 1 d 17 4 d 13 3 d 10 3 d 13 6 d 16 7 d 17 10 d 11 6 d 10 7 d 12 9 d 19 15 d 23 18 d 12 10 d 3 2 d 14 9 d 27 16 d 19 11 d 12 8 d 8 5 d 8 6 d 9 9 d 19 19 d 13 13 d 10 9 d 7 5 d 6 4 d 7 4 d 7 3 d 8 2 d 9 1 d
 10 1 d 45 -3 d 19 X 23 -2 d 38 -4 d 79 -9 d 41 -3 d 33 X 5 1 d 11 1 d 11 3 d 19 5 d 18 5 d 10 2 d 11 2 d 7 X 9 -1 d 12 -3 d 19 -4 d 10 -1 d 8 -1 d 6 1 d 5 2 d 3 1 d 5 2 d 6 4 d 6 5 d 8 7 d 8 9 d 20 22 d 8 8 d 7 6 d 5 4 d 6 3 d 1 X 9 5 d 11 4 d 9 2 d
 10 2 d 20 X 9 -1 d 11 -2 d s 3 lw /w 2 def /w2 {w 2 div} def /w3 {w 3 div} def 380 726 459 716 539 700 618 711 697 711 777 640 856 578 935 577 1015 612 1094 673 1174 722 1253 791 1332 795 1412 789 1491 780 1570 778 1650 796 1729 790 1809 860 1888
 870 20 { m20} R 6 lw black 1 0 1 c
 gsave  2268 1328 0 0 C 2036.96 863.214 t 0 r /Helvetica-Bold findfont 48.4311 sf 0 0 m (/dof=8.8) show NC gr  black 1 0 1 c
 gsave  2268 1328 0 0 C 2017.01 880.307 t 0 r /Helvetica-Bold findfont 34.1867 sf 0 0 m (2) show NC gr  black 1 0 1 c
 gsave  2268 1328 0 0 C 1991.37 863.214 t 0 r /Symbol findfont 48.4311 sf 0 0 m (c) show NC gr  black 3 lw 340 752 m 1588 X s
 gsave  2268 1328 0 0 C 1330.43 1213.63 t 0 r /Helvetica-Bold findfont 39.8845 sf 0 0 m (2 mm) show NC gr  1 0 1 c /w 23 def /w2 {w 2 div} def /w3 {w 3 div} def 1290 1228 m21 black 1 1 1 c 0 0.733333 1 c 380 925 m21 459 883 m21 539 836 m21 618 869
 m21 697 866 m21 777 681 m21 856 521 m21 935 515 m21 black 1015 599 m 3 Y s 1015 625 m 3 Y s 1009 599 m 12 X s 1009 628 m 12 X s 0 0.733333 1 c 1015 614 m21 black 1094 741 m 9 Y s 1094 773 m 9 Y s 1088 741 m 12 X s 1088 782 m 12 X s 0 0.733333 1 c
 1094 761 m21 black 1174 857 m 17 Y s 1174 896 m 17 Y s 1168 857 m 11 X s 1168 913 m 11 X s 0 0.733333 1 c 1174 885 m21 black 1253 970 m 25 Y s 1253 1017 m 24 Y s 1247 970 m 12 X s 1247 1041 m 12 X s 0 0.733333 1 c 1253 1006 m21 black 1332 990 m 31 Y
 s 1332 1043 m 31 Y s 1327 990 m 11 X s 1327 1074 m 11 X s 0 0.733333 1 c 1332 1032 m21 black 1412 1008 m 36 Y s 1412 1067 m 36 Y s 1406 1008 m 11 X s 1406 1103 m 11 X s 0 0.733333 1 c 1412 1055 m21 black 1491 1023 m 41 Y s 1491 1086 m 41 Y s 1485
 1023 m 12 X s 1485 1127 m 12 X s 0 0.733333 1 c 1491 1075 m21 black 1570 1003 m 45 Y s 1570 1071 m 45 Y s 1565 1003 m 11 X s 1565 1116 m 11 X s 0 0.733333 1 c 1570 1059 m21 black 1650 1080 m 51 Y s 1650 1154 m 41 Y s 1644 1080 m 11 X s 1644 1195 m
 11 X s 0 0.733333 1 c 1650 1143 m21 black 1729 1039 m 55 Y s 1729 1117 m 54 Y s 1723 1039 m 12 X s 1723 1171 m 12 X s 0 0.733333 1 c 1729 1105 m21 black 1809 1050 m 58 Y s 1809 1131 m 57 Y s 1803 1050 m 11 X s 1803 1188 m 11 X s 0 0.733333 1 c 1809
 1119 m21 6 lw 1 1 1 c 0 0.733333 1 c 380 930 m 49 -28 d 30 -16 d 22 -13 d 25 -15 d 11 -6 d 11 -4 d 11 -2 d 9 1 d 10 2 d 15 6 d 27 13 d 11 4 d 7 1 d 12 3 d 25 8 d 10 2 d 8 X 8 -2 d 7 -3 d 6 -5 d 3 -3 d 6 -7 d 6 -10 d 68 -156 d 12 -26 d 30 -66 d 10
 -19 d 8 -16 d 7 -11 d 7 -9 d 5 -5 d 8 -6 d 8 -5 d 10 -4 d 8 -1 d 10 1 d 13 3 d 15 6 d 7 3 d 11 7 d 10 8 d 12 12 d 13 14 d 14 19 d 20 27 d 9 15 d 12 20 d 16 31 d 25 51 d 12 21 d 5 10 d 15 24 d 65 96 d 9 16 d 11 22 d 24 47 d 11 20 d 8 13 d 7 9 d 7 8 d
 2 2 d 7 5 d 8 4 d 9 3 d 11 X 34 -4 d 10 -1 d 18 -2 d 57 -9 d 5 X 18 1 d 32 4 d 22 2 d 7 1 d 17 -1 d 42 -6 d 11 X 9 2 d 10 3 d 11 6 d 19 13 d 17 12 d 12 6 d 9 3 d 2 X 8 1 d 10 -2 d 16 -6 d 18 -8 d 9 -2 d 8 X 7 1 d 3 2 d 7 4 d 8 6 d 10 11 d 15 19 d 17
 22 d 10 11 d 7 7 d 6 4 d 12 7 d 13 6 d 13 3 d 14 2 d 12 X 15 -2 d s 3 lw /w 2 def /w2 {w 2 div} def /w3 {w 3 div} def 380 930 459 886 539 846 618 873 697 873 777 700 856 548 935 545 1015 632 1094 780 1174 900 1253 1037 1332 1044 1412 1033 1491 1041
 1570 1036 1650 1079 1729 1065 1809 1149 1888 1165 20 { m20} R 6 lw black 0 0.733333 1 c
 gsave  2268 1328 0 0 C 2036.96 1113.92 t 0 r /Helvetica-Bold findfont 48.4311 sf 0 0 m (/dof=1.9) show NC gr  black 0 0.733333 1 c
 gsave  2268 1328 0 0 C 2017.01 1131.01 t 0 r /Helvetica-Bold findfont 34.1867 sf 0 0 m (2) show NC gr  black 0 0.733333 1 c
 gsave  2268 1328 0 0 C 1991.37 1113.92 t 0 r /Symbol findfont 48.4311 sf 0 0 m (c) show NC gr  black 3 lw 340 974 m 1588 X s
 gsave  2268 1328 0 0 C 1783.41 1213.63 t 0 r /Helvetica-Bold findfont 42.7334 sf 0 0 m (3 mm) show NC gr  0 0.733333 1 c /w 23 def /w2 {w 2 div} def /w3 {w 3 div} def 1743 1228 m21
 gr  gr showpage
end
%%EOF
