%!PS-Adobe-2.0 EPSF-2.0
%%BoundingBox:  0 0 567 332
%%Title: TargetYOffset_near_summary.eps: Summary
%%Creator: ROOT Version 5.30/06
%%CreationDate: Sun Feb  2 09:40:41 2014
%%EndComments
%%BeginProlog
80 dict begin
/s {stroke} def /l {lineto} def /m {moveto} def /t {translate} def
/r {rotate} def /rl {roll}  def /R {repeat} def
/d {rlineto} def /rm {rmoveto} def /gr {grestore} def /f {eofill} def
/c {setrgbcolor} def /black {0 setgray} def /sd {setdash} def
/cl {closepath} def /sf {scalefont setfont} def /lw {setlinewidth} def
/box {m dup 0 exch d exch 0 d 0 exch neg d cl} def
/NC{systemdict begin initclip end}def/C{NC box clip newpath}def
/bl {box s} def /bf {box f} def /Y { 0 exch d} def /X { 0 d} def 
/K {{pop pop 0 moveto} exch kshow} bind def
/ita {/ang 15 def gsave [1 0 ang dup sin exch cos div 1 0 0] concat} def 
/mp {newpath /y exch def /x exch def} def
/side {[w .77 mul w .23 mul] .385 w mul sd w 0 l currentpoint t -144 r} def
/mr {mp x y w2 0 360 arc} def /m24 {mr s} def /m20 {mr f} def
/mb {mp x y w2 add m w2 neg 0 d 0 w neg d w 0 d 0 w d cl} def
/mt {mp x y w2 add m w2 neg w neg d w 0 d cl} def
/m21 {mb f} def /m25 {mb s} def /m22 {mt f} def /m26{mt s} def
/m23 {mp x y w2 sub m w2 w d w neg 0 d cl f} def
/m27 {mp x y w2 add m w3 neg w2 neg d w3 w2 neg d w3 w2 d cl s} def
/m28 {mp x w2 sub y w2 sub w3 add m w3 0 d  0 w3 neg d w3 0 d 0 w3 d w3 0 d  0 w3 d w3 neg 0 d 0 w3 d w3 neg 0 d 0 w3 neg d w3 neg 0 d cl s } def
/m29 {mp gsave x w2 sub y w2 add w3 sub m currentpoint t 4 {side} repeat cl fill gr} def
/m30 {mp gsave x w2 sub y w2 add w3 sub m currentpoint t 4 {side} repeat cl s gr} def
/m31 {mp x y w2 sub m 0 w d x w2 sub y m w 0 d x w2 sub y w2 add m w w neg d x w2 sub y w2 sub m w w d s} def
/m32 {mp x y w2 sub m w2 w d w neg 0 d cl s} def
/m33 {mp x y w2 add m w3 neg w2 neg d w3 w2 neg d w3 w2 d cl f} def
/m34 {mp x w2 sub y w2 sub w3 add m w3 0 d  0 w3 neg d w3 0 d 0 w3 d w3 0 d  0 w3 d w3 neg 0 d 0 w3 d w3 neg 0 d 0 w3 neg d w3 neg 0 d cl f } def
/m2 {mp x y w2 sub m 0 w d x w2 sub y m w 0 d s} def
/m5 {mp x w2 sub y w2 sub m w w d x w2 sub y w2 add m w w neg d s} def
/reEncode {exch findfont dup length dict begin {1 index /FID eq  {pop pop} {def} ifelse } forall /Encoding exch def currentdict end dup /FontName get exch definefont pop } def [/Times-Bold /Times-Italic /Times-BoldItalic /Helvetica /Helvetica-Oblique
 /Helvetica-Bold /Helvetica-BoldOblique /Courier /Courier-Oblique /Courier-Bold /Courier-BoldOblique /Times-Roman /AvantGarde-Book /AvantGarde-BookOblique /AvantGarde-Demi /AvantGarde-DemiOblique /Bookman-Demi /Bookman-DemiItalic /Bookman-Light
 /Bookman-LightItalic /Helvetica-Narrow /Helvetica-Narrow-Bold /Helvetica-Narrow-BoldOblique /Helvetica-Narrow-Oblique /NewCenturySchlbk-Roman /NewCenturySchlbk-Bold /NewCenturySchlbk-BoldItalic /NewCenturySchlbk-Italic /Palatino-Bold
 /Palatino-BoldItalic /Palatino-Italic /Palatino-Roman ] {ISOLatin1Encoding reEncode } forall%%EndProlog
%%BeginSetup
%%EndSetup
newpath  gsave  .25 .25 scale  gsave  0 0 t black[  ] 0 sd 3 lw 1 1 1 c 2268 1328 0 0 bf black 1 1 1 c black 1588 996 340 199 bl 1588 996 340 199 bl 1 1 1 c 1 0 0 c /w 23 def /w2 {w 2 div} def /w3 {w 3 div} def 380 314 m21 459 300 m21 539 307 m21 618
 306 m21 697 313 m21 777 314 m21 856 310 m21 935 316 m21 black 1015 275 m s 1015 298 m 1 Y s 1009 275 m 12 X s 1009 299 m 12 X s 1 0 0 c 1015 287 m21 black 1094 320 m 5 Y s 1094 348 m 5 Y s 1088 320 m 12 X s 1088 353 m 12 X s 1 0 0 c 1094 336 m21
 black 1174 316 m 11 Y s 1174 350 m 10 Y s 1168 316 m 11 X s 1168 360 m 11 X s 1 0 0 c 1174 338 m21 black 1253 304 m 16 Y s 1253 343 m 16 Y s 1247 304 m 12 X s 1247 359 m 12 X s 1 0 0 c 1253 332 m21 black 1332 256 m 21 Y s 1332 300 m 20 Y s 1327 256
 m 11 X s 1327 320 m 11 X s 1 0 0 c 1332 288 m21 black 1412 270 m 25 Y s 1412 317 m 25 Y s 1406 270 m 11 X s 1406 342 m 11 X s 1 0 0 c 1412 306 m21 black 1491 247 m 28 Y s 1491 298 m 28 Y s 1485 247 m 12 X s 1485 326 m 12 X s 1 0 0 c 1491 287 m21
 black 1570 221 m 30 Y s 1570 274 m 30 Y s 1565 221 m 11 X s 1565 304 m 11 X s 1 0 0 c 1570 262 m21 black 1650 254 m 34 Y s 1650 311 m 34 Y s 1644 254 m 11 X s 1644 345 m 11 X s 1 0 0 c 1650 299 m21 black 1729 272 m 38 Y s 1729 332 m 37 Y s 1723 272
 m 12 X s 1723 369 m 12 X s 1 0 0 c 1729 321 m21 black 1809 281 m 40 Y s 1809 344 m 40 Y s 1803 281 m 11 X s 1803 384 m 11 X s 1 0 0 c 1809 333 m21 black 1888 212 m 41 Y s 1888 276 m 41 Y s 1882 212 m 12 X s 1882 317 m 12 X s 1 0 0 c 1888 264 m21
 black 340 199 m 1588 X s
 gsave  2268 1328 0 0 C 954.378 68.3734 t 0 r /Helvetica findfont 62.6756 sf 0 0 m ( Energy \(GeV\) ) show NC gr 
 gsave  2268 1328 0 0 C 928.738 51.28 t 0 r /Symbol findfont 42.7334 sf 0 0 m (m) show NC gr 
 gsave  2268 1328 0 0 C 894.552 68.3734 t 0 r /Symbol findfont 62.6756 sf 0 0 m (n) show NC gr  340 216 m -17 Y s 372 208 m -9 Y s 404 208 m -9 Y s 435 208 m -9 Y s 467 208 m -9 Y s 499 216 m -17 Y s 531 208 m -9 Y s 562 208 m -9 Y s 594 208 m -9 Y s
 626 208 m -9 Y s 658 216 m -17 Y s 689 208 m -9 Y s 721 208 m -9 Y s 753 208 m -9 Y s 785 208 m -9 Y s 816 216 m -17 Y s 848 208 m -9 Y s 880 208 m -9 Y s 912 208 m -9 Y s 943 208 m -9 Y s 975 216 m -17 Y s 1007 208 m -9 Y s 1039 208 m -9 Y s 1070
 208 m -9 Y s 1102 208 m -9 Y s 1134 216 m -17 Y s 1166 208 m -9 Y s 1197 208 m -9 Y s 1229 208 m -9 Y s 1261 208 m -9 Y s 1293 216 m -17 Y s 1324 208 m -9 Y s 1356 208 m -9 Y s 1388 208 m -9 Y s 1420 208 m -9 Y s 1451 216 m -17 Y s 1483 208 m -9 Y s
 1515 208 m -9 Y s 1547 208 m -9 Y s 1578 208 m -9 Y s 1610 216 m -17 Y s 1642 208 m -9 Y s 1674 208 m -9 Y s 1705 208 m -9 Y s 1737 208 m -9 Y s 1769 216 m -17 Y s 1801 208 m -9 Y s 1832 208 m -9 Y s 1864 208 m -9 Y s 1896 208 m -9 Y s 1928 216 m
 -17 Y s
 gsave  2268 1328 0 0 C 319.076 136.747 t 0 r /Helvetica findfont 68.3734 sf 0 0 m (0) show NC gr 
 gsave  2268 1328 0 0 C 484.311 136.747 t 0 r /Helvetica findfont 68.3734 sf 0 0 m (1) show NC gr 
 gsave  2268 1328 0 0 C 635.302 136.747 t 0 r /Helvetica findfont 68.3734 sf 0 0 m (2) show NC gr 
 gsave  2268 1328 0 0 C 794.84 136.747 t 0 r /Helvetica findfont 68.3734 sf 0 0 m (3) show NC gr 
 gsave  2268 1328 0 0 C 954.378 136.747 t 0 r /Helvetica findfont 68.3734 sf 0 0 m (4) show NC gr 
 gsave  2268 1328 0 0 C 1113.92 136.747 t 0 r /Helvetica findfont 68.3734 sf 0 0 m (5) show NC gr 
 gsave  2268 1328 0 0 C 1270.6 136.747 t 0 r /Helvetica findfont 68.3734 sf 0 0 m (6) show NC gr 
 gsave  2268 1328 0 0 C 1430.14 136.747 t 0 r /Helvetica findfont 68.3734 sf 0 0 m (7) show NC gr 
 gsave  2268 1328 0 0 C 1589.68 136.747 t 0 r /Helvetica findfont 68.3734 sf 0 0 m (8) show NC gr 
 gsave  2268 1328 0 0 C 1746.37 136.747 t 0 r /Helvetica findfont 68.3734 sf 0 0 m (9) show NC gr 
 gsave  2268 1328 0 0 C 1888.81 136.747 t 0 r /Helvetica findfont 68.3734 sf 0 0 m (10) show NC gr  340 1195 m 1588 X s 340 1178 m 17 Y s 372 1186 m 9 Y s 404 1186 m 9 Y s 435 1186 m 9 Y s 467 1186 m 9 Y s 499 1178 m 17 Y s 531 1186 m 9 Y s 562 1186
 m 9 Y s 594 1186 m 9 Y s 626 1186 m 9 Y s 658 1178 m 17 Y s 689 1186 m 9 Y s 721 1186 m 9 Y s 753 1186 m 9 Y s 785 1186 m 9 Y s 816 1178 m 17 Y s 848 1186 m 9 Y s 880 1186 m 9 Y s 912 1186 m 9 Y s 943 1186 m 9 Y s 975 1178 m 17 Y s 1007 1186 m 9 Y s
 1039 1186 m 9 Y s 1070 1186 m 9 Y s 1102 1186 m 9 Y s 1134 1178 m 17 Y s 1166 1186 m 9 Y s 1197 1186 m 9 Y s 1229 1186 m 9 Y s 1261 1186 m 9 Y s 1293 1178 m 17 Y s 1324 1186 m 9 Y s 1356 1186 m 9 Y s 1388 1186 m 9 Y s 1420 1186 m 9 Y s 1451 1178 m
 17 Y s 1483 1186 m 9 Y s 1515 1186 m 9 Y s 1547 1186 m 9 Y s 1578 1186 m 9 Y s 1610 1178 m 17 Y s 1642 1186 m 9 Y s 1674 1186 m 9 Y s 1705 1186 m 9 Y s 1737 1186 m 9 Y s 1769 1178 m 17 Y s 1801 1186 m 9 Y s 1832 1186 m 9 Y s 1864 1186 m 9 Y s 1896
 1186 m 9 Y s 1928 1178 m 17 Y s 340 199 m 996 Y s
 gsave  2268 1328 0 0 C 170.933 324.773 t 90 r /Helvetica findfont 62.6756 sf 0 0 m (Near Flux Ratio to Nominal) show NC gr  371 199 m -31 X s 355 221 m -15 X s 355 243 m -15 X s 355 266 m -15 X s 355 288 m -15 X s 371 310 m -31 X s 355 332 m -15 X s
 355 354 m -15 X s 355 376 m -15 X s 355 398 m -15 X s 371 420 m -31 X s 355 443 m -15 X s 355 465 m -15 X s 355 487 m -15 X s 355 509 m -15 X s 371 531 m -31 X s 355 553 m -15 X s 355 575 m -15 X s 355 597 m -15 X s 355 620 m -15 X s 371 642 m -31 X
 s 355 664 m -15 X s 355 686 m -15 X s 355 708 m -15 X s 355 730 m -15 X s 371 752 m -31 X s 355 774 m -15 X s 355 797 m -15 X s 355 819 m -15 X s 355 841 m -15 X s 371 863 m -31 X s 355 885 m -15 X s 355 907 m -15 X s 355 929 m -15 X s 355 951 m -15
 X s 371 974 m -31 X s 355 996 m -15 X s 355 1018 m -15 X s 355 1040 m -15 X s 355 1062 m -15 X s 371 1084 m -31 X s 355 1106 m -15 X s 355 1128 m -15 X s 355 1151 m -15 X s 355 1173 m -15 X s 371 1195 m -31 X s 371 199 m -31 X s 371 1195 m -31 X s
 gsave  2268 1328 0 0 C 196.573 173.782 t 0 r /Helvetica findfont 68.3734 sf 0 0 m (0.95) show NC gr 
 gsave  2268 1328 0 0 C 301.982 282.04 t 0 r /Helvetica findfont 68.3734 sf 0 0 m (1) show NC gr 
 gsave  2268 1328 0 0 C 196.573 395.996 t 0 r /Helvetica findfont 68.3734 sf 0 0 m (1.05) show NC gr 
 gsave  2268 1328 0 0 C 245.005 504.254 t 0 r /Helvetica findfont 68.3734 sf 0 0 m (1.1) show NC gr 
 gsave  2268 1328 0 0 C 196.573 618.209 t 0 r /Helvetica findfont 68.3734 sf 0 0 m (1.15) show NC gr 
 gsave  2268 1328 0 0 C 233.609 726.467 t 0 r /Helvetica findfont 68.3734 sf 0 0 m (1.2) show NC gr 
 gsave  2268 1328 0 0 C 196.573 837.574 t 0 r /Helvetica findfont 68.3734 sf 0 0 m (1.25) show NC gr 
 gsave  2268 1328 0 0 C 233.609 948.68 t 0 r /Helvetica findfont 68.3734 sf 0 0 m (1.3) show NC gr 
 gsave  2268 1328 0 0 C 196.573 1059.79 t 0 r /Helvetica findfont 68.3734 sf 0 0 m (1.35) show NC gr 
 gsave  2268 1328 0 0 C 233.609 1168.04 t 0 r /Helvetica findfont 68.3734 sf 0 0 m (1.4) show NC gr  1928 199 m 996 Y s 1897 199 m 31 X s 1912 221 m 16 X s 1912 243 m 16 X s 1912 266 m 16 X s 1912 288 m 16 X s 1897 310 m 31 X s 1912 332 m 16 X s 1912
 354 m 16 X s 1912 376 m 16 X s 1912 398 m 16 X s 1897 420 m 31 X s 1912 443 m 16 X s 1912 465 m 16 X s 1912 487 m 16 X s 1912 509 m 16 X s 1897 531 m 31 X s 1912 553 m 16 X s 1912 575 m 16 X s 1912 597 m 16 X s 1912 620 m 16 X s 1897 642 m 31 X s
 1912 664 m 16 X s 1912 686 m 16 X s 1912 708 m 16 X s 1912 730 m 16 X s 1897 752 m 31 X s 1912 774 m 16 X s 1912 797 m 16 X s 1912 819 m 16 X s 1912 841 m 16 X s 1897 863 m 31 X s 1912 885 m 16 X s 1912 907 m 16 X s 1912 929 m 16 X s 1912 951 m 16 X
 s 1897 974 m 31 X s 1912 996 m 16 X s 1912 1018 m 16 X s 1912 1040 m 16 X s 1912 1062 m 16 X s 1897 1084 m 31 X s 1912 1106 m 16 X s 1912 1128 m 16 X s 1912 1151 m 16 X s 1912 1173 m 16 X s 1897 1195 m 31 X s 1897 199 m 31 X s 1897 1195 m 31 X s 1 0
 0 c 6 lw 1 1 1 c 1 0 0 c 380 310 m 12 -1 d 262 X 33 1 d 169 X 40 -1 d 63 X 35 -1 d 9 -1 d 91 X 67 1 d 48 X 21 1 d 45 X 40 -1 d 17 X 8 1 d 18 X 24 1 d 50 X 9 -1 d 26 -1 d 71 X 7 1 d 16 X 4 1 d 5 X 3 1 d 7 X 3 1 d 3 1 d 3 X 3 1 d 4 1 d 4 2 d 10 3 d 4
 1 d 4 1 d 3 1 d 3 1 d 3 1 d 3 X 2 1 d 8 X 3 1 d 14 X 3 -1 d 8 X 2 -1 d 3 X 3 -1 d 3 -1 d 4 -1 d 18 -5 d 3 -1 d 3 -1 d 3 -1 d 5 X 3 -1 d 8 X 2 -1 d 7 X 3 1 d 9 X 4 1 d 4 X 4 1 d 6 1 d 10 2 d 5 1 d 4 X 4 1 d 3 X 3 1 d 29 X 5 -1 d 8 X 4 -1 d 5 X 4 -1 d
 4 -1 d 4 X 3 -1 d 4 -1 d 4 -1 d 3 X 3 -1 d 3 -1 d 3 -1 d 3 -1 d 2 -1 d 3 -1 d s 3 lw /w 2 def /w2 {w 2 div} def /w3 {w 3 div} def 380 310 459 309 539 309 618 309 697 310 777 310 856 310 935 309 1015 307 1094 307 1174 308 1253 309 1332 308 1412 310
 1491 308 1570 310 1650 327 1729 312 1809 321 1888 308 20 { m20} R 6 lw black 1 0 0 c
 gsave  2268 1328 0 0 C 2036.96 364.658 t 0 r /Helvetica-Bold findfont 48.4311 sf 0 0 m (/dof=0.9) show NC gr  black 1 0 0 c
 gsave  2268 1328 0 0 C 2017.01 381.751 t 0 r /Helvetica-Bold findfont 34.1867 sf 0 0 m (2) show NC gr  black 1 0 0 c
 gsave  2268 1328 0 0 C 1991.37 364.658 t 0 r /Symbol findfont 48.4311 sf 0 0 m (c) show NC gr  black 3 lw 340 310 m 1588 X s
 gsave  2268 1328 0 0 C 424.485 1213.63 t 0 r /Helvetica-Bold findfont 42.7334 sf 0 0 m (0.5 mm) show NC gr  1 0 0 c /w 23 def /w2 {w 2 div} def /w3 {w 3 div} def 383 1228 m21 black 1 1 1 c 0 0 1 c 380 529 m21 459 525 m21 539 527 m21 618 531 m21 697
 536 m21 777 526 m21 856 538 m21 935 551 m21 black 1015 507 m 1 Y s 1015 531 m 2 Y s 1009 507 m 12 X s 1009 533 m 12 X s 0 0 1 c 1015 520 m21 black 1094 539 m 7 Y s 1094 568 m 7 Y s 1088 539 m 12 X s 1088 575 m 12 X s 0 0 1 c 1094 557 m21 black 1174
 488 m 13 Y s 1174 524 m 12 Y s 1168 488 m 11 X s 1168 536 m 11 X s 0 0 1 c 1174 512 m21 black 1253 496 m 18 Y s 1253 537 m 18 Y s 1247 496 m 12 X s 1247 555 m 12 X s 0 0 1 c 1253 525 m21 black 1332 548 m 25 Y s 1332 596 m 24 Y s 1327 548 m 11 X s
 1327 620 m 11 X s 0 0 1 c 1332 584 m21 black 1412 536 m 29 Y s 1412 588 m 29 Y s 1406 536 m 11 X s 1406 617 m 11 X s 0 0 1 c 1412 576 m21 black 1491 412 m 31 Y s 1491 466 m 31 Y s 1485 412 m 12 X s 1485 497 m 12 X s 0 0 1 c 1491 454 m21 black 1570
 440 m 35 Y s 1570 497 m 35 Y s 1565 440 m 11 X s 1565 532 m 11 X s 0 0 1 c 1570 486 m21 black 1650 534 m 39 Y s 1650 596 m 39 Y s 1644 534 m 11 X s 1644 635 m 11 X s 0 0 1 c 1650 584 m21 black 1729 548 m 43 Y s 1729 614 m 43 Y s 1723 548 m 12 X s
 1723 657 m 12 X s 0 0 1 c 1729 602 m21 black 1809 541 m 46 Y s 1809 609 m 46 Y s 1803 541 m 11 X s 1803 655 m 11 X s 0 0 1 c 1809 598 m21 black 1888 401 m 46 Y s 1888 469 m 46 Y s 1882 401 m 12 X s 1882 515 m 12 X s 0 0 1 c 1888 458 m21 6 lw 1 1 1 c
 0 0 1 c 380 531 m 15 -1 d 15 -1 d 16 X 15 -1 d 28 X 11 1 d 20 X 18 1 d 42 X 20 -1 d 17 X 10 -1 d 11 X 10 1 d 29 X 24 1 d 12 1 d 158 X 5 -1 d 34 X 15 -1 d 11 X 12 -1 d 7 X 8 -1 d 9 -1 d 9 -1 d 29 -3 d 8 -1 d 7 -1 d 49 X 32 1 d 38 X 23 1 d 27 X 9 1 d
 11 X 18 2 d 17 1 d 9 X 8 1 d 22 X 10 -1 d 32 -1 d 28 X 6 1 d 8 1 d 9 1 d 21 2 d 9 1 d 7 1 d 31 X 8 -1 d 10 -1 d 19 -2 d 14 X 6 -1 d 23 X 10 1 d 15 X 7 1 d 7 X 6 1 d 5 1 d 5 1 d 5 1 d 1 X 4 1 d 3 1 d 3 1 d 3 1 d 4 2 d 3 2 d 4 2 d 5 3 d 12 8 d 5 4 d 4
 2 d 3 2 d 4 1 d 3 2 d 3 1 d 3 X 3 1 d 3 1 d 5 X 3 1 d 3 X 3 -1 d 6 X 3 -1 d 3 -1 d 3 -1 d 4 -1 d 4 -2 d 4 -2 d 17 -8 d 4 -2 d 3 -2 d 3 -1 d 4 -1 d 3 -1 d 3 -1 d 3 X 3 -1 d 17 X 3 1 d 5 1 d 4 1 d 6 1 d 14 4 d 6 2 d 4 1 d 4 1 d 4 X 3 1 d 18 X 5 -1 d 4
 -1 d 5 -1 d 5 -1 d 4 -1 d 5 -1 d 4 -1 d 5 -2 d 5 -1 d 4 -2 d 5 -3 d 4 -1 d 4 -3 d 3 -2 d 4 -3 d 4 -2 d 3 -2 d 1 -1 d s 3 lw /w 2 def /w2 {w 2 div} def /w3 {w 3 div} def 380 531 459 528 539 530 618 528 697 531 777 531 856 530 935 528 1015 520 1094
 521 1174 522 1253 527 1332 525 1412 532 1491 527 1570 533 1650 569 1729 543 1809 556 1888 527 20 { m20} R 6 lw black 0 0 1 c
 gsave  2268 1328 0 0 C 2036.96 615.36 t 0 r /Helvetica-Bold findfont 48.4311 sf 0 0 m (/dof=1.2) show NC gr  black 0 0 1 c
 gsave  2268 1328 0 0 C 2017.01 632.454 t 0 r /Helvetica-Bold findfont 34.1867 sf 0 0 m (2) show NC gr  black 0 0 1 c
 gsave  2268 1328 0 0 C 1991.37 615.36 t 0 r /Symbol findfont 48.4311 sf 0 0 m (c) show NC gr  black 3 lw 340 531 m 1588 X s
 gsave  2268 1328 0 0 C 877.458 1213.63 t 0 r /Helvetica-Bold findfont 39.8845 sf 0 0 m (1 mm) show NC gr  0 0 1 c /w 23 def /w2 {w 2 div} def /w3 {w 3 div} def 836 1228 m21 black 1 1 1 c 1 0 1 c 380 751 m21 459 745 m21 539 755 m21 618 749 m21 697
 752 m21 777 760 m21 856 743 m21 935 748 m21 black 1015 707 m 3 Y s 1015 732 m 3 Y s 1009 707 m 12 X s 1009 735 m 12 X s 1 0 1 c 1015 721 m21 black 1094 684 m 8 Y s 1094 715 m 8 Y s 1088 684 m 12 X s 1088 723 m 12 X s 1 0 1 c 1094 703 m21 black 1174
 693 m 15 Y s 1174 730 m 15 Y s 1168 693 m 11 X s 1168 745 m 11 X s 1 0 1 c 1174 719 m21 black 1253 701 m 21 Y s 1253 745 m 21 Y s 1247 701 m 12 X s 1247 766 m 12 X s 1 0 1 c 1253 734 m21 black 1332 666 m 27 Y s 1332 715 m 27 Y s 1327 666 m 11 X s
 1327 742 m 11 X s 1 0 1 c 1332 704 m21 black 1412 657 m 31 Y s 1412 711 m 31 Y s 1406 657 m 11 X s 1406 742 m 11 X s 1 0 1 c 1412 699 m21 black 1491 719 m 36 Y s 1491 778 m 36 Y s 1485 719 m 12 X s 1485 814 m 12 X s 1 0 1 c 1491 766 m21 black 1570
 651 m 39 Y s 1570 713 m 39 Y s 1565 651 m 11 X s 1565 752 m 11 X s 1 0 1 c 1570 701 m21 black 1650 790 m 46 Y s 1650 858 m 45 Y s 1644 790 m 11 X s 1644 903 m 11 X s 1 0 1 c 1650 847 m21 black 1729 669 m 47 Y s 1729 738 m 47 Y s 1723 669 m 12 X s
 1723 785 m 12 X s 1 0 1 c 1729 727 m21 black 1809 809 m 53 Y s 1809 885 m 53 Y s 1803 809 m 11 X s 1803 938 m 11 X s 1 0 1 c 1809 874 m21 black 1888 629 m 52 Y s 1888 704 m 51 Y s 1882 629 m 12 X s 1882 755 m 12 X s 1 0 1 c 1888 692 m21 6 lw 1 1 1 c
 1 0 1 c 380 751 m 17 -2 d 18 -1 d 17 -1 d 17 -1 d 10 X 10 1 d 11 X 19 2 d 16 1 d 31 X 10 -1 d 10 -2 d 28 -4 d 8 -2 d 23 X 9 1 d 10 1 d 15 3 d 19 3 d 10 2 d 9 1 d 13 1 d 67 X 32 -1 d 17 X 14 -1 d 16 -1 d 28 -3 d 14 -1 d 12 -2 d 9 -2 d 9 -2 d 7 -2 d 6
 -2 d 7 -2 d 7 -4 d 9 -5 d 22 -11 d 7 -3 d 7 -3 d 5 -2 d 5 -2 d 5 X 6 -1 d 6 -1 d 14 X 9 1 d 14 2 d 19 2 d 9 1 d 2 1 d 22 1 d 25 1 d 12 1 d 10 1 d 11 1 d 7 2 d 8 2 d 10 2 d 24 8 d 9 2 d 7 2 d 7 1 d 7 1 d 5 X 55 -8 d 19 X 5 1 d 5 2 d 5 1 d 7 3 d 7 4 d
 16 8 d 8 4 d 6 3 d 7 3 d 5 1 d 4 1 d 5 1 d 15 X 6 -1 d 8 -2 d 15 -4 d 11 -3 d 8 -2 d 5 -1 d 5 -1 d 6 X 12 1 d 11 X 9 1 d 7 2 d 8 1 d 7 2 d 7 2 d 7 2 d 5 3 d 6 3 d 4 2 d 4 3 d 4 3 d 5 5 d 4 4 d 6 7 d 9 11 d 9 11 d 5 6 d 4 5 d 4 3 d 3 4 d 4 2 d 4 3 d
 3 2 d 3 1 d 4 1 d 1 X 3 1 d 8 X 4 -1 d 4 -1 d 5 -2 d 5 -3 d 7 -3 d 13 -8 d 9 -5 d 7 -3 d 5 -2 d 4 -1 d 4 -2 d 6 X 5 -1 d 6 1 d 7 X 9 2 d 15 2 d 7 1 d 16 X 4 -1 d 4 -1 d 2 X 6 -3 d 6 -2 d 6 -3 d 6 -4 d 6 -4 d 6 -4 d 6 -4 d 6 -5 d 5 -5 d 6 -6 d 6 -6 d
 5 -7 d 5 -6 d 4 -5 d s 3 lw /w 2 def /w2 {w 2 div} def /w3 {w 3 div} def 380 751 459 746 539 750 618 741 697 752 777 753 856 750 935 738 1015 704 1094 709 1174 714 1253 734 1332 726 1412 758 1491 744 1570 761 1650 834 1729 804 1809 807 1888 743 20 {
 m20} R 6 lw black 1 0 1 c
 gsave  2268 1328 0 0 C 2036.96 863.214 t 0 r /Helvetica-Bold findfont 48.4311 sf 0 0 m (/dof=0.7) show NC gr  black 1 0 1 c
 gsave  2268 1328 0 0 C 2017.01 880.307 t 0 r /Helvetica-Bold findfont 34.1867 sf 0 0 m (2) show NC gr  black 1 0 1 c
 gsave  2268 1328 0 0 C 1991.37 863.214 t 0 r /Symbol findfont 48.4311 sf 0 0 m (c) show NC gr  black 3 lw 340 752 m 1588 X s
 gsave  2268 1328 0 0 C 1330.43 1213.63 t 0 r /Helvetica-Bold findfont 39.8845 sf 0 0 m (2 mm) show NC gr  1 0 1 c /w 23 def /w2 {w 2 div} def /w3 {w 3 div} def 1290 1228 m21 black 1 1 1 c 0 0.733333 1 c 380 969 m21 459 968 m21 539 969 m21 618 941
 m21 697 972 m21 777 971 m21 856 970 m21 935 931 m21 black 1015 833 m 3 Y s 1015 859 m 4 Y s 1009 833 m 12 X s 1009 863 m 12 X s 0 0.733333 1 c 1015 848 m21 black 1094 843 m 10 Y s 1094 875 m 10 Y s 1088 843 m 12 X s 1088 885 m 12 X s 0 0.733333 1 c
 1094 864 m21 black 1174 851 m 16 Y s 1174 890 m 17 Y s 1168 851 m 11 X s 1168 907 m 11 X s 0 0.733333 1 c 1174 879 m21 black 1253 892 m 24 Y s 1253 939 m 23 Y s 1247 892 m 12 X s 1247 962 m 12 X s 0 0.733333 1 c 1253 927 m21 black 1332 873 m 30 Y s
 1332 925 m 30 Y s 1327 873 m 11 X s 1327 955 m 11 X s 0 0.733333 1 c 1332 914 m21 black 1412 964 m 36 Y s 1412 1022 m 36 Y s 1406 964 m 11 X s 1406 1058 m 11 X s 0 0.733333 1 c 1412 1011 m21 black 1491 927 m 41 Y s 1491 991 m 40 Y s 1485 927 m 12 X
 s 1485 1031 m 12 X s 0 0.733333 1 c 1491 979 m21 black 1570 978 m 44 Y s 1570 1045 m 45 Y s 1565 978 m 11 X s 1565 1090 m 11 X s 0 0.733333 1 c 1570 1034 m21 black 1650 1036 m 50 Y s 1650 1108 m 50 Y s 1644 1036 m 11 X s 1644 1158 m 11 X s 0
 0.733333 1 c 1650 1097 m21 black 1729 1067 m 54 Y s 1729 1143 m 52 Y s 1723 1067 m 12 X s 1723 1195 m 12 X s 0 0.733333 1 c 1729 1132 m21 black 1809 932 m 56 Y s 1809 1010 m 56 Y s 1803 932 m 11 X s 1803 1066 m 11 X s 0 0.733333 1 c 1809 999 m21
 black 1888 966 m 59 Y s 1888 1048 m 58 Y s 1882 966 m 12 X s 1882 1106 m 12 X s 0 0.733333 1 c 1888 1036 m21 6 lw 1 1 1 c 0 0.733333 1 c 380 969 m 20 -2 d 21 -2 d 19 -1 d 30 X 15 2 d 25 4 d 10 1 d 17 X 2 -1 d 6 -1 d 9 -2 d 10 -4 d 29 -13 d 8 -2 d 7
 -2 d 6 -1 d 4 X 6 1 d 7 1 d 8 2 d 9 4 d 16 7 d 14 6 d 9 4 d 7 2 d 3 X 13 2 d 11 1 d 16 1 d 40 -1 d 33 -2 d 15 -1 d 13 -1 d 12 -2 d 6 -1 d 25 -6 d 12 -3 d 11 -4 d 10 -4 d 8 -4 d 8 -5 d 5 -3 d 6 -4 d 5 -6 d 7 -6 d 7 -10 d 23 -29 d 7 -9 d 6 -6 d 6 -6 d
 5 -4 d 4 -2 d 4 -2 d 5 -2 d 5 -1 d 6 -1 d 7 1 d 7 1 d 9 2 d 15 5 d 14 4 d 8 2 d 3 1 d 14 2 d 34 4 d 11 2 d 9 2 d 9 3 d 3 1 d 6 3 d 7 4 d 9 5 d 17 13 d 12 9 d 9 6 d 7 3 d 5 2 d 6 2 d 12 X 6 -1 d 7 -3 d 11 -4 d 13 -7 d 8 -2 d 6 -2 d 5 -1 d 5 X 5 1 d 2
 1 d 5 2 d 4 3 d 5 4 d 5 5 d 6 7 d 9 10 d 15 20 d 6 8 d 6 6 d 5 4 d 4 4 d 4 2 d 5 2 d 1 X 4 1 d 10 X 6 -2 d 6 -3 d 9 -4 d 22 -13 d 7 -3 d 5 -2 d 5 X 5 -1 d 9 1 d 10 2 d 9 2 d 8 3 d 9 3 d 8 5 d 9 5 d 7 5 d 8 7 d 2 2 d 5 4 d 5 6 d 5 6 d 5 9 d 7 11 d 16
 28 d 8 14 d 6 10 d 5 7 d 5 5 d 4 5 d 4 3 d 5 3 d 5 3 d 5 2 d 6 2 d 20 X 9 -2 d 34 -11 d 16 -5 d 15 -5 d 11 -4 d 9 -5 d 9 -5 d 8 -5 d 7 -6 d 5 -3 d 8 -8 d 9 -9 d 10 -11 d 8 -9 d 8 -12 d 9 -11 d 9 -14 d 8 -12 d 8 -14 d 2 -4 d s 3 lw /w 2 def /w2 {w 2
 div} def /w3 {w 3 div} def 380 969 459 964 539 970 618 945 697 972 777 975 856 968 935 939 1015 855 1094 867 1174 881 1253 928 1332 910 1412 987 1491 960 1570 995 1650 1106 1729 1100 1809 1062 1888 958 20 { m20} R 6 lw black 0 0.733333 1 c
 gsave  2268 1328 0 0 C 2036.96 1113.92 t 0 r /Helvetica-Bold findfont 48.4311 sf 0 0 m (/dof=0.3) show NC gr  black 0 0.733333 1 c
 gsave  2268 1328 0 0 C 2017.01 1131.01 t 0 r /Helvetica-Bold findfont 34.1867 sf 0 0 m (2) show NC gr  black 0 0.733333 1 c
 gsave  2268 1328 0 0 C 1991.37 1113.92 t 0 r /Symbol findfont 48.4311 sf 0 0 m (c) show NC gr  black 3 lw 340 974 m 1588 X s
 gsave  2268 1328 0 0 C 1783.41 1213.63 t 0 r /Helvetica-Bold findfont 42.7334 sf 0 0 m (3 mm) show NC gr  0 0.733333 1 c /w 23 def /w2 {w 2 div} def /w3 {w 3 div} def 1743 1228 m21
 gr  gr showpage
end
%%EOF
