%!PS-Adobe-2.0 EPSF-2.0
%%BoundingBox:  0 0 567 332
%%Title: TargetXOffset_far_summary.eps: Summary
%%Creator: ROOT Version 5.30/06
%%CreationDate: Sun Feb  2 09:35:42 2014
%%EndComments
%%BeginProlog
80 dict begin
/s {stroke} def /l {lineto} def /m {moveto} def /t {translate} def
/r {rotate} def /rl {roll}  def /R {repeat} def
/d {rlineto} def /rm {rmoveto} def /gr {grestore} def /f {eofill} def
/c {setrgbcolor} def /black {0 setgray} def /sd {setdash} def
/cl {closepath} def /sf {scalefont setfont} def /lw {setlinewidth} def
/box {m dup 0 exch d exch 0 d 0 exch neg d cl} def
/NC{systemdict begin initclip end}def/C{NC box clip newpath}def
/bl {box s} def /bf {box f} def /Y { 0 exch d} def /X { 0 d} def 
/K {{pop pop 0 moveto} exch kshow} bind def
/ita {/ang 15 def gsave [1 0 ang dup sin exch cos div 1 0 0] concat} def 
/mp {newpath /y exch def /x exch def} def
/side {[w .77 mul w .23 mul] .385 w mul sd w 0 l currentpoint t -144 r} def
/mr {mp x y w2 0 360 arc} def /m24 {mr s} def /m20 {mr f} def
/mb {mp x y w2 add m w2 neg 0 d 0 w neg d w 0 d 0 w d cl} def
/mt {mp x y w2 add m w2 neg w neg d w 0 d cl} def
/m21 {mb f} def /m25 {mb s} def /m22 {mt f} def /m26{mt s} def
/m23 {mp x y w2 sub m w2 w d w neg 0 d cl f} def
/m27 {mp x y w2 add m w3 neg w2 neg d w3 w2 neg d w3 w2 d cl s} def
/m28 {mp x w2 sub y w2 sub w3 add m w3 0 d  0 w3 neg d w3 0 d 0 w3 d w3 0 d  0 w3 d w3 neg 0 d 0 w3 d w3 neg 0 d 0 w3 neg d w3 neg 0 d cl s } def
/m29 {mp gsave x w2 sub y w2 add w3 sub m currentpoint t 4 {side} repeat cl fill gr} def
/m30 {mp gsave x w2 sub y w2 add w3 sub m currentpoint t 4 {side} repeat cl s gr} def
/m31 {mp x y w2 sub m 0 w d x w2 sub y m w 0 d x w2 sub y w2 add m w w neg d x w2 sub y w2 sub m w w d s} def
/m32 {mp x y w2 sub m w2 w d w neg 0 d cl s} def
/m33 {mp x y w2 add m w3 neg w2 neg d w3 w2 neg d w3 w2 d cl f} def
/m34 {mp x w2 sub y w2 sub w3 add m w3 0 d  0 w3 neg d w3 0 d 0 w3 d w3 0 d  0 w3 d w3 neg 0 d 0 w3 d w3 neg 0 d 0 w3 neg d w3 neg 0 d cl f } def
/m2 {mp x y w2 sub m 0 w d x w2 sub y m w 0 d s} def
/m5 {mp x w2 sub y w2 sub m w w d x w2 sub y w2 add m w w neg d s} def
/reEncode {exch findfont dup length dict begin {1 index /FID eq  {pop pop} {def} ifelse } forall /Encoding exch def currentdict end dup /FontName get exch definefont pop } def [/Times-Bold /Times-Italic /Times-BoldItalic /Helvetica /Helvetica-Oblique
 /Helvetica-Bold /Helvetica-BoldOblique /Courier /Courier-Oblique /Courier-Bold /Courier-BoldOblique /Times-Roman /AvantGarde-Book /AvantGarde-BookOblique /AvantGarde-Demi /AvantGarde-DemiOblique /Bookman-Demi /Bookman-DemiItalic /Bookman-Light
 /Bookman-LightItalic /Helvetica-Narrow /Helvetica-Narrow-Bold /Helvetica-Narrow-BoldOblique /Helvetica-Narrow-Oblique /NewCenturySchlbk-Roman /NewCenturySchlbk-Bold /NewCenturySchlbk-BoldItalic /NewCenturySchlbk-Italic /Palatino-Bold
 /Palatino-BoldItalic /Palatino-Italic /Palatino-Roman ] {ISOLatin1Encoding reEncode } forall%%EndProlog
%%BeginSetup
%%EndSetup
newpath  gsave  .25 .25 scale  gsave  0 0 t black[  ] 0 sd 3 lw 1 1 1 c 2268 1328 0 0 bf black 1 1 1 c black 1588 996 340 199 bl 1588 996 340 199 bl 1 1 1 c 1 0 0 c /w 23 def /w2 {w 2 div} def /w3 {w 3 div} def 380 310 m21 459 310 m21 539 312 m21 618
 321 m21 697 302 m21 777 309 m21 856 305 m21 935 310 m21 1015 305 m21 black 1094 292 m s 1094 315 m s 1088 292 m 12 X s 1088 315 m 12 X s 1 0 0 c 1094 303 m21 black 1174 289 m 3 Y s 1174 315 m 3 Y s 1168 289 m 11 X s 1168 318 m 11 X s 1 0 0 c 1174
 303 m21 black 1253 319 m 7 Y s 1253 349 m 7 Y s 1247 319 m 12 X s 1247 356 m 12 X s 1 0 0 c 1253 337 m21 black 1332 319 m 11 Y s 1332 353 m 11 Y s 1327 319 m 11 X s 1327 364 m 11 X s 1 0 0 c 1332 341 m21 black 1412 301 m 15 Y s 1412 339 m 15 Y s
 1406 301 m 11 X s 1406 354 m 11 X s 1 0 0 c 1412 327 m21 black 1491 274 m 18 Y s 1491 315 m 18 Y s 1485 274 m 12 X s 1485 333 m 12 X s 1 0 0 c 1491 303 m21 black 1570 288 m 21 Y s 1570 332 m 22 Y s 1565 288 m 11 X s 1565 354 m 11 X s 1 0 0 c 1570
 321 m21 black 1650 228 m 24 Y s 1650 274 m 24 Y s 1644 228 m 11 X s 1644 298 m 11 X s 1 0 0 c 1650 263 m21 black 1729 262 m 27 Y s 1729 312 m 27 Y s 1723 262 m 12 X s 1723 339 m 12 X s 1 0 0 c 1729 301 m21 black 1809 228 m 29 Y s 1809 280 m 29 Y s
 1803 228 m 11 X s 1803 309 m 11 X s 1 0 0 c 1809 268 m21 black 1888 327 m 34 Y s 1888 383 m 34 Y s 1882 327 m 12 X s 1882 417 m 12 X s 1 0 0 c 1888 372 m21 black 340 199 m 1588 X s
 gsave  2268 1328 0 0 C 954.378 68.3734 t 0 r /Helvetica findfont 62.6756 sf 0 0 m ( Energy \(GeV\) ) show NC gr 
 gsave  2268 1328 0 0 C 928.738 51.28 t 0 r /Symbol findfont 42.7334 sf 0 0 m (m) show NC gr 
 gsave  2268 1328 0 0 C 894.552 68.3734 t 0 r /Symbol findfont 62.6756 sf 0 0 m (n) show NC gr  340 216 m -17 Y s 372 208 m -9 Y s 404 208 m -9 Y s 435 208 m -9 Y s 467 208 m -9 Y s 499 216 m -17 Y s 531 208 m -9 Y s 562 208 m -9 Y s 594 208 m -9 Y s
 626 208 m -9 Y s 658 216 m -17 Y s 689 208 m -9 Y s 721 208 m -9 Y s 753 208 m -9 Y s 785 208 m -9 Y s 816 216 m -17 Y s 848 208 m -9 Y s 880 208 m -9 Y s 912 208 m -9 Y s 943 208 m -9 Y s 975 216 m -17 Y s 1007 208 m -9 Y s 1039 208 m -9 Y s 1070
 208 m -9 Y s 1102 208 m -9 Y s 1134 216 m -17 Y s 1166 208 m -9 Y s 1197 208 m -9 Y s 1229 208 m -9 Y s 1261 208 m -9 Y s 1293 216 m -17 Y s 1324 208 m -9 Y s 1356 208 m -9 Y s 1388 208 m -9 Y s 1420 208 m -9 Y s 1451 216 m -17 Y s 1483 208 m -9 Y s
 1515 208 m -9 Y s 1547 208 m -9 Y s 1578 208 m -9 Y s 1610 216 m -17 Y s 1642 208 m -9 Y s 1674 208 m -9 Y s 1705 208 m -9 Y s 1737 208 m -9 Y s 1769 216 m -17 Y s 1801 208 m -9 Y s 1832 208 m -9 Y s 1864 208 m -9 Y s 1896 208 m -9 Y s 1928 216 m
 -17 Y s
 gsave  2268 1328 0 0 C 319.076 136.747 t 0 r /Helvetica findfont 68.3734 sf 0 0 m (0) show NC gr 
 gsave  2268 1328 0 0 C 484.311 136.747 t 0 r /Helvetica findfont 68.3734 sf 0 0 m (1) show NC gr 
 gsave  2268 1328 0 0 C 635.302 136.747 t 0 r /Helvetica findfont 68.3734 sf 0 0 m (2) show NC gr 
 gsave  2268 1328 0 0 C 794.84 136.747 t 0 r /Helvetica findfont 68.3734 sf 0 0 m (3) show NC gr 
 gsave  2268 1328 0 0 C 954.378 136.747 t 0 r /Helvetica findfont 68.3734 sf 0 0 m (4) show NC gr 
 gsave  2268 1328 0 0 C 1113.92 136.747 t 0 r /Helvetica findfont 68.3734 sf 0 0 m (5) show NC gr 
 gsave  2268 1328 0 0 C 1270.6 136.747 t 0 r /Helvetica findfont 68.3734 sf 0 0 m (6) show NC gr 
 gsave  2268 1328 0 0 C 1430.14 136.747 t 0 r /Helvetica findfont 68.3734 sf 0 0 m (7) show NC gr 
 gsave  2268 1328 0 0 C 1589.68 136.747 t 0 r /Helvetica findfont 68.3734 sf 0 0 m (8) show NC gr 
 gsave  2268 1328 0 0 C 1746.37 136.747 t 0 r /Helvetica findfont 68.3734 sf 0 0 m (9) show NC gr 
 gsave  2268 1328 0 0 C 1888.81 136.747 t 0 r /Helvetica findfont 68.3734 sf 0 0 m (10) show NC gr  340 1195 m 1588 X s 340 1178 m 17 Y s 372 1186 m 9 Y s 404 1186 m 9 Y s 435 1186 m 9 Y s 467 1186 m 9 Y s 499 1178 m 17 Y s 531 1186 m 9 Y s 562 1186
 m 9 Y s 594 1186 m 9 Y s 626 1186 m 9 Y s 658 1178 m 17 Y s 689 1186 m 9 Y s 721 1186 m 9 Y s 753 1186 m 9 Y s 785 1186 m 9 Y s 816 1178 m 17 Y s 848 1186 m 9 Y s 880 1186 m 9 Y s 912 1186 m 9 Y s 943 1186 m 9 Y s 975 1178 m 17 Y s 1007 1186 m 9 Y s
 1039 1186 m 9 Y s 1070 1186 m 9 Y s 1102 1186 m 9 Y s 1134 1178 m 17 Y s 1166 1186 m 9 Y s 1197 1186 m 9 Y s 1229 1186 m 9 Y s 1261 1186 m 9 Y s 1293 1178 m 17 Y s 1324 1186 m 9 Y s 1356 1186 m 9 Y s 1388 1186 m 9 Y s 1420 1186 m 9 Y s 1451 1178 m
 17 Y s 1483 1186 m 9 Y s 1515 1186 m 9 Y s 1547 1186 m 9 Y s 1578 1186 m 9 Y s 1610 1178 m 17 Y s 1642 1186 m 9 Y s 1674 1186 m 9 Y s 1705 1186 m 9 Y s 1737 1186 m 9 Y s 1769 1178 m 17 Y s 1801 1186 m 9 Y s 1832 1186 m 9 Y s 1864 1186 m 9 Y s 1896
 1186 m 9 Y s 1928 1178 m 17 Y s 340 199 m 996 Y s
 gsave  2268 1328 0 0 C 170.933 427.334 t 90 r /Helvetica findfont 62.6756 sf 0 0 m (Far Flux to Nominal) show NC gr  371 199 m -31 X s 355 221 m -15 X s 355 243 m -15 X s 355 266 m -15 X s 355 288 m -15 X s 371 310 m -31 X s 355 332 m -15 X s 355
 354 m -15 X s 355 376 m -15 X s 355 398 m -15 X s 371 420 m -31 X s 355 443 m -15 X s 355 465 m -15 X s 355 487 m -15 X s 355 509 m -15 X s 371 531 m -31 X s 355 553 m -15 X s 355 575 m -15 X s 355 597 m -15 X s 355 620 m -15 X s 371 642 m -31 X s
 355 664 m -15 X s 355 686 m -15 X s 355 708 m -15 X s 355 730 m -15 X s 371 752 m -31 X s 355 774 m -15 X s 355 797 m -15 X s 355 819 m -15 X s 355 841 m -15 X s 371 863 m -31 X s 355 885 m -15 X s 355 907 m -15 X s 355 929 m -15 X s 355 951 m -15 X
 s 371 974 m -31 X s 355 996 m -15 X s 355 1018 m -15 X s 355 1040 m -15 X s 355 1062 m -15 X s 371 1084 m -31 X s 355 1106 m -15 X s 355 1128 m -15 X s 355 1151 m -15 X s 355 1173 m -15 X s 371 1195 m -31 X s 371 199 m -31 X s 371 1195 m -31 X s
 gsave  2268 1328 0 0 C 196.573 173.782 t 0 r /Helvetica findfont 68.3734 sf 0 0 m (0.95) show NC gr 
 gsave  2268 1328 0 0 C 301.982 282.04 t 0 r /Helvetica findfont 68.3734 sf 0 0 m (1) show NC gr 
 gsave  2268 1328 0 0 C 196.573 395.996 t 0 r /Helvetica findfont 68.3734 sf 0 0 m (1.05) show NC gr 
 gsave  2268 1328 0 0 C 245.005 504.254 t 0 r /Helvetica findfont 68.3734 sf 0 0 m (1.1) show NC gr 
 gsave  2268 1328 0 0 C 196.573 618.209 t 0 r /Helvetica findfont 68.3734 sf 0 0 m (1.15) show NC gr 
 gsave  2268 1328 0 0 C 233.609 726.467 t 0 r /Helvetica findfont 68.3734 sf 0 0 m (1.2) show NC gr 
 gsave  2268 1328 0 0 C 196.573 837.574 t 0 r /Helvetica findfont 68.3734 sf 0 0 m (1.25) show NC gr 
 gsave  2268 1328 0 0 C 233.609 948.68 t 0 r /Helvetica findfont 68.3734 sf 0 0 m (1.3) show NC gr 
 gsave  2268 1328 0 0 C 196.573 1059.79 t 0 r /Helvetica findfont 68.3734 sf 0 0 m (1.35) show NC gr 
 gsave  2268 1328 0 0 C 233.609 1168.04 t 0 r /Helvetica findfont 68.3734 sf 0 0 m (1.4) show NC gr  1928 199 m 996 Y s 1897 199 m 31 X s 1912 221 m 16 X s 1912 243 m 16 X s 1912 266 m 16 X s 1912 288 m 16 X s 1897 310 m 31 X s 1912 332 m 16 X s 1912
 354 m 16 X s 1912 376 m 16 X s 1912 398 m 16 X s 1897 420 m 31 X s 1912 443 m 16 X s 1912 465 m 16 X s 1912 487 m 16 X s 1912 509 m 16 X s 1897 531 m 31 X s 1912 553 m 16 X s 1912 575 m 16 X s 1912 597 m 16 X s 1912 620 m 16 X s 1897 642 m 31 X s
 1912 664 m 16 X s 1912 686 m 16 X s 1912 708 m 16 X s 1912 730 m 16 X s 1897 752 m 31 X s 1912 774 m 16 X s 1912 797 m 16 X s 1912 819 m 16 X s 1912 841 m 16 X s 1897 863 m 31 X s 1912 885 m 16 X s 1912 907 m 16 X s 1912 929 m 16 X s 1912 951 m 16 X
 s 1897 974 m 31 X s 1912 996 m 16 X s 1912 1018 m 16 X s 1912 1040 m 16 X s 1912 1062 m 16 X s 1897 1084 m 31 X s 1912 1106 m 16 X s 1912 1128 m 16 X s 1912 1151 m 16 X s 1912 1173 m 16 X s 1897 1195 m 31 X s 1897 199 m 31 X s 1897 1195 m 31 X s 1 0
 0 c 6 lw 1 1 1 c 1 0 0 c 380 308 m 96 X 56 -1 d 124 X 13 1 d 46 X 10 -1 d 34 X 15 -1 d 19 X 10 -1 d 35 -2 d 18 X 16 -1 d 24 X 10 -1 d 90 X 11 1 d 32 X 12 1 d 22 1 d 19 X 2 1 d 25 X 37 1 d 18 X 43 2 d 21 X 9 1 d 16 X 6 1 d 7 X 19 1 d 6 1 d 11 X 5 1 d
 36 X 6 -1 d 6 X 24 -1 d 5 X 5 -1 d 39 X 9 1 d 27 X 5 1 d 24 X 67 -1 d 29 X 23 1 d 54 X 16 -1 d 75 X 19 1 d 23 X 12 1 d 67 X s 3 lw /w 2 def /w2 {w 2 div} def /w3 {w 3 div} def 380 308 459 308 539 307 618 307 697 308 777 306 856 303 935 301 1015 302
 1094 305 1174 306 1253 309 1332 313 1412 310 1491 312 1570 311 1650 312 1729 311 1809 312 1888 313 20 { m20} R 6 lw black 1 0 0 c
 gsave  2268 1328 0 0 C 2039.81 364.658 t 0 r /Helvetica-Bold findfont 48.4311 sf 0 0 m (/dof=1.1) show NC gr  black 1 0 0 c
 gsave  2268 1328 0 0 C 2019.86 381.751 t 0 r /Helvetica-Bold findfont 34.1867 sf 0 0 m (2) show NC gr  black 1 0 0 c
 gsave  2268 1328 0 0 C 1994.22 364.658 t 0 r /Symbol findfont 48.4311 sf 0 0 m (c) show NC gr  black 3 lw 340 310 m 1588 X s
 gsave  2268 1328 0 0 C 424.485 1213.63 t 0 r /Helvetica-Bold findfont 42.7334 sf 0 0 m (0.5 mm) show NC gr  1 0 0 c /w 23 def /w2 {w 2 div} def /w3 {w 3 div} def 383 1228 m21 black 1 1 1 c 0 0 1 c 380 519 m21 459 534 m21 539 535 m21 618 532 m21 697
 518 m21 777 524 m21 856 510 m21 935 511 m21 1015 528 m21 black 1094 513 m 1 Y s 1094 537 m 1 Y s 1088 513 m 12 X s 1088 538 m 12 X s 0 0 1 c 1094 526 m21 black 1174 512 m 5 Y s 1174 540 m 5 Y s 1168 512 m 11 X s 1168 545 m 11 X s 0 0 1 c 1174 529
 m21 black 1253 524 m 9 Y s 1253 556 m 9 Y s 1247 524 m 12 X s 1247 565 m 12 X s 0 0 1 c 1253 544 m21 black 1332 531 m 14 Y s 1332 567 m 14 Y s 1327 531 m 11 X s 1327 581 m 11 X s 0 0 1 c 1332 556 m21 black 1412 458 m 18 Y s 1412 499 m 17 Y s 1406
 458 m 11 X s 1406 516 m 11 X s 0 0 1 c 1412 487 m21 black 1491 517 m 21 Y s 1491 561 m 22 Y s 1485 517 m 12 X s 1485 583 m 12 X s 0 0 1 c 1491 550 m21 black 1570 529 m 26 Y s 1570 577 m 26 Y s 1565 529 m 11 X s 1565 603 m 11 X s 0 0 1 c 1570 566 m21
 black 1650 486 m 28 Y s 1650 537 m 28 Y s 1644 486 m 11 X s 1644 565 m 11 X s 0 0 1 c 1650 526 m21 black 1729 502 m 31 Y s 1729 556 m 30 Y s 1723 502 m 12 X s 1723 586 m 12 X s 0 0 1 c 1729 544 m21 black 1809 484 m 34 Y s 1809 541 m 34 Y s 1803 484
 m 11 X s 1803 575 m 11 X s 0 0 1 c 1809 530 m21 black 1888 441 m 37 Y s 1888 500 m 37 Y s 1882 441 m 12 X s 1882 537 m 12 X s 0 0 1 c 1888 489 m21 6 lw 1 1 1 c 0 0 1 c 380 522 m 79 X 17 -1 d 56 -1 d 7 -1 d 87 X 11 1 d 19 1 d 13 1 d 37 X 9 -1 d 9 X
 10 -1 d 12 -1 d 13 -2 d 15 -2 d 3 X 7 -1 d 8 -2 d 10 -2 d 18 -3 d 14 -3 d 8 -2 d 8 -1 d 6 -1 d 16 -2 d 13 -1 d 11 -2 d 10 -1 d 10 X 8 -1 d 60 X 11 1 d 10 1 d 10 1 d 7 1 d 8 1 d 8 1 d 13 2 d 23 4 d 10 2 d 8 1 d 2 X 11 1 d 13 2 d 50 5 d 6 X 19 3 d 25
 3 d 30 4 d 5 1 d 8 1 d 9 1 d 23 5 d 9 1 d 7 1 d 8 1 d 5 1 d 32 X 7 -1 d 16 -2 d 10 -1 d 8 -1 d 6 X 5 -1 d 11 X 5 1 d 7 X 7 1 d 9 1 d 19 3 d 9 1 d 6 X 5 1 d 19 X 67 -5 d 6 X 6 1 d 8 X 9 1 d 22 3 d 9 X 7 1 d 24 X 6 -1 d 8 X 17 -2 d 11 -1 d 8 -1 d 6 -1
 d 18 X 6 1 d 7 X 7 1 d 9 1 d 23 3 d 9 1 d 7 X 6 1 d 12 X 13 1 d 13 X 14 1 d 27 X s 3 lw /w 2 def /w2 {w 2 div} def /w3 {w 3 div} def 380 522 459 522 539 519 618 519 697 522 777 515 856 500 935 493 1015 496 1094 508 1174 516 1253 527 1332 538 1412
 532 1491 540 1570 535 1650 541 1729 535 1809 543 1888 545 20 { m20} R 6 lw black 0 0 1 c
 gsave  2268 1328 0 0 C 2036.96 615.36 t 0 r /Helvetica-Bold findfont 48.4311 sf 0 0 m (/dof=2.5) show NC gr  black 0 0 1 c
 gsave  2268 1328 0 0 C 2017.01 632.454 t 0 r /Helvetica-Bold findfont 34.1867 sf 0 0 m (2) show NC gr  black 0 0 1 c
 gsave  2268 1328 0 0 C 1991.37 615.36 t 0 r /Symbol findfont 48.4311 sf 0 0 m (c) show NC gr  black 3 lw 340 531 m 1588 X s
 gsave  2268 1328 0 0 C 877.458 1213.63 t 0 r /Helvetica-Bold findfont 39.8845 sf 0 0 m (1 mm) show NC gr  0 0 1 c /w 23 def /w2 {w 2 div} def /w3 {w 3 div} def 836 1228 m21 black 1 1 1 c 1 0 1 c 380 717 m21 459 714 m21 539 723 m21 618 713 m21 697
 723 m21 777 716 m21 856 652 m21 935 645 m21 1015 659 m21 black 1094 669 m 2 Y s 1094 694 m 2 Y s 1088 669 m 12 X s 1088 696 m 12 X s 1 0 1 c 1094 683 m21 black 1174 689 m 6 Y s 1174 718 m 6 Y s 1168 689 m 11 X s 1168 724 m 11 X s 1 0 1 c 1174 707
 m21 black 1253 763 m 11 Y s 1253 796 m 11 Y s 1247 763 m 12 X s 1247 807 m 12 X s 1 0 1 c 1253 785 m21 black 1332 770 m 16 Y s 1332 809 m 16 Y s 1327 770 m 11 X s 1327 825 m 11 X s 1 0 1 c 1332 797 m21 black 1412 730 m 20 Y s 1412 773 m 20 Y s 1406
 730 m 11 X s 1406 793 m 11 X s 1 0 1 c 1412 762 m21 black 1491 718 m 25 Y s 1491 765 m 25 Y s 1485 718 m 12 X s 1485 790 m 12 X s 1 0 1 c 1491 754 m21 black 1570 654 m 27 Y s 1570 704 m 27 Y s 1565 654 m 11 X s 1565 731 m 11 X s 1 0 1 c 1570 692 m21
 black 1650 731 m 32 Y s 1650 786 m 32 Y s 1644 731 m 11 X s 1644 818 m 11 X s 1 0 1 c 1650 774 m21 black 1729 666 m 34 Y s 1729 723 m 35 Y s 1723 666 m 12 X s 1723 758 m 12 X s 1 0 1 c 1729 712 m21 black 1809 656 m 38 Y s 1809 717 m 37 Y s 1803 656
 m 11 X s 1803 754 m 11 X s 1 0 1 c 1809 705 m21 black 1888 804 m 43 Y s 1888 870 m 43 Y s 1882 804 m 12 X s 1882 913 m 12 X s 1 0 1 c 1888 859 m21 6 lw 1 1 1 c 1 0 1 c 380 714 m 27 X 24 -1 d 28 -2 d 17 -2 d 56 -7 d 7 X 32 -2 d 17 -1 d 14 X 16 1 d 8
 1 d 11 3 d 19 5 d 13 3 d 9 2 d 19 X 9 -1 d 9 -2 d 9 -3 d 10 -4 d 12 -5 d 13 -7 d 15 -9 d 3 -1 d 7 -5 d 8 -6 d 10 -9 d 18 -15 d 14 -13 d 8 -6 d 8 -6 d 6 -4 d 16 -9 d 13 -7 d 11 -5 d 10 -4 d 10 -4 d 8 -2 d 8 -1 d 3 -1 d 10 -1 d 9 X 9 1 d 10 1 d 11 2 d
 11 3 d 10 4 d 10 4 d 7 3 d 8 4 d 8 6 d 13 9 d 23 18 d 10 7 d 8 5 d 2 1 d 11 6 d 13 6 d 50 21 d 6 3 d 13 7 d 21 12 d 27 16 d 14 8 d 4 2 d 20 10 d 18 10 d 11 5 d 10 4 d 8 3 d 7 2 d 5 1 d 6 1 d 7 -1 d 8 -1 d 9 -1 d 28 -7 d 7 -1 d 6 -1 d 6 X 3 1 d 5 1 d
 7 2 d 7 3 d 9 5 d 22 12 d 9 4 d 7 3 d 6 1 d 5 1 d 2 1 d 6 X 6 -1 d 67 -19 d 6 1 d 6 1 d 8 2 d 9 4 d 22 11 d 9 3 d 7 2 d 5 1 d 6 1 d 7 X 6 -1 d 6 -3 d 8 -3 d 17 -8 d 11 -6 d 8 -3 d 6 -2 d 6 -1 d 6 X 6 1 d 6 1 d 7 2 d 7 3 d 9 4 d 23 14 d 9 4 d 7 2 d 6
 2 d 12 3 d 13 2 d 13 2 d 14 1 d 13 1 d 14 -1 d s 3 lw /w 2 def /w2 {w 2 div} def /w3 {w 3 div} def 380 714 459 711 539 702 618 700 697 714 777 682 856 618 935 585 1015 599 1094 652 1174 688 1253 733 1332 768 1412 758 1491 791 1570 771 1650 797 1729
 770 1809 803 1888 811 20 { m20} R 6 lw black 1 0 1 c
 gsave  2268 1328 0 0 C 2036.96 863.214 t 0 r /Helvetica-Bold findfont 48.4311 sf 0 0 m (/dof=9.4) show NC gr  black 1 0 1 c
 gsave  2268 1328 0 0 C 2017.01 880.307 t 0 r /Helvetica-Bold findfont 34.1867 sf 0 0 m (2) show NC gr  black 1 0 1 c
 gsave  2268 1328 0 0 C 1991.37 863.214 t 0 r /Symbol findfont 48.4311 sf 0 0 m (c) show NC gr  black 3 lw 340 752 m 1588 X s
 gsave  2268 1328 0 0 C 1330.43 1213.63 t 0 r /Helvetica-Bold findfont 39.8845 sf 0 0 m (2 mm) show NC gr  1 0 1 c /w 23 def /w2 {w 2 div} def /w3 {w 3 div} def 1290 1228 m21 black 1 1 1 c 0 0.733333 1 c 380 879 m21 459 870 m21 539 838 m21 618 839
 m21 697 877 m21 777 785 m21 856 631 m21 935 539 m21 1015 570 m21 black 1094 700 m 3 Y s 1094 725 m 3 Y s 1088 700 m 12 X s 1088 728 m 12 X s 0 0.733333 1 c 1094 714 m21 black 1174 787 m 7 Y s 1174 817 m 7 Y s 1168 787 m 11 X s 1168 824 m 11 X s 0
 0.733333 1 c 1174 806 m21 black 1253 875 m 12 Y s 1253 910 m 12 Y s 1247 875 m 12 X s 1247 922 m 12 X s 0 0.733333 1 c 1253 898 m21 black 1332 937 m 17 Y s 1332 977 m 18 Y s 1327 937 m 11 X s 1327 995 m 11 X s 0 0.733333 1 c 1332 966 m21 black 1412
 956 m 23 Y s 1412 1002 m 23 Y s 1406 956 m 11 X s 1406 1025 m 11 X s 0 0.733333 1 c 1412 990 m21 black 1491 1044 m 29 Y s 1491 1096 m 29 Y s 1485 1044 m 12 X s 1485 1125 m 12 X s 0 0.733333 1 c 1491 1085 m21 black 1570 1012 m 32 Y s 1570 1067 m 32 Y
 s 1565 1012 m 11 X s 1565 1099 m 11 X s 0 0.733333 1 c 1570 1055 m21 black 1650 1050 m 37 Y s 1650 1110 m 36 Y s 1644 1050 m 11 X s 1644 1146 m 11 X s 0 0.733333 1 c 1650 1098 m21 black 1729 994 m 40 Y s 1729 1057 m 40 Y s 1723 994 m 12 X s 1723
 1097 m 12 X s 0 0.733333 1 c 1729 1046 m21 black 1809 1098 m 44 Y s 1809 1165 m 30 Y s 1803 1098 m 11 X s 1803 1195 m 11 X s 0 0.733333 1 c 1809 1154 m21 black 1888 1040 m 48 Y s 1888 1111 m 49 Y s 1882 1040 m 12 X s 1882 1160 m 12 X s 0 0.733333 1
 c 1888 1100 m21 6 lw 1 1 1 c 0 0.733333 1 c 380 880 m 27 -1 d 24 -2 d 28 -4 d 17 -4 d 56 -18 d 7 -1 d 32 -5 d 17 -1 d 14 1 d 16 2 d 8 2 d 11 6 d 19 12 d 13 8 d 9 4 d 7 2 d 7 X 5 -1 d 9 -3 d 9 -5 d 9 -7 d 10 -10 d 12 -12 d 13 -16 d 15 -21 d 3 -5 d 7
 -11 d 8 -15 d 10 -21 d 18 -37 d 14 -32 d 8 -15 d 8 -13 d 6 -11 d 16 -22 d 13 -17 d 11 -12 d 10 -10 d 10 -8 d 8 -6 d 8 -4 d 3 -1 d 10 -2 d 9 X 9 2 d 10 3 d 11 5 d 11 7 d 10 9 d 10 9 d 7 8 d 8 11 d 8 14 d 13 22 d 23 43 d 10 17 d 8 13 d 2 3 d 11 13 d
 13 15 d 50 51 d 6 7 d 13 18 d 22 31 d 22 32 d 12 16 d 10 13 d 28 32 d 14 14 d 12 11 d 9 7 d 9 6 d 7 3 d 7 2 d 8 X 9 -2 d 17 -7 d 15 -6 d 8 -1 d 7 -1 d 6 2 d 3 1 d 6 3 d 6 6 d 8 8 d 10 12 d 20 27 d 9 11 d 7 6 d 6 4 d 5 3 d 8 X 6 -1 d 67 -47 d 6 2 d 6
 3 d 8 6 d 9 9 d 22 26 d 9 8 d 7 5 d 5 3 d 6 2 d 2 X 5 -1 d 6 -3 d 6 -5 d 8 -8 d 17 -21 d 11 -13 d 8 -8 d 6 -4 d 6 -3 d 6 X 6 1 d 6 3 d 7 5 d 7 9 d 9 10 d 23 32 d 9 10 d 7 6 d 6 5 d 12 6 d 13 6 d 13 5 d 14 2 d 13 1 d 14 -1 d s 3 lw /w 2 def /w2 {w 2
 div} def /w3 {w 3 div} def 380 880 459 873 539 850 618 847 697 880 777 801 856 646 935 566 1015 599 1094 730 1174 816 1253 926 1332 999 1412 987 1491 1067 1570 1019 1650 1083 1729 1017 1809 1098 1888 1117 20 { m20} R 6 lw black 0 0.733333 1 c
 gsave  2268 1328 0 0 C 2039.81 1113.92 t 0 r /Helvetica-Bold findfont 48.4311 sf 0 0 m (/dof=2.1) show NC gr  black 0 0.733333 1 c
 gsave  2268 1328 0 0 C 2019.86 1131.01 t 0 r /Helvetica-Bold findfont 34.1867 sf 0 0 m (2) show NC gr  black 0 0.733333 1 c
 gsave  2268 1328 0 0 C 1994.22 1113.92 t 0 r /Symbol findfont 48.4311 sf 0 0 m (c) show NC gr  black 3 lw 340 974 m 1588 X s
 gsave  2268 1328 0 0 C 1783.41 1213.63 t 0 r /Helvetica-Bold findfont 42.7334 sf 0 0 m (3 mm) show NC gr  0 0.733333 1 c /w 23 def /w2 {w 2 div} def /w3 {w 3 div} def 1743 1228 m21
 gr  gr showpage
end
%%EOF
