%!PS-Adobe-2.0 EPSF-2.0
%%BoundingBox:  0 0 567 332
%%Title: TargetXTilt_near_fits.eps: Fits
%%Creator: ROOT Version 5.30/06
%%CreationDate: Sun Feb  2 09:40:47 2014
%%EndComments
%%BeginProlog
80 dict begin
/s {stroke} def /l {lineto} def /m {moveto} def /t {translate} def
/r {rotate} def /rl {roll}  def /R {repeat} def
/d {rlineto} def /rm {rmoveto} def /gr {grestore} def /f {eofill} def
/c {setrgbcolor} def /black {0 setgray} def /sd {setdash} def
/cl {closepath} def /sf {scalefont setfont} def /lw {setlinewidth} def
/box {m dup 0 exch d exch 0 d 0 exch neg d cl} def
/NC{systemdict begin initclip end}def/C{NC box clip newpath}def
/bl {box s} def /bf {box f} def /Y { 0 exch d} def /X { 0 d} def 
/K {{pop pop 0 moveto} exch kshow} bind def
/ita {/ang 15 def gsave [1 0 ang dup sin exch cos div 1 0 0] concat} def 
/mp {newpath /y exch def /x exch def} def
/side {[w .77 mul w .23 mul] .385 w mul sd w 0 l currentpoint t -144 r} def
/mr {mp x y w2 0 360 arc} def /m24 {mr s} def /m20 {mr f} def
/mb {mp x y w2 add m w2 neg 0 d 0 w neg d w 0 d 0 w d cl} def
/mt {mp x y w2 add m w2 neg w neg d w 0 d cl} def
/m21 {mb f} def /m25 {mb s} def /m22 {mt f} def /m26{mt s} def
/m23 {mp x y w2 sub m w2 w d w neg 0 d cl f} def
/m27 {mp x y w2 add m w3 neg w2 neg d w3 w2 neg d w3 w2 d cl s} def
/m28 {mp x w2 sub y w2 sub w3 add m w3 0 d  0 w3 neg d w3 0 d 0 w3 d w3 0 d  0 w3 d w3 neg 0 d 0 w3 d w3 neg 0 d 0 w3 neg d w3 neg 0 d cl s } def
/m29 {mp gsave x w2 sub y w2 add w3 sub m currentpoint t 4 {side} repeat cl fill gr} def
/m30 {mp gsave x w2 sub y w2 add w3 sub m currentpoint t 4 {side} repeat cl s gr} def
/m31 {mp x y w2 sub m 0 w d x w2 sub y m w 0 d x w2 sub y w2 add m w w neg d x w2 sub y w2 sub m w w d s} def
/m32 {mp x y w2 sub m w2 w d w neg 0 d cl s} def
/m33 {mp x y w2 add m w3 neg w2 neg d w3 w2 neg d w3 w2 d cl f} def
/m34 {mp x w2 sub y w2 sub w3 add m w3 0 d  0 w3 neg d w3 0 d 0 w3 d w3 0 d  0 w3 d w3 neg 0 d 0 w3 d w3 neg 0 d 0 w3 neg d w3 neg 0 d cl f } def
/m2 {mp x y w2 sub m 0 w d x w2 sub y m w 0 d s} def
/m5 {mp x w2 sub y w2 sub m w w d x w2 sub y w2 add m w w neg d s} def
/reEncode {exch findfont dup length dict begin {1 index /FID eq  {pop pop} {def} ifelse } forall /Encoding exch def currentdict end dup /FontName get exch definefont pop } def [/Times-Bold /Times-Italic /Times-BoldItalic /Helvetica /Helvetica-Oblique
 /Helvetica-Bold /Helvetica-BoldOblique /Courier /Courier-Oblique /Courier-Bold /Courier-BoldOblique /Times-Roman /AvantGarde-Book /AvantGarde-BookOblique /AvantGarde-Demi /AvantGarde-DemiOblique /Bookman-Demi /Bookman-DemiItalic /Bookman-Light
 /Bookman-LightItalic /Helvetica-Narrow /Helvetica-Narrow-Bold /Helvetica-Narrow-BoldOblique /Helvetica-Narrow-Oblique /NewCenturySchlbk-Roman /NewCenturySchlbk-Bold /NewCenturySchlbk-BoldItalic /NewCenturySchlbk-Italic /Palatino-Bold
 /Palatino-BoldItalic /Palatino-Italic /Palatino-Roman ] {ISOLatin1Encoding reEncode } forall%%EndProlog
%%BeginSetup
%%EndSetup
newpath  gsave  .25 .25 scale  gsave  0 0 t black[  ] 0 sd 3 lw 1 1 1 c 2268 1328 0 0 bf black 1 1 1 c 408 305 23 1009 bf black 1 1 1 c black 306 229 84 1055 bl 306 229 84 1055 bl 84 1055 m 306 X s 84 1059 m -4 Y s 177 1059 m -4 Y s 271 1059 m -4 Y s
 364 1059 m -4 Y s 364 1059 m -4 Y s
 gsave  408 305 23 1009 C 74.0711 1034.15 t 0 r /Helvetica findfont 22.8295 sf 0 0 m (0) show NC gr 
 gsave  408 305 23 1009 C 170.933 1034.15 t 0 r /Helvetica findfont 22.8295 sf 0 0 m (1) show NC gr 
 gsave  408 305 23 1009 C 262.098 1034.15 t 0 r /Helvetica findfont 22.8295 sf 0 0 m (2) show NC gr 
 gsave  408 305 23 1009 C 353.262 1034.15 t 0 r /Helvetica findfont 22.8295 sf 0 0 m (3) show NC gr  84 1284 m 306 X s 84 1280 m 4 Y s 177 1280 m 4 Y s 271 1280 m 4 Y s 364 1280 m 4 Y s 364 1280 m 4 Y s 84 1055 m 229 Y s 89 1084 m -5 X s 87 1094 m -3
 X s 87 1104 m -3 X s 87 1114 m -3 X s 87 1123 m -3 X s 89 1133 m -5 X s 87 1143 m -3 X s 87 1153 m -3 X s 87 1163 m -3 X s 87 1173 m -3 X s 89 1183 m -5 X s 87 1192 m -3 X s 87 1202 m -3 X s 87 1212 m -3 X s 87 1222 m -3 X s 89 1232 m -5 X s 87 1242
 m -3 X s 87 1252 m -3 X s 87 1261 m -3 X s 87 1271 m -3 X s 89 1281 m -5 X s 89 1084 m -5 X s 87 1074 m -3 X s 87 1064 m -3 X s 89 1281 m -5 X s
 gsave  408 305 23 1009 C 14.2445 1076.88 t 0 r /Helvetica findfont 22.8295 sf 0 0 m (\2550.015) show NC gr 
 gsave  408 305 23 1009 C 31.3378 1125.31 t 0 r /Helvetica findfont 22.8295 sf 0 0 m (\2550.01) show NC gr 
 gsave  408 305 23 1009 C 14.2445 1176.59 t 0 r /Helvetica findfont 22.8295 sf 0 0 m (\2550.005) show NC gr 
 gsave  408 305 23 1009 C 65.5245 1225.02 t 0 r /Helvetica findfont 22.8295 sf 0 0 m (0) show NC gr 
 gsave  408 305 23 1009 C 22.7911 1273.45 t 0 r /Helvetica findfont 22.8295 sf 0 0 m (0.005) show NC gr  390 1055 m 229 Y s 385 1084 m 5 X s 387 1094 m 3 X s 387 1104 m 3 X s 387 1114 m 3 X s 387 1123 m 3 X s 385 1133 m 5 X s 387 1143 m 3 X s 387
 1153 m 3 X s 387 1163 m 3 X s 387 1173 m 3 X s 385 1183 m 5 X s 387 1192 m 3 X s 387 1202 m 3 X s 387 1212 m 3 X s 387 1222 m 3 X s 385 1232 m 5 X s 387 1242 m 3 X s 387 1252 m 3 X s 387 1261 m 3 X s 387 1271 m 3 X s 385 1281 m 5 X s 385 1084 m 5 X
 s 387 1074 m 3 X s 387 1064 m 3 X s 385 1281 m 5 X s /w 22 def /w2 {w 2 div} def /w3 {w 3 div} def 131 1246 177 1243 271 1184 364 1092 4 { m21} R 131 1257 m 8 Y s 125 1265 m 11 X s 131 1234 m -7 Y s 125 1227 m 11 X s 177 1255 m 7 Y s 172 1262 m 11 X
 s 177 1232 m -7 Y s 172 1225 m 11 X s 271 1196 m 7 Y s 265 1203 m 12 X s 271 1173 m -7 Y s 265 1166 m 12 X s 364 1104 m 7 Y s 359 1111 m 11 X s 364 1081 m -7 Y s 359 1074 m 11 X s 1 0 0 c 9 lw 0.95 0.95 0.95 c black 1 0 0 c 85 1232 m 10 X 3 -1 d 12
 X 3 -1 d 6 X 3 -1 d 6 X 3 -1 d 3 X 3 -1 d 4 -1 d 3 X 3 -1 d 3 X 3 -1 d 3 -1 d 3 -1 d 3 X 3 -1 d 3 -1 d 3 -1 d 3 -1 d 3 -1 d 3 -1 d 3 -1 d 3 -1 d 4 -1 d 3 -1 d 3 -1 d 3 -1 d 3 -1 d 3 -2 d 3 -1 d 3 -1 d 3 -1 d 3 -2 d 3 -1 d 3 -2 d 3 -1 d 3 -2 d 3 -1 d
 3 -2 d s 235 1193 m 4 -1 d 3 -2 d 3 -1 d 3 -2 d 3 -2 d 3 -1 d 3 -2 d 3 -2 d 3 -2 d 3 -2 d 3 -1 d 3 -2 d 3 -2 d 3 -2 d 3 -2 d 3 -2 d 3 -2 d 4 -2 d 3 -3 d 3 -2 d 3 -2 d 3 -2 d 3 -2 d 3 -3 d 3 -2 d 3 -2 d 3 -3 d 3 -2 d 3 -3 d 3 -2 d 3 -3 d 3 -2 d 3 -3
 d 4 -2 d 3 -3 d 3 -3 d 3 -2 d 3 -3 d 3 -3 d 3 -3 d 3 -2 d 3 -3 d 3 -3 d 3 -3 d 3 -3 d 3 -3 d 3 -3 d 3 -3 d 3 -3 d s 385 1080 m 4 -3 d s 0.49 0.6 0.82 c black 0.49 0.6 0.82 c
 gsave  408 305 23 1009 C 142.445 1293.4 t 0 r /Helvetica-Bold findfont 25.6831 sf 0 0 m (0.0 < E < 0.5 GeV) show NC gr  0.52 0.76 0.64 c black 0.52 0.76 0.64 c
 gsave  408 305 23 1009 C 122.502 1256.36 t 0 r /Helvetica-Bold findfont 25.6831 sf 0 0 m 
 228 214 200 193 178 171 156 149 134 126 119 105 91 77 69 55 47 39 25 17
(A = \2550.001, p = 2.000) K NC gr  1 0.6 1 c black 1 0.6 1 c
 gsave  408 305 23 1009 C 427.334 1122.46 t 90 r /Helvetica-Bold findfont 28.5368 sf 0 0 m (/dof=1.1) show NC gr  black 1 0.6 1 c
 gsave  408 305 23 1009 C 415.938 1111.07 t 90 r /Helvetica-Bold findfont 19.9758 sf 0 0 m (2) show NC gr  black 1 0.6 1 c
 gsave  408 305 23 1009 C 427.334 1093.97 t 90 r /Symbol findfont 28.5368 sf 0 0 m (c) show NC gr  black 3 lw 1 1 1 c 408 305 476 1009 bf black 1 1 1 c black 307 229 537 1055 bl 307 229 537 1055 bl 537 1055 m 307 X s 537 1059 m -4 Y s 631 1059 m -4 Y
 s 724 1059 m -4 Y s 818 1059 m -4 Y s 818 1059 m -4 Y s
 gsave  408 305 476 1009 C 527.045 1034.15 t 0 r /Helvetica findfont 22.8295 sf 0 0 m (0) show NC gr 
 gsave  408 305 476 1009 C 623.907 1034.15 t 0 r /Helvetica findfont 22.8295 sf 0 0 m (1) show NC gr 
 gsave  408 305 476 1009 C 715.071 1034.15 t 0 r /Helvetica findfont 22.8295 sf 0 0 m (2) show NC gr 
 gsave  408 305 476 1009 C 809.085 1034.15 t 0 r /Helvetica findfont 22.8295 sf 0 0 m (3) show NC gr  537 1284 m 307 X s 537 1280 m 4 Y s 631 1280 m 4 Y s 724 1280 m 4 Y s 818 1280 m 4 Y s 818 1280 m 4 Y s 537 1055 m 229 Y s 543 1077 m -6 X s 540
 1083 m -3 X s 540 1089 m -3 X s 540 1095 m -3 X s 540 1101 m -3 X s 543 1107 m -6 X s 540 1113 m -3 X s 540 1119 m -3 X s 540 1125 m -3 X s 540 1131 m -3 X s 543 1137 m -6 X s 540 1144 m -3 X s 540 1150 m -3 X s 540 1156 m -3 X s 540 1162 m -3 X s
 543 1168 m -6 X s 540 1174 m -3 X s 540 1180 m -3 X s 540 1186 m -3 X s 540 1192 m -3 X s 543 1198 m -6 X s 540 1204 m -3 X s 540 1210 m -3 X s 540 1216 m -3 X s 540 1222 m -3 X s 543 1228 m -6 X s 540 1234 m -3 X s 540 1240 m -3 X s 540 1246 m -3 X
 s 540 1253 m -3 X s 543 1259 m -6 X s 543 1077 m -6 X s 540 1071 m -3 X s 540 1065 m -3 X s 540 1059 m -3 X s 543 1259 m -6 X s 540 1265 m -3 X s 540 1271 m -3 X s 540 1277 m -3 X s 540 1283 m -3 X s
 gsave  408 305 476 1009 C 467.218 1071.18 t 0 r /Helvetica findfont 22.8295 sf 0 0 m (\2550.025) show NC gr 
 gsave  408 305 476 1009 C 481.462 1099.67 t 0 r /Helvetica findfont 22.8295 sf 0 0 m (\2550.02) show NC gr 
 gsave  408 305 476 1009 C 467.218 1131.01 t 0 r /Helvetica findfont 22.8295 sf 0 0 m (\2550.015) show NC gr 
 gsave  408 305 476 1009 C 484.311 1159.5 t 0 r /Helvetica findfont 22.8295 sf 0 0 m (\2550.01) show NC gr 
 gsave  408 305 476 1009 C 467.218 1190.84 t 0 r /Helvetica findfont 22.8295 sf 0 0 m (\2550.005) show NC gr 
 gsave  408 305 476 1009 C 518.498 1222.17 t 0 r /Helvetica findfont 22.8295 sf 0 0 m (0) show NC gr 
 gsave  408 305 476 1009 C 475.765 1250.66 t 0 r /Helvetica findfont 22.8295 sf 0 0 m (0.005) show NC gr  844 1055 m 229 Y s 838 1077 m 6 X s 841 1083 m 3 X s 841 1089 m 3 X s 841 1095 m 3 X s 841 1101 m 3 X s 838 1107 m 6 X s 841 1113 m 3 X s 841
 1119 m 3 X s 841 1125 m 3 X s 841 1131 m 3 X s 838 1137 m 6 X s 841 1144 m 3 X s 841 1150 m 3 X s 841 1156 m 3 X s 841 1162 m 3 X s 838 1168 m 6 X s 841 1174 m 3 X s 841 1180 m 3 X s 841 1186 m 3 X s 841 1192 m 3 X s 838 1198 m 6 X s 841 1204 m 3 X
 s 841 1210 m 3 X s 841 1216 m 3 X s 841 1222 m 3 X s 838 1228 m 6 X s 841 1234 m 3 X s 841 1240 m 3 X s 841 1246 m 3 X s 841 1253 m 3 X s 838 1259 m 6 X s 838 1077 m 6 X s 841 1071 m 3 X s 841 1065 m 3 X s 841 1059 m 3 X s 838 1259 m 6 X s 841 1265
 m 3 X s 841 1271 m 3 X s 841 1277 m 3 X s 841 1283 m 3 X s /w 23 def /w2 {w 2 div} def /w3 {w 3 div} def 584 1230 631 1251 724 1197 818 1087 4 { m21} R 584 1241 m 2 Y s 578 1243 m 12 X s 584 1218 m -2 Y s 578 1216 m 12 X s 631 1262 m 3 Y s 625 1265
 m 12 X s 631 1239 m -2 Y s 625 1237 m 12 X s 724 1208 m 3 Y s 719 1211 m 11 X s 724 1186 m -3 Y s 719 1183 m 11 X s 818 1099 m 2 Y s 812 1101 m 12 X s 818 1076 m -2 Y s 812 1074 m 12 X s 1 0 0 c 9 lw 0.95 0.95 0.95 c black 1 0 0 c 539 1228 m 18 X 3
 -1 d 10 X 3 -1 d 6 X 3 -1 d 3 X 3 -1 d 3 X 3 -1 d 3 X 3 -1 d 3 -1 d 3 X 3 -1 d 3 -1 d 4 X 3 -1 d 3 -1 d 3 -1 d 3 -1 d 3 -1 d 3 -1 d 3 -1 d 3 -1 d 3 -1 d 3 -1 d 3 -1 d 3 -1 d 3 -1 d 3 -1 d 3 -1 d 3 -2 d 4 -1 d 3 -1 d 3 -1 d 3 -2 d 3 -1 d 3 -2 d 3 -1
 d 3 -2 d s 689 1191 m 3 -1 d 3 -2 d 3 -1 d 3 -2 d 3 -1 d 3 -2 d 3 -2 d 3 -1 d 4 -2 d 3 -2 d 3 -2 d 3 -2 d 3 -1 d 3 -2 d 3 -2 d 3 -2 d 3 -2 d 3 -2 d 3 -2 d 3 -2 d 3 -2 d 3 -3 d 3 -2 d 3 -2 d 4 -2 d 3 -2 d 3 -3 d 3 -2 d 3 -2 d 3 -3 d 3 -2 d 3 -3 d 3
 -2 d 3 -3 d 3 -2 d 3 -3 d 3 -2 d 3 -3 d 3 -2 d 3 -3 d 4 -3 d 3 -3 d 3 -2 d 3 -3 d 3 -3 d 3 -3 d 3 -3 d 3 -3 d 3 -3 d s 839 1082 m 3 -3 d s 0.49 0.6 0.82 c black 0.49 0.6 0.82 c
 gsave  408 305 476 1009 C 595.418 1293.4 t 0 r /Helvetica-Bold findfont 25.6831 sf 0 0 m (0.5 < E < 1.0 GeV) show NC gr  0.52 0.76 0.64 c black 0.52 0.76 0.64 c
 gsave  408 305 476 1009 C 575.476 1256.36 t 0 r /Helvetica-Bold findfont 25.6831 sf 0 0 m 
 228 214 200 193 178 171 156 149 133 126 119 105 91 76 69 55 47 39 25 17
(A = \2550.002, p = 2.000) K NC gr  1 0.6 1 c black 1 0.6 1 c
 gsave  408 305 476 1009 C 883.156 1122.46 t 90 r /Helvetica-Bold findfont 28.5368 sf 0 0 m (/dof=3.9) show NC gr  black 1 0.6 1 c
 gsave  408 305 476 1009 C 871.76 1111.07 t 90 r /Helvetica-Bold findfont 19.9758 sf 0 0 m (2) show NC gr  black 1 0.6 1 c
 gsave  408 305 476 1009 C 883.156 1093.97 t 90 r /Symbol findfont 28.5368 sf 0 0 m (c) show NC gr  black 3 lw 1 1 1 c 408 305 930 1009 bf black 1 1 1 c black 306 229 991 1055 bl 306 229 991 1055 bl 991 1055 m 306 X s 991 1059 m -4 Y s 1084 1059 m -4
 Y s 1178 1059 m -4 Y s 1271 1059 m -4 Y s 1271 1059 m -4 Y s
 gsave  408 305 930 1009 C 980.018 1034.15 t 0 r /Helvetica findfont 22.8295 sf 0 0 m (0) show NC gr 
 gsave  408 305 930 1009 C 1076.88 1034.15 t 0 r /Helvetica findfont 22.8295 sf 0 0 m (1) show NC gr 
 gsave  408 305 930 1009 C 1168.04 1034.15 t 0 r /Helvetica findfont 22.8295 sf 0 0 m (2) show NC gr 
 gsave  408 305 930 1009 C 1262.06 1034.15 t 0 r /Helvetica findfont 22.8295 sf 0 0 m (3) show NC gr  991 1284 m 306 X s 991 1280 m 4 Y s 1084 1280 m 4 Y s 1178 1280 m 4 Y s 1271 1280 m 4 Y s 1271 1280 m 4 Y s 991 1055 m 229 Y s 997 1073 m -6 X s 994
 1078 m -3 X s 994 1083 m -3 X s 994 1088 m -3 X s 994 1093 m -3 X s 997 1098 m -6 X s 994 1103 m -3 X s 994 1108 m -3 X s 994 1113 m -3 X s 994 1118 m -3 X s 997 1124 m -6 X s 994 1129 m -3 X s 994 1134 m -3 X s 994 1139 m -3 X s 994 1144 m -3 X s
 997 1149 m -6 X s 994 1154 m -3 X s 994 1159 m -3 X s 994 1164 m -3 X s 994 1169 m -3 X s 997 1174 m -6 X s 994 1179 m -3 X s 994 1184 m -3 X s 994 1189 m -3 X s 994 1194 m -3 X s 997 1199 m -6 X s 994 1204 m -3 X s 994 1209 m -3 X s 994 1214 m -3 X
 s 994 1219 m -3 X s 997 1224 m -6 X s 994 1229 m -3 X s 994 1234 m -3 X s 994 1239 m -3 X s 994 1244 m -3 X s 997 1249 m -6 X s 994 1254 m -3 X s 994 1259 m -3 X s 994 1264 m -3 X s 994 1269 m -3 X s 997 1274 m -6 X s 997 1073 m -6 X s 994 1068 m -3
 X s 994 1063 m -3 X s 994 1058 m -3 X s 997 1274 m -6 X s 994 1279 m -3 X s
 gsave  408 305 930 1009 C 923.04 1065.48 t 0 r /Helvetica findfont 22.8295 sf 0 0 m (\2550.035) show NC gr 
 gsave  408 305 930 1009 C 937.285 1091.12 t 0 r /Helvetica findfont 22.8295 sf 0 0 m (\2550.03) show NC gr 
 gsave  408 305 930 1009 C 923.04 1116.76 t 0 r /Helvetica findfont 22.8295 sf 0 0 m (\2550.025) show NC gr 
 gsave  408 305 930 1009 C 937.285 1142.4 t 0 r /Helvetica findfont 22.8295 sf 0 0 m (\2550.02) show NC gr 
 gsave  408 305 930 1009 C 923.04 1168.04 t 0 r /Helvetica findfont 22.8295 sf 0 0 m (\2550.015) show NC gr 
 gsave  408 305 930 1009 C 940.134 1190.84 t 0 r /Helvetica findfont 22.8295 sf 0 0 m (\2550.01) show NC gr 
 gsave  408 305 930 1009 C 923.04 1216.48 t 0 r /Helvetica findfont 22.8295 sf 0 0 m (\2550.005) show NC gr 
 gsave  408 305 930 1009 C 974.32 1242.12 t 0 r /Helvetica findfont 22.8295 sf 0 0 m (0) show NC gr 
 gsave  408 305 930 1009 C 931.587 1267.76 t 0 r /Helvetica findfont 22.8295 sf 0 0 m (0.005) show NC gr  1297 1055 m 229 Y s 1292 1073 m 5 X s 1294 1078 m 3 X s 1294 1083 m 3 X s 1294 1088 m 3 X s 1294 1093 m 3 X s 1292 1098 m 5 X s 1294 1103 m 3 X
 s 1294 1108 m 3 X s 1294 1113 m 3 X s 1294 1118 m 3 X s 1292 1124 m 5 X s 1294 1129 m 3 X s 1294 1134 m 3 X s 1294 1139 m 3 X s 1294 1144 m 3 X s 1292 1149 m 5 X s 1294 1154 m 3 X s 1294 1159 m 3 X s 1294 1164 m 3 X s 1294 1169 m 3 X s 1292 1174 m 5
 X s 1294 1179 m 3 X s 1294 1184 m 3 X s 1294 1189 m 3 X s 1294 1194 m 3 X s 1292 1199 m 5 X s 1294 1204 m 3 X s 1294 1209 m 3 X s 1294 1214 m 3 X s 1294 1219 m 3 X s 1292 1224 m 5 X s 1294 1229 m 3 X s 1294 1234 m 3 X s 1294 1239 m 3 X s 1294 1244 m
 3 X s 1292 1249 m 5 X s 1294 1254 m 3 X s 1294 1259 m 3 X s 1294 1264 m 3 X s 1294 1269 m 3 X s 1292 1274 m 5 X s 1292 1073 m 5 X s 1294 1068 m 3 X s 1294 1063 m 3 X s 1294 1058 m 3 X s 1292 1274 m 5 X s 1294 1279 m 3 X s 1038 1252 1084 1254 1178
 1183 1271 1085 4 { m21} R 1 0 0 c 9 lw 0.95 0.95 0.95 c black 1 0 0 c 993 1249 m 15 X 3 -1 d 9 X 3 -1 d 3 X 3 -1 d 3 X 3 -1 d 3 X 4 -1 d 3 -1 d 3 X 3 -1 d 3 -1 d 3 -1 d 3 X 3 -1 d 3 -1 d 3 -1 d 3 -1 d 3 -1 d 3 -1 d 3 -1 d 3 -1 d 3 -2 d 3 -1 d 4 -1 d
 3 -1 d 3 -2 d 3 -1 d 3 -2 d 3 -1 d 3 -1 d 3 -2 d 3 -2 d 3 -1 d 3 -2 d 3 -1 d 3 -2 d 3 -2 d 3 -2 d 3 -2 d 4 -1 d s 1143 1203 m 3 -2 d 3 -2 d 3 -2 d 3 -2 d 3 -2 d 3 -2 d 3 -3 d 3 -2 d 3 -2 d 3 -2 d 3 -2 d 3 -3 d 3 -2 d 3 -3 d 3 -2 d 4 -2 d 3 -3 d 3 -3
 d 3 -2 d 3 -3 d 3 -2 d 3 -3 d 3 -3 d 3 -3 d 3 -3 d 3 -2 d 3 -3 d 3 -3 d 3 -3 d 3 -3 d 3 -3 d 3 -3 d 4 -3 d 3 -4 d 3 -3 d 3 -3 d 3 -3 d 3 -4 d 3 -3 d 3 -3 d 3 -4 d 3 -3 d 3 -4 d 3 -3 d 3 -4 d 3 -4 d 3 -3 d 3 -4 d 4 -4 d s 1293 1064 m 3 -3 d s 0.49
 0.6 0.82 c black 0.49 0.6 0.82 c
 gsave  408 305 930 1009 C 1051.24 1293.4 t 0 r /Helvetica-Bold findfont 25.6831 sf 0 0 m (1.0 < E < 1.5 GeV) show NC gr  0.52 0.76 0.64 c black 0.52 0.76 0.64 c
 gsave  408 305 930 1009 C 1031.3 1256.36 t 0 r /Helvetica-Bold findfont 25.6831 sf 0 0 m 
 228 214 200 193 178 171 156 149 133 126 119 105 91 77 69 55 47 39 25 17
(A = \2550.004, p = 2.000) K NC gr  1 0.6 1 c black 1 0.6 1 c
 gsave  408 305 930 1009 C 1336.13 1122.46 t 90 r /Helvetica-Bold findfont 28.5368 sf 0 0 m (/dof=1.6) show NC gr  black 1 0.6 1 c
 gsave  408 305 930 1009 C 1324.73 1111.07 t 90 r /Helvetica-Bold findfont 19.9758 sf 0 0 m (2) show NC gr  black 1 0.6 1 c
 gsave  408 305 930 1009 C 1336.13 1093.97 t 90 r /Symbol findfont 28.5368 sf 0 0 m (c) show NC gr  black 3 lw 1 1 1 c 408 305 1383 1009 bf black 1 1 1 c black 306 229 1445 1055 bl 306 229 1445 1055 bl 1445 1055 m 306 X s 1445 1059 m -4 Y s 1538 1059
 m -4 Y s 1631 1059 m -4 Y s 1725 1059 m -4 Y s 1725 1059 m -4 Y s
 gsave  408 305 1383 1009 C 1435.84 1034.15 t 0 r /Helvetica findfont 22.8295 sf 0 0 m (0) show NC gr 
 gsave  408 305 1383 1009 C 1529.85 1034.15 t 0 r /Helvetica findfont 22.8295 sf 0 0 m (1) show NC gr 
 gsave  408 305 1383 1009 C 1621.02 1034.15 t 0 r /Helvetica findfont 22.8295 sf 0 0 m (2) show NC gr 
 gsave  408 305 1383 1009 C 1715.03 1034.15 t 0 r /Helvetica findfont 22.8295 sf 0 0 m (3) show NC gr  1445 1284 m 306 X s 1445 1280 m 4 Y s 1538 1280 m 4 Y s 1631 1280 m 4 Y s 1725 1280 m 4 Y s 1725 1280 m 4 Y s 1445 1055 m 229 Y s 1450 1067 m -5 X
 s 1447 1072 m -2 X s 1447 1078 m -2 X s 1447 1083 m -2 X s 1447 1088 m -2 X s 1450 1094 m -5 X s 1447 1099 m -2 X s 1447 1105 m -2 X s 1447 1110 m -2 X s 1447 1116 m -2 X s 1450 1121 m -5 X s 1447 1126 m -2 X s 1447 1132 m -2 X s 1447 1137 m -2 X s
 1447 1143 m -2 X s 1450 1148 m -5 X s 1447 1154 m -2 X s 1447 1159 m -2 X s 1447 1164 m -2 X s 1447 1170 m -2 X s 1450 1175 m -5 X s 1447 1181 m -2 X s 1447 1186 m -2 X s 1447 1191 m -2 X s 1447 1197 m -2 X s 1450 1202 m -5 X s 1447 1208 m -2 X s
 1447 1213 m -2 X s 1447 1219 m -2 X s 1447 1224 m -2 X s 1450 1229 m -5 X s 1447 1235 m -2 X s 1447 1240 m -2 X s 1447 1246 m -2 X s 1447 1251 m -2 X s 1450 1257 m -5 X s 1447 1262 m -2 X s 1447 1267 m -2 X s 1447 1273 m -2 X s 1447 1278 m -2 X s
 1450 1284 m -5 X s 1450 1067 m -5 X s 1447 1061 m -2 X s 1447 1056 m -2 X s 1450 1284 m -5 X s
 gsave  408 305 1383 1009 C 1390.26 1059.79 t 0 r /Helvetica findfont 22.8295 sf 0 0 m (\2550.03) show NC gr 
 gsave  408 305 1383 1009 C 1376.01 1085.43 t 0 r /Helvetica findfont 22.8295 sf 0 0 m (\2550.025) show NC gr 
 gsave  408 305 1383 1009 C 1390.26 1113.92 t 0 r /Helvetica findfont 22.8295 sf 0 0 m (\2550.02) show NC gr 
 gsave  408 305 1383 1009 C 1376.01 1142.4 t 0 r /Helvetica findfont 22.8295 sf 0 0 m (\2550.015) show NC gr 
 gsave  408 305 1383 1009 C 1393.11 1168.04 t 0 r /Helvetica findfont 22.8295 sf 0 0 m (\2550.01) show NC gr 
 gsave  408 305 1383 1009 C 1376.01 1196.53 t 0 r /Helvetica findfont 22.8295 sf 0 0 m (\2550.005) show NC gr 
 gsave  408 305 1383 1009 C 1427.29 1222.17 t 0 r /Helvetica findfont 22.8295 sf 0 0 m (0) show NC gr 
 gsave  408 305 1383 1009 C 1384.56 1250.66 t 0 r /Helvetica findfont 22.8295 sf 0 0 m (0.005) show NC gr 
 gsave  408 305 1383 1009 C 1398.81 1276.3 t 0 r /Helvetica findfont 22.8295 sf 0 0 m (0.01) show NC gr  1751 1055 m 229 Y s 1745 1067 m 6 X s 1748 1072 m 3 X s 1748 1078 m 3 X s 1748 1083 m 3 X s 1748 1088 m 3 X s 1745 1094 m 6 X s 1748 1099 m 3 X s
 1748 1105 m 3 X s 1748 1110 m 3 X s 1748 1116 m 3 X s 1745 1121 m 6 X s 1748 1126 m 3 X s 1748 1132 m 3 X s 1748 1137 m 3 X s 1748 1143 m 3 X s 1745 1148 m 6 X s 1748 1154 m 3 X s 1748 1159 m 3 X s 1748 1164 m 3 X s 1748 1170 m 3 X s 1745 1175 m 6 X
 s 1748 1181 m 3 X s 1748 1186 m 3 X s 1748 1191 m 3 X s 1748 1197 m 3 X s 1745 1202 m 6 X s 1748 1208 m 3 X s 1748 1213 m 3 X s 1748 1219 m 3 X s 1748 1224 m 3 X s 1745 1229 m 6 X s 1748 1235 m 3 X s 1748 1240 m 3 X s 1748 1246 m 3 X s 1748 1251 m 3
 X s 1745 1257 m 6 X s 1748 1262 m 3 X s 1748 1267 m 3 X s 1748 1273 m 3 X s 1748 1278 m 3 X s 1745 1284 m 6 X s 1745 1067 m 6 X s 1748 1061 m 3 X s 1748 1056 m 3 X s 1745 1284 m 6 X s 1491 1252 1538 1212 1631 1190 1725 1086 4 { m21} R 1491 1264 m 1
 Y s 1486 1265 m 11 X s 1491 1241 m -1 Y s 1486 1240 m 11 X s 1538 1224 m s 1532 1224 m 12 X s 1538 1201 m -1 Y s 1532 1200 m 12 X s 1631 1201 m 1 Y s 1626 1202 m 11 X s 1631 1178 m s 1626 1178 m 11 X s 1725 1097 m 1 Y s 1719 1098 m 12 X s 1725 1074
 m s 1719 1074 m 12 X s 1 0 0 c 9 lw 0.95 0.95 0.95 c black 1 0 0 c 1446 1229 m 21 X 4 -1 d 6 X 3 -1 d 6 X 3 -1 d 3 X 3 -1 d 3 X 3 -1 d 3 -1 d 3 X 3 -1 d 3 -1 d 3 X 4 -1 d 3 -1 d 3 -1 d 3 -1 d 3 -1 d 3 -1 d 3 X 3 -1 d 3 -2 d 3 -1 d 3 -1 d 3 -1 d 3 -1
 d 3 -1 d 3 -1 d 3 -2 d 4 -1 d 3 -1 d 3 -2 d 3 -1 d 3 -1 d 3 -2 d 3 -1 d 3 -2 d 3 -1 d 3 -2 d s 1596 1190 m 3 -1 d 3 -2 d 3 -2 d 3 -1 d 3 -2 d 3 -2 d 4 -2 d 3 -2 d 3 -1 d 3 -2 d 3 -2 d 3 -2 d 3 -2 d 3 -2 d 3 -2 d 3 -2 d 3 -2 d 3 -3 d 3 -2 d 3 -2 d 3
 -2 d 3 -2 d 3 -3 d 4 -2 d 3 -3 d 3 -2 d 3 -2 d 3 -3 d 3 -2 d 3 -3 d 3 -2 d 3 -3 d 3 -3 d 3 -2 d 3 -3 d 3 -3 d 3 -2 d 3 -3 d 3 -3 d 4 -3 d 3 -3 d 3 -3 d 3 -3 d 3 -3 d 3 -3 d 3 -3 d 3 -3 d 3 -3 d 3 -3 d s 1746 1074 m 3 -3 d s 0.49 0.6 0.82 c black
 0.49 0.6 0.82 c
 gsave  408 305 1383 1009 C 1504.21 1293.4 t 0 r /Helvetica-Bold findfont 25.6831 sf 0 0 m (1.5 < E < 2.0 GeV) show NC gr  0.52 0.76 0.64 c black 0.52 0.76 0.64 c
 gsave  408 305 1383 1009 C 1484.27 1256.36 t 0 r /Helvetica-Bold findfont 25.6831 sf 0 0 m 
 228 214 200 193 178 171 156 149 134 126 119 105 91 77 69 55 47 40 25 17
(A = \2550.003, p = 2.000) K NC gr  1 0.6 1 c black 1 0.6 1 c
 gsave  408 305 1383 1009 C 1789.1 1122.46 t 90 r /Helvetica-Bold findfont 28.5368 sf 0 0 m (/dof=2.7) show NC gr  black 1 0.6 1 c
 gsave  408 305 1383 1009 C 1777.71 1111.07 t 90 r /Helvetica-Bold findfont 19.9758 sf 0 0 m (2) show NC gr  black 1 0.6 1 c
 gsave  408 305 1383 1009 C 1789.1 1093.97 t 90 r /Symbol findfont 28.5368 sf 0 0 m (c) show NC gr  black 3 lw 1 1 1 c 408 305 1837 1009 bf black 1 1 1 c black 306 229 1898 1055 bl 306 229 1898 1055 bl 1898 1055 m 306 X s 1898 1059 m -4 Y s 1992 1059
 m -4 Y s 2085 1059 m -4 Y s 2179 1059 m -4 Y s 2179 1059 m -4 Y s
 gsave  408 305 1837 1009 C 1888.81 1034.15 t 0 r /Helvetica findfont 22.8295 sf 0 0 m (0) show NC gr 
 gsave  408 305 1837 1009 C 1985.68 1034.15 t 0 r /Helvetica findfont 22.8295 sf 0 0 m (1) show NC gr 
 gsave  408 305 1837 1009 C 2073.99 1034.15 t 0 r /Helvetica findfont 22.8295 sf 0 0 m (2) show NC gr 
 gsave  408 305 1837 1009 C 2168.01 1034.15 t 0 r /Helvetica findfont 22.8295 sf 0 0 m (3) show NC gr  1898 1284 m 306 X s 1898 1280 m 4 Y s 1992 1280 m 4 Y s 2085 1280 m 4 Y s 2179 1280 m 4 Y s 2179 1280 m 4 Y s 1898 1055 m 229 Y s 1904 1060 m -6 X
 s 1901 1066 m -3 X s 1901 1072 m -3 X s 1901 1078 m -3 X s 1901 1084 m -3 X s 1904 1090 m -6 X s 1901 1096 m -3 X s 1901 1102 m -3 X s 1901 1108 m -3 X s 1901 1114 m -3 X s 1904 1120 m -6 X s 1901 1126 m -3 X s 1901 1132 m -3 X s 1901 1138 m -3 X s
 1901 1144 m -3 X s 1904 1150 m -6 X s 1901 1156 m -3 X s 1901 1162 m -3 X s 1901 1168 m -3 X s 1901 1174 m -3 X s 1904 1180 m -6 X s 1901 1186 m -3 X s 1901 1191 m -3 X s 1901 1197 m -3 X s 1901 1203 m -3 X s 1904 1209 m -6 X s 1901 1215 m -3 X s
 1901 1221 m -3 X s 1901 1227 m -3 X s 1901 1233 m -3 X s 1904 1239 m -6 X s 1901 1245 m -3 X s 1901 1251 m -3 X s 1901 1257 m -3 X s 1901 1263 m -3 X s 1904 1269 m -6 X s 1904 1060 m -6 X s 1904 1269 m -6 X s 1901 1275 m -3 X s 1901 1281 m -3 X s
 gsave  408 305 1837 1009 C 1843.23 1054.09 t 0 r /Helvetica findfont 22.8295 sf 0 0 m (\2550.03) show NC gr 
 gsave  408 305 1837 1009 C 1828.99 1082.58 t 0 r /Helvetica findfont 22.8295 sf 0 0 m (\2550.025) show NC gr 
 gsave  408 305 1837 1009 C 1843.23 1113.92 t 0 r /Helvetica findfont 22.8295 sf 0 0 m (\2550.02) show NC gr 
 gsave  408 305 1837 1009 C 1828.99 1142.4 t 0 r /Helvetica findfont 22.8295 sf 0 0 m (\2550.015) show NC gr 
 gsave  408 305 1837 1009 C 1846.08 1173.74 t 0 r /Helvetica findfont 22.8295 sf 0 0 m (\2550.01) show NC gr 
 gsave  408 305 1837 1009 C 1828.99 1202.23 t 0 r /Helvetica findfont 22.8295 sf 0 0 m (\2550.005) show NC gr 
 gsave  408 305 1837 1009 C 1880.27 1230.72 t 0 r /Helvetica findfont 22.8295 sf 0 0 m (0) show NC gr 
 gsave  408 305 1837 1009 C 1837.53 1262.06 t 0 r /Helvetica findfont 22.8295 sf 0 0 m (0.005) show NC gr  2204 1055 m 229 Y s 2199 1060 m 5 X s 2201 1066 m 3 X s 2201 1072 m 3 X s 2201 1078 m 3 X s 2201 1084 m 3 X s 2199 1090 m 5 X s 2201 1096 m 3 X
 s 2201 1102 m 3 X s 2201 1108 m 3 X s 2201 1114 m 3 X s 2199 1120 m 5 X s 2201 1126 m 3 X s 2201 1132 m 3 X s 2201 1138 m 3 X s 2201 1144 m 3 X s 2199 1150 m 5 X s 2201 1156 m 3 X s 2201 1162 m 3 X s 2201 1168 m 3 X s 2201 1174 m 3 X s 2199 1180 m 5
 X s 2201 1186 m 3 X s 2201 1191 m 3 X s 2201 1197 m 3 X s 2201 1203 m 3 X s 2199 1209 m 5 X s 2201 1215 m 3 X s 2201 1221 m 3 X s 2201 1227 m 3 X s 2201 1233 m 3 X s 2199 1239 m 5 X s 2201 1245 m 3 X s 2201 1251 m 3 X s 2201 1257 m 3 X s 2201 1263 m
 3 X s 2199 1269 m 5 X s 2199 1060 m 5 X s 2199 1269 m 5 X s 2201 1275 m 3 X s 2201 1281 m 3 X s 1945 1228 1992 1250 2085 1198 2179 1088 4 { m21} R 1945 1240 m 3 Y s 1939 1243 m 12 X s 1945 1217 m -3 Y s 1939 1214 m 12 X s 1992 1262 m 3 Y s 1986 1265
 m 11 X s 1992 1239 m -3 Y s 1986 1236 m 11 X s 2085 1209 m 3 Y s 2079 1212 m 12 X s 2085 1186 m -3 Y s 2079 1183 m 12 X s 2179 1099 m 3 Y s 2173 1102 m 11 X s 2179 1077 m -3 Y s 2173 1074 m 11 X s 1 0 0 c 9 lw 0.95 0.95 0.95 c black 1 0 0 c 1900
 1239 m 15 X 3 -1 d 9 X 3 -1 d 6 X 3 -1 d 3 X 4 -1 d 3 X 3 -1 d 3 -1 d 3 X 3 -1 d 3 X 3 -1 d 3 -1 d 3 -1 d 3 -1 d 3 X 3 -1 d 3 -1 d 3 -1 d 3 -1 d 4 -1 d 3 -1 d 3 -1 d 3 -2 d 3 -1 d 3 -1 d 3 -1 d 3 -1 d 3 -2 d 3 -1 d 3 -1 d 3 -2 d 3 -1 d 3 -2 d 3 -1 d
 3 -2 d 3 -1 d 4 -2 d 3 -2 d s 2050 1198 m 3 -1 d 3 -2 d 3 -2 d 3 -1 d 3 -2 d 3 -2 d 3 -2 d 3 -2 d 3 -2 d 3 -2 d 3 -2 d 3 -2 d 3 -2 d 3 -2 d 4 -2 d 3 -2 d 3 -2 d 3 -3 d 3 -2 d 3 -2 d 3 -3 d 3 -2 d 3 -2 d 3 -3 d 3 -2 d 3 -3 d 3 -2 d 3 -3 d 3 -2 d 3 -3
 d 4 -3 d 3 -2 d 3 -3 d 3 -3 d 3 -3 d 3 -2 d 3 -3 d 3 -3 d 3 -3 d 3 -3 d 3 -3 d 3 -3 d 3 -3 d 3 -3 d 3 -3 d 3 -4 d 4 -3 d 3 -3 d 3 -3 d s 2200 1078 m 3 -4 d s 0.49 0.6 0.82 c black 0.49 0.6 0.82 c
 gsave  408 305 1837 1009 C 1957.19 1293.4 t 0 r /Helvetica-Bold findfont 25.6831 sf 0 0 m (2.0 < E < 2.5 GeV) show NC gr  0.52 0.76 0.64 c black 0.52 0.76 0.64 c
 gsave  408 305 1837 1009 C 1937.25 1256.36 t 0 r /Helvetica-Bold findfont 25.6831 sf 0 0 m 
 228 214 200 193 178 171 156 149 133 126 119 105 91 77 69 55 47 39 25 17
(A = \2550.003, p = 2.000) K NC gr  1 0.6 1 c black 1 0.6 1 c
 gsave  408 305 1837 1009 C 2242.08 1122.46 t 90 r /Helvetica-Bold findfont 28.5368 sf 0 0 m (/dof=2.1) show NC gr  black 1 0.6 1 c
 gsave  408 305 1837 1009 C 2230.68 1111.07 t 90 r /Helvetica-Bold findfont 19.9758 sf 0 0 m (2) show NC gr  black 1 0.6 1 c
 gsave  408 305 1837 1009 C 2242.08 1093.97 t 90 r /Symbol findfont 28.5368 sf 0 0 m (c) show NC gr  black 3 lw 1 1 1 c 408 305 23 677 bf black 1 1 1 c black 306 229 84 723 bl 306 229 84 723 bl 84 723 m 306 X s 84 727 m -4 Y s 177 727 m -4 Y s 271
 727 m -4 Y s 364 727 m -4 Y s 364 727 m -4 Y s
 gsave  408 305 23 677 C 74.0711 703.676 t 0 r /Helvetica findfont 22.8295 sf 0 0 m (0) show NC gr 
 gsave  408 305 23 677 C 170.933 703.676 t 0 r /Helvetica findfont 22.8295 sf 0 0 m (1) show NC gr 
 gsave  408 305 23 677 C 262.098 703.676 t 0 r /Helvetica findfont 22.8295 sf 0 0 m (2) show NC gr 
 gsave  408 305 23 677 C 353.262 703.676 t 0 r /Helvetica findfont 22.8295 sf 0 0 m (3) show NC gr  84 952 m 306 X s 84 948 m 4 Y s 177 948 m 4 Y s 271 948 m 4 Y s 364 948 m 4 Y s 364 948 m 4 Y s 84 723 m 229 Y s 89 726 m -5 X s 87 731 m -3 X s 87
 737 m -3 X s 87 742 m -3 X s 87 747 m -3 X s 89 753 m -5 X s 87 758 m -3 X s 87 763 m -3 X s 87 769 m -3 X s 87 774 m -3 X s 89 779 m -5 X s 87 785 m -3 X s 87 790 m -3 X s 87 796 m -3 X s 87 801 m -3 X s 89 806 m -5 X s 87 812 m -3 X s 87 817 m -3
 X s 87 822 m -3 X s 87 828 m -3 X s 89 833 m -5 X s 87 838 m -3 X s 87 844 m -3 X s 87 849 m -3 X s 87 854 m -3 X s 89 860 m -5 X s 87 865 m -3 X s 87 870 m -3 X s 87 876 m -3 X s 87 881 m -3 X s 89 886 m -5 X s 87 892 m -3 X s 87 897 m -3 X s 87
 902 m -3 X s 87 908 m -3 X s 89 913 m -5 X s 87 918 m -3 X s 87 924 m -3 X s 87 929 m -3 X s 87 934 m -3 X s 89 940 m -5 X s 89 726 m -5 X s 89 940 m -5 X s 87 945 m -3 X s 87 950 m -3 X s
 gsave  408 305 23 677 C 28.4889 717.92 t 0 r /Helvetica findfont 22.8295 sf 0 0 m (\2550.08) show NC gr 
 gsave  408 305 23 677 C 28.4889 746.409 t 0 r /Helvetica findfont 22.8295 sf 0 0 m (\2550.07) show NC gr 
 gsave  408 305 23 677 C 28.4889 772.049 t 0 r /Helvetica findfont 22.8295 sf 0 0 m (\2550.06) show NC gr 
 gsave  408 305 23 677 C 28.4889 797.689 t 0 r /Helvetica findfont 22.8295 sf 0 0 m (\2550.05) show NC gr 
 gsave  408 305 23 677 C 28.4889 826.178 t 0 r /Helvetica findfont 22.8295 sf 0 0 m (\2550.04) show NC gr 
 gsave  408 305 23 677 C 28.4889 851.818 t 0 r /Helvetica findfont 22.8295 sf 0 0 m (\2550.03) show NC gr 
 gsave  408 305 23 677 C 28.4889 880.307 t 0 r /Helvetica findfont 22.8295 sf 0 0 m (\2550.02) show NC gr 
 gsave  408 305 23 677 C 31.3378 905.947 t 0 r /Helvetica findfont 22.8295 sf 0 0 m (\2550.01) show NC gr 
 gsave  408 305 23 677 C 65.5245 931.587 t 0 r /Helvetica findfont 22.8295 sf 0 0 m (0) show NC gr  390 723 m 229 Y s 385 726 m 5 X s 387 731 m 3 X s 387 737 m 3 X s 387 742 m 3 X s 387 747 m 3 X s 385 753 m 5 X s 387 758 m 3 X s 387 763 m 3 X s 387
 769 m 3 X s 387 774 m 3 X s 385 779 m 5 X s 387 785 m 3 X s 387 790 m 3 X s 387 796 m 3 X s 387 801 m 3 X s 385 806 m 5 X s 387 812 m 3 X s 387 817 m 3 X s 387 822 m 3 X s 387 828 m 3 X s 385 833 m 5 X s 387 838 m 3 X s 387 844 m 3 X s 387 849 m 3 X
 s 387 854 m 3 X s 385 860 m 5 X s 387 865 m 3 X s 387 870 m 3 X s 387 876 m 3 X s 387 881 m 3 X s 385 886 m 5 X s 387 892 m 3 X s 387 897 m 3 X s 387 902 m 3 X s 387 908 m 3 X s 385 913 m 5 X s 387 918 m 3 X s 387 924 m 3 X s 387 929 m 3 X s 387 934
 m 3 X s 385 940 m 5 X s 385 726 m 5 X s 385 940 m 5 X s 387 945 m 3 X s 387 950 m 3 X s /w 22 def /w2 {w 2 div} def /w3 {w 3 div} def 131 922 177 926 271 874 364 749 4 { m21} R 1 0 0 c 9 lw 0.95 0.95 0.95 c black 1 0 0 c 85 940 m 7 X 3 -1 d 9 X 3 -1
 d 6 X 3 -1 d 3 X 3 -1 d 3 X 3 -1 d 3 -1 d 3 X 3 -1 d 4 -1 d 3 -1 d 3 X 3 -1 d 3 -1 d 3 -1 d 3 -1 d 3 -2 d 3 -1 d 3 -1 d 3 -1 d 3 -1 d 3 -2 d 3 -1 d 3 -1 d 3 -2 d 4 -1 d 3 -2 d 3 -1 d 3 -2 d 3 -2 d 3 -1 d 3 -2 d 3 -2 d 3 -2 d 3 -2 d 3 -2 d 3 -2 d 3
 -2 d 3 -2 d 3 -2 d 3 -2 d s 235 886 m 4 -2 d 3 -2 d 3 -3 d 3 -2 d 3 -2 d 3 -3 d 3 -2 d 3 -3 d 3 -2 d 3 -3 d 3 -3 d 3 -2 d 3 -3 d 3 -3 d 3 -2 d 3 -3 d 3 -3 d 4 -3 d 3 -3 d 3 -3 d 3 -3 d 3 -3 d 3 -3 d 3 -4 d 3 -3 d 3 -3 d 3 -4 d 3 -3 d 3 -3 d 3 -4 d 3
 -3 d 3 -4 d 3 -3 d 4 -4 d 3 -4 d 3 -4 d 3 -3 d 3 -4 d 3 -4 d 3 -4 d 3 -4 d 3 -4 d 3 -4 d 3 -4 d 3 -4 d 3 -4 d 3 -4 d 3 -5 d 3 -4 d s 0.49 0.6 0.82 c black 0.49 0.6 0.82 c
 gsave  408 305 23 677 C 142.445 960.076 t 0 r /Helvetica-Bold findfont 25.6831 sf 0 0 m (2.5 < E < 3.0 GeV) show NC gr  0.52 0.76 0.64 c black 0.52 0.76 0.64 c
 gsave  408 305 23 677 C 122.502 923.04 t 0 r /Helvetica-Bold findfont 25.6831 sf 0 0 m 
 228 214 200 193 178 171 156 149 134 126 119 105 91 77 69 55 47 39 25 17
(A = \2550.008, p = 2.000) K NC gr  1 0.6 1 c black 1 0.6 1 c
 gsave  408 305 23 677 C 427.334 791.991 t 90 r /Helvetica-Bold findfont 28.5368 sf 0 0 m (/dof=3.4) show NC gr  black 1 0.6 1 c
 gsave  408 305 23 677 C 415.938 780.596 t 90 r /Helvetica-Bold findfont 19.9758 sf 0 0 m (2) show NC gr  black 1 0.6 1 c
 gsave  408 305 23 677 C 427.334 763.503 t 90 r /Symbol findfont 28.5368 sf 0 0 m (c) show NC gr  black 3 lw 1 1 1 c 408 305 476 677 bf black 1 1 1 c black 307 229 537 723 bl 307 229 537 723 bl 537 723 m 307 X s 537 727 m -4 Y s 631 727 m -4 Y s 724
 727 m -4 Y s 818 727 m -4 Y s 818 727 m -4 Y s
 gsave  408 305 476 677 C 527.045 703.676 t 0 r /Helvetica findfont 22.8295 sf 0 0 m (0) show NC gr 
 gsave  408 305 476 677 C 623.907 703.676 t 0 r /Helvetica findfont 22.8295 sf 0 0 m (1) show NC gr 
 gsave  408 305 476 677 C 715.071 703.676 t 0 r /Helvetica findfont 22.8295 sf 0 0 m (2) show NC gr 
 gsave  408 305 476 677 C 809.085 703.676 t 0 r /Helvetica findfont 22.8295 sf 0 0 m (3) show NC gr  537 952 m 307 X s 537 948 m 4 Y s 631 948 m 4 Y s 724 948 m 4 Y s 818 948 m 4 Y s 818 948 m 4 Y s 537 723 m 229 Y s 543 734 m -6 X s 540 742 m -3 X s
 540 750 m -3 X s 540 758 m -3 X s 543 767 m -6 X s 540 775 m -3 X s 540 783 m -3 X s 540 791 m -3 X s 543 799 m -6 X s 540 808 m -3 X s 540 816 m -3 X s 540 824 m -3 X s 543 832 m -6 X s 540 841 m -3 X s 540 849 m -3 X s 540 857 m -3 X s 543 865 m
 -6 X s 540 874 m -3 X s 540 882 m -3 X s 540 890 m -3 X s 543 898 m -6 X s 540 907 m -3 X s 540 915 m -3 X s 540 923 m -3 X s 543 931 m -6 X s 543 734 m -6 X s 540 725 m -3 X s 543 931 m -6 X s 540 939 m -3 X s 540 948 m -3 X s
 gsave  408 305 476 677 C 481.462 726.467 t 0 r /Helvetica findfont 22.8295 sf 0 0 m (\2550.12) show NC gr 
 gsave  408 305 476 677 C 495.707 760.654 t 0 r /Helvetica findfont 22.8295 sf 0 0 m (\2550.1) show NC gr 
 gsave  408 305 476 677 C 481.462 791.991 t 0 r /Helvetica findfont 22.8295 sf 0 0 m (\2550.08) show NC gr 
 gsave  408 305 476 677 C 481.462 826.178 t 0 r /Helvetica findfont 22.8295 sf 0 0 m (\2550.06) show NC gr 
 gsave  408 305 476 677 C 481.462 857.516 t 0 r /Helvetica findfont 22.8295 sf 0 0 m (\2550.04) show NC gr 
 gsave  408 305 476 677 C 481.462 891.703 t 0 r /Helvetica findfont 22.8295 sf 0 0 m (\2550.02) show NC gr 
 gsave  408 305 476 677 C 518.498 923.04 t 0 r /Helvetica findfont 22.8295 sf 0 0 m (0) show NC gr  844 723 m 229 Y s 838 734 m 6 X s 841 742 m 3 X s 841 750 m 3 X s 841 758 m 3 X s 838 767 m 6 X s 841 775 m 3 X s 841 783 m 3 X s 841 791 m 3 X s 838
 799 m 6 X s 841 808 m 3 X s 841 816 m 3 X s 841 824 m 3 X s 838 832 m 6 X s 841 841 m 3 X s 841 849 m 3 X s 841 857 m 3 X s 838 865 m 6 X s 841 874 m 3 X s 841 882 m 3 X s 841 890 m 3 X s 838 898 m 6 X s 841 907 m 3 X s 841 915 m 3 X s 841 923 m 3 X
 s 838 931 m 6 X s 838 734 m 6 X s 841 725 m 3 X s 838 931 m 6 X s 841 939 m 3 X s 841 948 m 3 X s /w 23 def /w2 {w 2 div} def /w3 {w 3 div} def 584 927 631 928 724 881 818 747 4 { m21} R 1 0 0 c 9 lw 0.95 0.95 0.95 c black 1 0 0 c 539 931 m 15 X 3
 -1 d 6 X 4 -1 d 6 X 3 -1 d 3 -1 d 3 X 3 -1 d 3 X 3 -1 d 3 -1 d 3 -1 d 3 X 3 -1 d 3 -1 d 3 -1 d 3 -1 d 4 -1 d 3 -1 d 3 -1 d 3 -1 d 3 -2 d 3 -1 d 3 -1 d 3 -1 d 3 -2 d 3 -1 d 3 -2 d 3 -1 d 3 -2 d 3 -1 d 3 -2 d 3 -1 d 3 -2 d 4 -2 d 3 -2 d 3 -1 d 3 -2 d
 3 -2 d 3 -2 d 3 -2 d 3 -2 d s 689 881 m 3 -2 d 3 -2 d 3 -2 d 3 -3 d 3 -2 d 3 -2 d 3 -2 d 3 -3 d 4 -2 d 3 -2 d 3 -3 d 3 -2 d 3 -3 d 3 -3 d 3 -2 d 3 -3 d 3 -3 d 3 -2 d 3 -3 d 3 -3 d 3 -3 d 3 -3 d 3 -3 d 3 -3 d 4 -3 d 3 -3 d 3 -3 d 3 -3 d 3 -3 d 3 -4 d
 3 -3 d 3 -3 d 3 -4 d 3 -3 d 3 -3 d 3 -4 d 3 -3 d 3 -4 d 3 -4 d 3 -3 d 4 -4 d 3 -4 d 3 -3 d 3 -4 d 3 -4 d 3 -4 d 3 -4 d 3 -4 d 3 -4 d s 839 732 m 3 -4 d s 0.49 0.6 0.82 c black 0.49 0.6 0.82 c
 gsave  408 305 476 677 C 595.418 960.076 t 0 r /Helvetica-Bold findfont 25.6831 sf 0 0 m (3.0 < E < 3.5 GeV) show NC gr  0.52 0.76 0.64 c black 0.52 0.76 0.64 c
 gsave  408 305 476 677 C 575.476 923.04 t 0 r /Helvetica-Bold findfont 25.6831 sf 0 0 m 
 228 214 200 193 178 171 156 149 133 126 119 105 91 76 69 55 47 39 25 17
(A = \2550.012, p = 2.000) K NC gr  1 0.6 1 c black 1 0.6 1 c
 gsave  408 305 476 677 C 883.156 783.445 t 90 r /Helvetica-Bold findfont 28.5368 sf 0 0 m (/dof=14.3) show NC gr  black 1 0.6 1 c
 gsave  408 305 476 677 C 871.76 772.049 t 90 r /Helvetica-Bold findfont 19.9758 sf 0 0 m (2) show NC gr  black 1 0.6 1 c
 gsave  408 305 476 677 C 883.156 754.956 t 90 r /Symbol findfont 28.5368 sf 0 0 m (c) show NC gr  black 3 lw 1 1 1 c 408 305 930 677 bf black 1 1 1 c black 306 229 991 723 bl 306 229 991 723 bl 991 723 m 306 X s 991 727 m -4 Y s 1084 727 m -4 Y s
 1178 727 m -4 Y s 1271 727 m -4 Y s 1271 727 m -4 Y s
 gsave  408 305 930 677 C 980.018 703.676 t 0 r /Helvetica findfont 22.8295 sf 0 0 m (0) show NC gr 
 gsave  408 305 930 677 C 1076.88 703.676 t 0 r /Helvetica findfont 22.8295 sf 0 0 m (1) show NC gr 
 gsave  408 305 930 677 C 1168.04 703.676 t 0 r /Helvetica findfont 22.8295 sf 0 0 m (2) show NC gr 
 gsave  408 305 930 677 C 1262.06 703.676 t 0 r /Helvetica findfont 22.8295 sf 0 0 m (3) show NC gr  991 952 m 306 X s 991 948 m 4 Y s 1084 948 m 4 Y s 1178 948 m 4 Y s 1271 948 m 4 Y s 1271 948 m 4 Y s 991 723 m 229 Y s 997 730 m -6 X s 994 738 m -3
 X s 994 746 m -3 X s 994 754 m -3 X s 997 761 m -6 X s 994 769 m -3 X s 994 777 m -3 X s 994 785 m -3 X s 997 793 m -6 X s 994 801 m -3 X s 994 809 m -3 X s 994 816 m -3 X s 997 824 m -6 X s 994 832 m -3 X s 994 840 m -3 X s 994 848 m -3 X s 997 856
 m -6 X s 994 864 m -3 X s 994 872 m -3 X s 994 879 m -3 X s 997 887 m -6 X s 994 895 m -3 X s 994 903 m -3 X s 994 911 m -3 X s 997 919 m -6 X s 994 927 m -3 X s 994 935 m -3 X s 994 942 m -3 X s 997 950 m -6 X s 997 730 m -6 X s 997 950 m -6 X s
 gsave  408 305 930 677 C 937.285 723.618 t 0 r /Helvetica findfont 22.8295 sf 0 0 m (\2550.12) show NC gr 
 gsave  408 305 930 677 C 951.529 754.956 t 0 r /Helvetica findfont 22.8295 sf 0 0 m (\2550.1) show NC gr 
 gsave  408 305 930 677 C 937.285 786.294 t 0 r /Helvetica findfont 22.8295 sf 0 0 m (\2550.08) show NC gr 
 gsave  408 305 930 677 C 937.285 817.631 t 0 r /Helvetica findfont 22.8295 sf 0 0 m (\2550.06) show NC gr 
 gsave  408 305 930 677 C 937.285 848.969 t 0 r /Helvetica findfont 22.8295 sf 0 0 m (\2550.04) show NC gr 
 gsave  408 305 930 677 C 937.285 880.307 t 0 r /Helvetica findfont 22.8295 sf 0 0 m (\2550.02) show NC gr 
 gsave  408 305 930 677 C 974.32 911.645 t 0 r /Helvetica findfont 22.8295 sf 0 0 m (0) show NC gr 
 gsave  408 305 930 677 C 942.983 942.983 t 0 r /Helvetica findfont 22.8295 sf 0 0 m (0.02) show NC gr  1297 723 m 229 Y s 1292 730 m 5 X s 1294 738 m 3 X s 1294 746 m 3 X s 1294 754 m 3 X s 1292 761 m 5 X s 1294 769 m 3 X s 1294 777 m 3 X s 1294 785
 m 3 X s 1292 793 m 5 X s 1294 801 m 3 X s 1294 809 m 3 X s 1294 816 m 3 X s 1292 824 m 5 X s 1294 832 m 3 X s 1294 840 m 3 X s 1294 848 m 3 X s 1292 856 m 5 X s 1294 864 m 3 X s 1294 872 m 3 X s 1294 879 m 3 X s 1292 887 m 5 X s 1294 895 m 3 X s
 1294 903 m 3 X s 1294 911 m 3 X s 1292 919 m 5 X s 1294 927 m 3 X s 1294 935 m 3 X s 1294 942 m 3 X s 1292 950 m 5 X s 1292 730 m 5 X s 1292 950 m 5 X s 1038 922 1084 927 1178 877 1271 748 4 { m21} R 1 0 0 c 9 lw 0.95 0.95 0.95 c black 1 0 0 c 993
 919 m 9 X 3 -1 d 9 X 3 -1 d 6 X 3 -1 d 3 X 3 -1 d 3 X 3 -1 d 4 X 3 -1 d 3 -1 d 3 X 3 -1 d 3 -1 d 3 -1 d 3 -1 d 3 X 3 -1 d 3 -1 d 3 -1 d 3 -1 d 3 -2 d 3 -1 d 3 -1 d 3 -1 d 4 -1 d 3 -2 d 3 -1 d 3 -1 d 3 -2 d 3 -1 d 3 -1 d 3 -2 d 3 -1 d 3 -2 d 3 -2 d 3
 -1 d 3 -2 d 3 -2 d 3 -1 d 3 -2 d 4 -2 d s 1143 873 m 3 -2 d 3 -2 d 3 -2 d 3 -2 d 3 -2 d 3 -2 d 3 -2 d 3 -2 d 3 -2 d 3 -3 d 3 -2 d 3 -2 d 3 -2 d 3 -3 d 3 -2 d 4 -3 d 3 -2 d 3 -3 d 3 -2 d 3 -3 d 3 -2 d 3 -3 d 3 -3 d 3 -2 d 3 -3 d 3 -3 d 3 -3 d 3 -3 d
 3 -3 d 3 -3 d 3 -3 d 3 -3 d 4 -3 d 3 -3 d 3 -3 d 3 -3 d 3 -3 d 3 -4 d 3 -3 d 3 -3 d 3 -4 d 3 -3 d 3 -4 d 3 -3 d 3 -4 d 3 -3 d 3 -4 d 3 -3 d 4 -4 d s 1293 737 m 3 -4 d s 0.49 0.6 0.82 c black 0.49 0.6 0.82 c
 gsave  408 305 930 677 C 1051.24 960.076 t 0 r /Helvetica-Bold findfont 25.6831 sf 0 0 m (3.5 < E < 4.0 GeV) show NC gr  0.52 0.76 0.64 c black 0.52 0.76 0.64 c
 gsave  408 305 930 677 C 1031.3 923.04 t 0 r /Helvetica-Bold findfont 25.6831 sf 0 0 m 
 227 213 199 192 177 170 155 148 132 125 118 104 91 77 70 56 47 40 25 18
(A = \2550.011, p = 2.000) K NC gr  1 0.6 1 c black 1 0.6 1 c
 gsave  408 305 930 677 C 1336.13 783.445 t 90 r /Helvetica-Bold findfont 28.5368 sf 0 0 m (/dof=14.9) show NC gr  black 1 0.6 1 c
 gsave  408 305 930 677 C 1324.73 772.049 t 90 r /Helvetica-Bold findfont 19.9758 sf 0 0 m (2) show NC gr  black 1 0.6 1 c
 gsave  408 305 930 677 C 1336.13 754.956 t 90 r /Symbol findfont 28.5368 sf 0 0 m (c) show NC gr  black 3 lw 1 1 1 c 408 305 1383 677 bf black 1 1 1 c black 306 229 1445 723 bl 306 229 1445 723 bl 1445 723 m 306 X s 1445 727 m -4 Y s 1538 727 m -4 Y
 s 1631 727 m -4 Y s 1725 727 m -4 Y s 1725 727 m -4 Y s
 gsave  408 305 1383 677 C 1435.84 703.676 t 0 r /Helvetica findfont 22.8295 sf 0 0 m (0) show NC gr 
 gsave  408 305 1383 677 C 1529.85 703.676 t 0 r /Helvetica findfont 22.8295 sf 0 0 m (1) show NC gr 
 gsave  408 305 1383 677 C 1621.02 703.676 t 0 r /Helvetica findfont 22.8295 sf 0 0 m (2) show NC gr 
 gsave  408 305 1383 677 C 1715.03 703.676 t 0 r /Helvetica findfont 22.8295 sf 0 0 m (3) show NC gr  1445 952 m 306 X s 1445 948 m 4 Y s 1538 948 m 4 Y s 1631 948 m 4 Y s 1725 948 m 4 Y s 1725 948 m 4 Y s 1445 723 m 229 Y s 1450 757 m -5 X s 1447
 767 m -2 X s 1447 777 m -2 X s 1447 787 m -2 X s 1450 797 m -5 X s 1447 807 m -2 X s 1447 817 m -2 X s 1447 827 m -2 X s 1450 837 m -5 X s 1447 847 m -2 X s 1447 858 m -2 X s 1447 868 m -2 X s 1450 878 m -5 X s 1447 888 m -2 X s 1447 898 m -2 X s
 1447 908 m -2 X s 1450 918 m -5 X s 1450 757 m -5 X s 1447 746 m -2 X s 1447 736 m -2 X s 1447 726 m -2 X s 1450 918 m -5 X s 1447 928 m -2 X s 1447 938 m -2 X s 1447 948 m -2 X s
 gsave  408 305 1383 677 C 1390.26 749.258 t 0 r /Helvetica findfont 22.8295 sf 0 0 m (\2550.08) show NC gr 
 gsave  408 305 1383 677 C 1390.26 789.143 t 0 r /Helvetica findfont 22.8295 sf 0 0 m (\2550.06) show NC gr 
 gsave  408 305 1383 677 C 1390.26 829.027 t 0 r /Helvetica findfont 22.8295 sf 0 0 m (\2550.04) show NC gr 
 gsave  408 305 1383 677 C 1390.26 871.76 t 0 r /Helvetica findfont 22.8295 sf 0 0 m (\2550.02) show NC gr 
 gsave  408 305 1383 677 C 1427.29 911.645 t 0 r /Helvetica findfont 22.8295 sf 0 0 m (0) show NC gr  1751 723 m 229 Y s 1745 757 m 6 X s 1748 767 m 3 X s 1748 777 m 3 X s 1748 787 m 3 X s 1745 797 m 6 X s 1748 807 m 3 X s 1748 817 m 3 X s 1748 827 m
 3 X s 1745 837 m 6 X s 1748 847 m 3 X s 1748 858 m 3 X s 1748 868 m 3 X s 1745 878 m 6 X s 1748 888 m 3 X s 1748 898 m 3 X s 1748 908 m 3 X s 1745 918 m 6 X s 1745 757 m 6 X s 1748 746 m 3 X s 1748 736 m 3 X s 1748 726 m 3 X s 1745 918 m 6 X s 1748
 928 m 3 X s 1748 938 m 3 X s 1748 948 m 3 X s 1491 893 1538 922 1631 859 1725 752 4 { m21} R 1 0 0 c 9 lw 0.95 0.95 0.95 c black 1 0 0 c 1446 918 m 15 X 3 -1 d 7 X 3 -1 d 6 X 3 -1 d 3 X 3 -1 d 3 X 3 -1 d 3 -1 d 3 X 3 -1 d 3 -1 d 3 -1 d 3 X 3 -1 d 4
 -1 d 3 -1 d 3 -1 d 3 -1 d 3 -1 d 3 -1 d 3 -2 d 3 -1 d 3 -1 d 3 -1 d 3 -1 d 3 -2 d 3 -1 d 3 -2 d 3 -1 d 3 -1 d 4 -2 d 3 -2 d 3 -1 d 3 -2 d 3 -1 d 3 -2 d 3 -2 d 3 -2 d 3 -2 d 3 -1 d s 1596 872 m 3 -2 d 3 -2 d 3 -2 d 3 -2 d 3 -2 d 3 -2 d 4 -2 d 3 -3 d
 3 -2 d 3 -2 d 3 -2 d 3 -3 d 3 -2 d 3 -2 d 3 -3 d 3 -2 d 3 -3 d 3 -2 d 3 -3 d 3 -3 d 3 -2 d 3 -3 d 3 -3 d 4 -2 d 3 -3 d 3 -3 d 3 -3 d 3 -3 d 3 -3 d 3 -3 d 3 -3 d 3 -3 d 3 -3 d 3 -3 d 3 -3 d 3 -4 d 3 -3 d 3 -3 d 3 -4 d 4 -3 d 3 -3 d 3 -4 d 3 -3 d 3 -4
 d 3 -3 d 3 -4 d 3 -4 d 3 -3 d 3 -4 d s 1746 734 m 3 -4 d s 0.49 0.6 0.82 c black 0.49 0.6 0.82 c
 gsave  408 305 1383 677 C 1504.21 960.076 t 0 r /Helvetica-Bold findfont 25.6831 sf 0 0 m (4.0 < E < 4.5 GeV) show NC gr  0.52 0.76 0.64 c black 0.52 0.76 0.64 c
 gsave  408 305 1383 677 C 1484.27 923.04 t 0 r /Helvetica-Bold findfont 25.6831 sf 0 0 m 
 228 214 200 193 178 171 156 149 134 126 119 105 91 77 69 55 47 40 25 17
(A = \2550.009, p = 2.000) K NC gr  1 0.6 1 c black 1 0.6 1 c
 gsave  408 305 1383 677 C 1789.1 791.991 t 90 r /Helvetica-Bold findfont 28.5368 sf 0 0 m (/dof=3.0) show NC gr  black 1 0.6 1 c
 gsave  408 305 1383 677 C 1777.71 780.596 t 90 r /Helvetica-Bold findfont 19.9758 sf 0 0 m (2) show NC gr  black 1 0.6 1 c
 gsave  408 305 1383 677 C 1789.1 763.503 t 90 r /Symbol findfont 28.5368 sf 0 0 m (c) show NC gr  black 3 lw 1 1 1 c 408 305 1837 677 bf black 1 1 1 c black 306 229 1898 723 bl 306 229 1898 723 bl 1898 723 m 306 X s 1898 727 m -4 Y s 1992 727 m -4 Y
 s 2085 727 m -4 Y s 2179 727 m -4 Y s 2179 727 m -4 Y s
 gsave  408 305 1837 677 C 1888.81 703.676 t 0 r /Helvetica findfont 22.8295 sf 0 0 m (0) show NC gr 
 gsave  408 305 1837 677 C 1985.68 703.676 t 0 r /Helvetica findfont 22.8295 sf 0 0 m (1) show NC gr 
 gsave  408 305 1837 677 C 2073.99 703.676 t 0 r /Helvetica findfont 22.8295 sf 0 0 m (2) show NC gr 
 gsave  408 305 1837 677 C 2168.01 703.676 t 0 r /Helvetica findfont 22.8295 sf 0 0 m (3) show NC gr  1898 952 m 306 X s 1898 948 m 4 Y s 1992 948 m 4 Y s 2085 948 m 4 Y s 2179 948 m 4 Y s 2179 948 m 4 Y s 1898 723 m 229 Y s 1904 756 m -6 X s 1901
 764 m -3 X s 1901 772 m -3 X s 1901 780 m -3 X s 1901 788 m -3 X s 1904 796 m -6 X s 1901 804 m -3 X s 1901 812 m -3 X s 1901 820 m -3 X s 1901 828 m -3 X s 1904 836 m -6 X s 1901 844 m -3 X s 1901 852 m -3 X s 1901 860 m -3 X s 1901 868 m -3 X s
 1904 876 m -6 X s 1901 884 m -3 X s 1901 892 m -3 X s 1901 900 m -3 X s 1901 907 m -3 X s 1904 915 m -6 X s 1904 756 m -6 X s 1901 748 m -3 X s 1901 741 m -3 X s 1901 733 m -3 X s 1901 725 m -3 X s 1904 915 m -6 X s 1901 923 m -3 X s 1901 931 m -3 X
 s 1901 939 m -3 X s 1901 947 m -3 X s
 gsave  408 305 1837 677 C 1843.23 749.258 t 0 r /Helvetica findfont 22.8295 sf 0 0 m (\2550.04) show NC gr 
 gsave  408 305 1837 677 C 1843.23 789.143 t 0 r /Helvetica findfont 22.8295 sf 0 0 m (\2550.03) show NC gr 
 gsave  408 305 1837 677 C 1843.23 829.027 t 0 r /Helvetica findfont 22.8295 sf 0 0 m (\2550.02) show NC gr 
 gsave  408 305 1837 677 C 1846.08 868.911 t 0 r /Helvetica findfont 22.8295 sf 0 0 m (\2550.01) show NC gr 
 gsave  408 305 1837 677 C 1880.27 908.796 t 0 r /Helvetica findfont 22.8295 sf 0 0 m (0) show NC gr  2204 723 m 229 Y s 2199 756 m 5 X s 2201 764 m 3 X s 2201 772 m 3 X s 2201 780 m 3 X s 2201 788 m 3 X s 2199 796 m 5 X s 2201 804 m 3 X s 2201 812 m
 3 X s 2201 820 m 3 X s 2201 828 m 3 X s 2199 836 m 5 X s 2201 844 m 3 X s 2201 852 m 3 X s 2201 860 m 3 X s 2201 868 m 3 X s 2199 876 m 5 X s 2201 884 m 3 X s 2201 892 m 3 X s 2201 900 m 3 X s 2201 907 m 3 X s 2199 915 m 5 X s 2199 756 m 5 X s 2201
 748 m 3 X s 2201 741 m 3 X s 2201 733 m 3 X s 2201 725 m 3 X s 2199 915 m 5 X s 2201 923 m 3 X s 2201 931 m 3 X s 2201 939 m 3 X s 2201 947 m 3 X s 1945 903 1992 865 2085 882 2179 771 4 { m21} R 1945 915 m 18 Y s 1939 933 m 12 X s 1945 892 m -18 Y s
 1939 874 m 12 X s 1992 876 m 18 Y s 1986 894 m 11 X s 1992 853 m -18 Y s 1986 835 m 11 X s 2085 894 m 18 Y s 2079 912 m 12 X s 2085 871 m -18 Y s 2079 853 m 12 X s 2179 782 m 18 Y s 2173 800 m 11 X s 2179 760 m -18 Y s 2173 742 m 11 X s 1 0 0 c 9 lw
 0.95 0.95 0.95 c black 1 0 0 c 1900 915 m 21 X 3 -1 d 6 X 3 -1 d 3 X 3 -1 d 7 X 3 -1 d 3 -1 d 3 X 3 -1 d 3 X 3 -1 d 3 -1 d 3 -1 d 3 X 3 -1 d 3 -1 d 3 -1 d 3 -1 d 3 -1 d 3 -1 d 4 -1 d 3 -1 d 3 -1 d 3 -1 d 3 -1 d 3 -1 d 3 -1 d 3 -2 d 3 -1 d 3 -1 d 3
 -2 d 3 -1 d 3 -1 d 3 -2 d 3 -1 d 3 -2 d 3 -1 d 4 -2 d 3 -1 d s 2050 876 m 3 -2 d 3 -2 d 3 -1 d 3 -2 d 3 -2 d 3 -2 d 3 -2 d 3 -1 d 3 -2 d 3 -2 d 3 -2 d 3 -2 d 3 -2 d 3 -2 d 4 -2 d 3 -2 d 3 -3 d 3 -2 d 3 -2 d 3 -2 d 3 -3 d 3 -2 d 3 -2 d 3 -3 d 3 -2 d
 3 -2 d 3 -3 d 3 -2 d 3 -3 d 3 -2 d 4 -3 d 3 -3 d 3 -2 d 3 -3 d 3 -3 d 3 -3 d 3 -2 d 3 -3 d 3 -3 d 3 -3 d 3 -3 d 3 -3 d 3 -3 d 3 -3 d 3 -3 d 3 -3 d 4 -3 d 3 -3 d 3 -4 d s 2200 757 m 3 -3 d s 0.49 0.6 0.82 c black 0.49 0.6 0.82 c
 gsave  408 305 1837 677 C 1957.19 960.076 t 0 r /Helvetica-Bold findfont 25.6831 sf 0 0 m (4.5 < E < 5.0 GeV) show NC gr  0.52 0.76 0.64 c black 0.52 0.76 0.64 c
 gsave  408 305 1837 677 C 1937.25 923.04 t 0 r /Helvetica-Bold findfont 25.6831 sf 0 0 m 
 228 214 200 193 178 171 156 149 133 126 119 105 91 77 69 55 47 39 25 17
(A = \2550.004, p = 2.000) K NC gr  1 0.6 1 c black 1 0.6 1 c
 gsave  408 305 1837 677 C 2242.08 791.991 t 90 r /Helvetica-Bold findfont 28.5368 sf 0 0 m (/dof=0.8) show NC gr  black 1 0.6 1 c
 gsave  408 305 1837 677 C 2230.68 780.596 t 90 r /Helvetica-Bold findfont 19.9758 sf 0 0 m (2) show NC gr  black 1 0.6 1 c
 gsave  408 305 1837 677 C 2242.08 763.503 t 90 r /Symbol findfont 28.5368 sf 0 0 m (c) show NC gr  black 3 lw 1 1 1 c 408 306 23 345 bf black 1 1 1 c black 306 229 84 391 bl 306 229 84 391 bl 84 391 m 306 X s 84 395 m -4 Y s 177 395 m -4 Y s 271 395
 m -4 Y s 364 395 m -4 Y s 364 395 m -4 Y s
 gsave  408 306 23 345 C 74.0711 370.356 t 0 r /Helvetica findfont 22.8295 sf 0 0 m (0) show NC gr 
 gsave  408 306 23 345 C 170.933 370.356 t 0 r /Helvetica findfont 22.8295 sf 0 0 m (1) show NC gr 
 gsave  408 306 23 345 C 262.098 370.356 t 0 r /Helvetica findfont 22.8295 sf 0 0 m (2) show NC gr 
 gsave  408 306 23 345 C 353.262 370.356 t 0 r /Helvetica findfont 22.8295 sf 0 0 m (3) show NC gr  84 620 m 306 X s 84 616 m 4 Y s 177 616 m 4 Y s 271 616 m 4 Y s 364 616 m 4 Y s 364 616 m 4 Y s 84 391 m 229 Y s 89 414 m -5 X s 87 418 m -3 X s 87
 423 m -3 X s 87 427 m -3 X s 87 432 m -3 X s 89 437 m -5 X s 87 441 m -3 X s 87 446 m -3 X s 87 451 m -3 X s 87 455 m -3 X s 89 460 m -5 X s 87 464 m -3 X s 87 469 m -3 X s 87 474 m -3 X s 87 478 m -3 X s 89 483 m -5 X s 87 488 m -3 X s 87 492 m -3
 X s 87 497 m -3 X s 87 501 m -3 X s 89 506 m -5 X s 87 511 m -3 X s 87 515 m -3 X s 87 520 m -3 X s 87 525 m -3 X s 89 529 m -5 X s 87 534 m -3 X s 87 538 m -3 X s 87 543 m -3 X s 87 548 m -3 X s 89 552 m -5 X s 87 557 m -3 X s 87 562 m -3 X s 87
 566 m -3 X s 87 571 m -3 X s 89 575 m -5 X s 87 580 m -3 X s 87 585 m -3 X s 87 589 m -3 X s 87 594 m -3 X s 89 599 m -5 X s 89 414 m -5 X s 87 409 m -3 X s 87 404 m -3 X s 87 400 m -3 X s 87 395 m -3 X s 89 599 m -5 X s 87 603 m -3 X s 87 608 m -3
 X s 87 612 m -3 X s 87 617 m -3 X s
 gsave  408 306 23 345 C 28.4889 407.391 t 0 r /Helvetica findfont 22.8295 sf 0 0 m (\2550.02) show NC gr 
 gsave  408 306 23 345 C 14.2445 430.182 t 0 r /Helvetica findfont 22.8295 sf 0 0 m (\2550.015) show NC gr 
 gsave  408 306 23 345 C 31.3378 452.974 t 0 r /Helvetica findfont 22.8295 sf 0 0 m (\2550.01) show NC gr 
 gsave  408 306 23 345 C 14.2445 475.765 t 0 r /Helvetica findfont 22.8295 sf 0 0 m (\2550.005) show NC gr 
 gsave  408 306 23 345 C 65.5245 498.556 t 0 r /Helvetica findfont 22.8295 sf 0 0 m (0) show NC gr 
 gsave  408 306 23 345 C 22.7911 521.347 t 0 r /Helvetica findfont 22.8295 sf 0 0 m (0.005) show NC gr 
 gsave  408 306 23 345 C 37.0356 544.138 t 0 r /Helvetica findfont 22.8295 sf 0 0 m (0.01) show NC gr 
 gsave  408 306 23 345 C 22.7911 569.778 t 0 r /Helvetica findfont 22.8295 sf 0 0 m (0.015) show NC gr 
 gsave  408 306 23 345 C 34.1867 592.569 t 0 r /Helvetica findfont 22.8295 sf 0 0 m (0.02) show NC gr  390 391 m 229 Y s 385 414 m 5 X s 387 418 m 3 X s 387 423 m 3 X s 387 427 m 3 X s 387 432 m 3 X s 385 437 m 5 X s 387 441 m 3 X s 387 446 m 3 X s
 387 451 m 3 X s 387 455 m 3 X s 385 460 m 5 X s 387 464 m 3 X s 387 469 m 3 X s 387 474 m 3 X s 387 478 m 3 X s 385 483 m 5 X s 387 488 m 3 X s 387 492 m 3 X s 387 497 m 3 X s 387 501 m 3 X s 385 506 m 5 X s 387 511 m 3 X s 387 515 m 3 X s 387 520 m
 3 X s 387 525 m 3 X s 385 529 m 5 X s 387 534 m 3 X s 387 538 m 3 X s 387 543 m 3 X s 387 548 m 3 X s 385 552 m 5 X s 387 557 m 3 X s 387 562 m 3 X s 387 566 m 3 X s 387 571 m 3 X s 385 575 m 5 X s 387 580 m 3 X s 387 585 m 3 X s 387 589 m 3 X s 387
 594 m 3 X s 385 599 m 5 X s 385 414 m 5 X s 387 409 m 3 X s 387 404 m 3 X s 387 400 m 3 X s 387 395 m 3 X s 385 599 m 5 X s 387 603 m 3 X s 387 608 m 3 X s 387 612 m 3 X s 387 617 m 3 X s /w 22 def /w2 {w 2 div} def /w3 {w 3 div} def 131 553 177 555
 271 455 364 488 4 { m21} R 131 565 m 34 Y s 125 599 m 11 X s 131 542 m -35 Y s 125 507 m 11 X s 177 566 m 35 Y s 172 601 m 11 X s 177 544 m -35 Y s 172 509 m 11 X s 271 466 m 34 Y s 265 500 m 12 X s 271 444 m -34 Y s 265 410 m 12 X s 364 499 m 34 Y
 s 359 533 m 11 X s 364 476 m -34 Y s 359 442 m 11 X s 1 0 0 c 9 lw 0.95 0.95 0.95 c black 1 0 0 c 85 506 m 37 X 3 -1 d 22 X 3 -1 d 15 X 3 -1 d 12 X 3 -1 d 10 X 3 -1 d 9 X 3 -1 d 9 X 3 -1 d 6 X 3 -1 d 6 X s 235 498 m 4 -1 d 6 X 3 -1 d 3 X 3 -1 d 6 X
 3 -1 d 3 X 3 -1 d 6 X 3 -1 d 3 X 3 -1 d 3 X 4 -1 d 3 X 3 -1 d 3 X 3 -1 d 3 X 3 -1 d 3 X 3 -1 d 3 X 3 -1 d 3 X 3 -1 d 3 X 3 -1 d 3 X 4 -1 d 3 X 3 -1 d 3 -1 d 3 X 3 -1 d 3 X 3 -1 d 3 -1 d 3 X 3 -1 d 3 -1 d 3 X 3 -1 d 3 -1 d 3 X s 385 473 m 4 -1 d s
 0.49 0.6 0.82 c black 0.49 0.6 0.82 c
 gsave  408 306 23 345 C 142.445 629.605 t 0 r /Helvetica-Bold findfont 25.6831 sf 0 0 m (5.0 < E < 5.5 GeV) show NC gr  0.52 0.76 0.64 c black 0.52 0.76 0.64 c
 gsave  408 306 23 345 C 122.502 592.569 t 0 r /Helvetica-Bold findfont 25.6831 sf 0 0 m 
 228 214 200 193 178 171 156 149 134 126 119 105 91 77 69 55 47 39 25 17
(A = \2550.001, p = 2.000) K NC gr  1 0.6 1 c black 1 0.6 1 c
 gsave  408 306 23 345 C 427.334 458.671 t 90 r /Helvetica-Bold findfont 28.5368 sf 0 0 m (/dof=1.1) show NC gr  black 1 0.6 1 c
 gsave  408 306 23 345 C 415.938 447.276 t 90 r /Helvetica-Bold findfont 19.9758 sf 0 0 m (2) show NC gr  black 1 0.6 1 c
 gsave  408 306 23 345 C 427.334 430.182 t 90 r /Symbol findfont 28.5368 sf 0 0 m (c) show NC gr  black 3 lw 1 1 1 c 408 306 476 345 bf black 1 1 1 c black 307 229 537 391 bl 307 229 537 391 bl 537 391 m 307 X s 537 395 m -4 Y s 631 395 m -4 Y s 724
 395 m -4 Y s 818 395 m -4 Y s 818 395 m -4 Y s
 gsave  408 306 476 345 C 527.045 370.356 t 0 r /Helvetica findfont 22.8295 sf 0 0 m (0) show NC gr 
 gsave  408 306 476 345 C 623.907 370.356 t 0 r /Helvetica findfont 22.8295 sf 0 0 m (1) show NC gr 
 gsave  408 306 476 345 C 715.071 370.356 t 0 r /Helvetica findfont 22.8295 sf 0 0 m (2) show NC gr 
 gsave  408 306 476 345 C 809.085 370.356 t 0 r /Helvetica findfont 22.8295 sf 0 0 m (3) show NC gr  537 620 m 307 X s 537 616 m 4 Y s 631 616 m 4 Y s 724 616 m 4 Y s 818 616 m 4 Y s 818 616 m 4 Y s 537 391 m 229 Y s 543 419 m -6 X s 540 428 m -3 X s
 540 437 m -3 X s 540 445 m -3 X s 540 454 m -3 X s 543 463 m -6 X s 540 471 m -3 X s 540 480 m -3 X s 540 489 m -3 X s 540 497 m -3 X s 543 506 m -6 X s 540 515 m -3 X s 540 523 m -3 X s 540 532 m -3 X s 540 541 m -3 X s 543 549 m -6 X s 540 558 m
 -3 X s 540 567 m -3 X s 540 575 m -3 X s 540 584 m -3 X s 543 593 m -6 X s 543 419 m -6 X s 540 411 m -3 X s 540 402 m -3 X s 540 393 m -3 X s 543 593 m -6 X s 540 601 m -3 X s 540 610 m -3 X s 540 619 m -3 X s
 gsave  408 306 476 345 C 481.462 413.089 t 0 r /Helvetica findfont 22.8295 sf 0 0 m (\2550.02) show NC gr 
 gsave  408 306 476 345 C 484.311 455.822 t 0 r /Helvetica findfont 22.8295 sf 0 0 m (\2550.01) show NC gr 
 gsave  408 306 476 345 C 518.498 498.556 t 0 r /Helvetica findfont 22.8295 sf 0 0 m (0) show NC gr 
 gsave  408 306 476 345 C 490.009 541.289 t 0 r /Helvetica findfont 22.8295 sf 0 0 m (0.01) show NC gr 
 gsave  408 306 476 345 C 487.16 586.871 t 0 r /Helvetica findfont 22.8295 sf 0 0 m (0.02) show NC gr  844 391 m 229 Y s 838 419 m 6 X s 841 428 m 3 X s 841 437 m 3 X s 841 445 m 3 X s 841 454 m 3 X s 838 463 m 6 X s 841 471 m 3 X s 841 480 m 3 X s
 841 489 m 3 X s 841 497 m 3 X s 838 506 m 6 X s 841 515 m 3 X s 841 523 m 3 X s 841 532 m 3 X s 841 541 m 3 X s 838 549 m 6 X s 841 558 m 3 X s 841 567 m 3 X s 841 575 m 3 X s 841 584 m 3 X s 838 593 m 6 X s 838 419 m 6 X s 841 411 m 3 X s 841 402 m
 3 X s 841 393 m 3 X s 838 593 m 6 X s 841 601 m 3 X s 841 610 m 3 X s 841 619 m 3 X s /w 23 def /w2 {w 2 div} def /w3 {w 3 div} def 584 473 631 463 724 470 818 547 4 { m21} R 584 485 m 41 Y s 578 526 m 12 X s 584 462 m -42 Y s 578 420 m 12 X s 631
 475 m 42 Y s 625 517 m 12 X s 631 452 m -42 Y s 625 410 m 12 X s 724 481 m 42 Y s 719 523 m 11 X s 724 458 m -41 Y s 719 417 m 11 X s 818 558 m 43 Y s 812 601 m 12 X s 818 535 m -42 Y s 812 493 m 12 X s 1 0 0 c 9 lw 0.95 0.95 0.95 c black 1 0 0 c
 539 506 m 49 X 3 1 d 34 X 3 1 d 24 X 3 1 d 19 X 3 1 d 12 X s 689 510 m 3 1 d 15 X 3 1 d 13 X 3 1 d 9 X 3 1 d 9 X 3 1 d 9 X 3 1 d 10 X 3 1 d 6 X 3 1 d 9 X 3 1 d 6 X 3 1 d 6 X 4 1 d 6 X 3 1 d 6 X 3 1 d 6 X s 839 523 m 3 1 d s 0.49 0.6 0.82 c black
 0.49 0.6 0.82 c
 gsave  408 306 476 345 C 595.418 629.605 t 0 r /Helvetica-Bold findfont 25.6831 sf 0 0 m (5.5 < E < 6.0 GeV) show NC gr  0.52 0.76 0.64 c black 0.52 0.76 0.64 c
 gsave  408 306 476 345 C 581.174 592.569 t 0 r /Helvetica-Bold findfont 25.6831 sf 0 0 m 
 220 206 192 185 170 163 148 141 125 118 111 97 83 68 61 47 40 25 18
(A = 0.000, p = 2.000) K NC gr  1 0.6 1 c black 1 0.6 1 c
 gsave  408 306 476 345 C 883.156 458.671 t 90 r /Helvetica-Bold findfont 28.5368 sf 0 0 m (/dof=0.7) show NC gr  black 1 0.6 1 c
 gsave  408 306 476 345 C 871.76 447.276 t 90 r /Helvetica-Bold findfont 19.9758 sf 0 0 m (2) show NC gr  black 1 0.6 1 c
 gsave  408 306 476 345 C 883.156 430.182 t 90 r /Symbol findfont 28.5368 sf 0 0 m (c) show NC gr  black 3 lw 1 1 1 c 408 306 930 345 bf black 1 1 1 c black 306 229 991 391 bl 306 229 991 391 bl 991 391 m 306 X s 991 395 m -4 Y s 1084 395 m -4 Y s
 1178 395 m -4 Y s 1271 395 m -4 Y s 1271 395 m -4 Y s
 gsave  408 306 930 345 C 980.018 370.356 t 0 r /Helvetica findfont 22.8295 sf 0 0 m (0) show NC gr 
 gsave  408 306 930 345 C 1076.88 370.356 t 0 r /Helvetica findfont 22.8295 sf 0 0 m (1) show NC gr 
 gsave  408 306 930 345 C 1168.04 370.356 t 0 r /Helvetica findfont 22.8295 sf 0 0 m (2) show NC gr 
 gsave  408 306 930 345 C 1262.06 370.356 t 0 r /Helvetica findfont 22.8295 sf 0 0 m (3) show NC gr  991 620 m 306 X s 991 616 m 4 Y s 1084 616 m 4 Y s 1178 616 m 4 Y s 1271 616 m 4 Y s 1271 616 m 4 Y s 991 391 m 229 Y s 997 396 m -6 X s 994 403 m -3
 X s 994 409 m -3 X s 994 415 m -3 X s 994 422 m -3 X s 997 428 m -6 X s 994 434 m -3 X s 994 440 m -3 X s 994 447 m -3 X s 994 453 m -3 X s 997 459 m -6 X s 994 466 m -3 X s 994 472 m -3 X s 994 478 m -3 X s 994 484 m -3 X s 997 491 m -6 X s 994 497
 m -3 X s 994 503 m -3 X s 994 509 m -3 X s 994 516 m -3 X s 997 522 m -6 X s 994 528 m -3 X s 994 535 m -3 X s 994 541 m -3 X s 994 547 m -3 X s 997 553 m -6 X s 994 560 m -3 X s 994 566 m -3 X s 994 572 m -3 X s 994 579 m -3 X s 997 585 m -6 X s
 994 591 m -3 X s 994 597 m -3 X s 994 604 m -3 X s 994 610 m -3 X s 997 616 m -6 X s 997 396 m -6 X s 997 616 m -6 X s
 gsave  408 306 930 345 C 937.285 390.298 t 0 r /Helvetica findfont 22.8295 sf 0 0 m (\2550.03) show NC gr 
 gsave  408 306 930 345 C 937.285 421.636 t 0 r /Helvetica findfont 22.8295 sf 0 0 m (\2550.02) show NC gr 
 gsave  408 306 930 345 C 940.134 452.974 t 0 r /Helvetica findfont 22.8295 sf 0 0 m (\2550.01) show NC gr 
 gsave  408 306 930 345 C 974.32 484.311 t 0 r /Helvetica findfont 22.8295 sf 0 0 m (0) show NC gr 
 gsave  408 306 930 345 C 945.832 515.649 t 0 r /Helvetica findfont 22.8295 sf 0 0 m (0.01) show NC gr 
 gsave  408 306 930 345 C 942.983 546.987 t 0 r /Helvetica findfont 22.8295 sf 0 0 m (0.02) show NC gr 
 gsave  408 306 930 345 C 942.983 578.325 t 0 r /Helvetica findfont 22.8295 sf 0 0 m (0.03) show NC gr 
 gsave  408 306 930 345 C 942.983 609.662 t 0 r /Helvetica findfont 22.8295 sf 0 0 m (0.04) show NC gr  1297 391 m 229 Y s 1292 396 m 5 X s 1294 403 m 3 X s 1294 409 m 3 X s 1294 415 m 3 X s 1294 422 m 3 X s 1292 428 m 5 X s 1294 434 m 3 X s 1294 440
 m 3 X s 1294 447 m 3 X s 1294 453 m 3 X s 1292 459 m 5 X s 1294 466 m 3 X s 1294 472 m 3 X s 1294 478 m 3 X s 1294 484 m 3 X s 1292 491 m 5 X s 1294 497 m 3 X s 1294 503 m 3 X s 1294 509 m 3 X s 1294 516 m 3 X s 1292 522 m 5 X s 1294 528 m 3 X s
 1294 535 m 3 X s 1294 541 m 3 X s 1294 547 m 3 X s 1292 553 m 5 X s 1294 560 m 3 X s 1294 566 m 3 X s 1294 572 m 3 X s 1294 579 m 3 X s 1292 585 m 5 X s 1294 591 m 3 X s 1294 597 m 3 X s 1294 604 m 3 X s 1294 610 m 3 X s 1292 616 m 5 X s 1292 396 m
 5 X s 1292 616 m 5 X s 1038 456 1084 459 1178 484 1271 555 4 { m21} R 1038 467 m 34 Y s 1032 501 m 11 X s 1038 444 m -34 Y s 1032 410 m 11 X s 1084 471 m 34 Y s 1079 505 m 11 X s 1084 448 m -34 Y s 1079 414 m 11 X s 1178 495 m 34 Y s 1172 529 m 12 X
 s 1178 472 m -34 Y s 1172 438 m 12 X s 1271 566 m 35 Y s 1266 601 m 11 X s 1271 543 m -34 Y s 1266 509 m 11 X s 1 0 0 c 9 lw 0.95 0.95 0.95 c black 1 0 0 c 993 491 m 33 X 3 1 d 16 X 3 1 d 12 X 3 1 d 6 X 3 1 d 9 X 3 1 d 6 X 4 1 d 3 X 3 1 d 6 X 3 1 d
 3 X 3 1 d 3 X 3 1 d 3 X 3 1 d 3 X 3 1 d 3 X 3 1 d 4 X s 1143 504 m 3 1 d 3 X 3 1 d 3 X 3 1 d 3 1 d 3 X 3 1 d 3 1 d 3 X 3 1 d 3 1 d 3 X 3 1 d 3 1 d 4 X 3 1 d 3 1 d 3 1 d 3 X 3 1 d 3 1 d 3 1 d 3 X 3 1 d 3 1 d 3 1 d 3 1 d 3 1 d 3 1 d 3 X 3 1 d 4 1 d 3
 1 d 3 1 d 3 1 d 3 1 d 3 1 d 3 1 d 3 1 d 3 1 d 3 1 d 3 1 d 3 1 d 3 1 d 3 1 d 3 1 d 3 1 d 4 1 d s 1293 544 m 3 1 d s 0.49 0.6 0.82 c black 0.49 0.6 0.82 c
 gsave  408 306 930 345 C 1051.24 629.605 t 0 r /Helvetica-Bold findfont 25.6831 sf 0 0 m (6.0 < E < 6.5 GeV) show NC gr  0.52 0.76 0.64 c black 0.52 0.76 0.64 c
 gsave  408 306 930 345 C 1037 592.569 t 0 r /Helvetica-Bold findfont 25.6831 sf 0 0 m 
 220 206 192 185 170 163 148 141 125 118 111 97 83 69 61 47 40 25 18
(A = 0.002, p = 2.000) K NC gr  1 0.6 1 c black 1 0.6 1 c
 gsave  408 306 930 345 C 1336.13 458.671 t 90 r /Helvetica-Bold findfont 28.5368 sf 0 0 m (/dof=0.6) show NC gr  black 1 0.6 1 c
 gsave  408 306 930 345 C 1324.73 447.276 t 90 r /Helvetica-Bold findfont 19.9758 sf 0 0 m (2) show NC gr  black 1 0.6 1 c
 gsave  408 306 930 345 C 1336.13 430.182 t 90 r /Symbol findfont 28.5368 sf 0 0 m (c) show NC gr  black 3 lw 1 1 1 c 408 306 1383 345 bf black 1 1 1 c black 306 229 1445 391 bl 306 229 1445 391 bl 1445 391 m 306 X s 1445 395 m -4 Y s 1538 395 m -4 Y
 s 1631 395 m -4 Y s 1725 395 m -4 Y s 1725 395 m -4 Y s
 gsave  408 306 1383 345 C 1435.84 370.356 t 0 r /Helvetica findfont 22.8295 sf 0 0 m (0) show NC gr 
 gsave  408 306 1383 345 C 1529.85 370.356 t 0 r /Helvetica findfont 22.8295 sf 0 0 m (1) show NC gr 
 gsave  408 306 1383 345 C 1621.02 370.356 t 0 r /Helvetica findfont 22.8295 sf 0 0 m (2) show NC gr 
 gsave  408 306 1383 345 C 1715.03 370.356 t 0 r /Helvetica findfont 22.8295 sf 0 0 m (3) show NC gr  1445 620 m 306 X s 1445 616 m 4 Y s 1538 616 m 4 Y s 1631 616 m 4 Y s 1725 616 m 4 Y s 1725 616 m 4 Y s 1445 391 m 229 Y s 1450 418 m -5 X s 1447
 429 m -2 X s 1447 440 m -2 X s 1447 451 m -2 X s 1450 462 m -5 X s 1447 473 m -2 X s 1447 483 m -2 X s 1447 494 m -2 X s 1450 505 m -5 X s 1447 516 m -2 X s 1447 527 m -2 X s 1447 538 m -2 X s 1450 549 m -5 X s 1447 560 m -2 X s 1447 571 m -2 X s
 1447 582 m -2 X s 1450 593 m -5 X s 1450 418 m -5 X s 1447 407 m -2 X s 1447 396 m -2 X s 1450 593 m -5 X s 1447 604 m -2 X s 1447 614 m -2 X s
 gsave  408 306 1383 345 C 1390.26 410.24 t 0 r /Helvetica findfont 22.8295 sf 0 0 m (\2550.04) show NC gr 
 gsave  408 306 1383 345 C 1390.26 455.822 t 0 r /Helvetica findfont 22.8295 sf 0 0 m (\2550.02) show NC gr 
 gsave  408 306 1383 345 C 1427.29 498.556 t 0 r /Helvetica findfont 22.8295 sf 0 0 m (0) show NC gr 
 gsave  408 306 1383 345 C 1395.96 541.289 t 0 r /Helvetica findfont 22.8295 sf 0 0 m (0.02) show NC gr 
 gsave  408 306 1383 345 C 1395.96 586.871 t 0 r /Helvetica findfont 22.8295 sf 0 0 m (0.04) show NC gr  1751 391 m 229 Y s 1745 418 m 6 X s 1748 429 m 3 X s 1748 440 m 3 X s 1748 451 m 3 X s 1745 462 m 6 X s 1748 473 m 3 X s 1748 483 m 3 X s 1748
 494 m 3 X s 1745 505 m 6 X s 1748 516 m 3 X s 1748 527 m 3 X s 1748 538 m 3 X s 1745 549 m 6 X s 1748 560 m 3 X s 1748 571 m 3 X s 1748 582 m 3 X s 1745 593 m 6 X s 1745 418 m 6 X s 1748 407 m 3 X s 1748 396 m 3 X s 1745 593 m 6 X s 1748 604 m 3 X s
 1748 614 m 3 X s 1491 527 1538 445 1631 564 1725 541 4 { m21} R 1491 538 m 25 Y s 1486 563 m 11 X s 1491 515 m -24 Y s 1486 491 m 11 X s 1538 457 m 23 Y s 1532 480 m 12 X s 1538 434 m -24 Y s 1532 410 m 12 X s 1631 576 m 25 Y s 1626 601 m 11 X s
 1631 553 m -25 Y s 1626 528 m 11 X s 1725 552 m 25 Y s 1719 577 m 12 X s 1725 530 m -25 Y s 1719 505 m 12 X s 1 0 0 c 9 lw 0.95 0.95 0.95 c black 1 0 0 c 1446 505 m 18 X 3 1 d 22 X 3 1 d 12 X 3 1 d 9 X 4 1 d 9 X 3 1 d 6 X 3 1 d 6 X 3 1 d 6 X 3 1 d 3
 X 3 1 d 4 X 3 1 d 3 X 3 1 d 3 X 3 1 d 3 X 3 1 d 3 X 3 1 d s 1596 519 m 3 X 3 1 d 3 X 3 1 d 3 X 3 1 d 4 1 d 3 X 3 1 d 3 X 3 1 d 3 1 d 3 X 3 1 d 3 1 d 3 1 d 3 X 3 1 d 3 1 d 3 X 3 1 d 3 1 d 3 1 d 4 1 d 3 X 3 1 d 3 1 d 3 1 d 3 1 d 3 1 d 3 X 3 1 d 3 1 d
 3 1 d 3 1 d 3 1 d 3 1 d 3 1 d 3 1 d 4 1 d 3 1 d 3 1 d 3 1 d 3 1 d 3 1 d 3 1 d 3 1 d 3 1 d 3 1 d s 1746 558 m 3 1 d s 0.49 0.6 0.82 c black 0.49 0.6 0.82 c
 gsave  408 306 1383 345 C 1504.21 629.605 t 0 r /Helvetica-Bold findfont 25.6831 sf 0 0 m (6.5 < E < 7.0 GeV) show NC gr  0.52 0.76 0.64 c black 0.52 0.76 0.64 c
 gsave  408 306 1383 345 C 1489.97 592.569 t 0 r /Helvetica-Bold findfont 25.6831 sf 0 0 m 
 220 206 192 185 170 163 148 141 126 118 111 97 83 69 61 47 40 25 18
(A = 0.002, p = 2.000) K NC gr  1 0.6 1 c black 1 0.6 1 c
 gsave  408 306 1383 345 C 1789.1 458.671 t 90 r /Helvetica-Bold findfont 28.5368 sf 0 0 m (/dof=1.7) show NC gr  black 1 0.6 1 c
 gsave  408 306 1383 345 C 1777.71 447.276 t 90 r /Helvetica-Bold findfont 19.9758 sf 0 0 m (2) show NC gr  black 1 0.6 1 c
 gsave  408 306 1383 345 C 1789.1 430.182 t 90 r /Symbol findfont 28.5368 sf 0 0 m (c) show NC gr  black 3 lw 1 1 1 c 408 306 1837 345 bf black 1 1 1 c black 306 229 1898 391 bl 306 229 1898 391 bl 1898 391 m 306 X s 1898 395 m -4 Y s 1992 395 m -4 Y
 s 2085 395 m -4 Y s 2179 395 m -4 Y s 2179 395 m -4 Y s
 gsave  408 306 1837 345 C 1888.81 370.356 t 0 r /Helvetica findfont 22.8295 sf 0 0 m (0) show NC gr 
 gsave  408 306 1837 345 C 1985.68 370.356 t 0 r /Helvetica findfont 22.8295 sf 0 0 m (1) show NC gr 
 gsave  408 306 1837 345 C 2073.99 370.356 t 0 r /Helvetica findfont 22.8295 sf 0 0 m (2) show NC gr 
 gsave  408 306 1837 345 C 2168.01 370.356 t 0 r /Helvetica findfont 22.8295 sf 0 0 m (3) show NC gr  1898 620 m 306 X s 1898 616 m 4 Y s 1992 616 m 4 Y s 2085 616 m 4 Y s 2179 616 m 4 Y s 2179 616 m 4 Y s 1898 391 m 229 Y s 1904 394 m -6 X s 1901
 399 m -3 X s 1901 403 m -3 X s 1901 408 m -3 X s 1901 413 m -3 X s 1904 418 m -6 X s 1901 422 m -3 X s 1901 427 m -3 X s 1901 432 m -3 X s 1901 436 m -3 X s 1904 441 m -6 X s 1901 446 m -3 X s 1901 450 m -3 X s 1901 455 m -3 X s 1901 460 m -3 X s
 1904 465 m -6 X s 1901 469 m -3 X s 1901 474 m -3 X s 1901 479 m -3 X s 1901 483 m -3 X s 1904 488 m -6 X s 1901 493 m -3 X s 1901 497 m -3 X s 1901 502 m -3 X s 1901 507 m -3 X s 1904 512 m -6 X s 1901 516 m -3 X s 1901 521 m -3 X s 1901 526 m -3 X
 s 1901 530 m -3 X s 1904 535 m -6 X s 1901 540 m -3 X s 1901 544 m -3 X s 1901 549 m -3 X s 1901 554 m -3 X s 1904 558 m -6 X s 1901 563 m -3 X s 1901 568 m -3 X s 1901 573 m -3 X s 1901 577 m -3 X s 1904 582 m -6 X s 1901 587 m -3 X s 1901 591 m -3
 X s 1901 596 m -3 X s 1901 601 m -3 X s 1904 605 m -6 X s 1904 394 m -6 X s 1904 605 m -6 X s 1901 610 m -3 X s 1901 615 m -3 X s 1901 620 m -3 X s
 gsave  408 306 1837 345 C 1843.23 387.449 t 0 r /Helvetica findfont 22.8295 sf 0 0 m (\2550.04) show NC gr 
 gsave  408 306 1837 345 C 1843.23 410.24 t 0 r /Helvetica findfont 22.8295 sf 0 0 m (\2550.03) show NC gr 
 gsave  408 306 1837 345 C 1843.23 433.031 t 0 r /Helvetica findfont 22.8295 sf 0 0 m (\2550.02) show NC gr 
 gsave  408 306 1837 345 C 1846.08 458.671 t 0 r /Helvetica findfont 22.8295 sf 0 0 m (\2550.01) show NC gr 
 gsave  408 306 1837 345 C 1880.27 481.462 t 0 r /Helvetica findfont 22.8295 sf 0 0 m (0) show NC gr 
 gsave  408 306 1837 345 C 1851.78 504.254 t 0 r /Helvetica findfont 22.8295 sf 0 0 m (0.01) show NC gr 
 gsave  408 306 1837 345 C 1848.93 527.045 t 0 r /Helvetica findfont 22.8295 sf 0 0 m (0.02) show NC gr 
 gsave  408 306 1837 345 C 1848.93 552.685 t 0 r /Helvetica findfont 22.8295 sf 0 0 m (0.03) show NC gr 
 gsave  408 306 1837 345 C 1848.93 575.476 t 0 r /Helvetica findfont 22.8295 sf 0 0 m (0.04) show NC gr 
 gsave  408 306 1837 345 C 1848.93 598.267 t 0 r /Helvetica findfont 22.8295 sf 0 0 m (0.05) show NC gr  2204 391 m 229 Y s 2199 394 m 5 X s 2201 399 m 3 X s 2201 403 m 3 X s 2201 408 m 3 X s 2201 413 m 3 X s 2199 418 m 5 X s 2201 422 m 3 X s 2201
 427 m 3 X s 2201 432 m 3 X s 2201 436 m 3 X s 2199 441 m 5 X s 2201 446 m 3 X s 2201 450 m 3 X s 2201 455 m 3 X s 2201 460 m 3 X s 2199 465 m 5 X s 2201 469 m 3 X s 2201 474 m 3 X s 2201 479 m 3 X s 2201 483 m 3 X s 2199 488 m 5 X s 2201 493 m 3 X s
 2201 497 m 3 X s 2201 502 m 3 X s 2201 507 m 3 X s 2199 512 m 5 X s 2201 516 m 3 X s 2201 521 m 3 X s 2201 526 m 3 X s 2201 530 m 3 X s 2199 535 m 5 X s 2201 540 m 3 X s 2201 544 m 3 X s 2201 549 m 3 X s 2201 554 m 3 X s 2199 558 m 5 X s 2201 563 m
 3 X s 2201 568 m 3 X s 2201 573 m 3 X s 2201 577 m 3 X s 2199 582 m 5 X s 2201 587 m 3 X s 2201 591 m 3 X s 2201 596 m 3 X s 2201 601 m 3 X s 2199 605 m 5 X s 2199 394 m 5 X s 2199 605 m 5 X s 2201 610 m 3 X s 2201 615 m 3 X s 2201 620 m 3 X s 1945
 451 1992 558 2085 504 2179 530 4 { m21} R 1945 463 m 30 Y s 1939 493 m 12 X s 1945 440 m -30 Y s 1939 410 m 12 X s 1992 569 m 32 Y s 1986 601 m 11 X s 1992 546 m -31 Y s 1986 515 m 11 X s 2085 515 m 31 Y s 2079 546 m 12 X s 2085 492 m -30 Y s 2079
 462 m 12 X s 2179 542 m 31 Y s 2173 573 m 11 X s 2179 519 m -31 Y s 2173 488 m 11 X s 9 lw 0.95 0.95 0.95 c black 1900 488 m 3 1 d 3 X 3 1 d 3 X 3 1 d 3 X 3 1 d 3 X 3 1 d 6 X 3 1 d 3 X 3 1 d 4 X 3 1 d 3 X 3 1 d 3 X 3 1 d 3 X 3 1 d 3 X 3 1 d 3 X 3 1
 d 3 X 3 1 d 3 X 3 1 d 7 X 3 1 d 3 X 3 1 d 3 X 3 1 d 3 X 3 1 d 3 X 3 1 d 3 X 3 1 d 3 X 3 1 d 3 X 3 1 d 4 X 3 1 d s 2050 512 m 6 X 3 1 d 3 X 3 1 d 3 X 3 1 d 3 X 3 1 d 3 X 3 1 d 3 X 3 1 d 3 X 4 1 d 3 X 3 1 d 3 X 3 1 d 6 X 3 1 d 3 X 3 1 d 3 X 3 1 d 3 X
 3 1 d 3 X 3 1 d 4 X 3 1 d 3 X 3 1 d 3 X 3 1 d 3 X 3 1 d 6 X 3 1 d 3 X 3 1 d 3 X 3 1 d 3 X 4 1 d 3 X 3 1 d s 2200 535 m 3 X s 0.49 0.6 0.82 c black 0.49 0.6 0.82 c
 gsave  408 306 1837 345 C 1957.19 629.605 t 0 r /Helvetica-Bold findfont 25.6831 sf 0 0 m (7.0 < E < 7.5 GeV) show NC gr  0.52 0.76 0.64 c black 0.52 0.76 0.64 c
 gsave  408 306 1837 345 C 1942.94 592.569 t 0 r /Helvetica-Bold findfont 25.6831 sf 0 0 m 
 220 206 192 185 170 163 148 141 125 118 111 97 83 69 61 47 40 25 18
(A = 0.006, p = 1.000) K NC gr  1 0.6 1 c black 1 0.6 1 c
 gsave  408 306 1837 345 C 2242.08 458.671 t 90 r /Helvetica-Bold findfont 28.5368 sf 0 0 m (/dof=1.0) show NC gr  black 1 0.6 1 c
 gsave  408 306 1837 345 C 2230.68 447.276 t 90 r /Helvetica-Bold findfont 19.9758 sf 0 0 m (2) show NC gr  black 1 0.6 1 c
 gsave  408 306 1837 345 C 2242.08 430.182 t 90 r /Symbol findfont 28.5368 sf 0 0 m (c) show NC gr  black 3 lw 1 1 1 c 408 306 23 13 bf black 1 1 1 c black 306 229 84 59 bl 306 229 84 59 bl 84 59 m 306 X s 84 63 m -4 Y s 177 63 m -4 Y s 271 63 m -4 Y
 s 364 63 m -4 Y s 364 63 m -4 Y s
 gsave  408 306 23 13 C 74.0711 39.8845 t 0 r /Helvetica findfont 22.8295 sf 0 0 m (0) show NC gr 
 gsave  408 306 23 13 C 170.933 39.8845 t 0 r /Helvetica findfont 22.8295 sf 0 0 m (1) show NC gr 
 gsave  408 306 23 13 C 262.098 39.8845 t 0 r /Helvetica findfont 22.8295 sf 0 0 m (2) show NC gr 
 gsave  408 306 23 13 C 353.262 39.8845 t 0 r /Helvetica findfont 22.8295 sf 0 0 m (3) show NC gr  84 288 m 306 X s 84 284 m 4 Y s 177 284 m 4 Y s 271 284 m 4 Y s 364 284 m 4 Y s 364 284 m 4 Y s 84 59 m 229 Y s 89 74 m -5 X s 87 84 m -3 X s 87 94 m
 -3 X s 87 104 m -3 X s 89 114 m -5 X s 87 125 m -3 X s 87 135 m -3 X s 87 145 m -3 X s 89 155 m -5 X s 87 165 m -3 X s 87 176 m -3 X s 87 186 m -3 X s 89 196 m -5 X s 87 206 m -3 X s 87 216 m -3 X s 87 227 m -3 X s 89 237 m -5 X s 87 247 m -3 X s 87
 257 m -3 X s 87 267 m -3 X s 89 278 m -5 X s 89 74 m -5 X s 87 64 m -3 X s 89 278 m -5 X s 87 288 m -3 X s
 gsave  408 306 23 13 C 28.4889 65.5245 t 0 r /Helvetica findfont 22.8295 sf 0 0 m (\2550.02) show NC gr 
 gsave  408 306 23 13 C 65.5245 108.258 t 0 r /Helvetica findfont 22.8295 sf 0 0 m (0) show NC gr 
 gsave  408 306 23 13 C 34.1867 148.142 t 0 r /Helvetica findfont 22.8295 sf 0 0 m (0.02) show NC gr 
 gsave  408 306 23 13 C 34.1867 188.027 t 0 r /Helvetica findfont 22.8295 sf 0 0 m (0.04) show NC gr 
 gsave  408 306 23 13 C 34.1867 230.76 t 0 r /Helvetica findfont 22.8295 sf 0 0 m (0.06) show NC gr 
 gsave  408 306 23 13 C 34.1867 270.645 t 0 r /Helvetica findfont 22.8295 sf 0 0 m (0.08) show NC gr  390 59 m 229 Y s 385 74 m 5 X s 387 84 m 3 X s 387 94 m 3 X s 387 104 m 3 X s 385 114 m 5 X s 387 125 m 3 X s 387 135 m 3 X s 387 145 m 3 X s 385
 155 m 5 X s 387 165 m 3 X s 387 176 m 3 X s 387 186 m 3 X s 385 196 m 5 X s 387 206 m 3 X s 387 216 m 3 X s 387 227 m 3 X s 385 237 m 5 X s 387 247 m 3 X s 387 257 m 3 X s 387 267 m 3 X s 385 278 m 5 X s 385 74 m 5 X s 387 64 m 3 X s 385 278 m 5 X s
 387 288 m 3 X s /w 22 def /w2 {w 2 div} def /w3 {w 3 div} def 131 117 177 121 271 148 364 228 4 { m21} R 131 129 m 27 Y s 125 156 m 11 X s 131 106 m -28 Y s 125 78 m 11 X s 177 133 m 28 Y s 172 161 m 11 X s 177 110 m -28 Y s 172 82 m 11 X s 271 159
 m 29 Y s 265 188 m 12 X s 271 137 m -29 Y s 265 108 m 12 X s 364 239 m 30 Y s 359 269 m 11 X s 364 216 m -29 Y s 359 187 m 11 X s 1 0 0 c 9 lw 0.95 0.95 0.95 c black 1 0 0 c 85 114 m 3 1 d 22 X 3 1 d 9 X 3 1 d 3 X 3 1 d 6 X 4 1 d 3 X 3 1 d 3 X 3 1 d
 3 X 3 1 d 3 1 d 3 X 3 1 d 3 1 d 3 X 3 1 d 3 1 d 3 1 d 3 1 d 4 1 d 3 X 3 1 d 3 1 d 3 1 d 3 1 d 3 1 d 3 1 d 3 1 d 3 1 d 3 2 d 3 1 d 3 1 d 3 1 d 3 1 d 3 1 d s 235 145 m 4 2 d 3 1 d 3 1 d 3 2 d 3 1 d 3 1 d 3 2 d 3 1 d 3 2 d 3 1 d 3 2 d 3 1 d 3 2 d 3 2 d
 3 1 d 3 2 d 3 1 d 4 2 d 3 2 d 3 2 d 3 1 d 3 2 d 3 2 d 3 2 d 3 2 d 3 2 d 3 2 d 3 1 d 3 2 d 3 2 d 3 2 d 3 3 d 3 2 d 4 2 d 3 2 d 3 2 d 3 2 d 3 2 d 3 3 d 3 2 d 3 2 d 3 2 d 3 3 d 3 2 d 3 2 d 3 3 d 3 2 d 3 3 d 3 2 d s 385 237 m 4 3 d s 0.49 0.6 0.82 c
 black 0.49 0.6 0.82 c
 gsave  408 306 23 13 C 142.445 296.285 t 0 r /Helvetica-Bold findfont 25.6831 sf 0 0 m (7.5 < E < 8.0 GeV) show NC gr  0.52 0.76 0.64 c black 0.52 0.76 0.64 c
 gsave  408 306 23 13 C 128.2 259.249 t 0 r /Helvetica-Bold findfont 25.6831 sf 0 0 m 
 220 206 192 185 170 163 148 141 126 118 111 97 83 69 61 47 40 25 18
(A = 0.006, p = 2.000) K NC gr  1 0.6 1 c black 1 0.6 1 c
 gsave  408 306 23 13 C 427.334 128.2 t 90 r /Helvetica-Bold findfont 28.5368 sf 0 0 m (/dof=0.1) show NC gr  black 1 0.6 1 c
 gsave  408 306 23 13 C 415.938 116.804 t 90 r /Helvetica-Bold findfont 19.9758 sf 0 0 m (2) show NC gr  black 1 0.6 1 c
 gsave  408 306 23 13 C 427.334 99.7112 t 90 r /Symbol findfont 28.5368 sf 0 0 m (c) show NC gr  black 3 lw 1 1 1 c 408 306 476 13 bf black 1 1 1 c black 307 229 537 59 bl 307 229 537 59 bl 537 59 m 307 X s 537 63 m -4 Y s 631 63 m -4 Y s 724 63 m -4
 Y s 818 63 m -4 Y s 818 63 m -4 Y s
 gsave  408 306 476 13 C 527.045 39.8845 t 0 r /Helvetica findfont 22.8295 sf 0 0 m (0) show NC gr 
 gsave  408 306 476 13 C 623.907 39.8845 t 0 r /Helvetica findfont 22.8295 sf 0 0 m (1) show NC gr 
 gsave  408 306 476 13 C 715.071 39.8845 t 0 r /Helvetica findfont 22.8295 sf 0 0 m (2) show NC gr 
 gsave  408 306 476 13 C 809.085 39.8845 t 0 r /Helvetica findfont 22.8295 sf 0 0 m (3) show NC gr  537 288 m 307 X s 537 284 m 4 Y s 631 284 m 4 Y s 724 284 m 4 Y s 818 284 m 4 Y s 818 284 m 4 Y s 537 59 m 229 Y s 543 60 m -6 X s 540 70 m -3 X s 540
 79 m -3 X s 540 89 m -3 X s 543 99 m -6 X s 540 109 m -3 X s 540 119 m -3 X s 540 129 m -3 X s 543 139 m -6 X s 540 149 m -3 X s 540 158 m -3 X s 540 168 m -3 X s 543 178 m -6 X s 540 188 m -3 X s 540 198 m -3 X s 540 208 m -3 X s 543 218 m -6 X s
 540 228 m -3 X s 540 238 m -3 X s 540 247 m -3 X s 543 257 m -6 X s 543 60 m -6 X s 543 257 m -6 X s 540 267 m -3 X s 540 277 m -3 X s 540 287 m -3 X s
 gsave  408 306 476 13 C 481.462 51.28 t 0 r /Helvetica findfont 22.8295 sf 0 0 m (\2550.04) show NC gr 
 gsave  408 306 476 13 C 481.462 91.1645 t 0 r /Helvetica findfont 22.8295 sf 0 0 m (\2550.02) show NC gr 
 gsave  408 306 476 13 C 518.498 131.049 t 0 r /Helvetica findfont 22.8295 sf 0 0 m (0) show NC gr 
 gsave  408 306 476 13 C 487.16 170.933 t 0 r /Helvetica findfont 22.8295 sf 0 0 m (0.02) show NC gr 
 gsave  408 306 476 13 C 487.16 210.818 t 0 r /Helvetica findfont 22.8295 sf 0 0 m (0.04) show NC gr 
 gsave  408 306 476 13 C 487.16 250.702 t 0 r /Helvetica findfont 22.8295 sf 0 0 m (0.06) show NC gr  844 59 m 229 Y s 838 60 m 6 X s 841 70 m 3 X s 841 79 m 3 X s 841 89 m 3 X s 838 99 m 6 X s 841 109 m 3 X s 841 119 m 3 X s 841 129 m 3 X s 838 139
 m 6 X s 841 149 m 3 X s 841 158 m 3 X s 841 168 m 3 X s 838 178 m 6 X s 841 188 m 3 X s 841 198 m 3 X s 841 208 m 3 X s 838 218 m 6 X s 841 228 m 3 X s 841 238 m 3 X s 841 247 m 3 X s 838 257 m 6 X s 838 60 m 6 X s 838 257 m 6 X s 841 267 m 3 X s
 841 277 m 3 X s 841 287 m 3 X s /w 23 def /w2 {w 2 div} def /w3 {w 3 div} def 584 167 631 133 724 119 818 227 4 { m21} R 584 179 m 29 Y s 578 208 m 12 X s 584 156 m -30 Y s 578 126 m 12 X s 631 144 m 30 Y s 625 174 m 12 X s 631 121 m -29 Y s 625 92
 m 12 X s 724 130 m 29 Y s 719 159 m 11 X s 724 107 m -29 Y s 719 78 m 11 X s 818 238 m 31 Y s 812 269 m 12 X s 818 215 m -30 Y s 812 185 m 12 X s 1 0 0 c 9 lw 0.95 0.95 0.95 c black 1 0 0 c 539 139 m 28 X 3 1 d 12 X 3 1 d 9 X 3 1 d 6 X 3 1 d 6 X 4 1
 d 6 X 3 1 d 3 X 3 1 d 3 X 3 1 d 3 X 3 1 d 3 X 3 1 d 3 X 3 1 d 3 1 d 3 X 3 1 d 4 X 3 1 d 3 1 d 3 X 3 1 d 3 1 d 3 1 d 3 X s 689 157 m 3 1 d 3 1 d 3 1 d 3 X 3 1 d 3 1 d 3 1 d 3 1 d 4 1 d 3 1 d 3 1 d 3 X 3 1 d 3 1 d 3 1 d 3 1 d 3 1 d 3 1 d 3 1 d 3 1 d 3
 1 d 3 2 d 3 1 d 3 1 d 4 1 d 3 1 d 3 1 d 3 1 d 3 2 d 3 1 d 3 1 d 3 1 d 3 1 d 3 2 d 3 1 d 3 1 d 3 2 d 3 1 d 3 1 d 3 2 d 4 1 d 3 1 d 3 2 d 3 1 d 3 2 d 3 1 d 3 1 d 3 2 d 3 1 d s 839 212 m 3 2 d s 0.49 0.6 0.82 c black 0.49 0.6 0.82 c
 gsave  408 306 476 13 C 595.418 296.285 t 0 r /Helvetica-Bold findfont 25.6831 sf 0 0 m (8.0 < E < 8.5 GeV) show NC gr  0.52 0.76 0.64 c black 0.52 0.76 0.64 c
 gsave  408 306 476 13 C 581.174 259.249 t 0 r /Helvetica-Bold findfont 25.6831 sf 0 0 m 
 220 206 192 185 170 163 148 141 125 118 111 97 83 68 61 47 40 25 18
(A = 0.004, p = 2.000) K NC gr  1 0.6 1 c black 1 0.6 1 c
 gsave  408 306 476 13 C 883.156 128.2 t 90 r /Helvetica-Bold findfont 28.5368 sf 0 0 m (/dof=0.8) show NC gr  black 1 0.6 1 c
 gsave  408 306 476 13 C 871.76 116.804 t 90 r /Helvetica-Bold findfont 19.9758 sf 0 0 m (2) show NC gr  black 1 0.6 1 c
 gsave  408 306 476 13 C 883.156 99.7112 t 90 r /Symbol findfont 28.5368 sf 0 0 m (c) show NC gr  black 3 lw 1 1 1 c 408 306 930 13 bf black 1 1 1 c black 306 229 991 59 bl 306 229 991 59 bl 991 59 m 306 X s 991 63 m -4 Y s 1084 63 m -4 Y s 1178 63 m
 -4 Y s 1271 63 m -4 Y s 1271 63 m -4 Y s
 gsave  408 306 930 13 C 980.018 39.8845 t 0 r /Helvetica findfont 22.8295 sf 0 0 m (0) show NC gr 
 gsave  408 306 930 13 C 1076.88 39.8845 t 0 r /Helvetica findfont 22.8295 sf 0 0 m (1) show NC gr 
 gsave  408 306 930 13 C 1168.04 39.8845 t 0 r /Helvetica findfont 22.8295 sf 0 0 m (2) show NC gr 
 gsave  408 306 930 13 C 1262.06 39.8845 t 0 r /Helvetica findfont 22.8295 sf 0 0 m (3) show NC gr  991 288 m 306 X s 991 284 m 4 Y s 1084 284 m 4 Y s 1178 284 m 4 Y s 1271 284 m 4 Y s 1271 284 m 4 Y s 991 59 m 229 Y s 997 98 m -6 X s 994 107 m -3 X
 s 994 117 m -3 X s 994 127 m -3 X s 997 137 m -6 X s 994 146 m -3 X s 994 156 m -3 X s 994 166 m -3 X s 997 176 m -6 X s 994 185 m -3 X s 994 195 m -3 X s 994 205 m -3 X s 997 214 m -6 X s 994 224 m -3 X s 994 234 m -3 X s 994 244 m -3 X s 997 253 m
 -6 X s 997 98 m -6 X s 994 88 m -3 X s 994 78 m -3 X s 994 69 m -3 X s 997 253 m -6 X s 994 263 m -3 X s 994 273 m -3 X s 994 283 m -3 X s
 gsave  408 306 930 13 C 937.285 91.1645 t 0 r /Helvetica findfont 22.8295 sf 0 0 m (\2550.04) show NC gr 
 gsave  408 306 930 13 C 937.285 128.2 t 0 r /Helvetica findfont 22.8295 sf 0 0 m (\2550.02) show NC gr 
 gsave  408 306 930 13 C 974.32 168.085 t 0 r /Helvetica findfont 22.8295 sf 0 0 m (0) show NC gr 
 gsave  408 306 930 13 C 942.983 207.969 t 0 r /Helvetica findfont 22.8295 sf 0 0 m (0.02) show NC gr 
 gsave  408 306 930 13 C 942.983 245.005 t 0 r /Helvetica findfont 22.8295 sf 0 0 m (0.04) show NC gr  1297 59 m 229 Y s 1292 98 m 5 X s 1294 107 m 3 X s 1294 117 m 3 X s 1294 127 m 3 X s 1292 137 m 5 X s 1294 146 m 3 X s 1294 156 m 3 X s 1294 166 m
 3 X s 1292 176 m 5 X s 1294 185 m 3 X s 1294 195 m 3 X s 1294 205 m 3 X s 1292 214 m 5 X s 1294 224 m 3 X s 1294 234 m 3 X s 1294 244 m 3 X s 1292 253 m 5 X s 1292 98 m 5 X s 1294 88 m 3 X s 1294 78 m 3 X s 1294 69 m 3 X s 1292 253 m 5 X s 1294 263
 m 3 X s 1294 273 m 3 X s 1294 283 m 3 X s 1038 225 1084 155 1178 207 1271 119 4 { m21} R 1038 237 m 32 Y s 1032 269 m 11 X s 1038 214 m -32 Y s 1032 182 m 11 X s 1084 167 m 31 Y s 1079 198 m 11 X s 1084 144 m -31 Y s 1079 113 m 11 X s 1178 219 m 31
 Y s 1172 250 m 12 X s 1178 196 m -32 Y s 1172 164 m 12 X s 1271 131 m 30 Y s 1266 161 m 11 X s 1271 108 m -30 Y s 1266 78 m 11 X s 1 0 0 c 9 lw 0.95 0.95 0.95 c black 1 0 0 c 993 176 m 3 X 3 -1 d 36 X 3 -1 d 19 X 3 -1 d 9 X 3 -1 d 9 X 3 -1 d 10 X 3
 -1 d 6 X 3 -1 d 6 X 3 -1 d 6 X 3 -1 d 3 X 3 -1 d 6 X 3 -1 d 4 X s 1143 165 m 3 -1 d 3 X 3 -1 d 6 X 3 -1 d 3 X 3 -1 d 3 X 3 -1 d 3 X 3 -1 d 3 -1 d 3 X 3 -1 d 4 X 3 -1 d 3 X 3 -1 d 3 -1 d 3 X 3 -1 d 3 X 3 -1 d 3 -1 d 3 X 3 -1 d 3 -1 d 3 X 3 -1 d 3 -1
 d 3 X 4 -1 d 3 -1 d 3 -1 d 3 X 3 -1 d 3 -1 d 3 -1 d 3 X 3 -1 d 3 -1 d 3 -1 d 3 -1 d 3 X 3 -1 d 3 -1 d 3 -1 d 4 -1 d s 1293 133 m 3 -1 d s 0.49 0.6 0.82 c black 0.49 0.6 0.82 c
 gsave  408 306 930 13 C 1051.24 296.285 t 0 r /Helvetica-Bold findfont 25.6831 sf 0 0 m (8.5 < E < 9.0 GeV) show NC gr  0.52 0.76 0.64 c black 0.52 0.76 0.64 c
 gsave  408 306 930 13 C 1031.3 259.249 t 0 r /Helvetica-Bold findfont 25.6831 sf 0 0 m 
 228 214 200 193 178 171 156 149 133 126 119 105 91 77 69 55 47 39 25 17
(A = \2550.002, p = 2.000) K NC gr  1 0.6 1 c black 1 0.6 1 c
 gsave  408 306 930 13 C 1336.13 128.2 t 90 r /Helvetica-Bold findfont 28.5368 sf 0 0 m (/dof=1.0) show NC gr  black 1 0.6 1 c
 gsave  408 306 930 13 C 1324.73 116.804 t 90 r /Helvetica-Bold findfont 19.9758 sf 0 0 m (2) show NC gr  black 1 0.6 1 c
 gsave  408 306 930 13 C 1336.13 99.7112 t 90 r /Symbol findfont 28.5368 sf 0 0 m (c) show NC gr  black 3 lw 1 1 1 c 408 306 1383 13 bf black 1 1 1 c black 306 229 1445 59 bl 306 229 1445 59 bl 1445 59 m 306 X s 1445 63 m -4 Y s 1538 63 m -4 Y s 1631
 63 m -4 Y s 1725 63 m -4 Y s 1725 63 m -4 Y s
 gsave  408 306 1383 13 C 1435.84 39.8845 t 0 r /Helvetica findfont 22.8295 sf 0 0 m (0) show NC gr 
 gsave  408 306 1383 13 C 1529.85 39.8845 t 0 r /Helvetica findfont 22.8295 sf 0 0 m (1) show NC gr 
 gsave  408 306 1383 13 C 1621.02 39.8845 t 0 r /Helvetica findfont 22.8295 sf 0 0 m (2) show NC gr 
 gsave  408 306 1383 13 C 1715.03 39.8845 t 0 r /Helvetica findfont 22.8295 sf 0 0 m (3) show NC gr  1445 288 m 306 X s 1445 284 m 4 Y s 1538 284 m 4 Y s 1631 284 m 4 Y s 1725 284 m 4 Y s 1725 284 m 4 Y s 1445 59 m 229 Y s 1450 76 m -5 X s 1447 84 m
 -2 X s 1447 92 m -2 X s 1447 100 m -2 X s 1450 108 m -5 X s 1447 116 m -2 X s 1447 124 m -2 X s 1447 131 m -2 X s 1450 139 m -5 X s 1447 147 m -2 X s 1447 155 m -2 X s 1447 163 m -2 X s 1450 171 m -5 X s 1447 179 m -2 X s 1447 187 m -2 X s 1447 195
 m -2 X s 1450 203 m -5 X s 1447 211 m -2 X s 1447 218 m -2 X s 1447 226 m -2 X s 1450 234 m -5 X s 1447 242 m -2 X s 1447 250 m -2 X s 1447 258 m -2 X s 1450 266 m -5 X s 1450 76 m -5 X s 1447 68 m -2 X s 1447 60 m -2 X s 1450 266 m -5 X s 1447 274
 m -2 X s 1447 282 m -2 X s
 gsave  408 306 1383 13 C 1390.26 68.3734 t 0 r /Helvetica findfont 22.8295 sf 0 0 m (\2550.06) show NC gr 
 gsave  408 306 1383 13 C 1390.26 99.7112 t 0 r /Helvetica findfont 22.8295 sf 0 0 m (\2550.04) show NC gr 
 gsave  408 306 1383 13 C 1390.26 131.049 t 0 r /Helvetica findfont 22.8295 sf 0 0 m (\2550.02) show NC gr 
 gsave  408 306 1383 13 C 1427.29 165.236 t 0 r /Helvetica findfont 22.8295 sf 0 0 m (0) show NC gr 
 gsave  408 306 1383 13 C 1395.96 196.573 t 0 r /Helvetica findfont 22.8295 sf 0 0 m (0.02) show NC gr 
 gsave  408 306 1383 13 C 1395.96 227.911 t 0 r /Helvetica findfont 22.8295 sf 0 0 m (0.04) show NC gr 
 gsave  408 306 1383 13 C 1395.96 259.249 t 0 r /Helvetica findfont 22.8295 sf 0 0 m (0.06) show NC gr  1751 59 m 229 Y s 1745 76 m 6 X s 1748 84 m 3 X s 1748 92 m 3 X s 1748 100 m 3 X s 1745 108 m 6 X s 1748 116 m 3 X s 1748 124 m 3 X s 1748 131 m 3
 X s 1745 139 m 6 X s 1748 147 m 3 X s 1748 155 m 3 X s 1748 163 m 3 X s 1745 171 m 6 X s 1748 179 m 3 X s 1748 187 m 3 X s 1748 195 m 3 X s 1745 203 m 6 X s 1748 211 m 3 X s 1748 218 m 3 X s 1748 226 m 3 X s 1745 234 m 6 X s 1748 242 m 3 X s 1748
 250 m 3 X s 1748 258 m 3 X s 1745 266 m 6 X s 1745 76 m 6 X s 1748 68 m 3 X s 1748 60 m 3 X s 1745 266 m 6 X s 1748 274 m 3 X s 1748 282 m 3 X s 1491 231 1538 114 1631 178 1725 227 4 { m21} R 1491 242 m 27 Y s 1486 269 m 11 X s 1491 219 m -26 Y s
 1486 193 m 11 X s 1538 125 m 24 Y s 1532 149 m 12 X s 1538 102 m -24 Y s 1532 78 m 12 X s 1631 189 m 25 Y s 1626 214 m 11 X s 1631 167 m -25 Y s 1626 142 m 11 X s 1725 238 m 27 Y s 1719 265 m 12 X s 1725 215 m -26 Y s 1719 189 m 12 X s 1 0 0 c 9 lw
 0.95 0.95 0.95 c black 1 0 0 c 1446 171 m 28 X 3 1 d 18 X 3 1 d 12 X 3 1 d 10 X 3 1 d 6 X 3 1 d 6 X 3 1 d 6 X 3 1 d 6 X 3 1 d 3 X 4 1 d 6 X 3 1 d 3 X 3 1 d 3 X 3 1 d 3 X 3 1 d s 1596 184 m 3 X 3 1 d 3 X 3 1 d 3 X 3 1 d 4 1 d 3 X 3 1 d 3 X 3 1 d 3 1
 d 3 X 3 1 d 3 1 d 3 X 3 1 d 3 1 d 3 X 3 1 d 3 1 d 3 1 d 3 X 4 1 d 3 1 d 3 1 d 3 X 3 1 d 3 1 d 3 1 d 3 1 d 3 1 d 3 X 3 1 d 3 1 d 3 1 d 3 1 d 3 1 d 3 1 d 4 1 d 3 1 d 3 X 3 1 d 3 1 d 3 1 d 3 1 d 3 1 d 3 1 d 3 1 d s 1746 221 m 3 1 d s 0.49 0.6 0.82 c
 black 0.49 0.6 0.82 c
 gsave  408 306 1383 13 C 1504.21 296.285 t 0 r /Helvetica-Bold findfont 25.6831 sf 0 0 m (9.0 < E < 9.5 GeV) show NC gr  0.52 0.76 0.64 c black 0.52 0.76 0.64 c
 gsave  408 306 1383 13 C 1489.97 259.249 t 0 r /Helvetica-Bold findfont 25.6831 sf 0 0 m 
 220 206 192 185 170 163 148 141 126 118 111 97 83 69 61 47 40 25 18
(A = 0.003, p = 2.000) K NC gr  1 0.6 1 c black 1 0.6 1 c
 gsave  408 306 1383 13 C 1789.1 128.2 t 90 r /Helvetica-Bold findfont 28.5368 sf 0 0 m (/dof=1.9) show NC gr  black 1 0.6 1 c
 gsave  408 306 1383 13 C 1777.71 116.804 t 90 r /Helvetica-Bold findfont 19.9758 sf 0 0 m (2) show NC gr  black 1 0.6 1 c
 gsave  408 306 1383 13 C 1789.1 99.7112 t 90 r /Symbol findfont 28.5368 sf 0 0 m (c) show NC gr  black 3 lw 1 1 1 c 408 306 1837 13 bf black 1 1 1 c black 306 229 1898 59 bl 306 229 1898 59 bl 1898 59 m 306 X s 1898 63 m -4 Y s 1992 63 m -4 Y s 2085
 63 m -4 Y s 2179 63 m -4 Y s 2179 63 m -4 Y s
 gsave  408 306 1837 13 C 1888.81 39.8845 t 0 r /Helvetica findfont 22.8295 sf 0 0 m (0) show NC gr 
 gsave  408 306 1837 13 C 1985.68 39.8845 t 0 r /Helvetica findfont 22.8295 sf 0 0 m (1) show NC gr 
 gsave  408 306 1837 13 C 2073.99 39.8845 t 0 r /Helvetica findfont 22.8295 sf 0 0 m (2) show NC gr 
 gsave  408 306 1837 13 C 2168.01 39.8845 t 0 r /Helvetica findfont 22.8295 sf 0 0 m (3) show NC gr  1898 288 m 306 X s 1898 284 m 4 Y s 1992 284 m 4 Y s 2085 284 m 4 Y s 2179 284 m 4 Y s 2179 284 m 4 Y s 1898 59 m 229 Y s 1904 83 m -6 X s 1901 95 m
 -3 X s 1901 106 m -3 X s 1901 117 m -3 X s 1904 129 m -6 X s 1901 140 m -3 X s 1901 152 m -3 X s 1901 163 m -3 X s 1904 174 m -6 X s 1901 186 m -3 X s 1901 197 m -3 X s 1901 208 m -3 X s 1904 220 m -6 X s 1901 231 m -3 X s 1901 243 m -3 X s 1901 254
 m -3 X s 1904 265 m -6 X s 1904 83 m -6 X s 1901 72 m -3 X s 1901 61 m -3 X s 1904 265 m -6 X s 1901 277 m -3 X s
 gsave  408 306 1837 13 C 1843.23 76.92 t 0 r /Helvetica findfont 22.8295 sf 0 0 m (\2550.04) show NC gr 
 gsave  408 306 1837 13 C 1843.23 122.502 t 0 r /Helvetica findfont 22.8295 sf 0 0 m (\2550.02) show NC gr 
 gsave  408 306 1837 13 C 1880.27 168.085 t 0 r /Helvetica findfont 22.8295 sf 0 0 m (0) show NC gr 
 gsave  408 306 1837 13 C 1848.93 213.667 t 0 r /Helvetica findfont 22.8295 sf 0 0 m (0.02) show NC gr 
 gsave  408 306 1837 13 C 1848.93 259.249 t 0 r /Helvetica findfont 22.8295 sf 0 0 m (0.04) show NC gr  2204 59 m 229 Y s 2199 83 m 5 X s 2201 95 m 3 X s 2201 106 m 3 X s 2201 117 m 3 X s 2199 129 m 5 X s 2201 140 m 3 X s 2201 152 m 3 X s 2201 163 m
 3 X s 2199 174 m 5 X s 2201 186 m 3 X s 2201 197 m 3 X s 2201 208 m 3 X s 2199 220 m 5 X s 2201 231 m 3 X s 2201 243 m 3 X s 2201 254 m 3 X s 2199 265 m 5 X s 2199 83 m 5 X s 2201 72 m 3 X s 2201 61 m 3 X s 2199 265 m 5 X s 2201 277 m 3 X s 1945 132
 1992 159 2085 201 2179 213 4 { m21} R 1945 144 m 42 Y s 1939 186 m 12 X s 1945 121 m -43 Y s 1939 78 m 12 X s 1992 170 m 43 Y s 1986 213 m 11 X s 1992 148 m -43 Y s 1986 105 m 11 X s 2085 212 m 45 Y s 2079 257 m 12 X s 2085 190 m -45 Y s 2079 145 m
 12 X s 2179 224 m 45 Y s 2173 269 m 11 X s 2179 201 m -44 Y s 2173 157 m 11 X s 1 0 0 c 9 lw 0.95 0.95 0.95 c black 1 0 0 c 1900 174 m 15 X 3 1 d 28 X 3 1 d 15 X 3 1 d 9 X 3 1 d 9 X 3 1 d 7 X 3 1 d 6 X 3 1 d 6 X 3 1 d 6 X 3 1 d 3 X 3 1 d 6 X 3 1 d 4
 X 3 1 d s 2050 186 m 3 X 3 1 d 3 X 3 1 d 3 X 3 1 d 3 X 3 1 d 3 X 3 1 d 3 X 3 1 d 3 1 d 3 X 4 1 d 3 X 3 1 d 3 1 d 3 X 3 1 d 3 X 3 1 d 3 1 d 3 X 3 1 d 3 1 d 3 1 d 3 X 3 1 d 3 1 d 4 1 d 3 X 3 1 d 3 1 d 3 1 d 3 X 3 1 d 3 1 d 3 1 d 3 1 d 3 X 3 1 d 3 1 d
 3 1 d 3 1 d 3 1 d 4 1 d 3 1 d 3 1 d s 2200 220 m 3 X s 0.49 0.6 0.82 c black 0.49 0.6 0.82 c
 gsave  408 306 1837 13 C 1948.64 296.285 t 0 r /Helvetica-Bold findfont 25.6831 sf 0 0 m (9.5 < E < 10.0 GeV) show NC gr  0.52 0.76 0.64 c black 0.52 0.76 0.64 c
 gsave  408 306 1837 13 C 1942.94 259.249 t 0 r /Helvetica-Bold findfont 25.6831 sf 0 0 m 
 220 206 192 185 170 163 148 141 125 118 111 97 83 69 61 47 40 25 18
(A = 0.002, p = 2.000) K NC gr  1 0.6 1 c black 1 0.6 1 c
 gsave  408 306 1837 13 C 2242.08 128.2 t 90 r /Helvetica-Bold findfont 28.5368 sf 0 0 m (/dof=0.3) show NC gr  black 1 0.6 1 c
 gsave  408 306 1837 13 C 2230.68 116.804 t 90 r /Helvetica-Bold findfont 19.9758 sf 0 0 m (2) show NC gr  black 1 0.6 1 c
 gsave  408 306 1837 13 C 2242.08 99.7112 t 90 r /Symbol findfont 28.5368 sf 0 0 m (c) show NC gr 
 gr  gr showpage
end
%%EOF
