%!PS-Adobe-2.0 EPSF-2.0
%%BoundingBox:  0 0 567 332
%%Title: TargetYOffset_nof_fits.eps: Fits
%%Creator: ROOT Version 5.30/06
%%CreationDate: Sun Feb  2 09:29:47 2014
%%EndComments
%%BeginProlog
80 dict begin
/s {stroke} def /l {lineto} def /m {moveto} def /t {translate} def
/r {rotate} def /rl {roll}  def /R {repeat} def
/d {rlineto} def /rm {rmoveto} def /gr {grestore} def /f {eofill} def
/c {setrgbcolor} def /black {0 setgray} def /sd {setdash} def
/cl {closepath} def /sf {scalefont setfont} def /lw {setlinewidth} def
/box {m dup 0 exch d exch 0 d 0 exch neg d cl} def
/NC{systemdict begin initclip end}def/C{NC box clip newpath}def
/bl {box s} def /bf {box f} def /Y { 0 exch d} def /X { 0 d} def 
/K {{pop pop 0 moveto} exch kshow} bind def
/ita {/ang 15 def gsave [1 0 ang dup sin exch cos div 1 0 0] concat} def 
/mp {newpath /y exch def /x exch def} def
/side {[w .77 mul w .23 mul] .385 w mul sd w 0 l currentpoint t -144 r} def
/mr {mp x y w2 0 360 arc} def /m24 {mr s} def /m20 {mr f} def
/mb {mp x y w2 add m w2 neg 0 d 0 w neg d w 0 d 0 w d cl} def
/mt {mp x y w2 add m w2 neg w neg d w 0 d cl} def
/m21 {mb f} def /m25 {mb s} def /m22 {mt f} def /m26{mt s} def
/m23 {mp x y w2 sub m w2 w d w neg 0 d cl f} def
/m27 {mp x y w2 add m w3 neg w2 neg d w3 w2 neg d w3 w2 d cl s} def
/m28 {mp x w2 sub y w2 sub w3 add m w3 0 d  0 w3 neg d w3 0 d 0 w3 d w3 0 d  0 w3 d w3 neg 0 d 0 w3 d w3 neg 0 d 0 w3 neg d w3 neg 0 d cl s } def
/m29 {mp gsave x w2 sub y w2 add w3 sub m currentpoint t 4 {side} repeat cl fill gr} def
/m30 {mp gsave x w2 sub y w2 add w3 sub m currentpoint t 4 {side} repeat cl s gr} def
/m31 {mp x y w2 sub m 0 w d x w2 sub y m w 0 d x w2 sub y w2 add m w w neg d x w2 sub y w2 sub m w w d s} def
/m32 {mp x y w2 sub m w2 w d w neg 0 d cl s} def
/m33 {mp x y w2 add m w3 neg w2 neg d w3 w2 neg d w3 w2 d cl f} def
/m34 {mp x w2 sub y w2 sub w3 add m w3 0 d  0 w3 neg d w3 0 d 0 w3 d w3 0 d  0 w3 d w3 neg 0 d 0 w3 d w3 neg 0 d 0 w3 neg d w3 neg 0 d cl f } def
/m2 {mp x y w2 sub m 0 w d x w2 sub y m w 0 d s} def
/m5 {mp x w2 sub y w2 sub m w w d x w2 sub y w2 add m w w neg d s} def
/reEncode {exch findfont dup length dict begin {1 index /FID eq  {pop pop} {def} ifelse } forall /Encoding exch def currentdict end dup /FontName get exch definefont pop } def [/Times-Bold /Times-Italic /Times-BoldItalic /Helvetica /Helvetica-Oblique
 /Helvetica-Bold /Helvetica-BoldOblique /Courier /Courier-Oblique /Courier-Bold /Courier-BoldOblique /Times-Roman /AvantGarde-Book /AvantGarde-BookOblique /AvantGarde-Demi /AvantGarde-DemiOblique /Bookman-Demi /Bookman-DemiItalic /Bookman-Light
 /Bookman-LightItalic /Helvetica-Narrow /Helvetica-Narrow-Bold /Helvetica-Narrow-BoldOblique /Helvetica-Narrow-Oblique /NewCenturySchlbk-Roman /NewCenturySchlbk-Bold /NewCenturySchlbk-BoldItalic /NewCenturySchlbk-Italic /Palatino-Bold
 /Palatino-BoldItalic /Palatino-Italic /Palatino-Roman ] {ISOLatin1Encoding reEncode } forall%%EndProlog
%%BeginSetup
%%EndSetup
newpath  gsave  .25 .25 scale  gsave  0 0 t black[  ] 0 sd 3 lw 1 1 1 c 2268 1328 0 0 bf black 1 1 1 c 408 305 23 1009 bf black 1 1 1 c black 306 229 84 1055 bl 306 229 84 1055 bl 84 1055 m 306 X s 84 1059 m -4 Y s 177 1059 m -4 Y s 271 1059 m -4 Y s
 364 1059 m -4 Y s 364 1059 m -4 Y s
 gsave  408 305 23 1009 C 74.0711 1034.15 t 0 r /Helvetica findfont 22.8295 sf 0 0 m (0) show NC gr 
 gsave  408 305 23 1009 C 170.933 1034.15 t 0 r /Helvetica findfont 22.8295 sf 0 0 m (1) show NC gr 
 gsave  408 305 23 1009 C 262.098 1034.15 t 0 r /Helvetica findfont 22.8295 sf 0 0 m (2) show NC gr 
 gsave  408 305 23 1009 C 353.262 1034.15 t 0 r /Helvetica findfont 22.8295 sf 0 0 m (3) show NC gr  84 1284 m 306 X s 84 1280 m 4 Y s 177 1280 m 4 Y s 271 1280 m 4 Y s 364 1280 m 4 Y s 364 1280 m 4 Y s 84 1055 m 229 Y s 89 1063 m -5 X s 87 1069 m -3
 X s 87 1075 m -3 X s 87 1080 m -3 X s 87 1086 m -3 X s 89 1091 m -5 X s 87 1097 m -3 X s 87 1103 m -3 X s 87 1108 m -3 X s 87 1114 m -3 X s 89 1119 m -5 X s 87 1125 m -3 X s 87 1130 m -3 X s 87 1136 m -3 X s 87 1142 m -3 X s 89 1147 m -5 X s 87 1153
 m -3 X s 87 1158 m -3 X s 87 1164 m -3 X s 87 1169 m -3 X s 89 1175 m -5 X s 87 1181 m -3 X s 87 1186 m -3 X s 87 1192 m -3 X s 87 1197 m -3 X s 89 1203 m -5 X s 87 1209 m -3 X s 87 1214 m -3 X s 87 1220 m -3 X s 87 1225 m -3 X s 89 1231 m -5 X s 87
 1236 m -3 X s 87 1242 m -3 X s 87 1248 m -3 X s 87 1253 m -3 X s 89 1259 m -5 X s 89 1063 m -5 X s 87 1058 m -3 X s 89 1259 m -5 X s 87 1264 m -3 X s 87 1270 m -3 X s 87 1276 m -3 X s 87 1281 m -3 X s
 gsave  408 305 23 1009 C 14.2445 1056.94 t 0 r /Helvetica findfont 22.8295 sf 0 0 m (\2550.004) show NC gr 
 gsave  408 305 23 1009 C 14.2445 1085.43 t 0 r /Helvetica findfont 22.8295 sf 0 0 m (\2550.003) show NC gr 
 gsave  408 305 23 1009 C 14.2445 1111.07 t 0 r /Helvetica findfont 22.8295 sf 0 0 m (\2550.002) show NC gr 
 gsave  408 305 23 1009 C 17.0933 1139.56 t 0 r /Helvetica findfont 22.8295 sf 0 0 m (\2550.001) show NC gr 
 gsave  408 305 23 1009 C 65.5245 1168.04 t 0 r /Helvetica findfont 22.8295 sf 0 0 m (0) show NC gr 
 gsave  408 305 23 1009 C 25.64 1196.53 t 0 r /Helvetica findfont 22.8295 sf 0 0 m (0.001) show NC gr 
 gsave  408 305 23 1009 C 22.7911 1225.02 t 0 r /Helvetica findfont 22.8295 sf 0 0 m (0.002) show NC gr 
 gsave  408 305 23 1009 C 22.7911 1250.66 t 0 r /Helvetica findfont 22.8295 sf 0 0 m (0.003) show NC gr  390 1055 m 229 Y s 385 1063 m 5 X s 387 1069 m 3 X s 387 1075 m 3 X s 387 1080 m 3 X s 387 1086 m 3 X s 385 1091 m 5 X s 387 1097 m 3 X s 387
 1103 m 3 X s 387 1108 m 3 X s 387 1114 m 3 X s 385 1119 m 5 X s 387 1125 m 3 X s 387 1130 m 3 X s 387 1136 m 3 X s 387 1142 m 3 X s 385 1147 m 5 X s 387 1153 m 3 X s 387 1158 m 3 X s 387 1164 m 3 X s 387 1169 m 3 X s 385 1175 m 5 X s 387 1181 m 3 X
 s 387 1186 m 3 X s 387 1192 m 3 X s 387 1197 m 3 X s 385 1203 m 5 X s 387 1209 m 3 X s 387 1214 m 3 X s 387 1220 m 3 X s 387 1225 m 3 X s 385 1231 m 5 X s 387 1236 m 3 X s 387 1242 m 3 X s 387 1248 m 3 X s 387 1253 m 3 X s 385 1259 m 5 X s 385 1063
 m 5 X s 387 1058 m 3 X s 385 1259 m 5 X s 387 1264 m 3 X s 387 1270 m 3 X s 387 1276 m 3 X s 387 1281 m 3 X s /w 22 def /w2 {w 2 div} def /w3 {w 3 div} def 131 1173 177 1145 271 1188 364 1193 4 { m21} R 131 1184 m 60 Y s 125 1244 m 11 X s 131 1161 m
 -59 Y s 125 1102 m 11 X s 177 1156 m 60 Y s 172 1216 m 11 X s 177 1133 m -59 Y s 172 1074 m 11 X s 271 1199 m 60 Y s 265 1259 m 12 X s 271 1176 m -60 Y s 265 1116 m 12 X s 364 1205 m 60 Y s 359 1265 m 11 X s 364 1182 m -60 Y s 359 1122 m 11 X s 1 0
 0 c 9 lw 0.95 0.95 0.95 c black 1 0 0 c 85 1175 m 43 X 3 1 d 34 X 3 1 d 22 X 3 1 d 15 X 3 1 d 15 X 3 1 d 6 X s 235 1180 m 7 X 3 1 d 9 X 3 1 d 12 X 3 1 d 9 X 3 1 d 7 X 3 1 d 9 X 3 1 d 6 X 3 1 d 6 X 3 1 d 6 X 3 1 d 7 X 3 1 d 6 X 3 1 d 6 X 3 1 d 6 X 3
 1 d 3 X 3 1 d 6 X 3 1 d s 385 1195 m 4 X s 0.49 0.6 0.82 c black 0.49 0.6 0.82 c
 gsave  408 305 23 1009 C 142.445 1293.4 t 0 r /Helvetica-Bold findfont 25.6831 sf 0 0 m (0.0 < E < 0.5 GeV) show NC gr  0.52 0.76 0.64 c black 0.52 0.76 0.64 c
 gsave  408 305 23 1009 C 128.2 1256.36 t 0 r /Helvetica-Bold findfont 25.6831 sf 0 0 m 
 220 206 192 185 170 163 148 141 126 118 111 97 83 69 61 47 40 25 18
(A = 0.000, p = 2.000) K NC gr  1 0.6 1 c black 1 0.6 1 c
 gsave  408 305 23 1009 C 427.334 1122.46 t 90 r /Helvetica-Bold findfont 28.5368 sf 0 0 m (/dof=0.1) show NC gr  black 1 0.6 1 c
 gsave  408 305 23 1009 C 415.938 1111.07 t 90 r /Helvetica-Bold findfont 19.9758 sf 0 0 m (2) show NC gr  black 1 0.6 1 c
 gsave  408 305 23 1009 C 427.334 1093.97 t 90 r /Symbol findfont 28.5368 sf 0 0 m (c) show NC gr  black 3 lw 1 1 1 c 408 305 476 1009 bf black 1 1 1 c black 307 229 537 1055 bl 307 229 537 1055 bl 537 1055 m 307 X s 537 1059 m -4 Y s 631 1059 m -4 Y
 s 724 1059 m -4 Y s 818 1059 m -4 Y s 818 1059 m -4 Y s
 gsave  408 305 476 1009 C 527.045 1034.15 t 0 r /Helvetica findfont 22.8295 sf 0 0 m (0) show NC gr 
 gsave  408 305 476 1009 C 623.907 1034.15 t 0 r /Helvetica findfont 22.8295 sf 0 0 m (1) show NC gr 
 gsave  408 305 476 1009 C 715.071 1034.15 t 0 r /Helvetica findfont 22.8295 sf 0 0 m (2) show NC gr 
 gsave  408 305 476 1009 C 809.085 1034.15 t 0 r /Helvetica findfont 22.8295 sf 0 0 m (3) show NC gr  537 1284 m 307 X s 537 1280 m 4 Y s 631 1280 m 4 Y s 724 1280 m 4 Y s 818 1280 m 4 Y s 818 1280 m 4 Y s 537 1055 m 229 Y s 543 1084 m -6 X s 540
 1095 m -3 X s 540 1106 m -3 X s 540 1117 m -3 X s 543 1128 m -6 X s 540 1139 m -3 X s 540 1150 m -3 X s 540 1161 m -3 X s 543 1172 m -6 X s 540 1183 m -3 X s 540 1194 m -3 X s 540 1205 m -3 X s 543 1215 m -6 X s 540 1226 m -3 X s 540 1237 m -3 X s
 540 1248 m -3 X s 543 1259 m -6 X s 543 1084 m -6 X s 540 1073 m -3 X s 540 1062 m -3 X s 543 1259 m -6 X s 540 1270 m -3 X s 540 1281 m -3 X s
 gsave  408 305 476 1009 C 467.218 1076.88 t 0 r /Helvetica findfont 22.8295 sf 0 0 m (\2550.004) show NC gr 
 gsave  408 305 476 1009 C 467.218 1119.61 t 0 r /Helvetica findfont 22.8295 sf 0 0 m (\2550.002) show NC gr 
 gsave  408 305 476 1009 C 518.498 1165.2 t 0 r /Helvetica findfont 22.8295 sf 0 0 m (0) show NC gr 
 gsave  408 305 476 1009 C 475.765 1207.93 t 0 r /Helvetica findfont 22.8295 sf 0 0 m (0.002) show NC gr 
 gsave  408 305 476 1009 C 475.765 1253.51 t 0 r /Helvetica findfont 22.8295 sf 0 0 m (0.004) show NC gr  844 1055 m 229 Y s 838 1084 m 6 X s 841 1095 m 3 X s 841 1106 m 3 X s 841 1117 m 3 X s 838 1128 m 6 X s 841 1139 m 3 X s 841 1150 m 3 X s 841
 1161 m 3 X s 838 1172 m 6 X s 841 1183 m 3 X s 841 1194 m 3 X s 841 1205 m 3 X s 838 1215 m 6 X s 841 1226 m 3 X s 841 1237 m 3 X s 841 1248 m 3 X s 838 1259 m 6 X s 838 1084 m 6 X s 841 1073 m 3 X s 841 1062 m 3 X s 838 1259 m 6 X s 841 1270 m 3 X
 s 841 1281 m 3 X s /w 23 def /w2 {w 2 div} def /w3 {w 3 div} def 584 1197 631 1168 724 1141 818 1171 4 { m21} R 584 1208 m 57 Y s 578 1265 m 12 X s 584 1186 m -57 Y s 578 1129 m 12 X s 631 1179 m 56 Y s 625 1235 m 12 X s 631 1157 m -56 Y s 625 1101
 m 12 X s 724 1153 m 56 Y s 719 1209 m 11 X s 724 1130 m -56 Y s 719 1074 m 11 X s 818 1182 m 56 Y s 812 1238 m 12 X s 818 1160 m -57 Y s 812 1103 m 12 X s 9 lw 0.95 0.95 0.95 c black 539 1172 m 3 -1 d 21 X 4 -1 d 21 X 3 -1 d 21 X 4 -1 d 21 X 3 -1 d
 21 X 3 -1 d 22 X 3 -1 d s 689 1165 m 24 X 4 -1 d 21 X 3 -1 d 21 X 4 -1 d 21 X 3 -1 d 21 X 4 -1 d 21 X 3 -1 d s 839 1159 m 3 X s 0.49 0.6 0.82 c black 0.49 0.6 0.82 c
 gsave  408 305 476 1009 C 595.418 1293.4 t 0 r /Helvetica-Bold findfont 25.6831 sf 0 0 m (0.5 < E < 1.0 GeV) show NC gr  0.52 0.76 0.64 c black 0.52 0.76 0.64 c
 gsave  408 305 476 1009 C 575.476 1256.36 t 0 r /Helvetica-Bold findfont 25.6831 sf 0 0 m 
 228 214 200 193 178 171 156 149 133 126 119 105 91 76 69 55 47 39 25 17
(A = \2550.000, p = 1.000) K NC gr  1 0.6 1 c black 1 0.6 1 c
 gsave  408 305 476 1009 C 883.156 1122.46 t 90 r /Helvetica-Bold findfont 28.5368 sf 0 0 m (/dof=0.1) show NC gr  black 1 0.6 1 c
 gsave  408 305 476 1009 C 871.76 1111.07 t 90 r /Helvetica-Bold findfont 19.9758 sf 0 0 m (2) show NC gr  black 1 0.6 1 c
 gsave  408 305 476 1009 C 883.156 1093.97 t 90 r /Symbol findfont 28.5368 sf 0 0 m (c) show NC gr  black 3 lw 1 1 1 c 408 305 930 1009 bf black 1 1 1 c black 306 229 991 1055 bl 306 229 991 1055 bl 991 1055 m 306 X s 991 1059 m -4 Y s 1084 1059 m -4
 Y s 1178 1059 m -4 Y s 1271 1059 m -4 Y s 1271 1059 m -4 Y s
 gsave  408 305 930 1009 C 980.018 1034.15 t 0 r /Helvetica findfont 22.8295 sf 0 0 m (0) show NC gr 
 gsave  408 305 930 1009 C 1076.88 1034.15 t 0 r /Helvetica findfont 22.8295 sf 0 0 m (1) show NC gr 
 gsave  408 305 930 1009 C 1168.04 1034.15 t 0 r /Helvetica findfont 22.8295 sf 0 0 m (2) show NC gr 
 gsave  408 305 930 1009 C 1262.06 1034.15 t 0 r /Helvetica findfont 22.8295 sf 0 0 m (3) show NC gr  991 1284 m 306 X s 991 1280 m 4 Y s 1084 1280 m 4 Y s 1178 1280 m 4 Y s 1271 1280 m 4 Y s 1271 1280 m 4 Y s 991 1055 m 229 Y s 997 1075 m -6 X s 994
 1086 m -3 X s 994 1097 m -3 X s 994 1108 m -3 X s 997 1118 m -6 X s 994 1129 m -3 X s 994 1140 m -3 X s 994 1151 m -3 X s 997 1162 m -6 X s 994 1173 m -3 X s 994 1184 m -3 X s 994 1194 m -3 X s 997 1205 m -6 X s 994 1216 m -3 X s 994 1227 m -3 X s
 994 1238 m -3 X s 997 1249 m -6 X s 997 1075 m -6 X s 994 1064 m -3 X s 997 1249 m -6 X s 994 1260 m -3 X s 994 1271 m -3 X s 994 1281 m -3 X s
 gsave  408 305 930 1009 C 923.04 1068.33 t 0 r /Helvetica findfont 22.8295 sf 0 0 m (\2550.004) show NC gr 
 gsave  408 305 930 1009 C 923.04 1111.07 t 0 r /Helvetica findfont 22.8295 sf 0 0 m (\2550.002) show NC gr 
 gsave  408 305 930 1009 C 974.32 1153.8 t 0 r /Helvetica findfont 22.8295 sf 0 0 m (0) show NC gr 
 gsave  408 305 930 1009 C 931.587 1199.38 t 0 r /Helvetica findfont 22.8295 sf 0 0 m (0.002) show NC gr 
 gsave  408 305 930 1009 C 931.587 1242.12 t 0 r /Helvetica findfont 22.8295 sf 0 0 m (0.004) show NC gr  1297 1055 m 229 Y s 1292 1075 m 5 X s 1294 1086 m 3 X s 1294 1097 m 3 X s 1294 1108 m 3 X s 1292 1118 m 5 X s 1294 1129 m 3 X s 1294 1140 m 3 X
 s 1294 1151 m 3 X s 1292 1162 m 5 X s 1294 1173 m 3 X s 1294 1184 m 3 X s 1294 1194 m 3 X s 1292 1205 m 5 X s 1294 1216 m 3 X s 1294 1227 m 3 X s 1294 1238 m 3 X s 1292 1249 m 5 X s 1292 1075 m 5 X s 1294 1064 m 3 X s 1292 1249 m 5 X s 1294 1260 m 3
 X s 1294 1271 m 3 X s 1294 1281 m 3 X s 1038 1140 1084 1160 1178 1198 1271 1174 4 { m21} R 1038 1151 m 55 Y s 1032 1206 m 11 X s 1038 1128 m -54 Y s 1032 1074 m 11 X s 1084 1171 m 55 Y s 1079 1226 m 11 X s 1084 1148 m -54 Y s 1079 1094 m 11 X s 1178
 1210 m 55 Y s 1172 1265 m 12 X s 1178 1187 m -55 Y s 1172 1132 m 12 X s 1271 1185 m 55 Y s 1266 1240 m 11 X s 1271 1162 m -54 Y s 1266 1108 m 11 X s 9 lw 0.95 0.95 0.95 c black 993 1162 m 6 X 3 1 d 9 X 3 1 d 12 X 3 1 d 13 X 3 1 d 9 X 3 1 d 12 X 3 1
 d 9 X 3 1 d 13 X 3 1 d 12 X 3 1 d 9 X 3 1 d 12 X 4 1 d s 1143 1173 m 9 X 3 1 d 12 X 3 1 d 12 X 3 1 d 10 X 3 1 d 12 X 3 1 d 9 X 3 1 d 12 X 3 1 d 13 X 3 1 d 9 X 3 1 d 12 X 3 1 d 10 X s 1293 1183 m 3 1 d s 0.49 0.6 0.82 c black 0.49 0.6 0.82 c
 gsave  408 305 930 1009 C 1051.24 1293.4 t 0 r /Helvetica-Bold findfont 25.6831 sf 0 0 m (1.0 < E < 1.5 GeV) show NC gr  0.52 0.76 0.64 c black 0.52 0.76 0.64 c
 gsave  408 305 930 1009 C 1037 1256.36 t 0 r /Helvetica-Bold findfont 25.6831 sf 0 0 m 
 220 206 192 185 170 163 148 141 125 118 111 97 83 69 61 47 40 25 18
(A = 0.000, p = 1.000) K NC gr  1 0.6 1 c black 1 0.6 1 c
 gsave  408 305 930 1009 C 1336.13 1122.46 t 90 r /Helvetica-Bold findfont 28.5368 sf 0 0 m (/dof=0.1) show NC gr  black 1 0.6 1 c
 gsave  408 305 930 1009 C 1324.73 1111.07 t 90 r /Helvetica-Bold findfont 19.9758 sf 0 0 m (2) show NC gr  black 1 0.6 1 c
 gsave  408 305 930 1009 C 1336.13 1093.97 t 90 r /Symbol findfont 28.5368 sf 0 0 m (c) show NC gr  black 3 lw 1 1 1 c 408 305 1383 1009 bf black 1 1 1 c black 306 229 1445 1055 bl 306 229 1445 1055 bl 1445 1055 m 306 X s 1445 1059 m -4 Y s 1538 1059
 m -4 Y s 1631 1059 m -4 Y s 1725 1059 m -4 Y s 1725 1059 m -4 Y s
 gsave  408 305 1383 1009 C 1435.84 1034.15 t 0 r /Helvetica findfont 22.8295 sf 0 0 m (0) show NC gr 
 gsave  408 305 1383 1009 C 1529.85 1034.15 t 0 r /Helvetica findfont 22.8295 sf 0 0 m (1) show NC gr 
 gsave  408 305 1383 1009 C 1621.02 1034.15 t 0 r /Helvetica findfont 22.8295 sf 0 0 m (2) show NC gr 
 gsave  408 305 1383 1009 C 1715.03 1034.15 t 0 r /Helvetica findfont 22.8295 sf 0 0 m (3) show NC gr  1445 1284 m 306 X s 1445 1280 m 4 Y s 1538 1280 m 4 Y s 1631 1280 m 4 Y s 1725 1280 m 4 Y s 1725 1280 m 4 Y s 1445 1055 m 229 Y s 1450 1071 m -5 X
 s 1447 1081 m -2 X s 1447 1091 m -2 X s 1447 1101 m -2 X s 1450 1111 m -5 X s 1447 1121 m -2 X s 1447 1131 m -2 X s 1447 1141 m -2 X s 1450 1151 m -5 X s 1447 1161 m -2 X s 1447 1171 m -2 X s 1447 1181 m -2 X s 1450 1191 m -5 X s 1447 1201 m -2 X s
 1447 1211 m -2 X s 1447 1221 m -2 X s 1450 1230 m -5 X s 1447 1240 m -2 X s 1447 1250 m -2 X s 1447 1260 m -2 X s 1450 1270 m -5 X s 1450 1071 m -5 X s 1447 1061 m -2 X s 1450 1270 m -5 X s 1447 1280 m -2 X s
 gsave  408 305 1383 1009 C 1376.01 1062.64 t 0 r /Helvetica findfont 22.8295 sf 0 0 m (\2550.006) show NC gr 
 gsave  408 305 1383 1009 C 1376.01 1102.52 t 0 r /Helvetica findfont 22.8295 sf 0 0 m (\2550.004) show NC gr 
 gsave  408 305 1383 1009 C 1376.01 1142.4 t 0 r /Helvetica findfont 22.8295 sf 0 0 m (\2550.002) show NC gr 
 gsave  408 305 1383 1009 C 1427.29 1182.29 t 0 r /Helvetica findfont 22.8295 sf 0 0 m (0) show NC gr 
 gsave  408 305 1383 1009 C 1384.56 1222.17 t 0 r /Helvetica findfont 22.8295 sf 0 0 m (0.002) show NC gr 
 gsave  408 305 1383 1009 C 1384.56 1262.06 t 0 r /Helvetica findfont 22.8295 sf 0 0 m (0.004) show NC gr  1751 1055 m 229 Y s 1745 1071 m 6 X s 1748 1081 m 3 X s 1748 1091 m 3 X s 1748 1101 m 3 X s 1745 1111 m 6 X s 1748 1121 m 3 X s 1748 1131 m 3 X
 s 1748 1141 m 3 X s 1745 1151 m 6 X s 1748 1161 m 3 X s 1748 1171 m 3 X s 1748 1181 m 3 X s 1745 1191 m 6 X s 1748 1201 m 3 X s 1748 1211 m 3 X s 1748 1221 m 3 X s 1745 1230 m 6 X s 1748 1240 m 3 X s 1748 1250 m 3 X s 1748 1260 m 3 X s 1745 1270 m 6
 X s 1745 1071 m 6 X s 1748 1061 m 3 X s 1745 1270 m 6 X s 1748 1280 m 3 X s 1491 1203 1538 1175 1631 1155 1725 1136 4 { m21} R 1491 1214 m 51 Y s 1486 1265 m 11 X s 1491 1191 m -50 Y s 1486 1141 m 11 X s 1538 1186 m 51 Y s 1532 1237 m 12 X s 1538
 1164 m -51 Y s 1532 1113 m 12 X s 1631 1167 m 50 Y s 1626 1217 m 11 X s 1631 1144 m -51 Y s 1626 1093 m 11 X s 1725 1147 m 50 Y s 1719 1197 m 12 X s 1725 1124 m -50 Y s 1719 1074 m 12 X s 1 0 0 c 9 lw 0.95 0.95 0.95 c black 1 0 0 c 1446 1191 m 9 X 3
 -1 d 22 X 3 -1 d 12 X 3 -1 d 9 X 3 -1 d 6 X 4 -1 d 6 X 3 -1 d 3 X 3 -1 d 6 X 3 -1 d 3 X 3 -1 d 3 X 3 -1 d 3 X 3 -1 d 3 X 4 -1 d 3 -1 d 3 X 3 -1 d 3 X 3 -1 d 3 -1 d 3 X 3 -1 d 3 -1 d s 1596 1173 m 3 -1 d 3 X 3 -1 d 3 -1 d 3 -1 d 3 X 4 -1 d 3 -1 d 3
 -1 d 3 -1 d 3 X 3 -1 d 3 -1 d 3 -1 d 3 -1 d 3 -1 d 3 -1 d 3 -1 d 3 -1 d 3 -1 d 3 -1 d 3 -1 d 3 -1 d 4 -1 d 3 -1 d 3 -1 d 3 -1 d 3 -1 d 3 -1 d 3 -1 d 3 -1 d 3 -2 d 3 -1 d 3 -1 d 3 -1 d 3 -1 d 3 -2 d 3 -1 d 3 -1 d 4 -1 d 3 -2 d 3 -1 d 3 -1 d 3 -2 d 3
 -1 d 3 -1 d 3 -2 d 3 -1 d 3 -1 d s 1746 1122 m 3 -2 d s 0.49 0.6 0.82 c black 0.49 0.6 0.82 c
 gsave  408 305 1383 1009 C 1504.21 1293.4 t 0 r /Helvetica-Bold findfont 25.6831 sf 0 0 m (1.5 < E < 2.0 GeV) show NC gr  0.52 0.76 0.64 c black 0.52 0.76 0.64 c
 gsave  408 305 1383 1009 C 1484.27 1256.36 t 0 r /Helvetica-Bold findfont 25.6831 sf 0 0 m 
 228 214 200 193 178 171 156 149 134 126 119 105 91 77 69 55 47 40 25 17
(A = \2550.000, p = 2.000) K NC gr  1 0.6 1 c black 1 0.6 1 c
 gsave  408 305 1383 1009 C 1789.1 1122.46 t 90 r /Helvetica-Bold findfont 28.5368 sf 0 0 m (/dof=0.0) show NC gr  black 1 0.6 1 c
 gsave  408 305 1383 1009 C 1777.71 1111.07 t 90 r /Helvetica-Bold findfont 19.9758 sf 0 0 m (2) show NC gr  black 1 0.6 1 c
 gsave  408 305 1383 1009 C 1789.1 1093.97 t 90 r /Symbol findfont 28.5368 sf 0 0 m (c) show NC gr  black 3 lw 1 1 1 c 408 305 1837 1009 bf black 1 1 1 c black 306 229 1898 1055 bl 306 229 1898 1055 bl 1898 1055 m 306 X s 1898 1059 m -4 Y s 1992 1059
 m -4 Y s 2085 1059 m -4 Y s 2179 1059 m -4 Y s 2179 1059 m -4 Y s
 gsave  408 305 1837 1009 C 1888.81 1034.15 t 0 r /Helvetica findfont 22.8295 sf 0 0 m (0) show NC gr 
 gsave  408 305 1837 1009 C 1985.68 1034.15 t 0 r /Helvetica findfont 22.8295 sf 0 0 m (1) show NC gr 
 gsave  408 305 1837 1009 C 2073.99 1034.15 t 0 r /Helvetica findfont 22.8295 sf 0 0 m (2) show NC gr 
 gsave  408 305 1837 1009 C 2168.01 1034.15 t 0 r /Helvetica findfont 22.8295 sf 0 0 m (3) show NC gr  1898 1284 m 306 X s 1898 1280 m 4 Y s 1992 1280 m 4 Y s 2085 1280 m 4 Y s 2179 1280 m 4 Y s 2179 1280 m 4 Y s 1898 1055 m 229 Y s 1904 1087 m -6 X
 s 1901 1095 m -3 X s 1901 1103 m -3 X s 1901 1111 m -3 X s 1904 1119 m -6 X s 1901 1128 m -3 X s 1901 1136 m -3 X s 1901 1144 m -3 X s 1904 1152 m -6 X s 1901 1161 m -3 X s 1901 1169 m -3 X s 1901 1177 m -3 X s 1904 1185 m -6 X s 1901 1193 m -3 X s
 1901 1202 m -3 X s 1901 1210 m -3 X s 1904 1218 m -6 X s 1901 1226 m -3 X s 1901 1234 m -3 X s 1901 1243 m -3 X s 1904 1251 m -6 X s 1901 1259 m -3 X s 1901 1267 m -3 X s 1901 1275 m -3 X s 1904 1284 m -6 X s 1904 1087 m -6 X s 1901 1078 m -3 X s
 1901 1070 m -3 X s 1901 1062 m -3 X s 1904 1284 m -6 X s
 gsave  408 305 1837 1009 C 1828.99 1079.73 t 0 r /Helvetica findfont 22.8295 sf 0 0 m (\2550.004) show NC gr 
 gsave  408 305 1837 1009 C 1828.99 1111.07 t 0 r /Helvetica findfont 22.8295 sf 0 0 m (\2550.002) show NC gr 
 gsave  408 305 1837 1009 C 1880.27 1145.25 t 0 r /Helvetica findfont 22.8295 sf 0 0 m (0) show NC gr 
 gsave  408 305 1837 1009 C 1837.53 1179.44 t 0 r /Helvetica findfont 22.8295 sf 0 0 m (0.002) show NC gr 
 gsave  408 305 1837 1009 C 1837.53 1210.78 t 0 r /Helvetica findfont 22.8295 sf 0 0 m (0.004) show NC gr 
 gsave  408 305 1837 1009 C 1837.53 1244.96 t 0 r /Helvetica findfont 22.8295 sf 0 0 m (0.006) show NC gr 
 gsave  408 305 1837 1009 C 1837.53 1276.3 t 0 r /Helvetica findfont 22.8295 sf 0 0 m (0.008) show NC gr  2204 1055 m 229 Y s 2199 1087 m 5 X s 2201 1095 m 3 X s 2201 1103 m 3 X s 2201 1111 m 3 X s 2199 1119 m 5 X s 2201 1128 m 3 X s 2201 1136 m 3 X
 s 2201 1144 m 3 X s 2199 1152 m 5 X s 2201 1161 m 3 X s 2201 1169 m 3 X s 2201 1177 m 3 X s 2199 1185 m 5 X s 2201 1193 m 3 X s 2201 1202 m 3 X s 2201 1210 m 3 X s 2199 1218 m 5 X s 2201 1226 m 3 X s 2201 1234 m 3 X s 2201 1243 m 3 X s 2199 1251 m 5
 X s 2201 1259 m 3 X s 2201 1267 m 3 X s 2201 1275 m 3 X s 2199 1284 m 5 X s 2199 1087 m 5 X s 2201 1078 m 3 X s 2201 1070 m 3 X s 2201 1062 m 3 X s 2199 1284 m 5 X s 1945 1161 1992 1128 2085 1204 2179 1211 4 { m21} R 1945 1172 m 43 Y s 1939 1215 m
 12 X s 1945 1149 m -42 Y s 1939 1107 m 12 X s 1992 1139 m 42 Y s 1986 1181 m 11 X s 1992 1116 m -42 Y s 1986 1074 m 11 X s 2085 1216 m 42 Y s 2079 1258 m 12 X s 2085 1193 m -42 Y s 2079 1151 m 12 X s 2179 1222 m 43 Y s 2173 1265 m 11 X s 2179 1199 m
 -42 Y s 2173 1157 m 11 X s 1 0 0 c 9 lw 0.95 0.95 0.95 c black 1 0 0 c 1900 1152 m 12 X 3 1 d 18 X 3 1 d 13 X 3 1 d 6 X 3 1 d 6 X 3 1 d 6 X 3 1 d 3 X 3 1 d 3 X 3 1 d 4 X 3 1 d 3 X 3 1 d 3 X 3 1 d 3 X 3 1 d 3 X 3 1 d 3 1 d 3 X 3 1 d 3 1 d 3 X 3 1 d 3
 1 d 4 1 d 3 X s 2050 1171 m 3 1 d 3 1 d 3 1 d 3 1 d 3 X 3 1 d 3 1 d 3 1 d 3 1 d 3 1 d 3 1 d 3 1 d 3 1 d 3 1 d 4 1 d 3 1 d 3 1 d 3 1 d 3 1 d 3 1 d 3 1 d 3 1 d 3 1 d 3 1 d 3 2 d 3 1 d 3 1 d 3 1 d 3 1 d 3 2 d 4 1 d 3 1 d 3 1 d 3 2 d 3 1 d 3 1 d 3 2 d 3
 1 d 3 1 d 3 2 d 3 1 d 3 2 d 3 1 d 3 1 d 3 2 d 3 1 d 4 2 d 3 1 d 3 2 d s 2200 1228 m 3 1 d s 0.49 0.6 0.82 c black 0.49 0.6 0.82 c
 gsave  408 305 1837 1009 C 1957.19 1293.4 t 0 r /Helvetica-Bold findfont 25.6831 sf 0 0 m (2.0 < E < 2.5 GeV) show NC gr  0.52 0.76 0.64 c black 0.52 0.76 0.64 c
 gsave  408 305 1837 1009 C 1942.94 1256.36 t 0 r /Helvetica-Bold findfont 25.6831 sf 0 0 m 
 220 206 192 185 170 163 148 141 125 118 111 97 83 69 61 47 40 25 18
(A = 0.000, p = 2.000) K NC gr  1 0.6 1 c black 1 0.6 1 c
 gsave  408 305 1837 1009 C 2242.08 1122.46 t 90 r /Helvetica-Bold findfont 28.5368 sf 0 0 m (/dof=0.2) show NC gr  black 1 0.6 1 c
 gsave  408 305 1837 1009 C 2230.68 1111.07 t 90 r /Helvetica-Bold findfont 19.9758 sf 0 0 m (2) show NC gr  black 1 0.6 1 c
 gsave  408 305 1837 1009 C 2242.08 1093.97 t 90 r /Symbol findfont 28.5368 sf 0 0 m (c) show NC gr  black 3 lw 1 1 1 c 408 305 23 677 bf black 1 1 1 c black 306 229 84 723 bl 306 229 84 723 bl 84 723 m 306 X s 84 727 m -4 Y s 177 727 m -4 Y s 271
 727 m -4 Y s 364 727 m -4 Y s 364 727 m -4 Y s
 gsave  408 305 23 677 C 74.0711 703.676 t 0 r /Helvetica findfont 22.8295 sf 0 0 m (0) show NC gr 
 gsave  408 305 23 677 C 170.933 703.676 t 0 r /Helvetica findfont 22.8295 sf 0 0 m (1) show NC gr 
 gsave  408 305 23 677 C 262.098 703.676 t 0 r /Helvetica findfont 22.8295 sf 0 0 m (2) show NC gr 
 gsave  408 305 23 677 C 353.262 703.676 t 0 r /Helvetica findfont 22.8295 sf 0 0 m (3) show NC gr  84 952 m 306 X s 84 948 m 4 Y s 177 948 m 4 Y s 271 948 m 4 Y s 364 948 m 4 Y s 364 948 m 4 Y s 84 723 m 229 Y s 89 724 m -5 X s 87 731 m -3 X s 87
 738 m -3 X s 87 745 m -3 X s 89 752 m -5 X s 87 759 m -3 X s 87 766 m -3 X s 87 772 m -3 X s 89 779 m -5 X s 87 786 m -3 X s 87 793 m -3 X s 87 800 m -3 X s 89 807 m -5 X s 87 814 m -3 X s 87 821 m -3 X s 87 828 m -3 X s 89 835 m -5 X s 87 842 m -3
 X s 87 849 m -3 X s 87 856 m -3 X s 89 863 m -5 X s 87 870 m -3 X s 87 877 m -3 X s 87 884 m -3 X s 89 891 m -5 X s 87 898 m -3 X s 87 905 m -3 X s 87 912 m -3 X s 89 919 m -5 X s 87 926 m -3 X s 87 933 m -3 X s 87 940 m -3 X s 89 947 m -5 X s 89
 724 m -5 X s 89 947 m -5 X s
 gsave  408 305 23 677 C 14.2445 717.92 t 0 r /Helvetica findfont 22.8295 sf 0 0 m (\2550.008) show NC gr 
 gsave  408 305 23 677 C 14.2445 743.56 t 0 r /Helvetica findfont 22.8295 sf 0 0 m (\2550.006) show NC gr 
 gsave  408 305 23 677 C 14.2445 772.049 t 0 r /Helvetica findfont 22.8295 sf 0 0 m (\2550.004) show NC gr 
 gsave  408 305 23 677 C 14.2445 800.538 t 0 r /Helvetica findfont 22.8295 sf 0 0 m (\2550.002) show NC gr 
 gsave  408 305 23 677 C 65.5245 829.027 t 0 r /Helvetica findfont 22.8295 sf 0 0 m (0) show NC gr 
 gsave  408 305 23 677 C 22.7911 854.667 t 0 r /Helvetica findfont 22.8295 sf 0 0 m (0.002) show NC gr 
 gsave  408 305 23 677 C 22.7911 883.156 t 0 r /Helvetica findfont 22.8295 sf 0 0 m (0.004) show NC gr 
 gsave  408 305 23 677 C 22.7911 911.645 t 0 r /Helvetica findfont 22.8295 sf 0 0 m (0.006) show NC gr 
 gsave  408 305 23 677 C 22.7911 940.134 t 0 r /Helvetica findfont 22.8295 sf 0 0 m (0.008) show NC gr  390 723 m 229 Y s 385 724 m 5 X s 387 731 m 3 X s 387 738 m 3 X s 387 745 m 3 X s 385 752 m 5 X s 387 759 m 3 X s 387 766 m 3 X s 387 772 m 3 X s
 385 779 m 5 X s 387 786 m 3 X s 387 793 m 3 X s 387 800 m 3 X s 385 807 m 5 X s 387 814 m 3 X s 387 821 m 3 X s 387 828 m 3 X s 385 835 m 5 X s 387 842 m 3 X s 387 849 m 3 X s 387 856 m 3 X s 385 863 m 5 X s 387 870 m 3 X s 387 877 m 3 X s 387 884 m
 3 X s 385 891 m 5 X s 387 898 m 3 X s 387 905 m 3 X s 387 912 m 3 X s 385 919 m 5 X s 387 926 m 3 X s 387 933 m 3 X s 387 940 m 3 X s 385 947 m 5 X s 385 724 m 5 X s 385 947 m 5 X s /w 22 def /w2 {w 2 div} def /w3 {w 3 div} def 131 861 177 791 271
 883 364 842 4 { m21} R 131 872 m 39 Y s 125 911 m 11 X s 131 850 m -39 Y s 125 811 m 11 X s 177 802 m 38 Y s 172 840 m 11 X s 177 779 m -37 Y s 172 742 m 11 X s 271 895 m 38 Y s 265 933 m 12 X s 271 872 m -39 Y s 265 833 m 12 X s 364 853 m 39 Y s
 359 892 m 11 X s 364 831 m -38 Y s 359 793 m 11 X s 9 lw 0.95 0.95 0.95 c black 85 835 m 3 1 d 16 X 3 1 d 12 X 3 1 d 12 X 3 1 d 13 X 3 1 d 15 X 3 1 d 12 X 3 1 d 13 X 3 1 d 12 X 3 1 d 15 X 3 1 d s 235 845 m 13 X 3 1 d 12 X 3 1 d 12 X 3 1 d 16 X 3 1 d
 12 X 3 1 d 12 X 3 1 d 13 X 3 1 d 12 X 3 1 d 15 X 3 1 d 6 X s 385 854 m 4 X s 0.49 0.6 0.82 c black 0.49 0.6 0.82 c
 gsave  408 305 23 677 C 142.445 960.076 t 0 r /Helvetica-Bold findfont 25.6831 sf 0 0 m (2.5 < E < 3.0 GeV) show NC gr  0.52 0.76 0.64 c black 0.52 0.76 0.64 c
 gsave  408 305 23 677 C 128.2 923.04 t 0 r /Helvetica-Bold findfont 25.6831 sf 0 0 m 
 220 206 192 185 170 163 148 141 126 118 111 97 83 69 61 47 40 25 18
(A = 0.000, p = 1.000) K NC gr  1 0.6 1 c black 1 0.6 1 c
 gsave  408 305 23 677 C 427.334 791.991 t 90 r /Helvetica-Bold findfont 28.5368 sf 0 0 m (/dof=0.6) show NC gr  black 1 0.6 1 c
 gsave  408 305 23 677 C 415.938 780.596 t 90 r /Helvetica-Bold findfont 19.9758 sf 0 0 m (2) show NC gr  black 1 0.6 1 c
 gsave  408 305 23 677 C 427.334 763.503 t 90 r /Symbol findfont 28.5368 sf 0 0 m (c) show NC gr  black 3 lw 1 1 1 c 408 305 476 677 bf black 1 1 1 c black 307 229 537 723 bl 307 229 537 723 bl 537 723 m 307 X s 537 727 m -4 Y s 631 727 m -4 Y s 724
 727 m -4 Y s 818 727 m -4 Y s 818 727 m -4 Y s
 gsave  408 305 476 677 C 527.045 703.676 t 0 r /Helvetica findfont 22.8295 sf 0 0 m (0) show NC gr 
 gsave  408 305 476 677 C 623.907 703.676 t 0 r /Helvetica findfont 22.8295 sf 0 0 m (1) show NC gr 
 gsave  408 305 476 677 C 715.071 703.676 t 0 r /Helvetica findfont 22.8295 sf 0 0 m (2) show NC gr 
 gsave  408 305 476 677 C 809.085 703.676 t 0 r /Helvetica findfont 22.8295 sf 0 0 m (3) show NC gr  537 952 m 307 X s 537 948 m 4 Y s 631 948 m 4 Y s 724 948 m 4 Y s 818 948 m 4 Y s 818 948 m 4 Y s 537 723 m 229 Y s 543 728 m -6 X s 540 734 m -3 X s
 540 740 m -3 X s 540 747 m -3 X s 543 753 m -6 X s 540 759 m -3 X s 540 765 m -3 X s 540 772 m -3 X s 543 778 m -6 X s 540 784 m -3 X s 540 790 m -3 X s 540 796 m -3 X s 543 803 m -6 X s 540 809 m -3 X s 540 815 m -3 X s 540 821 m -3 X s 543 827 m
 -6 X s 540 834 m -3 X s 540 840 m -3 X s 540 846 m -3 X s 543 852 m -6 X s 540 859 m -3 X s 540 865 m -3 X s 540 871 m -3 X s 543 877 m -6 X s 540 883 m -3 X s 540 890 m -3 X s 540 896 m -3 X s 543 902 m -6 X s 540 908 m -3 X s 540 914 m -3 X s 540
 921 m -3 X s 543 927 m -6 X s 540 933 m -3 X s 540 939 m -3 X s 540 946 m -3 X s 543 952 m -6 X s 543 728 m -6 X s 543 952 m -6 X s
 gsave  408 305 476 677 C 467.218 720.769 t 0 r /Helvetica findfont 22.8295 sf 0 0 m (\2550.008) show NC gr 
 gsave  408 305 476 677 C 467.218 746.409 t 0 r /Helvetica findfont 22.8295 sf 0 0 m (\2550.006) show NC gr 
 gsave  408 305 476 677 C 467.218 772.049 t 0 r /Helvetica findfont 22.8295 sf 0 0 m (\2550.004) show NC gr 
 gsave  408 305 476 677 C 467.218 794.84 t 0 r /Helvetica findfont 22.8295 sf 0 0 m (\2550.002) show NC gr 
 gsave  408 305 476 677 C 518.498 820.48 t 0 r /Helvetica findfont 22.8295 sf 0 0 m (0) show NC gr 
 gsave  408 305 476 677 C 475.765 846.12 t 0 r /Helvetica findfont 22.8295 sf 0 0 m (0.002) show NC gr 
 gsave  408 305 476 677 C 475.765 868.911 t 0 r /Helvetica findfont 22.8295 sf 0 0 m (0.004) show NC gr 
 gsave  408 305 476 677 C 475.765 894.552 t 0 r /Helvetica findfont 22.8295 sf 0 0 m (0.006) show NC gr 
 gsave  408 305 476 677 C 475.765 920.192 t 0 r /Helvetica findfont 22.8295 sf 0 0 m (0.008) show NC gr 
 gsave  408 305 476 677 C 490.009 945.832 t 0 r /Helvetica findfont 22.8295 sf 0 0 m (0.01) show NC gr  844 723 m 229 Y s 838 728 m 6 X s 841 734 m 3 X s 841 740 m 3 X s 841 747 m 3 X s 838 753 m 6 X s 841 759 m 3 X s 841 765 m 3 X s 841 772 m 3 X s
 838 778 m 6 X s 841 784 m 3 X s 841 790 m 3 X s 841 796 m 3 X s 838 803 m 6 X s 841 809 m 3 X s 841 815 m 3 X s 841 821 m 3 X s 838 827 m 6 X s 841 834 m 3 X s 841 840 m 3 X s 841 846 m 3 X s 838 852 m 6 X s 841 859 m 3 X s 841 865 m 3 X s 841 871 m
 3 X s 838 877 m 6 X s 841 883 m 3 X s 841 890 m 3 X s 841 896 m 3 X s 838 902 m 6 X s 841 908 m 3 X s 841 914 m 3 X s 841 921 m 3 X s 838 927 m 6 X s 841 933 m 3 X s 841 939 m 3 X s 841 946 m 3 X s 838 952 m 6 X s 838 728 m 6 X s 838 952 m 6 X s /w
 23 def /w2 {w 2 div} def /w3 {w 3 div} def 584 836 631 883 724 792 818 819 4 { m21} R 584 848 m 38 Y s 578 886 m 12 X s 584 825 m -39 Y s 578 786 m 12 X s 631 894 m 39 Y s 625 933 m 12 X s 631 871 m -38 Y s 625 833 m 12 X s 724 803 m 38 Y s 719 841
 m 11 X s 724 780 m -38 Y s 719 742 m 11 X s 818 831 m 38 Y s 812 869 m 12 X s 818 808 m -39 Y s 812 769 m 12 X s 1 0 0 c 9 lw 0.95 0.95 0.95 c black 1 0 0 c 539 827 m 70 X 3 -1 d 28 X 3 -1 d 18 X 3 -1 d 16 X 3 -1 d 6 X s 689 823 m 9 X 3 -1 d 12 X 4
 -1 d 12 X 3 -1 d 9 X 3 -1 d 9 X 3 -1 d 10 X 3 -1 d 9 X 3 -1 d 6 X 3 -1 d 9 X 3 -1 d 6 X 3 -1 d 7 X 3 -1 d 6 X 3 -1 d 6 X 3 -1 d s 839 810 m 3 X s 0.49 0.6 0.82 c black 0.49 0.6 0.82 c
 gsave  408 305 476 677 C 595.418 960.076 t 0 r /Helvetica-Bold findfont 25.6831 sf 0 0 m (3.0 < E < 3.5 GeV) show NC gr  0.52 0.76 0.64 c black 0.52 0.76 0.64 c
 gsave  408 305 476 677 C 575.476 923.04 t 0 r /Helvetica-Bold findfont 25.6831 sf 0 0 m 
 228 214 200 193 178 171 156 149 133 126 119 105 91 76 69 55 47 39 25 17
(A = \2550.000, p = 2.000) K NC gr  1 0.6 1 c black 1 0.6 1 c
 gsave  408 305 476 677 C 883.156 791.991 t 90 r /Helvetica-Bold findfont 28.5368 sf 0 0 m (/dof=0.6) show NC gr  black 1 0.6 1 c
 gsave  408 305 476 677 C 871.76 780.596 t 90 r /Helvetica-Bold findfont 19.9758 sf 0 0 m (2) show NC gr  black 1 0.6 1 c
 gsave  408 305 476 677 C 883.156 763.503 t 90 r /Symbol findfont 28.5368 sf 0 0 m (c) show NC gr  black 3 lw 1 1 1 c 408 305 930 677 bf black 1 1 1 c black 306 229 991 723 bl 306 229 991 723 bl 991 723 m 306 X s 991 727 m -4 Y s 1084 727 m -4 Y s
 1178 727 m -4 Y s 1271 727 m -4 Y s 1271 727 m -4 Y s
 gsave  408 305 930 677 C 980.018 703.676 t 0 r /Helvetica findfont 22.8295 sf 0 0 m (0) show NC gr 
 gsave  408 305 930 677 C 1076.88 703.676 t 0 r /Helvetica findfont 22.8295 sf 0 0 m (1) show NC gr 
 gsave  408 305 930 677 C 1168.04 703.676 t 0 r /Helvetica findfont 22.8295 sf 0 0 m (2) show NC gr 
 gsave  408 305 930 677 C 1262.06 703.676 t 0 r /Helvetica findfont 22.8295 sf 0 0 m (3) show NC gr  991 952 m 306 X s 991 948 m 4 Y s 1084 948 m 4 Y s 1178 948 m 4 Y s 1271 948 m 4 Y s 1271 948 m 4 Y s 991 723 m 229 Y s 997 762 m -6 X s 994 770 m -3
 X s 994 779 m -3 X s 994 787 m -3 X s 994 795 m -3 X s 997 804 m -6 X s 994 812 m -3 X s 994 820 m -3 X s 994 829 m -3 X s 994 837 m -3 X s 997 846 m -6 X s 994 854 m -3 X s 994 862 m -3 X s 994 871 m -3 X s 994 879 m -3 X s 997 887 m -6 X s 994 896
 m -3 X s 994 904 m -3 X s 994 912 m -3 X s 994 921 m -3 X s 997 929 m -6 X s 997 762 m -6 X s 994 754 m -3 X s 994 745 m -3 X s 994 737 m -3 X s 994 728 m -3 X s 997 929 m -6 X s 994 938 m -3 X s 994 946 m -3 X s
 gsave  408 305 930 677 C 940.134 754.956 t 0 r /Helvetica findfont 22.8295 sf 0 0 m (\2550.01) show NC gr 
 gsave  408 305 930 677 C 923.04 797.689 t 0 r /Helvetica findfont 22.8295 sf 0 0 m (\2550.005) show NC gr 
 gsave  408 305 930 677 C 974.32 837.574 t 0 r /Helvetica findfont 22.8295 sf 0 0 m (0) show NC gr 
 gsave  408 305 930 677 C 931.587 880.307 t 0 r /Helvetica findfont 22.8295 sf 0 0 m (0.005) show NC gr 
 gsave  408 305 930 677 C 945.832 923.04 t 0 r /Helvetica findfont 22.8295 sf 0 0 m (0.01) show NC gr  1297 723 m 229 Y s 1292 762 m 5 X s 1294 770 m 3 X s 1294 779 m 3 X s 1294 787 m 3 X s 1294 795 m 3 X s 1292 804 m 5 X s 1294 812 m 3 X s 1294 820
 m 3 X s 1294 829 m 3 X s 1294 837 m 3 X s 1292 846 m 5 X s 1294 854 m 3 X s 1294 862 m 3 X s 1294 871 m 3 X s 1294 879 m 3 X s 1292 887 m 5 X s 1294 896 m 3 X s 1294 904 m 3 X s 1294 912 m 3 X s 1294 921 m 3 X s 1292 929 m 5 X s 1292 762 m 5 X s
 1294 754 m 3 X s 1294 745 m 3 X s 1294 737 m 3 X s 1294 728 m 3 X s 1292 929 m 5 X s 1294 938 m 3 X s 1294 946 m 3 X s 1038 858 1084 892 1178 870 1271 783 4 { m21} R 1038 869 m 30 Y s 1032 899 m 11 X s 1038 847 m -30 Y s 1032 817 m 11 X s 1084 903 m
 30 Y s 1079 933 m 11 X s 1084 880 m -29 Y s 1079 851 m 11 X s 1178 882 m 29 Y s 1172 911 m 12 X s 1178 859 m -30 Y s 1172 829 m 12 X s 1271 794 m 29 Y s 1266 823 m 11 X s 1271 771 m -29 Y s 1266 742 m 11 X s 1 0 0 c 9 lw 0.95 0.95 0.95 c black 1 0 0
 c 993 846 m 6 X 3 -1 d 33 X 3 -1 d 16 X 3 -1 d 12 X 3 -1 d 6 X 3 -1 d 9 X 4 -1 d 6 X 3 -1 d 6 X 3 -1 d 6 X 3 -1 d 3 X 3 -1 d 6 X 3 -1 d 3 X 4 -1 d s 1143 834 m 3 X 3 -1 d 3 X 3 -1 d 3 X 3 -1 d 3 X 3 -1 d 3 X 3 -1 d 3 X 3 -1 d 3 -1 d 3 X 3 -1 d 4 X 3
 -1 d 3 -1 d 3 X 3 -1 d 3 -1 d 3 X 3 -1 d 3 -1 d 3 X 3 -1 d 3 -1 d 3 X 3 -1 d 3 -1 d 3 -1 d 3 X 4 -1 d 3 -1 d 3 -1 d 3 X 3 -1 d 3 -1 d 3 -1 d 3 -1 d 3 X 3 -1 d 3 -1 d 3 -1 d 3 -1 d 3 -1 d 3 -1 d 3 -1 d 4 X s 1293 801 m 3 -1 d s 0.49 0.6 0.82 c black
 0.49 0.6 0.82 c
 gsave  408 305 930 677 C 1051.24 960.076 t 0 r /Helvetica-Bold findfont 25.6831 sf 0 0 m (3.5 < E < 4.0 GeV) show NC gr  0.52 0.76 0.64 c black 0.52 0.76 0.64 c
 gsave  408 305 930 677 C 1031.3 923.04 t 0 r /Helvetica-Bold findfont 25.6831 sf 0 0 m 
 228 214 200 193 178 171 156 149 133 126 119 105 91 77 69 55 47 39 25 17
(A = \2550.001, p = 2.000) K NC gr  1 0.6 1 c black 1 0.6 1 c
 gsave  408 305 930 677 C 1336.13 791.991 t 90 r /Helvetica-Bold findfont 28.5368 sf 0 0 m (/dof=1.0) show NC gr  black 1 0.6 1 c
 gsave  408 305 930 677 C 1324.73 780.596 t 90 r /Helvetica-Bold findfont 19.9758 sf 0 0 m (2) show NC gr  black 1 0.6 1 c
 gsave  408 305 930 677 C 1336.13 763.503 t 90 r /Symbol findfont 28.5368 sf 0 0 m (c) show NC gr  black 3 lw 1 1 1 c 408 305 1383 677 bf black 1 1 1 c black 306 229 1445 723 bl 306 229 1445 723 bl 1445 723 m 306 X s 1445 727 m -4 Y s 1538 727 m -4 Y
 s 1631 727 m -4 Y s 1725 727 m -4 Y s 1725 727 m -4 Y s
 gsave  408 305 1383 677 C 1435.84 703.676 t 0 r /Helvetica findfont 22.8295 sf 0 0 m (0) show NC gr 
 gsave  408 305 1383 677 C 1529.85 703.676 t 0 r /Helvetica findfont 22.8295 sf 0 0 m (1) show NC gr 
 gsave  408 305 1383 677 C 1621.02 703.676 t 0 r /Helvetica findfont 22.8295 sf 0 0 m (2) show NC gr 
 gsave  408 305 1383 677 C 1715.03 703.676 t 0 r /Helvetica findfont 22.8295 sf 0 0 m (3) show NC gr  1445 952 m 306 X s 1445 948 m 4 Y s 1538 948 m 4 Y s 1631 948 m 4 Y s 1725 948 m 4 Y s 1725 948 m 4 Y s 1445 723 m 229 Y s 1450 739 m -5 X s 1447
 746 m -2 X s 1447 752 m -2 X s 1447 758 m -2 X s 1447 765 m -2 X s 1450 771 m -5 X s 1447 777 m -2 X s 1447 784 m -2 X s 1447 790 m -2 X s 1447 796 m -2 X s 1450 803 m -5 X s 1447 809 m -2 X s 1447 815 m -2 X s 1447 822 m -2 X s 1447 828 m -2 X s
 1450 835 m -5 X s 1447 841 m -2 X s 1447 847 m -2 X s 1447 854 m -2 X s 1447 860 m -2 X s 1450 866 m -5 X s 1447 873 m -2 X s 1447 879 m -2 X s 1447 885 m -2 X s 1447 892 m -2 X s 1450 898 m -5 X s 1447 904 m -2 X s 1447 911 m -2 X s 1447 917 m -2 X
 s 1447 924 m -2 X s 1450 930 m -5 X s 1450 739 m -5 X s 1447 733 m -2 X s 1447 726 m -2 X s 1450 930 m -5 X s 1447 936 m -2 X s 1447 943 m -2 X s 1447 949 m -2 X s
 gsave  408 305 1383 677 C 1376.01 732.165 t 0 r /Helvetica findfont 22.8295 sf 0 0 m (\2550.025) show NC gr 
 gsave  408 305 1383 677 C 1390.26 763.503 t 0 r /Helvetica findfont 22.8295 sf 0 0 m (\2550.02) show NC gr 
 gsave  408 305 1383 677 C 1376.01 794.84 t 0 r /Helvetica findfont 22.8295 sf 0 0 m (\2550.015) show NC gr 
 gsave  408 305 1383 677 C 1393.11 826.178 t 0 r /Helvetica findfont 22.8295 sf 0 0 m (\2550.01) show NC gr 
 gsave  408 305 1383 677 C 1376.01 860.365 t 0 r /Helvetica findfont 22.8295 sf 0 0 m (\2550.005) show NC gr 
 gsave  408 305 1383 677 C 1427.29 891.703 t 0 r /Helvetica findfont 22.8295 sf 0 0 m (0) show NC gr 
 gsave  408 305 1383 677 C 1384.56 923.04 t 0 r /Helvetica findfont 22.8295 sf 0 0 m (0.005) show NC gr  1751 723 m 229 Y s 1745 739 m 6 X s 1748 746 m 3 X s 1748 752 m 3 X s 1748 758 m 3 X s 1748 765 m 3 X s 1745 771 m 6 X s 1748 777 m 3 X s 1748
 784 m 3 X s 1748 790 m 3 X s 1748 796 m 3 X s 1745 803 m 6 X s 1748 809 m 3 X s 1748 815 m 3 X s 1748 822 m 3 X s 1748 828 m 3 X s 1745 835 m 6 X s 1748 841 m 3 X s 1748 847 m 3 X s 1748 854 m 3 X s 1748 860 m 3 X s 1745 866 m 6 X s 1748 873 m 3 X s
 1748 879 m 3 X s 1748 885 m 3 X s 1748 892 m 3 X s 1745 898 m 6 X s 1748 904 m 3 X s 1748 911 m 3 X s 1748 917 m 3 X s 1748 924 m 3 X s 1745 930 m 6 X s 1745 739 m 6 X s 1748 733 m 3 X s 1748 726 m 3 X s 1745 930 m 6 X s 1748 936 m 3 X s 1748 943 m
 3 X s 1748 949 m 3 X s 1491 840 1538 892 1631 849 1725 783 4 { m21} R 1491 851 m 29 Y s 1486 880 m 11 X s 1491 828 m -29 Y s 1486 799 m 11 X s 1538 903 m 30 Y s 1532 933 m 12 X s 1538 880 m -29 Y s 1532 851 m 12 X s 1631 860 m 30 Y s 1626 890 m 11 X
 s 1631 837 m -29 Y s 1626 808 m 11 X s 1725 794 m 30 Y s 1719 824 m 12 X s 1725 771 m -29 Y s 1719 742 m 12 X s 9 lw 0.95 0.95 0.95 c black 1446 898 m 3 -2 d 3 -1 d 3 -1 d 3 -1 d 3 -1 d 3 -1 d 3 -1 d 4 -1 d 3 -1 d 3 -2 d 3 -1 d 3 -1 d 3 -1 d 3 -1 d
 3 -1 d 3 -1 d 3 -1 d 3 -1 d 3 -1 d 3 -2 d 3 -1 d 3 -1 d 3 -1 d 4 -1 d 3 -1 d 3 -1 d 3 -1 d 3 -1 d 3 -2 d 3 -1 d 3 -1 d 3 -1 d 3 -1 d 3 -1 d 3 -1 d 3 -1 d 3 -1 d 3 -1 d 3 -2 d 4 -1 d 3 -1 d 3 -1 d 3 -1 d 3 -1 d 3 -1 d 3 -1 d 3 -1 d 3 -2 d 3 -1 d s
 1596 843 m 3 -1 d 3 -1 d 3 -1 d 3 -1 d 3 -1 d 3 -1 d 4 -1 d 3 -1 d 3 -2 d 3 -1 d 3 -1 d 3 -1 d 3 -1 d 3 -1 d 3 -1 d 3 -1 d 3 -1 d 3 -2 d 3 -1 d 3 -1 d 3 -1 d 3 -1 d 3 -1 d 4 -1 d 3 -1 d 3 -1 d 3 -2 d 3 -1 d 3 -1 d 3 -1 d 3 -1 d 3 -1 d 3 -1 d 3 -1 d
 3 -1 d 3 -1 d 3 -2 d 3 -1 d 3 -1 d 4 -1 d 3 -1 d 3 -1 d 3 -1 d 3 -1 d 3 -1 d 3 -2 d 3 -1 d 3 -1 d 3 -1 d s 1746 789 m 3 -1 d s 0.49 0.6 0.82 c black 0.49 0.6 0.82 c
 gsave  408 305 1383 677 C 1504.21 960.076 t 0 r /Helvetica-Bold findfont 25.6831 sf 0 0 m (4.0 < E < 4.5 GeV) show NC gr  0.52 0.76 0.64 c black 0.52 0.76 0.64 c
 gsave  408 305 1383 677 C 1484.27 923.04 t 0 r /Helvetica-Bold findfont 25.6831 sf 0 0 m 
 228 214 200 193 178 171 156 149 134 126 119 105 91 77 69 55 47 40 25 17
(A = \2550.005, p = 1.000) K NC gr  1 0.6 1 c black 1 0.6 1 c
 gsave  408 305 1383 677 C 1789.1 791.991 t 90 r /Helvetica-Bold findfont 28.5368 sf 0 0 m (/dof=0.6) show NC gr  black 1 0.6 1 c
 gsave  408 305 1383 677 C 1777.71 780.596 t 90 r /Helvetica-Bold findfont 19.9758 sf 0 0 m (2) show NC gr  black 1 0.6 1 c
 gsave  408 305 1383 677 C 1789.1 763.503 t 90 r /Symbol findfont 28.5368 sf 0 0 m (c) show NC gr  black 3 lw 1 1 1 c 408 305 1837 677 bf black 1 1 1 c black 306 229 1898 723 bl 306 229 1898 723 bl 1898 723 m 306 X s 1898 727 m -4 Y s 1992 727 m -4 Y
 s 2085 727 m -4 Y s 2179 727 m -4 Y s 2179 727 m -4 Y s
 gsave  408 305 1837 677 C 1888.81 703.676 t 0 r /Helvetica findfont 22.8295 sf 0 0 m (0) show NC gr 
 gsave  408 305 1837 677 C 1985.68 703.676 t 0 r /Helvetica findfont 22.8295 sf 0 0 m (1) show NC gr 
 gsave  408 305 1837 677 C 2073.99 703.676 t 0 r /Helvetica findfont 22.8295 sf 0 0 m (2) show NC gr 
 gsave  408 305 1837 677 C 2168.01 703.676 t 0 r /Helvetica findfont 22.8295 sf 0 0 m (3) show NC gr  1898 952 m 306 X s 1898 948 m 4 Y s 1992 948 m 4 Y s 2085 948 m 4 Y s 2179 948 m 4 Y s 2179 948 m 4 Y s 1898 723 m 229 Y s 1904 733 m -6 X s 1901
 738 m -3 X s 1901 743 m -3 X s 1901 748 m -3 X s 1901 753 m -3 X s 1904 758 m -6 X s 1901 763 m -3 X s 1901 767 m -3 X s 1901 772 m -3 X s 1901 777 m -3 X s 1904 782 m -6 X s 1901 787 m -3 X s 1901 792 m -3 X s 1901 797 m -3 X s 1901 802 m -3 X s
 1904 807 m -6 X s 1901 812 m -3 X s 1901 817 m -3 X s 1901 821 m -3 X s 1901 826 m -3 X s 1904 831 m -6 X s 1901 836 m -3 X s 1901 841 m -3 X s 1901 846 m -3 X s 1901 851 m -3 X s 1904 856 m -6 X s 1901 861 m -3 X s 1901 866 m -3 X s 1901 871 m -3 X
 s 1901 876 m -3 X s 1904 880 m -6 X s 1901 885 m -3 X s 1901 890 m -3 X s 1901 895 m -3 X s 1901 900 m -3 X s 1904 905 m -6 X s 1901 910 m -3 X s 1901 915 m -3 X s 1901 920 m -3 X s 1901 925 m -3 X s 1904 930 m -6 X s 1904 733 m -6 X s 1901 728 m -3
 X s 1901 723 m -3 X s 1904 930 m -6 X s 1901 934 m -3 X s 1901 939 m -3 X s 1901 944 m -3 X s 1901 949 m -3 X s
 gsave  408 305 1837 677 C 1828.99 726.467 t 0 r /Helvetica findfont 22.8295 sf 0 0 m (\2550.015) show NC gr 
 gsave  408 305 1837 677 C 1846.08 749.258 t 0 r /Helvetica findfont 22.8295 sf 0 0 m (\2550.01) show NC gr 
 gsave  408 305 1837 677 C 1828.99 774.898 t 0 r /Helvetica findfont 22.8295 sf 0 0 m (\2550.005) show NC gr 
 gsave  408 305 1837 677 C 1880.27 800.538 t 0 r /Helvetica findfont 22.8295 sf 0 0 m (0) show NC gr 
 gsave  408 305 1837 677 C 1837.53 823.329 t 0 r /Helvetica findfont 22.8295 sf 0 0 m (0.005) show NC gr 
 gsave  408 305 1837 677 C 1851.78 848.969 t 0 r /Helvetica findfont 22.8295 sf 0 0 m (0.01) show NC gr 
 gsave  408 305 1837 677 C 1837.53 874.609 t 0 r /Helvetica findfont 22.8295 sf 0 0 m (0.015) show NC gr 
 gsave  408 305 1837 677 C 1848.93 897.4 t 0 r /Helvetica findfont 22.8295 sf 0 0 m (0.02) show NC gr 
 gsave  408 305 1837 677 C 1837.53 923.04 t 0 r /Helvetica findfont 22.8295 sf 0 0 m (0.025) show NC gr  2204 723 m 229 Y s 2199 733 m 5 X s 2201 738 m 3 X s 2201 743 m 3 X s 2201 748 m 3 X s 2201 753 m 3 X s 2199 758 m 5 X s 2201 763 m 3 X s 2201
 767 m 3 X s 2201 772 m 3 X s 2201 777 m 3 X s 2199 782 m 5 X s 2201 787 m 3 X s 2201 792 m 3 X s 2201 797 m 3 X s 2201 802 m 3 X s 2199 807 m 5 X s 2201 812 m 3 X s 2201 817 m 3 X s 2201 821 m 3 X s 2201 826 m 3 X s 2199 831 m 5 X s 2201 836 m 3 X s
 2201 841 m 3 X s 2201 846 m 3 X s 2201 851 m 3 X s 2199 856 m 5 X s 2201 861 m 3 X s 2201 866 m 3 X s 2201 871 m 3 X s 2201 876 m 3 X s 2199 880 m 5 X s 2201 885 m 3 X s 2201 890 m 3 X s 2201 895 m 3 X s 2201 900 m 3 X s 2199 905 m 5 X s 2201 910 m
 3 X s 2201 915 m 3 X s 2201 920 m 3 X s 2201 925 m 3 X s 2199 930 m 5 X s 2199 733 m 5 X s 2201 728 m 3 X s 2201 723 m 3 X s 2199 930 m 5 X s 2201 934 m 3 X s 2201 939 m 3 X s 2201 944 m 3 X s 2201 949 m 3 X s 1945 889 1992 861 2085 787 2179 785 4 {
 m21} R 1945 900 m 33 Y s 1939 933 m 12 X s 1945 878 m -33 Y s 1939 845 m 12 X s 1992 872 m 32 Y s 1986 904 m 11 X s 1992 849 m -32 Y s 1986 817 m 11 X s 2085 798 m 32 Y s 2079 830 m 12 X s 2085 776 m -32 Y s 2079 744 m 12 X s 2179 797 m 32 Y s 2173
 829 m 11 X s 2179 774 m -32 Y s 2173 742 m 11 X s 1 0 0 c 9 lw 0.95 0.95 0.95 c black 1 0 0 c 1900 807 m 30 X 3 -1 d 37 X 3 -1 d 22 X 3 -1 d 18 X 3 -1 d 12 X 3 -1 d 13 X 3 -1 d s 2050 801 m 12 X 3 -1 d 9 X 3 -1 d 9 X 3 -1 d 10 X 3 -1 d 6 X 3 -1 d 6
 X 3 -1 d 6 X 3 -1 d 6 X 3 -1 d 7 X 3 -1 d 6 X 3 -1 d 6 X 3 -1 d 3 X 3 -1 d 6 X 3 -1 d 6 X 3 -1 d 4 X 3 -1 d 3 X s 2200 786 m 3 -1 d s 0.49 0.6 0.82 c black 0.49 0.6 0.82 c
 gsave  408 305 1837 677 C 1957.19 960.076 t 0 r /Helvetica-Bold findfont 25.6831 sf 0 0 m (4.5 < E < 5.0 GeV) show NC gr  0.52 0.76 0.64 c black 0.52 0.76 0.64 c
 gsave  408 305 1837 677 C 1937.25 923.04 t 0 r /Helvetica-Bold findfont 25.6831 sf 0 0 m 
 228 214 200 193 178 171 156 149 133 126 119 105 91 77 69 55 47 39 25 17
(A = \2550.000, p = 2.000) K NC gr  1 0.6 1 c black 1 0.6 1 c
 gsave  408 305 1837 677 C 2242.08 791.991 t 90 r /Helvetica-Bold findfont 28.5368 sf 0 0 m (/dof=1.8) show NC gr  black 1 0.6 1 c
 gsave  408 305 1837 677 C 2230.68 780.596 t 90 r /Helvetica-Bold findfont 19.9758 sf 0 0 m (2) show NC gr  black 1 0.6 1 c
 gsave  408 305 1837 677 C 2242.08 763.503 t 90 r /Symbol findfont 28.5368 sf 0 0 m (c) show NC gr  black 3 lw 1 1 1 c 408 306 23 345 bf black 1 1 1 c black 306 229 84 391 bl 306 229 84 391 bl 84 391 m 306 X s 84 395 m -4 Y s 177 395 m -4 Y s 271 395
 m -4 Y s 364 395 m -4 Y s 364 395 m -4 Y s
 gsave  408 306 23 345 C 74.0711 370.356 t 0 r /Helvetica findfont 22.8295 sf 0 0 m (0) show NC gr 
 gsave  408 306 23 345 C 170.933 370.356 t 0 r /Helvetica findfont 22.8295 sf 0 0 m (1) show NC gr 
 gsave  408 306 23 345 C 262.098 370.356 t 0 r /Helvetica findfont 22.8295 sf 0 0 m (2) show NC gr 
 gsave  408 306 23 345 C 353.262 370.356 t 0 r /Helvetica findfont 22.8295 sf 0 0 m (3) show NC gr  84 620 m 306 X s 84 616 m 4 Y s 177 616 m 4 Y s 271 616 m 4 Y s 364 616 m 4 Y s 364 616 m 4 Y s 84 391 m 229 Y s 89 405 m -5 X s 87 413 m -3 X s 87
 421 m -3 X s 87 429 m -3 X s 87 437 m -3 X s 89 445 m -5 X s 87 453 m -3 X s 87 461 m -3 X s 87 469 m -3 X s 87 477 m -3 X s 89 485 m -5 X s 87 493 m -3 X s 87 501 m -3 X s 87 509 m -3 X s 87 517 m -3 X s 89 525 m -5 X s 87 533 m -3 X s 87 541 m -3
 X s 87 549 m -3 X s 87 557 m -3 X s 89 565 m -5 X s 87 573 m -3 X s 87 581 m -3 X s 87 589 m -3 X s 87 597 m -3 X s 89 605 m -5 X s 89 405 m -5 X s 87 397 m -3 X s 89 605 m -5 X s 87 613 m -3 X s
 gsave  408 306 23 345 C 28.4889 398.845 t 0 r /Helvetica findfont 22.8295 sf 0 0 m (\2550.03) show NC gr 
 gsave  408 306 23 345 C 28.4889 438.729 t 0 r /Helvetica findfont 22.8295 sf 0 0 m (\2550.02) show NC gr 
 gsave  408 306 23 345 C 31.3378 478.614 t 0 r /Helvetica findfont 22.8295 sf 0 0 m (\2550.01) show NC gr 
 gsave  408 306 23 345 C 65.5245 518.498 t 0 r /Helvetica findfont 22.8295 sf 0 0 m (0) show NC gr 
 gsave  408 306 23 345 C 37.0356 558.382 t 0 r /Helvetica findfont 22.8295 sf 0 0 m (0.01) show NC gr 
 gsave  408 306 23 345 C 34.1867 598.267 t 0 r /Helvetica findfont 22.8295 sf 0 0 m (0.02) show NC gr  390 391 m 229 Y s 385 405 m 5 X s 387 413 m 3 X s 387 421 m 3 X s 387 429 m 3 X s 387 437 m 3 X s 385 445 m 5 X s 387 453 m 3 X s 387 461 m 3 X s
 387 469 m 3 X s 387 477 m 3 X s 385 485 m 5 X s 387 493 m 3 X s 387 501 m 3 X s 387 509 m 3 X s 387 517 m 3 X s 385 525 m 5 X s 387 533 m 3 X s 387 541 m 3 X s 387 549 m 3 X s 387 557 m 3 X s 385 565 m 5 X s 387 573 m 3 X s 387 581 m 3 X s 387 589 m
 3 X s 387 597 m 3 X s 385 605 m 5 X s 385 405 m 5 X s 387 397 m 3 X s 385 605 m 5 X s 387 613 m 3 X s /w 22 def /w2 {w 2 div} def /w3 {w 3 div} def 131 554 177 455 271 508 364 493 4 { m21} R 131 566 m 35 Y s 125 601 m 11 X s 131 543 m -35 Y s 125
 508 m 11 X s 177 467 m 34 Y s 172 501 m 11 X s 177 444 m -34 Y s 172 410 m 11 X s 271 519 m 35 Y s 265 554 m 12 X s 271 497 m -35 Y s 265 462 m 12 X s 364 505 m 34 Y s 359 539 m 11 X s 364 482 m -35 Y s 359 447 m 11 X s 9 lw 0.95 0.95 0.95 c black
 85 525 m 3 X 4 -1 d 3 X 3 -1 d 3 X 3 -1 d 6 X 3 -1 d 3 X 3 -1 d 3 X 3 -1 d 6 X 3 -1 d 3 X 4 -1 d 3 X 3 -1 d 6 X 3 -1 d 3 X 3 -1 d 3 X 3 -1 d 6 X 3 -1 d 3 X 3 -1 d 3 X 4 -1 d 6 X 3 -1 d 3 X 3 -1 d 3 X 3 -1 d 3 X 3 -1 d 6 X 3 -1 d 3 X 3 -1 d 3 X s 235
 504 m 4 -1 d 6 X 3 -1 d 3 X 3 -1 d 3 X 3 -1 d 6 X 3 -1 d 3 X 3 -1 d 3 X 3 -1 d 6 X 4 -1 d 3 X 3 -1 d 3 X 3 -1 d 3 X 3 -1 d 6 X 3 -1 d 3 X 3 -1 d 3 X 3 -1 d 6 X 4 -1 d 3 X 3 -1 d 3 X 3 -1 d 6 X 3 -1 d 3 X 3 -1 d 3 X 3 -1 d 6 X 3 -1 d 3 X s 385 483 m
 4 -1 d s 0.49 0.6 0.82 c black 0.49 0.6 0.82 c
 gsave  408 306 23 345 C 142.445 629.605 t 0 r /Helvetica-Bold findfont 25.6831 sf 0 0 m (5.0 < E < 5.5 GeV) show NC gr  0.52 0.76 0.64 c black 0.52 0.76 0.64 c
 gsave  408 306 23 345 C 122.502 592.569 t 0 r /Helvetica-Bold findfont 25.6831 sf 0 0 m 
 228 214 200 193 178 171 156 149 134 126 119 105 91 77 69 55 47 39 25 17
(A = \2550.003, p = 1.000) K NC gr  1 0.6 1 c black 1 0.6 1 c
 gsave  408 306 23 345 C 427.334 458.671 t 90 r /Helvetica-Bold findfont 28.5368 sf 0 0 m (/dof=0.7) show NC gr  black 1 0.6 1 c
 gsave  408 306 23 345 C 415.938 447.276 t 90 r /Helvetica-Bold findfont 19.9758 sf 0 0 m (2) show NC gr  black 1 0.6 1 c
 gsave  408 306 23 345 C 427.334 430.182 t 90 r /Symbol findfont 28.5368 sf 0 0 m (c) show NC gr  black 3 lw 1 1 1 c 408 306 476 345 bf black 1 1 1 c black 307 229 537 391 bl 307 229 537 391 bl 537 391 m 307 X s 537 395 m -4 Y s 631 395 m -4 Y s 724
 395 m -4 Y s 818 395 m -4 Y s 818 395 m -4 Y s
 gsave  408 306 476 345 C 527.045 370.356 t 0 r /Helvetica findfont 22.8295 sf 0 0 m (0) show NC gr 
 gsave  408 306 476 345 C 623.907 370.356 t 0 r /Helvetica findfont 22.8295 sf 0 0 m (1) show NC gr 
 gsave  408 306 476 345 C 715.071 370.356 t 0 r /Helvetica findfont 22.8295 sf 0 0 m (2) show NC gr 
 gsave  408 306 476 345 C 809.085 370.356 t 0 r /Helvetica findfont 22.8295 sf 0 0 m (3) show NC gr  537 620 m 307 X s 537 616 m 4 Y s 631 616 m 4 Y s 724 616 m 4 Y s 818 616 m 4 Y s 818 616 m 4 Y s 537 391 m 229 Y s 543 419 m -6 X s 540 426 m -3 X s
 540 432 m -3 X s 540 439 m -3 X s 540 446 m -3 X s 543 452 m -6 X s 540 459 m -3 X s 540 466 m -3 X s 540 473 m -3 X s 540 479 m -3 X s 543 486 m -6 X s 540 493 m -3 X s 540 499 m -3 X s 540 506 m -3 X s 540 513 m -3 X s 543 520 m -6 X s 540 526 m
 -3 X s 540 533 m -3 X s 540 540 m -3 X s 540 546 m -3 X s 543 553 m -6 X s 540 560 m -3 X s 540 567 m -3 X s 540 573 m -3 X s 540 580 m -3 X s 543 587 m -6 X s 543 419 m -6 X s 540 412 m -3 X s 540 405 m -3 X s 540 399 m -3 X s 540 392 m -3 X s 543
 587 m -6 X s 540 594 m -3 X s 540 600 m -3 X s 540 607 m -3 X s 540 614 m -3 X s
 gsave  408 306 476 345 C 481.462 413.089 t 0 r /Helvetica findfont 22.8295 sf 0 0 m (\2550.02) show NC gr 
 gsave  408 306 476 345 C 484.311 444.427 t 0 r /Helvetica findfont 22.8295 sf 0 0 m (\2550.01) show NC gr 
 gsave  408 306 476 345 C 518.498 478.614 t 0 r /Helvetica findfont 22.8295 sf 0 0 m (0) show NC gr 
 gsave  408 306 476 345 C 490.009 512.8 t 0 r /Helvetica findfont 22.8295 sf 0 0 m (0.01) show NC gr 
 gsave  408 306 476 345 C 487.16 546.987 t 0 r /Helvetica findfont 22.8295 sf 0 0 m (0.02) show NC gr 
 gsave  408 306 476 345 C 487.16 578.325 t 0 r /Helvetica findfont 22.8295 sf 0 0 m (0.03) show NC gr  844 391 m 229 Y s 838 419 m 6 X s 841 426 m 3 X s 841 432 m 3 X s 841 439 m 3 X s 841 446 m 3 X s 838 452 m 6 X s 841 459 m 3 X s 841 466 m 3 X s
 841 473 m 3 X s 841 479 m 3 X s 838 486 m 6 X s 841 493 m 3 X s 841 499 m 3 X s 841 506 m 3 X s 841 513 m 3 X s 838 520 m 6 X s 841 526 m 3 X s 841 533 m 3 X s 841 540 m 3 X s 841 546 m 3 X s 838 553 m 6 X s 841 560 m 3 X s 841 567 m 3 X s 841 573 m
 3 X s 841 580 m 3 X s 838 587 m 6 X s 838 419 m 6 X s 841 412 m 3 X s 841 405 m 3 X s 841 399 m 3 X s 841 392 m 3 X s 838 587 m 6 X s 841 594 m 3 X s 841 600 m 3 X s 841 607 m 3 X s 841 614 m 3 X s /w 23 def /w2 {w 2 div} def /w3 {w 3 div} def 584
 477 631 458 724 494 818 551 4 { m21} R 584 489 m 36 Y s 578 525 m 12 X s 584 466 m -37 Y s 578 429 m 12 X s 631 469 m 37 Y s 625 506 m 12 X s 631 447 m -37 Y s 625 410 m 12 X s 724 506 m 37 Y s 719 543 m 11 X s 724 483 m -37 Y s 719 446 m 11 X s 818
 562 m 39 Y s 812 601 m 12 X s 818 540 m -39 Y s 812 501 m 12 X s 1 0 0 c 9 lw 0.95 0.95 0.95 c black 1 0 0 c 539 486 m 24 X 4 1 d 15 X 3 1 d 12 X 3 1 d 6 X 3 1 d 10 X 3 1 d 3 X 3 1 d 6 X 3 1 d 3 X 3 1 d 6 X 3 1 d 3 X 3 1 d 3 X 3 1 d 4 1 d 3 X 3 1 d
 3 X 3 1 d 3 X 3 1 d 3 1 d s 689 502 m 3 X 3 1 d 3 1 d 3 X 3 1 d 3 1 d 3 X 3 1 d 4 1 d 3 1 d 3 X 3 1 d 3 1 d 3 1 d 3 1 d 3 X 3 1 d 3 1 d 3 1 d 3 1 d 3 1 d 3 1 d 3 X 3 1 d 4 1 d 3 1 d 3 1 d 3 1 d 3 1 d 3 1 d 3 1 d 3 1 d 3 1 d 3 1 d 3 1 d 3 2 d 3 1 d 3
 1 d 3 1 d 3 1 d 4 1 d 3 1 d 3 1 d 3 2 d 3 1 d 3 1 d 3 1 d 3 2 d 3 1 d s 839 548 m 3 1 d s 0.49 0.6 0.82 c black 0.49 0.6 0.82 c
 gsave  408 306 476 345 C 595.418 629.605 t 0 r /Helvetica-Bold findfont 25.6831 sf 0 0 m (5.5 < E < 6.0 GeV) show NC gr  0.52 0.76 0.64 c black 0.52 0.76 0.64 c
 gsave  408 306 476 345 C 581.174 592.569 t 0 r /Helvetica-Bold findfont 25.6831 sf 0 0 m 
 220 206 192 185 170 163 148 141 125 118 111 97 83 68 61 47 40 25 18
(A = 0.002, p = 2.000) K NC gr  1 0.6 1 c black 1 0.6 1 c
 gsave  408 306 476 345 C 883.156 458.671 t 90 r /Helvetica-Bold findfont 28.5368 sf 0 0 m (/dof=0.2) show NC gr  black 1 0.6 1 c
 gsave  408 306 476 345 C 871.76 447.276 t 90 r /Helvetica-Bold findfont 19.9758 sf 0 0 m (2) show NC gr  black 1 0.6 1 c
 gsave  408 306 476 345 C 883.156 430.182 t 90 r /Symbol findfont 28.5368 sf 0 0 m (c) show NC gr  black 3 lw 1 1 1 c 408 306 930 345 bf black 1 1 1 c black 306 229 991 391 bl 306 229 991 391 bl 991 391 m 306 X s 991 395 m -4 Y s 1084 395 m -4 Y s
 1178 395 m -4 Y s 1271 395 m -4 Y s 1271 395 m -4 Y s
 gsave  408 306 930 345 C 980.018 370.356 t 0 r /Helvetica findfont 22.8295 sf 0 0 m (0) show NC gr 
 gsave  408 306 930 345 C 1076.88 370.356 t 0 r /Helvetica findfont 22.8295 sf 0 0 m (1) show NC gr 
 gsave  408 306 930 345 C 1168.04 370.356 t 0 r /Helvetica findfont 22.8295 sf 0 0 m (2) show NC gr 
 gsave  408 306 930 345 C 1262.06 370.356 t 0 r /Helvetica findfont 22.8295 sf 0 0 m (3) show NC gr  991 620 m 306 X s 991 616 m 4 Y s 1084 616 m 4 Y s 1178 616 m 4 Y s 1271 616 m 4 Y s 1271 616 m 4 Y s 991 391 m 229 Y s 997 391 m -6 X s 994 396 m -3
 X s 994 401 m -3 X s 994 405 m -3 X s 994 410 m -3 X s 997 415 m -6 X s 994 419 m -3 X s 994 424 m -3 X s 994 429 m -3 X s 994 433 m -3 X s 997 438 m -6 X s 994 443 m -3 X s 994 447 m -3 X s 994 452 m -3 X s 994 457 m -3 X s 997 461 m -6 X s 994 466
 m -3 X s 994 471 m -3 X s 994 476 m -3 X s 994 480 m -3 X s 997 485 m -6 X s 994 490 m -3 X s 994 494 m -3 X s 994 499 m -3 X s 994 504 m -3 X s 997 508 m -6 X s 994 513 m -3 X s 994 518 m -3 X s 994 522 m -3 X s 994 527 m -3 X s 997 532 m -6 X s
 994 536 m -3 X s 994 541 m -3 X s 994 546 m -3 X s 994 551 m -3 X s 997 555 m -6 X s 994 560 m -3 X s 994 565 m -3 X s 994 569 m -3 X s 994 574 m -3 X s 997 579 m -6 X s 994 583 m -3 X s 994 588 m -3 X s 994 593 m -3 X s 994 597 m -3 X s 997 602 m
 -6 X s 997 391 m -6 X s 997 602 m -6 X s 994 607 m -3 X s 994 611 m -3 X s 994 616 m -3 X s
 gsave  408 306 930 345 C 937.285 384.6 t 0 r /Helvetica findfont 22.8295 sf 0 0 m (\2550.05) show NC gr 
 gsave  408 306 930 345 C 937.285 407.391 t 0 r /Helvetica findfont 22.8295 sf 0 0 m (\2550.04) show NC gr 
 gsave  408 306 930 345 C 937.285 430.182 t 0 r /Helvetica findfont 22.8295 sf 0 0 m (\2550.03) show NC gr 
 gsave  408 306 930 345 C 937.285 452.974 t 0 r /Helvetica findfont 22.8295 sf 0 0 m (\2550.02) show NC gr 
 gsave  408 306 930 345 C 940.134 478.614 t 0 r /Helvetica findfont 22.8295 sf 0 0 m (\2550.01) show NC gr 
 gsave  408 306 930 345 C 974.32 501.405 t 0 r /Helvetica findfont 22.8295 sf 0 0 m (0) show NC gr 
 gsave  408 306 930 345 C 945.832 524.196 t 0 r /Helvetica findfont 22.8295 sf 0 0 m (0.01) show NC gr 
 gsave  408 306 930 345 C 942.983 546.987 t 0 r /Helvetica findfont 22.8295 sf 0 0 m (0.02) show NC gr 
 gsave  408 306 930 345 C 942.983 572.627 t 0 r /Helvetica findfont 22.8295 sf 0 0 m (0.03) show NC gr 
 gsave  408 306 930 345 C 942.983 595.418 t 0 r /Helvetica findfont 22.8295 sf 0 0 m (0.04) show NC gr  1297 391 m 229 Y s 1292 391 m 5 X s 1294 396 m 3 X s 1294 401 m 3 X s 1294 405 m 3 X s 1294 410 m 3 X s 1292 415 m 5 X s 1294 419 m 3 X s 1294 424
 m 3 X s 1294 429 m 3 X s 1294 433 m 3 X s 1292 438 m 5 X s 1294 443 m 3 X s 1294 447 m 3 X s 1294 452 m 3 X s 1294 457 m 3 X s 1292 461 m 5 X s 1294 466 m 3 X s 1294 471 m 3 X s 1294 476 m 3 X s 1294 480 m 3 X s 1292 485 m 5 X s 1294 490 m 3 X s
 1294 494 m 3 X s 1294 499 m 3 X s 1294 504 m 3 X s 1292 508 m 5 X s 1294 513 m 3 X s 1294 518 m 3 X s 1294 522 m 3 X s 1294 527 m 3 X s 1292 532 m 5 X s 1294 536 m 3 X s 1294 541 m 3 X s 1294 546 m 3 X s 1294 551 m 3 X s 1292 555 m 5 X s 1294 560 m
 3 X s 1294 565 m 3 X s 1294 569 m 3 X s 1294 574 m 3 X s 1292 579 m 5 X s 1294 583 m 3 X s 1294 588 m 3 X s 1294 593 m 3 X s 1294 597 m 3 X s 1292 602 m 5 X s 1292 391 m 5 X s 1292 602 m 5 X s 1294 607 m 3 X s 1294 611 m 3 X s 1294 616 m 3 X s 1038
 449 1084 560 1178 482 1271 502 4 { m21} R 1038 461 m 27 Y s 1032 488 m 11 X s 1038 438 m -28 Y s 1032 410 m 11 X s 1084 571 m 30 Y s 1079 601 m 11 X s 1084 549 m -30 Y s 1079 519 m 11 X s 1178 494 m 28 Y s 1172 522 m 12 X s 1178 471 m -28 Y s 1172
 443 m 12 X s 1271 513 m 30 Y s 1266 543 m 11 X s 1271 491 m -29 Y s 1266 462 m 11 X s 9 lw 0.95 0.95 0.95 c black 993 508 m 18 X 3 -1 d 21 X 3 -1 d 22 X 3 -1 d 24 X 3 -1 d 22 X 3 -1 d 21 X 3 -1 d 4 X s 1143 502 m 18 X 3 -1 d 24 X 4 -1 d 21 X 3 -1 d
 21 X 3 -1 d 22 X 3 -1 d 24 X 4 -1 d s 1293 496 m 3 X s 0.49 0.6 0.82 c black 0.49 0.6 0.82 c
 gsave  408 306 930 345 C 1051.24 629.605 t 0 r /Helvetica-Bold findfont 25.6831 sf 0 0 m (6.0 < E < 6.5 GeV) show NC gr  0.52 0.76 0.64 c black 0.52 0.76 0.64 c
 gsave  408 306 930 345 C 1031.3 592.569 t 0 r /Helvetica-Bold findfont 25.6831 sf 0 0 m 
 228 214 200 193 178 171 156 149 133 126 119 105 91 77 69 55 47 39 25 17
(A = \2550.002, p = 1.000) K NC gr  1 0.6 1 c black 1 0.6 1 c
 gsave  408 306 930 345 C 1336.13 458.671 t 90 r /Helvetica-Bold findfont 28.5368 sf 0 0 m (/dof=1.4) show NC gr  black 1 0.6 1 c
 gsave  408 306 930 345 C 1324.73 447.276 t 90 r /Helvetica-Bold findfont 19.9758 sf 0 0 m (2) show NC gr  black 1 0.6 1 c
 gsave  408 306 930 345 C 1336.13 430.182 t 90 r /Symbol findfont 28.5368 sf 0 0 m (c) show NC gr  black 3 lw 1 1 1 c 408 306 1383 345 bf black 1 1 1 c black 306 229 1445 391 bl 306 229 1445 391 bl 1445 391 m 306 X s 1445 395 m -4 Y s 1538 395 m -4 Y
 s 1631 395 m -4 Y s 1725 395 m -4 Y s 1725 395 m -4 Y s
 gsave  408 306 1383 345 C 1435.84 370.356 t 0 r /Helvetica findfont 22.8295 sf 0 0 m (0) show NC gr 
 gsave  408 306 1383 345 C 1529.85 370.356 t 0 r /Helvetica findfont 22.8295 sf 0 0 m (1) show NC gr 
 gsave  408 306 1383 345 C 1621.02 370.356 t 0 r /Helvetica findfont 22.8295 sf 0 0 m (2) show NC gr 
 gsave  408 306 1383 345 C 1715.03 370.356 t 0 r /Helvetica findfont 22.8295 sf 0 0 m (3) show NC gr  1445 620 m 306 X s 1445 616 m 4 Y s 1538 616 m 4 Y s 1631 616 m 4 Y s 1725 616 m 4 Y s 1725 616 m 4 Y s 1445 391 m 229 Y s 1450 402 m -5 X s 1447
 407 m -2 X s 1447 412 m -2 X s 1447 416 m -2 X s 1447 421 m -2 X s 1450 426 m -5 X s 1447 431 m -2 X s 1447 436 m -2 X s 1447 441 m -2 X s 1447 446 m -2 X s 1450 451 m -5 X s 1447 456 m -2 X s 1447 461 m -2 X s 1447 465 m -2 X s 1447 470 m -2 X s
 1450 475 m -5 X s 1447 480 m -2 X s 1447 485 m -2 X s 1447 490 m -2 X s 1447 495 m -2 X s 1450 500 m -5 X s 1447 505 m -2 X s 1447 510 m -2 X s 1447 515 m -2 X s 1447 519 m -2 X s 1450 524 m -5 X s 1447 529 m -2 X s 1447 534 m -2 X s 1447 539 m -2 X
 s 1447 544 m -2 X s 1450 549 m -5 X s 1447 554 m -2 X s 1447 559 m -2 X s 1447 564 m -2 X s 1447 568 m -2 X s 1450 573 m -5 X s 1447 578 m -2 X s 1447 583 m -2 X s 1447 588 m -2 X s 1447 593 m -2 X s 1450 598 m -5 X s 1450 402 m -5 X s 1447 397 m -2
 X s 1447 392 m -2 X s 1450 598 m -5 X s 1447 603 m -2 X s 1447 608 m -2 X s 1447 613 m -2 X s 1447 618 m -2 X s
 gsave  408 306 1383 345 C 1390.26 395.996 t 0 r /Helvetica findfont 22.8295 sf 0 0 m (\2550.03) show NC gr 
 gsave  408 306 1383 345 C 1390.26 418.787 t 0 r /Helvetica findfont 22.8295 sf 0 0 m (\2550.02) show NC gr 
 gsave  408 306 1383 345 C 1393.11 444.427 t 0 r /Helvetica findfont 22.8295 sf 0 0 m (\2550.01) show NC gr 
 gsave  408 306 1383 345 C 1427.29 467.218 t 0 r /Helvetica findfont 22.8295 sf 0 0 m (0) show NC gr 
 gsave  408 306 1383 345 C 1398.81 492.858 t 0 r /Helvetica findfont 22.8295 sf 0 0 m (0.01) show NC gr 
 gsave  408 306 1383 345 C 1395.96 518.498 t 0 r /Helvetica findfont 22.8295 sf 0 0 m (0.02) show NC gr 
 gsave  408 306 1383 345 C 1395.96 541.289 t 0 r /Helvetica findfont 22.8295 sf 0 0 m (0.03) show NC gr 
 gsave  408 306 1383 345 C 1395.96 566.929 t 0 r /Helvetica findfont 22.8295 sf 0 0 m (0.04) show NC gr 
 gsave  408 306 1383 345 C 1395.96 589.72 t 0 r /Helvetica findfont 22.8295 sf 0 0 m (0.05) show NC gr  1751 391 m 229 Y s 1745 402 m 6 X s 1748 407 m 3 X s 1748 412 m 3 X s 1748 416 m 3 X s 1748 421 m 3 X s 1745 426 m 6 X s 1748 431 m 3 X s 1748 436
 m 3 X s 1748 441 m 3 X s 1748 446 m 3 X s 1745 451 m 6 X s 1748 456 m 3 X s 1748 461 m 3 X s 1748 465 m 3 X s 1748 470 m 3 X s 1745 475 m 6 X s 1748 480 m 3 X s 1748 485 m 3 X s 1748 490 m 3 X s 1748 495 m 3 X s 1745 500 m 6 X s 1748 505 m 3 X s
 1748 510 m 3 X s 1748 515 m 3 X s 1748 519 m 3 X s 1745 524 m 6 X s 1748 529 m 3 X s 1748 534 m 3 X s 1748 539 m 3 X s 1748 544 m 3 X s 1745 549 m 6 X s 1748 554 m 3 X s 1748 559 m 3 X s 1748 564 m 3 X s 1748 568 m 3 X s 1745 573 m 6 X s 1748 578 m
 3 X s 1748 583 m 3 X s 1748 588 m 3 X s 1748 593 m 3 X s 1745 598 m 6 X s 1745 402 m 6 X s 1748 397 m 3 X s 1748 392 m 3 X s 1745 598 m 6 X s 1748 603 m 3 X s 1748 608 m 3 X s 1748 613 m 3 X s 1748 618 m 3 X s 1491 496 1538 551 1631 458 1725 505 4 {
 m21} R 1491 507 m 37 Y s 1486 544 m 11 X s 1491 484 m -37 Y s 1486 447 m 11 X s 1538 563 m 38 Y s 1532 601 m 12 X s 1538 540 m -39 Y s 1532 501 m 12 X s 1631 470 m 36 Y s 1626 506 m 11 X s 1631 447 m -37 Y s 1626 410 m 11 X s 1725 516 m 37 Y s 1719
 553 m 12 X s 1725 493 m -37 Y s 1719 456 m 12 X s 9 lw 0.95 0.95 0.95 c black 1446 475 m 3 1 d 6 X 3 1 d 6 X 3 1 d 7 X 3 1 d 6 X 3 1 d 9 X 3 1 d 6 X 3 1 d 6 X 3 1 d 7 X 3 1 d 9 X 3 1 d 6 X 3 1 d 6 X 3 1 d 6 X 3 1 d 7 X 3 1 d 9 X 3 1 d 6 X 3 1 d s
 1596 491 m 6 X 3 1 d 6 X 3 1 d 7 X 3 1 d 9 X 3 1 d 6 X 3 1 d 6 X 3 1 d 6 X 3 1 d 7 X 3 1 d 9 X 3 1 d 6 X 3 1 d 6 X 3 1 d 6 X 3 1 d 10 X 3 1 d 6 X 3 1 d 6 X 3 1 d 3 X s 1746 506 m 3 X s 0.49 0.6 0.82 c black 0.49 0.6 0.82 c
 gsave  408 306 1383 345 C 1504.21 629.605 t 0 r /Helvetica-Bold findfont 25.6831 sf 0 0 m (6.5 < E < 7.0 GeV) show NC gr  0.52 0.76 0.64 c black 0.52 0.76 0.64 c
 gsave  408 306 1383 345 C 1489.97 592.569 t 0 r /Helvetica-Bold findfont 25.6831 sf 0 0 m 
 220 206 192 185 170 163 148 141 126 118 111 97 83 69 61 47 40 25 18
(A = 0.004, p = 1.000) K NC gr  1 0.6 1 c black 1 0.6 1 c
 gsave  408 306 1383 345 C 1789.1 458.671 t 90 r /Helvetica-Bold findfont 28.5368 sf 0 0 m (/dof=0.8) show NC gr  black 1 0.6 1 c
 gsave  408 306 1383 345 C 1777.71 447.276 t 90 r /Helvetica-Bold findfont 19.9758 sf 0 0 m (2) show NC gr  black 1 0.6 1 c
 gsave  408 306 1383 345 C 1789.1 430.182 t 90 r /Symbol findfont 28.5368 sf 0 0 m (c) show NC gr  black 3 lw 1 1 1 c 408 306 1837 345 bf black 1 1 1 c black 306 229 1898 391 bl 306 229 1898 391 bl 1898 391 m 306 X s 1898 395 m -4 Y s 1992 395 m -4 Y
 s 2085 395 m -4 Y s 2179 395 m -4 Y s 2179 395 m -4 Y s
 gsave  408 306 1837 345 C 1888.81 370.356 t 0 r /Helvetica findfont 22.8295 sf 0 0 m (0) show NC gr 
 gsave  408 306 1837 345 C 1985.68 370.356 t 0 r /Helvetica findfont 22.8295 sf 0 0 m (1) show NC gr 
 gsave  408 306 1837 345 C 2073.99 370.356 t 0 r /Helvetica findfont 22.8295 sf 0 0 m (2) show NC gr 
 gsave  408 306 1837 345 C 2168.01 370.356 t 0 r /Helvetica findfont 22.8295 sf 0 0 m (3) show NC gr  1898 620 m 306 X s 1898 616 m 4 Y s 1992 616 m 4 Y s 2085 616 m 4 Y s 2179 616 m 4 Y s 2179 616 m 4 Y s 1898 391 m 229 Y s 1904 429 m -6 X s 1901
 439 m -3 X s 1901 450 m -3 X s 1901 460 m -3 X s 1904 470 m -6 X s 1901 480 m -3 X s 1901 490 m -3 X s 1901 500 m -3 X s 1904 510 m -6 X s 1901 520 m -3 X s 1901 530 m -3 X s 1901 540 m -3 X s 1904 550 m -6 X s 1901 560 m -3 X s 1901 570 m -3 X s
 1901 580 m -3 X s 1904 590 m -6 X s 1904 429 m -6 X s 1901 419 m -3 X s 1901 409 m -3 X s 1901 399 m -3 X s 1904 590 m -6 X s 1901 600 m -3 X s 1901 610 m -3 X s
 gsave  408 306 1837 345 C 1843.23 421.636 t 0 r /Helvetica findfont 22.8295 sf 0 0 m (\2550.06) show NC gr 
 gsave  408 306 1837 345 C 1843.23 461.52 t 0 r /Helvetica findfont 22.8295 sf 0 0 m (\2550.04) show NC gr 
 gsave  408 306 1837 345 C 1843.23 501.405 t 0 r /Helvetica findfont 22.8295 sf 0 0 m (\2550.02) show NC gr 
 gsave  408 306 1837 345 C 1880.27 544.138 t 0 r /Helvetica findfont 22.8295 sf 0 0 m (0) show NC gr 
 gsave  408 306 1837 345 C 1848.93 584.022 t 0 r /Helvetica findfont 22.8295 sf 0 0 m (0.02) show NC gr  2204 391 m 229 Y s 2199 429 m 5 X s 2201 439 m 3 X s 2201 450 m 3 X s 2201 460 m 3 X s 2199 470 m 5 X s 2201 480 m 3 X s 2201 490 m 3 X s 2201
 500 m 3 X s 2199 510 m 5 X s 2201 520 m 3 X s 2201 530 m 3 X s 2201 540 m 3 X s 2199 550 m 5 X s 2201 560 m 3 X s 2201 570 m 3 X s 2201 580 m 3 X s 2199 590 m 5 X s 2199 429 m 5 X s 2201 419 m 3 X s 2201 409 m 3 X s 2201 399 m 3 X s 2199 590 m 5 X s
 2201 600 m 3 X s 2201 610 m 3 X s 1945 529 1992 452 2085 552 2179 557 4 { m21} R 1945 540 m 32 Y s 1939 572 m 12 X s 1945 517 m -32 Y s 1939 485 m 12 X s 1992 463 m 31 Y s 1986 494 m 11 X s 1992 440 m -30 Y s 1986 410 m 11 X s 2085 563 m 33 Y s 2079
 596 m 12 X s 2085 541 m -33 Y s 2079 508 m 12 X s 2179 568 m 33 Y s 2173 601 m 11 X s 2179 545 m -33 Y s 2173 512 m 11 X s 9 lw 0.95 0.95 0.95 c black 1900 550 m 3 X 3 -1 d 12 X 3 -1 d 12 X 3 -1 d 10 X 3 -1 d 12 X 3 -1 d 9 X 3 -1 d 12 X 3 -1 d 13 X
 3 -1 d 9 X 3 -1 d 12 X 3 -1 d 9 X 4 -1 d 3 X s 2050 539 m 9 X 3 -1 d 9 X 3 -1 d 12 X 3 -1 d 13 X 3 -1 d 9 X 3 -1 d 12 X 3 -1 d 9 X 4 -1 d 12 X 3 -1 d 9 X 3 -1 d 12 X 3 -1 d 13 X s 2200 529 m 3 -1 d s 0.49 0.6 0.82 c black 0.49 0.6 0.82 c
 gsave  408 306 1837 345 C 1957.19 629.605 t 0 r /Helvetica-Bold findfont 25.6831 sf 0 0 m (7.0 < E < 7.5 GeV) show NC gr  0.52 0.76 0.64 c black 0.52 0.76 0.64 c
 gsave  408 306 1837 345 C 1937.25 592.569 t 0 r /Helvetica-Bold findfont 25.6831 sf 0 0 m 
 228 214 200 193 178 171 156 149 133 126 119 105 91 77 69 55 47 39 25 17
(A = \2550.003, p = 1.000) K NC gr  1 0.6 1 c black 1 0.6 1 c
 gsave  408 306 1837 345 C 2242.08 458.671 t 90 r /Helvetica-Bold findfont 28.5368 sf 0 0 m (/dof=1.8) show NC gr  black 1 0.6 1 c
 gsave  408 306 1837 345 C 2230.68 447.276 t 90 r /Helvetica-Bold findfont 19.9758 sf 0 0 m (2) show NC gr  black 1 0.6 1 c
 gsave  408 306 1837 345 C 2242.08 430.182 t 90 r /Symbol findfont 28.5368 sf 0 0 m (c) show NC gr  black 3 lw 1 1 1 c 408 306 23 13 bf black 1 1 1 c black 306 229 84 59 bl 306 229 84 59 bl 84 59 m 306 X s 84 63 m -4 Y s 177 63 m -4 Y s 271 63 m -4 Y
 s 364 63 m -4 Y s 364 63 m -4 Y s
 gsave  408 306 23 13 C 74.0711 39.8845 t 0 r /Helvetica findfont 22.8295 sf 0 0 m (0) show NC gr 
 gsave  408 306 23 13 C 170.933 39.8845 t 0 r /Helvetica findfont 22.8295 sf 0 0 m (1) show NC gr 
 gsave  408 306 23 13 C 262.098 39.8845 t 0 r /Helvetica findfont 22.8295 sf 0 0 m (2) show NC gr 
 gsave  408 306 23 13 C 353.262 39.8845 t 0 r /Helvetica findfont 22.8295 sf 0 0 m (3) show NC gr  84 288 m 306 X s 84 284 m 4 Y s 177 284 m 4 Y s 271 284 m 4 Y s 364 284 m 4 Y s 364 284 m 4 Y s 84 59 m 229 Y s 89 75 m -5 X s 87 80 m -3 X s 87 85 m
 -3 X s 87 89 m -3 X s 87 94 m -3 X s 89 98 m -5 X s 87 103 m -3 X s 87 108 m -3 X s 87 112 m -3 X s 87 117 m -3 X s 89 122 m -5 X s 87 126 m -3 X s 87 131 m -3 X s 87 136 m -3 X s 87 140 m -3 X s 89 145 m -5 X s 87 150 m -3 X s 87 154 m -3 X s 87
 159 m -3 X s 87 163 m -3 X s 89 168 m -5 X s 87 173 m -3 X s 87 177 m -3 X s 87 182 m -3 X s 87 187 m -3 X s 89 191 m -5 X s 87 196 m -3 X s 87 201 m -3 X s 87 205 m -3 X s 87 210 m -3 X s 89 215 m -5 X s 87 219 m -3 X s 87 224 m -3 X s 87 229 m -3
 X s 87 233 m -3 X s 89 238 m -5 X s 87 242 m -3 X s 87 247 m -3 X s 87 252 m -3 X s 87 256 m -3 X s 89 261 m -5 X s 87 266 m -3 X s 87 270 m -3 X s 87 275 m -3 X s 87 280 m -3 X s 89 284 m -5 X s 89 75 m -5 X s 87 71 m -3 X s 87 66 m -3 X s 87 61 m
 -3 X s 89 284 m -5 X s
 gsave  408 306 23 13 C 28.4889 68.3734 t 0 r /Helvetica findfont 22.8295 sf 0 0 m (\2550.04) show NC gr 
 gsave  408 306 23 13 C 28.4889 91.1645 t 0 r /Helvetica findfont 22.8295 sf 0 0 m (\2550.03) show NC gr 
 gsave  408 306 23 13 C 28.4889 113.956 t 0 r /Helvetica findfont 22.8295 sf 0 0 m (\2550.02) show NC gr 
 gsave  408 306 23 13 C 31.3378 136.747 t 0 r /Helvetica findfont 22.8295 sf 0 0 m (\2550.01) show NC gr 
 gsave  408 306 23 13 C 65.5245 162.387 t 0 r /Helvetica findfont 22.8295 sf 0 0 m (0) show NC gr 
 gsave  408 306 23 13 C 37.0356 185.178 t 0 r /Helvetica findfont 22.8295 sf 0 0 m (0.01) show NC gr 
 gsave  408 306 23 13 C 34.1867 207.969 t 0 r /Helvetica findfont 22.8295 sf 0 0 m (0.02) show NC gr 
 gsave  408 306 23 13 C 34.1867 230.76 t 0 r /Helvetica findfont 22.8295 sf 0 0 m (0.03) show NC gr 
 gsave  408 306 23 13 C 34.1867 253.551 t 0 r /Helvetica findfont 22.8295 sf 0 0 m (0.04) show NC gr 
 gsave  408 306 23 13 C 34.1867 276.342 t 0 r /Helvetica findfont 22.8295 sf 0 0 m (0.05) show NC gr  390 59 m 229 Y s 385 75 m 5 X s 387 80 m 3 X s 387 85 m 3 X s 387 89 m 3 X s 387 94 m 3 X s 385 98 m 5 X s 387 103 m 3 X s 387 108 m 3 X s 387 112 m
 3 X s 387 117 m 3 X s 385 122 m 5 X s 387 126 m 3 X s 387 131 m 3 X s 387 136 m 3 X s 387 140 m 3 X s 385 145 m 5 X s 387 150 m 3 X s 387 154 m 3 X s 387 159 m 3 X s 387 163 m 3 X s 385 168 m 5 X s 387 173 m 3 X s 387 177 m 3 X s 387 182 m 3 X s 387
 187 m 3 X s 385 191 m 5 X s 387 196 m 3 X s 387 201 m 3 X s 387 205 m 3 X s 387 210 m 3 X s 385 215 m 5 X s 387 219 m 3 X s 387 224 m 3 X s 387 229 m 3 X s 387 233 m 3 X s 385 238 m 5 X s 387 242 m 3 X s 387 247 m 3 X s 387 252 m 3 X s 387 256 m 3 X
 s 385 261 m 5 X s 387 266 m 3 X s 387 270 m 3 X s 387 275 m 3 X s 387 280 m 3 X s 385 284 m 5 X s 385 75 m 5 X s 387 71 m 3 X s 387 66 m 3 X s 387 61 m 3 X s 385 284 m 5 X s /w 22 def /w2 {w 2 div} def /w3 {w 3 div} def 131 138 177 178 271 132 364
 213 4 { m21} R 131 150 m 43 Y s 125 193 m 11 X s 131 127 m -43 Y s 125 84 m 11 X s 177 190 m 44 Y s 172 234 m 11 X s 177 167 m -44 Y s 172 123 m 11 X s 271 144 m 42 Y s 265 186 m 12 X s 271 121 m -43 Y s 265 78 m 12 X s 364 225 m 44 Y s 359 269 m 11
 X s 364 202 m -45 Y s 359 157 m 11 X s 1 0 0 c 9 lw 0.95 0.95 0.95 c black 1 0 0 c 85 168 m 31 X 3 1 d 31 X 3 1 d 18 X 3 1 d 16 X 3 1 d 12 X 3 1 d 9 X 3 1 d 9 X 3 1 d 3 X s 235 175 m 7 X 3 1 d 6 X 3 1 d 6 X 3 1 d 6 X 3 1 d 6 X 3 1 d 6 X 4 1 d 6 X 3
 1 d 3 X 3 1 d 6 X 3 1 d 3 X 3 1 d 3 X 3 1 d 6 X 3 1 d 4 X 3 1 d 3 X 3 1 d 3 X 3 1 d 3 X 3 1 d 3 X 3 1 d 3 X 3 1 d 3 X 3 1 d 3 X 3 1 d s 385 195 m 4 X s 0.49 0.6 0.82 c black 0.49 0.6 0.82 c
 gsave  408 306 23 13 C 142.445 296.285 t 0 r /Helvetica-Bold findfont 25.6831 sf 0 0 m (7.5 < E < 8.0 GeV) show NC gr  0.52 0.76 0.64 c black 0.52 0.76 0.64 c
 gsave  408 306 23 13 C 128.2 259.249 t 0 r /Helvetica-Bold findfont 25.6831 sf 0 0 m 
 220 206 192 185 170 163 148 141 126 118 111 97 83 69 61 47 40 25 18
(A = 0.001, p = 2.000) K NC gr  1 0.6 1 c black 1 0.6 1 c
 gsave  408 306 23 13 C 427.334 128.2 t 90 r /Helvetica-Bold findfont 28.5368 sf 0 0 m (/dof=0.4) show NC gr  black 1 0.6 1 c
 gsave  408 306 23 13 C 415.938 116.804 t 90 r /Helvetica-Bold findfont 19.9758 sf 0 0 m (2) show NC gr  black 1 0.6 1 c
 gsave  408 306 23 13 C 427.334 99.7112 t 90 r /Symbol findfont 28.5368 sf 0 0 m (c) show NC gr  black 3 lw 1 1 1 c 408 306 476 13 bf black 1 1 1 c black 307 229 537 59 bl 307 229 537 59 bl 537 59 m 307 X s 537 63 m -4 Y s 631 63 m -4 Y s 724 63 m -4
 Y s 818 63 m -4 Y s 818 63 m -4 Y s
 gsave  408 306 476 13 C 527.045 39.8845 t 0 r /Helvetica findfont 22.8295 sf 0 0 m (0) show NC gr 
 gsave  408 306 476 13 C 623.907 39.8845 t 0 r /Helvetica findfont 22.8295 sf 0 0 m (1) show NC gr 
 gsave  408 306 476 13 C 715.071 39.8845 t 0 r /Helvetica findfont 22.8295 sf 0 0 m (2) show NC gr 
 gsave  408 306 476 13 C 809.085 39.8845 t 0 r /Helvetica findfont 22.8295 sf 0 0 m (3) show NC gr  537 288 m 307 X s 537 284 m 4 Y s 631 284 m 4 Y s 724 284 m 4 Y s 818 284 m 4 Y s 818 284 m 4 Y s 537 59 m 229 Y s 543 69 m -6 X s 540 78 m -3 X s 540
 87 m -3 X s 540 96 m -3 X s 543 105 m -6 X s 540 114 m -3 X s 540 123 m -3 X s 540 132 m -3 X s 543 141 m -6 X s 540 151 m -3 X s 540 160 m -3 X s 540 169 m -3 X s 543 178 m -6 X s 540 187 m -3 X s 540 196 m -3 X s 540 205 m -3 X s 543 214 m -6 X s
 540 223 m -3 X s 540 232 m -3 X s 540 241 m -3 X s 543 250 m -6 X s 540 260 m -3 X s 540 269 m -3 X s 540 278 m -3 X s 543 287 m -6 X s 543 69 m -6 X s 540 60 m -3 X s 543 287 m -6 X s
 gsave  408 306 476 13 C 481.462 62.6756 t 0 r /Helvetica findfont 22.8295 sf 0 0 m (\2550.04) show NC gr 
 gsave  408 306 476 13 C 481.462 96.8623 t 0 r /Helvetica findfont 22.8295 sf 0 0 m (\2550.02) show NC gr 
 gsave  408 306 476 13 C 518.498 133.898 t 0 r /Helvetica findfont 22.8295 sf 0 0 m (0) show NC gr 
 gsave  408 306 476 13 C 487.16 170.933 t 0 r /Helvetica findfont 22.8295 sf 0 0 m (0.02) show NC gr 
 gsave  408 306 476 13 C 487.16 207.969 t 0 r /Helvetica findfont 22.8295 sf 0 0 m (0.04) show NC gr 
 gsave  408 306 476 13 C 487.16 242.156 t 0 r /Helvetica findfont 22.8295 sf 0 0 m (0.06) show NC gr 
 gsave  408 306 476 13 C 487.16 279.191 t 0 r /Helvetica findfont 22.8295 sf 0 0 m (0.08) show NC gr  844 59 m 229 Y s 838 69 m 6 X s 841 78 m 3 X s 841 87 m 3 X s 841 96 m 3 X s 838 105 m 6 X s 841 114 m 3 X s 841 123 m 3 X s 841 132 m 3 X s 838 141
 m 6 X s 841 151 m 3 X s 841 160 m 3 X s 841 169 m 3 X s 838 178 m 6 X s 841 187 m 3 X s 841 196 m 3 X s 841 205 m 3 X s 838 214 m 6 X s 841 223 m 3 X s 841 232 m 3 X s 841 241 m 3 X s 838 250 m 6 X s 841 260 m 3 X s 841 269 m 3 X s 841 278 m 3 X s
 838 287 m 6 X s 838 69 m 6 X s 841 60 m 3 X s 838 287 m 6 X s /w 23 def /w2 {w 2 div} def /w3 {w 3 div} def 584 124 631 148 724 221 818 158 4 { m21} R 584 135 m 35 Y s 578 170 m 12 X s 584 113 m -35 Y s 578 78 m 12 X s 631 159 m 35 Y s 625 194 m 12
 X s 631 136 m -34 Y s 625 102 m 12 X s 724 232 m 37 Y s 719 269 m 11 X s 724 209 m -36 Y s 719 173 m 11 X s 818 170 m 34 Y s 812 204 m 12 X s 818 147 m -35 Y s 812 112 m 12 X s 9 lw 0.95 0.95 0.95 c black 539 142 m 3 X 3 1 d 3 X 3 1 d 6 X 3 1 d 3 X
 4 1 d 3 X 3 1 d 3 X 3 1 d 3 X 3 1 d 6 X 3 1 d 3 X 3 1 d 3 X 3 1 d 3 X 3 1 d 7 X 3 1 d 3 X 3 1 d 3 X 3 1 d 3 X 3 1 d 3 X 3 1 d 6 X 3 1 d 3 X 3 1 d 3 X 4 1 d 3 X 3 1 d 3 X 3 1 d 6 X 3 1 d s 689 164 m 3 X 3 1 d 3 X 3 1 d 3 X 3 1 d 3 X 3 1 d 7 X 3 1 d 3
 X 3 1 d 3 X 3 1 d 3 X 3 1 d 3 X 3 1 d 6 X 3 1 d 3 X 3 1 d 4 X 3 1 d 3 X 3 1 d 3 X 3 1 d 6 X 3 1 d 3 X 3 1 d 3 X 3 1 d 3 X 3 1 d 3 X 4 1 d 6 X 3 1 d 3 X 3 1 d 3 X 3 1 d 3 X s 839 186 m 3 1 d s 0.49 0.6 0.82 c black 0.49 0.6 0.82 c
 gsave  408 306 476 13 C 595.418 296.285 t 0 r /Helvetica-Bold findfont 25.6831 sf 0 0 m (8.0 < E < 8.5 GeV) show NC gr  0.52 0.76 0.64 c black 0.52 0.76 0.64 c
 gsave  408 306 476 13 C 581.174 259.249 t 0 r /Helvetica-Bold findfont 25.6831 sf 0 0 m 
 220 206 192 185 170 163 148 141 125 118 111 97 83 68 61 47 40 25 18
(A = 0.008, p = 1.000) K NC gr  1 0.6 1 c black 1 0.6 1 c
 gsave  408 306 476 13 C 883.156 128.2 t 90 r /Helvetica-Bold findfont 28.5368 sf 0 0 m (/dof=0.6) show NC gr  black 1 0.6 1 c
 gsave  408 306 476 13 C 871.76 116.804 t 90 r /Helvetica-Bold findfont 19.9758 sf 0 0 m (2) show NC gr  black 1 0.6 1 c
 gsave  408 306 476 13 C 883.156 99.7112 t 90 r /Symbol findfont 28.5368 sf 0 0 m (c) show NC gr  black 3 lw 1 1 1 c 408 306 930 13 bf black 1 1 1 c black 306 229 991 59 bl 306 229 991 59 bl 991 59 m 306 X s 991 63 m -4 Y s 1084 63 m -4 Y s 1178 63 m
 -4 Y s 1271 63 m -4 Y s 1271 63 m -4 Y s
 gsave  408 306 930 13 C 980.018 39.8845 t 0 r /Helvetica findfont 22.8295 sf 0 0 m (0) show NC gr 
 gsave  408 306 930 13 C 1076.88 39.8845 t 0 r /Helvetica findfont 22.8295 sf 0 0 m (1) show NC gr 
 gsave  408 306 930 13 C 1168.04 39.8845 t 0 r /Helvetica findfont 22.8295 sf 0 0 m (2) show NC gr 
 gsave  408 306 930 13 C 1262.06 39.8845 t 0 r /Helvetica findfont 22.8295 sf 0 0 m (3) show NC gr  991 288 m 306 X s 991 284 m 4 Y s 1084 284 m 4 Y s 1178 284 m 4 Y s 1271 284 m 4 Y s 1271 284 m 4 Y s 991 59 m 229 Y s 997 97 m -6 X s 994 107 m -3 X
 s 994 117 m -3 X s 994 126 m -3 X s 997 136 m -6 X s 994 145 m -3 X s 994 155 m -3 X s 994 165 m -3 X s 997 174 m -6 X s 994 184 m -3 X s 994 193 m -3 X s 994 203 m -3 X s 997 213 m -6 X s 994 222 m -3 X s 994 232 m -3 X s 994 241 m -3 X s 997 251 m
 -6 X s 997 97 m -6 X s 994 88 m -3 X s 994 78 m -3 X s 994 69 m -3 X s 997 251 m -6 X s 994 261 m -3 X s 994 270 m -3 X s 994 280 m -3 X s
 gsave  408 306 930 13 C 937.285 91.1645 t 0 r /Helvetica findfont 22.8295 sf 0 0 m (\2550.02) show NC gr 
 gsave  408 306 930 13 C 974.32 128.2 t 0 r /Helvetica findfont 22.8295 sf 0 0 m (0) show NC gr 
 gsave  408 306 930 13 C 942.983 168.085 t 0 r /Helvetica findfont 22.8295 sf 0 0 m (0.02) show NC gr 
 gsave  408 306 930 13 C 942.983 205.12 t 0 r /Helvetica findfont 22.8295 sf 0 0 m (0.04) show NC gr 
 gsave  408 306 930 13 C 942.983 245.005 t 0 r /Helvetica findfont 22.8295 sf 0 0 m (0.06) show NC gr  1297 59 m 229 Y s 1292 97 m 5 X s 1294 107 m 3 X s 1294 117 m 3 X s 1294 126 m 3 X s 1292 136 m 5 X s 1294 145 m 3 X s 1294 155 m 3 X s 1294 165 m
 3 X s 1292 174 m 5 X s 1294 184 m 3 X s 1294 193 m 3 X s 1294 203 m 3 X s 1292 213 m 5 X s 1294 222 m 3 X s 1294 232 m 3 X s 1294 241 m 3 X s 1292 251 m 5 X s 1292 97 m 5 X s 1294 88 m 3 X s 1294 78 m 3 X s 1294 69 m 3 X s 1292 251 m 5 X s 1294 261
 m 3 X s 1294 270 m 3 X s 1294 280 m 3 X s 1038 207 1084 192 1178 131 1271 215 4 { m21} R 1038 218 m 43 Y s 1032 261 m 11 X s 1038 196 m -43 Y s 1032 153 m 11 X s 1084 204 m 42 Y s 1079 246 m 11 X s 1084 181 m -42 Y s 1079 139 m 11 X s 1178 142 m 41
 Y s 1172 183 m 12 X s 1178 119 m -41 Y s 1172 78 m 12 X s 1271 227 m 42 Y s 1266 269 m 11 X s 1271 204 m -43 Y s 1266 161 m 11 X s 9 lw 0.95 0.95 0.95 c black 993 136 m 3 1 d 3 1 d 3 X 3 1 d 3 1 d 3 X 3 1 d 3 1 d 3 1 d 3 X 3 1 d 3 1 d 3 1 d 3 X 3 1
 d 4 1 d 3 X 3 1 d 3 1 d 3 1 d 3 X 3 1 d 3 1 d 3 1 d 3 X 3 1 d 3 1 d 3 X 3 1 d 3 1 d 3 1 d 3 X 4 1 d 3 1 d 3 X 3 1 d 3 1 d 3 1 d 3 X 3 1 d 3 1 d 3 1 d 3 X 3 1 d 3 1 d 3 X 3 1 d 3 1 d 4 1 d s 1143 172 m 3 X 3 1 d 3 1 d 3 1 d 3 X 3 1 d 3 1 d 3 X 3 1 d
 3 1 d 3 1 d 3 X 3 1 d 3 1 d 3 1 d 4 X 3 1 d 3 1 d 3 X 3 1 d 3 1 d 3 1 d 3 X 3 1 d 3 1 d 3 X 3 1 d 3 1 d 3 1 d 3 X 3 1 d 3 1 d 4 1 d 3 X 3 1 d 3 1 d 3 X 3 1 d 3 1 d 3 1 d 3 X 3 1 d 3 1 d 3 1 d 3 X 3 1 d 3 1 d 3 X 4 1 d s 1293 207 m 3 1 d s 0.49 0.6
 0.82 c black 0.49 0.6 0.82 c
 gsave  408 306 930 13 C 1051.24 296.285 t 0 r /Helvetica-Bold findfont 25.6831 sf 0 0 m (8.5 < E < 9.0 GeV) show NC gr  0.52 0.76 0.64 c black 0.52 0.76 0.64 c
 gsave  408 306 930 13 C 1037 259.249 t 0 r /Helvetica-Bold findfont 25.6831 sf 0 0 m 
 220 206 192 185 170 163 148 141 125 118 111 97 83 69 61 47 40 25 18
(A = 0.012, p = 1.000) K NC gr  1 0.6 1 c black 1 0.6 1 c
 gsave  408 306 930 13 C 1336.13 128.2 t 90 r /Helvetica-Bold findfont 28.5368 sf 0 0 m (/dof=0.9) show NC gr  black 1 0.6 1 c
 gsave  408 306 930 13 C 1324.73 116.804 t 90 r /Helvetica-Bold findfont 19.9758 sf 0 0 m (2) show NC gr  black 1 0.6 1 c
 gsave  408 306 930 13 C 1336.13 99.7112 t 90 r /Symbol findfont 28.5368 sf 0 0 m (c) show NC gr  black 3 lw 1 1 1 c 408 306 1383 13 bf black 1 1 1 c black 306 229 1445 59 bl 306 229 1445 59 bl 1445 59 m 306 X s 1445 63 m -4 Y s 1538 63 m -4 Y s 1631
 63 m -4 Y s 1725 63 m -4 Y s 1725 63 m -4 Y s
 gsave  408 306 1383 13 C 1435.84 39.8845 t 0 r /Helvetica findfont 22.8295 sf 0 0 m (0) show NC gr 
 gsave  408 306 1383 13 C 1529.85 39.8845 t 0 r /Helvetica findfont 22.8295 sf 0 0 m (1) show NC gr 
 gsave  408 306 1383 13 C 1621.02 39.8845 t 0 r /Helvetica findfont 22.8295 sf 0 0 m (2) show NC gr 
 gsave  408 306 1383 13 C 1715.03 39.8845 t 0 r /Helvetica findfont 22.8295 sf 0 0 m (3) show NC gr  1445 288 m 306 X s 1445 284 m 4 Y s 1538 284 m 4 Y s 1631 284 m 4 Y s 1725 284 m 4 Y s 1725 284 m 4 Y s 1445 59 m 229 Y s 1450 61 m -5 X s 1447 69 m
 -2 X s 1447 76 m -2 X s 1447 84 m -2 X s 1450 91 m -5 X s 1447 98 m -2 X s 1447 106 m -2 X s 1447 113 m -2 X s 1450 120 m -5 X s 1447 128 m -2 X s 1447 135 m -2 X s 1447 143 m -2 X s 1450 150 m -5 X s 1447 157 m -2 X s 1447 165 m -2 X s 1447 172 m
 -2 X s 1450 179 m -5 X s 1447 187 m -2 X s 1447 194 m -2 X s 1447 202 m -2 X s 1450 209 m -5 X s 1447 216 m -2 X s 1447 224 m -2 X s 1447 231 m -2 X s 1450 238 m -5 X s 1447 246 m -2 X s 1447 253 m -2 X s 1447 261 m -2 X s 1450 268 m -5 X s 1450 61
 m -5 X s 1450 268 m -5 X s 1447 275 m -2 X s 1447 283 m -2 X s
 gsave  408 306 1383 13 C 1390.26 54.1289 t 0 r /Helvetica findfont 22.8295 sf 0 0 m (\2550.04) show NC gr 
 gsave  408 306 1383 13 C 1390.26 82.6178 t 0 r /Helvetica findfont 22.8295 sf 0 0 m (\2550.02) show NC gr 
 gsave  408 306 1383 13 C 1427.29 113.956 t 0 r /Helvetica findfont 22.8295 sf 0 0 m (0) show NC gr 
 gsave  408 306 1383 13 C 1395.96 142.445 t 0 r /Helvetica findfont 22.8295 sf 0 0 m (0.02) show NC gr 
 gsave  408 306 1383 13 C 1395.96 170.933 t 0 r /Helvetica findfont 22.8295 sf 0 0 m (0.04) show NC gr 
 gsave  408 306 1383 13 C 1395.96 202.271 t 0 r /Helvetica findfont 22.8295 sf 0 0 m (0.06) show NC gr 
 gsave  408 306 1383 13 C 1395.96 230.76 t 0 r /Helvetica findfont 22.8295 sf 0 0 m (0.08) show NC gr 
 gsave  408 306 1383 13 C 1413.05 262.098 t 0 r /Helvetica findfont 22.8295 sf 0 0 m (0.1) show NC gr  1751 59 m 229 Y s 1745 61 m 6 X s 1748 69 m 3 X s 1748 76 m 3 X s 1748 84 m 3 X s 1745 91 m 6 X s 1748 98 m 3 X s 1748 106 m 3 X s 1748 113 m 3 X s
 1745 120 m 6 X s 1748 128 m 3 X s 1748 135 m 3 X s 1748 143 m 3 X s 1745 150 m 6 X s 1748 157 m 3 X s 1748 165 m 3 X s 1748 172 m 3 X s 1745 179 m 6 X s 1748 187 m 3 X s 1748 194 m 3 X s 1748 202 m 3 X s 1745 209 m 6 X s 1748 216 m 3 X s 1748 224 m
 3 X s 1748 231 m 3 X s 1745 238 m 6 X s 1748 246 m 3 X s 1748 253 m 3 X s 1748 261 m 3 X s 1745 268 m 6 X s 1745 61 m 6 X s 1745 268 m 6 X s 1748 275 m 3 X s 1748 283 m 3 X s 1491 126 1538 171 1631 223 1725 121 4 { m21} R 1491 138 m 31 Y s 1486 169
 m 11 X s 1491 115 m -32 Y s 1486 83 m 11 X s 1538 183 m 32 Y s 1532 215 m 12 X s 1538 160 m -33 Y s 1532 127 m 12 X s 1631 235 m 34 Y s 1626 269 m 11 X s 1631 212 m -35 Y s 1626 177 m 11 X s 1725 132 m 31 Y s 1719 163 m 12 X s 1725 109 m -31 Y s
 1719 78 m 12 X s 9 lw 0.95 0.95 0.95 c black 1446 121 m 3 X 3 1 d 3 X 3 1 d 3 X 3 1 d 3 1 d 4 X 3 1 d 3 X 3 1 d 3 X 3 1 d 3 X 3 1 d 3 X 3 1 d 3 1 d 3 X 3 1 d 3 X 3 1 d 3 X 4 1 d 3 X 3 1 d 3 X 3 1 d 3 1 d 3 X 3 1 d 3 X 3 1 d 3 X 3 1 d 3 X 3 1 d 3 X 3
 1 d 4 1 d 3 X 3 1 d 3 X 3 1 d 3 X 3 1 d 3 X 3 1 d 3 X s 1596 147 m 3 1 d 3 1 d 3 X 3 1 d 3 X 3 1 d 4 X 3 1 d 3 X 3 1 d 3 X 3 1 d 3 1 d 3 X 3 1 d 3 X 3 1 d 3 X 3 1 d 3 X 3 1 d 3 X 3 1 d 4 1 d 3 X 3 1 d 3 X 3 1 d 3 X 3 1 d 3 X 3 1 d 3 X 3 1 d 3 1 d 3
 X 3 1 d 3 X 3 1 d 4 X 3 1 d 3 X 3 1 d 3 X 3 1 d 3 X 3 1 d 3 1 d 3 X s 1746 174 m 3 1 d s 0.49 0.6 0.82 c black 0.49 0.6 0.82 c
 gsave  408 306 1383 13 C 1504.21 296.285 t 0 r /Helvetica-Bold findfont 25.6831 sf 0 0 m (9.0 < E < 9.5 GeV) show NC gr  0.52 0.76 0.64 c black 0.52 0.76 0.64 c
 gsave  408 306 1383 13 C 1489.97 259.249 t 0 r /Helvetica-Bold findfont 25.6831 sf 0 0 m 
 218 204 190 183 168 161 146 139 124 116 109 95 82 68 61 47 39 24 17
(A = 0.011, p = 1.000) K NC gr  1 0.6 1 c black 1 0.6 1 c
 gsave  408 306 1383 13 C 1789.1 128.2 t 90 r /Helvetica-Bold findfont 28.5368 sf 0 0 m (/dof=1.4) show NC gr  black 1 0.6 1 c
 gsave  408 306 1383 13 C 1777.71 116.804 t 90 r /Helvetica-Bold findfont 19.9758 sf 0 0 m (2) show NC gr  black 1 0.6 1 c
 gsave  408 306 1383 13 C 1789.1 99.7112 t 90 r /Symbol findfont 28.5368 sf 0 0 m (c) show NC gr  black 3 lw 1 1 1 c 408 306 1837 13 bf black 1 1 1 c black 306 229 1898 59 bl 306 229 1898 59 bl 1898 59 m 306 X s 1898 63 m -4 Y s 1992 63 m -4 Y s 2085
 63 m -4 Y s 2179 63 m -4 Y s 2179 63 m -4 Y s
 gsave  408 306 1837 13 C 1888.81 39.8845 t 0 r /Helvetica findfont 22.8295 sf 0 0 m (0) show NC gr 
 gsave  408 306 1837 13 C 1985.68 39.8845 t 0 r /Helvetica findfont 22.8295 sf 0 0 m (1) show NC gr 
 gsave  408 306 1837 13 C 2073.99 39.8845 t 0 r /Helvetica findfont 22.8295 sf 0 0 m (2) show NC gr 
 gsave  408 306 1837 13 C 2168.01 39.8845 t 0 r /Helvetica findfont 22.8295 sf 0 0 m (3) show NC gr  1898 288 m 306 X s 1898 284 m 4 Y s 1992 284 m 4 Y s 2085 284 m 4 Y s 2179 284 m 4 Y s 2179 284 m 4 Y s 1898 59 m 229 Y s 1904 72 m -6 X s 1901 80 m
 -3 X s 1901 89 m -3 X s 1901 97 m -3 X s 1904 106 m -6 X s 1901 114 m -3 X s 1901 123 m -3 X s 1901 131 m -3 X s 1904 140 m -6 X s 1901 148 m -3 X s 1901 157 m -3 X s 1901 165 m -3 X s 1904 174 m -6 X s 1901 182 m -3 X s 1901 191 m -3 X s 1901 199 m
 -3 X s 1904 207 m -6 X s 1901 216 m -3 X s 1901 224 m -3 X s 1901 233 m -3 X s 1904 241 m -6 X s 1901 250 m -3 X s 1901 258 m -3 X s 1901 267 m -3 X s 1904 275 m -6 X s 1904 72 m -6 X s 1901 63 m -3 X s 1904 275 m -6 X s 1901 284 m -3 X s
 gsave  408 306 1837 13 C 1843.23 65.5245 t 0 r /Helvetica findfont 22.8295 sf 0 0 m (\2550.08) show NC gr 
 gsave  408 306 1837 13 C 1843.23 99.7112 t 0 r /Helvetica findfont 22.8295 sf 0 0 m (\2550.06) show NC gr 
 gsave  408 306 1837 13 C 1843.23 133.898 t 0 r /Helvetica findfont 22.8295 sf 0 0 m (\2550.04) show NC gr 
 gsave  408 306 1837 13 C 1843.23 165.236 t 0 r /Helvetica findfont 22.8295 sf 0 0 m (\2550.02) show NC gr 
 gsave  408 306 1837 13 C 1880.27 199.422 t 0 r /Helvetica findfont 22.8295 sf 0 0 m (0) show NC gr 
 gsave  408 306 1837 13 C 1848.93 233.609 t 0 r /Helvetica findfont 22.8295 sf 0 0 m (0.02) show NC gr 
 gsave  408 306 1837 13 C 1848.93 267.796 t 0 r /Helvetica findfont 22.8295 sf 0 0 m (0.04) show NC gr  2204 59 m 229 Y s 2199 72 m 5 X s 2201 80 m 3 X s 2201 89 m 3 X s 2201 97 m 3 X s 2199 106 m 5 X s 2201 114 m 3 X s 2201 123 m 3 X s 2201 131 m 3
 X s 2199 140 m 5 X s 2201 148 m 3 X s 2201 157 m 3 X s 2201 165 m 3 X s 2199 174 m 5 X s 2201 182 m 3 X s 2201 191 m 3 X s 2201 199 m 3 X s 2199 207 m 5 X s 2201 216 m 3 X s 2201 224 m 3 X s 2201 233 m 3 X s 2199 241 m 5 X s 2201 250 m 3 X s 2201
 258 m 3 X s 2201 267 m 3 X s 2199 275 m 5 X s 2199 72 m 5 X s 2201 63 m 3 X s 2199 275 m 5 X s 2201 284 m 3 X s 1945 217 1992 127 2085 131 2179 150 4 { m21} R 1945 228 m 41 Y s 1939 269 m 12 X s 1945 205 m -40 Y s 1939 165 m 12 X s 1992 139 m 37 Y s
 1986 176 m 11 X s 1992 116 m -38 Y s 1986 78 m 11 X s 2085 143 m 38 Y s 2079 181 m 12 X s 2085 120 m -38 Y s 2079 82 m 12 X s 2179 161 m 38 Y s 2173 199 m 11 X s 2179 138 m -38 Y s 2173 100 m 11 X s 9 lw 0.95 0.95 0.95 c black 1900 207 m 3 -1 d 3 -1
 d 3 -1 d 3 -1 d 3 -1 d 3 -1 d 3 X 3 -1 d 3 -1 d 3 -1 d 3 -1 d 3 -1 d 3 -1 d 3 -1 d 4 -1 d 3 -1 d 3 -1 d 3 -1 d 3 -1 d 3 X 3 -1 d 3 -1 d 3 -1 d 3 -1 d 3 -1 d 3 -1 d 3 -1 d 3 -1 d 3 -1 d 3 -1 d 4 -1 d 3 -1 d 3 -1 d 3 X 3 -1 d 3 -1 d 3 -1 d 3 -1 d 3 -1
 d 3 -1 d 3 -1 d 3 -1 d 3 -1 d 3 -1 d 3 -1 d 3 -1 d 3 X 4 -1 d 3 -1 d s 2050 162 m 3 -1 d 3 -1 d 3 -1 d 3 -1 d 3 -1 d 3 -1 d 3 -1 d 3 -1 d 3 -1 d 3 -1 d 3 X 3 -1 d 3 -1 d 3 -1 d 4 -1 d 3 -1 d 3 -1 d 3 -1 d 3 -1 d 3 -1 d 3 -1 d 3 -1 d 3 -1 d 3 X 3 -1
 d 3 -1 d 3 -1 d 3 -1 d 3 -1 d 3 -1 d 4 -1 d 3 -1 d 3 -1 d 3 -1 d 3 -1 d 3 -1 d 3 X 3 -1 d 3 -1 d 3 -1 d 3 -1 d 3 -1 d 3 -1 d 3 -1 d 3 -1 d 3 -1 d 4 -1 d 3 -1 d 3 -1 d s 2200 116 m 3 -1 d s 0.49 0.6 0.82 c black 0.49 0.6 0.82 c
 gsave  408 306 1837 13 C 1948.64 296.285 t 0 r /Helvetica-Bold findfont 25.6831 sf 0 0 m (9.5 < E < 10.0 GeV) show NC gr  0.52 0.76 0.64 c black 0.52 0.76 0.64 c
 gsave  408 306 1837 13 C 1937.25 259.249 t 0 r /Helvetica-Bold findfont 25.6831 sf 0 0 m 
 228 214 200 193 178 171 156 149 133 126 119 105 91 77 69 55 47 39 25 17
(A = \2550.017, p = 1.000) K NC gr  1 0.6 1 c black 1 0.6 1 c
 gsave  408 306 1837 13 C 2242.08 128.2 t 90 r /Helvetica-Bold findfont 28.5368 sf 0 0 m (/dof=0.6) show NC gr  black 1 0.6 1 c
 gsave  408 306 1837 13 C 2230.68 116.804 t 90 r /Helvetica-Bold findfont 19.9758 sf 0 0 m (2) show NC gr  black 1 0.6 1 c
 gsave  408 306 1837 13 C 2242.08 99.7112 t 90 r /Symbol findfont 28.5368 sf 0 0 m (c) show NC gr 
 gr  gr showpage
end
%%EOF
