%!PS-Adobe-2.0 EPSF-2.0
%%BoundingBox:  0 0 567 332
%%Title: Tilt_t_p0_nof_fits.eps: Fits
%%Creator: ROOT Version 5.30/06
%%CreationDate: Sun Feb  2 09:31:49 2014
%%EndComments
%%BeginProlog
80 dict begin
/s {stroke} def /l {lineto} def /m {moveto} def /t {translate} def
/r {rotate} def /rl {roll}  def /R {repeat} def
/d {rlineto} def /rm {rmoveto} def /gr {grestore} def /f {eofill} def
/c {setrgbcolor} def /black {0 setgray} def /sd {setdash} def
/cl {closepath} def /sf {scalefont setfont} def /lw {setlinewidth} def
/box {m dup 0 exch d exch 0 d 0 exch neg d cl} def
/NC{systemdict begin initclip end}def/C{NC box clip newpath}def
/bl {box s} def /bf {box f} def /Y { 0 exch d} def /X { 0 d} def 
/K {{pop pop 0 moveto} exch kshow} bind def
/ita {/ang 15 def gsave [1 0 ang dup sin exch cos div 1 0 0] concat} def 
/mp {newpath /y exch def /x exch def} def
/side {[w .77 mul w .23 mul] .385 w mul sd w 0 l currentpoint t -144 r} def
/mr {mp x y w2 0 360 arc} def /m24 {mr s} def /m20 {mr f} def
/mb {mp x y w2 add m w2 neg 0 d 0 w neg d w 0 d 0 w d cl} def
/mt {mp x y w2 add m w2 neg w neg d w 0 d cl} def
/m21 {mb f} def /m25 {mb s} def /m22 {mt f} def /m26{mt s} def
/m23 {mp x y w2 sub m w2 w d w neg 0 d cl f} def
/m27 {mp x y w2 add m w3 neg w2 neg d w3 w2 neg d w3 w2 d cl s} def
/m28 {mp x w2 sub y w2 sub w3 add m w3 0 d  0 w3 neg d w3 0 d 0 w3 d w3 0 d  0 w3 d w3 neg 0 d 0 w3 d w3 neg 0 d 0 w3 neg d w3 neg 0 d cl s } def
/m29 {mp gsave x w2 sub y w2 add w3 sub m currentpoint t 4 {side} repeat cl fill gr} def
/m30 {mp gsave x w2 sub y w2 add w3 sub m currentpoint t 4 {side} repeat cl s gr} def
/m31 {mp x y w2 sub m 0 w d x w2 sub y m w 0 d x w2 sub y w2 add m w w neg d x w2 sub y w2 sub m w w d s} def
/m32 {mp x y w2 sub m w2 w d w neg 0 d cl s} def
/m33 {mp x y w2 add m w3 neg w2 neg d w3 w2 neg d w3 w2 d cl f} def
/m34 {mp x w2 sub y w2 sub w3 add m w3 0 d  0 w3 neg d w3 0 d 0 w3 d w3 0 d  0 w3 d w3 neg 0 d 0 w3 d w3 neg 0 d 0 w3 neg d w3 neg 0 d cl f } def
/m2 {mp x y w2 sub m 0 w d x w2 sub y m w 0 d s} def
/m5 {mp x w2 sub y w2 sub m w w d x w2 sub y w2 add m w w neg d s} def
/reEncode {exch findfont dup length dict begin {1 index /FID eq  {pop pop} {def} ifelse } forall /Encoding exch def currentdict end dup /FontName get exch definefont pop } def [/Times-Bold /Times-Italic /Times-BoldItalic /Helvetica /Helvetica-Oblique
 /Helvetica-Bold /Helvetica-BoldOblique /Courier /Courier-Oblique /Courier-Bold /Courier-BoldOblique /Times-Roman /AvantGarde-Book /AvantGarde-BookOblique /AvantGarde-Demi /AvantGarde-DemiOblique /Bookman-Demi /Bookman-DemiItalic /Bookman-Light
 /Bookman-LightItalic /Helvetica-Narrow /Helvetica-Narrow-Bold /Helvetica-Narrow-BoldOblique /Helvetica-Narrow-Oblique /NewCenturySchlbk-Roman /NewCenturySchlbk-Bold /NewCenturySchlbk-BoldItalic /NewCenturySchlbk-Italic /Palatino-Bold
 /Palatino-BoldItalic /Palatino-Italic /Palatino-Roman ] {ISOLatin1Encoding reEncode } forall%%EndProlog
%%BeginSetup
%%EndSetup
newpath  gsave  .25 .25 scale  gsave  0 0 t black[  ] 0 sd 3 lw 1 1 1 c 2268 1328 0 0 bf black 1 1 1 c 408 305 23 1009 bf black 1 1 1 c black 306 229 84 1055 bl 306 229 84 1055 bl 84 1055 m 306 X s 84 1059 m -4 Y s 188 1059 m -4 Y s 291 1059 m -4 Y s
 291 1059 m -4 Y s
 gsave  408 305 23 1009 C 74.0711 1034.15 t 0 r /Helvetica findfont 22.8295 sf 0 0 m (0) show NC gr 
 gsave  408 305 23 1009 C 165.236 1034.15 t 0 r /Helvetica findfont 22.8295 sf 0 0 m (500) show NC gr 
 gsave  408 305 23 1009 C 264.947 1034.15 t 0 r /Helvetica findfont 22.8295 sf 0 0 m (1000) show NC gr  84 1284 m 306 X s 84 1280 m 4 Y s 188 1280 m 4 Y s 291 1280 m 4 Y s 291 1280 m 4 Y s 84 1055 m 229 Y s 89 1064 m -5 X s 87 1070 m -3 X s 87 1076 m
 -3 X s 87 1082 m -3 X s 87 1088 m -3 X s 89 1094 m -5 X s 87 1100 m -3 X s 87 1106 m -3 X s 87 1112 m -3 X s 87 1118 m -3 X s 89 1124 m -5 X s 87 1130 m -3 X s 87 1136 m -3 X s 87 1141 m -3 X s 87 1147 m -3 X s 89 1153 m -5 X s 87 1159 m -3 X s 87
 1165 m -3 X s 87 1171 m -3 X s 87 1177 m -3 X s 89 1183 m -5 X s 87 1189 m -3 X s 87 1195 m -3 X s 87 1201 m -3 X s 87 1207 m -3 X s 89 1213 m -5 X s 87 1219 m -3 X s 87 1225 m -3 X s 87 1231 m -3 X s 87 1237 m -3 X s 89 1243 m -5 X s 87 1249 m -3 X
 s 87 1255 m -3 X s 87 1261 m -3 X s 87 1267 m -3 X s 89 1273 m -5 X s 89 1064 m -5 X s 87 1058 m -3 X s 89 1273 m -5 X s 87 1279 m -3 X s
 gsave  408 305 23 1009 C 14.2445 1056.94 t 0 r /Helvetica findfont 22.8295 sf 0 0 m (\2550.006) show NC gr 
 gsave  408 305 23 1009 C 14.2445 1085.43 t 0 r /Helvetica findfont 22.8295 sf 0 0 m (\2550.005) show NC gr 
 gsave  408 305 23 1009 C 14.2445 1116.76 t 0 r /Helvetica findfont 22.8295 sf 0 0 m (\2550.004) show NC gr 
 gsave  408 305 23 1009 C 14.2445 1145.25 t 0 r /Helvetica findfont 22.8295 sf 0 0 m (\2550.003) show NC gr 
 gsave  408 305 23 1009 C 14.2445 1176.59 t 0 r /Helvetica findfont 22.8295 sf 0 0 m (\2550.002) show NC gr 
 gsave  408 305 23 1009 C 17.0933 1205.08 t 0 r /Helvetica findfont 22.8295 sf 0 0 m (\2550.001) show NC gr 
 gsave  408 305 23 1009 C 65.5245 1236.42 t 0 r /Helvetica findfont 22.8295 sf 0 0 m (0) show NC gr 
 gsave  408 305 23 1009 C 25.64 1264.91 t 0 r /Helvetica findfont 22.8295 sf 0 0 m (0.001) show NC gr  390 1055 m 229 Y s 385 1064 m 5 X s 387 1070 m 3 X s 387 1076 m 3 X s 387 1082 m 3 X s 387 1088 m 3 X s 385 1094 m 5 X s 387 1100 m 3 X s 387 1106
 m 3 X s 387 1112 m 3 X s 387 1118 m 3 X s 385 1124 m 5 X s 387 1130 m 3 X s 387 1136 m 3 X s 387 1141 m 3 X s 387 1147 m 3 X s 385 1153 m 5 X s 387 1159 m 3 X s 387 1165 m 3 X s 387 1171 m 3 X s 387 1177 m 3 X s 385 1183 m 5 X s 387 1189 m 3 X s 387
 1195 m 3 X s 387 1201 m 3 X s 387 1207 m 3 X s 385 1213 m 5 X s 387 1219 m 3 X s 387 1225 m 3 X s 387 1231 m 3 X s 387 1237 m 3 X s 385 1243 m 5 X s 387 1249 m 3 X s 387 1255 m 3 X s 387 1261 m 3 X s 387 1267 m 3 X s 385 1273 m 5 X s 385 1064 m 5 X
 s 387 1058 m 3 X s 385 1273 m 5 X s 387 1279 m 3 X s /w 22 def /w2 {w 2 div} def /w3 {w 3 div} def 229 1228 277 1219 326 1198 374 1111 4 { m21} R 229 1239 m 26 Y s 223 1265 m 12 X s 229 1216 m -25 Y s 223 1191 m 12 X s 277 1231 m 25 Y s 272 1256 m
 11 X s 277 1208 m -26 Y s 272 1182 m 11 X s 326 1209 m 26 Y s 320 1235 m 11 X s 326 1187 m -26 Y s 320 1161 m 11 X s 374 1122 m 26 Y s 368 1148 m 12 X s 374 1099 m -25 Y s 368 1074 m 12 X s 1 0 0 c 9 lw 0.95 0.95 0.95 c black 1 0 0 c 85 1243 m 22 X
 3 -1 d 9 X 3 -1 d 6 X 3 -1 d 6 X 4 -1 d 3 X 3 -1 d 3 X 3 -1 d 3 X 3 -1 d 3 X 3 -1 d 3 X 3 -1 d 3 -1 d 3 X 3 -1 d 3 -1 d 3 -1 d 4 X 3 -1 d 3 -1 d 3 -1 d 3 -1 d 3 -1 d 3 -1 d 3 X 3 -1 d 3 -1 d 3 -1 d 3 -1 d 3 -1 d 3 -2 d 3 -1 d 3 -1 d s 235 1215 m 4
 -1 d 3 -1 d 3 -1 d 3 -1 d 3 -2 d 3 -1 d 3 -1 d 3 -2 d 3 -1 d 3 -1 d 3 -2 d 3 -1 d 3 -1 d 3 -2 d 3 -1 d 3 -2 d 3 -1 d 4 -2 d 3 -1 d 3 -2 d 3 -2 d 3 -1 d 3 -2 d 3 -1 d 3 -2 d 3 -2 d 3 -2 d 3 -1 d 3 -2 d 3 -2 d 3 -2 d 3 -2 d 3 -1 d 4 -2 d 3 -2 d 3 -2 d
 3 -2 d 3 -2 d 3 -2 d 3 -2 d 3 -2 d 3 -2 d 3 -2 d 3 -3 d 3 -2 d 3 -2 d 3 -2 d 3 -2 d 3 -2 d s 385 1133 m 4 -3 d s 0.49 0.6 0.82 c black 0.49 0.6 0.82 c
 gsave  408 305 23 1009 C 142.445 1293.4 t 0 r /Helvetica-Bold findfont 25.6831 sf 0 0 m (0.0 < E < 0.5 GeV) show NC gr  0.52 0.76 0.64 c black 0.52 0.76 0.64 c
 gsave  408 305 23 1009 C 122.502 1256.36 t 0 r /Helvetica-Bold findfont 25.6831 sf 0 0 m 
 228 214 200 193 178 171 156 149 134 126 119 105 91 77 69 55 47 39 25 17
(A = \2550.000, p = 2.000) K NC gr  1 0.6 1 c black 1 0.6 1 c
 gsave  408 305 23 1009 C 427.334 1122.46 t 90 r /Helvetica-Bold findfont 28.5368 sf 0 0 m (/dof=0.5) show NC gr  black 1 0.6 1 c
 gsave  408 305 23 1009 C 415.938 1111.07 t 90 r /Helvetica-Bold findfont 19.9758 sf 0 0 m (2) show NC gr  black 1 0.6 1 c
 gsave  408 305 23 1009 C 427.334 1093.97 t 90 r /Symbol findfont 28.5368 sf 0 0 m (c) show NC gr  black 3 lw 1 1 1 c 408 305 476 1009 bf black 1 1 1 c black 307 229 537 1055 bl 307 229 537 1055 bl 537 1055 m 307 X s 537 1059 m -4 Y s 641 1059 m -4 Y
 s 745 1059 m -4 Y s 745 1059 m -4 Y s
 gsave  408 305 476 1009 C 527.045 1034.15 t 0 r /Helvetica findfont 22.8295 sf 0 0 m (0) show NC gr 
 gsave  408 305 476 1009 C 621.058 1034.15 t 0 r /Helvetica findfont 22.8295 sf 0 0 m (500) show NC gr 
 gsave  408 305 476 1009 C 717.92 1034.15 t 0 r /Helvetica findfont 22.8295 sf 0 0 m (1000) show NC gr  537 1284 m 307 X s 537 1280 m 4 Y s 641 1280 m 4 Y s 745 1280 m 4 Y s 745 1280 m 4 Y s 537 1055 m 229 Y s 543 1060 m -6 X s 540 1065 m -3 X s 540
 1071 m -3 X s 540 1077 m -3 X s 540 1082 m -3 X s 543 1088 m -6 X s 540 1093 m -3 X s 540 1099 m -3 X s 540 1104 m -3 X s 540 1110 m -3 X s 543 1115 m -6 X s 540 1121 m -3 X s 540 1126 m -3 X s 540 1132 m -3 X s 540 1137 m -3 X s 543 1143 m -6 X s
 540 1148 m -3 X s 540 1154 m -3 X s 540 1160 m -3 X s 540 1165 m -3 X s 543 1171 m -6 X s 540 1176 m -3 X s 540 1182 m -3 X s 540 1187 m -3 X s 540 1193 m -3 X s 543 1198 m -6 X s 540 1204 m -3 X s 540 1209 m -3 X s 540 1215 m -3 X s 540 1220 m -3 X
 s 543 1226 m -6 X s 540 1231 m -3 X s 540 1237 m -3 X s 540 1243 m -3 X s 540 1248 m -3 X s 543 1254 m -6 X s 540 1259 m -3 X s 540 1265 m -3 X s 540 1270 m -3 X s 540 1276 m -3 X s 543 1281 m -6 X s 543 1060 m -6 X s 543 1281 m -6 X s
 gsave  408 305 476 1009 C 455.822 1054.09 t 0 r /Helvetica findfont 22.8295 sf 0 0 m (\2550.0025) show NC gr 
 gsave  408 305 476 1009 C 467.218 1079.73 t 0 r /Helvetica findfont 22.8295 sf 0 0 m (\2550.002) show NC gr 
 gsave  408 305 476 1009 C 455.822 1108.22 t 0 r /Helvetica findfont 22.8295 sf 0 0 m (\2550.0015) show NC gr 
 gsave  408 305 476 1009 C 470.067 1136.71 t 0 r /Helvetica findfont 22.8295 sf 0 0 m (\2550.001) show NC gr 
 gsave  408 305 476 1009 C 455.822 1162.35 t 0 r /Helvetica findfont 22.8295 sf 0 0 m (\2550.0005) show NC gr 
 gsave  408 305 476 1009 C 518.498 1190.84 t 0 r /Helvetica findfont 22.8295 sf 0 0 m (0) show NC gr 
 gsave  408 305 476 1009 C 461.52 1219.32 t 0 r /Helvetica findfont 22.8295 sf 0 0 m (0.0005) show NC gr 
 gsave  408 305 476 1009 C 478.614 1247.81 t 0 r /Helvetica findfont 22.8295 sf 0 0 m (0.001) show NC gr 
 gsave  408 305 476 1009 C 461.52 1273.45 t 0 r /Helvetica findfont 22.8295 sf 0 0 m (0.0015) show NC gr  844 1055 m 229 Y s 838 1060 m 6 X s 841 1065 m 3 X s 841 1071 m 3 X s 841 1077 m 3 X s 841 1082 m 3 X s 838 1088 m 6 X s 841 1093 m 3 X s 841
 1099 m 3 X s 841 1104 m 3 X s 841 1110 m 3 X s 838 1115 m 6 X s 841 1121 m 3 X s 841 1126 m 3 X s 841 1132 m 3 X s 841 1137 m 3 X s 838 1143 m 6 X s 841 1148 m 3 X s 841 1154 m 3 X s 841 1160 m 3 X s 841 1165 m 3 X s 838 1171 m 6 X s 841 1176 m 3 X
 s 841 1182 m 3 X s 841 1187 m 3 X s 841 1193 m 3 X s 838 1198 m 6 X s 841 1204 m 3 X s 841 1209 m 3 X s 841 1215 m 3 X s 841 1220 m 3 X s 838 1226 m 6 X s 841 1231 m 3 X s 841 1237 m 3 X s 841 1243 m 3 X s 841 1248 m 3 X s 838 1254 m 6 X s 841 1259
 m 3 X s 841 1265 m 3 X s 841 1270 m 3 X s 841 1276 m 3 X s 838 1281 m 6 X s 838 1060 m 6 X s 838 1281 m 6 X s /w 23 def /w2 {w 2 div} def /w3 {w 3 div} def 683 1182 731 1174 779 1157 828 1158 4 { m21} R 683 1193 m 72 Y s 677 1265 m 11 X s 683 1170 m
 -71 Y s 677 1099 m 11 X s 731 1186 m 71 Y s 725 1257 m 12 X s 731 1163 m -71 Y s 725 1092 m 12 X s 779 1168 m 72 Y s 773 1240 m 12 X s 779 1146 m -72 Y s 773 1074 m 12 X s 828 1169 m 73 Y s 822 1242 m 11 X s 828 1147 m -73 Y s 822 1074 m 11 X s 9 lw
 0.95 0.95 0.95 c black 539 1198 m 3 X 3 -1 d 3 X 3 -1 d 3 X 3 -1 d 6 X 4 -1 d 3 X 3 -1 d 3 X 3 -1 d 6 X 3 -1 d 3 X 3 -1 d 3 X 3 -1 d 3 X 3 -1 d 6 X 4 -1 d 3 X 3 -1 d 3 X 3 -1 d 6 X 3 -1 d 3 X 3 -1 d 3 X 3 -1 d 3 X 3 -1 d 6 X 3 -1 d 4 X 3 -1 d 3 X 3
 -1 d 6 X 3 -1 d 3 X s 689 1177 m 3 -1 d 3 X 3 -1 d 3 X 3 -1 d 6 X 3 -1 d 4 X 3 -1 d 3 X 3 -1 d 6 X 3 -1 d 3 X 3 -1 d 3 X 3 -1 d 3 X 3 -1 d 6 X 3 -1 d 4 X 3 -1 d 3 X 3 -1 d 6 X 3 -1 d 3 X 3 -1 d 3 X 3 -1 d 3 X 3 -1 d 6 X 3 -1 d 4 X 3 -1 d 3 X 3 -1 d
 6 X 3 -1 d 3 X 3 -1 d s 839 1155 m 3 X s 0.49 0.6 0.82 c black 0.49 0.6 0.82 c
 gsave  408 305 476 1009 C 595.418 1293.4 t 0 r /Helvetica-Bold findfont 25.6831 sf 0 0 m (0.5 < E < 1.0 GeV) show NC gr  0.52 0.76 0.64 c black 0.52 0.76 0.64 c
 gsave  408 305 476 1009 C 575.476 1256.36 t 0 r /Helvetica-Bold findfont 25.6831 sf 0 0 m 
 228 214 200 193 178 171 156 149 133 126 119 105 91 76 69 55 47 39 25 17
(A = \2550.000, p = 1.000) K NC gr  1 0.6 1 c black 1 0.6 1 c
 gsave  408 305 476 1009 C 883.156 1122.46 t 90 r /Helvetica-Bold findfont 28.5368 sf 0 0 m (/dof=0.0) show NC gr  black 1 0.6 1 c
 gsave  408 305 476 1009 C 871.76 1111.07 t 90 r /Helvetica-Bold findfont 19.9758 sf 0 0 m (2) show NC gr  black 1 0.6 1 c
 gsave  408 305 476 1009 C 883.156 1093.97 t 90 r /Symbol findfont 28.5368 sf 0 0 m (c) show NC gr  black 3 lw 1 1 1 c 408 305 930 1009 bf black 1 1 1 c black 306 229 991 1055 bl 306 229 991 1055 bl 991 1055 m 306 X s 991 1059 m -4 Y s 1095 1059 m -4
 Y s 1198 1059 m -4 Y s 1198 1059 m -4 Y s
 gsave  408 305 930 1009 C 980.018 1034.15 t 0 r /Helvetica findfont 22.8295 sf 0 0 m (0) show NC gr 
 gsave  408 305 930 1009 C 1074.03 1034.15 t 0 r /Helvetica findfont 22.8295 sf 0 0 m (500) show NC gr 
 gsave  408 305 930 1009 C 1170.89 1034.15 t 0 r /Helvetica findfont 22.8295 sf 0 0 m (1000) show NC gr  991 1284 m 306 X s 991 1280 m 4 Y s 1095 1280 m 4 Y s 1198 1280 m 4 Y s 1198 1280 m 4 Y s 991 1055 m 229 Y s 997 1080 m -6 X s 994 1085 m -3 X s
 994 1090 m -3 X s 994 1096 m -3 X s 994 1101 m -3 X s 997 1107 m -6 X s 994 1112 m -3 X s 994 1118 m -3 X s 994 1123 m -3 X s 994 1128 m -3 X s 997 1134 m -6 X s 994 1139 m -3 X s 994 1145 m -3 X s 994 1150 m -3 X s 994 1156 m -3 X s 997 1161 m -6 X
 s 994 1166 m -3 X s 994 1172 m -3 X s 994 1177 m -3 X s 994 1183 m -3 X s 997 1188 m -6 X s 994 1194 m -3 X s 994 1199 m -3 X s 994 1204 m -3 X s 994 1210 m -3 X s 997 1215 m -6 X s 994 1221 m -3 X s 994 1226 m -3 X s 994 1232 m -3 X s 994 1237 m -3
 X s 997 1242 m -6 X s 994 1248 m -3 X s 994 1253 m -3 X s 994 1259 m -3 X s 994 1264 m -3 X s 997 1270 m -6 X s 997 1080 m -6 X s 994 1074 m -3 X s 994 1069 m -3 X s 994 1063 m -3 X s 994 1058 m -3 X s 997 1270 m -6 X s 994 1275 m -3 X s 994 1280 m
 -3 X s
 gsave  408 305 930 1009 C 923.04 1071.18 t 0 r /Helvetica findfont 22.8295 sf 0 0 m (\2550.002) show NC gr 
 gsave  408 305 930 1009 C 911.645 1099.67 t 0 r /Helvetica findfont 22.8295 sf 0 0 m (\2550.0015) show NC gr 
 gsave  408 305 930 1009 C 925.889 1125.31 t 0 r /Helvetica findfont 22.8295 sf 0 0 m (\2550.001) show NC gr 
 gsave  408 305 930 1009 C 911.645 1153.8 t 0 r /Helvetica findfont 22.8295 sf 0 0 m (\2550.0005) show NC gr 
 gsave  408 305 930 1009 C 974.32 1182.29 t 0 r /Helvetica findfont 22.8295 sf 0 0 m (0) show NC gr 
 gsave  408 305 930 1009 C 917.343 1207.93 t 0 r /Helvetica findfont 22.8295 sf 0 0 m (0.0005) show NC gr 
 gsave  408 305 930 1009 C 934.436 1236.42 t 0 r /Helvetica findfont 22.8295 sf 0 0 m (0.001) show NC gr 
 gsave  408 305 930 1009 C 917.343 1262.06 t 0 r /Helvetica findfont 22.8295 sf 0 0 m (0.0015) show NC gr  1297 1055 m 229 Y s 1292 1080 m 5 X s 1294 1085 m 3 X s 1294 1090 m 3 X s 1294 1096 m 3 X s 1294 1101 m 3 X s 1292 1107 m 5 X s 1294 1112 m 3 X
 s 1294 1118 m 3 X s 1294 1123 m 3 X s 1294 1128 m 3 X s 1292 1134 m 5 X s 1294 1139 m 3 X s 1294 1145 m 3 X s 1294 1150 m 3 X s 1294 1156 m 3 X s 1292 1161 m 5 X s 1294 1166 m 3 X s 1294 1172 m 3 X s 1294 1177 m 3 X s 1294 1183 m 3 X s 1292 1188 m 5
 X s 1294 1194 m 3 X s 1294 1199 m 3 X s 1294 1204 m 3 X s 1294 1210 m 3 X s 1292 1215 m 5 X s 1294 1221 m 3 X s 1294 1226 m 3 X s 1294 1232 m 3 X s 1294 1237 m 3 X s 1292 1242 m 5 X s 1294 1248 m 3 X s 1294 1253 m 3 X s 1294 1259 m 3 X s 1294 1264 m
 3 X s 1292 1270 m 5 X s 1292 1080 m 5 X s 1294 1074 m 3 X s 1294 1069 m 3 X s 1294 1063 m 3 X s 1294 1058 m 3 X s 1292 1270 m 5 X s 1294 1275 m 3 X s 1294 1280 m 3 X s 1136 1156 1184 1155 1233 1177 1281 1183 4 { m21} R 1136 1167 m 69 Y s 1130 1236 m
 12 X s 1136 1144 m -69 Y s 1130 1075 m 12 X s 1184 1166 m 69 Y s 1179 1235 m 11 X s 1184 1143 m -69 Y s 1179 1074 m 11 X s 1233 1188 m 70 Y s 1227 1258 m 11 X s 1233 1166 m -70 Y s 1227 1096 m 11 X s 1281 1194 m 71 Y s 1275 1265 m 12 X s 1281 1171 m
 -71 Y s 1275 1100 m 12 X s 9 lw 0.95 0.95 0.95 c black 993 1188 m 6 X 3 -1 d 9 X 3 -1 d 9 X 3 -1 d 9 X 3 -1 d 10 X 3 -1 d 12 X 3 -1 d 9 X 3 -1 d 9 X 3 -1 d 10 X 3 -1 d 9 X 3 -1 d 12 X 3 -1 d 9 X 4 -1 d s 1143 1176 m 9 X 3 -1 d 9 X 3 -1 d 9 X 3 -1 d
 9 X 4 -1 d 12 X 3 -1 d 9 X 3 -1 d 9 X 3 -1 d 9 X 4 -1 d 9 X 3 -1 d 12 X 3 -1 d 9 X 3 -1 d 10 X s 1293 1165 m 3 -1 d s 0.49 0.6 0.82 c black 0.49 0.6 0.82 c
 gsave  408 305 930 1009 C 1051.24 1293.4 t 0 r /Helvetica-Bold findfont 25.6831 sf 0 0 m (1.0 < E < 1.5 GeV) show NC gr  0.52 0.76 0.64 c black 0.52 0.76 0.64 c
 gsave  408 305 930 1009 C 1031.3 1256.36 t 0 r /Helvetica-Bold findfont 25.6831 sf 0 0 m 
 228 214 200 193 178 171 156 149 133 126 119 105 91 77 69 55 47 39 25 17
(A = \2550.000, p = 1.000) K NC gr  1 0.6 1 c black 1 0.6 1 c
 gsave  408 305 930 1009 C 1336.13 1122.46 t 90 r /Helvetica-Bold findfont 28.5368 sf 0 0 m (/dof=0.1) show NC gr  black 1 0.6 1 c
 gsave  408 305 930 1009 C 1324.73 1111.07 t 90 r /Helvetica-Bold findfont 19.9758 sf 0 0 m (2) show NC gr  black 1 0.6 1 c
 gsave  408 305 930 1009 C 1336.13 1093.97 t 90 r /Symbol findfont 28.5368 sf 0 0 m (c) show NC gr  black 3 lw 1 1 1 c 408 305 1383 1009 bf black 1 1 1 c black 306 229 1445 1055 bl 306 229 1445 1055 bl 1445 1055 m 306 X s 1445 1059 m -4 Y s 1548 1059
 m -4 Y s 1652 1059 m -4 Y s 1652 1059 m -4 Y s
 gsave  408 305 1383 1009 C 1435.84 1034.15 t 0 r /Helvetica findfont 22.8295 sf 0 0 m (0) show NC gr 
 gsave  408 305 1383 1009 C 1527.01 1034.15 t 0 r /Helvetica findfont 22.8295 sf 0 0 m (500) show NC gr 
 gsave  408 305 1383 1009 C 1623.87 1034.15 t 0 r /Helvetica findfont 22.8295 sf 0 0 m (1000) show NC gr  1445 1284 m 306 X s 1445 1280 m 4 Y s 1548 1280 m 4 Y s 1652 1280 m 4 Y s 1652 1280 m 4 Y s 1445 1055 m 229 Y s 1450 1069 m -5 X s 1447 1077 m
 -2 X s 1447 1085 m -2 X s 1447 1093 m -2 X s 1447 1102 m -2 X s 1450 1110 m -5 X s 1447 1118 m -2 X s 1447 1126 m -2 X s 1447 1135 m -2 X s 1447 1143 m -2 X s 1450 1151 m -5 X s 1447 1159 m -2 X s 1447 1167 m -2 X s 1447 1176 m -2 X s 1447 1184 m -2
 X s 1450 1192 m -5 X s 1447 1200 m -2 X s 1447 1208 m -2 X s 1447 1217 m -2 X s 1447 1225 m -2 X s 1450 1233 m -5 X s 1447 1241 m -2 X s 1447 1249 m -2 X s 1447 1258 m -2 X s 1447 1266 m -2 X s 1450 1274 m -5 X s 1450 1069 m -5 X s 1447 1061 m -2 X
 s 1450 1274 m -5 X s 1447 1282 m -2 X s
 gsave  408 305 1383 1009 C 1376.01 1062.64 t 0 r /Helvetica findfont 22.8295 sf 0 0 m (\2550.003) show NC gr 
 gsave  408 305 1383 1009 C 1376.01 1102.52 t 0 r /Helvetica findfont 22.8295 sf 0 0 m (\2550.002) show NC gr 
 gsave  408 305 1383 1009 C 1378.86 1145.25 t 0 r /Helvetica findfont 22.8295 sf 0 0 m (\2550.001) show NC gr 
 gsave  408 305 1383 1009 C 1427.29 1185.14 t 0 r /Helvetica findfont 22.8295 sf 0 0 m (0) show NC gr 
 gsave  408 305 1383 1009 C 1387.41 1225.02 t 0 r /Helvetica findfont 22.8295 sf 0 0 m (0.001) show NC gr 
 gsave  408 305 1383 1009 C 1384.56 1267.76 t 0 r /Helvetica findfont 22.8295 sf 0 0 m (0.002) show NC gr  1751 1055 m 229 Y s 1745 1069 m 6 X s 1748 1077 m 3 X s 1748 1085 m 3 X s 1748 1093 m 3 X s 1748 1102 m 3 X s 1745 1110 m 6 X s 1748 1118 m 3 X
 s 1748 1126 m 3 X s 1748 1135 m 3 X s 1748 1143 m 3 X s 1745 1151 m 6 X s 1748 1159 m 3 X s 1748 1167 m 3 X s 1748 1176 m 3 X s 1748 1184 m 3 X s 1745 1192 m 6 X s 1748 1200 m 3 X s 1748 1208 m 3 X s 1748 1217 m 3 X s 1748 1225 m 3 X s 1745 1233 m 6
 X s 1748 1241 m 3 X s 1748 1249 m 3 X s 1748 1258 m 3 X s 1748 1266 m 3 X s 1745 1274 m 6 X s 1745 1069 m 6 X s 1748 1061 m 3 X s 1745 1274 m 6 X s 1748 1282 m 3 X s 1590 1202 1638 1174 1686 1159 1735 1137 4 { m21} R 1590 1214 m 51 Y s 1584 1265 m
 11 X s 1590 1191 m -51 Y s 1584 1140 m 11 X s 1638 1185 m 51 Y s 1632 1236 m 12 X s 1638 1163 m -51 Y s 1632 1112 m 12 X s 1686 1170 m 51 Y s 1681 1221 m 11 X s 1686 1147 m -51 Y s 1681 1096 m 11 X s 1735 1148 m 52 Y s 1729 1200 m 11 X s 1735 1126 m
 -52 Y s 1729 1074 m 11 X s 1 0 0 c 9 lw 0.95 0.95 0.95 c black 1 0 0 c 1446 1192 m 28 X 3 -1 d 18 X 3 -1 d 12 X 3 -1 d 10 X 3 -1 d 6 X 3 -1 d 6 X 3 -1 d 6 X 3 -1 d 6 X 3 -1 d 3 X 4 -1 d 3 X 3 -1 d 3 X 3 -1 d 3 X 3 -1 d 3 X 3 -1 d 3 X s 1596 1179 m 3
 -1 d 3 X 3 -1 d 3 X 3 -1 d 3 X 4 -1 d 3 -1 d 3 X 3 -1 d 3 -1 d 3 X 3 -1 d 3 -1 d 3 X 3 -1 d 3 -1 d 3 X 3 -1 d 3 -1 d 3 -1 d 3 X 3 -1 d 4 -1 d 3 -1 d 3 X 3 -1 d 3 -1 d 3 -1 d 3 -1 d 3 -1 d 3 X 3 -1 d 3 -1 d 3 -1 d 3 -1 d 3 -1 d 3 -1 d 3 -1 d 4 -1 d 3
 -1 d 3 -1 d 3 -1 d 3 -1 d 3 -1 d 3 -1 d 3 -1 d 3 -1 d 3 -1 d s 1746 1140 m 3 -1 d s 0.49 0.6 0.82 c black 0.49 0.6 0.82 c
 gsave  408 305 1383 1009 C 1504.21 1293.4 t 0 r /Helvetica-Bold findfont 25.6831 sf 0 0 m (1.5 < E < 2.0 GeV) show NC gr  0.52 0.76 0.64 c black 0.52 0.76 0.64 c
 gsave  408 305 1383 1009 C 1484.27 1256.36 t 0 r /Helvetica-Bold findfont 25.6831 sf 0 0 m 
 228 214 200 193 178 171 156 149 134 126 119 105 91 77 69 55 47 40 25 17
(A = \2550.000, p = 2.000) K NC gr  1 0.6 1 c black 1 0.6 1 c
 gsave  408 305 1383 1009 C 1789.1 1122.46 t 90 r /Helvetica-Bold findfont 28.5368 sf 0 0 m (/dof=0.0) show NC gr  black 1 0.6 1 c
 gsave  408 305 1383 1009 C 1777.71 1111.07 t 90 r /Helvetica-Bold findfont 19.9758 sf 0 0 m (2) show NC gr  black 1 0.6 1 c
 gsave  408 305 1383 1009 C 1789.1 1093.97 t 90 r /Symbol findfont 28.5368 sf 0 0 m (c) show NC gr  black 3 lw 1 1 1 c 408 305 1837 1009 bf black 1 1 1 c black 306 229 1898 1055 bl 306 229 1898 1055 bl 1898 1055 m 306 X s 1898 1059 m -4 Y s 2002 1059
 m -4 Y s 2105 1059 m -4 Y s 2105 1059 m -4 Y s
 gsave  408 305 1837 1009 C 1888.81 1034.15 t 0 r /Helvetica findfont 22.8295 sf 0 0 m (0) show NC gr 
 gsave  408 305 1837 1009 C 1979.98 1034.15 t 0 r /Helvetica findfont 22.8295 sf 0 0 m (500) show NC gr 
 gsave  408 305 1837 1009 C 2079.69 1034.15 t 0 r /Helvetica findfont 22.8295 sf 0 0 m (1000) show NC gr  1898 1284 m 306 X s 1898 1280 m 4 Y s 2002 1280 m 4 Y s 2105 1280 m 4 Y s 2105 1280 m 4 Y s 1898 1055 m 229 Y s 1904 1066 m -6 X s 1901 1074 m
 -3 X s 1901 1082 m -3 X s 1901 1091 m -3 X s 1901 1099 m -3 X s 1904 1107 m -6 X s 1901 1116 m -3 X s 1901 1124 m -3 X s 1901 1132 m -3 X s 1901 1140 m -3 X s 1904 1149 m -6 X s 1901 1157 m -3 X s 1901 1165 m -3 X s 1901 1174 m -3 X s 1901 1182 m -3
 X s 1904 1190 m -6 X s 1901 1199 m -3 X s 1901 1207 m -3 X s 1901 1215 m -3 X s 1901 1224 m -3 X s 1904 1232 m -6 X s 1901 1240 m -3 X s 1901 1249 m -3 X s 1901 1257 m -3 X s 1901 1265 m -3 X s 1904 1274 m -6 X s 1904 1066 m -6 X s 1901 1057 m -3 X
 s 1904 1274 m -6 X s 1901 1282 m -3 X s
 gsave  408 305 1837 1009 C 1828.99 1059.79 t 0 r /Helvetica findfont 22.8295 sf 0 0 m (\2550.002) show NC gr 
 gsave  408 305 1837 1009 C 1831.84 1099.67 t 0 r /Helvetica findfont 22.8295 sf 0 0 m (\2550.001) show NC gr 
 gsave  408 305 1837 1009 C 1880.27 1142.4 t 0 r /Helvetica findfont 22.8295 sf 0 0 m (0) show NC gr 
 gsave  408 305 1837 1009 C 1840.38 1182.29 t 0 r /Helvetica findfont 22.8295 sf 0 0 m (0.001) show NC gr 
 gsave  408 305 1837 1009 C 1837.53 1225.02 t 0 r /Helvetica findfont 22.8295 sf 0 0 m (0.002) show NC gr 
 gsave  408 305 1837 1009 C 1837.53 1267.76 t 0 r /Helvetica findfont 22.8295 sf 0 0 m (0.003) show NC gr  2204 1055 m 229 Y s 2199 1066 m 5 X s 2201 1074 m 3 X s 2201 1082 m 3 X s 2201 1091 m 3 X s 2201 1099 m 3 X s 2199 1107 m 5 X s 2201 1116 m 3 X
 s 2201 1124 m 3 X s 2201 1132 m 3 X s 2201 1140 m 3 X s 2199 1149 m 5 X s 2201 1157 m 3 X s 2201 1165 m 3 X s 2201 1174 m 3 X s 2201 1182 m 3 X s 2199 1190 m 5 X s 2201 1199 m 3 X s 2201 1207 m 3 X s 2201 1215 m 3 X s 2201 1224 m 3 X s 2199 1232 m 5
 X s 2201 1240 m 3 X s 2201 1249 m 3 X s 2201 1257 m 3 X s 2201 1265 m 3 X s 2199 1274 m 5 X s 2199 1066 m 5 X s 2201 1057 m 3 X s 2199 1274 m 5 X s 2201 1282 m 3 X s 2043 1198 2091 1179 2140 1159 2188 1141 4 { m21} R 2043 1210 m 55 Y s 2037 1265 m
 12 X s 2043 1187 m -55 Y s 2037 1132 m 12 X s 2091 1190 m 55 Y s 2086 1245 m 11 X s 2091 1167 m -55 Y s 2086 1112 m 11 X s 2140 1170 m 55 Y s 2134 1225 m 11 X s 2140 1147 m -55 Y s 2134 1092 m 11 X s 2188 1152 m 56 Y s 2183 1208 m 11 X s 2188 1130 m
 -56 Y s 2183 1074 m 11 X s 9 lw 0.95 0.95 0.95 c black 1900 1149 m 6 X 3 1 d 12 X 3 1 d 12 X 3 1 d 13 X 3 1 d 12 X 3 1 d 12 X 3 1 d 13 X 3 1 d 12 X 3 1 d 12 X 3 1 d 12 X 4 1 d 3 X s 2050 1159 m 9 X 3 1 d 12 X 3 1 d 12 X 3 1 d 13 X 3 1 d 12 X 3 1 d 9
 X 3 1 d 13 X 3 1 d 12 X 3 1 d 12 X 3 1 d 13 X 3 1 d 3 X s 2200 1169 m 3 X s 0.49 0.6 0.82 c black 0.49 0.6 0.82 c
 gsave  408 305 1837 1009 C 1957.19 1293.4 t 0 r /Helvetica-Bold findfont 25.6831 sf 0 0 m (2.0 < E < 2.5 GeV) show NC gr  0.52 0.76 0.64 c black 0.52 0.76 0.64 c
 gsave  408 305 1837 1009 C 1942.94 1256.36 t 0 r /Helvetica-Bold findfont 25.6831 sf 0 0 m 
 220 206 192 185 170 163 148 141 125 118 111 97 83 69 61 47 40 25 18
(A = 0.000, p = 1.000) K NC gr  1 0.6 1 c black 1 0.6 1 c
 gsave  408 305 1837 1009 C 2242.08 1122.46 t 90 r /Helvetica-Bold findfont 28.5368 sf 0 0 m (/dof=0.2) show NC gr  black 1 0.6 1 c
 gsave  408 305 1837 1009 C 2230.68 1111.07 t 90 r /Helvetica-Bold findfont 19.9758 sf 0 0 m (2) show NC gr  black 1 0.6 1 c
 gsave  408 305 1837 1009 C 2242.08 1093.97 t 90 r /Symbol findfont 28.5368 sf 0 0 m (c) show NC gr  black 3 lw 1 1 1 c 408 305 23 677 bf black 1 1 1 c black 306 229 84 723 bl 306 229 84 723 bl 84 723 m 306 X s 84 727 m -4 Y s 188 727 m -4 Y s 291
 727 m -4 Y s 291 727 m -4 Y s
 gsave  408 305 23 677 C 74.0711 703.676 t 0 r /Helvetica findfont 22.8295 sf 0 0 m (0) show NC gr 
 gsave  408 305 23 677 C 165.236 703.676 t 0 r /Helvetica findfont 22.8295 sf 0 0 m (500) show NC gr 
 gsave  408 305 23 677 C 264.947 703.676 t 0 r /Helvetica findfont 22.8295 sf 0 0 m (1000) show NC gr  84 952 m 306 X s 84 948 m 4 Y s 188 948 m 4 Y s 291 948 m 4 Y s 291 948 m 4 Y s 84 723 m 229 Y s 89 733 m -5 X s 87 742 m -3 X s 87 750 m -3 X s 87
 759 m -3 X s 87 768 m -3 X s 89 777 m -5 X s 87 786 m -3 X s 87 794 m -3 X s 87 803 m -3 X s 87 812 m -3 X s 89 821 m -5 X s 87 830 m -3 X s 87 839 m -3 X s 87 847 m -3 X s 87 856 m -3 X s 89 865 m -5 X s 87 874 m -3 X s 87 883 m -3 X s 87 892 m -3
 X s 87 900 m -3 X s 89 909 m -5 X s 89 733 m -5 X s 87 724 m -3 X s 89 909 m -5 X s 87 918 m -3 X s 87 927 m -3 X s 87 936 m -3 X s 87 944 m -3 X s
 gsave  408 305 23 677 C 14.2445 726.467 t 0 r /Helvetica findfont 22.8295 sf 0 0 m (\2550.003) show NC gr 
 gsave  408 305 23 677 C 14.2445 769.2 t 0 r /Helvetica findfont 22.8295 sf 0 0 m (\2550.002) show NC gr 
 gsave  408 305 23 677 C 17.0933 814.783 t 0 r /Helvetica findfont 22.8295 sf 0 0 m (\2550.001) show NC gr 
 gsave  408 305 23 677 C 65.5245 857.516 t 0 r /Helvetica findfont 22.8295 sf 0 0 m (0) show NC gr 
 gsave  408 305 23 677 C 25.64 903.098 t 0 r /Helvetica findfont 22.8295 sf 0 0 m (0.001) show NC gr  390 723 m 229 Y s 385 733 m 5 X s 387 742 m 3 X s 387 750 m 3 X s 387 759 m 3 X s 387 768 m 3 X s 385 777 m 5 X s 387 786 m 3 X s 387 794 m 3 X s
 387 803 m 3 X s 387 812 m 3 X s 385 821 m 5 X s 387 830 m 3 X s 387 839 m 3 X s 387 847 m 3 X s 387 856 m 3 X s 385 865 m 5 X s 387 874 m 3 X s 387 883 m 3 X s 387 892 m 3 X s 387 900 m 3 X s 385 909 m 5 X s 385 733 m 5 X s 387 724 m 3 X s 385 909 m
 5 X s 387 918 m 3 X s 387 927 m 3 X s 387 936 m 3 X s 387 944 m 3 X s /w 22 def /w2 {w 2 div} def /w3 {w 3 div} def 229 836 277 820 326 857 374 819 4 { m21} R 229 848 m 64 Y s 223 912 m 12 X s 229 825 m -64 Y s 223 761 m 12 X s 277 831 m 65 Y s 272
 896 m 11 X s 277 809 m -65 Y s 272 744 m 11 X s 326 868 m 65 Y s 320 933 m 11 X s 326 845 m -64 Y s 320 781 m 11 X s 374 830 m 66 Y s 368 896 m 12 X s 374 807 m -65 Y s 368 742 m 12 X s 9 lw 0.95 0.95 0.95 c black 85 865 m 3 -1 d 7 X 3 -1 d 3 X 3 -1
 d 3 X 3 -1 d 6 X 3 -1 d 3 X 3 -1 d 3 X 3 -1 d 6 X 4 -1 d 3 X 3 -1 d 3 X 3 -1 d 3 X 3 -1 d 6 X 3 -1 d 3 X 3 -1 d 3 X 3 -1 d 6 X 4 -1 d 3 X 3 -1 d 3 X 3 -1 d 6 X 3 -1 d 3 X 3 -1 d 3 X 3 -1 d 6 X 3 -1 d 3 X s 235 844 m 4 -1 d 3 X 3 -1 d 6 X 3 -1 d 3 X
 3 -1 d 3 X 3 -1 d 6 X 3 -1 d 3 X 3 -1 d 3 X 3 -1 d 4 X 3 -1 d 6 X 3 -1 d 3 X 3 -1 d 3 X 3 -1 d 6 X 3 -1 d 3 X 3 -1 d 3 X 3 -1 d 7 X 3 -1 d 3 X 3 -1 d 3 X 3 -1 d 6 X 3 -1 d 3 X 3 -1 d 3 X 3 -1 d 6 X s 385 823 m 4 -1 d s 0.49 0.6 0.82 c black 0.49 0.6
 0.82 c
 gsave  408 305 23 677 C 142.445 960.076 t 0 r /Helvetica-Bold findfont 25.6831 sf 0 0 m (2.5 < E < 3.0 GeV) show NC gr  0.52 0.76 0.64 c black 0.52 0.76 0.64 c
 gsave  408 305 23 677 C 122.502 923.04 t 0 r /Helvetica-Bold findfont 25.6831 sf 0 0 m 
 228 214 200 193 178 171 156 149 134 126 119 105 91 77 69 55 47 39 25 17
(A = \2550.000, p = 1.000) K NC gr  1 0.6 1 c black 1 0.6 1 c
 gsave  408 305 23 677 C 427.334 791.991 t 90 r /Helvetica-Bold findfont 28.5368 sf 0 0 m (/dof=0.1) show NC gr  black 1 0.6 1 c
 gsave  408 305 23 677 C 415.938 780.596 t 90 r /Helvetica-Bold findfont 19.9758 sf 0 0 m (2) show NC gr  black 1 0.6 1 c
 gsave  408 305 23 677 C 427.334 763.503 t 90 r /Symbol findfont 28.5368 sf 0 0 m (c) show NC gr  black 3 lw 1 1 1 c 408 305 476 677 bf black 1 1 1 c black 307 229 537 723 bl 307 229 537 723 bl 537 723 m 307 X s 537 727 m -4 Y s 641 727 m -4 Y s 745
 727 m -4 Y s 745 727 m -4 Y s
 gsave  408 305 476 677 C 527.045 703.676 t 0 r /Helvetica findfont 22.8295 sf 0 0 m (0) show NC gr 
 gsave  408 305 476 677 C 621.058 703.676 t 0 r /Helvetica findfont 22.8295 sf 0 0 m (500) show NC gr 
 gsave  408 305 476 677 C 717.92 703.676 t 0 r /Helvetica findfont 22.8295 sf 0 0 m (1000) show NC gr  537 952 m 307 X s 537 948 m 4 Y s 641 948 m 4 Y s 745 948 m 4 Y s 745 948 m 4 Y s 537 723 m 229 Y s 543 738 m -6 X s 540 745 m -3 X s 540 752 m -3
 X s 540 760 m -3 X s 540 767 m -3 X s 543 774 m -6 X s 540 782 m -3 X s 540 789 m -3 X s 540 796 m -3 X s 540 804 m -3 X s 543 811 m -6 X s 540 819 m -3 X s 540 826 m -3 X s 540 833 m -3 X s 540 841 m -3 X s 543 848 m -6 X s 540 855 m -3 X s 540 863
 m -3 X s 540 870 m -3 X s 540 877 m -3 X s 543 885 m -6 X s 540 892 m -3 X s 540 899 m -3 X s 540 907 m -3 X s 540 914 m -3 X s 543 921 m -6 X s 543 738 m -6 X s 540 730 m -3 X s 540 723 m -3 X s 543 921 m -6 X s 540 929 m -3 X s 540 936 m -3 X s
 540 943 m -3 X s 540 951 m -3 X s
 gsave  408 305 476 677 C 467.218 729.316 t 0 r /Helvetica findfont 22.8295 sf 0 0 m (\2550.003) show NC gr 
 gsave  408 305 476 677 C 467.218 766.351 t 0 r /Helvetica findfont 22.8295 sf 0 0 m (\2550.002) show NC gr 
 gsave  408 305 476 677 C 470.067 803.387 t 0 r /Helvetica findfont 22.8295 sf 0 0 m (\2550.001) show NC gr 
 gsave  408 305 476 677 C 518.498 840.423 t 0 r /Helvetica findfont 22.8295 sf 0 0 m (0) show NC gr 
 gsave  408 305 476 677 C 478.614 877.458 t 0 r /Helvetica findfont 22.8295 sf 0 0 m (0.001) show NC gr 
 gsave  408 305 476 677 C 475.765 914.494 t 0 r /Helvetica findfont 22.8295 sf 0 0 m (0.002) show NC gr  844 723 m 229 Y s 838 738 m 6 X s 841 745 m 3 X s 841 752 m 3 X s 841 760 m 3 X s 841 767 m 3 X s 838 774 m 6 X s 841 782 m 3 X s 841 789 m 3 X s
 841 796 m 3 X s 841 804 m 3 X s 838 811 m 6 X s 841 819 m 3 X s 841 826 m 3 X s 841 833 m 3 X s 841 841 m 3 X s 838 848 m 6 X s 841 855 m 3 X s 841 863 m 3 X s 841 870 m 3 X s 841 877 m 3 X s 838 885 m 6 X s 841 892 m 3 X s 841 899 m 3 X s 841 907 m
 3 X s 841 914 m 3 X s 838 921 m 6 X s 838 738 m 6 X s 841 730 m 3 X s 841 723 m 3 X s 838 921 m 6 X s 841 929 m 3 X s 841 936 m 3 X s 841 943 m 3 X s 841 951 m 3 X s /w 23 def /w2 {w 2 div} def /w3 {w 3 div} def 683 818 731 852 779 813 828 861 4 {
 m21} R 683 829 m 60 Y s 677 889 m 11 X s 683 807 m -60 Y s 677 747 m 11 X s 731 864 m 59 Y s 725 923 m 12 X s 731 841 m -60 Y s 725 781 m 12 X s 779 824 m 60 Y s 773 884 m 12 X s 779 801 m -59 Y s 773 742 m 12 X s 828 872 m 61 Y s 822 933 m 11 X s
 828 850 m -61 Y s 822 789 m 11 X s 9 lw 0.95 0.95 0.95 c black 539 848 m 6 X 3 -1 d 22 X 3 -1 d 21 X 3 -1 d 19 X 3 -1 d 21 X 3 -1 d 21 X 4 -1 d 21 X s 689 842 m 3 -1 d 21 X 4 -1 d 18 X 3 -1 d 21 X 3 -1 d 22 X 3 -1 d 21 X 3 -1 d 22 X 3 -1 d 3 X s 839
 835 m 3 X s 0.49 0.6 0.82 c black 0.49 0.6 0.82 c
 gsave  408 305 476 677 C 595.418 960.076 t 0 r /Helvetica-Bold findfont 25.6831 sf 0 0 m (3.0 < E < 3.5 GeV) show NC gr  0.52 0.76 0.64 c black 0.52 0.76 0.64 c
 gsave  408 305 476 677 C 575.476 923.04 t 0 r /Helvetica-Bold findfont 25.6831 sf 0 0 m 
 228 214 200 193 178 171 156 149 133 126 119 105 91 76 69 55 47 39 25 17
(A = \2550.000, p = 1.000) K NC gr  1 0.6 1 c black 1 0.6 1 c
 gsave  408 305 476 677 C 883.156 791.991 t 90 r /Helvetica-Bold findfont 28.5368 sf 0 0 m (/dof=0.1) show NC gr  black 1 0.6 1 c
 gsave  408 305 476 677 C 871.76 780.596 t 90 r /Helvetica-Bold findfont 19.9758 sf 0 0 m (2) show NC gr  black 1 0.6 1 c
 gsave  408 305 476 677 C 883.156 763.503 t 90 r /Symbol findfont 28.5368 sf 0 0 m (c) show NC gr  black 3 lw 1 1 1 c 408 305 930 677 bf black 1 1 1 c black 306 229 991 723 bl 306 229 991 723 bl 991 723 m 306 X s 991 727 m -4 Y s 1095 727 m -4 Y s
 1198 727 m -4 Y s 1198 727 m -4 Y s
 gsave  408 305 930 677 C 980.018 703.676 t 0 r /Helvetica findfont 22.8295 sf 0 0 m (0) show NC gr 
 gsave  408 305 930 677 C 1074.03 703.676 t 0 r /Helvetica findfont 22.8295 sf 0 0 m (500) show NC gr 
 gsave  408 305 930 677 C 1170.89 703.676 t 0 r /Helvetica findfont 22.8295 sf 0 0 m (1000) show NC gr  991 952 m 306 X s 991 948 m 4 Y s 1095 948 m 4 Y s 1198 948 m 4 Y s 1198 948 m 4 Y s 991 723 m 229 Y s 997 740 m -6 X s 994 745 m -3 X s 994 750 m
 -3 X s 994 755 m -3 X s 994 761 m -3 X s 997 766 m -6 X s 994 771 m -3 X s 994 776 m -3 X s 994 781 m -3 X s 994 786 m -3 X s 997 791 m -6 X s 994 796 m -3 X s 994 801 m -3 X s 994 806 m -3 X s 994 811 m -3 X s 997 816 m -6 X s 994 821 m -3 X s 994
 826 m -3 X s 994 831 m -3 X s 994 836 m -3 X s 997 841 m -6 X s 994 846 m -3 X s 994 851 m -3 X s 994 856 m -3 X s 994 862 m -3 X s 997 867 m -6 X s 994 872 m -3 X s 994 877 m -3 X s 994 882 m -3 X s 994 887 m -3 X s 997 892 m -6 X s 994 897 m -3 X
 s 994 902 m -3 X s 994 907 m -3 X s 994 912 m -3 X s 997 917 m -6 X s 994 922 m -3 X s 994 927 m -3 X s 994 932 m -3 X s 994 937 m -3 X s 997 942 m -6 X s 997 740 m -6 X s 994 735 m -3 X s 994 730 m -3 X s 994 725 m -3 X s 997 942 m -6 X s 994 947 m
 -3 X s
 gsave  408 305 930 677 C 923.04 732.165 t 0 r /Helvetica findfont 22.8295 sf 0 0 m (\2550.004) show NC gr 
 gsave  408 305 930 677 C 923.04 757.805 t 0 r /Helvetica findfont 22.8295 sf 0 0 m (\2550.003) show NC gr 
 gsave  408 305 930 677 C 923.04 783.445 t 0 r /Helvetica findfont 22.8295 sf 0 0 m (\2550.002) show NC gr 
 gsave  408 305 930 677 C 925.889 809.085 t 0 r /Helvetica findfont 22.8295 sf 0 0 m (\2550.001) show NC gr 
 gsave  408 305 930 677 C 974.32 834.725 t 0 r /Helvetica findfont 22.8295 sf 0 0 m (0) show NC gr 
 gsave  408 305 930 677 C 934.436 860.365 t 0 r /Helvetica findfont 22.8295 sf 0 0 m (0.001) show NC gr 
 gsave  408 305 930 677 C 931.587 886.005 t 0 r /Helvetica findfont 22.8295 sf 0 0 m (0.002) show NC gr 
 gsave  408 305 930 677 C 931.587 908.796 t 0 r /Helvetica findfont 22.8295 sf 0 0 m (0.003) show NC gr 
 gsave  408 305 930 677 C 931.587 934.436 t 0 r /Helvetica findfont 22.8295 sf 0 0 m (0.004) show NC gr  1297 723 m 229 Y s 1292 740 m 5 X s 1294 745 m 3 X s 1294 750 m 3 X s 1294 755 m 3 X s 1294 761 m 3 X s 1292 766 m 5 X s 1294 771 m 3 X s 1294
 776 m 3 X s 1294 781 m 3 X s 1294 786 m 3 X s 1292 791 m 5 X s 1294 796 m 3 X s 1294 801 m 3 X s 1294 806 m 3 X s 1294 811 m 3 X s 1292 816 m 5 X s 1294 821 m 3 X s 1294 826 m 3 X s 1294 831 m 3 X s 1294 836 m 3 X s 1292 841 m 5 X s 1294 846 m 3 X s
 1294 851 m 3 X s 1294 856 m 3 X s 1294 862 m 3 X s 1292 867 m 5 X s 1294 872 m 3 X s 1294 877 m 3 X s 1294 882 m 3 X s 1294 887 m 3 X s 1292 892 m 5 X s 1294 897 m 3 X s 1294 902 m 3 X s 1294 907 m 3 X s 1294 912 m 3 X s 1292 917 m 5 X s 1294 922 m
 3 X s 1294 927 m 3 X s 1294 932 m 3 X s 1294 937 m 3 X s 1292 942 m 5 X s 1292 740 m 5 X s 1294 735 m 3 X s 1294 730 m 3 X s 1294 725 m 3 X s 1292 942 m 5 X s 1294 947 m 3 X s 1136 801 1184 865 1233 816 1281 873 4 { m21} R 1136 812 m 48 Y s 1130 860
 m 12 X s 1136 789 m -47 Y s 1130 742 m 12 X s 1184 876 m 48 Y s 1179 924 m 11 X s 1184 853 m -47 Y s 1179 806 m 11 X s 1233 828 m 47 Y s 1227 875 m 11 X s 1233 805 m -48 Y s 1227 757 m 11 X s 1281 884 m 49 Y s 1275 933 m 12 X s 1281 861 m -48 Y s
 1275 813 m 12 X s 1 0 0 c 9 lw 0.95 0.95 0.95 c black 1 0 0 c 993 841 m 42 X 3 1 d 65 X 3 1 d 37 X s 1143 843 m 3 1 d 27 X 3 1 d 25 X 3 1 d 21 X 3 1 d 19 X 3 1 d 18 X 3 1 d 15 X 3 1 d 4 X s 1293 850 m 3 X s 0.49 0.6 0.82 c black 0.49 0.6 0.82 c
 gsave  408 305 930 677 C 1051.24 960.076 t 0 r /Helvetica-Bold findfont 25.6831 sf 0 0 m (3.5 < E < 4.0 GeV) show NC gr  0.52 0.76 0.64 c black 0.52 0.76 0.64 c
 gsave  408 305 930 677 C 1037 923.04 t 0 r /Helvetica-Bold findfont 25.6831 sf 0 0 m 
 220 206 192 185 170 163 148 141 125 118 111 97 83 69 61 47 40 25 18
(A = 0.000, p = 2.000) K NC gr  1 0.6 1 c black 1 0.6 1 c
 gsave  408 305 930 677 C 1336.13 791.991 t 90 r /Helvetica-Bold findfont 28.5368 sf 0 0 m (/dof=0.4) show NC gr  black 1 0.6 1 c
 gsave  408 305 930 677 C 1324.73 780.596 t 90 r /Helvetica-Bold findfont 19.9758 sf 0 0 m (2) show NC gr  black 1 0.6 1 c
 gsave  408 305 930 677 C 1336.13 763.503 t 90 r /Symbol findfont 28.5368 sf 0 0 m (c) show NC gr  black 3 lw 1 1 1 c 408 305 1383 677 bf black 1 1 1 c black 306 229 1445 723 bl 306 229 1445 723 bl 1445 723 m 306 X s 1445 727 m -4 Y s 1548 727 m -4 Y
 s 1652 727 m -4 Y s 1652 727 m -4 Y s
 gsave  408 305 1383 677 C 1435.84 703.676 t 0 r /Helvetica findfont 22.8295 sf 0 0 m (0) show NC gr 
 gsave  408 305 1383 677 C 1527.01 703.676 t 0 r /Helvetica findfont 22.8295 sf 0 0 m (500) show NC gr 
 gsave  408 305 1383 677 C 1623.87 703.676 t 0 r /Helvetica findfont 22.8295 sf 0 0 m (1000) show NC gr  1445 952 m 306 X s 1445 948 m 4 Y s 1548 948 m 4 Y s 1652 948 m 4 Y s 1652 948 m 4 Y s 1445 723 m 229 Y s 1450 754 m -5 X s 1447 763 m -2 X s
 1447 772 m -2 X s 1447 782 m -2 X s 1450 791 m -5 X s 1447 800 m -2 X s 1447 809 m -2 X s 1447 819 m -2 X s 1450 828 m -5 X s 1447 837 m -2 X s 1447 846 m -2 X s 1447 856 m -2 X s 1450 865 m -5 X s 1447 874 m -2 X s 1447 883 m -2 X s 1447 893 m -2 X
 s 1450 902 m -5 X s 1447 911 m -2 X s 1447 920 m -2 X s 1447 930 m -2 X s 1450 939 m -5 X s 1450 754 m -5 X s 1447 745 m -2 X s 1447 735 m -2 X s 1447 726 m -2 X s 1450 939 m -5 X s 1447 948 m -2 X s
 gsave  408 305 1383 677 C 1376.01 746.409 t 0 r /Helvetica findfont 22.8295 sf 0 0 m (\2550.004) show NC gr 
 gsave  408 305 1383 677 C 1376.01 783.445 t 0 r /Helvetica findfont 22.8295 sf 0 0 m (\2550.002) show NC gr 
 gsave  408 305 1383 677 C 1427.29 820.48 t 0 r /Helvetica findfont 22.8295 sf 0 0 m (0) show NC gr 
 gsave  408 305 1383 677 C 1384.56 857.516 t 0 r /Helvetica findfont 22.8295 sf 0 0 m (0.002) show NC gr 
 gsave  408 305 1383 677 C 1384.56 894.552 t 0 r /Helvetica findfont 22.8295 sf 0 0 m (0.004) show NC gr 
 gsave  408 305 1383 677 C 1384.56 931.587 t 0 r /Helvetica findfont 22.8295 sf 0 0 m (0.006) show NC gr  1751 723 m 229 Y s 1745 754 m 6 X s 1748 763 m 3 X s 1748 772 m 3 X s 1748 782 m 3 X s 1745 791 m 6 X s 1748 800 m 3 X s 1748 809 m 3 X s 1748
 819 m 3 X s 1745 828 m 6 X s 1748 837 m 3 X s 1748 846 m 3 X s 1748 856 m 3 X s 1745 865 m 6 X s 1748 874 m 3 X s 1748 883 m 3 X s 1748 893 m 3 X s 1745 902 m 6 X s 1748 911 m 3 X s 1748 920 m 3 X s 1748 930 m 3 X s 1745 939 m 6 X s 1745 754 m 6 X s
 1748 745 m 3 X s 1748 735 m 3 X s 1748 726 m 3 X s 1745 939 m 6 X s 1748 948 m 3 X s 1590 804 1638 799 1686 875 1735 871 4 { m21} R 1590 815 m 45 Y s 1584 860 m 11 X s 1590 792 m -45 Y s 1584 747 m 11 X s 1638 810 m 46 Y s 1632 856 m 12 X s 1638 787
 m -45 Y s 1632 742 m 12 X s 1686 887 m 46 Y s 1681 933 m 11 X s 1686 864 m -46 Y s 1681 818 m 11 X s 1735 883 m 46 Y s 1729 929 m 11 X s 1735 860 m -47 Y s 1729 813 m 11 X s 1 0 0 c 9 lw 0.95 0.95 0.95 c black 1 0 0 c 1446 828 m 37 X 3 1 d 21 X 3 1
 d 16 X 3 1 d 9 X 3 1 d 12 X 3 1 d 6 X 3 1 d 10 X 3 1 d 6 X 3 1 d 6 X 3 1 d s 1596 837 m 3 X 3 1 d 6 X 3 1 d 7 X 3 1 d 3 X 3 1 d 3 X 3 1 d 3 X 3 1 d 6 X 3 1 d 3 X 3 1 d 3 X 3 1 d 3 X 3 1 d 4 X 3 1 d 3 1 d 3 X 3 1 d 3 X 3 1 d 3 X 3 1 d 3 1 d 3 X 3 1 d
 3 X 3 1 d 3 1 d 3 X 4 1 d 3 1 d 3 X 3 1 d 3 1 d 3 X 3 1 d 3 1 d 3 X 3 1 d s 1746 863 m 3 1 d s 0.49 0.6 0.82 c black 0.49 0.6 0.82 c
 gsave  408 305 1383 677 C 1504.21 960.076 t 0 r /Helvetica-Bold findfont 25.6831 sf 0 0 m (4.0 < E < 4.5 GeV) show NC gr  0.52 0.76 0.64 c black 0.52 0.76 0.64 c
 gsave  408 305 1383 677 C 1489.97 923.04 t 0 r /Helvetica-Bold findfont 25.6831 sf 0 0 m 
 220 206 192 185 170 163 148 141 126 118 111 97 83 69 61 47 40 25 18
(A = 0.000, p = 2.000) K NC gr  1 0.6 1 c black 1 0.6 1 c
 gsave  408 305 1383 677 C 1789.1 791.991 t 90 r /Helvetica-Bold findfont 28.5368 sf 0 0 m (/dof=0.4) show NC gr  black 1 0.6 1 c
 gsave  408 305 1383 677 C 1777.71 780.596 t 90 r /Helvetica-Bold findfont 19.9758 sf 0 0 m (2) show NC gr  black 1 0.6 1 c
 gsave  408 305 1383 677 C 1789.1 763.503 t 90 r /Symbol findfont 28.5368 sf 0 0 m (c) show NC gr  black 3 lw 1 1 1 c 408 305 1837 677 bf black 1 1 1 c black 306 229 1898 723 bl 306 229 1898 723 bl 1898 723 m 306 X s 1898 727 m -4 Y s 2002 727 m -4 Y
 s 2105 727 m -4 Y s 2105 727 m -4 Y s
 gsave  408 305 1837 677 C 1888.81 703.676 t 0 r /Helvetica findfont 22.8295 sf 0 0 m (0) show NC gr 
 gsave  408 305 1837 677 C 1979.98 703.676 t 0 r /Helvetica findfont 22.8295 sf 0 0 m (500) show NC gr 
 gsave  408 305 1837 677 C 2079.69 703.676 t 0 r /Helvetica findfont 22.8295 sf 0 0 m (1000) show NC gr  1898 952 m 306 X s 1898 948 m 4 Y s 2002 948 m 4 Y s 2105 948 m 4 Y s 2105 948 m 4 Y s 1898 723 m 229 Y s 1904 723 m -6 X s 1901 728 m -3 X s
 1901 733 m -3 X s 1901 737 m -3 X s 1904 742 m -6 X s 1901 747 m -3 X s 1901 752 m -3 X s 1901 757 m -3 X s 1904 762 m -6 X s 1901 767 m -3 X s 1901 772 m -3 X s 1901 776 m -3 X s 1904 781 m -6 X s 1901 786 m -3 X s 1901 791 m -3 X s 1901 796 m -3 X
 s 1904 801 m -6 X s 1901 806 m -3 X s 1901 810 m -3 X s 1901 815 m -3 X s 1904 820 m -6 X s 1901 825 m -3 X s 1901 830 m -3 X s 1901 835 m -3 X s 1904 840 m -6 X s 1901 844 m -3 X s 1901 849 m -3 X s 1901 854 m -3 X s 1904 859 m -6 X s 1901 864 m -3
 X s 1901 869 m -3 X s 1901 874 m -3 X s 1904 879 m -6 X s 1901 883 m -3 X s 1901 888 m -3 X s 1901 893 m -3 X s 1904 898 m -6 X s 1901 903 m -3 X s 1901 908 m -3 X s 1901 913 m -3 X s 1904 917 m -6 X s 1901 922 m -3 X s 1901 927 m -3 X s 1901 932 m
 -3 X s 1904 937 m -6 X s 1904 937 m -6 X s 1901 942 m -3 X s 1901 947 m -3 X s 1901 952 m -3 X s
 gsave  408 305 1837 677 C 1880.27 715.071 t 0 r /Helvetica findfont 22.8295 sf 0 0 m (0) show NC gr 
 gsave  408 305 1837 677 C 1837.53 735.014 t 0 r /Helvetica findfont 22.8295 sf 0 0 m (0.002) show NC gr 
 gsave  408 305 1837 677 C 1837.53 754.956 t 0 r /Helvetica findfont 22.8295 sf 0 0 m (0.004) show NC gr 
 gsave  408 305 1837 677 C 1837.53 774.898 t 0 r /Helvetica findfont 22.8295 sf 0 0 m (0.006) show NC gr 
 gsave  408 305 1837 677 C 1837.53 794.84 t 0 r /Helvetica findfont 22.8295 sf 0 0 m (0.008) show NC gr 
 gsave  408 305 1837 677 C 1851.78 811.934 t 0 r /Helvetica findfont 22.8295 sf 0 0 m (0.01) show NC gr 
 gsave  408 305 1837 677 C 1837.53 831.876 t 0 r /Helvetica findfont 22.8295 sf 0 0 m (0.012) show NC gr 
 gsave  408 305 1837 677 C 1837.53 851.818 t 0 r /Helvetica findfont 22.8295 sf 0 0 m (0.014) show NC gr 
 gsave  408 305 1837 677 C 1837.53 871.76 t 0 r /Helvetica findfont 22.8295 sf 0 0 m (0.016) show NC gr 
 gsave  408 305 1837 677 C 1837.53 891.703 t 0 r /Helvetica findfont 22.8295 sf 0 0 m (0.018) show NC gr 
 gsave  408 305 1837 677 C 1848.93 911.645 t 0 r /Helvetica findfont 22.8295 sf 0 0 m (0.02) show NC gr 
 gsave  408 305 1837 677 C 1837.53 928.738 t 0 r /Helvetica findfont 22.8295 sf 0 0 m (0.022) show NC gr  2204 723 m 229 Y s 2199 723 m 5 X s 2201 728 m 3 X s 2201 733 m 3 X s 2201 737 m 3 X s 2199 742 m 5 X s 2201 747 m 3 X s 2201 752 m 3 X s 2201
 757 m 3 X s 2199 762 m 5 X s 2201 767 m 3 X s 2201 772 m 3 X s 2201 776 m 3 X s 2199 781 m 5 X s 2201 786 m 3 X s 2201 791 m 3 X s 2201 796 m 3 X s 2199 801 m 5 X s 2201 806 m 3 X s 2201 810 m 3 X s 2201 815 m 3 X s 2199 820 m 5 X s 2201 825 m 3 X s
 2201 830 m 3 X s 2201 835 m 3 X s 2199 840 m 5 X s 2201 844 m 3 X s 2201 849 m 3 X s 2201 854 m 3 X s 2199 859 m 5 X s 2201 864 m 3 X s 2201 869 m 3 X s 2201 874 m 3 X s 2199 879 m 5 X s 2201 883 m 3 X s 2201 888 m 3 X s 2201 893 m 3 X s 2199 898 m
 5 X s 2201 903 m 3 X s 2201 908 m 3 X s 2201 913 m 3 X s 2199 917 m 5 X s 2201 922 m 3 X s 2201 927 m 3 X s 2201 932 m 3 X s 2199 937 m 5 X s 2199 937 m 5 X s 2201 942 m 3 X s 2201 947 m 3 X s 2201 952 m 3 X s 2043 771 2091 781 2140 818 2188 890 4 {
 m21} R 2043 782 m 30 Y s 2037 812 m 12 X s 2043 760 m -30 Y s 2037 730 m 12 X s 2091 792 m 30 Y s 2086 822 m 11 X s 2091 769 m -29 Y s 2086 740 m 11 X s 2140 829 m 30 Y s 2134 859 m 11 X s 2140 807 m -30 Y s 2134 777 m 11 X s 2188 902 m 30 Y s 2183
 932 m 11 X s 2188 879 m -30 Y s 2183 849 m 11 X s 1 0 0 c 9 lw 0.95 0.95 0.95 c black 1 0 0 c 1900 723 m 15 X 3 1 d 9 X 3 1 d 3 X 3 1 d 3 X 3 1 d 4 X 3 1 d 3 X 3 1 d 3 X 3 1 d 3 1 d 3 1 d 3 X 3 1 d 3 1 d 3 1 d 3 1 d 3 1 d 3 1 d 3 1 d 4 1 d 3 1 d 3 1
 d 3 1 d 3 2 d 3 1 d 3 1 d 3 2 d 3 1 d 3 1 d 3 2 d 3 1 d 3 2 d 3 1 d 3 2 d 3 1 d 3 2 d 4 2 d 3 1 d s 2050 765 m 3 2 d 3 2 d 3 2 d 3 1 d 3 2 d 3 2 d 3 2 d 3 2 d 3 2 d 3 2 d 3 2 d 3 2 d 3 3 d 3 2 d 4 2 d 3 2 d 3 2 d 3 3 d 3 2 d 3 3 d 3 2 d 3 2 d 3 3 d
 3 2 d 3 3 d 3 3 d 3 2 d 3 3 d 3 3 d 3 2 d 4 3 d 3 3 d 3 3 d 3 3 d 3 3 d 3 2 d 3 3 d 3 3 d 3 4 d 3 3 d 3 3 d 3 3 d 3 3 d 3 3 d 3 4 d 3 3 d 4 3 d 3 3 d 3 4 d s 2200 891 m 3 3 d s 0.49 0.6 0.82 c black 0.49 0.6 0.82 c
 gsave  408 305 1837 677 C 1957.19 960.076 t 0 r /Helvetica-Bold findfont 25.6831 sf 0 0 m (4.5 < E < 5.0 GeV) show NC gr  0.52 0.76 0.64 c black 0.52 0.76 0.64 c
 gsave  408 305 1837 677 C 1942.94 923.04 t 0 r /Helvetica-Bold findfont 25.6831 sf 0 0 m 
 220 206 192 185 170 163 148 141 125 118 111 97 83 69 61 47 40 25 18
(A = 0.000, p = 2.000) K NC gr  1 0.6 1 c black 1 0.6 1 c
 gsave  408 305 1837 677 C 2242.08 791.991 t 90 r /Helvetica-Bold findfont 28.5368 sf 0 0 m (/dof=0.1) show NC gr  black 1 0.6 1 c
 gsave  408 305 1837 677 C 2230.68 780.596 t 90 r /Helvetica-Bold findfont 19.9758 sf 0 0 m (2) show NC gr  black 1 0.6 1 c
 gsave  408 305 1837 677 C 2242.08 763.503 t 90 r /Symbol findfont 28.5368 sf 0 0 m (c) show NC gr  black 3 lw 1 1 1 c 408 306 23 345 bf black 1 1 1 c black 306 229 84 391 bl 306 229 84 391 bl 84 391 m 306 X s 84 395 m -4 Y s 188 395 m -4 Y s 291 395
 m -4 Y s 291 395 m -4 Y s
 gsave  408 306 23 345 C 74.0711 370.356 t 0 r /Helvetica findfont 22.8295 sf 0 0 m (0) show NC gr 
 gsave  408 306 23 345 C 165.236 370.356 t 0 r /Helvetica findfont 22.8295 sf 0 0 m (500) show NC gr 
 gsave  408 306 23 345 C 264.947 370.356 t 0 r /Helvetica findfont 22.8295 sf 0 0 m (1000) show NC gr  84 620 m 306 X s 84 616 m 4 Y s 188 616 m 4 Y s 291 616 m 4 Y s 291 616 m 4 Y s 84 391 m 229 Y s 89 395 m -5 X s 87 403 m -3 X s 87 411 m -3 X s 87
 419 m -3 X s 87 427 m -3 X s 89 435 m -5 X s 87 443 m -3 X s 87 451 m -3 X s 87 459 m -3 X s 87 467 m -3 X s 89 475 m -5 X s 87 483 m -3 X s 87 492 m -3 X s 87 500 m -3 X s 87 508 m -3 X s 89 516 m -5 X s 87 524 m -3 X s 87 532 m -3 X s 87 540 m -3
 X s 87 548 m -3 X s 89 556 m -5 X s 87 564 m -3 X s 87 572 m -3 X s 87 580 m -3 X s 87 588 m -3 X s 89 596 m -5 X s 89 395 m -5 X s 89 596 m -5 X s 87 604 m -3 X s 87 612 m -3 X s
 gsave  408 306 23 345 C 31.3378 387.449 t 0 r /Helvetica findfont 22.8295 sf 0 0 m (\2550.01) show NC gr 
 gsave  408 306 23 345 C 65.5245 427.334 t 0 r /Helvetica findfont 22.8295 sf 0 0 m (0) show NC gr 
 gsave  408 306 23 345 C 37.0356 467.218 t 0 r /Helvetica findfont 22.8295 sf 0 0 m (0.01) show NC gr 
 gsave  408 306 23 345 C 34.1867 509.951 t 0 r /Helvetica findfont 22.8295 sf 0 0 m (0.02) show NC gr 
 gsave  408 306 23 345 C 34.1867 549.836 t 0 r /Helvetica findfont 22.8295 sf 0 0 m (0.03) show NC gr 
 gsave  408 306 23 345 C 34.1867 589.72 t 0 r /Helvetica findfont 22.8295 sf 0 0 m (0.04) show NC gr  390 391 m 229 Y s 385 395 m 5 X s 387 403 m 3 X s 387 411 m 3 X s 387 419 m 3 X s 387 427 m 3 X s 385 435 m 5 X s 387 443 m 3 X s 387 451 m 3 X s
 387 459 m 3 X s 387 467 m 3 X s 385 475 m 5 X s 387 483 m 3 X s 387 492 m 3 X s 387 500 m 3 X s 387 508 m 3 X s 385 516 m 5 X s 387 524 m 3 X s 387 532 m 3 X s 387 540 m 3 X s 387 548 m 3 X s 385 556 m 5 X s 387 564 m 3 X s 387 572 m 3 X s 387 580 m
 3 X s 387 588 m 3 X s 385 596 m 5 X s 385 395 m 5 X s 385 596 m 5 X s 387 604 m 3 X s 387 612 m 3 X s /w 22 def /w2 {w 2 div} def /w3 {w 3 div} def 229 432 277 462 326 466 374 578 4 { m21} R 229 443 m 11 Y s 223 454 m 12 X s 229 421 m -11 Y s 223
 410 m 12 X s 277 473 m 11 Y s 272 484 m 11 X s 277 451 m -11 Y s 272 440 m 11 X s 326 477 m 11 Y s 320 488 m 11 X s 326 454 m -10 Y s 320 444 m 11 X s 374 590 m 11 Y s 368 601 m 12 X s 374 567 m -12 Y s 368 555 m 12 X s 1 0 0 c 9 lw 0.95 0.95 0.95 c
 black 1 0 0 c 85 435 m 16 X 3 1 d 12 X 3 1 d 9 X 3 1 d 3 X 3 1 d 7 X 3 1 d 3 X 3 1 d 3 X 3 1 d 3 X 3 1 d 3 1 d 3 X 3 1 d 3 X 3 1 d 3 1 d 3 1 d 4 X 3 1 d 3 1 d 3 1 d 3 1 d 3 X 3 1 d 3 1 d 3 1 d 3 1 d 3 1 d 3 1 d 3 1 d 3 1 d 3 1 d 3 1 d s 235 462 m 4
 1 d 3 1 d 3 2 d 3 1 d 3 1 d 3 1 d 3 1 d 3 2 d 3 1 d 3 1 d 3 2 d 3 1 d 3 1 d 3 2 d 3 1 d 3 2 d 3 1 d 4 2 d 3 1 d 3 2 d 3 1 d 3 2 d 3 1 d 3 2 d 3 1 d 3 2 d 3 2 d 3 2 d 3 1 d 3 2 d 3 2 d 3 2 d 3 1 d 4 2 d 3 2 d 3 2 d 3 2 d 3 2 d 3 2 d 3 2 d 3 2 d 3 2 d
 3 2 d 3 2 d 3 2 d 3 2 d 3 2 d 3 2 d 3 2 d s 385 542 m 4 3 d s 0.49 0.6 0.82 c black 0.49 0.6 0.82 c
 gsave  408 306 23 345 C 142.445 629.605 t 0 r /Helvetica-Bold findfont 25.6831 sf 0 0 m (5.0 < E < 5.5 GeV) show NC gr  0.52 0.76 0.64 c black 0.52 0.76 0.64 c
 gsave  408 306 23 345 C 128.2 592.569 t 0 r /Helvetica-Bold findfont 25.6831 sf 0 0 m 
 220 206 192 185 170 163 148 141 126 118 111 97 83 69 61 47 40 25 18
(A = 0.000, p = 2.000) K NC gr  1 0.6 1 c black 1 0.6 1 c
 gsave  408 306 23 345 C 427.334 458.671 t 90 r /Helvetica-Bold findfont 28.5368 sf 0 0 m (/dof=3.0) show NC gr  black 1 0.6 1 c
 gsave  408 306 23 345 C 415.938 447.276 t 90 r /Helvetica-Bold findfont 19.9758 sf 0 0 m (2) show NC gr  black 1 0.6 1 c
 gsave  408 306 23 345 C 427.334 430.182 t 90 r /Symbol findfont 28.5368 sf 0 0 m (c) show NC gr  black 3 lw 1 1 1 c 408 306 476 345 bf black 1 1 1 c black 307 229 537 391 bl 307 229 537 391 bl 537 391 m 307 X s 537 395 m -4 Y s 641 395 m -4 Y s 745
 395 m -4 Y s 745 395 m -4 Y s
 gsave  408 306 476 345 C 527.045 370.356 t 0 r /Helvetica findfont 22.8295 sf 0 0 m (0) show NC gr 
 gsave  408 306 476 345 C 621.058 370.356 t 0 r /Helvetica findfont 22.8295 sf 0 0 m (500) show NC gr 
 gsave  408 306 476 345 C 717.92 370.356 t 0 r /Helvetica findfont 22.8295 sf 0 0 m (1000) show NC gr  537 620 m 307 X s 537 616 m 4 Y s 641 616 m 4 Y s 745 616 m 4 Y s 745 616 m 4 Y s 537 391 m 229 Y s 543 416 m -6 X s 540 421 m -3 X s 540 426 m -3
 X s 540 432 m -3 X s 540 437 m -3 X s 543 442 m -6 X s 540 447 m -3 X s 540 453 m -3 X s 540 458 m -3 X s 540 463 m -3 X s 543 468 m -6 X s 540 474 m -3 X s 540 479 m -3 X s 540 484 m -3 X s 540 489 m -3 X s 543 495 m -6 X s 540 500 m -3 X s 540 505
 m -3 X s 540 510 m -3 X s 540 516 m -3 X s 543 521 m -6 X s 540 526 m -3 X s 540 531 m -3 X s 540 537 m -3 X s 540 542 m -3 X s 543 547 m -6 X s 540 552 m -3 X s 540 558 m -3 X s 540 563 m -3 X s 540 568 m -3 X s 543 573 m -6 X s 540 579 m -3 X s
 540 584 m -3 X s 540 589 m -3 X s 540 594 m -3 X s 543 600 m -6 X s 543 416 m -6 X s 540 411 m -3 X s 540 405 m -3 X s 540 400 m -3 X s 540 395 m -3 X s 543 600 m -6 X s 540 605 m -3 X s 540 610 m -3 X s 540 615 m -3 X s
 gsave  408 306 476 345 C 484.311 407.391 t 0 r /Helvetica findfont 22.8295 sf 0 0 m (\2550.01) show NC gr 
 gsave  408 306 476 345 C 518.498 435.88 t 0 r /Helvetica findfont 22.8295 sf 0 0 m (0) show NC gr 
 gsave  408 306 476 345 C 490.009 461.52 t 0 r /Helvetica findfont 22.8295 sf 0 0 m (0.01) show NC gr 
 gsave  408 306 476 345 C 487.16 487.16 t 0 r /Helvetica findfont 22.8295 sf 0 0 m (0.02) show NC gr 
 gsave  408 306 476 345 C 487.16 512.8 t 0 r /Helvetica findfont 22.8295 sf 0 0 m (0.03) show NC gr 
 gsave  408 306 476 345 C 487.16 541.289 t 0 r /Helvetica findfont 22.8295 sf 0 0 m (0.04) show NC gr 
 gsave  408 306 476 345 C 487.16 566.929 t 0 r /Helvetica findfont 22.8295 sf 0 0 m (0.05) show NC gr 
 gsave  408 306 476 345 C 487.16 592.569 t 0 r /Helvetica findfont 22.8295 sf 0 0 m (0.06) show NC gr  844 391 m 229 Y s 838 416 m 6 X s 841 421 m 3 X s 841 426 m 3 X s 841 432 m 3 X s 841 437 m 3 X s 838 442 m 6 X s 841 447 m 3 X s 841 453 m 3 X s
 841 458 m 3 X s 841 463 m 3 X s 838 468 m 6 X s 841 474 m 3 X s 841 479 m 3 X s 841 484 m 3 X s 841 489 m 3 X s 838 495 m 6 X s 841 500 m 3 X s 841 505 m 3 X s 841 510 m 3 X s 841 516 m 3 X s 838 521 m 6 X s 841 526 m 3 X s 841 531 m 3 X s 841 537 m
 3 X s 841 542 m 3 X s 838 547 m 6 X s 841 552 m 3 X s 841 558 m 3 X s 841 563 m 3 X s 841 568 m 3 X s 838 573 m 6 X s 841 579 m 3 X s 841 584 m 3 X s 841 589 m 3 X s 841 594 m 3 X s 838 600 m 6 X s 838 416 m 6 X s 841 411 m 3 X s 841 405 m 3 X s 841
 400 m 3 X s 841 395 m 3 X s 838 600 m 6 X s 841 605 m 3 X s 841 610 m 3 X s 841 615 m 3 X s /w 23 def /w2 {w 2 div} def /w3 {w 3 div} def 683 456 731 428 779 463 828 582 4 { m21} R 683 467 m 7 Y s 677 474 m 11 X s 683 445 m -7 Y s 677 438 m 11 X s
 731 439 m 7 Y s 725 446 m 12 X s 731 416 m -6 Y s 725 410 m 12 X s 779 474 m 7 Y s 773 481 m 12 X s 779 451 m -6 Y s 773 445 m 12 X s 828 594 m 7 Y s 822 601 m 11 X s 828 571 m -7 Y s 822 564 m 11 X s 1 0 0 c 9 lw 0.95 0.95 0.95 c black 1 0 0 c 539
 442 m 15 X 3 1 d 16 X 3 1 d 9 X 3 1 d 6 X 3 1 d 6 X 3 1 d 3 X 3 1 d 4 X 3 1 d 3 X 3 1 d 3 X 3 1 d 3 X 3 1 d 3 1 d 3 X 3 1 d 3 1 d 3 X 3 1 d 3 1 d 3 1 d 3 X 4 1 d 3 1 d 3 1 d 3 1 d 3 X 3 1 d 3 1 d 3 1 d s 689 465 m 3 1 d 3 1 d 3 1 d 3 1 d 3 1 d 3 1 d
 3 1 d 3 1 d 4 1 d 3 1 d 3 2 d 3 1 d 3 1 d 3 1 d 3 1 d 3 1 d 3 2 d 3 1 d 3 1 d 3 1 d 3 2 d 3 1 d 3 1 d 3 2 d 4 1 d 3 2 d 3 1 d 3 2 d 3 1 d 3 1 d 3 2 d 3 2 d 3 1 d 3 2 d 3 1 d 3 2 d 3 1 d 3 2 d 3 2 d 3 1 d 4 2 d 3 2 d 3 1 d 3 2 d 3 2 d 3 2 d 3 2 d 3 1
 d 3 2 d s 839 533 m 3 2 d s 0.49 0.6 0.82 c black 0.49 0.6 0.82 c
 gsave  408 306 476 345 C 595.418 629.605 t 0 r /Helvetica-Bold findfont 25.6831 sf 0 0 m (5.5 < E < 6.0 GeV) show NC gr  0.52 0.76 0.64 c black 0.52 0.76 0.64 c
 gsave  408 306 476 345 C 581.174 592.569 t 0 r /Helvetica-Bold findfont 25.6831 sf 0 0 m 
 220 206 192 185 170 163 148 141 125 118 111 97 83 68 61 47 40 25 18
(A = 0.000, p = 2.000) K NC gr  1 0.6 1 c black 1 0.6 1 c
 gsave  408 306 476 345 C 883.156 458.671 t 90 r /Helvetica-Bold findfont 28.5368 sf 0 0 m (/dof=7.3) show NC gr  black 1 0.6 1 c
 gsave  408 306 476 345 C 871.76 447.276 t 90 r /Helvetica-Bold findfont 19.9758 sf 0 0 m (2) show NC gr  black 1 0.6 1 c
 gsave  408 306 476 345 C 883.156 430.182 t 90 r /Symbol findfont 28.5368 sf 0 0 m (c) show NC gr  black 3 lw 1 1 1 c 408 306 930 345 bf black 1 1 1 c black 306 229 991 391 bl 306 229 991 391 bl 991 391 m 306 X s 991 395 m -4 Y s 1095 395 m -4 Y s
 1198 395 m -4 Y s 1198 395 m -4 Y s
 gsave  408 306 930 345 C 980.018 370.356 t 0 r /Helvetica findfont 22.8295 sf 0 0 m (0) show NC gr 
 gsave  408 306 930 345 C 1074.03 370.356 t 0 r /Helvetica findfont 22.8295 sf 0 0 m (500) show NC gr 
 gsave  408 306 930 345 C 1170.89 370.356 t 0 r /Helvetica findfont 22.8295 sf 0 0 m (1000) show NC gr  991 620 m 306 X s 991 616 m 4 Y s 1095 616 m 4 Y s 1198 616 m 4 Y s 1198 616 m 4 Y s 991 391 m 229 Y s 997 404 m -6 X s 994 409 m -3 X s 994 414 m
 -3 X s 994 420 m -3 X s 994 425 m -3 X s 997 430 m -6 X s 994 435 m -3 X s 994 441 m -3 X s 994 446 m -3 X s 994 451 m -3 X s 997 456 m -6 X s 994 462 m -3 X s 994 467 m -3 X s 994 472 m -3 X s 994 477 m -3 X s 997 483 m -6 X s 994 488 m -3 X s 994
 493 m -3 X s 994 498 m -3 X s 994 504 m -3 X s 997 509 m -6 X s 994 514 m -3 X s 994 519 m -3 X s 994 525 m -3 X s 994 530 m -3 X s 997 535 m -6 X s 994 541 m -3 X s 994 546 m -3 X s 994 551 m -3 X s 994 556 m -3 X s 997 562 m -6 X s 994 567 m -3 X
 s 994 572 m -3 X s 994 577 m -3 X s 994 583 m -3 X s 997 588 m -6 X s 994 593 m -3 X s 994 598 m -3 X s 994 604 m -3 X s 994 609 m -3 X s 997 614 m -6 X s 997 404 m -6 X s 994 399 m -3 X s 994 393 m -3 X s 997 614 m -6 X s 994 619 m -3 X s
 gsave  408 306 930 345 C 937.285 395.996 t 0 r /Helvetica findfont 22.8295 sf 0 0 m (\2550.02) show NC gr 
 gsave  408 306 930 345 C 940.134 421.636 t 0 r /Helvetica findfont 22.8295 sf 0 0 m (\2550.01) show NC gr 
 gsave  408 306 930 345 C 974.32 450.125 t 0 r /Helvetica findfont 22.8295 sf 0 0 m (0) show NC gr 
 gsave  408 306 930 345 C 945.832 475.765 t 0 r /Helvetica findfont 22.8295 sf 0 0 m (0.01) show NC gr 
 gsave  408 306 930 345 C 942.983 501.405 t 0 r /Helvetica findfont 22.8295 sf 0 0 m (0.02) show NC gr 
 gsave  408 306 930 345 C 942.983 527.045 t 0 r /Helvetica findfont 22.8295 sf 0 0 m (0.03) show NC gr 
 gsave  408 306 930 345 C 942.983 555.534 t 0 r /Helvetica findfont 22.8295 sf 0 0 m (0.04) show NC gr 
 gsave  408 306 930 345 C 942.983 581.174 t 0 r /Helvetica findfont 22.8295 sf 0 0 m (0.05) show NC gr 
 gsave  408 306 930 345 C 942.983 606.814 t 0 r /Helvetica findfont 22.8295 sf 0 0 m (0.06) show NC gr  1297 391 m 229 Y s 1292 404 m 5 X s 1294 409 m 3 X s 1294 414 m 3 X s 1294 420 m 3 X s 1294 425 m 3 X s 1292 430 m 5 X s 1294 435 m 3 X s 1294 441
 m 3 X s 1294 446 m 3 X s 1294 451 m 3 X s 1292 456 m 5 X s 1294 462 m 3 X s 1294 467 m 3 X s 1294 472 m 3 X s 1294 477 m 3 X s 1292 483 m 5 X s 1294 488 m 3 X s 1294 493 m 3 X s 1294 498 m 3 X s 1294 504 m 3 X s 1292 509 m 5 X s 1294 514 m 3 X s
 1294 519 m 3 X s 1294 525 m 3 X s 1294 530 m 3 X s 1292 535 m 5 X s 1294 541 m 3 X s 1294 546 m 3 X s 1294 551 m 3 X s 1294 556 m 3 X s 1292 562 m 5 X s 1294 567 m 3 X s 1294 572 m 3 X s 1294 577 m 3 X s 1294 583 m 3 X s 1292 588 m 5 X s 1294 593 m
 3 X s 1294 598 m 3 X s 1294 604 m 3 X s 1294 609 m 3 X s 1292 614 m 5 X s 1292 404 m 5 X s 1294 399 m 3 X s 1294 393 m 3 X s 1292 614 m 5 X s 1294 619 m 3 X s 1136 444 1184 431 1233 491 1281 579 4 { m21} R 1136 456 m 9 Y s 1130 465 m 12 X s 1136 433
 m -10 Y s 1130 423 m 12 X s 1184 443 m 10 Y s 1179 453 m 11 X s 1184 420 m -10 Y s 1179 410 m 11 X s 1233 502 m 11 Y s 1227 513 m 11 X s 1233 480 m -11 Y s 1227 469 m 11 X s 1281 590 m 11 Y s 1275 601 m 12 X s 1281 567 m -10 Y s 1275 557 m 12 X s 1
 0 0 c 9 lw 0.95 0.95 0.95 c black 1 0 0 c 993 456 m 6 X 3 1 d 21 X 3 1 d 12 X 4 1 d 6 X 3 1 d 6 X 3 1 d 6 X 3 1 d 3 X 3 1 d 3 X 3 1 d 3 X 3 1 d 3 X 4 1 d 3 X 3 1 d 3 X 3 1 d 3 1 d 3 X 3 1 d 3 1 d 3 X 3 1 d 3 1 d 3 1 d 3 X 3 1 d 3 1 d 4 1 d s 1143
 477 m 3 1 d 3 X 3 1 d 3 1 d 3 1 d 3 1 d 3 1 d 3 1 d 3 1 d 3 1 d 3 1 d 3 1 d 3 1 d 3 1 d 3 1 d 4 1 d 3 1 d 3 1 d 3 1 d 3 1 d 3 2 d 3 1 d 3 1 d 3 1 d 3 1 d 3 2 d 3 1 d 3 1 d 3 1 d 3 2 d 3 1 d 3 1 d 4 2 d 3 1 d 3 2 d 3 1 d 3 1 d 3 2 d 3 1 d 3 2 d 3 1 d
 3 2 d 3 1 d 3 2 d 3 1 d 3 2 d 3 1 d 3 2 d 4 2 d s 1293 537 m 3 1 d s 0.49 0.6 0.82 c black 0.49 0.6 0.82 c
 gsave  408 306 930 345 C 1051.24 629.605 t 0 r /Helvetica-Bold findfont 25.6831 sf 0 0 m (6.0 < E < 6.5 GeV) show NC gr  0.52 0.76 0.64 c black 0.52 0.76 0.64 c
 gsave  408 306 930 345 C 1037 592.569 t 0 r /Helvetica-Bold findfont 25.6831 sf 0 0 m 
 220 206 192 185 170 163 148 141 125 118 111 97 83 69 61 47 40 25 18
(A = 0.000, p = 2.000) K NC gr  1 0.6 1 c black 1 0.6 1 c
 gsave  408 306 930 345 C 1336.13 458.671 t 90 r /Helvetica-Bold findfont 28.5368 sf 0 0 m (/dof=5.0) show NC gr  black 1 0.6 1 c
 gsave  408 306 930 345 C 1324.73 447.276 t 90 r /Helvetica-Bold findfont 19.9758 sf 0 0 m (2) show NC gr  black 1 0.6 1 c
 gsave  408 306 930 345 C 1336.13 430.182 t 90 r /Symbol findfont 28.5368 sf 0 0 m (c) show NC gr  black 3 lw 1 1 1 c 408 306 1383 345 bf black 1 1 1 c black 306 229 1445 391 bl 306 229 1445 391 bl 1445 391 m 306 X s 1445 395 m -4 Y s 1548 395 m -4 Y
 s 1652 395 m -4 Y s 1652 395 m -4 Y s
 gsave  408 306 1383 345 C 1435.84 370.356 t 0 r /Helvetica findfont 22.8295 sf 0 0 m (0) show NC gr 
 gsave  408 306 1383 345 C 1527.01 370.356 t 0 r /Helvetica findfont 22.8295 sf 0 0 m (500) show NC gr 
 gsave  408 306 1383 345 C 1623.87 370.356 t 0 r /Helvetica findfont 22.8295 sf 0 0 m (1000) show NC gr  1445 620 m 306 X s 1445 616 m 4 Y s 1548 616 m 4 Y s 1652 616 m 4 Y s 1652 616 m 4 Y s 1445 391 m 229 Y s 1450 391 m -5 X s 1447 398 m -2 X s
 1447 405 m -2 X s 1447 411 m -2 X s 1447 418 m -2 X s 1450 425 m -5 X s 1447 432 m -2 X s 1447 439 m -2 X s 1447 445 m -2 X s 1447 452 m -2 X s 1450 459 m -5 X s 1447 466 m -2 X s 1447 473 m -2 X s 1447 480 m -2 X s 1447 486 m -2 X s 1450 493 m -5 X
 s 1447 500 m -2 X s 1447 507 m -2 X s 1447 514 m -2 X s 1447 520 m -2 X s 1450 527 m -5 X s 1447 534 m -2 X s 1447 541 m -2 X s 1447 548 m -2 X s 1447 554 m -2 X s 1450 561 m -5 X s 1447 568 m -2 X s 1447 575 m -2 X s 1447 582 m -2 X s 1447 589 m -2
 X s 1450 595 m -5 X s 1450 595 m -5 X s 1447 602 m -2 X s 1447 609 m -2 X s 1447 616 m -2 X s
 gsave  408 306 1383 345 C 1427.29 384.6 t 0 r /Helvetica findfont 22.8295 sf 0 0 m (0) show NC gr 
 gsave  408 306 1383 345 C 1398.81 418.787 t 0 r /Helvetica findfont 22.8295 sf 0 0 m (0.01) show NC gr 
 gsave  408 306 1383 345 C 1395.96 452.974 t 0 r /Helvetica findfont 22.8295 sf 0 0 m (0.02) show NC gr 
 gsave  408 306 1383 345 C 1395.96 487.16 t 0 r /Helvetica findfont 22.8295 sf 0 0 m (0.03) show NC gr 
 gsave  408 306 1383 345 C 1395.96 521.347 t 0 r /Helvetica findfont 22.8295 sf 0 0 m (0.04) show NC gr 
 gsave  408 306 1383 345 C 1395.96 555.534 t 0 r /Helvetica findfont 22.8295 sf 0 0 m (0.05) show NC gr 
 gsave  408 306 1383 345 C 1395.96 586.871 t 0 r /Helvetica findfont 22.8295 sf 0 0 m (0.06) show NC gr  1751 391 m 229 Y s 1745 391 m 6 X s 1748 398 m 3 X s 1748 405 m 3 X s 1748 411 m 3 X s 1748 418 m 3 X s 1745 425 m 6 X s 1748 432 m 3 X s 1748
 439 m 3 X s 1748 445 m 3 X s 1748 452 m 3 X s 1745 459 m 6 X s 1748 466 m 3 X s 1748 473 m 3 X s 1748 480 m 3 X s 1748 486 m 3 X s 1745 493 m 6 X s 1748 500 m 3 X s 1748 507 m 3 X s 1748 514 m 3 X s 1748 520 m 3 X s 1745 527 m 6 X s 1748 534 m 3 X s
 1748 541 m 3 X s 1748 548 m 3 X s 1748 554 m 3 X s 1745 561 m 6 X s 1748 568 m 3 X s 1748 575 m 3 X s 1748 582 m 3 X s 1748 589 m 3 X s 1745 595 m 6 X s 1745 595 m 6 X s 1748 602 m 3 X s 1748 609 m 3 X s 1748 616 m 3 X s 1590 440 1638 459 1686 460
 1735 568 4 { m21} R 1590 451 m 21 Y s 1584 472 m 11 X s 1590 428 m -21 Y s 1584 407 m 11 X s 1638 470 m 21 Y s 1632 491 m 12 X s 1638 447 m -21 Y s 1632 426 m 12 X s 1686 472 m 21 Y s 1681 493 m 11 X s 1686 449 m -21 Y s 1681 428 m 11 X s 1735 579 m
 22 Y s 1729 601 m 11 X s 1735 557 m -22 Y s 1729 535 m 11 X s 1 0 0 c 9 lw 0.95 0.95 0.95 c black 1 0 0 c 1446 391 m 15 X 3 1 d 7 X 3 1 d 6 X 3 1 d 3 X 3 1 d 3 X 3 1 d 3 X 3 1 d 3 X 3 1 d 3 1 d 3 1 d 3 X 4 1 d 3 1 d 3 1 d 3 1 d 3 1 d 3 1 d 3 1 d 3 1
 d 3 1 d 3 1 d 3 1 d 3 1 d 3 2 d 3 1 d 3 1 d 3 2 d 4 1 d 3 1 d 3 2 d 3 1 d 3 2 d 3 1 d 3 2 d 3 1 d 3 2 d 3 2 d s 1596 433 m 3 1 d 3 2 d 3 2 d 3 2 d 3 2 d 3 2 d 4 1 d 3 2 d 3 2 d 3 2 d 3 2 d 3 3 d 3 2 d 3 2 d 3 2 d 3 2 d 3 2 d 3 3 d 3 2 d 3 2 d 3 3 d
 3 2 d 3 3 d 4 2 d 3 3 d 3 2 d 3 3 d 3 2 d 3 3 d 3 3 d 3 3 d 3 2 d 3 3 d 3 3 d 3 3 d 3 3 d 3 3 d 3 3 d 3 3 d 4 3 d 3 3 d 3 3 d 3 3 d 3 3 d 3 3 d 3 4 d 3 3 d 3 3 d 3 4 d s 1746 557 m 3 3 d s 0.49 0.6 0.82 c black 0.49 0.6 0.82 c
 gsave  408 306 1383 345 C 1504.21 629.605 t 0 r /Helvetica-Bold findfont 25.6831 sf 0 0 m (6.5 < E < 7.0 GeV) show NC gr  0.52 0.76 0.64 c black 0.52 0.76 0.64 c
 gsave  408 306 1383 345 C 1489.97 592.569 t 0 r /Helvetica-Bold findfont 25.6831 sf 0 0 m 
 220 206 192 185 170 163 148 141 126 118 111 97 83 69 61 47 40 25 18
(A = 0.000, p = 2.000) K NC gr  1 0.6 1 c black 1 0.6 1 c
 gsave  408 306 1383 345 C 1789.1 458.671 t 90 r /Helvetica-Bold findfont 28.5368 sf 0 0 m (/dof=0.6) show NC gr  black 1 0.6 1 c
 gsave  408 306 1383 345 C 1777.71 447.276 t 90 r /Helvetica-Bold findfont 19.9758 sf 0 0 m (2) show NC gr  black 1 0.6 1 c
 gsave  408 306 1383 345 C 1789.1 430.182 t 90 r /Symbol findfont 28.5368 sf 0 0 m (c) show NC gr  black 3 lw 1 1 1 c 408 306 1837 345 bf black 1 1 1 c black 306 229 1898 391 bl 306 229 1898 391 bl 1898 391 m 306 X s 1898 395 m -4 Y s 2002 395 m -4 Y
 s 2105 395 m -4 Y s 2105 395 m -4 Y s
 gsave  408 306 1837 345 C 1888.81 370.356 t 0 r /Helvetica findfont 22.8295 sf 0 0 m (0) show NC gr 
 gsave  408 306 1837 345 C 1979.98 370.356 t 0 r /Helvetica findfont 22.8295 sf 0 0 m (500) show NC gr 
 gsave  408 306 1837 345 C 2079.69 370.356 t 0 r /Helvetica findfont 22.8295 sf 0 0 m (1000) show NC gr  1898 620 m 306 X s 1898 616 m 4 Y s 2002 616 m 4 Y s 2105 616 m 4 Y s 2105 616 m 4 Y s 1898 391 m 229 Y s 1904 400 m -6 X s 1901 406 m -3 X s
 1901 412 m -3 X s 1901 418 m -3 X s 1901 424 m -3 X s 1904 430 m -6 X s 1901 436 m -3 X s 1901 442 m -3 X s 1901 448 m -3 X s 1901 454 m -3 X s 1904 460 m -6 X s 1901 466 m -3 X s 1901 472 m -3 X s 1901 478 m -3 X s 1901 484 m -3 X s 1904 490 m -6 X
 s 1901 496 m -3 X s 1901 501 m -3 X s 1901 507 m -3 X s 1901 513 m -3 X s 1904 519 m -6 X s 1901 525 m -3 X s 1901 531 m -3 X s 1901 537 m -3 X s 1901 543 m -3 X s 1904 549 m -6 X s 1901 555 m -3 X s 1901 561 m -3 X s 1901 567 m -3 X s 1901 573 m -3
 X s 1904 579 m -6 X s 1901 585 m -3 X s 1901 591 m -3 X s 1901 597 m -3 X s 1901 603 m -3 X s 1904 609 m -6 X s 1904 400 m -6 X s 1901 394 m -3 X s 1904 609 m -6 X s 1901 615 m -3 X s
 gsave  408 306 1837 345 C 1843.23 393.147 t 0 r /Helvetica findfont 22.8295 sf 0 0 m (\2550.03) show NC gr 
 gsave  408 306 1837 345 C 1843.23 421.636 t 0 r /Helvetica findfont 22.8295 sf 0 0 m (\2550.02) show NC gr 
 gsave  408 306 1837 345 C 1846.08 452.974 t 0 r /Helvetica findfont 22.8295 sf 0 0 m (\2550.01) show NC gr 
 gsave  408 306 1837 345 C 1880.27 481.462 t 0 r /Helvetica findfont 22.8295 sf 0 0 m (0) show NC gr 
 gsave  408 306 1837 345 C 1851.78 512.8 t 0 r /Helvetica findfont 22.8295 sf 0 0 m (0.01) show NC gr 
 gsave  408 306 1837 345 C 1848.93 541.289 t 0 r /Helvetica findfont 22.8295 sf 0 0 m (0.02) show NC gr 
 gsave  408 306 1837 345 C 1848.93 572.627 t 0 r /Helvetica findfont 22.8295 sf 0 0 m (0.03) show NC gr 
 gsave  408 306 1837 345 C 1848.93 601.116 t 0 r /Helvetica findfont 22.8295 sf 0 0 m (0.04) show NC gr  2204 391 m 229 Y s 2199 400 m 5 X s 2201 406 m 3 X s 2201 412 m 3 X s 2201 418 m 3 X s 2201 424 m 3 X s 2199 430 m 5 X s 2201 436 m 3 X s 2201
 442 m 3 X s 2201 448 m 3 X s 2201 454 m 3 X s 2199 460 m 5 X s 2201 466 m 3 X s 2201 472 m 3 X s 2201 478 m 3 X s 2201 484 m 3 X s 2199 490 m 5 X s 2201 496 m 3 X s 2201 501 m 3 X s 2201 507 m 3 X s 2201 513 m 3 X s 2199 519 m 5 X s 2201 525 m 3 X s
 2201 531 m 3 X s 2201 537 m 3 X s 2201 543 m 3 X s 2199 549 m 5 X s 2201 555 m 3 X s 2201 561 m 3 X s 2201 567 m 3 X s 2201 573 m 3 X s 2199 579 m 5 X s 2201 585 m 3 X s 2201 591 m 3 X s 2201 597 m 3 X s 2201 603 m 3 X s 2199 609 m 5 X s 2199 400 m
 5 X s 2201 394 m 3 X s 2199 609 m 5 X s 2201 615 m 3 X s 2043 441 2091 541 2140 540 2188 570 4 { m21} R 2043 452 m 19 Y s 2037 471 m 12 X s 2043 429 m -19 Y s 2037 410 m 12 X s 2091 553 m 20 Y s 2086 573 m 11 X s 2091 530 m -20 Y s 2086 510 m 11 X s
 2140 552 m 20 Y s 2134 572 m 11 X s 2140 529 m -20 Y s 2134 509 m 11 X s 2188 581 m 20 Y s 2183 601 m 11 X s 2188 559 m -20 Y s 2183 539 m 11 X s 1 0 0 c 9 lw 0.95 0.95 0.95 c black 1 0 0 c 1900 490 m 30 X 3 1 d 13 X 3 1 d 6 X 3 1 d 6 X 3 1 d 6 X 3
 1 d 3 X 3 1 d 3 X 3 1 d 3 X 4 1 d 3 X 3 1 d 3 X 3 1 d 3 X 3 1 d 3 X 3 1 d 3 1 d 3 X 3 1 d 3 1 d 3 X 3 1 d 3 1 d 3 1 d 4 X 3 1 d s 2050 509 m 3 1 d 3 1 d 3 1 d 3 1 d 3 X 3 1 d 3 1 d 3 1 d 3 1 d 3 1 d 3 1 d 3 1 d 3 1 d 3 1 d 4 1 d 3 1 d 3 1 d 3 1 d 3
 1 d 3 1 d 3 2 d 3 1 d 3 1 d 3 1 d 3 1 d 3 1 d 3 2 d 3 1 d 3 1 d 3 1 d 4 2 d 3 1 d 3 1 d 3 2 d 3 1 d 3 1 d 3 2 d 3 1 d 3 2 d 3 1 d 3 1 d 3 2 d 3 1 d 3 2 d 3 1 d 3 2 d 4 1 d 3 2 d 3 2 d s 2200 568 m 3 1 d s 0.49 0.6 0.82 c black 0.49 0.6 0.82 c
 gsave  408 306 1837 345 C 1957.19 629.605 t 0 r /Helvetica-Bold findfont 25.6831 sf 0 0 m (7.0 < E < 7.5 GeV) show NC gr  0.52 0.76 0.64 c black 0.52 0.76 0.64 c
 gsave  408 306 1837 345 C 1942.94 592.569 t 0 r /Helvetica-Bold findfont 25.6831 sf 0 0 m 
 220 206 192 185 170 163 148 141 125 118 111 97 83 69 61 47 40 25 18
(A = 0.000, p = 2.000) K NC gr  1 0.6 1 c black 1 0.6 1 c
 gsave  408 306 1837 345 C 2242.08 458.671 t 90 r /Helvetica-Bold findfont 28.5368 sf 0 0 m (/dof=1.8) show NC gr  black 1 0.6 1 c
 gsave  408 306 1837 345 C 2230.68 447.276 t 90 r /Helvetica-Bold findfont 19.9758 sf 0 0 m (2) show NC gr  black 1 0.6 1 c
 gsave  408 306 1837 345 C 2242.08 430.182 t 90 r /Symbol findfont 28.5368 sf 0 0 m (c) show NC gr  black 3 lw 1 1 1 c 408 306 23 13 bf black 1 1 1 c black 306 229 84 59 bl 306 229 84 59 bl 84 59 m 306 X s 84 63 m -4 Y s 188 63 m -4 Y s 291 63 m -4 Y
 s 291 63 m -4 Y s
 gsave  408 306 23 13 C 74.0711 39.8845 t 0 r /Helvetica findfont 22.8295 sf 0 0 m (0) show NC gr 
 gsave  408 306 23 13 C 165.236 39.8845 t 0 r /Helvetica findfont 22.8295 sf 0 0 m (500) show NC gr 
 gsave  408 306 23 13 C 264.947 39.8845 t 0 r /Helvetica findfont 22.8295 sf 0 0 m (1000) show NC gr  84 288 m 306 X s 84 284 m 4 Y s 188 284 m 4 Y s 291 284 m 4 Y s 291 284 m 4 Y s 84 59 m 229 Y s 89 69 m -5 X s 87 75 m -3 X s 87 80 m -3 X s 87 86 m
 -3 X s 87 91 m -3 X s 89 97 m -5 X s 87 102 m -3 X s 87 108 m -3 X s 87 113 m -3 X s 87 119 m -3 X s 89 124 m -5 X s 87 129 m -3 X s 87 135 m -3 X s 87 140 m -3 X s 87 146 m -3 X s 89 151 m -5 X s 87 157 m -3 X s 87 162 m -3 X s 87 168 m -3 X s 87
 173 m -3 X s 89 179 m -5 X s 87 184 m -3 X s 87 189 m -3 X s 87 195 m -3 X s 87 200 m -3 X s 89 206 m -5 X s 87 211 m -3 X s 87 217 m -3 X s 87 222 m -3 X s 87 228 m -3 X s 89 233 m -5 X s 87 239 m -3 X s 87 244 m -3 X s 87 249 m -3 X s 87 255 m -3
 X s 89 260 m -5 X s 87 266 m -3 X s 87 271 m -3 X s 87 277 m -3 X s 87 282 m -3 X s 89 288 m -5 X s 89 69 m -5 X s 87 64 m -3 X s 89 288 m -5 X s
 gsave  408 306 23 13 C 31.3378 62.6756 t 0 r /Helvetica findfont 22.8295 sf 0 0 m (\2550.01) show NC gr 
 gsave  408 306 23 13 C 65.5245 88.3156 t 0 r /Helvetica findfont 22.8295 sf 0 0 m (0) show NC gr 
 gsave  408 306 23 13 C 37.0356 116.804 t 0 r /Helvetica findfont 22.8295 sf 0 0 m (0.01) show NC gr 
 gsave  408 306 23 13 C 34.1867 145.293 t 0 r /Helvetica findfont 22.8295 sf 0 0 m (0.02) show NC gr 
 gsave  408 306 23 13 C 34.1867 170.933 t 0 r /Helvetica findfont 22.8295 sf 0 0 m (0.03) show NC gr 
 gsave  408 306 23 13 C 34.1867 199.422 t 0 r /Helvetica findfont 22.8295 sf 0 0 m (0.04) show NC gr 
 gsave  408 306 23 13 C 34.1867 225.062 t 0 r /Helvetica findfont 22.8295 sf 0 0 m (0.05) show NC gr 
 gsave  408 306 23 13 C 34.1867 253.551 t 0 r /Helvetica findfont 22.8295 sf 0 0 m (0.06) show NC gr 
 gsave  408 306 23 13 C 34.1867 279.191 t 0 r /Helvetica findfont 22.8295 sf 0 0 m (0.07) show NC gr  390 59 m 229 Y s 385 69 m 5 X s 387 75 m 3 X s 387 80 m 3 X s 387 86 m 3 X s 387 91 m 3 X s 385 97 m 5 X s 387 102 m 3 X s 387 108 m 3 X s 387 113 m
 3 X s 387 119 m 3 X s 385 124 m 5 X s 387 129 m 3 X s 387 135 m 3 X s 387 140 m 3 X s 387 146 m 3 X s 385 151 m 5 X s 387 157 m 3 X s 387 162 m 3 X s 387 168 m 3 X s 387 173 m 3 X s 385 179 m 5 X s 387 184 m 3 X s 387 189 m 3 X s 387 195 m 3 X s 387
 200 m 3 X s 385 206 m 5 X s 387 211 m 3 X s 387 217 m 3 X s 387 222 m 3 X s 387 228 m 3 X s 385 233 m 5 X s 387 239 m 3 X s 387 244 m 3 X s 387 249 m 3 X s 387 255 m 3 X s 385 260 m 5 X s 387 266 m 3 X s 387 271 m 3 X s 387 277 m 3 X s 387 282 m 3 X
 s 385 288 m 5 X s 385 69 m 5 X s 387 64 m 3 X s 385 288 m 5 X s /w 22 def /w2 {w 2 div} def /w3 {w 3 div} def 229 109 277 163 326 125 374 237 4 { m21} R 229 120 m 20 Y s 223 140 m 12 X s 229 98 m -20 Y s 223 78 m 12 X s 277 175 m 20 Y s 272 195 m 11
 X s 277 152 m -20 Y s 272 132 m 11 X s 326 137 m 19 Y s 320 156 m 11 X s 326 114 m -20 Y s 320 94 m 11 X s 374 249 m 20 Y s 368 269 m 12 X s 374 226 m -20 Y s 368 206 m 12 X s 1 0 0 c 9 lw 0.95 0.95 0.95 c black 1 0 0 c 85 97 m 22 X 3 1 d 9 X 3 1 d
 6 X 3 1 d 6 X 4 1 d 3 X 3 1 d 3 X 3 1 d 3 X 3 1 d 3 1 d 3 X 3 1 d 3 1 d 3 X 3 1 d 3 1 d 3 1 d 3 X 4 1 d 3 1 d 3 1 d 3 1 d 3 1 d 3 1 d 3 1 d 3 1 d 3 1 d 3 1 d 3 1 d 3 1 d 3 1 d 3 1 d 3 2 d 3 1 d s 235 127 m 4 1 d 3 1 d 3 1 d 3 2 d 3 1 d 3 1 d 3 2 d 3
 1 d 3 2 d 3 1 d 3 1 d 3 2 d 3 2 d 3 1 d 3 2 d 3 1 d 3 2 d 4 1 d 3 2 d 3 2 d 3 2 d 3 1 d 3 2 d 3 2 d 3 2 d 3 1 d 3 2 d 3 2 d 3 2 d 3 2 d 3 2 d 3 2 d 3 2 d 4 2 d 3 2 d 3 2 d 3 2 d 3 2 d 3 3 d 3 2 d 3 2 d 3 2 d 3 2 d 3 3 d 3 2 d 3 2 d 3 3 d 3 2 d 3 2 d
 s 385 215 m 4 3 d s 0.49 0.6 0.82 c black 0.49 0.6 0.82 c
 gsave  408 306 23 13 C 142.445 296.285 t 0 r /Helvetica-Bold findfont 25.6831 sf 0 0 m (7.5 < E < 8.0 GeV) show NC gr  0.52 0.76 0.64 c black 0.52 0.76 0.64 c
 gsave  408 306 23 13 C 128.2 259.249 t 0 r /Helvetica-Bold findfont 25.6831 sf 0 0 m 
 220 206 192 185 170 163 148 141 126 118 111 97 83 69 61 47 40 25 18
(A = 0.000, p = 2.000) K NC gr  1 0.6 1 c black 1 0.6 1 c
 gsave  408 306 23 13 C 427.334 128.2 t 90 r /Helvetica-Bold findfont 28.5368 sf 0 0 m (/dof=1.3) show NC gr  black 1 0.6 1 c
 gsave  408 306 23 13 C 415.938 116.804 t 90 r /Helvetica-Bold findfont 19.9758 sf 0 0 m (2) show NC gr  black 1 0.6 1 c
 gsave  408 306 23 13 C 427.334 99.7112 t 90 r /Symbol findfont 28.5368 sf 0 0 m (c) show NC gr  black 3 lw 1 1 1 c 408 306 476 13 bf black 1 1 1 c black 307 229 537 59 bl 307 229 537 59 bl 537 59 m 307 X s 537 63 m -4 Y s 641 63 m -4 Y s 745 63 m -4
 Y s 745 63 m -4 Y s
 gsave  408 306 476 13 C 527.045 39.8845 t 0 r /Helvetica findfont 22.8295 sf 0 0 m (0) show NC gr 
 gsave  408 306 476 13 C 621.058 39.8845 t 0 r /Helvetica findfont 22.8295 sf 0 0 m (500) show NC gr 
 gsave  408 306 476 13 C 717.92 39.8845 t 0 r /Helvetica findfont 22.8295 sf 0 0 m (1000) show NC gr  537 288 m 307 X s 537 284 m 4 Y s 641 284 m 4 Y s 745 284 m 4 Y s 745 284 m 4 Y s 537 59 m 229 Y s 543 71 m -6 X s 540 76 m -3 X s 540 81 m -3 X s
 540 86 m -3 X s 540 91 m -3 X s 543 96 m -6 X s 540 101 m -3 X s 540 106 m -3 X s 540 111 m -3 X s 540 116 m -3 X s 543 122 m -6 X s 540 127 m -3 X s 540 132 m -3 X s 540 137 m -3 X s 540 142 m -3 X s 543 147 m -6 X s 540 152 m -3 X s 540 157 m -3 X
 s 540 162 m -3 X s 540 167 m -3 X s 543 172 m -6 X s 540 177 m -3 X s 540 182 m -3 X s 540 187 m -3 X s 540 192 m -3 X s 543 198 m -6 X s 540 203 m -3 X s 540 208 m -3 X s 540 213 m -3 X s 540 218 m -3 X s 543 223 m -6 X s 540 228 m -3 X s 540 233 m
 -3 X s 540 238 m -3 X s 540 243 m -3 X s 543 248 m -6 X s 540 253 m -3 X s 540 258 m -3 X s 540 263 m -3 X s 540 268 m -3 X s 543 274 m -6 X s 543 71 m -6 X s 540 66 m -3 X s 540 61 m -3 X s 543 274 m -6 X s 540 279 m -3 X s 540 284 m -3 X s
 gsave  408 306 476 13 C 481.462 62.6756 t 0 r /Helvetica findfont 22.8295 sf 0 0 m (\2550.02) show NC gr 
 gsave  408 306 476 13 C 484.311 88.3156 t 0 r /Helvetica findfont 22.8295 sf 0 0 m (\2550.01) show NC gr 
 gsave  408 306 476 13 C 518.498 113.956 t 0 r /Helvetica findfont 22.8295 sf 0 0 m (0) show NC gr 
 gsave  408 306 476 13 C 490.009 139.596 t 0 r /Helvetica findfont 22.8295 sf 0 0 m (0.01) show NC gr 
 gsave  408 306 476 13 C 487.16 165.236 t 0 r /Helvetica findfont 22.8295 sf 0 0 m (0.02) show NC gr 
 gsave  408 306 476 13 C 487.16 190.876 t 0 r /Helvetica findfont 22.8295 sf 0 0 m (0.03) show NC gr 
 gsave  408 306 476 13 C 487.16 216.516 t 0 r /Helvetica findfont 22.8295 sf 0 0 m (0.04) show NC gr 
 gsave  408 306 476 13 C 487.16 242.156 t 0 r /Helvetica findfont 22.8295 sf 0 0 m (0.05) show NC gr 
 gsave  408 306 476 13 C 487.16 267.796 t 0 r /Helvetica findfont 22.8295 sf 0 0 m (0.06) show NC gr  844 59 m 229 Y s 838 71 m 6 X s 841 76 m 3 X s 841 81 m 3 X s 841 86 m 3 X s 841 91 m 3 X s 838 96 m 6 X s 841 101 m 3 X s 841 106 m 3 X s 841 111 m
 3 X s 841 116 m 3 X s 838 122 m 6 X s 841 127 m 3 X s 841 132 m 3 X s 841 137 m 3 X s 841 142 m 3 X s 838 147 m 6 X s 841 152 m 3 X s 841 157 m 3 X s 841 162 m 3 X s 841 167 m 3 X s 838 172 m 6 X s 841 177 m 3 X s 841 182 m 3 X s 841 187 m 3 X s 841
 192 m 3 X s 838 198 m 6 X s 841 203 m 3 X s 841 208 m 3 X s 841 213 m 3 X s 841 218 m 3 X s 838 223 m 6 X s 841 228 m 3 X s 841 233 m 3 X s 841 238 m 3 X s 841 243 m 3 X s 838 248 m 6 X s 841 253 m 3 X s 841 258 m 3 X s 841 263 m 3 X s 841 268 m 3 X
 s 838 274 m 6 X s 838 71 m 6 X s 841 66 m 3 X s 841 61 m 3 X s 838 274 m 6 X s 841 279 m 3 X s 841 284 m 3 X s /w 23 def /w2 {w 2 div} def /w3 {w 3 div} def 683 119 731 109 779 181 828 238 4 { m21} R 683 130 m 19 Y s 677 149 m 11 X s 683 107 m -19 Y
 s 677 88 m 11 X s 731 120 m 20 Y s 725 140 m 12 X s 731 97 m -19 Y s 725 78 m 12 X s 779 192 m 20 Y s 773 212 m 12 X s 779 170 m -20 Y s 773 150 m 12 X s 828 249 m 20 Y s 822 269 m 11 X s 828 226 m -20 Y s 822 206 m 11 X s 1 0 0 c 9 lw 0.95 0.95
 0.95 c black 1 0 0 c 539 122 m 28 X 3 1 d 9 X 3 1 d 9 X 3 1 d 3 X 3 1 d 6 X 3 1 d 3 X 4 1 d 3 X 3 1 d 3 X 3 1 d 3 X 3 1 d 3 1 d 3 X 3 1 d 3 1 d 3 X 3 1 d 3 1 d 3 X 3 1 d 3 1 d 4 1 d 3 1 d 3 1 d 3 X 3 1 d 3 1 d 3 1 d 3 1 d s 689 145 m 3 1 d 3 1 d 3 1
 d 3 1 d 3 1 d 3 1 d 3 1 d 3 1 d 4 1 d 3 1 d 3 2 d 3 1 d 3 1 d 3 1 d 3 1 d 3 2 d 3 1 d 3 1 d 3 1 d 3 2 d 3 1 d 3 2 d 3 1 d 3 1 d 4 2 d 3 1 d 3 2 d 3 1 d 3 2 d 3 1 d 3 2 d 3 1 d 3 2 d 3 1 d 3 2 d 3 2 d 3 1 d 3 2 d 3 2 d 3 1 d 4 2 d 3 2 d 3 2 d 3 1 d 3
 2 d 3 2 d 3 2 d 3 2 d 3 1 d s 839 214 m 3 2 d s 0.49 0.6 0.82 c black 0.49 0.6 0.82 c
 gsave  408 306 476 13 C 595.418 296.285 t 0 r /Helvetica-Bold findfont 25.6831 sf 0 0 m (8.0 < E < 8.5 GeV) show NC gr  0.52 0.76 0.64 c black 0.52 0.76 0.64 c
 gsave  408 306 476 13 C 581.174 259.249 t 0 r /Helvetica-Bold findfont 25.6831 sf 0 0 m 
 220 206 192 185 170 163 148 141 125 118 111 97 83 68 61 47 40 25 18
(A = 0.000, p = 2.000) K NC gr  1 0.6 1 c black 1 0.6 1 c
 gsave  408 306 476 13 C 883.156 128.2 t 90 r /Helvetica-Bold findfont 28.5368 sf 0 0 m (/dof=1.4) show NC gr  black 1 0.6 1 c
 gsave  408 306 476 13 C 871.76 116.804 t 90 r /Helvetica-Bold findfont 19.9758 sf 0 0 m (2) show NC gr  black 1 0.6 1 c
 gsave  408 306 476 13 C 883.156 99.7112 t 90 r /Symbol findfont 28.5368 sf 0 0 m (c) show NC gr  black 3 lw 1 1 1 c 408 306 930 13 bf black 1 1 1 c black 306 229 991 59 bl 306 229 991 59 bl 991 59 m 306 X s 991 63 m -4 Y s 1095 63 m -4 Y s 1198 63 m
 -4 Y s 1198 63 m -4 Y s
 gsave  408 306 930 13 C 980.018 39.8845 t 0 r /Helvetica findfont 22.8295 sf 0 0 m (0) show NC gr 
 gsave  408 306 930 13 C 1074.03 39.8845 t 0 r /Helvetica findfont 22.8295 sf 0 0 m (500) show NC gr 
 gsave  408 306 930 13 C 1170.89 39.8845 t 0 r /Helvetica findfont 22.8295 sf 0 0 m (1000) show NC gr  991 288 m 306 X s 991 284 m 4 Y s 1095 284 m 4 Y s 1198 284 m 4 Y s 1198 284 m 4 Y s 991 59 m 229 Y s 997 64 m -6 X s 994 69 m -3 X s 994 74 m -3 X
 s 994 79 m -3 X s 994 84 m -3 X s 997 90 m -6 X s 994 95 m -3 X s 994 100 m -3 X s 994 105 m -3 X s 994 110 m -3 X s 997 115 m -6 X s 994 120 m -3 X s 994 125 m -3 X s 994 131 m -3 X s 994 136 m -3 X s 997 141 m -6 X s 994 146 m -3 X s 994 151 m -3
 X s 994 156 m -3 X s 994 161 m -3 X s 997 166 m -6 X s 994 171 m -3 X s 994 177 m -3 X s 994 182 m -3 X s 994 187 m -3 X s 997 192 m -6 X s 994 197 m -3 X s 994 202 m -3 X s 994 207 m -3 X s 994 212 m -3 X s 997 217 m -6 X s 994 223 m -3 X s 994 228
 m -3 X s 994 233 m -3 X s 994 238 m -3 X s 997 243 m -6 X s 994 248 m -3 X s 994 253 m -3 X s 994 258 m -3 X s 994 263 m -3 X s 997 269 m -6 X s 997 64 m -6 X s 997 269 m -6 X s 994 274 m -3 X s 994 279 m -3 X s 994 284 m -3 X s
 gsave  408 306 930 13 C 937.285 56.9778 t 0 r /Helvetica findfont 22.8295 sf 0 0 m (\2550.03) show NC gr 
 gsave  408 306 930 13 C 937.285 82.6178 t 0 r /Helvetica findfont 22.8295 sf 0 0 m (\2550.02) show NC gr 
 gsave  408 306 930 13 C 940.134 108.258 t 0 r /Helvetica findfont 22.8295 sf 0 0 m (\2550.01) show NC gr 
 gsave  408 306 930 13 C 974.32 133.898 t 0 r /Helvetica findfont 22.8295 sf 0 0 m (0) show NC gr 
 gsave  408 306 930 13 C 945.832 159.538 t 0 r /Helvetica findfont 22.8295 sf 0 0 m (0.01) show NC gr 
 gsave  408 306 930 13 C 942.983 185.178 t 0 r /Helvetica findfont 22.8295 sf 0 0 m (0.02) show NC gr 
 gsave  408 306 930 13 C 942.983 210.818 t 0 r /Helvetica findfont 22.8295 sf 0 0 m (0.03) show NC gr 
 gsave  408 306 930 13 C 942.983 236.458 t 0 r /Helvetica findfont 22.8295 sf 0 0 m (0.04) show NC gr 
 gsave  408 306 930 13 C 942.983 262.098 t 0 r /Helvetica findfont 22.8295 sf 0 0 m (0.05) show NC gr  1297 59 m 229 Y s 1292 64 m 5 X s 1294 69 m 3 X s 1294 74 m 3 X s 1294 79 m 3 X s 1294 84 m 3 X s 1292 90 m 5 X s 1294 95 m 3 X s 1294 100 m 3 X s
 1294 105 m 3 X s 1294 110 m 3 X s 1292 115 m 5 X s 1294 120 m 3 X s 1294 125 m 3 X s 1294 131 m 3 X s 1294 136 m 3 X s 1292 141 m 5 X s 1294 146 m 3 X s 1294 151 m 3 X s 1294 156 m 3 X s 1294 161 m 3 X s 1292 166 m 5 X s 1294 171 m 3 X s 1294 177 m
 3 X s 1294 182 m 3 X s 1294 187 m 3 X s 1292 192 m 5 X s 1294 197 m 3 X s 1294 202 m 3 X s 1294 207 m 3 X s 1294 212 m 3 X s 1292 217 m 5 X s 1294 223 m 3 X s 1294 228 m 3 X s 1294 233 m 3 X s 1294 238 m 3 X s 1292 243 m 5 X s 1294 248 m 3 X s 1294
 253 m 3 X s 1294 258 m 3 X s 1294 263 m 3 X s 1292 269 m 5 X s 1292 64 m 5 X s 1292 269 m 5 X s 1294 274 m 3 X s 1294 279 m 3 X s 1294 284 m 3 X s 1136 152 1184 111 1233 168 1281 236 4 { m21} R 1136 163 m 22 Y s 1130 185 m 12 X s 1136 141 m -22 Y s
 1130 119 m 12 X s 1184 122 m 22 Y s 1179 144 m 11 X s 1184 99 m -21 Y s 1179 78 m 11 X s 1233 180 m 21 Y s 1227 201 m 11 X s 1233 157 m -22 Y s 1227 135 m 11 X s 1281 247 m 22 Y s 1275 269 m 12 X s 1281 224 m -22 Y s 1275 202 m 12 X s 1 0 0 c 9 lw
 0.95 0.95 0.95 c black 1 0 0 c 993 141 m 30 X 3 1 d 12 X 4 1 d 12 X 3 1 d 6 X 3 1 d 6 X 3 1 d 6 X 3 1 d 3 X 3 1 d 7 X 3 1 d 3 X 3 1 d 3 X 3 1 d 3 X 3 1 d 3 1 d 3 X 3 1 d 3 X 3 1 d 3 X 3 1 d 4 1 d s 1143 157 m 3 X 3 1 d 3 1 d 3 X 3 1 d 3 1 d 3 1 d 3
 X 3 1 d 3 1 d 3 1 d 3 X 3 1 d 3 1 d 3 1 d 4 1 d 3 1 d 3 X 3 1 d 3 1 d 3 1 d 3 1 d 3 1 d 3 1 d 3 1 d 3 1 d 3 1 d 3 1 d 3 1 d 3 1 d 3 1 d 3 1 d 4 1 d 3 1 d 3 1 d 3 1 d 3 2 d 3 1 d 3 1 d 3 1 d 3 1 d 3 1 d 3 2 d 3 1 d 3 1 d 3 1 d 3 1 d 3 2 d 4 1 d s
 1293 204 m 3 1 d s 0.49 0.6 0.82 c black 0.49 0.6 0.82 c
 gsave  408 306 930 13 C 1051.24 296.285 t 0 r /Helvetica-Bold findfont 25.6831 sf 0 0 m (8.5 < E < 9.0 GeV) show NC gr  0.52 0.76 0.64 c black 0.52 0.76 0.64 c
 gsave  408 306 930 13 C 1037 259.249 t 0 r /Helvetica-Bold findfont 25.6831 sf 0 0 m 
 220 206 192 185 170 163 148 141 125 118 111 97 83 69 61 47 40 25 18
(A = 0.000, p = 2.000) K NC gr  1 0.6 1 c black 1 0.6 1 c
 gsave  408 306 930 13 C 1336.13 128.2 t 90 r /Helvetica-Bold findfont 28.5368 sf 0 0 m (/dof=1.4) show NC gr  black 1 0.6 1 c
 gsave  408 306 930 13 C 1324.73 116.804 t 90 r /Helvetica-Bold findfont 19.9758 sf 0 0 m (2) show NC gr  black 1 0.6 1 c
 gsave  408 306 930 13 C 1336.13 99.7112 t 90 r /Symbol findfont 28.5368 sf 0 0 m (c) show NC gr  black 3 lw 1 1 1 c 408 306 1383 13 bf black 1 1 1 c black 306 229 1445 59 bl 306 229 1445 59 bl 1445 59 m 306 X s 1445 63 m -4 Y s 1548 63 m -4 Y s 1652
 63 m -4 Y s 1652 63 m -4 Y s
 gsave  408 306 1383 13 C 1435.84 39.8845 t 0 r /Helvetica findfont 22.8295 sf 0 0 m (0) show NC gr 
 gsave  408 306 1383 13 C 1527.01 39.8845 t 0 r /Helvetica findfont 22.8295 sf 0 0 m (500) show NC gr 
 gsave  408 306 1383 13 C 1623.87 39.8845 t 0 r /Helvetica findfont 22.8295 sf 0 0 m (1000) show NC gr  1445 288 m 306 X s 1445 284 m 4 Y s 1548 284 m 4 Y s 1652 284 m 4 Y s 1652 284 m 4 Y s 1445 59 m 229 Y s 1450 62 m -5 X s 1447 70 m -2 X s 1447 78
 m -2 X s 1447 86 m -2 X s 1447 94 m -2 X s 1450 102 m -5 X s 1447 110 m -2 X s 1447 118 m -2 X s 1447 126 m -2 X s 1447 133 m -2 X s 1450 141 m -5 X s 1447 149 m -2 X s 1447 157 m -2 X s 1447 165 m -2 X s 1447 173 m -2 X s 1450 181 m -5 X s 1447 189
 m -2 X s 1447 197 m -2 X s 1447 205 m -2 X s 1447 213 m -2 X s 1450 220 m -5 X s 1447 228 m -2 X s 1447 236 m -2 X s 1447 244 m -2 X s 1447 252 m -2 X s 1450 260 m -5 X s 1450 62 m -5 X s 1450 260 m -5 X s 1447 268 m -2 X s 1447 276 m -2 X s 1447
 284 m -2 X s
 gsave  408 306 1383 13 C 1393.11 54.1289 t 0 r /Helvetica findfont 22.8295 sf 0 0 m (\2550.01) show NC gr 
 gsave  408 306 1383 13 C 1427.29 94.0134 t 0 r /Helvetica findfont 22.8295 sf 0 0 m (0) show NC gr 
 gsave  408 306 1383 13 C 1398.81 133.898 t 0 r /Helvetica findfont 22.8295 sf 0 0 m (0.01) show NC gr 
 gsave  408 306 1383 13 C 1395.96 173.782 t 0 r /Helvetica findfont 22.8295 sf 0 0 m (0.02) show NC gr 
 gsave  408 306 1383 13 C 1395.96 213.667 t 0 r /Helvetica findfont 22.8295 sf 0 0 m (0.03) show NC gr 
 gsave  408 306 1383 13 C 1395.96 253.551 t 0 r /Helvetica findfont 22.8295 sf 0 0 m (0.04) show NC gr  1751 59 m 229 Y s 1745 62 m 6 X s 1748 70 m 3 X s 1748 78 m 3 X s 1748 86 m 3 X s 1748 94 m 3 X s 1745 102 m 6 X s 1748 110 m 3 X s 1748 118 m 3 X
 s 1748 126 m 3 X s 1748 133 m 3 X s 1745 141 m 6 X s 1748 149 m 3 X s 1748 157 m 3 X s 1748 165 m 3 X s 1748 173 m 3 X s 1745 181 m 6 X s 1748 189 m 3 X s 1748 197 m 3 X s 1748 205 m 3 X s 1748 213 m 3 X s 1745 220 m 6 X s 1748 228 m 3 X s 1748 236
 m 3 X s 1748 244 m 3 X s 1748 252 m 3 X s 1745 260 m 6 X s 1745 62 m 6 X s 1745 260 m 6 X s 1748 268 m 3 X s 1748 276 m 3 X s 1748 284 m 3 X s 1590 194 1638 197 1686 133 1735 215 4 { m21} R 1590 206 m 45 Y s 1584 251 m 11 X s 1590 183 m -45 Y s 1584
 138 m 11 X s 1638 209 m 44 Y s 1632 253 m 12 X s 1638 186 m -45 Y s 1632 141 m 12 X s 1686 144 m 43 Y s 1681 187 m 11 X s 1686 121 m -43 Y s 1681 78 m 11 X s 1735 226 m 43 Y s 1729 269 m 11 X s 1735 203 m -43 Y s 1729 160 m 11 X s 9 lw 0.95 0.95
 0.95 c black 1446 102 m 3 1 d 3 2 d 3 1 d 3 1 d 3 1 d 3 1 d 3 1 d 4 1 d 3 1 d 3 1 d 3 1 d 3 1 d 3 2 d 3 1 d 3 1 d 3 1 d 3 1 d 3 1 d 3 1 d 3 1 d 3 1 d 3 1 d 3 1 d 4 1 d 3 2 d 3 1 d 3 1 d 3 1 d 3 1 d 3 1 d 3 1 d 3 1 d 3 1 d 3 1 d 3 1 d 3 2 d 3 1 d 3 1
 d 3 1 d 4 1 d 3 1 d 3 1 d 3 1 d 3 1 d 3 1 d 3 1 d 3 1 d 3 2 d 3 1 d s 1596 156 m 3 1 d 3 1 d 3 1 d 3 1 d 3 1 d 3 1 d 4 1 d 3 1 d 3 1 d 3 1 d 3 2 d 3 1 d 3 1 d 3 1 d 3 1 d 3 1 d 3 1 d 3 1 d 3 1 d 3 1 d 3 1 d 3 2 d 3 1 d 4 1 d 3 1 d 3 1 d 3 1 d 3 1 d
 3 1 d 3 1 d 3 1 d 3 1 d 3 1 d 3 2 d 3 1 d 3 1 d 3 1 d 3 1 d 3 1 d 4 1 d 3 1 d 3 1 d 3 1 d 3 1 d 3 2 d 3 1 d 3 1 d 3 1 d 3 1 d s 1746 209 m 3 1 d s 0.49 0.6 0.82 c black 0.49 0.6 0.82 c
 gsave  408 306 1383 13 C 1504.21 296.285 t 0 r /Helvetica-Bold findfont 25.6831 sf 0 0 m (9.0 < E < 9.5 GeV) show NC gr  0.52 0.76 0.64 c black 0.52 0.76 0.64 c
 gsave  408 306 1383 13 C 1489.97 259.249 t 0 r /Helvetica-Bold findfont 25.6831 sf 0 0 m 
 220 206 192 185 170 163 148 141 126 118 111 97 83 69 61 47 40 25 18
(A = 0.000, p = 1.000) K NC gr  1 0.6 1 c black 1 0.6 1 c
 gsave  408 306 1383 13 C 1789.1 128.2 t 90 r /Helvetica-Bold findfont 28.5368 sf 0 0 m (/dof=0.6) show NC gr  black 1 0.6 1 c
 gsave  408 306 1383 13 C 1777.71 116.804 t 90 r /Helvetica-Bold findfont 19.9758 sf 0 0 m (2) show NC gr  black 1 0.6 1 c
 gsave  408 306 1383 13 C 1789.1 99.7112 t 90 r /Symbol findfont 28.5368 sf 0 0 m (c) show NC gr  black 3 lw 1 1 1 c 408 306 1837 13 bf black 1 1 1 c black 306 229 1898 59 bl 306 229 1898 59 bl 1898 59 m 306 X s 1898 63 m -4 Y s 2002 63 m -4 Y s 2105
 63 m -4 Y s 2105 63 m -4 Y s
 gsave  408 306 1837 13 C 1888.81 39.8845 t 0 r /Helvetica findfont 22.8295 sf 0 0 m (0) show NC gr 
 gsave  408 306 1837 13 C 1979.98 39.8845 t 0 r /Helvetica findfont 22.8295 sf 0 0 m (500) show NC gr 
 gsave  408 306 1837 13 C 2079.69 39.8845 t 0 r /Helvetica findfont 22.8295 sf 0 0 m (1000) show NC gr  1898 288 m 306 X s 1898 284 m 4 Y s 2002 284 m 4 Y s 2105 284 m 4 Y s 2105 284 m 4 Y s 1898 59 m 229 Y s 1904 75 m -6 X s 1901 80 m -3 X s 1901 85
 m -3 X s 1901 91 m -3 X s 1901 96 m -3 X s 1904 101 m -6 X s 1901 106 m -3 X s 1901 111 m -3 X s 1901 116 m -3 X s 1901 122 m -3 X s 1904 127 m -6 X s 1901 132 m -3 X s 1901 137 m -3 X s 1901 142 m -3 X s 1901 147 m -3 X s 1904 153 m -6 X s 1901 158
 m -3 X s 1901 163 m -3 X s 1901 168 m -3 X s 1901 173 m -3 X s 1904 178 m -6 X s 1901 183 m -3 X s 1901 189 m -3 X s 1901 194 m -3 X s 1901 199 m -3 X s 1904 204 m -6 X s 1901 209 m -3 X s 1901 214 m -3 X s 1901 220 m -3 X s 1901 225 m -3 X s 1904
 230 m -6 X s 1901 235 m -3 X s 1901 240 m -3 X s 1901 245 m -3 X s 1901 251 m -3 X s 1904 256 m -6 X s 1901 261 m -3 X s 1901 266 m -3 X s 1901 271 m -3 X s 1901 276 m -3 X s 1904 282 m -6 X s 1904 75 m -6 X s 1901 70 m -3 X s 1901 65 m -3 X s 1901
 60 m -3 X s 1904 282 m -6 X s 1901 287 m -3 X s
 gsave  408 306 1837 13 C 1843.23 68.3734 t 0 r /Helvetica findfont 22.8295 sf 0 0 m (\2550.03) show NC gr 
 gsave  408 306 1837 13 C 1828.99 94.0134 t 0 r /Helvetica findfont 22.8295 sf 0 0 m (\2550.025) show NC gr 
 gsave  408 306 1837 13 C 1843.23 119.653 t 0 r /Helvetica findfont 22.8295 sf 0 0 m (\2550.02) show NC gr 
 gsave  408 306 1837 13 C 1828.99 145.293 t 0 r /Helvetica findfont 22.8295 sf 0 0 m (\2550.015) show NC gr 
 gsave  408 306 1837 13 C 1846.08 170.933 t 0 r /Helvetica findfont 22.8295 sf 0 0 m (\2550.01) show NC gr 
 gsave  408 306 1837 13 C 1828.99 196.573 t 0 r /Helvetica findfont 22.8295 sf 0 0 m (\2550.005) show NC gr 
 gsave  408 306 1837 13 C 1880.27 222.213 t 0 r /Helvetica findfont 22.8295 sf 0 0 m (0) show NC gr 
 gsave  408 306 1837 13 C 1837.53 247.853 t 0 r /Helvetica findfont 22.8295 sf 0 0 m (0.005) show NC gr 
 gsave  408 306 1837 13 C 1851.78 273.493 t 0 r /Helvetica findfont 22.8295 sf 0 0 m (0.01) show NC gr  2204 59 m 229 Y s 2199 75 m 5 X s 2201 80 m 3 X s 2201 85 m 3 X s 2201 91 m 3 X s 2201 96 m 3 X s 2199 101 m 5 X s 2201 106 m 3 X s 2201 111 m 3 X
 s 2201 116 m 3 X s 2201 122 m 3 X s 2199 127 m 5 X s 2201 132 m 3 X s 2201 137 m 3 X s 2201 142 m 3 X s 2201 147 m 3 X s 2199 153 m 5 X s 2201 158 m 3 X s 2201 163 m 3 X s 2201 168 m 3 X s 2201 173 m 3 X s 2199 178 m 5 X s 2201 183 m 3 X s 2201 189
 m 3 X s 2201 194 m 3 X s 2201 199 m 3 X s 2199 204 m 5 X s 2201 209 m 3 X s 2201 214 m 3 X s 2201 220 m 3 X s 2201 225 m 3 X s 2199 230 m 5 X s 2201 235 m 3 X s 2201 240 m 3 X s 2201 245 m 3 X s 2201 251 m 3 X s 2199 256 m 5 X s 2201 261 m 3 X s
 2201 266 m 3 X s 2201 271 m 3 X s 2201 276 m 3 X s 2199 282 m 5 X s 2199 75 m 5 X s 2201 70 m 3 X s 2201 65 m 3 X s 2201 60 m 3 X s 2199 282 m 5 X s 2201 287 m 3 X s 2043 180 2091 194 2140 152 2188 194 4 { m21} R 2043 191 m 63 Y s 2037 254 m 12 X s
 2043 168 m -63 Y s 2037 105 m 12 X s 2091 206 m 63 Y s 2086 269 m 11 X s 2091 183 m -64 Y s 2086 119 m 11 X s 2140 163 m 63 Y s 2134 226 m 11 X s 2140 141 m -63 Y s 2134 78 m 11 X s 2188 206 m 61 Y s 2183 267 m 11 X s 2188 183 m -62 Y s 2183 121 m
 11 X s 9 lw 0.95 0.95 0.95 c black 1900 230 m 3 -1 d 3 -1 d 3 X 3 -1 d 3 -1 d 3 X 3 -1 d 3 -1 d 3 X 3 -1 d 3 -1 d 3 X 3 -1 d 3 -1 d 4 X 3 -1 d 3 -1 d 3 X 3 -1 d 3 -1 d 3 X 3 -1 d 3 -1 d 3 X 3 -1 d 3 -1 d 3 X 3 -1 d 3 -1 d 3 X 4 -1 d 3 X 3 -1 d 3 -1
 d 3 X 3 -1 d 3 -1 d 3 X 3 -1 d 3 -1 d 3 X 3 -1 d 3 -1 d 3 X 3 -1 d 3 -1 d 3 X 4 -1 d 3 -1 d s 2050 197 m 3 X 3 -1 d 3 -1 d 3 X 3 -1 d 3 -1 d 3 X 3 -1 d 3 -1 d 3 X 3 -1 d 3 -1 d 3 X 3 -1 d 4 -1 d 3 X 3 -1 d 3 -1 d 3 X 3 -1 d 3 X 3 -1 d 3 -1 d 3 X 3
 -1 d 3 -1 d 3 X 3 -1 d 3 -1 d 3 X 4 -1 d 3 -1 d 3 X 3 -1 d 3 -1 d 3 X 3 -1 d 3 -1 d 3 X 3 -1 d 3 -1 d 3 X 3 -1 d 3 -1 d 3 X 3 -1 d 4 -1 d 3 X 3 -1 d s 2200 165 m 3 -1 d s 0.49 0.6 0.82 c black 0.49 0.6 0.82 c
 gsave  408 306 1837 13 C 1948.64 296.285 t 0 r /Helvetica-Bold findfont 25.6831 sf 0 0 m (9.5 < E < 10.0 GeV) show NC gr  0.52 0.76 0.64 c black 0.52 0.76 0.64 c
 gsave  408 306 1837 13 C 1937.25 259.249 t 0 r /Helvetica-Bold findfont 25.6831 sf 0 0 m 
 228 214 200 193 178 171 156 149 133 126 119 105 91 77 69 55 47 39 25 17
(A = \2550.000, p = 1.000) K NC gr  1 0.6 1 c black 1 0.6 1 c
 gsave  408 306 1837 13 C 2242.08 128.2 t 90 r /Helvetica-Bold findfont 28.5368 sf 0 0 m (/dof=0.1) show NC gr  black 1 0.6 1 c
 gsave  408 306 1837 13 C 2230.68 116.804 t 90 r /Helvetica-Bold findfont 19.9758 sf 0 0 m (2) show NC gr  black 1 0.6 1 c
 gsave  408 306 1837 13 C 2242.08 99.7112 t 90 r /Symbol findfont 28.5368 sf 0 0 m (c) show NC gr 
 gr  gr showpage
end
%%EOF
