%!PS-Adobe-2.0 EPSF-2.0
%%BoundingBox:  0 0 567 332
%%Title: Tilt_t_nof_summary.eps: Summary
%%Creator: ROOT Version 5.30/06
%%CreationDate: Mon Jan 27 13:48:27 2014
%%EndComments
%%BeginProlog
80 dict begin
/s {stroke} def /l {lineto} def /m {moveto} def /t {translate} def
/r {rotate} def /rl {roll}  def /R {repeat} def
/d {rlineto} def /rm {rmoveto} def /gr {grestore} def /f {eofill} def
/c {setrgbcolor} def /black {0 setgray} def /sd {setdash} def
/cl {closepath} def /sf {scalefont setfont} def /lw {setlinewidth} def
/box {m dup 0 exch d exch 0 d 0 exch neg d cl} def
/NC{systemdict begin initclip end}def/C{NC box clip newpath}def
/bl {box s} def /bf {box f} def /Y { 0 exch d} def /X { 0 d} def 
/K {{pop pop 0 moveto} exch kshow} bind def
/ita {/ang 15 def gsave [1 0 ang dup sin exch cos div 1 0 0] concat} def 
/mp {newpath /y exch def /x exch def} def
/side {[w .77 mul w .23 mul] .385 w mul sd w 0 l currentpoint t -144 r} def
/mr {mp x y w2 0 360 arc} def /m24 {mr s} def /m20 {mr f} def
/mb {mp x y w2 add m w2 neg 0 d 0 w neg d w 0 d 0 w d cl} def
/mt {mp x y w2 add m w2 neg w neg d w 0 d cl} def
/m21 {mb f} def /m25 {mb s} def /m22 {mt f} def /m26{mt s} def
/m23 {mp x y w2 sub m w2 w d w neg 0 d cl f} def
/m27 {mp x y w2 add m w3 neg w2 neg d w3 w2 neg d w3 w2 d cl s} def
/m28 {mp x w2 sub y w2 sub w3 add m w3 0 d  0 w3 neg d w3 0 d 0 w3 d w3 0 d  0 w3 d w3 neg 0 d 0 w3 d w3 neg 0 d 0 w3 neg d w3 neg 0 d cl s } def
/m29 {mp gsave x w2 sub y w2 add w3 sub m currentpoint t 4 {side} repeat cl fill gr} def
/m30 {mp gsave x w2 sub y w2 add w3 sub m currentpoint t 4 {side} repeat cl s gr} def
/m31 {mp x y w2 sub m 0 w d x w2 sub y m w 0 d x w2 sub y w2 add m w w neg d x w2 sub y w2 sub m w w d s} def
/m32 {mp x y w2 sub m w2 w d w neg 0 d cl s} def
/m33 {mp x y w2 add m w3 neg w2 neg d w3 w2 neg d w3 w2 d cl f} def
/m34 {mp x w2 sub y w2 sub w3 add m w3 0 d  0 w3 neg d w3 0 d 0 w3 d w3 0 d  0 w3 d w3 neg 0 d 0 w3 d w3 neg 0 d 0 w3 neg d w3 neg 0 d cl f } def
/m2 {mp x y w2 sub m 0 w d x w2 sub y m w 0 d s} def
/m5 {mp x w2 sub y w2 sub m w w d x w2 sub y w2 add m w w neg d s} def
/reEncode {exch findfont dup length dict begin {1 index /FID eq  {pop pop} {def} ifelse } forall /Encoding exch def currentdict end dup /FontName get exch definefont pop } def [/Times-Bold /Times-Italic /Times-BoldItalic /Helvetica /Helvetica-Oblique
 /Helvetica-Bold /Helvetica-BoldOblique /Courier /Courier-Oblique /Courier-Bold /Courier-BoldOblique /Times-Roman /AvantGarde-Book /AvantGarde-BookOblique /AvantGarde-Demi /AvantGarde-DemiOblique /Bookman-Demi /Bookman-DemiItalic /Bookman-Light
 /Bookman-LightItalic /Helvetica-Narrow /Helvetica-Narrow-Bold /Helvetica-Narrow-BoldOblique /Helvetica-Narrow-Oblique /NewCenturySchlbk-Roman /NewCenturySchlbk-Bold /NewCenturySchlbk-BoldItalic /NewCenturySchlbk-Italic /Palatino-Bold
 /Palatino-BoldItalic /Palatino-Italic /Palatino-Roman ] {ISOLatin1Encoding reEncode } forall%%EndProlog
%%BeginSetup
%%EndSetup
newpath  gsave  .25 .25 scale  gsave  0 0 t black[  ] 0 sd 3 lw 1 1 1 c 2268 1328 0 0 bf black 1 1 1 c black 1588 996 340 199 bl 1588 996 340 199 bl 1 1 1 c 1 0 0 c /w 23 def /w2 {w 2 div} def /w3 {w 3 div} def 380 309 m21 459 310 m21 539 306 m21 618
 309 m21 697 313 m21 777 304 m21 856 313 m21 935 312 m21 1015 304 m21 1094 327 m21 black 1174 309 m s 1174 332 m 1 Y s 1168 309 m 11 X s 1168 333 m 11 X s 1 0 0 c 1174 321 m21 black 1253 261 m 3 Y s 1253 287 m 4 Y s 1247 261 m 12 X s 1247 291 m 12 X
 s 1 0 0 c 1253 276 m21 black 1332 318 m 7 Y s 1332 348 m 7 Y s 1327 318 m 11 X s 1327 355 m 11 X s 1 0 0 c 1332 337 m21 black 1412 311 m 9 Y s 1412 343 m 10 Y s 1406 311 m 11 X s 1406 353 m 11 X s 1 0 0 c 1412 332 m21 black 1491 278 m 11 Y s 1491
 312 m 11 Y s 1485 278 m 12 X s 1485 323 m 12 X s 1 0 0 c 1491 300 m21 black 1570 281 m 14 Y s 1570 318 m 13 Y s 1565 281 m 11 X s 1565 331 m 11 X s 1 0 0 c 1570 306 m21 black 1650 284 m 16 Y s 1650 322 m 16 Y s 1644 284 m 11 X s 1644 338 m 11 X s 1
 0 0 c 1650 311 m21 black 1729 260 m 17 Y s 1729 300 m 17 Y s 1723 260 m 12 X s 1723 317 m 12 X s 1 0 0 c 1729 289 m21 black 1809 292 m 19 Y s 1809 334 m 19 Y s 1803 292 m 11 X s 1803 353 m 11 X s 1 0 0 c 1809 322 m21 black 1888 298 m 21 Y s 1888 342
 m 21 Y s 1882 298 m 12 X s 1882 363 m 12 X s 1 0 0 c 1888 331 m21 black 340 199 m 1588 X s
 gsave  2268 1328 0 0 C 954.378 68.3734 t 0 r /Helvetica findfont 62.6756 sf 0 0 m ( Energy \(GeV\) ) show NC gr 
 gsave  2268 1328 0 0 C 928.738 51.28 t 0 r /Symbol findfont 42.7334 sf 0 0 m (m) show NC gr 
 gsave  2268 1328 0 0 C 894.552 68.3734 t 0 r /Symbol findfont 62.6756 sf 0 0 m (n) show NC gr  340 216 m -17 Y s 372 208 m -9 Y s 404 208 m -9 Y s 435 208 m -9 Y s 467 208 m -9 Y s 499 216 m -17 Y s 531 208 m -9 Y s 562 208 m -9 Y s 594 208 m -9 Y s
 626 208 m -9 Y s 658 216 m -17 Y s 689 208 m -9 Y s 721 208 m -9 Y s 753 208 m -9 Y s 785 208 m -9 Y s 816 216 m -17 Y s 848 208 m -9 Y s 880 208 m -9 Y s 912 208 m -9 Y s 943 208 m -9 Y s 975 216 m -17 Y s 1007 208 m -9 Y s 1039 208 m -9 Y s 1070
 208 m -9 Y s 1102 208 m -9 Y s 1134 216 m -17 Y s 1166 208 m -9 Y s 1197 208 m -9 Y s 1229 208 m -9 Y s 1261 208 m -9 Y s 1293 216 m -17 Y s 1324 208 m -9 Y s 1356 208 m -9 Y s 1388 208 m -9 Y s 1420 208 m -9 Y s 1451 216 m -17 Y s 1483 208 m -9 Y s
 1515 208 m -9 Y s 1547 208 m -9 Y s 1578 208 m -9 Y s 1610 216 m -17 Y s 1642 208 m -9 Y s 1674 208 m -9 Y s 1705 208 m -9 Y s 1737 208 m -9 Y s 1769 216 m -17 Y s 1801 208 m -9 Y s 1832 208 m -9 Y s 1864 208 m -9 Y s 1896 208 m -9 Y s 1928 216 m
 -17 Y s
 gsave  2268 1328 0 0 C 319.076 136.747 t 0 r /Helvetica findfont 68.3734 sf 0 0 m (0) show NC gr 
 gsave  2268 1328 0 0 C 484.311 136.747 t 0 r /Helvetica findfont 68.3734 sf 0 0 m (1) show NC gr 
 gsave  2268 1328 0 0 C 635.302 136.747 t 0 r /Helvetica findfont 68.3734 sf 0 0 m (2) show NC gr 
 gsave  2268 1328 0 0 C 794.84 136.747 t 0 r /Helvetica findfont 68.3734 sf 0 0 m (3) show NC gr 
 gsave  2268 1328 0 0 C 954.378 136.747 t 0 r /Helvetica findfont 68.3734 sf 0 0 m (4) show NC gr 
 gsave  2268 1328 0 0 C 1113.92 136.747 t 0 r /Helvetica findfont 68.3734 sf 0 0 m (5) show NC gr 
 gsave  2268 1328 0 0 C 1270.6 136.747 t 0 r /Helvetica findfont 68.3734 sf 0 0 m (6) show NC gr 
 gsave  2268 1328 0 0 C 1430.14 136.747 t 0 r /Helvetica findfont 68.3734 sf 0 0 m (7) show NC gr 
 gsave  2268 1328 0 0 C 1589.68 136.747 t 0 r /Helvetica findfont 68.3734 sf 0 0 m (8) show NC gr 
 gsave  2268 1328 0 0 C 1746.37 136.747 t 0 r /Helvetica findfont 68.3734 sf 0 0 m (9) show NC gr 
 gsave  2268 1328 0 0 C 1888.81 136.747 t 0 r /Helvetica findfont 68.3734 sf 0 0 m (10) show NC gr  340 1195 m 1588 X s 340 1178 m 17 Y s 372 1186 m 9 Y s 404 1186 m 9 Y s 435 1186 m 9 Y s 467 1186 m 9 Y s 499 1178 m 17 Y s 531 1186 m 9 Y s 562 1186
 m 9 Y s 594 1186 m 9 Y s 626 1186 m 9 Y s 658 1178 m 17 Y s 689 1186 m 9 Y s 721 1186 m 9 Y s 753 1186 m 9 Y s 785 1186 m 9 Y s 816 1178 m 17 Y s 848 1186 m 9 Y s 880 1186 m 9 Y s 912 1186 m 9 Y s 943 1186 m 9 Y s 975 1178 m 17 Y s 1007 1186 m 9 Y s
 1039 1186 m 9 Y s 1070 1186 m 9 Y s 1102 1186 m 9 Y s 1134 1178 m 17 Y s 1166 1186 m 9 Y s 1197 1186 m 9 Y s 1229 1186 m 9 Y s 1261 1186 m 9 Y s 1293 1178 m 17 Y s 1324 1186 m 9 Y s 1356 1186 m 9 Y s 1388 1186 m 9 Y s 1420 1186 m 9 Y s 1451 1178 m
 17 Y s 1483 1186 m 9 Y s 1515 1186 m 9 Y s 1547 1186 m 9 Y s 1578 1186 m 9 Y s 1610 1178 m 17 Y s 1642 1186 m 9 Y s 1674 1186 m 9 Y s 1705 1186 m 9 Y s 1737 1186 m 9 Y s 1769 1178 m 17 Y s 1801 1186 m 9 Y s 1832 1186 m 9 Y s 1864 1186 m 9 Y s 1896
 1186 m 9 Y s 1928 1178 m 17 Y s 340 199 m 996 Y s
 gsave  2268 1328 0 0 C 170.933 336.169 t 90 r /Helvetica findfont 62.6756 sf 0 0 m (Near/Far Ratio to Nominal) show NC gr  371 199 m -31 X s 355 221 m -15 X s 355 243 m -15 X s 355 266 m -15 X s 355 288 m -15 X s 371 310 m -31 X s 355 332 m -15 X s
 355 354 m -15 X s 355 376 m -15 X s 355 398 m -15 X s 371 420 m -31 X s 355 443 m -15 X s 355 465 m -15 X s 355 487 m -15 X s 355 509 m -15 X s 371 531 m -31 X s 355 553 m -15 X s 355 575 m -15 X s 355 597 m -15 X s 355 620 m -15 X s 371 642 m -31 X
 s 355 664 m -15 X s 355 686 m -15 X s 355 708 m -15 X s 355 730 m -15 X s 371 752 m -31 X s 355 774 m -15 X s 355 797 m -15 X s 355 819 m -15 X s 355 841 m -15 X s 371 863 m -31 X s 355 885 m -15 X s 355 907 m -15 X s 355 929 m -15 X s 355 951 m -15
 X s 371 974 m -31 X s 355 996 m -15 X s 355 1018 m -15 X s 355 1040 m -15 X s 355 1062 m -15 X s 371 1084 m -31 X s 355 1106 m -15 X s 355 1128 m -15 X s 355 1151 m -15 X s 355 1173 m -15 X s 371 1195 m -31 X s 371 199 m -31 X s 371 1195 m -31 X s
 gsave  2268 1328 0 0 C 196.573 173.782 t 0 r /Helvetica findfont 68.3734 sf 0 0 m (0.95) show NC gr 
 gsave  2268 1328 0 0 C 301.982 282.04 t 0 r /Helvetica findfont 68.3734 sf 0 0 m (1) show NC gr 
 gsave  2268 1328 0 0 C 196.573 395.996 t 0 r /Helvetica findfont 68.3734 sf 0 0 m (1.05) show NC gr 
 gsave  2268 1328 0 0 C 245.005 504.254 t 0 r /Helvetica findfont 68.3734 sf 0 0 m (1.1) show NC gr 
 gsave  2268 1328 0 0 C 196.573 618.209 t 0 r /Helvetica findfont 68.3734 sf 0 0 m (1.15) show NC gr 
 gsave  2268 1328 0 0 C 233.609 726.467 t 0 r /Helvetica findfont 68.3734 sf 0 0 m (1.2) show NC gr 
 gsave  2268 1328 0 0 C 196.573 837.574 t 0 r /Helvetica findfont 68.3734 sf 0 0 m (1.25) show NC gr 
 gsave  2268 1328 0 0 C 233.609 948.68 t 0 r /Helvetica findfont 68.3734 sf 0 0 m (1.3) show NC gr 
 gsave  2268 1328 0 0 C 196.573 1059.79 t 0 r /Helvetica findfont 68.3734 sf 0 0 m (1.35) show NC gr 
 gsave  2268 1328 0 0 C 233.609 1168.04 t 0 r /Helvetica findfont 68.3734 sf 0 0 m (1.4) show NC gr  1928 199 m 996 Y s 1897 199 m 31 X s 1912 221 m 16 X s 1912 243 m 16 X s 1912 266 m 16 X s 1912 288 m 16 X s 1897 310 m 31 X s 1912 332 m 16 X s 1912
 354 m 16 X s 1912 376 m 16 X s 1912 398 m 16 X s 1897 420 m 31 X s 1912 443 m 16 X s 1912 465 m 16 X s 1912 487 m 16 X s 1912 509 m 16 X s 1897 531 m 31 X s 1912 553 m 16 X s 1912 575 m 16 X s 1912 597 m 16 X s 1912 620 m 16 X s 1897 642 m 31 X s
 1912 664 m 16 X s 1912 686 m 16 X s 1912 708 m 16 X s 1912 730 m 16 X s 1897 752 m 31 X s 1912 774 m 16 X s 1912 797 m 16 X s 1912 819 m 16 X s 1912 841 m 16 X s 1897 863 m 31 X s 1912 885 m 16 X s 1912 907 m 16 X s 1912 929 m 16 X s 1912 951 m 16 X
 s 1897 974 m 31 X s 1912 996 m 16 X s 1912 1018 m 16 X s 1912 1040 m 16 X s 1912 1062 m 16 X s 1897 1084 m 31 X s 1912 1106 m 16 X s 1912 1128 m 16 X s 1912 1151 m 16 X s 1912 1173 m 16 X s 1897 1195 m 31 X s 1897 199 m 31 X s 1897 1195 m 31 X s 1 0
 0 c 6 lw 1 1 1 c 1 0 0 c 380 307 m 17 1 d 17 1 d 392 X 35 1 d 174 X 7 1 d 8 X 9 1 d 10 1 d 17 2 d 20 2 d 8 1 d 12 1 d 21 2 d 15 1 d 10 1 d 8 1 d 8 1 d 12 X 8 1 d 54 X 7 1 d 9 X 6 1 d 6 1 d 8 1 d 20 3 d 8 1 d 6 X 5 1 d 36 X 6 -1 d 53 -5 d 29 -2 d 13
 -1 d 12 -1 d 60 X 13 1 d 31 X 7 -1 d 8 X 8 -1 d 9 X 8 -1 d 10 -1 d 12 -2 d 18 -2 d 4 -1 d 5 -1 d 5 -1 d 5 -1 d 23 -6 d 5 -1 d 5 -1 d 4 -1 d 3 X 4 -1 d 22 X 2 1 d 2 X 2 1 d 3 X 2 1 d 3 1 d 2 1 d 2 1 d 3 2 d 2 2 d 3 2 d 4 3 d 7 6 d 3 2 d 3 2 d 2 2 d 3
 1 d 2 1 d 2 1 d 2 1 d 3 1 d 2 1 d 2 X 3 1 d 22 X 4 -1 d 4 X 4 -1 d 4 X 5 -1 d 3 -1 d 4 -1 d 4 -1 d 3 -1 d 3 -1 d 4 -2 d 3 -1 d 3 -1 d 3 -2 d 2 -2 d 3 -1 d 2 -2 d 2 -2 d 2 -1 d 1 -2 d 2 -2 d 1 -2 d 1 -1 d -1 Y s 3 lw /w 2 def /w2 {w 2 div} def /w3 {w
 3 div} def 380 307 459 309 539 309 618 309 697 309 777 309 856 310 935 310 1015 310 1094 318 1174 325 1253 327 1332 335 1412 329 1491 325 1570 326 1650 318 1729 304 1809 338 1888 308 20 { m20} R 6 lw black 1 0 0 c
 gsave  2268 1328 0 0 C 2036.96 364.658 t 0 r /Helvetica-Bold findfont 48.4311 sf 0 0 m (/dof=1.0) show NC gr  black 1 0 0 c
 gsave  2268 1328 0 0 C 2017.01 381.751 t 0 r /Helvetica-Bold findfont 34.1867 sf 0 0 m (2) show NC gr  black 1 0 0 c
 gsave  2268 1328 0 0 C 1991.37 364.658 t 0 r /Symbol findfont 48.4311 sf 0 0 m (c) show NC gr  black 3 lw 340 310 m 1588 X s
 gsave  2268 1328 0 0 C 424.485 1213.63 t 0 r /Helvetica-Bold findfont 42.7334 sf 0 0 m (700 ) show NC gr  1 0 0 c /w 23 def /w2 {w 2 div} def /w3 {w 3 div} def 383 1228 m21 black 1 1 1 c 0 0 1 c 380 529 m21 459 531 m21 539 531 m21 618 529 m21 697
 531 m21 777 531 m21 856 534 m21 935 533 m21 1015 526 m21 1094 535 m21 black 1174 532 m 2 Y s 1174 556 m 2 Y s 1168 532 m 11 X s 1168 558 m 11 X s 0 0 1 c 1174 545 m21 black 1253 511 m 6 Y s 1253 539 m 5 Y s 1247 511 m 12 X s 1247 544 m 12 X s 0 0 1
 c 1253 528 m21 black 1332 519 m 8 Y s 1332 550 m 9 Y s 1327 519 m 11 X s 1327 559 m 11 X s 0 0 1 c 1332 539 m21 black 1412 492 m 11 Y s 1412 526 m 11 Y s 1406 492 m 11 X s 1406 537 m 11 X s 0 0 1 c 1412 514 m21 black 1491 539 m 14 Y s 1491 576 m 14
 Y s 1485 539 m 12 X s 1485 590 m 12 X s 0 0 1 c 1491 565 m21 black 1570 532 m 16 Y s 1570 571 m 16 Y s 1565 532 m 11 X s 1565 587 m 11 X s 0 0 1 c 1570 559 m21 black 1650 495 m 18 Y s 1650 536 m 18 Y s 1644 495 m 11 X s 1644 554 m 11 X s 0 0 1 c
 1650 525 m21 black 1729 485 m 20 Y s 1729 528 m 20 Y s 1723 485 m 12 X s 1723 548 m 12 X s 0 0 1 c 1729 517 m21 black 1809 600 m 24 Y s 1809 647 m 23 Y s 1803 600 m 11 X s 1803 670 m 11 X s 0 0 1 c 1809 635 m21 black 1888 502 m 25 Y s 1888 549 m 25
 Y s 1882 502 m 12 X s 1882 574 m 12 X s 0 0 1 c 1888 538 m21 6 lw 1 1 1 c 0 0 1 c 380 527 m 17 1 d 16 1 d 17 X 16 1 d 251 X 80 -1 d 14 X 17 1 d 36 1 d 12 X 22 1 d 89 X 15 -1 d 10 X 8 1 d 15 X 7 1 d 7 1 d 8 1 d 10 2 d 12 2 d 25 5 d 10 2 d 12 3 d 21 4
 d 14 3 d 11 1 d 8 2 d 7 1 d 7 1 d 6 X 7 1 d 18 X 22 1 d 8 X 7 1 d 6 X 5 1 d 5 X 5 1 d 6 2 d 7 1 d 10 3 d 12 4 d 7 1 d 6 2 d 5 1 d 5 X 4 1 d 17 X 70 -13 d 28 -3 d 13 -2 d 12 -1 d 9 -1 d 9 X 8 -1 d 19 X 10 1 d 20 1 d 8 1 d 18 X 4 -1 d 7 X 6 -1 d 7 -1
 d 8 -2 d 9 -1 d 7 -2 d 10 -2 d 26 -7 d 4 -1 d 5 -1 d 5 -2 d 6 -3 d 23 -10 d 6 -2 d 4 -1 d 4 -1 d 3 -1 d 4 -1 d 3 X 4 -1 d 6 X 2 1 d 5 X 2 1 d 3 1 d 3 X 2 2 d 3 1 d 2 2 d 3 1 d 3 3 d 3 3 d 3 3 d 5 5 d 7 9 d 4 3 d 3 3 d 2 3 d 3 2 d 2 1 d 3 2 d 3 1 d 2
 1 d 2 1 d 3 1 d 3 X 2 1 d 8 X 4 -1 d 4 X 5 -1 d 4 X 4 -1 d 4 -2 d 4 -1 d 4 -1 d 4 -2 d 3 -2 d 4 -2 d 3 -2 d 4 -2 d 3 -2 d 3 -3 d 3 -2 d 3 -3 d 2 -3 d 3 -3 d 2 -2 d 2 -4 d 1 -3 d 2 -3 d s 3 lw /w 2 def /w2 {w 2 div} def /w3 {w 3 div} def 380 527 459
 530 539 530 618 530 697 530 777 529 856 531 935 532 1015 532 1094 546 1174 561 1253 565 1332 581 1412 568 1491 560 1570 562 1650 546 1729 523 1809 573 1888 528 20 { m20} R 6 lw black 0 0 1 c
 gsave  2268 1328 0 0 C 2036.96 615.36 t 0 r /Helvetica-Bold findfont 48.4311 sf 0 0 m (/dof=1.2) show NC gr  black 0 0 1 c
 gsave  2268 1328 0 0 C 2017.01 632.454 t 0 r /Helvetica-Bold findfont 34.1867 sf 0 0 m (2) show NC gr  black 0 0 1 c
 gsave  2268 1328 0 0 C 1991.37 615.36 t 0 r /Symbol findfont 48.4311 sf 0 0 m (c) show NC gr  black 3 lw 340 531 m 1588 X s
 gsave  2268 1328 0 0 C 877.458 1213.63 t 0 r /Helvetica-Bold findfont 42.7334 sf 0 0 m (933 ) show NC gr  0 0 1 c /w 23 def /w2 {w 2 div} def /w3 {w 3 div} def 836 1228 m21 black 1 1 1 c 1 0 1 c 380 746 m21 459 753 m21 539 751 m21 618 751 m21 697
 752 m21 777 752 m21 856 751 m21 935 751 m21 1015 756 m21 1094 773 m21 black 1174 762 m 4 Y s 1174 788 m 4 Y s 1168 762 m 11 X s 1168 792 m 11 X s 1 0 1 c 1174 777 m21 black 1253 774 m 7 Y s 1253 804 m 7 Y s 1247 774 m 12 X s 1247 811 m 12 X s 1 0 1
 c 1253 792 m21 black 1332 789 m 10 Y s 1332 822 m 11 Y s 1327 789 m 11 X s 1327 833 m 11 X s 1 0 1 c 1332 811 m21 black 1412 763 m 13 Y s 1412 799 m 14 Y s 1406 763 m 11 X s 1406 813 m 11 X s 1 0 1 c 1412 788 m21 black 1491 742 m 16 Y s 1491 781 m
 16 Y s 1485 742 m 12 X s 1485 797 m 12 X s 1 0 1 c 1491 770 m21 black 1570 794 m 19 Y s 1570 836 m 19 Y s 1565 794 m 11 X s 1565 855 m 11 X s 1 0 1 c 1570 825 m21 black 1650 693 m 20 Y s 1650 736 m 20 Y s 1644 693 m 11 X s 1644 756 m 11 X s 1 0 1 c
 1650 724 m21 black 1729 660 m 22 Y s 1729 705 m 22 Y s 1723 660 m 12 X s 1723 727 m 12 X s 1 0 1 c 1729 694 m21 black 1809 786 m 26 Y s 1809 835 m 26 Y s 1803 786 m 11 X s 1803 861 m 11 X s 1 0 1 c 1809 823 m21 black 1888 731 m 28 Y s 1888 782 m 27
 Y s 1882 731 m 12 X s 1882 809 m 12 X s 1 0 1 c 1888 770 m21 6 lw 1 1 1 c 1 0 1 c 380 745 m 17 2 d 17 1 d 17 1 d 16 1 d 12 1 d 238 X 80 -1 d 15 X 18 1 d 36 1 d 10 1 d 79 1 d 11 X 39 -1 d 17 X 7 1 d 6 1 d 7 1 d 7 1 d 8 3 d 10 2 d 11 4 d 27 9 d 9 3 d
 12 4 d 21 7 d 14 5 d 11 3 d 8 3 d 7 1 d 7 2 d 6 1 d 7 1 d 8 X 8 1 d 26 1 d 8 X 6 1 d 6 1 d 4 1 d 5 1 d 5 2 d 5 2 d 7 3 d 10 4 d 13 6 d 7 3 d 6 3 d 5 1 d 5 1 d 4 1 d 4 1 d 13 X 70 -22 d 28 -6 d 13 -3 d 12 -2 d 9 -1 d 8 -1 d 9 -1 d 19 X 9 1 d 21 2 d 7
 1 d 23 X 6 -1 d 7 -2 d 7 -2 d 7 -2 d 9 -3 d 10 -4 d 34 -14 d 4 -2 d 5 -2 d 6 -3 d 7 -5 d 20 -13 d 5 -4 d 5 -2 d 4 -2 d 3 -2 d 4 -1 d 4 -1 d 4 X 3 -1 d 3 1 d 5 X 3 1 d 3 1 d 2 1 d 3 2 d 3 2 d 3 3 d 3 3 d 3 4 d 4 4 d 4 6 d 11 15 d 4 6 d 3 4 d 3 4 d 4
 3 d 3 2 d 2 2 d 3 2 d 2 1 d 3 1 d 3 1 d 14 X 4 -1 d 5 -1 d 4 -1 d 4 -2 d 4 -2 d 4 -2 d 4 -2 d 4 -3 d 4 -3 d 4 -3 d 3 -3 d 4 -4 d 3 -4 d 4 -4 d 2 -4 d 3 -4 d 3 -5 d 3 -5 d 2 -4 d 2 -6 d s 3 lw /w 2 def /w2 {w 2 div} def /w3 {w 3 div} def 380 745 459
 751 539 751 618 751 697 751 777 750 856 753 935 754 1015 755 1094 778 1174 803 1253 810 1332 838 1412 816 1491 802 1570 806 1650 778 1729 741 1809 809 1888 746 20 { m20} R 6 lw black 1 0 1 c
 gsave  2268 1328 0 0 C 2036.96 863.214 t 0 r /Helvetica-Bold findfont 48.4311 sf 0 0 m (/dof=0.8) show NC gr  black 1 0 1 c
 gsave  2268 1328 0 0 C 2017.01 880.307 t 0 r /Helvetica-Bold findfont 34.1867 sf 0 0 m (2) show NC gr  black 1 0 1 c
 gsave  2268 1328 0 0 C 1991.37 863.214 t 0 r /Symbol findfont 48.4311 sf 0 0 m (c) show NC gr  black 3 lw 340 752 m 1588 X s
 gsave  2268 1328 0 0 C 1330.43 1213.63 t 0 r /Helvetica-Bold findfont 42.7334 sf 0 0 m 
 93 69 45 22
(1166 ) K NC gr  1 0 1 c /w 23 def /w2 {w 2 div} def /w3 {w 3 div} def 1290 1228 m21 black 1 1 1 c 0 0.733333 1 c 380 958 m21 459 970 m21 539 973 m21 618 973 m21 697 970 m21 777 971 m21 856 972 m21 935 976 m21 1015 982 m21 black 1094 1009 m 1 Y s
 1094 1032 m 1 Y s 1088 1009 m 12 X s 1088 1033 m 12 X s 0 0.733333 1 c 1094 1021 m21 black 1174 1067 m 5 Y s 1174 1095 m 5 Y s 1168 1067 m 11 X s 1168 1100 m 11 X s 0 0.733333 1 c 1174 1083 m21 black 1253 1096 m 9 Y s 1253 1128 m 9 Y s 1247 1096 m
 12 X s 1247 1137 m 12 X s 0 0.733333 1 c 1253 1117 m21 black 1332 1128 m 13 Y s 1332 1164 m 13 Y s 1327 1128 m 11 X s 1327 1177 m 11 X s 0 0.733333 1 c 1332 1152 m21 black 1412 1097 m 16 Y s 1412 1136 m 16 Y s 1406 1097 m 11 X s 1406 1152 m 11 X s 0
 0.733333 1 c 1412 1124 m21 black 1491 1051 m 19 Y s 1491 1093 m 19 Y s 1485 1051 m 12 X s 1485 1112 m 12 X s 0 0.733333 1 c 1491 1082 m21 black 1570 1019 m 21 Y s 1570 1062 m 21 Y s 1565 1019 m 11 X s 1565 1083 m 11 X s 0 0.733333 1 c 1570 1051 m21
 black 1650 1035 m 24 Y s 1650 1082 m 24 Y s 1644 1035 m 11 X s 1644 1106 m 11 X s 0 0.733333 1 c 1650 1071 m21 black 1729 980 m 25 Y s 1729 1028 m 26 Y s 1723 980 m 12 X s 1723 1054 m 12 X s 0 0.733333 1 c 1729 1017 m21 black 1809 963 m 28 Y s 1809
 1013 m 28 Y s 1803 963 m 11 X s 1803 1041 m 11 X s 0 0.733333 1 c 1809 1002 m21 black 1888 896 m 29 Y s 1888 948 m 29 Y s 1882 896 m 12 X s 1882 977 m 12 X s 0 0.733333 1 c 1888 936 m21 6 lw 1 1 1 c 0 0.733333 1 c 380 962 m 17 3 d 17 2 d 17 2 d 17 2
 d 11 X 13 1 d 225 X 65 -2 d 15 X 16 1 d 32 2 d 23 1 d 8 X 79 1 d 13 X 36 -1 d 10 X 7 1 d 7 1 d 7 1 d 7 2 d 7 3 d 8 3 d 10 4 d 11 6 d 27 14 d 9 5 d 11 5 d 18 10 d 16 8 d 11 6 d 8 4 d 7 3 d 9 3 d 6 1 d 6 1 d 8 1 d 9 1 d 26 2 d 8 1 d 6 1 d 6 1 d 4 1 d
 5 2 d 5 3 d 5 3 d 7 4 d 9 7 d 13 10 d 7 4 d 7 4 d 5 3 d 4 2 d 4 1 d 4 1 d 13 X 71 -34 d 28 -10 d 12 -4 d 13 -3 d 9 -2 d 8 -2 d 9 -1 d 19 X 9 2 d 20 4 d 8 1 d 18 X 5 -1 d 6 -2 d 7 -2 d 6 -2 d 8 -4 d 8 -4 d 9 -6 d 36 -23 d 4 -3 d 5 -4 d 6 -5 d 7 -6 d
 19 -19 d 5 -5 d 5 -4 d 4 -3 d 4 -2 d 4 -2 d 3 -1 d 5 -1 d 3 -1 d 5 X 3 1 d 3 1 d 3 2 d 3 2 d 3 2 d 3 3 d 3 5 d 4 4 d 4 7 d 4 8 d 13 23 d 5 8 d 4 5 d 3 5 d 3 4 d 3 2 d 3 3 d 2 2 d 4 1 d 2 1 d 3 X 2 1 d 4 -1 d 5 X 5 -1 d 4 -2 d 4 -2 d 5 -2 d 4 -3 d 4
 -3 d 4 -4 d 4 -3 d 5 -5 d 4 -5 d 3 -5 d 5 -6 d 3 -6 d 3 -6 d 4 -6 d 3 -8 d 3 -6 d 2 -8 d 1 -2 d s 3 lw /w 2 def /w2 {w 2 div} def /w3 {w 3 div} def 380 962 459 971 539 972 618 972 697 972 777 970 856 974 935 975 1015 977 1094 1014 1174 1053 1253
 1063 1332 1107 1412 1073 1491 1051 1570 1057 1650 1014 1729 958 1809 1048 1888 964 20 { m20} R 6 lw black 0 0.733333 1 c
 gsave  2268 1328 0 0 C 2036.96 1113.92 t 0 r /Helvetica-Bold findfont 48.4311 sf 0 0 m (/dof=1.4) show NC gr  black 0 0.733333 1 c
 gsave  2268 1328 0 0 C 2017.01 1131.01 t 0 r /Helvetica-Bold findfont 34.1867 sf 0 0 m (2) show NC gr  black 0 0.733333 1 c
 gsave  2268 1328 0 0 C 1991.37 1113.92 t 0 r /Symbol findfont 48.4311 sf 0 0 m (c) show NC gr  black 3 lw 340 974 m 1588 X s
 gsave  2268 1328 0 0 C 1783.41 1213.63 t 0 r /Helvetica-Bold findfont 42.7334 sf 0 0 m (1400 ) show NC gr  0 0.733333 1 c /w 23 def /w2 {w 2 div} def /w3 {w 3 div} def 1743 1228 m21
 gr  gr showpage
end
%%EOF
