%!PS-Adobe-2.0 EPSF-2.0
%%BoundingBox:  0 0 567 332
%%Title: Tilt_t_p90d_near_fits.eps: Fits
%%Creator: ROOT Version 5.30/06
%%CreationDate: Sun Feb  2 09:42:53 2014
%%EndComments
%%BeginProlog
80 dict begin
/s {stroke} def /l {lineto} def /m {moveto} def /t {translate} def
/r {rotate} def /rl {roll}  def /R {repeat} def
/d {rlineto} def /rm {rmoveto} def /gr {grestore} def /f {eofill} def
/c {setrgbcolor} def /black {0 setgray} def /sd {setdash} def
/cl {closepath} def /sf {scalefont setfont} def /lw {setlinewidth} def
/box {m dup 0 exch d exch 0 d 0 exch neg d cl} def
/NC{systemdict begin initclip end}def/C{NC box clip newpath}def
/bl {box s} def /bf {box f} def /Y { 0 exch d} def /X { 0 d} def 
/K {{pop pop 0 moveto} exch kshow} bind def
/ita {/ang 15 def gsave [1 0 ang dup sin exch cos div 1 0 0] concat} def 
/mp {newpath /y exch def /x exch def} def
/side {[w .77 mul w .23 mul] .385 w mul sd w 0 l currentpoint t -144 r} def
/mr {mp x y w2 0 360 arc} def /m24 {mr s} def /m20 {mr f} def
/mb {mp x y w2 add m w2 neg 0 d 0 w neg d w 0 d 0 w d cl} def
/mt {mp x y w2 add m w2 neg w neg d w 0 d cl} def
/m21 {mb f} def /m25 {mb s} def /m22 {mt f} def /m26{mt s} def
/m23 {mp x y w2 sub m w2 w d w neg 0 d cl f} def
/m27 {mp x y w2 add m w3 neg w2 neg d w3 w2 neg d w3 w2 d cl s} def
/m28 {mp x w2 sub y w2 sub w3 add m w3 0 d  0 w3 neg d w3 0 d 0 w3 d w3 0 d  0 w3 d w3 neg 0 d 0 w3 d w3 neg 0 d 0 w3 neg d w3 neg 0 d cl s } def
/m29 {mp gsave x w2 sub y w2 add w3 sub m currentpoint t 4 {side} repeat cl fill gr} def
/m30 {mp gsave x w2 sub y w2 add w3 sub m currentpoint t 4 {side} repeat cl s gr} def
/m31 {mp x y w2 sub m 0 w d x w2 sub y m w 0 d x w2 sub y w2 add m w w neg d x w2 sub y w2 sub m w w d s} def
/m32 {mp x y w2 sub m w2 w d w neg 0 d cl s} def
/m33 {mp x y w2 add m w3 neg w2 neg d w3 w2 neg d w3 w2 d cl f} def
/m34 {mp x w2 sub y w2 sub w3 add m w3 0 d  0 w3 neg d w3 0 d 0 w3 d w3 0 d  0 w3 d w3 neg 0 d 0 w3 d w3 neg 0 d 0 w3 neg d w3 neg 0 d cl f } def
/m2 {mp x y w2 sub m 0 w d x w2 sub y m w 0 d s} def
/m5 {mp x w2 sub y w2 sub m w w d x w2 sub y w2 add m w w neg d s} def
/reEncode {exch findfont dup length dict begin {1 index /FID eq  {pop pop} {def} ifelse } forall /Encoding exch def currentdict end dup /FontName get exch definefont pop } def [/Times-Bold /Times-Italic /Times-BoldItalic /Helvetica /Helvetica-Oblique
 /Helvetica-Bold /Helvetica-BoldOblique /Courier /Courier-Oblique /Courier-Bold /Courier-BoldOblique /Times-Roman /AvantGarde-Book /AvantGarde-BookOblique /AvantGarde-Demi /AvantGarde-DemiOblique /Bookman-Demi /Bookman-DemiItalic /Bookman-Light
 /Bookman-LightItalic /Helvetica-Narrow /Helvetica-Narrow-Bold /Helvetica-Narrow-BoldOblique /Helvetica-Narrow-Oblique /NewCenturySchlbk-Roman /NewCenturySchlbk-Bold /NewCenturySchlbk-BoldItalic /NewCenturySchlbk-Italic /Palatino-Bold
 /Palatino-BoldItalic /Palatino-Italic /Palatino-Roman ] {ISOLatin1Encoding reEncode } forall%%EndProlog
%%BeginSetup
%%EndSetup
newpath  gsave  .25 .25 scale  gsave  0 0 t black[  ] 0 sd 3 lw 1 1 1 c 2268 1328 0 0 bf black 1 1 1 c 408 305 23 1009 bf black 1 1 1 c black 306 229 84 1055 bl 306 229 84 1055 bl 84 1055 m 306 X s 84 1059 m -4 Y s 188 1059 m -4 Y s 291 1059 m -4 Y s
 291 1059 m -4 Y s
 gsave  408 305 23 1009 C 74.0711 1034.15 t 0 r /Helvetica findfont 22.8295 sf 0 0 m (0) show NC gr 
 gsave  408 305 23 1009 C 165.236 1034.15 t 0 r /Helvetica findfont 22.8295 sf 0 0 m (500) show NC gr 
 gsave  408 305 23 1009 C 264.947 1034.15 t 0 r /Helvetica findfont 22.8295 sf 0 0 m (1000) show NC gr  84 1284 m 306 X s 84 1280 m 4 Y s 188 1280 m 4 Y s 291 1280 m 4 Y s 291 1280 m 4 Y s 84 1055 m 229 Y s 89 1064 m -5 X s 87 1070 m -3 X s 87 1075 m
 -3 X s 87 1080 m -3 X s 89 1085 m -5 X s 87 1090 m -3 X s 87 1095 m -3 X s 87 1101 m -3 X s 89 1106 m -5 X s 87 1111 m -3 X s 87 1116 m -3 X s 87 1121 m -3 X s 89 1127 m -5 X s 87 1132 m -3 X s 87 1137 m -3 X s 87 1142 m -3 X s 89 1147 m -5 X s 87
 1152 m -3 X s 87 1158 m -3 X s 87 1163 m -3 X s 89 1168 m -5 X s 87 1173 m -3 X s 87 1178 m -3 X s 87 1184 m -3 X s 89 1189 m -5 X s 87 1194 m -3 X s 87 1199 m -3 X s 87 1204 m -3 X s 89 1209 m -5 X s 87 1215 m -3 X s 87 1220 m -3 X s 87 1225 m -3 X
 s 89 1230 m -5 X s 87 1235 m -3 X s 87 1240 m -3 X s 87 1246 m -3 X s 89 1251 m -5 X s 87 1256 m -3 X s 87 1261 m -3 X s 87 1266 m -3 X s 89 1272 m -5 X s 89 1064 m -5 X s 87 1059 m -3 X s 89 1272 m -5 X s 87 1277 m -3 X s 87 1282 m -3 X s
 gsave  408 305 23 1009 C 14.2445 1056.94 t 0 r /Helvetica findfont 22.8295 sf 0 0 m (\2550.018) show NC gr 
 gsave  408 305 23 1009 C 14.2445 1076.88 t 0 r /Helvetica findfont 22.8295 sf 0 0 m (\2550.016) show NC gr 
 gsave  408 305 23 1009 C 14.2445 1099.67 t 0 r /Helvetica findfont 22.8295 sf 0 0 m (\2550.014) show NC gr 
 gsave  408 305 23 1009 C 14.2445 1119.61 t 0 r /Helvetica findfont 22.8295 sf 0 0 m (\2550.012) show NC gr 
 gsave  408 305 23 1009 C 31.3378 1139.56 t 0 r /Helvetica findfont 22.8295 sf 0 0 m (\2550.01) show NC gr 
 gsave  408 305 23 1009 C 14.2445 1159.5 t 0 r /Helvetica findfont 22.8295 sf 0 0 m (\2550.008) show NC gr 
 gsave  408 305 23 1009 C 14.2445 1182.29 t 0 r /Helvetica findfont 22.8295 sf 0 0 m (\2550.006) show NC gr 
 gsave  408 305 23 1009 C 14.2445 1202.23 t 0 r /Helvetica findfont 22.8295 sf 0 0 m (\2550.004) show NC gr 
 gsave  408 305 23 1009 C 14.2445 1222.17 t 0 r /Helvetica findfont 22.8295 sf 0 0 m (\2550.002) show NC gr 
 gsave  408 305 23 1009 C 65.5245 1244.96 t 0 r /Helvetica findfont 22.8295 sf 0 0 m (0) show NC gr 
 gsave  408 305 23 1009 C 22.7911 1264.91 t 0 r /Helvetica findfont 22.8295 sf 0 0 m (0.002) show NC gr  390 1055 m 229 Y s 385 1064 m 5 X s 387 1070 m 3 X s 387 1075 m 3 X s 387 1080 m 3 X s 385 1085 m 5 X s 387 1090 m 3 X s 387 1095 m 3 X s 387
 1101 m 3 X s 385 1106 m 5 X s 387 1111 m 3 X s 387 1116 m 3 X s 387 1121 m 3 X s 385 1127 m 5 X s 387 1132 m 3 X s 387 1137 m 3 X s 387 1142 m 3 X s 385 1147 m 5 X s 387 1152 m 3 X s 387 1158 m 3 X s 387 1163 m 3 X s 385 1168 m 5 X s 387 1173 m 3 X
 s 387 1178 m 3 X s 387 1184 m 3 X s 385 1189 m 5 X s 387 1194 m 3 X s 387 1199 m 3 X s 387 1204 m 3 X s 385 1209 m 5 X s 387 1215 m 3 X s 387 1220 m 3 X s 387 1225 m 3 X s 385 1230 m 5 X s 387 1235 m 3 X s 387 1240 m 3 X s 387 1246 m 3 X s 385 1251
 m 5 X s 387 1256 m 3 X s 387 1261 m 3 X s 387 1266 m 3 X s 385 1272 m 5 X s 385 1064 m 5 X s 387 1059 m 3 X s 385 1272 m 5 X s 387 1277 m 3 X s 387 1282 m 3 X s /w 22 def /w2 {w 2 div} def /w3 {w 3 div} def 229 1254 277 1241 326 1202 374 1084 4 {
 m21} R 1 0 0 c 9 lw 0.95 0.95 0.95 c black 1 0 0 c 85 1251 m 13 X 3 -1 d 12 X 3 -1 d 6 X 3 -1 d 6 X 3 -1 d 3 X 4 -1 d 3 X 3 -1 d 3 X 3 -1 d 3 X 3 -1 d 3 -1 d 3 X 3 -1 d 3 -1 d 3 -1 d 3 X 3 -1 d 3 -1 d 3 -1 d 4 -1 d 3 -1 d 3 -1 d 3 -1 d 3 -1 d 3 -1 d
 3 -1 d 3 -1 d 3 -1 d 3 -1 d 3 -1 d 3 -1 d 3 -2 d 3 -1 d 3 -1 d 3 -1 d s 235 1219 m 4 -2 d 3 -1 d 3 -1 d 3 -2 d 3 -1 d 3 -2 d 3 -1 d 3 -2 d 3 -1 d 3 -2 d 3 -1 d 3 -2 d 3 -2 d 3 -1 d 3 -2 d 3 -2 d 3 -1 d 4 -2 d 3 -2 d 3 -2 d 3 -1 d 3 -2 d 3 -2 d 3 -2
 d 3 -2 d 3 -2 d 3 -2 d 3 -2 d 3 -2 d 3 -2 d 3 -2 d 3 -2 d 3 -3 d 4 -2 d 3 -2 d 3 -2 d 3 -3 d 3 -2 d 3 -2 d 3 -2 d 3 -3 d 3 -2 d 3 -3 d 3 -2 d 3 -3 d 3 -2 d 3 -3 d 3 -2 d 3 -3 d s 385 1123 m 4 -2 d s 0.49 0.6 0.82 c black 0.49 0.6 0.82 c
 gsave  408 305 23 1009 C 142.445 1293.4 t 0 r /Helvetica-Bold findfont 25.6831 sf 0 0 m (0.0 < E < 0.5 GeV) show NC gr  0.52 0.76 0.64 c black 0.52 0.76 0.64 c
 gsave  408 305 23 1009 C 122.502 1256.36 t 0 r /Helvetica-Bold findfont 25.6831 sf 0 0 m 
 228 214 200 193 178 171 156 149 134 126 119 105 91 77 69 55 47 39 25 17
(A = \2550.000, p = 2.000) K NC gr  1 0.6 1 c black 1 0.6 1 c
 gsave  408 305 23 1009 C 427.334 1113.92 t 90 r /Helvetica-Bold findfont 28.5368 sf 0 0 m (/dof=20.5) show NC gr  black 1 0.6 1 c
 gsave  408 305 23 1009 C 415.938 1102.52 t 90 r /Helvetica-Bold findfont 19.9758 sf 0 0 m (2) show NC gr  black 1 0.6 1 c
 gsave  408 305 23 1009 C 427.334 1085.43 t 90 r /Symbol findfont 28.5368 sf 0 0 m (c) show NC gr  black 3 lw 1 1 1 c 408 305 476 1009 bf black 1 1 1 c black 307 229 537 1055 bl 307 229 537 1055 bl 537 1055 m 307 X s 537 1059 m -4 Y s 641 1059 m -4 Y
 s 745 1059 m -4 Y s 745 1059 m -4 Y s
 gsave  408 305 476 1009 C 527.045 1034.15 t 0 r /Helvetica findfont 22.8295 sf 0 0 m (0) show NC gr 
 gsave  408 305 476 1009 C 621.058 1034.15 t 0 r /Helvetica findfont 22.8295 sf 0 0 m (500) show NC gr 
 gsave  408 305 476 1009 C 717.92 1034.15 t 0 r /Helvetica findfont 22.8295 sf 0 0 m (1000) show NC gr  537 1284 m 307 X s 537 1280 m 4 Y s 641 1280 m 4 Y s 745 1280 m 4 Y s 745 1280 m 4 Y s 537 1055 m 229 Y s 543 1065 m -6 X s 540 1070 m -3 X s 540
 1075 m -3 X s 540 1080 m -3 X s 540 1085 m -3 X s 543 1090 m -6 X s 540 1095 m -3 X s 540 1100 m -3 X s 540 1105 m -3 X s 540 1110 m -3 X s 543 1114 m -6 X s 540 1119 m -3 X s 540 1124 m -3 X s 540 1129 m -3 X s 540 1134 m -3 X s 543 1139 m -6 X s
 540 1144 m -3 X s 540 1149 m -3 X s 540 1154 m -3 X s 540 1159 m -3 X s 543 1163 m -6 X s 540 1168 m -3 X s 540 1173 m -3 X s 540 1178 m -3 X s 540 1183 m -3 X s 543 1188 m -6 X s 540 1193 m -3 X s 540 1198 m -3 X s 540 1203 m -3 X s 540 1208 m -3 X
 s 543 1212 m -6 X s 540 1217 m -3 X s 540 1222 m -3 X s 540 1227 m -3 X s 540 1232 m -3 X s 543 1237 m -6 X s 540 1242 m -3 X s 540 1247 m -3 X s 540 1252 m -3 X s 540 1257 m -3 X s 543 1262 m -6 X s 543 1065 m -6 X s 540 1061 m -3 X s 540 1056 m -3
 X s 543 1262 m -6 X s 540 1266 m -3 X s 540 1271 m -3 X s 540 1276 m -3 X s 540 1281 m -3 X s
 gsave  408 305 476 1009 C 481.462 1056.94 t 0 r /Helvetica findfont 22.8295 sf 0 0 m (\2550.04) show NC gr 
 gsave  408 305 476 1009 C 467.218 1082.58 t 0 r /Helvetica findfont 22.8295 sf 0 0 m (\2550.035) show NC gr 
 gsave  408 305 476 1009 C 481.462 1108.22 t 0 r /Helvetica findfont 22.8295 sf 0 0 m (\2550.03) show NC gr 
 gsave  408 305 476 1009 C 467.218 1131.01 t 0 r /Helvetica findfont 22.8295 sf 0 0 m (\2550.025) show NC gr 
 gsave  408 305 476 1009 C 481.462 1156.65 t 0 r /Helvetica findfont 22.8295 sf 0 0 m (\2550.02) show NC gr 
 gsave  408 305 476 1009 C 467.218 1179.44 t 0 r /Helvetica findfont 22.8295 sf 0 0 m (\2550.015) show NC gr 
 gsave  408 305 476 1009 C 484.311 1205.08 t 0 r /Helvetica findfont 22.8295 sf 0 0 m (\2550.01) show NC gr 
 gsave  408 305 476 1009 C 467.218 1230.72 t 0 r /Helvetica findfont 22.8295 sf 0 0 m (\2550.005) show NC gr 
 gsave  408 305 476 1009 C 518.498 1253.51 t 0 r /Helvetica findfont 22.8295 sf 0 0 m (0) show NC gr  844 1055 m 229 Y s 838 1065 m 6 X s 841 1070 m 3 X s 841 1075 m 3 X s 841 1080 m 3 X s 841 1085 m 3 X s 838 1090 m 6 X s 841 1095 m 3 X s 841 1100 m
 3 X s 841 1105 m 3 X s 841 1110 m 3 X s 838 1114 m 6 X s 841 1119 m 3 X s 841 1124 m 3 X s 841 1129 m 3 X s 841 1134 m 3 X s 838 1139 m 6 X s 841 1144 m 3 X s 841 1149 m 3 X s 841 1154 m 3 X s 841 1159 m 3 X s 838 1163 m 6 X s 841 1168 m 3 X s 841
 1173 m 3 X s 841 1178 m 3 X s 841 1183 m 3 X s 838 1188 m 6 X s 841 1193 m 3 X s 841 1198 m 3 X s 841 1203 m 3 X s 841 1208 m 3 X s 838 1212 m 6 X s 841 1217 m 3 X s 841 1222 m 3 X s 841 1227 m 3 X s 841 1232 m 3 X s 838 1237 m 6 X s 841 1242 m 3 X
 s 841 1247 m 3 X s 841 1252 m 3 X s 841 1257 m 3 X s 838 1262 m 6 X s 838 1065 m 6 X s 841 1061 m 3 X s 841 1056 m 3 X s 838 1262 m 6 X s 841 1266 m 3 X s 841 1271 m 3 X s 841 1276 m 3 X s 841 1281 m 3 X s /w 23 def /w2 {w 2 div} def /w3 {w 3 div}
 def 683 1259 731 1240 779 1221 828 1079 4 { m21} R 1 0 0 c 9 lw 0.95 0.95 0.95 c black 1 0 0 c 539 1262 m 3 -1 d 18 X 3 -1 d 10 X 3 -1 d 6 X 3 -1 d 3 X 3 -1 d 3 X 3 -1 d 3 X 3 -1 d 3 -1 d 3 X 3 -1 d 4 -1 d 3 X 3 -1 d 3 -1 d 3 -1 d 3 -1 d 3 -1 d 3 -1
 d 3 X 3 -1 d 3 -1 d 3 -1 d 3 -1 d 3 -2 d 3 -1 d 3 -1 d 3 -1 d 4 -1 d 3 -1 d 3 -2 d 3 -1 d 3 -1 d 3 -2 d 3 -1 d 3 -1 d s 689 1227 m 3 -2 d 3 -1 d 3 -2 d 3 -1 d 3 -2 d 3 -1 d 3 -2 d 3 -2 d 4 -1 d 3 -2 d 3 -2 d 3 -1 d 3 -2 d 3 -2 d 3 -2 d 3 -2 d 3 -1 d
 3 -2 d 3 -2 d 3 -2 d 3 -2 d 3 -2 d 3 -2 d 3 -2 d 4 -2 d 3 -3 d 3 -2 d 3 -2 d 3 -2 d 3 -2 d 3 -3 d 3 -2 d 3 -2 d 3 -3 d 3 -2 d 3 -2 d 3 -3 d 3 -2 d 3 -3 d 3 -2 d 4 -3 d 3 -3 d 3 -2 d 3 -3 d 3 -3 d 3 -2 d 3 -3 d 3 -3 d 3 -3 d s 839 1123 m 3 -2 d s
 0.49 0.6 0.82 c black 0.49 0.6 0.82 c
 gsave  408 305 476 1009 C 595.418 1293.4 t 0 r /Helvetica-Bold findfont 25.6831 sf 0 0 m (0.5 < E < 1.0 GeV) show NC gr  0.52 0.76 0.64 c black 0.52 0.76 0.64 c
 gsave  408 305 476 1009 C 575.476 1256.36 t 0 r /Helvetica-Bold findfont 25.6831 sf 0 0 m 
 228 214 200 193 178 171 156 149 133 126 119 105 91 76 69 55 47 39 25 17
(A = \2550.000, p = 2.000) K NC gr  1 0.6 1 c black 1 0.6 1 c
 gsave  408 305 476 1009 C 883.156 1113.92 t 90 r /Helvetica-Bold findfont 28.5368 sf 0 0 m (/dof=75.2) show NC gr  black 1 0.6 1 c
 gsave  408 305 476 1009 C 871.76 1102.52 t 90 r /Helvetica-Bold findfont 19.9758 sf 0 0 m (2) show NC gr  black 1 0.6 1 c
 gsave  408 305 476 1009 C 883.156 1085.43 t 90 r /Symbol findfont 28.5368 sf 0 0 m (c) show NC gr  black 3 lw 1 1 1 c 408 305 930 1009 bf black 1 1 1 c black 306 229 991 1055 bl 306 229 991 1055 bl 991 1055 m 306 X s 991 1059 m -4 Y s 1095 1059 m -4
 Y s 1198 1059 m -4 Y s 1198 1059 m -4 Y s
 gsave  408 305 930 1009 C 980.018 1034.15 t 0 r /Helvetica findfont 22.8295 sf 0 0 m (0) show NC gr 
 gsave  408 305 930 1009 C 1074.03 1034.15 t 0 r /Helvetica findfont 22.8295 sf 0 0 m (500) show NC gr 
 gsave  408 305 930 1009 C 1170.89 1034.15 t 0 r /Helvetica findfont 22.8295 sf 0 0 m (1000) show NC gr  991 1284 m 306 X s 991 1280 m 4 Y s 1095 1280 m 4 Y s 1198 1280 m 4 Y s 1198 1280 m 4 Y s 991 1055 m 229 Y s 997 1073 m -6 X s 994 1077 m -3 X s
 994 1082 m -3 X s 994 1087 m -3 X s 994 1092 m -3 X s 997 1096 m -6 X s 994 1101 m -3 X s 994 1106 m -3 X s 994 1111 m -3 X s 994 1116 m -3 X s 997 1120 m -6 X s 994 1125 m -3 X s 994 1130 m -3 X s 994 1135 m -3 X s 994 1139 m -3 X s 997 1144 m -6 X
 s 994 1149 m -3 X s 994 1154 m -3 X s 994 1158 m -3 X s 994 1163 m -3 X s 997 1168 m -6 X s 994 1173 m -3 X s 994 1177 m -3 X s 994 1182 m -3 X s 994 1187 m -3 X s 997 1192 m -6 X s 994 1196 m -3 X s 994 1201 m -3 X s 994 1206 m -3 X s 994 1211 m -3
 X s 997 1215 m -6 X s 994 1220 m -3 X s 994 1225 m -3 X s 994 1230 m -3 X s 994 1234 m -3 X s 997 1239 m -6 X s 994 1244 m -3 X s 994 1249 m -3 X s 994 1254 m -3 X s 994 1258 m -3 X s 997 1263 m -6 X s 997 1073 m -6 X s 994 1068 m -3 X s 994 1063 m
 -3 X s 994 1058 m -3 X s 997 1263 m -6 X s 994 1268 m -3 X s 994 1273 m -3 X s 994 1277 m -3 X s 994 1282 m -3 X s
 gsave  408 305 930 1009 C 937.285 1065.48 t 0 r /Helvetica findfont 22.8295 sf 0 0 m (\2550.04) show NC gr 
 gsave  408 305 930 1009 C 923.04 1088.28 t 0 r /Helvetica findfont 22.8295 sf 0 0 m (\2550.035) show NC gr 
 gsave  408 305 930 1009 C 937.285 1113.92 t 0 r /Helvetica findfont 22.8295 sf 0 0 m (\2550.03) show NC gr 
 gsave  408 305 930 1009 C 923.04 1136.71 t 0 r /Helvetica findfont 22.8295 sf 0 0 m (\2550.025) show NC gr 
 gsave  408 305 930 1009 C 937.285 1159.5 t 0 r /Helvetica findfont 22.8295 sf 0 0 m (\2550.02) show NC gr 
 gsave  408 305 930 1009 C 923.04 1185.14 t 0 r /Helvetica findfont 22.8295 sf 0 0 m (\2550.015) show NC gr 
 gsave  408 305 930 1009 C 940.134 1207.93 t 0 r /Helvetica findfont 22.8295 sf 0 0 m (\2550.01) show NC gr 
 gsave  408 305 930 1009 C 923.04 1230.72 t 0 r /Helvetica findfont 22.8295 sf 0 0 m (\2550.005) show NC gr 
 gsave  408 305 930 1009 C 974.32 1256.36 t 0 r /Helvetica findfont 22.8295 sf 0 0 m (0) show NC gr  1297 1055 m 229 Y s 1292 1073 m 5 X s 1294 1077 m 3 X s 1294 1082 m 3 X s 1294 1087 m 3 X s 1294 1092 m 3 X s 1292 1096 m 5 X s 1294 1101 m 3 X s
 1294 1106 m 3 X s 1294 1111 m 3 X s 1294 1116 m 3 X s 1292 1120 m 5 X s 1294 1125 m 3 X s 1294 1130 m 3 X s 1294 1135 m 3 X s 1294 1139 m 3 X s 1292 1144 m 5 X s 1294 1149 m 3 X s 1294 1154 m 3 X s 1294 1158 m 3 X s 1294 1163 m 3 X s 1292 1168 m 5 X
 s 1294 1173 m 3 X s 1294 1177 m 3 X s 1294 1182 m 3 X s 1294 1187 m 3 X s 1292 1192 m 5 X s 1294 1196 m 3 X s 1294 1201 m 3 X s 1294 1206 m 3 X s 1294 1211 m 3 X s 1292 1215 m 5 X s 1294 1220 m 3 X s 1294 1225 m 3 X s 1294 1230 m 3 X s 1294 1234 m 3
 X s 1292 1239 m 5 X s 1294 1244 m 3 X s 1294 1249 m 3 X s 1294 1254 m 3 X s 1294 1258 m 3 X s 1292 1263 m 5 X s 1292 1073 m 5 X s 1294 1068 m 3 X s 1294 1063 m 3 X s 1294 1058 m 3 X s 1292 1263 m 5 X s 1294 1268 m 3 X s 1294 1273 m 3 X s 1294 1277 m
 3 X s 1294 1282 m 3 X s 1136 1259 1184 1247 1233 1207 1281 1079 4 { m21} R 1 0 0 c 9 lw 0.95 0.95 0.95 c black 1 0 0 c 993 1263 m 15 X 3 -1 d 9 X 3 -1 d 6 X 3 -1 d 3 X 3 -1 d 4 X 3 -1 d 3 X 3 -1 d 3 X 3 -1 d 3 -1 d 3 X 3 -1 d 3 -1 d 3 X 3 -1 d 3 -1
 d 3 -1 d 3 -1 d 3 -1 d 3 -1 d 4 -1 d 3 -1 d 3 -1 d 3 -1 d 3 -1 d 3 -1 d 3 -1 d 3 -1 d 3 -2 d 3 -1 d 3 -1 d 3 -2 d 3 -1 d 3 -1 d 3 -2 d 3 -1 d 4 -2 d s 1143 1226 m 3 -1 d 3 -2 d 3 -1 d 3 -2 d 3 -1 d 3 -2 d 3 -2 d 3 -1 d 3 -2 d 3 -2 d 3 -2 d 3 -1 d 3
 -2 d 3 -2 d 3 -2 d 4 -2 d 3 -2 d 3 -2 d 3 -2 d 3 -2 d 3 -2 d 3 -2 d 3 -2 d 3 -3 d 3 -2 d 3 -2 d 3 -2 d 3 -3 d 3 -2 d 3 -2 d 3 -3 d 3 -2 d 4 -3 d 3 -2 d 3 -3 d 3 -2 d 3 -3 d 3 -2 d 3 -3 d 3 -3 d 3 -2 d 3 -3 d 3 -3 d 3 -2 d 3 -3 d 3 -3 d 3 -3 d 3 -3 d
 4 -3 d s 1293 1118 m 3 -3 d s 0.49 0.6 0.82 c black 0.49 0.6 0.82 c
 gsave  408 305 930 1009 C 1051.24 1293.4 t 0 r /Helvetica-Bold findfont 25.6831 sf 0 0 m (1.0 < E < 1.5 GeV) show NC gr  0.52 0.76 0.64 c black 0.52 0.76 0.64 c
 gsave  408 305 930 1009 C 1031.3 1256.36 t 0 r /Helvetica-Bold findfont 25.6831 sf 0 0 m 
 228 214 200 193 178 171 156 149 133 126 119 105 91 77 69 55 47 39 25 17
(A = \2550.000, p = 2.000) K NC gr  1 0.6 1 c black 1 0.6 1 c
 gsave  408 305 930 1009 C 1336.13 1113.92 t 90 r /Helvetica-Bold findfont 28.5368 sf 0 0 m (/dof=74.1) show NC gr  black 1 0.6 1 c
 gsave  408 305 930 1009 C 1324.73 1102.52 t 90 r /Helvetica-Bold findfont 19.9758 sf 0 0 m (2) show NC gr  black 1 0.6 1 c
 gsave  408 305 930 1009 C 1336.13 1085.43 t 90 r /Symbol findfont 28.5368 sf 0 0 m (c) show NC gr  black 3 lw 1 1 1 c 408 305 1383 1009 bf black 1 1 1 c black 306 229 1445 1055 bl 306 229 1445 1055 bl 1445 1055 m 306 X s 1445 1059 m -4 Y s 1548 1059
 m -4 Y s 1652 1059 m -4 Y s 1652 1059 m -4 Y s
 gsave  408 305 1383 1009 C 1435.84 1034.15 t 0 r /Helvetica findfont 22.8295 sf 0 0 m (0) show NC gr 
 gsave  408 305 1383 1009 C 1527.01 1034.15 t 0 r /Helvetica findfont 22.8295 sf 0 0 m (500) show NC gr 
 gsave  408 305 1383 1009 C 1623.87 1034.15 t 0 r /Helvetica findfont 22.8295 sf 0 0 m (1000) show NC gr  1445 1284 m 306 X s 1445 1280 m 4 Y s 1548 1280 m 4 Y s 1652 1280 m 4 Y s 1652 1280 m 4 Y s 1445 1055 m 229 Y s 1450 1075 m -5 X s 1447 1080 m
 -2 X s 1447 1085 m -2 X s 1447 1089 m -2 X s 1447 1094 m -2 X s 1450 1099 m -5 X s 1447 1104 m -2 X s 1447 1109 m -2 X s 1447 1113 m -2 X s 1447 1118 m -2 X s 1450 1123 m -5 X s 1447 1128 m -2 X s 1447 1133 m -2 X s 1447 1138 m -2 X s 1447 1142 m -2
 X s 1450 1147 m -5 X s 1447 1152 m -2 X s 1447 1157 m -2 X s 1447 1162 m -2 X s 1447 1166 m -2 X s 1450 1171 m -5 X s 1447 1176 m -2 X s 1447 1181 m -2 X s 1447 1186 m -2 X s 1447 1190 m -2 X s 1450 1195 m -5 X s 1447 1200 m -2 X s 1447 1205 m -2 X
 s 1447 1210 m -2 X s 1447 1215 m -2 X s 1450 1219 m -5 X s 1447 1224 m -2 X s 1447 1229 m -2 X s 1447 1234 m -2 X s 1447 1239 m -2 X s 1450 1243 m -5 X s 1447 1248 m -2 X s 1447 1253 m -2 X s 1447 1258 m -2 X s 1447 1263 m -2 X s 1450 1268 m -5 X s
 1450 1075 m -5 X s 1447 1070 m -2 X s 1447 1065 m -2 X s 1447 1060 m -2 X s 1447 1056 m -2 X s 1450 1268 m -5 X s 1447 1272 m -2 X s 1447 1277 m -2 X s 1447 1282 m -2 X s
 gsave  408 305 1383 1009 C 1390.26 1068.33 t 0 r /Helvetica findfont 22.8295 sf 0 0 m (\2550.04) show NC gr 
 gsave  408 305 1383 1009 C 1376.01 1091.12 t 0 r /Helvetica findfont 22.8295 sf 0 0 m (\2550.035) show NC gr 
 gsave  408 305 1383 1009 C 1390.26 1116.76 t 0 r /Helvetica findfont 22.8295 sf 0 0 m (\2550.03) show NC gr 
 gsave  408 305 1383 1009 C 1376.01 1139.56 t 0 r /Helvetica findfont 22.8295 sf 0 0 m (\2550.025) show NC gr 
 gsave  408 305 1383 1009 C 1390.26 1165.2 t 0 r /Helvetica findfont 22.8295 sf 0 0 m (\2550.02) show NC gr 
 gsave  408 305 1383 1009 C 1376.01 1187.99 t 0 r /Helvetica findfont 22.8295 sf 0 0 m (\2550.015) show NC gr 
 gsave  408 305 1383 1009 C 1393.11 1213.63 t 0 r /Helvetica findfont 22.8295 sf 0 0 m (\2550.01) show NC gr 
 gsave  408 305 1383 1009 C 1376.01 1236.42 t 0 r /Helvetica findfont 22.8295 sf 0 0 m (\2550.005) show NC gr 
 gsave  408 305 1383 1009 C 1427.29 1259.21 t 0 r /Helvetica findfont 22.8295 sf 0 0 m (0) show NC gr  1751 1055 m 229 Y s 1745 1075 m 6 X s 1748 1080 m 3 X s 1748 1085 m 3 X s 1748 1089 m 3 X s 1748 1094 m 3 X s 1745 1099 m 6 X s 1748 1104 m 3 X s
 1748 1109 m 3 X s 1748 1113 m 3 X s 1748 1118 m 3 X s 1745 1123 m 6 X s 1748 1128 m 3 X s 1748 1133 m 3 X s 1748 1138 m 3 X s 1748 1142 m 3 X s 1745 1147 m 6 X s 1748 1152 m 3 X s 1748 1157 m 3 X s 1748 1162 m 3 X s 1748 1166 m 3 X s 1745 1171 m 6 X
 s 1748 1176 m 3 X s 1748 1181 m 3 X s 1748 1186 m 3 X s 1748 1190 m 3 X s 1745 1195 m 6 X s 1748 1200 m 3 X s 1748 1205 m 3 X s 1748 1210 m 3 X s 1748 1215 m 3 X s 1745 1219 m 6 X s 1748 1224 m 3 X s 1748 1229 m 3 X s 1748 1234 m 3 X s 1748 1239 m 3
 X s 1745 1243 m 6 X s 1748 1248 m 3 X s 1748 1253 m 3 X s 1748 1258 m 3 X s 1748 1263 m 3 X s 1745 1268 m 6 X s 1745 1075 m 6 X s 1748 1070 m 3 X s 1748 1065 m 3 X s 1748 1060 m 3 X s 1748 1056 m 3 X s 1745 1268 m 6 X s 1748 1272 m 3 X s 1748 1277 m
 3 X s 1748 1282 m 3 X s 1590 1259 1638 1250 1686 1207 1735 1079 4 { m21} R 1 0 0 c 9 lw 0.95 0.95 0.95 c black 1 0 0 c 1446 1268 m 3 -1 d 18 X 4 -1 d 6 X 3 -1 d 6 X 3 -1 d 3 X 3 -1 d 3 X 3 -1 d 3 X 3 -1 d 3 -1 d 3 X 3 -1 d 4 -1 d 3 -1 d 3 X 3 -1 d 3
 -1 d 3 -1 d 3 -1 d 3 -1 d 3 -1 d 3 -1 d 3 -1 d 3 -1 d 3 -1 d 3 -1 d 3 -1 d 3 -2 d 4 -1 d 3 -1 d 3 -1 d 3 -2 d 3 -1 d 3 -2 d 3 -1 d 3 -1 d 3 -2 d 3 -1 d s 1596 1230 m 3 -2 d 3 -2 d 3 -1 d 3 -2 d 3 -1 d 3 -2 d 4 -2 d 3 -2 d 3 -1 d 3 -2 d 3 -2 d 3 -2 d
 3 -2 d 3 -2 d 3 -2 d 3 -2 d 3 -2 d 3 -2 d 3 -2 d 3 -2 d 3 -2 d 3 -3 d 3 -2 d 4 -2 d 3 -2 d 3 -3 d 3 -2 d 3 -2 d 3 -3 d 3 -2 d 3 -3 d 3 -2 d 3 -3 d 3 -2 d 3 -3 d 3 -3 d 3 -2 d 3 -3 d 3 -3 d 4 -2 d 3 -3 d 3 -3 d 3 -3 d 3 -3 d 3 -3 d 3 -3 d 3 -3 d 3 -3
 d 3 -3 d s 1746 1117 m 3 -3 d s 0.49 0.6 0.82 c black 0.49 0.6 0.82 c
 gsave  408 305 1383 1009 C 1504.21 1293.4 t 0 r /Helvetica-Bold findfont 25.6831 sf 0 0 m (1.5 < E < 2.0 GeV) show NC gr  0.52 0.76 0.64 c black 0.52 0.76 0.64 c
 gsave  408 305 1383 1009 C 1484.27 1256.36 t 0 r /Helvetica-Bold findfont 25.6831 sf 0 0 m 
 228 214 200 193 178 171 156 149 134 126 119 105 91 77 69 55 47 40 25 17
(A = \2550.000, p = 2.000) K NC gr  1 0.6 1 c black 1 0.6 1 c
 gsave  408 305 1383 1009 C 1789.1 1113.92 t 90 r /Helvetica-Bold findfont 28.5368 sf 0 0 m (/dof=68.8) show NC gr  black 1 0.6 1 c
 gsave  408 305 1383 1009 C 1777.71 1102.52 t 90 r /Helvetica-Bold findfont 19.9758 sf 0 0 m (2) show NC gr  black 1 0.6 1 c
 gsave  408 305 1383 1009 C 1789.1 1085.43 t 90 r /Symbol findfont 28.5368 sf 0 0 m (c) show NC gr  black 3 lw 1 1 1 c 408 305 1837 1009 bf black 1 1 1 c black 306 229 1898 1055 bl 306 229 1898 1055 bl 1898 1055 m 306 X s 1898 1059 m -4 Y s 2002 1059
 m -4 Y s 2105 1059 m -4 Y s 2105 1059 m -4 Y s
 gsave  408 305 1837 1009 C 1888.81 1034.15 t 0 r /Helvetica findfont 22.8295 sf 0 0 m (0) show NC gr 
 gsave  408 305 1837 1009 C 1979.98 1034.15 t 0 r /Helvetica findfont 22.8295 sf 0 0 m (500) show NC gr 
 gsave  408 305 1837 1009 C 2079.69 1034.15 t 0 r /Helvetica findfont 22.8295 sf 0 0 m (1000) show NC gr  1898 1284 m 306 X s 1898 1280 m 4 Y s 2002 1280 m 4 Y s 2105 1280 m 4 Y s 2105 1280 m 4 Y s 1898 1055 m 229 Y s 1904 1091 m -6 X s 1901 1099 m
 -3 X s 1901 1108 m -3 X s 1901 1116 m -3 X s 1901 1125 m -3 X s 1904 1133 m -6 X s 1901 1142 m -3 X s 1901 1150 m -3 X s 1901 1159 m -3 X s 1901 1167 m -3 X s 1904 1176 m -6 X s 1901 1184 m -3 X s 1901 1193 m -3 X s 1901 1201 m -3 X s 1901 1209 m -3
 X s 1904 1218 m -6 X s 1901 1226 m -3 X s 1901 1235 m -3 X s 1901 1243 m -3 X s 1901 1252 m -3 X s 1904 1260 m -6 X s 1904 1091 m -6 X s 1901 1083 m -3 X s 1901 1074 m -3 X s 1901 1066 m -3 X s 1901 1057 m -3 X s 1904 1260 m -6 X s 1901 1269 m -3 X
 s 1901 1277 m -3 X s
 gsave  408 305 1837 1009 C 1843.23 1082.58 t 0 r /Helvetica findfont 22.8295 sf 0 0 m (\2550.04) show NC gr 
 gsave  408 305 1837 1009 C 1843.23 1125.31 t 0 r /Helvetica findfont 22.8295 sf 0 0 m (\2550.03) show NC gr 
 gsave  408 305 1837 1009 C 1843.23 1168.04 t 0 r /Helvetica findfont 22.8295 sf 0 0 m (\2550.02) show NC gr 
 gsave  408 305 1837 1009 C 1846.08 1210.78 t 0 r /Helvetica findfont 22.8295 sf 0 0 m (\2550.01) show NC gr 
 gsave  408 305 1837 1009 C 1880.27 1253.51 t 0 r /Helvetica findfont 22.8295 sf 0 0 m (0) show NC gr  2204 1055 m 229 Y s 2199 1091 m 5 X s 2201 1099 m 3 X s 2201 1108 m 3 X s 2201 1116 m 3 X s 2201 1125 m 3 X s 2199 1133 m 5 X s 2201 1142 m 3 X s
 2201 1150 m 3 X s 2201 1159 m 3 X s 2201 1167 m 3 X s 2199 1176 m 5 X s 2201 1184 m 3 X s 2201 1193 m 3 X s 2201 1201 m 3 X s 2201 1209 m 3 X s 2199 1218 m 5 X s 2201 1226 m 3 X s 2201 1235 m 3 X s 2201 1243 m 3 X s 2201 1252 m 3 X s 2199 1260 m 5 X
 s 2199 1091 m 5 X s 2201 1083 m 3 X s 2201 1074 m 3 X s 2201 1066 m 3 X s 2201 1057 m 3 X s 2199 1260 m 5 X s 2201 1269 m 3 X s 2201 1277 m 3 X s 2043 1259 2091 1242 2140 1205 2188 1079 4 { m21} R 1 0 0 c 9 lw 0.95 0.95 0.95 c black 1 0 0 c 1900
 1260 m 18 X 3 -1 d 9 X 3 -1 d 6 X 3 -1 d 4 X 3 -1 d 3 X 3 -1 d 3 X 3 -1 d 3 -1 d 3 X 3 -1 d 3 -1 d 3 X 3 -1 d 3 -1 d 3 -1 d 3 -1 d 3 X 4 -1 d 3 -1 d 3 -1 d 3 -1 d 3 -1 d 3 -1 d 3 -1 d 3 -2 d 3 -1 d 3 -1 d 3 -1 d 3 -1 d 3 -2 d 3 -1 d 3 -1 d 3 -2 d 3
 -1 d 4 -1 d 3 -2 d s 2050 1224 m 3 -1 d 3 -2 d 3 -1 d 3 -2 d 3 -2 d 3 -1 d 3 -2 d 3 -1 d 3 -2 d 3 -2 d 3 -2 d 3 -1 d 3 -2 d 3 -2 d 4 -2 d 3 -2 d 3 -2 d 3 -2 d 3 -2 d 3 -2 d 3 -2 d 3 -2 d 3 -2 d 3 -2 d 3 -3 d 3 -2 d 3 -2 d 3 -2 d 3 -3 d 3 -2 d 4 -2 d
 3 -3 d 3 -2 d 3 -2 d 3 -3 d 3 -2 d 3 -3 d 3 -3 d 3 -2 d 3 -3 d 3 -2 d 3 -3 d 3 -3 d 3 -3 d 3 -2 d 3 -3 d 4 -3 d 3 -3 d 3 -3 d s 2200 1117 m 3 -3 d s 0.49 0.6 0.82 c black 0.49 0.6 0.82 c
 gsave  408 305 1837 1009 C 1957.19 1293.4 t 0 r /Helvetica-Bold findfont 25.6831 sf 0 0 m (2.0 < E < 2.5 GeV) show NC gr  0.52 0.76 0.64 c black 0.52 0.76 0.64 c
 gsave  408 305 1837 1009 C 1937.25 1256.36 t 0 r /Helvetica-Bold findfont 25.6831 sf 0 0 m 
 228 214 200 193 178 171 156 149 133 126 119 105 91 77 69 55 47 39 25 17
(A = \2550.000, p = 2.000) K NC gr  1 0.6 1 c black 1 0.6 1 c
 gsave  408 305 1837 1009 C 2242.08 1113.92 t 90 r /Helvetica-Bold findfont 28.5368 sf 0 0 m (/dof=76.6) show NC gr  black 1 0.6 1 c
 gsave  408 305 1837 1009 C 2230.68 1102.52 t 90 r /Helvetica-Bold findfont 19.9758 sf 0 0 m (2) show NC gr  black 1 0.6 1 c
 gsave  408 305 1837 1009 C 2242.08 1085.43 t 90 r /Symbol findfont 28.5368 sf 0 0 m (c) show NC gr  black 3 lw 1 1 1 c 408 305 23 677 bf black 1 1 1 c black 306 229 84 723 bl 306 229 84 723 bl 84 723 m 306 X s 84 727 m -4 Y s 188 727 m -4 Y s 291
 727 m -4 Y s 291 727 m -4 Y s
 gsave  408 305 23 677 C 74.0711 703.676 t 0 r /Helvetica findfont 22.8295 sf 0 0 m (0) show NC gr 
 gsave  408 305 23 677 C 165.236 703.676 t 0 r /Helvetica findfont 22.8295 sf 0 0 m (500) show NC gr 
 gsave  408 305 23 677 C 264.947 703.676 t 0 r /Helvetica findfont 22.8295 sf 0 0 m (1000) show NC gr  84 952 m 306 X s 84 948 m 4 Y s 188 948 m 4 Y s 291 948 m 4 Y s 291 948 m 4 Y s 84 723 m 229 Y s 89 752 m -5 X s 87 761 m -3 X s 87 770 m -3 X s 87
 779 m -3 X s 87 788 m -3 X s 89 797 m -5 X s 87 805 m -3 X s 87 814 m -3 X s 87 823 m -3 X s 87 832 m -3 X s 89 841 m -5 X s 87 850 m -3 X s 87 859 m -3 X s 87 868 m -3 X s 87 877 m -3 X s 89 886 m -5 X s 87 895 m -3 X s 87 904 m -3 X s 87 913 m -3
 X s 87 922 m -3 X s 89 931 m -5 X s 89 752 m -5 X s 87 743 m -3 X s 87 734 m -3 X s 87 725 m -3 X s 89 931 m -5 X s 87 940 m -3 X s 87 948 m -3 X s
 gsave  408 305 23 677 C 28.4889 743.56 t 0 r /Helvetica findfont 22.8295 sf 0 0 m (\2550.04) show NC gr 
 gsave  408 305 23 677 C 28.4889 789.143 t 0 r /Helvetica findfont 22.8295 sf 0 0 m (\2550.03) show NC gr 
 gsave  408 305 23 677 C 28.4889 834.725 t 0 r /Helvetica findfont 22.8295 sf 0 0 m (\2550.02) show NC gr 
 gsave  408 305 23 677 C 31.3378 877.458 t 0 r /Helvetica findfont 22.8295 sf 0 0 m (\2550.01) show NC gr 
 gsave  408 305 23 677 C 65.5245 923.04 t 0 r /Helvetica findfont 22.8295 sf 0 0 m (0) show NC gr  390 723 m 229 Y s 385 752 m 5 X s 387 761 m 3 X s 387 770 m 3 X s 387 779 m 3 X s 387 788 m 3 X s 385 797 m 5 X s 387 805 m 3 X s 387 814 m 3 X s 387
 823 m 3 X s 387 832 m 3 X s 385 841 m 5 X s 387 850 m 3 X s 387 859 m 3 X s 387 868 m 3 X s 387 877 m 3 X s 385 886 m 5 X s 387 895 m 3 X s 387 904 m 3 X s 387 913 m 3 X s 387 922 m 3 X s 385 931 m 5 X s 385 752 m 5 X s 387 743 m 3 X s 387 734 m 3 X
 s 387 725 m 3 X s 385 931 m 5 X s 387 940 m 3 X s 387 948 m 3 X s /w 22 def /w2 {w 2 div} def /w3 {w 3 div} def 229 926 277 914 326 871 374 748 4 { m21} R 1 0 0 c 9 lw 0.95 0.95 0.95 c black 1 0 0 c 85 931 m 7 X 3 -1 d 15 X 3 -1 d 6 X 3 -1 d 3 X 3
 -1 d 6 X 3 -1 d 4 X 3 -1 d 3 -1 d 3 X 3 -1 d 3 -1 d 3 X 3 -1 d 3 -1 d 3 -1 d 3 -1 d 3 X 3 -1 d 3 -1 d 3 -1 d 3 -1 d 4 -1 d 3 -1 d 3 -1 d 3 -1 d 3 -2 d 3 -1 d 3 -1 d 3 -1 d 3 -1 d 3 -2 d 3 -1 d 3 -1 d 3 -2 d 3 -1 d 3 -2 d 3 -1 d s 235 894 m 4 -2 d 3
 -1 d 3 -2 d 3 -1 d 3 -2 d 3 -1 d 3 -2 d 3 -2 d 3 -2 d 3 -1 d 3 -2 d 3 -2 d 3 -2 d 3 -2 d 3 -2 d 3 -2 d 3 -2 d 4 -2 d 3 -2 d 3 -2 d 3 -2 d 3 -2 d 3 -2 d 3 -2 d 3 -2 d 3 -3 d 3 -2 d 3 -2 d 3 -3 d 3 -2 d 3 -2 d 3 -3 d 3 -2 d 4 -3 d 3 -2 d 3 -3 d 3 -2 d
 3 -3 d 3 -3 d 3 -2 d 3 -3 d 3 -3 d 3 -2 d 3 -3 d 3 -3 d 3 -3 d 3 -3 d 3 -3 d 3 -3 d s 385 785 m 4 -3 d s 0.49 0.6 0.82 c black 0.49 0.6 0.82 c
 gsave  408 305 23 677 C 142.445 960.076 t 0 r /Helvetica-Bold findfont 25.6831 sf 0 0 m (2.5 < E < 3.0 GeV) show NC gr  0.52 0.76 0.64 c black 0.52 0.76 0.64 c
 gsave  408 305 23 677 C 122.502 923.04 t 0 r /Helvetica-Bold findfont 25.6831 sf 0 0 m 
 228 214 200 193 178 171 156 149 134 126 119 105 91 77 69 55 47 39 25 17
(A = \2550.000, p = 2.000) K NC gr  1 0.6 1 c black 1 0.6 1 c
 gsave  408 305 23 677 C 427.334 783.445 t 90 r /Helvetica-Bold findfont 28.5368 sf 0 0 m (/dof=53.1) show NC gr  black 1 0.6 1 c
 gsave  408 305 23 677 C 415.938 772.049 t 90 r /Helvetica-Bold findfont 19.9758 sf 0 0 m (2) show NC gr  black 1 0.6 1 c
 gsave  408 305 23 677 C 427.334 754.956 t 90 r /Symbol findfont 28.5368 sf 0 0 m (c) show NC gr  black 3 lw 1 1 1 c 408 305 476 677 bf black 1 1 1 c black 307 229 537 723 bl 307 229 537 723 bl 537 723 m 307 X s 537 727 m -4 Y s 641 727 m -4 Y s 745
 727 m -4 Y s 745 727 m -4 Y s
 gsave  408 305 476 677 C 527.045 703.676 t 0 r /Helvetica findfont 22.8295 sf 0 0 m (0) show NC gr 
 gsave  408 305 476 677 C 621.058 703.676 t 0 r /Helvetica findfont 22.8295 sf 0 0 m (500) show NC gr 
 gsave  408 305 476 677 C 717.92 703.676 t 0 r /Helvetica findfont 22.8295 sf 0 0 m (1000) show NC gr  537 952 m 307 X s 537 948 m 4 Y s 641 948 m 4 Y s 745 948 m 4 Y s 745 948 m 4 Y s 537 723 m 229 Y s 543 747 m -6 X s 540 756 m -3 X s 540 765 m -3
 X s 540 774 m -3 X s 540 783 m -3 X s 543 791 m -6 X s 540 800 m -3 X s 540 809 m -3 X s 540 818 m -3 X s 540 827 m -3 X s 543 836 m -6 X s 540 845 m -3 X s 540 854 m -3 X s 540 863 m -3 X s 540 871 m -3 X s 543 880 m -6 X s 540 889 m -3 X s 540 898
 m -3 X s 540 907 m -3 X s 540 916 m -3 X s 543 925 m -6 X s 543 747 m -6 X s 540 738 m -3 X s 540 729 m -3 X s 543 925 m -6 X s 540 934 m -3 X s 540 942 m -3 X s 540 951 m -3 X s
 gsave  408 305 476 677 C 481.462 740.711 t 0 r /Helvetica findfont 22.8295 sf 0 0 m (\2550.04) show NC gr 
 gsave  408 305 476 677 C 481.462 783.445 t 0 r /Helvetica findfont 22.8295 sf 0 0 m (\2550.03) show NC gr 
 gsave  408 305 476 677 C 481.462 829.027 t 0 r /Helvetica findfont 22.8295 sf 0 0 m (\2550.02) show NC gr 
 gsave  408 305 476 677 C 484.311 871.76 t 0 r /Helvetica findfont 22.8295 sf 0 0 m (\2550.01) show NC gr 
 gsave  408 305 476 677 C 518.498 917.343 t 0 r /Helvetica findfont 22.8295 sf 0 0 m (0) show NC gr  844 723 m 229 Y s 838 747 m 6 X s 841 756 m 3 X s 841 765 m 3 X s 841 774 m 3 X s 841 783 m 3 X s 838 791 m 6 X s 841 800 m 3 X s 841 809 m 3 X s 841
 818 m 3 X s 841 827 m 3 X s 838 836 m 6 X s 841 845 m 3 X s 841 854 m 3 X s 841 863 m 3 X s 841 871 m 3 X s 838 880 m 6 X s 841 889 m 3 X s 841 898 m 3 X s 841 907 m 3 X s 841 916 m 3 X s 838 925 m 6 X s 838 747 m 6 X s 841 738 m 3 X s 841 729 m 3 X
 s 838 925 m 6 X s 841 934 m 3 X s 841 942 m 3 X s 841 951 m 3 X s /w 23 def /w2 {w 2 div} def /w3 {w 3 div} def 683 925 731 924 779 872 828 749 4 { m21} R 1 0 0 c 9 lw 0.95 0.95 0.95 c black 1 0 0 c 539 925 m 6 X 3 -1 d 15 X 4 -1 d 9 X 3 -1 d 3 X 3
 -1 d 3 X 3 -1 d 3 X 3 -1 d 3 X 3 -1 d 3 X 3 -1 d 3 -1 d 4 X 3 -1 d 3 -1 d 3 X 3 -1 d 3 -1 d 3 -1 d 3 -1 d 3 -1 d 3 -1 d 3 -1 d 3 -1 d 3 -1 d 3 -1 d 3 -1 d 3 -1 d 3 -1 d 4 -1 d 3 -1 d 3 -2 d 3 -1 d 3 -1 d 3 -1 d 3 -2 d 3 -1 d s 689 891 m 3 -1 d 3 -2
 d 3 -1 d 3 -2 d 3 -1 d 3 -2 d 3 -1 d 3 -2 d 4 -1 d 3 -2 d 3 -2 d 3 -1 d 3 -2 d 3 -2 d 3 -1 d 3 -2 d 3 -2 d 3 -2 d 3 -2 d 3 -2 d 3 -2 d 3 -1 d 3 -2 d 3 -2 d 4 -2 d 3 -3 d 3 -2 d 3 -2 d 3 -2 d 3 -2 d 3 -2 d 3 -2 d 3 -3 d 3 -2 d 3 -2 d 3 -3 d 3 -2 d 3
 -2 d 3 -3 d 3 -2 d 4 -3 d 3 -2 d 3 -3 d 3 -2 d 3 -3 d 3 -2 d 3 -3 d 3 -3 d 3 -2 d s 839 792 m 3 -3 d s 0.49 0.6 0.82 c black 0.49 0.6 0.82 c
 gsave  408 305 476 677 C 595.418 960.076 t 0 r /Helvetica-Bold findfont 25.6831 sf 0 0 m (3.0 < E < 3.5 GeV) show NC gr  0.52 0.76 0.64 c black 0.52 0.76 0.64 c
 gsave  408 305 476 677 C 575.476 923.04 t 0 r /Helvetica-Bold findfont 25.6831 sf 0 0 m 
 228 214 200 193 178 171 156 149 133 126 119 105 91 76 69 55 47 39 25 17
(A = \2550.000, p = 2.000) K NC gr  1 0.6 1 c black 1 0.6 1 c
 gsave  408 305 476 677 C 883.156 783.445 t 90 r /Helvetica-Bold findfont 28.5368 sf 0 0 m (/dof=49.6) show NC gr  black 1 0.6 1 c
 gsave  408 305 476 677 C 871.76 772.049 t 90 r /Helvetica-Bold findfont 19.9758 sf 0 0 m (2) show NC gr  black 1 0.6 1 c
 gsave  408 305 476 677 C 883.156 754.956 t 90 r /Symbol findfont 28.5368 sf 0 0 m (c) show NC gr  black 3 lw 1 1 1 c 408 305 930 677 bf black 1 1 1 c black 306 229 991 723 bl 306 229 991 723 bl 991 723 m 306 X s 991 727 m -4 Y s 1095 727 m -4 Y s
 1198 727 m -4 Y s 1198 727 m -4 Y s
 gsave  408 305 930 677 C 980.018 703.676 t 0 r /Helvetica findfont 22.8295 sf 0 0 m (0) show NC gr 
 gsave  408 305 930 677 C 1074.03 703.676 t 0 r /Helvetica findfont 22.8295 sf 0 0 m (500) show NC gr 
 gsave  408 305 930 677 C 1170.89 703.676 t 0 r /Helvetica findfont 22.8295 sf 0 0 m (1000) show NC gr  991 952 m 306 X s 991 948 m 4 Y s 1095 948 m 4 Y s 1198 948 m 4 Y s 1198 948 m 4 Y s 991 723 m 229 Y s 997 743 m -6 X s 994 752 m -3 X s 994 761 m
 -3 X s 994 770 m -3 X s 994 779 m -3 X s 997 788 m -6 X s 994 797 m -3 X s 994 806 m -3 X s 994 815 m -3 X s 994 824 m -3 X s 997 833 m -6 X s 994 842 m -3 X s 994 851 m -3 X s 994 860 m -3 X s 994 869 m -3 X s 997 878 m -6 X s 994 887 m -3 X s 994
 896 m -3 X s 994 905 m -3 X s 994 914 m -3 X s 997 923 m -6 X s 997 743 m -6 X s 994 734 m -3 X s 994 725 m -3 X s 997 923 m -6 X s 994 932 m -3 X s 994 941 m -3 X s 994 950 m -3 X s
 gsave  408 305 930 677 C 937.285 735.014 t 0 r /Helvetica findfont 22.8295 sf 0 0 m (\2550.04) show NC gr 
 gsave  408 305 930 677 C 937.285 780.596 t 0 r /Helvetica findfont 22.8295 sf 0 0 m (\2550.03) show NC gr 
 gsave  408 305 930 677 C 937.285 826.178 t 0 r /Helvetica findfont 22.8295 sf 0 0 m (\2550.02) show NC gr 
 gsave  408 305 930 677 C 940.134 871.76 t 0 r /Helvetica findfont 22.8295 sf 0 0 m (\2550.01) show NC gr 
 gsave  408 305 930 677 C 974.32 917.343 t 0 r /Helvetica findfont 22.8295 sf 0 0 m (0) show NC gr  1297 723 m 229 Y s 1292 743 m 5 X s 1294 752 m 3 X s 1294 761 m 3 X s 1294 770 m 3 X s 1294 779 m 3 X s 1292 788 m 5 X s 1294 797 m 3 X s 1294 806 m 3
 X s 1294 815 m 3 X s 1294 824 m 3 X s 1292 833 m 5 X s 1294 842 m 3 X s 1294 851 m 3 X s 1294 860 m 3 X s 1294 869 m 3 X s 1292 878 m 5 X s 1294 887 m 3 X s 1294 896 m 3 X s 1294 905 m 3 X s 1294 914 m 3 X s 1292 923 m 5 X s 1292 743 m 5 X s 1294
 734 m 3 X s 1294 725 m 3 X s 1292 923 m 5 X s 1294 932 m 3 X s 1294 941 m 3 X s 1294 950 m 3 X s 1136 923 1184 917 1233 873 1281 751 4 { m21} R 1 0 0 c 9 lw 0.95 0.95 0.95 c black 1 0 0 c 993 923 m 18 X 3 -1 d 9 X 3 -1 d 6 X 3 -1 d 3 X 4 -1 d 3 X 3
 -1 d 3 X 3 -1 d 3 X 3 -1 d 3 X 3 -1 d 3 -1 d 3 X 3 -1 d 3 -1 d 3 -1 d 3 -1 d 3 X 3 -1 d 4 -1 d 3 -1 d 3 -1 d 3 -1 d 3 -1 d 3 -1 d 3 -1 d 3 -1 d 3 -1 d 3 -1 d 3 -2 d 3 -1 d 3 -1 d 3 -1 d 3 -1 d 3 -2 d 4 -1 d s 1143 890 m 3 -1 d 3 -2 d 3 -1 d 3 -2 d 3
 -1 d 3 -2 d 3 -1 d 3 -2 d 3 -1 d 3 -2 d 3 -2 d 3 -1 d 3 -2 d 3 -2 d 3 -1 d 4 -2 d 3 -2 d 3 -2 d 3 -2 d 3 -1 d 3 -2 d 3 -2 d 3 -2 d 3 -2 d 3 -2 d 3 -2 d 3 -2 d 3 -2 d 3 -2 d 3 -3 d 3 -2 d 3 -2 d 4 -2 d 3 -2 d 3 -3 d 3 -2 d 3 -2 d 3 -3 d 3 -2 d 3 -3 d
 3 -2 d 3 -2 d 3 -3 d 3 -2 d 3 -3 d 3 -3 d 3 -2 d 3 -3 d 4 -3 d s 1293 791 m 3 -2 d s 0.49 0.6 0.82 c black 0.49 0.6 0.82 c
 gsave  408 305 930 677 C 1051.24 960.076 t 0 r /Helvetica-Bold findfont 25.6831 sf 0 0 m (3.5 < E < 4.0 GeV) show NC gr  0.52 0.76 0.64 c black 0.52 0.76 0.64 c
 gsave  408 305 930 677 C 1031.3 923.04 t 0 r /Helvetica-Bold findfont 25.6831 sf 0 0 m 
 228 214 200 193 178 171 156 149 133 126 119 105 91 77 69 55 47 39 25 17
(A = \2550.000, p = 2.000) K NC gr  1 0.6 1 c black 1 0.6 1 c
 gsave  408 305 930 677 C 1336.13 783.445 t 90 r /Helvetica-Bold findfont 28.5368 sf 0 0 m (/dof=27.5) show NC gr  black 1 0.6 1 c
 gsave  408 305 930 677 C 1324.73 772.049 t 90 r /Helvetica-Bold findfont 19.9758 sf 0 0 m (2) show NC gr  black 1 0.6 1 c
 gsave  408 305 930 677 C 1336.13 754.956 t 90 r /Symbol findfont 28.5368 sf 0 0 m (c) show NC gr  black 3 lw 1 1 1 c 408 305 1383 677 bf black 1 1 1 c black 306 229 1445 723 bl 306 229 1445 723 bl 1445 723 m 306 X s 1445 727 m -4 Y s 1548 727 m -4 Y
 s 1652 727 m -4 Y s 1652 727 m -4 Y s
 gsave  408 305 1383 677 C 1435.84 703.676 t 0 r /Helvetica findfont 22.8295 sf 0 0 m (0) show NC gr 
 gsave  408 305 1383 677 C 1527.01 703.676 t 0 r /Helvetica findfont 22.8295 sf 0 0 m (500) show NC gr 
 gsave  408 305 1383 677 C 1623.87 703.676 t 0 r /Helvetica findfont 22.8295 sf 0 0 m (1000) show NC gr  1445 952 m 306 X s 1445 948 m 4 Y s 1548 948 m 4 Y s 1652 948 m 4 Y s 1652 948 m 4 Y s 1445 723 m 229 Y s 1450 739 m -5 X s 1447 745 m -2 X s
 1447 751 m -2 X s 1447 757 m -2 X s 1447 763 m -2 X s 1450 769 m -5 X s 1447 775 m -2 X s 1447 781 m -2 X s 1447 787 m -2 X s 1447 793 m -2 X s 1450 799 m -5 X s 1447 805 m -2 X s 1447 811 m -2 X s 1447 817 m -2 X s 1447 823 m -2 X s 1450 829 m -5 X
 s 1447 835 m -2 X s 1447 841 m -2 X s 1447 848 m -2 X s 1447 854 m -2 X s 1450 860 m -5 X s 1447 866 m -2 X s 1447 872 m -2 X s 1447 878 m -2 X s 1447 884 m -2 X s 1450 890 m -5 X s 1447 896 m -2 X s 1447 902 m -2 X s 1447 908 m -2 X s 1447 914 m -2
 X s 1450 920 m -5 X s 1447 926 m -2 X s 1447 932 m -2 X s 1447 938 m -2 X s 1447 944 m -2 X s 1450 950 m -5 X s 1450 739 m -5 X s 1447 733 m -2 X s 1447 727 m -2 X s 1450 950 m -5 X s
 gsave  408 305 1383 677 C 1376.01 732.165 t 0 r /Helvetica findfont 22.8295 sf 0 0 m (\2550.035) show NC gr 
 gsave  408 305 1383 677 C 1390.26 760.654 t 0 r /Helvetica findfont 22.8295 sf 0 0 m (\2550.03) show NC gr 
 gsave  408 305 1383 677 C 1376.01 791.991 t 0 r /Helvetica findfont 22.8295 sf 0 0 m (\2550.025) show NC gr 
 gsave  408 305 1383 677 C 1390.26 823.329 t 0 r /Helvetica findfont 22.8295 sf 0 0 m (\2550.02) show NC gr 
 gsave  408 305 1383 677 C 1376.01 851.818 t 0 r /Helvetica findfont 22.8295 sf 0 0 m (\2550.015) show NC gr 
 gsave  408 305 1383 677 C 1393.11 883.156 t 0 r /Helvetica findfont 22.8295 sf 0 0 m (\2550.01) show NC gr 
 gsave  408 305 1383 677 C 1376.01 911.645 t 0 r /Helvetica findfont 22.8295 sf 0 0 m (\2550.005) show NC gr 
 gsave  408 305 1383 677 C 1427.29 942.983 t 0 r /Helvetica findfont 22.8295 sf 0 0 m (0) show NC gr  1751 723 m 229 Y s 1745 739 m 6 X s 1748 745 m 3 X s 1748 751 m 3 X s 1748 757 m 3 X s 1748 763 m 3 X s 1745 769 m 6 X s 1748 775 m 3 X s 1748 781 m
 3 X s 1748 787 m 3 X s 1748 793 m 3 X s 1745 799 m 6 X s 1748 805 m 3 X s 1748 811 m 3 X s 1748 817 m 3 X s 1748 823 m 3 X s 1745 829 m 6 X s 1748 835 m 3 X s 1748 841 m 3 X s 1748 848 m 3 X s 1748 854 m 3 X s 1745 860 m 6 X s 1748 866 m 3 X s 1748
 872 m 3 X s 1748 878 m 3 X s 1748 884 m 3 X s 1745 890 m 6 X s 1748 896 m 3 X s 1748 902 m 3 X s 1748 908 m 3 X s 1748 914 m 3 X s 1745 920 m 6 X s 1748 926 m 3 X s 1748 932 m 3 X s 1748 938 m 3 X s 1748 944 m 3 X s 1745 950 m 6 X s 1745 739 m 6 X s
 1748 733 m 3 X s 1748 727 m 3 X s 1745 950 m 6 X s 1590 916 1638 909 1686 874 1735 759 4 { m21} R 1590 927 m 6 Y s 1584 933 m 11 X s 1590 905 m -6 Y s 1584 899 m 11 X s 1638 920 m 6 Y s 1632 926 m 12 X s 1638 898 m -6 Y s 1632 892 m 12 X s 1686 885
 m 6 Y s 1681 891 m 11 X s 1686 863 m -6 Y s 1681 857 m 11 X s 1735 770 m 5 Y s 1729 775 m 11 X s 1735 747 m -5 Y s 1729 742 m 11 X s 1 0 0 c 9 lw 0.95 0.95 0.95 c black 1 0 0 c 1446 950 m 15 X 3 -1 d 10 X 3 -1 d 3 X 3 -1 d 3 X 3 -1 d 3 X 3 -1 d 3 X
 3 -1 d 3 X 3 -1 d 3 -1 d 3 -1 d 3 X 4 -1 d 3 -1 d 3 -1 d 3 -1 d 3 -1 d 3 -1 d 3 -1 d 3 -1 d 3 -1 d 3 -1 d 3 -2 d 3 -1 d 3 -1 d 3 -1 d 3 -2 d 3 -1 d 4 -1 d 3 -2 d 3 -1 d 3 -2 d 3 -1 d 3 -2 d 3 -1 d 3 -2 d 3 -2 d 3 -2 d s 1596 907 m 3 -1 d 3 -2 d 3 -2
 d 3 -2 d 3 -2 d 3 -1 d 4 -2 d 3 -2 d 3 -2 d 3 -2 d 3 -3 d 3 -2 d 3 -2 d 3 -2 d 3 -2 d 3 -3 d 3 -2 d 3 -2 d 3 -3 d 3 -2 d 3 -2 d 3 -3 d 3 -2 d 4 -3 d 3 -2 d 3 -3 d 3 -3 d 3 -2 d 3 -3 d 3 -3 d 3 -3 d 3 -2 d 3 -3 d 3 -3 d 3 -3 d 3 -3 d 3 -3 d 3 -3 d 3
 -3 d 4 -3 d 3 -3 d 3 -4 d 3 -3 d 3 -3 d 3 -3 d 3 -4 d 3 -3 d 3 -3 d 3 -4 d s 1746 781 m 3 -3 d s 0.49 0.6 0.82 c black 0.49 0.6 0.82 c
 gsave  408 305 1383 677 C 1504.21 960.076 t 0 r /Helvetica-Bold findfont 25.6831 sf 0 0 m (4.0 < E < 4.5 GeV) show NC gr  0.52 0.76 0.64 c black 0.52 0.76 0.64 c
 gsave  408 305 1383 677 C 1484.27 923.04 t 0 r /Helvetica-Bold findfont 25.6831 sf 0 0 m 
 228 214 200 193 178 171 156 149 134 126 119 105 91 77 69 55 47 40 25 17
(A = \2550.000, p = 2.000) K NC gr  1 0.6 1 c black 1 0.6 1 c
 gsave  408 305 1383 677 C 1789.1 791.991 t 90 r /Helvetica-Bold findfont 28.5368 sf 0 0 m (/dof=3.7) show NC gr  black 1 0.6 1 c
 gsave  408 305 1383 677 C 1777.71 780.596 t 90 r /Helvetica-Bold findfont 19.9758 sf 0 0 m (2) show NC gr  black 1 0.6 1 c
 gsave  408 305 1383 677 C 1789.1 763.503 t 90 r /Symbol findfont 28.5368 sf 0 0 m (c) show NC gr  black 3 lw 1 1 1 c 408 305 1837 677 bf black 1 1 1 c black 306 229 1898 723 bl 306 229 1898 723 bl 1898 723 m 306 X s 1898 727 m -4 Y s 2002 727 m -4 Y
 s 2105 727 m -4 Y s 2105 727 m -4 Y s
 gsave  408 305 1837 677 C 1888.81 703.676 t 0 r /Helvetica findfont 22.8295 sf 0 0 m (0) show NC gr 
 gsave  408 305 1837 677 C 1979.98 703.676 t 0 r /Helvetica findfont 22.8295 sf 0 0 m (500) show NC gr 
 gsave  408 305 1837 677 C 2079.69 703.676 t 0 r /Helvetica findfont 22.8295 sf 0 0 m (1000) show NC gr  1898 952 m 306 X s 1898 948 m 4 Y s 2002 948 m 4 Y s 2105 948 m 4 Y s 2105 948 m 4 Y s 1898 723 m 229 Y s 1904 724 m -6 X s 1901 731 m -3 X s
 1901 738 m -3 X s 1901 745 m -3 X s 1901 753 m -3 X s 1904 760 m -6 X s 1901 767 m -3 X s 1901 774 m -3 X s 1901 782 m -3 X s 1901 789 m -3 X s 1904 796 m -6 X s 1901 804 m -3 X s 1901 811 m -3 X s 1901 818 m -3 X s 1901 825 m -3 X s 1904 833 m -6 X
 s 1901 840 m -3 X s 1901 847 m -3 X s 1901 854 m -3 X s 1901 862 m -3 X s 1904 869 m -6 X s 1901 876 m -3 X s 1901 883 m -3 X s 1901 891 m -3 X s 1901 898 m -3 X s 1904 905 m -6 X s 1901 912 m -3 X s 1901 920 m -3 X s 1901 927 m -3 X s 1901 934 m -3
 X s 1904 941 m -6 X s 1904 724 m -6 X s 1904 941 m -6 X s 1901 949 m -3 X s
 gsave  408 305 1837 677 C 1843.23 717.92 t 0 r /Helvetica findfont 22.8295 sf 0 0 m (\2550.02) show NC gr 
 gsave  408 305 1837 677 C 1828.99 752.107 t 0 r /Helvetica findfont 22.8295 sf 0 0 m (\2550.015) show NC gr 
 gsave  408 305 1837 677 C 1846.08 789.143 t 0 r /Helvetica findfont 22.8295 sf 0 0 m (\2550.01) show NC gr 
 gsave  408 305 1837 677 C 1828.99 826.178 t 0 r /Helvetica findfont 22.8295 sf 0 0 m (\2550.005) show NC gr 
 gsave  408 305 1837 677 C 1880.27 860.365 t 0 r /Helvetica findfont 22.8295 sf 0 0 m (0) show NC gr 
 gsave  408 305 1837 677 C 1837.53 897.4 t 0 r /Helvetica findfont 22.8295 sf 0 0 m (0.005) show NC gr 
 gsave  408 305 1837 677 C 1851.78 934.436 t 0 r /Helvetica findfont 22.8295 sf 0 0 m (0.01) show NC gr  2204 723 m 229 Y s 2199 724 m 5 X s 2201 731 m 3 X s 2201 738 m 3 X s 2201 745 m 3 X s 2201 753 m 3 X s 2199 760 m 5 X s 2201 767 m 3 X s 2201
 774 m 3 X s 2201 782 m 3 X s 2201 789 m 3 X s 2199 796 m 5 X s 2201 804 m 3 X s 2201 811 m 3 X s 2201 818 m 3 X s 2201 825 m 3 X s 2199 833 m 5 X s 2201 840 m 3 X s 2201 847 m 3 X s 2201 854 m 3 X s 2201 862 m 3 X s 2199 869 m 5 X s 2201 876 m 3 X s
 2201 883 m 3 X s 2201 891 m 3 X s 2201 898 m 3 X s 2199 905 m 5 X s 2201 912 m 3 X s 2201 920 m 3 X s 2201 927 m 3 X s 2201 934 m 3 X s 2199 941 m 5 X s 2199 724 m 5 X s 2199 941 m 5 X s 2201 949 m 3 X s 2043 905 2091 843 2140 855 2188 770 4 { m21}
 R 2043 916 m 17 Y s 2037 933 m 12 X s 2043 893 m -17 Y s 2037 876 m 12 X s 2091 855 m 16 Y s 2086 871 m 11 X s 2091 832 m -17 Y s 2086 815 m 11 X s 2140 866 m 17 Y s 2134 883 m 11 X s 2140 843 m -16 Y s 2134 827 m 11 X s 2188 781 m 17 Y s 2183 798 m
 11 X s 2188 758 m -16 Y s 2183 742 m 11 X s 1 0 0 c 9 lw 0.95 0.95 0.95 c black 1 0 0 c 1900 869 m 18 X 3 -1 d 18 X 3 -1 d 10 X 3 -1 d 9 X 3 -1 d 6 X 3 -1 d 3 X 3 -1 d 6 X 3 -1 d 4 X 3 -1 d 3 X 3 -1 d 3 X 3 -1 d 3 X 3 -1 d 3 X 3 -1 d 3 -1 d 3 X 3 -1
 d 3 X 3 -1 d 3 -1 d 3 X 4 -1 d 3 -1 d s 2050 851 m 3 X 3 -1 d 3 -1 d 3 -1 d 3 X 3 -1 d 3 -1 d 3 -1 d 3 -1 d 3 -1 d 3 X 3 -1 d 3 -1 d 3 -1 d 4 -1 d 3 -1 d 3 -1 d 3 -1 d 3 -1 d 3 -1 d 3 -1 d 3 -1 d 3 -1 d 3 -1 d 3 -1 d 3 -1 d 3 -1 d 3 -1 d 3 -1 d 3 -1
 d 4 -2 d 3 -1 d 3 -1 d 3 -1 d 3 -1 d 3 -2 d 3 -1 d 3 -1 d 3 -1 d 3 -2 d 3 -1 d 3 -1 d 3 -1 d 3 -2 d 3 -1 d 3 -1 d 4 -2 d 3 -1 d 3 -2 d s 2200 799 m 3 -1 d s 0.49 0.6 0.82 c black 0.49 0.6 0.82 c
 gsave  408 305 1837 677 C 1957.19 960.076 t 0 r /Helvetica-Bold findfont 25.6831 sf 0 0 m (4.5 < E < 5.0 GeV) show NC gr  0.52 0.76 0.64 c black 0.52 0.76 0.64 c
 gsave  408 305 1837 677 C 1937.25 923.04 t 0 r /Helvetica-Bold findfont 25.6831 sf 0 0 m 
 228 214 200 193 178 171 156 149 133 126 119 105 91 77 69 55 47 39 25 17
(A = \2550.000, p = 2.000) K NC gr  1 0.6 1 c black 1 0.6 1 c
 gsave  408 305 1837 677 C 2242.08 791.991 t 90 r /Helvetica-Bold findfont 28.5368 sf 0 0 m (/dof=2.0) show NC gr  black 1 0.6 1 c
 gsave  408 305 1837 677 C 2230.68 780.596 t 90 r /Helvetica-Bold findfont 19.9758 sf 0 0 m (2) show NC gr  black 1 0.6 1 c
 gsave  408 305 1837 677 C 2242.08 763.503 t 90 r /Symbol findfont 28.5368 sf 0 0 m (c) show NC gr  black 3 lw 1 1 1 c 408 306 23 345 bf black 1 1 1 c black 306 229 84 391 bl 306 229 84 391 bl 84 391 m 306 X s 84 395 m -4 Y s 188 395 m -4 Y s 291 395
 m -4 Y s 291 395 m -4 Y s
 gsave  408 306 23 345 C 74.0711 370.356 t 0 r /Helvetica findfont 22.8295 sf 0 0 m (0) show NC gr 
 gsave  408 306 23 345 C 165.236 370.356 t 0 r /Helvetica findfont 22.8295 sf 0 0 m (500) show NC gr 
 gsave  408 306 23 345 C 264.947 370.356 t 0 r /Helvetica findfont 22.8295 sf 0 0 m (1000) show NC gr  84 620 m 306 X s 84 616 m 4 Y s 188 616 m 4 Y s 291 616 m 4 Y s 291 616 m 4 Y s 84 391 m 229 Y s 89 397 m -5 X s 87 405 m -3 X s 87 412 m -3 X s 87
 419 m -3 X s 87 427 m -3 X s 89 434 m -5 X s 87 442 m -3 X s 87 449 m -3 X s 87 457 m -3 X s 87 464 m -3 X s 89 471 m -5 X s 87 479 m -3 X s 87 486 m -3 X s 87 494 m -3 X s 87 501 m -3 X s 89 509 m -5 X s 87 516 m -3 X s 87 523 m -3 X s 87 531 m -3
 X s 87 538 m -3 X s 89 546 m -5 X s 87 553 m -3 X s 87 561 m -3 X s 87 568 m -3 X s 87 576 m -3 X s 89 583 m -5 X s 89 397 m -5 X s 89 583 m -5 X s 87 590 m -3 X s 87 598 m -3 X s 87 605 m -3 X s 87 613 m -3 X s
 gsave  408 306 23 345 C 14.2445 390.298 t 0 r /Helvetica findfont 22.8295 sf 0 0 m (\2550.005) show NC gr 
 gsave  408 306 23 345 C 65.5245 427.334 t 0 r /Helvetica findfont 22.8295 sf 0 0 m (0) show NC gr 
 gsave  408 306 23 345 C 22.7911 464.369 t 0 r /Helvetica findfont 22.8295 sf 0 0 m (0.005) show NC gr 
 gsave  408 306 23 345 C 37.0356 501.405 t 0 r /Helvetica findfont 22.8295 sf 0 0 m (0.01) show NC gr 
 gsave  408 306 23 345 C 22.7911 538.44 t 0 r /Helvetica findfont 22.8295 sf 0 0 m (0.015) show NC gr 
 gsave  408 306 23 345 C 34.1867 575.476 t 0 r /Helvetica findfont 22.8295 sf 0 0 m (0.02) show NC gr  390 391 m 229 Y s 385 397 m 5 X s 387 405 m 3 X s 387 412 m 3 X s 387 419 m 3 X s 387 427 m 3 X s 385 434 m 5 X s 387 442 m 3 X s 387 449 m 3 X s
 387 457 m 3 X s 387 464 m 3 X s 385 471 m 5 X s 387 479 m 3 X s 387 486 m 3 X s 387 494 m 3 X s 387 501 m 3 X s 385 509 m 5 X s 387 516 m 3 X s 387 523 m 3 X s 387 531 m 3 X s 387 538 m 3 X s 385 546 m 5 X s 387 553 m 3 X s 387 561 m 3 X s 387 568 m
 3 X s 387 576 m 3 X s 385 583 m 5 X s 385 397 m 5 X s 385 583 m 5 X s 387 590 m 3 X s 387 598 m 3 X s 387 605 m 3 X s 387 613 m 3 X s /w 22 def /w2 {w 2 div} def /w3 {w 3 div} def 229 450 277 448 326 470 374 562 4 { m21} R 229 461 m 27 Y s 223 488 m
 12 X s 229 439 m -27 Y s 223 412 m 12 X s 277 460 m 26 Y s 272 486 m 11 X s 277 437 m -27 Y s 272 410 m 11 X s 326 481 m 27 Y s 320 508 m 11 X s 326 458 m -26 Y s 320 432 m 11 X s 374 574 m 27 Y s 368 601 m 12 X s 374 551 m -27 Y s 368 524 m 12 X s
 1 0 0 c 9 lw 0.95 0.95 0.95 c black 1 0 0 c 85 434 m 10 X 3 1 d 18 X 3 1 d 6 X 3 1 d 6 X 3 1 d 7 X 3 1 d 3 X 3 1 d 3 X 3 1 d 3 X 3 1 d 3 X 3 1 d 3 X 3 1 d 3 1 d 3 X 3 1 d 4 1 d 3 X 3 1 d 3 1 d 3 1 d 3 X 3 1 d 3 1 d 3 1 d 3 1 d 3 1 d 3 1 d 3 1 d 3 1
 d 3 1 d 3 1 d s 235 460 m 4 1 d 3 1 d 3 1 d 3 1 d 3 1 d 3 1 d 3 1 d 3 2 d 3 1 d 3 1 d 3 1 d 3 1 d 3 2 d 3 1 d 3 1 d 3 2 d 3 1 d 4 1 d 3 2 d 3 1 d 3 2 d 3 1 d 3 2 d 3 1 d 3 2 d 3 1 d 3 2 d 3 1 d 3 2 d 3 2 d 3 1 d 3 2 d 3 2 d 4 1 d 3 2 d 3 2 d 3 2 d 3
 2 d 3 1 d 3 2 d 3 2 d 3 2 d 3 2 d 3 2 d 3 2 d 3 2 d 3 2 d 3 2 d 3 2 d s 385 535 m 4 2 d s 0.49 0.6 0.82 c black 0.49 0.6 0.82 c
 gsave  408 306 23 345 C 142.445 629.605 t 0 r /Helvetica-Bold findfont 25.6831 sf 0 0 m (5.0 < E < 5.5 GeV) show NC gr  0.52 0.76 0.64 c black 0.52 0.76 0.64 c
 gsave  408 306 23 345 C 128.2 592.569 t 0 r /Helvetica-Bold findfont 25.6831 sf 0 0 m 
 220 206 192 185 170 163 148 141 126 118 111 97 83 69 61 47 40 25 18
(A = 0.000, p = 2.000) K NC gr  1 0.6 1 c black 1 0.6 1 c
 gsave  408 306 23 345 C 427.334 458.671 t 90 r /Helvetica-Bold findfont 28.5368 sf 0 0 m (/dof=0.6) show NC gr  black 1 0.6 1 c
 gsave  408 306 23 345 C 415.938 447.276 t 90 r /Helvetica-Bold findfont 19.9758 sf 0 0 m (2) show NC gr  black 1 0.6 1 c
 gsave  408 306 23 345 C 427.334 430.182 t 90 r /Symbol findfont 28.5368 sf 0 0 m (c) show NC gr  black 3 lw 1 1 1 c 408 306 476 345 bf black 1 1 1 c black 307 229 537 391 bl 307 229 537 391 bl 537 391 m 307 X s 537 395 m -4 Y s 641 395 m -4 Y s 745
 395 m -4 Y s 745 395 m -4 Y s
 gsave  408 306 476 345 C 527.045 370.356 t 0 r /Helvetica findfont 22.8295 sf 0 0 m (0) show NC gr 
 gsave  408 306 476 345 C 621.058 370.356 t 0 r /Helvetica findfont 22.8295 sf 0 0 m (500) show NC gr 
 gsave  408 306 476 345 C 717.92 370.356 t 0 r /Helvetica findfont 22.8295 sf 0 0 m (1000) show NC gr  537 620 m 307 X s 537 616 m 4 Y s 641 616 m 4 Y s 745 616 m 4 Y s 745 616 m 4 Y s 537 391 m 229 Y s 543 391 m -6 X s 540 396 m -3 X s 540 401 m -3
 X s 540 406 m -3 X s 540 411 m -3 X s 543 416 m -6 X s 540 421 m -3 X s 540 425 m -3 X s 540 430 m -3 X s 540 435 m -3 X s 543 440 m -6 X s 540 445 m -3 X s 540 450 m -3 X s 540 455 m -3 X s 540 459 m -3 X s 543 464 m -6 X s 540 469 m -3 X s 540 474
 m -3 X s 540 479 m -3 X s 540 484 m -3 X s 543 489 m -6 X s 540 494 m -3 X s 540 498 m -3 X s 540 503 m -3 X s 540 508 m -3 X s 543 513 m -6 X s 540 518 m -3 X s 540 523 m -3 X s 540 528 m -3 X s 540 532 m -3 X s 543 537 m -6 X s 540 542 m -3 X s
 540 547 m -3 X s 540 552 m -3 X s 540 557 m -3 X s 543 562 m -6 X s 540 567 m -3 X s 540 571 m -3 X s 540 576 m -3 X s 540 581 m -3 X s 543 586 m -6 X s 540 591 m -3 X s 540 596 m -3 X s 540 601 m -3 X s 540 605 m -3 X s 543 610 m -6 X s 543 391 m
 -6 X s 543 610 m -6 X s 540 615 m -3 X s
 gsave  408 306 476 345 C 481.462 384.6 t 0 r /Helvetica findfont 22.8295 sf 0 0 m (\2550.02) show NC gr 
 gsave  408 306 476 345 C 484.311 407.391 t 0 r /Helvetica findfont 22.8295 sf 0 0 m (\2550.01) show NC gr 
 gsave  408 306 476 345 C 518.498 433.031 t 0 r /Helvetica findfont 22.8295 sf 0 0 m (0) show NC gr 
 gsave  408 306 476 345 C 490.009 455.822 t 0 r /Helvetica findfont 22.8295 sf 0 0 m (0.01) show NC gr 
 gsave  408 306 476 345 C 487.16 481.462 t 0 r /Helvetica findfont 22.8295 sf 0 0 m (0.02) show NC gr 
 gsave  408 306 476 345 C 487.16 507.102 t 0 r /Helvetica findfont 22.8295 sf 0 0 m (0.03) show NC gr 
 gsave  408 306 476 345 C 487.16 529.894 t 0 r /Helvetica findfont 22.8295 sf 0 0 m (0.04) show NC gr 
 gsave  408 306 476 345 C 487.16 555.534 t 0 r /Helvetica findfont 22.8295 sf 0 0 m (0.05) show NC gr 
 gsave  408 306 476 345 C 487.16 578.325 t 0 r /Helvetica findfont 22.8295 sf 0 0 m (0.06) show NC gr 
 gsave  408 306 476 345 C 487.16 603.965 t 0 r /Helvetica findfont 22.8295 sf 0 0 m (0.07) show NC gr  844 391 m 229 Y s 838 391 m 6 X s 841 396 m 3 X s 841 401 m 3 X s 841 406 m 3 X s 841 411 m 3 X s 838 416 m 6 X s 841 421 m 3 X s 841 425 m 3 X s
 841 430 m 3 X s 841 435 m 3 X s 838 440 m 6 X s 841 445 m 3 X s 841 450 m 3 X s 841 455 m 3 X s 841 459 m 3 X s 838 464 m 6 X s 841 469 m 3 X s 841 474 m 3 X s 841 479 m 3 X s 841 484 m 3 X s 838 489 m 6 X s 841 494 m 3 X s 841 498 m 3 X s 841 503 m
 3 X s 841 508 m 3 X s 838 513 m 6 X s 841 518 m 3 X s 841 523 m 3 X s 841 528 m 3 X s 841 532 m 3 X s 838 537 m 6 X s 841 542 m 3 X s 841 547 m 3 X s 841 552 m 3 X s 841 557 m 3 X s 838 562 m 6 X s 841 567 m 3 X s 841 571 m 3 X s 841 576 m 3 X s 841
 581 m 3 X s 838 586 m 6 X s 841 591 m 3 X s 841 596 m 3 X s 841 601 m 3 X s 841 605 m 3 X s 838 610 m 6 X s 838 391 m 6 X s 838 610 m 6 X s 841 615 m 3 X s /w 23 def /w2 {w 2 div} def /w3 {w 3 div} def 683 426 731 441 779 492 828 585 4 { m21} R 683
 437 m 4 Y s 677 441 m 11 X s 683 414 m -4 Y s 677 410 m 11 X s 731 453 m 4 Y s 725 457 m 12 X s 731 430 m -4 Y s 725 426 m 12 X s 779 503 m 5 Y s 773 508 m 12 X s 779 481 m -5 Y s 773 476 m 12 X s 828 596 m 5 Y s 822 601 m 11 X s 828 573 m -5 Y s
 822 568 m 11 X s 1 0 0 c 9 lw 0.95 0.95 0.95 c black 1 0 0 c 539 440 m 18 X 3 1 d 13 X 3 1 d 6 X 3 1 d 6 X 3 1 d 3 X 3 1 d 3 X 3 1 d 3 X 3 1 d 4 X 3 1 d 3 X 3 1 d 3 1 d 3 X 3 1 d 3 1 d 3 1 d 3 X 3 1 d 3 1 d 3 1 d 3 1 d 3 X 3 1 d 3 1 d 4 1 d 3 1 d 3
 1 d 3 1 d 3 1 d 3 1 d 3 1 d 3 1 d s 689 467 m 3 1 d 3 2 d 3 1 d 3 1 d 3 1 d 3 1 d 3 2 d 3 1 d 4 1 d 3 1 d 3 2 d 3 1 d 3 2 d 3 1 d 3 1 d 3 2 d 3 1 d 3 2 d 3 1 d 3 2 d 3 1 d 3 2 d 3 2 d 3 1 d 4 2 d 3 1 d 3 2 d 3 2 d 3 2 d 3 1 d 3 2 d 3 2 d 3 2 d 3 2 d
 3 2 d 3 1 d 3 2 d 3 2 d 3 2 d 3 2 d 4 2 d 3 2 d 3 2 d 3 2 d 3 2 d 3 3 d 3 2 d 3 2 d 3 2 d s 839 548 m 3 2 d s 0.49 0.6 0.82 c black 0.49 0.6 0.82 c
 gsave  408 306 476 345 C 595.418 629.605 t 0 r /Helvetica-Bold findfont 25.6831 sf 0 0 m (5.5 < E < 6.0 GeV) show NC gr  0.52 0.76 0.64 c black 0.52 0.76 0.64 c
 gsave  408 306 476 345 C 581.174 592.569 t 0 r /Helvetica-Bold findfont 25.6831 sf 0 0 m 
 220 206 192 185 170 163 148 141 125 118 111 97 83 68 61 47 40 25 18
(A = 0.000, p = 2.000) K NC gr  1 0.6 1 c black 1 0.6 1 c
 gsave  408 306 476 345 C 883.156 458.671 t 90 r /Helvetica-Bold findfont 28.5368 sf 0 0 m (/dof=7.6) show NC gr  black 1 0.6 1 c
 gsave  408 306 476 345 C 871.76 447.276 t 90 r /Helvetica-Bold findfont 19.9758 sf 0 0 m (2) show NC gr  black 1 0.6 1 c
 gsave  408 306 476 345 C 883.156 430.182 t 90 r /Symbol findfont 28.5368 sf 0 0 m (c) show NC gr  black 3 lw 1 1 1 c 408 306 930 345 bf black 1 1 1 c black 306 229 991 391 bl 306 229 991 391 bl 991 391 m 306 X s 991 395 m -4 Y s 1095 395 m -4 Y s
 1198 395 m -4 Y s 1198 395 m -4 Y s
 gsave  408 306 930 345 C 980.018 370.356 t 0 r /Helvetica findfont 22.8295 sf 0 0 m (0) show NC gr 
 gsave  408 306 930 345 C 1074.03 370.356 t 0 r /Helvetica findfont 22.8295 sf 0 0 m (500) show NC gr 
 gsave  408 306 930 345 C 1170.89 370.356 t 0 r /Helvetica findfont 22.8295 sf 0 0 m (1000) show NC gr  991 620 m 306 X s 991 616 m 4 Y s 1095 616 m 4 Y s 1198 616 m 4 Y s 1198 616 m 4 Y s 991 391 m 229 Y s 997 391 m -6 X s 994 401 m -3 X s 994 411 m
 -3 X s 994 420 m -3 X s 997 430 m -6 X s 994 440 m -3 X s 994 450 m -3 X s 994 460 m -3 X s 997 469 m -6 X s 994 479 m -3 X s 994 489 m -3 X s 994 499 m -3 X s 997 509 m -6 X s 994 518 m -3 X s 994 528 m -3 X s 994 538 m -3 X s 997 548 m -6 X s 994
 558 m -3 X s 994 567 m -3 X s 994 577 m -3 X s 997 587 m -6 X s 997 587 m -6 X s 994 597 m -3 X s 994 607 m -3 X s 994 616 m -3 X s
 gsave  408 306 930 345 C 974.32 384.6 t 0 r /Helvetica findfont 22.8295 sf 0 0 m (0) show NC gr 
 gsave  408 306 930 345 C 942.983 421.636 t 0 r /Helvetica findfont 22.8295 sf 0 0 m (0.02) show NC gr 
 gsave  408 306 930 345 C 942.983 461.52 t 0 r /Helvetica findfont 22.8295 sf 0 0 m (0.04) show NC gr 
 gsave  408 306 930 345 C 942.983 501.405 t 0 r /Helvetica findfont 22.8295 sf 0 0 m (0.06) show NC gr 
 gsave  408 306 930 345 C 942.983 541.289 t 0 r /Helvetica findfont 22.8295 sf 0 0 m (0.08) show NC gr 
 gsave  408 306 930 345 C 960.076 581.174 t 0 r /Helvetica findfont 22.8295 sf 0 0 m (0.1) show NC gr  1297 391 m 229 Y s 1292 391 m 5 X s 1294 401 m 3 X s 1294 411 m 3 X s 1294 420 m 3 X s 1292 430 m 5 X s 1294 440 m 3 X s 1294 450 m 3 X s 1294 460
 m 3 X s 1292 469 m 5 X s 1294 479 m 3 X s 1294 489 m 3 X s 1294 499 m 3 X s 1292 509 m 5 X s 1294 518 m 3 X s 1294 528 m 3 X s 1294 538 m 3 X s 1292 548 m 5 X s 1294 558 m 3 X s 1294 567 m 3 X s 1294 577 m 3 X s 1292 587 m 5 X s 1292 587 m 5 X s
 1294 597 m 3 X s 1294 607 m 3 X s 1294 616 m 3 X s 1136 407 1184 414 1233 460 1281 583 4 { m21} R 1136 418 m 4 Y s 1130 422 m 12 X s 1136 395 m -3 Y s 1130 392 m 12 X s 1184 425 m 4 Y s 1179 429 m 11 X s 1184 402 m -3 Y s 1179 399 m 11 X s 1233 471
 m 4 Y s 1227 475 m 11 X s 1233 448 m -4 Y s 1227 444 m 11 X s 1281 595 m 4 Y s 1275 599 m 12 X s 1281 572 m -5 Y s 1275 567 m 12 X s 1 0 0 c 9 lw 0.95 0.95 0.95 c black 1 0 0 c 993 391 m 15 X 3 1 d 9 X 3 1 d 6 X 3 1 d 3 X 3 1 d 4 X 3 1 d 3 X 3 1 d 3
 1 d 3 X 3 1 d 3 1 d 3 1 d 3 X 3 1 d 3 1 d 3 1 d 3 1 d 3 1 d 3 1 d 3 1 d 4 1 d 3 1 d 3 1 d 3 1 d 3 1 d 3 2 d 3 1 d 3 1 d 3 1 d 3 2 d 3 1 d 3 1 d 3 2 d 3 1 d 3 2 d 3 1 d 4 2 d s 1143 430 m 3 2 d 3 1 d 3 2 d 3 2 d 3 1 d 3 2 d 3 2 d 3 2 d 3 1 d 3 2 d 3
 2 d 3 2 d 3 2 d 3 2 d 3 2 d 4 2 d 3 2 d 3 2 d 3 3 d 3 2 d 3 2 d 3 2 d 3 3 d 3 2 d 3 2 d 3 3 d 3 2 d 3 3 d 3 2 d 3 3 d 3 2 d 3 3 d 4 2 d 3 3 d 3 3 d 3 2 d 3 3 d 3 3 d 3 3 d 3 2 d 3 3 d 3 3 d 3 3 d 3 3 d 3 3 d 3 3 d 3 3 d 3 3 d 4 3 d s 1293 545 m 3 4
 d s 0.49 0.6 0.82 c black 0.49 0.6 0.82 c
 gsave  408 306 930 345 C 1051.24 629.605 t 0 r /Helvetica-Bold findfont 25.6831 sf 0 0 m (6.0 < E < 6.5 GeV) show NC gr  0.52 0.76 0.64 c black 0.52 0.76 0.64 c
 gsave  408 306 930 345 C 1037 592.569 t 0 r /Helvetica-Bold findfont 25.6831 sf 0 0 m 
 220 206 192 185 170 163 148 141 125 118 111 97 83 69 61 47 40 25 18
(A = 0.000, p = 2.000) K NC gr  1 0.6 1 c black 1 0.6 1 c
 gsave  408 306 930 345 C 1336.13 458.671 t 90 r /Helvetica-Bold findfont 28.5368 sf 0 0 m (/dof=7.6) show NC gr  black 1 0.6 1 c
 gsave  408 306 930 345 C 1324.73 447.276 t 90 r /Helvetica-Bold findfont 19.9758 sf 0 0 m (2) show NC gr  black 1 0.6 1 c
 gsave  408 306 930 345 C 1336.13 430.182 t 90 r /Symbol findfont 28.5368 sf 0 0 m (c) show NC gr  black 3 lw 1 1 1 c 408 306 1383 345 bf black 1 1 1 c black 306 229 1445 391 bl 306 229 1445 391 bl 1445 391 m 306 X s 1445 395 m -4 Y s 1548 395 m -4 Y
 s 1652 395 m -4 Y s 1652 395 m -4 Y s
 gsave  408 306 1383 345 C 1435.84 370.356 t 0 r /Helvetica findfont 22.8295 sf 0 0 m (0) show NC gr 
 gsave  408 306 1383 345 C 1527.01 370.356 t 0 r /Helvetica findfont 22.8295 sf 0 0 m (500) show NC gr 
 gsave  408 306 1383 345 C 1623.87 370.356 t 0 r /Helvetica findfont 22.8295 sf 0 0 m (1000) show NC gr  1445 620 m 306 X s 1445 616 m 4 Y s 1548 616 m 4 Y s 1652 616 m 4 Y s 1652 616 m 4 Y s 1445 391 m 229 Y s 1450 401 m -5 X s 1447 408 m -2 X s
 1447 414 m -2 X s 1447 421 m -2 X s 1450 428 m -5 X s 1447 434 m -2 X s 1447 441 m -2 X s 1447 448 m -2 X s 1450 454 m -5 X s 1447 461 m -2 X s 1447 468 m -2 X s 1447 474 m -2 X s 1450 481 m -5 X s 1447 488 m -2 X s 1447 494 m -2 X s 1447 501 m -2 X
 s 1450 508 m -5 X s 1447 514 m -2 X s 1447 521 m -2 X s 1447 528 m -2 X s 1450 534 m -5 X s 1447 541 m -2 X s 1447 547 m -2 X s 1447 554 m -2 X s 1450 561 m -5 X s 1447 567 m -2 X s 1447 574 m -2 X s 1447 581 m -2 X s 1450 587 m -5 X s 1447 594 m -2
 X s 1447 601 m -2 X s 1447 607 m -2 X s 1450 614 m -5 X s 1450 401 m -5 X s 1447 394 m -2 X s 1450 614 m -5 X s
 gsave  408 306 1383 345 C 1390.26 393.147 t 0 r /Helvetica findfont 22.8295 sf 0 0 m (\2550.02) show NC gr 
 gsave  408 306 1383 345 C 1427.29 421.636 t 0 r /Helvetica findfont 22.8295 sf 0 0 m (0) show NC gr 
 gsave  408 306 1383 345 C 1395.96 447.276 t 0 r /Helvetica findfont 22.8295 sf 0 0 m (0.02) show NC gr 
 gsave  408 306 1383 345 C 1395.96 472.916 t 0 r /Helvetica findfont 22.8295 sf 0 0 m (0.04) show NC gr 
 gsave  408 306 1383 345 C 1395.96 501.405 t 0 r /Helvetica findfont 22.8295 sf 0 0 m (0.06) show NC gr 
 gsave  408 306 1383 345 C 1395.96 527.045 t 0 r /Helvetica findfont 22.8295 sf 0 0 m (0.08) show NC gr 
 gsave  408 306 1383 345 C 1413.05 552.685 t 0 r /Helvetica findfont 22.8295 sf 0 0 m (0.1) show NC gr 
 gsave  408 306 1383 345 C 1395.96 581.174 t 0 r /Helvetica findfont 22.8295 sf 0 0 m (0.12) show NC gr 
 gsave  408 306 1383 345 C 1395.96 606.814 t 0 r /Helvetica findfont 22.8295 sf 0 0 m (0.14) show NC gr  1751 391 m 229 Y s 1745 401 m 6 X s 1748 408 m 3 X s 1748 414 m 3 X s 1748 421 m 3 X s 1745 428 m 6 X s 1748 434 m 3 X s 1748 441 m 3 X s 1748
 448 m 3 X s 1745 454 m 6 X s 1748 461 m 3 X s 1748 468 m 3 X s 1748 474 m 3 X s 1745 481 m 6 X s 1748 488 m 3 X s 1748 494 m 3 X s 1748 501 m 3 X s 1745 508 m 6 X s 1748 514 m 3 X s 1748 521 m 3 X s 1748 528 m 3 X s 1745 534 m 6 X s 1748 541 m 3 X s
 1748 547 m 3 X s 1748 554 m 3 X s 1745 561 m 6 X s 1748 567 m 3 X s 1748 574 m 3 X s 1748 581 m 3 X s 1745 587 m 6 X s 1748 594 m 3 X s 1748 601 m 3 X s 1748 607 m 3 X s 1745 614 m 6 X s 1745 401 m 6 X s 1748 394 m 3 X s 1745 614 m 6 X s 1590 421
 1638 424 1686 473 1735 588 4 { m21} R 1686 485 m s 1681 485 m 11 X s 1686 462 m -1 Y s 1681 461 m 11 X s 1735 600 m 1 Y s 1729 601 m 11 X s 1735 577 m -1 Y s 1729 576 m 11 X s 1 0 0 c 9 lw 0.95 0.95 0.95 c black 1 0 0 c 1446 428 m 21 X 4 1 d 12 X 3
 1 d 6 X 3 1 d 3 X 3 1 d 3 X 3 1 d 3 X 3 1 d 3 X 4 1 d 3 X 3 1 d 3 X 3 1 d 3 1 d 3 X 3 1 d 3 1 d 3 1 d 3 X 3 1 d 3 1 d 3 1 d 3 1 d 3 1 d 4 1 d 3 1 d 3 1 d 3 1 d 3 1 d 3 1 d 3 1 d 3 1 d 3 1 d 3 1 d s 1596 456 m 3 1 d 3 1 d 3 1 d 3 2 d 3 1 d 3 1 d 4 1
 d 3 2 d 3 1 d 3 2 d 3 1 d 3 1 d 3 2 d 3 1 d 3 2 d 3 1 d 3 2 d 3 1 d 3 2 d 3 1 d 3 2 d 3 2 d 3 1 d 4 2 d 3 2 d 3 1 d 3 2 d 3 2 d 3 2 d 3 2 d 3 1 d 3 2 d 3 2 d 3 2 d 3 2 d 3 2 d 3 2 d 3 2 d 3 2 d 4 2 d 3 2 d 3 2 d 3 2 d 3 2 d 3 3 d 3 2 d 3 2 d 3 2 d 3
 3 d s 1746 540 m 3 2 d s 0.49 0.6 0.82 c black 0.49 0.6 0.82 c
 gsave  408 306 1383 345 C 1504.21 629.605 t 0 r /Helvetica-Bold findfont 25.6831 sf 0 0 m (6.5 < E < 7.0 GeV) show NC gr  0.52 0.76 0.64 c black 0.52 0.76 0.64 c
 gsave  408 306 1383 345 C 1489.97 592.569 t 0 r /Helvetica-Bold findfont 25.6831 sf 0 0 m 
 220 206 192 185 170 163 148 141 126 118 111 97 83 69 61 47 40 25 18
(A = 0.000, p = 2.000) K NC gr  1 0.6 1 c black 1 0.6 1 c
 gsave  408 306 1383 345 C 1789.1 450.125 t 90 r /Helvetica-Bold findfont 28.5368 sf 0 0 m (/dof=18.0) show NC gr  black 1 0.6 1 c
 gsave  408 306 1383 345 C 1777.71 438.729 t 90 r /Helvetica-Bold findfont 19.9758 sf 0 0 m (2) show NC gr  black 1 0.6 1 c
 gsave  408 306 1383 345 C 1789.1 421.636 t 90 r /Symbol findfont 28.5368 sf 0 0 m (c) show NC gr  black 3 lw 1 1 1 c 408 306 1837 345 bf black 1 1 1 c black 306 229 1898 391 bl 306 229 1898 391 bl 1898 391 m 306 X s 1898 395 m -4 Y s 2002 395 m -4 Y
 s 2105 395 m -4 Y s 2105 395 m -4 Y s
 gsave  408 306 1837 345 C 1888.81 370.356 t 0 r /Helvetica findfont 22.8295 sf 0 0 m (0) show NC gr 
 gsave  408 306 1837 345 C 1979.98 370.356 t 0 r /Helvetica findfont 22.8295 sf 0 0 m (500) show NC gr 
 gsave  408 306 1837 345 C 2079.69 370.356 t 0 r /Helvetica findfont 22.8295 sf 0 0 m (1000) show NC gr  1898 620 m 306 X s 1898 616 m 4 Y s 2002 616 m 4 Y s 2105 616 m 4 Y s 2105 616 m 4 Y s 1898 391 m 229 Y s 1904 393 m -6 X s 1901 400 m -3 X s
 1901 406 m -3 X s 1901 413 m -3 X s 1904 420 m -6 X s 1901 426 m -3 X s 1901 433 m -3 X s 1901 439 m -3 X s 1904 446 m -6 X s 1901 453 m -3 X s 1901 459 m -3 X s 1901 466 m -3 X s 1904 472 m -6 X s 1901 479 m -3 X s 1901 486 m -3 X s 1901 492 m -3 X
 s 1904 499 m -6 X s 1901 505 m -3 X s 1901 512 m -3 X s 1901 519 m -3 X s 1904 525 m -6 X s 1901 532 m -3 X s 1901 538 m -3 X s 1901 545 m -3 X s 1904 552 m -6 X s 1901 558 m -3 X s 1901 565 m -3 X s 1901 571 m -3 X s 1904 578 m -6 X s 1901 585 m -3
 X s 1901 591 m -3 X s 1901 598 m -3 X s 1904 604 m -6 X s 1904 393 m -6 X s 1904 604 m -6 X s 1901 611 m -3 X s 1901 618 m -3 X s
 gsave  408 306 1837 345 C 1843.23 387.449 t 0 r /Helvetica findfont 22.8295 sf 0 0 m (\2550.02) show NC gr 
 gsave  408 306 1837 345 C 1880.27 413.089 t 0 r /Helvetica findfont 22.8295 sf 0 0 m (0) show NC gr 
 gsave  408 306 1837 345 C 1848.93 438.729 t 0 r /Helvetica findfont 22.8295 sf 0 0 m (0.02) show NC gr 
 gsave  408 306 1837 345 C 1848.93 464.369 t 0 r /Helvetica findfont 22.8295 sf 0 0 m (0.04) show NC gr 
 gsave  408 306 1837 345 C 1848.93 492.858 t 0 r /Helvetica findfont 22.8295 sf 0 0 m (0.06) show NC gr 
 gsave  408 306 1837 345 C 1848.93 518.498 t 0 r /Helvetica findfont 22.8295 sf 0 0 m (0.08) show NC gr 
 gsave  408 306 1837 345 C 1866.02 544.138 t 0 r /Helvetica findfont 22.8295 sf 0 0 m (0.1) show NC gr 
 gsave  408 306 1837 345 C 1848.93 569.778 t 0 r /Helvetica findfont 22.8295 sf 0 0 m (0.12) show NC gr 
 gsave  408 306 1837 345 C 1848.93 598.267 t 0 r /Helvetica findfont 22.8295 sf 0 0 m (0.14) show NC gr  2204 391 m 229 Y s 2199 393 m 5 X s 2201 400 m 3 X s 2201 406 m 3 X s 2201 413 m 3 X s 2199 420 m 5 X s 2201 426 m 3 X s 2201 433 m 3 X s 2201
 439 m 3 X s 2199 446 m 5 X s 2201 453 m 3 X s 2201 459 m 3 X s 2201 466 m 3 X s 2199 472 m 5 X s 2201 479 m 3 X s 2201 486 m 3 X s 2201 492 m 3 X s 2199 499 m 5 X s 2201 505 m 3 X s 2201 512 m 3 X s 2201 519 m 3 X s 2199 525 m 5 X s 2201 532 m 3 X s
 2201 538 m 3 X s 2201 545 m 3 X s 2199 552 m 5 X s 2201 558 m 3 X s 2201 565 m 3 X s 2201 571 m 3 X s 2199 578 m 5 X s 2201 585 m 3 X s 2201 591 m 3 X s 2201 598 m 3 X s 2199 604 m 5 X s 2199 393 m 5 X s 2199 604 m 5 X s 2201 611 m 3 X s 2201 618 m
 3 X s 2043 422 2091 439 2140 472 2188 587 4 { m21} R 2043 434 m 1 Y s 2037 435 m 12 X s 2043 411 m -1 Y s 2037 410 m 12 X s 2091 451 m 1 Y s 2086 452 m 11 X s 2091 428 m -1 Y s 2086 427 m 11 X s 2140 484 m 1 Y s 2134 485 m 11 X s 2140 461 m -1 Y s
 2134 460 m 11 X s 2188 599 m 2 Y s 2183 601 m 11 X s 2188 576 m -2 Y s 2183 574 m 11 X s 1 0 0 c 9 lw 0.95 0.95 0.95 c black 1 0 0 c 1900 420 m 21 X 3 1 d 9 X 3 1 d 6 X 4 1 d 3 X 3 1 d 3 X 3 1 d 3 X 3 1 d 3 X 3 1 d 3 1 d 3 X 3 1 d 3 1 d 3 X 3 1 d 3
 1 d 4 1 d 3 1 d 3 X 3 1 d 3 1 d 3 1 d 3 1 d 3 1 d 3 1 d 3 1 d 3 1 d 3 1 d 3 2 d 3 1 d 3 1 d 3 1 d 3 1 d 4 2 d 3 1 d s 2050 452 m 3 1 d 3 2 d 3 1 d 3 1 d 3 2 d 3 1 d 3 2 d 3 1 d 3 2 d 3 1 d 3 2 d 3 2 d 3 1 d 3 2 d 4 2 d 3 1 d 3 2 d 3 2 d 3 2 d 3 1 d
 3 2 d 3 2 d 3 2 d 3 2 d 3 2 d 3 2 d 3 2 d 3 2 d 3 2 d 3 2 d 4 2 d 3 2 d 3 3 d 3 2 d 3 2 d 3 2 d 3 3 d 3 2 d 3 2 d 3 3 d 3 2 d 3 2 d 3 3 d 3 2 d 3 3 d 3 2 d 4 3 d 3 2 d 3 3 d s 2200 548 m 3 2 d s 0.49 0.6 0.82 c black 0.49 0.6 0.82 c
 gsave  408 306 1837 345 C 1957.19 629.605 t 0 r /Helvetica-Bold findfont 25.6831 sf 0 0 m (7.0 < E < 7.5 GeV) show NC gr  0.52 0.76 0.64 c black 0.52 0.76 0.64 c
 gsave  408 306 1837 345 C 1942.94 592.569 t 0 r /Helvetica-Bold findfont 25.6831 sf 0 0 m 
 220 206 192 185 170 163 148 141 125 118 111 97 83 69 61 47 40 25 18
(A = 0.000, p = 2.000) K NC gr  1 0.6 1 c black 1 0.6 1 c
 gsave  408 306 1837 345 C 2242.08 450.125 t 90 r /Helvetica-Bold findfont 28.5368 sf 0 0 m (/dof=10.1) show NC gr  black 1 0.6 1 c
 gsave  408 306 1837 345 C 2230.68 438.729 t 90 r /Helvetica-Bold findfont 19.9758 sf 0 0 m (2) show NC gr  black 1 0.6 1 c
 gsave  408 306 1837 345 C 2242.08 421.636 t 90 r /Symbol findfont 28.5368 sf 0 0 m (c) show NC gr  black 3 lw 1 1 1 c 408 306 23 13 bf black 1 1 1 c black 306 229 84 59 bl 306 229 84 59 bl 84 59 m 306 X s 84 63 m -4 Y s 188 63 m -4 Y s 291 63 m -4 Y
 s 291 63 m -4 Y s
 gsave  408 306 23 13 C 74.0711 39.8845 t 0 r /Helvetica findfont 22.8295 sf 0 0 m (0) show NC gr 
 gsave  408 306 23 13 C 165.236 39.8845 t 0 r /Helvetica findfont 22.8295 sf 0 0 m (500) show NC gr 
 gsave  408 306 23 13 C 264.947 39.8845 t 0 r /Helvetica findfont 22.8295 sf 0 0 m (1000) show NC gr  84 288 m 306 X s 84 284 m 4 Y s 188 284 m 4 Y s 291 284 m 4 Y s 291 284 m 4 Y s 84 59 m 229 Y s 89 71 m -5 X s 87 76 m -3 X s 87 82 m -3 X s 87 88 m
 -3 X s 89 94 m -5 X s 87 99 m -3 X s 87 105 m -3 X s 87 111 m -3 X s 89 117 m -5 X s 87 122 m -3 X s 87 128 m -3 X s 87 134 m -3 X s 89 139 m -5 X s 87 145 m -3 X s 87 151 m -3 X s 87 157 m -3 X s 89 162 m -5 X s 87 168 m -3 X s 87 174 m -3 X s 87
 179 m -3 X s 89 185 m -5 X s 87 191 m -3 X s 87 197 m -3 X s 87 202 m -3 X s 89 208 m -5 X s 87 214 m -3 X s 87 219 m -3 X s 87 225 m -3 X s 89 231 m -5 X s 87 237 m -3 X s 87 242 m -3 X s 87 248 m -3 X s 89 254 m -5 X s 87 260 m -3 X s 87 265 m -3
 X s 87 271 m -3 X s 89 277 m -5 X s 89 71 m -5 X s 87 65 m -3 X s 87 59 m -3 X s 89 277 m -5 X s 87 282 m -3 X s
 gsave  408 306 23 13 C 28.4889 62.6756 t 0 r /Helvetica findfont 22.8295 sf 0 0 m (\2550.02) show NC gr 
 gsave  408 306 23 13 C 65.5245 85.4667 t 0 r /Helvetica findfont 22.8295 sf 0 0 m (0) show NC gr 
 gsave  408 306 23 13 C 34.1867 108.258 t 0 r /Helvetica findfont 22.8295 sf 0 0 m (0.02) show NC gr 
 gsave  408 306 23 13 C 34.1867 131.049 t 0 r /Helvetica findfont 22.8295 sf 0 0 m (0.04) show NC gr 
 gsave  408 306 23 13 C 34.1867 153.84 t 0 r /Helvetica findfont 22.8295 sf 0 0 m (0.06) show NC gr 
 gsave  408 306 23 13 C 34.1867 176.631 t 0 r /Helvetica findfont 22.8295 sf 0 0 m (0.08) show NC gr 
 gsave  408 306 23 13 C 51.28 202.271 t 0 r /Helvetica findfont 22.8295 sf 0 0 m (0.1) show NC gr 
 gsave  408 306 23 13 C 34.1867 225.062 t 0 r /Helvetica findfont 22.8295 sf 0 0 m (0.12) show NC gr 
 gsave  408 306 23 13 C 34.1867 247.853 t 0 r /Helvetica findfont 22.8295 sf 0 0 m (0.14) show NC gr 
 gsave  408 306 23 13 C 34.1867 270.645 t 0 r /Helvetica findfont 22.8295 sf 0 0 m (0.16) show NC gr  390 59 m 229 Y s 385 71 m 5 X s 387 76 m 3 X s 387 82 m 3 X s 387 88 m 3 X s 385 94 m 5 X s 387 99 m 3 X s 387 105 m 3 X s 387 111 m 3 X s 385 117 m
 5 X s 387 122 m 3 X s 387 128 m 3 X s 387 134 m 3 X s 385 139 m 5 X s 387 145 m 3 X s 387 151 m 3 X s 387 157 m 3 X s 385 162 m 5 X s 387 168 m 3 X s 387 174 m 3 X s 387 179 m 3 X s 385 185 m 5 X s 387 191 m 3 X s 387 197 m 3 X s 387 202 m 3 X s 385
 208 m 5 X s 387 214 m 3 X s 387 219 m 3 X s 387 225 m 3 X s 385 231 m 5 X s 387 237 m 3 X s 387 242 m 3 X s 387 248 m 3 X s 385 254 m 5 X s 387 260 m 3 X s 387 265 m 3 X s 387 271 m 3 X s 385 277 m 5 X s 385 71 m 5 X s 387 65 m 3 X s 387 59 m 3 X s
 385 277 m 5 X s 387 282 m 3 X s /w 22 def /w2 {w 2 div} def /w3 {w 3 div} def 229 90 277 118 326 160 374 256 4 { m21} R 229 101 m s 223 101 m 12 X s 229 78 m s 223 78 m 12 X s 277 130 m s 272 130 m 11 X s 277 107 m s 272 107 m 11 X s 326 172 m s 320
 172 m 11 X s 326 149 m -1 Y s 320 148 m 11 X s 374 268 m 1 Y s 368 269 m 12 X s 374 245 m -2 Y s 368 243 m 12 X s 1 0 0 c 9 lw 0.95 0.95 0.95 c black 1 0 0 c 85 94 m 22 X 3 1 d 9 X 3 1 d 6 X 3 1 d 3 X 3 1 d 4 X 3 1 d 3 X 3 1 d 3 1 d 3 X 3 1 d 3 X 3
 1 d 3 1 d 3 1 d 3 X 3 1 d 3 1 d 3 1 d 3 1 d 4 1 d 3 1 d 3 1 d 3 1 d 3 1 d 3 1 d 3 1 d 3 1 d 3 1 d 3 1 d 3 2 d 3 1 d 3 1 d 3 1 d 3 2 d 3 1 d s 235 127 m 4 1 d 3 2 d 3 1 d 3 2 d 3 1 d 3 2 d 3 1 d 3 2 d 3 1 d 3 2 d 3 1 d 3 2 d 3 2 d 3 2 d 3 1 d 3 2 d 3
 2 d 4 2 d 3 1 d 3 2 d 3 2 d 3 2 d 3 2 d 3 2 d 3 2 d 3 2 d 3 2 d 3 2 d 3 3 d 3 2 d 3 2 d 3 2 d 3 2 d 4 3 d 3 2 d 3 2 d 3 2 d 3 3 d 3 2 d 3 3 d 3 2 d 3 3 d 3 2 d 3 3 d 3 2 d 3 3 d 3 2 d 3 3 d 3 3 d s 385 226 m 4 2 d s 0.49 0.6 0.82 c black 0.49 0.6
 0.82 c
 gsave  408 306 23 13 C 142.445 296.285 t 0 r /Helvetica-Bold findfont 25.6831 sf 0 0 m (7.5 < E < 8.0 GeV) show NC gr  0.52 0.76 0.64 c black 0.52 0.76 0.64 c
 gsave  408 306 23 13 C 128.2 259.249 t 0 r /Helvetica-Bold findfont 25.6831 sf 0 0 m 
 220 206 192 185 170 163 148 141 126 118 111 97 83 69 61 47 40 25 18
(A = 0.000, p = 2.000) K NC gr  1 0.6 1 c black 1 0.6 1 c
 gsave  408 306 23 13 C 427.334 128.2 t 90 r /Helvetica-Bold findfont 28.5368 sf 0 0 m (/dof=9.2) show NC gr  black 1 0.6 1 c
 gsave  408 306 23 13 C 415.938 116.804 t 90 r /Helvetica-Bold findfont 19.9758 sf 0 0 m (2) show NC gr  black 1 0.6 1 c
 gsave  408 306 23 13 C 427.334 99.7112 t 90 r /Symbol findfont 28.5368 sf 0 0 m (c) show NC gr  black 3 lw 1 1 1 c 408 306 476 13 bf black 1 1 1 c black 307 229 537 59 bl 307 229 537 59 bl 537 59 m 307 X s 537 63 m -4 Y s 641 63 m -4 Y s 745 63 m -4
 Y s 745 63 m -4 Y s
 gsave  408 306 476 13 C 527.045 39.8845 t 0 r /Helvetica findfont 22.8295 sf 0 0 m (0) show NC gr 
 gsave  408 306 476 13 C 621.058 39.8845 t 0 r /Helvetica findfont 22.8295 sf 0 0 m (500) show NC gr 
 gsave  408 306 476 13 C 717.92 39.8845 t 0 r /Helvetica findfont 22.8295 sf 0 0 m (1000) show NC gr  537 288 m 307 X s 537 284 m 4 Y s 641 284 m 4 Y s 745 284 m 4 Y s 745 284 m 4 Y s 537 59 m 229 Y s 543 69 m -6 X s 540 74 m -3 X s 540 79 m -3 X s
 540 85 m -3 X s 543 90 m -6 X s 540 96 m -3 X s 540 101 m -3 X s 540 106 m -3 X s 543 112 m -6 X s 540 117 m -3 X s 540 123 m -3 X s 540 128 m -3 X s 543 133 m -6 X s 540 139 m -3 X s 540 144 m -3 X s 540 150 m -3 X s 543 155 m -6 X s 540 160 m -3 X
 s 540 166 m -3 X s 540 171 m -3 X s 543 176 m -6 X s 540 182 m -3 X s 540 187 m -3 X s 540 193 m -3 X s 543 198 m -6 X s 540 203 m -3 X s 540 209 m -3 X s 540 214 m -3 X s 543 220 m -6 X s 540 225 m -3 X s 540 230 m -3 X s 540 236 m -3 X s 543 241 m
 -6 X s 540 247 m -3 X s 540 252 m -3 X s 540 257 m -3 X s 543 263 m -6 X s 540 268 m -3 X s 540 274 m -3 X s 540 279 m -3 X s 543 284 m -6 X s 543 69 m -6 X s 540 63 m -3 X s 543 284 m -6 X s
 gsave  408 306 476 13 C 481.462 62.6756 t 0 r /Helvetica findfont 22.8295 sf 0 0 m (\2550.02) show NC gr 
 gsave  408 306 476 13 C 518.498 82.6178 t 0 r /Helvetica findfont 22.8295 sf 0 0 m (0) show NC gr 
 gsave  408 306 476 13 C 487.16 105.409 t 0 r /Helvetica findfont 22.8295 sf 0 0 m (0.02) show NC gr 
 gsave  408 306 476 13 C 487.16 125.351 t 0 r /Helvetica findfont 22.8295 sf 0 0 m (0.04) show NC gr 
 gsave  408 306 476 13 C 487.16 148.142 t 0 r /Helvetica findfont 22.8295 sf 0 0 m (0.06) show NC gr 
 gsave  408 306 476 13 C 487.16 168.085 t 0 r /Helvetica findfont 22.8295 sf 0 0 m (0.08) show NC gr 
 gsave  408 306 476 13 C 504.254 190.876 t 0 r /Helvetica findfont 22.8295 sf 0 0 m (0.1) show NC gr 
 gsave  408 306 476 13 C 487.16 213.667 t 0 r /Helvetica findfont 22.8295 sf 0 0 m (0.12) show NC gr 
 gsave  408 306 476 13 C 487.16 233.609 t 0 r /Helvetica findfont 22.8295 sf 0 0 m (0.14) show NC gr 
 gsave  408 306 476 13 C 487.16 256.4 t 0 r /Helvetica findfont 22.8295 sf 0 0 m (0.16) show NC gr 
 gsave  408 306 476 13 C 487.16 276.342 t 0 r /Helvetica findfont 22.8295 sf 0 0 m (0.18) show NC gr  844 59 m 229 Y s 838 69 m 6 X s 841 74 m 3 X s 841 79 m 3 X s 841 85 m 3 X s 838 90 m 6 X s 841 96 m 3 X s 841 101 m 3 X s 841 106 m 3 X s 838 112 m
 6 X s 841 117 m 3 X s 841 123 m 3 X s 841 128 m 3 X s 838 133 m 6 X s 841 139 m 3 X s 841 144 m 3 X s 841 150 m 3 X s 838 155 m 6 X s 841 160 m 3 X s 841 166 m 3 X s 841 171 m 3 X s 838 176 m 6 X s 841 182 m 3 X s 841 187 m 3 X s 841 193 m 3 X s 838
 198 m 6 X s 841 203 m 3 X s 841 209 m 3 X s 841 214 m 3 X s 838 220 m 6 X s 841 225 m 3 X s 841 230 m 3 X s 841 236 m 3 X s 838 241 m 6 X s 841 247 m 3 X s 841 252 m 3 X s 841 257 m 3 X s 838 263 m 6 X s 841 268 m 3 X s 841 274 m 3 X s 841 279 m 3 X
 s 838 284 m 6 X s 838 69 m 6 X s 841 63 m 3 X s 838 284 m 6 X s /w 23 def /w2 {w 2 div} def /w3 {w 3 div} def 683 90 731 90 779 119 828 256 4 { m21} R 683 102 m s 677 102 m 11 X s 683 79 m s 677 79 m 11 X s 731 101 m s 725 101 m 12 X s 731 78 m s
 725 78 m 12 X s 779 130 m s 773 130 m 12 X s 779 107 m s 773 107 m 12 X s 828 267 m 2 Y s 822 269 m 11 X s 828 245 m -2 Y s 822 243 m 11 X s 1 0 0 c 9 lw 0.95 0.95 0.95 c black 1 0 0 c 539 90 m 15 X 3 1 d 13 X 3 1 d 9 X 3 1 d 3 X 3 1 d 6 X 3 1 d 3 X
 3 1 d 3 X 3 1 d 4 X 3 1 d 3 X 3 1 d 3 1 d 3 X 3 1 d 3 1 d 3 1 d 3 X 3 1 d 3 1 d 3 1 d 3 X 3 1 d 3 1 d 3 1 d 4 1 d 3 1 d 3 1 d 3 1 d 3 1 d 3 1 d 3 1 d 3 1 d s 689 117 m 3 1 d 3 1 d 3 2 d 3 1 d 3 1 d 3 1 d 3 1 d 3 2 d 4 1 d 3 1 d 3 2 d 3 1 d 3 1 d 3 2
 d 3 1 d 3 1 d 3 2 d 3 1 d 3 2 d 3 1 d 3 2 d 3 2 d 3 1 d 3 2 d 4 1 d 3 2 d 3 2 d 3 1 d 3 2 d 3 2 d 3 2 d 3 1 d 3 2 d 3 2 d 3 2 d 3 2 d 3 2 d 3 2 d 3 2 d 3 2 d 4 1 d 3 3 d 3 2 d 3 2 d 3 2 d 3 2 d 3 2 d 3 2 d 3 2 d s 839 197 m 3 2 d s 0.49 0.6 0.82 c
 black 0.49 0.6 0.82 c
 gsave  408 306 476 13 C 595.418 296.285 t 0 r /Helvetica-Bold findfont 25.6831 sf 0 0 m (8.0 < E < 8.5 GeV) show NC gr  0.52 0.76 0.64 c black 0.52 0.76 0.64 c
 gsave  408 306 476 13 C 581.174 259.249 t 0 r /Helvetica-Bold findfont 25.6831 sf 0 0 m 
 220 206 192 185 170 163 148 141 125 118 111 97 83 68 61 47 40 25 18
(A = 0.000, p = 2.000) K NC gr  1 0.6 1 c black 1 0.6 1 c
 gsave  408 306 476 13 C 883.156 119.653 t 90 r /Helvetica-Bold findfont 28.5368 sf 0 0 m (/dof=19.0) show NC gr  black 1 0.6 1 c
 gsave  408 306 476 13 C 871.76 108.258 t 90 r /Helvetica-Bold findfont 19.9758 sf 0 0 m (2) show NC gr  black 1 0.6 1 c
 gsave  408 306 476 13 C 883.156 91.1645 t 90 r /Symbol findfont 28.5368 sf 0 0 m (c) show NC gr  black 3 lw 1 1 1 c 408 306 930 13 bf black 1 1 1 c black 306 229 991 59 bl 306 229 991 59 bl 991 59 m 306 X s 991 63 m -4 Y s 1095 63 m -4 Y s 1198 63 m
 -4 Y s 1198 63 m -4 Y s
 gsave  408 306 930 13 C 980.018 39.8845 t 0 r /Helvetica findfont 22.8295 sf 0 0 m (0) show NC gr 
 gsave  408 306 930 13 C 1074.03 39.8845 t 0 r /Helvetica findfont 22.8295 sf 0 0 m (500) show NC gr 
 gsave  408 306 930 13 C 1170.89 39.8845 t 0 r /Helvetica findfont 22.8295 sf 0 0 m (1000) show NC gr  991 288 m 306 X s 991 284 m 4 Y s 1095 284 m 4 Y s 1198 284 m 4 Y s 1198 284 m 4 Y s 991 59 m 229 Y s 997 59 m -6 X s 994 65 m -3 X s 994 70 m -3 X
 s 994 75 m -3 X s 997 81 m -6 X s 994 86 m -3 X s 994 91 m -3 X s 994 97 m -3 X s 997 102 m -6 X s 994 107 m -3 X s 994 112 m -3 X s 994 118 m -3 X s 997 123 m -6 X s 994 128 m -3 X s 994 134 m -3 X s 994 139 m -3 X s 997 144 m -6 X s 994 150 m -3 X
 s 994 155 m -3 X s 994 160 m -3 X s 997 166 m -6 X s 994 171 m -3 X s 994 176 m -3 X s 994 181 m -3 X s 997 187 m -6 X s 994 192 m -3 X s 994 197 m -3 X s 994 203 m -3 X s 997 208 m -6 X s 994 213 m -3 X s 994 219 m -3 X s 994 224 m -3 X s 997 229 m
 -6 X s 994 235 m -3 X s 994 240 m -3 X s 994 245 m -3 X s 997 250 m -6 X s 994 256 m -3 X s 994 261 m -3 X s 994 266 m -3 X s 997 272 m -6 X s 997 59 m -6 X s 997 272 m -6 X s 994 277 m -3 X s 994 282 m -3 X s 994 288 m -3 X s
 gsave  408 306 930 13 C 937.285 51.28 t 0 r /Helvetica findfont 22.8295 sf 0 0 m (\2550.04) show NC gr 
 gsave  408 306 930 13 C 937.285 74.0711 t 0 r /Helvetica findfont 22.8295 sf 0 0 m (\2550.02) show NC gr 
 gsave  408 306 930 13 C 974.32 94.0134 t 0 r /Helvetica findfont 22.8295 sf 0 0 m (0) show NC gr 
 gsave  408 306 930 13 C 942.983 116.804 t 0 r /Helvetica findfont 22.8295 sf 0 0 m (0.02) show NC gr 
 gsave  408 306 930 13 C 942.983 136.747 t 0 r /Helvetica findfont 22.8295 sf 0 0 m (0.04) show NC gr 
 gsave  408 306 930 13 C 942.983 159.538 t 0 r /Helvetica findfont 22.8295 sf 0 0 m (0.06) show NC gr 
 gsave  408 306 930 13 C 942.983 179.48 t 0 r /Helvetica findfont 22.8295 sf 0 0 m (0.08) show NC gr 
 gsave  408 306 930 13 C 960.076 202.271 t 0 r /Helvetica findfont 22.8295 sf 0 0 m (0.1) show NC gr 
 gsave  408 306 930 13 C 942.983 222.213 t 0 r /Helvetica findfont 22.8295 sf 0 0 m (0.12) show NC gr 
 gsave  408 306 930 13 C 942.983 242.156 t 0 r /Helvetica findfont 22.8295 sf 0 0 m (0.14) show NC gr 
 gsave  408 306 930 13 C 942.983 264.947 t 0 r /Helvetica findfont 22.8295 sf 0 0 m (0.16) show NC gr  1297 59 m 229 Y s 1292 59 m 5 X s 1294 65 m 3 X s 1294 70 m 3 X s 1294 75 m 3 X s 1292 81 m 5 X s 1294 86 m 3 X s 1294 91 m 3 X s 1294 97 m 3 X s
 1292 102 m 5 X s 1294 107 m 3 X s 1294 112 m 3 X s 1294 118 m 3 X s 1292 123 m 5 X s 1294 128 m 3 X s 1294 134 m 3 X s 1294 139 m 3 X s 1292 144 m 5 X s 1294 150 m 3 X s 1294 155 m 3 X s 1294 160 m 3 X s 1292 166 m 5 X s 1294 171 m 3 X s 1294 176 m
 3 X s 1294 181 m 3 X s 1292 187 m 5 X s 1294 192 m 3 X s 1294 197 m 3 X s 1294 203 m 3 X s 1292 208 m 5 X s 1294 213 m 3 X s 1294 219 m 3 X s 1294 224 m 3 X s 1292 229 m 5 X s 1294 235 m 3 X s 1294 240 m 3 X s 1294 245 m 3 X s 1292 250 m 5 X s 1294
 256 m 3 X s 1294 261 m 3 X s 1294 266 m 3 X s 1292 272 m 5 X s 1292 59 m 5 X s 1292 272 m 5 X s 1294 277 m 3 X s 1294 282 m 3 X s 1294 288 m 3 X s 1136 90 1184 93 1233 122 1281 256 4 { m21} R 1136 102 m s 1130 102 m 12 X s 1136 79 m -1 Y s 1130 78 m
 12 X s 1184 104 m 1 Y s 1179 105 m 11 X s 1184 82 m -1 Y s 1179 81 m 11 X s 1233 134 m s 1227 134 m 11 X s 1233 111 m -1 Y s 1227 110 m 11 X s 1281 267 m 2 Y s 1275 269 m 12 X s 1281 244 m -2 Y s 1275 242 m 12 X s 1 0 0 c 9 lw 0.95 0.95 0.95 c black
 1 0 0 c 993 102 m 21 X 3 1 d 12 X 3 1 d 10 X 3 1 d 6 X 3 1 d 3 X 3 1 d 3 X 3 1 d 6 X 3 1 d 3 1 d 3 X 3 1 d 3 X 3 1 d 4 X 3 1 d 3 1 d 3 X 3 1 d 3 1 d 3 1 d 3 X 3 1 d 3 1 d 3 1 d 3 1 d 3 X 3 1 d 3 1 d 3 1 d 4 1 d s 1143 125 m 3 1 d 3 1 d 3 1 d 3 1 d 3
 1 d 3 1 d 3 1 d 3 1 d 3 1 d 3 1 d 3 1 d 3 2 d 3 1 d 3 1 d 3 1 d 4 1 d 3 2 d 3 1 d 3 1 d 3 1 d 3 2 d 3 1 d 3 1 d 3 2 d 3 1 d 3 2 d 3 1 d 3 1 d 3 2 d 3 1 d 3 2 d 3 1 d 4 2 d 3 2 d 3 1 d 3 2 d 3 1 d 3 2 d 3 2 d 3 1 d 3 2 d 3 2 d 3 1 d 3 2 d 3 2 d 3 2 d
 3 2 d 3 1 d 4 2 d s 1293 193 m 3 2 d s 0.49 0.6 0.82 c black 0.49 0.6 0.82 c
 gsave  408 306 930 13 C 1051.24 296.285 t 0 r /Helvetica-Bold findfont 25.6831 sf 0 0 m (8.5 < E < 9.0 GeV) show NC gr  0.52 0.76 0.64 c black 0.52 0.76 0.64 c
 gsave  408 306 930 13 C 1037 259.249 t 0 r /Helvetica-Bold findfont 25.6831 sf 0 0 m 
 220 206 192 185 170 163 148 141 125 118 111 97 83 69 61 47 40 25 18
(A = 0.000, p = 2.000) K NC gr  1 0.6 1 c black 1 0.6 1 c
 gsave  408 306 930 13 C 1336.13 119.653 t 90 r /Helvetica-Bold findfont 28.5368 sf 0 0 m (/dof=19.6) show NC gr  black 1 0.6 1 c
 gsave  408 306 930 13 C 1324.73 108.258 t 90 r /Helvetica-Bold findfont 19.9758 sf 0 0 m (2) show NC gr  black 1 0.6 1 c
 gsave  408 306 930 13 C 1336.13 91.1645 t 90 r /Symbol findfont 28.5368 sf 0 0 m (c) show NC gr  black 3 lw 1 1 1 c 408 306 1383 13 bf black 1 1 1 c black 306 229 1445 59 bl 306 229 1445 59 bl 1445 59 m 306 X s 1445 63 m -4 Y s 1548 63 m -4 Y s 1652
 63 m -4 Y s 1652 63 m -4 Y s
 gsave  408 306 1383 13 C 1435.84 39.8845 t 0 r /Helvetica findfont 22.8295 sf 0 0 m (0) show NC gr 
 gsave  408 306 1383 13 C 1527.01 39.8845 t 0 r /Helvetica findfont 22.8295 sf 0 0 m (500) show NC gr 
 gsave  408 306 1383 13 C 1623.87 39.8845 t 0 r /Helvetica findfont 22.8295 sf 0 0 m (1000) show NC gr  1445 288 m 306 X s 1445 284 m 4 Y s 1548 284 m 4 Y s 1652 284 m 4 Y s 1652 284 m 4 Y s 1445 59 m 229 Y s 1450 61 m -5 X s 1447 66 m -2 X s 1447 72
 m -2 X s 1447 78 m -2 X s 1450 83 m -5 X s 1447 89 m -2 X s 1447 94 m -2 X s 1447 100 m -2 X s 1450 106 m -5 X s 1447 111 m -2 X s 1447 117 m -2 X s 1447 122 m -2 X s 1450 128 m -5 X s 1447 134 m -2 X s 1447 139 m -2 X s 1447 145 m -2 X s 1450 151 m
 -5 X s 1447 156 m -2 X s 1447 162 m -2 X s 1447 167 m -2 X s 1450 173 m -5 X s 1447 179 m -2 X s 1447 184 m -2 X s 1447 190 m -2 X s 1450 195 m -5 X s 1447 201 m -2 X s 1447 207 m -2 X s 1447 212 m -2 X s 1450 218 m -5 X s 1447 223 m -2 X s 1447 229
 m -2 X s 1447 235 m -2 X s 1450 240 m -5 X s 1447 246 m -2 X s 1447 251 m -2 X s 1447 257 m -2 X s 1450 263 m -5 X s 1447 268 m -2 X s 1447 274 m -2 X s 1447 279 m -2 X s 1450 285 m -5 X s 1450 61 m -5 X s 1450 285 m -5 X s
 gsave  408 306 1383 13 C 1390.26 54.1289 t 0 r /Helvetica findfont 22.8295 sf 0 0 m (\2550.02) show NC gr 
 gsave  408 306 1383 13 C 1427.29 76.92 t 0 r /Helvetica findfont 22.8295 sf 0 0 m (0) show NC gr 
 gsave  408 306 1383 13 C 1395.96 99.7112 t 0 r /Helvetica findfont 22.8295 sf 0 0 m (0.02) show NC gr 
 gsave  408 306 1383 13 C 1395.96 119.653 t 0 r /Helvetica findfont 22.8295 sf 0 0 m (0.04) show NC gr 
 gsave  408 306 1383 13 C 1395.96 142.445 t 0 r /Helvetica findfont 22.8295 sf 0 0 m (0.06) show NC gr 
 gsave  408 306 1383 13 C 1395.96 165.236 t 0 r /Helvetica findfont 22.8295 sf 0 0 m (0.08) show NC gr 
 gsave  408 306 1383 13 C 1413.05 188.027 t 0 r /Helvetica findfont 22.8295 sf 0 0 m (0.1) show NC gr 
 gsave  408 306 1383 13 C 1395.96 210.818 t 0 r /Helvetica findfont 22.8295 sf 0 0 m (0.12) show NC gr 
 gsave  408 306 1383 13 C 1395.96 233.609 t 0 r /Helvetica findfont 22.8295 sf 0 0 m (0.14) show NC gr 
 gsave  408 306 1383 13 C 1395.96 256.4 t 0 r /Helvetica findfont 22.8295 sf 0 0 m (0.16) show NC gr 
 gsave  408 306 1383 13 C 1395.96 279.191 t 0 r /Helvetica findfont 22.8295 sf 0 0 m (0.18) show NC gr  1751 59 m 229 Y s 1745 61 m 6 X s 1748 66 m 3 X s 1748 72 m 3 X s 1748 78 m 3 X s 1745 83 m 6 X s 1748 89 m 3 X s 1748 94 m 3 X s 1748 100 m 3 X s
 1745 106 m 6 X s 1748 111 m 3 X s 1748 117 m 3 X s 1748 122 m 3 X s 1745 128 m 6 X s 1748 134 m 3 X s 1748 139 m 3 X s 1748 145 m 3 X s 1745 151 m 6 X s 1748 156 m 3 X s 1748 162 m 3 X s 1748 167 m 3 X s 1745 173 m 6 X s 1748 179 m 3 X s 1748 184 m
 3 X s 1748 190 m 3 X s 1745 195 m 6 X s 1748 201 m 3 X s 1748 207 m 3 X s 1748 212 m 3 X s 1745 218 m 6 X s 1748 223 m 3 X s 1748 229 m 3 X s 1748 235 m 3 X s 1745 240 m 6 X s 1748 246 m 3 X s 1748 251 m 3 X s 1748 257 m 3 X s 1745 263 m 6 X s 1748
 268 m 3 X s 1748 274 m 3 X s 1748 279 m 3 X s 1745 285 m 6 X s 1745 61 m 6 X s 1745 285 m 6 X s 1590 92 1638 126 1686 159 1735 254 4 { m21} R 1590 103 m 2 Y s 1584 105 m 11 X s 1590 80 m -2 Y s 1584 78 m 11 X s 1638 138 m 2 Y s 1632 140 m 12 X s
 1638 115 m -2 Y s 1632 113 m 12 X s 1686 170 m 3 Y s 1681 173 m 11 X s 1686 148 m -3 Y s 1681 145 m 11 X s 1735 265 m 4 Y s 1729 269 m 11 X s 1735 242 m -3 Y s 1729 239 m 11 X s 1 0 0 c 9 lw 0.95 0.95 0.95 c black 1 0 0 c 1446 83 m 9 X 3 1 d 13 X 3
 1 d 6 X 3 1 d 6 X 3 1 d 3 X 3 1 d 3 1 d 3 X 3 1 d 3 X 3 1 d 3 1 d 4 X 3 1 d 3 1 d 3 1 d 3 1 d 3 1 d 3 1 d 3 X 3 1 d 3 1 d 3 1 d 3 2 d 3 1 d 3 1 d 3 1 d 3 1 d 4 1 d 3 2 d 3 1 d 3 1 d 3 2 d 3 1 d 3 1 d 3 2 d 3 1 d 3 2 d s 1596 121 m 3 1 d 3 2 d 3 1 d
 3 2 d 3 2 d 3 1 d 4 2 d 3 2 d 3 2 d 3 1 d 3 2 d 3 2 d 3 2 d 3 2 d 3 2 d 3 2 d 3 2 d 3 2 d 3 2 d 3 2 d 3 2 d 3 3 d 3 2 d 4 2 d 3 2 d 3 3 d 3 2 d 3 2 d 3 3 d 3 2 d 3 2 d 3 3 d 3 2 d 3 3 d 3 3 d 3 2 d 3 3 d 3 2 d 3 3 d 4 3 d 3 3 d 3 2 d 3 3 d 3 3 d 3 3
 d 3 3 d 3 3 d 3 3 d 3 3 d s 1746 232 m 3 3 d s 0.49 0.6 0.82 c black 0.49 0.6 0.82 c
 gsave  408 306 1383 13 C 1504.21 296.285 t 0 r /Helvetica-Bold findfont 25.6831 sf 0 0 m (9.0 < E < 9.5 GeV) show NC gr  0.52 0.76 0.64 c black 0.52 0.76 0.64 c
 gsave  408 306 1383 13 C 1489.97 259.249 t 0 r /Helvetica-Bold findfont 25.6831 sf 0 0 m 
 220 206 192 185 170 163 148 141 126 118 111 97 83 69 61 47 40 25 18
(A = 0.000, p = 2.000) K NC gr  1 0.6 1 c black 1 0.6 1 c
 gsave  408 306 1383 13 C 1789.1 128.2 t 90 r /Helvetica-Bold findfont 28.5368 sf 0 0 m (/dof=3.9) show NC gr  black 1 0.6 1 c
 gsave  408 306 1383 13 C 1777.71 116.804 t 90 r /Helvetica-Bold findfont 19.9758 sf 0 0 m (2) show NC gr  black 1 0.6 1 c
 gsave  408 306 1383 13 C 1789.1 99.7112 t 90 r /Symbol findfont 28.5368 sf 0 0 m (c) show NC gr  black 3 lw 1 1 1 c 408 306 1837 13 bf black 1 1 1 c black 306 229 1898 59 bl 306 229 1898 59 bl 1898 59 m 306 X s 1898 63 m -4 Y s 2002 63 m -4 Y s 2105
 63 m -4 Y s 2105 63 m -4 Y s
 gsave  408 306 1837 13 C 1888.81 39.8845 t 0 r /Helvetica findfont 22.8295 sf 0 0 m (0) show NC gr 
 gsave  408 306 1837 13 C 1979.98 39.8845 t 0 r /Helvetica findfont 22.8295 sf 0 0 m (500) show NC gr 
 gsave  408 306 1837 13 C 2079.69 39.8845 t 0 r /Helvetica findfont 22.8295 sf 0 0 m (1000) show NC gr  1898 288 m 306 X s 1898 284 m 4 Y s 2002 284 m 4 Y s 2105 284 m 4 Y s 2105 284 m 4 Y s 1898 59 m 229 Y s 1904 59 m -6 X s 1901 66 m -3 X s 1901 73
 m -3 X s 1901 79 m -3 X s 1904 86 m -6 X s 1901 93 m -3 X s 1901 100 m -3 X s 1901 106 m -3 X s 1904 113 m -6 X s 1901 120 m -3 X s 1901 127 m -3 X s 1901 134 m -3 X s 1904 140 m -6 X s 1901 147 m -3 X s 1901 154 m -3 X s 1901 161 m -3 X s 1904 167
 m -6 X s 1901 174 m -3 X s 1901 181 m -3 X s 1901 188 m -3 X s 1904 194 m -6 X s 1901 201 m -3 X s 1901 208 m -3 X s 1901 215 m -3 X s 1904 222 m -6 X s 1901 228 m -3 X s 1901 235 m -3 X s 1901 242 m -3 X s 1904 249 m -6 X s 1901 255 m -3 X s 1901
 262 m -3 X s 1901 269 m -3 X s 1904 276 m -6 X s 1904 276 m -6 X s 1901 282 m -3 X s
 gsave  408 306 1837 13 C 1880.27 51.28 t 0 r /Helvetica findfont 22.8295 sf 0 0 m (0) show NC gr 
 gsave  408 306 1837 13 C 1848.93 79.7689 t 0 r /Helvetica findfont 22.8295 sf 0 0 m (0.02) show NC gr 
 gsave  408 306 1837 13 C 1848.93 105.409 t 0 r /Helvetica findfont 22.8295 sf 0 0 m (0.04) show NC gr 
 gsave  408 306 1837 13 C 1848.93 133.898 t 0 r /Helvetica findfont 22.8295 sf 0 0 m (0.06) show NC gr 
 gsave  408 306 1837 13 C 1848.93 159.538 t 0 r /Helvetica findfont 22.8295 sf 0 0 m (0.08) show NC gr 
 gsave  408 306 1837 13 C 1866.02 188.027 t 0 r /Helvetica findfont 22.8295 sf 0 0 m (0.1) show NC gr 
 gsave  408 306 1837 13 C 1848.93 213.667 t 0 r /Helvetica findfont 22.8295 sf 0 0 m (0.12) show NC gr 
 gsave  408 306 1837 13 C 1848.93 242.156 t 0 r /Helvetica findfont 22.8295 sf 0 0 m (0.14) show NC gr 
 gsave  408 306 1837 13 C 1848.93 267.796 t 0 r /Helvetica findfont 22.8295 sf 0 0 m (0.16) show NC gr  2204 59 m 229 Y s 2199 59 m 5 X s 2201 66 m 3 X s 2201 73 m 3 X s 2201 79 m 3 X s 2199 86 m 5 X s 2201 93 m 3 X s 2201 100 m 3 X s 2201 106 m 3 X
 s 2199 113 m 5 X s 2201 120 m 3 X s 2201 127 m 3 X s 2201 134 m 3 X s 2199 140 m 5 X s 2201 147 m 3 X s 2201 154 m 3 X s 2201 161 m 3 X s 2199 167 m 5 X s 2201 174 m 3 X s 2201 181 m 3 X s 2201 188 m 3 X s 2199 194 m 5 X s 2201 201 m 3 X s 2201 208
 m 3 X s 2201 215 m 3 X s 2199 222 m 5 X s 2201 228 m 3 X s 2201 235 m 3 X s 2201 242 m 3 X s 2199 249 m 5 X s 2201 255 m 3 X s 2201 262 m 3 X s 2201 269 m 3 X s 2199 276 m 5 X s 2199 276 m 5 X s 2201 282 m 3 X s 2043 82 2091 78 2140 109 2188 248 4 {
 m21} R 2043 94 m 6 Y s 2037 100 m 12 X s 2043 71 m -6 Y s 2037 65 m 12 X s 2091 90 m 5 Y s 2086 95 m 11 X s 2091 67 m -6 Y s 2086 61 m 11 X s 2140 120 m 7 Y s 2134 127 m 11 X s 2140 98 m -7 Y s 2134 91 m 11 X s 2188 260 m 7 Y s 2183 267 m 11 X s
 2188 237 m -8 Y s 2183 229 m 11 X s 1 0 0 c 9 lw 0.95 0.95 0.95 c black 1 0 0 c 1900 59 m 12 X 3 1 d 12 X 3 1 d 6 X 3 1 d 3 X 4 1 d 3 X 3 1 d 3 X 3 1 d 3 X 3 1 d 3 X 3 1 d 3 1 d 3 1 d 3 X 3 1 d 3 1 d 3 1 d 3 1 d 4 1 d 3 X 3 1 d 3 1 d 3 1 d 3 2 d 3 1
 d 3 1 d 3 1 d 3 1 d 3 1 d 3 1 d 3 2 d 3 1 d 3 1 d 3 2 d 3 1 d 4 1 d 3 2 d s 2050 95 m 3 1 d 3 2 d 3 1 d 3 2 d 3 1 d 3 2 d 3 2 d 3 1 d 3 2 d 3 2 d 3 2 d 3 1 d 3 2 d 3 2 d 4 2 d 3 2 d 3 2 d 3 2 d 3 2 d 3 2 d 3 2 d 3 2 d 3 2 d 3 2 d 3 2 d 3 2 d 3 3 d 3
 2 d 3 2 d 3 2 d 4 3 d 3 2 d 3 2 d 3 3 d 3 2 d 3 3 d 3 2 d 3 3 d 3 2 d 3 3 d 3 3 d 3 2 d 3 3 d 3 3 d 3 2 d 3 3 d 4 3 d 3 3 d 3 3 d s 2200 201 m 3 3 d s 0.49 0.6 0.82 c black 0.49 0.6 0.82 c
 gsave  408 306 1837 13 C 1948.64 296.285 t 0 r /Helvetica-Bold findfont 25.6831 sf 0 0 m (9.5 < E < 10.0 GeV) show NC gr  0.52 0.76 0.64 c black 0.52 0.76 0.64 c
 gsave  408 306 1837 13 C 1942.94 259.249 t 0 r /Helvetica-Bold findfont 25.6831 sf 0 0 m 
 220 206 192 185 170 163 148 141 125 118 111 97 83 69 61 47 40 25 18
(A = 0.000, p = 2.000) K NC gr  1 0.6 1 c black 1 0.6 1 c
 gsave  408 306 1837 13 C 2242.08 128.2 t 90 r /Helvetica-Bold findfont 28.5368 sf 0 0 m (/dof=6.7) show NC gr  black 1 0.6 1 c
 gsave  408 306 1837 13 C 2230.68 116.804 t 90 r /Helvetica-Bold findfont 19.9758 sf 0 0 m (2) show NC gr  black 1 0.6 1 c
 gsave  408 306 1837 13 C 2242.08 99.7112 t 90 r /Symbol findfont 28.5368 sf 0 0 m (c) show NC gr 
 gr  gr showpage
end
%%EOF
