%!PS-Adobe-2.0 EPSF-2.0
%%BoundingBox:  0 0 567 332
%%Title: Tilt_t_p90d_nof_fits.eps: Fits
%%Creator: ROOT Version 5.30/06
%%CreationDate: Sun Feb  2 09:31:57 2014
%%EndComments
%%BeginProlog
80 dict begin
/s {stroke} def /l {lineto} def /m {moveto} def /t {translate} def
/r {rotate} def /rl {roll}  def /R {repeat} def
/d {rlineto} def /rm {rmoveto} def /gr {grestore} def /f {eofill} def
/c {setrgbcolor} def /black {0 setgray} def /sd {setdash} def
/cl {closepath} def /sf {scalefont setfont} def /lw {setlinewidth} def
/box {m dup 0 exch d exch 0 d 0 exch neg d cl} def
/NC{systemdict begin initclip end}def/C{NC box clip newpath}def
/bl {box s} def /bf {box f} def /Y { 0 exch d} def /X { 0 d} def 
/K {{pop pop 0 moveto} exch kshow} bind def
/ita {/ang 15 def gsave [1 0 ang dup sin exch cos div 1 0 0] concat} def 
/mp {newpath /y exch def /x exch def} def
/side {[w .77 mul w .23 mul] .385 w mul sd w 0 l currentpoint t -144 r} def
/mr {mp x y w2 0 360 arc} def /m24 {mr s} def /m20 {mr f} def
/mb {mp x y w2 add m w2 neg 0 d 0 w neg d w 0 d 0 w d cl} def
/mt {mp x y w2 add m w2 neg w neg d w 0 d cl} def
/m21 {mb f} def /m25 {mb s} def /m22 {mt f} def /m26{mt s} def
/m23 {mp x y w2 sub m w2 w d w neg 0 d cl f} def
/m27 {mp x y w2 add m w3 neg w2 neg d w3 w2 neg d w3 w2 d cl s} def
/m28 {mp x w2 sub y w2 sub w3 add m w3 0 d  0 w3 neg d w3 0 d 0 w3 d w3 0 d  0 w3 d w3 neg 0 d 0 w3 d w3 neg 0 d 0 w3 neg d w3 neg 0 d cl s } def
/m29 {mp gsave x w2 sub y w2 add w3 sub m currentpoint t 4 {side} repeat cl fill gr} def
/m30 {mp gsave x w2 sub y w2 add w3 sub m currentpoint t 4 {side} repeat cl s gr} def
/m31 {mp x y w2 sub m 0 w d x w2 sub y m w 0 d x w2 sub y w2 add m w w neg d x w2 sub y w2 sub m w w d s} def
/m32 {mp x y w2 sub m w2 w d w neg 0 d cl s} def
/m33 {mp x y w2 add m w3 neg w2 neg d w3 w2 neg d w3 w2 d cl f} def
/m34 {mp x w2 sub y w2 sub w3 add m w3 0 d  0 w3 neg d w3 0 d 0 w3 d w3 0 d  0 w3 d w3 neg 0 d 0 w3 d w3 neg 0 d 0 w3 neg d w3 neg 0 d cl f } def
/m2 {mp x y w2 sub m 0 w d x w2 sub y m w 0 d s} def
/m5 {mp x w2 sub y w2 sub m w w d x w2 sub y w2 add m w w neg d s} def
/reEncode {exch findfont dup length dict begin {1 index /FID eq  {pop pop} {def} ifelse } forall /Encoding exch def currentdict end dup /FontName get exch definefont pop } def [/Times-Bold /Times-Italic /Times-BoldItalic /Helvetica /Helvetica-Oblique
 /Helvetica-Bold /Helvetica-BoldOblique /Courier /Courier-Oblique /Courier-Bold /Courier-BoldOblique /Times-Roman /AvantGarde-Book /AvantGarde-BookOblique /AvantGarde-Demi /AvantGarde-DemiOblique /Bookman-Demi /Bookman-DemiItalic /Bookman-Light
 /Bookman-LightItalic /Helvetica-Narrow /Helvetica-Narrow-Bold /Helvetica-Narrow-BoldOblique /Helvetica-Narrow-Oblique /NewCenturySchlbk-Roman /NewCenturySchlbk-Bold /NewCenturySchlbk-BoldItalic /NewCenturySchlbk-Italic /Palatino-Bold
 /Palatino-BoldItalic /Palatino-Italic /Palatino-Roman ] {ISOLatin1Encoding reEncode } forall%%EndProlog
%%BeginSetup
%%EndSetup
newpath  gsave  .25 .25 scale  gsave  0 0 t black[  ] 0 sd 3 lw 1 1 1 c 2268 1328 0 0 bf black 1 1 1 c 408 305 23 1009 bf black 1 1 1 c black 306 229 84 1055 bl 306 229 84 1055 bl 84 1055 m 306 X s 84 1059 m -4 Y s 188 1059 m -4 Y s 291 1059 m -4 Y s
 291 1059 m -4 Y s
 gsave  408 305 23 1009 C 74.0711 1034.15 t 0 r /Helvetica findfont 22.8295 sf 0 0 m (0) show NC gr 
 gsave  408 305 23 1009 C 165.236 1034.15 t 0 r /Helvetica findfont 22.8295 sf 0 0 m (500) show NC gr 
 gsave  408 305 23 1009 C 264.947 1034.15 t 0 r /Helvetica findfont 22.8295 sf 0 0 m (1000) show NC gr  84 1284 m 306 X s 84 1280 m 4 Y s 188 1280 m 4 Y s 291 1280 m 4 Y s 291 1280 m 4 Y s 84 1055 m 229 Y s 89 1060 m -5 X s 87 1066 m -3 X s 87 1071 m
 -3 X s 87 1076 m -3 X s 87 1081 m -3 X s 89 1087 m -5 X s 87 1092 m -3 X s 87 1097 m -3 X s 87 1102 m -3 X s 87 1108 m -3 X s 89 1113 m -5 X s 87 1118 m -3 X s 87 1123 m -3 X s 87 1129 m -3 X s 87 1134 m -3 X s 89 1139 m -5 X s 87 1145 m -3 X s 87
 1150 m -3 X s 87 1155 m -3 X s 87 1160 m -3 X s 89 1166 m -5 X s 87 1171 m -3 X s 87 1176 m -3 X s 87 1181 m -3 X s 87 1187 m -3 X s 89 1192 m -5 X s 87 1197 m -3 X s 87 1202 m -3 X s 87 1208 m -3 X s 87 1213 m -3 X s 89 1218 m -5 X s 87 1224 m -3 X
 s 87 1229 m -3 X s 87 1234 m -3 X s 87 1239 m -3 X s 89 1245 m -5 X s 87 1250 m -3 X s 87 1255 m -3 X s 87 1260 m -3 X s 87 1266 m -3 X s 89 1271 m -5 X s 89 1060 m -5 X s 87 1055 m -3 X s 89 1271 m -5 X s 87 1276 m -3 X s 87 1281 m -3 X s
 gsave  408 305 23 1009 C 14.2445 1054.09 t 0 r /Helvetica findfont 22.8295 sf 0 0 m (\2550.007) show NC gr 
 gsave  408 305 23 1009 C 14.2445 1079.73 t 0 r /Helvetica findfont 22.8295 sf 0 0 m (\2550.006) show NC gr 
 gsave  408 305 23 1009 C 14.2445 1105.37 t 0 r /Helvetica findfont 22.8295 sf 0 0 m (\2550.005) show NC gr 
 gsave  408 305 23 1009 C 14.2445 1131.01 t 0 r /Helvetica findfont 22.8295 sf 0 0 m (\2550.004) show NC gr 
 gsave  408 305 23 1009 C 14.2445 1159.5 t 0 r /Helvetica findfont 22.8295 sf 0 0 m (\2550.003) show NC gr 
 gsave  408 305 23 1009 C 14.2445 1185.14 t 0 r /Helvetica findfont 22.8295 sf 0 0 m (\2550.002) show NC gr 
 gsave  408 305 23 1009 C 17.0933 1210.78 t 0 r /Helvetica findfont 22.8295 sf 0 0 m (\2550.001) show NC gr 
 gsave  408 305 23 1009 C 65.5245 1236.42 t 0 r /Helvetica findfont 22.8295 sf 0 0 m (0) show NC gr 
 gsave  408 305 23 1009 C 25.64 1264.91 t 0 r /Helvetica findfont 22.8295 sf 0 0 m (0.001) show NC gr  390 1055 m 229 Y s 385 1060 m 5 X s 387 1066 m 3 X s 387 1071 m 3 X s 387 1076 m 3 X s 387 1081 m 3 X s 385 1087 m 5 X s 387 1092 m 3 X s 387 1097
 m 3 X s 387 1102 m 3 X s 387 1108 m 3 X s 385 1113 m 5 X s 387 1118 m 3 X s 387 1123 m 3 X s 387 1129 m 3 X s 387 1134 m 3 X s 385 1139 m 5 X s 387 1145 m 3 X s 387 1150 m 3 X s 387 1155 m 3 X s 387 1160 m 3 X s 385 1166 m 5 X s 387 1171 m 3 X s 387
 1176 m 3 X s 387 1181 m 3 X s 387 1187 m 3 X s 385 1192 m 5 X s 387 1197 m 3 X s 387 1202 m 3 X s 387 1208 m 3 X s 387 1213 m 3 X s 385 1218 m 5 X s 387 1224 m 3 X s 387 1229 m 3 X s 387 1234 m 3 X s 387 1239 m 3 X s 385 1245 m 5 X s 387 1250 m 3 X
 s 387 1255 m 3 X s 387 1260 m 3 X s 387 1266 m 3 X s 385 1271 m 5 X s 385 1060 m 5 X s 387 1055 m 3 X s 385 1271 m 5 X s 387 1276 m 3 X s 387 1281 m 3 X s /w 22 def /w2 {w 2 div} def /w3 {w 3 div} def 229 1232 277 1225 326 1186 374 1106 4 { m21} R
 229 1243 m 22 Y s 223 1265 m 12 X s 229 1221 m -22 Y s 223 1199 m 12 X s 277 1236 m 21 Y s 272 1257 m 11 X s 277 1213 m -21 Y s 272 1192 m 11 X s 326 1198 m 21 Y s 320 1219 m 11 X s 326 1175 m -21 Y s 320 1154 m 11 X s 374 1118 m 21 Y s 368 1139 m
 12 X s 374 1095 m -21 Y s 368 1074 m 12 X s 1 0 0 c 9 lw 0.95 0.95 0.95 c black 1 0 0 c 85 1245 m 7 X 3 -1 d 18 X 3 -1 d 6 X 3 -1 d 6 X 3 -1 d 3 X 4 -1 d 3 X 3 -1 d 3 X 3 -1 d 3 X 3 -1 d 3 X 3 -1 d 3 -1 d 3 X 3 -1 d 3 -1 d 3 X 3 -1 d 3 -1 d 4 -1 d 3
 -1 d 3 -1 d 3 -1 d 3 X 3 -1 d 3 -1 d 3 -1 d 3 -1 d 3 -1 d 3 -2 d 3 -1 d 3 -1 d 3 -1 d 3 -1 d 3 -1 d s 235 1215 m 4 -2 d 3 -1 d 3 -1 d 3 -1 d 3 -2 d 3 -1 d 3 -1 d 3 -2 d 3 -1 d 3 -2 d 3 -1 d 3 -2 d 3 -1 d 3 -2 d 3 -1 d 3 -2 d 3 -1 d 4 -2 d 3 -2 d 3
 -1 d 3 -2 d 3 -2 d 3 -2 d 3 -1 d 3 -2 d 3 -2 d 3 -2 d 3 -2 d 3 -2 d 3 -2 d 3 -1 d 3 -2 d 3 -2 d 4 -2 d 3 -3 d 3 -2 d 3 -2 d 3 -2 d 3 -2 d 3 -2 d 3 -2 d 3 -3 d 3 -2 d 3 -2 d 3 -2 d 3 -3 d 3 -2 d 3 -2 d 3 -3 d s 385 1126 m 4 -2 d s 0.49 0.6 0.82 c
 black 0.49 0.6 0.82 c
 gsave  408 305 23 1009 C 142.445 1293.4 t 0 r /Helvetica-Bold findfont 25.6831 sf 0 0 m (0.0 < E < 0.5 GeV) show NC gr  0.52 0.76 0.64 c black 0.52 0.76 0.64 c
 gsave  408 305 23 1009 C 122.502 1256.36 t 0 r /Helvetica-Bold findfont 25.6831 sf 0 0 m 
 228 214 200 193 178 171 156 149 134 126 119 105 91 77 69 55 47 39 25 17
(A = \2550.000, p = 2.000) K NC gr  1 0.6 1 c black 1 0.6 1 c
 gsave  408 305 23 1009 C 427.334 1122.46 t 90 r /Helvetica-Bold findfont 28.5368 sf 0 0 m (/dof=0.7) show NC gr  black 1 0.6 1 c
 gsave  408 305 23 1009 C 415.938 1111.07 t 90 r /Helvetica-Bold findfont 19.9758 sf 0 0 m (2) show NC gr  black 1 0.6 1 c
 gsave  408 305 23 1009 C 427.334 1093.97 t 90 r /Symbol findfont 28.5368 sf 0 0 m (c) show NC gr  black 3 lw 1 1 1 c 408 305 476 1009 bf black 1 1 1 c black 307 229 537 1055 bl 307 229 537 1055 bl 537 1055 m 307 X s 537 1059 m -4 Y s 641 1059 m -4 Y
 s 745 1059 m -4 Y s 745 1059 m -4 Y s
 gsave  408 305 476 1009 C 527.045 1034.15 t 0 r /Helvetica findfont 22.8295 sf 0 0 m (0) show NC gr 
 gsave  408 305 476 1009 C 621.058 1034.15 t 0 r /Helvetica findfont 22.8295 sf 0 0 m (500) show NC gr 
 gsave  408 305 476 1009 C 717.92 1034.15 t 0 r /Helvetica findfont 22.8295 sf 0 0 m (1000) show NC gr  537 1284 m 307 X s 537 1280 m 4 Y s 641 1280 m 4 Y s 745 1280 m 4 Y s 745 1280 m 4 Y s 537 1055 m 229 Y s 543 1071 m -6 X s 540 1079 m -3 X s 540
 1087 m -3 X s 540 1095 m -3 X s 540 1103 m -3 X s 543 1112 m -6 X s 540 1120 m -3 X s 540 1128 m -3 X s 540 1136 m -3 X s 540 1144 m -3 X s 543 1152 m -6 X s 540 1161 m -3 X s 540 1169 m -3 X s 540 1177 m -3 X s 540 1185 m -3 X s 543 1193 m -6 X s
 540 1201 m -3 X s 540 1210 m -3 X s 540 1218 m -3 X s 540 1226 m -3 X s 543 1234 m -6 X s 540 1242 m -3 X s 540 1250 m -3 X s 540 1259 m -3 X s 540 1267 m -3 X s 543 1275 m -6 X s 543 1071 m -6 X s 540 1063 m -3 X s 543 1275 m -6 X s 540 1283 m -3 X
 s
 gsave  408 305 476 1009 C 467.218 1062.64 t 0 r /Helvetica findfont 22.8295 sf 0 0 m (\2550.003) show NC gr 
 gsave  408 305 476 1009 C 467.218 1105.37 t 0 r /Helvetica findfont 22.8295 sf 0 0 m (\2550.002) show NC gr 
 gsave  408 305 476 1009 C 470.067 1145.25 t 0 r /Helvetica findfont 22.8295 sf 0 0 m (\2550.001) show NC gr 
 gsave  408 305 476 1009 C 518.498 1185.14 t 0 r /Helvetica findfont 22.8295 sf 0 0 m (0) show NC gr 
 gsave  408 305 476 1009 C 478.614 1227.87 t 0 r /Helvetica findfont 22.8295 sf 0 0 m (0.001) show NC gr 
 gsave  408 305 476 1009 C 475.765 1267.76 t 0 r /Helvetica findfont 22.8295 sf 0 0 m (0.002) show NC gr  844 1055 m 229 Y s 838 1071 m 6 X s 841 1079 m 3 X s 841 1087 m 3 X s 841 1095 m 3 X s 841 1103 m 3 X s 838 1112 m 6 X s 841 1120 m 3 X s 841
 1128 m 3 X s 841 1136 m 3 X s 841 1144 m 3 X s 838 1152 m 6 X s 841 1161 m 3 X s 841 1169 m 3 X s 841 1177 m 3 X s 841 1185 m 3 X s 838 1193 m 6 X s 841 1201 m 3 X s 841 1210 m 3 X s 841 1218 m 3 X s 841 1226 m 3 X s 838 1234 m 6 X s 841 1242 m 3 X
 s 841 1250 m 3 X s 841 1259 m 3 X s 841 1267 m 3 X s 838 1275 m 6 X s 838 1071 m 6 X s 841 1063 m 3 X s 838 1275 m 6 X s 841 1283 m 3 X s /w 23 def /w2 {w 2 div} def /w3 {w 3 div} def 683 1192 731 1188 779 1203 828 1136 4 { m21} R 683 1204 m 49 Y s
 677 1253 m 11 X s 683 1181 m -50 Y s 677 1131 m 11 X s 731 1200 m 50 Y s 725 1250 m 12 X s 731 1177 m -50 Y s 725 1127 m 12 X s 779 1215 m 50 Y s 773 1265 m 12 X s 779 1192 m -50 Y s 773 1142 m 12 X s 828 1147 m 51 Y s 822 1198 m 11 X s 828 1124 m
 -50 Y s 822 1074 m 11 X s 1 0 0 c 9 lw 0.95 0.95 0.95 c black 1 0 0 c 539 1193 m 43 X 3 -1 d 21 X 3 -1 d 16 X 3 -1 d 12 X 3 -1 d 9 X 3 -1 d 6 X 3 -1 d 10 X 3 -1 d 6 X 3 -1 d 3 X s 689 1185 m 3 X 3 -1 d 6 X 3 -1 d 6 X 3 -1 d 4 X 3 -1 d 6 X 3 -1 d 3 X
 3 -1 d 3 X 3 -1 d 6 X 3 -1 d 3 X 3 -1 d 3 X 3 -1 d 4 X 3 -1 d 3 X 3 -1 d 3 X 3 -1 d 3 X 3 -1 d 3 -1 d 3 X 3 -1 d 3 X 3 -1 d 3 X 3 -1 d 3 -1 d 4 X 3 -1 d 3 X 3 -1 d 3 -1 d 3 X 3 -1 d 3 -1 d 3 X s 839 1161 m 3 -1 d s 0.49 0.6 0.82 c black 0.49 0.6
 0.82 c
 gsave  408 305 476 1009 C 595.418 1293.4 t 0 r /Helvetica-Bold findfont 25.6831 sf 0 0 m (0.5 < E < 1.0 GeV) show NC gr  0.52 0.76 0.64 c black 0.52 0.76 0.64 c
 gsave  408 305 476 1009 C 575.476 1256.36 t 0 r /Helvetica-Bold findfont 25.6831 sf 0 0 m 
 228 214 200 193 178 171 156 149 133 126 119 105 91 76 69 55 47 39 25 17
(A = \2550.000, p = 2.000) K NC gr  1 0.6 1 c black 1 0.6 1 c
 gsave  408 305 476 1009 C 883.156 1122.46 t 90 r /Helvetica-Bold findfont 28.5368 sf 0 0 m (/dof=0.2) show NC gr  black 1 0.6 1 c
 gsave  408 305 476 1009 C 871.76 1111.07 t 90 r /Helvetica-Bold findfont 19.9758 sf 0 0 m (2) show NC gr  black 1 0.6 1 c
 gsave  408 305 476 1009 C 883.156 1093.97 t 90 r /Symbol findfont 28.5368 sf 0 0 m (c) show NC gr  black 3 lw 1 1 1 c 408 305 930 1009 bf black 1 1 1 c black 306 229 991 1055 bl 306 229 991 1055 bl 991 1055 m 306 X s 991 1059 m -4 Y s 1095 1059 m -4
 Y s 1198 1059 m -4 Y s 1198 1059 m -4 Y s
 gsave  408 305 930 1009 C 980.018 1034.15 t 0 r /Helvetica findfont 22.8295 sf 0 0 m (0) show NC gr 
 gsave  408 305 930 1009 C 1074.03 1034.15 t 0 r /Helvetica findfont 22.8295 sf 0 0 m (500) show NC gr 
 gsave  408 305 930 1009 C 1170.89 1034.15 t 0 r /Helvetica findfont 22.8295 sf 0 0 m (1000) show NC gr  991 1284 m 306 X s 991 1280 m 4 Y s 1095 1280 m 4 Y s 1198 1280 m 4 Y s 1198 1280 m 4 Y s 991 1055 m 229 Y s 997 1074 m -6 X s 994 1083 m -3 X s
 994 1092 m -3 X s 994 1100 m -3 X s 994 1109 m -3 X s 997 1118 m -6 X s 994 1126 m -3 X s 994 1135 m -3 X s 994 1144 m -3 X s 994 1152 m -3 X s 997 1161 m -6 X s 994 1170 m -3 X s 994 1178 m -3 X s 994 1187 m -3 X s 994 1196 m -3 X s 997 1204 m -6 X
 s 994 1213 m -3 X s 994 1222 m -3 X s 994 1230 m -3 X s 994 1239 m -3 X s 997 1248 m -6 X s 997 1074 m -6 X s 994 1066 m -3 X s 994 1057 m -3 X s 997 1248 m -6 X s 994 1256 m -3 X s 994 1265 m -3 X s 994 1274 m -3 X s 994 1282 m -3 X s
 gsave  408 305 930 1009 C 923.04 1068.33 t 0 r /Helvetica findfont 22.8295 sf 0 0 m (\2550.003) show NC gr 
 gsave  408 305 930 1009 C 923.04 1111.07 t 0 r /Helvetica findfont 22.8295 sf 0 0 m (\2550.002) show NC gr 
 gsave  408 305 930 1009 C 925.889 1153.8 t 0 r /Helvetica findfont 22.8295 sf 0 0 m (\2550.001) show NC gr 
 gsave  408 305 930 1009 C 974.32 1196.53 t 0 r /Helvetica findfont 22.8295 sf 0 0 m (0) show NC gr 
 gsave  408 305 930 1009 C 934.436 1239.27 t 0 r /Helvetica findfont 22.8295 sf 0 0 m (0.001) show NC gr  1297 1055 m 229 Y s 1292 1074 m 5 X s 1294 1083 m 3 X s 1294 1092 m 3 X s 1294 1100 m 3 X s 1294 1109 m 3 X s 1292 1118 m 5 X s 1294 1126 m 3 X
 s 1294 1135 m 3 X s 1294 1144 m 3 X s 1294 1152 m 3 X s 1292 1161 m 5 X s 1294 1170 m 3 X s 1294 1178 m 3 X s 1294 1187 m 3 X s 1294 1196 m 3 X s 1292 1204 m 5 X s 1294 1213 m 3 X s 1294 1222 m 3 X s 1294 1230 m 3 X s 1294 1239 m 3 X s 1292 1248 m 5
 X s 1292 1074 m 5 X s 1294 1066 m 3 X s 1294 1057 m 3 X s 1292 1248 m 5 X s 1294 1256 m 3 X s 1294 1265 m 3 X s 1294 1274 m 3 X s 1294 1282 m 3 X s 1136 1138 1184 1200 1233 1176 1281 1199 4 { m21} R 1136 1150 m 53 Y s 1130 1203 m 12 X s 1136 1127 m
 -53 Y s 1130 1074 m 12 X s 1184 1212 m 53 Y s 1179 1265 m 11 X s 1184 1189 m -53 Y s 1179 1136 m 11 X s 1233 1188 m 53 Y s 1227 1241 m 11 X s 1233 1165 m -53 Y s 1227 1112 m 11 X s 1281 1210 m 54 Y s 1275 1264 m 12 X s 1281 1187 m -54 Y s 1275 1133
 m 12 X s 9 lw 0.95 0.95 0.95 c black 993 1204 m 6 X 3 -1 d 6 X 3 -1 d 9 X 3 -1 d 6 X 3 -1 d 10 X 3 -1 d 6 X 3 -1 d 9 X 3 -1 d 6 X 3 -1 d 9 X 3 -1 d 7 X 3 -1 d 6 X 3 -1 d 9 X 3 -1 d 6 X 3 -1 d 9 X 3 -1 d 4 X s 1143 1190 m 3 X 3 -1 d 9 X 3 -1 d 6 X 3
 -1 d 9 X 3 -1 d 6 X 4 -1 d 9 X 3 -1 d 6 X 3 -1 d 6 X 3 -1 d 9 X 3 -1 d 6 X 4 -1 d 9 X 3 -1 d 6 X 3 -1 d 9 X 3 -1 d 6 X 3 -1 d 7 X s 1293 1176 m 3 X s 0.49 0.6 0.82 c black 0.49 0.6 0.82 c
 gsave  408 305 930 1009 C 1051.24 1293.4 t 0 r /Helvetica-Bold findfont 25.6831 sf 0 0 m (1.0 < E < 1.5 GeV) show NC gr  0.52 0.76 0.64 c black 0.52 0.76 0.64 c
 gsave  408 305 930 1009 C 1031.3 1256.36 t 0 r /Helvetica-Bold findfont 25.6831 sf 0 0 m 
 228 214 200 193 178 171 156 149 133 126 119 105 91 77 69 55 47 39 25 17
(A = \2550.000, p = 1.000) K NC gr  1 0.6 1 c black 1 0.6 1 c
 gsave  408 305 930 1009 C 1336.13 1122.46 t 90 r /Helvetica-Bold findfont 28.5368 sf 0 0 m (/dof=0.3) show NC gr  black 1 0.6 1 c
 gsave  408 305 930 1009 C 1324.73 1111.07 t 90 r /Helvetica-Bold findfont 19.9758 sf 0 0 m (2) show NC gr  black 1 0.6 1 c
 gsave  408 305 930 1009 C 1336.13 1093.97 t 90 r /Symbol findfont 28.5368 sf 0 0 m (c) show NC gr  black 3 lw 1 1 1 c 408 305 1383 1009 bf black 1 1 1 c black 306 229 1445 1055 bl 306 229 1445 1055 bl 1445 1055 m 306 X s 1445 1059 m -4 Y s 1548 1059
 m -4 Y s 1652 1059 m -4 Y s 1652 1059 m -4 Y s
 gsave  408 305 1383 1009 C 1435.84 1034.15 t 0 r /Helvetica findfont 22.8295 sf 0 0 m (0) show NC gr 
 gsave  408 305 1383 1009 C 1527.01 1034.15 t 0 r /Helvetica findfont 22.8295 sf 0 0 m (500) show NC gr 
 gsave  408 305 1383 1009 C 1623.87 1034.15 t 0 r /Helvetica findfont 22.8295 sf 0 0 m (1000) show NC gr  1445 1284 m 306 X s 1445 1280 m 4 Y s 1548 1280 m 4 Y s 1652 1280 m 4 Y s 1652 1280 m 4 Y s 1445 1055 m 229 Y s 1450 1066 m -5 X s 1447 1071 m
 -2 X s 1447 1076 m -2 X s 1447 1081 m -2 X s 1447 1086 m -2 X s 1450 1091 m -5 X s 1447 1096 m -2 X s 1447 1101 m -2 X s 1447 1106 m -2 X s 1447 1111 m -2 X s 1450 1116 m -5 X s 1447 1121 m -2 X s 1447 1126 m -2 X s 1447 1131 m -2 X s 1447 1136 m -2
 X s 1450 1141 m -5 X s 1447 1146 m -2 X s 1447 1151 m -2 X s 1447 1156 m -2 X s 1447 1161 m -2 X s 1450 1166 m -5 X s 1447 1171 m -2 X s 1447 1176 m -2 X s 1447 1181 m -2 X s 1447 1186 m -2 X s 1450 1191 m -5 X s 1447 1196 m -2 X s 1447 1201 m -2 X
 s 1447 1206 m -2 X s 1447 1211 m -2 X s 1450 1216 m -5 X s 1447 1221 m -2 X s 1447 1226 m -2 X s 1447 1231 m -2 X s 1447 1236 m -2 X s 1450 1241 m -5 X s 1447 1246 m -2 X s 1447 1251 m -2 X s 1447 1256 m -2 X s 1447 1261 m -2 X s 1450 1266 m -5 X s
 1450 1066 m -5 X s 1447 1061 m -2 X s 1447 1056 m -2 X s 1450 1266 m -5 X s 1447 1271 m -2 X s 1447 1276 m -2 X s 1447 1281 m -2 X s
 gsave  408 305 1383 1009 C 1364.62 1059.79 t 0 r /Helvetica findfont 22.8295 sf 0 0 m (\2550.0025) show NC gr 
 gsave  408 305 1383 1009 C 1376.01 1085.43 t 0 r /Helvetica findfont 22.8295 sf 0 0 m (\2550.002) show NC gr 
 gsave  408 305 1383 1009 C 1364.62 1108.22 t 0 r /Helvetica findfont 22.8295 sf 0 0 m (\2550.0015) show NC gr 
 gsave  408 305 1383 1009 C 1378.86 1133.86 t 0 r /Helvetica findfont 22.8295 sf 0 0 m (\2550.001) show NC gr 
 gsave  408 305 1383 1009 C 1364.62 1159.5 t 0 r /Helvetica findfont 22.8295 sf 0 0 m (\2550.0005) show NC gr 
 gsave  408 305 1383 1009 C 1427.29 1185.14 t 0 r /Helvetica findfont 22.8295 sf 0 0 m (0) show NC gr 
 gsave  408 305 1383 1009 C 1370.32 1207.93 t 0 r /Helvetica findfont 22.8295 sf 0 0 m (0.0005) show NC gr 
 gsave  408 305 1383 1009 C 1387.41 1233.57 t 0 r /Helvetica findfont 22.8295 sf 0 0 m (0.001) show NC gr 
 gsave  408 305 1383 1009 C 1370.32 1259.21 t 0 r /Helvetica findfont 22.8295 sf 0 0 m (0.0015) show NC gr  1751 1055 m 229 Y s 1745 1066 m 6 X s 1748 1071 m 3 X s 1748 1076 m 3 X s 1748 1081 m 3 X s 1748 1086 m 3 X s 1745 1091 m 6 X s 1748 1096 m 3
 X s 1748 1101 m 3 X s 1748 1106 m 3 X s 1748 1111 m 3 X s 1745 1116 m 6 X s 1748 1121 m 3 X s 1748 1126 m 3 X s 1748 1131 m 3 X s 1748 1136 m 3 X s 1745 1141 m 6 X s 1748 1146 m 3 X s 1748 1151 m 3 X s 1748 1156 m 3 X s 1748 1161 m 3 X s 1745 1166 m
 6 X s 1748 1171 m 3 X s 1748 1176 m 3 X s 1748 1181 m 3 X s 1748 1186 m 3 X s 1745 1191 m 6 X s 1748 1196 m 3 X s 1748 1201 m 3 X s 1748 1206 m 3 X s 1748 1211 m 3 X s 1745 1216 m 6 X s 1748 1221 m 3 X s 1748 1226 m 3 X s 1748 1231 m 3 X s 1748 1236
 m 3 X s 1745 1241 m 6 X s 1748 1246 m 3 X s 1748 1251 m 3 X s 1748 1256 m 3 X s 1748 1261 m 3 X s 1745 1266 m 6 X s 1745 1066 m 6 X s 1748 1061 m 3 X s 1748 1056 m 3 X s 1745 1266 m 6 X s 1748 1271 m 3 X s 1748 1276 m 3 X s 1748 1281 m 3 X s 1590
 1173 1638 1150 1686 1166 1735 1188 4 { m21} R 1590 1184 m 64 Y s 1584 1248 m 11 X s 1590 1161 m -64 Y s 1584 1097 m 11 X s 1638 1161 m 64 Y s 1632 1225 m 12 X s 1638 1138 m -64 Y s 1632 1074 m 12 X s 1686 1178 m 64 Y s 1681 1242 m 11 X s 1686 1155 m
 -65 Y s 1681 1090 m 11 X s 1735 1199 m 66 Y s 1729 1265 m 11 X s 1735 1176 m -65 Y s 1729 1111 m 11 X s 9 lw 0.95 0.95 0.95 c black 1446 1191 m 3 X 3 -1 d 9 X 3 -1 d 10 X 3 -1 d 6 X 3 -1 d 9 X 3 -1 d 9 X 3 -1 d 6 X 4 -1 d 9 X 3 -1 d 9 X 3 -1 d 6 X 3
 -1 d 9 X 3 -1 d 10 X 3 -1 d 6 X 3 -1 d 9 X s 1596 1178 m 3 -1 d 6 X 3 -1 d 10 X 3 -1 d 9 X 3 -1 d 6 X 3 -1 d 9 X 3 -1 d 9 X 3 -1 d 7 X 3 -1 d 9 X 3 -1 d 9 X 3 -1 d 6 X 3 -1 d 10 X 3 -1 d 9 X 3 -1 d 6 X 3 -1 d 3 X s 1746 1164 m 3 X s 0.49 0.6 0.82 c
 black 0.49 0.6 0.82 c
 gsave  408 305 1383 1009 C 1504.21 1293.4 t 0 r /Helvetica-Bold findfont 25.6831 sf 0 0 m (1.5 < E < 2.0 GeV) show NC gr  0.52 0.76 0.64 c black 0.52 0.76 0.64 c
 gsave  408 305 1383 1009 C 1484.27 1256.36 t 0 r /Helvetica-Bold findfont 25.6831 sf 0 0 m 
 228 214 200 193 178 171 156 149 134 126 119 105 91 77 69 55 47 40 25 17
(A = \2550.000, p = 1.000) K NC gr  1 0.6 1 c black 1 0.6 1 c
 gsave  408 305 1383 1009 C 1789.1 1122.46 t 90 r /Helvetica-Bold findfont 28.5368 sf 0 0 m (/dof=0.1) show NC gr  black 1 0.6 1 c
 gsave  408 305 1383 1009 C 1777.71 1111.07 t 90 r /Helvetica-Bold findfont 19.9758 sf 0 0 m (2) show NC gr  black 1 0.6 1 c
 gsave  408 305 1383 1009 C 1789.1 1093.97 t 90 r /Symbol findfont 28.5368 sf 0 0 m (c) show NC gr  black 3 lw 1 1 1 c 408 305 1837 1009 bf black 1 1 1 c black 306 229 1898 1055 bl 306 229 1898 1055 bl 1898 1055 m 306 X s 1898 1059 m -4 Y s 2002 1059
 m -4 Y s 2105 1059 m -4 Y s 2105 1059 m -4 Y s
 gsave  408 305 1837 1009 C 1888.81 1034.15 t 0 r /Helvetica findfont 22.8295 sf 0 0 m (0) show NC gr 
 gsave  408 305 1837 1009 C 1979.98 1034.15 t 0 r /Helvetica findfont 22.8295 sf 0 0 m (500) show NC gr 
 gsave  408 305 1837 1009 C 2079.69 1034.15 t 0 r /Helvetica findfont 22.8295 sf 0 0 m (1000) show NC gr  1898 1284 m 306 X s 1898 1280 m 4 Y s 2002 1280 m 4 Y s 2105 1280 m 4 Y s 2105 1280 m 4 Y s 1898 1055 m 229 Y s 1904 1070 m -6 X s 1901 1076 m
 -3 X s 1901 1083 m -3 X s 1901 1089 m -3 X s 1901 1095 m -3 X s 1904 1101 m -6 X s 1901 1108 m -3 X s 1901 1114 m -3 X s 1901 1120 m -3 X s 1901 1127 m -3 X s 1904 1133 m -6 X s 1901 1139 m -3 X s 1901 1146 m -3 X s 1901 1152 m -3 X s 1901 1158 m -3
 X s 1904 1164 m -6 X s 1901 1171 m -3 X s 1901 1177 m -3 X s 1901 1183 m -3 X s 1901 1190 m -3 X s 1904 1196 m -6 X s 1901 1202 m -3 X s 1901 1208 m -3 X s 1901 1215 m -3 X s 1901 1221 m -3 X s 1904 1227 m -6 X s 1901 1234 m -3 X s 1901 1240 m -3 X
 s 1901 1246 m -3 X s 1901 1252 m -3 X s 1904 1259 m -6 X s 1904 1070 m -6 X s 1901 1064 m -3 X s 1901 1057 m -3 X s 1904 1259 m -6 X s 1901 1265 m -3 X s 1901 1271 m -3 X s 1901 1278 m -3 X s
 gsave  408 305 1837 1009 C 1828.99 1062.64 t 0 r /Helvetica findfont 22.8295 sf 0 0 m (\2550.003) show NC gr 
 gsave  408 305 1837 1009 C 1828.99 1093.97 t 0 r /Helvetica findfont 22.8295 sf 0 0 m (\2550.002) show NC gr 
 gsave  408 305 1837 1009 C 1831.84 1125.31 t 0 r /Helvetica findfont 22.8295 sf 0 0 m (\2550.001) show NC gr 
 gsave  408 305 1837 1009 C 1880.27 1156.65 t 0 r /Helvetica findfont 22.8295 sf 0 0 m (0) show NC gr 
 gsave  408 305 1837 1009 C 1840.38 1187.99 t 0 r /Helvetica findfont 22.8295 sf 0 0 m (0.001) show NC gr 
 gsave  408 305 1837 1009 C 1837.53 1219.32 t 0 r /Helvetica findfont 22.8295 sf 0 0 m (0.002) show NC gr 
 gsave  408 305 1837 1009 C 1837.53 1250.66 t 0 r /Helvetica findfont 22.8295 sf 0 0 m (0.003) show NC gr  2204 1055 m 229 Y s 2199 1070 m 5 X s 2201 1076 m 3 X s 2201 1083 m 3 X s 2201 1089 m 3 X s 2201 1095 m 3 X s 2199 1101 m 5 X s 2201 1108 m 3 X
 s 2201 1114 m 3 X s 2201 1120 m 3 X s 2201 1127 m 3 X s 2199 1133 m 5 X s 2201 1139 m 3 X s 2201 1146 m 3 X s 2201 1152 m 3 X s 2201 1158 m 3 X s 2199 1164 m 5 X s 2201 1171 m 3 X s 2201 1177 m 3 X s 2201 1183 m 3 X s 2201 1190 m 3 X s 2199 1196 m 5
 X s 2201 1202 m 3 X s 2201 1208 m 3 X s 2201 1215 m 3 X s 2201 1221 m 3 X s 2199 1227 m 5 X s 2201 1234 m 3 X s 2201 1240 m 3 X s 2201 1246 m 3 X s 2201 1252 m 3 X s 2199 1259 m 5 X s 2199 1070 m 5 X s 2201 1064 m 3 X s 2201 1057 m 3 X s 2199 1259 m
 5 X s 2201 1265 m 3 X s 2201 1271 m 3 X s 2201 1278 m 3 X s 2043 1215 2091 1161 2140 1156 2188 1125 4 { m21} R 2043 1226 m 39 Y s 2037 1265 m 12 X s 2043 1203 m -39 Y s 2037 1164 m 12 X s 2091 1172 m 38 Y s 2086 1210 m 11 X s 2091 1149 m -38 Y s
 2086 1111 m 11 X s 2140 1167 m 39 Y s 2134 1206 m 11 X s 2140 1144 m -39 Y s 2134 1105 m 11 X s 2188 1136 m 39 Y s 2183 1175 m 11 X s 2188 1113 m -39 Y s 2183 1074 m 11 X s 1 0 0 c 9 lw 0.95 0.95 0.95 c black 1 0 0 c 1900 1164 m 58 X 3 -1 d 24 X 3
 -1 d 19 X 3 -1 d 15 X 3 -1 d 12 X 3 -1 d 7 X s 2050 1159 m 3 X 3 -1 d 12 X 3 -1 d 9 X 3 -1 d 6 X 3 -1 d 10 X 3 -1 d 6 X 3 -1 d 6 X 3 -1 d 6 X 3 -1 d 6 X 3 -1 d 7 X 3 -1 d 6 X 3 -1 d 3 X 3 -1 d 6 X 3 -1 d 3 X 3 -1 d 6 X 3 -1 d 4 X 3 -1 d 3 X s 2200
 1143 m 3 -1 d s 0.49 0.6 0.82 c black 0.49 0.6 0.82 c
 gsave  408 305 1837 1009 C 1957.19 1293.4 t 0 r /Helvetica-Bold findfont 25.6831 sf 0 0 m (2.0 < E < 2.5 GeV) show NC gr  0.52 0.76 0.64 c black 0.52 0.76 0.64 c
 gsave  408 305 1837 1009 C 1937.25 1256.36 t 0 r /Helvetica-Bold findfont 25.6831 sf 0 0 m 
 228 214 200 193 178 171 156 149 133 126 119 105 91 77 69 55 47 39 25 17
(A = \2550.000, p = 2.000) K NC gr  1 0.6 1 c black 1 0.6 1 c
 gsave  408 305 1837 1009 C 2242.08 1122.46 t 90 r /Helvetica-Bold findfont 28.5368 sf 0 0 m (/dof=0.5) show NC gr  black 1 0.6 1 c
 gsave  408 305 1837 1009 C 2230.68 1111.07 t 90 r /Helvetica-Bold findfont 19.9758 sf 0 0 m (2) show NC gr  black 1 0.6 1 c
 gsave  408 305 1837 1009 C 2242.08 1093.97 t 90 r /Symbol findfont 28.5368 sf 0 0 m (c) show NC gr  black 3 lw 1 1 1 c 408 305 23 677 bf black 1 1 1 c black 306 229 84 723 bl 306 229 84 723 bl 84 723 m 306 X s 84 727 m -4 Y s 188 727 m -4 Y s 291
 727 m -4 Y s 291 727 m -4 Y s
 gsave  408 305 23 677 C 74.0711 703.676 t 0 r /Helvetica findfont 22.8295 sf 0 0 m (0) show NC gr 
 gsave  408 305 23 677 C 165.236 703.676 t 0 r /Helvetica findfont 22.8295 sf 0 0 m (500) show NC gr 
 gsave  408 305 23 677 C 264.947 703.676 t 0 r /Helvetica findfont 22.8295 sf 0 0 m (1000) show NC gr  84 952 m 306 X s 84 948 m 4 Y s 188 948 m 4 Y s 291 948 m 4 Y s 291 948 m 4 Y s 84 723 m 229 Y s 89 753 m -5 X s 87 759 m -3 X s 87 765 m -3 X s 87
 772 m -3 X s 87 778 m -3 X s 89 785 m -5 X s 87 791 m -3 X s 87 798 m -3 X s 87 804 m -3 X s 87 810 m -3 X s 89 817 m -5 X s 87 823 m -3 X s 87 830 m -3 X s 87 836 m -3 X s 87 842 m -3 X s 89 849 m -5 X s 87 855 m -3 X s 87 862 m -3 X s 87 868 m -3
 X s 87 874 m -3 X s 89 881 m -5 X s 87 887 m -3 X s 87 894 m -3 X s 87 900 m -3 X s 87 907 m -3 X s 89 913 m -5 X s 87 919 m -3 X s 87 926 m -3 X s 87 932 m -3 X s 87 939 m -3 X s 89 945 m -5 X s 89 753 m -5 X s 87 746 m -3 X s 87 740 m -3 X s 87
 733 m -3 X s 87 727 m -3 X s 89 945 m -5 X s 87 951 m -3 X s
 gsave  408 305 23 677 C 14.2445 746.409 t 0 r /Helvetica findfont 22.8295 sf 0 0 m (\2550.004) show NC gr 
 gsave  408 305 23 677 C 14.2445 777.747 t 0 r /Helvetica findfont 22.8295 sf 0 0 m (\2550.003) show NC gr 
 gsave  408 305 23 677 C 14.2445 809.085 t 0 r /Helvetica findfont 22.8295 sf 0 0 m (\2550.002) show NC gr 
 gsave  408 305 23 677 C 17.0933 840.423 t 0 r /Helvetica findfont 22.8295 sf 0 0 m (\2550.001) show NC gr 
 gsave  408 305 23 677 C 65.5245 874.609 t 0 r /Helvetica findfont 22.8295 sf 0 0 m (0) show NC gr 
 gsave  408 305 23 677 C 25.64 905.947 t 0 r /Helvetica findfont 22.8295 sf 0 0 m (0.001) show NC gr 
 gsave  408 305 23 677 C 22.7911 937.285 t 0 r /Helvetica findfont 22.8295 sf 0 0 m (0.002) show NC gr  390 723 m 229 Y s 385 753 m 5 X s 387 759 m 3 X s 387 765 m 3 X s 387 772 m 3 X s 387 778 m 3 X s 385 785 m 5 X s 387 791 m 3 X s 387 798 m 3 X s
 387 804 m 3 X s 387 810 m 3 X s 385 817 m 5 X s 387 823 m 3 X s 387 830 m 3 X s 387 836 m 3 X s 387 842 m 3 X s 385 849 m 5 X s 387 855 m 3 X s 387 862 m 3 X s 387 868 m 3 X s 387 874 m 3 X s 385 881 m 5 X s 387 887 m 3 X s 387 894 m 3 X s 387 900 m
 3 X s 387 907 m 3 X s 385 913 m 5 X s 387 919 m 3 X s 387 926 m 3 X s 387 932 m 3 X s 387 939 m 3 X s 385 945 m 5 X s 385 753 m 5 X s 387 746 m 3 X s 387 740 m 3 X s 387 733 m 3 X s 387 727 m 3 X s 385 945 m 5 X s 387 951 m 3 X s /w 22 def /w2 {w 2
 div} def /w3 {w 3 div} def 229 797 277 878 326 873 374 850 4 { m21} R 229 808 m 44 Y s 223 852 m 12 X s 229 786 m -44 Y s 223 742 m 12 X s 277 889 m 44 Y s 272 933 m 11 X s 277 866 m -43 Y s 272 823 m 11 X s 326 884 m 44 Y s 320 928 m 11 X s 326 861
 m -44 Y s 320 817 m 11 X s 374 861 m 45 Y s 368 906 m 12 X s 374 838 m -44 Y s 368 794 m 12 X s 9 lw 0.95 0.95 0.95 c black 85 881 m 3 -1 d 7 X 3 -1 d 3 X 3 -1 d 6 X 3 -1 d 6 X 3 -1 d 6 X 3 -1 d 3 X 3 -1 d 7 X 3 -1 d 6 X 3 -1 d 6 X 3 -1 d 3 X 3 -1 d
 6 X 3 -1 d 6 X 4 -1 d 6 X 3 -1 d 3 X 3 -1 d 6 X 3 -1 d 6 X 3 -1 d 6 X 3 -1 d 3 X s 235 863 m 4 -1 d 6 X 3 -1 d 6 X 3 -1 d 6 X 3 -1 d 3 X 3 -1 d 6 X 3 -1 d 6 X 4 -1 d 6 X 3 -1 d 3 X 3 -1 d 6 X 3 -1 d 6 X 3 -1 d 6 X 3 -1 d 3 X 4 -1 d 6 X 3 -1 d 6 X 3
 -1 d 6 X 3 -1 d 3 X 3 -1 d 6 X 3 -1 d 3 X s 385 845 m 4 X s 0.49 0.6 0.82 c black 0.49 0.6 0.82 c
 gsave  408 305 23 677 C 142.445 960.076 t 0 r /Helvetica-Bold findfont 25.6831 sf 0 0 m (2.5 < E < 3.0 GeV) show NC gr  0.52 0.76 0.64 c black 0.52 0.76 0.64 c
 gsave  408 305 23 677 C 122.502 923.04 t 0 r /Helvetica-Bold findfont 25.6831 sf 0 0 m 
 228 214 200 193 178 171 156 149 134 126 119 105 91 77 69 55 47 39 25 17
(A = \2550.000, p = 1.000) K NC gr  1 0.6 1 c black 1 0.6 1 c
 gsave  408 305 23 677 C 427.334 791.991 t 90 r /Helvetica-Bold findfont 28.5368 sf 0 0 m (/dof=0.6) show NC gr  black 1 0.6 1 c
 gsave  408 305 23 677 C 415.938 780.596 t 90 r /Helvetica-Bold findfont 19.9758 sf 0 0 m (2) show NC gr  black 1 0.6 1 c
 gsave  408 305 23 677 C 427.334 763.503 t 90 r /Symbol findfont 28.5368 sf 0 0 m (c) show NC gr  black 3 lw 1 1 1 c 408 305 476 677 bf black 1 1 1 c black 307 229 537 723 bl 307 229 537 723 bl 537 723 m 307 X s 537 727 m -4 Y s 641 727 m -4 Y s 745
 727 m -4 Y s 745 727 m -4 Y s
 gsave  408 305 476 677 C 527.045 703.676 t 0 r /Helvetica findfont 22.8295 sf 0 0 m (0) show NC gr 
 gsave  408 305 476 677 C 621.058 703.676 t 0 r /Helvetica findfont 22.8295 sf 0 0 m (500) show NC gr 
 gsave  408 305 476 677 C 717.92 703.676 t 0 r /Helvetica findfont 22.8295 sf 0 0 m (1000) show NC gr  537 952 m 307 X s 537 948 m 4 Y s 641 948 m 4 Y s 745 948 m 4 Y s 745 948 m 4 Y s 537 723 m 229 Y s 543 729 m -6 X s 540 735 m -3 X s 540 742 m -3
 X s 540 748 m -3 X s 540 755 m -3 X s 543 761 m -6 X s 540 768 m -3 X s 540 774 m -3 X s 540 781 m -3 X s 540 787 m -3 X s 543 794 m -6 X s 540 800 m -3 X s 540 807 m -3 X s 540 813 m -3 X s 540 820 m -3 X s 543 826 m -6 X s 540 833 m -3 X s 540 839
 m -3 X s 540 845 m -3 X s 540 852 m -3 X s 543 858 m -6 X s 540 865 m -3 X s 540 871 m -3 X s 540 878 m -3 X s 540 884 m -3 X s 543 891 m -6 X s 540 897 m -3 X s 540 904 m -3 X s 540 910 m -3 X s 540 917 m -3 X s 543 923 m -6 X s 543 729 m -6 X s
 543 923 m -6 X s 540 930 m -3 X s 540 936 m -3 X s 540 943 m -3 X s 540 949 m -3 X s
 gsave  408 305 476 677 C 467.218 720.769 t 0 r /Helvetica findfont 22.8295 sf 0 0 m (\2550.003) show NC gr 
 gsave  408 305 476 677 C 467.218 754.956 t 0 r /Helvetica findfont 22.8295 sf 0 0 m (\2550.002) show NC gr 
 gsave  408 305 476 677 C 470.067 786.294 t 0 r /Helvetica findfont 22.8295 sf 0 0 m (\2550.001) show NC gr 
 gsave  408 305 476 677 C 518.498 817.631 t 0 r /Helvetica findfont 22.8295 sf 0 0 m (0) show NC gr 
 gsave  408 305 476 677 C 478.614 851.818 t 0 r /Helvetica findfont 22.8295 sf 0 0 m (0.001) show NC gr 
 gsave  408 305 476 677 C 475.765 883.156 t 0 r /Helvetica findfont 22.8295 sf 0 0 m (0.002) show NC gr 
 gsave  408 305 476 677 C 475.765 917.343 t 0 r /Helvetica findfont 22.8295 sf 0 0 m (0.003) show NC gr  844 723 m 229 Y s 838 729 m 6 X s 841 735 m 3 X s 841 742 m 3 X s 841 748 m 3 X s 841 755 m 3 X s 838 761 m 6 X s 841 768 m 3 X s 841 774 m 3 X s
 841 781 m 3 X s 841 787 m 3 X s 838 794 m 6 X s 841 800 m 3 X s 841 807 m 3 X s 841 813 m 3 X s 841 820 m 3 X s 838 826 m 6 X s 841 833 m 3 X s 841 839 m 3 X s 841 845 m 3 X s 841 852 m 3 X s 838 858 m 6 X s 841 865 m 3 X s 841 871 m 3 X s 841 878 m
 3 X s 841 884 m 3 X s 838 891 m 6 X s 841 897 m 3 X s 841 904 m 3 X s 841 910 m 3 X s 841 917 m 3 X s 838 923 m 6 X s 838 729 m 6 X s 838 923 m 6 X s 841 930 m 3 X s 841 936 m 3 X s 841 943 m 3 X s 841 949 m 3 X s /w 23 def /w2 {w 2 div} def /w3 {w
 3 div} def 683 870 731 859 779 811 828 805 4 { m21} R 683 882 m 51 Y s 677 933 m 11 X s 683 859 m -51 Y s 677 808 m 11 X s 731 871 m 51 Y s 725 922 m 12 X s 731 848 m -51 Y s 725 797 m 12 X s 779 822 m 51 Y s 773 873 m 12 X s 779 799 m -51 Y s 773
 748 m 12 X s 828 817 m 52 Y s 822 869 m 11 X s 828 794 m -52 Y s 822 742 m 11 X s 9 lw 0.95 0.95 0.95 c black 539 826 m 24 X 4 1 d 58 X 3 1 d 55 X 3 1 d 3 X s 689 829 m 55 X 3 1 d 58 X 3 1 d 31 X s 839 831 m 3 X s 0.49 0.6 0.82 c black 0.49 0.6 0.82
 c
 gsave  408 305 476 677 C 595.418 960.076 t 0 r /Helvetica-Bold findfont 25.6831 sf 0 0 m (3.0 < E < 3.5 GeV) show NC gr  0.52 0.76 0.64 c black 0.52 0.76 0.64 c
 gsave  408 305 476 677 C 581.174 923.04 t 0 r /Helvetica-Bold findfont 25.6831 sf 0 0 m 
 220 206 192 185 170 163 148 141 125 118 111 97 83 68 61 47 40 25 18
(A = 0.000, p = 1.000) K NC gr  1 0.6 1 c black 1 0.6 1 c
 gsave  408 305 476 677 C 883.156 791.991 t 90 r /Helvetica-Bold findfont 28.5368 sf 0 0 m (/dof=0.3) show NC gr  black 1 0.6 1 c
 gsave  408 305 476 677 C 871.76 780.596 t 90 r /Helvetica-Bold findfont 19.9758 sf 0 0 m (2) show NC gr  black 1 0.6 1 c
 gsave  408 305 476 677 C 883.156 763.503 t 90 r /Symbol findfont 28.5368 sf 0 0 m (c) show NC gr  black 3 lw 1 1 1 c 408 305 930 677 bf black 1 1 1 c black 306 229 991 723 bl 306 229 991 723 bl 991 723 m 306 X s 991 727 m -4 Y s 1095 727 m -4 Y s
 1198 727 m -4 Y s 1198 727 m -4 Y s
 gsave  408 305 930 677 C 980.018 703.676 t 0 r /Helvetica findfont 22.8295 sf 0 0 m (0) show NC gr 
 gsave  408 305 930 677 C 1074.03 703.676 t 0 r /Helvetica findfont 22.8295 sf 0 0 m (500) show NC gr 
 gsave  408 305 930 677 C 1170.89 703.676 t 0 r /Helvetica findfont 22.8295 sf 0 0 m (1000) show NC gr  991 952 m 306 X s 991 948 m 4 Y s 1095 948 m 4 Y s 1198 948 m 4 Y s 1198 948 m 4 Y s 991 723 m 229 Y s 997 741 m -6 X s 994 747 m -3 X s 994 753 m
 -3 X s 994 759 m -3 X s 994 765 m -3 X s 997 771 m -6 X s 994 777 m -3 X s 994 783 m -3 X s 994 789 m -3 X s 994 795 m -3 X s 997 801 m -6 X s 994 807 m -3 X s 994 813 m -3 X s 994 819 m -3 X s 994 825 m -3 X s 997 831 m -6 X s 994 837 m -3 X s 994
 843 m -3 X s 994 849 m -3 X s 994 855 m -3 X s 997 861 m -6 X s 994 867 m -3 X s 994 873 m -3 X s 994 879 m -3 X s 994 885 m -3 X s 997 891 m -6 X s 994 897 m -3 X s 994 903 m -3 X s 994 909 m -3 X s 994 915 m -3 X s 997 921 m -6 X s 994 927 m -3 X
 s 994 933 m -3 X s 994 939 m -3 X s 994 945 m -3 X s 997 951 m -6 X s 997 741 m -6 X s 994 735 m -3 X s 994 729 m -3 X s 994 723 m -3 X s 997 951 m -6 X s
 gsave  408 305 930 677 C 923.04 735.014 t 0 r /Helvetica findfont 22.8295 sf 0 0 m (\2550.003) show NC gr 
 gsave  408 305 930 677 C 923.04 763.503 t 0 r /Helvetica findfont 22.8295 sf 0 0 m (\2550.002) show NC gr 
 gsave  408 305 930 677 C 925.889 794.84 t 0 r /Helvetica findfont 22.8295 sf 0 0 m (\2550.001) show NC gr 
 gsave  408 305 930 677 C 974.32 823.329 t 0 r /Helvetica findfont 22.8295 sf 0 0 m (0) show NC gr 
 gsave  408 305 930 677 C 934.436 854.667 t 0 r /Helvetica findfont 22.8295 sf 0 0 m (0.001) show NC gr 
 gsave  408 305 930 677 C 931.587 883.156 t 0 r /Helvetica findfont 22.8295 sf 0 0 m (0.002) show NC gr 
 gsave  408 305 930 677 C 931.587 914.494 t 0 r /Helvetica findfont 22.8295 sf 0 0 m (0.003) show NC gr 
 gsave  408 305 930 677 C 931.587 942.983 t 0 r /Helvetica findfont 22.8295 sf 0 0 m (0.004) show NC gr  1297 723 m 229 Y s 1292 741 m 5 X s 1294 747 m 3 X s 1294 753 m 3 X s 1294 759 m 3 X s 1294 765 m 3 X s 1292 771 m 5 X s 1294 777 m 3 X s 1294
 783 m 3 X s 1294 789 m 3 X s 1294 795 m 3 X s 1292 801 m 5 X s 1294 807 m 3 X s 1294 813 m 3 X s 1294 819 m 3 X s 1294 825 m 3 X s 1292 831 m 5 X s 1294 837 m 3 X s 1294 843 m 3 X s 1294 849 m 3 X s 1294 855 m 3 X s 1292 861 m 5 X s 1294 867 m 3 X s
 1294 873 m 3 X s 1294 879 m 3 X s 1294 885 m 3 X s 1292 891 m 5 X s 1294 897 m 3 X s 1294 903 m 3 X s 1294 909 m 3 X s 1294 915 m 3 X s 1292 921 m 5 X s 1294 927 m 3 X s 1294 933 m 3 X s 1294 939 m 3 X s 1294 945 m 3 X s 1292 951 m 5 X s 1292 741 m
 5 X s 1294 735 m 3 X s 1294 729 m 3 X s 1294 723 m 3 X s 1292 951 m 5 X s 1136 863 1184 859 1233 812 1281 854 4 { m21} R 1136 874 m 59 Y s 1130 933 m 12 X s 1136 851 m -59 Y s 1130 792 m 12 X s 1184 870 m 59 Y s 1179 929 m 11 X s 1184 847 m -59 Y s
 1179 788 m 11 X s 1233 824 m 58 Y s 1227 882 m 11 X s 1233 801 m -59 Y s 1227 742 m 11 X s 1281 865 m 60 Y s 1275 925 m 12 X s 1281 843 m -60 Y s 1275 783 m 12 X s 9 lw 0.95 0.95 0.95 c black 993 831 m 6 X 3 1 d 12 X 3 1 d 15 X 3 1 d 13 X 3 1 d 15 X
 3 1 d 12 X 3 1 d 16 X 3 1 d 12 X 3 1 d 15 X 3 1 d 7 X s 1143 840 m 6 X 3 1 d 15 X 3 1 d 12 X 3 1 d 16 X 3 1 d 12 X 3 1 d 15 X 3 1 d 13 X 3 1 d 12 X 3 1 d 15 X 3 1 d 7 X s 1293 849 m 3 X s 0.49 0.6 0.82 c black 0.49 0.6 0.82 c
 gsave  408 305 930 677 C 1051.24 960.076 t 0 r /Helvetica-Bold findfont 25.6831 sf 0 0 m (3.5 < E < 4.0 GeV) show NC gr  0.52 0.76 0.64 c black 0.52 0.76 0.64 c
 gsave  408 305 930 677 C 1037 923.04 t 0 r /Helvetica-Bold findfont 25.6831 sf 0 0 m 
 220 206 192 185 170 163 148 141 125 118 111 97 83 69 61 47 40 25 18
(A = 0.000, p = 1.000) K NC gr  1 0.6 1 c black 1 0.6 1 c
 gsave  408 305 930 677 C 1336.13 791.991 t 90 r /Helvetica-Bold findfont 28.5368 sf 0 0 m (/dof=0.1) show NC gr  black 1 0.6 1 c
 gsave  408 305 930 677 C 1324.73 780.596 t 90 r /Helvetica-Bold findfont 19.9758 sf 0 0 m (2) show NC gr  black 1 0.6 1 c
 gsave  408 305 930 677 C 1336.13 763.503 t 90 r /Symbol findfont 28.5368 sf 0 0 m (c) show NC gr  black 3 lw 1 1 1 c 408 305 1383 677 bf black 1 1 1 c black 306 229 1445 723 bl 306 229 1445 723 bl 1445 723 m 306 X s 1445 727 m -4 Y s 1548 727 m -4 Y
 s 1652 727 m -4 Y s 1652 727 m -4 Y s
 gsave  408 305 1383 677 C 1435.84 703.676 t 0 r /Helvetica findfont 22.8295 sf 0 0 m (0) show NC gr 
 gsave  408 305 1383 677 C 1527.01 703.676 t 0 r /Helvetica findfont 22.8295 sf 0 0 m (500) show NC gr 
 gsave  408 305 1383 677 C 1623.87 703.676 t 0 r /Helvetica findfont 22.8295 sf 0 0 m (1000) show NC gr  1445 952 m 306 X s 1445 948 m 4 Y s 1548 948 m 4 Y s 1652 948 m 4 Y s 1652 948 m 4 Y s 1445 723 m 229 Y s 1450 735 m -5 X s 1447 743 m -2 X s
 1447 751 m -2 X s 1447 760 m -2 X s 1450 768 m -5 X s 1447 776 m -2 X s 1447 785 m -2 X s 1447 793 m -2 X s 1450 801 m -5 X s 1447 810 m -2 X s 1447 818 m -2 X s 1447 826 m -2 X s 1450 835 m -5 X s 1447 843 m -2 X s 1447 851 m -2 X s 1447 860 m -2 X
 s 1450 868 m -5 X s 1447 876 m -2 X s 1447 885 m -2 X s 1447 893 m -2 X s 1450 901 m -5 X s 1447 909 m -2 X s 1447 918 m -2 X s 1447 926 m -2 X s 1450 934 m -5 X s 1450 735 m -5 X s 1447 726 m -2 X s 1450 934 m -5 X s 1447 943 m -2 X s 1447 951 m -2
 X s
 gsave  408 305 1383 677 C 1376.01 726.467 t 0 r /Helvetica findfont 22.8295 sf 0 0 m (\2550.006) show NC gr 
 gsave  408 305 1383 677 C 1376.01 760.654 t 0 r /Helvetica findfont 22.8295 sf 0 0 m (\2550.004) show NC gr 
 gsave  408 305 1383 677 C 1376.01 794.84 t 0 r /Helvetica findfont 22.8295 sf 0 0 m (\2550.002) show NC gr 
 gsave  408 305 1383 677 C 1427.29 826.178 t 0 r /Helvetica findfont 22.8295 sf 0 0 m (0) show NC gr 
 gsave  408 305 1383 677 C 1384.56 860.365 t 0 r /Helvetica findfont 22.8295 sf 0 0 m (0.002) show NC gr 
 gsave  408 305 1383 677 C 1384.56 894.552 t 0 r /Helvetica findfont 22.8295 sf 0 0 m (0.004) show NC gr 
 gsave  408 305 1383 677 C 1384.56 928.738 t 0 r /Helvetica findfont 22.8295 sf 0 0 m (0.006) show NC gr  1751 723 m 229 Y s 1745 735 m 6 X s 1748 743 m 3 X s 1748 751 m 3 X s 1748 760 m 3 X s 1745 768 m 6 X s 1748 776 m 3 X s 1748 785 m 3 X s 1748
 793 m 3 X s 1745 801 m 6 X s 1748 810 m 3 X s 1748 818 m 3 X s 1748 826 m 3 X s 1745 835 m 6 X s 1748 843 m 3 X s 1748 851 m 3 X s 1748 860 m 3 X s 1745 868 m 6 X s 1748 876 m 3 X s 1748 885 m 3 X s 1748 893 m 3 X s 1745 901 m 6 X s 1748 909 m 3 X s
 1748 918 m 3 X s 1748 926 m 3 X s 1745 934 m 6 X s 1745 735 m 6 X s 1748 726 m 3 X s 1745 934 m 6 X s 1748 943 m 3 X s 1748 951 m 3 X s 1590 793 1638 803 1686 860 1735 881 4 { m21} R 1590 805 m 39 Y s 1584 844 m 11 X s 1590 782 m -40 Y s 1584 742 m
 11 X s 1638 815 m 39 Y s 1632 854 m 12 X s 1638 792 m -40 Y s 1632 752 m 12 X s 1686 871 m 40 Y s 1681 911 m 11 X s 1686 848 m -40 Y s 1681 808 m 11 X s 1735 892 m 41 Y s 1729 933 m 11 X s 1735 869 m -40 Y s 1729 829 m 11 X s 1 0 0 c 9 lw 0.95 0.95
 0.95 c black 1 0 0 c 1446 835 m 55 X 3 1 d 25 X 3 1 d 18 X 3 1 d 12 X 4 1 d 12 X 3 1 d 9 X 3 1 d s 1596 841 m 9 X 3 1 d 10 X 3 1 d 6 X 3 1 d 9 X 3 1 d 6 X 3 1 d 6 X 3 1 d 6 X 4 1 d 3 X 3 1 d 6 X 3 1 d 6 X 3 1 d 3 X 3 1 d 6 X 3 1 d 3 X 3 1 d 4 X 3 1
 d 3 X 3 1 d 6 X 3 1 d 3 X 3 1 d 3 X s 1746 858 m 3 1 d s 0.49 0.6 0.82 c black 0.49 0.6 0.82 c
 gsave  408 305 1383 677 C 1504.21 960.076 t 0 r /Helvetica-Bold findfont 25.6831 sf 0 0 m (4.0 < E < 4.5 GeV) show NC gr  0.52 0.76 0.64 c black 0.52 0.76 0.64 c
 gsave  408 305 1383 677 C 1489.97 923.04 t 0 r /Helvetica-Bold findfont 25.6831 sf 0 0 m 
 220 206 192 185 170 163 148 141 126 118 111 97 83 69 61 47 40 25 18
(A = 0.000, p = 2.000) K NC gr  1 0.6 1 c black 1 0.6 1 c
 gsave  408 305 1383 677 C 1789.1 791.991 t 90 r /Helvetica-Bold findfont 28.5368 sf 0 0 m (/dof=0.6) show NC gr  black 1 0.6 1 c
 gsave  408 305 1383 677 C 1777.71 780.596 t 90 r /Helvetica-Bold findfont 19.9758 sf 0 0 m (2) show NC gr  black 1 0.6 1 c
 gsave  408 305 1383 677 C 1789.1 763.503 t 90 r /Symbol findfont 28.5368 sf 0 0 m (c) show NC gr  black 3 lw 1 1 1 c 408 305 1837 677 bf black 1 1 1 c black 306 229 1898 723 bl 306 229 1898 723 bl 1898 723 m 306 X s 1898 727 m -4 Y s 2002 727 m -4 Y
 s 2105 727 m -4 Y s 2105 727 m -4 Y s
 gsave  408 305 1837 677 C 1888.81 703.676 t 0 r /Helvetica findfont 22.8295 sf 0 0 m (0) show NC gr 
 gsave  408 305 1837 677 C 1979.98 703.676 t 0 r /Helvetica findfont 22.8295 sf 0 0 m (500) show NC gr 
 gsave  408 305 1837 677 C 2079.69 703.676 t 0 r /Helvetica findfont 22.8295 sf 0 0 m (1000) show NC gr  1898 952 m 306 X s 1898 948 m 4 Y s 2002 948 m 4 Y s 2105 948 m 4 Y s 2105 948 m 4 Y s 1898 723 m 229 Y s 1904 723 m -6 X s 1901 732 m -3 X s
 1901 740 m -3 X s 1901 748 m -3 X s 1901 756 m -3 X s 1904 764 m -6 X s 1901 772 m -3 X s 1901 780 m -3 X s 1901 789 m -3 X s 1901 797 m -3 X s 1904 805 m -6 X s 1901 813 m -3 X s 1901 821 m -3 X s 1901 829 m -3 X s 1901 837 m -3 X s 1904 845 m -6 X
 s 1901 854 m -3 X s 1901 862 m -3 X s 1901 870 m -3 X s 1901 878 m -3 X s 1904 886 m -6 X s 1901 894 m -3 X s 1901 902 m -3 X s 1901 911 m -3 X s 1901 919 m -3 X s 1904 927 m -6 X s 1904 723 m -6 X s 1904 927 m -6 X s 1901 935 m -3 X s 1901 943 m -3
 X s 1901 951 m -3 X s
 gsave  408 305 1837 677 C 1828.99 715.071 t 0 r /Helvetica findfont 22.8295 sf 0 0 m (\2550.005) show NC gr 
 gsave  408 305 1837 677 C 1880.27 757.805 t 0 r /Helvetica findfont 22.8295 sf 0 0 m (0) show NC gr 
 gsave  408 305 1837 677 C 1837.53 797.689 t 0 r /Helvetica findfont 22.8295 sf 0 0 m (0.005) show NC gr 
 gsave  408 305 1837 677 C 1851.78 837.574 t 0 r /Helvetica findfont 22.8295 sf 0 0 m (0.01) show NC gr 
 gsave  408 305 1837 677 C 1837.53 880.307 t 0 r /Helvetica findfont 22.8295 sf 0 0 m (0.015) show NC gr 
 gsave  408 305 1837 677 C 1848.93 920.192 t 0 r /Helvetica findfont 22.8295 sf 0 0 m (0.02) show NC gr  2204 723 m 229 Y s 2199 723 m 5 X s 2201 732 m 3 X s 2201 740 m 3 X s 2201 748 m 3 X s 2201 756 m 3 X s 2199 764 m 5 X s 2201 772 m 3 X s 2201
 780 m 3 X s 2201 789 m 3 X s 2201 797 m 3 X s 2199 805 m 5 X s 2201 813 m 3 X s 2201 821 m 3 X s 2201 829 m 3 X s 2201 837 m 3 X s 2199 845 m 5 X s 2201 854 m 3 X s 2201 862 m 3 X s 2201 870 m 3 X s 2201 878 m 3 X s 2199 886 m 5 X s 2201 894 m 3 X s
 2201 902 m 3 X s 2201 911 m 3 X s 2201 919 m 3 X s 2199 927 m 5 X s 2199 723 m 5 X s 2199 927 m 5 X s 2201 935 m 3 X s 2201 943 m 3 X s 2201 951 m 3 X s 2043 829 2091 776 2140 828 2188 898 4 { m21} R 2043 840 m 23 Y s 2037 863 m 12 X s 2043 817 m
 -23 Y s 2037 794 m 12 X s 2091 787 m 23 Y s 2086 810 m 11 X s 2091 765 m -23 Y s 2086 742 m 11 X s 2140 839 m 23 Y s 2134 862 m 11 X s 2140 817 m -23 Y s 2134 794 m 11 X s 2188 910 m 23 Y s 2183 933 m 11 X s 2188 887 m -24 Y s 2183 863 m 11 X s 1 0
 0 c 9 lw 0.95 0.95 0.95 c black 1 0 0 c 1900 764 m 15 X 3 1 d 9 X 3 1 d 9 X 3 1 d 4 X 3 1 d 6 X 3 1 d 3 X 3 1 d 3 1 d 3 X 3 1 d 3 X 3 1 d 3 1 d 3 X 3 1 d 3 1 d 4 1 d 3 1 d 3 X 3 1 d 3 1 d 3 1 d 3 1 d 3 1 d 3 1 d 3 1 d 3 1 d 3 1 d 3 1 d 3 1 d 3 1 d 3
 2 d 3 1 d 4 1 d 3 1 d s 2050 795 m 3 2 d 3 1 d 3 1 d 3 2 d 3 1 d 3 1 d 3 2 d 3 1 d 3 2 d 3 1 d 3 2 d 3 1 d 3 2 d 3 1 d 4 2 d 3 2 d 3 1 d 3 2 d 3 2 d 3 2 d 3 1 d 3 2 d 3 2 d 3 2 d 3 2 d 3 2 d 3 2 d 3 2 d 3 2 d 3 2 d 4 2 d 3 2 d 3 2 d 3 2 d 3 2 d 3 2
 d 3 2 d 3 3 d 3 2 d 3 2 d 3 2 d 3 3 d 3 2 d 3 2 d 3 3 d 3 2 d 4 3 d 3 2 d 3 3 d s 2200 888 m 3 2 d s 0.49 0.6 0.82 c black 0.49 0.6 0.82 c
 gsave  408 305 1837 677 C 1957.19 960.076 t 0 r /Helvetica-Bold findfont 25.6831 sf 0 0 m (4.5 < E < 5.0 GeV) show NC gr  0.52 0.76 0.64 c black 0.52 0.76 0.64 c
 gsave  408 305 1837 677 C 1942.94 923.04 t 0 r /Helvetica-Bold findfont 25.6831 sf 0 0 m 
 220 206 192 185 170 163 148 141 125 118 111 97 83 69 61 47 40 25 18
(A = 0.000, p = 2.000) K NC gr  1 0.6 1 c black 1 0.6 1 c
 gsave  408 305 1837 677 C 2242.08 791.991 t 90 r /Helvetica-Bold findfont 28.5368 sf 0 0 m (/dof=1.0) show NC gr  black 1 0.6 1 c
 gsave  408 305 1837 677 C 2230.68 780.596 t 90 r /Helvetica-Bold findfont 19.9758 sf 0 0 m (2) show NC gr  black 1 0.6 1 c
 gsave  408 305 1837 677 C 2242.08 763.503 t 90 r /Symbol findfont 28.5368 sf 0 0 m (c) show NC gr  black 3 lw 1 1 1 c 408 306 23 345 bf black 1 1 1 c black 306 229 84 391 bl 306 229 84 391 bl 84 391 m 306 X s 84 395 m -4 Y s 188 395 m -4 Y s 291 395
 m -4 Y s 291 395 m -4 Y s
 gsave  408 306 23 345 C 74.0711 370.356 t 0 r /Helvetica findfont 22.8295 sf 0 0 m (0) show NC gr 
 gsave  408 306 23 345 C 165.236 370.356 t 0 r /Helvetica findfont 22.8295 sf 0 0 m (500) show NC gr 
 gsave  408 306 23 345 C 264.947 370.356 t 0 r /Helvetica findfont 22.8295 sf 0 0 m (1000) show NC gr  84 620 m 306 X s 84 616 m 4 Y s 188 616 m 4 Y s 291 616 m 4 Y s 291 616 m 4 Y s 84 391 m 229 Y s 89 412 m -5 X s 87 421 m -3 X s 87 429 m -3 X s 87
 438 m -3 X s 87 447 m -3 X s 89 455 m -5 X s 87 464 m -3 X s 87 472 m -3 X s 87 481 m -3 X s 87 490 m -3 X s 89 498 m -5 X s 87 507 m -3 X s 87 516 m -3 X s 87 524 m -3 X s 87 533 m -3 X s 89 541 m -5 X s 87 550 m -3 X s 87 559 m -3 X s 87 567 m -3
 X s 87 576 m -3 X s 89 584 m -5 X s 89 412 m -5 X s 87 403 m -3 X s 87 395 m -3 X s 89 584 m -5 X s 87 593 m -3 X s 87 602 m -3 X s 87 610 m -3 X s 87 619 m -3 X s
 gsave  408 306 23 345 C 65.5245 404.542 t 0 r /Helvetica findfont 22.8295 sf 0 0 m (0) show NC gr 
 gsave  408 306 23 345 C 37.0356 447.276 t 0 r /Helvetica findfont 22.8295 sf 0 0 m (0.01) show NC gr 
 gsave  408 306 23 345 C 34.1867 490.009 t 0 r /Helvetica findfont 22.8295 sf 0 0 m (0.02) show NC gr 
 gsave  408 306 23 345 C 34.1867 535.591 t 0 r /Helvetica findfont 22.8295 sf 0 0 m (0.03) show NC gr 
 gsave  408 306 23 345 C 34.1867 578.325 t 0 r /Helvetica findfont 22.8295 sf 0 0 m (0.04) show NC gr  390 391 m 229 Y s 385 412 m 5 X s 387 421 m 3 X s 387 429 m 3 X s 387 438 m 3 X s 387 447 m 3 X s 385 455 m 5 X s 387 464 m 3 X s 387 472 m 3 X s
 387 481 m 3 X s 387 490 m 3 X s 385 498 m 5 X s 387 507 m 3 X s 387 516 m 3 X s 387 524 m 3 X s 387 533 m 3 X s 385 541 m 5 X s 387 550 m 3 X s 387 559 m 3 X s 387 567 m 3 X s 387 576 m 3 X s 385 584 m 5 X s 385 412 m 5 X s 387 403 m 3 X s 387 395 m
 3 X s 385 584 m 5 X s 387 593 m 3 X s 387 602 m 3 X s 387 610 m 3 X s 387 619 m 3 X s /w 22 def /w2 {w 2 div} def /w3 {w 3 div} def 229 434 277 437 326 452 374 576 4 { m21} R 229 445 m 12 Y s 223 457 m 12 X s 229 422 m -12 Y s 223 410 m 12 X s 277
 448 m 12 Y s 272 460 m 11 X s 277 425 m -12 Y s 272 413 m 11 X s 326 464 m 12 Y s 320 476 m 11 X s 326 441 m -13 Y s 320 428 m 11 X s 374 588 m 13 Y s 368 601 m 12 X s 374 565 m -13 Y s 368 552 m 12 X s 1 0 0 c 9 lw 0.95 0.95 0.95 c black 1 0 0 c 85
 412 m 16 X 3 1 d 12 X 3 1 d 6 X 3 1 d 3 X 3 1 d 3 X 4 1 d 3 X 3 1 d 3 X 3 1 d 3 X 3 1 d 3 1 d 3 X 3 1 d 3 1 d 3 1 d 3 X 3 1 d 3 1 d 3 1 d 4 1 d 3 1 d 3 1 d 3 1 d 3 1 d 3 1 d 3 1 d 3 1 d 3 1 d 3 1 d 3 1 d 3 1 d 3 2 d 3 1 d 3 1 d 3 1 d s 235 444 m 4 2
 d 3 1 d 3 1 d 3 2 d 3 1 d 3 2 d 3 1 d 3 2 d 3 1 d 3 2 d 3 1 d 3 2 d 3 1 d 3 2 d 3 2 d 3 2 d 3 1 d 4 2 d 3 2 d 3 2 d 3 2 d 3 1 d 3 2 d 3 2 d 3 2 d 3 2 d 3 2 d 3 2 d 3 2 d 3 2 d 3 2 d 3 3 d 3 2 d 4 2 d 3 2 d 3 2 d 3 3 d 3 2 d 3 2 d 3 3 d 3 2 d 3 2 d 3
 3 d 3 2 d 3 3 d 3 2 d 3 3 d 3 2 d 3 3 d s 385 540 m 4 2 d s 0.49 0.6 0.82 c black 0.49 0.6 0.82 c
 gsave  408 306 23 345 C 142.445 629.605 t 0 r /Helvetica-Bold findfont 25.6831 sf 0 0 m (5.0 < E < 5.5 GeV) show NC gr  0.52 0.76 0.64 c black 0.52 0.76 0.64 c
 gsave  408 306 23 345 C 128.2 592.569 t 0 r /Helvetica-Bold findfont 25.6831 sf 0 0 m 
 220 206 192 185 170 163 148 141 126 118 111 97 83 69 61 47 40 25 18
(A = 0.000, p = 2.000) K NC gr  1 0.6 1 c black 1 0.6 1 c
 gsave  408 306 23 345 C 427.334 458.671 t 90 r /Helvetica-Bold findfont 28.5368 sf 0 0 m (/dof=2.7) show NC gr  black 1 0.6 1 c
 gsave  408 306 23 345 C 415.938 447.276 t 90 r /Helvetica-Bold findfont 19.9758 sf 0 0 m (2) show NC gr  black 1 0.6 1 c
 gsave  408 306 23 345 C 427.334 430.182 t 90 r /Symbol findfont 28.5368 sf 0 0 m (c) show NC gr  black 3 lw 1 1 1 c 408 306 476 345 bf black 1 1 1 c black 307 229 537 391 bl 307 229 537 391 bl 537 391 m 307 X s 537 395 m -4 Y s 641 395 m -4 Y s 745
 395 m -4 Y s 745 395 m -4 Y s
 gsave  408 306 476 345 C 527.045 370.356 t 0 r /Helvetica findfont 22.8295 sf 0 0 m (0) show NC gr 
 gsave  408 306 476 345 C 621.058 370.356 t 0 r /Helvetica findfont 22.8295 sf 0 0 m (500) show NC gr 
 gsave  408 306 476 345 C 717.92 370.356 t 0 r /Helvetica findfont 22.8295 sf 0 0 m (1000) show NC gr  537 620 m 307 X s 537 616 m 4 Y s 641 616 m 4 Y s 745 616 m 4 Y s 745 616 m 4 Y s 537 391 m 229 Y s 543 391 m -6 X s 540 396 m -3 X s 540 401 m -3
 X s 540 405 m -3 X s 540 410 m -3 X s 543 415 m -6 X s 540 420 m -3 X s 540 425 m -3 X s 540 430 m -3 X s 540 435 m -3 X s 543 439 m -6 X s 540 444 m -3 X s 540 449 m -3 X s 540 454 m -3 X s 540 459 m -3 X s 543 464 m -6 X s 540 468 m -3 X s 540 473
 m -3 X s 540 478 m -3 X s 540 483 m -3 X s 543 488 m -6 X s 540 493 m -3 X s 540 497 m -3 X s 540 502 m -3 X s 540 507 m -3 X s 543 512 m -6 X s 540 517 m -3 X s 540 522 m -3 X s 540 526 m -3 X s 540 531 m -3 X s 543 536 m -6 X s 540 541 m -3 X s
 540 546 m -3 X s 540 551 m -3 X s 540 555 m -3 X s 543 560 m -6 X s 540 565 m -3 X s 540 570 m -3 X s 540 575 m -3 X s 540 580 m -3 X s 543 584 m -6 X s 540 589 m -3 X s 540 594 m -3 X s 540 599 m -3 X s 540 604 m -3 X s 543 609 m -6 X s 543 391 m
 -6 X s 543 609 m -6 X s 540 614 m -3 X s 540 618 m -3 X s
 gsave  408 306 476 345 C 481.462 384.6 t 0 r /Helvetica findfont 22.8295 sf 0 0 m (\2550.03) show NC gr 
 gsave  408 306 476 345 C 481.462 407.391 t 0 r /Helvetica findfont 22.8295 sf 0 0 m (\2550.02) show NC gr 
 gsave  408 306 476 345 C 484.311 433.031 t 0 r /Helvetica findfont 22.8295 sf 0 0 m (\2550.01) show NC gr 
 gsave  408 306 476 345 C 518.498 455.822 t 0 r /Helvetica findfont 22.8295 sf 0 0 m (0) show NC gr 
 gsave  408 306 476 345 C 490.009 481.462 t 0 r /Helvetica findfont 22.8295 sf 0 0 m (0.01) show NC gr 
 gsave  408 306 476 345 C 487.16 504.254 t 0 r /Helvetica findfont 22.8295 sf 0 0 m (0.02) show NC gr 
 gsave  408 306 476 345 C 487.16 529.894 t 0 r /Helvetica findfont 22.8295 sf 0 0 m (0.03) show NC gr 
 gsave  408 306 476 345 C 487.16 552.685 t 0 r /Helvetica findfont 22.8295 sf 0 0 m (0.04) show NC gr 
 gsave  408 306 476 345 C 487.16 578.325 t 0 r /Helvetica findfont 22.8295 sf 0 0 m (0.05) show NC gr 
 gsave  408 306 476 345 C 487.16 601.116 t 0 r /Helvetica findfont 22.8295 sf 0 0 m (0.06) show NC gr  844 391 m 229 Y s 838 391 m 6 X s 841 396 m 3 X s 841 401 m 3 X s 841 405 m 3 X s 841 410 m 3 X s 838 415 m 6 X s 841 420 m 3 X s 841 425 m 3 X s
 841 430 m 3 X s 841 435 m 3 X s 838 439 m 6 X s 841 444 m 3 X s 841 449 m 3 X s 841 454 m 3 X s 841 459 m 3 X s 838 464 m 6 X s 841 468 m 3 X s 841 473 m 3 X s 841 478 m 3 X s 841 483 m 3 X s 838 488 m 6 X s 841 493 m 3 X s 841 497 m 3 X s 841 502 m
 3 X s 841 507 m 3 X s 838 512 m 6 X s 841 517 m 3 X s 841 522 m 3 X s 841 526 m 3 X s 841 531 m 3 X s 838 536 m 6 X s 841 541 m 3 X s 841 546 m 3 X s 841 551 m 3 X s 841 555 m 3 X s 838 560 m 6 X s 841 565 m 3 X s 841 570 m 3 X s 841 575 m 3 X s 841
 580 m 3 X s 838 584 m 6 X s 841 589 m 3 X s 841 594 m 3 X s 841 599 m 3 X s 841 604 m 3 X s 838 609 m 6 X s 838 391 m 6 X s 838 609 m 6 X s 841 614 m 3 X s 841 618 m 3 X s /w 23 def /w2 {w 2 div} def /w3 {w 3 div} def 683 426 731 460 779 500 828 584
 4 { m21} R 683 438 m 5 Y s 677 443 m 11 X s 683 415 m -5 Y s 677 410 m 11 X s 731 472 m 5 Y s 725 477 m 12 X s 731 449 m -5 Y s 725 444 m 12 X s 779 511 m 6 Y s 773 517 m 12 X s 779 489 m -6 Y s 773 483 m 12 X s 828 595 m 6 Y s 822 601 m 11 X s 828
 572 m -5 Y s 822 567 m 11 X s 1 0 0 c 9 lw 0.95 0.95 0.95 c black 1 0 0 c 539 464 m 31 X 3 1 d 9 X 3 1 d 9 X 3 1 d 6 X 3 1 d 3 X 3 1 d 7 X 3 1 d 3 X 3 1 d 3 X 3 1 d 3 X 3 1 d 3 1 d 3 X 3 1 d 3 X 3 1 d 3 1 d 3 X 3 1 d 4 1 d 3 X 3 1 d 3 1 d 3 1 d 3 1
 d 3 X 3 1 d s 689 484 m 3 1 d 3 1 d 3 1 d 3 1 d 3 X 3 1 d 3 1 d 3 1 d 4 1 d 3 1 d 3 1 d 3 1 d 3 1 d 3 1 d 3 1 d 3 2 d 3 1 d 3 1 d 3 1 d 3 1 d 3 1 d 3 1 d 3 2 d 3 1 d 4 1 d 3 1 d 3 2 d 3 1 d 3 1 d 3 2 d 3 1 d 3 1 d 3 2 d 3 1 d 3 2 d 3 1 d 3 1 d 3 2 d
 3 1 d 3 2 d 4 1 d 3 2 d 3 1 d 3 2 d 3 2 d 3 1 d 3 2 d 3 1 d 3 2 d s 839 545 m 3 2 d s 0.49 0.6 0.82 c black 0.49 0.6 0.82 c
 gsave  408 306 476 345 C 595.418 629.605 t 0 r /Helvetica-Bold findfont 25.6831 sf 0 0 m (5.5 < E < 6.0 GeV) show NC gr  0.52 0.76 0.64 c black 0.52 0.76 0.64 c
 gsave  408 306 476 345 C 581.174 592.569 t 0 r /Helvetica-Bold findfont 25.6831 sf 0 0 m 
 220 206 192 185 170 163 148 141 125 118 111 97 83 68 61 47 40 25 18
(A = 0.000, p = 2.000) K NC gr  1 0.6 1 c black 1 0.6 1 c
 gsave  408 306 476 345 C 883.156 458.671 t 90 r /Helvetica-Bold findfont 28.5368 sf 0 0 m (/dof=8.2) show NC gr  black 1 0.6 1 c
 gsave  408 306 476 345 C 871.76 447.276 t 90 r /Helvetica-Bold findfont 19.9758 sf 0 0 m (2) show NC gr  black 1 0.6 1 c
 gsave  408 306 476 345 C 883.156 430.182 t 90 r /Symbol findfont 28.5368 sf 0 0 m (c) show NC gr  black 3 lw 1 1 1 c 408 306 930 345 bf black 1 1 1 c black 306 229 991 391 bl 306 229 991 391 bl 991 391 m 306 X s 991 395 m -4 Y s 1095 395 m -4 Y s
 1198 395 m -4 Y s 1198 395 m -4 Y s
 gsave  408 306 930 345 C 980.018 370.356 t 0 r /Helvetica findfont 22.8295 sf 0 0 m (0) show NC gr 
 gsave  408 306 930 345 C 1074.03 370.356 t 0 r /Helvetica findfont 22.8295 sf 0 0 m (500) show NC gr 
 gsave  408 306 930 345 C 1170.89 370.356 t 0 r /Helvetica findfont 22.8295 sf 0 0 m (1000) show NC gr  991 620 m 306 X s 991 616 m 4 Y s 1095 616 m 4 Y s 1198 616 m 4 Y s 1198 616 m 4 Y s 991 391 m 229 Y s 997 398 m -6 X s 994 403 m -3 X s 994 408 m
 -3 X s 994 413 m -3 X s 994 418 m -3 X s 997 423 m -6 X s 994 428 m -3 X s 994 433 m -3 X s 994 438 m -3 X s 994 443 m -3 X s 997 448 m -6 X s 994 453 m -3 X s 994 458 m -3 X s 994 463 m -3 X s 994 468 m -3 X s 997 473 m -6 X s 994 478 m -3 X s 994
 483 m -3 X s 994 488 m -3 X s 994 493 m -3 X s 997 498 m -6 X s 994 503 m -3 X s 994 509 m -3 X s 994 514 m -3 X s 994 519 m -3 X s 997 524 m -6 X s 994 529 m -3 X s 994 534 m -3 X s 994 539 m -3 X s 994 544 m -3 X s 997 549 m -6 X s 994 554 m -3 X
 s 994 559 m -3 X s 994 564 m -3 X s 994 569 m -3 X s 997 574 m -6 X s 994 579 m -3 X s 994 584 m -3 X s 994 589 m -3 X s 994 594 m -3 X s 997 599 m -6 X s 997 398 m -6 X s 994 393 m -3 X s 997 599 m -6 X s 994 604 m -3 X s 994 609 m -3 X s 994 614 m
 -3 X s 994 619 m -3 X s
 gsave  408 306 930 345 C 940.134 390.298 t 0 r /Helvetica findfont 22.8295 sf 0 0 m (\2550.01) show NC gr 
 gsave  408 306 930 345 C 974.32 415.938 t 0 r /Helvetica findfont 22.8295 sf 0 0 m (0) show NC gr 
 gsave  408 306 930 345 C 945.832 441.578 t 0 r /Helvetica findfont 22.8295 sf 0 0 m (0.01) show NC gr 
 gsave  408 306 930 345 C 942.983 467.218 t 0 r /Helvetica findfont 22.8295 sf 0 0 m (0.02) show NC gr 
 gsave  408 306 930 345 C 942.983 490.009 t 0 r /Helvetica findfont 22.8295 sf 0 0 m (0.03) show NC gr 
 gsave  408 306 930 345 C 942.983 515.649 t 0 r /Helvetica findfont 22.8295 sf 0 0 m (0.04) show NC gr 
 gsave  408 306 930 345 C 942.983 541.289 t 0 r /Helvetica findfont 22.8295 sf 0 0 m (0.05) show NC gr 
 gsave  408 306 930 345 C 942.983 566.929 t 0 r /Helvetica findfont 22.8295 sf 0 0 m (0.06) show NC gr 
 gsave  408 306 930 345 C 942.983 592.569 t 0 r /Helvetica findfont 22.8295 sf 0 0 m (0.07) show NC gr  1297 391 m 229 Y s 1292 398 m 5 X s 1294 403 m 3 X s 1294 408 m 3 X s 1294 413 m 3 X s 1294 418 m 3 X s 1292 423 m 5 X s 1294 428 m 3 X s 1294 433
 m 3 X s 1294 438 m 3 X s 1294 443 m 3 X s 1292 448 m 5 X s 1294 453 m 3 X s 1294 458 m 3 X s 1294 463 m 3 X s 1294 468 m 3 X s 1292 473 m 5 X s 1294 478 m 3 X s 1294 483 m 3 X s 1294 488 m 3 X s 1294 493 m 3 X s 1292 498 m 5 X s 1294 503 m 3 X s
 1294 509 m 3 X s 1294 514 m 3 X s 1294 519 m 3 X s 1292 524 m 5 X s 1294 529 m 3 X s 1294 534 m 3 X s 1294 539 m 3 X s 1294 544 m 3 X s 1292 549 m 5 X s 1294 554 m 3 X s 1294 559 m 3 X s 1294 564 m 3 X s 1294 569 m 3 X s 1292 574 m 5 X s 1294 579 m
 3 X s 1294 584 m 3 X s 1294 589 m 3 X s 1294 594 m 3 X s 1292 599 m 5 X s 1292 398 m 5 X s 1294 393 m 3 X s 1292 599 m 5 X s 1294 604 m 3 X s 1294 609 m 3 X s 1294 614 m 3 X s 1294 619 m 3 X s 1136 453 1184 431 1233 478 1281 579 4 { m21} R 1136 465
 m 9 Y s 1130 474 m 12 X s 1136 442 m -9 Y s 1130 433 m 12 X s 1184 442 m 9 Y s 1179 451 m 11 X s 1184 419 m -9 Y s 1179 410 m 11 X s 1233 490 m 9 Y s 1227 499 m 11 X s 1233 467 m -10 Y s 1227 457 m 11 X s 1281 591 m 10 Y s 1275 601 m 12 X s 1281 568
 m -10 Y s 1275 558 m 12 X s 1 0 0 c 9 lw 0.95 0.95 0.95 c black 1 0 0 c 993 423 m 21 X 3 1 d 9 X 3 1 d 3 X 3 1 d 7 X 3 1 d 3 X 3 1 d 3 X 3 1 d 3 X 3 1 d 3 1 d 3 X 3 1 d 3 1 d 3 X 3 1 d 3 1 d 3 1 d 3 1 d 4 X 3 1 d 3 1 d 3 1 d 3 1 d 3 1 d 3 1 d 3 1 d
 3 1 d 3 1 d 3 1 d 3 2 d 3 1 d 3 1 d 3 1 d 3 1 d 4 2 d s 1143 455 m 3 1 d 3 1 d 3 2 d 3 1 d 3 2 d 3 1 d 3 1 d 3 2 d 3 1 d 3 2 d 3 2 d 3 1 d 3 2 d 3 1 d 3 2 d 4 2 d 3 1 d 3 2 d 3 2 d 3 2 d 3 2 d 3 1 d 3 2 d 3 2 d 3 2 d 3 2 d 3 2 d 3 2 d 3 2 d 3 2 d 3
 2 d 3 2 d 4 3 d 3 2 d 3 2 d 3 2 d 3 2 d 3 3 d 3 2 d 3 2 d 3 3 d 3 2 d 3 2 d 3 3 d 3 2 d 3 3 d 3 2 d 3 3 d 4 2 d s 1293 549 m 3 3 d s 0.49 0.6 0.82 c black 0.49 0.6 0.82 c
 gsave  408 306 930 345 C 1051.24 629.605 t 0 r /Helvetica-Bold findfont 25.6831 sf 0 0 m (6.0 < E < 6.5 GeV) show NC gr  0.52 0.76 0.64 c black 0.52 0.76 0.64 c
 gsave  408 306 930 345 C 1037 592.569 t 0 r /Helvetica-Bold findfont 25.6831 sf 0 0 m 
 220 206 192 185 170 163 148 141 125 118 111 97 83 69 61 47 40 25 18
(A = 0.000, p = 2.000) K NC gr  1 0.6 1 c black 1 0.6 1 c
 gsave  408 306 930 345 C 1336.13 458.671 t 90 r /Helvetica-Bold findfont 28.5368 sf 0 0 m (/dof=3.2) show NC gr  black 1 0.6 1 c
 gsave  408 306 930 345 C 1324.73 447.276 t 90 r /Helvetica-Bold findfont 19.9758 sf 0 0 m (2) show NC gr  black 1 0.6 1 c
 gsave  408 306 930 345 C 1336.13 430.182 t 90 r /Symbol findfont 28.5368 sf 0 0 m (c) show NC gr  black 3 lw 1 1 1 c 408 306 1383 345 bf black 1 1 1 c black 306 229 1445 391 bl 306 229 1445 391 bl 1445 391 m 306 X s 1445 395 m -4 Y s 1548 395 m -4 Y
 s 1652 395 m -4 Y s 1652 395 m -4 Y s
 gsave  408 306 1383 345 C 1435.84 370.356 t 0 r /Helvetica findfont 22.8295 sf 0 0 m (0) show NC gr 
 gsave  408 306 1383 345 C 1527.01 370.356 t 0 r /Helvetica findfont 22.8295 sf 0 0 m (500) show NC gr 
 gsave  408 306 1383 345 C 1623.87 370.356 t 0 r /Helvetica findfont 22.8295 sf 0 0 m (1000) show NC gr  1445 620 m 306 X s 1445 616 m 4 Y s 1548 616 m 4 Y s 1652 616 m 4 Y s 1652 616 m 4 Y s 1445 391 m 229 Y s 1450 401 m -5 X s 1447 406 m -2 X s
 1447 410 m -2 X s 1447 415 m -2 X s 1447 420 m -2 X s 1450 425 m -5 X s 1447 430 m -2 X s 1447 435 m -2 X s 1447 440 m -2 X s 1447 445 m -2 X s 1450 450 m -5 X s 1447 454 m -2 X s 1447 459 m -2 X s 1447 464 m -2 X s 1447 469 m -2 X s 1450 474 m -5 X
 s 1447 479 m -2 X s 1447 484 m -2 X s 1447 489 m -2 X s 1447 494 m -2 X s 1450 498 m -5 X s 1447 503 m -2 X s 1447 508 m -2 X s 1447 513 m -2 X s 1447 518 m -2 X s 1450 523 m -5 X s 1447 528 m -2 X s 1447 533 m -2 X s 1447 538 m -2 X s 1447 542 m -2
 X s 1450 547 m -5 X s 1447 552 m -2 X s 1447 557 m -2 X s 1447 562 m -2 X s 1447 567 m -2 X s 1450 572 m -5 X s 1447 577 m -2 X s 1447 582 m -2 X s 1447 586 m -2 X s 1447 591 m -2 X s 1450 596 m -5 X s 1450 401 m -5 X s 1447 396 m -2 X s 1450 596 m
 -5 X s 1447 601 m -2 X s 1447 606 m -2 X s 1447 611 m -2 X s 1447 616 m -2 X s
 gsave  408 306 1383 345 C 1390.26 393.147 t 0 r /Helvetica findfont 22.8295 sf 0 0 m (\2550.02) show NC gr 
 gsave  408 306 1383 345 C 1393.11 418.787 t 0 r /Helvetica findfont 22.8295 sf 0 0 m (\2550.01) show NC gr 
 gsave  408 306 1383 345 C 1427.29 441.578 t 0 r /Helvetica findfont 22.8295 sf 0 0 m (0) show NC gr 
 gsave  408 306 1383 345 C 1398.81 467.218 t 0 r /Helvetica findfont 22.8295 sf 0 0 m (0.01) show NC gr 
 gsave  408 306 1383 345 C 1395.96 490.009 t 0 r /Helvetica findfont 22.8295 sf 0 0 m (0.02) show NC gr 
 gsave  408 306 1383 345 C 1395.96 515.649 t 0 r /Helvetica findfont 22.8295 sf 0 0 m (0.03) show NC gr 
 gsave  408 306 1383 345 C 1395.96 541.289 t 0 r /Helvetica findfont 22.8295 sf 0 0 m (0.04) show NC gr 
 gsave  408 306 1383 345 C 1395.96 564.08 t 0 r /Helvetica findfont 22.8295 sf 0 0 m (0.05) show NC gr 
 gsave  408 306 1383 345 C 1395.96 589.72 t 0 r /Helvetica findfont 22.8295 sf 0 0 m (0.06) show NC gr  1751 391 m 229 Y s 1745 401 m 6 X s 1748 406 m 3 X s 1748 410 m 3 X s 1748 415 m 3 X s 1748 420 m 3 X s 1745 425 m 6 X s 1748 430 m 3 X s 1748 435
 m 3 X s 1748 440 m 3 X s 1748 445 m 3 X s 1745 450 m 6 X s 1748 454 m 3 X s 1748 459 m 3 X s 1748 464 m 3 X s 1748 469 m 3 X s 1745 474 m 6 X s 1748 479 m 3 X s 1748 484 m 3 X s 1748 489 m 3 X s 1748 494 m 3 X s 1745 498 m 6 X s 1748 503 m 3 X s
 1748 508 m 3 X s 1748 513 m 3 X s 1748 518 m 3 X s 1745 523 m 6 X s 1748 528 m 3 X s 1748 533 m 3 X s 1748 538 m 3 X s 1748 542 m 3 X s 1745 547 m 6 X s 1748 552 m 3 X s 1748 557 m 3 X s 1748 562 m 3 X s 1748 567 m 3 X s 1745 572 m 6 X s 1748 577 m
 3 X s 1748 582 m 3 X s 1748 586 m 3 X s 1748 591 m 3 X s 1745 596 m 6 X s 1745 401 m 6 X s 1748 396 m 3 X s 1745 596 m 6 X s 1748 601 m 3 X s 1748 606 m 3 X s 1748 611 m 3 X s 1748 616 m 3 X s 1590 474 1638 433 1686 482 1735 577 4 { m21} R 1590 485
 m 12 Y s 1584 497 m 11 X s 1590 463 m -12 Y s 1584 451 m 11 X s 1638 444 m 11 Y s 1632 455 m 12 X s 1638 421 m -11 Y s 1632 410 m 12 X s 1686 494 m 11 Y s 1681 505 m 11 X s 1686 471 m -12 Y s 1681 459 m 11 X s 1735 589 m 12 Y s 1729 601 m 11 X s
 1735 566 m -12 Y s 1729 554 m 11 X s 1 0 0 c 9 lw 0.95 0.95 0.95 c black 1 0 0 c 1446 450 m 28 X 3 1 d 9 X 3 1 d 9 X 3 1 d 3 X 3 1 d 6 X 3 1 d 4 X 3 1 d 3 X 3 1 d 3 X 3 1 d 3 X 3 1 d 3 X 3 1 d 3 1 d 3 X 3 1 d 3 1 d 3 X 3 1 d 4 1 d 3 1 d 3 1 d 3 X 3
 1 d 3 1 d 3 1 d 3 1 d 3 1 d 3 1 d s 1596 473 m 3 1 d 3 X 3 1 d 3 1 d 3 1 d 3 2 d 4 1 d 3 1 d 3 1 d 3 1 d 3 1 d 3 1 d 3 1 d 3 1 d 3 2 d 3 1 d 3 1 d 3 1 d 3 2 d 3 1 d 3 1 d 3 2 d 3 1 d 4 1 d 3 2 d 3 1 d 3 2 d 3 1 d 3 1 d 3 2 d 3 1 d 3 2 d 3 2 d 3 1 d
 3 2 d 3 1 d 3 2 d 3 1 d 3 2 d 4 2 d 3 2 d 3 1 d 3 2 d 3 2 d 3 1 d 3 2 d 3 2 d 3 2 d 3 2 d s 1746 541 m 3 2 d s 0.49 0.6 0.82 c black 0.49 0.6 0.82 c
 gsave  408 306 1383 345 C 1504.21 629.605 t 0 r /Helvetica-Bold findfont 25.6831 sf 0 0 m (6.5 < E < 7.0 GeV) show NC gr  0.52 0.76 0.64 c black 0.52 0.76 0.64 c
 gsave  408 306 1383 345 C 1489.97 592.569 t 0 r /Helvetica-Bold findfont 25.6831 sf 0 0 m 
 220 206 192 185 170 163 148 141 126 118 111 97 83 69 61 47 40 25 18
(A = 0.000, p = 2.000) K NC gr  1 0.6 1 c black 1 0.6 1 c
 gsave  408 306 1383 345 C 1789.1 458.671 t 90 r /Helvetica-Bold findfont 28.5368 sf 0 0 m (/dof=3.5) show NC gr  black 1 0.6 1 c
 gsave  408 306 1383 345 C 1777.71 447.276 t 90 r /Helvetica-Bold findfont 19.9758 sf 0 0 m (2) show NC gr  black 1 0.6 1 c
 gsave  408 306 1383 345 C 1789.1 430.182 t 90 r /Symbol findfont 28.5368 sf 0 0 m (c) show NC gr  black 3 lw 1 1 1 c 408 306 1837 345 bf black 1 1 1 c black 306 229 1898 391 bl 306 229 1898 391 bl 1898 391 m 306 X s 1898 395 m -4 Y s 2002 395 m -4 Y
 s 2105 395 m -4 Y s 2105 395 m -4 Y s
 gsave  408 306 1837 345 C 1888.81 370.356 t 0 r /Helvetica findfont 22.8295 sf 0 0 m (0) show NC gr 
 gsave  408 306 1837 345 C 1979.98 370.356 t 0 r /Helvetica findfont 22.8295 sf 0 0 m (500) show NC gr 
 gsave  408 306 1837 345 C 2079.69 370.356 t 0 r /Helvetica findfont 22.8295 sf 0 0 m (1000) show NC gr  1898 620 m 306 X s 1898 616 m 4 Y s 2002 616 m 4 Y s 2105 616 m 4 Y s 2105 616 m 4 Y s 1898 391 m 229 Y s 1904 394 m -6 X s 1901 400 m -3 X s
 1901 406 m -3 X s 1901 412 m -3 X s 1901 418 m -3 X s 1904 424 m -6 X s 1901 430 m -3 X s 1901 436 m -3 X s 1901 442 m -3 X s 1901 448 m -3 X s 1904 454 m -6 X s 1901 461 m -3 X s 1901 467 m -3 X s 1901 473 m -3 X s 1901 479 m -3 X s 1904 485 m -6 X
 s 1901 491 m -3 X s 1901 497 m -3 X s 1901 503 m -3 X s 1901 509 m -3 X s 1904 515 m -6 X s 1901 521 m -3 X s 1901 528 m -3 X s 1901 534 m -3 X s 1901 540 m -3 X s 1904 546 m -6 X s 1901 552 m -3 X s 1901 558 m -3 X s 1901 564 m -3 X s 1901 570 m -3
 X s 1904 576 m -6 X s 1901 582 m -3 X s 1901 589 m -3 X s 1901 595 m -3 X s 1901 601 m -3 X s 1904 607 m -6 X s 1904 394 m -6 X s 1904 607 m -6 X s 1901 613 m -3 X s 1901 619 m -3 X s
 gsave  408 306 1837 345 C 1843.23 387.449 t 0 r /Helvetica findfont 22.8295 sf 0 0 m (\2550.02) show NC gr 
 gsave  408 306 1837 345 C 1846.08 415.938 t 0 r /Helvetica findfont 22.8295 sf 0 0 m (\2550.01) show NC gr 
 gsave  408 306 1837 345 C 1880.27 447.276 t 0 r /Helvetica findfont 22.8295 sf 0 0 m (0) show NC gr 
 gsave  408 306 1837 345 C 1851.78 478.614 t 0 r /Helvetica findfont 22.8295 sf 0 0 m (0.01) show NC gr 
 gsave  408 306 1837 345 C 1848.93 507.102 t 0 r /Helvetica findfont 22.8295 sf 0 0 m (0.02) show NC gr 
 gsave  408 306 1837 345 C 1848.93 538.44 t 0 r /Helvetica findfont 22.8295 sf 0 0 m (0.03) show NC gr 
 gsave  408 306 1837 345 C 1848.93 569.778 t 0 r /Helvetica findfont 22.8295 sf 0 0 m (0.04) show NC gr 
 gsave  408 306 1837 345 C 1848.93 598.267 t 0 r /Helvetica findfont 22.8295 sf 0 0 m (0.05) show NC gr  2204 391 m 229 Y s 2199 394 m 5 X s 2201 400 m 3 X s 2201 406 m 3 X s 2201 412 m 3 X s 2201 418 m 3 X s 2199 424 m 5 X s 2201 430 m 3 X s 2201
 436 m 3 X s 2201 442 m 3 X s 2201 448 m 3 X s 2199 454 m 5 X s 2201 461 m 3 X s 2201 467 m 3 X s 2201 473 m 3 X s 2201 479 m 3 X s 2199 485 m 5 X s 2201 491 m 3 X s 2201 497 m 3 X s 2201 503 m 3 X s 2201 509 m 3 X s 2199 515 m 5 X s 2201 521 m 3 X s
 2201 528 m 3 X s 2201 534 m 3 X s 2201 540 m 3 X s 2199 546 m 5 X s 2201 552 m 3 X s 2201 558 m 3 X s 2201 564 m 3 X s 2201 570 m 3 X s 2199 576 m 5 X s 2201 582 m 3 X s 2201 589 m 3 X s 2201 595 m 3 X s 2201 601 m 3 X s 2199 607 m 5 X s 2199 394 m
 5 X s 2199 607 m 5 X s 2201 613 m 3 X s 2201 619 m 3 X s 2043 442 2091 497 2140 474 2188 569 4 { m21} R 2043 453 m 20 Y s 2037 473 m 12 X s 2043 430 m -20 Y s 2037 410 m 12 X s 2091 508 m 21 Y s 2086 529 m 11 X s 2091 485 m -20 Y s 2086 465 m 11 X s
 2140 486 m 20 Y s 2134 506 m 11 X s 2140 463 m -20 Y s 2134 443 m 11 X s 2188 580 m 21 Y s 2183 601 m 11 X s 2188 557 m -20 Y s 2183 537 m 11 X s 1 0 0 c 9 lw 0.95 0.95 0.95 c black 1 0 0 c 1900 454 m 3 X 3 1 d 24 X 3 1 d 9 X 4 1 d 6 X 3 1 d 6 X 3 1
 d 3 X 3 1 d 6 X 3 1 d 3 X 3 1 d 3 X 3 1 d 4 1 d 3 X 3 1 d 3 X 3 1 d 3 1 d 3 X 3 1 d 3 1 d 3 X 3 1 d 3 1 d 3 1 d 3 1 d 3 X 3 1 d 3 1 d 4 1 d 3 1 d s 2050 477 m 3 1 d 3 1 d 3 1 d 3 1 d 3 1 d 3 1 d 3 1 d 3 1 d 3 1 d 3 1 d 3 1 d 3 1 d 3 1 d 3 1 d 4 1 d
 3 2 d 3 1 d 3 1 d 3 1 d 3 2 d 3 1 d 3 1 d 3 1 d 3 2 d 3 1 d 3 1 d 3 2 d 3 1 d 3 2 d 3 1 d 4 2 d 3 1 d 3 2 d 3 1 d 3 2 d 3 1 d 3 2 d 3 1 d 3 2 d 3 2 d 3 1 d 3 2 d 3 2 d 3 1 d 3 2 d 3 2 d 4 1 d 3 2 d 3 2 d s 2200 543 m 3 2 d s 0.49 0.6 0.82 c black
 0.49 0.6 0.82 c
 gsave  408 306 1837 345 C 1957.19 629.605 t 0 r /Helvetica-Bold findfont 25.6831 sf 0 0 m (7.0 < E < 7.5 GeV) show NC gr  0.52 0.76 0.64 c black 0.52 0.76 0.64 c
 gsave  408 306 1837 345 C 1942.94 592.569 t 0 r /Helvetica-Bold findfont 25.6831 sf 0 0 m 
 220 206 192 185 170 163 148 141 125 118 111 97 83 69 61 47 40 25 18
(A = 0.000, p = 2.000) K NC gr  1 0.6 1 c black 1 0.6 1 c
 gsave  408 306 1837 345 C 2242.08 458.671 t 90 r /Helvetica-Bold findfont 28.5368 sf 0 0 m (/dof=1.2) show NC gr  black 1 0.6 1 c
 gsave  408 306 1837 345 C 2230.68 447.276 t 90 r /Helvetica-Bold findfont 19.9758 sf 0 0 m (2) show NC gr  black 1 0.6 1 c
 gsave  408 306 1837 345 C 2242.08 430.182 t 90 r /Symbol findfont 28.5368 sf 0 0 m (c) show NC gr  black 3 lw 1 1 1 c 408 306 23 13 bf black 1 1 1 c black 306 229 84 59 bl 306 229 84 59 bl 84 59 m 306 X s 84 63 m -4 Y s 188 63 m -4 Y s 291 63 m -4 Y
 s 291 63 m -4 Y s
 gsave  408 306 23 13 C 74.0711 39.8845 t 0 r /Helvetica findfont 22.8295 sf 0 0 m (0) show NC gr 
 gsave  408 306 23 13 C 165.236 39.8845 t 0 r /Helvetica findfont 22.8295 sf 0 0 m (500) show NC gr 
 gsave  408 306 23 13 C 264.947 39.8845 t 0 r /Helvetica findfont 22.8295 sf 0 0 m (1000) show NC gr  84 288 m 306 X s 84 284 m 4 Y s 188 284 m 4 Y s 291 284 m 4 Y s 291 284 m 4 Y s 84 59 m 229 Y s 89 89 m -5 X s 87 96 m -3 X s 87 104 m -3 X s 87 111
 m -3 X s 87 118 m -3 X s 89 126 m -5 X s 87 133 m -3 X s 87 141 m -3 X s 87 148 m -3 X s 87 155 m -3 X s 89 163 m -5 X s 87 170 m -3 X s 87 178 m -3 X s 87 185 m -3 X s 87 192 m -3 X s 89 200 m -5 X s 87 207 m -3 X s 87 215 m -3 X s 87 222 m -3 X s
 87 229 m -3 X s 89 237 m -5 X s 87 244 m -3 X s 87 252 m -3 X s 87 259 m -3 X s 87 266 m -3 X s 89 274 m -5 X s 89 89 m -5 X s 87 81 m -3 X s 87 74 m -3 X s 87 67 m -3 X s 87 59 m -3 X s 89 274 m -5 X s 87 281 m -3 X s
 gsave  408 306 23 13 C 31.3378 82.6178 t 0 r /Helvetica findfont 22.8295 sf 0 0 m (\2550.01) show NC gr 
 gsave  408 306 23 13 C 65.5245 119.653 t 0 r /Helvetica findfont 22.8295 sf 0 0 m (0) show NC gr 
 gsave  408 306 23 13 C 37.0356 156.689 t 0 r /Helvetica findfont 22.8295 sf 0 0 m (0.01) show NC gr 
 gsave  408 306 23 13 C 34.1867 193.725 t 0 r /Helvetica findfont 22.8295 sf 0 0 m (0.02) show NC gr 
 gsave  408 306 23 13 C 34.1867 230.76 t 0 r /Helvetica findfont 22.8295 sf 0 0 m (0.03) show NC gr 
 gsave  408 306 23 13 C 34.1867 267.796 t 0 r /Helvetica findfont 22.8295 sf 0 0 m (0.04) show NC gr  390 59 m 229 Y s 385 89 m 5 X s 387 96 m 3 X s 387 104 m 3 X s 387 111 m 3 X s 387 118 m 3 X s 385 126 m 5 X s 387 133 m 3 X s 387 141 m 3 X s 387
 148 m 3 X s 387 155 m 3 X s 385 163 m 5 X s 387 170 m 3 X s 387 178 m 3 X s 387 185 m 3 X s 387 192 m 3 X s 385 200 m 5 X s 387 207 m 3 X s 387 215 m 3 X s 387 222 m 3 X s 387 229 m 3 X s 385 237 m 5 X s 387 244 m 3 X s 387 252 m 3 X s 387 259 m 3 X
 s 387 266 m 3 X s 385 274 m 5 X s 385 89 m 5 X s 387 81 m 3 X s 387 74 m 3 X s 387 67 m 3 X s 387 59 m 3 X s 385 274 m 5 X s 387 281 m 3 X s /w 22 def /w2 {w 2 div} def /w3 {w 3 div} def 229 120 277 169 326 226 374 225 4 { m21} R 229 131 m 31 Y s
 223 162 m 12 X s 229 109 m -31 Y s 223 78 m 12 X s 277 180 m 31 Y s 272 211 m 11 X s 277 158 m -31 Y s 272 127 m 11 X s 326 238 m 31 Y s 320 269 m 11 X s 326 215 m -31 Y s 320 184 m 11 X s 374 237 m 30 Y s 368 267 m 12 X s 374 214 m -30 Y s 368 184
 m 12 X s 1 0 0 c 9 lw 0.95 0.95 0.95 c black 1 0 0 c 85 126 m 22 X 3 1 d 9 X 3 1 d 6 X 3 1 d 6 X 4 1 d 3 X 3 1 d 3 X 3 1 d 3 X 3 1 d 3 1 d 3 X 3 1 d 3 X 3 1 d 3 1 d 3 1 d 3 X 3 1 d 4 1 d 3 1 d 3 1 d 3 1 d 3 X 3 1 d 3 1 d 3 1 d 3 1 d 3 1 d 3 1 d 3 1
 d 3 2 d 3 1 d 3 1 d 3 1 d s 235 155 m 4 1 d 3 1 d 3 2 d 3 1 d 3 1 d 3 1 d 3 2 d 3 1 d 3 2 d 3 1 d 3 1 d 3 2 d 3 1 d 3 2 d 3 1 d 3 2 d 3 1 d 4 2 d 3 2 d 3 1 d 3 2 d 3 2 d 3 1 d 3 2 d 3 2 d 3 2 d 3 2 d 3 1 d 3 2 d 3 2 d 3 2 d 3 2 d 3 2 d 4 2 d 3 2 d 3
 2 d 3 2 d 3 2 d 3 2 d 3 2 d 3 2 d 3 3 d 3 2 d 3 2 d 3 2 d 3 2 d 3 3 d 3 2 d 3 2 d s 385 241 m 4 3 d s 0.49 0.6 0.82 c black 0.49 0.6 0.82 c
 gsave  408 306 23 13 C 142.445 296.285 t 0 r /Helvetica-Bold findfont 25.6831 sf 0 0 m (7.5 < E < 8.0 GeV) show NC gr  0.52 0.76 0.64 c black 0.52 0.76 0.64 c
 gsave  408 306 23 13 C 128.2 259.249 t 0 r /Helvetica-Bold findfont 25.6831 sf 0 0 m 
 220 206 192 185 170 163 148 141 126 118 111 97 83 69 61 47 40 25 18
(A = 0.000, p = 2.000) K NC gr  1 0.6 1 c black 1 0.6 1 c
 gsave  408 306 23 13 C 427.334 128.2 t 90 r /Helvetica-Bold findfont 28.5368 sf 0 0 m (/dof=0.3) show NC gr  black 1 0.6 1 c
 gsave  408 306 23 13 C 415.938 116.804 t 90 r /Helvetica-Bold findfont 19.9758 sf 0 0 m (2) show NC gr  black 1 0.6 1 c
 gsave  408 306 23 13 C 427.334 99.7112 t 90 r /Symbol findfont 28.5368 sf 0 0 m (c) show NC gr  black 3 lw 1 1 1 c 408 306 476 13 bf black 1 1 1 c black 307 229 537 59 bl 307 229 537 59 bl 537 59 m 307 X s 537 63 m -4 Y s 641 63 m -4 Y s 745 63 m -4
 Y s 745 63 m -4 Y s
 gsave  408 306 476 13 C 527.045 39.8845 t 0 r /Helvetica findfont 22.8295 sf 0 0 m (0) show NC gr 
 gsave  408 306 476 13 C 621.058 39.8845 t 0 r /Helvetica findfont 22.8295 sf 0 0 m (500) show NC gr 
 gsave  408 306 476 13 C 717.92 39.8845 t 0 r /Helvetica findfont 22.8295 sf 0 0 m (1000) show NC gr  537 288 m 307 X s 537 284 m 4 Y s 641 284 m 4 Y s 745 284 m 4 Y s 745 284 m 4 Y s 537 59 m 229 Y s 543 85 m -6 X s 540 91 m -3 X s 540 96 m -3 X s
 540 102 m -3 X s 540 107 m -3 X s 543 113 m -6 X s 540 119 m -3 X s 540 124 m -3 X s 540 130 m -3 X s 540 135 m -3 X s 543 141 m -6 X s 540 146 m -3 X s 540 152 m -3 X s 540 158 m -3 X s 540 163 m -3 X s 543 169 m -6 X s 540 174 m -3 X s 540 180 m
 -3 X s 540 186 m -3 X s 540 191 m -3 X s 543 197 m -6 X s 540 202 m -3 X s 540 208 m -3 X s 540 213 m -3 X s 540 219 m -3 X s 543 225 m -6 X s 540 230 m -3 X s 540 236 m -3 X s 540 241 m -3 X s 540 247 m -3 X s 543 253 m -6 X s 540 258 m -3 X s 540
 264 m -3 X s 540 269 m -3 X s 540 275 m -3 X s 543 280 m -6 X s 543 85 m -6 X s 540 79 m -3 X s 540 74 m -3 X s 540 68 m -3 X s 540 63 m -3 X s 543 280 m -6 X s 540 286 m -3 X s
 gsave  408 306 476 13 C 481.462 76.92 t 0 r /Helvetica findfont 22.8295 sf 0 0 m (\2550.02) show NC gr 
 gsave  408 306 476 13 C 484.311 105.409 t 0 r /Helvetica findfont 22.8295 sf 0 0 m (\2550.01) show NC gr 
 gsave  408 306 476 13 C 518.498 133.898 t 0 r /Helvetica findfont 22.8295 sf 0 0 m (0) show NC gr 
 gsave  408 306 476 13 C 490.009 162.387 t 0 r /Helvetica findfont 22.8295 sf 0 0 m (0.01) show NC gr 
 gsave  408 306 476 13 C 487.16 190.876 t 0 r /Helvetica findfont 22.8295 sf 0 0 m (0.02) show NC gr 
 gsave  408 306 476 13 C 487.16 216.516 t 0 r /Helvetica findfont 22.8295 sf 0 0 m (0.03) show NC gr 
 gsave  408 306 476 13 C 487.16 245.005 t 0 r /Helvetica findfont 22.8295 sf 0 0 m (0.04) show NC gr 
 gsave  408 306 476 13 C 487.16 273.493 t 0 r /Helvetica findfont 22.8295 sf 0 0 m (0.05) show NC gr  844 59 m 229 Y s 838 85 m 6 X s 841 91 m 3 X s 841 96 m 3 X s 841 102 m 3 X s 841 107 m 3 X s 838 113 m 6 X s 841 119 m 3 X s 841 124 m 3 X s 841
 130 m 3 X s 841 135 m 3 X s 838 141 m 6 X s 841 146 m 3 X s 841 152 m 3 X s 841 158 m 3 X s 841 163 m 3 X s 838 169 m 6 X s 841 174 m 3 X s 841 180 m 3 X s 841 186 m 3 X s 841 191 m 3 X s 838 197 m 6 X s 841 202 m 3 X s 841 208 m 3 X s 841 213 m 3 X
 s 841 219 m 3 X s 838 225 m 6 X s 841 230 m 3 X s 841 236 m 3 X s 841 241 m 3 X s 841 247 m 3 X s 838 253 m 6 X s 841 258 m 3 X s 841 264 m 3 X s 841 269 m 3 X s 841 275 m 3 X s 838 280 m 6 X s 838 85 m 6 X s 841 79 m 3 X s 841 74 m 3 X s 841 68 m 3
 X s 841 63 m 3 X s 838 280 m 6 X s 841 286 m 3 X s /w 23 def /w2 {w 2 div} def /w3 {w 3 div} def 683 142 731 134 779 112 828 235 4 { m21} R 683 154 m 22 Y s 677 176 m 11 X s 683 131 m -23 Y s 677 108 m 11 X s 731 145 m 23 Y s 725 168 m 12 X s 731
 122 m -22 Y s 725 100 m 12 X s 779 123 m 22 Y s 773 145 m 12 X s 779 100 m -22 Y s 773 78 m 12 X s 828 246 m 23 Y s 822 269 m 11 X s 828 224 m -23 Y s 822 201 m 11 X s 1 0 0 c 9 lw 0.95 0.95 0.95 c black 1 0 0 c 539 141 m 34 X 3 1 d 18 X 3 1 d 12 X
 3 1 d 13 X 3 1 d 6 X 3 1 d 9 X 3 1 d 6 X 3 1 d 6 X 4 1 d 3 X 3 1 d 6 X 3 1 d 3 X 3 1 d s 689 152 m 3 X 3 1 d 3 X 3 1 d 6 X 3 1 d 3 X 4 1 d 3 1 d 3 X 3 1 d 3 X 3 1 d 3 X 3 1 d 3 X 3 1 d 3 1 d 3 X 3 1 d 3 X 3 1 d 3 1 d 4 X 3 1 d 3 1 d 3 X 3 1 d 3 1 d
 3 X 3 1 d 3 1 d 3 1 d 3 X 3 1 d 3 1 d 3 1 d 3 X 3 1 d 4 1 d 3 1 d 3 1 d 3 X 3 1 d 3 1 d 3 1 d 3 1 d 3 1 d s 839 184 m 3 1 d s 0.49 0.6 0.82 c black 0.49 0.6 0.82 c
 gsave  408 306 476 13 C 595.418 296.285 t 0 r /Helvetica-Bold findfont 25.6831 sf 0 0 m (8.0 < E < 8.5 GeV) show NC gr  0.52 0.76 0.64 c black 0.52 0.76 0.64 c
 gsave  408 306 476 13 C 581.174 259.249 t 0 r /Helvetica-Bold findfont 25.6831 sf 0 0 m 
 220 206 192 185 170 163 148 141 125 118 111 97 83 68 61 47 40 25 18
(A = 0.000, p = 2.000) K NC gr  1 0.6 1 c black 1 0.6 1 c
 gsave  408 306 476 13 C 883.156 128.2 t 90 r /Helvetica-Bold findfont 28.5368 sf 0 0 m (/dof=2.0) show NC gr  black 1 0.6 1 c
 gsave  408 306 476 13 C 871.76 116.804 t 90 r /Helvetica-Bold findfont 19.9758 sf 0 0 m (2) show NC gr  black 1 0.6 1 c
 gsave  408 306 476 13 C 883.156 99.7112 t 90 r /Symbol findfont 28.5368 sf 0 0 m (c) show NC gr  black 3 lw 1 1 1 c 408 306 930 13 bf black 1 1 1 c black 306 229 991 59 bl 306 229 991 59 bl 991 59 m 306 X s 991 63 m -4 Y s 1095 63 m -4 Y s 1198 63 m
 -4 Y s 1198 63 m -4 Y s
 gsave  408 306 930 13 C 980.018 39.8845 t 0 r /Helvetica findfont 22.8295 sf 0 0 m (0) show NC gr 
 gsave  408 306 930 13 C 1074.03 39.8845 t 0 r /Helvetica findfont 22.8295 sf 0 0 m (500) show NC gr 
 gsave  408 306 930 13 C 1170.89 39.8845 t 0 r /Helvetica findfont 22.8295 sf 0 0 m (1000) show NC gr  991 288 m 306 X s 991 284 m 4 Y s 1095 284 m 4 Y s 1198 284 m 4 Y s 1198 284 m 4 Y s 991 59 m 229 Y s 997 62 m -6 X s 994 68 m -3 X s 994 74 m -3 X
 s 994 80 m -3 X s 994 86 m -3 X s 997 93 m -6 X s 994 99 m -3 X s 994 105 m -3 X s 994 111 m -3 X s 994 117 m -3 X s 997 123 m -6 X s 994 129 m -3 X s 994 135 m -3 X s 994 141 m -3 X s 994 147 m -3 X s 997 154 m -6 X s 994 160 m -3 X s 994 166 m -3
 X s 994 172 m -3 X s 994 178 m -3 X s 997 184 m -6 X s 994 190 m -3 X s 994 196 m -3 X s 994 202 m -3 X s 994 209 m -3 X s 997 215 m -6 X s 994 221 m -3 X s 994 227 m -3 X s 994 233 m -3 X s 994 239 m -3 X s 997 245 m -6 X s 994 251 m -3 X s 994 257
 m -3 X s 994 263 m -3 X s 994 270 m -3 X s 997 276 m -6 X s 997 62 m -6 X s 997 276 m -6 X s 994 282 m -3 X s 994 288 m -3 X s
 gsave  408 306 930 13 C 937.285 54.1289 t 0 r /Helvetica findfont 22.8295 sf 0 0 m (\2550.04) show NC gr 
 gsave  408 306 930 13 C 937.285 85.4667 t 0 r /Helvetica findfont 22.8295 sf 0 0 m (\2550.03) show NC gr 
 gsave  408 306 930 13 C 937.285 116.804 t 0 r /Helvetica findfont 22.8295 sf 0 0 m (\2550.02) show NC gr 
 gsave  408 306 930 13 C 940.134 145.293 t 0 r /Helvetica findfont 22.8295 sf 0 0 m (\2550.01) show NC gr 
 gsave  408 306 930 13 C 974.32 176.631 t 0 r /Helvetica findfont 22.8295 sf 0 0 m (0) show NC gr 
 gsave  408 306 930 13 C 945.832 207.969 t 0 r /Helvetica findfont 22.8295 sf 0 0 m (0.01) show NC gr 
 gsave  408 306 930 13 C 942.983 239.307 t 0 r /Helvetica findfont 22.8295 sf 0 0 m (0.02) show NC gr 
 gsave  408 306 930 13 C 942.983 267.796 t 0 r /Helvetica findfont 22.8295 sf 0 0 m (0.03) show NC gr  1297 59 m 229 Y s 1292 62 m 5 X s 1294 68 m 3 X s 1294 74 m 3 X s 1294 80 m 3 X s 1294 86 m 3 X s 1292 93 m 5 X s 1294 99 m 3 X s 1294 105 m 3 X s
 1294 111 m 3 X s 1294 117 m 3 X s 1292 123 m 5 X s 1294 129 m 3 X s 1294 135 m 3 X s 1294 141 m 3 X s 1294 147 m 3 X s 1292 154 m 5 X s 1294 160 m 3 X s 1294 166 m 3 X s 1294 172 m 3 X s 1294 178 m 3 X s 1292 184 m 5 X s 1294 190 m 3 X s 1294 196 m
 3 X s 1294 202 m 3 X s 1294 209 m 3 X s 1292 215 m 5 X s 1294 221 m 3 X s 1294 227 m 3 X s 1294 233 m 3 X s 1294 239 m 3 X s 1292 245 m 5 X s 1294 251 m 3 X s 1294 257 m 3 X s 1294 263 m 3 X s 1294 270 m 3 X s 1292 276 m 5 X s 1292 62 m 5 X s 1292
 276 m 5 X s 1294 282 m 3 X s 1294 288 m 3 X s 1136 155 1184 166 1233 117 1281 230 4 { m21} R 1136 166 m 28 Y s 1130 194 m 12 X s 1136 143 m -28 Y s 1130 115 m 12 X s 1184 177 m 28 Y s 1179 205 m 11 X s 1184 155 m -28 Y s 1179 127 m 11 X s 1233 128 m
 27 Y s 1227 155 m 11 X s 1233 105 m -27 Y s 1227 78 m 11 X s 1281 241 m 28 Y s 1275 269 m 12 X s 1281 219 m -28 Y s 1275 191 m 12 X s 9 lw 0.95 0.95 0.95 c black 993 184 m 9 X 3 -1 d 15 X 3 -1 d 15 X 4 -1 d 12 X 3 -1 d 15 X 3 -1 d 15 X 4 -1 d 15 X 3
 -1 d 15 X 3 -1 d 13 X s 1143 176 m 3 X 3 -1 d 15 X 3 -1 d 15 X 3 -1 d 16 X 3 -1 d 15 X 3 -1 d 15 X 3 -1 d 16 X 3 -1 d 12 X 3 -1 d 15 X 4 -1 d s 1293 167 m 3 X s 0.49 0.6 0.82 c black 0.49 0.6 0.82 c
 gsave  408 306 930 13 C 1051.24 296.285 t 0 r /Helvetica-Bold findfont 25.6831 sf 0 0 m (8.5 < E < 9.0 GeV) show NC gr  0.52 0.76 0.64 c black 0.52 0.76 0.64 c
 gsave  408 306 930 13 C 1031.3 259.249 t 0 r /Helvetica-Bold findfont 25.6831 sf 0 0 m 
 228 214 200 193 178 171 156 149 133 126 119 105 91 77 69 55 47 39 25 17
(A = \2550.000, p = 1.000) K NC gr  1 0.6 1 c black 1 0.6 1 c
 gsave  408 306 930 13 C 1336.13 128.2 t 90 r /Helvetica-Bold findfont 28.5368 sf 0 0 m (/dof=1.6) show NC gr  black 1 0.6 1 c
 gsave  408 306 930 13 C 1324.73 116.804 t 90 r /Helvetica-Bold findfont 19.9758 sf 0 0 m (2) show NC gr  black 1 0.6 1 c
 gsave  408 306 930 13 C 1336.13 99.7112 t 90 r /Symbol findfont 28.5368 sf 0 0 m (c) show NC gr  black 3 lw 1 1 1 c 408 306 1383 13 bf black 1 1 1 c black 306 229 1445 59 bl 306 229 1445 59 bl 1445 59 m 306 X s 1445 63 m -4 Y s 1548 63 m -4 Y s 1652
 63 m -4 Y s 1652 63 m -4 Y s
 gsave  408 306 1383 13 C 1435.84 39.8845 t 0 r /Helvetica findfont 22.8295 sf 0 0 m (0) show NC gr 
 gsave  408 306 1383 13 C 1527.01 39.8845 t 0 r /Helvetica findfont 22.8295 sf 0 0 m (500) show NC gr 
 gsave  408 306 1383 13 C 1623.87 39.8845 t 0 r /Helvetica findfont 22.8295 sf 0 0 m (1000) show NC gr  1445 288 m 306 X s 1445 284 m 4 Y s 1548 284 m 4 Y s 1652 284 m 4 Y s 1652 284 m 4 Y s 1445 59 m 229 Y s 1450 73 m -5 X s 1447 79 m -2 X s 1447 85
 m -2 X s 1447 91 m -2 X s 1447 96 m -2 X s 1450 102 m -5 X s 1447 108 m -2 X s 1447 114 m -2 X s 1447 120 m -2 X s 1447 126 m -2 X s 1450 131 m -5 X s 1447 137 m -2 X s 1447 143 m -2 X s 1447 149 m -2 X s 1447 155 m -2 X s 1450 161 m -5 X s 1447 166
 m -2 X s 1447 172 m -2 X s 1447 178 m -2 X s 1447 184 m -2 X s 1450 190 m -5 X s 1447 196 m -2 X s 1447 201 m -2 X s 1447 207 m -2 X s 1447 213 m -2 X s 1450 219 m -5 X s 1447 225 m -2 X s 1447 231 m -2 X s 1447 236 m -2 X s 1447 242 m -2 X s 1450
 248 m -5 X s 1447 254 m -2 X s 1447 260 m -2 X s 1447 266 m -2 X s 1447 271 m -2 X s 1450 277 m -5 X s 1450 73 m -5 X s 1447 67 m -2 X s 1447 61 m -2 X s 1450 277 m -5 X s 1447 283 m -2 X s
 gsave  408 306 1383 13 C 1393.11 65.5245 t 0 r /Helvetica findfont 22.8295 sf 0 0 m (\2550.01) show NC gr 
 gsave  408 306 1383 13 C 1427.29 94.0134 t 0 r /Helvetica findfont 22.8295 sf 0 0 m (0) show NC gr 
 gsave  408 306 1383 13 C 1398.81 125.351 t 0 r /Helvetica findfont 22.8295 sf 0 0 m (0.01) show NC gr 
 gsave  408 306 1383 13 C 1395.96 153.84 t 0 r /Helvetica findfont 22.8295 sf 0 0 m (0.02) show NC gr 
 gsave  408 306 1383 13 C 1395.96 182.329 t 0 r /Helvetica findfont 22.8295 sf 0 0 m (0.03) show NC gr 
 gsave  408 306 1383 13 C 1395.96 210.818 t 0 r /Helvetica findfont 22.8295 sf 0 0 m (0.04) show NC gr 
 gsave  408 306 1383 13 C 1395.96 242.156 t 0 r /Helvetica findfont 22.8295 sf 0 0 m (0.05) show NC gr 
 gsave  408 306 1383 13 C 1395.96 270.645 t 0 r /Helvetica findfont 22.8295 sf 0 0 m (0.06) show NC gr  1751 59 m 229 Y s 1745 73 m 6 X s 1748 79 m 3 X s 1748 85 m 3 X s 1748 91 m 3 X s 1748 96 m 3 X s 1745 102 m 6 X s 1748 108 m 3 X s 1748 114 m 3 X
 s 1748 120 m 3 X s 1748 126 m 3 X s 1745 131 m 6 X s 1748 137 m 3 X s 1748 143 m 3 X s 1748 149 m 3 X s 1748 155 m 3 X s 1745 161 m 6 X s 1748 166 m 3 X s 1748 172 m 3 X s 1748 178 m 3 X s 1748 184 m 3 X s 1745 190 m 6 X s 1748 196 m 3 X s 1748 201
 m 3 X s 1748 207 m 3 X s 1748 213 m 3 X s 1745 219 m 6 X s 1748 225 m 3 X s 1748 231 m 3 X s 1748 236 m 3 X s 1748 242 m 3 X s 1745 248 m 6 X s 1748 254 m 3 X s 1748 260 m 3 X s 1748 266 m 3 X s 1748 271 m 3 X s 1745 277 m 6 X s 1745 73 m 6 X s 1748
 67 m 3 X s 1748 61 m 3 X s 1745 277 m 6 X s 1748 283 m 3 X s 1590 119 1638 227 1686 180 1735 131 4 { m21} R 1590 130 m 29 Y s 1584 159 m 11 X s 1590 107 m -29 Y s 1584 78 m 11 X s 1638 238 m 31 Y s 1632 269 m 12 X s 1638 216 m -31 Y s 1632 185 m 12
 X s 1686 191 m 30 Y s 1681 221 m 11 X s 1686 169 m -30 Y s 1681 139 m 11 X s 1735 142 m 29 Y s 1729 171 m 11 X s 1735 120 m -29 Y s 1729 91 m 11 X s 9 lw 0.95 0.95 0.95 c black 1446 103 m 3 X 3 1 d 3 1 d 3 1 d 3 1 d 3 X 3 1 d 4 1 d 3 1 d 3 1 d 3 X 3
 1 d 3 1 d 3 1 d 3 1 d 3 X 3 1 d 3 1 d 3 1 d 3 X 3 1 d 3 1 d 3 1 d 4 1 d 3 X 3 1 d 3 1 d 3 1 d 3 1 d 3 X 3 1 d 3 1 d 3 1 d 3 1 d 3 X 3 1 d 3 1 d 3 1 d 3 1 d 4 X 3 1 d 3 1 d 3 1 d 3 X 3 1 d 3 1 d 3 1 d 3 1 d 3 X s 1596 141 m 3 1 d 3 1 d 3 1 d 3 1 d 3
 X 3 1 d 4 1 d 3 1 d 3 1 d 3 X 3 1 d 3 1 d 3 1 d 3 1 d 3 X 3 1 d 3 1 d 3 1 d 3 X 3 1 d 3 1 d 3 1 d 3 1 d 4 X 3 1 d 3 1 d 3 1 d 3 1 d 3 X 3 1 d 3 1 d 3 1 d 3 1 d 3 X 3 1 d 3 1 d 3 1 d 3 1 d 3 X 4 1 d 3 1 d 3 1 d 3 X 3 1 d 3 1 d 3 1 d 3 1 d 3 X 3 1 d s
 1746 180 m 3 1 d s 0.49 0.6 0.82 c black 0.49 0.6 0.82 c
 gsave  408 306 1383 13 C 1504.21 296.285 t 0 r /Helvetica-Bold findfont 25.6831 sf 0 0 m (9.0 < E < 9.5 GeV) show NC gr  0.52 0.76 0.64 c black 0.52 0.76 0.64 c
 gsave  408 306 1383 13 C 1489.97 259.249 t 0 r /Helvetica-Bold findfont 25.6831 sf 0 0 m 
 220 206 192 185 170 163 148 141 126 118 111 97 83 69 61 47 40 25 18
(A = 0.000, p = 1.000) K NC gr  1 0.6 1 c black 1 0.6 1 c
 gsave  408 306 1383 13 C 1789.1 128.2 t 90 r /Helvetica-Bold findfont 28.5368 sf 0 0 m (/dof=1.6) show NC gr  black 1 0.6 1 c
 gsave  408 306 1383 13 C 1777.71 116.804 t 90 r /Helvetica-Bold findfont 19.9758 sf 0 0 m (2) show NC gr  black 1 0.6 1 c
 gsave  408 306 1383 13 C 1789.1 99.7112 t 90 r /Symbol findfont 28.5368 sf 0 0 m (c) show NC gr  black 3 lw 1 1 1 c 408 306 1837 13 bf black 1 1 1 c black 306 229 1898 59 bl 306 229 1898 59 bl 1898 59 m 306 X s 1898 63 m -4 Y s 2002 63 m -4 Y s 2105
 63 m -4 Y s 2105 63 m -4 Y s
 gsave  408 306 1837 13 C 1888.81 39.8845 t 0 r /Helvetica findfont 22.8295 sf 0 0 m (0) show NC gr 
 gsave  408 306 1837 13 C 1979.98 39.8845 t 0 r /Helvetica findfont 22.8295 sf 0 0 m (500) show NC gr 
 gsave  408 306 1837 13 C 2079.69 39.8845 t 0 r /Helvetica findfont 22.8295 sf 0 0 m (1000) show NC gr  1898 288 m 306 X s 1898 284 m 4 Y s 2002 284 m 4 Y s 2105 284 m 4 Y s 2105 284 m 4 Y s 1898 59 m 229 Y s 1904 67 m -6 X s 1901 75 m -3 X s 1901 82
 m -3 X s 1901 90 m -3 X s 1901 97 m -3 X s 1904 105 m -6 X s 1901 112 m -3 X s 1901 119 m -3 X s 1901 127 m -3 X s 1901 134 m -3 X s 1904 142 m -6 X s 1901 149 m -3 X s 1901 157 m -3 X s 1901 164 m -3 X s 1901 171 m -3 X s 1904 179 m -6 X s 1901 186
 m -3 X s 1901 194 m -3 X s 1901 201 m -3 X s 1901 209 m -3 X s 1904 216 m -6 X s 1901 223 m -3 X s 1901 231 m -3 X s 1901 238 m -3 X s 1901 246 m -3 X s 1904 253 m -6 X s 1904 67 m -6 X s 1901 60 m -3 X s 1904 253 m -6 X s 1901 261 m -3 X s 1901 268
 m -3 X s 1901 275 m -3 X s 1901 283 m -3 X s
 gsave  408 306 1837 13 C 1843.23 59.8267 t 0 r /Helvetica findfont 22.8295 sf 0 0 m (\2550.03) show NC gr 
 gsave  408 306 1837 13 C 1843.23 96.8623 t 0 r /Helvetica findfont 22.8295 sf 0 0 m (\2550.02) show NC gr 
 gsave  408 306 1837 13 C 1846.08 133.898 t 0 r /Helvetica findfont 22.8295 sf 0 0 m (\2550.01) show NC gr 
 gsave  408 306 1837 13 C 1880.27 170.933 t 0 r /Helvetica findfont 22.8295 sf 0 0 m (0) show NC gr 
 gsave  408 306 1837 13 C 1851.78 207.969 t 0 r /Helvetica findfont 22.8295 sf 0 0 m (0.01) show NC gr 
 gsave  408 306 1837 13 C 1848.93 245.005 t 0 r /Helvetica findfont 22.8295 sf 0 0 m (0.02) show NC gr  2204 59 m 229 Y s 2199 67 m 5 X s 2201 75 m 3 X s 2201 82 m 3 X s 2201 90 m 3 X s 2201 97 m 3 X s 2199 105 m 5 X s 2201 112 m 3 X s 2201 119 m 3 X
 s 2201 127 m 3 X s 2201 134 m 3 X s 2199 142 m 5 X s 2201 149 m 3 X s 2201 157 m 3 X s 2201 164 m 3 X s 2201 171 m 3 X s 2199 179 m 5 X s 2201 186 m 3 X s 2201 194 m 3 X s 2201 201 m 3 X s 2201 209 m 3 X s 2199 216 m 5 X s 2201 223 m 3 X s 2201 231
 m 3 X s 2201 238 m 3 X s 2201 246 m 3 X s 2199 253 m 5 X s 2199 67 m 5 X s 2201 60 m 3 X s 2199 253 m 5 X s 2201 261 m 3 X s 2201 268 m 3 X s 2201 275 m 3 X s 2201 283 m 3 X s 2043 214 2091 189 2140 204 2188 131 4 { m21} R 2043 225 m 44 Y s 2037 269
 m 12 X s 2043 203 m -44 Y s 2037 159 m 12 X s 2091 201 m 43 Y s 2086 244 m 11 X s 2091 178 m -43 Y s 2086 135 m 11 X s 2140 216 m 43 Y s 2134 259 m 11 X s 2140 193 m -43 Y s 2134 150 m 11 X s 2188 142 m 41 Y s 2183 183 m 11 X s 2188 119 m -41 Y s
 2183 78 m 11 X s 1 0 0 c 9 lw 0.95 0.95 0.95 c black 1 0 0 c 1900 179 m 49 X 3 -1 d 43 X 3 -1 d 30 X 3 -1 d 19 X s 2050 176 m 3 X 3 -1 d 18 X 3 -1 d 15 X 4 -1 d 15 X 3 -1 d 12 X 3 -1 d 12 X 4 -1 d 12 X 3 -1 d 9 X 3 -1 d 9 X 3 -1 d 10 X 3 -1 d 3 X s
 2200 166 m 3 X s 0.49 0.6 0.82 c black 0.49 0.6 0.82 c
 gsave  408 306 1837 13 C 1948.64 296.285 t 0 r /Helvetica-Bold findfont 25.6831 sf 0 0 m (9.5 < E < 10.0 GeV) show NC gr  0.52 0.76 0.64 c black 0.52 0.76 0.64 c
 gsave  408 306 1837 13 C 1937.25 259.249 t 0 r /Helvetica-Bold findfont 25.6831 sf 0 0 m 
 228 214 200 193 178 171 156 149 133 126 119 105 91 77 69 55 47 39 25 17
(A = \2550.000, p = 2.000) K NC gr  1 0.6 1 c black 1 0.6 1 c
 gsave  408 306 1837 13 C 2242.08 128.2 t 90 r /Helvetica-Bold findfont 28.5368 sf 0 0 m (/dof=0.5) show NC gr  black 1 0.6 1 c
 gsave  408 306 1837 13 C 2230.68 116.804 t 90 r /Helvetica-Bold findfont 19.9758 sf 0 0 m (2) show NC gr  black 1 0.6 1 c
 gsave  408 306 1837 13 C 2242.08 99.7112 t 90 r /Symbol findfont 28.5368 sf 0 0 m (c) show NC gr 
 gr  gr showpage
end
%%EOF
