%!PS-Adobe-2.0 EPSF-2.0
%%BoundingBox:  0 0 567 332
%%Title: BeamSigmaY_near_fits.eps: Fits
%%Creator: ROOT Version 5.30/06
%%CreationDate: Sun Feb  2 09:41:32 2014
%%EndComments
%%BeginProlog
80 dict begin
/s {stroke} def /l {lineto} def /m {moveto} def /t {translate} def
/r {rotate} def /rl {roll}  def /R {repeat} def
/d {rlineto} def /rm {rmoveto} def /gr {grestore} def /f {eofill} def
/c {setrgbcolor} def /black {0 setgray} def /sd {setdash} def
/cl {closepath} def /sf {scalefont setfont} def /lw {setlinewidth} def
/box {m dup 0 exch d exch 0 d 0 exch neg d cl} def
/NC{systemdict begin initclip end}def/C{NC box clip newpath}def
/bl {box s} def /bf {box f} def /Y { 0 exch d} def /X { 0 d} def 
/K {{pop pop 0 moveto} exch kshow} bind def
/ita {/ang 15 def gsave [1 0 ang dup sin exch cos div 1 0 0] concat} def 
/mp {newpath /y exch def /x exch def} def
/side {[w .77 mul w .23 mul] .385 w mul sd w 0 l currentpoint t -144 r} def
/mr {mp x y w2 0 360 arc} def /m24 {mr s} def /m20 {mr f} def
/mb {mp x y w2 add m w2 neg 0 d 0 w neg d w 0 d 0 w d cl} def
/mt {mp x y w2 add m w2 neg w neg d w 0 d cl} def
/m21 {mb f} def /m25 {mb s} def /m22 {mt f} def /m26{mt s} def
/m23 {mp x y w2 sub m w2 w d w neg 0 d cl f} def
/m27 {mp x y w2 add m w3 neg w2 neg d w3 w2 neg d w3 w2 d cl s} def
/m28 {mp x w2 sub y w2 sub w3 add m w3 0 d  0 w3 neg d w3 0 d 0 w3 d w3 0 d  0 w3 d w3 neg 0 d 0 w3 d w3 neg 0 d 0 w3 neg d w3 neg 0 d cl s } def
/m29 {mp gsave x w2 sub y w2 add w3 sub m currentpoint t 4 {side} repeat cl fill gr} def
/m30 {mp gsave x w2 sub y w2 add w3 sub m currentpoint t 4 {side} repeat cl s gr} def
/m31 {mp x y w2 sub m 0 w d x w2 sub y m w 0 d x w2 sub y w2 add m w w neg d x w2 sub y w2 sub m w w d s} def
/m32 {mp x y w2 sub m w2 w d w neg 0 d cl s} def
/m33 {mp x y w2 add m w3 neg w2 neg d w3 w2 neg d w3 w2 d cl f} def
/m34 {mp x w2 sub y w2 sub w3 add m w3 0 d  0 w3 neg d w3 0 d 0 w3 d w3 0 d  0 w3 d w3 neg 0 d 0 w3 d w3 neg 0 d 0 w3 neg d w3 neg 0 d cl f } def
/m2 {mp x y w2 sub m 0 w d x w2 sub y m w 0 d s} def
/m5 {mp x w2 sub y w2 sub m w w d x w2 sub y w2 add m w w neg d s} def
/reEncode {exch findfont dup length dict begin {1 index /FID eq  {pop pop} {def} ifelse } forall /Encoding exch def currentdict end dup /FontName get exch definefont pop } def [/Times-Bold /Times-Italic /Times-BoldItalic /Helvetica /Helvetica-Oblique
 /Helvetica-Bold /Helvetica-BoldOblique /Courier /Courier-Oblique /Courier-Bold /Courier-BoldOblique /Times-Roman /AvantGarde-Book /AvantGarde-BookOblique /AvantGarde-Demi /AvantGarde-DemiOblique /Bookman-Demi /Bookman-DemiItalic /Bookman-Light
 /Bookman-LightItalic /Helvetica-Narrow /Helvetica-Narrow-Bold /Helvetica-Narrow-BoldOblique /Helvetica-Narrow-Oblique /NewCenturySchlbk-Roman /NewCenturySchlbk-Bold /NewCenturySchlbk-BoldItalic /NewCenturySchlbk-Italic /Palatino-Bold
 /Palatino-BoldItalic /Palatino-Italic /Palatino-Roman ] {ISOLatin1Encoding reEncode } forall%%EndProlog
%%BeginSetup
%%EndSetup
newpath  gsave  .25 .25 scale  gsave  0 0 t black[  ] 0 sd 3 lw 1 1 1 c 2268 1328 0 0 bf black 1 1 1 c 408 305 23 1009 bf black 1 1 1 c black 306 229 84 1055 bl 306 229 84 1055 bl 84 1055 m 306 X s 130 1059 m -4 Y s 236 1059 m -4 Y s 341 1059 m -4 Y
 s 130 1059 m -4 Y s 341 1059 m -4 Y s
 gsave  408 305 23 1009 C 108.258 1034.15 t 0 r /Helvetica findfont 22.8295 sf 0 0 m (\2550.5) show NC gr 
 gsave  408 305 23 1009 C 225.062 1034.15 t 0 r /Helvetica findfont 22.8295 sf 0 0 m (0) show NC gr 
 gsave  408 305 23 1009 C 321.925 1034.15 t 0 r /Helvetica findfont 22.8295 sf 0 0 m (0.5) show NC gr  84 1284 m 306 X s 130 1280 m 4 Y s 236 1280 m 4 Y s 341 1280 m 4 Y s 130 1280 m 4 Y s 341 1280 m 4 Y s 84 1055 m 229 Y s 89 1061 m -5 X s 87 1071 m
 -3 X s 87 1081 m -3 X s 87 1091 m -3 X s 89 1100 m -5 X s 87 1110 m -3 X s 87 1120 m -3 X s 87 1130 m -3 X s 89 1139 m -5 X s 87 1149 m -3 X s 87 1159 m -3 X s 87 1169 m -3 X s 89 1178 m -5 X s 87 1188 m -3 X s 87 1198 m -3 X s 87 1208 m -3 X s 89
 1217 m -5 X s 87 1227 m -3 X s 87 1237 m -3 X s 87 1247 m -3 X s 89 1256 m -5 X s 89 1061 m -5 X s 89 1256 m -5 X s 87 1266 m -3 X s 87 1276 m -3 X s
 gsave  408 305 23 1009 C 14.2445 1054.09 t 0 r /Helvetica findfont 22.8295 sf 0 0 m (\2550.004) show NC gr 
 gsave  408 305 23 1009 C 14.2445 1093.97 t 0 r /Helvetica findfont 22.8295 sf 0 0 m (\2550.002) show NC gr 
 gsave  408 305 23 1009 C 65.5245 1131.01 t 0 r /Helvetica findfont 22.8295 sf 0 0 m (0) show NC gr 
 gsave  408 305 23 1009 C 22.7911 1170.89 t 0 r /Helvetica findfont 22.8295 sf 0 0 m (0.002) show NC gr 
 gsave  408 305 23 1009 C 22.7911 1210.78 t 0 r /Helvetica findfont 22.8295 sf 0 0 m (0.004) show NC gr 
 gsave  408 305 23 1009 C 22.7911 1247.81 t 0 r /Helvetica findfont 22.8295 sf 0 0 m (0.006) show NC gr  390 1055 m 229 Y s 385 1061 m 5 X s 387 1071 m 3 X s 387 1081 m 3 X s 387 1091 m 3 X s 385 1100 m 5 X s 387 1110 m 3 X s 387 1120 m 3 X s 387
 1130 m 3 X s 385 1139 m 5 X s 387 1149 m 3 X s 387 1159 m 3 X s 387 1169 m 3 X s 385 1178 m 5 X s 387 1188 m 3 X s 387 1198 m 3 X s 387 1208 m 3 X s 385 1217 m 5 X s 387 1227 m 3 X s 387 1237 m 3 X s 387 1247 m 3 X s 385 1256 m 5 X s 385 1061 m 5 X
 s 385 1256 m 5 X s 387 1266 m 3 X s 387 1276 m 3 X s /w 22 def /w2 {w 2 div} def /w3 {w 3 div} def 109 1140 151 1228 194 1114 215 1111 257 1126 278 1124 320 1113 362 1118 8 { m21} R 109 1152 m 25 Y s 104 1177 m 11 X s 109 1129 m -26 Y s 104 1103 m
 11 X s 151 1239 m 26 Y s 146 1265 m 11 X s 151 1216 m -26 Y s 146 1190 m 11 X s 194 1126 m 25 Y s 188 1151 m 11 X s 194 1103 m -26 Y s 188 1077 m 11 X s 215 1122 m 25 Y s 209 1147 m 11 X s 215 1099 m -25 Y s 209 1074 m 11 X s 257 1137 m 26 Y s 251
 1163 m 11 X s 257 1114 m -25 Y s 251 1089 m 11 X s 278 1136 m 25 Y s 272 1161 m 12 X s 278 1113 m -26 Y s 272 1087 m 12 X s 320 1124 m 26 Y s 314 1150 m 12 X s 320 1101 m -25 Y s 314 1076 m 12 X s 362 1129 m 25 Y s 357 1154 m 11 X s 362 1106 m -25 Y
 s 357 1081 m 11 X s 9 lw 0.95 0.95 0.95 c black 85 1174 m 3 -1 d 4 X 3 -1 d 3 -1 d 3 -1 d 3 X 3 -1 d 3 -1 d 3 X 3 -1 d 3 -1 d 3 X 3 -1 d 3 -1 d 3 -1 d 3 X 3 -1 d 4 -1 d 3 X 3 -1 d 3 -1 d 3 -1 d 3 X 3 -1 d 3 -1 d 3 X 3 -1 d 3 -1 d 3 X 3 -1 d 3 -1 d 3
 -1 d 3 X 4 -1 d 3 -1 d 3 X 3 -1 d 3 -1 d 3 -1 d 3 X 3 -1 d 3 -1 d 3 X 3 -1 d 3 -1 d 3 -1 d 3 X 3 -1 d 3 -1 d s 235 1139 m 4 X 3 -1 d 3 -1 d 3 X 3 -1 d 3 -1 d 3 -1 d 3 X 3 -1 d 3 -1 d 3 X 3 -1 d 3 -1 d 3 -1 d 3 X 3 -1 d 3 -1 d 4 X 3 -1 d 3 -1 d 3 X 3
 -1 d 3 -1 d 3 -1 d 3 X 3 -1 d 3 -1 d 3 X 3 -1 d 3 -1 d 3 -1 d 3 X 3 -1 d 4 -1 d 3 X 3 -1 d 3 -1 d 3 X 3 -1 d 3 -1 d 3 -1 d 3 X 3 -1 d 3 -1 d 3 X 3 -1 d 3 -1 d 3 -1 d 3 X s 385 1105 m 4 -1 d s 0.49 0.6 0.82 c black 0.49 0.6 0.82 c
 gsave  408 305 23 1009 C 142.445 1293.4 t 0 r /Helvetica-Bold findfont 25.6831 sf 0 0 m (0.0 < E < 0.5 GeV) show NC gr  0.52 0.76 0.64 c black 0.52 0.76 0.64 c
 gsave  408 305 23 1009 C 122.502 1256.36 t 0 r /Helvetica-Bold findfont 25.6831 sf 0 0 m 
 228 214 200 193 178 171 156 149 134 126 119 105 91 77 69 55 47 40 25 17
(A = \2550.002, p = 1.000) K NC gr  1 0.6 1 c black 1 0.6 1 c
 gsave  408 305 23 1009 C 427.334 1122.46 t 90 r /Helvetica-Bold findfont 28.5368 sf 0 0 m (/dof=0.8) show NC gr  black 1 0.6 1 c
 gsave  408 305 23 1009 C 415.938 1111.07 t 90 r /Helvetica-Bold findfont 19.9758 sf 0 0 m (2) show NC gr  black 1 0.6 1 c
 gsave  408 305 23 1009 C 427.334 1093.97 t 90 r /Symbol findfont 28.5368 sf 0 0 m (c) show NC gr  black 3 lw 1 1 1 c 408 305 476 1009 bf black 1 1 1 c black 307 229 537 1055 bl 307 229 537 1055 bl 537 1055 m 307 X s 584 1059 m -4 Y s 689 1059 m -4 Y
 s 795 1059 m -4 Y s 584 1059 m -4 Y s 795 1059 m -4 Y s
 gsave  408 305 476 1009 C 561.231 1034.15 t 0 r /Helvetica findfont 22.8295 sf 0 0 m (\2550.5) show NC gr 
 gsave  408 305 476 1009 C 678.036 1034.15 t 0 r /Helvetica findfont 22.8295 sf 0 0 m (0) show NC gr 
 gsave  408 305 476 1009 C 774.898 1034.15 t 0 r /Helvetica findfont 22.8295 sf 0 0 m (0.5) show NC gr  537 1284 m 307 X s 584 1280 m 4 Y s 689 1280 m 4 Y s 795 1280 m 4 Y s 584 1280 m 4 Y s 795 1280 m 4 Y s 537 1055 m 229 Y s 543 1071 m -6 X s 540
 1078 m -3 X s 540 1085 m -3 X s 540 1092 m -3 X s 543 1099 m -6 X s 540 1106 m -3 X s 540 1113 m -3 X s 540 1119 m -3 X s 543 1126 m -6 X s 540 1133 m -3 X s 540 1140 m -3 X s 540 1147 m -3 X s 543 1154 m -6 X s 540 1161 m -3 X s 540 1168 m -3 X s
 540 1174 m -3 X s 543 1181 m -6 X s 540 1188 m -3 X s 540 1195 m -3 X s 540 1202 m -3 X s 543 1209 m -6 X s 540 1216 m -3 X s 540 1223 m -3 X s 540 1230 m -3 X s 543 1236 m -6 X s 540 1243 m -3 X s 540 1250 m -3 X s 540 1257 m -3 X s 543 1264 m -6 X
 s 543 1071 m -6 X s 540 1064 m -3 X s 540 1058 m -3 X s 543 1264 m -6 X s 540 1271 m -3 X s 540 1278 m -3 X s
 gsave  408 305 476 1009 C 467.218 1065.48 t 0 r /Helvetica findfont 22.8295 sf 0 0 m (\2550.008) show NC gr 
 gsave  408 305 476 1009 C 467.218 1091.12 t 0 r /Helvetica findfont 22.8295 sf 0 0 m (\2550.006) show NC gr 
 gsave  408 305 476 1009 C 467.218 1119.61 t 0 r /Helvetica findfont 22.8295 sf 0 0 m (\2550.004) show NC gr 
 gsave  408 305 476 1009 C 467.218 1148.1 t 0 r /Helvetica findfont 22.8295 sf 0 0 m (\2550.002) show NC gr 
 gsave  408 305 476 1009 C 518.498 1173.74 t 0 r /Helvetica findfont 22.8295 sf 0 0 m (0) show NC gr 
 gsave  408 305 476 1009 C 475.765 1202.23 t 0 r /Helvetica findfont 22.8295 sf 0 0 m (0.002) show NC gr 
 gsave  408 305 476 1009 C 475.765 1227.87 t 0 r /Helvetica findfont 22.8295 sf 0 0 m (0.004) show NC gr 
 gsave  408 305 476 1009 C 475.765 1256.36 t 0 r /Helvetica findfont 22.8295 sf 0 0 m (0.006) show NC gr  844 1055 m 229 Y s 838 1071 m 6 X s 841 1078 m 3 X s 841 1085 m 3 X s 841 1092 m 3 X s 838 1099 m 6 X s 841 1106 m 3 X s 841 1113 m 3 X s 841
 1119 m 3 X s 838 1126 m 6 X s 841 1133 m 3 X s 841 1140 m 3 X s 841 1147 m 3 X s 838 1154 m 6 X s 841 1161 m 3 X s 841 1168 m 3 X s 841 1174 m 3 X s 838 1181 m 6 X s 841 1188 m 3 X s 841 1195 m 3 X s 841 1202 m 3 X s 838 1209 m 6 X s 841 1216 m 3 X
 s 841 1223 m 3 X s 841 1230 m 3 X s 838 1236 m 6 X s 841 1243 m 3 X s 841 1250 m 3 X s 841 1257 m 3 X s 838 1264 m 6 X s 838 1071 m 6 X s 841 1064 m 3 X s 841 1058 m 3 X s 838 1264 m 6 X s 841 1271 m 3 X s 841 1278 m 3 X s /w 23 def /w2 {w 2 div}
 def /w3 {w 3 div} def 563 1176 605 1190 647 1174 668 1159 710 1205 731 1233 774 1171 816 1105 8 { m21} R 563 1188 m 19 Y s 557 1207 m 11 X s 563 1165 m -20 Y s 557 1145 m 11 X s 605 1201 m 20 Y s 599 1221 m 12 X s 605 1178 m -19 Y s 599 1159 m 12 X
 s 647 1186 m 19 Y s 641 1205 m 12 X s 647 1163 m -20 Y s 641 1143 m 12 X s 668 1170 m 20 Y s 662 1190 m 12 X s 668 1147 m -19 Y s 662 1128 m 12 X s 710 1216 m 20 Y s 705 1236 m 11 X s 710 1193 m -19 Y s 705 1174 m 11 X s 731 1245 m 20 Y s 726 1265 m
 11 X s 731 1222 m -20 Y s 726 1202 m 11 X s 774 1183 m 19 Y s 768 1202 m 11 X s 774 1160 m -20 Y s 768 1140 m 11 X s 816 1116 m 20 Y s 810 1136 m 11 X s 816 1093 m -19 Y s 810 1074 m 11 X s 1 0 0 c 9 lw 0.95 0.95 0.95 c black 1 0 0 c 539 1136 m 3 2
 d 3 1 d 3 2 d 3 2 d 3 2 d 3 1 d 3 2 d 3 1 d 4 2 d 3 1 d 3 2 d 3 1 d 3 2 d 3 1 d 3 1 d 3 2 d 3 1 d 3 1 d 3 1 d 3 1 d 3 1 d 3 1 d 3 1 d 3 1 d 4 1 d 3 1 d 3 1 d 3 1 d 3 1 d 3 X 3 1 d 3 1 d 3 X 3 1 d 3 1 d 3 X 3 1 d 6 X 3 1 d 7 X 3 1 d 18 X s 689 1181 m
 18 X 3 -1 d 10 X 3 -1 d 3 X 3 -1 d 3 X 3 -1 d 3 X 3 -1 d 3 -1 d 3 X 3 -1 d 3 -1 d 3 -1 d 3 -1 d 3 X 4 -1 d 3 -1 d 3 -1 d 3 -1 d 3 -1 d 3 -2 d 3 -1 d 3 -1 d 3 -1 d 3 -1 d 3 -2 d 3 -1 d 3 -1 d 3 -2 d 3 -1 d 3 -2 d 4 -1 d 3 -2 d 3 -1 d 3 -2 d 3 -2 d 3
 -2 d 3 -1 d 3 -2 d 3 -2 d s 839 1136 m 3 -2 d s 0.49 0.6 0.82 c black 0.49 0.6 0.82 c
 gsave  408 305 476 1009 C 595.418 1293.4 t 0 r /Helvetica-Bold findfont 25.6831 sf 0 0 m (0.5 < E < 1.0 GeV) show NC gr  0.52 0.76 0.64 c black 0.52 0.76 0.64 c
 gsave  408 305 476 1009 C 575.476 1256.36 t 0 r /Helvetica-Bold findfont 25.6831 sf 0 0 m 
 228 214 200 193 178 171 156 149 133 126 119 105 91 77 69 55 47 39 25 17
(A = \2550.007, p = 2.000) K NC gr  1 0.6 1 c black 1 0.6 1 c
 gsave  408 305 476 1009 C 883.156 1122.46 t 90 r /Helvetica-Bold findfont 28.5368 sf 0 0 m (/dof=1.1) show NC gr  black 1 0.6 1 c
 gsave  408 305 476 1009 C 871.76 1111.07 t 90 r /Helvetica-Bold findfont 19.9758 sf 0 0 m (2) show NC gr  black 1 0.6 1 c
 gsave  408 305 476 1009 C 883.156 1093.97 t 90 r /Symbol findfont 28.5368 sf 0 0 m (c) show NC gr  black 3 lw 1 1 1 c 408 305 930 1009 bf black 1 1 1 c black 306 229 991 1055 bl 306 229 991 1055 bl 991 1055 m 306 X s 1037 1059 m -4 Y s 1143 1059 m
 -4 Y s 1248 1059 m -4 Y s 1037 1059 m -4 Y s 1248 1059 m -4 Y s
 gsave  408 305 930 1009 C 1017.05 1034.15 t 0 r /Helvetica findfont 22.8295 sf 0 0 m (\2550.5) show NC gr 
 gsave  408 305 930 1009 C 1133.86 1034.15 t 0 r /Helvetica findfont 22.8295 sf 0 0 m (0) show NC gr 
 gsave  408 305 930 1009 C 1230.72 1034.15 t 0 r /Helvetica findfont 22.8295 sf 0 0 m (0.5) show NC gr  991 1284 m 306 X s 1037 1280 m 4 Y s 1143 1280 m 4 Y s 1248 1280 m 4 Y s 1037 1280 m 4 Y s 1248 1280 m 4 Y s 991 1055 m 229 Y s 997 1059 m -6 X s
 994 1070 m -3 X s 994 1080 m -3 X s 994 1090 m -3 X s 997 1101 m -6 X s 994 1111 m -3 X s 994 1121 m -3 X s 994 1132 m -3 X s 997 1142 m -6 X s 994 1153 m -3 X s 994 1163 m -3 X s 994 1173 m -3 X s 997 1184 m -6 X s 994 1194 m -3 X s 994 1204 m -3 X
 s 994 1215 m -3 X s 997 1225 m -6 X s 994 1236 m -3 X s 994 1246 m -3 X s 994 1256 m -3 X s 997 1267 m -6 X s 997 1059 m -6 X s 997 1267 m -6 X s 994 1277 m -3 X s
 gsave  408 305 930 1009 C 923.04 1051.24 t 0 r /Helvetica findfont 22.8295 sf 0 0 m (\2550.006) show NC gr 
 gsave  408 305 930 1009 C 923.04 1093.97 t 0 r /Helvetica findfont 22.8295 sf 0 0 m (\2550.004) show NC gr 
 gsave  408 305 930 1009 C 923.04 1133.86 t 0 r /Helvetica findfont 22.8295 sf 0 0 m (\2550.002) show NC gr 
 gsave  408 305 930 1009 C 974.32 1176.59 t 0 r /Helvetica findfont 22.8295 sf 0 0 m (0) show NC gr 
 gsave  408 305 930 1009 C 931.587 1219.32 t 0 r /Helvetica findfont 22.8295 sf 0 0 m (0.002) show NC gr 
 gsave  408 305 930 1009 C 931.587 1259.21 t 0 r /Helvetica findfont 22.8295 sf 0 0 m (0.004) show NC gr  1297 1055 m 229 Y s 1292 1059 m 5 X s 1294 1070 m 3 X s 1294 1080 m 3 X s 1294 1090 m 3 X s 1292 1101 m 5 X s 1294 1111 m 3 X s 1294 1121 m 3 X
 s 1294 1132 m 3 X s 1292 1142 m 5 X s 1294 1153 m 3 X s 1294 1163 m 3 X s 1294 1173 m 3 X s 1292 1184 m 5 X s 1294 1194 m 3 X s 1294 1204 m 3 X s 1294 1215 m 3 X s 1292 1225 m 5 X s 1294 1236 m 3 X s 1294 1246 m 3 X s 1294 1256 m 3 X s 1292 1267 m 5
 X s 1292 1059 m 5 X s 1292 1267 m 5 X s 1294 1277 m 3 X s 1016 1168 1058 1120 1101 1158 1122 1219 1164 1215 1185 1132 1227 1193 1269 1215 8 { m21} R 1016 1179 m 35 Y s 1011 1214 m 11 X s 1016 1156 m -34 Y s 1011 1122 m 11 X s 1058 1131 m 34 Y s 1053
 1165 m 11 X s 1058 1108 m -34 Y s 1053 1074 m 11 X s 1101 1169 m 35 Y s 1095 1204 m 11 X s 1101 1147 m -35 Y s 1095 1112 m 11 X s 1122 1230 m 35 Y s 1116 1265 m 11 X s 1122 1207 m -34 Y s 1116 1173 m 11 X s 1164 1226 m 35 Y s 1158 1261 m 12 X s 1164
 1203 m -34 Y s 1158 1169 m 12 X s 1185 1144 m 34 Y s 1179 1178 m 12 X s 1185 1121 m -34 Y s 1179 1087 m 12 X s 1227 1204 m 35 Y s 1221 1239 m 12 X s 1227 1181 m -34 Y s 1221 1147 m 12 X s 1269 1226 m 35 Y s 1264 1261 m 11 X s 1269 1203 m -34 Y s
 1264 1169 m 11 X s 9 lw 0.95 0.95 0.95 c black 993 1151 m 3 1 d 3 1 d 3 X 3 1 d 3 1 d 3 X 3 1 d 3 1 d 3 X 3 1 d 3 1 d 3 X 3 1 d 3 1 d 3 X 4 1 d 3 1 d 3 X 3 1 d 3 1 d 3 X 3 1 d 3 X 3 1 d 3 1 d 3 X 3 1 d 3 1 d 3 X 3 1 d 3 1 d 3 X 4 1 d 3 1 d 3 X 3 1 d
 3 1 d 3 X 3 1 d 3 1 d 3 X 3 1 d 3 1 d 3 X 3 1 d 3 1 d 3 X 3 1 d 4 1 d s 1143 1184 m 3 X 3 1 d 3 1 d 3 X 3 1 d 3 1 d 3 X 3 1 d 3 1 d 3 X 3 1 d 3 1 d 3 X 3 1 d 3 1 d 4 X 3 1 d 3 1 d 3 X 3 1 d 3 1 d 3 X 3 1 d 3 1 d 3 X 3 1 d 3 1 d 3 X 3 1 d 3 1 d 3 X 3
 1 d 4 X 3 1 d 3 1 d 3 X 3 1 d 3 1 d 3 X 3 1 d 3 1 d 3 X 3 1 d 3 1 d 3 X 3 1 d 3 1 d 3 X 4 1 d s 1293 1216 m 3 1 d s 0.49 0.6 0.82 c black 0.49 0.6 0.82 c
 gsave  408 305 930 1009 C 1051.24 1293.4 t 0 r /Helvetica-Bold findfont 25.6831 sf 0 0 m (1.0 < E < 1.5 GeV) show NC gr  0.52 0.76 0.64 c black 0.52 0.76 0.64 c
 gsave  408 305 930 1009 C 1037 1256.36 t 0 r /Helvetica-Bold findfont 25.6831 sf 0 0 m 
 220 206 192 185 170 163 148 141 126 118 111 97 83 69 61 47 40 25 18
(A = 0.002, p = 1.000) K NC gr  1 0.6 1 c black 1 0.6 1 c
 gsave  408 305 930 1009 C 1336.13 1122.46 t 90 r /Helvetica-Bold findfont 28.5368 sf 0 0 m (/dof=0.6) show NC gr  black 1 0.6 1 c
 gsave  408 305 930 1009 C 1324.73 1111.07 t 90 r /Helvetica-Bold findfont 19.9758 sf 0 0 m (2) show NC gr  black 1 0.6 1 c
 gsave  408 305 930 1009 C 1336.13 1093.97 t 90 r /Symbol findfont 28.5368 sf 0 0 m (c) show NC gr  black 3 lw 1 1 1 c 408 305 1383 1009 bf black 1 1 1 c black 306 229 1445 1055 bl 306 229 1445 1055 bl 1445 1055 m 306 X s 1491 1059 m -4 Y s 1596 1059
 m -4 Y s 1702 1059 m -4 Y s 1491 1059 m -4 Y s 1702 1059 m -4 Y s
 gsave  408 305 1383 1009 C 1470.03 1034.15 t 0 r /Helvetica findfont 22.8295 sf 0 0 m (\2550.5) show NC gr 
 gsave  408 305 1383 1009 C 1586.83 1034.15 t 0 r /Helvetica findfont 22.8295 sf 0 0 m (0) show NC gr 
 gsave  408 305 1383 1009 C 1683.69 1034.15 t 0 r /Helvetica findfont 22.8295 sf 0 0 m (0.5) show NC gr  1445 1284 m 306 X s 1491 1280 m 4 Y s 1596 1280 m 4 Y s 1702 1280 m 4 Y s 1491 1280 m 4 Y s 1702 1280 m 4 Y s 1445 1055 m 229 Y s 1450 1065 m -5
 X s 1447 1072 m -2 X s 1447 1079 m -2 X s 1447 1086 m -2 X s 1450 1093 m -5 X s 1447 1099 m -2 X s 1447 1106 m -2 X s 1447 1113 m -2 X s 1450 1120 m -5 X s 1447 1127 m -2 X s 1447 1133 m -2 X s 1447 1140 m -2 X s 1450 1147 m -5 X s 1447 1154 m -2 X
 s 1447 1160 m -2 X s 1447 1167 m -2 X s 1450 1174 m -5 X s 1447 1181 m -2 X s 1447 1188 m -2 X s 1447 1194 m -2 X s 1450 1201 m -5 X s 1447 1208 m -2 X s 1447 1215 m -2 X s 1447 1221 m -2 X s 1450 1228 m -5 X s 1447 1235 m -2 X s 1447 1242 m -2 X s
 1447 1249 m -2 X s 1450 1255 m -5 X s 1447 1262 m -2 X s 1447 1269 m -2 X s 1447 1276 m -2 X s 1450 1282 m -5 X s 1450 1065 m -5 X s 1447 1059 m -2 X s 1450 1282 m -5 X s
 gsave  408 305 1383 1009 C 1376.01 1059.79 t 0 r /Helvetica findfont 22.8295 sf 0 0 m (\2550.008) show NC gr 
 gsave  408 305 1383 1009 C 1376.01 1085.43 t 0 r /Helvetica findfont 22.8295 sf 0 0 m (\2550.006) show NC gr 
 gsave  408 305 1383 1009 C 1376.01 1113.92 t 0 r /Helvetica findfont 22.8295 sf 0 0 m (\2550.004) show NC gr 
 gsave  408 305 1383 1009 C 1376.01 1139.56 t 0 r /Helvetica findfont 22.8295 sf 0 0 m (\2550.002) show NC gr 
 gsave  408 305 1383 1009 C 1427.29 1168.04 t 0 r /Helvetica findfont 22.8295 sf 0 0 m (0) show NC gr 
 gsave  408 305 1383 1009 C 1384.56 1193.68 t 0 r /Helvetica findfont 22.8295 sf 0 0 m (0.002) show NC gr 
 gsave  408 305 1383 1009 C 1384.56 1222.17 t 0 r /Helvetica findfont 22.8295 sf 0 0 m (0.004) show NC gr 
 gsave  408 305 1383 1009 C 1384.56 1247.81 t 0 r /Helvetica findfont 22.8295 sf 0 0 m (0.006) show NC gr 
 gsave  408 305 1383 1009 C 1384.56 1276.3 t 0 r /Helvetica findfont 22.8295 sf 0 0 m (0.008) show NC gr  1751 1055 m 229 Y s 1745 1065 m 6 X s 1748 1072 m 3 X s 1748 1079 m 3 X s 1748 1086 m 3 X s 1745 1093 m 6 X s 1748 1099 m 3 X s 1748 1106 m 3 X
 s 1748 1113 m 3 X s 1745 1120 m 6 X s 1748 1127 m 3 X s 1748 1133 m 3 X s 1748 1140 m 3 X s 1745 1147 m 6 X s 1748 1154 m 3 X s 1748 1160 m 3 X s 1748 1167 m 3 X s 1745 1174 m 6 X s 1748 1181 m 3 X s 1748 1188 m 3 X s 1748 1194 m 3 X s 1745 1201 m 6
 X s 1748 1208 m 3 X s 1748 1215 m 3 X s 1748 1221 m 3 X s 1745 1228 m 6 X s 1748 1235 m 3 X s 1748 1242 m 3 X s 1748 1249 m 3 X s 1745 1255 m 6 X s 1748 1262 m 3 X s 1748 1269 m 3 X s 1748 1276 m 3 X s 1745 1282 m 6 X s 1745 1065 m 6 X s 1748 1059 m
 3 X s 1745 1282 m 6 X s 1470 1104 1512 1171 1554 1115 1575 1137 1617 1140 1639 1163 1681 1234 1723 1145 8 { m21} R 1470 1115 m 19 Y s 1464 1134 m 12 X s 1470 1092 m -18 Y s 1464 1074 m 12 X s 1512 1182 m 19 Y s 1506 1201 m 12 X s 1512 1160 m -19 Y s
 1506 1141 m 12 X s 1554 1127 m 19 Y s 1548 1146 m 12 X s 1554 1104 m -19 Y s 1548 1085 m 12 X s 1575 1149 m 19 Y s 1570 1168 m 11 X s 1575 1126 m -19 Y s 1570 1107 m 11 X s 1617 1151 m 19 Y s 1612 1170 m 11 X s 1617 1129 m -19 Y s 1612 1110 m 11 X s
 1639 1174 m 19 Y s 1633 1193 m 11 X s 1639 1151 m -19 Y s 1633 1132 m 11 X s 1681 1246 m 19 Y s 1675 1265 m 11 X s 1681 1223 m -19 Y s 1675 1204 m 11 X s 1723 1156 m 19 Y s 1717 1175 m 12 X s 1723 1133 m -18 Y s 1717 1115 m 12 X s 9 lw 0.95 0.95
 0.95 c black 1446 1137 m 3 X 3 1 d 3 1 d 3 1 d 3 X 3 1 d 3 1 d 4 1 d 3 1 d 3 X 3 1 d 3 1 d 3 1 d 3 X 3 1 d 3 1 d 3 1 d 3 X 3 1 d 3 1 d 3 1 d 3 X 3 1 d 4 1 d 3 1 d 3 X 3 1 d 3 1 d 3 1 d 3 X 3 1 d 3 1 d 3 1 d 3 1 d 3 X 3 1 d 3 1 d 3 1 d 3 X 4 1 d 3 1
 d 3 1 d 3 X 3 1 d 3 1 d 3 1 d 3 X 3 1 d 3 1 d s 1596 1174 m 3 1 d 3 X 3 1 d 3 1 d 3 1 d 3 X 4 1 d 3 1 d 3 1 d 3 X 3 1 d 3 1 d 3 1 d 3 1 d 3 X 3 1 d 3 1 d 3 1 d 3 X 3 1 d 3 1 d 3 1 d 3 X 4 1 d 3 1 d 3 1 d 3 X 3 1 d 3 1 d 3 1 d 3 X 3 1 d 3 1 d 3 1 d 3
 X 3 1 d 3 1 d 3 1 d 3 1 d 4 X 3 1 d 3 1 d 3 1 d 3 X 3 1 d 3 1 d 3 1 d 3 X 3 1 d s 1746 1211 m 3 1 d s 0.49 0.6 0.82 c black 0.49 0.6 0.82 c
 gsave  408 305 1383 1009 C 1504.21 1293.4 t 0 r /Helvetica-Bold findfont 25.6831 sf 0 0 m (1.5 < E < 2.0 GeV) show NC gr  0.52 0.76 0.64 c black 0.52 0.76 0.64 c
 gsave  408 305 1383 1009 C 1489.97 1256.36 t 0 r /Helvetica-Bold findfont 25.6831 sf 0 0 m 
 220 206 192 185 170 163 148 141 125 118 111 97 83 68 61 47 40 25 18
(A = 0.004, p = 1.000) K NC gr  1 0.6 1 c black 1 0.6 1 c
 gsave  408 305 1383 1009 C 1789.1 1122.46 t 90 r /Helvetica-Bold findfont 28.5368 sf 0 0 m (/dof=1.9) show NC gr  black 1 0.6 1 c
 gsave  408 305 1383 1009 C 1777.71 1111.07 t 90 r /Helvetica-Bold findfont 19.9758 sf 0 0 m (2) show NC gr  black 1 0.6 1 c
 gsave  408 305 1383 1009 C 1789.1 1093.97 t 90 r /Symbol findfont 28.5368 sf 0 0 m (c) show NC gr  black 3 lw 1 1 1 c 408 305 1837 1009 bf black 1 1 1 c black 306 229 1898 1055 bl 306 229 1898 1055 bl 1898 1055 m 306 X s 1944 1059 m -4 Y s 2050 1059
 m -4 Y s 2155 1059 m -4 Y s 1944 1059 m -4 Y s 2155 1059 m -4 Y s
 gsave  408 305 1837 1009 C 1923 1034.15 t 0 r /Helvetica findfont 22.8295 sf 0 0 m (\2550.5) show NC gr 
 gsave  408 305 1837 1009 C 2039.81 1034.15 t 0 r /Helvetica findfont 22.8295 sf 0 0 m (0) show NC gr 
 gsave  408 305 1837 1009 C 2136.67 1034.15 t 0 r /Helvetica findfont 22.8295 sf 0 0 m (0.5) show NC gr  1898 1284 m 306 X s 1944 1280 m 4 Y s 2050 1280 m 4 Y s 2155 1280 m 4 Y s 1944 1280 m 4 Y s 2155 1280 m 4 Y s 1898 1055 m 229 Y s 1904 1059 m -6
 X s 1901 1067 m -3 X s 1901 1075 m -3 X s 1901 1083 m -3 X s 1904 1091 m -6 X s 1901 1099 m -3 X s 1901 1107 m -3 X s 1901 1115 m -3 X s 1904 1123 m -6 X s 1901 1131 m -3 X s 1901 1140 m -3 X s 1901 1148 m -3 X s 1904 1156 m -6 X s 1901 1164 m -3 X
 s 1901 1172 m -3 X s 1901 1180 m -3 X s 1904 1188 m -6 X s 1901 1196 m -3 X s 1901 1204 m -3 X s 1901 1213 m -3 X s 1904 1221 m -6 X s 1901 1229 m -3 X s 1901 1237 m -3 X s 1901 1245 m -3 X s 1904 1253 m -6 X s 1904 1059 m -6 X s 1904 1253 m -6 X s
 1901 1261 m -3 X s 1901 1269 m -3 X s 1901 1277 m -3 X s
 gsave  408 305 1837 1009 C 1828.99 1051.24 t 0 r /Helvetica findfont 22.8295 sf 0 0 m (\2550.008) show NC gr 
 gsave  408 305 1837 1009 C 1828.99 1082.58 t 0 r /Helvetica findfont 22.8295 sf 0 0 m (\2550.006) show NC gr 
 gsave  408 305 1837 1009 C 1828.99 1116.76 t 0 r /Helvetica findfont 22.8295 sf 0 0 m (\2550.004) show NC gr 
 gsave  408 305 1837 1009 C 1828.99 1148.1 t 0 r /Helvetica findfont 22.8295 sf 0 0 m (\2550.002) show NC gr 
 gsave  408 305 1837 1009 C 1880.27 1182.29 t 0 r /Helvetica findfont 22.8295 sf 0 0 m (0) show NC gr 
 gsave  408 305 1837 1009 C 1837.53 1213.63 t 0 r /Helvetica findfont 22.8295 sf 0 0 m (0.002) show NC gr 
 gsave  408 305 1837 1009 C 1837.53 1244.96 t 0 r /Helvetica findfont 22.8295 sf 0 0 m (0.004) show NC gr  2204 1055 m 229 Y s 2199 1059 m 5 X s 2201 1067 m 3 X s 2201 1075 m 3 X s 2201 1083 m 3 X s 2199 1091 m 5 X s 2201 1099 m 3 X s 2201 1107 m 3 X
 s 2201 1115 m 3 X s 2199 1123 m 5 X s 2201 1131 m 3 X s 2201 1140 m 3 X s 2201 1148 m 3 X s 2199 1156 m 5 X s 2201 1164 m 3 X s 2201 1172 m 3 X s 2201 1180 m 3 X s 2199 1188 m 5 X s 2201 1196 m 3 X s 2201 1204 m 3 X s 2201 1213 m 3 X s 2199 1221 m 5
 X s 2201 1229 m 3 X s 2201 1237 m 3 X s 2201 1245 m 3 X s 2199 1253 m 5 X s 2199 1059 m 5 X s 2199 1253 m 5 X s 2201 1261 m 3 X s 2201 1269 m 3 X s 2201 1277 m 3 X s 1923 1160 1966 1146 2008 1186 2029 1152 2071 1202 2092 1152 2134 1113 2176 1225 8 {
 m21} R 1923 1172 m 28 Y s 1918 1200 m 11 X s 1923 1149 m -28 Y s 1918 1121 m 11 X s 1966 1157 m 28 Y s 1960 1185 m 11 X s 1966 1134 m -28 Y s 1960 1106 m 11 X s 2008 1197 m 28 Y s 2002 1225 m 11 X s 2008 1174 m -27 Y s 2002 1147 m 11 X s 2029 1163 m
 27 Y s 2023 1190 m 11 X s 2029 1140 m -27 Y s 2023 1113 m 11 X s 2071 1214 m 28 Y s 2065 1242 m 12 X s 2071 1191 m -28 Y s 2065 1163 m 12 X s 2092 1163 m 28 Y s 2086 1191 m 12 X s 2092 1140 m -28 Y s 2086 1112 m 12 X s 2134 1124 m 28 Y s 2129 1152 m
 11 X s 2134 1102 m -28 Y s 2129 1074 m 11 X s 2176 1237 m 28 Y s 2171 1265 m 11 X s 2176 1214 m -28 Y s 2171 1186 m 11 X s 1 0 0 c 9 lw 0.95 0.95 0.95 c black 1 0 0 c 1900 1160 m 3 1 d 3 1 d 3 1 d 3 1 d 3 1 d 3 1 d 3 1 d 3 1 d 3 1 d 3 1 d 3 1 d 3 1
 d 3 1 d 3 1 d 4 1 d 3 X 3 1 d 3 1 d 3 1 d 3 X 3 1 d 3 1 d 3 X 3 1 d 3 X 3 1 d 3 1 d 6 X 3 1 d 4 X 3 1 d 3 X 3 1 d 6 X 3 1 d 12 X 3 1 d 22 X s 2050 1188 m 21 X 3 -1 d 12 X 3 -1 d 7 X 3 -1 d 3 X 3 -1 d 6 X 3 -1 d 3 X 3 -1 d 3 X 3 -1 d 3 -1 d 3 X 3 -1
 d 3 -1 d 3 X 4 -1 d 3 -1 d 3 X 3 -1 d 3 -1 d 3 -1 d 3 -1 d 3 -1 d 3 -1 d 3 X 3 -1 d 3 -1 d 3 -1 d 3 -1 d 3 -1 d 3 -1 d 4 -2 d 3 -1 d 3 -1 d s 2200 1160 m 3 -1 d s 0.49 0.6 0.82 c black 0.49 0.6 0.82 c
 gsave  408 305 1837 1009 C 1957.19 1293.4 t 0 r /Helvetica-Bold findfont 25.6831 sf 0 0 m (2.0 < E < 2.5 GeV) show NC gr  0.52 0.76 0.64 c black 0.52 0.76 0.64 c
 gsave  408 305 1837 1009 C 1937.25 1256.36 t 0 r /Helvetica-Bold findfont 25.6831 sf 0 0 m 
 228 214 200 193 178 171 156 149 134 126 119 105 91 77 69 55 47 39 25 17
(A = \2550.003, p = 2.000) K NC gr  1 0.6 1 c black 1 0.6 1 c
 gsave  408 305 1837 1009 C 2242.08 1122.46 t 90 r /Helvetica-Bold findfont 28.5368 sf 0 0 m (/dof=1.1) show NC gr  black 1 0.6 1 c
 gsave  408 305 1837 1009 C 2230.68 1111.07 t 90 r /Helvetica-Bold findfont 19.9758 sf 0 0 m (2) show NC gr  black 1 0.6 1 c
 gsave  408 305 1837 1009 C 2242.08 1093.97 t 90 r /Symbol findfont 28.5368 sf 0 0 m (c) show NC gr  black 3 lw 1 1 1 c 408 305 23 677 bf black 1 1 1 c black 306 229 84 723 bl 306 229 84 723 bl 84 723 m 306 X s 130 727 m -4 Y s 236 727 m -4 Y s 341
 727 m -4 Y s 130 727 m -4 Y s 341 727 m -4 Y s
 gsave  408 305 23 677 C 108.258 703.676 t 0 r /Helvetica findfont 22.8295 sf 0 0 m (\2550.5) show NC gr 
 gsave  408 305 23 677 C 225.062 703.676 t 0 r /Helvetica findfont 22.8295 sf 0 0 m (0) show NC gr 
 gsave  408 305 23 677 C 321.925 703.676 t 0 r /Helvetica findfont 22.8295 sf 0 0 m (0.5) show NC gr  84 952 m 306 X s 130 948 m 4 Y s 236 948 m 4 Y s 341 948 m 4 Y s 130 948 m 4 Y s 341 948 m 4 Y s 84 723 m 229 Y s 89 741 m -5 X s 87 751 m -3 X s 87
 761 m -3 X s 87 770 m -3 X s 89 780 m -5 X s 87 789 m -3 X s 87 799 m -3 X s 87 809 m -3 X s 89 818 m -5 X s 87 828 m -3 X s 87 837 m -3 X s 87 847 m -3 X s 89 857 m -5 X s 87 866 m -3 X s 87 876 m -3 X s 87 885 m -3 X s 89 895 m -5 X s 87 905 m -3
 X s 87 914 m -3 X s 87 924 m -3 X s 89 933 m -5 X s 89 741 m -5 X s 87 732 m -3 X s 89 933 m -5 X s 87 943 m -3 X s
 gsave  408 305 23 677 C 14.2445 735.014 t 0 r /Helvetica findfont 22.8295 sf 0 0 m (\2550.006) show NC gr 
 gsave  408 305 23 677 C 14.2445 772.049 t 0 r /Helvetica findfont 22.8295 sf 0 0 m (\2550.004) show NC gr 
 gsave  408 305 23 677 C 14.2445 811.934 t 0 r /Helvetica findfont 22.8295 sf 0 0 m (\2550.002) show NC gr 
 gsave  408 305 23 677 C 65.5245 848.969 t 0 r /Helvetica findfont 22.8295 sf 0 0 m (0) show NC gr 
 gsave  408 305 23 677 C 22.7911 888.854 t 0 r /Helvetica findfont 22.8295 sf 0 0 m (0.002) show NC gr 
 gsave  408 305 23 677 C 22.7911 925.889 t 0 r /Helvetica findfont 22.8295 sf 0 0 m (0.004) show NC gr  390 723 m 229 Y s 385 741 m 5 X s 387 751 m 3 X s 387 761 m 3 X s 387 770 m 3 X s 385 780 m 5 X s 387 789 m 3 X s 387 799 m 3 X s 387 809 m 3 X s
 385 818 m 5 X s 387 828 m 3 X s 387 837 m 3 X s 387 847 m 3 X s 385 857 m 5 X s 387 866 m 3 X s 387 876 m 3 X s 387 885 m 3 X s 385 895 m 5 X s 387 905 m 3 X s 387 914 m 3 X s 387 924 m 3 X s 385 933 m 5 X s 385 741 m 5 X s 387 732 m 3 X s 385 933 m
 5 X s 387 943 m 3 X s /w 22 def /w2 {w 2 div} def /w3 {w 3 div} def 109 794 151 830 194 858 215 868 257 798 278 808 320 828 362 881 8 { m21} R 109 805 m 41 Y s 104 846 m 11 X s 109 782 m -40 Y s 104 742 m 11 X s 151 841 m 40 Y s 146 881 m 11 X s 151
 818 m -40 Y s 146 778 m 11 X s 194 870 m 41 Y s 188 911 m 11 X s 194 847 m -41 Y s 188 806 m 11 X s 215 879 m 41 Y s 209 920 m 11 X s 215 856 m -40 Y s 209 816 m 11 X s 257 809 m 41 Y s 251 850 m 11 X s 257 786 m -40 Y s 251 746 m 11 X s 278 820 m
 40 Y s 272 860 m 12 X s 278 797 m -41 Y s 272 756 m 12 X s 320 839 m 40 Y s 314 879 m 12 X s 320 816 m -40 Y s 314 776 m 12 X s 362 892 m 41 Y s 357 933 m 11 X s 362 869 m -40 Y s 357 829 m 11 X s 1 0 0 c 9 lw 0.95 0.95 0.95 c black 1 0 0 c 85 815 m
 3 2 d 4 2 d 3 1 d 3 2 d 3 1 d 3 2 d 3 1 d 3 2 d 3 1 d 3 2 d 3 1 d 3 1 d 3 1 d 3 2 d 3 1 d 3 1 d 3 1 d 4 1 d 3 1 d 3 1 d 3 1 d 3 1 d 3 1 d 3 1 d 3 1 d 3 X 3 1 d 3 1 d 3 1 d 3 X 3 1 d 3 1 d 3 X 4 1 d 3 X 3 1 d 6 X 3 1 d 6 X 3 1 d 12 X 3 1 d 6 X s 235
 857 m 7 X 3 -1 d 15 X 3 -1 d 6 X 3 -1 d 3 X 3 -1 d 3 X 3 -1 d 3 X 4 -1 d 3 -1 d 3 X 3 -1 d 3 -1 d 3 X 3 -1 d 3 -1 d 3 -1 d 3 -1 d 3 -1 d 3 -1 d 3 -1 d 3 -1 d 3 -1 d 3 -1 d 4 -1 d 3 -1 d 3 -1 d 3 -2 d 3 -1 d 3 -1 d 3 -2 d 3 -1 d 3 -1 d 3 -2 d 3 -1 d
 3 -2 d 3 -1 d 3 -2 d 3 -2 d 3 -1 d s 385 816 m 4 -2 d s 0.49 0.6 0.82 c black 0.49 0.6 0.82 c
 gsave  408 305 23 677 C 142.445 960.076 t 0 r /Helvetica-Bold findfont 25.6831 sf 0 0 m (2.5 < E < 3.0 GeV) show NC gr  0.52 0.76 0.64 c black 0.52 0.76 0.64 c
 gsave  408 305 23 677 C 122.502 923.04 t 0 r /Helvetica-Bold findfont 25.6831 sf 0 0 m 
 228 214 200 193 178 171 156 149 134 126 119 105 91 77 69 55 47 40 25 17
(A = \2550.004, p = 2.000) K NC gr  1 0.6 1 c black 1 0.6 1 c
 gsave  408 305 23 677 C 427.334 791.991 t 90 r /Helvetica-Bold findfont 28.5368 sf 0 0 m (/dof=0.5) show NC gr  black 1 0.6 1 c
 gsave  408 305 23 677 C 415.938 780.596 t 90 r /Helvetica-Bold findfont 19.9758 sf 0 0 m (2) show NC gr  black 1 0.6 1 c
 gsave  408 305 23 677 C 427.334 763.503 t 90 r /Symbol findfont 28.5368 sf 0 0 m (c) show NC gr  black 3 lw 1 1 1 c 408 305 476 677 bf black 1 1 1 c black 307 229 537 723 bl 307 229 537 723 bl 537 723 m 307 X s 584 727 m -4 Y s 689 727 m -4 Y s 795
 727 m -4 Y s 584 727 m -4 Y s 795 727 m -4 Y s
 gsave  408 305 476 677 C 561.231 703.676 t 0 r /Helvetica findfont 22.8295 sf 0 0 m (\2550.5) show NC gr 
 gsave  408 305 476 677 C 678.036 703.676 t 0 r /Helvetica findfont 22.8295 sf 0 0 m (0) show NC gr 
 gsave  408 305 476 677 C 774.898 703.676 t 0 r /Helvetica findfont 22.8295 sf 0 0 m (0.5) show NC gr  537 952 m 307 X s 584 948 m 4 Y s 689 948 m 4 Y s 795 948 m 4 Y s 584 948 m 4 Y s 795 948 m 4 Y s 537 723 m 229 Y s 543 733 m -6 X s 540 743 m -3 X
 s 540 754 m -3 X s 540 764 m -3 X s 540 774 m -3 X s 543 785 m -6 X s 540 795 m -3 X s 540 806 m -3 X s 540 816 m -3 X s 540 826 m -3 X s 543 837 m -6 X s 540 847 m -3 X s 540 858 m -3 X s 540 868 m -3 X s 540 878 m -3 X s 543 889 m -6 X s 540 899 m
 -3 X s 540 910 m -3 X s 540 920 m -3 X s 540 930 m -3 X s 543 941 m -6 X s 543 733 m -6 X s 543 941 m -6 X s 540 951 m -3 X s
 gsave  408 305 476 677 C 467.218 726.467 t 0 r /Helvetica findfont 22.8295 sf 0 0 m (\2550.005) show NC gr 
 gsave  408 305 476 677 C 518.498 777.747 t 0 r /Helvetica findfont 22.8295 sf 0 0 m (0) show NC gr 
 gsave  408 305 476 677 C 475.765 829.027 t 0 r /Helvetica findfont 22.8295 sf 0 0 m (0.005) show NC gr 
 gsave  408 305 476 677 C 490.009 880.307 t 0 r /Helvetica findfont 22.8295 sf 0 0 m (0.01) show NC gr 
 gsave  408 305 476 677 C 475.765 934.436 t 0 r /Helvetica findfont 22.8295 sf 0 0 m (0.015) show NC gr  844 723 m 229 Y s 838 733 m 6 X s 841 743 m 3 X s 841 754 m 3 X s 841 764 m 3 X s 841 774 m 3 X s 838 785 m 6 X s 841 795 m 3 X s 841 806 m 3 X s
 841 816 m 3 X s 841 826 m 3 X s 838 837 m 6 X s 841 847 m 3 X s 841 858 m 3 X s 841 868 m 3 X s 841 878 m 3 X s 838 889 m 6 X s 841 899 m 3 X s 841 910 m 3 X s 841 920 m 3 X s 841 930 m 3 X s 838 941 m 6 X s 838 733 m 6 X s 838 941 m 6 X s 841 951 m
 3 X s /w 23 def /w2 {w 2 div} def /w3 {w 3 div} def 563 822 605 900 647 826 668 820 710 806 731 787 774 780 816 775 8 { m21} R 563 833 m 21 Y s 557 854 m 11 X s 563 810 m -21 Y s 557 789 m 11 X s 605 911 m 22 Y s 599 933 m 12 X s 605 888 m -22 Y s
 599 866 m 12 X s 647 837 m 22 Y s 641 859 m 12 X s 647 814 m -21 Y s 641 793 m 12 X s 668 832 m 21 Y s 662 853 m 12 X s 668 809 m -22 Y s 662 787 m 12 X s 710 817 m 21 Y s 705 838 m 11 X s 710 794 m -21 Y s 705 773 m 11 X s 731 798 m 22 Y s 726 820
 m 11 X s 731 775 m -21 Y s 726 754 m 11 X s 774 792 m 21 Y s 768 813 m 11 X s 774 769 m -22 Y s 768 747 m 11 X s 816 786 m 21 Y s 810 807 m 11 X s 816 763 m -21 Y s 810 742 m 11 X s 9 lw 0.95 0.95 0.95 c black 539 837 m 3 -1 d 3 -1 d 3 -1 d 3 -1 d 3
 -1 d 3 -1 d 3 -1 d 3 -1 d 4 -1 d 3 -1 d 3 -1 d 3 -1 d 3 -2 d 3 -1 d 3 -1 d 3 -1 d 3 -1 d 3 -1 d 3 -1 d 3 -1 d 3 -1 d 3 -1 d 3 -1 d 3 -1 d 4 -1 d 3 -1 d 3 -2 d 3 -1 d 3 -1 d 3 -1 d 3 -1 d 3 -1 d 3 -1 d 3 -1 d 3 -1 d 3 -1 d 3 -1 d 3 -1 d 3 -1 d 3 -1 d
 3 -2 d 4 -1 d 3 -1 d 3 -1 d 3 -1 d 3 -1 d 3 -1 d 3 -1 d 3 -1 d s 689 785 m 3 -1 d 3 -1 d 3 -1 d 3 -1 d 3 -1 d 3 -2 d 3 -1 d 3 -1 d 4 -1 d 3 -1 d 3 -1 d 3 -1 d 3 -1 d 3 -1 d 3 -1 d 3 -1 d 3 -1 d 3 -1 d 3 -1 d 3 -2 d 3 -1 d 3 -1 d 3 -1 d 3 -1 d 4 -1 d
 3 -1 d 3 -1 d 3 -1 d 3 -1 d 3 -1 d 3 -1 d 3 -1 d 3 -1 d 3 -1 d 3 -2 d 3 -1 d 3 -1 d 3 -1 d 3 -1 d 3 -1 d 4 -1 d 3 -1 d 3 -1 d 3 -1 d 3 -1 d 3 -1 d 3 -1 d 3 -1 d 3 -2 d s 839 732 m 3 -1 d s 0.49 0.6 0.82 c black 0.49 0.6 0.82 c
 gsave  408 305 476 677 C 595.418 960.076 t 0 r /Helvetica-Bold findfont 25.6831 sf 0 0 m (3.0 < E < 3.5 GeV) show NC gr  0.52 0.76 0.64 c black 0.52 0.76 0.64 c
 gsave  408 305 476 677 C 575.476 923.04 t 0 r /Helvetica-Bold findfont 25.6831 sf 0 0 m 
 228 214 200 193 178 171 156 149 133 126 119 105 91 77 69 55 47 39 25 17
(A = \2550.007, p = 1.000) K NC gr  1 0.6 1 c black 1 0.6 1 c
 gsave  408 305 476 677 C 883.156 791.991 t 90 r /Helvetica-Bold findfont 28.5368 sf 0 0 m (/dof=1.5) show NC gr  black 1 0.6 1 c
 gsave  408 305 476 677 C 871.76 780.596 t 90 r /Helvetica-Bold findfont 19.9758 sf 0 0 m (2) show NC gr  black 1 0.6 1 c
 gsave  408 305 476 677 C 883.156 763.503 t 90 r /Symbol findfont 28.5368 sf 0 0 m (c) show NC gr  black 3 lw 1 1 1 c 408 305 930 677 bf black 1 1 1 c black 306 229 991 723 bl 306 229 991 723 bl 991 723 m 306 X s 1037 727 m -4 Y s 1143 727 m -4 Y s
 1248 727 m -4 Y s 1037 727 m -4 Y s 1248 727 m -4 Y s
 gsave  408 305 930 677 C 1017.05 703.676 t 0 r /Helvetica findfont 22.8295 sf 0 0 m (\2550.5) show NC gr 
 gsave  408 305 930 677 C 1133.86 703.676 t 0 r /Helvetica findfont 22.8295 sf 0 0 m (0) show NC gr 
 gsave  408 305 930 677 C 1230.72 703.676 t 0 r /Helvetica findfont 22.8295 sf 0 0 m (0.5) show NC gr  991 952 m 306 X s 1037 948 m 4 Y s 1143 948 m 4 Y s 1248 948 m 4 Y s 1037 948 m 4 Y s 1248 948 m 4 Y s 991 723 m 229 Y s 997 752 m -6 X s 994 760 m
 -3 X s 994 768 m -3 X s 994 776 m -3 X s 994 784 m -3 X s 997 793 m -6 X s 994 801 m -3 X s 994 809 m -3 X s 994 817 m -3 X s 994 825 m -3 X s 997 833 m -6 X s 994 841 m -3 X s 994 849 m -3 X s 994 857 m -3 X s 994 865 m -3 X s 997 873 m -6 X s 994
 881 m -3 X s 994 889 m -3 X s 994 897 m -3 X s 994 905 m -3 X s 997 913 m -6 X s 997 752 m -6 X s 994 744 m -3 X s 994 736 m -3 X s 994 728 m -3 X s 997 913 m -6 X s 994 921 m -3 X s 994 929 m -3 X s 994 937 m -3 X s 994 945 m -3 X s
 gsave  408 305 930 677 C 940.134 746.409 t 0 r /Helvetica findfont 22.8295 sf 0 0 m (\2550.01) show NC gr 
 gsave  408 305 930 677 C 923.04 786.294 t 0 r /Helvetica findfont 22.8295 sf 0 0 m (\2550.005) show NC gr 
 gsave  408 305 930 677 C 974.32 826.178 t 0 r /Helvetica findfont 22.8295 sf 0 0 m (0) show NC gr 
 gsave  408 305 930 677 C 931.587 866.063 t 0 r /Helvetica findfont 22.8295 sf 0 0 m (0.005) show NC gr 
 gsave  408 305 930 677 C 945.832 905.947 t 0 r /Helvetica findfont 22.8295 sf 0 0 m (0.01) show NC gr  1297 723 m 229 Y s 1292 752 m 5 X s 1294 760 m 3 X s 1294 768 m 3 X s 1294 776 m 3 X s 1294 784 m 3 X s 1292 793 m 5 X s 1294 801 m 3 X s 1294 809
 m 3 X s 1294 817 m 3 X s 1294 825 m 3 X s 1292 833 m 5 X s 1294 841 m 3 X s 1294 849 m 3 X s 1294 857 m 3 X s 1294 865 m 3 X s 1292 873 m 5 X s 1294 881 m 3 X s 1294 889 m 3 X s 1294 897 m 3 X s 1294 905 m 3 X s 1292 913 m 5 X s 1292 752 m 5 X s
 1294 744 m 3 X s 1294 736 m 3 X s 1294 728 m 3 X s 1292 913 m 5 X s 1294 921 m 3 X s 1294 929 m 3 X s 1294 937 m 3 X s 1294 945 m 3 X s 1016 901 1058 863 1101 867 1122 855 1164 847 1185 818 1227 869 1269 773 8 { m21} R 1016 912 m 21 Y s 1011 933 m
 11 X s 1016 890 m -21 Y s 1011 869 m 11 X s 1058 875 m 20 Y s 1053 895 m 11 X s 1058 852 m -21 Y s 1053 831 m 11 X s 1101 878 m 21 Y s 1095 899 m 11 X s 1101 856 m -21 Y s 1095 835 m 11 X s 1122 866 m 21 Y s 1116 887 m 11 X s 1122 844 m -21 Y s 1116
 823 m 11 X s 1164 858 m 21 Y s 1158 879 m 12 X s 1164 835 m -20 Y s 1158 815 m 12 X s 1185 829 m 21 Y s 1179 850 m 12 X s 1185 807 m -21 Y s 1179 786 m 12 X s 1227 880 m 21 Y s 1221 901 m 12 X s 1227 858 m -21 Y s 1221 837 m 12 X s 1269 785 m 20 Y s
 1264 805 m 11 X s 1269 762 m -20 Y s 1264 742 m 11 X s 9 lw 0.95 0.95 0.95 c black 993 886 m 3 -2 d 3 -1 d 3 -1 d 3 -1 d 3 -1 d 3 -1 d 3 -1 d 3 -1 d 3 -1 d 3 -1 d 3 -1 d 3 -1 d 3 -1 d 3 -2 d 3 -1 d 4 -1 d 3 -1 d 3 -1 d 3 -1 d 3 -1 d 3 -1 d 3 -1 d 3
 -1 d 3 -1 d 3 -1 d 3 -2 d 3 -1 d 3 -1 d 3 -1 d 3 -1 d 3 -1 d 3 -1 d 4 -1 d 3 -1 d 3 -1 d 3 -1 d 3 -1 d 3 -1 d 3 -2 d 3 -1 d 3 -1 d 3 -1 d 3 -1 d 3 -1 d 3 -1 d 3 -1 d 3 -1 d 3 -1 d 4 -1 d s 1143 833 m 3 -1 d 3 -1 d 3 -2 d 3 -1 d 3 -1 d 3 -1 d 3 -1 d
 3 -1 d 3 -1 d 3 -1 d 3 -1 d 3 -1 d 3 -1 d 3 -1 d 3 -2 d 4 -1 d 3 -1 d 3 -1 d 3 -1 d 3 -1 d 3 -1 d 3 -1 d 3 -1 d 3 -1 d 3 -1 d 3 -1 d 3 -1 d 3 -2 d 3 -1 d 3 -1 d 3 -1 d 3 -1 d 4 -1 d 3 -1 d 3 -1 d 3 -1 d 3 -1 d 3 -1 d 3 -1 d 3 -2 d 3 -1 d 3 -1 d 3 -1
 d 3 -1 d 3 -1 d 3 -1 d 3 -1 d 3 -1 d 4 -1 d s 1293 780 m 3 -1 d s 0.49 0.6 0.82 c black 0.49 0.6 0.82 c
 gsave  408 305 930 677 C 1051.24 960.076 t 0 r /Helvetica-Bold findfont 25.6831 sf 0 0 m (3.5 < E < 4.0 GeV) show NC gr  0.52 0.76 0.64 c black 0.52 0.76 0.64 c
 gsave  408 305 930 677 C 1031.3 923.04 t 0 r /Helvetica-Bold findfont 25.6831 sf 0 0 m 
 228 214 200 193 178 171 156 149 134 126 119 105 91 77 69 55 47 39 25 17
(A = \2550.009, p = 1.000) K NC gr  1 0.6 1 c black 1 0.6 1 c
 gsave  408 305 930 677 C 1336.13 791.991 t 90 r /Helvetica-Bold findfont 28.5368 sf 0 0 m (/dof=0.9) show NC gr  black 1 0.6 1 c
 gsave  408 305 930 677 C 1324.73 780.596 t 90 r /Helvetica-Bold findfont 19.9758 sf 0 0 m (2) show NC gr  black 1 0.6 1 c
 gsave  408 305 930 677 C 1336.13 763.503 t 90 r /Symbol findfont 28.5368 sf 0 0 m (c) show NC gr  black 3 lw 1 1 1 c 408 305 1383 677 bf black 1 1 1 c black 306 229 1445 723 bl 306 229 1445 723 bl 1445 723 m 306 X s 1491 727 m -4 Y s 1596 727 m -4 Y
 s 1702 727 m -4 Y s 1491 727 m -4 Y s 1702 727 m -4 Y s
 gsave  408 305 1383 677 C 1470.03 703.676 t 0 r /Helvetica findfont 22.8295 sf 0 0 m (\2550.5) show NC gr 
 gsave  408 305 1383 677 C 1586.83 703.676 t 0 r /Helvetica findfont 22.8295 sf 0 0 m (0) show NC gr 
 gsave  408 305 1383 677 C 1683.69 703.676 t 0 r /Helvetica findfont 22.8295 sf 0 0 m (0.5) show NC gr  1445 952 m 306 X s 1491 948 m 4 Y s 1596 948 m 4 Y s 1702 948 m 4 Y s 1491 948 m 4 Y s 1702 948 m 4 Y s 1445 723 m 229 Y s 1450 756 m -5 X s 1447
 763 m -2 X s 1447 770 m -2 X s 1447 777 m -2 X s 1447 784 m -2 X s 1450 791 m -5 X s 1447 798 m -2 X s 1447 805 m -2 X s 1447 812 m -2 X s 1447 819 m -2 X s 1450 826 m -5 X s 1447 834 m -2 X s 1447 841 m -2 X s 1447 848 m -2 X s 1447 855 m -2 X s
 1450 862 m -5 X s 1447 869 m -2 X s 1447 876 m -2 X s 1447 883 m -2 X s 1447 890 m -2 X s 1450 897 m -5 X s 1447 904 m -2 X s 1447 911 m -2 X s 1447 918 m -2 X s 1447 925 m -2 X s 1450 932 m -5 X s 1450 756 m -5 X s 1447 749 m -2 X s 1447 742 m -2 X
 s 1447 735 m -2 X s 1447 728 m -2 X s 1450 932 m -5 X s 1447 939 m -2 X s 1447 946 m -2 X s
 gsave  408 305 1383 677 C 1376.01 749.258 t 0 r /Helvetica findfont 22.8295 sf 0 0 m (\2550.015) show NC gr 
 gsave  408 305 1383 677 C 1393.11 783.445 t 0 r /Helvetica findfont 22.8295 sf 0 0 m (\2550.01) show NC gr 
 gsave  408 305 1383 677 C 1376.01 820.48 t 0 r /Helvetica findfont 22.8295 sf 0 0 m (\2550.005) show NC gr 
 gsave  408 305 1383 677 C 1427.29 854.667 t 0 r /Helvetica findfont 22.8295 sf 0 0 m (0) show NC gr 
 gsave  408 305 1383 677 C 1384.56 888.854 t 0 r /Helvetica findfont 22.8295 sf 0 0 m (0.005) show NC gr 
 gsave  408 305 1383 677 C 1398.81 925.889 t 0 r /Helvetica findfont 22.8295 sf 0 0 m (0.01) show NC gr  1751 723 m 229 Y s 1745 756 m 6 X s 1748 763 m 3 X s 1748 770 m 3 X s 1748 777 m 3 X s 1748 784 m 3 X s 1745 791 m 6 X s 1748 798 m 3 X s 1748
 805 m 3 X s 1748 812 m 3 X s 1748 819 m 3 X s 1745 826 m 6 X s 1748 834 m 3 X s 1748 841 m 3 X s 1748 848 m 3 X s 1748 855 m 3 X s 1745 862 m 6 X s 1748 869 m 3 X s 1748 876 m 3 X s 1748 883 m 3 X s 1748 890 m 3 X s 1745 897 m 6 X s 1748 904 m 3 X s
 1748 911 m 3 X s 1748 918 m 3 X s 1748 925 m 3 X s 1745 932 m 6 X s 1745 756 m 6 X s 1748 749 m 3 X s 1748 742 m 3 X s 1748 735 m 3 X s 1748 728 m 3 X s 1745 932 m 6 X s 1748 939 m 3 X s 1748 946 m 3 X s 1470 894 1512 792 1554 780 1575 830 1617 863
 1639 881 1681 837 1723 826 8 { m21} R 1470 906 m 27 Y s 1464 933 m 12 X s 1470 883 m -27 Y s 1464 856 m 12 X s 1512 803 m 26 Y s 1506 829 m 12 X s 1512 781 m -27 Y s 1506 754 m 12 X s 1554 791 m 26 Y s 1548 817 m 12 X s 1554 768 m -26 Y s 1548 742 m
 12 X s 1575 841 m 26 Y s 1570 867 m 11 X s 1575 818 m -26 Y s 1570 792 m 11 X s 1617 874 m 27 Y s 1612 901 m 11 X s 1617 852 m -27 Y s 1612 825 m 11 X s 1639 892 m 27 Y s 1633 919 m 11 X s 1639 869 m -26 Y s 1633 843 m 11 X s 1681 849 m 26 Y s 1675
 875 m 11 X s 1681 826 m -26 Y s 1675 800 m 11 X s 1723 837 m 26 Y s 1717 863 m 12 X s 1723 814 m -26 Y s 1717 788 m 12 X s 1 0 0 c 9 lw 0.95 0.95 0.95 c black 1 0 0 c 1446 829 m 3 2 d 3 1 d 3 1 d 3 2 d 3 1 d 3 1 d 3 1 d 4 1 d 3 1 d 3 1 d 3 1 d 3 1 d
 3 1 d 3 1 d 3 1 d 3 1 d 3 1 d 3 1 d 3 1 d 3 X 3 1 d 3 1 d 3 1 d 4 X 3 1 d 3 1 d 3 X 3 1 d 3 X 3 1 d 3 X 3 1 d 3 X 3 1 d 6 X 3 1 d 6 X 4 1 d 12 X 3 1 d 12 X s 1596 862 m 12 X 3 -1 d 13 X 3 -1 d 6 X 3 -1 d 6 X 3 -1 d 3 X 3 -1 d 3 X 3 -1 d 3 X 3 -1 d 3
 X 4 -1 d 3 -1 d 3 X 3 -1 d 3 -1 d 3 X 3 -1 d 3 -1 d 3 -1 d 3 -1 d 3 -1 d 3 -1 d 3 -1 d 3 -1 d 3 -1 d 3 -1 d 4 -1 d 3 -1 d 3 -1 d 3 -1 d 3 -1 d 3 -1 d 3 -1 d 3 -2 d 3 -1 d 3 -1 d s 1746 830 m 3 -2 d s 0.49 0.6 0.82 c black 0.49 0.6 0.82 c
 gsave  408 305 1383 677 C 1504.21 960.076 t 0 r /Helvetica-Bold findfont 25.6831 sf 0 0 m (4.0 < E < 4.5 GeV) show NC gr  0.52 0.76 0.64 c black 0.52 0.76 0.64 c
 gsave  408 305 1383 677 C 1484.27 923.04 t 0 r /Helvetica-Bold findfont 25.6831 sf 0 0 m 
 228 214 200 193 178 171 156 149 133 126 119 105 91 76 69 55 47 39 25 17
(A = \2550.009, p = 2.000) K NC gr  1 0.6 1 c black 1 0.6 1 c
 gsave  408 305 1383 677 C 1789.1 791.991 t 90 r /Helvetica-Bold findfont 28.5368 sf 0 0 m (/dof=1.5) show NC gr  black 1 0.6 1 c
 gsave  408 305 1383 677 C 1777.71 780.596 t 90 r /Helvetica-Bold findfont 19.9758 sf 0 0 m (2) show NC gr  black 1 0.6 1 c
 gsave  408 305 1383 677 C 1789.1 763.503 t 90 r /Symbol findfont 28.5368 sf 0 0 m (c) show NC gr  black 3 lw 1 1 1 c 408 305 1837 677 bf black 1 1 1 c black 306 229 1898 723 bl 306 229 1898 723 bl 1898 723 m 306 X s 1944 727 m -4 Y s 2050 727 m -4 Y
 s 2155 727 m -4 Y s 1944 727 m -4 Y s 2155 727 m -4 Y s
 gsave  408 305 1837 677 C 1923 703.676 t 0 r /Helvetica findfont 22.8295 sf 0 0 m (\2550.5) show NC gr 
 gsave  408 305 1837 677 C 2039.81 703.676 t 0 r /Helvetica findfont 22.8295 sf 0 0 m (0) show NC gr 
 gsave  408 305 1837 677 C 2136.67 703.676 t 0 r /Helvetica findfont 22.8295 sf 0 0 m (0.5) show NC gr  1898 952 m 306 X s 1944 948 m 4 Y s 2050 948 m 4 Y s 2155 948 m 4 Y s 1944 948 m 4 Y s 2155 948 m 4 Y s 1898 723 m 229 Y s 1904 743 m -6 X s 1901
 748 m -3 X s 1901 753 m -3 X s 1901 758 m -3 X s 1901 763 m -3 X s 1904 768 m -6 X s 1901 773 m -3 X s 1901 778 m -3 X s 1901 783 m -3 X s 1901 788 m -3 X s 1904 793 m -6 X s 1901 798 m -3 X s 1901 803 m -3 X s 1901 808 m -3 X s 1901 812 m -3 X s
 1904 817 m -6 X s 1901 822 m -3 X s 1901 827 m -3 X s 1901 832 m -3 X s 1901 837 m -3 X s 1904 842 m -6 X s 1901 847 m -3 X s 1901 852 m -3 X s 1901 857 m -3 X s 1901 862 m -3 X s 1904 867 m -6 X s 1901 872 m -3 X s 1901 877 m -3 X s 1901 882 m -3 X
 s 1901 887 m -3 X s 1904 892 m -6 X s 1901 897 m -3 X s 1901 902 m -3 X s 1901 907 m -3 X s 1901 912 m -3 X s 1904 917 m -6 X s 1901 922 m -3 X s 1901 927 m -3 X s 1901 932 m -3 X s 1901 937 m -3 X s 1904 942 m -6 X s 1904 743 m -6 X s 1901 738 m -3
 X s 1901 733 m -3 X s 1901 728 m -3 X s 1901 723 m -3 X s 1904 942 m -6 X s 1901 947 m -3 X s 1901 951 m -3 X s
 gsave  408 305 1837 677 C 1828.99 735.014 t 0 r /Helvetica findfont 22.8295 sf 0 0 m (\2550.015) show NC gr 
 gsave  408 305 1837 677 C 1846.08 760.654 t 0 r /Helvetica findfont 22.8295 sf 0 0 m (\2550.01) show NC gr 
 gsave  408 305 1837 677 C 1828.99 786.294 t 0 r /Helvetica findfont 22.8295 sf 0 0 m (\2550.005) show NC gr 
 gsave  408 305 1837 677 C 1880.27 809.085 t 0 r /Helvetica findfont 22.8295 sf 0 0 m (0) show NC gr 
 gsave  408 305 1837 677 C 1837.53 834.725 t 0 r /Helvetica findfont 22.8295 sf 0 0 m (0.005) show NC gr 
 gsave  408 305 1837 677 C 1851.78 860.365 t 0 r /Helvetica findfont 22.8295 sf 0 0 m (0.01) show NC gr 
 gsave  408 305 1837 677 C 1837.53 886.005 t 0 r /Helvetica findfont 22.8295 sf 0 0 m (0.015) show NC gr 
 gsave  408 305 1837 677 C 1848.93 908.796 t 0 r /Helvetica findfont 22.8295 sf 0 0 m (0.02) show NC gr 
 gsave  408 305 1837 677 C 1837.53 934.436 t 0 r /Helvetica findfont 22.8295 sf 0 0 m (0.025) show NC gr  2204 723 m 229 Y s 2199 743 m 5 X s 2201 748 m 3 X s 2201 753 m 3 X s 2201 758 m 3 X s 2201 763 m 3 X s 2199 768 m 5 X s 2201 773 m 3 X s 2201
 778 m 3 X s 2201 783 m 3 X s 2201 788 m 3 X s 2199 793 m 5 X s 2201 798 m 3 X s 2201 803 m 3 X s 2201 808 m 3 X s 2201 812 m 3 X s 2199 817 m 5 X s 2201 822 m 3 X s 2201 827 m 3 X s 2201 832 m 3 X s 2201 837 m 3 X s 2199 842 m 5 X s 2201 847 m 3 X s
 2201 852 m 3 X s 2201 857 m 3 X s 2201 862 m 3 X s 2199 867 m 5 X s 2201 872 m 3 X s 2201 877 m 3 X s 2201 882 m 3 X s 2201 887 m 3 X s 2199 892 m 5 X s 2201 897 m 3 X s 2201 902 m 3 X s 2201 907 m 3 X s 2201 912 m 3 X s 2199 917 m 5 X s 2201 922 m
 3 X s 2201 927 m 3 X s 2201 932 m 3 X s 2201 937 m 3 X s 2199 942 m 5 X s 2199 743 m 5 X s 2201 738 m 3 X s 2201 733 m 3 X s 2201 728 m 3 X s 2201 723 m 3 X s 2199 942 m 5 X s 2201 947 m 3 X s 2201 951 m 3 X s 1923 779 1966 825 2008 811 2029 805
 2071 875 2092 879 2134 828 2176 896 8 { m21} R 1923 790 m 25 Y s 1918 815 m 11 X s 1923 767 m -25 Y s 1918 742 m 11 X s 1966 836 m 25 Y s 1960 861 m 11 X s 1966 813 m -25 Y s 1960 788 m 11 X s 2008 822 m 25 Y s 2002 847 m 11 X s 2008 799 m -25 Y s
 2002 774 m 11 X s 2029 816 m 26 Y s 2023 842 m 11 X s 2029 793 m -25 Y s 2023 768 m 11 X s 2071 887 m 25 Y s 2065 912 m 12 X s 2071 864 m -26 Y s 2065 838 m 12 X s 2092 891 m 25 Y s 2086 916 m 12 X s 2092 868 m -26 Y s 2086 842 m 12 X s 2134 840 m
 25 Y s 2129 865 m 11 X s 2134 817 m -25 Y s 2129 792 m 11 X s 2176 907 m 26 Y s 2171 933 m 11 X s 2176 884 m -25 Y s 2171 859 m 11 X s 9 lw 0.95 0.95 0.95 c black 1900 760 m 3 1 d 3 1 d 3 1 d 3 2 d 3 1 d 3 1 d 3 1 d 3 1 d 3 1 d 3 2 d 3 1 d 3 1 d 3 1
 d 3 1 d 4 1 d 3 2 d 3 1 d 3 1 d 3 1 d 3 1 d 3 2 d 3 1 d 3 1 d 3 1 d 3 1 d 3 1 d 3 2 d 3 1 d 3 1 d 3 1 d 4 1 d 3 1 d 3 2 d 3 1 d 3 1 d 3 1 d 3 1 d 3 1 d 3 2 d 3 1 d 3 1 d 3 1 d 3 1 d 3 1 d 3 2 d 3 1 d 3 1 d 4 1 d 3 1 d s 2050 817 m 3 2 d 3 1 d 3 1 d
 3 1 d 3 1 d 3 1 d 3 2 d 3 1 d 3 1 d 3 1 d 3 1 d 3 1 d 3 2 d 3 1 d 4 1 d 3 1 d 3 1 d 3 1 d 3 2 d 3 1 d 3 1 d 3 1 d 3 1 d 3 1 d 3 2 d 3 1 d 3 1 d 3 1 d 3 1 d 3 2 d 4 1 d 3 1 d 3 1 d 3 1 d 3 1 d 3 2 d 3 1 d 3 1 d 3 1 d 3 1 d 3 1 d 3 2 d 3 1 d 3 1 d 3 1
 d 3 1 d 4 1 d 3 2 d 3 1 d s 2200 875 m 3 1 d s 0.49 0.6 0.82 c black 0.49 0.6 0.82 c
 gsave  408 305 1837 677 C 1957.19 960.076 t 0 r /Helvetica-Bold findfont 25.6831 sf 0 0 m (4.5 < E < 5.0 GeV) show NC gr  0.52 0.76 0.64 c black 0.52 0.76 0.64 c
 gsave  408 305 1837 677 C 1942.94 923.04 t 0 r /Helvetica-Bold findfont 25.6831 sf 0 0 m 
 220 206 192 185 170 163 148 141 126 118 111 97 83 69 61 47 40 25 18
(A = 0.016, p = 1.000) K NC gr  1 0.6 1 c black 1 0.6 1 c
 gsave  408 305 1837 677 C 2242.08 791.991 t 90 r /Helvetica-Bold findfont 28.5368 sf 0 0 m (/dof=0.8) show NC gr  black 1 0.6 1 c
 gsave  408 305 1837 677 C 2230.68 780.596 t 90 r /Helvetica-Bold findfont 19.9758 sf 0 0 m (2) show NC gr  black 1 0.6 1 c
 gsave  408 305 1837 677 C 2242.08 763.503 t 90 r /Symbol findfont 28.5368 sf 0 0 m (c) show NC gr  black 3 lw 1 1 1 c 408 306 23 345 bf black 1 1 1 c black 306 229 84 391 bl 306 229 84 391 bl 84 391 m 306 X s 130 395 m -4 Y s 236 395 m -4 Y s 341
 395 m -4 Y s 130 395 m -4 Y s 341 395 m -4 Y s
 gsave  408 306 23 345 C 108.258 370.356 t 0 r /Helvetica findfont 22.8295 sf 0 0 m (\2550.5) show NC gr 
 gsave  408 306 23 345 C 225.062 370.356 t 0 r /Helvetica findfont 22.8295 sf 0 0 m (0) show NC gr 
 gsave  408 306 23 345 C 321.925 370.356 t 0 r /Helvetica findfont 22.8295 sf 0 0 m (0.5) show NC gr  84 620 m 306 X s 130 616 m 4 Y s 236 616 m 4 Y s 341 616 m 4 Y s 130 616 m 4 Y s 341 616 m 4 Y s 84 391 m 229 Y s 89 417 m -5 X s 87 423 m -3 X s 87
 429 m -3 X s 87 434 m -3 X s 87 440 m -3 X s 89 446 m -5 X s 87 452 m -3 X s 87 458 m -3 X s 87 463 m -3 X s 87 469 m -3 X s 89 475 m -5 X s 87 481 m -3 X s 87 487 m -3 X s 87 493 m -3 X s 87 498 m -3 X s 89 504 m -5 X s 87 510 m -3 X s 87 516 m -3
 X s 87 522 m -3 X s 87 527 m -3 X s 89 533 m -5 X s 87 539 m -3 X s 87 545 m -3 X s 87 551 m -3 X s 87 556 m -3 X s 89 562 m -5 X s 87 568 m -3 X s 87 574 m -3 X s 87 580 m -3 X s 87 586 m -3 X s 89 591 m -5 X s 89 417 m -5 X s 87 411 m -3 X s 87
 405 m -3 X s 87 399 m -3 X s 87 394 m -3 X s 89 591 m -5 X s 87 597 m -3 X s 87 603 m -3 X s 87 609 m -3 X s 87 615 m -3 X s
 gsave  408 306 23 345 C 28.4889 410.24 t 0 r /Helvetica findfont 22.8295 sf 0 0 m (\2550.03) show NC gr 
 gsave  408 306 23 345 C 28.4889 438.729 t 0 r /Helvetica findfont 22.8295 sf 0 0 m (\2550.02) show NC gr 
 gsave  408 306 23 345 C 31.3378 467.218 t 0 r /Helvetica findfont 22.8295 sf 0 0 m (\2550.01) show NC gr 
 gsave  408 306 23 345 C 65.5245 495.707 t 0 r /Helvetica findfont 22.8295 sf 0 0 m (0) show NC gr 
 gsave  408 306 23 345 C 37.0356 527.045 t 0 r /Helvetica findfont 22.8295 sf 0 0 m (0.01) show NC gr 
 gsave  408 306 23 345 C 34.1867 555.534 t 0 r /Helvetica findfont 22.8295 sf 0 0 m (0.02) show NC gr 
 gsave  408 306 23 345 C 34.1867 584.022 t 0 r /Helvetica findfont 22.8295 sf 0 0 m (0.03) show NC gr  390 391 m 229 Y s 385 417 m 5 X s 387 423 m 3 X s 387 429 m 3 X s 387 434 m 3 X s 387 440 m 3 X s 385 446 m 5 X s 387 452 m 3 X s 387 458 m 3 X s
 387 463 m 3 X s 387 469 m 3 X s 385 475 m 5 X s 387 481 m 3 X s 387 487 m 3 X s 387 493 m 3 X s 387 498 m 3 X s 385 504 m 5 X s 387 510 m 3 X s 387 516 m 3 X s 387 522 m 3 X s 387 527 m 3 X s 385 533 m 5 X s 387 539 m 3 X s 387 545 m 3 X s 387 551 m
 3 X s 387 556 m 3 X s 385 562 m 5 X s 387 568 m 3 X s 387 574 m 3 X s 387 580 m 3 X s 387 586 m 3 X s 385 591 m 5 X s 385 417 m 5 X s 387 411 m 3 X s 387 405 m 3 X s 387 399 m 3 X s 387 394 m 3 X s 385 591 m 5 X s 387 597 m 3 X s 387 603 m 3 X s 387
 609 m 3 X s 387 615 m 3 X s /w 22 def /w2 {w 2 div} def /w3 {w 3 div} def 109 438 151 503 194 466 215 505 257 520 278 526 320 532 362 572 8 { m21} R 109 450 m 17 Y s 104 467 m 11 X s 109 427 m -17 Y s 104 410 m 11 X s 151 515 m 17 Y s 146 532 m 11 X
 s 151 492 m -17 Y s 146 475 m 11 X s 194 477 m 17 Y s 188 494 m 11 X s 194 454 m -17 Y s 188 437 m 11 X s 215 516 m 17 Y s 209 533 m 11 X s 215 493 m -17 Y s 209 476 m 11 X s 257 532 m 17 Y s 251 549 m 11 X s 257 509 m -17 Y s 251 492 m 11 X s 278
 537 m 17 Y s 272 554 m 12 X s 278 514 m -17 Y s 272 497 m 12 X s 320 543 m 17 Y s 314 560 m 12 X s 320 520 m -17 Y s 314 503 m 12 X s 362 583 m 18 Y s 357 601 m 11 X s 362 561 m -18 Y s 357 543 m 11 X s 9 lw 0.95 0.95 0.95 c black 85 438 m 3 2 d 4 1
 d 3 1 d 3 2 d 3 1 d 3 1 d 3 2 d 3 1 d 3 1 d 3 2 d 3 1 d 3 1 d 3 2 d 3 1 d 3 1 d 3 2 d 3 1 d 4 1 d 3 2 d 3 1 d 3 1 d 3 2 d 3 1 d 3 1 d 3 2 d 3 1 d 3 2 d 3 1 d 3 1 d 3 2 d 3 1 d 3 1 d 3 2 d 4 1 d 3 1 d 3 2 d 3 1 d 3 1 d 3 2 d 3 1 d 3 1 d 3 2 d 3 1 d 3
 1 d 3 2 d 3 1 d 3 1 d 3 2 d 3 1 d s 235 504 m 4 1 d 3 2 d 3 1 d 3 1 d 3 2 d 3 1 d 3 1 d 3 2 d 3 1 d 3 1 d 3 2 d 3 1 d 3 1 d 3 2 d 3 1 d 3 1 d 3 2 d 4 1 d 3 2 d 3 1 d 3 1 d 3 2 d 3 1 d 3 1 d 3 2 d 3 1 d 3 1 d 3 2 d 3 1 d 3 1 d 3 2 d 3 1 d 3 1 d 4 2 d
 3 1 d 3 1 d 3 2 d 3 1 d 3 1 d 3 2 d 3 1 d 3 1 d 3 2 d 3 1 d 3 1 d 3 2 d 3 1 d 3 1 d 3 2 d s 385 570 m 4 1 d s 0.49 0.6 0.82 c black 0.49 0.6 0.82 c
 gsave  408 306 23 345 C 142.445 629.605 t 0 r /Helvetica-Bold findfont 25.6831 sf 0 0 m (5.0 < E < 5.5 GeV) show NC gr  0.52 0.76 0.64 c black 0.52 0.76 0.64 c
 gsave  408 306 23 345 C 128.2 592.569 t 0 r /Helvetica-Bold findfont 25.6831 sf 0 0 m 
 220 206 192 185 170 163 148 141 126 118 111 97 83 69 61 47 40 25 18
(A = 0.032, p = 1.000) K NC gr  1 0.6 1 c black 1 0.6 1 c
 gsave  408 306 23 345 C 427.334 458.671 t 90 r /Helvetica-Bold findfont 28.5368 sf 0 0 m (/dof=0.4) show NC gr  black 1 0.6 1 c
 gsave  408 306 23 345 C 415.938 447.276 t 90 r /Helvetica-Bold findfont 19.9758 sf 0 0 m (2) show NC gr  black 1 0.6 1 c
 gsave  408 306 23 345 C 427.334 430.182 t 90 r /Symbol findfont 28.5368 sf 0 0 m (c) show NC gr  black 3 lw 1 1 1 c 408 306 476 345 bf black 1 1 1 c black 307 229 537 391 bl 307 229 537 391 bl 537 391 m 307 X s 584 395 m -4 Y s 689 395 m -4 Y s 795
 395 m -4 Y s 584 395 m -4 Y s 795 395 m -4 Y s
 gsave  408 306 476 345 C 561.231 370.356 t 0 r /Helvetica findfont 22.8295 sf 0 0 m (\2550.5) show NC gr 
 gsave  408 306 476 345 C 678.036 370.356 t 0 r /Helvetica findfont 22.8295 sf 0 0 m (0) show NC gr 
 gsave  408 306 476 345 C 774.898 370.356 t 0 r /Helvetica findfont 22.8295 sf 0 0 m (0.5) show NC gr  537 620 m 307 X s 584 616 m 4 Y s 689 616 m 4 Y s 795 616 m 4 Y s 584 616 m 4 Y s 795 616 m 4 Y s 537 391 m 229 Y s 543 410 m -6 X s 540 421 m -3 X
 s 540 432 m -3 X s 540 443 m -3 X s 543 454 m -6 X s 540 465 m -3 X s 540 476 m -3 X s 540 487 m -3 X s 543 498 m -6 X s 540 509 m -3 X s 540 520 m -3 X s 540 530 m -3 X s 543 541 m -6 X s 540 552 m -3 X s 540 563 m -3 X s 540 574 m -3 X s 543 585 m
 -6 X s 543 410 m -6 X s 540 399 m -3 X s 543 585 m -6 X s 540 596 m -3 X s 540 607 m -3 X s 540 618 m -3 X s
 gsave  408 306 476 345 C 481.462 401.694 t 0 r /Helvetica findfont 22.8295 sf 0 0 m (\2550.04) show NC gr 
 gsave  408 306 476 345 C 481.462 447.276 t 0 r /Helvetica findfont 22.8295 sf 0 0 m (\2550.02) show NC gr 
 gsave  408 306 476 345 C 518.498 490.009 t 0 r /Helvetica findfont 22.8295 sf 0 0 m (0) show NC gr 
 gsave  408 306 476 345 C 487.16 535.591 t 0 r /Helvetica findfont 22.8295 sf 0 0 m (0.02) show NC gr 
 gsave  408 306 476 345 C 487.16 578.325 t 0 r /Helvetica findfont 22.8295 sf 0 0 m (0.04) show NC gr  844 391 m 229 Y s 838 410 m 6 X s 841 421 m 3 X s 841 432 m 3 X s 841 443 m 3 X s 838 454 m 6 X s 841 465 m 3 X s 841 476 m 3 X s 841 487 m 3 X s
 838 498 m 6 X s 841 509 m 3 X s 841 520 m 3 X s 841 530 m 3 X s 838 541 m 6 X s 841 552 m 3 X s 841 563 m 3 X s 841 574 m 3 X s 838 585 m 6 X s 838 410 m 6 X s 841 399 m 3 X s 838 585 m 6 X s 841 596 m 3 X s 841 607 m 3 X s 841 618 m 3 X s /w 23 def
 /w2 {w 2 div} def /w3 {w 3 div} def 563 437 605 459 647 456 668 499 710 481 731 508 774 494 816 573 8 { m21} R 563 448 m 15 Y s 557 463 m 11 X s 563 425 m -15 Y s 557 410 m 11 X s 605 471 m 15 Y s 599 486 m 12 X s 605 448 m -16 Y s 599 432 m 12 X s
 647 467 m 15 Y s 641 482 m 12 X s 647 444 m -15 Y s 641 429 m 12 X s 668 510 m 16 Y s 662 526 m 12 X s 668 487 m -15 Y s 662 472 m 12 X s 710 492 m 16 Y s 705 508 m 11 X s 710 470 m -16 Y s 705 454 m 11 X s 731 520 m 15 Y s 726 535 m 11 X s 731 497
 m -16 Y s 726 481 m 11 X s 774 506 m 15 Y s 768 521 m 11 X s 774 483 m -16 Y s 768 467 m 11 X s 816 585 m 16 Y s 810 601 m 11 X s 816 562 m -16 Y s 810 546 m 11 X s 9 lw 0.95 0.95 0.95 c black 539 432 m 3 2 d 3 1 d 3 1 d 3 2 d 3 1 d 3 1 d 3 2 d 3 1
 d 4 1 d 3 2 d 3 1 d 3 1 d 3 2 d 3 1 d 3 1 d 3 2 d 3 1 d 3 1 d 3 2 d 3 1 d 3 1 d 3 2 d 3 1 d 3 1 d 4 2 d 3 1 d 3 1 d 3 2 d 3 1 d 3 1 d 3 2 d 3 1 d 3 1 d 3 2 d 3 1 d 3 1 d 3 1 d 3 2 d 3 1 d 3 1 d 3 2 d 4 1 d 3 1 d 3 2 d 3 1 d 3 1 d 3 2 d 3 1 d 3 1 d s
 689 497 m 3 2 d 3 1 d 3 1 d 3 2 d 3 1 d 3 1 d 3 2 d 3 1 d 4 1 d 3 2 d 3 1 d 3 1 d 3 2 d 3 1 d 3 1 d 3 2 d 3 1 d 3 1 d 3 2 d 3 1 d 3 1 d 3 2 d 3 1 d 3 1 d 4 2 d 3 1 d 3 1 d 3 2 d 3 1 d 3 1 d 3 2 d 3 1 d 3 1 d 3 2 d 3 1 d 3 1 d 3 2 d 3 1 d 3 1 d 3 2 d
 4 1 d 3 1 d 3 2 d 3 1 d 3 1 d 3 2 d 3 1 d 3 1 d 3 2 d s 839 563 m 3 1 d s 0.49 0.6 0.82 c black 0.49 0.6 0.82 c
 gsave  408 306 476 345 C 595.418 629.605 t 0 r /Helvetica-Bold findfont 25.6831 sf 0 0 m (5.5 < E < 6.0 GeV) show NC gr  0.52 0.76 0.64 c black 0.52 0.76 0.64 c
 gsave  408 306 476 345 C 581.174 592.569 t 0 r /Helvetica-Bold findfont 25.6831 sf 0 0 m 
 220 206 192 185 170 163 148 141 125 118 111 97 83 69 61 47 40 25 18
(A = 0.042, p = 1.000) K NC gr  1 0.6 1 c black 1 0.6 1 c
 gsave  408 306 476 345 C 883.156 458.671 t 90 r /Helvetica-Bold findfont 28.5368 sf 0 0 m (/dof=0.7) show NC gr  black 1 0.6 1 c
 gsave  408 306 476 345 C 871.76 447.276 t 90 r /Helvetica-Bold findfont 19.9758 sf 0 0 m (2) show NC gr  black 1 0.6 1 c
 gsave  408 306 476 345 C 883.156 430.182 t 90 r /Symbol findfont 28.5368 sf 0 0 m (c) show NC gr  black 3 lw 1 1 1 c 408 306 930 345 bf black 1 1 1 c black 306 229 991 391 bl 306 229 991 391 bl 991 391 m 306 X s 1037 395 m -4 Y s 1143 395 m -4 Y s
 1248 395 m -4 Y s 1037 395 m -4 Y s 1248 395 m -4 Y s
 gsave  408 306 930 345 C 1017.05 370.356 t 0 r /Helvetica findfont 22.8295 sf 0 0 m (\2550.5) show NC gr 
 gsave  408 306 930 345 C 1133.86 370.356 t 0 r /Helvetica findfont 22.8295 sf 0 0 m (0) show NC gr 
 gsave  408 306 930 345 C 1230.72 370.356 t 0 r /Helvetica findfont 22.8295 sf 0 0 m (0.5) show NC gr  991 620 m 306 X s 1037 616 m 4 Y s 1143 616 m 4 Y s 1248 616 m 4 Y s 1037 616 m 4 Y s 1248 616 m 4 Y s 991 391 m 229 Y s 997 414 m -6 X s 994 420 m
 -3 X s 994 427 m -3 X s 994 434 m -3 X s 994 440 m -3 X s 997 447 m -6 X s 994 453 m -3 X s 994 460 m -3 X s 994 467 m -3 X s 994 473 m -3 X s 997 480 m -6 X s 994 486 m -3 X s 994 493 m -3 X s 994 500 m -3 X s 994 506 m -3 X s 997 513 m -6 X s 994
 519 m -3 X s 994 526 m -3 X s 994 532 m -3 X s 994 539 m -3 X s 997 546 m -6 X s 994 552 m -3 X s 994 559 m -3 X s 994 565 m -3 X s 994 572 m -3 X s 997 579 m -6 X s 994 585 m -3 X s 994 592 m -3 X s 994 598 m -3 X s 994 605 m -3 X s 997 612 m -6 X
 s 997 414 m -6 X s 994 407 m -3 X s 994 401 m -3 X s 994 394 m -3 X s 997 612 m -6 X s 994 618 m -3 X s
 gsave  408 306 930 345 C 937.285 407.391 t 0 r /Helvetica findfont 22.8295 sf 0 0 m (\2550.02) show NC gr 
 gsave  408 306 930 345 C 940.134 438.729 t 0 r /Helvetica findfont 22.8295 sf 0 0 m (\2550.01) show NC gr 
 gsave  408 306 930 345 C 974.32 472.916 t 0 r /Helvetica findfont 22.8295 sf 0 0 m (0) show NC gr 
 gsave  408 306 930 345 C 945.832 504.254 t 0 r /Helvetica findfont 22.8295 sf 0 0 m (0.01) show NC gr 
 gsave  408 306 930 345 C 942.983 538.44 t 0 r /Helvetica findfont 22.8295 sf 0 0 m (0.02) show NC gr 
 gsave  408 306 930 345 C 942.983 572.627 t 0 r /Helvetica findfont 22.8295 sf 0 0 m (0.03) show NC gr 
 gsave  408 306 930 345 C 942.983 603.965 t 0 r /Helvetica findfont 22.8295 sf 0 0 m (0.04) show NC gr  1297 391 m 229 Y s 1292 414 m 5 X s 1294 420 m 3 X s 1294 427 m 3 X s 1294 434 m 3 X s 1294 440 m 3 X s 1292 447 m 5 X s 1294 453 m 3 X s 1294 460
 m 3 X s 1294 467 m 3 X s 1294 473 m 3 X s 1292 480 m 5 X s 1294 486 m 3 X s 1294 493 m 3 X s 1294 500 m 3 X s 1294 506 m 3 X s 1292 513 m 5 X s 1294 519 m 3 X s 1294 526 m 3 X s 1294 532 m 3 X s 1294 539 m 3 X s 1292 546 m 5 X s 1294 552 m 3 X s
 1294 559 m 3 X s 1294 565 m 3 X s 1294 572 m 3 X s 1292 579 m 5 X s 1294 585 m 3 X s 1294 592 m 3 X s 1294 598 m 3 X s 1294 605 m 3 X s 1292 612 m 5 X s 1292 414 m 5 X s 1294 407 m 3 X s 1294 401 m 3 X s 1294 394 m 3 X s 1292 612 m 5 X s 1294 618 m
 3 X s 1016 470 1058 539 1101 521 1122 466 1164 520 1185 458 1227 477 1269 552 8 { m21} R 1016 481 m 36 Y s 1011 517 m 11 X s 1016 458 m -36 Y s 1011 422 m 11 X s 1058 550 m 37 Y s 1053 587 m 11 X s 1058 527 m -37 Y s 1053 490 m 11 X s 1101 532 m 37
 Y s 1095 569 m 11 X s 1101 509 m -36 Y s 1095 473 m 11 X s 1122 477 m 36 Y s 1116 513 m 11 X s 1122 454 m -36 Y s 1116 418 m 11 X s 1164 532 m 36 Y s 1158 568 m 12 X s 1164 509 m -37 Y s 1158 472 m 12 X s 1185 469 m 37 Y s 1179 506 m 12 X s 1185 447
 m -37 Y s 1179 410 m 12 X s 1227 488 m 37 Y s 1221 525 m 12 X s 1227 466 m -36 Y s 1221 430 m 12 X s 1269 563 m 38 Y s 1264 601 m 11 X s 1269 541 m -38 Y s 1264 503 m 11 X s 1 0 0 c 9 lw 0.95 0.95 0.95 c black 1 0 0 c 993 531 m 3 -2 d 3 -2 d 3 -2 d
 3 -2 d 3 -2 d 3 -2 d 3 -2 d 3 -1 d 3 -2 d 3 -2 d 3 -1 d 3 -2 d 3 -2 d 3 -1 d 3 -2 d 4 -1 d 3 -1 d 3 -2 d 3 -1 d 3 -1 d 3 -2 d 3 -1 d 3 -1 d 3 -1 d 3 -1 d 3 -1 d 3 -1 d 3 -1 d 3 -1 d 3 -1 d 3 X 3 -1 d 4 -1 d 3 X 3 -1 d 3 -1 d 3 X 3 -1 d 3 X 3 -1 d 9
 X 3 -1 d 16 X s 1143 480 m 18 X 3 1 d 6 X 3 1 d 3 X 3 1 d 3 X 3 1 d 3 X 4 1 d 3 1 d 3 1 d 3 X 3 1 d 3 1 d 3 1 d 3 1 d 3 1 d 3 1 d 3 1 d 3 1 d 3 1 d 3 1 d 3 2 d 3 1 d 3 1 d 4 2 d 3 1 d 3 2 d 3 1 d 3 2 d 3 1 d 3 2 d 3 2 d 3 1 d 3 2 d 3 2 d 3 2 d 3 2 d
 3 1 d 3 2 d 3 2 d 4 3 d s 1293 531 m 3 2 d s 0.49 0.6 0.82 c black 0.49 0.6 0.82 c
 gsave  408 306 930 345 C 1051.24 629.605 t 0 r /Helvetica-Bold findfont 25.6831 sf 0 0 m (6.0 < E < 6.5 GeV) show NC gr  0.52 0.76 0.64 c black 0.52 0.76 0.64 c
 gsave  408 306 930 345 C 1037 592.569 t 0 r /Helvetica-Bold findfont 25.6831 sf 0 0 m 
 220 206 192 185 170 163 148 141 126 118 111 97 83 69 61 47 40 25 18
(A = 0.031, p = 2.000) K NC gr  1 0.6 1 c black 1 0.6 1 c
 gsave  408 306 930 345 C 1336.13 458.671 t 90 r /Helvetica-Bold findfont 28.5368 sf 0 0 m (/dof=0.6) show NC gr  black 1 0.6 1 c
 gsave  408 306 930 345 C 1324.73 447.276 t 90 r /Helvetica-Bold findfont 19.9758 sf 0 0 m (2) show NC gr  black 1 0.6 1 c
 gsave  408 306 930 345 C 1336.13 430.182 t 90 r /Symbol findfont 28.5368 sf 0 0 m (c) show NC gr  black 3 lw 1 1 1 c 408 306 1383 345 bf black 1 1 1 c black 306 229 1445 391 bl 306 229 1445 391 bl 1445 391 m 306 X s 1491 395 m -4 Y s 1596 395 m -4 Y
 s 1702 395 m -4 Y s 1491 395 m -4 Y s 1702 395 m -4 Y s
 gsave  408 306 1383 345 C 1470.03 370.356 t 0 r /Helvetica findfont 22.8295 sf 0 0 m (\2550.5) show NC gr 
 gsave  408 306 1383 345 C 1586.83 370.356 t 0 r /Helvetica findfont 22.8295 sf 0 0 m (0) show NC gr 
 gsave  408 306 1383 345 C 1683.69 370.356 t 0 r /Helvetica findfont 22.8295 sf 0 0 m (0.5) show NC gr  1445 620 m 306 X s 1491 616 m 4 Y s 1596 616 m 4 Y s 1702 616 m 4 Y s 1491 616 m 4 Y s 1702 616 m 4 Y s 1445 391 m 229 Y s 1450 392 m -5 X s 1447
 398 m -2 X s 1447 404 m -2 X s 1447 410 m -2 X s 1447 416 m -2 X s 1450 422 m -5 X s 1447 428 m -2 X s 1447 433 m -2 X s 1447 439 m -2 X s 1447 445 m -2 X s 1450 451 m -5 X s 1447 457 m -2 X s 1447 463 m -2 X s 1447 469 m -2 X s 1447 475 m -2 X s
 1450 481 m -5 X s 1447 487 m -2 X s 1447 493 m -2 X s 1447 499 m -2 X s 1447 504 m -2 X s 1450 510 m -5 X s 1447 516 m -2 X s 1447 522 m -2 X s 1447 528 m -2 X s 1447 534 m -2 X s 1450 540 m -5 X s 1447 546 m -2 X s 1447 552 m -2 X s 1447 558 m -2 X
 s 1447 564 m -2 X s 1450 570 m -5 X s 1447 575 m -2 X s 1447 581 m -2 X s 1447 587 m -2 X s 1447 593 m -2 X s 1450 599 m -5 X s 1450 392 m -5 X s 1450 599 m -5 X s 1447 605 m -2 X s 1447 611 m -2 X s 1447 617 m -2 X s
 gsave  408 306 1383 345 C 1390.26 384.6 t 0 r /Helvetica findfont 22.8295 sf 0 0 m (\2550.05) show NC gr 
 gsave  408 306 1383 345 C 1390.26 415.938 t 0 r /Helvetica findfont 22.8295 sf 0 0 m (\2550.04) show NC gr 
 gsave  408 306 1383 345 C 1390.26 444.427 t 0 r /Helvetica findfont 22.8295 sf 0 0 m (\2550.03) show NC gr 
 gsave  408 306 1383 345 C 1390.26 472.916 t 0 r /Helvetica findfont 22.8295 sf 0 0 m (\2550.02) show NC gr 
 gsave  408 306 1383 345 C 1393.11 504.254 t 0 r /Helvetica findfont 22.8295 sf 0 0 m (\2550.01) show NC gr 
 gsave  408 306 1383 345 C 1427.29 532.742 t 0 r /Helvetica findfont 22.8295 sf 0 0 m (0) show NC gr 
 gsave  408 306 1383 345 C 1398.81 561.231 t 0 r /Helvetica findfont 22.8295 sf 0 0 m (0.01) show NC gr 
 gsave  408 306 1383 345 C 1395.96 592.569 t 0 r /Helvetica findfont 22.8295 sf 0 0 m (0.02) show NC gr  1751 391 m 229 Y s 1745 392 m 6 X s 1748 398 m 3 X s 1748 404 m 3 X s 1748 410 m 3 X s 1748 416 m 3 X s 1745 422 m 6 X s 1748 428 m 3 X s 1748
 433 m 3 X s 1748 439 m 3 X s 1748 445 m 3 X s 1745 451 m 6 X s 1748 457 m 3 X s 1748 463 m 3 X s 1748 469 m 3 X s 1748 475 m 3 X s 1745 481 m 6 X s 1748 487 m 3 X s 1748 493 m 3 X s 1748 499 m 3 X s 1748 504 m 3 X s 1745 510 m 6 X s 1748 516 m 3 X s
 1748 522 m 3 X s 1748 528 m 3 X s 1748 534 m 3 X s 1745 540 m 6 X s 1748 546 m 3 X s 1748 552 m 3 X s 1748 558 m 3 X s 1748 564 m 3 X s 1745 570 m 6 X s 1748 575 m 3 X s 1748 581 m 3 X s 1748 587 m 3 X s 1748 593 m 3 X s 1745 599 m 6 X s 1745 392 m
 6 X s 1745 599 m 6 X s 1748 605 m 3 X s 1748 611 m 3 X s 1748 617 m 3 X s 1470 553 1512 492 1554 457 1575 491 1617 527 1639 525 1681 544 1723 511 8 { m21} R 1470 564 m 37 Y s 1464 601 m 12 X s 1470 542 m -37 Y s 1464 505 m 12 X s 1512 503 m 36 Y s
 1506 539 m 12 X s 1512 480 m -36 Y s 1506 444 m 12 X s 1554 468 m 36 Y s 1548 504 m 12 X s 1554 446 m -36 Y s 1548 410 m 12 X s 1575 502 m 37 Y s 1570 539 m 11 X s 1575 479 m -37 Y s 1570 442 m 11 X s 1617 539 m 36 Y s 1612 575 m 11 X s 1617 516 m
 -37 Y s 1612 479 m 11 X s 1639 536 m 36 Y s 1633 572 m 11 X s 1639 513 m -36 Y s 1633 477 m 11 X s 1681 555 m 36 Y s 1675 591 m 11 X s 1681 532 m -36 Y s 1675 496 m 11 X s 1723 522 m 37 Y s 1717 559 m 12 X s 1723 500 m -37 Y s 1717 463 m 12 X s 1 0
 0 c 9 lw 0.95 0.95 0.95 c black 1 0 0 c 1446 511 m 3 2 d 3 1 d 3 1 d 3 1 d 3 1 d 3 1 d 3 1 d 4 1 d 3 1 d 3 1 d 3 1 d 3 1 d 3 1 d 3 X 3 1 d 3 1 d 3 1 d 3 1 d 3 X 3 1 d 3 1 d 3 X 3 1 d 4 1 d 3 X 3 1 d 3 X 3 1 d 3 X 3 1 d 6 X 3 1 d 3 X 3 1 d 6 X 3 1 d
 13 X 3 1 d 18 X s 1596 540 m 18 X 4 -1 d 12 X 3 -1 d 6 X 3 -1 d 6 X 3 -1 d 3 X 3 -1 d 3 X 3 -1 d 3 X 4 -1 d 3 X 3 -1 d 3 -1 d 3 X 3 -1 d 3 -1 d 3 X 3 -1 d 3 -1 d 3 -1 d 3 X 3 -1 d 3 -1 d 3 -1 d 3 -1 d 4 -1 d 3 -1 d 3 -1 d 3 -1 d 3 -1 d 3 -1 d 3 -1 d
 3 -1 d 3 -1 d 3 -1 d s 1746 512 m 3 -2 d s 0.49 0.6 0.82 c black 0.49 0.6 0.82 c
 gsave  408 306 1383 345 C 1504.21 629.605 t 0 r /Helvetica-Bold findfont 25.6831 sf 0 0 m (6.5 < E < 7.0 GeV) show NC gr  0.52 0.76 0.64 c black 0.52 0.76 0.64 c
 gsave  408 306 1383 345 C 1484.27 592.569 t 0 r /Helvetica-Bold findfont 25.6831 sf 0 0 m 
 228 214 200 193 178 171 156 149 133 126 119 105 91 76 69 55 47 39 25 17
(A = \2550.019, p = 2.000) K NC gr  1 0.6 1 c black 1 0.6 1 c
 gsave  408 306 1383 345 C 1789.1 458.671 t 90 r /Helvetica-Bold findfont 28.5368 sf 0 0 m (/dof=0.8) show NC gr  black 1 0.6 1 c
 gsave  408 306 1383 345 C 1777.71 447.276 t 90 r /Helvetica-Bold findfont 19.9758 sf 0 0 m (2) show NC gr  black 1 0.6 1 c
 gsave  408 306 1383 345 C 1789.1 430.182 t 90 r /Symbol findfont 28.5368 sf 0 0 m (c) show NC gr  black 3 lw 1 1 1 c 408 306 1837 345 bf black 1 1 1 c black 306 229 1898 391 bl 306 229 1898 391 bl 1898 391 m 306 X s 1944 395 m -4 Y s 2050 395 m -4 Y
 s 2155 395 m -4 Y s 1944 395 m -4 Y s 2155 395 m -4 Y s
 gsave  408 306 1837 345 C 1923 370.356 t 0 r /Helvetica findfont 22.8295 sf 0 0 m (\2550.5) show NC gr 
 gsave  408 306 1837 345 C 2039.81 370.356 t 0 r /Helvetica findfont 22.8295 sf 0 0 m (0) show NC gr 
 gsave  408 306 1837 345 C 2136.67 370.356 t 0 r /Helvetica findfont 22.8295 sf 0 0 m (0.5) show NC gr  1898 620 m 306 X s 1944 616 m 4 Y s 2050 616 m 4 Y s 2155 616 m 4 Y s 1944 616 m 4 Y s 2155 616 m 4 Y s 1898 391 m 229 Y s 1904 403 m -6 X s 1901
 412 m -3 X s 1901 421 m -3 X s 1901 430 m -3 X s 1904 439 m -6 X s 1901 449 m -3 X s 1901 458 m -3 X s 1901 467 m -3 X s 1904 476 m -6 X s 1901 485 m -3 X s 1901 494 m -3 X s 1901 503 m -3 X s 1904 512 m -6 X s 1901 521 m -3 X s 1901 531 m -3 X s
 1901 540 m -3 X s 1904 549 m -6 X s 1901 558 m -3 X s 1901 567 m -3 X s 1901 576 m -3 X s 1904 585 m -6 X s 1904 403 m -6 X s 1901 394 m -3 X s 1904 585 m -6 X s 1901 594 m -3 X s 1901 604 m -3 X s 1901 613 m -3 X s
 gsave  408 306 1837 345 C 1843.23 395.996 t 0 r /Helvetica findfont 22.8295 sf 0 0 m (\2550.06) show NC gr 
 gsave  408 306 1837 345 C 1843.23 433.031 t 0 r /Helvetica findfont 22.8295 sf 0 0 m (\2550.04) show NC gr 
 gsave  408 306 1837 345 C 1843.23 470.067 t 0 r /Helvetica findfont 22.8295 sf 0 0 m (\2550.02) show NC gr 
 gsave  408 306 1837 345 C 1880.27 504.254 t 0 r /Helvetica findfont 22.8295 sf 0 0 m (0) show NC gr 
 gsave  408 306 1837 345 C 1848.93 541.289 t 0 r /Helvetica findfont 22.8295 sf 0 0 m (0.02) show NC gr 
 gsave  408 306 1837 345 C 1848.93 578.325 t 0 r /Helvetica findfont 22.8295 sf 0 0 m (0.04) show NC gr  2204 391 m 229 Y s 2199 403 m 5 X s 2201 412 m 3 X s 2201 421 m 3 X s 2201 430 m 3 X s 2199 439 m 5 X s 2201 449 m 3 X s 2201 458 m 3 X s 2201
 467 m 3 X s 2199 476 m 5 X s 2201 485 m 3 X s 2201 494 m 3 X s 2201 503 m 3 X s 2199 512 m 5 X s 2201 521 m 3 X s 2201 531 m 3 X s 2201 540 m 3 X s 2199 549 m 5 X s 2201 558 m 3 X s 2201 567 m 3 X s 2201 576 m 3 X s 2199 585 m 5 X s 2199 403 m 5 X s
 2201 394 m 3 X s 2199 585 m 5 X s 2201 594 m 3 X s 2201 604 m 3 X s 2201 613 m 3 X s 1923 477 1966 479 2008 442 2029 517 2071 497 2092 521 2134 568 2176 541 8 { m21} R 1923 488 m 21 Y s 1918 509 m 11 X s 1923 465 m -20 Y s 1918 445 m 11 X s 1966 490
 m 21 Y s 1960 511 m 11 X s 1966 467 m -20 Y s 1960 447 m 11 X s 2008 453 m 20 Y s 2002 473 m 11 X s 2008 430 m -20 Y s 2002 410 m 11 X s 2029 529 m 21 Y s 2023 550 m 11 X s 2029 506 m -21 Y s 2023 485 m 11 X s 2071 508 m 21 Y s 2065 529 m 12 X s
 2071 485 m -21 Y s 2065 464 m 12 X s 2092 532 m 21 Y s 2086 553 m 12 X s 2092 509 m -21 Y s 2086 488 m 12 X s 2134 579 m 22 Y s 2129 601 m 11 X s 2134 556 m -21 Y s 2129 535 m 11 X s 2176 552 m 22 Y s 2171 574 m 11 X s 2176 529 m -21 Y s 2171 508 m
 11 X s 9 lw 0.95 0.95 0.95 c black 1900 457 m 3 1 d 3 2 d 3 1 d 3 1 d 3 1 d 3 1 d 3 1 d 3 1 d 3 1 d 3 2 d 3 1 d 3 1 d 3 1 d 3 1 d 4 1 d 3 1 d 3 1 d 3 2 d 3 1 d 3 1 d 3 1 d 3 1 d 3 1 d 3 1 d 3 1 d 3 2 d 3 1 d 3 1 d 3 1 d 3 1 d 4 1 d 3 1 d 3 1 d 3 1 d
 3 2 d 3 1 d 3 1 d 3 1 d 3 1 d 3 1 d 3 1 d 3 1 d 3 2 d 3 1 d 3 1 d 3 1 d 3 1 d 4 1 d 3 1 d s 2050 512 m 3 1 d 3 2 d 3 1 d 3 1 d 3 1 d 3 1 d 3 1 d 3 1 d 3 1 d 3 1 d 3 2 d 3 1 d 3 1 d 3 1 d 4 1 d 3 1 d 3 1 d 3 1 d 3 2 d 3 1 d 3 1 d 3 1 d 3 1 d 3 1 d 3
 1 d 3 1 d 3 2 d 3 1 d 3 1 d 3 1 d 4 1 d 3 1 d 3 1 d 3 1 d 3 1 d 3 2 d 3 1 d 3 1 d 3 1 d 3 1 d 3 1 d 3 1 d 3 1 d 3 2 d 3 1 d 3 1 d 4 1 d 3 1 d 3 1 d s 2200 567 m 3 1 d s 0.49 0.6 0.82 c black 0.49 0.6 0.82 c
 gsave  408 306 1837 345 C 1957.19 629.605 t 0 r /Helvetica-Bold findfont 25.6831 sf 0 0 m (7.0 < E < 7.5 GeV) show NC gr  0.52 0.76 0.64 c black 0.52 0.76 0.64 c
 gsave  408 306 1837 345 C 1942.94 592.569 t 0 r /Helvetica-Bold findfont 25.6831 sf 0 0 m 
 220 206 192 185 170 163 148 141 126 118 111 97 83 69 61 47 40 25 18
(A = 0.042, p = 1.000) K NC gr  1 0.6 1 c black 1 0.6 1 c
 gsave  408 306 1837 345 C 2242.08 458.671 t 90 r /Helvetica-Bold findfont 28.5368 sf 0 0 m (/dof=0.7) show NC gr  black 1 0.6 1 c
 gsave  408 306 1837 345 C 2230.68 447.276 t 90 r /Helvetica-Bold findfont 19.9758 sf 0 0 m (2) show NC gr  black 1 0.6 1 c
 gsave  408 306 1837 345 C 2242.08 430.182 t 90 r /Symbol findfont 28.5368 sf 0 0 m (c) show NC gr  black 3 lw 1 1 1 c 408 306 23 13 bf black 1 1 1 c black 306 229 84 59 bl 306 229 84 59 bl 84 59 m 306 X s 130 63 m -4 Y s 236 63 m -4 Y s 341 63 m -4
 Y s 130 63 m -4 Y s 341 63 m -4 Y s
 gsave  408 306 23 13 C 108.258 39.8845 t 0 r /Helvetica findfont 22.8295 sf 0 0 m (\2550.5) show NC gr 
 gsave  408 306 23 13 C 225.062 39.8845 t 0 r /Helvetica findfont 22.8295 sf 0 0 m (0) show NC gr 
 gsave  408 306 23 13 C 321.925 39.8845 t 0 r /Helvetica findfont 22.8295 sf 0 0 m (0.5) show NC gr  84 288 m 306 X s 130 284 m 4 Y s 236 284 m 4 Y s 341 284 m 4 Y s 130 284 m 4 Y s 341 284 m 4 Y s 84 59 m 229 Y s 89 74 m -5 X s 87 79 m -3 X s 87 84
 m -3 X s 87 90 m -3 X s 87 95 m -3 X s 89 100 m -5 X s 87 105 m -3 X s 87 110 m -3 X s 87 116 m -3 X s 87 121 m -3 X s 89 126 m -5 X s 87 131 m -3 X s 87 137 m -3 X s 87 142 m -3 X s 87 147 m -3 X s 89 152 m -5 X s 87 157 m -3 X s 87 163 m -3 X s 87
 168 m -3 X s 87 173 m -3 X s 89 178 m -5 X s 87 184 m -3 X s 87 189 m -3 X s 87 194 m -3 X s 87 199 m -3 X s 89 204 m -5 X s 87 210 m -3 X s 87 215 m -3 X s 87 220 m -3 X s 87 225 m -3 X s 89 231 m -5 X s 87 236 m -3 X s 87 241 m -3 X s 87 246 m -3
 X s 87 251 m -3 X s 89 257 m -5 X s 87 262 m -3 X s 87 267 m -3 X s 87 272 m -3 X s 87 278 m -3 X s 89 283 m -5 X s 89 74 m -5 X s 87 69 m -3 X s 87 63 m -3 X s 89 283 m -5 X s 87 288 m -3 X s
 gsave  408 306 23 13 C 28.4889 65.5245 t 0 r /Helvetica findfont 22.8295 sf 0 0 m (\2550.02) show NC gr 
 gsave  408 306 23 13 C 31.3378 94.0134 t 0 r /Helvetica findfont 22.8295 sf 0 0 m (\2550.01) show NC gr 
 gsave  408 306 23 13 C 65.5245 119.653 t 0 r /Helvetica findfont 22.8295 sf 0 0 m (0) show NC gr 
 gsave  408 306 23 13 C 37.0356 145.293 t 0 r /Helvetica findfont 22.8295 sf 0 0 m (0.01) show NC gr 
 gsave  408 306 23 13 C 34.1867 170.933 t 0 r /Helvetica findfont 22.8295 sf 0 0 m (0.02) show NC gr 
 gsave  408 306 23 13 C 34.1867 196.573 t 0 r /Helvetica findfont 22.8295 sf 0 0 m (0.03) show NC gr 
 gsave  408 306 23 13 C 34.1867 222.213 t 0 r /Helvetica findfont 22.8295 sf 0 0 m (0.04) show NC gr 
 gsave  408 306 23 13 C 34.1867 250.702 t 0 r /Helvetica findfont 22.8295 sf 0 0 m (0.05) show NC gr 
 gsave  408 306 23 13 C 34.1867 276.342 t 0 r /Helvetica findfont 22.8295 sf 0 0 m (0.06) show NC gr  390 59 m 229 Y s 385 74 m 5 X s 387 79 m 3 X s 387 84 m 3 X s 387 90 m 3 X s 387 95 m 3 X s 385 100 m 5 X s 387 105 m 3 X s 387 110 m 3 X s 387 116
 m 3 X s 387 121 m 3 X s 385 126 m 5 X s 387 131 m 3 X s 387 137 m 3 X s 387 142 m 3 X s 387 147 m 3 X s 385 152 m 5 X s 387 157 m 3 X s 387 163 m 3 X s 387 168 m 3 X s 387 173 m 3 X s 385 178 m 5 X s 387 184 m 3 X s 387 189 m 3 X s 387 194 m 3 X s
 387 199 m 3 X s 385 204 m 5 X s 387 210 m 3 X s 387 215 m 3 X s 387 220 m 3 X s 387 225 m 3 X s 385 231 m 5 X s 387 236 m 3 X s 387 241 m 3 X s 387 246 m 3 X s 387 251 m 3 X s 385 257 m 5 X s 387 262 m 3 X s 387 267 m 3 X s 387 272 m 3 X s 387 278 m
 3 X s 385 283 m 5 X s 385 74 m 5 X s 387 69 m 3 X s 387 63 m 3 X s 385 283 m 5 X s 387 288 m 3 X s /w 22 def /w2 {w 2 div} def /w3 {w 3 div} def 109 217 151 184 194 129 215 147 257 188 278 208 320 146 362 185 8 { m21} R 109 228 m 41 Y s 104 269 m 11
 X s 109 206 m -41 Y s 104 165 m 11 X s 151 195 m 40 Y s 146 235 m 11 X s 151 173 m -40 Y s 146 133 m 11 X s 194 140 m 39 Y s 188 179 m 11 X s 194 117 m -39 Y s 188 78 m 11 X s 215 158 m 39 Y s 209 197 m 11 X s 215 135 m -39 Y s 209 96 m 11 X s 257
 199 m 40 Y s 251 239 m 11 X s 257 176 m -40 Y s 251 136 m 11 X s 278 220 m 40 Y s 272 260 m 12 X s 278 197 m -41 Y s 272 156 m 12 X s 320 157 m 40 Y s 314 197 m 12 X s 320 135 m -39 Y s 314 96 m 12 X s 362 196 m 40 Y s 357 236 m 11 X s 362 173 m -40
 Y s 357 133 m 11 X s 1 0 0 c 9 lw 0.95 0.95 0.95 c black 1 0 0 c 85 240 m 3 -4 d 4 -5 d 3 -4 d 3 -5 d 3 -4 d 3 -4 d 3 -4 d 3 -4 d 3 -4 d 3 -4 d 3 -3 d 3 -4 d 3 -3 d 3 -4 d 3 -3 d 3 -3 d 3 -3 d 4 -3 d 3 -3 d 3 -3 d 3 -3 d 3 -2 d 3 -3 d 3 -2 d 3 -2 d
 3 -3 d 3 -2 d 3 -2 d 3 -2 d 3 -2 d 3 -1 d 3 -2 d 3 -2 d 4 -1 d 3 -1 d 3 -2 d 3 -1 d 3 -1 d 3 -1 d 3 -1 d 3 -1 d 3 X 3 -1 d 3 -1 d 6 X 3 -1 d 6 X s 235 126 m 7 X 3 1 d 6 X 3 1 d 3 X 3 1 d 3 1 d 3 1 d 3 1 d 3 1 d 3 1 d 3 1 d 3 2 d 3 1 d 3 2 d 4 1 d 3
 2 d 3 2 d 3 2 d 3 2 d 3 2 d 3 2 d 3 2 d 3 3 d 3 2 d 3 3 d 3 3 d 3 2 d 3 3 d 3 3 d 3 3 d 4 4 d 3 3 d 3 3 d 3 4 d 3 3 d 3 4 d 3 3 d 3 4 d 3 4 d 3 4 d 3 4 d 3 5 d 3 4 d 3 4 d 3 5 d 3 4 d s 385 239 m 4 5 d s 0.49 0.6 0.82 c black 0.49 0.6 0.82 c
 gsave  408 306 23 13 C 142.445 296.285 t 0 r /Helvetica-Bold findfont 25.6831 sf 0 0 m (7.5 < E < 8.0 GeV) show NC gr  0.52 0.76 0.64 c black 0.52 0.76 0.64 c
 gsave  408 306 23 13 C 128.2 259.249 t 0 r /Helvetica-Bold findfont 25.6831 sf 0 0 m 
 220 206 192 185 170 163 148 141 126 118 111 97 83 69 61 47 40 25 18
(A = 0.086, p = 2.000) K NC gr  1 0.6 1 c black 1 0.6 1 c
 gsave  408 306 23 13 C 427.334 128.2 t 90 r /Helvetica-Bold findfont 28.5368 sf 0 0 m (/dof=0.6) show NC gr  black 1 0.6 1 c
 gsave  408 306 23 13 C 415.938 116.804 t 90 r /Helvetica-Bold findfont 19.9758 sf 0 0 m (2) show NC gr  black 1 0.6 1 c
 gsave  408 306 23 13 C 427.334 99.7112 t 90 r /Symbol findfont 28.5368 sf 0 0 m (c) show NC gr  black 3 lw 1 1 1 c 408 306 476 13 bf black 1 1 1 c black 307 229 537 59 bl 307 229 537 59 bl 537 59 m 307 X s 584 63 m -4 Y s 689 63 m -4 Y s 795 63 m -4
 Y s 584 63 m -4 Y s 795 63 m -4 Y s
 gsave  408 306 476 13 C 561.231 39.8845 t 0 r /Helvetica findfont 22.8295 sf 0 0 m (\2550.5) show NC gr 
 gsave  408 306 476 13 C 678.036 39.8845 t 0 r /Helvetica findfont 22.8295 sf 0 0 m (0) show NC gr 
 gsave  408 306 476 13 C 774.898 39.8845 t 0 r /Helvetica findfont 22.8295 sf 0 0 m (0.5) show NC gr  537 288 m 307 X s 584 284 m 4 Y s 689 284 m 4 Y s 795 284 m 4 Y s 584 284 m 4 Y s 795 284 m 4 Y s 537 59 m 229 Y s 543 68 m -6 X s 540 72 m -3 X s
 540 77 m -3 X s 540 82 m -3 X s 540 86 m -3 X s 543 91 m -6 X s 540 95 m -3 X s 540 100 m -3 X s 540 105 m -3 X s 540 109 m -3 X s 543 114 m -6 X s 540 119 m -3 X s 540 123 m -3 X s 540 128 m -3 X s 540 133 m -3 X s 543 137 m -6 X s 540 142 m -3 X s
 540 146 m -3 X s 540 151 m -3 X s 540 156 m -3 X s 543 160 m -6 X s 540 165 m -3 X s 540 170 m -3 X s 540 174 m -3 X s 540 179 m -3 X s 543 184 m -6 X s 540 188 m -3 X s 540 193 m -3 X s 540 197 m -3 X s 540 202 m -3 X s 543 207 m -6 X s 540 211 m
 -3 X s 540 216 m -3 X s 540 221 m -3 X s 540 225 m -3 X s 543 230 m -6 X s 540 235 m -3 X s 540 239 m -3 X s 540 244 m -3 X s 540 248 m -3 X s 543 253 m -6 X s 540 258 m -3 X s 540 262 m -3 X s 540 267 m -3 X s 540 272 m -3 X s 543 276 m -6 X s 543
 68 m -6 X s 540 63 m -3 X s 543 276 m -6 X s 540 281 m -3 X s 540 285 m -3 X s
 gsave  408 306 476 13 C 481.462 59.8267 t 0 r /Helvetica findfont 22.8295 sf 0 0 m (\2550.04) show NC gr 
 gsave  408 306 476 13 C 481.462 82.6178 t 0 r /Helvetica findfont 22.8295 sf 0 0 m (\2550.03) show NC gr 
 gsave  408 306 476 13 C 481.462 108.258 t 0 r /Helvetica findfont 22.8295 sf 0 0 m (\2550.02) show NC gr 
 gsave  408 306 476 13 C 484.311 131.049 t 0 r /Helvetica findfont 22.8295 sf 0 0 m (\2550.01) show NC gr 
 gsave  408 306 476 13 C 518.498 153.84 t 0 r /Helvetica findfont 22.8295 sf 0 0 m (0) show NC gr 
 gsave  408 306 476 13 C 490.009 176.631 t 0 r /Helvetica findfont 22.8295 sf 0 0 m (0.01) show NC gr 
 gsave  408 306 476 13 C 487.16 199.422 t 0 r /Helvetica findfont 22.8295 sf 0 0 m (0.02) show NC gr 
 gsave  408 306 476 13 C 487.16 222.213 t 0 r /Helvetica findfont 22.8295 sf 0 0 m (0.03) show NC gr 
 gsave  408 306 476 13 C 487.16 245.005 t 0 r /Helvetica findfont 22.8295 sf 0 0 m (0.04) show NC gr 
 gsave  408 306 476 13 C 487.16 267.796 t 0 r /Helvetica findfont 22.8295 sf 0 0 m (0.05) show NC gr  844 59 m 229 Y s 838 68 m 6 X s 841 72 m 3 X s 841 77 m 3 X s 841 82 m 3 X s 841 86 m 3 X s 838 91 m 6 X s 841 95 m 3 X s 841 100 m 3 X s 841 105 m
 3 X s 841 109 m 3 X s 838 114 m 6 X s 841 119 m 3 X s 841 123 m 3 X s 841 128 m 3 X s 841 133 m 3 X s 838 137 m 6 X s 841 142 m 3 X s 841 146 m 3 X s 841 151 m 3 X s 841 156 m 3 X s 838 160 m 6 X s 841 165 m 3 X s 841 170 m 3 X s 841 174 m 3 X s 841
 179 m 3 X s 838 184 m 6 X s 841 188 m 3 X s 841 193 m 3 X s 841 197 m 3 X s 841 202 m 3 X s 838 207 m 6 X s 841 211 m 3 X s 841 216 m 3 X s 841 221 m 3 X s 841 225 m 3 X s 838 230 m 6 X s 841 235 m 3 X s 841 239 m 3 X s 841 244 m 3 X s 841 248 m 3 X
 s 838 253 m 6 X s 841 258 m 3 X s 841 262 m 3 X s 841 267 m 3 X s 841 272 m 3 X s 838 276 m 6 X s 838 68 m 6 X s 841 63 m 3 X s 838 276 m 6 X s 841 281 m 3 X s 841 285 m 3 X s /w 23 def /w2 {w 2 div} def /w3 {w 3 div} def 563 139 605 214 647 125 668
 197 710 221 731 201 774 159 816 152 8 { m21} R 563 150 m 36 Y s 557 186 m 11 X s 563 127 m -36 Y s 557 91 m 11 X s 605 225 m 37 Y s 599 262 m 12 X s 605 202 m -36 Y s 599 166 m 12 X s 647 137 m 35 Y s 641 172 m 12 X s 647 114 m -36 Y s 641 78 m 12 X
 s 668 209 m 36 Y s 662 245 m 12 X s 668 186 m -37 Y s 662 149 m 12 X s 710 232 m 37 Y s 705 269 m 11 X s 710 209 m -36 Y s 705 173 m 11 X s 731 213 m 37 Y s 726 250 m 11 X s 731 190 m -37 Y s 726 153 m 11 X s 774 170 m 36 Y s 768 206 m 11 X s 774
 147 m -36 Y s 768 111 m 11 X s 816 163 m 36 Y s 810 199 m 11 X s 816 140 m -36 Y s 810 104 m 11 X s 9 lw 0.95 0.95 0.95 c black 539 158 m 24 X 4 1 d 64 X 3 1 d 55 X s 689 160 m 9 X 3 1 d 65 X 3 1 d 64 X 3 1 d 3 X s 839 163 m 3 X s 0.49 0.6 0.82 c
 black 0.49 0.6 0.82 c
 gsave  408 306 476 13 C 595.418 296.285 t 0 r /Helvetica-Bold findfont 25.6831 sf 0 0 m (8.0 < E < 8.5 GeV) show NC gr  0.52 0.76 0.64 c black 0.52 0.76 0.64 c
 gsave  408 306 476 13 C 581.174 259.249 t 0 r /Helvetica-Bold findfont 25.6831 sf 0 0 m 
 220 206 192 185 170 163 148 141 125 118 111 97 83 69 61 47 40 25 18
(A = 0.001, p = 1.000) K NC gr  1 0.6 1 c black 1 0.6 1 c
 gsave  408 306 476 13 C 883.156 128.2 t 90 r /Helvetica-Bold findfont 28.5368 sf 0 0 m (/dof=0.7) show NC gr  black 1 0.6 1 c
 gsave  408 306 476 13 C 871.76 116.804 t 90 r /Helvetica-Bold findfont 19.9758 sf 0 0 m (2) show NC gr  black 1 0.6 1 c
 gsave  408 306 476 13 C 883.156 99.7112 t 90 r /Symbol findfont 28.5368 sf 0 0 m (c) show NC gr  black 3 lw 1 1 1 c 408 306 930 13 bf black 1 1 1 c black 306 229 991 59 bl 306 229 991 59 bl 991 59 m 306 X s 1037 63 m -4 Y s 1143 63 m -4 Y s 1248 63
 m -4 Y s 1037 63 m -4 Y s 1248 63 m -4 Y s
 gsave  408 306 930 13 C 1017.05 39.8845 t 0 r /Helvetica findfont 22.8295 sf 0 0 m (\2550.5) show NC gr 
 gsave  408 306 930 13 C 1133.86 39.8845 t 0 r /Helvetica findfont 22.8295 sf 0 0 m (0) show NC gr 
 gsave  408 306 930 13 C 1230.72 39.8845 t 0 r /Helvetica findfont 22.8295 sf 0 0 m (0.5) show NC gr  991 288 m 306 X s 1037 284 m 4 Y s 1143 284 m 4 Y s 1248 284 m 4 Y s 1037 284 m 4 Y s 1248 284 m 4 Y s 991 59 m 229 Y s 997 80 m -6 X s 994 87 m -3
 X s 994 95 m -3 X s 994 102 m -3 X s 997 109 m -6 X s 994 117 m -3 X s 994 124 m -3 X s 994 131 m -3 X s 997 138 m -6 X s 994 146 m -3 X s 994 153 m -3 X s 994 160 m -3 X s 997 168 m -6 X s 994 175 m -3 X s 994 182 m -3 X s 994 190 m -3 X s 997 197
 m -6 X s 994 204 m -3 X s 994 211 m -3 X s 994 219 m -3 X s 997 226 m -6 X s 994 233 m -3 X s 994 241 m -3 X s 994 248 m -3 X s 997 255 m -6 X s 994 263 m -3 X s 994 270 m -3 X s 994 277 m -3 X s 997 285 m -6 X s 997 80 m -6 X s 994 73 m -3 X s 994
 65 m -3 X s 997 285 m -6 X s
 gsave  408 306 930 13 C 937.285 74.0711 t 0 r /Helvetica findfont 22.8295 sf 0 0 m (\2550.06) show NC gr 
 gsave  408 306 930 13 C 937.285 102.56 t 0 r /Helvetica findfont 22.8295 sf 0 0 m (\2550.04) show NC gr 
 gsave  408 306 930 13 C 937.285 131.049 t 0 r /Helvetica findfont 22.8295 sf 0 0 m (\2550.02) show NC gr 
 gsave  408 306 930 13 C 974.32 159.538 t 0 r /Helvetica findfont 22.8295 sf 0 0 m (0) show NC gr 
 gsave  408 306 930 13 C 942.983 190.876 t 0 r /Helvetica findfont 22.8295 sf 0 0 m (0.02) show NC gr 
 gsave  408 306 930 13 C 942.983 219.365 t 0 r /Helvetica findfont 22.8295 sf 0 0 m (0.04) show NC gr 
 gsave  408 306 930 13 C 942.983 247.853 t 0 r /Helvetica findfont 22.8295 sf 0 0 m (0.06) show NC gr 
 gsave  408 306 930 13 C 942.983 276.342 t 0 r /Helvetica findfont 22.8295 sf 0 0 m (0.08) show NC gr  1297 59 m 229 Y s 1292 80 m 5 X s 1294 87 m 3 X s 1294 95 m 3 X s 1294 102 m 3 X s 1292 109 m 5 X s 1294 117 m 3 X s 1294 124 m 3 X s 1294 131 m 3
 X s 1292 138 m 5 X s 1294 146 m 3 X s 1294 153 m 3 X s 1294 160 m 3 X s 1292 168 m 5 X s 1294 175 m 3 X s 1294 182 m 3 X s 1294 190 m 3 X s 1292 197 m 5 X s 1294 204 m 3 X s 1294 211 m 3 X s 1294 219 m 3 X s 1292 226 m 5 X s 1294 233 m 3 X s 1294
 241 m 3 X s 1294 248 m 3 X s 1292 255 m 5 X s 1294 263 m 3 X s 1294 270 m 3 X s 1294 277 m 3 X s 1292 285 m 5 X s 1292 80 m 5 X s 1294 73 m 3 X s 1294 65 m 3 X s 1292 285 m 5 X s 1016 109 1058 133 1101 153 1122 157 1164 236 1185 151 1227 196 1269
 180 8 { m21} R 1016 120 m 19 Y s 1011 139 m 11 X s 1016 97 m -19 Y s 1011 78 m 11 X s 1058 144 m 20 Y s 1053 164 m 11 X s 1058 121 m -19 Y s 1053 102 m 11 X s 1101 165 m 20 Y s 1095 185 m 11 X s 1101 142 m -20 Y s 1095 122 m 11 X s 1122 168 m 20 Y s
 1116 188 m 11 X s 1122 145 m -20 Y s 1116 125 m 11 X s 1164 247 m 22 Y s 1158 269 m 12 X s 1164 224 m -22 Y s 1158 202 m 12 X s 1185 163 m 20 Y s 1179 183 m 12 X s 1185 140 m -21 Y s 1179 119 m 12 X s 1227 207 m 21 Y s 1221 228 m 12 X s 1227 184 m
 -21 Y s 1221 163 m 12 X s 1269 191 m 21 Y s 1264 212 m 11 X s 1269 169 m -21 Y s 1264 148 m 11 X s 9 lw 0.95 0.95 0.95 c black 993 120 m 3 1 d 3 1 d 3 1 d 3 1 d 3 1 d 3 1 d 3 1 d 3 1 d 3 1 d 3 1 d 3 1 d 3 1 d 3 1 d 3 1 d 3 1 d 4 1 d 3 1 d 3 1 d 3 1
 d 3 1 d 3 1 d 3 1 d 3 1 d 3 X 3 1 d 3 1 d 3 1 d 3 1 d 3 1 d 3 1 d 3 1 d 3 1 d 4 1 d 3 1 d 3 1 d 3 1 d 3 1 d 3 1 d 3 1 d 3 1 d 3 1 d 3 1 d 3 1 d 3 1 d 3 1 d 3 1 d 3 1 d 3 1 d 4 1 d s 1143 168 m 3 1 d 3 X 3 1 d 3 1 d 3 1 d 3 1 d 3 1 d 3 1 d 3 1 d 3 1
 d 3 1 d 3 1 d 3 1 d 3 1 d 3 1 d 4 1 d 3 1 d 3 1 d 3 1 d 3 1 d 3 1 d 3 1 d 3 1 d 3 1 d 3 1 d 3 1 d 3 1 d 3 1 d 3 X 3 1 d 3 1 d 3 1 d 4 1 d 3 1 d 3 1 d 3 1 d 3 1 d 3 1 d 3 1 d 3 1 d 3 1 d 3 1 d 3 1 d 3 1 d 3 1 d 3 1 d 3 1 d 3 1 d 4 1 d s 1293 215 m 3
 1 d s 0.49 0.6 0.82 c black 0.49 0.6 0.82 c
 gsave  408 306 930 13 C 1051.24 296.285 t 0 r /Helvetica-Bold findfont 25.6831 sf 0 0 m (8.5 < E < 9.0 GeV) show NC gr  0.52 0.76 0.64 c black 0.52 0.76 0.64 c
 gsave  408 306 930 13 C 1037 259.249 t 0 r /Helvetica-Bold findfont 25.6831 sf 0 0 m 
 220 206 192 185 170 163 148 141 126 118 111 97 83 69 61 47 40 25 18
(A = 0.045, p = 1.000) K NC gr  1 0.6 1 c black 1 0.6 1 c
 gsave  408 306 930 13 C 1336.13 128.2 t 90 r /Helvetica-Bold findfont 28.5368 sf 0 0 m (/dof=0.8) show NC gr  black 1 0.6 1 c
 gsave  408 306 930 13 C 1324.73 116.804 t 90 r /Helvetica-Bold findfont 19.9758 sf 0 0 m (2) show NC gr  black 1 0.6 1 c
 gsave  408 306 930 13 C 1336.13 99.7112 t 90 r /Symbol findfont 28.5368 sf 0 0 m (c) show NC gr  black 3 lw 1 1 1 c 408 306 1383 13 bf black 1 1 1 c black 306 229 1445 59 bl 306 229 1445 59 bl 1445 59 m 306 X s 1491 63 m -4 Y s 1596 63 m -4 Y s 1702
 63 m -4 Y s 1491 63 m -4 Y s 1702 63 m -4 Y s
 gsave  408 306 1383 13 C 1470.03 39.8845 t 0 r /Helvetica findfont 22.8295 sf 0 0 m (\2550.5) show NC gr 
 gsave  408 306 1383 13 C 1586.83 39.8845 t 0 r /Helvetica findfont 22.8295 sf 0 0 m (0) show NC gr 
 gsave  408 306 1383 13 C 1683.69 39.8845 t 0 r /Helvetica findfont 22.8295 sf 0 0 m (0.5) show NC gr  1445 288 m 306 X s 1491 284 m 4 Y s 1596 284 m 4 Y s 1702 284 m 4 Y s 1491 284 m 4 Y s 1702 284 m 4 Y s 1445 59 m 229 Y s 1450 74 m -5 X s 1447 79
 m -2 X s 1447 85 m -2 X s 1447 90 m -2 X s 1447 96 m -2 X s 1450 102 m -5 X s 1447 107 m -2 X s 1447 113 m -2 X s 1447 118 m -2 X s 1447 124 m -2 X s 1450 129 m -5 X s 1447 135 m -2 X s 1447 140 m -2 X s 1447 146 m -2 X s 1447 152 m -2 X s 1450 157
 m -5 X s 1447 163 m -2 X s 1447 168 m -2 X s 1447 174 m -2 X s 1447 179 m -2 X s 1450 185 m -5 X s 1447 190 m -2 X s 1447 196 m -2 X s 1447 202 m -2 X s 1447 207 m -2 X s 1450 213 m -5 X s 1447 218 m -2 X s 1447 224 m -2 X s 1447 229 m -2 X s 1447
 235 m -2 X s 1450 240 m -5 X s 1447 246 m -2 X s 1447 252 m -2 X s 1447 257 m -2 X s 1447 263 m -2 X s 1450 268 m -5 X s 1450 74 m -5 X s 1447 68 m -2 X s 1447 63 m -2 X s 1450 268 m -5 X s 1447 274 m -2 X s 1447 279 m -2 X s 1447 285 m -2 X s
 gsave  408 306 1383 13 C 1390.26 65.5245 t 0 r /Helvetica findfont 22.8295 sf 0 0 m (\2550.02) show NC gr 
 gsave  408 306 1383 13 C 1393.11 94.0134 t 0 r /Helvetica findfont 22.8295 sf 0 0 m (\2550.01) show NC gr 
 gsave  408 306 1383 13 C 1427.29 122.502 t 0 r /Helvetica findfont 22.8295 sf 0 0 m (0) show NC gr 
 gsave  408 306 1383 13 C 1398.81 150.991 t 0 r /Helvetica findfont 22.8295 sf 0 0 m (0.01) show NC gr 
 gsave  408 306 1383 13 C 1395.96 176.631 t 0 r /Helvetica findfont 22.8295 sf 0 0 m (0.02) show NC gr 
 gsave  408 306 1383 13 C 1395.96 205.12 t 0 r /Helvetica findfont 22.8295 sf 0 0 m (0.03) show NC gr 
 gsave  408 306 1383 13 C 1395.96 233.609 t 0 r /Helvetica findfont 22.8295 sf 0 0 m (0.04) show NC gr 
 gsave  408 306 1383 13 C 1395.96 262.098 t 0 r /Helvetica findfont 22.8295 sf 0 0 m (0.05) show NC gr  1751 59 m 229 Y s 1745 74 m 6 X s 1748 79 m 3 X s 1748 85 m 3 X s 1748 90 m 3 X s 1748 96 m 3 X s 1745 102 m 6 X s 1748 107 m 3 X s 1748 113 m 3 X
 s 1748 118 m 3 X s 1748 124 m 3 X s 1745 129 m 6 X s 1748 135 m 3 X s 1748 140 m 3 X s 1748 146 m 3 X s 1748 152 m 3 X s 1745 157 m 6 X s 1748 163 m 3 X s 1748 168 m 3 X s 1748 174 m 3 X s 1748 179 m 3 X s 1745 185 m 6 X s 1748 190 m 3 X s 1748 196
 m 3 X s 1748 202 m 3 X s 1748 207 m 3 X s 1745 213 m 6 X s 1748 218 m 3 X s 1748 224 m 3 X s 1748 229 m 3 X s 1748 235 m 3 X s 1745 240 m 6 X s 1748 246 m 3 X s 1748 252 m 3 X s 1748 257 m 3 X s 1748 263 m 3 X s 1745 268 m 6 X s 1745 74 m 6 X s 1748
 68 m 3 X s 1748 63 m 3 X s 1745 268 m 6 X s 1748 274 m 3 X s 1748 279 m 3 X s 1748 285 m 3 X s 1470 185 1512 187 1554 187 1575 162 1617 203 1639 204 1681 143 1723 162 8 { m21} R 1470 196 m 55 Y s 1464 251 m 12 X s 1470 173 m -54 Y s 1464 119 m 12 X
 s 1512 198 m 55 Y s 1506 253 m 12 X s 1512 176 m -55 Y s 1506 121 m 12 X s 1554 198 m 54 Y s 1548 252 m 12 X s 1554 175 m -54 Y s 1548 121 m 12 X s 1575 174 m 53 Y s 1570 227 m 11 X s 1575 151 m -54 Y s 1570 97 m 11 X s 1617 214 m 55 Y s 1612 269 m
 11 X s 1617 191 m -54 Y s 1612 137 m 11 X s 1639 215 m 54 Y s 1633 269 m 11 X s 1639 192 m -54 Y s 1633 138 m 11 X s 1681 154 m 53 Y s 1675 207 m 11 X s 1681 131 m -53 Y s 1675 78 m 11 X s 1723 173 m 54 Y s 1717 227 m 12 X s 1723 150 m -53 Y s 1717
 97 m 12 X s 1 0 0 c 9 lw 0.95 0.95 0.95 c black 1 0 0 c 1446 209 m 3 -3 d 3 -4 d 3 -3 d 3 -3 d 3 -3 d 3 -2 d 3 -3 d 4 -3 d 3 -3 d 3 -2 d 3 -3 d 3 -2 d 3 -3 d 3 -2 d 3 -2 d 3 -3 d 3 -2 d 3 -2 d 3 -2 d 3 -2 d 3 -2 d 3 -1 d 3 -2 d 4 -2 d 3 -2 d 3 -1 d
 3 -2 d 3 -1 d 3 -1 d 3 -2 d 3 -1 d 3 -1 d 3 -1 d 3 -1 d 3 -1 d 3 -1 d 3 -1 d 3 -1 d 3 X 4 -1 d 3 -1 d 6 X 3 -1 d 6 X 3 -1 d 6 X s 1596 129 m 6 X 3 1 d 9 X 4 1 d 3 X 3 1 d 3 1 d 3 X 3 1 d 3 1 d 3 1 d 3 1 d 3 1 d 3 1 d 3 1 d 3 1 d 3 1 d 3 2 d 3 1 d 3
 2 d 4 1 d 3 2 d 3 1 d 3 2 d 3 2 d 3 2 d 3 2 d 3 2 d 3 2 d 3 2 d 3 2 d 3 3 d 3 2 d 3 2 d 3 3 d 3 2 d 4 3 d 3 2 d 3 3 d 3 3 d 3 3 d 3 3 d 3 3 d 3 3 d 3 3 d 3 3 d s 1746 208 m 3 3 d s 0.49 0.6 0.82 c black 0.49 0.6 0.82 c
 gsave  408 306 1383 13 C 1504.21 296.285 t 0 r /Helvetica-Bold findfont 25.6831 sf 0 0 m (9.0 < E < 9.5 GeV) show NC gr  0.52 0.76 0.64 c black 0.52 0.76 0.64 c
 gsave  408 306 1383 13 C 1489.97 259.249 t 0 r /Helvetica-Bold findfont 25.6831 sf 0 0 m 
 220 206 192 185 170 163 148 141 125 118 111 97 83 68 61 47 40 25 18
(A = 0.056, p = 2.000) K NC gr  1 0.6 1 c black 1 0.6 1 c
 gsave  408 306 1383 13 C 1789.1 128.2 t 90 r /Helvetica-Bold findfont 28.5368 sf 0 0 m (/dof=0.5) show NC gr  black 1 0.6 1 c
 gsave  408 306 1383 13 C 1777.71 116.804 t 90 r /Helvetica-Bold findfont 19.9758 sf 0 0 m (2) show NC gr  black 1 0.6 1 c
 gsave  408 306 1383 13 C 1789.1 99.7112 t 90 r /Symbol findfont 28.5368 sf 0 0 m (c) show NC gr  black 3 lw 1 1 1 c 408 306 1837 13 bf black 1 1 1 c black 306 229 1898 59 bl 306 229 1898 59 bl 1898 59 m 306 X s 1944 63 m -4 Y s 2050 63 m -4 Y s 2155
 63 m -4 Y s 1944 63 m -4 Y s 2155 63 m -4 Y s
 gsave  408 306 1837 13 C 1923 39.8845 t 0 r /Helvetica findfont 22.8295 sf 0 0 m (\2550.5) show NC gr 
 gsave  408 306 1837 13 C 2039.81 39.8845 t 0 r /Helvetica findfont 22.8295 sf 0 0 m (0) show NC gr 
 gsave  408 306 1837 13 C 2136.67 39.8845 t 0 r /Helvetica findfont 22.8295 sf 0 0 m (0.5) show NC gr  1898 288 m 306 X s 1944 284 m 4 Y s 2050 284 m 4 Y s 2155 284 m 4 Y s 1944 284 m 4 Y s 2155 284 m 4 Y s 1898 59 m 229 Y s 1904 68 m -6 X s 1901 77
 m -3 X s 1901 86 m -3 X s 1901 95 m -3 X s 1904 104 m -6 X s 1901 112 m -3 X s 1901 121 m -3 X s 1901 130 m -3 X s 1904 139 m -6 X s 1901 148 m -3 X s 1901 157 m -3 X s 1901 166 m -3 X s 1904 175 m -6 X s 1901 183 m -3 X s 1901 192 m -3 X s 1901 201
 m -3 X s 1904 210 m -6 X s 1901 219 m -3 X s 1901 228 m -3 X s 1901 237 m -3 X s 1904 246 m -6 X s 1901 255 m -3 X s 1901 263 m -3 X s 1901 272 m -3 X s 1904 281 m -6 X s 1904 68 m -6 X s 1901 59 m -3 X s 1904 281 m -6 X s
 gsave  408 306 1837 13 C 1843.23 59.8267 t 0 r /Helvetica findfont 22.8295 sf 0 0 m (\2550.06) show NC gr 
 gsave  408 306 1837 13 C 1843.23 96.8623 t 0 r /Helvetica findfont 22.8295 sf 0 0 m (\2550.04) show NC gr 
 gsave  408 306 1837 13 C 1843.23 131.049 t 0 r /Helvetica findfont 22.8295 sf 0 0 m (\2550.02) show NC gr 
 gsave  408 306 1837 13 C 1880.27 168.085 t 0 r /Helvetica findfont 22.8295 sf 0 0 m (0) show NC gr 
 gsave  408 306 1837 13 C 1848.93 202.271 t 0 r /Helvetica findfont 22.8295 sf 0 0 m (0.02) show NC gr 
 gsave  408 306 1837 13 C 1848.93 239.307 t 0 r /Helvetica findfont 22.8295 sf 0 0 m (0.04) show NC gr 
 gsave  408 306 1837 13 C 1848.93 273.493 t 0 r /Helvetica findfont 22.8295 sf 0 0 m (0.06) show NC gr  2204 59 m 229 Y s 2199 68 m 5 X s 2201 77 m 3 X s 2201 86 m 3 X s 2201 95 m 3 X s 2199 104 m 5 X s 2201 112 m 3 X s 2201 121 m 3 X s 2201 130 m 3
 X s 2199 139 m 5 X s 2201 148 m 3 X s 2201 157 m 3 X s 2201 166 m 3 X s 2199 175 m 5 X s 2201 183 m 3 X s 2201 192 m 3 X s 2201 201 m 3 X s 2199 210 m 5 X s 2201 219 m 3 X s 2201 228 m 3 X s 2201 237 m 3 X s 2199 246 m 5 X s 2201 255 m 3 X s 2201
 263 m 3 X s 2201 272 m 3 X s 2199 281 m 5 X s 2199 68 m 5 X s 2201 59 m 3 X s 2199 281 m 5 X s 1923 210 1966 217 2008 120 2029 224 2071 161 2092 147 2134 193 2176 225 8 { m21} R 1923 221 m 33 Y s 1918 254 m 11 X s 1923 199 m -32 Y s 1918 167 m 11 X
 s 1966 228 m 33 Y s 1960 261 m 11 X s 1966 205 m -32 Y s 1960 173 m 11 X s 2008 131 m 30 Y s 2002 161 m 11 X s 2008 108 m -30 Y s 2002 78 m 11 X s 2029 235 m 33 Y s 2023 268 m 11 X s 2029 212 m -33 Y s 2023 179 m 11 X s 2071 173 m 31 Y s 2065 204 m
 12 X s 2071 150 m -32 Y s 2065 118 m 12 X s 2092 158 m 31 Y s 2086 189 m 12 X s 2092 135 m -30 Y s 2086 105 m 12 X s 2134 205 m 32 Y s 2129 237 m 11 X s 2134 182 m -32 Y s 2129 150 m 11 X s 2176 236 m 33 Y s 2171 269 m 11 X s 2176 214 m -33 Y s 2171
 181 m 11 X s 1 0 0 c 9 lw 0.95 0.95 0.95 c black 1 0 0 c 1900 235 m 3 -3 d 3 -2 d 3 -2 d 3 -3 d 3 -2 d 3 -2 d 3 -2 d 3 -2 d 3 -2 d 3 -2 d 3 -2 d 3 -2 d 3 -2 d 3 -2 d 4 -1 d 3 -2 d 3 -2 d 3 -1 d 3 -2 d 3 -1 d 3 -2 d 3 -1 d 3 -1 d 3 -2 d 3 -1 d 3 -1 d
 3 -1 d 3 -1 d 3 -1 d 3 -1 d 4 -1 d 3 -1 d 3 -1 d 3 -1 d 3 X 3 -1 d 3 -1 d 3 X 3 -1 d 3 X 3 -1 d 6 X 3 -1 d 16 X s 2050 175 m 18 X 3 1 d 3 X 3 1 d 3 X 3 1 d 3 X 3 1 d 3 X 4 1 d 3 1 d 3 1 d 3 1 d 3 1 d 3 1 d 3 1 d 3 1 d 3 1 d 3 1 d 3 1 d 3 1 d 3 2 d 3
 1 d 3 1 d 3 2 d 4 1 d 3 2 d 3 2 d 3 1 d 3 2 d 3 2 d 3 2 d 3 2 d 3 1 d 3 2 d 3 2 d 3 2 d 3 3 d 3 2 d 3 2 d 3 2 d 4 3 d 3 2 d 3 2 d s 2200 234 m 3 3 d s 0.49 0.6 0.82 c black 0.49 0.6 0.82 c
 gsave  408 306 1837 13 C 1948.64 296.285 t 0 r /Helvetica-Bold findfont 25.6831 sf 0 0 m (9.5 < E < 10.0 GeV) show NC gr  0.52 0.76 0.64 c black 0.52 0.76 0.64 c
 gsave  408 306 1837 13 C 1942.94 259.249 t 0 r /Helvetica-Bold findfont 25.6831 sf 0 0 m 
 220 206 192 185 170 163 148 141 126 118 111 97 83 69 61 47 40 25 18
(A = 0.067, p = 2.000) K NC gr  1 0.6 1 c black 1 0.6 1 c
 gsave  408 306 1837 13 C 2242.08 128.2 t 90 r /Helvetica-Bold findfont 28.5368 sf 0 0 m (/dof=0.6) show NC gr  black 1 0.6 1 c
 gsave  408 306 1837 13 C 2230.68 116.804 t 90 r /Helvetica-Bold findfont 19.9758 sf 0 0 m (2) show NC gr  black 1 0.6 1 c
 gsave  408 306 1837 13 C 2242.08 99.7112 t 90 r /Symbol findfont 28.5368 sf 0 0 m (c) show NC gr 
 gr  gr showpage
end
%%EOF
