%!PS-Adobe-2.0 EPSF-2.0
%%BoundingBox:  0 0 567 332
%%Title: BeamSigmaX_near_fits.eps: Fits
%%Creator: ROOT Version 5.30/06
%%CreationDate: Sun Feb  2 09:41:12 2014
%%EndComments
%%BeginProlog
80 dict begin
/s {stroke} def /l {lineto} def /m {moveto} def /t {translate} def
/r {rotate} def /rl {roll}  def /R {repeat} def
/d {rlineto} def /rm {rmoveto} def /gr {grestore} def /f {eofill} def
/c {setrgbcolor} def /black {0 setgray} def /sd {setdash} def
/cl {closepath} def /sf {scalefont setfont} def /lw {setlinewidth} def
/box {m dup 0 exch d exch 0 d 0 exch neg d cl} def
/NC{systemdict begin initclip end}def/C{NC box clip newpath}def
/bl {box s} def /bf {box f} def /Y { 0 exch d} def /X { 0 d} def 
/K {{pop pop 0 moveto} exch kshow} bind def
/ita {/ang 15 def gsave [1 0 ang dup sin exch cos div 1 0 0] concat} def 
/mp {newpath /y exch def /x exch def} def
/side {[w .77 mul w .23 mul] .385 w mul sd w 0 l currentpoint t -144 r} def
/mr {mp x y w2 0 360 arc} def /m24 {mr s} def /m20 {mr f} def
/mb {mp x y w2 add m w2 neg 0 d 0 w neg d w 0 d 0 w d cl} def
/mt {mp x y w2 add m w2 neg w neg d w 0 d cl} def
/m21 {mb f} def /m25 {mb s} def /m22 {mt f} def /m26{mt s} def
/m23 {mp x y w2 sub m w2 w d w neg 0 d cl f} def
/m27 {mp x y w2 add m w3 neg w2 neg d w3 w2 neg d w3 w2 d cl s} def
/m28 {mp x w2 sub y w2 sub w3 add m w3 0 d  0 w3 neg d w3 0 d 0 w3 d w3 0 d  0 w3 d w3 neg 0 d 0 w3 d w3 neg 0 d 0 w3 neg d w3 neg 0 d cl s } def
/m29 {mp gsave x w2 sub y w2 add w3 sub m currentpoint t 4 {side} repeat cl fill gr} def
/m30 {mp gsave x w2 sub y w2 add w3 sub m currentpoint t 4 {side} repeat cl s gr} def
/m31 {mp x y w2 sub m 0 w d x w2 sub y m w 0 d x w2 sub y w2 add m w w neg d x w2 sub y w2 sub m w w d s} def
/m32 {mp x y w2 sub m w2 w d w neg 0 d cl s} def
/m33 {mp x y w2 add m w3 neg w2 neg d w3 w2 neg d w3 w2 d cl f} def
/m34 {mp x w2 sub y w2 sub w3 add m w3 0 d  0 w3 neg d w3 0 d 0 w3 d w3 0 d  0 w3 d w3 neg 0 d 0 w3 d w3 neg 0 d 0 w3 neg d w3 neg 0 d cl f } def
/m2 {mp x y w2 sub m 0 w d x w2 sub y m w 0 d s} def
/m5 {mp x w2 sub y w2 sub m w w d x w2 sub y w2 add m w w neg d s} def
/reEncode {exch findfont dup length dict begin {1 index /FID eq  {pop pop} {def} ifelse } forall /Encoding exch def currentdict end dup /FontName get exch definefont pop } def [/Times-Bold /Times-Italic /Times-BoldItalic /Helvetica /Helvetica-Oblique
 /Helvetica-Bold /Helvetica-BoldOblique /Courier /Courier-Oblique /Courier-Bold /Courier-BoldOblique /Times-Roman /AvantGarde-Book /AvantGarde-BookOblique /AvantGarde-Demi /AvantGarde-DemiOblique /Bookman-Demi /Bookman-DemiItalic /Bookman-Light
 /Bookman-LightItalic /Helvetica-Narrow /Helvetica-Narrow-Bold /Helvetica-Narrow-BoldOblique /Helvetica-Narrow-Oblique /NewCenturySchlbk-Roman /NewCenturySchlbk-Bold /NewCenturySchlbk-BoldItalic /NewCenturySchlbk-Italic /Palatino-Bold
 /Palatino-BoldItalic /Palatino-Italic /Palatino-Roman ] {ISOLatin1Encoding reEncode } forall%%EndProlog
%%BeginSetup
%%EndSetup
newpath  gsave  .25 .25 scale  gsave  0 0 t black[  ] 0 sd 3 lw 1 1 1 c 2268 1328 0 0 bf black 1 1 1 c 408 305 23 1009 bf black 1 1 1 c black 306 229 84 1055 bl 306 229 84 1055 bl 84 1055 m 306 X s 130 1059 m -4 Y s 236 1059 m -4 Y s 341 1059 m -4 Y
 s 130 1059 m -4 Y s 341 1059 m -4 Y s
 gsave  408 305 23 1009 C 108.258 1034.15 t 0 r /Helvetica findfont 22.8295 sf 0 0 m (\2550.5) show NC gr 
 gsave  408 305 23 1009 C 225.062 1034.15 t 0 r /Helvetica findfont 22.8295 sf 0 0 m (0) show NC gr 
 gsave  408 305 23 1009 C 321.925 1034.15 t 0 r /Helvetica findfont 22.8295 sf 0 0 m (0.5) show NC gr  84 1284 m 306 X s 130 1280 m 4 Y s 236 1280 m 4 Y s 341 1280 m 4 Y s 130 1280 m 4 Y s 341 1280 m 4 Y s 84 1055 m 229 Y s 89 1059 m -5 X s 87 1064 m
 -3 X s 87 1069 m -3 X s 87 1074 m -3 X s 87 1079 m -3 X s 89 1084 m -5 X s 87 1089 m -3 X s 87 1094 m -3 X s 87 1099 m -3 X s 87 1104 m -3 X s 89 1109 m -5 X s 87 1114 m -3 X s 87 1119 m -3 X s 87 1124 m -3 X s 87 1129 m -3 X s 89 1134 m -5 X s 87
 1139 m -3 X s 87 1144 m -3 X s 87 1149 m -3 X s 87 1154 m -3 X s 89 1159 m -5 X s 87 1164 m -3 X s 87 1169 m -3 X s 87 1174 m -3 X s 87 1179 m -3 X s 89 1184 m -5 X s 87 1189 m -3 X s 87 1194 m -3 X s 87 1199 m -3 X s 87 1204 m -3 X s 89 1209 m -5 X
 s 87 1214 m -3 X s 87 1219 m -3 X s 87 1224 m -3 X s 87 1229 m -3 X s 89 1234 m -5 X s 87 1239 m -3 X s 87 1244 m -3 X s 87 1250 m -3 X s 87 1255 m -3 X s 89 1260 m -5 X s 89 1059 m -5 X s 89 1260 m -5 X s 87 1265 m -3 X s 87 1270 m -3 X s 87 1275 m
 -3 X s 87 1280 m -3 X s
 gsave  408 305 23 1009 C 14.2445 1051.24 t 0 r /Helvetica findfont 22.8295 sf 0 0 m (\2550.035) show NC gr 
 gsave  408 305 23 1009 C 28.4889 1076.88 t 0 r /Helvetica findfont 22.8295 sf 0 0 m (\2550.03) show NC gr 
 gsave  408 305 23 1009 C 14.2445 1102.52 t 0 r /Helvetica findfont 22.8295 sf 0 0 m (\2550.025) show NC gr 
 gsave  408 305 23 1009 C 28.4889 1128.16 t 0 r /Helvetica findfont 22.8295 sf 0 0 m (\2550.02) show NC gr 
 gsave  408 305 23 1009 C 14.2445 1150.95 t 0 r /Helvetica findfont 22.8295 sf 0 0 m (\2550.015) show NC gr 
 gsave  408 305 23 1009 C 31.3378 1176.59 t 0 r /Helvetica findfont 22.8295 sf 0 0 m (\2550.01) show NC gr 
 gsave  408 305 23 1009 C 14.2445 1202.23 t 0 r /Helvetica findfont 22.8295 sf 0 0 m (\2550.005) show NC gr 
 gsave  408 305 23 1009 C 65.5245 1227.87 t 0 r /Helvetica findfont 22.8295 sf 0 0 m (0) show NC gr 
 gsave  408 305 23 1009 C 22.7911 1253.51 t 0 r /Helvetica findfont 22.8295 sf 0 0 m (0.005) show NC gr  390 1055 m 229 Y s 385 1059 m 5 X s 387 1064 m 3 X s 387 1069 m 3 X s 387 1074 m 3 X s 387 1079 m 3 X s 385 1084 m 5 X s 387 1089 m 3 X s 387
 1094 m 3 X s 387 1099 m 3 X s 387 1104 m 3 X s 385 1109 m 5 X s 387 1114 m 3 X s 387 1119 m 3 X s 387 1124 m 3 X s 387 1129 m 3 X s 385 1134 m 5 X s 387 1139 m 3 X s 387 1144 m 3 X s 387 1149 m 3 X s 387 1154 m 3 X s 385 1159 m 5 X s 387 1164 m 3 X
 s 387 1169 m 3 X s 387 1174 m 3 X s 387 1179 m 3 X s 385 1184 m 5 X s 387 1189 m 3 X s 387 1194 m 3 X s 387 1199 m 3 X s 387 1204 m 3 X s 385 1209 m 5 X s 387 1214 m 3 X s 387 1219 m 3 X s 387 1224 m 3 X s 387 1229 m 3 X s 385 1234 m 5 X s 387 1239
 m 3 X s 387 1244 m 3 X s 387 1250 m 3 X s 387 1255 m 3 X s 385 1260 m 5 X s 385 1059 m 5 X s 385 1260 m 5 X s 387 1265 m 3 X s 387 1270 m 3 X s 387 1275 m 3 X s 387 1280 m 3 X s /w 22 def /w2 {w 2 div} def /w3 {w 3 div} def 109 1255 151 1245 194
 1239 215 1241 257 1219 278 1196 320 1146 362 1083 8 { m21} R 9 lw 0.95 0.95 0.95 c black 159 1284 m 3 -2 d 3 -2 d 3 -2 d 3 -2 d 3 -2 d 3 -2 d 3 -2 d 3 -2 d 3 -2 d 4 -2 d 3 -2 d 3 -2 d 3 -2 d 3 -2 d 3 -2 d 3 -2 d 3 -2 d 3 -2 d 3 -2 d 3 -1 d 3 -2 d 3
 -2 d 3 -2 d 3 -2 d 3 -2 d 4 -2 d 3 -2 d 3 -2 d 3 -2 d 3 -2 d 3 -2 d 3 -2 d 3 -2 d 3 -2 d 3 -2 d 3 -2 d 3 -2 d 3 -2 d 3 -2 d 3 -2 d 3 -2 d 3 -2 d 4 -2 d 3 -2 d 3 -2 d 3 -2 d 3 -2 d 3 -2 d 3 -2 d s 309 1187 m 3 -2 d 3 -2 d 3 -2 d 3 -2 d 3 -2 d 3 -2 d
 3 -2 d 3 -2 d 3 -2 d 4 -2 d 3 -2 d 3 -2 d 3 -2 d 3 -2 d 3 -2 d 3 -1 d 3 -2 d 3 -2 d 3 -2 d 3 -2 d 3 -2 d 3 -2 d 3 -2 d 3 -2 d 3 -2 d 4 -2 d s 0.49 0.6 0.82 c black 0.49 0.6 0.82 c
 gsave  408 305 23 1009 C 142.445 1293.4 t 0 r /Helvetica-Bold findfont 25.6831 sf 0 0 m (0.0 < E < 0.5 GeV) show NC gr  0.52 0.76 0.64 c black 0.52 0.76 0.64 c
 gsave  408 305 23 1009 C 122.502 1256.36 t 0 r /Helvetica-Bold findfont 25.6831 sf 0 0 m 
 228 214 200 193 178 171 156 149 134 126 119 105 91 77 69 55 47 40 25 17
(A = \2550.027, p = 1.000) K NC gr  1 0.6 1 c black 1 0.6 1 c
 gsave  408 305 23 1009 C 427.334 1113.92 t 90 r /Helvetica-Bold findfont 28.5368 sf 0 0 m (/dof=19.7) show NC gr  black 1 0.6 1 c
 gsave  408 305 23 1009 C 415.938 1102.52 t 90 r /Helvetica-Bold findfont 19.9758 sf 0 0 m (2) show NC gr  black 1 0.6 1 c
 gsave  408 305 23 1009 C 427.334 1085.43 t 90 r /Symbol findfont 28.5368 sf 0 0 m (c) show NC gr  black 3 lw 1 1 1 c 408 305 476 1009 bf black 1 1 1 c black 307 229 537 1055 bl 307 229 537 1055 bl 537 1055 m 307 X s 584 1059 m -4 Y s 689 1059 m -4 Y
 s 795 1059 m -4 Y s 584 1059 m -4 Y s 795 1059 m -4 Y s
 gsave  408 305 476 1009 C 561.231 1034.15 t 0 r /Helvetica findfont 22.8295 sf 0 0 m (\2550.5) show NC gr 
 gsave  408 305 476 1009 C 678.036 1034.15 t 0 r /Helvetica findfont 22.8295 sf 0 0 m (0) show NC gr 
 gsave  408 305 476 1009 C 774.898 1034.15 t 0 r /Helvetica findfont 22.8295 sf 0 0 m (0.5) show NC gr  537 1284 m 307 X s 584 1280 m 4 Y s 689 1280 m 4 Y s 795 1280 m 4 Y s 584 1280 m 4 Y s 795 1280 m 4 Y s 537 1055 m 229 Y s 543 1061 m -6 X s 540
 1067 m -3 X s 540 1074 m -3 X s 540 1080 m -3 X s 540 1087 m -3 X s 543 1093 m -6 X s 540 1100 m -3 X s 540 1106 m -3 X s 540 1113 m -3 X s 540 1119 m -3 X s 543 1126 m -6 X s 540 1132 m -3 X s 540 1139 m -3 X s 540 1145 m -3 X s 540 1152 m -3 X s
 543 1158 m -6 X s 540 1164 m -3 X s 540 1171 m -3 X s 540 1177 m -3 X s 540 1184 m -3 X s 543 1190 m -6 X s 540 1197 m -3 X s 540 1203 m -3 X s 540 1210 m -3 X s 540 1216 m -3 X s 543 1223 m -6 X s 540 1229 m -3 X s 540 1236 m -3 X s 540 1242 m -3 X
 s 540 1248 m -3 X s 543 1255 m -6 X s 543 1061 m -6 X s 543 1255 m -6 X s 540 1261 m -3 X s 540 1268 m -3 X s 540 1274 m -3 X s 540 1281 m -3 X s
 gsave  408 305 476 1009 C 481.462 1054.09 t 0 r /Helvetica findfont 22.8295 sf 0 0 m (\2550.05) show NC gr 
 gsave  408 305 476 1009 C 481.462 1085.43 t 0 r /Helvetica findfont 22.8295 sf 0 0 m (\2550.04) show NC gr 
 gsave  408 305 476 1009 C 481.462 1119.61 t 0 r /Helvetica findfont 22.8295 sf 0 0 m (\2550.03) show NC gr 
 gsave  408 305 476 1009 C 481.462 1150.95 t 0 r /Helvetica findfont 22.8295 sf 0 0 m (\2550.02) show NC gr 
 gsave  408 305 476 1009 C 484.311 1182.29 t 0 r /Helvetica findfont 22.8295 sf 0 0 m (\2550.01) show NC gr 
 gsave  408 305 476 1009 C 518.498 1216.48 t 0 r /Helvetica findfont 22.8295 sf 0 0 m (0) show NC gr 
 gsave  408 305 476 1009 C 490.009 1247.81 t 0 r /Helvetica findfont 22.8295 sf 0 0 m (0.01) show NC gr  844 1055 m 229 Y s 838 1061 m 6 X s 841 1067 m 3 X s 841 1074 m 3 X s 841 1080 m 3 X s 841 1087 m 3 X s 838 1093 m 6 X s 841 1100 m 3 X s 841
 1106 m 3 X s 841 1113 m 3 X s 841 1119 m 3 X s 838 1126 m 6 X s 841 1132 m 3 X s 841 1139 m 3 X s 841 1145 m 3 X s 841 1152 m 3 X s 838 1158 m 6 X s 841 1164 m 3 X s 841 1171 m 3 X s 841 1177 m 3 X s 841 1184 m 3 X s 838 1190 m 6 X s 841 1197 m 3 X
 s 841 1203 m 3 X s 841 1210 m 3 X s 841 1216 m 3 X s 838 1223 m 6 X s 841 1229 m 3 X s 841 1236 m 3 X s 841 1242 m 3 X s 841 1248 m 3 X s 838 1255 m 6 X s 838 1061 m 6 X s 838 1255 m 6 X s 841 1261 m 3 X s 841 1268 m 3 X s 841 1274 m 3 X s 841 1281
 m 3 X s /w 23 def /w2 {w 2 div} def /w3 {w 3 div} def 563 1257 605 1257 647 1244 668 1232 710 1216 731 1190 774 1128 816 1081 8 { m21} R 9 lw 0.95 0.95 0.95 c black 603 1284 m 3 -2 d 3 -2 d 3 -2 d 4 -3 d 3 -2 d 3 -2 d 3 -2 d 3 -2 d 3 -3 d 3 -2 d 3
 -2 d 3 -2 d 3 -2 d 3 -3 d 3 -2 d 3 -2 d 3 -2 d 3 -2 d 3 -2 d 3 -3 d 4 -2 d 3 -2 d 3 -2 d 3 -2 d 3 -3 d 3 -2 d 3 -2 d 3 -2 d 3 -2 d 3 -3 d 3 -2 d 3 -2 d 3 -2 d 3 -2 d 3 -3 d 3 -2 d 4 -2 d 3 -2 d 3 -2 d 3 -3 d 3 -2 d 3 -2 d 3 -2 d 3 -2 d 3 -2 d 3 -3 d
 3 -2 d 3 -2 d 3 -2 d s 753 1177 m 3 -2 d 3 -3 d 3 -2 d 4 -2 d 3 -2 d 3 -2 d 3 -3 d 3 -2 d 3 -2 d 3 -2 d 3 -2 d 3 -3 d 3 -2 d 3 -2 d 3 -2 d 3 -2 d 3 -3 d 3 -2 d 3 -2 d 4 -2 d 3 -2 d 3 -2 d 3 -3 d 3 -2 d 3 -2 d 3 -2 d 3 -2 d 3 -3 d 3 -2 d s 0.49 0.6
 0.82 c black 0.49 0.6 0.82 c
 gsave  408 305 476 1009 C 595.418 1293.4 t 0 r /Helvetica-Bold findfont 25.6831 sf 0 0 m (0.5 < E < 1.0 GeV) show NC gr  0.52 0.76 0.64 c black 0.52 0.76 0.64 c
 gsave  408 305 476 1009 C 575.476 1256.36 t 0 r /Helvetica-Bold findfont 25.6831 sf 0 0 m 
 228 214 200 193 178 171 156 149 133 126 119 105 91 77 69 55 47 39 25 17
(A = \2550.047, p = 1.000) K NC gr  1 0.6 1 c black 1 0.6 1 c
 gsave  408 305 476 1009 C 883.156 1113.92 t 90 r /Helvetica-Bold findfont 28.5368 sf 0 0 m (/dof=21.1) show NC gr  black 1 0.6 1 c
 gsave  408 305 476 1009 C 871.76 1102.52 t 90 r /Helvetica-Bold findfont 19.9758 sf 0 0 m (2) show NC gr  black 1 0.6 1 c
 gsave  408 305 476 1009 C 883.156 1085.43 t 90 r /Symbol findfont 28.5368 sf 0 0 m (c) show NC gr  black 3 lw 1 1 1 c 408 305 930 1009 bf black 1 1 1 c black 306 229 991 1055 bl 306 229 991 1055 bl 991 1055 m 306 X s 1037 1059 m -4 Y s 1143 1059 m
 -4 Y s 1248 1059 m -4 Y s 1037 1059 m -4 Y s 1248 1059 m -4 Y s
 gsave  408 305 930 1009 C 1017.05 1034.15 t 0 r /Helvetica findfont 22.8295 sf 0 0 m (\2550.5) show NC gr 
 gsave  408 305 930 1009 C 1133.86 1034.15 t 0 r /Helvetica findfont 22.8295 sf 0 0 m (0) show NC gr 
 gsave  408 305 930 1009 C 1230.72 1034.15 t 0 r /Helvetica findfont 22.8295 sf 0 0 m (0.5) show NC gr  991 1284 m 306 X s 1037 1280 m 4 Y s 1143 1280 m 4 Y s 1248 1280 m 4 Y s 1037 1280 m 4 Y s 1248 1280 m 4 Y s 991 1055 m 229 Y s 997 1083 m -6 X s
 994 1089 m -3 X s 994 1095 m -3 X s 994 1101 m -3 X s 994 1107 m -3 X s 997 1112 m -6 X s 994 1118 m -3 X s 994 1124 m -3 X s 994 1130 m -3 X s 994 1136 m -3 X s 997 1142 m -6 X s 994 1148 m -3 X s 994 1153 m -3 X s 994 1159 m -3 X s 994 1165 m -3 X
 s 997 1171 m -6 X s 994 1177 m -3 X s 994 1183 m -3 X s 994 1189 m -3 X s 994 1195 m -3 X s 997 1200 m -6 X s 994 1206 m -3 X s 994 1212 m -3 X s 994 1218 m -3 X s 994 1224 m -3 X s 997 1230 m -6 X s 994 1236 m -3 X s 994 1242 m -3 X s 994 1247 m -3
 X s 994 1253 m -3 X s 997 1259 m -6 X s 997 1083 m -6 X s 994 1077 m -3 X s 994 1071 m -3 X s 994 1065 m -3 X s 994 1060 m -3 X s 997 1259 m -6 X s 994 1265 m -3 X s 994 1271 m -3 X s 994 1277 m -3 X s 994 1283 m -3 X s
 gsave  408 305 930 1009 C 937.285 1076.88 t 0 r /Helvetica findfont 22.8295 sf 0 0 m (\2550.05) show NC gr 
 gsave  408 305 930 1009 C 937.285 1105.37 t 0 r /Helvetica findfont 22.8295 sf 0 0 m (\2550.04) show NC gr 
 gsave  408 305 930 1009 C 937.285 1133.86 t 0 r /Helvetica findfont 22.8295 sf 0 0 m (\2550.03) show NC gr 
 gsave  408 305 930 1009 C 937.285 1165.2 t 0 r /Helvetica findfont 22.8295 sf 0 0 m (\2550.02) show NC gr 
 gsave  408 305 930 1009 C 940.134 1193.68 t 0 r /Helvetica findfont 22.8295 sf 0 0 m (\2550.01) show NC gr 
 gsave  408 305 930 1009 C 974.32 1222.17 t 0 r /Helvetica findfont 22.8295 sf 0 0 m (0) show NC gr 
 gsave  408 305 930 1009 C 945.832 1250.66 t 0 r /Helvetica findfont 22.8295 sf 0 0 m (0.01) show NC gr  1297 1055 m 229 Y s 1292 1083 m 5 X s 1294 1089 m 3 X s 1294 1095 m 3 X s 1294 1101 m 3 X s 1294 1107 m 3 X s 1292 1112 m 5 X s 1294 1118 m 3 X s
 1294 1124 m 3 X s 1294 1130 m 3 X s 1294 1136 m 3 X s 1292 1142 m 5 X s 1294 1148 m 3 X s 1294 1153 m 3 X s 1294 1159 m 3 X s 1294 1165 m 3 X s 1292 1171 m 5 X s 1294 1177 m 3 X s 1294 1183 m 3 X s 1294 1189 m 3 X s 1294 1195 m 3 X s 1292 1200 m 5 X
 s 1294 1206 m 3 X s 1294 1212 m 3 X s 1294 1218 m 3 X s 1294 1224 m 3 X s 1292 1230 m 5 X s 1294 1236 m 3 X s 1294 1242 m 3 X s 1294 1247 m 3 X s 1294 1253 m 3 X s 1292 1259 m 5 X s 1292 1083 m 5 X s 1294 1077 m 3 X s 1294 1071 m 3 X s 1294 1065 m 3
 X s 1294 1060 m 3 X s 1292 1259 m 5 X s 1294 1265 m 3 X s 1294 1271 m 3 X s 1294 1277 m 3 X s 1294 1283 m 3 X s 1016 1258 1058 1251 1101 1235 1122 1242 1164 1208 1185 1206 1227 1152 1269 1080 8 { m21} R 9 lw 0.95 0.95 0.95 c black 1060 1284 m 3 -1 d
 3 -2 d 3 -2 d 3 -2 d 3 -2 d 3 -2 d 3 -2 d 3 -2 d 3 -2 d 3 -3 d 4 -2 d 3 -2 d 3 -2 d 3 -2 d 3 -2 d 3 -2 d 3 -2 d 3 -2 d 3 -2 d 3 -2 d 3 -2 d 3 -2 d 3 -2 d 3 -2 d 3 -2 d 3 -2 d 4 -2 d 3 -2 d 3 -2 d 3 -2 d 3 -2 d 3 -2 d 3 -2 d 3 -2 d 3 -2 d 3 -2 d 3 -2
 d 3 -2 d 3 -2 d 3 -2 d 3 -2 d 3 -2 d 4 -3 d 3 -2 d 3 -2 d 3 -2 d 3 -2 d 3 -2 d 3 -2 d s 1210 1185 m 3 -2 d 3 -2 d 3 -2 d 3 -2 d 3 -2 d 3 -2 d 3 -2 d 3 -2 d 3 -2 d 3 -2 d 4 -2 d 3 -2 d 3 -2 d 3 -2 d 3 -2 d 3 -2 d 3 -2 d 3 -2 d 3 -2 d 3 -2 d 3 -2 d 3
 -2 d 3 -2 d 3 -2 d 3 -2 d 3 -3 d 4 -2 d 3 -2 d s 0.49 0.6 0.82 c black 0.49 0.6 0.82 c
 gsave  408 305 930 1009 C 1051.24 1293.4 t 0 r /Helvetica-Bold findfont 25.6831 sf 0 0 m (1.0 < E < 1.5 GeV) show NC gr  0.52 0.76 0.64 c black 0.52 0.76 0.64 c
 gsave  408 305 930 1009 C 1031.3 1256.36 t 0 r /Helvetica-Bold findfont 25.6831 sf 0 0 m 
 228 214 200 193 178 171 156 149 134 126 119 105 91 77 69 55 47 39 25 17
(A = \2550.048, p = 1.000) K NC gr  1 0.6 1 c black 1 0.6 1 c
 gsave  408 305 930 1009 C 1336.13 1113.92 t 90 r /Helvetica-Bold findfont 28.5368 sf 0 0 m (/dof=33.7) show NC gr  black 1 0.6 1 c
 gsave  408 305 930 1009 C 1324.73 1102.52 t 90 r /Helvetica-Bold findfont 19.9758 sf 0 0 m (2) show NC gr  black 1 0.6 1 c
 gsave  408 305 930 1009 C 1336.13 1085.43 t 90 r /Symbol findfont 28.5368 sf 0 0 m (c) show NC gr  black 3 lw 1 1 1 c 408 305 1383 1009 bf black 1 1 1 c black 306 229 1445 1055 bl 306 229 1445 1055 bl 1445 1055 m 306 X s 1491 1059 m -4 Y s 1596 1059
 m -4 Y s 1702 1059 m -4 Y s 1491 1059 m -4 Y s 1702 1059 m -4 Y s
 gsave  408 305 1383 1009 C 1470.03 1034.15 t 0 r /Helvetica findfont 22.8295 sf 0 0 m (\2550.5) show NC gr 
 gsave  408 305 1383 1009 C 1586.83 1034.15 t 0 r /Helvetica findfont 22.8295 sf 0 0 m (0) show NC gr 
 gsave  408 305 1383 1009 C 1683.69 1034.15 t 0 r /Helvetica findfont 22.8295 sf 0 0 m (0.5) show NC gr  1445 1284 m 306 X s 1491 1280 m 4 Y s 1596 1280 m 4 Y s 1702 1280 m 4 Y s 1491 1280 m 4 Y s 1702 1280 m 4 Y s 1445 1055 m 229 Y s 1450 1064 m -5
 X s 1447 1071 m -2 X s 1447 1078 m -2 X s 1447 1085 m -2 X s 1447 1092 m -2 X s 1450 1099 m -5 X s 1447 1106 m -2 X s 1447 1112 m -2 X s 1447 1119 m -2 X s 1447 1126 m -2 X s 1450 1133 m -5 X s 1447 1140 m -2 X s 1447 1147 m -2 X s 1447 1154 m -2 X
 s 1447 1161 m -2 X s 1450 1168 m -5 X s 1447 1174 m -2 X s 1447 1181 m -2 X s 1447 1188 m -2 X s 1447 1195 m -2 X s 1450 1202 m -5 X s 1447 1209 m -2 X s 1447 1216 m -2 X s 1447 1223 m -2 X s 1447 1230 m -2 X s 1450 1236 m -5 X s 1447 1243 m -2 X s
 1447 1250 m -2 X s 1447 1257 m -2 X s 1447 1264 m -2 X s 1450 1271 m -5 X s 1450 1064 m -5 X s 1447 1057 m -2 X s 1450 1271 m -5 X s 1447 1278 m -2 X s
 gsave  408 305 1383 1009 C 1390.26 1056.94 t 0 r /Helvetica findfont 22.8295 sf 0 0 m (\2550.05) show NC gr 
 gsave  408 305 1383 1009 C 1390.26 1091.12 t 0 r /Helvetica findfont 22.8295 sf 0 0 m (\2550.04) show NC gr 
 gsave  408 305 1383 1009 C 1390.26 1125.31 t 0 r /Helvetica findfont 22.8295 sf 0 0 m (\2550.03) show NC gr 
 gsave  408 305 1383 1009 C 1390.26 1159.5 t 0 r /Helvetica findfont 22.8295 sf 0 0 m (\2550.02) show NC gr 
 gsave  408 305 1383 1009 C 1393.11 1193.68 t 0 r /Helvetica findfont 22.8295 sf 0 0 m (\2550.01) show NC gr 
 gsave  408 305 1383 1009 C 1427.29 1230.72 t 0 r /Helvetica findfont 22.8295 sf 0 0 m (0) show NC gr 
 gsave  408 305 1383 1009 C 1398.81 1264.91 t 0 r /Helvetica findfont 22.8295 sf 0 0 m (0.01) show NC gr  1751 1055 m 229 Y s 1745 1064 m 6 X s 1748 1071 m 3 X s 1748 1078 m 3 X s 1748 1085 m 3 X s 1748 1092 m 3 X s 1745 1099 m 6 X s 1748 1106 m 3 X
 s 1748 1112 m 3 X s 1748 1119 m 3 X s 1748 1126 m 3 X s 1745 1133 m 6 X s 1748 1140 m 3 X s 1748 1147 m 3 X s 1748 1154 m 3 X s 1748 1161 m 3 X s 1745 1168 m 6 X s 1748 1174 m 3 X s 1748 1181 m 3 X s 1748 1188 m 3 X s 1748 1195 m 3 X s 1745 1202 m 6
 X s 1748 1209 m 3 X s 1748 1216 m 3 X s 1748 1223 m 3 X s 1748 1230 m 3 X s 1745 1236 m 6 X s 1748 1243 m 3 X s 1748 1250 m 3 X s 1748 1257 m 3 X s 1748 1264 m 3 X s 1745 1271 m 6 X s 1745 1064 m 6 X s 1748 1057 m 3 X s 1745 1271 m 6 X s 1748 1278 m
 3 X s 1470 1257 1512 1254 1554 1245 1575 1232 1617 1236 1639 1190 1681 1137 1723 1081 8 { m21} R 9 lw 0.95 0.95 0.95 c black 1526 1284 m 3 -1 d 3 -2 d 3 -2 d 3 -2 d 3 -2 d 3 -2 d 3 -2 d 3 -3 d 3 -2 d 3 -2 d 3 -2 d 3 -2 d 3 -2 d 4 -2 d 3 -2 d 3 -3 d
 3 -2 d 3 -2 d 3 -2 d 3 -2 d 3 -2 d 3 -2 d 3 -2 d 3 -2 d 3 -3 d 3 -2 d 3 -2 d 3 -2 d 3 -2 d 4 -2 d 3 -2 d 3 -2 d 3 -3 d 3 -2 d 3 -2 d 3 -2 d 3 -2 d 3 -2 d 3 -2 d 3 -2 d 3 -3 d 3 -2 d 3 -2 d 3 -2 d 3 -2 d 3 -2 d 4 -2 d 3 -2 d 3 -3 d s 1676 1181 m 3 -2
 d 3 -2 d 3 -2 d 3 -2 d 3 -2 d 3 -2 d 3 -2 d 3 -3 d 3 -2 d 3 -2 d 3 -2 d 3 -2 d 3 -2 d 4 -2 d 3 -2 d 3 -2 d 3 -3 d 3 -2 d 3 -2 d 3 -2 d 3 -2 d 3 -2 d 3 -2 d 3 -2 d s 0.49 0.6 0.82 c black 0.49 0.6 0.82 c
 gsave  408 305 1383 1009 C 1504.21 1293.4 t 0 r /Helvetica-Bold findfont 25.6831 sf 0 0 m (1.5 < E < 2.0 GeV) show NC gr  0.52 0.76 0.64 c black 0.52 0.76 0.64 c
 gsave  408 305 1383 1009 C 1484.27 1256.36 t 0 r /Helvetica-Bold findfont 25.6831 sf 0 0 m 
 228 214 200 193 178 171 156 149 133 126 119 105 91 76 69 55 47 39 25 17
(A = \2550.042, p = 1.000) K NC gr  1 0.6 1 c black 1 0.6 1 c
 gsave  408 305 1383 1009 C 1789.1 1113.92 t 90 r /Helvetica-Bold findfont 28.5368 sf 0 0 m (/dof=33.9) show NC gr  black 1 0.6 1 c
 gsave  408 305 1383 1009 C 1777.71 1102.52 t 90 r /Helvetica-Bold findfont 19.9758 sf 0 0 m (2) show NC gr  black 1 0.6 1 c
 gsave  408 305 1383 1009 C 1789.1 1085.43 t 90 r /Symbol findfont 28.5368 sf 0 0 m (c) show NC gr  black 3 lw 1 1 1 c 408 305 1837 1009 bf black 1 1 1 c black 306 229 1898 1055 bl 306 229 1898 1055 bl 1898 1055 m 306 X s 1944 1059 m -4 Y s 2050 1059
 m -4 Y s 2155 1059 m -4 Y s 1944 1059 m -4 Y s 2155 1059 m -4 Y s
 gsave  408 305 1837 1009 C 1923 1034.15 t 0 r /Helvetica findfont 22.8295 sf 0 0 m (\2550.5) show NC gr 
 gsave  408 305 1837 1009 C 2039.81 1034.15 t 0 r /Helvetica findfont 22.8295 sf 0 0 m (0) show NC gr 
 gsave  408 305 1837 1009 C 2136.67 1034.15 t 0 r /Helvetica findfont 22.8295 sf 0 0 m (0.5) show NC gr  1898 1284 m 306 X s 1944 1280 m 4 Y s 2050 1280 m 4 Y s 2155 1280 m 4 Y s 1944 1280 m 4 Y s 2155 1280 m 4 Y s 1898 1055 m 229 Y s 1904 1075 m -6
 X s 1901 1081 m -3 X s 1901 1087 m -3 X s 1901 1094 m -3 X s 1901 1100 m -3 X s 1904 1107 m -6 X s 1901 1113 m -3 X s 1901 1119 m -3 X s 1901 1126 m -3 X s 1901 1132 m -3 X s 1904 1139 m -6 X s 1901 1145 m -3 X s 1901 1151 m -3 X s 1901 1158 m -3 X
 s 1901 1164 m -3 X s 1904 1170 m -6 X s 1901 1177 m -3 X s 1901 1183 m -3 X s 1901 1190 m -3 X s 1901 1196 m -3 X s 1904 1202 m -6 X s 1901 1209 m -3 X s 1901 1215 m -3 X s 1901 1222 m -3 X s 1901 1228 m -3 X s 1904 1234 m -6 X s 1901 1241 m -3 X s
 1901 1247 m -3 X s 1901 1253 m -3 X s 1901 1260 m -3 X s 1904 1266 m -6 X s 1904 1075 m -6 X s 1901 1068 m -3 X s 1901 1062 m -3 X s 1901 1056 m -3 X s 1904 1266 m -6 X s 1901 1273 m -3 X s 1901 1279 m -3 X s
 gsave  408 305 1837 1009 C 1843.23 1068.33 t 0 r /Helvetica findfont 22.8295 sf 0 0 m (\2550.05) show NC gr 
 gsave  408 305 1837 1009 C 1843.23 1099.67 t 0 r /Helvetica findfont 22.8295 sf 0 0 m (\2550.04) show NC gr 
 gsave  408 305 1837 1009 C 1843.23 1131.01 t 0 r /Helvetica findfont 22.8295 sf 0 0 m (\2550.03) show NC gr 
 gsave  408 305 1837 1009 C 1843.23 1162.35 t 0 r /Helvetica findfont 22.8295 sf 0 0 m (\2550.02) show NC gr 
 gsave  408 305 1837 1009 C 1846.08 1196.53 t 0 r /Helvetica findfont 22.8295 sf 0 0 m (\2550.01) show NC gr 
 gsave  408 305 1837 1009 C 1880.27 1227.87 t 0 r /Helvetica findfont 22.8295 sf 0 0 m (0) show NC gr 
 gsave  408 305 1837 1009 C 1851.78 1259.21 t 0 r /Helvetica findfont 22.8295 sf 0 0 m (0.01) show NC gr  2204 1055 m 229 Y s 2199 1075 m 5 X s 2201 1081 m 3 X s 2201 1087 m 3 X s 2201 1094 m 3 X s 2201 1100 m 3 X s 2199 1107 m 5 X s 2201 1113 m 3 X
 s 2201 1119 m 3 X s 2201 1126 m 3 X s 2201 1132 m 3 X s 2199 1139 m 5 X s 2201 1145 m 3 X s 2201 1151 m 3 X s 2201 1158 m 3 X s 2201 1164 m 3 X s 2199 1170 m 5 X s 2201 1177 m 3 X s 2201 1183 m 3 X s 2201 1190 m 3 X s 2201 1196 m 3 X s 2199 1202 m 5
 X s 2201 1209 m 3 X s 2201 1215 m 3 X s 2201 1222 m 3 X s 2201 1228 m 3 X s 2199 1234 m 5 X s 2201 1241 m 3 X s 2201 1247 m 3 X s 2201 1253 m 3 X s 2201 1260 m 3 X s 2199 1266 m 5 X s 2199 1075 m 5 X s 2201 1068 m 3 X s 2201 1062 m 3 X s 2201 1056 m
 3 X s 2199 1266 m 5 X s 2201 1273 m 3 X s 2201 1279 m 3 X s 1923 1254 1966 1257 2008 1239 2029 1236 2071 1222 2092 1192 2134 1142 2176 1081 8 { m21} R 9 lw 0.95 0.95 0.95 c black 1976 1284 m 3 -2 d 3 -2 d 3 -2 d 3 -2 d 3 -2 d 4 -2 d 3 -2 d 3 -2 d 3
 -2 d 3 -2 d 3 -2 d 3 -2 d 3 -3 d 3 -2 d 3 -2 d 3 -2 d 3 -2 d 3 -2 d 3 -2 d 3 -2 d 3 -2 d 3 -2 d 4 -2 d 3 -3 d 3 -2 d 3 -2 d 3 -2 d 3 -2 d 3 -2 d 3 -2 d 3 -2 d 3 -2 d 3 -2 d 3 -2 d 3 -2 d 3 -3 d 3 -2 d 3 -2 d 4 -2 d 3 -2 d 3 -2 d 3 -2 d 3 -2 d 3 -2 d
 3 -2 d 3 -2 d 3 -2 d 3 -3 d 3 -2 d s 2126 1182 m 3 -2 d 3 -2 d 3 -2 d 3 -2 d 3 -2 d 4 -2 d 3 -2 d 3 -2 d 3 -2 d 3 -2 d 3 -3 d 3 -2 d 3 -2 d 3 -2 d 3 -2 d 3 -2 d 3 -2 d 3 -2 d 3 -2 d 3 -2 d 3 -2 d 4 -3 d 3 -2 d 3 -2 d 3 -2 d s 0.49 0.6 0.82 c black
 0.49 0.6 0.82 c
 gsave  408 305 1837 1009 C 1957.19 1293.4 t 0 r /Helvetica-Bold findfont 25.6831 sf 0 0 m (2.0 < E < 2.5 GeV) show NC gr  0.52 0.76 0.64 c black 0.52 0.76 0.64 c
 gsave  408 305 1837 1009 C 1937.25 1256.36 t 0 r /Helvetica-Bold findfont 25.6831 sf 0 0 m 
 228 214 200 193 178 171 156 149 134 126 119 105 91 77 69 55 47 39 25 17
(A = \2550.045, p = 1.000) K NC gr  1 0.6 1 c black 1 0.6 1 c
 gsave  408 305 1837 1009 C 2242.08 1113.92 t 90 r /Helvetica-Bold findfont 28.5368 sf 0 0 m (/dof=29.7) show NC gr  black 1 0.6 1 c
 gsave  408 305 1837 1009 C 2230.68 1102.52 t 90 r /Helvetica-Bold findfont 19.9758 sf 0 0 m (2) show NC gr  black 1 0.6 1 c
 gsave  408 305 1837 1009 C 2242.08 1085.43 t 90 r /Symbol findfont 28.5368 sf 0 0 m (c) show NC gr  black 3 lw 1 1 1 c 408 305 23 677 bf black 1 1 1 c black 306 229 84 723 bl 306 229 84 723 bl 84 723 m 306 X s 130 727 m -4 Y s 236 727 m -4 Y s 341
 727 m -4 Y s 130 727 m -4 Y s 341 727 m -4 Y s
 gsave  408 305 23 677 C 108.258 703.676 t 0 r /Helvetica findfont 22.8295 sf 0 0 m (\2550.5) show NC gr 
 gsave  408 305 23 677 C 225.062 703.676 t 0 r /Helvetica findfont 22.8295 sf 0 0 m (0) show NC gr 
 gsave  408 305 23 677 C 321.925 703.676 t 0 r /Helvetica findfont 22.8295 sf 0 0 m (0.5) show NC gr  84 952 m 306 X s 130 948 m 4 Y s 236 948 m 4 Y s 341 948 m 4 Y s 130 948 m 4 Y s 341 948 m 4 Y s 84 723 m 229 Y s 89 737 m -5 X s 87 743 m -3 X s 87
 750 m -3 X s 87 756 m -3 X s 87 763 m -3 X s 89 769 m -5 X s 87 776 m -3 X s 87 782 m -3 X s 87 789 m -3 X s 87 795 m -3 X s 89 802 m -5 X s 87 808 m -3 X s 87 815 m -3 X s 87 821 m -3 X s 87 828 m -3 X s 89 834 m -5 X s 87 841 m -3 X s 87 847 m -3
 X s 87 854 m -3 X s 87 860 m -3 X s 89 867 m -5 X s 87 873 m -3 X s 87 880 m -3 X s 87 886 m -3 X s 87 893 m -3 X s 89 899 m -5 X s 87 906 m -3 X s 87 912 m -3 X s 87 919 m -3 X s 87 925 m -3 X s 89 932 m -5 X s 89 737 m -5 X s 87 730 m -3 X s 87
 724 m -3 X s 89 932 m -5 X s 87 938 m -3 X s 87 945 m -3 X s 87 951 m -3 X s
 gsave  408 305 23 677 C 28.4889 729.316 t 0 r /Helvetica findfont 22.8295 sf 0 0 m (\2550.05) show NC gr 
 gsave  408 305 23 677 C 28.4889 763.503 t 0 r /Helvetica findfont 22.8295 sf 0 0 m (\2550.04) show NC gr 
 gsave  408 305 23 677 C 28.4889 794.84 t 0 r /Helvetica findfont 22.8295 sf 0 0 m (\2550.03) show NC gr 
 gsave  408 305 23 677 C 28.4889 826.178 t 0 r /Helvetica findfont 22.8295 sf 0 0 m (\2550.02) show NC gr 
 gsave  408 305 23 677 C 31.3378 860.365 t 0 r /Helvetica findfont 22.8295 sf 0 0 m (\2550.01) show NC gr 
 gsave  408 305 23 677 C 65.5245 891.703 t 0 r /Helvetica findfont 22.8295 sf 0 0 m (0) show NC gr 
 gsave  408 305 23 677 C 37.0356 925.889 t 0 r /Helvetica findfont 22.8295 sf 0 0 m (0.01) show NC gr  390 723 m 229 Y s 385 737 m 5 X s 387 743 m 3 X s 387 750 m 3 X s 387 756 m 3 X s 387 763 m 3 X s 385 769 m 5 X s 387 776 m 3 X s 387 782 m 3 X s
 387 789 m 3 X s 387 795 m 3 X s 385 802 m 5 X s 387 808 m 3 X s 387 815 m 3 X s 387 821 m 3 X s 387 828 m 3 X s 385 834 m 5 X s 387 841 m 3 X s 387 847 m 3 X s 387 854 m 3 X s 387 860 m 3 X s 385 867 m 5 X s 387 873 m 3 X s 387 880 m 3 X s 387 886 m
 3 X s 387 893 m 3 X s 385 899 m 5 X s 387 906 m 3 X s 387 912 m 3 X s 387 919 m 3 X s 387 925 m 3 X s 385 932 m 5 X s 385 737 m 5 X s 387 730 m 3 X s 387 724 m 3 X s 385 932 m 5 X s 387 938 m 3 X s 387 945 m 3 X s 387 951 m 3 X s /w 22 def /w2 {w 2
 div} def /w3 {w 3 div} def 109 924 151 909 194 919 215 907 257 895 278 880 320 814 362 750 8 { m21} R 9 lw 0.95 0.95 0.95 c black 153 952 m 3 -1 d 3 -2 d 3 -2 d 3 -2 d 3 -2 d 3 -2 d 3 -2 d 3 -2 d 3 -2 d 3 -2 d 3 -2 d 4 -2 d 3 -2 d 3 -2 d 3 -2 d 3 -2
 d 3 -2 d 3 -2 d 3 -2 d 3 -2 d 3 -2 d 3 -2 d 3 -2 d 3 -2 d 3 -1 d 3 -2 d 3 -2 d 4 -2 d 3 -2 d 3 -2 d 3 -2 d 3 -2 d 3 -2 d 3 -2 d 3 -2 d 3 -2 d 3 -2 d 3 -2 d 3 -2 d 3 -2 d 3 -2 d 3 -2 d 3 -2 d 3 -2 d 4 -2 d 3 -2 d 3 -2 d 3 -2 d 3 -2 d s 303 856 m 3 -2
 d 3 -2 d 3 -2 d 3 -2 d 3 -2 d 3 -2 d 3 -2 d 3 -2 d 3 -2 d 3 -2 d 3 -2 d 4 -2 d 3 -2 d 3 -2 d 3 -2 d 3 -2 d 3 -1 d 3 -2 d 3 -2 d 3 -2 d 3 -2 d 3 -2 d 3 -2 d 3 -2 d 3 -2 d 3 -2 d 3 -2 d 4 -2 d s 0.49 0.6 0.82 c black 0.49 0.6 0.82 c
 gsave  408 305 23 677 C 142.445 960.076 t 0 r /Helvetica-Bold findfont 25.6831 sf 0 0 m (2.5 < E < 3.0 GeV) show NC gr  0.52 0.76 0.64 c black 0.52 0.76 0.64 c
 gsave  408 305 23 677 C 122.502 923.04 t 0 r /Helvetica-Bold findfont 25.6831 sf 0 0 m 
 228 214 200 193 178 171 156 149 134 126 119 105 91 77 69 55 47 40 25 17
(A = \2550.042, p = 1.000) K NC gr  1 0.6 1 c black 1 0.6 1 c
 gsave  408 305 23 677 C 427.334 783.445 t 90 r /Helvetica-Bold findfont 28.5368 sf 0 0 m (/dof=20.8) show NC gr  black 1 0.6 1 c
 gsave  408 305 23 677 C 415.938 772.049 t 90 r /Helvetica-Bold findfont 19.9758 sf 0 0 m (2) show NC gr  black 1 0.6 1 c
 gsave  408 305 23 677 C 427.334 754.956 t 90 r /Symbol findfont 28.5368 sf 0 0 m (c) show NC gr  black 3 lw 1 1 1 c 408 305 476 677 bf black 1 1 1 c black 307 229 537 723 bl 307 229 537 723 bl 537 723 m 307 X s 584 727 m -4 Y s 689 727 m -4 Y s 795
 727 m -4 Y s 584 727 m -4 Y s 795 727 m -4 Y s
 gsave  408 305 476 677 C 561.231 703.676 t 0 r /Helvetica findfont 22.8295 sf 0 0 m (\2550.5) show NC gr 
 gsave  408 305 476 677 C 678.036 703.676 t 0 r /Helvetica findfont 22.8295 sf 0 0 m (0) show NC gr 
 gsave  408 305 476 677 C 774.898 703.676 t 0 r /Helvetica findfont 22.8295 sf 0 0 m (0.5) show NC gr  537 952 m 307 X s 584 948 m 4 Y s 689 948 m 4 Y s 795 948 m 4 Y s 584 948 m 4 Y s 795 948 m 4 Y s 537 723 m 229 Y s 543 755 m -6 X s 540 762 m -3 X
 s 540 769 m -3 X s 540 776 m -3 X s 540 784 m -3 X s 543 791 m -6 X s 540 798 m -3 X s 540 805 m -3 X s 540 813 m -3 X s 540 820 m -3 X s 543 827 m -6 X s 540 834 m -3 X s 540 842 m -3 X s 540 849 m -3 X s 540 856 m -3 X s 543 863 m -6 X s 540 871 m
 -3 X s 540 878 m -3 X s 540 885 m -3 X s 540 892 m -3 X s 543 900 m -6 X s 540 907 m -3 X s 540 914 m -3 X s 540 921 m -3 X s 540 929 m -3 X s 543 936 m -6 X s 543 755 m -6 X s 540 747 m -3 X s 540 740 m -3 X s 540 733 m -3 X s 540 726 m -3 X s 543
 936 m -6 X s 540 943 m -3 X s 540 950 m -3 X s
 gsave  408 305 476 677 C 481.462 746.409 t 0 r /Helvetica findfont 22.8295 sf 0 0 m (\2550.04) show NC gr 
 gsave  408 305 476 677 C 481.462 783.445 t 0 r /Helvetica findfont 22.8295 sf 0 0 m (\2550.03) show NC gr 
 gsave  408 305 476 677 C 481.462 820.48 t 0 r /Helvetica findfont 22.8295 sf 0 0 m (\2550.02) show NC gr 
 gsave  408 305 476 677 C 484.311 857.516 t 0 r /Helvetica findfont 22.8295 sf 0 0 m (\2550.01) show NC gr 
 gsave  408 305 476 677 C 518.498 891.703 t 0 r /Helvetica findfont 22.8295 sf 0 0 m (0) show NC gr 
 gsave  408 305 476 677 C 490.009 928.738 t 0 r /Helvetica findfont 22.8295 sf 0 0 m (0.01) show NC gr  844 723 m 229 Y s 838 755 m 6 X s 841 762 m 3 X s 841 769 m 3 X s 841 776 m 3 X s 841 784 m 3 X s 838 791 m 6 X s 841 798 m 3 X s 841 805 m 3 X s
 841 813 m 3 X s 841 820 m 3 X s 838 827 m 6 X s 841 834 m 3 X s 841 842 m 3 X s 841 849 m 3 X s 841 856 m 3 X s 838 863 m 6 X s 841 871 m 3 X s 841 878 m 3 X s 841 885 m 3 X s 841 892 m 3 X s 838 900 m 6 X s 841 907 m 3 X s 841 914 m 3 X s 841 921 m
 3 X s 841 929 m 3 X s 838 936 m 6 X s 838 755 m 6 X s 841 747 m 3 X s 841 740 m 3 X s 841 733 m 3 X s 841 726 m 3 X s 838 936 m 6 X s 841 943 m 3 X s 841 950 m 3 X s /w 23 def /w2 {w 2 div} def /w3 {w 3 div} def 563 899 605 919 647 909 668 921 710
 901 731 868 774 809 816 753 8 { m21} R 563 910 m s 557 910 m 11 X s 563 888 m s 557 888 m 11 X s 605 930 m s 599 930 m 12 X s 605 907 m s 599 907 m 12 X s 647 920 m s 641 920 m 12 X s 647 898 m s 641 898 m 12 X s 668 933 m s 662 933 m 12 X s 668 910
 m s 662 910 m 12 X s 710 912 m s 705 912 m 11 X s 710 889 m s 705 889 m 11 X s 9 lw 0.95 0.95 0.95 c black 600 952 m 3 -1 d 3 -1 d 3 -2 d 3 -2 d 4 -2 d 3 -2 d 3 -2 d 3 -2 d 3 -1 d 3 -2 d 3 -2 d 3 -2 d 3 -2 d 3 -2 d 3 -1 d 3 -2 d 3 -2 d 3 -2 d 3 -2 d
 3 -2 d 3 -1 d 4 -2 d 3 -2 d 3 -2 d 3 -2 d 3 -2 d 3 -1 d 3 -2 d 3 -2 d 3 -2 d 3 -2 d 3 -2 d 3 -2 d 3 -1 d 3 -2 d 3 -2 d 3 -2 d 4 -2 d 3 -2 d 3 -1 d 3 -2 d 3 -2 d 3 -2 d 3 -2 d 3 -2 d 3 -1 d 3 -2 d 3 -2 d 3 -2 d s 750 863 m 3 -2 d 3 -2 d 3 -1 d 3 -2 d
 4 -2 d 3 -2 d 3 -2 d 3 -2 d 3 -2 d 3 -1 d 3 -2 d 3 -2 d 3 -2 d 3 -2 d 3 -2 d 3 -1 d 3 -2 d 3 -2 d 3 -2 d 3 -2 d 4 -2 d 3 -1 d 3 -2 d 3 -2 d 3 -2 d 3 -2 d 3 -2 d 3 -1 d 3 -2 d 3 -2 d s 0.49 0.6 0.82 c black 0.49 0.6 0.82 c
 gsave  408 305 476 677 C 595.418 960.076 t 0 r /Helvetica-Bold findfont 25.6831 sf 0 0 m (3.0 < E < 3.5 GeV) show NC gr  0.52 0.76 0.64 c black 0.52 0.76 0.64 c
 gsave  408 305 476 677 C 575.476 923.04 t 0 r /Helvetica-Bold findfont 25.6831 sf 0 0 m 
 228 214 200 193 178 171 156 149 133 126 119 105 91 77 69 55 47 39 25 17
(A = \2550.035, p = 1.000) K NC gr  1 0.6 1 c black 1 0.6 1 c
 gsave  408 305 476 677 C 883.156 783.445 t 90 r /Helvetica-Bold findfont 28.5368 sf 0 0 m (/dof=15.7) show NC gr  black 1 0.6 1 c
 gsave  408 305 476 677 C 871.76 772.049 t 90 r /Helvetica-Bold findfont 19.9758 sf 0 0 m (2) show NC gr  black 1 0.6 1 c
 gsave  408 305 476 677 C 883.156 754.956 t 90 r /Symbol findfont 28.5368 sf 0 0 m (c) show NC gr  black 3 lw 1 1 1 c 408 305 930 677 bf black 1 1 1 c black 306 229 991 723 bl 306 229 991 723 bl 991 723 m 306 X s 1037 727 m -4 Y s 1143 727 m -4 Y s
 1248 727 m -4 Y s 1037 727 m -4 Y s 1248 727 m -4 Y s
 gsave  408 305 930 677 C 1017.05 703.676 t 0 r /Helvetica findfont 22.8295 sf 0 0 m (\2550.5) show NC gr 
 gsave  408 305 930 677 C 1133.86 703.676 t 0 r /Helvetica findfont 22.8295 sf 0 0 m (0) show NC gr 
 gsave  408 305 930 677 C 1230.72 703.676 t 0 r /Helvetica findfont 22.8295 sf 0 0 m (0.5) show NC gr  991 952 m 306 X s 1037 948 m 4 Y s 1143 948 m 4 Y s 1248 948 m 4 Y s 1037 948 m 4 Y s 1248 948 m 4 Y s 991 723 m 229 Y s 997 740 m -6 X s 994 745 m
 -3 X s 994 750 m -3 X s 994 755 m -3 X s 994 760 m -3 X s 997 766 m -6 X s 994 771 m -3 X s 994 776 m -3 X s 994 781 m -3 X s 994 786 m -3 X s 997 791 m -6 X s 994 796 m -3 X s 994 801 m -3 X s 994 806 m -3 X s 994 811 m -3 X s 997 817 m -6 X s 994
 822 m -3 X s 994 827 m -3 X s 994 832 m -3 X s 994 837 m -3 X s 997 842 m -6 X s 994 847 m -3 X s 994 852 m -3 X s 994 857 m -3 X s 994 863 m -3 X s 997 868 m -6 X s 994 873 m -3 X s 994 878 m -3 X s 994 883 m -3 X s 994 888 m -3 X s 997 893 m -6 X
 s 994 898 m -3 X s 994 903 m -3 X s 994 908 m -3 X s 994 914 m -3 X s 997 919 m -6 X s 994 924 m -3 X s 994 929 m -3 X s 994 934 m -3 X s 994 939 m -3 X s 997 944 m -6 X s 997 740 m -6 X s 994 735 m -3 X s 994 730 m -3 X s 994 725 m -3 X s 997 944 m
 -6 X s 994 949 m -3 X s
 gsave  408 305 930 677 C 923.04 732.165 t 0 r /Helvetica findfont 22.8295 sf 0 0 m (\2550.035) show NC gr 
 gsave  408 305 930 677 C 937.285 757.805 t 0 r /Helvetica findfont 22.8295 sf 0 0 m (\2550.03) show NC gr 
 gsave  408 305 930 677 C 923.04 783.445 t 0 r /Helvetica findfont 22.8295 sf 0 0 m (\2550.025) show NC gr 
 gsave  408 305 930 677 C 937.285 809.085 t 0 r /Helvetica findfont 22.8295 sf 0 0 m (\2550.02) show NC gr 
 gsave  408 305 930 677 C 923.04 834.725 t 0 r /Helvetica findfont 22.8295 sf 0 0 m (\2550.015) show NC gr 
 gsave  408 305 930 677 C 940.134 860.365 t 0 r /Helvetica findfont 22.8295 sf 0 0 m (\2550.01) show NC gr 
 gsave  408 305 930 677 C 923.04 886.005 t 0 r /Helvetica findfont 22.8295 sf 0 0 m (\2550.005) show NC gr 
 gsave  408 305 930 677 C 974.32 911.645 t 0 r /Helvetica findfont 22.8295 sf 0 0 m (0) show NC gr 
 gsave  408 305 930 677 C 931.587 937.285 t 0 r /Helvetica findfont 22.8295 sf 0 0 m (0.005) show NC gr  1297 723 m 229 Y s 1292 740 m 5 X s 1294 745 m 3 X s 1294 750 m 3 X s 1294 755 m 3 X s 1294 760 m 3 X s 1292 766 m 5 X s 1294 771 m 3 X s 1294
 776 m 3 X s 1294 781 m 3 X s 1294 786 m 3 X s 1292 791 m 5 X s 1294 796 m 3 X s 1294 801 m 3 X s 1294 806 m 3 X s 1294 811 m 3 X s 1292 817 m 5 X s 1294 822 m 3 X s 1294 827 m 3 X s 1294 832 m 3 X s 1294 837 m 3 X s 1292 842 m 5 X s 1294 847 m 3 X s
 1294 852 m 3 X s 1294 857 m 3 X s 1294 863 m 3 X s 1292 868 m 5 X s 1294 873 m 3 X s 1294 878 m 3 X s 1294 883 m 3 X s 1294 888 m 3 X s 1292 893 m 5 X s 1294 898 m 3 X s 1294 903 m 3 X s 1294 908 m 3 X s 1294 914 m 3 X s 1292 919 m 5 X s 1294 924 m
 3 X s 1294 929 m 3 X s 1294 934 m 3 X s 1294 939 m 3 X s 1292 944 m 5 X s 1292 740 m 5 X s 1294 735 m 3 X s 1294 730 m 3 X s 1294 725 m 3 X s 1292 944 m 5 X s 1294 949 m 3 X s 1016 855 1058 899 1101 912 1122 903 1164 913 1185 893 1227 830 1269 762 8
 { m21} R 1016 866 m 9 Y s 1011 875 m 11 X s 1016 843 m -8 Y s 1011 835 m 11 X s 1058 911 m 8 Y s 1053 919 m 11 X s 1058 888 m -9 Y s 1053 879 m 11 X s 1101 923 m 9 Y s 1095 932 m 11 X s 1101 900 m -8 Y s 1095 892 m 11 X s 1122 914 m 9 Y s 1116 923 m
 11 X s 1122 891 m -8 Y s 1116 883 m 11 X s 1164 924 m 9 Y s 1158 933 m 12 X s 1164 901 m -8 Y s 1158 893 m 12 X s 1185 904 m 9 Y s 1179 913 m 12 X s 1185 881 m -8 Y s 1179 873 m 12 X s 1227 842 m 8 Y s 1221 850 m 12 X s 1227 819 m -9 Y s 1221 810 m
 12 X s 1269 773 m 9 Y s 1264 782 m 11 X s 1269 750 m -8 Y s 1264 742 m 11 X s 1 0 0 c 9 lw 0.95 0.95 0.95 c black 1 0 0 c 993 759 m 3 6 d 3 6 d 3 7 d 3 6 d 3 6 d 3 5 d 3 6 d 3 6 d 3 5 d 3 5 d 3 5 d 3 5 d 3 5 d 3 5 d 3 5 d 4 4 d 3 4 d 3 4 d 3 5 d 3 3
 d 3 4 d 3 4 d 3 3 d 3 4 d 3 3 d 3 3 d 3 3 d 3 3 d 3 3 d 3 2 d 3 3 d 3 2 d 4 2 d 3 3 d 3 1 d 3 2 d 3 2 d 3 1 d 3 2 d 3 1 d 3 1 d 3 1 d 3 1 d 3 1 d 3 1 d 6 X 3 1 d 4 X s 1143 919 m 3 X 3 -1 d 6 X 3 -1 d 3 -1 d 3 -1 d 3 -1 d 3 -1 d 3 -1 d 3 -1 d 3 -2 d
 3 -1 d 3 -2 d 3 -2 d 4 -2 d 3 -2 d 3 -3 d 3 -2 d 3 -3 d 3 -2 d 3 -3 d 3 -3 d 3 -3 d 3 -4 d 3 -3 d 3 -3 d 3 -4 d 3 -4 d 3 -4 d 3 -4 d 3 -4 d 4 -4 d 3 -5 d 3 -4 d 3 -5 d 3 -5 d 3 -5 d 3 -5 d 3 -5 d 3 -5 d 3 -6 d 3 -6 d 3 -5 d 3 -6 d 3 -6 d 3 -6 d 3 -7
 d 4 -6 d s 1293 760 m 3 -7 d s 0.49 0.6 0.82 c black 0.49 0.6 0.82 c
 gsave  408 305 930 677 C 1051.24 960.076 t 0 r /Helvetica-Bold findfont 25.6831 sf 0 0 m (3.5 < E < 4.0 GeV) show NC gr  0.52 0.76 0.64 c black 0.52 0.76 0.64 c
 gsave  408 305 930 677 C 1031.3 923.04 t 0 r /Helvetica-Bold findfont 25.6831 sf 0 0 m 
 228 214 200 193 178 171 156 149 134 126 119 105 91 77 69 55 47 39 25 17
(A = \2550.062, p = 2.000) K NC gr  1 0.6 1 c black 1 0.6 1 c
 gsave  408 305 930 677 C 1336.13 791.991 t 90 r /Helvetica-Bold findfont 28.5368 sf 0 0 m (/dof=2.5) show NC gr  black 1 0.6 1 c
 gsave  408 305 930 677 C 1324.73 780.596 t 90 r /Helvetica-Bold findfont 19.9758 sf 0 0 m (2) show NC gr  black 1 0.6 1 c
 gsave  408 305 930 677 C 1336.13 763.503 t 90 r /Symbol findfont 28.5368 sf 0 0 m (c) show NC gr  black 3 lw 1 1 1 c 408 305 1383 677 bf black 1 1 1 c black 306 229 1445 723 bl 306 229 1445 723 bl 1445 723 m 306 X s 1491 727 m -4 Y s 1596 727 m -4 Y
 s 1702 727 m -4 Y s 1491 727 m -4 Y s 1702 727 m -4 Y s
 gsave  408 305 1383 677 C 1470.03 703.676 t 0 r /Helvetica findfont 22.8295 sf 0 0 m (\2550.5) show NC gr 
 gsave  408 305 1383 677 C 1586.83 703.676 t 0 r /Helvetica findfont 22.8295 sf 0 0 m (0) show NC gr 
 gsave  408 305 1383 677 C 1683.69 703.676 t 0 r /Helvetica findfont 22.8295 sf 0 0 m (0.5) show NC gr  1445 952 m 306 X s 1491 948 m 4 Y s 1596 948 m 4 Y s 1702 948 m 4 Y s 1491 948 m 4 Y s 1702 948 m 4 Y s 1445 723 m 229 Y s 1450 739 m -5 X s 1447
 746 m -2 X s 1447 752 m -2 X s 1447 758 m -2 X s 1447 764 m -2 X s 1450 771 m -5 X s 1447 777 m -2 X s 1447 783 m -2 X s 1447 790 m -2 X s 1447 796 m -2 X s 1450 802 m -5 X s 1447 808 m -2 X s 1447 815 m -2 X s 1447 821 m -2 X s 1447 827 m -2 X s
 1450 833 m -5 X s 1447 840 m -2 X s 1447 846 m -2 X s 1447 852 m -2 X s 1447 859 m -2 X s 1450 865 m -5 X s 1447 871 m -2 X s 1447 877 m -2 X s 1447 884 m -2 X s 1447 890 m -2 X s 1450 896 m -5 X s 1447 903 m -2 X s 1447 909 m -2 X s 1447 915 m -2 X
 s 1447 921 m -2 X s 1450 928 m -5 X s 1450 739 m -5 X s 1447 733 m -2 X s 1447 727 m -2 X s 1450 928 m -5 X s 1447 934 m -2 X s 1447 940 m -2 X s 1447 946 m -2 X s
 gsave  408 305 1383 677 C 1376.01 732.165 t 0 r /Helvetica findfont 22.8295 sf 0 0 m (\2550.025) show NC gr 
 gsave  408 305 1383 677 C 1390.26 763.503 t 0 r /Helvetica findfont 22.8295 sf 0 0 m (\2550.02) show NC gr 
 gsave  408 305 1383 677 C 1376.01 794.84 t 0 r /Helvetica findfont 22.8295 sf 0 0 m (\2550.015) show NC gr 
 gsave  408 305 1383 677 C 1393.11 826.178 t 0 r /Helvetica findfont 22.8295 sf 0 0 m (\2550.01) show NC gr 
 gsave  408 305 1383 677 C 1376.01 857.516 t 0 r /Helvetica findfont 22.8295 sf 0 0 m (\2550.005) show NC gr 
 gsave  408 305 1383 677 C 1427.29 888.854 t 0 r /Helvetica findfont 22.8295 sf 0 0 m (0) show NC gr 
 gsave  408 305 1383 677 C 1384.56 920.192 t 0 r /Helvetica findfont 22.8295 sf 0 0 m (0.005) show NC gr  1751 723 m 229 Y s 1745 739 m 6 X s 1748 746 m 3 X s 1748 752 m 3 X s 1748 758 m 3 X s 1748 764 m 3 X s 1745 771 m 6 X s 1748 777 m 3 X s 1748
 783 m 3 X s 1748 790 m 3 X s 1748 796 m 3 X s 1745 802 m 6 X s 1748 808 m 3 X s 1748 815 m 3 X s 1748 821 m 3 X s 1748 827 m 3 X s 1745 833 m 6 X s 1748 840 m 3 X s 1748 846 m 3 X s 1748 852 m 3 X s 1748 859 m 3 X s 1745 865 m 6 X s 1748 871 m 3 X s
 1748 877 m 3 X s 1748 884 m 3 X s 1748 890 m 3 X s 1745 896 m 6 X s 1748 903 m 3 X s 1748 909 m 3 X s 1748 915 m 3 X s 1748 921 m 3 X s 1745 928 m 6 X s 1745 739 m 6 X s 1748 733 m 3 X s 1748 727 m 3 X s 1745 928 m 6 X s 1748 934 m 3 X s 1748 940 m
 3 X s 1748 946 m 3 X s 1470 775 1512 777 1554 815 1575 887 1617 885 1639 899 1681 864 1723 827 8 { m21} R 1470 787 m 22 Y s 1464 809 m 12 X s 1470 764 m -22 Y s 1464 742 m 12 X s 1512 788 m 22 Y s 1506 810 m 12 X s 1512 765 m -22 Y s 1506 743 m 12 X
 s 1554 827 m 22 Y s 1548 849 m 12 X s 1554 804 m -22 Y s 1548 782 m 12 X s 1575 899 m 22 Y s 1570 921 m 11 X s 1575 876 m -22 Y s 1570 854 m 11 X s 1617 897 m 22 Y s 1612 919 m 11 X s 1617 874 m -22 Y s 1612 852 m 11 X s 1639 910 m 23 Y s 1633 933 m
 11 X s 1639 888 m -23 Y s 1633 865 m 11 X s 1681 875 m 22 Y s 1675 897 m 11 X s 1681 852 m -22 Y s 1675 830 m 11 X s 1723 839 m 22 Y s 1717 861 m 12 X s 1723 816 m -22 Y s 1717 794 m 12 X s 1 0 0 c 9 lw 0.95 0.95 0.95 c black 1 0 0 c 1446 741 m 3 6
 d 3 6 d 3 6 d 3 6 d 3 6 d 3 5 d 3 6 d 4 5 d 3 6 d 3 5 d 3 5 d 3 4 d 3 5 d 3 5 d 3 4 d 3 5 d 3 4 d 3 4 d 3 4 d 3 4 d 3 3 d 3 4 d 3 3 d 4 4 d 3 3 d 3 3 d 3 3 d 3 3 d 3 2 d 3 3 d 3 2 d 3 2 d 3 3 d 3 2 d 3 1 d 3 2 d 3 2 d 3 1 d 3 2 d 4 1 d 3 1 d 3 1 d 3
 1 d 3 1 d 3 X 3 1 d 9 X s 1596 896 m 9 X 3 -1 d 3 X 3 -1 d 4 -1 d 3 -1 d 3 -1 d 3 -1 d 3 -1 d 3 -2 d 3 -2 d 3 -1 d 3 -2 d 3 -2 d 3 -2 d 3 -2 d 3 -3 d 3 -2 d 3 -3 d 3 -3 d 3 -3 d 4 -3 d 3 -3 d 3 -3 d 3 -4 d 3 -3 d 3 -4 d 3 -4 d 3 -3 d 3 -4 d 3 -5 d 3
 -4 d 3 -4 d 3 -5 d 3 -5 d 3 -5 d 3 -5 d 4 -5 d 3 -5 d 3 -5 d 3 -6 d 3 -5 d 3 -6 d 3 -6 d 3 -6 d 3 -6 d 3 -6 d s 1746 742 m 3 -7 d s 0.49 0.6 0.82 c black 0.49 0.6 0.82 c
 gsave  408 305 1383 677 C 1504.21 960.076 t 0 r /Helvetica-Bold findfont 25.6831 sf 0 0 m (4.0 < E < 4.5 GeV) show NC gr  0.52 0.76 0.64 c black 0.52 0.76 0.64 c
 gsave  408 305 1383 677 C 1484.27 923.04 t 0 r /Helvetica-Bold findfont 25.6831 sf 0 0 m 
 228 214 200 193 178 171 156 149 133 126 119 105 91 76 69 55 47 39 25 17
(A = \2550.049, p = 2.000) K NC gr  1 0.6 1 c black 1 0.6 1 c
 gsave  408 305 1383 677 C 1789.1 791.991 t 90 r /Helvetica-Bold findfont 28.5368 sf 0 0 m (/dof=1.5) show NC gr  black 1 0.6 1 c
 gsave  408 305 1383 677 C 1777.71 780.596 t 90 r /Helvetica-Bold findfont 19.9758 sf 0 0 m (2) show NC gr  black 1 0.6 1 c
 gsave  408 305 1383 677 C 1789.1 763.503 t 90 r /Symbol findfont 28.5368 sf 0 0 m (c) show NC gr  black 3 lw 1 1 1 c 408 305 1837 677 bf black 1 1 1 c black 306 229 1898 723 bl 306 229 1898 723 bl 1898 723 m 306 X s 1944 727 m -4 Y s 2050 727 m -4 Y
 s 2155 727 m -4 Y s 1944 727 m -4 Y s 2155 727 m -4 Y s
 gsave  408 305 1837 677 C 1923 703.676 t 0 r /Helvetica findfont 22.8295 sf 0 0 m (\2550.5) show NC gr 
 gsave  408 305 1837 677 C 2039.81 703.676 t 0 r /Helvetica findfont 22.8295 sf 0 0 m (0) show NC gr 
 gsave  408 305 1837 677 C 2136.67 703.676 t 0 r /Helvetica findfont 22.8295 sf 0 0 m (0.5) show NC gr  1898 952 m 306 X s 1944 948 m 4 Y s 2050 948 m 4 Y s 2155 948 m 4 Y s 1944 948 m 4 Y s 2155 948 m 4 Y s 1898 723 m 229 Y s 1904 741 m -6 X s 1901
 746 m -3 X s 1901 752 m -3 X s 1901 758 m -3 X s 1901 763 m -3 X s 1904 769 m -6 X s 1901 775 m -3 X s 1901 780 m -3 X s 1901 786 m -3 X s 1901 792 m -3 X s 1904 798 m -6 X s 1901 803 m -3 X s 1901 809 m -3 X s 1901 815 m -3 X s 1901 820 m -3 X s
 1904 826 m -6 X s 1901 832 m -3 X s 1901 837 m -3 X s 1901 843 m -3 X s 1901 849 m -3 X s 1904 855 m -6 X s 1901 860 m -3 X s 1901 866 m -3 X s 1901 872 m -3 X s 1901 877 m -3 X s 1904 883 m -6 X s 1901 889 m -3 X s 1901 894 m -3 X s 1901 900 m -3 X
 s 1901 906 m -3 X s 1904 912 m -6 X s 1901 917 m -3 X s 1901 923 m -3 X s 1901 929 m -3 X s 1901 934 m -3 X s 1904 940 m -6 X s 1904 741 m -6 X s 1901 735 m -3 X s 1901 729 m -3 X s 1901 723 m -3 X s 1904 940 m -6 X s 1901 946 m -3 X s 1901 952 m -3
 X s
 gsave  408 305 1837 677 C 1843.23 732.165 t 0 r /Helvetica findfont 22.8295 sf 0 0 m (\2550.04) show NC gr 
 gsave  408 305 1837 677 C 1843.23 760.654 t 0 r /Helvetica findfont 22.8295 sf 0 0 m (\2550.03) show NC gr 
 gsave  408 305 1837 677 C 1843.23 789.143 t 0 r /Helvetica findfont 22.8295 sf 0 0 m (\2550.02) show NC gr 
 gsave  408 305 1837 677 C 1846.08 817.631 t 0 r /Helvetica findfont 22.8295 sf 0 0 m (\2550.01) show NC gr 
 gsave  408 305 1837 677 C 1880.27 846.12 t 0 r /Helvetica findfont 22.8295 sf 0 0 m (0) show NC gr 
 gsave  408 305 1837 677 C 1851.78 874.609 t 0 r /Helvetica findfont 22.8295 sf 0 0 m (0.01) show NC gr 
 gsave  408 305 1837 677 C 1848.93 903.098 t 0 r /Helvetica findfont 22.8295 sf 0 0 m (0.02) show NC gr 
 gsave  408 305 1837 677 C 1848.93 931.587 t 0 r /Helvetica findfont 22.8295 sf 0 0 m (0.03) show NC gr  2204 723 m 229 Y s 2199 741 m 5 X s 2201 746 m 3 X s 2201 752 m 3 X s 2201 758 m 3 X s 2201 763 m 3 X s 2199 769 m 5 X s 2201 775 m 3 X s 2201
 780 m 3 X s 2201 786 m 3 X s 2201 792 m 3 X s 2199 798 m 5 X s 2201 803 m 3 X s 2201 809 m 3 X s 2201 815 m 3 X s 2201 820 m 3 X s 2199 826 m 5 X s 2201 832 m 3 X s 2201 837 m 3 X s 2201 843 m 3 X s 2201 849 m 3 X s 2199 855 m 5 X s 2201 860 m 3 X s
 2201 866 m 3 X s 2201 872 m 3 X s 2201 877 m 3 X s 2199 883 m 5 X s 2201 889 m 3 X s 2201 894 m 3 X s 2201 900 m 3 X s 2201 906 m 3 X s 2199 912 m 5 X s 2201 917 m 3 X s 2201 923 m 3 X s 2201 929 m 3 X s 2201 934 m 3 X s 2199 940 m 5 X s 2199 741 m
 5 X s 2201 735 m 3 X s 2201 729 m 3 X s 2201 723 m 3 X s 2199 940 m 5 X s 2201 946 m 3 X s 2201 952 m 3 X s 1923 763 1966 766 2008 845 2029 844 2071 911 2092 907 2134 910 2176 911 8 { m21} R 1923 774 m 10 Y s 1918 784 m 11 X s 1923 751 m -9 Y s 1918
 742 m 11 X s 1966 777 m 10 Y s 1960 787 m 11 X s 1966 755 m -10 Y s 1960 745 m 11 X s 2008 856 m 10 Y s 2002 866 m 11 X s 2008 834 m -10 Y s 2002 824 m 11 X s 2029 855 m 10 Y s 2023 865 m 11 X s 2029 832 m -9 Y s 2023 823 m 11 X s 2071 922 m 11 Y s
 2065 933 m 12 X s 2071 900 m -11 Y s 2065 889 m 12 X s 2092 919 m 10 Y s 2086 929 m 12 X s 2092 896 m -10 Y s 2086 886 m 12 X s 2134 921 m 10 Y s 2129 931 m 11 X s 2134 898 m -10 Y s 2129 888 m 11 X s 2176 922 m 10 Y s 2171 932 m 11 X s 2176 900 m
 -10 Y s 2171 890 m 11 X s 9 lw 0.95 0.95 0.95 c black 1900 751 m 3 2 d 3 2 d 3 2 d 3 2 d 3 2 d 3 2 d 3 2 d 3 3 d 3 2 d 3 2 d 3 2 d 3 2 d 3 2 d 3 2 d 4 2 d 3 3 d 3 2 d 3 2 d 3 2 d 3 2 d 3 2 d 3 2 d 3 2 d 3 2 d 3 3 d 3 2 d 3 2 d 3 2 d 3 2 d 3 2 d 4 2
 d 3 2 d 3 3 d 3 2 d 3 2 d 3 2 d 3 2 d 3 2 d 3 2 d 3 2 d 3 2 d 3 3 d 3 2 d 3 2 d 3 2 d 3 2 d 3 2 d 4 2 d 3 2 d s 2050 854 m 3 3 d 3 2 d 3 2 d 3 2 d 3 2 d 3 2 d 3 2 d 3 2 d 3 2 d 3 3 d 3 2 d 3 2 d 3 2 d 3 2 d 4 2 d 3 2 d 3 2 d 3 3 d 3 2 d 3 2 d 3 2 d
 3 2 d 3 2 d 3 2 d 3 2 d 3 2 d 3 3 d 3 2 d 3 2 d 3 2 d 4 2 d 3 2 d 3 2 d 3 2 d 3 3 d 3 2 d 3 2 d 3 2 d 3 2 d 3 2 d 3 2 d 3 2 d 3 2 d 3 3 d 3 2 d 3 2 d 4 X s 0.49 0.6 0.82 c black 0.49 0.6 0.82 c
 gsave  408 305 1837 677 C 1957.19 960.076 t 0 r /Helvetica-Bold findfont 25.6831 sf 0 0 m (4.5 < E < 5.0 GeV) show NC gr  0.52 0.76 0.64 c black 0.52 0.76 0.64 c
 gsave  408 305 1837 677 C 1942.94 923.04 t 0 r /Helvetica-Bold findfont 25.6831 sf 0 0 m 
 220 206 192 185 170 163 148 141 126 118 111 97 83 69 61 47 40 25 18
(A = 0.051, p = 1.000) K NC gr  1 0.6 1 c black 1 0.6 1 c
 gsave  408 305 1837 677 C 2242.08 791.991 t 90 r /Helvetica-Bold findfont 28.5368 sf 0 0 m (/dof=1.5) show NC gr  black 1 0.6 1 c
 gsave  408 305 1837 677 C 2230.68 780.596 t 90 r /Helvetica-Bold findfont 19.9758 sf 0 0 m (2) show NC gr  black 1 0.6 1 c
 gsave  408 305 1837 677 C 2242.08 763.503 t 90 r /Symbol findfont 28.5368 sf 0 0 m (c) show NC gr  black 3 lw 1 1 1 c 408 306 23 345 bf black 1 1 1 c black 306 229 84 391 bl 306 229 84 391 bl 84 391 m 306 X s 130 395 m -4 Y s 236 395 m -4 Y s 341
 395 m -4 Y s 130 395 m -4 Y s 341 395 m -4 Y s
 gsave  408 306 23 345 C 108.258 370.356 t 0 r /Helvetica findfont 22.8295 sf 0 0 m (\2550.5) show NC gr 
 gsave  408 306 23 345 C 225.062 370.356 t 0 r /Helvetica findfont 22.8295 sf 0 0 m (0) show NC gr 
 gsave  408 306 23 345 C 321.925 370.356 t 0 r /Helvetica findfont 22.8295 sf 0 0 m (0.5) show NC gr  84 620 m 306 X s 130 616 m 4 Y s 236 616 m 4 Y s 341 616 m 4 Y s 130 616 m 4 Y s 341 616 m 4 Y s 84 391 m 229 Y s 89 399 m -5 X s 87 409 m -3 X s 87
 418 m -3 X s 87 427 m -3 X s 89 437 m -5 X s 87 446 m -3 X s 87 455 m -3 X s 87 465 m -3 X s 89 474 m -5 X s 87 483 m -3 X s 87 493 m -3 X s 87 502 m -3 X s 89 511 m -5 X s 87 520 m -3 X s 87 530 m -3 X s 87 539 m -3 X s 89 548 m -5 X s 87 558 m -3
 X s 87 567 m -3 X s 87 576 m -3 X s 89 586 m -5 X s 89 399 m -5 X s 89 586 m -5 X s 87 595 m -3 X s 87 604 m -3 X s 87 614 m -3 X s
 gsave  408 306 23 345 C 28.4889 393.147 t 0 r /Helvetica findfont 22.8295 sf 0 0 m (\2550.06) show NC gr 
 gsave  408 306 23 345 C 28.4889 430.182 t 0 r /Helvetica findfont 22.8295 sf 0 0 m (\2550.04) show NC gr 
 gsave  408 306 23 345 C 28.4889 467.218 t 0 r /Helvetica findfont 22.8295 sf 0 0 m (\2550.02) show NC gr 
 gsave  408 306 23 345 C 65.5245 504.254 t 0 r /Helvetica findfont 22.8295 sf 0 0 m (0) show NC gr 
 gsave  408 306 23 345 C 34.1867 541.289 t 0 r /Helvetica findfont 22.8295 sf 0 0 m (0.02) show NC gr 
 gsave  408 306 23 345 C 34.1867 578.325 t 0 r /Helvetica findfont 22.8295 sf 0 0 m (0.04) show NC gr  390 391 m 229 Y s 385 399 m 5 X s 387 409 m 3 X s 387 418 m 3 X s 387 427 m 3 X s 385 437 m 5 X s 387 446 m 3 X s 387 455 m 3 X s 387 465 m 3 X s
 385 474 m 5 X s 387 483 m 3 X s 387 493 m 3 X s 387 502 m 3 X s 385 511 m 5 X s 387 520 m 3 X s 387 530 m 3 X s 387 539 m 3 X s 385 548 m 5 X s 387 558 m 3 X s 387 567 m 3 X s 387 576 m 3 X s 385 586 m 5 X s 385 399 m 5 X s 385 586 m 5 X s 387 595 m
 3 X s 387 604 m 3 X s 387 614 m 3 X s /w 22 def /w2 {w 2 div} def /w3 {w 3 div} def 109 428 151 436 194 495 215 490 257 544 278 532 320 536 362 582 8 { m21} R 109 439 m 7 Y s 104 446 m 11 X s 109 417 m -7 Y s 104 410 m 11 X s 151 447 m 7 Y s 146 454
 m 11 X s 151 425 m -7 Y s 146 418 m 11 X s 194 506 m 7 Y s 188 513 m 11 X s 194 484 m -7 Y s 188 477 m 11 X s 215 502 m 6 Y s 209 508 m 11 X s 215 479 m -7 Y s 209 472 m 11 X s 257 555 m 7 Y s 251 562 m 11 X s 257 533 m -7 Y s 251 526 m 11 X s 278
 543 m 7 Y s 272 550 m 12 X s 278 521 m -7 Y s 272 514 m 12 X s 320 547 m 7 Y s 314 554 m 12 X s 320 524 m -7 Y s 314 517 m 12 X s 362 594 m 7 Y s 357 601 m 11 X s 362 571 m -8 Y s 357 563 m 11 X s 9 lw 0.95 0.95 0.95 c black 85 420 m 3 2 d 4 2 d 3 1
 d 3 2 d 3 2 d 3 2 d 3 2 d 3 2 d 3 2 d 3 2 d 3 1 d 3 2 d 3 2 d 3 2 d 3 2 d 3 2 d 3 2 d 4 1 d 3 2 d 3 2 d 3 2 d 3 2 d 3 2 d 3 2 d 3 1 d 3 2 d 3 2 d 3 2 d 3 2 d 3 2 d 3 2 d 3 1 d 3 2 d 4 2 d 3 2 d 3 2 d 3 2 d 3 2 d 3 1 d 3 2 d 3 2 d 3 2 d 3 2 d 3 2 d 3
 2 d 3 1 d 3 2 d 3 2 d 3 2 d s 235 511 m 4 2 d 3 2 d 3 2 d 3 1 d 3 2 d 3 2 d 3 2 d 3 2 d 3 2 d 3 2 d 3 1 d 3 2 d 3 2 d 3 2 d 3 2 d 3 2 d 3 2 d 4 1 d 3 2 d 3 2 d 3 2 d 3 2 d 3 2 d 3 2 d 3 1 d 3 2 d 3 2 d 3 2 d 3 2 d 3 2 d 3 2 d 3 2 d 3 1 d 4 2 d 3 2 d
 3 2 d 3 2 d 3 2 d 3 2 d 3 1 d 3 2 d 3 2 d 3 2 d 3 2 d 3 2 d 3 2 d 3 1 d 3 2 d 3 2 d s 385 602 m 4 2 d s 0.49 0.6 0.82 c black 0.49 0.6 0.82 c
 gsave  408 306 23 345 C 142.445 629.605 t 0 r /Helvetica-Bold findfont 25.6831 sf 0 0 m (5.0 < E < 5.5 GeV) show NC gr  0.52 0.76 0.64 c black 0.52 0.76 0.64 c
 gsave  408 306 23 345 C 128.2 592.569 t 0 r /Helvetica-Bold findfont 25.6831 sf 0 0 m 
 220 206 192 185 170 163 148 141 126 118 111 97 83 69 61 47 40 25 18
(A = 0.069, p = 1.000) K NC gr  1 0.6 1 c black 1 0.6 1 c
 gsave  408 306 23 345 C 427.334 458.671 t 90 r /Helvetica-Bold findfont 28.5368 sf 0 0 m (/dof=0.8) show NC gr  black 1 0.6 1 c
 gsave  408 306 23 345 C 415.938 447.276 t 90 r /Helvetica-Bold findfont 19.9758 sf 0 0 m (2) show NC gr  black 1 0.6 1 c
 gsave  408 306 23 345 C 427.334 430.182 t 90 r /Symbol findfont 28.5368 sf 0 0 m (c) show NC gr  black 3 lw 1 1 1 c 408 306 476 345 bf black 1 1 1 c black 307 229 537 391 bl 307 229 537 391 bl 537 391 m 307 X s 584 395 m -4 Y s 689 395 m -4 Y s 795
 395 m -4 Y s 584 395 m -4 Y s 795 395 m -4 Y s
 gsave  408 306 476 345 C 561.231 370.356 t 0 r /Helvetica findfont 22.8295 sf 0 0 m (\2550.5) show NC gr 
 gsave  408 306 476 345 C 678.036 370.356 t 0 r /Helvetica findfont 22.8295 sf 0 0 m (0) show NC gr 
 gsave  408 306 476 345 C 774.898 370.356 t 0 r /Helvetica findfont 22.8295 sf 0 0 m (0.5) show NC gr  537 620 m 307 X s 584 616 m 4 Y s 689 616 m 4 Y s 795 616 m 4 Y s 584 616 m 4 Y s 795 616 m 4 Y s 537 391 m 229 Y s 543 415 m -6 X s 540 426 m -3 X
 s 540 436 m -3 X s 540 446 m -3 X s 543 457 m -6 X s 540 467 m -3 X s 540 477 m -3 X s 540 488 m -3 X s 543 498 m -6 X s 540 508 m -3 X s 540 519 m -3 X s 540 529 m -3 X s 543 539 m -6 X s 540 550 m -3 X s 540 560 m -3 X s 540 570 m -3 X s 543 581 m
 -6 X s 543 415 m -6 X s 540 405 m -3 X s 540 395 m -3 X s 543 581 m -6 X s 540 591 m -3 X s 540 601 m -3 X s 540 612 m -3 X s
 gsave  408 306 476 345 C 481.462 407.391 t 0 r /Helvetica findfont 22.8295 sf 0 0 m (\2550.04) show NC gr 
 gsave  408 306 476 345 C 481.462 450.125 t 0 r /Helvetica findfont 22.8295 sf 0 0 m (\2550.02) show NC gr 
 gsave  408 306 476 345 C 518.498 490.009 t 0 r /Helvetica findfont 22.8295 sf 0 0 m (0) show NC gr 
 gsave  408 306 476 345 C 487.16 532.742 t 0 r /Helvetica findfont 22.8295 sf 0 0 m (0.02) show NC gr 
 gsave  408 306 476 345 C 487.16 572.627 t 0 r /Helvetica findfont 22.8295 sf 0 0 m (0.04) show NC gr  844 391 m 229 Y s 838 415 m 6 X s 841 426 m 3 X s 841 436 m 3 X s 841 446 m 3 X s 838 457 m 6 X s 841 467 m 3 X s 841 477 m 3 X s 841 488 m 3 X s
 838 498 m 6 X s 841 508 m 3 X s 841 519 m 3 X s 841 529 m 3 X s 838 539 m 6 X s 841 550 m 3 X s 841 560 m 3 X s 841 570 m 3 X s 838 581 m 6 X s 838 415 m 6 X s 841 405 m 3 X s 841 395 m 3 X s 838 581 m 6 X s 841 591 m 3 X s 841 601 m 3 X s 841 612 m
 3 X s /w 23 def /w2 {w 2 div} def /w3 {w 3 div} def 563 435 605 451 647 439 668 467 710 478 731 573 774 523 816 575 8 { m21} R 563 446 m 14 Y s 557 460 m 11 X s 563 424 m -14 Y s 557 410 m 11 X s 605 463 m 13 Y s 599 476 m 12 X s 605 440 m -14 Y s
 599 426 m 12 X s 647 450 m 14 Y s 641 464 m 12 X s 647 427 m -13 Y s 641 414 m 12 X s 668 479 m 14 Y s 662 493 m 12 X s 668 456 m -14 Y s 662 442 m 12 X s 710 489 m 14 Y s 705 503 m 11 X s 710 467 m -14 Y s 705 453 m 11 X s 731 585 m 15 Y s 726 600
 m 11 X s 731 562 m -15 Y s 726 547 m 11 X s 774 534 m 14 Y s 768 548 m 11 X s 774 511 m -14 Y s 768 497 m 11 X s 816 586 m 15 Y s 810 601 m 11 X s 816 563 m -14 Y s 810 549 m 11 X s 9 lw 0.95 0.95 0.95 c black 539 411 m 3 1 d 3 2 d 3 2 d 3 2 d 3 1 d
 3 2 d 3 2 d 3 2 d 4 2 d 3 1 d 3 2 d 3 2 d 3 2 d 3 2 d 3 1 d 3 2 d 3 2 d 3 2 d 3 1 d 3 2 d 3 2 d 3 2 d 3 2 d 3 1 d 4 2 d 3 2 d 3 2 d 3 1 d 3 2 d 3 2 d 3 2 d 3 2 d 3 1 d 3 2 d 3 2 d 3 2 d 3 2 d 3 1 d 3 2 d 3 2 d 3 2 d 4 1 d 3 2 d 3 2 d 3 2 d 3 2 d 3 1
 d 3 2 d 3 2 d s 689 498 m 3 2 d 3 1 d 3 2 d 3 2 d 3 2 d 3 2 d 3 1 d 3 2 d 4 2 d 3 2 d 3 1 d 3 2 d 3 2 d 3 2 d 3 2 d 3 1 d 3 2 d 3 2 d 3 2 d 3 2 d 3 1 d 3 2 d 3 2 d 3 2 d 4 1 d 3 2 d 3 2 d 3 2 d 3 2 d 3 1 d 3 2 d 3 2 d 3 2 d 3 1 d 3 2 d 3 2 d 3 2 d 3
 2 d 3 1 d 3 2 d 4 2 d 3 2 d 3 2 d 3 1 d 3 2 d 3 2 d 3 2 d 3 1 d 3 2 d s 839 585 m 3 2 d s 0.49 0.6 0.82 c black 0.49 0.6 0.82 c
 gsave  408 306 476 345 C 595.418 629.605 t 0 r /Helvetica-Bold findfont 25.6831 sf 0 0 m (5.5 < E < 6.0 GeV) show NC gr  0.52 0.76 0.64 c black 0.52 0.76 0.64 c
 gsave  408 306 476 345 C 581.174 592.569 t 0 r /Helvetica-Bold findfont 25.6831 sf 0 0 m 
 220 206 192 185 170 163 148 141 125 118 111 97 83 69 61 47 40 25 18
(A = 0.059, p = 1.000) K NC gr  1 0.6 1 c black 1 0.6 1 c
 gsave  408 306 476 345 C 883.156 458.671 t 90 r /Helvetica-Bold findfont 28.5368 sf 0 0 m (/dof=1.3) show NC gr  black 1 0.6 1 c
 gsave  408 306 476 345 C 871.76 447.276 t 90 r /Helvetica-Bold findfont 19.9758 sf 0 0 m (2) show NC gr  black 1 0.6 1 c
 gsave  408 306 476 345 C 883.156 430.182 t 90 r /Symbol findfont 28.5368 sf 0 0 m (c) show NC gr  black 3 lw 1 1 1 c 408 306 930 345 bf black 1 1 1 c black 306 229 991 391 bl 306 229 991 391 bl 991 391 m 306 X s 1037 395 m -4 Y s 1143 395 m -4 Y s
 1248 395 m -4 Y s 1037 395 m -4 Y s 1248 395 m -4 Y s
 gsave  408 306 930 345 C 1017.05 370.356 t 0 r /Helvetica findfont 22.8295 sf 0 0 m (\2550.5) show NC gr 
 gsave  408 306 930 345 C 1133.86 370.356 t 0 r /Helvetica findfont 22.8295 sf 0 0 m (0) show NC gr 
 gsave  408 306 930 345 C 1230.72 370.356 t 0 r /Helvetica findfont 22.8295 sf 0 0 m (0.5) show NC gr  991 620 m 306 X s 1037 616 m 4 Y s 1143 616 m 4 Y s 1248 616 m 4 Y s 1037 616 m 4 Y s 1248 616 m 4 Y s 991 391 m 229 Y s 997 395 m -6 X s 994 404 m
 -3 X s 994 413 m -3 X s 994 423 m -3 X s 997 432 m -6 X s 994 442 m -3 X s 994 451 m -3 X s 994 460 m -3 X s 997 470 m -6 X s 994 479 m -3 X s 994 489 m -3 X s 994 498 m -3 X s 997 507 m -6 X s 994 517 m -3 X s 994 526 m -3 X s 994 536 m -3 X s 997
 545 m -6 X s 994 555 m -3 X s 994 564 m -3 X s 994 573 m -3 X s 997 583 m -6 X s 997 395 m -6 X s 997 583 m -6 X s 994 592 m -3 X s 994 602 m -3 X s 994 611 m -3 X s
 gsave  408 306 930 345 C 937.285 387.449 t 0 r /Helvetica findfont 22.8295 sf 0 0 m (\2550.06) show NC gr 
 gsave  408 306 930 345 C 937.285 424.485 t 0 r /Helvetica findfont 22.8295 sf 0 0 m (\2550.04) show NC gr 
 gsave  408 306 930 345 C 937.285 461.52 t 0 r /Helvetica findfont 22.8295 sf 0 0 m (\2550.02) show NC gr 
 gsave  408 306 930 345 C 974.32 501.405 t 0 r /Helvetica findfont 22.8295 sf 0 0 m (0) show NC gr 
 gsave  408 306 930 345 C 942.983 538.44 t 0 r /Helvetica findfont 22.8295 sf 0 0 m (0.02) show NC gr 
 gsave  408 306 930 345 C 942.983 575.476 t 0 r /Helvetica findfont 22.8295 sf 0 0 m (0.04) show NC gr  1297 391 m 229 Y s 1292 395 m 5 X s 1294 404 m 3 X s 1294 413 m 3 X s 1294 423 m 3 X s 1292 432 m 5 X s 1294 442 m 3 X s 1294 451 m 3 X s 1294 460
 m 3 X s 1292 470 m 5 X s 1294 479 m 3 X s 1294 489 m 3 X s 1294 498 m 3 X s 1292 507 m 5 X s 1294 517 m 3 X s 1294 526 m 3 X s 1294 536 m 3 X s 1292 545 m 5 X s 1294 555 m 3 X s 1294 564 m 3 X s 1294 573 m 3 X s 1292 583 m 5 X s 1292 395 m 5 X s
 1292 583 m 5 X s 1294 592 m 3 X s 1294 602 m 3 X s 1294 611 m 3 X s 1016 437 1058 447 1101 465 1122 490 1164 506 1185 528 1227 573 1269 543 8 { m21} R 1016 448 m 16 Y s 1011 464 m 11 X s 1016 426 m -16 Y s 1011 410 m 11 X s 1058 459 m 15 Y s 1053
 474 m 11 X s 1058 436 m -16 Y s 1053 420 m 11 X s 1101 476 m 16 Y s 1095 492 m 11 X s 1101 453 m -15 Y s 1095 438 m 11 X s 1122 502 m 16 Y s 1116 518 m 11 X s 1122 479 m -16 Y s 1116 463 m 11 X s 1164 517 m 16 Y s 1158 533 m 12 X s 1164 494 m -16 Y
 s 1158 478 m 12 X s 1185 539 m 16 Y s 1179 555 m 12 X s 1185 516 m -16 Y s 1179 500 m 12 X s 1227 584 m 17 Y s 1221 601 m 12 X s 1227 562 m -17 Y s 1221 545 m 12 X s 1269 554 m 16 Y s 1264 570 m 11 X s 1269 531 m -16 Y s 1264 515 m 11 X s 9 lw 0.95
 0.95 0.95 c black 993 427 m 3 2 d 3 1 d 3 2 d 3 2 d 3 1 d 3 2 d 3 2 d 3 1 d 3 2 d 3 2 d 3 1 d 3 2 d 3 1 d 3 2 d 3 2 d 4 1 d 3 2 d 3 2 d 3 1 d 3 2 d 3 2 d 3 1 d 3 2 d 3 1 d 3 2 d 3 2 d 3 1 d 3 2 d 3 2 d 3 1 d 3 2 d 3 2 d 4 1 d 3 2 d 3 1 d 3 2 d 3 2 d
 3 1 d 3 2 d 3 2 d 3 1 d 3 2 d 3 2 d 3 1 d 3 2 d 3 1 d 3 2 d 3 2 d 4 1 d s 1143 507 m 3 2 d 3 2 d 3 1 d 3 2 d 3 2 d 3 1 d 3 2 d 3 1 d 3 2 d 3 2 d 3 1 d 3 2 d 3 2 d 3 1 d 3 2 d 4 2 d 3 1 d 3 2 d 3 1 d 3 2 d 3 2 d 3 1 d 3 2 d 3 2 d 3 1 d 3 2 d 3 2 d 3
 1 d 3 2 d 3 1 d 3 2 d 3 2 d 4 1 d 3 2 d 3 2 d 3 1 d 3 2 d 3 2 d 3 1 d 3 2 d 3 1 d 3 2 d 3 2 d 3 1 d 3 2 d 3 2 d 3 1 d 3 2 d 4 2 d s 1293 588 m 3 1 d s 0.49 0.6 0.82 c black 0.49 0.6 0.82 c
 gsave  408 306 930 345 C 1051.24 629.605 t 0 r /Helvetica-Bold findfont 25.6831 sf 0 0 m (6.0 < E < 6.5 GeV) show NC gr  0.52 0.76 0.64 c black 0.52 0.76 0.64 c
 gsave  408 306 930 345 C 1037 592.569 t 0 r /Helvetica-Bold findfont 25.6831 sf 0 0 m 
 220 206 192 185 170 163 148 141 126 118 111 97 83 69 61 47 40 25 18
(A = 0.060, p = 1.000) K NC gr  1 0.6 1 c black 1 0.6 1 c
 gsave  408 306 930 345 C 1336.13 458.671 t 90 r /Helvetica-Bold findfont 28.5368 sf 0 0 m (/dof=0.4) show NC gr  black 1 0.6 1 c
 gsave  408 306 930 345 C 1324.73 447.276 t 90 r /Helvetica-Bold findfont 19.9758 sf 0 0 m (2) show NC gr  black 1 0.6 1 c
 gsave  408 306 930 345 C 1336.13 430.182 t 90 r /Symbol findfont 28.5368 sf 0 0 m (c) show NC gr  black 3 lw 1 1 1 c 408 306 1383 345 bf black 1 1 1 c black 306 229 1445 391 bl 306 229 1445 391 bl 1445 391 m 306 X s 1491 395 m -4 Y s 1596 395 m -4 Y
 s 1702 395 m -4 Y s 1491 395 m -4 Y s 1702 395 m -4 Y s
 gsave  408 306 1383 345 C 1470.03 370.356 t 0 r /Helvetica findfont 22.8295 sf 0 0 m (\2550.5) show NC gr 
 gsave  408 306 1383 345 C 1586.83 370.356 t 0 r /Helvetica findfont 22.8295 sf 0 0 m (0) show NC gr 
 gsave  408 306 1383 345 C 1683.69 370.356 t 0 r /Helvetica findfont 22.8295 sf 0 0 m (0.5) show NC gr  1445 620 m 306 X s 1491 616 m 4 Y s 1596 616 m 4 Y s 1702 616 m 4 Y s 1491 616 m 4 Y s 1702 616 m 4 Y s 1445 391 m 229 Y s 1450 416 m -5 X s 1447
 422 m -2 X s 1447 428 m -2 X s 1447 434 m -2 X s 1447 439 m -2 X s 1450 445 m -5 X s 1447 451 m -2 X s 1447 457 m -2 X s 1447 463 m -2 X s 1447 469 m -2 X s 1450 475 m -5 X s 1447 480 m -2 X s 1447 486 m -2 X s 1447 492 m -2 X s 1447 498 m -2 X s
 1450 504 m -5 X s 1447 510 m -2 X s 1447 515 m -2 X s 1447 521 m -2 X s 1447 527 m -2 X s 1450 533 m -5 X s 1447 539 m -2 X s 1447 545 m -2 X s 1447 551 m -2 X s 1447 556 m -2 X s 1450 562 m -5 X s 1447 568 m -2 X s 1447 574 m -2 X s 1447 580 m -2 X
 s 1447 586 m -2 X s 1450 591 m -5 X s 1450 416 m -5 X s 1447 410 m -2 X s 1447 404 m -2 X s 1447 399 m -2 X s 1447 393 m -2 X s 1450 591 m -5 X s 1447 597 m -2 X s 1447 603 m -2 X s 1447 609 m -2 X s 1447 615 m -2 X s
 gsave  408 306 1383 345 C 1390.26 410.24 t 0 r /Helvetica findfont 22.8295 sf 0 0 m (\2550.04) show NC gr 
 gsave  408 306 1383 345 C 1390.26 438.729 t 0 r /Helvetica findfont 22.8295 sf 0 0 m (\2550.03) show NC gr 
 gsave  408 306 1383 345 C 1390.26 467.218 t 0 r /Helvetica findfont 22.8295 sf 0 0 m (\2550.02) show NC gr 
 gsave  408 306 1383 345 C 1393.11 495.707 t 0 r /Helvetica findfont 22.8295 sf 0 0 m (\2550.01) show NC gr 
 gsave  408 306 1383 345 C 1427.29 527.045 t 0 r /Helvetica findfont 22.8295 sf 0 0 m (0) show NC gr 
 gsave  408 306 1383 345 C 1398.81 555.534 t 0 r /Helvetica findfont 22.8295 sf 0 0 m (0.01) show NC gr 
 gsave  408 306 1383 345 C 1395.96 584.022 t 0 r /Helvetica findfont 22.8295 sf 0 0 m (0.02) show NC gr  1751 391 m 229 Y s 1745 416 m 6 X s 1748 422 m 3 X s 1748 428 m 3 X s 1748 434 m 3 X s 1748 439 m 3 X s 1745 445 m 6 X s 1748 451 m 3 X s 1748
 457 m 3 X s 1748 463 m 3 X s 1748 469 m 3 X s 1745 475 m 6 X s 1748 480 m 3 X s 1748 486 m 3 X s 1748 492 m 3 X s 1748 498 m 3 X s 1745 504 m 6 X s 1748 510 m 3 X s 1748 515 m 3 X s 1748 521 m 3 X s 1748 527 m 3 X s 1745 533 m 6 X s 1748 539 m 3 X s
 1748 545 m 3 X s 1748 551 m 3 X s 1748 556 m 3 X s 1745 562 m 6 X s 1748 568 m 3 X s 1748 574 m 3 X s 1748 580 m 3 X s 1748 586 m 3 X s 1745 591 m 6 X s 1745 416 m 6 X s 1748 410 m 3 X s 1748 404 m 3 X s 1748 399 m 3 X s 1748 393 m 3 X s 1745 591 m
 6 X s 1748 597 m 3 X s 1748 603 m 3 X s 1748 609 m 3 X s 1748 615 m 3 X s 1470 457 1512 479 1554 539 1575 541 1617 519 1639 487 1681 477 1723 553 8 { m21} R 1470 468 m 35 Y s 1464 503 m 12 X s 1470 445 m -35 Y s 1464 410 m 12 X s 1512 490 m 36 Y s
 1506 526 m 12 X s 1512 467 m -36 Y s 1506 431 m 12 X s 1554 550 m 37 Y s 1548 587 m 12 X s 1554 527 m -36 Y s 1548 491 m 12 X s 1575 552 m 37 Y s 1570 589 m 11 X s 1575 530 m -37 Y s 1570 493 m 11 X s 1617 530 m 37 Y s 1612 567 m 11 X s 1617 508 m
 -37 Y s 1612 471 m 11 X s 1639 499 m 35 Y s 1633 534 m 11 X s 1639 476 m -35 Y s 1633 441 m 11 X s 1681 489 m 35 Y s 1675 524 m 11 X s 1681 466 m -36 Y s 1675 430 m 11 X s 1723 565 m 36 Y s 1717 601 m 12 X s 1723 542 m -36 Y s 1717 506 m 12 X s 1 0
 0 c 9 lw 0.95 0.95 0.95 c black 1 0 0 c 1446 468 m 3 2 d 3 3 d 3 3 d 3 2 d 3 2 d 3 3 d 3 2 d 4 2 d 3 3 d 3 2 d 3 2 d 3 2 d 3 2 d 3 2 d 3 2 d 3 1 d 3 2 d 3 2 d 3 2 d 3 1 d 3 2 d 3 1 d 3 2 d 4 1 d 3 1 d 3 2 d 3 1 d 3 1 d 3 1 d 3 1 d 3 1 d 3 1 d 3 1 d
 3 1 d 3 1 d 3 X 3 1 d 3 1 d 3 X 4 1 d 3 X 3 1 d 6 X 3 1 d 12 X s 1596 533 m 12 X 3 -1 d 7 X 3 -1 d 3 X 3 -1 d 3 X 3 -1 d 3 -1 d 3 X 3 -1 d 3 -1 d 3 -1 d 3 -1 d 3 -1 d 3 -1 d 3 -1 d 3 -1 d 3 -1 d 4 -1 d 3 -2 d 3 -1 d 3 -2 d 3 -1 d 3 -2 d 3 -1 d 3 -2
 d 3 -2 d 3 -1 d 3 -2 d 3 -2 d 3 -2 d 3 -2 d 3 -2 d 3 -2 d 4 -2 d 3 -2 d 3 -2 d 3 -3 d 3 -2 d 3 -3 d 3 -2 d 3 -3 d 3 -2 d 3 -3 d s 1746 468 m 3 -2 d s 0.49 0.6 0.82 c black 0.49 0.6 0.82 c
 gsave  408 306 1383 345 C 1504.21 629.605 t 0 r /Helvetica-Bold findfont 25.6831 sf 0 0 m (6.5 < E < 7.0 GeV) show NC gr  0.52 0.76 0.64 c black 0.52 0.76 0.64 c
 gsave  408 306 1383 345 C 1484.27 592.569 t 0 r /Helvetica-Bold findfont 25.6831 sf 0 0 m 
 228 214 200 193 178 171 156 149 133 126 119 105 91 76 69 55 47 39 25 17
(A = \2550.044, p = 2.000) K NC gr  1 0.6 1 c black 1 0.6 1 c
 gsave  408 306 1383 345 C 1789.1 458.671 t 90 r /Helvetica-Bold findfont 28.5368 sf 0 0 m (/dof=0.6) show NC gr  black 1 0.6 1 c
 gsave  408 306 1383 345 C 1777.71 447.276 t 90 r /Helvetica-Bold findfont 19.9758 sf 0 0 m (2) show NC gr  black 1 0.6 1 c
 gsave  408 306 1383 345 C 1789.1 430.182 t 90 r /Symbol findfont 28.5368 sf 0 0 m (c) show NC gr  black 3 lw 1 1 1 c 408 306 1837 345 bf black 1 1 1 c black 306 229 1898 391 bl 306 229 1898 391 bl 1898 391 m 306 X s 1944 395 m -4 Y s 2050 395 m -4 Y
 s 2155 395 m -4 Y s 1944 395 m -4 Y s 2155 395 m -4 Y s
 gsave  408 306 1837 345 C 1923 370.356 t 0 r /Helvetica findfont 22.8295 sf 0 0 m (\2550.5) show NC gr 
 gsave  408 306 1837 345 C 2039.81 370.356 t 0 r /Helvetica findfont 22.8295 sf 0 0 m (0) show NC gr 
 gsave  408 306 1837 345 C 2136.67 370.356 t 0 r /Helvetica findfont 22.8295 sf 0 0 m (0.5) show NC gr  1898 620 m 306 X s 1944 616 m 4 Y s 2050 616 m 4 Y s 2155 616 m 4 Y s 1944 616 m 4 Y s 2155 616 m 4 Y s 1898 391 m 229 Y s 1904 391 m -6 X s 1901
 402 m -3 X s 1901 413 m -3 X s 1901 424 m -3 X s 1904 435 m -6 X s 1901 446 m -3 X s 1901 457 m -3 X s 1901 468 m -3 X s 1904 479 m -6 X s 1901 490 m -3 X s 1901 501 m -3 X s 1901 512 m -3 X s 1904 523 m -6 X s 1901 534 m -3 X s 1901 546 m -3 X s
 1901 557 m -3 X s 1904 568 m -6 X s 1901 579 m -3 X s 1901 590 m -3 X s 1901 601 m -3 X s 1904 612 m -6 X s 1904 391 m -6 X s 1904 612 m -6 X s
 gsave  408 306 1837 345 C 1843.23 384.6 t 0 r /Helvetica findfont 22.8295 sf 0 0 m (\2550.04) show NC gr 
 gsave  408 306 1837 345 C 1843.23 427.334 t 0 r /Helvetica findfont 22.8295 sf 0 0 m (\2550.02) show NC gr 
 gsave  408 306 1837 345 C 1880.27 472.916 t 0 r /Helvetica findfont 22.8295 sf 0 0 m (0) show NC gr 
 gsave  408 306 1837 345 C 1848.93 515.649 t 0 r /Helvetica findfont 22.8295 sf 0 0 m (0.02) show NC gr 
 gsave  408 306 1837 345 C 1848.93 561.231 t 0 r /Helvetica findfont 22.8295 sf 0 0 m (0.04) show NC gr 
 gsave  408 306 1837 345 C 1848.93 603.965 t 0 r /Helvetica findfont 22.8295 sf 0 0 m (0.06) show NC gr  2204 391 m 229 Y s 2199 391 m 5 X s 2201 402 m 3 X s 2201 413 m 3 X s 2201 424 m 3 X s 2199 435 m 5 X s 2201 446 m 3 X s 2201 457 m 3 X s 2201
 468 m 3 X s 2199 479 m 5 X s 2201 490 m 3 X s 2201 501 m 3 X s 2201 512 m 3 X s 2199 523 m 5 X s 2201 534 m 3 X s 2201 546 m 3 X s 2201 557 m 3 X s 2199 568 m 5 X s 2201 579 m 3 X s 2201 590 m 3 X s 2201 601 m 3 X s 2199 612 m 5 X s 2199 391 m 5 X s
 2199 612 m 5 X s 1923 496 1966 459 2008 523 2029 538 2071 449 2092 560 2134 467 2176 458 8 { m21} R 1923 508 m 28 Y s 1918 536 m 11 X s 1923 485 m -28 Y s 1918 457 m 11 X s 1966 470 m 28 Y s 1960 498 m 11 X s 1966 448 m -28 Y s 1960 420 m 11 X s
 2008 535 m 28 Y s 2002 563 m 11 X s 2008 512 m -28 Y s 2002 484 m 11 X s 2029 550 m 29 Y s 2023 579 m 11 X s 2029 527 m -29 Y s 2023 498 m 11 X s 2071 461 m 27 Y s 2065 488 m 12 X s 2071 438 m -28 Y s 2065 410 m 12 X s 2092 572 m 29 Y s 2086 601 m
 12 X s 2092 549 m -29 Y s 2086 520 m 12 X s 2134 479 m 27 Y s 2129 506 m 11 X s 2134 456 m -28 Y s 2129 428 m 11 X s 2176 470 m 27 Y s 2171 497 m 11 X s 2176 447 m -28 Y s 2171 419 m 11 X s 9 lw 0.95 0.95 0.95 c black 1900 493 m 3 X 3 -1 d 6 X 3 -1
 d 9 X 3 -1 d 9 X 3 -1 d 7 X 3 -1 d 9 X 3 -1 d 9 X 3 -1 d 6 X 3 -1 d 9 X 4 -1 d 6 X 3 -1 d 9 X 3 -1 d 9 X 3 -1 d 6 X 3 -1 d 10 X 3 -1 d s 2050 479 m 9 X 3 -1 d 6 X 3 -1 d 9 X 3 -1 d 6 X 3 -1 d 10 X 3 -1 d 9 X 3 -1 d 6 X 3 -1 d 9 X 3 -1 d 10 X 3 -1 d
 6 X 3 -1 d 9 X 3 -1 d 6 X 3 -1 d 9 X 4 -1 d 6 X s 2200 466 m 3 X s 0.49 0.6 0.82 c black 0.49 0.6 0.82 c
 gsave  408 306 1837 345 C 1957.19 629.605 t 0 r /Helvetica-Bold findfont 25.6831 sf 0 0 m (7.0 < E < 7.5 GeV) show NC gr  0.52 0.76 0.64 c black 0.52 0.76 0.64 c
 gsave  408 306 1837 345 C 1937.25 592.569 t 0 r /Helvetica-Bold findfont 25.6831 sf 0 0 m 
 228 214 200 193 178 171 156 149 134 126 119 105 91 77 69 55 47 39 25 17
(A = \2550.009, p = 1.000) K NC gr  1 0.6 1 c black 1 0.6 1 c
 gsave  408 306 1837 345 C 2242.08 458.671 t 90 r /Helvetica-Bold findfont 28.5368 sf 0 0 m (/dof=1.2) show NC gr  black 1 0.6 1 c
 gsave  408 306 1837 345 C 2230.68 447.276 t 90 r /Helvetica-Bold findfont 19.9758 sf 0 0 m (2) show NC gr  black 1 0.6 1 c
 gsave  408 306 1837 345 C 2242.08 430.182 t 90 r /Symbol findfont 28.5368 sf 0 0 m (c) show NC gr  black 3 lw 1 1 1 c 408 306 23 13 bf black 1 1 1 c black 306 229 84 59 bl 306 229 84 59 bl 84 59 m 306 X s 130 63 m -4 Y s 236 63 m -4 Y s 341 63 m -4
 Y s 130 63 m -4 Y s 341 63 m -4 Y s
 gsave  408 306 23 13 C 108.258 39.8845 t 0 r /Helvetica findfont 22.8295 sf 0 0 m (\2550.5) show NC gr 
 gsave  408 306 23 13 C 225.062 39.8845 t 0 r /Helvetica findfont 22.8295 sf 0 0 m (0) show NC gr 
 gsave  408 306 23 13 C 321.925 39.8845 t 0 r /Helvetica findfont 22.8295 sf 0 0 m (0.5) show NC gr  84 288 m 306 X s 130 284 m 4 Y s 236 284 m 4 Y s 341 284 m 4 Y s 130 284 m 4 Y s 341 284 m 4 Y s 84 59 m 229 Y s 89 79 m -5 X s 87 87 m -3 X s 87 96
 m -3 X s 87 105 m -3 X s 89 113 m -5 X s 87 122 m -3 X s 87 130 m -3 X s 87 139 m -3 X s 89 147 m -5 X s 87 156 m -3 X s 87 164 m -3 X s 87 173 m -3 X s 89 182 m -5 X s 87 190 m -3 X s 87 199 m -3 X s 87 207 m -3 X s 89 216 m -5 X s 87 224 m -3 X s
 87 233 m -3 X s 87 241 m -3 X s 89 250 m -5 X s 87 259 m -3 X s 87 267 m -3 X s 87 276 m -3 X s 89 284 m -5 X s 89 79 m -5 X s 87 70 m -3 X s 87 62 m -3 X s 89 284 m -5 X s
 gsave  408 306 23 13 C 28.4889 71.2223 t 0 r /Helvetica findfont 22.8295 sf 0 0 m (\2550.04) show NC gr 
 gsave  408 306 23 13 C 28.4889 105.409 t 0 r /Helvetica findfont 22.8295 sf 0 0 m (\2550.02) show NC gr 
 gsave  408 306 23 13 C 65.5245 139.596 t 0 r /Helvetica findfont 22.8295 sf 0 0 m (0) show NC gr 
 gsave  408 306 23 13 C 34.1867 173.782 t 0 r /Helvetica findfont 22.8295 sf 0 0 m (0.02) show NC gr 
 gsave  408 306 23 13 C 34.1867 207.969 t 0 r /Helvetica findfont 22.8295 sf 0 0 m (0.04) show NC gr 
 gsave  408 306 23 13 C 34.1867 242.156 t 0 r /Helvetica findfont 22.8295 sf 0 0 m (0.06) show NC gr 
 gsave  408 306 23 13 C 34.1867 276.342 t 0 r /Helvetica findfont 22.8295 sf 0 0 m (0.08) show NC gr  390 59 m 229 Y s 385 79 m 5 X s 387 87 m 3 X s 387 96 m 3 X s 387 105 m 3 X s 385 113 m 5 X s 387 122 m 3 X s 387 130 m 3 X s 387 139 m 3 X s 385
 147 m 5 X s 387 156 m 3 X s 387 164 m 3 X s 387 173 m 3 X s 385 182 m 5 X s 387 190 m 3 X s 387 199 m 3 X s 387 207 m 3 X s 385 216 m 5 X s 387 224 m 3 X s 387 233 m 3 X s 387 241 m 3 X s 385 250 m 5 X s 387 259 m 3 X s 387 267 m 3 X s 387 276 m 3 X
 s 385 284 m 5 X s 385 79 m 5 X s 387 70 m 3 X s 387 62 m 3 X s 385 284 m 5 X s /w 22 def /w2 {w 2 div} def /w3 {w 3 div} def 109 139 151 134 194 159 215 157 257 235 278 127 320 143 362 111 8 { m21} R 109 151 m 21 Y s 104 172 m 11 X s 109 128 m -21 Y
 s 104 107 m 11 X s 151 145 m 22 Y s 146 167 m 11 X s 151 123 m -22 Y s 146 101 m 11 X s 194 170 m 22 Y s 188 192 m 11 X s 194 148 m -22 Y s 188 126 m 11 X s 215 168 m 22 Y s 209 190 m 11 X s 215 145 m -21 Y s 209 124 m 11 X s 257 246 m 23 Y s 251
 269 m 11 X s 257 223 m -23 Y s 251 200 m 11 X s 278 138 m 21 Y s 272 159 m 12 X s 278 115 m -21 Y s 272 94 m 12 X s 320 155 m 21 Y s 314 176 m 12 X s 320 132 m -22 Y s 314 110 m 12 X s 362 122 m 22 Y s 357 144 m 11 X s 362 100 m -22 Y s 357 78 m 11
 X s 1 0 0 c 9 lw 0.95 0.95 0.95 c black 1 0 0 c 85 118 m 3 1 d 4 1 d 3 1 d 3 1 d 3 2 d 3 1 d 3 1 d 3 1 d 3 1 d 3 1 d 3 1 d 3 X 3 1 d 3 1 d 3 1 d 3 1 d 3 1 d 4 X 3 1 d 3 1 d 3 1 d 3 X 3 1 d 3 1 d 3 X 3 1 d 3 X 3 1 d 3 X 3 1 d 3 X 3 1 d 3 X 4 1 d 6 X
 3 1 d 9 X 3 1 d 24 X s 235 147 m 25 X 3 -1 d 9 X 3 -1 d 6 X 3 -1 d 3 X 4 -1 d 3 X 3 -1 d 3 X 3 -1 d 3 X 3 -1 d 3 X 3 -1 d 3 -1 d 3 X 3 -1 d 3 -1 d 3 X 3 -1 d 3 -1 d 4 -1 d 3 -1 d 3 X 3 -1 d 3 -1 d 3 -1 d 3 -1 d 3 -1 d 3 -1 d 3 -1 d 3 -1 d 3 -1 d 3
 -1 d 3 -2 d 3 -1 d 3 -1 d s 385 118 m 4 -1 d s 0.49 0.6 0.82 c black 0.49 0.6 0.82 c
 gsave  408 306 23 13 C 142.445 296.285 t 0 r /Helvetica-Bold findfont 25.6831 sf 0 0 m (7.5 < E < 8.0 GeV) show NC gr  0.52 0.76 0.64 c black 0.52 0.76 0.64 c
 gsave  408 306 23 13 C 122.502 259.249 t 0 r /Helvetica-Bold findfont 25.6831 sf 0 0 m 
 228 214 200 193 178 171 156 149 134 126 119 105 91 77 69 55 47 40 25 17
(A = \2550.034, p = 2.000) K NC gr  1 0.6 1 c black 1 0.6 1 c
 gsave  408 306 23 13 C 427.334 128.2 t 90 r /Helvetica-Bold findfont 28.5368 sf 0 0 m (/dof=1.1) show NC gr  black 1 0.6 1 c
 gsave  408 306 23 13 C 415.938 116.804 t 90 r /Helvetica-Bold findfont 19.9758 sf 0 0 m (2) show NC gr  black 1 0.6 1 c
 gsave  408 306 23 13 C 427.334 99.7112 t 90 r /Symbol findfont 28.5368 sf 0 0 m (c) show NC gr  black 3 lw 1 1 1 c 408 306 476 13 bf black 1 1 1 c black 307 229 537 59 bl 307 229 537 59 bl 537 59 m 307 X s 584 63 m -4 Y s 689 63 m -4 Y s 795 63 m -4
 Y s 584 63 m -4 Y s 795 63 m -4 Y s
 gsave  408 306 476 13 C 561.231 39.8845 t 0 r /Helvetica findfont 22.8295 sf 0 0 m (\2550.5) show NC gr 
 gsave  408 306 476 13 C 678.036 39.8845 t 0 r /Helvetica findfont 22.8295 sf 0 0 m (0) show NC gr 
 gsave  408 306 476 13 C 774.898 39.8845 t 0 r /Helvetica findfont 22.8295 sf 0 0 m (0.5) show NC gr  537 288 m 307 X s 584 284 m 4 Y s 689 284 m 4 Y s 795 284 m 4 Y s 584 284 m 4 Y s 795 284 m 4 Y s 537 59 m 229 Y s 543 59 m -6 X s 540 68 m -3 X s
 540 77 m -3 X s 540 86 m -3 X s 543 95 m -6 X s 540 104 m -3 X s 540 113 m -3 X s 540 123 m -3 X s 543 132 m -6 X s 540 141 m -3 X s 540 150 m -3 X s 540 159 m -3 X s 543 168 m -6 X s 540 177 m -3 X s 540 186 m -3 X s 540 195 m -3 X s 543 204 m -6 X
 s 540 213 m -3 X s 540 222 m -3 X s 540 231 m -3 X s 543 240 m -6 X s 540 249 m -3 X s 540 258 m -3 X s 540 267 m -3 X s 543 276 m -6 X s 543 59 m -6 X s 543 276 m -6 X s 540 285 m -3 X s
 gsave  408 306 476 13 C 481.462 51.28 t 0 r /Helvetica findfont 22.8295 sf 0 0 m (\2550.06) show NC gr 
 gsave  408 306 476 13 C 481.462 88.3156 t 0 r /Helvetica findfont 22.8295 sf 0 0 m (\2550.04) show NC gr 
 gsave  408 306 476 13 C 481.462 125.351 t 0 r /Helvetica findfont 22.8295 sf 0 0 m (\2550.02) show NC gr 
 gsave  408 306 476 13 C 518.498 159.538 t 0 r /Helvetica findfont 22.8295 sf 0 0 m (0) show NC gr 
 gsave  408 306 476 13 C 487.16 196.573 t 0 r /Helvetica findfont 22.8295 sf 0 0 m (0.02) show NC gr 
 gsave  408 306 476 13 C 487.16 233.609 t 0 r /Helvetica findfont 22.8295 sf 0 0 m (0.04) show NC gr 
 gsave  408 306 476 13 C 487.16 267.796 t 0 r /Helvetica findfont 22.8295 sf 0 0 m (0.06) show NC gr  844 59 m 229 Y s 838 59 m 6 X s 841 68 m 3 X s 841 77 m 3 X s 841 86 m 3 X s 838 95 m 6 X s 841 104 m 3 X s 841 113 m 3 X s 841 123 m 3 X s 838 132
 m 6 X s 841 141 m 3 X s 841 150 m 3 X s 841 159 m 3 X s 838 168 m 6 X s 841 177 m 3 X s 841 186 m 3 X s 841 195 m 3 X s 838 204 m 6 X s 841 213 m 3 X s 841 222 m 3 X s 841 231 m 3 X s 838 240 m 6 X s 841 249 m 3 X s 841 258 m 3 X s 841 267 m 3 X s
 838 276 m 6 X s 838 59 m 6 X s 838 276 m 6 X s 841 285 m 3 X s /w 23 def /w2 {w 2 div} def /w3 {w 3 div} def 563 193 605 151 647 231 668 135 710 115 731 199 774 150 816 170 8 { m21} R 563 204 m 27 Y s 557 231 m 11 X s 563 181 m -26 Y s 557 155 m 11
 X s 605 162 m 26 Y s 599 188 m 12 X s 605 139 m -25 Y s 599 114 m 12 X s 647 242 m 27 Y s 641 269 m 12 X s 647 219 m -26 Y s 641 193 m 12 X s 668 147 m 25 Y s 662 172 m 12 X s 668 124 m -25 Y s 662 99 m 12 X s 710 126 m 25 Y s 705 151 m 11 X s 710
 103 m -25 Y s 705 78 m 11 X s 731 211 m 27 Y s 726 238 m 11 X s 731 188 m -27 Y s 726 161 m 11 X s 774 162 m 25 Y s 768 187 m 11 X s 774 139 m -26 Y s 768 113 m 11 X s 816 181 m 26 Y s 810 207 m 11 X s 816 159 m -26 Y s 810 133 m 11 X s 9 lw 0.95
 0.95 0.95 c black 539 181 m 6 X 3 -1 d 9 X 3 -1 d 7 X 3 -1 d 9 X 3 -1 d 9 X 3 -1 d 6 X 3 -1 d 9 X 4 -1 d 9 X 3 -1 d 6 X 3 -1 d 9 X 3 -1 d 9 X 3 -1 d 7 X 3 -1 d 9 X 3 -1 d 6 X s 689 168 m 3 -1 d 9 X 3 -1 d 9 X 4 -1 d 6 X 3 -1 d 9 X 3 -1 d 9 X 3 -1 d
 6 X 3 -1 d 10 X 3 -1 d 9 X 3 -1 d 6 X 3 -1 d 9 X 3 -1 d 6 X 4 -1 d 9 X 3 -1 d 9 X 3 -1 d s 839 154 m 3 X s 0.49 0.6 0.82 c black 0.49 0.6 0.82 c
 gsave  408 306 476 13 C 595.418 296.285 t 0 r /Helvetica-Bold findfont 25.6831 sf 0 0 m (8.0 < E < 8.5 GeV) show NC gr  0.52 0.76 0.64 c black 0.52 0.76 0.64 c
 gsave  408 306 476 13 C 575.476 259.249 t 0 r /Helvetica-Bold findfont 25.6831 sf 0 0 m 
 228 214 200 193 178 171 156 149 133 126 119 105 91 77 69 55 47 39 25 17
(A = \2550.010, p = 1.000) K NC gr  1 0.6 1 c black 1 0.6 1 c
 gsave  408 306 476 13 C 883.156 128.2 t 90 r /Helvetica-Bold findfont 28.5368 sf 0 0 m (/dof=1.0) show NC gr  black 1 0.6 1 c
 gsave  408 306 476 13 C 871.76 116.804 t 90 r /Helvetica-Bold findfont 19.9758 sf 0 0 m (2) show NC gr  black 1 0.6 1 c
 gsave  408 306 476 13 C 883.156 99.7112 t 90 r /Symbol findfont 28.5368 sf 0 0 m (c) show NC gr  black 3 lw 1 1 1 c 408 306 930 13 bf black 1 1 1 c black 306 229 991 59 bl 306 229 991 59 bl 991 59 m 306 X s 1037 63 m -4 Y s 1143 63 m -4 Y s 1248 63
 m -4 Y s 1037 63 m -4 Y s 1248 63 m -4 Y s
 gsave  408 306 930 13 C 1017.05 39.8845 t 0 r /Helvetica findfont 22.8295 sf 0 0 m (\2550.5) show NC gr 
 gsave  408 306 930 13 C 1133.86 39.8845 t 0 r /Helvetica findfont 22.8295 sf 0 0 m (0) show NC gr 
 gsave  408 306 930 13 C 1230.72 39.8845 t 0 r /Helvetica findfont 22.8295 sf 0 0 m (0.5) show NC gr  991 288 m 306 X s 1037 284 m 4 Y s 1143 284 m 4 Y s 1248 284 m 4 Y s 1037 284 m 4 Y s 1248 284 m 4 Y s 991 59 m 229 Y s 997 62 m -6 X s 994 72 m -3
 X s 994 82 m -3 X s 994 92 m -3 X s 997 102 m -6 X s 994 113 m -3 X s 994 123 m -3 X s 994 133 m -3 X s 997 143 m -6 X s 994 153 m -3 X s 994 163 m -3 X s 994 173 m -3 X s 997 184 m -6 X s 994 194 m -3 X s 994 204 m -3 X s 994 214 m -3 X s 997 224 m
 -6 X s 994 234 m -3 X s 994 244 m -3 X s 994 255 m -3 X s 997 265 m -6 X s 997 62 m -6 X s 997 265 m -6 X s 994 275 m -3 X s 994 285 m -3 X s
 gsave  408 306 930 13 C 937.285 54.1289 t 0 r /Helvetica findfont 22.8295 sf 0 0 m (\2550.06) show NC gr 
 gsave  408 306 930 13 C 937.285 94.0134 t 0 r /Helvetica findfont 22.8295 sf 0 0 m (\2550.04) show NC gr 
 gsave  408 306 930 13 C 937.285 136.747 t 0 r /Helvetica findfont 22.8295 sf 0 0 m (\2550.02) show NC gr 
 gsave  408 306 930 13 C 974.32 176.631 t 0 r /Helvetica findfont 22.8295 sf 0 0 m (0) show NC gr 
 gsave  408 306 930 13 C 942.983 216.516 t 0 r /Helvetica findfont 22.8295 sf 0 0 m (0.02) show NC gr 
 gsave  408 306 930 13 C 942.983 256.4 t 0 r /Helvetica findfont 22.8295 sf 0 0 m (0.04) show NC gr  1297 59 m 229 Y s 1292 62 m 5 X s 1294 72 m 3 X s 1294 82 m 3 X s 1294 92 m 3 X s 1292 102 m 5 X s 1294 113 m 3 X s 1294 123 m 3 X s 1294 133 m 3 X s
 1292 143 m 5 X s 1294 153 m 3 X s 1294 163 m 3 X s 1294 173 m 3 X s 1292 184 m 5 X s 1294 194 m 3 X s 1294 204 m 3 X s 1294 214 m 3 X s 1292 224 m 5 X s 1294 234 m 3 X s 1294 244 m 3 X s 1294 255 m 3 X s 1292 265 m 5 X s 1292 62 m 5 X s 1292 265 m 5
 X s 1294 275 m 3 X s 1294 285 m 3 X s 1016 154 1058 224 1101 188 1122 182 1164 128 1185 189 1227 121 1269 135 8 { m21} R 1016 165 m 32 Y s 1011 197 m 11 X s 1016 142 m -32 Y s 1011 110 m 11 X s 1058 235 m 34 Y s 1053 269 m 11 X s 1058 213 m -34 Y s
 1053 179 m 11 X s 1101 200 m 33 Y s 1095 233 m 11 X s 1101 177 m -33 Y s 1095 144 m 11 X s 1122 193 m 33 Y s 1116 226 m 11 X s 1122 171 m -33 Y s 1116 138 m 11 X s 1164 139 m 32 Y s 1158 171 m 12 X s 1164 116 m -32 Y s 1158 84 m 12 X s 1185 200 m 33
 Y s 1179 233 m 12 X s 1185 178 m -33 Y s 1179 145 m 12 X s 1227 133 m 31 Y s 1221 164 m 12 X s 1227 110 m -32 Y s 1221 78 m 12 X s 1269 147 m 32 Y s 1264 179 m 11 X s 1269 124 m -33 Y s 1264 91 m 11 X s 1 0 0 c 9 lw 0.95 0.95 0.95 c black 1 0 0 c
 993 131 m 3 2 d 3 2 d 3 2 d 3 2 d 3 2 d 3 2 d 3 2 d 3 2 d 3 1 d 3 2 d 3 2 d 3 1 d 3 2 d 3 2 d 3 1 d 4 2 d 3 1 d 3 1 d 3 2 d 3 1 d 3 1 d 3 2 d 3 1 d 3 1 d 3 1 d 3 1 d 3 1 d 3 1 d 3 1 d 3 1 d 3 X 3 1 d 4 1 d 3 1 d 3 X 3 1 d 3 X 3 1 d 3 X 3 1 d 6 X 3 1
 d 12 X 3 1 d 4 X s 1143 184 m 3 X 3 -1 d 15 X 3 -1 d 3 X 3 -1 d 3 X 3 -1 d 3 X 3 -1 d 3 X 4 -1 d 3 -1 d 3 X 3 -1 d 3 -1 d 3 -1 d 3 -1 d 3 -1 d 3 -1 d 3 -1 d 3 -1 d 3 -1 d 3 -1 d 3 -2 d 3 -1 d 3 -1 d 3 -2 d 4 -1 d 3 -2 d 3 -1 d 3 -2 d 3 -1 d 3 -2 d 3
 -2 d 3 -1 d 3 -2 d 3 -2 d 3 -2 d 3 -2 d 3 -2 d 3 -2 d 3 -2 d 3 -2 d 4 -2 d s 1293 131 m 3 -2 d s 0.49 0.6 0.82 c black 0.49 0.6 0.82 c
 gsave  408 306 930 13 C 1051.24 296.285 t 0 r /Helvetica-Bold findfont 25.6831 sf 0 0 m (8.5 < E < 9.0 GeV) show NC gr  0.52 0.76 0.64 c black 0.52 0.76 0.64 c
 gsave  408 306 930 13 C 1031.3 259.249 t 0 r /Helvetica-Bold findfont 25.6831 sf 0 0 m 
 228 214 200 193 178 171 156 149 134 126 119 105 91 77 69 55 47 39 25 17
(A = \2550.051, p = 2.000) K NC gr  1 0.6 1 c black 1 0.6 1 c
 gsave  408 306 930 13 C 1336.13 128.2 t 90 r /Helvetica-Bold findfont 28.5368 sf 0 0 m (/dof=0.6) show NC gr  black 1 0.6 1 c
 gsave  408 306 930 13 C 1324.73 116.804 t 90 r /Helvetica-Bold findfont 19.9758 sf 0 0 m (2) show NC gr  black 1 0.6 1 c
 gsave  408 306 930 13 C 1336.13 99.7112 t 90 r /Symbol findfont 28.5368 sf 0 0 m (c) show NC gr  black 3 lw 1 1 1 c 408 306 1383 13 bf black 1 1 1 c black 306 229 1445 59 bl 306 229 1445 59 bl 1445 59 m 306 X s 1491 63 m -4 Y s 1596 63 m -4 Y s 1702
 63 m -4 Y s 1491 63 m -4 Y s 1702 63 m -4 Y s
 gsave  408 306 1383 13 C 1470.03 39.8845 t 0 r /Helvetica findfont 22.8295 sf 0 0 m (\2550.5) show NC gr 
 gsave  408 306 1383 13 C 1586.83 39.8845 t 0 r /Helvetica findfont 22.8295 sf 0 0 m (0) show NC gr 
 gsave  408 306 1383 13 C 1683.69 39.8845 t 0 r /Helvetica findfont 22.8295 sf 0 0 m (0.5) show NC gr  1445 288 m 306 X s 1491 284 m 4 Y s 1596 284 m 4 Y s 1702 284 m 4 Y s 1491 284 m 4 Y s 1702 284 m 4 Y s 1445 59 m 229 Y s 1450 74 m -5 X s 1447 81
 m -2 X s 1447 88 m -2 X s 1447 95 m -2 X s 1450 103 m -5 X s 1447 110 m -2 X s 1447 117 m -2 X s 1447 124 m -2 X s 1450 132 m -5 X s 1447 139 m -2 X s 1447 146 m -2 X s 1447 153 m -2 X s 1450 161 m -5 X s 1447 168 m -2 X s 1447 175 m -2 X s 1447 182
 m -2 X s 1450 190 m -5 X s 1447 197 m -2 X s 1447 204 m -2 X s 1447 211 m -2 X s 1450 219 m -5 X s 1447 226 m -2 X s 1447 233 m -2 X s 1447 240 m -2 X s 1450 248 m -5 X s 1447 255 m -2 X s 1447 262 m -2 X s 1447 269 m -2 X s 1450 277 m -5 X s 1450
 74 m -5 X s 1447 66 m -2 X s 1447 59 m -2 X s 1450 277 m -5 X s 1447 284 m -2 X s
 gsave  408 306 1383 13 C 1390.26 65.5245 t 0 r /Helvetica findfont 22.8295 sf 0 0 m (\2550.08) show NC gr 
 gsave  408 306 1383 13 C 1390.26 96.8623 t 0 r /Helvetica findfont 22.8295 sf 0 0 m (\2550.06) show NC gr 
 gsave  408 306 1383 13 C 1390.26 125.351 t 0 r /Helvetica findfont 22.8295 sf 0 0 m (\2550.04) show NC gr 
 gsave  408 306 1383 13 C 1390.26 153.84 t 0 r /Helvetica findfont 22.8295 sf 0 0 m (\2550.02) show NC gr 
 gsave  408 306 1383 13 C 1427.29 182.329 t 0 r /Helvetica findfont 22.8295 sf 0 0 m (0) show NC gr 
 gsave  408 306 1383 13 C 1395.96 210.818 t 0 r /Helvetica findfont 22.8295 sf 0 0 m (0.02) show NC gr 
 gsave  408 306 1383 13 C 1395.96 239.307 t 0 r /Helvetica findfont 22.8295 sf 0 0 m (0.04) show NC gr 
 gsave  408 306 1383 13 C 1395.96 270.645 t 0 r /Helvetica findfont 22.8295 sf 0 0 m (0.06) show NC gr  1751 59 m 229 Y s 1745 74 m 6 X s 1748 81 m 3 X s 1748 88 m 3 X s 1748 95 m 3 X s 1745 103 m 6 X s 1748 110 m 3 X s 1748 117 m 3 X s 1748 124 m 3
 X s 1745 132 m 6 X s 1748 139 m 3 X s 1748 146 m 3 X s 1748 153 m 3 X s 1745 161 m 6 X s 1748 168 m 3 X s 1748 175 m 3 X s 1748 182 m 3 X s 1745 190 m 6 X s 1748 197 m 3 X s 1748 204 m 3 X s 1748 211 m 3 X s 1745 219 m 6 X s 1748 226 m 3 X s 1748
 233 m 3 X s 1748 240 m 3 X s 1745 248 m 6 X s 1748 255 m 3 X s 1748 262 m 3 X s 1748 269 m 3 X s 1745 277 m 6 X s 1745 74 m 6 X s 1748 66 m 3 X s 1748 59 m 3 X s 1745 277 m 6 X s 1748 284 m 3 X s 1470 148 1512 110 1554 226 1575 191 1617 235 1639 178
 1681 161 1723 126 8 { m21} R 1470 160 m 21 Y s 1464 181 m 12 X s 1470 137 m -21 Y s 1464 116 m 12 X s 1512 121 m 20 Y s 1506 141 m 12 X s 1512 98 m -20 Y s 1506 78 m 12 X s 1554 238 m 22 Y s 1548 260 m 12 X s 1554 215 m -23 Y s 1548 192 m 12 X s
 1575 203 m 22 Y s 1570 225 m 11 X s 1575 180 m -22 Y s 1570 158 m 11 X s 1617 246 m 23 Y s 1612 269 m 11 X s 1617 224 m -23 Y s 1612 201 m 11 X s 1639 190 m 21 Y s 1633 211 m 11 X s 1639 167 m -22 Y s 1633 145 m 11 X s 1681 172 m 22 Y s 1675 194 m
 11 X s 1681 149 m -21 Y s 1675 128 m 11 X s 1723 138 m 21 Y s 1717 159 m 12 X s 1723 115 m -21 Y s 1717 94 m 12 X s 1 0 0 c 9 lw 0.95 0.95 0.95 c black 1 0 0 c 1446 102 m 3 3 d 3 4 d 3 3 d 3 3 d 3 4 d 3 3 d 3 3 d 4 3 d 3 3 d 3 3 d 3 3 d 3 2 d 3 3 d
 3 3 d 3 2 d 3 3 d 3 2 d 3 2 d 3 3 d 3 2 d 3 2 d 3 2 d 3 2 d 4 2 d 3 1 d 3 2 d 3 2 d 3 1 d 3 2 d 3 1 d 3 2 d 3 1 d 3 1 d 3 1 d 3 1 d 3 1 d 3 1 d 3 1 d 3 1 d 4 1 d 3 X 3 1 d 3 X 3 1 d 6 X 3 1 d 6 X s 1596 190 m 6 X 3 -1 d 6 X 3 -1 d 4 X 3 -1 d 3 X 3
 -1 d 3 -1 d 3 -1 d 3 X 3 -1 d 3 -1 d 3 -2 d 3 -1 d 3 -1 d 3 -1 d 3 -2 d 3 -1 d 3 -2 d 3 -2 d 4 -1 d 3 -2 d 3 -2 d 3 -2 d 3 -2 d 3 -2 d 3 -2 d 3 -2 d 3 -3 d 3 -2 d 3 -2 d 3 -3 d 3 -2 d 3 -3 d 3 -3 d 3 -3 d 4 -3 d 3 -3 d 3 -3 d 3 -3 d 3 -3 d 3 -3 d 3
 -3 d 3 -4 d 3 -3 d 3 -4 d s 1746 102 m 3 -3 d s 0.49 0.6 0.82 c black 0.49 0.6 0.82 c
 gsave  408 306 1383 13 C 1504.21 296.285 t 0 r /Helvetica-Bold findfont 25.6831 sf 0 0 m (9.0 < E < 9.5 GeV) show NC gr  0.52 0.76 0.64 c black 0.52 0.76 0.64 c
 gsave  408 306 1383 13 C 1484.27 259.249 t 0 r /Helvetica-Bold findfont 25.6831 sf 0 0 m 
 228 214 200 193 178 171 156 149 133 126 119 105 91 76 69 55 47 39 25 17
(A = \2550.120, p = 2.000) K NC gr  1 0.6 1 c black 1 0.6 1 c
 gsave  408 306 1383 13 C 1789.1 128.2 t 90 r /Helvetica-Bold findfont 28.5368 sf 0 0 m (/dof=1.0) show NC gr  black 1 0.6 1 c
 gsave  408 306 1383 13 C 1777.71 116.804 t 90 r /Helvetica-Bold findfont 19.9758 sf 0 0 m (2) show NC gr  black 1 0.6 1 c
 gsave  408 306 1383 13 C 1789.1 99.7112 t 90 r /Symbol findfont 28.5368 sf 0 0 m (c) show NC gr  black 3 lw 1 1 1 c 408 306 1837 13 bf black 1 1 1 c black 306 229 1898 59 bl 306 229 1898 59 bl 1898 59 m 306 X s 1944 63 m -4 Y s 2050 63 m -4 Y s 2155
 63 m -4 Y s 1944 63 m -4 Y s 2155 63 m -4 Y s
 gsave  408 306 1837 13 C 1923 39.8845 t 0 r /Helvetica findfont 22.8295 sf 0 0 m (\2550.5) show NC gr 
 gsave  408 306 1837 13 C 2039.81 39.8845 t 0 r /Helvetica findfont 22.8295 sf 0 0 m (0) show NC gr 
 gsave  408 306 1837 13 C 2136.67 39.8845 t 0 r /Helvetica findfont 22.8295 sf 0 0 m (0.5) show NC gr  1898 288 m 306 X s 1944 284 m 4 Y s 2050 284 m 4 Y s 2155 284 m 4 Y s 1944 284 m 4 Y s 2155 284 m 4 Y s 1898 59 m 229 Y s 1904 73 m -6 X s 1901 82
 m -3 X s 1901 90 m -3 X s 1901 99 m -3 X s 1904 108 m -6 X s 1901 116 m -3 X s 1901 125 m -3 X s 1901 133 m -3 X s 1904 142 m -6 X s 1901 151 m -3 X s 1901 159 m -3 X s 1901 168 m -3 X s 1904 176 m -6 X s 1901 185 m -3 X s 1901 194 m -3 X s 1901 202
 m -3 X s 1904 211 m -6 X s 1901 219 m -3 X s 1901 228 m -3 X s 1901 237 m -3 X s 1904 245 m -6 X s 1901 254 m -3 X s 1901 262 m -3 X s 1901 271 m -3 X s 1904 280 m -6 X s 1904 73 m -6 X s 1901 65 m -3 X s 1904 280 m -6 X s
 gsave  408 306 1837 13 C 1843.23 65.5245 t 0 r /Helvetica findfont 22.8295 sf 0 0 m (\2550.06) show NC gr 
 gsave  408 306 1837 13 C 1843.23 99.7112 t 0 r /Helvetica findfont 22.8295 sf 0 0 m (\2550.04) show NC gr 
 gsave  408 306 1837 13 C 1843.23 133.898 t 0 r /Helvetica findfont 22.8295 sf 0 0 m (\2550.02) show NC gr 
 gsave  408 306 1837 13 C 1880.27 168.085 t 0 r /Helvetica findfont 22.8295 sf 0 0 m (0) show NC gr 
 gsave  408 306 1837 13 C 1848.93 202.271 t 0 r /Helvetica findfont 22.8295 sf 0 0 m (0.02) show NC gr 
 gsave  408 306 1837 13 C 1848.93 239.307 t 0 r /Helvetica findfont 22.8295 sf 0 0 m (0.04) show NC gr 
 gsave  408 306 1837 13 C 1848.93 273.493 t 0 r /Helvetica findfont 22.8295 sf 0 0 m (0.06) show NC gr  2204 59 m 229 Y s 2199 73 m 5 X s 2201 82 m 3 X s 2201 90 m 3 X s 2201 99 m 3 X s 2199 108 m 5 X s 2201 116 m 3 X s 2201 125 m 3 X s 2201 133 m 3
 X s 2199 142 m 5 X s 2201 151 m 3 X s 2201 159 m 3 X s 2201 168 m 3 X s 2199 176 m 5 X s 2201 185 m 3 X s 2201 194 m 3 X s 2201 202 m 3 X s 2199 211 m 5 X s 2201 219 m 3 X s 2201 228 m 3 X s 2201 237 m 3 X s 2199 245 m 5 X s 2201 254 m 3 X s 2201
 262 m 3 X s 2201 271 m 3 X s 2199 280 m 5 X s 2199 73 m 5 X s 2201 65 m 3 X s 2199 280 m 5 X s 1923 215 1966 118 2008 218 2029 226 2071 149 2092 213 2134 155 2176 190 8 { m21} R 1923 227 m 30 Y s 1918 257 m 11 X s 1923 204 m -31 Y s 1918 173 m 11 X
 s 1966 130 m 29 Y s 1960 159 m 11 X s 1966 107 m -29 Y s 1960 78 m 11 X s 2008 229 m 32 Y s 2002 261 m 11 X s 2008 207 m -32 Y s 2002 175 m 11 X s 2029 238 m 31 Y s 2023 269 m 11 X s 2029 215 m -31 Y s 2023 184 m 11 X s 2071 160 m 30 Y s 2065 190 m
 12 X s 2071 137 m -30 Y s 2065 107 m 12 X s 2092 225 m 30 Y s 2086 255 m 12 X s 2092 202 m -31 Y s 2086 171 m 12 X s 2134 166 m 30 Y s 2129 196 m 11 X s 2134 143 m -30 Y s 2129 113 m 11 X s 2176 201 m 31 Y s 2171 232 m 11 X s 2176 179 m -31 Y s 2171
 148 m 11 X s 1 0 0 c 9 lw 0.95 0.95 0.95 c black 1 0 0 c 1900 190 m 3 X 3 -1 d 3 X 3 -1 d 3 X 3 -1 d 3 X 3 -1 d 3 X 3 -1 d 3 X 3 -1 d 3 X 3 -1 d 7 X 3 -1 d 6 X 3 -1 d 6 X 3 -1 d 6 X 3 -1 d 9 X 3 -1 d 16 X 3 -1 d 24 X 3 -1 d 13 X s 2050 176 m 12 X 3
 1 d 24 X 3 1 d 16 X 3 1 d 9 X 3 1 d 6 X 3 1 d 6 X 3 1 d 7 X 3 1 d 6 X 3 1 d 3 X 3 1 d 3 X 3 1 d 3 X 3 1 d 3 X 3 1 d 3 X 3 1 d 4 X 3 1 d 3 X s 2200 190 m 3 1 d s 0.49 0.6 0.82 c black 0.49 0.6 0.82 c
 gsave  408 306 1837 13 C 1948.64 296.285 t 0 r /Helvetica-Bold findfont 25.6831 sf 0 0 m (9.5 < E < 10.0 GeV) show NC gr  0.52 0.76 0.64 c black 0.52 0.76 0.64 c
 gsave  408 306 1837 13 C 1942.94 259.249 t 0 r /Helvetica-Bold findfont 25.6831 sf 0 0 m 
 220 206 192 185 170 163 148 141 126 118 111 97 83 69 61 47 40 25 18
(A = 0.016, p = 2.000) K NC gr  1 0.6 1 c black 1 0.6 1 c
 gsave  408 306 1837 13 C 2242.08 128.2 t 90 r /Helvetica-Bold findfont 28.5368 sf 0 0 m (/dof=1.0) show NC gr  black 1 0.6 1 c
 gsave  408 306 1837 13 C 2230.68 116.804 t 90 r /Helvetica-Bold findfont 19.9758 sf 0 0 m (2) show NC gr  black 1 0.6 1 c
 gsave  408 306 1837 13 C 2242.08 99.7112 t 90 r /Symbol findfont 28.5368 sf 0 0 m (c) show NC gr 
 gr  gr showpage
end
%%EOF
