%!PS-Adobe-2.0 EPSF-2.0
%%BoundingBox:  0 0 567 332
%%Title: BeamSigmaY_near_summary.eps: Summary
%%Creator: ROOT Version 5.30/06
%%CreationDate: Sun Feb  2 09:41:32 2014
%%EndComments
%%BeginProlog
80 dict begin
/s {stroke} def /l {lineto} def /m {moveto} def /t {translate} def
/r {rotate} def /rl {roll}  def /R {repeat} def
/d {rlineto} def /rm {rmoveto} def /gr {grestore} def /f {eofill} def
/c {setrgbcolor} def /black {0 setgray} def /sd {setdash} def
/cl {closepath} def /sf {scalefont setfont} def /lw {setlinewidth} def
/box {m dup 0 exch d exch 0 d 0 exch neg d cl} def
/NC{systemdict begin initclip end}def/C{NC box clip newpath}def
/bl {box s} def /bf {box f} def /Y { 0 exch d} def /X { 0 d} def 
/K {{pop pop 0 moveto} exch kshow} bind def
/ita {/ang 15 def gsave [1 0 ang dup sin exch cos div 1 0 0] concat} def 
/mp {newpath /y exch def /x exch def} def
/side {[w .77 mul w .23 mul] .385 w mul sd w 0 l currentpoint t -144 r} def
/mr {mp x y w2 0 360 arc} def /m24 {mr s} def /m20 {mr f} def
/mb {mp x y w2 add m w2 neg 0 d 0 w neg d w 0 d 0 w d cl} def
/mt {mp x y w2 add m w2 neg w neg d w 0 d cl} def
/m21 {mb f} def /m25 {mb s} def /m22 {mt f} def /m26{mt s} def
/m23 {mp x y w2 sub m w2 w d w neg 0 d cl f} def
/m27 {mp x y w2 add m w3 neg w2 neg d w3 w2 neg d w3 w2 d cl s} def
/m28 {mp x w2 sub y w2 sub w3 add m w3 0 d  0 w3 neg d w3 0 d 0 w3 d w3 0 d  0 w3 d w3 neg 0 d 0 w3 d w3 neg 0 d 0 w3 neg d w3 neg 0 d cl s } def
/m29 {mp gsave x w2 sub y w2 add w3 sub m currentpoint t 4 {side} repeat cl fill gr} def
/m30 {mp gsave x w2 sub y w2 add w3 sub m currentpoint t 4 {side} repeat cl s gr} def
/m31 {mp x y w2 sub m 0 w d x w2 sub y m w 0 d x w2 sub y w2 add m w w neg d x w2 sub y w2 sub m w w d s} def
/m32 {mp x y w2 sub m w2 w d w neg 0 d cl s} def
/m33 {mp x y w2 add m w3 neg w2 neg d w3 w2 neg d w3 w2 d cl f} def
/m34 {mp x w2 sub y w2 sub w3 add m w3 0 d  0 w3 neg d w3 0 d 0 w3 d w3 0 d  0 w3 d w3 neg 0 d 0 w3 d w3 neg 0 d 0 w3 neg d w3 neg 0 d cl f } def
/m2 {mp x y w2 sub m 0 w d x w2 sub y m w 0 d s} def
/m5 {mp x w2 sub y w2 sub m w w d x w2 sub y w2 add m w w neg d s} def
/reEncode {exch findfont dup length dict begin {1 index /FID eq  {pop pop} {def} ifelse } forall /Encoding exch def currentdict end dup /FontName get exch definefont pop } def [/Times-Bold /Times-Italic /Times-BoldItalic /Helvetica /Helvetica-Oblique
 /Helvetica-Bold /Helvetica-BoldOblique /Courier /Courier-Oblique /Courier-Bold /Courier-BoldOblique /Times-Roman /AvantGarde-Book /AvantGarde-BookOblique /AvantGarde-Demi /AvantGarde-DemiOblique /Bookman-Demi /Bookman-DemiItalic /Bookman-Light
 /Bookman-LightItalic /Helvetica-Narrow /Helvetica-Narrow-Bold /Helvetica-Narrow-BoldOblique /Helvetica-Narrow-Oblique /NewCenturySchlbk-Roman /NewCenturySchlbk-Bold /NewCenturySchlbk-BoldItalic /NewCenturySchlbk-Italic /Palatino-Bold
 /Palatino-BoldItalic /Palatino-Italic /Palatino-Roman ] {ISOLatin1Encoding reEncode } forall%%EndProlog
%%BeginSetup
%%EndSetup
newpath  gsave  .25 .25 scale  gsave  0 0 t black[  ] 0 sd 3 lw 1 1 1 c 2268 1328 0 0 bf black 1 1 1 c black 1588 996 340 199 bl 1588 996 340 199 bl 1 1 1 c 1 0 0 c /w 23 def /w2 {w 2 div} def /w3 {w 3 div} def 380 258 m21 459 257 m21 539 257 m21 618
 252 m21 697 256 m21 777 254 m21 856 262 m21 935 268 m21 1015 263 m21 1094 249 m21 1174 231 m21 black 1253 211 m 3 Y s 1253 237 m 2 Y s 1247 211 m 12 X s 1247 239 m 12 X s 1 0 0 c 1253 225 m21 black 1332 237 m 6 Y s 1332 266 m 5 Y s 1327 237 m 11 X s
 1327 271 m 11 X s 1 0 0 c 1332 254 m21 black 1412 244 m 7 Y s 1412 274 m 8 Y s 1406 244 m 11 X s 1406 282 m 11 X s 1 0 0 c 1412 263 m21 black 1491 214 m 9 Y s 1491 246 m 9 Y s 1485 214 m 12 X s 1485 255 m 12 X s 1 0 0 c 1491 235 m21 black 1570 275 m
 12 Y s 1570 310 m 12 Y s 1565 275 m 11 X s 1565 322 m 11 X s 1 0 0 c 1570 299 m21 black 1650 223 m 12 Y s 1650 258 m 13 Y s 1644 223 m 11 X s 1644 271 m 11 X s 1 0 0 c 1650 247 m21 black 1729 199 m s 1729 222 m 13 Y s 1723 199 m 12 X s 1723 235 m 12
 X s 1 0 0 c 1729 211 m21 black 1809 253 m 17 Y s 1809 293 m 16 Y s 1803 253 m 11 X s 1803 309 m 11 X s 1 0 0 c 1809 281 m21 black 1888 252 m 18 Y s 1888 293 m 17 Y s 1882 252 m 12 X s 1882 310 m 12 X s 1 0 0 c 1888 281 m21 black 340 199 m 1588 X s
 gsave  2268 1328 0 0 C 954.378 68.3734 t 0 r /Helvetica findfont 62.6756 sf 0 0 m ( Energy \(GeV\) ) show NC gr 
 gsave  2268 1328 0 0 C 928.738 51.28 t 0 r /Symbol findfont 42.7334 sf 0 0 m (m) show NC gr 
 gsave  2268 1328 0 0 C 894.552 68.3734 t 0 r /Symbol findfont 62.6756 sf 0 0 m (n) show NC gr  340 216 m -17 Y s 372 208 m -9 Y s 404 208 m -9 Y s 435 208 m -9 Y s 467 208 m -9 Y s 499 216 m -17 Y s 531 208 m -9 Y s 562 208 m -9 Y s 594 208 m -9 Y s
 626 208 m -9 Y s 658 216 m -17 Y s 689 208 m -9 Y s 721 208 m -9 Y s 753 208 m -9 Y s 785 208 m -9 Y s 816 216 m -17 Y s 848 208 m -9 Y s 880 208 m -9 Y s 912 208 m -9 Y s 943 208 m -9 Y s 975 216 m -17 Y s 1007 208 m -9 Y s 1039 208 m -9 Y s 1070
 208 m -9 Y s 1102 208 m -9 Y s 1134 216 m -17 Y s 1166 208 m -9 Y s 1197 208 m -9 Y s 1229 208 m -9 Y s 1261 208 m -9 Y s 1293 216 m -17 Y s 1324 208 m -9 Y s 1356 208 m -9 Y s 1388 208 m -9 Y s 1420 208 m -9 Y s 1451 216 m -17 Y s 1483 208 m -9 Y s
 1515 208 m -9 Y s 1547 208 m -9 Y s 1578 208 m -9 Y s 1610 216 m -17 Y s 1642 208 m -9 Y s 1674 208 m -9 Y s 1705 208 m -9 Y s 1737 208 m -9 Y s 1769 216 m -17 Y s 1801 208 m -9 Y s 1832 208 m -9 Y s 1864 208 m -9 Y s 1896 208 m -9 Y s 1928 216 m
 -17 Y s
 gsave  2268 1328 0 0 C 319.076 136.747 t 0 r /Helvetica findfont 68.3734 sf 0 0 m (0) show NC gr 
 gsave  2268 1328 0 0 C 484.311 136.747 t 0 r /Helvetica findfont 68.3734 sf 0 0 m (1) show NC gr 
 gsave  2268 1328 0 0 C 635.302 136.747 t 0 r /Helvetica findfont 68.3734 sf 0 0 m (2) show NC gr 
 gsave  2268 1328 0 0 C 794.84 136.747 t 0 r /Helvetica findfont 68.3734 sf 0 0 m (3) show NC gr 
 gsave  2268 1328 0 0 C 954.378 136.747 t 0 r /Helvetica findfont 68.3734 sf 0 0 m (4) show NC gr 
 gsave  2268 1328 0 0 C 1113.92 136.747 t 0 r /Helvetica findfont 68.3734 sf 0 0 m (5) show NC gr 
 gsave  2268 1328 0 0 C 1270.6 136.747 t 0 r /Helvetica findfont 68.3734 sf 0 0 m (6) show NC gr 
 gsave  2268 1328 0 0 C 1430.14 136.747 t 0 r /Helvetica findfont 68.3734 sf 0 0 m (7) show NC gr 
 gsave  2268 1328 0 0 C 1589.68 136.747 t 0 r /Helvetica findfont 68.3734 sf 0 0 m (8) show NC gr 
 gsave  2268 1328 0 0 C 1746.37 136.747 t 0 r /Helvetica findfont 68.3734 sf 0 0 m (9) show NC gr 
 gsave  2268 1328 0 0 C 1888.81 136.747 t 0 r /Helvetica findfont 68.3734 sf 0 0 m (10) show NC gr  340 1195 m 1588 X s 340 1178 m 17 Y s 372 1186 m 9 Y s 404 1186 m 9 Y s 435 1186 m 9 Y s 467 1186 m 9 Y s 499 1178 m 17 Y s 531 1186 m 9 Y s 562 1186
 m 9 Y s 594 1186 m 9 Y s 626 1186 m 9 Y s 658 1178 m 17 Y s 689 1186 m 9 Y s 721 1186 m 9 Y s 753 1186 m 9 Y s 785 1186 m 9 Y s 816 1178 m 17 Y s 848 1186 m 9 Y s 880 1186 m 9 Y s 912 1186 m 9 Y s 943 1186 m 9 Y s 975 1178 m 17 Y s 1007 1186 m 9 Y s
 1039 1186 m 9 Y s 1070 1186 m 9 Y s 1102 1186 m 9 Y s 1134 1178 m 17 Y s 1166 1186 m 9 Y s 1197 1186 m 9 Y s 1229 1186 m 9 Y s 1261 1186 m 9 Y s 1293 1178 m 17 Y s 1324 1186 m 9 Y s 1356 1186 m 9 Y s 1388 1186 m 9 Y s 1420 1186 m 9 Y s 1451 1178 m
 17 Y s 1483 1186 m 9 Y s 1515 1186 m 9 Y s 1547 1186 m 9 Y s 1578 1186 m 9 Y s 1610 1178 m 17 Y s 1642 1186 m 9 Y s 1674 1186 m 9 Y s 1705 1186 m 9 Y s 1737 1186 m 9 Y s 1769 1178 m 17 Y s 1801 1186 m 9 Y s 1832 1186 m 9 Y s 1864 1186 m 9 Y s 1896
 1186 m 9 Y s 1928 1178 m 17 Y s 340 199 m 996 Y s
 gsave  2268 1328 0 0 C 170.933 324.773 t 90 r /Helvetica findfont 62.6756 sf 0 0 m (Near Flux Ratio to Nominal) show NC gr  371 258 m -31 X s 355 281 m -15 X s 355 305 m -15 X s 355 328 m -15 X s 355 351 m -15 X s 371 375 m -31 X s 355 398 m -15 X s
 355 422 m -15 X s 355 445 m -15 X s 355 469 m -15 X s 371 492 m -31 X s 355 515 m -15 X s 355 539 m -15 X s 355 562 m -15 X s 355 586 m -15 X s 371 609 m -31 X s 355 633 m -15 X s 355 656 m -15 X s 355 679 m -15 X s 355 703 m -15 X s 371 726 m -31 X
 s 355 750 m -15 X s 355 773 m -15 X s 355 797 m -15 X s 355 820 m -15 X s 371 843 m -31 X s 355 867 m -15 X s 355 890 m -15 X s 355 914 m -15 X s 355 937 m -15 X s 371 961 m -31 X s 355 984 m -15 X s 355 1007 m -15 X s 355 1031 m -15 X s 355 1054 m
 -15 X s 371 1078 m -31 X s 355 1101 m -15 X s 355 1125 m -15 X s 355 1148 m -15 X s 355 1171 m -15 X s 371 1195 m -31 X s 371 258 m -31 X s 355 234 m -15 X s 355 211 m -15 X s
 gsave  2268 1328 0 0 C 301.982 230.76 t 0 r /Helvetica findfont 68.3734 sf 0 0 m (1) show NC gr 
 gsave  2268 1328 0 0 C 245.005 347.565 t 0 r /Helvetica findfont 68.3734 sf 0 0 m (1.1) show NC gr 
 gsave  2268 1328 0 0 C 233.609 464.369 t 0 r /Helvetica findfont 68.3734 sf 0 0 m (1.2) show NC gr 
 gsave  2268 1328 0 0 C 233.609 584.022 t 0 r /Helvetica findfont 68.3734 sf 0 0 m (1.3) show NC gr 
 gsave  2268 1328 0 0 C 233.609 697.978 t 0 r /Helvetica findfont 68.3734 sf 0 0 m (1.4) show NC gr 
 gsave  2268 1328 0 0 C 233.609 820.48 t 0 r /Helvetica findfont 68.3734 sf 0 0 m (1.5) show NC gr 
 gsave  2268 1328 0 0 C 233.609 937.285 t 0 r /Helvetica findfont 68.3734 sf 0 0 m (1.6) show NC gr 
 gsave  2268 1328 0 0 C 233.609 1051.24 t 0 r /Helvetica findfont 68.3734 sf 0 0 m (1.7) show NC gr 
 gsave  2268 1328 0 0 C 233.609 1170.89 t 0 r /Helvetica findfont 68.3734 sf 0 0 m (1.8) show NC gr  1928 199 m 996 Y s 1897 258 m 31 X s 1912 281 m 16 X s 1912 305 m 16 X s 1912 328 m 16 X s 1912 351 m 16 X s 1897 375 m 31 X s 1912 398 m 16 X s 1912
 422 m 16 X s 1912 445 m 16 X s 1912 469 m 16 X s 1897 492 m 31 X s 1912 515 m 16 X s 1912 539 m 16 X s 1912 562 m 16 X s 1912 586 m 16 X s 1897 609 m 31 X s 1912 633 m 16 X s 1912 656 m 16 X s 1912 679 m 16 X s 1912 703 m 16 X s 1897 726 m 31 X s
 1912 750 m 16 X s 1912 773 m 16 X s 1912 797 m 16 X s 1912 820 m 16 X s 1897 843 m 31 X s 1912 867 m 16 X s 1912 890 m 16 X s 1912 914 m 16 X s 1912 937 m 16 X s 1897 961 m 31 X s 1912 984 m 16 X s 1912 1007 m 16 X s 1912 1031 m 16 X s 1912 1054 m
 16 X s 1897 1078 m 31 X s 1912 1101 m 16 X s 1912 1125 m 16 X s 1912 1148 m 16 X s 1912 1171 m 16 X s 1897 1195 m 31 X s 1897 258 m 31 X s 1912 234 m 16 X s 1912 211 m 16 X s 1 0 0 c 6 lw 1 1 1 c 1 0 0 c 380 259 m 15 -1 d 15 -1 d 16 -1 d 15 -1 d 63
 X 21 1 d 29 X 47 -1 d 34 X 30 1 d 121 X 10 1 d 14 2 d 24 2 d 12 1 d 10 1 d 24 1 d 14 X 13 1 d 19 X 9 -1 d 8 X 72 -10 d 15 -2 d 23 -2 d 23 -2 d 14 -1 d 4 -1 d 13 -1 d 41 -6 d 15 -2 d 11 -2 d 7 -1 d 9 -1 d 22 -4 d 6 -1 d 5 X 6 -1 d 15 X 4 1 d 5 X 3 1
 d 3 1 d 3 1 d 4 1 d 3 2 d 4 2 d 4 3 d 5 3 d 6 5 d 10 8 d 5 4 d 4 2 d 4 2 d 3 2 d 3 2 d 3 1 d 3 1 d 3 1 d 3 X 3 1 d 12 X 4 -1 d 4 -1 d 5 X 5 -2 d 5 -1 d 45 -16 d 5 -2 d 5 -2 d 7 -2 d 24 -10 d 6 -2 d 5 -2 d 4 -1 d 3 X 4 -1 d 4 X 4 -1 d 3 X 3 1 d 5 X 2
 1 d 3 1 d 2 1 d 2 1 d 3 1 d 2 2 d 3 2 d 2 2 d 3 3 d 3 3 d 3 4 d 3 5 d 8 12 d 4 5 d 3 4 d 2 3 d 3 3 d 2 3 d 2 2 d 3 2 d 3 1 d 2 1 d 2 1 d 3 1 d 2 1 d 3 1 d 13 X 3 -1 d 3 -1 d 4 -1 d 3 -1 d 4 -2 d 4 -2 d 4 -2 d 5 -3 d 6 -3 d 17 -12 d 5 -3 d 4 -3 d 4
 -2 d 4 -1 d 5 -3 d 6 -2 d 7 -4 d 18 -10 d 6 -4 d 5 -2 d 4 -2 d 5 -1 d 3 -1 d 4 -1 d 3 -1 d 16 X 3 1 d 3 1 d 3 X 3 2 d 3 1 d 3 2 d 3 2 d 3 2 d 3 3 d 4 4 d 5 5 d 10 11 d 4 4 d 3 3 d 4 3 d 2 2 d 3 3 d 3 1 d 3 2 d 3 1 d 3 2 d 3 X 5 2 d 5 1 d 6 1 d 5 1 d
 6 1 d 6 1 d 6 X 6 1 d 5 X 7 -1 d 6 X 6 -1 d 5 X s 1883 287 m 5 -1 d s 3 lw /w 2 def /w2 {w 2 div} def /w3 {w 3 div} def 380 259 459 255 539 256 618 255 697 256 777 256 856 263 935 264 1015 254 1094 246 1174 235 1253 228 1332 271 1412 250 1491 228
 1570 294 1650 257 1729 226 1809 281 1888 286 20 { m20} R 6 lw black 1 0 0 c
 gsave  2268 1328 0 0 C 2036.96 242.156 t 0 r /Helvetica-Bold findfont 48.4311 sf 0 0 m (/dof=0.4) show NC gr  black 1 0 0 c
 gsave  2268 1328 0 0 C 2017.01 259.249 t 0 r /Helvetica-Bold findfont 34.1867 sf 0 0 m (2) show NC gr  black 1 0 0 c
 gsave  2268 1328 0 0 C 1991.37 242.156 t 0 r /Symbol findfont 48.4311 sf 0 0 m (c) show NC gr  black 3 lw 340 258 m 1588 X s
 gsave  2268 1328 0 0 C 196.573 1213.63 t 0 r /Helvetica-Bold findfont 42.7334 sf 0 0 m (0.7 mm) show NC gr  1 0 0 c /w 23 def /w2 {w 2 div} def /w3 {w 3 div} def 156 1228 m21 black 1 1 1 c 0 0 1 c 380 381 m21 459 376 m21 539 371 m21 618 375 m21 697
 371 m21 777 373 m21 856 389 m21 935 380 m21 1015 362 m21 1094 377 m21 black 1174 362 m 1 Y s 1174 386 m 1 Y s 1168 362 m 11 X s 1168 387 m 11 X s 0 0 1 c 1174 374 m21 black 1253 337 m 4 Y s 1253 364 m 4 Y s 1247 337 m 12 X s 1247 368 m 12 X s 0 0 1
 c 1253 352 m21 black 1332 379 m 7 Y s 1332 409 m 8 Y s 1327 379 m 11 X s 1327 417 m 11 X s 0 0 1 c 1332 398 m21 black 1412 333 m 9 Y s 1412 365 m 10 Y s 1406 333 m 11 X s 1406 375 m 11 X s 0 0 1 c 1412 354 m21 black 1491 328 m 12 Y s 1491 362 m 12 Y
 s 1485 328 m 12 X s 1485 374 m 12 X s 0 0 1 c 1491 351 m21 black 1570 378 m 14 Y s 1570 415 m 14 Y s 1565 378 m 11 X s 1565 429 m 11 X s 0 0 1 c 1570 403 m21 black 1650 378 m 15 Y s 1650 416 m 15 Y s 1644 378 m 11 X s 1644 431 m 11 X s 0 0 1 c 1650
 404 m21 black 1729 317 m 16 Y s 1729 356 m 16 Y s 1723 317 m 12 X s 1723 372 m 12 X s 0 0 1 c 1729 344 m21 black 1809 371 m 19 Y s 1809 413 m 19 Y s 1803 371 m 11 X s 1803 432 m 11 X s 0 0 1 c 1809 402 m21 black 1888 374 m 20 Y s 1888 417 m 20 Y s
 1882 374 m 12 X s 1882 437 m 12 X s 0 0 1 c 1888 406 m21 6 lw 1 1 1 c 0 0 1 c 380 376 m 18 -1 d 17 X 16 -1 d 28 X 13 -1 d 16 X 37 1 d 28 X 55 -1 d 44 X 29 1 d 104 X 10 1 d 13 1 d 26 1 d 11 1 d 9 X 2 1 d 24 X 14 1 d 41 X 8 -1 d 8 X 64 -6 d 30 -2 d 29
 -3 d 20 -2 d 15 -1 d 25 -3 d 19 -2 d 12 -1 d 9 -1 d 6 X 9 -1 d 22 -3 d 7 X 5 -1 d 30 X 3 1 d 3 X 3 1 d 3 1 d 4 1 d 3 1 d 4 1 d 4 2 d 4 2 d 14 7 d 4 3 d 4 2 d 4 1 d 3 1 d 3 1 d 4 1 d 3 1 d 3 X 3 1 d 29 X 5 -1 d 6 -1 d 6 -1 d 8 -1 d 26 -6 d 3 X 4 -1 d
 4 -1 d 5 -1 d 6 -2 d 17 -6 d 7 -2 d 5 -1 d 4 -1 d 4 -1 d 4 -1 d 3 X 3 -1 d 16 X 2 1 d 5 X 2 1 d 3 1 d 2 1 d 3 1 d 2 1 d 3 2 d 2 1 d 3 3 d 4 2 d 4 4 d 6 6 d 4 3 d 2 2 d 3 2 d 2 2 d 3 1 d 3 1 d 2 1 d 2 1 d 3 1 d 2 X 3 1 d 3 X 2 1 d 12 X 3 -1 d 4 X 4
 -1 d 4 -1 d 4 -1 d 5 -1 d 5 -1 d 7 -2 d 10 -4 d 10 -3 d 6 -2 d 4 -1 d 3 -1 d 4 -1 d 5 -1 d 4 -2 d 6 -2 d 18 -8 d 6 -2 d 4 -1 d 4 -2 d 4 -1 d 3 -1 d 3 X 4 -1 d 7 X 3 -1 d 4 X 3 1 d 5 X 3 1 d 3 X 3 1 d 3 1 d 2 1 d 3 2 d 4 1 d 3 2 d 4 3 d 5 3 d 7 5 d 4
 3 d 4 2 d 3 2 d 3 2 d 3 1 d 3 1 d 2 1 d 3 1 d 3 1 d 4 X 5 1 d 5 1 d 5 1 d s 1824 389 m 6 X 6 1 d 11 X 6 1 d 6 X 6 -1 d 11 X 6 -1 d 6 X s 3 lw /w 2 def /w2 {w 2 div} def /w3 {w 3 div} def 380 376 459 374 539 374 618 373 697 374 777 374 856 379 935
 380 1015 373 1094 366 1174 358 1253 353 1332 381 1412 371 1491 353 1570 393 1650 374 1729 351 1809 386 1888 389 20 { m20} R 6 lw black 0 0 1 c
 gsave  2268 1328 0 0 C 2039.81 364.658 t 0 r /Helvetica-Bold findfont 48.4311 sf 0 0 m (/dof=1.1) show NC gr  black 0 0 1 c
 gsave  2268 1328 0 0 C 2019.86 381.751 t 0 r /Helvetica-Bold findfont 34.1867 sf 0 0 m (2) show NC gr  black 0 0 1 c
 gsave  2268 1328 0 0 C 1994.22 364.658 t 0 r /Symbol findfont 48.4311 sf 0 0 m (c) show NC gr  black 3 lw 340 375 m 1588 X s
 gsave  2268 1328 0 0 C 424.485 1213.63 t 0 r /Helvetica-Bold findfont 42.7334 sf 0 0 m (0.9 mm) show NC gr  0 0 1 c /w 23 def /w2 {w 2 div} def /w3 {w 3 div} def 383 1228 m21 black 1 1 1 c 1 0 1 c 380 490 m21 459 491 m21 539 490 m21 618 486 m21 697
 492 m21 777 492 m21 856 498 m21 935 498 m21 1015 476 m21 1094 490 m21 black 1174 460 m 2 Y s 1174 485 m 2 Y s 1168 460 m 11 X s 1168 487 m 11 X s 1 0 1 c 1174 473 m21 black 1253 448 m 6 Y s 1253 476 m 6 Y s 1247 448 m 12 X s 1247 482 m 12 X s 1 0 1
 c 1253 465 m21 black 1332 489 m 9 Y s 1332 521 m 9 Y s 1327 489 m 11 X s 1327 530 m 11 X s 1 0 1 c 1332 509 m21 black 1412 430 m 11 Y s 1412 464 m 11 Y s 1406 430 m 11 X s 1406 475 m 11 X s 1 0 1 c 1412 453 m21 black 1491 413 m 13 Y s 1491 449 m 13
 Y s 1485 413 m 12 X s 1485 462 m 12 X s 1 0 1 c 1491 438 m21 black 1570 466 m 16 Y s 1570 505 m 16 Y s 1565 466 m 11 X s 1565 521 m 11 X s 1 0 1 c 1570 493 m21 black 1650 442 m 17 Y s 1650 482 m 17 Y s 1644 442 m 11 X s 1644 499 m 11 X s 1 0 1 c
 1650 471 m21 black 1729 448 m 19 Y s 1729 490 m 19 Y s 1723 448 m 12 X s 1723 509 m 12 X s 1 0 1 c 1729 478 m21 black 1809 488 m 22 Y s 1809 532 m 22 Y s 1803 488 m 11 X s 1803 554 m 11 X s 1 0 1 c 1809 521 m21 black 1888 416 m 21 Y s 1888 460 m 21
 Y s 1882 416 m 12 X s 1882 481 m 12 X s 1 0 1 c 1888 448 m21 6 lw 1 1 1 c 1 0 1 c 380 493 m 20 -1 d 73 X 22 -1 d 165 X 20 1 d 124 X 16 1 d 16 X 10 1 d 34 X 13 1 d 42 X 8 -1 d 28 X 44 -3 d 13 X 19 -1 d 47 -3 d 15 X 43 -3 d 11 X 11 -1 d 6 X 9 -1 d 22
 -1 d 6 X 6 -1 d 33 X 3 1 d 6 X 3 1 d 3 X 3 1 d 4 X 4 1 d 4 1 d 13 4 d 4 1 d 4 X 3 1 d 3 1 d 4 X 3 1 d 6 X 3 1 d 42 X 6 -1 d 13 X 9 -1 d 13 -1 d 3 X 3 -1 d 4 X 4 -1 d 4 X 4 -1 d 5 -1 d 17 -3 d 4 -1 d 3 -1 d 4 X 4 -1 d 5 X 3 -1 d 20 X 2 1 d 7 X 3 1 d
 2 X 3 1 d 2 1 d 3 1 d 3 1 d 4 1 d 8 3 d 4 1 d 2 1 d 3 1 d 3 1 d 2 X 3 1 d 2 X 3 1 d 5 X 2 1 d 30 X 5 -1 d 10 X 5 -1 d 7 X 28 -3 d 3 -1 d 3 X 4 -1 d 4 X 4 -1 d 4 -1 d 16 -4 d 5 -1 d 4 -1 d 3 X 4 -1 d 3 X 3 -1 d 9 X 3 -1 d 15 X 3 1 d 5 X 2 1 d 6 X 3 1
 d 2 1 d 4 1 d 3 1 d 4 1 d 8 3 d 4 1 d 4 1 d 3 1 d 2 1 d 3 X 3 1 d 6 X 2 1 d s 1804 495 m 5 X 5 1 d 15 X 6 1 d 34 X 6 -1 d 13 X s 3 lw /w 2 def /w2 {w 2 div} def /w3 {w 3 div} def 380 493 459 492 539 491 618 491 697 492 777 492 856 494 935 495 1015
 491 1094 487 1174 483 1253 480 1332 494 1412 491 1491 480 1570 497 1650 492 1729 479 1809 495 1888 496 20 { m20} R 6 lw black 1 0 1 c
 gsave  2268 1328 0 0 C 2036.96 490.009 t 0 r /Helvetica-Bold findfont 48.4311 sf 0 0 m (/dof=1.0) show NC gr  black 1 0 1 c
 gsave  2268 1328 0 0 C 2017.01 507.102 t 0 r /Helvetica-Bold findfont 34.1867 sf 0 0 m (2) show NC gr  black 1 0 1 c
 gsave  2268 1328 0 0 C 1991.37 490.009 t 0 r /Symbol findfont 48.4311 sf 0 0 m (c) show NC gr  black 3 lw 340 492 m 1588 X s
 gsave  2268 1328 0 0 C 649.547 1213.63 t 0 r /Helvetica-Bold findfont 39.8845 sf 0 0 m (1.1 mm) show NC gr  1 0 1 c /w 23 def /w2 {w 2 div} def /w3 {w 3 div} def 609 1228 m21 black 1 1 1 c 0 0.733333 1 c 380 607 m21 459 607 m21 539 612 m21 618 605
 m21 697 606 m21 777 610 m21 856 614 m21 935 613 m21 1015 602 m21 1094 605 m21 black 1174 594 m 4 Y s 1174 621 m 3 Y s 1168 594 m 11 X s 1168 624 m 11 X s 0 0.733333 1 c 1174 609 m21 black 1253 591 m 8 Y s 1253 621 m 8 Y s 1247 591 m 12 X s 1247 629
 m 12 X s 0 0.733333 1 c 1253 610 m21 black 1332 581 m 10 Y s 1332 614 m 11 Y s 1327 581 m 11 X s 1327 625 m 11 X s 0 0.733333 1 c 1332 603 m21 black 1412 559 m 13 Y s 1412 595 m 13 Y s 1406 559 m 11 X s 1406 608 m 11 X s 0 0.733333 1 c 1412 584 m21
 black 1491 586 m 16 Y s 1491 625 m 15 Y s 1485 586 m 12 X s 1485 640 m 12 X s 0 0.733333 1 c 1491 613 m21 black 1570 592 m 18 Y s 1570 633 m 17 Y s 1565 592 m 11 X s 1565 650 m 11 X s 0 0.733333 1 c 1570 621 m21 black 1650 602 m 20 Y s 1650 645 m 20
 Y s 1644 602 m 11 X s 1644 665 m 11 X s 0 0.733333 1 c 1650 633 m21 black 1729 565 m 21 Y s 1729 609 m 22 Y s 1723 565 m 12 X s 1723 631 m 12 X s 0 0.733333 1 c 1729 598 m21 black 1809 591 m 25 Y s 1809 638 m 25 Y s 1803 591 m 11 X s 1803 663 m 11 X
 s 0 0.733333 1 c 1809 627 m21 black 1888 613 m 27 Y s 1888 663 m 26 Y s 1882 613 m 12 X s 1882 689 m 12 X s 0 0.733333 1 c 1888 651 m21 6 lw 1 1 1 c 0 0.733333 1 c 380 610 m 27 -1 d 396 X 17 1 d 60 X 13 1 d 42 X 8 -1 d 48 X 24 -1 d 11 X 13 -1 d 55
 -1 d 14 -1 d 38 -1 d 11 X 10 -1 d 22 X 21 -1 d 58 X 3 1 d 7 X 3 1 d 4 X 6 1 d 8 1 d 4 X 4 1 d 3 X 3 1 d 15 X 3 1 d 59 X 7 -1 d 22 X 3 -1 d 9 X 4 -1 d 5 X 14 -2 d 4 -1 d 9 X 4 -1 d 40 X 2 1 d 5 X 3 1 d 3 X 4 1 d 9 1 d 4 1 d 3 X 3 1 d 5 X 3 1 d 15 X 5
 1 d 27 X 5 -1 d 25 X 8 -1 d 16 X 3 -1 d 10 X 3 -1 d 5 X 18 -3 d 4 X 3 -1 d 11 X 3 -1 d 23 X 3 1 d 13 X 3 1 d s 1758 604 m 3 X 3 1 d 4 X 9 2 d 4 X 3 1 d 3 X 3 1 d 8 X 3 1 d 23 X 5 1 d 44 X 6 -1 d 9 X s 3 lw /w 2 def /w2 {w 2 div} def /w3 {w 3 div}
 def 380 610 459 609 539 609 618 609 697 609 777 609 856 610 935 611 1015 609 1094 607 1174 604 1253 603 1332 610 1412 609 1491 603 1570 610 1650 609 1729 602 1809 610 1888 610 20 { m20} R 6 lw black 0 0.733333 1 c
 gsave  2268 1328 0 0 C 2036.96 615.36 t 0 r /Helvetica-Bold findfont 48.4311 sf 0 0 m (/dof=0.5) show NC gr  black 0 0.733333 1 c
 gsave  2268 1328 0 0 C 2017.01 632.454 t 0 r /Helvetica-Bold findfont 34.1867 sf 0 0 m (2) show NC gr  black 0 0.733333 1 c
 gsave  2268 1328 0 0 C 1991.37 615.36 t 0 r /Symbol findfont 48.4311 sf 0 0 m (c) show NC gr  black 3 lw 340 609 m 1588 X s
 gsave  2268 1328 0 0 C 877.458 1213.63 t 0 r /Helvetica-Bold findfont 39.8845 sf 0 0 m (1.2 mm) show NC gr  0 0.733333 1 c /w 23 def /w2 {w 2 div} def /w3 {w 3 div} def 836 1228 m21 black 1 1 1 c 0.35 0.83 0.33 c 380 725 m21 459 729 m21 539 729 m21
 618 722 m21 697 728 m21 777 721 m21 856 730 m21 935 729 m21 1015 727 m21 black 1094 733 m 1 Y s 1094 757 m 1 Y s 1088 733 m 12 X s 1088 758 m 12 X s 0.35 0.83 0.33 c 1094 745 m21 black 1174 719 m 5 Y s 1174 747 m 5 Y s 1168 719 m 11 X s 1168 752 m
 11 X s 0.35 0.83 0.33 c 1174 735 m21 black 1253 694 m 8 Y s 1253 725 m 9 Y s 1247 694 m 12 X s 1247 734 m 12 X s 0.35 0.83 0.33 c 1253 714 m21 black 1332 722 m 13 Y s 1332 758 m 12 Y s 1327 722 m 11 X s 1327 770 m 11 X s 0.35 0.83 0.33 c 1332 746
 m21 black 1412 693 m 15 Y s 1412 731 m 15 Y s 1406 693 m 11 X s 1406 746 m 11 X s 0.35 0.83 0.33 c 1412 719 m21 black 1491 683 m 18 Y s 1491 724 m 17 Y s 1485 683 m 12 X s 1485 741 m 12 X s 0.35 0.83 0.33 c 1491 712 m21 black 1570 732 m 21 Y s 1570
 776 m 21 Y s 1565 732 m 11 X s 1565 797 m 11 X s 0.35 0.83 0.33 c 1570 765 m21 black 1650 735 m 23 Y s 1650 780 m 23 Y s 1644 735 m 11 X s 1644 803 m 11 X s 0.35 0.83 0.33 c 1650 769 m21 black 1729 765 m 26 Y s 1729 814 m 26 Y s 1723 765 m 12 X s
 1723 840 m 12 X s 0.35 0.83 0.33 c 1729 803 m21 black 1809 731 m 27 Y s 1809 781 m 28 Y s 1803 731 m 11 X s 1803 809 m 11 X s 0.35 0.83 0.33 c 1809 770 m21 black 1888 674 m 28 Y s 1888 725 m 28 Y s 1882 674 m 12 X s 1882 753 m 12 X s 0.35 0.83 0.33
 c 1888 714 m21 6 lw 1 1 1 c 0.35 0.83 0.33 c 380 726 m 102 X 43 1 d 127 X 26 -1 d 129 X 33 -1 d 145 X 11 1 d 27 X 8 1 d 25 X 23 1 d 11 1 d 4 X 38 1 d 14 1 d 28 X 6 1 d 9 X 17 1 d 60 X 3 -1 d 11 X 4 -1 d 6 -1 d 15 -1 d 4 -1 d 8 X 4 -1 d 18 X 7 -1 d
 74 X 3 1 d 9 X 3 1 d 4 X 4 1 d 5 X 7 1 d 4 1 d 3 X 3 1 d 6 X 3 1 d 39 X 57 -5 d 12 -1 d 22 X 6 -1 d 40 X 3 1 d 14 X 3 1 d 3 X 3 1 d 4 X 5 1 d 8 1 d 4 1 d 6 X 3 1 d 10 X 3 1 d 19 X 3 -1 d 14 X 3 -1 d 4 X 5 -1 d 14 -2 d 7 X 3 -1 d 9 X 3 -1 d 11 X s
 1814 727 m 74 X s 3 lw /w 2 def /w2 {w 2 div} def /w3 {w 3 div} def 380 726 459 726 539 727 618 727 697 726 777 726 856 725 935 725 1015 726 1094 729 1174 731 1253 733 1332 727 1412 726 1491 733 1570 728 1650 726 1729 734 1809 727 1888 727 20 { m20}
 R 6 lw black 0.35 0.83 0.33 c
 gsave  2268 1328 0 0 C 2036.96 740.711 t 0 r /Helvetica-Bold findfont 48.4311 sf 0 0 m (/dof=0.8) show NC gr  black 0.35 0.83 0.33 c
 gsave  2268 1328 0 0 C 2017.01 757.805 t 0 r /Helvetica-Bold findfont 34.1867 sf 0 0 m (2) show NC gr  black 0.35 0.83 0.33 c
 gsave  2268 1328 0 0 C 1991.37 740.711 t 0 r /Symbol findfont 48.4311 sf 0 0 m (c) show NC gr  black 3 lw 340 726 m 1588 X s
 gsave  2268 1328 0 0 C 1105.37 1213.63 t 0 r /Helvetica-Bold findfont 39.8845 sf 0 0 m (1.4 mm) show NC gr  0.35 0.83 0.33 c /w 23 def /w2 {w 2 div} def /w3 {w 3 div} def 1063 1228 m21 black 1 1 1 c 0.53 0.4 0.34 c 380 842 m21 459 850 m21 539 839
 m21 618 842 m21 697 839 m21 777 839 m21 856 844 m21 935 840 m21 1015 848 m21 black 1094 852 m 2 Y s 1094 877 m 1 Y s 1088 852 m 12 X s 1088 878 m 12 X s 0.53 0.4 0.34 c 1094 865 m21 black 1174 839 m 6 Y s 1174 868 m 6 Y s 1168 839 m 11 X s 1168 874
 m 11 X s 0.53 0.4 0.34 c 1174 857 m21 black 1253 830 m 11 Y s 1253 863 m 11 Y s 1247 830 m 12 X s 1247 874 m 12 X s 0.53 0.4 0.34 c 1253 852 m21 black 1332 806 m 14 Y s 1332 843 m 14 Y s 1327 806 m 11 X s 1327 857 m 11 X s 0.53 0.4 0.34 c 1332 832
 m21 black 1412 806 m 17 Y s 1412 846 m 17 Y s 1406 806 m 11 X s 1406 863 m 11 X s 0.53 0.4 0.34 c 1412 834 m21 black 1491 820 m 20 Y s 1491 863 m 20 Y s 1485 820 m 12 X s 1485 883 m 12 X s 0.53 0.4 0.34 c 1491 852 m21 black 1570 864 m 23 Y s 1570
 910 m 24 Y s 1565 864 m 11 X s 1565 934 m 11 X s 0.53 0.4 0.34 c 1570 899 m21 black 1650 837 m 26 Y s 1650 886 m 25 Y s 1644 837 m 11 X s 1644 911 m 11 X s 0.53 0.4 0.34 c 1650 874 m21 black 1729 785 m 27 Y s 1729 835 m 27 Y s 1723 785 m 12 X s 1723
 862 m 12 X s 0.53 0.4 0.34 c 1729 824 m21 black 1809 849 m 30 Y s 1809 902 m 30 Y s 1803 849 m 11 X s 1803 932 m 11 X s 0.53 0.4 0.34 c 1809 890 m21 black 1888 774 m 30 Y s 1888 827 m 30 Y s 1882 774 m 12 X s 1882 857 m 12 X s 0.53 0.4 0.34 c 1888
 816 m21 6 lw 1 1 1 c 0.53 0.4 0.34 c 380 843 m 95 X 26 1 d 38 X 37 1 d 60 X 13 -1 d 30 -1 d 116 X 14 -1 d 29 -1 d 18 X 30 -1 d 60 X 11 1 d 30 X 10 1 d 10 X 8 1 d 7 X 7 1 d 9 X 10 1 d 16 2 d 15 1 d 9 1 d 6 X 30 2 d 16 1 d 12 1 d 12 1 d 10 1 d 7 X 9 1
 d 16 1 d 7 X 6 1 d 41 X 3 -1 d 4 X 4 -1 d 3 X 4 -1 d 5 -1 d 5 -1 d 13 -2 d 7 -2 d 5 -1 d 4 X 4 -1 d 4 -1 d 7 X 14 -2 d 8 X 7 -1 d 7 X 6 -1 d 43 X 3 1 d 5 X 3 1 d 3 1 d 3 X 3 1 d 4 1 d 4 1 d 9 4 d 5 1 d 3 1 d 3 1 d 3 1 d 3 X 2 1 d 6 X 2 1 d 20 X 69
 -9 d 7 X 22 -3 d 8 X 6 -1 d 6 X 4 -1 d 35 X 3 1 d 3 X 2 1 d 3 X 3 1 d 3 X 3 1 d 4 2 d 5 1 d 7 3 d 4 1 d 3 1 d 3 X 2 1 d 3 1 d 5 X 3 1 d 27 X 3 -1 d 3 X 3 -1 d 4 X 3 -1 d 5 -1 d 18 -4 d 4 -1 d 3 X 4 -1 d 3 -1 d 9 X 3 -1 d 16 X 6 -1 d 6 X s 1837 846 m
 18 X 5 1 d 18 X 5 1 d 5 X s 3 lw /w 2 def /w2 {w 2 div} def /w3 {w 3 div} def 380 843 459 843 539 844 618 845 697 843 777 843 856 841 935 840 1015 843 1094 849 1174 855 1253 858 1332 846 1412 842 1491 858 1570 849 1650 844 1729 859 1809 847 1888 848
 20 { m20} R 6 lw black 0.53 0.4 0.34 c
 gsave  2268 1328 0 0 C 2036.96 863.214 t 0 r /Helvetica-Bold findfont 48.4311 sf 0 0 m (/dof=0.7) show NC gr  black 0.53 0.4 0.34 c
 gsave  2268 1328 0 0 C 2017.01 880.307 t 0 r /Helvetica-Bold findfont 34.1867 sf 0 0 m (2) show NC gr  black 0.53 0.4 0.34 c
 gsave  2268 1328 0 0 C 1991.37 863.214 t 0 r /Symbol findfont 48.4311 sf 0 0 m (c) show NC gr  black 3 lw 340 843 m 1588 X s
 gsave  2268 1328 0 0 C 1330.43 1213.63 t 0 r /Helvetica-Bold findfont 42.7334 sf 0 0 m (1.5 mm) show NC gr  0.53 0.4 0.34 c /w 23 def /w2 {w 2 div} def /w3 {w 3 div} def 1290 1228 m21 black 1 1 1 c black 380 958 m21 459 959 m21 539 961 m21 618 969
 m21 697 952 m21 777 958 m21 856 960 m21 935 969 m21 1015 954 m21 1094 951 m 2 Y s 1094 976 m 3 Y s 1088 951 m 12 X s 1088 979 m 12 X s 1094 965 m21 1174 960 m 7 Y s 1174 990 m 7 Y s 1168 960 m 11 X s 1168 997 m 11 X s 1174 978 m21 1253 935 m 11 Y s
 1253 969 m 12 Y s 1247 935 m 12 X s 1247 981 m 12 X s 1253 958 m21 1332 932 m 16 Y s 1332 970 m 16 Y s 1327 932 m 11 X s 1327 986 m 11 X s 1332 959 m21 1412 933 m 18 Y s 1412 974 m 19 Y s 1406 933 m 11 X s 1406 993 m 11 X s 1412 963 m21 1491 983 m
 23 Y s 1491 1029 m 23 Y s 1485 983 m 12 X s 1485 1052 m 12 X s 1491 1017 m21 1570 939 m 24 Y s 1570 986 m 25 Y s 1565 939 m 11 X s 1565 1011 m 11 X s 1570 975 m21 1650 921 m 27 Y s 1650 971 m 27 Y s 1644 921 m 11 X s 1644 998 m 11 X s 1650 959 m21
 1729 955 m 30 Y s 1729 1008 m 30 Y s 1723 955 m 12 X s 1723 1038 m 12 X s 1729 996 m21 1809 926 m 32 Y s 1809 981 m 32 Y s 1803 926 m 11 X s 1803 1013 m 11 X s 1809 970 m21 1888 934 m 35 Y s 1888 992 m 35 Y s 1882 934 m 12 X s 1882 1027 m 12 X s
 1888 980 m21 6 lw 1 1 1 c black 380 959 m 14 -1 d 60 X 5 1 d 22 X 20 1 d 20 1 d 10 1 d 8 X 27 1 d 16 X 12 1 d 11 X 10 -1 d 20 X 12 -1 d 34 -2 d 16 X 9 -1 d 31 X 17 1 d 12 -1 d 20 X 12 -1 d 29 -1 d 17 -1 d 10 -1 d 2 X 33 -1 d 26 X 9 -1 d 9 1 d 31 X
 12 1 d 9 X 10 1 d 7 1 d 8 X 5 1 d 6 1 d 6 1 d 7 1 d 8 1 d 8 2 d 17 3 d 13 3 d 7 1 d 7 2 d 18 3 d 15 2 d 16 2 d 12 2 d 13 2 d 6 X 7 1 d 11 2 d 14 2 d 7 1 d 6 1 d 5 X 6 1 d 23 X 4 -1 d 3 X 4 -1 d 4 X 4 -1 d 4 -1 d 5 -2 d 6 -1 d 7 -3 d 20 -7 d 6 -2 d 4
 -1 d 5 -1 d 3 -1 d 6 -2 d 8 -2 d 21 -6 d 7 -1 d 5 -2 d 5 X 4 -1 d 4 -1 d 25 X 2 1 d 3 X 3 1 d 3 1 d 2 1 d 3 1 d 3 2 d 3 2 d 3 2 d 4 2 d 4 4 d 8 6 d 4 3 d 3 2 d 3 2 d 3 1 d 3 2 d 2 1 d 3 1 d 3 X 3 1 d 2 1 d 4 X 4 1 d 33 X 7 -1 d 6 -1 d 7 -1 d 8 -1 d
 14 -3 d 4 X 3 -1 d 3 -1 d 4 -1 d 4 -2 d 5 -2 d 5 -2 d 17 -8 d 4 -1 d 3 -2 d 4 -1 d 4 -1 d 2 -1 d 3 X 3 -1 d 19 X 3 1 d 3 X 2 1 d 3 1 d 3 1 d 2 1 d 3 2 d 3 2 d 4 2 d 4 3 d 8 6 d 4 2 d 3 2 d 3 2 d 3 1 d 2 1 d 3 1 d 2 1 d 3 1 d 2 X 3 1 d 3 X 3 1 d 6 X
 3 -1 d 7 X s 1745 994 m 4 -1 d 4 -1 d 4 -1 d 4 -1 d 6 -2 d 16 -5 d 5 -2 d 4 -1 d 4 -1 d 4 -1 d 7 X 2 -1 d 12 X 6 -1 d 13 X 8 1 d 12 X 7 1 d 7 1 d 6 X 6 1 d 2 1 d s 3 lw /w 2 def /w2 {w 2 div} def /w3 {w 3 div} def 380 959 459 959 539 962 618 963 697
 960 777 959 856 955 935 954 1015 958 1094 973 1174 984 1253 992 1332 970 1412 955 1491 992 1570 986 1650 962 1729 995 1809 977 1888 981 20 { m20} R 6 lw
 gsave  2268 1328 0 0 C 2036.96 988.565 t 0 r /Helvetica-Bold findfont 48.4311 sf 0 0 m (/dof=0.7) show NC gr 
 gsave  2268 1328 0 0 C 2017.01 1005.66 t 0 r /Helvetica-Bold findfont 34.1867 sf 0 0 m (2) show NC gr 
 gsave  2268 1328 0 0 C 1991.37 988.565 t 0 r /Symbol findfont 48.4311 sf 0 0 m (c) show NC gr  3 lw 340 961 m 1588 X s
 gsave  2268 1328 0 0 C 1558.34 1213.63 t 0 r /Helvetica-Bold findfont 39.8845 sf 0 0 m (1.7 mm) show NC gr  /w 23 def /w2 {w 2 div} def /w3 {w 3 div} def 1517 1228 m21 1 1 1 c 0.48 0 1 c 380 1075 m21 459 1067 m21 539 1081 m21 618 1073 m21 697 1082
 m21 777 1080 m21 856 1076 m21 935 1063 m21 1015 1067 m21 black 1094 1094 m 4 Y s 1094 1120 m 4 Y s 1088 1094 m 12 X s 1088 1124 m 12 X s 0.48 0 1 c 1094 1109 m21 black 1174 1104 m 9 Y s 1174 1135 m 9 Y s 1168 1104 m 11 X s 1168 1144 m 11 X s 0.48 0
 1 c 1174 1124 m21 black 1253 1121 m 14 Y s 1253 1158 m 13 Y s 1247 1121 m 12 X s 1247 1171 m 12 X s 0.48 0 1 c 1253 1146 m21 black 1332 1092 m 18 Y s 1332 1133 m 18 Y s 1327 1092 m 11 X s 1327 1151 m 11 X s 0.48 0 1 c 1332 1121 m21 black 1412 1026 m
 21 Y s 1412 1070 m 20 Y s 1406 1026 m 11 X s 1406 1090 m 11 X s 0.48 0 1 c 1412 1058 m21 black 1491 1073 m 24 Y s 1491 1120 m 24 Y s 1485 1073 m 12 X s 1485 1144 m 12 X s 0.48 0 1 c 1491 1109 m21 black 1570 1083 m 28 Y s 1570 1134 m 28 Y s 1565 1083
 m 11 X s 1565 1162 m 11 X s 0.48 0 1 c 1570 1122 m21 black 1650 1029 m 30 Y s 1650 1082 m 29 Y s 1644 1029 m 11 X s 1644 1111 m 11 X s 0.48 0 1 c 1650 1070 m21 black 1729 1051 m 32 Y s 1729 1106 m 32 Y s 1723 1051 m 12 X s 1723 1138 m 12 X s 0.48 0
 1 c 1729 1094 m21 black 1809 1055 m 35 Y s 1809 1112 m 35 Y s 1803 1055 m 11 X s 1803 1147 m 11 X s 0.48 0 1 c 1809 1101 m21 black 1888 1085 m 38 Y s 1888 1145 m 39 Y s 1882 1085 m 12 X s 1882 1184 m 12 X s 0.48 0 1 c 1888 1134 m21 6 lw 1 1 1 c 0.48
 0 1 c 380 1075 m 12 -1 d 13 -1 d 63 X 9 1 d 10 1 d 17 2 d 17 2 d 9 1 d 9 X 20 1 d 16 1 d 14 X 11 1 d 11 -1 d 15 X 10 -1 d 12 -1 d 33 -4 d 9 X 7 -1 d 80 X 12 -1 d 16 -1 d 42 -3 d 9 -1 d 37 -2 d 86 X 9 1 d 8 1 d 7 X 7 1 d 5 1 d 5 1 d 6 2 d 7 2 d 7 2 d
 9 3 d 14 5 d 12 5 d 9 3 d 7 2 d 3 1 d 12 3 d 14 4 d 15 3 d 14 4 d 15 3 d 10 2 d 8 1 d 22 5 d 9 2 d 8 2 d 6 1 d 6 X 5 1 d 15 X 5 -1 d 4 -1 d 5 -1 d 5 -1 d 6 -2 d 6 -2 d 48 -20 d 5 -2 d 4 -3 d 5 -2 d 7 -4 d 21 -14 d 5 -3 d 5 -2 d 4 -2 d 3 -1 d 4 -1 d
 4 -1 d 3 -1 d 13 X 3 1 d 2 1 d 3 1 d 3 1 d 3 2 d 3 1 d 3 3 d 3 3 d 3 3 d 4 3 d 4 5 d 11 14 d 4 5 d 4 4 d 3 3 d 3 4 d 3 2 d 3 2 d 4 3 d 2 1 d 3 2 d 2 X 7 3 d 7 2 d 6 2 d 6 2 d 6 1 d 6 1 d 5 1 d 6 1 d 20 X 4 -1 d 5 X 1 -1 d 3 X 3 -1 d 3 -2 d 3 -1 d 3
 -2 d 2 -2 d 3 -2 d 4 -3 d 3 -4 d 4 -4 d 18 -22 d 3 -4 d 3 -2 d 3 -3 d 3 -2 d 2 -1 d 3 -1 d 2 -2 d 3 X 3 -1 d 2 X 3 -1 d 4 X 2 1 d 3 X 3 1 d 3 1 d 2 1 d 3 2 d 3 2 d 3 2 d 4 3 d 4 4 d 4 5 d 10 10 d 4 5 d 4 3 d 3 3 d 3 2 d 3 2 d 3 2 d 3 1 d 3 1 d 3 1 d
 3 1 d 80 -14 d 24 X 9 1 d 7 X 8 1 d 8 1 d 8 2 d 8 1 d 7 2 d s 3 lw /w 2 def /w2 {w 2 div} def /w3 {w 3 div} def 380 1075 459 1073 539 1080 618 1082 697 1075 777 1075 856 1069 935 1067 1015 1071 1094 1097 1174 1116 1253 1128 1332 1100 1412 1064 1491
 1128 1570 1139 1650 1079 1729 1132 1809 1118 1888 1126 20 { m20} R 6 lw black 0.48 0 1 c
 gsave  2268 1328 0 0 C 2036.96 1113.92 t 0 r /Helvetica-Bold findfont 48.4311 sf 0 0 m (/dof=0.7) show NC gr  black 0.48 0 1 c
 gsave  2268 1328 0 0 C 2017.01 1131.01 t 0 r /Helvetica-Bold findfont 34.1867 sf 0 0 m (2) show NC gr  black 0.48 0 1 c
 gsave  2268 1328 0 0 C 1991.37 1113.92 t 0 r /Symbol findfont 48.4311 sf 0 0 m (c) show NC gr  black 3 lw 340 1078 m 1588 X s
 gsave  2268 1328 0 0 C 1783.41 1213.63 t 0 r /Helvetica-Bold findfont 42.7334 sf 0 0 m (1.9 mm) show NC gr  0.48 0 1 c /w 23 def /w2 {w 2 div} def /w3 {w 3 div} def 1743 1228 m21
 gr  gr showpage
end
%%EOF
