%!PS-Adobe-2.0 EPSF-2.0
%%BoundingBox:  0 0 567 332
%%Title: BeamSigmaX_far_summary.eps: Summary
%%Creator: ROOT Version 5.30/06
%%CreationDate: Sun Feb  2 09:36:19 2014
%%EndComments
%%BeginProlog
80 dict begin
/s {stroke} def /l {lineto} def /m {moveto} def /t {translate} def
/r {rotate} def /rl {roll}  def /R {repeat} def
/d {rlineto} def /rm {rmoveto} def /gr {grestore} def /f {eofill} def
/c {setrgbcolor} def /black {0 setgray} def /sd {setdash} def
/cl {closepath} def /sf {scalefont setfont} def /lw {setlinewidth} def
/box {m dup 0 exch d exch 0 d 0 exch neg d cl} def
/NC{systemdict begin initclip end}def/C{NC box clip newpath}def
/bl {box s} def /bf {box f} def /Y { 0 exch d} def /X { 0 d} def 
/K {{pop pop 0 moveto} exch kshow} bind def
/ita {/ang 15 def gsave [1 0 ang dup sin exch cos div 1 0 0] concat} def 
/mp {newpath /y exch def /x exch def} def
/side {[w .77 mul w .23 mul] .385 w mul sd w 0 l currentpoint t -144 r} def
/mr {mp x y w2 0 360 arc} def /m24 {mr s} def /m20 {mr f} def
/mb {mp x y w2 add m w2 neg 0 d 0 w neg d w 0 d 0 w d cl} def
/mt {mp x y w2 add m w2 neg w neg d w 0 d cl} def
/m21 {mb f} def /m25 {mb s} def /m22 {mt f} def /m26{mt s} def
/m23 {mp x y w2 sub m w2 w d w neg 0 d cl f} def
/m27 {mp x y w2 add m w3 neg w2 neg d w3 w2 neg d w3 w2 d cl s} def
/m28 {mp x w2 sub y w2 sub w3 add m w3 0 d  0 w3 neg d w3 0 d 0 w3 d w3 0 d  0 w3 d w3 neg 0 d 0 w3 d w3 neg 0 d 0 w3 neg d w3 neg 0 d cl s } def
/m29 {mp gsave x w2 sub y w2 add w3 sub m currentpoint t 4 {side} repeat cl fill gr} def
/m30 {mp gsave x w2 sub y w2 add w3 sub m currentpoint t 4 {side} repeat cl s gr} def
/m31 {mp x y w2 sub m 0 w d x w2 sub y m w 0 d x w2 sub y w2 add m w w neg d x w2 sub y w2 sub m w w d s} def
/m32 {mp x y w2 sub m w2 w d w neg 0 d cl s} def
/m33 {mp x y w2 add m w3 neg w2 neg d w3 w2 neg d w3 w2 d cl f} def
/m34 {mp x w2 sub y w2 sub w3 add m w3 0 d  0 w3 neg d w3 0 d 0 w3 d w3 0 d  0 w3 d w3 neg 0 d 0 w3 d w3 neg 0 d 0 w3 neg d w3 neg 0 d cl f } def
/m2 {mp x y w2 sub m 0 w d x w2 sub y m w 0 d s} def
/m5 {mp x w2 sub y w2 sub m w w d x w2 sub y w2 add m w w neg d s} def
/reEncode {exch findfont dup length dict begin {1 index /FID eq  {pop pop} {def} ifelse } forall /Encoding exch def currentdict end dup /FontName get exch definefont pop } def [/Times-Bold /Times-Italic /Times-BoldItalic /Helvetica /Helvetica-Oblique
 /Helvetica-Bold /Helvetica-BoldOblique /Courier /Courier-Oblique /Courier-Bold /Courier-BoldOblique /Times-Roman /AvantGarde-Book /AvantGarde-BookOblique /AvantGarde-Demi /AvantGarde-DemiOblique /Bookman-Demi /Bookman-DemiItalic /Bookman-Light
 /Bookman-LightItalic /Helvetica-Narrow /Helvetica-Narrow-Bold /Helvetica-Narrow-BoldOblique /Helvetica-Narrow-Oblique /NewCenturySchlbk-Roman /NewCenturySchlbk-Bold /NewCenturySchlbk-BoldItalic /NewCenturySchlbk-Italic /Palatino-Bold
 /Palatino-BoldItalic /Palatino-Italic /Palatino-Roman ] {ISOLatin1Encoding reEncode } forall%%EndProlog
%%BeginSetup
%%EndSetup
newpath  gsave  .25 .25 scale  gsave  0 0 t black[  ] 0 sd 3 lw 1 1 1 c 2268 1328 0 0 bf black 1 1 1 c black 1588 996 340 199 bl 1588 996 340 199 bl 1 1 1 c 1 0 0 c /w 23 def /w2 {w 2 div} def /w3 {w 3 div} def 380 266 m21 459 271 m21 539 271 m21 618
 264 m21 697 265 m21 777 268 m21 856 261 m21 935 257 m21 1015 249 m21 1094 222 m21 1174 209 m21 1253 220 m21 black 1412 199 m 2 Y s 1412 224 m 2 Y s 1406 199 m 11 X s 1406 226 m 11 X s 1 0 0 c 1412 213 m21 black 1491 224 m 4 Y s 1491 251 m 4 Y s 1485
 224 m 12 X s 1485 255 m 12 X s 1 0 0 c 1491 240 m21 black 1570 235 m 6 Y s 1570 264 m 6 Y s 1565 235 m 11 X s 1565 270 m 11 X s 1 0 0 c 1570 252 m21 black 1650 213 m 8 Y s 1650 243 m 8 Y s 1644 213 m 11 X s 1644 251 m 11 X s 1 0 0 c 1650 232 m21
 black 1729 241 m 9 Y s 1729 273 m 9 Y s 1723 241 m 12 X s 1723 282 m 12 X s 1 0 0 c 1729 262 m21 black 1809 227 m 10 Y s 1809 260 m 10 Y s 1803 227 m 11 X s 1803 270 m 11 X s 1 0 0 c 1809 249 m21 black 1888 209 m 12 Y s 1888 244 m 11 Y s 1882 209 m
 12 X s 1882 255 m 12 X s 1 0 0 c 1888 232 m21 black 340 199 m 1588 X s
 gsave  2268 1328 0 0 C 954.378 68.3734 t 0 r /Helvetica findfont 62.6756 sf 0 0 m ( Energy \(GeV\) ) show NC gr 
 gsave  2268 1328 0 0 C 928.738 51.28 t 0 r /Symbol findfont 42.7334 sf 0 0 m (m) show NC gr 
 gsave  2268 1328 0 0 C 894.552 68.3734 t 0 r /Symbol findfont 62.6756 sf 0 0 m (n) show NC gr  340 216 m -17 Y s 372 208 m -9 Y s 404 208 m -9 Y s 435 208 m -9 Y s 467 208 m -9 Y s 499 216 m -17 Y s 531 208 m -9 Y s 562 208 m -9 Y s 594 208 m -9 Y s
 626 208 m -9 Y s 658 216 m -17 Y s 689 208 m -9 Y s 721 208 m -9 Y s 753 208 m -9 Y s 785 208 m -9 Y s 816 216 m -17 Y s 848 208 m -9 Y s 880 208 m -9 Y s 912 208 m -9 Y s 943 208 m -9 Y s 975 216 m -17 Y s 1007 208 m -9 Y s 1039 208 m -9 Y s 1070
 208 m -9 Y s 1102 208 m -9 Y s 1134 216 m -17 Y s 1166 208 m -9 Y s 1197 208 m -9 Y s 1229 208 m -9 Y s 1261 208 m -9 Y s 1293 216 m -17 Y s 1324 208 m -9 Y s 1356 208 m -9 Y s 1388 208 m -9 Y s 1420 208 m -9 Y s 1451 216 m -17 Y s 1483 208 m -9 Y s
 1515 208 m -9 Y s 1547 208 m -9 Y s 1578 208 m -9 Y s 1610 216 m -17 Y s 1642 208 m -9 Y s 1674 208 m -9 Y s 1705 208 m -9 Y s 1737 208 m -9 Y s 1769 216 m -17 Y s 1801 208 m -9 Y s 1832 208 m -9 Y s 1864 208 m -9 Y s 1896 208 m -9 Y s 1928 216 m
 -17 Y s
 gsave  2268 1328 0 0 C 319.076 136.747 t 0 r /Helvetica findfont 68.3734 sf 0 0 m (0) show NC gr 
 gsave  2268 1328 0 0 C 484.311 136.747 t 0 r /Helvetica findfont 68.3734 sf 0 0 m (1) show NC gr 
 gsave  2268 1328 0 0 C 635.302 136.747 t 0 r /Helvetica findfont 68.3734 sf 0 0 m (2) show NC gr 
 gsave  2268 1328 0 0 C 794.84 136.747 t 0 r /Helvetica findfont 68.3734 sf 0 0 m (3) show NC gr 
 gsave  2268 1328 0 0 C 954.378 136.747 t 0 r /Helvetica findfont 68.3734 sf 0 0 m (4) show NC gr 
 gsave  2268 1328 0 0 C 1113.92 136.747 t 0 r /Helvetica findfont 68.3734 sf 0 0 m (5) show NC gr 
 gsave  2268 1328 0 0 C 1270.6 136.747 t 0 r /Helvetica findfont 68.3734 sf 0 0 m (6) show NC gr 
 gsave  2268 1328 0 0 C 1430.14 136.747 t 0 r /Helvetica findfont 68.3734 sf 0 0 m (7) show NC gr 
 gsave  2268 1328 0 0 C 1589.68 136.747 t 0 r /Helvetica findfont 68.3734 sf 0 0 m (8) show NC gr 
 gsave  2268 1328 0 0 C 1746.37 136.747 t 0 r /Helvetica findfont 68.3734 sf 0 0 m (9) show NC gr 
 gsave  2268 1328 0 0 C 1888.81 136.747 t 0 r /Helvetica findfont 68.3734 sf 0 0 m (10) show NC gr  340 1195 m 1588 X s 340 1178 m 17 Y s 372 1186 m 9 Y s 404 1186 m 9 Y s 435 1186 m 9 Y s 467 1186 m 9 Y s 499 1178 m 17 Y s 531 1186 m 9 Y s 562 1186
 m 9 Y s 594 1186 m 9 Y s 626 1186 m 9 Y s 658 1178 m 17 Y s 689 1186 m 9 Y s 721 1186 m 9 Y s 753 1186 m 9 Y s 785 1186 m 9 Y s 816 1178 m 17 Y s 848 1186 m 9 Y s 880 1186 m 9 Y s 912 1186 m 9 Y s 943 1186 m 9 Y s 975 1178 m 17 Y s 1007 1186 m 9 Y s
 1039 1186 m 9 Y s 1070 1186 m 9 Y s 1102 1186 m 9 Y s 1134 1178 m 17 Y s 1166 1186 m 9 Y s 1197 1186 m 9 Y s 1229 1186 m 9 Y s 1261 1186 m 9 Y s 1293 1178 m 17 Y s 1324 1186 m 9 Y s 1356 1186 m 9 Y s 1388 1186 m 9 Y s 1420 1186 m 9 Y s 1451 1178 m
 17 Y s 1483 1186 m 9 Y s 1515 1186 m 9 Y s 1547 1186 m 9 Y s 1578 1186 m 9 Y s 1610 1178 m 17 Y s 1642 1186 m 9 Y s 1674 1186 m 9 Y s 1705 1186 m 9 Y s 1737 1186 m 9 Y s 1769 1178 m 17 Y s 1801 1186 m 9 Y s 1832 1186 m 9 Y s 1864 1186 m 9 Y s 1896
 1186 m 9 Y s 1928 1178 m 17 Y s 340 199 m 996 Y s
 gsave  2268 1328 0 0 C 170.933 427.334 t 90 r /Helvetica findfont 62.6756 sf 0 0 m (Far Flux to Nominal) show NC gr  371 258 m -31 X s 355 281 m -15 X s 355 305 m -15 X s 355 328 m -15 X s 355 351 m -15 X s 371 375 m -31 X s 355 398 m -15 X s 355
 422 m -15 X s 355 445 m -15 X s 355 469 m -15 X s 371 492 m -31 X s 355 515 m -15 X s 355 539 m -15 X s 355 562 m -15 X s 355 586 m -15 X s 371 609 m -31 X s 355 633 m -15 X s 355 656 m -15 X s 355 679 m -15 X s 355 703 m -15 X s 371 726 m -31 X s
 355 750 m -15 X s 355 773 m -15 X s 355 797 m -15 X s 355 820 m -15 X s 371 843 m -31 X s 355 867 m -15 X s 355 890 m -15 X s 355 914 m -15 X s 355 937 m -15 X s 371 961 m -31 X s 355 984 m -15 X s 355 1007 m -15 X s 355 1031 m -15 X s 355 1054 m
 -15 X s 371 1078 m -31 X s 355 1101 m -15 X s 355 1125 m -15 X s 355 1148 m -15 X s 355 1171 m -15 X s 371 1195 m -31 X s 371 258 m -31 X s 355 234 m -15 X s 355 211 m -15 X s
 gsave  2268 1328 0 0 C 301.982 230.76 t 0 r /Helvetica findfont 68.3734 sf 0 0 m (1) show NC gr 
 gsave  2268 1328 0 0 C 245.005 347.565 t 0 r /Helvetica findfont 68.3734 sf 0 0 m (1.1) show NC gr 
 gsave  2268 1328 0 0 C 233.609 464.369 t 0 r /Helvetica findfont 68.3734 sf 0 0 m (1.2) show NC gr 
 gsave  2268 1328 0 0 C 233.609 584.022 t 0 r /Helvetica findfont 68.3734 sf 0 0 m (1.3) show NC gr 
 gsave  2268 1328 0 0 C 233.609 697.978 t 0 r /Helvetica findfont 68.3734 sf 0 0 m (1.4) show NC gr 
 gsave  2268 1328 0 0 C 233.609 820.48 t 0 r /Helvetica findfont 68.3734 sf 0 0 m (1.5) show NC gr 
 gsave  2268 1328 0 0 C 233.609 937.285 t 0 r /Helvetica findfont 68.3734 sf 0 0 m (1.6) show NC gr 
 gsave  2268 1328 0 0 C 233.609 1051.24 t 0 r /Helvetica findfont 68.3734 sf 0 0 m (1.7) show NC gr 
 gsave  2268 1328 0 0 C 233.609 1170.89 t 0 r /Helvetica findfont 68.3734 sf 0 0 m (1.8) show NC gr  1928 199 m 996 Y s 1897 258 m 31 X s 1912 281 m 16 X s 1912 305 m 16 X s 1912 328 m 16 X s 1912 351 m 16 X s 1897 375 m 31 X s 1912 398 m 16 X s 1912
 422 m 16 X s 1912 445 m 16 X s 1912 469 m 16 X s 1897 492 m 31 X s 1912 515 m 16 X s 1912 539 m 16 X s 1912 562 m 16 X s 1912 586 m 16 X s 1897 609 m 31 X s 1912 633 m 16 X s 1912 656 m 16 X s 1912 679 m 16 X s 1912 703 m 16 X s 1897 726 m 31 X s
 1912 750 m 16 X s 1912 773 m 16 X s 1912 797 m 16 X s 1912 820 m 16 X s 1897 843 m 31 X s 1912 867 m 16 X s 1912 890 m 16 X s 1912 914 m 16 X s 1912 937 m 16 X s 1897 961 m 31 X s 1912 984 m 16 X s 1912 1007 m 16 X s 1912 1031 m 16 X s 1912 1054 m
 16 X s 1897 1078 m 31 X s 1912 1101 m 16 X s 1912 1125 m 16 X s 1912 1148 m 16 X s 1912 1171 m 16 X s 1897 1195 m 31 X s 1897 258 m 31 X s 1912 234 m 16 X s 1912 211 m 16 X s 1 0 0 c 6 lw 1 1 1 c 1 0 0 c 380 286 m 12 2 d 13 1 d 14 2 d 14 1 d 12 1 d
 14 X 11 1 d 12 X 16 -1 d 41 -1 d 79 -3 d 37 X 27 1 d 33 X 62 -2 d 15 X 20 1 d 9 1 d 7 X 6 -1 d 6 X 5 -1 d 4 -1 d 5 -1 d 2 X 4 -2 d 3 -1 d 3 -2 d 4 -2 d 4 -3 d 4 -3 d 5 -4 d 6 -5 d 17 -16 d 4 -4 d 4 -2 d 3 -3 d 4 -2 d 4 -2 d 3 -2 d 3 -1 d 4 -1 d -1 Y
 5 -1 d 4 X 4 -1 d 10 X 6 1 d 6 X 10 2 d 16 2 d 8 1 d 6 1 d 5 X 24 1 d 17 1 d 29 X 9 -1 d 7 X 7 -1 d 66 -13 d 8 -1 d 9 X 10 -1 d 42 X 9 -1 d 1 X 8 -1 d 8 -1 d 12 -2 d 19 -3 d 10 -2 d 8 -1 d 26 X 7 1 d 8 1 d 12 3 d 19 3 d 9 2 d 7 1 d 6 X 8 1 d 11 X 13
 1 d 37 X 9 1 d 1 X 9 1 d 11 1 d 16 3 d 18 3 d 11 1 d 9 1 d 5 1 d 72 X 7 1 d 6 X 6 1 d 8 2 d 9 2 d 20 6 d 7 1 d 6 2 d 6 1 d 10 X 2 1 d 5 -1 d 12 X 6 -1 d 9 -2 d 15 -3 d 13 -3 d 7 -1 d 6 -1 d 7 -1 d 12 -1 d 13 -1 d 12 X 14 -1 d 28 X s 3 lw /w 2 def
 /w2 {w 2 div} def /w3 {w 3 div} def 380 286 459 293 539 292 618 289 697 290 777 288 856 286 935 230 1015 235 1094 236 1174 222 1253 219 1332 209 1412 220 1491 223 1570 234 1650 235 1729 251 1809 238 1888 235 20 { m20} R 6 lw black 1 0 0 c
 gsave  2268 1328 0 0 C 2022.71 242.156 t 0 r /Helvetica-Bold findfont 48.4311 sf 0 0 m (/dof=29.2) show NC gr  black 1 0 0 c
 gsave  2268 1328 0 0 C 2002.77 259.249 t 0 r /Helvetica-Bold findfont 34.1867 sf 0 0 m (2) show NC gr  black 1 0 0 c
 gsave  2268 1328 0 0 C 1977.13 242.156 t 0 r /Symbol findfont 48.4311 sf 0 0 m (c) show NC gr  black 3 lw 340 258 m 1588 X s
 gsave  2268 1328 0 0 C 196.573 1213.63 t 0 r /Helvetica-Bold findfont 42.7334 sf 0 0 m (0.7 mm) show NC gr  1 0 0 c /w 23 def /w2 {w 2 div} def /w3 {w 3 div} def 156 1228 m21 black 1 1 1 c 0 0 1 c 380 383 m21 459 389 m21 539 385 m21 618 384 m21 697
 383 m21 777 379 m21 856 383 m21 935 372 m21 1015 365 m21 1094 345 m21 1174 345 m21 1253 333 m21 black 1332 326 m 1 Y s 1332 350 m 1 Y s 1327 326 m 11 X s 1327 351 m 11 X s 0 0 1 c 1332 339 m21 black 1412 308 m 4 Y s 1412 335 m 3 Y s 1406 308 m 11 X
 s 1406 338 m 11 X s 0 0 1 c 1412 323 m21 black 1491 343 m 6 Y s 1491 372 m 6 Y s 1485 343 m 12 X s 1485 378 m 12 X s 0 0 1 c 1491 361 m21 black 1570 330 m 8 Y s 1570 360 m 8 Y s 1565 330 m 11 X s 1565 368 m 11 X s 0 0 1 c 1570 349 m21 black 1650 321
 m 9 Y s 1650 353 m 9 Y s 1644 321 m 11 X s 1644 362 m 11 X s 0 0 1 c 1650 341 m21 black 1729 317 m 11 Y s 1729 351 m 10 Y s 1723 317 m 12 X s 1723 361 m 12 X s 0 0 1 c 1729 339 m21 black 1809 354 m 12 Y s 1809 389 m 13 Y s 1803 354 m 11 X s 1803 402
 m 11 X s 0 0 1 c 1809 378 m21 black 1888 310 m 14 Y s 1888 346 m 14 Y s 1882 310 m 12 X s 1882 360 m 12 X s 0 0 1 c 1888 335 m21 6 lw 1 1 1 c 0 0 1 c 380 395 m 12 2 d 13 1 d 14 1 d 14 1 d 12 X 14 1 d 39 X 41 -1 d 79 -2 d 97 X 62 -1 d 17 X 22 1 d 22
 X 6 -1 d 4 X 5 -1 d 3 -1 d 4 -1 d 4 -1 d 4 -1 d 5 -2 d 4 -2 d 5 -3 d 7 -3 d 17 -10 d 5 -2 d 5 -2 d 4 -2 d 4 -2 d 4 -1 d 3 -1 d 4 X 5 -1 d 4 -1 d 22 X 8 1 d 13 1 d 12 1 d 8 X 7 1 d 13 X 27 1 d 33 X 7 -1 d 5 X 6 -1 d 7 -1 d 7 -2 d 8 -2 d 24 -5 d 7 -2
 d 6 -1 d 5 -1 d 5 X 6 -1 d 7 X 8 -1 d 49 X 9 -1 d 8 X 8 -1 d 12 -2 d 19 -2 d 10 -1 d 8 -1 d 26 X 7 1 d 8 1 d 12 1 d 19 3 d 9 1 d 7 1 d 6 X 7 1 d 56 X 6 1 d 10 X 6 1 d 7 1 d 7 1 d 9 2 d 22 5 d 9 1 d 7 2 d 6 X 5 1 d 1 X 7 1 d 26 X 32 -1 d 8 X 7 1 d 8
 X 9 1 d 15 1 d 18 2 d 10 1 d 14 X 5 1 d 8 X 8 -1 d 10 X 46 -3 d 8 -1 d 19 X 21 -1 d 39 X s 3 lw /w 2 def /w2 {w 2 div} def /w3 {w 3 div} def 380 395 459 401 539 400 618 398 697 398 777 397 856 395 935 362 1015 364 1094 364 1174 349 1253 346 1332 339
 1412 347 1491 349 1570 363 1650 364 1729 370 1809 365 1888 364 20 { m20} R 6 lw black 0 0 1 c
 gsave  2268 1328 0 0 C 2036.96 364.658 t 0 r /Helvetica-Bold findfont 48.4311 sf 0 0 m (/dof=9.5) show NC gr  black 0 0 1 c
 gsave  2268 1328 0 0 C 2017.01 381.751 t 0 r /Helvetica-Bold findfont 34.1867 sf 0 0 m (2) show NC gr  black 0 0 1 c
 gsave  2268 1328 0 0 C 1991.37 364.658 t 0 r /Symbol findfont 48.4311 sf 0 0 m (c) show NC gr  black 3 lw 340 375 m 1588 X s
 gsave  2268 1328 0 0 C 424.485 1213.63 t 0 r /Helvetica-Bold findfont 42.7334 sf 0 0 m (0.9 mm) show NC gr  0 0 1 c /w 23 def /w2 {w 2 div} def /w3 {w 3 div} def 383 1228 m21 black 1 1 1 c 1 0 1 c 380 494 m21 459 500 m21 539 497 m21 618 495 m21 697
 495 m21 777 498 m21 856 503 m21 935 494 m21 1015 475 m21 1094 477 m21 1174 479 m21 black 1253 473 m s 1253 496 m s 1247 473 m 12 X s 1247 496 m 12 X s 1 0 1 c 1253 485 m21 black 1332 455 m 3 Y s 1332 481 m 2 Y s 1327 455 m 11 X s 1327 483 m 11 X s 1
 0 1 c 1332 469 m21 black 1412 453 m 6 Y s 1412 481 m 6 Y s 1406 453 m 11 X s 1406 487 m 11 X s 1 0 1 c 1412 470 m21 black 1491 438 m 7 Y s 1491 468 m 7 Y s 1485 438 m 12 X s 1485 475 m 12 X s 1 0 1 c 1491 456 m21 black 1570 466 m 10 Y s 1570 498 m
 10 Y s 1565 466 m 11 X s 1565 508 m 11 X s 1 0 1 c 1570 487 m21 black 1650 470 m 11 Y s 1650 504 m 11 Y s 1644 470 m 11 X s 1644 515 m 11 X s 1 0 1 c 1650 493 m21 black 1729 483 m 13 Y s 1729 519 m 13 Y s 1723 483 m 12 X s 1723 532 m 12 X s 1 0 1 c
 1729 508 m21 black 1809 480 m 15 Y s 1809 518 m 15 Y s 1803 480 m 11 X s 1803 533 m 11 X s 1 0 1 c 1809 506 m21 black 1888 536 m 18 Y s 1888 577 m 17 Y s 1882 536 m 12 X s 1882 594 m 12 X s 1 0 1 c 1888 565 m21 6 lw 1 1 1 c 1 0 1 c 380 503 m 12 1 d
 13 1 d 14 X 14 1 d 106 X 79 -2 d 15 X 22 1 d 60 X 62 -1 d 72 X 5 -1 d 7 X 4 -1 d 4 -1 d 5 X 6 -2 d 6 -1 d 23 -5 d 5 -2 d 5 -1 d 5 X 4 -1 d 4 X 3 -1 d 49 X 16 1 d 37 X 17 1 d 30 X 6 -1 d 9 X 5 -1 d 5 X 6 -1 d 7 -1 d 10 -2 d 14 -3 d 7 -1 d 7 -1 d 5 X
 4 -1 d 5 X 5 -1 d 72 X 2 -1 d 16 X 12 -1 d 19 -1 d 10 -1 d 14 X 6 -1 d 2 X 6 1 d 21 X 12 1 d 19 2 d 9 X 7 1 d 6 X 79 1 d 5 1 d 5 X 6 1 d 6 1 d 9 1 d 19 3 d 7 1 d 7 1 d 5 1 d 5 X 5 1 d 19 X 8 1 d 9 X 14 -1 d 268 X s 3 lw /w 2 def /w2 {w 2 div} def
 /w3 {w 3 div} def 380 503 459 506 539 506 618 504 697 505 777 504 856 503 935 488 1015 489 1094 489 1174 478 1253 476 1332 472 1412 477 1491 478 1570 489 1650 489 1729 489 1809 489 1888 489 20 { m20} R 6 lw black 1 0 1 c
 gsave  2268 1328 0 0 C 2036.96 490.009 t 0 r /Helvetica-Bold findfont 48.4311 sf 0 0 m (/dof=3.3) show NC gr  black 1 0 1 c
 gsave  2268 1328 0 0 C 2017.01 507.102 t 0 r /Helvetica-Bold findfont 34.1867 sf 0 0 m (2) show NC gr  black 1 0 1 c
 gsave  2268 1328 0 0 C 1991.37 490.009 t 0 r /Symbol findfont 48.4311 sf 0 0 m (c) show NC gr  black 3 lw 340 492 m 1588 X s
 gsave  2268 1328 0 0 C 649.547 1213.63 t 0 r /Helvetica-Bold findfont 39.8845 sf 0 0 m (1.1 mm) show NC gr  1 0 1 c /w 23 def /w2 {w 2 div} def /w3 {w 3 div} def 609 1228 m21 black 1 1 1 c 0 0.733333 1 c 380 611 m21 459 615 m21 539 616 m21 618 612
 m21 697 611 m21 777 610 m21 856 615 m21 935 612 m21 1015 609 m21 1094 605 m21 1174 587 m21 black 1253 587 m 2 Y s 1253 611 m 2 Y s 1247 587 m 12 X s 1247 613 m 12 X s 0 0.733333 1 c 1253 600 m21 black 1332 582 m 4 Y s 1332 609 m 4 Y s 1327 582 m 11
 X s 1327 613 m 11 X s 0 0.733333 1 c 1332 598 m21 black 1412 587 m 7 Y s 1412 616 m 7 Y s 1406 587 m 11 X s 1406 623 m 11 X s 0 0.733333 1 c 1412 605 m21 black 1491 616 m 9 Y s 1491 648 m 10 Y s 1485 616 m 12 X s 1485 658 m 12 X s 0 0.733333 1 c
 1491 637 m21 black 1570 570 m 12 Y s 1570 604 m 12 Y s 1565 570 m 11 X s 1565 616 m 11 X s 0 0.733333 1 c 1570 593 m21 black 1650 552 m 13 Y s 1650 587 m 13 Y s 1644 552 m 11 X s 1644 600 m 11 X s 0 0.733333 1 c 1650 576 m21 black 1729 622 m 16 Y s
 1729 661 m 15 Y s 1723 622 m 12 X s 1723 676 m 12 X s 0 0.733333 1 c 1729 649 m21 black 1809 573 m 17 Y s 1809 613 m 17 Y s 1803 573 m 11 X s 1803 630 m 11 X s 0 0.733333 1 c 1809 602 m21 black 1888 585 m 20 Y s 1888 627 m 19 Y s 1882 585 m 12 X s
 1882 646 m 12 X s 0 0.733333 1 c 1888 616 m21 6 lw 1 1 1 c 0 0.733333 1 c 380 615 m 12 1 d 27 X 14 1 d 106 X 79 -1 d 228 X 5 -1 d 14 X 70 -7 d 99 X 19 1 d 34 X 6 -1 d 10 X 5 -1 d 6 X 6 -1 d 8 X 18 -2 d 7 -1 d 5 -1 d 10 X 4 -1 d 89 X 8 -1 d 12 X 19
 -1 d 59 X 12 1 d 19 X 9 1 d 88 X 4 1 d 10 X 5 1 d 5 X 7 1 d 9 1 d 13 1 d 7 1 d 6 X 5 1 d 18 X 6 1 d 13 X 55 -1 d 238 X s 3 lw /w 2 def /w2 {w 2 div} def /w3 {w 3 div} def 380 615 459 617 539 617 618 616 697 616 777 616 856 615 935 608 1015 608 1094
 608 1174 601 1253 601 1332 599 1412 601 1491 602 1570 608 1650 608 1729 608 1809 608 1888 608 20 { m20} R 6 lw black 0 0.733333 1 c
 gsave  2268 1328 0 0 C 2036.96 615.36 t 0 r /Helvetica-Bold findfont 48.4311 sf 0 0 m (/dof=1.0) show NC gr  black 0 0.733333 1 c
 gsave  2268 1328 0 0 C 2017.01 632.454 t 0 r /Helvetica-Bold findfont 34.1867 sf 0 0 m (2) show NC gr  black 0 0.733333 1 c
 gsave  2268 1328 0 0 C 1991.37 615.36 t 0 r /Symbol findfont 48.4311 sf 0 0 m (c) show NC gr  black 3 lw 340 609 m 1588 X s
 gsave  2268 1328 0 0 C 877.458 1213.63 t 0 r /Helvetica-Bold findfont 39.8845 sf 0 0 m (1.2 mm) show NC gr  0 0.733333 1 c /w 23 def /w2 {w 2 div} def /w3 {w 3 div} def 836 1228 m21 black 1 1 1 c 0.35 0.83 0.33 c 380 719 m21 459 723 m21 539 717 m21
 618 724 m21 697 726 m21 777 718 m21 856 723 m21 935 731 m21 1015 712 m21 1094 730 m21 1174 745 m21 black 1253 731 m 3 Y s 1253 756 m 3 Y s 1247 731 m 12 X s 1247 759 m 12 X s 0.35 0.83 0.33 c 1253 745 m21 black 1332 721 m 6 Y s 1332 749 m 6 Y s 1327
 721 m 11 X s 1327 755 m 11 X s 0.35 0.83 0.33 c 1332 738 m21 black 1412 694 m 8 Y s 1412 725 m 8 Y s 1406 694 m 11 X s 1406 733 m 11 X s 0.35 0.83 0.33 c 1412 714 m21 black 1491 724 m 11 Y s 1491 758 m 11 Y s 1485 724 m 12 X s 1485 769 m 12 X s 0.35
 0.83 0.33 c 1491 747 m21 black 1570 694 m 13 Y s 1570 730 m 13 Y s 1565 694 m 11 X s 1565 743 m 11 X s 0.35 0.83 0.33 c 1570 719 m21 black 1650 719 m 15 Y s 1650 757 m 15 Y s 1644 719 m 11 X s 1644 772 m 11 X s 0.35 0.83 0.33 c 1650 746 m21 black
 1729 700 m 17 Y s 1729 740 m 17 Y s 1723 700 m 12 X s 1723 757 m 12 X s 0.35 0.83 0.33 c 1729 728 m21 black 1809 727 m 20 Y s 1809 769 m 20 Y s 1803 727 m 11 X s 1803 789 m 11 X s 0.35 0.83 0.33 c 1809 758 m21 black 1888 740 m 22 Y s 1888 785 m 22 Y
 s 1882 740 m 12 X s 1882 807 m 12 X s 0.35 0.83 0.33 c 1888 773 m21 6 lw 1 1 1 c 0.35 0.83 0.33 c 380 720 m 12 -1 d 27 X 14 -1 d 126 X 35 1 d 249 X 6 1 d 18 X 6 1 d 7 X 9 1 d 18 1 d 7 1 d 7 X 5 1 d 16 X 6 1 d 8 X 59 -1 d 79 X 5 1 d 8 X 5 1 d 5 1 d 6
 X 8 2 d 13 1 d 6 1 d 5 1 d 5 X 4 1 d 8 X 2 1 d 79 X 7 1 d 19 X 20 1 d 17 X 6 1 d 21 X 7 -1 d 18 X 27 -1 d 7 -1 d 82 X 5 -1 d 11 X 4 -1 d 5 X 6 -1 d 6 -1 d 23 -3 d 6 -1 d 4 X 5 -1 d 8 X 3 -1 d 80 X 6 1 d 18 X 17 1 d 12 X 8 1 d 38 X 8 -1 d 13 X 18 -1
 d 14 X 7 -1 d 79 X s 3 lw /w 2 def /w2 {w 2 div} def /w3 {w 3 div} def 380 720 459 718 539 718 618 719 697 719 777 719 856 720 935 725 1015 725 1094 725 1174 735 1253 735 1332 738 1412 735 1491 734 1570 725 1650 725 1729 728 1809 725 1888 725 20 {
 m20} R 6 lw black 0.35 0.83 0.33 c
 gsave  2268 1328 0 0 C 2039.81 740.711 t 0 r /Helvetica-Bold findfont 48.4311 sf 0 0 m (/dof=1.1) show NC gr  black 0.35 0.83 0.33 c
 gsave  2268 1328 0 0 C 2019.86 757.805 t 0 r /Helvetica-Bold findfont 34.1867 sf 0 0 m (2) show NC gr  black 0.35 0.83 0.33 c
 gsave  2268 1328 0 0 C 1994.22 740.711 t 0 r /Symbol findfont 48.4311 sf 0 0 m (c) show NC gr  black 3 lw 340 726 m 1588 X s
 gsave  2268 1328 0 0 C 1105.37 1213.63 t 0 r /Helvetica-Bold findfont 39.8845 sf 0 0 m (1.4 mm) show NC gr  0.35 0.83 0.33 c /w 23 def /w2 {w 2 div} def /w3 {w 3 div} def 1063 1228 m21 black 1 1 1 c 0.53 0.4 0.34 c 380 827 m21 459 823 m21 539 829
 m21 618 825 m21 697 817 m21 777 828 m21 856 828 m21 935 830 m21 1015 832 m21 1094 852 m21 black 1174 861 m 1 Y s 1174 884 m 1 Y s 1168 861 m 11 X s 1168 885 m 11 X s 0.53 0.4 0.34 c 1174 873 m21 black 1253 850 m 3 Y s 1253 876 m 3 Y s 1247 850 m 12
 X s 1247 879 m 12 X s 0.53 0.4 0.34 c 1253 864 m21 black 1332 860 m 7 Y s 1332 890 m 6 Y s 1327 860 m 11 X s 1327 896 m 11 X s 0.53 0.4 0.34 c 1332 878 m21 black 1412 812 m 10 Y s 1412 845 m 9 Y s 1406 812 m 11 X s 1406 854 m 11 X s 0.53 0.4 0.34 c
 1412 833 m21 black 1491 867 m 13 Y s 1491 903 m 13 Y s 1485 867 m 12 X s 1485 916 m 12 X s 0.53 0.4 0.34 c 1491 891 m21 black 1570 806 m 15 Y s 1570 844 m 15 Y s 1565 806 m 11 X s 1565 859 m 11 X s 0.53 0.4 0.34 c 1570 833 m21 black 1650 821 m 17 Y
 s 1650 861 m 17 Y s 1644 821 m 11 X s 1644 878 m 11 X s 0.53 0.4 0.34 c 1650 850 m21 black 1729 809 m 19 Y s 1729 851 m 19 Y s 1723 809 m 12 X s 1723 870 m 12 X s 0.53 0.4 0.34 c 1729 840 m21 black 1809 829 m 21 Y s 1809 873 m 22 Y s 1803 829 m 11 X
 s 1803 895 m 11 X s 0.53 0.4 0.34 c 1809 862 m21 black 1888 863 m 24 Y s 1888 910 m 25 Y s 1882 863 m 12 X s 1882 935 m 12 X s 0.53 0.4 0.34 c 1888 899 m21 6 lw 1 1 1 c 0.53 0.4 0.34 c 380 829 m 12 X 13 -1 d 14 -1 d 14 -1 d 26 X 11 -1 d 11 X 11 1 d
 47 X 20 1 d 35 X 15 1 d 23 X 65 -1 d 21 X 31 1 d 76 X 10 1 d 21 X 6 1 d 6 1 d 8 X 9 2 d 23 3 d 9 1 d 6 1 d 6 X 6 1 d 8 X 8 1 d 71 X 9 -1 d 29 -1 d 14 X 6 1 d 10 X 4 1 d 4 X 4 1 d 5 1 d 4 1 d 5 1 d 5 2 d 7 2 d 15 6 d 7 2 d 5 1 d 4 1 d 5 2 d 4 X 3 1 d
 3 X 4 1 d 6 X 5 1 d 71 X 9 1 d 10 1 d 20 1 d 9 1 d 8 X 6 1 d 21 X 7 -1 d 9 X 9 -1 d 27 -3 d 7 X 6 -1 d 75 X 4 -1 d 4 X 4 -1 d 4 -1 d 5 -1 d 4 -1 d 5 -1 d 6 -2 d 6 -2 d 16 -6 d 6 -1 d 4 -2 d 5 -1 d 4 -1 d 4 -1 d 4 X 2 -1 d 5 X 6 -1 d 43 X 16 1 d 10 1
 d 11 X 8 1 d 9 1 d 19 3 d 8 1 d 6 X 6 1 d 23 X 6 -1 d 7 X 8 -1 d 15 -2 d 12 -1 d 7 -1 d 6 X 6 -1 d 14 X 10 -1 d 45 X 12 1 d s 3 lw /w 2 def /w2 {w 2 div} def /w3 {w 3 div} def 380 829 459 826 539 826 618 828 697 827 777 828 856 829 935 839 1015 840
 1094 840 1174 861 1253 863 1332 868 1412 862 1491 861 1570 839 1650 840 1729 847 1809 840 1888 840 20 { m20} R 6 lw black 0.53 0.4 0.34 c
 gsave  2268 1328 0 0 C 2039.81 863.214 t 0 r /Helvetica-Bold findfont 48.4311 sf 0 0 m (/dof=1.1) show NC gr  black 0.53 0.4 0.34 c
 gsave  2268 1328 0 0 C 2019.86 880.307 t 0 r /Helvetica-Bold findfont 34.1867 sf 0 0 m (2) show NC gr  black 0.53 0.4 0.34 c
 gsave  2268 1328 0 0 C 1994.22 863.214 t 0 r /Symbol findfont 48.4311 sf 0 0 m (c) show NC gr  black 3 lw 340 843 m 1588 X s
 gsave  2268 1328 0 0 C 1330.43 1213.63 t 0 r /Helvetica-Bold findfont 42.7334 sf 0 0 m (1.5 mm) show NC gr  0.53 0.4 0.34 c /w 23 def /w2 {w 2 div} def /w3 {w 3 div} def 1290 1228 m21 black 1 1 1 c black 380 913 m21 459 904 m21 539 909 m21 618 904
 m21 697 908 m21 777 903 m21 856 909 m21 935 918 m21 1015 928 m21 1094 957 m21 1174 954 m 1 Y s 1174 978 m 1 Y s 1168 954 m 11 X s 1168 979 m 11 X s 1174 967 m21 1253 992 m 5 Y s 1253 1020 m 4 Y s 1247 992 m 12 X s 1247 1024 m 12 X s 1253 1008 m21
 1332 973 m 8 Y s 1332 1004 m 8 Y s 1327 973 m 11 X s 1327 1012 m 11 X s 1332 993 m21 1412 950 m 11 Y s 1412 984 m 11 Y s 1406 950 m 11 X s 1406 995 m 11 X s 1412 972 m21 1491 1002 m 14 Y s 1491 1039 m 15 Y s 1485 1002 m 12 X s 1485 1054 m 12 X s
 1491 1028 m21 1570 874 m 16 Y s 1570 913 m 16 Y s 1565 874 m 11 X s 1565 929 m 11 X s 1570 902 m21 1650 951 m 19 Y s 1650 993 m 19 Y s 1644 951 m 11 X s 1644 1012 m 11 X s 1650 982 m21 1729 980 m 22 Y s 1729 1025 m 22 Y s 1723 980 m 12 X s 1723 1047
 m 12 X s 1729 1014 m21 1809 953 m 24 Y s 1809 1000 m 24 Y s 1803 953 m 11 X s 1803 1024 m 11 X s 1809 989 m21 1888 899 m 26 Y s 1888 948 m 26 Y s 1882 899 m 12 X s 1882 974 m 12 X s 1888 937 m21 6 lw 1 1 1 c black 380 931 m 12 -2 d 13 -2 d 14 -2 d
 14 -1 d 12 -1 d 14 X 11 -1 d 22 X 19 1 d 28 1 d 20 1 d 35 2 d 38 X 65 -1 d 21 1 d 31 X 28 1 d 27 1 d 22 X 14 1 d 12 1 d 4 X 10 1 d 11 1 d 19 3 d 18 3 d 12 1 d 9 1 d 13 1 d 15 1 d 15 X 37 1 d 14 X 20 -1 d 11 -1 d 18 X 5 1 d 5 1 d 4 1 d 2 X 4 1 d 3 2
 d 5 2 d 4 2 d 4 3 d 4 4 d 6 4 d 7 6 d 11 10 d 6 5 d 5 3 d 4 3 d 4 3 d 4 2 d 3 2 d 4 1 d 2 1 d 4 1 d 5 1 d 5 1 d 5 X 6 1 d 54 -1 d 7 1 d 9 1 d 10 2 d 20 3 d 9 2 d 8 1 d 6 X 6 1 d 9 X 6 -1 d 7 -1 d 9 -1 d 9 -2 d 27 -5 d 7 -1 d 6 -1 d 4 -1 d 20 X 18 1
 d 22 X 6 -1 d 4 X 4 -1 d 5 -2 d 4 -1 d 3 -1 d 4 -3 d 5 -2 d 4 -3 d 5 -4 d 5 -4 d 23 -20 d 4 -4 d 5 -3 d 3 -2 d 4 -2 d 4 -2 d 3 -1 d 3 -2 d 5 -1 d 5 -1 d 5 -1 d 6 X 6 -1 d 6 X 8 1 d 7 X 9 1 d 11 1 d 12 2 d 4 1 d 5 1 d 6 2 d 6 2 d 9 4 d 15 6 d 7 3 d 6
 2 d 5 1 d 5 1 d 4 1 d 16 X 4 -1 d 5 -1 d 6 -1 d 6 -3 d 7 -2 d 22 -8 d 7 -2 d 5 -2 d 4 -1 d 5 X 9 -2 d 11 -1 d 9 X 9 -1 d 20 X 9 1 d 10 X 2 1 d s 3 lw /w 2 def /w2 {w 2 div} def /w3 {w 3 div} def 380 931 459 923 539 924 618 927 697 926 777 928 856
 931 935 941 1015 944 1094 945 1174 999 1253 1002 1332 1013 1412 1000 1491 997 1570 943 1650 944 1729 968 1809 947 1888 945 20 { m20} R 6 lw
 gsave  2268 1328 0 0 C 2022.71 988.565 t 0 r /Helvetica-Bold findfont 48.4311 sf 0 0 m (/dof=10.3) show NC gr 
 gsave  2268 1328 0 0 C 2002.77 1005.66 t 0 r /Helvetica-Bold findfont 34.1867 sf 0 0 m (2) show NC gr 
 gsave  2268 1328 0 0 C 1977.13 988.565 t 0 r /Symbol findfont 48.4311 sf 0 0 m (c) show NC gr  3 lw 340 961 m 1588 X s
 gsave  2268 1328 0 0 C 1558.34 1213.63 t 0 r /Helvetica-Bold findfont 39.8845 sf 0 0 m (1.7 mm) show NC gr  /w 23 def /w2 {w 2 div} def /w3 {w 3 div} def 1517 1228 m21 1 1 1 c 0.48 0 1 c 380 995 m21 459 980 m21 539 977 m21 618 983 m21 697 978 m21
 777 993 m21 856 993 m21 935 993 m21 1015 1026 m21 1094 1075 m21 black 1174 1111 m 2 Y s 1174 1136 m 2 Y s 1168 1111 m 11 X s 1168 1138 m 11 X s 0.48 0 1 c 1174 1125 m21 black 1253 1111 m 6 Y s 1253 1140 m 5 Y s 1247 1111 m 12 X s 1247 1145 m 12 X s
 0.48 0 1 c 1253 1128 m21 black 1332 1110 m 9 Y s 1332 1142 m 9 Y s 1327 1110 m 11 X s 1327 1151 m 11 X s 0.48 0 1 c 1332 1130 m21 black 1412 1109 m 13 Y s 1412 1145 m 12 Y s 1406 1109 m 11 X s 1406 1157 m 11 X s 0.48 0 1 c 1412 1133 m21 black 1491
 1112 m 17 Y s 1491 1151 m 17 Y s 1485 1112 m 12 X s 1485 1168 m 12 X s 0.48 0 1 c 1491 1140 m21 black 1570 1008 m 18 Y s 1570 1049 m 18 Y s 1565 1008 m 11 X s 1565 1067 m 11 X s 0.48 0 1 c 1570 1037 m21 black 1650 1009 m 20 Y s 1650 1052 m 20 Y s
 1644 1009 m 11 X s 1644 1072 m 11 X s 0.48 0 1 c 1650 1040 m21 black 1729 1031 m 24 Y s 1729 1077 m 24 Y s 1723 1031 m 12 X s 1723 1101 m 12 X s 0.48 0 1 c 1729 1066 m21 black 1809 958 m 25 Y s 1809 1006 m 25 Y s 1803 958 m 11 X s 1803 1031 m 11 X s
 0.48 0 1 c 1809 995 m21 black 1888 1010 m 28 Y s 1888 1061 m 28 Y s 1882 1010 m 12 X s 1882 1089 m 12 X s 0.48 0 1 c 1888 1049 m21 6 lw 1 1 1 c 0.48 0 1 c 380 1030 m 12 -3 d 13 -3 d 14 -2 d 14 -2 d 12 -2 d 14 -1 d 33 X 19 1 d 28 2 d 20 1 d 35 3 d 15
 X 9 1 d 14 X 65 -2 d 21 1 d 31 1 d 28 1 d 40 2 d 26 2 d 13 X 79 1 d 14 1 d 20 2 d 29 4 d 14 1 d 16 X 8 -1 d 22 -3 d 14 X 5 1 d 6 1 d 4 1 d 4 2 d 3 1 d 4 2 d 3 3 d 4 3 d 4 4 d 3 4 d 4 5 d 5 7 d 5 8 d 14 22 d 5 9 d 4 6 d 5 6 d 4 5 d 4 4 d 3 3 d 4 3 d
 3 2 d 2 1 d 4 2 d 4 2 d 71 2 d 7 1 d 9 2 d 10 3 d 20 6 d 9 2 d 8 1 d 6 1 d 6 1 d 9 X 6 -1 d 7 -1 d 9 -3 d 9 -2 d 27 -9 d 7 -2 d 6 -1 d 4 -1 d 5 X 6 -1 d 8 1 d 12 1 d 11 1 d 15 X 5 -1 d 5 -1 d 4 -1 d 4 -1 d 4 -2 d 3 -3 d 4 -2 d 3 -3 d 4 -4 d 4 -4 d 4
 -6 d 4 -6 d 5 -9 d 20 -34 d 4 -5 d 4 -5 d 3 -5 d 4 -4 d 3 -3 d 4 -3 d 3 -2 d 3 -2 d 5 -2 d 5 -2 d 5 -2 d 5 -1 d 6 X 6 -1 d 6 1 d 7 X 7 1 d 8 2 d 10 3 d 10 3 d 4 1 d 5 2 d 4 3 d 5 4 d 6 4 d 8 8 d 12 11 d 6 5 d 5 4 d 5 3 d 4 2 d 4 2 d 4 1 d 3 1 d 8 X
 4 -1 d 4 -1 d 4 -2 d 5 -2 d 5 -3 d 6 -4 d 7 -6 d 18 -14 d 6 -4 d 5 -4 d 4 -2 d 4 -2 d 4 -1 d 8 -2 d 8 -2 d 8 -1 d 9 -1 d 8 -1 d 17 X 8 1 d 8 1 d 5 1 d s 3 lw /w 2 def /w2 {w 2 div} def /w3 {w 3 div} def 380 1030 459 1017 539 1020 618 1025 697 1023
 777 1026 856 1030 935 1031 1015 1039 1094 1041 1174 1138 1253 1144 1332 1161 1412 1141 1491 1137 1570 1037 1650 1039 1729 1090 1809 1044 1888 1040 20 { m20} R 6 lw black 0.48 0 1 c
 gsave  2268 1328 0 0 C 2022.71 1113.92 t 0 r /Helvetica-Bold findfont 48.4311 sf 0 0 m (/dof=31.5) show NC gr  black 0.48 0 1 c
 gsave  2268 1328 0 0 C 2002.77 1131.01 t 0 r /Helvetica-Bold findfont 34.1867 sf 0 0 m (2) show NC gr  black 0.48 0 1 c
 gsave  2268 1328 0 0 C 1977.13 1113.92 t 0 r /Symbol findfont 48.4311 sf 0 0 m (c) show NC gr  black 3 lw 340 1078 m 1588 X s
 gsave  2268 1328 0 0 C 1783.41 1213.63 t 0 r /Helvetica-Bold findfont 42.7334 sf 0 0 m (1.9 mm) show NC gr  0.48 0 1 c /w 23 def /w2 {w 2 div} def /w3 {w 3 div} def 1743 1228 m21
 gr  gr showpage
end
%%EOF
