%!PS-Adobe-2.0 EPSF-2.0
%%BoundingBox:  0 0 567 333
%%Title: : flux_ratio
%%Creator: ROOT Version 5.30/06
%%CreationDate: Tue Jan 28 13:13:21 2014
%%EndComments
%%BeginProlog
80 dict begin
/s {stroke} def /l {lineto} def /m {moveto} def /t {translate} def
/r {rotate} def /rl {roll}  def /R {repeat} def
/d {rlineto} def /rm {rmoveto} def /gr {grestore} def /f {eofill} def
/c {setrgbcolor} def /black {0 setgray} def /sd {setdash} def
/cl {closepath} def /sf {scalefont setfont} def /lw {setlinewidth} def
/box {m dup 0 exch d exch 0 d 0 exch neg d cl} def
/NC{systemdict begin initclip end}def/C{NC box clip newpath}def
/bl {box s} def /bf {box f} def /Y { 0 exch d} def /X { 0 d} def 
/K {{pop pop 0 moveto} exch kshow} bind def
/ita {/ang 15 def gsave [1 0 ang dup sin exch cos div 1 0 0] concat} def 
/mp {newpath /y exch def /x exch def} def
/side {[w .77 mul w .23 mul] .385 w mul sd w 0 l currentpoint t -144 r} def
/mr {mp x y w2 0 360 arc} def /m24 {mr s} def /m20 {mr f} def
/mb {mp x y w2 add m w2 neg 0 d 0 w neg d w 0 d 0 w d cl} def
/mt {mp x y w2 add m w2 neg w neg d w 0 d cl} def
/m21 {mb f} def /m25 {mb s} def /m22 {mt f} def /m26{mt s} def
/m23 {mp x y w2 sub m w2 w d w neg 0 d cl f} def
/m27 {mp x y w2 add m w3 neg w2 neg d w3 w2 neg d w3 w2 d cl s} def
/m28 {mp x w2 sub y w2 sub w3 add m w3 0 d  0 w3 neg d w3 0 d 0 w3 d w3 0 d  0 w3 d w3 neg 0 d 0 w3 d w3 neg 0 d 0 w3 neg d w3 neg 0 d cl s } def
/m29 {mp gsave x w2 sub y w2 add w3 sub m currentpoint t 4 {side} repeat cl fill gr} def
/m30 {mp gsave x w2 sub y w2 add w3 sub m currentpoint t 4 {side} repeat cl s gr} def
/m31 {mp x y w2 sub m 0 w d x w2 sub y m w 0 d x w2 sub y w2 add m w w neg d x w2 sub y w2 sub m w w d s} def
/m32 {mp x y w2 sub m w2 w d w neg 0 d cl s} def
/m33 {mp x y w2 add m w3 neg w2 neg d w3 w2 neg d w3 w2 d cl f} def
/m34 {mp x w2 sub y w2 sub w3 add m w3 0 d  0 w3 neg d w3 0 d 0 w3 d w3 0 d  0 w3 d w3 neg 0 d 0 w3 d w3 neg 0 d 0 w3 neg d w3 neg 0 d cl f } def
/m2 {mp x y w2 sub m 0 w d x w2 sub y m w 0 d s} def
/m5 {mp x w2 sub y w2 sub m w w d x w2 sub y w2 add m w w neg d s} def
/reEncode {exch findfont dup length dict begin {1 index /FID eq  {pop pop} {def} ifelse } forall /Encoding exch def currentdict end dup /FontName get exch definefont pop } def [/Times-Bold /Times-Italic /Times-BoldItalic /Helvetica /Helvetica-Oblique
 /Helvetica-Bold /Helvetica-BoldOblique /Courier /Courier-Oblique /Courier-Bold /Courier-BoldOblique /Times-Roman /AvantGarde-Book /AvantGarde-BookOblique /AvantGarde-Demi /AvantGarde-DemiOblique /Bookman-Demi /Bookman-DemiItalic /Bookman-Light
 /Bookman-LightItalic /Helvetica-Narrow /Helvetica-Narrow-Bold /Helvetica-Narrow-BoldOblique /Helvetica-Narrow-Oblique /NewCenturySchlbk-Roman /NewCenturySchlbk-Bold /NewCenturySchlbk-BoldItalic /NewCenturySchlbk-Italic /Palatino-Bold
 /Palatino-BoldItalic /Palatino-Italic /Palatino-Roman ] {ISOLatin1Encoding reEncode } forall%%EndProlog
%%BeginSetup
%%EndSetup
newpath  gsave  .25 .25 scale  gsave  0 0 t black[  ] 0 sd 9 lw 1 1 1 c 2268 1332 0 0 bf black 1 1 1 c 710 639 23 679 bf black 6 lw 1 1 1 c black 533 486 165 775 bl 533 486 165 775 bl 1 1 1 c black 533 486 165 775 bl 533 486 165 775 bl 1 0 0 c 9 lw 1
 1 1 c black 1 0 0 c 171 1016 m 2 Y s 171 1017 m 1 Y s 171 1017 m s 171 1017 m s 185 1017 m 2 Y s 185 1018 m 1 Y s 185 1018 m s 185 1018 m s 198 1017 m 1 Y s 198 1017 m 1 Y s 198 1017 m s 198 1017 m s 211 1015 m 2 Y s 211 1016 m 1 Y s 211 1016 m s
 211 1016 m s 225 1016 m 2 Y s 225 1017 m 1 Y s 225 1017 m s 225 1017 m s 238 1018 m 2 Y s 238 1019 m 1 Y s 238 1019 m s 238 1019 m s 251 1016 m 2 Y s 251 1017 m 1 Y s 251 1017 m s 251 1017 m s 265 1019 m 3 Y s 265 1021 m 1 Y s 265 1021 m s 265 1021
 m s 278 1014 m 4 Y s 278 1016 m 2 Y s 278 1016 m s 278 1016 m s 291 1016 m 6 Y s 291 1019 m 3 Y s 291 1019 m s 291 1019 m s 305 1017 m 7 Y s 305 1020 m 4 Y s 305 1020 m s 305 1020 m s 318 1012 m 9 Y s 318 1017 m 4 Y s 318 1017 m s 318 1017 m s 331
 1015 m 11 Y s 331 1020 m 6 Y s 331 1020 m s 331 1020 m s 345 1015 m 12 Y s 345 1021 m 6 Y s 345 1021 m s 345 1021 m s 358 996 m 13 Y s 358 1003 m 6 Y s 358 1003 m s 358 1003 m s 371 1018 m 14 Y s 371 1025 m 7 Y s 371 1025 m s 371 1025 m s 385 1001 m
 15 Y s 385 1009 m 7 Y s 385 1009 m s 385 1009 m s 398 1014 m 16 Y s 398 1022 m 8 Y s 398 1022 m s 398 1022 m s 411 1003 m 17 Y s 411 1012 m 8 Y s 411 1012 m s 411 1012 m s 425 1017 m 17 Y s 425 1026 m 8 Y s 425 1026 m s 425 1026 m s 438 999 m 19 Y s
 438 1008 m 10 Y s 438 1008 m s 438 1008 m s 451 1000 m 19 Y s 451 1010 m 9 Y s 451 1010 m s 451 1010 m s 465 1003 m 20 Y s 465 1013 m 10 Y s 465 1013 m s 465 1013 m s 478 1015 m 21 Y s 478 1025 m 11 Y s 478 1025 m s 478 1025 m s 491 1000 m 22 Y s
 491 1011 m 11 Y s 491 1011 m s 491 1011 m s 505 1012 m 24 Y s 505 1024 m 12 Y s 505 1024 m s 505 1024 m s 518 993 m 24 Y s 518 1005 m 12 Y s 518 1005 m s 518 1005 m s 531 1019 m 26 Y s 531 1032 m 13 Y s 531 1032 m s 531 1032 m s 544 1008 m 28 Y s
 544 1022 m 14 Y s 544 1022 m s 544 1022 m s 558 996 m 30 Y s 558 1011 m 15 Y s 558 1011 m s 558 1011 m s 571 1011 m 31 Y s 571 1027 m 15 Y s 571 1027 m s 571 1027 m s 584 1034 m 34 Y s 584 1051 m 17 Y s 584 1051 m s 584 1051 m s 598 1031 m 35 Y s
 598 1048 m 18 Y s 598 1048 m s 598 1048 m s 611 1030 m 37 Y s 611 1048 m 19 Y s 611 1048 m s 611 1048 m s 624 1011 m 39 Y s 624 1030 m 20 Y s 624 1030 m s 624 1030 m s 638 1010 m 41 Y s 638 1030 m 21 Y s 638 1030 m s 638 1030 m s 651 1008 m 41 Y s
 651 1029 m 20 Y s 651 1029 m s 651 1029 m s 664 992 m 45 Y s 664 1015 m 22 Y s 664 1015 m s 664 1015 m s 678 986 m 48 Y s 678 1010 m 24 Y s 678 1010 m s 678 1010 m s 691 989 m 46 Y s 691 1012 m 23 Y s 691 1012 m s 691 1012 m s black 165 775 m 533 X
 s
 gsave  710 639 23 679 C 329.478 688.495 t 0 r /Helvetica findfont 35.2551 sf 0 0 m ( Energy \(GeV\) ) show NC gr 
 gsave  710 639 23 679 C 315.844 680.542 t 0 r /Symbol findfont 23.8825 sf 0 0 m (m) show NC gr 
 gsave  710 639 23 679 C 297.666 688.495 t 0 r /Symbol findfont 35.2551 sf 0 0 m (n) show NC gr  165 784 m -9 Y s 178 779 m -4 Y s 191 779 m -4 Y s 205 779 m -4 Y s 218 784 m -9 Y s 231 779 m -4 Y s 245 779 m -4 Y s 258 779 m -4 Y s 271 784 m -9 Y s
 285 779 m -4 Y s 298 779 m -4 Y s 311 779 m -4 Y s 325 784 m -9 Y s 338 779 m -4 Y s 351 779 m -4 Y s 365 779 m -4 Y s 378 784 m -9 Y s 391 779 m -4 Y s 405 779 m -4 Y s 418 779 m -4 Y s 431 784 m -9 Y s 445 779 m -4 Y s 458 779 m -4 Y s 471 779 m
 -4 Y s 485 784 m -9 Y s 498 779 m -4 Y s 511 779 m -4 Y s 525 779 m -4 Y s 538 784 m -9 Y s 551 779 m -4 Y s 564 779 m -4 Y s 578 779 m -4 Y s 591 784 m -9 Y s 604 779 m -4 Y s 618 779 m -4 Y s 631 779 m -4 Y s 644 784 m -9 Y s 658 779 m -4 Y s 671
 779 m -4 Y s 684 779 m -4 Y s 698 784 m -9 Y s
 gsave  710 639 23 679 C 155.65 735.076 t 0 r /Helvetica findfont 35.2551 sf 0 0 m (0) show NC gr 
 gsave  710 639 23 679 C 207.912 735.076 t 0 r /Helvetica findfont 35.2551 sf 0 0 m (2) show NC gr 
 gsave  710 639 23 679 C 261.31 735.076 t 0 r /Helvetica findfont 35.2551 sf 0 0 m (4) show NC gr 
 gsave  710 639 23 679 C 314.708 735.076 t 0 r /Helvetica findfont 35.2551 sf 0 0 m (6) show NC gr 
 gsave  710 639 23 679 C 368.106 735.076 t 0 r /Helvetica findfont 35.2551 sf 0 0 m (8) show NC gr 
 gsave  710 639 23 679 C 411.279 735.076 t 0 r /Helvetica findfont 35.2551 sf 0 0 m (10) show NC gr 
 gsave  710 639 23 679 C 464.677 735.076 t 0 r /Helvetica findfont 35.2551 sf 0 0 m (12) show NC gr 
 gsave  710 639 23 679 C 518.076 735.076 t 0 r /Helvetica findfont 35.2551 sf 0 0 m (14) show NC gr 
 gsave  710 639 23 679 C 571.474 735.076 t 0 r /Helvetica findfont 35.2551 sf 0 0 m (16) show NC gr 
 gsave  710 639 23 679 C 624.872 735.076 t 0 r /Helvetica findfont 35.2551 sf 0 0 m (18) show NC gr 
 gsave  710 639 23 679 C 678.27 735.076 t 0 r /Helvetica findfont 35.2551 sf 0 0 m (20) show NC gr  165 1261 m 533 X s 165 1252 m 9 Y s 178 1256 m 5 Y s 191 1256 m 5 Y s 205 1256 m 5 Y s 218 1252 m 9 Y s 231 1256 m 5 Y s 245 1256 m 5 Y s 258 1256 m 5
 Y s 271 1252 m 9 Y s 285 1256 m 5 Y s 298 1256 m 5 Y s 311 1256 m 5 Y s 325 1252 m 9 Y s 338 1256 m 5 Y s 351 1256 m 5 Y s 365 1256 m 5 Y s 378 1252 m 9 Y s 391 1256 m 5 Y s 405 1256 m 5 Y s 418 1256 m 5 Y s 431 1252 m 9 Y s 445 1256 m 5 Y s 458
 1256 m 5 Y s 471 1256 m 5 Y s 485 1252 m 9 Y s 498 1256 m 5 Y s 511 1256 m 5 Y s 525 1256 m 5 Y s 538 1252 m 9 Y s 551 1256 m 5 Y s 564 1256 m 5 Y s 578 1256 m 5 Y s 591 1252 m 9 Y s 604 1256 m 5 Y s 618 1256 m 5 Y s 631 1256 m 5 Y s 644 1252 m 9 Y
 s 658 1256 m 5 Y s 671 1256 m 5 Y s 684 1256 m 5 Y s 698 1252 m 9 Y s 165 775 m 486 Y s
 gsave  710 639 23 679 C 68.1678 945.261 t 90 r /Helvetica findfont 35.2551 sf 0 0 m (s Ratio to Nominal) show NC gr 
 gsave  710 639 23 679 C 76.1207 931.627 t 90 r /Symbol findfont 23.8825 sf 0 0 m (m) show NC gr 
 gsave  710 639 23 679 C 68.1678 913.449 t 90 r /Symbol findfont 35.2551 sf 0 0 m (n) show NC gr 
 gsave  710 639 23 679 C 68.1678 804.38 t 90 r /Helvetica findfont 35.2551 sf 0 0 m (Unosc ) show NC gr  175 775 m -10 X s 170 787 m -5 X s 170 799 m -5 X s 170 811 m -5 X s 170 824 m -5 X s 175 836 m -10 X s 170 848 m -5 X s 170 860 m -5 X s 170 872
 m -5 X s 170 884 m -5 X s 175 896 m -10 X s 170 909 m -5 X s 170 921 m -5 X s 170 933 m -5 X s 170 945 m -5 X s 175 957 m -10 X s 170 969 m -5 X s 170 981 m -5 X s 170 994 m -5 X s 170 1006 m -5 X s 175 1018 m -10 X s 170 1030 m -5 X s 170 1042 m -5
 X s 170 1054 m -5 X s 170 1066 m -5 X s 175 1079 m -10 X s 170 1091 m -5 X s 170 1103 m -5 X s 170 1115 m -5 X s 170 1127 m -5 X s 175 1139 m -10 X s 170 1151 m -5 X s 170 1164 m -5 X s 170 1176 m -5 X s 170 1188 m -5 X s 175 1200 m -10 X s 170 1212
 m -5 X s 170 1224 m -5 X s 170 1236 m -5 X s 170 1249 m -5 X s 175 1261 m -10 X s
 gsave  710 639 23 679 C 105.66 762.344 t 0 r /Helvetica findfont 35.2551 sf 0 0 m (0.8) show NC gr 
 gsave  710 639 23 679 C 85.2098 822.559 t 0 r /Helvetica findfont 35.2551 sf 0 0 m (0.85) show NC gr 
 gsave  710 639 23 679 C 105.66 882.773 t 0 r /Helvetica findfont 35.2551 sf 0 0 m (0.9) show NC gr 
 gsave  710 639 23 679 C 85.2098 944.125 t 0 r /Helvetica findfont 35.2551 sf 0 0 m (0.95) show NC gr 
 gsave  710 639 23 679 C 139.744 1004.34 t 0 r /Helvetica findfont 35.2551 sf 0 0 m (1) show NC gr 
 gsave  710 639 23 679 C 85.2098 1065.69 t 0 r /Helvetica findfont 35.2551 sf 0 0 m (1.05) show NC gr 
 gsave  710 639 23 679 C 110.205 1125.91 t 0 r /Helvetica findfont 35.2551 sf 0 0 m (1.1) show NC gr 
 gsave  710 639 23 679 C 85.2098 1187.26 t 0 r /Helvetica findfont 35.2551 sf 0 0 m (1.15) show NC gr 
 gsave  710 639 23 679 C 105.66 1247.47 t 0 r /Helvetica findfont 35.2551 sf 0 0 m (1.2) show NC gr  698 775 m 486 Y s 688 775 m 10 X s 693 787 m 5 X s 693 799 m 5 X s 693 811 m 5 X s 693 824 m 5 X s 688 836 m 10 X s 693 848 m 5 X s 693 860 m 5 X s
 693 872 m 5 X s 693 884 m 5 X s 688 896 m 10 X s 693 909 m 5 X s 693 921 m 5 X s 693 933 m 5 X s 693 945 m 5 X s 688 957 m 10 X s 693 969 m 5 X s 693 981 m 5 X s 693 994 m 5 X s 693 1006 m 5 X s 688 1018 m 10 X s 693 1030 m 5 X s 693 1042 m 5 X s
 693 1054 m 5 X s 693 1066 m 5 X s 688 1079 m 10 X s 693 1091 m 5 X s 693 1103 m 5 X s 693 1115 m 5 X s 693 1127 m 5 X s 688 1139 m 10 X s 693 1151 m 5 X s 693 1164 m 5 X s 693 1176 m 5 X s 693 1188 m 5 X s 688 1200 m 10 X s 693 1212 m 5 X s 693 1224
 m 5 X s 693 1236 m 5 X s 693 1249 m 5 X s 688 1261 m 10 X s 0 1 0 c[ 12 12] 0 sd 0.95 0.95 0.95 c black 0 1 0 c 167 1018 m 262 X s 429 1018 m 261 X s 690 1018 m 5 X s black
 gsave  710 639 23 679 C 351.064 1152.04 t 0 r /Helvetica-Bold findfont 36.3924 sf 0 0 m (NoShielding) show NC gr  1 0 0 c[  ] 0 sd 283 1162 m 56 X s black 1 1 1 c 710 639 779 679 bf black 6 lw 1 1 1 c black 533 486 921 775 bl 533 486 921 775 bl 1 1
 1 c black 533 486 921 775 bl 533 486 921 775 bl 1 0 0 c 9 lw 1 1 1 c black 1 0 0 c 934 1017 m 2 Y s 934 1018 m 1 Y s 934 1018 m s 934 1018 m s 961 1016 m 3 Y s 961 1018 m 1 Y s 961 1018 m s 961 1018 m s 987 1011 m 5 Y s 987 1014 m 2 Y s 987 1014 m s
 987 1014 m s 1014 1019 m 6 Y s 1014 1022 m 3 Y s 1014 1022 m s 1014 1022 m s 1041 1022 m 7 Y s 1041 1026 m 3 Y s 1041 1026 m s 1041 1026 m s 1067 1003 m 9 Y s 1067 1008 m 4 Y s 1067 1008 m s 1067 1008 m s 1094 1014 m 10 Y s 1094 1019 m 5 Y s 1094
 1019 m s 1094 1019 m s 1121 1007 m 13 Y s 1121 1014 m 6 Y s 1121 1014 m s 1121 1014 m s 1147 1006 m 15 Y s 1147 1014 m 7 Y s 1147 1014 m s 1147 1014 m s 1174 1008 m 18 Y s 1174 1017 m 9 Y s 1174 1017 m s 1174 1017 m s 1200 1008 m 21 Y s 1200 1018 m
 11 Y s 1200 1018 m s 1200 1018 m s 1227 1002 m 25 Y s 1227 1015 m 12 Y s 1227 1015 m s 1227 1015 m s 1254 1011 m 29 Y s 1254 1025 m 15 Y s 1254 1025 m s 1254 1025 m s 1280 998 m 31 Y s 1280 1014 m 15 Y s 1280 1014 m s 1280 1014 m s 1307 961 m 36 Y s
 1307 979 m 18 Y s 1307 979 m s 1307 979 m s 1334 1010 m 41 Y s 1334 1031 m 20 Y s 1334 1031 m s 1334 1031 m s 1360 972 m 44 Y s 1360 994 m 22 Y s 1360 994 m s 1360 994 m s 1387 1002 m 51 Y s 1387 1027 m 26 Y s 1387 1027 m s 1387 1027 m s 1414 1004 m
 56 Y s 1414 1032 m 28 Y s 1414 1032 m s 1414 1032 m s 1440 971 m 60 Y s 1440 1001 m 30 Y s 1440 1001 m s 1440 1001 m s black 921 775 m 533 X s
 gsave  710 639 779 679 C 1089.55 686.223 t 0 r /Helvetica findfont 35.2551 sf 0 0 m ( Energy \(GeV\)) show NC gr 
 gsave  710 639 779 679 C 1075.92 678.27 t 0 r /Symbol findfont 23.8825 sf 0 0 m (m) show NC gr 
 gsave  710 639 779 679 C 1057.74 686.223 t 0 r /Symbol findfont 35.2551 sf 0 0 m (n) show NC gr  6 lw 1058 708 m 18 X s 9 lw 921 784 m -9 Y s 934 779 m -4 Y s 947 779 m -4 Y s 961 779 m -4 Y s 974 784 m -9 Y s 987 779 m -4 Y s 1001 779 m -4 Y s 1014
 779 m -4 Y s 1027 784 m -9 Y s 1041 779 m -4 Y s 1054 779 m -4 Y s 1067 779 m -4 Y s 1081 784 m -9 Y s 1094 779 m -4 Y s 1107 779 m -4 Y s 1121 779 m -4 Y s 1134 784 m -9 Y s 1147 779 m -4 Y s 1161 779 m -4 Y s 1174 779 m -4 Y s 1187 784 m -9 Y s
 1200 779 m -4 Y s 1214 779 m -4 Y s 1227 779 m -4 Y s 1240 784 m -9 Y s 1254 779 m -4 Y s 1267 779 m -4 Y s 1280 779 m -4 Y s 1294 784 m -9 Y s 1307 779 m -4 Y s 1320 779 m -4 Y s 1334 779 m -4 Y s 1347 784 m -9 Y s 1360 779 m -4 Y s 1374 779 m -4 Y
 s 1387 779 m -4 Y s 1400 784 m -9 Y s 1414 779 m -4 Y s 1427 779 m -4 Y s 1440 779 m -4 Y s 1454 784 m -9 Y s
 gsave  710 639 779 679 C 911.177 735.076 t 0 r /Helvetica findfont 35.2551 sf 0 0 m (0) show NC gr 
 gsave  710 639 779 679 C 964.575 735.076 t 0 r /Helvetica findfont 35.2551 sf 0 0 m (2) show NC gr 
 gsave  710 639 779 679 C 1017.97 735.076 t 0 r /Helvetica findfont 35.2551 sf 0 0 m (4) show NC gr 
 gsave  710 639 779 679 C 1071.37 735.076 t 0 r /Helvetica findfont 35.2551 sf 0 0 m (6) show NC gr 
 gsave  710 639 779 679 C 1124.77 735.076 t 0 r /Helvetica findfont 35.2551 sf 0 0 m (8) show NC gr 
 gsave  710 639 779 679 C 1166.81 735.076 t 0 r /Helvetica findfont 35.2551 sf 0 0 m (10) show NC gr 
 gsave  710 639 779 679 C 1220.2 735.076 t 0 r /Helvetica findfont 35.2551 sf 0 0 m (12) show NC gr 
 gsave  710 639 779 679 C 1273.6 735.076 t 0 r /Helvetica findfont 35.2551 sf 0 0 m (14) show NC gr 
 gsave  710 639 779 679 C 1327 735.076 t 0 r /Helvetica findfont 35.2551 sf 0 0 m (16) show NC gr 
 gsave  710 639 779 679 C 1380.4 735.076 t 0 r /Helvetica findfont 35.2551 sf 0 0 m (18) show NC gr 
 gsave  710 639 779 679 C 1433.8 735.076 t 0 r /Helvetica findfont 35.2551 sf 0 0 m (20) show NC gr  921 1261 m 533 X s 921 1252 m 9 Y s 934 1256 m 5 Y s 947 1256 m 5 Y s 961 1256 m 5 Y s 974 1252 m 9 Y s 987 1256 m 5 Y s 1001 1256 m 5 Y s 1014 1256
 m 5 Y s 1027 1252 m 9 Y s 1041 1256 m 5 Y s 1054 1256 m 5 Y s 1067 1256 m 5 Y s 1081 1252 m 9 Y s 1094 1256 m 5 Y s 1107 1256 m 5 Y s 1121 1256 m 5 Y s 1134 1252 m 9 Y s 1147 1256 m 5 Y s 1161 1256 m 5 Y s 1174 1256 m 5 Y s 1187 1252 m 9 Y s 1200
 1256 m 5 Y s 1214 1256 m 5 Y s 1227 1256 m 5 Y s 1240 1252 m 9 Y s 1254 1256 m 5 Y s 1267 1256 m 5 Y s 1280 1256 m 5 Y s 1294 1252 m 9 Y s 1307 1256 m 5 Y s 1320 1256 m 5 Y s 1334 1256 m 5 Y s 1347 1252 m 9 Y s 1360 1256 m 5 Y s 1374 1256 m 5 Y s
 1387 1256 m 5 Y s 1400 1252 m 9 Y s 1414 1256 m 5 Y s 1427 1256 m 5 Y s 1440 1256 m 5 Y s 1454 1252 m 9 Y s 921 775 m 486 Y s
 gsave  710 639 779 679 C 827.103 945.261 t 90 r /Helvetica findfont 35.2551 sf 0 0 m (s Ratio to Nominal) show NC gr 
 gsave  710 639 779 679 C 835.056 931.627 t 90 r /Symbol findfont 23.8825 sf 0 0 m (m) show NC gr 
 gsave  710 639 779 679 C 827.103 913.449 t 90 r /Symbol findfont 35.2551 sf 0 0 m (n) show NC gr  6 lw 806 913 m 19 Y s
 gsave  710 639 779 679 C 827.103 804.38 t 90 r /Helvetica findfont 35.2551 sf 0 0 m (Unosc ) show NC gr  9 lw 930 775 m -9 X s 926 787 m -5 X s 926 799 m -5 X s 926 811 m -5 X s 926 824 m -5 X s 930 836 m -9 X s 926 848 m -5 X s 926 860 m -5 X s 926
 872 m -5 X s 926 884 m -5 X s 930 896 m -9 X s 926 909 m -5 X s 926 921 m -5 X s 926 933 m -5 X s 926 945 m -5 X s 930 957 m -9 X s 926 969 m -5 X s 926 981 m -5 X s 926 994 m -5 X s 926 1006 m -5 X s 930 1018 m -9 X s 926 1030 m -5 X s 926 1042 m
 -5 X s 926 1054 m -5 X s 926 1066 m -5 X s 930 1079 m -9 X s 926 1091 m -5 X s 926 1103 m -5 X s 926 1115 m -5 X s 926 1127 m -5 X s 930 1139 m -9 X s 926 1151 m -5 X s 926 1164 m -5 X s 926 1176 m -5 X s 926 1188 m -5 X s 930 1200 m -9 X s 926 1212
 m -5 X s 926 1224 m -5 X s 926 1236 m -5 X s 926 1249 m -5 X s 930 1261 m -9 X s
 gsave  710 639 779 679 C 861.187 762.344 t 0 r /Helvetica findfont 35.2551 sf 0 0 m (0.8) show NC gr 
 gsave  710 639 779 679 C 840.737 822.559 t 0 r /Helvetica findfont 35.2551 sf 0 0 m (0.85) show NC gr 
 gsave  710 639 779 679 C 861.187 882.773 t 0 r /Helvetica findfont 35.2551 sf 0 0 m (0.9) show NC gr 
 gsave  710 639 779 679 C 840.737 944.125 t 0 r /Helvetica findfont 35.2551 sf 0 0 m (0.95) show NC gr 
 gsave  710 639 779 679 C 895.271 1004.34 t 0 r /Helvetica findfont 35.2551 sf 0 0 m (1) show NC gr 
 gsave  710 639 779 679 C 840.737 1065.69 t 0 r /Helvetica findfont 35.2551 sf 0 0 m (1.05) show NC gr 
 gsave  710 639 779 679 C 865.731 1125.91 t 0 r /Helvetica findfont 35.2551 sf 0 0 m (1.1) show NC gr 
 gsave  710 639 779 679 C 840.737 1187.26 t 0 r /Helvetica findfont 35.2551 sf 0 0 m (1.15) show NC gr 
 gsave  710 639 779 679 C 861.187 1247.47 t 0 r /Helvetica findfont 35.2551 sf 0 0 m (1.2) show NC gr  1454 775 m 486 Y s 1444 775 m 10 X s 1449 787 m 5 X s 1449 799 m 5 X s 1449 811 m 5 X s 1449 824 m 5 X s 1444 836 m 10 X s 1449 848 m 5 X s 1449
 860 m 5 X s 1449 872 m 5 X s 1449 884 m 5 X s 1444 896 m 10 X s 1449 909 m 5 X s 1449 921 m 5 X s 1449 933 m 5 X s 1449 945 m 5 X s 1444 957 m 10 X s 1449 969 m 5 X s 1449 981 m 5 X s 1449 994 m 5 X s 1449 1006 m 5 X s 1444 1018 m 10 X s 1449 1030 m
 5 X s 1449 1042 m 5 X s 1449 1054 m 5 X s 1449 1066 m 5 X s 1444 1079 m 10 X s 1449 1091 m 5 X s 1449 1103 m 5 X s 1449 1115 m 5 X s 1449 1127 m 5 X s 1444 1139 m 10 X s 1449 1151 m 5 X s 1449 1164 m 5 X s 1449 1176 m 5 X s 1449 1188 m 5 X s 1444
 1200 m 10 X s 1449 1212 m 5 X s 1449 1224 m 5 X s 1449 1236 m 5 X s 1449 1249 m 5 X s 1444 1261 m 10 X s 0 1 0 c[ 12 12] 0 sd 0.95 0.95 0.95 c black 0 1 0 c 923 1018 m 261 X s 1184 1018 m 262 X s 1446 1018 m 5 X s black[  ] 0 sd 1 1 1 c 711 639 1534
 679 bf black 6 lw 1 1 1 c black 533 486 1677 775 bl 533 486 1677 775 bl 1 1 1 c black 533 486 1677 775 bl 533 486 1677 775 bl 1 0 0 c 9 lw 1 1 1 c black 1 0 0 c 1690 1003 m 16 Y s 1690 1011 m 8 Y s 1690 1011 m s 1690 1011 m s 1717 1007 m 19 Y s 1717
 1016 m 10 Y s 1717 1016 m s 1717 1016 m s 1743 1022 m 24 Y s 1743 1034 m 12 Y s 1743 1034 m s 1743 1034 m s 1770 999 m 30 Y s 1770 1014 m 15 Y s 1770 1014 m s 1770 1014 m s 1797 994 m 30 Y s 1797 1009 m 15 Y s 1797 1009 m s 1797 1009 m s 1823 1020 m
 33 Y s 1823 1036 m 17 Y s 1823 1036 m s 1823 1036 m s 1850 1022 m 29 Y s 1850 1037 m 14 Y s 1850 1037 m s 1850 1037 m s 1876 995 m 27 Y s 1876 1009 m 13 Y s 1876 1009 m s 1876 1009 m s 1903 996 m 28 Y s 1903 1010 m 14 Y s 1903 1010 m s 1903 1010 m s
 1930 1006 m 23 Y s 1930 1017 m 12 Y s 1930 1017 m s 1930 1017 m s 1956 1021 m 26 Y s 1956 1034 m 13 Y s 1956 1034 m s 1956 1034 m s 1983 988 m 27 Y s 1983 1002 m 13 Y s 1983 1002 m s 1983 1002 m s 2010 982 m 28 Y s 2010 996 m 14 Y s 2010 996 m s
 2010 996 m s 2036 1010 m 34 Y s 2036 1027 m 17 Y s 2036 1027 m s 2036 1027 m s 2063 992 m 35 Y s 2063 1009 m 18 Y s 2063 1009 m s 2063 1009 m s 2090 990 m 53 Y s 2090 1017 m 26 Y s 2090 1017 m s 2090 1017 m s 2116 1026 m 106 Y s 2116 1079 m 53 Y s
 2116 1079 m s 2116 1079 m s 2143 957 m 138 Y s 2143 1026 m 69 Y s 2143 1026 m s 2143 1026 m s 2170 965 m 52 Y s 2170 991 m 26 Y s 2170 991 m s 2170 991 m s 2196 974 m 57 Y s 2196 1003 m 28 Y s 2196 1003 m s 2196 1003 m s black 1677 775 m 533 X s
 gsave  711 639 1534 679 C 1846.21 687.359 t 0 r /Helvetica findfont 35.2551 sf 0 0 m ( Energy \(GeV\)) show NC gr 
 gsave  711 639 1534 679 C 1833.71 677.134 t 0 r /Helvetica findfont 23.8825 sf 0 0 m (e) show NC gr 
 gsave  711 639 1534 679 C 1815.54 687.359 t 0 r /Symbol findfont 35.2551 sf 0 0 m (n) show NC gr  1677 784 m -9 Y s 1690 779 m -4 Y s 1703 779 m -4 Y s 1717 779 m -4 Y s 1730 784 m -9 Y s 1743 779 m -4 Y s 1757 779 m -4 Y s 1770 779 m -4 Y s 1783
 784 m -9 Y s 1797 779 m -4 Y s 1810 779 m -4 Y s 1823 779 m -4 Y s 1836 784 m -9 Y s 1850 779 m -4 Y s 1863 779 m -4 Y s 1876 779 m -4 Y s 1890 784 m -9 Y s 1903 779 m -4 Y s 1916 779 m -4 Y s 1930 779 m -4 Y s 1943 784 m -9 Y s 1956 779 m -4 Y s
 1970 779 m -4 Y s 1983 779 m -4 Y s 1996 784 m -9 Y s 2010 779 m -4 Y s 2023 779 m -4 Y s 2036 779 m -4 Y s 2050 784 m -9 Y s 2063 779 m -4 Y s 2076 779 m -4 Y s 2090 779 m -4 Y s 2103 784 m -9 Y s 2116 779 m -4 Y s 2130 779 m -4 Y s 2143 779 m -4 Y
 s 2156 784 m -9 Y s 2170 779 m -4 Y s 2183 779 m -4 Y s 2196 779 m -4 Y s 2210 784 m -9 Y s
 gsave  711 639 1534 679 C 1666.7 735.076 t 0 r /Helvetica findfont 35.2551 sf 0 0 m (0) show NC gr 
 gsave  711 639 1534 679 C 1720.1 735.076 t 0 r /Helvetica findfont 35.2551 sf 0 0 m (2) show NC gr 
 gsave  711 639 1534 679 C 1773.5 735.076 t 0 r /Helvetica findfont 35.2551 sf 0 0 m (4) show NC gr 
 gsave  711 639 1534 679 C 1826.9 735.076 t 0 r /Helvetica findfont 35.2551 sf 0 0 m (6) show NC gr 
 gsave  711 639 1534 679 C 1880.3 735.076 t 0 r /Helvetica findfont 35.2551 sf 0 0 m (8) show NC gr 
 gsave  711 639 1534 679 C 1923.47 735.076 t 0 r /Helvetica findfont 35.2551 sf 0 0 m (10) show NC gr 
 gsave  711 639 1534 679 C 1976.87 735.076 t 0 r /Helvetica findfont 35.2551 sf 0 0 m (12) show NC gr 
 gsave  711 639 1534 679 C 2030.27 735.076 t 0 r /Helvetica findfont 35.2551 sf 0 0 m (14) show NC gr 
 gsave  711 639 1534 679 C 2082.53 735.076 t 0 r /Helvetica findfont 35.2551 sf 0 0 m (16) show NC gr 
 gsave  711 639 1534 679 C 2135.93 735.076 t 0 r /Helvetica findfont 35.2551 sf 0 0 m (18) show NC gr 
 gsave  711 639 1534 679 C 2189.32 735.076 t 0 r /Helvetica findfont 35.2551 sf 0 0 m (20) show NC gr  1677 1261 m 533 X s 1677 1252 m 9 Y s 1690 1256 m 5 Y s 1703 1256 m 5 Y s 1717 1256 m 5 Y s 1730 1252 m 9 Y s 1743 1256 m 5 Y s 1757 1256 m 5 Y s
 1770 1256 m 5 Y s 1783 1252 m 9 Y s 1797 1256 m 5 Y s 1810 1256 m 5 Y s 1823 1256 m 5 Y s 1836 1252 m 9 Y s 1850 1256 m 5 Y s 1863 1256 m 5 Y s 1876 1256 m 5 Y s 1890 1252 m 9 Y s 1903 1256 m 5 Y s 1916 1256 m 5 Y s 1930 1256 m 5 Y s 1943 1252 m 9 Y
 s 1956 1256 m 5 Y s 1970 1256 m 5 Y s 1983 1256 m 5 Y s 1996 1252 m 9 Y s 2010 1256 m 5 Y s 2023 1256 m 5 Y s 2036 1256 m 5 Y s 2050 1252 m 9 Y s 2063 1256 m 5 Y s 2076 1256 m 5 Y s 2090 1256 m 5 Y s 2103 1252 m 9 Y s 2116 1256 m 5 Y s 2130 1256 m 5
 Y s 2143 1256 m 5 Y s 2156 1252 m 9 Y s 2170 1256 m 5 Y s 2183 1256 m 5 Y s 2196 1256 m 5 Y s 2210 1252 m 9 Y s 1677 775 m 486 Y s
 gsave  711 639 1534 679 C 1581.49 945.261 t 90 r /Helvetica findfont 35.2551 sf 0 0 m (s Ratio to Nominal) show NC gr 
 gsave  711 639 1534 679 C 1591.72 932.763 t 90 r /Helvetica findfont 23.8825 sf 0 0 m (e) show NC gr 
 gsave  711 639 1534 679 C 1581.49 914.585 t 90 r /Symbol findfont 35.2551 sf 0 0 m (n) show NC gr 
 gsave  711 639 1534 679 C 1581.49 805.517 t 90 r /Helvetica findfont 35.2551 sf 0 0 m (Unosc ) show NC gr  1686 775 m -9 X s 1681 787 m -4 X s 1681 799 m -4 X s 1681 811 m -4 X s 1681 824 m -4 X s 1686 836 m -9 X s 1681 848 m -4 X s 1681 860 m -4 X
 s 1681 872 m -4 X s 1681 884 m -4 X s 1686 896 m -9 X s 1681 909 m -4 X s 1681 921 m -4 X s 1681 933 m -4 X s 1681 945 m -4 X s 1686 957 m -9 X s 1681 969 m -4 X s 1681 981 m -4 X s 1681 994 m -4 X s 1681 1006 m -4 X s 1686 1018 m -9 X s 1681 1030 m
 -4 X s 1681 1042 m -4 X s 1681 1054 m -4 X s 1681 1066 m -4 X s 1686 1079 m -9 X s 1681 1091 m -4 X s 1681 1103 m -4 X s 1681 1115 m -4 X s 1681 1127 m -4 X s 1686 1139 m -9 X s 1681 1151 m -4 X s 1681 1164 m -4 X s 1681 1176 m -4 X s 1681 1188 m -4
 X s 1686 1200 m -9 X s 1681 1212 m -4 X s 1681 1224 m -4 X s 1681 1236 m -4 X s 1681 1249 m -4 X s 1686 1261 m -9 X s
 gsave  711 639 1534 679 C 1617.85 762.344 t 0 r /Helvetica findfont 35.2551 sf 0 0 m (0.8) show NC gr 
 gsave  711 639 1534 679 C 1597.4 822.559 t 0 r /Helvetica findfont 35.2551 sf 0 0 m (0.85) show NC gr 
 gsave  711 639 1534 679 C 1617.85 882.773 t 0 r /Helvetica findfont 35.2551 sf 0 0 m (0.9) show NC gr 
 gsave  711 639 1534 679 C 1597.4 944.125 t 0 r /Helvetica findfont 35.2551 sf 0 0 m (0.95) show NC gr 
 gsave  711 639 1534 679 C 1651.93 1004.34 t 0 r /Helvetica findfont 35.2551 sf 0 0 m (1) show NC gr 
 gsave  711 639 1534 679 C 1597.4 1065.69 t 0 r /Helvetica findfont 35.2551 sf 0 0 m (1.05) show NC gr 
 gsave  711 639 1534 679 C 1622.39 1125.91 t 0 r /Helvetica findfont 35.2551 sf 0 0 m (1.1) show NC gr 
 gsave  711 639 1534 679 C 1597.4 1187.26 t 0 r /Helvetica findfont 35.2551 sf 0 0 m (1.15) show NC gr 
 gsave  711 639 1534 679 C 1617.85 1247.47 t 0 r /Helvetica findfont 35.2551 sf 0 0 m (1.2) show NC gr  2210 775 m 486 Y s 2200 775 m 10 X s 2205 787 m 5 X s 2205 799 m 5 X s 2205 811 m 5 X s 2205 824 m 5 X s 2200 836 m 10 X s 2205 848 m 5 X s 2205
 860 m 5 X s 2205 872 m 5 X s 2205 884 m 5 X s 2200 896 m 10 X s 2205 909 m 5 X s 2205 921 m 5 X s 2205 933 m 5 X s 2205 945 m 5 X s 2200 957 m 10 X s 2205 969 m 5 X s 2205 981 m 5 X s 2205 994 m 5 X s 2205 1006 m 5 X s 2200 1018 m 10 X s 2205 1030 m
 5 X s 2205 1042 m 5 X s 2205 1054 m 5 X s 2205 1066 m 5 X s 2200 1079 m 10 X s 2205 1091 m 5 X s 2205 1103 m 5 X s 2205 1115 m 5 X s 2205 1127 m 5 X s 2200 1139 m 10 X s 2205 1151 m 5 X s 2205 1164 m 5 X s 2205 1176 m 5 X s 2205 1188 m 5 X s 2200
 1200 m 10 X s 2205 1212 m 5 X s 2205 1224 m 5 X s 2205 1236 m 5 X s 2205 1249 m 5 X s 2200 1261 m 10 X s 0 1 0 c[ 12 12] 0 sd 0.95 0.95 0.95 c black 0 1 0 c 1679 1018 m 261 X s 1940 1018 m 262 X s 2202 1018 m 5 X s black[  ] 0 sd 1 1 1 c 710 639 23
 13 bf black 6 lw 1 1 1 c black 533 486 165 109 bl 533 486 165 109 bl 1 1 1 c black 533 486 165 109 bl 533 486 165 109 bl 1 0 0 c 9 lw 1 1 1 c black 1 0 0 c 178 334 m 37 Y s 178 353 m 18 Y s 178 353 m s 178 353 m s 205 332 m 38 Y s 205 351 m 19 Y s
 205 351 m s 205 351 m s 231 328 m 37 Y s 231 347 m 18 Y s 231 347 m s 231 347 m s 258 353 m 38 Y s 258 372 m 19 Y s 258 372 m s 258 372 m s 285 352 m 34 Y s 285 369 m 17 Y s 285 369 m s 285 369 m s 311 334 m 35 Y s 311 352 m 17 Y s 311 352 m s 311
 352 m s 338 314 m 52 Y s 338 340 m 26 Y s 338 340 m s 338 340 m s 365 345 m 29 Y s 365 359 m 15 Y s 365 359 m s 365 359 m s 391 344 m 28 Y s 391 358 m 14 Y s 391 358 m s 391 358 m s 418 291 m 58 Y s 418 320 m 29 Y s 418 320 m s 418 320 m s 445 306 m
 33 Y s 445 323 m 16 Y s 445 323 m s 445 323 m s 471 326 m 55 Y s 471 354 m 27 Y s 471 354 m s 471 354 m s 498 278 m 270 Y s 498 413 m 135 Y s 498 413 m s 498 413 m s 525 333 m 53 Y s 525 360 m 26 Y s 525 360 m s 525 360 m s 551 343 m 44 Y s 551 365
 m 22 Y s 551 365 m s 551 365 m s 578 298 m 54 Y s 578 325 m 27 Y s 578 325 m s 578 325 m s 604 355 m 69 Y s 604 390 m 34 Y s 604 390 m s 604 390 m s 631 301 m 66 Y s 631 334 m 33 Y s 631 334 m s 631 334 m s 658 348 m 75 Y s 658 386 m 37 Y s 658 386
 m s 658 386 m s 684 321 m 78 Y s 684 360 m 39 Y s 684 360 m s 684 360 m s black 165 109 m 533 X s
 gsave  710 639 23 13 C 334.022 18.1781 t 0 r /Helvetica findfont 35.2551 sf 0 0 m ( Energy \(GeV\)) show NC gr 
 gsave  710 639 23 13 C 321.525 9.08904 t 0 r /Helvetica findfont 23.8825 sf 0 0 m (e) show NC gr 
 gsave  710 639 23 13 C 303.347 18.1781 t 0 r /Symbol findfont 35.2551 sf 0 0 m (n) show NC gr  6 lw 303 40 m 19 X s 9 lw 165 118 m -9 Y s 178 114 m -5 Y s 191 114 m -5 Y s 205 114 m -5 Y s 218 118 m -9 Y s 231 114 m -5 Y s 245 114 m -5 Y s 258 114 m
 -5 Y s 271 118 m -9 Y s 285 114 m -5 Y s 298 114 m -5 Y s 311 114 m -5 Y s 325 118 m -9 Y s 338 114 m -5 Y s 351 114 m -5 Y s 365 114 m -5 Y s 378 118 m -9 Y s 391 114 m -5 Y s 405 114 m -5 Y s 418 114 m -5 Y s 431 118 m -9 Y s 445 114 m -5 Y s 458
 114 m -5 Y s 471 114 m -5 Y s 485 118 m -9 Y s 498 114 m -5 Y s 511 114 m -5 Y s 525 114 m -5 Y s 538 118 m -9 Y s 551 114 m -5 Y s 564 114 m -5 Y s 578 114 m -5 Y s 591 118 m -9 Y s 604 114 m -5 Y s 618 114 m -5 Y s 631 114 m -5 Y s 644 118 m -9 Y
 s 658 114 m -5 Y s 671 114 m -5 Y s 684 114 m -5 Y s 698 118 m -9 Y s
 gsave  710 639 23 13 C 155.65 69.304 t 0 r /Helvetica findfont 35.2551 sf 0 0 m (0) show NC gr 
 gsave  710 639 23 13 C 207.912 69.304 t 0 r /Helvetica findfont 35.2551 sf 0 0 m (2) show NC gr 
 gsave  710 639 23 13 C 261.31 69.304 t 0 r /Helvetica findfont 35.2551 sf 0 0 m (4) show NC gr 
 gsave  710 639 23 13 C 314.708 69.304 t 0 r /Helvetica findfont 35.2551 sf 0 0 m (6) show NC gr 
 gsave  710 639 23 13 C 368.106 69.304 t 0 r /Helvetica findfont 35.2551 sf 0 0 m (8) show NC gr 
 gsave  710 639 23 13 C 411.279 69.304 t 0 r /Helvetica findfont 35.2551 sf 0 0 m (10) show NC gr 
 gsave  710 639 23 13 C 464.677 69.304 t 0 r /Helvetica findfont 35.2551 sf 0 0 m (12) show NC gr 
 gsave  710 639 23 13 C 518.076 69.304 t 0 r /Helvetica findfont 35.2551 sf 0 0 m (14) show NC gr 
 gsave  710 639 23 13 C 571.474 69.304 t 0 r /Helvetica findfont 35.2551 sf 0 0 m (16) show NC gr 
 gsave  710 639 23 13 C 624.872 69.304 t 0 r /Helvetica findfont 35.2551 sf 0 0 m (18) show NC gr 
 gsave  710 639 23 13 C 678.27 69.304 t 0 r /Helvetica findfont 35.2551 sf 0 0 m (20) show NC gr  165 595 m 533 X s 165 586 m 9 Y s 178 591 m 4 Y s 191 591 m 4 Y s 205 591 m 4 Y s 218 586 m 9 Y s 231 591 m 4 Y s 245 591 m 4 Y s 258 591 m 4 Y s 271
 586 m 9 Y s 285 591 m 4 Y s 298 591 m 4 Y s 311 591 m 4 Y s 325 586 m 9 Y s 338 591 m 4 Y s 351 591 m 4 Y s 365 591 m 4 Y s 378 586 m 9 Y s 391 591 m 4 Y s 405 591 m 4 Y s 418 591 m 4 Y s 431 586 m 9 Y s 445 591 m 4 Y s 458 591 m 4 Y s 471 591 m 4 Y
 s 485 586 m 9 Y s 498 591 m 4 Y s 511 591 m 4 Y s 525 591 m 4 Y s 538 586 m 9 Y s 551 591 m 4 Y s 564 591 m 4 Y s 578 591 m 4 Y s 591 586 m 9 Y s 604 591 m 4 Y s 618 591 m 4 Y s 631 591 m 4 Y s 644 586 m 9 Y s 658 591 m 4 Y s 671 591 m 4 Y s 684 591
 m 4 Y s 698 586 m 9 Y s 165 109 m 486 Y s
 gsave  710 639 23 13 C 72.7124 279.488 t 90 r /Helvetica findfont 35.2551 sf 0 0 m (s Ratio to Nominal) show NC gr 
 gsave  710 639 23 13 C 81.8014 266.991 t 90 r /Helvetica findfont 23.8825 sf 0 0 m (e) show NC gr 
 gsave  710 639 23 13 C 72.7124 248.813 t 90 r /Symbol findfont 35.2551 sf 0 0 m (n) show NC gr  6 lw 51 249 m 18 Y s
 gsave  710 639 23 13 C 72.7124 139.744 t 90 r /Helvetica findfont 35.2551 sf 0 0 m (Unosc ) show NC gr  9 lw 175 109 m -10 X s 170 121 m -5 X s 170 133 m -5 X s 170 146 m -5 X s 170 158 m -5 X s 175 170 m -10 X s 170 182 m -5 X s 170 194 m -5 X s
 170 206 m -5 X s 170 218 m -5 X s 175 231 m -10 X s 170 243 m -5 X s 170 255 m -5 X s 170 267 m -5 X s 170 279 m -5 X s 175 291 m -10 X s 170 303 m -5 X s 170 316 m -5 X s 170 328 m -5 X s 170 340 m -5 X s 175 352 m -10 X s 170 364 m -5 X s 170 376
 m -5 X s 170 388 m -5 X s 170 401 m -5 X s 175 413 m -10 X s 170 425 m -5 X s 170 437 m -5 X s 170 449 m -5 X s 170 461 m -5 X s 175 473 m -10 X s 170 486 m -5 X s 170 498 m -5 X s 170 510 m -5 X s 170 522 m -5 X s 175 534 m -10 X s 170 546 m -5 X s
 170 559 m -5 X s 170 571 m -5 X s 170 583 m -5 X s 175 595 m -10 X s
 gsave  710 639 23 13 C 105.66 96.5711 t 0 r /Helvetica findfont 35.2551 sf 0 0 m (0.8) show NC gr 
 gsave  710 639 23 13 C 85.2098 156.786 t 0 r /Helvetica findfont 35.2551 sf 0 0 m (0.85) show NC gr 
 gsave  710 639 23 13 C 105.66 217.001 t 0 r /Helvetica findfont 35.2551 sf 0 0 m (0.9) show NC gr 
 gsave  710 639 23 13 C 85.2098 278.352 t 0 r /Helvetica findfont 35.2551 sf 0 0 m (0.95) show NC gr 
 gsave  710 639 23 13 C 139.744 338.567 t 0 r /Helvetica findfont 35.2551 sf 0 0 m (1) show NC gr 
 gsave  710 639 23 13 C 85.2098 399.918 t 0 r /Helvetica findfont 35.2551 sf 0 0 m (1.05) show NC gr 
 gsave  710 639 23 13 C 110.205 460.133 t 0 r /Helvetica findfont 35.2551 sf 0 0 m (1.1) show NC gr 
 gsave  710 639 23 13 C 85.2098 521.484 t 0 r /Helvetica findfont 35.2551 sf 0 0 m (1.15) show NC gr 
 gsave  710 639 23 13 C 105.66 581.699 t 0 r /Helvetica findfont 35.2551 sf 0 0 m (1.2) show NC gr  698 109 m 486 Y s 688 109 m 10 X s 693 121 m 5 X s 693 133 m 5 X s 693 146 m 5 X s 693 158 m 5 X s 688 170 m 10 X s 693 182 m 5 X s 693 194 m 5 X s
 693 206 m 5 X s 693 218 m 5 X s 688 231 m 10 X s 693 243 m 5 X s 693 255 m 5 X s 693 267 m 5 X s 693 279 m 5 X s 688 291 m 10 X s 693 303 m 5 X s 693 316 m 5 X s 693 328 m 5 X s 693 340 m 5 X s 688 352 m 10 X s 693 364 m 5 X s 693 376 m 5 X s 693
 388 m 5 X s 693 401 m 5 X s 688 413 m 10 X s 693 425 m 5 X s 693 437 m 5 X s 693 449 m 5 X s 693 461 m 5 X s 688 473 m 10 X s 693 486 m 5 X s 693 498 m 5 X s 693 510 m 5 X s 693 522 m 5 X s 688 534 m 10 X s 693 546 m 5 X s 693 559 m 5 X s 693 571 m
 5 X s 693 583 m 5 X s 688 595 m 10 X s 0 1 0 c[ 12 12] 0 sd 0.95 0.95 0.95 c black 0 1 0 c 167 352 m 262 X s 429 352 m 261 X s 690 352 m 5 X s black[  ] 0 sd 1 1 1 c 710 639 779 13 bf black 6 lw 1 1 1 c black 533 486 921 109 bl 533 486 921 109 bl 1
 1 1 c black 533 486 921 109 bl 533 486 921 109 bl 1 0 0 c 9 lw 1 1 1 c black 1 0 0 c 922 110 m 532 X s black 921 109 m 533 X s
 gsave  710 639 779 13 C 1088.41 20.4503 t 0 r /Helvetica findfont 35.2551 sf 0 0 m ( Energy \(GeV\)) show NC gr 
 gsave  710 639 779 13 C 1078.19 12.4974 t 0 r /Symbol findfont 23.8825 sf 0 0 m (t) show NC gr 
 gsave  710 639 779 13 C 1060.01 20.4503 t 0 r /Symbol findfont 35.2551 sf 0 0 m (n) show NC gr  921 118 m -9 Y s 934 114 m -5 Y s 947 114 m -5 Y s 961 114 m -5 Y s 974 118 m -9 Y s 987 114 m -5 Y s 1001 114 m -5 Y s 1014 114 m -5 Y s 1027 118 m -9 Y
 s 1041 114 m -5 Y s 1054 114 m -5 Y s 1067 114 m -5 Y s 1081 118 m -9 Y s 1094 114 m -5 Y s 1107 114 m -5 Y s 1121 114 m -5 Y s 1134 118 m -9 Y s 1147 114 m -5 Y s 1161 114 m -5 Y s 1174 114 m -5 Y s 1187 118 m -9 Y s 1200 114 m -5 Y s 1214 114 m -5
 Y s 1227 114 m -5 Y s 1240 118 m -9 Y s 1254 114 m -5 Y s 1267 114 m -5 Y s 1280 114 m -5 Y s 1294 118 m -9 Y s 1307 114 m -5 Y s 1320 114 m -5 Y s 1334 114 m -5 Y s 1347 118 m -9 Y s 1360 114 m -5 Y s 1374 114 m -5 Y s 1387 114 m -5 Y s 1400 118 m
 -9 Y s 1414 114 m -5 Y s 1427 114 m -5 Y s 1440 114 m -5 Y s 1454 118 m -9 Y s
 gsave  710 639 779 13 C 911.177 69.304 t 0 r /Helvetica findfont 35.2551 sf 0 0 m (0) show NC gr 
 gsave  710 639 779 13 C 964.575 69.304 t 0 r /Helvetica findfont 35.2551 sf 0 0 m (2) show NC gr 
 gsave  710 639 779 13 C 1017.97 69.304 t 0 r /Helvetica findfont 35.2551 sf 0 0 m (4) show NC gr 
 gsave  710 639 779 13 C 1071.37 69.304 t 0 r /Helvetica findfont 35.2551 sf 0 0 m (6) show NC gr 
 gsave  710 639 779 13 C 1124.77 69.304 t 0 r /Helvetica findfont 35.2551 sf 0 0 m (8) show NC gr 
 gsave  710 639 779 13 C 1166.81 69.304 t 0 r /Helvetica findfont 35.2551 sf 0 0 m (10) show NC gr 
 gsave  710 639 779 13 C 1220.2 69.304 t 0 r /Helvetica findfont 35.2551 sf 0 0 m (12) show NC gr 
 gsave  710 639 779 13 C 1273.6 69.304 t 0 r /Helvetica findfont 35.2551 sf 0 0 m (14) show NC gr 
 gsave  710 639 779 13 C 1327 69.304 t 0 r /Helvetica findfont 35.2551 sf 0 0 m (16) show NC gr 
 gsave  710 639 779 13 C 1380.4 69.304 t 0 r /Helvetica findfont 35.2551 sf 0 0 m (18) show NC gr 
 gsave  710 639 779 13 C 1433.8 69.304 t 0 r /Helvetica findfont 35.2551 sf 0 0 m (20) show NC gr  921 595 m 533 X s 921 586 m 9 Y s 934 591 m 4 Y s 947 591 m 4 Y s 961 591 m 4 Y s 974 586 m 9 Y s 987 591 m 4 Y s 1001 591 m 4 Y s 1014 591 m 4 Y s
 1027 586 m 9 Y s 1041 591 m 4 Y s 1054 591 m 4 Y s 1067 591 m 4 Y s 1081 586 m 9 Y s 1094 591 m 4 Y s 1107 591 m 4 Y s 1121 591 m 4 Y s 1134 586 m 9 Y s 1147 591 m 4 Y s 1161 591 m 4 Y s 1174 591 m 4 Y s 1187 586 m 9 Y s 1200 591 m 4 Y s 1214 591 m
 4 Y s 1227 591 m 4 Y s 1240 586 m 9 Y s 1254 591 m 4 Y s 1267 591 m 4 Y s 1280 591 m 4 Y s 1294 586 m 9 Y s 1307 591 m 4 Y s 1320 591 m 4 Y s 1334 591 m 4 Y s 1347 586 m 9 Y s 1360 591 m 4 Y s 1374 591 m 4 Y s 1387 591 m 4 Y s 1400 586 m 9 Y s 1414
 591 m 4 Y s 1427 591 m 4 Y s 1440 591 m 4 Y s 1454 586 m 9 Y s 921 109 m 486 Y s
 gsave  710 639 779 13 C 827.103 278.352 t 90 r /Helvetica findfont 35.2551 sf 0 0 m (s Ratio to Nominal) show NC gr 
 gsave  710 639 779 13 C 835.056 268.127 t 90 r /Symbol findfont 23.8825 sf 0 0 m (t) show NC gr 
 gsave  710 639 779 13 C 827.103 249.949 t 90 r /Symbol findfont 35.2551 sf 0 0 m (n) show NC gr 
 gsave  710 639 779 13 C 827.103 140.88 t 90 r /Helvetica findfont 35.2551 sf 0 0 m (Unosc ) show NC gr  930 109 m -9 X s 926 121 m -5 X s 926 133 m -5 X s 926 146 m -5 X s 926 158 m -5 X s 930 170 m -9 X s 926 182 m -5 X s 926 194 m -5 X s 926 206 m
 -5 X s 926 218 m -5 X s 930 231 m -9 X s 926 243 m -5 X s 926 255 m -5 X s 926 267 m -5 X s 926 279 m -5 X s 930 291 m -9 X s 926 303 m -5 X s 926 316 m -5 X s 926 328 m -5 X s 926 340 m -5 X s 930 352 m -9 X s 926 364 m -5 X s 926 376 m -5 X s 926
 388 m -5 X s 926 401 m -5 X s 930 413 m -9 X s 926 425 m -5 X s 926 437 m -5 X s 926 449 m -5 X s 926 461 m -5 X s 930 473 m -9 X s 926 486 m -5 X s 926 498 m -5 X s 926 510 m -5 X s 926 522 m -5 X s 930 534 m -9 X s 926 546 m -5 X s 926 559 m -5 X
 s 926 571 m -5 X s 926 583 m -5 X s 930 595 m -9 X s
 gsave  710 639 779 13 C 861.187 96.5711 t 0 r /Helvetica findfont 35.2551 sf 0 0 m (0.8) show NC gr 
 gsave  710 639 779 13 C 840.737 156.786 t 0 r /Helvetica findfont 35.2551 sf 0 0 m (0.85) show NC gr 
 gsave  710 639 779 13 C 861.187 217.001 t 0 r /Helvetica findfont 35.2551 sf 0 0 m (0.9) show NC gr 
 gsave  710 639 779 13 C 840.737 278.352 t 0 r /Helvetica findfont 35.2551 sf 0 0 m (0.95) show NC gr 
 gsave  710 639 779 13 C 895.271 338.567 t 0 r /Helvetica findfont 35.2551 sf 0 0 m (1) show NC gr 
 gsave  710 639 779 13 C 840.737 399.918 t 0 r /Helvetica findfont 35.2551 sf 0 0 m (1.05) show NC gr 
 gsave  710 639 779 13 C 865.731 460.133 t 0 r /Helvetica findfont 35.2551 sf 0 0 m (1.1) show NC gr 
 gsave  710 639 779 13 C 840.737 521.484 t 0 r /Helvetica findfont 35.2551 sf 0 0 m (1.15) show NC gr 
 gsave  710 639 779 13 C 861.187 581.699 t 0 r /Helvetica findfont 35.2551 sf 0 0 m (1.2) show NC gr  1454 109 m 486 Y s 1444 109 m 10 X s 1449 121 m 5 X s 1449 133 m 5 X s 1449 146 m 5 X s 1449 158 m 5 X s 1444 170 m 10 X s 1449 182 m 5 X s 1449 194
 m 5 X s 1449 206 m 5 X s 1449 218 m 5 X s 1444 231 m 10 X s 1449 243 m 5 X s 1449 255 m 5 X s 1449 267 m 5 X s 1449 279 m 5 X s 1444 291 m 10 X s 1449 303 m 5 X s 1449 316 m 5 X s 1449 328 m 5 X s 1449 340 m 5 X s 1444 352 m 10 X s 1449 364 m 5 X s
 1449 376 m 5 X s 1449 388 m 5 X s 1449 401 m 5 X s 1444 413 m 10 X s 1449 425 m 5 X s 1449 437 m 5 X s 1449 449 m 5 X s 1449 461 m 5 X s 1444 473 m 10 X s 1449 486 m 5 X s 1449 498 m 5 X s 1449 510 m 5 X s 1449 522 m 5 X s 1444 534 m 10 X s 1449 546
 m 5 X s 1449 559 m 5 X s 1449 571 m 5 X s 1449 583 m 5 X s 1444 595 m 10 X s 0 1 0 c[ 12 12] 0 sd 0.95 0.95 0.95 c black 0 1 0 c 923 352 m 261 X s 1184 352 m 262 X s 1446 352 m 5 X s black[  ] 0 sd 1 1 1 c 711 639 1534 13 bf black 6 lw 1 1 1 c black
 533 486 1677 109 bl 533 486 1677 109 bl 1 1 1 c black 533 486 1677 109 bl 533 486 1677 109 bl 1 0 0 c 9 lw 1 1 1 c black 1 0 0 c 1678 110 m 532 X s black 1677 109 m 533 X s
 gsave  711 639 1534 13 C 1845.08 18.1781 t 0 r /Helvetica findfont 35.2551 sf 0 0 m ( Energy \(GeV\)) show NC gr 
 gsave  711 639 1534 13 C 1834.85 10.2252 t 0 r /Symbol findfont 23.8825 sf 0 0 m (t) show NC gr 
 gsave  711 639 1534 13 C 1816.67 18.1781 t 0 r /Symbol findfont 35.2551 sf 0 0 m (n) show NC gr  6 lw 1817 40 m 18 X s 9 lw 1677 118 m -9 Y s 1690 114 m -5 Y s 1703 114 m -5 Y s 1717 114 m -5 Y s 1730 118 m -9 Y s 1743 114 m -5 Y s 1757 114 m -5 Y s
 1770 114 m -5 Y s 1783 118 m -9 Y s 1797 114 m -5 Y s 1810 114 m -5 Y s 1823 114 m -5 Y s 1836 118 m -9 Y s 1850 114 m -5 Y s 1863 114 m -5 Y s 1876 114 m -5 Y s 1890 118 m -9 Y s 1903 114 m -5 Y s 1916 114 m -5 Y s 1930 114 m -5 Y s 1943 118 m -9 Y
 s 1956 114 m -5 Y s 1970 114 m -5 Y s 1983 114 m -5 Y s 1996 118 m -9 Y s 2010 114 m -5 Y s 2023 114 m -5 Y s 2036 114 m -5 Y s 2050 118 m -9 Y s 2063 114 m -5 Y s 2076 114 m -5 Y s 2090 114 m -5 Y s 2103 118 m -9 Y s 2116 114 m -5 Y s 2130 114 m -5
 Y s 2143 114 m -5 Y s 2156 118 m -9 Y s 2170 114 m -5 Y s 2183 114 m -5 Y s 2196 114 m -5 Y s 2210 118 m -9 Y s
 gsave  711 639 1534 13 C 1666.7 69.304 t 0 r /Helvetica findfont 35.2551 sf 0 0 m (0) show NC gr 
 gsave  711 639 1534 13 C 1720.1 69.304 t 0 r /Helvetica findfont 35.2551 sf 0 0 m (2) show NC gr 
 gsave  711 639 1534 13 C 1773.5 69.304 t 0 r /Helvetica findfont 35.2551 sf 0 0 m (4) show NC gr 
 gsave  711 639 1534 13 C 1826.9 69.304 t 0 r /Helvetica findfont 35.2551 sf 0 0 m (6) show NC gr 
 gsave  711 639 1534 13 C 1880.3 69.304 t 0 r /Helvetica findfont 35.2551 sf 0 0 m (8) show NC gr 
 gsave  711 639 1534 13 C 1923.47 69.304 t 0 r /Helvetica findfont 35.2551 sf 0 0 m (10) show NC gr 
 gsave  711 639 1534 13 C 1976.87 69.304 t 0 r /Helvetica findfont 35.2551 sf 0 0 m (12) show NC gr 
 gsave  711 639 1534 13 C 2030.27 69.304 t 0 r /Helvetica findfont 35.2551 sf 0 0 m (14) show NC gr 
 gsave  711 639 1534 13 C 2082.53 69.304 t 0 r /Helvetica findfont 35.2551 sf 0 0 m (16) show NC gr 
 gsave  711 639 1534 13 C 2135.93 69.304 t 0 r /Helvetica findfont 35.2551 sf 0 0 m (18) show NC gr 
 gsave  711 639 1534 13 C 2189.32 69.304 t 0 r /Helvetica findfont 35.2551 sf 0 0 m (20) show NC gr  1677 595 m 533 X s 1677 586 m 9 Y s 1690 591 m 4 Y s 1703 591 m 4 Y s 1717 591 m 4 Y s 1730 586 m 9 Y s 1743 591 m 4 Y s 1757 591 m 4 Y s 1770 591 m
 4 Y s 1783 586 m 9 Y s 1797 591 m 4 Y s 1810 591 m 4 Y s 1823 591 m 4 Y s 1836 586 m 9 Y s 1850 591 m 4 Y s 1863 591 m 4 Y s 1876 591 m 4 Y s 1890 586 m 9 Y s 1903 591 m 4 Y s 1916 591 m 4 Y s 1930 591 m 4 Y s 1943 586 m 9 Y s 1956 591 m 4 Y s 1970
 591 m 4 Y s 1983 591 m 4 Y s 1996 586 m 9 Y s 2010 591 m 4 Y s 2023 591 m 4 Y s 2036 591 m 4 Y s 2050 586 m 9 Y s 2063 591 m 4 Y s 2076 591 m 4 Y s 2090 591 m 4 Y s 2103 586 m 9 Y s 2116 591 m 4 Y s 2130 591 m 4 Y s 2143 591 m 4 Y s 2156 586 m 9 Y s
 2170 591 m 4 Y s 2183 591 m 4 Y s 2196 591 m 4 Y s 2210 586 m 9 Y s 1677 109 m 486 Y s
 gsave  711 639 1534 13 C 1584.9 278.352 t 90 r /Helvetica findfont 35.2551 sf 0 0 m (s Ratio to Nominal) show NC gr 
 gsave  711 639 1534 13 C 1592.85 268.127 t 90 r /Symbol findfont 23.8825 sf 0 0 m (t) show NC gr 
 gsave  711 639 1534 13 C 1584.9 249.949 t 90 r /Symbol findfont 35.2551 sf 0 0 m (n) show NC gr  6 lw 1563 250 m 18 Y s
 gsave  711 639 1534 13 C 1584.9 140.88 t 90 r /Helvetica findfont 35.2551 sf 0 0 m (Unosc ) show NC gr  9 lw 1686 109 m -9 X s 1681 121 m -4 X s 1681 133 m -4 X s 1681 146 m -4 X s 1681 158 m -4 X s 1686 170 m -9 X s 1681 182 m -4 X s 1681 194 m -4
 X s 1681 206 m -4 X s 1681 218 m -4 X s 1686 231 m -9 X s 1681 243 m -4 X s 1681 255 m -4 X s 1681 267 m -4 X s 1681 279 m -4 X s 1686 291 m -9 X s 1681 303 m -4 X s 1681 316 m -4 X s 1681 328 m -4 X s 1681 340 m -4 X s 1686 352 m -9 X s 1681 364 m
 -4 X s 1681 376 m -4 X s 1681 388 m -4 X s 1681 401 m -4 X s 1686 413 m -9 X s 1681 425 m -4 X s 1681 437 m -4 X s 1681 449 m -4 X s 1681 461 m -4 X s 1686 473 m -9 X s 1681 486 m -4 X s 1681 498 m -4 X s 1681 510 m -4 X s 1681 522 m -4 X s 1686 534
 m -9 X s 1681 546 m -4 X s 1681 559 m -4 X s 1681 571 m -4 X s 1681 583 m -4 X s 1686 595 m -9 X s
 gsave  711 639 1534 13 C 1617.85 96.5711 t 0 r /Helvetica findfont 35.2551 sf 0 0 m (0.8) show NC gr 
 gsave  711 639 1534 13 C 1597.4 156.786 t 0 r /Helvetica findfont 35.2551 sf 0 0 m (0.85) show NC gr 
 gsave  711 639 1534 13 C 1617.85 217.001 t 0 r /Helvetica findfont 35.2551 sf 0 0 m (0.9) show NC gr 
 gsave  711 639 1534 13 C 1597.4 278.352 t 0 r /Helvetica findfont 35.2551 sf 0 0 m (0.95) show NC gr 
 gsave  711 639 1534 13 C 1651.93 338.567 t 0 r /Helvetica findfont 35.2551 sf 0 0 m (1) show NC gr 
 gsave  711 639 1534 13 C 1597.4 399.918 t 0 r /Helvetica findfont 35.2551 sf 0 0 m (1.05) show NC gr 
 gsave  711 639 1534 13 C 1622.39 460.133 t 0 r /Helvetica findfont 35.2551 sf 0 0 m (1.1) show NC gr 
 gsave  711 639 1534 13 C 1597.4 521.484 t 0 r /Helvetica findfont 35.2551 sf 0 0 m (1.15) show NC gr 
 gsave  711 639 1534 13 C 1617.85 581.699 t 0 r /Helvetica findfont 35.2551 sf 0 0 m (1.2) show NC gr  2210 109 m 486 Y s 2200 109 m 10 X s 2205 121 m 5 X s 2205 133 m 5 X s 2205 146 m 5 X s 2205 158 m 5 X s 2200 170 m 10 X s 2205 182 m 5 X s 2205
 194 m 5 X s 2205 206 m 5 X s 2205 218 m 5 X s 2200 231 m 10 X s 2205 243 m 5 X s 2205 255 m 5 X s 2205 267 m 5 X s 2205 279 m 5 X s 2200 291 m 10 X s 2205 303 m 5 X s 2205 316 m 5 X s 2205 328 m 5 X s 2205 340 m 5 X s 2200 352 m 10 X s 2205 364 m 5
 X s 2205 376 m 5 X s 2205 388 m 5 X s 2205 401 m 5 X s 2200 413 m 10 X s 2205 425 m 5 X s 2205 437 m 5 X s 2205 449 m 5 X s 2205 461 m 5 X s 2200 473 m 10 X s 2205 486 m 5 X s 2205 498 m 5 X s 2205 510 m 5 X s 2205 522 m 5 X s 2200 534 m 10 X s 2205
 546 m 5 X s 2205 559 m 5 X s 2205 571 m 5 X s 2205 583 m 5 X s 2200 595 m 10 X s 0 1 0 c[ 12 12] 0 sd 0.95 0.95 0.95 c black 0 1 0 c 1679 352 m 261 X s 1940 352 m 262 X s 2202 352 m 5 X s
 gr  gr showpage
end
%%EOF
