%!PS-Adobe-2.0 EPSF-2.0
%%BoundingBox:  0 0 567 332
%%Title: DecayPipeOffsetX_near_fits.eps: Fits
%%Creator: ROOT Version 5.30/06
%%CreationDate: Sun Feb  2 09:42:21 2014
%%EndComments
%%BeginProlog
80 dict begin
/s {stroke} def /l {lineto} def /m {moveto} def /t {translate} def
/r {rotate} def /rl {roll}  def /R {repeat} def
/d {rlineto} def /rm {rmoveto} def /gr {grestore} def /f {eofill} def
/c {setrgbcolor} def /black {0 setgray} def /sd {setdash} def
/cl {closepath} def /sf {scalefont setfont} def /lw {setlinewidth} def
/box {m dup 0 exch d exch 0 d 0 exch neg d cl} def
/NC{systemdict begin initclip end}def/C{NC box clip newpath}def
/bl {box s} def /bf {box f} def /Y { 0 exch d} def /X { 0 d} def 
/K {{pop pop 0 moveto} exch kshow} bind def
/ita {/ang 15 def gsave [1 0 ang dup sin exch cos div 1 0 0] concat} def 
/mp {newpath /y exch def /x exch def} def
/side {[w .77 mul w .23 mul] .385 w mul sd w 0 l currentpoint t -144 r} def
/mr {mp x y w2 0 360 arc} def /m24 {mr s} def /m20 {mr f} def
/mb {mp x y w2 add m w2 neg 0 d 0 w neg d w 0 d 0 w d cl} def
/mt {mp x y w2 add m w2 neg w neg d w 0 d cl} def
/m21 {mb f} def /m25 {mb s} def /m22 {mt f} def /m26{mt s} def
/m23 {mp x y w2 sub m w2 w d w neg 0 d cl f} def
/m27 {mp x y w2 add m w3 neg w2 neg d w3 w2 neg d w3 w2 d cl s} def
/m28 {mp x w2 sub y w2 sub w3 add m w3 0 d  0 w3 neg d w3 0 d 0 w3 d w3 0 d  0 w3 d w3 neg 0 d 0 w3 d w3 neg 0 d 0 w3 neg d w3 neg 0 d cl s } def
/m29 {mp gsave x w2 sub y w2 add w3 sub m currentpoint t 4 {side} repeat cl fill gr} def
/m30 {mp gsave x w2 sub y w2 add w3 sub m currentpoint t 4 {side} repeat cl s gr} def
/m31 {mp x y w2 sub m 0 w d x w2 sub y m w 0 d x w2 sub y w2 add m w w neg d x w2 sub y w2 sub m w w d s} def
/m32 {mp x y w2 sub m w2 w d w neg 0 d cl s} def
/m33 {mp x y w2 add m w3 neg w2 neg d w3 w2 neg d w3 w2 d cl f} def
/m34 {mp x w2 sub y w2 sub w3 add m w3 0 d  0 w3 neg d w3 0 d 0 w3 d w3 0 d  0 w3 d w3 neg 0 d 0 w3 d w3 neg 0 d 0 w3 neg d w3 neg 0 d cl f } def
/m2 {mp x y w2 sub m 0 w d x w2 sub y m w 0 d s} def
/m5 {mp x w2 sub y w2 sub m w w d x w2 sub y w2 add m w w neg d s} def
/reEncode {exch findfont dup length dict begin {1 index /FID eq  {pop pop} {def} ifelse } forall /Encoding exch def currentdict end dup /FontName get exch definefont pop } def [/Times-Bold /Times-Italic /Times-BoldItalic /Helvetica /Helvetica-Oblique
 /Helvetica-Bold /Helvetica-BoldOblique /Courier /Courier-Oblique /Courier-Bold /Courier-BoldOblique /Times-Roman /AvantGarde-Book /AvantGarde-BookOblique /AvantGarde-Demi /AvantGarde-DemiOblique /Bookman-Demi /Bookman-DemiItalic /Bookman-Light
 /Bookman-LightItalic /Helvetica-Narrow /Helvetica-Narrow-Bold /Helvetica-Narrow-BoldOblique /Helvetica-Narrow-Oblique /NewCenturySchlbk-Roman /NewCenturySchlbk-Bold /NewCenturySchlbk-BoldItalic /NewCenturySchlbk-Italic /Palatino-Bold
 /Palatino-BoldItalic /Palatino-Italic /Palatino-Roman ] {ISOLatin1Encoding reEncode } forall%%EndProlog
%%BeginSetup
%%EndSetup
newpath  gsave  .25 .25 scale  gsave  0 0 t black[  ] 0 sd 3 lw 1 1 1 c 2268 1328 0 0 bf black 1 1 1 c 408 305 23 1009 bf black 1 1 1 c black 306 229 84 1055 bl 306 229 84 1055 bl 84 1055 m 306 X s 103 1059 m -4 Y s 247 1059 m -4 Y s 103 1059 m -4 Y
 s 247 1059 m -4 Y s
 gsave  408 305 23 1009 C 94.0134 1034.15 t 0 r /Helvetica findfont 22.8295 sf 0 0 m (0) show NC gr 
 gsave  408 305 23 1009 C 225.062 1034.15 t 0 r /Helvetica findfont 22.8295 sf 0 0 m (500) show NC gr  84 1284 m 306 X s 103 1280 m 4 Y s 247 1280 m 4 Y s 103 1280 m 4 Y s 247 1280 m 4 Y s 84 1055 m 229 Y s 89 1078 m -5 X s 87 1087 m -3 X s 87 1096 m
 -3 X s 87 1105 m -3 X s 89 1115 m -5 X s 87 1124 m -3 X s 87 1133 m -3 X s 87 1142 m -3 X s 89 1152 m -5 X s 87 1161 m -3 X s 87 1170 m -3 X s 87 1180 m -3 X s 89 1189 m -5 X s 87 1198 m -3 X s 87 1207 m -3 X s 87 1217 m -3 X s 89 1226 m -5 X s 87
 1235 m -3 X s 87 1245 m -3 X s 87 1254 m -3 X s 89 1263 m -5 X s 89 1078 m -5 X s 87 1068 m -3 X s 87 1059 m -3 X s 89 1263 m -5 X s 87 1272 m -3 X s 87 1282 m -3 X s
 gsave  408 305 23 1009 C 14.2445 1071.18 t 0 r /Helvetica findfont 22.8295 sf 0 0 m (\2550.008) show NC gr 
 gsave  408 305 23 1009 C 14.2445 1108.22 t 0 r /Helvetica findfont 22.8295 sf 0 0 m (\2550.006) show NC gr 
 gsave  408 305 23 1009 C 14.2445 1145.25 t 0 r /Helvetica findfont 22.8295 sf 0 0 m (\2550.004) show NC gr 
 gsave  408 305 23 1009 C 14.2445 1182.29 t 0 r /Helvetica findfont 22.8295 sf 0 0 m (\2550.002) show NC gr 
 gsave  408 305 23 1009 C 65.5245 1219.32 t 0 r /Helvetica findfont 22.8295 sf 0 0 m (0) show NC gr 
 gsave  408 305 23 1009 C 22.7911 1256.36 t 0 r /Helvetica findfont 22.8295 sf 0 0 m (0.002) show NC gr  390 1055 m 229 Y s 385 1078 m 5 X s 387 1087 m 3 X s 387 1096 m 3 X s 387 1105 m 3 X s 385 1115 m 5 X s 387 1124 m 3 X s 387 1133 m 3 X s 387
 1142 m 3 X s 385 1152 m 5 X s 387 1161 m 3 X s 387 1170 m 3 X s 387 1180 m 3 X s 385 1189 m 5 X s 387 1198 m 3 X s 387 1207 m 3 X s 387 1217 m 3 X s 385 1226 m 5 X s 387 1235 m 3 X s 387 1245 m 3 X s 387 1254 m 3 X s 385 1263 m 5 X s 385 1078 m 5 X
 s 387 1068 m 3 X s 387 1059 m 3 X s 385 1263 m 5 X s 387 1272 m 3 X s 387 1282 m 3 X s /w 22 def /w2 {w 2 div} def /w3 {w 3 div} def 109 1246 115 1215 121 1235 126 1219 132 1223 190 1196 247 1191 305 1147 362 1092 9 { m21} R 109 1258 m 7 Y s 104
 1265 m 11 X s 109 1235 m -7 Y s 104 1228 m 11 X s 115 1226 m 7 Y s 109 1233 m 12 X s 115 1203 m -7 Y s 109 1196 m 12 X s 121 1247 m 7 Y s 115 1254 m 11 X s 121 1224 m -7 Y s 115 1217 m 11 X s 126 1230 m 7 Y s 121 1237 m 11 X s 126 1207 m -7 Y s 121
 1200 m 11 X s 132 1234 m 7 Y s 127 1241 m 11 X s 132 1212 m -7 Y s 127 1205 m 11 X s 190 1208 m 7 Y s 184 1215 m 11 X s 190 1185 m -8 Y s 184 1177 m 11 X s 247 1202 m 10 Y s 242 1212 m 11 X s 247 1179 m -10 Y s 242 1169 m 11 X s 305 1158 m 7 Y s 299
 1165 m 11 X s 305 1135 m -7 Y s 299 1128 m 11 X s 362 1103 m 7 Y s 357 1110 m 11 X s 362 1081 m -7 Y s 357 1074 m 11 X s 1 0 0 c 9 lw 0.95 0.95 0.95 c black 1 0 0 c 85 1225 m 3 1 d 31 X 3 -1 d 6 X 3 -1 d 6 X 4 -1 d 3 X 3 -1 d 3 X 3 -1 d 3 X 3 -1 d 3
 -1 d 3 -1 d 3 X 3 -1 d 3 -1 d 3 -1 d 3 -1 d 3 -1 d 3 -1 d 4 -1 d 3 -1 d 3 -1 d 3 -1 d 3 -1 d 3 -1 d 3 -2 d 3 -1 d 3 -1 d 3 -2 d 3 -1 d 3 -2 d 3 -1 d 3 -2 d 3 -1 d 3 -2 d s 235 1191 m 4 -1 d 3 -2 d 3 -2 d 3 -1 d 3 -2 d 3 -2 d 3 -2 d 3 -2 d 3 -2 d 3
 -2 d 3 -2 d 3 -2 d 3 -2 d 3 -2 d 3 -2 d 3 -2 d 3 -2 d 4 -3 d 3 -2 d 3 -2 d 3 -3 d 3 -2 d 3 -3 d 3 -2 d 3 -3 d 3 -2 d 3 -3 d 3 -2 d 3 -3 d 3 -3 d 3 -3 d 3 -2 d 3 -3 d 4 -3 d 3 -3 d 3 -3 d 3 -3 d 3 -3 d 3 -3 d 3 -3 d 3 -3 d 3 -3 d 3 -3 d 3 -4 d 3 -3 d
 3 -3 d 3 -4 d 3 -3 d 3 -3 d s 385 1068 m 4 -4 d s 0.49 0.6 0.82 c black 0.49 0.6 0.82 c
 gsave  408 305 23 1009 C 142.445 1293.4 t 0 r /Helvetica-Bold findfont 25.6831 sf 0 0 m (0.0 < E < 0.5 GeV) show NC gr  0.52 0.76 0.64 c black 0.52 0.76 0.64 c
 gsave  408 305 23 1009 C 122.502 1256.36 t 0 r /Helvetica-Bold findfont 25.6831 sf 0 0 m 
 228 214 200 193 178 171 156 149 133 126 119 105 91 76 69 55 47 39 25 17
(A = \2550.000, p = 2.000) K NC gr  1 0.6 1 c black 1 0.6 1 c
 gsave  408 305 23 1009 C 427.334 1122.46 t 90 r /Helvetica-Bold findfont 28.5368 sf 0 0 m (/dof=0.3) show NC gr  black 1 0.6 1 c
 gsave  408 305 23 1009 C 415.938 1111.07 t 90 r /Helvetica-Bold findfont 19.9758 sf 0 0 m (2) show NC gr  black 1 0.6 1 c
 gsave  408 305 23 1009 C 427.334 1093.97 t 90 r /Symbol findfont 28.5368 sf 0 0 m (c) show NC gr  black 3 lw 1 1 1 c 408 305 476 1009 bf black 1 1 1 c black 307 229 537 1055 bl 307 229 537 1055 bl 537 1055 m 307 X s 557 1059 m -4 Y s 701 1059 m -4 Y
 s 557 1059 m -4 Y s 701 1059 m -4 Y s
 gsave  408 305 476 1009 C 546.987 1034.15 t 0 r /Helvetica findfont 22.8295 sf 0 0 m (0) show NC gr 
 gsave  408 305 476 1009 C 678.036 1034.15 t 0 r /Helvetica findfont 22.8295 sf 0 0 m (500) show NC gr  537 1284 m 307 X s 557 1280 m 4 Y s 701 1280 m 4 Y s 557 1280 m 4 Y s 701 1280 m 4 Y s 537 1055 m 229 Y s 543 1065 m -6 X s 540 1070 m -3 X s 540
 1076 m -3 X s 540 1081 m -3 X s 540 1086 m -3 X s 543 1092 m -6 X s 540 1097 m -3 X s 540 1103 m -3 X s 540 1108 m -3 X s 540 1114 m -3 X s 543 1119 m -6 X s 540 1124 m -3 X s 540 1130 m -3 X s 540 1135 m -3 X s 540 1141 m -3 X s 543 1146 m -6 X s
 540 1151 m -3 X s 540 1157 m -3 X s 540 1162 m -3 X s 540 1168 m -3 X s 543 1173 m -6 X s 540 1178 m -3 X s 540 1184 m -3 X s 540 1189 m -3 X s 540 1195 m -3 X s 543 1200 m -6 X s 540 1206 m -3 X s 540 1211 m -3 X s 540 1216 m -3 X s 540 1222 m -3 X
 s 543 1227 m -6 X s 540 1233 m -3 X s 540 1238 m -3 X s 540 1243 m -3 X s 540 1249 m -3 X s 543 1254 m -6 X s 540 1260 m -3 X s 540 1265 m -3 X s 540 1271 m -3 X s 540 1276 m -3 X s 543 1281 m -6 X s 543 1065 m -6 X s 540 1059 m -3 X s 543 1281 m -6
 X s
 gsave  408 305 476 1009 C 467.218 1056.94 t 0 r /Helvetica findfont 22.8295 sf 0 0 m (\2550.035) show NC gr 
 gsave  408 305 476 1009 C 481.462 1085.43 t 0 r /Helvetica findfont 22.8295 sf 0 0 m (\2550.03) show NC gr 
 gsave  408 305 476 1009 C 467.218 1111.07 t 0 r /Helvetica findfont 22.8295 sf 0 0 m (\2550.025) show NC gr 
 gsave  408 305 476 1009 C 481.462 1139.56 t 0 r /Helvetica findfont 22.8295 sf 0 0 m (\2550.02) show NC gr 
 gsave  408 305 476 1009 C 467.218 1165.2 t 0 r /Helvetica findfont 22.8295 sf 0 0 m (\2550.015) show NC gr 
 gsave  408 305 476 1009 C 484.311 1193.68 t 0 r /Helvetica findfont 22.8295 sf 0 0 m (\2550.01) show NC gr 
 gsave  408 305 476 1009 C 467.218 1219.32 t 0 r /Helvetica findfont 22.8295 sf 0 0 m (\2550.005) show NC gr 
 gsave  408 305 476 1009 C 518.498 1247.81 t 0 r /Helvetica findfont 22.8295 sf 0 0 m (0) show NC gr 
 gsave  408 305 476 1009 C 475.765 1273.45 t 0 r /Helvetica findfont 22.8295 sf 0 0 m (0.005) show NC gr  844 1055 m 229 Y s 838 1065 m 6 X s 841 1070 m 3 X s 841 1076 m 3 X s 841 1081 m 3 X s 841 1086 m 3 X s 838 1092 m 6 X s 841 1097 m 3 X s 841
 1103 m 3 X s 841 1108 m 3 X s 841 1114 m 3 X s 838 1119 m 6 X s 841 1124 m 3 X s 841 1130 m 3 X s 841 1135 m 3 X s 841 1141 m 3 X s 838 1146 m 6 X s 841 1151 m 3 X s 841 1157 m 3 X s 841 1162 m 3 X s 841 1168 m 3 X s 838 1173 m 6 X s 841 1178 m 3 X
 s 841 1184 m 3 X s 841 1189 m 3 X s 841 1195 m 3 X s 838 1200 m 6 X s 841 1206 m 3 X s 841 1211 m 3 X s 841 1216 m 3 X s 841 1222 m 3 X s 838 1227 m 6 X s 841 1233 m 3 X s 841 1238 m 3 X s 841 1243 m 3 X s 841 1249 m 3 X s 838 1254 m 6 X s 841 1260
 m 3 X s 841 1265 m 3 X s 841 1271 m 3 X s 841 1276 m 3 X s 838 1281 m 6 X s 838 1065 m 6 X s 841 1059 m 3 X s 838 1281 m 6 X s /w 23 def /w2 {w 2 div} def /w3 {w 3 div} def 563 1253 569 1254 574 1251 580 1258 586 1248 643 1248 701 1205 758 1167 816
 1080 9 { m21} R 1 0 0 c 9 lw 0.95 0.95 0.95 c black 1 0 0 c 539 1253 m 3 1 d 31 X 3 -1 d 6 X 3 -1 d 3 X 3 -1 d 3 X 3 -1 d 3 X 3 -1 d 3 -1 d 3 -1 d 3 X 4 -1 d 3 -1 d 3 -1 d 3 -1 d 3 -1 d 3 -1 d 3 -1 d 3 -1 d 3 -2 d 3 -1 d 3 -1 d 3 -2 d 3 -1 d 3 -2 d
 3 -1 d 3 -2 d 3 -1 d 4 -2 d 3 -2 d 3 -1 d 3 -2 d 3 -2 d 3 -2 d 3 -2 d 3 -2 d s 689 1211 m 3 -2 d 3 -2 d 3 -2 d 3 -2 d 3 -2 d 3 -2 d 3 -3 d 3 -2 d 4 -3 d 3 -2 d 3 -2 d 3 -3 d 3 -3 d 3 -2 d 3 -3 d 3 -3 d 3 -2 d 3 -3 d 3 -3 d 3 -3 d 3 -3 d 3 -3 d 3 -3
 d 3 -3 d 4 -3 d 3 -3 d 3 -3 d 3 -4 d 3 -3 d 3 -3 d 3 -4 d 3 -3 d 3 -4 d 3 -3 d 3 -4 d 3 -3 d 3 -4 d 3 -4 d 3 -4 d 3 -3 d 4 -4 d 3 -4 d 3 -4 d 3 -4 d 3 -4 d 3 -4 d 3 -4 d 3 -5 d 3 -4 d s 0.49 0.6 0.82 c black 0.49 0.6 0.82 c
 gsave  408 305 476 1009 C 595.418 1293.4 t 0 r /Helvetica-Bold findfont 25.6831 sf 0 0 m (0.5 < E < 1.0 GeV) show NC gr  0.52 0.76 0.64 c black 0.52 0.76 0.64 c
 gsave  408 305 476 1009 C 575.476 1256.36 t 0 r /Helvetica-Bold findfont 25.6831 sf 0 0 m 
 228 214 200 193 178 171 156 149 133 126 119 105 91 77 69 55 47 39 25 17
(A = \2550.000, p = 2.000) K NC gr  1 0.6 1 c black 1 0.6 1 c
 gsave  408 305 476 1009 C 883.156 1122.46 t 90 r /Helvetica-Bold findfont 28.5368 sf 0 0 m (/dof=1.3) show NC gr  black 1 0.6 1 c
 gsave  408 305 476 1009 C 871.76 1111.07 t 90 r /Helvetica-Bold findfont 19.9758 sf 0 0 m (2) show NC gr  black 1 0.6 1 c
 gsave  408 305 476 1009 C 883.156 1093.97 t 90 r /Symbol findfont 28.5368 sf 0 0 m (c) show NC gr  black 3 lw 1 1 1 c 408 305 930 1009 bf black 1 1 1 c black 306 229 991 1055 bl 306 229 991 1055 bl 991 1055 m 306 X s 1011 1059 m -4 Y s 1154 1059 m
 -4 Y s 1011 1059 m -4 Y s 1154 1059 m -4 Y s
 gsave  408 305 930 1009 C 999.96 1034.15 t 0 r /Helvetica findfont 22.8295 sf 0 0 m (0) show NC gr 
 gsave  408 305 930 1009 C 1133.86 1034.15 t 0 r /Helvetica findfont 22.8295 sf 0 0 m (500) show NC gr  991 1284 m 306 X s 1011 1280 m 4 Y s 1154 1280 m 4 Y s 1011 1280 m 4 Y s 1154 1280 m 4 Y s 991 1055 m 229 Y s 997 1069 m -6 X s 994 1076 m -3 X s
 994 1082 m -3 X s 994 1088 m -3 X s 994 1094 m -3 X s 997 1101 m -6 X s 994 1107 m -3 X s 994 1113 m -3 X s 994 1120 m -3 X s 994 1126 m -3 X s 997 1132 m -6 X s 994 1138 m -3 X s 994 1145 m -3 X s 994 1151 m -3 X s 994 1157 m -3 X s 997 1163 m -6 X
 s 994 1170 m -3 X s 994 1176 m -3 X s 994 1182 m -3 X s 994 1189 m -3 X s 997 1195 m -6 X s 994 1201 m -3 X s 994 1207 m -3 X s 994 1214 m -3 X s 994 1220 m -3 X s 997 1226 m -6 X s 994 1232 m -3 X s 994 1239 m -3 X s 994 1245 m -3 X s 994 1251 m -3
 X s 997 1258 m -6 X s 997 1069 m -6 X s 994 1063 m -3 X s 994 1057 m -3 X s 997 1258 m -6 X s 994 1264 m -3 X s 994 1270 m -3 X s 994 1276 m -3 X s 994 1283 m -3 X s
 gsave  408 305 930 1009 C 937.285 1062.64 t 0 r /Helvetica findfont 22.8295 sf 0 0 m (\2550.06) show NC gr 
 gsave  408 305 930 1009 C 937.285 1093.97 t 0 r /Helvetica findfont 22.8295 sf 0 0 m (\2550.05) show NC gr 
 gsave  408 305 930 1009 C 937.285 1125.31 t 0 r /Helvetica findfont 22.8295 sf 0 0 m (\2550.04) show NC gr 
 gsave  408 305 930 1009 C 937.285 1156.65 t 0 r /Helvetica findfont 22.8295 sf 0 0 m (\2550.03) show NC gr 
 gsave  408 305 930 1009 C 937.285 1187.99 t 0 r /Helvetica findfont 22.8295 sf 0 0 m (\2550.02) show NC gr 
 gsave  408 305 930 1009 C 940.134 1219.32 t 0 r /Helvetica findfont 22.8295 sf 0 0 m (\2550.01) show NC gr 
 gsave  408 305 930 1009 C 974.32 1250.66 t 0 r /Helvetica findfont 22.8295 sf 0 0 m (0) show NC gr  1297 1055 m 229 Y s 1292 1069 m 5 X s 1294 1076 m 3 X s 1294 1082 m 3 X s 1294 1088 m 3 X s 1294 1094 m 3 X s 1292 1101 m 5 X s 1294 1107 m 3 X s
 1294 1113 m 3 X s 1294 1120 m 3 X s 1294 1126 m 3 X s 1292 1132 m 5 X s 1294 1138 m 3 X s 1294 1145 m 3 X s 1294 1151 m 3 X s 1294 1157 m 3 X s 1292 1163 m 5 X s 1294 1170 m 3 X s 1294 1176 m 3 X s 1294 1182 m 3 X s 1294 1189 m 3 X s 1292 1195 m 5 X
 s 1294 1201 m 3 X s 1294 1207 m 3 X s 1294 1214 m 3 X s 1294 1220 m 3 X s 1292 1226 m 5 X s 1294 1232 m 3 X s 1294 1239 m 3 X s 1294 1245 m 3 X s 1294 1251 m 3 X s 1292 1258 m 5 X s 1292 1069 m 5 X s 1294 1063 m 3 X s 1294 1057 m 3 X s 1292 1258 m 5
 X s 1294 1264 m 3 X s 1294 1270 m 3 X s 1294 1276 m 3 X s 1294 1283 m 3 X s 1016 1255 1022 1261 1028 1257 1034 1255 1039 1254 1097 1242 1154 1206 1212 1153 1269 1077 9 { m21} R 1 0 0 c 9 lw 0.95 0.95 0.95 c black 1 0 0 c 993 1257 m 15 X 3 1 d 3 -1 d
 15 X 3 -1 d 3 X 3 -1 d 4 X 3 -1 d 3 X 3 -1 d 3 X 3 -1 d 3 -1 d 3 -1 d 3 -1 d 3 -1 d 3 -1 d 3 -1 d 3 -1 d 3 -1 d 3 -1 d 3 -1 d 3 -1 d 4 -2 d 3 -1 d 3 -2 d 3 -1 d 3 -2 d 3 -1 d 3 -2 d 3 -1 d 3 -2 d 3 -2 d 3 -2 d 3 -2 d 3 -2 d 3 -1 d 3 -2 d 3 -3 d 4 -2
 d s 1143 1211 m 3 -2 d 3 -2 d 3 -2 d 3 -3 d 3 -2 d 3 -2 d 3 -3 d 3 -2 d 3 -3 d 3 -3 d 3 -2 d 3 -3 d 3 -3 d 3 -3 d 3 -2 d 4 -3 d 3 -3 d 3 -3 d 3 -3 d 3 -3 d 3 -4 d 3 -3 d 3 -3 d 3 -3 d 3 -4 d 3 -3 d 3 -4 d 3 -3 d 3 -4 d 3 -3 d 3 -4 d 3 -4 d 4 -3 d 3
 -4 d 3 -4 d 3 -4 d 3 -4 d 3 -4 d 3 -4 d 3 -4 d 3 -4 d 3 -5 d 3 -4 d 3 -4 d 3 -4 d 3 -5 d 3 -4 d 3 -1 d s 0.49 0.6 0.82 c black 0.49 0.6 0.82 c
 gsave  408 305 930 1009 C 1051.24 1293.4 t 0 r /Helvetica-Bold findfont 25.6831 sf 0 0 m (1.0 < E < 1.5 GeV) show NC gr  0.52 0.76 0.64 c black 0.52 0.76 0.64 c
 gsave  408 305 930 1009 C 1031.3 1256.36 t 0 r /Helvetica-Bold findfont 25.6831 sf 0 0 m 
 228 214 200 193 178 171 156 149 134 126 119 105 91 77 69 55 47 40 25 17
(A = \2550.000, p = 2.000) K NC gr  1 0.6 1 c black 1 0.6 1 c
 gsave  408 305 930 1009 C 1336.13 1122.46 t 90 r /Helvetica-Bold findfont 28.5368 sf 0 0 m (/dof=0.6) show NC gr  black 1 0.6 1 c
 gsave  408 305 930 1009 C 1324.73 1111.07 t 90 r /Helvetica-Bold findfont 19.9758 sf 0 0 m (2) show NC gr  black 1 0.6 1 c
 gsave  408 305 930 1009 C 1336.13 1093.97 t 90 r /Symbol findfont 28.5368 sf 0 0 m (c) show NC gr  black 3 lw 1 1 1 c 408 305 1383 1009 bf black 1 1 1 c black 306 229 1445 1055 bl 306 229 1445 1055 bl 1445 1055 m 306 X s 1464 1059 m -4 Y s 1608 1059
 m -4 Y s 1464 1059 m -4 Y s 1608 1059 m -4 Y s
 gsave  408 305 1383 1009 C 1452.93 1034.15 t 0 r /Helvetica findfont 22.8295 sf 0 0 m (0) show NC gr 
 gsave  408 305 1383 1009 C 1586.83 1034.15 t 0 r /Helvetica findfont 22.8295 sf 0 0 m (500) show NC gr  1445 1284 m 306 X s 1464 1280 m 4 Y s 1608 1280 m 4 Y s 1464 1280 m 4 Y s 1608 1280 m 4 Y s 1445 1055 m 229 Y s 1450 1066 m -5 X s 1447 1076 m -2
 X s 1447 1086 m -2 X s 1447 1095 m -2 X s 1450 1105 m -5 X s 1447 1115 m -2 X s 1447 1125 m -2 X s 1447 1135 m -2 X s 1450 1144 m -5 X s 1447 1154 m -2 X s 1447 1164 m -2 X s 1447 1174 m -2 X s 1450 1184 m -5 X s 1447 1193 m -2 X s 1447 1203 m -2 X
 s 1447 1213 m -2 X s 1450 1223 m -5 X s 1447 1233 m -2 X s 1447 1242 m -2 X s 1447 1252 m -2 X s 1450 1262 m -5 X s 1450 1066 m -5 X s 1447 1056 m -2 X s 1450 1262 m -5 X s 1447 1272 m -2 X s 1447 1282 m -2 X s
 gsave  408 305 1383 1009 C 1404.5 1059.79 t 0 r /Helvetica findfont 22.8295 sf 0 0 m (\2550.1) show NC gr 
 gsave  408 305 1383 1009 C 1390.26 1096.82 t 0 r /Helvetica findfont 22.8295 sf 0 0 m (\2550.08) show NC gr 
 gsave  408 305 1383 1009 C 1390.26 1136.71 t 0 r /Helvetica findfont 22.8295 sf 0 0 m (\2550.06) show NC gr 
 gsave  408 305 1383 1009 C 1390.26 1176.59 t 0 r /Helvetica findfont 22.8295 sf 0 0 m (\2550.04) show NC gr 
 gsave  408 305 1383 1009 C 1390.26 1216.48 t 0 r /Helvetica findfont 22.8295 sf 0 0 m (\2550.02) show NC gr 
 gsave  408 305 1383 1009 C 1427.29 1253.51 t 0 r /Helvetica findfont 22.8295 sf 0 0 m (0) show NC gr  1751 1055 m 229 Y s 1745 1066 m 6 X s 1748 1076 m 3 X s 1748 1086 m 3 X s 1748 1095 m 3 X s 1745 1105 m 6 X s 1748 1115 m 3 X s 1748 1125 m 3 X s
 1748 1135 m 3 X s 1745 1144 m 6 X s 1748 1154 m 3 X s 1748 1164 m 3 X s 1748 1174 m 3 X s 1745 1184 m 6 X s 1748 1193 m 3 X s 1748 1203 m 3 X s 1748 1213 m 3 X s 1745 1223 m 6 X s 1748 1233 m 3 X s 1748 1242 m 3 X s 1748 1252 m 3 X s 1745 1262 m 6 X
 s 1745 1066 m 6 X s 1748 1056 m 3 X s 1745 1262 m 6 X s 1748 1272 m 3 X s 1748 1282 m 3 X s 1470 1262 1476 1256 1481 1261 1487 1257 1493 1255 1550 1230 1608 1189 1665 1141 1723 1076 9 { m21} R 1 0 0 c 9 lw 0.95 0.95 0.95 c black 1 0 0 c 1446 1261 m
 3 X 3 1 d 22 X 3 -1 d 9 X 3 -1 d 3 X 3 -1 d 3 X 3 -1 d 3 -1 d 3 X 3 -1 d 3 -1 d 3 -1 d 4 -1 d 3 -1 d 3 -1 d 3 -1 d 3 -1 d 3 -1 d 3 -2 d 3 -1 d 3 -1 d 3 -2 d 3 -1 d 3 -2 d 3 -1 d 3 -2 d 3 -2 d 3 -2 d 4 -1 d 3 -2 d 3 -2 d 3 -2 d 3 -2 d 3 -2 d 3 -2 d 3
 -3 d 3 -2 d 3 -2 d s 1596 1212 m 3 -2 d 3 -3 d 3 -2 d 3 -3 d 3 -2 d 3 -3 d 4 -3 d 3 -2 d 3 -3 d 3 -3 d 3 -3 d 3 -3 d 3 -3 d 3 -3 d 3 -3 d 3 -3 d 3 -3 d 3 -4 d 3 -3 d 3 -3 d 3 -4 d 3 -3 d 3 -4 d 4 -3 d 3 -4 d 3 -4 d 3 -3 d 3 -4 d 3 -4 d 3 -4 d 3 -4 d
 3 -4 d 3 -4 d 3 -4 d 3 -4 d 3 -5 d 3 -4 d 3 -4 d 3 -5 d 4 -4 d 3 -5 d 3 -4 d 3 -5 d 3 -4 d 3 -3 d s 0.49 0.6 0.82 c black 0.49 0.6 0.82 c
 gsave  408 305 1383 1009 C 1504.21 1293.4 t 0 r /Helvetica-Bold findfont 25.6831 sf 0 0 m (1.5 < E < 2.0 GeV) show NC gr  0.52 0.76 0.64 c black 0.52 0.76 0.64 c
 gsave  408 305 1383 1009 C 1484.27 1256.36 t 0 r /Helvetica-Bold findfont 25.6831 sf 0 0 m 
 228 214 200 193 178 171 156 149 133 126 119 105 91 77 69 55 47 39 25 17
(A = \2550.000, p = 2.000) K NC gr  1 0.6 1 c black 1 0.6 1 c
 gsave  408 305 1383 1009 C 1789.1 1122.46 t 90 r /Helvetica-Bold findfont 28.5368 sf 0 0 m (/dof=8.9) show NC gr  black 1 0.6 1 c
 gsave  408 305 1383 1009 C 1777.71 1111.07 t 90 r /Helvetica-Bold findfont 19.9758 sf 0 0 m (2) show NC gr  black 1 0.6 1 c
 gsave  408 305 1383 1009 C 1789.1 1093.97 t 90 r /Symbol findfont 28.5368 sf 0 0 m (c) show NC gr  black 3 lw 1 1 1 c 408 305 1837 1009 bf black 1 1 1 c black 306 229 1898 1055 bl 306 229 1898 1055 bl 1898 1055 m 306 X s 1918 1059 m -4 Y s 2061 1059
 m -4 Y s 1918 1059 m -4 Y s 2061 1059 m -4 Y s
 gsave  408 305 1837 1009 C 1908.76 1034.15 t 0 r /Helvetica findfont 22.8295 sf 0 0 m (0) show NC gr 
 gsave  408 305 1837 1009 C 2039.81 1034.15 t 0 r /Helvetica findfont 22.8295 sf 0 0 m (500) show NC gr  1898 1284 m 306 X s 1918 1280 m 4 Y s 2061 1280 m 4 Y s 1918 1280 m 4 Y s 2061 1280 m 4 Y s 1898 1055 m 229 Y s 1904 1082 m -6 X s 1901 1089 m -3
 X s 1901 1096 m -3 X s 1901 1103 m -3 X s 1901 1109 m -3 X s 1904 1116 m -6 X s 1901 1123 m -3 X s 1901 1130 m -3 X s 1901 1136 m -3 X s 1901 1143 m -3 X s 1904 1150 m -6 X s 1901 1157 m -3 X s 1901 1163 m -3 X s 1901 1170 m -3 X s 1901 1177 m -3 X
 s 1904 1183 m -6 X s 1901 1190 m -3 X s 1901 1197 m -3 X s 1901 1204 m -3 X s 1901 1210 m -3 X s 1904 1217 m -6 X s 1901 1224 m -3 X s 1901 1231 m -3 X s 1901 1237 m -3 X s 1901 1244 m -3 X s 1904 1251 m -6 X s 1904 1082 m -6 X s 1901 1076 m -3 X s
 1901 1069 m -3 X s 1901 1062 m -3 X s 1901 1055 m -3 X s 1904 1251 m -6 X s 1901 1258 m -3 X s 1901 1264 m -3 X s 1901 1271 m -3 X s 1901 1278 m -3 X s
 gsave  408 305 1837 1009 C 1843.23 1074.03 t 0 r /Helvetica findfont 22.8295 sf 0 0 m (\2550.05) show NC gr 
 gsave  408 305 1837 1009 C 1843.23 1108.22 t 0 r /Helvetica findfont 22.8295 sf 0 0 m (\2550.04) show NC gr 
 gsave  408 305 1837 1009 C 1843.23 1142.4 t 0 r /Helvetica findfont 22.8295 sf 0 0 m (\2550.03) show NC gr 
 gsave  408 305 1837 1009 C 1843.23 1176.59 t 0 r /Helvetica findfont 22.8295 sf 0 0 m (\2550.02) show NC gr 
 gsave  408 305 1837 1009 C 1846.08 1210.78 t 0 r /Helvetica findfont 22.8295 sf 0 0 m (\2550.01) show NC gr 
 gsave  408 305 1837 1009 C 1880.27 1244.96 t 0 r /Helvetica findfont 22.8295 sf 0 0 m (0) show NC gr  2204 1055 m 229 Y s 2199 1082 m 5 X s 2201 1089 m 3 X s 2201 1096 m 3 X s 2201 1103 m 3 X s 2201 1109 m 3 X s 2199 1116 m 5 X s 2201 1123 m 3 X s
 2201 1130 m 3 X s 2201 1136 m 3 X s 2201 1143 m 3 X s 2199 1150 m 5 X s 2201 1157 m 3 X s 2201 1163 m 3 X s 2201 1170 m 3 X s 2201 1177 m 3 X s 2199 1183 m 5 X s 2201 1190 m 3 X s 2201 1197 m 3 X s 2201 1204 m 3 X s 2201 1210 m 3 X s 2199 1217 m 5 X
 s 2201 1224 m 3 X s 2201 1231 m 3 X s 2201 1237 m 3 X s 2201 1244 m 3 X s 2199 1251 m 5 X s 2199 1082 m 5 X s 2201 1076 m 3 X s 2201 1069 m 3 X s 2201 1062 m 3 X s 2201 1055 m 3 X s 2199 1251 m 5 X s 2201 1258 m 3 X s 2201 1264 m 3 X s 2201 1271 m 3
 X s 2201 1278 m 3 X s 1923 1260 1929 1240 1935 1249 1941 1251 1946 1246 2004 1240 2061 1233 2119 1167 2176 1078 9 { m21} R 1 0 0 c 9 lw 0.95 0.95 0.95 c black 1 0 0 c 1900 1250 m 3 X 3 1 d 24 X 3 -1 d 6 X 3 -1 d 7 X 3 -1 d 3 X 3 -1 d 3 -1 d 3 X 3 -1
 d 3 -1 d 3 X 3 -1 d 3 -1 d 3 -1 d 3 -1 d 3 -1 d 3 -1 d 4 -1 d 3 -1 d 3 -1 d 3 -2 d 3 -1 d 3 -1 d 3 -2 d 3 -1 d 3 -1 d 3 -2 d 3 -2 d 3 -1 d 3 -2 d 3 -1 d 3 -2 d 3 -2 d 3 -2 d 4 -2 d 3 -1 d s 2050 1210 m 3 -2 d 3 -2 d 3 -2 d 3 -2 d 3 -3 d 3 -2 d 3 -2
 d 3 -2 d 3 -2 d 3 -3 d 3 -2 d 3 -3 d 3 -2 d 3 -3 d 4 -2 d 3 -3 d 3 -2 d 3 -3 d 3 -3 d 3 -3 d 3 -2 d 3 -3 d 3 -3 d 3 -3 d 3 -3 d 3 -3 d 3 -3 d 3 -3 d 3 -4 d 3 -3 d 4 -3 d 3 -3 d 3 -4 d 3 -3 d 3 -4 d 3 -3 d 3 -4 d 3 -3 d 3 -4 d 3 -4 d 3 -3 d 3 -4 d 3
 -4 d 3 -4 d 3 -4 d 3 -4 d 4 -4 d 3 -4 d 3 -4 d s 2200 1062 m 3 -4 d s 0.49 0.6 0.82 c black 0.49 0.6 0.82 c
 gsave  408 305 1837 1009 C 1957.19 1293.4 t 0 r /Helvetica-Bold findfont 25.6831 sf 0 0 m (2.0 < E < 2.5 GeV) show NC gr  0.52 0.76 0.64 c black 0.52 0.76 0.64 c
 gsave  408 305 1837 1009 C 1937.25 1256.36 t 0 r /Helvetica-Bold findfont 25.6831 sf 0 0 m 
 228 214 200 193 178 171 156 149 134 126 119 105 91 77 69 55 47 40 25 17
(A = \2550.000, p = 2.000) K NC gr  1 0.6 1 c black 1 0.6 1 c
 gsave  408 305 1837 1009 C 2242.08 1122.46 t 90 r /Helvetica-Bold findfont 28.5368 sf 0 0 m (/dof=9.3) show NC gr  black 1 0.6 1 c
 gsave  408 305 1837 1009 C 2230.68 1111.07 t 90 r /Helvetica-Bold findfont 19.9758 sf 0 0 m (2) show NC gr  black 1 0.6 1 c
 gsave  408 305 1837 1009 C 2242.08 1093.97 t 90 r /Symbol findfont 28.5368 sf 0 0 m (c) show NC gr  black 3 lw 1 1 1 c 408 305 23 677 bf black 1 1 1 c black 306 229 84 723 bl 306 229 84 723 bl 84 723 m 306 X s 103 727 m -4 Y s 247 727 m -4 Y s 103
 727 m -4 Y s 247 727 m -4 Y s
 gsave  408 305 23 677 C 94.0134 703.676 t 0 r /Helvetica findfont 22.8295 sf 0 0 m (0) show NC gr 
 gsave  408 305 23 677 C 225.062 703.676 t 0 r /Helvetica findfont 22.8295 sf 0 0 m (500) show NC gr  84 952 m 306 X s 103 948 m 4 Y s 247 948 m 4 Y s 103 948 m 4 Y s 247 948 m 4 Y s 84 723 m 229 Y s 89 741 m -5 X s 87 747 m -3 X s 87 752 m -3 X s 87
 757 m -3 X s 89 762 m -5 X s 87 767 m -3 X s 87 773 m -3 X s 87 778 m -3 X s 89 783 m -5 X s 87 788 m -3 X s 87 793 m -3 X s 87 799 m -3 X s 89 804 m -5 X s 87 809 m -3 X s 87 814 m -3 X s 87 819 m -3 X s 89 825 m -5 X s 87 830 m -3 X s 87 835 m -3
 X s 87 840 m -3 X s 89 846 m -5 X s 87 851 m -3 X s 87 856 m -3 X s 87 861 m -3 X s 89 866 m -5 X s 87 872 m -3 X s 87 877 m -3 X s 87 882 m -3 X s 89 887 m -5 X s 87 892 m -3 X s 87 898 m -3 X s 87 903 m -3 X s 89 908 m -5 X s 87 913 m -3 X s 87
 918 m -3 X s 87 924 m -3 X s 89 929 m -5 X s 87 934 m -3 X s 87 939 m -3 X s 87 944 m -3 X s 89 950 m -5 X s 89 741 m -5 X s 87 736 m -3 X s 87 731 m -3 X s 87 726 m -3 X s 89 950 m -5 X s
 gsave  408 305 23 677 C 14.2445 735.014 t 0 r /Helvetica findfont 22.8295 sf 0 0 m (\2550.016) show NC gr 
 gsave  408 305 23 677 C 14.2445 754.956 t 0 r /Helvetica findfont 22.8295 sf 0 0 m (\2550.014) show NC gr 
 gsave  408 305 23 677 C 14.2445 774.898 t 0 r /Helvetica findfont 22.8295 sf 0 0 m (\2550.012) show NC gr 
 gsave  408 305 23 677 C 31.3378 797.689 t 0 r /Helvetica findfont 22.8295 sf 0 0 m (\2550.01) show NC gr 
 gsave  408 305 23 677 C 14.2445 817.631 t 0 r /Helvetica findfont 22.8295 sf 0 0 m (\2550.008) show NC gr 
 gsave  408 305 23 677 C 14.2445 837.574 t 0 r /Helvetica findfont 22.8295 sf 0 0 m (\2550.006) show NC gr 
 gsave  408 305 23 677 C 14.2445 860.365 t 0 r /Helvetica findfont 22.8295 sf 0 0 m (\2550.004) show NC gr 
 gsave  408 305 23 677 C 14.2445 880.307 t 0 r /Helvetica findfont 22.8295 sf 0 0 m (\2550.002) show NC gr 
 gsave  408 305 23 677 C 65.5245 900.249 t 0 r /Helvetica findfont 22.8295 sf 0 0 m (0) show NC gr 
 gsave  408 305 23 677 C 22.7911 923.04 t 0 r /Helvetica findfont 22.8295 sf 0 0 m (0.002) show NC gr 
 gsave  408 305 23 677 C 22.7911 942.983 t 0 r /Helvetica findfont 22.8295 sf 0 0 m (0.004) show NC gr  390 723 m 229 Y s 385 741 m 5 X s 387 747 m 3 X s 387 752 m 3 X s 387 757 m 3 X s 385 762 m 5 X s 387 767 m 3 X s 387 773 m 3 X s 387 778 m 3 X s
 385 783 m 5 X s 387 788 m 3 X s 387 793 m 3 X s 387 799 m 3 X s 385 804 m 5 X s 387 809 m 3 X s 387 814 m 3 X s 387 819 m 3 X s 385 825 m 5 X s 387 830 m 3 X s 387 835 m 3 X s 387 840 m 3 X s 385 846 m 5 X s 387 851 m 3 X s 387 856 m 3 X s 387 861 m
 3 X s 385 866 m 5 X s 387 872 m 3 X s 387 877 m 3 X s 387 882 m 3 X s 385 887 m 5 X s 387 892 m 3 X s 387 898 m 3 X s 387 903 m 3 X s 385 908 m 5 X s 387 913 m 3 X s 387 918 m 3 X s 387 924 m 3 X s 385 929 m 5 X s 387 934 m 3 X s 387 939 m 3 X s 387
 944 m 3 X s 385 950 m 5 X s 385 741 m 5 X s 387 736 m 3 X s 387 731 m 3 X s 387 726 m 3 X s 385 950 m 5 X s /w 22 def /w2 {w 2 div} def /w3 {w 3 div} def 109 886 115 901 121 893 126 897 132 911 190 883 247 916 305 890 362 757 9 { m21} R 109 897 m 4
 Y s 104 901 m 11 X s 109 875 m -4 Y s 104 871 m 11 X s 115 913 m 3 Y s 109 916 m 12 X s 115 890 m -3 Y s 109 887 m 12 X s 121 905 m 3 Y s 115 908 m 11 X s 121 882 m -3 Y s 115 879 m 11 X s 126 908 m 4 Y s 121 912 m 11 X s 126 886 m -4 Y s 121 882 m
 11 X s 132 922 m 4 Y s 127 926 m 11 X s 132 899 m -3 Y s 127 896 m 11 X s 190 894 m 4 Y s 184 898 m 11 X s 190 871 m -3 Y s 184 868 m 11 X s 247 927 m 6 Y s 242 933 m 11 X s 247 904 m -6 Y s 242 898 m 11 X s 305 901 m 3 Y s 299 904 m 11 X s 305 878
 m -3 Y s 299 875 m 11 X s 362 768 m 3 Y s 357 771 m 11 X s 362 745 m -3 Y s 357 742 m 11 X s 1 0 0 c 9 lw 0.95 0.95 0.95 c black 1 0 0 c 85 907 m 3 1 d 31 X 3 -1 d 9 X 3 -1 d 7 X 3 -1 d 3 X 3 -1 d 3 X 3 -1 d 3 X 3 -1 d 3 X 3 -1 d 3 -1 d 3 X 3 -1 d 3
 -1 d 3 -1 d 3 -1 d 4 -1 d 3 X 3 -1 d 3 -1 d 3 -1 d 3 -1 d 3 -1 d 3 -2 d 3 -1 d 3 -1 d 3 -1 d 3 -1 d 3 -2 d 3 -1 d 3 -1 d 3 -1 d s 235 879 m 4 -2 d 3 -1 d 3 -2 d 3 -1 d 3 -2 d 3 -1 d 3 -2 d 3 -1 d 3 -2 d 3 -2 d 3 -1 d 3 -2 d 3 -2 d 3 -2 d 3 -2 d 3 -1
 d 3 -2 d 4 -2 d 3 -2 d 3 -2 d 3 -2 d 3 -2 d 3 -2 d 3 -2 d 3 -3 d 3 -2 d 3 -2 d 3 -2 d 3 -3 d 3 -2 d 3 -2 d 3 -3 d 3 -2 d 4 -2 d 3 -3 d 3 -2 d 3 -3 d 3 -2 d 3 -3 d 3 -3 d 3 -2 d 3 -3 d 3 -3 d 3 -2 d 3 -3 d 3 -3 d 3 -3 d 3 -3 d 3 -3 d s 385 773 m 4 -3
 d s 0.49 0.6 0.82 c black 0.49 0.6 0.82 c
 gsave  408 305 23 677 C 142.445 960.076 t 0 r /Helvetica-Bold findfont 25.6831 sf 0 0 m (2.5 < E < 3.0 GeV) show NC gr  0.52 0.76 0.64 c black 0.52 0.76 0.64 c
 gsave  408 305 23 677 C 122.502 923.04 t 0 r /Helvetica-Bold findfont 25.6831 sf 0 0 m 
 228 214 200 193 178 171 156 149 133 126 119 105 91 76 69 55 47 39 25 17
(A = \2550.000, p = 2.000) K NC gr  1 0.6 1 c black 1 0.6 1 c
 gsave  408 305 23 677 C 427.334 791.991 t 90 r /Helvetica-Bold findfont 28.5368 sf 0 0 m (/dof=3.6) show NC gr  black 1 0.6 1 c
 gsave  408 305 23 677 C 415.938 780.596 t 90 r /Helvetica-Bold findfont 19.9758 sf 0 0 m (2) show NC gr  black 1 0.6 1 c
 gsave  408 305 23 677 C 427.334 763.503 t 90 r /Symbol findfont 28.5368 sf 0 0 m (c) show NC gr  black 3 lw 1 1 1 c 408 305 476 677 bf black 1 1 1 c black 307 229 537 723 bl 307 229 537 723 bl 537 723 m 307 X s 557 727 m -4 Y s 701 727 m -4 Y s 557
 727 m -4 Y s 701 727 m -4 Y s
 gsave  408 305 476 677 C 546.987 703.676 t 0 r /Helvetica findfont 22.8295 sf 0 0 m (0) show NC gr 
 gsave  408 305 476 677 C 678.036 703.676 t 0 r /Helvetica findfont 22.8295 sf 0 0 m (500) show NC gr  537 952 m 307 X s 557 948 m 4 Y s 701 948 m 4 Y s 557 948 m 4 Y s 701 948 m 4 Y s 537 723 m 229 Y s 543 734 m -6 X s 540 740 m -3 X s 540 745 m -3
 X s 540 751 m -3 X s 540 757 m -3 X s 543 763 m -6 X s 540 769 m -3 X s 540 774 m -3 X s 540 780 m -3 X s 540 786 m -3 X s 543 792 m -6 X s 540 798 m -3 X s 540 804 m -3 X s 540 809 m -3 X s 540 815 m -3 X s 543 821 m -6 X s 540 827 m -3 X s 540 833
 m -3 X s 540 838 m -3 X s 540 844 m -3 X s 543 850 m -6 X s 540 856 m -3 X s 540 862 m -3 X s 540 868 m -3 X s 540 873 m -3 X s 543 879 m -6 X s 540 885 m -3 X s 540 891 m -3 X s 540 897 m -3 X s 540 902 m -3 X s 543 908 m -6 X s 540 914 m -3 X s
 540 920 m -3 X s 540 926 m -3 X s 540 932 m -3 X s 543 937 m -6 X s 543 734 m -6 X s 540 728 m -3 X s 543 937 m -6 X s 540 943 m -3 X s 540 949 m -3 X s
 gsave  408 305 476 677 C 467.218 726.467 t 0 r /Helvetica findfont 22.8295 sf 0 0 m (\2550.003) show NC gr 
 gsave  408 305 476 677 C 467.218 754.956 t 0 r /Helvetica findfont 22.8295 sf 0 0 m (\2550.002) show NC gr 
 gsave  408 305 476 677 C 470.067 783.445 t 0 r /Helvetica findfont 22.8295 sf 0 0 m (\2550.001) show NC gr 
 gsave  408 305 476 677 C 518.498 814.783 t 0 r /Helvetica findfont 22.8295 sf 0 0 m (0) show NC gr 
 gsave  408 305 476 677 C 478.614 843.271 t 0 r /Helvetica findfont 22.8295 sf 0 0 m (0.001) show NC gr 
 gsave  408 305 476 677 C 475.765 871.76 t 0 r /Helvetica findfont 22.8295 sf 0 0 m (0.002) show NC gr 
 gsave  408 305 476 677 C 475.765 900.249 t 0 r /Helvetica findfont 22.8295 sf 0 0 m (0.003) show NC gr 
 gsave  408 305 476 677 C 475.765 931.587 t 0 r /Helvetica findfont 22.8295 sf 0 0 m (0.004) show NC gr  844 723 m 229 Y s 838 734 m 6 X s 841 740 m 3 X s 841 745 m 3 X s 841 751 m 3 X s 841 757 m 3 X s 838 763 m 6 X s 841 769 m 3 X s 841 774 m 3 X s
 841 780 m 3 X s 841 786 m 3 X s 838 792 m 6 X s 841 798 m 3 X s 841 804 m 3 X s 841 809 m 3 X s 841 815 m 3 X s 838 821 m 6 X s 841 827 m 3 X s 841 833 m 3 X s 841 838 m 3 X s 841 844 m 3 X s 838 850 m 6 X s 841 856 m 3 X s 841 862 m 3 X s 841 868 m
 3 X s 841 873 m 3 X s 838 879 m 6 X s 841 885 m 3 X s 841 891 m 3 X s 841 897 m 3 X s 841 902 m 3 X s 838 908 m 6 X s 841 914 m 3 X s 841 920 m 3 X s 841 926 m 3 X s 841 932 m 3 X s 838 937 m 6 X s 838 734 m 6 X s 841 728 m 3 X s 838 937 m 6 X s 841
 943 m 3 X s 841 949 m 3 X s /w 23 def /w2 {w 2 div} def /w3 {w 3 div} def 563 885 569 820 574 798 580 873 586 879 643 812 701 798 758 817 816 792 9 { m21} R 563 896 m 37 Y s 557 933 m 11 X s 563 873 m -36 Y s 557 837 m 11 X s 569 831 m 37 Y s 563
 868 m 11 X s 569 809 m -37 Y s 563 772 m 11 X s 574 810 m 36 Y s 569 846 m 11 X s 574 787 m -37 Y s 569 750 m 11 X s 580 885 m 36 Y s 574 921 m 12 X s 580 862 m -37 Y s 574 825 m 12 X s 586 890 m 36 Y s 580 926 m 11 X s 586 867 m -36 Y s 580 831 m
 11 X s 643 824 m 38 Y s 638 862 m 11 X s 643 801 m -38 Y s 638 763 m 11 X s 701 809 m 45 Y s 695 854 m 11 X s 701 787 m -45 Y s 695 742 m 11 X s 758 829 m 36 Y s 753 865 m 11 X s 758 806 m -37 Y s 753 769 m 11 X s 816 803 m 37 Y s 810 840 m 11 X s
 816 781 m -37 Y s 810 744 m 11 X s 1 0 0 c 9 lw 0.95 0.95 0.95 c black 1 0 0 c 539 821 m 52 X 3 -1 d 25 X 3 -1 d 15 X 3 -1 d 12 X 3 -1 d 9 X 4 -1 d 9 X 3 -1 d 6 X 3 -1 d s 689 814 m 9 X 3 -1 d 6 X 3 -1 d 3 X 4 -1 d 6 X 3 -1 d 6 X 3 -1 d 3 X 3 -1 d 3
 X 3 -1 d 6 X 3 -1 d 3 X 3 -1 d 4 X 3 -1 d 3 X 3 -1 d 3 X 3 -1 d 3 X 3 -1 d 3 X 3 -1 d 3 X 3 -1 d 3 -1 d 3 X 3 -1 d 3 X 4 -1 d 3 X 3 -1 d 3 -1 d 3 X 3 -1 d 3 X 3 -1 d 3 -1 d s 839 791 m 3 X s 0.49 0.6 0.82 c black 0.49 0.6 0.82 c
 gsave  408 305 476 677 C 595.418 960.076 t 0 r /Helvetica-Bold findfont 25.6831 sf 0 0 m (3.0 < E < 3.5 GeV) show NC gr  0.52 0.76 0.64 c black 0.52 0.76 0.64 c
 gsave  408 305 476 677 C 575.476 923.04 t 0 r /Helvetica-Bold findfont 25.6831 sf 0 0 m 
 228 214 200 193 178 171 156 149 133 126 119 105 91 77 69 55 47 39 25 17
(A = \2550.000, p = 2.000) K NC gr  1 0.6 1 c black 1 0.6 1 c
 gsave  408 305 476 677 C 883.156 791.991 t 90 r /Helvetica-Bold findfont 28.5368 sf 0 0 m (/dof=0.6) show NC gr  black 1 0.6 1 c
 gsave  408 305 476 677 C 871.76 780.596 t 90 r /Helvetica-Bold findfont 19.9758 sf 0 0 m (2) show NC gr  black 1 0.6 1 c
 gsave  408 305 476 677 C 883.156 763.503 t 90 r /Symbol findfont 28.5368 sf 0 0 m (c) show NC gr  black 3 lw 1 1 1 c 408 305 930 677 bf black 1 1 1 c black 306 229 991 723 bl 306 229 991 723 bl 991 723 m 306 X s 1011 727 m -4 Y s 1154 727 m -4 Y s
 1011 727 m -4 Y s 1154 727 m -4 Y s
 gsave  408 305 930 677 C 999.96 703.676 t 0 r /Helvetica findfont 22.8295 sf 0 0 m (0) show NC gr 
 gsave  408 305 930 677 C 1133.86 703.676 t 0 r /Helvetica findfont 22.8295 sf 0 0 m (500) show NC gr  991 952 m 306 X s 1011 948 m 4 Y s 1154 948 m 4 Y s 1011 948 m 4 Y s 1154 948 m 4 Y s 991 723 m 229 Y s 997 724 m -6 X s 994 735 m -3 X s 994 745 m
 -3 X s 994 756 m -3 X s 997 766 m -6 X s 994 777 m -3 X s 994 787 m -3 X s 994 798 m -3 X s 997 809 m -6 X s 994 819 m -3 X s 994 830 m -3 X s 994 840 m -3 X s 997 851 m -6 X s 994 861 m -3 X s 994 872 m -3 X s 994 882 m -3 X s 997 893 m -6 X s 994
 903 m -3 X s 994 914 m -3 X s 994 925 m -3 X s 997 935 m -6 X s 997 724 m -6 X s 997 935 m -6 X s 994 946 m -3 X s
 gsave  408 305 930 677 C 923.04 717.92 t 0 r /Helvetica findfont 22.8295 sf 0 0 m (\2550.004) show NC gr 
 gsave  408 305 930 677 C 923.04 757.805 t 0 r /Helvetica findfont 22.8295 sf 0 0 m (\2550.002) show NC gr 
 gsave  408 305 930 677 C 974.32 800.538 t 0 r /Helvetica findfont 22.8295 sf 0 0 m (0) show NC gr 
 gsave  408 305 930 677 C 931.587 843.271 t 0 r /Helvetica findfont 22.8295 sf 0 0 m (0.002) show NC gr 
 gsave  408 305 930 677 C 931.587 886.005 t 0 r /Helvetica findfont 22.8295 sf 0 0 m (0.004) show NC gr 
 gsave  408 305 930 677 C 931.587 928.738 t 0 r /Helvetica findfont 22.8295 sf 0 0 m (0.006) show NC gr  1297 723 m 229 Y s 1292 724 m 5 X s 1294 735 m 3 X s 1294 745 m 3 X s 1294 756 m 3 X s 1292 766 m 5 X s 1294 777 m 3 X s 1294 787 m 3 X s 1294
 798 m 3 X s 1292 809 m 5 X s 1294 819 m 3 X s 1294 830 m 3 X s 1294 840 m 3 X s 1292 851 m 5 X s 1294 861 m 3 X s 1294 872 m 3 X s 1294 882 m 3 X s 1292 893 m 5 X s 1294 903 m 3 X s 1294 914 m 3 X s 1294 925 m 3 X s 1292 935 m 5 X s 1292 724 m 5 X s
 1292 935 m 5 X s 1294 946 m 3 X s 1016 847 1022 786 1028 889 1034 877 1039 796 1097 846 1154 797 1212 826 1269 812 9 { m21} R 1016 858 m 32 Y s 1011 890 m 11 X s 1016 835 m -32 Y s 1011 803 m 11 X s 1022 797 m 32 Y s 1016 829 m 12 X s 1022 774 m -32
 Y s 1016 742 m 12 X s 1028 900 m 33 Y s 1022 933 m 11 X s 1028 878 m -33 Y s 1022 845 m 11 X s 1034 889 m 32 Y s 1028 921 m 11 X s 1034 866 m -33 Y s 1028 833 m 11 X s 1039 807 m 32 Y s 1034 839 m 11 X s 1039 784 m -32 Y s 1034 752 m 11 X s 1097 857
 m 34 Y s 1091 891 m 11 X s 1097 835 m -34 Y s 1091 801 m 11 X s 1154 809 m 40 Y s 1149 849 m 11 X s 1154 786 m -40 Y s 1149 746 m 11 X s 1212 837 m 32 Y s 1206 869 m 11 X s 1212 814 m -32 Y s 1206 782 m 11 X s 1269 824 m 32 Y s 1264 856 m 11 X s
 1269 801 m -32 Y s 1264 769 m 11 X s 9 lw 0.95 0.95 0.95 c black 993 807 m 3 1 d 12 X 3 1 d 12 X 3 1 d 12 X 4 1 d 12 X 3 1 d 12 X 3 1 d 9 X 3 1 d 13 X 3 1 d 12 X 3 1 d 12 X 3 1 d 13 X s 1143 817 m 3 1 d 12 X 3 1 d 12 X 3 1 d 9 X 3 1 d 13 X 3 1 d 12
 X 3 1 d 12 X 3 1 d 13 X 3 1 d 12 X 3 1 d 12 X 3 1 d 13 X s 1293 827 m 3 1 d s 0.49 0.6 0.82 c black 0.49 0.6 0.82 c
 gsave  408 305 930 677 C 1051.24 960.076 t 0 r /Helvetica-Bold findfont 25.6831 sf 0 0 m (3.5 < E < 4.0 GeV) show NC gr  0.52 0.76 0.64 c black 0.52 0.76 0.64 c
 gsave  408 305 930 677 C 1037 923.04 t 0 r /Helvetica-Bold findfont 25.6831 sf 0 0 m 
 220 206 192 185 170 163 148 141 126 118 111 97 83 69 61 47 40 25 18
(A = 0.000, p = 1.000) K NC gr  1 0.6 1 c black 1 0.6 1 c
 gsave  408 305 930 677 C 1336.13 791.991 t 90 r /Helvetica-Bold findfont 28.5368 sf 0 0 m (/dof=0.9) show NC gr  black 1 0.6 1 c
 gsave  408 305 930 677 C 1324.73 780.596 t 90 r /Helvetica-Bold findfont 19.9758 sf 0 0 m (2) show NC gr  black 1 0.6 1 c
 gsave  408 305 930 677 C 1336.13 763.503 t 90 r /Symbol findfont 28.5368 sf 0 0 m (c) show NC gr  black 3 lw 1 1 1 c 408 305 1383 677 bf black 1 1 1 c black 306 229 1445 723 bl 306 229 1445 723 bl 1445 723 m 306 X s 1464 727 m -4 Y s 1608 727 m -4 Y
 s 1464 727 m -4 Y s 1608 727 m -4 Y s
 gsave  408 305 1383 677 C 1452.93 703.676 t 0 r /Helvetica findfont 22.8295 sf 0 0 m (0) show NC gr 
 gsave  408 305 1383 677 C 1586.83 703.676 t 0 r /Helvetica findfont 22.8295 sf 0 0 m (500) show NC gr  1445 952 m 306 X s 1464 948 m 4 Y s 1608 948 m 4 Y s 1464 948 m 4 Y s 1608 948 m 4 Y s 1445 723 m 229 Y s 1450 732 m -5 X s 1447 740 m -2 X s 1447
 747 m -2 X s 1447 755 m -2 X s 1450 762 m -5 X s 1447 770 m -2 X s 1447 778 m -2 X s 1447 785 m -2 X s 1450 793 m -5 X s 1447 800 m -2 X s 1447 808 m -2 X s 1447 816 m -2 X s 1450 823 m -5 X s 1447 831 m -2 X s 1447 838 m -2 X s 1447 846 m -2 X s
 1450 854 m -5 X s 1447 861 m -2 X s 1447 869 m -2 X s 1447 876 m -2 X s 1450 884 m -5 X s 1447 892 m -2 X s 1447 899 m -2 X s 1447 907 m -2 X s 1450 914 m -5 X s 1447 922 m -2 X s 1447 930 m -2 X s 1447 937 m -2 X s 1450 945 m -5 X s 1450 732 m -5 X
 s 1447 724 m -2 X s 1450 945 m -5 X s
 gsave  408 305 1383 677 C 1393.11 723.618 t 0 r /Helvetica findfont 22.8295 sf 0 0 m (\2550.01) show NC gr 
 gsave  408 305 1383 677 C 1376.01 754.956 t 0 r /Helvetica findfont 22.8295 sf 0 0 m (\2550.008) show NC gr 
 gsave  408 305 1383 677 C 1376.01 786.294 t 0 r /Helvetica findfont 22.8295 sf 0 0 m (\2550.006) show NC gr 
 gsave  408 305 1383 677 C 1376.01 814.783 t 0 r /Helvetica findfont 22.8295 sf 0 0 m (\2550.004) show NC gr 
 gsave  408 305 1383 677 C 1376.01 846.12 t 0 r /Helvetica findfont 22.8295 sf 0 0 m (\2550.002) show NC gr 
 gsave  408 305 1383 677 C 1427.29 877.458 t 0 r /Helvetica findfont 22.8295 sf 0 0 m (0) show NC gr 
 gsave  408 305 1383 677 C 1384.56 905.947 t 0 r /Helvetica findfont 22.8295 sf 0 0 m (0.002) show NC gr 
 gsave  408 305 1383 677 C 1384.56 937.285 t 0 r /Helvetica findfont 22.8295 sf 0 0 m (0.004) show NC gr  1751 723 m 229 Y s 1745 732 m 6 X s 1748 740 m 3 X s 1748 747 m 3 X s 1748 755 m 3 X s 1745 762 m 6 X s 1748 770 m 3 X s 1748 778 m 3 X s 1748
 785 m 3 X s 1745 793 m 6 X s 1748 800 m 3 X s 1748 808 m 3 X s 1748 816 m 3 X s 1745 823 m 6 X s 1748 831 m 3 X s 1748 838 m 3 X s 1748 846 m 3 X s 1745 854 m 6 X s 1748 861 m 3 X s 1748 869 m 3 X s 1748 876 m 3 X s 1745 884 m 6 X s 1748 892 m 3 X s
 1748 899 m 3 X s 1748 907 m 3 X s 1745 914 m 6 X s 1748 922 m 3 X s 1748 930 m 3 X s 1748 937 m 3 X s 1745 945 m 6 X s 1745 732 m 6 X s 1748 724 m 3 X s 1745 945 m 6 X s 1470 833 1476 847 1481 871 1487 867 1493 868 1550 826 1608 852 1665 784 1723
 890 9 { m21} R 1470 844 m 31 Y s 1464 875 m 12 X s 1470 821 m -31 Y s 1464 790 m 12 X s 1476 859 m 31 Y s 1470 890 m 11 X s 1476 836 m -31 Y s 1470 805 m 11 X s 1481 882 m 31 Y s 1476 913 m 11 X s 1481 859 m -31 Y s 1476 828 m 11 X s 1487 878 m 31 Y
 s 1481 909 m 12 X s 1487 855 m -31 Y s 1481 824 m 12 X s 1493 880 m 31 Y s 1487 911 m 12 X s 1493 857 m -31 Y s 1487 826 m 12 X s 1550 838 m 32 Y s 1545 870 m 11 X s 1550 815 m -32 Y s 1545 783 m 11 X s 1608 863 m 39 Y s 1602 902 m 12 X s 1608 840 m
 -38 Y s 1602 802 m 12 X s 1665 796 m 31 Y s 1660 827 m 11 X s 1665 773 m -31 Y s 1660 742 m 11 X s 1723 901 m 32 Y s 1717 933 m 12 X s 1723 879 m -32 Y s 1717 847 m 12 X s 9 lw 0.95 0.95 0.95 c black 1446 888 m 3 -1 d 3 X 3 -1 d 3 -1 d 3 X 3 -1 d 3
 -1 d 4 X 3 -1 d 3 -1 d 3 X 3 -1 d 3 -1 d 3 X 3 -1 d 3 -1 d 3 X 3 -1 d 3 -1 d 3 X 3 -1 d 3 -1 d 3 X 4 -1 d 3 -1 d 3 X 3 -1 d 3 -1 d 3 X 3 -1 d 3 -1 d 3 X 3 -1 d 3 -1 d 3 X 3 -1 d 3 -1 d 3 X 3 -1 d 4 -1 d 3 X 3 -1 d 3 -1 d 3 X 3 -1 d 3 -1 d 3 X 3 -1 d
 3 -1 d s 1596 855 m 3 X 3 -1 d 3 -1 d 3 X 3 -1 d 3 -1 d 4 X 3 -1 d 3 -1 d 3 X 3 -1 d 3 -1 d 3 X 3 -1 d 3 -1 d 3 X 3 -1 d 3 -1 d 3 X 3 -1 d 3 -1 d 3 X 3 -1 d 4 -1 d 3 X 3 -1 d 3 -1 d 3 X 3 -1 d 3 -1 d 3 X 3 -1 d 3 -1 d 3 X 3 -1 d 3 -1 d 3 X 3 -1 d 3
 -1 d 4 X 3 -1 d 3 -1 d 3 X 3 -1 d 3 -1 d 3 X 3 -1 d 3 -1 d 3 X s 1746 823 m 3 -1 d s 0.49 0.6 0.82 c black 0.49 0.6 0.82 c
 gsave  408 305 1383 677 C 1504.21 960.076 t 0 r /Helvetica-Bold findfont 25.6831 sf 0 0 m (4.0 < E < 4.5 GeV) show NC gr  0.52 0.76 0.64 c black 0.52 0.76 0.64 c
 gsave  408 305 1383 677 C 1484.27 923.04 t 0 r /Helvetica-Bold findfont 25.6831 sf 0 0 m 
 228 214 200 193 178 171 156 149 133 126 119 105 91 77 69 55 47 39 25 17
(A = \2550.000, p = 1.000) K NC gr  1 0.6 1 c black 1 0.6 1 c
 gsave  408 305 1383 677 C 1789.1 791.991 t 90 r /Helvetica-Bold findfont 28.5368 sf 0 0 m (/dof=0.9) show NC gr  black 1 0.6 1 c
 gsave  408 305 1383 677 C 1777.71 780.596 t 90 r /Helvetica-Bold findfont 19.9758 sf 0 0 m (2) show NC gr  black 1 0.6 1 c
 gsave  408 305 1383 677 C 1789.1 763.503 t 90 r /Symbol findfont 28.5368 sf 0 0 m (c) show NC gr  black 3 lw 1 1 1 c 408 305 1837 677 bf black 1 1 1 c black 306 229 1898 723 bl 306 229 1898 723 bl 1898 723 m 306 X s 1918 727 m -4 Y s 2061 727 m -4 Y
 s 1918 727 m -4 Y s 2061 727 m -4 Y s
 gsave  408 305 1837 677 C 1908.76 703.676 t 0 r /Helvetica findfont 22.8295 sf 0 0 m (0) show NC gr 
 gsave  408 305 1837 677 C 2039.81 703.676 t 0 r /Helvetica findfont 22.8295 sf 0 0 m (500) show NC gr  1898 952 m 306 X s 1918 948 m 4 Y s 2061 948 m 4 Y s 1918 948 m 4 Y s 2061 948 m 4 Y s 1898 723 m 229 Y s 1904 724 m -6 X s 1901 733 m -3 X s 1901
 742 m -3 X s 1901 752 m -3 X s 1901 761 m -3 X s 1904 770 m -6 X s 1901 780 m -3 X s 1901 789 m -3 X s 1901 798 m -3 X s 1901 807 m -3 X s 1904 817 m -6 X s 1901 826 m -3 X s 1901 835 m -3 X s 1901 845 m -3 X s 1901 854 m -3 X s 1904 863 m -6 X s
 1901 873 m -3 X s 1901 882 m -3 X s 1901 891 m -3 X s 1901 900 m -3 X s 1904 910 m -6 X s 1904 724 m -6 X s 1904 910 m -6 X s 1901 919 m -3 X s 1901 928 m -3 X s 1901 938 m -3 X s 1901 947 m -3 X s
 gsave  408 305 1837 677 C 1846.08 717.92 t 0 r /Helvetica findfont 22.8295 sf 0 0 m (\2550.01) show NC gr 
 gsave  408 305 1837 677 C 1828.99 763.503 t 0 r /Helvetica findfont 22.8295 sf 0 0 m (\2550.005) show NC gr 
 gsave  408 305 1837 677 C 1880.27 809.085 t 0 r /Helvetica findfont 22.8295 sf 0 0 m (0) show NC gr 
 gsave  408 305 1837 677 C 1837.53 857.516 t 0 r /Helvetica findfont 22.8295 sf 0 0 m (0.005) show NC gr 
 gsave  408 305 1837 677 C 1851.78 903.098 t 0 r /Helvetica findfont 22.8295 sf 0 0 m (0.01) show NC gr  2204 723 m 229 Y s 2199 724 m 5 X s 2201 733 m 3 X s 2201 742 m 3 X s 2201 752 m 3 X s 2201 761 m 3 X s 2199 770 m 5 X s 2201 780 m 3 X s 2201
 789 m 3 X s 2201 798 m 3 X s 2201 807 m 3 X s 2199 817 m 5 X s 2201 826 m 3 X s 2201 835 m 3 X s 2201 845 m 3 X s 2201 854 m 3 X s 2199 863 m 5 X s 2201 873 m 3 X s 2201 882 m 3 X s 2201 891 m 3 X s 2201 900 m 3 X s 2199 910 m 5 X s 2199 724 m 5 X s
 2199 910 m 5 X s 2201 919 m 3 X s 2201 928 m 3 X s 2201 938 m 3 X s 2201 947 m 3 X s 1923 778 1929 839 1935 897 1941 869 1946 854 2004 857 2061 813 2119 835 2176 874 9 { m21} R 1923 789 m 25 Y s 1918 814 m 11 X s 1923 766 m -24 Y s 1918 742 m 11 X s
 1929 850 m 25 Y s 1923 875 m 12 X s 1929 828 m -25 Y s 1923 803 m 12 X s 1935 908 m 25 Y s 1929 933 m 12 X s 1935 885 m -25 Y s 1929 860 m 12 X s 1941 880 m 25 Y s 1935 905 m 11 X s 1941 858 m -25 Y s 1935 833 m 11 X s 1946 866 m 25 Y s 1941 891 m
 11 X s 1946 843 m -25 Y s 1941 818 m 11 X s 2004 869 m 26 Y s 1998 895 m 12 X s 2004 846 m -26 Y s 1998 820 m 12 X s 2061 824 m 31 Y s 2056 855 m 11 X s 2061 802 m -31 Y s 2056 771 m 11 X s 2119 847 m 24 Y s 2113 871 m 12 X s 2119 824 m -25 Y s 2113
 799 m 12 X s 2176 886 m 24 Y s 2171 910 m 11 X s 2176 863 m -25 Y s 2171 838 m 11 X s 9 lw 0.95 0.95 0.95 c black 1900 813 m 3 1 d 3 X 3 1 d 3 1 d 3 X 3 1 d 3 X 3 1 d 3 1 d 3 X 3 1 d 3 X 3 1 d 3 1 d 4 X 3 1 d 3 X 3 1 d 3 X 3 1 d 3 1 d 3 X 3 1 d 3 X
 3 1 d 3 1 d 3 X 3 1 d 3 X 3 1 d 4 X 3 1 d 3 1 d 3 X 3 1 d 3 X 3 1 d 3 1 d 3 X 3 1 d 3 X 3 1 d 3 1 d 3 X 3 1 d 3 X 3 1 d 4 X 3 1 d s 2050 842 m 3 1 d 3 X 3 1 d 3 X 3 1 d 3 1 d 3 X 3 1 d 3 X 3 1 d 3 X 3 1 d 3 1 d 3 X 4 1 d 3 X 3 1 d 3 1 d 3 X 3 1 d 3
 X 3 1 d 3 X 3 1 d 3 1 d 3 X 3 1 d 3 X 3 1 d 3 1 d 4 X 3 1 d 3 X 3 1 d 3 1 d 3 X 3 1 d 3 X 3 1 d 3 X 3 1 d 3 1 d 3 X 3 1 d 3 X 3 1 d 4 1 d 3 X 3 1 d s 2200 871 m 3 X s 0.49 0.6 0.82 c black 0.49 0.6 0.82 c
 gsave  408 305 1837 677 C 1957.19 960.076 t 0 r /Helvetica-Bold findfont 25.6831 sf 0 0 m (4.5 < E < 5.0 GeV) show NC gr  0.52 0.76 0.64 c black 0.52 0.76 0.64 c
 gsave  408 305 1837 677 C 1942.94 923.04 t 0 r /Helvetica-Bold findfont 25.6831 sf 0 0 m 
 220 206 192 185 170 163 148 141 126 118 111 97 83 69 61 47 40 25 18
(A = 0.000, p = 1.000) K NC gr  1 0.6 1 c black 1 0.6 1 c
 gsave  408 305 1837 677 C 2242.08 791.991 t 90 r /Helvetica-Bold findfont 28.5368 sf 0 0 m (/dof=1.2) show NC gr  black 1 0.6 1 c
 gsave  408 305 1837 677 C 2230.68 780.596 t 90 r /Helvetica-Bold findfont 19.9758 sf 0 0 m (2) show NC gr  black 1 0.6 1 c
 gsave  408 305 1837 677 C 2242.08 763.503 t 90 r /Symbol findfont 28.5368 sf 0 0 m (c) show NC gr  black 3 lw 1 1 1 c 408 306 23 345 bf black 1 1 1 c black 306 229 84 391 bl 306 229 84 391 bl 84 391 m 306 X s 103 395 m -4 Y s 247 395 m -4 Y s 103
 395 m -4 Y s 247 395 m -4 Y s
 gsave  408 306 23 345 C 94.0134 370.356 t 0 r /Helvetica findfont 22.8295 sf 0 0 m (0) show NC gr 
 gsave  408 306 23 345 C 225.062 370.356 t 0 r /Helvetica findfont 22.8295 sf 0 0 m (500) show NC gr  84 620 m 306 X s 103 616 m 4 Y s 247 616 m 4 Y s 103 616 m 4 Y s 247 616 m 4 Y s 84 391 m 229 Y s 89 410 m -5 X s 87 416 m -3 X s 87 421 m -3 X s 87
 427 m -3 X s 89 432 m -5 X s 87 437 m -3 X s 87 443 m -3 X s 87 448 m -3 X s 89 454 m -5 X s 87 459 m -3 X s 87 465 m -3 X s 87 470 m -3 X s 89 475 m -5 X s 87 481 m -3 X s 87 486 m -3 X s 87 492 m -3 X s 89 497 m -5 X s 87 503 m -3 X s 87 508 m -3
 X s 87 514 m -3 X s 89 519 m -5 X s 87 524 m -3 X s 87 530 m -3 X s 87 535 m -3 X s 89 541 m -5 X s 87 546 m -3 X s 87 552 m -3 X s 87 557 m -3 X s 89 562 m -5 X s 87 568 m -3 X s 87 573 m -3 X s 87 579 m -3 X s 89 584 m -5 X s 87 590 m -3 X s 87
 595 m -3 X s 87 600 m -3 X s 89 606 m -5 X s 89 410 m -5 X s 87 405 m -3 X s 87 399 m -3 X s 87 394 m -3 X s 89 606 m -5 X s 87 611 m -3 X s 87 617 m -3 X s
 gsave  408 306 23 345 C 14.2445 401.694 t 0 r /Helvetica findfont 22.8295 sf 0 0 m (\2550.006) show NC gr 
 gsave  408 306 23 345 C 14.2445 424.485 t 0 r /Helvetica findfont 22.8295 sf 0 0 m (\2550.004) show NC gr 
 gsave  408 306 23 345 C 14.2445 447.276 t 0 r /Helvetica findfont 22.8295 sf 0 0 m (\2550.002) show NC gr 
 gsave  408 306 23 345 C 65.5245 467.218 t 0 r /Helvetica findfont 22.8295 sf 0 0 m (0) show NC gr 
 gsave  408 306 23 345 C 22.7911 490.009 t 0 r /Helvetica findfont 22.8295 sf 0 0 m (0.002) show NC gr 
 gsave  408 306 23 345 C 22.7911 512.8 t 0 r /Helvetica findfont 22.8295 sf 0 0 m (0.004) show NC gr 
 gsave  408 306 23 345 C 22.7911 532.742 t 0 r /Helvetica findfont 22.8295 sf 0 0 m (0.006) show NC gr 
 gsave  408 306 23 345 C 22.7911 555.534 t 0 r /Helvetica findfont 22.8295 sf 0 0 m (0.008) show NC gr 
 gsave  408 306 23 345 C 37.0356 578.325 t 0 r /Helvetica findfont 22.8295 sf 0 0 m (0.01) show NC gr 
 gsave  408 306 23 345 C 22.7911 598.267 t 0 r /Helvetica findfont 22.8295 sf 0 0 m (0.012) show NC gr  390 391 m 229 Y s 385 410 m 5 X s 387 416 m 3 X s 387 421 m 3 X s 387 427 m 3 X s 385 432 m 5 X s 387 437 m 3 X s 387 443 m 3 X s 387 448 m 3 X s
 385 454 m 5 X s 387 459 m 3 X s 387 465 m 3 X s 387 470 m 3 X s 385 475 m 5 X s 387 481 m 3 X s 387 486 m 3 X s 387 492 m 3 X s 385 497 m 5 X s 387 503 m 3 X s 387 508 m 3 X s 387 514 m 3 X s 385 519 m 5 X s 387 524 m 3 X s 387 530 m 3 X s 387 535 m
 3 X s 385 541 m 5 X s 387 546 m 3 X s 387 552 m 3 X s 387 557 m 3 X s 385 562 m 5 X s 387 568 m 3 X s 387 573 m 3 X s 387 579 m 3 X s 385 584 m 5 X s 387 590 m 3 X s 387 595 m 3 X s 387 600 m 3 X s 385 606 m 5 X s 385 410 m 5 X s 387 405 m 3 X s 387
 399 m 3 X s 387 394 m 3 X s 385 606 m 5 X s 387 611 m 3 X s 387 617 m 3 X s /w 22 def /w2 {w 2 div} def /w3 {w 3 div} def 109 482 115 466 121 542 126 475 132 480 190 543 247 487 305 468 362 502 9 { m21} R 109 494 m 44 Y s 104 538 m 11 X s 109 471 m
 -45 Y s 104 426 m 11 X s 115 477 m 44 Y s 109 521 m 12 X s 115 454 m -44 Y s 109 410 m 12 X s 121 553 m 45 Y s 115 598 m 11 X s 121 531 m -45 Y s 115 486 m 11 X s 126 487 m 44 Y s 121 531 m 11 X s 126 464 m -44 Y s 121 420 m 11 X s 132 491 m 44 Y s
 127 535 m 11 X s 132 468 m -44 Y s 127 424 m 11 X s 190 554 m 47 Y s 184 601 m 11 X s 190 532 m -47 Y s 184 485 m 11 X s 247 499 m 54 Y s 242 553 m 11 X s 247 476 m -54 Y s 242 422 m 11 X s 305 480 m 44 Y s 299 524 m 11 X s 305 457 m -44 Y s 299 413
 m 11 X s 362 514 m 44 Y s 357 558 m 11 X s 362 491 m -45 Y s 357 446 m 11 X s 9 lw 0.95 0.95 0.95 c black 85 474 m 7 X 3 1 d 9 X 3 1 d 6 X 3 1 d 6 X 3 1 d 6 X 3 1 d 7 X 3 1 d 9 X 3 1 d 6 X 3 1 d 6 X 3 1 d 6 X 3 1 d 7 X 3 1 d 9 X 3 1 d 6 X 3 1 d 6 X
 3 1 d 6 X 3 1 d 3 X s 235 489 m 4 X 3 1 d 9 X 3 1 d 6 X 3 1 d 6 X 3 1 d 6 X 3 1 d 6 X 4 1 d 9 X 3 1 d 6 X 3 1 d 6 X 3 1 d 6 X 3 1 d 6 X 4 1 d 9 X 3 1 d 6 X 3 1 d 6 X 3 1 d 6 X 3 1 d 6 X s 385 504 m 4 1 d s 0.49 0.6 0.82 c black 0.49 0.6 0.82 c
 gsave  408 306 23 345 C 142.445 629.605 t 0 r /Helvetica-Bold findfont 25.6831 sf 0 0 m (5.0 < E < 5.5 GeV) show NC gr  0.52 0.76 0.64 c black 0.52 0.76 0.64 c
 gsave  408 306 23 345 C 128.2 592.569 t 0 r /Helvetica-Bold findfont 25.6831 sf 0 0 m 
 220 206 192 185 170 163 148 141 125 118 111 97 83 68 61 47 40 25 18
(A = 0.000, p = 1.000) K NC gr  1 0.6 1 c black 1 0.6 1 c
 gsave  408 306 23 345 C 427.334 458.671 t 90 r /Helvetica-Bold findfont 28.5368 sf 0 0 m (/dof=0.3) show NC gr  black 1 0.6 1 c
 gsave  408 306 23 345 C 415.938 447.276 t 90 r /Helvetica-Bold findfont 19.9758 sf 0 0 m (2) show NC gr  black 1 0.6 1 c
 gsave  408 306 23 345 C 427.334 430.182 t 90 r /Symbol findfont 28.5368 sf 0 0 m (c) show NC gr  black 3 lw 1 1 1 c 408 306 476 345 bf black 1 1 1 c black 307 229 537 391 bl 307 229 537 391 bl 537 391 m 307 X s 557 395 m -4 Y s 701 395 m -4 Y s 557
 395 m -4 Y s 701 395 m -4 Y s
 gsave  408 306 476 345 C 546.987 370.356 t 0 r /Helvetica findfont 22.8295 sf 0 0 m (0) show NC gr 
 gsave  408 306 476 345 C 678.036 370.356 t 0 r /Helvetica findfont 22.8295 sf 0 0 m (500) show NC gr  537 620 m 307 X s 557 616 m 4 Y s 701 616 m 4 Y s 557 616 m 4 Y s 701 616 m 4 Y s 537 391 m 229 Y s 543 400 m -6 X s 540 406 m -3 X s 540 413 m -3
 X s 540 419 m -3 X s 540 426 m -3 X s 543 432 m -6 X s 540 438 m -3 X s 540 445 m -3 X s 540 451 m -3 X s 540 457 m -3 X s 543 464 m -6 X s 540 470 m -3 X s 540 476 m -3 X s 540 483 m -3 X s 540 489 m -3 X s 543 495 m -6 X s 540 502 m -3 X s 540 508
 m -3 X s 540 514 m -3 X s 540 521 m -3 X s 543 527 m -6 X s 540 534 m -3 X s 540 540 m -3 X s 540 546 m -3 X s 540 553 m -3 X s 543 559 m -6 X s 540 565 m -3 X s 540 572 m -3 X s 540 578 m -3 X s 540 584 m -3 X s 543 591 m -6 X s 543 400 m -6 X s
 540 394 m -3 X s 543 591 m -6 X s 540 597 m -3 X s 540 603 m -3 X s 540 610 m -3 X s 540 616 m -3 X s
 gsave  408 306 476 345 C 467.218 393.147 t 0 r /Helvetica findfont 22.8295 sf 0 0 m (\2550.015) show NC gr 
 gsave  408 306 476 345 C 484.311 424.485 t 0 r /Helvetica findfont 22.8295 sf 0 0 m (\2550.01) show NC gr 
 gsave  408 306 476 345 C 467.218 455.822 t 0 r /Helvetica findfont 22.8295 sf 0 0 m (\2550.005) show NC gr 
 gsave  408 306 476 345 C 518.498 487.16 t 0 r /Helvetica findfont 22.8295 sf 0 0 m (0) show NC gr 
 gsave  408 306 476 345 C 475.765 521.347 t 0 r /Helvetica findfont 22.8295 sf 0 0 m (0.005) show NC gr 
 gsave  408 306 476 345 C 490.009 552.685 t 0 r /Helvetica findfont 22.8295 sf 0 0 m (0.01) show NC gr 
 gsave  408 306 476 345 C 475.765 584.022 t 0 r /Helvetica findfont 22.8295 sf 0 0 m (0.015) show NC gr  844 391 m 229 Y s 838 400 m 6 X s 841 406 m 3 X s 841 413 m 3 X s 841 419 m 3 X s 841 426 m 3 X s 838 432 m 6 X s 841 438 m 3 X s 841 445 m 3 X s
 841 451 m 3 X s 841 457 m 3 X s 838 464 m 6 X s 841 470 m 3 X s 841 476 m 3 X s 841 483 m 3 X s 841 489 m 3 X s 838 495 m 6 X s 841 502 m 3 X s 841 508 m 3 X s 841 514 m 3 X s 841 521 m 3 X s 838 527 m 6 X s 841 534 m 3 X s 841 540 m 3 X s 841 546 m
 3 X s 841 553 m 3 X s 838 559 m 6 X s 841 565 m 3 X s 841 572 m 3 X s 841 578 m 3 X s 841 584 m 3 X s 838 591 m 6 X s 838 400 m 6 X s 841 394 m 3 X s 838 591 m 6 X s 841 597 m 3 X s 841 603 m 3 X s 841 610 m 3 X s 841 616 m 3 X s /w 23 def /w2 {w 2
 div} def /w3 {w 3 div} def 563 470 569 525 574 560 580 495 586 451 643 512 701 473 758 453 816 489 9 { m21} R 563 482 m 29 Y s 557 511 m 11 X s 563 459 m -30 Y s 557 429 m 11 X s 569 536 m 30 Y s 563 566 m 11 X s 569 514 m -30 Y s 563 484 m 11 X s
 574 571 m 30 Y s 569 601 m 11 X s 574 548 m -29 Y s 569 519 m 11 X s 580 506 m 30 Y s 574 536 m 12 X s 580 484 m -30 Y s 574 454 m 12 X s 586 462 m 29 Y s 580 491 m 11 X s 586 439 m -29 Y s 580 410 m 11 X s 643 523 m 31 Y s 638 554 m 11 X s 643 500
 m -31 Y s 638 469 m 11 X s 701 485 m 36 Y s 695 521 m 11 X s 701 462 m -36 Y s 695 426 m 11 X s 758 464 m 30 Y s 753 494 m 11 X s 758 442 m -30 Y s 753 412 m 11 X s 816 500 m 30 Y s 810 530 m 11 X s 816 477 m -29 Y s 810 448 m 11 X s 9 lw 0.95 0.95
 0.95 c black 539 497 m 3 X 3 -1 d 9 X 3 -1 d 10 X 3 -1 d 9 X 3 -1 d 6 X 3 -1 d 9 X 3 -1 d 9 X 4 -1 d 9 X 3 -1 d 9 X 3 -1 d 6 X 3 -1 d 9 X 3 -1 d 10 X 3 -1 d 9 X 3 -1 d 3 X s 689 484 m 3 X 3 -1 d 9 X 3 -1 d 10 X 3 -1 d 9 X 3 -1 d 9 X 3 -1 d 6 X 3 -1
 d 9 X 4 -1 d 9 X 3 -1 d 9 X 3 -1 d 6 X 3 -1 d 9 X 3 -1 d 10 X 3 -1 d 9 X 3 -1 d 3 X s 839 471 m 3 X s 0.49 0.6 0.82 c black 0.49 0.6 0.82 c
 gsave  408 306 476 345 C 595.418 629.605 t 0 r /Helvetica-Bold findfont 25.6831 sf 0 0 m (5.5 < E < 6.0 GeV) show NC gr  0.52 0.76 0.64 c black 0.52 0.76 0.64 c
 gsave  408 306 476 345 C 575.476 592.569 t 0 r /Helvetica-Bold findfont 25.6831 sf 0 0 m 
 228 214 200 193 178 171 156 149 133 126 119 105 91 77 69 55 47 39 25 17
(A = \2550.000, p = 1.000) K NC gr  1 0.6 1 c black 1 0.6 1 c
 gsave  408 306 476 345 C 883.156 458.671 t 90 r /Helvetica-Bold findfont 28.5368 sf 0 0 m (/dof=0.7) show NC gr  black 1 0.6 1 c
 gsave  408 306 476 345 C 871.76 447.276 t 90 r /Helvetica-Bold findfont 19.9758 sf 0 0 m (2) show NC gr  black 1 0.6 1 c
 gsave  408 306 476 345 C 883.156 430.182 t 90 r /Symbol findfont 28.5368 sf 0 0 m (c) show NC gr  black 3 lw 1 1 1 c 408 306 930 345 bf black 1 1 1 c black 306 229 991 391 bl 306 229 991 391 bl 991 391 m 306 X s 1011 395 m -4 Y s 1154 395 m -4 Y s
 1011 395 m -4 Y s 1154 395 m -4 Y s
 gsave  408 306 930 345 C 999.96 370.356 t 0 r /Helvetica findfont 22.8295 sf 0 0 m (0) show NC gr 
 gsave  408 306 930 345 C 1133.86 370.356 t 0 r /Helvetica findfont 22.8295 sf 0 0 m (500) show NC gr  991 620 m 306 X s 1011 616 m 4 Y s 1154 616 m 4 Y s 1011 616 m 4 Y s 1154 616 m 4 Y s 991 391 m 229 Y s 997 404 m -6 X s 994 410 m -3 X s 994 416 m
 -3 X s 994 422 m -3 X s 994 428 m -3 X s 997 434 m -6 X s 994 440 m -3 X s 994 446 m -3 X s 994 452 m -3 X s 994 458 m -3 X s 997 464 m -6 X s 994 470 m -3 X s 994 476 m -3 X s 994 482 m -3 X s 994 488 m -3 X s 997 494 m -6 X s 994 500 m -3 X s 994
 506 m -3 X s 994 512 m -3 X s 994 519 m -3 X s 997 525 m -6 X s 994 531 m -3 X s 994 537 m -3 X s 994 543 m -3 X s 994 549 m -3 X s 997 555 m -6 X s 994 561 m -3 X s 994 567 m -3 X s 994 573 m -3 X s 994 579 m -3 X s 997 585 m -6 X s 994 591 m -3 X
 s 994 597 m -3 X s 994 603 m -3 X s 994 609 m -3 X s 997 615 m -6 X s 997 404 m -6 X s 994 398 m -3 X s 994 392 m -3 X s 997 615 m -6 X s
 gsave  408 306 930 345 C 923.04 395.996 t 0 r /Helvetica findfont 22.8295 sf 0 0 m (\2550.015) show NC gr 
 gsave  408 306 930 345 C 940.134 427.334 t 0 r /Helvetica findfont 22.8295 sf 0 0 m (\2550.01) show NC gr 
 gsave  408 306 930 345 C 923.04 455.822 t 0 r /Helvetica findfont 22.8295 sf 0 0 m (\2550.005) show NC gr 
 gsave  408 306 930 345 C 974.32 487.16 t 0 r /Helvetica findfont 22.8295 sf 0 0 m (0) show NC gr 
 gsave  408 306 930 345 C 931.587 518.498 t 0 r /Helvetica findfont 22.8295 sf 0 0 m (0.005) show NC gr 
 gsave  408 306 930 345 C 945.832 546.987 t 0 r /Helvetica findfont 22.8295 sf 0 0 m (0.01) show NC gr 
 gsave  408 306 930 345 C 931.587 578.325 t 0 r /Helvetica findfont 22.8295 sf 0 0 m (0.015) show NC gr 
 gsave  408 306 930 345 C 942.983 606.814 t 0 r /Helvetica findfont 22.8295 sf 0 0 m (0.02) show NC gr  1297 391 m 229 Y s 1292 404 m 5 X s 1294 410 m 3 X s 1294 416 m 3 X s 1294 422 m 3 X s 1294 428 m 3 X s 1292 434 m 5 X s 1294 440 m 3 X s 1294 446
 m 3 X s 1294 452 m 3 X s 1294 458 m 3 X s 1292 464 m 5 X s 1294 470 m 3 X s 1294 476 m 3 X s 1294 482 m 3 X s 1294 488 m 3 X s 1292 494 m 5 X s 1294 500 m 3 X s 1294 506 m 3 X s 1294 512 m 3 X s 1294 519 m 3 X s 1292 525 m 5 X s 1294 531 m 3 X s
 1294 537 m 3 X s 1294 543 m 3 X s 1294 549 m 3 X s 1292 555 m 5 X s 1294 561 m 3 X s 1294 567 m 3 X s 1294 573 m 3 X s 1294 579 m 3 X s 1292 585 m 5 X s 1294 591 m 3 X s 1294 597 m 3 X s 1294 603 m 3 X s 1294 609 m 3 X s 1292 615 m 5 X s 1292 404 m
 5 X s 1294 398 m 3 X s 1294 392 m 3 X s 1292 615 m 5 X s 1016 491 1022 520 1028 475 1034 500 1039 555 1097 457 1154 508 1212 511 1269 546 9 { m21} R 1016 503 m 34 Y s 1011 537 m 11 X s 1016 480 m -34 Y s 1011 446 m 11 X s 1022 531 m 35 Y s 1016 566
 m 12 X s 1022 508 m -34 Y s 1016 474 m 12 X s 1028 487 m 34 Y s 1022 521 m 11 X s 1028 464 m -34 Y s 1022 430 m 11 X s 1034 511 m 35 Y s 1028 546 m 11 X s 1034 489 m -35 Y s 1028 454 m 11 X s 1039 566 m 35 Y s 1034 601 m 11 X s 1039 544 m -35 Y s
 1034 509 m 11 X s 1097 468 m 36 Y s 1091 504 m 11 X s 1097 446 m -36 Y s 1091 410 m 11 X s 1154 519 m 43 Y s 1149 562 m 11 X s 1154 497 m -43 Y s 1149 454 m 11 X s 1212 522 m 34 Y s 1206 556 m 11 X s 1212 499 m -34 Y s 1206 465 m 11 X s 1269 557 m
 35 Y s 1264 592 m 11 X s 1269 535 m -35 Y s 1264 500 m 11 X s 1 0 0 c 9 lw 0.95 0.95 0.95 c black 1 0 0 c 993 495 m 3 X 3 -1 d 21 X 3 1 d 28 X 3 1 d 12 X 3 1 d 9 X 3 1 d 9 X 4 1 d 6 X 3 1 d 3 X 3 1 d 6 X 3 1 d 3 X 3 1 d 6 X 3 1 d 3 X 3 1 d 4 X s
 1143 505 m 3 1 d 3 X 3 1 d 3 1 d 3 X 3 1 d 3 X 3 1 d 3 X 3 1 d 3 1 d 3 X 3 1 d 3 1 d 3 X 4 1 d 3 1 d 3 1 d 3 X 3 1 d 3 1 d 3 1 d 3 X 3 1 d 3 1 d 3 1 d 3 1 d 3 X 3 1 d 3 1 d 3 1 d 3 1 d 4 1 d 3 1 d 3 1 d 3 X 3 1 d 3 1 d 3 1 d 3 1 d 3 1 d 3 1 d 3 1 d
 3 1 d 3 1 d 3 1 d 3 1 d 3 2 d 4 1 d s 1293 545 m 3 1 d s 0.49 0.6 0.82 c black 0.49 0.6 0.82 c
 gsave  408 306 930 345 C 1051.24 629.605 t 0 r /Helvetica-Bold findfont 25.6831 sf 0 0 m (6.0 < E < 6.5 GeV) show NC gr  0.52 0.76 0.64 c black 0.52 0.76 0.64 c
 gsave  408 306 930 345 C 1037 592.569 t 0 r /Helvetica-Bold findfont 25.6831 sf 0 0 m 
 220 206 192 185 170 163 148 141 126 118 111 97 83 69 61 47 40 25 18
(A = 0.000, p = 2.000) K NC gr  1 0.6 1 c black 1 0.6 1 c
 gsave  408 306 930 345 C 1336.13 458.671 t 90 r /Helvetica-Bold findfont 28.5368 sf 0 0 m (/dof=0.4) show NC gr  black 1 0.6 1 c
 gsave  408 306 930 345 C 1324.73 447.276 t 90 r /Helvetica-Bold findfont 19.9758 sf 0 0 m (2) show NC gr  black 1 0.6 1 c
 gsave  408 306 930 345 C 1336.13 430.182 t 90 r /Symbol findfont 28.5368 sf 0 0 m (c) show NC gr  black 3 lw 1 1 1 c 408 306 1383 345 bf black 1 1 1 c black 306 229 1445 391 bl 306 229 1445 391 bl 1445 391 m 306 X s 1464 395 m -4 Y s 1608 395 m -4 Y
 s 1464 395 m -4 Y s 1608 395 m -4 Y s
 gsave  408 306 1383 345 C 1452.93 370.356 t 0 r /Helvetica findfont 22.8295 sf 0 0 m (0) show NC gr 
 gsave  408 306 1383 345 C 1586.83 370.356 t 0 r /Helvetica findfont 22.8295 sf 0 0 m (500) show NC gr  1445 620 m 306 X s 1464 616 m 4 Y s 1608 616 m 4 Y s 1464 616 m 4 Y s 1608 616 m 4 Y s 1445 391 m 229 Y s 1450 420 m -5 X s 1447 429 m -2 X s 1447
 438 m -2 X s 1447 447 m -2 X s 1447 457 m -2 X s 1450 466 m -5 X s 1447 475 m -2 X s 1447 484 m -2 X s 1447 493 m -2 X s 1447 502 m -2 X s 1450 511 m -5 X s 1447 520 m -2 X s 1447 530 m -2 X s 1447 539 m -2 X s 1447 548 m -2 X s 1450 557 m -5 X s
 1447 566 m -2 X s 1447 575 m -2 X s 1447 584 m -2 X s 1447 593 m -2 X s 1450 603 m -5 X s 1450 420 m -5 X s 1447 411 m -2 X s 1447 402 m -2 X s 1447 393 m -2 X s 1450 603 m -5 X s 1447 612 m -2 X s
 gsave  408 306 1383 345 C 1390.26 413.089 t 0 r /Helvetica findfont 22.8295 sf 0 0 m (\2550.02) show NC gr 
 gsave  408 306 1383 345 C 1393.11 458.671 t 0 r /Helvetica findfont 22.8295 sf 0 0 m (\2550.01) show NC gr 
 gsave  408 306 1383 345 C 1427.29 504.254 t 0 r /Helvetica findfont 22.8295 sf 0 0 m (0) show NC gr 
 gsave  408 306 1383 345 C 1398.81 549.836 t 0 r /Helvetica findfont 22.8295 sf 0 0 m (0.01) show NC gr 
 gsave  408 306 1383 345 C 1395.96 595.418 t 0 r /Helvetica findfont 22.8295 sf 0 0 m (0.02) show NC gr  1751 391 m 229 Y s 1745 420 m 6 X s 1748 429 m 3 X s 1748 438 m 3 X s 1748 447 m 3 X s 1748 457 m 3 X s 1745 466 m 6 X s 1748 475 m 3 X s 1748
 484 m 3 X s 1748 493 m 3 X s 1748 502 m 3 X s 1745 511 m 6 X s 1748 520 m 3 X s 1748 530 m 3 X s 1748 539 m 3 X s 1748 548 m 3 X s 1745 557 m 6 X s 1748 566 m 3 X s 1748 575 m 3 X s 1748 584 m 3 X s 1748 593 m 3 X s 1745 603 m 6 X s 1745 420 m 6 X s
 1748 411 m 3 X s 1748 402 m 3 X s 1748 393 m 3 X s 1745 603 m 6 X s 1748 612 m 3 X s 1470 473 1476 505 1481 501 1487 562 1493 501 1550 534 1608 455 1665 540 1723 516 9 { m21} R 1470 484 m 27 Y s 1464 511 m 12 X s 1470 461 m -27 Y s 1464 434 m 12 X s
 1476 516 m 27 Y s 1470 543 m 11 X s 1476 493 m -27 Y s 1470 466 m 11 X s 1481 512 m 27 Y s 1476 539 m 11 X s 1481 489 m -27 Y s 1476 462 m 11 X s 1487 573 m 28 Y s 1481 601 m 12 X s 1487 550 m -28 Y s 1481 522 m 12 X s 1493 512 m 28 Y s 1487 540 m
 12 X s 1493 489 m -27 Y s 1487 462 m 12 X s 1550 545 m 29 Y s 1545 574 m 11 X s 1550 523 m -29 Y s 1545 494 m 11 X s 1608 467 m 34 Y s 1602 501 m 12 X s 1608 444 m -34 Y s 1602 410 m 12 X s 1665 551 m 28 Y s 1660 579 m 11 X s 1665 528 m -28 Y s 1660
 500 m 11 X s 1723 527 m 28 Y s 1717 555 m 12 X s 1723 504 m -27 Y s 1717 477 m 12 X s 1 0 0 c 9 lw 0.95 0.95 0.95 c black 1 0 0 c 1446 511 m 55 X 3 1 d 58 X 3 1 d 31 X s 1596 513 m 3 X 3 1 d 25 X 3 1 d 21 X 3 1 d 19 X 3 1 d 18 X 3 1 d 12 X 3 1 d 16
 X 3 1 d 12 X 3 1 d s 1746 521 m 3 X s 0.49 0.6 0.82 c black 0.49 0.6 0.82 c
 gsave  408 306 1383 345 C 1504.21 629.605 t 0 r /Helvetica-Bold findfont 25.6831 sf 0 0 m (6.5 < E < 7.0 GeV) show NC gr  0.52 0.76 0.64 c black 0.52 0.76 0.64 c
 gsave  408 306 1383 345 C 1489.97 592.569 t 0 r /Helvetica-Bold findfont 25.6831 sf 0 0 m 
 220 206 192 185 170 163 148 141 125 118 111 97 83 69 61 47 40 25 18
(A = 0.000, p = 2.000) K NC gr  1 0.6 1 c black 1 0.6 1 c
 gsave  408 306 1383 345 C 1789.1 458.671 t 90 r /Helvetica-Bold findfont 28.5368 sf 0 0 m (/dof=0.6) show NC gr  black 1 0.6 1 c
 gsave  408 306 1383 345 C 1777.71 447.276 t 90 r /Helvetica-Bold findfont 19.9758 sf 0 0 m (2) show NC gr  black 1 0.6 1 c
 gsave  408 306 1383 345 C 1789.1 430.182 t 90 r /Symbol findfont 28.5368 sf 0 0 m (c) show NC gr  black 3 lw 1 1 1 c 408 306 1837 345 bf black 1 1 1 c black 306 229 1898 391 bl 306 229 1898 391 bl 1898 391 m 306 X s 1918 395 m -4 Y s 2061 395 m -4 Y
 s 1918 395 m -4 Y s 2061 395 m -4 Y s
 gsave  408 306 1837 345 C 1908.76 370.356 t 0 r /Helvetica findfont 22.8295 sf 0 0 m (0) show NC gr 
 gsave  408 306 1837 345 C 2039.81 370.356 t 0 r /Helvetica findfont 22.8295 sf 0 0 m (500) show NC gr  1898 620 m 306 X s 1918 616 m 4 Y s 2061 616 m 4 Y s 1918 616 m 4 Y s 2061 616 m 4 Y s 1898 391 m 229 Y s 1904 406 m -6 X s 1901 413 m -3 X s 1901
 420 m -3 X s 1901 427 m -3 X s 1901 435 m -3 X s 1904 442 m -6 X s 1901 449 m -3 X s 1901 456 m -3 X s 1901 464 m -3 X s 1901 471 m -3 X s 1904 478 m -6 X s 1901 485 m -3 X s 1901 493 m -3 X s 1901 500 m -3 X s 1901 507 m -3 X s 1904 515 m -6 X s
 1901 522 m -3 X s 1901 529 m -3 X s 1901 536 m -3 X s 1901 544 m -3 X s 1904 551 m -6 X s 1901 558 m -3 X s 1901 565 m -3 X s 1901 573 m -3 X s 1901 580 m -3 X s 1904 587 m -6 X s 1904 406 m -6 X s 1901 398 m -3 X s 1901 391 m -3 X s 1904 587 m -6 X
 s 1901 594 m -3 X s 1901 602 m -3 X s 1901 609 m -3 X s 1901 616 m -3 X s
 gsave  408 306 1837 345 C 1843.23 398.845 t 0 r /Helvetica findfont 22.8295 sf 0 0 m (\2550.03) show NC gr 
 gsave  408 306 1837 345 C 1843.23 435.88 t 0 r /Helvetica findfont 22.8295 sf 0 0 m (\2550.02) show NC gr 
 gsave  408 306 1837 345 C 1846.08 470.067 t 0 r /Helvetica findfont 22.8295 sf 0 0 m (\2550.01) show NC gr 
 gsave  408 306 1837 345 C 1880.27 507.102 t 0 r /Helvetica findfont 22.8295 sf 0 0 m (0) show NC gr 
 gsave  408 306 1837 345 C 1851.78 544.138 t 0 r /Helvetica findfont 22.8295 sf 0 0 m (0.01) show NC gr 
 gsave  408 306 1837 345 C 1848.93 581.174 t 0 r /Helvetica findfont 22.8295 sf 0 0 m (0.02) show NC gr  2204 391 m 229 Y s 2199 406 m 5 X s 2201 413 m 3 X s 2201 420 m 3 X s 2201 427 m 3 X s 2201 435 m 3 X s 2199 442 m 5 X s 2201 449 m 3 X s 2201
 456 m 3 X s 2201 464 m 3 X s 2201 471 m 3 X s 2199 478 m 5 X s 2201 485 m 3 X s 2201 493 m 3 X s 2201 500 m 3 X s 2201 507 m 3 X s 2199 515 m 5 X s 2201 522 m 3 X s 2201 529 m 3 X s 2201 536 m 3 X s 2201 544 m 3 X s 2199 551 m 5 X s 2201 558 m 3 X s
 2201 565 m 3 X s 2201 573 m 3 X s 2201 580 m 3 X s 2199 587 m 5 X s 2199 406 m 5 X s 2201 398 m 3 X s 2201 391 m 3 X s 2199 587 m 5 X s 2201 594 m 3 X s 2201 602 m 3 X s 2201 609 m 3 X s 2201 616 m 3 X s 1923 519 1929 562 1935 488 1941 530 1946 517
 2004 506 2061 536 2119 443 2176 504 9 { m21} R 1923 530 m 23 Y s 1918 553 m 11 X s 1923 507 m -22 Y s 1918 485 m 11 X s 1929 573 m 28 Y s 1923 601 m 12 X s 1929 551 m -28 Y s 1923 523 m 12 X s 1935 499 m 22 Y s 1929 521 m 12 X s 1935 476 m -22 Y s
 1929 454 m 12 X s 1941 542 m 22 Y s 1935 564 m 11 X s 1941 519 m -23 Y s 1935 496 m 11 X s 1946 529 m 22 Y s 1941 551 m 11 X s 1946 506 m -23 Y s 1941 483 m 11 X s 2004 518 m 23 Y s 1998 541 m 12 X s 2004 495 m -24 Y s 1998 471 m 12 X s 2061 547 m
 29 Y s 2056 576 m 11 X s 2061 524 m -28 Y s 2056 496 m 11 X s 2119 455 m 21 Y s 2113 476 m 12 X s 2119 432 m -22 Y s 2113 410 m 12 X s 2176 515 m 22 Y s 2171 537 m 11 X s 2176 492 m -22 Y s 2171 470 m 11 X s 9 lw 0.95 0.95 0.95 c black 1900 517 m 3
 -1 d 6 X 3 -1 d 3 X 3 -1 d 6 X 3 -1 d 6 X 3 -1 d 6 X 4 -1 d 3 X 3 -1 d 6 X 3 -1 d 6 X 3 -1 d 6 X 3 -1 d 3 X 3 -1 d 6 X 4 -1 d 6 X 3 -1 d 6 X 3 -1 d 3 X 3 -1 d 6 X 3 -1 d 6 X 3 -1 d 3 X 3 -1 d 7 X s 2050 499 m 3 -1 d 6 X 3 -1 d 6 X 3 -1 d 3 X 3 -1 d
 6 X 3 -1 d 6 X 4 -1 d 6 X 3 -1 d 3 X 3 -1 d 6 X 3 -1 d 6 X 3 -1 d 6 X 3 -1 d 3 X 4 -1 d 6 X 3 -1 d 6 X 3 -1 d 3 X 3 -1 d 6 X 3 -1 d 6 X 3 -1 d 7 X 3 -1 d 3 X s 2200 481 m 3 -1 d s 0.49 0.6 0.82 c black 0.49 0.6 0.82 c
 gsave  408 306 1837 345 C 1957.19 629.605 t 0 r /Helvetica-Bold findfont 25.6831 sf 0 0 m (7.0 < E < 7.5 GeV) show NC gr  0.52 0.76 0.64 c black 0.52 0.76 0.64 c
 gsave  408 306 1837 345 C 1937.25 592.569 t 0 r /Helvetica-Bold findfont 25.6831 sf 0 0 m 
 228 214 200 193 178 171 156 149 134 126 119 105 91 77 69 55 47 40 25 17
(A = \2550.000, p = 1.000) K NC gr  1 0.6 1 c black 1 0.6 1 c
 gsave  408 306 1837 345 C 2242.08 458.671 t 90 r /Helvetica-Bold findfont 28.5368 sf 0 0 m (/dof=0.7) show NC gr  black 1 0.6 1 c
 gsave  408 306 1837 345 C 2230.68 447.276 t 90 r /Helvetica-Bold findfont 19.9758 sf 0 0 m (2) show NC gr  black 1 0.6 1 c
 gsave  408 306 1837 345 C 2242.08 430.182 t 90 r /Symbol findfont 28.5368 sf 0 0 m (c) show NC gr  black 3 lw 1 1 1 c 408 306 23 13 bf black 1 1 1 c black 306 229 84 59 bl 306 229 84 59 bl 84 59 m 306 X s 103 63 m -4 Y s 247 63 m -4 Y s 103 63 m -4
 Y s 247 63 m -4 Y s
 gsave  408 306 23 13 C 94.0134 39.8845 t 0 r /Helvetica findfont 22.8295 sf 0 0 m (0) show NC gr 
 gsave  408 306 23 13 C 225.062 39.8845 t 0 r /Helvetica findfont 22.8295 sf 0 0 m (500) show NC gr  84 288 m 306 X s 103 284 m 4 Y s 247 284 m 4 Y s 103 284 m 4 Y s 247 284 m 4 Y s 84 59 m 229 Y s 89 84 m -5 X s 87 90 m -3 X s 87 96 m -3 X s 87 102
 m -3 X s 87 108 m -3 X s 89 115 m -5 X s 87 121 m -3 X s 87 127 m -3 X s 87 133 m -3 X s 87 139 m -3 X s 89 145 m -5 X s 87 152 m -3 X s 87 158 m -3 X s 87 164 m -3 X s 87 170 m -3 X s 89 176 m -5 X s 87 182 m -3 X s 87 189 m -3 X s 87 195 m -3 X s
 87 201 m -3 X s 89 207 m -5 X s 87 213 m -3 X s 87 219 m -3 X s 87 226 m -3 X s 87 232 m -3 X s 89 238 m -5 X s 87 244 m -3 X s 87 250 m -3 X s 87 256 m -3 X s 87 263 m -3 X s 89 269 m -5 X s 89 84 m -5 X s 87 78 m -3 X s 87 71 m -3 X s 87 65 m -3 X
 s 87 59 m -3 X s 89 269 m -5 X s 87 275 m -3 X s 87 281 m -3 X s 87 287 m -3 X s
 gsave  408 306 23 13 C 28.4889 76.92 t 0 r /Helvetica findfont 22.8295 sf 0 0 m (\2550.03) show NC gr 
 gsave  408 306 23 13 C 28.4889 108.258 t 0 r /Helvetica findfont 22.8295 sf 0 0 m (\2550.02) show NC gr 
 gsave  408 306 23 13 C 31.3378 139.596 t 0 r /Helvetica findfont 22.8295 sf 0 0 m (\2550.01) show NC gr 
 gsave  408 306 23 13 C 65.5245 168.085 t 0 r /Helvetica findfont 22.8295 sf 0 0 m (0) show NC gr 
 gsave  408 306 23 13 C 37.0356 199.422 t 0 r /Helvetica findfont 22.8295 sf 0 0 m (0.01) show NC gr 
 gsave  408 306 23 13 C 34.1867 230.76 t 0 r /Helvetica findfont 22.8295 sf 0 0 m (0.02) show NC gr 
 gsave  408 306 23 13 C 34.1867 262.098 t 0 r /Helvetica findfont 22.8295 sf 0 0 m (0.03) show NC gr  390 59 m 229 Y s 385 84 m 5 X s 387 90 m 3 X s 387 96 m 3 X s 387 102 m 3 X s 387 108 m 3 X s 385 115 m 5 X s 387 121 m 3 X s 387 127 m 3 X s 387
 133 m 3 X s 387 139 m 3 X s 385 145 m 5 X s 387 152 m 3 X s 387 158 m 3 X s 387 164 m 3 X s 387 170 m 3 X s 385 176 m 5 X s 387 182 m 3 X s 387 189 m 3 X s 387 195 m 3 X s 387 201 m 3 X s 385 207 m 5 X s 387 213 m 3 X s 387 219 m 3 X s 387 226 m 3 X
 s 387 232 m 3 X s 385 238 m 5 X s 387 244 m 3 X s 387 250 m 3 X s 387 256 m 3 X s 387 263 m 3 X s 385 269 m 5 X s 385 84 m 5 X s 387 78 m 3 X s 387 71 m 3 X s 387 65 m 3 X s 387 59 m 3 X s 385 269 m 5 X s 387 275 m 3 X s 387 281 m 3 X s 387 287 m 3
 X s /w 22 def /w2 {w 2 div} def /w3 {w 3 div} def 109 191 115 237 121 152 126 149 132 170 190 184 247 114 305 171 362 167 9 { m21} R 109 202 m 20 Y s 104 222 m 11 X s 109 179 m -20 Y s 104 159 m 11 X s 115 249 m 20 Y s 109 269 m 12 X s 115 226 m -20
 Y s 109 206 m 12 X s 121 164 m 19 Y s 115 183 m 11 X s 121 141 m -19 Y s 115 122 m 11 X s 126 161 m 19 Y s 121 180 m 11 X s 126 138 m -19 Y s 121 119 m 11 X s 132 182 m 19 Y s 127 201 m 11 X s 132 159 m -20 Y s 127 139 m 11 X s 190 196 m 20 Y s 184
 216 m 11 X s 190 173 m -21 Y s 184 152 m 11 X s 247 125 m 25 Y s 242 150 m 11 X s 247 102 m -24 Y s 242 78 m 11 X s 305 183 m 20 Y s 299 203 m 11 X s 305 160 m -20 Y s 299 140 m 11 X s 362 179 m 19 Y s 357 198 m 11 X s 362 156 m -20 Y s 357 136 m 11
 X s 9 lw 0.95 0.95 0.95 c black 85 178 m 3 -1 d 10 X 3 -1 d 12 X 3 -1 d 9 X 3 -1 d 9 X 4 -1 d 12 X 3 -1 d 9 X 3 -1 d 12 X 3 -1 d 10 X 3 -1 d 9 X 3 -1 d 12 X 3 -1 d 9 X 3 -1 d s 235 166 m 10 X 3 -1 d 12 X 3 -1 d 9 X 3 -1 d 12 X 4 -1 d 9 X 3 -1 d 9 X
 3 -1 d 12 X 3 -1 d 10 X 3 -1 d 12 X 3 -1 d 9 X 3 -1 d 9 X 3 -1 d 3 X s 385 155 m 4 X s 0.49 0.6 0.82 c black 0.49 0.6 0.82 c
 gsave  408 306 23 13 C 142.445 296.285 t 0 r /Helvetica-Bold findfont 25.6831 sf 0 0 m (7.5 < E < 8.0 GeV) show NC gr  0.52 0.76 0.64 c black 0.52 0.76 0.64 c
 gsave  408 306 23 13 C 122.502 259.249 t 0 r /Helvetica-Bold findfont 25.6831 sf 0 0 m 
 228 214 200 193 178 171 156 149 133 126 119 105 91 76 69 55 47 39 25 17
(A = \2550.000, p = 1.000) K NC gr  1 0.6 1 c black 1 0.6 1 c
 gsave  408 306 23 13 C 427.334 128.2 t 90 r /Helvetica-Bold findfont 28.5368 sf 0 0 m (/dof=1.0) show NC gr  black 1 0.6 1 c
 gsave  408 306 23 13 C 415.938 116.804 t 90 r /Helvetica-Bold findfont 19.9758 sf 0 0 m (2) show NC gr  black 1 0.6 1 c
 gsave  408 306 23 13 C 427.334 99.7112 t 90 r /Symbol findfont 28.5368 sf 0 0 m (c) show NC gr  black 3 lw 1 1 1 c 408 306 476 13 bf black 1 1 1 c black 307 229 537 59 bl 307 229 537 59 bl 537 59 m 307 X s 557 63 m -4 Y s 701 63 m -4 Y s 557 63 m -4
 Y s 701 63 m -4 Y s
 gsave  408 306 476 13 C 546.987 39.8845 t 0 r /Helvetica findfont 22.8295 sf 0 0 m (0) show NC gr 
 gsave  408 306 476 13 C 678.036 39.8845 t 0 r /Helvetica findfont 22.8295 sf 0 0 m (500) show NC gr  537 288 m 307 X s 557 284 m 4 Y s 701 284 m 4 Y s 557 284 m 4 Y s 701 284 m 4 Y s 537 59 m 229 Y s 543 77 m -6 X s 540 84 m -3 X s 540 90 m -3 X s
 540 97 m -3 X s 540 104 m -3 X s 543 111 m -6 X s 540 118 m -3 X s 540 125 m -3 X s 540 132 m -3 X s 540 139 m -3 X s 543 146 m -6 X s 540 153 m -3 X s 540 160 m -3 X s 540 167 m -3 X s 540 173 m -3 X s 543 180 m -6 X s 540 187 m -3 X s 540 194 m -3
 X s 540 201 m -3 X s 540 208 m -3 X s 543 215 m -6 X s 540 222 m -3 X s 540 229 m -3 X s 540 236 m -3 X s 540 243 m -3 X s 543 250 m -6 X s 540 257 m -3 X s 540 263 m -3 X s 540 270 m -3 X s 540 277 m -3 X s 543 284 m -6 X s 543 77 m -6 X s 540 70 m
 -3 X s 540 63 m -3 X s 543 284 m -6 X s
 gsave  408 306 476 13 C 481.462 68.3734 t 0 r /Helvetica findfont 22.8295 sf 0 0 m (\2550.04) show NC gr 
 gsave  408 306 476 13 C 481.462 105.409 t 0 r /Helvetica findfont 22.8295 sf 0 0 m (\2550.03) show NC gr 
 gsave  408 306 476 13 C 481.462 139.596 t 0 r /Helvetica findfont 22.8295 sf 0 0 m (\2550.02) show NC gr 
 gsave  408 306 476 13 C 484.311 173.782 t 0 r /Helvetica findfont 22.8295 sf 0 0 m (\2550.01) show NC gr 
 gsave  408 306 476 13 C 518.498 207.969 t 0 r /Helvetica findfont 22.8295 sf 0 0 m (0) show NC gr 
 gsave  408 306 476 13 C 490.009 242.156 t 0 r /Helvetica findfont 22.8295 sf 0 0 m (0.01) show NC gr 
 gsave  408 306 476 13 C 487.16 276.342 t 0 r /Helvetica findfont 22.8295 sf 0 0 m (0.02) show NC gr  844 59 m 229 Y s 838 77 m 6 X s 841 84 m 3 X s 841 90 m 3 X s 841 97 m 3 X s 841 104 m 3 X s 838 111 m 6 X s 841 118 m 3 X s 841 125 m 3 X s 841 132
 m 3 X s 841 139 m 3 X s 838 146 m 6 X s 841 153 m 3 X s 841 160 m 3 X s 841 167 m 3 X s 841 173 m 3 X s 838 180 m 6 X s 841 187 m 3 X s 841 194 m 3 X s 841 201 m 3 X s 841 208 m 3 X s 838 215 m 6 X s 841 222 m 3 X s 841 229 m 3 X s 841 236 m 3 X s
 841 243 m 3 X s 838 250 m 6 X s 841 257 m 3 X s 841 263 m 3 X s 841 270 m 3 X s 841 277 m 3 X s 838 284 m 6 X s 838 77 m 6 X s 841 70 m 3 X s 841 63 m 3 X s 838 284 m 6 X s /w 23 def /w2 {w 2 div} def /w3 {w 3 div} def 563 209 569 182 574 114 580
 206 586 232 643 182 701 135 758 182 816 200 9 { m21} R 563 220 m 26 Y s 557 246 m 11 X s 563 197 m -26 Y s 557 171 m 11 X s 569 194 m 25 Y s 563 219 m 11 X s 569 171 m -26 Y s 563 145 m 11 X s 574 126 m 25 Y s 569 151 m 11 X s 574 103 m -25 Y s 569
 78 m 11 X s 580 217 m 26 Y s 574 243 m 12 X s 580 194 m -25 Y s 574 169 m 12 X s 586 243 m 26 Y s 580 269 m 11 X s 586 220 m -26 Y s 580 194 m 11 X s 643 193 m 27 Y s 638 220 m 11 X s 643 170 m -26 Y s 638 144 m 11 X s 701 147 m 32 Y s 695 179 m 11
 X s 701 124 m -32 Y s 695 92 m 11 X s 758 194 m 25 Y s 753 219 m 11 X s 758 171 m -25 Y s 753 146 m 11 X s 816 211 m 26 Y s 810 237 m 11 X s 816 188 m -26 Y s 810 162 m 11 X s 9 lw 0.95 0.95 0.95 c black 539 218 m 3 X 3 -1 d 3 X 3 -1 d 3 X 3 -1 d 3
 -1 d 3 X 4 -1 d 3 X 3 -1 d 3 X 3 -1 d 3 X 3 -1 d 3 -1 d 3 X 3 -1 d 3 X 3 -1 d 3 X 3 -1 d 3 X 3 -1 d 4 -1 d 3 X 3 -1 d 3 X 3 -1 d 3 X 3 -1 d 3 X 3 -1 d 3 X 3 -1 d 3 -1 d 3 X 3 -1 d 3 X 3 -1 d 3 X 4 -1 d 3 X 3 -1 d 3 -1 d 3 X 3 -1 d 3 X 3 -1 d s 689
 191 m 3 X 3 -1 d 3 X 3 -1 d 3 -1 d 3 X 3 -1 d 3 X 4 -1 d 3 X 3 -1 d 3 X 3 -1 d 3 X 3 -1 d 3 -1 d 3 X 3 -1 d 3 X 3 -1 d 3 X 3 -1 d 3 X 3 -1 d 4 -1 d 3 X 3 -1 d 3 X 3 -1 d 3 X 3 -1 d 3 X 3 -1 d 3 -1 d 3 X 3 -1 d 3 X 3 -1 d 3 X 3 -1 d 4 X 3 -1 d 3 X 3
 -1 d 3 -1 d 3 X 3 -1 d 3 X 3 -1 d s 839 164 m 3 X s 0.49 0.6 0.82 c black 0.49 0.6 0.82 c
 gsave  408 306 476 13 C 595.418 296.285 t 0 r /Helvetica-Bold findfont 25.6831 sf 0 0 m (8.0 < E < 8.5 GeV) show NC gr  0.52 0.76 0.64 c black 0.52 0.76 0.64 c
 gsave  408 306 476 13 C 575.476 259.249 t 0 r /Helvetica-Bold findfont 25.6831 sf 0 0 m 
 228 214 200 193 178 171 156 149 133 126 119 105 91 77 69 55 47 39 25 17
(A = \2550.000, p = 1.000) K NC gr  1 0.6 1 c black 1 0.6 1 c
 gsave  408 306 476 13 C 883.156 128.2 t 90 r /Helvetica-Bold findfont 28.5368 sf 0 0 m (/dof=1.4) show NC gr  black 1 0.6 1 c
 gsave  408 306 476 13 C 871.76 116.804 t 90 r /Helvetica-Bold findfont 19.9758 sf 0 0 m (2) show NC gr  black 1 0.6 1 c
 gsave  408 306 476 13 C 883.156 99.7112 t 90 r /Symbol findfont 28.5368 sf 0 0 m (c) show NC gr  black 3 lw 1 1 1 c 408 306 930 13 bf black 1 1 1 c black 306 229 991 59 bl 306 229 991 59 bl 991 59 m 306 X s 1011 63 m -4 Y s 1154 63 m -4 Y s 1011 63
 m -4 Y s 1154 63 m -4 Y s
 gsave  408 306 930 13 C 999.96 39.8845 t 0 r /Helvetica findfont 22.8295 sf 0 0 m (0) show NC gr 
 gsave  408 306 930 13 C 1133.86 39.8845 t 0 r /Helvetica findfont 22.8295 sf 0 0 m (500) show NC gr  991 288 m 306 X s 1011 284 m 4 Y s 1154 284 m 4 Y s 1011 284 m 4 Y s 1154 284 m 4 Y s 991 59 m 229 Y s 997 76 m -6 X s 994 83 m -3 X s 994 91 m -3 X
 s 994 99 m -3 X s 994 107 m -3 X s 997 115 m -6 X s 994 123 m -3 X s 994 131 m -3 X s 994 139 m -3 X s 994 146 m -3 X s 997 154 m -6 X s 994 162 m -3 X s 994 170 m -3 X s 994 178 m -3 X s 994 186 m -3 X s 997 194 m -6 X s 994 201 m -3 X s 994 209 m
 -3 X s 994 217 m -3 X s 994 225 m -3 X s 997 233 m -6 X s 994 241 m -3 X s 994 249 m -3 X s 994 256 m -3 X s 994 264 m -3 X s 997 272 m -6 X s 997 76 m -6 X s 994 68 m -3 X s 994 60 m -3 X s 997 272 m -6 X s 994 280 m -3 X s 994 288 m -3 X s
 gsave  408 306 930 13 C 937.285 68.3734 t 0 r /Helvetica findfont 22.8295 sf 0 0 m (\2550.04) show NC gr 
 gsave  408 306 930 13 C 937.285 108.258 t 0 r /Helvetica findfont 22.8295 sf 0 0 m (\2550.03) show NC gr 
 gsave  408 306 930 13 C 937.285 148.142 t 0 r /Helvetica findfont 22.8295 sf 0 0 m (\2550.02) show NC gr 
 gsave  408 306 930 13 C 940.134 185.178 t 0 r /Helvetica findfont 22.8295 sf 0 0 m (\2550.01) show NC gr 
 gsave  408 306 930 13 C 974.32 225.062 t 0 r /Helvetica findfont 22.8295 sf 0 0 m (0) show NC gr 
 gsave  408 306 930 13 C 945.832 264.947 t 0 r /Helvetica findfont 22.8295 sf 0 0 m (0.01) show NC gr  1297 59 m 229 Y s 1292 76 m 5 X s 1294 83 m 3 X s 1294 91 m 3 X s 1294 99 m 3 X s 1294 107 m 3 X s 1292 115 m 5 X s 1294 123 m 3 X s 1294 131 m 3 X
 s 1294 139 m 3 X s 1294 146 m 3 X s 1292 154 m 5 X s 1294 162 m 3 X s 1294 170 m 3 X s 1294 178 m 3 X s 1294 186 m 3 X s 1292 194 m 5 X s 1294 201 m 3 X s 1294 209 m 3 X s 1294 217 m 3 X s 1294 225 m 3 X s 1292 233 m 5 X s 1294 241 m 3 X s 1294 249
 m 3 X s 1294 256 m 3 X s 1294 264 m 3 X s 1292 272 m 5 X s 1292 76 m 5 X s 1294 68 m 3 X s 1294 60 m 3 X s 1292 272 m 5 X s 1294 280 m 3 X s 1294 288 m 3 X s 1016 219 1022 187 1028 198 1034 224 1039 122 1097 194 1154 206 1212 210 1269 209 9 { m21} R
 1016 230 m 33 Y s 1011 263 m 11 X s 1016 207 m -33 Y s 1011 174 m 11 X s 1022 198 m 33 Y s 1016 231 m 12 X s 1022 175 m -33 Y s 1016 142 m 12 X s 1028 209 m 33 Y s 1022 242 m 11 X s 1028 186 m -33 Y s 1022 153 m 11 X s 1034 236 m 33 Y s 1028 269 m
 11 X s 1034 213 m -33 Y s 1028 180 m 11 X s 1039 133 m 32 Y s 1034 165 m 11 X s 1039 110 m -32 Y s 1034 78 m 11 X s 1097 205 m 35 Y s 1091 240 m 11 X s 1097 183 m -35 Y s 1091 148 m 11 X s 1154 218 m 40 Y s 1149 258 m 11 X s 1154 195 m -41 Y s 1149
 154 m 11 X s 1212 222 m 33 Y s 1206 255 m 11 X s 1212 199 m -33 Y s 1206 166 m 11 X s 1269 221 m 33 Y s 1264 254 m 11 X s 1269 198 m -33 Y s 1264 165 m 11 X s 9 lw 0.95 0.95 0.95 c black 993 236 m 3 -1 d 3 X 3 -1 d 3 X 3 -1 d 3 X 3 -1 d 3 X 3 -1 d 3
 X 3 -1 d 3 X 3 -1 d 3 X 3 -1 d 4 X 3 -1 d 3 X 3 -1 d 3 X 3 -1 d 3 X 3 -1 d 3 X 3 -1 d 3 X 3 -1 d 3 X 3 -1 d 3 X 3 -1 d 3 X 4 -1 d 3 X 3 -1 d 3 X 3 -1 d 3 X 3 -1 d 3 X 3 -1 d 3 X 3 -1 d 3 X 3 -1 d 3 X 3 -1 d 3 X 4 -1 d s 1143 211 m 3 X 3 -1 d 3 X 3
 -1 d 3 X 3 -1 d 3 X 3 -1 d 3 X 3 -1 d 3 X 3 -1 d 3 X 3 -1 d 3 X 4 -1 d 3 X 3 -1 d 3 X 3 -1 d 3 X 3 -1 d 3 X 3 -1 d 3 X 3 -1 d 3 X 3 -1 d 3 X 3 -1 d 3 X 3 -1 d 4 X 3 -1 d 3 X 3 -1 d 6 X 3 -1 d 3 X 3 -1 d 3 X 3 -1 d 3 X 3 -1 d 3 X 3 -1 d 3 X 4 -1 d s
 1293 187 m 3 X s 0.49 0.6 0.82 c black 0.49 0.6 0.82 c
 gsave  408 306 930 13 C 1051.24 296.285 t 0 r /Helvetica-Bold findfont 25.6831 sf 0 0 m (8.5 < E < 9.0 GeV) show NC gr  0.52 0.76 0.64 c black 0.52 0.76 0.64 c
 gsave  408 306 930 13 C 1031.3 259.249 t 0 r /Helvetica-Bold findfont 25.6831 sf 0 0 m 
 228 214 200 193 178 171 156 149 134 126 119 105 91 77 69 55 47 40 25 17
(A = \2550.000, p = 1.000) K NC gr  1 0.6 1 c black 1 0.6 1 c
 gsave  408 306 930 13 C 1336.13 128.2 t 90 r /Helvetica-Bold findfont 28.5368 sf 0 0 m (/dof=1.0) show NC gr  black 1 0.6 1 c
 gsave  408 306 930 13 C 1324.73 116.804 t 90 r /Helvetica-Bold findfont 19.9758 sf 0 0 m (2) show NC gr  black 1 0.6 1 c
 gsave  408 306 930 13 C 1336.13 99.7112 t 90 r /Symbol findfont 28.5368 sf 0 0 m (c) show NC gr  black 3 lw 1 1 1 c 408 306 1383 13 bf black 1 1 1 c black 306 229 1445 59 bl 306 229 1445 59 bl 1445 59 m 306 X s 1464 63 m -4 Y s 1608 63 m -4 Y s 1464
 63 m -4 Y s 1608 63 m -4 Y s
 gsave  408 306 1383 13 C 1452.93 39.8845 t 0 r /Helvetica findfont 22.8295 sf 0 0 m (0) show NC gr 
 gsave  408 306 1383 13 C 1586.83 39.8845 t 0 r /Helvetica findfont 22.8295 sf 0 0 m (500) show NC gr  1445 288 m 306 X s 1464 284 m 4 Y s 1608 284 m 4 Y s 1464 284 m 4 Y s 1608 284 m 4 Y s 1445 59 m 229 Y s 1450 60 m -5 X s 1447 65 m -2 X s 1447 71
 m -2 X s 1447 76 m -2 X s 1447 81 m -2 X s 1450 87 m -5 X s 1447 92 m -2 X s 1447 98 m -2 X s 1447 103 m -2 X s 1447 109 m -2 X s 1450 114 m -5 X s 1447 119 m -2 X s 1447 125 m -2 X s 1447 130 m -2 X s 1447 136 m -2 X s 1450 141 m -5 X s 1447 146 m
 -2 X s 1447 152 m -2 X s 1447 157 m -2 X s 1447 163 m -2 X s 1450 168 m -5 X s 1447 174 m -2 X s 1447 179 m -2 X s 1447 184 m -2 X s 1447 190 m -2 X s 1450 195 m -5 X s 1447 201 m -2 X s 1447 206 m -2 X s 1447 211 m -2 X s 1447 217 m -2 X s 1450 222
 m -5 X s 1447 228 m -2 X s 1447 233 m -2 X s 1447 239 m -2 X s 1447 244 m -2 X s 1450 249 m -5 X s 1447 255 m -2 X s 1447 260 m -2 X s 1447 266 m -2 X s 1447 271 m -2 X s 1450 276 m -5 X s 1450 60 m -5 X s 1450 276 m -5 X s 1447 282 m -2 X s 1447
 287 m -2 X s
 gsave  408 306 1383 13 C 1390.26 51.28 t 0 r /Helvetica findfont 22.8295 sf 0 0 m (\2550.02) show NC gr 
 gsave  408 306 1383 13 C 1393.11 79.7689 t 0 r /Helvetica findfont 22.8295 sf 0 0 m (\2550.01) show NC gr 
 gsave  408 306 1383 13 C 1427.29 108.258 t 0 r /Helvetica findfont 22.8295 sf 0 0 m (0) show NC gr 
 gsave  408 306 1383 13 C 1398.81 133.898 t 0 r /Helvetica findfont 22.8295 sf 0 0 m (0.01) show NC gr 
 gsave  408 306 1383 13 C 1395.96 162.387 t 0 r /Helvetica findfont 22.8295 sf 0 0 m (0.02) show NC gr 
 gsave  408 306 1383 13 C 1395.96 188.027 t 0 r /Helvetica findfont 22.8295 sf 0 0 m (0.03) show NC gr 
 gsave  408 306 1383 13 C 1395.96 216.516 t 0 r /Helvetica findfont 22.8295 sf 0 0 m (0.04) show NC gr 
 gsave  408 306 1383 13 C 1395.96 242.156 t 0 r /Helvetica findfont 22.8295 sf 0 0 m (0.05) show NC gr 
 gsave  408 306 1383 13 C 1395.96 270.645 t 0 r /Helvetica findfont 22.8295 sf 0 0 m (0.06) show NC gr  1751 59 m 229 Y s 1745 60 m 6 X s 1748 65 m 3 X s 1748 71 m 3 X s 1748 76 m 3 X s 1748 81 m 3 X s 1745 87 m 6 X s 1748 92 m 3 X s 1748 98 m 3 X s
 1748 103 m 3 X s 1748 109 m 3 X s 1745 114 m 6 X s 1748 119 m 3 X s 1748 125 m 3 X s 1748 130 m 3 X s 1748 136 m 3 X s 1745 141 m 6 X s 1748 146 m 3 X s 1748 152 m 3 X s 1748 157 m 3 X s 1748 163 m 3 X s 1745 168 m 6 X s 1748 174 m 3 X s 1748 179 m
 3 X s 1748 184 m 3 X s 1748 190 m 3 X s 1745 195 m 6 X s 1748 201 m 3 X s 1748 206 m 3 X s 1748 211 m 3 X s 1748 217 m 3 X s 1745 222 m 6 X s 1748 228 m 3 X s 1748 233 m 3 X s 1748 239 m 3 X s 1748 244 m 3 X s 1745 249 m 6 X s 1748 255 m 3 X s 1748
 260 m 3 X s 1748 266 m 3 X s 1748 271 m 3 X s 1745 276 m 6 X s 1745 60 m 6 X s 1745 276 m 6 X s 1748 282 m 3 X s 1748 287 m 3 X s 1470 171 1476 141 1481 178 1487 117 1493 182 1550 112 1608 229 1665 114 1723 162 9 { m21} R 1470 182 m 22 Y s 1464 204
 m 12 X s 1470 159 m -22 Y s 1464 137 m 12 X s 1476 152 m 21 Y s 1470 173 m 11 X s 1476 129 m -21 Y s 1470 108 m 11 X s 1481 189 m 22 Y s 1476 211 m 11 X s 1481 166 m -22 Y s 1476 144 m 11 X s 1487 128 m 21 Y s 1481 149 m 12 X s 1487 105 m -21 Y s
 1481 84 m 12 X s 1493 193 m 22 Y s 1487 215 m 12 X s 1493 170 m -22 Y s 1487 148 m 12 X s 1550 123 m 22 Y s 1545 145 m 11 X s 1550 100 m -22 Y s 1545 78 m 11 X s 1608 240 m 29 Y s 1602 269 m 12 X s 1608 218 m -29 Y s 1602 189 m 12 X s 1665 125 m 22
 Y s 1660 147 m 11 X s 1665 103 m -22 Y s 1660 81 m 11 X s 1723 173 m 22 Y s 1717 195 m 12 X s 1723 151 m -22 Y s 1717 129 m 12 X s 9 lw 0.95 0.95 0.95 c black 1446 110 m 3 1 d 3 1 d 3 X 3 1 d 3 X 3 1 d 3 1 d 4 X 3 1 d 3 1 d 3 X 3 1 d 3 X 3 1 d 3 1 d
 3 X 3 1 d 3 1 d 3 X 3 1 d 3 1 d 3 X 3 1 d 4 X 3 1 d 3 1 d 3 X 3 1 d 3 1 d 3 X 3 1 d 3 1 d 3 X 3 1 d 3 X 3 1 d 3 1 d 3 X 3 1 d 4 1 d 3 X 3 1 d 3 X 3 1 d 3 1 d 3 X 3 1 d 3 1 d 3 X s 1596 141 m 3 1 d 3 1 d 3 X 3 1 d 3 X 3 1 d 4 1 d 3 X 3 1 d 3 1 d 3 X
 3 1 d 3 1 d 3 X 3 1 d 3 X 3 1 d 3 1 d 3 X 3 1 d 3 1 d 3 X 3 1 d 4 X 3 1 d 3 1 d 3 X 3 1 d 3 1 d 3 X 3 1 d 3 1 d 3 X 3 1 d 3 X 3 1 d 3 1 d 3 X 3 1 d 4 1 d 3 X 3 1 d 3 X 3 1 d 3 1 d 3 X 3 1 d 3 1 d 3 X s 1746 172 m 3 1 d s 0.49 0.6 0.82 c black 0.49
 0.6 0.82 c
 gsave  408 306 1383 13 C 1504.21 296.285 t 0 r /Helvetica-Bold findfont 25.6831 sf 0 0 m (9.0 < E < 9.5 GeV) show NC gr  0.52 0.76 0.64 c black 0.52 0.76 0.64 c
 gsave  408 306 1383 13 C 1489.97 259.249 t 0 r /Helvetica-Bold findfont 25.6831 sf 0 0 m 
 220 206 192 185 170 163 148 141 125 118 111 97 83 69 61 47 40 25 18
(A = 0.000, p = 1.000) K NC gr  1 0.6 1 c black 1 0.6 1 c
 gsave  408 306 1383 13 C 1789.1 128.2 t 90 r /Helvetica-Bold findfont 28.5368 sf 0 0 m (/dof=2.1) show NC gr  black 1 0.6 1 c
 gsave  408 306 1383 13 C 1777.71 116.804 t 90 r /Helvetica-Bold findfont 19.9758 sf 0 0 m (2) show NC gr  black 1 0.6 1 c
 gsave  408 306 1383 13 C 1789.1 99.7112 t 90 r /Symbol findfont 28.5368 sf 0 0 m (c) show NC gr  black 3 lw 1 1 1 c 408 306 1837 13 bf black 1 1 1 c black 306 229 1898 59 bl 306 229 1898 59 bl 1898 59 m 306 X s 1918 63 m -4 Y s 2061 63 m -4 Y s 1918
 63 m -4 Y s 2061 63 m -4 Y s
 gsave  408 306 1837 13 C 1908.76 39.8845 t 0 r /Helvetica findfont 22.8295 sf 0 0 m (0) show NC gr 
 gsave  408 306 1837 13 C 2039.81 39.8845 t 0 r /Helvetica findfont 22.8295 sf 0 0 m (500) show NC gr  1898 288 m 306 X s 1918 284 m 4 Y s 2061 284 m 4 Y s 1918 284 m 4 Y s 2061 284 m 4 Y s 1898 59 m 229 Y s 1904 72 m -6 X s 1901 78 m -3 X s 1901 84
 m -3 X s 1901 90 m -3 X s 1901 96 m -3 X s 1904 102 m -6 X s 1901 107 m -3 X s 1901 113 m -3 X s 1901 119 m -3 X s 1901 125 m -3 X s 1904 131 m -6 X s 1901 137 m -3 X s 1901 142 m -3 X s 1901 148 m -3 X s 1901 154 m -3 X s 1904 160 m -6 X s 1901 166
 m -3 X s 1901 172 m -3 X s 1901 178 m -3 X s 1901 183 m -3 X s 1904 189 m -6 X s 1901 195 m -3 X s 1901 201 m -3 X s 1901 207 m -3 X s 1901 213 m -3 X s 1904 218 m -6 X s 1901 224 m -3 X s 1901 230 m -3 X s 1901 236 m -3 X s 1901 242 m -3 X s 1904
 248 m -6 X s 1901 254 m -3 X s 1901 259 m -3 X s 1901 265 m -3 X s 1901 271 m -3 X s 1904 277 m -6 X s 1904 72 m -6 X s 1901 67 m -3 X s 1901 61 m -3 X s 1904 277 m -6 X s 1901 283 m -3 X s
 gsave  408 306 1837 13 C 1843.23 65.5245 t 0 r /Helvetica findfont 22.8295 sf 0 0 m (\2550.04) show NC gr 
 gsave  408 306 1837 13 C 1843.23 94.0134 t 0 r /Helvetica findfont 22.8295 sf 0 0 m (\2550.03) show NC gr 
 gsave  408 306 1837 13 C 1843.23 122.502 t 0 r /Helvetica findfont 22.8295 sf 0 0 m (\2550.02) show NC gr 
 gsave  408 306 1837 13 C 1846.08 153.84 t 0 r /Helvetica findfont 22.8295 sf 0 0 m (\2550.01) show NC gr 
 gsave  408 306 1837 13 C 1880.27 182.329 t 0 r /Helvetica findfont 22.8295 sf 0 0 m (0) show NC gr 
 gsave  408 306 1837 13 C 1851.78 210.818 t 0 r /Helvetica findfont 22.8295 sf 0 0 m (0.01) show NC gr 
 gsave  408 306 1837 13 C 1848.93 239.307 t 0 r /Helvetica findfont 22.8295 sf 0 0 m (0.02) show NC gr 
 gsave  408 306 1837 13 C 1848.93 270.645 t 0 r /Helvetica findfont 22.8295 sf 0 0 m (0.03) show NC gr  2204 59 m 229 Y s 2199 72 m 5 X s 2201 78 m 3 X s 2201 84 m 3 X s 2201 90 m 3 X s 2201 96 m 3 X s 2199 102 m 5 X s 2201 107 m 3 X s 2201 113 m 3 X
 s 2201 119 m 3 X s 2201 125 m 3 X s 2199 131 m 5 X s 2201 137 m 3 X s 2201 142 m 3 X s 2201 148 m 3 X s 2201 154 m 3 X s 2199 160 m 5 X s 2201 166 m 3 X s 2201 172 m 3 X s 2201 178 m 3 X s 2201 183 m 3 X s 2199 189 m 5 X s 2201 195 m 3 X s 2201 201
 m 3 X s 2201 207 m 3 X s 2201 213 m 3 X s 2199 218 m 5 X s 2201 224 m 3 X s 2201 230 m 3 X s 2201 236 m 3 X s 2201 242 m 3 X s 2199 248 m 5 X s 2201 254 m 3 X s 2201 259 m 3 X s 2201 265 m 3 X s 2201 271 m 3 X s 2199 277 m 5 X s 2199 72 m 5 X s 2201
 67 m 3 X s 2201 61 m 3 X s 2199 277 m 5 X s 2201 283 m 3 X s 1923 181 1929 116 1935 180 1941 114 1946 168 2004 230 2061 165 2119 204 2176 165 9 { m21} R 1923 192 m 25 Y s 1918 217 m 11 X s 1923 169 m -25 Y s 1918 144 m 11 X s 1929 127 m 25 Y s 1923
 152 m 12 X s 1929 104 m -24 Y s 1923 80 m 12 X s 1935 192 m 25 Y s 1929 217 m 12 X s 1935 169 m -25 Y s 1929 144 m 12 X s 1941 126 m 24 Y s 1935 150 m 11 X s 1941 103 m -25 Y s 1935 78 m 11 X s 1946 180 m 25 Y s 1941 205 m 11 X s 1946 157 m -25 Y s
 1941 132 m 11 X s 2004 242 m 27 Y s 1998 269 m 12 X s 2004 219 m -27 Y s 1998 192 m 12 X s 2061 176 m 32 Y s 2056 208 m 11 X s 2061 154 m -32 Y s 2056 122 m 11 X s 2119 216 m 26 Y s 2113 242 m 12 X s 2119 193 m -26 Y s 2113 167 m 12 X s 2176 176 m
 26 Y s 2171 202 m 11 X s 2176 154 m -26 Y s 2171 128 m 11 X s 9 lw 0.95 0.95 0.95 c black 1900 190 m 12 X 3 -1 d 18 X 3 -1 d 19 X 3 -1 d 18 X 3 -1 d 19 X 3 -1 d 18 X 3 -1 d 18 X 3 -1 d 7 X s 2050 183 m 12 X 3 -1 d 18 X 3 -1 d 19 X 3 -1 d 18 X 3 -1 d
 19 X 3 -1 d 18 X 3 -1 d 18 X 4 -1 d 6 X s 2200 176 m 3 X s 0.49 0.6 0.82 c black 0.49 0.6 0.82 c
 gsave  408 306 1837 13 C 1948.64 296.285 t 0 r /Helvetica-Bold findfont 25.6831 sf 0 0 m (9.5 < E < 10.0 GeV) show NC gr  0.52 0.76 0.64 c black 0.52 0.76 0.64 c
 gsave  408 306 1837 13 C 1937.25 259.249 t 0 r /Helvetica-Bold findfont 25.6831 sf 0 0 m 
 228 214 200 193 178 171 156 149 134 126 119 105 91 77 69 55 47 40 25 17
(A = \2550.000, p = 1.000) K NC gr  1 0.6 1 c black 1 0.6 1 c
 gsave  408 306 1837 13 C 2242.08 128.2 t 90 r /Helvetica-Bold findfont 28.5368 sf 0 0 m (/dof=1.4) show NC gr  black 1 0.6 1 c
 gsave  408 306 1837 13 C 2230.68 116.804 t 90 r /Helvetica-Bold findfont 19.9758 sf 0 0 m (2) show NC gr  black 1 0.6 1 c
 gsave  408 306 1837 13 C 2242.08 99.7112 t 90 r /Symbol findfont 28.5368 sf 0 0 m (c) show NC gr 
 gr  gr showpage
end
%%EOF
