%!PS-Adobe-2.0 EPSF-2.0
%%BoundingBox:  0 0 567 332
%%Title: DecayPipeRadius_far_fits.eps: Fits
%%Creator: ROOT Version 5.30/06
%%CreationDate: Sun Feb  2 09:36:58 2014
%%EndComments
%%BeginProlog
80 dict begin
/s {stroke} def /l {lineto} def /m {moveto} def /t {translate} def
/r {rotate} def /rl {roll}  def /R {repeat} def
/d {rlineto} def /rm {rmoveto} def /gr {grestore} def /f {eofill} def
/c {setrgbcolor} def /black {0 setgray} def /sd {setdash} def
/cl {closepath} def /sf {scalefont setfont} def /lw {setlinewidth} def
/box {m dup 0 exch d exch 0 d 0 exch neg d cl} def
/NC{systemdict begin initclip end}def/C{NC box clip newpath}def
/bl {box s} def /bf {box f} def /Y { 0 exch d} def /X { 0 d} def 
/K {{pop pop 0 moveto} exch kshow} bind def
/ita {/ang 15 def gsave [1 0 ang dup sin exch cos div 1 0 0] concat} def 
/mp {newpath /y exch def /x exch def} def
/side {[w .77 mul w .23 mul] .385 w mul sd w 0 l currentpoint t -144 r} def
/mr {mp x y w2 0 360 arc} def /m24 {mr s} def /m20 {mr f} def
/mb {mp x y w2 add m w2 neg 0 d 0 w neg d w 0 d 0 w d cl} def
/mt {mp x y w2 add m w2 neg w neg d w 0 d cl} def
/m21 {mb f} def /m25 {mb s} def /m22 {mt f} def /m26{mt s} def
/m23 {mp x y w2 sub m w2 w d w neg 0 d cl f} def
/m27 {mp x y w2 add m w3 neg w2 neg d w3 w2 neg d w3 w2 d cl s} def
/m28 {mp x w2 sub y w2 sub w3 add m w3 0 d  0 w3 neg d w3 0 d 0 w3 d w3 0 d  0 w3 d w3 neg 0 d 0 w3 d w3 neg 0 d 0 w3 neg d w3 neg 0 d cl s } def
/m29 {mp gsave x w2 sub y w2 add w3 sub m currentpoint t 4 {side} repeat cl fill gr} def
/m30 {mp gsave x w2 sub y w2 add w3 sub m currentpoint t 4 {side} repeat cl s gr} def
/m31 {mp x y w2 sub m 0 w d x w2 sub y m w 0 d x w2 sub y w2 add m w w neg d x w2 sub y w2 sub m w w d s} def
/m32 {mp x y w2 sub m w2 w d w neg 0 d cl s} def
/m33 {mp x y w2 add m w3 neg w2 neg d w3 w2 neg d w3 w2 d cl f} def
/m34 {mp x w2 sub y w2 sub w3 add m w3 0 d  0 w3 neg d w3 0 d 0 w3 d w3 0 d  0 w3 d w3 neg 0 d 0 w3 d w3 neg 0 d 0 w3 neg d w3 neg 0 d cl f } def
/m2 {mp x y w2 sub m 0 w d x w2 sub y m w 0 d s} def
/m5 {mp x w2 sub y w2 sub m w w d x w2 sub y w2 add m w w neg d s} def
/reEncode {exch findfont dup length dict begin {1 index /FID eq  {pop pop} {def} ifelse } forall /Encoding exch def currentdict end dup /FontName get exch definefont pop } def [/Times-Bold /Times-Italic /Times-BoldItalic /Helvetica /Helvetica-Oblique
 /Helvetica-Bold /Helvetica-BoldOblique /Courier /Courier-Oblique /Courier-Bold /Courier-BoldOblique /Times-Roman /AvantGarde-Book /AvantGarde-BookOblique /AvantGarde-Demi /AvantGarde-DemiOblique /Bookman-Demi /Bookman-DemiItalic /Bookman-Light
 /Bookman-LightItalic /Helvetica-Narrow /Helvetica-Narrow-Bold /Helvetica-Narrow-BoldOblique /Helvetica-Narrow-Oblique /NewCenturySchlbk-Roman /NewCenturySchlbk-Bold /NewCenturySchlbk-BoldItalic /NewCenturySchlbk-Italic /Palatino-Bold
 /Palatino-BoldItalic /Palatino-Italic /Palatino-Roman ] {ISOLatin1Encoding reEncode } forall%%EndProlog
%%BeginSetup
%%EndSetup
newpath  gsave  .25 .25 scale  gsave  0 0 t black[  ] 0 sd 3 lw 1 1 1 c 2268 1328 0 0 bf black 1 1 1 c 408 305 23 1009 bf black 1 1 1 c black 306 229 84 1055 bl 306 229 84 1055 bl 84 1055 m 306 X s 130 1059 m -4 Y s 236 1059 m -4 Y s 341 1059 m -4 Y
 s 130 1059 m -4 Y s 341 1059 m -4 Y s
 gsave  408 305 23 1009 C 108.258 1034.15 t 0 r /Helvetica findfont 22.8295 sf 0 0 m (\2550.5) show NC gr 
 gsave  408 305 23 1009 C 225.062 1034.15 t 0 r /Helvetica findfont 22.8295 sf 0 0 m (0) show NC gr 
 gsave  408 305 23 1009 C 321.925 1034.15 t 0 r /Helvetica findfont 22.8295 sf 0 0 m (0.5) show NC gr  84 1284 m 306 X s 130 1280 m 4 Y s 236 1280 m 4 Y s 341 1280 m 4 Y s 130 1280 m 4 Y s 341 1280 m 4 Y s 84 1055 m 229 Y s 89 1072 m -5 X s 87 1078 m
 -3 X s 87 1083 m -3 X s 87 1089 m -3 X s 89 1094 m -5 X s 87 1100 m -3 X s 87 1106 m -3 X s 87 1111 m -3 X s 89 1117 m -5 X s 87 1123 m -3 X s 87 1128 m -3 X s 87 1134 m -3 X s 89 1139 m -5 X s 87 1145 m -3 X s 87 1151 m -3 X s 87 1156 m -3 X s 89
 1162 m -5 X s 87 1167 m -3 X s 87 1173 m -3 X s 87 1179 m -3 X s 89 1184 m -5 X s 87 1190 m -3 X s 87 1196 m -3 X s 87 1201 m -3 X s 89 1207 m -5 X s 87 1212 m -3 X s 87 1218 m -3 X s 87 1224 m -3 X s 89 1229 m -5 X s 87 1235 m -3 X s 87 1240 m -3 X
 s 87 1246 m -3 X s 89 1252 m -5 X s 87 1257 m -3 X s 87 1263 m -3 X s 87 1268 m -3 X s 89 1274 m -5 X s 89 1072 m -5 X s 87 1066 m -3 X s 87 1061 m -3 X s 87 1055 m -3 X s 89 1274 m -5 X s 87 1280 m -3 X s
 gsave  408 305 23 1009 C 42.7334 1065.48 t 0 r /Helvetica findfont 22.8295 sf 0 0 m (\2550.1) show NC gr 
 gsave  408 305 23 1009 C 28.4889 1088.28 t 0 r /Helvetica findfont 22.8295 sf 0 0 m (\2550.08) show NC gr 
 gsave  408 305 23 1009 C 28.4889 1111.07 t 0 r /Helvetica findfont 22.8295 sf 0 0 m (\2550.06) show NC gr 
 gsave  408 305 23 1009 C 28.4889 1131.01 t 0 r /Helvetica findfont 22.8295 sf 0 0 m (\2550.04) show NC gr 
 gsave  408 305 23 1009 C 28.4889 1153.8 t 0 r /Helvetica findfont 22.8295 sf 0 0 m (\2550.02) show NC gr 
 gsave  408 305 23 1009 C 65.5245 1176.59 t 0 r /Helvetica findfont 22.8295 sf 0 0 m (0) show NC gr 
 gsave  408 305 23 1009 C 34.1867 1199.38 t 0 r /Helvetica findfont 22.8295 sf 0 0 m (0.02) show NC gr 
 gsave  408 305 23 1009 C 34.1867 1222.17 t 0 r /Helvetica findfont 22.8295 sf 0 0 m (0.04) show NC gr 
 gsave  408 305 23 1009 C 34.1867 1244.96 t 0 r /Helvetica findfont 22.8295 sf 0 0 m (0.06) show NC gr 
 gsave  408 305 23 1009 C 34.1867 1267.76 t 0 r /Helvetica findfont 22.8295 sf 0 0 m (0.08) show NC gr  390 1055 m 229 Y s 385 1072 m 5 X s 387 1078 m 3 X s 387 1083 m 3 X s 387 1089 m 3 X s 385 1094 m 5 X s 387 1100 m 3 X s 387 1106 m 3 X s 387 1111
 m 3 X s 385 1117 m 5 X s 387 1123 m 3 X s 387 1128 m 3 X s 387 1134 m 3 X s 385 1139 m 5 X s 387 1145 m 3 X s 387 1151 m 3 X s 387 1156 m 3 X s 385 1162 m 5 X s 387 1167 m 3 X s 387 1173 m 3 X s 387 1179 m 3 X s 385 1184 m 5 X s 387 1190 m 3 X s 387
 1196 m 3 X s 387 1201 m 3 X s 385 1207 m 5 X s 387 1212 m 3 X s 387 1218 m 3 X s 387 1224 m 3 X s 385 1229 m 5 X s 387 1235 m 3 X s 387 1240 m 3 X s 387 1246 m 3 X s 385 1252 m 5 X s 387 1257 m 3 X s 387 1263 m 3 X s 387 1268 m 3 X s 385 1274 m 5 X
 s 385 1072 m 5 X s 387 1066 m 3 X s 387 1061 m 3 X s 387 1055 m 3 X s 385 1274 m 5 X s 387 1280 m 3 X s /w 22 def /w2 {w 2 div} def /w3 {w 3 div} def 109 1076 151 1119 194 1155 215 1167 257 1201 278 1213 320 1240 362 1263 8 { m21} R 9 lw 0.95 0.95
 0.95 c black 85 1073 m 3 2 d 4 3 d 3 2 d 3 2 d 3 2 d 3 3 d 3 2 d 3 2 d 3 2 d 3 3 d 3 2 d 3 2 d 3 2 d 3 3 d 3 2 d 3 2 d 3 3 d 4 2 d 3 2 d 3 2 d 3 3 d 3 2 d 3 2 d 3 2 d 3 3 d 3 2 d 3 2 d 3 2 d 3 3 d 3 2 d 3 2 d 3 3 d 3 2 d 4 2 d 3 2 d 3 3 d 3 2 d 3 2
 d 3 2 d 3 3 d 3 2 d 3 2 d 3 2 d 3 3 d 3 2 d 3 2 d 3 3 d 3 2 d 3 2 d s 235 1184 m 4 2 d 3 3 d 3 2 d 3 2 d 3 2 d 3 3 d 3 2 d 3 2 d 3 2 d 3 3 d 3 2 d 3 2 d 3 3 d 3 2 d 3 2 d 3 2 d 3 3 d 4 2 d 3 2 d 3 2 d 3 3 d 3 2 d 3 2 d 3 2 d 3 3 d 3 2 d 3 2 d 3 3 d
 3 2 d 3 2 d 3 2 d 3 3 d 3 2 d 4 2 d 3 2 d 3 3 d 3 2 d 3 2 d 3 2 d 3 3 d 3 2 d 3 2 d 3 3 d 3 2 d s 0.49 0.6 0.82 c black 0.49 0.6 0.82 c
 gsave  408 305 23 1009 C 142.445 1293.4 t 0 r /Helvetica-Bold findfont 25.6831 sf 0 0 m (0.0 < E < 0.5 GeV) show NC gr  0.52 0.76 0.64 c black 0.52 0.76 0.64 c
 gsave  408 305 23 1009 C 128.2 1256.36 t 0 r /Helvetica-Bold findfont 25.6831 sf 0 0 m 
 220 206 192 185 170 163 148 141 126 118 111 97 83 69 61 47 40 25 18
(A = 0.139, p = 1.000) K NC gr  1 0.6 1 c black 1 0.6 1 c
 gsave  408 305 23 1009 C 427.334 1113.92 t 90 r /Helvetica-Bold findfont 28.5368 sf 0 0 m (/dof=18.8) show NC gr  black 1 0.6 1 c
 gsave  408 305 23 1009 C 415.938 1102.52 t 90 r /Helvetica-Bold findfont 19.9758 sf 0 0 m (2) show NC gr  black 1 0.6 1 c
 gsave  408 305 23 1009 C 427.334 1085.43 t 90 r /Symbol findfont 28.5368 sf 0 0 m (c) show NC gr  black 3 lw 1 1 1 c 408 305 476 1009 bf black 1 1 1 c black 307 229 537 1055 bl 307 229 537 1055 bl 537 1055 m 307 X s 584 1059 m -4 Y s 689 1059 m -4 Y
 s 795 1059 m -4 Y s 584 1059 m -4 Y s 795 1059 m -4 Y s
 gsave  408 305 476 1009 C 561.231 1034.15 t 0 r /Helvetica findfont 22.8295 sf 0 0 m (\2550.5) show NC gr 
 gsave  408 305 476 1009 C 678.036 1034.15 t 0 r /Helvetica findfont 22.8295 sf 0 0 m (0) show NC gr 
 gsave  408 305 476 1009 C 774.898 1034.15 t 0 r /Helvetica findfont 22.8295 sf 0 0 m (0.5) show NC gr  537 1284 m 307 X s 584 1280 m 4 Y s 689 1280 m 4 Y s 795 1280 m 4 Y s 584 1280 m 4 Y s 795 1280 m 4 Y s 537 1055 m 229 Y s 543 1055 m -6 X s 540
 1060 m -3 X s 540 1066 m -3 X s 540 1071 m -3 X s 543 1077 m -6 X s 540 1082 m -3 X s 540 1087 m -3 X s 540 1093 m -3 X s 543 1098 m -6 X s 540 1103 m -3 X s 540 1109 m -3 X s 540 1114 m -3 X s 543 1120 m -6 X s 540 1125 m -3 X s 540 1130 m -3 X s
 540 1136 m -3 X s 543 1141 m -6 X s 540 1147 m -3 X s 540 1152 m -3 X s 540 1157 m -3 X s 543 1163 m -6 X s 540 1168 m -3 X s 540 1173 m -3 X s 540 1179 m -3 X s 543 1184 m -6 X s 540 1190 m -3 X s 540 1195 m -3 X s 540 1200 m -3 X s 543 1206 m -6 X
 s 540 1211 m -3 X s 540 1216 m -3 X s 540 1222 m -3 X s 543 1227 m -6 X s 540 1233 m -3 X s 540 1238 m -3 X s 540 1243 m -3 X s 543 1249 m -6 X s 540 1254 m -3 X s 540 1260 m -3 X s 540 1265 m -3 X s 543 1270 m -6 X s 543 1055 m -6 X s 543 1270 m -6
 X s 540 1276 m -3 X s 540 1281 m -3 X s
 gsave  408 305 476 1009 C 481.462 1048.39 t 0 r /Helvetica findfont 22.8295 sf 0 0 m (\2550.12) show NC gr 
 gsave  408 305 476 1009 C 495.707 1068.33 t 0 r /Helvetica findfont 22.8295 sf 0 0 m (\2550.1) show NC gr 
 gsave  408 305 476 1009 C 481.462 1091.12 t 0 r /Helvetica findfont 22.8295 sf 0 0 m (\2550.08) show NC gr 
 gsave  408 305 476 1009 C 481.462 1111.07 t 0 r /Helvetica findfont 22.8295 sf 0 0 m (\2550.06) show NC gr 
 gsave  408 305 476 1009 C 481.462 1133.86 t 0 r /Helvetica findfont 22.8295 sf 0 0 m (\2550.04) show NC gr 
 gsave  408 305 476 1009 C 481.462 1156.65 t 0 r /Helvetica findfont 22.8295 sf 0 0 m (\2550.02) show NC gr 
 gsave  408 305 476 1009 C 518.498 1176.59 t 0 r /Helvetica findfont 22.8295 sf 0 0 m (0) show NC gr 
 gsave  408 305 476 1009 C 487.16 1199.38 t 0 r /Helvetica findfont 22.8295 sf 0 0 m (0.02) show NC gr 
 gsave  408 305 476 1009 C 487.16 1219.32 t 0 r /Helvetica findfont 22.8295 sf 0 0 m (0.04) show NC gr 
 gsave  408 305 476 1009 C 487.16 1242.12 t 0 r /Helvetica findfont 22.8295 sf 0 0 m (0.06) show NC gr 
 gsave  408 305 476 1009 C 487.16 1262.06 t 0 r /Helvetica findfont 22.8295 sf 0 0 m (0.08) show NC gr  844 1055 m 229 Y s 838 1055 m 6 X s 841 1060 m 3 X s 841 1066 m 3 X s 841 1071 m 3 X s 838 1077 m 6 X s 841 1082 m 3 X s 841 1087 m 3 X s 841 1093
 m 3 X s 838 1098 m 6 X s 841 1103 m 3 X s 841 1109 m 3 X s 841 1114 m 3 X s 838 1120 m 6 X s 841 1125 m 3 X s 841 1130 m 3 X s 841 1136 m 3 X s 838 1141 m 6 X s 841 1147 m 3 X s 841 1152 m 3 X s 841 1157 m 3 X s 838 1163 m 6 X s 841 1168 m 3 X s 841
 1173 m 3 X s 841 1179 m 3 X s 838 1184 m 6 X s 841 1190 m 3 X s 841 1195 m 3 X s 841 1200 m 3 X s 838 1206 m 6 X s 841 1211 m 3 X s 841 1216 m 3 X s 841 1222 m 3 X s 838 1227 m 6 X s 841 1233 m 3 X s 841 1238 m 3 X s 841 1243 m 3 X s 838 1249 m 6 X
 s 841 1254 m 3 X s 841 1260 m 3 X s 841 1265 m 3 X s 838 1270 m 6 X s 838 1055 m 6 X s 838 1270 m 6 X s 841 1276 m 3 X s 841 1281 m 3 X s /w 23 def /w2 {w 2 div} def /w3 {w 3 div} def 563 1076 605 1123 647 1153 668 1170 710 1199 731 1212 774 1235
 816 1262 8 { m21} R 9 lw 0.95 0.95 0.95 c black 539 1076 m 3 2 d 3 2 d 3 2 d 3 3 d 3 2 d 3 2 d 3 2 d 3 3 d 4 2 d 3 2 d 3 2 d 3 2 d 3 3 d 3 2 d 3 2 d 3 2 d 3 2 d 3 3 d 3 2 d 3 2 d 3 2 d 3 2 d 3 3 d 3 2 d 4 2 d 3 2 d 3 2 d 3 3 d 3 2 d 3 2 d 3 2 d 3 2
 d 3 3 d 3 2 d 3 2 d 3 2 d 3 3 d 3 2 d 3 2 d 3 2 d 3 2 d 4 3 d 3 2 d 3 2 d 3 2 d 3 2 d 3 3 d 3 2 d 3 2 d s 689 1184 m 3 2 d 3 2 d 3 3 d 3 2 d 3 2 d 3 2 d 3 2 d 3 3 d 4 2 d 3 2 d 3 2 d 3 2 d 3 3 d 3 2 d 3 2 d 3 2 d 3 3 d 3 2 d 3 2 d 3 2 d 3 2 d 3 3 d
 3 2 d 3 2 d 4 2 d 3 2 d 3 3 d 3 2 d 3 2 d 3 2 d 3 2 d 3 3 d 3 2 d 3 2 d 3 2 d 3 2 d 3 3 d 3 2 d 3 2 d 3 2 d 4 2 d 3 3 d 3 2 d 3 2 d 3 2 d 3 1 d s 0.49 0.6 0.82 c black 0.49 0.6 0.82 c
 gsave  408 305 476 1009 C 595.418 1293.4 t 0 r /Helvetica-Bold findfont 25.6831 sf 0 0 m (0.5 < E < 1.0 GeV) show NC gr  0.52 0.76 0.64 c black 0.52 0.76 0.64 c
 gsave  408 305 476 1009 C 581.174 1256.36 t 0 r /Helvetica-Bold findfont 25.6831 sf 0 0 m 
 220 206 192 185 170 163 148 141 125 118 111 97 83 69 61 47 40 25 18
(A = 0.141, p = 1.000) K NC gr  1 0.6 1 c black 1 0.6 1 c
 gsave  408 305 476 1009 C 883.156 1113.92 t 90 r /Helvetica-Bold findfont 28.5368 sf 0 0 m (/dof=14.9) show NC gr  black 1 0.6 1 c
 gsave  408 305 476 1009 C 871.76 1102.52 t 90 r /Helvetica-Bold findfont 19.9758 sf 0 0 m (2) show NC gr  black 1 0.6 1 c
 gsave  408 305 476 1009 C 883.156 1085.43 t 90 r /Symbol findfont 28.5368 sf 0 0 m (c) show NC gr  black 3 lw 1 1 1 c 408 305 930 1009 bf black 1 1 1 c black 306 229 991 1055 bl 306 229 991 1055 bl 991 1055 m 306 X s 1037 1059 m -4 Y s 1143 1059 m
 -4 Y s 1248 1059 m -4 Y s 1037 1059 m -4 Y s 1248 1059 m -4 Y s
 gsave  408 305 930 1009 C 1017.05 1034.15 t 0 r /Helvetica findfont 22.8295 sf 0 0 m (\2550.5) show NC gr 
 gsave  408 305 930 1009 C 1133.86 1034.15 t 0 r /Helvetica findfont 22.8295 sf 0 0 m (0) show NC gr 
 gsave  408 305 930 1009 C 1230.72 1034.15 t 0 r /Helvetica findfont 22.8295 sf 0 0 m (0.5) show NC gr  991 1284 m 306 X s 1037 1280 m 4 Y s 1143 1280 m 4 Y s 1248 1280 m 4 Y s 1037 1280 m 4 Y s 1248 1280 m 4 Y s 991 1055 m 229 Y s 997 1057 m -6 X s
 994 1063 m -3 X s 994 1069 m -3 X s 994 1074 m -3 X s 997 1080 m -6 X s 994 1085 m -3 X s 994 1091 m -3 X s 994 1097 m -3 X s 997 1102 m -6 X s 994 1108 m -3 X s 994 1114 m -3 X s 994 1119 m -3 X s 997 1125 m -6 X s 994 1131 m -3 X s 994 1136 m -3 X
 s 994 1142 m -3 X s 997 1147 m -6 X s 994 1153 m -3 X s 994 1159 m -3 X s 994 1164 m -3 X s 997 1170 m -6 X s 994 1176 m -3 X s 994 1181 m -3 X s 994 1187 m -3 X s 997 1193 m -6 X s 994 1198 m -3 X s 994 1204 m -3 X s 994 1209 m -3 X s 997 1215 m -6
 X s 994 1221 m -3 X s 994 1226 m -3 X s 994 1232 m -3 X s 997 1238 m -6 X s 994 1243 m -3 X s 994 1249 m -3 X s 994 1255 m -3 X s 997 1260 m -6 X s 994 1266 m -3 X s 994 1271 m -3 X s 994 1277 m -3 X s 997 1283 m -6 X s 997 1057 m -6 X s 997 1283 m
 -6 X s
 gsave  408 305 930 1009 C 937.285 1051.24 t 0 r /Helvetica findfont 22.8295 sf 0 0 m (\2550.12) show NC gr 
 gsave  408 305 930 1009 C 951.529 1074.03 t 0 r /Helvetica findfont 22.8295 sf 0 0 m (\2550.1) show NC gr 
 gsave  408 305 930 1009 C 937.285 1093.97 t 0 r /Helvetica findfont 22.8295 sf 0 0 m (\2550.08) show NC gr 
 gsave  408 305 930 1009 C 937.285 1116.76 t 0 r /Helvetica findfont 22.8295 sf 0 0 m (\2550.06) show NC gr 
 gsave  408 305 930 1009 C 937.285 1139.56 t 0 r /Helvetica findfont 22.8295 sf 0 0 m (\2550.04) show NC gr 
 gsave  408 305 930 1009 C 937.285 1162.35 t 0 r /Helvetica findfont 22.8295 sf 0 0 m (\2550.02) show NC gr 
 gsave  408 305 930 1009 C 974.32 1185.14 t 0 r /Helvetica findfont 22.8295 sf 0 0 m (0) show NC gr 
 gsave  408 305 930 1009 C 942.983 1207.93 t 0 r /Helvetica findfont 22.8295 sf 0 0 m (0.02) show NC gr 
 gsave  408 305 930 1009 C 942.983 1230.72 t 0 r /Helvetica findfont 22.8295 sf 0 0 m (0.04) show NC gr 
 gsave  408 305 930 1009 C 942.983 1253.51 t 0 r /Helvetica findfont 22.8295 sf 0 0 m (0.06) show NC gr 
 gsave  408 305 930 1009 C 942.983 1276.3 t 0 r /Helvetica findfont 22.8295 sf 0 0 m (0.08) show NC gr  1297 1055 m 229 Y s 1292 1057 m 5 X s 1294 1063 m 3 X s 1294 1069 m 3 X s 1294 1074 m 3 X s 1292 1080 m 5 X s 1294 1085 m 3 X s 1294 1091 m 3 X s
 1294 1097 m 3 X s 1292 1102 m 5 X s 1294 1108 m 3 X s 1294 1114 m 3 X s 1294 1119 m 3 X s 1292 1125 m 5 X s 1294 1131 m 3 X s 1294 1136 m 3 X s 1294 1142 m 3 X s 1292 1147 m 5 X s 1294 1153 m 3 X s 1294 1159 m 3 X s 1294 1164 m 3 X s 1292 1170 m 5 X
 s 1294 1176 m 3 X s 1294 1181 m 3 X s 1294 1187 m 3 X s 1292 1193 m 5 X s 1294 1198 m 3 X s 1294 1204 m 3 X s 1294 1209 m 3 X s 1292 1215 m 5 X s 1294 1221 m 3 X s 1294 1226 m 3 X s 1294 1232 m 3 X s 1292 1238 m 5 X s 1294 1243 m 3 X s 1294 1249 m 3
 X s 1294 1255 m 3 X s 1292 1260 m 5 X s 1294 1266 m 3 X s 1294 1271 m 3 X s 1294 1277 m 3 X s 1292 1283 m 5 X s 1292 1057 m 5 X s 1292 1283 m 5 X s 1016 1076 1058 1124 1101 1157 1122 1177 1164 1208 1185 1222 1227 1243 1269 1262 8 { m21} R 9 lw 0.95
 0.95 0.95 c black 993 1081 m 3 3 d 3 2 d 3 2 d 3 2 d 3 3 d 3 2 d 3 2 d 3 2 d 3 3 d 3 2 d 3 2 d 3 3 d 3 2 d 3 2 d 3 2 d 4 3 d 3 2 d 3 2 d 3 2 d 3 3 d 3 2 d 3 2 d 3 2 d 3 3 d 3 2 d 3 2 d 3 2 d 3 3 d 3 2 d 3 2 d 3 3 d 3 2 d 4 2 d 3 2 d 3 3 d 3 2 d 3 2
 d 3 2 d 3 3 d 3 2 d 3 2 d 3 2 d 3 3 d 3 2 d 3 2 d 3 3 d 3 2 d 3 2 d 4 2 d s 1143 1192 m 3 3 d 3 2 d 3 2 d 3 2 d 3 3 d 3 2 d 3 2 d 3 2 d 3 3 d 3 2 d 3 2 d 3 3 d 3 2 d 3 2 d 3 2 d 4 3 d 3 2 d 3 2 d 3 2 d 3 3 d 3 2 d 3 2 d 3 2 d 3 3 d 3 2 d 3 2 d 3 2 d
 3 3 d 3 2 d 3 2 d 3 3 d 3 2 d 4 2 d 3 2 d 3 3 d 3 2 d 3 2 d 3 2 d 3 3 d 3 2 d 3 1 d s 0.49 0.6 0.82 c black 0.49 0.6 0.82 c
 gsave  408 305 930 1009 C 1051.24 1293.4 t 0 r /Helvetica-Bold findfont 25.6831 sf 0 0 m (1.0 < E < 1.5 GeV) show NC gr  0.52 0.76 0.64 c black 0.52 0.76 0.64 c
 gsave  408 305 930 1009 C 1037 1256.36 t 0 r /Helvetica-Bold findfont 25.6831 sf 0 0 m 
 220 206 192 185 170 163 148 141 126 118 111 97 83 69 61 47 40 25 18
(A = 0.138, p = 1.000) K NC gr  1 0.6 1 c black 1 0.6 1 c
 gsave  408 305 930 1009 C 1336.13 1113.92 t 90 r /Helvetica-Bold findfont 28.5368 sf 0 0 m (/dof=30.4) show NC gr  black 1 0.6 1 c
 gsave  408 305 930 1009 C 1324.73 1102.52 t 90 r /Helvetica-Bold findfont 19.9758 sf 0 0 m (2) show NC gr  black 1 0.6 1 c
 gsave  408 305 930 1009 C 1336.13 1085.43 t 90 r /Symbol findfont 28.5368 sf 0 0 m (c) show NC gr  black 3 lw 1 1 1 c 408 305 1383 1009 bf black 1 1 1 c black 306 229 1445 1055 bl 306 229 1445 1055 bl 1445 1055 m 306 X s 1491 1059 m -4 Y s 1596 1059
 m -4 Y s 1702 1059 m -4 Y s 1491 1059 m -4 Y s 1702 1059 m -4 Y s
 gsave  408 305 1383 1009 C 1470.03 1034.15 t 0 r /Helvetica findfont 22.8295 sf 0 0 m (\2550.5) show NC gr 
 gsave  408 305 1383 1009 C 1586.83 1034.15 t 0 r /Helvetica findfont 22.8295 sf 0 0 m (0) show NC gr 
 gsave  408 305 1383 1009 C 1683.69 1034.15 t 0 r /Helvetica findfont 22.8295 sf 0 0 m (0.5) show NC gr  1445 1284 m 306 X s 1491 1280 m 4 Y s 1596 1280 m 4 Y s 1702 1280 m 4 Y s 1491 1280 m 4 Y s 1702 1280 m 4 Y s 1445 1055 m 229 Y s 1450 1076 m -5
 X s 1447 1082 m -2 X s 1447 1088 m -2 X s 1447 1094 m -2 X s 1450 1100 m -5 X s 1447 1105 m -2 X s 1447 1111 m -2 X s 1447 1117 m -2 X s 1450 1123 m -5 X s 1447 1129 m -2 X s 1447 1135 m -2 X s 1447 1141 m -2 X s 1450 1146 m -5 X s 1447 1152 m -2 X
 s 1447 1158 m -2 X s 1447 1164 m -2 X s 1450 1170 m -5 X s 1447 1176 m -2 X s 1447 1181 m -2 X s 1447 1187 m -2 X s 1450 1193 m -5 X s 1447 1199 m -2 X s 1447 1205 m -2 X s 1447 1211 m -2 X s 1450 1217 m -5 X s 1447 1222 m -2 X s 1447 1228 m -2 X s
 1447 1234 m -2 X s 1450 1240 m -5 X s 1447 1246 m -2 X s 1447 1252 m -2 X s 1447 1257 m -2 X s 1450 1263 m -5 X s 1450 1076 m -5 X s 1447 1070 m -2 X s 1447 1065 m -2 X s 1447 1059 m -2 X s 1450 1263 m -5 X s 1447 1269 m -2 X s 1447 1275 m -2 X s
 1447 1281 m -2 X s
 gsave  408 305 1383 1009 C 1404.5 1068.33 t 0 r /Helvetica findfont 22.8295 sf 0 0 m (\2550.1) show NC gr 
 gsave  408 305 1383 1009 C 1390.26 1091.12 t 0 r /Helvetica findfont 22.8295 sf 0 0 m (\2550.08) show NC gr 
 gsave  408 305 1383 1009 C 1390.26 1116.76 t 0 r /Helvetica findfont 22.8295 sf 0 0 m (\2550.06) show NC gr 
 gsave  408 305 1383 1009 C 1390.26 1139.56 t 0 r /Helvetica findfont 22.8295 sf 0 0 m (\2550.04) show NC gr 
 gsave  408 305 1383 1009 C 1390.26 1162.35 t 0 r /Helvetica findfont 22.8295 sf 0 0 m (\2550.02) show NC gr 
 gsave  408 305 1383 1009 C 1427.29 1185.14 t 0 r /Helvetica findfont 22.8295 sf 0 0 m (0) show NC gr 
 gsave  408 305 1383 1009 C 1395.96 1210.78 t 0 r /Helvetica findfont 22.8295 sf 0 0 m (0.02) show NC gr 
 gsave  408 305 1383 1009 C 1395.96 1233.57 t 0 r /Helvetica findfont 22.8295 sf 0 0 m (0.04) show NC gr 
 gsave  408 305 1383 1009 C 1395.96 1256.36 t 0 r /Helvetica findfont 22.8295 sf 0 0 m (0.06) show NC gr  1751 1055 m 229 Y s 1745 1076 m 6 X s 1748 1082 m 3 X s 1748 1088 m 3 X s 1748 1094 m 3 X s 1745 1100 m 6 X s 1748 1105 m 3 X s 1748 1111 m 3 X
 s 1748 1117 m 3 X s 1745 1123 m 6 X s 1748 1129 m 3 X s 1748 1135 m 3 X s 1748 1141 m 3 X s 1745 1146 m 6 X s 1748 1152 m 3 X s 1748 1158 m 3 X s 1748 1164 m 3 X s 1745 1170 m 6 X s 1748 1176 m 3 X s 1748 1181 m 3 X s 1748 1187 m 3 X s 1745 1193 m 6
 X s 1748 1199 m 3 X s 1748 1205 m 3 X s 1748 1211 m 3 X s 1745 1217 m 6 X s 1748 1222 m 3 X s 1748 1228 m 3 X s 1748 1234 m 3 X s 1745 1240 m 6 X s 1748 1246 m 3 X s 1748 1252 m 3 X s 1748 1257 m 3 X s 1745 1263 m 6 X s 1745 1076 m 6 X s 1748 1070 m
 3 X s 1748 1065 m 3 X s 1748 1059 m 3 X s 1745 1263 m 6 X s 1748 1269 m 3 X s 1748 1275 m 3 X s 1748 1281 m 3 X s 1470 1076 1512 1124 1554 1158 1575 1179 1617 1207 1639 1215 1681 1237 1723 1262 8 { m21} R 9 lw 0.95 0.95 0.95 c black 1446 1085 m 3 2
 d 3 2 d 3 2 d 3 3 d 3 2 d 3 2 d 3 2 d 4 2 d 3 3 d 3 2 d 3 2 d 3 2 d 3 2 d 3 3 d 3 2 d 3 2 d 3 2 d 3 3 d 3 2 d 3 2 d 3 2 d 3 2 d 3 3 d 4 2 d 3 2 d 3 2 d 3 2 d 3 3 d 3 2 d 3 2 d 3 2 d 3 2 d 3 3 d 3 2 d 3 2 d 3 2 d 3 2 d 3 3 d 3 2 d 4 2 d 3 2 d 3 2 d 3
 3 d 3 2 d 3 2 d 3 2 d 3 3 d 3 2 d 3 2 d s 1596 1193 m 3 2 d 3 2 d 3 3 d 3 2 d 3 2 d 3 2 d 4 2 d 3 3 d 3 2 d 3 2 d 3 2 d 3 2 d 3 3 d 3 2 d 3 2 d 3 2 d 3 2 d 3 3 d 3 2 d 3 2 d 3 2 d 3 3 d 3 2 d 4 2 d 3 2 d 3 2 d 3 3 d 3 2 d 3 2 d 3 2 d 3 2 d 3 3 d 3 2
 d 3 2 d 3 2 d 3 2 d 3 3 d 3 2 d 3 2 d 4 2 d 3 2 d 3 1 d s 0.49 0.6 0.82 c black 0.49 0.6 0.82 c
 gsave  408 305 1383 1009 C 1504.21 1293.4 t 0 r /Helvetica-Bold findfont 25.6831 sf 0 0 m (1.5 < E < 2.0 GeV) show NC gr  0.52 0.76 0.64 c black 0.52 0.76 0.64 c
 gsave  408 305 1383 1009 C 1489.97 1256.36 t 0 r /Helvetica-Bold findfont 25.6831 sf 0 0 m 
 220 206 192 185 170 163 148 141 125 118 111 97 83 68 61 47 40 25 18
(A = 0.130, p = 1.000) K NC gr  1 0.6 1 c black 1 0.6 1 c
 gsave  408 305 1383 1009 C 1789.1 1113.92 t 90 r /Helvetica-Bold findfont 28.5368 sf 0 0 m (/dof=34.1) show NC gr  black 1 0.6 1 c
 gsave  408 305 1383 1009 C 1777.71 1102.52 t 90 r /Helvetica-Bold findfont 19.9758 sf 0 0 m (2) show NC gr  black 1 0.6 1 c
 gsave  408 305 1383 1009 C 1789.1 1085.43 t 90 r /Symbol findfont 28.5368 sf 0 0 m (c) show NC gr  black 3 lw 1 1 1 c 408 305 1837 1009 bf black 1 1 1 c black 306 229 1898 1055 bl 306 229 1898 1055 bl 1898 1055 m 306 X s 1944 1059 m -4 Y s 2050 1059
 m -4 Y s 2155 1059 m -4 Y s 1944 1059 m -4 Y s 2155 1059 m -4 Y s
 gsave  408 305 1837 1009 C 1923 1034.15 t 0 r /Helvetica findfont 22.8295 sf 0 0 m (\2550.5) show NC gr 
 gsave  408 305 1837 1009 C 2039.81 1034.15 t 0 r /Helvetica findfont 22.8295 sf 0 0 m (0) show NC gr 
 gsave  408 305 1837 1009 C 2136.67 1034.15 t 0 r /Helvetica findfont 22.8295 sf 0 0 m (0.5) show NC gr  1898 1284 m 306 X s 1944 1280 m 4 Y s 2050 1280 m 4 Y s 2155 1280 m 4 Y s 1944 1280 m 4 Y s 2155 1280 m 4 Y s 1898 1055 m 229 Y s 1904 1065 m -6
 X s 1901 1072 m -3 X s 1901 1079 m -3 X s 1901 1085 m -3 X s 1904 1092 m -6 X s 1901 1099 m -3 X s 1901 1105 m -3 X s 1901 1112 m -3 X s 1904 1119 m -6 X s 1901 1125 m -3 X s 1901 1132 m -3 X s 1901 1139 m -3 X s 1904 1146 m -6 X s 1901 1152 m -3 X
 s 1901 1159 m -3 X s 1901 1166 m -3 X s 1904 1172 m -6 X s 1901 1179 m -3 X s 1901 1186 m -3 X s 1901 1193 m -3 X s 1904 1199 m -6 X s 1901 1206 m -3 X s 1901 1213 m -3 X s 1901 1219 m -3 X s 1904 1226 m -6 X s 1901 1233 m -3 X s 1901 1239 m -3 X s
 1901 1246 m -3 X s 1904 1253 m -6 X s 1901 1260 m -3 X s 1901 1266 m -3 X s 1901 1273 m -3 X s 1904 1280 m -6 X s 1904 1065 m -6 X s 1901 1058 m -3 X s 1904 1280 m -6 X s
 gsave  408 305 1837 1009 C 1857.48 1056.94 t 0 r /Helvetica findfont 22.8295 sf 0 0 m (\2550.1) show NC gr 
 gsave  408 305 1837 1009 C 1843.23 1085.43 t 0 r /Helvetica findfont 22.8295 sf 0 0 m (\2550.08) show NC gr 
 gsave  408 305 1837 1009 C 1843.23 1111.07 t 0 r /Helvetica findfont 22.8295 sf 0 0 m (\2550.06) show NC gr 
 gsave  408 305 1837 1009 C 1843.23 1139.56 t 0 r /Helvetica findfont 22.8295 sf 0 0 m (\2550.04) show NC gr 
 gsave  408 305 1837 1009 C 1843.23 1165.2 t 0 r /Helvetica findfont 22.8295 sf 0 0 m (\2550.02) show NC gr 
 gsave  408 305 1837 1009 C 1880.27 1190.84 t 0 r /Helvetica findfont 22.8295 sf 0 0 m (0) show NC gr 
 gsave  408 305 1837 1009 C 1848.93 1219.32 t 0 r /Helvetica findfont 22.8295 sf 0 0 m (0.02) show NC gr 
 gsave  408 305 1837 1009 C 1848.93 1244.96 t 0 r /Helvetica findfont 22.8295 sf 0 0 m (0.04) show NC gr 
 gsave  408 305 1837 1009 C 1848.93 1273.45 t 0 r /Helvetica findfont 22.8295 sf 0 0 m (0.06) show NC gr  2204 1055 m 229 Y s 2199 1065 m 5 X s 2201 1072 m 3 X s 2201 1079 m 3 X s 2201 1085 m 3 X s 2199 1092 m 5 X s 2201 1099 m 3 X s 2201 1105 m 3 X
 s 2201 1112 m 3 X s 2199 1119 m 5 X s 2201 1125 m 3 X s 2201 1132 m 3 X s 2201 1139 m 3 X s 2199 1146 m 5 X s 2201 1152 m 3 X s 2201 1159 m 3 X s 2201 1166 m 3 X s 2199 1172 m 5 X s 2201 1179 m 3 X s 2201 1186 m 3 X s 2201 1193 m 3 X s 2199 1199 m 5
 X s 2201 1206 m 3 X s 2201 1213 m 3 X s 2201 1219 m 3 X s 2199 1226 m 5 X s 2201 1233 m 3 X s 2201 1239 m 3 X s 2201 1246 m 3 X s 2199 1253 m 5 X s 2201 1260 m 3 X s 2201 1266 m 3 X s 2201 1273 m 3 X s 2199 1280 m 5 X s 2199 1065 m 5 X s 2201 1058 m
 3 X s 2199 1280 m 5 X s 1923 1077 1966 1130 2008 1168 2029 1182 2071 1215 2092 1228 2134 1242 2176 1262 8 { m21} R 9 lw 0.95 0.95 0.95 c black 1900 1091 m 3 2 d 3 2 d 3 2 d 3 3 d 3 2 d 3 2 d 3 2 d 3 3 d 3 2 d 3 2 d 3 2 d 3 2 d 3 3 d 3 2 d 4 2 d 3 2
 d 3 2 d 3 3 d 3 2 d 3 2 d 3 2 d 3 2 d 3 3 d 3 2 d 3 2 d 3 2 d 3 2 d 3 3 d 3 2 d 3 2 d 4 2 d 3 2 d 3 3 d 3 2 d 3 2 d 3 2 d 3 3 d 3 2 d 3 2 d 3 2 d 3 2 d 3 3 d 3 2 d 3 2 d 3 2 d 3 2 d 3 3 d 4 2 d 3 2 d s 2050 1199 m 3 2 d 3 2 d 3 3 d 3 2 d 3 2 d 3 2 d
 3 2 d 3 3 d 3 2 d 3 2 d 3 2 d 3 3 d 3 2 d 3 2 d 4 2 d 3 2 d 3 3 d 3 2 d 3 2 d 3 2 d 3 2 d 3 3 d 3 2 d 3 2 d 3 2 d 3 2 d 3 3 d 3 2 d 3 2 d 3 2 d 4 2 d 3 3 d 3 2 d 3 2 d 3 2 d 3 2 d 3 3 d 3 2 d 3 1 d s 0.49 0.6 0.82 c black 0.49 0.6 0.82 c
 gsave  408 305 1837 1009 C 1957.19 1293.4 t 0 r /Helvetica-Bold findfont 25.6831 sf 0 0 m (2.0 < E < 2.5 GeV) show NC gr  0.52 0.76 0.64 c black 0.52 0.76 0.64 c
 gsave  408 305 1837 1009 C 1942.94 1256.36 t 0 r /Helvetica-Bold findfont 25.6831 sf 0 0 m 
 218 204 190 183 168 161 146 139 124 116 109 95 81 68 61 47 39 24 17
(A = 0.113, p = 1.000) K NC gr  1 0.6 1 c black 1 0.6 1 c
 gsave  408 305 1837 1009 C 2242.08 1113.92 t 90 r /Helvetica-Bold findfont 28.5368 sf 0 0 m (/dof=33.3) show NC gr  black 1 0.6 1 c
 gsave  408 305 1837 1009 C 2230.68 1102.52 t 90 r /Helvetica-Bold findfont 19.9758 sf 0 0 m (2) show NC gr  black 1 0.6 1 c
 gsave  408 305 1837 1009 C 2242.08 1085.43 t 90 r /Symbol findfont 28.5368 sf 0 0 m (c) show NC gr  black 3 lw 1 1 1 c 408 305 23 677 bf black 1 1 1 c black 306 229 84 723 bl 306 229 84 723 bl 84 723 m 306 X s 130 727 m -4 Y s 236 727 m -4 Y s 341
 727 m -4 Y s 130 727 m -4 Y s 341 727 m -4 Y s
 gsave  408 305 23 677 C 108.258 703.676 t 0 r /Helvetica findfont 22.8295 sf 0 0 m (\2550.5) show NC gr 
 gsave  408 305 23 677 C 225.062 703.676 t 0 r /Helvetica findfont 22.8295 sf 0 0 m (0) show NC gr 
 gsave  408 305 23 677 C 321.925 703.676 t 0 r /Helvetica findfont 22.8295 sf 0 0 m (0.5) show NC gr  84 952 m 306 X s 130 948 m 4 Y s 236 948 m 4 Y s 341 948 m 4 Y s 130 948 m 4 Y s 341 948 m 4 Y s 84 723 m 229 Y s 89 726 m -5 X s 87 734 m -3 X s 87
 742 m -3 X s 87 750 m -3 X s 89 758 m -5 X s 87 766 m -3 X s 87 773 m -3 X s 87 781 m -3 X s 89 789 m -5 X s 87 797 m -3 X s 87 805 m -3 X s 87 813 m -3 X s 89 821 m -5 X s 87 829 m -3 X s 87 837 m -3 X s 87 845 m -3 X s 89 853 m -5 X s 87 860 m -3
 X s 87 868 m -3 X s 87 876 m -3 X s 89 884 m -5 X s 87 892 m -3 X s 87 900 m -3 X s 87 908 m -3 X s 89 916 m -5 X s 87 924 m -3 X s 87 932 m -3 X s 87 940 m -3 X s 89 948 m -5 X s 89 726 m -5 X s 89 948 m -5 X s
 gsave  408 305 23 677 C 42.7334 717.92 t 0 r /Helvetica findfont 22.8295 sf 0 0 m (\2550.1) show NC gr 
 gsave  408 305 23 677 C 28.4889 749.258 t 0 r /Helvetica findfont 22.8295 sf 0 0 m (\2550.08) show NC gr 
 gsave  408 305 23 677 C 28.4889 783.445 t 0 r /Helvetica findfont 22.8295 sf 0 0 m (\2550.06) show NC gr 
 gsave  408 305 23 677 C 28.4889 814.783 t 0 r /Helvetica findfont 22.8295 sf 0 0 m (\2550.04) show NC gr 
 gsave  408 305 23 677 C 28.4889 846.12 t 0 r /Helvetica findfont 22.8295 sf 0 0 m (\2550.02) show NC gr 
 gsave  408 305 23 677 C 65.5245 877.458 t 0 r /Helvetica findfont 22.8295 sf 0 0 m (0) show NC gr 
 gsave  408 305 23 677 C 34.1867 908.796 t 0 r /Helvetica findfont 22.8295 sf 0 0 m (0.02) show NC gr 
 gsave  408 305 23 677 C 34.1867 940.134 t 0 r /Helvetica findfont 22.8295 sf 0 0 m (0.04) show NC gr  390 723 m 229 Y s 385 726 m 5 X s 387 734 m 3 X s 387 742 m 3 X s 387 750 m 3 X s 385 758 m 5 X s 387 766 m 3 X s 387 773 m 3 X s 387 781 m 3 X s
 385 789 m 5 X s 387 797 m 3 X s 387 805 m 3 X s 387 813 m 3 X s 385 821 m 5 X s 387 829 m 3 X s 387 837 m 3 X s 387 845 m 3 X s 385 853 m 5 X s 387 860 m 3 X s 387 868 m 3 X s 387 876 m 3 X s 385 884 m 5 X s 387 892 m 3 X s 387 900 m 3 X s 387 908 m
 3 X s 385 916 m 5 X s 387 924 m 3 X s 387 932 m 3 X s 387 940 m 3 X s 385 948 m 5 X s 385 726 m 5 X s 385 948 m 5 X s /w 22 def /w2 {w 2 div} def /w3 {w 3 div} def 109 746 151 799 194 843 215 864 257 899 278 911 320 919 362 929 8 { m21} R 9 lw 0.95
 0.95 0.95 c black 85 773 m 3 2 d 4 2 d 3 3 d 3 2 d 3 2 d 3 3 d 3 2 d 3 2 d 3 2 d 3 3 d 3 2 d 3 2 d 3 2 d 3 3 d 3 2 d 3 2 d 3 2 d 4 3 d 3 2 d 3 2 d 3 3 d 3 2 d 3 2 d 3 2 d 3 3 d 3 2 d 3 2 d 3 2 d 3 3 d 3 2 d 3 2 d 3 3 d 3 2 d 4 2 d 3 2 d 3 3 d 3 2 d
 3 2 d 3 2 d 3 3 d 3 2 d 3 2 d 3 2 d 3 3 d 3 2 d 3 2 d 3 3 d 3 2 d 3 2 d s 235 884 m 4 2 d 3 3 d 3 2 d 3 2 d 3 2 d 3 3 d 3 2 d 3 2 d 3 2 d 3 3 d 3 2 d 3 2 d 3 3 d 3 2 d 3 2 d 3 2 d 3 3 d 4 2 d 3 2 d 3 2 d 3 3 d 3 2 d 3 2 d 3 2 d 3 3 d 3 2 d 3 2 d 3 3
 d 3 2 d 3 2 d s 0.49 0.6 0.82 c black 0.49 0.6 0.82 c
 gsave  408 305 23 677 C 142.445 960.076 t 0 r /Helvetica-Bold findfont 25.6831 sf 0 0 m (2.5 < E < 3.0 GeV) show NC gr  0.52 0.76 0.64 c black 0.52 0.76 0.64 c
 gsave  408 305 23 677 C 128.2 923.04 t 0 r /Helvetica-Bold findfont 25.6831 sf 0 0 m 
 220 206 192 185 170 163 148 141 126 118 111 97 83 69 61 47 40 25 18
(A = 0.099, p = 1.000) K NC gr  1 0.6 1 c black 1 0.6 1 c
 gsave  408 305 23 677 C 427.334 783.445 t 90 r /Helvetica-Bold findfont 28.5368 sf 0 0 m (/dof=57.5) show NC gr  black 1 0.6 1 c
 gsave  408 305 23 677 C 415.938 772.049 t 90 r /Helvetica-Bold findfont 19.9758 sf 0 0 m (2) show NC gr  black 1 0.6 1 c
 gsave  408 305 23 677 C 427.334 754.956 t 90 r /Symbol findfont 28.5368 sf 0 0 m (c) show NC gr  black 3 lw 1 1 1 c 408 305 476 677 bf black 1 1 1 c black 307 229 537 723 bl 307 229 537 723 bl 537 723 m 307 X s 584 727 m -4 Y s 689 727 m -4 Y s 795
 727 m -4 Y s 584 727 m -4 Y s 795 727 m -4 Y s
 gsave  408 305 476 677 C 561.231 703.676 t 0 r /Helvetica findfont 22.8295 sf 0 0 m (\2550.5) show NC gr 
 gsave  408 305 476 677 C 678.036 703.676 t 0 r /Helvetica findfont 22.8295 sf 0 0 m (0) show NC gr 
 gsave  408 305 476 677 C 774.898 703.676 t 0 r /Helvetica findfont 22.8295 sf 0 0 m (0.5) show NC gr  537 952 m 307 X s 584 948 m 4 Y s 689 948 m 4 Y s 795 948 m 4 Y s 584 948 m 4 Y s 795 948 m 4 Y s 537 723 m 229 Y s 543 730 m -6 X s 540 741 m -3 X
 s 540 752 m -3 X s 540 763 m -3 X s 543 774 m -6 X s 540 785 m -3 X s 540 796 m -3 X s 540 807 m -3 X s 543 817 m -6 X s 540 828 m -3 X s 540 839 m -3 X s 540 850 m -3 X s 543 861 m -6 X s 540 872 m -3 X s 540 883 m -3 X s 540 894 m -3 X s 543 905 m
 -6 X s 540 916 m -3 X s 540 927 m -3 X s 540 938 m -3 X s 543 949 m -6 X s 543 730 m -6 X s 543 949 m -6 X s
 gsave  408 305 476 677 C 481.462 723.618 t 0 r /Helvetica findfont 22.8295 sf 0 0 m (\2550.08) show NC gr 
 gsave  408 305 476 677 C 481.462 766.351 t 0 r /Helvetica findfont 22.8295 sf 0 0 m (\2550.06) show NC gr 
 gsave  408 305 476 677 C 481.462 809.085 t 0 r /Helvetica findfont 22.8295 sf 0 0 m (\2550.04) show NC gr 
 gsave  408 305 476 677 C 481.462 854.667 t 0 r /Helvetica findfont 22.8295 sf 0 0 m (\2550.02) show NC gr 
 gsave  408 305 476 677 C 518.498 897.4 t 0 r /Helvetica findfont 22.8295 sf 0 0 m (0) show NC gr 
 gsave  408 305 476 677 C 487.16 942.983 t 0 r /Helvetica findfont 22.8295 sf 0 0 m (0.02) show NC gr  844 723 m 229 Y s 838 730 m 6 X s 841 741 m 3 X s 841 752 m 3 X s 841 763 m 3 X s 838 774 m 6 X s 841 785 m 3 X s 841 796 m 3 X s 841 807 m 3 X s
 838 817 m 6 X s 841 828 m 3 X s 841 839 m 3 X s 841 850 m 3 X s 838 861 m 6 X s 841 872 m 3 X s 841 883 m 3 X s 841 894 m 3 X s 838 905 m 6 X s 841 916 m 3 X s 841 927 m 3 X s 841 938 m 3 X s 838 949 m 6 X s 838 730 m 6 X s 838 949 m 6 X s /w 23 def
 /w2 {w 2 div} def /w3 {w 3 div} def 563 748 605 817 647 868 668 893 710 909 731 919 774 918 816 927 8 { m21} R 9 lw 0.95 0.95 0.95 c black 539 804 m 3 2 d 3 2 d 3 2 d 3 2 d 3 2 d 3 2 d 3 2 d 3 2 d 4 2 d 3 2 d 3 2 d 3 2 d 3 3 d 3 2 d 3 2 d 3 2 d 3 2
 d 3 2 d 3 2 d 3 2 d 3 2 d 3 2 d 3 2 d 3 2 d 4 2 d 3 2 d 3 3 d 3 2 d 3 2 d 3 2 d 3 2 d 3 2 d 3 2 d 3 2 d 3 2 d 3 2 d 3 2 d 3 2 d 3 2 d 3 2 d 3 3 d 4 2 d 3 2 d 3 2 d 3 2 d 3 2 d 3 2 d 3 2 d 3 2 d s 689 905 m 3 2 d 3 2 d 3 2 d 3 2 d 3 2 d 3 3 d 3 2 d 3
 2 d 4 2 d 3 2 d 3 2 d 3 2 d 3 2 d 3 2 d 3 2 d 3 2 d 3 2 d 3 2 d 3 2 d 3 3 d 3 2 d 3 2 d 3 1 d s 0.49 0.6 0.82 c black 0.49 0.6 0.82 c
 gsave  408 305 476 677 C 595.418 960.076 t 0 r /Helvetica-Bold findfont 25.6831 sf 0 0 m (3.0 < E < 3.5 GeV) show NC gr  0.52 0.76 0.64 c black 0.52 0.76 0.64 c
 gsave  408 305 476 677 C 581.174 923.04 t 0 r /Helvetica-Bold findfont 25.6831 sf 0 0 m 
 220 206 192 185 170 163 148 141 125 118 111 97 83 69 61 47 40 25 18
(A = 0.065, p = 1.000) K NC gr  1 0.6 1 c black 1 0.6 1 c
 gsave  408 305 476 677 C 883.156 783.445 t 90 r /Helvetica-Bold findfont 28.5368 sf 0 0 m (/dof=54.6) show NC gr  black 1 0.6 1 c
 gsave  408 305 476 677 C 871.76 772.049 t 90 r /Helvetica-Bold findfont 19.9758 sf 0 0 m (2) show NC gr  black 1 0.6 1 c
 gsave  408 305 476 677 C 883.156 754.956 t 90 r /Symbol findfont 28.5368 sf 0 0 m (c) show NC gr  black 3 lw 1 1 1 c 408 305 930 677 bf black 1 1 1 c black 306 229 991 723 bl 306 229 991 723 bl 991 723 m 306 X s 1037 727 m -4 Y s 1143 727 m -4 Y s
 1248 727 m -4 Y s 1037 727 m -4 Y s 1248 727 m -4 Y s
 gsave  408 305 930 677 C 1017.05 703.676 t 0 r /Helvetica findfont 22.8295 sf 0 0 m (\2550.5) show NC gr 
 gsave  408 305 930 677 C 1133.86 703.676 t 0 r /Helvetica findfont 22.8295 sf 0 0 m (0) show NC gr 
 gsave  408 305 930 677 C 1230.72 703.676 t 0 r /Helvetica findfont 22.8295 sf 0 0 m (0.5) show NC gr  991 952 m 306 X s 1037 948 m 4 Y s 1143 948 m 4 Y s 1248 948 m 4 Y s 1037 948 m 4 Y s 1248 948 m 4 Y s 991 723 m 229 Y s 997 748 m -6 X s 994 755 m
 -3 X s 994 761 m -3 X s 994 768 m -3 X s 994 774 m -3 X s 997 781 m -6 X s 994 787 m -3 X s 994 793 m -3 X s 994 800 m -3 X s 994 806 m -3 X s 997 813 m -6 X s 994 819 m -3 X s 994 826 m -3 X s 994 832 m -3 X s 994 838 m -3 X s 997 845 m -6 X s 994
 851 m -3 X s 994 858 m -3 X s 994 864 m -3 X s 994 871 m -3 X s 997 877 m -6 X s 994 883 m -3 X s 994 890 m -3 X s 994 896 m -3 X s 994 903 m -3 X s 997 909 m -6 X s 994 916 m -3 X s 994 922 m -3 X s 994 928 m -3 X s 994 935 m -3 X s 997 941 m -6 X
 s 997 748 m -6 X s 994 742 m -3 X s 994 736 m -3 X s 994 729 m -3 X s 997 941 m -6 X s 994 948 m -3 X s
 gsave  408 305 930 677 C 937.285 740.711 t 0 r /Helvetica findfont 22.8295 sf 0 0 m (\2550.05) show NC gr 
 gsave  408 305 930 677 C 937.285 772.049 t 0 r /Helvetica findfont 22.8295 sf 0 0 m (\2550.04) show NC gr 
 gsave  408 305 930 677 C 937.285 806.236 t 0 r /Helvetica findfont 22.8295 sf 0 0 m (\2550.03) show NC gr 
 gsave  408 305 930 677 C 937.285 837.574 t 0 r /Helvetica findfont 22.8295 sf 0 0 m (\2550.02) show NC gr 
 gsave  408 305 930 677 C 940.134 868.911 t 0 r /Helvetica findfont 22.8295 sf 0 0 m (\2550.01) show NC gr 
 gsave  408 305 930 677 C 974.32 903.098 t 0 r /Helvetica findfont 22.8295 sf 0 0 m (0) show NC gr 
 gsave  408 305 930 677 C 945.832 934.436 t 0 r /Helvetica findfont 22.8295 sf 0 0 m (0.01) show NC gr  1297 723 m 229 Y s 1292 748 m 5 X s 1294 755 m 3 X s 1294 761 m 3 X s 1294 768 m 3 X s 1294 774 m 3 X s 1292 781 m 5 X s 1294 787 m 3 X s 1294 793
 m 3 X s 1294 800 m 3 X s 1294 806 m 3 X s 1292 813 m 5 X s 1294 819 m 3 X s 1294 826 m 3 X s 1294 832 m 3 X s 1294 838 m 3 X s 1292 845 m 5 X s 1294 851 m 3 X s 1294 858 m 3 X s 1294 864 m 3 X s 1294 871 m 3 X s 1292 877 m 5 X s 1294 883 m 3 X s
 1294 890 m 3 X s 1294 896 m 3 X s 1294 903 m 3 X s 1292 909 m 5 X s 1294 916 m 3 X s 1294 922 m 3 X s 1294 928 m 3 X s 1294 935 m 3 X s 1292 941 m 5 X s 1292 748 m 5 X s 1294 742 m 3 X s 1294 736 m 3 X s 1294 729 m 3 X s 1292 941 m 5 X s 1294 948 m
 3 X s 1016 752 1058 858 1101 911 1122 923 1164 906 1185 905 1227 922 1269 903 8 { m21} R 1 0 0 c 9 lw 0.95 0.95 0.95 c black 1 0 0 c 993 802 m 3 4 d 3 4 d 3 4 d 3 5 d 3 4 d 3 3 d 3 4 d 3 4 d 3 4 d 3 3 d 3 3 d 3 4 d 3 3 d 3 3 d 3 3 d 4 3 d 3 3 d 3 3
 d 3 3 d 3 2 d 3 3 d 3 2 d 3 3 d 3 2 d 3 2 d 3 2 d 3 2 d 3 2 d 3 2 d 3 2 d 3 2 d 3 1 d 4 2 d 3 1 d 3 1 d 3 1 d 3 2 d 3 1 d 3 1 d 3 X 3 1 d 3 1 d 3 X 3 1 d 3 X 3 1 d 10 X s 1143 909 m 9 X 3 -1 d 6 X 3 -1 d 3 -1 d 3 X 3 -1 d 3 -1 d 3 -1 d 3 -1 d 3 -2 d
 3 -1 d 4 -1 d 3 -2 d 3 -1 d 3 -2 d 3 -2 d 3 -1 d 3 -2 d 3 -2 d 3 -2 d 3 -3 d 3 -2 d 3 -2 d 3 -3 d 3 -2 d 3 -3 d 3 -2 d 3 -3 d 4 -3 d 3 -3 d 3 -3 d 3 -3 d 3 -4 d 3 -3 d 3 -3 d 3 -4 d 3 -3 d 3 -4 d 3 -4 d 3 -4 d 3 -4 d 3 -4 d 3 -4 d 3 -4 d 4 -4 d s
 1293 803 m 3 -5 d s 0.49 0.6 0.82 c black 0.49 0.6 0.82 c
 gsave  408 305 930 677 C 1051.24 960.076 t 0 r /Helvetica-Bold findfont 25.6831 sf 0 0 m (3.5 < E < 4.0 GeV) show NC gr  0.52 0.76 0.64 c black 0.52 0.76 0.64 c
 gsave  408 305 930 677 C 1031.3 923.04 t 0 r /Helvetica-Bold findfont 25.6831 sf 0 0 m 
 228 214 200 193 178 171 156 149 134 126 119 105 91 77 69 55 47 39 25 17
(A = \2550.066, p = 2.000) K NC gr  1 0.6 1 c black 1 0.6 1 c
 gsave  408 305 930 677 C 1336.13 783.445 t 90 r /Helvetica-Bold findfont 28.5368 sf 0 0 m (/dof=21.1) show NC gr  black 1 0.6 1 c
 gsave  408 305 930 677 C 1324.73 772.049 t 90 r /Helvetica-Bold findfont 19.9758 sf 0 0 m (2) show NC gr  black 1 0.6 1 c
 gsave  408 305 930 677 C 1336.13 754.956 t 90 r /Symbol findfont 28.5368 sf 0 0 m (c) show NC gr  black 3 lw 1 1 1 c 408 305 1383 677 bf black 1 1 1 c black 306 229 1445 723 bl 306 229 1445 723 bl 1445 723 m 306 X s 1491 727 m -4 Y s 1596 727 m -4 Y
 s 1702 727 m -4 Y s 1491 727 m -4 Y s 1702 727 m -4 Y s
 gsave  408 305 1383 677 C 1470.03 703.676 t 0 r /Helvetica findfont 22.8295 sf 0 0 m (\2550.5) show NC gr 
 gsave  408 305 1383 677 C 1586.83 703.676 t 0 r /Helvetica findfont 22.8295 sf 0 0 m (0) show NC gr 
 gsave  408 305 1383 677 C 1683.69 703.676 t 0 r /Helvetica findfont 22.8295 sf 0 0 m (0.5) show NC gr  1445 952 m 306 X s 1491 948 m 4 Y s 1596 948 m 4 Y s 1702 948 m 4 Y s 1491 948 m 4 Y s 1702 948 m 4 Y s 1445 723 m 229 Y s 1450 755 m -5 X s 1447
 762 m -2 X s 1447 770 m -2 X s 1447 778 m -2 X s 1447 785 m -2 X s 1450 793 m -5 X s 1447 800 m -2 X s 1447 808 m -2 X s 1447 815 m -2 X s 1447 823 m -2 X s 1450 831 m -5 X s 1447 838 m -2 X s 1447 846 m -2 X s 1447 853 m -2 X s 1447 861 m -2 X s
 1450 868 m -5 X s 1447 876 m -2 X s 1447 884 m -2 X s 1447 891 m -2 X s 1447 899 m -2 X s 1450 906 m -5 X s 1447 914 m -2 X s 1447 921 m -2 X s 1447 929 m -2 X s 1447 937 m -2 X s 1450 944 m -5 X s 1450 755 m -5 X s 1447 747 m -2 X s 1447 740 m -2 X
 s 1447 732 m -2 X s 1447 725 m -2 X s 1450 944 m -5 X s 1447 952 m -2 X s
 gsave  408 305 1383 677 C 1390.26 746.409 t 0 r /Helvetica findfont 22.8295 sf 0 0 m (\2550.02) show NC gr 
 gsave  408 305 1383 677 C 1376.01 786.294 t 0 r /Helvetica findfont 22.8295 sf 0 0 m (\2550.015) show NC gr 
 gsave  408 305 1383 677 C 1393.11 823.329 t 0 r /Helvetica findfont 22.8295 sf 0 0 m (\2550.01) show NC gr 
 gsave  408 305 1383 677 C 1376.01 860.365 t 0 r /Helvetica findfont 22.8295 sf 0 0 m (\2550.005) show NC gr 
 gsave  408 305 1383 677 C 1427.29 900.249 t 0 r /Helvetica findfont 22.8295 sf 0 0 m (0) show NC gr 
 gsave  408 305 1383 677 C 1384.56 937.285 t 0 r /Helvetica findfont 22.8295 sf 0 0 m (0.005) show NC gr  1751 723 m 229 Y s 1745 755 m 6 X s 1748 762 m 3 X s 1748 770 m 3 X s 1748 778 m 3 X s 1748 785 m 3 X s 1745 793 m 6 X s 1748 800 m 3 X s 1748
 808 m 3 X s 1748 815 m 3 X s 1748 823 m 3 X s 1745 831 m 6 X s 1748 838 m 3 X s 1748 846 m 3 X s 1748 853 m 3 X s 1748 861 m 3 X s 1745 868 m 6 X s 1748 876 m 3 X s 1748 884 m 3 X s 1748 891 m 3 X s 1748 899 m 3 X s 1745 906 m 6 X s 1748 914 m 3 X s
 1748 921 m 3 X s 1748 929 m 3 X s 1748 937 m 3 X s 1745 944 m 6 X s 1745 755 m 6 X s 1748 747 m 3 X s 1748 740 m 3 X s 1748 732 m 3 X s 1748 725 m 3 X s 1745 944 m 6 X s 1748 952 m 3 X s 1470 772 1512 879 1554 898 1575 852 1617 874 1639 902 1681 881
 1723 903 8 { m21} R 1470 783 m 18 Y s 1464 801 m 12 X s 1470 760 m -18 Y s 1464 742 m 12 X s 1512 891 m 18 Y s 1506 909 m 12 X s 1512 868 m -19 Y s 1506 849 m 12 X s 1554 909 m 19 Y s 1548 928 m 12 X s 1554 887 m -19 Y s 1548 868 m 12 X s 1575 864 m
 18 Y s 1570 882 m 11 X s 1575 841 m -18 Y s 1570 823 m 11 X s 1617 886 m 18 Y s 1612 904 m 11 X s 1617 863 m -18 Y s 1612 845 m 11 X s 1639 914 m 18 Y s 1633 932 m 11 X s 1639 891 m -18 Y s 1633 873 m 11 X s 1681 892 m 18 Y s 1675 910 m 11 X s 1681
 869 m -18 Y s 1675 851 m 11 X s 1723 914 m 19 Y s 1717 933 m 12 X s 1723 892 m -19 Y s 1717 873 m 12 X s 1 0 0 c 9 lw 0.95 0.95 0.95 c black 1 0 0 c 1446 810 m 3 3 d 3 4 d 3 4 d 3 4 d 3 3 d 3 4 d 3 3 d 4 3 d 3 4 d 3 3 d 3 3 d 3 3 d 3 3 d 3 3 d 3 3 d
 3 2 d 3 3 d 3 2 d 3 3 d 3 2 d 3 3 d 3 2 d 3 2 d 4 2 d 3 2 d 3 2 d 3 2 d 3 1 d 3 2 d 3 2 d 3 1 d 3 2 d 3 1 d 3 1 d 3 1 d 3 1 d 3 1 d 3 1 d 3 1 d 4 1 d 3 1 d 3 X 3 1 d 3 X 3 1 d 12 X s 1596 906 m 12 X 3 -1 d 3 X 4 -1 d 3 X 3 -1 d 3 -1 d 3 -1 d 3 X 3
 -1 d 3 -2 d 3 -1 d 3 -1 d 3 -1 d 3 -2 d 3 -1 d 3 -2 d 3 -1 d 3 -2 d 3 -2 d 4 -2 d 3 -2 d 3 -2 d 3 -2 d 3 -2 d 3 -2 d 3 -3 d 3 -2 d 3 -3 d 3 -2 d 3 -3 d 3 -3 d 3 -3 d 3 -2 d 3 -3 d 3 -4 d 4 -3 d 3 -3 d 3 -3 d 3 -4 d 3 -3 d 3 -4 d 3 -3 d 3 -4 d 3 -4 d
 3 -4 d s 1746 810 m 3 -4 d s 0.49 0.6 0.82 c black 0.49 0.6 0.82 c
 gsave  408 305 1383 677 C 1504.21 960.076 t 0 r /Helvetica-Bold findfont 25.6831 sf 0 0 m (4.0 < E < 4.5 GeV) show NC gr  0.52 0.76 0.64 c black 0.52 0.76 0.64 c
 gsave  408 305 1383 677 C 1484.27 923.04 t 0 r /Helvetica-Bold findfont 25.6831 sf 0 0 m 
 228 214 200 193 178 171 156 149 133 126 119 105 91 76 69 55 47 39 25 17
(A = \2550.025, p = 2.000) K NC gr  1 0.6 1 c black 1 0.6 1 c
 gsave  408 305 1383 677 C 1789.1 791.991 t 90 r /Helvetica-Bold findfont 28.5368 sf 0 0 m (/dof=2.0) show NC gr  black 1 0.6 1 c
 gsave  408 305 1383 677 C 1777.71 780.596 t 90 r /Helvetica-Bold findfont 19.9758 sf 0 0 m (2) show NC gr  black 1 0.6 1 c
 gsave  408 305 1383 677 C 1789.1 763.503 t 90 r /Symbol findfont 28.5368 sf 0 0 m (c) show NC gr  black 3 lw 1 1 1 c 408 305 1837 677 bf black 1 1 1 c black 306 229 1898 723 bl 306 229 1898 723 bl 1898 723 m 306 X s 1944 727 m -4 Y s 2050 727 m -4 Y
 s 2155 727 m -4 Y s 1944 727 m -4 Y s 2155 727 m -4 Y s
 gsave  408 305 1837 677 C 1923 703.676 t 0 r /Helvetica findfont 22.8295 sf 0 0 m (\2550.5) show NC gr 
 gsave  408 305 1837 677 C 2039.81 703.676 t 0 r /Helvetica findfont 22.8295 sf 0 0 m (0) show NC gr 
 gsave  408 305 1837 677 C 2136.67 703.676 t 0 r /Helvetica findfont 22.8295 sf 0 0 m (0.5) show NC gr  1898 952 m 306 X s 1944 948 m 4 Y s 2050 948 m 4 Y s 2155 948 m 4 Y s 1944 948 m 4 Y s 2155 948 m 4 Y s 1898 723 m 229 Y s 1904 733 m -6 X s 1901
 740 m -3 X s 1901 748 m -3 X s 1901 755 m -3 X s 1901 762 m -3 X s 1904 769 m -6 X s 1901 776 m -3 X s 1901 783 m -3 X s 1901 790 m -3 X s 1901 797 m -3 X s 1904 804 m -6 X s 1901 812 m -3 X s 1901 819 m -3 X s 1901 826 m -3 X s 1901 833 m -3 X s
 1904 840 m -6 X s 1901 847 m -3 X s 1901 854 m -3 X s 1901 861 m -3 X s 1901 869 m -3 X s 1904 876 m -6 X s 1901 883 m -3 X s 1901 890 m -3 X s 1901 897 m -3 X s 1901 904 m -3 X s 1904 911 m -6 X s 1901 918 m -3 X s 1901 925 m -3 X s 1901 933 m -3 X
 s 1901 940 m -3 X s 1904 947 m -6 X s 1904 733 m -6 X s 1901 726 m -3 X s 1904 947 m -6 X s
 gsave  408 305 1837 677 C 1828.99 726.467 t 0 r /Helvetica findfont 22.8295 sf 0 0 m (\2550.015) show NC gr 
 gsave  408 305 1837 677 C 1846.08 760.654 t 0 r /Helvetica findfont 22.8295 sf 0 0 m (\2550.01) show NC gr 
 gsave  408 305 1837 677 C 1828.99 797.689 t 0 r /Helvetica findfont 22.8295 sf 0 0 m (\2550.005) show NC gr 
 gsave  408 305 1837 677 C 1880.27 831.876 t 0 r /Helvetica findfont 22.8295 sf 0 0 m (0) show NC gr 
 gsave  408 305 1837 677 C 1837.53 868.911 t 0 r /Helvetica findfont 22.8295 sf 0 0 m (0.005) show NC gr 
 gsave  408 305 1837 677 C 1851.78 903.098 t 0 r /Helvetica findfont 22.8295 sf 0 0 m (0.01) show NC gr 
 gsave  408 305 1837 677 C 1837.53 940.134 t 0 r /Helvetica findfont 22.8295 sf 0 0 m (0.015) show NC gr  2204 723 m 229 Y s 2199 733 m 5 X s 2201 740 m 3 X s 2201 748 m 3 X s 2201 755 m 3 X s 2201 762 m 3 X s 2199 769 m 5 X s 2201 776 m 3 X s 2201
 783 m 3 X s 2201 790 m 3 X s 2201 797 m 3 X s 2199 804 m 5 X s 2201 812 m 3 X s 2201 819 m 3 X s 2201 826 m 3 X s 2201 833 m 3 X s 2199 840 m 5 X s 2201 847 m 3 X s 2201 854 m 3 X s 2201 861 m 3 X s 2201 869 m 3 X s 2199 876 m 5 X s 2201 883 m 3 X s
 2201 890 m 3 X s 2201 897 m 3 X s 2201 904 m 3 X s 2199 911 m 5 X s 2201 918 m 3 X s 2201 925 m 3 X s 2201 933 m 3 X s 2201 940 m 3 X s 2199 947 m 5 X s 2199 733 m 5 X s 2201 726 m 3 X s 2199 947 m 5 X s 1923 797 1966 800 2008 855 2029 843 2071 779
 2092 785 2134 828 2176 896 8 { m21} R 1923 808 m 25 Y s 1918 833 m 11 X s 1923 785 m -25 Y s 1918 760 m 11 X s 1966 812 m 25 Y s 1960 837 m 11 X s 1966 789 m -26 Y s 1960 763 m 11 X s 2008 866 m 26 Y s 2002 892 m 11 X s 2008 843 m -25 Y s 2002 818 m
 11 X s 2029 855 m 25 Y s 2023 880 m 11 X s 2029 832 m -26 Y s 2023 806 m 11 X s 2071 790 m 25 Y s 2065 815 m 12 X s 2071 767 m -25 Y s 2065 742 m 12 X s 2092 796 m 26 Y s 2086 822 m 12 X s 2092 774 m -26 Y s 2086 748 m 12 X s 2134 840 m 25 Y s 2129
 865 m 11 X s 2134 817 m -25 Y s 2129 792 m 11 X s 2176 907 m 26 Y s 2171 933 m 11 X s 2176 884 m -25 Y s 2171 859 m 11 X s 9 lw 0.95 0.95 0.95 c black 1900 809 m 3 X 3 1 d 3 1 d 3 X 3 1 d 3 1 d 3 X 3 1 d 3 X 3 1 d 3 1 d 3 X 3 1 d 3 1 d 4 X 3 1 d 3 1
 d 3 X 3 1 d 3 1 d 3 X 3 1 d 3 X 3 1 d 3 1 d 3 X 3 1 d 3 1 d 3 X 3 1 d 4 1 d 3 X 3 1 d 3 X 3 1 d 3 1 d 3 X 3 1 d 3 1 d 3 X 3 1 d 3 1 d 3 X 3 1 d 3 X 3 1 d 3 1 d 4 X 3 1 d s 2050 840 m 3 1 d 3 X 3 1 d 3 1 d 3 X 3 1 d 3 X 3 1 d 3 1 d 3 X 3 1 d 3 1 d 3
 X 3 1 d 4 1 d 3 X 3 1 d 3 1 d 3 X 3 1 d 3 X 3 1 d 3 1 d 3 X 3 1 d 3 1 d 3 X 3 1 d 3 1 d 3 X 4 1 d 3 X 3 1 d 3 1 d 3 X 3 1 d 3 1 d 3 X 3 1 d 3 1 d 3 X 3 1 d 3 X 3 1 d 3 1 d 3 X 4 1 d 3 1 d 3 X s 2200 871 m 3 1 d s 0.49 0.6 0.82 c black 0.49 0.6 0.82
 c
 gsave  408 305 1837 677 C 1957.19 960.076 t 0 r /Helvetica-Bold findfont 25.6831 sf 0 0 m (4.5 < E < 5.0 GeV) show NC gr  0.52 0.76 0.64 c black 0.52 0.76 0.64 c
 gsave  408 305 1837 677 C 1942.94 923.04 t 0 r /Helvetica-Bold findfont 25.6831 sf 0 0 m 
 220 206 192 185 170 163 148 141 126 118 111 97 83 69 61 47 40 25 18
(A = 0.006, p = 1.000) K NC gr  1 0.6 1 c black 1 0.6 1 c
 gsave  408 305 1837 677 C 2242.08 791.991 t 90 r /Helvetica-Bold findfont 28.5368 sf 0 0 m (/dof=1.2) show NC gr  black 1 0.6 1 c
 gsave  408 305 1837 677 C 2230.68 780.596 t 90 r /Helvetica-Bold findfont 19.9758 sf 0 0 m (2) show NC gr  black 1 0.6 1 c
 gsave  408 305 1837 677 C 2242.08 763.503 t 90 r /Symbol findfont 28.5368 sf 0 0 m (c) show NC gr  black 3 lw 1 1 1 c 408 306 23 345 bf black 1 1 1 c black 306 229 84 391 bl 306 229 84 391 bl 84 391 m 306 X s 130 395 m -4 Y s 236 395 m -4 Y s 341
 395 m -4 Y s 130 395 m -4 Y s 341 395 m -4 Y s
 gsave  408 306 23 345 C 108.258 370.356 t 0 r /Helvetica findfont 22.8295 sf 0 0 m (\2550.5) show NC gr 
 gsave  408 306 23 345 C 225.062 370.356 t 0 r /Helvetica findfont 22.8295 sf 0 0 m (0) show NC gr 
 gsave  408 306 23 345 C 321.925 370.356 t 0 r /Helvetica findfont 22.8295 sf 0 0 m (0.5) show NC gr  84 620 m 306 X s 130 616 m 4 Y s 236 616 m 4 Y s 341 616 m 4 Y s 130 616 m 4 Y s 341 616 m 4 Y s 84 391 m 229 Y s 89 407 m -5 X s 87 414 m -3 X s 87
 421 m -3 X s 87 427 m -3 X s 87 434 m -3 X s 89 441 m -5 X s 87 448 m -3 X s 87 455 m -3 X s 87 461 m -3 X s 87 468 m -3 X s 89 475 m -5 X s 87 482 m -3 X s 87 488 m -3 X s 87 495 m -3 X s 87 502 m -3 X s 89 509 m -5 X s 87 516 m -3 X s 87 522 m -3
 X s 87 529 m -3 X s 87 536 m -3 X s 89 543 m -5 X s 87 549 m -3 X s 87 556 m -3 X s 87 563 m -3 X s 87 570 m -3 X s 89 576 m -5 X s 87 583 m -3 X s 87 590 m -3 X s 87 597 m -3 X s 87 604 m -3 X s 89 610 m -5 X s 89 407 m -5 X s 87 400 m -3 X s 87
 394 m -3 X s 89 610 m -5 X s 87 617 m -3 X s
 gsave  408 306 23 345 C 28.4889 398.845 t 0 r /Helvetica findfont 22.8295 sf 0 0 m (\2550.02) show NC gr 
 gsave  408 306 23 345 C 14.2445 433.031 t 0 r /Helvetica findfont 22.8295 sf 0 0 m (\2550.015) show NC gr 
 gsave  408 306 23 345 C 31.3378 467.218 t 0 r /Helvetica findfont 22.8295 sf 0 0 m (\2550.01) show NC gr 
 gsave  408 306 23 345 C 14.2445 501.405 t 0 r /Helvetica findfont 22.8295 sf 0 0 m (\2550.005) show NC gr 
 gsave  408 306 23 345 C 65.5245 535.591 t 0 r /Helvetica findfont 22.8295 sf 0 0 m (0) show NC gr 
 gsave  408 306 23 345 C 22.7911 569.778 t 0 r /Helvetica findfont 22.8295 sf 0 0 m (0.005) show NC gr 
 gsave  408 306 23 345 C 37.0356 603.965 t 0 r /Helvetica findfont 22.8295 sf 0 0 m (0.01) show NC gr  390 391 m 229 Y s 385 407 m 5 X s 387 414 m 3 X s 387 421 m 3 X s 387 427 m 3 X s 387 434 m 3 X s 385 441 m 5 X s 387 448 m 3 X s 387 455 m 3 X s
 387 461 m 3 X s 387 468 m 3 X s 385 475 m 5 X s 387 482 m 3 X s 387 488 m 3 X s 387 495 m 3 X s 387 502 m 3 X s 385 509 m 5 X s 387 516 m 3 X s 387 522 m 3 X s 387 529 m 3 X s 387 536 m 3 X s 385 543 m 5 X s 387 549 m 3 X s 387 556 m 3 X s 387 563 m
 3 X s 387 570 m 3 X s 385 576 m 5 X s 387 583 m 3 X s 387 590 m 3 X s 387 597 m 3 X s 387 604 m 3 X s 385 610 m 5 X s 385 407 m 5 X s 387 400 m 3 X s 387 394 m 3 X s 385 610 m 5 X s 387 617 m 3 X s /w 22 def /w2 {w 2 div} def /w3 {w 3 div} def 109
 483 151 455 194 504 215 497 257 535 278 556 320 485 362 481 8 { m21} R 109 494 m 34 Y s 104 528 m 11 X s 109 471 m -33 Y s 104 438 m 11 X s 151 466 m 34 Y s 146 500 m 11 X s 151 444 m -34 Y s 146 410 m 11 X s 194 516 m 33 Y s 188 549 m 11 X s 194
 493 m -34 Y s 188 459 m 11 X s 215 509 m 33 Y s 209 542 m 11 X s 215 486 m -34 Y s 209 452 m 11 X s 257 546 m 34 Y s 251 580 m 11 X s 257 523 m -33 Y s 251 490 m 11 X s 278 567 m 34 Y s 272 601 m 12 X s 278 544 m -34 Y s 272 510 m 12 X s 320 496 m
 34 Y s 314 530 m 12 X s 320 474 m -34 Y s 314 440 m 12 X s 362 492 m 34 Y s 357 526 m 11 X s 362 470 m -34 Y s 357 436 m 11 X s 1 0 0 c 9 lw 0.95 0.95 0.95 c black 1 0 0 c 85 432 m 3 4 d 4 4 d 3 5 d 3 4 d 3 4 d 3 4 d 3 4 d 3 4 d 3 4 d 3 3 d 3 4 d 3
 3 d 3 4 d 3 3 d 3 3 d 3 3 d 3 3 d 4 3 d 3 3 d 3 3 d 3 2 d 3 3 d 3 2 d 3 3 d 3 2 d 3 2 d 3 2 d 3 2 d 3 2 d 3 2 d 3 2 d 3 1 d 3 2 d 4 1 d 3 1 d 3 2 d 3 1 d 3 1 d 3 1 d 3 1 d 3 1 d 3 X 3 1 d 3 X 3 1 d 6 X 3 1 d 3 X s 235 543 m 4 X 3 -1 d 6 X 3 -1 d 3 X
 3 -1 d 3 X 3 -1 d 3 -1 d 3 -1 d 3 -1 d 3 -1 d 3 -1 d 3 -2 d 3 -1 d 3 -2 d 4 -1 d 3 -2 d 3 -2 d 3 -2 d 3 -2 d 3 -2 d 3 -2 d 3 -2 d 3 -2 d 3 -3 d 3 -2 d 3 -3 d 3 -3 d 3 -2 d 3 -3 d 3 -3 d 4 -3 d 3 -4 d 3 -3 d 3 -3 d 3 -4 d 3 -3 d 3 -4 d 3 -3 d 3 -4 d
 3 -4 d 3 -4 d 3 -4 d 3 -4 d 3 -5 d 3 -4 d 3 -5 d s 385 432 m 4 -4 d s 0.49 0.6 0.82 c black 0.49 0.6 0.82 c
 gsave  408 306 23 345 C 142.445 629.605 t 0 r /Helvetica-Bold findfont 25.6831 sf 0 0 m (5.0 < E < 5.5 GeV) show NC gr  0.52 0.76 0.64 c black 0.52 0.76 0.64 c
 gsave  408 306 23 345 C 122.502 592.569 t 0 r /Helvetica-Bold findfont 25.6831 sf 0 0 m 
 228 214 200 193 178 171 156 149 134 126 119 105 91 77 69 55 47 40 25 17
(A = \2550.032, p = 2.000) K NC gr  1 0.6 1 c black 1 0.6 1 c
 gsave  408 306 23 345 C 427.334 458.671 t 90 r /Helvetica-Bold findfont 28.5368 sf 0 0 m (/dof=0.5) show NC gr  black 1 0.6 1 c
 gsave  408 306 23 345 C 415.938 447.276 t 90 r /Helvetica-Bold findfont 19.9758 sf 0 0 m (2) show NC gr  black 1 0.6 1 c
 gsave  408 306 23 345 C 427.334 430.182 t 90 r /Symbol findfont 28.5368 sf 0 0 m (c) show NC gr  black 3 lw 1 1 1 c 408 306 476 345 bf black 1 1 1 c black 307 229 537 391 bl 307 229 537 391 bl 537 391 m 307 X s 584 395 m -4 Y s 689 395 m -4 Y s 795
 395 m -4 Y s 584 395 m -4 Y s 795 395 m -4 Y s
 gsave  408 306 476 345 C 561.231 370.356 t 0 r /Helvetica findfont 22.8295 sf 0 0 m (\2550.5) show NC gr 
 gsave  408 306 476 345 C 678.036 370.356 t 0 r /Helvetica findfont 22.8295 sf 0 0 m (0) show NC gr 
 gsave  408 306 476 345 C 774.898 370.356 t 0 r /Helvetica findfont 22.8295 sf 0 0 m (0.5) show NC gr  537 620 m 307 X s 584 616 m 4 Y s 689 616 m 4 Y s 795 616 m 4 Y s 584 616 m 4 Y s 795 616 m 4 Y s 537 391 m 229 Y s 543 416 m -6 X s 540 424 m -3 X
 s 540 432 m -3 X s 540 440 m -3 X s 540 448 m -3 X s 543 456 m -6 X s 540 464 m -3 X s 540 472 m -3 X s 540 480 m -3 X s 540 488 m -3 X s 543 496 m -6 X s 540 504 m -3 X s 540 512 m -3 X s 540 520 m -3 X s 540 528 m -3 X s 543 536 m -6 X s 540 544 m
 -3 X s 540 552 m -3 X s 540 560 m -3 X s 540 568 m -3 X s 543 576 m -6 X s 540 584 m -3 X s 540 592 m -3 X s 540 601 m -3 X s 540 609 m -3 X s 543 617 m -6 X s 543 416 m -6 X s 540 408 m -3 X s 540 400 m -3 X s 540 392 m -3 X s 543 617 m -6 X s
 gsave  408 306 476 345 C 481.462 407.391 t 0 r /Helvetica findfont 22.8295 sf 0 0 m (\2550.02) show NC gr 
 gsave  408 306 476 345 C 484.311 450.125 t 0 r /Helvetica findfont 22.8295 sf 0 0 m (\2550.01) show NC gr 
 gsave  408 306 476 345 C 518.498 490.009 t 0 r /Helvetica findfont 22.8295 sf 0 0 m (0) show NC gr 
 gsave  408 306 476 345 C 490.009 529.894 t 0 r /Helvetica findfont 22.8295 sf 0 0 m (0.01) show NC gr 
 gsave  408 306 476 345 C 487.16 569.778 t 0 r /Helvetica findfont 22.8295 sf 0 0 m (0.02) show NC gr 
 gsave  408 306 476 345 C 487.16 609.662 t 0 r /Helvetica findfont 22.8295 sf 0 0 m (0.03) show NC gr  844 391 m 229 Y s 838 416 m 6 X s 841 424 m 3 X s 841 432 m 3 X s 841 440 m 3 X s 841 448 m 3 X s 838 456 m 6 X s 841 464 m 3 X s 841 472 m 3 X s
 841 480 m 3 X s 841 488 m 3 X s 838 496 m 6 X s 841 504 m 3 X s 841 512 m 3 X s 841 520 m 3 X s 841 528 m 3 X s 838 536 m 6 X s 841 544 m 3 X s 841 552 m 3 X s 841 560 m 3 X s 841 568 m 3 X s 838 576 m 6 X s 841 584 m 3 X s 841 592 m 3 X s 841 601 m
 3 X s 841 609 m 3 X s 838 617 m 6 X s 838 416 m 6 X s 841 408 m 3 X s 841 400 m 3 X s 841 392 m 3 X s 838 617 m 6 X s /w 23 def /w2 {w 2 div} def /w3 {w 3 div} def 563 443 605 511 647 539 668 488 710 538 731 462 774 567 816 516 8 { m21} R 563 455 m
 22 Y s 557 477 m 11 X s 563 432 m -22 Y s 557 410 m 11 X s 605 522 m 23 Y s 599 545 m 12 X s 605 500 m -23 Y s 599 477 m 12 X s 647 551 m 22 Y s 641 573 m 12 X s 647 528 m -23 Y s 641 505 m 12 X s 668 500 m 22 Y s 662 522 m 12 X s 668 477 m -22 Y s
 662 455 m 12 X s 710 549 m 22 Y s 705 571 m 11 X s 710 526 m -22 Y s 705 504 m 11 X s 731 474 m 22 Y s 726 496 m 11 X s 731 451 m -22 Y s 726 429 m 11 X s 774 578 m 23 Y s 768 601 m 11 X s 774 556 m -23 Y s 768 533 m 11 X s 816 527 m 23 Y s 810 550
 m 11 X s 816 505 m -23 Y s 810 482 m 11 X s 9 lw 0.95 0.95 0.95 c black 539 462 m 3 X 3 1 d 3 1 d 3 X 3 1 d 3 1 d 3 X 3 1 d 4 1 d 3 1 d 3 X 3 1 d 3 1 d 3 X 3 1 d 3 1 d 3 1 d 3 X 3 1 d 3 1 d 3 X 3 1 d 3 1 d 3 X 4 1 d 3 1 d 3 1 d 3 X 3 1 d 3 1 d 3 X 3
 1 d 3 1 d 3 1 d 3 X 3 1 d 3 1 d 3 X 3 1 d 3 1 d 3 X 4 1 d 3 1 d 3 1 d 3 X 3 1 d 3 1 d 3 X 3 1 d s 689 496 m 3 1 d 3 1 d 3 X 3 1 d 3 1 d 3 X 3 1 d 3 1 d 4 X 3 1 d 3 1 d 3 1 d 3 X 3 1 d 3 1 d 3 X 3 1 d 3 1 d 3 1 d 3 X 3 1 d 3 1 d 3 X 3 1 d 4 1 d 3 X 3
 1 d 3 1 d 3 1 d 3 X 3 1 d 3 1 d 3 X 3 1 d 3 1 d 3 1 d 3 X 3 1 d 3 1 d 3 X 4 1 d 3 1 d 3 X 3 1 d 3 1 d 3 1 d 3 X 3 1 d 3 1 d s 839 531 m 3 X s 0.49 0.6 0.82 c black 0.49 0.6 0.82 c
 gsave  408 306 476 345 C 595.418 629.605 t 0 r /Helvetica-Bold findfont 25.6831 sf 0 0 m (5.5 < E < 6.0 GeV) show NC gr  0.52 0.76 0.64 c black 0.52 0.76 0.64 c
 gsave  408 306 476 345 C 581.174 592.569 t 0 r /Helvetica-Bold findfont 25.6831 sf 0 0 m 
 220 206 192 185 170 163 148 141 125 118 111 97 83 69 61 47 40 25 18
(A = 0.012, p = 1.000) K NC gr  1 0.6 1 c black 1 0.6 1 c
 gsave  408 306 476 345 C 883.156 458.671 t 90 r /Helvetica-Bold findfont 28.5368 sf 0 0 m (/dof=1.3) show NC gr  black 1 0.6 1 c
 gsave  408 306 476 345 C 871.76 447.276 t 90 r /Helvetica-Bold findfont 19.9758 sf 0 0 m (2) show NC gr  black 1 0.6 1 c
 gsave  408 306 476 345 C 883.156 430.182 t 90 r /Symbol findfont 28.5368 sf 0 0 m (c) show NC gr  black 3 lw 1 1 1 c 408 306 930 345 bf black 1 1 1 c black 306 229 991 391 bl 306 229 991 391 bl 991 391 m 306 X s 1037 395 m -4 Y s 1143 395 m -4 Y s
 1248 395 m -4 Y s 1037 395 m -4 Y s 1248 395 m -4 Y s
 gsave  408 306 930 345 C 1017.05 370.356 t 0 r /Helvetica findfont 22.8295 sf 0 0 m (\2550.5) show NC gr 
 gsave  408 306 930 345 C 1133.86 370.356 t 0 r /Helvetica findfont 22.8295 sf 0 0 m (0) show NC gr 
 gsave  408 306 930 345 C 1230.72 370.356 t 0 r /Helvetica findfont 22.8295 sf 0 0 m (0.5) show NC gr  991 620 m 306 X s 1037 616 m 4 Y s 1143 616 m 4 Y s 1248 616 m 4 Y s 1037 616 m 4 Y s 1248 616 m 4 Y s 991 391 m 229 Y s 997 402 m -6 X s 994 410 m
 -3 X s 994 418 m -3 X s 994 427 m -3 X s 994 435 m -3 X s 997 443 m -6 X s 994 452 m -3 X s 994 460 m -3 X s 994 468 m -3 X s 994 477 m -3 X s 997 485 m -6 X s 994 493 m -3 X s 994 502 m -3 X s 994 510 m -3 X s 994 518 m -3 X s 997 527 m -6 X s 994
 535 m -3 X s 994 543 m -3 X s 994 552 m -3 X s 994 560 m -3 X s 997 568 m -6 X s 994 577 m -3 X s 994 585 m -3 X s 994 593 m -3 X s 994 602 m -3 X s 997 610 m -6 X s 997 402 m -6 X s 994 393 m -3 X s 997 610 m -6 X s 994 618 m -3 X s
 gsave  408 306 930 345 C 937.285 395.996 t 0 r /Helvetica findfont 22.8295 sf 0 0 m (\2550.02) show NC gr 
 gsave  408 306 930 345 C 940.134 435.88 t 0 r /Helvetica findfont 22.8295 sf 0 0 m (\2550.01) show NC gr 
 gsave  408 306 930 345 C 974.32 478.614 t 0 r /Helvetica findfont 22.8295 sf 0 0 m (0) show NC gr 
 gsave  408 306 930 345 C 945.832 518.498 t 0 r /Helvetica findfont 22.8295 sf 0 0 m (0.01) show NC gr 
 gsave  408 306 930 345 C 942.983 561.231 t 0 r /Helvetica findfont 22.8295 sf 0 0 m (0.02) show NC gr 
 gsave  408 306 930 345 C 942.983 603.965 t 0 r /Helvetica findfont 22.8295 sf 0 0 m (0.03) show NC gr  1297 391 m 229 Y s 1292 402 m 5 X s 1294 410 m 3 X s 1294 418 m 3 X s 1294 427 m 3 X s 1294 435 m 3 X s 1292 443 m 5 X s 1294 452 m 3 X s 1294 460
 m 3 X s 1294 468 m 3 X s 1294 477 m 3 X s 1292 485 m 5 X s 1294 493 m 3 X s 1294 502 m 3 X s 1294 510 m 3 X s 1294 518 m 3 X s 1292 527 m 5 X s 1294 535 m 3 X s 1294 543 m 3 X s 1294 552 m 3 X s 1294 560 m 3 X s 1292 568 m 5 X s 1294 577 m 3 X s
 1294 585 m 3 X s 1294 593 m 3 X s 1294 602 m 3 X s 1292 610 m 5 X s 1292 402 m 5 X s 1294 393 m 3 X s 1292 610 m 5 X s 1294 618 m 3 X s 1016 452 1058 467 1101 525 1122 509 1164 535 1185 558 1227 519 1269 516 8 { m21} R 1016 464 m 31 Y s 1011 495 m
 11 X s 1016 441 m -31 Y s 1011 410 m 11 X s 1058 478 m 31 Y s 1053 509 m 11 X s 1058 456 m -31 Y s 1053 425 m 11 X s 1101 536 m 32 Y s 1095 568 m 11 X s 1101 514 m -32 Y s 1095 482 m 11 X s 1122 520 m 31 Y s 1116 551 m 11 X s 1122 497 m -31 Y s 1116
 466 m 11 X s 1164 546 m 31 Y s 1158 577 m 12 X s 1164 523 m -31 Y s 1158 492 m 12 X s 1185 570 m 31 Y s 1179 601 m 12 X s 1185 547 m -32 Y s 1179 515 m 12 X s 1227 531 m 31 Y s 1221 562 m 12 X s 1227 508 m -31 Y s 1221 477 m 12 X s 1269 527 m 32 Y s
 1264 559 m 11 X s 1269 505 m -32 Y s 1264 473 m 11 X s 9 lw 0.95 0.95 0.95 c black 993 442 m 3 1 d 3 1 d 3 1 d 3 1 d 3 1 d 3 1 d 3 X 3 1 d 3 1 d 3 1 d 3 1 d 3 1 d 3 1 d 3 1 d 3 X 4 1 d 3 1 d 3 1 d 3 1 d 3 1 d 3 1 d 3 1 d 3 X 3 1 d 3 1 d 3 1 d 3 1 d
 3 1 d 3 1 d 3 X 3 1 d 3 1 d 4 1 d 3 1 d 3 1 d 3 1 d 3 1 d 3 X 3 1 d 3 1 d 3 1 d 3 1 d 3 1 d 3 1 d 3 1 d 3 X 3 1 d 3 1 d 4 1 d s 1143 485 m 3 1 d 3 1 d 3 1 d 3 X 3 1 d 3 1 d 3 1 d 3 1 d 3 1 d 3 1 d 3 1 d 3 X 3 1 d 3 1 d 3 1 d 4 1 d 3 1 d 3 1 d 3 1 d
 3 X 3 1 d 3 1 d 3 1 d 3 1 d 3 1 d 3 1 d 3 X 3 1 d 3 1 d 3 1 d 3 1 d 3 1 d 4 1 d 3 1 d 3 X 3 1 d 3 1 d 3 1 d 3 1 d 3 1 d 3 1 d 3 1 d 3 X 3 1 d 3 1 d 3 1 d 3 1 d 3 1 d 4 1 d s 1293 528 m 3 1 d s 0.49 0.6 0.82 c black 0.49 0.6 0.82 c
 gsave  408 306 930 345 C 1051.24 629.605 t 0 r /Helvetica-Bold findfont 25.6831 sf 0 0 m (6.0 < E < 6.5 GeV) show NC gr  0.52 0.76 0.64 c black 0.52 0.76 0.64 c
 gsave  408 306 930 345 C 1037 592.569 t 0 r /Helvetica-Bold findfont 25.6831 sf 0 0 m 
 220 206 192 185 170 163 148 141 126 118 111 97 83 69 61 47 40 25 18
(A = 0.014, p = 1.000) K NC gr  1 0.6 1 c black 1 0.6 1 c
 gsave  408 306 930 345 C 1336.13 458.671 t 90 r /Helvetica-Bold findfont 28.5368 sf 0 0 m (/dof=0.7) show NC gr  black 1 0.6 1 c
 gsave  408 306 930 345 C 1324.73 447.276 t 90 r /Helvetica-Bold findfont 19.9758 sf 0 0 m (2) show NC gr  black 1 0.6 1 c
 gsave  408 306 930 345 C 1336.13 430.182 t 90 r /Symbol findfont 28.5368 sf 0 0 m (c) show NC gr  black 3 lw 1 1 1 c 408 306 1383 345 bf black 1 1 1 c black 306 229 1445 391 bl 306 229 1445 391 bl 1445 391 m 306 X s 1491 395 m -4 Y s 1596 395 m -4 Y
 s 1702 395 m -4 Y s 1491 395 m -4 Y s 1702 395 m -4 Y s
 gsave  408 306 1383 345 C 1470.03 370.356 t 0 r /Helvetica findfont 22.8295 sf 0 0 m (\2550.5) show NC gr 
 gsave  408 306 1383 345 C 1586.83 370.356 t 0 r /Helvetica findfont 22.8295 sf 0 0 m (0) show NC gr 
 gsave  408 306 1383 345 C 1683.69 370.356 t 0 r /Helvetica findfont 22.8295 sf 0 0 m (0.5) show NC gr  1445 620 m 306 X s 1491 616 m 4 Y s 1596 616 m 4 Y s 1702 616 m 4 Y s 1491 616 m 4 Y s 1702 616 m 4 Y s 1445 391 m 229 Y s 1450 410 m -5 X s 1447
 418 m -2 X s 1447 427 m -2 X s 1447 435 m -2 X s 1447 443 m -2 X s 1450 452 m -5 X s 1447 460 m -2 X s 1447 468 m -2 X s 1447 477 m -2 X s 1447 485 m -2 X s 1450 494 m -5 X s 1447 502 m -2 X s 1447 510 m -2 X s 1447 519 m -2 X s 1447 527 m -2 X s
 1450 536 m -5 X s 1447 544 m -2 X s 1447 552 m -2 X s 1447 561 m -2 X s 1447 569 m -2 X s 1450 577 m -5 X s 1447 586 m -2 X s 1447 594 m -2 X s 1447 603 m -2 X s 1447 611 m -2 X s 1450 619 m -5 X s 1450 410 m -5 X s 1447 401 m -2 X s 1447 393 m -2 X
 s 1450 619 m -5 X s
 gsave  408 306 1383 345 C 1390.26 401.694 t 0 r /Helvetica findfont 22.8295 sf 0 0 m (\2550.03) show NC gr 
 gsave  408 306 1383 345 C 1390.26 444.427 t 0 r /Helvetica findfont 22.8295 sf 0 0 m (\2550.02) show NC gr 
 gsave  408 306 1383 345 C 1393.11 487.16 t 0 r /Helvetica findfont 22.8295 sf 0 0 m (\2550.01) show NC gr 
 gsave  408 306 1383 345 C 1427.29 527.045 t 0 r /Helvetica findfont 22.8295 sf 0 0 m (0) show NC gr 
 gsave  408 306 1383 345 C 1398.81 569.778 t 0 r /Helvetica findfont 22.8295 sf 0 0 m (0.01) show NC gr 
 gsave  408 306 1383 345 C 1395.96 612.511 t 0 r /Helvetica findfont 22.8295 sf 0 0 m (0.02) show NC gr  1751 391 m 229 Y s 1745 410 m 6 X s 1748 418 m 3 X s 1748 427 m 3 X s 1748 435 m 3 X s 1748 443 m 3 X s 1745 452 m 6 X s 1748 460 m 3 X s 1748
 468 m 3 X s 1748 477 m 3 X s 1748 485 m 3 X s 1745 494 m 6 X s 1748 502 m 3 X s 1748 510 m 3 X s 1748 519 m 3 X s 1748 527 m 3 X s 1745 536 m 6 X s 1748 544 m 3 X s 1748 552 m 3 X s 1748 561 m 3 X s 1748 569 m 3 X s 1745 577 m 6 X s 1748 586 m 3 X s
 1748 594 m 3 X s 1748 603 m 3 X s 1748 611 m 3 X s 1745 619 m 6 X s 1745 410 m 6 X s 1748 401 m 3 X s 1748 393 m 3 X s 1745 619 m 6 X s 1470 460 1512 495 1554 523 1575 544 1617 530 1639 541 1681 551 1723 545 8 { m21} R 1470 471 m 39 Y s 1464 510 m
 12 X s 1470 448 m -38 Y s 1464 410 m 12 X s 1512 506 m 38 Y s 1506 544 m 12 X s 1512 483 m -38 Y s 1506 445 m 12 X s 1554 535 m 38 Y s 1548 573 m 12 X s 1554 512 m -39 Y s 1548 473 m 12 X s 1575 555 m 39 Y s 1570 594 m 11 X s 1575 532 m -38 Y s 1570
 494 m 11 X s 1617 541 m 39 Y s 1612 580 m 11 X s 1617 518 m -39 Y s 1612 479 m 11 X s 1639 552 m 39 Y s 1633 591 m 11 X s 1639 530 m -39 Y s 1633 491 m 11 X s 1681 562 m 39 Y s 1675 601 m 11 X s 1681 539 m -39 Y s 1675 500 m 11 X s 1723 557 m 38 Y s
 1717 595 m 12 X s 1723 534 m -39 Y s 1717 495 m 12 X s 9 lw 0.95 0.95 0.95 c black 1446 488 m 3 1 d 3 1 d 3 1 d 3 1 d 3 1 d 3 1 d 3 1 d 4 1 d 3 1 d 3 1 d 3 1 d 3 1 d 3 1 d 3 X 3 1 d 3 1 d 3 1 d 3 1 d 3 1 d 3 1 d 3 1 d 3 1 d 3 1 d 4 1 d 3 1 d 3 1 d 3
 1 d 3 1 d 3 1 d 3 1 d 3 1 d 3 1 d 3 1 d 3 1 d 3 1 d 3 1 d 3 1 d 3 1 d 3 1 d 4 1 d 3 1 d 3 1 d 3 1 d 3 1 d 3 1 d 3 1 d 3 1 d 3 1 d 3 X s 1596 535 m 3 1 d 3 1 d 3 1 d 3 1 d 3 1 d 3 1 d 4 1 d 3 1 d 3 1 d 3 1 d 3 1 d 3 1 d 3 1 d 3 1 d 3 1 d 3 1 d 3 1 d
 3 1 d 3 1 d 3 1 d 3 1 d 3 1 d 3 1 d 4 1 d 3 1 d 3 1 d 3 1 d 3 1 d 3 1 d 3 1 d 3 1 d 3 1 d 3 1 d 3 X 3 1 d 3 1 d 3 1 d 3 1 d 3 1 d 4 1 d 3 1 d 3 1 d 3 1 d 3 1 d 3 1 d 3 1 d 3 1 d 3 1 d 3 1 d s 1746 583 m 3 1 d s 0.49 0.6 0.82 c black 0.49 0.6 0.82 c
 gsave  408 306 1383 345 C 1504.21 629.605 t 0 r /Helvetica-Bold findfont 25.6831 sf 0 0 m (6.5 < E < 7.0 GeV) show NC gr  0.52 0.76 0.64 c black 0.52 0.76 0.64 c
 gsave  408 306 1383 345 C 1489.97 592.569 t 0 r /Helvetica-Bold findfont 25.6831 sf 0 0 m 
 220 206 192 185 170 163 148 141 125 118 111 97 83 68 61 47 40 25 18
(A = 0.016, p = 1.000) K NC gr  1 0.6 1 c black 1 0.6 1 c
 gsave  408 306 1383 345 C 1789.1 458.671 t 90 r /Helvetica-Bold findfont 28.5368 sf 0 0 m (/dof=0.2) show NC gr  black 1 0.6 1 c
 gsave  408 306 1383 345 C 1777.71 447.276 t 90 r /Helvetica-Bold findfont 19.9758 sf 0 0 m (2) show NC gr  black 1 0.6 1 c
 gsave  408 306 1383 345 C 1789.1 430.182 t 90 r /Symbol findfont 28.5368 sf 0 0 m (c) show NC gr  black 3 lw 1 1 1 c 408 306 1837 345 bf black 1 1 1 c black 306 229 1898 391 bl 306 229 1898 391 bl 1898 391 m 306 X s 1944 395 m -4 Y s 2050 395 m -4 Y
 s 2155 395 m -4 Y s 1944 395 m -4 Y s 2155 395 m -4 Y s
 gsave  408 306 1837 345 C 1923 370.356 t 0 r /Helvetica findfont 22.8295 sf 0 0 m (\2550.5) show NC gr 
 gsave  408 306 1837 345 C 2039.81 370.356 t 0 r /Helvetica findfont 22.8295 sf 0 0 m (0) show NC gr 
 gsave  408 306 1837 345 C 2136.67 370.356 t 0 r /Helvetica findfont 22.8295 sf 0 0 m (0.5) show NC gr  1898 620 m 306 X s 1944 616 m 4 Y s 2050 616 m 4 Y s 2155 616 m 4 Y s 1944 616 m 4 Y s 2155 616 m 4 Y s 1898 391 m 229 Y s 1904 394 m -6 X s 1901
 399 m -3 X s 1901 404 m -3 X s 1901 409 m -3 X s 1901 414 m -3 X s 1904 420 m -6 X s 1901 425 m -3 X s 1901 430 m -3 X s 1901 435 m -3 X s 1901 440 m -3 X s 1904 446 m -6 X s 1901 451 m -3 X s 1901 456 m -3 X s 1901 461 m -3 X s 1901 466 m -3 X s
 1904 471 m -6 X s 1901 477 m -3 X s 1901 482 m -3 X s 1901 487 m -3 X s 1901 492 m -3 X s 1904 497 m -6 X s 1901 503 m -3 X s 1901 508 m -3 X s 1901 513 m -3 X s 1901 518 m -3 X s 1904 523 m -6 X s 1901 528 m -3 X s 1901 534 m -3 X s 1901 539 m -3 X
 s 1901 544 m -3 X s 1904 549 m -6 X s 1901 554 m -3 X s 1901 560 m -3 X s 1901 565 m -3 X s 1901 570 m -3 X s 1904 575 m -6 X s 1901 580 m -3 X s 1901 586 m -3 X s 1901 591 m -3 X s 1901 596 m -3 X s 1904 601 m -6 X s 1904 394 m -6 X s 1904 601 m -6
 X s 1901 606 m -3 X s 1901 611 m -3 X s 1901 617 m -3 X s
 gsave  408 306 1837 345 C 1843.23 387.449 t 0 r /Helvetica findfont 22.8295 sf 0 0 m (\2550.04) show NC gr 
 gsave  408 306 1837 345 C 1843.23 413.089 t 0 r /Helvetica findfont 22.8295 sf 0 0 m (\2550.03) show NC gr 
 gsave  408 306 1837 345 C 1843.23 438.729 t 0 r /Helvetica findfont 22.8295 sf 0 0 m (\2550.02) show NC gr 
 gsave  408 306 1837 345 C 1846.08 464.369 t 0 r /Helvetica findfont 22.8295 sf 0 0 m (\2550.01) show NC gr 
 gsave  408 306 1837 345 C 1880.27 490.009 t 0 r /Helvetica findfont 22.8295 sf 0 0 m (0) show NC gr 
 gsave  408 306 1837 345 C 1851.78 515.649 t 0 r /Helvetica findfont 22.8295 sf 0 0 m (0.01) show NC gr 
 gsave  408 306 1837 345 C 1848.93 541.289 t 0 r /Helvetica findfont 22.8295 sf 0 0 m (0.02) show NC gr 
 gsave  408 306 1837 345 C 1848.93 566.929 t 0 r /Helvetica findfont 22.8295 sf 0 0 m (0.03) show NC gr 
 gsave  408 306 1837 345 C 1848.93 592.569 t 0 r /Helvetica findfont 22.8295 sf 0 0 m (0.04) show NC gr  2204 391 m 229 Y s 2199 394 m 5 X s 2201 399 m 3 X s 2201 404 m 3 X s 2201 409 m 3 X s 2201 414 m 3 X s 2199 420 m 5 X s 2201 425 m 3 X s 2201
 430 m 3 X s 2201 435 m 3 X s 2201 440 m 3 X s 2199 446 m 5 X s 2201 451 m 3 X s 2201 456 m 3 X s 2201 461 m 3 X s 2201 466 m 3 X s 2199 471 m 5 X s 2201 477 m 3 X s 2201 482 m 3 X s 2201 487 m 3 X s 2201 492 m 3 X s 2199 497 m 5 X s 2201 503 m 3 X s
 2201 508 m 3 X s 2201 513 m 3 X s 2201 518 m 3 X s 2199 523 m 5 X s 2201 528 m 3 X s 2201 534 m 3 X s 2201 539 m 3 X s 2201 544 m 3 X s 2199 549 m 5 X s 2201 554 m 3 X s 2201 560 m 3 X s 2201 565 m 3 X s 2201 570 m 3 X s 2199 575 m 5 X s 2201 580 m
 3 X s 2201 586 m 3 X s 2201 591 m 3 X s 2201 596 m 3 X s 2199 601 m 5 X s 2199 394 m 5 X s 2199 601 m 5 X s 2201 606 m 3 X s 2201 611 m 3 X s 2201 617 m 3 X s 1923 445 1966 488 2008 484 2029 473 2071 505 2092 565 2134 493 2176 550 8 { m21} R 1923
 456 m 24 Y s 1918 480 m 11 X s 1923 434 m -24 Y s 1918 410 m 11 X s 1966 499 m 24 Y s 1960 523 m 11 X s 1966 476 m -24 Y s 1960 452 m 11 X s 2008 495 m 24 Y s 2002 519 m 11 X s 2008 472 m -23 Y s 2002 449 m 11 X s 2029 485 m 23 Y s 2023 508 m 11 X s
 2029 462 m -24 Y s 2023 438 m 11 X s 2071 517 m 23 Y s 2065 540 m 12 X s 2071 494 m -24 Y s 2065 470 m 12 X s 2092 577 m 24 Y s 2086 601 m 12 X s 2092 554 m -25 Y s 2086 529 m 12 X s 2134 505 m 23 Y s 2129 528 m 11 X s 2134 482 m -24 Y s 2129 458 m
 11 X s 2176 561 m 24 Y s 2171 585 m 11 X s 2176 538 m -24 Y s 2171 514 m 11 X s 9 lw 0.95 0.95 0.95 c black 1900 445 m 3 1 d 3 1 d 3 1 d 3 1 d 3 1 d 3 1 d 3 1 d 3 1 d 3 2 d 3 1 d 3 1 d 3 1 d 3 1 d 3 1 d 4 1 d 3 1 d 3 1 d 3 1 d 3 1 d 3 1 d 3 1 d 3 1
 d 3 1 d 3 2 d 3 1 d 3 1 d 3 1 d 3 1 d 3 1 d 3 1 d 4 1 d 3 1 d 3 1 d 3 1 d 3 1 d 3 1 d 3 1 d 3 2 d 3 1 d 3 1 d 3 1 d 3 1 d 3 1 d 3 1 d 3 1 d 3 1 d 3 1 d 4 1 d 3 1 d s 2050 497 m 3 1 d 3 1 d 3 2 d 3 1 d 3 1 d 3 1 d 3 1 d 3 1 d 3 1 d 3 1 d 3 1 d 3 1 d
 3 1 d 3 1 d 4 1 d 3 1 d 3 1 d 3 2 d 3 1 d 3 1 d 3 1 d 3 1 d 3 1 d 3 1 d 3 1 d 3 1 d 3 1 d 3 1 d 3 1 d 3 1 d 4 1 d 3 2 d 3 1 d 3 1 d 3 1 d 3 1 d 3 1 d 3 1 d 3 1 d 3 1 d 3 1 d 3 1 d 3 1 d 3 1 d 3 1 d 3 1 d 4 2 d 3 1 d 3 1 d s 2200 550 m 3 1 d s 0.49
 0.6 0.82 c black 0.49 0.6 0.82 c
 gsave  408 306 1837 345 C 1957.19 629.605 t 0 r /Helvetica-Bold findfont 25.6831 sf 0 0 m (7.0 < E < 7.5 GeV) show NC gr  0.52 0.76 0.64 c black 0.52 0.76 0.64 c
 gsave  408 306 1837 345 C 1942.94 592.569 t 0 r /Helvetica-Bold findfont 25.6831 sf 0 0 m 
 220 206 192 185 170 163 148 141 126 118 111 97 83 69 61 47 40 25 18
(A = 0.028, p = 1.000) K NC gr  1 0.6 1 c black 1 0.6 1 c
 gsave  408 306 1837 345 C 2242.08 458.671 t 90 r /Helvetica-Bold findfont 28.5368 sf 0 0 m (/dof=0.5) show NC gr  black 1 0.6 1 c
 gsave  408 306 1837 345 C 2230.68 447.276 t 90 r /Helvetica-Bold findfont 19.9758 sf 0 0 m (2) show NC gr  black 1 0.6 1 c
 gsave  408 306 1837 345 C 2242.08 430.182 t 90 r /Symbol findfont 28.5368 sf 0 0 m (c) show NC gr  black 3 lw 1 1 1 c 408 306 23 13 bf black 1 1 1 c black 306 229 84 59 bl 306 229 84 59 bl 84 59 m 306 X s 130 63 m -4 Y s 236 63 m -4 Y s 341 63 m -4
 Y s 130 63 m -4 Y s 341 63 m -4 Y s
 gsave  408 306 23 13 C 108.258 39.8845 t 0 r /Helvetica findfont 22.8295 sf 0 0 m (\2550.5) show NC gr 
 gsave  408 306 23 13 C 225.062 39.8845 t 0 r /Helvetica findfont 22.8295 sf 0 0 m (0) show NC gr 
 gsave  408 306 23 13 C 321.925 39.8845 t 0 r /Helvetica findfont 22.8295 sf 0 0 m (0.5) show NC gr  84 288 m 306 X s 130 284 m 4 Y s 236 284 m 4 Y s 341 284 m 4 Y s 130 284 m 4 Y s 341 284 m 4 Y s 84 59 m 229 Y s 89 68 m -5 X s 87 75 m -3 X s 87 82
 m -3 X s 87 88 m -3 X s 87 95 m -3 X s 89 102 m -5 X s 87 109 m -3 X s 87 116 m -3 X s 87 123 m -3 X s 87 130 m -3 X s 89 137 m -5 X s 87 144 m -3 X s 87 150 m -3 X s 87 157 m -3 X s 87 164 m -3 X s 89 171 m -5 X s 87 178 m -3 X s 87 185 m -3 X s 87
 192 m -3 X s 87 199 m -3 X s 89 206 m -5 X s 87 212 m -3 X s 87 219 m -3 X s 87 226 m -3 X s 87 233 m -3 X s 89 240 m -5 X s 87 247 m -3 X s 87 254 m -3 X s 87 261 m -3 X s 87 268 m -3 X s 89 274 m -5 X s 89 68 m -5 X s 87 61 m -3 X s 89 274 m -5 X
 s 87 281 m -3 X s
 gsave  408 306 23 13 C 28.4889 59.8267 t 0 r /Helvetica findfont 22.8295 sf 0 0 m (\2550.03) show NC gr 
 gsave  408 306 23 13 C 28.4889 94.0134 t 0 r /Helvetica findfont 22.8295 sf 0 0 m (\2550.02) show NC gr 
 gsave  408 306 23 13 C 31.3378 128.2 t 0 r /Helvetica findfont 22.8295 sf 0 0 m (\2550.01) show NC gr 
 gsave  408 306 23 13 C 65.5245 165.236 t 0 r /Helvetica findfont 22.8295 sf 0 0 m (0) show NC gr 
 gsave  408 306 23 13 C 37.0356 199.422 t 0 r /Helvetica findfont 22.8295 sf 0 0 m (0.01) show NC gr 
 gsave  408 306 23 13 C 34.1867 233.609 t 0 r /Helvetica findfont 22.8295 sf 0 0 m (0.02) show NC gr 
 gsave  408 306 23 13 C 34.1867 267.796 t 0 r /Helvetica findfont 22.8295 sf 0 0 m (0.03) show NC gr  390 59 m 229 Y s 385 68 m 5 X s 387 75 m 3 X s 387 82 m 3 X s 387 88 m 3 X s 387 95 m 3 X s 385 102 m 5 X s 387 109 m 3 X s 387 116 m 3 X s 387 123
 m 3 X s 387 130 m 3 X s 385 137 m 5 X s 387 144 m 3 X s 387 150 m 3 X s 387 157 m 3 X s 387 164 m 3 X s 385 171 m 5 X s 387 178 m 3 X s 387 185 m 3 X s 387 192 m 3 X s 387 199 m 3 X s 385 206 m 5 X s 387 212 m 3 X s 387 219 m 3 X s 387 226 m 3 X s
 387 233 m 3 X s 385 240 m 5 X s 387 247 m 3 X s 387 254 m 3 X s 387 261 m 3 X s 387 268 m 3 X s 385 274 m 5 X s 385 68 m 5 X s 387 61 m 3 X s 385 274 m 5 X s 387 281 m 3 X s /w 22 def /w2 {w 2 div} def /w3 {w 3 div} def 109 129 151 140 194 146 215
 168 257 154 278 147 320 217 362 194 8 { m21} R 109 141 m 40 Y s 104 181 m 11 X s 109 118 m -40 Y s 104 78 m 11 X s 151 151 m 40 Y s 146 191 m 11 X s 151 129 m -40 Y s 146 89 m 11 X s 194 157 m 40 Y s 188 197 m 11 X s 194 134 m -39 Y s 188 95 m 11 X
 s 215 179 m 40 Y s 209 219 m 11 X s 215 157 m -40 Y s 209 117 m 11 X s 257 166 m 40 Y s 251 206 m 11 X s 257 143 m -40 Y s 251 103 m 11 X s 278 159 m 39 Y s 272 198 m 12 X s 278 136 m -40 Y s 272 96 m 12 X s 320 229 m 40 Y s 314 269 m 12 X s 320 206
 m -40 Y s 314 166 m 12 X s 362 205 m 41 Y s 357 246 m 11 X s 362 183 m -41 Y s 357 142 m 11 X s 9 lw 0.95 0.95 0.95 c black 85 128 m 3 1 d 4 1 d 3 1 d 3 1 d 3 1 d 3 X 3 1 d 3 1 d 3 1 d 3 1 d 3 1 d 3 1 d 3 1 d 3 X 3 1 d 3 1 d 3 1 d 4 1 d 3 1 d 3 1 d
 3 1 d 3 X 3 1 d 3 1 d 3 1 d 3 1 d 3 1 d 3 1 d 3 1 d 3 X 3 1 d 3 1 d 3 1 d 4 1 d 3 1 d 3 1 d 3 1 d 3 X 3 1 d 3 1 d 3 1 d 3 1 d 3 1 d 3 1 d 3 1 d 3 X 3 1 d 3 1 d 3 1 d s 235 171 m 4 1 d 3 1 d 3 1 d 3 1 d 3 X 3 1 d 3 1 d 3 1 d 3 1 d 3 1 d 3 1 d 3 1 d 3
 X 3 1 d 3 1 d 3 1 d 3 1 d 4 1 d 3 1 d 3 X 3 1 d 3 1 d 3 1 d 3 1 d 3 1 d 3 1 d 3 1 d 3 X 3 1 d 3 1 d 3 1 d 3 1 d 3 1 d 4 1 d 3 1 d 3 X 3 1 d 3 1 d 3 1 d 3 1 d 3 1 d 3 1 d 3 1 d 3 X 3 1 d 3 1 d 3 1 d 3 1 d 3 1 d s 385 214 m 4 1 d s 0.49 0.6 0.82 c
 black 0.49 0.6 0.82 c
 gsave  408 306 23 13 C 142.445 296.285 t 0 r /Helvetica-Bold findfont 25.6831 sf 0 0 m (7.5 < E < 8.0 GeV) show NC gr  0.52 0.76 0.64 c black 0.52 0.76 0.64 c
 gsave  408 306 23 13 C 128.2 259.249 t 0 r /Helvetica-Bold findfont 25.6831 sf 0 0 m 
 220 206 192 185 170 163 148 141 126 118 111 97 83 69 61 47 40 25 18
(A = 0.017, p = 1.000) K NC gr  1 0.6 1 c black 1 0.6 1 c
 gsave  408 306 23 13 C 427.334 128.2 t 90 r /Helvetica-Bold findfont 28.5368 sf 0 0 m (/dof=0.1) show NC gr  black 1 0.6 1 c
 gsave  408 306 23 13 C 415.938 116.804 t 90 r /Helvetica-Bold findfont 19.9758 sf 0 0 m (2) show NC gr  black 1 0.6 1 c
 gsave  408 306 23 13 C 427.334 99.7112 t 90 r /Symbol findfont 28.5368 sf 0 0 m (c) show NC gr  black 3 lw 1 1 1 c 408 306 476 13 bf black 1 1 1 c black 307 229 537 59 bl 307 229 537 59 bl 537 59 m 307 X s 584 63 m -4 Y s 689 63 m -4 Y s 795 63 m -4
 Y s 584 63 m -4 Y s 795 63 m -4 Y s
 gsave  408 306 476 13 C 561.231 39.8845 t 0 r /Helvetica findfont 22.8295 sf 0 0 m (\2550.5) show NC gr 
 gsave  408 306 476 13 C 678.036 39.8845 t 0 r /Helvetica findfont 22.8295 sf 0 0 m (0) show NC gr 
 gsave  408 306 476 13 C 774.898 39.8845 t 0 r /Helvetica findfont 22.8295 sf 0 0 m (0.5) show NC gr  537 288 m 307 X s 584 284 m 4 Y s 689 284 m 4 Y s 795 284 m 4 Y s 584 284 m 4 Y s 795 284 m 4 Y s 537 59 m 229 Y s 543 67 m -6 X s 540 72 m -3 X s
 540 77 m -3 X s 540 82 m -3 X s 540 87 m -3 X s 543 91 m -6 X s 540 96 m -3 X s 540 101 m -3 X s 540 106 m -3 X s 540 111 m -3 X s 543 115 m -6 X s 540 120 m -3 X s 540 125 m -3 X s 540 130 m -3 X s 540 135 m -3 X s 543 139 m -6 X s 540 144 m -3 X s
 540 149 m -3 X s 540 154 m -3 X s 540 159 m -3 X s 543 163 m -6 X s 540 168 m -3 X s 540 173 m -3 X s 540 178 m -3 X s 540 183 m -3 X s 543 188 m -6 X s 540 192 m -3 X s 540 197 m -3 X s 540 202 m -3 X s 540 207 m -3 X s 543 212 m -6 X s 540 216 m
 -3 X s 540 221 m -3 X s 540 226 m -3 X s 540 231 m -3 X s 543 236 m -6 X s 540 240 m -3 X s 540 245 m -3 X s 540 250 m -3 X s 540 255 m -3 X s 543 260 m -6 X s 540 264 m -3 X s 540 269 m -3 X s 540 274 m -3 X s 540 279 m -3 X s 543 284 m -6 X s 543
 67 m -6 X s 540 63 m -3 X s 543 284 m -6 X s
 gsave  408 306 476 13 C 481.462 59.8267 t 0 r /Helvetica findfont 22.8295 sf 0 0 m (\2550.04) show NC gr 
 gsave  408 306 476 13 C 481.462 85.4667 t 0 r /Helvetica findfont 22.8295 sf 0 0 m (\2550.03) show NC gr 
 gsave  408 306 476 13 C 481.462 108.258 t 0 r /Helvetica findfont 22.8295 sf 0 0 m (\2550.02) show NC gr 
 gsave  408 306 476 13 C 484.311 131.049 t 0 r /Helvetica findfont 22.8295 sf 0 0 m (\2550.01) show NC gr 
 gsave  408 306 476 13 C 518.498 156.689 t 0 r /Helvetica findfont 22.8295 sf 0 0 m (0) show NC gr 
 gsave  408 306 476 13 C 490.009 179.48 t 0 r /Helvetica findfont 22.8295 sf 0 0 m (0.01) show NC gr 
 gsave  408 306 476 13 C 487.16 205.12 t 0 r /Helvetica findfont 22.8295 sf 0 0 m (0.02) show NC gr 
 gsave  408 306 476 13 C 487.16 227.911 t 0 r /Helvetica findfont 22.8295 sf 0 0 m (0.03) show NC gr 
 gsave  408 306 476 13 C 487.16 253.551 t 0 r /Helvetica findfont 22.8295 sf 0 0 m (0.04) show NC gr 
 gsave  408 306 476 13 C 487.16 276.342 t 0 r /Helvetica findfont 22.8295 sf 0 0 m (0.05) show NC gr  844 59 m 229 Y s 838 67 m 6 X s 841 72 m 3 X s 841 77 m 3 X s 841 82 m 3 X s 841 87 m 3 X s 838 91 m 6 X s 841 96 m 3 X s 841 101 m 3 X s 841 106 m
 3 X s 841 111 m 3 X s 838 115 m 6 X s 841 120 m 3 X s 841 125 m 3 X s 841 130 m 3 X s 841 135 m 3 X s 838 139 m 6 X s 841 144 m 3 X s 841 149 m 3 X s 841 154 m 3 X s 841 159 m 3 X s 838 163 m 6 X s 841 168 m 3 X s 841 173 m 3 X s 841 178 m 3 X s 841
 183 m 3 X s 838 188 m 6 X s 841 192 m 3 X s 841 197 m 3 X s 841 202 m 3 X s 841 207 m 3 X s 838 212 m 6 X s 841 216 m 3 X s 841 221 m 3 X s 841 226 m 3 X s 841 231 m 3 X s 838 236 m 6 X s 841 240 m 3 X s 841 245 m 3 X s 841 250 m 3 X s 841 255 m 3 X
 s 838 260 m 6 X s 841 264 m 3 X s 841 269 m 3 X s 841 274 m 3 X s 841 279 m 3 X s 838 284 m 6 X s 838 67 m 6 X s 841 63 m 3 X s 838 284 m 6 X s /w 23 def /w2 {w 2 div} def /w3 {w 3 div} def 563 134 605 117 647 139 668 117 710 230 731 140 774 133 816
 222 8 { m21} R 563 145 m 27 Y s 557 172 m 11 X s 563 122 m -27 Y s 557 95 m 11 X s 605 128 m 27 Y s 599 155 m 12 X s 605 105 m -27 Y s 599 78 m 12 X s 647 150 m 27 Y s 641 177 m 12 X s 647 127 m -27 Y s 641 100 m 12 X s 668 129 m 27 Y s 662 156 m 12
 X s 668 106 m -27 Y s 662 79 m 12 X s 710 241 m 28 Y s 705 269 m 11 X s 710 218 m -28 Y s 705 190 m 11 X s 731 151 m 27 Y s 726 178 m 11 X s 731 128 m -27 Y s 726 101 m 11 X s 774 144 m 27 Y s 768 171 m 11 X s 774 122 m -27 Y s 768 95 m 11 X s 816
 233 m 28 Y s 810 261 m 11 X s 816 210 m -28 Y s 810 182 m 11 X s 9 lw 0.95 0.95 0.95 c black 539 120 m 3 1 d 3 1 d 3 X 3 1 d 3 1 d 3 1 d 3 1 d 3 1 d 4 1 d 3 1 d 3 1 d 3 X 3 1 d 3 1 d 3 1 d 3 1 d 3 1 d 3 1 d 3 1 d 3 1 d 3 1 d 3 X 3 1 d 3 1 d 4 1 d 3
 1 d 3 1 d 3 1 d 3 1 d 3 1 d 3 X 3 1 d 3 1 d 3 1 d 3 1 d 3 1 d 3 1 d 3 1 d 3 1 d 3 X 3 1 d 4 1 d 3 1 d 3 1 d 3 1 d 3 1 d 3 1 d 3 1 d 3 X s 689 163 m 3 1 d 3 1 d 3 1 d 3 1 d 3 1 d 3 1 d 3 1 d 3 1 d 4 X 3 1 d 3 1 d 3 1 d 3 1 d 3 1 d 3 1 d 3 1 d 3 1 d 3
 X 3 1 d 3 1 d 3 1 d 3 1 d 3 1 d 3 1 d 4 1 d 3 1 d 3 X 3 1 d 3 1 d 3 1 d 3 1 d 3 1 d 3 1 d 3 1 d 3 1 d 3 X 3 1 d 3 1 d 3 1 d 3 1 d 4 1 d 3 1 d 3 1 d 3 1 d 3 X 3 1 d 3 1 d 3 1 d 3 1 d s 839 207 m 3 1 d s 0.49 0.6 0.82 c black 0.49 0.6 0.82 c
 gsave  408 306 476 13 C 595.418 296.285 t 0 r /Helvetica-Bold findfont 25.6831 sf 0 0 m (8.0 < E < 8.5 GeV) show NC gr  0.52 0.76 0.64 c black 0.52 0.76 0.64 c
 gsave  408 306 476 13 C 581.174 259.249 t 0 r /Helvetica-Bold findfont 25.6831 sf 0 0 m 
 220 206 192 185 170 163 148 141 125 118 111 97 83 69 61 47 40 25 18
(A = 0.026, p = 1.000) K NC gr  1 0.6 1 c black 1 0.6 1 c
 gsave  408 306 476 13 C 883.156 128.2 t 90 r /Helvetica-Bold findfont 28.5368 sf 0 0 m (/dof=1.0) show NC gr  black 1 0.6 1 c
 gsave  408 306 476 13 C 871.76 116.804 t 90 r /Helvetica-Bold findfont 19.9758 sf 0 0 m (2) show NC gr  black 1 0.6 1 c
 gsave  408 306 476 13 C 883.156 99.7112 t 90 r /Symbol findfont 28.5368 sf 0 0 m (c) show NC gr  black 3 lw 1 1 1 c 408 306 930 13 bf black 1 1 1 c black 306 229 991 59 bl 306 229 991 59 bl 991 59 m 306 X s 1037 63 m -4 Y s 1143 63 m -4 Y s 1248 63
 m -4 Y s 1037 63 m -4 Y s 1248 63 m -4 Y s
 gsave  408 306 930 13 C 1017.05 39.8845 t 0 r /Helvetica findfont 22.8295 sf 0 0 m (\2550.5) show NC gr 
 gsave  408 306 930 13 C 1133.86 39.8845 t 0 r /Helvetica findfont 22.8295 sf 0 0 m (0) show NC gr 
 gsave  408 306 930 13 C 1230.72 39.8845 t 0 r /Helvetica findfont 22.8295 sf 0 0 m (0.5) show NC gr  991 288 m 306 X s 1037 284 m 4 Y s 1143 284 m 4 Y s 1248 284 m 4 Y s 1037 284 m 4 Y s 1248 284 m 4 Y s 991 59 m 229 Y s 997 63 m -6 X s 994 74 m -3
 X s 994 86 m -3 X s 994 97 m -3 X s 997 108 m -6 X s 994 120 m -3 X s 994 131 m -3 X s 994 142 m -3 X s 997 154 m -6 X s 994 165 m -3 X s 994 176 m -3 X s 994 187 m -3 X s 997 199 m -6 X s 994 210 m -3 X s 994 221 m -3 X s 994 233 m -3 X s 997 244 m
 -6 X s 997 63 m -6 X s 997 244 m -6 X s 994 255 m -3 X s 994 266 m -3 X s 994 278 m -3 X s
 gsave  408 306 930 13 C 937.285 56.9778 t 0 r /Helvetica findfont 22.8295 sf 0 0 m (\2550.04) show NC gr 
 gsave  408 306 930 13 C 937.285 102.56 t 0 r /Helvetica findfont 22.8295 sf 0 0 m (\2550.02) show NC gr 
 gsave  408 306 930 13 C 974.32 145.293 t 0 r /Helvetica findfont 22.8295 sf 0 0 m (0) show NC gr 
 gsave  408 306 930 13 C 942.983 190.876 t 0 r /Helvetica findfont 22.8295 sf 0 0 m (0.02) show NC gr 
 gsave  408 306 930 13 C 942.983 236.458 t 0 r /Helvetica findfont 22.8295 sf 0 0 m (0.04) show NC gr  1297 59 m 229 Y s 1292 63 m 5 X s 1294 74 m 3 X s 1294 86 m 3 X s 1294 97 m 3 X s 1292 108 m 5 X s 1294 120 m 3 X s 1294 131 m 3 X s 1294 142 m 3 X
 s 1292 154 m 5 X s 1294 165 m 3 X s 1294 176 m 3 X s 1294 187 m 3 X s 1292 199 m 5 X s 1294 210 m 3 X s 1294 221 m 3 X s 1294 233 m 3 X s 1292 244 m 5 X s 1292 63 m 5 X s 1292 244 m 5 X s 1294 255 m 3 X s 1294 266 m 3 X s 1294 278 m 3 X s 1016 172
 1058 117 1101 135 1122 229 1164 165 1185 149 1227 149 1269 168 8 { m21} R 1016 184 m 29 Y s 1011 213 m 11 X s 1016 161 m -29 Y s 1011 132 m 11 X s 1058 129 m 27 Y s 1053 156 m 11 X s 1058 106 m -28 Y s 1053 78 m 11 X s 1101 147 m 27 Y s 1095 174 m
 11 X s 1101 124 m -28 Y s 1095 96 m 11 X s 1122 240 m 29 Y s 1116 269 m 11 X s 1122 217 m -29 Y s 1116 188 m 11 X s 1164 176 m 28 Y s 1158 204 m 12 X s 1164 153 m -28 Y s 1158 125 m 12 X s 1185 161 m 27 Y s 1179 188 m 12 X s 1185 138 m -28 Y s 1179
 110 m 12 X s 1227 161 m 27 Y s 1221 188 m 12 X s 1227 138 m -28 Y s 1221 110 m 12 X s 1269 180 m 28 Y s 1264 208 m 11 X s 1269 157 m -28 Y s 1264 129 m 11 X s 1 0 0 c 9 lw 0.95 0.95 0.95 c black 1 0 0 c 993 162 m 3 X 3 -1 d 6 X 3 -1 d 9 X 3 -1 d 6 X
 3 -1 d 9 X 4 -1 d 12 X 3 -1 d 12 X 3 -1 d 18 X 4 -1 d 49 X s 1143 154 m 49 X 3 1 d 18 X 3 1 d 15 X 3 1 d 10 X 3 1 d 9 X 3 1 d 9 X 3 1 d 6 X 3 1 d 6 X 3 1 d 4 X s 1293 162 m 3 X s 0.49 0.6 0.82 c black 0.49 0.6 0.82 c
 gsave  408 306 930 13 C 1051.24 296.285 t 0 r /Helvetica-Bold findfont 25.6831 sf 0 0 m (8.5 < E < 9.0 GeV) show NC gr  0.52 0.76 0.64 c black 0.52 0.76 0.64 c
 gsave  408 306 930 13 C 1037 259.249 t 0 r /Helvetica-Bold findfont 25.6831 sf 0 0 m 
 220 206 192 185 170 163 148 141 126 118 111 97 83 69 61 47 40 25 18
(A = 0.007, p = 2.000) K NC gr  1 0.6 1 c black 1 0.6 1 c
 gsave  408 306 930 13 C 1336.13 128.2 t 90 r /Helvetica-Bold findfont 28.5368 sf 0 0 m (/dof=0.7) show NC gr  black 1 0.6 1 c
 gsave  408 306 930 13 C 1324.73 116.804 t 90 r /Helvetica-Bold findfont 19.9758 sf 0 0 m (2) show NC gr  black 1 0.6 1 c
 gsave  408 306 930 13 C 1336.13 99.7112 t 90 r /Symbol findfont 28.5368 sf 0 0 m (c) show NC gr  black 3 lw 1 1 1 c 408 306 1383 13 bf black 1 1 1 c black 306 229 1445 59 bl 306 229 1445 59 bl 1445 59 m 306 X s 1491 63 m -4 Y s 1596 63 m -4 Y s 1702
 63 m -4 Y s 1491 63 m -4 Y s 1702 63 m -4 Y s
 gsave  408 306 1383 13 C 1470.03 39.8845 t 0 r /Helvetica findfont 22.8295 sf 0 0 m (\2550.5) show NC gr 
 gsave  408 306 1383 13 C 1586.83 39.8845 t 0 r /Helvetica findfont 22.8295 sf 0 0 m (0) show NC gr 
 gsave  408 306 1383 13 C 1683.69 39.8845 t 0 r /Helvetica findfont 22.8295 sf 0 0 m (0.5) show NC gr  1445 288 m 306 X s 1491 284 m 4 Y s 1596 284 m 4 Y s 1702 284 m 4 Y s 1491 284 m 4 Y s 1702 284 m 4 Y s 1445 59 m 229 Y s 1450 72 m -5 X s 1447 77
 m -2 X s 1447 81 m -2 X s 1447 86 m -2 X s 1447 90 m -2 X s 1450 95 m -5 X s 1447 100 m -2 X s 1447 104 m -2 X s 1447 109 m -2 X s 1447 114 m -2 X s 1450 118 m -5 X s 1447 123 m -2 X s 1447 128 m -2 X s 1447 132 m -2 X s 1447 137 m -2 X s 1450 141 m
 -5 X s 1447 146 m -2 X s 1447 151 m -2 X s 1447 155 m -2 X s 1447 160 m -2 X s 1450 165 m -5 X s 1447 169 m -2 X s 1447 174 m -2 X s 1447 179 m -2 X s 1447 183 m -2 X s 1450 188 m -5 X s 1447 192 m -2 X s 1447 197 m -2 X s 1447 202 m -2 X s 1447 206
 m -2 X s 1450 211 m -5 X s 1447 216 m -2 X s 1447 220 m -2 X s 1447 225 m -2 X s 1447 230 m -2 X s 1450 234 m -5 X s 1447 239 m -2 X s 1447 243 m -2 X s 1447 248 m -2 X s 1447 253 m -2 X s 1450 257 m -5 X s 1447 262 m -2 X s 1447 267 m -2 X s 1447
 271 m -2 X s 1447 276 m -2 X s 1450 281 m -5 X s 1450 72 m -5 X s 1447 67 m -2 X s 1447 63 m -2 X s 1450 281 m -5 X s 1447 285 m -2 X s
 gsave  408 306 1383 13 C 1390.26 65.5245 t 0 r /Helvetica findfont 22.8295 sf 0 0 m (\2550.04) show NC gr 
 gsave  408 306 1383 13 C 1390.26 88.3156 t 0 r /Helvetica findfont 22.8295 sf 0 0 m (\2550.03) show NC gr 
 gsave  408 306 1383 13 C 1390.26 111.107 t 0 r /Helvetica findfont 22.8295 sf 0 0 m (\2550.02) show NC gr 
 gsave  408 306 1383 13 C 1393.11 133.898 t 0 r /Helvetica findfont 22.8295 sf 0 0 m (\2550.01) show NC gr 
 gsave  408 306 1383 13 C 1427.29 156.689 t 0 r /Helvetica findfont 22.8295 sf 0 0 m (0) show NC gr 
 gsave  408 306 1383 13 C 1398.81 179.48 t 0 r /Helvetica findfont 22.8295 sf 0 0 m (0.01) show NC gr 
 gsave  408 306 1383 13 C 1395.96 205.12 t 0 r /Helvetica findfont 22.8295 sf 0 0 m (0.02) show NC gr 
 gsave  408 306 1383 13 C 1395.96 227.911 t 0 r /Helvetica findfont 22.8295 sf 0 0 m (0.03) show NC gr 
 gsave  408 306 1383 13 C 1395.96 250.702 t 0 r /Helvetica findfont 22.8295 sf 0 0 m (0.04) show NC gr 
 gsave  408 306 1383 13 C 1395.96 273.493 t 0 r /Helvetica findfont 22.8295 sf 0 0 m (0.05) show NC gr  1751 59 m 229 Y s 1745 72 m 6 X s 1748 77 m 3 X s 1748 81 m 3 X s 1748 86 m 3 X s 1748 90 m 3 X s 1745 95 m 6 X s 1748 100 m 3 X s 1748 104 m 3 X
 s 1748 109 m 3 X s 1748 114 m 3 X s 1745 118 m 6 X s 1748 123 m 3 X s 1748 128 m 3 X s 1748 132 m 3 X s 1748 137 m 3 X s 1745 141 m 6 X s 1748 146 m 3 X s 1748 151 m 3 X s 1748 155 m 3 X s 1748 160 m 3 X s 1745 165 m 6 X s 1748 169 m 3 X s 1748 174
 m 3 X s 1748 179 m 3 X s 1748 183 m 3 X s 1745 188 m 6 X s 1748 192 m 3 X s 1748 197 m 3 X s 1748 202 m 3 X s 1748 206 m 3 X s 1745 211 m 6 X s 1748 216 m 3 X s 1748 220 m 3 X s 1748 225 m 3 X s 1748 230 m 3 X s 1745 234 m 6 X s 1748 239 m 3 X s
 1748 243 m 3 X s 1748 248 m 3 X s 1748 253 m 3 X s 1745 257 m 6 X s 1748 262 m 3 X s 1748 267 m 3 X s 1748 271 m 3 X s 1748 276 m 3 X s 1745 281 m 6 X s 1745 72 m 6 X s 1748 67 m 3 X s 1748 63 m 3 X s 1745 281 m 6 X s 1748 285 m 3 X s 1470 126 1512
 121 1554 133 1575 159 1617 225 1639 201 1681 129 1723 213 8 { m21} R 1470 137 m 32 Y s 1464 169 m 12 X s 1470 114 m -32 Y s 1464 82 m 12 X s 1512 132 m 32 Y s 1506 164 m 12 X s 1512 110 m -32 Y s 1506 78 m 12 X s 1554 145 m 31 Y s 1548 176 m 12 X s
 1554 122 m -31 Y s 1548 91 m 12 X s 1575 171 m 32 Y s 1570 203 m 11 X s 1575 148 m -32 Y s 1570 116 m 11 X s 1617 236 m 33 Y s 1612 269 m 11 X s 1617 214 m -33 Y s 1612 181 m 11 X s 1639 212 m 32 Y s 1633 244 m 11 X s 1639 189 m -32 Y s 1633 157 m
 11 X s 1681 141 m 31 Y s 1675 172 m 11 X s 1681 118 m -31 Y s 1675 87 m 11 X s 1723 225 m 32 Y s 1717 257 m 12 X s 1723 202 m -32 Y s 1717 170 m 12 X s 9 lw 0.95 0.95 0.95 c black 1446 118 m 3 1 d 3 1 d 3 1 d 3 1 d 3 X 3 1 d 3 1 d 4 1 d 3 1 d 3 1 d
 3 1 d 3 1 d 3 1 d 3 1 d 3 1 d 3 1 d 3 1 d 3 1 d 3 1 d 3 1 d 3 1 d 3 1 d 3 1 d 4 1 d 3 1 d 3 1 d 3 1 d 3 X 3 1 d 3 1 d 3 1 d 3 1 d 3 1 d 3 1 d 3 1 d 3 1 d 3 1 d 3 1 d 3 1 d 4 1 d 3 1 d 3 1 d 3 1 d 3 1 d 3 1 d 3 1 d 3 1 d 3 1 d 3 1 d s 1596 165 m 3 1
 d 3 X 3 1 d 3 1 d 3 1 d 3 1 d 4 1 d 3 1 d 3 1 d 3 1 d 3 1 d 3 1 d 3 1 d 3 1 d 3 1 d 3 1 d 3 1 d 3 1 d 3 1 d 3 1 d 3 1 d 3 1 d 3 1 d 4 1 d 3 X 3 1 d 3 1 d 3 1 d 3 1 d 3 1 d 3 1 d 3 1 d 3 1 d 3 1 d 3 1 d 3 1 d 3 1 d 3 1 d 3 1 d 4 1 d 3 1 d 3 1 d 3 1 d
 3 1 d 3 1 d 3 1 d 3 1 d 3 X 3 1 d s 1746 211 m 3 1 d s 0.49 0.6 0.82 c black 0.49 0.6 0.82 c
 gsave  408 306 1383 13 C 1504.21 296.285 t 0 r /Helvetica-Bold findfont 25.6831 sf 0 0 m (9.0 < E < 9.5 GeV) show NC gr  0.52 0.76 0.64 c black 0.52 0.76 0.64 c
 gsave  408 306 1383 13 C 1489.97 259.249 t 0 r /Helvetica-Bold findfont 25.6831 sf 0 0 m 
 220 206 192 185 170 163 148 141 125 118 111 97 83 68 61 47 40 25 18
(A = 0.028, p = 1.000) K NC gr  1 0.6 1 c black 1 0.6 1 c
 gsave  408 306 1383 13 C 1789.1 128.2 t 90 r /Helvetica-Bold findfont 28.5368 sf 0 0 m (/dof=0.6) show NC gr  black 1 0.6 1 c
 gsave  408 306 1383 13 C 1777.71 116.804 t 90 r /Helvetica-Bold findfont 19.9758 sf 0 0 m (2) show NC gr  black 1 0.6 1 c
 gsave  408 306 1383 13 C 1789.1 99.7112 t 90 r /Symbol findfont 28.5368 sf 0 0 m (c) show NC gr  black 3 lw 1 1 1 c 408 306 1837 13 bf black 1 1 1 c black 306 229 1898 59 bl 306 229 1898 59 bl 1898 59 m 306 X s 1944 63 m -4 Y s 2050 63 m -4 Y s 2155
 63 m -4 Y s 1944 63 m -4 Y s 2155 63 m -4 Y s
 gsave  408 306 1837 13 C 1923 39.8845 t 0 r /Helvetica findfont 22.8295 sf 0 0 m (\2550.5) show NC gr 
 gsave  408 306 1837 13 C 2039.81 39.8845 t 0 r /Helvetica findfont 22.8295 sf 0 0 m (0) show NC gr 
 gsave  408 306 1837 13 C 2136.67 39.8845 t 0 r /Helvetica findfont 22.8295 sf 0 0 m (0.5) show NC gr  1898 288 m 306 X s 1944 284 m 4 Y s 2050 284 m 4 Y s 2155 284 m 4 Y s 1944 284 m 4 Y s 2155 284 m 4 Y s 1898 59 m 229 Y s 1904 69 m -6 X s 1901 74
 m -3 X s 1901 79 m -3 X s 1901 84 m -3 X s 1901 89 m -3 X s 1904 95 m -6 X s 1901 100 m -3 X s 1901 105 m -3 X s 1901 110 m -3 X s 1901 115 m -3 X s 1904 120 m -6 X s 1901 125 m -3 X s 1901 130 m -3 X s 1901 136 m -3 X s 1901 141 m -3 X s 1904 146 m
 -6 X s 1901 151 m -3 X s 1901 156 m -3 X s 1901 161 m -3 X s 1901 166 m -3 X s 1904 171 m -6 X s 1901 177 m -3 X s 1901 182 m -3 X s 1901 187 m -3 X s 1901 192 m -3 X s 1904 197 m -6 X s 1901 202 m -3 X s 1901 207 m -3 X s 1901 213 m -3 X s 1901 218
 m -3 X s 1904 223 m -6 X s 1901 228 m -3 X s 1901 233 m -3 X s 1901 238 m -3 X s 1901 243 m -3 X s 1904 248 m -6 X s 1901 254 m -3 X s 1901 259 m -3 X s 1901 264 m -3 X s 1901 269 m -3 X s 1904 274 m -6 X s 1904 69 m -6 X s 1901 64 m -3 X s 1904 274
 m -6 X s 1901 279 m -3 X s 1901 284 m -3 X s
 gsave  408 306 1837 13 C 1843.23 62.6756 t 0 r /Helvetica findfont 22.8295 sf 0 0 m (\2550.03) show NC gr 
 gsave  408 306 1837 13 C 1843.23 88.3156 t 0 r /Helvetica findfont 22.8295 sf 0 0 m (\2550.02) show NC gr 
 gsave  408 306 1837 13 C 1846.08 113.956 t 0 r /Helvetica findfont 22.8295 sf 0 0 m (\2550.01) show NC gr 
 gsave  408 306 1837 13 C 1880.27 139.596 t 0 r /Helvetica findfont 22.8295 sf 0 0 m (0) show NC gr 
 gsave  408 306 1837 13 C 1851.78 165.236 t 0 r /Helvetica findfont 22.8295 sf 0 0 m (0.01) show NC gr 
 gsave  408 306 1837 13 C 1848.93 190.876 t 0 r /Helvetica findfont 22.8295 sf 0 0 m (0.02) show NC gr 
 gsave  408 306 1837 13 C 1848.93 216.516 t 0 r /Helvetica findfont 22.8295 sf 0 0 m (0.03) show NC gr 
 gsave  408 306 1837 13 C 1848.93 242.156 t 0 r /Helvetica findfont 22.8295 sf 0 0 m (0.04) show NC gr 
 gsave  408 306 1837 13 C 1848.93 267.796 t 0 r /Helvetica findfont 22.8295 sf 0 0 m (0.05) show NC gr  2204 59 m 229 Y s 2199 69 m 5 X s 2201 74 m 3 X s 2201 79 m 3 X s 2201 84 m 3 X s 2201 89 m 3 X s 2199 95 m 5 X s 2201 100 m 3 X s 2201 105 m 3 X
 s 2201 110 m 3 X s 2201 115 m 3 X s 2199 120 m 5 X s 2201 125 m 3 X s 2201 130 m 3 X s 2201 136 m 3 X s 2201 141 m 3 X s 2199 146 m 5 X s 2201 151 m 3 X s 2201 156 m 3 X s 2201 161 m 3 X s 2201 166 m 3 X s 2199 171 m 5 X s 2201 177 m 3 X s 2201 182
 m 3 X s 2201 187 m 3 X s 2201 192 m 3 X s 2199 197 m 5 X s 2201 202 m 3 X s 2201 207 m 3 X s 2201 213 m 3 X s 2201 218 m 3 X s 2199 223 m 5 X s 2201 228 m 3 X s 2201 233 m 3 X s 2201 238 m 3 X s 2201 243 m 3 X s 2199 248 m 5 X s 2201 254 m 3 X s
 2201 259 m 3 X s 2201 264 m 3 X s 2201 269 m 3 X s 2199 274 m 5 X s 2199 69 m 5 X s 2201 64 m 3 X s 2199 274 m 5 X s 2201 279 m 3 X s 2201 284 m 3 X s 1923 132 1966 130 2008 155 2029 156 2071 217 2092 170 2134 149 2176 191 8 { m21} R 1923 144 m 40 Y
 s 1918 184 m 11 X s 1923 121 m -40 Y s 1918 81 m 11 X s 1966 141 m 40 Y s 1960 181 m 11 X s 1966 118 m -40 Y s 1960 78 m 11 X s 2008 166 m 40 Y s 2002 206 m 11 X s 2008 143 m -40 Y s 2002 103 m 11 X s 2029 167 m 41 Y s 2023 208 m 11 X s 2029 145 m
 -41 Y s 2023 104 m 11 X s 2071 228 m 41 Y s 2065 269 m 12 X s 2071 205 m -41 Y s 2065 164 m 12 X s 2092 182 m 40 Y s 2086 222 m 12 X s 2092 159 m -40 Y s 2086 119 m 12 X s 2134 160 m 40 Y s 2129 200 m 11 X s 2134 137 m -39 Y s 2129 98 m 11 X s 2176
 202 m 40 Y s 2171 242 m 11 X s 2176 179 m -40 Y s 2171 139 m 11 X s 9 lw 0.95 0.95 0.95 c black 1900 114 m 3 X 3 1 d 3 1 d 3 X 3 1 d 3 1 d 3 X 3 1 d 3 1 d 3 X 3 1 d 3 1 d 3 X 3 1 d 4 X 3 1 d 3 1 d 3 X 3 1 d 3 1 d 3 X 3 1 d 3 1 d 3 X 3 1 d 3 1 d 3 X
 3 1 d 3 1 d 3 X 4 1 d 3 1 d 3 X 3 1 d 3 1 d 3 X 3 1 d 3 1 d 3 X 3 1 d 3 1 d 3 X 3 1 d 3 1 d 3 X 3 1 d 3 1 d 4 X 3 1 d s 2050 146 m 3 X 3 1 d 3 1 d 3 X 3 1 d 3 1 d 3 X 3 1 d 3 1 d 3 X 3 1 d 3 1 d 3 X 3 1 d 4 1 d 3 X 3 1 d 3 1 d 3 X 3 1 d 3 1 d 3 X 3
 1 d 3 1 d 3 X 3 1 d 3 1 d 3 X 3 1 d 3 1 d 4 X 3 1 d 3 X 3 1 d 3 1 d 3 X 3 1 d 3 1 d 3 X 3 1 d 3 1 d 3 X 3 1 d 3 1 d 3 X 3 1 d 4 1 d 3 X 3 1 d s 2200 178 m 3 1 d s 0.49 0.6 0.82 c black 0.49 0.6 0.82 c
 gsave  408 306 1837 13 C 1948.64 296.285 t 0 r /Helvetica-Bold findfont 25.6831 sf 0 0 m (9.5 < E < 10.0 GeV) show NC gr  0.52 0.76 0.64 c black 0.52 0.76 0.64 c
 gsave  408 306 1837 13 C 1942.94 259.249 t 0 r /Helvetica-Bold findfont 25.6831 sf 0 0 m 
 220 206 192 185 170 163 148 141 126 118 111 97 83 69 61 47 40 25 18
(A = 0.018, p = 1.000) K NC gr  1 0.6 1 c black 1 0.6 1 c
 gsave  408 306 1837 13 C 2242.08 128.2 t 90 r /Helvetica-Bold findfont 28.5368 sf 0 0 m (/dof=0.3) show NC gr  black 1 0.6 1 c
 gsave  408 306 1837 13 C 2230.68 116.804 t 90 r /Helvetica-Bold findfont 19.9758 sf 0 0 m (2) show NC gr  black 1 0.6 1 c
 gsave  408 306 1837 13 C 2242.08 99.7112 t 90 r /Symbol findfont 28.5368 sf 0 0 m (c) show NC gr 
 gr  gr showpage
end
%%EOF
