%!PS-Adobe-2.0 EPSF-2.0
%%BoundingBox:  0 0 567 332
%%Title: DecayPipeOffsetX_far_summary.eps: Summary
%%Creator: ROOT Version 5.30/06
%%CreationDate: Sun Feb  2 09:37:28 2014
%%EndComments
%%BeginProlog
80 dict begin
/s {stroke} def /l {lineto} def /m {moveto} def /t {translate} def
/r {rotate} def /rl {roll}  def /R {repeat} def
/d {rlineto} def /rm {rmoveto} def /gr {grestore} def /f {eofill} def
/c {setrgbcolor} def /black {0 setgray} def /sd {setdash} def
/cl {closepath} def /sf {scalefont setfont} def /lw {setlinewidth} def
/box {m dup 0 exch d exch 0 d 0 exch neg d cl} def
/NC{systemdict begin initclip end}def/C{NC box clip newpath}def
/bl {box s} def /bf {box f} def /Y { 0 exch d} def /X { 0 d} def 
/K {{pop pop 0 moveto} exch kshow} bind def
/ita {/ang 15 def gsave [1 0 ang dup sin exch cos div 1 0 0] concat} def 
/mp {newpath /y exch def /x exch def} def
/side {[w .77 mul w .23 mul] .385 w mul sd w 0 l currentpoint t -144 r} def
/mr {mp x y w2 0 360 arc} def /m24 {mr s} def /m20 {mr f} def
/mb {mp x y w2 add m w2 neg 0 d 0 w neg d w 0 d 0 w d cl} def
/mt {mp x y w2 add m w2 neg w neg d w 0 d cl} def
/m21 {mb f} def /m25 {mb s} def /m22 {mt f} def /m26{mt s} def
/m23 {mp x y w2 sub m w2 w d w neg 0 d cl f} def
/m27 {mp x y w2 add m w3 neg w2 neg d w3 w2 neg d w3 w2 d cl s} def
/m28 {mp x w2 sub y w2 sub w3 add m w3 0 d  0 w3 neg d w3 0 d 0 w3 d w3 0 d  0 w3 d w3 neg 0 d 0 w3 d w3 neg 0 d 0 w3 neg d w3 neg 0 d cl s } def
/m29 {mp gsave x w2 sub y w2 add w3 sub m currentpoint t 4 {side} repeat cl fill gr} def
/m30 {mp gsave x w2 sub y w2 add w3 sub m currentpoint t 4 {side} repeat cl s gr} def
/m31 {mp x y w2 sub m 0 w d x w2 sub y m w 0 d x w2 sub y w2 add m w w neg d x w2 sub y w2 sub m w w d s} def
/m32 {mp x y w2 sub m w2 w d w neg 0 d cl s} def
/m33 {mp x y w2 add m w3 neg w2 neg d w3 w2 neg d w3 w2 d cl f} def
/m34 {mp x w2 sub y w2 sub w3 add m w3 0 d  0 w3 neg d w3 0 d 0 w3 d w3 0 d  0 w3 d w3 neg 0 d 0 w3 d w3 neg 0 d 0 w3 neg d w3 neg 0 d cl f } def
/m2 {mp x y w2 sub m 0 w d x w2 sub y m w 0 d s} def
/m5 {mp x w2 sub y w2 sub m w w d x w2 sub y w2 add m w w neg d s} def
/reEncode {exch findfont dup length dict begin {1 index /FID eq  {pop pop} {def} ifelse } forall /Encoding exch def currentdict end dup /FontName get exch definefont pop } def [/Times-Bold /Times-Italic /Times-BoldItalic /Helvetica /Helvetica-Oblique
 /Helvetica-Bold /Helvetica-BoldOblique /Courier /Courier-Oblique /Courier-Bold /Courier-BoldOblique /Times-Roman /AvantGarde-Book /AvantGarde-BookOblique /AvantGarde-Demi /AvantGarde-DemiOblique /Bookman-Demi /Bookman-DemiItalic /Bookman-Light
 /Bookman-LightItalic /Helvetica-Narrow /Helvetica-Narrow-Bold /Helvetica-Narrow-BoldOblique /Helvetica-Narrow-Oblique /NewCenturySchlbk-Roman /NewCenturySchlbk-Bold /NewCenturySchlbk-BoldItalic /NewCenturySchlbk-Italic /Palatino-Bold
 /Palatino-BoldItalic /Palatino-Italic /Palatino-Roman ] {ISOLatin1Encoding reEncode } forall%%EndProlog
%%BeginSetup
%%EndSetup
newpath  gsave  .25 .25 scale  gsave  0 0 t black[  ] 0 sd 3 lw 1 1 1 c 2268 1328 0 0 bf black 1 1 1 c black 1588 996 340 199 bl 1588 996 340 199 bl 1 1 1 c 1 0 0 c /w 23 def /w2 {w 2 div} def /w3 {w 3 div} def 380 252 m21 459 251 m21 539 252 m21 618
 251 m21 697 253 m21 777 251 m21 856 252 m21 935 252 m21 1015 251 m21 1094 249 m21 1174 251 m21 1253 254 m21 1332 250 m21 1412 244 m21 1491 255 m21 1570 255 m21 1650 227 m21 1729 254 m21 1809 245 m21 1888 269 m21 black 340 199 m 1588 X s
 gsave  2268 1328 0 0 C 954.378 68.3734 t 0 r /Helvetica findfont 62.6756 sf 0 0 m ( Energy \(GeV\) ) show NC gr 
 gsave  2268 1328 0 0 C 928.738 51.28 t 0 r /Symbol findfont 42.7334 sf 0 0 m (m) show NC gr 
 gsave  2268 1328 0 0 C 894.552 68.3734 t 0 r /Symbol findfont 62.6756 sf 0 0 m (n) show NC gr  340 216 m -17 Y s 372 208 m -9 Y s 404 208 m -9 Y s 435 208 m -9 Y s 467 208 m -9 Y s 499 216 m -17 Y s 531 208 m -9 Y s 562 208 m -9 Y s 594 208 m -9 Y s
 626 208 m -9 Y s 658 216 m -17 Y s 689 208 m -9 Y s 721 208 m -9 Y s 753 208 m -9 Y s 785 208 m -9 Y s 816 216 m -17 Y s 848 208 m -9 Y s 880 208 m -9 Y s 912 208 m -9 Y s 943 208 m -9 Y s 975 216 m -17 Y s 1007 208 m -9 Y s 1039 208 m -9 Y s 1070
 208 m -9 Y s 1102 208 m -9 Y s 1134 216 m -17 Y s 1166 208 m -9 Y s 1197 208 m -9 Y s 1229 208 m -9 Y s 1261 208 m -9 Y s 1293 216 m -17 Y s 1324 208 m -9 Y s 1356 208 m -9 Y s 1388 208 m -9 Y s 1420 208 m -9 Y s 1451 216 m -17 Y s 1483 208 m -9 Y s
 1515 208 m -9 Y s 1547 208 m -9 Y s 1578 208 m -9 Y s 1610 216 m -17 Y s 1642 208 m -9 Y s 1674 208 m -9 Y s 1705 208 m -9 Y s 1737 208 m -9 Y s 1769 216 m -17 Y s 1801 208 m -9 Y s 1832 208 m -9 Y s 1864 208 m -9 Y s 1896 208 m -9 Y s 1928 216 m
 -17 Y s
 gsave  2268 1328 0 0 C 319.076 136.747 t 0 r /Helvetica findfont 68.3734 sf 0 0 m (0) show NC gr 
 gsave  2268 1328 0 0 C 484.311 136.747 t 0 r /Helvetica findfont 68.3734 sf 0 0 m (1) show NC gr 
 gsave  2268 1328 0 0 C 635.302 136.747 t 0 r /Helvetica findfont 68.3734 sf 0 0 m (2) show NC gr 
 gsave  2268 1328 0 0 C 794.84 136.747 t 0 r /Helvetica findfont 68.3734 sf 0 0 m (3) show NC gr 
 gsave  2268 1328 0 0 C 954.378 136.747 t 0 r /Helvetica findfont 68.3734 sf 0 0 m (4) show NC gr 
 gsave  2268 1328 0 0 C 1113.92 136.747 t 0 r /Helvetica findfont 68.3734 sf 0 0 m (5) show NC gr 
 gsave  2268 1328 0 0 C 1270.6 136.747 t 0 r /Helvetica findfont 68.3734 sf 0 0 m (6) show NC gr 
 gsave  2268 1328 0 0 C 1430.14 136.747 t 0 r /Helvetica findfont 68.3734 sf 0 0 m (7) show NC gr 
 gsave  2268 1328 0 0 C 1589.68 136.747 t 0 r /Helvetica findfont 68.3734 sf 0 0 m (8) show NC gr 
 gsave  2268 1328 0 0 C 1746.37 136.747 t 0 r /Helvetica findfont 68.3734 sf 0 0 m (9) show NC gr 
 gsave  2268 1328 0 0 C 1888.81 136.747 t 0 r /Helvetica findfont 68.3734 sf 0 0 m (10) show NC gr  340 1195 m 1588 X s 340 1178 m 17 Y s 372 1186 m 9 Y s 404 1186 m 9 Y s 435 1186 m 9 Y s 467 1186 m 9 Y s 499 1178 m 17 Y s 531 1186 m 9 Y s 562 1186
 m 9 Y s 594 1186 m 9 Y s 626 1186 m 9 Y s 658 1178 m 17 Y s 689 1186 m 9 Y s 721 1186 m 9 Y s 753 1186 m 9 Y s 785 1186 m 9 Y s 816 1178 m 17 Y s 848 1186 m 9 Y s 880 1186 m 9 Y s 912 1186 m 9 Y s 943 1186 m 9 Y s 975 1178 m 17 Y s 1007 1186 m 9 Y s
 1039 1186 m 9 Y s 1070 1186 m 9 Y s 1102 1186 m 9 Y s 1134 1178 m 17 Y s 1166 1186 m 9 Y s 1197 1186 m 9 Y s 1229 1186 m 9 Y s 1261 1186 m 9 Y s 1293 1178 m 17 Y s 1324 1186 m 9 Y s 1356 1186 m 9 Y s 1388 1186 m 9 Y s 1420 1186 m 9 Y s 1451 1178 m
 17 Y s 1483 1186 m 9 Y s 1515 1186 m 9 Y s 1547 1186 m 9 Y s 1578 1186 m 9 Y s 1610 1178 m 17 Y s 1642 1186 m 9 Y s 1674 1186 m 9 Y s 1705 1186 m 9 Y s 1737 1186 m 9 Y s 1769 1178 m 17 Y s 1801 1186 m 9 Y s 1832 1186 m 9 Y s 1864 1186 m 9 Y s 1896
 1186 m 9 Y s 1928 1178 m 17 Y s 340 199 m 996 Y s
 gsave  2268 1328 0 0 C 170.933 427.334 t 90 r /Helvetica findfont 62.6756 sf 0 0 m (Far Flux to Nominal) show NC gr  371 252 m -31 X s 355 273 m -15 X s 355 293 m -15 X s 355 314 m -15 X s 355 335 m -15 X s 371 356 m -31 X s 355 377 m -15 X s 355
 398 m -15 X s 355 419 m -15 X s 355 440 m -15 X s 371 461 m -31 X s 355 482 m -15 X s 355 503 m -15 X s 355 524 m -15 X s 355 545 m -15 X s 371 566 m -31 X s 355 587 m -15 X s 355 608 m -15 X s 355 629 m -15 X s 355 650 m -15 X s 371 671 m -31 X s
 355 692 m -15 X s 355 713 m -15 X s 355 734 m -15 X s 355 755 m -15 X s 371 776 m -31 X s 355 797 m -15 X s 355 818 m -15 X s 355 838 m -15 X s 355 859 m -15 X s 371 880 m -31 X s 355 901 m -15 X s 355 922 m -15 X s 355 943 m -15 X s 355 964 m -15 X
 s 371 985 m -31 X s 355 1006 m -15 X s 355 1027 m -15 X s 355 1048 m -15 X s 355 1069 m -15 X s 371 1090 m -31 X s 355 1111 m -15 X s 355 1132 m -15 X s 355 1153 m -15 X s 355 1174 m -15 X s 371 1195 m -31 X s 371 252 m -31 X s 355 231 m -15 X s 355
 210 m -15 X s
 gsave  2268 1328 0 0 C 301.982 225.062 t 0 r /Helvetica findfont 68.3734 sf 0 0 m (1) show NC gr 
 gsave  2268 1328 0 0 C 245.005 330.471 t 0 r /Helvetica findfont 68.3734 sf 0 0 m (1.1) show NC gr 
 gsave  2268 1328 0 0 C 233.609 433.031 t 0 r /Helvetica findfont 68.3734 sf 0 0 m (1.2) show NC gr 
 gsave  2268 1328 0 0 C 233.609 541.289 t 0 r /Helvetica findfont 68.3734 sf 0 0 m (1.3) show NC gr 
 gsave  2268 1328 0 0 C 233.609 643.849 t 0 r /Helvetica findfont 68.3734 sf 0 0 m (1.4) show NC gr 
 gsave  2268 1328 0 0 C 233.609 752.107 t 0 r /Helvetica findfont 68.3734 sf 0 0 m (1.5) show NC gr 
 gsave  2268 1328 0 0 C 233.609 857.516 t 0 r /Helvetica findfont 68.3734 sf 0 0 m (1.6) show NC gr 
 gsave  2268 1328 0 0 C 233.609 957.227 t 0 r /Helvetica findfont 68.3734 sf 0 0 m (1.7) show NC gr 
 gsave  2268 1328 0 0 C 233.609 1065.48 t 0 r /Helvetica findfont 68.3734 sf 0 0 m (1.8) show NC gr 
 gsave  2268 1328 0 0 C 233.609 1170.89 t 0 r /Helvetica findfont 68.3734 sf 0 0 m (1.9) show NC gr  1928 199 m 996 Y s 1897 252 m 31 X s 1912 273 m 16 X s 1912 293 m 16 X s 1912 314 m 16 X s 1912 335 m 16 X s 1897 356 m 31 X s 1912 377 m 16 X s 1912
 398 m 16 X s 1912 419 m 16 X s 1912 440 m 16 X s 1897 461 m 31 X s 1912 482 m 16 X s 1912 503 m 16 X s 1912 524 m 16 X s 1912 545 m 16 X s 1897 566 m 31 X s 1912 587 m 16 X s 1912 608 m 16 X s 1912 629 m 16 X s 1912 650 m 16 X s 1897 671 m 31 X s
 1912 692 m 16 X s 1912 713 m 16 X s 1912 734 m 16 X s 1912 755 m 16 X s 1897 776 m 31 X s 1912 797 m 16 X s 1912 818 m 16 X s 1912 838 m 16 X s 1912 859 m 16 X s 1897 880 m 31 X s 1912 901 m 16 X s 1912 922 m 16 X s 1912 943 m 16 X s 1912 964 m 16 X
 s 1897 985 m 31 X s 1912 1006 m 16 X s 1912 1027 m 16 X s 1912 1048 m 16 X s 1912 1069 m 16 X s 1897 1090 m 31 X s 1912 1111 m 16 X s 1912 1132 m 16 X s 1912 1153 m 16 X s 1912 1174 m 16 X s 1897 1195 m 31 X s 1897 252 m 31 X s 1912 231 m 16 X s
 1912 210 m 16 X s 1 0 0 c 6 lw 1 1 1 c 1 0 0 c 380 252 m 969 X 5 -1 d 90 X 13 1 d 84 X 20 -1 d 309 X 4 1 d 14 X s 3 lw /w 2 def /w2 {w 2 div} def /w3 {w 3 div} def 380 252 459 252 539 252 618 252 697 252 777 252 856 252 935 252 1015 252 1094 252
 1174 252 1253 252 1332 252 1412 251 1491 252 1570 251 1650 251 1729 251 1809 251 1888 252 20 { m20} R 6 lw black 1 0 0 c
 gsave  2268 1328 0 0 C 2036.96 227.911 t 0 r /Helvetica-Bold findfont 48.4311 sf 0 0 m (/dof=0.9) show NC gr  black 1 0 0 c
 gsave  2268 1328 0 0 C 2017.01 245.005 t 0 r /Helvetica-Bold findfont 34.1867 sf 0 0 m (2) show NC gr  black 1 0 0 c
 gsave  2268 1328 0 0 C 1991.37 227.911 t 0 r /Symbol findfont 48.4311 sf 0 0 m (c) show NC gr  black 3 lw 340 252 m 1588 X s
 gsave  2268 1328 0 0 C 170.933 1213.63 t 0 r /Helvetica-Bold findfont 42.7334 sf 0 0 m (20 ) show NC gr  1 0 0 c /w 23 def /w2 {w 2 div} def /w3 {w 3 div} def 131 1228 m21 black 1 1 1 c 0 0 1 c 380 356 m21 459 357 m21 539 357 m21 618 355 m21 697 352
 m21 777 356 m21 856 357 m21 935 355 m21 1015 354 m21 1094 354 m21 1174 359 m21 1253 352 m21 1332 366 m21 1412 350 m21 1491 367 m21 1570 357 m21 1650 348 m21 1729 359 m21 1809 359 m21 black 1888 335 m s 1888 358 m 1 Y s 1882 335 m 12 X s 1882 359 m
 12 X s 0 0 1 c 1888 347 m21 6 lw 1 1 1 c 0 0 1 c 380 356 m 1082 X 4 1 d 62 X 6 -1 d 85 X 4 -1 d 50 X 4 1 d 211 X s 3 lw /w 2 def /w2 {w 2 div} def /w3 {w 3 div} def 380 356 459 356 539 356 618 356 697 356 777 356 856 356 935 356 1015 356 1094 356
 1174 356 1253 356 1332 356 1412 356 1491 357 1570 356 1650 355 1729 356 1809 356 1888 356 20 { m20} R 6 lw black 0 0 1 c
 gsave  2268 1328 0 0 C 2036.96 339.018 t 0 r /Helvetica-Bold findfont 48.4311 sf 0 0 m (/dof=1.0) show NC gr  black 0 0 1 c
 gsave  2268 1328 0 0 C 2017.01 356.111 t 0 r /Helvetica-Bold findfont 34.1867 sf 0 0 m (2) show NC gr  black 0 0 1 c
 gsave  2268 1328 0 0 C 1991.37 339.018 t 0 r /Symbol findfont 48.4311 sf 0 0 m (c) show NC gr  black 3 lw 340 356 m 1588 X s
 gsave  2268 1328 0 0 C 373.205 1213.63 t 0 r /Helvetica-Bold findfont 42.7334 sf 0 0 m (40 ) show NC gr  0 0 1 c /w 23 def /w2 {w 2 div} def /w3 {w 3 div} def 332 1228 m21 black 1 1 1 c 1 0 1 c 380 462 m21 459 460 m21 539 461 m21 618 462 m21 697 460
 m21 777 458 m21 856 460 m21 935 463 m21 1015 459 m21 1094 464 m21 1174 471 m21 1253 471 m21 1332 461 m21 1412 454 m21 1491 486 m21 1570 458 m21 1650 448 m21 1729 449 m21 black 1809 442 m 1 Y s 1809 466 m s 1803 442 m 11 X s 1803 466 m 11 X s 1 0 1 c
 1809 454 m21 black 1888 462 m 2 Y s 1888 487 m 2 Y s 1882 462 m 12 X s 1882 489 m 12 X s 1 0 1 c 1888 475 m21 6 lw 1 1 1 c 1 0 1 c 380 461 m 1003 X 4 -1 d 39 X 3 1 d 40 X 3 1 d 51 X 5 -1 d 56 X 6 -1 d 126 X 3 1 d 35 X 7 -1 d 79 X 5 1 d 43 X s 3 lw
 /w 2 def /w2 {w 2 div} def /w3 {w 3 div} def 380 461 459 461 539 461 618 461 697 461 777 461 856 461 935 461 1015 461 1094 461 1174 461 1253 461 1332 461 1412 460 1491 462 1570 461 1650 460 1729 461 1809 460 1888 461 20 { m20} R 6 lw black 1 0 1 c
 gsave  2268 1328 0 0 C 2036.96 450.125 t 0 r /Helvetica-Bold findfont 48.4311 sf 0 0 m (/dof=1.3) show NC gr  black 1 0 1 c
 gsave  2268 1328 0 0 C 2017.01 467.218 t 0 r /Helvetica-Bold findfont 34.1867 sf 0 0 m (2) show NC gr  black 1 0 1 c
 gsave  2268 1328 0 0 C 1991.37 450.125 t 0 r /Symbol findfont 48.4311 sf 0 0 m (c) show NC gr  black 3 lw 340 461 m 1588 X s
 gsave  2268 1328 0 0 C 575.476 1213.63 t 0 r /Helvetica-Bold findfont 42.7334 sf 0 0 m (60 ) show NC gr  1 0 1 c /w 23 def /w2 {w 2 div} def /w3 {w 3 div} def 534 1228 m21 black 1 1 1 c 0 0.733333 1 c 380 566 m21 459 566 m21 539 566 m21 618 565 m21
 697 565 m21 777 565 m21 856 566 m21 935 569 m21 1015 566 m21 1094 566 m21 1174 565 m21 1253 572 m21 1332 575 m21 1412 567 m21 1491 573 m21 1570 562 m21 1650 547 m21 black 1729 538 m 1 Y s 1729 562 m 1 Y s 1723 538 m 12 X s 1723 563 m 12 X s 0
 0.733333 1 c 1729 550 m21 black 1809 570 m 2 Y s 1809 595 m 2 Y s 1803 570 m 11 X s 1803 597 m 11 X s 0 0.733333 1 c 1809 583 m21 black 1888 551 m 3 Y s 1888 577 m 2 Y s 1882 551 m 12 X s 1882 579 m 12 X s 0 0.733333 1 c 1888 565 m21 6 lw 1 1 1 c 0
 0.733333 1 c 380 566 m 343 X 54 -1 d 111 X 47 1 d 425 X 18 -1 d 62 X 4 1 d 25 X 3 1 d 46 X 5 -1 d 38 X 5 -1 d 24 X 18 -1 d 79 X 12 1 d 162 X 4 1 d 23 X s 3 lw /w 2 def /w2 {w 2 div} def /w3 {w 3 div} def 380 566 459 566 539 566 618 566 697 566 777
 565 856 565 935 566 1015 566 1094 566 1174 566 1253 566 1332 566 1412 565 1491 567 1570 565 1650 564 1729 565 1809 565 1888 566 20 { m20} R 6 lw black 0 0.733333 1 c
 gsave  2268 1328 0 0 C 2036.96 558.382 t 0 r /Helvetica-Bold findfont 48.4311 sf 0 0 m (/dof=0.6) show NC gr  black 0 0.733333 1 c
 gsave  2268 1328 0 0 C 2017.01 575.476 t 0 r /Helvetica-Bold findfont 34.1867 sf 0 0 m (2) show NC gr  black 0 0.733333 1 c
 gsave  2268 1328 0 0 C 1991.37 558.382 t 0 r /Symbol findfont 48.4311 sf 0 0 m (c) show NC gr  black 3 lw 340 566 m 1588 X s
 gsave  2268 1328 0 0 C 777.747 1213.63 t 0 r /Helvetica-Bold findfont 42.7334 sf 0 0 m (80 ) show NC gr  0 0.733333 1 c /w 23 def /w2 {w 2 div} def /w3 {w 3 div} def 735 1228 m21 black 1 1 1 c 0.35 0.83 0.33 c 380 673 m21 459 669 m21 539 669 m21 618
 668 m21 697 668 m21 777 672 m21 856 671 m21 935 671 m21 1015 668 m21 1094 674 m21 1174 672 m21 1253 676 m21 1332 670 m21 1412 675 m21 1491 682 m21 black 1570 662 m s 1570 685 m s 1565 662 m 11 X s 1565 685 m 11 X s 0.35 0.83 0.33 c 1570 673 m21
 black 1650 655 m 1 Y s 1650 679 m 1 Y s 1644 655 m 11 X s 1644 680 m 11 X s 0.35 0.83 0.33 c 1650 668 m21 black 1729 658 m 2 Y s 1729 682 m 2 Y s 1723 658 m 12 X s 1723 684 m 12 X s 0.35 0.83 0.33 c 1729 671 m21 black 1809 669 m 3 Y s 1809 695 m 3 Y
 s 1803 669 m 11 X s 1803 698 m 11 X s 0.35 0.83 0.33 c 1809 684 m21 black 1888 654 m 4 Y s 1888 681 m 3 Y s 1882 654 m 12 X s 1882 684 m 12 X s 0.35 0.83 0.33 c 1888 669 m21 6 lw 1 1 1 c 0.35 0.83 0.33 c 380 671 m 16 X 17 -1 d 654 X 20 1 d 257 X 5
 -1 d 34 X 4 -1 d 39 X 3 1 d 15 X 13 1 d 12 X 3 1 d 46 X 5 -1 d 18 X 20 -1 d 23 X 6 -1 d 18 X 5 -1 d 74 X 12 1 d 17 X 3 1 d 35 X 7 -1 d 79 X 5 1 d 25 X 4 1 d 14 X s 3 lw /w 2 def /w2 {w 2 div} def /w3 {w 3 div} def 380 671 459 670 539 670 618 670 697
 670 777 670 856 670 935 670 1015 670 1094 671 1174 671 1253 671 1332 671 1412 669 1491 672 1570 670 1650 668 1729 670 1809 669 1888 671 20 { m20} R 6 lw black 0.35 0.83 0.33 c
 gsave  2268 1328 0 0 C 2036.96 669.489 t 0 r /Helvetica-Bold findfont 48.4311 sf 0 0 m (/dof=0.6) show NC gr  black 0.35 0.83 0.33 c
 gsave  2268 1328 0 0 C 2017.01 686.583 t 0 r /Helvetica-Bold findfont 34.1867 sf 0 0 m (2) show NC gr  black 0.35 0.83 0.33 c
 gsave  2268 1328 0 0 C 1991.37 669.489 t 0 r /Symbol findfont 48.4311 sf 0 0 m (c) show NC gr  black 3 lw 340 671 m 1588 X s
 gsave  2268 1328 0 0 C 977.169 1213.63 t 0 r /Helvetica-Bold findfont 42.7334 sf 0 0 m (100 ) show NC gr  0.35 0.83 0.33 c /w 23 def /w2 {w 2 div} def /w3 {w 3 div} def 937 1228 m21 black 1 1 1 c 0.53 0.4 0.34 c 380 774 m21 459 773 m21 539 771 m21
 618 765 m21 697 764 m21 777 767 m21 856 762 m21 935 771 m21 1015 769 m21 1094 775 m21 1174 778 m21 1253 785 m21 1332 780 m21 1412 771 m21 black 1491 778 m s 1491 801 m s 1485 778 m 12 X s 1485 801 m 12 X s 0.53 0.4 0.34 c 1491 790 m21 black 1570 768
 m 1 Y s 1570 792 m 1 Y s 1565 768 m 11 X s 1565 793 m 11 X s 0.53 0.4 0.34 c 1570 780 m21 black 1650 731 m 2 Y s 1650 756 m 2 Y s 1644 731 m 11 X s 1644 758 m 11 X s 0.53 0.4 0.34 c 1650 744 m21 black 1729 735 m 3 Y s 1729 761 m 3 Y s 1723 735 m 12
 X s 1723 764 m 12 X s 0.53 0.4 0.34 c 1729 749 m21 black 1809 751 m 4 Y s 1809 778 m 4 Y s 1803 751 m 11 X s 1803 782 m 11 X s 0.53 0.4 0.34 c 1809 767 m21 black 1888 793 m 6 Y s 1888 822 m 6 Y s 1882 793 m 12 X s 1882 828 m 12 X s 0.53 0.4 0.34 c
 1888 810 m21 6 lw 1 1 1 c 0.53 0.4 0.34 c 380 775 m 9 -1 d 11 -1 d 9 X 9 -1 d 10 X 10 -1 d 21 X 8 -1 d 48 X 18 -1 d 6 X 52 -1 d 198 X 38 -1 d 55 X 10 1 d 16 X 23 1 d 22 X 41 2 d 21 X 25 1 d 21 1 d 33 X 10 1 d 90 X 35 1 d 34 X 21 1 d 44 X 4 -1 d 16 X
 5 -1 d 6 X 21 -2 d 5 -1 d 18 X 3 -1 d 3 X 3 1 d 14 X 3 1 d 7 X 4 1 d 4 1 d 13 2 d 5 1 d 4 X 3 1 d 9 X 3 1 d 29 X 4 -1 d 9 X 5 -1 d 6 X 7 -1 d 20 -2 d 5 X 4 -1 d 5 X 4 -1 d 5 X 6 -1 d 18 -2 d 5 -1 d 6 -1 d 8 X 3 -1 d 17 X 3 -1 d 3 X 3 1 d 13 X 4 1 d
 8 X 6 1 d 12 2 d 5 X 4 1 d 8 X 3 1 d 35 X 7 -1 d 20 -1 d 43 X 5 1 d 11 X 5 1 d 5 X 5 1 d 6 X 4 1 d 5 X 4 1 d 5 X 4 1 d 4 1 d 1 X s 3 lw /w 2 def /w2 {w 2 div} def /w3 {w 3 div} def 380 775 459 771 539 769 618 768 697 768 777 768 856 767 935 769 1015
 771 1094 773 1174 774 1253 775 1332 775 1412 771 1491 779 1570 773 1650 765 1729 772 1809 770 1888 777 20 { m20} R 6 lw black 0.53 0.4 0.34 c
 gsave  2268 1328 0 0 C 2036.96 780.596 t 0 r /Helvetica-Bold findfont 48.4311 sf 0 0 m (/dof=1.4) show NC gr  black 0.53 0.4 0.34 c
 gsave  2268 1328 0 0 C 2017.01 797.689 t 0 r /Helvetica-Bold findfont 34.1867 sf 0 0 m (2) show NC gr  black 0.53 0.4 0.34 c
 gsave  2268 1328 0 0 C 1991.37 780.596 t 0 r /Symbol findfont 48.4311 sf 0 0 m (c) show NC gr  black 3 lw 340 776 m 1588 X s
 gsave  2268 1328 0 0 C 1179.44 1213.63 t 0 r /Helvetica-Bold findfont 42.7334 sf 0 0 m (300 ) show NC gr  0.53 0.4 0.34 c /w 23 def /w2 {w 2 div} def /w3 {w 3 div} def 1139 1228 m21 black 1 1 1 c black 380 879 m21 459 866 m21 539 862 m21 618 858 m21
 697 862 m21 777 857 m21 856 855 m21 935 864 m21 1015 878 m21 1094 872 m21 1174 880 m21 1253 878 m21 1332 881 m21 1412 863 m 1 Y s 1412 887 m s 1406 863 m 11 X s 1406 887 m 11 X s 1412 875 m21 1491 865 m 2 Y s 1491 890 m 3 Y s 1485 865 m 12 X s 1485
 893 m 12 X s 1491 879 m21 1570 837 m 4 Y s 1570 863 m 4 Y s 1565 837 m 11 X s 1565 867 m 11 X s 1570 852 m21 1650 856 m 5 Y s 1650 884 m 5 Y s 1644 856 m 11 X s 1644 889 m 11 X s 1650 872 m21 1729 851 m 7 Y s 1729 881 m 6 Y s 1723 851 m 12 X s 1723
 887 m 12 X s 1729 869 m21 1809 831 m 8 Y s 1809 861 m 8 Y s 1803 831 m 11 X s 1803 869 m 11 X s 1809 850 m21 1888 874 m 9 Y s 1888 906 m 9 Y s 1882 874 m 12 X s 1882 915 m 12 X s 1888 894 m21 6 lw 1 1 1 c black 380 878 m 8 -2 d 8 -1 d 10 -2 d 8 -1 d
 8 -2 d 9 -1 d 9 -1 d 8 -1 d 9 -1 d 2 X 7 -1 d 7 X 8 -1 d 10 X 12 -1 d 29 -1 d 7 X 39 -2 d 13 -1 d 19 X 8 -1 d 27 X 17 1 d 59 X 56 -2 d 9 X 22 -1 d 15 -1 d 47 X 7 1 d 10 X 10 1 d 22 2 d 13 1 d 3 X 16 2 d 27 2 d 27 3 d 10 X 21 2 d 21 2 d 13 1 d 9 1 d
 10 X 5 1 d 9 X 71 2 d 18 1 d 37 1 d 13 1 d 23 X 22 1 d 10 X 9 1 d 8 X 7 -1 d 15 X 5 -1 d 4 X 6 -1 d 6 -1 d 20 -3 d 6 -1 d 5 X 5 -1 d 4 X 4 -1 d 11 X 3 1 d 6 X 4 1 d 4 X 4 1 d 4 1 d 5 1 d 8 3 d 9 2 d 4 1 d 4 1 d 4 1 d 3 1 d 4 X 3 1 d 10 X 4 1 d 5 -1
 d 12 X 5 -1 d 53 -9 d 5 -1 d 5 -1 d 6 -1 d 8 -2 d 16 -3 d 6 -2 d 5 -1 d 4 X 5 -1 d 4 -1 d 11 X 4 -1 d 4 X 3 1 d 8 X 4 1 d 4 X 5 1 d 5 1 d 8 2 d 11 2 d 5 1 d 5 1 d 4 1 d 5 X 3 1 d 30 X 6 -1 d 24 -2 d 5 -1 d 21 X 5 1 d 12 X 6 1 d 6 1 d 6 1 d 6 X 6 1 d
 5 1 d 7 2 d 5 1 d 6 1 d 5 2 d 4 1 d s 3 lw /w 2 def /w2 {w 2 div} def /w3 {w 3 div} def 380 878 459 866 539 862 618 858 697 859 777 857 856 855 935 860 1015 867 1094 874 1174 876 1253 879 1332 880 1412 871 1491 886 1570 876 1650 862 1729 874 1809
 870 1888 883 20 { m20} R 6 lw
 gsave  2268 1328 0 0 C 2036.96 891.703 t 0 r /Helvetica-Bold findfont 48.4311 sf 0 0 m (/dof=0.8) show NC gr 
 gsave  2268 1328 0 0 C 2017.01 908.796 t 0 r /Helvetica-Bold findfont 34.1867 sf 0 0 m (2) show NC gr 
 gsave  2268 1328 0 0 C 1991.37 891.703 t 0 r /Symbol findfont 48.4311 sf 0 0 m (c) show NC gr  3 lw 340 880 m 1588 X s
 gsave  2268 1328 0 0 C 1381.71 1213.63 t 0 r /Helvetica-Bold findfont 42.7334 sf 0 0 m (500 ) show NC gr  /w 23 def /w2 {w 2 div} def /w3 {w 3 div} def 1340 1228 m21 1 1 1 c 0.48 0 1 c 380 979 m21 459 958 m21 539 947 m21 618 942 m21 697 942 m21 777
 937 m21 856 930 m21 935 946 m21 1015 963 m21 1094 974 m21 1174 981 m21 1253 981 m21 1332 986 m21 1412 971 m21 black 1491 977 m 1 Y s 1491 1001 m 1 Y s 1485 977 m 12 X s 1485 1002 m 12 X s 0.48 0 1 c 1491 989 m21 black 1570 970 m 3 Y s 1570 995 m 3 Y
 s 1565 970 m 11 X s 1565 998 m 11 X s 0.48 0 1 c 1570 984 m21 black 1650 944 m 3 Y s 1650 970 m 3 Y s 1644 944 m 11 X s 1644 973 m 11 X s 0.48 0 1 c 1650 959 m21 black 1729 956 m 5 Y s 1729 983 m 5 Y s 1723 956 m 12 X s 1723 988 m 12 X s 0.48 0 1 c
 1729 972 m21 black 1809 963 m 6 Y s 1809 992 m 6 Y s 1803 963 m 11 X s 1803 998 m 11 X s 0.48 0 1 c 1809 980 m21 black 1888 969 m 8 Y s 1888 999 m 8 Y s 1882 969 m 12 X s 1882 1007 m 12 X s 0.48 0 1 c 1888 988 m21 6 lw 1 1 1 c 0.48 0 1 c 380 980 m 8
 -3 d 8 -3 d 8 -3 d 8 -3 d 7 -3 d 8 -2 d 9 -3 d 8 -2 d 8 -2 d 7 -1 d 7 -2 d 7 -1 d 7 -1 d 10 -1 d 11 -1 d 19 -1 d 13 -1 d 6 -1 d 24 -2 d 18 -2 d 12 -1 d 9 -1 d 10 X 6 -1 d 16 X 10 1 d 17 X 16 1 d 31 X 12 -1 d 57 -3 d 9 -1 d 14 -1 d 20 -2 d 9 -1 d 33
 X 7 1 d 8 1 d 8 1 d 9 1 d 13 2 d 22 5 d 6 1 d 16 2 d 23 5 d 32 6 d 9 1 d 20 4 d 22 4 d 12 2 d 10 1 d 9 2 d 6 X 9 1 d 71 4 d 13 1 d 26 3 d 20 1 d 12 1 d 8 X 24 2 d 14 1 d 41 X 5 -1 d 5 -1 d 6 -1 d 7 -1 d 17 -4 d 9 -2 d 6 -1 d 5 -1 d 5 -1 d 18 X 4 1 d
 4 X 5 1 d 4 2 d 5 1 d 6 3 d 14 6 d 7 2 d 5 2 d 5 1 d 4 1 d 4 1 d 3 1 d 20 X 4 -1 d 6 X 5 -2 d 7 -1 d 8 -2 d 19 -5 d 10 -3 d 6 -1 d 6 -2 d 6 -1 d 8 -3 d 26 -8 d 6 -2 d 5 -2 d 5 -1 d 5 X 4 -1 d 21 X 5 1 d 4 1 d 6 1 d 6 2 d 14 5 d 7 2 d 6 1 d 5 2 d 4 1
 d 4 X 4 1 d 16 X 6 -1 d 7 X 10 -2 d 13 -2 d 7 X 5 -1 d 18 X 6 1 d 7 X 7 1 d 7 2 d 7 1 d 7 2 d 6 1 d 8 2 d 6 2 d 7 3 d 6 2 d 5 2 d s 3 lw /w 2 def /w2 {w 2 div} def /w3 {w 3 div} def 380 980 459 955 539 946 618 939 697 941 777 937 856 932 935 944
 1015 958 1094 971 1174 976 1253 982 1332 985 1412 972 1491 994 1570 979 1650 959 1729 976 1809 970 1888 989 20 { m20} R 6 lw black 0.48 0 1 c
 gsave  2268 1328 0 0 C 2036.96 1002.81 t 0 r /Helvetica-Bold findfont 48.4311 sf 0 0 m (/dof=0.5) show NC gr  black 0.48 0 1 c
 gsave  2268 1328 0 0 C 2017.01 1019.9 t 0 r /Helvetica-Bold findfont 34.1867 sf 0 0 m (2) show NC gr  black 0.48 0 1 c
 gsave  2268 1328 0 0 C 1991.37 1002.81 t 0 r /Symbol findfont 48.4311 sf 0 0 m (c) show NC gr  black 3 lw 340 985 m 1588 X s
 gsave  2268 1328 0 0 C 1583.98 1213.63 t 0 r /Helvetica-Bold findfont 42.7334 sf 0 0 m (700 ) show NC gr  0.48 0 1 c /w 23 def /w2 {w 2 div} def /w3 {w 3 div} def 1542 1228 m21 black 1 1 1 c 1 0.373333 0 c 380 1081 m21 459 1034 m21 539 1021 m21 618
 1009 m21 697 1012 m21 777 1005 m21 856 998 m21 935 1014 m21 1015 1037 m21 1094 1064 m21 1174 1070 m21 1253 1085 m21 1332 1087 m21 black 1412 1059 m s 1412 1082 m s 1406 1059 m 11 X s 1406 1082 m 11 X s 1 0.373333 0 c 1412 1071 m21 black 1491 1087 m
 2 Y s 1491 1112 m 2 Y s 1485 1087 m 12 X s 1485 1114 m 12 X s 1 0.373333 0 c 1491 1101 m21 black 1570 1071 m 3 Y s 1570 1097 m 3 Y s 1565 1071 m 11 X s 1565 1100 m 11 X s 1 0.373333 0 c 1570 1085 m21 black 1650 1046 m 5 Y s 1650 1073 m 5 Y s 1644
 1046 m 11 X s 1644 1078 m 11 X s 1 0.373333 0 c 1650 1062 m21 black 1729 1077 m 6 Y s 1729 1106 m 6 Y s 1723 1077 m 12 X s 1723 1112 m 12 X s 1 0.373333 0 c 1729 1094 m21 black 1809 1050 m 6 Y s 1809 1079 m 7 Y s 1803 1050 m 11 X s 1803 1086 m 11 X
 s 1 0.373333 0 c 1809 1068 m21 black 1888 1058 m 8 Y s 1888 1089 m 8 Y s 1882 1058 m 12 X s 1882 1097 m 12 X s 1 0.373333 0 c 1888 1077 m21 6 lw 1 1 1 c 1 0.373333 0 c 380 1081 m 7 -6 d 8 -5 d 8 -5 d 8 -6 d 8 -4 d 9 -5 d 8 -4 d 8 -4 d 9 -3 d 6 -3 d
 6 -2 d 7 -2 d 8 -1 d 10 -2 d 11 -2 d 19 -3 d 13 -1 d 6 -1 d 24 -5 d 17 -3 d 13 -2 d 9 -1 d 9 -1 d 7 X 7 -1 d 9 1 d 10 X 17 1 d 15 1 d 10 1 d 11 X 11 -1 d 12 -1 d 57 -6 d 9 -1 d 13 -2 d 21 -3 d 9 -2 d 8 X 7 -1 d 6 X 6 1 d 6 X 7 1 d 7 2 d 8 2 d 10 2 d
 12 4 d 23 7 d 6 2 d 15 5 d 19 6 d 35 11 d 11 4 d 20 6 d 21 7 d 13 3 d 9 3 d 9 2 d 7 2 d 9 1 d 71 7 d 13 2 d 26 4 d 19 3 d 12 1 d 9 1 d 30 3 d 13 1 d 11 X 9 1 d 8 -1 d 8 X 6 -1 d 5 -1 d 7 -1 d 8 -3 d 25 -8 d 6 -1 d 6 -1 d 5 -1 d 16 X 4 1 d 5 1 d 4 2
 d 6 2 d 6 4 d 15 8 d 8 4 d 6 3 d 5 2 d 4 1 d 4 1 d 4 1 d 19 X 5 -1 d 6 -2 d 53 -18 d 6 -2 d 8 -3 d 10 -4 d 19 -9 d 8 -3 d 6 -2 d 5 -2 d 6 -1 d 4 -1 d 17 X 4 1 d 5 1 d 5 2 d 7 2 d 7 3 d 15 7 d 7 2 d 6 2 d 5 2 d 4 1 d 5 X 5 1 d 5 X 70 -9 d 7 1 d 8 2 d
 8 1 d 9 2 d 7 3 d 8 2 d 7 3 d 9 4 d 7 3 d 7 4 d 2 1 d s 3 lw /w 2 def /w2 {w 2 div} def /w3 {w 3 div} def 380 1081 459 1036 539 1022 618 1010 697 1013 777 1005 856 997 935 1017 1015 1043 1094 1066 1174 1074 1253 1085 1332 1089 1412 1072 1491 1102
 1570 1081 1650 1054 1729 1077 1809 1069 1888 1095 20 { m20} R 6 lw black 1 0.373333 0 c
 gsave  2268 1328 0 0 C 2036.96 1113.92 t 0 r /Helvetica-Bold findfont 48.4311 sf 0 0 m (/dof=0.4) show NC gr  black 1 0.373333 0 c
 gsave  2268 1328 0 0 C 2017.01 1131.01 t 0 r /Helvetica-Bold findfont 34.1867 sf 0 0 m (2) show NC gr  black 1 0.373333 0 c
 gsave  2268 1328 0 0 C 1991.37 1113.92 t 0 r /Symbol findfont 48.4311 sf 0 0 m (c) show NC gr  black 3 lw 340 1090 m 1588 X s
 gsave  2268 1328 0 0 C 1783.41 1213.63 t 0 r /Helvetica-Bold findfont 42.7334 sf 0 0 m (900 ) show NC gr  1 0.373333 0 c /w 23 def /w2 {w 2 div} def /w3 {w 3 div} def 1743 1228 m21
 gr  gr showpage
end
%%EOF
