%!PS-Adobe-2.0 EPSF-2.0
%%BoundingBox:  0 0 567 332
%%Title: Density__nof_summary.eps: Summary
%%Creator: ROOT Version 5.30/06
%%CreationDate: Sun Feb  2 09:32:27 2014
%%EndComments
%%BeginProlog
80 dict begin
/s {stroke} def /l {lineto} def /m {moveto} def /t {translate} def
/r {rotate} def /rl {roll}  def /R {repeat} def
/d {rlineto} def /rm {rmoveto} def /gr {grestore} def /f {eofill} def
/c {setrgbcolor} def /black {0 setgray} def /sd {setdash} def
/cl {closepath} def /sf {scalefont setfont} def /lw {setlinewidth} def
/box {m dup 0 exch d exch 0 d 0 exch neg d cl} def
/NC{systemdict begin initclip end}def/C{NC box clip newpath}def
/bl {box s} def /bf {box f} def /Y { 0 exch d} def /X { 0 d} def 
/K {{pop pop 0 moveto} exch kshow} bind def
/ita {/ang 15 def gsave [1 0 ang dup sin exch cos div 1 0 0] concat} def 
/mp {newpath /y exch def /x exch def} def
/side {[w .77 mul w .23 mul] .385 w mul sd w 0 l currentpoint t -144 r} def
/mr {mp x y w2 0 360 arc} def /m24 {mr s} def /m20 {mr f} def
/mb {mp x y w2 add m w2 neg 0 d 0 w neg d w 0 d 0 w d cl} def
/mt {mp x y w2 add m w2 neg w neg d w 0 d cl} def
/m21 {mb f} def /m25 {mb s} def /m22 {mt f} def /m26{mt s} def
/m23 {mp x y w2 sub m w2 w d w neg 0 d cl f} def
/m27 {mp x y w2 add m w3 neg w2 neg d w3 w2 neg d w3 w2 d cl s} def
/m28 {mp x w2 sub y w2 sub w3 add m w3 0 d  0 w3 neg d w3 0 d 0 w3 d w3 0 d  0 w3 d w3 neg 0 d 0 w3 d w3 neg 0 d 0 w3 neg d w3 neg 0 d cl s } def
/m29 {mp gsave x w2 sub y w2 add w3 sub m currentpoint t 4 {side} repeat cl fill gr} def
/m30 {mp gsave x w2 sub y w2 add w3 sub m currentpoint t 4 {side} repeat cl s gr} def
/m31 {mp x y w2 sub m 0 w d x w2 sub y m w 0 d x w2 sub y w2 add m w w neg d x w2 sub y w2 sub m w w d s} def
/m32 {mp x y w2 sub m w2 w d w neg 0 d cl s} def
/m33 {mp x y w2 add m w3 neg w2 neg d w3 w2 neg d w3 w2 d cl f} def
/m34 {mp x w2 sub y w2 sub w3 add m w3 0 d  0 w3 neg d w3 0 d 0 w3 d w3 0 d  0 w3 d w3 neg 0 d 0 w3 d w3 neg 0 d 0 w3 neg d w3 neg 0 d cl f } def
/m2 {mp x y w2 sub m 0 w d x w2 sub y m w 0 d s} def
/m5 {mp x w2 sub y w2 sub m w w d x w2 sub y w2 add m w w neg d s} def
/reEncode {exch findfont dup length dict begin {1 index /FID eq  {pop pop} {def} ifelse } forall /Encoding exch def currentdict end dup /FontName get exch definefont pop } def [/Times-Bold /Times-Italic /Times-BoldItalic /Helvetica /Helvetica-Oblique
 /Helvetica-Bold /Helvetica-BoldOblique /Courier /Courier-Oblique /Courier-Bold /Courier-BoldOblique /Times-Roman /AvantGarde-Book /AvantGarde-BookOblique /AvantGarde-Demi /AvantGarde-DemiOblique /Bookman-Demi /Bookman-DemiItalic /Bookman-Light
 /Bookman-LightItalic /Helvetica-Narrow /Helvetica-Narrow-Bold /Helvetica-Narrow-BoldOblique /Helvetica-Narrow-Oblique /NewCenturySchlbk-Roman /NewCenturySchlbk-Bold /NewCenturySchlbk-BoldItalic /NewCenturySchlbk-Italic /Palatino-Bold
 /Palatino-BoldItalic /Palatino-Italic /Palatino-Roman ] {ISOLatin1Encoding reEncode } forall%%EndProlog
%%BeginSetup
%%EndSetup
newpath  gsave  .25 .25 scale  gsave  0 0 t black[  ] 0 sd 3 lw 1 1 1 c 2268 1328 0 0 bf black 1 1 1 c black 1588 996 340 199 bl 1588 996 340 199 bl 1 1 1 c 1 0 0 c /w 23 def /w2 {w 2 div} def /w3 {w 3 div} def 380 268 m21 459 261 m21 539 260 m21 618
 260 m21 697 259 m21 777 256 m21 856 256 m21 935 259 m21 1015 257 m21 1094 266 m21 1174 263 m21 1253 260 m21 1332 258 m21 1412 270 m21 black 1491 235 m 1 Y s 1491 258 m 1 Y s 1485 235 m 12 X s 1485 259 m 12 X s 1 0 0 c 1491 247 m21 black 1570 257 m 2
 Y s 1570 282 m 2 Y s 1565 257 m 11 X s 1565 284 m 11 X s 1 0 0 c 1570 271 m21 black 1650 253 m 3 Y s 1650 279 m 3 Y s 1644 253 m 11 X s 1644 282 m 11 X s 1 0 0 c 1650 268 m21 black 1729 243 m 3 Y s 1729 269 m 4 Y s 1723 243 m 12 X s 1723 273 m 12 X
 s 1 0 0 c 1729 258 m21 black 1809 259 m 5 Y s 1809 287 m 5 Y s 1803 259 m 11 X s 1803 292 m 11 X s 1 0 0 c 1809 276 m21 black 1888 210 m 6 Y s 1888 238 m 6 Y s 1882 210 m 12 X s 1882 244 m 12 X s 1 0 0 c 1888 227 m21 black 340 199 m 1588 X s
 gsave  2268 1328 0 0 C 954.378 68.3734 t 0 r /Helvetica findfont 62.6756 sf 0 0 m ( Energy \(GeV\) ) show NC gr 
 gsave  2268 1328 0 0 C 928.738 51.28 t 0 r /Symbol findfont 42.7334 sf 0 0 m (m) show NC gr 
 gsave  2268 1328 0 0 C 894.552 68.3734 t 0 r /Symbol findfont 62.6756 sf 0 0 m (n) show NC gr  340 216 m -17 Y s 372 208 m -9 Y s 404 208 m -9 Y s 435 208 m -9 Y s 467 208 m -9 Y s 499 216 m -17 Y s 531 208 m -9 Y s 562 208 m -9 Y s 594 208 m -9 Y s
 626 208 m -9 Y s 658 216 m -17 Y s 689 208 m -9 Y s 721 208 m -9 Y s 753 208 m -9 Y s 785 208 m -9 Y s 816 216 m -17 Y s 848 208 m -9 Y s 880 208 m -9 Y s 912 208 m -9 Y s 943 208 m -9 Y s 975 216 m -17 Y s 1007 208 m -9 Y s 1039 208 m -9 Y s 1070
 208 m -9 Y s 1102 208 m -9 Y s 1134 216 m -17 Y s 1166 208 m -9 Y s 1197 208 m -9 Y s 1229 208 m -9 Y s 1261 208 m -9 Y s 1293 216 m -17 Y s 1324 208 m -9 Y s 1356 208 m -9 Y s 1388 208 m -9 Y s 1420 208 m -9 Y s 1451 216 m -17 Y s 1483 208 m -9 Y s
 1515 208 m -9 Y s 1547 208 m -9 Y s 1578 208 m -9 Y s 1610 216 m -17 Y s 1642 208 m -9 Y s 1674 208 m -9 Y s 1705 208 m -9 Y s 1737 208 m -9 Y s 1769 216 m -17 Y s 1801 208 m -9 Y s 1832 208 m -9 Y s 1864 208 m -9 Y s 1896 208 m -9 Y s 1928 216 m
 -17 Y s
 gsave  2268 1328 0 0 C 319.076 136.747 t 0 r /Helvetica findfont 68.3734 sf 0 0 m (0) show NC gr 
 gsave  2268 1328 0 0 C 484.311 136.747 t 0 r /Helvetica findfont 68.3734 sf 0 0 m (1) show NC gr 
 gsave  2268 1328 0 0 C 635.302 136.747 t 0 r /Helvetica findfont 68.3734 sf 0 0 m (2) show NC gr 
 gsave  2268 1328 0 0 C 794.84 136.747 t 0 r /Helvetica findfont 68.3734 sf 0 0 m (3) show NC gr 
 gsave  2268 1328 0 0 C 954.378 136.747 t 0 r /Helvetica findfont 68.3734 sf 0 0 m (4) show NC gr 
 gsave  2268 1328 0 0 C 1113.92 136.747 t 0 r /Helvetica findfont 68.3734 sf 0 0 m (5) show NC gr 
 gsave  2268 1328 0 0 C 1270.6 136.747 t 0 r /Helvetica findfont 68.3734 sf 0 0 m (6) show NC gr 
 gsave  2268 1328 0 0 C 1430.14 136.747 t 0 r /Helvetica findfont 68.3734 sf 0 0 m (7) show NC gr 
 gsave  2268 1328 0 0 C 1589.68 136.747 t 0 r /Helvetica findfont 68.3734 sf 0 0 m (8) show NC gr 
 gsave  2268 1328 0 0 C 1746.37 136.747 t 0 r /Helvetica findfont 68.3734 sf 0 0 m (9) show NC gr 
 gsave  2268 1328 0 0 C 1888.81 136.747 t 0 r /Helvetica findfont 68.3734 sf 0 0 m (10) show NC gr  340 1195 m 1588 X s 340 1178 m 17 Y s 372 1186 m 9 Y s 404 1186 m 9 Y s 435 1186 m 9 Y s 467 1186 m 9 Y s 499 1178 m 17 Y s 531 1186 m 9 Y s 562 1186
 m 9 Y s 594 1186 m 9 Y s 626 1186 m 9 Y s 658 1178 m 17 Y s 689 1186 m 9 Y s 721 1186 m 9 Y s 753 1186 m 9 Y s 785 1186 m 9 Y s 816 1178 m 17 Y s 848 1186 m 9 Y s 880 1186 m 9 Y s 912 1186 m 9 Y s 943 1186 m 9 Y s 975 1178 m 17 Y s 1007 1186 m 9 Y s
 1039 1186 m 9 Y s 1070 1186 m 9 Y s 1102 1186 m 9 Y s 1134 1178 m 17 Y s 1166 1186 m 9 Y s 1197 1186 m 9 Y s 1229 1186 m 9 Y s 1261 1186 m 9 Y s 1293 1178 m 17 Y s 1324 1186 m 9 Y s 1356 1186 m 9 Y s 1388 1186 m 9 Y s 1420 1186 m 9 Y s 1451 1178 m
 17 Y s 1483 1186 m 9 Y s 1515 1186 m 9 Y s 1547 1186 m 9 Y s 1578 1186 m 9 Y s 1610 1178 m 17 Y s 1642 1186 m 9 Y s 1674 1186 m 9 Y s 1705 1186 m 9 Y s 1737 1186 m 9 Y s 1769 1178 m 17 Y s 1801 1186 m 9 Y s 1832 1186 m 9 Y s 1864 1186 m 9 Y s 1896
 1186 m 9 Y s 1928 1178 m 17 Y s 340 199 m 996 Y s
 gsave  2268 1328 0 0 C 170.933 336.169 t 90 r /Helvetica findfont 62.6756 sf 0 0 m (Near/Far Ratio to Nominal) show NC gr  371 258 m -31 X s 355 281 m -15 X s 355 305 m -15 X s 355 328 m -15 X s 355 351 m -15 X s 371 375 m -31 X s 355 398 m -15 X s
 355 422 m -15 X s 355 445 m -15 X s 355 469 m -15 X s 371 492 m -31 X s 355 515 m -15 X s 355 539 m -15 X s 355 562 m -15 X s 355 586 m -15 X s 371 609 m -31 X s 355 633 m -15 X s 355 656 m -15 X s 355 679 m -15 X s 355 703 m -15 X s 371 726 m -31 X
 s 355 750 m -15 X s 355 773 m -15 X s 355 797 m -15 X s 355 820 m -15 X s 371 843 m -31 X s 355 867 m -15 X s 355 890 m -15 X s 355 914 m -15 X s 355 937 m -15 X s 371 961 m -31 X s 355 984 m -15 X s 355 1007 m -15 X s 355 1031 m -15 X s 355 1054 m
 -15 X s 371 1078 m -31 X s 355 1101 m -15 X s 355 1125 m -15 X s 355 1148 m -15 X s 355 1171 m -15 X s 371 1195 m -31 X s 371 258 m -31 X s 355 234 m -15 X s 355 211 m -15 X s
 gsave  2268 1328 0 0 C 301.982 230.76 t 0 r /Helvetica findfont 68.3734 sf 0 0 m (1) show NC gr 
 gsave  2268 1328 0 0 C 245.005 347.565 t 0 r /Helvetica findfont 68.3734 sf 0 0 m (1.1) show NC gr 
 gsave  2268 1328 0 0 C 233.609 464.369 t 0 r /Helvetica findfont 68.3734 sf 0 0 m (1.2) show NC gr 
 gsave  2268 1328 0 0 C 233.609 584.022 t 0 r /Helvetica findfont 68.3734 sf 0 0 m (1.3) show NC gr 
 gsave  2268 1328 0 0 C 233.609 697.978 t 0 r /Helvetica findfont 68.3734 sf 0 0 m (1.4) show NC gr 
 gsave  2268 1328 0 0 C 233.609 820.48 t 0 r /Helvetica findfont 68.3734 sf 0 0 m (1.5) show NC gr 
 gsave  2268 1328 0 0 C 233.609 937.285 t 0 r /Helvetica findfont 68.3734 sf 0 0 m (1.6) show NC gr 
 gsave  2268 1328 0 0 C 233.609 1051.24 t 0 r /Helvetica findfont 68.3734 sf 0 0 m (1.7) show NC gr 
 gsave  2268 1328 0 0 C 233.609 1170.89 t 0 r /Helvetica findfont 68.3734 sf 0 0 m (1.8) show NC gr  1928 199 m 996 Y s 1897 258 m 31 X s 1912 281 m 16 X s 1912 305 m 16 X s 1912 328 m 16 X s 1912 351 m 16 X s 1897 375 m 31 X s 1912 398 m 16 X s 1912
 422 m 16 X s 1912 445 m 16 X s 1912 469 m 16 X s 1897 492 m 31 X s 1912 515 m 16 X s 1912 539 m 16 X s 1912 562 m 16 X s 1912 586 m 16 X s 1897 609 m 31 X s 1912 633 m 16 X s 1912 656 m 16 X s 1912 679 m 16 X s 1912 703 m 16 X s 1897 726 m 31 X s
 1912 750 m 16 X s 1912 773 m 16 X s 1912 797 m 16 X s 1912 820 m 16 X s 1897 843 m 31 X s 1912 867 m 16 X s 1912 890 m 16 X s 1912 914 m 16 X s 1912 937 m 16 X s 1897 961 m 31 X s 1912 984 m 16 X s 1912 1007 m 16 X s 1912 1031 m 16 X s 1912 1054 m
 16 X s 1897 1078 m 31 X s 1912 1101 m 16 X s 1912 1125 m 16 X s 1912 1148 m 16 X s 1912 1171 m 16 X s 1897 1195 m 31 X s 1897 258 m 31 X s 1912 234 m 16 X s 1912 211 m 16 X s 1 0 0 c 6 lw 1 1 1 c 1 0 0 c 380 269 m 12 -2 d 10 -1 d 11 -2 d 11 -1 d 12
 -1 d 10 -1 d 13 X 9 -1 d 174 X 32 -1 d 23 -1 d 80 -2 d 38 -1 d 50 X 12 1 d 16 1 d 22 1 d 10 1 d 90 X 7 1 d 9 X 10 1 d 23 2 d 10 1 d 7 X 6 1 d 20 X 9 -1 d 10 -1 d 28 -2 d 41 X 18 1 d 9 1 d 26 X 5 -1 d 4 X 5 -1 d 4 X 5 -1 d 7 -2 d 16 -4 d 7 -2 d 5 -1
 d 5 -1 d 5 -1 d 4 -1 d 19 X 3 1 d 4 X 4 1 d 4 1 d 4 2 d 5 2 d 14 5 d 5 2 d 5 1 d 3 1 d 3 1 d 4 1 d 3 X 4 1 d 11 X 3 -1 d 3 X 3 -1 d 3 X 3 -2 d 4 -1 d 4 -1 d 4 -3 d 20 -9 d 4 -2 d 3 -1 d 3 -1 d 3 -1 d 3 X 3 -1 d 15 X 3 1 d 2 X 3 1 d 3 1 d 2 1 d 3 1 d
 3 2 d 3 1 d 3 3 d 4 2 d 4 4 d 8 7 d 4 3 d 3 2 d 3 2 d 3 2 d 3 1 d 2 1 d 3 1 d 2 1 d 3 X 3 1 d 2 X 2 1 d 11 X 4 -1 d 4 X 4 -1 d 5 X 4 -1 d 6 -2 d 7 -2 d 22 -6 d 5 -1 d 5 -2 d 3 X 5 -1 d 5 -2 d 8 -2 d 22 -6 d 6 -1 d 5 -2 d 4 X 4 -1 d 4 X 3 -1 d 16 X 2
 1 d 3 X 3 1 d 3 1 d 3 1 d 2 1 d 4 2 d 3 2 d 3 2 d 4 3 d 9 7 d 5 3 d 3 3 d 3 1 d 3 2 d 3 1 d 3 1 d 2 1 d 3 1 d 2 X 3 1 d 12 X s 1813 285 m 4 X 4 -1 d 4 X 4 -1 d 4 -1 d 4 -1 d 4 -1 d 4 -1 d 4 -2 d 4 -1 d 3 -2 d 4 -2 d 3 -1 d 3 -2 d 3 -2 d 2 -2 d 3 -3
 d 2 -2 d 2 -2 d 2 -3 d 2 -2 d 2 -2 d 1 -3 d 1 -2 d 1 -3 d 1 -2 d -2 Y s 3 lw /w 2 def /w2 {w 2 div} def /w3 {w 3 div} def 380 269 459 261 539 260 618 260 697 258 777 256 856 255 935 259 1015 259 1094 265 1174 261 1253 262 1332 248 1412 267 1491 243
 1570 282 1650 266 1729 250 1809 285 1888 239 20 { m20} R 6 lw black 1 0 0 c
 gsave  2268 1328 0 0 C 2036.96 242.156 t 0 r /Helvetica-Bold findfont 48.4311 sf 0 0 m (/dof=0.2) show NC gr  black 1 0 0 c
 gsave  2268 1328 0 0 C 2017.01 259.249 t 0 r /Helvetica-Bold findfont 34.1867 sf 0 0 m (2) show NC gr  black 1 0 0 c
 gsave  2268 1328 0 0 C 1991.37 242.156 t 0 r /Symbol findfont 48.4311 sf 0 0 m (c) show NC gr  black 3 lw 340 258 m 1588 X s
 gsave  2268 1328 0 0 C 196.573 1213.63 t 0 r /Helvetica-Bold findfont 42.7334 sf 0 0 m (1.6732 ) show NC gr  1 0 0 c /w 23 def /w2 {w 2 div} def /w3 {w 3 div} def 156 1228 m21 black 1 1 1 c 0 0 1 c 380 383 m21 459 377 m21 539 376 m21 618 377 m21 697
 374 m21 777 373 m21 856 374 m21 935 373 m21 1015 379 m21 1094 382 m21 1174 365 m21 1253 381 m21 1332 362 m21 black 1412 373 m 1 Y s 1412 397 m 1 Y s 1406 373 m 11 X s 1406 398 m 11 X s 0 0 1 c 1412 385 m21 black 1491 350 m 2 Y s 1491 375 m 2 Y s
 1485 350 m 12 X s 1485 377 m 12 X s 0 0 1 c 1491 363 m21 black 1570 381 m 3 Y s 1570 407 m 3 Y s 1565 381 m 11 X s 1565 410 m 11 X s 0 0 1 c 1570 395 m21 black 1650 362 m 4 Y s 1650 389 m 4 Y s 1644 362 m 11 X s 1644 393 m 11 X s 0 0 1 c 1650 377
 m21 black 1729 332 m 5 Y s 1729 360 m 5 Y s 1723 332 m 12 X s 1723 365 m 12 X s 0 0 1 c 1729 348 m21 black 1809 374 m 7 Y s 1809 404 m 7 Y s 1803 374 m 11 X s 1803 411 m 11 X s 0 0 1 c 1809 392 m21 black 1888 372 m 8 Y s 1888 403 m 8 Y s 1882 372 m
 12 X s 1882 411 m 12 X s 0 0 1 c 1888 392 m21 6 lw 1 1 1 c 0 0 1 c 380 383 m 8 -1 d 9 -1 d 9 -1 d 8 X 9 -1 d 9 -1 d 10 X 8 -1 d 31 X 10 -1 d 11 1 d 94 X 16 -1 d 51 X 29 -1 d 5 X 65 -1 d 15 X 35 -1 d 61 X 10 1 d 17 X 16 1 d 19 X 11 1 d 78 X 11 1 d 18
 X 13 1 d 72 X 14 -1 d 42 X 18 1 d 16 X 6 1 d 11 X 5 -1 d 10 X 5 -1 d 4 X 5 -1 d 6 X 23 -4 d 4 -1 d 8 X 3 -1 d 23 X 3 1 d 3 X 4 1 d 4 X 4 1 d 5 1 d 13 3 d 5 1 d 4 1 d 4 1 d 3 X 3 1 d 9 X 3 1 d 6 X 3 -1 d 9 X 2 -1 d 3 X 4 -1 d 3 -1 d 4 -1 d 14 -4 d 4
 -1 d 4 -1 d 3 -1 d 3 -1 d 3 X 3 -1 d 28 X 2 1 d 3 X 3 1 d 2 1 d 3 X 3 1 d 4 2 d 4 1 d 9 4 d 4 2 d 3 1 d 3 1 d 3 1 d 3 X 2 1 d 3 X 2 1 d 10 X 4 1 d 8 X 4 -1 d 8 X 56 -7 d 4 -1 d 5 X 6 -1 d 6 -1 d 19 -4 d 6 X 5 -1 d 4 -1 d 11 X 3 -1 d 13 X 2 1 d 5 X 3
 1 d 5 X 2 1 d 3 1 d 3 1 d 3 1 d 4 1 d 4 2 d 7 3 d 4 2 d 3 1 d 2 1 d 3 X 2 1 d 3 1 d 3 X s 1793 387 m 2 X 2 1 d 28 X 4 -1 d 4 X 4 -1 d 4 X 4 -1 d 4 -1 d 4 X 3 -1 d 4 -1 d 3 -1 d 3 -1 d 2 -1 d 3 -1 d 3 -1 d 2 -1 d 2 -1 d 2 -1 d 2 -1 d 2 -1 d 1 -2 d 1
 -1 d 1 -1 d -1 Y 1 -2 d s 3 lw /w 2 def /w2 {w 2 div} def /w3 {w 3 div} def 380 383 459 377 539 377 618 376 697 375 777 374 856 373 935 375 1015 376 1094 378 1174 377 1253 378 1332 370 1412 382 1491 368 1570 386 1650 379 1729 369 1809 388 1888 365
 20 { m20} R 6 lw black 0 0 1 c
 gsave  2268 1328 0 0 C 2036.96 364.658 t 0 r /Helvetica-Bold findfont 48.4311 sf 0 0 m (/dof=0.5) show NC gr  black 0 0 1 c
 gsave  2268 1328 0 0 C 2017.01 381.751 t 0 r /Helvetica-Bold findfont 34.1867 sf 0 0 m (2) show NC gr  black 0 0 1 c
 gsave  2268 1328 0 0 C 1991.37 364.658 t 0 r /Symbol findfont 48.4311 sf 0 0 m (c) show NC gr  black 3 lw 340 375 m 1588 X s
 gsave  2268 1328 0 0 C 424.485 1213.63 t 0 r /Helvetica-Bold findfont 42.7334 sf 0 0 m (1.7088 ) show NC gr  0 0 1 c /w 23 def /w2 {w 2 div} def /w3 {w 3 div} def 383 1228 m21 black 1 1 1 c 1 0 1 c 380 496 m21 459 494 m21 539 493 m21 618 494 m21 697
 493 m21 777 491 m21 856 492 m21 935 493 m21 1015 492 m21 1094 491 m21 1174 503 m21 1253 477 m21 black 1332 476 m s 1332 499 m s 1327 476 m 11 X s 1327 499 m 11 X s 1 0 1 c 1332 488 m21 black 1412 501 m 2 Y s 1412 526 m 2 Y s 1406 501 m 11 X s 1406
 528 m 11 X s 1 0 1 c 1412 515 m21 black 1491 458 m 3 Y s 1491 484 m 3 Y s 1485 458 m 12 X s 1485 487 m 12 X s 1 0 1 c 1491 473 m21 black 1570 502 m 5 Y s 1570 530 m 5 Y s 1565 502 m 11 X s 1565 535 m 11 X s 1 0 1 c 1570 518 m21 black 1650 464 m 6 Y
 s 1650 493 m 5 Y s 1644 464 m 11 X s 1644 498 m 11 X s 1 0 1 c 1650 481 m21 black 1729 470 m 6 Y s 1729 499 m 7 Y s 1723 470 m 12 X s 1723 506 m 12 X s 1 0 1 c 1729 488 m21 black 1809 483 m 8 Y s 1809 514 m 8 Y s 1803 483 m 11 X s 1803 522 m 11 X s
 1 0 1 c 1809 502 m21 black 1888 469 m 9 Y s 1888 501 m 9 Y s 1882 469 m 12 X s 1882 510 m 12 X s 1 0 1 c 1888 490 m21 6 lw 1 1 1 c 1 0 1 c 380 496 m 12 X 6 -1 d 13 X 7 -1 d 27 X 7 -1 d 215 X 23 -1 d 63 X 12 -1 d 122 X 15 1 d 60 X 17 1 d 216 X 20 1 d
 48 X 4 -1 d 14 X 17 -1 d 5 -1 d 49 X 3 1 d 8 X 4 1 d 10 1 d 5 X 3 1 d 14 X 3 1 d 17 X 3 -1 d 13 X 3 -1 d 6 X 17 -2 d 3 -1 d 9 X 2 -1 d 32 X 3 1 d 9 X 4 1 d 5 X 10 1 d 4 1 d 10 X 2 1 d 58 X 38 -2 d 8 X 4 -1 d 10 X 23 -2 d 8 X 4 -1 d 37 X s 1744 489 m
 2 1 d 8 X 2 1 d 7 X 4 1 d 6 1 d 3 1 d 6 X 2 1 d 15 X 2 1 d 20 X 4 -1 d 25 X 3 -1 d 10 X 3 -1 d 6 X 3 -1 d 5 X 2 -1 d 1 X 2 -1 d 2 X 1 -1 d s 3 lw /w 2 def /w2 {w 2 div} def /w3 {w 3 div} def 380 496 459 493 539 493 618 493 697 492 777 491 856 491
 935 492 1015 493 1094 493 1174 493 1253 494 1332 491 1412 496 1491 490 1570 495 1650 493 1729 489 1809 496 1888 489 20 { m20} R 6 lw black 1 0 1 c
 gsave  2268 1328 0 0 C 2036.96 490.009 t 0 r /Helvetica-Bold findfont 48.4311 sf 0 0 m (/dof=0.6) show NC gr  black 1 0 1 c
 gsave  2268 1328 0 0 C 2017.01 507.102 t 0 r /Helvetica-Bold findfont 34.1867 sf 0 0 m (2) show NC gr  black 1 0 1 c
 gsave  2268 1328 0 0 C 1991.37 490.009 t 0 r /Symbol findfont 48.4311 sf 0 0 m (c) show NC gr  black 3 lw 340 492 m 1588 X s
 gsave  2268 1328 0 0 C 649.547 1213.63 t 0 r /Helvetica-Bold findfont 39.8845 sf 0 0 m (1.7444 ) show NC gr  1 0 1 c /w 23 def /w2 {w 2 div} def /w3 {w 3 div} def 609 1228 m21 black 1 1 1 c 0 0.733333 1 c 380 610 m21 459 611 m21 539 610 m21 618 609
 m21 697 610 m21 777 605 m21 856 608 m21 935 614 m21 1015 609 m21 1094 610 m21 1174 611 m21 1253 613 m21 black 1332 580 m 1 Y s 1332 603 m 1 Y s 1327 580 m 11 X s 1327 604 m 11 X s 0 0.733333 1 c 1332 592 m21 black 1412 595 m 3 Y s 1412 621 m 2 Y s
 1406 595 m 11 X s 1406 623 m 11 X s 0 0.733333 1 c 1412 609 m21 black 1491 564 m 4 Y s 1491 591 m 4 Y s 1485 564 m 12 X s 1485 595 m 12 X s 0 0.733333 1 c 1491 579 m21 black 1570 608 m 6 Y s 1570 637 m 6 Y s 1565 608 m 11 X s 1565 643 m 11 X s 0
 0.733333 1 c 1570 626 m21 black 1650 598 m 7 Y s 1650 628 m 7 Y s 1644 598 m 11 X s 1644 635 m 11 X s 0 0.733333 1 c 1650 617 m21 black 1729 587 m 8 Y s 1729 618 m 9 Y s 1723 587 m 12 X s 1723 627 m 12 X s 0 0.733333 1 c 1729 607 m21 black 1809 632
 m 11 Y s 1809 665 m 11 Y s 1803 632 m 11 X s 1803 676 m 11 X s 0 0.733333 1 c 1809 654 m21 black 1888 602 m 11 Y s 1888 636 m 11 Y s 1882 602 m 12 X s 1882 647 m 12 X s 0 0.733333 1 c 1888 624 m21 6 lw 1 1 1 c 0 0.733333 1 c 380 611 m 31 X 7 -1 d
 229 X 20 -1 d 334 X 11 1 d 21 X 10 -1 d 84 X 17 1 d 112 X 76 -1 d 29 X 5 1 d 16 X 4 1 d 52 X 4 -1 d 5 X 14 -1 d 79 X 6 1 d 92 X 12 -1 d 28 X 15 -1 d 67 X 5 1 d 14 X 4 1 d 40 X s 1823 610 m 35 X 4 -1 d 23 X 3 -1 d s 3 lw /w 2 def /w2 {w 2 div} def
 /w3 {w 3 div} def 380 611 459 610 539 610 618 610 697 609 777 609 856 609 935 609 1015 610 1094 609 1174 610 1253 610 1332 609 1412 611 1491 609 1570 610 1650 609 1729 608 1809 610 1888 608 20 { m20} R 6 lw black 0 0.733333 1 c
 gsave  2268 1328 0 0 C 2036.96 615.36 t 0 r /Helvetica-Bold findfont 48.4311 sf 0 0 m (/dof=0.8) show NC gr  black 0 0.733333 1 c
 gsave  2268 1328 0 0 C 2017.01 632.454 t 0 r /Helvetica-Bold findfont 34.1867 sf 0 0 m (2) show NC gr  black 0 0.733333 1 c
 gsave  2268 1328 0 0 C 1991.37 615.36 t 0 r /Symbol findfont 48.4311 sf 0 0 m (c) show NC gr  black 3 lw 340 609 m 1588 X s
 gsave  2268 1328 0 0 C 877.458 1213.63 t 0 r /Helvetica-Bold findfont 42.7334 sf 0 0 m (1.7622 ) show NC gr  0 0.733333 1 c /w 23 def /w2 {w 2 div} def /w3 {w 3 div} def 836 1228 m21 black 1 1 1 c 0.35 0.83 0.33 c 380 723 m21 459 725 m21 539 726 m21
 618 723 m21 697 728 m21 777 725 m21 856 724 m21 935 732 m21 1015 721 m21 1094 734 m21 1174 735 m21 1253 699 m21 black 1332 719 m 2 Y s 1332 743 m 2 Y s 1327 719 m 11 X s 1327 745 m 11 X s 0.35 0.83 0.33 c 1332 732 m21 black 1412 707 m 4 Y s 1412 734
 m 4 Y s 1406 707 m 11 X s 1406 738 m 11 X s 0.35 0.83 0.33 c 1412 723 m21 black 1491 705 m 6 Y s 1491 734 m 5 Y s 1485 705 m 12 X s 1485 739 m 12 X s 0.35 0.83 0.33 c 1491 722 m21 black 1570 722 m 7 Y s 1570 752 m 7 Y s 1565 722 m 11 X s 1565 759 m
 11 X s 0.35 0.83 0.33 c 1570 741 m21 black 1650 702 m 9 Y s 1650 734 m 8 Y s 1644 702 m 11 X s 1644 742 m 11 X s 0.35 0.83 0.33 c 1650 722 m21 black 1729 699 m 10 Y s 1729 732 m 11 Y s 1723 699 m 12 X s 1723 743 m 12 X s 0.35 0.83 0.33 c 1729 721
 m21 black 1809 740 m 12 Y s 1809 775 m 12 Y s 1803 740 m 11 X s 1803 787 m 11 X s 0.35 0.83 0.33 c 1809 764 m21 black 1888 691 m 12 Y s 1888 726 m 12 Y s 1882 691 m 12 X s 1882 738 m 12 X s 0.35 0.83 0.33 c 1888 715 m21 6 lw 1 1 1 c 0.35 0.83 0.33 c
 380 724 m 18 X 7 1 d 47 X 7 1 d 269 X 23 1 d 132 X 43 -1 d 150 X 6 1 d 18 X 5 -1 d 69 X 24 -1 d 85 X 15 1 d 53 X 5 -1 d 28 X 4 -1 d 55 X 6 1 d 28 X 6 1 d 23 X 23 1 d 168 X 8 1 d 84 X 14 -1 d 47 X 8 -1 d 30 X s 3 lw /w 2 def /w2 {w 2 div} def /w3 {w
 3 div} def 380 724 459 726 539 726 618 726 697 726 777 727 856 727 935 726 1015 726 1094 727 1174 726 1253 725 1332 726 1412 724 1491 726 1570 727 1650 727 1729 728 1809 727 1888 726 20 { m20} R 6 lw black 0.35 0.83 0.33 c
 gsave  2268 1328 0 0 C 2036.96 740.711 t 0 r /Helvetica-Bold findfont 48.4311 sf 0 0 m (/dof=0.9) show NC gr  black 0.35 0.83 0.33 c
 gsave  2268 1328 0 0 C 2017.01 757.805 t 0 r /Helvetica-Bold findfont 34.1867 sf 0 0 m (2) show NC gr  black 0.35 0.83 0.33 c
 gsave  2268 1328 0 0 C 1991.37 740.711 t 0 r /Symbol findfont 48.4311 sf 0 0 m (c) show NC gr  black 3 lw 340 726 m 1588 X s
 gsave  2268 1328 0 0 C 1105.37 1213.63 t 0 r /Helvetica-Bold findfont 42.7334 sf 0 0 m (1.7978 ) show NC gr  0.35 0.83 0.33 c /w 23 def /w2 {w 2 div} def /w3 {w 3 div} def 1063 1228 m21 black 1 1 1 c 0.53 0.4 0.34 c 380 837 m21 459 842 m21 539 841
 m21 618 843 m21 697 843 m21 777 840 m21 856 846 m21 935 847 m21 1015 841 m21 1094 849 m21 1174 840 m21 black 1253 809 m 1 Y s 1253 833 m s 1247 809 m 12 X s 1247 833 m 12 X s 0.53 0.4 0.34 c 1253 821 m21 black 1332 833 m 3 Y s 1332 859 m 3 Y s 1327
 833 m 11 X s 1327 862 m 11 X s 0.53 0.4 0.34 c 1332 848 m21 black 1412 825 m 5 Y s 1412 853 m 5 Y s 1406 825 m 11 X s 1406 858 m 11 X s 0.53 0.4 0.34 c 1412 841 m21 black 1491 813 m 7 Y s 1491 843 m 7 Y s 1485 813 m 12 X s 1485 850 m 12 X s 0.53 0.4
 0.34 c 1491 831 m21 black 1570 847 m 9 Y s 1570 879 m 9 Y s 1565 847 m 11 X s 1565 888 m 11 X s 0.53 0.4 0.34 c 1570 868 m21 black 1650 838 m 11 Y s 1650 871 m 11 Y s 1644 838 m 11 X s 1644 882 m 11 X s 0.53 0.4 0.34 c 1650 860 m21 black 1729 834 m
 11 Y s 1729 868 m 12 Y s 1723 834 m 12 X s 1723 880 m 12 X s 0.53 0.4 0.34 c 1729 857 m21 black 1809 830 m 13 Y s 1809 866 m 13 Y s 1803 830 m 11 X s 1803 879 m 11 X s 0.53 0.4 0.34 c 1809 854 m21 black 1888 839 m 15 Y s 1888 877 m 14 Y s 1882 839 m
 12 X s 1882 891 m 12 X s 0.53 0.4 0.34 c 1888 865 m21 6 lw 1 1 1 c 0.53 0.4 0.34 c 380 838 m 6 X 7 1 d 6 X 7 1 d 8 X 7 1 d 22 X 7 1 d 183 X 18 1 d 59 X 19 1 d 68 X 15 1 d 63 X 60 -1 d 9 -1 d 57 X 6 -1 d 6 1 d 29 X 16 1 d 23 X 5 1 d 12 X 5 -1 d 30 X
 21 -1 d 6 -1 d 35 X 10 -1 d 77 X 17 1 d 42 X 5 -1 d 12 X 10 -1 d 13 X 7 -1 d 66 X 7 1 d 16 X 8 1 d 13 X 4 1 d 9 X 5 1 d 6 1 d 11 1 d 5 X 4 1 d 8 X 3 1 d 51 X 22 -2 d 55 X 7 1 d 19 X 7 1 d 24 X 22 1 d 59 X 5 -1 d 14 X 4 -1 d 5 X 4 -1 d 9 X 4 -1 d 4 X
 4 -1 d 3 X 4 -1 d 3 -1 d 3 X 3 -1 d s 3 lw /w 2 def /w2 {w 2 div} def /w3 {w 3 div} def 380 838 459 842 539 842 618 842 697 843 777 844 856 845 935 844 1015 843 1094 845 1174 842 1253 841 1332 842 1412 839 1491 841 1570 847 1650 845 1729 847 1809
 848 1888 840 20 { m20} R 6 lw black 0.53 0.4 0.34 c
 gsave  2268 1328 0 0 C 2036.96 863.214 t 0 r /Helvetica-Bold findfont 48.4311 sf 0 0 m (/dof=0.5) show NC gr  black 0.53 0.4 0.34 c
 gsave  2268 1328 0 0 C 2017.01 880.307 t 0 r /Helvetica-Bold findfont 34.1867 sf 0 0 m (2) show NC gr  black 0.53 0.4 0.34 c
 gsave  2268 1328 0 0 C 1991.37 863.214 t 0 r /Symbol findfont 48.4311 sf 0 0 m (c) show NC gr  black 3 lw 340 843 m 1588 X s
 gsave  2268 1328 0 0 C 1330.43 1213.63 t 0 r /Helvetica-Bold findfont 42.7334 sf 0 0 m (1.8156 ) show NC gr  0.53 0.4 0.34 c /w 23 def /w2 {w 2 div} def /w3 {w 3 div} def 1290 1228 m21 black 1 1 1 c black 380 949 m21 459 958 m21 539 956 m21 618 959
 m21 697 959 m21 777 964 m21 856 964 m21 935 961 m21 1015 957 m21 1094 967 m21 1174 953 m21 1253 950 m 2 Y s 1253 975 m 1 Y s 1247 950 m 12 X s 1247 976 m 12 X s 1253 963 m21 1332 922 m 4 Y s 1332 949 m 3 Y s 1327 922 m 11 X s 1327 952 m 11 X s 1332
 937 m21 1412 946 m 6 Y s 1412 975 m 6 Y s 1406 946 m 11 X s 1406 981 m 11 X s 1412 963 m21 1491 915 m 8 Y s 1491 945 m 8 Y s 1485 915 m 12 X s 1485 953 m 12 X s 1491 934 m21 1570 963 m 10 Y s 1570 996 m 10 Y s 1565 963 m 11 X s 1565 1006 m 11 X s
 1570 984 m21 1650 964 m 12 Y s 1650 998 m 12 Y s 1644 964 m 11 X s 1644 1010 m 11 X s 1650 987 m21 1729 944 m 14 Y s 1729 980 m 14 Y s 1723 944 m 12 X s 1723 994 m 12 X s 1729 969 m21 1809 958 m 15 Y s 1809 995 m 15 Y s 1803 958 m 11 X s 1803 1010 m
 11 X s 1809 984 m21 1888 902 m 16 Y s 1888 941 m 16 Y s 1882 902 m 12 X s 1882 957 m 12 X s 1888 929 m21 6 lw 1 1 1 c black 380 949 m 8 1 d 9 1 d 9 2 d 8 1 d 9 1 d 9 X 10 1 d 8 1 d 9 X 7 1 d 152 X 20 1 d 24 X 29 1 d 20 X 23 1 d 23 1 d 20 X 24 1 d 82
 X 19 -1 d 33 -1 d 20 X 28 -2 d 41 X 6 1 d 6 X 7 1 d 20 2 d 6 1 d 6 1 d 14 X 4 1 d 1 X 5 -1 d 14 X 6 -1 d 7 -1 d 12 -2 d 13 -1 d 7 -1 d 6 -1 d 5 X 5 -1 d 15 X 11 -1 d 53 X 57 -2 d 22 X 80 -3 d 7 X 9 -1 d 23 -1 d 35 X 4 1 d 4 X 3 1 d 3 1 d 3 X 3 1 d 3
 1 d 4 2 d 3 1 d 4 2 d 5 3 d 10 5 d 4 2 d 4 2 d 3 1 d 3 1 d 3 1 d 2 1 d 3 1 d 3 X 3 1 d 7 X 4 1 d 6 X 4 -1 d 7 X 4 -1 d 5 -1 d 5 -1 d 14 -3 d 6 -1 d 5 -1 d 5 -1 d 4 -1 d 7 X 4 -1 d 41 X 9 1 d 9 X 9 1 d 11 X 4 1 d 4 X 4 1 d 5 1 d 6 1 d 6 1 d 11 3 d 6
 1 d 5 1 d 4 1 d 4 X 4 1 d 21 X 4 -1 d 5 X 4 -1 d 5 -1 d 5 -1 d 4 -1 d 4 -1 d 4 -1 d 3 -1 d 4 -1 d 3 -1 d 4 -2 d 3 -1 d 3 -2 d 3 -1 d 3 -2 d 2 -2 d 3 -2 d 2 -1 d 1 -2 d 2 -2 d 2 -2 d 1 -2 d 1 -2 d s 3 lw /w 2 def /w2 {w 2 div} def /w3 {w 3 div} def
 380 949 459 957 539 958 618 958 697 960 777 962 856 963 935 961 1015 959 1094 966 1174 957 1253 956 1332 954 1412 951 1491 950 1570 977 1650 966 1729 968 1809 980 1888 947 20 { m20} R 6 lw
 gsave  2268 1328 0 0 C 2036.96 988.565 t 0 r /Helvetica-Bold findfont 48.4311 sf 0 0 m (/dof=0.3) show NC gr 
 gsave  2268 1328 0 0 C 2017.01 1005.66 t 0 r /Helvetica-Bold findfont 34.1867 sf 0 0 m (2) show NC gr 
 gsave  2268 1328 0 0 C 1991.37 988.565 t 0 r /Symbol findfont 48.4311 sf 0 0 m (c) show NC gr  3 lw 340 961 m 1588 X s
 gsave  2268 1328 0 0 C 1558.34 1213.63 t 0 r /Helvetica-Bold findfont 42.7334 sf 0 0 m (1.8512 ) show NC gr  /w 23 def /w2 {w 2 div} def /w3 {w 3 div} def 1517 1228 m21 1 1 1 c 0.48 0 1 c 380 1059 m21 459 1074 m21 539 1074 m21 618 1075 m21 697 1076
 m21 777 1079 m21 856 1084 m21 935 1081 m21 1015 1075 m21 1094 1084 m21 1174 1071 m21 black 1253 1055 m 2 Y s 1253 1080 m 2 Y s 1247 1055 m 12 X s 1247 1082 m 12 X s 0.48 0 1 c 1253 1068 m21 black 1332 1041 m 5 Y s 1332 1068 m 5 Y s 1327 1041 m 11 X
 s 1327 1073 m 11 X s 0.48 0 1 c 1332 1057 m21 black 1412 1051 m 8 Y s 1412 1082 m 7 Y s 1406 1051 m 11 X s 1406 1089 m 11 X s 0.48 0 1 c 1412 1070 m21 black 1491 1040 m 9 Y s 1491 1072 m 10 Y s 1485 1040 m 12 X s 1485 1082 m 12 X s 0.48 0 1 c 1491
 1061 m21 black 1570 1097 m 12 Y s 1570 1132 m 12 Y s 1565 1097 m 11 X s 1565 1144 m 11 X s 0.48 0 1 c 1570 1120 m21 black 1650 1056 m 13 Y s 1650 1091 m 13 Y s 1644 1056 m 11 X s 1644 1104 m 11 X s 0.48 0 1 c 1650 1080 m21 black 1729 1051 m 15 Y s
 1729 1089 m 14 Y s 1723 1051 m 12 X s 1723 1103 m 12 X s 0.48 0 1 c 1729 1077 m21 black 1809 1103 m 17 Y s 1809 1143 m 17 Y s 1803 1103 m 11 X s 1803 1160 m 11 X s 0.48 0 1 c 1809 1132 m21 black 1888 1024 m 18 Y s 1888 1065 m 17 Y s 1882 1024 m 12 X
 s 1882 1082 m 12 X s 0.48 0 1 c 1888 1053 m21 6 lw 1 1 1 c 0.48 0 1 c 380 1059 m 12 3 d 10 2 d 11 2 d 11 2 d 12 2 d 10 1 d 11 1 d 2 1 d 9 X 9 1 d 141 X 24 1 d 31 1 d 24 1 d 22 1 d 38 2 d 17 1 d 29 X 20 1 d 54 X 21 -1 d 22 X 15 -1 d 9 -1 d 11 -1 d 30
 -3 d 9 X 7 -1 d 6 X 7 1 d 6 X 5 1 d 6 1 d 6 1 d 9 3 d 16 4 d 7 2 d 6 1 d 6 1 d 5 X 4 1 d 4 X 5 -1 d 5 X 5 -1 d 6 -1 d 6 -1 d 8 -2 d 26 -8 d 6 -1 d 6 -1 d 5 -1 d 2 X 7 -1 d 8 -1 d 44 X 11 -1 d 9 X 9 -1 d 11 -1 d 41 -6 d 8 X 8 -1 d 28 X 17 1 d 41 X 6
 -1 d 6 -1 d 7 -2 d 21 -5 d 6 -1 d 4 -1 d 21 X 3 1 d 1 X 3 1 d 3 1 d 3 1 d 3 2 d 2 2 d 3 2 d 3 3 d 4 3 d 3 4 d 4 4 d 5 7 d 8 11 d 5 6 d 3 3 d 3 3 d 3 3 d 3 3 d 3 1 d 2 2 d 3 1 d 3 2 d 3 X 3 1 d 1 X 4 1 d 3 X 3 -1 d 4 X 4 -1 d 3 -1 d 5 -1 d 4 -2 d 6
 -3 d 8 -4 d 10 -5 d 6 -3 d 5 -2 d 5 -2 d 3 -1 d 4 -1 d 3 X 9 -2 d 9 -1 d 8 -1 d 8 X 7 -1 d 7 X 7 1 d 7 X 6 1 d 6 X 5 1 d 4 1 d 3 1 d 4 2 d 4 2 d 4 2 d 5 3 d 7 4 d 11 8 d 6 3 d 4 2 d 4 2 d 4 2 d 3 1 d 3 1 d 3 X 3 1 d 6 X 2 -1 d 4 X 4 -1 d 4 -1 d 5 -1
 d 4 -2 d 5 -2 d 4 -2 d 4 -3 d 4 -2 d 4 -3 d 3 -3 d 4 -3 d 3 -3 d 3 -3 d 3 -4 d 3 -4 d 3 -4 d 2 -4 d 3 -4 d 2 -4 d 2 -4 d 2 -5 d 1 -4 d 1 -5 d 1 -4 d 1 -4 d s 3 lw /w 2 def /w2 {w 2 div} def /w3 {w 3 div} def 380 1059 459 1073 539 1074 618 1074 697
 1077 777 1081 856 1082 935 1080 1015 1075 1094 1090 1174 1073 1253 1070 1332 1061 1412 1062 1491 1052 1570 1118 1650 1092 1729 1090 1809 1124 1888 1045 20 { m20} R 6 lw black 0.48 0 1 c
 gsave  2268 1328 0 0 C 2039.81 1113.92 t 0 r /Helvetica-Bold findfont 48.4311 sf 0 0 m (/dof=0.1) show NC gr  black 0.48 0 1 c
 gsave  2268 1328 0 0 C 2019.86 1131.01 t 0 r /Helvetica-Bold findfont 34.1867 sf 0 0 m (2) show NC gr  black 0.48 0 1 c
 gsave  2268 1328 0 0 C 1994.22 1113.92 t 0 r /Symbol findfont 48.4311 sf 0 0 m (c) show NC gr  black 3 lw 340 1078 m 1588 X s
 gsave  2268 1328 0 0 C 1783.41 1213.63 t 0 r /Helvetica-Bold findfont 42.7334 sf 0 0 m (1.8868 ) show NC gr  0.48 0 1 c /w 23 def /w2 {w 2 div} def /w3 {w 3 div} def 1743 1228 m21
 gr  gr showpage
end
%%EOF
