%!PS-Adobe-2.0 EPSF-2.0
%%BoundingBox:  0 0 567 332
%%Title: Horn1YOffset_far_fits.eps: Fits
%%Creator: ROOT Version 5.30/06
%%CreationDate: Sun Feb  2 09:35:13 2014
%%EndComments
%%BeginProlog
80 dict begin
/s {stroke} def /l {lineto} def /m {moveto} def /t {translate} def
/r {rotate} def /rl {roll}  def /R {repeat} def
/d {rlineto} def /rm {rmoveto} def /gr {grestore} def /f {eofill} def
/c {setrgbcolor} def /black {0 setgray} def /sd {setdash} def
/cl {closepath} def /sf {scalefont setfont} def /lw {setlinewidth} def
/box {m dup 0 exch d exch 0 d 0 exch neg d cl} def
/NC{systemdict begin initclip end}def/C{NC box clip newpath}def
/bl {box s} def /bf {box f} def /Y { 0 exch d} def /X { 0 d} def 
/K {{pop pop 0 moveto} exch kshow} bind def
/ita {/ang 15 def gsave [1 0 ang dup sin exch cos div 1 0 0] concat} def 
/mp {newpath /y exch def /x exch def} def
/side {[w .77 mul w .23 mul] .385 w mul sd w 0 l currentpoint t -144 r} def
/mr {mp x y w2 0 360 arc} def /m24 {mr s} def /m20 {mr f} def
/mb {mp x y w2 add m w2 neg 0 d 0 w neg d w 0 d 0 w d cl} def
/mt {mp x y w2 add m w2 neg w neg d w 0 d cl} def
/m21 {mb f} def /m25 {mb s} def /m22 {mt f} def /m26{mt s} def
/m23 {mp x y w2 sub m w2 w d w neg 0 d cl f} def
/m27 {mp x y w2 add m w3 neg w2 neg d w3 w2 neg d w3 w2 d cl s} def
/m28 {mp x w2 sub y w2 sub w3 add m w3 0 d  0 w3 neg d w3 0 d 0 w3 d w3 0 d  0 w3 d w3 neg 0 d 0 w3 d w3 neg 0 d 0 w3 neg d w3 neg 0 d cl s } def
/m29 {mp gsave x w2 sub y w2 add w3 sub m currentpoint t 4 {side} repeat cl fill gr} def
/m30 {mp gsave x w2 sub y w2 add w3 sub m currentpoint t 4 {side} repeat cl s gr} def
/m31 {mp x y w2 sub m 0 w d x w2 sub y m w 0 d x w2 sub y w2 add m w w neg d x w2 sub y w2 sub m w w d s} def
/m32 {mp x y w2 sub m w2 w d w neg 0 d cl s} def
/m33 {mp x y w2 add m w3 neg w2 neg d w3 w2 neg d w3 w2 d cl f} def
/m34 {mp x w2 sub y w2 sub w3 add m w3 0 d  0 w3 neg d w3 0 d 0 w3 d w3 0 d  0 w3 d w3 neg 0 d 0 w3 d w3 neg 0 d 0 w3 neg d w3 neg 0 d cl f } def
/m2 {mp x y w2 sub m 0 w d x w2 sub y m w 0 d s} def
/m5 {mp x w2 sub y w2 sub m w w d x w2 sub y w2 add m w w neg d s} def
/reEncode {exch findfont dup length dict begin {1 index /FID eq  {pop pop} {def} ifelse } forall /Encoding exch def currentdict end dup /FontName get exch definefont pop } def [/Times-Bold /Times-Italic /Times-BoldItalic /Helvetica /Helvetica-Oblique
 /Helvetica-Bold /Helvetica-BoldOblique /Courier /Courier-Oblique /Courier-Bold /Courier-BoldOblique /Times-Roman /AvantGarde-Book /AvantGarde-BookOblique /AvantGarde-Demi /AvantGarde-DemiOblique /Bookman-Demi /Bookman-DemiItalic /Bookman-Light
 /Bookman-LightItalic /Helvetica-Narrow /Helvetica-Narrow-Bold /Helvetica-Narrow-BoldOblique /Helvetica-Narrow-Oblique /NewCenturySchlbk-Roman /NewCenturySchlbk-Bold /NewCenturySchlbk-BoldItalic /NewCenturySchlbk-Italic /Palatino-Bold
 /Palatino-BoldItalic /Palatino-Italic /Palatino-Roman ] {ISOLatin1Encoding reEncode } forall%%EndProlog
%%BeginSetup
%%EndSetup
newpath  gsave  .25 .25 scale  gsave  0 0 t black[  ] 0 sd 3 lw 1 1 1 c 2268 1328 0 0 bf black 1 1 1 c 408 305 23 1009 bf black 1 1 1 c black 306 229 84 1055 bl 306 229 84 1055 bl 84 1055 m 306 X s 84 1059 m -4 Y s 196 1059 m -4 Y s 309 1059 m -4 Y s
 309 1059 m -4 Y s
 gsave  408 305 23 1009 C 74.0711 1034.15 t 0 r /Helvetica findfont 22.8295 sf 0 0 m (0) show NC gr 
 gsave  408 305 23 1009 C 188.027 1034.15 t 0 r /Helvetica findfont 22.8295 sf 0 0 m (1) show NC gr 
 gsave  408 305 23 1009 C 299.133 1034.15 t 0 r /Helvetica findfont 22.8295 sf 0 0 m (2) show NC gr  84 1284 m 306 X s 84 1280 m 4 Y s 196 1280 m 4 Y s 309 1280 m 4 Y s 309 1280 m 4 Y s 84 1055 m 229 Y s 89 1055 m -5 X s 87 1061 m -3 X s 87 1066 m -3
 X s 87 1072 m -3 X s 87 1077 m -3 X s 89 1083 m -5 X s 87 1088 m -3 X s 87 1094 m -3 X s 87 1100 m -3 X s 87 1105 m -3 X s 89 1111 m -5 X s 87 1116 m -3 X s 87 1122 m -3 X s 87 1127 m -3 X s 87 1133 m -3 X s 89 1138 m -5 X s 87 1144 m -3 X s 87 1150
 m -3 X s 87 1155 m -3 X s 87 1161 m -3 X s 89 1166 m -5 X s 87 1172 m -3 X s 87 1177 m -3 X s 87 1183 m -3 X s 87 1188 m -3 X s 89 1194 m -5 X s 87 1200 m -3 X s 87 1205 m -3 X s 87 1211 m -3 X s 87 1216 m -3 X s 89 1222 m -5 X s 87 1227 m -3 X s 87
 1233 m -3 X s 87 1238 m -3 X s 87 1244 m -3 X s 89 1250 m -5 X s 87 1255 m -3 X s 87 1261 m -3 X s 87 1266 m -3 X s 87 1272 m -3 X s 89 1277 m -5 X s 89 1055 m -5 X s 89 1277 m -5 X s 87 1283 m -3 X s
 gsave  408 305 23 1009 C 14.2445 1048.39 t 0 r /Helvetica findfont 22.8295 sf 0 0 m (\2550.003) show NC gr 
 gsave  408 305 23 1009 C 14.2445 1076.88 t 0 r /Helvetica findfont 22.8295 sf 0 0 m (\2550.002) show NC gr 
 gsave  408 305 23 1009 C 17.0933 1102.52 t 0 r /Helvetica findfont 22.8295 sf 0 0 m (\2550.001) show NC gr 
 gsave  408 305 23 1009 C 65.5245 1131.01 t 0 r /Helvetica findfont 22.8295 sf 0 0 m (0) show NC gr 
 gsave  408 305 23 1009 C 25.64 1159.5 t 0 r /Helvetica findfont 22.8295 sf 0 0 m (0.001) show NC gr 
 gsave  408 305 23 1009 C 22.7911 1187.99 t 0 r /Helvetica findfont 22.8295 sf 0 0 m (0.002) show NC gr 
 gsave  408 305 23 1009 C 22.7911 1213.63 t 0 r /Helvetica findfont 22.8295 sf 0 0 m (0.003) show NC gr 
 gsave  408 305 23 1009 C 22.7911 1242.12 t 0 r /Helvetica findfont 22.8295 sf 0 0 m (0.004) show NC gr 
 gsave  408 305 23 1009 C 22.7911 1270.6 t 0 r /Helvetica findfont 22.8295 sf 0 0 m (0.005) show NC gr  390 1055 m 229 Y s 385 1055 m 5 X s 387 1061 m 3 X s 387 1066 m 3 X s 387 1072 m 3 X s 387 1077 m 3 X s 385 1083 m 5 X s 387 1088 m 3 X s 387 1094
 m 3 X s 387 1100 m 3 X s 387 1105 m 3 X s 385 1111 m 5 X s 387 1116 m 3 X s 387 1122 m 3 X s 387 1127 m 3 X s 387 1133 m 3 X s 385 1138 m 5 X s 387 1144 m 3 X s 387 1150 m 3 X s 387 1155 m 3 X s 387 1161 m 3 X s 385 1166 m 5 X s 387 1172 m 3 X s 387
 1177 m 3 X s 387 1183 m 3 X s 387 1188 m 3 X s 385 1194 m 5 X s 387 1200 m 3 X s 387 1205 m 3 X s 387 1211 m 3 X s 387 1216 m 3 X s 385 1222 m 5 X s 387 1227 m 3 X s 387 1233 m 3 X s 387 1238 m 3 X s 387 1244 m 3 X s 385 1250 m 5 X s 387 1255 m 3 X
 s 387 1261 m 3 X s 387 1266 m 3 X s 387 1272 m 3 X s 385 1277 m 5 X s 385 1055 m 5 X s 385 1277 m 5 X s 387 1283 m 3 X s /w 22 def /w2 {w 2 div} def /w3 {w 3 div} def 140 1140 196 1215 309 1171 365 1124 4 { m21} R 140 1152 m 38 Y s 134 1190 m 12 X s
 140 1129 m -39 Y s 134 1090 m 12 X s 196 1226 m 39 Y s 191 1265 m 11 X s 196 1203 m -38 Y s 191 1165 m 11 X s 309 1182 m 39 Y s 303 1221 m 12 X s 309 1159 m -38 Y s 303 1121 m 12 X s 365 1135 m 39 Y s 360 1174 m 11 X s 365 1112 m -38 Y s 360 1074 m
 11 X s 9 lw 0.95 0.95 0.95 c black 85 1139 m 10 X 3 1 d 9 X 3 1 d 9 X 3 1 d 9 X 3 1 d 10 X 3 1 d 9 X 3 1 d 9 X 3 1 d 9 X 3 1 d 13 X 3 1 d 9 X 3 1 d 9 X 3 1 d 9 X 3 1 d s 235 1151 m 10 X 3 1 d 9 X 3 1 d 9 X 3 1 d 9 X 3 1 d 10 X 3 1 d 9 X 3 1 d 9 X 3
 1 d 9 X 3 1 d 10 X 3 1 d 9 X 3 1 d 9 X 3 1 d 9 X 3 1 d 3 X s 385 1163 m 4 X s 0.49 0.6 0.82 c black 0.49 0.6 0.82 c
 gsave  408 305 23 1009 C 142.445 1293.4 t 0 r /Helvetica-Bold findfont 25.6831 sf 0 0 m (0.0 < E < 0.5 GeV) show NC gr  0.52 0.76 0.64 c black 0.52 0.76 0.64 c
 gsave  408 305 23 1009 C 128.2 1256.36 t 0 r /Helvetica-Bold findfont 25.6831 sf 0 0 m 
 220 206 192 185 170 163 148 141 126 118 111 97 83 69 61 47 40 25 18
(A = 0.000, p = 1.000) K NC gr  1 0.6 1 c black 1 0.6 1 c
 gsave  408 305 23 1009 C 427.334 1122.46 t 90 r /Helvetica-Bold findfont 28.5368 sf 0 0 m (/dof=0.8) show NC gr  black 1 0.6 1 c
 gsave  408 305 23 1009 C 415.938 1111.07 t 90 r /Helvetica-Bold findfont 19.9758 sf 0 0 m (2) show NC gr  black 1 0.6 1 c
 gsave  408 305 23 1009 C 427.334 1093.97 t 90 r /Symbol findfont 28.5368 sf 0 0 m (c) show NC gr  black 3 lw 1 1 1 c 408 305 476 1009 bf black 1 1 1 c black 307 229 537 1055 bl 307 229 537 1055 bl 537 1055 m 307 X s 537 1059 m -4 Y s 650 1059 m -4 Y
 s 763 1059 m -4 Y s 763 1059 m -4 Y s
 gsave  408 305 476 1009 C 527.045 1034.15 t 0 r /Helvetica findfont 22.8295 sf 0 0 m (0) show NC gr 
 gsave  408 305 476 1009 C 643.849 1034.15 t 0 r /Helvetica findfont 22.8295 sf 0 0 m (1) show NC gr 
 gsave  408 305 476 1009 C 752.107 1034.15 t 0 r /Helvetica findfont 22.8295 sf 0 0 m (2) show NC gr  537 1284 m 307 X s 537 1280 m 4 Y s 650 1280 m 4 Y s 763 1280 m 4 Y s 763 1280 m 4 Y s 537 1055 m 229 Y s 543 1084 m -6 X s 540 1089 m -3 X s 540
 1095 m -3 X s 540 1101 m -3 X s 540 1107 m -3 X s 543 1112 m -6 X s 540 1118 m -3 X s 540 1124 m -3 X s 540 1130 m -3 X s 540 1136 m -3 X s 543 1141 m -6 X s 540 1147 m -3 X s 540 1153 m -3 X s 540 1159 m -3 X s 540 1165 m -3 X s 543 1170 m -6 X s
 540 1176 m -3 X s 540 1182 m -3 X s 540 1188 m -3 X s 540 1194 m -3 X s 543 1199 m -6 X s 540 1205 m -3 X s 540 1211 m -3 X s 540 1217 m -3 X s 540 1222 m -3 X s 543 1228 m -6 X s 540 1234 m -3 X s 540 1240 m -3 X s 540 1246 m -3 X s 540 1251 m -3 X
 s 543 1257 m -6 X s 543 1084 m -6 X s 540 1078 m -3 X s 540 1072 m -3 X s 540 1066 m -3 X s 540 1060 m -3 X s 543 1257 m -6 X s 540 1263 m -3 X s 540 1269 m -3 X s 540 1275 m -3 X s 540 1280 m -3 X s
 gsave  408 305 476 1009 C 467.218 1076.88 t 0 r /Helvetica findfont 22.8295 sf 0 0 m (\2550.005) show NC gr 
 gsave  408 305 476 1009 C 467.218 1105.37 t 0 r /Helvetica findfont 22.8295 sf 0 0 m (\2550.004) show NC gr 
 gsave  408 305 476 1009 C 467.218 1133.86 t 0 r /Helvetica findfont 22.8295 sf 0 0 m (\2550.003) show NC gr 
 gsave  408 305 476 1009 C 467.218 1162.35 t 0 r /Helvetica findfont 22.8295 sf 0 0 m (\2550.002) show NC gr 
 gsave  408 305 476 1009 C 470.067 1190.84 t 0 r /Helvetica findfont 22.8295 sf 0 0 m (\2550.001) show NC gr 
 gsave  408 305 476 1009 C 518.498 1222.17 t 0 r /Helvetica findfont 22.8295 sf 0 0 m (0) show NC gr 
 gsave  408 305 476 1009 C 478.614 1250.66 t 0 r /Helvetica findfont 22.8295 sf 0 0 m (0.001) show NC gr  844 1055 m 229 Y s 838 1084 m 6 X s 841 1089 m 3 X s 841 1095 m 3 X s 841 1101 m 3 X s 841 1107 m 3 X s 838 1112 m 6 X s 841 1118 m 3 X s 841
 1124 m 3 X s 841 1130 m 3 X s 841 1136 m 3 X s 838 1141 m 6 X s 841 1147 m 3 X s 841 1153 m 3 X s 841 1159 m 3 X s 841 1165 m 3 X s 838 1170 m 6 X s 841 1176 m 3 X s 841 1182 m 3 X s 841 1188 m 3 X s 841 1194 m 3 X s 838 1199 m 6 X s 841 1205 m 3 X
 s 841 1211 m 3 X s 841 1217 m 3 X s 841 1222 m 3 X s 838 1228 m 6 X s 841 1234 m 3 X s 841 1240 m 3 X s 841 1246 m 3 X s 841 1251 m 3 X s 838 1257 m 6 X s 838 1084 m 6 X s 841 1078 m 3 X s 841 1072 m 3 X s 841 1066 m 3 X s 841 1060 m 3 X s 838 1257
 m 6 X s 841 1263 m 3 X s 841 1269 m 3 X s 841 1275 m 3 X s 841 1280 m 3 X s /w 23 def /w2 {w 2 div} def /w3 {w 3 div} def 594 1201 650 1137 763 1196 819 1141 4 { m21} R 594 1213 m 52 Y s 588 1265 m 11 X s 594 1190 m -52 Y s 588 1138 m 11 X s 650
 1149 m 51 Y s 644 1200 m 12 X s 650 1126 m -52 Y s 644 1074 m 12 X s 763 1208 m 52 Y s 757 1260 m 11 X s 763 1185 m -52 Y s 757 1133 m 11 X s 819 1152 m 52 Y s 813 1204 m 12 X s 819 1129 m -52 Y s 813 1077 m 12 X s 9 lw 0.95 0.95 0.95 c black 539
 1228 m 3 -1 d 3 -1 d 3 -1 d 3 -1 d 3 -1 d 3 -1 d 3 -1 d 3 -1 d 4 X 3 -1 d 3 -1 d 3 -1 d 3 -1 d 3 -1 d 3 -1 d 3 -1 d 3 -1 d 3 -1 d 3 -1 d 3 -1 d 3 X 3 -1 d 3 -1 d 3 -1 d 4 -1 d 3 -1 d 3 -1 d 3 -1 d 3 -1 d 3 -1 d 3 -1 d 3 -1 d 3 X 3 -1 d 3 -1 d 3 -1 d
 3 -1 d 3 -1 d 3 -1 d 3 -1 d 3 -1 d 4 -1 d 3 -1 d 3 -1 d 3 X 3 -1 d 3 -1 d 3 -1 d 3 -1 d s 689 1183 m 3 -1 d 3 -1 d 3 -1 d 3 -1 d 3 -1 d 3 -1 d 3 -1 d 3 X 4 -1 d 3 -1 d 3 -1 d 3 -1 d 3 -1 d 3 -1 d 3 -1 d 3 -1 d 3 -1 d 3 -1 d 3 -1 d 3 X 3 -1 d 3 -1 d
 3 -1 d 3 -1 d 4 -1 d 3 -1 d 3 -1 d 3 -1 d 3 -1 d 3 -1 d 3 -1 d 3 X 3 -1 d 3 -1 d 3 -1 d 3 -1 d 3 -1 d 3 -1 d 3 -1 d 3 -1 d 4 -1 d 3 -1 d 3 -1 d 3 X 3 -1 d 3 -1 d 3 -1 d 3 -1 d 3 -1 d s 839 1138 m 3 -1 d s 0.49 0.6 0.82 c black 0.49 0.6 0.82 c
 gsave  408 305 476 1009 C 595.418 1293.4 t 0 r /Helvetica-Bold findfont 25.6831 sf 0 0 m (0.5 < E < 1.0 GeV) show NC gr  0.52 0.76 0.64 c black 0.52 0.76 0.64 c
 gsave  408 305 476 1009 C 575.476 1256.36 t 0 r /Helvetica-Bold findfont 25.6831 sf 0 0 m 
 228 214 200 193 178 171 156 149 133 126 119 105 91 76 69 55 47 39 25 17
(A = \2550.001, p = 1.000) K NC gr  1 0.6 1 c black 1 0.6 1 c
 gsave  408 305 476 1009 C 883.156 1122.46 t 90 r /Helvetica-Bold findfont 28.5368 sf 0 0 m (/dof=0.4) show NC gr  black 1 0.6 1 c
 gsave  408 305 476 1009 C 871.76 1111.07 t 90 r /Helvetica-Bold findfont 19.9758 sf 0 0 m (2) show NC gr  black 1 0.6 1 c
 gsave  408 305 476 1009 C 883.156 1093.97 t 90 r /Symbol findfont 28.5368 sf 0 0 m (c) show NC gr  black 3 lw 1 1 1 c 408 305 930 1009 bf black 1 1 1 c black 306 229 991 1055 bl 306 229 991 1055 bl 991 1055 m 306 X s 991 1059 m -4 Y s 1104 1059 m -4
 Y s 1216 1059 m -4 Y s 1216 1059 m -4 Y s
 gsave  408 305 930 1009 C 980.018 1034.15 t 0 r /Helvetica findfont 22.8295 sf 0 0 m (0) show NC gr 
 gsave  408 305 930 1009 C 1096.82 1034.15 t 0 r /Helvetica findfont 22.8295 sf 0 0 m (1) show NC gr 
 gsave  408 305 930 1009 C 1205.08 1034.15 t 0 r /Helvetica findfont 22.8295 sf 0 0 m (2) show NC gr  991 1284 m 306 X s 991 1280 m 4 Y s 1104 1280 m 4 Y s 1216 1280 m 4 Y s 1216 1280 m 4 Y s 991 1055 m 229 Y s 997 1079 m -6 X s 994 1083 m -3 X s 994
 1088 m -3 X s 994 1093 m -3 X s 994 1098 m -3 X s 997 1102 m -6 X s 994 1107 m -3 X s 994 1112 m -3 X s 994 1117 m -3 X s 994 1122 m -3 X s 997 1126 m -6 X s 994 1131 m -3 X s 994 1136 m -3 X s 994 1141 m -3 X s 994 1145 m -3 X s 997 1150 m -6 X s
 994 1155 m -3 X s 994 1160 m -3 X s 994 1165 m -3 X s 994 1169 m -3 X s 997 1174 m -6 X s 994 1179 m -3 X s 994 1184 m -3 X s 994 1188 m -3 X s 994 1193 m -3 X s 997 1198 m -6 X s 994 1203 m -3 X s 994 1208 m -3 X s 994 1212 m -3 X s 994 1217 m -3 X
 s 997 1222 m -6 X s 994 1227 m -3 X s 994 1231 m -3 X s 994 1236 m -3 X s 994 1241 m -3 X s 997 1246 m -6 X s 994 1250 m -3 X s 994 1255 m -3 X s 994 1260 m -3 X s 994 1265 m -3 X s 997 1270 m -6 X s 997 1079 m -6 X s 994 1074 m -3 X s 994 1069 m -3
 X s 994 1064 m -3 X s 994 1059 m -3 X s 997 1270 m -6 X s 994 1274 m -3 X s 994 1279 m -3 X s
 gsave  408 305 930 1009 C 923.04 1071.18 t 0 r /Helvetica findfont 22.8295 sf 0 0 m (\2550.004) show NC gr 
 gsave  408 305 930 1009 C 923.04 1093.97 t 0 r /Helvetica findfont 22.8295 sf 0 0 m (\2550.003) show NC gr 
 gsave  408 305 930 1009 C 923.04 1119.61 t 0 r /Helvetica findfont 22.8295 sf 0 0 m (\2550.002) show NC gr 
 gsave  408 305 930 1009 C 925.889 1142.4 t 0 r /Helvetica findfont 22.8295 sf 0 0 m (\2550.001) show NC gr 
 gsave  408 305 930 1009 C 974.32 1168.04 t 0 r /Helvetica findfont 22.8295 sf 0 0 m (0) show NC gr 
 gsave  408 305 930 1009 C 934.436 1190.84 t 0 r /Helvetica findfont 22.8295 sf 0 0 m (0.001) show NC gr 
 gsave  408 305 930 1009 C 931.587 1213.63 t 0 r /Helvetica findfont 22.8295 sf 0 0 m (0.002) show NC gr 
 gsave  408 305 930 1009 C 931.587 1239.27 t 0 r /Helvetica findfont 22.8295 sf 0 0 m (0.003) show NC gr 
 gsave  408 305 930 1009 C 931.587 1262.06 t 0 r /Helvetica findfont 22.8295 sf 0 0 m (0.004) show NC gr  1297 1055 m 229 Y s 1292 1079 m 5 X s 1294 1083 m 3 X s 1294 1088 m 3 X s 1294 1093 m 3 X s 1294 1098 m 3 X s 1292 1102 m 5 X s 1294 1107 m 3 X
 s 1294 1112 m 3 X s 1294 1117 m 3 X s 1294 1122 m 3 X s 1292 1126 m 5 X s 1294 1131 m 3 X s 1294 1136 m 3 X s 1294 1141 m 3 X s 1294 1145 m 3 X s 1292 1150 m 5 X s 1294 1155 m 3 X s 1294 1160 m 3 X s 1294 1165 m 3 X s 1294 1169 m 3 X s 1292 1174 m 5
 X s 1294 1179 m 3 X s 1294 1184 m 3 X s 1294 1188 m 3 X s 1294 1193 m 3 X s 1292 1198 m 5 X s 1294 1203 m 3 X s 1294 1208 m 3 X s 1294 1212 m 3 X s 1294 1217 m 3 X s 1292 1222 m 5 X s 1294 1227 m 3 X s 1294 1231 m 3 X s 1294 1236 m 3 X s 1294 1241 m
 3 X s 1292 1246 m 5 X s 1294 1250 m 3 X s 1294 1255 m 3 X s 1294 1260 m 3 X s 1294 1265 m 3 X s 1292 1270 m 5 X s 1292 1079 m 5 X s 1294 1074 m 3 X s 1294 1069 m 3 X s 1294 1064 m 3 X s 1294 1059 m 3 X s 1292 1270 m 5 X s 1294 1274 m 3 X s 1294 1279
 m 3 X s 1047 1150 1104 1212 1216 1171 1272 1126 4 { m21} R 1047 1161 m 41 Y s 1042 1202 m 11 X s 1047 1139 m -42 Y s 1042 1097 m 11 X s 1104 1224 m 41 Y s 1098 1265 m 11 X s 1104 1201 m -41 Y s 1098 1160 m 11 X s 1216 1183 m 41 Y s 1210 1224 m 12 X
 s 1216 1160 m -41 Y s 1210 1119 m 12 X s 1272 1138 m 41 Y s 1267 1179 m 11 X s 1272 1115 m -41 Y s 1267 1074 m 11 X s 1 0 0 c 9 lw 0.95 0.95 0.95 c black 1 0 0 c 993 1174 m 36 X 3 -1 d 22 X 3 -1 d 15 X 3 -1 d 9 X 3 -1 d 10 X 3 -1 d 9 X 3 -1 d 6 X 3
 -1 d 6 X 3 -1 d 6 X 3 -1 d 4 X s 1143 1165 m 3 X 3 -1 d 6 X 3 -1 d 3 X 3 -1 d 6 X 3 -1 d 3 X 3 -1 d 3 X 3 -1 d 3 X 4 -1 d 3 X 3 -1 d 3 X 3 -1 d 3 X 3 -1 d 3 X 3 -1 d 3 X 3 -1 d 3 X 3 -1 d 3 X 3 -1 d 3 -1 d 3 X 4 -1 d 3 X 3 -1 d 3 -1 d 3 X 3 -1 d 3
 -1 d 3 X 3 -1 d 3 -1 d 3 X 3 -1 d 3 -1 d 3 X 3 -1 d 3 -1 d 4 X s 1293 1139 m 3 -1 d s 0.49 0.6 0.82 c black 0.49 0.6 0.82 c
 gsave  408 305 930 1009 C 1051.24 1293.4 t 0 r /Helvetica-Bold findfont 25.6831 sf 0 0 m (1.0 < E < 1.5 GeV) show NC gr  0.52 0.76 0.64 c black 0.52 0.76 0.64 c
 gsave  408 305 930 1009 C 1031.3 1256.36 t 0 r /Helvetica-Bold findfont 25.6831 sf 0 0 m 
 228 214 200 193 178 171 156 149 133 126 119 105 91 77 69 55 47 39 25 17
(A = \2550.000, p = 2.000) K NC gr  1 0.6 1 c black 1 0.6 1 c
 gsave  408 305 930 1009 C 1336.13 1122.46 t 90 r /Helvetica-Bold findfont 28.5368 sf 0 0 m (/dof=0.4) show NC gr  black 1 0.6 1 c
 gsave  408 305 930 1009 C 1324.73 1111.07 t 90 r /Helvetica-Bold findfont 19.9758 sf 0 0 m (2) show NC gr  black 1 0.6 1 c
 gsave  408 305 930 1009 C 1336.13 1093.97 t 90 r /Symbol findfont 28.5368 sf 0 0 m (c) show NC gr  black 3 lw 1 1 1 c 408 305 1383 1009 bf black 1 1 1 c black 306 229 1445 1055 bl 306 229 1445 1055 bl 1445 1055 m 306 X s 1445 1059 m -4 Y s 1557 1059
 m -4 Y s 1670 1059 m -4 Y s 1670 1059 m -4 Y s
 gsave  408 305 1383 1009 C 1435.84 1034.15 t 0 r /Helvetica findfont 22.8295 sf 0 0 m (0) show NC gr 
 gsave  408 305 1383 1009 C 1549.8 1034.15 t 0 r /Helvetica findfont 22.8295 sf 0 0 m (1) show NC gr 
 gsave  408 305 1383 1009 C 1660.9 1034.15 t 0 r /Helvetica findfont 22.8295 sf 0 0 m (2) show NC gr  1445 1284 m 306 X s 1445 1280 m 4 Y s 1557 1280 m 4 Y s 1670 1280 m 4 Y s 1670 1280 m 4 Y s 1445 1055 m 229 Y s 1450 1079 m -5 X s 1447 1089 m -2 X
 s 1447 1099 m -2 X s 1447 1109 m -2 X s 1450 1119 m -5 X s 1447 1129 m -2 X s 1447 1139 m -2 X s 1447 1149 m -2 X s 1450 1159 m -5 X s 1447 1169 m -2 X s 1447 1180 m -2 X s 1447 1190 m -2 X s 1450 1200 m -5 X s 1447 1210 m -2 X s 1447 1220 m -2 X s
 1447 1230 m -2 X s 1450 1240 m -5 X s 1447 1250 m -2 X s 1447 1260 m -2 X s 1447 1270 m -2 X s 1450 1281 m -5 X s 1450 1079 m -5 X s 1447 1068 m -2 X s 1447 1058 m -2 X s 1450 1281 m -5 X s
 gsave  408 305 1383 1009 C 1376.01 1071.18 t 0 r /Helvetica findfont 22.8295 sf 0 0 m (\2550.006) show NC gr 
 gsave  408 305 1383 1009 C 1376.01 1111.07 t 0 r /Helvetica findfont 22.8295 sf 0 0 m (\2550.004) show NC gr 
 gsave  408 305 1383 1009 C 1376.01 1150.95 t 0 r /Helvetica findfont 22.8295 sf 0 0 m (\2550.002) show NC gr 
 gsave  408 305 1383 1009 C 1427.29 1193.68 t 0 r /Helvetica findfont 22.8295 sf 0 0 m (0) show NC gr 
 gsave  408 305 1383 1009 C 1384.56 1233.57 t 0 r /Helvetica findfont 22.8295 sf 0 0 m (0.002) show NC gr 
 gsave  408 305 1383 1009 C 1384.56 1273.45 t 0 r /Helvetica findfont 22.8295 sf 0 0 m (0.004) show NC gr  1751 1055 m 229 Y s 1745 1079 m 6 X s 1748 1089 m 3 X s 1748 1099 m 3 X s 1748 1109 m 3 X s 1745 1119 m 6 X s 1748 1129 m 3 X s 1748 1139 m 3 X
 s 1748 1149 m 3 X s 1745 1159 m 6 X s 1748 1169 m 3 X s 1748 1180 m 3 X s 1748 1190 m 3 X s 1745 1200 m 6 X s 1748 1210 m 3 X s 1748 1220 m 3 X s 1748 1230 m 3 X s 1745 1240 m 6 X s 1748 1250 m 3 X s 1748 1260 m 3 X s 1748 1270 m 3 X s 1745 1281 m 6
 X s 1745 1079 m 6 X s 1748 1068 m 3 X s 1748 1058 m 3 X s 1745 1281 m 6 X s 1501 1119 1557 1219 1670 1163 1726 1218 4 { m21} R 1501 1131 m 34 Y s 1495 1165 m 12 X s 1501 1108 m -34 Y s 1495 1074 m 12 X s 1557 1230 m 35 Y s 1551 1265 m 12 X s 1557
 1208 m -35 Y s 1551 1173 m 12 X s 1670 1175 m 34 Y s 1664 1209 m 11 X s 1670 1152 m -35 Y s 1664 1117 m 11 X s 1726 1229 m 35 Y s 1720 1264 m 12 X s 1726 1207 m -35 Y s 1720 1172 m 12 X s 9 lw 0.95 0.95 0.95 c black 1446 1200 m 3 X 3 -1 d 25 X 3 -1
 d 21 X 3 -1 d 25 X 3 -1 d 21 X 3 -1 d 25 X 3 -1 d 12 X s 1596 1194 m 9 X 3 -1 d 25 X 3 -1 d 24 X 3 -1 d 22 X 3 -1 d 24 X 3 -1 d 22 X 3 -1 d 6 X s 1746 1188 m 3 X s 0.49 0.6 0.82 c black 0.49 0.6 0.82 c
 gsave  408 305 1383 1009 C 1504.21 1293.4 t 0 r /Helvetica-Bold findfont 25.6831 sf 0 0 m (1.5 < E < 2.0 GeV) show NC gr  0.52 0.76 0.64 c black 0.52 0.76 0.64 c
 gsave  408 305 1383 1009 C 1484.27 1256.36 t 0 r /Helvetica-Bold findfont 25.6831 sf 0 0 m 
 228 214 200 193 178 171 156 149 134 126 119 105 91 77 69 55 47 40 25 17
(A = \2550.000, p = 1.000) K NC gr  1 0.6 1 c black 1 0.6 1 c
 gsave  408 305 1383 1009 C 1789.1 1122.46 t 90 r /Helvetica-Bold findfont 28.5368 sf 0 0 m (/dof=1.3) show NC gr  black 1 0.6 1 c
 gsave  408 305 1383 1009 C 1777.71 1111.07 t 90 r /Helvetica-Bold findfont 19.9758 sf 0 0 m (2) show NC gr  black 1 0.6 1 c
 gsave  408 305 1383 1009 C 1789.1 1093.97 t 90 r /Symbol findfont 28.5368 sf 0 0 m (c) show NC gr  black 3 lw 1 1 1 c 408 305 1837 1009 bf black 1 1 1 c black 306 229 1898 1055 bl 306 229 1898 1055 bl 1898 1055 m 306 X s 1898 1059 m -4 Y s 2011 1059
 m -4 Y s 2123 1059 m -4 Y s 2123 1059 m -4 Y s
 gsave  408 305 1837 1009 C 1888.81 1034.15 t 0 r /Helvetica findfont 22.8295 sf 0 0 m (0) show NC gr 
 gsave  408 305 1837 1009 C 2002.77 1034.15 t 0 r /Helvetica findfont 22.8295 sf 0 0 m (1) show NC gr 
 gsave  408 305 1837 1009 C 2113.88 1034.15 t 0 r /Helvetica findfont 22.8295 sf 0 0 m (2) show NC gr  1898 1284 m 306 X s 1898 1280 m 4 Y s 2011 1280 m 4 Y s 2123 1280 m 4 Y s 2123 1280 m 4 Y s 1898 1055 m 229 Y s 1904 1072 m -6 X s 1901 1083 m -3 X
 s 1901 1094 m -3 X s 1901 1105 m -3 X s 1904 1116 m -6 X s 1901 1127 m -3 X s 1901 1138 m -3 X s 1901 1150 m -3 X s 1904 1161 m -6 X s 1901 1172 m -3 X s 1901 1183 m -3 X s 1901 1194 m -3 X s 1904 1205 m -6 X s 1901 1217 m -3 X s 1901 1228 m -3 X s
 1901 1239 m -3 X s 1904 1250 m -6 X s 1904 1072 m -6 X s 1901 1060 m -3 X s 1904 1250 m -6 X s 1901 1261 m -3 X s 1901 1272 m -3 X s 1901 1283 m -3 X s
 gsave  408 305 1837 1009 C 1828.99 1065.48 t 0 r /Helvetica findfont 22.8295 sf 0 0 m (\2550.004) show NC gr 
 gsave  408 305 1837 1009 C 1828.99 1108.22 t 0 r /Helvetica findfont 22.8295 sf 0 0 m (\2550.002) show NC gr 
 gsave  408 305 1837 1009 C 1880.27 1153.8 t 0 r /Helvetica findfont 22.8295 sf 0 0 m (0) show NC gr 
 gsave  408 305 1837 1009 C 1837.53 1199.38 t 0 r /Helvetica findfont 22.8295 sf 0 0 m (0.002) show NC gr 
 gsave  408 305 1837 1009 C 1837.53 1242.12 t 0 r /Helvetica findfont 22.8295 sf 0 0 m (0.004) show NC gr  2204 1055 m 229 Y s 2199 1072 m 5 X s 2201 1083 m 3 X s 2201 1094 m 3 X s 2201 1105 m 3 X s 2199 1116 m 5 X s 2201 1127 m 3 X s 2201 1138 m 3 X
 s 2201 1150 m 3 X s 2199 1161 m 5 X s 2201 1172 m 3 X s 2201 1183 m 3 X s 2201 1194 m 3 X s 2199 1205 m 5 X s 2201 1217 m 3 X s 2201 1228 m 3 X s 2201 1239 m 3 X s 2199 1250 m 5 X s 2199 1072 m 5 X s 2201 1060 m 3 X s 2199 1250 m 5 X s 2201 1261 m 3
 X s 2201 1272 m 3 X s 2201 1283 m 3 X s 1954 1125 2011 1213 2123 1155 2179 1199 4 { m21} R 1954 1137 m 40 Y s 1949 1177 m 11 X s 1954 1114 m -40 Y s 1949 1074 m 11 X s 2011 1224 m 41 Y s 2005 1265 m 11 X s 2011 1201 m -40 Y s 2005 1161 m 11 X s 2123
 1166 m 40 Y s 2117 1206 m 12 X s 2123 1143 m -40 Y s 2117 1103 m 12 X s 2179 1210 m 40 Y s 2174 1250 m 11 X s 2179 1187 m -40 Y s 2174 1147 m 11 X s 9 lw 0.95 0.95 0.95 c black 1900 1161 m 6 X 3 1 d 6 X 3 1 d 9 X 3 1 d 9 X 3 1 d 7 X 3 1 d 9 X 3 1 d
 9 X 3 1 d 6 X 3 1 d 10 X 3 1 d 9 X 3 1 d 6 X 3 1 d 9 X 3 1 d 6 X 3 1 d 10 X s 2050 1174 m 3 1 d 9 X 3 1 d 6 X 3 1 d 9 X 3 1 d 10 X 3 1 d 6 X 3 1 d 9 X 3 1 d 9 X 3 1 d 6 X 3 1 d 10 X 3 1 d 9 X 3 1 d 6 X 3 1 d 9 X 3 1 d 10 X 3 1 d s 2200 1188 m 3 X s
 0.49 0.6 0.82 c black 0.49 0.6 0.82 c
 gsave  408 305 1837 1009 C 1957.19 1293.4 t 0 r /Helvetica-Bold findfont 25.6831 sf 0 0 m (2.0 < E < 2.5 GeV) show NC gr  0.52 0.76 0.64 c black 0.52 0.76 0.64 c
 gsave  408 305 1837 1009 C 1942.94 1256.36 t 0 r /Helvetica-Bold findfont 25.6831 sf 0 0 m 
 220 206 192 185 170 163 148 141 125 118 111 97 83 69 61 47 40 25 18
(A = 0.000, p = 1.000) K NC gr  1 0.6 1 c black 1 0.6 1 c
 gsave  408 305 1837 1009 C 2242.08 1122.46 t 90 r /Helvetica-Bold findfont 28.5368 sf 0 0 m (/dof=0.5) show NC gr  black 1 0.6 1 c
 gsave  408 305 1837 1009 C 2230.68 1111.07 t 90 r /Helvetica-Bold findfont 19.9758 sf 0 0 m (2) show NC gr  black 1 0.6 1 c
 gsave  408 305 1837 1009 C 2242.08 1093.97 t 90 r /Symbol findfont 28.5368 sf 0 0 m (c) show NC gr  black 3 lw 1 1 1 c 408 305 23 677 bf black 1 1 1 c black 306 229 84 723 bl 306 229 84 723 bl 84 723 m 306 X s 84 727 m -4 Y s 196 727 m -4 Y s 309
 727 m -4 Y s 309 727 m -4 Y s
 gsave  408 305 23 677 C 74.0711 703.676 t 0 r /Helvetica findfont 22.8295 sf 0 0 m (0) show NC gr 
 gsave  408 305 23 677 C 188.027 703.676 t 0 r /Helvetica findfont 22.8295 sf 0 0 m (1) show NC gr 
 gsave  408 305 23 677 C 299.133 703.676 t 0 r /Helvetica findfont 22.8295 sf 0 0 m (2) show NC gr  84 952 m 306 X s 84 948 m 4 Y s 196 948 m 4 Y s 309 948 m 4 Y s 309 948 m 4 Y s 84 723 m 229 Y s 89 756 m -5 X s 87 765 m -3 X s 87 774 m -3 X s 87
 783 m -3 X s 89 792 m -5 X s 87 801 m -3 X s 87 810 m -3 X s 87 819 m -3 X s 89 828 m -5 X s 87 837 m -3 X s 87 846 m -3 X s 87 855 m -3 X s 89 864 m -5 X s 87 873 m -3 X s 87 882 m -3 X s 87 891 m -3 X s 89 900 m -5 X s 87 909 m -3 X s 87 918 m -3
 X s 87 927 m -3 X s 89 936 m -5 X s 89 756 m -5 X s 87 747 m -3 X s 87 738 m -3 X s 87 729 m -3 X s 89 936 m -5 X s 87 945 m -3 X s
 gsave  408 305 23 677 C 14.2445 749.258 t 0 r /Helvetica findfont 22.8295 sf 0 0 m (\2550.008) show NC gr 
 gsave  408 305 23 677 C 14.2445 783.445 t 0 r /Helvetica findfont 22.8295 sf 0 0 m (\2550.006) show NC gr 
 gsave  408 305 23 677 C 14.2445 820.48 t 0 r /Helvetica findfont 22.8295 sf 0 0 m (\2550.004) show NC gr 
 gsave  408 305 23 677 C 14.2445 857.516 t 0 r /Helvetica findfont 22.8295 sf 0 0 m (\2550.002) show NC gr 
 gsave  408 305 23 677 C 65.5245 891.703 t 0 r /Helvetica findfont 22.8295 sf 0 0 m (0) show NC gr 
 gsave  408 305 23 677 C 22.7911 928.738 t 0 r /Helvetica findfont 22.8295 sf 0 0 m (0.002) show NC gr  390 723 m 229 Y s 385 756 m 5 X s 387 765 m 3 X s 387 774 m 3 X s 387 783 m 3 X s 385 792 m 5 X s 387 801 m 3 X s 387 810 m 3 X s 387 819 m 3 X s
 385 828 m 5 X s 387 837 m 3 X s 387 846 m 3 X s 387 855 m 3 X s 385 864 m 5 X s 387 873 m 3 X s 387 882 m 3 X s 387 891 m 3 X s 385 900 m 5 X s 387 909 m 3 X s 387 918 m 3 X s 387 927 m 3 X s 385 936 m 5 X s 385 756 m 5 X s 387 747 m 3 X s 387 738 m
 3 X s 387 729 m 3 X s 385 936 m 5 X s 387 945 m 3 X s /w 22 def /w2 {w 2 div} def /w3 {w 3 div} def 140 889 196 878 309 880 365 786 4 { m21} R 140 901 m 32 Y s 134 933 m 12 X s 140 878 m -32 Y s 134 846 m 12 X s 196 890 m 32 Y s 191 922 m 11 X s 196
 867 m -32 Y s 191 835 m 11 X s 309 892 m 32 Y s 303 924 m 12 X s 309 869 m -32 Y s 303 837 m 12 X s 365 797 m 32 Y s 360 829 m 11 X s 365 774 m -32 Y s 360 742 m 11 X s 1 0 0 c 9 lw 0.95 0.95 0.95 c black 1 0 0 c 85 900 m 16 X 3 -1 d 12 X 3 -1 d 9 X
 3 -1 d 6 X 4 -1 d 3 X 3 -1 d 3 X 3 -1 d 3 X 3 -1 d 3 X 3 -1 d 3 X 3 -1 d 3 -1 d 3 X 3 -1 d 3 -1 d 3 X 4 -1 d 3 -1 d 3 X 3 -1 d 3 -1 d 3 -1 d 3 -1 d 3 -1 d 3 -1 d 3 -1 d 3 X 3 -1 d 3 -1 d 3 -1 d 3 -1 d 3 -2 d s 235 873 m 4 -1 d 3 -1 d 3 -1 d 3 -1 d 3
 -1 d 3 -1 d 3 -2 d 3 -1 d 3 -1 d 3 -1 d 3 -2 d 3 -1 d 3 -1 d 3 -2 d 3 -1 d 3 -1 d 3 -2 d 4 -1 d 3 -2 d 3 -1 d 3 -2 d 3 -1 d 3 -2 d 3 -1 d 3 -2 d 3 -2 d 3 -1 d 3 -2 d 3 -2 d 3 -1 d 3 -2 d 3 -2 d 3 -2 d 4 -1 d 3 -2 d 3 -2 d 3 -2 d 3 -2 d 3 -2 d 3 -2 d
 3 -1 d 3 -2 d 3 -2 d 3 -2 d 3 -2 d 3 -2 d 3 -3 d 3 -2 d 3 -2 d s 385 795 m 4 -2 d s 0.49 0.6 0.82 c black 0.49 0.6 0.82 c
 gsave  408 305 23 677 C 142.445 960.076 t 0 r /Helvetica-Bold findfont 25.6831 sf 0 0 m (2.5 < E < 3.0 GeV) show NC gr  0.52 0.76 0.64 c black 0.52 0.76 0.64 c
 gsave  408 305 23 677 C 122.502 923.04 t 0 r /Helvetica-Bold findfont 25.6831 sf 0 0 m 
 228 214 200 193 178 171 156 149 134 126 119 105 91 77 69 55 47 39 25 17
(A = \2550.001, p = 2.000) K NC gr  1 0.6 1 c black 1 0.6 1 c
 gsave  408 305 23 677 C 427.334 791.991 t 90 r /Helvetica-Bold findfont 28.5368 sf 0 0 m (/dof=0.4) show NC gr  black 1 0.6 1 c
 gsave  408 305 23 677 C 415.938 780.596 t 90 r /Helvetica-Bold findfont 19.9758 sf 0 0 m (2) show NC gr  black 1 0.6 1 c
 gsave  408 305 23 677 C 427.334 763.503 t 90 r /Symbol findfont 28.5368 sf 0 0 m (c) show NC gr  black 3 lw 1 1 1 c 408 305 476 677 bf black 1 1 1 c black 307 229 537 723 bl 307 229 537 723 bl 537 723 m 307 X s 537 727 m -4 Y s 650 727 m -4 Y s 763
 727 m -4 Y s 763 727 m -4 Y s
 gsave  408 305 476 677 C 527.045 703.676 t 0 r /Helvetica findfont 22.8295 sf 0 0 m (0) show NC gr 
 gsave  408 305 476 677 C 643.849 703.676 t 0 r /Helvetica findfont 22.8295 sf 0 0 m (1) show NC gr 
 gsave  408 305 476 677 C 752.107 703.676 t 0 r /Helvetica findfont 22.8295 sf 0 0 m (2) show NC gr  537 952 m 307 X s 537 948 m 4 Y s 650 948 m 4 Y s 763 948 m 4 Y s 763 948 m 4 Y s 537 723 m 229 Y s 543 731 m -6 X s 540 737 m -3 X s 540 743 m -3 X
 s 540 749 m -3 X s 543 755 m -6 X s 540 761 m -3 X s 540 767 m -3 X s 540 773 m -3 X s 543 779 m -6 X s 540 784 m -3 X s 540 790 m -3 X s 540 796 m -3 X s 543 802 m -6 X s 540 808 m -3 X s 540 814 m -3 X s 540 820 m -3 X s 543 826 m -6 X s 540 832 m
 -3 X s 540 838 m -3 X s 540 843 m -3 X s 543 849 m -6 X s 540 855 m -3 X s 540 861 m -3 X s 540 867 m -3 X s 543 873 m -6 X s 540 879 m -3 X s 540 885 m -3 X s 540 891 m -3 X s 543 897 m -6 X s 540 903 m -3 X s 540 908 m -3 X s 540 914 m -3 X s 543
 920 m -6 X s 540 926 m -3 X s 540 932 m -3 X s 540 938 m -3 X s 543 944 m -6 X s 543 731 m -6 X s 540 725 m -3 X s 543 944 m -6 X s 540 950 m -3 X s
 gsave  408 305 476 677 C 467.218 723.618 t 0 r /Helvetica findfont 22.8295 sf 0 0 m (\2550.012) show NC gr 
 gsave  408 305 476 677 C 484.311 746.409 t 0 r /Helvetica findfont 22.8295 sf 0 0 m (\2550.01) show NC gr 
 gsave  408 305 476 677 C 467.218 772.049 t 0 r /Helvetica findfont 22.8295 sf 0 0 m (\2550.008) show NC gr 
 gsave  408 305 476 677 C 467.218 794.84 t 0 r /Helvetica findfont 22.8295 sf 0 0 m (\2550.006) show NC gr 
 gsave  408 305 476 677 C 467.218 817.631 t 0 r /Helvetica findfont 22.8295 sf 0 0 m (\2550.004) show NC gr 
 gsave  408 305 476 677 C 467.218 843.271 t 0 r /Helvetica findfont 22.8295 sf 0 0 m (\2550.002) show NC gr 
 gsave  408 305 476 677 C 518.498 866.063 t 0 r /Helvetica findfont 22.8295 sf 0 0 m (0) show NC gr 
 gsave  408 305 476 677 C 475.765 888.854 t 0 r /Helvetica findfont 22.8295 sf 0 0 m (0.002) show NC gr 
 gsave  408 305 476 677 C 475.765 914.494 t 0 r /Helvetica findfont 22.8295 sf 0 0 m (0.004) show NC gr 
 gsave  408 305 476 677 C 475.765 937.285 t 0 r /Helvetica findfont 22.8295 sf 0 0 m (0.006) show NC gr  844 723 m 229 Y s 838 731 m 6 X s 841 737 m 3 X s 841 743 m 3 X s 841 749 m 3 X s 838 755 m 6 X s 841 761 m 3 X s 841 767 m 3 X s 841 773 m 3 X s
 838 779 m 6 X s 841 784 m 3 X s 841 790 m 3 X s 841 796 m 3 X s 838 802 m 6 X s 841 808 m 3 X s 841 814 m 3 X s 841 820 m 3 X s 838 826 m 6 X s 841 832 m 3 X s 841 838 m 3 X s 841 843 m 3 X s 838 849 m 6 X s 841 855 m 3 X s 841 861 m 3 X s 841 867 m
 3 X s 838 873 m 6 X s 841 879 m 3 X s 841 885 m 3 X s 841 891 m 3 X s 838 897 m 6 X s 841 903 m 3 X s 841 908 m 3 X s 841 914 m 3 X s 838 920 m 6 X s 841 926 m 3 X s 841 932 m 3 X s 841 938 m 3 X s 838 944 m 6 X s 838 731 m 6 X s 841 725 m 3 X s 838
 944 m 6 X s 841 950 m 3 X s /w 23 def /w2 {w 2 div} def /w3 {w 3 div} def 594 901 650 884 763 842 819 773 4 { m21} R 594 913 m 20 Y s 588 933 m 11 X s 594 890 m -20 Y s 588 870 m 11 X s 650 896 m 20 Y s 644 916 m 12 X s 650 873 m -20 Y s 644 853 m
 12 X s 763 853 m 20 Y s 757 873 m 11 X s 763 831 m -20 Y s 757 811 m 11 X s 819 784 m 20 Y s 813 804 m 12 X s 819 762 m -20 Y s 813 742 m 12 X s 1 0 0 c 9 lw 0.95 0.95 0.95 c black 1 0 0 c 539 873 m 18 X 3 -1 d 13 X 3 -1 d 9 X 3 -1 d 6 X 3 -1 d 6 X
 3 -1 d 3 X 3 -1 d 4 X 3 -1 d 3 X 3 -1 d 3 X 3 -1 d 3 -1 d 3 X 3 -1 d 3 -1 d 3 X 3 -1 d 3 -1 d 3 X 3 -1 d 3 -1 d 3 -1 d 4 X 3 -1 d 3 -1 d 3 -1 d 3 -1 d 3 -1 d 3 -1 d 3 -1 d s 689 849 m 3 -1 d 3 -1 d 3 -1 d 3 -1 d 3 -1 d 3 -1 d 3 -1 d 3 -1 d 4 -1 d 3
 -1 d 3 -1 d 3 -2 d 3 -1 d 3 -1 d 3 -1 d 3 -1 d 3 -2 d 3 -1 d 3 -1 d 3 -2 d 3 -1 d 3 -1 d 3 -2 d 3 -1 d 4 -2 d 3 -1 d 3 -2 d 3 -1 d 3 -2 d 3 -1 d 3 -2 d 3 -1 d 3 -2 d 3 -1 d 3 -2 d 3 -2 d 3 -1 d 3 -2 d 3 -2 d 3 -1 d 4 -2 d 3 -2 d 3 -2 d 3 -1 d 3 -2 d
 3 -2 d 3 -2 d 3 -2 d 3 -2 d s 839 779 m 3 -2 d s 0.49 0.6 0.82 c black 0.49 0.6 0.82 c
 gsave  408 305 476 677 C 595.418 960.076 t 0 r /Helvetica-Bold findfont 25.6831 sf 0 0 m (3.0 < E < 3.5 GeV) show NC gr  0.52 0.76 0.64 c black 0.52 0.76 0.64 c
 gsave  408 305 476 677 C 575.476 923.04 t 0 r /Helvetica-Bold findfont 25.6831 sf 0 0 m 
 228 214 200 193 178 171 156 149 133 126 119 105 91 76 69 55 47 39 25 17
(A = \2550.001, p = 2.000) K NC gr  1 0.6 1 c black 1 0.6 1 c
 gsave  408 305 476 677 C 883.156 791.991 t 90 r /Helvetica-Bold findfont 28.5368 sf 0 0 m (/dof=0.8) show NC gr  black 1 0.6 1 c
 gsave  408 305 476 677 C 871.76 780.596 t 90 r /Helvetica-Bold findfont 19.9758 sf 0 0 m (2) show NC gr  black 1 0.6 1 c
 gsave  408 305 476 677 C 883.156 763.503 t 90 r /Symbol findfont 28.5368 sf 0 0 m (c) show NC gr  black 3 lw 1 1 1 c 408 305 930 677 bf black 1 1 1 c black 306 229 991 723 bl 306 229 991 723 bl 991 723 m 306 X s 991 727 m -4 Y s 1104 727 m -4 Y s
 1216 727 m -4 Y s 1216 727 m -4 Y s
 gsave  408 305 930 677 C 980.018 703.676 t 0 r /Helvetica findfont 22.8295 sf 0 0 m (0) show NC gr 
 gsave  408 305 930 677 C 1096.82 703.676 t 0 r /Helvetica findfont 22.8295 sf 0 0 m (1) show NC gr 
 gsave  408 305 930 677 C 1205.08 703.676 t 0 r /Helvetica findfont 22.8295 sf 0 0 m (2) show NC gr  991 952 m 306 X s 991 948 m 4 Y s 1104 948 m 4 Y s 1216 948 m 4 Y s 1216 948 m 4 Y s 991 723 m 229 Y s 997 741 m -6 X s 994 747 m -3 X s 994 753 m -3
 X s 994 759 m -3 X s 997 765 m -6 X s 994 771 m -3 X s 994 777 m -3 X s 994 783 m -3 X s 997 789 m -6 X s 994 795 m -3 X s 994 801 m -3 X s 994 807 m -3 X s 997 813 m -6 X s 994 819 m -3 X s 994 825 m -3 X s 994 831 m -3 X s 997 837 m -6 X s 994 843
 m -3 X s 994 849 m -3 X s 994 855 m -3 X s 997 861 m -6 X s 994 867 m -3 X s 994 873 m -3 X s 994 880 m -3 X s 997 886 m -6 X s 994 892 m -3 X s 994 898 m -3 X s 994 904 m -3 X s 997 910 m -6 X s 994 916 m -3 X s 994 922 m -3 X s 994 928 m -3 X s
 997 934 m -6 X s 997 741 m -6 X s 994 734 m -3 X s 994 728 m -3 X s 997 934 m -6 X s 994 940 m -3 X s 994 946 m -3 X s
 gsave  408 305 930 677 C 923.04 732.165 t 0 r /Helvetica findfont 22.8295 sf 0 0 m (\2550.014) show NC gr 
 gsave  408 305 930 677 C 923.04 757.805 t 0 r /Helvetica findfont 22.8295 sf 0 0 m (\2550.012) show NC gr 
 gsave  408 305 930 677 C 940.134 780.596 t 0 r /Helvetica findfont 22.8295 sf 0 0 m (\2550.01) show NC gr 
 gsave  408 305 930 677 C 923.04 806.236 t 0 r /Helvetica findfont 22.8295 sf 0 0 m (\2550.008) show NC gr 
 gsave  408 305 930 677 C 923.04 829.027 t 0 r /Helvetica findfont 22.8295 sf 0 0 m (\2550.006) show NC gr 
 gsave  408 305 930 677 C 923.04 854.667 t 0 r /Helvetica findfont 22.8295 sf 0 0 m (\2550.004) show NC gr 
 gsave  408 305 930 677 C 923.04 877.458 t 0 r /Helvetica findfont 22.8295 sf 0 0 m (\2550.002) show NC gr 
 gsave  408 305 930 677 C 974.32 903.098 t 0 r /Helvetica findfont 22.8295 sf 0 0 m (0) show NC gr 
 gsave  408 305 930 677 C 931.587 925.889 t 0 r /Helvetica findfont 22.8295 sf 0 0 m (0.002) show NC gr  1297 723 m 229 Y s 1292 741 m 5 X s 1294 747 m 3 X s 1294 753 m 3 X s 1294 759 m 3 X s 1292 765 m 5 X s 1294 771 m 3 X s 1294 777 m 3 X s 1294
 783 m 3 X s 1292 789 m 5 X s 1294 795 m 3 X s 1294 801 m 3 X s 1294 807 m 3 X s 1292 813 m 5 X s 1294 819 m 3 X s 1294 825 m 3 X s 1294 831 m 3 X s 1292 837 m 5 X s 1294 843 m 3 X s 1294 849 m 3 X s 1294 855 m 3 X s 1292 861 m 5 X s 1294 867 m 3 X s
 1294 873 m 3 X s 1294 880 m 3 X s 1292 886 m 5 X s 1294 892 m 3 X s 1294 898 m 3 X s 1294 904 m 3 X s 1292 910 m 5 X s 1294 916 m 3 X s 1294 922 m 3 X s 1294 928 m 3 X s 1292 934 m 5 X s 1292 741 m 5 X s 1294 734 m 3 X s 1294 728 m 3 X s 1292 934 m
 5 X s 1294 940 m 3 X s 1294 946 m 3 X s 1047 895 1104 821 1216 833 1272 779 4 { m21} R 1047 907 m 26 Y s 1042 933 m 11 X s 1047 884 m -27 Y s 1042 857 m 11 X s 1104 832 m 26 Y s 1098 858 m 11 X s 1104 809 m -26 Y s 1098 783 m 11 X s 1216 845 m 26 Y
 s 1210 871 m 12 X s 1216 822 m -26 Y s 1210 796 m 12 X s 1272 791 m 25 Y s 1267 816 m 11 X s 1272 768 m -26 Y s 1267 742 m 11 X s 9 lw 0.95 0.95 0.95 c black 993 909 m 3 -1 d 3 -2 d 3 -1 d 3 -1 d 3 -2 d 3 -1 d 3 -1 d 3 -2 d 3 -1 d 3 -2 d 3 -1 d 3 -1
 d 3 -2 d 3 -1 d 3 -1 d 4 -2 d 3 -1 d 3 -1 d 3 -2 d 3 -1 d 3 -2 d 3 -1 d 3 -1 d 3 -2 d 3 -1 d 3 -1 d 3 -2 d 3 -1 d 3 -1 d 3 -2 d 3 -1 d 3 -2 d 4 -1 d 3 -1 d 3 -2 d 3 -1 d 3 -1 d 3 -2 d 3 -1 d 3 -1 d 3 -2 d 3 -1 d 3 -1 d 3 -2 d 3 -1 d 3 -2 d 3 -1 d 3
 -1 d 4 -2 d s 1143 842 m 3 -1 d 3 -1 d 3 -2 d 3 -1 d 3 -1 d 3 -2 d 3 -1 d 3 -2 d 3 -1 d 3 -1 d 3 -2 d 3 -1 d 3 -1 d 3 -2 d 3 -1 d 4 -1 d 3 -2 d 3 -1 d 3 -2 d 3 -1 d 3 -1 d 3 -2 d 3 -1 d 3 -1 d 3 -2 d 3 -1 d 3 -1 d 3 -2 d 3 -1 d 3 -2 d 3 -1 d 3 -1 d
 4 -2 d 3 -1 d 3 -1 d 3 -2 d 3 -1 d 3 -1 d 3 -2 d 3 -1 d 3 -1 d 3 -2 d 3 -1 d 3 -2 d 3 -1 d 3 -1 d 3 -2 d 3 -1 d 4 -1 d s 1293 776 m 3 -2 d s 0.49 0.6 0.82 c black 0.49 0.6 0.82 c
 gsave  408 305 930 677 C 1051.24 960.076 t 0 r /Helvetica-Bold findfont 25.6831 sf 0 0 m (3.5 < E < 4.0 GeV) show NC gr  0.52 0.76 0.64 c black 0.52 0.76 0.64 c
 gsave  408 305 930 677 C 1031.3 923.04 t 0 r /Helvetica-Bold findfont 25.6831 sf 0 0 m 
 228 214 200 193 178 171 156 149 133 126 119 105 91 77 69 55 47 39 25 17
(A = \2550.004, p = 1.000) K NC gr  1 0.6 1 c black 1 0.6 1 c
 gsave  408 305 930 677 C 1336.13 791.991 t 90 r /Helvetica-Bold findfont 28.5368 sf 0 0 m (/dof=0.5) show NC gr  black 1 0.6 1 c
 gsave  408 305 930 677 C 1324.73 780.596 t 90 r /Helvetica-Bold findfont 19.9758 sf 0 0 m (2) show NC gr  black 1 0.6 1 c
 gsave  408 305 930 677 C 1336.13 763.503 t 90 r /Symbol findfont 28.5368 sf 0 0 m (c) show NC gr  black 3 lw 1 1 1 c 408 305 1383 677 bf black 1 1 1 c black 306 229 1445 723 bl 306 229 1445 723 bl 1445 723 m 306 X s 1445 727 m -4 Y s 1557 727 m -4 Y
 s 1670 727 m -4 Y s 1670 727 m -4 Y s
 gsave  408 305 1383 677 C 1435.84 703.676 t 0 r /Helvetica findfont 22.8295 sf 0 0 m (0) show NC gr 
 gsave  408 305 1383 677 C 1549.8 703.676 t 0 r /Helvetica findfont 22.8295 sf 0 0 m (1) show NC gr 
 gsave  408 305 1383 677 C 1660.9 703.676 t 0 r /Helvetica findfont 22.8295 sf 0 0 m (2) show NC gr  1445 952 m 306 X s 1445 948 m 4 Y s 1557 948 m 4 Y s 1670 948 m 4 Y s 1670 948 m 4 Y s 1445 723 m 229 Y s 1450 757 m -5 X s 1447 764 m -2 X s 1447
 772 m -2 X s 1447 779 m -2 X s 1447 787 m -2 X s 1450 794 m -5 X s 1447 802 m -2 X s 1447 809 m -2 X s 1447 817 m -2 X s 1447 824 m -2 X s 1450 832 m -5 X s 1447 839 m -2 X s 1447 847 m -2 X s 1447 854 m -2 X s 1447 862 m -2 X s 1450 869 m -5 X s
 1447 877 m -2 X s 1447 884 m -2 X s 1447 892 m -2 X s 1447 899 m -2 X s 1450 907 m -5 X s 1447 914 m -2 X s 1447 922 m -2 X s 1447 929 m -2 X s 1447 937 m -2 X s 1450 944 m -5 X s 1450 757 m -5 X s 1447 749 m -2 X s 1447 742 m -2 X s 1447 734 m -2 X
 s 1447 727 m -2 X s 1450 944 m -5 X s 1447 952 m -2 X s
 gsave  408 305 1383 677 C 1390.26 749.258 t 0 r /Helvetica findfont 22.8295 sf 0 0 m (\2550.02) show NC gr 
 gsave  408 305 1383 677 C 1376.01 786.294 t 0 r /Helvetica findfont 22.8295 sf 0 0 m (\2550.015) show NC gr 
 gsave  408 305 1383 677 C 1393.11 823.329 t 0 r /Helvetica findfont 22.8295 sf 0 0 m (\2550.01) show NC gr 
 gsave  408 305 1383 677 C 1376.01 863.214 t 0 r /Helvetica findfont 22.8295 sf 0 0 m (\2550.005) show NC gr 
 gsave  408 305 1383 677 C 1427.29 900.249 t 0 r /Helvetica findfont 22.8295 sf 0 0 m (0) show NC gr 
 gsave  408 305 1383 677 C 1384.56 937.285 t 0 r /Helvetica findfont 22.8295 sf 0 0 m (0.005) show NC gr  1751 723 m 229 Y s 1745 757 m 6 X s 1748 764 m 3 X s 1748 772 m 3 X s 1748 779 m 3 X s 1748 787 m 3 X s 1745 794 m 6 X s 1748 802 m 3 X s 1748
 809 m 3 X s 1748 817 m 3 X s 1748 824 m 3 X s 1745 832 m 6 X s 1748 839 m 3 X s 1748 847 m 3 X s 1748 854 m 3 X s 1748 862 m 3 X s 1745 869 m 6 X s 1748 877 m 3 X s 1748 884 m 3 X s 1748 892 m 3 X s 1748 899 m 3 X s 1745 907 m 6 X s 1748 914 m 3 X s
 1748 922 m 3 X s 1748 929 m 3 X s 1748 937 m 3 X s 1745 944 m 6 X s 1745 757 m 6 X s 1748 749 m 3 X s 1748 742 m 3 X s 1748 734 m 3 X s 1748 727 m 3 X s 1745 944 m 6 X s 1748 952 m 3 X s 1501 903 1557 829 1670 827 1726 771 4 { m21} R 1501 915 m 18 Y
 s 1495 933 m 12 X s 1501 892 m -18 Y s 1495 874 m 12 X s 1557 840 m 18 Y s 1551 858 m 12 X s 1557 817 m -17 Y s 1551 800 m 12 X s 1670 838 m 18 Y s 1664 856 m 11 X s 1670 815 m -18 Y s 1664 797 m 11 X s 1726 783 m 17 Y s 1720 800 m 12 X s 1726 760 m
 -18 Y s 1720 742 m 12 X s 9 lw 0.95 0.95 0.95 c black 1446 906 m 3 -1 d 3 -2 d 3 -1 d 3 -2 d 3 -1 d 3 -1 d 3 -2 d 4 -1 d 3 -1 d 3 -2 d 3 -1 d 3 -1 d 3 -2 d 3 -1 d 3 -2 d 3 -1 d 3 -1 d 3 -2 d 3 -1 d 3 -1 d 3 -2 d 3 -1 d 3 -1 d 4 -2 d 3 -1 d 3 -2 d 3
 -1 d 3 -1 d 3 -2 d 3 -1 d 3 -1 d 3 -2 d 3 -1 d 3 -2 d 3 -1 d 3 -1 d 3 -2 d 3 -1 d 3 -1 d 4 -2 d 3 -1 d 3 -1 d 3 -2 d 3 -1 d 3 -2 d 3 -1 d 3 -1 d 3 -2 d 3 -1 d s 1596 839 m 3 -1 d 3 -2 d 3 -1 d 3 -1 d 3 -2 d 3 -1 d 4 -2 d 3 -1 d 3 -1 d 3 -2 d 3 -1 d
 3 -1 d 3 -2 d 3 -1 d 3 -2 d 3 -1 d 3 -1 d 3 -2 d 3 -1 d 3 -1 d 3 -2 d 3 -1 d 3 -1 d 4 -2 d 3 -1 d 3 -2 d 3 -1 d 3 -1 d 3 -2 d 3 -1 d 3 -1 d 3 -2 d 3 -1 d 3 -1 d 3 -2 d 3 -1 d 3 -2 d 3 -1 d 3 -1 d 4 -2 d 3 -1 d 3 -1 d 3 -2 d 3 -1 d 3 -2 d 3 -1 d 3 -1
 d 3 -2 d 3 -1 d s 1746 772 m 3 -1 d s 0.49 0.6 0.82 c black 0.49 0.6 0.82 c
 gsave  408 305 1383 677 C 1504.21 960.076 t 0 r /Helvetica-Bold findfont 25.6831 sf 0 0 m (4.0 < E < 4.5 GeV) show NC gr  0.52 0.76 0.64 c black 0.52 0.76 0.64 c
 gsave  408 305 1383 677 C 1484.27 923.04 t 0 r /Helvetica-Bold findfont 25.6831 sf 0 0 m 
 228 214 200 193 178 171 156 149 134 126 119 105 91 77 69 55 47 40 25 17
(A = \2550.007, p = 1.000) K NC gr  1 0.6 1 c black 1 0.6 1 c
 gsave  408 305 1383 677 C 1789.1 791.991 t 90 r /Helvetica-Bold findfont 28.5368 sf 0 0 m (/dof=0.7) show NC gr  black 1 0.6 1 c
 gsave  408 305 1383 677 C 1777.71 780.596 t 90 r /Helvetica-Bold findfont 19.9758 sf 0 0 m (2) show NC gr  black 1 0.6 1 c
 gsave  408 305 1383 677 C 1789.1 763.503 t 90 r /Symbol findfont 28.5368 sf 0 0 m (c) show NC gr  black 3 lw 1 1 1 c 408 305 1837 677 bf black 1 1 1 c black 306 229 1898 723 bl 306 229 1898 723 bl 1898 723 m 306 X s 1898 727 m -4 Y s 2011 727 m -4 Y
 s 2123 727 m -4 Y s 2123 727 m -4 Y s
 gsave  408 305 1837 677 C 1888.81 703.676 t 0 r /Helvetica findfont 22.8295 sf 0 0 m (0) show NC gr 
 gsave  408 305 1837 677 C 2002.77 703.676 t 0 r /Helvetica findfont 22.8295 sf 0 0 m (1) show NC gr 
 gsave  408 305 1837 677 C 2113.88 703.676 t 0 r /Helvetica findfont 22.8295 sf 0 0 m (2) show NC gr  1898 952 m 306 X s 1898 948 m 4 Y s 2011 948 m 4 Y s 2123 948 m 4 Y s 2123 948 m 4 Y s 1898 723 m 229 Y s 1904 767 m -6 X s 1901 776 m -3 X s 1901
 785 m -3 X s 1901 795 m -3 X s 1901 804 m -3 X s 1904 813 m -6 X s 1901 822 m -3 X s 1901 831 m -3 X s 1901 840 m -3 X s 1901 849 m -3 X s 1904 858 m -6 X s 1901 867 m -3 X s 1901 877 m -3 X s 1901 886 m -3 X s 1901 895 m -3 X s 1904 904 m -6 X s
 1901 913 m -3 X s 1901 922 m -3 X s 1901 931 m -3 X s 1901 940 m -3 X s 1904 950 m -6 X s 1904 767 m -6 X s 1901 758 m -3 X s 1901 749 m -3 X s 1901 740 m -3 X s 1901 731 m -3 X s 1904 950 m -6 X s
 gsave  408 305 1837 677 C 1828.99 760.654 t 0 r /Helvetica findfont 22.8295 sf 0 0 m (\2550.005) show NC gr 
 gsave  408 305 1837 677 C 1880.27 806.236 t 0 r /Helvetica findfont 22.8295 sf 0 0 m (0) show NC gr 
 gsave  408 305 1837 677 C 1837.53 851.818 t 0 r /Helvetica findfont 22.8295 sf 0 0 m (0.005) show NC gr 
 gsave  408 305 1837 677 C 1851.78 897.4 t 0 r /Helvetica findfont 22.8295 sf 0 0 m (0.01) show NC gr 
 gsave  408 305 1837 677 C 1837.53 942.983 t 0 r /Helvetica findfont 22.8295 sf 0 0 m (0.015) show NC gr  2204 723 m 229 Y s 2199 767 m 5 X s 2201 776 m 3 X s 2201 785 m 3 X s 2201 795 m 3 X s 2201 804 m 3 X s 2199 813 m 5 X s 2201 822 m 3 X s 2201
 831 m 3 X s 2201 840 m 3 X s 2201 849 m 3 X s 2199 858 m 5 X s 2201 867 m 3 X s 2201 877 m 3 X s 2201 886 m 3 X s 2201 895 m 3 X s 2199 904 m 5 X s 2201 913 m 3 X s 2201 922 m 3 X s 2201 931 m 3 X s 2201 940 m 3 X s 2199 950 m 5 X s 2199 767 m 5 X s
 2201 758 m 3 X s 2201 749 m 3 X s 2201 740 m 3 X s 2201 731 m 3 X s 2199 950 m 5 X s 1954 789 2011 829 2123 885 2179 804 4 { m21} R 1954 801 m 36 Y s 1949 837 m 11 X s 1954 778 m -36 Y s 1949 742 m 11 X s 2011 840 m 36 Y s 2005 876 m 11 X s 2011 817
 m -36 Y s 2005 781 m 11 X s 2123 897 m 36 Y s 2117 933 m 12 X s 2123 874 m -36 Y s 2117 838 m 12 X s 2179 815 m 36 Y s 2174 851 m 11 X s 2179 793 m -36 Y s 2174 757 m 11 X s 9 lw 0.95 0.95 0.95 c black 1900 813 m 3 X 3 1 d 9 X 3 1 d 6 X 3 1 d 9 X 3
 1 d 7 X 3 1 d 6 X 3 1 d 9 X 3 1 d 6 X 3 1 d 6 X 3 1 d 10 X 3 1 d 6 X 3 1 d 6 X 3 1 d 9 X 3 1 d 6 X 3 1 d 7 X 3 1 d s 2050 828 m 9 X 3 1 d 6 X 3 1 d 6 X 3 1 d 9 X 3 1 d 7 X 3 1 d 6 X 3 1 d 9 X 3 1 d 6 X 3 1 d 9 X 4 1 d 6 X 3 1 d 6 X 3 1 d 9 X 3 1 d 6
 X 3 1 d 6 X 4 1 d 6 X s 2200 842 m 3 X s 0.49 0.6 0.82 c black 0.49 0.6 0.82 c
 gsave  408 305 1837 677 C 1957.19 960.076 t 0 r /Helvetica-Bold findfont 25.6831 sf 0 0 m (4.5 < E < 5.0 GeV) show NC gr  0.52 0.76 0.64 c black 0.52 0.76 0.64 c
 gsave  408 305 1837 677 C 1942.94 923.04 t 0 r /Helvetica-Bold findfont 25.6831 sf 0 0 m 
 220 206 192 185 170 163 148 141 125 118 111 97 83 69 61 47 40 25 18
(A = 0.001, p = 1.000) K NC gr  1 0.6 1 c black 1 0.6 1 c
 gsave  408 305 1837 677 C 2242.08 791.991 t 90 r /Helvetica-Bold findfont 28.5368 sf 0 0 m (/dof=0.7) show NC gr  black 1 0.6 1 c
 gsave  408 305 1837 677 C 2230.68 780.596 t 90 r /Helvetica-Bold findfont 19.9758 sf 0 0 m (2) show NC gr  black 1 0.6 1 c
 gsave  408 305 1837 677 C 2242.08 763.503 t 90 r /Symbol findfont 28.5368 sf 0 0 m (c) show NC gr  black 3 lw 1 1 1 c 408 306 23 345 bf black 1 1 1 c black 306 229 84 391 bl 306 229 84 391 bl 84 391 m 306 X s 84 395 m -4 Y s 196 395 m -4 Y s 309 395
 m -4 Y s 309 395 m -4 Y s
 gsave  408 306 23 345 C 74.0711 370.356 t 0 r /Helvetica findfont 22.8295 sf 0 0 m (0) show NC gr 
 gsave  408 306 23 345 C 188.027 370.356 t 0 r /Helvetica findfont 22.8295 sf 0 0 m (1) show NC gr 
 gsave  408 306 23 345 C 299.133 370.356 t 0 r /Helvetica findfont 22.8295 sf 0 0 m (2) show NC gr  84 620 m 306 X s 84 616 m 4 Y s 196 616 m 4 Y s 309 616 m 4 Y s 309 616 m 4 Y s 84 391 m 229 Y s 89 403 m -5 X s 87 409 m -3 X s 87 416 m -3 X s 87
 422 m -3 X s 87 429 m -3 X s 89 435 m -5 X s 87 442 m -3 X s 87 448 m -3 X s 87 455 m -3 X s 87 461 m -3 X s 89 468 m -5 X s 87 474 m -3 X s 87 481 m -3 X s 87 487 m -3 X s 87 494 m -3 X s 89 500 m -5 X s 87 507 m -3 X s 87 513 m -3 X s 87 520 m -3
 X s 87 526 m -3 X s 89 533 m -5 X s 87 539 m -3 X s 87 546 m -3 X s 87 552 m -3 X s 87 559 m -3 X s 89 565 m -5 X s 87 572 m -3 X s 87 578 m -3 X s 87 585 m -3 X s 87 591 m -3 X s 89 598 m -5 X s 89 403 m -5 X s 87 396 m -3 X s 89 598 m -5 X s 87
 604 m -3 X s 87 611 m -3 X s 87 617 m -3 X s
 gsave  408 306 23 345 C 31.3378 395.996 t 0 r /Helvetica findfont 22.8295 sf 0 0 m (\2550.01) show NC gr 
 gsave  408 306 23 345 C 65.5245 427.334 t 0 r /Helvetica findfont 22.8295 sf 0 0 m (0) show NC gr 
 gsave  408 306 23 345 C 37.0356 461.52 t 0 r /Helvetica findfont 22.8295 sf 0 0 m (0.01) show NC gr 
 gsave  408 306 23 345 C 34.1867 492.858 t 0 r /Helvetica findfont 22.8295 sf 0 0 m (0.02) show NC gr 
 gsave  408 306 23 345 C 34.1867 524.196 t 0 r /Helvetica findfont 22.8295 sf 0 0 m (0.03) show NC gr 
 gsave  408 306 23 345 C 34.1867 558.382 t 0 r /Helvetica findfont 22.8295 sf 0 0 m (0.04) show NC gr 
 gsave  408 306 23 345 C 34.1867 589.72 t 0 r /Helvetica findfont 22.8295 sf 0 0 m (0.05) show NC gr  390 391 m 229 Y s 385 403 m 5 X s 387 409 m 3 X s 387 416 m 3 X s 387 422 m 3 X s 387 429 m 3 X s 385 435 m 5 X s 387 442 m 3 X s 387 448 m 3 X s
 387 455 m 3 X s 387 461 m 3 X s 385 468 m 5 X s 387 474 m 3 X s 387 481 m 3 X s 387 487 m 3 X s 387 494 m 3 X s 385 500 m 5 X s 387 507 m 3 X s 387 513 m 3 X s 387 520 m 3 X s 387 526 m 3 X s 385 533 m 5 X s 387 539 m 3 X s 387 546 m 3 X s 387 552 m
 3 X s 387 559 m 3 X s 385 565 m 5 X s 387 572 m 3 X s 387 578 m 3 X s 387 585 m 3 X s 387 591 m 3 X s 385 598 m 5 X s 385 403 m 5 X s 387 396 m 3 X s 385 598 m 5 X s 387 604 m 3 X s 387 611 m 3 X s 387 617 m 3 X s /w 22 def /w2 {w 2 div} def /w3 {w
 3 div} def 140 432 196 461 309 509 365 579 4 { m21} R 140 443 m 10 Y s 134 453 m 12 X s 140 420 m -10 Y s 134 410 m 12 X s 196 472 m 10 Y s 191 482 m 11 X s 196 449 m -10 Y s 191 439 m 11 X s 309 520 m 11 Y s 303 531 m 12 X s 309 497 m -10 Y s 303
 487 m 12 X s 365 590 m 11 Y s 360 601 m 11 X s 365 567 m -11 Y s 360 556 m 11 X s 1 0 0 c 9 lw 0.95 0.95 0.95 c black 1 0 0 c 85 435 m 13 X 3 1 d 9 X 3 1 d 6 X 3 1 d 6 X 3 1 d 3 X 3 1 d 4 1 d 3 X 3 1 d 3 X 3 1 d 3 1 d 3 1 d 3 X 3 1 d 3 1 d 3 1 d 3 1
 d 3 1 d 3 1 d 3 1 d 3 1 d 4 1 d 3 1 d 3 1 d 3 2 d 3 1 d 3 1 d 3 1 d 3 2 d 3 1 d 3 1 d 3 2 d 3 1 d 3 2 d 3 1 d 3 2 d 3 1 d s 235 474 m 4 2 d 3 2 d 3 1 d 3 2 d 3 2 d 3 1 d 3 2 d 3 2 d 3 2 d 3 2 d 3 2 d 3 2 d 3 2 d 3 2 d 3 2 d 3 2 d 3 2 d 4 2 d 3 2 d 3
 2 d 3 3 d 3 2 d 3 2 d 3 3 d 3 2 d 3 2 d 3 3 d 3 2 d 3 3 d 3 2 d 3 3 d 3 2 d 3 3 d 4 3 d 3 2 d 3 3 d 3 3 d 3 3 d 3 2 d 3 3 d 3 3 d 3 3 d 3 3 d 3 3 d 3 3 d 3 3 d 3 3 d 3 3 d 3 3 d s 385 590 m 4 3 d s 0.49 0.6 0.82 c black 0.49 0.6 0.82 c
 gsave  408 306 23 345 C 142.445 629.605 t 0 r /Helvetica-Bold findfont 25.6831 sf 0 0 m (5.0 < E < 5.5 GeV) show NC gr  0.52 0.76 0.64 c black 0.52 0.76 0.64 c
 gsave  408 306 23 345 C 128.2 592.569 t 0 r /Helvetica-Bold findfont 25.6831 sf 0 0 m 
 220 206 192 185 170 163 148 141 126 118 111 97 83 69 61 47 40 25 18
(A = 0.007, p = 2.000) K NC gr  1 0.6 1 c black 1 0.6 1 c
 gsave  408 306 23 345 C 427.334 458.671 t 90 r /Helvetica-Bold findfont 28.5368 sf 0 0 m (/dof=0.2) show NC gr  black 1 0.6 1 c
 gsave  408 306 23 345 C 415.938 447.276 t 90 r /Helvetica-Bold findfont 19.9758 sf 0 0 m (2) show NC gr  black 1 0.6 1 c
 gsave  408 306 23 345 C 427.334 430.182 t 90 r /Symbol findfont 28.5368 sf 0 0 m (c) show NC gr  black 3 lw 1 1 1 c 408 306 476 345 bf black 1 1 1 c black 307 229 537 391 bl 307 229 537 391 bl 537 391 m 307 X s 537 395 m -4 Y s 650 395 m -4 Y s 763
 395 m -4 Y s 763 395 m -4 Y s
 gsave  408 306 476 345 C 527.045 370.356 t 0 r /Helvetica findfont 22.8295 sf 0 0 m (0) show NC gr 
 gsave  408 306 476 345 C 643.849 370.356 t 0 r /Helvetica findfont 22.8295 sf 0 0 m (1) show NC gr 
 gsave  408 306 476 345 C 752.107 370.356 t 0 r /Helvetica findfont 22.8295 sf 0 0 m (2) show NC gr  537 620 m 307 X s 537 616 m 4 Y s 650 616 m 4 Y s 763 616 m 4 Y s 763 616 m 4 Y s 537 391 m 229 Y s 543 396 m -6 X s 540 402 m -3 X s 540 408 m -3 X
 s 540 414 m -3 X s 540 420 m -3 X s 543 427 m -6 X s 540 433 m -3 X s 540 439 m -3 X s 540 445 m -3 X s 540 451 m -3 X s 543 457 m -6 X s 540 463 m -3 X s 540 469 m -3 X s 540 475 m -3 X s 540 481 m -3 X s 543 487 m -6 X s 540 493 m -3 X s 540 499 m
 -3 X s 540 505 m -3 X s 540 511 m -3 X s 543 517 m -6 X s 540 523 m -3 X s 540 530 m -3 X s 540 536 m -3 X s 540 542 m -3 X s 543 548 m -6 X s 540 554 m -3 X s 540 560 m -3 X s 540 566 m -3 X s 540 572 m -3 X s 543 578 m -6 X s 540 584 m -3 X s 540
 590 m -3 X s 540 596 m -3 X s 540 602 m -3 X s 543 608 m -6 X s 543 396 m -6 X s 543 608 m -6 X s 540 614 m -3 X s
 gsave  408 306 476 345 C 484.311 390.298 t 0 r /Helvetica findfont 22.8295 sf 0 0 m (\2550.01) show NC gr 
 gsave  408 306 476 345 C 518.498 418.787 t 0 r /Helvetica findfont 22.8295 sf 0 0 m (0) show NC gr 
 gsave  408 306 476 345 C 490.009 450.125 t 0 r /Helvetica findfont 22.8295 sf 0 0 m (0.01) show NC gr 
 gsave  408 306 476 345 C 487.16 478.614 t 0 r /Helvetica findfont 22.8295 sf 0 0 m (0.02) show NC gr 
 gsave  408 306 476 345 C 487.16 509.951 t 0 r /Helvetica findfont 22.8295 sf 0 0 m (0.03) show NC gr 
 gsave  408 306 476 345 C 487.16 541.289 t 0 r /Helvetica findfont 22.8295 sf 0 0 m (0.04) show NC gr 
 gsave  408 306 476 345 C 487.16 569.778 t 0 r /Helvetica findfont 22.8295 sf 0 0 m (0.05) show NC gr 
 gsave  408 306 476 345 C 487.16 601.116 t 0 r /Helvetica findfont 22.8295 sf 0 0 m (0.06) show NC gr  844 391 m 229 Y s 838 396 m 6 X s 841 402 m 3 X s 841 408 m 3 X s 841 414 m 3 X s 841 420 m 3 X s 838 427 m 6 X s 841 433 m 3 X s 841 439 m 3 X s
 841 445 m 3 X s 841 451 m 3 X s 838 457 m 6 X s 841 463 m 3 X s 841 469 m 3 X s 841 475 m 3 X s 841 481 m 3 X s 838 487 m 6 X s 841 493 m 3 X s 841 499 m 3 X s 841 505 m 3 X s 841 511 m 3 X s 838 517 m 6 X s 841 523 m 3 X s 841 530 m 3 X s 841 536 m
 3 X s 841 542 m 3 X s 838 548 m 6 X s 841 554 m 3 X s 841 560 m 3 X s 841 566 m 3 X s 841 572 m 3 X s 838 578 m 6 X s 841 584 m 3 X s 841 590 m 3 X s 841 596 m 3 X s 841 602 m 3 X s 838 608 m 6 X s 838 396 m 6 X s 838 608 m 6 X s 841 614 m 3 X s /w
 23 def /w2 {w 2 div} def /w3 {w 3 div} def 594 435 650 439 763 561 819 575 4 { m21} R 594 447 m 14 Y s 588 461 m 11 X s 594 424 m -14 Y s 588 410 m 11 X s 650 450 m 14 Y s 644 464 m 12 X s 650 427 m -14 Y s 644 413 m 12 X s 763 573 m 14 Y s 757 587
 m 11 X s 763 550 m -15 Y s 757 535 m 11 X s 819 586 m 15 Y s 813 601 m 12 X s 819 563 m -14 Y s 813 549 m 12 X s 1 0 0 c 9 lw 0.95 0.95 0.95 c black 1 0 0 c 539 427 m 18 X 3 1 d 7 X 3 1 d 3 X 3 1 d 3 X 3 1 d 3 X 3 1 d 3 X 3 1 d 3 1 d 3 1 d 3 1 d 3 X
 3 1 d 3 1 d 4 1 d 3 1 d 3 1 d 3 1 d 3 1 d 3 2 d 3 1 d 3 1 d 3 1 d 3 2 d 3 1 d 3 2 d 3 1 d 3 1 d 3 2 d 3 2 d 3 1 d 4 2 d 3 1 d 3 2 d 3 2 d 3 2 d 3 2 d 3 1 d 3 2 d s 689 474 m 3 2 d 3 2 d 3 2 d 3 2 d 3 2 d 3 3 d 3 2 d 3 2 d 4 2 d 3 3 d 3 2 d 3 2 d 3 3
 d 3 2 d 3 3 d 3 2 d 3 3 d 3 2 d 3 3 d 3 3 d 3 3 d 3 2 d 3 3 d 3 3 d 4 3 d 3 3 d 3 3 d 3 3 d 3 3 d 3 3 d 3 3 d 3 3 d 3 3 d 3 4 d 3 3 d 3 3 d 3 4 d 3 3 d 3 3 d 3 4 d 4 3 d 3 4 d 3 3 d 3 4 d 3 4 d 3 3 d 3 4 d 3 4 d 3 4 d s 839 616 m 3 4 d s 0.49 0.6
 0.82 c black 0.49 0.6 0.82 c
 gsave  408 306 476 345 C 595.418 629.605 t 0 r /Helvetica-Bold findfont 25.6831 sf 0 0 m (5.5 < E < 6.0 GeV) show NC gr  0.52 0.76 0.64 c black 0.52 0.76 0.64 c
 gsave  408 306 476 345 C 581.174 592.569 t 0 r /Helvetica-Bold findfont 25.6831 sf 0 0 m 
 220 206 192 185 170 163 148 141 125 118 111 97 83 68 61 47 40 25 18
(A = 0.009, p = 2.000) K NC gr  1 0.6 1 c black 1 0.6 1 c
 gsave  408 306 476 345 C 883.156 458.671 t 90 r /Helvetica-Bold findfont 28.5368 sf 0 0 m (/dof=0.7) show NC gr  black 1 0.6 1 c
 gsave  408 306 476 345 C 871.76 447.276 t 90 r /Helvetica-Bold findfont 19.9758 sf 0 0 m (2) show NC gr  black 1 0.6 1 c
 gsave  408 306 476 345 C 883.156 430.182 t 90 r /Symbol findfont 28.5368 sf 0 0 m (c) show NC gr  black 3 lw 1 1 1 c 408 306 930 345 bf black 1 1 1 c black 306 229 991 391 bl 306 229 991 391 bl 991 391 m 306 X s 991 395 m -4 Y s 1104 395 m -4 Y s
 1216 395 m -4 Y s 1216 395 m -4 Y s
 gsave  408 306 930 345 C 980.018 370.356 t 0 r /Helvetica findfont 22.8295 sf 0 0 m (0) show NC gr 
 gsave  408 306 930 345 C 1096.82 370.356 t 0 r /Helvetica findfont 22.8295 sf 0 0 m (1) show NC gr 
 gsave  408 306 930 345 C 1205.08 370.356 t 0 r /Helvetica findfont 22.8295 sf 0 0 m (2) show NC gr  991 620 m 306 X s 991 616 m 4 Y s 1104 616 m 4 Y s 1216 616 m 4 Y s 1216 616 m 4 Y s 991 391 m 229 Y s 997 420 m -6 X s 994 426 m -3 X s 994 432 m -3
 X s 994 438 m -3 X s 994 444 m -3 X s 997 451 m -6 X s 994 457 m -3 X s 994 463 m -3 X s 994 469 m -3 X s 994 475 m -3 X s 997 482 m -6 X s 994 488 m -3 X s 994 494 m -3 X s 994 500 m -3 X s 994 506 m -3 X s 997 513 m -6 X s 994 519 m -3 X s 994 525
 m -3 X s 994 531 m -3 X s 994 537 m -3 X s 997 544 m -6 X s 994 550 m -3 X s 994 556 m -3 X s 994 562 m -3 X s 994 568 m -3 X s 997 575 m -6 X s 994 581 m -3 X s 994 587 m -3 X s 994 593 m -3 X s 994 599 m -3 X s 997 606 m -6 X s 997 420 m -6 X s
 994 413 m -3 X s 994 407 m -3 X s 994 401 m -3 X s 994 395 m -3 X s 997 606 m -6 X s 994 612 m -3 X s 994 618 m -3 X s
 gsave  408 306 930 345 C 974.32 413.089 t 0 r /Helvetica findfont 22.8295 sf 0 0 m (0) show NC gr 
 gsave  408 306 930 345 C 945.832 444.427 t 0 r /Helvetica findfont 22.8295 sf 0 0 m (0.01) show NC gr 
 gsave  408 306 930 345 C 942.983 475.765 t 0 r /Helvetica findfont 22.8295 sf 0 0 m (0.02) show NC gr 
 gsave  408 306 930 345 C 942.983 504.254 t 0 r /Helvetica findfont 22.8295 sf 0 0 m (0.03) show NC gr 
 gsave  408 306 930 345 C 942.983 535.591 t 0 r /Helvetica findfont 22.8295 sf 0 0 m (0.04) show NC gr 
 gsave  408 306 930 345 C 942.983 566.929 t 0 r /Helvetica findfont 22.8295 sf 0 0 m (0.05) show NC gr 
 gsave  408 306 930 345 C 942.983 598.267 t 0 r /Helvetica findfont 22.8295 sf 0 0 m (0.06) show NC gr  1297 391 m 229 Y s 1292 420 m 5 X s 1294 426 m 3 X s 1294 432 m 3 X s 1294 438 m 3 X s 1294 444 m 3 X s 1292 451 m 5 X s 1294 457 m 3 X s 1294 463
 m 3 X s 1294 469 m 3 X s 1294 475 m 3 X s 1292 482 m 5 X s 1294 488 m 3 X s 1294 494 m 3 X s 1294 500 m 3 X s 1294 506 m 3 X s 1292 513 m 5 X s 1294 519 m 3 X s 1294 525 m 3 X s 1294 531 m 3 X s 1294 537 m 3 X s 1292 544 m 5 X s 1294 550 m 3 X s
 1294 556 m 3 X s 1294 562 m 3 X s 1294 568 m 3 X s 1292 575 m 5 X s 1294 581 m 3 X s 1294 587 m 3 X s 1294 593 m 3 X s 1294 599 m 3 X s 1292 606 m 5 X s 1292 420 m 5 X s 1294 413 m 3 X s 1294 407 m 3 X s 1294 401 m 3 X s 1294 395 m 3 X s 1292 606 m
 5 X s 1294 612 m 3 X s 1294 618 m 3 X s 1047 442 1104 479 1216 513 1272 568 4 { m21} R 1047 453 m 20 Y s 1042 473 m 11 X s 1047 430 m -20 Y s 1042 410 m 11 X s 1104 491 m 20 Y s 1098 511 m 11 X s 1104 468 m -21 Y s 1098 447 m 11 X s 1216 525 m 20 Y
 s 1210 545 m 12 X s 1216 502 m -21 Y s 1210 481 m 12 X s 1272 580 m 21 Y s 1267 601 m 11 X s 1272 557 m -21 Y s 1267 536 m 11 X s 9 lw 0.95 0.95 0.95 c black 993 420 m 3 2 d 3 1 d 3 2 d 3 1 d 3 2 d 3 1 d 3 2 d 3 1 d 3 2 d 3 1 d 3 2 d 3 1 d 3 2 d 3 1
 d 3 2 d 4 1 d 3 2 d 3 1 d 3 2 d 3 1 d 3 2 d 3 1 d 3 2 d 3 1 d 3 2 d 3 1 d 3 2 d 3 1 d 3 2 d 3 1 d 3 2 d 3 1 d 4 2 d 3 1 d 3 1 d 3 2 d 3 1 d 3 2 d 3 1 d 3 2 d 3 1 d 3 2 d 3 1 d 3 2 d 3 1 d 3 2 d 3 1 d 3 2 d 4 1 d s 1143 493 m 3 2 d 3 1 d 3 2 d 3 1 d
 3 2 d 3 1 d 3 2 d 3 1 d 3 2 d 3 1 d 3 2 d 3 1 d 3 2 d 3 1 d 3 2 d 4 1 d 3 2 d 3 1 d 3 2 d 3 1 d 3 2 d 3 1 d 3 2 d 3 1 d 3 1 d 3 2 d 3 1 d 3 2 d 3 1 d 3 2 d 3 1 d 3 2 d 4 1 d 3 2 d 3 1 d 3 2 d 3 1 d 3 2 d 3 1 d 3 2 d 3 1 d 3 2 d 3 1 d 3 2 d 3 1 d 3 2
 d 3 1 d 3 2 d 4 1 d s 1293 566 m 3 2 d s 0.49 0.6 0.82 c black 0.49 0.6 0.82 c
 gsave  408 306 930 345 C 1051.24 629.605 t 0 r /Helvetica-Bold findfont 25.6831 sf 0 0 m (6.0 < E < 6.5 GeV) show NC gr  0.52 0.76 0.64 c black 0.52 0.76 0.64 c
 gsave  408 306 930 345 C 1037 592.569 t 0 r /Helvetica-Bold findfont 25.6831 sf 0 0 m 
 220 206 192 185 170 163 148 141 125 118 111 97 83 69 61 47 40 25 18
(A = 0.018, p = 1.000) K NC gr  1 0.6 1 c black 1 0.6 1 c
 gsave  408 306 930 345 C 1336.13 458.671 t 90 r /Helvetica-Bold findfont 28.5368 sf 0 0 m (/dof=0.1) show NC gr  black 1 0.6 1 c
 gsave  408 306 930 345 C 1324.73 447.276 t 90 r /Helvetica-Bold findfont 19.9758 sf 0 0 m (2) show NC gr  black 1 0.6 1 c
 gsave  408 306 930 345 C 1336.13 430.182 t 90 r /Symbol findfont 28.5368 sf 0 0 m (c) show NC gr  black 3 lw 1 1 1 c 408 306 1383 345 bf black 1 1 1 c black 306 229 1445 391 bl 306 229 1445 391 bl 1445 391 m 306 X s 1445 395 m -4 Y s 1557 395 m -4 Y
 s 1670 395 m -4 Y s 1670 395 m -4 Y s
 gsave  408 306 1383 345 C 1435.84 370.356 t 0 r /Helvetica findfont 22.8295 sf 0 0 m (0) show NC gr 
 gsave  408 306 1383 345 C 1549.8 370.356 t 0 r /Helvetica findfont 22.8295 sf 0 0 m (1) show NC gr 
 gsave  408 306 1383 345 C 1660.9 370.356 t 0 r /Helvetica findfont 22.8295 sf 0 0 m (2) show NC gr  1445 620 m 306 X s 1445 616 m 4 Y s 1557 616 m 4 Y s 1670 616 m 4 Y s 1670 616 m 4 Y s 1445 391 m 229 Y s 1450 394 m -5 X s 1447 400 m -2 X s 1447
 406 m -2 X s 1447 412 m -2 X s 1447 418 m -2 X s 1450 424 m -5 X s 1447 429 m -2 X s 1447 435 m -2 X s 1447 441 m -2 X s 1447 447 m -2 X s 1450 453 m -5 X s 1447 459 m -2 X s 1447 465 m -2 X s 1447 471 m -2 X s 1447 477 m -2 X s 1450 483 m -5 X s
 1447 489 m -2 X s 1447 495 m -2 X s 1447 500 m -2 X s 1447 506 m -2 X s 1450 512 m -5 X s 1447 518 m -2 X s 1447 524 m -2 X s 1447 530 m -2 X s 1447 536 m -2 X s 1450 542 m -5 X s 1447 548 m -2 X s 1447 554 m -2 X s 1447 560 m -2 X s 1447 566 m -2 X
 s 1450 572 m -5 X s 1447 577 m -2 X s 1447 583 m -2 X s 1447 589 m -2 X s 1447 595 m -2 X s 1450 601 m -5 X s 1450 394 m -5 X s 1450 601 m -5 X s 1447 607 m -2 X s 1447 613 m -2 X s 1447 619 m -2 X s
 gsave  408 306 1383 345 C 1390.26 387.449 t 0 r /Helvetica findfont 22.8295 sf 0 0 m (\2550.02) show NC gr 
 gsave  408 306 1383 345 C 1393.11 415.938 t 0 r /Helvetica findfont 22.8295 sf 0 0 m (\2550.01) show NC gr 
 gsave  408 306 1383 345 C 1427.29 447.276 t 0 r /Helvetica findfont 22.8295 sf 0 0 m (0) show NC gr 
 gsave  408 306 1383 345 C 1398.81 475.765 t 0 r /Helvetica findfont 22.8295 sf 0 0 m (0.01) show NC gr 
 gsave  408 306 1383 345 C 1395.96 504.254 t 0 r /Helvetica findfont 22.8295 sf 0 0 m (0.02) show NC gr 
 gsave  408 306 1383 345 C 1395.96 535.591 t 0 r /Helvetica findfont 22.8295 sf 0 0 m (0.03) show NC gr 
 gsave  408 306 1383 345 C 1395.96 564.08 t 0 r /Helvetica findfont 22.8295 sf 0 0 m (0.04) show NC gr 
 gsave  408 306 1383 345 C 1395.96 595.418 t 0 r /Helvetica findfont 22.8295 sf 0 0 m (0.05) show NC gr  1751 391 m 229 Y s 1745 394 m 6 X s 1748 400 m 3 X s 1748 406 m 3 X s 1748 412 m 3 X s 1748 418 m 3 X s 1745 424 m 6 X s 1748 429 m 3 X s 1748
 435 m 3 X s 1748 441 m 3 X s 1748 447 m 3 X s 1745 453 m 6 X s 1748 459 m 3 X s 1748 465 m 3 X s 1748 471 m 3 X s 1748 477 m 3 X s 1745 483 m 6 X s 1748 489 m 3 X s 1748 495 m 3 X s 1748 500 m 3 X s 1748 506 m 3 X s 1745 512 m 6 X s 1748 518 m 3 X s
 1748 524 m 3 X s 1748 530 m 3 X s 1748 536 m 3 X s 1745 542 m 6 X s 1748 548 m 3 X s 1748 554 m 3 X s 1748 560 m 3 X s 1748 566 m 3 X s 1745 572 m 6 X s 1748 577 m 3 X s 1748 583 m 3 X s 1748 589 m 3 X s 1748 595 m 3 X s 1745 601 m 6 X s 1745 394 m
 6 X s 1745 601 m 6 X s 1748 607 m 3 X s 1748 613 m 3 X s 1748 619 m 3 X s 1501 458 1557 445 1670 470 1726 565 4 { m21} R 1501 470 m 24 Y s 1495 494 m 12 X s 1501 447 m -24 Y s 1495 423 m 12 X s 1557 457 m 24 Y s 1551 481 m 12 X s 1557 434 m -24 Y s
 1551 410 m 12 X s 1670 481 m 24 Y s 1664 505 m 11 X s 1670 458 m -24 Y s 1664 434 m 11 X s 1726 576 m 25 Y s 1720 601 m 12 X s 1726 553 m -25 Y s 1720 528 m 12 X s 1 0 0 c 9 lw 0.95 0.95 0.95 c black 1 0 0 c 1446 453 m 15 X 3 1 d 16 X 3 1 d 9 X 3 1
 d 3 X 3 1 d 6 X 3 1 d 3 X 3 1 d 4 X 3 1 d 3 X 3 1 d 3 X 3 1 d 3 X 3 1 d 3 1 d 3 X 3 1 d 3 1 d 3 X 3 1 d 3 1 d 3 1 d 4 X 3 1 d 3 1 d 3 1 d 3 1 d 3 1 d 3 1 d 3 X 3 1 d 3 1 d s 1596 477 m 3 1 d 3 1 d 3 1 d 3 1 d 3 2 d 3 1 d 4 1 d 3 1 d 3 1 d 3 1 d 3 1
 d 3 2 d 3 1 d 3 1 d 3 1 d 3 2 d 3 1 d 3 1 d 3 2 d 3 1 d 3 1 d 3 2 d 3 1 d 4 2 d 3 1 d 3 2 d 3 1 d 3 2 d 3 1 d 3 2 d 3 1 d 3 2 d 3 2 d 3 1 d 3 2 d 3 2 d 3 1 d 3 2 d 3 2 d 4 1 d 3 2 d 3 2 d 3 2 d 3 2 d 3 2 d 3 1 d 3 2 d 3 2 d 3 2 d s 1746 549 m 3 2 d
 s 0.49 0.6 0.82 c black 0.49 0.6 0.82 c
 gsave  408 306 1383 345 C 1504.21 629.605 t 0 r /Helvetica-Bold findfont 25.6831 sf 0 0 m (6.5 < E < 7.0 GeV) show NC gr  0.52 0.76 0.64 c black 0.52 0.76 0.64 c
 gsave  408 306 1383 345 C 1489.97 592.569 t 0 r /Helvetica-Bold findfont 25.6831 sf 0 0 m 
 220 206 192 185 170 163 148 141 126 118 111 97 83 69 61 47 40 25 18
(A = 0.005, p = 2.000) K NC gr  1 0.6 1 c black 1 0.6 1 c
 gsave  408 306 1383 345 C 1789.1 458.671 t 90 r /Helvetica-Bold findfont 28.5368 sf 0 0 m (/dof=0.7) show NC gr  black 1 0.6 1 c
 gsave  408 306 1383 345 C 1777.71 447.276 t 90 r /Helvetica-Bold findfont 19.9758 sf 0 0 m (2) show NC gr  black 1 0.6 1 c
 gsave  408 306 1383 345 C 1789.1 430.182 t 90 r /Symbol findfont 28.5368 sf 0 0 m (c) show NC gr  black 3 lw 1 1 1 c 408 306 1837 345 bf black 1 1 1 c black 306 229 1898 391 bl 306 229 1898 391 bl 1898 391 m 306 X s 1898 395 m -4 Y s 2011 395 m -4 Y
 s 2123 395 m -4 Y s 2123 395 m -4 Y s
 gsave  408 306 1837 345 C 1888.81 370.356 t 0 r /Helvetica findfont 22.8295 sf 0 0 m (0) show NC gr 
 gsave  408 306 1837 345 C 2002.77 370.356 t 0 r /Helvetica findfont 22.8295 sf 0 0 m (1) show NC gr 
 gsave  408 306 1837 345 C 2113.88 370.356 t 0 r /Helvetica findfont 22.8295 sf 0 0 m (2) show NC gr  1898 620 m 306 X s 1898 616 m 4 Y s 2011 616 m 4 Y s 2123 616 m 4 Y s 2123 616 m 4 Y s 1898 391 m 229 Y s 1904 406 m -6 X s 1901 411 m -3 X s 1901
 416 m -3 X s 1901 422 m -3 X s 1901 427 m -3 X s 1904 432 m -6 X s 1901 438 m -3 X s 1901 443 m -3 X s 1901 448 m -3 X s 1901 453 m -3 X s 1904 459 m -6 X s 1901 464 m -3 X s 1901 469 m -3 X s 1901 474 m -3 X s 1901 480 m -3 X s 1904 485 m -6 X s
 1901 490 m -3 X s 1901 496 m -3 X s 1901 501 m -3 X s 1901 506 m -3 X s 1904 511 m -6 X s 1901 517 m -3 X s 1901 522 m -3 X s 1901 527 m -3 X s 1901 533 m -3 X s 1904 538 m -6 X s 1901 543 m -3 X s 1901 548 m -3 X s 1901 554 m -3 X s 1901 559 m -3 X
 s 1904 564 m -6 X s 1901 569 m -3 X s 1901 575 m -3 X s 1901 580 m -3 X s 1901 585 m -3 X s 1904 591 m -6 X s 1901 596 m -3 X s 1901 601 m -3 X s 1901 606 m -3 X s 1901 612 m -3 X s 1904 617 m -6 X s 1904 406 m -6 X s 1901 401 m -3 X s 1901 395 m -3
 X s 1904 617 m -6 X s
 gsave  408 306 1837 345 C 1843.23 398.845 t 0 r /Helvetica findfont 22.8295 sf 0 0 m (\2550.04) show NC gr 
 gsave  408 306 1837 345 C 1843.23 424.485 t 0 r /Helvetica findfont 22.8295 sf 0 0 m (\2550.03) show NC gr 
 gsave  408 306 1837 345 C 1843.23 450.125 t 0 r /Helvetica findfont 22.8295 sf 0 0 m (\2550.02) show NC gr 
 gsave  408 306 1837 345 C 1846.08 478.614 t 0 r /Helvetica findfont 22.8295 sf 0 0 m (\2550.01) show NC gr 
 gsave  408 306 1837 345 C 1880.27 504.254 t 0 r /Helvetica findfont 22.8295 sf 0 0 m (0) show NC gr 
 gsave  408 306 1837 345 C 1851.78 529.894 t 0 r /Helvetica findfont 22.8295 sf 0 0 m (0.01) show NC gr 
 gsave  408 306 1837 345 C 1848.93 558.382 t 0 r /Helvetica findfont 22.8295 sf 0 0 m (0.02) show NC gr 
 gsave  408 306 1837 345 C 1848.93 584.022 t 0 r /Helvetica findfont 22.8295 sf 0 0 m (0.03) show NC gr 
 gsave  408 306 1837 345 C 1848.93 609.662 t 0 r /Helvetica findfont 22.8295 sf 0 0 m (0.04) show NC gr  2204 391 m 229 Y s 2199 406 m 5 X s 2201 411 m 3 X s 2201 416 m 3 X s 2201 422 m 3 X s 2201 427 m 3 X s 2199 432 m 5 X s 2201 438 m 3 X s 2201
 443 m 3 X s 2201 448 m 3 X s 2201 453 m 3 X s 2199 459 m 5 X s 2201 464 m 3 X s 2201 469 m 3 X s 2201 474 m 3 X s 2201 480 m 3 X s 2199 485 m 5 X s 2201 490 m 3 X s 2201 496 m 3 X s 2201 501 m 3 X s 2201 506 m 3 X s 2199 511 m 5 X s 2201 517 m 3 X s
 2201 522 m 3 X s 2201 527 m 3 X s 2201 533 m 3 X s 2199 538 m 5 X s 2201 543 m 3 X s 2201 548 m 3 X s 2201 554 m 3 X s 2201 559 m 3 X s 2199 564 m 5 X s 2201 569 m 3 X s 2201 575 m 3 X s 2201 580 m 3 X s 2201 585 m 3 X s 2199 591 m 5 X s 2201 596 m
 3 X s 2201 601 m 3 X s 2201 606 m 3 X s 2201 612 m 3 X s 2199 617 m 5 X s 2199 406 m 5 X s 2201 401 m 3 X s 2201 395 m 3 X s 2199 617 m 5 X s 1954 564 2011 445 2123 565 2179 532 4 { m21} R 1954 575 m 25 Y s 1949 600 m 11 X s 1954 552 m -25 Y s 1949
 527 m 11 X s 2011 457 m 23 Y s 2005 480 m 11 X s 2011 434 m -24 Y s 2005 410 m 11 X s 2123 576 m 25 Y s 2117 601 m 12 X s 2123 553 m -24 Y s 2117 529 m 12 X s 2179 543 m 25 Y s 2174 568 m 11 X s 2179 520 m -24 Y s 2174 496 m 11 X s 1 0 0 c 9 lw 0.95
 0.95 0.95 c black 1 0 0 c 1900 511 m 12 X 3 1 d 34 X 3 1 d 18 X 3 1 d 12 X 3 1 d 10 X 3 1 d 9 X 3 1 d 9 X 3 1 d 6 X 3 1 d 6 X 3 1 d 7 X s 2050 520 m 3 1 d 3 X 3 1 d 6 X 3 1 d 3 X 3 1 d 3 X 3 1 d 6 X 3 1 d 3 X 4 1 d 3 X 3 1 d 3 X 3 1 d 3 X 3 1 d 3 X
 3 1 d 3 X 3 1 d 3 1 d 3 X 3 1 d 3 X 3 1 d 4 X 3 1 d 3 1 d 3 X 3 1 d 3 1 d 3 X 3 1 d 3 X 3 1 d 3 1 d 3 X 3 1 d 3 1 d 3 1 d 3 X 4 1 d 3 1 d 3 X s 2200 547 m 3 1 d s 0.49 0.6 0.82 c black 0.49 0.6 0.82 c
 gsave  408 306 1837 345 C 1957.19 629.605 t 0 r /Helvetica-Bold findfont 25.6831 sf 0 0 m (7.0 < E < 7.5 GeV) show NC gr  0.52 0.76 0.64 c black 0.52 0.76 0.64 c
 gsave  408 306 1837 345 C 1942.94 592.569 t 0 r /Helvetica-Bold findfont 25.6831 sf 0 0 m 
 220 206 192 185 170 163 148 141 125 118 111 97 83 69 61 47 40 25 18
(A = 0.002, p = 2.000) K NC gr  1 0.6 1 c black 1 0.6 1 c
 gsave  408 306 1837 345 C 2242.08 458.671 t 90 r /Helvetica-Bold findfont 28.5368 sf 0 0 m (/dof=2.3) show NC gr  black 1 0.6 1 c
 gsave  408 306 1837 345 C 2230.68 447.276 t 90 r /Helvetica-Bold findfont 19.9758 sf 0 0 m (2) show NC gr  black 1 0.6 1 c
 gsave  408 306 1837 345 C 2242.08 430.182 t 90 r /Symbol findfont 28.5368 sf 0 0 m (c) show NC gr  black 3 lw 1 1 1 c 408 306 23 13 bf black 1 1 1 c black 306 229 84 59 bl 306 229 84 59 bl 84 59 m 306 X s 84 63 m -4 Y s 196 63 m -4 Y s 309 63 m -4 Y
 s 309 63 m -4 Y s
 gsave  408 306 23 13 C 74.0711 39.8845 t 0 r /Helvetica findfont 22.8295 sf 0 0 m (0) show NC gr 
 gsave  408 306 23 13 C 188.027 39.8845 t 0 r /Helvetica findfont 22.8295 sf 0 0 m (1) show NC gr 
 gsave  408 306 23 13 C 299.133 39.8845 t 0 r /Helvetica findfont 22.8295 sf 0 0 m (2) show NC gr  84 288 m 306 X s 84 284 m 4 Y s 196 284 m 4 Y s 309 284 m 4 Y s 309 284 m 4 Y s 84 59 m 229 Y s 89 65 m -5 X s 87 72 m -3 X s 87 79 m -3 X s 87 86 m -3
 X s 87 93 m -3 X s 89 100 m -5 X s 87 107 m -3 X s 87 114 m -3 X s 87 121 m -3 X s 87 128 m -3 X s 89 135 m -5 X s 87 142 m -3 X s 87 149 m -3 X s 87 156 m -3 X s 87 163 m -3 X s 89 170 m -5 X s 87 177 m -3 X s 87 184 m -3 X s 87 191 m -3 X s 87 198
 m -3 X s 89 205 m -5 X s 87 212 m -3 X s 87 219 m -3 X s 87 226 m -3 X s 87 233 m -3 X s 89 240 m -5 X s 87 247 m -3 X s 87 254 m -3 X s 87 262 m -3 X s 87 269 m -3 X s 89 276 m -5 X s 89 65 m -5 X s 89 276 m -5 X s 87 283 m -3 X s
 gsave  408 306 23 13 C 28.4889 56.9778 t 0 r /Helvetica findfont 22.8295 sf 0 0 m (\2550.03) show NC gr 
 gsave  408 306 23 13 C 28.4889 94.0134 t 0 r /Helvetica findfont 22.8295 sf 0 0 m (\2550.02) show NC gr 
 gsave  408 306 23 13 C 31.3378 128.2 t 0 r /Helvetica findfont 22.8295 sf 0 0 m (\2550.01) show NC gr 
 gsave  408 306 23 13 C 65.5245 162.387 t 0 r /Helvetica findfont 22.8295 sf 0 0 m (0) show NC gr 
 gsave  408 306 23 13 C 37.0356 199.422 t 0 r /Helvetica findfont 22.8295 sf 0 0 m (0.01) show NC gr 
 gsave  408 306 23 13 C 34.1867 233.609 t 0 r /Helvetica findfont 22.8295 sf 0 0 m (0.02) show NC gr 
 gsave  408 306 23 13 C 34.1867 267.796 t 0 r /Helvetica findfont 22.8295 sf 0 0 m (0.03) show NC gr  390 59 m 229 Y s 385 65 m 5 X s 387 72 m 3 X s 387 79 m 3 X s 387 86 m 3 X s 387 93 m 3 X s 385 100 m 5 X s 387 107 m 3 X s 387 114 m 3 X s 387 121
 m 3 X s 387 128 m 3 X s 385 135 m 5 X s 387 142 m 3 X s 387 149 m 3 X s 387 156 m 3 X s 387 163 m 3 X s 385 170 m 5 X s 387 177 m 3 X s 387 184 m 3 X s 387 191 m 3 X s 387 198 m 3 X s 385 205 m 5 X s 387 212 m 3 X s 387 219 m 3 X s 387 226 m 3 X s
 387 233 m 3 X s 385 240 m 5 X s 387 247 m 3 X s 387 254 m 3 X s 387 262 m 3 X s 387 269 m 3 X s 385 276 m 5 X s 385 65 m 5 X s 385 276 m 5 X s 387 283 m 3 X s /w 22 def /w2 {w 2 div} def /w3 {w 3 div} def 140 130 196 216 309 216 365 215 4 { m21} R
 140 141 m 41 Y s 134 182 m 12 X s 140 119 m -41 Y s 134 78 m 12 X s 196 228 m 41 Y s 191 269 m 11 X s 196 205 m -41 Y s 191 164 m 11 X s 309 227 m 41 Y s 303 268 m 12 X s 309 204 m -41 Y s 303 163 m 12 X s 365 227 m 41 Y s 360 268 m 11 X s 365 204 m
 -41 Y s 360 163 m 11 X s 9 lw 0.95 0.95 0.95 c black 85 171 m 3 X 4 1 d 3 X 3 1 d 3 X 3 1 d 3 X 3 1 d 3 X 3 1 d 3 X 3 1 d 3 1 d 3 X 3 1 d 3 X 3 1 d 4 X 3 1 d 3 X 3 1 d 3 X 3 1 d 3 1 d 3 X 3 1 d 3 X 3 1 d 3 X 3 1 d 3 X 3 1 d 3 X 4 1 d 3 1 d 3 X 3 1 d
 3 X 3 1 d 3 X 3 1 d 3 X 3 1 d 3 X 3 1 d 3 X 3 1 d 3 1 d 3 X s 235 197 m 4 1 d 3 X 3 1 d 3 X 3 1 d 3 X 3 1 d 3 X 3 1 d 3 1 d 3 X 3 1 d 3 X 3 1 d 3 X 3 1 d 3 X 4 1 d 3 X 3 1 d 3 X 3 1 d 3 1 d 3 X 3 1 d 3 X 3 1 d 3 X 3 1 d 3 X 3 1 d 3 X 3 1 d 4 1 d 3 X
 3 1 d 3 X 3 1 d 3 X 3 1 d 3 X 3 1 d 3 X 3 1 d 3 X 3 1 d 3 1 d 3 X 3 1 d s 385 224 m 4 X s 0.49 0.6 0.82 c black 0.49 0.6 0.82 c
 gsave  408 306 23 13 C 142.445 296.285 t 0 r /Helvetica-Bold findfont 25.6831 sf 0 0 m (7.5 < E < 8.0 GeV) show NC gr  0.52 0.76 0.64 c black 0.52 0.76 0.64 c
 gsave  408 306 23 13 C 128.2 259.249 t 0 r /Helvetica-Bold findfont 25.6831 sf 0 0 m 
 220 206 192 185 170 163 148 141 126 118 111 97 83 69 61 47 40 25 18
(A = 0.006, p = 1.000) K NC gr  1 0.6 1 c black 1 0.6 1 c
 gsave  408 306 23 13 C 427.334 128.2 t 90 r /Helvetica-Bold findfont 28.5368 sf 0 0 m (/dof=0.4) show NC gr  black 1 0.6 1 c
 gsave  408 306 23 13 C 415.938 116.804 t 90 r /Helvetica-Bold findfont 19.9758 sf 0 0 m (2) show NC gr  black 1 0.6 1 c
 gsave  408 306 23 13 C 427.334 99.7112 t 90 r /Symbol findfont 28.5368 sf 0 0 m (c) show NC gr  black 3 lw 1 1 1 c 408 306 476 13 bf black 1 1 1 c black 307 229 537 59 bl 307 229 537 59 bl 537 59 m 307 X s 537 63 m -4 Y s 650 63 m -4 Y s 763 63 m -4
 Y s 763 63 m -4 Y s
 gsave  408 306 476 13 C 527.045 39.8845 t 0 r /Helvetica findfont 22.8295 sf 0 0 m (0) show NC gr 
 gsave  408 306 476 13 C 643.849 39.8845 t 0 r /Helvetica findfont 22.8295 sf 0 0 m (1) show NC gr 
 gsave  408 306 476 13 C 752.107 39.8845 t 0 r /Helvetica findfont 22.8295 sf 0 0 m (2) show NC gr  537 288 m 307 X s 537 284 m 4 Y s 650 284 m 4 Y s 763 284 m 4 Y s 763 284 m 4 Y s 537 59 m 229 Y s 543 80 m -6 X s 540 85 m -3 X s 540 90 m -3 X s 540
 95 m -3 X s 540 101 m -3 X s 543 106 m -6 X s 540 111 m -3 X s 540 117 m -3 X s 540 122 m -3 X s 540 127 m -3 X s 543 132 m -6 X s 540 138 m -3 X s 540 143 m -3 X s 540 148 m -3 X s 540 153 m -3 X s 543 159 m -6 X s 540 164 m -3 X s 540 169 m -3 X s
 540 174 m -3 X s 540 180 m -3 X s 543 185 m -6 X s 540 190 m -3 X s 540 196 m -3 X s 540 201 m -3 X s 540 206 m -3 X s 543 211 m -6 X s 540 217 m -3 X s 540 222 m -3 X s 540 227 m -3 X s 540 232 m -3 X s 543 238 m -6 X s 540 243 m -3 X s 540 248 m
 -3 X s 540 253 m -3 X s 540 259 m -3 X s 543 264 m -6 X s 543 80 m -6 X s 540 74 m -3 X s 540 69 m -3 X s 540 64 m -3 X s 543 264 m -6 X s 540 269 m -3 X s 540 275 m -3 X s 540 280 m -3 X s 540 285 m -3 X s
 gsave  408 306 476 13 C 481.462 71.2223 t 0 r /Helvetica findfont 22.8295 sf 0 0 m (\2550.03) show NC gr 
 gsave  408 306 476 13 C 481.462 99.7112 t 0 r /Helvetica findfont 22.8295 sf 0 0 m (\2550.02) show NC gr 
 gsave  408 306 476 13 C 484.311 125.351 t 0 r /Helvetica findfont 22.8295 sf 0 0 m (\2550.01) show NC gr 
 gsave  408 306 476 13 C 518.498 150.991 t 0 r /Helvetica findfont 22.8295 sf 0 0 m (0) show NC gr 
 gsave  408 306 476 13 C 490.009 176.631 t 0 r /Helvetica findfont 22.8295 sf 0 0 m (0.01) show NC gr 
 gsave  408 306 476 13 C 487.16 205.12 t 0 r /Helvetica findfont 22.8295 sf 0 0 m (0.02) show NC gr 
 gsave  408 306 476 13 C 487.16 230.76 t 0 r /Helvetica findfont 22.8295 sf 0 0 m (0.03) show NC gr 
 gsave  408 306 476 13 C 487.16 256.4 t 0 r /Helvetica findfont 22.8295 sf 0 0 m (0.04) show NC gr  844 59 m 229 Y s 838 80 m 6 X s 841 85 m 3 X s 841 90 m 3 X s 841 95 m 3 X s 841 101 m 3 X s 838 106 m 6 X s 841 111 m 3 X s 841 117 m 3 X s 841 122 m
 3 X s 841 127 m 3 X s 838 132 m 6 X s 841 138 m 3 X s 841 143 m 3 X s 841 148 m 3 X s 841 153 m 3 X s 838 159 m 6 X s 841 164 m 3 X s 841 169 m 3 X s 841 174 m 3 X s 841 180 m 3 X s 838 185 m 6 X s 841 190 m 3 X s 841 196 m 3 X s 841 201 m 3 X s 841
 206 m 3 X s 838 211 m 6 X s 841 217 m 3 X s 841 222 m 3 X s 841 227 m 3 X s 841 232 m 3 X s 838 238 m 6 X s 841 243 m 3 X s 841 248 m 3 X s 841 253 m 3 X s 841 259 m 3 X s 838 264 m 6 X s 838 80 m 6 X s 841 74 m 3 X s 841 69 m 3 X s 841 64 m 3 X s
 838 264 m 6 X s 841 269 m 3 X s 841 275 m 3 X s 841 280 m 3 X s 841 285 m 3 X s /w 23 def /w2 {w 2 div} def /w3 {w 3 div} def 594 120 650 226 763 139 819 181 4 { m21} R 594 132 m 31 Y s 588 163 m 11 X s 594 109 m -31 Y s 588 78 m 11 X s 650 237 m 32
 Y s 644 269 m 12 X s 650 214 m -31 Y s 644 183 m 12 X s 763 151 m 31 Y s 757 182 m 11 X s 763 128 m -31 Y s 757 97 m 11 X s 819 193 m 31 Y s 813 224 m 12 X s 819 170 m -31 Y s 813 139 m 12 X s 9 lw 0.95 0.95 0.95 c black 539 159 m 15 X 3 1 d 16 X 3
 1 d 18 X 3 1 d 19 X 3 1 d 18 X 3 1 d 15 X 3 1 d 19 X 3 1 d 9 X s 689 166 m 9 X 3 1 d 19 X 3 1 d 15 X 3 1 d 18 X 3 1 d 19 X 3 1 d 18 X 3 1 d 16 X 3 1 d 15 X s 839 173 m 3 X s 0.49 0.6 0.82 c black 0.49 0.6 0.82 c
 gsave  408 306 476 13 C 595.418 296.285 t 0 r /Helvetica-Bold findfont 25.6831 sf 0 0 m (8.0 < E < 8.5 GeV) show NC gr  0.52 0.76 0.64 c black 0.52 0.76 0.64 c
 gsave  408 306 476 13 C 581.174 259.249 t 0 r /Helvetica-Bold findfont 25.6831 sf 0 0 m 
 220 206 192 185 170 163 148 141 125 118 111 97 83 68 61 47 40 25 18
(A = 0.002, p = 1.000) K NC gr  1 0.6 1 c black 1 0.6 1 c
 gsave  408 306 476 13 C 883.156 128.2 t 90 r /Helvetica-Bold findfont 28.5368 sf 0 0 m (/dof=1.2) show NC gr  black 1 0.6 1 c
 gsave  408 306 476 13 C 871.76 116.804 t 90 r /Helvetica-Bold findfont 19.9758 sf 0 0 m (2) show NC gr  black 1 0.6 1 c
 gsave  408 306 476 13 C 883.156 99.7112 t 90 r /Symbol findfont 28.5368 sf 0 0 m (c) show NC gr  black 3 lw 1 1 1 c 408 306 930 13 bf black 1 1 1 c black 306 229 991 59 bl 306 229 991 59 bl 991 59 m 306 X s 991 63 m -4 Y s 1104 63 m -4 Y s 1216 63 m
 -4 Y s 1216 63 m -4 Y s
 gsave  408 306 930 13 C 980.018 39.8845 t 0 r /Helvetica findfont 22.8295 sf 0 0 m (0) show NC gr 
 gsave  408 306 930 13 C 1096.82 39.8845 t 0 r /Helvetica findfont 22.8295 sf 0 0 m (1) show NC gr 
 gsave  408 306 930 13 C 1205.08 39.8845 t 0 r /Helvetica findfont 22.8295 sf 0 0 m (2) show NC gr  991 288 m 306 X s 991 284 m 4 Y s 1104 284 m 4 Y s 1216 284 m 4 Y s 1216 284 m 4 Y s 991 59 m 229 Y s 997 89 m -6 X s 994 99 m -3 X s 994 110 m -3 X s
 994 121 m -3 X s 997 132 m -6 X s 994 142 m -3 X s 994 153 m -3 X s 994 164 m -3 X s 997 175 m -6 X s 994 185 m -3 X s 994 196 m -3 X s 994 207 m -3 X s 997 218 m -6 X s 994 228 m -3 X s 994 239 m -3 X s 994 250 m -3 X s 997 261 m -6 X s 997 89 m -6
 X s 994 78 m -3 X s 994 67 m -3 X s 997 261 m -6 X s 994 271 m -3 X s 994 282 m -3 X s
 gsave  408 306 930 13 C 937.285 82.6178 t 0 r /Helvetica findfont 22.8295 sf 0 0 m (\2550.04) show NC gr 
 gsave  408 306 930 13 C 937.285 125.351 t 0 r /Helvetica findfont 22.8295 sf 0 0 m (\2550.02) show NC gr 
 gsave  408 306 930 13 C 974.32 168.085 t 0 r /Helvetica findfont 22.8295 sf 0 0 m (0) show NC gr 
 gsave  408 306 930 13 C 942.983 210.818 t 0 r /Helvetica findfont 22.8295 sf 0 0 m (0.02) show NC gr 
 gsave  408 306 930 13 C 942.983 253.551 t 0 r /Helvetica findfont 22.8295 sf 0 0 m (0.04) show NC gr  1297 59 m 229 Y s 1292 89 m 5 X s 1294 99 m 3 X s 1294 110 m 3 X s 1294 121 m 3 X s 1292 132 m 5 X s 1294 142 m 3 X s 1294 153 m 3 X s 1294 164 m 3
 X s 1292 175 m 5 X s 1294 185 m 3 X s 1294 196 m 3 X s 1294 207 m 3 X s 1292 218 m 5 X s 1294 228 m 3 X s 1294 239 m 3 X s 1294 250 m 3 X s 1292 261 m 5 X s 1292 89 m 5 X s 1294 78 m 3 X s 1294 67 m 3 X s 1292 261 m 5 X s 1294 271 m 3 X s 1294 282 m
 3 X s 1047 115 1104 205 1216 127 1272 231 4 { m21} R 1047 126 m 25 Y s 1042 151 m 11 X s 1047 103 m -25 Y s 1042 78 m 11 X s 1104 217 m 26 Y s 1098 243 m 11 X s 1104 194 m -26 Y s 1098 168 m 11 X s 1216 139 m 25 Y s 1210 164 m 12 X s 1216 116 m -25
 Y s 1210 91 m 12 X s 1272 242 m 27 Y s 1267 269 m 11 X s 1272 219 m -26 Y s 1267 193 m 11 X s 1 0 0 c 9 lw 0.95 0.95 0.95 c black 1 0 0 c 993 175 m 55 X 3 1 d 27 X 3 1 d 19 X 3 1 d 15 X 3 1 d 15 X 3 1 d 4 X s 1143 180 m 6 X 3 1 d 12 X 3 1 d 9 X 3 1
 d 9 X 4 1 d 6 X 3 1 d 6 X 3 1 d 9 X 3 1 d 6 X 3 1 d 6 X 3 1 d 7 X 3 1 d 3 X 3 1 d 6 X 3 1 d 6 X 3 1 d 3 X 3 1 d 6 X 3 1 d 4 X s 1293 195 m 3 1 d s 0.49 0.6 0.82 c black 0.49 0.6 0.82 c
 gsave  408 306 930 13 C 1051.24 296.285 t 0 r /Helvetica-Bold findfont 25.6831 sf 0 0 m (8.5 < E < 9.0 GeV) show NC gr  0.52 0.76 0.64 c black 0.52 0.76 0.64 c
 gsave  408 306 930 13 C 1037 259.249 t 0 r /Helvetica-Bold findfont 25.6831 sf 0 0 m 
 220 206 192 185 170 163 148 141 125 118 111 97 83 69 61 47 40 25 18
(A = 0.001, p = 2.000) K NC gr  1 0.6 1 c black 1 0.6 1 c
 gsave  408 306 930 13 C 1336.13 128.2 t 90 r /Helvetica-Bold findfont 28.5368 sf 0 0 m (/dof=2.3) show NC gr  black 1 0.6 1 c
 gsave  408 306 930 13 C 1324.73 116.804 t 90 r /Helvetica-Bold findfont 19.9758 sf 0 0 m (2) show NC gr  black 1 0.6 1 c
 gsave  408 306 930 13 C 1336.13 99.7112 t 90 r /Symbol findfont 28.5368 sf 0 0 m (c) show NC gr  black 3 lw 1 1 1 c 408 306 1383 13 bf black 1 1 1 c black 306 229 1445 59 bl 306 229 1445 59 bl 1445 59 m 306 X s 1445 63 m -4 Y s 1557 63 m -4 Y s 1670
 63 m -4 Y s 1670 63 m -4 Y s
 gsave  408 306 1383 13 C 1435.84 39.8845 t 0 r /Helvetica findfont 22.8295 sf 0 0 m (0) show NC gr 
 gsave  408 306 1383 13 C 1549.8 39.8845 t 0 r /Helvetica findfont 22.8295 sf 0 0 m (1) show NC gr 
 gsave  408 306 1383 13 C 1660.9 39.8845 t 0 r /Helvetica findfont 22.8295 sf 0 0 m (2) show NC gr  1445 288 m 306 X s 1445 284 m 4 Y s 1557 284 m 4 Y s 1670 284 m 4 Y s 1670 284 m 4 Y s 1445 59 m 229 Y s 1450 85 m -5 X s 1447 90 m -2 X s 1447 96 m
 -2 X s 1447 102 m -2 X s 1447 107 m -2 X s 1450 113 m -5 X s 1447 118 m -2 X s 1447 124 m -2 X s 1447 130 m -2 X s 1447 135 m -2 X s 1450 141 m -5 X s 1447 146 m -2 X s 1447 152 m -2 X s 1447 158 m -2 X s 1447 163 m -2 X s 1450 169 m -5 X s 1447 174
 m -2 X s 1447 180 m -2 X s 1447 186 m -2 X s 1447 191 m -2 X s 1450 197 m -5 X s 1447 203 m -2 X s 1447 208 m -2 X s 1447 214 m -2 X s 1447 219 m -2 X s 1450 225 m -5 X s 1447 231 m -2 X s 1447 236 m -2 X s 1447 242 m -2 X s 1447 247 m -2 X s 1450
 253 m -5 X s 1447 259 m -2 X s 1447 264 m -2 X s 1447 270 m -2 X s 1447 275 m -2 X s 1450 281 m -5 X s 1450 85 m -5 X s 1447 79 m -2 X s 1447 74 m -2 X s 1447 68 m -2 X s 1447 62 m -2 X s 1450 281 m -5 X s 1447 287 m -2 X s
 gsave  408 306 1383 13 C 1390.26 76.92 t 0 r /Helvetica findfont 22.8295 sf 0 0 m (\2550.03) show NC gr 
 gsave  408 306 1383 13 C 1390.26 105.409 t 0 r /Helvetica findfont 22.8295 sf 0 0 m (\2550.02) show NC gr 
 gsave  408 306 1383 13 C 1393.11 133.898 t 0 r /Helvetica findfont 22.8295 sf 0 0 m (\2550.01) show NC gr 
 gsave  408 306 1383 13 C 1427.29 162.387 t 0 r /Helvetica findfont 22.8295 sf 0 0 m (0) show NC gr 
 gsave  408 306 1383 13 C 1398.81 190.876 t 0 r /Helvetica findfont 22.8295 sf 0 0 m (0.01) show NC gr 
 gsave  408 306 1383 13 C 1395.96 216.516 t 0 r /Helvetica findfont 22.8295 sf 0 0 m (0.02) show NC gr 
 gsave  408 306 1383 13 C 1395.96 245.005 t 0 r /Helvetica findfont 22.8295 sf 0 0 m (0.03) show NC gr 
 gsave  408 306 1383 13 C 1395.96 273.493 t 0 r /Helvetica findfont 22.8295 sf 0 0 m (0.04) show NC gr  1751 59 m 229 Y s 1745 85 m 6 X s 1748 90 m 3 X s 1748 96 m 3 X s 1748 102 m 3 X s 1748 107 m 3 X s 1745 113 m 6 X s 1748 118 m 3 X s 1748 124 m 3
 X s 1748 130 m 3 X s 1748 135 m 3 X s 1745 141 m 6 X s 1748 146 m 3 X s 1748 152 m 3 X s 1748 158 m 3 X s 1748 163 m 3 X s 1745 169 m 6 X s 1748 174 m 3 X s 1748 180 m 3 X s 1748 186 m 3 X s 1748 191 m 3 X s 1745 197 m 6 X s 1748 203 m 3 X s 1748
 208 m 3 X s 1748 214 m 3 X s 1748 219 m 3 X s 1745 225 m 6 X s 1748 231 m 3 X s 1748 236 m 3 X s 1748 242 m 3 X s 1748 247 m 3 X s 1745 253 m 6 X s 1748 259 m 3 X s 1748 264 m 3 X s 1748 270 m 3 X s 1748 275 m 3 X s 1745 281 m 6 X s 1745 85 m 6 X s
 1748 79 m 3 X s 1748 74 m 3 X s 1748 68 m 3 X s 1748 62 m 3 X s 1745 281 m 6 X s 1748 287 m 3 X s 1501 216 1557 130 1670 148 1726 175 4 { m21} R 1501 227 m 42 Y s 1495 269 m 12 X s 1501 205 m -42 Y s 1495 163 m 12 X s 1557 141 m 41 Y s 1551 182 m 12
 X s 1557 119 m -41 Y s 1551 78 m 12 X s 1670 159 m 41 Y s 1664 200 m 11 X s 1670 136 m -40 Y s 1664 96 m 11 X s 1726 186 m 41 Y s 1720 227 m 12 X s 1726 164 m -41 Y s 1720 123 m 12 X s 9 lw 0.95 0.95 0.95 c black 1446 169 m 6 X 3 -1 d 28 X 3 -1 d 27
 X 3 -1 d 25 X 3 -1 d 28 X 3 -1 d 21 X s 1596 164 m 6 X 3 -1 d 25 X 3 -1 d 27 X 3 -1 d 25 X 3 -1 d 28 X 3 -1 d 24 X s 1746 159 m 3 X s 0.49 0.6 0.82 c black 0.49 0.6 0.82 c
 gsave  408 306 1383 13 C 1504.21 296.285 t 0 r /Helvetica-Bold findfont 25.6831 sf 0 0 m (9.0 < E < 9.5 GeV) show NC gr  0.52 0.76 0.64 c black 0.52 0.76 0.64 c
 gsave  408 306 1383 13 C 1484.27 259.249 t 0 r /Helvetica-Bold findfont 25.6831 sf 0 0 m 
 228 214 200 193 178 171 156 149 134 126 119 105 91 77 69 55 47 40 25 17
(A = \2550.001, p = 1.000) K NC gr  1 0.6 1 c black 1 0.6 1 c
 gsave  408 306 1383 13 C 1789.1 128.2 t 90 r /Helvetica-Bold findfont 28.5368 sf 0 0 m (/dof=0.5) show NC gr  black 1 0.6 1 c
 gsave  408 306 1383 13 C 1777.71 116.804 t 90 r /Helvetica-Bold findfont 19.9758 sf 0 0 m (2) show NC gr  black 1 0.6 1 c
 gsave  408 306 1383 13 C 1789.1 99.7112 t 90 r /Symbol findfont 28.5368 sf 0 0 m (c) show NC gr  black 3 lw 1 1 1 c 408 306 1837 13 bf black 1 1 1 c black 306 229 1898 59 bl 306 229 1898 59 bl 1898 59 m 306 X s 1898 63 m -4 Y s 2011 63 m -4 Y s 2123
 63 m -4 Y s 2123 63 m -4 Y s
 gsave  408 306 1837 13 C 1888.81 39.8845 t 0 r /Helvetica findfont 22.8295 sf 0 0 m (0) show NC gr 
 gsave  408 306 1837 13 C 2002.77 39.8845 t 0 r /Helvetica findfont 22.8295 sf 0 0 m (1) show NC gr 
 gsave  408 306 1837 13 C 2113.88 39.8845 t 0 r /Helvetica findfont 22.8295 sf 0 0 m (2) show NC gr  1898 288 m 306 X s 1898 284 m 4 Y s 2011 284 m 4 Y s 2123 284 m 4 Y s 2123 284 m 4 Y s 1898 59 m 229 Y s 1904 59 m -6 X s 1901 65 m -3 X s 1901 70 m
 -3 X s 1901 75 m -3 X s 1901 81 m -3 X s 1904 86 m -6 X s 1901 92 m -3 X s 1901 97 m -3 X s 1901 103 m -3 X s 1901 108 m -3 X s 1904 114 m -6 X s 1901 119 m -3 X s 1901 125 m -3 X s 1901 130 m -3 X s 1901 136 m -3 X s 1904 141 m -6 X s 1901 147 m -3
 X s 1901 152 m -3 X s 1901 158 m -3 X s 1901 163 m -3 X s 1904 169 m -6 X s 1901 174 m -3 X s 1901 179 m -3 X s 1901 185 m -3 X s 1901 190 m -3 X s 1904 196 m -6 X s 1901 201 m -3 X s 1901 207 m -3 X s 1901 212 m -3 X s 1901 218 m -3 X s 1904 223 m
 -6 X s 1901 229 m -3 X s 1901 234 m -3 X s 1901 240 m -3 X s 1901 245 m -3 X s 1904 251 m -6 X s 1901 256 m -3 X s 1901 262 m -3 X s 1901 267 m -3 X s 1901 273 m -3 X s 1904 278 m -6 X s 1904 278 m -6 X s 1901 283 m -3 X s
 gsave  408 306 1837 13 C 1880.27 51.28 t 0 r /Helvetica findfont 22.8295 sf 0 0 m (0) show NC gr 
 gsave  408 306 1837 13 C 1851.78 79.7689 t 0 r /Helvetica findfont 22.8295 sf 0 0 m (0.01) show NC gr 
 gsave  408 306 1837 13 C 1848.93 105.409 t 0 r /Helvetica findfont 22.8295 sf 0 0 m (0.02) show NC gr 
 gsave  408 306 1837 13 C 1848.93 133.898 t 0 r /Helvetica findfont 22.8295 sf 0 0 m (0.03) show NC gr 
 gsave  408 306 1837 13 C 1848.93 162.387 t 0 r /Helvetica findfont 22.8295 sf 0 0 m (0.04) show NC gr 
 gsave  408 306 1837 13 C 1848.93 188.027 t 0 r /Helvetica findfont 22.8295 sf 0 0 m (0.05) show NC gr 
 gsave  408 306 1837 13 C 1848.93 216.516 t 0 r /Helvetica findfont 22.8295 sf 0 0 m (0.06) show NC gr 
 gsave  408 306 1837 13 C 1848.93 242.156 t 0 r /Helvetica findfont 22.8295 sf 0 0 m (0.07) show NC gr 
 gsave  408 306 1837 13 C 1848.93 270.645 t 0 r /Helvetica findfont 22.8295 sf 0 0 m (0.08) show NC gr  2204 59 m 229 Y s 2199 59 m 5 X s 2201 65 m 3 X s 2201 70 m 3 X s 2201 75 m 3 X s 2201 81 m 3 X s 2199 86 m 5 X s 2201 92 m 3 X s 2201 97 m 3 X s
 2201 103 m 3 X s 2201 108 m 3 X s 2199 114 m 5 X s 2201 119 m 3 X s 2201 125 m 3 X s 2201 130 m 3 X s 2201 136 m 3 X s 2199 141 m 5 X s 2201 147 m 3 X s 2201 152 m 3 X s 2201 158 m 3 X s 2201 163 m 3 X s 2199 169 m 5 X s 2201 174 m 3 X s 2201 179 m
 3 X s 2201 185 m 3 X s 2201 190 m 3 X s 2199 196 m 5 X s 2201 201 m 3 X s 2201 207 m 3 X s 2201 212 m 3 X s 2201 218 m 3 X s 2199 223 m 5 X s 2201 229 m 3 X s 2201 234 m 3 X s 2201 240 m 3 X s 2201 245 m 3 X s 2199 251 m 5 X s 2201 256 m 3 X s 2201
 262 m 3 X s 2201 267 m 3 X s 2201 273 m 3 X s 2199 278 m 5 X s 2199 278 m 5 X s 2201 283 m 3 X s 1954 127 2011 115 2123 210 2179 124 4 { m21} R 1954 138 m 44 Y s 1949 182 m 11 X s 1954 115 m -44 Y s 1949 71 m 11 X s 2011 126 m 45 Y s 2005 171 m 11 X
 s 2011 104 m -45 Y s 2005 59 m 11 X s 2123 222 m 45 Y s 2117 267 m 12 X s 2123 199 m -45 Y s 2117 154 m 12 X s 2179 136 m 44 Y s 2174 180 m 11 X s 2179 113 m -44 Y s 2174 69 m 11 X s 9 lw 0.95 0.95 0.95 c black 1900 60 m 3 1 d 3 1 d 3 2 d 3 1 d 3 1
 d 3 2 d 3 1 d 3 1 d 3 1 d 3 2 d 3 1 d 3 1 d 3 2 d 3 1 d 4 1 d 3 2 d 3 1 d 3 1 d 3 1 d 3 2 d 3 1 d 3 1 d 3 2 d 3 1 d 3 1 d 3 2 d 3 1 d 3 1 d 3 2 d 3 1 d 4 1 d 3 1 d 3 2 d 3 1 d 3 1 d 3 2 d 3 1 d 3 1 d 3 2 d 3 1 d 3 1 d 3 1 d 3 2 d 3 1 d 3 1 d 3 2 d 3
 1 d 4 1 d 3 2 d s 2050 124 m 3 1 d 3 1 d 3 1 d 3 2 d 3 1 d 3 1 d 3 2 d 3 1 d 3 1 d 3 2 d 3 1 d 3 1 d 3 2 d 3 1 d 4 1 d 3 1 d 3 2 d 3 1 d 3 1 d 3 2 d 3 1 d 3 1 d 3 2 d 3 1 d 3 1 d 3 1 d 3 2 d 3 1 d 3 1 d 3 2 d 4 1 d 3 1 d 3 2 d 3 1 d 3 1 d 3 1 d 3 2
 d 3 1 d 3 1 d 3 2 d 3 1 d 3 1 d 3 2 d 3 1 d 3 1 d 3 2 d 4 1 d 3 1 d 3 1 d s 2200 187 m 3 2 d s 0.49 0.6 0.82 c black 0.49 0.6 0.82 c
 gsave  408 306 1837 13 C 1948.64 296.285 t 0 r /Helvetica-Bold findfont 25.6831 sf 0 0 m (9.5 < E < 10.0 GeV) show NC gr  0.52 0.76 0.64 c black 0.52 0.76 0.64 c
 gsave  408 306 1837 13 C 1942.94 259.249 t 0 r /Helvetica-Bold findfont 25.6831 sf 0 0 m 
 220 206 192 185 170 163 148 141 125 118 111 97 83 69 61 47 40 25 18
(A = 0.018, p = 1.000) K NC gr  1 0.6 1 c black 1 0.6 1 c
 gsave  408 306 1837 13 C 2242.08 128.2 t 90 r /Helvetica-Bold findfont 28.5368 sf 0 0 m (/dof=0.8) show NC gr  black 1 0.6 1 c
 gsave  408 306 1837 13 C 2230.68 116.804 t 90 r /Helvetica-Bold findfont 19.9758 sf 0 0 m (2) show NC gr  black 1 0.6 1 c
 gsave  408 306 1837 13 C 2242.08 99.7112 t 90 r /Symbol findfont 28.5368 sf 0 0 m (c) show NC gr 
 gr  gr showpage
end
%%EOF
