%!PS-Adobe-2.0 EPSF-2.0
%%BoundingBox:  0 0 567 332
%%Title: Horn1YTilt_near_fits.eps: Fits
%%Creator: ROOT Version 5.30/06
%%CreationDate: Sun Feb  2 09:39:53 2014
%%EndComments
%%BeginProlog
80 dict begin
/s {stroke} def /l {lineto} def /m {moveto} def /t {translate} def
/r {rotate} def /rl {roll}  def /R {repeat} def
/d {rlineto} def /rm {rmoveto} def /gr {grestore} def /f {eofill} def
/c {setrgbcolor} def /black {0 setgray} def /sd {setdash} def
/cl {closepath} def /sf {scalefont setfont} def /lw {setlinewidth} def
/box {m dup 0 exch d exch 0 d 0 exch neg d cl} def
/NC{systemdict begin initclip end}def/C{NC box clip newpath}def
/bl {box s} def /bf {box f} def /Y { 0 exch d} def /X { 0 d} def 
/K {{pop pop 0 moveto} exch kshow} bind def
/ita {/ang 15 def gsave [1 0 ang dup sin exch cos div 1 0 0] concat} def 
/mp {newpath /y exch def /x exch def} def
/side {[w .77 mul w .23 mul] .385 w mul sd w 0 l currentpoint t -144 r} def
/mr {mp x y w2 0 360 arc} def /m24 {mr s} def /m20 {mr f} def
/mb {mp x y w2 add m w2 neg 0 d 0 w neg d w 0 d 0 w d cl} def
/mt {mp x y w2 add m w2 neg w neg d w 0 d cl} def
/m21 {mb f} def /m25 {mb s} def /m22 {mt f} def /m26{mt s} def
/m23 {mp x y w2 sub m w2 w d w neg 0 d cl f} def
/m27 {mp x y w2 add m w3 neg w2 neg d w3 w2 neg d w3 w2 d cl s} def
/m28 {mp x w2 sub y w2 sub w3 add m w3 0 d  0 w3 neg d w3 0 d 0 w3 d w3 0 d  0 w3 d w3 neg 0 d 0 w3 d w3 neg 0 d 0 w3 neg d w3 neg 0 d cl s } def
/m29 {mp gsave x w2 sub y w2 add w3 sub m currentpoint t 4 {side} repeat cl fill gr} def
/m30 {mp gsave x w2 sub y w2 add w3 sub m currentpoint t 4 {side} repeat cl s gr} def
/m31 {mp x y w2 sub m 0 w d x w2 sub y m w 0 d x w2 sub y w2 add m w w neg d x w2 sub y w2 sub m w w d s} def
/m32 {mp x y w2 sub m w2 w d w neg 0 d cl s} def
/m33 {mp x y w2 add m w3 neg w2 neg d w3 w2 neg d w3 w2 d cl f} def
/m34 {mp x w2 sub y w2 sub w3 add m w3 0 d  0 w3 neg d w3 0 d 0 w3 d w3 0 d  0 w3 d w3 neg 0 d 0 w3 d w3 neg 0 d 0 w3 neg d w3 neg 0 d cl f } def
/m2 {mp x y w2 sub m 0 w d x w2 sub y m w 0 d s} def
/m5 {mp x w2 sub y w2 sub m w w d x w2 sub y w2 add m w w neg d s} def
/reEncode {exch findfont dup length dict begin {1 index /FID eq  {pop pop} {def} ifelse } forall /Encoding exch def currentdict end dup /FontName get exch definefont pop } def [/Times-Bold /Times-Italic /Times-BoldItalic /Helvetica /Helvetica-Oblique
 /Helvetica-Bold /Helvetica-BoldOblique /Courier /Courier-Oblique /Courier-Bold /Courier-BoldOblique /Times-Roman /AvantGarde-Book /AvantGarde-BookOblique /AvantGarde-Demi /AvantGarde-DemiOblique /Bookman-Demi /Bookman-DemiItalic /Bookman-Light
 /Bookman-LightItalic /Helvetica-Narrow /Helvetica-Narrow-Bold /Helvetica-Narrow-BoldOblique /Helvetica-Narrow-Oblique /NewCenturySchlbk-Roman /NewCenturySchlbk-Bold /NewCenturySchlbk-BoldItalic /NewCenturySchlbk-Italic /Palatino-Bold
 /Palatino-BoldItalic /Palatino-Italic /Palatino-Roman ] {ISOLatin1Encoding reEncode } forall%%EndProlog
%%BeginSetup
%%EndSetup
newpath  gsave  .25 .25 scale  gsave  0 0 t black[  ] 0 sd 3 lw 1 1 1 c 2268 1328 0 0 bf black 1 1 1 c 408 305 23 1009 bf black 1 1 1 c black 306 229 84 1055 bl 306 229 84 1055 bl 84 1055 m 306 X s 84 1059 m -4 Y s 224 1059 m -4 Y s 363 1059 m -4 Y s
 363 1059 m -4 Y s
 gsave  408 305 23 1009 C 74.0711 1034.15 t 0 r /Helvetica findfont 22.8295 sf 0 0 m (0) show NC gr 
 gsave  408 305 23 1009 C 216.516 1034.15 t 0 r /Helvetica findfont 22.8295 sf 0 0 m (1) show NC gr 
 gsave  408 305 23 1009 C 353.262 1034.15 t 0 r /Helvetica findfont 22.8295 sf 0 0 m (2) show NC gr  84 1284 m 306 X s 84 1280 m 4 Y s 224 1280 m 4 Y s 363 1280 m 4 Y s 363 1280 m 4 Y s 84 1055 m 229 Y s 89 1062 m -5 X s 87 1067 m -3 X s 87 1072 m -3
 X s 87 1076 m -3 X s 87 1081 m -3 X s 89 1086 m -5 X s 87 1090 m -3 X s 87 1095 m -3 X s 87 1100 m -3 X s 87 1104 m -3 X s 89 1109 m -5 X s 87 1113 m -3 X s 87 1118 m -3 X s 87 1123 m -3 X s 87 1127 m -3 X s 89 1132 m -5 X s 87 1137 m -3 X s 87 1141
 m -3 X s 87 1146 m -3 X s 87 1151 m -3 X s 89 1155 m -5 X s 87 1160 m -3 X s 87 1164 m -3 X s 87 1169 m -3 X s 87 1174 m -3 X s 89 1178 m -5 X s 87 1183 m -3 X s 87 1188 m -3 X s 87 1192 m -3 X s 87 1197 m -3 X s 89 1202 m -5 X s 87 1206 m -3 X s 87
 1211 m -3 X s 87 1215 m -3 X s 87 1220 m -3 X s 89 1225 m -5 X s 87 1229 m -3 X s 87 1234 m -3 X s 87 1239 m -3 X s 87 1243 m -3 X s 89 1248 m -5 X s 87 1253 m -3 X s 87 1257 m -3 X s 87 1262 m -3 X s 87 1266 m -3 X s 89 1271 m -5 X s 89 1062 m -5 X
 s 87 1058 m -3 X s 89 1271 m -5 X s 87 1276 m -3 X s 87 1280 m -3 X s
 gsave  408 305 23 1009 C 14.2445 1054.09 t 0 r /Helvetica findfont 22.8295 sf 0 0 m (\2550.006) show NC gr 
 gsave  408 305 23 1009 C 14.2445 1079.73 t 0 r /Helvetica findfont 22.8295 sf 0 0 m (\2550.005) show NC gr 
 gsave  408 305 23 1009 C 14.2445 1102.52 t 0 r /Helvetica findfont 22.8295 sf 0 0 m (\2550.004) show NC gr 
 gsave  408 305 23 1009 C 14.2445 1125.31 t 0 r /Helvetica findfont 22.8295 sf 0 0 m (\2550.003) show NC gr 
 gsave  408 305 23 1009 C 14.2445 1148.1 t 0 r /Helvetica findfont 22.8295 sf 0 0 m (\2550.002) show NC gr 
 gsave  408 305 23 1009 C 17.0933 1170.89 t 0 r /Helvetica findfont 22.8295 sf 0 0 m (\2550.001) show NC gr 
 gsave  408 305 23 1009 C 65.5245 1193.68 t 0 r /Helvetica findfont 22.8295 sf 0 0 m (0) show NC gr 
 gsave  408 305 23 1009 C 25.64 1216.48 t 0 r /Helvetica findfont 22.8295 sf 0 0 m (0.001) show NC gr 
 gsave  408 305 23 1009 C 22.7911 1242.12 t 0 r /Helvetica findfont 22.8295 sf 0 0 m (0.002) show NC gr 
 gsave  408 305 23 1009 C 22.7911 1264.91 t 0 r /Helvetica findfont 22.8295 sf 0 0 m (0.003) show NC gr  390 1055 m 229 Y s 385 1062 m 5 X s 387 1067 m 3 X s 387 1072 m 3 X s 387 1076 m 3 X s 387 1081 m 3 X s 385 1086 m 5 X s 387 1090 m 3 X s 387
 1095 m 3 X s 387 1100 m 3 X s 387 1104 m 3 X s 385 1109 m 5 X s 387 1113 m 3 X s 387 1118 m 3 X s 387 1123 m 3 X s 387 1127 m 3 X s 385 1132 m 5 X s 387 1137 m 3 X s 387 1141 m 3 X s 387 1146 m 3 X s 387 1151 m 3 X s 385 1155 m 5 X s 387 1160 m 3 X
 s 387 1164 m 3 X s 387 1169 m 3 X s 387 1174 m 3 X s 385 1178 m 5 X s 387 1183 m 3 X s 387 1188 m 3 X s 387 1192 m 3 X s 387 1197 m 3 X s 385 1202 m 5 X s 387 1206 m 3 X s 387 1211 m 3 X s 387 1215 m 3 X s 387 1220 m 3 X s 385 1225 m 5 X s 387 1229
 m 3 X s 387 1234 m 3 X s 387 1239 m 3 X s 387 1243 m 3 X s 385 1248 m 5 X s 387 1253 m 3 X s 387 1257 m 3 X s 387 1262 m 3 X s 387 1266 m 3 X s 385 1271 m 5 X s 385 1062 m 5 X s 387 1058 m 3 X s 385 1271 m 5 X s 387 1276 m 3 X s 387 1280 m 3 X s /w
 22 def /w2 {w 2 div} def /w3 {w 3 div} def 119 1177 154 1221 224 1118 363 1170 4 { m21} R 119 1189 m 32 Y s 113 1221 m 12 X s 119 1166 m -33 Y s 113 1133 m 12 X s 154 1232 m 33 Y s 148 1265 m 11 X s 154 1209 m -32 Y s 148 1177 m 11 X s 224 1129 m 32
 Y s 218 1161 m 11 X s 224 1106 m -32 Y s 218 1074 m 11 X s 363 1181 m 33 Y s 357 1214 m 12 X s 363 1159 m -33 Y s 357 1126 m 12 X s 9 lw 0.95 0.95 0.95 c black 85 1201 m 3 X 4 -1 d 3 -1 d 3 X 3 -1 d 3 X 3 -1 d 3 -1 d 3 X 3 -1 d 3 X 3 -1 d 3 -1 d 3 X
 3 -1 d 3 X 3 -1 d 4 -1 d 3 X 3 -1 d 3 X 3 -1 d 3 -1 d 3 X 3 -1 d 3 X 3 -1 d 3 -1 d 3 X 3 -1 d 3 X 3 -1 d 3 X 4 -1 d 3 -1 d 3 X 3 -1 d 3 X 3 -1 d 3 -1 d 3 X 3 -1 d 3 X 3 -1 d 3 -1 d 3 X 3 -1 d 3 X 3 -1 d s 235 1172 m 4 -1 d 3 X 3 -1 d 3 X 3 -1 d 3 -1
 d 3 X 3 -1 d 3 X 3 -1 d 3 -1 d 3 X 3 -1 d 3 X 3 -1 d 3 -1 d 3 X 4 -1 d 3 X 3 -1 d 3 -1 d 3 X 3 -1 d 3 X 3 -1 d 3 -1 d 3 X 3 -1 d 3 X 3 -1 d 3 -1 d 3 X 3 -1 d 4 X 3 -1 d 3 -1 d 3 X 3 -1 d 3 X 3 -1 d 3 -1 d 3 X 3 -1 d 3 X 3 -1 d 3 -1 d 3 X 3 -1 d 3 X
 s 385 1143 m 4 -1 d s 0.49 0.6 0.82 c black 0.49 0.6 0.82 c
 gsave  408 305 23 1009 C 142.445 1293.4 t 0 r /Helvetica-Bold findfont 25.6831 sf 0 0 m (0.0 < E < 0.5 GeV) show NC gr  0.52 0.76 0.64 c black 0.52 0.76 0.64 c
 gsave  408 305 23 1009 C 122.502 1256.36 t 0 r /Helvetica-Bold findfont 25.6831 sf 0 0 m 
 228 214 200 193 178 171 156 149 134 126 119 105 91 77 69 55 47 39 25 17
(A = \2550.001, p = 1.000) K NC gr  1 0.6 1 c black 1 0.6 1 c
 gsave  408 305 23 1009 C 427.334 1122.46 t 90 r /Helvetica-Bold findfont 28.5368 sf 0 0 m (/dof=0.9) show NC gr  black 1 0.6 1 c
 gsave  408 305 23 1009 C 415.938 1111.07 t 90 r /Helvetica-Bold findfont 19.9758 sf 0 0 m (2) show NC gr  black 1 0.6 1 c
 gsave  408 305 23 1009 C 427.334 1093.97 t 90 r /Symbol findfont 28.5368 sf 0 0 m (c) show NC gr  black 3 lw 1 1 1 c 408 305 476 1009 bf black 1 1 1 c black 307 229 537 1055 bl 307 229 537 1055 bl 537 1055 m 307 X s 537 1059 m -4 Y s 677 1059 m -4 Y
 s 817 1059 m -4 Y s 817 1059 m -4 Y s
 gsave  408 305 476 1009 C 527.045 1034.15 t 0 r /Helvetica findfont 22.8295 sf 0 0 m (0) show NC gr 
 gsave  408 305 476 1009 C 669.489 1034.15 t 0 r /Helvetica findfont 22.8295 sf 0 0 m (1) show NC gr 
 gsave  408 305 476 1009 C 806.236 1034.15 t 0 r /Helvetica findfont 22.8295 sf 0 0 m (2) show NC gr  537 1284 m 307 X s 537 1280 m 4 Y s 677 1280 m 4 Y s 817 1280 m 4 Y s 817 1280 m 4 Y s 537 1055 m 229 Y s 543 1072 m -6 X s 540 1077 m -3 X s 540
 1083 m -3 X s 540 1088 m -3 X s 540 1093 m -3 X s 543 1099 m -6 X s 540 1104 m -3 X s 540 1110 m -3 X s 540 1115 m -3 X s 540 1120 m -3 X s 543 1126 m -6 X s 540 1131 m -3 X s 540 1137 m -3 X s 540 1142 m -3 X s 540 1147 m -3 X s 543 1153 m -6 X s
 540 1158 m -3 X s 540 1164 m -3 X s 540 1169 m -3 X s 540 1174 m -3 X s 543 1180 m -6 X s 540 1185 m -3 X s 540 1191 m -3 X s 540 1196 m -3 X s 540 1201 m -3 X s 543 1207 m -6 X s 540 1212 m -3 X s 540 1218 m -3 X s 540 1223 m -3 X s 540 1228 m -3 X
 s 543 1234 m -6 X s 540 1239 m -3 X s 540 1245 m -3 X s 540 1250 m -3 X s 540 1255 m -3 X s 543 1261 m -6 X s 543 1072 m -6 X s 540 1066 m -3 X s 540 1061 m -3 X s 540 1056 m -3 X s 543 1261 m -6 X s 540 1266 m -3 X s 540 1272 m -3 X s 540 1277 m -3
 X s 540 1282 m -3 X s
 gsave  408 305 476 1009 C 467.218 1065.48 t 0 r /Helvetica findfont 22.8295 sf 0 0 m (\2550.003) show NC gr 
 gsave  408 305 476 1009 C 467.218 1091.12 t 0 r /Helvetica findfont 22.8295 sf 0 0 m (\2550.002) show NC gr 
 gsave  408 305 476 1009 C 470.067 1119.61 t 0 r /Helvetica findfont 22.8295 sf 0 0 m (\2550.001) show NC gr 
 gsave  408 305 476 1009 C 518.498 1145.25 t 0 r /Helvetica findfont 22.8295 sf 0 0 m (0) show NC gr 
 gsave  408 305 476 1009 C 478.614 1173.74 t 0 r /Helvetica findfont 22.8295 sf 0 0 m (0.001) show NC gr 
 gsave  408 305 476 1009 C 475.765 1199.38 t 0 r /Helvetica findfont 22.8295 sf 0 0 m (0.002) show NC gr 
 gsave  408 305 476 1009 C 475.765 1227.87 t 0 r /Helvetica findfont 22.8295 sf 0 0 m (0.003) show NC gr 
 gsave  408 305 476 1009 C 475.765 1253.51 t 0 r /Helvetica findfont 22.8295 sf 0 0 m (0.004) show NC gr  844 1055 m 229 Y s 838 1072 m 6 X s 841 1077 m 3 X s 841 1083 m 3 X s 841 1088 m 3 X s 841 1093 m 3 X s 838 1099 m 6 X s 841 1104 m 3 X s 841
 1110 m 3 X s 841 1115 m 3 X s 841 1120 m 3 X s 838 1126 m 6 X s 841 1131 m 3 X s 841 1137 m 3 X s 841 1142 m 3 X s 841 1147 m 3 X s 838 1153 m 6 X s 841 1158 m 3 X s 841 1164 m 3 X s 841 1169 m 3 X s 841 1174 m 3 X s 838 1180 m 6 X s 841 1185 m 3 X
 s 841 1191 m 3 X s 841 1196 m 3 X s 841 1201 m 3 X s 838 1207 m 6 X s 841 1212 m 3 X s 841 1218 m 3 X s 841 1223 m 3 X s 841 1228 m 3 X s 838 1234 m 6 X s 841 1239 m 3 X s 841 1245 m 3 X s 841 1250 m 3 X s 841 1255 m 3 X s 838 1261 m 6 X s 838 1072
 m 6 X s 841 1066 m 3 X s 841 1061 m 3 X s 841 1056 m 3 X s 838 1261 m 6 X s 841 1266 m 3 X s 841 1272 m 3 X s 841 1277 m 3 X s 841 1282 m 3 X s /w 23 def /w2 {w 2 div} def /w3 {w 3 div} def 572 1202 607 1192 677 1135 817 1203 4 { m21} R 572 1213 m
 50 Y s 567 1263 m 11 X s 572 1191 m -50 Y s 567 1141 m 11 X s 607 1203 m 50 Y s 602 1253 m 11 X s 607 1180 m -49 Y s 602 1131 m 11 X s 677 1146 m 50 Y s 671 1196 m 12 X s 677 1124 m -50 Y s 671 1074 m 12 X s 817 1215 m 50 Y s 811 1265 m 11 X s 817
 1192 m -50 Y s 811 1142 m 11 X s 9 lw 0.95 0.95 0.95 c black 539 1153 m 3 1 d 6 X 3 1 d 3 X 3 1 d 3 X 3 1 d 4 X 3 1 d 3 X 3 1 d 3 X 3 1 d 3 X 3 1 d 3 X 3 1 d 3 X 3 1 d 3 X 3 1 d 6 X 4 1 d 3 X 3 1 d 3 X 3 1 d 3 X 3 1 d 3 X 3 1 d 3 X 3 1 d 3 X 3 1 d 3
 X 3 1 d 3 X 3 1 d 7 X 3 1 d 3 X 3 1 d 3 X 3 1 d 3 X s 689 1176 m 3 1 d 3 X 3 1 d 3 X 3 1 d 3 X 3 1 d 3 X 4 1 d 3 X 3 1 d 3 X 3 1 d 6 X 3 1 d 3 X 3 1 d 3 X 3 1 d 3 X 3 1 d 3 X 3 1 d 4 X 3 1 d 3 X 3 1 d 3 X 3 1 d 3 X 3 1 d 3 X 3 1 d 6 X 3 1 d 3 X 3 1
 d 3 X 4 1 d 3 X 3 1 d 3 X 3 1 d 3 X 3 1 d 3 X 3 1 d s 839 1200 m 3 X s 0.49 0.6 0.82 c black 0.49 0.6 0.82 c
 gsave  408 305 476 1009 C 595.418 1293.4 t 0 r /Helvetica-Bold findfont 25.6831 sf 0 0 m (0.5 < E < 1.0 GeV) show NC gr  0.52 0.76 0.64 c black 0.52 0.76 0.64 c
 gsave  408 305 476 1009 C 581.174 1256.36 t 0 r /Helvetica-Bold findfont 25.6831 sf 0 0 m 
 220 206 192 185 170 163 148 141 125 118 111 97 83 68 61 47 40 25 18
(A = 0.001, p = 1.000) K NC gr  1 0.6 1 c black 1 0.6 1 c
 gsave  408 305 476 1009 C 883.156 1122.46 t 90 r /Helvetica-Bold findfont 28.5368 sf 0 0 m (/dof=0.4) show NC gr  black 1 0.6 1 c
 gsave  408 305 476 1009 C 871.76 1111.07 t 90 r /Helvetica-Bold findfont 19.9758 sf 0 0 m (2) show NC gr  black 1 0.6 1 c
 gsave  408 305 476 1009 C 883.156 1093.97 t 90 r /Symbol findfont 28.5368 sf 0 0 m (c) show NC gr  black 3 lw 1 1 1 c 408 305 930 1009 bf black 1 1 1 c black 306 229 991 1055 bl 306 229 991 1055 bl 991 1055 m 306 X s 991 1059 m -4 Y s 1131 1059 m -4
 Y s 1270 1059 m -4 Y s 1270 1059 m -4 Y s
 gsave  408 305 930 1009 C 980.018 1034.15 t 0 r /Helvetica findfont 22.8295 sf 0 0 m (0) show NC gr 
 gsave  408 305 930 1009 C 1122.46 1034.15 t 0 r /Helvetica findfont 22.8295 sf 0 0 m (1) show NC gr 
 gsave  408 305 930 1009 C 1259.21 1034.15 t 0 r /Helvetica findfont 22.8295 sf 0 0 m (2) show NC gr  991 1284 m 306 X s 991 1280 m 4 Y s 1131 1280 m 4 Y s 1270 1280 m 4 Y s 1270 1280 m 4 Y s 991 1055 m 229 Y s 997 1056 m -6 X s 994 1061 m -3 X s 994
 1066 m -3 X s 994 1071 m -3 X s 994 1076 m -3 X s 997 1081 m -6 X s 994 1086 m -3 X s 994 1091 m -3 X s 994 1095 m -3 X s 994 1100 m -3 X s 997 1105 m -6 X s 994 1110 m -3 X s 994 1115 m -3 X s 994 1120 m -3 X s 994 1125 m -3 X s 997 1130 m -6 X s
 994 1135 m -3 X s 994 1140 m -3 X s 994 1145 m -3 X s 994 1150 m -3 X s 997 1155 m -6 X s 994 1160 m -3 X s 994 1165 m -3 X s 994 1170 m -3 X s 994 1175 m -3 X s 997 1180 m -6 X s 994 1185 m -3 X s 994 1190 m -3 X s 994 1195 m -3 X s 994 1200 m -3 X
 s 997 1205 m -6 X s 994 1210 m -3 X s 994 1215 m -3 X s 994 1220 m -3 X s 994 1225 m -3 X s 997 1230 m -6 X s 994 1235 m -3 X s 994 1240 m -3 X s 994 1244 m -3 X s 994 1249 m -3 X s 997 1254 m -6 X s 994 1259 m -3 X s 994 1264 m -3 X s 994 1269 m -3
 X s 994 1274 m -3 X s 997 1279 m -6 X s 997 1056 m -6 X s 997 1279 m -6 X s
 gsave  408 305 930 1009 C 923.04 1048.39 t 0 r /Helvetica findfont 22.8295 sf 0 0 m (\2550.007) show NC gr 
 gsave  408 305 930 1009 C 923.04 1074.03 t 0 r /Helvetica findfont 22.8295 sf 0 0 m (\2550.006) show NC gr 
 gsave  408 305 930 1009 C 923.04 1099.67 t 0 r /Helvetica findfont 22.8295 sf 0 0 m (\2550.005) show NC gr 
 gsave  408 305 930 1009 C 923.04 1122.46 t 0 r /Helvetica findfont 22.8295 sf 0 0 m (\2550.004) show NC gr 
 gsave  408 305 930 1009 C 923.04 1148.1 t 0 r /Helvetica findfont 22.8295 sf 0 0 m (\2550.003) show NC gr 
 gsave  408 305 930 1009 C 923.04 1173.74 t 0 r /Helvetica findfont 22.8295 sf 0 0 m (\2550.002) show NC gr 
 gsave  408 305 930 1009 C 925.889 1196.53 t 0 r /Helvetica findfont 22.8295 sf 0 0 m (\2550.001) show NC gr 
 gsave  408 305 930 1009 C 974.32 1222.17 t 0 r /Helvetica findfont 22.8295 sf 0 0 m (0) show NC gr 
 gsave  408 305 930 1009 C 934.436 1247.81 t 0 r /Helvetica findfont 22.8295 sf 0 0 m (0.001) show NC gr 
 gsave  408 305 930 1009 C 931.587 1273.45 t 0 r /Helvetica findfont 22.8295 sf 0 0 m (0.002) show NC gr  1297 1055 m 229 Y s 1292 1056 m 5 X s 1294 1061 m 3 X s 1294 1066 m 3 X s 1294 1071 m 3 X s 1294 1076 m 3 X s 1292 1081 m 5 X s 1294 1086 m 3 X
 s 1294 1091 m 3 X s 1294 1095 m 3 X s 1294 1100 m 3 X s 1292 1105 m 5 X s 1294 1110 m 3 X s 1294 1115 m 3 X s 1294 1120 m 3 X s 1294 1125 m 3 X s 1292 1130 m 5 X s 1294 1135 m 3 X s 1294 1140 m 3 X s 1294 1145 m 3 X s 1294 1150 m 3 X s 1292 1155 m 5
 X s 1294 1160 m 3 X s 1294 1165 m 3 X s 1294 1170 m 3 X s 1294 1175 m 3 X s 1292 1180 m 5 X s 1294 1185 m 3 X s 1294 1190 m 3 X s 1294 1195 m 3 X s 1294 1200 m 3 X s 1292 1205 m 5 X s 1294 1210 m 3 X s 1294 1215 m 3 X s 1294 1220 m 3 X s 1294 1225 m
 3 X s 1292 1230 m 5 X s 1294 1235 m 3 X s 1294 1240 m 3 X s 1294 1244 m 3 X s 1294 1249 m 3 X s 1292 1254 m 5 X s 1294 1259 m 3 X s 1294 1264 m 3 X s 1294 1269 m 3 X s 1294 1274 m 3 X s 1292 1279 m 5 X s 1292 1056 m 5 X s 1292 1279 m 5 X s 1026 1210
 1061 1129 1131 1167 1270 1173 4 { m21} R 1026 1221 m 44 Y s 1020 1265 m 12 X s 1026 1198 m -44 Y s 1020 1154 m 12 X s 1061 1140 m 43 Y s 1055 1183 m 12 X s 1061 1117 m -43 Y s 1055 1074 m 12 X s 1131 1178 m 44 Y s 1125 1222 m 11 X s 1131 1156 m -44
 Y s 1125 1112 m 11 X s 1270 1185 m 43 Y s 1265 1228 m 11 X s 1270 1162 m -44 Y s 1265 1118 m 11 X s 9 lw 0.95 0.95 0.95 c black 993 1229 m 3 -1 d 3 -1 d 3 -1 d 3 -1 d 3 -1 d 3 -1 d 3 -1 d 3 -1 d 3 X 3 -1 d 3 -1 d 3 -1 d 3 -1 d 3 -1 d 3 -1 d 4 -1 d 3
 -1 d 3 -1 d 3 -1 d 3 -1 d 3 -1 d 3 -1 d 3 -1 d 3 -1 d 3 -1 d 3 -1 d 3 -1 d 3 -1 d 3 -1 d 3 X 3 -1 d 3 -1 d 4 -1 d 3 -1 d 3 -1 d 3 -1 d 3 -1 d 3 -1 d 3 -1 d 3 -1 d 3 -1 d 3 -1 d 3 -1 d 3 -1 d 3 -1 d 3 -1 d 3 -1 d 3 -1 d 4 -1 d s 1143 1182 m 3 -1 d 3
 -1 d 3 X 3 -1 d 3 -1 d 3 -1 d 3 -1 d 3 -1 d 3 -1 d 3 -1 d 3 -1 d 3 -1 d 3 -1 d 3 -1 d 3 -1 d 4 -1 d 3 -1 d 3 -1 d 3 -1 d 3 -1 d 3 -1 d 3 -1 d 3 -1 d 3 X 3 -1 d 3 -1 d 3 -1 d 3 -1 d 3 -1 d 3 -1 d 3 -1 d 3 -1 d 4 -1 d 3 -1 d 3 -1 d 3 -1 d 3 -1 d 3 -1
 d 3 -1 d 3 -1 d 3 -1 d 3 -1 d 3 -1 d 3 -1 d 3 X 3 -1 d 3 -1 d 3 -1 d 4 -1 d s 1293 1136 m 3 -1 d s 0.49 0.6 0.82 c black 0.49 0.6 0.82 c
 gsave  408 305 930 1009 C 1051.24 1293.4 t 0 r /Helvetica-Bold findfont 25.6831 sf 0 0 m (1.0 < E < 1.5 GeV) show NC gr  0.52 0.76 0.64 c black 0.52 0.76 0.64 c
 gsave  408 305 930 1009 C 1031.3 1256.36 t 0 r /Helvetica-Bold findfont 25.6831 sf 0 0 m 
 228 214 200 193 178 171 156 149 133 126 119 105 91 77 69 55 47 39 25 17
(A = \2550.002, p = 1.000) K NC gr  1 0.6 1 c black 1 0.6 1 c
 gsave  408 305 930 1009 C 1336.13 1122.46 t 90 r /Helvetica-Bold findfont 28.5368 sf 0 0 m (/dof=0.9) show NC gr  black 1 0.6 1 c
 gsave  408 305 930 1009 C 1324.73 1111.07 t 90 r /Helvetica-Bold findfont 19.9758 sf 0 0 m (2) show NC gr  black 1 0.6 1 c
 gsave  408 305 930 1009 C 1336.13 1093.97 t 90 r /Symbol findfont 28.5368 sf 0 0 m (c) show NC gr  black 3 lw 1 1 1 c 408 305 1383 1009 bf black 1 1 1 c black 306 229 1445 1055 bl 306 229 1445 1055 bl 1445 1055 m 306 X s 1445 1059 m -4 Y s 1584 1059
 m -4 Y s 1724 1059 m -4 Y s 1724 1059 m -4 Y s
 gsave  408 305 1383 1009 C 1435.84 1034.15 t 0 r /Helvetica findfont 22.8295 sf 0 0 m (0) show NC gr 
 gsave  408 305 1383 1009 C 1578.29 1034.15 t 0 r /Helvetica findfont 22.8295 sf 0 0 m (1) show NC gr 
 gsave  408 305 1383 1009 C 1715.03 1034.15 t 0 r /Helvetica findfont 22.8295 sf 0 0 m (2) show NC gr  1445 1284 m 306 X s 1445 1280 m 4 Y s 1584 1280 m 4 Y s 1724 1280 m 4 Y s 1724 1280 m 4 Y s 1445 1055 m 229 Y s 1450 1084 m -5 X s 1447 1095 m -2 X
 s 1447 1105 m -2 X s 1447 1116 m -2 X s 1450 1127 m -5 X s 1447 1137 m -2 X s 1447 1148 m -2 X s 1447 1159 m -2 X s 1450 1169 m -5 X s 1447 1180 m -2 X s 1447 1191 m -2 X s 1447 1201 m -2 X s 1450 1212 m -5 X s 1447 1223 m -2 X s 1447 1233 m -2 X s
 1447 1244 m -2 X s 1450 1255 m -5 X s 1450 1084 m -5 X s 1447 1073 m -2 X s 1447 1063 m -2 X s 1450 1255 m -5 X s 1447 1265 m -2 X s 1447 1276 m -2 X s
 gsave  408 305 1383 1009 C 1376.01 1076.88 t 0 r /Helvetica findfont 22.8295 sf 0 0 m (\2550.006) show NC gr 
 gsave  408 305 1383 1009 C 1376.01 1119.61 t 0 r /Helvetica findfont 22.8295 sf 0 0 m (\2550.004) show NC gr 
 gsave  408 305 1383 1009 C 1376.01 1162.35 t 0 r /Helvetica findfont 22.8295 sf 0 0 m (\2550.002) show NC gr 
 gsave  408 305 1383 1009 C 1427.29 1205.08 t 0 r /Helvetica findfont 22.8295 sf 0 0 m (0) show NC gr 
 gsave  408 305 1383 1009 C 1384.56 1247.81 t 0 r /Helvetica findfont 22.8295 sf 0 0 m (0.002) show NC gr  1751 1055 m 229 Y s 1745 1084 m 6 X s 1748 1095 m 3 X s 1748 1105 m 3 X s 1748 1116 m 3 X s 1745 1127 m 6 X s 1748 1137 m 3 X s 1748 1148 m 3 X
 s 1748 1159 m 3 X s 1745 1169 m 6 X s 1748 1180 m 3 X s 1748 1191 m 3 X s 1748 1201 m 3 X s 1745 1212 m 6 X s 1748 1223 m 3 X s 1748 1233 m 3 X s 1748 1244 m 3 X s 1745 1255 m 6 X s 1745 1084 m 6 X s 1748 1073 m 3 X s 1748 1063 m 3 X s 1745 1255 m 6
 X s 1748 1265 m 3 X s 1748 1276 m 3 X s 1479 1165 1514 1217 1584 1174 1724 1121 4 { m21} R 1479 1177 m 36 Y s 1474 1213 m 11 X s 1479 1154 m -36 Y s 1474 1118 m 11 X s 1514 1228 m 37 Y s 1509 1265 m 11 X s 1514 1205 m -36 Y s 1509 1169 m 11 X s 1584
 1186 m 35 Y s 1578 1221 m 12 X s 1584 1163 m -36 Y s 1578 1127 m 12 X s 1724 1132 m 36 Y s 1718 1168 m 11 X s 1724 1110 m -36 Y s 1718 1074 m 11 X s 9 lw 0.95 0.95 0.95 c black 1446 1211 m 3 -1 d 3 X 3 -1 d 3 -1 d 3 -1 d 3 -1 d 3 -1 d 4 -1 d 3 -1 d
 3 -1 d 3 -1 d 3 -1 d 3 -1 d 3 -1 d 3 -1 d 3 -1 d 3 -1 d 3 -1 d 3 -1 d 3 X 3 -1 d 3 -1 d 3 -1 d 4 -1 d 3 -1 d 3 -1 d 3 -1 d 3 -1 d 3 -1 d 3 -1 d 3 -1 d 3 -1 d 3 -1 d 3 -1 d 3 -1 d 3 -1 d 3 -1 d 3 X 3 -1 d 4 -1 d 3 -1 d 3 -1 d 3 -1 d 3 -1 d 3 -1 d 3
 -1 d 3 -1 d 3 -1 d 3 -1 d s 1596 1165 m 3 -1 d 3 -1 d 3 -1 d 3 -1 d 3 -1 d 3 -1 d 4 X 3 -1 d 3 -1 d 3 -1 d 3 -1 d 3 -1 d 3 -1 d 3 -1 d 3 -1 d 3 -1 d 3 -1 d 3 -1 d 3 -1 d 3 -1 d 3 -1 d 3 -1 d 3 -1 d 4 -1 d 3 X 3 -1 d 3 -1 d 3 -1 d 3 -1 d 3 -1 d 3 -1
 d 3 -1 d 3 -1 d 3 -1 d 3 -1 d 3 -1 d 3 -1 d 3 -1 d 3 -1 d 4 -1 d 3 -1 d 3 -1 d 3 X 3 -1 d 3 -1 d 3 -1 d 3 -1 d 3 -1 d 3 -1 d s 1746 1119 m 3 -1 d s 0.49 0.6 0.82 c black 0.49 0.6 0.82 c
 gsave  408 305 1383 1009 C 1504.21 1293.4 t 0 r /Helvetica-Bold findfont 25.6831 sf 0 0 m (1.5 < E < 2.0 GeV) show NC gr  0.52 0.76 0.64 c black 0.52 0.76 0.64 c
 gsave  408 305 1383 1009 C 1484.27 1256.36 t 0 r /Helvetica-Bold findfont 25.6831 sf 0 0 m 
 228 214 200 193 178 171 156 149 134 126 119 105 91 77 69 55 47 40 25 17
(A = \2550.002, p = 1.000) K NC gr  1 0.6 1 c black 1 0.6 1 c
 gsave  408 305 1383 1009 C 1789.1 1122.46 t 90 r /Helvetica-Bold findfont 28.5368 sf 0 0 m (/dof=0.3) show NC gr  black 1 0.6 1 c
 gsave  408 305 1383 1009 C 1777.71 1111.07 t 90 r /Helvetica-Bold findfont 19.9758 sf 0 0 m (2) show NC gr  black 1 0.6 1 c
 gsave  408 305 1383 1009 C 1789.1 1093.97 t 90 r /Symbol findfont 28.5368 sf 0 0 m (c) show NC gr  black 3 lw 1 1 1 c 408 305 1837 1009 bf black 1 1 1 c black 306 229 1898 1055 bl 306 229 1898 1055 bl 1898 1055 m 306 X s 1898 1059 m -4 Y s 2038 1059
 m -4 Y s 2177 1059 m -4 Y s 2177 1059 m -4 Y s
 gsave  408 305 1837 1009 C 1888.81 1034.15 t 0 r /Helvetica findfont 22.8295 sf 0 0 m (0) show NC gr 
 gsave  408 305 1837 1009 C 2031.26 1034.15 t 0 r /Helvetica findfont 22.8295 sf 0 0 m (1) show NC gr 
 gsave  408 305 1837 1009 C 2168.01 1034.15 t 0 r /Helvetica findfont 22.8295 sf 0 0 m (2) show NC gr  1898 1284 m 306 X s 1898 1280 m 4 Y s 2038 1280 m 4 Y s 2177 1280 m 4 Y s 2177 1280 m 4 Y s 1898 1055 m 229 Y s 1904 1082 m -6 X s 1901 1091 m -3 X
 s 1901 1100 m -3 X s 1901 1110 m -3 X s 1904 1119 m -6 X s 1901 1128 m -3 X s 1901 1137 m -3 X s 1901 1146 m -3 X s 1904 1156 m -6 X s 1901 1165 m -3 X s 1901 1174 m -3 X s 1901 1183 m -3 X s 1904 1192 m -6 X s 1901 1201 m -3 X s 1901 1211 m -3 X s
 1901 1220 m -3 X s 1904 1229 m -6 X s 1901 1238 m -3 X s 1901 1247 m -3 X s 1901 1257 m -3 X s 1904 1266 m -6 X s 1904 1082 m -6 X s 1901 1073 m -3 X s 1901 1064 m -3 X s 1904 1266 m -6 X s 1901 1275 m -3 X s
 gsave  408 305 1837 1009 C 1828.99 1074.03 t 0 r /Helvetica findfont 22.8295 sf 0 0 m (\2550.008) show NC gr 
 gsave  408 305 1837 1009 C 1828.99 1111.07 t 0 r /Helvetica findfont 22.8295 sf 0 0 m (\2550.006) show NC gr 
 gsave  408 305 1837 1009 C 1828.99 1148.1 t 0 r /Helvetica findfont 22.8295 sf 0 0 m (\2550.004) show NC gr 
 gsave  408 305 1837 1009 C 1828.99 1185.14 t 0 r /Helvetica findfont 22.8295 sf 0 0 m (\2550.002) show NC gr 
 gsave  408 305 1837 1009 C 1880.27 1222.17 t 0 r /Helvetica findfont 22.8295 sf 0 0 m (0) show NC gr 
 gsave  408 305 1837 1009 C 1837.53 1259.21 t 0 r /Helvetica findfont 22.8295 sf 0 0 m (0.002) show NC gr  2204 1055 m 229 Y s 2199 1082 m 5 X s 2201 1091 m 3 X s 2201 1100 m 3 X s 2201 1110 m 3 X s 2199 1119 m 5 X s 2201 1128 m 3 X s 2201 1137 m 3 X
 s 2201 1146 m 3 X s 2199 1156 m 5 X s 2201 1165 m 3 X s 2201 1174 m 3 X s 2201 1183 m 3 X s 2199 1192 m 5 X s 2201 1201 m 3 X s 2201 1211 m 3 X s 2201 1220 m 3 X s 2199 1229 m 5 X s 2201 1238 m 3 X s 2201 1247 m 3 X s 2201 1257 m 3 X s 2199 1266 m 5
 X s 2199 1082 m 5 X s 2201 1073 m 3 X s 2201 1064 m 3 X s 2199 1266 m 5 X s 2201 1275 m 3 X s 1933 1220 1968 1220 2038 1210 2177 1118 4 { m21} R 1933 1232 m 33 Y s 1927 1265 m 12 X s 1933 1209 m -33 Y s 1927 1176 m 12 X s 1968 1231 m 33 Y s 1962
 1264 m 12 X s 1968 1209 m -33 Y s 1962 1176 m 12 X s 2038 1222 m 33 Y s 2032 1255 m 11 X s 2038 1199 m -33 Y s 2032 1166 m 11 X s 2177 1129 m 33 Y s 2172 1162 m 11 X s 2177 1107 m -33 Y s 2172 1074 m 11 X s 1 0 0 c 9 lw 0.95 0.95 0.95 c black 1 0 0
 c 1900 1229 m 15 X 3 -1 d 12 X 3 -1 d 6 X 3 -1 d 4 X 3 -1 d 6 X 3 -1 d 3 X 3 -1 d 3 -1 d 3 X 3 -1 d 3 -1 d 3 X 3 -1 d 3 -1 d 3 X 3 -1 d 4 -1 d 3 -1 d 3 -1 d 3 -1 d 3 -1 d 3 X 3 -1 d 3 -1 d 3 -1 d 3 -1 d 3 -2 d 3 -1 d 3 -1 d 3 -1 d 3 -1 d 3 -1 d 3 -2
 d 4 -1 d 3 -1 d s 2050 1197 m 3 -1 d 3 -2 d 3 -1 d 3 -2 d 3 -1 d 3 -1 d 3 -2 d 3 -1 d 3 -2 d 3 -1 d 3 -2 d 3 -2 d 3 -1 d 3 -2 d 4 -2 d 3 -1 d 3 -2 d 3 -2 d 3 -2 d 3 -1 d 3 -2 d 3 -2 d 3 -2 d 3 -2 d 3 -2 d 3 -2 d 3 -2 d 3 -2 d 3 -2 d 3 -2 d 4 -2 d 3
 -2 d 3 -2 d 3 -2 d 3 -3 d 3 -2 d 3 -2 d 3 -2 d 3 -3 d 3 -2 d 3 -2 d 3 -3 d 3 -2 d 3 -3 d 3 -2 d 3 -3 d 4 -2 d 3 -3 d 3 -2 d s 2200 1102 m 3 -3 d s 0.49 0.6 0.82 c black 0.49 0.6 0.82 c
 gsave  408 305 1837 1009 C 1957.19 1293.4 t 0 r /Helvetica-Bold findfont 25.6831 sf 0 0 m (2.0 < E < 2.5 GeV) show NC gr  0.52 0.76 0.64 c black 0.52 0.76 0.64 c
 gsave  408 305 1837 1009 C 1937.25 1256.36 t 0 r /Helvetica-Bold findfont 25.6831 sf 0 0 m 
 228 214 200 193 178 171 156 149 133 126 119 105 91 77 69 55 47 39 25 17
(A = \2550.001, p = 2.000) K NC gr  1 0.6 1 c black 1 0.6 1 c
 gsave  408 305 1837 1009 C 2242.08 1122.46 t 90 r /Helvetica-Bold findfont 28.5368 sf 0 0 m (/dof=0.0) show NC gr  black 1 0.6 1 c
 gsave  408 305 1837 1009 C 2230.68 1111.07 t 90 r /Helvetica-Bold findfont 19.9758 sf 0 0 m (2) show NC gr  black 1 0.6 1 c
 gsave  408 305 1837 1009 C 2242.08 1093.97 t 90 r /Symbol findfont 28.5368 sf 0 0 m (c) show NC gr  black 3 lw 1 1 1 c 408 305 23 677 bf black 1 1 1 c black 306 229 84 723 bl 306 229 84 723 bl 84 723 m 306 X s 84 727 m -4 Y s 224 727 m -4 Y s 363
 727 m -4 Y s 363 727 m -4 Y s
 gsave  408 305 23 677 C 74.0711 703.676 t 0 r /Helvetica findfont 22.8295 sf 0 0 m (0) show NC gr 
 gsave  408 305 23 677 C 216.516 703.676 t 0 r /Helvetica findfont 22.8295 sf 0 0 m (1) show NC gr 
 gsave  408 305 23 677 C 353.262 703.676 t 0 r /Helvetica findfont 22.8295 sf 0 0 m (2) show NC gr  84 952 m 306 X s 84 948 m 4 Y s 224 948 m 4 Y s 363 948 m 4 Y s 363 948 m 4 Y s 84 723 m 229 Y s 89 737 m -5 X s 87 747 m -3 X s 87 756 m -3 X s 87
 765 m -3 X s 89 774 m -5 X s 87 784 m -3 X s 87 793 m -3 X s 87 802 m -3 X s 89 811 m -5 X s 87 821 m -3 X s 87 830 m -3 X s 87 839 m -3 X s 89 848 m -5 X s 87 858 m -3 X s 87 867 m -3 X s 87 876 m -3 X s 89 885 m -5 X s 87 895 m -3 X s 87 904 m -3
 X s 87 913 m -3 X s 89 923 m -5 X s 89 737 m -5 X s 87 728 m -3 X s 89 923 m -5 X s 87 932 m -3 X s 87 941 m -3 X s 87 950 m -3 X s
 gsave  408 305 23 677 C 14.2445 729.316 t 0 r /Helvetica findfont 22.8295 sf 0 0 m (\2550.006) show NC gr 
 gsave  408 305 23 677 C 14.2445 766.351 t 0 r /Helvetica findfont 22.8295 sf 0 0 m (\2550.004) show NC gr 
 gsave  408 305 23 677 C 14.2445 803.387 t 0 r /Helvetica findfont 22.8295 sf 0 0 m (\2550.002) show NC gr 
 gsave  408 305 23 677 C 65.5245 840.423 t 0 r /Helvetica findfont 22.8295 sf 0 0 m (0) show NC gr 
 gsave  408 305 23 677 C 22.7911 877.458 t 0 r /Helvetica findfont 22.8295 sf 0 0 m (0.002) show NC gr 
 gsave  408 305 23 677 C 22.7911 914.494 t 0 r /Helvetica findfont 22.8295 sf 0 0 m (0.004) show NC gr  390 723 m 229 Y s 385 737 m 5 X s 387 747 m 3 X s 387 756 m 3 X s 387 765 m 3 X s 385 774 m 5 X s 387 784 m 3 X s 387 793 m 3 X s 387 802 m 3 X s
 385 811 m 5 X s 387 821 m 3 X s 387 830 m 3 X s 387 839 m 3 X s 385 848 m 5 X s 387 858 m 3 X s 387 867 m 3 X s 387 876 m 3 X s 385 885 m 5 X s 387 895 m 3 X s 387 904 m 3 X s 387 913 m 3 X s 385 923 m 5 X s 385 737 m 5 X s 387 728 m 3 X s 385 923 m
 5 X s 387 932 m 3 X s 387 941 m 3 X s 387 950 m 3 X s /w 22 def /w2 {w 2 div} def /w3 {w 3 div} def 119 882 154 824 224 823 363 792 4 { m21} R 119 894 m 39 Y s 113 933 m 12 X s 119 871 m -39 Y s 113 832 m 12 X s 154 835 m 39 Y s 148 874 m 11 X s 154
 812 m -38 Y s 148 774 m 11 X s 224 834 m 39 Y s 218 873 m 11 X s 224 811 m -38 Y s 218 773 m 11 X s 363 803 m 39 Y s 357 842 m 12 X s 363 780 m -38 Y s 357 742 m 12 X s 9 lw 0.95 0.95 0.95 c black 85 848 m 3 X 4 -1 d 3 -1 d 3 X 3 -1 d 3 X 3 -1 d 3
 -1 d 3 X 3 -1 d 3 X 3 -1 d 3 -1 d 3 X 3 -1 d 3 X 3 -1 d 4 X 3 -1 d 3 -1 d 3 X 3 -1 d 3 X 3 -1 d 3 -1 d 3 X 3 -1 d 3 X 3 -1 d 3 -1 d 3 X 3 -1 d 3 X 4 -1 d 3 -1 d 3 X 3 -1 d 3 X 3 -1 d 3 X 3 -1 d 3 -1 d 3 X 3 -1 d 3 X 3 -1 d 3 -1 d 3 X 3 -1 d s 235
 819 m 4 X 3 -1 d 3 -1 d 3 X 3 -1 d 3 X 3 -1 d 3 -1 d 3 X 3 -1 d 3 X 3 -1 d 3 X 3 -1 d 3 -1 d 3 X 3 -1 d 4 X 3 -1 d 3 -1 d 3 X 3 -1 d 3 X 3 -1 d 3 -1 d 3 X 3 -1 d 3 X 3 -1 d 3 -1 d 3 X 3 -1 d 3 X 4 -1 d 3 X 3 -1 d 3 -1 d 3 X 3 -1 d 3 X 3 -1 d 3 -1 d
 3 X 3 -1 d 3 X 3 -1 d 3 -1 d 3 X 3 -1 d s 385 790 m 4 X s 0.49 0.6 0.82 c black 0.49 0.6 0.82 c
 gsave  408 305 23 677 C 142.445 960.076 t 0 r /Helvetica-Bold findfont 25.6831 sf 0 0 m (2.5 < E < 3.0 GeV) show NC gr  0.52 0.76 0.64 c black 0.52 0.76 0.64 c
 gsave  408 305 23 677 C 122.502 923.04 t 0 r /Helvetica-Bold findfont 25.6831 sf 0 0 m 
 228 214 200 193 178 171 156 149 134 126 119 105 91 77 69 55 47 39 25 17
(A = \2550.001, p = 1.000) K NC gr  1 0.6 1 c black 1 0.6 1 c
 gsave  408 305 23 677 C 427.334 791.991 t 90 r /Helvetica-Bold findfont 28.5368 sf 0 0 m (/dof=0.2) show NC gr  black 1 0.6 1 c
 gsave  408 305 23 677 C 415.938 780.596 t 90 r /Helvetica-Bold findfont 19.9758 sf 0 0 m (2) show NC gr  black 1 0.6 1 c
 gsave  408 305 23 677 C 427.334 763.503 t 90 r /Symbol findfont 28.5368 sf 0 0 m (c) show NC gr  black 3 lw 1 1 1 c 408 305 476 677 bf black 1 1 1 c black 307 229 537 723 bl 307 229 537 723 bl 537 723 m 307 X s 537 727 m -4 Y s 677 727 m -4 Y s 817
 727 m -4 Y s 817 727 m -4 Y s
 gsave  408 305 476 677 C 527.045 703.676 t 0 r /Helvetica findfont 22.8295 sf 0 0 m (0) show NC gr 
 gsave  408 305 476 677 C 669.489 703.676 t 0 r /Helvetica findfont 22.8295 sf 0 0 m (1) show NC gr 
 gsave  408 305 476 677 C 806.236 703.676 t 0 r /Helvetica findfont 22.8295 sf 0 0 m (2) show NC gr  537 952 m 307 X s 537 948 m 4 Y s 677 948 m 4 Y s 817 948 m 4 Y s 817 948 m 4 Y s 537 723 m 229 Y s 543 753 m -6 X s 540 764 m -3 X s 540 775 m -3 X
 s 540 786 m -3 X s 543 797 m -6 X s 540 808 m -3 X s 540 820 m -3 X s 540 831 m -3 X s 543 842 m -6 X s 540 853 m -3 X s 540 864 m -3 X s 540 875 m -3 X s 543 886 m -6 X s 540 897 m -3 X s 540 908 m -3 X s 540 919 m -3 X s 543 930 m -6 X s 543 753 m
 -6 X s 540 742 m -3 X s 540 731 m -3 X s 543 930 m -6 X s 540 941 m -3 X s
 gsave  408 305 476 677 C 467.218 746.409 t 0 r /Helvetica findfont 22.8295 sf 0 0 m (\2550.008) show NC gr 
 gsave  408 305 476 677 C 467.218 789.143 t 0 r /Helvetica findfont 22.8295 sf 0 0 m (\2550.006) show NC gr 
 gsave  408 305 476 677 C 467.218 834.725 t 0 r /Helvetica findfont 22.8295 sf 0 0 m (\2550.004) show NC gr 
 gsave  408 305 476 677 C 467.218 877.458 t 0 r /Helvetica findfont 22.8295 sf 0 0 m (\2550.002) show NC gr 
 gsave  408 305 476 677 C 518.498 923.04 t 0 r /Helvetica findfont 22.8295 sf 0 0 m (0) show NC gr  844 723 m 229 Y s 838 753 m 6 X s 841 764 m 3 X s 841 775 m 3 X s 841 786 m 3 X s 838 797 m 6 X s 841 808 m 3 X s 841 820 m 3 X s 841 831 m 3 X s 838
 842 m 6 X s 841 853 m 3 X s 841 864 m 3 X s 841 875 m 3 X s 838 886 m 6 X s 841 897 m 3 X s 841 908 m 3 X s 841 919 m 3 X s 838 930 m 6 X s 838 753 m 6 X s 841 742 m 3 X s 841 731 m 3 X s 838 930 m 6 X s 841 941 m 3 X s /w 23 def /w2 {w 2 div} def
 /w3 {w 3 div} def 572 864 607 841 677 832 817 811 4 { m21} R 572 875 m 58 Y s 567 933 m 11 X s 572 852 m -57 Y s 567 795 m 11 X s 607 852 m 58 Y s 602 910 m 11 X s 607 829 m -58 Y s 602 771 m 11 X s 677 844 m 57 Y s 671 901 m 12 X s 677 821 m -58 Y
 s 671 763 m 12 X s 817 822 m 58 Y s 811 880 m 11 X s 817 800 m -58 Y s 811 742 m 11 X s 9 lw 0.95 0.95 0.95 c black 539 929 m 3 -2 d 3 -1 d 3 -2 d 3 -2 d 3 -1 d 3 -2 d 3 -1 d 3 -2 d 4 -2 d 3 -1 d 3 -2 d 3 -2 d 3 -1 d 3 -2 d 3 -2 d 3 -1 d 3 -2 d 3 -1
 d 3 -2 d 3 -2 d 3 -1 d 3 -2 d 3 -2 d 3 -1 d 4 -2 d 3 -1 d 3 -2 d 3 -2 d 3 -1 d 3 -2 d 3 -2 d 3 -1 d 3 -2 d 3 -2 d 3 -1 d 3 -2 d 3 -1 d 3 -2 d 3 -2 d 3 -1 d 3 -2 d 4 -2 d 3 -1 d 3 -2 d 3 -2 d 3 -1 d 3 -2 d 3 -1 d 3 -2 d s 689 849 m 3 -2 d 3 -1 d 3 -2
 d 3 -2 d 3 -1 d 3 -2 d 3 -2 d 3 -1 d 4 -2 d 3 -1 d 3 -2 d 3 -2 d 3 -1 d 3 -2 d 3 -2 d 3 -1 d 3 -2 d 3 -2 d 3 -1 d 3 -2 d 3 -1 d 3 -2 d 3 -2 d 3 -1 d 4 -2 d 3 -2 d 3 -1 d 3 -2 d 3 -2 d 3 -1 d 3 -2 d 3 -1 d 3 -2 d 3 -2 d 3 -1 d 3 -2 d 3 -2 d 3 -1 d 3
 -2 d 3 -2 d 4 -1 d 3 -2 d 3 -1 d 3 -2 d 3 -2 d 3 -1 d 3 -2 d 3 -2 d 3 -1 d s 839 769 m 3 -2 d s 0.49 0.6 0.82 c black 0.49 0.6 0.82 c
 gsave  408 305 476 677 C 595.418 960.076 t 0 r /Helvetica-Bold findfont 25.6831 sf 0 0 m (3.0 < E < 3.5 GeV) show NC gr  0.52 0.76 0.64 c black 0.52 0.76 0.64 c
 gsave  408 305 476 677 C 575.476 923.04 t 0 r /Helvetica-Bold findfont 25.6831 sf 0 0 m 
 228 214 200 193 178 171 156 149 133 126 119 105 91 76 69 55 47 39 25 17
(A = \2550.003, p = 1.000) K NC gr  1 0.6 1 c black 1 0.6 1 c
 gsave  408 305 476 677 C 883.156 791.991 t 90 r /Helvetica-Bold findfont 28.5368 sf 0 0 m (/dof=0.4) show NC gr  black 1 0.6 1 c
 gsave  408 305 476 677 C 871.76 780.596 t 90 r /Helvetica-Bold findfont 19.9758 sf 0 0 m (2) show NC gr  black 1 0.6 1 c
 gsave  408 305 476 677 C 883.156 763.503 t 90 r /Symbol findfont 28.5368 sf 0 0 m (c) show NC gr  black 3 lw 1 1 1 c 408 305 930 677 bf black 1 1 1 c black 306 229 991 723 bl 306 229 991 723 bl 991 723 m 306 X s 991 727 m -4 Y s 1131 727 m -4 Y s
 1270 727 m -4 Y s 1270 727 m -4 Y s
 gsave  408 305 930 677 C 980.018 703.676 t 0 r /Helvetica findfont 22.8295 sf 0 0 m (0) show NC gr 
 gsave  408 305 930 677 C 1122.46 703.676 t 0 r /Helvetica findfont 22.8295 sf 0 0 m (1) show NC gr 
 gsave  408 305 930 677 C 1259.21 703.676 t 0 r /Helvetica findfont 22.8295 sf 0 0 m (2) show NC gr  991 952 m 306 X s 991 948 m 4 Y s 1131 948 m 4 Y s 1270 948 m 4 Y s 1270 948 m 4 Y s 991 723 m 229 Y s 997 739 m -6 X s 994 747 m -3 X s 994 754 m -3
 X s 994 762 m -3 X s 997 770 m -6 X s 994 777 m -3 X s 994 785 m -3 X s 994 792 m -3 X s 997 800 m -6 X s 994 808 m -3 X s 994 815 m -3 X s 994 823 m -3 X s 997 831 m -6 X s 994 838 m -3 X s 994 846 m -3 X s 994 854 m -3 X s 997 861 m -6 X s 994 869
 m -3 X s 994 877 m -3 X s 994 884 m -3 X s 997 892 m -6 X s 994 900 m -3 X s 994 907 m -3 X s 994 915 m -3 X s 997 923 m -6 X s 997 739 m -6 X s 994 731 m -3 X s 994 724 m -3 X s 997 923 m -6 X s 994 930 m -3 X s 994 938 m -3 X s 994 946 m -3 X s
 gsave  408 305 930 677 C 923.04 732.165 t 0 r /Helvetica findfont 22.8295 sf 0 0 m (\2550.006) show NC gr 
 gsave  408 305 930 677 C 923.04 763.503 t 0 r /Helvetica findfont 22.8295 sf 0 0 m (\2550.004) show NC gr 
 gsave  408 305 930 677 C 923.04 791.991 t 0 r /Helvetica findfont 22.8295 sf 0 0 m (\2550.002) show NC gr 
 gsave  408 305 930 677 C 974.32 823.329 t 0 r /Helvetica findfont 22.8295 sf 0 0 m (0) show NC gr 
 gsave  408 305 930 677 C 931.587 854.667 t 0 r /Helvetica findfont 22.8295 sf 0 0 m (0.002) show NC gr 
 gsave  408 305 930 677 C 931.587 886.005 t 0 r /Helvetica findfont 22.8295 sf 0 0 m (0.004) show NC gr 
 gsave  408 305 930 677 C 931.587 914.494 t 0 r /Helvetica findfont 22.8295 sf 0 0 m (0.006) show NC gr  1297 723 m 229 Y s 1292 739 m 5 X s 1294 747 m 3 X s 1294 754 m 3 X s 1294 762 m 3 X s 1292 770 m 5 X s 1294 777 m 3 X s 1294 785 m 3 X s 1294
 792 m 3 X s 1292 800 m 5 X s 1294 808 m 3 X s 1294 815 m 3 X s 1294 823 m 3 X s 1292 831 m 5 X s 1294 838 m 3 X s 1294 846 m 3 X s 1294 854 m 3 X s 1292 861 m 5 X s 1294 869 m 3 X s 1294 877 m 3 X s 1294 884 m 3 X s 1292 892 m 5 X s 1294 900 m 3 X s
 1294 907 m 3 X s 1294 915 m 3 X s 1292 923 m 5 X s 1292 739 m 5 X s 1294 731 m 3 X s 1294 724 m 3 X s 1292 923 m 5 X s 1294 930 m 3 X s 1294 938 m 3 X s 1294 946 m 3 X s 1026 872 1061 838 1131 811 1270 802 4 { m21} R 1026 883 m 50 Y s 1020 933 m 12
 X s 1026 860 m -49 Y s 1020 811 m 12 X s 1061 849 m 50 Y s 1055 899 m 12 X s 1061 827 m -50 Y s 1055 777 m 12 X s 1131 822 m 49 Y s 1125 871 m 11 X s 1131 799 m -49 Y s 1125 750 m 11 X s 1270 814 m 49 Y s 1265 863 m 11 X s 1270 791 m -49 Y s 1265
 742 m 11 X s 1 0 0 c 9 lw 0.95 0.95 0.95 c black 1 0 0 c 993 831 m 24 X 3 -1 d 28 X 3 -1 d 15 X 3 -1 d 12 X 3 -1 d 10 X 3 -1 d 9 X 3 -1 d 9 X 3 -1 d 6 X 3 -1 d 6 X 3 -1 d 4 X s 1143 822 m 3 -1 d 6 X 3 -1 d 6 X 3 -1 d 3 X 3 -1 d 3 X 3 -1 d 6 X 3 -1 d
 3 X 4 -1 d 3 X 3 -1 d 3 X 3 -1 d 3 X 3 -1 d 3 X 3 -1 d 3 X 3 -1 d 3 -1 d 3 X 3 -1 d 3 X 3 -1 d 3 X 4 -1 d 3 -1 d 3 X 3 -1 d 3 -1 d 3 X 3 -1 d 3 X 3 -1 d 3 -1 d 3 X 3 -1 d 3 -1 d 3 -1 d 3 X 3 -1 d 4 -1 d s 1293 795 m 3 X s 0.49 0.6 0.82 c black 0.49
 0.6 0.82 c
 gsave  408 305 930 677 C 1051.24 960.076 t 0 r /Helvetica-Bold findfont 25.6831 sf 0 0 m (3.5 < E < 4.0 GeV) show NC gr  0.52 0.76 0.64 c black 0.52 0.76 0.64 c
 gsave  408 305 930 677 C 1031.3 923.04 t 0 r /Helvetica-Bold findfont 25.6831 sf 0 0 m 
 228 214 200 193 178 171 156 149 133 126 119 105 91 77 69 55 47 39 25 17
(A = \2550.000, p = 2.000) K NC gr  1 0.6 1 c black 1 0.6 1 c
 gsave  408 305 930 677 C 1336.13 791.991 t 90 r /Helvetica-Bold findfont 28.5368 sf 0 0 m (/dof=0.2) show NC gr  black 1 0.6 1 c
 gsave  408 305 930 677 C 1324.73 780.596 t 90 r /Helvetica-Bold findfont 19.9758 sf 0 0 m (2) show NC gr  black 1 0.6 1 c
 gsave  408 305 930 677 C 1336.13 763.503 t 90 r /Symbol findfont 28.5368 sf 0 0 m (c) show NC gr  black 3 lw 1 1 1 c 408 305 1383 677 bf black 1 1 1 c black 306 229 1445 723 bl 306 229 1445 723 bl 1445 723 m 306 X s 1445 727 m -4 Y s 1584 727 m -4 Y
 s 1724 727 m -4 Y s 1724 727 m -4 Y s
 gsave  408 305 1383 677 C 1435.84 703.676 t 0 r /Helvetica findfont 22.8295 sf 0 0 m (0) show NC gr 
 gsave  408 305 1383 677 C 1578.29 703.676 t 0 r /Helvetica findfont 22.8295 sf 0 0 m (1) show NC gr 
 gsave  408 305 1383 677 C 1715.03 703.676 t 0 r /Helvetica findfont 22.8295 sf 0 0 m (2) show NC gr  1445 952 m 306 X s 1445 948 m 4 Y s 1584 948 m 4 Y s 1724 948 m 4 Y s 1724 948 m 4 Y s 1445 723 m 229 Y s 1450 732 m -5 X s 1447 740 m -2 X s 1447
 749 m -2 X s 1447 757 m -2 X s 1447 765 m -2 X s 1450 773 m -5 X s 1447 781 m -2 X s 1447 789 m -2 X s 1447 797 m -2 X s 1447 805 m -2 X s 1450 814 m -5 X s 1447 822 m -2 X s 1447 830 m -2 X s 1447 838 m -2 X s 1447 846 m -2 X s 1450 854 m -5 X s
 1447 862 m -2 X s 1447 871 m -2 X s 1447 879 m -2 X s 1447 887 m -2 X s 1450 895 m -5 X s 1447 903 m -2 X s 1447 911 m -2 X s 1447 919 m -2 X s 1447 927 m -2 X s 1450 936 m -5 X s 1450 732 m -5 X s 1447 724 m -2 X s 1450 936 m -5 X s 1447 944 m -2 X
 s 1447 952 m -2 X s
 gsave  408 305 1383 677 C 1376.01 726.467 t 0 r /Helvetica findfont 22.8295 sf 0 0 m (\2550.015) show NC gr 
 gsave  408 305 1383 677 C 1393.11 766.351 t 0 r /Helvetica findfont 22.8295 sf 0 0 m (\2550.01) show NC gr 
 gsave  408 305 1383 677 C 1376.01 806.236 t 0 r /Helvetica findfont 22.8295 sf 0 0 m (\2550.005) show NC gr 
 gsave  408 305 1383 677 C 1427.29 846.12 t 0 r /Helvetica findfont 22.8295 sf 0 0 m (0) show NC gr 
 gsave  408 305 1383 677 C 1384.56 888.854 t 0 r /Helvetica findfont 22.8295 sf 0 0 m (0.005) show NC gr 
 gsave  408 305 1383 677 C 1398.81 928.738 t 0 r /Helvetica findfont 22.8295 sf 0 0 m (0.01) show NC gr  1751 723 m 229 Y s 1745 732 m 6 X s 1748 740 m 3 X s 1748 749 m 3 X s 1748 757 m 3 X s 1748 765 m 3 X s 1745 773 m 6 X s 1748 781 m 3 X s 1748
 789 m 3 X s 1748 797 m 3 X s 1748 805 m 3 X s 1745 814 m 6 X s 1748 822 m 3 X s 1748 830 m 3 X s 1748 838 m 3 X s 1748 846 m 3 X s 1745 854 m 6 X s 1748 862 m 3 X s 1748 871 m 3 X s 1748 879 m 3 X s 1748 887 m 3 X s 1745 895 m 6 X s 1748 903 m 3 X s
 1748 911 m 3 X s 1748 919 m 3 X s 1748 927 m 3 X s 1745 936 m 6 X s 1745 732 m 6 X s 1748 724 m 3 X s 1745 936 m 6 X s 1748 944 m 3 X s 1748 952 m 3 X s 1479 870 1514 846 1584 889 1724 785 4 { m21} R 1479 881 m 33 Y s 1474 914 m 11 X s 1479 858 m
 -32 Y s 1474 826 m 11 X s 1514 858 m 32 Y s 1509 890 m 11 X s 1514 835 m -32 Y s 1509 803 m 11 X s 1584 900 m 33 Y s 1578 933 m 12 X s 1584 878 m -33 Y s 1578 845 m 12 X s 1724 797 m 32 Y s 1718 829 m 11 X s 1724 774 m -32 Y s 1718 742 m 11 X s 1 0
 0 c 9 lw 0.95 0.95 0.95 c black 1 0 0 c 1446 854 m 31 X 3 -1 d 12 X 3 -1 d 9 X 3 -1 d 6 X 3 -1 d 7 X 3 -1 d 6 X 3 -1 d 3 X 3 -1 d 6 X 3 -1 d 3 X 3 -1 d 3 X 3 -1 d 3 X 4 -1 d 3 -1 d 3 X 3 -1 d 3 X 3 -1 d 3 -1 d 3 X 3 -1 d 3 -1 d s 1596 837 m 3 X 3 -1
 d 3 -1 d 3 X 3 -1 d 3 -1 d 4 -1 d 3 X 3 -1 d 3 -1 d 3 -1 d 3 -1 d 3 -1 d 3 X 3 -1 d 3 -1 d 3 -1 d 3 -1 d 3 -1 d 3 -1 d 3 -1 d 3 -1 d 3 -1 d 4 -1 d 3 -1 d 3 -1 d 3 -1 d 3 -1 d 3 -1 d 3 -1 d 3 -1 d 3 -1 d 3 -1 d 3 -2 d 3 -1 d 3 -1 d 3 -1 d 3 -1 d 3 -1
 d 4 -2 d 3 -1 d 3 -1 d 3 -1 d 3 -2 d 3 -1 d 3 -1 d 3 -2 d 3 -1 d 3 -1 d s 1746 788 m 3 -2 d s 0.49 0.6 0.82 c black 0.49 0.6 0.82 c
 gsave  408 305 1383 677 C 1504.21 960.076 t 0 r /Helvetica-Bold findfont 25.6831 sf 0 0 m (4.0 < E < 4.5 GeV) show NC gr  0.52 0.76 0.64 c black 0.52 0.76 0.64 c
 gsave  408 305 1383 677 C 1484.27 923.04 t 0 r /Helvetica-Bold findfont 25.6831 sf 0 0 m 
 228 214 200 193 178 171 156 149 134 126 119 105 91 77 69 55 47 40 25 17
(A = \2550.002, p = 2.000) K NC gr  1 0.6 1 c black 1 0.6 1 c
 gsave  408 305 1383 677 C 1789.1 791.991 t 90 r /Helvetica-Bold findfont 28.5368 sf 0 0 m (/dof=0.5) show NC gr  black 1 0.6 1 c
 gsave  408 305 1383 677 C 1777.71 780.596 t 90 r /Helvetica-Bold findfont 19.9758 sf 0 0 m (2) show NC gr  black 1 0.6 1 c
 gsave  408 305 1383 677 C 1789.1 763.503 t 90 r /Symbol findfont 28.5368 sf 0 0 m (c) show NC gr  black 3 lw 1 1 1 c 408 305 1837 677 bf black 1 1 1 c black 306 229 1898 723 bl 306 229 1898 723 bl 1898 723 m 306 X s 1898 727 m -4 Y s 2038 727 m -4 Y
 s 2177 727 m -4 Y s 2177 727 m -4 Y s
 gsave  408 305 1837 677 C 1888.81 703.676 t 0 r /Helvetica findfont 22.8295 sf 0 0 m (0) show NC gr 
 gsave  408 305 1837 677 C 2031.26 703.676 t 0 r /Helvetica findfont 22.8295 sf 0 0 m (1) show NC gr 
 gsave  408 305 1837 677 C 2168.01 703.676 t 0 r /Helvetica findfont 22.8295 sf 0 0 m (2) show NC gr  1898 952 m 306 X s 1898 948 m 4 Y s 2038 948 m 4 Y s 2177 948 m 4 Y s 2177 948 m 4 Y s 1898 723 m 229 Y s 1904 740 m -6 X s 1901 747 m -3 X s 1901
 753 m -3 X s 1901 759 m -3 X s 1901 766 m -3 X s 1904 772 m -6 X s 1901 778 m -3 X s 1901 785 m -3 X s 1901 791 m -3 X s 1901 797 m -3 X s 1904 803 m -6 X s 1901 810 m -3 X s 1901 816 m -3 X s 1901 822 m -3 X s 1901 829 m -3 X s 1904 835 m -6 X s
 1901 841 m -3 X s 1901 847 m -3 X s 1901 854 m -3 X s 1901 860 m -3 X s 1904 866 m -6 X s 1901 873 m -3 X s 1901 879 m -3 X s 1901 885 m -3 X s 1901 892 m -3 X s 1904 898 m -6 X s 1901 904 m -3 X s 1901 910 m -3 X s 1901 917 m -3 X s 1901 923 m -3 X
 s 1904 929 m -6 X s 1904 740 m -6 X s 1901 734 m -3 X s 1901 728 m -3 X s 1904 929 m -6 X s 1901 936 m -3 X s 1901 942 m -3 X s 1901 948 m -3 X s
 gsave  408 305 1837 677 C 1846.08 732.165 t 0 r /Helvetica findfont 22.8295 sf 0 0 m (\2550.01) show NC gr 
 gsave  408 305 1837 677 C 1828.99 763.503 t 0 r /Helvetica findfont 22.8295 sf 0 0 m (\2550.005) show NC gr 
 gsave  408 305 1837 677 C 1880.27 797.689 t 0 r /Helvetica findfont 22.8295 sf 0 0 m (0) show NC gr 
 gsave  408 305 1837 677 C 1837.53 829.027 t 0 r /Helvetica findfont 22.8295 sf 0 0 m (0.005) show NC gr 
 gsave  408 305 1837 677 C 1851.78 860.365 t 0 r /Helvetica findfont 22.8295 sf 0 0 m (0.01) show NC gr 
 gsave  408 305 1837 677 C 1837.53 891.703 t 0 r /Helvetica findfont 22.8295 sf 0 0 m (0.015) show NC gr 
 gsave  408 305 1837 677 C 1848.93 923.04 t 0 r /Helvetica findfont 22.8295 sf 0 0 m (0.02) show NC gr  2204 723 m 229 Y s 2199 740 m 5 X s 2201 747 m 3 X s 2201 753 m 3 X s 2201 759 m 3 X s 2201 766 m 3 X s 2199 772 m 5 X s 2201 778 m 3 X s 2201 785
 m 3 X s 2201 791 m 3 X s 2201 797 m 3 X s 2199 803 m 5 X s 2201 810 m 3 X s 2201 816 m 3 X s 2201 822 m 3 X s 2201 829 m 3 X s 2199 835 m 5 X s 2201 841 m 3 X s 2201 847 m 3 X s 2201 854 m 3 X s 2201 860 m 3 X s 2199 866 m 5 X s 2201 873 m 3 X s
 2201 879 m 3 X s 2201 885 m 3 X s 2201 892 m 3 X s 2199 898 m 5 X s 2201 904 m 3 X s 2201 910 m 3 X s 2201 917 m 3 X s 2201 923 m 3 X s 2199 929 m 5 X s 2199 740 m 5 X s 2201 734 m 3 X s 2201 728 m 3 X s 2199 929 m 5 X s 2201 936 m 3 X s 2201 942 m
 3 X s 2201 948 m 3 X s 1933 789 1968 851 2038 861 2177 886 4 { m21} R 1933 800 m 35 Y s 1927 835 m 12 X s 1933 777 m -35 Y s 1927 742 m 12 X s 1968 862 m 36 Y s 1962 898 m 12 X s 1968 839 m -35 Y s 1962 804 m 12 X s 2038 873 m 35 Y s 2032 908 m 11 X
 s 2038 850 m -35 Y s 2032 815 m 11 X s 2177 897 m 36 Y s 2172 933 m 11 X s 2177 874 m -35 Y s 2172 839 m 11 X s 9 lw 0.95 0.95 0.95 c black 1900 804 m 3 1 d 3 1 d 3 1 d 3 1 d 3 1 d 3 1 d 3 1 d 3 1 d 3 1 d 3 1 d 3 1 d 3 1 d 3 1 d 3 1 d 4 1 d 3 1 d 3
 1 d 3 1 d 3 1 d 3 1 d 3 1 d 3 1 d 3 1 d 3 1 d 3 1 d 3 1 d 3 1 d 3 1 d 3 1 d 3 1 d 4 1 d 3 1 d 3 1 d 3 1 d 3 1 d 3 1 d 3 1 d 3 1 d 3 1 d 3 1 d 3 1 d 3 1 d 3 1 d 3 1 d 3 1 d 3 1 d 3 1 d 4 1 d 3 1 d s 2050 853 m 3 1 d 3 1 d 3 1 d 3 1 d 3 1 d 3 1 d 3 1
 d 3 1 d 3 1 d 3 1 d 3 1 d 3 1 d 3 1 d 3 1 d 4 1 d 3 1 d 3 1 d 3 1 d 3 1 d 3 1 d 3 1 d 3 1 d 3 1 d 3 1 d 3 1 d 3 1 d 3 1 d 3 1 d 3 1 d 3 1 d 4 1 d 3 1 d 3 1 d 3 1 d 3 1 d 3 1 d 3 1 d 3 1 d 3 1 d 3 1 d 3 1 d 3 1 d 3 1 d 3 1 d 3 1 d 3 1 d 4 1 d 3 1 d 3
 1 d s 2200 902 m 3 1 d s 0.49 0.6 0.82 c black 0.49 0.6 0.82 c
 gsave  408 305 1837 677 C 1957.19 960.076 t 0 r /Helvetica-Bold findfont 25.6831 sf 0 0 m (4.5 < E < 5.0 GeV) show NC gr  0.52 0.76 0.64 c black 0.52 0.76 0.64 c
 gsave  408 305 1837 677 C 1942.94 923.04 t 0 r /Helvetica-Bold findfont 25.6831 sf 0 0 m 
 220 206 192 185 170 163 148 141 125 118 111 97 83 69 61 47 40 25 18
(A = 0.007, p = 1.000) K NC gr  1 0.6 1 c black 1 0.6 1 c
 gsave  408 305 1837 677 C 2242.08 791.991 t 90 r /Helvetica-Bold findfont 28.5368 sf 0 0 m (/dof=0.2) show NC gr  black 1 0.6 1 c
 gsave  408 305 1837 677 C 2230.68 780.596 t 90 r /Helvetica-Bold findfont 19.9758 sf 0 0 m (2) show NC gr  black 1 0.6 1 c
 gsave  408 305 1837 677 C 2242.08 763.503 t 90 r /Symbol findfont 28.5368 sf 0 0 m (c) show NC gr  black 3 lw 1 1 1 c 408 306 23 345 bf black 1 1 1 c black 306 229 84 391 bl 306 229 84 391 bl 84 391 m 306 X s 84 395 m -4 Y s 224 395 m -4 Y s 363 395
 m -4 Y s 363 395 m -4 Y s
 gsave  408 306 23 345 C 74.0711 370.356 t 0 r /Helvetica findfont 22.8295 sf 0 0 m (0) show NC gr 
 gsave  408 306 23 345 C 216.516 370.356 t 0 r /Helvetica findfont 22.8295 sf 0 0 m (1) show NC gr 
 gsave  408 306 23 345 C 353.262 370.356 t 0 r /Helvetica findfont 22.8295 sf 0 0 m (2) show NC gr  84 620 m 306 X s 84 616 m 4 Y s 224 616 m 4 Y s 363 616 m 4 Y s 363 616 m 4 Y s 84 391 m 229 Y s 89 412 m -5 X s 87 418 m -3 X s 87 424 m -3 X s 87
 431 m -3 X s 87 437 m -3 X s 89 444 m -5 X s 87 450 m -3 X s 87 456 m -3 X s 87 463 m -3 X s 87 469 m -3 X s 89 476 m -5 X s 87 482 m -3 X s 87 488 m -3 X s 87 495 m -3 X s 87 501 m -3 X s 89 508 m -5 X s 87 514 m -3 X s 87 520 m -3 X s 87 527 m -3
 X s 87 533 m -3 X s 89 539 m -5 X s 87 546 m -3 X s 87 552 m -3 X s 87 559 m -3 X s 87 565 m -3 X s 89 571 m -5 X s 87 578 m -3 X s 87 584 m -3 X s 87 591 m -3 X s 87 597 m -3 X s 89 603 m -5 X s 89 412 m -5 X s 87 405 m -3 X s 87 399 m -3 X s 87
 392 m -3 X s 89 603 m -5 X s 87 610 m -3 X s 87 616 m -3 X s
 gsave  408 306 23 345 C 31.3378 404.542 t 0 r /Helvetica findfont 22.8295 sf 0 0 m (\2550.01) show NC gr 
 gsave  408 306 23 345 C 14.2445 435.88 t 0 r /Helvetica findfont 22.8295 sf 0 0 m (\2550.005) show NC gr 
 gsave  408 306 23 345 C 65.5245 467.218 t 0 r /Helvetica findfont 22.8295 sf 0 0 m (0) show NC gr 
 gsave  408 306 23 345 C 22.7911 501.405 t 0 r /Helvetica findfont 22.8295 sf 0 0 m (0.005) show NC gr 
 gsave  408 306 23 345 C 37.0356 532.742 t 0 r /Helvetica findfont 22.8295 sf 0 0 m (0.01) show NC gr 
 gsave  408 306 23 345 C 22.7911 564.08 t 0 r /Helvetica findfont 22.8295 sf 0 0 m (0.015) show NC gr 
 gsave  408 306 23 345 C 34.1867 595.418 t 0 r /Helvetica findfont 22.8295 sf 0 0 m (0.02) show NC gr  390 391 m 229 Y s 385 412 m 5 X s 387 418 m 3 X s 387 424 m 3 X s 387 431 m 3 X s 387 437 m 3 X s 385 444 m 5 X s 387 450 m 3 X s 387 456 m 3 X s
 387 463 m 3 X s 387 469 m 3 X s 385 476 m 5 X s 387 482 m 3 X s 387 488 m 3 X s 387 495 m 3 X s 387 501 m 3 X s 385 508 m 5 X s 387 514 m 3 X s 387 520 m 3 X s 387 527 m 3 X s 387 533 m 3 X s 385 539 m 5 X s 387 546 m 3 X s 387 552 m 3 X s 387 559 m
 3 X s 387 565 m 3 X s 385 571 m 5 X s 387 578 m 3 X s 387 584 m 3 X s 387 591 m 3 X s 387 597 m 3 X s 385 603 m 5 X s 385 412 m 5 X s 387 405 m 3 X s 387 399 m 3 X s 387 392 m 3 X s 385 603 m 5 X s 387 610 m 3 X s 387 616 m 3 X s /w 22 def /w2 {w 2
 div} def /w3 {w 3 div} def 119 496 154 538 224 473 363 497 4 { m21} R 119 508 m 51 Y s 113 559 m 12 X s 119 485 m -51 Y s 113 434 m 12 X s 154 549 m 52 Y s 148 601 m 11 X s 154 526 m -52 Y s 148 474 m 11 X s 224 484 m 52 Y s 218 536 m 11 X s 224 462
 m -52 Y s 218 410 m 11 X s 363 509 m 51 Y s 357 560 m 12 X s 363 486 m -51 Y s 357 435 m 12 X s 9 lw 0.95 0.95 0.95 c black 85 476 m 7 X 3 1 d 6 X 3 1 d 6 X 3 1 d 6 X 3 1 d 9 X 3 1 d 7 X 3 1 d 6 X 3 1 d 6 X 3 1 d 6 X 3 1 d 6 X 3 1 d 6 X 4 1 d 9 X 3
 1 d 6 X 3 1 d 6 X 3 1 d 6 X 3 1 d 6 X s 235 491 m 4 1 d 6 X 3 1 d 6 X 3 1 d 6 X 3 1 d 9 X 3 1 d 6 X 3 1 d 7 X 3 1 d 6 X 3 1 d 6 X 3 1 d 6 X 3 1 d 6 X 3 1 d 7 X 3 1 d 9 X 3 1 d 6 X 3 1 d 6 X 3 1 d 6 X 3 1 d 3 X s 385 507 m 4 X s 0.49 0.6 0.82 c black
 0.49 0.6 0.82 c
 gsave  408 306 23 345 C 142.445 629.605 t 0 r /Helvetica-Bold findfont 25.6831 sf 0 0 m (5.0 < E < 5.5 GeV) show NC gr  0.52 0.76 0.64 c black 0.52 0.76 0.64 c
 gsave  408 306 23 345 C 128.2 592.569 t 0 r /Helvetica-Bold findfont 25.6831 sf 0 0 m 
 220 206 192 185 170 163 148 141 126 118 111 97 83 69 61 47 40 25 18
(A = 0.002, p = 1.000) K NC gr  1 0.6 1 c black 1 0.6 1 c
 gsave  408 306 23 345 C 427.334 458.671 t 90 r /Helvetica-Bold findfont 28.5368 sf 0 0 m (/dof=0.3) show NC gr  black 1 0.6 1 c
 gsave  408 306 23 345 C 415.938 447.276 t 90 r /Helvetica-Bold findfont 19.9758 sf 0 0 m (2) show NC gr  black 1 0.6 1 c
 gsave  408 306 23 345 C 427.334 430.182 t 90 r /Symbol findfont 28.5368 sf 0 0 m (c) show NC gr  black 3 lw 1 1 1 c 408 306 476 345 bf black 1 1 1 c black 307 229 537 391 bl 307 229 537 391 bl 537 391 m 307 X s 537 395 m -4 Y s 677 395 m -4 Y s 817
 395 m -4 Y s 817 395 m -4 Y s
 gsave  408 306 476 345 C 527.045 370.356 t 0 r /Helvetica findfont 22.8295 sf 0 0 m (0) show NC gr 
 gsave  408 306 476 345 C 669.489 370.356 t 0 r /Helvetica findfont 22.8295 sf 0 0 m (1) show NC gr 
 gsave  408 306 476 345 C 806.236 370.356 t 0 r /Helvetica findfont 22.8295 sf 0 0 m (2) show NC gr  537 620 m 307 X s 537 616 m 4 Y s 677 616 m 4 Y s 817 616 m 4 Y s 817 616 m 4 Y s 537 391 m 229 Y s 543 397 m -6 X s 540 403 m -3 X s 540 408 m -3 X
 s 540 413 m -3 X s 540 419 m -3 X s 543 424 m -6 X s 540 429 m -3 X s 540 434 m -3 X s 540 440 m -3 X s 540 445 m -3 X s 543 450 m -6 X s 540 456 m -3 X s 540 461 m -3 X s 540 466 m -3 X s 540 471 m -3 X s 543 477 m -6 X s 540 482 m -3 X s 540 487 m
 -3 X s 540 493 m -3 X s 540 498 m -3 X s 543 503 m -6 X s 540 508 m -3 X s 540 514 m -3 X s 540 519 m -3 X s 540 524 m -3 X s 543 530 m -6 X s 540 535 m -3 X s 540 540 m -3 X s 540 545 m -3 X s 540 551 m -3 X s 543 556 m -6 X s 540 561 m -3 X s 540
 567 m -3 X s 540 572 m -3 X s 540 577 m -3 X s 543 583 m -6 X s 540 588 m -3 X s 540 593 m -3 X s 540 598 m -3 X s 540 604 m -3 X s 543 609 m -6 X s 543 397 m -6 X s 540 392 m -3 X s 543 609 m -6 X s 540 614 m -3 X s 540 620 m -3 X s
 gsave  408 306 476 345 C 481.462 390.298 t 0 r /Helvetica findfont 22.8295 sf 0 0 m (\2550.03) show NC gr 
 gsave  408 306 476 345 C 467.218 415.938 t 0 r /Helvetica findfont 22.8295 sf 0 0 m (\2550.025) show NC gr 
 gsave  408 306 476 345 C 481.462 444.427 t 0 r /Helvetica findfont 22.8295 sf 0 0 m (\2550.02) show NC gr 
 gsave  408 306 476 345 C 467.218 470.067 t 0 r /Helvetica findfont 22.8295 sf 0 0 m (\2550.015) show NC gr 
 gsave  408 306 476 345 C 484.311 495.707 t 0 r /Helvetica findfont 22.8295 sf 0 0 m (\2550.01) show NC gr 
 gsave  408 306 476 345 C 467.218 521.347 t 0 r /Helvetica findfont 22.8295 sf 0 0 m (\2550.005) show NC gr 
 gsave  408 306 476 345 C 518.498 549.836 t 0 r /Helvetica findfont 22.8295 sf 0 0 m (0) show NC gr 
 gsave  408 306 476 345 C 475.765 575.476 t 0 r /Helvetica findfont 22.8295 sf 0 0 m (0.005) show NC gr 
 gsave  408 306 476 345 C 490.009 601.116 t 0 r /Helvetica findfont 22.8295 sf 0 0 m (0.01) show NC gr  844 391 m 229 Y s 838 397 m 6 X s 841 403 m 3 X s 841 408 m 3 X s 841 413 m 3 X s 841 419 m 3 X s 838 424 m 6 X s 841 429 m 3 X s 841 434 m 3 X s
 841 440 m 3 X s 841 445 m 3 X s 838 450 m 6 X s 841 456 m 3 X s 841 461 m 3 X s 841 466 m 3 X s 841 471 m 3 X s 838 477 m 6 X s 841 482 m 3 X s 841 487 m 3 X s 841 493 m 3 X s 841 498 m 3 X s 838 503 m 6 X s 841 508 m 3 X s 841 514 m 3 X s 841 519 m
 3 X s 841 524 m 3 X s 838 530 m 6 X s 841 535 m 3 X s 841 540 m 3 X s 841 545 m 3 X s 841 551 m 3 X s 838 556 m 6 X s 841 561 m 3 X s 841 567 m 3 X s 841 572 m 3 X s 841 577 m 3 X s 838 583 m 6 X s 841 588 m 3 X s 841 593 m 3 X s 841 598 m 3 X s 841
 604 m 3 X s 838 609 m 6 X s 838 397 m 6 X s 841 392 m 3 X s 838 609 m 6 X s 841 614 m 3 X s 841 620 m 3 X s /w 23 def /w2 {w 2 div} def /w3 {w 3 div} def 572 474 607 536 677 496 817 494 4 { m21} R 572 486 m 52 Y s 567 538 m 11 X s 572 463 m -53 Y s
 567 410 m 11 X s 607 548 m 53 Y s 602 601 m 11 X s 607 525 m -53 Y s 602 472 m 11 X s 677 507 m 53 Y s 671 560 m 12 X s 677 484 m -53 Y s 671 431 m 12 X s 817 505 m 53 Y s 811 558 m 11 X s 817 483 m -53 Y s 811 430 m 11 X s 9 lw 0.95 0.95 0.95 c
 black 539 556 m 3 -1 d 3 -1 d 3 -1 d 3 -1 d 3 -1 d 3 -1 d 3 -1 d 3 X 4 -1 d 3 -1 d 3 -1 d 3 -1 d 3 -1 d 3 -1 d 3 -1 d 3 -1 d 3 X 3 -1 d 3 -1 d 3 -1 d 3 -1 d 3 -1 d 3 -1 d 3 -1 d 4 -1 d 3 X 3 -1 d 3 -1 d 3 -1 d 3 -1 d 3 -1 d 3 -1 d 3 -1 d 3 -1 d 3 X
 3 -1 d 3 -1 d 3 -1 d 3 -1 d 3 -1 d 3 -1 d 4 -1 d 3 -1 d 3 X 3 -1 d 3 -1 d 3 -1 d 3 -1 d 3 -1 d s 689 512 m 3 -1 d 3 -1 d 3 -1 d 3 X 3 -1 d 3 -1 d 3 -1 d 3 -1 d 4 -1 d 3 -1 d 3 -1 d 3 -1 d 3 X 3 -1 d 3 -1 d 3 -1 d 3 -1 d 3 -1 d 3 -1 d 3 -1 d 3 -1 d 3
 X 3 -1 d 3 -1 d 4 -1 d 3 -1 d 3 -1 d 3 -1 d 3 -1 d 3 -1 d 3 X 3 -1 d 3 -1 d 3 -1 d 3 -1 d 3 -1 d 3 -1 d 3 -1 d 3 -1 d 3 X 4 -1 d 3 -1 d 3 -1 d 3 -1 d 3 -1 d 3 -1 d 3 -1 d 3 -1 d 3 X s 839 469 m 3 -1 d s 0.49 0.6 0.82 c black 0.49 0.6 0.82 c
 gsave  408 306 476 345 C 595.418 629.605 t 0 r /Helvetica-Bold findfont 25.6831 sf 0 0 m (5.5 < E < 6.0 GeV) show NC gr  0.52 0.76 0.64 c black 0.52 0.76 0.64 c
 gsave  408 306 476 345 C 575.476 592.569 t 0 r /Helvetica-Bold findfont 25.6831 sf 0 0 m 
 228 214 200 193 178 171 156 149 133 126 119 105 91 76 69 55 47 39 25 17
(A = \2550.008, p = 1.000) K NC gr  1 0.6 1 c black 1 0.6 1 c
 gsave  408 306 476 345 C 883.156 458.671 t 90 r /Helvetica-Bold findfont 28.5368 sf 0 0 m (/dof=0.5) show NC gr  black 1 0.6 1 c
 gsave  408 306 476 345 C 871.76 447.276 t 90 r /Helvetica-Bold findfont 19.9758 sf 0 0 m (2) show NC gr  black 1 0.6 1 c
 gsave  408 306 476 345 C 883.156 430.182 t 90 r /Symbol findfont 28.5368 sf 0 0 m (c) show NC gr  black 3 lw 1 1 1 c 408 306 930 345 bf black 1 1 1 c black 306 229 991 391 bl 306 229 991 391 bl 991 391 m 306 X s 991 395 m -4 Y s 1131 395 m -4 Y s
 1270 395 m -4 Y s 1270 395 m -4 Y s
 gsave  408 306 930 345 C 980.018 370.356 t 0 r /Helvetica findfont 22.8295 sf 0 0 m (0) show NC gr 
 gsave  408 306 930 345 C 1122.46 370.356 t 0 r /Helvetica findfont 22.8295 sf 0 0 m (1) show NC gr 
 gsave  408 306 930 345 C 1259.21 370.356 t 0 r /Helvetica findfont 22.8295 sf 0 0 m (2) show NC gr  991 620 m 306 X s 991 616 m 4 Y s 1131 616 m 4 Y s 1270 616 m 4 Y s 1270 616 m 4 Y s 991 391 m 229 Y s 997 429 m -6 X s 994 437 m -3 X s 994 446 m -3
 X s 994 455 m -3 X s 994 464 m -3 X s 997 473 m -6 X s 994 482 m -3 X s 994 491 m -3 X s 994 500 m -3 X s 994 509 m -3 X s 997 518 m -6 X s 994 527 m -3 X s 994 536 m -3 X s 994 545 m -3 X s 994 554 m -3 X s 997 563 m -6 X s 994 572 m -3 X s 994 580
 m -3 X s 994 589 m -3 X s 994 598 m -3 X s 997 607 m -6 X s 997 429 m -6 X s 994 420 m -3 X s 994 411 m -3 X s 994 402 m -3 X s 994 393 m -3 X s 997 607 m -6 X s 994 616 m -3 X s
 gsave  408 306 930 345 C 937.285 421.636 t 0 r /Helvetica findfont 22.8295 sf 0 0 m (\2550.02) show NC gr 
 gsave  408 306 930 345 C 940.134 467.218 t 0 r /Helvetica findfont 22.8295 sf 0 0 m (\2550.01) show NC gr 
 gsave  408 306 930 345 C 974.32 509.951 t 0 r /Helvetica findfont 22.8295 sf 0 0 m (0) show NC gr 
 gsave  408 306 930 345 C 945.832 555.534 t 0 r /Helvetica findfont 22.8295 sf 0 0 m (0.01) show NC gr 
 gsave  408 306 930 345 C 942.983 601.116 t 0 r /Helvetica findfont 22.8295 sf 0 0 m (0.02) show NC gr  1297 391 m 229 Y s 1292 429 m 5 X s 1294 437 m 3 X s 1294 446 m 3 X s 1294 455 m 3 X s 1294 464 m 3 X s 1292 473 m 5 X s 1294 482 m 3 X s 1294 491
 m 3 X s 1294 500 m 3 X s 1294 509 m 3 X s 1292 518 m 5 X s 1294 527 m 3 X s 1294 536 m 3 X s 1294 545 m 3 X s 1294 554 m 3 X s 1292 563 m 5 X s 1294 572 m 3 X s 1294 580 m 3 X s 1294 589 m 3 X s 1294 598 m 3 X s 1292 607 m 5 X s 1292 429 m 5 X s
 1294 420 m 3 X s 1294 411 m 3 X s 1294 402 m 3 X s 1294 393 m 3 X s 1292 607 m 5 X s 1294 616 m 3 X s 1026 527 1061 474 1131 525 1270 536 4 { m21} R 1026 539 m 53 Y s 1020 592 m 12 X s 1026 516 m -54 Y s 1020 462 m 12 X s 1061 486 m 52 Y s 1055 538
 m 12 X s 1061 463 m -53 Y s 1055 410 m 12 X s 1131 536 m 53 Y s 1125 589 m 11 X s 1131 513 m -53 Y s 1125 460 m 11 X s 1270 547 m 54 Y s 1265 601 m 11 X s 1270 525 m -54 Y s 1265 471 m 11 X s 1 0 0 c 9 lw 0.95 0.95 0.95 c black 1 0 0 c 993 518 m 49
 X 3 1 d 33 X 3 1 d 22 X 3 1 d 15 X 3 1 d 15 X 4 1 d s 1143 523 m 12 X 3 1 d 9 X 3 1 d 12 X 3 1 d 10 X 3 1 d 6 X 3 1 d 9 X 3 1 d 6 X 3 1 d 9 X 3 1 d 7 X 3 1 d 6 X 3 1 d 6 X 3 1 d 6 X 3 1 d 3 X 3 1 d 6 X 4 1 d s 1293 537 m 3 X s 0.49 0.6 0.82 c black
 0.49 0.6 0.82 c
 gsave  408 306 930 345 C 1051.24 629.605 t 0 r /Helvetica-Bold findfont 25.6831 sf 0 0 m (6.0 < E < 6.5 GeV) show NC gr  0.52 0.76 0.64 c black 0.52 0.76 0.64 c
 gsave  408 306 930 345 C 1037 592.569 t 0 r /Helvetica-Bold findfont 25.6831 sf 0 0 m 
 220 206 192 185 170 163 148 141 125 118 111 97 83 69 61 47 40 25 18
(A = 0.001, p = 2.000) K NC gr  1 0.6 1 c black 1 0.6 1 c
 gsave  408 306 930 345 C 1336.13 458.671 t 90 r /Helvetica-Bold findfont 28.5368 sf 0 0 m (/dof=0.2) show NC gr  black 1 0.6 1 c
 gsave  408 306 930 345 C 1324.73 447.276 t 90 r /Helvetica-Bold findfont 19.9758 sf 0 0 m (2) show NC gr  black 1 0.6 1 c
 gsave  408 306 930 345 C 1336.13 430.182 t 90 r /Symbol findfont 28.5368 sf 0 0 m (c) show NC gr  black 3 lw 1 1 1 c 408 306 1383 345 bf black 1 1 1 c black 306 229 1445 391 bl 306 229 1445 391 bl 1445 391 m 306 X s 1445 395 m -4 Y s 1584 395 m -4 Y
 s 1724 395 m -4 Y s 1724 395 m -4 Y s
 gsave  408 306 1383 345 C 1435.84 370.356 t 0 r /Helvetica findfont 22.8295 sf 0 0 m (0) show NC gr 
 gsave  408 306 1383 345 C 1578.29 370.356 t 0 r /Helvetica findfont 22.8295 sf 0 0 m (1) show NC gr 
 gsave  408 306 1383 345 C 1715.03 370.356 t 0 r /Helvetica findfont 22.8295 sf 0 0 m (2) show NC gr  1445 620 m 306 X s 1445 616 m 4 Y s 1584 616 m 4 Y s 1724 616 m 4 Y s 1724 616 m 4 Y s 1445 391 m 229 Y s 1450 414 m -5 X s 1447 421 m -2 X s 1447
 428 m -2 X s 1447 436 m -2 X s 1447 443 m -2 X s 1450 450 m -5 X s 1447 458 m -2 X s 1447 465 m -2 X s 1447 472 m -2 X s 1447 480 m -2 X s 1450 487 m -5 X s 1447 494 m -2 X s 1447 502 m -2 X s 1447 509 m -2 X s 1447 516 m -2 X s 1450 524 m -5 X s
 1447 531 m -2 X s 1447 538 m -2 X s 1447 545 m -2 X s 1447 553 m -2 X s 1450 560 m -5 X s 1447 567 m -2 X s 1447 575 m -2 X s 1447 582 m -2 X s 1447 589 m -2 X s 1450 597 m -5 X s 1450 414 m -5 X s 1447 406 m -2 X s 1447 399 m -2 X s 1447 392 m -2 X
 s 1450 597 m -5 X s 1447 604 m -2 X s 1447 611 m -2 X s 1447 619 m -2 X s
 gsave  408 306 1383 345 C 1390.26 407.391 t 0 r /Helvetica findfont 22.8295 sf 0 0 m (\2550.04) show NC gr 
 gsave  408 306 1383 345 C 1390.26 444.427 t 0 r /Helvetica findfont 22.8295 sf 0 0 m (\2550.03) show NC gr 
 gsave  408 306 1383 345 C 1390.26 478.614 t 0 r /Helvetica findfont 22.8295 sf 0 0 m (\2550.02) show NC gr 
 gsave  408 306 1383 345 C 1393.11 515.649 t 0 r /Helvetica findfont 22.8295 sf 0 0 m (\2550.01) show NC gr 
 gsave  408 306 1383 345 C 1427.29 552.685 t 0 r /Helvetica findfont 22.8295 sf 0 0 m (0) show NC gr 
 gsave  408 306 1383 345 C 1398.81 589.72 t 0 r /Helvetica findfont 22.8295 sf 0 0 m (0.01) show NC gr  1751 391 m 229 Y s 1745 414 m 6 X s 1748 421 m 3 X s 1748 428 m 3 X s 1748 436 m 3 X s 1748 443 m 3 X s 1745 450 m 6 X s 1748 458 m 3 X s 1748 465
 m 3 X s 1748 472 m 3 X s 1748 480 m 3 X s 1745 487 m 6 X s 1748 494 m 3 X s 1748 502 m 3 X s 1748 509 m 3 X s 1748 516 m 3 X s 1745 524 m 6 X s 1748 531 m 3 X s 1748 538 m 3 X s 1748 545 m 3 X s 1748 553 m 3 X s 1745 560 m 6 X s 1748 567 m 3 X s
 1748 575 m 3 X s 1748 582 m 3 X s 1748 589 m 3 X s 1745 597 m 6 X s 1745 414 m 6 X s 1748 406 m 3 X s 1748 399 m 3 X s 1748 392 m 3 X s 1745 597 m 6 X s 1748 604 m 3 X s 1748 611 m 3 X s 1748 619 m 3 X s 1479 469 1514 500 1584 477 1724 542 4 { m21}
 R 1479 480 m 47 Y s 1474 527 m 11 X s 1479 457 m -47 Y s 1474 410 m 11 X s 1514 512 m 47 Y s 1509 559 m 11 X s 1514 489 m -48 Y s 1509 441 m 11 X s 1584 489 m 47 Y s 1578 536 m 12 X s 1584 466 m -48 Y s 1578 418 m 12 X s 1724 553 m 48 Y s 1718 601 m
 11 X s 1724 530 m -48 Y s 1718 482 m 11 X s 9 lw 0.95 0.95 0.95 c black 1446 560 m 3 -1 d 3 -1 d 3 X 3 -1 d 3 -1 d 3 -1 d 3 X 4 -1 d 3 -1 d 3 X 3 -1 d 3 -1 d 3 -1 d 3 X 3 -1 d 3 -1 d 3 X 3 -1 d 3 -1 d 3 -1 d 3 X 3 -1 d 3 -1 d 4 -1 d 3 X 3 -1 d 3 -1
 d 3 X 3 -1 d 3 -1 d 3 -1 d 3 X 3 -1 d 3 -1 d 3 X 3 -1 d 3 -1 d 3 -1 d 3 X 4 -1 d 3 -1 d 3 -1 d 3 X 3 -1 d 3 -1 d 3 X 3 -1 d 3 -1 d 3 -1 d s 1596 524 m 3 X 3 -1 d 3 -1 d 3 X 3 -1 d 3 -1 d 4 -1 d 3 X 3 -1 d 3 -1 d 3 -1 d 3 X 3 -1 d 3 -1 d 3 X 3 -1 d 3
 -1 d 3 -1 d 3 X 3 -1 d 3 -1 d 3 X 3 -1 d 4 -1 d 3 -1 d 3 X 3 -1 d 3 -1 d 3 -1 d 3 X 3 -1 d 3 -1 d 3 X 3 -1 d 3 -1 d 3 -1 d 3 X 3 -1 d 3 -1 d 4 X 3 -1 d 3 -1 d 3 -1 d 3 X 3 -1 d 3 -1 d 3 -1 d 3 X 3 -1 d s 1746 489 m 3 -1 d s 0.49 0.6 0.82 c black
 0.49 0.6 0.82 c
 gsave  408 306 1383 345 C 1504.21 629.605 t 0 r /Helvetica-Bold findfont 25.6831 sf 0 0 m (6.5 < E < 7.0 GeV) show NC gr  0.52 0.76 0.64 c black 0.52 0.76 0.64 c
 gsave  408 306 1383 345 C 1484.27 592.569 t 0 r /Helvetica-Bold findfont 25.6831 sf 0 0 m 
 228 214 200 193 178 171 156 149 134 126 119 105 91 77 69 55 47 40 25 17
(A = \2550.009, p = 1.000) K NC gr  1 0.6 1 c black 1 0.6 1 c
 gsave  408 306 1383 345 C 1789.1 458.671 t 90 r /Helvetica-Bold findfont 28.5368 sf 0 0 m (/dof=1.3) show NC gr  black 1 0.6 1 c
 gsave  408 306 1383 345 C 1777.71 447.276 t 90 r /Helvetica-Bold findfont 19.9758 sf 0 0 m (2) show NC gr  black 1 0.6 1 c
 gsave  408 306 1383 345 C 1789.1 430.182 t 90 r /Symbol findfont 28.5368 sf 0 0 m (c) show NC gr  black 3 lw 1 1 1 c 408 306 1837 345 bf black 1 1 1 c black 306 229 1898 391 bl 306 229 1898 391 bl 1898 391 m 306 X s 1898 395 m -4 Y s 2038 395 m -4 Y
 s 2177 395 m -4 Y s 2177 395 m -4 Y s
 gsave  408 306 1837 345 C 1888.81 370.356 t 0 r /Helvetica findfont 22.8295 sf 0 0 m (0) show NC gr 
 gsave  408 306 1837 345 C 2031.26 370.356 t 0 r /Helvetica findfont 22.8295 sf 0 0 m (1) show NC gr 
 gsave  408 306 1837 345 C 2168.01 370.356 t 0 r /Helvetica findfont 22.8295 sf 0 0 m (2) show NC gr  1898 620 m 306 X s 1898 616 m 4 Y s 2038 616 m 4 Y s 2177 616 m 4 Y s 2177 616 m 4 Y s 1898 391 m 229 Y s 1904 396 m -6 X s 1901 401 m -3 X s 1901
 406 m -3 X s 1901 412 m -3 X s 1901 417 m -3 X s 1904 423 m -6 X s 1901 428 m -3 X s 1901 434 m -3 X s 1901 439 m -3 X s 1901 445 m -3 X s 1904 450 m -6 X s 1901 455 m -3 X s 1901 461 m -3 X s 1901 466 m -3 X s 1901 472 m -3 X s 1904 477 m -6 X s
 1901 483 m -3 X s 1901 488 m -3 X s 1901 494 m -3 X s 1901 499 m -3 X s 1904 505 m -6 X s 1901 510 m -3 X s 1901 515 m -3 X s 1901 521 m -3 X s 1901 526 m -3 X s 1904 532 m -6 X s 1901 537 m -3 X s 1901 543 m -3 X s 1901 548 m -3 X s 1901 554 m -3 X
 s 1904 559 m -6 X s 1901 564 m -3 X s 1901 570 m -3 X s 1901 575 m -3 X s 1901 581 m -3 X s 1904 586 m -6 X s 1901 592 m -3 X s 1901 597 m -3 X s 1901 603 m -3 X s 1901 608 m -3 X s 1904 613 m -6 X s 1904 396 m -6 X s 1904 613 m -6 X s 1901 619 m -3
 X s
 gsave  408 306 1837 345 C 1843.23 387.449 t 0 r /Helvetica findfont 22.8295 sf 0 0 m (\2550.04) show NC gr 
 gsave  408 306 1837 345 C 1843.23 415.938 t 0 r /Helvetica findfont 22.8295 sf 0 0 m (\2550.03) show NC gr 
 gsave  408 306 1837 345 C 1843.23 441.578 t 0 r /Helvetica findfont 22.8295 sf 0 0 m (\2550.02) show NC gr 
 gsave  408 306 1837 345 C 1846.08 470.067 t 0 r /Helvetica findfont 22.8295 sf 0 0 m (\2550.01) show NC gr 
 gsave  408 306 1837 345 C 1880.27 498.556 t 0 r /Helvetica findfont 22.8295 sf 0 0 m (0) show NC gr 
 gsave  408 306 1837 345 C 1851.78 524.196 t 0 r /Helvetica findfont 22.8295 sf 0 0 m (0.01) show NC gr 
 gsave  408 306 1837 345 C 1848.93 552.685 t 0 r /Helvetica findfont 22.8295 sf 0 0 m (0.02) show NC gr 
 gsave  408 306 1837 345 C 1848.93 578.325 t 0 r /Helvetica findfont 22.8295 sf 0 0 m (0.03) show NC gr 
 gsave  408 306 1837 345 C 1848.93 606.814 t 0 r /Helvetica findfont 22.8295 sf 0 0 m (0.04) show NC gr  2204 391 m 229 Y s 2199 396 m 5 X s 2201 401 m 3 X s 2201 406 m 3 X s 2201 412 m 3 X s 2201 417 m 3 X s 2199 423 m 5 X s 2201 428 m 3 X s 2201
 434 m 3 X s 2201 439 m 3 X s 2201 445 m 3 X s 2199 450 m 5 X s 2201 455 m 3 X s 2201 461 m 3 X s 2201 466 m 3 X s 2201 472 m 3 X s 2199 477 m 5 X s 2201 483 m 3 X s 2201 488 m 3 X s 2201 494 m 3 X s 2201 499 m 3 X s 2199 505 m 5 X s 2201 510 m 3 X s
 2201 515 m 3 X s 2201 521 m 3 X s 2201 526 m 3 X s 2199 532 m 5 X s 2201 537 m 3 X s 2201 543 m 3 X s 2201 548 m 3 X s 2201 554 m 3 X s 2199 559 m 5 X s 2201 564 m 3 X s 2201 570 m 3 X s 2201 575 m 3 X s 2201 581 m 3 X s 2199 586 m 5 X s 2201 592 m
 3 X s 2201 597 m 3 X s 2201 603 m 3 X s 2201 608 m 3 X s 2199 613 m 5 X s 2199 396 m 5 X s 2199 613 m 5 X s 2201 619 m 3 X s 1933 491 1968 457 2038 489 2177 551 4 { m21} R 1933 503 m 36 Y s 1927 539 m 12 X s 1933 480 m -37 Y s 1927 443 m 12 X s 1968
 469 m 36 Y s 1962 505 m 12 X s 1968 446 m -36 Y s 1962 410 m 12 X s 2038 501 m 37 Y s 2032 538 m 11 X s 2038 478 m -37 Y s 2032 441 m 11 X s 2177 563 m 38 Y s 2172 601 m 11 X s 2177 540 m -38 Y s 2172 502 m 11 X s 1 0 0 c 9 lw 0.95 0.95 0.95 c black
 1 0 0 c 1900 505 m 42 X 4 1 d 15 X 3 1 d 12 X 3 1 d 9 X 3 1 d 7 X 3 1 d 9 X 3 1 d 6 X 3 1 d 3 X 3 1 d 6 X 3 1 d 3 X 3 1 d 7 X s 2050 515 m 3 1 d 3 X 3 1 d 3 X 3 1 d 3 X 3 1 d 3 X 3 1 d 3 X 3 1 d 3 X 3 1 d 3 X 4 1 d 3 1 d 3 X 3 1 d 3 X 3 1 d 3 1 d 3
 X 3 1 d 3 1 d 3 X 3 1 d 3 1 d 3 X 3 1 d 3 1 d 4 X 3 1 d 3 1 d 3 1 d 3 X 3 1 d 3 1 d 3 1 d 3 X 3 1 d 3 1 d 3 1 d 3 1 d 3 X 3 1 d 3 1 d 4 1 d 3 1 d 3 1 d s 2200 548 m 3 1 d s 0.49 0.6 0.82 c black 0.49 0.6 0.82 c
 gsave  408 306 1837 345 C 1957.19 629.605 t 0 r /Helvetica-Bold findfont 25.6831 sf 0 0 m (7.0 < E < 7.5 GeV) show NC gr  0.52 0.76 0.64 c black 0.52 0.76 0.64 c
 gsave  408 306 1837 345 C 1942.94 592.569 t 0 r /Helvetica-Bold findfont 25.6831 sf 0 0 m 
 220 206 192 185 170 163 148 141 125 118 111 97 83 69 61 47 40 25 18
(A = 0.003, p = 2.000) K NC gr  1 0.6 1 c black 1 0.6 1 c
 gsave  408 306 1837 345 C 2242.08 458.671 t 90 r /Helvetica-Bold findfont 28.5368 sf 0 0 m (/dof=0.5) show NC gr  black 1 0.6 1 c
 gsave  408 306 1837 345 C 2230.68 447.276 t 90 r /Helvetica-Bold findfont 19.9758 sf 0 0 m (2) show NC gr  black 1 0.6 1 c
 gsave  408 306 1837 345 C 2242.08 430.182 t 90 r /Symbol findfont 28.5368 sf 0 0 m (c) show NC gr  black 3 lw 1 1 1 c 408 306 23 13 bf black 1 1 1 c black 306 229 84 59 bl 306 229 84 59 bl 84 59 m 306 X s 84 63 m -4 Y s 224 63 m -4 Y s 363 63 m -4 Y
 s 363 63 m -4 Y s
 gsave  408 306 23 13 C 74.0711 39.8845 t 0 r /Helvetica findfont 22.8295 sf 0 0 m (0) show NC gr 
 gsave  408 306 23 13 C 216.516 39.8845 t 0 r /Helvetica findfont 22.8295 sf 0 0 m (1) show NC gr 
 gsave  408 306 23 13 C 353.262 39.8845 t 0 r /Helvetica findfont 22.8295 sf 0 0 m (2) show NC gr  84 288 m 306 X s 84 284 m 4 Y s 224 284 m 4 Y s 363 284 m 4 Y s 363 284 m 4 Y s 84 59 m 229 Y s 89 85 m -5 X s 87 94 m -3 X s 87 103 m -3 X s 87 112 m
 -3 X s 89 121 m -5 X s 87 130 m -3 X s 87 139 m -3 X s 87 147 m -3 X s 89 156 m -5 X s 87 165 m -3 X s 87 174 m -3 X s 87 183 m -3 X s 89 192 m -5 X s 87 201 m -3 X s 87 210 m -3 X s 87 219 m -3 X s 89 228 m -5 X s 87 237 m -3 X s 87 246 m -3 X s 87
 254 m -3 X s 89 263 m -5 X s 89 85 m -5 X s 87 76 m -3 X s 87 67 m -3 X s 89 263 m -5 X s 87 272 m -3 X s 87 281 m -3 X s
 gsave  408 306 23 13 C 28.4889 76.92 t 0 r /Helvetica findfont 22.8295 sf 0 0 m (\2550.06) show NC gr 
 gsave  408 306 23 13 C 28.4889 113.956 t 0 r /Helvetica findfont 22.8295 sf 0 0 m (\2550.04) show NC gr 
 gsave  408 306 23 13 C 28.4889 148.142 t 0 r /Helvetica findfont 22.8295 sf 0 0 m (\2550.02) show NC gr 
 gsave  408 306 23 13 C 65.5245 185.178 t 0 r /Helvetica findfont 22.8295 sf 0 0 m (0) show NC gr 
 gsave  408 306 23 13 C 34.1867 219.365 t 0 r /Helvetica findfont 22.8295 sf 0 0 m (0.02) show NC gr 
 gsave  408 306 23 13 C 34.1867 256.4 t 0 r /Helvetica findfont 22.8295 sf 0 0 m (0.04) show NC gr  390 59 m 229 Y s 385 85 m 5 X s 387 94 m 3 X s 387 103 m 3 X s 387 112 m 3 X s 385 121 m 5 X s 387 130 m 3 X s 387 139 m 3 X s 387 147 m 3 X s 385 156
 m 5 X s 387 165 m 3 X s 387 174 m 3 X s 387 183 m 3 X s 385 192 m 5 X s 387 201 m 3 X s 387 210 m 3 X s 387 219 m 3 X s 385 228 m 5 X s 387 237 m 3 X s 387 246 m 3 X s 387 254 m 3 X s 385 263 m 5 X s 385 85 m 5 X s 387 76 m 3 X s 387 67 m 3 X s 385
 263 m 5 X s 387 272 m 3 X s 387 281 m 3 X s /w 22 def /w2 {w 2 div} def /w3 {w 3 div} def 119 234 154 195 224 147 363 111 4 { m21} R 119 246 m 23 Y s 113 269 m 12 X s 119 223 m -24 Y s 113 199 m 12 X s 154 206 m 23 Y s 148 229 m 11 X s 154 183 m -23
 Y s 148 160 m 11 X s 224 158 m 23 Y s 218 181 m 11 X s 224 136 m -23 Y s 218 113 m 11 X s 363 122 m 22 Y s 357 144 m 12 X s 363 100 m -22 Y s 357 78 m 12 X s 1 0 0 c 9 lw 0.95 0.95 0.95 c black 1 0 0 c 85 192 m 19 X 3 -1 d 12 X 3 -1 d 9 X 3 -1 d 7 X
 3 -1 d 3 X 3 -1 d 3 X 3 -1 d 3 X 3 -1 d 3 X 3 -1 d 3 X 3 -1 d 3 -1 d 3 X 3 -1 d 3 -1 d 4 X 3 -1 d 3 -1 d 3 X 3 -1 d 3 -1 d 3 -1 d 3 -1 d 3 -1 d 3 X 3 -1 d 3 -1 d 3 -1 d 3 -1 d 3 -1 d 3 -1 d s 235 167 m 4 -1 d 3 -1 d 3 -1 d 3 -1 d 3 -2 d 3 -1 d 3 -1
 d 3 -1 d 3 -1 d 3 -1 d 3 -2 d 3 -1 d 3 -1 d 3 -1 d 3 -2 d 3 -1 d 3 -1 d 4 -2 d 3 -1 d 3 -2 d 3 -1 d 3 -2 d 3 -1 d 3 -2 d 3 -1 d 3 -2 d 3 -1 d 3 -2 d 3 -1 d 3 -2 d 3 -2 d 3 -1 d 3 -2 d 4 -2 d 3 -1 d 3 -2 d 3 -2 d 3 -2 d 3 -2 d 3 -1 d 3 -2 d 3 -2 d 3
 -2 d 3 -2 d 3 -2 d 3 -2 d 3 -2 d 3 -2 d 3 -2 d s 385 92 m 4 -2 d s 0.49 0.6 0.82 c black 0.49 0.6 0.82 c
 gsave  408 306 23 13 C 142.445 296.285 t 0 r /Helvetica-Bold findfont 25.6831 sf 0 0 m (7.5 < E < 8.0 GeV) show NC gr  0.52 0.76 0.64 c black 0.52 0.76 0.64 c
 gsave  408 306 23 13 C 122.502 259.249 t 0 r /Helvetica-Bold findfont 25.6831 sf 0 0 m 
 228 214 200 193 178 171 156 149 134 126 119 105 91 77 69 55 47 39 25 17
(A = \2550.012, p = 2.000) K NC gr  1 0.6 1 c black 1 0.6 1 c
 gsave  408 306 23 13 C 427.334 128.2 t 90 r /Helvetica-Bold findfont 28.5368 sf 0 0 m (/dof=0.7) show NC gr  black 1 0.6 1 c
 gsave  408 306 23 13 C 415.938 116.804 t 90 r /Helvetica-Bold findfont 19.9758 sf 0 0 m (2) show NC gr  black 1 0.6 1 c
 gsave  408 306 23 13 C 427.334 99.7112 t 90 r /Symbol findfont 28.5368 sf 0 0 m (c) show NC gr  black 3 lw 1 1 1 c 408 306 476 13 bf black 1 1 1 c black 307 229 537 59 bl 307 229 537 59 bl 537 59 m 307 X s 537 63 m -4 Y s 677 63 m -4 Y s 817 63 m -4
 Y s 817 63 m -4 Y s
 gsave  408 306 476 13 C 527.045 39.8845 t 0 r /Helvetica findfont 22.8295 sf 0 0 m (0) show NC gr 
 gsave  408 306 476 13 C 669.489 39.8845 t 0 r /Helvetica findfont 22.8295 sf 0 0 m (1) show NC gr 
 gsave  408 306 476 13 C 806.236 39.8845 t 0 r /Helvetica findfont 22.8295 sf 0 0 m (2) show NC gr  537 288 m 307 X s 537 284 m 4 Y s 677 284 m 4 Y s 817 284 m 4 Y s 817 284 m 4 Y s 537 59 m 229 Y s 543 64 m -6 X s 540 75 m -3 X s 540 86 m -3 X s 540
 97 m -3 X s 543 108 m -6 X s 540 119 m -3 X s 540 130 m -3 X s 540 141 m -3 X s 543 152 m -6 X s 540 163 m -3 X s 540 174 m -3 X s 540 185 m -3 X s 543 196 m -6 X s 540 207 m -3 X s 540 218 m -3 X s 540 229 m -3 X s 543 240 m -6 X s 540 251 m -3 X s
 540 262 m -3 X s 540 273 m -3 X s 543 283 m -6 X s 543 64 m -6 X s 543 283 m -6 X s
 gsave  408 306 476 13 C 481.462 56.9778 t 0 r /Helvetica findfont 22.8295 sf 0 0 m (\2550.04) show NC gr 
 gsave  408 306 476 13 C 481.462 99.7112 t 0 r /Helvetica findfont 22.8295 sf 0 0 m (\2550.02) show NC gr 
 gsave  408 306 476 13 C 518.498 145.293 t 0 r /Helvetica findfont 22.8295 sf 0 0 m (0) show NC gr 
 gsave  408 306 476 13 C 487.16 188.027 t 0 r /Helvetica findfont 22.8295 sf 0 0 m (0.02) show NC gr 
 gsave  408 306 476 13 C 487.16 233.609 t 0 r /Helvetica findfont 22.8295 sf 0 0 m (0.04) show NC gr 
 gsave  408 306 476 13 C 487.16 276.342 t 0 r /Helvetica findfont 22.8295 sf 0 0 m (0.06) show NC gr  844 59 m 229 Y s 838 64 m 6 X s 841 75 m 3 X s 841 86 m 3 X s 841 97 m 3 X s 838 108 m 6 X s 841 119 m 3 X s 841 130 m 3 X s 841 141 m 3 X s 838 152
 m 6 X s 841 163 m 3 X s 841 174 m 3 X s 841 185 m 3 X s 838 196 m 6 X s 841 207 m 3 X s 841 218 m 3 X s 841 229 m 3 X s 838 240 m 6 X s 841 251 m 3 X s 841 262 m 3 X s 841 273 m 3 X s 838 283 m 6 X s 838 64 m 6 X s 838 283 m 6 X s /w 23 def /w2 {w 2
 div} def /w3 {w 3 div} def 572 223 607 181 677 180 817 123 4 { m21} R 572 235 m 34 Y s 567 269 m 11 X s 572 212 m -35 Y s 567 177 m 11 X s 607 193 m 34 Y s 602 227 m 11 X s 607 170 m -35 Y s 602 135 m 11 X s 677 192 m 34 Y s 671 226 m 12 X s 677 169
 m -34 Y s 671 135 m 12 X s 817 134 m 33 Y s 811 167 m 11 X s 817 111 m -33 Y s 811 78 m 11 X s 1 0 0 c 9 lw 0.95 0.95 0.95 c black 1 0 0 c 539 152 m 34 X 3 -1 d 36 X 4 -1 d 18 X 3 -1 d 18 X 3 -1 d 13 X 3 -1 d 12 X 3 -1 d s 689 146 m 9 X 3 -1 d 9 X 3
 -1 d 10 X 3 -1 d 9 X 3 -1 d 6 X 3 -1 d 6 X 3 -1 d 6 X 4 -1 d 6 X 3 -1 d 6 X 3 -1 d 6 X 3 -1 d 3 X 3 -1 d 6 X 3 -1 d 7 X 3 -1 d 3 X 3 -1 d 3 X 3 -1 d 6 X 3 -1 d s 839 130 m 3 X s 0.49 0.6 0.82 c black 0.49 0.6 0.82 c
 gsave  408 306 476 13 C 595.418 296.285 t 0 r /Helvetica-Bold findfont 25.6831 sf 0 0 m (8.0 < E < 8.5 GeV) show NC gr  0.52 0.76 0.64 c black 0.52 0.76 0.64 c
 gsave  408 306 476 13 C 575.476 259.249 t 0 r /Helvetica-Bold findfont 25.6831 sf 0 0 m 
 228 214 200 193 178 171 156 149 133 126 119 105 91 76 69 55 47 39 25 17
(A = \2550.002, p = 2.000) K NC gr  1 0.6 1 c black 1 0.6 1 c
 gsave  408 306 476 13 C 883.156 128.2 t 90 r /Helvetica-Bold findfont 28.5368 sf 0 0 m (/dof=1.2) show NC gr  black 1 0.6 1 c
 gsave  408 306 476 13 C 871.76 116.804 t 90 r /Helvetica-Bold findfont 19.9758 sf 0 0 m (2) show NC gr  black 1 0.6 1 c
 gsave  408 306 476 13 C 883.156 99.7112 t 90 r /Symbol findfont 28.5368 sf 0 0 m (c) show NC gr  black 3 lw 1 1 1 c 408 306 930 13 bf black 1 1 1 c black 306 229 991 59 bl 306 229 991 59 bl 991 59 m 306 X s 991 63 m -4 Y s 1131 63 m -4 Y s 1270 63 m
 -4 Y s 1270 63 m -4 Y s
 gsave  408 306 930 13 C 980.018 39.8845 t 0 r /Helvetica findfont 22.8295 sf 0 0 m (0) show NC gr 
 gsave  408 306 930 13 C 1122.46 39.8845 t 0 r /Helvetica findfont 22.8295 sf 0 0 m (1) show NC gr 
 gsave  408 306 930 13 C 1259.21 39.8845 t 0 r /Helvetica findfont 22.8295 sf 0 0 m (2) show NC gr  991 288 m 306 X s 991 284 m 4 Y s 1131 284 m 4 Y s 1270 284 m 4 Y s 1270 284 m 4 Y s 991 59 m 229 Y s 997 90 m -6 X s 994 97 m -3 X s 994 104 m -3 X s
 994 110 m -3 X s 994 117 m -3 X s 997 123 m -6 X s 994 130 m -3 X s 994 136 m -3 X s 994 143 m -3 X s 994 150 m -3 X s 997 156 m -6 X s 994 163 m -3 X s 994 169 m -3 X s 994 176 m -3 X s 994 182 m -3 X s 997 189 m -6 X s 994 196 m -3 X s 994 202 m
 -3 X s 994 209 m -3 X s 994 215 m -3 X s 997 222 m -6 X s 994 228 m -3 X s 994 235 m -3 X s 994 242 m -3 X s 994 248 m -3 X s 997 255 m -6 X s 994 261 m -3 X s 994 268 m -3 X s 994 274 m -3 X s 994 281 m -3 X s 997 288 m -6 X s 997 90 m -6 X s 994
 84 m -3 X s 994 77 m -3 X s 994 71 m -3 X s 994 64 m -3 X s 997 288 m -6 X s
 gsave  408 306 930 13 C 937.285 82.6178 t 0 r /Helvetica findfont 22.8295 sf 0 0 m (\2550.04) show NC gr 
 gsave  408 306 930 13 C 937.285 116.804 t 0 r /Helvetica findfont 22.8295 sf 0 0 m (\2550.03) show NC gr 
 gsave  408 306 930 13 C 937.285 148.142 t 0 r /Helvetica findfont 22.8295 sf 0 0 m (\2550.02) show NC gr 
 gsave  408 306 930 13 C 940.134 182.329 t 0 r /Helvetica findfont 22.8295 sf 0 0 m (\2550.01) show NC gr 
 gsave  408 306 930 13 C 974.32 213.667 t 0 r /Helvetica findfont 22.8295 sf 0 0 m (0) show NC gr 
 gsave  408 306 930 13 C 945.832 247.853 t 0 r /Helvetica findfont 22.8295 sf 0 0 m (0.01) show NC gr 
 gsave  408 306 930 13 C 942.983 279.191 t 0 r /Helvetica findfont 22.8295 sf 0 0 m (0.02) show NC gr  1297 59 m 229 Y s 1292 90 m 5 X s 1294 97 m 3 X s 1294 104 m 3 X s 1294 110 m 3 X s 1294 117 m 3 X s 1292 123 m 5 X s 1294 130 m 3 X s 1294 136 m 3
 X s 1294 143 m 3 X s 1294 150 m 3 X s 1292 156 m 5 X s 1294 163 m 3 X s 1294 169 m 3 X s 1294 176 m 3 X s 1294 182 m 3 X s 1292 189 m 5 X s 1294 196 m 3 X s 1294 202 m 3 X s 1294 209 m 3 X s 1294 215 m 3 X s 1292 222 m 5 X s 1294 228 m 3 X s 1294
 235 m 3 X s 1294 242 m 3 X s 1294 248 m 3 X s 1292 255 m 5 X s 1294 261 m 3 X s 1294 268 m 3 X s 1294 274 m 3 X s 1294 281 m 3 X s 1292 288 m 5 X s 1292 90 m 5 X s 1294 84 m 3 X s 1294 77 m 3 X s 1294 71 m 3 X s 1294 64 m 3 X s 1292 288 m 5 X s 1026
 161 1061 149 1131 169 1270 197 4 { m21} R 1026 172 m 59 Y s 1020 231 m 12 X s 1026 149 m -59 Y s 1020 90 m 12 X s 1061 160 m 60 Y s 1055 220 m 12 X s 1061 138 m -60 Y s 1055 78 m 12 X s 1131 180 m 59 Y s 1125 239 m 11 X s 1131 158 m -59 Y s 1125 99
 m 11 X s 1270 209 m 60 Y s 1265 269 m 11 X s 1270 186 m -60 Y s 1265 126 m 11 X s 9 lw 0.95 0.95 0.95 c black 993 222 m 3 -1 d 3 -1 d 3 X 3 -1 d 3 -1 d 3 X 3 -1 d 3 -1 d 3 X 3 -1 d 3 -1 d 3 X 3 -1 d 3 X 3 -1 d 4 -1 d 3 X 3 -1 d 3 -1 d 3 X 3 -1 d 3
 -1 d 3 X 3 -1 d 3 -1 d 3 X 3 -1 d 3 X 3 -1 d 3 -1 d 3 X 3 -1 d 4 -1 d 3 X 3 -1 d 3 -1 d 3 X 3 -1 d 3 -1 d 3 X 3 -1 d 3 X 3 -1 d 3 -1 d 3 X 3 -1 d 3 -1 d 3 X 4 -1 d s 1143 190 m 3 -1 d 3 X 3 -1 d 3 -1 d 3 X 3 -1 d 3 X 3 -1 d 3 -1 d 3 X 3 -1 d 3 -1 d
 3 X 3 -1 d 3 -1 d 4 X 3 -1 d 3 -1 d 3 X 3 -1 d 3 X 3 -1 d 3 -1 d 3 X 3 -1 d 3 -1 d 3 X 3 -1 d 3 -1 d 3 X 3 -1 d 3 -1 d 4 X 3 -1 d 3 -1 d 3 X 3 -1 d 3 X 3 -1 d 3 -1 d 3 X 3 -1 d 3 -1 d 3 X 3 -1 d 3 -1 d 3 X 3 -1 d 4 -1 d s 1293 158 m 3 X s 0.49 0.6
 0.82 c black 0.49 0.6 0.82 c
 gsave  408 306 930 13 C 1051.24 296.285 t 0 r /Helvetica-Bold findfont 25.6831 sf 0 0 m (8.5 < E < 9.0 GeV) show NC gr  0.52 0.76 0.64 c black 0.52 0.76 0.64 c
 gsave  408 306 930 13 C 1031.3 259.249 t 0 r /Helvetica-Bold findfont 25.6831 sf 0 0 m 
 228 214 200 193 178 171 156 149 133 126 119 105 91 77 69 55 47 39 25 17
(A = \2550.009, p = 1.000) K NC gr  1 0.6 1 c black 1 0.6 1 c
 gsave  408 306 930 13 C 1336.13 128.2 t 90 r /Helvetica-Bold findfont 28.5368 sf 0 0 m (/dof=0.5) show NC gr  black 1 0.6 1 c
 gsave  408 306 930 13 C 1324.73 116.804 t 90 r /Helvetica-Bold findfont 19.9758 sf 0 0 m (2) show NC gr  black 1 0.6 1 c
 gsave  408 306 930 13 C 1336.13 99.7112 t 90 r /Symbol findfont 28.5368 sf 0 0 m (c) show NC gr  black 3 lw 1 1 1 c 408 306 1383 13 bf black 1 1 1 c black 306 229 1445 59 bl 306 229 1445 59 bl 1445 59 m 306 X s 1445 63 m -4 Y s 1584 63 m -4 Y s 1724
 63 m -4 Y s 1724 63 m -4 Y s
 gsave  408 306 1383 13 C 1435.84 39.8845 t 0 r /Helvetica findfont 22.8295 sf 0 0 m (0) show NC gr 
 gsave  408 306 1383 13 C 1578.29 39.8845 t 0 r /Helvetica findfont 22.8295 sf 0 0 m (1) show NC gr 
 gsave  408 306 1383 13 C 1715.03 39.8845 t 0 r /Helvetica findfont 22.8295 sf 0 0 m (2) show NC gr  1445 288 m 306 X s 1445 284 m 4 Y s 1584 284 m 4 Y s 1724 284 m 4 Y s 1724 284 m 4 Y s 1445 59 m 229 Y s 1450 69 m -5 X s 1447 80 m -2 X s 1447 90 m
 -2 X s 1447 101 m -2 X s 1450 111 m -5 X s 1447 122 m -2 X s 1447 132 m -2 X s 1447 143 m -2 X s 1450 153 m -5 X s 1447 164 m -2 X s 1447 175 m -2 X s 1447 185 m -2 X s 1450 196 m -5 X s 1447 206 m -2 X s 1447 217 m -2 X s 1447 227 m -2 X s 1450 238
 m -5 X s 1447 248 m -2 X s 1447 259 m -2 X s 1447 269 m -2 X s 1450 280 m -5 X s 1450 69 m -5 X s 1450 280 m -5 X s
 gsave  408 306 1383 13 C 1390.26 62.6756 t 0 r /Helvetica findfont 22.8295 sf 0 0 m (\2550.04) show NC gr 
 gsave  408 306 1383 13 C 1390.26 105.409 t 0 r /Helvetica findfont 22.8295 sf 0 0 m (\2550.02) show NC gr 
 gsave  408 306 1383 13 C 1427.29 145.293 t 0 r /Helvetica findfont 22.8295 sf 0 0 m (0) show NC gr 
 gsave  408 306 1383 13 C 1395.96 188.027 t 0 r /Helvetica findfont 22.8295 sf 0 0 m (0.02) show NC gr 
 gsave  408 306 1383 13 C 1395.96 230.76 t 0 r /Helvetica findfont 22.8295 sf 0 0 m (0.04) show NC gr 
 gsave  408 306 1383 13 C 1395.96 273.493 t 0 r /Helvetica findfont 22.8295 sf 0 0 m (0.06) show NC gr  1751 59 m 229 Y s 1745 69 m 6 X s 1748 80 m 3 X s 1748 90 m 3 X s 1748 101 m 3 X s 1745 111 m 6 X s 1748 122 m 3 X s 1748 132 m 3 X s 1748 143 m 3
 X s 1745 153 m 6 X s 1748 164 m 3 X s 1748 175 m 3 X s 1748 185 m 3 X s 1745 196 m 6 X s 1748 206 m 3 X s 1748 217 m 3 X s 1748 227 m 3 X s 1745 238 m 6 X s 1748 248 m 3 X s 1748 259 m 3 X s 1748 269 m 3 X s 1745 280 m 6 X s 1745 69 m 6 X s 1745 280
 m 6 X s 1479 129 1514 180 1584 126 1724 219 4 { m21} R 1479 141 m 37 Y s 1474 178 m 11 X s 1479 118 m -37 Y s 1474 81 m 11 X s 1514 191 m 38 Y s 1509 229 m 11 X s 1514 168 m -38 Y s 1509 130 m 11 X s 1584 138 m 37 Y s 1578 175 m 12 X s 1584 115 m
 -37 Y s 1578 78 m 12 X s 1724 230 m 39 Y s 1718 269 m 11 X s 1724 208 m -39 Y s 1718 169 m 11 X s 1 0 0 c 9 lw 0.95 0.95 0.95 c black 1 0 0 c 1446 153 m 3 X 3 1 d 28 X 3 1 d 12 X 3 1 d 9 X 3 1 d 10 X 3 1 d 3 X 3 1 d 6 X 3 1 d 3 X 3 1 d 6 X 3 1 d 3 X
 3 1 d 3 X 3 1 d 4 X 3 1 d 3 1 d 3 X 3 1 d 3 X 3 1 d 3 1 d 3 X 3 1 d s 1596 170 m 3 1 d 3 X 3 1 d 3 1 d 3 X 3 1 d 4 1 d 3 1 d 3 X 3 1 d 3 1 d 3 1 d 3 1 d 3 X 3 1 d 3 1 d 3 1 d 3 1 d 3 1 d 3 1 d 3 1 d 3 1 d 3 1 d 4 1 d 3 1 d 3 1 d 3 1 d 3 1 d 3 1 d 3
 1 d 3 1 d 3 1 d 3 1 d 3 1 d 3 1 d 3 1 d 3 1 d 3 2 d 3 1 d 4 1 d 3 1 d 3 1 d 3 2 d 3 1 d 3 1 d 3 1 d 3 2 d 3 1 d 3 1 d s 1746 218 m 3 2 d s 0.49 0.6 0.82 c black 0.49 0.6 0.82 c
 gsave  408 306 1383 13 C 1504.21 296.285 t 0 r /Helvetica-Bold findfont 25.6831 sf 0 0 m (9.0 < E < 9.5 GeV) show NC gr  0.52 0.76 0.64 c black 0.52 0.76 0.64 c
 gsave  408 306 1383 13 C 1489.97 259.249 t 0 r /Helvetica-Bold findfont 25.6831 sf 0 0 m 
 220 206 192 185 170 163 148 141 126 118 111 97 83 69 61 47 40 25 18
(A = 0.007, p = 2.000) K NC gr  1 0.6 1 c black 1 0.6 1 c
 gsave  408 306 1383 13 C 1789.1 128.2 t 90 r /Helvetica-Bold findfont 28.5368 sf 0 0 m (/dof=0.4) show NC gr  black 1 0.6 1 c
 gsave  408 306 1383 13 C 1777.71 116.804 t 90 r /Helvetica-Bold findfont 19.9758 sf 0 0 m (2) show NC gr  black 1 0.6 1 c
 gsave  408 306 1383 13 C 1789.1 99.7112 t 90 r /Symbol findfont 28.5368 sf 0 0 m (c) show NC gr  black 3 lw 1 1 1 c 408 306 1837 13 bf black 1 1 1 c black 306 229 1898 59 bl 306 229 1898 59 bl 1898 59 m 306 X s 1898 63 m -4 Y s 2038 63 m -4 Y s 2177
 63 m -4 Y s 2177 63 m -4 Y s
 gsave  408 306 1837 13 C 1888.81 39.8845 t 0 r /Helvetica findfont 22.8295 sf 0 0 m (0) show NC gr 
 gsave  408 306 1837 13 C 2031.26 39.8845 t 0 r /Helvetica findfont 22.8295 sf 0 0 m (1) show NC gr 
 gsave  408 306 1837 13 C 2168.01 39.8845 t 0 r /Helvetica findfont 22.8295 sf 0 0 m (2) show NC gr  1898 288 m 306 X s 1898 284 m 4 Y s 2038 284 m 4 Y s 2177 284 m 4 Y s 2177 284 m 4 Y s 1898 59 m 229 Y s 1904 71 m -6 X s 1901 81 m -3 X s 1901 90 m
 -3 X s 1901 99 m -3 X s 1904 109 m -6 X s 1901 118 m -3 X s 1901 128 m -3 X s 1901 137 m -3 X s 1904 147 m -6 X s 1901 156 m -3 X s 1901 166 m -3 X s 1901 175 m -3 X s 1904 184 m -6 X s 1901 194 m -3 X s 1901 203 m -3 X s 1901 213 m -3 X s 1904 222
 m -6 X s 1901 232 m -3 X s 1901 241 m -3 X s 1901 251 m -3 X s 1904 260 m -6 X s 1904 71 m -6 X s 1901 62 m -3 X s 1904 260 m -6 X s 1901 270 m -3 X s 1901 279 m -3 X s
 gsave  408 306 1837 13 C 1843.23 62.6756 t 0 r /Helvetica findfont 22.8295 sf 0 0 m (\2550.08) show NC gr 
 gsave  408 306 1837 13 C 1843.23 102.56 t 0 r /Helvetica findfont 22.8295 sf 0 0 m (\2550.06) show NC gr 
 gsave  408 306 1837 13 C 1843.23 139.596 t 0 r /Helvetica findfont 22.8295 sf 0 0 m (\2550.04) show NC gr 
 gsave  408 306 1837 13 C 1843.23 176.631 t 0 r /Helvetica findfont 22.8295 sf 0 0 m (\2550.02) show NC gr 
 gsave  408 306 1837 13 C 1880.27 216.516 t 0 r /Helvetica findfont 22.8295 sf 0 0 m (0) show NC gr 
 gsave  408 306 1837 13 C 1848.93 253.551 t 0 r /Helvetica findfont 22.8295 sf 0 0 m (0.02) show NC gr  2204 59 m 229 Y s 2199 71 m 5 X s 2201 81 m 3 X s 2201 90 m 3 X s 2201 99 m 3 X s 2199 109 m 5 X s 2201 118 m 3 X s 2201 128 m 3 X s 2201 137 m 3
 X s 2199 147 m 5 X s 2201 156 m 3 X s 2201 166 m 3 X s 2201 175 m 3 X s 2199 184 m 5 X s 2201 194 m 3 X s 2201 203 m 3 X s 2201 213 m 3 X s 2199 222 m 5 X s 2201 232 m 3 X s 2201 241 m 3 X s 2201 251 m 3 X s 2199 260 m 5 X s 2199 71 m 5 X s 2201 62
 m 3 X s 2199 260 m 5 X s 2201 270 m 3 X s 2201 279 m 3 X s 1933 122 1968 223 2038 182 2177 191 4 { m21} R 1933 133 m 32 Y s 1927 165 m 12 X s 1933 110 m -32 Y s 1927 78 m 12 X s 1968 235 m 34 Y s 1962 269 m 12 X s 1968 212 m -34 Y s 1962 178 m 12 X
 s 2038 193 m 33 Y s 2032 226 m 11 X s 2038 171 m -33 Y s 2032 138 m 11 X s 2177 202 m 34 Y s 2172 236 m 11 X s 2177 179 m -34 Y s 2172 145 m 11 X s 9 lw 0.95 0.95 0.95 c black 1900 222 m 3 -1 d 3 X 3 -1 d 3 X 3 -1 d 3 X 3 -1 d 3 X 3 -1 d 3 X 3 -1 d
 3 X 3 -1 d 3 -1 d 4 X 3 -1 d 3 X 3 -1 d 3 X 3 -1 d 3 X 3 -1 d 3 X 3 -1 d 3 -1 d 3 X 3 -1 d 3 X 3 -1 d 3 X 4 -1 d 3 X 3 -1 d 3 X 3 -1 d 3 X 3 -1 d 3 -1 d 3 X 3 -1 d 3 X 3 -1 d 3 X 3 -1 d 3 X 3 -1 d 3 X 4 -1 d 3 -1 d s 2050 195 m 3 X 3 -1 d 3 X 3 -1 d
 3 X 3 -1 d 3 X 3 -1 d 3 X 3 -1 d 3 X 3 -1 d 3 -1 d 3 X 4 -1 d 3 X 3 -1 d 3 X 3 -1 d 3 X 3 -1 d 3 X 3 -1 d 3 X 3 -1 d 3 -1 d 3 X 3 -1 d 3 X 3 -1 d 4 X 3 -1 d 3 X 3 -1 d 3 X 3 -1 d 3 -1 d 3 X 3 -1 d 3 X 3 -1 d 3 X 3 -1 d 3 X 3 -1 d 3 X 4 -1 d 3 X 3 -1
 d s 2200 169 m 3 -1 d s 0.49 0.6 0.82 c black 0.49 0.6 0.82 c
 gsave  408 306 1837 13 C 1948.64 296.285 t 0 r /Helvetica-Bold findfont 25.6831 sf 0 0 m (9.5 < E < 10.0 GeV) show NC gr  0.52 0.76 0.64 c black 0.52 0.76 0.64 c
 gsave  408 306 1837 13 C 1937.25 259.249 t 0 r /Helvetica-Bold findfont 25.6831 sf 0 0 m 
 228 214 200 193 178 171 156 149 133 126 119 105 91 77 69 55 47 39 25 17
(A = \2550.013, p = 1.000) K NC gr  1 0.6 1 c black 1 0.6 1 c
 gsave  408 306 1837 13 C 2242.08 128.2 t 90 r /Helvetica-Bold findfont 28.5368 sf 0 0 m (/dof=1.7) show NC gr  black 1 0.6 1 c
 gsave  408 306 1837 13 C 2230.68 116.804 t 90 r /Helvetica-Bold findfont 19.9758 sf 0 0 m (2) show NC gr  black 1 0.6 1 c
 gsave  408 306 1837 13 C 2242.08 99.7112 t 90 r /Symbol findfont 28.5368 sf 0 0 m (c) show NC gr 
 gr  gr showpage
end
%%EOF
