%!PS-Adobe-2.0 EPSF-2.0
%%BoundingBox:  0 0 567 332
%%Title: Horn1YOffset_nof_fits.eps: Fits
%%Creator: ROOT Version 5.30/06
%%CreationDate: Sun Feb  2 09:29:10 2014
%%EndComments
%%BeginProlog
80 dict begin
/s {stroke} def /l {lineto} def /m {moveto} def /t {translate} def
/r {rotate} def /rl {roll}  def /R {repeat} def
/d {rlineto} def /rm {rmoveto} def /gr {grestore} def /f {eofill} def
/c {setrgbcolor} def /black {0 setgray} def /sd {setdash} def
/cl {closepath} def /sf {scalefont setfont} def /lw {setlinewidth} def
/box {m dup 0 exch d exch 0 d 0 exch neg d cl} def
/NC{systemdict begin initclip end}def/C{NC box clip newpath}def
/bl {box s} def /bf {box f} def /Y { 0 exch d} def /X { 0 d} def 
/K {{pop pop 0 moveto} exch kshow} bind def
/ita {/ang 15 def gsave [1 0 ang dup sin exch cos div 1 0 0] concat} def 
/mp {newpath /y exch def /x exch def} def
/side {[w .77 mul w .23 mul] .385 w mul sd w 0 l currentpoint t -144 r} def
/mr {mp x y w2 0 360 arc} def /m24 {mr s} def /m20 {mr f} def
/mb {mp x y w2 add m w2 neg 0 d 0 w neg d w 0 d 0 w d cl} def
/mt {mp x y w2 add m w2 neg w neg d w 0 d cl} def
/m21 {mb f} def /m25 {mb s} def /m22 {mt f} def /m26{mt s} def
/m23 {mp x y w2 sub m w2 w d w neg 0 d cl f} def
/m27 {mp x y w2 add m w3 neg w2 neg d w3 w2 neg d w3 w2 d cl s} def
/m28 {mp x w2 sub y w2 sub w3 add m w3 0 d  0 w3 neg d w3 0 d 0 w3 d w3 0 d  0 w3 d w3 neg 0 d 0 w3 d w3 neg 0 d 0 w3 neg d w3 neg 0 d cl s } def
/m29 {mp gsave x w2 sub y w2 add w3 sub m currentpoint t 4 {side} repeat cl fill gr} def
/m30 {mp gsave x w2 sub y w2 add w3 sub m currentpoint t 4 {side} repeat cl s gr} def
/m31 {mp x y w2 sub m 0 w d x w2 sub y m w 0 d x w2 sub y w2 add m w w neg d x w2 sub y w2 sub m w w d s} def
/m32 {mp x y w2 sub m w2 w d w neg 0 d cl s} def
/m33 {mp x y w2 add m w3 neg w2 neg d w3 w2 neg d w3 w2 d cl f} def
/m34 {mp x w2 sub y w2 sub w3 add m w3 0 d  0 w3 neg d w3 0 d 0 w3 d w3 0 d  0 w3 d w3 neg 0 d 0 w3 d w3 neg 0 d 0 w3 neg d w3 neg 0 d cl f } def
/m2 {mp x y w2 sub m 0 w d x w2 sub y m w 0 d s} def
/m5 {mp x w2 sub y w2 sub m w w d x w2 sub y w2 add m w w neg d s} def
/reEncode {exch findfont dup length dict begin {1 index /FID eq  {pop pop} {def} ifelse } forall /Encoding exch def currentdict end dup /FontName get exch definefont pop } def [/Times-Bold /Times-Italic /Times-BoldItalic /Helvetica /Helvetica-Oblique
 /Helvetica-Bold /Helvetica-BoldOblique /Courier /Courier-Oblique /Courier-Bold /Courier-BoldOblique /Times-Roman /AvantGarde-Book /AvantGarde-BookOblique /AvantGarde-Demi /AvantGarde-DemiOblique /Bookman-Demi /Bookman-DemiItalic /Bookman-Light
 /Bookman-LightItalic /Helvetica-Narrow /Helvetica-Narrow-Bold /Helvetica-Narrow-BoldOblique /Helvetica-Narrow-Oblique /NewCenturySchlbk-Roman /NewCenturySchlbk-Bold /NewCenturySchlbk-BoldItalic /NewCenturySchlbk-Italic /Palatino-Bold
 /Palatino-BoldItalic /Palatino-Italic /Palatino-Roman ] {ISOLatin1Encoding reEncode } forall%%EndProlog
%%BeginSetup
%%EndSetup
newpath  gsave  .25 .25 scale  gsave  0 0 t black[  ] 0 sd 3 lw 1 1 1 c 2268 1328 0 0 bf black 1 1 1 c 408 305 23 1009 bf black 1 1 1 c black 306 229 84 1055 bl 306 229 84 1055 bl 84 1055 m 306 X s 84 1059 m -4 Y s 196 1059 m -4 Y s 309 1059 m -4 Y s
 309 1059 m -4 Y s
 gsave  408 305 23 1009 C 74.0711 1034.15 t 0 r /Helvetica findfont 22.8295 sf 0 0 m (0) show NC gr 
 gsave  408 305 23 1009 C 188.027 1034.15 t 0 r /Helvetica findfont 22.8295 sf 0 0 m (1) show NC gr 
 gsave  408 305 23 1009 C 299.133 1034.15 t 0 r /Helvetica findfont 22.8295 sf 0 0 m (2) show NC gr  84 1284 m 306 X s 84 1280 m 4 Y s 196 1280 m 4 Y s 309 1280 m 4 Y s 309 1280 m 4 Y s 84 1055 m 229 Y s 89 1067 m -5 X s 87 1074 m -3 X s 87 1080 m -3
 X s 87 1087 m -3 X s 87 1094 m -3 X s 89 1100 m -5 X s 87 1107 m -3 X s 87 1114 m -3 X s 87 1120 m -3 X s 87 1127 m -3 X s 89 1133 m -5 X s 87 1140 m -3 X s 87 1147 m -3 X s 87 1153 m -3 X s 87 1160 m -3 X s 89 1167 m -5 X s 87 1173 m -3 X s 87 1180
 m -3 X s 87 1187 m -3 X s 87 1193 m -3 X s 89 1200 m -5 X s 87 1206 m -3 X s 87 1213 m -3 X s 87 1220 m -3 X s 87 1226 m -3 X s 89 1233 m -5 X s 87 1240 m -3 X s 87 1246 m -3 X s 87 1253 m -3 X s 87 1259 m -3 X s 89 1266 m -5 X s 89 1067 m -5 X s 87
 1060 m -3 X s 89 1266 m -5 X s 87 1273 m -3 X s 87 1279 m -3 X s
 gsave  408 305 23 1009 C 14.2445 1059.79 t 0 r /Helvetica findfont 22.8295 sf 0 0 m (\2550.004) show NC gr 
 gsave  408 305 23 1009 C 14.2445 1093.97 t 0 r /Helvetica findfont 22.8295 sf 0 0 m (\2550.003) show NC gr 
 gsave  408 305 23 1009 C 14.2445 1125.31 t 0 r /Helvetica findfont 22.8295 sf 0 0 m (\2550.002) show NC gr 
 gsave  408 305 23 1009 C 17.0933 1159.5 t 0 r /Helvetica findfont 22.8295 sf 0 0 m (\2550.001) show NC gr 
 gsave  408 305 23 1009 C 65.5245 1193.68 t 0 r /Helvetica findfont 22.8295 sf 0 0 m (0) show NC gr 
 gsave  408 305 23 1009 C 25.64 1225.02 t 0 r /Helvetica findfont 22.8295 sf 0 0 m (0.001) show NC gr 
 gsave  408 305 23 1009 C 22.7911 1259.21 t 0 r /Helvetica findfont 22.8295 sf 0 0 m (0.002) show NC gr  390 1055 m 229 Y s 385 1067 m 5 X s 387 1074 m 3 X s 387 1080 m 3 X s 387 1087 m 3 X s 387 1094 m 3 X s 385 1100 m 5 X s 387 1107 m 3 X s 387
 1114 m 3 X s 387 1120 m 3 X s 387 1127 m 3 X s 385 1133 m 5 X s 387 1140 m 3 X s 387 1147 m 3 X s 387 1153 m 3 X s 387 1160 m 3 X s 385 1167 m 5 X s 387 1173 m 3 X s 387 1180 m 3 X s 387 1187 m 3 X s 387 1193 m 3 X s 385 1200 m 5 X s 387 1206 m 3 X
 s 387 1213 m 3 X s 387 1220 m 3 X s 387 1226 m 3 X s 385 1233 m 5 X s 387 1240 m 3 X s 387 1246 m 3 X s 387 1253 m 3 X s 387 1259 m 3 X s 385 1266 m 5 X s 385 1067 m 5 X s 387 1060 m 3 X s 385 1266 m 5 X s 387 1273 m 3 X s 387 1279 m 3 X s /w 22 def
 /w2 {w 2 div} def /w3 {w 3 div} def 140 1165 196 1175 309 1158 365 1180 4 { m21} R 140 1176 m 73 Y s 134 1249 m 12 X s 140 1154 m -74 Y s 134 1080 m 12 X s 196 1186 m 73 Y s 191 1259 m 11 X s 196 1163 m -73 Y s 191 1090 m 11 X s 309 1170 m 73 Y s
 303 1243 m 12 X s 309 1147 m -73 Y s 303 1074 m 12 X s 365 1191 m 74 Y s 360 1265 m 11 X s 365 1169 m -74 Y s 360 1095 m 11 X s 9 lw 0.95 0.95 0.95 c black 85 1200 m 3 -1 d 4 X 3 -1 d 6 X 3 -1 d 3 X 3 -1 d 3 X 3 -1 d 6 X 3 -1 d 3 X 3 -1 d 6 X 4 -1 d
 3 X 3 -1 d 3 X 3 -1 d 6 X 3 -1 d 3 X 3 -1 d 6 X 3 -1 d 3 X 3 -1 d 7 X 3 -1 d 3 X 3 -1 d 3 X 3 -1 d 6 X 3 -1 d 3 X 3 -1 d 6 X 3 -1 d 3 X 3 -1 d s 235 1179 m 4 X 3 -1 d 6 X 3 -1 d 3 X 3 -1 d 6 X 3 -1 d 3 X 3 -1 d 6 X 3 -1 d 3 X 3 -1 d 4 X 3 -1 d 6 X 3
 -1 d 3 X 3 -1 d 6 X 3 -1 d 3 X 3 -1 d 3 X 3 -1 d 6 X 4 -1 d 3 X 3 -1 d 6 X 3 -1 d 3 X 3 -1 d 6 X 3 -1 d 3 X 3 -1 d 3 X 3 -1 d 3 X s 385 1159 m 4 X s 0.49 0.6 0.82 c black 0.49 0.6 0.82 c
 gsave  408 305 23 1009 C 142.445 1293.4 t 0 r /Helvetica-Bold findfont 25.6831 sf 0 0 m (0.0 < E < 0.5 GeV) show NC gr  0.52 0.76 0.64 c black 0.52 0.76 0.64 c
 gsave  408 305 23 1009 C 122.502 1256.36 t 0 r /Helvetica-Bold findfont 25.6831 sf 0 0 m 
 228 214 200 193 178 171 156 149 134 126 119 105 91 77 69 55 47 39 25 17
(A = \2550.000, p = 1.000) K NC gr  1 0.6 1 c black 1 0.6 1 c
 gsave  408 305 23 1009 C 427.334 1122.46 t 90 r /Helvetica-Bold findfont 28.5368 sf 0 0 m (/dof=0.1) show NC gr  black 1 0.6 1 c
 gsave  408 305 23 1009 C 415.938 1111.07 t 90 r /Helvetica-Bold findfont 19.9758 sf 0 0 m (2) show NC gr  black 1 0.6 1 c
 gsave  408 305 23 1009 C 427.334 1093.97 t 90 r /Symbol findfont 28.5368 sf 0 0 m (c) show NC gr  black 3 lw 1 1 1 c 408 305 476 1009 bf black 1 1 1 c black 307 229 537 1055 bl 307 229 537 1055 bl 537 1055 m 307 X s 537 1059 m -4 Y s 650 1059 m -4 Y
 s 763 1059 m -4 Y s 763 1059 m -4 Y s
 gsave  408 305 476 1009 C 527.045 1034.15 t 0 r /Helvetica findfont 22.8295 sf 0 0 m (0) show NC gr 
 gsave  408 305 476 1009 C 643.849 1034.15 t 0 r /Helvetica findfont 22.8295 sf 0 0 m (1) show NC gr 
 gsave  408 305 476 1009 C 752.107 1034.15 t 0 r /Helvetica findfont 22.8295 sf 0 0 m (2) show NC gr  537 1284 m 307 X s 537 1280 m 4 Y s 650 1280 m 4 Y s 763 1280 m 4 Y s 763 1280 m 4 Y s 537 1055 m 229 Y s 543 1057 m -6 X s 540 1067 m -3 X s 540
 1076 m -3 X s 540 1086 m -3 X s 543 1095 m -6 X s 540 1104 m -3 X s 540 1114 m -3 X s 540 1123 m -3 X s 543 1133 m -6 X s 540 1142 m -3 X s 540 1151 m -3 X s 540 1161 m -3 X s 543 1170 m -6 X s 540 1180 m -3 X s 540 1189 m -3 X s 540 1198 m -3 X s
 543 1208 m -6 X s 540 1217 m -3 X s 540 1227 m -3 X s 540 1236 m -3 X s 543 1245 m -6 X s 540 1255 m -3 X s 540 1264 m -3 X s 540 1274 m -3 X s 543 1283 m -6 X s 543 1057 m -6 X s 543 1283 m -6 X s
 gsave  408 305 476 1009 C 467.218 1051.24 t 0 r /Helvetica findfont 22.8295 sf 0 0 m (\2550.006) show NC gr 
 gsave  408 305 476 1009 C 467.218 1088.28 t 0 r /Helvetica findfont 22.8295 sf 0 0 m (\2550.004) show NC gr 
 gsave  408 305 476 1009 C 467.218 1125.31 t 0 r /Helvetica findfont 22.8295 sf 0 0 m (\2550.002) show NC gr 
 gsave  408 305 476 1009 C 518.498 1162.35 t 0 r /Helvetica findfont 22.8295 sf 0 0 m (0) show NC gr 
 gsave  408 305 476 1009 C 475.765 1199.38 t 0 r /Helvetica findfont 22.8295 sf 0 0 m (0.002) show NC gr 
 gsave  408 305 476 1009 C 475.765 1239.27 t 0 r /Helvetica findfont 22.8295 sf 0 0 m (0.004) show NC gr 
 gsave  408 305 476 1009 C 475.765 1276.3 t 0 r /Helvetica findfont 22.8295 sf 0 0 m (0.006) show NC gr  844 1055 m 229 Y s 838 1057 m 6 X s 841 1067 m 3 X s 841 1076 m 3 X s 841 1086 m 3 X s 838 1095 m 6 X s 841 1104 m 3 X s 841 1114 m 3 X s 841
 1123 m 3 X s 838 1133 m 6 X s 841 1142 m 3 X s 841 1151 m 3 X s 841 1161 m 3 X s 838 1170 m 6 X s 841 1180 m 3 X s 841 1189 m 3 X s 841 1198 m 3 X s 838 1208 m 6 X s 841 1217 m 3 X s 841 1227 m 3 X s 841 1236 m 3 X s 838 1245 m 6 X s 841 1255 m 3 X
 s 841 1264 m 3 X s 841 1274 m 3 X s 838 1283 m 6 X s 838 1057 m 6 X s 838 1283 m 6 X s /w 23 def /w2 {w 2 div} def /w3 {w 3 div} def 594 1131 650 1207 763 1158 819 1177 4 { m21} R 594 1143 m 46 Y s 588 1189 m 11 X s 594 1120 m -46 Y s 588 1074 m 11
 X s 650 1218 m 47 Y s 644 1265 m 12 X s 650 1195 m -46 Y s 644 1149 m 12 X s 763 1169 m 47 Y s 757 1216 m 11 X s 763 1146 m -46 Y s 757 1100 m 11 X s 819 1189 m 46 Y s 813 1235 m 12 X s 819 1166 m -47 Y s 813 1119 m 12 X s 1 0 0 c 9 lw 0.95 0.95
 0.95 c black 1 0 0 c 539 1170 m 95 X 3 1 d 52 X s 689 1171 m 52 X 3 1 d 64 X 3 1 d 28 X s 839 1173 m 3 X s 0.49 0.6 0.82 c black 0.49 0.6 0.82 c
 gsave  408 305 476 1009 C 595.418 1293.4 t 0 r /Helvetica-Bold findfont 25.6831 sf 0 0 m (0.5 < E < 1.0 GeV) show NC gr  0.52 0.76 0.64 c black 0.52 0.76 0.64 c
 gsave  408 305 476 1009 C 581.174 1256.36 t 0 r /Helvetica-Bold findfont 25.6831 sf 0 0 m 
 220 206 192 185 170 163 148 141 125 118 111 97 83 68 61 47 40 25 18
(A = 0.000, p = 2.000) K NC gr  1 0.6 1 c black 1 0.6 1 c
 gsave  408 305 476 1009 C 883.156 1122.46 t 90 r /Helvetica-Bold findfont 28.5368 sf 0 0 m (/dof=0.3) show NC gr  black 1 0.6 1 c
 gsave  408 305 476 1009 C 871.76 1111.07 t 90 r /Helvetica-Bold findfont 19.9758 sf 0 0 m (2) show NC gr  black 1 0.6 1 c
 gsave  408 305 476 1009 C 883.156 1093.97 t 90 r /Symbol findfont 28.5368 sf 0 0 m (c) show NC gr  black 3 lw 1 1 1 c 408 305 930 1009 bf black 1 1 1 c black 306 229 991 1055 bl 306 229 991 1055 bl 991 1055 m 306 X s 991 1059 m -4 Y s 1104 1059 m -4
 Y s 1216 1059 m -4 Y s 1216 1059 m -4 Y s
 gsave  408 305 930 1009 C 980.018 1034.15 t 0 r /Helvetica findfont 22.8295 sf 0 0 m (0) show NC gr 
 gsave  408 305 930 1009 C 1096.82 1034.15 t 0 r /Helvetica findfont 22.8295 sf 0 0 m (1) show NC gr 
 gsave  408 305 930 1009 C 1205.08 1034.15 t 0 r /Helvetica findfont 22.8295 sf 0 0 m (2) show NC gr  991 1284 m 306 X s 991 1280 m 4 Y s 1104 1280 m 4 Y s 1216 1280 m 4 Y s 1216 1280 m 4 Y s 991 1055 m 229 Y s 997 1063 m -6 X s 994 1068 m -3 X s 994
 1072 m -3 X s 994 1077 m -3 X s 994 1082 m -3 X s 997 1087 m -6 X s 994 1092 m -3 X s 994 1096 m -3 X s 994 1101 m -3 X s 994 1106 m -3 X s 997 1111 m -6 X s 994 1115 m -3 X s 994 1120 m -3 X s 994 1125 m -3 X s 994 1130 m -3 X s 997 1134 m -6 X s
 994 1139 m -3 X s 994 1144 m -3 X s 994 1149 m -3 X s 994 1153 m -3 X s 997 1158 m -6 X s 994 1163 m -3 X s 994 1168 m -3 X s 994 1173 m -3 X s 994 1177 m -3 X s 997 1182 m -6 X s 994 1187 m -3 X s 994 1192 m -3 X s 994 1196 m -3 X s 994 1201 m -3 X
 s 997 1206 m -6 X s 994 1211 m -3 X s 994 1215 m -3 X s 994 1220 m -3 X s 994 1225 m -3 X s 997 1230 m -6 X s 994 1235 m -3 X s 994 1239 m -3 X s 994 1244 m -3 X s 994 1249 m -3 X s 997 1254 m -6 X s 994 1258 m -3 X s 994 1263 m -3 X s 994 1268 m -3
 X s 994 1273 m -3 X s 997 1277 m -6 X s 997 1063 m -6 X s 994 1058 m -3 X s 997 1277 m -6 X s 994 1282 m -3 X s
 gsave  408 305 930 1009 C 923.04 1056.94 t 0 r /Helvetica findfont 22.8295 sf 0 0 m (\2550.005) show NC gr 
 gsave  408 305 930 1009 C 923.04 1079.73 t 0 r /Helvetica findfont 22.8295 sf 0 0 m (\2550.004) show NC gr 
 gsave  408 305 930 1009 C 923.04 1102.52 t 0 r /Helvetica findfont 22.8295 sf 0 0 m (\2550.003) show NC gr 
 gsave  408 305 930 1009 C 923.04 1128.16 t 0 r /Helvetica findfont 22.8295 sf 0 0 m (\2550.002) show NC gr 
 gsave  408 305 930 1009 C 925.889 1150.95 t 0 r /Helvetica findfont 22.8295 sf 0 0 m (\2550.001) show NC gr 
 gsave  408 305 930 1009 C 974.32 1173.74 t 0 r /Helvetica findfont 22.8295 sf 0 0 m (0) show NC gr 
 gsave  408 305 930 1009 C 934.436 1199.38 t 0 r /Helvetica findfont 22.8295 sf 0 0 m (0.001) show NC gr 
 gsave  408 305 930 1009 C 931.587 1222.17 t 0 r /Helvetica findfont 22.8295 sf 0 0 m (0.002) show NC gr 
 gsave  408 305 930 1009 C 931.587 1247.81 t 0 r /Helvetica findfont 22.8295 sf 0 0 m (0.003) show NC gr 
 gsave  408 305 930 1009 C 931.587 1270.6 t 0 r /Helvetica findfont 22.8295 sf 0 0 m (0.004) show NC gr  1297 1055 m 229 Y s 1292 1063 m 5 X s 1294 1068 m 3 X s 1294 1072 m 3 X s 1294 1077 m 3 X s 1294 1082 m 3 X s 1292 1087 m 5 X s 1294 1092 m 3 X s
 1294 1096 m 3 X s 1294 1101 m 3 X s 1294 1106 m 3 X s 1292 1111 m 5 X s 1294 1115 m 3 X s 1294 1120 m 3 X s 1294 1125 m 3 X s 1294 1130 m 3 X s 1292 1134 m 5 X s 1294 1139 m 3 X s 1294 1144 m 3 X s 1294 1149 m 3 X s 1294 1153 m 3 X s 1292 1158 m 5 X
 s 1294 1163 m 3 X s 1294 1168 m 3 X s 1294 1173 m 3 X s 1294 1177 m 3 X s 1292 1182 m 5 X s 1294 1187 m 3 X s 1294 1192 m 3 X s 1294 1196 m 3 X s 1294 1201 m 3 X s 1292 1206 m 5 X s 1294 1211 m 3 X s 1294 1215 m 3 X s 1294 1220 m 3 X s 1294 1225 m 3
 X s 1292 1230 m 5 X s 1294 1235 m 3 X s 1294 1239 m 3 X s 1294 1244 m 3 X s 1294 1249 m 3 X s 1292 1254 m 5 X s 1294 1258 m 3 X s 1294 1263 m 3 X s 1294 1268 m 3 X s 1294 1273 m 3 X s 1292 1277 m 5 X s 1292 1063 m 5 X s 1294 1058 m 3 X s 1292 1277 m
 5 X s 1294 1282 m 3 X s 1047 1192 1104 1172 1216 1147 1272 1163 4 { m21} R 1047 1203 m 62 Y s 1042 1265 m 11 X s 1047 1181 m -62 Y s 1042 1119 m 11 X s 1104 1184 m 61 Y s 1098 1245 m 11 X s 1104 1161 m -61 Y s 1098 1100 m 11 X s 1216 1158 m 61 Y s
 1210 1219 m 12 X s 1216 1135 m -61 Y s 1210 1074 m 12 X s 1272 1174 m 62 Y s 1267 1236 m 11 X s 1272 1151 m -61 Y s 1267 1090 m 11 X s 9 lw 0.95 0.95 0.95 c black 993 1182 m 3 X 3 -1 d 6 X 3 -1 d 9 X 3 -1 d 6 X 3 -1 d 9 X 4 -1 d 6 X 3 -1 d 6 X 3 -1
 d 9 X 3 -1 d 6 X 3 -1 d 9 X 4 -1 d 6 X 3 -1 d 6 X 3 -1 d 9 X 3 -1 d 6 X 3 -1 d 10 X s 1143 1168 m 3 -1 d 6 X 3 -1 d 6 X 3 -1 d 9 X 3 -1 d 6 X 3 -1 d 10 X 3 -1 d 6 X 3 -1 d 6 X 3 -1 d 9 X 3 -1 d 6 X 3 -1 d 10 X 3 -1 d 6 X 3 -1 d 6 X 3 -1 d 9 X 3 -1 d
 6 X 3 -1 d 4 X s 1293 1153 m 3 X s 0.49 0.6 0.82 c black 0.49 0.6 0.82 c
 gsave  408 305 930 1009 C 1051.24 1293.4 t 0 r /Helvetica-Bold findfont 25.6831 sf 0 0 m (1.0 < E < 1.5 GeV) show NC gr  0.52 0.76 0.64 c black 0.52 0.76 0.64 c
 gsave  408 305 930 1009 C 1031.3 1256.36 t 0 r /Helvetica-Bold findfont 25.6831 sf 0 0 m 
 228 214 200 193 178 171 156 149 133 126 119 105 91 77 69 55 47 39 25 17
(A = \2550.000, p = 1.000) K NC gr  1 0.6 1 c black 1 0.6 1 c
 gsave  408 305 930 1009 C 1336.13 1122.46 t 90 r /Helvetica-Bold findfont 28.5368 sf 0 0 m (/dof=0.0) show NC gr  black 1 0.6 1 c
 gsave  408 305 930 1009 C 1324.73 1111.07 t 90 r /Helvetica-Bold findfont 19.9758 sf 0 0 m (2) show NC gr  black 1 0.6 1 c
 gsave  408 305 930 1009 C 1336.13 1093.97 t 90 r /Symbol findfont 28.5368 sf 0 0 m (c) show NC gr  black 3 lw 1 1 1 c 408 305 1383 1009 bf black 1 1 1 c black 306 229 1445 1055 bl 306 229 1445 1055 bl 1445 1055 m 306 X s 1445 1059 m -4 Y s 1557 1059
 m -4 Y s 1670 1059 m -4 Y s 1670 1059 m -4 Y s
 gsave  408 305 1383 1009 C 1435.84 1034.15 t 0 r /Helvetica findfont 22.8295 sf 0 0 m (0) show NC gr 
 gsave  408 305 1383 1009 C 1549.8 1034.15 t 0 r /Helvetica findfont 22.8295 sf 0 0 m (1) show NC gr 
 gsave  408 305 1383 1009 C 1660.9 1034.15 t 0 r /Helvetica findfont 22.8295 sf 0 0 m (2) show NC gr  1445 1284 m 306 X s 1445 1280 m 4 Y s 1557 1280 m 4 Y s 1670 1280 m 4 Y s 1670 1280 m 4 Y s 1445 1055 m 229 Y s 1450 1060 m -5 X s 1447 1065 m -2 X
 s 1447 1070 m -2 X s 1447 1076 m -2 X s 1447 1081 m -2 X s 1450 1086 m -5 X s 1447 1092 m -2 X s 1447 1097 m -2 X s 1447 1102 m -2 X s 1447 1107 m -2 X s 1450 1113 m -5 X s 1447 1118 m -2 X s 1447 1123 m -2 X s 1447 1129 m -2 X s 1447 1134 m -2 X s
 1450 1139 m -5 X s 1447 1144 m -2 X s 1447 1150 m -2 X s 1447 1155 m -2 X s 1447 1160 m -2 X s 1450 1166 m -5 X s 1447 1171 m -2 X s 1447 1176 m -2 X s 1447 1181 m -2 X s 1447 1187 m -2 X s 1450 1192 m -5 X s 1447 1197 m -2 X s 1447 1203 m -2 X s
 1447 1208 m -2 X s 1447 1213 m -2 X s 1450 1218 m -5 X s 1447 1224 m -2 X s 1447 1229 m -2 X s 1447 1234 m -2 X s 1447 1240 m -2 X s 1450 1245 m -5 X s 1447 1250 m -2 X s 1447 1255 m -2 X s 1447 1261 m -2 X s 1447 1266 m -2 X s 1450 1271 m -5 X s
 1450 1060 m -5 X s 1450 1271 m -5 X s 1447 1277 m -2 X s 1447 1282 m -2 X s
 gsave  408 305 1383 1009 C 1376.01 1054.09 t 0 r /Helvetica findfont 22.8295 sf 0 0 m (\2550.004) show NC gr 
 gsave  408 305 1383 1009 C 1376.01 1079.73 t 0 r /Helvetica findfont 22.8295 sf 0 0 m (\2550.003) show NC gr 
 gsave  408 305 1383 1009 C 1376.01 1105.37 t 0 r /Helvetica findfont 22.8295 sf 0 0 m (\2550.002) show NC gr 
 gsave  408 305 1383 1009 C 1378.86 1131.01 t 0 r /Helvetica findfont 22.8295 sf 0 0 m (\2550.001) show NC gr 
 gsave  408 305 1383 1009 C 1427.29 1159.5 t 0 r /Helvetica findfont 22.8295 sf 0 0 m (0) show NC gr 
 gsave  408 305 1383 1009 C 1387.41 1185.14 t 0 r /Helvetica findfont 22.8295 sf 0 0 m (0.001) show NC gr 
 gsave  408 305 1383 1009 C 1384.56 1210.78 t 0 r /Helvetica findfont 22.8295 sf 0 0 m (0.002) show NC gr 
 gsave  408 305 1383 1009 C 1384.56 1236.42 t 0 r /Helvetica findfont 22.8295 sf 0 0 m (0.003) show NC gr 
 gsave  408 305 1383 1009 C 1384.56 1264.91 t 0 r /Helvetica findfont 22.8295 sf 0 0 m (0.004) show NC gr  1751 1055 m 229 Y s 1745 1060 m 6 X s 1748 1065 m 3 X s 1748 1070 m 3 X s 1748 1076 m 3 X s 1748 1081 m 3 X s 1745 1086 m 6 X s 1748 1092 m 3 X
 s 1748 1097 m 3 X s 1748 1102 m 3 X s 1748 1107 m 3 X s 1745 1113 m 6 X s 1748 1118 m 3 X s 1748 1123 m 3 X s 1748 1129 m 3 X s 1748 1134 m 3 X s 1745 1139 m 6 X s 1748 1144 m 3 X s 1748 1150 m 3 X s 1748 1155 m 3 X s 1748 1160 m 3 X s 1745 1166 m 6
 X s 1748 1171 m 3 X s 1748 1176 m 3 X s 1748 1181 m 3 X s 1748 1187 m 3 X s 1745 1192 m 6 X s 1748 1197 m 3 X s 1748 1203 m 3 X s 1748 1208 m 3 X s 1748 1213 m 3 X s 1745 1218 m 6 X s 1748 1224 m 3 X s 1748 1229 m 3 X s 1748 1234 m 3 X s 1748 1240 m
 3 X s 1745 1245 m 6 X s 1748 1250 m 3 X s 1748 1255 m 3 X s 1748 1261 m 3 X s 1748 1266 m 3 X s 1745 1271 m 6 X s 1745 1060 m 6 X s 1745 1271 m 6 X s 1748 1277 m 3 X s 1748 1282 m 3 X s 1501 1178 1557 1156 1670 1180 1726 1182 4 { m21} R 1501 1189 m
 71 Y s 1495 1260 m 12 X s 1501 1166 m -70 Y s 1495 1096 m 12 X s 1557 1167 m 71 Y s 1551 1238 m 12 X s 1557 1145 m -71 Y s 1551 1074 m 12 X s 1670 1191 m 71 Y s 1664 1262 m 11 X s 1670 1168 m -71 Y s 1664 1097 m 11 X s 1726 1194 m 71 Y s 1720 1265 m
 12 X s 1726 1171 m -71 Y s 1720 1100 m 12 X s 1 0 0 c 9 lw 0.95 0.95 0.95 c black 1 0 0 c 1446 1166 m 64 X 3 1 d 25 X 3 1 d 18 X 3 1 d 16 X 3 1 d 12 X 3 1 d s 1596 1171 m 12 X 3 1 d 10 X 3 1 d 9 X 3 1 d 9 X 3 1 d 9 X 3 1 d 6 X 4 1 d 9 X 3 1 d 6 X 3
 1 d 6 X 3 1 d 6 X 3 1 d 3 X 3 1 d 7 X 3 1 d 6 X 3 1 d 3 X 3 1 d 6 X s 1746 1185 m 3 1 d s 0.49 0.6 0.82 c black 0.49 0.6 0.82 c
 gsave  408 305 1383 1009 C 1504.21 1293.4 t 0 r /Helvetica-Bold findfont 25.6831 sf 0 0 m (1.5 < E < 2.0 GeV) show NC gr  0.52 0.76 0.64 c black 0.52 0.76 0.64 c
 gsave  408 305 1383 1009 C 1489.97 1256.36 t 0 r /Helvetica-Bold findfont 25.6831 sf 0 0 m 
 220 206 192 185 170 163 148 141 126 118 111 97 83 69 61 47 40 25 18
(A = 0.000, p = 2.000) K NC gr  1 0.6 1 c black 1 0.6 1 c
 gsave  408 305 1383 1009 C 1789.1 1122.46 t 90 r /Helvetica-Bold findfont 28.5368 sf 0 0 m (/dof=0.0) show NC gr  black 1 0.6 1 c
 gsave  408 305 1383 1009 C 1777.71 1111.07 t 90 r /Helvetica-Bold findfont 19.9758 sf 0 0 m (2) show NC gr  black 1 0.6 1 c
 gsave  408 305 1383 1009 C 1789.1 1093.97 t 90 r /Symbol findfont 28.5368 sf 0 0 m (c) show NC gr  black 3 lw 1 1 1 c 408 305 1837 1009 bf black 1 1 1 c black 306 229 1898 1055 bl 306 229 1898 1055 bl 1898 1055 m 306 X s 1898 1059 m -4 Y s 2011 1059
 m -4 Y s 2123 1059 m -4 Y s 2123 1059 m -4 Y s
 gsave  408 305 1837 1009 C 1888.81 1034.15 t 0 r /Helvetica findfont 22.8295 sf 0 0 m (0) show NC gr 
 gsave  408 305 1837 1009 C 2002.77 1034.15 t 0 r /Helvetica findfont 22.8295 sf 0 0 m (1) show NC gr 
 gsave  408 305 1837 1009 C 2113.88 1034.15 t 0 r /Helvetica findfont 22.8295 sf 0 0 m (2) show NC gr  1898 1284 m 306 X s 1898 1280 m 4 Y s 2011 1280 m 4 Y s 2123 1280 m 4 Y s 2123 1280 m 4 Y s 1898 1055 m 229 Y s 1904 1068 m -6 X s 1901 1073 m -3 X
 s 1901 1078 m -3 X s 1901 1083 m -3 X s 1901 1087 m -3 X s 1904 1092 m -6 X s 1901 1097 m -3 X s 1901 1102 m -3 X s 1901 1107 m -3 X s 1901 1112 m -3 X s 1904 1117 m -6 X s 1901 1121 m -3 X s 1901 1126 m -3 X s 1901 1131 m -3 X s 1901 1136 m -3 X s
 1904 1141 m -6 X s 1901 1146 m -3 X s 1901 1150 m -3 X s 1901 1155 m -3 X s 1901 1160 m -3 X s 1904 1165 m -6 X s 1901 1170 m -3 X s 1901 1175 m -3 X s 1901 1180 m -3 X s 1901 1184 m -3 X s 1904 1189 m -6 X s 1901 1194 m -3 X s 1901 1199 m -3 X s
 1901 1204 m -3 X s 1901 1209 m -3 X s 1904 1214 m -6 X s 1901 1218 m -3 X s 1901 1223 m -3 X s 1901 1228 m -3 X s 1901 1233 m -3 X s 1904 1238 m -6 X s 1901 1243 m -3 X s 1901 1248 m -3 X s 1901 1252 m -3 X s 1901 1257 m -3 X s 1904 1262 m -6 X s
 1904 1068 m -6 X s 1901 1063 m -3 X s 1901 1058 m -3 X s 1904 1262 m -6 X s 1901 1267 m -3 X s 1901 1272 m -3 X s 1901 1277 m -3 X s 1901 1282 m -3 X s
 gsave  408 305 1837 1009 C 1828.99 1059.79 t 0 r /Helvetica findfont 22.8295 sf 0 0 m (\2550.004) show NC gr 
 gsave  408 305 1837 1009 C 1828.99 1085.43 t 0 r /Helvetica findfont 22.8295 sf 0 0 m (\2550.003) show NC gr 
 gsave  408 305 1837 1009 C 1828.99 1108.22 t 0 r /Helvetica findfont 22.8295 sf 0 0 m (\2550.002) show NC gr 
 gsave  408 305 1837 1009 C 1831.84 1133.86 t 0 r /Helvetica findfont 22.8295 sf 0 0 m (\2550.001) show NC gr 
 gsave  408 305 1837 1009 C 1880.27 1156.65 t 0 r /Helvetica findfont 22.8295 sf 0 0 m (0) show NC gr 
 gsave  408 305 1837 1009 C 1840.38 1182.29 t 0 r /Helvetica findfont 22.8295 sf 0 0 m (0.001) show NC gr 
 gsave  408 305 1837 1009 C 1837.53 1205.08 t 0 r /Helvetica findfont 22.8295 sf 0 0 m (0.002) show NC gr 
 gsave  408 305 1837 1009 C 1837.53 1230.72 t 0 r /Helvetica findfont 22.8295 sf 0 0 m (0.003) show NC gr 
 gsave  408 305 1837 1009 C 1837.53 1256.36 t 0 r /Helvetica findfont 22.8295 sf 0 0 m (0.004) show NC gr  2204 1055 m 229 Y s 2199 1068 m 5 X s 2201 1073 m 3 X s 2201 1078 m 3 X s 2201 1083 m 3 X s 2201 1087 m 3 X s 2199 1092 m 5 X s 2201 1097 m 3 X
 s 2201 1102 m 3 X s 2201 1107 m 3 X s 2201 1112 m 3 X s 2199 1117 m 5 X s 2201 1121 m 3 X s 2201 1126 m 3 X s 2201 1131 m 3 X s 2201 1136 m 3 X s 2199 1141 m 5 X s 2201 1146 m 3 X s 2201 1150 m 3 X s 2201 1155 m 3 X s 2201 1160 m 3 X s 2199 1165 m 5
 X s 2201 1170 m 3 X s 2201 1175 m 3 X s 2201 1180 m 3 X s 2201 1184 m 3 X s 2199 1189 m 5 X s 2201 1194 m 3 X s 2201 1199 m 3 X s 2201 1204 m 3 X s 2201 1209 m 3 X s 2199 1214 m 5 X s 2201 1218 m 3 X s 2201 1223 m 3 X s 2201 1228 m 3 X s 2201 1233 m
 3 X s 2199 1238 m 5 X s 2201 1243 m 3 X s 2201 1248 m 3 X s 2201 1252 m 3 X s 2201 1257 m 3 X s 2199 1262 m 5 X s 2199 1068 m 5 X s 2201 1063 m 3 X s 2201 1058 m 3 X s 2199 1262 m 5 X s 2201 1267 m 3 X s 2201 1272 m 3 X s 2201 1277 m 3 X s 2201 1282
 m 3 X s 1954 1185 2011 1153 2123 1168 2179 1162 4 { m21} R 1954 1197 m 68 Y s 1949 1265 m 11 X s 1954 1174 m -68 Y s 1949 1106 m 11 X s 2011 1165 m 68 Y s 2005 1233 m 11 X s 2011 1142 m -68 Y s 2005 1074 m 11 X s 2123 1179 m 68 Y s 2117 1247 m 12 X
 s 2123 1156 m -68 Y s 2117 1088 m 12 X s 2179 1173 m 68 Y s 2174 1241 m 11 X s 2179 1151 m -68 Y s 2174 1083 m 11 X s 1 0 0 c 9 lw 0.95 0.95 0.95 c black 1 0 0 c 1900 1165 m 150 X s 2050 1165 m 6 X 3 -1 d 104 X 3 -1 d 34 X s 2200 1163 m 3 X s 0.49
 0.6 0.82 c black 0.49 0.6 0.82 c
 gsave  408 305 1837 1009 C 1957.19 1293.4 t 0 r /Helvetica-Bold findfont 25.6831 sf 0 0 m (2.0 < E < 2.5 GeV) show NC gr  0.52 0.76 0.64 c black 0.52 0.76 0.64 c
 gsave  408 305 1837 1009 C 1937.25 1256.36 t 0 r /Helvetica-Bold findfont 25.6831 sf 0 0 m 
 228 214 200 193 178 171 156 149 133 126 119 105 91 77 69 55 47 39 25 17
(A = \2550.000, p = 2.000) K NC gr  1 0.6 1 c black 1 0.6 1 c
 gsave  408 305 1837 1009 C 2242.08 1122.46 t 90 r /Helvetica-Bold findfont 28.5368 sf 0 0 m (/dof=0.0) show NC gr  black 1 0.6 1 c
 gsave  408 305 1837 1009 C 2230.68 1111.07 t 90 r /Helvetica-Bold findfont 19.9758 sf 0 0 m (2) show NC gr  black 1 0.6 1 c
 gsave  408 305 1837 1009 C 2242.08 1093.97 t 90 r /Symbol findfont 28.5368 sf 0 0 m (c) show NC gr  black 3 lw 1 1 1 c 408 305 23 677 bf black 1 1 1 c black 306 229 84 723 bl 306 229 84 723 bl 84 723 m 306 X s 84 727 m -4 Y s 196 727 m -4 Y s 309
 727 m -4 Y s 309 727 m -4 Y s
 gsave  408 305 23 677 C 74.0711 703.676 t 0 r /Helvetica findfont 22.8295 sf 0 0 m (0) show NC gr 
 gsave  408 305 23 677 C 188.027 703.676 t 0 r /Helvetica findfont 22.8295 sf 0 0 m (1) show NC gr 
 gsave  408 305 23 677 C 299.133 703.676 t 0 r /Helvetica findfont 22.8295 sf 0 0 m (2) show NC gr  84 952 m 306 X s 84 948 m 4 Y s 196 948 m 4 Y s 309 948 m 4 Y s 309 948 m 4 Y s 84 723 m 229 Y s 89 734 m -5 X s 87 742 m -3 X s 87 750 m -3 X s 87
 758 m -3 X s 89 766 m -5 X s 87 774 m -3 X s 87 782 m -3 X s 87 790 m -3 X s 89 798 m -5 X s 87 806 m -3 X s 87 815 m -3 X s 87 823 m -3 X s 89 831 m -5 X s 87 839 m -3 X s 87 847 m -3 X s 87 855 m -3 X s 89 863 m -5 X s 87 871 m -3 X s 87 879 m -3
 X s 87 887 m -3 X s 89 895 m -5 X s 87 904 m -3 X s 87 912 m -3 X s 87 920 m -3 X s 89 928 m -5 X s 89 734 m -5 X s 87 726 m -3 X s 89 928 m -5 X s 87 936 m -3 X s 87 944 m -3 X s
 gsave  408 305 23 677 C 14.2445 726.467 t 0 r /Helvetica findfont 22.8295 sf 0 0 m (\2550.008) show NC gr 
 gsave  408 305 23 677 C 14.2445 757.805 t 0 r /Helvetica findfont 22.8295 sf 0 0 m (\2550.006) show NC gr 
 gsave  408 305 23 677 C 14.2445 791.991 t 0 r /Helvetica findfont 22.8295 sf 0 0 m (\2550.004) show NC gr 
 gsave  408 305 23 677 C 14.2445 823.329 t 0 r /Helvetica findfont 22.8295 sf 0 0 m (\2550.002) show NC gr 
 gsave  408 305 23 677 C 65.5245 854.667 t 0 r /Helvetica findfont 22.8295 sf 0 0 m (0) show NC gr 
 gsave  408 305 23 677 C 22.7911 888.854 t 0 r /Helvetica findfont 22.8295 sf 0 0 m (0.002) show NC gr 
 gsave  408 305 23 677 C 22.7911 920.192 t 0 r /Helvetica findfont 22.8295 sf 0 0 m (0.004) show NC gr  390 723 m 229 Y s 385 734 m 5 X s 387 742 m 3 X s 387 750 m 3 X s 387 758 m 3 X s 385 766 m 5 X s 387 774 m 3 X s 387 782 m 3 X s 387 790 m 3 X s
 385 798 m 5 X s 387 806 m 3 X s 387 815 m 3 X s 387 823 m 3 X s 385 831 m 5 X s 387 839 m 3 X s 387 847 m 3 X s 387 855 m 3 X s 385 863 m 5 X s 387 871 m 3 X s 387 879 m 3 X s 387 887 m 3 X s 385 895 m 5 X s 387 904 m 3 X s 387 912 m 3 X s 387 920 m
 3 X s 385 928 m 5 X s 385 734 m 5 X s 387 726 m 3 X s 385 928 m 5 X s 387 936 m 3 X s 387 944 m 3 X s /w 22 def /w2 {w 2 div} def /w3 {w 3 div} def 140 876 196 848 309 799 365 814 4 { m21} R 140 887 m 46 Y s 134 933 m 12 X s 140 864 m -45 Y s 134
 819 m 12 X s 196 859 m 46 Y s 191 905 m 11 X s 196 836 m -46 Y s 191 790 m 11 X s 309 811 m 45 Y s 303 856 m 12 X s 309 788 m -46 Y s 303 742 m 12 X s 365 826 m 46 Y s 360 872 m 11 X s 365 803 m -46 Y s 360 757 m 11 X s 1 0 0 c 9 lw 0.95 0.95 0.95 c
 black 1 0 0 c 85 863 m 25 X 3 -1 d 15 X 3 -1 d 10 X 3 -1 d 6 X 3 -1 d 6 X 3 -1 d 3 X 3 -1 d 6 X 3 -1 d 3 X 3 -1 d 3 X 4 -1 d 3 X 3 -1 d 3 -1 d 3 X 3 -1 d 3 X 3 -1 d 3 -1 d 3 X 3 -1 d 3 -1 d 3 X 3 -1 d 3 -1 d 3 X s 235 845 m 4 -1 d 3 -1 d 3 -1 d 3 -1
 d 3 X 3 -1 d 3 -1 d 3 -1 d 3 -1 d 3 -1 d 3 -1 d 3 X 3 -1 d 3 -1 d 3 -1 d 3 -1 d 3 -1 d 4 -1 d 3 -1 d 3 -1 d 3 -1 d 3 -2 d 3 -1 d 3 -1 d 3 -1 d 3 -1 d 3 -1 d 3 -1 d 3 -1 d 3 -2 d 3 -1 d 3 -1 d 3 -1 d 4 -2 d 3 -1 d 3 -1 d 3 -1 d 3 -2 d 3 -1 d 3 -1 d 3
 -2 d 3 -1 d 3 -2 d 3 -1 d 3 -1 d 3 -2 d 3 -1 d 3 -2 d 3 -1 d s 385 790 m 4 -2 d s 0.49 0.6 0.82 c black 0.49 0.6 0.82 c
 gsave  408 305 23 677 C 142.445 960.076 t 0 r /Helvetica-Bold findfont 25.6831 sf 0 0 m (2.5 < E < 3.0 GeV) show NC gr  0.52 0.76 0.64 c black 0.52 0.76 0.64 c
 gsave  408 305 23 677 C 122.502 923.04 t 0 r /Helvetica-Bold findfont 25.6831 sf 0 0 m 
 228 214 200 193 178 171 156 149 134 126 119 105 91 77 69 55 47 39 25 17
(A = \2550.001, p = 2.000) K NC gr  1 0.6 1 c black 1 0.6 1 c
 gsave  408 305 23 677 C 427.334 791.991 t 90 r /Helvetica-Bold findfont 28.5368 sf 0 0 m (/dof=0.1) show NC gr  black 1 0.6 1 c
 gsave  408 305 23 677 C 415.938 780.596 t 90 r /Helvetica-Bold findfont 19.9758 sf 0 0 m (2) show NC gr  black 1 0.6 1 c
 gsave  408 305 23 677 C 427.334 763.503 t 90 r /Symbol findfont 28.5368 sf 0 0 m (c) show NC gr  black 3 lw 1 1 1 c 408 305 476 677 bf black 1 1 1 c black 307 229 537 723 bl 307 229 537 723 bl 537 723 m 307 X s 537 727 m -4 Y s 650 727 m -4 Y s 763
 727 m -4 Y s 763 727 m -4 Y s
 gsave  408 305 476 677 C 527.045 703.676 t 0 r /Helvetica findfont 22.8295 sf 0 0 m (0) show NC gr 
 gsave  408 305 476 677 C 643.849 703.676 t 0 r /Helvetica findfont 22.8295 sf 0 0 m (1) show NC gr 
 gsave  408 305 476 677 C 752.107 703.676 t 0 r /Helvetica findfont 22.8295 sf 0 0 m (2) show NC gr  537 952 m 307 X s 537 948 m 4 Y s 650 948 m 4 Y s 763 948 m 4 Y s 763 948 m 4 Y s 537 723 m 229 Y s 543 755 m -6 X s 540 765 m -3 X s 540 775 m -3 X
 s 540 785 m -3 X s 543 795 m -6 X s 540 805 m -3 X s 540 815 m -3 X s 540 825 m -3 X s 543 835 m -6 X s 540 845 m -3 X s 540 855 m -3 X s 540 865 m -3 X s 543 875 m -6 X s 540 885 m -3 X s 540 895 m -3 X s 540 905 m -3 X s 543 915 m -6 X s 543 755 m
 -6 X s 540 745 m -3 X s 540 735 m -3 X s 540 725 m -3 X s 543 915 m -6 X s 540 925 m -3 X s 540 935 m -3 X s 540 945 m -3 X s
 gsave  408 305 476 677 C 467.218 746.409 t 0 r /Helvetica findfont 22.8295 sf 0 0 m (\2550.008) show NC gr 
 gsave  408 305 476 677 C 467.218 786.294 t 0 r /Helvetica findfont 22.8295 sf 0 0 m (\2550.006) show NC gr 
 gsave  408 305 476 677 C 467.218 826.178 t 0 r /Helvetica findfont 22.8295 sf 0 0 m (\2550.004) show NC gr 
 gsave  408 305 476 677 C 467.218 866.063 t 0 r /Helvetica findfont 22.8295 sf 0 0 m (\2550.002) show NC gr 
 gsave  408 305 476 677 C 518.498 908.796 t 0 r /Helvetica findfont 22.8295 sf 0 0 m (0) show NC gr  844 723 m 229 Y s 838 755 m 6 X s 841 765 m 3 X s 841 775 m 3 X s 841 785 m 3 X s 838 795 m 6 X s 841 805 m 3 X s 841 815 m 3 X s 841 825 m 3 X s 838
 835 m 6 X s 841 845 m 3 X s 841 855 m 3 X s 841 865 m 3 X s 838 875 m 6 X s 841 885 m 3 X s 841 895 m 3 X s 841 905 m 3 X s 838 915 m 6 X s 838 755 m 6 X s 841 745 m 3 X s 841 735 m 3 X s 841 725 m 3 X s 838 915 m 6 X s 841 925 m 3 X s 841 935 m 3 X
 s 841 945 m 3 X s /w 23 def /w2 {w 2 div} def /w3 {w 3 div} def 594 852 650 853 763 822 819 824 4 { m21} R 594 864 m 68 Y s 588 932 m 11 X s 594 841 m -69 Y s 588 772 m 11 X s 650 864 m 69 Y s 644 933 m 12 X s 650 842 m -69 Y s 644 773 m 12 X s 763
 834 m 69 Y s 757 903 m 11 X s 763 811 m -69 Y s 757 742 m 11 X s 819 836 m 68 Y s 813 904 m 12 X s 819 813 m -69 Y s 813 744 m 12 X s 9 lw 0.95 0.95 0.95 c black 539 914 m 3 -1 d 3 -1 d 3 -2 d 3 -1 d 3 -1 d 3 -1 d 3 -1 d 3 -2 d 4 -1 d 3 -1 d 3 -1 d
 3 -1 d 3 -1 d 3 -2 d 3 -1 d 3 -1 d 3 -1 d 3 -1 d 3 -2 d 3 -1 d 3 -1 d 3 -1 d 3 -1 d 3 -2 d 4 -1 d 3 -1 d 3 -1 d 3 -1 d 3 -2 d 3 -1 d 3 -1 d 3 -1 d 3 -1 d 3 -1 d 3 -2 d 3 -1 d 3 -1 d 3 -1 d 3 -1 d 3 -2 d 3 -1 d 4 -1 d 3 -1 d 3 -1 d 3 -2 d 3 -1 d 3 -1
 d 3 -1 d 3 -1 d s 689 856 m 3 -2 d 3 -1 d 3 -1 d 3 -1 d 3 -1 d 3 -1 d 3 -2 d 3 -1 d 4 -1 d 3 -1 d 3 -1 d 3 -2 d 3 -1 d 3 -1 d 3 -1 d 3 -1 d 3 -2 d 3 -1 d 3 -1 d 3 -1 d 3 -1 d 3 -2 d 3 -1 d 3 -1 d 4 -1 d 3 -1 d 3 -1 d 3 -2 d 3 -1 d 3 -1 d 3 -1 d 3 -1
 d 3 -2 d 3 -1 d 3 -1 d 3 -1 d 3 -1 d 3 -2 d 3 -1 d 3 -1 d 4 -1 d 3 -1 d 3 -2 d 3 -1 d 3 -1 d 3 -1 d 3 -1 d 3 -1 d 3 -2 d s 839 797 m 3 -1 d s 0.49 0.6 0.82 c black 0.49 0.6 0.82 c
 gsave  408 305 476 677 C 595.418 960.076 t 0 r /Helvetica-Bold findfont 25.6831 sf 0 0 m (3.0 < E < 3.5 GeV) show NC gr  0.52 0.76 0.64 c black 0.52 0.76 0.64 c
 gsave  408 305 476 677 C 575.476 923.04 t 0 r /Helvetica-Bold findfont 25.6831 sf 0 0 m 
 228 214 200 193 178 171 156 149 133 126 119 105 91 76 69 55 47 39 25 17
(A = \2550.002, p = 1.000) K NC gr  1 0.6 1 c black 1 0.6 1 c
 gsave  408 305 476 677 C 883.156 791.991 t 90 r /Helvetica-Bold findfont 28.5368 sf 0 0 m (/dof=0.1) show NC gr  black 1 0.6 1 c
 gsave  408 305 476 677 C 871.76 780.596 t 90 r /Helvetica-Bold findfont 19.9758 sf 0 0 m (2) show NC gr  black 1 0.6 1 c
 gsave  408 305 476 677 C 883.156 763.503 t 90 r /Symbol findfont 28.5368 sf 0 0 m (c) show NC gr  black 3 lw 1 1 1 c 408 305 930 677 bf black 1 1 1 c black 306 229 991 723 bl 306 229 991 723 bl 991 723 m 306 X s 991 727 m -4 Y s 1104 727 m -4 Y s
 1216 727 m -4 Y s 1216 727 m -4 Y s
 gsave  408 305 930 677 C 980.018 703.676 t 0 r /Helvetica findfont 22.8295 sf 0 0 m (0) show NC gr 
 gsave  408 305 930 677 C 1096.82 703.676 t 0 r /Helvetica findfont 22.8295 sf 0 0 m (1) show NC gr 
 gsave  408 305 930 677 C 1205.08 703.676 t 0 r /Helvetica findfont 22.8295 sf 0 0 m (2) show NC gr  991 952 m 306 X s 991 948 m 4 Y s 1104 948 m 4 Y s 1216 948 m 4 Y s 1216 948 m 4 Y s 991 723 m 229 Y s 997 754 m -6 X s 994 763 m -3 X s 994 771 m -3
 X s 994 780 m -3 X s 994 789 m -3 X s 997 798 m -6 X s 994 807 m -3 X s 994 816 m -3 X s 994 825 m -3 X s 994 834 m -3 X s 997 842 m -6 X s 994 851 m -3 X s 994 860 m -3 X s 994 869 m -3 X s 994 878 m -3 X s 997 887 m -6 X s 994 896 m -3 X s 994 905
 m -3 X s 994 913 m -3 X s 994 922 m -3 X s 997 931 m -6 X s 997 754 m -6 X s 994 745 m -3 X s 994 736 m -3 X s 994 727 m -3 X s 997 931 m -6 X s 994 940 m -3 X s 994 949 m -3 X s
 gsave  408 305 930 677 C 940.134 746.409 t 0 r /Helvetica findfont 22.8295 sf 0 0 m (\2550.01) show NC gr 
 gsave  408 305 930 677 C 923.04 791.991 t 0 r /Helvetica findfont 22.8295 sf 0 0 m (\2550.005) show NC gr 
 gsave  408 305 930 677 C 974.32 834.725 t 0 r /Helvetica findfont 22.8295 sf 0 0 m (0) show NC gr 
 gsave  408 305 930 677 C 931.587 880.307 t 0 r /Helvetica findfont 22.8295 sf 0 0 m (0.005) show NC gr 
 gsave  408 305 930 677 C 945.832 923.04 t 0 r /Helvetica findfont 22.8295 sf 0 0 m (0.01) show NC gr  1297 723 m 229 Y s 1292 754 m 5 X s 1294 763 m 3 X s 1294 771 m 3 X s 1294 780 m 3 X s 1294 789 m 3 X s 1292 798 m 5 X s 1294 807 m 3 X s 1294 816
 m 3 X s 1294 825 m 3 X s 1294 834 m 3 X s 1292 842 m 5 X s 1294 851 m 3 X s 1294 860 m 3 X s 1294 869 m 3 X s 1294 878 m 3 X s 1292 887 m 5 X s 1294 896 m 3 X s 1294 905 m 3 X s 1294 913 m 3 X s 1294 922 m 3 X s 1292 931 m 5 X s 1292 754 m 5 X s
 1294 745 m 3 X s 1294 736 m 3 X s 1294 727 m 3 X s 1292 931 m 5 X s 1294 940 m 3 X s 1294 949 m 3 X s 1047 889 1104 855 1216 813 1272 785 4 { m21} R 1047 901 m 32 Y s 1042 933 m 11 X s 1047 878 m -33 Y s 1042 845 m 11 X s 1104 867 m 32 Y s 1098 899
 m 11 X s 1104 844 m -32 Y s 1098 812 m 11 X s 1216 825 m 32 Y s 1210 857 m 12 X s 1216 802 m -32 Y s 1210 770 m 12 X s 1272 797 m 31 Y s 1267 828 m 11 X s 1272 774 m -32 Y s 1267 742 m 11 X s 1 0 0 c 9 lw 0.95 0.95 0.95 c black 1 0 0 c 993 842 m 36
 X 3 -1 d 13 X 3 -1 d 9 X 3 -1 d 9 X 3 -1 d 6 X 3 -1 d 6 X 3 -1 d 4 X 3 -1 d 6 X 3 -1 d 3 X 3 -1 d 3 X 3 -1 d 3 X 3 -1 d 3 X 3 -1 d 3 X 3 -1 d 3 -1 d 4 X s 1143 828 m 3 -1 d 3 X 3 -1 d 3 -1 d 3 X 3 -1 d 3 -1 d 3 X 3 -1 d 3 -1 d 3 X 3 -1 d 3 -1 d 3 X
 3 -1 d 4 -1 d 3 -1 d 3 -1 d 3 X 3 -1 d 3 -1 d 3 -1 d 3 -1 d 3 -1 d 3 -1 d 3 X 3 -1 d 3 -1 d 3 -1 d 3 -1 d 3 -1 d 3 -1 d 4 -1 d 3 -1 d 3 -1 d 3 -1 d 3 -1 d 3 -1 d 3 -1 d 3 -1 d 3 -1 d 3 -1 d 3 -1 d 3 -1 d 3 -2 d 3 -1 d 3 -1 d 3 -1 d 4 -1 d s 1293 785
 m 3 -1 d s 0.49 0.6 0.82 c black 0.49 0.6 0.82 c
 gsave  408 305 930 677 C 1051.24 960.076 t 0 r /Helvetica-Bold findfont 25.6831 sf 0 0 m (3.5 < E < 4.0 GeV) show NC gr  0.52 0.76 0.64 c black 0.52 0.76 0.64 c
 gsave  408 305 930 677 C 1031.3 923.04 t 0 r /Helvetica-Bold findfont 25.6831 sf 0 0 m 
 228 214 200 193 178 171 156 149 133 126 119 105 91 77 69 55 47 39 25 17
(A = \2550.001, p = 2.000) K NC gr  1 0.6 1 c black 1 0.6 1 c
 gsave  408 305 930 677 C 1336.13 791.991 t 90 r /Helvetica-Bold findfont 28.5368 sf 0 0 m (/dof=0.5) show NC gr  black 1 0.6 1 c
 gsave  408 305 930 677 C 1324.73 780.596 t 90 r /Helvetica-Bold findfont 19.9758 sf 0 0 m (2) show NC gr  black 1 0.6 1 c
 gsave  408 305 930 677 C 1336.13 763.503 t 90 r /Symbol findfont 28.5368 sf 0 0 m (c) show NC gr  black 3 lw 1 1 1 c 408 305 1383 677 bf black 1 1 1 c black 306 229 1445 723 bl 306 229 1445 723 bl 1445 723 m 306 X s 1445 727 m -4 Y s 1557 727 m -4 Y
 s 1670 727 m -4 Y s 1670 727 m -4 Y s
 gsave  408 305 1383 677 C 1435.84 703.676 t 0 r /Helvetica findfont 22.8295 sf 0 0 m (0) show NC gr 
 gsave  408 305 1383 677 C 1549.8 703.676 t 0 r /Helvetica findfont 22.8295 sf 0 0 m (1) show NC gr 
 gsave  408 305 1383 677 C 1660.9 703.676 t 0 r /Helvetica findfont 22.8295 sf 0 0 m (2) show NC gr  1445 952 m 306 X s 1445 948 m 4 Y s 1557 948 m 4 Y s 1670 948 m 4 Y s 1670 948 m 4 Y s 1445 723 m 229 Y s 1450 738 m -5 X s 1447 746 m -2 X s 1447
 754 m -2 X s 1447 761 m -2 X s 1447 769 m -2 X s 1450 777 m -5 X s 1447 784 m -2 X s 1447 792 m -2 X s 1447 800 m -2 X s 1447 808 m -2 X s 1450 815 m -5 X s 1447 823 m -2 X s 1447 831 m -2 X s 1447 838 m -2 X s 1447 846 m -2 X s 1450 854 m -5 X s
 1447 861 m -2 X s 1447 869 m -2 X s 1447 877 m -2 X s 1447 885 m -2 X s 1450 892 m -5 X s 1447 900 m -2 X s 1447 908 m -2 X s 1447 915 m -2 X s 1447 923 m -2 X s 1450 931 m -5 X s 1450 738 m -5 X s 1447 731 m -2 X s 1447 723 m -2 X s 1450 931 m -5 X
 s 1447 938 m -2 X s 1447 946 m -2 X s
 gsave  408 305 1383 677 C 1393.11 732.165 t 0 r /Helvetica findfont 22.8295 sf 0 0 m (\2550.01) show NC gr 
 gsave  408 305 1383 677 C 1376.01 769.2 t 0 r /Helvetica findfont 22.8295 sf 0 0 m (\2550.005) show NC gr 
 gsave  408 305 1383 677 C 1427.29 809.085 t 0 r /Helvetica findfont 22.8295 sf 0 0 m (0) show NC gr 
 gsave  408 305 1383 677 C 1384.56 846.12 t 0 r /Helvetica findfont 22.8295 sf 0 0 m (0.005) show NC gr 
 gsave  408 305 1383 677 C 1398.81 886.005 t 0 r /Helvetica findfont 22.8295 sf 0 0 m (0.01) show NC gr 
 gsave  408 305 1383 677 C 1384.56 923.04 t 0 r /Helvetica findfont 22.8295 sf 0 0 m (0.015) show NC gr  1751 723 m 229 Y s 1745 738 m 6 X s 1748 746 m 3 X s 1748 754 m 3 X s 1748 761 m 3 X s 1748 769 m 3 X s 1745 777 m 6 X s 1748 784 m 3 X s 1748
 792 m 3 X s 1748 800 m 3 X s 1748 808 m 3 X s 1745 815 m 6 X s 1748 823 m 3 X s 1748 831 m 3 X s 1748 838 m 3 X s 1748 846 m 3 X s 1745 854 m 6 X s 1748 861 m 3 X s 1748 869 m 3 X s 1748 877 m 3 X s 1748 885 m 3 X s 1745 892 m 6 X s 1748 900 m 3 X s
 1748 908 m 3 X s 1748 915 m 3 X s 1748 923 m 3 X s 1745 931 m 6 X s 1745 738 m 6 X s 1748 731 m 3 X s 1748 723 m 3 X s 1745 931 m 6 X s 1748 938 m 3 X s 1748 946 m 3 X s 1501 791 1557 801 1670 883 1726 868 4 { m21} R 1501 803 m 38 Y s 1495 841 m 12
 X s 1501 780 m -38 Y s 1495 742 m 12 X s 1557 813 m 38 Y s 1551 851 m 12 X s 1557 790 m -38 Y s 1551 752 m 12 X s 1670 894 m 39 Y s 1664 933 m 11 X s 1670 871 m -39 Y s 1664 832 m 11 X s 1726 880 m 38 Y s 1720 918 m 12 X s 1726 857 m -39 Y s 1720
 818 m 12 X s 1 0 0 c 9 lw 0.95 0.95 0.95 c black 1 0 0 c 1446 815 m 15 X 3 1 d 19 X 3 1 d 9 X 3 1 d 9 X 3 1 d 6 X 4 1 d 3 X 3 1 d 6 X 3 1 d 3 X 3 1 d 3 X 3 1 d 3 X 3 1 d 3 X 3 1 d 3 1 d 3 X 4 1 d 3 X 3 1 d 3 1 d 3 X 3 1 d 3 1 d 3 X 3 1 d 3 1 d s
 1596 834 m 3 1 d 3 1 d 3 X 3 1 d 3 1 d 3 1 d 4 1 d 3 1 d 3 X 3 1 d 3 1 d 3 1 d 3 1 d 3 1 d 3 1 d 3 1 d 3 1 d 3 1 d 3 1 d 3 1 d 3 1 d 3 1 d 3 1 d 4 2 d 3 1 d 3 1 d 3 1 d 3 1 d 3 1 d 3 2 d 3 1 d 3 1 d 3 1 d 3 2 d 3 1 d 3 1 d 3 1 d 3 2 d 3 1 d 4 1 d 3
 2 d 3 1 d 3 2 d 3 1 d 3 1 d 3 2 d 3 1 d 3 2 d 3 1 d s 1746 889 m 3 2 d s 0.49 0.6 0.82 c black 0.49 0.6 0.82 c
 gsave  408 305 1383 677 C 1504.21 960.076 t 0 r /Helvetica-Bold findfont 25.6831 sf 0 0 m (4.0 < E < 4.5 GeV) show NC gr  0.52 0.76 0.64 c black 0.52 0.76 0.64 c
 gsave  408 305 1383 677 C 1489.97 923.04 t 0 r /Helvetica-Bold findfont 25.6831 sf 0 0 m 
 220 206 192 185 170 163 148 141 126 118 111 97 83 69 61 47 40 25 18
(A = 0.001, p = 2.000) K NC gr  1 0.6 1 c black 1 0.6 1 c
 gsave  408 305 1383 677 C 1789.1 791.991 t 90 r /Helvetica-Bold findfont 28.5368 sf 0 0 m (/dof=0.3) show NC gr  black 1 0.6 1 c
 gsave  408 305 1383 677 C 1777.71 780.596 t 90 r /Helvetica-Bold findfont 19.9758 sf 0 0 m (2) show NC gr  black 1 0.6 1 c
 gsave  408 305 1383 677 C 1789.1 763.503 t 90 r /Symbol findfont 28.5368 sf 0 0 m (c) show NC gr  black 3 lw 1 1 1 c 408 305 1837 677 bf black 1 1 1 c black 306 229 1898 723 bl 306 229 1898 723 bl 1898 723 m 306 X s 1898 727 m -4 Y s 2011 727 m -4 Y
 s 2123 727 m -4 Y s 2123 727 m -4 Y s
 gsave  408 305 1837 677 C 1888.81 703.676 t 0 r /Helvetica findfont 22.8295 sf 0 0 m (0) show NC gr 
 gsave  408 305 1837 677 C 2002.77 703.676 t 0 r /Helvetica findfont 22.8295 sf 0 0 m (1) show NC gr 
 gsave  408 305 1837 677 C 2113.88 703.676 t 0 r /Helvetica findfont 22.8295 sf 0 0 m (2) show NC gr  1898 952 m 306 X s 1898 948 m 4 Y s 2011 948 m 4 Y s 2123 948 m 4 Y s 2123 948 m 4 Y s 1898 723 m 229 Y s 1904 743 m -6 X s 1901 750 m -3 X s 1901
 757 m -3 X s 1901 764 m -3 X s 1901 771 m -3 X s 1904 778 m -6 X s 1901 785 m -3 X s 1901 791 m -3 X s 1901 798 m -3 X s 1901 805 m -3 X s 1904 812 m -6 X s 1901 819 m -3 X s 1901 826 m -3 X s 1901 833 m -3 X s 1901 839 m -3 X s 1904 846 m -6 X s
 1901 853 m -3 X s 1901 860 m -3 X s 1901 867 m -3 X s 1901 874 m -3 X s 1904 881 m -6 X s 1901 887 m -3 X s 1901 894 m -3 X s 1901 901 m -3 X s 1901 908 m -3 X s 1904 915 m -6 X s 1901 922 m -3 X s 1901 929 m -3 X s 1901 936 m -3 X s 1901 942 m -3 X
 s 1904 949 m -6 X s 1904 743 m -6 X s 1901 736 m -3 X s 1901 730 m -3 X s 1904 949 m -6 X s
 gsave  408 305 1837 677 C 1846.08 735.014 t 0 r /Helvetica findfont 22.8295 sf 0 0 m (\2550.01) show NC gr 
 gsave  408 305 1837 677 C 1880.27 769.2 t 0 r /Helvetica findfont 22.8295 sf 0 0 m (0) show NC gr 
 gsave  408 305 1837 677 C 1851.78 806.236 t 0 r /Helvetica findfont 22.8295 sf 0 0 m (0.01) show NC gr 
 gsave  408 305 1837 677 C 1848.93 840.423 t 0 r /Helvetica findfont 22.8295 sf 0 0 m (0.02) show NC gr 
 gsave  408 305 1837 677 C 1848.93 874.609 t 0 r /Helvetica findfont 22.8295 sf 0 0 m (0.03) show NC gr 
 gsave  408 305 1837 677 C 1848.93 908.796 t 0 r /Helvetica findfont 22.8295 sf 0 0 m (0.04) show NC gr 
 gsave  408 305 1837 677 C 1848.93 942.983 t 0 r /Helvetica findfont 22.8295 sf 0 0 m (0.05) show NC gr  2204 723 m 229 Y s 2199 743 m 5 X s 2201 750 m 3 X s 2201 757 m 3 X s 2201 764 m 3 X s 2201 771 m 3 X s 2199 778 m 5 X s 2201 785 m 3 X s 2201
 791 m 3 X s 2201 798 m 3 X s 2201 805 m 3 X s 2199 812 m 5 X s 2201 819 m 3 X s 2201 826 m 3 X s 2201 833 m 3 X s 2201 839 m 3 X s 2199 846 m 5 X s 2201 853 m 3 X s 2201 860 m 3 X s 2201 867 m 3 X s 2201 874 m 3 X s 2199 881 m 5 X s 2201 887 m 3 X s
 2201 894 m 3 X s 2201 901 m 3 X s 2201 908 m 3 X s 2199 915 m 5 X s 2201 922 m 3 X s 2201 929 m 3 X s 2201 936 m 3 X s 2201 942 m 3 X s 2199 949 m 5 X s 2199 743 m 5 X s 2201 736 m 3 X s 2201 730 m 3 X s 2199 949 m 5 X s 1954 772 2011 805 2123 806
 2179 902 4 { m21} R 1954 783 m 19 Y s 1949 802 m 11 X s 1954 761 m -19 Y s 1949 742 m 11 X s 2011 817 m 19 Y s 2005 836 m 11 X s 2011 794 m -19 Y s 2005 775 m 11 X s 2123 818 m 19 Y s 2117 837 m 12 X s 2123 795 m -19 Y s 2117 776 m 12 X s 2179 913 m
 20 Y s 2174 933 m 11 X s 2179 891 m -20 Y s 2174 871 m 11 X s 1 0 0 c 9 lw 0.95 0.95 0.95 c black 1 0 0 c 1900 778 m 21 X 3 1 d 9 X 3 1 d 6 X 4 1 d 6 X 3 1 d 3 X 3 1 d 3 X 3 1 d 3 X 3 1 d 3 X 3 1 d 3 1 d 3 X 3 1 d 3 1 d 4 1 d 3 X 3 1 d 3 1 d 3 1 d 3
 1 d 3 1 d 3 X 3 1 d 3 1 d 3 1 d 3 1 d 3 1 d 3 1 d 3 2 d 3 1 d 3 1 d 4 1 d 3 1 d s 2050 807 m 3 1 d 3 2 d 3 1 d 3 1 d 3 1 d 3 2 d 3 1 d 3 1 d 3 2 d 3 1 d 3 2 d 3 1 d 3 2 d 3 1 d 4 2 d 3 1 d 3 2 d 3 1 d 3 2 d 3 2 d 3 1 d 3 2 d 3 2 d 3 2 d 3 1 d 3 2 d
 3 2 d 3 2 d 3 2 d 3 2 d 4 2 d 3 2 d 3 2 d 3 2 d 3 2 d 3 2 d 3 2 d 3 2 d 3 2 d 3 2 d 3 2 d 3 2 d 3 3 d 3 2 d 3 2 d 3 2 d 4 3 d 3 2 d 3 2 d s 2200 894 m 3 3 d s 0.49 0.6 0.82 c black 0.49 0.6 0.82 c
 gsave  408 305 1837 677 C 1957.19 960.076 t 0 r /Helvetica-Bold findfont 25.6831 sf 0 0 m (4.5 < E < 5.0 GeV) show NC gr  0.52 0.76 0.64 c black 0.52 0.76 0.64 c
 gsave  408 305 1837 677 C 1942.94 923.04 t 0 r /Helvetica-Bold findfont 25.6831 sf 0 0 m 
 220 206 192 185 170 163 148 141 125 118 111 97 83 69 61 47 40 25 18
(A = 0.005, p = 2.000) K NC gr  1 0.6 1 c black 1 0.6 1 c
 gsave  408 305 1837 677 C 2242.08 791.991 t 90 r /Helvetica-Bold findfont 28.5368 sf 0 0 m (/dof=0.7) show NC gr  black 1 0.6 1 c
 gsave  408 305 1837 677 C 2230.68 780.596 t 90 r /Helvetica-Bold findfont 19.9758 sf 0 0 m (2) show NC gr  black 1 0.6 1 c
 gsave  408 305 1837 677 C 2242.08 763.503 t 90 r /Symbol findfont 28.5368 sf 0 0 m (c) show NC gr  black 3 lw 1 1 1 c 408 306 23 345 bf black 1 1 1 c black 306 229 84 391 bl 306 229 84 391 bl 84 391 m 306 X s 84 395 m -4 Y s 196 395 m -4 Y s 309 395
 m -4 Y s 309 395 m -4 Y s
 gsave  408 306 23 345 C 74.0711 370.356 t 0 r /Helvetica findfont 22.8295 sf 0 0 m (0) show NC gr 
 gsave  408 306 23 345 C 188.027 370.356 t 0 r /Helvetica findfont 22.8295 sf 0 0 m (1) show NC gr 
 gsave  408 306 23 345 C 299.133 370.356 t 0 r /Helvetica findfont 22.8295 sf 0 0 m (2) show NC gr  84 620 m 306 X s 84 616 m 4 Y s 196 616 m 4 Y s 309 616 m 4 Y s 309 616 m 4 Y s 84 391 m 229 Y s 89 412 m -5 X s 87 417 m -3 X s 87 422 m -3 X s 87
 428 m -3 X s 87 433 m -3 X s 89 438 m -5 X s 87 443 m -3 X s 87 449 m -3 X s 87 454 m -3 X s 87 459 m -3 X s 89 465 m -5 X s 87 470 m -3 X s 87 475 m -3 X s 87 480 m -3 X s 87 486 m -3 X s 89 491 m -5 X s 87 496 m -3 X s 87 502 m -3 X s 87 507 m -3
 X s 87 512 m -3 X s 89 517 m -5 X s 87 523 m -3 X s 87 528 m -3 X s 87 533 m -3 X s 87 539 m -3 X s 89 544 m -5 X s 87 549 m -3 X s 87 554 m -3 X s 87 560 m -3 X s 87 565 m -3 X s 89 570 m -5 X s 87 576 m -3 X s 87 581 m -3 X s 87 586 m -3 X s 87
 591 m -3 X s 89 597 m -5 X s 89 412 m -5 X s 87 406 m -3 X s 87 401 m -3 X s 87 396 m -3 X s 89 597 m -5 X s 87 602 m -3 X s 87 607 m -3 X s 87 613 m -3 X s 87 618 m -3 X s
 gsave  408 306 23 345 C 14.2445 404.542 t 0 r /Helvetica findfont 22.8295 sf 0 0 m (\2550.015) show NC gr 
 gsave  408 306 23 345 C 31.3378 430.182 t 0 r /Helvetica findfont 22.8295 sf 0 0 m (\2550.01) show NC gr 
 gsave  408 306 23 345 C 14.2445 458.671 t 0 r /Helvetica findfont 22.8295 sf 0 0 m (\2550.005) show NC gr 
 gsave  408 306 23 345 C 65.5245 484.311 t 0 r /Helvetica findfont 22.8295 sf 0 0 m (0) show NC gr 
 gsave  408 306 23 345 C 22.7911 509.951 t 0 r /Helvetica findfont 22.8295 sf 0 0 m (0.005) show NC gr 
 gsave  408 306 23 345 C 37.0356 535.591 t 0 r /Helvetica findfont 22.8295 sf 0 0 m (0.01) show NC gr 
 gsave  408 306 23 345 C 22.7911 564.08 t 0 r /Helvetica findfont 22.8295 sf 0 0 m (0.015) show NC gr 
 gsave  408 306 23 345 C 34.1867 589.72 t 0 r /Helvetica findfont 22.8295 sf 0 0 m (0.02) show NC gr  390 391 m 229 Y s 385 412 m 5 X s 387 417 m 3 X s 387 422 m 3 X s 387 428 m 3 X s 387 433 m 3 X s 385 438 m 5 X s 387 443 m 3 X s 387 449 m 3 X s
 387 454 m 3 X s 387 459 m 3 X s 385 465 m 5 X s 387 470 m 3 X s 387 475 m 3 X s 387 480 m 3 X s 387 486 m 3 X s 385 491 m 5 X s 387 496 m 3 X s 387 502 m 3 X s 387 507 m 3 X s 387 512 m 3 X s 385 517 m 5 X s 387 523 m 3 X s 387 528 m 3 X s 387 533 m
 3 X s 387 539 m 3 X s 385 544 m 5 X s 387 549 m 3 X s 387 554 m 3 X s 387 560 m 3 X s 387 565 m 3 X s 385 570 m 5 X s 387 576 m 3 X s 387 581 m 3 X s 387 586 m 3 X s 387 591 m 3 X s 385 597 m 5 X s 385 412 m 5 X s 387 406 m 3 X s 387 401 m 3 X s 387
 396 m 3 X s 385 597 m 5 X s 387 602 m 3 X s 387 607 m 3 X s 387 613 m 3 X s 387 618 m 3 X s /w 22 def /w2 {w 2 div} def /w3 {w 3 div} def 140 540 196 470 309 488 365 493 4 { m21} R 140 551 m 50 Y s 134 601 m 12 X s 140 528 m -49 Y s 134 479 m 12 X s
 196 482 m 49 Y s 191 531 m 11 X s 196 459 m -49 Y s 191 410 m 11 X s 309 500 m 49 Y s 303 549 m 12 X s 309 477 m -49 Y s 303 428 m 12 X s 365 504 m 49 Y s 360 553 m 11 X s 365 482 m -49 Y s 360 433 m 11 X s 9 lw 0.95 0.95 0.95 c black 85 491 m 150 X
 s 235 491 m 62 X 3 1 d 85 X s 385 492 m 4 X s 0.49 0.6 0.82 c black 0.49 0.6 0.82 c
 gsave  408 306 23 345 C 142.445 629.605 t 0 r /Helvetica-Bold findfont 25.6831 sf 0 0 m (5.0 < E < 5.5 GeV) show NC gr  0.52 0.76 0.64 c black 0.52 0.76 0.64 c
 gsave  408 306 23 345 C 128.2 592.569 t 0 r /Helvetica-Bold findfont 25.6831 sf 0 0 m 
 220 206 192 185 170 163 148 141 126 118 111 97 83 69 61 47 40 25 18
(A = 0.000, p = 1.000) K NC gr  1 0.6 1 c black 1 0.6 1 c
 gsave  408 306 23 345 C 427.334 458.671 t 90 r /Helvetica-Bold findfont 28.5368 sf 0 0 m (/dof=0.3) show NC gr  black 1 0.6 1 c
 gsave  408 306 23 345 C 415.938 447.276 t 90 r /Helvetica-Bold findfont 19.9758 sf 0 0 m (2) show NC gr  black 1 0.6 1 c
 gsave  408 306 23 345 C 427.334 430.182 t 90 r /Symbol findfont 28.5368 sf 0 0 m (c) show NC gr  black 3 lw 1 1 1 c 408 306 476 345 bf black 1 1 1 c black 307 229 537 391 bl 307 229 537 391 bl 537 391 m 307 X s 537 395 m -4 Y s 650 395 m -4 Y s 763
 395 m -4 Y s 763 395 m -4 Y s
 gsave  408 306 476 345 C 527.045 370.356 t 0 r /Helvetica findfont 22.8295 sf 0 0 m (0) show NC gr 
 gsave  408 306 476 345 C 643.849 370.356 t 0 r /Helvetica findfont 22.8295 sf 0 0 m (1) show NC gr 
 gsave  408 306 476 345 C 752.107 370.356 t 0 r /Helvetica findfont 22.8295 sf 0 0 m (2) show NC gr  537 620 m 307 X s 537 616 m 4 Y s 650 616 m 4 Y s 763 616 m 4 Y s 763 616 m 4 Y s 537 391 m 229 Y s 543 399 m -6 X s 540 405 m -3 X s 540 412 m -3 X
 s 540 419 m -3 X s 540 425 m -3 X s 543 432 m -6 X s 540 438 m -3 X s 540 445 m -3 X s 540 451 m -3 X s 540 458 m -3 X s 543 464 m -6 X s 540 471 m -3 X s 540 478 m -3 X s 540 484 m -3 X s 540 491 m -3 X s 543 497 m -6 X s 540 504 m -3 X s 540 510 m
 -3 X s 540 517 m -3 X s 540 524 m -3 X s 543 530 m -6 X s 540 537 m -3 X s 540 543 m -3 X s 540 550 m -3 X s 540 556 m -3 X s 543 563 m -6 X s 540 570 m -3 X s 540 576 m -3 X s 540 583 m -3 X s 540 589 m -3 X s 543 596 m -6 X s 543 399 m -6 X s 540
 392 m -3 X s 543 596 m -6 X s 540 602 m -3 X s 540 609 m -3 X s 540 615 m -3 X s
 gsave  408 306 476 345 C 481.462 393.147 t 0 r /Helvetica findfont 22.8295 sf 0 0 m (\2550.03) show NC gr 
 gsave  408 306 476 345 C 481.462 424.485 t 0 r /Helvetica findfont 22.8295 sf 0 0 m (\2550.02) show NC gr 
 gsave  408 306 476 345 C 484.311 458.671 t 0 r /Helvetica findfont 22.8295 sf 0 0 m (\2550.01) show NC gr 
 gsave  408 306 476 345 C 518.498 490.009 t 0 r /Helvetica findfont 22.8295 sf 0 0 m (0) show NC gr 
 gsave  408 306 476 345 C 490.009 524.196 t 0 r /Helvetica findfont 22.8295 sf 0 0 m (0.01) show NC gr 
 gsave  408 306 476 345 C 487.16 555.534 t 0 r /Helvetica findfont 22.8295 sf 0 0 m (0.02) show NC gr 
 gsave  408 306 476 345 C 487.16 589.72 t 0 r /Helvetica findfont 22.8295 sf 0 0 m (0.03) show NC gr  844 391 m 229 Y s 838 399 m 6 X s 841 405 m 3 X s 841 412 m 3 X s 841 419 m 3 X s 841 425 m 3 X s 838 432 m 6 X s 841 438 m 3 X s 841 445 m 3 X s
 841 451 m 3 X s 841 458 m 3 X s 838 464 m 6 X s 841 471 m 3 X s 841 478 m 3 X s 841 484 m 3 X s 841 491 m 3 X s 838 497 m 6 X s 841 504 m 3 X s 841 510 m 3 X s 841 517 m 3 X s 841 524 m 3 X s 838 530 m 6 X s 841 537 m 3 X s 841 543 m 3 X s 841 550 m
 3 X s 841 556 m 3 X s 838 563 m 6 X s 841 570 m 3 X s 841 576 m 3 X s 841 583 m 3 X s 841 589 m 3 X s 838 596 m 6 X s 838 399 m 6 X s 841 392 m 3 X s 838 596 m 6 X s 841 602 m 3 X s 841 609 m 3 X s 841 615 m 3 X s /w 23 def /w2 {w 2 div} def /w3 {w
 3 div} def 594 531 650 553 763 502 819 456 4 { m21} R 594 542 m 36 Y s 588 578 m 11 X s 594 519 m -36 Y s 588 483 m 11 X s 650 564 m 37 Y s 644 601 m 12 X s 650 542 m -37 Y s 644 505 m 12 X s 763 513 m 35 Y s 757 548 m 11 X s 763 490 m -35 Y s 757
 455 m 11 X s 819 467 m 34 Y s 813 501 m 12 X s 819 444 m -34 Y s 813 410 m 12 X s 1 0 0 c 9 lw 0.95 0.95 0.95 c black 1 0 0 c 539 497 m 52 X 3 -1 d 25 X 3 -1 d 18 X 3 -1 d 12 X 3 -1 d 13 X 3 -1 d 12 X 3 -1 d s 689 491 m 9 X 3 -1 d 6 X 3 -1 d 10 X 3
 -1 d 6 X 3 -1 d 6 X 3 -1 d 6 X 3 -1 d 6 X 3 -1 d 7 X 3 -1 d 6 X 3 -1 d 3 X 3 -1 d 6 X 3 -1 d 3 X 3 -1 d 3 X 3 -1 d 6 X 4 -1 d 3 X 3 -1 d 3 X 3 -1 d 3 X 3 -1 d 3 X 3 -1 d s 839 473 m 3 X s 0.49 0.6 0.82 c black 0.49 0.6 0.82 c
 gsave  408 306 476 345 C 595.418 629.605 t 0 r /Helvetica-Bold findfont 25.6831 sf 0 0 m (5.5 < E < 6.0 GeV) show NC gr  0.52 0.76 0.64 c black 0.52 0.76 0.64 c
 gsave  408 306 476 345 C 575.476 592.569 t 0 r /Helvetica-Bold findfont 25.6831 sf 0 0 m 
 228 214 200 193 178 171 156 149 133 126 119 105 91 76 69 55 47 39 25 17
(A = \2550.001, p = 2.000) K NC gr  1 0.6 1 c black 1 0.6 1 c
 gsave  408 306 476 345 C 883.156 458.671 t 90 r /Helvetica-Bold findfont 28.5368 sf 0 0 m (/dof=0.8) show NC gr  black 1 0.6 1 c
 gsave  408 306 476 345 C 871.76 447.276 t 90 r /Helvetica-Bold findfont 19.9758 sf 0 0 m (2) show NC gr  black 1 0.6 1 c
 gsave  408 306 476 345 C 883.156 430.182 t 90 r /Symbol findfont 28.5368 sf 0 0 m (c) show NC gr  black 3 lw 1 1 1 c 408 306 930 345 bf black 1 1 1 c black 306 229 991 391 bl 306 229 991 391 bl 991 391 m 306 X s 991 395 m -4 Y s 1104 395 m -4 Y s
 1216 395 m -4 Y s 1216 395 m -4 Y s
 gsave  408 306 930 345 C 980.018 370.356 t 0 r /Helvetica findfont 22.8295 sf 0 0 m (0) show NC gr 
 gsave  408 306 930 345 C 1096.82 370.356 t 0 r /Helvetica findfont 22.8295 sf 0 0 m (1) show NC gr 
 gsave  408 306 930 345 C 1205.08 370.356 t 0 r /Helvetica findfont 22.8295 sf 0 0 m (2) show NC gr  991 620 m 306 X s 991 616 m 4 Y s 1104 616 m 4 Y s 1216 616 m 4 Y s 1216 616 m 4 Y s 991 391 m 229 Y s 997 413 m -6 X s 994 421 m -3 X s 994 428 m -3
 X s 994 436 m -3 X s 994 443 m -3 X s 997 451 m -6 X s 994 458 m -3 X s 994 466 m -3 X s 994 473 m -3 X s 994 481 m -3 X s 997 488 m -6 X s 994 496 m -3 X s 994 503 m -3 X s 994 511 m -3 X s 994 519 m -3 X s 997 526 m -6 X s 994 534 m -3 X s 994 541
 m -3 X s 994 549 m -3 X s 994 556 m -3 X s 997 564 m -6 X s 994 571 m -3 X s 994 579 m -3 X s 994 586 m -3 X s 994 594 m -3 X s 997 601 m -6 X s 997 413 m -6 X s 994 406 m -3 X s 994 398 m -3 X s 997 601 m -6 X s 994 609 m -3 X s 994 616 m -3 X s
 gsave  408 306 930 345 C 937.285 404.542 t 0 r /Helvetica findfont 22.8295 sf 0 0 m (\2550.04) show NC gr 
 gsave  408 306 930 345 C 937.285 444.427 t 0 r /Helvetica findfont 22.8295 sf 0 0 m (\2550.03) show NC gr 
 gsave  408 306 930 345 C 937.285 481.462 t 0 r /Helvetica findfont 22.8295 sf 0 0 m (\2550.02) show NC gr 
 gsave  408 306 930 345 C 940.134 518.498 t 0 r /Helvetica findfont 22.8295 sf 0 0 m (\2550.01) show NC gr 
 gsave  408 306 930 345 C 974.32 555.534 t 0 r /Helvetica findfont 22.8295 sf 0 0 m (0) show NC gr 
 gsave  408 306 930 345 C 945.832 595.418 t 0 r /Helvetica findfont 22.8295 sf 0 0 m (0.01) show NC gr  1297 391 m 229 Y s 1292 413 m 5 X s 1294 421 m 3 X s 1294 428 m 3 X s 1294 436 m 3 X s 1294 443 m 3 X s 1292 451 m 5 X s 1294 458 m 3 X s 1294 466
 m 3 X s 1294 473 m 3 X s 1294 481 m 3 X s 1292 488 m 5 X s 1294 496 m 3 X s 1294 503 m 3 X s 1294 511 m 3 X s 1294 519 m 3 X s 1292 526 m 5 X s 1294 534 m 3 X s 1294 541 m 3 X s 1294 549 m 3 X s 1294 556 m 3 X s 1292 564 m 5 X s 1294 571 m 3 X s
 1294 579 m 3 X s 1294 586 m 3 X s 1294 594 m 3 X s 1292 601 m 5 X s 1292 413 m 5 X s 1294 406 m 3 X s 1294 398 m 3 X s 1292 601 m 5 X s 1294 609 m 3 X s 1294 616 m 3 X s 1047 524 1104 498 1216 538 1272 472 4 { m21} R 1047 536 m 52 Y s 1042 588 m 11
 X s 1047 513 m -53 Y s 1042 460 m 11 X s 1104 509 m 52 Y s 1098 561 m 11 X s 1104 486 m -52 Y s 1098 434 m 11 X s 1216 549 m 52 Y s 1210 601 m 12 X s 1216 526 m -52 Y s 1210 474 m 12 X s 1272 484 m 50 Y s 1267 534 m 11 X s 1272 461 m -51 Y s 1267
 410 m 11 X s 9 lw 0.95 0.95 0.95 c black 993 563 m 3 -1 d 3 X 3 -1 d 3 -1 d 3 -1 d 3 -1 d 3 -1 d 3 -1 d 3 -1 d 3 X 3 -1 d 3 -1 d 3 -1 d 3 -1 d 3 -1 d 4 -1 d 3 X 3 -1 d 3 -1 d 3 -1 d 3 -1 d 3 -1 d 3 -1 d 3 -1 d 3 X 3 -1 d 3 -1 d 3 -1 d 3 -1 d 3 -1 d
 3 -1 d 3 -1 d 4 X 3 -1 d 3 -1 d 3 -1 d 3 -1 d 3 -1 d 3 -1 d 3 X 3 -1 d 3 -1 d 3 -1 d 3 -1 d 3 -1 d 3 -1 d 3 -1 d 3 X 4 -1 d s 1143 521 m 3 -1 d 3 -1 d 3 -1 d 3 -1 d 3 -1 d 3 -1 d 3 X 3 -1 d 3 -1 d 3 -1 d 3 -1 d 3 -1 d 3 -1 d 3 X 3 -1 d 4 -1 d 3 -1 d
 3 -1 d 3 -1 d 3 -1 d 3 -1 d 3 X 3 -1 d 3 -1 d 3 -1 d 3 -1 d 3 -1 d 3 -1 d 3 -1 d 3 X 3 -1 d 3 -1 d 4 -1 d 3 -1 d 3 -1 d 3 -1 d 3 X 3 -1 d 3 -1 d 3 -1 d 3 -1 d 3 -1 d 3 -1 d 3 -1 d 3 X 3 -1 d 3 -1 d 3 -1 d 4 -1 d s 1293 478 m 3 -1 d s 0.49 0.6 0.82 c
 black 0.49 0.6 0.82 c
 gsave  408 306 930 345 C 1051.24 629.605 t 0 r /Helvetica-Bold findfont 25.6831 sf 0 0 m (6.0 < E < 6.5 GeV) show NC gr  0.52 0.76 0.64 c black 0.52 0.76 0.64 c
 gsave  408 306 930 345 C 1031.3 592.569 t 0 r /Helvetica-Bold findfont 25.6831 sf 0 0 m 
 228 214 200 193 178 171 156 149 133 126 119 105 91 77 69 55 47 39 25 17
(A = \2550.008, p = 1.000) K NC gr  1 0.6 1 c black 1 0.6 1 c
 gsave  408 306 930 345 C 1336.13 458.671 t 90 r /Helvetica-Bold findfont 28.5368 sf 0 0 m (/dof=0.3) show NC gr  black 1 0.6 1 c
 gsave  408 306 930 345 C 1324.73 447.276 t 90 r /Helvetica-Bold findfont 19.9758 sf 0 0 m (2) show NC gr  black 1 0.6 1 c
 gsave  408 306 930 345 C 1336.13 430.182 t 90 r /Symbol findfont 28.5368 sf 0 0 m (c) show NC gr  black 3 lw 1 1 1 c 408 306 1383 345 bf black 1 1 1 c black 306 229 1445 391 bl 306 229 1445 391 bl 1445 391 m 306 X s 1445 395 m -4 Y s 1557 395 m -4 Y
 s 1670 395 m -4 Y s 1670 395 m -4 Y s
 gsave  408 306 1383 345 C 1435.84 370.356 t 0 r /Helvetica findfont 22.8295 sf 0 0 m (0) show NC gr 
 gsave  408 306 1383 345 C 1549.8 370.356 t 0 r /Helvetica findfont 22.8295 sf 0 0 m (1) show NC gr 
 gsave  408 306 1383 345 C 1660.9 370.356 t 0 r /Helvetica findfont 22.8295 sf 0 0 m (2) show NC gr  1445 620 m 306 X s 1445 616 m 4 Y s 1557 616 m 4 Y s 1670 616 m 4 Y s 1670 616 m 4 Y s 1445 391 m 229 Y s 1450 414 m -5 X s 1447 421 m -2 X s 1447
 427 m -2 X s 1447 434 m -2 X s 1447 440 m -2 X s 1450 447 m -5 X s 1447 453 m -2 X s 1447 460 m -2 X s 1447 466 m -2 X s 1447 472 m -2 X s 1450 479 m -5 X s 1447 485 m -2 X s 1447 492 m -2 X s 1447 498 m -2 X s 1447 505 m -2 X s 1450 511 m -5 X s
 1447 518 m -2 X s 1447 524 m -2 X s 1447 530 m -2 X s 1447 537 m -2 X s 1450 543 m -5 X s 1447 550 m -2 X s 1447 556 m -2 X s 1447 563 m -2 X s 1447 569 m -2 X s 1450 576 m -5 X s 1447 582 m -2 X s 1447 588 m -2 X s 1447 595 m -2 X s 1447 601 m -2 X
 s 1450 608 m -5 X s 1450 414 m -5 X s 1447 408 m -2 X s 1447 402 m -2 X s 1447 395 m -2 X s 1450 608 m -5 X s 1447 614 m -2 X s
 gsave  408 306 1383 345 C 1390.26 407.391 t 0 r /Helvetica findfont 22.8295 sf 0 0 m (\2550.03) show NC gr 
 gsave  408 306 1383 345 C 1390.26 438.729 t 0 r /Helvetica findfont 22.8295 sf 0 0 m (\2550.02) show NC gr 
 gsave  408 306 1383 345 C 1393.11 472.916 t 0 r /Helvetica findfont 22.8295 sf 0 0 m (\2550.01) show NC gr 
 gsave  408 306 1383 345 C 1427.29 504.254 t 0 r /Helvetica findfont 22.8295 sf 0 0 m (0) show NC gr 
 gsave  408 306 1383 345 C 1398.81 535.591 t 0 r /Helvetica findfont 22.8295 sf 0 0 m (0.01) show NC gr 
 gsave  408 306 1383 345 C 1395.96 569.778 t 0 r /Helvetica findfont 22.8295 sf 0 0 m (0.02) show NC gr 
 gsave  408 306 1383 345 C 1395.96 601.116 t 0 r /Helvetica findfont 22.8295 sf 0 0 m (0.03) show NC gr  1751 391 m 229 Y s 1745 414 m 6 X s 1748 421 m 3 X s 1748 427 m 3 X s 1748 434 m 3 X s 1748 440 m 3 X s 1745 447 m 6 X s 1748 453 m 3 X s 1748
 460 m 3 X s 1748 466 m 3 X s 1748 472 m 3 X s 1745 479 m 6 X s 1748 485 m 3 X s 1748 492 m 3 X s 1748 498 m 3 X s 1748 505 m 3 X s 1745 511 m 6 X s 1748 518 m 3 X s 1748 524 m 3 X s 1748 530 m 3 X s 1748 537 m 3 X s 1745 543 m 6 X s 1748 550 m 3 X s
 1748 556 m 3 X s 1748 563 m 3 X s 1748 569 m 3 X s 1745 576 m 6 X s 1748 582 m 3 X s 1748 588 m 3 X s 1748 595 m 3 X s 1748 601 m 3 X s 1745 608 m 6 X s 1745 414 m 6 X s 1748 408 m 3 X s 1748 402 m 3 X s 1748 395 m 3 X s 1745 608 m 6 X s 1748 614 m
 3 X s 1501 478 1557 537 1670 518 1726 472 4 { m21} R 1501 490 m 51 Y s 1495 541 m 12 X s 1501 467 m -51 Y s 1495 416 m 12 X s 1557 549 m 52 Y s 1551 601 m 12 X s 1557 526 m -52 Y s 1551 474 m 12 X s 1670 529 m 52 Y s 1664 581 m 11 X s 1670 506 m -51
 Y s 1664 455 m 11 X s 1726 483 m 50 Y s 1720 533 m 12 X s 1726 460 m -50 Y s 1720 410 m 12 X s 1 0 0 c 9 lw 0.95 0.95 0.95 c black 1 0 0 c 1446 511 m 43 X 3 -1 d 24 X 4 -1 d 18 X 3 -1 d 12 X 3 -1 d 13 X 3 -1 d 9 X 3 -1 d 9 X 3 -1 d s 1596 504 m 9 X
 3 -1 d 6 X 4 -1 d 6 X 3 -1 d 6 X 3 -1 d 6 X 3 -1 d 6 X 3 -1 d 6 X 3 -1 d 3 X 4 -1 d 6 X 3 -1 d 3 X 3 -1 d 3 X 3 -1 d 6 X 3 -1 d 3 X 3 -1 d 3 X 3 -1 d 3 X 4 -1 d 3 X 3 -1 d 3 X 3 -1 d 3 X 3 -1 d 3 X 3 -1 d 3 X s 1746 485 m 3 -1 d s 0.49 0.6 0.82 c
 black 0.49 0.6 0.82 c
 gsave  408 306 1383 345 C 1504.21 629.605 t 0 r /Helvetica-Bold findfont 25.6831 sf 0 0 m (6.5 < E < 7.0 GeV) show NC gr  0.52 0.76 0.64 c black 0.52 0.76 0.64 c
 gsave  408 306 1383 345 C 1484.27 592.569 t 0 r /Helvetica-Bold findfont 25.6831 sf 0 0 m 
 228 214 200 193 178 171 156 149 134 126 119 105 91 77 69 55 47 40 25 17
(A = \2550.001, p = 2.000) K NC gr  1 0.6 1 c black 1 0.6 1 c
 gsave  408 306 1383 345 C 1789.1 458.671 t 90 r /Helvetica-Bold findfont 28.5368 sf 0 0 m (/dof=0.2) show NC gr  black 1 0.6 1 c
 gsave  408 306 1383 345 C 1777.71 447.276 t 90 r /Helvetica-Bold findfont 19.9758 sf 0 0 m (2) show NC gr  black 1 0.6 1 c
 gsave  408 306 1383 345 C 1789.1 430.182 t 90 r /Symbol findfont 28.5368 sf 0 0 m (c) show NC gr  black 3 lw 1 1 1 c 408 306 1837 345 bf black 1 1 1 c black 306 229 1898 391 bl 306 229 1898 391 bl 1898 391 m 306 X s 1898 395 m -4 Y s 2011 395 m -4 Y
 s 2123 395 m -4 Y s 2123 395 m -4 Y s
 gsave  408 306 1837 345 C 1888.81 370.356 t 0 r /Helvetica findfont 22.8295 sf 0 0 m (0) show NC gr 
 gsave  408 306 1837 345 C 2002.77 370.356 t 0 r /Helvetica findfont 22.8295 sf 0 0 m (1) show NC gr 
 gsave  408 306 1837 345 C 2113.88 370.356 t 0 r /Helvetica findfont 22.8295 sf 0 0 m (2) show NC gr  1898 620 m 306 X s 1898 616 m 4 Y s 2011 616 m 4 Y s 2123 616 m 4 Y s 2123 616 m 4 Y s 1898 391 m 229 Y s 1904 428 m -6 X s 1901 440 m -3 X s 1901
 451 m -3 X s 1901 462 m -3 X s 1904 473 m -6 X s 1901 485 m -3 X s 1901 496 m -3 X s 1901 507 m -3 X s 1904 518 m -6 X s 1901 530 m -3 X s 1901 541 m -3 X s 1901 552 m -3 X s 1904 563 m -6 X s 1901 575 m -3 X s 1901 586 m -3 X s 1901 597 m -3 X s
 1904 608 m -6 X s 1904 428 m -6 X s 1901 417 m -3 X s 1901 406 m -3 X s 1901 395 m -3 X s 1904 608 m -6 X s 1901 620 m -3 X s
 gsave  408 306 1837 345 C 1843.23 421.636 t 0 r /Helvetica findfont 22.8295 sf 0 0 m (\2550.04) show NC gr 
 gsave  408 306 1837 345 C 1843.23 467.218 t 0 r /Helvetica findfont 22.8295 sf 0 0 m (\2550.02) show NC gr 
 gsave  408 306 1837 345 C 1880.27 509.951 t 0 r /Helvetica findfont 22.8295 sf 0 0 m (0) show NC gr 
 gsave  408 306 1837 345 C 1848.93 555.534 t 0 r /Helvetica findfont 22.8295 sf 0 0 m (0.02) show NC gr 
 gsave  408 306 1837 345 C 1848.93 601.116 t 0 r /Helvetica findfont 22.8295 sf 0 0 m (0.04) show NC gr  2204 391 m 229 Y s 2199 428 m 5 X s 2201 440 m 3 X s 2201 451 m 3 X s 2201 462 m 3 X s 2199 473 m 5 X s 2201 485 m 3 X s 2201 496 m 3 X s 2201
 507 m 3 X s 2199 518 m 5 X s 2201 530 m 3 X s 2201 541 m 3 X s 2201 552 m 3 X s 2199 563 m 5 X s 2201 575 m 3 X s 2201 586 m 3 X s 2201 597 m 3 X s 2199 608 m 5 X s 2199 428 m 5 X s 2201 417 m 3 X s 2201 406 m 3 X s 2201 395 m 3 X s 2199 608 m 5 X s
 2201 620 m 3 X s 1954 458 2011 551 2123 498 2179 493 4 { m21} R 1954 469 m 36 Y s 1949 505 m 11 X s 1954 446 m -36 Y s 1949 410 m 11 X s 2011 563 m 38 Y s 2005 601 m 11 X s 2011 540 m -38 Y s 2005 502 m 11 X s 2123 509 m 37 Y s 2117 546 m 12 X s
 2123 486 m -36 Y s 2117 450 m 12 X s 2179 505 m 36 Y s 2174 541 m 11 X s 2179 482 m -37 Y s 2174 445 m 11 X s 9 lw 0.95 0.95 0.95 c black 1900 518 m 9 X 3 -1 d 9 X 3 -1 d 9 X 3 -1 d 10 X 3 -1 d 9 X 3 -1 d 9 X 3 -1 d 9 X 3 -1 d 10 X 3 -1 d 9 X 3 -1 d
 9 X 3 -1 d 9 X 3 -1 d 9 X 4 -1 d 3 X s 2050 506 m 6 X 3 -1 d 9 X 3 -1 d 9 X 3 -1 d 9 X 4 -1 d 9 X 3 -1 d 9 X 3 -1 d 9 X 3 -1 d 9 X 4 -1 d 9 X 3 -1 d 9 X 3 -1 d 9 X 3 -1 d 9 X 4 -1 d 6 X s 2200 494 m 3 X s 0.49 0.6 0.82 c black 0.49 0.6 0.82 c
 gsave  408 306 1837 345 C 1957.19 629.605 t 0 r /Helvetica-Bold findfont 25.6831 sf 0 0 m (7.0 < E < 7.5 GeV) show NC gr  0.52 0.76 0.64 c black 0.52 0.76 0.64 c
 gsave  408 306 1837 345 C 1937.25 592.569 t 0 r /Helvetica-Bold findfont 25.6831 sf 0 0 m 
 228 214 200 193 178 171 156 149 133 126 119 105 91 77 69 55 47 39 25 17
(A = \2550.004, p = 1.000) K NC gr  1 0.6 1 c black 1 0.6 1 c
 gsave  408 306 1837 345 C 2242.08 458.671 t 90 r /Helvetica-Bold findfont 28.5368 sf 0 0 m (/dof=0.7) show NC gr  black 1 0.6 1 c
 gsave  408 306 1837 345 C 2230.68 447.276 t 90 r /Helvetica-Bold findfont 19.9758 sf 0 0 m (2) show NC gr  black 1 0.6 1 c
 gsave  408 306 1837 345 C 2242.08 430.182 t 90 r /Symbol findfont 28.5368 sf 0 0 m (c) show NC gr  black 3 lw 1 1 1 c 408 306 23 13 bf black 1 1 1 c black 306 229 84 59 bl 306 229 84 59 bl 84 59 m 306 X s 84 63 m -4 Y s 196 63 m -4 Y s 309 63 m -4 Y
 s 309 63 m -4 Y s
 gsave  408 306 23 13 C 74.0711 39.8845 t 0 r /Helvetica findfont 22.8295 sf 0 0 m (0) show NC gr 
 gsave  408 306 23 13 C 188.027 39.8845 t 0 r /Helvetica findfont 22.8295 sf 0 0 m (1) show NC gr 
 gsave  408 306 23 13 C 299.133 39.8845 t 0 r /Helvetica findfont 22.8295 sf 0 0 m (2) show NC gr  84 288 m 306 X s 84 284 m 4 Y s 196 284 m 4 Y s 309 284 m 4 Y s 309 284 m 4 Y s 84 59 m 229 Y s 89 78 m -5 X s 87 84 m -3 X s 87 90 m -3 X s 87 95 m -3
 X s 87 101 m -3 X s 89 107 m -5 X s 87 113 m -3 X s 87 119 m -3 X s 87 125 m -3 X s 87 131 m -3 X s 89 137 m -5 X s 87 143 m -3 X s 87 149 m -3 X s 87 155 m -3 X s 87 161 m -3 X s 89 167 m -5 X s 87 173 m -3 X s 87 179 m -3 X s 87 185 m -3 X s 87
 191 m -3 X s 89 197 m -5 X s 87 203 m -3 X s 87 209 m -3 X s 87 215 m -3 X s 87 221 m -3 X s 89 227 m -5 X s 87 233 m -3 X s 87 239 m -3 X s 87 245 m -3 X s 87 251 m -3 X s 89 257 m -5 X s 87 262 m -3 X s 87 268 m -3 X s 87 274 m -3 X s 87 280 m -3
 X s 89 286 m -5 X s 89 78 m -5 X s 87 72 m -3 X s 87 66 m -3 X s 87 60 m -3 X s 89 286 m -5 X s
 gsave  408 306 23 13 C 28.4889 71.2223 t 0 r /Helvetica findfont 22.8295 sf 0 0 m (\2550.03) show NC gr 
 gsave  408 306 23 13 C 28.4889 99.7112 t 0 r /Helvetica findfont 22.8295 sf 0 0 m (\2550.02) show NC gr 
 gsave  408 306 23 13 C 31.3378 131.049 t 0 r /Helvetica findfont 22.8295 sf 0 0 m (\2550.01) show NC gr 
 gsave  408 306 23 13 C 65.5245 159.538 t 0 r /Helvetica findfont 22.8295 sf 0 0 m (0) show NC gr 
 gsave  408 306 23 13 C 37.0356 190.876 t 0 r /Helvetica findfont 22.8295 sf 0 0 m (0.01) show NC gr 
 gsave  408 306 23 13 C 34.1867 219.365 t 0 r /Helvetica findfont 22.8295 sf 0 0 m (0.02) show NC gr 
 gsave  408 306 23 13 C 34.1867 250.702 t 0 r /Helvetica findfont 22.8295 sf 0 0 m (0.03) show NC gr 
 gsave  408 306 23 13 C 34.1867 279.191 t 0 r /Helvetica findfont 22.8295 sf 0 0 m (0.04) show NC gr  390 59 m 229 Y s 385 78 m 5 X s 387 84 m 3 X s 387 90 m 3 X s 387 95 m 3 X s 387 101 m 3 X s 385 107 m 5 X s 387 113 m 3 X s 387 119 m 3 X s 387 125
 m 3 X s 387 131 m 3 X s 385 137 m 5 X s 387 143 m 3 X s 387 149 m 3 X s 387 155 m 3 X s 387 161 m 3 X s 385 167 m 5 X s 387 173 m 3 X s 387 179 m 3 X s 387 185 m 3 X s 387 191 m 3 X s 385 197 m 5 X s 387 203 m 3 X s 387 209 m 3 X s 387 215 m 3 X s
 387 221 m 3 X s 385 227 m 5 X s 387 233 m 3 X s 387 239 m 3 X s 387 245 m 3 X s 387 251 m 3 X s 385 257 m 5 X s 387 262 m 3 X s 387 268 m 3 X s 387 274 m 3 X s 387 280 m 3 X s 385 286 m 5 X s 385 78 m 5 X s 387 72 m 3 X s 387 66 m 3 X s 387 60 m 3 X
 s 385 286 m 5 X s /w 22 def /w2 {w 2 div} def /w3 {w 3 div} def 140 176 196 183 309 198 365 148 4 { m21} R 140 187 m 59 Y s 134 246 m 12 X s 140 164 m -59 Y s 134 105 m 12 X s 196 194 m 59 Y s 191 253 m 11 X s 196 172 m -59 Y s 191 113 m 11 X s 309
 209 m 60 Y s 303 269 m 12 X s 309 187 m -60 Y s 303 127 m 12 X s 365 159 m 58 Y s 360 217 m 11 X s 365 136 m -58 Y s 360 78 m 11 X s 9 lw 0.95 0.95 0.95 c black 85 167 m 16 X 3 1 d 37 X 3 1 d 39 X 3 1 d 37 X 3 1 d 9 X s 235 171 m 31 X 3 1 d 37 X 3 1
 d 37 X 3 1 d 36 X s 385 174 m 4 X s 0.49 0.6 0.82 c black 0.49 0.6 0.82 c
 gsave  408 306 23 13 C 142.445 296.285 t 0 r /Helvetica-Bold findfont 25.6831 sf 0 0 m (7.5 < E < 8.0 GeV) show NC gr  0.52 0.76 0.64 c black 0.52 0.76 0.64 c
 gsave  408 306 23 13 C 128.2 259.249 t 0 r /Helvetica-Bold findfont 25.6831 sf 0 0 m 
 220 206 192 185 170 163 148 141 126 118 111 97 83 69 61 47 40 25 18
(A = 0.001, p = 1.000) K NC gr  1 0.6 1 c black 1 0.6 1 c
 gsave  408 306 23 13 C 427.334 128.2 t 90 r /Helvetica-Bold findfont 28.5368 sf 0 0 m (/dof=0.1) show NC gr  black 1 0.6 1 c
 gsave  408 306 23 13 C 415.938 116.804 t 90 r /Helvetica-Bold findfont 19.9758 sf 0 0 m (2) show NC gr  black 1 0.6 1 c
 gsave  408 306 23 13 C 427.334 99.7112 t 90 r /Symbol findfont 28.5368 sf 0 0 m (c) show NC gr  black 3 lw 1 1 1 c 408 306 476 13 bf black 1 1 1 c black 307 229 537 59 bl 307 229 537 59 bl 537 59 m 307 X s 537 63 m -4 Y s 650 63 m -4 Y s 763 63 m -4
 Y s 763 63 m -4 Y s
 gsave  408 306 476 13 C 527.045 39.8845 t 0 r /Helvetica findfont 22.8295 sf 0 0 m (0) show NC gr 
 gsave  408 306 476 13 C 643.849 39.8845 t 0 r /Helvetica findfont 22.8295 sf 0 0 m (1) show NC gr 
 gsave  408 306 476 13 C 752.107 39.8845 t 0 r /Helvetica findfont 22.8295 sf 0 0 m (2) show NC gr  537 288 m 307 X s 537 284 m 4 Y s 650 284 m 4 Y s 763 284 m 4 Y s 763 284 m 4 Y s 537 59 m 229 Y s 543 85 m -6 X s 540 96 m -3 X s 540 107 m -3 X s
 540 119 m -3 X s 543 130 m -6 X s 540 142 m -3 X s 540 153 m -3 X s 540 164 m -3 X s 543 176 m -6 X s 540 187 m -3 X s 540 199 m -3 X s 540 210 m -3 X s 543 221 m -6 X s 540 233 m -3 X s 540 244 m -3 X s 540 256 m -3 X s 543 267 m -6 X s 543 85 m -6
 X s 540 73 m -3 X s 540 62 m -3 X s 543 267 m -6 X s 540 278 m -3 X s
 gsave  408 306 476 13 C 481.462 76.92 t 0 r /Helvetica findfont 22.8295 sf 0 0 m (\2550.04) show NC gr 
 gsave  408 306 476 13 C 481.462 122.502 t 0 r /Helvetica findfont 22.8295 sf 0 0 m (\2550.02) show NC gr 
 gsave  408 306 476 13 C 518.498 168.085 t 0 r /Helvetica findfont 22.8295 sf 0 0 m (0) show NC gr 
 gsave  408 306 476 13 C 487.16 213.667 t 0 r /Helvetica findfont 22.8295 sf 0 0 m (0.02) show NC gr 
 gsave  408 306 476 13 C 487.16 259.249 t 0 r /Helvetica findfont 22.8295 sf 0 0 m (0.04) show NC gr  844 59 m 229 Y s 838 85 m 6 X s 841 96 m 3 X s 841 107 m 3 X s 841 119 m 3 X s 838 130 m 6 X s 841 142 m 3 X s 841 153 m 3 X s 841 164 m 3 X s 838
 176 m 6 X s 841 187 m 3 X s 841 199 m 3 X s 841 210 m 3 X s 838 221 m 6 X s 841 233 m 3 X s 841 244 m 3 X s 841 256 m 3 X s 838 267 m 6 X s 838 85 m 6 X s 841 73 m 3 X s 841 62 m 3 X s 838 267 m 6 X s 841 278 m 3 X s /w 23 def /w2 {w 2 div} def /w3
 {w 3 div} def 594 210 650 177 763 135 819 143 4 { m21} R 594 222 m 47 Y s 588 269 m 11 X s 594 199 m -48 Y s 588 151 m 11 X s 650 188 m 46 Y s 644 234 m 12 X s 650 165 m -46 Y s 644 119 m 12 X s 763 146 m 45 Y s 757 191 m 11 X s 763 123 m -45 Y s
 757 78 m 11 X s 819 154 m 46 Y s 813 200 m 12 X s 819 132 m -46 Y s 813 86 m 12 X s 1 0 0 c 9 lw 0.95 0.95 0.95 c black 1 0 0 c 539 176 m 21 X 3 -1 d 25 X 3 -1 d 12 X 3 -1 d 10 X 3 -1 d 9 X 3 -1 d 6 X 3 -1 d 6 X 3 -1 d 6 X 3 -1 d 6 X 4 -1 d 3 X 3 -1
 d 6 X 3 -1 d 3 X 3 -1 d s 689 164 m 3 X 3 -1 d 3 X 3 -1 d 3 X 3 -1 d 3 X 3 -1 d 4 -1 d 3 X 3 -1 d 3 X 3 -1 d 3 X 3 -1 d 3 -1 d 3 X 3 -1 d 3 -1 d 3 X 3 -1 d 3 -1 d 3 X 3 -1 d 4 -1 d 3 X 3 -1 d 3 -1 d 3 -1 d 3 X 3 -1 d 3 -1 d 3 -1 d 3 X 3 -1 d 3 -1 d
 3 -1 d 3 -1 d 3 -1 d 3 X 4 -1 d 3 -1 d 3 -1 d 3 -1 d 3 -1 d 3 -1 d 3 -1 d 3 X 3 -1 d s 839 130 m 3 -1 d s 0.49 0.6 0.82 c black 0.49 0.6 0.82 c
 gsave  408 306 476 13 C 595.418 296.285 t 0 r /Helvetica-Bold findfont 25.6831 sf 0 0 m (8.0 < E < 8.5 GeV) show NC gr  0.52 0.76 0.64 c black 0.52 0.76 0.64 c
 gsave  408 306 476 13 C 575.476 259.249 t 0 r /Helvetica-Bold findfont 25.6831 sf 0 0 m 
 228 214 200 193 178 171 156 149 133 126 119 105 91 76 69 55 47 39 25 17
(A = \2550.003, p = 2.000) K NC gr  1 0.6 1 c black 1 0.6 1 c
 gsave  408 306 476 13 C 883.156 128.2 t 90 r /Helvetica-Bold findfont 28.5368 sf 0 0 m (/dof=0.2) show NC gr  black 1 0.6 1 c
 gsave  408 306 476 13 C 871.76 116.804 t 90 r /Helvetica-Bold findfont 19.9758 sf 0 0 m (2) show NC gr  black 1 0.6 1 c
 gsave  408 306 476 13 C 883.156 99.7112 t 90 r /Symbol findfont 28.5368 sf 0 0 m (c) show NC gr  black 3 lw 1 1 1 c 408 306 930 13 bf black 1 1 1 c black 306 229 991 59 bl 306 229 991 59 bl 991 59 m 306 X s 991 63 m -4 Y s 1104 63 m -4 Y s 1216 63 m
 -4 Y s 1216 63 m -4 Y s
 gsave  408 306 930 13 C 980.018 39.8845 t 0 r /Helvetica findfont 22.8295 sf 0 0 m (0) show NC gr 
 gsave  408 306 930 13 C 1096.82 39.8845 t 0 r /Helvetica findfont 22.8295 sf 0 0 m (1) show NC gr 
 gsave  408 306 930 13 C 1205.08 39.8845 t 0 r /Helvetica findfont 22.8295 sf 0 0 m (2) show NC gr  991 288 m 306 X s 991 284 m 4 Y s 1104 284 m 4 Y s 1216 284 m 4 Y s 1216 284 m 4 Y s 991 59 m 229 Y s 997 66 m -6 X s 994 73 m -3 X s 994 80 m -3 X s
 994 87 m -3 X s 997 94 m -6 X s 994 101 m -3 X s 994 108 m -3 X s 994 115 m -3 X s 997 122 m -6 X s 994 129 m -3 X s 994 136 m -3 X s 994 143 m -3 X s 997 150 m -6 X s 994 157 m -3 X s 994 163 m -3 X s 994 170 m -3 X s 997 177 m -6 X s 994 184 m -3
 X s 994 191 m -3 X s 994 198 m -3 X s 997 205 m -6 X s 994 212 m -3 X s 994 219 m -3 X s 994 226 m -3 X s 997 233 m -6 X s 994 240 m -3 X s 994 247 m -3 X s 994 254 m -3 X s 997 261 m -6 X s 997 66 m -6 X s 994 59 m -3 X s 997 261 m -6 X s 994 267 m
 -3 X s 994 274 m -3 X s 994 281 m -3 X s
 gsave  408 306 930 13 C 937.285 59.8267 t 0 r /Helvetica findfont 22.8295 sf 0 0 m (\2550.08) show NC gr 
 gsave  408 306 930 13 C 937.285 88.3156 t 0 r /Helvetica findfont 22.8295 sf 0 0 m (\2550.06) show NC gr 
 gsave  408 306 930 13 C 937.285 113.956 t 0 r /Helvetica findfont 22.8295 sf 0 0 m (\2550.04) show NC gr 
 gsave  408 306 930 13 C 937.285 142.445 t 0 r /Helvetica findfont 22.8295 sf 0 0 m (\2550.02) show NC gr 
 gsave  408 306 930 13 C 974.32 170.933 t 0 r /Helvetica findfont 22.8295 sf 0 0 m (0) show NC gr 
 gsave  408 306 930 13 C 942.983 196.573 t 0 r /Helvetica findfont 22.8295 sf 0 0 m (0.02) show NC gr 
 gsave  408 306 930 13 C 942.983 225.062 t 0 r /Helvetica findfont 22.8295 sf 0 0 m (0.04) show NC gr 
 gsave  408 306 930 13 C 942.983 253.551 t 0 r /Helvetica findfont 22.8295 sf 0 0 m (0.06) show NC gr  1297 59 m 229 Y s 1292 66 m 5 X s 1294 73 m 3 X s 1294 80 m 3 X s 1294 87 m 3 X s 1292 94 m 5 X s 1294 101 m 3 X s 1294 108 m 3 X s 1294 115 m 3 X
 s 1292 122 m 5 X s 1294 129 m 3 X s 1294 136 m 3 X s 1294 143 m 3 X s 1292 150 m 5 X s 1294 157 m 3 X s 1294 163 m 3 X s 1294 170 m 3 X s 1292 177 m 5 X s 1294 184 m 3 X s 1294 191 m 3 X s 1294 198 m 3 X s 1292 205 m 5 X s 1294 212 m 3 X s 1294 219
 m 3 X s 1294 226 m 3 X s 1292 233 m 5 X s 1294 240 m 3 X s 1294 247 m 3 X s 1294 254 m 3 X s 1292 261 m 5 X s 1292 66 m 5 X s 1294 59 m 3 X s 1292 261 m 5 X s 1294 267 m 3 X s 1294 274 m 3 X s 1294 281 m 3 X s 1047 228 1104 115 1216 230 1272 183 4 {
 m21} R 1047 239 m 29 Y s 1042 268 m 11 X s 1047 217 m -29 Y s 1042 188 m 11 X s 1104 126 m 25 Y s 1098 151 m 11 X s 1104 103 m -25 Y s 1098 78 m 11 X s 1216 241 m 28 Y s 1210 269 m 12 X s 1216 219 m -28 Y s 1210 191 m 12 X s 1272 195 m 26 Y s 1267
 221 m 11 X s 1272 172 m -26 Y s 1267 146 m 11 X s 1 0 0 c 9 lw 0.95 0.95 0.95 c black 1 0 0 c 993 177 m 21 X 3 1 d 40 X 3 1 d 21 X 3 1 d 19 X 3 1 d 12 X 3 1 d 12 X 3 1 d 7 X s 1143 183 m 3 X 3 1 d 9 X 3 1 d 9 X 3 1 d 6 X 3 1 d 10 X 3 1 d 6 X 3 1 d 6
 X 3 1 d 6 X 3 1 d 6 X 3 1 d 3 X 3 1 d 7 X 3 1 d 3 X 3 1 d 6 X 3 1 d 3 X 3 1 d 3 X 3 1 d 6 X 3 1 d 3 X 3 1 d 4 X s 1293 200 m 3 1 d s 0.49 0.6 0.82 c black 0.49 0.6 0.82 c
 gsave  408 306 930 13 C 1051.24 296.285 t 0 r /Helvetica-Bold findfont 25.6831 sf 0 0 m (8.5 < E < 9.0 GeV) show NC gr  0.52 0.76 0.64 c black 0.52 0.76 0.64 c
 gsave  408 306 930 13 C 1037 259.249 t 0 r /Helvetica-Bold findfont 25.6831 sf 0 0 m 
 220 206 192 185 170 163 148 141 125 118 111 97 83 69 61 47 40 25 18
(A = 0.002, p = 2.000) K NC gr  1 0.6 1 c black 1 0.6 1 c
 gsave  408 306 930 13 C 1336.13 128.2 t 90 r /Helvetica-Bold findfont 28.5368 sf 0 0 m (/dof=2.0) show NC gr  black 1 0.6 1 c
 gsave  408 306 930 13 C 1324.73 116.804 t 90 r /Helvetica-Bold findfont 19.9758 sf 0 0 m (2) show NC gr  black 1 0.6 1 c
 gsave  408 306 930 13 C 1336.13 99.7112 t 90 r /Symbol findfont 28.5368 sf 0 0 m (c) show NC gr  black 3 lw 1 1 1 c 408 306 1383 13 bf black 1 1 1 c black 306 229 1445 59 bl 306 229 1445 59 bl 1445 59 m 306 X s 1445 63 m -4 Y s 1557 63 m -4 Y s 1670
 63 m -4 Y s 1670 63 m -4 Y s
 gsave  408 306 1383 13 C 1435.84 39.8845 t 0 r /Helvetica findfont 22.8295 sf 0 0 m (0) show NC gr 
 gsave  408 306 1383 13 C 1549.8 39.8845 t 0 r /Helvetica findfont 22.8295 sf 0 0 m (1) show NC gr 
 gsave  408 306 1383 13 C 1660.9 39.8845 t 0 r /Helvetica findfont 22.8295 sf 0 0 m (2) show NC gr  1445 288 m 306 X s 1445 284 m 4 Y s 1557 284 m 4 Y s 1670 284 m 4 Y s 1670 284 m 4 Y s 1445 59 m 229 Y s 1450 71 m -5 X s 1447 76 m -2 X s 1447 81 m
 -2 X s 1447 86 m -2 X s 1447 91 m -2 X s 1450 97 m -5 X s 1447 102 m -2 X s 1447 107 m -2 X s 1447 112 m -2 X s 1447 118 m -2 X s 1450 123 m -5 X s 1447 128 m -2 X s 1447 133 m -2 X s 1447 138 m -2 X s 1447 144 m -2 X s 1450 149 m -5 X s 1447 154 m
 -2 X s 1447 159 m -2 X s 1447 165 m -2 X s 1447 170 m -2 X s 1450 175 m -5 X s 1447 180 m -2 X s 1447 185 m -2 X s 1447 191 m -2 X s 1447 196 m -2 X s 1450 201 m -5 X s 1447 206 m -2 X s 1447 212 m -2 X s 1447 217 m -2 X s 1447 222 m -2 X s 1450 227
 m -5 X s 1447 232 m -2 X s 1447 238 m -2 X s 1447 243 m -2 X s 1447 248 m -2 X s 1450 253 m -5 X s 1447 258 m -2 X s 1447 264 m -2 X s 1447 269 m -2 X s 1447 274 m -2 X s 1450 279 m -5 X s 1450 71 m -5 X s 1447 65 m -2 X s 1447 60 m -2 X s 1450 279
 m -5 X s 1447 285 m -2 X s
 gsave  408 306 1383 13 C 1390.26 62.6756 t 0 r /Helvetica findfont 22.8295 sf 0 0 m (\2550.03) show NC gr 
 gsave  408 306 1383 13 C 1390.26 88.3156 t 0 r /Helvetica findfont 22.8295 sf 0 0 m (\2550.02) show NC gr 
 gsave  408 306 1383 13 C 1393.11 116.804 t 0 r /Helvetica findfont 22.8295 sf 0 0 m (\2550.01) show NC gr 
 gsave  408 306 1383 13 C 1427.29 142.445 t 0 r /Helvetica findfont 22.8295 sf 0 0 m (0) show NC gr 
 gsave  408 306 1383 13 C 1398.81 168.085 t 0 r /Helvetica findfont 22.8295 sf 0 0 m (0.01) show NC gr 
 gsave  408 306 1383 13 C 1395.96 193.725 t 0 r /Helvetica findfont 22.8295 sf 0 0 m (0.02) show NC gr 
 gsave  408 306 1383 13 C 1395.96 219.365 t 0 r /Helvetica findfont 22.8295 sf 0 0 m (0.03) show NC gr 
 gsave  408 306 1383 13 C 1395.96 245.005 t 0 r /Helvetica findfont 22.8295 sf 0 0 m (0.04) show NC gr 
 gsave  408 306 1383 13 C 1395.96 273.493 t 0 r /Helvetica findfont 22.8295 sf 0 0 m (0.05) show NC gr  1751 59 m 229 Y s 1745 71 m 6 X s 1748 76 m 3 X s 1748 81 m 3 X s 1748 86 m 3 X s 1748 91 m 3 X s 1745 97 m 6 X s 1748 102 m 3 X s 1748 107 m 3 X
 s 1748 112 m 3 X s 1748 118 m 3 X s 1745 123 m 6 X s 1748 128 m 3 X s 1748 133 m 3 X s 1748 138 m 3 X s 1748 144 m 3 X s 1745 149 m 6 X s 1748 154 m 3 X s 1748 159 m 3 X s 1748 165 m 3 X s 1748 170 m 3 X s 1745 175 m 6 X s 1748 180 m 3 X s 1748 185
 m 3 X s 1748 191 m 3 X s 1748 196 m 3 X s 1745 201 m 6 X s 1748 206 m 3 X s 1748 212 m 3 X s 1748 217 m 3 X s 1748 222 m 3 X s 1745 227 m 6 X s 1748 232 m 3 X s 1748 238 m 3 X s 1748 243 m 3 X s 1748 248 m 3 X s 1745 253 m 6 X s 1748 258 m 3 X s
 1748 264 m 3 X s 1748 269 m 3 X s 1748 274 m 3 X s 1745 279 m 6 X s 1745 71 m 6 X s 1748 65 m 3 X s 1748 60 m 3 X s 1745 279 m 6 X s 1748 285 m 3 X s 1501 170 1557 193 1670 154 1726 184 4 { m21} R 1501 181 m 64 Y s 1495 245 m 12 X s 1501 158 m -64 Y
 s 1495 94 m 12 X s 1557 204 m 65 Y s 1551 269 m 12 X s 1557 181 m -64 Y s 1551 117 m 12 X s 1670 165 m 65 Y s 1664 230 m 11 X s 1670 143 m -65 Y s 1664 78 m 11 X s 1726 196 m 65 Y s 1720 261 m 12 X s 1726 173 m -65 Y s 1720 108 m 12 X s 9 lw 0.95
 0.95 0.95 c black 1446 149 m 3 X 3 1 d 3 X 3 1 d 6 X 3 1 d 7 X 3 1 d 6 X 3 1 d 6 X 3 1 d 3 X 3 1 d 6 X 3 1 d 6 X 4 1 d 6 X 3 1 d 3 X 3 1 d 6 X 3 1 d 6 X 3 1 d 6 X 3 1 d 3 X 4 1 d 6 X 3 1 d 6 X 3 1 d 6 X 3 1 d s 1596 167 m 3 X 3 1 d 6 X 3 1 d 7 X 3 1
 d 6 X 3 1 d 3 X 3 1 d 6 X 3 1 d 6 X 3 1 d 6 X 3 1 d 3 X 4 1 d 6 X 3 1 d 6 X 3 1 d 6 X 3 1 d 3 X 3 1 d 6 X 3 1 d 7 X 3 1 d 6 X 3 1 d 6 X 3 1 d 3 X 3 1 d s 1746 185 m 3 X s 0.49 0.6 0.82 c black 0.49 0.6 0.82 c
 gsave  408 306 1383 13 C 1504.21 296.285 t 0 r /Helvetica-Bold findfont 25.6831 sf 0 0 m (9.0 < E < 9.5 GeV) show NC gr  0.52 0.76 0.64 c black 0.52 0.76 0.64 c
 gsave  408 306 1383 13 C 1489.97 259.249 t 0 r /Helvetica-Bold findfont 25.6831 sf 0 0 m 
 220 206 192 185 170 163 148 141 126 118 111 97 83 69 61 47 40 25 18
(A = 0.005, p = 1.000) K NC gr  1 0.6 1 c black 1 0.6 1 c
 gsave  408 306 1383 13 C 1789.1 128.2 t 90 r /Helvetica-Bold findfont 28.5368 sf 0 0 m (/dof=0.1) show NC gr  black 1 0.6 1 c
 gsave  408 306 1383 13 C 1777.71 116.804 t 90 r /Helvetica-Bold findfont 19.9758 sf 0 0 m (2) show NC gr  black 1 0.6 1 c
 gsave  408 306 1383 13 C 1789.1 99.7112 t 90 r /Symbol findfont 28.5368 sf 0 0 m (c) show NC gr  black 3 lw 1 1 1 c 408 306 1837 13 bf black 1 1 1 c black 306 229 1898 59 bl 306 229 1898 59 bl 1898 59 m 306 X s 1898 63 m -4 Y s 2011 63 m -4 Y s 2123
 63 m -4 Y s 2123 63 m -4 Y s
 gsave  408 306 1837 13 C 1888.81 39.8845 t 0 r /Helvetica findfont 22.8295 sf 0 0 m (0) show NC gr 
 gsave  408 306 1837 13 C 2002.77 39.8845 t 0 r /Helvetica findfont 22.8295 sf 0 0 m (1) show NC gr 
 gsave  408 306 1837 13 C 2113.88 39.8845 t 0 r /Helvetica findfont 22.8295 sf 0 0 m (2) show NC gr  1898 288 m 306 X s 1898 284 m 4 Y s 2011 284 m 4 Y s 2123 284 m 4 Y s 2123 284 m 4 Y s 1898 59 m 229 Y s 1904 90 m -6 X s 1901 100 m -3 X s 1901 110
 m -3 X s 1901 121 m -3 X s 1904 131 m -6 X s 1901 142 m -3 X s 1901 152 m -3 X s 1901 162 m -3 X s 1904 173 m -6 X s 1901 183 m -3 X s 1901 193 m -3 X s 1901 204 m -3 X s 1904 214 m -6 X s 1901 225 m -3 X s 1901 235 m -3 X s 1901 245 m -3 X s 1904
 256 m -6 X s 1904 90 m -6 X s 1901 79 m -3 X s 1901 69 m -3 X s 1904 256 m -6 X s 1901 266 m -3 X s 1901 276 m -3 X s 1901 287 m -3 X s
 gsave  408 306 1837 13 C 1843.23 82.6178 t 0 r /Helvetica findfont 22.8295 sf 0 0 m (\2550.06) show NC gr 
 gsave  408 306 1837 13 C 1843.23 125.351 t 0 r /Helvetica findfont 22.8295 sf 0 0 m (\2550.04) show NC gr 
 gsave  408 306 1837 13 C 1843.23 165.236 t 0 r /Helvetica findfont 22.8295 sf 0 0 m (\2550.02) show NC gr 
 gsave  408 306 1837 13 C 1880.27 207.969 t 0 r /Helvetica findfont 22.8295 sf 0 0 m (0) show NC gr 
 gsave  408 306 1837 13 C 1848.93 247.853 t 0 r /Helvetica findfont 22.8295 sf 0 0 m (0.02) show NC gr  2204 59 m 229 Y s 2199 90 m 5 X s 2201 100 m 3 X s 2201 110 m 3 X s 2201 121 m 3 X s 2199 131 m 5 X s 2201 142 m 3 X s 2201 152 m 3 X s 2201 162 m
 3 X s 2199 173 m 5 X s 2201 183 m 3 X s 2201 193 m 3 X s 2201 204 m 3 X s 2199 214 m 5 X s 2201 225 m 3 X s 2201 235 m 3 X s 2201 245 m 3 X s 2199 256 m 5 X s 2199 90 m 5 X s 2201 79 m 3 X s 2201 69 m 3 X s 2199 256 m 5 X s 2201 266 m 3 X s 2201 276
 m 3 X s 2201 287 m 3 X s 1954 206 2011 150 2123 139 2179 155 4 { m21} R 1954 218 m 51 Y s 1949 269 m 11 X s 1954 195 m -52 Y s 1949 143 m 11 X s 2011 162 m 50 Y s 2005 212 m 11 X s 2011 139 m -50 Y s 2005 89 m 11 X s 2123 150 m 49 Y s 2117 199 m 12
 X s 2123 127 m -49 Y s 2117 78 m 12 X s 2179 167 m 50 Y s 2174 217 m 11 X s 2179 144 m -50 Y s 2174 94 m 11 X s 9 lw 0.95 0.95 0.95 c black 1900 214 m 3 -1 d 3 -1 d 3 -1 d 3 -1 d 3 -1 d 3 X 3 -1 d 3 -1 d 3 -1 d 3 -1 d 3 -1 d 3 -1 d 3 -1 d 3 X 4 -1 d
 3 -1 d 3 -1 d 3 -1 d 3 -1 d 3 -1 d 3 -1 d 3 X 3 -1 d 3 -1 d 3 -1 d 3 -1 d 3 -1 d 3 -1 d 3 X 3 -1 d 4 -1 d 3 -1 d 3 -1 d 3 -1 d 3 -1 d 3 -1 d 3 X 3 -1 d 3 -1 d 3 -1 d 3 -1 d 3 -1 d 3 -1 d 3 X 3 -1 d 3 -1 d 3 -1 d 4 -1 d 3 -1 d s 2050 171 m 3 -1 d 3
 -1 d 3 X 3 -1 d 3 -1 d 3 -1 d 3 -1 d 3 -1 d 3 -1 d 3 X 3 -1 d 3 -1 d 3 -1 d 3 -1 d 4 -1 d 3 -1 d 3 -1 d 3 X 3 -1 d 3 -1 d 3 -1 d 3 -1 d 3 -1 d 3 -1 d 3 X 3 -1 d 3 -1 d 3 -1 d 3 -1 d 3 -1 d 4 -1 d 3 -1 d 3 X 3 -1 d 3 -1 d 3 -1 d 3 -1 d 3 -1 d 3 -1 d
 3 X 3 -1 d 3 -1 d 3 -1 d 3 -1 d 3 -1 d 3 -1 d 4 -1 d 3 X 3 -1 d s 2200 129 m 3 -1 d s 0.49 0.6 0.82 c black 0.49 0.6 0.82 c
 gsave  408 306 1837 13 C 1948.64 296.285 t 0 r /Helvetica-Bold findfont 25.6831 sf 0 0 m (9.5 < E < 10.0 GeV) show NC gr  0.52 0.76 0.64 c black 0.52 0.76 0.64 c
 gsave  408 306 1837 13 C 1937.25 259.249 t 0 r /Helvetica-Bold findfont 25.6831 sf 0 0 m 
 228 214 200 193 178 171 156 149 133 126 119 105 91 77 69 55 47 39 25 17
(A = \2550.015, p = 1.000) K NC gr  1 0.6 1 c black 1 0.6 1 c
 gsave  408 306 1837 13 C 2242.08 128.2 t 90 r /Helvetica-Bold findfont 28.5368 sf 0 0 m (/dof=0.1) show NC gr  black 1 0.6 1 c
 gsave  408 306 1837 13 C 2230.68 116.804 t 90 r /Helvetica-Bold findfont 19.9758 sf 0 0 m (2) show NC gr  black 1 0.6 1 c
 gsave  408 306 1837 13 C 2242.08 99.7112 t 90 r /Symbol findfont 28.5368 sf 0 0 m (c) show NC gr 
 gr  gr showpage
end
%%EOF
