%!PS-Adobe-2.0 EPSF-2.0
%%BoundingBox:  0 0 567 332
%%Title: Horn1YTilt_nof_fits.eps: Fits
%%Creator: ROOT Version 5.30/06
%%CreationDate: Sun Feb  2 09:28:56 2014
%%EndComments
%%BeginProlog
80 dict begin
/s {stroke} def /l {lineto} def /m {moveto} def /t {translate} def
/r {rotate} def /rl {roll}  def /R {repeat} def
/d {rlineto} def /rm {rmoveto} def /gr {grestore} def /f {eofill} def
/c {setrgbcolor} def /black {0 setgray} def /sd {setdash} def
/cl {closepath} def /sf {scalefont setfont} def /lw {setlinewidth} def
/box {m dup 0 exch d exch 0 d 0 exch neg d cl} def
/NC{systemdict begin initclip end}def/C{NC box clip newpath}def
/bl {box s} def /bf {box f} def /Y { 0 exch d} def /X { 0 d} def 
/K {{pop pop 0 moveto} exch kshow} bind def
/ita {/ang 15 def gsave [1 0 ang dup sin exch cos div 1 0 0] concat} def 
/mp {newpath /y exch def /x exch def} def
/side {[w .77 mul w .23 mul] .385 w mul sd w 0 l currentpoint t -144 r} def
/mr {mp x y w2 0 360 arc} def /m24 {mr s} def /m20 {mr f} def
/mb {mp x y w2 add m w2 neg 0 d 0 w neg d w 0 d 0 w d cl} def
/mt {mp x y w2 add m w2 neg w neg d w 0 d cl} def
/m21 {mb f} def /m25 {mb s} def /m22 {mt f} def /m26{mt s} def
/m23 {mp x y w2 sub m w2 w d w neg 0 d cl f} def
/m27 {mp x y w2 add m w3 neg w2 neg d w3 w2 neg d w3 w2 d cl s} def
/m28 {mp x w2 sub y w2 sub w3 add m w3 0 d  0 w3 neg d w3 0 d 0 w3 d w3 0 d  0 w3 d w3 neg 0 d 0 w3 d w3 neg 0 d 0 w3 neg d w3 neg 0 d cl s } def
/m29 {mp gsave x w2 sub y w2 add w3 sub m currentpoint t 4 {side} repeat cl fill gr} def
/m30 {mp gsave x w2 sub y w2 add w3 sub m currentpoint t 4 {side} repeat cl s gr} def
/m31 {mp x y w2 sub m 0 w d x w2 sub y m w 0 d x w2 sub y w2 add m w w neg d x w2 sub y w2 sub m w w d s} def
/m32 {mp x y w2 sub m w2 w d w neg 0 d cl s} def
/m33 {mp x y w2 add m w3 neg w2 neg d w3 w2 neg d w3 w2 d cl f} def
/m34 {mp x w2 sub y w2 sub w3 add m w3 0 d  0 w3 neg d w3 0 d 0 w3 d w3 0 d  0 w3 d w3 neg 0 d 0 w3 d w3 neg 0 d 0 w3 neg d w3 neg 0 d cl f } def
/m2 {mp x y w2 sub m 0 w d x w2 sub y m w 0 d s} def
/m5 {mp x w2 sub y w2 sub m w w d x w2 sub y w2 add m w w neg d s} def
/reEncode {exch findfont dup length dict begin {1 index /FID eq  {pop pop} {def} ifelse } forall /Encoding exch def currentdict end dup /FontName get exch definefont pop } def [/Times-Bold /Times-Italic /Times-BoldItalic /Helvetica /Helvetica-Oblique
 /Helvetica-Bold /Helvetica-BoldOblique /Courier /Courier-Oblique /Courier-Bold /Courier-BoldOblique /Times-Roman /AvantGarde-Book /AvantGarde-BookOblique /AvantGarde-Demi /AvantGarde-DemiOblique /Bookman-Demi /Bookman-DemiItalic /Bookman-Light
 /Bookman-LightItalic /Helvetica-Narrow /Helvetica-Narrow-Bold /Helvetica-Narrow-BoldOblique /Helvetica-Narrow-Oblique /NewCenturySchlbk-Roman /NewCenturySchlbk-Bold /NewCenturySchlbk-BoldItalic /NewCenturySchlbk-Italic /Palatino-Bold
 /Palatino-BoldItalic /Palatino-Italic /Palatino-Roman ] {ISOLatin1Encoding reEncode } forall%%EndProlog
%%BeginSetup
%%EndSetup
newpath  gsave  .25 .25 scale  gsave  0 0 t black[  ] 0 sd 3 lw 1 1 1 c 2268 1328 0 0 bf black 1 1 1 c 408 305 23 1009 bf black 1 1 1 c black 306 229 84 1055 bl 306 229 84 1055 bl 84 1055 m 306 X s 84 1059 m -4 Y s 224 1059 m -4 Y s 363 1059 m -4 Y s
 363 1059 m -4 Y s
 gsave  408 305 23 1009 C 74.0711 1034.15 t 0 r /Helvetica findfont 22.8295 sf 0 0 m (0) show NC gr 
 gsave  408 305 23 1009 C 216.516 1034.15 t 0 r /Helvetica findfont 22.8295 sf 0 0 m (1) show NC gr 
 gsave  408 305 23 1009 C 353.262 1034.15 t 0 r /Helvetica findfont 22.8295 sf 0 0 m (2) show NC gr  84 1284 m 306 X s 84 1280 m 4 Y s 224 1280 m 4 Y s 363 1280 m 4 Y s 363 1280 m 4 Y s 84 1055 m 229 Y s 89 1069 m -5 X s 87 1074 m -3 X s 87 1079 m -3
 X s 87 1084 m -3 X s 87 1089 m -3 X s 89 1095 m -5 X s 87 1100 m -3 X s 87 1105 m -3 X s 87 1110 m -3 X s 87 1115 m -3 X s 89 1120 m -5 X s 87 1125 m -3 X s 87 1131 m -3 X s 87 1136 m -3 X s 87 1141 m -3 X s 89 1146 m -5 X s 87 1151 m -3 X s 87 1156
 m -3 X s 87 1162 m -3 X s 87 1167 m -3 X s 89 1172 m -5 X s 87 1177 m -3 X s 87 1182 m -3 X s 87 1187 m -3 X s 87 1193 m -3 X s 89 1198 m -5 X s 87 1203 m -3 X s 87 1208 m -3 X s 87 1213 m -3 X s 87 1218 m -3 X s 89 1223 m -5 X s 87 1229 m -3 X s 87
 1234 m -3 X s 87 1239 m -3 X s 87 1244 m -3 X s 89 1249 m -5 X s 87 1254 m -3 X s 87 1260 m -3 X s 87 1265 m -3 X s 87 1270 m -3 X s 89 1275 m -5 X s 89 1069 m -5 X s 87 1064 m -3 X s 87 1058 m -3 X s 89 1275 m -5 X s 87 1280 m -3 X s
 gsave  408 305 23 1009 C 14.2445 1062.64 t 0 r /Helvetica findfont 22.8295 sf 0 0 m (\2550.005) show NC gr 
 gsave  408 305 23 1009 C 14.2445 1088.28 t 0 r /Helvetica findfont 22.8295 sf 0 0 m (\2550.004) show NC gr 
 gsave  408 305 23 1009 C 14.2445 1113.92 t 0 r /Helvetica findfont 22.8295 sf 0 0 m (\2550.003) show NC gr 
 gsave  408 305 23 1009 C 14.2445 1139.56 t 0 r /Helvetica findfont 22.8295 sf 0 0 m (\2550.002) show NC gr 
 gsave  408 305 23 1009 C 17.0933 1165.2 t 0 r /Helvetica findfont 22.8295 sf 0 0 m (\2550.001) show NC gr 
 gsave  408 305 23 1009 C 65.5245 1190.84 t 0 r /Helvetica findfont 22.8295 sf 0 0 m (0) show NC gr 
 gsave  408 305 23 1009 C 25.64 1216.48 t 0 r /Helvetica findfont 22.8295 sf 0 0 m (0.001) show NC gr 
 gsave  408 305 23 1009 C 22.7911 1242.12 t 0 r /Helvetica findfont 22.8295 sf 0 0 m (0.002) show NC gr 
 gsave  408 305 23 1009 C 22.7911 1267.76 t 0 r /Helvetica findfont 22.8295 sf 0 0 m (0.003) show NC gr  390 1055 m 229 Y s 385 1069 m 5 X s 387 1074 m 3 X s 387 1079 m 3 X s 387 1084 m 3 X s 387 1089 m 3 X s 385 1095 m 5 X s 387 1100 m 3 X s 387
 1105 m 3 X s 387 1110 m 3 X s 387 1115 m 3 X s 385 1120 m 5 X s 387 1125 m 3 X s 387 1131 m 3 X s 387 1136 m 3 X s 387 1141 m 3 X s 385 1146 m 5 X s 387 1151 m 3 X s 387 1156 m 3 X s 387 1162 m 3 X s 387 1167 m 3 X s 385 1172 m 5 X s 387 1177 m 3 X
 s 387 1182 m 3 X s 387 1187 m 3 X s 387 1193 m 3 X s 385 1198 m 5 X s 387 1203 m 3 X s 387 1208 m 3 X s 387 1213 m 3 X s 387 1218 m 3 X s 385 1223 m 5 X s 387 1229 m 3 X s 387 1234 m 3 X s 387 1239 m 3 X s 387 1244 m 3 X s 385 1249 m 5 X s 387 1254
 m 3 X s 387 1260 m 3 X s 387 1265 m 3 X s 387 1270 m 3 X s 385 1275 m 5 X s 385 1069 m 5 X s 387 1064 m 3 X s 387 1058 m 3 X s 385 1275 m 5 X s 387 1280 m 3 X s /w 22 def /w2 {w 2 div} def /w3 {w 3 div} def 119 1199 154 1195 224 1139 363 1191 4 {
 m21} R 119 1210 m 55 Y s 113 1265 m 12 X s 119 1188 m -55 Y s 113 1133 m 12 X s 154 1206 m 55 Y s 148 1261 m 11 X s 154 1183 m -54 Y s 148 1129 m 11 X s 224 1151 m 54 Y s 218 1205 m 11 X s 224 1128 m -54 Y s 218 1074 m 11 X s 363 1202 m 55 Y s 357
 1257 m 12 X s 363 1179 m -55 Y s 357 1124 m 12 X s 9 lw 0.95 0.95 0.95 c black 85 1198 m 3 -1 d 7 X 3 -1 d 6 X 3 -1 d 6 X 3 -1 d 9 X 3 -1 d 6 X 3 -1 d 7 X 3 -1 d 6 X 3 -1 d 9 X 3 -1 d 6 X 3 -1 d 6 X 3 -1 d 7 X 3 -1 d 9 X 3 -1 d 6 X 3 -1 d 6 X 3 -1 d
 6 X 3 -1 d s 235 1182 m 10 X 3 -1 d 6 X 3 -1 d 6 X 3 -1 d 6 X 3 -1 d 9 X 3 -1 d 7 X 3 -1 d 6 X 3 -1 d 9 X 3 -1 d 6 X 3 -1 d 6 X 3 -1 d 7 X 3 -1 d 9 X 3 -1 d 6 X 3 -1 d 6 X 3 -1 d 6 X 3 -1 d s 385 1167 m 4 X s 0.49 0.6 0.82 c black 0.49 0.6 0.82 c
 gsave  408 305 23 1009 C 142.445 1293.4 t 0 r /Helvetica-Bold findfont 25.6831 sf 0 0 m (0.0 < E < 0.5 GeV) show NC gr  0.52 0.76 0.64 c black 0.52 0.76 0.64 c
 gsave  408 305 23 1009 C 122.502 1256.36 t 0 r /Helvetica-Bold findfont 25.6831 sf 0 0 m 
 228 214 200 193 178 171 156 149 134 126 119 105 91 77 69 55 47 39 25 17
(A = \2550.001, p = 1.000) K NC gr  1 0.6 1 c black 1 0.6 1 c
 gsave  408 305 23 1009 C 427.334 1122.46 t 90 r /Helvetica-Bold findfont 28.5368 sf 0 0 m (/dof=0.2) show NC gr  black 1 0.6 1 c
 gsave  408 305 23 1009 C 415.938 1111.07 t 90 r /Helvetica-Bold findfont 19.9758 sf 0 0 m (2) show NC gr  black 1 0.6 1 c
 gsave  408 305 23 1009 C 427.334 1093.97 t 90 r /Symbol findfont 28.5368 sf 0 0 m (c) show NC gr  black 3 lw 1 1 1 c 408 305 476 1009 bf black 1 1 1 c black 307 229 537 1055 bl 307 229 537 1055 bl 537 1055 m 307 X s 537 1059 m -4 Y s 677 1059 m -4 Y
 s 817 1059 m -4 Y s 817 1059 m -4 Y s
 gsave  408 305 476 1009 C 527.045 1034.15 t 0 r /Helvetica findfont 22.8295 sf 0 0 m (0) show NC gr 
 gsave  408 305 476 1009 C 669.489 1034.15 t 0 r /Helvetica findfont 22.8295 sf 0 0 m (1) show NC gr 
 gsave  408 305 476 1009 C 806.236 1034.15 t 0 r /Helvetica findfont 22.8295 sf 0 0 m (2) show NC gr  537 1284 m 307 X s 537 1280 m 4 Y s 677 1280 m 4 Y s 817 1280 m 4 Y s 817 1280 m 4 Y s 537 1055 m 229 Y s 543 1072 m -6 X s 540 1077 m -3 X s 540
 1082 m -3 X s 540 1087 m -3 X s 540 1091 m -3 X s 543 1096 m -6 X s 540 1101 m -3 X s 540 1106 m -3 X s 540 1110 m -3 X s 540 1115 m -3 X s 543 1120 m -6 X s 540 1125 m -3 X s 540 1129 m -3 X s 540 1134 m -3 X s 540 1139 m -3 X s 543 1143 m -6 X s
 540 1148 m -3 X s 540 1153 m -3 X s 540 1158 m -3 X s 540 1162 m -3 X s 543 1167 m -6 X s 540 1172 m -3 X s 540 1177 m -3 X s 540 1181 m -3 X s 540 1186 m -3 X s 543 1191 m -6 X s 540 1196 m -3 X s 540 1200 m -3 X s 540 1205 m -3 X s 540 1210 m -3 X
 s 543 1215 m -6 X s 540 1219 m -3 X s 540 1224 m -3 X s 540 1229 m -3 X s 540 1234 m -3 X s 543 1238 m -6 X s 540 1243 m -3 X s 540 1248 m -3 X s 540 1253 m -3 X s 540 1257 m -3 X s 543 1262 m -6 X s 543 1072 m -6 X s 540 1068 m -3 X s 540 1063 m -3
 X s 540 1058 m -3 X s 543 1262 m -6 X s 540 1267 m -3 X s 540 1272 m -3 X s 540 1276 m -3 X s 540 1281 m -3 X s
 gsave  408 305 476 1009 C 467.218 1065.48 t 0 r /Helvetica findfont 22.8295 sf 0 0 m (\2550.004) show NC gr 
 gsave  408 305 476 1009 C 467.218 1088.28 t 0 r /Helvetica findfont 22.8295 sf 0 0 m (\2550.003) show NC gr 
 gsave  408 305 476 1009 C 467.218 1113.92 t 0 r /Helvetica findfont 22.8295 sf 0 0 m (\2550.002) show NC gr 
 gsave  408 305 476 1009 C 470.067 1136.71 t 0 r /Helvetica findfont 22.8295 sf 0 0 m (\2550.001) show NC gr 
 gsave  408 305 476 1009 C 518.498 1159.5 t 0 r /Helvetica findfont 22.8295 sf 0 0 m (0) show NC gr 
 gsave  408 305 476 1009 C 478.614 1185.14 t 0 r /Helvetica findfont 22.8295 sf 0 0 m (0.001) show NC gr 
 gsave  408 305 476 1009 C 475.765 1207.93 t 0 r /Helvetica findfont 22.8295 sf 0 0 m (0.002) show NC gr 
 gsave  408 305 476 1009 C 475.765 1230.72 t 0 r /Helvetica findfont 22.8295 sf 0 0 m (0.003) show NC gr 
 gsave  408 305 476 1009 C 475.765 1256.36 t 0 r /Helvetica findfont 22.8295 sf 0 0 m (0.004) show NC gr  844 1055 m 229 Y s 838 1072 m 6 X s 841 1077 m 3 X s 841 1082 m 3 X s 841 1087 m 3 X s 841 1091 m 3 X s 838 1096 m 6 X s 841 1101 m 3 X s 841
 1106 m 3 X s 841 1110 m 3 X s 841 1115 m 3 X s 838 1120 m 6 X s 841 1125 m 3 X s 841 1129 m 3 X s 841 1134 m 3 X s 841 1139 m 3 X s 838 1143 m 6 X s 841 1148 m 3 X s 841 1153 m 3 X s 841 1158 m 3 X s 841 1162 m 3 X s 838 1167 m 6 X s 841 1172 m 3 X
 s 841 1177 m 3 X s 841 1181 m 3 X s 841 1186 m 3 X s 838 1191 m 6 X s 841 1196 m 3 X s 841 1200 m 3 X s 841 1205 m 3 X s 841 1210 m 3 X s 838 1215 m 6 X s 841 1219 m 3 X s 841 1224 m 3 X s 841 1229 m 3 X s 841 1234 m 3 X s 838 1238 m 6 X s 841 1243
 m 3 X s 841 1248 m 3 X s 841 1253 m 3 X s 841 1257 m 3 X s 838 1262 m 6 X s 838 1072 m 6 X s 841 1068 m 3 X s 841 1063 m 3 X s 841 1058 m 3 X s 838 1262 m 6 X s 841 1267 m 3 X s 841 1272 m 3 X s 841 1276 m 3 X s 841 1281 m 3 X s /w 23 def /w2 {w 2
 div} def /w3 {w 3 div} def 572 1185 607 1156 677 1147 817 1192 4 { m21} R 572 1197 m 61 Y s 567 1258 m 11 X s 572 1174 m -62 Y s 567 1112 m 11 X s 607 1167 m 61 Y s 602 1228 m 11 X s 607 1144 m -61 Y s 602 1083 m 11 X s 677 1158 m 62 Y s 671 1220 m
 12 X s 677 1135 m -61 Y s 671 1074 m 12 X s 817 1203 m 62 Y s 811 1265 m 11 X s 817 1180 m -62 Y s 811 1118 m 11 X s 1 0 0 c 9 lw 0.95 0.95 0.95 c black 1 0 0 c 539 1167 m 34 X 3 1 d 36 X 4 1 d 21 X 3 1 d 15 X 3 1 d 16 X 3 1 d 12 X s 689 1172 m 3 1
 d 9 X 3 1 d 13 X 3 1 d 9 X 3 1 d 6 X 3 1 d 9 X 3 1 d 6 X 3 1 d 7 X 3 1 d 6 X 3 1 d 6 X 3 1 d 6 X 3 1 d 6 X 3 1 d 3 X 4 1 d 6 X 3 1 d 3 X 3 1 d 6 X 3 1 d s 839 1188 m 3 X s 0.49 0.6 0.82 c black 0.49 0.6 0.82 c
 gsave  408 305 476 1009 C 595.418 1293.4 t 0 r /Helvetica-Bold findfont 25.6831 sf 0 0 m (0.5 < E < 1.0 GeV) show NC gr  0.52 0.76 0.64 c black 0.52 0.76 0.64 c
 gsave  408 305 476 1009 C 581.174 1256.36 t 0 r /Helvetica-Bold findfont 25.6831 sf 0 0 m 
 220 206 192 185 170 163 148 141 125 118 111 97 83 68 61 47 40 25 18
(A = 0.000, p = 2.000) K NC gr  1 0.6 1 c black 1 0.6 1 c
 gsave  408 305 476 1009 C 883.156 1122.46 t 90 r /Helvetica-Bold findfont 28.5368 sf 0 0 m (/dof=0.1) show NC gr  black 1 0.6 1 c
 gsave  408 305 476 1009 C 871.76 1111.07 t 90 r /Helvetica-Bold findfont 19.9758 sf 0 0 m (2) show NC gr  black 1 0.6 1 c
 gsave  408 305 476 1009 C 883.156 1093.97 t 90 r /Symbol findfont 28.5368 sf 0 0 m (c) show NC gr  black 3 lw 1 1 1 c 408 305 930 1009 bf black 1 1 1 c black 306 229 991 1055 bl 306 229 991 1055 bl 991 1055 m 306 X s 991 1059 m -4 Y s 1131 1059 m -4
 Y s 1270 1059 m -4 Y s 1270 1059 m -4 Y s
 gsave  408 305 930 1009 C 980.018 1034.15 t 0 r /Helvetica findfont 22.8295 sf 0 0 m (0) show NC gr 
 gsave  408 305 930 1009 C 1122.46 1034.15 t 0 r /Helvetica findfont 22.8295 sf 0 0 m (1) show NC gr 
 gsave  408 305 930 1009 C 1259.21 1034.15 t 0 r /Helvetica findfont 22.8295 sf 0 0 m (2) show NC gr  991 1284 m 306 X s 991 1280 m 4 Y s 1131 1280 m 4 Y s 1270 1280 m 4 Y s 1270 1280 m 4 Y s 991 1055 m 229 Y s 997 1094 m -6 X s 994 1106 m -3 X s 994
 1117 m -3 X s 994 1128 m -3 X s 997 1139 m -6 X s 994 1150 m -3 X s 994 1161 m -3 X s 994 1173 m -3 X s 997 1184 m -6 X s 994 1195 m -3 X s 994 1206 m -3 X s 994 1217 m -3 X s 997 1228 m -6 X s 994 1240 m -3 X s 994 1251 m -3 X s 994 1262 m -3 X s
 997 1273 m -6 X s 997 1094 m -6 X s 994 1083 m -3 X s 994 1072 m -3 X s 994 1061 m -3 X s 997 1273 m -6 X s
 gsave  408 305 930 1009 C 923.04 1088.28 t 0 r /Helvetica findfont 22.8295 sf 0 0 m (\2550.004) show NC gr 
 gsave  408 305 930 1009 C 923.04 1131.01 t 0 r /Helvetica findfont 22.8295 sf 0 0 m (\2550.002) show NC gr 
 gsave  408 305 930 1009 C 974.32 1176.59 t 0 r /Helvetica findfont 22.8295 sf 0 0 m (0) show NC gr 
 gsave  408 305 930 1009 C 931.587 1222.17 t 0 r /Helvetica findfont 22.8295 sf 0 0 m (0.002) show NC gr 
 gsave  408 305 930 1009 C 931.587 1264.91 t 0 r /Helvetica findfont 22.8295 sf 0 0 m (0.004) show NC gr  1297 1055 m 229 Y s 1292 1094 m 5 X s 1294 1106 m 3 X s 1294 1117 m 3 X s 1294 1128 m 3 X s 1292 1139 m 5 X s 1294 1150 m 3 X s 1294 1161 m 3 X
 s 1294 1173 m 3 X s 1292 1184 m 5 X s 1294 1195 m 3 X s 1294 1206 m 3 X s 1294 1217 m 3 X s 1292 1228 m 5 X s 1294 1240 m 3 X s 1294 1251 m 3 X s 1294 1262 m 3 X s 1292 1273 m 5 X s 1292 1094 m 5 X s 1294 1083 m 3 X s 1294 1072 m 3 X s 1294 1061 m 3
 X s 1292 1273 m 5 X s 1026 1196 1061 1149 1131 1193 1270 1142 4 { m21} R 1026 1208 m 57 Y s 1020 1265 m 12 X s 1026 1185 m -57 Y s 1020 1128 m 12 X s 1061 1161 m 56 Y s 1055 1217 m 12 X s 1061 1138 m -57 Y s 1055 1081 m 12 X s 1131 1204 m 57 Y s
 1125 1261 m 11 X s 1131 1181 m -56 Y s 1125 1125 m 11 X s 1270 1153 m 57 Y s 1265 1210 m 11 X s 1270 1130 m -56 Y s 1265 1074 m 11 X s 1 0 0 c 9 lw 0.95 0.95 0.95 c black 1 0 0 c 993 1184 m 18 X 3 -1 d 24 X 4 -1 d 15 X 3 -1 d 9 X 3 -1 d 9 X 3 -1 d 6
 X 4 -1 d 6 X 3 -1 d 6 X 3 -1 d 6 X 3 -1 d 3 X 3 -1 d 6 X 3 -1 d 3 X 4 -1 d s 1143 1172 m 3 X 3 -1 d 3 X 3 -1 d 3 X 3 -1 d 3 X 3 -1 d 3 X 3 -1 d 3 X 3 -1 d 3 -1 d 3 X 3 -1 d 4 X 3 -1 d 3 -1 d 3 X 3 -1 d 3 -1 d 3 X 3 -1 d 3 -1 d 3 X 3 -1 d 3 -1 d 3 X
 3 -1 d 3 -1 d 3 -1 d 3 X 4 -1 d 3 -1 d 3 -1 d 3 -1 d 3 X 3 -1 d 3 -1 d 3 -1 d 3 -1 d 3 -1 d 3 X 3 -1 d 3 -1 d 3 -1 d 3 -1 d 3 -1 d 4 -1 d s 1293 1138 m 3 -1 d s 0.49 0.6 0.82 c black 0.49 0.6 0.82 c
 gsave  408 305 930 1009 C 1051.24 1293.4 t 0 r /Helvetica-Bold findfont 25.6831 sf 0 0 m (1.0 < E < 1.5 GeV) show NC gr  0.52 0.76 0.64 c black 0.52 0.76 0.64 c
 gsave  408 305 930 1009 C 1031.3 1256.36 t 0 r /Helvetica-Bold findfont 25.6831 sf 0 0 m 
 228 214 200 193 178 171 156 149 133 126 119 105 91 77 69 55 47 39 25 17
(A = \2550.000, p = 2.000) K NC gr  1 0.6 1 c black 1 0.6 1 c
 gsave  408 305 930 1009 C 1336.13 1122.46 t 90 r /Helvetica-Bold findfont 28.5368 sf 0 0 m (/dof=0.1) show NC gr  black 1 0.6 1 c
 gsave  408 305 930 1009 C 1324.73 1111.07 t 90 r /Helvetica-Bold findfont 19.9758 sf 0 0 m (2) show NC gr  black 1 0.6 1 c
 gsave  408 305 930 1009 C 1336.13 1093.97 t 90 r /Symbol findfont 28.5368 sf 0 0 m (c) show NC gr  black 3 lw 1 1 1 c 408 305 1383 1009 bf black 1 1 1 c black 306 229 1445 1055 bl 306 229 1445 1055 bl 1445 1055 m 306 X s 1445 1059 m -4 Y s 1584 1059
 m -4 Y s 1724 1059 m -4 Y s 1724 1059 m -4 Y s
 gsave  408 305 1383 1009 C 1435.84 1034.15 t 0 r /Helvetica findfont 22.8295 sf 0 0 m (0) show NC gr 
 gsave  408 305 1383 1009 C 1578.29 1034.15 t 0 r /Helvetica findfont 22.8295 sf 0 0 m (1) show NC gr 
 gsave  408 305 1383 1009 C 1715.03 1034.15 t 0 r /Helvetica findfont 22.8295 sf 0 0 m (2) show NC gr  1445 1284 m 306 X s 1445 1280 m 4 Y s 1584 1280 m 4 Y s 1724 1280 m 4 Y s 1724 1280 m 4 Y s 1445 1055 m 229 Y s 1450 1073 m -5 X s 1447 1078 m -2 X
 s 1447 1083 m -2 X s 1447 1088 m -2 X s 1447 1093 m -2 X s 1450 1098 m -5 X s 1447 1103 m -2 X s 1447 1108 m -2 X s 1447 1113 m -2 X s 1447 1118 m -2 X s 1450 1123 m -5 X s 1447 1128 m -2 X s 1447 1133 m -2 X s 1447 1138 m -2 X s 1447 1142 m -2 X s
 1450 1147 m -5 X s 1447 1152 m -2 X s 1447 1157 m -2 X s 1447 1162 m -2 X s 1447 1167 m -2 X s 1450 1172 m -5 X s 1447 1177 m -2 X s 1447 1182 m -2 X s 1447 1187 m -2 X s 1447 1192 m -2 X s 1450 1197 m -5 X s 1447 1202 m -2 X s 1447 1207 m -2 X s
 1447 1212 m -2 X s 1447 1217 m -2 X s 1450 1222 m -5 X s 1447 1227 m -2 X s 1447 1232 m -2 X s 1447 1237 m -2 X s 1447 1242 m -2 X s 1450 1247 m -5 X s 1447 1252 m -2 X s 1447 1257 m -2 X s 1447 1262 m -2 X s 1447 1267 m -2 X s 1450 1272 m -5 X s
 1450 1073 m -5 X s 1447 1068 m -2 X s 1447 1063 m -2 X s 1447 1058 m -2 X s 1450 1272 m -5 X s 1447 1277 m -2 X s 1447 1282 m -2 X s
 gsave  408 305 1383 1009 C 1376.01 1065.48 t 0 r /Helvetica findfont 22.8295 sf 0 0 m (\2550.004) show NC gr 
 gsave  408 305 1383 1009 C 1376.01 1091.12 t 0 r /Helvetica findfont 22.8295 sf 0 0 m (\2550.003) show NC gr 
 gsave  408 305 1383 1009 C 1376.01 1116.76 t 0 r /Helvetica findfont 22.8295 sf 0 0 m (\2550.002) show NC gr 
 gsave  408 305 1383 1009 C 1378.86 1139.56 t 0 r /Helvetica findfont 22.8295 sf 0 0 m (\2550.001) show NC gr 
 gsave  408 305 1383 1009 C 1427.29 1165.2 t 0 r /Helvetica findfont 22.8295 sf 0 0 m (0) show NC gr 
 gsave  408 305 1383 1009 C 1387.41 1190.84 t 0 r /Helvetica findfont 22.8295 sf 0 0 m (0.001) show NC gr 
 gsave  408 305 1383 1009 C 1384.56 1213.63 t 0 r /Helvetica findfont 22.8295 sf 0 0 m (0.002) show NC gr 
 gsave  408 305 1383 1009 C 1384.56 1239.27 t 0 r /Helvetica findfont 22.8295 sf 0 0 m (0.003) show NC gr 
 gsave  408 305 1383 1009 C 1384.56 1264.91 t 0 r /Helvetica findfont 22.8295 sf 0 0 m (0.004) show NC gr  1751 1055 m 229 Y s 1745 1073 m 6 X s 1748 1078 m 3 X s 1748 1083 m 3 X s 1748 1088 m 3 X s 1748 1093 m 3 X s 1745 1098 m 6 X s 1748 1103 m 3 X
 s 1748 1108 m 3 X s 1748 1113 m 3 X s 1748 1118 m 3 X s 1745 1123 m 6 X s 1748 1128 m 3 X s 1748 1133 m 3 X s 1748 1138 m 3 X s 1748 1142 m 3 X s 1745 1147 m 6 X s 1748 1152 m 3 X s 1748 1157 m 3 X s 1748 1162 m 3 X s 1748 1167 m 3 X s 1745 1172 m 6
 X s 1748 1177 m 3 X s 1748 1182 m 3 X s 1748 1187 m 3 X s 1748 1192 m 3 X s 1745 1197 m 6 X s 1748 1202 m 3 X s 1748 1207 m 3 X s 1748 1212 m 3 X s 1748 1217 m 3 X s 1745 1222 m 6 X s 1748 1227 m 3 X s 1748 1232 m 3 X s 1748 1237 m 3 X s 1748 1242 m
 3 X s 1745 1247 m 6 X s 1748 1252 m 3 X s 1748 1257 m 3 X s 1748 1262 m 3 X s 1748 1267 m 3 X s 1745 1272 m 6 X s 1745 1073 m 6 X s 1748 1068 m 3 X s 1748 1063 m 3 X s 1748 1058 m 3 X s 1745 1272 m 6 X s 1748 1277 m 3 X s 1748 1282 m 3 X s 1479 1187
 1514 1154 1584 1151 1724 1186 4 { m21} R 1479 1199 m 66 Y s 1474 1265 m 11 X s 1479 1176 m -66 Y s 1474 1110 m 11 X s 1514 1166 m 66 Y s 1509 1232 m 11 X s 1514 1143 m -66 Y s 1509 1077 m 11 X s 1584 1162 m 66 Y s 1578 1228 m 12 X s 1584 1139 m -65
 Y s 1578 1074 m 12 X s 1724 1197 m 66 Y s 1718 1263 m 11 X s 1724 1174 m -66 Y s 1718 1108 m 11 X s 1 0 0 c 9 lw 0.95 0.95 0.95 c black 1 0 0 c 1446 1172 m 46 X 3 1 d 67 X 3 1 d 31 X s 1596 1174 m 9 X 3 1 d 31 X 3 1 d 24 X 4 1 d 21 X 3 1 d 21 X 4 1
 d 18 X 3 1 d 6 X s 1746 1180 m 3 X s 0.49 0.6 0.82 c black 0.49 0.6 0.82 c
 gsave  408 305 1383 1009 C 1504.21 1293.4 t 0 r /Helvetica-Bold findfont 25.6831 sf 0 0 m (1.5 < E < 2.0 GeV) show NC gr  0.52 0.76 0.64 c black 0.52 0.76 0.64 c
 gsave  408 305 1383 1009 C 1489.97 1256.36 t 0 r /Helvetica-Bold findfont 25.6831 sf 0 0 m 
 220 206 192 185 170 163 148 141 126 118 111 97 83 69 61 47 40 25 18
(A = 0.000, p = 2.000) K NC gr  1 0.6 1 c black 1 0.6 1 c
 gsave  408 305 1383 1009 C 1789.1 1122.46 t 90 r /Helvetica-Bold findfont 28.5368 sf 0 0 m (/dof=0.1) show NC gr  black 1 0.6 1 c
 gsave  408 305 1383 1009 C 1777.71 1111.07 t 90 r /Helvetica-Bold findfont 19.9758 sf 0 0 m (2) show NC gr  black 1 0.6 1 c
 gsave  408 305 1383 1009 C 1789.1 1093.97 t 90 r /Symbol findfont 28.5368 sf 0 0 m (c) show NC gr  black 3 lw 1 1 1 c 408 305 1837 1009 bf black 1 1 1 c black 306 229 1898 1055 bl 306 229 1898 1055 bl 1898 1055 m 306 X s 1898 1059 m -4 Y s 2038 1059
 m -4 Y s 2177 1059 m -4 Y s 2177 1059 m -4 Y s
 gsave  408 305 1837 1009 C 1888.81 1034.15 t 0 r /Helvetica findfont 22.8295 sf 0 0 m (0) show NC gr 
 gsave  408 305 1837 1009 C 2031.26 1034.15 t 0 r /Helvetica findfont 22.8295 sf 0 0 m (1) show NC gr 
 gsave  408 305 1837 1009 C 2168.01 1034.15 t 0 r /Helvetica findfont 22.8295 sf 0 0 m (2) show NC gr  1898 1284 m 306 X s 1898 1280 m 4 Y s 2038 1280 m 4 Y s 2177 1280 m 4 Y s 2177 1280 m 4 Y s 1898 1055 m 229 Y s 1904 1094 m -6 X s 1901 1105 m -3 X
 s 1901 1116 m -3 X s 1901 1127 m -3 X s 1904 1138 m -6 X s 1901 1149 m -3 X s 1901 1160 m -3 X s 1901 1171 m -3 X s 1904 1182 m -6 X s 1901 1193 m -3 X s 1901 1204 m -3 X s 1901 1215 m -3 X s 1904 1226 m -6 X s 1901 1237 m -3 X s 1901 1248 m -3 X s
 1901 1259 m -3 X s 1904 1270 m -6 X s 1904 1094 m -6 X s 1901 1083 m -3 X s 1901 1072 m -3 X s 1901 1061 m -3 X s 1904 1270 m -6 X s 1901 1281 m -3 X s
 gsave  408 305 1837 1009 C 1828.99 1088.28 t 0 r /Helvetica findfont 22.8295 sf 0 0 m (\2550.002) show NC gr 
 gsave  408 305 1837 1009 C 1880.27 1131.01 t 0 r /Helvetica findfont 22.8295 sf 0 0 m (0) show NC gr 
 gsave  408 305 1837 1009 C 1837.53 1173.74 t 0 r /Helvetica findfont 22.8295 sf 0 0 m (0.002) show NC gr 
 gsave  408 305 1837 1009 C 1837.53 1219.32 t 0 r /Helvetica findfont 22.8295 sf 0 0 m (0.004) show NC gr 
 gsave  408 305 1837 1009 C 1837.53 1262.06 t 0 r /Helvetica findfont 22.8295 sf 0 0 m (0.006) show NC gr  2204 1055 m 229 Y s 2199 1094 m 5 X s 2201 1105 m 3 X s 2201 1116 m 3 X s 2201 1127 m 3 X s 2199 1138 m 5 X s 2201 1149 m 3 X s 2201 1160 m 3 X
 s 2201 1171 m 3 X s 2199 1182 m 5 X s 2201 1193 m 3 X s 2201 1204 m 3 X s 2201 1215 m 3 X s 2199 1226 m 5 X s 2201 1237 m 3 X s 2201 1248 m 3 X s 2201 1259 m 3 X s 2199 1270 m 5 X s 2199 1094 m 5 X s 2201 1083 m 3 X s 2201 1072 m 3 X s 2201 1061 m 3
 X s 2199 1270 m 5 X s 2201 1281 m 3 X s 1933 1146 1968 1160 2038 1158 2177 1193 4 { m21} R 1933 1157 m 60 Y s 1927 1217 m 12 X s 1933 1134 m -60 Y s 1927 1074 m 12 X s 1968 1172 m 60 Y s 1962 1232 m 12 X s 1968 1149 m -61 Y s 1962 1088 m 12 X s 2038
 1169 m 60 Y s 2032 1229 m 11 X s 2038 1146 m -60 Y s 2032 1086 m 11 X s 2177 1204 m 61 Y s 2172 1265 m 11 X s 2177 1181 m -60 Y s 2172 1121 m 11 X s 9 lw 0.95 0.95 0.95 c black 1900 1138 m 3 1 d 3 1 d 3 X 3 1 d 3 X 3 1 d 3 X 3 1 d 3 1 d 3 X 3 1 d 3
 X 3 1 d 3 1 d 4 X 3 1 d 3 X 3 1 d 3 X 3 1 d 3 1 d 3 X 3 1 d 3 X 3 1 d 3 1 d 3 X 3 1 d 3 X 3 1 d 4 X 3 1 d 3 1 d 3 X 3 1 d 3 X 3 1 d 3 1 d 3 X 3 1 d 3 X 3 1 d 3 1 d 3 X 3 1 d 3 X 3 1 d 4 X 3 1 d s 2050 1167 m 3 1 d 3 X 3 1 d 3 X 3 1 d 3 1 d 3 X 3 1 d
 3 X 3 1 d 3 X 3 1 d 3 1 d 3 X 4 1 d 3 X 3 1 d 3 1 d 3 X 3 1 d 3 X 3 1 d 3 1 d 3 X 3 1 d 3 X 3 1 d 3 X 3 1 d 3 1 d 4 X 3 1 d 3 X 3 1 d 3 1 d 3 X 3 1 d 3 X 3 1 d 3 X 3 1 d 3 1 d 3 X 3 1 d 3 X 3 1 d 4 1 d 3 X 3 1 d s 2200 1196 m 3 X s 0.49 0.6 0.82 c
 black 0.49 0.6 0.82 c
 gsave  408 305 1837 1009 C 1957.19 1293.4 t 0 r /Helvetica-Bold findfont 25.6831 sf 0 0 m (2.0 < E < 2.5 GeV) show NC gr  0.52 0.76 0.64 c black 0.52 0.76 0.64 c
 gsave  408 305 1837 1009 C 1942.94 1256.36 t 0 r /Helvetica-Bold findfont 25.6831 sf 0 0 m 
 220 206 192 185 170 163 148 141 125 118 111 97 83 69 61 47 40 25 18
(A = 0.001, p = 1.000) K NC gr  1 0.6 1 c black 1 0.6 1 c
 gsave  408 305 1837 1009 C 2242.08 1122.46 t 90 r /Helvetica-Bold findfont 28.5368 sf 0 0 m (/dof=0.0) show NC gr  black 1 0.6 1 c
 gsave  408 305 1837 1009 C 2230.68 1111.07 t 90 r /Helvetica-Bold findfont 19.9758 sf 0 0 m (2) show NC gr  black 1 0.6 1 c
 gsave  408 305 1837 1009 C 2242.08 1093.97 t 90 r /Symbol findfont 28.5368 sf 0 0 m (c) show NC gr  black 3 lw 1 1 1 c 408 305 23 677 bf black 1 1 1 c black 306 229 84 723 bl 306 229 84 723 bl 84 723 m 306 X s 84 727 m -4 Y s 224 727 m -4 Y s 363
 727 m -4 Y s 363 727 m -4 Y s
 gsave  408 305 23 677 C 74.0711 703.676 t 0 r /Helvetica findfont 22.8295 sf 0 0 m (0) show NC gr 
 gsave  408 305 23 677 C 216.516 703.676 t 0 r /Helvetica findfont 22.8295 sf 0 0 m (1) show NC gr 
 gsave  408 305 23 677 C 353.262 703.676 t 0 r /Helvetica findfont 22.8295 sf 0 0 m (2) show NC gr  84 952 m 306 X s 84 948 m 4 Y s 224 948 m 4 Y s 363 948 m 4 Y s 363 948 m 4 Y s 84 723 m 229 Y s 89 755 m -5 X s 87 766 m -3 X s 87 776 m -3 X s 87
 786 m -3 X s 89 796 m -5 X s 87 806 m -3 X s 87 817 m -3 X s 87 827 m -3 X s 89 837 m -5 X s 87 847 m -3 X s 87 857 m -3 X s 87 868 m -3 X s 89 878 m -5 X s 87 888 m -3 X s 87 898 m -3 X s 87 908 m -3 X s 89 919 m -5 X s 89 755 m -5 X s 87 745 m -3
 X s 87 735 m -3 X s 87 725 m -3 X s 89 919 m -5 X s 87 929 m -3 X s 87 939 m -3 X s 87 949 m -3 X s
 gsave  408 305 23 677 C 14.2445 749.258 t 0 r /Helvetica findfont 22.8295 sf 0 0 m (\2550.004) show NC gr 
 gsave  408 305 23 677 C 14.2445 789.143 t 0 r /Helvetica findfont 22.8295 sf 0 0 m (\2550.002) show NC gr 
 gsave  408 305 23 677 C 65.5245 829.027 t 0 r /Helvetica findfont 22.8295 sf 0 0 m (0) show NC gr 
 gsave  408 305 23 677 C 22.7911 871.76 t 0 r /Helvetica findfont 22.8295 sf 0 0 m (0.002) show NC gr 
 gsave  408 305 23 677 C 22.7911 911.645 t 0 r /Helvetica findfont 22.8295 sf 0 0 m (0.004) show NC gr  390 723 m 229 Y s 385 755 m 5 X s 387 766 m 3 X s 387 776 m 3 X s 387 786 m 3 X s 385 796 m 5 X s 387 806 m 3 X s 387 817 m 3 X s 387 827 m 3 X s
 385 837 m 5 X s 387 847 m 3 X s 387 857 m 3 X s 387 868 m 3 X s 385 878 m 5 X s 387 888 m 3 X s 387 898 m 3 X s 387 908 m 3 X s 385 919 m 5 X s 385 755 m 5 X s 387 745 m 3 X s 387 735 m 3 X s 387 725 m 3 X s 385 919 m 5 X s 387 929 m 3 X s 387 939 m
 3 X s 387 949 m 3 X s /w 22 def /w2 {w 2 div} def /w3 {w 3 div} def 119 815 154 818 224 861 363 825 4 { m21} R 119 826 m 61 Y s 113 887 m 12 X s 119 803 m -61 Y s 113 742 m 12 X s 154 829 m 61 Y s 148 890 m 11 X s 154 806 m -61 Y s 148 745 m 11 X s
 224 872 m 61 Y s 218 933 m 11 X s 224 849 m -60 Y s 218 789 m 11 X s 363 836 m 61 Y s 357 897 m 12 X s 363 814 m -61 Y s 357 753 m 12 X s 1 0 0 c 9 lw 0.95 0.95 0.95 c black 1 0 0 c 85 837 m 71 X 3 -1 d 52 X 3 -1 d 21 X s 235 835 m 13 X 3 -1 d 27 X
 3 -1 d 22 X 3 -1 d 21 X 3 -1 d 19 X 3 -1 d 18 X 3 -1 d 12 X s 385 829 m 4 X s 0.49 0.6 0.82 c black 0.49 0.6 0.82 c
 gsave  408 305 23 677 C 142.445 960.076 t 0 r /Helvetica-Bold findfont 25.6831 sf 0 0 m (2.5 < E < 3.0 GeV) show NC gr  0.52 0.76 0.64 c black 0.52 0.76 0.64 c
 gsave  408 305 23 677 C 122.502 923.04 t 0 r /Helvetica-Bold findfont 25.6831 sf 0 0 m 
 228 214 200 193 178 171 156 149 134 126 119 105 91 77 69 55 47 39 25 17
(A = \2550.000, p = 2.000) K NC gr  1 0.6 1 c black 1 0.6 1 c
 gsave  408 305 23 677 C 427.334 791.991 t 90 r /Helvetica-Bold findfont 28.5368 sf 0 0 m (/dof=0.1) show NC gr  black 1 0.6 1 c
 gsave  408 305 23 677 C 415.938 780.596 t 90 r /Helvetica-Bold findfont 19.9758 sf 0 0 m (2) show NC gr  black 1 0.6 1 c
 gsave  408 305 23 677 C 427.334 763.503 t 90 r /Symbol findfont 28.5368 sf 0 0 m (c) show NC gr  black 3 lw 1 1 1 c 408 305 476 677 bf black 1 1 1 c black 307 229 537 723 bl 307 229 537 723 bl 537 723 m 307 X s 537 727 m -4 Y s 677 727 m -4 Y s 817
 727 m -4 Y s 817 727 m -4 Y s
 gsave  408 305 476 677 C 527.045 703.676 t 0 r /Helvetica findfont 22.8295 sf 0 0 m (0) show NC gr 
 gsave  408 305 476 677 C 669.489 703.676 t 0 r /Helvetica findfont 22.8295 sf 0 0 m (1) show NC gr 
 gsave  408 305 476 677 C 806.236 703.676 t 0 r /Helvetica findfont 22.8295 sf 0 0 m (2) show NC gr  537 952 m 307 X s 537 948 m 4 Y s 677 948 m 4 Y s 817 948 m 4 Y s 817 948 m 4 Y s 537 723 m 229 Y s 543 734 m -6 X s 540 742 m -3 X s 540 750 m -3 X
 s 540 759 m -3 X s 543 767 m -6 X s 540 775 m -3 X s 540 783 m -3 X s 540 791 m -3 X s 543 800 m -6 X s 540 808 m -3 X s 540 816 m -3 X s 540 824 m -3 X s 543 833 m -6 X s 540 841 m -3 X s 540 849 m -3 X s 540 857 m -3 X s 543 866 m -6 X s 540 874 m
 -3 X s 540 882 m -3 X s 540 890 m -3 X s 543 898 m -6 X s 540 907 m -3 X s 540 915 m -3 X s 540 923 m -3 X s 543 931 m -6 X s 543 734 m -6 X s 540 726 m -3 X s 543 931 m -6 X s 540 940 m -3 X s 540 948 m -3 X s
 gsave  408 305 476 677 C 467.218 726.467 t 0 r /Helvetica findfont 22.8295 sf 0 0 m (\2550.008) show NC gr 
 gsave  408 305 476 677 C 467.218 760.654 t 0 r /Helvetica findfont 22.8295 sf 0 0 m (\2550.006) show NC gr 
 gsave  408 305 476 677 C 467.218 791.991 t 0 r /Helvetica findfont 22.8295 sf 0 0 m (\2550.004) show NC gr 
 gsave  408 305 476 677 C 467.218 826.178 t 0 r /Helvetica findfont 22.8295 sf 0 0 m (\2550.002) show NC gr 
 gsave  408 305 476 677 C 518.498 857.516 t 0 r /Helvetica findfont 22.8295 sf 0 0 m (0) show NC gr 
 gsave  408 305 476 677 C 475.765 891.703 t 0 r /Helvetica findfont 22.8295 sf 0 0 m (0.002) show NC gr 
 gsave  408 305 476 677 C 475.765 923.04 t 0 r /Helvetica findfont 22.8295 sf 0 0 m (0.004) show NC gr  844 723 m 229 Y s 838 734 m 6 X s 841 742 m 3 X s 841 750 m 3 X s 841 759 m 3 X s 838 767 m 6 X s 841 775 m 3 X s 841 783 m 3 X s 841 791 m 3 X s
 838 800 m 6 X s 841 808 m 3 X s 841 816 m 3 X s 841 824 m 3 X s 838 833 m 6 X s 841 841 m 3 X s 841 849 m 3 X s 841 857 m 3 X s 838 866 m 6 X s 841 874 m 3 X s 841 882 m 3 X s 841 890 m 3 X s 838 898 m 6 X s 841 907 m 3 X s 841 915 m 3 X s 841 923 m
 3 X s 838 931 m 6 X s 838 734 m 6 X s 841 726 m 3 X s 838 931 m 6 X s 841 940 m 3 X s 841 948 m 3 X s /w 23 def /w2 {w 2 div} def /w3 {w 3 div} def 572 867 607 856 677 831 817 808 4 { m21} R 572 878 m 55 Y s 567 933 m 11 X s 572 856 m -55 Y s 567
 801 m 11 X s 607 868 m 55 Y s 602 923 m 11 X s 607 845 m -55 Y s 602 790 m 11 X s 677 842 m 54 Y s 671 896 m 12 X s 677 819 m -54 Y s 671 765 m 12 X s 817 819 m 54 Y s 811 873 m 11 X s 817 796 m -54 Y s 811 742 m 11 X s 9 lw 0.95 0.95 0.95 c black
 539 865 m 3 X 3 -1 d 3 -1 d 3 X 3 -1 d 3 -1 d 3 X 3 -1 d 4 -1 d 3 X 3 -1 d 3 X 3 -1 d 3 -1 d 3 X 3 -1 d 3 -1 d 3 X 3 -1 d 3 -1 d 3 X 3 -1 d 3 X 3 -1 d 4 -1 d 3 X 3 -1 d 3 -1 d 3 X 3 -1 d 3 -1 d 3 X 3 -1 d 3 -1 d 3 X 3 -1 d 3 X 3 -1 d 3 -1 d 3 X 3 -1
 d 4 -1 d 3 X 3 -1 d 3 -1 d 3 X 3 -1 d 3 -1 d 3 X s 689 834 m 3 -1 d 3 X 3 -1 d 3 -1 d 3 X 3 -1 d 3 -1 d 3 X 4 -1 d 3 -1 d 3 X 3 -1 d 3 X 3 -1 d 3 -1 d 3 X 3 -1 d 3 -1 d 3 X 3 -1 d 3 -1 d 3 X 3 -1 d 3 -1 d 4 X 3 -1 d 3 X 3 -1 d 3 -1 d 3 X 3 -1 d 3 -1
 d 3 X 3 -1 d 3 -1 d 3 X 3 -1 d 3 X 3 -1 d 3 -1 d 4 X 3 -1 d 3 -1 d 3 X 3 -1 d 3 -1 d 3 X 3 -1 d 3 -1 d s 839 802 m 3 X s 0.49 0.6 0.82 c black 0.49 0.6 0.82 c
 gsave  408 305 476 677 C 595.418 960.076 t 0 r /Helvetica-Bold findfont 25.6831 sf 0 0 m (3.0 < E < 3.5 GeV) show NC gr  0.52 0.76 0.64 c black 0.52 0.76 0.64 c
 gsave  408 305 476 677 C 575.476 923.04 t 0 r /Helvetica-Bold findfont 25.6831 sf 0 0 m 
 228 214 200 193 178 171 156 149 133 126 119 105 91 76 69 55 47 39 25 17
(A = \2550.002, p = 1.000) K NC gr  1 0.6 1 c black 1 0.6 1 c
 gsave  408 305 476 677 C 883.156 791.991 t 90 r /Helvetica-Bold findfont 28.5368 sf 0 0 m (/dof=0.0) show NC gr  black 1 0.6 1 c
 gsave  408 305 476 677 C 871.76 780.596 t 90 r /Helvetica-Bold findfont 19.9758 sf 0 0 m (2) show NC gr  black 1 0.6 1 c
 gsave  408 305 476 677 C 883.156 763.503 t 90 r /Symbol findfont 28.5368 sf 0 0 m (c) show NC gr  black 3 lw 1 1 1 c 408 305 930 677 bf black 1 1 1 c black 306 229 991 723 bl 306 229 991 723 bl 991 723 m 306 X s 991 727 m -4 Y s 1131 727 m -4 Y s
 1270 727 m -4 Y s 1270 727 m -4 Y s
 gsave  408 305 930 677 C 980.018 703.676 t 0 r /Helvetica findfont 22.8295 sf 0 0 m (0) show NC gr 
 gsave  408 305 930 677 C 1122.46 703.676 t 0 r /Helvetica findfont 22.8295 sf 0 0 m (1) show NC gr 
 gsave  408 305 930 677 C 1259.21 703.676 t 0 r /Helvetica findfont 22.8295 sf 0 0 m (2) show NC gr  991 952 m 306 X s 991 948 m 4 Y s 1131 948 m 4 Y s 1270 948 m 4 Y s 1270 948 m 4 Y s 991 723 m 229 Y s 997 728 m -6 X s 994 736 m -3 X s 994 743 m -3
 X s 994 750 m -3 X s 997 757 m -6 X s 994 765 m -3 X s 994 772 m -3 X s 994 779 m -3 X s 997 787 m -6 X s 994 794 m -3 X s 994 801 m -3 X s 994 808 m -3 X s 997 816 m -6 X s 994 823 m -3 X s 994 830 m -3 X s 994 837 m -3 X s 997 845 m -6 X s 994 852
 m -3 X s 994 859 m -3 X s 994 867 m -3 X s 997 874 m -6 X s 994 881 m -3 X s 994 888 m -3 X s 994 896 m -3 X s 997 903 m -6 X s 994 910 m -3 X s 994 917 m -3 X s 994 925 m -3 X s 997 932 m -6 X s 997 728 m -6 X s 997 932 m -6 X s 994 939 m -3 X s
 994 947 m -3 X s
 gsave  408 305 930 677 C 923.04 720.769 t 0 r /Helvetica findfont 22.8295 sf 0 0 m (\2550.004) show NC gr 
 gsave  408 305 930 677 C 923.04 749.258 t 0 r /Helvetica findfont 22.8295 sf 0 0 m (\2550.002) show NC gr 
 gsave  408 305 930 677 C 974.32 780.596 t 0 r /Helvetica findfont 22.8295 sf 0 0 m (0) show NC gr 
 gsave  408 305 930 677 C 931.587 809.085 t 0 r /Helvetica findfont 22.8295 sf 0 0 m (0.002) show NC gr 
 gsave  408 305 930 677 C 931.587 837.574 t 0 r /Helvetica findfont 22.8295 sf 0 0 m (0.004) show NC gr 
 gsave  408 305 930 677 C 931.587 866.063 t 0 r /Helvetica findfont 22.8295 sf 0 0 m (0.006) show NC gr 
 gsave  408 305 930 677 C 931.587 894.552 t 0 r /Helvetica findfont 22.8295 sf 0 0 m (0.008) show NC gr 
 gsave  408 305 930 677 C 945.832 925.889 t 0 r /Helvetica findfont 22.8295 sf 0 0 m (0.01) show NC gr  1297 723 m 229 Y s 1292 728 m 5 X s 1294 736 m 3 X s 1294 743 m 3 X s 1294 750 m 3 X s 1292 757 m 5 X s 1294 765 m 3 X s 1294 772 m 3 X s 1294 779
 m 3 X s 1292 787 m 5 X s 1294 794 m 3 X s 1294 801 m 3 X s 1294 808 m 3 X s 1292 816 m 5 X s 1294 823 m 3 X s 1294 830 m 3 X s 1294 837 m 3 X s 1292 845 m 5 X s 1294 852 m 3 X s 1294 859 m 3 X s 1294 867 m 3 X s 1292 874 m 5 X s 1294 881 m 3 X s
 1294 888 m 3 X s 1294 896 m 3 X s 1292 903 m 5 X s 1294 910 m 3 X s 1294 917 m 3 X s 1294 925 m 3 X s 1292 932 m 5 X s 1292 728 m 5 X s 1292 932 m 5 X s 1294 939 m 3 X s 1294 947 m 3 X s 1026 861 1061 813 1131 851 1270 815 4 { m21} R 1026 873 m 60 Y
 s 1020 933 m 12 X s 1026 850 m -60 Y s 1020 790 m 12 X s 1061 824 m 60 Y s 1055 884 m 12 X s 1061 802 m -60 Y s 1055 742 m 12 X s 1131 863 m 60 Y s 1125 923 m 11 X s 1131 840 m -60 Y s 1125 780 m 11 X s 1270 826 m 60 Y s 1265 886 m 11 X s 1270 803 m
 -59 Y s 1265 744 m 11 X s 9 lw 0.95 0.95 0.95 c black 993 787 m 3 1 d 3 X 3 1 d 3 X 3 1 d 3 1 d 3 X 3 1 d 3 1 d 3 X 3 1 d 3 X 3 1 d 3 1 d 3 X 4 1 d 3 1 d 3 X 3 1 d 3 1 d 3 X 3 1 d 3 X 3 1 d 3 1 d 3 X 3 1 d 3 1 d 3 X 3 1 d 3 X 3 1 d 4 1 d 3 X 3 1 d 3
 1 d 3 X 3 1 d 3 1 d 3 X 3 1 d 3 X 3 1 d 3 1 d 3 X 3 1 d 3 1 d 3 X 4 1 d s 1143 818 m 3 X 3 1 d 3 1 d 3 X 3 1 d 3 1 d 3 X 3 1 d 3 X 3 1 d 3 1 d 3 X 3 1 d 3 1 d 3 X 4 1 d 3 1 d 3 X 3 1 d 3 X 3 1 d 3 1 d 3 X 3 1 d 3 1 d 3 X 3 1 d 3 X 3 1 d 3 1 d 3 X 3
 1 d 4 1 d 3 X 3 1 d 3 1 d 3 X 3 1 d 3 X 3 1 d 3 1 d 3 X 3 1 d 3 1 d 3 X 3 1 d 3 X 3 1 d 4 1 d s 1293 849 m 3 X s 0.49 0.6 0.82 c black 0.49 0.6 0.82 c
 gsave  408 305 930 677 C 1051.24 960.076 t 0 r /Helvetica-Bold findfont 25.6831 sf 0 0 m (3.5 < E < 4.0 GeV) show NC gr  0.52 0.76 0.64 c black 0.52 0.76 0.64 c
 gsave  408 305 930 677 C 1037 923.04 t 0 r /Helvetica-Bold findfont 25.6831 sf 0 0 m 
 220 206 192 185 170 163 148 141 125 118 111 97 83 69 61 47 40 25 18
(A = 0.002, p = 1.000) K NC gr  1 0.6 1 c black 1 0.6 1 c
 gsave  408 305 930 677 C 1336.13 791.991 t 90 r /Helvetica-Bold findfont 28.5368 sf 0 0 m (/dof=0.4) show NC gr  black 1 0.6 1 c
 gsave  408 305 930 677 C 1324.73 780.596 t 90 r /Helvetica-Bold findfont 19.9758 sf 0 0 m (2) show NC gr  black 1 0.6 1 c
 gsave  408 305 930 677 C 1336.13 763.503 t 90 r /Symbol findfont 28.5368 sf 0 0 m (c) show NC gr  black 3 lw 1 1 1 c 408 305 1383 677 bf black 1 1 1 c black 306 229 1445 723 bl 306 229 1445 723 bl 1445 723 m 306 X s 1445 727 m -4 Y s 1584 727 m -4 Y
 s 1724 727 m -4 Y s 1724 727 m -4 Y s
 gsave  408 305 1383 677 C 1435.84 703.676 t 0 r /Helvetica findfont 22.8295 sf 0 0 m (0) show NC gr 
 gsave  408 305 1383 677 C 1578.29 703.676 t 0 r /Helvetica findfont 22.8295 sf 0 0 m (1) show NC gr 
 gsave  408 305 1383 677 C 1715.03 703.676 t 0 r /Helvetica findfont 22.8295 sf 0 0 m (2) show NC gr  1445 952 m 306 X s 1445 948 m 4 Y s 1584 948 m 4 Y s 1724 948 m 4 Y s 1724 948 m 4 Y s 1445 723 m 229 Y s 1450 736 m -5 X s 1447 745 m -2 X s 1447
 755 m -2 X s 1447 764 m -2 X s 1447 774 m -2 X s 1450 783 m -5 X s 1447 793 m -2 X s 1447 802 m -2 X s 1447 812 m -2 X s 1447 822 m -2 X s 1450 831 m -5 X s 1447 841 m -2 X s 1447 850 m -2 X s 1447 860 m -2 X s 1447 869 m -2 X s 1450 879 m -5 X s
 1447 888 m -2 X s 1447 898 m -2 X s 1447 907 m -2 X s 1447 917 m -2 X s 1450 926 m -5 X s 1450 736 m -5 X s 1447 726 m -2 X s 1450 926 m -5 X s 1447 936 m -2 X s 1447 945 m -2 X s
 gsave  408 305 1383 677 C 1393.11 729.316 t 0 r /Helvetica findfont 22.8295 sf 0 0 m (\2550.01) show NC gr 
 gsave  408 305 1383 677 C 1376.01 777.747 t 0 r /Helvetica findfont 22.8295 sf 0 0 m (\2550.005) show NC gr 
 gsave  408 305 1383 677 C 1427.29 823.329 t 0 r /Helvetica findfont 22.8295 sf 0 0 m (0) show NC gr 
 gsave  408 305 1383 677 C 1384.56 871.76 t 0 r /Helvetica findfont 22.8295 sf 0 0 m (0.005) show NC gr 
 gsave  408 305 1383 677 C 1398.81 920.192 t 0 r /Helvetica findfont 22.8295 sf 0 0 m (0.01) show NC gr  1751 723 m 229 Y s 1745 736 m 6 X s 1748 745 m 3 X s 1748 755 m 3 X s 1748 764 m 3 X s 1748 774 m 3 X s 1745 783 m 6 X s 1748 793 m 3 X s 1748
 802 m 3 X s 1748 812 m 3 X s 1748 822 m 3 X s 1745 831 m 6 X s 1748 841 m 3 X s 1748 850 m 3 X s 1748 860 m 3 X s 1748 869 m 3 X s 1745 879 m 6 X s 1748 888 m 3 X s 1748 898 m 3 X s 1748 907 m 3 X s 1748 917 m 3 X s 1745 926 m 6 X s 1745 736 m 6 X s
 1748 726 m 3 X s 1745 926 m 6 X s 1748 936 m 3 X s 1748 945 m 3 X s 1479 803 1514 840 1584 871 1724 849 4 { m21} R 1479 815 m 49 Y s 1474 864 m 11 X s 1479 792 m -50 Y s 1474 742 m 11 X s 1514 851 m 50 Y s 1509 901 m 11 X s 1514 828 m -50 Y s 1509
 778 m 11 X s 1584 883 m 50 Y s 1578 933 m 12 X s 1584 860 m -50 Y s 1578 810 m 12 X s 1724 861 m 50 Y s 1718 911 m 11 X s 1724 838 m -50 Y s 1718 788 m 11 X s 9 lw 0.95 0.95 0.95 c black 1446 831 m 3 X 3 1 d 6 X 3 1 d 6 X 4 1 d 6 X 3 1 d 9 X 3 1 d 6
 X 3 1 d 6 X 3 1 d 6 X 4 1 d 9 X 3 1 d 6 X 3 1 d 6 X 3 1 d 9 X 3 1 d 7 X 3 1 d 6 X 3 1 d 6 X 3 1 d 6 X s 1596 846 m 3 X 3 1 d 6 X 3 1 d 7 X 3 1 d 6 X 3 1 d 9 X 3 1 d 6 X 3 1 d 6 X 3 1 d 6 X 4 1 d 9 X 3 1 d 6 X 3 1 d 6 X 3 1 d 9 X 3 1 d 7 X 3 1 d 6 X
 3 1 d 6 X 3 1 d 6 X s 1746 861 m 3 X s 0.49 0.6 0.82 c black 0.49 0.6 0.82 c
 gsave  408 305 1383 677 C 1504.21 960.076 t 0 r /Helvetica-Bold findfont 25.6831 sf 0 0 m (4.0 < E < 4.5 GeV) show NC gr  0.52 0.76 0.64 c black 0.52 0.76 0.64 c
 gsave  408 305 1383 677 C 1489.97 923.04 t 0 r /Helvetica-Bold findfont 25.6831 sf 0 0 m 
 220 206 192 185 170 163 148 141 126 118 111 97 83 69 61 47 40 25 18
(A = 0.001, p = 1.000) K NC gr  1 0.6 1 c black 1 0.6 1 c
 gsave  408 305 1383 677 C 1789.1 791.991 t 90 r /Helvetica-Bold findfont 28.5368 sf 0 0 m (/dof=0.2) show NC gr  black 1 0.6 1 c
 gsave  408 305 1383 677 C 1777.71 780.596 t 90 r /Helvetica-Bold findfont 19.9758 sf 0 0 m (2) show NC gr  black 1 0.6 1 c
 gsave  408 305 1383 677 C 1789.1 763.503 t 90 r /Symbol findfont 28.5368 sf 0 0 m (c) show NC gr  black 3 lw 1 1 1 c 408 305 1837 677 bf black 1 1 1 c black 306 229 1898 723 bl 306 229 1898 723 bl 1898 723 m 306 X s 1898 727 m -4 Y s 2038 727 m -4 Y
 s 2177 727 m -4 Y s 2177 727 m -4 Y s
 gsave  408 305 1837 677 C 1888.81 703.676 t 0 r /Helvetica findfont 22.8295 sf 0 0 m (0) show NC gr 
 gsave  408 305 1837 677 C 2031.26 703.676 t 0 r /Helvetica findfont 22.8295 sf 0 0 m (1) show NC gr 
 gsave  408 305 1837 677 C 2168.01 703.676 t 0 r /Helvetica findfont 22.8295 sf 0 0 m (2) show NC gr  1898 952 m 306 X s 1898 948 m 4 Y s 2038 948 m 4 Y s 2177 948 m 4 Y s 2177 948 m 4 Y s 1898 723 m 229 Y s 1904 729 m -6 X s 1901 735 m -3 X s 1901
 742 m -3 X s 1901 748 m -3 X s 1901 755 m -3 X s 1904 761 m -6 X s 1901 768 m -3 X s 1901 774 m -3 X s 1901 781 m -3 X s 1901 787 m -3 X s 1904 794 m -6 X s 1901 800 m -3 X s 1901 807 m -3 X s 1901 813 m -3 X s 1901 820 m -3 X s 1904 826 m -6 X s
 1901 833 m -3 X s 1901 839 m -3 X s 1901 846 m -3 X s 1901 852 m -3 X s 1904 859 m -6 X s 1901 865 m -3 X s 1901 872 m -3 X s 1901 878 m -3 X s 1901 885 m -3 X s 1904 891 m -6 X s 1901 898 m -3 X s 1901 904 m -3 X s 1901 911 m -3 X s 1901 917 m -3 X
 s 1904 924 m -6 X s 1904 729 m -6 X s 1904 924 m -6 X s 1901 930 m -3 X s 1901 937 m -3 X s 1901 943 m -3 X s 1901 950 m -3 X s
 gsave  408 305 1837 677 C 1828.99 720.769 t 0 r /Helvetica findfont 22.8295 sf 0 0 m (\2550.015) show NC gr 
 gsave  408 305 1837 677 C 1846.08 754.956 t 0 r /Helvetica findfont 22.8295 sf 0 0 m (\2550.01) show NC gr 
 gsave  408 305 1837 677 C 1828.99 786.294 t 0 r /Helvetica findfont 22.8295 sf 0 0 m (\2550.005) show NC gr 
 gsave  408 305 1837 677 C 1880.27 820.48 t 0 r /Helvetica findfont 22.8295 sf 0 0 m (0) show NC gr 
 gsave  408 305 1837 677 C 1837.53 851.818 t 0 r /Helvetica findfont 22.8295 sf 0 0 m (0.005) show NC gr 
 gsave  408 305 1837 677 C 1851.78 883.156 t 0 r /Helvetica findfont 22.8295 sf 0 0 m (0.01) show NC gr 
 gsave  408 305 1837 677 C 1837.53 917.343 t 0 r /Helvetica findfont 22.8295 sf 0 0 m (0.015) show NC gr  2204 723 m 229 Y s 2199 729 m 5 X s 2201 735 m 3 X s 2201 742 m 3 X s 2201 748 m 3 X s 2201 755 m 3 X s 2199 761 m 5 X s 2201 768 m 3 X s 2201
 774 m 3 X s 2201 781 m 3 X s 2201 787 m 3 X s 2199 794 m 5 X s 2201 800 m 3 X s 2201 807 m 3 X s 2201 813 m 3 X s 2201 820 m 3 X s 2199 826 m 5 X s 2201 833 m 3 X s 2201 839 m 3 X s 2201 846 m 3 X s 2201 852 m 3 X s 2199 859 m 5 X s 2201 865 m 3 X s
 2201 872 m 3 X s 2201 878 m 3 X s 2201 885 m 3 X s 2199 891 m 5 X s 2201 898 m 3 X s 2201 904 m 3 X s 2201 911 m 3 X s 2201 917 m 3 X s 2199 924 m 5 X s 2199 729 m 5 X s 2199 924 m 5 X s 2201 930 m 3 X s 2201 937 m 3 X s 2201 943 m 3 X s 2201 950 m
 3 X s 1933 799 1968 857 2038 814 2177 876 4 { m21} R 1933 810 m 45 Y s 1927 855 m 12 X s 1933 787 m -45 Y s 1927 742 m 12 X s 1968 868 m 46 Y s 1962 914 m 12 X s 1968 846 m -46 Y s 1962 800 m 12 X s 2038 825 m 45 Y s 2032 870 m 11 X s 2038 802 m -45
 Y s 2032 757 m 11 X s 2177 887 m 46 Y s 2172 933 m 11 X s 2177 864 m -45 Y s 2172 819 m 11 X s 1 0 0 c 9 lw 0.95 0.95 0.95 c black 1 0 0 c 1900 826 m 18 X 3 1 d 21 X 4 1 d 15 X 3 1 d 9 X 3 1 d 6 X 3 1 d 6 X 4 1 d 6 X 3 1 d 6 X 3 1 d 3 X 3 1 d 6 X 3
 1 d 3 X 3 1 d 3 X 3 1 d 3 X 4 1 d 3 X s 2050 839 m 3 1 d 3 X 3 1 d 3 1 d 3 X 3 1 d 3 X 3 1 d 3 1 d 3 X 3 1 d 3 1 d 3 X 3 1 d 4 1 d 3 X 3 1 d 3 1 d 3 X 3 1 d 3 1 d 3 1 d 3 X 3 1 d 3 1 d 3 1 d 3 1 d 3 1 d 3 X 3 1 d 4 1 d 3 1 d 3 1 d 3 1 d 3 1 d 3 1 d
 3 X 3 1 d 3 1 d 3 1 d 3 1 d 3 1 d 3 1 d 3 1 d 3 1 d 3 1 d 4 1 d 3 1 d 3 1 d s 2200 878 m 3 1 d s 0.49 0.6 0.82 c black 0.49 0.6 0.82 c
 gsave  408 305 1837 677 C 1957.19 960.076 t 0 r /Helvetica-Bold findfont 25.6831 sf 0 0 m (4.5 < E < 5.0 GeV) show NC gr  0.52 0.76 0.64 c black 0.52 0.76 0.64 c
 gsave  408 305 1837 677 C 1942.94 923.04 t 0 r /Helvetica-Bold findfont 25.6831 sf 0 0 m 
 220 206 192 185 170 163 148 141 125 118 111 97 83 69 61 47 40 25 18
(A = 0.002, p = 2.000) K NC gr  1 0.6 1 c black 1 0.6 1 c
 gsave  408 305 1837 677 C 2242.08 791.991 t 90 r /Helvetica-Bold findfont 28.5368 sf 0 0 m (/dof=0.2) show NC gr  black 1 0.6 1 c
 gsave  408 305 1837 677 C 2230.68 780.596 t 90 r /Helvetica-Bold findfont 19.9758 sf 0 0 m (2) show NC gr  black 1 0.6 1 c
 gsave  408 305 1837 677 C 2242.08 763.503 t 90 r /Symbol findfont 28.5368 sf 0 0 m (c) show NC gr  black 3 lw 1 1 1 c 408 306 23 345 bf black 1 1 1 c black 306 229 84 391 bl 306 229 84 391 bl 84 391 m 306 X s 84 395 m -4 Y s 224 395 m -4 Y s 363 395
 m -4 Y s 363 395 m -4 Y s
 gsave  408 306 23 345 C 74.0711 370.356 t 0 r /Helvetica findfont 22.8295 sf 0 0 m (0) show NC gr 
 gsave  408 306 23 345 C 216.516 370.356 t 0 r /Helvetica findfont 22.8295 sf 0 0 m (1) show NC gr 
 gsave  408 306 23 345 C 353.262 370.356 t 0 r /Helvetica findfont 22.8295 sf 0 0 m (2) show NC gr  84 620 m 306 X s 84 616 m 4 Y s 224 616 m 4 Y s 363 616 m 4 Y s 363 616 m 4 Y s 84 391 m 229 Y s 89 416 m -5 X s 87 421 m -3 X s 87 427 m -3 X s 87
 433 m -3 X s 87 438 m -3 X s 89 444 m -5 X s 87 449 m -3 X s 87 455 m -3 X s 87 461 m -3 X s 87 466 m -3 X s 89 472 m -5 X s 87 477 m -3 X s 87 483 m -3 X s 87 489 m -3 X s 87 494 m -3 X s 89 500 m -5 X s 87 506 m -3 X s 87 511 m -3 X s 87 517 m -3
 X s 87 522 m -3 X s 89 528 m -5 X s 87 534 m -3 X s 87 539 m -3 X s 87 545 m -3 X s 87 550 m -3 X s 89 556 m -5 X s 87 562 m -3 X s 87 567 m -3 X s 87 573 m -3 X s 87 578 m -3 X s 89 584 m -5 X s 87 590 m -3 X s 87 595 m -3 X s 87 601 m -3 X s 87
 606 m -3 X s 89 612 m -5 X s 89 416 m -5 X s 87 410 m -3 X s 87 405 m -3 X s 87 399 m -3 X s 87 393 m -3 X s 89 612 m -5 X s 87 618 m -3 X s
 gsave  408 306 23 345 C 14.2445 407.391 t 0 r /Helvetica findfont 22.8295 sf 0 0 m (\2550.015) show NC gr 
 gsave  408 306 23 345 C 31.3378 435.88 t 0 r /Helvetica findfont 22.8295 sf 0 0 m (\2550.01) show NC gr 
 gsave  408 306 23 345 C 14.2445 464.369 t 0 r /Helvetica findfont 22.8295 sf 0 0 m (\2550.005) show NC gr 
 gsave  408 306 23 345 C 65.5245 492.858 t 0 r /Helvetica findfont 22.8295 sf 0 0 m (0) show NC gr 
 gsave  408 306 23 345 C 22.7911 521.347 t 0 r /Helvetica findfont 22.8295 sf 0 0 m (0.005) show NC gr 
 gsave  408 306 23 345 C 37.0356 549.836 t 0 r /Helvetica findfont 22.8295 sf 0 0 m (0.01) show NC gr 
 gsave  408 306 23 345 C 22.7911 575.476 t 0 r /Helvetica findfont 22.8295 sf 0 0 m (0.015) show NC gr 
 gsave  408 306 23 345 C 34.1867 603.965 t 0 r /Helvetica findfont 22.8295 sf 0 0 m (0.02) show NC gr  390 391 m 229 Y s 385 416 m 5 X s 387 421 m 3 X s 387 427 m 3 X s 387 433 m 3 X s 387 438 m 3 X s 385 444 m 5 X s 387 449 m 3 X s 387 455 m 3 X s
 387 461 m 3 X s 387 466 m 3 X s 385 472 m 5 X s 387 477 m 3 X s 387 483 m 3 X s 387 489 m 3 X s 387 494 m 3 X s 385 500 m 5 X s 387 506 m 3 X s 387 511 m 3 X s 387 517 m 3 X s 387 522 m 3 X s 385 528 m 5 X s 387 534 m 3 X s 387 539 m 3 X s 387 545 m
 3 X s 387 550 m 3 X s 385 556 m 5 X s 387 562 m 3 X s 387 567 m 3 X s 387 573 m 3 X s 387 578 m 3 X s 385 584 m 5 X s 387 590 m 3 X s 387 595 m 3 X s 387 601 m 3 X s 387 606 m 3 X s 385 612 m 5 X s 385 416 m 5 X s 387 410 m 3 X s 387 405 m 3 X s 387
 399 m 3 X s 387 393 m 3 X s 385 612 m 5 X s 387 618 m 3 X s /w 22 def /w2 {w 2 div} def /w3 {w 3 div} def 119 503 154 536 224 483 363 474 4 { m21} R 119 515 m 53 Y s 113 568 m 12 X s 119 492 m -53 Y s 113 439 m 12 X s 154 548 m 53 Y s 148 601 m 11 X
 s 154 525 m -53 Y s 148 472 m 11 X s 224 494 m 53 Y s 218 547 m 11 X s 224 471 m -53 Y s 218 418 m 11 X s 363 485 m 53 Y s 357 538 m 12 X s 363 462 m -52 Y s 357 410 m 12 X s 1 0 0 c 9 lw 0.95 0.95 0.95 c black 1 0 0 c 85 500 m 31 X 3 -1 d 28 X 3 -1
 d 18 X 3 -1 d 12 X 3 -1 d 10 X 3 -1 d 9 X 3 -1 d 9 X 3 -1 d 6 X 3 -1 d 3 X s 235 492 m 7 X 3 -1 d 6 X 3 -1 d 3 X 3 -1 d 6 X 3 -1 d 6 X 3 -1 d 3 X 3 -1 d 7 X 3 -1 d 3 X 3 -1 d 3 X 3 -1 d 3 X 3 -1 d 3 X 3 -1 d 3 X 3 -1 d 3 X 3 -1 d 3 X 3 -1 d 4 X 3 -1
 d 3 X 3 -1 d 3 X 3 -1 d 3 X 3 -1 d 3 -1 d 3 X 3 -1 d 3 X 3 -1 d 3 -1 d 3 X 3 -1 d s 385 469 m 4 X s 0.49 0.6 0.82 c black 0.49 0.6 0.82 c
 gsave  408 306 23 345 C 142.445 629.605 t 0 r /Helvetica-Bold findfont 25.6831 sf 0 0 m (5.0 < E < 5.5 GeV) show NC gr  0.52 0.76 0.64 c black 0.52 0.76 0.64 c
 gsave  408 306 23 345 C 122.502 592.569 t 0 r /Helvetica-Bold findfont 25.6831 sf 0 0 m 
 228 214 200 193 178 171 156 149 134 126 119 105 91 77 69 55 47 39 25 17
(A = \2550.001, p = 2.000) K NC gr  1 0.6 1 c black 1 0.6 1 c
 gsave  408 306 23 345 C 427.334 458.671 t 90 r /Helvetica-Bold findfont 28.5368 sf 0 0 m (/dof=0.1) show NC gr  black 1 0.6 1 c
 gsave  408 306 23 345 C 415.938 447.276 t 90 r /Helvetica-Bold findfont 19.9758 sf 0 0 m (2) show NC gr  black 1 0.6 1 c
 gsave  408 306 23 345 C 427.334 430.182 t 90 r /Symbol findfont 28.5368 sf 0 0 m (c) show NC gr  black 3 lw 1 1 1 c 408 306 476 345 bf black 1 1 1 c black 307 229 537 391 bl 307 229 537 391 bl 537 391 m 307 X s 537 395 m -4 Y s 677 395 m -4 Y s 817
 395 m -4 Y s 817 395 m -4 Y s
 gsave  408 306 476 345 C 527.045 370.356 t 0 r /Helvetica findfont 22.8295 sf 0 0 m (0) show NC gr 
 gsave  408 306 476 345 C 669.489 370.356 t 0 r /Helvetica findfont 22.8295 sf 0 0 m (1) show NC gr 
 gsave  408 306 476 345 C 806.236 370.356 t 0 r /Helvetica findfont 22.8295 sf 0 0 m (2) show NC gr  537 620 m 307 X s 537 616 m 4 Y s 677 616 m 4 Y s 817 616 m 4 Y s 817 616 m 4 Y s 537 391 m 229 Y s 543 405 m -6 X s 540 413 m -3 X s 540 421 m -3 X
 s 540 429 m -3 X s 540 437 m -3 X s 543 445 m -6 X s 540 453 m -3 X s 540 461 m -3 X s 540 469 m -3 X s 540 477 m -3 X s 543 485 m -6 X s 540 493 m -3 X s 540 501 m -3 X s 540 509 m -3 X s 540 517 m -3 X s 543 525 m -6 X s 540 533 m -3 X s 540 542 m
 -3 X s 540 550 m -3 X s 540 558 m -3 X s 543 566 m -6 X s 540 574 m -3 X s 540 582 m -3 X s 540 590 m -3 X s 540 598 m -3 X s 543 606 m -6 X s 543 405 m -6 X s 540 397 m -3 X s 543 606 m -6 X s 540 614 m -3 X s
 gsave  408 306 476 345 C 481.462 398.845 t 0 r /Helvetica findfont 22.8295 sf 0 0 m (\2550.04) show NC gr 
 gsave  408 306 476 345 C 481.462 438.729 t 0 r /Helvetica findfont 22.8295 sf 0 0 m (\2550.03) show NC gr 
 gsave  408 306 476 345 C 481.462 478.614 t 0 r /Helvetica findfont 22.8295 sf 0 0 m (\2550.02) show NC gr 
 gsave  408 306 476 345 C 484.311 518.498 t 0 r /Helvetica findfont 22.8295 sf 0 0 m (\2550.01) show NC gr 
 gsave  408 306 476 345 C 518.498 558.382 t 0 r /Helvetica findfont 22.8295 sf 0 0 m (0) show NC gr 
 gsave  408 306 476 345 C 490.009 598.267 t 0 r /Helvetica findfont 22.8295 sf 0 0 m (0.01) show NC gr  844 391 m 229 Y s 838 405 m 6 X s 841 413 m 3 X s 841 421 m 3 X s 841 429 m 3 X s 841 437 m 3 X s 838 445 m 6 X s 841 453 m 3 X s 841 461 m 3 X s
 841 469 m 3 X s 841 477 m 3 X s 838 485 m 6 X s 841 493 m 3 X s 841 501 m 3 X s 841 509 m 3 X s 841 517 m 3 X s 838 525 m 6 X s 841 533 m 3 X s 841 542 m 3 X s 841 550 m 3 X s 841 558 m 3 X s 838 566 m 6 X s 841 574 m 3 X s 841 582 m 3 X s 841 590 m
 3 X s 841 598 m 3 X s 838 606 m 6 X s 838 405 m 6 X s 841 397 m 3 X s 838 606 m 6 X s 841 614 m 3 X s /w 23 def /w2 {w 2 div} def /w3 {w 3 div} def 572 543 607 536 677 531 817 467 4 { m21} R 572 555 m 46 Y s 567 601 m 11 X s 572 532 m -46 Y s 567
 486 m 11 X s 607 548 m 46 Y s 602 594 m 11 X s 607 525 m -46 Y s 602 479 m 11 X s 677 543 m 46 Y s 671 589 m 12 X s 677 520 m -46 Y s 671 474 m 12 X s 817 478 m 45 Y s 811 523 m 11 X s 817 455 m -45 Y s 811 410 m 11 X s 9 lw 0.95 0.95 0.95 c black
 539 565 m 3 -1 d 3 -1 d 3 -1 d 3 -1 d 3 -1 d 3 -1 d 3 -1 d 3 -1 d 4 -1 d 3 -1 d 3 -1 d 3 -1 d 3 -1 d 3 -1 d 3 -2 d 3 -1 d 3 -1 d 3 -1 d 3 -1 d 3 -1 d 3 -1 d 3 -1 d 3 -1 d 3 -1 d 4 -1 d 3 -1 d 3 -1 d 3 -1 d 3 -1 d 3 -1 d 3 -1 d 3 -1 d 3 -1 d 3 -1 d 3
 -1 d 3 -1 d 3 -2 d 3 -1 d 3 -1 d 3 -1 d 3 -1 d 4 -1 d 3 -1 d 3 -1 d 3 -1 d 3 -1 d 3 -1 d 3 -1 d 3 -1 d s 689 514 m 3 -1 d 3 -1 d 3 -1 d 3 -1 d 3 -1 d 3 -1 d 3 -1 d 3 -1 d 4 -1 d 3 -2 d 3 -1 d 3 -1 d 3 -1 d 3 -1 d 3 -1 d 3 -1 d 3 -1 d 3 -1 d 3 -1 d 3
 -1 d 3 -1 d 3 -1 d 3 -1 d 3 -1 d 4 -1 d 3 -1 d 3 -1 d 3 -1 d 3 -1 d 3 -1 d 3 -1 d 3 -1 d 3 -2 d 3 -1 d 3 -1 d 3 -1 d 3 -1 d 3 -1 d 3 -1 d 3 -1 d 4 -1 d 3 -1 d 3 -1 d 3 -1 d 3 -1 d 3 -1 d 3 -1 d 3 -1 d 3 -1 d s 839 463 m 3 -1 d s 0.49 0.6 0.82 c
 black 0.49 0.6 0.82 c
 gsave  408 306 476 345 C 595.418 629.605 t 0 r /Helvetica-Bold findfont 25.6831 sf 0 0 m (5.5 < E < 6.0 GeV) show NC gr  0.52 0.76 0.64 c black 0.52 0.76 0.64 c
 gsave  408 306 476 345 C 575.476 592.569 t 0 r /Helvetica-Bold findfont 25.6831 sf 0 0 m 
 228 214 200 193 178 171 156 149 133 126 119 105 91 76 69 55 47 39 25 17
(A = \2550.012, p = 1.000) K NC gr  1 0.6 1 c black 1 0.6 1 c
 gsave  408 306 476 345 C 883.156 458.671 t 90 r /Helvetica-Bold findfont 28.5368 sf 0 0 m (/dof=0.0) show NC gr  black 1 0.6 1 c
 gsave  408 306 476 345 C 871.76 447.276 t 90 r /Helvetica-Bold findfont 19.9758 sf 0 0 m (2) show NC gr  black 1 0.6 1 c
 gsave  408 306 476 345 C 883.156 430.182 t 90 r /Symbol findfont 28.5368 sf 0 0 m (c) show NC gr  black 3 lw 1 1 1 c 408 306 930 345 bf black 1 1 1 c black 306 229 991 391 bl 306 229 991 391 bl 991 391 m 306 X s 991 395 m -4 Y s 1131 395 m -4 Y s
 1270 395 m -4 Y s 1270 395 m -4 Y s
 gsave  408 306 930 345 C 980.018 370.356 t 0 r /Helvetica findfont 22.8295 sf 0 0 m (0) show NC gr 
 gsave  408 306 930 345 C 1122.46 370.356 t 0 r /Helvetica findfont 22.8295 sf 0 0 m (1) show NC gr 
 gsave  408 306 930 345 C 1259.21 370.356 t 0 r /Helvetica findfont 22.8295 sf 0 0 m (2) show NC gr  991 620 m 306 X s 991 616 m 4 Y s 1131 616 m 4 Y s 1270 616 m 4 Y s 1270 616 m 4 Y s 991 391 m 229 Y s 997 407 m -6 X s 994 412 m -3 X s 994 418 m -3
 X s 994 423 m -3 X s 994 428 m -3 X s 997 433 m -6 X s 994 439 m -3 X s 994 444 m -3 X s 994 449 m -3 X s 994 454 m -3 X s 997 460 m -6 X s 994 465 m -3 X s 994 470 m -3 X s 994 475 m -3 X s 994 481 m -3 X s 997 486 m -6 X s 994 491 m -3 X s 994 497
 m -3 X s 994 502 m -3 X s 994 507 m -3 X s 997 512 m -6 X s 994 518 m -3 X s 994 523 m -3 X s 994 528 m -3 X s 994 533 m -3 X s 997 539 m -6 X s 994 544 m -3 X s 994 549 m -3 X s 994 554 m -3 X s 994 560 m -3 X s 997 565 m -6 X s 994 570 m -3 X s
 994 575 m -3 X s 994 581 m -3 X s 994 586 m -3 X s 997 591 m -6 X s 994 597 m -3 X s 994 602 m -3 X s 994 607 m -3 X s 994 612 m -3 X s 997 618 m -6 X s 997 407 m -6 X s 994 402 m -3 X s 994 397 m -3 X s 994 391 m -3 X s 997 618 m -6 X s
 gsave  408 306 930 345 C 937.285 398.845 t 0 r /Helvetica findfont 22.8295 sf 0 0 m (\2550.04) show NC gr 
 gsave  408 306 930 345 C 937.285 427.334 t 0 r /Helvetica findfont 22.8295 sf 0 0 m (\2550.03) show NC gr 
 gsave  408 306 930 345 C 937.285 452.974 t 0 r /Helvetica findfont 22.8295 sf 0 0 m (\2550.02) show NC gr 
 gsave  408 306 930 345 C 940.134 478.614 t 0 r /Helvetica findfont 22.8295 sf 0 0 m (\2550.01) show NC gr 
 gsave  408 306 930 345 C 974.32 504.254 t 0 r /Helvetica findfont 22.8295 sf 0 0 m (0) show NC gr 
 gsave  408 306 930 345 C 945.832 532.742 t 0 r /Helvetica findfont 22.8295 sf 0 0 m (0.01) show NC gr 
 gsave  408 306 930 345 C 942.983 558.382 t 0 r /Helvetica findfont 22.8295 sf 0 0 m (0.02) show NC gr 
 gsave  408 306 930 345 C 942.983 584.022 t 0 r /Helvetica findfont 22.8295 sf 0 0 m (0.03) show NC gr 
 gsave  408 306 930 345 C 942.983 609.662 t 0 r /Helvetica findfont 22.8295 sf 0 0 m (0.04) show NC gr  1297 391 m 229 Y s 1292 407 m 5 X s 1294 412 m 3 X s 1294 418 m 3 X s 1294 423 m 3 X s 1294 428 m 3 X s 1292 433 m 5 X s 1294 439 m 3 X s 1294 444
 m 3 X s 1294 449 m 3 X s 1294 454 m 3 X s 1292 460 m 5 X s 1294 465 m 3 X s 1294 470 m 3 X s 1294 475 m 3 X s 1294 481 m 3 X s 1292 486 m 5 X s 1294 491 m 3 X s 1294 497 m 3 X s 1294 502 m 3 X s 1294 507 m 3 X s 1292 512 m 5 X s 1294 518 m 3 X s
 1294 523 m 3 X s 1294 528 m 3 X s 1294 533 m 3 X s 1292 539 m 5 X s 1294 544 m 3 X s 1294 549 m 3 X s 1294 554 m 3 X s 1294 560 m 3 X s 1292 565 m 5 X s 1294 570 m 3 X s 1294 575 m 3 X s 1294 581 m 3 X s 1294 586 m 3 X s 1292 591 m 5 X s 1294 597 m
 3 X s 1294 602 m 3 X s 1294 607 m 3 X s 1294 612 m 3 X s 1292 618 m 5 X s 1292 407 m 5 X s 1294 402 m 3 X s 1294 397 m 3 X s 1294 391 m 3 X s 1292 618 m 5 X s 1026 515 1061 454 1131 555 1270 531 4 { m21} R 1026 527 m 34 Y s 1020 561 m 12 X s 1026
 504 m -34 Y s 1020 470 m 12 X s 1061 466 m 32 Y s 1055 498 m 12 X s 1061 443 m -33 Y s 1055 410 m 12 X s 1131 566 m 35 Y s 1125 601 m 11 X s 1131 544 m -35 Y s 1125 509 m 11 X s 1270 542 m 34 Y s 1265 576 m 11 X s 1270 519 m -34 Y s 1265 485 m 11 X
 s 1 0 0 c 9 lw 0.95 0.95 0.95 c black 1 0 0 c 993 512 m 21 X 3 1 d 34 X 3 1 d 21 X 3 1 d 16 X 3 1 d 9 X 3 1 d 12 X 3 1 d 9 X 3 1 d 7 X s 1143 519 m 3 1 d 9 X 3 1 d 6 X 3 1 d 6 X 3 1 d 6 X 3 1 d 7 X 3 1 d 3 X 3 1 d 6 X 3 1 d 3 X 3 1 d 6 X 3 1 d 3 X 3
 1 d 3 X 3 1 d 3 X 4 1 d 6 X 3 1 d 3 X 3 1 d 3 X 3 1 d 3 X 3 1 d 3 1 d 3 X 3 1 d 3 X 3 1 d 3 X 4 1 d s 1293 540 m 3 X s 0.49 0.6 0.82 c black 0.49 0.6 0.82 c
 gsave  408 306 930 345 C 1051.24 629.605 t 0 r /Helvetica-Bold findfont 25.6831 sf 0 0 m (6.0 < E < 6.5 GeV) show NC gr  0.52 0.76 0.64 c black 0.52 0.76 0.64 c
 gsave  408 306 930 345 C 1037 592.569 t 0 r /Helvetica-Bold findfont 25.6831 sf 0 0 m 
 220 206 192 185 170 163 148 141 125 118 111 97 83 69 61 47 40 25 18
(A = 0.002, p = 2.000) K NC gr  1 0.6 1 c black 1 0.6 1 c
 gsave  408 306 930 345 C 1336.13 458.671 t 90 r /Helvetica-Bold findfont 28.5368 sf 0 0 m (/dof=0.8) show NC gr  black 1 0.6 1 c
 gsave  408 306 930 345 C 1324.73 447.276 t 90 r /Helvetica-Bold findfont 19.9758 sf 0 0 m (2) show NC gr  black 1 0.6 1 c
 gsave  408 306 930 345 C 1336.13 430.182 t 90 r /Symbol findfont 28.5368 sf 0 0 m (c) show NC gr  black 3 lw 1 1 1 c 408 306 1383 345 bf black 1 1 1 c black 306 229 1445 391 bl 306 229 1445 391 bl 1445 391 m 306 X s 1445 395 m -4 Y s 1584 395 m -4 Y
 s 1724 395 m -4 Y s 1724 395 m -4 Y s
 gsave  408 306 1383 345 C 1435.84 370.356 t 0 r /Helvetica findfont 22.8295 sf 0 0 m (0) show NC gr 
 gsave  408 306 1383 345 C 1578.29 370.356 t 0 r /Helvetica findfont 22.8295 sf 0 0 m (1) show NC gr 
 gsave  408 306 1383 345 C 1715.03 370.356 t 0 r /Helvetica findfont 22.8295 sf 0 0 m (2) show NC gr  1445 620 m 306 X s 1445 616 m 4 Y s 1584 616 m 4 Y s 1724 616 m 4 Y s 1724 616 m 4 Y s 1445 391 m 229 Y s 1450 401 m -5 X s 1447 406 m -2 X s 1447
 412 m -2 X s 1447 418 m -2 X s 1447 424 m -2 X s 1450 429 m -5 X s 1447 435 m -2 X s 1447 441 m -2 X s 1447 447 m -2 X s 1447 452 m -2 X s 1450 458 m -5 X s 1447 464 m -2 X s 1447 470 m -2 X s 1447 475 m -2 X s 1447 481 m -2 X s 1450 487 m -5 X s
 1447 493 m -2 X s 1447 498 m -2 X s 1447 504 m -2 X s 1447 510 m -2 X s 1450 516 m -5 X s 1447 522 m -2 X s 1447 527 m -2 X s 1447 533 m -2 X s 1447 539 m -2 X s 1450 545 m -5 X s 1447 550 m -2 X s 1447 556 m -2 X s 1447 562 m -2 X s 1447 568 m -2 X
 s 1450 573 m -5 X s 1447 579 m -2 X s 1447 585 m -2 X s 1447 591 m -2 X s 1447 596 m -2 X s 1450 602 m -5 X s 1450 401 m -5 X s 1447 395 m -2 X s 1450 602 m -5 X s 1447 608 m -2 X s 1447 614 m -2 X s 1447 619 m -2 X s
 gsave  408 306 1383 345 C 1390.26 393.147 t 0 r /Helvetica findfont 22.8295 sf 0 0 m (\2550.05) show NC gr 
 gsave  408 306 1383 345 C 1390.26 421.636 t 0 r /Helvetica findfont 22.8295 sf 0 0 m (\2550.04) show NC gr 
 gsave  408 306 1383 345 C 1390.26 450.125 t 0 r /Helvetica findfont 22.8295 sf 0 0 m (\2550.03) show NC gr 
 gsave  408 306 1383 345 C 1390.26 478.614 t 0 r /Helvetica findfont 22.8295 sf 0 0 m (\2550.02) show NC gr 
 gsave  408 306 1383 345 C 1393.11 509.951 t 0 r /Helvetica findfont 22.8295 sf 0 0 m (\2550.01) show NC gr 
 gsave  408 306 1383 345 C 1427.29 538.44 t 0 r /Helvetica findfont 22.8295 sf 0 0 m (0) show NC gr 
 gsave  408 306 1383 345 C 1398.81 566.929 t 0 r /Helvetica findfont 22.8295 sf 0 0 m (0.01) show NC gr 
 gsave  408 306 1383 345 C 1395.96 595.418 t 0 r /Helvetica findfont 22.8295 sf 0 0 m (0.02) show NC gr  1751 391 m 229 Y s 1745 401 m 6 X s 1748 406 m 3 X s 1748 412 m 3 X s 1748 418 m 3 X s 1748 424 m 3 X s 1745 429 m 6 X s 1748 435 m 3 X s 1748
 441 m 3 X s 1748 447 m 3 X s 1748 452 m 3 X s 1745 458 m 6 X s 1748 464 m 3 X s 1748 470 m 3 X s 1748 475 m 3 X s 1748 481 m 3 X s 1745 487 m 6 X s 1748 493 m 3 X s 1748 498 m 3 X s 1748 504 m 3 X s 1748 510 m 3 X s 1745 516 m 6 X s 1748 522 m 3 X s
 1748 527 m 3 X s 1748 533 m 3 X s 1748 539 m 3 X s 1745 545 m 6 X s 1748 550 m 3 X s 1748 556 m 3 X s 1748 562 m 3 X s 1748 568 m 3 X s 1745 573 m 6 X s 1748 579 m 3 X s 1748 585 m 3 X s 1748 591 m 3 X s 1748 596 m 3 X s 1745 602 m 6 X s 1745 401 m
 6 X s 1748 395 m 3 X s 1745 602 m 6 X s 1748 608 m 3 X s 1748 614 m 3 X s 1748 619 m 3 X s 1479 533 1514 507 1584 465 1724 544 4 { m21} R 1479 544 m 45 Y s 1474 589 m 11 X s 1479 521 m -45 Y s 1474 476 m 11 X s 1514 519 m 44 Y s 1509 563 m 11 X s
 1514 496 m -45 Y s 1509 451 m 11 X s 1584 476 m 44 Y s 1578 520 m 12 X s 1584 454 m -44 Y s 1578 410 m 12 X s 1724 556 m 45 Y s 1718 601 m 11 X s 1724 533 m -45 Y s 1718 488 m 11 X s 9 lw 0.95 0.95 0.95 c black 1446 544 m 3 X 3 -1 d 6 X 3 -1 d 3 X 3
 -1 d 4 X 3 -1 d 6 X 3 -1 d 3 X 3 -1 d 3 X 3 -1 d 6 X 3 -1 d 3 X 3 -1 d 3 X 3 -1 d 7 X 3 -1 d 3 X 3 -1 d 3 X 3 -1 d 3 X 3 -1 d 6 X 3 -1 d 3 X 3 -1 d 3 X 3 -1 d 7 X 3 -1 d 3 X 3 -1 d 3 X 3 -1 d 6 X 3 -1 d s 1596 523 m 3 X 3 -1 d 3 X 3 -1 d 6 X 4 -1 d
 3 X 3 -1 d 3 X 3 -1 d 6 X 3 -1 d 3 X 3 -1 d 3 X 3 -1 d 3 X 3 -1 d 6 X 3 -1 d 4 X 3 -1 d 3 X 3 -1 d 6 X 3 -1 d 3 X 3 -1 d 3 X 3 -1 d 6 X 3 -1 d 3 X 3 -1 d 4 X 3 -1 d 6 X 3 -1 d 3 X 3 -1 d 3 X 3 -1 d 3 X s 1746 502 m 3 X s 0.49 0.6 0.82 c black 0.49
 0.6 0.82 c
 gsave  408 306 1383 345 C 1504.21 629.605 t 0 r /Helvetica-Bold findfont 25.6831 sf 0 0 m (6.5 < E < 7.0 GeV) show NC gr  0.52 0.76 0.64 c black 0.52 0.76 0.64 c
 gsave  408 306 1383 345 C 1484.27 592.569 t 0 r /Helvetica-Bold findfont 25.6831 sf 0 0 m 
 228 214 200 193 178 171 156 149 134 126 119 105 91 77 69 55 47 40 25 17
(A = \2550.007, p = 1.000) K NC gr  1 0.6 1 c black 1 0.6 1 c
 gsave  408 306 1383 345 C 1789.1 458.671 t 90 r /Helvetica-Bold findfont 28.5368 sf 0 0 m (/dof=0.6) show NC gr  black 1 0.6 1 c
 gsave  408 306 1383 345 C 1777.71 447.276 t 90 r /Helvetica-Bold findfont 19.9758 sf 0 0 m (2) show NC gr  black 1 0.6 1 c
 gsave  408 306 1383 345 C 1789.1 430.182 t 90 r /Symbol findfont 28.5368 sf 0 0 m (c) show NC gr  black 3 lw 1 1 1 c 408 306 1837 345 bf black 1 1 1 c black 306 229 1898 391 bl 306 229 1898 391 bl 1898 391 m 306 X s 1898 395 m -4 Y s 2038 395 m -4 Y
 s 2177 395 m -4 Y s 2177 395 m -4 Y s
 gsave  408 306 1837 345 C 1888.81 370.356 t 0 r /Helvetica findfont 22.8295 sf 0 0 m (0) show NC gr 
 gsave  408 306 1837 345 C 2031.26 370.356 t 0 r /Helvetica findfont 22.8295 sf 0 0 m (1) show NC gr 
 gsave  408 306 1837 345 C 2168.01 370.356 t 0 r /Helvetica findfont 22.8295 sf 0 0 m (2) show NC gr  1898 620 m 306 X s 1898 616 m 4 Y s 2038 616 m 4 Y s 2177 616 m 4 Y s 2177 616 m 4 Y s 1898 391 m 229 Y s 1904 403 m -6 X s 1901 409 m -3 X s 1901
 414 m -3 X s 1901 420 m -3 X s 1901 426 m -3 X s 1904 431 m -6 X s 1901 437 m -3 X s 1901 443 m -3 X s 1901 448 m -3 X s 1901 454 m -3 X s 1904 459 m -6 X s 1901 465 m -3 X s 1901 471 m -3 X s 1901 476 m -3 X s 1901 482 m -3 X s 1904 487 m -6 X s
 1901 493 m -3 X s 1901 499 m -3 X s 1901 504 m -3 X s 1901 510 m -3 X s 1904 515 m -6 X s 1901 521 m -3 X s 1901 527 m -3 X s 1901 532 m -3 X s 1901 538 m -3 X s 1904 544 m -6 X s 1901 549 m -3 X s 1901 555 m -3 X s 1901 560 m -3 X s 1901 566 m -3 X
 s 1904 572 m -6 X s 1901 577 m -3 X s 1901 583 m -3 X s 1901 588 m -3 X s 1901 594 m -3 X s 1904 600 m -6 X s 1904 403 m -6 X s 1901 398 m -3 X s 1901 392 m -3 X s 1904 600 m -6 X s 1901 605 m -3 X s 1901 611 m -3 X s 1901 617 m -3 X s
 gsave  408 306 1837 345 C 1843.23 395.996 t 0 r /Helvetica findfont 22.8295 sf 0 0 m (\2550.04) show NC gr 
 gsave  408 306 1837 345 C 1843.23 424.485 t 0 r /Helvetica findfont 22.8295 sf 0 0 m (\2550.03) show NC gr 
 gsave  408 306 1837 345 C 1843.23 452.974 t 0 r /Helvetica findfont 22.8295 sf 0 0 m (\2550.02) show NC gr 
 gsave  408 306 1837 345 C 1846.08 481.462 t 0 r /Helvetica findfont 22.8295 sf 0 0 m (\2550.01) show NC gr 
 gsave  408 306 1837 345 C 1880.27 507.102 t 0 r /Helvetica findfont 22.8295 sf 0 0 m (0) show NC gr 
 gsave  408 306 1837 345 C 1851.78 535.591 t 0 r /Helvetica findfont 22.8295 sf 0 0 m (0.01) show NC gr 
 gsave  408 306 1837 345 C 1848.93 564.08 t 0 r /Helvetica findfont 22.8295 sf 0 0 m (0.02) show NC gr 
 gsave  408 306 1837 345 C 1848.93 592.569 t 0 r /Helvetica findfont 22.8295 sf 0 0 m (0.03) show NC gr  2204 391 m 229 Y s 2199 403 m 5 X s 2201 409 m 3 X s 2201 414 m 3 X s 2201 420 m 3 X s 2201 426 m 3 X s 2199 431 m 5 X s 2201 437 m 3 X s 2201
 443 m 3 X s 2201 448 m 3 X s 2201 454 m 3 X s 2199 459 m 5 X s 2201 465 m 3 X s 2201 471 m 3 X s 2201 476 m 3 X s 2201 482 m 3 X s 2199 487 m 5 X s 2201 493 m 3 X s 2201 499 m 3 X s 2201 504 m 3 X s 2201 510 m 3 X s 2199 515 m 5 X s 2201 521 m 3 X s
 2201 527 m 3 X s 2201 532 m 3 X s 2201 538 m 3 X s 2199 544 m 5 X s 2201 549 m 3 X s 2201 555 m 3 X s 2201 560 m 3 X s 2201 566 m 3 X s 2199 572 m 5 X s 2201 577 m 3 X s 2201 583 m 3 X s 2201 588 m 3 X s 2201 594 m 3 X s 2199 600 m 5 X s 2199 403 m
 5 X s 2201 398 m 3 X s 2201 392 m 3 X s 2199 600 m 5 X s 2201 605 m 3 X s 2201 611 m 3 X s 2201 617 m 3 X s 1933 470 1968 499 2038 523 2177 539 4 { m21} R 1933 481 m 49 Y s 1927 530 m 12 X s 1933 458 m -48 Y s 1927 410 m 12 X s 1968 510 m 49 Y s
 1962 559 m 12 X s 1968 487 m -49 Y s 1962 438 m 12 X s 2038 535 m 50 Y s 2032 585 m 11 X s 2038 512 m -50 Y s 2032 462 m 11 X s 2177 551 m 50 Y s 2172 601 m 11 X s 2177 528 m -50 Y s 2172 478 m 11 X s 1 0 0 c 9 lw 0.95 0.95 0.95 c black 1 0 0 c 1900
 515 m 6 X 3 1 d 46 X 3 1 d 21 X 3 1 d 16 X 3 1 d 15 X 3 1 d 9 X 3 1 d 9 X 3 1 d 7 X s 2050 522 m 3 X 3 1 d 6 X 3 1 d 9 X 3 1 d 6 X 3 1 d 6 X 4 1 d 6 X 3 1 d 3 X 3 1 d 6 X 3 1 d 3 X 3 1 d 6 X 3 1 d 3 X 3 1 d 7 X 3 1 d 3 X 3 1 d 3 X 3 1 d 3 X 3 1 d 3
 X 3 1 d 3 X 3 1 d 3 X 3 1 d 3 X 4 1 d 3 X 3 1 d s 2200 542 m 3 X s 0.49 0.6 0.82 c black 0.49 0.6 0.82 c
 gsave  408 306 1837 345 C 1957.19 629.605 t 0 r /Helvetica-Bold findfont 25.6831 sf 0 0 m (7.0 < E < 7.5 GeV) show NC gr  0.52 0.76 0.64 c black 0.52 0.76 0.64 c
 gsave  408 306 1837 345 C 1942.94 592.569 t 0 r /Helvetica-Bold findfont 25.6831 sf 0 0 m 
 220 206 192 185 170 163 148 141 125 118 111 97 83 69 61 47 40 25 18
(A = 0.002, p = 2.000) K NC gr  1 0.6 1 c black 1 0.6 1 c
 gsave  408 306 1837 345 C 2242.08 458.671 t 90 r /Helvetica-Bold findfont 28.5368 sf 0 0 m (/dof=0.2) show NC gr  black 1 0.6 1 c
 gsave  408 306 1837 345 C 2230.68 447.276 t 90 r /Helvetica-Bold findfont 19.9758 sf 0 0 m (2) show NC gr  black 1 0.6 1 c
 gsave  408 306 1837 345 C 2242.08 430.182 t 90 r /Symbol findfont 28.5368 sf 0 0 m (c) show NC gr  black 3 lw 1 1 1 c 408 306 23 13 bf black 1 1 1 c black 306 229 84 59 bl 306 229 84 59 bl 84 59 m 306 X s 84 63 m -4 Y s 224 63 m -4 Y s 363 63 m -4 Y
 s 363 63 m -4 Y s
 gsave  408 306 23 13 C 74.0711 39.8845 t 0 r /Helvetica findfont 22.8295 sf 0 0 m (0) show NC gr 
 gsave  408 306 23 13 C 216.516 39.8845 t 0 r /Helvetica findfont 22.8295 sf 0 0 m (1) show NC gr 
 gsave  408 306 23 13 C 353.262 39.8845 t 0 r /Helvetica findfont 22.8295 sf 0 0 m (2) show NC gr  84 288 m 306 X s 84 284 m 4 Y s 224 284 m 4 Y s 363 284 m 4 Y s 363 284 m 4 Y s 84 59 m 229 Y s 89 71 m -5 X s 87 78 m -3 X s 87 85 m -3 X s 87 92 m -3
 X s 89 99 m -5 X s 87 106 m -3 X s 87 113 m -3 X s 87 121 m -3 X s 89 128 m -5 X s 87 135 m -3 X s 87 142 m -3 X s 87 149 m -3 X s 89 156 m -5 X s 87 163 m -3 X s 87 170 m -3 X s 87 177 m -3 X s 89 184 m -5 X s 87 191 m -3 X s 87 198 m -3 X s 87 205
 m -3 X s 89 213 m -5 X s 87 220 m -3 X s 87 227 m -3 X s 87 234 m -3 X s 89 241 m -5 X s 87 248 m -3 X s 87 255 m -3 X s 87 262 m -3 X s 89 269 m -5 X s 89 71 m -5 X s 87 64 m -3 X s 89 269 m -5 X s 87 276 m -3 X s 87 283 m -3 X s
 gsave  408 306 23 13 C 28.4889 62.6756 t 0 r /Helvetica findfont 22.8295 sf 0 0 m (\2550.08) show NC gr 
 gsave  408 306 23 13 C 28.4889 91.1645 t 0 r /Helvetica findfont 22.8295 sf 0 0 m (\2550.06) show NC gr 
 gsave  408 306 23 13 C 28.4889 119.653 t 0 r /Helvetica findfont 22.8295 sf 0 0 m (\2550.04) show NC gr 
 gsave  408 306 23 13 C 28.4889 148.142 t 0 r /Helvetica findfont 22.8295 sf 0 0 m (\2550.02) show NC gr 
 gsave  408 306 23 13 C 65.5245 176.631 t 0 r /Helvetica findfont 22.8295 sf 0 0 m (0) show NC gr 
 gsave  408 306 23 13 C 34.1867 205.12 t 0 r /Helvetica findfont 22.8295 sf 0 0 m (0.02) show NC gr 
 gsave  408 306 23 13 C 34.1867 233.609 t 0 r /Helvetica findfont 22.8295 sf 0 0 m (0.04) show NC gr 
 gsave  408 306 23 13 C 34.1867 262.098 t 0 r /Helvetica findfont 22.8295 sf 0 0 m (0.06) show NC gr  390 59 m 229 Y s 385 71 m 5 X s 387 78 m 3 X s 387 85 m 3 X s 387 92 m 3 X s 385 99 m 5 X s 387 106 m 3 X s 387 113 m 3 X s 387 121 m 3 X s 385 128
 m 5 X s 387 135 m 3 X s 387 142 m 3 X s 387 149 m 3 X s 385 156 m 5 X s 387 163 m 3 X s 387 170 m 3 X s 387 177 m 3 X s 385 184 m 5 X s 387 191 m 3 X s 387 198 m 3 X s 387 205 m 3 X s 385 213 m 5 X s 387 220 m 3 X s 387 227 m 3 X s 387 234 m 3 X s
 385 241 m 5 X s 387 248 m 3 X s 387 255 m 3 X s 387 262 m 3 X s 385 269 m 5 X s 385 71 m 5 X s 387 64 m 3 X s 385 269 m 5 X s 387 276 m 3 X s 387 283 m 3 X s /w 22 def /w2 {w 2 div} def /w3 {w 3 div} def 119 196 154 234 224 149 363 110 4 { m21} R
 119 208 m 22 Y s 113 230 m 12 X s 119 185 m -22 Y s 113 163 m 12 X s 154 245 m 24 Y s 148 269 m 11 X s 154 223 m -24 Y s 148 199 m 11 X s 224 160 m 22 Y s 218 182 m 11 X s 224 137 m -21 Y s 218 116 m 11 X s 363 121 m 21 Y s 357 142 m 12 X s 363 98 m
 -20 Y s 357 78 m 12 X s 1 0 0 c 9 lw 0.95 0.95 0.95 c black 1 0 0 c 85 184 m 25 X 3 -1 d 12 X 3 -1 d 6 X 3 -1 d 7 X 3 -1 d 6 X 3 -1 d 3 X 3 -1 d 3 X 3 -1 d 3 X 3 -1 d 3 X 3 -1 d 3 X 3 -1 d 4 -1 d 3 X 3 -1 d 3 -1 d 3 X 3 -1 d 3 -1 d 3 X 3 -1 d 3 -1 d
 3 -1 d 3 -1 d 3 X 3 -1 d 3 -1 d 3 -1 d s 235 162 m 4 -1 d 3 -1 d 3 -1 d 3 -1 d 3 -1 d 3 -1 d 3 -1 d 3 -1 d 3 -1 d 3 -1 d 3 -1 d 3 -1 d 3 -1 d 3 -1 d 3 -1 d 3 -2 d 3 -1 d 4 -1 d 3 -1 d 3 -1 d 3 -2 d 3 -1 d 3 -1 d 3 -2 d 3 -1 d 3 -1 d 3 -2 d 3 -1 d 3
 -2 d 3 -1 d 3 -1 d 3 -2 d 3 -1 d 4 -2 d 3 -1 d 3 -2 d 3 -1 d 3 -2 d 3 -2 d 3 -1 d 3 -2 d 3 -2 d 3 -1 d 3 -2 d 3 -2 d 3 -1 d 3 -2 d 3 -2 d 3 -2 d s 385 96 m 4 -1 d s 0.49 0.6 0.82 c black 0.49 0.6 0.82 c
 gsave  408 306 23 13 C 142.445 296.285 t 0 r /Helvetica-Bold findfont 25.6831 sf 0 0 m (7.5 < E < 8.0 GeV) show NC gr  0.52 0.76 0.64 c black 0.52 0.76 0.64 c
 gsave  408 306 23 13 C 122.502 259.249 t 0 r /Helvetica-Bold findfont 25.6831 sf 0 0 m 
 228 214 200 193 178 171 156 149 134 126 119 105 91 77 69 55 47 39 25 17
(A = \2550.013, p = 2.000) K NC gr  1 0.6 1 c black 1 0.6 1 c
 gsave  408 306 23 13 C 427.334 128.2 t 90 r /Helvetica-Bold findfont 28.5368 sf 0 0 m (/dof=0.9) show NC gr  black 1 0.6 1 c
 gsave  408 306 23 13 C 415.938 116.804 t 90 r /Helvetica-Bold findfont 19.9758 sf 0 0 m (2) show NC gr  black 1 0.6 1 c
 gsave  408 306 23 13 C 427.334 99.7112 t 90 r /Symbol findfont 28.5368 sf 0 0 m (c) show NC gr  black 3 lw 1 1 1 c 408 306 476 13 bf black 1 1 1 c black 307 229 537 59 bl 307 229 537 59 bl 537 59 m 307 X s 537 63 m -4 Y s 677 63 m -4 Y s 817 63 m -4
 Y s 817 63 m -4 Y s
 gsave  408 306 476 13 C 527.045 39.8845 t 0 r /Helvetica findfont 22.8295 sf 0 0 m (0) show NC gr 
 gsave  408 306 476 13 C 669.489 39.8845 t 0 r /Helvetica findfont 22.8295 sf 0 0 m (1) show NC gr 
 gsave  408 306 476 13 C 806.236 39.8845 t 0 r /Helvetica findfont 22.8295 sf 0 0 m (2) show NC gr  537 288 m 307 X s 537 284 m 4 Y s 677 284 m 4 Y s 817 284 m 4 Y s 817 284 m 4 Y s 537 59 m 229 Y s 543 80 m -6 X s 540 88 m -3 X s 540 95 m -3 X s 540
 103 m -3 X s 543 111 m -6 X s 540 119 m -3 X s 540 127 m -3 X s 540 135 m -3 X s 543 143 m -6 X s 540 151 m -3 X s 540 159 m -3 X s 540 166 m -3 X s 543 174 m -6 X s 540 182 m -3 X s 540 190 m -3 X s 540 198 m -3 X s 543 206 m -6 X s 540 214 m -3 X
 s 540 222 m -3 X s 540 229 m -3 X s 543 237 m -6 X s 540 245 m -3 X s 540 253 m -3 X s 540 261 m -3 X s 543 269 m -6 X s 543 80 m -6 X s 540 72 m -3 X s 540 64 m -3 X s 543 269 m -6 X s 540 277 m -3 X s 540 285 m -3 X s
 gsave  408 306 476 13 C 481.462 71.2223 t 0 r /Helvetica findfont 22.8295 sf 0 0 m (\2550.02) show NC gr 
 gsave  408 306 476 13 C 518.498 105.409 t 0 r /Helvetica findfont 22.8295 sf 0 0 m (0) show NC gr 
 gsave  408 306 476 13 C 487.16 136.747 t 0 r /Helvetica findfont 22.8295 sf 0 0 m (0.02) show NC gr 
 gsave  408 306 476 13 C 487.16 168.085 t 0 r /Helvetica findfont 22.8295 sf 0 0 m (0.04) show NC gr 
 gsave  408 306 476 13 C 487.16 199.422 t 0 r /Helvetica findfont 22.8295 sf 0 0 m (0.06) show NC gr 
 gsave  408 306 476 13 C 487.16 230.76 t 0 r /Helvetica findfont 22.8295 sf 0 0 m (0.08) show NC gr 
 gsave  408 306 476 13 C 504.254 262.098 t 0 r /Helvetica findfont 22.8295 sf 0 0 m (0.1) show NC gr  844 59 m 229 Y s 838 80 m 6 X s 841 88 m 3 X s 841 95 m 3 X s 841 103 m 3 X s 838 111 m 6 X s 841 119 m 3 X s 841 127 m 3 X s 841 135 m 3 X s 838
 143 m 6 X s 841 151 m 3 X s 841 159 m 3 X s 841 166 m 3 X s 838 174 m 6 X s 841 182 m 3 X s 841 190 m 3 X s 841 198 m 3 X s 838 206 m 6 X s 841 214 m 3 X s 841 222 m 3 X s 841 229 m 3 X s 838 237 m 6 X s 841 245 m 3 X s 841 253 m 3 X s 841 261 m 3 X
 s 838 269 m 6 X s 838 80 m 6 X s 841 72 m 3 X s 841 64 m 3 X s 838 269 m 6 X s 841 277 m 3 X s 841 285 m 3 X s /w 23 def /w2 {w 2 div} def /w3 {w 3 div} def 572 226 607 118 677 142 817 132 4 { m21} R 572 238 m 31 Y s 567 269 m 11 X s 572 215 m -31 Y
 s 567 184 m 11 X s 607 130 m 29 Y s 602 159 m 11 X s 607 107 m -29 Y s 602 78 m 11 X s 677 153 m 29 Y s 671 182 m 12 X s 677 130 m -29 Y s 671 101 m 12 X s 817 143 m 29 Y s 811 172 m 11 X s 817 121 m -30 Y s 811 91 m 11 X s 9 lw 0.95 0.95 0.95 c
 black 539 111 m 3 1 d 3 X 3 1 d 3 X 3 1 d 6 X 3 1 d 4 X 3 1 d 6 X 3 1 d 3 X 3 1 d 3 X 3 1 d 6 X 3 1 d 3 X 3 1 d 6 X 4 1 d 3 X 3 1 d 3 X 3 1 d 6 X 3 1 d 3 X 3 1 d 6 X 3 1 d 3 X 3 1 d 3 X 3 1 d 7 X 3 1 d 3 X 3 1 d 6 X 3 1 d s 689 132 m 3 X 3 1 d 3 X 3
 1 d 6 X 3 1 d 3 X 4 1 d 3 X 3 1 d 6 X 3 1 d 3 X 3 1 d 6 X 3 1 d 3 X 3 1 d 3 X 3 1 d 7 X 3 1 d 3 X 3 1 d 6 X 3 1 d 3 X 3 1 d 3 X 3 1 d 6 X 3 1 d 3 X 3 1 d 7 X 3 1 d 3 X 3 1 d 3 X 3 1 d 6 X s 839 152 m 3 1 d s 0.49 0.6 0.82 c black 0.49 0.6 0.82 c
 gsave  408 306 476 13 C 595.418 296.285 t 0 r /Helvetica-Bold findfont 25.6831 sf 0 0 m (8.0 < E < 8.5 GeV) show NC gr  0.52 0.76 0.64 c black 0.52 0.76 0.64 c
 gsave  408 306 476 13 C 581.174 259.249 t 0 r /Helvetica-Bold findfont 25.6831 sf 0 0 m 
 220 206 192 185 170 163 148 141 125 118 111 97 83 68 61 47 40 25 18
(A = 0.012, p = 1.000) K NC gr  1 0.6 1 c black 1 0.6 1 c
 gsave  408 306 476 13 C 883.156 128.2 t 90 r /Helvetica-Bold findfont 28.5368 sf 0 0 m (/dof=2.3) show NC gr  black 1 0.6 1 c
 gsave  408 306 476 13 C 871.76 116.804 t 90 r /Helvetica-Bold findfont 19.9758 sf 0 0 m (2) show NC gr  black 1 0.6 1 c
 gsave  408 306 476 13 C 883.156 99.7112 t 90 r /Symbol findfont 28.5368 sf 0 0 m (c) show NC gr  black 3 lw 1 1 1 c 408 306 930 13 bf black 1 1 1 c black 306 229 991 59 bl 306 229 991 59 bl 991 59 m 306 X s 991 63 m -4 Y s 1131 63 m -4 Y s 1270 63 m
 -4 Y s 1270 63 m -4 Y s
 gsave  408 306 930 13 C 980.018 39.8845 t 0 r /Helvetica findfont 22.8295 sf 0 0 m (0) show NC gr 
 gsave  408 306 930 13 C 1122.46 39.8845 t 0 r /Helvetica findfont 22.8295 sf 0 0 m (1) show NC gr 
 gsave  408 306 930 13 C 1259.21 39.8845 t 0 r /Helvetica findfont 22.8295 sf 0 0 m (2) show NC gr  991 288 m 306 X s 991 284 m 4 Y s 1131 284 m 4 Y s 1270 284 m 4 Y s 1270 284 m 4 Y s 991 59 m 229 Y s 997 81 m -6 X s 994 90 m -3 X s 994 98 m -3 X s
 994 106 m -3 X s 997 114 m -6 X s 994 122 m -3 X s 994 130 m -3 X s 994 138 m -3 X s 997 146 m -6 X s 994 154 m -3 X s 994 162 m -3 X s 994 171 m -3 X s 997 179 m -6 X s 994 187 m -3 X s 994 195 m -3 X s 994 203 m -3 X s 997 211 m -6 X s 994 219 m
 -3 X s 994 227 m -3 X s 994 235 m -3 X s 997 243 m -6 X s 994 252 m -3 X s 994 260 m -3 X s 994 268 m -3 X s 997 276 m -6 X s 997 81 m -6 X s 994 73 m -3 X s 994 65 m -3 X s 997 276 m -6 X s 994 284 m -3 X s
 gsave  408 306 930 13 C 937.285 74.0711 t 0 r /Helvetica findfont 22.8295 sf 0 0 m (\2550.08) show NC gr 
 gsave  408 306 930 13 C 937.285 105.409 t 0 r /Helvetica findfont 22.8295 sf 0 0 m (\2550.06) show NC gr 
 gsave  408 306 930 13 C 937.285 139.596 t 0 r /Helvetica findfont 22.8295 sf 0 0 m (\2550.04) show NC gr 
 gsave  408 306 930 13 C 937.285 170.933 t 0 r /Helvetica findfont 22.8295 sf 0 0 m (\2550.02) show NC gr 
 gsave  408 306 930 13 C 974.32 205.12 t 0 r /Helvetica findfont 22.8295 sf 0 0 m (0) show NC gr 
 gsave  408 306 930 13 C 942.983 236.458 t 0 r /Helvetica findfont 22.8295 sf 0 0 m (0.02) show NC gr 
 gsave  408 306 930 13 C 942.983 267.796 t 0 r /Helvetica findfont 22.8295 sf 0 0 m (0.04) show NC gr  1297 59 m 229 Y s 1292 81 m 5 X s 1294 90 m 3 X s 1294 98 m 3 X s 1294 106 m 3 X s 1292 114 m 5 X s 1294 122 m 3 X s 1294 130 m 3 X s 1294 138 m 3
 X s 1292 146 m 5 X s 1294 154 m 3 X s 1294 162 m 3 X s 1294 171 m 3 X s 1292 179 m 5 X s 1294 187 m 3 X s 1294 195 m 3 X s 1294 203 m 3 X s 1292 211 m 5 X s 1294 219 m 3 X s 1294 227 m 3 X s 1294 235 m 3 X s 1292 243 m 5 X s 1294 252 m 3 X s 1294
 260 m 3 X s 1294 268 m 3 X s 1292 276 m 5 X s 1292 81 m 5 X s 1294 73 m 3 X s 1294 65 m 3 X s 1292 276 m 5 X s 1294 284 m 3 X s 1026 119 1061 224 1131 204 1270 178 4 { m21} R 1026 131 m 30 Y s 1020 161 m 12 X s 1026 108 m -30 Y s 1020 78 m 12 X s
 1061 236 m 33 Y s 1055 269 m 12 X s 1061 213 m -34 Y s 1055 179 m 12 X s 1131 215 m 32 Y s 1125 247 m 11 X s 1131 192 m -32 Y s 1125 160 m 11 X s 1270 190 m 31 Y s 1265 221 m 11 X s 1270 167 m -32 Y s 1265 135 m 11 X s 9 lw 0.95 0.95 0.95 c black
 993 211 m 3 -1 d 6 X 3 -1 d 6 X 3 -1 d 3 X 3 -1 d 6 X 3 -1 d 6 X 3 -1 d 4 X 3 -1 d 6 X 3 -1 d 3 X 3 -1 d 6 X 3 -1 d 6 X 3 -1 d 3 X 3 -1 d 6 X 4 -1 d 6 X 3 -1 d 3 X 3 -1 d 6 X 3 -1 d 3 X 3 -1 d 6 X 3 -1 d 6 X 4 -1 d s 1143 192 m 3 X 3 -1 d 6 X 3 -1 d
 6 X 3 -1 d 3 X 3 -1 d 6 X 3 -1 d 3 X 3 -1 d 7 X 3 -1 d 6 X 3 -1 d 3 X 3 -1 d 6 X 3 -1 d 6 X 3 -1 d 3 X 3 -1 d 7 X 3 -1 d 3 X 3 -1 d 6 X 3 -1 d 6 X 3 -1 d 3 X 3 -1 d 6 X 3 -1 d 7 X s 1293 174 m 3 -1 d s 0.49 0.6 0.82 c black 0.49 0.6 0.82 c
 gsave  408 306 930 13 C 1051.24 296.285 t 0 r /Helvetica-Bold findfont 25.6831 sf 0 0 m (8.5 < E < 9.0 GeV) show NC gr  0.52 0.76 0.64 c black 0.52 0.76 0.64 c
 gsave  408 306 930 13 C 1031.3 259.249 t 0 r /Helvetica-Bold findfont 25.6831 sf 0 0 m 
 227 213 199 192 177 170 155 148 132 125 118 104 91 77 70 56 47 40 25 18
(A = \2550.011, p = 1.000) K NC gr  1 0.6 1 c black 1 0.6 1 c
 gsave  408 306 930 13 C 1336.13 128.2 t 90 r /Helvetica-Bold findfont 28.5368 sf 0 0 m (/dof=1.6) show NC gr  black 1 0.6 1 c
 gsave  408 306 930 13 C 1324.73 116.804 t 90 r /Helvetica-Bold findfont 19.9758 sf 0 0 m (2) show NC gr  black 1 0.6 1 c
 gsave  408 306 930 13 C 1336.13 99.7112 t 90 r /Symbol findfont 28.5368 sf 0 0 m (c) show NC gr  black 3 lw 1 1 1 c 408 306 1383 13 bf black 1 1 1 c black 306 229 1445 59 bl 306 229 1445 59 bl 1445 59 m 306 X s 1445 63 m -4 Y s 1584 63 m -4 Y s 1724
 63 m -4 Y s 1724 63 m -4 Y s
 gsave  408 306 1383 13 C 1435.84 39.8845 t 0 r /Helvetica findfont 22.8295 sf 0 0 m (0) show NC gr 
 gsave  408 306 1383 13 C 1578.29 39.8845 t 0 r /Helvetica findfont 22.8295 sf 0 0 m (1) show NC gr 
 gsave  408 306 1383 13 C 1715.03 39.8845 t 0 r /Helvetica findfont 22.8295 sf 0 0 m (2) show NC gr  1445 288 m 306 X s 1445 284 m 4 Y s 1584 284 m 4 Y s 1724 284 m 4 Y s 1724 284 m 4 Y s 1445 59 m 229 Y s 1450 82 m -5 X s 1447 88 m -2 X s 1447 95 m
 -2 X s 1447 101 m -2 X s 1450 108 m -5 X s 1447 115 m -2 X s 1447 121 m -2 X s 1447 128 m -2 X s 1450 135 m -5 X s 1447 141 m -2 X s 1447 148 m -2 X s 1447 155 m -2 X s 1450 161 m -5 X s 1447 168 m -2 X s 1447 174 m -2 X s 1447 181 m -2 X s 1450 188
 m -5 X s 1447 194 m -2 X s 1447 201 m -2 X s 1447 208 m -2 X s 1450 214 m -5 X s 1447 221 m -2 X s 1447 228 m -2 X s 1447 234 m -2 X s 1450 241 m -5 X s 1447 247 m -2 X s 1447 254 m -2 X s 1447 261 m -2 X s 1450 267 m -5 X s 1450 82 m -5 X s 1447 75
 m -2 X s 1447 68 m -2 X s 1447 62 m -2 X s 1450 267 m -5 X s 1447 274 m -2 X s 1447 281 m -2 X s 1447 287 m -2 X s
 gsave  408 306 1383 13 C 1390.26 74.0711 t 0 r /Helvetica findfont 22.8295 sf 0 0 m (\2550.06) show NC gr 
 gsave  408 306 1383 13 C 1390.26 99.7112 t 0 r /Helvetica findfont 22.8295 sf 0 0 m (\2550.04) show NC gr 
 gsave  408 306 1383 13 C 1390.26 128.2 t 0 r /Helvetica findfont 22.8295 sf 0 0 m (\2550.02) show NC gr 
 gsave  408 306 1383 13 C 1427.29 153.84 t 0 r /Helvetica findfont 22.8295 sf 0 0 m (0) show NC gr 
 gsave  408 306 1383 13 C 1395.96 179.48 t 0 r /Helvetica findfont 22.8295 sf 0 0 m (0.02) show NC gr 
 gsave  408 306 1383 13 C 1395.96 207.969 t 0 r /Helvetica findfont 22.8295 sf 0 0 m (0.04) show NC gr 
 gsave  408 306 1383 13 C 1395.96 233.609 t 0 r /Helvetica findfont 22.8295 sf 0 0 m (0.06) show NC gr 
 gsave  408 306 1383 13 C 1395.96 259.249 t 0 r /Helvetica findfont 22.8295 sf 0 0 m (0.08) show NC gr  1751 59 m 229 Y s 1745 82 m 6 X s 1748 88 m 3 X s 1748 95 m 3 X s 1748 101 m 3 X s 1745 108 m 6 X s 1748 115 m 3 X s 1748 121 m 3 X s 1748 128 m 3
 X s 1745 135 m 6 X s 1748 141 m 3 X s 1748 148 m 3 X s 1748 155 m 3 X s 1745 161 m 6 X s 1748 168 m 3 X s 1748 174 m 3 X s 1748 181 m 3 X s 1745 188 m 6 X s 1748 194 m 3 X s 1748 201 m 3 X s 1748 208 m 3 X s 1745 214 m 6 X s 1748 221 m 3 X s 1748
 228 m 3 X s 1748 234 m 3 X s 1745 241 m 6 X s 1748 247 m 3 X s 1748 254 m 3 X s 1748 261 m 3 X s 1745 267 m 6 X s 1745 82 m 6 X s 1748 75 m 3 X s 1748 68 m 3 X s 1748 62 m 3 X s 1745 267 m 6 X s 1748 274 m 3 X s 1748 281 m 3 X s 1748 287 m 3 X s
 1479 115 1514 199 1584 128 1724 229 4 { m21} R 1479 127 m 25 Y s 1474 152 m 11 X s 1479 104 m -26 Y s 1474 78 m 11 X s 1514 210 m 29 Y s 1509 239 m 11 X s 1514 188 m -28 Y s 1509 160 m 11 X s 1584 139 m 26 Y s 1578 165 m 12 X s 1584 116 m -26 Y s
 1578 90 m 12 X s 1724 240 m 29 Y s 1718 269 m 11 X s 1724 217 m -28 Y s 1718 189 m 11 X s 1 0 0 c 9 lw 0.95 0.95 0.95 c black 1 0 0 c 1446 161 m 18 X 3 1 d 19 X 3 1 d 12 X 3 1 d 6 X 3 1 d 7 X 3 1 d 6 X 3 1 d 6 X 3 1 d 3 X 3 1 d 3 X 3 1 d 3 X 3 1 d 3
 X 3 1 d 4 X 3 1 d 3 X 3 1 d 3 X 3 1 d 3 1 d 3 X 3 1 d 3 X s 1596 177 m 3 1 d 3 1 d 3 1 d 3 X 3 1 d 3 1 d 4 X 3 1 d 3 1 d 3 1 d 3 1 d 3 X 3 1 d 3 1 d 3 1 d 3 1 d 3 1 d 3 X 3 1 d 3 1 d 3 1 d 3 1 d 3 1 d 4 1 d 3 1 d 3 1 d 3 1 d 3 1 d 3 1 d 3 1 d 3 1 d
 3 1 d 3 1 d 3 2 d 3 1 d 3 1 d 3 1 d 3 1 d 3 1 d 4 1 d 3 2 d 3 1 d 3 1 d 3 1 d 3 2 d 3 1 d 3 1 d 3 1 d 3 2 d s 1746 226 m 3 1 d s 0.49 0.6 0.82 c black 0.49 0.6 0.82 c
 gsave  408 306 1383 13 C 1504.21 296.285 t 0 r /Helvetica-Bold findfont 25.6831 sf 0 0 m (9.0 < E < 9.5 GeV) show NC gr  0.52 0.76 0.64 c black 0.52 0.76 0.64 c
 gsave  408 306 1383 13 C 1489.97 259.249 t 0 r /Helvetica-Bold findfont 25.6831 sf 0 0 m 
 220 206 192 185 170 163 148 141 126 118 111 97 83 69 61 47 40 25 18
(A = 0.010, p = 2.000) K NC gr  1 0.6 1 c black 1 0.6 1 c
 gsave  408 306 1383 13 C 1789.1 128.2 t 90 r /Helvetica-Bold findfont 28.5368 sf 0 0 m (/dof=1.3) show NC gr  black 1 0.6 1 c
 gsave  408 306 1383 13 C 1777.71 116.804 t 90 r /Helvetica-Bold findfont 19.9758 sf 0 0 m (2) show NC gr  black 1 0.6 1 c
 gsave  408 306 1383 13 C 1789.1 99.7112 t 90 r /Symbol findfont 28.5368 sf 0 0 m (c) show NC gr  black 3 lw 1 1 1 c 408 306 1837 13 bf black 1 1 1 c black 306 229 1898 59 bl 306 229 1898 59 bl 1898 59 m 306 X s 1898 63 m -4 Y s 2038 63 m -4 Y s 2177
 63 m -4 Y s 2177 63 m -4 Y s
 gsave  408 306 1837 13 C 1888.81 39.8845 t 0 r /Helvetica findfont 22.8295 sf 0 0 m (0) show NC gr 
 gsave  408 306 1837 13 C 2031.26 39.8845 t 0 r /Helvetica findfont 22.8295 sf 0 0 m (1) show NC gr 
 gsave  408 306 1837 13 C 2168.01 39.8845 t 0 r /Helvetica findfont 22.8295 sf 0 0 m (2) show NC gr  1898 288 m 306 X s 1898 284 m 4 Y s 2038 284 m 4 Y s 2177 284 m 4 Y s 2177 284 m 4 Y s 1898 59 m 229 Y s 1904 70 m -6 X s 1901 75 m -3 X s 1901 80 m
 -3 X s 1901 85 m -3 X s 1901 90 m -3 X s 1904 96 m -6 X s 1901 101 m -3 X s 1901 106 m -3 X s 1901 111 m -3 X s 1901 116 m -3 X s 1904 121 m -6 X s 1901 126 m -3 X s 1901 131 m -3 X s 1901 136 m -3 X s 1901 141 m -3 X s 1904 146 m -6 X s 1901 151 m
 -3 X s 1901 156 m -3 X s 1901 161 m -3 X s 1901 166 m -3 X s 1904 171 m -6 X s 1901 176 m -3 X s 1901 181 m -3 X s 1901 186 m -3 X s 1901 191 m -3 X s 1904 196 m -6 X s 1901 201 m -3 X s 1901 206 m -3 X s 1901 211 m -3 X s 1901 216 m -3 X s 1904 221
 m -6 X s 1901 226 m -3 X s 1901 231 m -3 X s 1901 236 m -3 X s 1901 241 m -3 X s 1904 246 m -6 X s 1901 251 m -3 X s 1901 256 m -3 X s 1901 261 m -3 X s 1901 266 m -3 X s 1904 271 m -6 X s 1904 70 m -6 X s 1901 65 m -3 X s 1901 60 m -3 X s 1904 271
 m -6 X s 1901 276 m -3 X s 1901 281 m -3 X s 1901 286 m -3 X s
 gsave  408 306 1837 13 C 1843.23 62.6756 t 0 r /Helvetica findfont 22.8295 sf 0 0 m (\2550.06) show NC gr 
 gsave  408 306 1837 13 C 1843.23 88.3156 t 0 r /Helvetica findfont 22.8295 sf 0 0 m (\2550.05) show NC gr 
 gsave  408 306 1837 13 C 1843.23 113.956 t 0 r /Helvetica findfont 22.8295 sf 0 0 m (\2550.04) show NC gr 
 gsave  408 306 1837 13 C 1843.23 139.596 t 0 r /Helvetica findfont 22.8295 sf 0 0 m (\2550.03) show NC gr 
 gsave  408 306 1837 13 C 1843.23 162.387 t 0 r /Helvetica findfont 22.8295 sf 0 0 m (\2550.02) show NC gr 
 gsave  408 306 1837 13 C 1846.08 188.027 t 0 r /Helvetica findfont 22.8295 sf 0 0 m (\2550.01) show NC gr 
 gsave  408 306 1837 13 C 1880.27 213.667 t 0 r /Helvetica findfont 22.8295 sf 0 0 m (0) show NC gr 
 gsave  408 306 1837 13 C 1851.78 239.307 t 0 r /Helvetica findfont 22.8295 sf 0 0 m (0.01) show NC gr 
 gsave  408 306 1837 13 C 1848.93 264.947 t 0 r /Helvetica findfont 22.8295 sf 0 0 m (0.02) show NC gr  2204 59 m 229 Y s 2199 70 m 5 X s 2201 75 m 3 X s 2201 80 m 3 X s 2201 85 m 3 X s 2201 90 m 3 X s 2199 96 m 5 X s 2201 101 m 3 X s 2201 106 m 3 X
 s 2201 111 m 3 X s 2201 116 m 3 X s 2199 121 m 5 X s 2201 126 m 3 X s 2201 131 m 3 X s 2201 136 m 3 X s 2201 141 m 3 X s 2199 146 m 5 X s 2201 151 m 3 X s 2201 156 m 3 X s 2201 161 m 3 X s 2201 166 m 3 X s 2199 171 m 5 X s 2201 176 m 3 X s 2201 181
 m 3 X s 2201 186 m 3 X s 2201 191 m 3 X s 2199 196 m 5 X s 2201 201 m 3 X s 2201 206 m 3 X s 2201 211 m 3 X s 2201 216 m 3 X s 2199 221 m 5 X s 2201 226 m 3 X s 2201 231 m 3 X s 2201 236 m 3 X s 2201 241 m 3 X s 2199 246 m 5 X s 2201 251 m 3 X s
 2201 256 m 3 X s 2201 261 m 3 X s 2201 266 m 3 X s 2199 271 m 5 X s 2199 70 m 5 X s 2201 65 m 3 X s 2201 60 m 3 X s 2199 271 m 5 X s 2201 276 m 3 X s 2201 281 m 3 X s 2201 286 m 3 X s 1933 181 1968 185 2038 152 2177 193 4 { m21} R 1933 192 m 65 Y s
 1927 257 m 12 X s 1933 170 m -65 Y s 1927 105 m 12 X s 1968 197 m 64 Y s 1962 261 m 12 X s 1968 174 m -64 Y s 1962 110 m 12 X s 2038 163 m 63 Y s 2032 226 m 11 X s 2038 141 m -63 Y s 2032 78 m 11 X s 2177 204 m 65 Y s 2172 269 m 11 X s 2177 181 m
 -64 Y s 2172 117 m 11 X s 9 lw 0.95 0.95 0.95 c black 1900 220 m 3 X 3 -1 d 3 -1 d 3 X 3 -1 d 3 X 3 -1 d 3 -1 d 3 X 3 -1 d 3 -1 d 3 X 3 -1 d 3 -1 d 4 X 3 -1 d 3 X 3 -1 d 3 -1 d 3 X 3 -1 d 3 -1 d 3 X 3 -1 d 3 -1 d 3 X 3 -1 d 3 -1 d 3 X 3 -1 d 4 X 3
 -1 d 3 -1 d 3 X 3 -1 d 3 -1 d 3 X 3 -1 d 3 -1 d 3 X 3 -1 d 3 X 3 -1 d 3 -1 d 3 X 3 -1 d 3 -1 d 4 X 3 -1 d s 2050 189 m 3 -1 d 3 X 3 -1 d 3 X 3 -1 d 3 -1 d 3 X 3 -1 d 3 -1 d 3 X 3 -1 d 3 -1 d 3 X 3 -1 d 4 -1 d 3 X 3 -1 d 3 X 3 -1 d 3 -1 d 3 X 3 -1 d
 3 -1 d 3 X 3 -1 d 3 -1 d 3 X 3 -1 d 3 X 3 -1 d 4 -1 d 3 X 3 -1 d 3 -1 d 3 X 3 -1 d 3 -1 d 3 X 3 -1 d 3 X 3 -1 d 3 -1 d 3 X 3 -1 d 3 -1 d 3 X 4 -1 d 3 -1 d 3 X s 2200 158 m 3 -1 d s 0.49 0.6 0.82 c black 0.49 0.6 0.82 c
 gsave  408 306 1837 13 C 1948.64 296.285 t 0 r /Helvetica-Bold findfont 25.6831 sf 0 0 m (9.5 < E < 10.0 GeV) show NC gr  0.52 0.76 0.64 c black 0.52 0.76 0.64 c
 gsave  408 306 1837 13 C 1937.25 259.249 t 0 r /Helvetica-Bold findfont 25.6831 sf 0 0 m 
 228 214 200 193 178 171 156 149 133 126 119 105 91 77 69 55 47 39 25 17
(A = \2550.012, p = 1.000) K NC gr  1 0.6 1 c black 1 0.6 1 c
 gsave  408 306 1837 13 C 2242.08 128.2 t 90 r /Helvetica-Bold findfont 28.5368 sf 0 0 m (/dof=0.2) show NC gr  black 1 0.6 1 c
 gsave  408 306 1837 13 C 2230.68 116.804 t 90 r /Helvetica-Bold findfont 19.9758 sf 0 0 m (2) show NC gr  black 1 0.6 1 c
 gsave  408 306 1837 13 C 2242.08 99.7112 t 90 r /Symbol findfont 28.5368 sf 0 0 m (c) show NC gr 
 gr  gr showpage
end
%%EOF
