%!PS-Adobe-2.0 EPSF-2.0
%%BoundingBox:  0 0 567 332
%%Title: Horn2XTilt_far_summary.eps: Summary
%%Creator: ROOT Version 5.30/06
%%CreationDate: Sun Feb  2 09:35:31 2014
%%EndComments
%%BeginProlog
80 dict begin
/s {stroke} def /l {lineto} def /m {moveto} def /t {translate} def
/r {rotate} def /rl {roll}  def /R {repeat} def
/d {rlineto} def /rm {rmoveto} def /gr {grestore} def /f {eofill} def
/c {setrgbcolor} def /black {0 setgray} def /sd {setdash} def
/cl {closepath} def /sf {scalefont setfont} def /lw {setlinewidth} def
/box {m dup 0 exch d exch 0 d 0 exch neg d cl} def
/NC{systemdict begin initclip end}def/C{NC box clip newpath}def
/bl {box s} def /bf {box f} def /Y { 0 exch d} def /X { 0 d} def 
/K {{pop pop 0 moveto} exch kshow} bind def
/ita {/ang 15 def gsave [1 0 ang dup sin exch cos div 1 0 0] concat} def 
/mp {newpath /y exch def /x exch def} def
/side {[w .77 mul w .23 mul] .385 w mul sd w 0 l currentpoint t -144 r} def
/mr {mp x y w2 0 360 arc} def /m24 {mr s} def /m20 {mr f} def
/mb {mp x y w2 add m w2 neg 0 d 0 w neg d w 0 d 0 w d cl} def
/mt {mp x y w2 add m w2 neg w neg d w 0 d cl} def
/m21 {mb f} def /m25 {mb s} def /m22 {mt f} def /m26{mt s} def
/m23 {mp x y w2 sub m w2 w d w neg 0 d cl f} def
/m27 {mp x y w2 add m w3 neg w2 neg d w3 w2 neg d w3 w2 d cl s} def
/m28 {mp x w2 sub y w2 sub w3 add m w3 0 d  0 w3 neg d w3 0 d 0 w3 d w3 0 d  0 w3 d w3 neg 0 d 0 w3 d w3 neg 0 d 0 w3 neg d w3 neg 0 d cl s } def
/m29 {mp gsave x w2 sub y w2 add w3 sub m currentpoint t 4 {side} repeat cl fill gr} def
/m30 {mp gsave x w2 sub y w2 add w3 sub m currentpoint t 4 {side} repeat cl s gr} def
/m31 {mp x y w2 sub m 0 w d x w2 sub y m w 0 d x w2 sub y w2 add m w w neg d x w2 sub y w2 sub m w w d s} def
/m32 {mp x y w2 sub m w2 w d w neg 0 d cl s} def
/m33 {mp x y w2 add m w3 neg w2 neg d w3 w2 neg d w3 w2 d cl f} def
/m34 {mp x w2 sub y w2 sub w3 add m w3 0 d  0 w3 neg d w3 0 d 0 w3 d w3 0 d  0 w3 d w3 neg 0 d 0 w3 d w3 neg 0 d 0 w3 neg d w3 neg 0 d cl f } def
/m2 {mp x y w2 sub m 0 w d x w2 sub y m w 0 d s} def
/m5 {mp x w2 sub y w2 sub m w w d x w2 sub y w2 add m w w neg d s} def
/reEncode {exch findfont dup length dict begin {1 index /FID eq  {pop pop} {def} ifelse } forall /Encoding exch def currentdict end dup /FontName get exch definefont pop } def [/Times-Bold /Times-Italic /Times-BoldItalic /Helvetica /Helvetica-Oblique
 /Helvetica-Bold /Helvetica-BoldOblique /Courier /Courier-Oblique /Courier-Bold /Courier-BoldOblique /Times-Roman /AvantGarde-Book /AvantGarde-BookOblique /AvantGarde-Demi /AvantGarde-DemiOblique /Bookman-Demi /Bookman-DemiItalic /Bookman-Light
 /Bookman-LightItalic /Helvetica-Narrow /Helvetica-Narrow-Bold /Helvetica-Narrow-BoldOblique /Helvetica-Narrow-Oblique /NewCenturySchlbk-Roman /NewCenturySchlbk-Bold /NewCenturySchlbk-BoldItalic /NewCenturySchlbk-Italic /Palatino-Bold
 /Palatino-BoldItalic /Palatino-Italic /Palatino-Roman ] {ISOLatin1Encoding reEncode } forall%%EndProlog
%%BeginSetup
%%EndSetup
newpath  gsave  .25 .25 scale  gsave  0 0 t black[  ] 0 sd 3 lw 1 1 1 c 2268 1328 0 0 bf black 1 1 1 c black 1588 996 340 199 bl 1588 996 340 199 bl 1 1 1 c 1 0 0 c /w 23 def /w2 {w 2 div} def /w3 {w 3 div} def 380 316 m21 459 306 m21 539 305 m21 618
 310 m21 697 310 m21 777 296 m21 856 311 m21 935 305 m21 1015 307 m21 black 1094 309 m s 1094 332 m s 1088 309 m 12 X s 1088 332 m 12 X s 1 0 0 c 1094 320 m21 black 1174 308 m 4 Y s 1174 335 m 3 Y s 1168 308 m 11 X s 1168 338 m 11 X s 1 0 0 c 1174
 323 m21 black 1253 313 m 7 Y s 1253 343 m 7 Y s 1247 313 m 12 X s 1247 350 m 12 X s 1 0 0 c 1253 332 m21 black 1332 298 m 12 Y s 1332 332 m 12 Y s 1327 298 m 11 X s 1327 344 m 11 X s 1 0 0 c 1332 321 m21 black 1412 292 m 15 Y s 1412 330 m 15 Y s
 1406 292 m 11 X s 1406 345 m 11 X s 1 0 0 c 1412 319 m21 black 1491 362 m 20 Y s 1491 405 m 19 Y s 1485 362 m 12 X s 1485 424 m 12 X s 1 0 0 c 1491 393 m21 black 1570 298 m 22 Y s 1570 343 m 22 Y s 1565 298 m 11 X s 1565 365 m 11 X s 1 0 0 c 1570
 332 m21 black 1650 302 m 24 Y s 1650 349 m 25 Y s 1644 302 m 11 X s 1644 374 m 11 X s 1 0 0 c 1650 338 m21 black 1729 285 m 27 Y s 1729 335 m 27 Y s 1723 285 m 12 X s 1723 362 m 12 X s 1 0 0 c 1729 323 m21 black 1809 205 m 29 Y s 1809 257 m 29 Y s
 1803 205 m 11 X s 1803 286 m 11 X s 1 0 0 c 1809 246 m21 black 1888 341 m 33 Y s 1888 397 m 34 Y s 1882 341 m 12 X s 1882 431 m 12 X s 1 0 0 c 1888 386 m21 black 340 199 m 1588 X s
 gsave  2268 1328 0 0 C 954.378 68.3734 t 0 r /Helvetica findfont 62.6756 sf 0 0 m ( Energy \(GeV\) ) show NC gr 
 gsave  2268 1328 0 0 C 928.738 51.28 t 0 r /Symbol findfont 42.7334 sf 0 0 m (m) show NC gr 
 gsave  2268 1328 0 0 C 894.552 68.3734 t 0 r /Symbol findfont 62.6756 sf 0 0 m (n) show NC gr  340 216 m -17 Y s 372 208 m -9 Y s 404 208 m -9 Y s 435 208 m -9 Y s 467 208 m -9 Y s 499 216 m -17 Y s 531 208 m -9 Y s 562 208 m -9 Y s 594 208 m -9 Y s
 626 208 m -9 Y s 658 216 m -17 Y s 689 208 m -9 Y s 721 208 m -9 Y s 753 208 m -9 Y s 785 208 m -9 Y s 816 216 m -17 Y s 848 208 m -9 Y s 880 208 m -9 Y s 912 208 m -9 Y s 943 208 m -9 Y s 975 216 m -17 Y s 1007 208 m -9 Y s 1039 208 m -9 Y s 1070
 208 m -9 Y s 1102 208 m -9 Y s 1134 216 m -17 Y s 1166 208 m -9 Y s 1197 208 m -9 Y s 1229 208 m -9 Y s 1261 208 m -9 Y s 1293 216 m -17 Y s 1324 208 m -9 Y s 1356 208 m -9 Y s 1388 208 m -9 Y s 1420 208 m -9 Y s 1451 216 m -17 Y s 1483 208 m -9 Y s
 1515 208 m -9 Y s 1547 208 m -9 Y s 1578 208 m -9 Y s 1610 216 m -17 Y s 1642 208 m -9 Y s 1674 208 m -9 Y s 1705 208 m -9 Y s 1737 208 m -9 Y s 1769 216 m -17 Y s 1801 208 m -9 Y s 1832 208 m -9 Y s 1864 208 m -9 Y s 1896 208 m -9 Y s 1928 216 m
 -17 Y s
 gsave  2268 1328 0 0 C 319.076 136.747 t 0 r /Helvetica findfont 68.3734 sf 0 0 m (0) show NC gr 
 gsave  2268 1328 0 0 C 484.311 136.747 t 0 r /Helvetica findfont 68.3734 sf 0 0 m (1) show NC gr 
 gsave  2268 1328 0 0 C 635.302 136.747 t 0 r /Helvetica findfont 68.3734 sf 0 0 m (2) show NC gr 
 gsave  2268 1328 0 0 C 794.84 136.747 t 0 r /Helvetica findfont 68.3734 sf 0 0 m (3) show NC gr 
 gsave  2268 1328 0 0 C 954.378 136.747 t 0 r /Helvetica findfont 68.3734 sf 0 0 m (4) show NC gr 
 gsave  2268 1328 0 0 C 1113.92 136.747 t 0 r /Helvetica findfont 68.3734 sf 0 0 m (5) show NC gr 
 gsave  2268 1328 0 0 C 1270.6 136.747 t 0 r /Helvetica findfont 68.3734 sf 0 0 m (6) show NC gr 
 gsave  2268 1328 0 0 C 1430.14 136.747 t 0 r /Helvetica findfont 68.3734 sf 0 0 m (7) show NC gr 
 gsave  2268 1328 0 0 C 1589.68 136.747 t 0 r /Helvetica findfont 68.3734 sf 0 0 m (8) show NC gr 
 gsave  2268 1328 0 0 C 1746.37 136.747 t 0 r /Helvetica findfont 68.3734 sf 0 0 m (9) show NC gr 
 gsave  2268 1328 0 0 C 1888.81 136.747 t 0 r /Helvetica findfont 68.3734 sf 0 0 m (10) show NC gr  340 1195 m 1588 X s 340 1178 m 17 Y s 372 1186 m 9 Y s 404 1186 m 9 Y s 435 1186 m 9 Y s 467 1186 m 9 Y s 499 1178 m 17 Y s 531 1186 m 9 Y s 562 1186
 m 9 Y s 594 1186 m 9 Y s 626 1186 m 9 Y s 658 1178 m 17 Y s 689 1186 m 9 Y s 721 1186 m 9 Y s 753 1186 m 9 Y s 785 1186 m 9 Y s 816 1178 m 17 Y s 848 1186 m 9 Y s 880 1186 m 9 Y s 912 1186 m 9 Y s 943 1186 m 9 Y s 975 1178 m 17 Y s 1007 1186 m 9 Y s
 1039 1186 m 9 Y s 1070 1186 m 9 Y s 1102 1186 m 9 Y s 1134 1178 m 17 Y s 1166 1186 m 9 Y s 1197 1186 m 9 Y s 1229 1186 m 9 Y s 1261 1186 m 9 Y s 1293 1178 m 17 Y s 1324 1186 m 9 Y s 1356 1186 m 9 Y s 1388 1186 m 9 Y s 1420 1186 m 9 Y s 1451 1178 m
 17 Y s 1483 1186 m 9 Y s 1515 1186 m 9 Y s 1547 1186 m 9 Y s 1578 1186 m 9 Y s 1610 1178 m 17 Y s 1642 1186 m 9 Y s 1674 1186 m 9 Y s 1705 1186 m 9 Y s 1737 1186 m 9 Y s 1769 1178 m 17 Y s 1801 1186 m 9 Y s 1832 1186 m 9 Y s 1864 1186 m 9 Y s 1896
 1186 m 9 Y s 1928 1178 m 17 Y s 340 199 m 996 Y s
 gsave  2268 1328 0 0 C 170.933 427.334 t 90 r /Helvetica findfont 62.6756 sf 0 0 m (Far Flux to Nominal) show NC gr  371 199 m -31 X s 355 221 m -15 X s 355 243 m -15 X s 355 266 m -15 X s 355 288 m -15 X s 371 310 m -31 X s 355 332 m -15 X s 355
 354 m -15 X s 355 376 m -15 X s 355 398 m -15 X s 371 420 m -31 X s 355 443 m -15 X s 355 465 m -15 X s 355 487 m -15 X s 355 509 m -15 X s 371 531 m -31 X s 355 553 m -15 X s 355 575 m -15 X s 355 597 m -15 X s 355 620 m -15 X s 371 642 m -31 X s
 355 664 m -15 X s 355 686 m -15 X s 355 708 m -15 X s 355 730 m -15 X s 371 752 m -31 X s 355 774 m -15 X s 355 797 m -15 X s 355 819 m -15 X s 355 841 m -15 X s 371 863 m -31 X s 355 885 m -15 X s 355 907 m -15 X s 355 929 m -15 X s 355 951 m -15 X
 s 371 974 m -31 X s 355 996 m -15 X s 355 1018 m -15 X s 355 1040 m -15 X s 355 1062 m -15 X s 371 1084 m -31 X s 355 1106 m -15 X s 355 1128 m -15 X s 355 1151 m -15 X s 355 1173 m -15 X s 371 1195 m -31 X s 371 199 m -31 X s 371 1195 m -31 X s
 gsave  2268 1328 0 0 C 196.573 173.782 t 0 r /Helvetica findfont 68.3734 sf 0 0 m (0.95) show NC gr 
 gsave  2268 1328 0 0 C 301.982 282.04 t 0 r /Helvetica findfont 68.3734 sf 0 0 m (1) show NC gr 
 gsave  2268 1328 0 0 C 196.573 395.996 t 0 r /Helvetica findfont 68.3734 sf 0 0 m (1.05) show NC gr 
 gsave  2268 1328 0 0 C 245.005 504.254 t 0 r /Helvetica findfont 68.3734 sf 0 0 m (1.1) show NC gr 
 gsave  2268 1328 0 0 C 196.573 618.209 t 0 r /Helvetica findfont 68.3734 sf 0 0 m (1.15) show NC gr 
 gsave  2268 1328 0 0 C 233.609 726.467 t 0 r /Helvetica findfont 68.3734 sf 0 0 m (1.2) show NC gr 
 gsave  2268 1328 0 0 C 196.573 837.574 t 0 r /Helvetica findfont 68.3734 sf 0 0 m (1.25) show NC gr 
 gsave  2268 1328 0 0 C 233.609 948.68 t 0 r /Helvetica findfont 68.3734 sf 0 0 m (1.3) show NC gr 
 gsave  2268 1328 0 0 C 196.573 1059.79 t 0 r /Helvetica findfont 68.3734 sf 0 0 m (1.35) show NC gr 
 gsave  2268 1328 0 0 C 233.609 1168.04 t 0 r /Helvetica findfont 68.3734 sf 0 0 m (1.4) show NC gr  1928 199 m 996 Y s 1897 199 m 31 X s 1912 221 m 16 X s 1912 243 m 16 X s 1912 266 m 16 X s 1912 288 m 16 X s 1897 310 m 31 X s 1912 332 m 16 X s 1912
 354 m 16 X s 1912 376 m 16 X s 1912 398 m 16 X s 1897 420 m 31 X s 1912 443 m 16 X s 1912 465 m 16 X s 1912 487 m 16 X s 1912 509 m 16 X s 1897 531 m 31 X s 1912 553 m 16 X s 1912 575 m 16 X s 1912 597 m 16 X s 1912 620 m 16 X s 1897 642 m 31 X s
 1912 664 m 16 X s 1912 686 m 16 X s 1912 708 m 16 X s 1912 730 m 16 X s 1897 752 m 31 X s 1912 774 m 16 X s 1912 797 m 16 X s 1912 819 m 16 X s 1912 841 m 16 X s 1897 863 m 31 X s 1912 885 m 16 X s 1912 907 m 16 X s 1912 929 m 16 X s 1912 951 m 16 X
 s 1897 974 m 31 X s 1912 996 m 16 X s 1912 1018 m 16 X s 1912 1040 m 16 X s 1912 1062 m 16 X s 1897 1084 m 31 X s 1912 1106 m 16 X s 1912 1128 m 16 X s 1912 1151 m 16 X s 1912 1173 m 16 X s 1897 1195 m 31 X s 1897 199 m 31 X s 1897 1195 m 31 X s 1 0
 0 c 6 lw 1 1 1 c 1 0 0 c 380 310 m 177 X 61 -1 d 123 X 20 1 d 207 X 25 -1 d 269 X 4 1 d 5 X 6 1 d 8 X 13 1 d 6 1 d 5 X 4 1 d 35 X 4 -1 d 10 X 8 -1 d 16 -2 d 5 X 5 -1 d 21 X 5 -1 d 11 X 8 1 d 129 X 6 1 d 23 X 17 1 d 8 X 7 1 d 34 X 5 -1 d 7 X 16 -1 d
 16 X 6 -1 d 55 X 6 1 d 19 X 6 1 d 8 X 5 1 d 6 X 5 1 d 5 X 5 1 d 6 1 d 5 X 5 1 d 5 1 d 5 1 d 5 1 d 4 1 d 5 1 d 4 1 d 4 X 4 1 d 1 1 d s 3 lw /w 2 def /w2 {w 2 div} def /w3 {w 3 div} def 380 310 459 310 539 310 618 309 697 309 777 310 856 310 935 310
 1015 309 1094 309 1174 309 1253 309 1332 314 1412 309 1491 309 1570 309 1650 312 1729 309 1809 311 1888 324 20 { m20} R 6 lw black 1 0 0 c
 gsave  2268 1328 0 0 C 2036.96 364.658 t 0 r /Helvetica-Bold findfont 48.4311 sf 0 0 m (/dof=1.3) show NC gr  black 1 0 0 c
 gsave  2268 1328 0 0 C 2017.01 381.751 t 0 r /Helvetica-Bold findfont 34.1867 sf 0 0 m (2) show NC gr  black 1 0 0 c
 gsave  2268 1328 0 0 C 1991.37 364.658 t 0 r /Symbol findfont 48.4311 sf 0 0 m (c) show NC gr  black 3 lw 340 310 m 1588 X s
 gsave  2268 1328 0 0 C 424.485 1213.63 t 0 r /Helvetica-Bold findfont 42.7334 sf 0 0 m (0.5 mm) show NC gr  1 0 0 c /w 23 def /w2 {w 2 div} def /w3 {w 3 div} def 383 1228 m21 black 1 1 1 c 0 0 1 c 380 530 m21 459 538 m21 539 538 m21 618 535 m21 697
 522 m21 777 532 m21 856 540 m21 935 536 m21 1015 529 m21 black 1094 522 m 1 Y s 1094 546 m 1 Y s 1088 522 m 12 X s 1088 547 m 12 X s 0 0 1 c 1094 535 m21 black 1174 508 m 5 Y s 1174 535 m 5 Y s 1168 508 m 11 X s 1168 540 m 11 X s 0 0 1 c 1174 524
 m21 black 1253 502 m 9 Y s 1253 534 m 9 Y s 1247 502 m 12 X s 1247 543 m 12 X s 0 0 1 c 1253 523 m21 black 1332 527 m 13 Y s 1332 563 m 14 Y s 1327 527 m 11 X s 1327 577 m 11 X s 0 0 1 c 1332 552 m21 black 1412 493 m 18 Y s 1412 534 m 18 Y s 1406
 493 m 11 X s 1406 552 m 11 X s 0 0 1 c 1412 523 m21 black 1491 523 m 22 Y s 1491 567 m 22 Y s 1485 523 m 12 X s 1485 589 m 12 X s 0 0 1 c 1491 556 m21 black 1570 527 m 26 Y s 1570 575 m 25 Y s 1565 527 m 11 X s 1565 600 m 11 X s 0 0 1 c 1570 564 m21
 black 1650 511 m 28 Y s 1650 562 m 28 Y s 1644 511 m 11 X s 1644 590 m 11 X s 0 0 1 c 1650 551 m21 black 1729 534 m 31 Y s 1729 588 m 32 Y s 1723 534 m 12 X s 1723 620 m 12 X s 0 0 1 c 1729 577 m21 black 1809 517 m 35 Y s 1809 574 m 35 Y s 1803 517
 m 11 X s 1803 609 m 11 X s 0 0 1 c 1809 563 m21 black 1888 489 m 37 Y s 1888 549 m 38 Y s 1882 489 m 12 X s 1882 587 m 12 X s 0 0 1 c 1888 538 m21 6 lw 1 1 1 c 0 0 1 c 380 532 m 21 X 22 -1 d 127 X 68 -2 d 91 X 12 1 d 23 1 d 33 X 13 1 d 91 X 22 1 d
 48 X 10 -1 d 16 -1 d 18 -1 d 10 X 8 -1 d 29 X 15 -1 d 47 X 12 1 d 36 X 12 1 d 16 X 8 -1 d 10 X 22 -1 d 33 X 4 1 d 5 X 4 1 d 5 X 5 1 d 7 2 d 14 3 d 6 1 d 4 1 d 5 1 d 4 1 d 27 X 4 -1 d 3 X 5 -1 d 4 -1 d 6 -1 d 14 -4 d 7 -2 d 6 -1 d 4 -1 d 4 -1 d 4 X 3
 -1 d 37 X 10 1 d 17 1 d 8 1 d 82 X 7 1 d 14 X 7 1 d 9 1 d 18 2 d 7 1 d 7 X 6 1 d 18 X 5 -1 d 11 X 6 -1 d 9 -1 d 16 -3 d 6 X 5 -1 d 6 X 4 -1 d 29 X 7 1 d 7 X 6 1 d 6 X 8 1 d 6 1 d 6 1 d 6 1 d 6 1 d 5 1 d 6 1 d 6 1 d 6 2 d 5 1 d 6 2 d 5 2 d 6 2 d 6 2
 d 4 1 d 5 3 d 5 2 d 5 2 d 4 2 d 5 3 d s 3 lw /w 2 def /w2 {w 2 div} def /w3 {w 3 div} def 380 532 459 531 539 531 618 529 697 529 777 531 856 532 935 533 1015 529 1094 528 1174 530 1253 528 1332 540 1412 526 1491 529 1570 530 1650 536 1729 528 1809
 535 1888 562 20 { m20} R 6 lw black 0 0 1 c
 gsave  2268 1328 0 0 C 2036.96 615.36 t 0 r /Helvetica-Bold findfont 48.4311 sf 0 0 m (/dof=0.6) show NC gr  black 0 0 1 c
 gsave  2268 1328 0 0 C 2017.01 632.454 t 0 r /Helvetica-Bold findfont 34.1867 sf 0 0 m (2) show NC gr  black 0 0 1 c
 gsave  2268 1328 0 0 C 1991.37 615.36 t 0 r /Symbol findfont 48.4311 sf 0 0 m (c) show NC gr  black 3 lw 340 531 m 1588 X s
 gsave  2268 1328 0 0 C 877.458 1213.63 t 0 r /Helvetica-Bold findfont 39.8845 sf 0 0 m (1 mm) show NC gr  0 0 1 c /w 23 def /w2 {w 2 div} def /w3 {w 3 div} def 836 1228 m21 black 1 1 1 c 1 0 1 c 380 757 m21 459 753 m21 539 751 m21 618 747 m21 697
 745 m21 777 760 m21 856 756 m21 935 768 m21 1015 751 m21 black 1094 737 m 3 Y s 1094 763 m 2 Y s 1088 737 m 12 X s 1088 765 m 12 X s 1 0 1 c 1094 751 m21 black 1174 721 m 6 Y s 1174 750 m 6 Y s 1168 721 m 11 X s 1168 756 m 11 X s 1 0 1 c 1174 738
 m21 black 1253 707 m 11 Y s 1253 741 m 10 Y s 1247 707 m 12 X s 1247 751 m 12 X s 1 0 1 c 1253 729 m21 black 1332 743 m 16 Y s 1332 782 m 15 Y s 1327 743 m 11 X s 1327 797 m 11 X s 1 0 1 c 1332 770 m21 black 1412 707 m 21 Y s 1412 750 m 21 Y s 1406
 707 m 11 X s 1406 771 m 11 X s 1 0 1 c 1412 739 m21 black 1491 727 m 24 Y s 1491 774 m 25 Y s 1485 727 m 12 X s 1485 799 m 12 X s 1 0 1 c 1491 763 m21 black 1570 767 m 28 Y s 1570 818 m 29 Y s 1565 767 m 11 X s 1565 847 m 11 X s 1 0 1 c 1570 807 m21
 black 1650 729 m 32 Y s 1650 783 m 32 Y s 1644 729 m 11 X s 1644 815 m 11 X s 1 0 1 c 1650 772 m21 black 1729 693 m 34 Y s 1729 750 m 35 Y s 1723 693 m 12 X s 1723 785 m 12 X s 1 0 1 c 1729 739 m21 black 1809 750 m 39 Y s 1809 812 m 38 Y s 1803 750
 m 11 X s 1803 850 m 11 X s 1 0 1 c 1809 800 m21 black 1888 735 m 42 Y s 1888 800 m 43 Y s 1882 735 m 12 X s 1882 843 m 12 X s 1 0 1 c 1888 789 m21 6 lw 1 1 1 c 1 0 1 c 380 754 m 20 -1 d 21 -1 d 19 X 19 -1 d 11 X 16 1 d 26 1 d 21 X 6 -1 d 8 X 9 -1 d
 11 -1 d 28 -4 d 9 -1 d 7 X 7 -1 d 9 X 11 1 d 11 X 14 1 d 34 2 d 13 1 d 22 2 d 21 2 d 12 1 d 34 X 39 -1 d 9 1 d 16 X 8 1 d 10 2 d 23 3 d 8 2 d 8 X 6 1 d 9 X 6 -1 d 7 X 7 -1 d 8 -2 d 12 -2 d 23 -6 d 8 -1 d 7 -1 d 2 -1 d 31 -4 d 13 -2 d 12 -1 d 9 X 9
 -1 d 12 X 7 1 d 9 X 13 2 d 18 2 d 9 1 d 7 X 7 1 d 3 X 5 -1 d 6 X 8 -1 d 11 -2 d 15 -2 d 7 -1 d 6 -1 d 15 X 5 1 d 1 X 4 1 d 4 1 d 4 1 d 4 2 d 5 2 d 5 4 d 10 5 d 9 6 d 5 3 d 4 2 d 4 2 d 4 1 d 4 1 d 3 1 d 4 1 d 9 X 4 -1 d 3 -1 d 3 -1 d 4 -1 d 4 -2 d 4
 -3 d 4 -3 d 6 -4 d 18 -14 d 4 -3 d 4 -3 d 4 -2 d 4 -1 d 3 -2 d 3 -1 d 4 X 1 -1 d 17 X 5 1 d 6 1 d 6 2 d 11 3 d 13 3 d 6 2 d 6 1 d 5 1 d 4 1 d 7 X 9 1 d 10 X 33 -1 d 8 1 d 12 X 6 1 d 5 1 d 7 2 d 10 2 d 17 6 d 8 2 d 6 1 d 5 1 d 5 X 5 1 d 6 X 4 -1 d 4
 X 5 -1 d 5 -2 d 5 -1 d 7 -3 d 23 -10 d 5 -2 d 5 -1 d 5 -1 d 4 -1 d 4 -1 d 9 X 5 1 d 6 X 6 1 d 6 1 d 7 2 d 7 2 d 7 2 d 7 2 d 8 4 d 8 3 d 7 3 d 6 3 d 7 4 d 7 3 d 6 5 d 7 4 d 6 5 d 7 4 d 5 5 d 6 5 d 6 6 d 6 5 d 6 6 d 4 4 d s 3 lw /w 2 def /w2 {w 2 div}
 def /w3 {w 3 div} def 380 754 459 751 539 752 618 744 697 748 777 754 856 754 935 763 1015 748 1094 740 1174 747 1253 740 1332 773 1412 730 1491 745 1570 746 1650 763 1729 739 1809 760 1888 819 20 { m20} R 6 lw black 1 0 1 c
 gsave  2268 1328 0 0 C 2036.96 863.214 t 0 r /Helvetica-Bold findfont 48.4311 sf 0 0 m (/dof=0.3) show NC gr  black 1 0 1 c
 gsave  2268 1328 0 0 C 2017.01 880.307 t 0 r /Helvetica-Bold findfont 34.1867 sf 0 0 m (2) show NC gr  black 1 0 1 c
 gsave  2268 1328 0 0 C 1991.37 863.214 t 0 r /Symbol findfont 48.4311 sf 0 0 m (c) show NC gr  black 3 lw 340 752 m 1588 X s
 gsave  2268 1328 0 0 C 1330.43 1213.63 t 0 r /Helvetica-Bold findfont 39.8845 sf 0 0 m (2 mm) show NC gr  1 0 1 c /w 23 def /w2 {w 2 div} def /w3 {w 3 div} def 1290 1228 m21 black 1 1 1 c 0 0.733333 1 c 380 974 m21 459 970 m21 539 973 m21 618 958
 m21 697 974 m21 777 974 m21 856 970 m21 935 987 m21 1015 967 m21 black 1094 929 m 3 Y s 1094 955 m 4 Y s 1088 929 m 12 X s 1088 959 m 12 X s 0 0.733333 1 c 1094 944 m21 black 1174 951 m 8 Y s 1174 981 m 8 Y s 1168 951 m 11 X s 1168 989 m 11 X s 0
 0.733333 1 c 1174 970 m21 black 1253 936 m 13 Y s 1253 971 m 13 Y s 1247 936 m 12 X s 1247 984 m 12 X s 0 0.733333 1 c 1253 960 m21 black 1332 967 m 18 Y s 1332 1008 m 18 Y s 1327 967 m 11 X s 1327 1026 m 11 X s 0 0.733333 1 c 1332 996 m21 black
 1412 897 m 22 Y s 1412 942 m 23 Y s 1406 897 m 11 X s 1406 965 m 11 X s 0 0.733333 1 c 1412 931 m21 black 1491 901 m 27 Y s 1491 951 m 27 Y s 1485 901 m 12 X s 1485 978 m 12 X s 0 0.733333 1 c 1491 940 m21 black 1570 874 m 31 Y s 1570 928 m 31 Y s
 1565 874 m 11 X s 1565 959 m 11 X s 0 0.733333 1 c 1570 916 m21 black 1650 920 m 35 Y s 1650 978 m 35 Y s 1644 920 m 11 X s 1644 1013 m 11 X s 0 0.733333 1 c 1650 966 m21 black 1729 893 m 38 Y s 1729 954 m 38 Y s 1723 893 m 12 X s 1723 992 m 12 X s
 0 0.733333 1 c 1729 942 m21 black 1809 901 m 42 Y s 1809 966 m 42 Y s 1803 901 m 11 X s 1803 1008 m 11 X s 0 0.733333 1 c 1809 955 m21 black 1888 1028 m 48 Y s 1888 1099 m 48 Y s 1882 1028 m 12 X s 1882 1147 m 12 X s 0 0.733333 1 c 1888 1088 m21 6
 lw 1 1 1 c 0 0.733333 1 c 380 976 m 20 -1 d 20 -2 d 19 X 20 -1 d 11 X 15 1 d 25 1 d 29 X 7 -1 d 8 -1 d 11 -2 d 30 -7 d 8 -1 d 7 -1 d 7 -1 d 9 X 9 1 d 10 X 14 2 d 30 4 d 8 1 d 20 3 d 30 3 d 15 2 d 12 1 d 23 X 19 -1 d 17 -1 d 17 X 6 1 d 6 X 7 2 d 9 2
 d 17 5 d 11 3 d 7 1 d 7 2 d 21 X 6 -1 d 6 -1 d 8 -2 d 54 -19 d 41 -10 d 10 -2 d 10 -1 d 7 -1 d 8 -1 d 9 X 7 1 d 7 1 d 9 1 d 16 3 d 11 2 d 8 2 d 6 X 6 1 d 4 X 79 -11 d 3 1 d 5 1 d 4 2 d 4 3 d 4 3 d 6 5 d 8 7 d 10 9 d 5 4 d 4 4 d 4 3 d 4 2 d 4 2 d 4 1
 d 3 1 d 10 X 4 -1 d 3 -1 d 3 -2 d 3 -2 d 4 -3 d 4 -3 d 4 -4 d 5 -6 d 17 -20 d 4 -5 d 4 -4 d 4 -4 d 4 -3 d 3 -2 d 3 -2 d 3 -1 d 4 -1 d 1 X 4 -1 d 8 X 5 1 d 4 1 d 5 1 d 7 3 d 7 3 d 17 8 d 7 3 d 5 2 d 5 2 d 4 1 d 1 X 7 1 d 7 X 9 1 d 15 -1 d 25 X 7 1 d
 6 X 3 1 d 6 1 d 5 1 d 7 3 d 9 4 d 18 7 d 8 3 d 5 2 d 6 1 d 5 1 d 4 1 d 7 X 4 -1 d 4 -1 d 5 -1 d 4 -2 d 5 -3 d 7 -4 d 15 -10 d 8 -5 d 6 -3 d 4 -2 d 5 -2 d 4 -1 d 4 -1 d 14 X 6 1 d 5 1 d 6 2 d 7 2 d 7 3 d 6 3 d 8 4 d 9 6 d 11 6 d 5 4 d 7 5 d 7 5 d 7 6
 d 7 7 d 8 6 d 7 7 d 5 6 d 7 8 d 7 8 d 6 8 d 6 8 d 5 7 d s 3 lw /w 2 def /w2 {w 2 div} def /w3 {w 3 div} def 380 976 459 972 539 974 618 960 697 968 777 977 856 976 935 991 1015 968 1094 953 1174 964 1253 953 1332 1001 1412 937 1491 961 1570 964 1650
 988 1729 952 1809 984 1888 1065 20 { m20} R 6 lw black 0 0.733333 1 c
 gsave  2268 1328 0 0 C 2036.96 1113.92 t 0 r /Helvetica-Bold findfont 48.4311 sf 0 0 m (/dof=0.3) show NC gr  black 0 0.733333 1 c
 gsave  2268 1328 0 0 C 2017.01 1131.01 t 0 r /Helvetica-Bold findfont 34.1867 sf 0 0 m (2) show NC gr  black 0 0.733333 1 c
 gsave  2268 1328 0 0 C 1991.37 1113.92 t 0 r /Symbol findfont 48.4311 sf 0 0 m (c) show NC gr  black 3 lw 340 974 m 1588 X s
 gsave  2268 1328 0 0 C 1783.41 1213.63 t 0 r /Helvetica-Bold findfont 42.7334 sf 0 0 m (2.5 mm) show NC gr  0 0.733333 1 c /w 23 def /w2 {w 2 div} def /w3 {w 3 div} def 1743 1228 m21
 gr  gr showpage
end
%%EOF
