%!PS-Adobe-2.0 EPSF-2.0
%%BoundingBox:  0 0 567 332
%%Title: Horn2YOffset_nof_summary.eps: Summary
%%Creator: ROOT Version 5.30/06
%%CreationDate: Sun Feb  2 09:29:23 2014
%%EndComments
%%BeginProlog
80 dict begin
/s {stroke} def /l {lineto} def /m {moveto} def /t {translate} def
/r {rotate} def /rl {roll}  def /R {repeat} def
/d {rlineto} def /rm {rmoveto} def /gr {grestore} def /f {eofill} def
/c {setrgbcolor} def /black {0 setgray} def /sd {setdash} def
/cl {closepath} def /sf {scalefont setfont} def /lw {setlinewidth} def
/box {m dup 0 exch d exch 0 d 0 exch neg d cl} def
/NC{systemdict begin initclip end}def/C{NC box clip newpath}def
/bl {box s} def /bf {box f} def /Y { 0 exch d} def /X { 0 d} def 
/K {{pop pop 0 moveto} exch kshow} bind def
/ita {/ang 15 def gsave [1 0 ang dup sin exch cos div 1 0 0] concat} def 
/mp {newpath /y exch def /x exch def} def
/side {[w .77 mul w .23 mul] .385 w mul sd w 0 l currentpoint t -144 r} def
/mr {mp x y w2 0 360 arc} def /m24 {mr s} def /m20 {mr f} def
/mb {mp x y w2 add m w2 neg 0 d 0 w neg d w 0 d 0 w d cl} def
/mt {mp x y w2 add m w2 neg w neg d w 0 d cl} def
/m21 {mb f} def /m25 {mb s} def /m22 {mt f} def /m26{mt s} def
/m23 {mp x y w2 sub m w2 w d w neg 0 d cl f} def
/m27 {mp x y w2 add m w3 neg w2 neg d w3 w2 neg d w3 w2 d cl s} def
/m28 {mp x w2 sub y w2 sub w3 add m w3 0 d  0 w3 neg d w3 0 d 0 w3 d w3 0 d  0 w3 d w3 neg 0 d 0 w3 d w3 neg 0 d 0 w3 neg d w3 neg 0 d cl s } def
/m29 {mp gsave x w2 sub y w2 add w3 sub m currentpoint t 4 {side} repeat cl fill gr} def
/m30 {mp gsave x w2 sub y w2 add w3 sub m currentpoint t 4 {side} repeat cl s gr} def
/m31 {mp x y w2 sub m 0 w d x w2 sub y m w 0 d x w2 sub y w2 add m w w neg d x w2 sub y w2 sub m w w d s} def
/m32 {mp x y w2 sub m w2 w d w neg 0 d cl s} def
/m33 {mp x y w2 add m w3 neg w2 neg d w3 w2 neg d w3 w2 d cl f} def
/m34 {mp x w2 sub y w2 sub w3 add m w3 0 d  0 w3 neg d w3 0 d 0 w3 d w3 0 d  0 w3 d w3 neg 0 d 0 w3 d w3 neg 0 d 0 w3 neg d w3 neg 0 d cl f } def
/m2 {mp x y w2 sub m 0 w d x w2 sub y m w 0 d s} def
/m5 {mp x w2 sub y w2 sub m w w d x w2 sub y w2 add m w w neg d s} def
/reEncode {exch findfont dup length dict begin {1 index /FID eq  {pop pop} {def} ifelse } forall /Encoding exch def currentdict end dup /FontName get exch definefont pop } def [/Times-Bold /Times-Italic /Times-BoldItalic /Helvetica /Helvetica-Oblique
 /Helvetica-Bold /Helvetica-BoldOblique /Courier /Courier-Oblique /Courier-Bold /Courier-BoldOblique /Times-Roman /AvantGarde-Book /AvantGarde-BookOblique /AvantGarde-Demi /AvantGarde-DemiOblique /Bookman-Demi /Bookman-DemiItalic /Bookman-Light
 /Bookman-LightItalic /Helvetica-Narrow /Helvetica-Narrow-Bold /Helvetica-Narrow-BoldOblique /Helvetica-Narrow-Oblique /NewCenturySchlbk-Roman /NewCenturySchlbk-Bold /NewCenturySchlbk-BoldItalic /NewCenturySchlbk-Italic /Palatino-Bold
 /Palatino-BoldItalic /Palatino-Italic /Palatino-Roman ] {ISOLatin1Encoding reEncode } forall%%EndProlog
%%BeginSetup
%%EndSetup
newpath  gsave  .25 .25 scale  gsave  0 0 t black[  ] 0 sd 3 lw 1 1 1 c 2268 1328 0 0 bf black 1 1 1 c black 1588 996 340 199 bl 1588 996 340 199 bl 1 1 1 c 1 0 0 c /w 23 def /w2 {w 2 div} def /w3 {w 3 div} def 380 309 m21 459 307 m21 539 309 m21 618
 313 m21 697 303 m21 777 318 m21 856 310 m21 935 310 m21 black 1015 278 m 3 Y s 1015 304 m 3 Y s 1009 278 m 12 X s 1009 307 m 12 X s 1 0 0 c 1015 293 m21 black 1094 312 m 8 Y s 1094 343 m 8 Y s 1088 312 m 12 X s 1088 351 m 12 X s 1 0 0 c 1094 332 m21
 black 1174 289 m 14 Y s 1174 325 m 14 Y s 1168 289 m 11 X s 1168 339 m 11 X s 1 0 0 c 1174 314 m21 black 1253 308 m 21 Y s 1253 352 m 21 Y s 1247 308 m 12 X s 1247 373 m 12 X s 1 0 0 c 1253 341 m21 black 1332 261 m 26 Y s 1332 310 m 26 Y s 1327 261
 m 11 X s 1327 336 m 11 X s 1 0 0 c 1332 299 m21 black 1412 231 m 31 Y s 1412 285 m 32 Y s 1406 231 m 11 X s 1406 317 m 11 X s 1 0 0 c 1412 274 m21 black 1491 262 m 37 Y s 1491 322 m 37 Y s 1485 262 m 12 X s 1485 359 m 12 X s 1 0 0 c 1491 310 m21
 black 1570 229 m 40 Y s 1570 292 m 40 Y s 1565 229 m 11 X s 1565 332 m 11 X s 1 0 0 c 1570 281 m21 black 1650 306 m 46 Y s 1650 375 m 46 Y s 1644 306 m 11 X s 1644 421 m 11 X s 1 0 0 c 1650 364 m21 black 1729 281 m 50 Y s 1729 354 m 50 Y s 1723 281
 m 12 X s 1723 404 m 12 X s 1 0 0 c 1729 343 m21 black 1809 252 m 52 Y s 1809 327 m 52 Y s 1803 252 m 11 X s 1803 379 m 11 X s 1 0 0 c 1809 315 m21 black 1888 300 m 57 Y s 1888 380 m 57 Y s 1882 300 m 12 X s 1882 437 m 12 X s 1 0 0 c 1888 368 m21
 black 340 199 m 1588 X s
 gsave  2268 1328 0 0 C 954.378 68.3734 t 0 r /Helvetica findfont 62.6756 sf 0 0 m ( Energy \(GeV\) ) show NC gr 
 gsave  2268 1328 0 0 C 928.738 51.28 t 0 r /Symbol findfont 42.7334 sf 0 0 m (m) show NC gr 
 gsave  2268 1328 0 0 C 894.552 68.3734 t 0 r /Symbol findfont 62.6756 sf 0 0 m (n) show NC gr  340 216 m -17 Y s 372 208 m -9 Y s 404 208 m -9 Y s 435 208 m -9 Y s 467 208 m -9 Y s 499 216 m -17 Y s 531 208 m -9 Y s 562 208 m -9 Y s 594 208 m -9 Y s
 626 208 m -9 Y s 658 216 m -17 Y s 689 208 m -9 Y s 721 208 m -9 Y s 753 208 m -9 Y s 785 208 m -9 Y s 816 216 m -17 Y s 848 208 m -9 Y s 880 208 m -9 Y s 912 208 m -9 Y s 943 208 m -9 Y s 975 216 m -17 Y s 1007 208 m -9 Y s 1039 208 m -9 Y s 1070
 208 m -9 Y s 1102 208 m -9 Y s 1134 216 m -17 Y s 1166 208 m -9 Y s 1197 208 m -9 Y s 1229 208 m -9 Y s 1261 208 m -9 Y s 1293 216 m -17 Y s 1324 208 m -9 Y s 1356 208 m -9 Y s 1388 208 m -9 Y s 1420 208 m -9 Y s 1451 216 m -17 Y s 1483 208 m -9 Y s
 1515 208 m -9 Y s 1547 208 m -9 Y s 1578 208 m -9 Y s 1610 216 m -17 Y s 1642 208 m -9 Y s 1674 208 m -9 Y s 1705 208 m -9 Y s 1737 208 m -9 Y s 1769 216 m -17 Y s 1801 208 m -9 Y s 1832 208 m -9 Y s 1864 208 m -9 Y s 1896 208 m -9 Y s 1928 216 m
 -17 Y s
 gsave  2268 1328 0 0 C 319.076 136.747 t 0 r /Helvetica findfont 68.3734 sf 0 0 m (0) show NC gr 
 gsave  2268 1328 0 0 C 484.311 136.747 t 0 r /Helvetica findfont 68.3734 sf 0 0 m (1) show NC gr 
 gsave  2268 1328 0 0 C 635.302 136.747 t 0 r /Helvetica findfont 68.3734 sf 0 0 m (2) show NC gr 
 gsave  2268 1328 0 0 C 794.84 136.747 t 0 r /Helvetica findfont 68.3734 sf 0 0 m (3) show NC gr 
 gsave  2268 1328 0 0 C 954.378 136.747 t 0 r /Helvetica findfont 68.3734 sf 0 0 m (4) show NC gr 
 gsave  2268 1328 0 0 C 1113.92 136.747 t 0 r /Helvetica findfont 68.3734 sf 0 0 m (5) show NC gr 
 gsave  2268 1328 0 0 C 1270.6 136.747 t 0 r /Helvetica findfont 68.3734 sf 0 0 m (6) show NC gr 
 gsave  2268 1328 0 0 C 1430.14 136.747 t 0 r /Helvetica findfont 68.3734 sf 0 0 m (7) show NC gr 
 gsave  2268 1328 0 0 C 1589.68 136.747 t 0 r /Helvetica findfont 68.3734 sf 0 0 m (8) show NC gr 
 gsave  2268 1328 0 0 C 1746.37 136.747 t 0 r /Helvetica findfont 68.3734 sf 0 0 m (9) show NC gr 
 gsave  2268 1328 0 0 C 1888.81 136.747 t 0 r /Helvetica findfont 68.3734 sf 0 0 m (10) show NC gr  340 1195 m 1588 X s 340 1178 m 17 Y s 372 1186 m 9 Y s 404 1186 m 9 Y s 435 1186 m 9 Y s 467 1186 m 9 Y s 499 1178 m 17 Y s 531 1186 m 9 Y s 562 1186
 m 9 Y s 594 1186 m 9 Y s 626 1186 m 9 Y s 658 1178 m 17 Y s 689 1186 m 9 Y s 721 1186 m 9 Y s 753 1186 m 9 Y s 785 1186 m 9 Y s 816 1178 m 17 Y s 848 1186 m 9 Y s 880 1186 m 9 Y s 912 1186 m 9 Y s 943 1186 m 9 Y s 975 1178 m 17 Y s 1007 1186 m 9 Y s
 1039 1186 m 9 Y s 1070 1186 m 9 Y s 1102 1186 m 9 Y s 1134 1178 m 17 Y s 1166 1186 m 9 Y s 1197 1186 m 9 Y s 1229 1186 m 9 Y s 1261 1186 m 9 Y s 1293 1178 m 17 Y s 1324 1186 m 9 Y s 1356 1186 m 9 Y s 1388 1186 m 9 Y s 1420 1186 m 9 Y s 1451 1178 m
 17 Y s 1483 1186 m 9 Y s 1515 1186 m 9 Y s 1547 1186 m 9 Y s 1578 1186 m 9 Y s 1610 1178 m 17 Y s 1642 1186 m 9 Y s 1674 1186 m 9 Y s 1705 1186 m 9 Y s 1737 1186 m 9 Y s 1769 1178 m 17 Y s 1801 1186 m 9 Y s 1832 1186 m 9 Y s 1864 1186 m 9 Y s 1896
 1186 m 9 Y s 1928 1178 m 17 Y s 340 199 m 996 Y s
 gsave  2268 1328 0 0 C 170.933 336.169 t 90 r /Helvetica findfont 62.6756 sf 0 0 m (Near/Far Ratio to Nominal) show NC gr  371 199 m -31 X s 355 221 m -15 X s 355 243 m -15 X s 355 266 m -15 X s 355 288 m -15 X s 371 310 m -31 X s 355 332 m -15 X s
 355 354 m -15 X s 355 376 m -15 X s 355 398 m -15 X s 371 420 m -31 X s 355 443 m -15 X s 355 465 m -15 X s 355 487 m -15 X s 355 509 m -15 X s 371 531 m -31 X s 355 553 m -15 X s 355 575 m -15 X s 355 597 m -15 X s 355 620 m -15 X s 371 642 m -31 X
 s 355 664 m -15 X s 355 686 m -15 X s 355 708 m -15 X s 355 730 m -15 X s 371 752 m -31 X s 355 774 m -15 X s 355 797 m -15 X s 355 819 m -15 X s 355 841 m -15 X s 371 863 m -31 X s 355 885 m -15 X s 355 907 m -15 X s 355 929 m -15 X s 355 951 m -15
 X s 371 974 m -31 X s 355 996 m -15 X s 355 1018 m -15 X s 355 1040 m -15 X s 355 1062 m -15 X s 371 1084 m -31 X s 355 1106 m -15 X s 355 1128 m -15 X s 355 1151 m -15 X s 355 1173 m -15 X s 371 1195 m -31 X s 371 199 m -31 X s 371 1195 m -31 X s
 gsave  2268 1328 0 0 C 196.573 173.782 t 0 r /Helvetica findfont 68.3734 sf 0 0 m (0.95) show NC gr 
 gsave  2268 1328 0 0 C 301.982 282.04 t 0 r /Helvetica findfont 68.3734 sf 0 0 m (1) show NC gr 
 gsave  2268 1328 0 0 C 196.573 395.996 t 0 r /Helvetica findfont 68.3734 sf 0 0 m (1.05) show NC gr 
 gsave  2268 1328 0 0 C 245.005 504.254 t 0 r /Helvetica findfont 68.3734 sf 0 0 m (1.1) show NC gr 
 gsave  2268 1328 0 0 C 196.573 618.209 t 0 r /Helvetica findfont 68.3734 sf 0 0 m (1.15) show NC gr 
 gsave  2268 1328 0 0 C 233.609 726.467 t 0 r /Helvetica findfont 68.3734 sf 0 0 m (1.2) show NC gr 
 gsave  2268 1328 0 0 C 196.573 837.574 t 0 r /Helvetica findfont 68.3734 sf 0 0 m (1.25) show NC gr 
 gsave  2268 1328 0 0 C 233.609 948.68 t 0 r /Helvetica findfont 68.3734 sf 0 0 m (1.3) show NC gr 
 gsave  2268 1328 0 0 C 196.573 1059.79 t 0 r /Helvetica findfont 68.3734 sf 0 0 m (1.35) show NC gr 
 gsave  2268 1328 0 0 C 233.609 1168.04 t 0 r /Helvetica findfont 68.3734 sf 0 0 m (1.4) show NC gr  1928 199 m 996 Y s 1897 199 m 31 X s 1912 221 m 16 X s 1912 243 m 16 X s 1912 266 m 16 X s 1912 288 m 16 X s 1897 310 m 31 X s 1912 332 m 16 X s 1912
 354 m 16 X s 1912 376 m 16 X s 1912 398 m 16 X s 1897 420 m 31 X s 1912 443 m 16 X s 1912 465 m 16 X s 1912 487 m 16 X s 1912 509 m 16 X s 1897 531 m 31 X s 1912 553 m 16 X s 1912 575 m 16 X s 1912 597 m 16 X s 1912 620 m 16 X s 1897 642 m 31 X s
 1912 664 m 16 X s 1912 686 m 16 X s 1912 708 m 16 X s 1912 730 m 16 X s 1897 752 m 31 X s 1912 774 m 16 X s 1912 797 m 16 X s 1912 819 m 16 X s 1912 841 m 16 X s 1897 863 m 31 X s 1912 885 m 16 X s 1912 907 m 16 X s 1912 929 m 16 X s 1912 951 m 16 X
 s 1897 974 m 31 X s 1912 996 m 16 X s 1912 1018 m 16 X s 1912 1040 m 16 X s 1912 1062 m 16 X s 1897 1084 m 31 X s 1912 1106 m 16 X s 1912 1128 m 16 X s 1912 1151 m 16 X s 1912 1173 m 16 X s 1897 1195 m 31 X s 1897 199 m 31 X s 1897 1195 m 31 X s 1 0
 0 c 6 lw 1 1 1 c 1 0 0 c 380 310 m 403 X 73 -1 d 12 X 7 1 d 88 X 25 -1 d 77 X 8 1 d 21 X 4 1 d 15 X 5 1 d 16 1 d 5 X 4 1 d 13 X 3 1 d 25 X 2 -1 d 12 X 3 -1 d 5 X 4 -1 d 12 -2 d 5 X 3 -1 d 7 X 3 -1 d 61 X 12 1 d 29 X 6 1 d 7 X 18 1 d 73 X 16 -1 d 5 X
 4 -1 d 40 X 5 1 d 27 X 6 1 d 105 X 5 -1 d 20 X 17 -1 d 59 X s 1755 309 m 7 X 15 1 d 78 X 5 -1 d 17 X 5 -1 d 6 X s 3 lw /w 2 def /w2 {w 2 div} def /w3 {w 3 div} def 380 310 459 310 539 310 618 310 697 310 777 310 856 309 935 310 1015 309 1094 310
 1174 315 1253 308 1332 309 1412 311 1491 309 1570 311 1650 311 1729 309 1809 310 1888 308 20 { m20} R 6 lw black 1 0 0 c
 gsave  2268 1328 0 0 C 2036.96 364.658 t 0 r /Helvetica-Bold findfont 48.4311 sf 0 0 m (/dof=0.5) show NC gr  black 1 0 0 c
 gsave  2268 1328 0 0 C 2017.01 381.751 t 0 r /Helvetica-Bold findfont 34.1867 sf 0 0 m (2) show NC gr  black 1 0 0 c
 gsave  2268 1328 0 0 C 1991.37 364.658 t 0 r /Symbol findfont 48.4311 sf 0 0 m (c) show NC gr  black 3 lw 340 310 m 1588 X s
 gsave  2268 1328 0 0 C 424.485 1213.63 t 0 r /Helvetica-Bold findfont 42.7334 sf 0 0 m (0.5 mm) show NC gr  1 0 0 c /w 23 def /w2 {w 2 div} def /w3 {w 3 div} def 383 1228 m21 black 1 1 1 c 0 0 1 c 380 530 m21 459 533 m21 539 532 m21 618 527 m21 697
 539 m21 777 523 m21 856 540 m21 black 935 522 m 1 Y s 935 545 m 1 Y s 930 522 m 11 X s 930 546 m 11 X s 0 0 1 c 935 534 m21 black 1015 517 m 4 Y s 1015 544 m 5 Y s 1009 517 m 12 X s 1009 549 m 12 X s 0 0 1 c 1015 533 m21 black 1094 499 m 10 Y s 1094
 532 m 10 Y s 1088 499 m 12 X s 1088 542 m 12 X s 0 0 1 c 1094 521 m21 black 1174 505 m 17 Y s 1174 545 m 16 Y s 1168 505 m 11 X s 1168 561 m 11 X s 0 0 1 c 1174 533 m21 black 1253 458 m 23 Y s 1253 504 m 23 Y s 1247 458 m 12 X s 1247 527 m 12 X s 0
 0 1 c 1253 492 m21 black 1332 539 m 31 Y s 1332 593 m 31 Y s 1327 539 m 11 X s 1327 624 m 11 X s 0 0 1 c 1332 582 m21 black 1412 527 m 37 Y s 1412 587 m 37 Y s 1406 527 m 11 X s 1406 624 m 11 X s 0 0 1 c 1412 575 m21 black 1491 479 m 42 Y s 1491 544
 m 41 Y s 1485 479 m 12 X s 1485 585 m 12 X s 0 0 1 c 1491 532 m21 black 1570 499 m 47 Y s 1570 569 m 47 Y s 1565 499 m 11 X s 1565 616 m 11 X s 0 0 1 c 1570 557 m21 black 1650 440 m 50 Y s 1650 513 m 50 Y s 1644 440 m 11 X s 1644 563 m 11 X s 0 0 1
 c 1650 502 m21 black 1729 507 m 56 Y s 1729 586 m 56 Y s 1723 507 m 12 X s 1723 642 m 12 X s 0 0 1 c 1729 574 m21 black 1809 421 m 58 Y s 1809 501 m 58 Y s 1803 421 m 11 X s 1803 559 m 11 X s 0 0 1 c 1809 490 m21 black 1888 347 m 60 Y s 1888 430 m
 60 Y s 1882 347 m 12 X s 1882 490 m 12 X s 0 0 1 c 1888 419 m21 6 lw 1 1 1 c 0 0 1 c 380 531 m 276 X 13 -1 d 41 X 8 1 d 29 X 9 1 d 37 X 7 -1 d 10 X 17 -1 d 13 X 6 -1 d 15 X 4 1 d 17 X 9 1 d 13 1 d 22 X 4 1 d 10 X 4 -1 d 14 X 7 -1 d 22 -1 d 6 -1 d 46
 X 6 1 d 6 X 8 1 d 10 1 d 19 1 d 6 1 d 5 X 4 1 d 5 X 5 1 d 7 1 d 12 2 d 6 1 d 5 X 4 1 d 7 X 4 1 d 23 X 3 -1 d 5 X 3 -1 d 2 X 3 -1 d 3 X 3 -1 d 3 -1 d 4 -1 d 13 -4 d 4 -1 d 3 -1 d 3 -1 d 3 X 2 -1 d 5 X 3 -1 d 11 X 4 -1 d 30 X 7 1 d 17 X 17 1 d 5 X 4 1
 d 4 X 5 1 d 6 X 9 1 d 11 1 d 5 1 d 4 X 4 1 d 12 X 3 1 d 14 X 3 -1 d 70 -6 d 6 X 3 1 d 10 X 3 1 d 4 X 4 1 d 6 1 d 11 2 d 5 1 d 3 X 4 1 d 6 X 3 1 d 43 X 6 -1 d 42 -3 d 4 X 5 -1 d 5 X 6 -1 d 17 -2 d 6 -1 d 5 X 5 -1 d 4 X 4 -1 d 14 X s 1725 526 m 20 X 4
 1 d 3 X 5 1 d 5 X 13 2 d 5 1 d 4 1 d 7 X 3 1 d 44 X 5 -1 d 10 X 5 -1 d 5 X 4 -1 d 4 X 5 -1 d 4 X 4 -1 d 4 -1 d s 3 lw /w 2 def /w2 {w 2 div} def /w3 {w 3 div} def 380 531 459 531 539 531 618 531 697 530 777 532 856 529 935 533 1015 529 1094 534 1174
 542 1253 527 1332 528 1412 535 1491 528 1570 537 1650 533 1729 526 1809 533 1888 527 20 { m20} R 6 lw black 0 0 1 c
 gsave  2268 1328 0 0 C 2036.96 615.36 t 0 r /Helvetica-Bold findfont 48.4311 sf 0 0 m (/dof=0.6) show NC gr  black 0 0 1 c
 gsave  2268 1328 0 0 C 2017.01 632.454 t 0 r /Helvetica-Bold findfont 34.1867 sf 0 0 m (2) show NC gr  black 0 0 1 c
 gsave  2268 1328 0 0 C 1991.37 615.36 t 0 r /Symbol findfont 48.4311 sf 0 0 m (c) show NC gr  black 3 lw 340 531 m 1588 X s
 gsave  2268 1328 0 0 C 877.458 1213.63 t 0 r /Helvetica-Bold findfont 39.8845 sf 0 0 m (1 mm) show NC gr  0 0 1 c /w 23 def /w2 {w 2 div} def /w3 {w 3 div} def 836 1228 m21 black 1 1 1 c 1 0 1 c 380 748 m21 459 753 m21 539 749 m21 618 756 m21 697
 752 m21 777 751 m21 856 746 m21 black 935 742 m 2 Y s 935 767 m 1 Y s 930 742 m 11 X s 930 768 m 11 X s 1 0 1 c 935 755 m21 black 1015 722 m 6 Y s 1015 751 m 5 Y s 1009 722 m 12 X s 1009 756 m 12 X s 1 0 1 c 1015 739 m21 black 1094 720 m 12 Y s 1094
 754 m 12 Y s 1088 720 m 12 X s 1088 766 m 12 X s 1 0 1 c 1094 743 m21 black 1174 794 m 19 Y s 1174 836 m 20 Y s 1168 794 m 11 X s 1168 856 m 11 X s 1 0 1 c 1174 825 m21 black 1253 702 m 27 Y s 1253 751 m 27 Y s 1247 702 m 12 X s 1247 778 m 12 X s 1
 0 1 c 1253 740 m21 black 1332 658 m 33 Y s 1332 714 m 34 Y s 1327 658 m 11 X s 1327 748 m 11 X s 1 0 1 c 1332 703 m21 black 1412 714 m 41 Y s 1412 778 m 41 Y s 1406 714 m 11 X s 1406 819 m 11 X s 1 0 1 c 1412 767 m21 black 1491 699 m 46 Y s 1491 768
 m 46 Y s 1485 699 m 12 X s 1485 814 m 12 X s 1 0 1 c 1491 756 m21 black 1570 673 m 51 Y s 1570 747 m 51 Y s 1565 673 m 11 X s 1565 798 m 11 X s 1 0 1 c 1570 735 m21 black 1650 705 m 57 Y s 1650 784 m 57 Y s 1644 705 m 11 X s 1644 841 m 11 X s 1 0 1
 c 1650 773 m21 black 1729 700 m 62 Y s 1729 785 m 62 Y s 1723 700 m 12 X s 1723 847 m 12 X s 1 0 1 c 1729 774 m21 black 1809 683 m 65 Y s 1809 771 m 66 Y s 1803 683 m 11 X s 1803 837 m 11 X s 1 0 1 c 1809 760 m21 black 1888 715 m 72 Y s 1888 810 m
 72 Y s 1882 715 m 12 X s 1882 882 m 12 X s 1 0 1 c 1888 798 m21 6 lw 1 1 1 c 1 0 1 c 380 753 m 238 X 79 -4 d 11 X 6 1 d 8 1 d 14 2 d 10 1 d 7 1 d 6 X 6 1 d 21 X 5 -1 d 5 -1 d 7 -1 d 10 -2 d 13 -3 d 7 -1 d 5 -1 d 5 X 4 -1 d 13 X 5 1 d 4 X 4 1 d 5 1 d
 6 1 d 9 2 d 11 3 d 7 2 d 5 1 d 4 1 d 5 X 4 1 d 14 X 4 -1 d 5 X 5 -1 d 5 -1 d 8 -2 d 15 -4 d 6 -1 d 5 -1 d 4 X 5 -1 d 14 X 5 1 d 4 X 4 1 d 5 1 d 6 1 d 6 2 d 7 2 d 17 5 d 7 2 d 5 1 d 5 1 d 4 1 d 8 1 d 11 3 d 14 3 d 7 1 d 6 1 d 5 1 d 4 1 d 28 X 3 -1 d
 3 -1 d 4 -1 d 3 -1 d 4 -1 d 4 -2 d 4 -2 d 5 -2 d 5 -4 d 12 -7 d 5 -2 d 4 -2 d 5 -2 d 3 -1 d 4 -2 d 3 -1 d 3 X 2 -1 d 6 -1 d 5 -1 d 6 -1 d 6 X 7 -1 d 39 X 6 1 d 8 X 4 1 d 4 1 d 4 1 d 5 1 d 5 2 d 8 3 d 10 4 d 5 2 d 5 1 d 4 1 d 4 1 d 3 1 d 4 1 d 20 X 3
 -1 d 4 -1 d 4 -1 d 4 -1 d 4 -2 d 15 -6 d 5 -2 d 5 -2 d 4 -1 d 3 -1 d 3 -1 d 4 X 3 -1 d 11 X 3 1 d 3 X 3 1 d 3 1 d 2 1 d 3 1 d 3 2 d 3 1 d 3 3 d 4 2 d 5 4 d 8 7 d 4 3 d 3 3 d 3 2 d 3 2 d 3 1 d 2 1 d 3 1 d 3 1 d 2 1 d 6 X 2 1 d 7 X 4 -1 d 4 X 3 -1 d 4
 X 5 -1 d 4 -2 d 4 -1 d 6 -2 d 6 -3 d 22 -9 d s 1639 760 m 5 -1 d 5 -2 d 1 X 4 -2 d 5 -2 d 5 -2 d 6 -3 d 20 -9 d 5 -3 d 5 -2 d 4 -1 d 4 -1 d 3 -1 d 3 -1 d 4 X 3 -1 d 11 X 3 1 d 3 X 2 1 d 3 X 3 1 d 3 1 d 3 2 d 4 2 d 3 2 d 5 3 d 12 8 d 4 3 d 4 2 d 4 2
 d 2 1 d 3 1 d 3 1 d 3 1 d 3 X 2 1 d 28 X 4 -1 d 5 X 5 -1 d 4 -1 d 5 -1 d 5 -1 d 4 -2 d 4 -1 d 5 -2 d 4 -2 d 4 -2 d 3 -2 d 4 -2 d s 3 lw /w 2 def /w2 {w 2 div} def /w3 {w 3 div} def 380 753 459 753 539 753 618 753 697 749 777 756 856 745 935 759 1015
 747 1094 765 1174 776 1253 743 1332 740 1412 760 1491 740 1570 780 1650 757 1729 729 1809 762 1888 744 20 { m20} R 6 lw black 1 0 1 c
 gsave  2268 1328 0 0 C 2036.96 863.214 t 0 r /Helvetica-Bold findfont 48.4311 sf 0 0 m (/dof=0.3) show NC gr  black 1 0 1 c
 gsave  2268 1328 0 0 C 2017.01 880.307 t 0 r /Helvetica-Bold findfont 34.1867 sf 0 0 m (2) show NC gr  black 1 0 1 c
 gsave  2268 1328 0 0 C 1991.37 863.214 t 0 r /Symbol findfont 48.4311 sf 0 0 m (c) show NC gr  black 3 lw 340 752 m 1588 X s
 gsave  2268 1328 0 0 C 1330.43 1213.63 t 0 r /Helvetica-Bold findfont 39.8845 sf 0 0 m (2 mm) show NC gr  1 0 1 c /w 23 def /w2 {w 2 div} def /w3 {w 3 div} def 1290 1228 m21 black 1 1 1 c 0 0.733333 1 c 380 977 m21 459 974 m21 539 977 m21 618 973
 m21 697 964 m21 777 985 m21 black 856 948 m s 856 970 m s 850 948 m 12 X s 850 970 m 12 X s 0 0.733333 1 c 856 959 m21 black 935 973 m 3 Y s 935 998 m 3 Y s 930 973 m 11 X s 930 1001 m 11 X s 0 0.733333 1 c 935 987 m21 black 1015 957 m 7 Y s 1015
 987 m 7 Y s 1009 957 m 12 X s 1009 994 m 12 X s 0 0.733333 1 c 1015 975 m21 black 1094 987 m 14 Y s 1094 1023 m 14 Y s 1088 987 m 12 X s 1088 1037 m 12 X s 0 0.733333 1 c 1094 1012 m21 black 1174 937 m 21 Y s 1174 981 m 22 Y s 1168 937 m 11 X s 1168
 1003 m 11 X s 0 0.733333 1 c 1174 970 m21 black 1253 931 m 30 Y s 1253 984 m 30 Y s 1247 931 m 12 X s 1247 1014 m 12 X s 0 0.733333 1 c 1253 973 m21 black 1332 921 m 38 Y s 1332 982 m 38 Y s 1327 921 m 11 X s 1327 1020 m 11 X s 0 0.733333 1 c 1332
 971 m21 black 1412 915 m 44 Y s 1412 982 m 45 Y s 1406 915 m 11 X s 1406 1027 m 11 X s 0 0.733333 1 c 1412 971 m21 black 1491 879 m 50 Y s 1491 952 m 50 Y s 1485 879 m 12 X s 1485 1002 m 12 X s 0 0.733333 1 c 1491 941 m21 black 1570 980 m 59 Y s
 1570 1062 m 58 Y s 1565 980 m 11 X s 1565 1120 m 11 X s 0 0.733333 1 c 1570 1050 m21 black 1650 895 m 61 Y s 1650 979 m 61 Y s 1644 895 m 11 X s 1644 1040 m 11 X s 0 0.733333 1 c 1650 968 m21 black 1729 819 m 65 Y s 1729 907 m 65 Y s 1723 819 m 12 X
 s 1723 972 m 12 X s 0 0.733333 1 c 1729 895 m21 black 1809 916 m 73 Y s 1809 1012 m 73 Y s 1803 916 m 11 X s 1803 1085 m 11 X s 0 0.733333 1 c 1809 1001 m21 black 1888 872 m 76 Y s 1888 971 m 75 Y s 1882 872 m 12 X s 1882 1046 m 12 X s 0 0.733333 1
 c 1888 959 m21 6 lw 1 1 1 c 0 0.733333 1 c 380 974 m 159 X 25 1 d 39 X 12 -1 d 3 X 59 -6 d 25 X 6 1 d 6 1 d 8 1 d 14 3 d 10 3 d 7 1 d 6 1 d 6 1 d 16 X 5 -1 d 5 -1 d 5 -1 d 7 -2 d 10 -4 d 13 -4 d 7 -2 d 5 -2 d 5 X 4 -1 d 4 X 4 -1 d 1 X 4 1 d 5 X 4 1
 d 4 1 d 6 2 d 6 2 d 8 4 d 13 5 d 6 3 d 5 2 d 5 1 d 4 1 d 4 X 4 1 d 6 X 4 -1 d 4 X 5 -1 d 5 -2 d 6 -2 d 15 -5 d 8 -3 d 7 -2 d 4 -1 d 5 -1 d 4 -1 d 8 X 4 1 d 5 X 4 1 d 5 2 d 5 1 d 5 3 d 7 2 d 13 7 d 10 4 d 6 3 d 5 2 d 5 2 d 5 1 d 26 6 d 8 2 d 7 2 d 6
 1 d 6 X 6 1 d 10 X 5 -1 d 6 X 3 -1 d 4 -1 d 4 -2 d 4 -2 d 4 -2 d 5 -2 d 5 -4 d 6 -4 d 19 -14 d 5 -3 d 5 -3 d 5 -3 d 3 -1 d 4 -2 d 3 -1 d 8 -2 d 7 -2 d 7 -2 d 8 -1 d 7 -1 d 7 -1 d 32 X 3 1 d 4 X 4 1 d 4 2 d 4 1 d 5 3 d 6 2 d 8 5 d 11 6 d 5 3 d 4 2 d
 4 2 d 5 2 d 4 1 d 4 1 d 14 X 3 -1 d 3 -1 d 4 -1 d 4 -2 d 4 -2 d 6 -3 d 21 -14 d 4 -2 d 3 -2 d 3 -1 d 4 -1 d 3 -1 d 3 X 3 -1 d 3 X 2 1 d 2 X 3 1 d 3 1 d 3 1 d 3 2 d 2 1 d 3 3 d 3 2 d 3 3 d 3 4 d 4 5 d 5 7 d 8 12 d 4 5 d 3 4 d 3 3 d 3 3 d 3 2 d 3 2 d
 2 2 d 3 1 d 3 1 d 2 1 d 3 X 2 1 d 7 X 4 -1 d 3 X 4 -1 d 4 -2 d 58 -36 d 4 -3 d 5 -3 d 5 -4 d 7 -5 d 17 -14 d 6 -4 d 5 -3 d 4 -3 d 4 -2 d 3 -1 d 4 -1 d 3 -1 d s 1717 936 m 4 -1 d 3 -1 d 5 X 3 1 d 3 X 3 1 d 2 1 d 3 1 d 3 2 d 3 2 d 3 2 d 4 3 d 4 4 d 4
 5 d 12 14 d 5 4 d 3 4 d 4 3 d 3 2 d 3 2 d 3 2 d 3 1 d 3 1 d 2 1 d 4 X 4 1 d 10 X 4 -1 d 5 X 5 -1 d 5 -1 d 4 -1 d 5 -2 d 5 -1 d 5 -3 d 5 -2 d 4 -3 d 4 -2 d 5 -4 d 4 -3 d 4 -3 d 1 -1 d s 3 lw /w 2 def /w2 {w 2 div} def /w3 {w 3 div} def 380 974 459
 974 539 974 618 974 697 968 777 980 856 961 935 985 1015 966 1094 995 1174 1006 1253 961 1332 953 1412 984 1491 953 1570 1020 1650 980 1729 934 1809 990 1888 963 20 { m20} R 6 lw black 0 0.733333 1 c
 gsave  2268 1328 0 0 C 2036.96 1113.92 t 0 r /Helvetica-Bold findfont 48.4311 sf 0 0 m (/dof=0.2) show NC gr  black 0 0.733333 1 c
 gsave  2268 1328 0 0 C 2017.01 1131.01 t 0 r /Helvetica-Bold findfont 34.1867 sf 0 0 m (2) show NC gr  black 0 0.733333 1 c
 gsave  2268 1328 0 0 C 1991.37 1113.92 t 0 r /Symbol findfont 48.4311 sf 0 0 m (c) show NC gr  black 3 lw 340 974 m 1588 X s
 gsave  2268 1328 0 0 C 1783.41 1213.63 t 0 r /Helvetica-Bold findfont 42.7334 sf 0 0 m (2.5 mm) show NC gr  0 0.733333 1 c /w 23 def /w2 {w 2 div} def /w3 {w 3 div} def 1743 1228 m21
 gr  gr showpage
end
%%EOF
