%!PS-Adobe-2.0 EPSF-2.0
%%BoundingBox:  0 0 567 332
%%Title: Horn1XOffset_near_fits.eps: Fits
%%Creator: ROOT Version 5.30/06
%%CreationDate: Sun Feb  2 09:39:59 2014
%%EndComments
%%BeginProlog
80 dict begin
/s {stroke} def /l {lineto} def /m {moveto} def /t {translate} def
/r {rotate} def /rl {roll}  def /R {repeat} def
/d {rlineto} def /rm {rmoveto} def /gr {grestore} def /f {eofill} def
/c {setrgbcolor} def /black {0 setgray} def /sd {setdash} def
/cl {closepath} def /sf {scalefont setfont} def /lw {setlinewidth} def
/box {m dup 0 exch d exch 0 d 0 exch neg d cl} def
/NC{systemdict begin initclip end}def/C{NC box clip newpath}def
/bl {box s} def /bf {box f} def /Y { 0 exch d} def /X { 0 d} def 
/K {{pop pop 0 moveto} exch kshow} bind def
/ita {/ang 15 def gsave [1 0 ang dup sin exch cos div 1 0 0] concat} def 
/mp {newpath /y exch def /x exch def} def
/side {[w .77 mul w .23 mul] .385 w mul sd w 0 l currentpoint t -144 r} def
/mr {mp x y w2 0 360 arc} def /m24 {mr s} def /m20 {mr f} def
/mb {mp x y w2 add m w2 neg 0 d 0 w neg d w 0 d 0 w d cl} def
/mt {mp x y w2 add m w2 neg w neg d w 0 d cl} def
/m21 {mb f} def /m25 {mb s} def /m22 {mt f} def /m26{mt s} def
/m23 {mp x y w2 sub m w2 w d w neg 0 d cl f} def
/m27 {mp x y w2 add m w3 neg w2 neg d w3 w2 neg d w3 w2 d cl s} def
/m28 {mp x w2 sub y w2 sub w3 add m w3 0 d  0 w3 neg d w3 0 d 0 w3 d w3 0 d  0 w3 d w3 neg 0 d 0 w3 d w3 neg 0 d 0 w3 neg d w3 neg 0 d cl s } def
/m29 {mp gsave x w2 sub y w2 add w3 sub m currentpoint t 4 {side} repeat cl fill gr} def
/m30 {mp gsave x w2 sub y w2 add w3 sub m currentpoint t 4 {side} repeat cl s gr} def
/m31 {mp x y w2 sub m 0 w d x w2 sub y m w 0 d x w2 sub y w2 add m w w neg d x w2 sub y w2 sub m w w d s} def
/m32 {mp x y w2 sub m w2 w d w neg 0 d cl s} def
/m33 {mp x y w2 add m w3 neg w2 neg d w3 w2 neg d w3 w2 d cl f} def
/m34 {mp x w2 sub y w2 sub w3 add m w3 0 d  0 w3 neg d w3 0 d 0 w3 d w3 0 d  0 w3 d w3 neg 0 d 0 w3 d w3 neg 0 d 0 w3 neg d w3 neg 0 d cl f } def
/m2 {mp x y w2 sub m 0 w d x w2 sub y m w 0 d s} def
/m5 {mp x w2 sub y w2 sub m w w d x w2 sub y w2 add m w w neg d s} def
/reEncode {exch findfont dup length dict begin {1 index /FID eq  {pop pop} {def} ifelse } forall /Encoding exch def currentdict end dup /FontName get exch definefont pop } def [/Times-Bold /Times-Italic /Times-BoldItalic /Helvetica /Helvetica-Oblique
 /Helvetica-Bold /Helvetica-BoldOblique /Courier /Courier-Oblique /Courier-Bold /Courier-BoldOblique /Times-Roman /AvantGarde-Book /AvantGarde-BookOblique /AvantGarde-Demi /AvantGarde-DemiOblique /Bookman-Demi /Bookman-DemiItalic /Bookman-Light
 /Bookman-LightItalic /Helvetica-Narrow /Helvetica-Narrow-Bold /Helvetica-Narrow-BoldOblique /Helvetica-Narrow-Oblique /NewCenturySchlbk-Roman /NewCenturySchlbk-Bold /NewCenturySchlbk-BoldItalic /NewCenturySchlbk-Italic /Palatino-Bold
 /Palatino-BoldItalic /Palatino-Italic /Palatino-Roman ] {ISOLatin1Encoding reEncode } forall%%EndProlog
%%BeginSetup
%%EndSetup
newpath  gsave  .25 .25 scale  gsave  0 0 t black[  ] 0 sd 3 lw 1 1 1 c 2268 1328 0 0 bf black 1 1 1 c 408 305 23 1009 bf black 1 1 1 c black 306 229 84 1055 bl 306 229 84 1055 bl 84 1055 m 306 X s 84 1059 m -4 Y s 196 1059 m -4 Y s 309 1059 m -4 Y s
 309 1059 m -4 Y s
 gsave  408 305 23 1009 C 74.0711 1034.15 t 0 r /Helvetica findfont 22.8295 sf 0 0 m (0) show NC gr 
 gsave  408 305 23 1009 C 188.027 1034.15 t 0 r /Helvetica findfont 22.8295 sf 0 0 m (1) show NC gr 
 gsave  408 305 23 1009 C 299.133 1034.15 t 0 r /Helvetica findfont 22.8295 sf 0 0 m (2) show NC gr  84 1284 m 306 X s 84 1280 m 4 Y s 196 1280 m 4 Y s 309 1280 m 4 Y s 309 1280 m 4 Y s 84 1055 m 229 Y s 89 1076 m -5 X s 87 1081 m -3 X s 87 1086 m -3
 X s 87 1090 m -3 X s 87 1095 m -3 X s 89 1100 m -5 X s 87 1105 m -3 X s 87 1110 m -3 X s 87 1115 m -3 X s 87 1120 m -3 X s 89 1125 m -5 X s 87 1130 m -3 X s 87 1135 m -3 X s 87 1140 m -3 X s 87 1144 m -3 X s 89 1149 m -5 X s 87 1154 m -3 X s 87 1159
 m -3 X s 87 1164 m -3 X s 87 1169 m -3 X s 89 1174 m -5 X s 87 1179 m -3 X s 87 1184 m -3 X s 87 1189 m -3 X s 87 1194 m -3 X s 89 1198 m -5 X s 87 1203 m -3 X s 87 1208 m -3 X s 87 1213 m -3 X s 87 1218 m -3 X s 89 1223 m -5 X s 87 1228 m -3 X s 87
 1233 m -3 X s 87 1238 m -3 X s 87 1243 m -3 X s 89 1248 m -5 X s 87 1252 m -3 X s 87 1257 m -3 X s 87 1262 m -3 X s 87 1267 m -3 X s 89 1272 m -5 X s 89 1076 m -5 X s 87 1071 m -3 X s 87 1066 m -3 X s 87 1061 m -3 X s 87 1056 m -3 X s 89 1272 m -5 X
 s 87 1277 m -3 X s 87 1282 m -3 X s
 gsave  408 305 23 1009 C 14.2445 1068.33 t 0 r /Helvetica findfont 22.8295 sf 0 0 m (\2550.004) show NC gr 
 gsave  408 305 23 1009 C 14.2445 1093.97 t 0 r /Helvetica findfont 22.8295 sf 0 0 m (\2550.003) show NC gr 
 gsave  408 305 23 1009 C 14.2445 1116.76 t 0 r /Helvetica findfont 22.8295 sf 0 0 m (\2550.002) show NC gr 
 gsave  408 305 23 1009 C 17.0933 1142.4 t 0 r /Helvetica findfont 22.8295 sf 0 0 m (\2550.001) show NC gr 
 gsave  408 305 23 1009 C 65.5245 1168.04 t 0 r /Helvetica findfont 22.8295 sf 0 0 m (0) show NC gr 
 gsave  408 305 23 1009 C 25.64 1190.84 t 0 r /Helvetica findfont 22.8295 sf 0 0 m (0.001) show NC gr 
 gsave  408 305 23 1009 C 22.7911 1216.48 t 0 r /Helvetica findfont 22.8295 sf 0 0 m (0.002) show NC gr 
 gsave  408 305 23 1009 C 22.7911 1239.27 t 0 r /Helvetica findfont 22.8295 sf 0 0 m (0.003) show NC gr 
 gsave  408 305 23 1009 C 22.7911 1264.91 t 0 r /Helvetica findfont 22.8295 sf 0 0 m (0.004) show NC gr  390 1055 m 229 Y s 385 1076 m 5 X s 387 1081 m 3 X s 387 1086 m 3 X s 387 1090 m 3 X s 387 1095 m 3 X s 385 1100 m 5 X s 387 1105 m 3 X s 387
 1110 m 3 X s 387 1115 m 3 X s 387 1120 m 3 X s 385 1125 m 5 X s 387 1130 m 3 X s 387 1135 m 3 X s 387 1140 m 3 X s 387 1144 m 3 X s 385 1149 m 5 X s 387 1154 m 3 X s 387 1159 m 3 X s 387 1164 m 3 X s 387 1169 m 3 X s 385 1174 m 5 X s 387 1179 m 3 X
 s 387 1184 m 3 X s 387 1189 m 3 X s 387 1194 m 3 X s 385 1198 m 5 X s 387 1203 m 3 X s 387 1208 m 3 X s 387 1213 m 3 X s 387 1218 m 3 X s 385 1223 m 5 X s 387 1228 m 3 X s 387 1233 m 3 X s 387 1238 m 3 X s 387 1243 m 3 X s 385 1248 m 5 X s 387 1252
 m 3 X s 387 1257 m 3 X s 387 1262 m 3 X s 387 1267 m 3 X s 385 1272 m 5 X s 385 1076 m 5 X s 387 1071 m 3 X s 387 1066 m 3 X s 387 1061 m 3 X s 387 1056 m 3 X s 385 1272 m 5 X s 387 1277 m 3 X s 387 1282 m 3 X s /w 22 def /w2 {w 2 div} def /w3 {w 3
 div} def 140 1218 196 1120 309 1197 365 1157 4 { m21} R 140 1229 m 36 Y s 134 1265 m 12 X s 140 1207 m -36 Y s 134 1171 m 12 X s 196 1132 m 35 Y s 191 1167 m 11 X s 196 1109 m -35 Y s 191 1074 m 11 X s 309 1208 m 35 Y s 303 1243 m 12 X s 309 1186 m
 -35 Y s 303 1151 m 12 X s 365 1168 m 35 Y s 360 1203 m 11 X s 365 1145 m -35 Y s 360 1110 m 11 X s 9 lw 0.95 0.95 0.95 c black 85 1174 m 16 X 3 -1 d 43 X 3 -1 d 43 X 3 -1 d 39 X s 235 1171 m 4 -1 d 42 X 3 -1 d 43 X 3 -1 d 40 X 3 -1 d 12 X s 385 1167
 m 4 X s 0.49 0.6 0.82 c black 0.49 0.6 0.82 c
 gsave  408 305 23 1009 C 142.445 1293.4 t 0 r /Helvetica-Bold findfont 25.6831 sf 0 0 m (0.0 < E < 0.5 GeV) show NC gr  0.52 0.76 0.64 c black 0.52 0.76 0.64 c
 gsave  408 305 23 1009 C 122.502 1256.36 t 0 r /Helvetica-Bold findfont 25.6831 sf 0 0 m 
 228 214 200 193 178 171 156 149 134 126 119 105 91 77 69 55 47 39 25 17
(A = \2550.000, p = 1.000) K NC gr  1 0.6 1 c black 1 0.6 1 c
 gsave  408 305 23 1009 C 427.334 1122.46 t 90 r /Helvetica-Bold findfont 28.5368 sf 0 0 m (/dof=0.9) show NC gr  black 1 0.6 1 c
 gsave  408 305 23 1009 C 415.938 1111.07 t 90 r /Helvetica-Bold findfont 19.9758 sf 0 0 m (2) show NC gr  black 1 0.6 1 c
 gsave  408 305 23 1009 C 427.334 1093.97 t 90 r /Symbol findfont 28.5368 sf 0 0 m (c) show NC gr  black 3 lw 1 1 1 c 408 305 476 1009 bf black 1 1 1 c black 307 229 537 1055 bl 307 229 537 1055 bl 537 1055 m 307 X s 537 1059 m -4 Y s 650 1059 m -4 Y
 s 763 1059 m -4 Y s 763 1059 m -4 Y s
 gsave  408 305 476 1009 C 527.045 1034.15 t 0 r /Helvetica findfont 22.8295 sf 0 0 m (0) show NC gr 
 gsave  408 305 476 1009 C 643.849 1034.15 t 0 r /Helvetica findfont 22.8295 sf 0 0 m (1) show NC gr 
 gsave  408 305 476 1009 C 752.107 1034.15 t 0 r /Helvetica findfont 22.8295 sf 0 0 m (2) show NC gr  537 1284 m 307 X s 537 1280 m 4 Y s 650 1280 m 4 Y s 763 1280 m 4 Y s 763 1280 m 4 Y s 537 1055 m 229 Y s 543 1057 m -6 X s 540 1065 m -3 X s 540
 1073 m -3 X s 540 1081 m -3 X s 543 1089 m -6 X s 540 1097 m -3 X s 540 1105 m -3 X s 540 1113 m -3 X s 543 1122 m -6 X s 540 1130 m -3 X s 540 1138 m -3 X s 540 1146 m -3 X s 543 1154 m -6 X s 540 1162 m -3 X s 540 1170 m -3 X s 540 1179 m -3 X s
 543 1187 m -6 X s 540 1195 m -3 X s 540 1203 m -3 X s 540 1211 m -3 X s 543 1219 m -6 X s 540 1227 m -3 X s 540 1235 m -3 X s 540 1244 m -3 X s 543 1252 m -6 X s 543 1057 m -6 X s 543 1252 m -6 X s 540 1260 m -3 X s 540 1268 m -3 X s 540 1276 m -3 X
 s
 gsave  408 305 476 1009 C 484.311 1048.39 t 0 r /Helvetica findfont 22.8295 sf 0 0 m (\2550.01) show NC gr 
 gsave  408 305 476 1009 C 467.218 1082.58 t 0 r /Helvetica findfont 22.8295 sf 0 0 m (\2550.008) show NC gr 
 gsave  408 305 476 1009 C 467.218 1113.92 t 0 r /Helvetica findfont 22.8295 sf 0 0 m (\2550.006) show NC gr 
 gsave  408 305 476 1009 C 467.218 1148.1 t 0 r /Helvetica findfont 22.8295 sf 0 0 m (\2550.004) show NC gr 
 gsave  408 305 476 1009 C 467.218 1179.44 t 0 r /Helvetica findfont 22.8295 sf 0 0 m (\2550.002) show NC gr 
 gsave  408 305 476 1009 C 518.498 1210.78 t 0 r /Helvetica findfont 22.8295 sf 0 0 m (0) show NC gr 
 gsave  408 305 476 1009 C 475.765 1244.96 t 0 r /Helvetica findfont 22.8295 sf 0 0 m (0.002) show NC gr  844 1055 m 229 Y s 838 1057 m 6 X s 841 1065 m 3 X s 841 1073 m 3 X s 841 1081 m 3 X s 838 1089 m 6 X s 841 1097 m 3 X s 841 1105 m 3 X s 841
 1113 m 3 X s 838 1122 m 6 X s 841 1130 m 3 X s 841 1138 m 3 X s 841 1146 m 3 X s 838 1154 m 6 X s 841 1162 m 3 X s 841 1170 m 3 X s 841 1179 m 3 X s 838 1187 m 6 X s 841 1195 m 3 X s 841 1203 m 3 X s 841 1211 m 3 X s 838 1219 m 6 X s 841 1227 m 3 X
 s 841 1235 m 3 X s 841 1244 m 3 X s 838 1252 m 6 X s 838 1057 m 6 X s 838 1252 m 6 X s 841 1260 m 3 X s 841 1268 m 3 X s 841 1276 m 3 X s /w 23 def /w2 {w 2 div} def /w3 {w 3 div} def 594 1205 650 1228 763 1113 819 1110 4 { m21} R 594 1217 m 25 Y s
 588 1242 m 11 X s 594 1194 m -26 Y s 588 1168 m 11 X s 650 1239 m 26 Y s 644 1265 m 12 X s 650 1216 m -25 Y s 644 1191 m 12 X s 763 1124 m 25 Y s 757 1149 m 11 X s 763 1101 m -25 Y s 757 1076 m 11 X s 819 1122 m 25 Y s 813 1147 m 12 X s 819 1099 m
 -25 Y s 813 1074 m 12 X s 1 0 0 c 9 lw 0.95 0.95 0.95 c black 1 0 0 c 539 1219 m 18 X 3 -1 d 10 X 3 -1 d 6 X 3 -1 d 3 X 3 -1 d 3 X 3 -1 d 3 X 3 -1 d 3 -1 d 3 X 3 -1 d 3 -1 d 4 X 3 -1 d 3 -1 d 3 -1 d 3 X 3 -1 d 3 -1 d 3 -1 d 3 -1 d 3 -1 d 3 -1 d 3 -1
 d 3 -1 d 3 -1 d 3 -1 d 3 -2 d 3 -1 d 4 -1 d 3 -1 d 3 -2 d 3 -1 d 3 -1 d 3 -2 d 3 -1 d 3 -1 d s 689 1184 m 3 -2 d 3 -1 d 3 -2 d 3 -1 d 3 -2 d 3 -2 d 3 -1 d 3 -2 d 4 -2 d 3 -1 d 3 -2 d 3 -2 d 3 -2 d 3 -1 d 3 -2 d 3 -2 d 3 -2 d 3 -2 d 3 -2 d 3 -2 d 3
 -2 d 3 -2 d 3 -2 d 3 -2 d 4 -2 d 3 -3 d 3 -2 d 3 -2 d 3 -2 d 3 -3 d 3 -2 d 3 -2 d 3 -3 d 3 -2 d 3 -2 d 3 -3 d 3 -2 d 3 -3 d 3 -3 d 3 -2 d 4 -3 d 3 -2 d 3 -3 d 3 -3 d 3 -2 d 3 -3 d 3 -3 d 3 -3 d 3 -3 d s 839 1078 m 3 -3 d s 0.49 0.6 0.82 c black 0.49
 0.6 0.82 c
 gsave  408 305 476 1009 C 595.418 1293.4 t 0 r /Helvetica-Bold findfont 25.6831 sf 0 0 m (0.5 < E < 1.0 GeV) show NC gr  0.52 0.76 0.64 c black 0.52 0.76 0.64 c
 gsave  408 305 476 1009 C 575.476 1256.36 t 0 r /Helvetica-Bold findfont 25.6831 sf 0 0 m 
 228 214 200 193 178 171 156 149 133 126 119 105 91 76 69 55 47 39 25 17
(A = \2550.001, p = 2.000) K NC gr  1 0.6 1 c black 1 0.6 1 c
 gsave  408 305 476 1009 C 883.156 1122.46 t 90 r /Helvetica-Bold findfont 28.5368 sf 0 0 m (/dof=0.5) show NC gr  black 1 0.6 1 c
 gsave  408 305 476 1009 C 871.76 1111.07 t 90 r /Helvetica-Bold findfont 19.9758 sf 0 0 m (2) show NC gr  black 1 0.6 1 c
 gsave  408 305 476 1009 C 883.156 1093.97 t 90 r /Symbol findfont 28.5368 sf 0 0 m (c) show NC gr  black 3 lw 1 1 1 c 408 305 930 1009 bf black 1 1 1 c black 306 229 991 1055 bl 306 229 991 1055 bl 991 1055 m 306 X s 991 1059 m -4 Y s 1104 1059 m -4
 Y s 1216 1059 m -4 Y s 1216 1059 m -4 Y s
 gsave  408 305 930 1009 C 980.018 1034.15 t 0 r /Helvetica findfont 22.8295 sf 0 0 m (0) show NC gr 
 gsave  408 305 930 1009 C 1096.82 1034.15 t 0 r /Helvetica findfont 22.8295 sf 0 0 m (1) show NC gr 
 gsave  408 305 930 1009 C 1205.08 1034.15 t 0 r /Helvetica findfont 22.8295 sf 0 0 m (2) show NC gr  991 1284 m 306 X s 991 1280 m 4 Y s 1104 1280 m 4 Y s 1216 1280 m 4 Y s 1216 1280 m 4 Y s 991 1055 m 229 Y s 997 1058 m -6 X s 994 1068 m -3 X s 994
 1077 m -3 X s 994 1087 m -3 X s 997 1097 m -6 X s 994 1107 m -3 X s 994 1116 m -3 X s 994 1126 m -3 X s 997 1136 m -6 X s 994 1145 m -3 X s 994 1155 m -3 X s 994 1165 m -3 X s 997 1174 m -6 X s 994 1184 m -3 X s 994 1194 m -3 X s 994 1203 m -3 X s
 997 1213 m -6 X s 994 1223 m -3 X s 994 1233 m -3 X s 994 1242 m -3 X s 997 1252 m -6 X s 997 1058 m -6 X s 997 1252 m -6 X s 994 1262 m -3 X s 994 1271 m -3 X s 994 1281 m -3 X s
 gsave  408 305 930 1009 C 923.04 1051.24 t 0 r /Helvetica findfont 22.8295 sf 0 0 m (\2550.006) show NC gr 
 gsave  408 305 930 1009 C 923.04 1091.12 t 0 r /Helvetica findfont 22.8295 sf 0 0 m (\2550.004) show NC gr 
 gsave  408 305 930 1009 C 923.04 1128.16 t 0 r /Helvetica findfont 22.8295 sf 0 0 m (\2550.002) show NC gr 
 gsave  408 305 930 1009 C 974.32 1168.04 t 0 r /Helvetica findfont 22.8295 sf 0 0 m (0) show NC gr 
 gsave  408 305 930 1009 C 931.587 1205.08 t 0 r /Helvetica findfont 22.8295 sf 0 0 m (0.002) show NC gr 
 gsave  408 305 930 1009 C 931.587 1244.96 t 0 r /Helvetica findfont 22.8295 sf 0 0 m (0.004) show NC gr  1297 1055 m 229 Y s 1292 1058 m 5 X s 1294 1068 m 3 X s 1294 1077 m 3 X s 1294 1087 m 3 X s 1292 1097 m 5 X s 1294 1107 m 3 X s 1294 1116 m 3 X
 s 1294 1126 m 3 X s 1292 1136 m 5 X s 1294 1145 m 3 X s 1294 1155 m 3 X s 1294 1165 m 3 X s 1292 1174 m 5 X s 1294 1184 m 3 X s 1294 1194 m 3 X s 1294 1203 m 3 X s 1292 1213 m 5 X s 1294 1223 m 3 X s 1294 1233 m 3 X s 1294 1242 m 3 X s 1292 1252 m 5
 X s 1292 1058 m 5 X s 1292 1252 m 5 X s 1294 1262 m 3 X s 1294 1271 m 3 X s 1294 1281 m 3 X s 1047 1222 1104 1203 1216 1153 1272 1117 4 { m21} R 1047 1233 m 32 Y s 1042 1265 m 11 X s 1047 1210 m -31 Y s 1042 1179 m 11 X s 1104 1215 m 31 Y s 1098
 1246 m 11 X s 1104 1192 m -32 Y s 1098 1160 m 11 X s 1216 1164 m 32 Y s 1210 1196 m 12 X s 1216 1142 m -32 Y s 1210 1110 m 12 X s 1272 1128 m 32 Y s 1267 1160 m 11 X s 1272 1105 m -31 Y s 1267 1074 m 11 X s 1 0 0 c 9 lw 0.95 0.95 0.95 c black 1 0 0
 c 993 1174 m 36 X 3 -1 d 16 X 3 -1 d 9 X 3 -1 d 9 X 3 -1 d 6 X 3 -1 d 6 X 4 -1 d 6 X 3 -1 d 3 X 3 -1 d 6 X 3 -1 d 3 X 3 -1 d 3 X 3 -1 d 3 X 3 -1 d 3 X 4 -1 d s 1143 1161 m 3 X 3 -1 d 3 X 3 -1 d 3 X 3 -1 d 3 -1 d 3 X 3 -1 d 3 X 3 -1 d 3 -1 d 3 X 3 -1
 d 3 -1 d 4 X 3 -1 d 3 -1 d 3 -1 d 3 X 3 -1 d 3 -1 d 3 -1 d 3 X 3 -1 d 3 -1 d 3 -1 d 3 -1 d 3 X 3 -1 d 3 -1 d 3 -1 d 4 -1 d 3 -1 d 3 -1 d 3 -1 d 3 -1 d 3 X 3 -1 d 3 -1 d 3 -1 d 3 -1 d 3 -1 d 3 -1 d 3 -1 d 3 -1 d 3 -1 d 3 -1 d 4 -1 d s 1293 1123 m 3
 -1 d s 0.49 0.6 0.82 c black 0.49 0.6 0.82 c
 gsave  408 305 930 1009 C 1051.24 1293.4 t 0 r /Helvetica-Bold findfont 25.6831 sf 0 0 m (1.0 < E < 1.5 GeV) show NC gr  0.52 0.76 0.64 c black 0.52 0.76 0.64 c
 gsave  408 305 930 1009 C 1031.3 1256.36 t 0 r /Helvetica-Bold findfont 25.6831 sf 0 0 m 
 228 214 200 193 178 171 156 149 133 126 119 105 91 77 69 55 47 39 25 17
(A = \2550.000, p = 2.000) K NC gr  1 0.6 1 c black 1 0.6 1 c
 gsave  408 305 930 1009 C 1336.13 1122.46 t 90 r /Helvetica-Bold findfont 28.5368 sf 0 0 m (/dof=0.7) show NC gr  black 1 0.6 1 c
 gsave  408 305 930 1009 C 1324.73 1111.07 t 90 r /Helvetica-Bold findfont 19.9758 sf 0 0 m (2) show NC gr  black 1 0.6 1 c
 gsave  408 305 930 1009 C 1336.13 1093.97 t 90 r /Symbol findfont 28.5368 sf 0 0 m (c) show NC gr  black 3 lw 1 1 1 c 408 305 1383 1009 bf black 1 1 1 c black 306 229 1445 1055 bl 306 229 1445 1055 bl 1445 1055 m 306 X s 1445 1059 m -4 Y s 1557 1059
 m -4 Y s 1670 1059 m -4 Y s 1670 1059 m -4 Y s
 gsave  408 305 1383 1009 C 1435.84 1034.15 t 0 r /Helvetica findfont 22.8295 sf 0 0 m (0) show NC gr 
 gsave  408 305 1383 1009 C 1549.8 1034.15 t 0 r /Helvetica findfont 22.8295 sf 0 0 m (1) show NC gr 
 gsave  408 305 1383 1009 C 1660.9 1034.15 t 0 r /Helvetica findfont 22.8295 sf 0 0 m (2) show NC gr  1445 1284 m 306 X s 1445 1280 m 4 Y s 1557 1280 m 4 Y s 1670 1280 m 4 Y s 1670 1280 m 4 Y s 1445 1055 m 229 Y s 1450 1078 m -5 X s 1447 1090 m -2 X
 s 1447 1101 m -2 X s 1447 1112 m -2 X s 1450 1124 m -5 X s 1447 1135 m -2 X s 1447 1146 m -2 X s 1447 1158 m -2 X s 1450 1169 m -5 X s 1447 1180 m -2 X s 1447 1192 m -2 X s 1447 1203 m -2 X s 1450 1214 m -5 X s 1447 1226 m -2 X s 1447 1237 m -2 X s
 1447 1248 m -2 X s 1450 1260 m -5 X s 1450 1078 m -5 X s 1447 1067 m -2 X s 1447 1056 m -2 X s 1450 1260 m -5 X s 1447 1271 m -2 X s 1447 1282 m -2 X s
 gsave  408 305 1383 1009 C 1376.01 1071.18 t 0 r /Helvetica findfont 22.8295 sf 0 0 m (\2550.004) show NC gr 
 gsave  408 305 1383 1009 C 1376.01 1116.76 t 0 r /Helvetica findfont 22.8295 sf 0 0 m (\2550.002) show NC gr 
 gsave  408 305 1383 1009 C 1427.29 1162.35 t 0 r /Helvetica findfont 22.8295 sf 0 0 m (0) show NC gr 
 gsave  408 305 1383 1009 C 1384.56 1207.93 t 0 r /Helvetica findfont 22.8295 sf 0 0 m (0.002) show NC gr 
 gsave  408 305 1383 1009 C 1384.56 1253.51 t 0 r /Helvetica findfont 22.8295 sf 0 0 m (0.004) show NC gr  1751 1055 m 229 Y s 1745 1078 m 6 X s 1748 1090 m 3 X s 1748 1101 m 3 X s 1748 1112 m 3 X s 1745 1124 m 6 X s 1748 1135 m 3 X s 1748 1146 m 3 X
 s 1748 1158 m 3 X s 1745 1169 m 6 X s 1748 1180 m 3 X s 1748 1192 m 3 X s 1748 1203 m 3 X s 1745 1214 m 6 X s 1748 1226 m 3 X s 1748 1237 m 3 X s 1748 1248 m 3 X s 1745 1260 m 6 X s 1745 1078 m 6 X s 1748 1067 m 3 X s 1748 1056 m 3 X s 1745 1260 m 6
 X s 1748 1271 m 3 X s 1748 1282 m 3 X s 1501 1180 1557 1124 1670 1195 1726 1214 4 { m21} R 1501 1191 m 40 Y s 1495 1231 m 12 X s 1501 1169 m -40 Y s 1495 1129 m 12 X s 1557 1136 m 39 Y s 1551 1175 m 12 X s 1557 1113 m -39 Y s 1551 1074 m 12 X s 1670
 1206 m 40 Y s 1664 1246 m 11 X s 1670 1184 m -40 Y s 1664 1144 m 11 X s 1726 1225 m 40 Y s 1720 1265 m 12 X s 1726 1202 m -39 Y s 1720 1163 m 12 X s 1 0 0 c 9 lw 0.95 0.95 0.95 c black 1 0 0 c 1446 1169 m 31 X 3 1 d 18 X 3 1 d 15 X 4 1 d 9 X 3 1 d 9
 X 3 1 d 6 X 3 1 d 6 X 3 1 d 7 X 3 1 d 3 X 3 1 d 6 X 3 1 d 3 X 3 1 d 3 X s 1596 1180 m 3 X 3 1 d 3 X 3 1 d 3 X 3 1 d 4 X 3 1 d 3 X 3 1 d 3 X 3 1 d 3 1 d 3 X 3 1 d 3 X 3 1 d 3 1 d 3 X 3 1 d 3 X 3 1 d 3 1 d 4 X 3 1 d 3 1 d 3 X 3 1 d 3 1 d 3 X 3 1 d 3 1
 d 3 1 d 3 X 3 1 d 3 1 d 3 1 d 3 X 3 1 d 4 1 d 3 1 d 3 1 d 3 1 d 3 X 3 1 d 3 1 d 3 1 d 3 1 d 3 1 d s 1746 1213 m 3 1 d s 0.49 0.6 0.82 c black 0.49 0.6 0.82 c
 gsave  408 305 1383 1009 C 1504.21 1293.4 t 0 r /Helvetica-Bold findfont 25.6831 sf 0 0 m (1.5 < E < 2.0 GeV) show NC gr  0.52 0.76 0.64 c black 0.52 0.76 0.64 c
 gsave  408 305 1383 1009 C 1489.97 1256.36 t 0 r /Helvetica-Bold findfont 25.6831 sf 0 0 m 
 220 206 192 185 170 163 148 141 126 118 111 97 83 69 61 47 40 25 18
(A = 0.000, p = 2.000) K NC gr  1 0.6 1 c black 1 0.6 1 c
 gsave  408 305 1383 1009 C 1789.1 1122.46 t 90 r /Helvetica-Bold findfont 28.5368 sf 0 0 m (/dof=0.4) show NC gr  black 1 0.6 1 c
 gsave  408 305 1383 1009 C 1777.71 1111.07 t 90 r /Helvetica-Bold findfont 19.9758 sf 0 0 m (2) show NC gr  black 1 0.6 1 c
 gsave  408 305 1383 1009 C 1789.1 1093.97 t 90 r /Symbol findfont 28.5368 sf 0 0 m (c) show NC gr  black 3 lw 1 1 1 c 408 305 1837 1009 bf black 1 1 1 c black 306 229 1898 1055 bl 306 229 1898 1055 bl 1898 1055 m 306 X s 1898 1059 m -4 Y s 2011 1059
 m -4 Y s 2123 1059 m -4 Y s 2123 1059 m -4 Y s
 gsave  408 305 1837 1009 C 1888.81 1034.15 t 0 r /Helvetica findfont 22.8295 sf 0 0 m (0) show NC gr 
 gsave  408 305 1837 1009 C 2002.77 1034.15 t 0 r /Helvetica findfont 22.8295 sf 0 0 m (1) show NC gr 
 gsave  408 305 1837 1009 C 2113.88 1034.15 t 0 r /Helvetica findfont 22.8295 sf 0 0 m (2) show NC gr  1898 1284 m 306 X s 1898 1280 m 4 Y s 2011 1280 m 4 Y s 2123 1280 m 4 Y s 2123 1280 m 4 Y s 1898 1055 m 229 Y s 1904 1071 m -6 X s 1901 1080 m -3 X
 s 1901 1089 m -3 X s 1901 1098 m -3 X s 1904 1107 m -6 X s 1901 1116 m -3 X s 1901 1125 m -3 X s 1901 1134 m -3 X s 1904 1143 m -6 X s 1901 1152 m -3 X s 1901 1161 m -3 X s 1901 1170 m -3 X s 1904 1179 m -6 X s 1901 1188 m -3 X s 1901 1197 m -3 X s
 1901 1206 m -3 X s 1904 1216 m -6 X s 1901 1225 m -3 X s 1901 1234 m -3 X s 1901 1243 m -3 X s 1904 1252 m -6 X s 1904 1071 m -6 X s 1901 1062 m -3 X s 1904 1252 m -6 X s 1901 1261 m -3 X s 1901 1270 m -3 X s 1901 1279 m -3 X s
 gsave  408 305 1837 1009 C 1828.99 1062.64 t 0 r /Helvetica findfont 22.8295 sf 0 0 m (\2550.008) show NC gr 
 gsave  408 305 1837 1009 C 1828.99 1099.67 t 0 r /Helvetica findfont 22.8295 sf 0 0 m (\2550.006) show NC gr 
 gsave  408 305 1837 1009 C 1828.99 1136.71 t 0 r /Helvetica findfont 22.8295 sf 0 0 m (\2550.004) show NC gr 
 gsave  408 305 1837 1009 C 1828.99 1170.89 t 0 r /Helvetica findfont 22.8295 sf 0 0 m (\2550.002) show NC gr 
 gsave  408 305 1837 1009 C 1880.27 1207.93 t 0 r /Helvetica findfont 22.8295 sf 0 0 m (0) show NC gr 
 gsave  408 305 1837 1009 C 1837.53 1244.96 t 0 r /Helvetica findfont 22.8295 sf 0 0 m (0.002) show NC gr  2204 1055 m 229 Y s 2199 1071 m 5 X s 2201 1080 m 3 X s 2201 1089 m 3 X s 2201 1098 m 3 X s 2199 1107 m 5 X s 2201 1116 m 3 X s 2201 1125 m 3 X
 s 2201 1134 m 3 X s 2199 1143 m 5 X s 2201 1152 m 3 X s 2201 1161 m 3 X s 2201 1170 m 3 X s 2199 1179 m 5 X s 2201 1188 m 3 X s 2201 1197 m 3 X s 2201 1206 m 3 X s 2199 1216 m 5 X s 2201 1225 m 3 X s 2201 1234 m 3 X s 2201 1243 m 3 X s 2199 1252 m 5
 X s 2199 1071 m 5 X s 2201 1062 m 3 X s 2199 1252 m 5 X s 2201 1261 m 3 X s 2201 1270 m 3 X s 2201 1279 m 3 X s 1954 1221 2011 1204 2123 1188 2179 1117 4 { m21} R 1954 1232 m 33 Y s 1949 1265 m 11 X s 1954 1209 m -32 Y s 1949 1177 m 11 X s 2011 1216
 m 32 Y s 2005 1248 m 11 X s 2011 1193 m -33 Y s 2005 1160 m 11 X s 2123 1199 m 32 Y s 2117 1231 m 12 X s 2123 1176 m -32 Y s 2117 1144 m 12 X s 2179 1129 m 32 Y s 2174 1161 m 11 X s 2179 1106 m -32 Y s 2174 1074 m 11 X s 1 0 0 c 9 lw 0.95 0.95 0.95
 c black 1 0 0 c 1900 1216 m 3 X 3 -1 d 21 X 3 -1 d 12 X 4 -1 d 6 X 3 -1 d 3 X 3 -1 d 6 X 3 -1 d 3 X 3 -1 d 3 X 3 -1 d 3 X 3 -1 d 3 X 4 -1 d 3 -1 d 3 X 3 -1 d 3 -1 d 3 X 3 -1 d 3 -1 d 3 -1 d 3 X 3 -1 d 3 -1 d 3 -1 d 3 -1 d 3 -1 d 3 X 3 -1 d 4 -1 d 3
 -1 d s 2050 1192 m 3 -1 d 3 -1 d 3 -1 d 3 -1 d 3 -1 d 3 -1 d 3 -1 d 3 -2 d 3 -1 d 3 -1 d 3 -1 d 3 -1 d 3 -1 d 3 -2 d 4 -1 d 3 -1 d 3 -1 d 3 -2 d 3 -1 d 3 -1 d 3 -2 d 3 -1 d 3 -2 d 3 -1 d 3 -1 d 3 -2 d 3 -1 d 3 -2 d 3 -1 d 3 -2 d 4 -1 d 3 -2 d 3 -2 d
 3 -1 d 3 -2 d 3 -1 d 3 -2 d 3 -2 d 3 -2 d 3 -1 d 3 -2 d 3 -2 d 3 -2 d 3 -1 d 3 -2 d 3 -2 d 4 -2 d 3 -2 d 3 -2 d s 2200 1121 m 3 -2 d s 0.49 0.6 0.82 c black 0.49 0.6 0.82 c
 gsave  408 305 1837 1009 C 1957.19 1293.4 t 0 r /Helvetica-Bold findfont 25.6831 sf 0 0 m (2.0 < E < 2.5 GeV) show NC gr  0.52 0.76 0.64 c black 0.52 0.76 0.64 c
 gsave  408 305 1837 1009 C 1937.25 1256.36 t 0 r /Helvetica-Bold findfont 25.6831 sf 0 0 m 
 228 214 200 193 178 171 156 149 133 126 119 105 91 77 69 55 47 39 25 17
(A = \2550.001, p = 2.000) K NC gr  1 0.6 1 c black 1 0.6 1 c
 gsave  408 305 1837 1009 C 2242.08 1122.46 t 90 r /Helvetica-Bold findfont 28.5368 sf 0 0 m (/dof=0.2) show NC gr  black 1 0.6 1 c
 gsave  408 305 1837 1009 C 2230.68 1111.07 t 90 r /Helvetica-Bold findfont 19.9758 sf 0 0 m (2) show NC gr  black 1 0.6 1 c
 gsave  408 305 1837 1009 C 2242.08 1093.97 t 90 r /Symbol findfont 28.5368 sf 0 0 m (c) show NC gr  black 3 lw 1 1 1 c 408 305 23 677 bf black 1 1 1 c black 306 229 84 723 bl 306 229 84 723 bl 84 723 m 306 X s 84 727 m -4 Y s 196 727 m -4 Y s 309
 727 m -4 Y s 309 727 m -4 Y s
 gsave  408 305 23 677 C 74.0711 703.676 t 0 r /Helvetica findfont 22.8295 sf 0 0 m (0) show NC gr 
 gsave  408 305 23 677 C 188.027 703.676 t 0 r /Helvetica findfont 22.8295 sf 0 0 m (1) show NC gr 
 gsave  408 305 23 677 C 299.133 703.676 t 0 r /Helvetica findfont 22.8295 sf 0 0 m (2) show NC gr  84 952 m 306 X s 84 948 m 4 Y s 196 948 m 4 Y s 309 948 m 4 Y s 309 948 m 4 Y s 84 723 m 229 Y s 89 744 m -5 X s 87 752 m -3 X s 87 761 m -3 X s 87
 769 m -3 X s 89 778 m -5 X s 87 786 m -3 X s 87 794 m -3 X s 87 803 m -3 X s 89 811 m -5 X s 87 820 m -3 X s 87 828 m -3 X s 87 836 m -3 X s 89 845 m -5 X s 87 853 m -3 X s 87 862 m -3 X s 87 870 m -3 X s 89 878 m -5 X s 87 887 m -3 X s 87 895 m -3
 X s 87 904 m -3 X s 89 912 m -5 X s 87 920 m -3 X s 87 929 m -3 X s 87 937 m -3 X s 89 946 m -5 X s 89 744 m -5 X s 87 736 m -3 X s 87 727 m -3 X s 89 946 m -5 X s
 gsave  408 305 23 677 C 14.2445 737.863 t 0 r /Helvetica findfont 22.8295 sf 0 0 m (\2550.012) show NC gr 
 gsave  408 305 23 677 C 31.3378 769.2 t 0 r /Helvetica findfont 22.8295 sf 0 0 m (\2550.01) show NC gr 
 gsave  408 305 23 677 C 14.2445 803.387 t 0 r /Helvetica findfont 22.8295 sf 0 0 m (\2550.008) show NC gr 
 gsave  408 305 23 677 C 14.2445 837.574 t 0 r /Helvetica findfont 22.8295 sf 0 0 m (\2550.006) show NC gr 
 gsave  408 305 23 677 C 14.2445 871.76 t 0 r /Helvetica findfont 22.8295 sf 0 0 m (\2550.004) show NC gr 
 gsave  408 305 23 677 C 14.2445 905.947 t 0 r /Helvetica findfont 22.8295 sf 0 0 m (\2550.002) show NC gr 
 gsave  408 305 23 677 C 65.5245 937.285 t 0 r /Helvetica findfont 22.8295 sf 0 0 m (0) show NC gr  390 723 m 229 Y s 385 744 m 5 X s 387 752 m 3 X s 387 761 m 3 X s 387 769 m 3 X s 385 778 m 5 X s 387 786 m 3 X s 387 794 m 3 X s 387 803 m 3 X s 385
 811 m 5 X s 387 820 m 3 X s 387 828 m 3 X s 387 836 m 3 X s 385 845 m 5 X s 387 853 m 3 X s 387 862 m 3 X s 387 870 m 3 X s 385 878 m 5 X s 387 887 m 3 X s 387 895 m 3 X s 387 904 m 3 X s 385 912 m 5 X s 387 920 m 3 X s 387 929 m 3 X s 387 937 m 3 X
 s 385 946 m 5 X s 385 744 m 5 X s 387 736 m 3 X s 387 727 m 3 X s 385 946 m 5 X s /w 22 def /w2 {w 2 div} def /w3 {w 3 div} def 140 855 196 887 309 787 365 828 4 { m21} R 140 866 m 34 Y s 134 900 m 12 X s 140 843 m -34 Y s 134 809 m 12 X s 196 899 m
 34 Y s 191 933 m 11 X s 196 876 m -34 Y s 191 842 m 11 X s 309 798 m 34 Y s 303 832 m 12 X s 309 776 m -34 Y s 303 742 m 12 X s 365 840 m 33 Y s 360 873 m 11 X s 365 817 m -34 Y s 360 783 m 11 X s 9 lw 0.95 0.95 0.95 c black 85 945 m 3 -2 d 4 -2 d 3
 -1 d 3 -2 d 3 -2 d 3 -1 d 3 -2 d 3 -2 d 3 -1 d 3 -2 d 3 -2 d 3 -2 d 3 -1 d 3 -2 d 3 -2 d 3 -1 d 3 -2 d 4 -2 d 3 -1 d 3 -2 d 3 -2 d 3 -1 d 3 -2 d 3 -2 d 3 -1 d 3 -2 d 3 -2 d 3 -1 d 3 -2 d 3 -2 d 3 -2 d 3 -1 d 3 -2 d 4 -2 d 3 -1 d 3 -2 d 3 -2 d 3 -1 d
 3 -2 d 3 -2 d 3 -1 d 3 -2 d 3 -2 d 3 -1 d 3 -2 d 3 -2 d 3 -2 d 3 -1 d 3 -2 d s 235 862 m 4 -2 d 3 -1 d 3 -2 d 3 -2 d 3 -1 d 3 -2 d 3 -2 d 3 -1 d 3 -2 d 3 -2 d 3 -1 d 3 -2 d 3 -2 d 3 -1 d 3 -2 d 3 -2 d 3 -2 d 4 -1 d 3 -2 d 3 -2 d 3 -1 d 3 -2 d 3 -2 d
 3 -1 d 3 -2 d 3 -2 d 3 -1 d 3 -2 d 3 -2 d 3 -1 d 3 -2 d 3 -2 d 3 -1 d 4 -2 d 3 -2 d 3 -2 d 3 -1 d 3 -2 d 3 -2 d 3 -1 d 3 -2 d 3 -2 d 3 -1 d 3 -2 d 3 -2 d 3 -1 d 3 -2 d 3 -2 d 3 -1 d s 385 780 m 4 -2 d s 0.49 0.6 0.82 c black 0.49 0.6 0.82 c
 gsave  408 305 23 677 C 142.445 960.076 t 0 r /Helvetica-Bold findfont 25.6831 sf 0 0 m (2.5 < E < 3.0 GeV) show NC gr  0.52 0.76 0.64 c black 0.52 0.76 0.64 c
 gsave  408 305 23 677 C 122.502 923.04 t 0 r /Helvetica-Bold findfont 25.6831 sf 0 0 m 
 228 214 200 193 178 171 156 149 134 126 119 105 91 77 69 55 47 39 25 17
(A = \2550.004, p = 1.000) K NC gr  1 0.6 1 c black 1 0.6 1 c
 gsave  408 305 23 677 C 427.334 791.991 t 90 r /Helvetica-Bold findfont 28.5368 sf 0 0 m (/dof=1.0) show NC gr  black 1 0.6 1 c
 gsave  408 305 23 677 C 415.938 780.596 t 90 r /Helvetica-Bold findfont 19.9758 sf 0 0 m (2) show NC gr  black 1 0.6 1 c
 gsave  408 305 23 677 C 427.334 763.503 t 90 r /Symbol findfont 28.5368 sf 0 0 m (c) show NC gr  black 3 lw 1 1 1 c 408 305 476 677 bf black 1 1 1 c black 307 229 537 723 bl 307 229 537 723 bl 537 723 m 307 X s 537 727 m -4 Y s 650 727 m -4 Y s 763
 727 m -4 Y s 763 727 m -4 Y s
 gsave  408 305 476 677 C 527.045 703.676 t 0 r /Helvetica findfont 22.8295 sf 0 0 m (0) show NC gr 
 gsave  408 305 476 677 C 643.849 703.676 t 0 r /Helvetica findfont 22.8295 sf 0 0 m (1) show NC gr 
 gsave  408 305 476 677 C 752.107 703.676 t 0 r /Helvetica findfont 22.8295 sf 0 0 m (2) show NC gr  537 952 m 307 X s 537 948 m 4 Y s 650 948 m 4 Y s 763 948 m 4 Y s 763 948 m 4 Y s 537 723 m 229 Y s 543 739 m -6 X s 540 748 m -3 X s 540 757 m -3 X
 s 540 766 m -3 X s 540 775 m -3 X s 543 784 m -6 X s 540 793 m -3 X s 540 802 m -3 X s 540 811 m -3 X s 540 820 m -3 X s 543 829 m -6 X s 540 838 m -3 X s 540 848 m -3 X s 540 857 m -3 X s 540 866 m -3 X s 543 875 m -6 X s 540 884 m -3 X s 540 893 m
 -3 X s 540 902 m -3 X s 540 911 m -3 X s 543 920 m -6 X s 543 739 m -6 X s 540 730 m -3 X s 543 920 m -6 X s 540 929 m -3 X s 540 938 m -3 X s 540 947 m -3 X s
 gsave  408 305 476 677 C 481.462 732.165 t 0 r /Helvetica findfont 22.8295 sf 0 0 m (\2550.02) show NC gr 
 gsave  408 305 476 677 C 467.218 777.747 t 0 r /Helvetica findfont 22.8295 sf 0 0 m (\2550.015) show NC gr 
 gsave  408 305 476 677 C 484.311 823.329 t 0 r /Helvetica findfont 22.8295 sf 0 0 m (\2550.01) show NC gr 
 gsave  408 305 476 677 C 467.218 868.911 t 0 r /Helvetica findfont 22.8295 sf 0 0 m (\2550.005) show NC gr 
 gsave  408 305 476 677 C 518.498 911.645 t 0 r /Helvetica findfont 22.8295 sf 0 0 m (0) show NC gr  844 723 m 229 Y s 838 739 m 6 X s 841 748 m 3 X s 841 757 m 3 X s 841 766 m 3 X s 841 775 m 3 X s 838 784 m 6 X s 841 793 m 3 X s 841 802 m 3 X s 841
 811 m 3 X s 841 820 m 3 X s 838 829 m 6 X s 841 838 m 3 X s 841 848 m 3 X s 841 857 m 3 X s 841 866 m 3 X s 838 875 m 6 X s 841 884 m 3 X s 841 893 m 3 X s 841 902 m 3 X s 841 911 m 3 X s 838 920 m 6 X s 838 739 m 6 X s 841 730 m 3 X s 838 920 m 6 X
 s 841 929 m 3 X s 841 938 m 3 X s 841 947 m 3 X s /w 23 def /w2 {w 2 div} def /w3 {w 3 div} def 594 904 650 893 763 811 819 770 4 { m21} R 594 916 m 17 Y s 588 933 m 11 X s 594 893 m -17 Y s 588 876 m 11 X s 650 905 m 17 Y s 644 922 m 12 X s 650 882
 m -18 Y s 644 864 m 12 X s 763 823 m 16 Y s 757 839 m 11 X s 763 800 m -17 Y s 757 783 m 11 X s 819 781 m 17 Y s 813 798 m 12 X s 819 759 m -17 Y s 813 742 m 12 X s 1 0 0 c 9 lw 0.95 0.95 0.95 c black 1 0 0 c 539 920 m 12 X 3 -1 d 9 X 4 -1 d 6 X 3
 -1 d 3 X 3 -1 d 3 X 3 -1 d 3 -1 d 3 X 3 -1 d 3 -1 d 3 -1 d 3 X 3 -1 d 3 -1 d 4 -1 d 3 -1 d 3 -1 d 3 -1 d 3 -1 d 3 -1 d 3 -1 d 3 -2 d 3 -1 d 3 -1 d 3 -1 d 3 -2 d 3 -1 d 3 -1 d 3 -2 d 3 -1 d 3 -2 d 4 -1 d 3 -2 d 3 -2 d 3 -1 d 3 -2 d 3 -2 d 3 -1 d 3 -2
 d s 689 875 m 3 -2 d 3 -2 d 3 -2 d 3 -2 d 3 -2 d 3 -2 d 3 -2 d 3 -2 d 4 -2 d 3 -2 d 3 -3 d 3 -2 d 3 -2 d 3 -3 d 3 -2 d 3 -2 d 3 -3 d 3 -2 d 3 -3 d 3 -2 d 3 -3 d 3 -3 d 3 -2 d 3 -3 d 4 -3 d 3 -2 d 3 -3 d 3 -3 d 3 -3 d 3 -3 d 3 -3 d 3 -3 d 3 -3 d 3 -3
 d 3 -3 d 3 -3 d 3 -3 d 3 -4 d 3 -3 d 3 -3 d 4 -3 d 3 -4 d 3 -3 d 3 -4 d 3 -3 d 3 -4 d 3 -3 d 3 -4 d 3 -3 d s 839 741 m 3 -4 d s 0.49 0.6 0.82 c black 0.49 0.6 0.82 c
 gsave  408 305 476 677 C 595.418 960.076 t 0 r /Helvetica-Bold findfont 25.6831 sf 0 0 m (3.0 < E < 3.5 GeV) show NC gr  0.52 0.76 0.64 c black 0.52 0.76 0.64 c
 gsave  408 305 476 677 C 575.476 923.04 t 0 r /Helvetica-Bold findfont 25.6831 sf 0 0 m 
 228 214 200 193 178 171 156 149 133 126 119 105 91 76 69 55 47 39 25 17
(A = \2550.003, p = 2.000) K NC gr  1 0.6 1 c black 1 0.6 1 c
 gsave  408 305 476 677 C 883.156 791.991 t 90 r /Helvetica-Bold findfont 28.5368 sf 0 0 m (/dof=0.1) show NC gr  black 1 0.6 1 c
 gsave  408 305 476 677 C 871.76 780.596 t 90 r /Helvetica-Bold findfont 19.9758 sf 0 0 m (2) show NC gr  black 1 0.6 1 c
 gsave  408 305 476 677 C 883.156 763.503 t 90 r /Symbol findfont 28.5368 sf 0 0 m (c) show NC gr  black 3 lw 1 1 1 c 408 305 930 677 bf black 1 1 1 c black 306 229 991 723 bl 306 229 991 723 bl 991 723 m 306 X s 991 727 m -4 Y s 1104 727 m -4 Y s
 1216 727 m -4 Y s 1216 727 m -4 Y s
 gsave  408 305 930 677 C 980.018 703.676 t 0 r /Helvetica findfont 22.8295 sf 0 0 m (0) show NC gr 
 gsave  408 305 930 677 C 1096.82 703.676 t 0 r /Helvetica findfont 22.8295 sf 0 0 m (1) show NC gr 
 gsave  408 305 930 677 C 1205.08 703.676 t 0 r /Helvetica findfont 22.8295 sf 0 0 m (2) show NC gr  991 952 m 306 X s 991 948 m 4 Y s 1104 948 m 4 Y s 1216 948 m 4 Y s 1216 948 m 4 Y s 991 723 m 229 Y s 997 734 m -6 X s 994 740 m -3 X s 994 747 m -3
 X s 994 753 m -3 X s 994 759 m -3 X s 997 765 m -6 X s 994 771 m -3 X s 994 777 m -3 X s 994 783 m -3 X s 994 789 m -3 X s 997 796 m -6 X s 994 802 m -3 X s 994 808 m -3 X s 994 814 m -3 X s 994 820 m -3 X s 997 826 m -6 X s 994 832 m -3 X s 994 838
 m -3 X s 994 844 m -3 X s 994 851 m -3 X s 997 857 m -6 X s 994 863 m -3 X s 994 869 m -3 X s 994 875 m -3 X s 994 881 m -3 X s 997 887 m -6 X s 994 893 m -3 X s 994 900 m -3 X s 994 906 m -3 X s 994 912 m -3 X s 997 918 m -6 X s 994 924 m -3 X s
 994 930 m -3 X s 994 936 m -3 X s 994 942 m -3 X s 997 948 m -6 X s 997 734 m -6 X s 994 728 m -3 X s 997 948 m -6 X s
 gsave  408 305 930 677 C 923.04 726.467 t 0 r /Helvetica findfont 22.8295 sf 0 0 m (\2550.025) show NC gr 
 gsave  408 305 930 677 C 937.285 757.805 t 0 r /Helvetica findfont 22.8295 sf 0 0 m (\2550.02) show NC gr 
 gsave  408 305 930 677 C 923.04 789.143 t 0 r /Helvetica findfont 22.8295 sf 0 0 m (\2550.015) show NC gr 
 gsave  408 305 930 677 C 940.134 817.631 t 0 r /Helvetica findfont 22.8295 sf 0 0 m (\2550.01) show NC gr 
 gsave  408 305 930 677 C 923.04 848.969 t 0 r /Helvetica findfont 22.8295 sf 0 0 m (\2550.005) show NC gr 
 gsave  408 305 930 677 C 974.32 880.307 t 0 r /Helvetica findfont 22.8295 sf 0 0 m (0) show NC gr 
 gsave  408 305 930 677 C 931.587 911.645 t 0 r /Helvetica findfont 22.8295 sf 0 0 m (0.005) show NC gr 
 gsave  408 305 930 677 C 945.832 940.134 t 0 r /Helvetica findfont 22.8295 sf 0 0 m (0.01) show NC gr  1297 723 m 229 Y s 1292 734 m 5 X s 1294 740 m 3 X s 1294 747 m 3 X s 1294 753 m 3 X s 1294 759 m 3 X s 1292 765 m 5 X s 1294 771 m 3 X s 1294 777
 m 3 X s 1294 783 m 3 X s 1294 789 m 3 X s 1292 796 m 5 X s 1294 802 m 3 X s 1294 808 m 3 X s 1294 814 m 3 X s 1294 820 m 3 X s 1292 826 m 5 X s 1294 832 m 3 X s 1294 838 m 3 X s 1294 844 m 3 X s 1294 851 m 3 X s 1292 857 m 5 X s 1294 863 m 3 X s
 1294 869 m 3 X s 1294 875 m 3 X s 1294 881 m 3 X s 1292 887 m 5 X s 1294 893 m 3 X s 1294 900 m 3 X s 1294 906 m 3 X s 1294 912 m 3 X s 1292 918 m 5 X s 1294 924 m 3 X s 1294 930 m 3 X s 1294 936 m 3 X s 1294 942 m 3 X s 1292 948 m 5 X s 1292 734 m
 5 X s 1294 728 m 3 X s 1292 948 m 5 X s 1047 909 1104 850 1216 823 1272 766 4 { m21} R 1047 920 m 13 Y s 1042 933 m 11 X s 1047 897 m -13 Y s 1042 884 m 11 X s 1104 862 m 12 Y s 1098 874 m 11 X s 1104 839 m -13 Y s 1098 826 m 11 X s 1216 834 m 13 Y
 s 1210 847 m 12 X s 1216 812 m -13 Y s 1210 799 m 12 X s 1272 777 m 13 Y s 1267 790 m 11 X s 1272 755 m -13 Y s 1267 742 m 11 X s 1 0 0 c 9 lw 0.95 0.95 0.95 c black 1 0 0 c 993 887 m 21 X 3 -1 d 6 X 3 -1 d 6 X 3 -1 d 7 X 3 -1 d 3 X 3 -1 d 3 -1 d 3
 X 3 -1 d 3 X 3 -1 d 3 -1 d 3 X 3 -1 d 3 -1 d 3 -1 d 3 -1 d 3 X 3 -1 d 4 -1 d 3 -1 d 3 -1 d 3 -1 d 3 -1 d 3 -1 d 3 -1 d 3 -1 d 3 -1 d 3 -2 d 3 -1 d 3 -1 d 3 -1 d 3 -2 d 3 -1 d 3 -1 d 4 -2 d s 1143 853 m 3 -1 d 3 -1 d 3 -2 d 3 -1 d 3 -2 d 3 -1 d 3 -2
 d 3 -1 d 3 -2 d 3 -2 d 3 -1 d 3 -2 d 3 -2 d 3 -1 d 3 -2 d 4 -2 d 3 -2 d 3 -2 d 3 -1 d 3 -2 d 3 -2 d 3 -2 d 3 -2 d 3 -2 d 3 -2 d 3 -2 d 3 -3 d 3 -2 d 3 -2 d 3 -2 d 3 -2 d 3 -2 d 4 -3 d 3 -2 d 3 -2 d 3 -3 d 3 -2 d 3 -2 d 3 -3 d 3 -2 d 3 -3 d 3 -2 d 3
 -3 d 3 -2 d 3 -3 d 3 -3 d 3 -2 d 3 -3 d 4 -3 d s 1293 753 m 3 -2 d s 0.49 0.6 0.82 c black 0.49 0.6 0.82 c
 gsave  408 305 930 677 C 1051.24 960.076 t 0 r /Helvetica-Bold findfont 25.6831 sf 0 0 m (3.5 < E < 4.0 GeV) show NC gr  0.52 0.76 0.64 c black 0.52 0.76 0.64 c
 gsave  408 305 930 677 C 1031.3 923.04 t 0 r /Helvetica-Bold findfont 25.6831 sf 0 0 m 
 228 214 200 193 178 171 156 149 133 126 119 105 91 77 69 55 47 39 25 17
(A = \2550.003, p = 2.000) K NC gr  1 0.6 1 c black 1 0.6 1 c
 gsave  408 305 930 677 C 1336.13 791.991 t 90 r /Helvetica-Bold findfont 28.5368 sf 0 0 m (/dof=0.6) show NC gr  black 1 0.6 1 c
 gsave  408 305 930 677 C 1324.73 780.596 t 90 r /Helvetica-Bold findfont 19.9758 sf 0 0 m (2) show NC gr  black 1 0.6 1 c
 gsave  408 305 930 677 C 1336.13 763.503 t 90 r /Symbol findfont 28.5368 sf 0 0 m (c) show NC gr  black 3 lw 1 1 1 c 408 305 1383 677 bf black 1 1 1 c black 306 229 1445 723 bl 306 229 1445 723 bl 1445 723 m 306 X s 1445 727 m -4 Y s 1557 727 m -4 Y
 s 1670 727 m -4 Y s 1670 727 m -4 Y s
 gsave  408 305 1383 677 C 1435.84 703.676 t 0 r /Helvetica findfont 22.8295 sf 0 0 m (0) show NC gr 
 gsave  408 305 1383 677 C 1549.8 703.676 t 0 r /Helvetica findfont 22.8295 sf 0 0 m (1) show NC gr 
 gsave  408 305 1383 677 C 1660.9 703.676 t 0 r /Helvetica findfont 22.8295 sf 0 0 m (2) show NC gr  1445 952 m 306 X s 1445 948 m 4 Y s 1557 948 m 4 Y s 1670 948 m 4 Y s 1670 948 m 4 Y s 1445 723 m 229 Y s 1450 750 m -5 X s 1447 759 m -2 X s 1447
 768 m -2 X s 1447 777 m -2 X s 1447 786 m -2 X s 1450 795 m -5 X s 1447 803 m -2 X s 1447 812 m -2 X s 1447 821 m -2 X s 1447 830 m -2 X s 1450 839 m -5 X s 1447 848 m -2 X s 1447 857 m -2 X s 1447 866 m -2 X s 1447 874 m -2 X s 1450 883 m -5 X s
 1447 892 m -2 X s 1447 901 m -2 X s 1447 910 m -2 X s 1447 919 m -2 X s 1450 928 m -5 X s 1450 750 m -5 X s 1447 741 m -2 X s 1447 733 m -2 X s 1447 724 m -2 X s 1450 928 m -5 X s 1447 937 m -2 X s 1447 945 m -2 X s
 gsave  408 305 1383 677 C 1376.01 743.56 t 0 r /Helvetica findfont 22.8295 sf 0 0 m (\2550.015) show NC gr 
 gsave  408 305 1383 677 C 1393.11 786.294 t 0 r /Helvetica findfont 22.8295 sf 0 0 m (\2550.01) show NC gr 
 gsave  408 305 1383 677 C 1376.01 831.876 t 0 r /Helvetica findfont 22.8295 sf 0 0 m (\2550.005) show NC gr 
 gsave  408 305 1383 677 C 1427.29 877.458 t 0 r /Helvetica findfont 22.8295 sf 0 0 m (0) show NC gr 
 gsave  408 305 1383 677 C 1384.56 920.192 t 0 r /Helvetica findfont 22.8295 sf 0 0 m (0.005) show NC gr  1751 723 m 229 Y s 1745 750 m 6 X s 1748 759 m 3 X s 1748 768 m 3 X s 1748 777 m 3 X s 1748 786 m 3 X s 1745 795 m 6 X s 1748 803 m 3 X s 1748
 812 m 3 X s 1748 821 m 3 X s 1748 830 m 3 X s 1745 839 m 6 X s 1748 848 m 3 X s 1748 857 m 3 X s 1748 866 m 3 X s 1748 874 m 3 X s 1745 883 m 6 X s 1748 892 m 3 X s 1748 901 m 3 X s 1748 910 m 3 X s 1748 919 m 3 X s 1745 928 m 6 X s 1745 750 m 6 X s
 1748 741 m 3 X s 1748 733 m 3 X s 1748 724 m 3 X s 1745 928 m 6 X s 1748 937 m 3 X s 1748 945 m 3 X s 1501 789 1557 873 1670 827 1726 885 4 { m21} R 1501 801 m 35 Y s 1495 836 m 12 X s 1501 778 m -36 Y s 1495 742 m 12 X s 1557 884 m 36 Y s 1551 920
 m 12 X s 1557 861 m -36 Y s 1551 825 m 12 X s 1670 839 m 36 Y s 1664 875 m 11 X s 1670 816 m -36 Y s 1664 780 m 11 X s 1726 896 m 37 Y s 1720 933 m 12 X s 1726 874 m -37 Y s 1720 837 m 12 X s 9 lw 0.95 0.95 0.95 c black 1446 883 m 3 X 3 -1 d 6 X 3
 -1 d 3 X 3 -1 d 7 X 3 -1 d 3 X 3 -1 d 6 X 3 -1 d 3 X 3 -1 d 6 X 3 -1 d 3 X 3 -1 d 7 X 3 -1 d 3 X 3 -1 d 6 X 3 -1 d 3 X 3 -1 d 6 X 3 -1 d 3 X 3 -1 d 6 X 4 -1 d 3 X 3 -1 d 6 X 3 -1 d 6 X 3 -1 d 3 X s 1596 864 m 3 -1 d 6 X 3 -1 d 3 X 3 -1 d 7 X 3 -1 d
 3 X 3 -1 d 6 X 3 -1 d 3 X 3 -1 d 6 X 3 -1 d 3 X 3 -1 d 6 X 4 -1 d 3 X 3 -1 d 6 X 3 -1 d 3 X 3 -1 d 6 X 3 -1 d 3 X 3 -1 d 6 X 3 -1 d 7 X 3 -1 d 3 X 3 -1 d 6 X 3 -1 d 3 X 3 -1 d s 1746 844 m 3 X s 0.49 0.6 0.82 c black 0.49 0.6 0.82 c
 gsave  408 305 1383 677 C 1504.21 960.076 t 0 r /Helvetica-Bold findfont 25.6831 sf 0 0 m (4.0 < E < 4.5 GeV) show NC gr  0.52 0.76 0.64 c black 0.52 0.76 0.64 c
 gsave  408 305 1383 677 C 1484.27 923.04 t 0 r /Helvetica-Bold findfont 25.6831 sf 0 0 m 
 228 214 200 193 178 171 156 149 134 126 119 105 91 77 69 55 47 40 25 17
(A = \2550.002, p = 1.000) K NC gr  1 0.6 1 c black 1 0.6 1 c
 gsave  408 305 1383 677 C 1789.1 791.991 t 90 r /Helvetica-Bold findfont 28.5368 sf 0 0 m (/dof=1.5) show NC gr  black 1 0.6 1 c
 gsave  408 305 1383 677 C 1777.71 780.596 t 90 r /Helvetica-Bold findfont 19.9758 sf 0 0 m (2) show NC gr  black 1 0.6 1 c
 gsave  408 305 1383 677 C 1789.1 763.503 t 90 r /Symbol findfont 28.5368 sf 0 0 m (c) show NC gr  black 3 lw 1 1 1 c 408 305 1837 677 bf black 1 1 1 c black 306 229 1898 723 bl 306 229 1898 723 bl 1898 723 m 306 X s 1898 727 m -4 Y s 2011 727 m -4 Y
 s 2123 727 m -4 Y s 2123 727 m -4 Y s
 gsave  408 305 1837 677 C 1888.81 703.676 t 0 r /Helvetica findfont 22.8295 sf 0 0 m (0) show NC gr 
 gsave  408 305 1837 677 C 2002.77 703.676 t 0 r /Helvetica findfont 22.8295 sf 0 0 m (1) show NC gr 
 gsave  408 305 1837 677 C 2113.88 703.676 t 0 r /Helvetica findfont 22.8295 sf 0 0 m (2) show NC gr  1898 952 m 306 X s 1898 948 m 4 Y s 2011 948 m 4 Y s 2123 948 m 4 Y s 2123 948 m 4 Y s 1898 723 m 229 Y s 1904 723 m -6 X s 1901 732 m -3 X s 1901
 741 m -3 X s 1901 749 m -3 X s 1901 758 m -3 X s 1904 767 m -6 X s 1901 776 m -3 X s 1901 785 m -3 X s 1901 794 m -3 X s 1901 803 m -3 X s 1904 812 m -6 X s 1901 820 m -3 X s 1901 829 m -3 X s 1901 838 m -3 X s 1901 847 m -3 X s 1904 856 m -6 X s
 1901 865 m -3 X s 1901 874 m -3 X s 1901 882 m -3 X s 1901 891 m -3 X s 1904 900 m -6 X s 1901 909 m -3 X s 1901 918 m -3 X s 1901 927 m -3 X s 1901 936 m -3 X s 1904 945 m -6 X s 1904 945 m -6 X s
 gsave  408 305 1837 677 C 1880.27 715.071 t 0 r /Helvetica findfont 22.8295 sf 0 0 m (0) show NC gr 
 gsave  408 305 1837 677 C 1851.78 760.654 t 0 r /Helvetica findfont 22.8295 sf 0 0 m (0.01) show NC gr 
 gsave  408 305 1837 677 C 1848.93 803.387 t 0 r /Helvetica findfont 22.8295 sf 0 0 m (0.02) show NC gr 
 gsave  408 305 1837 677 C 1848.93 848.969 t 0 r /Helvetica findfont 22.8295 sf 0 0 m (0.03) show NC gr 
 gsave  408 305 1837 677 C 1848.93 891.703 t 0 r /Helvetica findfont 22.8295 sf 0 0 m (0.04) show NC gr 
 gsave  408 305 1837 677 C 1848.93 937.285 t 0 r /Helvetica findfont 22.8295 sf 0 0 m (0.05) show NC gr  2204 723 m 229 Y s 2199 723 m 5 X s 2201 732 m 3 X s 2201 741 m 3 X s 2201 749 m 3 X s 2201 758 m 3 X s 2199 767 m 5 X s 2201 776 m 3 X s 2201
 785 m 3 X s 2201 794 m 3 X s 2201 803 m 3 X s 2199 812 m 5 X s 2201 820 m 3 X s 2201 829 m 3 X s 2201 838 m 3 X s 2201 847 m 3 X s 2199 856 m 5 X s 2201 865 m 3 X s 2201 874 m 3 X s 2201 882 m 3 X s 2201 891 m 3 X s 2199 900 m 5 X s 2201 909 m 3 X s
 2201 918 m 3 X s 2201 927 m 3 X s 2201 936 m 3 X s 2199 945 m 5 X s 2199 945 m 5 X s 1954 759 2011 774 2123 898 2179 894 4 { m21} R 1954 771 m 21 Y s 1949 792 m 11 X s 1954 748 m -22 Y s 1949 726 m 11 X s 2011 786 m 22 Y s 2005 808 m 11 X s 2011 763
 m -22 Y s 2005 741 m 11 X s 2123 909 m 22 Y s 2117 931 m 12 X s 2123 886 m -22 Y s 2117 864 m 12 X s 2179 905 m 22 Y s 2174 927 m 11 X s 2179 882 m -22 Y s 2174 860 m 11 X s 9 lw 0.95 0.95 0.95 c black 1900 724 m 3 2 d 3 2 d 3 2 d 3 2 d 3 2 d 3 2 d
 3 2 d 3 2 d 3 2 d 3 2 d 3 2 d 3 2 d 3 2 d 3 2 d 4 2 d 3 2 d 3 2 d 3 2 d 3 2 d 3 2 d 3 2 d 3 2 d 3 2 d 3 2 d 3 2 d 3 2 d 3 2 d 3 2 d 3 2 d 3 2 d 4 2 d 3 2 d 3 2 d 3 2 d 3 2 d 3 2 d 3 2 d 3 2 d 3 2 d 3 2 d 3 2 d 3 2 d 3 2 d 3 2 d 3 2 d 3 2 d 3 2 d 4 2
 d 3 2 d s 2050 822 m 3 2 d 3 2 d 3 2 d 3 2 d 3 2 d 3 2 d 3 2 d 3 2 d 3 2 d 3 2 d 3 2 d 3 2 d 3 2 d 3 2 d 4 2 d 3 2 d 3 2 d 3 2 d 3 2 d 3 2 d 3 2 d 3 2 d 3 2 d 3 2 d 3 2 d 3 2 d 3 2 d 3 2 d 3 2 d 3 2 d 4 2 d 3 2 d 3 2 d 3 2 d 3 2 d 3 2 d 3 2 d 3 2 d
 3 2 d 3 2 d 3 2 d 3 2 d 3 2 d 3 2 d 3 2 d 3 2 d 4 2 d 3 2 d 3 2 d s 2200 920 m 3 2 d s 0.49 0.6 0.82 c black 0.49 0.6 0.82 c
 gsave  408 305 1837 677 C 1957.19 960.076 t 0 r /Helvetica-Bold findfont 25.6831 sf 0 0 m (4.5 < E < 5.0 GeV) show NC gr  0.52 0.76 0.64 c black 0.52 0.76 0.64 c
 gsave  408 305 1837 677 C 1942.94 923.04 t 0 r /Helvetica-Bold findfont 25.6831 sf 0 0 m 
 220 206 192 185 170 163 148 141 125 118 111 97 83 69 61 47 40 25 18
(A = 0.017, p = 1.000) K NC gr  1 0.6 1 c black 1 0.6 1 c
 gsave  408 305 1837 677 C 2242.08 791.991 t 90 r /Helvetica-Bold findfont 28.5368 sf 0 0 m (/dof=0.4) show NC gr  black 1 0.6 1 c
 gsave  408 305 1837 677 C 2230.68 780.596 t 90 r /Helvetica-Bold findfont 19.9758 sf 0 0 m (2) show NC gr  black 1 0.6 1 c
 gsave  408 305 1837 677 C 2242.08 763.503 t 90 r /Symbol findfont 28.5368 sf 0 0 m (c) show NC gr  black 3 lw 1 1 1 c 408 306 23 345 bf black 1 1 1 c black 306 229 84 391 bl 306 229 84 391 bl 84 391 m 306 X s 84 395 m -4 Y s 196 395 m -4 Y s 309 395
 m -4 Y s 309 395 m -4 Y s
 gsave  408 306 23 345 C 74.0711 370.356 t 0 r /Helvetica findfont 22.8295 sf 0 0 m (0) show NC gr 
 gsave  408 306 23 345 C 188.027 370.356 t 0 r /Helvetica findfont 22.8295 sf 0 0 m (1) show NC gr 
 gsave  408 306 23 345 C 299.133 370.356 t 0 r /Helvetica findfont 22.8295 sf 0 0 m (2) show NC gr  84 620 m 306 X s 84 616 m 4 Y s 196 616 m 4 Y s 309 616 m 4 Y s 309 616 m 4 Y s 84 391 m 229 Y s 89 397 m -5 X s 87 402 m -3 X s 87 407 m -3 X s 87
 412 m -3 X s 87 417 m -3 X s 89 422 m -5 X s 87 427 m -3 X s 87 432 m -3 X s 87 436 m -3 X s 87 441 m -3 X s 89 446 m -5 X s 87 451 m -3 X s 87 456 m -3 X s 87 461 m -3 X s 87 466 m -3 X s 89 470 m -5 X s 87 475 m -3 X s 87 480 m -3 X s 87 485 m -3
 X s 87 490 m -3 X s 89 495 m -5 X s 87 500 m -3 X s 87 505 m -3 X s 87 509 m -3 X s 87 514 m -3 X s 89 519 m -5 X s 87 524 m -3 X s 87 529 m -3 X s 87 534 m -3 X s 87 539 m -3 X s 89 544 m -5 X s 87 548 m -3 X s 87 553 m -3 X s 87 558 m -3 X s 87
 563 m -3 X s 89 568 m -5 X s 87 573 m -3 X s 87 578 m -3 X s 87 583 m -3 X s 87 587 m -3 X s 89 592 m -5 X s 87 597 m -3 X s 87 602 m -3 X s 87 607 m -3 X s 87 612 m -3 X s 89 617 m -5 X s 89 397 m -5 X s 87 393 m -3 X s 89 617 m -5 X s
 gsave  408 306 23 345 C 31.3378 390.298 t 0 r /Helvetica findfont 22.8295 sf 0 0 m (\2550.01) show NC gr 
 gsave  408 306 23 345 C 65.5245 415.938 t 0 r /Helvetica findfont 22.8295 sf 0 0 m (0) show NC gr 
 gsave  408 306 23 345 C 37.0356 438.729 t 0 r /Helvetica findfont 22.8295 sf 0 0 m (0.01) show NC gr 
 gsave  408 306 23 345 C 34.1867 464.369 t 0 r /Helvetica findfont 22.8295 sf 0 0 m (0.02) show NC gr 
 gsave  408 306 23 345 C 34.1867 487.16 t 0 r /Helvetica findfont 22.8295 sf 0 0 m (0.03) show NC gr 
 gsave  408 306 23 345 C 34.1867 512.8 t 0 r /Helvetica findfont 22.8295 sf 0 0 m (0.04) show NC gr 
 gsave  408 306 23 345 C 34.1867 535.591 t 0 r /Helvetica findfont 22.8295 sf 0 0 m (0.05) show NC gr 
 gsave  408 306 23 345 C 34.1867 561.231 t 0 r /Helvetica findfont 22.8295 sf 0 0 m (0.06) show NC gr 
 gsave  408 306 23 345 C 34.1867 584.022 t 0 r /Helvetica findfont 22.8295 sf 0 0 m (0.07) show NC gr 
 gsave  408 306 23 345 C 34.1867 609.662 t 0 r /Helvetica findfont 22.8295 sf 0 0 m (0.08) show NC gr  390 391 m 229 Y s 385 397 m 5 X s 387 402 m 3 X s 387 407 m 3 X s 387 412 m 3 X s 387 417 m 3 X s 385 422 m 5 X s 387 427 m 3 X s 387 432 m 3 X s
 387 436 m 3 X s 387 441 m 3 X s 385 446 m 5 X s 387 451 m 3 X s 387 456 m 3 X s 387 461 m 3 X s 387 466 m 3 X s 385 470 m 5 X s 387 475 m 3 X s 387 480 m 3 X s 387 485 m 3 X s 387 490 m 3 X s 385 495 m 5 X s 387 500 m 3 X s 387 505 m 3 X s 387 509 m
 3 X s 387 514 m 3 X s 385 519 m 5 X s 387 524 m 3 X s 387 529 m 3 X s 387 534 m 3 X s 387 539 m 3 X s 385 544 m 5 X s 387 548 m 3 X s 387 553 m 3 X s 387 558 m 3 X s 387 563 m 3 X s 385 568 m 5 X s 387 573 m 3 X s 387 578 m 3 X s 387 583 m 3 X s 387
 587 m 3 X s 385 592 m 5 X s 387 597 m 3 X s 387 602 m 3 X s 387 607 m 3 X s 387 612 m 3 X s 385 617 m 5 X s 385 397 m 5 X s 387 393 m 3 X s 385 617 m 5 X s /w 22 def /w2 {w 2 div} def /w3 {w 3 div} def 140 434 196 449 309 549 365 576 4 { m21} R 140
 445 m 13 Y s 134 458 m 12 X s 140 423 m -13 Y s 134 410 m 12 X s 196 461 m 12 Y s 191 473 m 11 X s 196 438 m -13 Y s 191 425 m 11 X s 309 560 m 13 Y s 303 573 m 12 X s 309 537 m -13 Y s 303 524 m 12 X s 365 588 m 13 Y s 360 601 m 11 X s 365 565 m
 -14 Y s 360 551 m 11 X s 1 0 0 c 9 lw 0.95 0.95 0.95 c black 1 0 0 c 85 422 m 16 X 3 1 d 6 X 3 1 d 6 X 3 1 d 3 X 3 1 d 3 1 d 3 X 3 1 d 4 1 d 3 X 3 1 d 3 1 d 3 1 d 3 1 d 3 1 d 3 1 d 3 1 d 3 1 d 3 1 d 3 1 d 3 1 d 3 1 d 3 2 d 3 1 d 4 1 d 3 2 d 3 1 d 3
 2 d 3 1 d 3 2 d 3 1 d 3 2 d 3 2 d 3 1 d 3 2 d 3 2 d 3 2 d 3 2 d 3 1 d 3 2 d s 235 470 m 4 2 d 3 2 d 3 2 d 3 3 d 3 2 d 3 2 d 3 2 d 3 2 d 3 3 d 3 2 d 3 2 d 3 3 d 3 2 d 3 3 d 3 2 d 3 3 d 3 2 d 4 3 d 3 3 d 3 3 d 3 2 d 3 3 d 3 3 d 3 3 d 3 3 d 3 3 d 3 3 d
 3 3 d 3 3 d 3 3 d 3 3 d 3 4 d 3 3 d 4 3 d 3 3 d 3 4 d 3 3 d 3 4 d 3 3 d 3 4 d 3 3 d 3 4 d 3 3 d 3 4 d 3 4 d 3 4 d 3 3 d 3 4 d 3 4 d s 385 614 m 4 4 d s 0.49 0.6 0.82 c black 0.49 0.6 0.82 c
 gsave  408 306 23 345 C 142.445 629.605 t 0 r /Helvetica-Bold findfont 25.6831 sf 0 0 m (5.0 < E < 5.5 GeV) show NC gr  0.52 0.76 0.64 c black 0.52 0.76 0.64 c
 gsave  408 306 23 345 C 128.2 592.569 t 0 r /Helvetica-Bold findfont 25.6831 sf 0 0 m 
 218 204 190 183 168 161 146 139 124 116 109 95 82 68 61 47 39 24 17
(A = 0.011, p = 2.000) K NC gr  1 0.6 1 c black 1 0.6 1 c
 gsave  408 306 23 345 C 427.334 458.671 t 90 r /Helvetica-Bold findfont 28.5368 sf 0 0 m (/dof=0.3) show NC gr  black 1 0.6 1 c
 gsave  408 306 23 345 C 415.938 447.276 t 90 r /Helvetica-Bold findfont 19.9758 sf 0 0 m (2) show NC gr  black 1 0.6 1 c
 gsave  408 306 23 345 C 427.334 430.182 t 90 r /Symbol findfont 28.5368 sf 0 0 m (c) show NC gr  black 3 lw 1 1 1 c 408 306 476 345 bf black 1 1 1 c black 307 229 537 391 bl 307 229 537 391 bl 537 391 m 307 X s 537 395 m -4 Y s 650 395 m -4 Y s 763
 395 m -4 Y s 763 395 m -4 Y s
 gsave  408 306 476 345 C 527.045 370.356 t 0 r /Helvetica findfont 22.8295 sf 0 0 m (0) show NC gr 
 gsave  408 306 476 345 C 643.849 370.356 t 0 r /Helvetica findfont 22.8295 sf 0 0 m (1) show NC gr 
 gsave  408 306 476 345 C 752.107 370.356 t 0 r /Helvetica findfont 22.8295 sf 0 0 m (2) show NC gr  537 620 m 307 X s 537 616 m 4 Y s 650 616 m 4 Y s 763 616 m 4 Y s 763 616 m 4 Y s 537 391 m 229 Y s 543 400 m -6 X s 540 410 m -3 X s 540 420 m -3 X
 s 540 431 m -3 X s 543 441 m -6 X s 540 452 m -3 X s 540 462 m -3 X s 540 473 m -3 X s 543 483 m -6 X s 540 494 m -3 X s 540 504 m -3 X s 540 514 m -3 X s 543 525 m -6 X s 540 535 m -3 X s 540 546 m -3 X s 540 556 m -3 X s 543 567 m -6 X s 540 577 m
 -3 X s 540 588 m -3 X s 540 598 m -3 X s 543 608 m -6 X s 543 400 m -6 X s 543 608 m -6 X s 540 619 m -3 X s
 gsave  408 306 476 345 C 481.462 393.147 t 0 r /Helvetica findfont 22.8295 sf 0 0 m (\2550.02) show NC gr 
 gsave  408 306 476 345 C 518.498 433.031 t 0 r /Helvetica findfont 22.8295 sf 0 0 m (0) show NC gr 
 gsave  408 306 476 345 C 487.16 475.765 t 0 r /Helvetica findfont 22.8295 sf 0 0 m (0.02) show NC gr 
 gsave  408 306 476 345 C 487.16 518.498 t 0 r /Helvetica findfont 22.8295 sf 0 0 m (0.04) show NC gr 
 gsave  408 306 476 345 C 487.16 558.382 t 0 r /Helvetica findfont 22.8295 sf 0 0 m (0.06) show NC gr 
 gsave  408 306 476 345 C 487.16 601.116 t 0 r /Helvetica findfont 22.8295 sf 0 0 m (0.08) show NC gr  844 391 m 229 Y s 838 400 m 6 X s 841 410 m 3 X s 841 420 m 3 X s 841 431 m 3 X s 838 441 m 6 X s 841 452 m 3 X s 841 462 m 3 X s 841 473 m 3 X s
 838 483 m 6 X s 841 494 m 3 X s 841 504 m 3 X s 841 514 m 3 X s 838 525 m 6 X s 841 535 m 3 X s 841 546 m 3 X s 841 556 m 3 X s 838 567 m 6 X s 841 577 m 3 X s 841 588 m 3 X s 841 598 m 3 X s 838 608 m 6 X s 838 400 m 6 X s 838 608 m 6 X s 841 619 m
 3 X s /w 23 def /w2 {w 2 div} def /w3 {w 3 div} def 594 461 650 436 763 555 819 574 4 { m21} R 594 472 m 14 Y s 588 486 m 11 X s 594 449 m -14 Y s 588 435 m 11 X s 650 447 m 14 Y s 644 461 m 12 X s 650 424 m -14 Y s 644 410 m 12 X s 763 566 m 15 Y s
 757 581 m 11 X s 763 543 m -15 Y s 757 528 m 11 X s 819 586 m 15 Y s 813 601 m 12 X s 819 563 m -15 Y s 813 548 m 12 X s 1 0 0 c 9 lw 0.95 0.95 0.95 c black 1 0 0 c 539 441 m 6 X 3 1 d 12 X 3 1 d 7 X 3 1 d 6 X 3 1 d 3 X 3 1 d 3 1 d 3 X 3 1 d 3 X 3 1
 d 3 1 d 3 1 d 3 X 4 1 d 3 1 d 3 1 d 3 1 d 3 1 d 3 1 d 3 1 d 3 1 d 3 1 d 3 1 d 3 2 d 3 1 d 3 1 d 3 1 d 3 2 d 3 1 d 3 1 d 4 2 d 3 1 d 3 2 d 3 1 d 3 2 d 3 1 d 3 2 d 3 2 d s 689 483 m 3 1 d 3 2 d 3 2 d 3 2 d 3 2 d 3 1 d 3 2 d 3 2 d 4 2 d 3 2 d 3 2 d 3 2
 d 3 2 d 3 3 d 3 2 d 3 2 d 3 2 d 3 2 d 3 3 d 3 2 d 3 2 d 3 3 d 3 2 d 3 3 d 4 2 d 3 3 d 3 2 d 3 3 d 3 3 d 3 2 d 3 3 d 3 3 d 3 2 d 3 3 d 3 3 d 3 3 d 3 3 d 3 3 d 3 3 d 3 3 d 4 3 d 3 3 d 3 3 d 3 3 d 3 3 d 3 4 d 3 3 d 3 3 d 3 3 d s 839 605 m 3 4 d s 0.49
 0.6 0.82 c black 0.49 0.6 0.82 c
 gsave  408 306 476 345 C 595.418 629.605 t 0 r /Helvetica-Bold findfont 25.6831 sf 0 0 m (5.5 < E < 6.0 GeV) show NC gr  0.52 0.76 0.64 c black 0.52 0.76 0.64 c
 gsave  408 306 476 345 C 581.174 592.569 t 0 r /Helvetica-Bold findfont 25.6831 sf 0 0 m 
 218 204 190 183 168 161 146 139 123 116 109 95 82 68 61 47 39 24 17
(A = 0.011, p = 2.000) K NC gr  1 0.6 1 c black 1 0.6 1 c
 gsave  408 306 476 345 C 883.156 458.671 t 90 r /Helvetica-Bold findfont 28.5368 sf 0 0 m (/dof=0.8) show NC gr  black 1 0.6 1 c
 gsave  408 306 476 345 C 871.76 447.276 t 90 r /Helvetica-Bold findfont 19.9758 sf 0 0 m (2) show NC gr  black 1 0.6 1 c
 gsave  408 306 476 345 C 883.156 430.182 t 90 r /Symbol findfont 28.5368 sf 0 0 m (c) show NC gr  black 3 lw 1 1 1 c 408 306 930 345 bf black 1 1 1 c black 306 229 991 391 bl 306 229 991 391 bl 991 391 m 306 X s 991 395 m -4 Y s 1104 395 m -4 Y s
 1216 395 m -4 Y s 1216 395 m -4 Y s
 gsave  408 306 930 345 C 980.018 370.356 t 0 r /Helvetica findfont 22.8295 sf 0 0 m (0) show NC gr 
 gsave  408 306 930 345 C 1096.82 370.356 t 0 r /Helvetica findfont 22.8295 sf 0 0 m (1) show NC gr 
 gsave  408 306 930 345 C 1205.08 370.356 t 0 r /Helvetica findfont 22.8295 sf 0 0 m (2) show NC gr  991 620 m 306 X s 991 616 m 4 Y s 1104 616 m 4 Y s 1216 616 m 4 Y s 1216 616 m 4 Y s 991 391 m 229 Y s 997 411 m -6 X s 994 420 m -3 X s 994 429 m -3
 X s 994 438 m -3 X s 997 447 m -6 X s 994 456 m -3 X s 994 465 m -3 X s 994 474 m -3 X s 997 484 m -6 X s 994 493 m -3 X s 994 502 m -3 X s 994 511 m -3 X s 997 520 m -6 X s 994 529 m -3 X s 994 538 m -3 X s 994 547 m -3 X s 997 556 m -6 X s 994 565
 m -3 X s 994 575 m -3 X s 994 584 m -3 X s 997 593 m -6 X s 997 411 m -6 X s 994 402 m -3 X s 994 393 m -3 X s 997 593 m -6 X s 994 602 m -3 X s 994 611 m -3 X s
 gsave  408 306 930 345 C 937.285 404.542 t 0 r /Helvetica findfont 22.8295 sf 0 0 m (\2550.02) show NC gr 
 gsave  408 306 930 345 C 974.32 438.729 t 0 r /Helvetica findfont 22.8295 sf 0 0 m (0) show NC gr 
 gsave  408 306 930 345 C 942.983 475.765 t 0 r /Helvetica findfont 22.8295 sf 0 0 m (0.02) show NC gr 
 gsave  408 306 930 345 C 942.983 512.8 t 0 r /Helvetica findfont 22.8295 sf 0 0 m (0.04) show NC gr 
 gsave  408 306 930 345 C 942.983 549.836 t 0 r /Helvetica findfont 22.8295 sf 0 0 m (0.06) show NC gr 
 gsave  408 306 930 345 C 942.983 586.871 t 0 r /Helvetica findfont 22.8295 sf 0 0 m (0.08) show NC gr  1297 391 m 229 Y s 1292 411 m 5 X s 1294 420 m 3 X s 1294 429 m 3 X s 1294 438 m 3 X s 1292 447 m 5 X s 1294 456 m 3 X s 1294 465 m 3 X s 1294 474
 m 3 X s 1292 484 m 5 X s 1294 493 m 3 X s 1294 502 m 3 X s 1294 511 m 3 X s 1292 520 m 5 X s 1294 529 m 3 X s 1294 538 m 3 X s 1294 547 m 3 X s 1292 556 m 5 X s 1294 565 m 3 X s 1294 575 m 3 X s 1294 584 m 3 X s 1292 593 m 5 X s 1292 411 m 5 X s
 1294 402 m 3 X s 1294 393 m 3 X s 1292 593 m 5 X s 1294 602 m 3 X s 1294 611 m 3 X s 1047 436 1104 442 1216 506 1272 574 4 { m21} R 1047 448 m 14 Y s 1042 462 m 11 X s 1047 425 m -15 Y s 1042 410 m 11 X s 1104 453 m 15 Y s 1098 468 m 11 X s 1104 430
 m -15 Y s 1098 415 m 11 X s 1216 518 m 16 Y s 1210 534 m 12 X s 1216 495 m -16 Y s 1210 479 m 12 X s 1272 585 m 16 Y s 1267 601 m 11 X s 1272 562 m -16 Y s 1267 546 m 11 X s 1 0 0 c 9 lw 0.95 0.95 0.95 c black 1 0 0 c 993 447 m 12 X 3 1 d 12 X 3 1 d
 6 X 3 1 d 6 X 4 1 d 3 X 3 1 d 3 X 3 1 d 3 X 3 1 d 3 1 d 3 X 3 1 d 3 1 d 3 X 3 1 d 3 1 d 3 1 d 3 X 3 1 d 4 1 d 3 1 d 3 1 d 3 1 d 3 1 d 3 1 d 3 1 d 3 1 d 3 1 d 3 1 d 3 1 d 3 2 d 3 1 d 3 1 d 3 1 d 3 2 d 4 1 d s 1143 480 m 3 1 d 3 2 d 3 1 d 3 1 d 3 2 d
 3 1 d 3 2 d 3 1 d 3 2 d 3 2 d 3 1 d 3 2 d 3 1 d 3 2 d 3 2 d 4 2 d 3 1 d 3 2 d 3 2 d 3 2 d 3 2 d 3 2 d 3 2 d 3 2 d 3 1 d 3 3 d 3 2 d 3 2 d 3 2 d 3 2 d 3 2 d 3 2 d 4 2 d 3 3 d 3 2 d 3 2 d 3 2 d 3 3 d 3 2 d 3 2 d 3 3 d 3 2 d 3 3 d 3 2 d 3 3 d 3 2 d 3 3
 d 3 2 d 4 3 d s 1293 577 m 3 3 d s 0.49 0.6 0.82 c black 0.49 0.6 0.82 c
 gsave  408 306 930 345 C 1051.24 629.605 t 0 r /Helvetica-Bold findfont 25.6831 sf 0 0 m (6.0 < E < 6.5 GeV) show NC gr  0.52 0.76 0.64 c black 0.52 0.76 0.64 c
 gsave  408 306 930 345 C 1037 592.569 t 0 r /Helvetica-Bold findfont 25.6831 sf 0 0 m 
 220 206 192 185 170 163 148 141 125 118 111 97 83 69 61 47 40 25 18
(A = 0.010, p = 2.000) K NC gr  1 0.6 1 c black 1 0.6 1 c
 gsave  408 306 930 345 C 1336.13 458.671 t 90 r /Helvetica-Bold findfont 28.5368 sf 0 0 m (/dof=0.5) show NC gr  black 1 0.6 1 c
 gsave  408 306 930 345 C 1324.73 447.276 t 90 r /Helvetica-Bold findfont 19.9758 sf 0 0 m (2) show NC gr  black 1 0.6 1 c
 gsave  408 306 930 345 C 1336.13 430.182 t 90 r /Symbol findfont 28.5368 sf 0 0 m (c) show NC gr  black 3 lw 1 1 1 c 408 306 1383 345 bf black 1 1 1 c black 306 229 1445 391 bl 306 229 1445 391 bl 1445 391 m 306 X s 1445 395 m -4 Y s 1557 395 m -4 Y
 s 1670 395 m -4 Y s 1670 395 m -4 Y s
 gsave  408 306 1383 345 C 1435.84 370.356 t 0 r /Helvetica findfont 22.8295 sf 0 0 m (0) show NC gr 
 gsave  408 306 1383 345 C 1549.8 370.356 t 0 r /Helvetica findfont 22.8295 sf 0 0 m (1) show NC gr 
 gsave  408 306 1383 345 C 1660.9 370.356 t 0 r /Helvetica findfont 22.8295 sf 0 0 m (2) show NC gr  1445 620 m 306 X s 1445 616 m 4 Y s 1557 616 m 4 Y s 1670 616 m 4 Y s 1670 616 m 4 Y s 1445 391 m 229 Y s 1450 400 m -5 X s 1447 405 m -2 X s 1447
 410 m -2 X s 1447 415 m -2 X s 1447 420 m -2 X s 1450 425 m -5 X s 1447 430 m -2 X s 1447 435 m -2 X s 1447 440 m -2 X s 1447 445 m -2 X s 1450 450 m -5 X s 1447 455 m -2 X s 1447 460 m -2 X s 1447 465 m -2 X s 1447 470 m -2 X s 1450 475 m -5 X s
 1447 480 m -2 X s 1447 484 m -2 X s 1447 489 m -2 X s 1447 494 m -2 X s 1450 499 m -5 X s 1447 504 m -2 X s 1447 509 m -2 X s 1447 514 m -2 X s 1447 519 m -2 X s 1450 524 m -5 X s 1447 529 m -2 X s 1447 534 m -2 X s 1447 539 m -2 X s 1447 544 m -2 X
 s 1450 549 m -5 X s 1447 554 m -2 X s 1447 559 m -2 X s 1447 564 m -2 X s 1447 569 m -2 X s 1450 574 m -5 X s 1447 578 m -2 X s 1447 583 m -2 X s 1447 588 m -2 X s 1447 593 m -2 X s 1450 598 m -5 X s 1450 400 m -5 X s 1447 395 m -2 X s 1450 598 m -5
 X s 1447 603 m -2 X s 1447 608 m -2 X s 1447 613 m -2 X s 1447 618 m -2 X s
 gsave  408 306 1383 345 C 1390.26 393.147 t 0 r /Helvetica findfont 22.8295 sf 0 0 m (\2550.04) show NC gr 
 gsave  408 306 1383 345 C 1390.26 418.787 t 0 r /Helvetica findfont 22.8295 sf 0 0 m (\2550.03) show NC gr 
 gsave  408 306 1383 345 C 1390.26 441.578 t 0 r /Helvetica findfont 22.8295 sf 0 0 m (\2550.02) show NC gr 
 gsave  408 306 1383 345 C 1393.11 467.218 t 0 r /Helvetica findfont 22.8295 sf 0 0 m (\2550.01) show NC gr 
 gsave  408 306 1383 345 C 1427.29 492.858 t 0 r /Helvetica findfont 22.8295 sf 0 0 m (0) show NC gr 
 gsave  408 306 1383 345 C 1398.81 515.649 t 0 r /Helvetica findfont 22.8295 sf 0 0 m (0.01) show NC gr 
 gsave  408 306 1383 345 C 1395.96 541.289 t 0 r /Helvetica findfont 22.8295 sf 0 0 m (0.02) show NC gr 
 gsave  408 306 1383 345 C 1395.96 566.929 t 0 r /Helvetica findfont 22.8295 sf 0 0 m (0.03) show NC gr 
 gsave  408 306 1383 345 C 1395.96 589.72 t 0 r /Helvetica findfont 22.8295 sf 0 0 m (0.04) show NC gr  1751 391 m 229 Y s 1745 400 m 6 X s 1748 405 m 3 X s 1748 410 m 3 X s 1748 415 m 3 X s 1748 420 m 3 X s 1745 425 m 6 X s 1748 430 m 3 X s 1748 435
 m 3 X s 1748 440 m 3 X s 1748 445 m 3 X s 1745 450 m 6 X s 1748 455 m 3 X s 1748 460 m 3 X s 1748 465 m 3 X s 1748 470 m 3 X s 1745 475 m 6 X s 1748 480 m 3 X s 1748 484 m 3 X s 1748 489 m 3 X s 1748 494 m 3 X s 1745 499 m 6 X s 1748 504 m 3 X s
 1748 509 m 3 X s 1748 514 m 3 X s 1748 519 m 3 X s 1745 524 m 6 X s 1748 529 m 3 X s 1748 534 m 3 X s 1748 539 m 3 X s 1748 544 m 3 X s 1745 549 m 6 X s 1748 554 m 3 X s 1748 559 m 3 X s 1748 564 m 3 X s 1748 569 m 3 X s 1745 574 m 6 X s 1748 578 m
 3 X s 1748 583 m 3 X s 1748 588 m 3 X s 1748 593 m 3 X s 1745 598 m 6 X s 1745 400 m 6 X s 1748 395 m 3 X s 1745 598 m 6 X s 1748 603 m 3 X s 1748 608 m 3 X s 1748 613 m 3 X s 1748 618 m 3 X s 1501 450 1557 507 1670 558 1726 560 4 { m21} R 1501 461
 m 29 Y s 1495 490 m 12 X s 1501 439 m -29 Y s 1495 410 m 12 X s 1557 518 m 29 Y s 1551 547 m 12 X s 1557 495 m -29 Y s 1551 466 m 12 X s 1670 569 m 29 Y s 1664 598 m 11 X s 1670 546 m -29 Y s 1664 517 m 11 X s 1726 572 m 29 Y s 1720 601 m 12 X s
 1726 549 m -30 Y s 1720 519 m 12 X s 1 0 0 c 9 lw 0.95 0.95 0.95 c black 1 0 0 c 1446 499 m 12 X 3 1 d 19 X 3 1 d 12 X 3 1 d 6 X 3 1 d 6 X 3 1 d 4 X 3 1 d 6 X 3 1 d 3 X 3 1 d 3 X 3 1 d 3 X 3 1 d 3 X 3 1 d 3 1 d 3 X 3 1 d 4 X 3 1 d 3 1 d 3 X 3 1 d 3
 1 d 3 1 d 3 X 3 1 d 3 1 d s 1596 519 m 3 1 d 3 1 d 3 X 3 1 d 3 1 d 3 1 d 4 1 d 3 1 d 3 1 d 3 1 d 3 1 d 3 1 d 3 1 d 3 1 d 3 1 d 3 1 d 3 1 d 3 1 d 3 1 d 3 1 d 3 1 d 3 1 d 3 1 d 4 2 d 3 1 d 3 1 d 3 1 d 3 1 d 3 2 d 3 1 d 3 1 d 3 1 d 3 2 d 3 1 d 3 1 d 3
 2 d 3 1 d 3 2 d 3 1 d 4 1 d 3 2 d 3 1 d 3 2 d 3 1 d 3 2 d 3 1 d 3 2 d 3 1 d 3 2 d s 1746 577 m 3 2 d s 0.49 0.6 0.82 c black 0.49 0.6 0.82 c
 gsave  408 306 1383 345 C 1504.21 629.605 t 0 r /Helvetica-Bold findfont 25.6831 sf 0 0 m (6.5 < E < 7.0 GeV) show NC gr  0.52 0.76 0.64 c black 0.52 0.76 0.64 c
 gsave  408 306 1383 345 C 1489.97 592.569 t 0 r /Helvetica-Bold findfont 25.6831 sf 0 0 m 
 220 206 192 185 170 163 148 141 126 118 111 97 83 69 61 47 40 25 18
(A = 0.004, p = 2.000) K NC gr  1 0.6 1 c black 1 0.6 1 c
 gsave  408 306 1383 345 C 1789.1 458.671 t 90 r /Helvetica-Bold findfont 28.5368 sf 0 0 m (/dof=0.6) show NC gr  black 1 0.6 1 c
 gsave  408 306 1383 345 C 1777.71 447.276 t 90 r /Helvetica-Bold findfont 19.9758 sf 0 0 m (2) show NC gr  black 1 0.6 1 c
 gsave  408 306 1383 345 C 1789.1 430.182 t 90 r /Symbol findfont 28.5368 sf 0 0 m (c) show NC gr  black 3 lw 1 1 1 c 408 306 1837 345 bf black 1 1 1 c black 306 229 1898 391 bl 306 229 1898 391 bl 1898 391 m 306 X s 1898 395 m -4 Y s 2011 395 m -4 Y
 s 2123 395 m -4 Y s 2123 395 m -4 Y s
 gsave  408 306 1837 345 C 1888.81 370.356 t 0 r /Helvetica findfont 22.8295 sf 0 0 m (0) show NC gr 
 gsave  408 306 1837 345 C 2002.77 370.356 t 0 r /Helvetica findfont 22.8295 sf 0 0 m (1) show NC gr 
 gsave  408 306 1837 345 C 2113.88 370.356 t 0 r /Helvetica findfont 22.8295 sf 0 0 m (2) show NC gr  1898 620 m 306 X s 1898 616 m 4 Y s 2011 616 m 4 Y s 2123 616 m 4 Y s 2123 616 m 4 Y s 1898 391 m 229 Y s 1904 402 m -6 X s 1901 409 m -3 X s 1901
 417 m -3 X s 1901 425 m -3 X s 1901 432 m -3 X s 1904 440 m -6 X s 1901 448 m -3 X s 1901 455 m -3 X s 1901 463 m -3 X s 1901 470 m -3 X s 1904 478 m -6 X s 1901 486 m -3 X s 1901 493 m -3 X s 1901 501 m -3 X s 1901 509 m -3 X s 1904 516 m -6 X s
 1901 524 m -3 X s 1901 531 m -3 X s 1901 539 m -3 X s 1901 547 m -3 X s 1904 554 m -6 X s 1901 562 m -3 X s 1901 570 m -3 X s 1901 577 m -3 X s 1901 585 m -3 X s 1904 593 m -6 X s 1904 402 m -6 X s 1901 394 m -3 X s 1904 593 m -6 X s 1901 600 m -3 X
 s 1901 608 m -3 X s 1901 615 m -3 X s
 gsave  408 306 1837 345 C 1843.23 395.996 t 0 r /Helvetica findfont 22.8295 sf 0 0 m (\2550.02) show NC gr 
 gsave  408 306 1837 345 C 1846.08 433.031 t 0 r /Helvetica findfont 22.8295 sf 0 0 m (\2550.01) show NC gr 
 gsave  408 306 1837 345 C 1880.27 470.067 t 0 r /Helvetica findfont 22.8295 sf 0 0 m (0) show NC gr 
 gsave  408 306 1837 345 C 1851.78 509.951 t 0 r /Helvetica findfont 22.8295 sf 0 0 m (0.01) show NC gr 
 gsave  408 306 1837 345 C 1848.93 546.987 t 0 r /Helvetica findfont 22.8295 sf 0 0 m (0.02) show NC gr 
 gsave  408 306 1837 345 C 1848.93 584.022 t 0 r /Helvetica findfont 22.8295 sf 0 0 m (0.03) show NC gr  2204 391 m 229 Y s 2199 402 m 5 X s 2201 409 m 3 X s 2201 417 m 3 X s 2201 425 m 3 X s 2201 432 m 3 X s 2199 440 m 5 X s 2201 448 m 3 X s 2201
 455 m 3 X s 2201 463 m 3 X s 2201 470 m 3 X s 2199 478 m 5 X s 2201 486 m 3 X s 2201 493 m 3 X s 2201 501 m 3 X s 2201 509 m 3 X s 2199 516 m 5 X s 2201 524 m 3 X s 2201 531 m 3 X s 2201 539 m 3 X s 2201 547 m 3 X s 2199 554 m 5 X s 2201 562 m 3 X s
 2201 570 m 3 X s 2201 577 m 3 X s 2201 585 m 3 X s 2199 593 m 5 X s 2199 402 m 5 X s 2201 394 m 3 X s 2199 593 m 5 X s 2201 600 m 3 X s 2201 608 m 3 X s 2201 615 m 3 X s 1954 478 2011 480 2123 532 2179 501 4 { m21} R 1954 489 m 56 Y s 1949 545 m 11
 X s 1954 466 m -56 Y s 1949 410 m 11 X s 2011 491 m 56 Y s 2005 547 m 11 X s 2011 468 m -56 Y s 2005 412 m 11 X s 2123 543 m 58 Y s 2117 601 m 12 X s 2123 520 m -57 Y s 2117 463 m 12 X s 2179 513 m 56 Y s 2174 569 m 11 X s 2179 490 m -57 Y s 2174
 433 m 11 X s 9 lw 0.95 0.95 0.95 c black 1900 478 m 3 1 d 6 X 3 1 d 3 X 3 1 d 6 X 3 1 d 3 X 3 1 d 6 X 3 1 d 4 X 3 1 d 6 X 3 1 d 6 X 3 1 d 3 X 3 1 d 6 X 3 1 d 3 X 3 1 d 7 X 3 1 d 3 X 3 1 d 6 X 3 1 d 3 X 3 1 d 6 X 3 1 d 3 X 3 1 d 6 X 3 1 d 7 X s 2050
 497 m 3 1 d 3 X 3 1 d 6 X 3 1 d 3 X 3 1 d 6 X 3 1 d 3 X 3 1 d 7 X 3 1 d 3 X 3 1 d 6 X 3 1 d 6 X 3 1 d 3 X 3 1 d 6 X 3 1 d 3 X 4 1 d 6 X 3 1 d 3 X 3 1 d 6 X 3 1 d 3 X 3 1 d 6 X 3 1 d 3 X 3 1 d 7 X 3 1 d s 2200 517 m 3 X s 0.49 0.6 0.82 c black 0.49
 0.6 0.82 c
 gsave  408 306 1837 345 C 1957.19 629.605 t 0 r /Helvetica-Bold findfont 25.6831 sf 0 0 m (7.0 < E < 7.5 GeV) show NC gr  0.52 0.76 0.64 c black 0.52 0.76 0.64 c
 gsave  408 306 1837 345 C 1942.94 592.569 t 0 r /Helvetica-Bold findfont 25.6831 sf 0 0 m 
 220 206 192 185 170 163 148 141 125 118 111 97 83 69 61 47 40 25 18
(A = 0.004, p = 1.000) K NC gr  1 0.6 1 c black 1 0.6 1 c
 gsave  408 306 1837 345 C 2242.08 458.671 t 90 r /Helvetica-Bold findfont 28.5368 sf 0 0 m (/dof=0.1) show NC gr  black 1 0.6 1 c
 gsave  408 306 1837 345 C 2230.68 447.276 t 90 r /Helvetica-Bold findfont 19.9758 sf 0 0 m (2) show NC gr  black 1 0.6 1 c
 gsave  408 306 1837 345 C 2242.08 430.182 t 90 r /Symbol findfont 28.5368 sf 0 0 m (c) show NC gr  black 3 lw 1 1 1 c 408 306 23 13 bf black 1 1 1 c black 306 229 84 59 bl 306 229 84 59 bl 84 59 m 306 X s 84 63 m -4 Y s 196 63 m -4 Y s 309 63 m -4 Y
 s 309 63 m -4 Y s
 gsave  408 306 23 13 C 74.0711 39.8845 t 0 r /Helvetica findfont 22.8295 sf 0 0 m (0) show NC gr 
 gsave  408 306 23 13 C 188.027 39.8845 t 0 r /Helvetica findfont 22.8295 sf 0 0 m (1) show NC gr 
 gsave  408 306 23 13 C 299.133 39.8845 t 0 r /Helvetica findfont 22.8295 sf 0 0 m (2) show NC gr  84 288 m 306 X s 84 284 m 4 Y s 196 284 m 4 Y s 309 284 m 4 Y s 309 284 m 4 Y s 84 59 m 229 Y s 89 81 m -5 X s 87 86 m -3 X s 87 90 m -3 X s 87 95 m -3
 X s 87 100 m -3 X s 89 104 m -5 X s 87 109 m -3 X s 87 114 m -3 X s 87 118 m -3 X s 87 123 m -3 X s 89 127 m -5 X s 87 132 m -3 X s 87 137 m -3 X s 87 141 m -3 X s 87 146 m -3 X s 89 151 m -5 X s 87 155 m -3 X s 87 160 m -3 X s 87 164 m -3 X s 87
 169 m -3 X s 89 174 m -5 X s 87 178 m -3 X s 87 183 m -3 X s 87 188 m -3 X s 87 192 m -3 X s 89 197 m -5 X s 87 201 m -3 X s 87 206 m -3 X s 87 211 m -3 X s 87 215 m -3 X s 89 220 m -5 X s 87 225 m -3 X s 87 229 m -3 X s 87 234 m -3 X s 87 239 m -3
 X s 89 243 m -5 X s 87 248 m -3 X s 87 252 m -3 X s 87 257 m -3 X s 87 262 m -3 X s 89 266 m -5 X s 89 81 m -5 X s 87 77 m -3 X s 87 72 m -3 X s 87 67 m -3 X s 87 63 m -3 X s 89 266 m -5 X s 87 271 m -3 X s 87 276 m -3 X s 87 280 m -3 X s 87 285 m
 -3 X s
 gsave  408 306 23 13 C 28.4889 74.0711 t 0 r /Helvetica findfont 22.8295 sf 0 0 m (\2550.04) show NC gr 
 gsave  408 306 23 13 C 28.4889 96.8623 t 0 r /Helvetica findfont 22.8295 sf 0 0 m (\2550.03) show NC gr 
 gsave  408 306 23 13 C 28.4889 119.653 t 0 r /Helvetica findfont 22.8295 sf 0 0 m (\2550.02) show NC gr 
 gsave  408 306 23 13 C 31.3378 142.445 t 0 r /Helvetica findfont 22.8295 sf 0 0 m (\2550.01) show NC gr 
 gsave  408 306 23 13 C 65.5245 165.236 t 0 r /Helvetica findfont 22.8295 sf 0 0 m (0) show NC gr 
 gsave  408 306 23 13 C 37.0356 190.876 t 0 r /Helvetica findfont 22.8295 sf 0 0 m (0.01) show NC gr 
 gsave  408 306 23 13 C 34.1867 213.667 t 0 r /Helvetica findfont 22.8295 sf 0 0 m (0.02) show NC gr 
 gsave  408 306 23 13 C 34.1867 236.458 t 0 r /Helvetica findfont 22.8295 sf 0 0 m (0.03) show NC gr 
 gsave  408 306 23 13 C 34.1867 259.249 t 0 r /Helvetica findfont 22.8295 sf 0 0 m (0.04) show NC gr  390 59 m 229 Y s 385 81 m 5 X s 387 86 m 3 X s 387 90 m 3 X s 387 95 m 3 X s 387 100 m 3 X s 385 104 m 5 X s 387 109 m 3 X s 387 114 m 3 X s 387 118
 m 3 X s 387 123 m 3 X s 385 127 m 5 X s 387 132 m 3 X s 387 137 m 3 X s 387 141 m 3 X s 387 146 m 3 X s 385 151 m 5 X s 387 155 m 3 X s 387 160 m 3 X s 387 164 m 3 X s 387 169 m 3 X s 385 174 m 5 X s 387 178 m 3 X s 387 183 m 3 X s 387 188 m 3 X s
 387 192 m 3 X s 385 197 m 5 X s 387 201 m 3 X s 387 206 m 3 X s 387 211 m 3 X s 387 215 m 3 X s 385 220 m 5 X s 387 225 m 3 X s 387 229 m 3 X s 387 234 m 3 X s 387 239 m 3 X s 385 243 m 5 X s 387 248 m 3 X s 387 252 m 3 X s 387 257 m 3 X s 387 262 m
 3 X s 385 266 m 5 X s 385 81 m 5 X s 387 77 m 3 X s 387 72 m 3 X s 387 67 m 3 X s 387 63 m 3 X s 385 266 m 5 X s 387 271 m 3 X s 387 276 m 3 X s 387 280 m 3 X s 387 285 m 3 X s /w 22 def /w2 {w 2 div} def /w3 {w 3 div} def 140 122 196 224 309 196
 365 134 4 { m21} R 140 133 m 33 Y s 134 166 m 12 X s 140 111 m -33 Y s 134 78 m 12 X s 196 235 m 34 Y s 191 269 m 11 X s 196 212 m -33 Y s 191 179 m 11 X s 309 207 m 33 Y s 303 240 m 12 X s 309 184 m -33 Y s 303 151 m 12 X s 365 145 m 33 Y s 360 178
 m 11 X s 365 122 m -32 Y s 360 90 m 11 X s 1 0 0 c 9 lw 0.95 0.95 0.95 c black 1 0 0 c 85 174 m 31 X 3 -1 d 46 X 3 -1 d 25 X 3 -1 d 18 X 3 -1 d 15 X 3 -1 d s 235 169 m 16 X 3 -1 d 12 X 3 -1 d 12 X 3 -1 d 10 X 3 -1 d 9 X 3 -1 d 9 X 3 -1 d 9 X 3 -1 d
 7 X 3 -1 d 6 X 3 -1 d 9 X 3 -1 d 6 X 3 -1 d 6 X 3 -1 d 3 X s 385 157 m 4 X s 0.49 0.6 0.82 c black 0.49 0.6 0.82 c
 gsave  408 306 23 13 C 142.445 296.285 t 0 r /Helvetica-Bold findfont 25.6831 sf 0 0 m (7.5 < E < 8.0 GeV) show NC gr  0.52 0.76 0.64 c black 0.52 0.76 0.64 c
 gsave  408 306 23 13 C 122.502 259.249 t 0 r /Helvetica-Bold findfont 25.6831 sf 0 0 m 
 228 214 200 193 178 171 156 149 134 126 119 105 91 77 69 55 47 39 25 17
(A = \2550.001, p = 2.000) K NC gr  1 0.6 1 c black 1 0.6 1 c
 gsave  408 306 23 13 C 427.334 128.2 t 90 r /Helvetica-Bold findfont 28.5368 sf 0 0 m (/dof=1.2) show NC gr  black 1 0.6 1 c
 gsave  408 306 23 13 C 415.938 116.804 t 90 r /Helvetica-Bold findfont 19.9758 sf 0 0 m (2) show NC gr  black 1 0.6 1 c
 gsave  408 306 23 13 C 427.334 99.7112 t 90 r /Symbol findfont 28.5368 sf 0 0 m (c) show NC gr  black 3 lw 1 1 1 c 408 306 476 13 bf black 1 1 1 c black 307 229 537 59 bl 307 229 537 59 bl 537 59 m 307 X s 537 63 m -4 Y s 650 63 m -4 Y s 763 63 m -4
 Y s 763 63 m -4 Y s
 gsave  408 306 476 13 C 527.045 39.8845 t 0 r /Helvetica findfont 22.8295 sf 0 0 m (0) show NC gr 
 gsave  408 306 476 13 C 643.849 39.8845 t 0 r /Helvetica findfont 22.8295 sf 0 0 m (1) show NC gr 
 gsave  408 306 476 13 C 752.107 39.8845 t 0 r /Helvetica findfont 22.8295 sf 0 0 m (2) show NC gr  537 288 m 307 X s 537 284 m 4 Y s 650 284 m 4 Y s 763 284 m 4 Y s 763 284 m 4 Y s 537 59 m 229 Y s 543 89 m -6 X s 540 101 m -3 X s 540 112 m -3 X s
 540 123 m -3 X s 543 134 m -6 X s 540 145 m -3 X s 540 156 m -3 X s 540 167 m -3 X s 543 179 m -6 X s 540 190 m -3 X s 540 201 m -3 X s 540 212 m -3 X s 543 223 m -6 X s 540 234 m -3 X s 540 245 m -3 X s 540 256 m -3 X s 543 268 m -6 X s 543 89 m -6
 X s 540 78 m -3 X s 540 67 m -3 X s 543 268 m -6 X s 540 279 m -3 X s
 gsave  408 306 476 13 C 481.462 82.6178 t 0 r /Helvetica findfont 22.8295 sf 0 0 m (\2550.04) show NC gr 
 gsave  408 306 476 13 C 481.462 128.2 t 0 r /Helvetica findfont 22.8295 sf 0 0 m (\2550.02) show NC gr 
 gsave  408 306 476 13 C 518.498 170.933 t 0 r /Helvetica findfont 22.8295 sf 0 0 m (0) show NC gr 
 gsave  408 306 476 13 C 487.16 216.516 t 0 r /Helvetica findfont 22.8295 sf 0 0 m (0.02) show NC gr 
 gsave  408 306 476 13 C 487.16 259.249 t 0 r /Helvetica findfont 22.8295 sf 0 0 m (0.04) show NC gr  844 59 m 229 Y s 838 89 m 6 X s 841 101 m 3 X s 841 112 m 3 X s 841 123 m 3 X s 838 134 m 6 X s 841 145 m 3 X s 841 156 m 3 X s 841 167 m 3 X s 838
 179 m 6 X s 841 190 m 3 X s 841 201 m 3 X s 841 212 m 3 X s 838 223 m 6 X s 841 234 m 3 X s 841 245 m 3 X s 841 256 m 3 X s 838 268 m 6 X s 838 89 m 6 X s 841 78 m 3 X s 841 67 m 3 X s 838 268 m 6 X s 841 279 m 3 X s /w 23 def /w2 {w 2 div} def /w3
 {w 3 div} def 594 123 650 183 763 173 819 222 4 { m21} R 594 135 m 33 Y s 588 168 m 11 X s 594 112 m -34 Y s 588 78 m 11 X s 650 194 m 35 Y s 644 229 m 12 X s 650 172 m -35 Y s 644 137 m 12 X s 763 184 m 34 Y s 757 218 m 11 X s 763 162 m -34 Y s 757
 128 m 11 X s 819 234 m 35 Y s 813 269 m 12 X s 819 211 m -35 Y s 813 176 m 12 X s 1 0 0 c 9 lw 0.95 0.95 0.95 c black 1 0 0 c 539 179 m 52 X 3 1 d 18 X 4 1 d 15 X 3 1 d 12 X 3 1 d 9 X 3 1 d 10 X 3 1 d 6 X 3 1 d 6 X s 689 186 m 3 X 3 1 d 6 X 3 1 d 6
 X 3 1 d 4 X 3 1 d 6 X 3 1 d 6 X 3 1 d 3 X 3 1 d 3 X 3 1 d 6 X 3 1 d 3 X 4 1 d 3 X 3 1 d 3 X 3 1 d 3 X 3 1 d 3 X 3 1 d 3 X 3 1 d 3 X 3 1 d 3 X 3 1 d 3 X 4 1 d 3 1 d 3 X 3 1 d 3 X 3 1 d 3 X 3 1 d 3 1 d s 839 209 m 3 X s 0.49 0.6 0.82 c black 0.49 0.6
 0.82 c
 gsave  408 306 476 13 C 595.418 296.285 t 0 r /Helvetica-Bold findfont 25.6831 sf 0 0 m (8.0 < E < 8.5 GeV) show NC gr  0.52 0.76 0.64 c black 0.52 0.76 0.64 c
 gsave  408 306 476 13 C 581.174 259.249 t 0 r /Helvetica-Bold findfont 25.6831 sf 0 0 m 
 220 206 192 185 170 163 148 141 125 118 111 97 83 68 61 47 40 25 18
(A = 0.002, p = 2.000) K NC gr  1 0.6 1 c black 1 0.6 1 c
 gsave  408 306 476 13 C 883.156 128.2 t 90 r /Helvetica-Bold findfont 28.5368 sf 0 0 m (/dof=0.6) show NC gr  black 1 0.6 1 c
 gsave  408 306 476 13 C 871.76 116.804 t 90 r /Helvetica-Bold findfont 19.9758 sf 0 0 m (2) show NC gr  black 1 0.6 1 c
 gsave  408 306 476 13 C 883.156 99.7112 t 90 r /Symbol findfont 28.5368 sf 0 0 m (c) show NC gr  black 3 lw 1 1 1 c 408 306 930 13 bf black 1 1 1 c black 306 229 991 59 bl 306 229 991 59 bl 991 59 m 306 X s 991 63 m -4 Y s 1104 63 m -4 Y s 1216 63 m
 -4 Y s 1216 63 m -4 Y s
 gsave  408 306 930 13 C 980.018 39.8845 t 0 r /Helvetica findfont 22.8295 sf 0 0 m (0) show NC gr 
 gsave  408 306 930 13 C 1096.82 39.8845 t 0 r /Helvetica findfont 22.8295 sf 0 0 m (1) show NC gr 
 gsave  408 306 930 13 C 1205.08 39.8845 t 0 r /Helvetica findfont 22.8295 sf 0 0 m (2) show NC gr  991 288 m 306 X s 991 284 m 4 Y s 1104 284 m 4 Y s 1216 284 m 4 Y s 1216 284 m 4 Y s 991 59 m 229 Y s 997 82 m -6 X s 994 87 m -3 X s 994 92 m -3 X s
 994 97 m -3 X s 994 102 m -3 X s 997 107 m -6 X s 994 111 m -3 X s 994 116 m -3 X s 994 121 m -3 X s 994 126 m -3 X s 997 131 m -6 X s 994 136 m -3 X s 994 140 m -3 X s 994 145 m -3 X s 994 150 m -3 X s 997 155 m -6 X s 994 160 m -3 X s 994 164 m -3
 X s 994 169 m -3 X s 994 174 m -3 X s 997 179 m -6 X s 994 184 m -3 X s 994 189 m -3 X s 994 193 m -3 X s 994 198 m -3 X s 997 203 m -6 X s 994 208 m -3 X s 994 213 m -3 X s 994 218 m -3 X s 994 222 m -3 X s 997 227 m -6 X s 994 232 m -3 X s 994 237
 m -3 X s 994 242 m -3 X s 994 246 m -3 X s 997 251 m -6 X s 994 256 m -3 X s 994 261 m -3 X s 994 266 m -3 X s 994 271 m -3 X s 997 275 m -6 X s 997 82 m -6 X s 994 78 m -3 X s 994 73 m -3 X s 994 68 m -3 X s 994 63 m -3 X s 997 275 m -6 X s 994 280
 m -3 X s 994 285 m -3 X s
 gsave  408 306 930 13 C 937.285 74.0711 t 0 r /Helvetica findfont 22.8295 sf 0 0 m (\2550.05) show NC gr 
 gsave  408 306 930 13 C 937.285 99.7112 t 0 r /Helvetica findfont 22.8295 sf 0 0 m (\2550.04) show NC gr 
 gsave  408 306 930 13 C 937.285 122.502 t 0 r /Helvetica findfont 22.8295 sf 0 0 m (\2550.03) show NC gr 
 gsave  408 306 930 13 C 937.285 148.142 t 0 r /Helvetica findfont 22.8295 sf 0 0 m (\2550.02) show NC gr 
 gsave  408 306 930 13 C 940.134 170.933 t 0 r /Helvetica findfont 22.8295 sf 0 0 m (\2550.01) show NC gr 
 gsave  408 306 930 13 C 974.32 196.573 t 0 r /Helvetica findfont 22.8295 sf 0 0 m (0) show NC gr 
 gsave  408 306 930 13 C 945.832 219.365 t 0 r /Helvetica findfont 22.8295 sf 0 0 m (0.01) show NC gr 
 gsave  408 306 930 13 C 942.983 245.005 t 0 r /Helvetica findfont 22.8295 sf 0 0 m (0.02) show NC gr 
 gsave  408 306 930 13 C 942.983 267.796 t 0 r /Helvetica findfont 22.8295 sf 0 0 m (0.03) show NC gr  1297 59 m 229 Y s 1292 82 m 5 X s 1294 87 m 3 X s 1294 92 m 3 X s 1294 97 m 3 X s 1294 102 m 3 X s 1292 107 m 5 X s 1294 111 m 3 X s 1294 116 m 3 X
 s 1294 121 m 3 X s 1294 126 m 3 X s 1292 131 m 5 X s 1294 136 m 3 X s 1294 140 m 3 X s 1294 145 m 3 X s 1294 150 m 3 X s 1292 155 m 5 X s 1294 160 m 3 X s 1294 164 m 3 X s 1294 169 m 3 X s 1294 174 m 3 X s 1292 179 m 5 X s 1294 184 m 3 X s 1294 189
 m 3 X s 1294 193 m 3 X s 1294 198 m 3 X s 1292 203 m 5 X s 1294 208 m 3 X s 1294 213 m 3 X s 1294 218 m 3 X s 1294 222 m 3 X s 1292 227 m 5 X s 1294 232 m 3 X s 1294 237 m 3 X s 1294 242 m 3 X s 1294 246 m 3 X s 1292 251 m 5 X s 1294 256 m 3 X s
 1294 261 m 3 X s 1294 266 m 3 X s 1294 271 m 3 X s 1292 275 m 5 X s 1292 82 m 5 X s 1294 78 m 3 X s 1294 73 m 3 X s 1294 68 m 3 X s 1294 63 m 3 X s 1292 275 m 5 X s 1294 280 m 3 X s 1294 285 m 3 X s 1047 208 1104 216 1216 212 1272 129 4 { m21} R
 1047 219 m 41 Y s 1042 260 m 11 X s 1047 196 m -41 Y s 1042 155 m 11 X s 1104 227 m 42 Y s 1098 269 m 11 X s 1104 204 m -41 Y s 1098 163 m 11 X s 1216 224 m 41 Y s 1210 265 m 12 X s 1216 201 m -41 Y s 1210 160 m 12 X s 1272 140 m 40 Y s 1267 180 m
 11 X s 1272 117 m -39 Y s 1267 78 m 11 X s 1 0 0 c 9 lw 0.95 0.95 0.95 c black 1 0 0 c 993 203 m 27 X 3 -1 d 19 X 3 -1 d 9 X 3 -1 d 9 X 3 -1 d 9 X 3 -1 d 3 X 3 -1 d 7 X 3 -1 d 6 X 3 -1 d 3 X 3 -1 d 3 X 3 -1 d 3 X 3 -1 d 3 X 3 -1 d 3 X 3 -1 d 3 X 4
 -1 d s 1143 189 m 3 X 3 -1 d 3 X 3 -1 d 3 -1 d 3 X 3 -1 d 3 X 3 -1 d 3 -1 d 3 X 3 -1 d 3 -1 d 3 -1 d 3 X 4 -1 d 3 -1 d 3 X 3 -1 d 3 -1 d 3 -1 d 3 -1 d 3 X 3 -1 d 3 -1 d 3 -1 d 3 -1 d 3 -1 d 3 X 3 -1 d 3 -1 d 3 -1 d 4 -1 d 3 -1 d 3 -1 d 3 -1 d 3 -1 d
 3 -1 d 3 -1 d 3 -1 d 3 -1 d 3 -1 d 3 -1 d 3 -1 d 3 -1 d 3 -1 d 3 -1 d 3 -1 d 4 -1 d s 1293 149 m 3 -1 d s 0.49 0.6 0.82 c black 0.49 0.6 0.82 c
 gsave  408 306 930 13 C 1051.24 296.285 t 0 r /Helvetica-Bold findfont 25.6831 sf 0 0 m (8.5 < E < 9.0 GeV) show NC gr  0.52 0.76 0.64 c black 0.52 0.76 0.64 c
 gsave  408 306 930 13 C 1031.3 259.249 t 0 r /Helvetica-Bold findfont 25.6831 sf 0 0 m 
 228 214 200 193 178 171 156 149 133 126 119 105 91 77 69 55 47 39 25 17
(A = \2550.003, p = 2.000) K NC gr  1 0.6 1 c black 1 0.6 1 c
 gsave  408 306 930 13 C 1336.13 128.2 t 90 r /Helvetica-Bold findfont 28.5368 sf 0 0 m (/dof=0.3) show NC gr  black 1 0.6 1 c
 gsave  408 306 930 13 C 1324.73 116.804 t 90 r /Helvetica-Bold findfont 19.9758 sf 0 0 m (2) show NC gr  black 1 0.6 1 c
 gsave  408 306 930 13 C 1336.13 99.7112 t 90 r /Symbol findfont 28.5368 sf 0 0 m (c) show NC gr  black 3 lw 1 1 1 c 408 306 1383 13 bf black 1 1 1 c black 306 229 1445 59 bl 306 229 1445 59 bl 1445 59 m 306 X s 1445 63 m -4 Y s 1557 63 m -4 Y s 1670
 63 m -4 Y s 1670 63 m -4 Y s
 gsave  408 306 1383 13 C 1435.84 39.8845 t 0 r /Helvetica findfont 22.8295 sf 0 0 m (0) show NC gr 
 gsave  408 306 1383 13 C 1549.8 39.8845 t 0 r /Helvetica findfont 22.8295 sf 0 0 m (1) show NC gr 
 gsave  408 306 1383 13 C 1660.9 39.8845 t 0 r /Helvetica findfont 22.8295 sf 0 0 m (2) show NC gr  1445 288 m 306 X s 1445 284 m 4 Y s 1557 284 m 4 Y s 1670 284 m 4 Y s 1670 284 m 4 Y s 1445 59 m 229 Y s 1450 83 m -5 X s 1447 90 m -2 X s 1447 98 m
 -2 X s 1447 105 m -2 X s 1450 113 m -5 X s 1447 120 m -2 X s 1447 128 m -2 X s 1447 135 m -2 X s 1450 142 m -5 X s 1447 150 m -2 X s 1447 157 m -2 X s 1447 165 m -2 X s 1450 172 m -5 X s 1447 179 m -2 X s 1447 187 m -2 X s 1447 194 m -2 X s 1450 202
 m -5 X s 1447 209 m -2 X s 1447 216 m -2 X s 1447 224 m -2 X s 1450 231 m -5 X s 1447 239 m -2 X s 1447 246 m -2 X s 1447 254 m -2 X s 1450 261 m -5 X s 1450 83 m -5 X s 1447 76 m -2 X s 1447 68 m -2 X s 1447 61 m -2 X s 1450 261 m -5 X s 1447 268 m
 -2 X s 1447 276 m -2 X s 1447 283 m -2 X s
 gsave  408 306 1383 13 C 1390.26 76.92 t 0 r /Helvetica findfont 22.8295 sf 0 0 m (\2550.06) show NC gr 
 gsave  408 306 1383 13 C 1390.26 105.409 t 0 r /Helvetica findfont 22.8295 sf 0 0 m (\2550.04) show NC gr 
 gsave  408 306 1383 13 C 1390.26 133.898 t 0 r /Helvetica findfont 22.8295 sf 0 0 m (\2550.02) show NC gr 
 gsave  408 306 1383 13 C 1427.29 165.236 t 0 r /Helvetica findfont 22.8295 sf 0 0 m (0) show NC gr 
 gsave  408 306 1383 13 C 1395.96 193.725 t 0 r /Helvetica findfont 22.8295 sf 0 0 m (0.02) show NC gr 
 gsave  408 306 1383 13 C 1395.96 225.062 t 0 r /Helvetica findfont 22.8295 sf 0 0 m (0.04) show NC gr 
 gsave  408 306 1383 13 C 1395.96 253.551 t 0 r /Helvetica findfont 22.8295 sf 0 0 m (0.06) show NC gr  1751 59 m 229 Y s 1745 83 m 6 X s 1748 90 m 3 X s 1748 98 m 3 X s 1748 105 m 3 X s 1745 113 m 6 X s 1748 120 m 3 X s 1748 128 m 3 X s 1748 135 m 3
 X s 1745 142 m 6 X s 1748 150 m 3 X s 1748 157 m 3 X s 1748 165 m 3 X s 1745 172 m 6 X s 1748 179 m 3 X s 1748 187 m 3 X s 1748 194 m 3 X s 1745 202 m 6 X s 1748 209 m 3 X s 1748 216 m 3 X s 1748 224 m 3 X s 1745 231 m 6 X s 1748 239 m 3 X s 1748
 246 m 3 X s 1748 254 m 3 X s 1745 261 m 6 X s 1745 83 m 6 X s 1748 76 m 3 X s 1748 68 m 3 X s 1748 61 m 3 X s 1745 261 m 6 X s 1748 268 m 3 X s 1748 276 m 3 X s 1748 283 m 3 X s 1501 203 1557 233 1670 111 1726 206 4 { m21} R 1501 214 m 24 Y s 1495
 238 m 12 X s 1501 191 m -24 Y s 1495 167 m 12 X s 1557 245 m 24 Y s 1551 269 m 12 X s 1557 222 m -24 Y s 1551 198 m 12 X s 1670 123 m 21 Y s 1664 144 m 11 X s 1670 100 m -22 Y s 1664 78 m 11 X s 1726 217 m 24 Y s 1720 241 m 12 X s 1726 194 m -23 Y s
 1720 171 m 12 X s 9 lw 0.95 0.95 0.95 c black 1446 172 m 28 X 3 1 d 61 X 3 1 d 55 X s 1596 174 m 6 X 3 1 d 61 X 4 1 d 61 X 3 1 d 12 X s 1746 177 m 3 X s 0.49 0.6 0.82 c black 0.49 0.6 0.82 c
 gsave  408 306 1383 13 C 1504.21 296.285 t 0 r /Helvetica-Bold findfont 25.6831 sf 0 0 m (9.0 < E < 9.5 GeV) show NC gr  0.52 0.76 0.64 c black 0.52 0.76 0.64 c
 gsave  408 306 1383 13 C 1489.97 259.249 t 0 r /Helvetica-Bold findfont 25.6831 sf 0 0 m 
 220 206 192 185 170 163 148 141 126 118 111 97 83 69 61 47 40 25 18
(A = 0.001, p = 1.000) K NC gr  1 0.6 1 c black 1 0.6 1 c
 gsave  408 306 1383 13 C 1789.1 128.2 t 90 r /Helvetica-Bold findfont 28.5368 sf 0 0 m (/dof=2.7) show NC gr  black 1 0.6 1 c
 gsave  408 306 1383 13 C 1777.71 116.804 t 90 r /Helvetica-Bold findfont 19.9758 sf 0 0 m (2) show NC gr  black 1 0.6 1 c
 gsave  408 306 1383 13 C 1789.1 99.7112 t 90 r /Symbol findfont 28.5368 sf 0 0 m (c) show NC gr  black 3 lw 1 1 1 c 408 306 1837 13 bf black 1 1 1 c black 306 229 1898 59 bl 306 229 1898 59 bl 1898 59 m 306 X s 1898 63 m -4 Y s 2011 63 m -4 Y s 2123
 63 m -4 Y s 2123 63 m -4 Y s
 gsave  408 306 1837 13 C 1888.81 39.8845 t 0 r /Helvetica findfont 22.8295 sf 0 0 m (0) show NC gr 
 gsave  408 306 1837 13 C 2002.77 39.8845 t 0 r /Helvetica findfont 22.8295 sf 0 0 m (1) show NC gr 
 gsave  408 306 1837 13 C 2113.88 39.8845 t 0 r /Helvetica findfont 22.8295 sf 0 0 m (2) show NC gr  1898 288 m 306 X s 1898 284 m 4 Y s 2011 284 m 4 Y s 2123 284 m 4 Y s 2123 284 m 4 Y s 1898 59 m 229 Y s 1904 62 m -6 X s 1901 70 m -3 X s 1901 78 m
 -3 X s 1901 86 m -3 X s 1904 95 m -6 X s 1901 103 m -3 X s 1901 111 m -3 X s 1901 120 m -3 X s 1904 128 m -6 X s 1901 136 m -3 X s 1901 144 m -3 X s 1901 153 m -3 X s 1904 161 m -6 X s 1901 169 m -3 X s 1901 177 m -3 X s 1901 186 m -3 X s 1904 194 m
 -6 X s 1901 202 m -3 X s 1901 210 m -3 X s 1901 219 m -3 X s 1904 227 m -6 X s 1901 235 m -3 X s 1901 243 m -3 X s 1901 252 m -3 X s 1904 260 m -6 X s 1904 62 m -6 X s 1904 260 m -6 X s 1901 268 m -3 X s 1901 277 m -3 X s 1901 285 m -3 X s
 gsave  408 306 1837 13 C 1843.23 54.1289 t 0 r /Helvetica findfont 22.8295 sf 0 0 m (\2550.04) show NC gr 
 gsave  408 306 1837 13 C 1843.23 88.3156 t 0 r /Helvetica findfont 22.8295 sf 0 0 m (\2550.02) show NC gr 
 gsave  408 306 1837 13 C 1880.27 119.653 t 0 r /Helvetica findfont 22.8295 sf 0 0 m (0) show NC gr 
 gsave  408 306 1837 13 C 1848.93 153.84 t 0 r /Helvetica findfont 22.8295 sf 0 0 m (0.02) show NC gr 
 gsave  408 306 1837 13 C 1848.93 188.027 t 0 r /Helvetica findfont 22.8295 sf 0 0 m (0.04) show NC gr 
 gsave  408 306 1837 13 C 1848.93 219.365 t 0 r /Helvetica findfont 22.8295 sf 0 0 m (0.06) show NC gr 
 gsave  408 306 1837 13 C 1848.93 253.551 t 0 r /Helvetica findfont 22.8295 sf 0 0 m (0.08) show NC gr  2204 59 m 229 Y s 2199 62 m 5 X s 2201 70 m 3 X s 2201 78 m 3 X s 2201 86 m 3 X s 2199 95 m 5 X s 2201 103 m 3 X s 2201 111 m 3 X s 2201 120 m 3 X
 s 2199 128 m 5 X s 2201 136 m 3 X s 2201 144 m 3 X s 2201 153 m 3 X s 2199 161 m 5 X s 2201 169 m 3 X s 2201 177 m 3 X s 2201 186 m 3 X s 2199 194 m 5 X s 2201 202 m 3 X s 2201 210 m 3 X s 2201 219 m 3 X s 2199 227 m 5 X s 2201 235 m 3 X s 2201 243
 m 3 X s 2201 252 m 3 X s 2199 260 m 5 X s 2199 62 m 5 X s 2199 260 m 5 X s 2201 268 m 3 X s 2201 277 m 3 X s 2201 285 m 3 X s 1954 147 2011 118 2123 147 2179 227 4 { m21} R 1954 158 m 29 Y s 1949 187 m 11 X s 1954 135 m -29 Y s 1949 106 m 11 X s
 2011 130 m 28 Y s 2005 158 m 11 X s 2011 107 m -29 Y s 2005 78 m 11 X s 2123 158 m 30 Y s 2117 188 m 12 X s 2123 136 m -30 Y s 2117 106 m 12 X s 2179 238 m 31 Y s 2174 269 m 11 X s 2179 215 m -30 Y s 2174 185 m 11 X s 1 0 0 c 9 lw 0.95 0.95 0.95 c
 black 1 0 0 c 1900 128 m 24 X 3 1 d 12 X 3 1 d 7 X 3 1 d 6 X 3 1 d 6 X 3 1 d 3 X 3 1 d 3 X 3 1 d 3 X 3 1 d 3 X 4 1 d 3 X 3 1 d 3 X 3 1 d 3 1 d 3 X 3 1 d 3 1 d 3 X 3 1 d 3 1 d 3 1 d 3 1 d 3 X 3 1 d 3 1 d 4 1 d 3 1 d s 2050 150 m 3 1 d 3 1 d 3 1 d 3 X
 3 1 d 3 1 d 3 1 d 3 1 d 3 1 d 3 2 d 3 1 d 3 1 d 3 1 d 3 1 d 4 1 d 3 1 d 3 1 d 3 2 d 3 1 d 3 1 d 3 1 d 3 2 d 3 1 d 3 1 d 3 2 d 3 1 d 3 1 d 3 2 d 3 1 d 3 1 d 4 2 d 3 1 d 3 2 d 3 1 d 3 2 d 3 1 d 3 2 d 3 1 d 3 2 d 3 2 d 3 1 d 3 2 d 3 2 d 3 1 d 3 2 d 3 2
 d 4 1 d 3 2 d 3 2 d s 2200 215 m 3 2 d s 0.49 0.6 0.82 c black 0.49 0.6 0.82 c
 gsave  408 306 1837 13 C 1948.64 296.285 t 0 r /Helvetica-Bold findfont 25.6831 sf 0 0 m (9.5 < E < 10.0 GeV) show NC gr  0.52 0.76 0.64 c black 0.52 0.76 0.64 c
 gsave  408 306 1837 13 C 1942.94 259.249 t 0 r /Helvetica-Bold findfont 25.6831 sf 0 0 m 
 220 206 192 185 170 163 148 141 125 118 111 97 83 69 61 47 40 25 18
(A = 0.007, p = 2.000) K NC gr  1 0.6 1 c black 1 0.6 1 c
 gsave  408 306 1837 13 C 2242.08 128.2 t 90 r /Helvetica-Bold findfont 28.5368 sf 0 0 m (/dof=0.4) show NC gr  black 1 0.6 1 c
 gsave  408 306 1837 13 C 2230.68 116.804 t 90 r /Helvetica-Bold findfont 19.9758 sf 0 0 m (2) show NC gr  black 1 0.6 1 c
 gsave  408 306 1837 13 C 2242.08 99.7112 t 90 r /Symbol findfont 28.5368 sf 0 0 m (c) show NC gr 
 gr  gr showpage
end
%%EOF
