%!PS-Adobe-2.0 EPSF-2.0
%%BoundingBox:  0 0 567 332
%%Title: Horn1YOffset_nof_summary.eps: Summary
%%Creator: ROOT Version 5.30/06
%%CreationDate: Sun Feb  2 09:29:10 2014
%%EndComments
%%BeginProlog
80 dict begin
/s {stroke} def /l {lineto} def /m {moveto} def /t {translate} def
/r {rotate} def /rl {roll}  def /R {repeat} def
/d {rlineto} def /rm {rmoveto} def /gr {grestore} def /f {eofill} def
/c {setrgbcolor} def /black {0 setgray} def /sd {setdash} def
/cl {closepath} def /sf {scalefont setfont} def /lw {setlinewidth} def
/box {m dup 0 exch d exch 0 d 0 exch neg d cl} def
/NC{systemdict begin initclip end}def/C{NC box clip newpath}def
/bl {box s} def /bf {box f} def /Y { 0 exch d} def /X { 0 d} def 
/K {{pop pop 0 moveto} exch kshow} bind def
/ita {/ang 15 def gsave [1 0 ang dup sin exch cos div 1 0 0] concat} def 
/mp {newpath /y exch def /x exch def} def
/side {[w .77 mul w .23 mul] .385 w mul sd w 0 l currentpoint t -144 r} def
/mr {mp x y w2 0 360 arc} def /m24 {mr s} def /m20 {mr f} def
/mb {mp x y w2 add m w2 neg 0 d 0 w neg d w 0 d 0 w d cl} def
/mt {mp x y w2 add m w2 neg w neg d w 0 d cl} def
/m21 {mb f} def /m25 {mb s} def /m22 {mt f} def /m26{mt s} def
/m23 {mp x y w2 sub m w2 w d w neg 0 d cl f} def
/m27 {mp x y w2 add m w3 neg w2 neg d w3 w2 neg d w3 w2 d cl s} def
/m28 {mp x w2 sub y w2 sub w3 add m w3 0 d  0 w3 neg d w3 0 d 0 w3 d w3 0 d  0 w3 d w3 neg 0 d 0 w3 d w3 neg 0 d 0 w3 neg d w3 neg 0 d cl s } def
/m29 {mp gsave x w2 sub y w2 add w3 sub m currentpoint t 4 {side} repeat cl fill gr} def
/m30 {mp gsave x w2 sub y w2 add w3 sub m currentpoint t 4 {side} repeat cl s gr} def
/m31 {mp x y w2 sub m 0 w d x w2 sub y m w 0 d x w2 sub y w2 add m w w neg d x w2 sub y w2 sub m w w d s} def
/m32 {mp x y w2 sub m w2 w d w neg 0 d cl s} def
/m33 {mp x y w2 add m w3 neg w2 neg d w3 w2 neg d w3 w2 d cl f} def
/m34 {mp x w2 sub y w2 sub w3 add m w3 0 d  0 w3 neg d w3 0 d 0 w3 d w3 0 d  0 w3 d w3 neg 0 d 0 w3 d w3 neg 0 d 0 w3 neg d w3 neg 0 d cl f } def
/m2 {mp x y w2 sub m 0 w d x w2 sub y m w 0 d s} def
/m5 {mp x w2 sub y w2 sub m w w d x w2 sub y w2 add m w w neg d s} def
/reEncode {exch findfont dup length dict begin {1 index /FID eq  {pop pop} {def} ifelse } forall /Encoding exch def currentdict end dup /FontName get exch definefont pop } def [/Times-Bold /Times-Italic /Times-BoldItalic /Helvetica /Helvetica-Oblique
 /Helvetica-Bold /Helvetica-BoldOblique /Courier /Courier-Oblique /Courier-Bold /Courier-BoldOblique /Times-Roman /AvantGarde-Book /AvantGarde-BookOblique /AvantGarde-Demi /AvantGarde-DemiOblique /Bookman-Demi /Bookman-DemiItalic /Bookman-Light
 /Bookman-LightItalic /Helvetica-Narrow /Helvetica-Narrow-Bold /Helvetica-Narrow-BoldOblique /Helvetica-Narrow-Oblique /NewCenturySchlbk-Roman /NewCenturySchlbk-Bold /NewCenturySchlbk-BoldItalic /NewCenturySchlbk-Italic /Palatino-Bold
 /Palatino-BoldItalic /Palatino-Italic /Palatino-Roman ] {ISOLatin1Encoding reEncode } forall%%EndProlog
%%BeginSetup
%%EndSetup
newpath  gsave  .25 .25 scale  gsave  0 0 t black[  ] 0 sd 3 lw 1 1 1 c 2268 1328 0 0 bf black 1 1 1 c black 1588 996 340 199 bl 1588 996 340 199 bl 1 1 1 c 1 0 0 c /w 23 def /w2 {w 2 div} def /w3 {w 3 div} def 380 307 m21 459 305 m21 539 311 m21 618
 311 m21 697 312 m21 777 312 m21 856 303 m21 935 321 m21 black 1015 289 m 3 Y s 1015 314 m 3 Y s 1009 289 m 12 X s 1009 317 m 12 X s 1 0 0 c 1015 303 m21 black 1094 287 m 8 Y s 1094 318 m 8 Y s 1088 287 m 12 X s 1088 326 m 12 X s 1 0 0 c 1094 306 m21
 black 1174 305 m 14 Y s 1174 342 m 14 Y s 1168 305 m 11 X s 1168 356 m 11 X s 1 0 0 c 1174 330 m21 black 1253 300 m 21 Y s 1253 344 m 20 Y s 1247 300 m 12 X s 1247 364 m 12 X s 1 0 0 c 1253 332 m21 black 1332 249 m 26 Y s 1332 298 m 26 Y s 1327 249
 m 11 X s 1327 324 m 11 X s 1 0 0 c 1332 287 m21 black 1412 244 m 32 Y s 1412 299 m 31 Y s 1406 244 m 11 X s 1406 330 m 11 X s 1 0 0 c 1412 287 m21 black 1491 203 m 35 Y s 1491 261 m 36 Y s 1485 203 m 12 X s 1485 297 m 12 X s 1 0 0 c 1491 250 m21
 black 1570 263 m 42 Y s 1570 327 m 42 Y s 1565 263 m 11 X s 1565 369 m 11 X s 1 0 0 c 1570 316 m21 black 1650 286 m 46 Y s 1650 355 m 45 Y s 1644 286 m 11 X s 1644 400 m 11 X s 1 0 0 c 1650 343 m21 black 1729 327 m 52 Y s 1729 402 m 52 Y s 1723 327
 m 12 X s 1723 454 m 12 X s 1 0 0 c 1729 391 m21 black 1809 263 m 53 Y s 1809 339 m 53 Y s 1803 263 m 11 X s 1803 392 m 11 X s 1 0 0 c 1809 327 m21 black 1888 234 m 56 Y s 1888 313 m 55 Y s 1882 234 m 12 X s 1882 368 m 12 X s 1 0 0 c 1888 301 m21
 black 340 199 m 1588 X s
 gsave  2268 1328 0 0 C 954.378 68.3734 t 0 r /Helvetica findfont 62.6756 sf 0 0 m ( Energy \(GeV\) ) show NC gr 
 gsave  2268 1328 0 0 C 928.738 51.28 t 0 r /Symbol findfont 42.7334 sf 0 0 m (m) show NC gr 
 gsave  2268 1328 0 0 C 894.552 68.3734 t 0 r /Symbol findfont 62.6756 sf 0 0 m (n) show NC gr  340 216 m -17 Y s 372 208 m -9 Y s 404 208 m -9 Y s 435 208 m -9 Y s 467 208 m -9 Y s 499 216 m -17 Y s 531 208 m -9 Y s 562 208 m -9 Y s 594 208 m -9 Y s
 626 208 m -9 Y s 658 216 m -17 Y s 689 208 m -9 Y s 721 208 m -9 Y s 753 208 m -9 Y s 785 208 m -9 Y s 816 216 m -17 Y s 848 208 m -9 Y s 880 208 m -9 Y s 912 208 m -9 Y s 943 208 m -9 Y s 975 216 m -17 Y s 1007 208 m -9 Y s 1039 208 m -9 Y s 1070
 208 m -9 Y s 1102 208 m -9 Y s 1134 216 m -17 Y s 1166 208 m -9 Y s 1197 208 m -9 Y s 1229 208 m -9 Y s 1261 208 m -9 Y s 1293 216 m -17 Y s 1324 208 m -9 Y s 1356 208 m -9 Y s 1388 208 m -9 Y s 1420 208 m -9 Y s 1451 216 m -17 Y s 1483 208 m -9 Y s
 1515 208 m -9 Y s 1547 208 m -9 Y s 1578 208 m -9 Y s 1610 216 m -17 Y s 1642 208 m -9 Y s 1674 208 m -9 Y s 1705 208 m -9 Y s 1737 208 m -9 Y s 1769 216 m -17 Y s 1801 208 m -9 Y s 1832 208 m -9 Y s 1864 208 m -9 Y s 1896 208 m -9 Y s 1928 216 m
 -17 Y s
 gsave  2268 1328 0 0 C 319.076 136.747 t 0 r /Helvetica findfont 68.3734 sf 0 0 m (0) show NC gr 
 gsave  2268 1328 0 0 C 484.311 136.747 t 0 r /Helvetica findfont 68.3734 sf 0 0 m (1) show NC gr 
 gsave  2268 1328 0 0 C 635.302 136.747 t 0 r /Helvetica findfont 68.3734 sf 0 0 m (2) show NC gr 
 gsave  2268 1328 0 0 C 794.84 136.747 t 0 r /Helvetica findfont 68.3734 sf 0 0 m (3) show NC gr 
 gsave  2268 1328 0 0 C 954.378 136.747 t 0 r /Helvetica findfont 68.3734 sf 0 0 m (4) show NC gr 
 gsave  2268 1328 0 0 C 1113.92 136.747 t 0 r /Helvetica findfont 68.3734 sf 0 0 m (5) show NC gr 
 gsave  2268 1328 0 0 C 1270.6 136.747 t 0 r /Helvetica findfont 68.3734 sf 0 0 m (6) show NC gr 
 gsave  2268 1328 0 0 C 1430.14 136.747 t 0 r /Helvetica findfont 68.3734 sf 0 0 m (7) show NC gr 
 gsave  2268 1328 0 0 C 1589.68 136.747 t 0 r /Helvetica findfont 68.3734 sf 0 0 m (8) show NC gr 
 gsave  2268 1328 0 0 C 1746.37 136.747 t 0 r /Helvetica findfont 68.3734 sf 0 0 m (9) show NC gr 
 gsave  2268 1328 0 0 C 1888.81 136.747 t 0 r /Helvetica findfont 68.3734 sf 0 0 m (10) show NC gr  340 1195 m 1588 X s 340 1178 m 17 Y s 372 1186 m 9 Y s 404 1186 m 9 Y s 435 1186 m 9 Y s 467 1186 m 9 Y s 499 1178 m 17 Y s 531 1186 m 9 Y s 562 1186
 m 9 Y s 594 1186 m 9 Y s 626 1186 m 9 Y s 658 1178 m 17 Y s 689 1186 m 9 Y s 721 1186 m 9 Y s 753 1186 m 9 Y s 785 1186 m 9 Y s 816 1178 m 17 Y s 848 1186 m 9 Y s 880 1186 m 9 Y s 912 1186 m 9 Y s 943 1186 m 9 Y s 975 1178 m 17 Y s 1007 1186 m 9 Y s
 1039 1186 m 9 Y s 1070 1186 m 9 Y s 1102 1186 m 9 Y s 1134 1178 m 17 Y s 1166 1186 m 9 Y s 1197 1186 m 9 Y s 1229 1186 m 9 Y s 1261 1186 m 9 Y s 1293 1178 m 17 Y s 1324 1186 m 9 Y s 1356 1186 m 9 Y s 1388 1186 m 9 Y s 1420 1186 m 9 Y s 1451 1178 m
 17 Y s 1483 1186 m 9 Y s 1515 1186 m 9 Y s 1547 1186 m 9 Y s 1578 1186 m 9 Y s 1610 1178 m 17 Y s 1642 1186 m 9 Y s 1674 1186 m 9 Y s 1705 1186 m 9 Y s 1737 1186 m 9 Y s 1769 1178 m 17 Y s 1801 1186 m 9 Y s 1832 1186 m 9 Y s 1864 1186 m 9 Y s 1896
 1186 m 9 Y s 1928 1178 m 17 Y s 340 199 m 996 Y s
 gsave  2268 1328 0 0 C 170.933 336.169 t 90 r /Helvetica findfont 62.6756 sf 0 0 m (Near/Far Ratio to Nominal) show NC gr  371 199 m -31 X s 355 221 m -15 X s 355 243 m -15 X s 355 266 m -15 X s 355 288 m -15 X s 371 310 m -31 X s 355 332 m -15 X s
 355 354 m -15 X s 355 376 m -15 X s 355 398 m -15 X s 371 420 m -31 X s 355 443 m -15 X s 355 465 m -15 X s 355 487 m -15 X s 355 509 m -15 X s 371 531 m -31 X s 355 553 m -15 X s 355 575 m -15 X s 355 597 m -15 X s 355 620 m -15 X s 371 642 m -31 X
 s 355 664 m -15 X s 355 686 m -15 X s 355 708 m -15 X s 355 730 m -15 X s 371 752 m -31 X s 355 774 m -15 X s 355 797 m -15 X s 355 819 m -15 X s 355 841 m -15 X s 371 863 m -31 X s 355 885 m -15 X s 355 907 m -15 X s 355 929 m -15 X s 355 951 m -15
 X s 371 974 m -31 X s 355 996 m -15 X s 355 1018 m -15 X s 355 1040 m -15 X s 355 1062 m -15 X s 371 1084 m -31 X s 355 1106 m -15 X s 355 1128 m -15 X s 355 1151 m -15 X s 355 1173 m -15 X s 371 1195 m -31 X s 371 199 m -31 X s 371 1195 m -31 X s
 gsave  2268 1328 0 0 C 196.573 173.782 t 0 r /Helvetica findfont 68.3734 sf 0 0 m (0.95) show NC gr 
 gsave  2268 1328 0 0 C 301.982 282.04 t 0 r /Helvetica findfont 68.3734 sf 0 0 m (1) show NC gr 
 gsave  2268 1328 0 0 C 196.573 395.996 t 0 r /Helvetica findfont 68.3734 sf 0 0 m (1.05) show NC gr 
 gsave  2268 1328 0 0 C 245.005 504.254 t 0 r /Helvetica findfont 68.3734 sf 0 0 m (1.1) show NC gr 
 gsave  2268 1328 0 0 C 196.573 618.209 t 0 r /Helvetica findfont 68.3734 sf 0 0 m (1.15) show NC gr 
 gsave  2268 1328 0 0 C 233.609 726.467 t 0 r /Helvetica findfont 68.3734 sf 0 0 m (1.2) show NC gr 
 gsave  2268 1328 0 0 C 196.573 837.574 t 0 r /Helvetica findfont 68.3734 sf 0 0 m (1.25) show NC gr 
 gsave  2268 1328 0 0 C 233.609 948.68 t 0 r /Helvetica findfont 68.3734 sf 0 0 m (1.3) show NC gr 
 gsave  2268 1328 0 0 C 196.573 1059.79 t 0 r /Helvetica findfont 68.3734 sf 0 0 m (1.35) show NC gr 
 gsave  2268 1328 0 0 C 233.609 1168.04 t 0 r /Helvetica findfont 68.3734 sf 0 0 m (1.4) show NC gr  1928 199 m 996 Y s 1897 199 m 31 X s 1912 221 m 16 X s 1912 243 m 16 X s 1912 266 m 16 X s 1912 288 m 16 X s 1897 310 m 31 X s 1912 332 m 16 X s 1912
 354 m 16 X s 1912 376 m 16 X s 1912 398 m 16 X s 1897 420 m 31 X s 1912 443 m 16 X s 1912 465 m 16 X s 1912 487 m 16 X s 1912 509 m 16 X s 1897 531 m 31 X s 1912 553 m 16 X s 1912 575 m 16 X s 1912 597 m 16 X s 1912 620 m 16 X s 1897 642 m 31 X s
 1912 664 m 16 X s 1912 686 m 16 X s 1912 708 m 16 X s 1912 730 m 16 X s 1897 752 m 31 X s 1912 774 m 16 X s 1912 797 m 16 X s 1912 819 m 16 X s 1912 841 m 16 X s 1897 863 m 31 X s 1912 885 m 16 X s 1912 907 m 16 X s 1912 929 m 16 X s 1912 951 m 16 X
 s 1897 974 m 31 X s 1912 996 m 16 X s 1912 1018 m 16 X s 1912 1040 m 16 X s 1912 1062 m 16 X s 1897 1084 m 31 X s 1912 1106 m 16 X s 1912 1128 m 16 X s 1912 1151 m 16 X s 1912 1173 m 16 X s 1897 1195 m 31 X s 1897 199 m 31 X s 1897 1195 m 31 X s 1 0
 0 c 6 lw 1 1 1 c 1 0 0 c 380 309 m 20 X 21 1 d 72 X 29 -1 d 53 X 29 1 d 157 X 12 -1 d 22 X 19 -1 d 23 X 7 -1 d 28 X 9 1 d 10 X 20 1 d 24 X 18 1 d 58 X 4 1 d 25 X 20 1 d 68 X 30 -2 d 87 X 5 -1 d 11 X 5 -1 d 4 X 6 -1 d 6 -1 d 17 -3 d 5 -1 d 4 X 5 -1 d
 12 X 3 -1 d 8 X 3 1 d 11 X 4 1 d 5 X 5 1 d 8 1 d 10 2 d 6 1 d 4 1 d 8 X 4 1 d 30 X 6 -1 d 8 X 16 -2 d 11 X 5 -1 d 15 X 5 1 d 10 X 6 1 d 8 X 18 2 d 7 1 d 10 X 5 1 d 28 X 7 -1 d 10 X 16 -1 d 8 X 6 -1 d 25 X 9 1 d 19 X 14 1 d 23 1 d 5 X 5 1 d 7 X 10 1
 d 12 1 d 6 1 d 10 X 3 1 d 19 X 3 -1 d 9 X 5 -1 d 5 X 4 -1 d 4 -1 d 5 -1 d 4 X 4 -1 d 3 -1 d 4 -1 d 3 -1 d 4 -1 d 3 -1 d 3 -1 d 3 -1 d 3 -2 d 3 -1 d 2 -1 d 2 -2 d 2 -1 d 2 -1 d 1 -2 d 1 X s 3 lw /w 2 def /w2 {w 2 div} def /w3 {w 3 div} def 380 309
 459 310 539 309 618 310 697 310 777 309 856 307 935 309 1015 311 1094 312 1174 310 1253 309 1332 300 1412 309 1491 305 1570 311 1650 308 1729 311 1809 315 1888 293 20 { m20} R 6 lw black 1 0 0 c
 gsave  2268 1328 0 0 C 2036.96 364.658 t 0 r /Helvetica-Bold findfont 48.4311 sf 0 0 m (/dof=0.4) show NC gr  black 1 0 0 c
 gsave  2268 1328 0 0 C 2017.01 381.751 t 0 r /Helvetica-Bold findfont 34.1867 sf 0 0 m (2) show NC gr  black 1 0 0 c
 gsave  2268 1328 0 0 C 1991.37 364.658 t 0 r /Symbol findfont 48.4311 sf 0 0 m (c) show NC gr  black 3 lw 340 310 m 1588 X s
 gsave  2268 1328 0 0 C 424.485 1213.63 t 0 r /Helvetica-Bold findfont 42.7334 sf 0 0 m (0.5 mm) show NC gr  1 0 0 c /w 23 def /w2 {w 2 div} def /w3 {w 3 div} def 383 1228 m21 black 1 1 1 c 0 0 1 c 380 529 m21 459 536 m21 539 530 m21 618 530 m21 697
 530 m21 777 529 m21 856 524 m21 black 935 523 m s 935 546 m s 930 523 m 11 X s 930 546 m 11 X s 0 0 1 c 935 535 m21 black 1015 511 m 4 Y s 1015 538 m 4 Y s 1009 511 m 12 X s 1009 542 m 12 X s 0 0 1 c 1015 527 m21 black 1094 529 m 10 Y s 1094 562 m
 10 Y s 1088 529 m 12 X s 1088 572 m 12 X s 0 0 1 c 1094 551 m21 black 1174 494 m 16 Y s 1174 533 m 16 Y s 1168 494 m 11 X s 1168 549 m 11 X s 0 0 1 c 1174 521 m21 black 1253 537 m 24 Y s 1253 584 m 24 Y s 1247 537 m 12 X s 1247 608 m 12 X s 0 0 1 c
 1253 572 m21 black 1332 447 m 30 Y s 1332 500 m 29 Y s 1327 447 m 11 X s 1327 529 m 11 X s 0 0 1 c 1332 488 m21 black 1412 503 m 36 Y s 1412 562 m 37 Y s 1406 503 m 11 X s 1406 599 m 11 X s 0 0 1 c 1412 551 m21 black 1491 513 m 42 Y s 1491 578 m 42
 Y s 1485 513 m 12 X s 1485 620 m 12 X s 0 0 1 c 1491 566 m21 black 1570 487 m 46 Y s 1570 555 m 46 Y s 1565 487 m 11 X s 1565 601 m 11 X s 0 0 1 c 1570 544 m21 black 1650 470 m 51 Y s 1650 543 m 51 Y s 1644 470 m 11 X s 1644 594 m 11 X s 0 0 1 c
 1650 532 m21 black 1729 357 m 52 Y s 1729 432 m 53 Y s 1723 357 m 12 X s 1723 485 m 12 X s 0 0 1 c 1729 421 m21 black 1809 501 m 60 Y s 1809 583 m 60 Y s 1803 501 m 11 X s 1803 643 m 11 X s 0 0 1 c 1809 572 m21 black 1888 385 m 60 Y s 1888 468 m 60
 Y s 1882 385 m 12 X s 1882 528 m 12 X s 0 0 1 c 1888 456 m21 6 lw 1 1 1 c 0 0 1 c 380 530 m 20 X 21 1 d 51 X 51 -1 d 50 X 30 1 d 128 X 22 -1 d 19 X 5 -1 d 56 -3 d 55 X 15 1 d 32 2 d 22 1 d 19 1 d 18 2 d 18 1 d 3 X 6 1 d 8 1 d 12 1 d 16 3 d 8 1 d 6 1
 d 12 X 5 1 d 6 X 5 -1 d 10 X 6 -1 d 7 -1 d 8 -2 d 24 -4 d 7 -1 d 5 -1 d 5 -1 d 8 X 7 -1 d 57 X 5 -1 d 5 X 4 -1 d 4 -1 d 5 -1 d 5 -1 d 6 -2 d 22 -7 d 5 -1 d 4 -1 d 4 -1 d 5 -1 d 3 -1 d 8 X 3 -1 d 5 X 3 1 d 4 X 4 1 d 4 1 d 4 1 d 5 1 d 6 2 d 14 4 d 7 2
 d 5 2 d 5 1 d 4 1 d 3 X 4 1 d 17 X 66 -7 d 4 X 5 1 d 5 X 5 1 d 6 1 d 8 2 d 16 3 d 6 2 d 6 X 5 1 d 4 1 d 23 X 5 -1 d 6 -1 d 9 -1 d 18 -3 d 6 -1 d 5 -1 d 6 -1 d 15 X 5 1 d 5 X 6 1 d 6 1 d 7 1 d 11 2 d 14 3 d 7 2 d 6 1 d 6 X 2 1 d 7 1 d 9 1 d 17 3 d 7
 1 d 6 1 d 9 X 5 1 d 8 X 4 -1 d 4 X 4 -1 d 4 X 5 -2 d 5 -1 d 5 -1 d 5 -2 d 4 -1 d 4 -2 d 4 -2 d 4 -2 d 4 -2 d 4 -2 d 3 -2 d 4 -3 d 3 -2 d 3 -3 d 3 -2 d 3 -3 d 2 -3 d 3 -3 d 2 -3 d 2 -3 d 2 -3 d 1 -2 d s 3 lw /w 2 def /w2 {w 2 div} def /w3 {w 3 div}
 def 380 530 459 531 539 530 618 531 697 531 777 529 856 526 935 529 1015 534 1094 543 1174 531 1253 529 1332 510 1412 528 1491 521 1570 533 1650 524 1729 537 1809 543 1888 494 20 { m20} R 6 lw black 0 0 1 c
 gsave  2268 1328 0 0 C 2036.96 615.36 t 0 r /Helvetica-Bold findfont 48.4311 sf 0 0 m (/dof=0.4) show NC gr  black 0 0 1 c
 gsave  2268 1328 0 0 C 2017.01 632.454 t 0 r /Helvetica-Bold findfont 34.1867 sf 0 0 m (2) show NC gr  black 0 0 1 c
 gsave  2268 1328 0 0 C 1991.37 615.36 t 0 r /Symbol findfont 48.4311 sf 0 0 m (c) show NC gr  black 3 lw 340 531 m 1588 X s
 gsave  2268 1328 0 0 C 877.458 1213.63 t 0 r /Helvetica-Bold findfont 39.8845 sf 0 0 m (1 mm) show NC gr  0 0 1 c /w 23 def /w2 {w 2 div} def /w3 {w 3 div} def 836 1228 m21 black 1 1 1 c 1 0 1 c 380 749 m21 459 751 m21 539 748 m21 618 754 m21 697
 753 m21 777 742 m21 856 740 m21 black 935 731 m 1 Y s 935 755 m 2 Y s 930 731 m 11 X s 930 757 m 11 X s 1 0 1 c 935 744 m21 black 1015 758 m 6 Y s 1015 787 m 6 Y s 1009 758 m 12 X s 1009 793 m 12 X s 1 0 1 c 1015 776 m21 black 1094 751 m 12 Y s 1094
 786 m 12 Y s 1088 751 m 12 X s 1088 798 m 12 X s 1 0 1 c 1094 775 m21 black 1174 721 m 19 Y s 1174 762 m 19 Y s 1168 721 m 11 X s 1168 781 m 11 X s 1 0 1 c 1174 751 m21 black 1253 718 m 26 Y s 1253 767 m 26 Y s 1247 718 m 12 X s 1247 793 m 12 X s 1
 0 1 c 1253 756 m21 black 1332 689 m 33 Y s 1332 745 m 33 Y s 1327 689 m 11 X s 1327 778 m 11 X s 1 0 1 c 1332 734 m21 black 1412 706 m 40 Y s 1412 769 m 41 Y s 1406 706 m 11 X s 1406 810 m 11 X s 1 0 1 c 1412 758 m21 black 1491 671 m 45 Y s 1491 739
 m 46 Y s 1485 671 m 12 X s 1485 785 m 12 X s 1 0 1 c 1491 728 m21 black 1570 717 m 51 Y s 1570 791 m 52 Y s 1565 717 m 11 X s 1565 843 m 11 X s 1 0 1 c 1570 780 m21 black 1650 639 m 54 Y s 1650 716 m 54 Y s 1644 639 m 11 X s 1644 770 m 11 X s 1 0 1
 c 1650 704 m21 black 1729 779 m 63 Y s 1729 865 m 63 Y s 1723 779 m 12 X s 1723 928 m 12 X s 1 0 1 c 1729 853 m21 black 1809 680 m 66 Y s 1809 769 m 66 Y s 1803 680 m 11 X s 1803 835 m 11 X s 1 0 1 c 1809 757 m21 black 1888 578 m 66 Y s 1888 667 m
 66 Y s 1882 578 m 12 X s 1882 733 m 12 X s 1 0 1 c 1888 656 m21 6 lw 1 1 1 c 1 0 1 c 380 750 m 22 1 d 21 1 d 21 X 15 1 d 14 -1 d 53 -2 d 28 X 21 1 d 27 2 d 16 X 26 1 d 21 -1 d 21 X 11 -1 d 80 -6 d 53 -4 d 16 -1 d 10 X 40 -1 d 13 X 9 1 d 9 X 8 2 d 10
 1 d 11 3 d 9 2 d 12 4 d 14 5 d 20 7 d 4 2 d 5 2 d 6 3 d 7 4 d 11 6 d 11 8 d 7 4 d 6 3 d 5 2 d 4 1 d 5 2 d 4 X 4 1 d 4 X 4 -1 d 4 -1 d 4 -1 d 4 -2 d 5 -3 d 5 -3 d 6 -4 d 7 -6 d 17 -15 d 6 -5 d 6 -3 d 4 -3 d 4 -2 d 4 -1 d 5 -2 d 5 -2 d 7 -1 d 7 -1 d 9
 X 22 -2 d 8 X 6 -1 d 6 -1 d 4 -1 d 5 -2 d 5 -2 d 7 -3 d 7 -5 d 24 -13 d 7 -4 d 5 -2 d 5 -2 d 5 -1 d 4 X 4 -1 d 6 X 4 1 d 4 1 d 5 2 d 5 2 d 6 3 d 8 4 d 16 10 d 6 3 d 6 3 d 5 2 d 4 1 d 4 1 d 2 X 4 1 d 6 X 5 -1 d 7 X 9 -2 d 26 -6 d 7 -1 d 5 -1 d 5 X 5
 1 d 5 X 5 2 d 5 1 d 6 3 d 9 4 d 16 8 d 8 3 d 6 2 d 5 2 d 5 1 d 13 X 4 -1 d 5 -2 d 4 -2 d 5 -2 d 7 -4 d 18 -13 d 6 -3 d 5 -3 d 5 -2 d 4 -1 d 4 -1 d 4 -1 d 5 X 3 1 d 4 1 d 5 2 d 4 2 d 4 2 d 4 4 d 6 4 d 6 6 d 16 14 d 5 5 d 5 4 d 5 3 d 4 3 d 3 2 d 4 1 d
 1 1 d 12 4 d 9 2 d 7 2 d 7 1 d 7 X 6 1 d 5 -1 d 5 X 5 -1 d 6 -1 d 4 -2 d 5 -2 d 2 -1 d 5 -2 d 5 -4 d 5 -3 d 5 -4 d 4 -4 d 5 -5 d 5 -4 d 4 -6 d 5 -5 d 4 -6 d 4 -7 d 4 -6 d 5 -7 d 3 -7 d 4 -7 d 3 -8 d 3 -8 d 3 -7 d 3 -8 d s 3 lw /w 2 def /w2 {w 2 div}
 def /w3 {w 3 div} def 380 750 459 753 539 750 618 753 697 752 777 746 856 741 935 743 1015 767 1094 803 1174 753 1253 742 1332 707 1412 740 1491 731 1570 757 1650 722 1729 777 1809 779 1888 671 20 { m20} R 6 lw black 1 0 1 c
 gsave  2268 1328 0 0 C 2036.96 863.214 t 0 r /Helvetica-Bold findfont 48.4311 sf 0 0 m (/dof=0.2) show NC gr  black 1 0 1 c
 gsave  2268 1328 0 0 C 2017.01 880.307 t 0 r /Helvetica-Bold findfont 34.1867 sf 0 0 m (2) show NC gr  black 1 0 1 c
 gsave  2268 1328 0 0 C 1991.37 863.214 t 0 r /Symbol findfont 48.4311 sf 0 0 m (c) show NC gr  black 3 lw 340 752 m 1588 X s
 gsave  2268 1328 0 0 C 1330.43 1213.63 t 0 r /Helvetica-Bold findfont 39.8845 sf 0 0 m (2 mm) show NC gr  1 0 1 c /w 23 def /w2 {w 2 div} def /w3 {w 3 div} def 1290 1228 m21 black 1 1 1 c 0 0.733333 1 c 380 972 m21 459 975 m21 539 971 m21 618 975
 m21 697 973 m21 777 965 m21 black 856 949 m s 856 972 m s 850 949 m 12 X s 850 972 m 12 X s 0 0.733333 1 c 856 961 m21 black 935 941 m 3 Y s 935 966 m 3 Y s 930 941 m 11 X s 930 969 m 11 X s 0 0.733333 1 c 935 955 m21 black 1015 975 m 7 Y s 1015
 1005 m 7 Y s 1009 975 m 12 X s 1009 1012 m 12 X s 0 0.733333 1 c 1015 993 m21 black 1094 1052 m 14 Y s 1094 1089 m 15 Y s 1088 1052 m 12 X s 1088 1104 m 12 X s 0 0.733333 1 c 1094 1078 m21 black 1174 942 m 21 Y s 1174 986 m 21 Y s 1168 942 m 11 X s
 1168 1007 m 11 X s 0 0.733333 1 c 1174 975 m21 black 1253 897 m 29 Y s 1253 949 m 28 Y s 1247 897 m 12 X s 1247 977 m 12 X s 0 0.733333 1 c 1253 937 m21 black 1332 856 m 36 Y s 1332 915 m 36 Y s 1327 856 m 11 X s 1327 951 m 11 X s 0 0.733333 1 c
 1332 904 m21 black 1412 883 m 44 Y s 1412 950 m 43 Y s 1406 883 m 11 X s 1406 993 m 11 X s 0 0.733333 1 c 1412 938 m21 black 1491 880 m 50 Y s 1491 953 m 50 Y s 1485 880 m 12 X s 1485 1003 m 12 X s 0 0.733333 1 c 1491 941 m21 black 1570 888 m 56 Y s
 1570 966 m 56 Y s 1565 888 m 11 X s 1565 1022 m 11 X s 0 0.733333 1 c 1570 955 m21 black 1650 860 m 61 Y s 1650 944 m 60 Y s 1644 860 m 11 X s 1644 1004 m 11 X s 0 0.733333 1 c 1650 932 m21 black 1729 908 m 66 Y s 1729 997 m 66 Y s 1723 908 m 12 X s
 1723 1063 m 12 X s 0 0.733333 1 c 1729 986 m21 black 1809 929 m 72 Y s 1809 1024 m 73 Y s 1803 929 m 11 X s 1803 1097 m 11 X s 0 0.733333 1 c 1809 1013 m21 black 1888 807 m 74 Y s 1888 903 m 74 Y s 1882 807 m 12 X s 1882 977 m 12 X s 0 0.733333 1 c
 1888 892 m21 6 lw 1 1 1 c 0 0.733333 1 c 380 970 m 22 2 d 22 1 d 23 1 d 27 X 52 -4 d 13 X 15 1 d 22 2 d 26 2 d 16 X 26 1 d 20 -1 d 19 -1 d 14 -1 d 14 -1 d 66 -10 d 21 -2 d 29 -1 d 29 -1 d 12 -1 d 33 -2 d 11 -1 d 8 1 d 7 1 d 8 1 d 8 3 d 9 3 d 10 4 d
 8 4 d 12 6 d 13 8 d 20 13 d 5 3 d 5 5 d 6 6 d 10 10 d 13 14 d 6 6 d 5 5 d 5 4 d 5 3 d 4 2 d 4 2 d 4 X 4 1 d 3 X 4 -1 d 3 -1 d 4 -3 d 4 -2 d 4 -4 d 4 -4 d 5 -6 d 6 -7 d 8 -12 d 12 -18 d 6 -8 d 5 -6 d 4 -5 d 4 -3 d 4 -3 d 3 -2 d 5 -3 d 5 -2 d 6 -3 d 7
 -1 d 9 -2 d 15 -1 d 13 -2 d 7 -1 d 6 -2 d 6 -2 d 6 -2 d 6 -4 d 8 -5 d 18 -13 d 9 -6 d 6 -4 d 6 -3 d 6 -3 d 5 -1 d 4 -1 d 10 X 4 1 d 5 1 d 6 3 d 6 3 d 8 5 d 14 10 d 10 7 d 7 4 d 5 3 d 4 2 d 6 1 d 5 1 d 6 X 68 -10 d 5 1 d 5 2 d 6 3 d 7 4 d 9 6 d 15 10
 d 7 4 d 6 3 d 5 2 d 5 1 d 9 X 4 -1 d 4 -1 d 5 -3 d 4 -3 d 5 -4 d 5 -6 d 16 -17 d 7 -7 d 4 -4 d 5 -4 d 4 -3 d 4 -2 d 4 -2 d 9 X 3 1 d 4 1 d 3 2 d 4 3 d 4 4 d 4 5 d 4 5 d 5 8 d 7 11 d 12 20 d 6 8 d 5 7 d 4 5 d 4 5 d 4 3 d 3 2 d 3 2 d 7 3 d 7 3 d 7 2 d
 6 1 d 7 1 d 7 X 6 -1 d 5 -1 d 7 -1 d 5 -2 d 6 -3 d 5 -3 d 5 -4 d 5 -4 d 5 -5 d 5 -6 d 5 -5 d 5 -7 d 5 -7 d 5 -7 d 5 -9 d 5 -8 d 5 -10 d 5 -10 d 4 -10 d 4 -11 d 4 -11 d 4 -12 d 4 -11 d 3 -12 d 1 -2 d s 3 lw /w 2 def /w2 {w 2 div} def /w3 {w 3 div}
 def 380 970 459 974 539 970 618 975 697 973 777 962 856 958 935 957 1015 998 1094 1059 1174 974 1253 955 1332 913 1412 953 1491 944 1570 980 1650 923 1729 1015 1809 1010 1888 863 20 { m20} R 6 lw black 0 0.733333 1 c
 gsave  2268 1328 0 0 C 2039.81 1113.92 t 0 r /Helvetica-Bold findfont 48.4311 sf 0 0 m (/dof=0.1) show NC gr  black 0 0.733333 1 c
 gsave  2268 1328 0 0 C 2019.86 1131.01 t 0 r /Helvetica-Bold findfont 34.1867 sf 0 0 m (2) show NC gr  black 0 0.733333 1 c
 gsave  2268 1328 0 0 C 1994.22 1113.92 t 0 r /Symbol findfont 48.4311 sf 0 0 m (c) show NC gr  black 3 lw 340 974 m 1588 X s
 gsave  2268 1328 0 0 C 1783.41 1213.63 t 0 r /Helvetica-Bold findfont 42.7334 sf 0 0 m (2.5 mm) show NC gr  0 0.733333 1 c /w 23 def /w2 {w 2 div} def /w3 {w 3 div} def 1743 1228 m21
 gr  gr showpage
end
%%EOF
