%!PS-Adobe-2.0 EPSF-2.0
%%BoundingBox:  0 0 567 332
%%Title: Horn2XTilt_nof_summary.eps: Summary
%%Creator: ROOT Version 5.30/06
%%CreationDate: Sun Feb  2 09:29:30 2014
%%EndComments
%%BeginProlog
80 dict begin
/s {stroke} def /l {lineto} def /m {moveto} def /t {translate} def
/r {rotate} def /rl {roll}  def /R {repeat} def
/d {rlineto} def /rm {rmoveto} def /gr {grestore} def /f {eofill} def
/c {setrgbcolor} def /black {0 setgray} def /sd {setdash} def
/cl {closepath} def /sf {scalefont setfont} def /lw {setlinewidth} def
/box {m dup 0 exch d exch 0 d 0 exch neg d cl} def
/NC{systemdict begin initclip end}def/C{NC box clip newpath}def
/bl {box s} def /bf {box f} def /Y { 0 exch d} def /X { 0 d} def 
/K {{pop pop 0 moveto} exch kshow} bind def
/ita {/ang 15 def gsave [1 0 ang dup sin exch cos div 1 0 0] concat} def 
/mp {newpath /y exch def /x exch def} def
/side {[w .77 mul w .23 mul] .385 w mul sd w 0 l currentpoint t -144 r} def
/mr {mp x y w2 0 360 arc} def /m24 {mr s} def /m20 {mr f} def
/mb {mp x y w2 add m w2 neg 0 d 0 w neg d w 0 d 0 w d cl} def
/mt {mp x y w2 add m w2 neg w neg d w 0 d cl} def
/m21 {mb f} def /m25 {mb s} def /m22 {mt f} def /m26{mt s} def
/m23 {mp x y w2 sub m w2 w d w neg 0 d cl f} def
/m27 {mp x y w2 add m w3 neg w2 neg d w3 w2 neg d w3 w2 d cl s} def
/m28 {mp x w2 sub y w2 sub w3 add m w3 0 d  0 w3 neg d w3 0 d 0 w3 d w3 0 d  0 w3 d w3 neg 0 d 0 w3 d w3 neg 0 d 0 w3 neg d w3 neg 0 d cl s } def
/m29 {mp gsave x w2 sub y w2 add w3 sub m currentpoint t 4 {side} repeat cl fill gr} def
/m30 {mp gsave x w2 sub y w2 add w3 sub m currentpoint t 4 {side} repeat cl s gr} def
/m31 {mp x y w2 sub m 0 w d x w2 sub y m w 0 d x w2 sub y w2 add m w w neg d x w2 sub y w2 sub m w w d s} def
/m32 {mp x y w2 sub m w2 w d w neg 0 d cl s} def
/m33 {mp x y w2 add m w3 neg w2 neg d w3 w2 neg d w3 w2 d cl f} def
/m34 {mp x w2 sub y w2 sub w3 add m w3 0 d  0 w3 neg d w3 0 d 0 w3 d w3 0 d  0 w3 d w3 neg 0 d 0 w3 d w3 neg 0 d 0 w3 neg d w3 neg 0 d cl f } def
/m2 {mp x y w2 sub m 0 w d x w2 sub y m w 0 d s} def
/m5 {mp x w2 sub y w2 sub m w w d x w2 sub y w2 add m w w neg d s} def
/reEncode {exch findfont dup length dict begin {1 index /FID eq  {pop pop} {def} ifelse } forall /Encoding exch def currentdict end dup /FontName get exch definefont pop } def [/Times-Bold /Times-Italic /Times-BoldItalic /Helvetica /Helvetica-Oblique
 /Helvetica-Bold /Helvetica-BoldOblique /Courier /Courier-Oblique /Courier-Bold /Courier-BoldOblique /Times-Roman /AvantGarde-Book /AvantGarde-BookOblique /AvantGarde-Demi /AvantGarde-DemiOblique /Bookman-Demi /Bookman-DemiItalic /Bookman-Light
 /Bookman-LightItalic /Helvetica-Narrow /Helvetica-Narrow-Bold /Helvetica-Narrow-BoldOblique /Helvetica-Narrow-Oblique /NewCenturySchlbk-Roman /NewCenturySchlbk-Bold /NewCenturySchlbk-BoldItalic /NewCenturySchlbk-Italic /Palatino-Bold
 /Palatino-BoldItalic /Palatino-Italic /Palatino-Roman ] {ISOLatin1Encoding reEncode } forall%%EndProlog
%%BeginSetup
%%EndSetup
newpath  gsave  .25 .25 scale  gsave  0 0 t black[  ] 0 sd 3 lw 1 1 1 c 2268 1328 0 0 bf black 1 1 1 c black 1588 996 340 199 bl 1588 996 340 199 bl 1 1 1 c 1 0 0 c /w 23 def /w2 {w 2 div} def /w3 {w 3 div} def 380 308 m21 459 312 m21 539 308 m21 618
 308 m21 697 307 m21 777 310 m21 856 314 m21 935 312 m21 black 1015 301 m 3 Y s 1015 327 m 3 Y s 1009 301 m 12 X s 1009 330 m 12 X s 1 0 0 c 1015 315 m21 black 1094 286 m 8 Y s 1094 316 m 8 Y s 1088 286 m 12 X s 1088 324 m 12 X s 1 0 0 c 1094 305 m21
 black 1174 309 m 14 Y s 1174 346 m 14 Y s 1168 309 m 11 X s 1168 360 m 11 X s 1 0 0 c 1174 334 m21 black 1253 282 m 21 Y s 1253 326 m 20 Y s 1247 282 m 12 X s 1247 346 m 12 X s 1 0 0 c 1253 314 m21 black 1332 295 m 27 Y s 1332 345 m 27 Y s 1327 295
 m 11 X s 1327 372 m 11 X s 1 0 0 c 1332 334 m21 black 1412 283 m 32 Y s 1412 338 m 32 Y s 1406 283 m 11 X s 1406 370 m 11 X s 1 0 0 c 1412 327 m21 black 1491 245 m 36 Y s 1491 304 m 36 Y s 1485 245 m 12 X s 1485 340 m 12 X s 1 0 0 c 1491 293 m21
 black 1570 274 m 41 Y s 1570 338 m 41 Y s 1565 274 m 11 X s 1565 379 m 11 X s 1 0 0 c 1570 326 m21 black 1650 203 m 43 Y s 1650 268 m 43 Y s 1644 203 m 11 X s 1644 311 m 11 X s 1 0 0 c 1650 257 m21 black 1729 225 m 48 Y s 1729 295 m 48 Y s 1723 225
 m 12 X s 1723 343 m 12 X s 1 0 0 c 1729 284 m21 black 1809 329 m 56 Y s 1809 407 m 56 Y s 1803 329 m 11 X s 1803 463 m 11 X s 1 0 0 c 1809 396 m21 black 1888 199 m 27 Y s 1888 249 m 53 Y s 1882 199 m 12 X s 1882 302 m 12 X s 1 0 0 c 1888 237 m21
 black 340 199 m 1588 X s
 gsave  2268 1328 0 0 C 954.378 68.3734 t 0 r /Helvetica findfont 62.6756 sf 0 0 m ( Energy \(GeV\) ) show NC gr 
 gsave  2268 1328 0 0 C 928.738 51.28 t 0 r /Symbol findfont 42.7334 sf 0 0 m (m) show NC gr 
 gsave  2268 1328 0 0 C 894.552 68.3734 t 0 r /Symbol findfont 62.6756 sf 0 0 m (n) show NC gr  340 216 m -17 Y s 372 208 m -9 Y s 404 208 m -9 Y s 435 208 m -9 Y s 467 208 m -9 Y s 499 216 m -17 Y s 531 208 m -9 Y s 562 208 m -9 Y s 594 208 m -9 Y s
 626 208 m -9 Y s 658 216 m -17 Y s 689 208 m -9 Y s 721 208 m -9 Y s 753 208 m -9 Y s 785 208 m -9 Y s 816 216 m -17 Y s 848 208 m -9 Y s 880 208 m -9 Y s 912 208 m -9 Y s 943 208 m -9 Y s 975 216 m -17 Y s 1007 208 m -9 Y s 1039 208 m -9 Y s 1070
 208 m -9 Y s 1102 208 m -9 Y s 1134 216 m -17 Y s 1166 208 m -9 Y s 1197 208 m -9 Y s 1229 208 m -9 Y s 1261 208 m -9 Y s 1293 216 m -17 Y s 1324 208 m -9 Y s 1356 208 m -9 Y s 1388 208 m -9 Y s 1420 208 m -9 Y s 1451 216 m -17 Y s 1483 208 m -9 Y s
 1515 208 m -9 Y s 1547 208 m -9 Y s 1578 208 m -9 Y s 1610 216 m -17 Y s 1642 208 m -9 Y s 1674 208 m -9 Y s 1705 208 m -9 Y s 1737 208 m -9 Y s 1769 216 m -17 Y s 1801 208 m -9 Y s 1832 208 m -9 Y s 1864 208 m -9 Y s 1896 208 m -9 Y s 1928 216 m
 -17 Y s
 gsave  2268 1328 0 0 C 319.076 136.747 t 0 r /Helvetica findfont 68.3734 sf 0 0 m (0) show NC gr 
 gsave  2268 1328 0 0 C 484.311 136.747 t 0 r /Helvetica findfont 68.3734 sf 0 0 m (1) show NC gr 
 gsave  2268 1328 0 0 C 635.302 136.747 t 0 r /Helvetica findfont 68.3734 sf 0 0 m (2) show NC gr 
 gsave  2268 1328 0 0 C 794.84 136.747 t 0 r /Helvetica findfont 68.3734 sf 0 0 m (3) show NC gr 
 gsave  2268 1328 0 0 C 954.378 136.747 t 0 r /Helvetica findfont 68.3734 sf 0 0 m (4) show NC gr 
 gsave  2268 1328 0 0 C 1113.92 136.747 t 0 r /Helvetica findfont 68.3734 sf 0 0 m (5) show NC gr 
 gsave  2268 1328 0 0 C 1270.6 136.747 t 0 r /Helvetica findfont 68.3734 sf 0 0 m (6) show NC gr 
 gsave  2268 1328 0 0 C 1430.14 136.747 t 0 r /Helvetica findfont 68.3734 sf 0 0 m (7) show NC gr 
 gsave  2268 1328 0 0 C 1589.68 136.747 t 0 r /Helvetica findfont 68.3734 sf 0 0 m (8) show NC gr 
 gsave  2268 1328 0 0 C 1746.37 136.747 t 0 r /Helvetica findfont 68.3734 sf 0 0 m (9) show NC gr 
 gsave  2268 1328 0 0 C 1888.81 136.747 t 0 r /Helvetica findfont 68.3734 sf 0 0 m (10) show NC gr  340 1195 m 1588 X s 340 1178 m 17 Y s 372 1186 m 9 Y s 404 1186 m 9 Y s 435 1186 m 9 Y s 467 1186 m 9 Y s 499 1178 m 17 Y s 531 1186 m 9 Y s 562 1186
 m 9 Y s 594 1186 m 9 Y s 626 1186 m 9 Y s 658 1178 m 17 Y s 689 1186 m 9 Y s 721 1186 m 9 Y s 753 1186 m 9 Y s 785 1186 m 9 Y s 816 1178 m 17 Y s 848 1186 m 9 Y s 880 1186 m 9 Y s 912 1186 m 9 Y s 943 1186 m 9 Y s 975 1178 m 17 Y s 1007 1186 m 9 Y s
 1039 1186 m 9 Y s 1070 1186 m 9 Y s 1102 1186 m 9 Y s 1134 1178 m 17 Y s 1166 1186 m 9 Y s 1197 1186 m 9 Y s 1229 1186 m 9 Y s 1261 1186 m 9 Y s 1293 1178 m 17 Y s 1324 1186 m 9 Y s 1356 1186 m 9 Y s 1388 1186 m 9 Y s 1420 1186 m 9 Y s 1451 1178 m
 17 Y s 1483 1186 m 9 Y s 1515 1186 m 9 Y s 1547 1186 m 9 Y s 1578 1186 m 9 Y s 1610 1178 m 17 Y s 1642 1186 m 9 Y s 1674 1186 m 9 Y s 1705 1186 m 9 Y s 1737 1186 m 9 Y s 1769 1178 m 17 Y s 1801 1186 m 9 Y s 1832 1186 m 9 Y s 1864 1186 m 9 Y s 1896
 1186 m 9 Y s 1928 1178 m 17 Y s 340 199 m 996 Y s
 gsave  2268 1328 0 0 C 170.933 336.169 t 90 r /Helvetica findfont 62.6756 sf 0 0 m (Near/Far Ratio to Nominal) show NC gr  371 199 m -31 X s 355 221 m -15 X s 355 243 m -15 X s 355 266 m -15 X s 355 288 m -15 X s 371 310 m -31 X s 355 332 m -15 X s
 355 354 m -15 X s 355 376 m -15 X s 355 398 m -15 X s 371 420 m -31 X s 355 443 m -15 X s 355 465 m -15 X s 355 487 m -15 X s 355 509 m -15 X s 371 531 m -31 X s 355 553 m -15 X s 355 575 m -15 X s 355 597 m -15 X s 355 620 m -15 X s 371 642 m -31 X
 s 355 664 m -15 X s 355 686 m -15 X s 355 708 m -15 X s 355 730 m -15 X s 371 752 m -31 X s 355 774 m -15 X s 355 797 m -15 X s 355 819 m -15 X s 355 841 m -15 X s 371 863 m -31 X s 355 885 m -15 X s 355 907 m -15 X s 355 929 m -15 X s 355 951 m -15
 X s 371 974 m -31 X s 355 996 m -15 X s 355 1018 m -15 X s 355 1040 m -15 X s 355 1062 m -15 X s 371 1084 m -31 X s 355 1106 m -15 X s 355 1128 m -15 X s 355 1151 m -15 X s 355 1173 m -15 X s 371 1195 m -31 X s 371 199 m -31 X s 371 1195 m -31 X s
 gsave  2268 1328 0 0 C 196.573 173.782 t 0 r /Helvetica findfont 68.3734 sf 0 0 m (0.95) show NC gr 
 gsave  2268 1328 0 0 C 301.982 282.04 t 0 r /Helvetica findfont 68.3734 sf 0 0 m (1) show NC gr 
 gsave  2268 1328 0 0 C 196.573 395.996 t 0 r /Helvetica findfont 68.3734 sf 0 0 m (1.05) show NC gr 
 gsave  2268 1328 0 0 C 245.005 504.254 t 0 r /Helvetica findfont 68.3734 sf 0 0 m (1.1) show NC gr 
 gsave  2268 1328 0 0 C 196.573 618.209 t 0 r /Helvetica findfont 68.3734 sf 0 0 m (1.15) show NC gr 
 gsave  2268 1328 0 0 C 233.609 726.467 t 0 r /Helvetica findfont 68.3734 sf 0 0 m (1.2) show NC gr 
 gsave  2268 1328 0 0 C 196.573 837.574 t 0 r /Helvetica findfont 68.3734 sf 0 0 m (1.25) show NC gr 
 gsave  2268 1328 0 0 C 233.609 948.68 t 0 r /Helvetica findfont 68.3734 sf 0 0 m (1.3) show NC gr 
 gsave  2268 1328 0 0 C 196.573 1059.79 t 0 r /Helvetica findfont 68.3734 sf 0 0 m (1.35) show NC gr 
 gsave  2268 1328 0 0 C 233.609 1168.04 t 0 r /Helvetica findfont 68.3734 sf 0 0 m (1.4) show NC gr  1928 199 m 996 Y s 1897 199 m 31 X s 1912 221 m 16 X s 1912 243 m 16 X s 1912 266 m 16 X s 1912 288 m 16 X s 1897 310 m 31 X s 1912 332 m 16 X s 1912
 354 m 16 X s 1912 376 m 16 X s 1912 398 m 16 X s 1897 420 m 31 X s 1912 443 m 16 X s 1912 465 m 16 X s 1912 487 m 16 X s 1912 509 m 16 X s 1897 531 m 31 X s 1912 553 m 16 X s 1912 575 m 16 X s 1912 597 m 16 X s 1912 620 m 16 X s 1897 642 m 31 X s
 1912 664 m 16 X s 1912 686 m 16 X s 1912 708 m 16 X s 1912 730 m 16 X s 1897 752 m 31 X s 1912 774 m 16 X s 1912 797 m 16 X s 1912 819 m 16 X s 1912 841 m 16 X s 1897 863 m 31 X s 1912 885 m 16 X s 1912 907 m 16 X s 1912 929 m 16 X s 1912 951 m 16 X
 s 1897 974 m 31 X s 1912 996 m 16 X s 1912 1018 m 16 X s 1912 1040 m 16 X s 1912 1062 m 16 X s 1897 1084 m 31 X s 1912 1106 m 16 X s 1912 1128 m 16 X s 1912 1151 m 16 X s 1912 1173 m 16 X s 1897 1195 m 31 X s 1897 199 m 31 X s 1897 1195 m 31 X s 1 0
 0 c 6 lw 1 1 1 c 1 0 0 c 380 310 m 293 X 9 1 d 32 X 11 -1 d 93 X 12 1 d 40 X 65 -2 d 9 X 14 -1 d 41 X 5 -1 d 6 X 5 1 d 26 X 8 1 d 15 X 7 1 d 53 X 13 -1 d 94 X 8 1 d 24 X 7 -1 d 75 X 4 1 d 3 X 4 1 d 5 X 6 1 d 9 1 d 5 1 d 4 X 4 1 d 6 X 3 1 d 34 X 4 -1
 d 9 X 6 -1 d 14 -1 d 5 -1 d 8 X 4 -1 d 40 X 15 1 d 37 X 76 -4 d 20 X 4 1 d 10 X 7 1 d 12 1 d 8 1 d 10 X 5 1 d 8 X 7 1 d 8 X 13 1 d 7 1 d 11 X 4 1 d 38 X 4 -1 d 10 X 4 -1 d 8 X 3 -1 d 4 X 3 -1 d 4 X 3 -1 d 3 X 3 -1 d 3 X 2 -1 d 3 -1 d 2 X 1 -1 d 2 -1
 d 2 X 1 -1 d s 1887 306 m 1 -1 d s 3 lw /w 2 def /w2 {w 2 div} def /w3 {w 3 div} def 380 310 459 310 539 310 618 310 697 311 777 310 856 311 935 309 1015 308 1094 310 1174 309 1253 310 1332 309 1412 316 1491 311 1570 312 1650 308 1729 313 1809 317
 1888 305 20 { m20} R 6 lw black 1 0 0 c
 gsave  2268 1328 0 0 C 2036.96 364.658 t 0 r /Helvetica-Bold findfont 48.4311 sf 0 0 m (/dof=0.3) show NC gr  black 1 0 0 c
 gsave  2268 1328 0 0 C 2017.01 381.751 t 0 r /Helvetica-Bold findfont 34.1867 sf 0 0 m (2) show NC gr  black 1 0 0 c
 gsave  2268 1328 0 0 C 1991.37 364.658 t 0 r /Symbol findfont 48.4311 sf 0 0 m (c) show NC gr  black 3 lw 340 310 m 1588 X s
 gsave  2268 1328 0 0 C 424.485 1213.63 t 0 r /Helvetica-Bold findfont 42.7334 sf 0 0 m (0.5 mm) show NC gr  1 0 0 c /w 23 def /w2 {w 2 div} def /w3 {w 3 div} def 383 1228 m21 black 1 1 1 c 0 0 1 c 380 532 m21 459 529 m21 539 532 m21 618 524 m21 697
 540 m21 777 534 m21 856 535 m21 black 935 513 m s 935 536 m 1 Y s 930 513 m 11 X s 930 537 m 11 X s 0 0 1 c 935 525 m21 black 1015 500 m 4 Y s 1015 527 m 4 Y s 1009 500 m 12 X s 1009 531 m 12 X s 0 0 1 c 1015 516 m21 black 1094 506 m 10 Y s 1094 538
 m 10 Y s 1088 506 m 12 X s 1088 548 m 12 X s 0 0 1 c 1094 527 m21 black 1174 506 m 16 Y s 1174 545 m 17 Y s 1168 506 m 11 X s 1168 562 m 11 X s 0 0 1 c 1174 534 m21 black 1253 498 m 24 Y s 1253 545 m 23 Y s 1247 498 m 12 X s 1247 568 m 12 X s 0 0 1
 c 1253 533 m21 black 1332 525 m 31 Y s 1332 578 m 31 Y s 1327 525 m 11 X s 1327 609 m 11 X s 0 0 1 c 1332 567 m21 black 1412 503 m 36 Y s 1412 562 m 37 Y s 1406 503 m 11 X s 1406 599 m 11 X s 0 0 1 c 1412 551 m21 black 1491 429 m 40 Y s 1491 492 m
 40 Y s 1485 429 m 12 X s 1485 532 m 12 X s 0 0 1 c 1491 480 m21 black 1570 488 m 46 Y s 1570 557 m 46 Y s 1565 488 m 11 X s 1565 603 m 11 X s 0 0 1 c 1570 546 m21 black 1650 445 m 50 Y s 1650 518 m 50 Y s 1644 445 m 11 X s 1644 568 m 11 X s 0 0 1 c
 1650 507 m21 black 1729 449 m 53 Y s 1729 525 m 54 Y s 1723 449 m 12 X s 1723 579 m 12 X s 0 0 1 c 1729 514 m21 black 1809 527 m 60 Y s 1809 610 m 60 Y s 1803 527 m 11 X s 1803 670 m 11 X s 0 0 1 c 1809 598 m21 black 1888 449 m 62 Y s 1888 534 m 62
 Y s 1882 449 m 12 X s 1882 596 m 12 X s 0 0 1 c 1888 522 m21 6 lw 1 1 1 c 0 0 1 c 380 531 m 248 X 11 1 d 18 X 17 1 d 41 X 11 -1 d 39 X 8 -1 d 4 X 7 1 d 18 X 24 1 d 45 X 64 -4 d 9 X 12 -1 d 18 -1 d 10 X 7 -1 d 33 X 4 1 d 5 X 6 1 d 7 1 d 16 2 d 7 X 5
 1 d 5 X 5 1 d 23 X 4 -1 d 5 X 6 -1 d 8 -1 d 17 -2 d 6 X 5 -1 d 9 X 4 -1 d 12 X 5 1 d 11 X 9 1 d 18 1 d 7 1 d 39 X 7 -1 d 23 -2 d 5 X 5 -1 d 19 X 1 1 d 7 X 3 1 d 3 X 3 1 d 3 1 d 4 X 4 2 d 4 1 d 4 1 d 10 4 d 5 1 d 4 2 d 3 1 d 3 X 3 1 d 3 X 3 1 d 3 X 3
 1 d 22 X 4 -1 d 4 X 5 -1 d 6 -1 d 20 -3 d 5 X 4 -1 d 5 X 3 -1 d 24 X 6 1 d 8 X 15 1 d 6 1 d 30 X 3 -1 d 3 X 3 -1 d 4 X 4 -1 d 4 -1 d 6 -1 d 16 -5 d 5 -1 d 4 X 3 -1 d 3 X 3 -1 d 6 X 3 -1 d 9 X 3 1 d 6 X 3 1 d 2 X 4 1 d 3 1 d 4 X 3 2 d 5 1 d 7 2 d 7 3
 d 4 1 d 4 1 d 3 1 d 4 1 d 3 1 d 4 1 d 6 X 1 1 d 8 X 6 1 d 7 1 d 12 X 6 1 d 12 X s 1780 548 m 19 X 4 -1 d 6 X 4 -1 d 6 X 4 -1 d 5 -1 d 5 X 4 -1 d 4 -1 d 4 -1 d 4 -1 d 4 -1 d 4 -1 d 4 -2 d 3 -1 d 4 -1 d 3 -2 d 3 -1 d 3 -2 d 2 -1 d 3 -2 d 2 -1 d 2 -2 d
 2 -1 d -1 Y s 3 lw /w 2 def /w2 {w 2 div} def /w3 {w 3 div} def 380 531 459 531 539 531 618 531 697 533 777 531 856 533 935 529 1015 526 1094 533 1174 526 1253 530 1332 527 1412 545 1491 537 1570 540 1650 526 1729 545 1809 547 1888 521 20 { m20} R 6
 lw black 0 0 1 c
 gsave  2268 1328 0 0 C 2036.96 615.36 t 0 r /Helvetica-Bold findfont 48.4311 sf 0 0 m (/dof=0.3) show NC gr  black 0 0 1 c
 gsave  2268 1328 0 0 C 2017.01 632.454 t 0 r /Helvetica-Bold findfont 34.1867 sf 0 0 m (2) show NC gr  black 0 0 1 c
 gsave  2268 1328 0 0 C 1991.37 615.36 t 0 r /Symbol findfont 48.4311 sf 0 0 m (c) show NC gr  black 3 lw 340 531 m 1588 X s
 gsave  2268 1328 0 0 C 877.458 1213.63 t 0 r /Helvetica-Bold findfont 39.8845 sf 0 0 m (1 mm) show NC gr  0 0 1 c /w 23 def /w2 {w 2 div} def /w3 {w 3 div} def 836 1228 m21 black 1 1 1 c 1 0 1 c 380 750 m21 459 754 m21 539 752 m21 618 749 m21 697
 763 m21 777 750 m21 856 757 m21 black 935 736 m 2 Y s 935 761 m 1 Y s 930 736 m 11 X s 930 762 m 11 X s 1 0 1 c 935 749 m21 black 1015 729 m 5 Y s 1015 757 m 6 Y s 1009 729 m 12 X s 1009 763 m 12 X s 1 0 1 c 1015 746 m21 black 1094 750 m 12 Y s 1094
 785 m 12 Y s 1088 750 m 12 X s 1088 797 m 12 X s 1 0 1 c 1094 773 m21 black 1174 684 m 19 Y s 1174 726 m 19 Y s 1168 684 m 11 X s 1168 745 m 11 X s 1 0 1 c 1174 714 m21 black 1253 727 m 27 Y s 1253 777 m 27 Y s 1247 727 m 12 X s 1247 804 m 12 X s 1
 0 1 c 1253 766 m21 black 1332 680 m 34 Y s 1332 737 m 34 Y s 1327 680 m 11 X s 1327 771 m 11 X s 1 0 1 c 1332 726 m21 black 1412 769 m 42 Y s 1412 834 m 42 Y s 1406 769 m 11 X s 1406 876 m 11 X s 1 0 1 c 1412 822 m21 black 1491 727 m 47 Y s 1491 797
 m 46 Y s 1485 727 m 12 X s 1485 843 m 12 X s 1 0 1 c 1491 785 m21 black 1570 685 m 51 Y s 1570 759 m 51 Y s 1565 685 m 11 X s 1565 810 m 11 X s 1 0 1 c 1570 748 m21 black 1650 701 m 57 Y s 1650 780 m 57 Y s 1644 701 m 11 X s 1644 837 m 11 X s 1 0 1
 c 1650 769 m21 black 1729 733 m 62 Y s 1729 818 m 62 Y s 1723 733 m 12 X s 1723 880 m 12 X s 1 0 1 c 1729 807 m21 black 1809 672 m 65 Y s 1809 760 m 65 Y s 1803 672 m 11 X s 1803 825 m 11 X s 1 0 1 c 1809 748 m21 black 1888 646 m 69 Y s 1888 738 m
 69 Y s 1882 646 m 12 X s 1882 807 m 12 X s 1 0 1 c 1888 727 m21 6 lw 1 1 1 c 1 0 1 c 380 753 m 27 X 26 1 d 26 X 80 -1 d 79 X 14 1 d 22 1 d 22 1 d 33 X 68 -2 d 10 X 10 1 d 30 1 d 10 1 d 19 X 9 -1 d 10 -1 d 13 -1 d 47 -5 d 10 -1 d 21 -3 d 12 -2 d 8 -1
 d 8 -1 d 21 X 4 1 d 5 1 d 5 1 d 5 1 d 6 2 d 10 4 d 11 4 d 6 2 d 6 1 d 4 1 d 5 1 d 4 1 d 12 X 4 -1 d 4 -1 d 4 -1 d 4 -2 d 5 -2 d 6 -3 d 18 -9 d 6 -3 d 5 -2 d 4 -2 d 4 -1 d 4 -1 d 3 -1 d 17 X 5 1 d 4 1 d 6 2 d 8 2 d 15 5 d 6 2 d 6 2 d 4 1 d 5 X 3 1 d
 9 X 3 -1 d 4 X 5 -1 d 5 -2 d 7 -2 d 22 -7 d 5 -2 d 5 -1 d 4 X 4 -1 d 7 X 3 1 d 5 X 3 1 d 3 1 d 3 2 d 4 2 d 4 2 d 4 3 d 4 3 d 5 4 d 13 12 d 5 4 d 4 4 d 4 2 d 4 3 d 3 2 d 4 2 d 3 1 d 4 1 d 2 1 d 4 X 4 1 d 20 X 8 -1 d 25 -3 d 6 -1 d 17 X 5 1 d 5 1 d 7
 2 d 11 2 d 11 3 d 6 2 d 5 1 d 5 X 5 1 d 8 X 4 -1 d 2 X 4 -1 d 3 -1 d 3 -1 d 3 -2 d 3 -2 d 4 -2 d 4 -3 d 4 -4 d 6 -5 d 11 -11 d 5 -4 d 3 -3 d 4 -3 d 3 -2 d 3 -1 d 3 -1 d 3 -1 d 2 -1 d 3 -1 d 8 X 3 1 d 2 X 3 1 d 2 1 d 3 2 d 2 1 d 3 2 d 2 3 d 3 3 d 3 3
 d 4 4 d 3 6 d 9 13 d 4 7 d 3 4 d 3 3 d 3 3 d 3 3 d 2 2 d 3 2 d 2 2 d 3 1 d 3 1 d 2 1 d 3 1 d 18 X 4 -1 d 4 X 4 -2 d 5 -1 d 6 -2 d 5 -2 d s 1774 804 m 7 -4 d 28 -13 d 7 -4 d 7 -3 d 7 -5 d 7 -4 d 7 -5 d 7 -5 d 6 -4 d 7 -5 d 7 -5 d 6 -6 d 6 -5 d 5 -5 d
 s 3 lw /w 2 def /w2 {w 2 div} def /w3 {w 3 div} def 380 753 459 754 539 753 618 753 697 756 777 754 856 757 935 749 1015 741 1094 761 1174 732 1253 749 1332 733 1412 783 1491 779 1570 791 1650 742 1729 812 1809 787 1888 731 20 { m20} R 6 lw black 1
 0 1 c
 gsave  2268 1328 0 0 C 2036.96 863.214 t 0 r /Helvetica-Bold findfont 48.4311 sf 0 0 m (/dof=0.2) show NC gr  black 1 0 1 c
 gsave  2268 1328 0 0 C 2017.01 880.307 t 0 r /Helvetica-Bold findfont 34.1867 sf 0 0 m (2) show NC gr  black 1 0 1 c
 gsave  2268 1328 0 0 C 1991.37 863.214 t 0 r /Symbol findfont 48.4311 sf 0 0 m (c) show NC gr  black 3 lw 340 752 m 1588 X s
 gsave  2268 1328 0 0 C 1330.43 1213.63 t 0 r /Helvetica-Bold findfont 39.8845 sf 0 0 m (2 mm) show NC gr  1 0 1 c /w 23 def /w2 {w 2 div} def /w3 {w 3 div} def 1290 1228 m21 black 1 1 1 c 0 0.733333 1 c 380 976 m21 459 977 m21 539 976 m21 618 980
 m21 697 971 m21 777 980 m21 black 856 967 m s 856 989 m 1 Y s 850 967 m 12 X s 850 990 m 12 X s 0 0.733333 1 c 856 978 m21 black 935 955 m 3 Y s 935 981 m 3 Y s 930 955 m 11 X s 930 984 m 11 X s 0 0.733333 1 c 935 969 m21 black 1015 940 m 7 Y s 1015
 970 m 7 Y s 1009 940 m 12 X s 1009 977 m 12 X s 0 0.733333 1 c 1015 958 m21 black 1094 955 m 14 Y s 1094 992 m 14 Y s 1088 955 m 12 X s 1088 1006 m 12 X s 0 0.733333 1 c 1094 981 m21 black 1174 916 m 21 Y s 1174 960 m 22 Y s 1168 916 m 11 X s 1168
 982 m 11 X s 0 0.733333 1 c 1174 949 m21 black 1253 914 m 30 Y s 1253 967 m 30 Y s 1247 914 m 12 X s 1247 997 m 12 X s 0 0.733333 1 c 1253 955 m21 black 1332 888 m 37 Y s 1332 948 m 38 Y s 1327 888 m 11 X s 1327 986 m 11 X s 0 0.733333 1 c 1332 937
 m21 black 1412 919 m 45 Y s 1412 987 m 46 Y s 1406 919 m 11 X s 1406 1033 m 11 X s 0 0.733333 1 c 1412 976 m21 black 1491 963 m 52 Y s 1491 1038 m 53 Y s 1485 963 m 12 X s 1485 1091 m 12 X s 0 0.733333 1 c 1491 1027 m21 black 1570 999 m 59 Y s 1570
 1081 m 59 Y s 1565 999 m 11 X s 1565 1140 m 11 X s 0 0.733333 1 c 1570 1070 m21 black 1650 888 m 61 Y s 1650 972 m 60 Y s 1644 888 m 11 X s 1644 1032 m 11 X s 0 0.733333 1 c 1650 960 m21 black 1729 1005 m 70 Y s 1729 1098 m 70 Y s 1723 1005 m 12 X s
 1723 1168 m 12 X s 0 0.733333 1 c 1729 1086 m21 black 1809 927 m 73 Y s 1809 1023 m 73 Y s 1803 927 m 11 X s 1803 1096 m 11 X s 0 0.733333 1 c 1809 1012 m21 black 1888 879 m 76 Y s 1888 978 m 75 Y s 1882 879 m 12 X s 1882 1053 m 12 X s 0 0.733333 1
 c 1888 966 m21 6 lw 1 1 1 c 0 0.733333 1 c 380 974 m 27 1 d 26 1 d 26 X 80 -1 d 79 X 15 1 d 23 1 d 23 1 d 15 1 d 18 X 65 -2 d 12 X 21 1 d 20 1 d 12 1 d 10 X 4 -1 d 10 X 69 -10 d 10 -2 d 22 -4 d 12 -2 d 9 -2 d 8 -1 d 13 X 6 1 d 4 1 d 5 1 d 5 2 d 6 2
 d 7 4 d 18 10 d 7 3 d 5 3 d 5 1 d 5 1 d 4 1 d 8 X 4 -1 d 4 -1 d 4 -2 d 5 -2 d 4 -3 d 5 -4 d 6 -5 d 20 -17 d 6 -4 d 5 -4 d 4 -2 d 4 -2 d 3 -1 d 4 -1 d 10 X 4 1 d 5 1 d 4 2 d 6 3 d 8 4 d 15 8 d 6 4 d 6 2 d 4 2 d 5 1 d 3 X 4 1 d 1 X 4 -1 d 5 X 4 -2 d 5
 -1 d 6 -3 d 7 -4 d 17 -10 d 5 -3 d 5 -2 d 5 -1 d 4 -1 d 12 X 4 1 d 3 2 d 4 2 d 3 2 d 4 3 d 4 4 d 5 5 d 5 5 d 7 9 d 11 15 d 6 7 d 4 5 d 4 4 d 4 3 d 4 3 d 3 2 d 4 2 d 1 X 4 2 d 5 2 d 5 1 d 5 X 7 1 d 7 X 15 -1 d 13 -1 d 12 X 6 1 d 5 1 d 5 1 d 7 2 d 10
 4 d 14 7 d 7 3 d 6 1 d 5 2 d 4 X 5 1 d 4 X 3 -1 d 4 -1 d 3 -1 d 3 -2 d 74 -76 d 2 X 3 1 d 2 1 d 3 1 d 2 2 d 3 3 d 2 2 d 3 4 d 2 4 d 3 5 d 3 6 d 4 7 d 4 10 d 9 24 d 4 8 d 3 7 d 3 6 d 2 4 d 3 5 d 3 3 d 2 3 d 2 2 d 3 2 d 3 2 d 2 1 d 3 1 d 1 X 4 1 d 3 X
 4 -1 d 4 -1 d 4 -1 d 4 -2 d 4 -2 d 5 -3 d 5 -4 d 5 -5 d 38 -35 d 12 -11 d 11 -9 d 11 -10 d 11 -11 d 11 -11 d 11 -11 d 10 -12 d 2 -1 d s 3 lw /w 2 def /w2 {w 2 div} def /w3 {w 3 div} def 380 974 459 976 539 975 618 975 697 979 777 977 856 979 935 969
 1015 959 1094 988 1174 939 1253 968 1332 940 1412 1014 1491 1019 1570 1039 1650 960 1729 1074 1809 1021 1888 945 20 { m20} R 6 lw black 0 0.733333 1 c
 gsave  2268 1328 0 0 C 2039.81 1113.92 t 0 r /Helvetica-Bold findfont 48.4311 sf 0 0 m (/dof=0.1) show NC gr  black 0 0.733333 1 c
 gsave  2268 1328 0 0 C 2019.86 1131.01 t 0 r /Helvetica-Bold findfont 34.1867 sf 0 0 m (2) show NC gr  black 0 0.733333 1 c
 gsave  2268 1328 0 0 C 1994.22 1113.92 t 0 r /Symbol findfont 48.4311 sf 0 0 m (c) show NC gr  black 3 lw 340 974 m 1588 X s
 gsave  2268 1328 0 0 C 1783.41 1213.63 t 0 r /Helvetica-Bold findfont 42.7334 sf 0 0 m (2.5 mm) show NC gr  0 0.733333 1 c /w 23 def /w2 {w 2 div} def /w3 {w 3 div} def 1743 1228 m21
 gr  gr showpage
end
%%EOF
