%!PS-Adobe-2.0 EPSF-2.0
%%BoundingBox:  0 0 567 332
%%Title: Horn1XOffset_nof_summary.eps: Summary
%%Creator: ROOT Version 5.30/06
%%CreationDate: Sun Feb  2 09:29:03 2014
%%EndComments
%%BeginProlog
80 dict begin
/s {stroke} def /l {lineto} def /m {moveto} def /t {translate} def
/r {rotate} def /rl {roll}  def /R {repeat} def
/d {rlineto} def /rm {rmoveto} def /gr {grestore} def /f {eofill} def
/c {setrgbcolor} def /black {0 setgray} def /sd {setdash} def
/cl {closepath} def /sf {scalefont setfont} def /lw {setlinewidth} def
/box {m dup 0 exch d exch 0 d 0 exch neg d cl} def
/NC{systemdict begin initclip end}def/C{NC box clip newpath}def
/bl {box s} def /bf {box f} def /Y { 0 exch d} def /X { 0 d} def 
/K {{pop pop 0 moveto} exch kshow} bind def
/ita {/ang 15 def gsave [1 0 ang dup sin exch cos div 1 0 0] concat} def 
/mp {newpath /y exch def /x exch def} def
/side {[w .77 mul w .23 mul] .385 w mul sd w 0 l currentpoint t -144 r} def
/mr {mp x y w2 0 360 arc} def /m24 {mr s} def /m20 {mr f} def
/mb {mp x y w2 add m w2 neg 0 d 0 w neg d w 0 d 0 w d cl} def
/mt {mp x y w2 add m w2 neg w neg d w 0 d cl} def
/m21 {mb f} def /m25 {mb s} def /m22 {mt f} def /m26{mt s} def
/m23 {mp x y w2 sub m w2 w d w neg 0 d cl f} def
/m27 {mp x y w2 add m w3 neg w2 neg d w3 w2 neg d w3 w2 d cl s} def
/m28 {mp x w2 sub y w2 sub w3 add m w3 0 d  0 w3 neg d w3 0 d 0 w3 d w3 0 d  0 w3 d w3 neg 0 d 0 w3 d w3 neg 0 d 0 w3 neg d w3 neg 0 d cl s } def
/m29 {mp gsave x w2 sub y w2 add w3 sub m currentpoint t 4 {side} repeat cl fill gr} def
/m30 {mp gsave x w2 sub y w2 add w3 sub m currentpoint t 4 {side} repeat cl s gr} def
/m31 {mp x y w2 sub m 0 w d x w2 sub y m w 0 d x w2 sub y w2 add m w w neg d x w2 sub y w2 sub m w w d s} def
/m32 {mp x y w2 sub m w2 w d w neg 0 d cl s} def
/m33 {mp x y w2 add m w3 neg w2 neg d w3 w2 neg d w3 w2 d cl f} def
/m34 {mp x w2 sub y w2 sub w3 add m w3 0 d  0 w3 neg d w3 0 d 0 w3 d w3 0 d  0 w3 d w3 neg 0 d 0 w3 d w3 neg 0 d 0 w3 neg d w3 neg 0 d cl f } def
/m2 {mp x y w2 sub m 0 w d x w2 sub y m w 0 d s} def
/m5 {mp x w2 sub y w2 sub m w w d x w2 sub y w2 add m w w neg d s} def
/reEncode {exch findfont dup length dict begin {1 index /FID eq  {pop pop} {def} ifelse } forall /Encoding exch def currentdict end dup /FontName get exch definefont pop } def [/Times-Bold /Times-Italic /Times-BoldItalic /Helvetica /Helvetica-Oblique
 /Helvetica-Bold /Helvetica-BoldOblique /Courier /Courier-Oblique /Courier-Bold /Courier-BoldOblique /Times-Roman /AvantGarde-Book /AvantGarde-BookOblique /AvantGarde-Demi /AvantGarde-DemiOblique /Bookman-Demi /Bookman-DemiItalic /Bookman-Light
 /Bookman-LightItalic /Helvetica-Narrow /Helvetica-Narrow-Bold /Helvetica-Narrow-BoldOblique /Helvetica-Narrow-Oblique /NewCenturySchlbk-Roman /NewCenturySchlbk-Bold /NewCenturySchlbk-BoldItalic /NewCenturySchlbk-Italic /Palatino-Bold
 /Palatino-BoldItalic /Palatino-Italic /Palatino-Roman ] {ISOLatin1Encoding reEncode } forall%%EndProlog
%%BeginSetup
%%EndSetup
newpath  gsave  .25 .25 scale  gsave  0 0 t black[  ] 0 sd 3 lw 1 1 1 c 2268 1328 0 0 bf black 1 1 1 c black 1588 996 340 199 bl 1588 996 340 199 bl 1 1 1 c 1 0 0 c /w 23 def /w2 {w 2 div} def /w3 {w 3 div} def 380 311 m21 459 313 m21 539 307 m21 618
 309 m21 697 311 m21 777 308 m21 856 310 m21 935 311 m21 black 1015 275 m 3 Y s 1015 300 m 3 Y s 1009 275 m 12 X s 1009 303 m 12 X s 1 0 0 c 1015 289 m21 black 1094 321 m 9 Y s 1094 352 m 9 Y s 1088 321 m 12 X s 1088 361 m 12 X s 1 0 0 c 1094 341 m21
 black 1174 293 m 14 Y s 1174 330 m 14 Y s 1168 293 m 11 X s 1168 344 m 11 X s 1 0 0 c 1174 318 m21 black 1253 291 m 20 Y s 1253 334 m 21 Y s 1247 291 m 12 X s 1247 355 m 12 X s 1 0 0 c 1253 323 m21 black 1332 246 m 26 Y s 1332 295 m 26 Y s 1327 246
 m 11 X s 1327 321 m 11 X s 1 0 0 c 1332 284 m21 black 1412 220 m 32 Y s 1412 275 m 31 Y s 1406 220 m 11 X s 1406 306 m 11 X s 1 0 0 c 1412 263 m21 black 1491 307 m 38 Y s 1491 367 m 38 Y s 1485 307 m 12 X s 1485 405 m 12 X s 1 0 0 c 1491 356 m21
 black 1570 203 m 40 Y s 1570 266 m 40 Y s 1565 203 m 11 X s 1565 306 m 11 X s 1 0 0 c 1570 254 m21 black 1650 217 m 44 Y s 1650 284 m 45 Y s 1644 217 m 11 X s 1644 329 m 11 X s 1 0 0 c 1650 273 m21 black 1729 268 m 50 Y s 1729 340 m 50 Y s 1723 268
 m 12 X s 1723 390 m 12 X s 1 0 0 c 1729 329 m21 black 1809 302 m 54 Y s 1809 379 m 55 Y s 1803 302 m 11 X s 1803 434 m 11 X s 1 0 0 c 1809 368 m21 black 1888 267 m 57 Y s 1888 346 m 57 Y s 1882 267 m 12 X s 1882 403 m 12 X s 1 0 0 c 1888 335 m21
 black 340 199 m 1588 X s
 gsave  2268 1328 0 0 C 954.378 68.3734 t 0 r /Helvetica findfont 62.6756 sf 0 0 m ( Energy \(GeV\) ) show NC gr 
 gsave  2268 1328 0 0 C 928.738 51.28 t 0 r /Symbol findfont 42.7334 sf 0 0 m (m) show NC gr 
 gsave  2268 1328 0 0 C 894.552 68.3734 t 0 r /Symbol findfont 62.6756 sf 0 0 m (n) show NC gr  340 216 m -17 Y s 372 208 m -9 Y s 404 208 m -9 Y s 435 208 m -9 Y s 467 208 m -9 Y s 499 216 m -17 Y s 531 208 m -9 Y s 562 208 m -9 Y s 594 208 m -9 Y s
 626 208 m -9 Y s 658 216 m -17 Y s 689 208 m -9 Y s 721 208 m -9 Y s 753 208 m -9 Y s 785 208 m -9 Y s 816 216 m -17 Y s 848 208 m -9 Y s 880 208 m -9 Y s 912 208 m -9 Y s 943 208 m -9 Y s 975 216 m -17 Y s 1007 208 m -9 Y s 1039 208 m -9 Y s 1070
 208 m -9 Y s 1102 208 m -9 Y s 1134 216 m -17 Y s 1166 208 m -9 Y s 1197 208 m -9 Y s 1229 208 m -9 Y s 1261 208 m -9 Y s 1293 216 m -17 Y s 1324 208 m -9 Y s 1356 208 m -9 Y s 1388 208 m -9 Y s 1420 208 m -9 Y s 1451 216 m -17 Y s 1483 208 m -9 Y s
 1515 208 m -9 Y s 1547 208 m -9 Y s 1578 208 m -9 Y s 1610 216 m -17 Y s 1642 208 m -9 Y s 1674 208 m -9 Y s 1705 208 m -9 Y s 1737 208 m -9 Y s 1769 216 m -17 Y s 1801 208 m -9 Y s 1832 208 m -9 Y s 1864 208 m -9 Y s 1896 208 m -9 Y s 1928 216 m
 -17 Y s
 gsave  2268 1328 0 0 C 319.076 136.747 t 0 r /Helvetica findfont 68.3734 sf 0 0 m (0) show NC gr 
 gsave  2268 1328 0 0 C 484.311 136.747 t 0 r /Helvetica findfont 68.3734 sf 0 0 m (1) show NC gr 
 gsave  2268 1328 0 0 C 635.302 136.747 t 0 r /Helvetica findfont 68.3734 sf 0 0 m (2) show NC gr 
 gsave  2268 1328 0 0 C 794.84 136.747 t 0 r /Helvetica findfont 68.3734 sf 0 0 m (3) show NC gr 
 gsave  2268 1328 0 0 C 954.378 136.747 t 0 r /Helvetica findfont 68.3734 sf 0 0 m (4) show NC gr 
 gsave  2268 1328 0 0 C 1113.92 136.747 t 0 r /Helvetica findfont 68.3734 sf 0 0 m (5) show NC gr 
 gsave  2268 1328 0 0 C 1270.6 136.747 t 0 r /Helvetica findfont 68.3734 sf 0 0 m (6) show NC gr 
 gsave  2268 1328 0 0 C 1430.14 136.747 t 0 r /Helvetica findfont 68.3734 sf 0 0 m (7) show NC gr 
 gsave  2268 1328 0 0 C 1589.68 136.747 t 0 r /Helvetica findfont 68.3734 sf 0 0 m (8) show NC gr 
 gsave  2268 1328 0 0 C 1746.37 136.747 t 0 r /Helvetica findfont 68.3734 sf 0 0 m (9) show NC gr 
 gsave  2268 1328 0 0 C 1888.81 136.747 t 0 r /Helvetica findfont 68.3734 sf 0 0 m (10) show NC gr  340 1195 m 1588 X s 340 1178 m 17 Y s 372 1186 m 9 Y s 404 1186 m 9 Y s 435 1186 m 9 Y s 467 1186 m 9 Y s 499 1178 m 17 Y s 531 1186 m 9 Y s 562 1186
 m 9 Y s 594 1186 m 9 Y s 626 1186 m 9 Y s 658 1178 m 17 Y s 689 1186 m 9 Y s 721 1186 m 9 Y s 753 1186 m 9 Y s 785 1186 m 9 Y s 816 1178 m 17 Y s 848 1186 m 9 Y s 880 1186 m 9 Y s 912 1186 m 9 Y s 943 1186 m 9 Y s 975 1178 m 17 Y s 1007 1186 m 9 Y s
 1039 1186 m 9 Y s 1070 1186 m 9 Y s 1102 1186 m 9 Y s 1134 1178 m 17 Y s 1166 1186 m 9 Y s 1197 1186 m 9 Y s 1229 1186 m 9 Y s 1261 1186 m 9 Y s 1293 1178 m 17 Y s 1324 1186 m 9 Y s 1356 1186 m 9 Y s 1388 1186 m 9 Y s 1420 1186 m 9 Y s 1451 1178 m
 17 Y s 1483 1186 m 9 Y s 1515 1186 m 9 Y s 1547 1186 m 9 Y s 1578 1186 m 9 Y s 1610 1178 m 17 Y s 1642 1186 m 9 Y s 1674 1186 m 9 Y s 1705 1186 m 9 Y s 1737 1186 m 9 Y s 1769 1178 m 17 Y s 1801 1186 m 9 Y s 1832 1186 m 9 Y s 1864 1186 m 9 Y s 1896
 1186 m 9 Y s 1928 1178 m 17 Y s 340 199 m 996 Y s
 gsave  2268 1328 0 0 C 170.933 336.169 t 90 r /Helvetica findfont 62.6756 sf 0 0 m (Near/Far Ratio to Nominal) show NC gr  371 199 m -31 X s 355 221 m -15 X s 355 243 m -15 X s 355 266 m -15 X s 355 288 m -15 X s 371 310 m -31 X s 355 332 m -15 X s
 355 354 m -15 X s 355 376 m -15 X s 355 398 m -15 X s 371 420 m -31 X s 355 443 m -15 X s 355 465 m -15 X s 355 487 m -15 X s 355 509 m -15 X s 371 531 m -31 X s 355 553 m -15 X s 355 575 m -15 X s 355 597 m -15 X s 355 620 m -15 X s 371 642 m -31 X
 s 355 664 m -15 X s 355 686 m -15 X s 355 708 m -15 X s 355 730 m -15 X s 371 752 m -31 X s 355 774 m -15 X s 355 797 m -15 X s 355 819 m -15 X s 355 841 m -15 X s 371 863 m -31 X s 355 885 m -15 X s 355 907 m -15 X s 355 929 m -15 X s 355 951 m -15
 X s 371 974 m -31 X s 355 996 m -15 X s 355 1018 m -15 X s 355 1040 m -15 X s 355 1062 m -15 X s 371 1084 m -31 X s 355 1106 m -15 X s 355 1128 m -15 X s 355 1151 m -15 X s 355 1173 m -15 X s 371 1195 m -31 X s 371 199 m -31 X s 371 1195 m -31 X s
 gsave  2268 1328 0 0 C 196.573 173.782 t 0 r /Helvetica findfont 68.3734 sf 0 0 m (0.95) show NC gr 
 gsave  2268 1328 0 0 C 301.982 282.04 t 0 r /Helvetica findfont 68.3734 sf 0 0 m (1) show NC gr 
 gsave  2268 1328 0 0 C 196.573 395.996 t 0 r /Helvetica findfont 68.3734 sf 0 0 m (1.05) show NC gr 
 gsave  2268 1328 0 0 C 245.005 504.254 t 0 r /Helvetica findfont 68.3734 sf 0 0 m (1.1) show NC gr 
 gsave  2268 1328 0 0 C 196.573 618.209 t 0 r /Helvetica findfont 68.3734 sf 0 0 m (1.15) show NC gr 
 gsave  2268 1328 0 0 C 233.609 726.467 t 0 r /Helvetica findfont 68.3734 sf 0 0 m (1.2) show NC gr 
 gsave  2268 1328 0 0 C 196.573 837.574 t 0 r /Helvetica findfont 68.3734 sf 0 0 m (1.25) show NC gr 
 gsave  2268 1328 0 0 C 233.609 948.68 t 0 r /Helvetica findfont 68.3734 sf 0 0 m (1.3) show NC gr 
 gsave  2268 1328 0 0 C 196.573 1059.79 t 0 r /Helvetica findfont 68.3734 sf 0 0 m (1.35) show NC gr 
 gsave  2268 1328 0 0 C 233.609 1168.04 t 0 r /Helvetica findfont 68.3734 sf 0 0 m (1.4) show NC gr  1928 199 m 996 Y s 1897 199 m 31 X s 1912 221 m 16 X s 1912 243 m 16 X s 1912 266 m 16 X s 1912 288 m 16 X s 1897 310 m 31 X s 1912 332 m 16 X s 1912
 354 m 16 X s 1912 376 m 16 X s 1912 398 m 16 X s 1897 420 m 31 X s 1912 443 m 16 X s 1912 465 m 16 X s 1912 487 m 16 X s 1912 509 m 16 X s 1897 531 m 31 X s 1912 553 m 16 X s 1912 575 m 16 X s 1912 597 m 16 X s 1912 620 m 16 X s 1897 642 m 31 X s
 1912 664 m 16 X s 1912 686 m 16 X s 1912 708 m 16 X s 1912 730 m 16 X s 1897 752 m 31 X s 1912 774 m 16 X s 1912 797 m 16 X s 1912 819 m 16 X s 1912 841 m 16 X s 1897 863 m 31 X s 1912 885 m 16 X s 1912 907 m 16 X s 1912 929 m 16 X s 1912 951 m 16 X
 s 1897 974 m 31 X s 1912 996 m 16 X s 1912 1018 m 16 X s 1912 1040 m 16 X s 1912 1062 m 16 X s 1897 1084 m 31 X s 1912 1106 m 16 X s 1912 1128 m 16 X s 1912 1151 m 16 X s 1912 1173 m 16 X s 1897 1195 m 31 X s 1897 199 m 31 X s 1897 1195 m 31 X s 1 0
 0 c 6 lw 1 1 1 c 1 0 0 c 380 310 m 159 X 79 -1 d 18 1 d 61 X 10 -1 d 30 X 17 -1 d 71 X 31 1 d 14 X 22 1 d 21 1 d 46 X 20 -1 d 13 X 6 1 d 17 X 3 1 d 3 X 4 1 d 3 X 4 1 d 4 1 d 5 1 d 5 2 d 12 3 d 5 1 d 4 1 d 4 1 d 3 1 d 6 X 3 1 d 23 X 3 -1 d 4 X 3 -1 d
 4 X 4 -1 d 4 -1 d 7 -2 d 11 -3 d 5 -1 d 4 -1 d 4 -1 d 4 -1 d 3 X 3 -1 d 9 X 5 -1 d 39 X 13 -1 d 25 X 8 -1 d 10 X 29 -2 d 8 -1 d 12 X 5 -1 d 33 X 15 1 d 32 X 9 1 d 31 X 10 1 d 29 X 5 -1 d 9 X 6 -1 d 7 -1 d 22 -2 d 5 X 5 -1 d 31 X 4 1 d 4 X 4 1 d 5 1
 d 7 1 d 13 2 d 6 1 d 4 1 d 5 1 d 8 X 3 1 d 27 X 5 -1 d 7 X 22 -2 d 5 -1 d 10 X 3 -1 d 6 X 5 1 d 14 X 6 1 d 7 X 15 2 d 8 1 d 7 X 5 1 d 13 X 8 1 d 42 X 8 -1 d 16 X 5 -1 d s 3 lw /w 2 def /w2 {w 2 div} def /w3 {w 3 div} def 380 310 459 310 539 310 618
 309 697 310 777 308 856 309 935 311 1015 311 1094 326 1174 312 1253 310 1332 305 1412 306 1491 308 1570 302 1650 312 1729 307 1809 313 1888 312 20 { m20} R 6 lw black 1 0 0 c
 gsave  2268 1328 0 0 C 2036.96 364.658 t 0 r /Helvetica-Bold findfont 48.4311 sf 0 0 m (/dof=0.4) show NC gr  black 1 0 0 c
 gsave  2268 1328 0 0 C 2017.01 381.751 t 0 r /Helvetica-Bold findfont 34.1867 sf 0 0 m (2) show NC gr  black 1 0 0 c
 gsave  2268 1328 0 0 C 1991.37 364.658 t 0 r /Symbol findfont 48.4311 sf 0 0 m (c) show NC gr  black 3 lw 340 310 m 1588 X s
 gsave  2268 1328 0 0 C 424.485 1213.63 t 0 r /Helvetica-Bold findfont 42.7334 sf 0 0 m (0.5 mm) show NC gr  1 0 0 c /w 23 def /w2 {w 2 div} def /w3 {w 3 div} def 383 1228 m21 black 1 1 1 c 0 0 1 c 380 531 m21 459 532 m21 539 527 m21 618 530 m21 697
 532 m21 777 525 m21 856 529 m21 black 935 526 m s 935 549 m s 930 526 m 11 X s 930 549 m 11 X s 0 0 1 c 935 537 m21 black 1015 525 m 4 Y s 1015 552 m 4 Y s 1009 525 m 12 X s 1009 556 m 12 X s 0 0 1 c 1015 540 m21 black 1094 536 m 10 Y s 1094 569 m
 10 Y s 1088 536 m 12 X s 1088 579 m 12 X s 0 0 1 c 1094 557 m21 black 1174 501 m 16 Y s 1174 540 m 16 Y s 1168 501 m 11 X s 1168 556 m 11 X s 0 0 1 c 1174 528 m21 black 1253 482 m 24 Y s 1253 529 m 23 Y s 1247 482 m 12 X s 1247 552 m 12 X s 0 0 1 c
 1253 517 m21 black 1332 482 m 31 Y s 1332 536 m 30 Y s 1327 482 m 11 X s 1327 566 m 11 X s 0 0 1 c 1332 524 m21 black 1412 512 m 37 Y s 1412 572 m 37 Y s 1406 512 m 11 X s 1406 609 m 11 X s 0 0 1 c 1412 561 m21 black 1491 454 m 40 Y s 1491 517 m 41
 Y s 1485 454 m 12 X s 1485 558 m 12 X s 0 0 1 c 1491 506 m21 black 1570 464 m 46 Y s 1570 533 m 45 Y s 1565 464 m 11 X s 1565 578 m 11 X s 0 0 1 c 1570 521 m21 black 1650 503 m 52 Y s 1650 577 m 52 Y s 1644 503 m 11 X s 1644 629 m 11 X s 0 0 1 c
 1650 566 m21 black 1729 443 m 54 Y s 1729 520 m 54 Y s 1723 443 m 12 X s 1723 574 m 12 X s 0 0 1 c 1729 509 m21 black 1809 564 m 62 Y s 1809 648 m 63 Y s 1803 564 m 11 X s 1803 711 m 11 X s 0 0 1 c 1809 637 m21 black 1888 390 m 61 Y s 1888 474 m 61
 Y s 1882 390 m 12 X s 1882 535 m 12 X s 0 0 1 c 1888 463 m21 6 lw 1 1 1 c 0 0 1 c 380 530 m 28 1 d 131 X 79 -1 d 90 X 17 -1 d 30 -2 d 83 X 14 1 d 14 X 14 1 d 19 2 d 23 2 d 13 1 d 17 X 25 1 d 15 X 6 1 d 5 X 5 1 d 5 1 d 2 X 3 1 d 4 1 d 4 1 d 4 2 d 4 1
 d 5 3 d 6 3 d 12 6 d 5 3 d 5 2 d 4 1 d 3 2 d 3 1 d 4 1 d 3 X 4 1 d 16 X 3 -1 d 4 -1 d 4 -1 d 4 -1 d 4 -2 d 5 -2 d 5 -3 d 18 -8 d 5 -2 d 4 -2 d 5 -1 d 3 -1 d 4 -1 d 2 -1 d 5 -1 d 5 -1 d 7 X 7 -1 d 9 -1 d 15 -1 d 14 -1 d 9 -1 d 8 -1 d 11 -1 d 12 -2 d
 35 -5 d 9 -1 d 9 -1 d 3 X 18 -2 d 13 -1 d 12 -1 d 12 -1 d 18 X 7 -1 d 6 1 d 14 X 9 1 d 22 2 d 9 1 d 28 X 5 -1 d 7 -1 d 8 -1 d 17 -3 d 6 -1 d 6 -1 d 25 X 3 1 d 3 1 d 4 1 d 4 1 d 4 2 d 4 2 d 6 2 d 14 7 d 4 3 d 5 2 d 3 1 d 3 1 d 4 1 d 3 1 d 3 1 d 3 X 3
 1 d 9 X 3 -1 d 4 X 3 -1 d 4 -1 d 4 -1 d 5 -2 d 6 -2 d 15 -6 d 5 -2 d 4 -1 d 4 -1 d 4 -1 d 3 -1 d 21 X 4 1 d 4 1 d 5 1 d 5 1 d 8 3 d 17 5 d 6 2 d 6 1 d 4 1 d 4 1 d 5 1 d 8 1 d 9 1 d 9 1 d 8 X 9 1 d 36 X s 3 lw /w 2 def /w2 {w 2 div} def /w3 {w 3 div}
 def 380 530 459 531 539 531 618 530 697 530 777 527 856 528 935 534 1015 538 1094 567 1174 540 1253 532 1332 522 1412 516 1491 521 1570 513 1650 541 1729 521 1809 539 1888 543 20 { m20} R 6 lw black 0 0 1 c
 gsave  2268 1328 0 0 C 2036.96 615.36 t 0 r /Helvetica-Bold findfont 48.4311 sf 0 0 m (/dof=0.3) show NC gr  black 0 0 1 c
 gsave  2268 1328 0 0 C 2017.01 632.454 t 0 r /Helvetica-Bold findfont 34.1867 sf 0 0 m (2) show NC gr  black 0 0 1 c
 gsave  2268 1328 0 0 C 1991.37 615.36 t 0 r /Symbol findfont 48.4311 sf 0 0 m (c) show NC gr  black 3 lw 340 531 m 1588 X s
 gsave  2268 1328 0 0 C 877.458 1213.63 t 0 r /Helvetica-Bold findfont 39.8845 sf 0 0 m (1 mm) show NC gr  0 0 1 c /w 23 def /w2 {w 2 div} def /w3 {w 3 div} def 836 1228 m21 black 1 1 1 c 1 0 1 c 380 749 m21 459 752 m21 539 749 m21 618 752 m21 697
 748 m21 777 745 m21 856 735 m21 black 935 746 m 2 Y s 935 770 m 2 Y s 930 746 m 11 X s 930 772 m 11 X s 1 0 1 c 935 759 m21 black 1015 772 m 6 Y s 1015 801 m 6 Y s 1009 772 m 12 X s 1009 807 m 12 X s 1 0 1 c 1015 789 m21 black 1094 820 m 12 Y s 1094
 855 m 12 Y s 1088 820 m 12 X s 1088 867 m 12 X s 1 0 1 c 1094 844 m21 black 1174 769 m 19 Y s 1174 811 m 19 Y s 1168 769 m 11 X s 1168 830 m 11 X s 1 0 1 c 1174 800 m21 black 1253 692 m 25 Y s 1253 740 m 26 Y s 1247 692 m 12 X s 1247 766 m 12 X s 1
 0 1 c 1253 729 m21 black 1332 696 m 34 Y s 1332 753 m 33 Y s 1327 696 m 11 X s 1327 786 m 11 X s 1 0 1 c 1332 741 m21 black 1412 666 m 39 Y s 1412 728 m 39 Y s 1406 666 m 11 X s 1406 767 m 11 X s 1 0 1 c 1412 716 m21 black 1491 676 m 45 Y s 1491 744
 m 46 Y s 1485 676 m 12 X s 1485 790 m 12 X s 1 0 1 c 1491 733 m21 black 1570 678 m 51 Y s 1570 752 m 51 Y s 1565 678 m 11 X s 1565 803 m 11 X s 1 0 1 c 1570 740 m21 black 1650 675 m 56 Y s 1650 754 m 55 Y s 1644 675 m 11 X s 1644 809 m 11 X s 1 0 1
 c 1650 742 m21 black 1729 650 m 59 Y s 1729 732 m 59 Y s 1723 650 m 12 X s 1723 791 m 12 X s 1 0 1 c 1729 721 m21 black 1809 583 m 62 Y s 1809 668 m 63 Y s 1803 583 m 11 X s 1803 731 m 11 X s 1 0 1 c 1809 657 m21 black 1888 699 m 71 Y s 1888 793 m
 70 Y s 1882 699 m 12 X s 1882 863 m 12 X s 1 0 1 c 1888 781 m21 6 lw 1 1 1 c 1 0 1 c 380 748 m 26 2 d 22 1 d 23 1 d 8 1 d 19 X 61 -1 d 63 -1 d 16 X 34 -1 d 33 -1 d 12 -1 d 80 -5 d 12 -1 d 37 -4 d 10 -1 d 8 X 8 1 d 4 X 8 1 d 9 1 d 10 3 d 10 2 d 16 5
 d 24 7 d 2 1 d 49 14 d 10 3 d 9 3 d 9 4 d 3 1 d 5 3 d 5 3 d 6 4 d 7 6 d 19 14 d 6 5 d 6 4 d 6 3 d 4 3 d 5 1 d 4 1 d 4 1 d 11 X 5 -1 d 4 -2 d 5 -2 d 6 -2 d 7 -4 d 8 -6 d 22 -14 d 6 -3 d 6 -3 d 2 -1 d 32 -15 d 18 -8 d 18 -7 d 11 -4 d 11 -4 d 15 -5 d
 26 -8 d 12 -4 d 9 -4 d 6 -2 d 6 -3 d 6 -4 d 8 -5 d 30 -19 d 6 -4 d 5 -3 d 6 -2 d 5 -2 d 4 -1 d 4 X 4 -1 d 5 1 d 5 X 6 1 d 6 2 d 8 2 d 14 6 d 12 4 d 7 3 d 5 1 d 6 1 d 1 X 6 1 d 14 X 18 -2 d 10 X 7 -1 d 6 1 d 5 1 d 5 1 d 4 1 d 4 2 d 4 2 d 3 2 d 3 3 d
 4 3 d 4 5 d 4 5 d 5 7 d 5 7 d 11 17 d 5 8 d 5 6 d 3 4 d 4 3 d 3 3 d 3 2 d 3 2 d 3 1 d 3 1 d 2 1 d 3 X 3 -1 d 2 X 3 -1 d 3 -2 d 3 -2 d 3 -3 d 3 -3 d 3 -5 d 4 -5 d 4 -6 d 6 -10 d 10 -18 d 4 -8 d 4 -5 d 3 -5 d 3 -3 d 3 -3 d 3 -2 d 3 -2 d 3 -2 d 2 -1 d
 3 X 1 -1 d 3 X 4 1 d 3 X 4 2 d 4 2 d 4 2 d 4 3 d 4 4 d 5 5 d 7 7 d 15 17 d 6 6 d 5 5 d 4 3 d 4 3 d 4 3 d 9 5 d 11 6 d 9 4 d 12 5 d 10 4 d 10 3 d 10 3 d 8 2 d s 3 lw /w 2 def /w2 {w 2 div} def /w3 {w 3 div} def 380 748 459 753 539 752 618 751 697 748
 777 743 856 738 935 758 1015 783 1094 831 1174 793 1253 759 1332 732 1412 689 1491 709 1570 713 1650 795 1729 707 1809 770 1888 802 20 { m20} R 6 lw black 1 0 1 c
 gsave  2268 1328 0 0 C 2036.96 863.214 t 0 r /Helvetica-Bold findfont 48.4311 sf 0 0 m (/dof=0.3) show NC gr  black 1 0 1 c
 gsave  2268 1328 0 0 C 2017.01 880.307 t 0 r /Helvetica-Bold findfont 34.1867 sf 0 0 m (2) show NC gr  black 1 0 1 c
 gsave  2268 1328 0 0 C 1991.37 863.214 t 0 r /Symbol findfont 48.4311 sf 0 0 m (c) show NC gr  black 3 lw 340 752 m 1588 X s
 gsave  2268 1328 0 0 C 1330.43 1213.63 t 0 r /Helvetica-Bold findfont 39.8845 sf 0 0 m (2 mm) show NC gr  1 0 1 c /w 23 def /w2 {w 2 div} def /w3 {w 3 div} def 1290 1228 m21 black 1 1 1 c 0 0.733333 1 c 380 965 m21 459 973 m21 539 978 m21 618 971
 m21 697 966 m21 777 959 m21 black 856 939 m s 856 962 m s 850 939 m 12 X s 850 962 m 12 X s 0 0.733333 1 c 856 951 m21 black 935 965 m 2 Y s 935 990 m 3 Y s 930 965 m 11 X s 930 993 m 11 X s 0 0.733333 1 c 935 979 m21 black 1015 1004 m 7 Y s 1015
 1034 m 8 Y s 1009 1004 m 12 X s 1009 1042 m 12 X s 0 0.733333 1 c 1015 1023 m21 black 1094 1045 m 14 Y s 1094 1082 m 14 Y s 1088 1045 m 12 X s 1088 1096 m 12 X s 0 0.733333 1 c 1094 1070 m21 black 1174 1006 m 22 Y s 1174 1051 m 21 Y s 1168 1006 m 11
 X s 1168 1072 m 11 X s 0 0.733333 1 c 1174 1039 m21 black 1253 967 m 30 Y s 1253 1019 m 30 Y s 1247 967 m 12 X s 1247 1049 m 12 X s 0 0.733333 1 c 1253 1008 m21 black 1332 895 m 36 Y s 1332 953 m 36 Y s 1327 895 m 11 X s 1327 989 m 11 X s 0 0.733333
 1 c 1332 942 m21 black 1412 791 m 41 Y s 1412 855 m 41 Y s 1406 791 m 11 X s 1406 896 m 11 X s 0 0.733333 1 c 1412 843 m21 black 1491 826 m 49 Y s 1491 898 m 48 Y s 1485 826 m 12 X s 1485 946 m 12 X s 0 0.733333 1 c 1491 886 m21 black 1570 839 m 55
 Y s 1570 917 m 55 Y s 1565 839 m 11 X s 1565 972 m 11 X s 0 0.733333 1 c 1570 905 m21 black 1650 1007 m 64 Y s 1650 1094 m 65 Y s 1644 1007 m 11 X s 1644 1159 m 11 X s 0 0.733333 1 c 1650 1083 m21 black 1729 814 m 65 Y s 1729 901 m 64 Y s 1723 814 m
 12 X s 1723 965 m 12 X s 0 0.733333 1 c 1729 890 m21 black 1809 963 m 74 Y s 1809 1060 m 73 Y s 1803 963 m 11 X s 1803 1133 m 11 X s 0 0.733333 1 c 1809 1048 m21 black 1888 999 m 79 Y s 1888 1101 m 79 Y s 1882 999 m 12 X s 1882 1180 m 12 X s 0
 0.733333 1 c 1888 1090 m21 6 lw 1 1 1 c 0 0.733333 1 c 380 966 m 22 3 d 21 3 d 22 1 d 14 1 d 19 X 61 -1 d 59 -1 d 20 X 26 -2 d 53 -4 d 57 -3 d 23 -2 d 10 -2 d 12 -2 d 25 -6 d 11 -2 d 21 X 8 2 d 8 2 d 10 3 d 9 4 d 14 6 d 30 15 d 18 9 d 18 10 d 20 12
 d 24 14 d 6 4 d 8 6 d 11 9 d 16 15 d 9 7 d 6 4 d 6 4 d 5 2 d 5 2 d 5 1 d 2 X 5 1 d 6 -1 d 5 -1 d 6 -2 d 7 -3 d 7 -4 d 10 -6 d 34 -22 d 9 -6 d 70 -52 d 8 -4 d 9 -5 d 16 -6 d 17 -7 d 10 -4 d 7 -4 d 7 -4 d 5 -4 d 5 -4 d 5 -5 d 6 -6 d 7 -9 d 26 -33 d 6
 -6 d 5 -5 d 5 -4 d 5 -4 d 4 -2 d 4 -1 d 2 -1 d 4 -1 d 5 X 4 1 d 5 1 d 6 2 d 6 3 d 8 5 d 13 8 d 11 7 d 7 5 d 6 2 d 4 2 d 6 2 d 8 1 d 10 1 d 21 1 d 7 2 d 7 1 d 5 2 d 6 3 d 4 2 d 5 4 d 4 3 d 3 4 d 3 5 d 4 6 d 4 7 d 5 8 d 5 12 d 15 35 d 5 11 d 4 9 d 4 7
 d 3 5 d 3 3 d 3 4 d 3 2 d 3 2 d 3 2 d 9 X 2 -1 d 3 -2 d 3 -3 d 2 -3 d 3 -4 d 3 -4 d 3 -7 d 3 -7 d 4 -9 d 4 -12 d 14 -44 d 4 -12 d 4 -9 d 3 -7 d 3 -6 d 3 -4 d 2 -4 d 3 -3 d 3 -3 d 2 -2 d 3 -1 d 2 X 3 -1 d 4 1 d 3 1 d 4 2 d 4 3 d 3 3 d 4 5 d 4 5 d 5 7
 d 5 9 d 10 17 d 9 16 d 6 10 d 5 7 d 4 6 d 3 5 d 4 3 d 11 11 d 11 10 d 11 9 d 11 9 d 12 8 d 10 7 d 13 8 d s 3 lw /w 2 def /w2 {w 2 div} def /w3 {w 3 div} def 380 966 459 974 539 973 618 972 697 966 777 961 856 949 935 981 1015 1026 1094 1080 1174
 1042 1253 984 1332 946 1412 866 1491 901 1570 920 1650 1045 1729 898 1809 997 1888 1059 20 { m20} R 6 lw black 0 0.733333 1 c
 gsave  2268 1328 0 0 C 2039.81 1113.92 t 0 r /Helvetica-Bold findfont 48.4311 sf 0 0 m (/dof=0.1) show NC gr  black 0 0.733333 1 c
 gsave  2268 1328 0 0 C 2019.86 1131.01 t 0 r /Helvetica-Bold findfont 34.1867 sf 0 0 m (2) show NC gr  black 0 0.733333 1 c
 gsave  2268 1328 0 0 C 1994.22 1113.92 t 0 r /Symbol findfont 48.4311 sf 0 0 m (c) show NC gr  black 3 lw 340 974 m 1588 X s
 gsave  2268 1328 0 0 C 1783.41 1213.63 t 0 r /Helvetica-Bold findfont 42.7334 sf 0 0 m (2.5 mm) show NC gr  0 0.733333 1 c /w 23 def /w2 {w 2 div} def /w3 {w 3 div} def 1743 1228 m21
 gr  gr showpage
end
%%EOF
