%!PS-Adobe-2.0 EPSF-2.0
%%BoundingBox:  0 0 567 332
%%Title: LBNEFDX_far_summary.eps: Summary
%%Creator: ROOT Version 5.30/06
%%CreationDate: Sun Feb  2 09:34:07 2014
%%EndComments
%%BeginProlog
80 dict begin
/s {stroke} def /l {lineto} def /m {moveto} def /t {translate} def
/r {rotate} def /rl {roll}  def /R {repeat} def
/d {rlineto} def /rm {rmoveto} def /gr {grestore} def /f {eofill} def
/c {setrgbcolor} def /black {0 setgray} def /sd {setdash} def
/cl {closepath} def /sf {scalefont setfont} def /lw {setlinewidth} def
/box {m dup 0 exch d exch 0 d 0 exch neg d cl} def
/NC{systemdict begin initclip end}def/C{NC box clip newpath}def
/bl {box s} def /bf {box f} def /Y { 0 exch d} def /X { 0 d} def 
/K {{pop pop 0 moveto} exch kshow} bind def
/ita {/ang 15 def gsave [1 0 ang dup sin exch cos div 1 0 0] concat} def 
/mp {newpath /y exch def /x exch def} def
/side {[w .77 mul w .23 mul] .385 w mul sd w 0 l currentpoint t -144 r} def
/mr {mp x y w2 0 360 arc} def /m24 {mr s} def /m20 {mr f} def
/mb {mp x y w2 add m w2 neg 0 d 0 w neg d w 0 d 0 w d cl} def
/mt {mp x y w2 add m w2 neg w neg d w 0 d cl} def
/m21 {mb f} def /m25 {mb s} def /m22 {mt f} def /m26{mt s} def
/m23 {mp x y w2 sub m w2 w d w neg 0 d cl f} def
/m27 {mp x y w2 add m w3 neg w2 neg d w3 w2 neg d w3 w2 d cl s} def
/m28 {mp x w2 sub y w2 sub w3 add m w3 0 d  0 w3 neg d w3 0 d 0 w3 d w3 0 d  0 w3 d w3 neg 0 d 0 w3 d w3 neg 0 d 0 w3 neg d w3 neg 0 d cl s } def
/m29 {mp gsave x w2 sub y w2 add w3 sub m currentpoint t 4 {side} repeat cl fill gr} def
/m30 {mp gsave x w2 sub y w2 add w3 sub m currentpoint t 4 {side} repeat cl s gr} def
/m31 {mp x y w2 sub m 0 w d x w2 sub y m w 0 d x w2 sub y w2 add m w w neg d x w2 sub y w2 sub m w w d s} def
/m32 {mp x y w2 sub m w2 w d w neg 0 d cl s} def
/m33 {mp x y w2 add m w3 neg w2 neg d w3 w2 neg d w3 w2 d cl f} def
/m34 {mp x w2 sub y w2 sub w3 add m w3 0 d  0 w3 neg d w3 0 d 0 w3 d w3 0 d  0 w3 d w3 neg 0 d 0 w3 d w3 neg 0 d 0 w3 neg d w3 neg 0 d cl f } def
/m2 {mp x y w2 sub m 0 w d x w2 sub y m w 0 d s} def
/m5 {mp x w2 sub y w2 sub m w w d x w2 sub y w2 add m w w neg d s} def
/reEncode {exch findfont dup length dict begin {1 index /FID eq  {pop pop} {def} ifelse } forall /Encoding exch def currentdict end dup /FontName get exch definefont pop } def [/Times-Bold /Times-Italic /Times-BoldItalic /Helvetica /Helvetica-Oblique
 /Helvetica-Bold /Helvetica-BoldOblique /Courier /Courier-Oblique /Courier-Bold /Courier-BoldOblique /Times-Roman /AvantGarde-Book /AvantGarde-BookOblique /AvantGarde-Demi /AvantGarde-DemiOblique /Bookman-Demi /Bookman-DemiItalic /Bookman-Light
 /Bookman-LightItalic /Helvetica-Narrow /Helvetica-Narrow-Bold /Helvetica-Narrow-BoldOblique /Helvetica-Narrow-Oblique /NewCenturySchlbk-Roman /NewCenturySchlbk-Bold /NewCenturySchlbk-BoldItalic /NewCenturySchlbk-Italic /Palatino-Bold
 /Palatino-BoldItalic /Palatino-Italic /Palatino-Roman ] {ISOLatin1Encoding reEncode } forall%%EndProlog
%%BeginSetup
%%EndSetup
newpath  gsave  .25 .25 scale  gsave  0 0 t black[  ] 0 sd 3 lw 1 1 1 c 2268 1328 0 0 bf black 1 1 1 c black 1588 996 340 199 bl 1588 996 340 199 bl 1 1 1 c 1 0 0 c /w 23 def /w2 {w 2 div} def /w3 {w 3 div} def 380 291 m21 459 292 m21 539 297 m21 618
 286 m21 697 293 m21 777 289 m21 856 287 m21 935 285 m21 1015 295 m21 1094 296 m21 black 1174 267 m s 1174 290 m 1 Y s 1168 267 m 11 X s 1168 291 m 11 X s 1 0 0 c 1174 279 m21 black 1253 262 m 3 Y s 1253 288 m 4 Y s 1247 262 m 12 X s 1247 292 m 12 X
 s 1 0 0 c 1253 277 m21 black 1332 261 m 7 Y s 1332 291 m 7 Y s 1327 261 m 11 X s 1327 298 m 11 X s 1 0 0 c 1332 279 m21 black 1412 252 m 10 Y s 1412 285 m 10 Y s 1406 252 m 11 X s 1406 295 m 11 X s 1 0 0 c 1412 273 m21 black 1491 261 m 13 Y s 1491
 297 m 13 Y s 1485 261 m 12 X s 1485 310 m 12 X s 1 0 0 c 1491 285 m21 black 1570 222 m 15 Y s 1570 260 m 15 Y s 1565 222 m 11 X s 1565 275 m 11 X s 1 0 0 c 1570 249 m21 black 1650 296 m 18 Y s 1650 337 m 18 Y s 1644 296 m 11 X s 1644 355 m 11 X s 1
 0 0 c 1650 325 m21 black 1729 260 m 20 Y s 1729 302 m 21 Y s 1723 260 m 12 X s 1723 323 m 12 X s 1 0 0 c 1729 291 m21 black 1809 249 m 23 Y s 1809 295 m 22 Y s 1803 249 m 11 X s 1803 317 m 11 X s 1 0 0 c 1809 283 m21 black 1888 254 m 25 Y s 1888 301
 m 25 Y s 1882 254 m 12 X s 1882 326 m 12 X s 1 0 0 c 1888 290 m21 black 340 199 m 1588 X s
 gsave  2268 1328 0 0 C 954.378 68.3734 t 0 r /Helvetica findfont 62.6756 sf 0 0 m ( Energy \(GeV\) ) show NC gr 
 gsave  2268 1328 0 0 C 928.738 51.28 t 0 r /Symbol findfont 42.7334 sf 0 0 m (m) show NC gr 
 gsave  2268 1328 0 0 C 894.552 68.3734 t 0 r /Symbol findfont 62.6756 sf 0 0 m (n) show NC gr  340 216 m -17 Y s 372 208 m -9 Y s 404 208 m -9 Y s 435 208 m -9 Y s 467 208 m -9 Y s 499 216 m -17 Y s 531 208 m -9 Y s 562 208 m -9 Y s 594 208 m -9 Y s
 626 208 m -9 Y s 658 216 m -17 Y s 689 208 m -9 Y s 721 208 m -9 Y s 753 208 m -9 Y s 785 208 m -9 Y s 816 216 m -17 Y s 848 208 m -9 Y s 880 208 m -9 Y s 912 208 m -9 Y s 943 208 m -9 Y s 975 216 m -17 Y s 1007 208 m -9 Y s 1039 208 m -9 Y s 1070
 208 m -9 Y s 1102 208 m -9 Y s 1134 216 m -17 Y s 1166 208 m -9 Y s 1197 208 m -9 Y s 1229 208 m -9 Y s 1261 208 m -9 Y s 1293 216 m -17 Y s 1324 208 m -9 Y s 1356 208 m -9 Y s 1388 208 m -9 Y s 1420 208 m -9 Y s 1451 216 m -17 Y s 1483 208 m -9 Y s
 1515 208 m -9 Y s 1547 208 m -9 Y s 1578 208 m -9 Y s 1610 216 m -17 Y s 1642 208 m -9 Y s 1674 208 m -9 Y s 1705 208 m -9 Y s 1737 208 m -9 Y s 1769 216 m -17 Y s 1801 208 m -9 Y s 1832 208 m -9 Y s 1864 208 m -9 Y s 1896 208 m -9 Y s 1928 216 m
 -17 Y s
 gsave  2268 1328 0 0 C 319.076 136.747 t 0 r /Helvetica findfont 68.3734 sf 0 0 m (0) show NC gr 
 gsave  2268 1328 0 0 C 484.311 136.747 t 0 r /Helvetica findfont 68.3734 sf 0 0 m (1) show NC gr 
 gsave  2268 1328 0 0 C 635.302 136.747 t 0 r /Helvetica findfont 68.3734 sf 0 0 m (2) show NC gr 
 gsave  2268 1328 0 0 C 794.84 136.747 t 0 r /Helvetica findfont 68.3734 sf 0 0 m (3) show NC gr 
 gsave  2268 1328 0 0 C 954.378 136.747 t 0 r /Helvetica findfont 68.3734 sf 0 0 m (4) show NC gr 
 gsave  2268 1328 0 0 C 1113.92 136.747 t 0 r /Helvetica findfont 68.3734 sf 0 0 m (5) show NC gr 
 gsave  2268 1328 0 0 C 1270.6 136.747 t 0 r /Helvetica findfont 68.3734 sf 0 0 m (6) show NC gr 
 gsave  2268 1328 0 0 C 1430.14 136.747 t 0 r /Helvetica findfont 68.3734 sf 0 0 m (7) show NC gr 
 gsave  2268 1328 0 0 C 1589.68 136.747 t 0 r /Helvetica findfont 68.3734 sf 0 0 m (8) show NC gr 
 gsave  2268 1328 0 0 C 1746.37 136.747 t 0 r /Helvetica findfont 68.3734 sf 0 0 m (9) show NC gr 
 gsave  2268 1328 0 0 C 1888.81 136.747 t 0 r /Helvetica findfont 68.3734 sf 0 0 m (10) show NC gr  340 1195 m 1588 X s 340 1178 m 17 Y s 372 1186 m 9 Y s 404 1186 m 9 Y s 435 1186 m 9 Y s 467 1186 m 9 Y s 499 1178 m 17 Y s 531 1186 m 9 Y s 562 1186
 m 9 Y s 594 1186 m 9 Y s 626 1186 m 9 Y s 658 1178 m 17 Y s 689 1186 m 9 Y s 721 1186 m 9 Y s 753 1186 m 9 Y s 785 1186 m 9 Y s 816 1178 m 17 Y s 848 1186 m 9 Y s 880 1186 m 9 Y s 912 1186 m 9 Y s 943 1186 m 9 Y s 975 1178 m 17 Y s 1007 1186 m 9 Y s
 1039 1186 m 9 Y s 1070 1186 m 9 Y s 1102 1186 m 9 Y s 1134 1178 m 17 Y s 1166 1186 m 9 Y s 1197 1186 m 9 Y s 1229 1186 m 9 Y s 1261 1186 m 9 Y s 1293 1178 m 17 Y s 1324 1186 m 9 Y s 1356 1186 m 9 Y s 1388 1186 m 9 Y s 1420 1186 m 9 Y s 1451 1178 m
 17 Y s 1483 1186 m 9 Y s 1515 1186 m 9 Y s 1547 1186 m 9 Y s 1578 1186 m 9 Y s 1610 1178 m 17 Y s 1642 1186 m 9 Y s 1674 1186 m 9 Y s 1705 1186 m 9 Y s 1737 1186 m 9 Y s 1769 1178 m 17 Y s 1801 1186 m 9 Y s 1832 1186 m 9 Y s 1864 1186 m 9 Y s 1896
 1186 m 9 Y s 1928 1178 m 17 Y s 340 199 m 996 Y s
 gsave  2268 1328 0 0 C 170.933 427.334 t 90 r /Helvetica findfont 62.6756 sf 0 0 m (Far Flux to Nominal) show NC gr  371 290 m -31 X s 355 326 m -15 X s 355 362 m -15 X s 355 398 m -15 X s 355 434 m -15 X s 371 471 m -31 X s 355 507 m -15 X s 355
 543 m -15 X s 355 579 m -15 X s 355 616 m -15 X s 371 652 m -31 X s 355 688 m -15 X s 355 724 m -15 X s 355 760 m -15 X s 355 797 m -15 X s 371 833 m -31 X s 355 869 m -15 X s 355 905 m -15 X s 355 941 m -15 X s 355 978 m -15 X s 371 1014 m -31 X s
 355 1050 m -15 X s 355 1086 m -15 X s 355 1122 m -15 X s 355 1159 m -15 X s 371 1195 m -31 X s 371 290 m -31 X s 355 253 m -15 X s 355 217 m -15 X s
 gsave  2268 1328 0 0 C 301.982 262.098 t 0 r /Helvetica findfont 68.3734 sf 0 0 m (1) show NC gr 
 gsave  2268 1328 0 0 C 245.005 444.427 t 0 r /Helvetica findfont 68.3734 sf 0 0 m (1.1) show NC gr 
 gsave  2268 1328 0 0 C 233.609 623.907 t 0 r /Helvetica findfont 68.3734 sf 0 0 m (1.2) show NC gr 
 gsave  2268 1328 0 0 C 233.609 809.085 t 0 r /Helvetica findfont 68.3734 sf 0 0 m (1.3) show NC gr 
 gsave  2268 1328 0 0 C 233.609 985.716 t 0 r /Helvetica findfont 68.3734 sf 0 0 m (1.4) show NC gr 
 gsave  2268 1328 0 0 C 233.609 1170.89 t 0 r /Helvetica findfont 68.3734 sf 0 0 m (1.5) show NC gr  1928 199 m 996 Y s 1897 290 m 31 X s 1912 326 m 16 X s 1912 362 m 16 X s 1912 398 m 16 X s 1912 434 m 16 X s 1897 471 m 31 X s 1912 507 m 16 X s 1912
 543 m 16 X s 1912 579 m 16 X s 1912 616 m 16 X s 1897 652 m 31 X s 1912 688 m 16 X s 1912 724 m 16 X s 1912 760 m 16 X s 1912 797 m 16 X s 1897 833 m 31 X s 1912 869 m 16 X s 1912 905 m 16 X s 1912 941 m 16 X s 1912 978 m 16 X s 1897 1014 m 31 X s
 1912 1050 m 16 X s 1912 1086 m 16 X s 1912 1122 m 16 X s 1912 1159 m 16 X s 1897 1195 m 31 X s 1897 290 m 31 X s 1912 253 m 16 X s 1912 217 m 16 X s 1 0 0 c 6 lw 1 1 1 c 1 0 0 c 380 290 m 743 X 21 -1 d 70 X 15 1 d 376 X 9 1 d 99 X 5 -1 d 170 X s 3
 lw /w 2 def /w2 {w 2 div} def /w3 {w 3 div} def 380 290 459 290 539 290 618 290 697 290 777 290 856 290 935 290 1015 290 1094 290 1174 289 1253 290 1332 290 1412 290 1491 290 1570 290 1650 291 1729 290 1809 290 1888 290 20 { m20} R 6 lw black 1 0 0
 c
 gsave  2268 1328 0 0 C 2036.96 316.227 t 0 r /Helvetica-Bold findfont 48.4311 sf 0 0 m (/dof=0.7) show NC gr  black 1 0 0 c
 gsave  2268 1328 0 0 C 2017.01 333.32 t 0 r /Helvetica-Bold findfont 34.1867 sf 0 0 m (2) show NC gr  black 1 0 0 c
 gsave  2268 1328 0 0 C 1991.37 316.227 t 0 r /Symbol findfont 48.4311 sf 0 0 m (c) show NC gr  black 3 lw 340 290 m 1588 X s
 gsave  2268 1328 0 0 C 333.32 1213.63 t 0 r /Helvetica-Bold findfont 39.8845 sf 0 0 m (21 m) show NC gr  1 0 0 c /w 23 def /w2 {w 2 div} def /w3 {w 3 div} def 292 1228 m21 black 1 1 1 c 0 0 1 c 380 473 m21 459 473 m21 539 478 m21 618 467 m21 697 474
 m21 777 470 m21 856 468 m21 935 465 m21 1015 477 m21 1094 479 m21 black 1174 444 m 2 Y s 1174 469 m 2 Y s 1168 444 m 11 X s 1168 471 m 11 X s 0 0 1 c 1174 458 m21 black 1253 438 m 5 Y s 1253 465 m 6 Y s 1247 438 m 12 X s 1247 471 m 12 X s 0 0 1 c
 1253 454 m21 black 1332 438 m 9 Y s 1332 470 m 8 Y s 1327 438 m 11 X s 1327 478 m 11 X s 0 0 1 c 1332 458 m21 black 1412 433 m 12 Y s 1412 468 m 12 Y s 1406 433 m 11 X s 1406 480 m 11 X s 0 0 1 c 1412 456 m21 black 1491 434 m 15 Y s 1491 472 m 15 Y
 s 1485 434 m 12 X s 1485 487 m 12 X s 0 0 1 c 1491 461 m21 black 1570 413 m 17 Y s 1570 453 m 18 Y s 1565 413 m 11 X s 1565 471 m 11 X s 0 0 1 c 1570 442 m21 black 1650 463 m 21 Y s 1650 507 m 21 Y s 1644 463 m 11 X s 1644 528 m 11 X s 0 0 1 c 1650
 496 m21 black 1729 455 m 24 Y s 1729 502 m 23 Y s 1723 455 m 12 X s 1723 525 m 12 X s 0 0 1 c 1729 490 m21 black 1809 412 m 26 Y s 1809 461 m 25 Y s 1803 412 m 11 X s 1803 486 m 11 X s 0 0 1 c 1809 449 m21 black 1888 427 m 28 Y s 1888 478 m 28 Y s
 1882 427 m 12 X s 1882 506 m 12 X s 0 0 1 c 1888 466 m21 6 lw 1 1 1 c 0 0 1 c 380 471 m 733 X 10 -1 d 92 X 14 1 d 363 X 4 1 d 9 X 9 1 d 14 X 3 1 d 33 X 65 -2 d 8 X 21 -1 d 130 X s 3 lw /w 2 def /w2 {w 2 div} def /w3 {w 3 div} def 380 471 459 471 539
 471 618 471 697 471 777 471 856 471 935 471 1015 471 1094 471 1174 470 1253 471 1332 471 1412 471 1491 471 1570 471 1650 474 1729 472 1809 471 1888 471 20 { m20} R 6 lw black 0 0 1 c
 gsave  2268 1328 0 0 C 2036.96 515.649 t 0 r /Helvetica-Bold findfont 48.4311 sf 0 0 m (/dof=0.6) show NC gr  black 0 0 1 c
 gsave  2268 1328 0 0 C 2017.01 532.742 t 0 r /Helvetica-Bold findfont 34.1867 sf 0 0 m (2) show NC gr  black 0 0 1 c
 gsave  2268 1328 0 0 C 1991.37 515.649 t 0 r /Symbol findfont 48.4311 sf 0 0 m (c) show NC gr  black 3 lw 340 471 m 1588 X s
 gsave  2268 1328 0 0 C 695.129 1213.63 t 0 r /Helvetica-Bold findfont 39.8845 sf 0 0 m (42 m) show NC gr  0 0 1 c /w 23 def /w2 {w 2 div} def /w3 {w 3 div} def 655 1228 m21 black 1 1 1 c 1 0 1 c 380 654 m21 459 654 m21 539 660 m21 618 647 m21 697
 656 m21 777 651 m21 856 648 m21 935 646 m21 1015 658 m21 1094 661 m21 black 1174 622 m 3 Y s 1174 648 m 3 Y s 1168 622 m 11 X s 1168 651 m 11 X s 1 0 1 c 1174 637 m21 black 1253 614 m 7 Y s 1253 644 m 7 Y s 1247 614 m 12 X s 1247 651 m 12 X s 1 0 1
 c 1253 632 m21 black 1332 616 m 11 Y s 1332 650 m 10 Y s 1327 616 m 11 X s 1327 660 m 11 X s 1 0 1 c 1332 638 m21 black 1412 616 m 15 Y s 1412 653 m 15 Y s 1406 616 m 11 X s 1406 668 m 11 X s 1 0 1 c 1412 642 m21 black 1491 613 m 18 Y s 1491 654 m
 18 Y s 1485 613 m 12 X s 1485 672 m 12 X s 1 0 1 c 1491 643 m21 black 1570 581 m 21 Y s 1570 625 m 20 Y s 1565 581 m 11 X s 1565 645 m 11 X s 1 0 1 c 1570 613 m21 black 1650 641 m 24 Y s 1650 688 m 24 Y s 1644 641 m 11 X s 1644 712 m 11 X s 1 0 1 c
 1650 677 m21 black 1729 648 m 27 Y s 1729 698 m 27 Y s 1723 648 m 12 X s 1723 725 m 12 X s 1 0 1 c 1729 687 m21 black 1809 570 m 29 Y s 1809 622 m 28 Y s 1803 570 m 11 X s 1803 650 m 11 X s 1 0 1 c 1809 610 m21 black 1888 604 m 32 Y s 1888 659 m 32
 Y s 1882 604 m 12 X s 1882 691 m 12 X s 1 0 1 c 1888 647 m21 6 lw 1 1 1 c 1 0 1 c 380 652 m 378 X 8 -1 d 47 X 27 1 d 260 X 6 -1 d 37 X 8 -1 d 38 X 7 1 d 34 X 7 1 d 339 X 3 1 d 10 X 3 1 d 8 X 5 1 d 9 1 d 4 1 d 7 X 3 1 d 11 X 3 1 d 22 X 65 -4 d 8 X 21
 -2 d 17 X 6 -1 d 89 X 6 1 d 12 X s 3 lw /w 2 def /w2 {w 2 div} def /w3 {w 3 div} def 380 652 459 652 539 652 618 652 697 652 777 651 856 652 935 652 1015 652 1094 652 1174 650 1253 652 1332 652 1412 652 1491 652 1570 652 1650 659 1729 655 1809 652
 1888 653 20 { m20} R 6 lw black 1 0 1 c
 gsave  2268 1328 0 0 C 2036.96 715.071 t 0 r /Helvetica-Bold findfont 48.4311 sf 0 0 m (/dof=0.7) show NC gr  black 1 0 1 c
 gsave  2268 1328 0 0 C 2017.01 732.165 t 0 r /Helvetica-Bold findfont 34.1867 sf 0 0 m (2) show NC gr  black 1 0 1 c
 gsave  2268 1328 0 0 C 1991.37 715.071 t 0 r /Symbol findfont 48.4311 sf 0 0 m (c) show NC gr  black 3 lw 340 652 m 1588 X s
 gsave  2268 1328 0 0 C 1059.79 1213.63 t 0 r /Helvetica-Bold findfont 42.7334 sf 0 0 m (84 m) show NC gr  1 0 1 c /w 23 def /w2 {w 2 div} def /w3 {w 3 div} def 1018 1228 m21 black 1 1 1 c 0 0.733333 1 c 380 835 m21 459 836 m21 539 842 m21 618 829
 m21 697 837 m21 777 831 m21 856 826 m21 935 823 m21 1015 834 m21 black 1094 827 m 1 Y s 1094 851 m 1 Y s 1088 827 m 12 X s 1088 852 m 12 X s 0 0.733333 1 c 1094 839 m21 black 1174 789 m 4 Y s 1174 816 m 4 Y s 1168 789 m 11 X s 1168 820 m 11 X s 0
 0.733333 1 c 1174 805 m21 black 1253 806 m 9 Y s 1253 837 m 9 Y s 1247 806 m 12 X s 1247 846 m 12 X s 0 0.733333 1 c 1253 826 m21 black 1332 810 m 13 Y s 1332 845 m 13 Y s 1327 810 m 11 X s 1327 858 m 11 X s 0 0.733333 1 c 1332 834 m21 black 1412
 809 m 16 Y s 1412 848 m 17 Y s 1406 809 m 11 X s 1406 865 m 11 X s 0 0.733333 1 c 1412 837 m21 black 1491 826 m 20 Y s 1491 869 m 21 Y s 1485 826 m 12 X s 1485 890 m 12 X s 0 0.733333 1 c 1491 858 m21 black 1570 786 m 23 Y s 1570 832 m 24 Y s 1565
 786 m 11 X s 1565 856 m 11 X s 0 0.733333 1 c 1570 821 m21 black 1650 834 m 27 Y s 1650 884 m 27 Y s 1644 834 m 11 X s 1644 911 m 11 X s 0 0.733333 1 c 1650 873 m21 black 1729 809 m 29 Y s 1729 861 m 30 Y s 1723 809 m 12 X s 1723 891 m 12 X s 0
 0.733333 1 c 1729 850 m21 black 1809 756 m 32 Y s 1809 811 m 32 Y s 1803 756 m 11 X s 1803 843 m 11 X s 0 0.733333 1 c 1809 799 m21 black 1888 795 m 35 Y s 1888 853 m 36 Y s 1882 795 m 12 X s 1882 889 m 12 X s 0 0.733333 1 c 1888 842 m21 6 lw 1 1 1
 c 0 0.733333 1 c 380 834 m 56 X 23 1 d 13 X 21 1 d 17 1 d 37 X 9 -1 d 12 X 31 -2 d 8 -1 d 29 X 14 1 d 23 1 d 33 X 11 -1 d 11 X 36 -3 d 13 X 13 -1 d 66 X 79 -3 d 37 X 35 1 d 20 X 21 1 d 60 X 8 -1 d 18 -2 d 10 -1 d 8 -1 d 7 X 5 -1 d 10 X 5 1 d 6 X 6 1
 d 7 1 d 9 1 d 13 2 d 17 3 d 9 2 d 7 X 30 4 d 17 2 d 14 2 d 14 1 d 4 X 13 1 d 15 2 d 18 1 d 34 1 d 20 2 d 20 1 d 13 X 9 1 d 28 X 6 -1 d 10 -1 d 18 -2 d 7 -1 d 23 X 4 1 d 4 X 3 1 d 3 1 d 4 1 d 4 1 d 4 2 d 4 2 d 6 3 d 13 8 d 5 2 d 4 2 d 4 2 d 3 1 d 3 1
 d 3 1 d 3 1 d 4 X 2 1 d 11 X 4 -1 d 3 X 4 -1 d 4 -1 d 4 -1 d 5 -2 d 5 -2 d 7 -2 d 21 -9 d 5 -2 d 4 -2 d 4 -1 d 2 -1 d 9 -2 d 32 -10 d 7 -2 d 6 -2 d 6 -1 d 5 -1 d 5 X 5 -1 d 5 X 6 -1 d 25 X 6 1 d 7 1 d 5 X 7 1 d 6 1 d 6 2 d 6 1 d 5 1 d s 3 lw /w 2
 def /w2 {w 2 div} def /w3 {w 3 div} def 380 834 459 835 539 837 618 833 697 835 777 831 856 830 935 827 1015 828 1094 829 1174 823 1253 834 1332 843 1412 848 1491 852 1570 848 1650 878 1729 853 1809 834 1888 841 20 { m20} R 6 lw black 0 0.733333 1 c
 gsave  2268 1328 0 0 C 2036.96 914.494 t 0 r /Helvetica-Bold findfont 48.4311 sf 0 0 m (/dof=0.3) show NC gr  black 0 0.733333 1 c
 gsave  2268 1328 0 0 C 2017.01 931.587 t 0 r /Helvetica-Bold findfont 34.1867 sf 0 0 m (2) show NC gr  black 0 0.733333 1 c
 gsave  2268 1328 0 0 C 1991.37 914.494 t 0 r /Symbol findfont 48.4311 sf 0 0 m (c) show NC gr  black 3 lw 340 833 m 1588 X s
 gsave  2268 1328 0 0 C 1421.6 1213.63 t 0 r /Helvetica-Bold findfont 42.7334 sf 0 0 m (500 m) show NC gr  0 0.733333 1 c /w 23 def /w2 {w 2 div} def /w3 {w 3 div} def 1380 1228 m21 black 1 1 1 c 0.35 0.83 0.33 c 380 1017 m21 459 1021 m21 539 1030
 m21 618 1020 m21 697 1022 m21 777 1005 m21 856 959 m21 935 920 m21 1015 927 m21 black 1094 941 m 2 Y s 1094 965 m 2 Y s 1088 941 m 12 X s 1088 967 m 12 X s 0.35 0.83 0.33 c 1094 954 m21 black 1174 963 m 5 Y s 1174 991 m 5 Y s 1168 963 m 11 X s 1168
 996 m 11 X s 0.35 0.83 0.33 c 1174 980 m21 black 1253 1022 m 11 Y s 1253 1055 m 11 Y s 1247 1022 m 12 X s 1247 1066 m 12 X s 0.35 0.83 0.33 c 1253 1044 m21 black 1729 1056 m 33 Y s 1729 1112 m 34 Y s 1723 1056 m 12 X s 1723 1146 m 12 X s 0.35 0.83
 0.33 c 1729 1101 m21 black 1809 983 m 36 Y s 1809 1042 m 36 Y s 1803 983 m 11 X s 1803 1078 m 11 X s 0.35 0.83 0.33 c 1809 1031 m21 black 1888 1000 m 39 Y s 1888 1062 m 40 Y s 1882 1000 m 12 X s 1882 1102 m 12 X s 0.35 0.83 0.33 c 1888 1051 m21 6 lw
 1 1 1 c 0.35 0.83 0.33 c 380 1017 m 30 1 d 30 2 d 19 2 d 13 2 d 21 3 d 20 3 d 13 2 d 23 X 12 -2 d 25 -6 d 17 -3 d 11 -1 d 4 -1 d 11 X 15 1 d 30 3 d 23 X 18 -2 d 15 -3 d 16 -3 d 12 -4 d 13 -4 d 6 -2 d 10 -5 d 11 -6 d 58 -35 d 15 -9 d 27 -16 d 12 -6 d
 9 -4 d 8 -2 d 8 -2 d 9 -2 d 19 X 12 1 d 16 3 d 24 5 d 11 3 d 16 6 d 25 9 d 17 7 d 10 3 d 10 2 d 13 2 d 26 4 d 10 2 d 7 2 d 8 3 d 6 3 d 12 7 d 10 7 d 9 6 d 9 8 d 9 8 d 8 8 d 8 8 d 7 9 d 7 9 d 8 12 d 8 12 d 8 14 d 9 15 d 7 14 d 8 15 d 8 17 d 8 18 d 7
 17 d 7 18 d s 1658 1195 m 2 -3 d s 1660 1192 m 11 -15 d 9 -13 d 10 -14 d 10 -13 d 11 -13 d 10 -12 d 8 -10 d 35 -40 d 7 -7 d 5 -5 d 7 -6 d 5 -5 d 6 -3 d 5 -4 d 4 -2 d 6 -2 d 5 -1 d 6 -2 d 18 X 5 1 d 7 2 d 6 2 d 6 3 d 6 3 d 7 4 d 5 4 d 6 5 d 2 1 d s 3
 lw /w 2 def /w2 {w 2 div} def /w3 {w 3 div} def 380 1017 459 1022 539 1032 618 1019 697 1023 777 1005 856 959 935 920 1015 927 1094 955 1174 973 1253 1043 1332 1195 13 { m20} R 6 lw 3 lw 1650 1195 1729 1102 1809 1028 1888 1050 4 { m20} R 6 lw black
 0.35 0.83 0.33 c
 gsave  2268 1328 0 0 C 2036.96 1113.92 t 0 r /Helvetica-Bold findfont 48.4311 sf 0 0 m (/dof=0.0) show NC gr  black 0.35 0.83 0.33 c
 gsave  2268 1328 0 0 C 2017.01 1131.01 t 0 r /Helvetica-Bold findfont 34.1867 sf 0 0 m (2) show NC gr  black 0.35 0.83 0.33 c
 gsave  2268 1328 0 0 C 1991.37 1113.92 t 0 r /Symbol findfont 48.4311 sf 0 0 m (c) show NC gr  black 3 lw 340 1014 m 1588 X s
 gsave  2268 1328 0 0 C 1783.41 1213.63 t 0 r /Helvetica-Bold findfont 42.7334 sf 0 0 m (2000 m) show NC gr  0.35 0.83 0.33 c /w 23 def /w2 {w 2 div} def /w3 {w 3 div} def 1743 1228 m21
 gr  gr showpage
end
%%EOF
