%!PS-Adobe-2.0 EPSF-2.0
%%BoundingBox:  0 0 567 332
%%Title: LBNENDX_nof_fits.eps: Fits
%%Creator: ROOT Version 5.30/06
%%CreationDate: Sun Feb  2 09:28:14 2014
%%EndComments
%%BeginProlog
80 dict begin
/s {stroke} def /l {lineto} def /m {moveto} def /t {translate} def
/r {rotate} def /rl {roll}  def /R {repeat} def
/d {rlineto} def /rm {rmoveto} def /gr {grestore} def /f {eofill} def
/c {setrgbcolor} def /black {0 setgray} def /sd {setdash} def
/cl {closepath} def /sf {scalefont setfont} def /lw {setlinewidth} def
/box {m dup 0 exch d exch 0 d 0 exch neg d cl} def
/NC{systemdict begin initclip end}def/C{NC box clip newpath}def
/bl {box s} def /bf {box f} def /Y { 0 exch d} def /X { 0 d} def 
/K {{pop pop 0 moveto} exch kshow} bind def
/ita {/ang 15 def gsave [1 0 ang dup sin exch cos div 1 0 0] concat} def 
/mp {newpath /y exch def /x exch def} def
/side {[w .77 mul w .23 mul] .385 w mul sd w 0 l currentpoint t -144 r} def
/mr {mp x y w2 0 360 arc} def /m24 {mr s} def /m20 {mr f} def
/mb {mp x y w2 add m w2 neg 0 d 0 w neg d w 0 d 0 w d cl} def
/mt {mp x y w2 add m w2 neg w neg d w 0 d cl} def
/m21 {mb f} def /m25 {mb s} def /m22 {mt f} def /m26{mt s} def
/m23 {mp x y w2 sub m w2 w d w neg 0 d cl f} def
/m27 {mp x y w2 add m w3 neg w2 neg d w3 w2 neg d w3 w2 d cl s} def
/m28 {mp x w2 sub y w2 sub w3 add m w3 0 d  0 w3 neg d w3 0 d 0 w3 d w3 0 d  0 w3 d w3 neg 0 d 0 w3 d w3 neg 0 d 0 w3 neg d w3 neg 0 d cl s } def
/m29 {mp gsave x w2 sub y w2 add w3 sub m currentpoint t 4 {side} repeat cl fill gr} def
/m30 {mp gsave x w2 sub y w2 add w3 sub m currentpoint t 4 {side} repeat cl s gr} def
/m31 {mp x y w2 sub m 0 w d x w2 sub y m w 0 d x w2 sub y w2 add m w w neg d x w2 sub y w2 sub m w w d s} def
/m32 {mp x y w2 sub m w2 w d w neg 0 d cl s} def
/m33 {mp x y w2 add m w3 neg w2 neg d w3 w2 neg d w3 w2 d cl f} def
/m34 {mp x w2 sub y w2 sub w3 add m w3 0 d  0 w3 neg d w3 0 d 0 w3 d w3 0 d  0 w3 d w3 neg 0 d 0 w3 d w3 neg 0 d 0 w3 neg d w3 neg 0 d cl f } def
/m2 {mp x y w2 sub m 0 w d x w2 sub y m w 0 d s} def
/m5 {mp x w2 sub y w2 sub m w w d x w2 sub y w2 add m w w neg d s} def
/reEncode {exch findfont dup length dict begin {1 index /FID eq  {pop pop} {def} ifelse } forall /Encoding exch def currentdict end dup /FontName get exch definefont pop } def [/Times-Bold /Times-Italic /Times-BoldItalic /Helvetica /Helvetica-Oblique
 /Helvetica-Bold /Helvetica-BoldOblique /Courier /Courier-Oblique /Courier-Bold /Courier-BoldOblique /Times-Roman /AvantGarde-Book /AvantGarde-BookOblique /AvantGarde-Demi /AvantGarde-DemiOblique /Bookman-Demi /Bookman-DemiItalic /Bookman-Light
 /Bookman-LightItalic /Helvetica-Narrow /Helvetica-Narrow-Bold /Helvetica-Narrow-BoldOblique /Helvetica-Narrow-Oblique /NewCenturySchlbk-Roman /NewCenturySchlbk-Bold /NewCenturySchlbk-BoldItalic /NewCenturySchlbk-Italic /Palatino-Bold
 /Palatino-BoldItalic /Palatino-Italic /Palatino-Roman ] {ISOLatin1Encoding reEncode } forall%%EndProlog
%%BeginSetup
%%EndSetup
newpath  gsave  .25 .25 scale  gsave  0 0 t black[  ] 0 sd 3 lw 1 1 1 c 2268 1328 0 0 bf black 1 1 1 c 408 305 23 1009 bf black 1 1 1 c black 306 229 84 1055 bl 306 229 84 1055 bl 84 1055 m 306 X s 84 1059 m -4 Y s 198 1059 m -4 Y s 311 1059 m -4 Y s
 311 1059 m -4 Y s
 gsave  408 305 23 1009 C 74.0711 1034.15 t 0 r /Helvetica findfont 22.8295 sf 0 0 m (0) show NC gr 
 gsave  408 305 23 1009 C 176.631 1034.15 t 0 r /Helvetica findfont 22.8295 sf 0 0 m (200) show NC gr 
 gsave  408 305 23 1009 C 290.587 1034.15 t 0 r /Helvetica findfont 22.8295 sf 0 0 m (400) show NC gr  84 1284 m 306 X s 84 1280 m 4 Y s 198 1280 m 4 Y s 311 1280 m 4 Y s 311 1280 m 4 Y s 84 1055 m 229 Y s 89 1070 m -5 X s 87 1078 m -3 X s 87 1086 m
 -3 X s 87 1094 m -3 X s 87 1102 m -3 X s 89 1110 m -5 X s 87 1118 m -3 X s 87 1126 m -3 X s 87 1134 m -3 X s 87 1141 m -3 X s 89 1149 m -5 X s 87 1157 m -3 X s 87 1165 m -3 X s 87 1173 m -3 X s 87 1181 m -3 X s 89 1189 m -5 X s 87 1197 m -3 X s 87
 1205 m -3 X s 87 1213 m -3 X s 87 1221 m -3 X s 89 1229 m -5 X s 87 1237 m -3 X s 87 1245 m -3 X s 87 1253 m -3 X s 87 1260 m -3 X s 89 1268 m -5 X s 89 1070 m -5 X s 87 1062 m -3 X s 89 1268 m -5 X s 87 1276 m -3 X s
 gsave  408 305 23 1009 C 14.2445 1062.64 t 0 r /Helvetica findfont 22.8295 sf 0 0 m (\2550.003) show NC gr 
 gsave  408 305 23 1009 C 2.84889 1102.52 t 0 r /Helvetica findfont 22.8295 sf 0 0 m (\2550.0025) show NC gr 
 gsave  408 305 23 1009 C 14.2445 1142.4 t 0 r /Helvetica findfont 22.8295 sf 0 0 m (\2550.002) show NC gr 
 gsave  408 305 23 1009 C 2.84889 1182.29 t 0 r /Helvetica findfont 22.8295 sf 0 0 m (\2550.0015) show NC gr 
 gsave  408 305 23 1009 C 17.0933 1222.17 t 0 r /Helvetica findfont 22.8295 sf 0 0 m (\2550.001) show NC gr 
 gsave  408 305 23 1009 C 2.84889 1262.06 t 0 r /Helvetica findfont 22.8295 sf 0 0 m (\2550.0005) show NC gr  390 1055 m 229 Y s 385 1070 m 5 X s 387 1078 m 3 X s 387 1086 m 3 X s 387 1094 m 3 X s 387 1102 m 3 X s 385 1110 m 5 X s 387 1118 m 3 X s
 387 1126 m 3 X s 387 1134 m 3 X s 387 1141 m 3 X s 385 1149 m 5 X s 387 1157 m 3 X s 387 1165 m 3 X s 387 1173 m 3 X s 387 1181 m 3 X s 385 1189 m 5 X s 387 1197 m 3 X s 387 1205 m 3 X s 387 1213 m 3 X s 387 1221 m 3 X s 385 1229 m 5 X s 387 1237 m
 3 X s 387 1245 m 3 X s 387 1253 m 3 X s 387 1260 m 3 X s 385 1268 m 5 X s 385 1070 m 5 X s 387 1062 m 3 X s 385 1268 m 5 X s 387 1276 m 3 X s /w 22 def /w2 {w 2 div} def /w3 {w 3 div} def 229 1162 374 1176 2 { m21} R 229 1173 m 77 Y s 223 1250 m 12
 X s 229 1151 m -77 Y s 223 1074 m 12 X s 374 1188 m 77 Y s 368 1265 m 12 X s 374 1165 m -77 Y s 368 1088 m 12 X s 9 lw 0.95 0.95 0.95 c black 125 1284 m 3 -1 d 3 -2 d 3 -1 d 3 -2 d 4 -2 d 3 -2 d 3 -1 d 3 -2 d 3 -2 d 3 -2 d 3 -1 d 3 -2 d 3 -2 d 3 -1
 d 3 -2 d 3 -2 d 3 -2 d 3 -1 d 3 -2 d 3 -2 d 4 -2 d 3 -1 d 3 -2 d 3 -2 d 3 -1 d 3 -2 d 3 -2 d 3 -2 d 3 -1 d 3 -2 d 3 -2 d 3 -2 d 3 -1 d 3 -2 d 3 -2 d 3 -1 d 4 -2 d 3 -2 d 3 -2 d 3 -1 d 3 -2 d 3 -2 d 3 -2 d 3 -1 d 3 -2 d 3 -2 d 3 -1 d 3 -2 d 3 -2 d s
 275 1200 m 3 -2 d 3 -1 d 3 -2 d 3 -2 d 4 -2 d 3 -1 d 3 -2 d 3 -2 d 3 -1 d 3 -2 d 3 -2 d 3 -2 d 3 -1 d 3 -2 d 3 -2 d 3 -2 d 3 -1 d 3 -2 d 3 -2 d 3 -1 d 4 -2 d 3 -2 d 3 -2 d 3 -1 d 3 -2 d 3 -2 d 3 -2 d 3 -1 d 3 -2 d 3 -2 d 3 -1 d 3 -2 d 3 -2 d 3 -2 d
 3 -1 d 3 -2 d 4 -2 d s 0.49 0.6 0.82 c black 0.49 0.6 0.82 c
 gsave  408 305 23 1009 C 142.445 1293.4 t 0 r /Helvetica-Bold findfont 25.6831 sf 0 0 m (0.0 < E < 0.5 GeV) show NC gr  0.52 0.76 0.64 c black 0.52 0.76 0.64 c
 gsave  408 305 23 1009 C 122.502 1256.36 t 0 r /Helvetica-Bold findfont 25.6831 sf 0 0 m 
 228 214 200 193 178 171 156 149 134 126 119 105 91 77 69 55 47 39 25 17
(A = \2550.000, p = 1.000) K NC gr  1 0.6 1 c black 1 0.6 1 c
 gsave  408 305 23 1009 C 427.334 1122.46 t 90 r /Helvetica-Bold findfont 28.5368 sf 0 0 m (/dof=0.7) show NC gr  black 1 0.6 1 c
 gsave  408 305 23 1009 C 415.938 1111.07 t 90 r /Helvetica-Bold findfont 19.9758 sf 0 0 m (2) show NC gr  black 1 0.6 1 c
 gsave  408 305 23 1009 C 427.334 1093.97 t 90 r /Symbol findfont 28.5368 sf 0 0 m (c) show NC gr  black 3 lw 1 1 1 c 408 305 476 1009 bf black 1 1 1 c black 307 229 537 1055 bl 307 229 537 1055 bl 537 1055 m 307 X s 537 1059 m -4 Y s 651 1059 m -4 Y
 s 765 1059 m -4 Y s 765 1059 m -4 Y s
 gsave  408 305 476 1009 C 527.045 1034.15 t 0 r /Helvetica findfont 22.8295 sf 0 0 m (0) show NC gr 
 gsave  408 305 476 1009 C 629.605 1034.15 t 0 r /Helvetica findfont 22.8295 sf 0 0 m (200) show NC gr 
 gsave  408 305 476 1009 C 743.56 1034.15 t 0 r /Helvetica findfont 22.8295 sf 0 0 m (400) show NC gr  537 1284 m 307 X s 537 1280 m 4 Y s 651 1280 m 4 Y s 765 1280 m 4 Y s 765 1280 m 4 Y s 537 1055 m 229 Y s 543 1076 m -6 X s 540 1080 m -3 X s 540
 1085 m -3 X s 540 1089 m -3 X s 540 1094 m -3 X s 543 1099 m -6 X s 540 1103 m -3 X s 540 1108 m -3 X s 540 1113 m -3 X s 540 1117 m -3 X s 543 1122 m -6 X s 540 1126 m -3 X s 540 1131 m -3 X s 540 1136 m -3 X s 540 1140 m -3 X s 543 1145 m -6 X s
 540 1150 m -3 X s 540 1154 m -3 X s 540 1159 m -3 X s 540 1163 m -3 X s 543 1168 m -6 X s 540 1173 m -3 X s 540 1177 m -3 X s 540 1182 m -3 X s 540 1187 m -3 X s 543 1191 m -6 X s 540 1196 m -3 X s 540 1200 m -3 X s 540 1205 m -3 X s 540 1210 m -3 X
 s 543 1214 m -6 X s 540 1219 m -3 X s 540 1224 m -3 X s 540 1228 m -3 X s 540 1233 m -3 X s 543 1237 m -6 X s 540 1242 m -3 X s 540 1247 m -3 X s 540 1251 m -3 X s 540 1256 m -3 X s 543 1261 m -6 X s 540 1265 m -3 X s 540 1270 m -3 X s 540 1274 m -3
 X s 540 1279 m -3 X s 543 1284 m -6 X s 543 1076 m -6 X s 540 1071 m -3 X s 540 1066 m -3 X s 540 1062 m -3 X s 540 1057 m -3 X s 543 1284 m -6 X s
 gsave  408 305 476 1009 C 455.822 1068.33 t 0 r /Helvetica findfont 22.8295 sf 0 0 m (\2550.0015) show NC gr 
 gsave  408 305 476 1009 C 470.067 1091.12 t 0 r /Helvetica findfont 22.8295 sf 0 0 m (\2550.001) show NC gr 
 gsave  408 305 476 1009 C 455.822 1113.92 t 0 r /Helvetica findfont 22.8295 sf 0 0 m (\2550.0005) show NC gr 
 gsave  408 305 476 1009 C 518.498 1136.71 t 0 r /Helvetica findfont 22.8295 sf 0 0 m (0) show NC gr 
 gsave  408 305 476 1009 C 461.52 1162.35 t 0 r /Helvetica findfont 22.8295 sf 0 0 m (0.0005) show NC gr 
 gsave  408 305 476 1009 C 478.614 1185.14 t 0 r /Helvetica findfont 22.8295 sf 0 0 m (0.001) show NC gr 
 gsave  408 305 476 1009 C 461.52 1207.93 t 0 r /Helvetica findfont 22.8295 sf 0 0 m (0.0015) show NC gr 
 gsave  408 305 476 1009 C 475.765 1230.72 t 0 r /Helvetica findfont 22.8295 sf 0 0 m (0.002) show NC gr 
 gsave  408 305 476 1009 C 461.52 1253.51 t 0 r /Helvetica findfont 22.8295 sf 0 0 m (0.0025) show NC gr 
 gsave  408 305 476 1009 C 475.765 1276.3 t 0 r /Helvetica findfont 22.8295 sf 0 0 m (0.003) show NC gr  844 1055 m 229 Y s 838 1076 m 6 X s 841 1080 m 3 X s 841 1085 m 3 X s 841 1089 m 3 X s 841 1094 m 3 X s 838 1099 m 6 X s 841 1103 m 3 X s 841
 1108 m 3 X s 841 1113 m 3 X s 841 1117 m 3 X s 838 1122 m 6 X s 841 1126 m 3 X s 841 1131 m 3 X s 841 1136 m 3 X s 841 1140 m 3 X s 838 1145 m 6 X s 841 1150 m 3 X s 841 1154 m 3 X s 841 1159 m 3 X s 841 1163 m 3 X s 838 1168 m 6 X s 841 1173 m 3 X
 s 841 1177 m 3 X s 841 1182 m 3 X s 841 1187 m 3 X s 838 1191 m 6 X s 841 1196 m 3 X s 841 1200 m 3 X s 841 1205 m 3 X s 841 1210 m 3 X s 838 1214 m 6 X s 841 1219 m 3 X s 841 1224 m 3 X s 841 1228 m 3 X s 841 1233 m 3 X s 838 1237 m 6 X s 841 1242
 m 3 X s 841 1247 m 3 X s 841 1251 m 3 X s 841 1256 m 3 X s 838 1261 m 6 X s 841 1265 m 3 X s 841 1270 m 3 X s 841 1274 m 3 X s 841 1279 m 3 X s 838 1284 m 6 X s 838 1076 m 6 X s 841 1071 m 3 X s 841 1066 m 3 X s 841 1062 m 3 X s 841 1057 m 3 X s 838
 1284 m 6 X s /w 23 def /w2 {w 2 div} def /w3 {w 3 div} def 683 1136 828 1203 2 { m21} R 683 1147 m 51 Y s 677 1198 m 11 X s 683 1124 m -50 Y s 677 1074 m 11 X s 828 1214 m 51 Y s 822 1265 m 11 X s 828 1191 m -50 Y s 822 1141 m 11 X s 1 0 0 c 9 lw
 0.95 0.95 0.95 c black 1 0 0 c 539 1145 m 28 X 3 1 d 15 X 3 1 d 12 X 3 1 d 9 X 4 1 d 6 X 3 1 d 6 X 3 1 d 6 X 3 1 d 3 X 3 1 d 3 X 3 1 d 6 X 3 1 d 4 X 3 1 d 3 X 3 1 d 3 X 3 1 d 3 1 d 3 X s 689 1159 m 3 1 d 3 X 3 1 d 3 1 d 3 X 3 1 d 3 X 3 1 d 4 1 d 3 X
 3 1 d 3 1 d 3 1 d 3 X 3 1 d 3 1 d 3 1 d 3 X 3 1 d 3 1 d 3 1 d 3 1 d 3 X 3 1 d 4 1 d 3 1 d 3 1 d 3 1 d 3 1 d 3 1 d 3 1 d 3 X 3 1 d 3 1 d 3 1 d 3 1 d 3 1 d 3 1 d 3 1 d 3 1 d 4 1 d 3 2 d 3 1 d 3 1 d 3 1 d 3 1 d 3 1 d 3 1 d 3 1 d s 839 1201 m 3 1 d s
 0.49 0.6 0.82 c black 0.49 0.6 0.82 c
 gsave  408 305 476 1009 C 595.418 1293.4 t 0 r /Helvetica-Bold findfont 25.6831 sf 0 0 m (0.5 < E < 1.0 GeV) show NC gr  0.52 0.76 0.64 c black 0.52 0.76 0.64 c
 gsave  408 305 476 1009 C 581.174 1256.36 t 0 r /Helvetica-Bold findfont 25.6831 sf 0 0 m 
 220 206 192 185 170 163 148 141 125 118 111 97 83 68 61 47 40 25 18
(A = 0.000, p = 2.000) K NC gr  1 0.6 1 c black 1 0.6 1 c
 gsave  408 305 476 1009 C 883.156 1122.46 t 90 r /Helvetica-Bold findfont 28.5368 sf 0 0 m (/dof=0.1) show NC gr  black 1 0.6 1 c
 gsave  408 305 476 1009 C 871.76 1111.07 t 90 r /Helvetica-Bold findfont 19.9758 sf 0 0 m (2) show NC gr  black 1 0.6 1 c
 gsave  408 305 476 1009 C 883.156 1093.97 t 90 r /Symbol findfont 28.5368 sf 0 0 m (c) show NC gr  black 3 lw 1 1 1 c 408 305 930 1009 bf black 1 1 1 c black 306 229 991 1055 bl 306 229 991 1055 bl 991 1055 m 306 X s 991 1059 m -4 Y s 1105 1059 m -4
 Y s 1219 1059 m -4 Y s 1219 1059 m -4 Y s
 gsave  408 305 930 1009 C 980.018 1034.15 t 0 r /Helvetica findfont 22.8295 sf 0 0 m (0) show NC gr 
 gsave  408 305 930 1009 C 1082.58 1034.15 t 0 r /Helvetica findfont 22.8295 sf 0 0 m (200) show NC gr 
 gsave  408 305 930 1009 C 1196.53 1034.15 t 0 r /Helvetica findfont 22.8295 sf 0 0 m (400) show NC gr  991 1284 m 306 X s 991 1280 m 4 Y s 1105 1280 m 4 Y s 1219 1280 m 4 Y s 1219 1280 m 4 Y s 991 1055 m 229 Y s 997 1085 m -6 X s 994 1091 m -3 X s
 994 1097 m -3 X s 994 1103 m -3 X s 994 1109 m -3 X s 997 1115 m -6 X s 994 1121 m -3 X s 994 1127 m -3 X s 994 1133 m -3 X s 994 1139 m -3 X s 997 1145 m -6 X s 994 1151 m -3 X s 994 1157 m -3 X s 994 1163 m -3 X s 994 1169 m -3 X s 997 1176 m -6 X
 s 994 1182 m -3 X s 994 1188 m -3 X s 994 1194 m -3 X s 994 1200 m -3 X s 997 1206 m -6 X s 994 1212 m -3 X s 994 1218 m -3 X s 994 1224 m -3 X s 994 1230 m -3 X s 997 1236 m -6 X s 994 1242 m -3 X s 994 1248 m -3 X s 994 1254 m -3 X s 994 1260 m -3
 X s 997 1266 m -6 X s 997 1085 m -6 X s 994 1079 m -3 X s 994 1072 m -3 X s 994 1066 m -3 X s 994 1060 m -3 X s 997 1266 m -6 X s 994 1273 m -3 X s 994 1279 m -3 X s
 gsave  408 305 930 1009 C 974.32 1076.88 t 0 r /Helvetica findfont 22.8295 sf 0 0 m (0) show NC gr 
 gsave  408 305 930 1009 C 934.436 1108.22 t 0 r /Helvetica findfont 22.8295 sf 0 0 m (0.001) show NC gr 
 gsave  408 305 930 1009 C 931.587 1136.71 t 0 r /Helvetica findfont 22.8295 sf 0 0 m (0.002) show NC gr 
 gsave  408 305 930 1009 C 931.587 1168.04 t 0 r /Helvetica findfont 22.8295 sf 0 0 m (0.003) show NC gr 
 gsave  408 305 930 1009 C 931.587 1199.38 t 0 r /Helvetica findfont 22.8295 sf 0 0 m (0.004) show NC gr 
 gsave  408 305 930 1009 C 931.587 1227.87 t 0 r /Helvetica findfont 22.8295 sf 0 0 m (0.005) show NC gr 
 gsave  408 305 930 1009 C 931.587 1259.21 t 0 r /Helvetica findfont 22.8295 sf 0 0 m (0.006) show NC gr  1297 1055 m 229 Y s 1292 1085 m 5 X s 1294 1091 m 3 X s 1294 1097 m 3 X s 1294 1103 m 3 X s 1294 1109 m 3 X s 1292 1115 m 5 X s 1294 1121 m 3 X
 s 1294 1127 m 3 X s 1294 1133 m 3 X s 1294 1139 m 3 X s 1292 1145 m 5 X s 1294 1151 m 3 X s 1294 1157 m 3 X s 1294 1163 m 3 X s 1294 1169 m 3 X s 1292 1176 m 5 X s 1294 1182 m 3 X s 1294 1188 m 3 X s 1294 1194 m 3 X s 1294 1200 m 3 X s 1292 1206 m 5
 X s 1294 1212 m 3 X s 1294 1218 m 3 X s 1294 1224 m 3 X s 1294 1230 m 3 X s 1292 1236 m 5 X s 1294 1242 m 3 X s 1294 1248 m 3 X s 1294 1254 m 3 X s 1294 1260 m 3 X s 1292 1266 m 5 X s 1292 1085 m 5 X s 1294 1079 m 3 X s 1294 1072 m 3 X s 1294 1066 m
 3 X s 1294 1060 m 3 X s 1292 1266 m 5 X s 1294 1273 m 3 X s 1294 1279 m 3 X s 1136 1114 1281 1224 2 { m21} R 1136 1126 m 29 Y s 1130 1155 m 12 X s 1136 1103 m -29 Y s 1130 1074 m 12 X s 1281 1236 m 29 Y s 1275 1265 m 12 X s 1281 1213 m -29 Y s 1275
 1184 m 12 X s 1 0 0 c 9 lw 0.95 0.95 0.95 c black 1 0 0 c 993 1085 m 21 X 3 1 d 6 X 3 1 d 6 X 3 1 d 3 X 4 1 d 3 X 3 1 d 3 X 3 1 d 3 1 d 3 X 3 1 d 3 1 d 3 1 d 3 X 3 1 d 3 1 d 3 1 d 3 1 d 3 1 d 3 1 d 4 1 d 3 1 d 3 1 d 3 1 d 3 1 d 3 1 d 3 2 d 3 1 d 3 1
 d 3 1 d 3 2 d 3 1 d 3 1 d 3 2 d 3 1 d 3 2 d 4 1 d s 1143 1122 m 3 2 d 3 1 d 3 2 d 3 2 d 3 1 d 3 2 d 3 2 d 3 2 d 3 1 d 3 2 d 3 2 d 3 2 d 3 2 d 3 2 d 3 2 d 4 2 d 3 2 d 3 2 d 3 2 d 3 2 d 3 2 d 3 2 d 3 3 d 3 2 d 3 2 d 3 2 d 3 3 d 3 2 d 3 2 d 3 3 d 3 2 d
 3 3 d 4 2 d 3 3 d 3 3 d 3 2 d 3 3 d 3 2 d 3 3 d 3 3 d 3 3 d 3 3 d 3 2 d 3 3 d 3 3 d 3 3 d 3 3 d 3 3 d 4 3 d s 1293 1234 m 3 3 d s 0.49 0.6 0.82 c black 0.49 0.6 0.82 c
 gsave  408 305 930 1009 C 1051.24 1293.4 t 0 r /Helvetica-Bold findfont 25.6831 sf 0 0 m (1.0 < E < 1.5 GeV) show NC gr  0.52 0.76 0.64 c black 0.52 0.76 0.64 c
 gsave  408 305 930 1009 C 1037 1256.36 t 0 r /Helvetica-Bold findfont 25.6831 sf 0 0 m 
 220 206 192 185 170 163 148 141 125 118 111 97 83 69 61 47 40 25 18
(A = 0.000, p = 2.000) K NC gr  1 0.6 1 c black 1 0.6 1 c
 gsave  408 305 930 1009 C 1336.13 1122.46 t 90 r /Helvetica-Bold findfont 28.5368 sf 0 0 m (/dof=0.0) show NC gr  black 1 0.6 1 c
 gsave  408 305 930 1009 C 1324.73 1111.07 t 90 r /Helvetica-Bold findfont 19.9758 sf 0 0 m (2) show NC gr  black 1 0.6 1 c
 gsave  408 305 930 1009 C 1336.13 1093.97 t 90 r /Symbol findfont 28.5368 sf 0 0 m (c) show NC gr  black 3 lw 1 1 1 c 408 305 1383 1009 bf black 1 1 1 c black 306 229 1445 1055 bl 306 229 1445 1055 bl 1445 1055 m 306 X s 1445 1059 m -4 Y s 1558 1059
 m -4 Y s 1672 1059 m -4 Y s 1672 1059 m -4 Y s
 gsave  408 305 1383 1009 C 1435.84 1034.15 t 0 r /Helvetica findfont 22.8295 sf 0 0 m (0) show NC gr 
 gsave  408 305 1383 1009 C 1535.55 1034.15 t 0 r /Helvetica findfont 22.8295 sf 0 0 m (200) show NC gr 
 gsave  408 305 1383 1009 C 1649.51 1034.15 t 0 r /Helvetica findfont 22.8295 sf 0 0 m (400) show NC gr  1445 1284 m 306 X s 1445 1280 m 4 Y s 1558 1280 m 4 Y s 1672 1280 m 4 Y s 1672 1280 m 4 Y s 1445 1055 m 229 Y s 1450 1083 m -5 X s 1447 1091 m -2
 X s 1447 1098 m -2 X s 1447 1105 m -2 X s 1447 1113 m -2 X s 1450 1120 m -5 X s 1447 1128 m -2 X s 1447 1135 m -2 X s 1447 1142 m -2 X s 1447 1150 m -2 X s 1450 1157 m -5 X s 1447 1165 m -2 X s 1447 1172 m -2 X s 1447 1179 m -2 X s 1447 1187 m -2 X
 s 1450 1194 m -5 X s 1447 1202 m -2 X s 1447 1209 m -2 X s 1447 1217 m -2 X s 1447 1224 m -2 X s 1450 1231 m -5 X s 1447 1239 m -2 X s 1447 1246 m -2 X s 1447 1254 m -2 X s 1447 1261 m -2 X s 1450 1268 m -5 X s 1450 1083 m -5 X s 1447 1076 m -2 X s
 1447 1068 m -2 X s 1447 1061 m -2 X s 1450 1268 m -5 X s 1447 1276 m -2 X s 1447 1283 m -2 X s
 gsave  408 305 1383 1009 C 1376.01 1076.88 t 0 r /Helvetica findfont 22.8295 sf 0 0 m (\2550.005) show NC gr 
 gsave  408 305 1383 1009 C 1376.01 1113.92 t 0 r /Helvetica findfont 22.8295 sf 0 0 m (\2550.004) show NC gr 
 gsave  408 305 1383 1009 C 1376.01 1150.95 t 0 r /Helvetica findfont 22.8295 sf 0 0 m (\2550.003) show NC gr 
 gsave  408 305 1383 1009 C 1376.01 1187.99 t 0 r /Helvetica findfont 22.8295 sf 0 0 m (\2550.002) show NC gr 
 gsave  408 305 1383 1009 C 1378.86 1225.02 t 0 r /Helvetica findfont 22.8295 sf 0 0 m (\2550.001) show NC gr 
 gsave  408 305 1383 1009 C 1427.29 1262.06 t 0 r /Helvetica findfont 22.8295 sf 0 0 m (0) show NC gr  1751 1055 m 229 Y s 1745 1083 m 6 X s 1748 1091 m 3 X s 1748 1098 m 3 X s 1748 1105 m 3 X s 1748 1113 m 3 X s 1745 1120 m 6 X s 1748 1128 m 3 X s
 1748 1135 m 3 X s 1748 1142 m 3 X s 1748 1150 m 3 X s 1745 1157 m 6 X s 1748 1165 m 3 X s 1748 1172 m 3 X s 1748 1179 m 3 X s 1748 1187 m 3 X s 1745 1194 m 6 X s 1748 1202 m 3 X s 1748 1209 m 3 X s 1748 1217 m 3 X s 1748 1224 m 3 X s 1745 1231 m 6 X
 s 1748 1239 m 3 X s 1748 1246 m 3 X s 1748 1254 m 3 X s 1748 1261 m 3 X s 1745 1268 m 6 X s 1745 1083 m 6 X s 1748 1076 m 3 X s 1748 1068 m 3 X s 1748 1061 m 3 X s 1745 1268 m 6 X s 1748 1276 m 3 X s 1748 1283 m 3 X s 1590 1215 1735 1124 2 { m21} R
 1590 1226 m 39 Y s 1584 1265 m 11 X s 1590 1203 m -39 Y s 1584 1164 m 11 X s 1735 1135 m 39 Y s 1729 1174 m 11 X s 1735 1112 m -38 Y s 1729 1074 m 11 X s 9 lw 0.95 0.95 0.95 c black 1446 1268 m 3 -2 d 3 -1 d 3 -2 d 3 -1 d 3 -2 d 3 -1 d 3 -1 d 4 -2 d
 3 -1 d 3 -2 d 3 -1 d 3 -2 d 3 -1 d 3 -2 d 3 -1 d 3 -1 d 3 -2 d 3 -1 d 3 -2 d 3 -1 d 3 -2 d 3 -1 d 3 -2 d 4 -1 d 3 -2 d 3 -1 d 3 -1 d 3 -2 d 3 -1 d 3 -2 d 3 -1 d 3 -2 d 3 -1 d 3 -2 d 3 -1 d 3 -1 d 3 -2 d 3 -1 d 3 -2 d 4 -1 d 3 -2 d 3 -1 d 3 -2 d 3 -1
 d 3 -1 d 3 -2 d 3 -1 d 3 -2 d 3 -1 d s 1596 1197 m 3 -2 d 3 -1 d 3 -2 d 3 -1 d 3 -1 d 3 -2 d 4 -1 d 3 -2 d 3 -1 d 3 -2 d 3 -1 d 3 -2 d 3 -1 d 3 -2 d 3 -1 d 3 -1 d 3 -2 d 3 -1 d 3 -2 d 3 -1 d 3 -2 d 3 -1 d 3 -2 d 4 -1 d 3 -1 d 3 -2 d 3 -1 d 3 -2 d 3
 -1 d 3 -2 d 3 -1 d 3 -2 d 3 -1 d 3 -1 d 3 -2 d 3 -1 d 3 -2 d 3 -1 d 3 -2 d 4 -1 d 3 -2 d 3 -1 d 3 -1 d 3 -2 d 3 -1 d 3 -2 d 3 -1 d 3 -2 d 3 -1 d s 1746 1126 m 3 -2 d s 0.49 0.6 0.82 c black 0.49 0.6 0.82 c
 gsave  408 305 1383 1009 C 1504.21 1293.4 t 0 r /Helvetica-Bold findfont 25.6831 sf 0 0 m (1.5 < E < 2.0 GeV) show NC gr  0.52 0.76 0.64 c black 0.52 0.76 0.64 c
 gsave  408 305 1383 1009 C 1484.27 1256.36 t 0 r /Helvetica-Bold findfont 25.6831 sf 0 0 m 
 228 214 200 193 178 171 156 149 134 126 119 105 91 77 69 55 47 40 25 17
(A = \2550.000, p = 1.000) K NC gr  1 0.6 1 c black 1 0.6 1 c
 gsave  408 305 1383 1009 C 1789.1 1122.46 t 90 r /Helvetica-Bold findfont 28.5368 sf 0 0 m (/dof=0.1) show NC gr  black 1 0.6 1 c
 gsave  408 305 1383 1009 C 1777.71 1111.07 t 90 r /Helvetica-Bold findfont 19.9758 sf 0 0 m (2) show NC gr  black 1 0.6 1 c
 gsave  408 305 1383 1009 C 1789.1 1093.97 t 90 r /Symbol findfont 28.5368 sf 0 0 m (c) show NC gr  black 3 lw 1 1 1 c 408 305 1837 1009 bf black 1 1 1 c black 306 229 1898 1055 bl 306 229 1898 1055 bl 1898 1055 m 306 X s 1898 1059 m -4 Y s 2012 1059
 m -4 Y s 2126 1059 m -4 Y s 2126 1059 m -4 Y s
 gsave  408 305 1837 1009 C 1888.81 1034.15 t 0 r /Helvetica findfont 22.8295 sf 0 0 m (0) show NC gr 
 gsave  408 305 1837 1009 C 1991.37 1034.15 t 0 r /Helvetica findfont 22.8295 sf 0 0 m (200) show NC gr 
 gsave  408 305 1837 1009 C 2105.33 1034.15 t 0 r /Helvetica findfont 22.8295 sf 0 0 m (400) show NC gr  1898 1284 m 306 X s 1898 1280 m 4 Y s 2012 1280 m 4 Y s 2126 1280 m 4 Y s 2126 1280 m 4 Y s 1898 1055 m 229 Y s 1904 1067 m -6 X s 1901 1072 m -3
 X s 1901 1078 m -3 X s 1901 1083 m -3 X s 1901 1088 m -3 X s 1904 1093 m -6 X s 1901 1099 m -3 X s 1901 1104 m -3 X s 1901 1109 m -3 X s 1901 1115 m -3 X s 1904 1120 m -6 X s 1901 1125 m -3 X s 1901 1130 m -3 X s 1901 1136 m -3 X s 1901 1141 m -3 X
 s 1904 1146 m -6 X s 1901 1152 m -3 X s 1901 1157 m -3 X s 1901 1162 m -3 X s 1901 1167 m -3 X s 1904 1173 m -6 X s 1901 1178 m -3 X s 1901 1183 m -3 X s 1901 1189 m -3 X s 1901 1194 m -3 X s 1904 1199 m -6 X s 1901 1204 m -3 X s 1901 1210 m -3 X s
 1901 1215 m -3 X s 1901 1220 m -3 X s 1904 1225 m -6 X s 1901 1231 m -3 X s 1901 1236 m -3 X s 1901 1241 m -3 X s 1901 1247 m -3 X s 1904 1252 m -6 X s 1901 1257 m -3 X s 1901 1262 m -3 X s 1901 1268 m -3 X s 1901 1273 m -3 X s 1904 1278 m -6 X s
 1904 1067 m -6 X s 1901 1062 m -3 X s 1901 1056 m -3 X s 1904 1278 m -6 X s 1901 1284 m -3 X s
 gsave  408 305 1837 1009 C 1828.99 1059.79 t 0 r /Helvetica findfont 22.8295 sf 0 0 m (\2550.003) show NC gr 
 gsave  408 305 1837 1009 C 1817.59 1085.43 t 0 r /Helvetica findfont 22.8295 sf 0 0 m (\2550.0025) show NC gr 
 gsave  408 305 1837 1009 C 1828.99 1113.92 t 0 r /Helvetica findfont 22.8295 sf 0 0 m (\2550.002) show NC gr 
 gsave  408 305 1837 1009 C 1817.59 1139.56 t 0 r /Helvetica findfont 22.8295 sf 0 0 m (\2550.0015) show NC gr 
 gsave  408 305 1837 1009 C 1831.84 1165.2 t 0 r /Helvetica findfont 22.8295 sf 0 0 m (\2550.001) show NC gr 
 gsave  408 305 1837 1009 C 1817.59 1190.84 t 0 r /Helvetica findfont 22.8295 sf 0 0 m (\2550.0005) show NC gr 
 gsave  408 305 1837 1009 C 1880.27 1219.32 t 0 r /Helvetica findfont 22.8295 sf 0 0 m (0) show NC gr 
 gsave  408 305 1837 1009 C 1823.29 1244.96 t 0 r /Helvetica findfont 22.8295 sf 0 0 m (0.0005) show NC gr 
 gsave  408 305 1837 1009 C 1840.38 1270.6 t 0 r /Helvetica findfont 22.8295 sf 0 0 m (0.001) show NC gr  2204 1055 m 229 Y s 2199 1067 m 5 X s 2201 1072 m 3 X s 2201 1078 m 3 X s 2201 1083 m 3 X s 2201 1088 m 3 X s 2199 1093 m 5 X s 2201 1099 m 3 X
 s 2201 1104 m 3 X s 2201 1109 m 3 X s 2201 1115 m 3 X s 2199 1120 m 5 X s 2201 1125 m 3 X s 2201 1130 m 3 X s 2201 1136 m 3 X s 2201 1141 m 3 X s 2199 1146 m 5 X s 2201 1152 m 3 X s 2201 1157 m 3 X s 2201 1162 m 3 X s 2201 1167 m 3 X s 2199 1173 m 5
 X s 2201 1178 m 3 X s 2201 1183 m 3 X s 2201 1189 m 3 X s 2201 1194 m 3 X s 2199 1199 m 5 X s 2201 1204 m 3 X s 2201 1210 m 3 X s 2201 1215 m 3 X s 2201 1220 m 3 X s 2199 1225 m 5 X s 2201 1231 m 3 X s 2201 1236 m 3 X s 2201 1241 m 3 X s 2201 1247 m
 3 X s 2199 1252 m 5 X s 2201 1257 m 3 X s 2201 1262 m 3 X s 2201 1268 m 3 X s 2201 1273 m 3 X s 2199 1278 m 5 X s 2199 1067 m 5 X s 2201 1062 m 3 X s 2201 1056 m 3 X s 2199 1278 m 5 X s 2201 1284 m 3 X s 2043 1189 2188 1149 2 { m21} R 2043 1201 m 64
 Y s 2037 1265 m 12 X s 2043 1178 m -64 Y s 2037 1114 m 12 X s 2188 1161 m 64 Y s 2183 1225 m 11 X s 2188 1138 m -64 Y s 2183 1074 m 11 X s 9 lw 0.95 0.95 0.95 c black 1900 1225 m 3 -1 d 3 -1 d 3 X 3 -1 d 3 -1 d 3 -1 d 3 X 3 -1 d 3 -1 d 3 -1 d 3 -1 d
 3 X 3 -1 d 3 -1 d 4 -1 d 3 -1 d 3 X 3 -1 d 3 -1 d 3 -1 d 3 -1 d 3 X 3 -1 d 3 -1 d 3 -1 d 3 -1 d 3 X 3 -1 d 3 -1 d 3 -1 d 4 -1 d 3 X 3 -1 d 3 -1 d 3 -1 d 3 -1 d 3 X 3 -1 d 3 -1 d 3 -1 d 3 -1 d 3 X 3 -1 d 3 -1 d 3 -1 d 3 -1 d 3 X 4 -1 d 3 -1 d s 2050
 1186 m 3 -1 d 3 -1 d 3 X 3 -1 d 3 -1 d 3 -1 d 3 -1 d 3 X 3 -1 d 3 -1 d 3 -1 d 3 X 3 -1 d 3 -1 d 4 -1 d 3 -1 d 3 X 3 -1 d 3 -1 d 3 -1 d 3 -1 d 3 X 3 -1 d 3 -1 d 3 -1 d 3 -1 d 3 X 3 -1 d 3 -1 d 3 -1 d 4 -1 d 3 X 3 -1 d 3 -1 d 3 -1 d 3 -1 d 3 X 3 -1 d
 3 -1 d 3 -1 d 3 -1 d 3 X 3 -1 d 3 -1 d 3 -1 d 3 -1 d 4 X 3 -1 d 3 -1 d s 2200 1147 m 3 -1 d s 0.49 0.6 0.82 c black 0.49 0.6 0.82 c
 gsave  408 305 1837 1009 C 1957.19 1293.4 t 0 r /Helvetica-Bold findfont 25.6831 sf 0 0 m (2.0 < E < 2.5 GeV) show NC gr  0.52 0.76 0.64 c black 0.52 0.76 0.64 c
 gsave  408 305 1837 1009 C 1937.25 1256.36 t 0 r /Helvetica-Bold findfont 25.6831 sf 0 0 m 
 228 214 200 193 178 171 156 149 133 126 119 105 91 77 69 55 47 39 25 17
(A = \2550.000, p = 1.000) K NC gr  1 0.6 1 c black 1 0.6 1 c
 gsave  408 305 1837 1009 C 2242.08 1122.46 t 90 r /Helvetica-Bold findfont 28.5368 sf 0 0 m (/dof=0.0) show NC gr  black 1 0.6 1 c
 gsave  408 305 1837 1009 C 2230.68 1111.07 t 90 r /Helvetica-Bold findfont 19.9758 sf 0 0 m (2) show NC gr  black 1 0.6 1 c
 gsave  408 305 1837 1009 C 2242.08 1093.97 t 90 r /Symbol findfont 28.5368 sf 0 0 m (c) show NC gr  black 3 lw 1 1 1 c 408 305 23 677 bf black 1 1 1 c black 306 229 84 723 bl 306 229 84 723 bl 84 723 m 306 X s 84 727 m -4 Y s 198 727 m -4 Y s 311
 727 m -4 Y s 311 727 m -4 Y s
 gsave  408 305 23 677 C 74.0711 703.676 t 0 r /Helvetica findfont 22.8295 sf 0 0 m (0) show NC gr 
 gsave  408 305 23 677 C 176.631 703.676 t 0 r /Helvetica findfont 22.8295 sf 0 0 m (200) show NC gr 
 gsave  408 305 23 677 C 290.587 703.676 t 0 r /Helvetica findfont 22.8295 sf 0 0 m (400) show NC gr  84 952 m 306 X s 84 948 m 4 Y s 198 948 m 4 Y s 311 948 m 4 Y s 311 948 m 4 Y s 84 723 m 229 Y s 89 730 m -5 X s 87 741 m -3 X s 87 753 m -3 X s 87
 764 m -3 X s 89 775 m -5 X s 87 787 m -3 X s 87 798 m -3 X s 87 809 m -3 X s 89 821 m -5 X s 87 832 m -3 X s 87 843 m -3 X s 87 855 m -3 X s 89 866 m -5 X s 87 877 m -3 X s 87 889 m -3 X s 87 900 m -3 X s 89 912 m -5 X s 89 730 m -5 X s 89 912 m -5
 X s 87 923 m -3 X s 87 934 m -3 X s 87 946 m -3 X s
 gsave  408 305 23 677 C 31.3378 723.618 t 0 r /Helvetica findfont 22.8295 sf 0 0 m (\2550.01) show NC gr 
 gsave  408 305 23 677 C 14.2445 769.2 t 0 r /Helvetica findfont 22.8295 sf 0 0 m (\2550.008) show NC gr 
 gsave  408 305 23 677 C 14.2445 814.783 t 0 r /Helvetica findfont 22.8295 sf 0 0 m (\2550.006) show NC gr 
 gsave  408 305 23 677 C 14.2445 860.365 t 0 r /Helvetica findfont 22.8295 sf 0 0 m (\2550.004) show NC gr 
 gsave  408 305 23 677 C 14.2445 903.098 t 0 r /Helvetica findfont 22.8295 sf 0 0 m (\2550.002) show NC gr  390 723 m 229 Y s 385 730 m 5 X s 387 741 m 3 X s 387 753 m 3 X s 387 764 m 3 X s 385 775 m 5 X s 387 787 m 3 X s 387 798 m 3 X s 387 809 m 3
 X s 385 821 m 5 X s 387 832 m 3 X s 387 843 m 3 X s 387 855 m 3 X s 385 866 m 5 X s 387 877 m 3 X s 387 889 m 3 X s 387 900 m 3 X s 385 912 m 5 X s 385 730 m 5 X s 385 912 m 5 X s 387 923 m 3 X s 387 934 m 3 X s 387 946 m 3 X s /w 22 def /w2 {w 2
 div} def /w3 {w 3 div} def 229 898 374 777 2 { m21} R 229 909 m 24 Y s 223 933 m 12 X s 229 886 m -23 Y s 223 863 m 12 X s 374 788 m 24 Y s 368 812 m 12 X s 374 766 m -24 Y s 368 742 m 12 X s 1 0 0 c 9 lw 0.95 0.95 0.95 c black 1 0 0 c 131 952 m 3
 -1 d 3 X 4 -1 d 3 -1 d 3 -1 d 3 -1 d 3 X 3 -1 d 3 -1 d 3 -1 d 3 -1 d 3 -2 d 3 -1 d 3 -1 d 3 -1 d 3 -1 d 3 -2 d 3 -1 d 4 -1 d 3 -2 d 3 -1 d 3 -2 d 3 -1 d 3 -2 d 3 -2 d 3 -1 d 3 -2 d 3 -2 d 3 -2 d 3 -1 d 3 -2 d 3 -2 d 3 -2 d 3 -2 d 4 -2 d 3 -2 d 3 -2
 d 3 -3 d 3 -2 d 3 -2 d 3 -2 d 3 -3 d 3 -2 d 3 -2 d 3 -3 d 3 -2 d 3 -3 d 3 -2 d 3 -3 d s 281 872 m 3 -3 d 3 -2 d 4 -3 d 3 -3 d 3 -3 d 3 -3 d 3 -2 d 3 -3 d 3 -3 d 3 -3 d 3 -3 d 3 -4 d 3 -3 d 3 -3 d 3 -3 d 3 -3 d 3 -4 d 3 -3 d 4 -3 d 3 -4 d 3 -3 d 3 -4
 d 3 -3 d 3 -4 d 3 -4 d 3 -3 d 3 -4 d 3 -4 d 3 -3 d 3 -4 d 3 -4 d 3 -4 d 3 -4 d 3 -4 d 4 -4 d s 0.49 0.6 0.82 c black 0.49 0.6 0.82 c
 gsave  408 305 23 677 C 142.445 960.076 t 0 r /Helvetica-Bold findfont 25.6831 sf 0 0 m (2.5 < E < 3.0 GeV) show NC gr  0.52 0.76 0.64 c black 0.52 0.76 0.64 c
 gsave  408 305 23 677 C 122.502 923.04 t 0 r /Helvetica-Bold findfont 25.6831 sf 0 0 m 
 228 214 200 193 178 171 156 149 134 126 119 105 91 77 69 55 47 39 25 17
(A = \2550.000, p = 2.000) K NC gr  1 0.6 1 c black 1 0.6 1 c
 gsave  408 305 23 677 C 427.334 791.991 t 90 r /Helvetica-Bold findfont 28.5368 sf 0 0 m (/dof=0.2) show NC gr  black 1 0.6 1 c
 gsave  408 305 23 677 C 415.938 780.596 t 90 r /Helvetica-Bold findfont 19.9758 sf 0 0 m (2) show NC gr  black 1 0.6 1 c
 gsave  408 305 23 677 C 427.334 763.503 t 90 r /Symbol findfont 28.5368 sf 0 0 m (c) show NC gr  black 3 lw 1 1 1 c 408 305 476 677 bf black 1 1 1 c black 307 229 537 723 bl 307 229 537 723 bl 537 723 m 307 X s 537 727 m -4 Y s 651 727 m -4 Y s 765
 727 m -4 Y s 765 727 m -4 Y s
 gsave  408 305 476 677 C 527.045 703.676 t 0 r /Helvetica findfont 22.8295 sf 0 0 m (0) show NC gr 
 gsave  408 305 476 677 C 629.605 703.676 t 0 r /Helvetica findfont 22.8295 sf 0 0 m (200) show NC gr 
 gsave  408 305 476 677 C 743.56 703.676 t 0 r /Helvetica findfont 22.8295 sf 0 0 m (400) show NC gr  537 952 m 307 X s 537 948 m 4 Y s 651 948 m 4 Y s 765 948 m 4 Y s 765 948 m 4 Y s 537 723 m 229 Y s 543 737 m -6 X s 540 747 m -3 X s 540 758 m -3 X
 s 540 768 m -3 X s 540 779 m -3 X s 543 790 m -6 X s 540 800 m -3 X s 540 811 m -3 X s 540 821 m -3 X s 540 832 m -3 X s 543 843 m -6 X s 540 853 m -3 X s 540 864 m -3 X s 540 874 m -3 X s 540 885 m -3 X s 543 896 m -6 X s 540 906 m -3 X s 540 917 m
 -3 X s 540 927 m -3 X s 540 938 m -3 X s 543 949 m -6 X s 543 737 m -6 X s 540 726 m -3 X s 543 949 m -6 X s
 gsave  408 305 476 677 C 481.462 729.316 t 0 r /Helvetica findfont 22.8295 sf 0 0 m (\2550.02) show NC gr 
 gsave  408 305 476 677 C 467.218 783.445 t 0 r /Helvetica findfont 22.8295 sf 0 0 m (\2550.015) show NC gr 
 gsave  408 305 476 677 C 484.311 834.725 t 0 r /Helvetica findfont 22.8295 sf 0 0 m (\2550.01) show NC gr 
 gsave  408 305 476 677 C 467.218 888.854 t 0 r /Helvetica findfont 22.8295 sf 0 0 m (\2550.005) show NC gr 
 gsave  408 305 476 677 C 518.498 940.134 t 0 r /Helvetica findfont 22.8295 sf 0 0 m (0) show NC gr  844 723 m 229 Y s 838 737 m 6 X s 841 747 m 3 X s 841 758 m 3 X s 841 768 m 3 X s 841 779 m 3 X s 838 790 m 6 X s 841 800 m 3 X s 841 811 m 3 X s 841
 821 m 3 X s 841 832 m 3 X s 838 843 m 6 X s 841 853 m 3 X s 841 864 m 3 X s 841 874 m 3 X s 841 885 m 3 X s 838 896 m 6 X s 841 906 m 3 X s 841 917 m 3 X s 841 927 m 3 X s 841 938 m 3 X s 838 949 m 6 X s 838 737 m 6 X s 841 726 m 3 X s 838 949 m 6 X
 s /w 23 def /w2 {w 2 div} def /w3 {w 3 div} def 683 914 828 760 2 { m21} R 683 926 m 7 Y s 677 933 m 11 X s 683 903 m -7 Y s 677 896 m 11 X s 828 772 m 7 Y s 822 779 m 11 X s 828 749 m -7 Y s 822 742 m 11 X s 1 0 0 c 9 lw 0.95 0.95 0.95 c black 1 0
 0 c 539 949 m 3 -1 d 15 X 3 -1 d 7 X 3 -1 d 3 X 3 -1 d 3 X 3 -1 d 3 X 3 -1 d 3 -1 d 3 -1 d 3 X 3 -1 d 3 -1 d 3 -1 d 3 -1 d 3 -1 d 4 -1 d 3 -1 d 3 -1 d 3 -1 d 3 -1 d 3 -2 d 3 -1 d 3 -1 d 3 -2 d 3 -1 d 3 -1 d 3 -2 d 3 -1 d 3 -2 d 3 -2 d 3 -1 d 3 -2 d
 4 -2 d 3 -1 d 3 -2 d 3 -2 d 3 -2 d 3 -2 d 3 -2 d 3 -2 d s 689 898 m 3 -2 d 3 -2 d 3 -2 d 3 -3 d 3 -2 d 3 -2 d 3 -2 d 3 -3 d 4 -2 d 3 -2 d 3 -3 d 3 -2 d 3 -3 d 3 -3 d 3 -2 d 3 -3 d 3 -3 d 3 -2 d 3 -3 d 3 -3 d 3 -3 d 3 -3 d 3 -3 d 3 -3 d 4 -3 d 3 -3 d
 3 -3 d 3 -3 d 3 -4 d 3 -3 d 3 -3 d 3 -3 d 3 -4 d 3 -3 d 3 -4 d 3 -3 d 3 -4 d 3 -3 d 3 -4 d 3 -4 d 4 -3 d 3 -4 d 3 -4 d 3 -4 d 3 -4 d 3 -4 d 3 -4 d 3 -4 d 3 -4 d s 839 748 m 3 -4 d s 0.49 0.6 0.82 c black 0.49 0.6 0.82 c
 gsave  408 305 476 677 C 595.418 960.076 t 0 r /Helvetica-Bold findfont 25.6831 sf 0 0 m (3.0 < E < 3.5 GeV) show NC gr  0.52 0.76 0.64 c black 0.52 0.76 0.64 c
 gsave  408 305 476 677 C 575.476 923.04 t 0 r /Helvetica-Bold findfont 25.6831 sf 0 0 m 
 228 214 200 193 178 171 156 149 133 126 119 105 91 76 69 55 47 39 25 17
(A = \2550.000, p = 2.000) K NC gr  1 0.6 1 c black 1 0.6 1 c
 gsave  408 305 476 677 C 883.156 791.991 t 90 r /Helvetica-Bold findfont 28.5368 sf 0 0 m (/dof=0.4) show NC gr  black 1 0.6 1 c
 gsave  408 305 476 677 C 871.76 780.596 t 90 r /Helvetica-Bold findfont 19.9758 sf 0 0 m (2) show NC gr  black 1 0.6 1 c
 gsave  408 305 476 677 C 883.156 763.503 t 90 r /Symbol findfont 28.5368 sf 0 0 m (c) show NC gr  black 3 lw 1 1 1 c 408 305 930 677 bf black 1 1 1 c black 306 229 991 723 bl 306 229 991 723 bl 991 723 m 306 X s 991 727 m -4 Y s 1105 727 m -4 Y s
 1219 727 m -4 Y s 1219 727 m -4 Y s
 gsave  408 305 930 677 C 980.018 703.676 t 0 r /Helvetica findfont 22.8295 sf 0 0 m (0) show NC gr 
 gsave  408 305 930 677 C 1082.58 703.676 t 0 r /Helvetica findfont 22.8295 sf 0 0 m (200) show NC gr 
 gsave  408 305 930 677 C 1196.53 703.676 t 0 r /Helvetica findfont 22.8295 sf 0 0 m (400) show NC gr  991 952 m 306 X s 991 948 m 4 Y s 1105 948 m 4 Y s 1219 948 m 4 Y s 1219 948 m 4 Y s 991 723 m 229 Y s 997 725 m -6 X s 994 733 m -3 X s 994 741 m
 -3 X s 994 749 m -3 X s 994 758 m -3 X s 997 766 m -6 X s 994 774 m -3 X s 994 782 m -3 X s 994 790 m -3 X s 994 798 m -3 X s 997 807 m -6 X s 994 815 m -3 X s 994 823 m -3 X s 994 831 m -3 X s 994 839 m -3 X s 997 847 m -6 X s 994 856 m -3 X s 994
 864 m -3 X s 994 872 m -3 X s 994 880 m -3 X s 997 888 m -6 X s 994 896 m -3 X s 994 904 m -3 X s 994 913 m -3 X s 994 921 m -3 X s 997 929 m -6 X s 997 725 m -6 X s 997 929 m -6 X s 994 937 m -3 X s 994 945 m -3 X s
 gsave  408 305 930 677 C 937.285 717.92 t 0 r /Helvetica findfont 22.8295 sf 0 0 m (\2550.03) show NC gr 
 gsave  408 305 930 677 C 923.04 757.805 t 0 r /Helvetica findfont 22.8295 sf 0 0 m (\2550.025) show NC gr 
 gsave  408 305 930 677 C 937.285 800.538 t 0 r /Helvetica findfont 22.8295 sf 0 0 m (\2550.02) show NC gr 
 gsave  408 305 930 677 C 923.04 840.423 t 0 r /Helvetica findfont 22.8295 sf 0 0 m (\2550.015) show NC gr 
 gsave  408 305 930 677 C 940.134 880.307 t 0 r /Helvetica findfont 22.8295 sf 0 0 m (\2550.01) show NC gr 
 gsave  408 305 930 677 C 923.04 923.04 t 0 r /Helvetica findfont 22.8295 sf 0 0 m (\2550.005) show NC gr  1297 723 m 229 Y s 1292 725 m 5 X s 1294 733 m 3 X s 1294 741 m 3 X s 1294 749 m 3 X s 1294 758 m 3 X s 1292 766 m 5 X s 1294 774 m 3 X s 1294
 782 m 3 X s 1294 790 m 3 X s 1294 798 m 3 X s 1292 807 m 5 X s 1294 815 m 3 X s 1294 823 m 3 X s 1294 831 m 3 X s 1294 839 m 3 X s 1292 847 m 5 X s 1294 856 m 3 X s 1294 864 m 3 X s 1294 872 m 3 X s 1294 880 m 3 X s 1292 888 m 5 X s 1294 896 m 3 X s
 1294 904 m 3 X s 1294 913 m 3 X s 1294 921 m 3 X s 1292 929 m 5 X s 1292 725 m 5 X s 1292 929 m 5 X s 1294 937 m 3 X s 1294 945 m 3 X s 1136 915 1281 759 2 { m21} R 1136 927 m 6 Y s 1130 933 m 12 X s 1136 904 m -6 Y s 1130 898 m 12 X s 1281 771 m 5
 Y s 1275 776 m 12 X s 1281 748 m -6 Y s 1275 742 m 12 X s 1 0 0 c 9 lw 0.95 0.95 0.95 c black 1 0 0 c 1075 952 m 3 -1 d 3 -2 d 3 -1 d 3 -2 d 3 -1 d 4 -2 d 3 -1 d 3 -2 d 3 -1 d 3 -2 d 3 -2 d 3 -2 d 3 -2 d 3 -2 d 3 -2 d 3 -2 d 3 -2 d 3 -2 d 3 -2 d 3
 -2 d 3 -2 d 4 -3 d 3 -2 d 3 -3 d 3 -2 d 3 -2 d 3 -3 d 3 -3 d 3 -2 d 3 -3 d 3 -3 d 3 -2 d 3 -3 d 3 -3 d 3 -3 d 3 -3 d 3 -3 d 4 -3 d 3 -3 d 3 -3 d 3 -3 d 3 -4 d 3 -3 d 3 -3 d 3 -4 d 3 -3 d 3 -4 d 3 -3 d 3 -4 d s 1225 832 m 3 -3 d 3 -4 d 3 -4 d 3 -3 d
 3 -4 d 4 -4 d 3 -4 d 3 -4 d 3 -4 d 3 -4 d 3 -4 d 3 -4 d 3 -4 d 3 -5 d 3 -4 d 3 -4 d 3 -5 d 3 -4 d 3 -4 d 3 -5 d 3 -4 d 4 -5 d 3 -5 d s 0.49 0.6 0.82 c black 0.49 0.6 0.82 c
 gsave  408 305 930 677 C 1051.24 960.076 t 0 r /Helvetica-Bold findfont 25.6831 sf 0 0 m (3.5 < E < 4.0 GeV) show NC gr  0.52 0.76 0.64 c black 0.52 0.76 0.64 c
 gsave  408 305 930 677 C 1031.3 923.04 t 0 r /Helvetica-Bold findfont 25.6831 sf 0 0 m 
 228 214 200 193 178 171 156 149 133 126 119 105 91 77 69 55 47 39 25 17
(A = \2550.000, p = 2.000) K NC gr  1 0.6 1 c black 1 0.6 1 c
 gsave  408 305 930 677 C 1336.13 791.991 t 90 r /Helvetica-Bold findfont 28.5368 sf 0 0 m (/dof=0.0) show NC gr  black 1 0.6 1 c
 gsave  408 305 930 677 C 1324.73 780.596 t 90 r /Helvetica-Bold findfont 19.9758 sf 0 0 m (2) show NC gr  black 1 0.6 1 c
 gsave  408 305 930 677 C 1336.13 763.503 t 90 r /Symbol findfont 28.5368 sf 0 0 m (c) show NC gr  black 3 lw 1 1 1 c 408 305 1383 677 bf black 1 1 1 c black 306 229 1445 723 bl 306 229 1445 723 bl 1445 723 m 306 X s 1445 727 m -4 Y s 1558 727 m -4 Y
 s 1672 727 m -4 Y s 1672 727 m -4 Y s
 gsave  408 305 1383 677 C 1435.84 703.676 t 0 r /Helvetica findfont 22.8295 sf 0 0 m (0) show NC gr 
 gsave  408 305 1383 677 C 1535.55 703.676 t 0 r /Helvetica findfont 22.8295 sf 0 0 m (200) show NC gr 
 gsave  408 305 1383 677 C 1649.51 703.676 t 0 r /Helvetica findfont 22.8295 sf 0 0 m (400) show NC gr  1445 952 m 306 X s 1445 948 m 4 Y s 1558 948 m 4 Y s 1672 948 m 4 Y s 1672 948 m 4 Y s 1445 723 m 229 Y s 1450 730 m -5 X s 1447 741 m -2 X s 1447
 751 m -2 X s 1447 762 m -2 X s 1447 772 m -2 X s 1450 783 m -5 X s 1447 793 m -2 X s 1447 804 m -2 X s 1447 814 m -2 X s 1447 825 m -2 X s 1450 835 m -5 X s 1447 846 m -2 X s 1447 856 m -2 X s 1447 867 m -2 X s 1447 877 m -2 X s 1450 888 m -5 X s
 1447 899 m -2 X s 1447 909 m -2 X s 1447 920 m -2 X s 1447 930 m -2 X s 1450 941 m -5 X s 1450 730 m -5 X s 1450 941 m -5 X s 1447 951 m -2 X s
 gsave  408 305 1383 677 C 1390.26 723.618 t 0 r /Helvetica findfont 22.8295 sf 0 0 m (\2550.02) show NC gr 
 gsave  408 305 1383 677 C 1376.01 774.898 t 0 r /Helvetica findfont 22.8295 sf 0 0 m (\2550.015) show NC gr 
 gsave  408 305 1383 677 C 1393.11 829.027 t 0 r /Helvetica findfont 22.8295 sf 0 0 m (\2550.01) show NC gr 
 gsave  408 305 1383 677 C 1376.01 880.307 t 0 r /Helvetica findfont 22.8295 sf 0 0 m (\2550.005) show NC gr 
 gsave  408 305 1383 677 C 1427.29 934.436 t 0 r /Helvetica findfont 22.8295 sf 0 0 m (0) show NC gr  1751 723 m 229 Y s 1745 730 m 6 X s 1748 741 m 3 X s 1748 751 m 3 X s 1748 762 m 3 X s 1748 772 m 3 X s 1745 783 m 6 X s 1748 793 m 3 X s 1748 804 m
 3 X s 1748 814 m 3 X s 1748 825 m 3 X s 1745 835 m 6 X s 1748 846 m 3 X s 1748 856 m 3 X s 1748 867 m 3 X s 1748 877 m 3 X s 1745 888 m 6 X s 1748 899 m 3 X s 1748 909 m 3 X s 1748 920 m 3 X s 1748 930 m 3 X s 1745 941 m 6 X s 1745 730 m 6 X s 1745
 941 m 6 X s 1748 951 m 3 X s 1590 903 1735 772 2 { m21} R 1590 914 m 19 Y s 1584 933 m 11 X s 1590 891 m -18 Y s 1584 873 m 11 X s 1735 783 m 18 Y s 1729 801 m 11 X s 1735 760 m -18 Y s 1729 742 m 11 X s 1 0 0 c 9 lw 0.95 0.95 0.95 c black 1 0 0 c
 1446 941 m 6 X 3 -1 d 12 X 4 -1 d 6 X 3 -1 d 3 X 3 -1 d 3 X 3 -1 d 3 X 3 -1 d 3 -1 d 3 X 3 -1 d 3 -1 d 3 -1 d 3 -1 d 4 -1 d 3 -1 d 3 X 3 -1 d 3 -2 d 3 -1 d 3 -1 d 3 -1 d 3 -1 d 3 -1 d 3 -2 d 3 -1 d 3 -1 d 3 -2 d 3 -1 d 3 -2 d 4 -1 d 3 -2 d 3 -1 d 3
 -2 d 3 -1 d 3 -2 d 3 -2 d 3 -2 d 3 -1 d 3 -2 d s 1596 895 m 3 -2 d 3 -2 d 3 -2 d 3 -2 d 3 -2 d 3 -2 d 4 -2 d 3 -2 d 3 -2 d 3 -3 d 3 -2 d 3 -2 d 3 -2 d 3 -3 d 3 -2 d 3 -3 d 3 -2 d 3 -3 d 3 -2 d 3 -3 d 3 -2 d 3 -3 d 3 -3 d 4 -2 d 3 -3 d 3 -3 d 3 -3 d
 3 -3 d 3 -3 d 3 -3 d 3 -2 d 3 -4 d 3 -3 d 3 -3 d 3 -3 d 3 -3 d 3 -3 d 3 -3 d 3 -4 d 4 -3 d 3 -3 d 3 -4 d 3 -3 d 3 -4 d 3 -3 d 3 -4 d 3 -3 d 3 -4 d 3 -4 d s 1746 759 m 3 -3 d s 0.49 0.6 0.82 c black 0.49 0.6 0.82 c
 gsave  408 305 1383 677 C 1504.21 960.076 t 0 r /Helvetica-Bold findfont 25.6831 sf 0 0 m (4.0 < E < 4.5 GeV) show NC gr  0.52 0.76 0.64 c black 0.52 0.76 0.64 c
 gsave  408 305 1383 677 C 1484.27 923.04 t 0 r /Helvetica-Bold findfont 25.6831 sf 0 0 m 
 228 214 200 193 178 171 156 149 134 126 119 105 91 77 69 55 47 40 25 17
(A = \2550.000, p = 2.000) K NC gr  1 0.6 1 c black 1 0.6 1 c
 gsave  408 305 1383 677 C 1789.1 791.991 t 90 r /Helvetica-Bold findfont 28.5368 sf 0 0 m (/dof=0.0) show NC gr  black 1 0.6 1 c
 gsave  408 305 1383 677 C 1777.71 780.596 t 90 r /Helvetica-Bold findfont 19.9758 sf 0 0 m (2) show NC gr  black 1 0.6 1 c
 gsave  408 305 1383 677 C 1789.1 763.503 t 90 r /Symbol findfont 28.5368 sf 0 0 m (c) show NC gr  black 3 lw 1 1 1 c 408 305 1837 677 bf black 1 1 1 c black 306 229 1898 723 bl 306 229 1898 723 bl 1898 723 m 306 X s 1898 727 m -4 Y s 2012 727 m -4 Y
 s 2126 727 m -4 Y s 2126 727 m -4 Y s
 gsave  408 305 1837 677 C 1888.81 703.676 t 0 r /Helvetica findfont 22.8295 sf 0 0 m (0) show NC gr 
 gsave  408 305 1837 677 C 1991.37 703.676 t 0 r /Helvetica findfont 22.8295 sf 0 0 m (200) show NC gr 
 gsave  408 305 1837 677 C 2105.33 703.676 t 0 r /Helvetica findfont 22.8295 sf 0 0 m (400) show NC gr  1898 952 m 306 X s 1898 948 m 4 Y s 2012 948 m 4 Y s 2126 948 m 4 Y s 2126 948 m 4 Y s 1898 723 m 229 Y s 1904 723 m -6 X s 1901 731 m -3 X s 1901
 739 m -3 X s 1901 747 m -3 X s 1901 755 m -3 X s 1904 763 m -6 X s 1901 771 m -3 X s 1901 779 m -3 X s 1901 787 m -3 X s 1901 796 m -3 X s 1904 804 m -6 X s 1901 812 m -3 X s 1901 820 m -3 X s 1901 828 m -3 X s 1901 836 m -3 X s 1904 844 m -6 X s
 1901 852 m -3 X s 1901 860 m -3 X s 1901 868 m -3 X s 1901 876 m -3 X s 1904 884 m -6 X s 1901 892 m -3 X s 1901 901 m -3 X s 1901 909 m -3 X s 1901 917 m -3 X s 1904 925 m -6 X s 1904 925 m -6 X s 1901 933 m -3 X s 1901 941 m -3 X s 1901 949 m -3 X
 s
 gsave  408 305 1837 677 C 1880.27 715.071 t 0 r /Helvetica findfont 22.8295 sf 0 0 m (0) show NC gr 
 gsave  408 305 1837 677 C 1837.53 754.956 t 0 r /Helvetica findfont 22.8295 sf 0 0 m (0.005) show NC gr 
 gsave  408 305 1837 677 C 1851.78 797.689 t 0 r /Helvetica findfont 22.8295 sf 0 0 m (0.01) show NC gr 
 gsave  408 305 1837 677 C 1837.53 837.574 t 0 r /Helvetica findfont 22.8295 sf 0 0 m (0.015) show NC gr 
 gsave  408 305 1837 677 C 1848.93 877.458 t 0 r /Helvetica findfont 22.8295 sf 0 0 m (0.02) show NC gr 
 gsave  408 305 1837 677 C 1837.53 917.343 t 0 r /Helvetica findfont 22.8295 sf 0 0 m (0.025) show NC gr  2204 723 m 229 Y s 2199 723 m 5 X s 2201 731 m 3 X s 2201 739 m 3 X s 2201 747 m 3 X s 2201 755 m 3 X s 2199 763 m 5 X s 2201 771 m 3 X s 2201
 779 m 3 X s 2201 787 m 3 X s 2201 796 m 3 X s 2199 804 m 5 X s 2201 812 m 3 X s 2201 820 m 3 X s 2201 828 m 3 X s 2201 836 m 3 X s 2199 844 m 5 X s 2201 852 m 3 X s 2201 860 m 3 X s 2201 868 m 3 X s 2201 876 m 3 X s 2199 884 m 5 X s 2201 892 m 3 X s
 2201 901 m 3 X s 2201 909 m 3 X s 2201 917 m 3 X s 2199 925 m 5 X s 2199 925 m 5 X s 2201 933 m 3 X s 2201 941 m 3 X s 2201 949 m 3 X s 2043 767 2188 900 2 { m21} R 2043 778 m 20 Y s 2037 798 m 12 X s 2043 755 m -20 Y s 2037 735 m 12 X s 2188 912 m
 20 Y s 2183 932 m 11 X s 2188 889 m -21 Y s 2183 868 m 11 X s 1 0 0 c 9 lw 0.95 0.95 0.95 c black 1 0 0 c 1900 723 m 15 X 3 1 d 6 X 3 1 d 6 X 3 1 d 3 X 3 1 d 4 1 d 3 X 3 1 d 3 1 d 3 X 3 1 d 3 1 d 3 1 d 3 1 d 3 1 d 3 1 d 3 1 d 3 1 d 3 1 d 3 1 d 3 1 d
 4 1 d 3 2 d 3 1 d 3 1 d 3 2 d 3 1 d 3 2 d 3 1 d 3 2 d 3 1 d 3 2 d 3 2 d 3 1 d 3 2 d 3 2 d 3 2 d 3 1 d 4 2 d 3 2 d s 2050 771 m 3 2 d 3 2 d 3 2 d 3 2 d 3 2 d 3 3 d 3 2 d 3 2 d 3 2 d 3 3 d 3 2 d 3 3 d 3 2 d 3 2 d 4 3 d 3 3 d 3 2 d 3 3 d 3 2 d 3 3 d 3
 3 d 3 3 d 3 3 d 3 2 d 3 3 d 3 3 d 3 3 d 3 3 d 3 3 d 3 4 d 4 3 d 3 3 d 3 3 d 3 3 d 3 4 d 3 3 d 3 4 d 3 3 d 3 3 d 3 4 d 3 4 d 3 3 d 3 4 d 3 3 d 3 4 d 3 4 d 4 4 d 3 3 d 3 4 d s 2200 914 m 3 4 d s 0.49 0.6 0.82 c black 0.49 0.6 0.82 c
 gsave  408 305 1837 677 C 1957.19 960.076 t 0 r /Helvetica-Bold findfont 25.6831 sf 0 0 m (4.5 < E < 5.0 GeV) show NC gr  0.52 0.76 0.64 c black 0.52 0.76 0.64 c
 gsave  408 305 1837 677 C 1942.94 923.04 t 0 r /Helvetica-Bold findfont 25.6831 sf 0 0 m 
 220 206 192 185 170 163 148 141 125 118 111 97 83 69 61 47 40 25 18
(A = 0.000, p = 2.000) K NC gr  1 0.6 1 c black 1 0.6 1 c
 gsave  408 305 1837 677 C 2242.08 791.991 t 90 r /Helvetica-Bold findfont 28.5368 sf 0 0 m (/dof=0.0) show NC gr  black 1 0.6 1 c
 gsave  408 305 1837 677 C 2230.68 780.596 t 90 r /Helvetica-Bold findfont 19.9758 sf 0 0 m (2) show NC gr  black 1 0.6 1 c
 gsave  408 305 1837 677 C 2242.08 763.503 t 90 r /Symbol findfont 28.5368 sf 0 0 m (c) show NC gr  black 3 lw 1 1 1 c 408 306 23 345 bf black 1 1 1 c black 306 229 84 391 bl 306 229 84 391 bl 84 391 m 306 X s 84 395 m -4 Y s 198 395 m -4 Y s 311 395
 m -4 Y s 311 395 m -4 Y s
 gsave  408 306 23 345 C 74.0711 370.356 t 0 r /Helvetica findfont 22.8295 sf 0 0 m (0) show NC gr 
 gsave  408 306 23 345 C 176.631 370.356 t 0 r /Helvetica findfont 22.8295 sf 0 0 m (200) show NC gr 
 gsave  408 306 23 345 C 290.587 370.356 t 0 r /Helvetica findfont 22.8295 sf 0 0 m (400) show NC gr  84 620 m 306 X s 84 616 m 4 Y s 198 616 m 4 Y s 311 616 m 4 Y s 311 616 m 4 Y s 84 391 m 229 Y s 89 409 m -5 X s 87 417 m -3 X s 87 424 m -3 X s 87
 432 m -3 X s 87 439 m -3 X s 89 447 m -5 X s 87 455 m -3 X s 87 462 m -3 X s 87 470 m -3 X s 87 477 m -3 X s 89 485 m -5 X s 87 493 m -3 X s 87 500 m -3 X s 87 508 m -3 X s 87 515 m -3 X s 89 523 m -5 X s 87 531 m -3 X s 87 538 m -3 X s 87 546 m -3
 X s 87 553 m -3 X s 89 561 m -5 X s 87 569 m -3 X s 87 576 m -3 X s 87 584 m -3 X s 87 591 m -3 X s 89 599 m -5 X s 89 409 m -5 X s 87 401 m -3 X s 87 394 m -3 X s 89 599 m -5 X s 87 607 m -3 X s 87 614 m -3 X s
 gsave  408 306 23 345 C 37.0356 401.694 t 0 r /Helvetica findfont 22.8295 sf 0 0 m (0.01) show NC gr 
 gsave  408 306 23 345 C 34.1867 438.729 t 0 r /Helvetica findfont 22.8295 sf 0 0 m (0.02) show NC gr 
 gsave  408 306 23 345 C 34.1867 478.614 t 0 r /Helvetica findfont 22.8295 sf 0 0 m (0.03) show NC gr 
 gsave  408 306 23 345 C 34.1867 515.649 t 0 r /Helvetica findfont 22.8295 sf 0 0 m (0.04) show NC gr 
 gsave  408 306 23 345 C 34.1867 552.685 t 0 r /Helvetica findfont 22.8295 sf 0 0 m (0.05) show NC gr 
 gsave  408 306 23 345 C 34.1867 592.569 t 0 r /Helvetica findfont 22.8295 sf 0 0 m (0.06) show NC gr  390 391 m 229 Y s 385 409 m 5 X s 387 417 m 3 X s 387 424 m 3 X s 387 432 m 3 X s 387 439 m 3 X s 385 447 m 5 X s 387 455 m 3 X s 387 462 m 3 X s
 387 470 m 3 X s 387 477 m 3 X s 385 485 m 5 X s 387 493 m 3 X s 387 500 m 3 X s 387 508 m 3 X s 387 515 m 3 X s 385 523 m 5 X s 387 531 m 3 X s 387 538 m 3 X s 387 546 m 3 X s 387 553 m 3 X s 385 561 m 5 X s 387 569 m 3 X s 387 576 m 3 X s 387 584 m
 3 X s 387 591 m 3 X s 385 599 m 5 X s 385 409 m 5 X s 387 401 m 3 X s 387 394 m 3 X s 385 599 m 5 X s 387 607 m 3 X s 387 614 m 3 X s /w 22 def /w2 {w 2 div} def /w3 {w 3 div} def 229 430 374 581 2 { m21} R 229 441 m 8 Y s 223 449 m 12 X s 229 418 m
 -8 Y s 223 410 m 12 X s 374 592 m 9 Y s 368 601 m 12 X s 374 569 m -8 Y s 368 561 m 12 X s 1 0 0 c 9 lw 0.95 0.95 0.95 c black 1 0 0 c 171 391 m 3 X 3 2 d 3 1 d 3 2 d 3 1 d 4 2 d 3 2 d 3 1 d 3 2 d 3 2 d 3 2 d 3 2 d 3 2 d 3 1 d 3 3 d 3 2 d 3 2 d 3 2
 d 3 2 d 3 2 d 3 3 d 4 2 d 3 2 d 3 3 d 3 2 d 3 3 d 3 2 d 3 3 d 3 3 d 3 2 d 3 3 d 3 3 d 3 3 d 3 3 d 3 3 d 3 3 d 3 3 d 3 3 d 4 3 d 3 3 d 3 4 d 3 3 d 3 3 d 3 4 d 3 3 d 3 4 d 3 3 d 3 4 d 3 3 d s 321 512 m 3 4 d 3 4 d 3 3 d 3 4 d 3 4 d 4 4 d 3 4 d 3 4 d 3
 4 d 3 4 d 3 4 d 3 4 d 3 5 d 3 4 d 3 4 d 3 5 d 3 4 d 3 5 d 3 4 d 3 5 d 3 4 d 4 5 d s 0.49 0.6 0.82 c black 0.49 0.6 0.82 c
 gsave  408 306 23 345 C 142.445 629.605 t 0 r /Helvetica-Bold findfont 25.6831 sf 0 0 m (5.0 < E < 5.5 GeV) show NC gr  0.52 0.76 0.64 c black 0.52 0.76 0.64 c
 gsave  408 306 23 345 C 128.2 592.569 t 0 r /Helvetica-Bold findfont 25.6831 sf 0 0 m 
 220 206 192 185 170 163 148 141 126 118 111 97 83 69 61 47 40 25 18
(A = 0.000, p = 2.000) K NC gr  1 0.6 1 c black 1 0.6 1 c
 gsave  408 306 23 345 C 427.334 458.671 t 90 r /Helvetica-Bold findfont 28.5368 sf 0 0 m (/dof=0.1) show NC gr  black 1 0.6 1 c
 gsave  408 306 23 345 C 415.938 447.276 t 90 r /Helvetica-Bold findfont 19.9758 sf 0 0 m (2) show NC gr  black 1 0.6 1 c
 gsave  408 306 23 345 C 427.334 430.182 t 90 r /Symbol findfont 28.5368 sf 0 0 m (c) show NC gr  black 3 lw 1 1 1 c 408 306 476 345 bf black 1 1 1 c black 307 229 537 391 bl 307 229 537 391 bl 537 391 m 307 X s 537 395 m -4 Y s 651 395 m -4 Y s 765
 395 m -4 Y s 765 395 m -4 Y s
 gsave  408 306 476 345 C 527.045 370.356 t 0 r /Helvetica findfont 22.8295 sf 0 0 m (0) show NC gr 
 gsave  408 306 476 345 C 629.605 370.356 t 0 r /Helvetica findfont 22.8295 sf 0 0 m (200) show NC gr 
 gsave  408 306 476 345 C 743.56 370.356 t 0 r /Helvetica findfont 22.8295 sf 0 0 m (400) show NC gr  537 620 m 307 X s 537 616 m 4 Y s 651 616 m 4 Y s 765 616 m 4 Y s 765 616 m 4 Y s 537 391 m 229 Y s 543 405 m -6 X s 540 411 m -3 X s 540 416 m -3 X
 s 540 422 m -3 X s 540 428 m -3 X s 543 433 m -6 X s 540 439 m -3 X s 540 445 m -3 X s 540 450 m -3 X s 540 456 m -3 X s 543 462 m -6 X s 540 467 m -3 X s 540 473 m -3 X s 540 479 m -3 X s 540 484 m -3 X s 543 490 m -6 X s 540 496 m -3 X s 540 501 m
 -3 X s 540 507 m -3 X s 540 513 m -3 X s 543 519 m -6 X s 540 524 m -3 X s 540 530 m -3 X s 540 536 m -3 X s 540 541 m -3 X s 543 547 m -6 X s 540 553 m -3 X s 540 558 m -3 X s 540 564 m -3 X s 540 570 m -3 X s 543 575 m -6 X s 540 581 m -3 X s 540
 587 m -3 X s 540 592 m -3 X s 540 598 m -3 X s 543 604 m -6 X s 543 405 m -6 X s 540 399 m -3 X s 540 394 m -3 X s 543 604 m -6 X s 540 609 m -3 X s 540 615 m -3 X s
 gsave  408 306 476 345 C 490.009 398.845 t 0 r /Helvetica findfont 22.8295 sf 0 0 m (0.01) show NC gr 
 gsave  408 306 476 345 C 487.16 427.334 t 0 r /Helvetica findfont 22.8295 sf 0 0 m (0.02) show NC gr 
 gsave  408 306 476 345 C 487.16 455.822 t 0 r /Helvetica findfont 22.8295 sf 0 0 m (0.03) show NC gr 
 gsave  408 306 476 345 C 487.16 484.311 t 0 r /Helvetica findfont 22.8295 sf 0 0 m (0.04) show NC gr 
 gsave  408 306 476 345 C 487.16 512.8 t 0 r /Helvetica findfont 22.8295 sf 0 0 m (0.05) show NC gr 
 gsave  408 306 476 345 C 487.16 538.44 t 0 r /Helvetica findfont 22.8295 sf 0 0 m (0.06) show NC gr 
 gsave  408 306 476 345 C 487.16 566.929 t 0 r /Helvetica findfont 22.8295 sf 0 0 m (0.07) show NC gr 
 gsave  408 306 476 345 C 487.16 595.418 t 0 r /Helvetica findfont 22.8295 sf 0 0 m (0.08) show NC gr  844 391 m 229 Y s 838 405 m 6 X s 841 411 m 3 X s 841 416 m 3 X s 841 422 m 3 X s 841 428 m 3 X s 838 433 m 6 X s 841 439 m 3 X s 841 445 m 3 X s
 841 450 m 3 X s 841 456 m 3 X s 838 462 m 6 X s 841 467 m 3 X s 841 473 m 3 X s 841 479 m 3 X s 841 484 m 3 X s 838 490 m 6 X s 841 496 m 3 X s 841 501 m 3 X s 841 507 m 3 X s 841 513 m 3 X s 838 519 m 6 X s 841 524 m 3 X s 841 530 m 3 X s 841 536 m
 3 X s 841 541 m 3 X s 838 547 m 6 X s 841 553 m 3 X s 841 558 m 3 X s 841 564 m 3 X s 841 570 m 3 X s 838 575 m 6 X s 841 581 m 3 X s 841 587 m 3 X s 841 592 m 3 X s 841 598 m 3 X s 838 604 m 6 X s 838 405 m 6 X s 841 399 m 3 X s 841 394 m 3 X s 838
 604 m 6 X s 841 609 m 3 X s 841 615 m 3 X s /w 23 def /w2 {w 2 div} def /w3 {w 3 div} def 683 428 828 582 2 { m21} R 683 440 m 7 Y s 677 447 m 11 X s 683 417 m -7 Y s 677 410 m 11 X s 828 593 m 8 Y s 822 601 m 11 X s 828 571 m -8 Y s 822 563 m 11 X
 s 1 0 0 c 9 lw 0.95 0.95 0.95 c black 1 0 0 c 612 391 m 4 X 3 2 d 3 1 d 3 1 d 3 1 d 3 2 d 3 1 d 3 2 d 3 1 d 3 2 d 3 1 d 3 2 d 3 2 d 3 1 d 3 2 d 3 2 d 3 2 d 4 2 d 3 2 d 3 2 d 3 2 d 3 2 d 3 2 d 3 2 d 3 3 d 3 2 d 3 2 d 3 3 d 3 2 d 3 2 d 3 3 d 3 3 d 3 2
 d 4 3 d 3 3 d 3 2 d 3 3 d 3 3 d 3 3 d 3 3 d 3 3 d 3 3 d 3 3 d 3 3 d 3 3 d 3 3 d 3 3 d 3 4 d 3 3 d s 762 500 m 4 4 d 3 3 d 3 3 d 3 4 d 3 4 d 3 3 d 3 4 d 3 3 d 3 4 d 3 4 d 3 4 d 3 4 d 3 4 d 3 4 d 3 4 d 3 4 d 4 4 d 3 4 d 3 4 d 3 5 d 3 4 d 3 4 d 3 5 d 3
 4 d 3 4 d 3 5 d s 0.49 0.6 0.82 c black 0.49 0.6 0.82 c
 gsave  408 306 476 345 C 595.418 629.605 t 0 r /Helvetica-Bold findfont 25.6831 sf 0 0 m (5.5 < E < 6.0 GeV) show NC gr  0.52 0.76 0.64 c black 0.52 0.76 0.64 c
 gsave  408 306 476 345 C 581.174 592.569 t 0 r /Helvetica-Bold findfont 25.6831 sf 0 0 m 
 220 206 192 185 170 163 148 141 125 118 111 97 83 68 61 47 40 25 18
(A = 0.000, p = 2.000) K NC gr  1 0.6 1 c black 1 0.6 1 c
 gsave  408 306 476 345 C 883.156 458.671 t 90 r /Helvetica-Bold findfont 28.5368 sf 0 0 m (/dof=0.0) show NC gr  black 1 0.6 1 c
 gsave  408 306 476 345 C 871.76 447.276 t 90 r /Helvetica-Bold findfont 19.9758 sf 0 0 m (2) show NC gr  black 1 0.6 1 c
 gsave  408 306 476 345 C 883.156 430.182 t 90 r /Symbol findfont 28.5368 sf 0 0 m (c) show NC gr  black 3 lw 1 1 1 c 408 306 930 345 bf black 1 1 1 c black 306 229 991 391 bl 306 229 991 391 bl 991 391 m 306 X s 991 395 m -4 Y s 1105 395 m -4 Y s
 1219 395 m -4 Y s 1219 395 m -4 Y s
 gsave  408 306 930 345 C 980.018 370.356 t 0 r /Helvetica findfont 22.8295 sf 0 0 m (0) show NC gr 
 gsave  408 306 930 345 C 1082.58 370.356 t 0 r /Helvetica findfont 22.8295 sf 0 0 m (200) show NC gr 
 gsave  408 306 930 345 C 1196.53 370.356 t 0 r /Helvetica findfont 22.8295 sf 0 0 m (400) show NC gr  991 620 m 306 X s 991 616 m 4 Y s 1105 616 m 4 Y s 1219 616 m 4 Y s 1219 616 m 4 Y s 991 391 m 229 Y s 997 406 m -6 X s 994 412 m -3 X s 994 417 m
 -3 X s 994 423 m -3 X s 994 429 m -3 X s 997 435 m -6 X s 994 441 m -3 X s 994 446 m -3 X s 994 452 m -3 X s 994 458 m -3 X s 997 464 m -6 X s 994 469 m -3 X s 994 475 m -3 X s 994 481 m -3 X s 994 487 m -3 X s 997 492 m -6 X s 994 498 m -3 X s 994
 504 m -3 X s 994 510 m -3 X s 994 516 m -3 X s 997 521 m -6 X s 994 527 m -3 X s 994 533 m -3 X s 994 539 m -3 X s 994 544 m -3 X s 997 550 m -6 X s 994 556 m -3 X s 994 562 m -3 X s 994 568 m -3 X s 994 573 m -3 X s 997 579 m -6 X s 994 585 m -3 X
 s 994 591 m -3 X s 994 596 m -3 X s 994 602 m -3 X s 997 608 m -6 X s 997 406 m -6 X s 994 400 m -3 X s 994 394 m -3 X s 997 608 m -6 X s 994 614 m -3 X s 994 619 m -3 X s
 gsave  408 306 930 345 C 945.832 398.845 t 0 r /Helvetica findfont 22.8295 sf 0 0 m (0.01) show NC gr 
 gsave  408 306 930 345 C 942.983 427.334 t 0 r /Helvetica findfont 22.8295 sf 0 0 m (0.02) show NC gr 
 gsave  408 306 930 345 C 942.983 455.822 t 0 r /Helvetica findfont 22.8295 sf 0 0 m (0.03) show NC gr 
 gsave  408 306 930 345 C 942.983 484.311 t 0 r /Helvetica findfont 22.8295 sf 0 0 m (0.04) show NC gr 
 gsave  408 306 930 345 C 942.983 512.8 t 0 r /Helvetica findfont 22.8295 sf 0 0 m (0.05) show NC gr 
 gsave  408 306 930 345 C 942.983 544.138 t 0 r /Helvetica findfont 22.8295 sf 0 0 m (0.06) show NC gr 
 gsave  408 306 930 345 C 942.983 572.627 t 0 r /Helvetica findfont 22.8295 sf 0 0 m (0.07) show NC gr 
 gsave  408 306 930 345 C 942.983 601.116 t 0 r /Helvetica findfont 22.8295 sf 0 0 m (0.08) show NC gr  1297 391 m 229 Y s 1292 406 m 5 X s 1294 412 m 3 X s 1294 417 m 3 X s 1294 423 m 3 X s 1294 429 m 3 X s 1292 435 m 5 X s 1294 441 m 3 X s 1294 446
 m 3 X s 1294 452 m 3 X s 1294 458 m 3 X s 1292 464 m 5 X s 1294 469 m 3 X s 1294 475 m 3 X s 1294 481 m 3 X s 1294 487 m 3 X s 1292 492 m 5 X s 1294 498 m 3 X s 1294 504 m 3 X s 1294 510 m 3 X s 1294 516 m 3 X s 1292 521 m 5 X s 1294 527 m 3 X s
 1294 533 m 3 X s 1294 539 m 3 X s 1294 544 m 3 X s 1292 550 m 5 X s 1294 556 m 3 X s 1294 562 m 3 X s 1294 568 m 3 X s 1294 573 m 3 X s 1292 579 m 5 X s 1294 585 m 3 X s 1294 591 m 3 X s 1294 596 m 3 X s 1294 602 m 3 X s 1292 608 m 5 X s 1292 406 m
 5 X s 1294 400 m 3 X s 1294 394 m 3 X s 1292 608 m 5 X s 1294 614 m 3 X s 1294 619 m 3 X s 1136 432 1281 578 2 { m21} R 1136 443 m 11 Y s 1130 454 m 12 X s 1136 421 m -11 Y s 1130 410 m 12 X s 1281 589 m 12 Y s 1275 601 m 12 X s 1281 567 m -12 Y s
 1275 555 m 12 X s 1 0 0 c 9 lw 0.95 0.95 0.95 c black 1 0 0 c 1066 391 m 3 1 d 3 1 d 3 1 d 3 1 d 3 2 d 3 1 d 3 1 d 3 2 d 4 1 d 3 2 d 3 1 d 3 2 d 3 2 d 3 1 d 3 2 d 3 2 d 3 2 d 3 2 d 3 2 d 3 2 d 3 2 d 3 2 d 3 2 d 3 2 d 4 2 d 3 2 d 3 3 d 3 2 d 3 2 d 3
 3 d 3 2 d 3 3 d 3 2 d 3 3 d 3 3 d 3 2 d 3 3 d 3 3 d 3 3 d 3 3 d 4 3 d 3 3 d 3 3 d 3 3 d 3 3 d 3 3 d 3 3 d 3 3 d 3 4 d s 1216 499 m 3 3 d 3 3 d 3 4 d 3 3 d 3 4 d 3 3 d 3 4 d 3 4 d 4 3 d 3 4 d 3 4 d 3 4 d 3 3 d 3 4 d 3 4 d 3 4 d 3 4 d 3 4 d 3 5 d 3 4
 d 3 4 d 3 4 d 3 5 d 3 4 d 4 4 d 3 5 d s 0.49 0.6 0.82 c black 0.49 0.6 0.82 c
 gsave  408 306 930 345 C 1051.24 629.605 t 0 r /Helvetica-Bold findfont 25.6831 sf 0 0 m (6.0 < E < 6.5 GeV) show NC gr  0.52 0.76 0.64 c black 0.52 0.76 0.64 c
 gsave  408 306 930 345 C 1037 592.569 t 0 r /Helvetica-Bold findfont 25.6831 sf 0 0 m 
 220 206 192 185 170 163 148 141 125 118 111 97 83 69 61 47 40 25 18
(A = 0.000, p = 2.000) K NC gr  1 0.6 1 c black 1 0.6 1 c
 gsave  408 306 930 345 C 1336.13 458.671 t 90 r /Helvetica-Bold findfont 28.5368 sf 0 0 m (/dof=0.0) show NC gr  black 1 0.6 1 c
 gsave  408 306 930 345 C 1324.73 447.276 t 90 r /Helvetica-Bold findfont 19.9758 sf 0 0 m (2) show NC gr  black 1 0.6 1 c
 gsave  408 306 930 345 C 1336.13 430.182 t 90 r /Symbol findfont 28.5368 sf 0 0 m (c) show NC gr  black 3 lw 1 1 1 c 408 306 1383 345 bf black 1 1 1 c black 306 229 1445 391 bl 306 229 1445 391 bl 1445 391 m 306 X s 1445 395 m -4 Y s 1558 395 m -4 Y
 s 1672 395 m -4 Y s 1672 395 m -4 Y s
 gsave  408 306 1383 345 C 1435.84 370.356 t 0 r /Helvetica findfont 22.8295 sf 0 0 m (0) show NC gr 
 gsave  408 306 1383 345 C 1535.55 370.356 t 0 r /Helvetica findfont 22.8295 sf 0 0 m (200) show NC gr 
 gsave  408 306 1383 345 C 1649.51 370.356 t 0 r /Helvetica findfont 22.8295 sf 0 0 m (400) show NC gr  1445 620 m 306 X s 1445 616 m 4 Y s 1558 616 m 4 Y s 1672 616 m 4 Y s 1672 616 m 4 Y s 1445 391 m 229 Y s 1450 398 m -5 X s 1447 406 m -2 X s 1447
 414 m -2 X s 1447 422 m -2 X s 1447 430 m -2 X s 1450 439 m -5 X s 1447 447 m -2 X s 1447 455 m -2 X s 1447 463 m -2 X s 1447 471 m -2 X s 1450 480 m -5 X s 1447 488 m -2 X s 1447 496 m -2 X s 1447 504 m -2 X s 1447 512 m -2 X s 1450 520 m -5 X s
 1447 529 m -2 X s 1447 537 m -2 X s 1447 545 m -2 X s 1447 553 m -2 X s 1450 561 m -5 X s 1447 570 m -2 X s 1447 578 m -2 X s 1447 586 m -2 X s 1447 594 m -2 X s 1450 602 m -5 X s 1450 398 m -5 X s 1450 602 m -5 X s 1447 610 m -2 X s 1447 619 m -2 X
 s
 gsave  408 306 1383 345 C 1398.81 390.298 t 0 r /Helvetica findfont 22.8295 sf 0 0 m (0.01) show NC gr 
 gsave  408 306 1383 345 C 1395.96 430.182 t 0 r /Helvetica findfont 22.8295 sf 0 0 m (0.02) show NC gr 
 gsave  408 306 1383 345 C 1395.96 472.916 t 0 r /Helvetica findfont 22.8295 sf 0 0 m (0.03) show NC gr 
 gsave  408 306 1383 345 C 1395.96 512.8 t 0 r /Helvetica findfont 22.8295 sf 0 0 m (0.04) show NC gr 
 gsave  408 306 1383 345 C 1395.96 555.534 t 0 r /Helvetica findfont 22.8295 sf 0 0 m (0.05) show NC gr 
 gsave  408 306 1383 345 C 1395.96 595.418 t 0 r /Helvetica findfont 22.8295 sf 0 0 m (0.06) show NC gr  1751 391 m 229 Y s 1745 398 m 6 X s 1748 406 m 3 X s 1748 414 m 3 X s 1748 422 m 3 X s 1748 430 m 3 X s 1745 439 m 6 X s 1748 447 m 3 X s 1748
 455 m 3 X s 1748 463 m 3 X s 1748 471 m 3 X s 1745 480 m 6 X s 1748 488 m 3 X s 1748 496 m 3 X s 1748 504 m 3 X s 1748 512 m 3 X s 1745 520 m 6 X s 1748 529 m 3 X s 1748 537 m 3 X s 1748 545 m 3 X s 1748 553 m 3 X s 1745 561 m 6 X s 1748 570 m 3 X s
 1748 578 m 3 X s 1748 586 m 3 X s 1748 594 m 3 X s 1745 602 m 6 X s 1745 398 m 6 X s 1745 602 m 6 X s 1748 610 m 3 X s 1748 619 m 3 X s 1590 446 1735 564 2 { m21} R 1590 457 m 25 Y s 1584 482 m 11 X s 1590 434 m -24 Y s 1584 410 m 11 X s 1735 576 m
 25 Y s 1729 601 m 11 X s 1735 553 m -25 Y s 1729 528 m 11 X s 9 lw 0.95 0.95 0.95 c black 1492 391 m 3 1 d 3 2 d 3 2 d 3 2 d 3 2 d 3 3 d 3 2 d 3 2 d 4 2 d 3 2 d 3 2 d 3 2 d 3 2 d 3 3 d 3 2 d 3 2 d 3 2 d 3 2 d 3 2 d 3 2 d 3 2 d 3 3 d 3 2 d 3 2 d 4 2
 d 3 2 d 3 2 d 3 2 d 3 2 d 3 3 d 3 2 d 3 2 d 3 2 d 3 2 d 3 2 d 3 2 d 3 2 d 3 3 d 3 2 d 3 2 d 4 2 d 3 2 d 3 2 d 3 2 d 3 2 d 3 3 d 3 2 d 3 2 d 3 2 d s 1642 494 m 3 2 d 3 2 d 3 2 d 3 2 d 3 3 d 3 2 d 3 2 d 3 2 d 4 2 d 3 2 d 3 2 d 3 2 d 3 3 d 3 2 d 3 2 d
 3 2 d 3 2 d 3 2 d 3 2 d 3 3 d 3 2 d 3 2 d 3 2 d 3 2 d 4 2 d 3 2 d 3 2 d 3 3 d 3 2 d 3 2 d 3 2 d 3 2 d 3 2 d 3 2 d 3 2 d s 0.49 0.6 0.82 c black 0.49 0.6 0.82 c
 gsave  408 306 1383 345 C 1504.21 629.605 t 0 r /Helvetica-Bold findfont 25.6831 sf 0 0 m (6.5 < E < 7.0 GeV) show NC gr  0.52 0.76 0.64 c black 0.52 0.76 0.64 c
 gsave  408 306 1383 345 C 1489.97 592.569 t 0 r /Helvetica-Bold findfont 25.6831 sf 0 0 m 
 220 206 192 185 170 163 148 141 126 118 111 97 83 69 61 47 40 25 18
(A = 0.000, p = 1.000) K NC gr  1 0.6 1 c black 1 0.6 1 c
 gsave  408 306 1383 345 C 1789.1 458.671 t 90 r /Helvetica-Bold findfont 28.5368 sf 0 0 m (/dof=0.1) show NC gr  black 1 0.6 1 c
 gsave  408 306 1383 345 C 1777.71 447.276 t 90 r /Helvetica-Bold findfont 19.9758 sf 0 0 m (2) show NC gr  black 1 0.6 1 c
 gsave  408 306 1383 345 C 1789.1 430.182 t 90 r /Symbol findfont 28.5368 sf 0 0 m (c) show NC gr  black 3 lw 1 1 1 c 408 306 1837 345 bf black 1 1 1 c black 306 229 1898 391 bl 306 229 1898 391 bl 1898 391 m 306 X s 1898 395 m -4 Y s 2012 395 m -4 Y
 s 2126 395 m -4 Y s 2126 395 m -4 Y s
 gsave  408 306 1837 345 C 1888.81 370.356 t 0 r /Helvetica findfont 22.8295 sf 0 0 m (0) show NC gr 
 gsave  408 306 1837 345 C 1991.37 370.356 t 0 r /Helvetica findfont 22.8295 sf 0 0 m (200) show NC gr 
 gsave  408 306 1837 345 C 2105.33 370.356 t 0 r /Helvetica findfont 22.8295 sf 0 0 m (400) show NC gr  1898 620 m 306 X s 1898 616 m 4 Y s 2012 616 m 4 Y s 2126 616 m 4 Y s 2126 616 m 4 Y s 1898 391 m 229 Y s 1904 407 m -6 X s 1901 414 m -3 X s 1901
 421 m -3 X s 1901 427 m -3 X s 1901 434 m -3 X s 1904 441 m -6 X s 1901 448 m -3 X s 1901 454 m -3 X s 1901 461 m -3 X s 1901 468 m -3 X s 1904 475 m -6 X s 1901 481 m -3 X s 1901 488 m -3 X s 1901 495 m -3 X s 1901 501 m -3 X s 1904 508 m -6 X s
 1901 515 m -3 X s 1901 522 m -3 X s 1901 528 m -3 X s 1901 535 m -3 X s 1904 542 m -6 X s 1901 549 m -3 X s 1901 555 m -3 X s 1901 562 m -3 X s 1901 569 m -3 X s 1904 575 m -6 X s 1901 582 m -3 X s 1901 589 m -3 X s 1901 596 m -3 X s 1901 602 m -3 X
 s 1904 609 m -6 X s 1904 407 m -6 X s 1901 401 m -3 X s 1901 394 m -3 X s 1904 609 m -6 X s 1901 616 m -3 X s
 gsave  408 306 1837 345 C 1846.08 398.845 t 0 r /Helvetica findfont 22.8295 sf 0 0 m (\2550.01) show NC gr 
 gsave  408 306 1837 345 C 1880.27 433.031 t 0 r /Helvetica findfont 22.8295 sf 0 0 m (0) show NC gr 
 gsave  408 306 1837 345 C 1851.78 467.218 t 0 r /Helvetica findfont 22.8295 sf 0 0 m (0.01) show NC gr 
 gsave  408 306 1837 345 C 1848.93 501.405 t 0 r /Helvetica findfont 22.8295 sf 0 0 m (0.02) show NC gr 
 gsave  408 306 1837 345 C 1848.93 535.591 t 0 r /Helvetica findfont 22.8295 sf 0 0 m (0.03) show NC gr 
 gsave  408 306 1837 345 C 1848.93 569.778 t 0 r /Helvetica findfont 22.8295 sf 0 0 m (0.04) show NC gr 
 gsave  408 306 1837 345 C 1848.93 601.116 t 0 r /Helvetica findfont 22.8295 sf 0 0 m (0.05) show NC gr  2204 391 m 229 Y s 2199 407 m 5 X s 2201 414 m 3 X s 2201 421 m 3 X s 2201 427 m 3 X s 2201 434 m 3 X s 2199 441 m 5 X s 2201 448 m 3 X s 2201
 454 m 3 X s 2201 461 m 3 X s 2201 468 m 3 X s 2199 475 m 5 X s 2201 481 m 3 X s 2201 488 m 3 X s 2201 495 m 3 X s 2201 501 m 3 X s 2199 508 m 5 X s 2201 515 m 3 X s 2201 522 m 3 X s 2201 528 m 3 X s 2201 535 m 3 X s 2199 542 m 5 X s 2201 549 m 3 X s
 2201 555 m 3 X s 2201 562 m 3 X s 2201 569 m 3 X s 2199 575 m 5 X s 2201 582 m 3 X s 2201 589 m 3 X s 2201 596 m 3 X s 2201 602 m 3 X s 2199 609 m 5 X s 2199 407 m 5 X s 2201 401 m 3 X s 2201 394 m 3 X s 2199 609 m 5 X s 2201 616 m 3 X s 2043 442
 2188 568 2 { m21} R 2043 454 m 20 Y s 2037 474 m 12 X s 2043 431 m -21 Y s 2037 410 m 12 X s 2188 579 m 22 Y s 2183 601 m 11 X s 2188 556 m -21 Y s 2183 535 m 11 X s 1 0 0 c 9 lw 0.95 0.95 0.95 c black 1 0 0 c 1900 441 m 15 X 3 1 d 12 X 3 1 d 6 X 3
 1 d 4 X 3 1 d 6 X 3 1 d 3 1 d 3 X 3 1 d 3 X 3 1 d 3 1 d 3 X 3 1 d 3 1 d 3 1 d 3 X 4 1 d 3 1 d 3 1 d 3 1 d 3 1 d 3 1 d 3 1 d 3 1 d 3 1 d 3 1 d 3 1 d 3 1 d 3 1 d 3 1 d 3 1 d 3 2 d 3 1 d 4 1 d 3 2 d s 2050 474 m 3 1 d 3 1 d 3 2 d 3 1 d 3 1 d 3 2 d 3 1
 d 3 2 d 3 1 d 3 2 d 3 2 d 3 1 d 3 2 d 3 2 d 4 1 d 3 2 d 3 2 d 3 2 d 3 1 d 3 2 d 3 2 d 3 2 d 3 2 d 3 2 d 3 2 d 3 2 d 3 2 d 3 2 d 3 2 d 3 2 d 4 2 d 3 2 d 3 2 d 3 3 d 3 2 d 3 2 d 3 2 d 3 3 d 3 2 d 3 2 d 3 3 d 3 2 d 3 3 d 3 2 d 3 3 d 3 2 d 4 3 d 3 2 d 3
 3 d s 2200 570 m 3 3 d s 0.49 0.6 0.82 c black 0.49 0.6 0.82 c
 gsave  408 306 1837 345 C 1957.19 629.605 t 0 r /Helvetica-Bold findfont 25.6831 sf 0 0 m (7.0 < E < 7.5 GeV) show NC gr  0.52 0.76 0.64 c black 0.52 0.76 0.64 c
 gsave  408 306 1837 345 C 1942.94 592.569 t 0 r /Helvetica-Bold findfont 25.6831 sf 0 0 m 
 220 206 192 185 170 163 148 141 125 118 111 97 83 69 61 47 40 25 18
(A = 0.000, p = 2.000) K NC gr  1 0.6 1 c black 1 0.6 1 c
 gsave  408 306 1837 345 C 2242.08 458.671 t 90 r /Helvetica-Bold findfont 28.5368 sf 0 0 m (/dof=0.8) show NC gr  black 1 0.6 1 c
 gsave  408 306 1837 345 C 2230.68 447.276 t 90 r /Helvetica-Bold findfont 19.9758 sf 0 0 m (2) show NC gr  black 1 0.6 1 c
 gsave  408 306 1837 345 C 2242.08 430.182 t 90 r /Symbol findfont 28.5368 sf 0 0 m (c) show NC gr  black 3 lw 1 1 1 c 408 306 23 13 bf black 1 1 1 c black 306 229 84 59 bl 306 229 84 59 bl 84 59 m 306 X s 84 63 m -4 Y s 198 63 m -4 Y s 311 63 m -4 Y
 s 311 63 m -4 Y s
 gsave  408 306 23 13 C 74.0711 39.8845 t 0 r /Helvetica findfont 22.8295 sf 0 0 m (0) show NC gr 
 gsave  408 306 23 13 C 176.631 39.8845 t 0 r /Helvetica findfont 22.8295 sf 0 0 m (200) show NC gr 
 gsave  408 306 23 13 C 290.587 39.8845 t 0 r /Helvetica findfont 22.8295 sf 0 0 m (400) show NC gr  84 288 m 306 X s 84 284 m 4 Y s 198 284 m 4 Y s 311 284 m 4 Y s 311 284 m 4 Y s 84 59 m 229 Y s 89 88 m -5 X s 87 96 m -3 X s 87 104 m -3 X s 87 113
 m -3 X s 87 121 m -3 X s 89 129 m -5 X s 87 137 m -3 X s 87 145 m -3 X s 87 154 m -3 X s 87 162 m -3 X s 89 170 m -5 X s 87 178 m -3 X s 87 186 m -3 X s 87 195 m -3 X s 87 203 m -3 X s 89 211 m -5 X s 87 219 m -3 X s 87 227 m -3 X s 87 236 m -3 X s
 87 244 m -3 X s 89 252 m -5 X s 89 88 m -5 X s 87 80 m -3 X s 87 72 m -3 X s 87 63 m -3 X s 89 252 m -5 X s 87 260 m -3 X s 87 268 m -3 X s 87 277 m -3 X s 87 285 m -3 X s
 gsave  408 306 23 13 C 14.2445 79.7689 t 0 r /Helvetica findfont 22.8295 sf 0 0 m (\2550.005) show NC gr 
 gsave  408 306 23 13 C 65.5245 122.502 t 0 r /Helvetica findfont 22.8295 sf 0 0 m (0) show NC gr 
 gsave  408 306 23 13 C 22.7911 162.387 t 0 r /Helvetica findfont 22.8295 sf 0 0 m (0.005) show NC gr 
 gsave  408 306 23 13 C 37.0356 205.12 t 0 r /Helvetica findfont 22.8295 sf 0 0 m (0.01) show NC gr 
 gsave  408 306 23 13 C 22.7911 245.005 t 0 r /Helvetica findfont 22.8295 sf 0 0 m (0.015) show NC gr  390 59 m 229 Y s 385 88 m 5 X s 387 96 m 3 X s 387 104 m 3 X s 387 113 m 3 X s 387 121 m 3 X s 385 129 m 5 X s 387 137 m 3 X s 387 145 m 3 X s 387
 154 m 3 X s 387 162 m 3 X s 385 170 m 5 X s 387 178 m 3 X s 387 186 m 3 X s 387 195 m 3 X s 387 203 m 3 X s 385 211 m 5 X s 387 219 m 3 X s 387 227 m 3 X s 387 236 m 3 X s 387 244 m 3 X s 385 252 m 5 X s 385 88 m 5 X s 387 80 m 3 X s 387 72 m 3 X s
 387 63 m 3 X s 385 252 m 5 X s 387 260 m 3 X s 387 268 m 3 X s 387 277 m 3 X s 387 285 m 3 X s /w 22 def /w2 {w 2 div} def /w3 {w 3 div} def 229 164 374 184 2 { m21} R 229 175 m 74 Y s 223 249 m 12 X s 229 152 m -74 Y s 223 78 m 12 X s 374 195 m 74
 Y s 368 269 m 12 X s 374 172 m -74 Y s 368 98 m 12 X s 9 lw 0.95 0.95 0.95 c black 85 129 m 3 1 d 4 1 d 3 X 3 1 d 3 X 3 1 d 3 1 d 3 X 3 1 d 3 X 3 1 d 3 1 d 3 X 3 1 d 3 X 3 1 d 3 1 d 4 X 3 1 d 3 1 d 3 X 3 1 d 3 X 3 1 d 3 1 d 3 X 3 1 d 3 X 3 1 d 3 1 d
 3 X 3 1 d 3 X 4 1 d 3 1 d 3 X 3 1 d 3 X 3 1 d 3 1 d 3 X 3 1 d 3 X 3 1 d 3 1 d 3 X 3 1 d 3 X 3 1 d s 235 159 m 4 1 d 3 X 3 1 d 3 1 d 3 X 3 1 d 3 X 3 1 d 3 1 d 3 X 3 1 d 3 X 3 1 d 3 1 d 3 X 3 1 d 3 X 4 1 d 3 1 d 3 X 3 1 d 3 X 3 1 d 3 1 d 3 X 3 1 d 3 X
 3 1 d 3 1 d 3 X 3 1 d 3 1 d 3 X 4 1 d 3 X 3 1 d 3 1 d 3 X 3 1 d 3 X 3 1 d 3 1 d 3 X 3 1 d 3 X 3 1 d 3 1 d 3 X 3 1 d s 385 189 m 4 X s 0.49 0.6 0.82 c black 0.49 0.6 0.82 c
 gsave  408 306 23 13 C 142.445 296.285 t 0 r /Helvetica-Bold findfont 25.6831 sf 0 0 m (7.5 < E < 8.0 GeV) show NC gr  0.52 0.76 0.64 c black 0.52 0.76 0.64 c
 gsave  408 306 23 13 C 128.2 259.249 t 0 r /Helvetica-Bold findfont 25.6831 sf 0 0 m 
 220 206 192 185 170 163 148 141 126 118 111 97 83 69 61 47 40 25 18
(A = 0.000, p = 1.000) K NC gr  1 0.6 1 c black 1 0.6 1 c
 gsave  408 306 23 13 C 427.334 128.2 t 90 r /Helvetica-Bold findfont 28.5368 sf 0 0 m (/dof=0.0) show NC gr  black 1 0.6 1 c
 gsave  408 306 23 13 C 415.938 116.804 t 90 r /Helvetica-Bold findfont 19.9758 sf 0 0 m (2) show NC gr  black 1 0.6 1 c
 gsave  408 306 23 13 C 427.334 99.7112 t 90 r /Symbol findfont 28.5368 sf 0 0 m (c) show NC gr  black 3 lw 1 1 1 c 408 306 476 13 bf black 1 1 1 c black 307 229 537 59 bl 307 229 537 59 bl 537 59 m 307 X s 537 63 m -4 Y s 651 63 m -4 Y s 765 63 m -4
 Y s 765 63 m -4 Y s
 gsave  408 306 476 13 C 527.045 39.8845 t 0 r /Helvetica findfont 22.8295 sf 0 0 m (0) show NC gr 
 gsave  408 306 476 13 C 629.605 39.8845 t 0 r /Helvetica findfont 22.8295 sf 0 0 m (200) show NC gr 
 gsave  408 306 476 13 C 743.56 39.8845 t 0 r /Helvetica findfont 22.8295 sf 0 0 m (400) show NC gr  537 288 m 307 X s 537 284 m 4 Y s 651 284 m 4 Y s 765 284 m 4 Y s 765 284 m 4 Y s 537 59 m 229 Y s 543 59 m -6 X s 540 64 m -3 X s 540 69 m -3 X s
 540 73 m -3 X s 540 78 m -3 X s 543 83 m -6 X s 540 87 m -3 X s 540 92 m -3 X s 540 97 m -3 X s 540 101 m -3 X s 543 106 m -6 X s 540 111 m -3 X s 540 115 m -3 X s 540 120 m -3 X s 540 125 m -3 X s 543 129 m -6 X s 540 134 m -3 X s 540 139 m -3 X s
 540 144 m -3 X s 540 148 m -3 X s 543 153 m -6 X s 540 158 m -3 X s 540 162 m -3 X s 540 167 m -3 X s 540 172 m -3 X s 543 176 m -6 X s 540 181 m -3 X s 540 186 m -3 X s 540 190 m -3 X s 540 195 m -3 X s 543 200 m -6 X s 540 204 m -3 X s 540 209 m
 -3 X s 540 214 m -3 X s 540 218 m -3 X s 543 223 m -6 X s 540 228 m -3 X s 540 232 m -3 X s 540 237 m -3 X s 540 242 m -3 X s 543 247 m -6 X s 540 251 m -3 X s 540 256 m -3 X s 540 261 m -3 X s 540 265 m -3 X s 543 270 m -6 X s 543 59 m -6 X s 543
 270 m -6 X s 540 275 m -3 X s 540 279 m -3 X s 540 284 m -3 X s
 gsave  408 306 476 13 C 467.218 51.28 t 0 r /Helvetica findfont 22.8295 sf 0 0 m (\2550.025) show NC gr 
 gsave  408 306 476 13 C 481.462 74.0711 t 0 r /Helvetica findfont 22.8295 sf 0 0 m (\2550.02) show NC gr 
 gsave  408 306 476 13 C 467.218 99.7112 t 0 r /Helvetica findfont 22.8295 sf 0 0 m (\2550.015) show NC gr 
 gsave  408 306 476 13 C 484.311 122.502 t 0 r /Helvetica findfont 22.8295 sf 0 0 m (\2550.01) show NC gr 
 gsave  408 306 476 13 C 467.218 145.293 t 0 r /Helvetica findfont 22.8295 sf 0 0 m (\2550.005) show NC gr 
 gsave  408 306 476 13 C 518.498 168.085 t 0 r /Helvetica findfont 22.8295 sf 0 0 m (0) show NC gr 
 gsave  408 306 476 13 C 475.765 193.725 t 0 r /Helvetica findfont 22.8295 sf 0 0 m (0.005) show NC gr 
 gsave  408 306 476 13 C 490.009 216.516 t 0 r /Helvetica findfont 22.8295 sf 0 0 m (0.01) show NC gr 
 gsave  408 306 476 13 C 475.765 239.307 t 0 r /Helvetica findfont 22.8295 sf 0 0 m (0.015) show NC gr 
 gsave  408 306 476 13 C 487.16 262.098 t 0 r /Helvetica findfont 22.8295 sf 0 0 m (0.02) show NC gr  844 59 m 229 Y s 838 59 m 6 X s 841 64 m 3 X s 841 69 m 3 X s 841 73 m 3 X s 841 78 m 3 X s 838 83 m 6 X s 841 87 m 3 X s 841 92 m 3 X s 841 97 m 3
 X s 841 101 m 3 X s 838 106 m 6 X s 841 111 m 3 X s 841 115 m 3 X s 841 120 m 3 X s 841 125 m 3 X s 838 129 m 6 X s 841 134 m 3 X s 841 139 m 3 X s 841 144 m 3 X s 841 148 m 3 X s 838 153 m 6 X s 841 158 m 3 X s 841 162 m 3 X s 841 167 m 3 X s 841
 172 m 3 X s 838 176 m 6 X s 841 181 m 3 X s 841 186 m 3 X s 841 190 m 3 X s 841 195 m 3 X s 838 200 m 6 X s 841 204 m 3 X s 841 209 m 3 X s 841 214 m 3 X s 841 218 m 3 X s 838 223 m 6 X s 841 228 m 3 X s 841 232 m 3 X s 841 237 m 3 X s 841 242 m 3 X
 s 838 247 m 6 X s 841 251 m 3 X s 841 256 m 3 X s 841 261 m 3 X s 841 265 m 3 X s 838 270 m 6 X s 838 59 m 6 X s 838 270 m 6 X s 841 275 m 3 X s 841 279 m 3 X s 841 284 m 3 X s /w 23 def /w2 {w 2 div} def /w3 {w 3 div} def 683 130 828 216 2 { m21} R
 683 141 m 41 Y s 677 182 m 11 X s 683 119 m -41 Y s 677 78 m 11 X s 828 228 m 41 Y s 822 269 m 11 X s 828 205 m -41 Y s 822 164 m 11 X s 1 0 0 c 9 lw 0.95 0.95 0.95 c black 1 0 0 c 539 176 m 24 X 4 1 d 30 X 3 1 d 19 X 3 1 d 15 X 3 1 d 12 X 3 1 d 9 X
 4 1 d 9 X 3 1 d 6 X 3 1 d s 689 184 m 9 X 3 1 d 6 X 3 1 d 7 X 3 1 d 6 X 3 1 d 3 X 3 1 d 6 X 3 1 d 3 X 3 1 d 6 X 3 1 d 3 X 4 1 d 3 X 3 1 d 6 X 3 1 d 3 X 3 1 d 3 X 3 1 d 3 X 3 1 d 3 X 3 1 d 3 X 3 1 d 4 X 3 1 d 3 1 d 3 X 3 1 d 3 X 3 1 d 3 X 3 1 d s 839
 205 m 3 1 d s 0.49 0.6 0.82 c black 0.49 0.6 0.82 c
 gsave  408 306 476 13 C 595.418 296.285 t 0 r /Helvetica-Bold findfont 25.6831 sf 0 0 m (8.0 < E < 8.5 GeV) show NC gr  0.52 0.76 0.64 c black 0.52 0.76 0.64 c
 gsave  408 306 476 13 C 581.174 259.249 t 0 r /Helvetica-Bold findfont 25.6831 sf 0 0 m 
 220 206 192 185 170 163 148 141 125 118 111 97 83 68 61 47 40 25 18
(A = 0.000, p = 2.000) K NC gr  1 0.6 1 c black 1 0.6 1 c
 gsave  408 306 476 13 C 883.156 128.2 t 90 r /Helvetica-Bold findfont 28.5368 sf 0 0 m (/dof=1.1) show NC gr  black 1 0.6 1 c
 gsave  408 306 476 13 C 871.76 116.804 t 90 r /Helvetica-Bold findfont 19.9758 sf 0 0 m (2) show NC gr  black 1 0.6 1 c
 gsave  408 306 476 13 C 883.156 99.7112 t 90 r /Symbol findfont 28.5368 sf 0 0 m (c) show NC gr  black 3 lw 1 1 1 c 408 306 930 13 bf black 1 1 1 c black 306 229 991 59 bl 306 229 991 59 bl 991 59 m 306 X s 991 63 m -4 Y s 1105 63 m -4 Y s 1219 63 m
 -4 Y s 1219 63 m -4 Y s
 gsave  408 306 930 13 C 980.018 39.8845 t 0 r /Helvetica findfont 22.8295 sf 0 0 m (0) show NC gr 
 gsave  408 306 930 13 C 1082.58 39.8845 t 0 r /Helvetica findfont 22.8295 sf 0 0 m (200) show NC gr 
 gsave  408 306 930 13 C 1196.53 39.8845 t 0 r /Helvetica findfont 22.8295 sf 0 0 m (400) show NC gr  991 288 m 306 X s 991 284 m 4 Y s 1105 284 m 4 Y s 1219 284 m 4 Y s 1219 284 m 4 Y s 991 59 m 229 Y s 997 65 m -6 X s 994 72 m -3 X s 994 80 m -3 X
 s 994 87 m -3 X s 994 95 m -3 X s 997 102 m -6 X s 994 110 m -3 X s 994 117 m -3 X s 994 125 m -3 X s 994 132 m -3 X s 997 140 m -6 X s 994 148 m -3 X s 994 155 m -3 X s 994 163 m -3 X s 994 170 m -3 X s 997 178 m -6 X s 994 185 m -3 X s 994 193 m
 -3 X s 994 200 m -3 X s 994 208 m -3 X s 997 215 m -6 X s 994 223 m -3 X s 994 230 m -3 X s 994 238 m -3 X s 994 245 m -3 X s 997 253 m -6 X s 997 65 m -6 X s 997 253 m -6 X s 994 260 m -3 X s 994 268 m -3 X s 994 276 m -3 X s 994 283 m -3 X s
 gsave  408 306 930 13 C 923.04 56.9778 t 0 r /Helvetica findfont 22.8295 sf 0 0 m (\2550.035) show NC gr 
 gsave  408 306 930 13 C 937.285 94.0134 t 0 r /Helvetica findfont 22.8295 sf 0 0 m (\2550.03) show NC gr 
 gsave  408 306 930 13 C 923.04 133.898 t 0 r /Helvetica findfont 22.8295 sf 0 0 m (\2550.025) show NC gr 
 gsave  408 306 930 13 C 937.285 170.933 t 0 r /Helvetica findfont 22.8295 sf 0 0 m (\2550.02) show NC gr 
 gsave  408 306 930 13 C 923.04 207.969 t 0 r /Helvetica findfont 22.8295 sf 0 0 m (\2550.015) show NC gr 
 gsave  408 306 930 13 C 940.134 245.005 t 0 r /Helvetica findfont 22.8295 sf 0 0 m (\2550.01) show NC gr  1297 59 m 229 Y s 1292 65 m 5 X s 1294 72 m 3 X s 1294 80 m 3 X s 1294 87 m 3 X s 1294 95 m 3 X s 1292 102 m 5 X s 1294 110 m 3 X s 1294 117 m
 3 X s 1294 125 m 3 X s 1294 132 m 3 X s 1292 140 m 5 X s 1294 148 m 3 X s 1294 155 m 3 X s 1294 163 m 3 X s 1294 170 m 3 X s 1292 178 m 5 X s 1294 185 m 3 X s 1294 193 m 3 X s 1294 200 m 3 X s 1294 208 m 3 X s 1292 215 m 5 X s 1294 223 m 3 X s 1294
 230 m 3 X s 1294 238 m 3 X s 1294 245 m 3 X s 1292 253 m 5 X s 1292 65 m 5 X s 1292 253 m 5 X s 1294 260 m 3 X s 1294 268 m 3 X s 1294 276 m 3 X s 1294 283 m 3 X s 1136 166 1281 181 2 { m21} R 1136 178 m 76 Y s 1130 254 m 12 X s 1136 155 m -77 Y s
 1130 78 m 12 X s 1281 192 m 77 Y s 1275 269 m 12 X s 1281 169 m -76 Y s 1275 93 m 12 X s 9 lw 0.95 0.95 0.95 c black 1054 288 m 3 -1 d 3 -2 d 3 -2 d 3 -2 d 3 -2 d 3 -2 d 3 -2 d 3 -2 d 3 -2 d 3 -2 d 3 -1 d 3 -2 d 4 -2 d 3 -2 d 3 -2 d 3 -2 d 3 -2 d 3
 -2 d 3 -2 d 3 -2 d 3 -2 d 3 -2 d 3 -2 d 3 -2 d 3 -1 d 3 -2 d 3 -2 d 3 -2 d 4 -2 d 3 -2 d 3 -2 d 3 -2 d 3 -2 d 3 -2 d 3 -2 d 3 -2 d 3 -2 d 3 -1 d 3 -2 d 3 -2 d 3 -2 d 3 -2 d 3 -2 d 3 -2 d 4 -2 d 3 -2 d 3 -2 d 3 -2 d 3 -2 d s 1204 194 m 3 -2 d 3 -2 d
 3 -1 d 3 -2 d 3 -2 d 3 -2 d 3 -2 d 3 -2 d 3 -2 d 3 -2 d 3 -2 d 3 -2 d 4 -2 d 3 -2 d 3 -2 d 3 -2 d 3 -1 d 3 -2 d 3 -2 d 3 -2 d 3 -2 d 3 -2 d 3 -2 d 3 -2 d 3 -2 d 3 -2 d 3 -2 d 3 -2 d 4 -2 d 3 -1 d s 0.49 0.6 0.82 c black 0.49 0.6 0.82 c
 gsave  408 306 930 13 C 1051.24 296.285 t 0 r /Helvetica-Bold findfont 25.6831 sf 0 0 m (8.5 < E < 9.0 GeV) show NC gr  0.52 0.76 0.64 c black 0.52 0.76 0.64 c
 gsave  408 306 930 13 C 1031.3 259.249 t 0 r /Helvetica-Bold findfont 25.6831 sf 0 0 m 
 228 214 200 193 178 171 156 149 133 126 119 105 91 77 69 55 47 39 25 17
(A = \2550.000, p = 1.000) K NC gr  1 0.6 1 c black 1 0.6 1 c
 gsave  408 306 930 13 C 1336.13 128.2 t 90 r /Helvetica-Bold findfont 28.5368 sf 0 0 m (/dof=0.8) show NC gr  black 1 0.6 1 c
 gsave  408 306 930 13 C 1324.73 116.804 t 90 r /Helvetica-Bold findfont 19.9758 sf 0 0 m (2) show NC gr  black 1 0.6 1 c
 gsave  408 306 930 13 C 1336.13 99.7112 t 90 r /Symbol findfont 28.5368 sf 0 0 m (c) show NC gr  black 3 lw 1 1 1 c 408 306 1383 13 bf black 1 1 1 c black 306 229 1445 59 bl 306 229 1445 59 bl 1445 59 m 306 X s 1445 63 m -4 Y s 1558 63 m -4 Y s 1672
 63 m -4 Y s 1672 63 m -4 Y s
 gsave  408 306 1383 13 C 1435.84 39.8845 t 0 r /Helvetica findfont 22.8295 sf 0 0 m (0) show NC gr 
 gsave  408 306 1383 13 C 1535.55 39.8845 t 0 r /Helvetica findfont 22.8295 sf 0 0 m (200) show NC gr 
 gsave  408 306 1383 13 C 1649.51 39.8845 t 0 r /Helvetica findfont 22.8295 sf 0 0 m (400) show NC gr  1445 288 m 306 X s 1445 284 m 4 Y s 1558 284 m 4 Y s 1672 284 m 4 Y s 1672 284 m 4 Y s 1445 59 m 229 Y s 1450 72 m -5 X s 1447 78 m -2 X s 1447 85
 m -2 X s 1447 92 m -2 X s 1447 99 m -2 X s 1450 105 m -5 X s 1447 112 m -2 X s 1447 119 m -2 X s 1447 125 m -2 X s 1447 132 m -2 X s 1450 139 m -5 X s 1447 146 m -2 X s 1447 152 m -2 X s 1447 159 m -2 X s 1447 166 m -2 X s 1450 172 m -5 X s 1447 179
 m -2 X s 1447 186 m -2 X s 1447 193 m -2 X s 1447 199 m -2 X s 1450 206 m -5 X s 1447 213 m -2 X s 1447 220 m -2 X s 1447 226 m -2 X s 1447 233 m -2 X s 1450 240 m -5 X s 1447 246 m -2 X s 1447 253 m -2 X s 1447 260 m -2 X s 1447 267 m -2 X s 1450
 273 m -5 X s 1450 72 m -5 X s 1447 65 m -2 X s 1450 273 m -5 X s 1447 280 m -2 X s 1447 287 m -2 X s
 gsave  408 306 1383 13 C 1376.01 65.5245 t 0 r /Helvetica findfont 22.8295 sf 0 0 m (\2550.005) show NC gr 
 gsave  408 306 1383 13 C 1427.29 96.8623 t 0 r /Helvetica findfont 22.8295 sf 0 0 m (0) show NC gr 
 gsave  408 306 1383 13 C 1384.56 131.049 t 0 r /Helvetica findfont 22.8295 sf 0 0 m (0.005) show NC gr 
 gsave  408 306 1383 13 C 1398.81 165.236 t 0 r /Helvetica findfont 22.8295 sf 0 0 m (0.01) show NC gr 
 gsave  408 306 1383 13 C 1384.56 199.422 t 0 r /Helvetica findfont 22.8295 sf 0 0 m (0.015) show NC gr 
 gsave  408 306 1383 13 C 1395.96 233.609 t 0 r /Helvetica findfont 22.8295 sf 0 0 m (0.02) show NC gr 
 gsave  408 306 1383 13 C 1384.56 264.947 t 0 r /Helvetica findfont 22.8295 sf 0 0 m (0.025) show NC gr  1751 59 m 229 Y s 1745 72 m 6 X s 1748 78 m 3 X s 1748 85 m 3 X s 1748 92 m 3 X s 1748 99 m 3 X s 1745 105 m 6 X s 1748 112 m 3 X s 1748 119 m 3
 X s 1748 125 m 3 X s 1748 132 m 3 X s 1745 139 m 6 X s 1748 146 m 3 X s 1748 152 m 3 X s 1748 159 m 3 X s 1748 166 m 3 X s 1745 172 m 6 X s 1748 179 m 3 X s 1748 186 m 3 X s 1748 193 m 3 X s 1748 199 m 3 X s 1745 206 m 6 X s 1748 213 m 3 X s 1748
 220 m 3 X s 1748 226 m 3 X s 1748 233 m 3 X s 1745 240 m 6 X s 1748 246 m 3 X s 1748 253 m 3 X s 1748 260 m 3 X s 1748 267 m 3 X s 1745 273 m 6 X s 1745 72 m 6 X s 1748 65 m 3 X s 1745 273 m 6 X s 1748 280 m 3 X s 1748 287 m 3 X s 1590 183 1735 164
 2 { m21} R 1590 195 m 74 Y s 1584 269 m 11 X s 1590 172 m -75 Y s 1584 97 m 11 X s 1735 175 m 75 Y s 1729 250 m 11 X s 1735 153 m -75 Y s 1729 78 m 11 X s 9 lw 0.95 0.95 0.95 c black 1446 106 m 3 1 d 3 X 3 1 d 3 1 d 3 1 d 3 1 d 3 X 4 1 d 3 1 d 3 1 d
 3 1 d 3 1 d 3 X 3 1 d 3 1 d 3 1 d 3 1 d 3 1 d 3 X 3 1 d 3 1 d 3 1 d 3 1 d 4 1 d 3 X 3 1 d 3 1 d 3 1 d 3 1 d 3 X 3 1 d 3 1 d 3 1 d 3 1 d 3 1 d 3 X 3 1 d 3 1 d 3 1 d 4 1 d 3 1 d 3 X 3 1 d 3 1 d 3 1 d 3 1 d 3 X 3 1 d 3 1 d s 1596 146 m 3 1 d 3 1 d 3 1
 d 3 X 3 1 d 3 1 d 4 1 d 3 1 d 3 1 d 3 X 3 1 d 3 1 d 3 1 d 3 1 d 3 1 d 3 X 3 1 d 3 1 d 3 1 d 3 1 d 3 X 3 1 d 3 1 d 4 1 d 3 1 d 3 1 d 3 X 3 1 d 3 1 d 3 1 d 3 1 d 3 1 d 3 X 3 1 d 3 1 d 3 1 d 3 1 d 3 X 3 1 d 4 1 d 3 1 d 3 1 d 3 1 d 3 X 3 1 d 3 1 d 3 1 d
 3 1 d 3 1 d s 1746 187 m 3 X s 0.49 0.6 0.82 c black 0.49 0.6 0.82 c
 gsave  408 306 1383 13 C 1504.21 296.285 t 0 r /Helvetica-Bold findfont 25.6831 sf 0 0 m (9.0 < E < 9.5 GeV) show NC gr  0.52 0.76 0.64 c black 0.52 0.76 0.64 c
 gsave  408 306 1383 13 C 1489.97 259.249 t 0 r /Helvetica-Bold findfont 25.6831 sf 0 0 m 
 220 206 192 185 170 163 148 141 126 118 111 97 83 69 61 47 40 25 18
(A = 0.000, p = 1.000) K NC gr  1 0.6 1 c black 1 0.6 1 c
 gsave  408 306 1383 13 C 1789.1 128.2 t 90 r /Helvetica-Bold findfont 28.5368 sf 0 0 m (/dof=0.3) show NC gr  black 1 0.6 1 c
 gsave  408 306 1383 13 C 1777.71 116.804 t 90 r /Helvetica-Bold findfont 19.9758 sf 0 0 m (2) show NC gr  black 1 0.6 1 c
 gsave  408 306 1383 13 C 1789.1 99.7112 t 90 r /Symbol findfont 28.5368 sf 0 0 m (c) show NC gr  black 3 lw 1 1 1 c 408 306 1837 13 bf black 1 1 1 c black 306 229 1898 59 bl 306 229 1898 59 bl 1898 59 m 306 X s 1898 63 m -4 Y s 2012 63 m -4 Y s 2126
 63 m -4 Y s 2126 63 m -4 Y s
 gsave  408 306 1837 13 C 1888.81 39.8845 t 0 r /Helvetica findfont 22.8295 sf 0 0 m (0) show NC gr 
 gsave  408 306 1837 13 C 1991.37 39.8845 t 0 r /Helvetica findfont 22.8295 sf 0 0 m (200) show NC gr 
 gsave  408 306 1837 13 C 2105.33 39.8845 t 0 r /Helvetica findfont 22.8295 sf 0 0 m (400) show NC gr  1898 288 m 306 X s 1898 284 m 4 Y s 2012 284 m 4 Y s 2126 284 m 4 Y s 2126 284 m 4 Y s 1898 59 m 229 Y s 1904 76 m -6 X s 1901 82 m -3 X s 1901 89
 m -3 X s 1901 96 m -3 X s 1901 103 m -3 X s 1904 110 m -6 X s 1901 117 m -3 X s 1901 123 m -3 X s 1901 130 m -3 X s 1901 137 m -3 X s 1904 144 m -6 X s 1901 151 m -3 X s 1901 158 m -3 X s 1901 165 m -3 X s 1901 171 m -3 X s 1904 178 m -6 X s 1901
 185 m -3 X s 1901 192 m -3 X s 1901 199 m -3 X s 1901 206 m -3 X s 1904 213 m -6 X s 1901 219 m -3 X s 1901 226 m -3 X s 1901 233 m -3 X s 1901 240 m -3 X s 1904 247 m -6 X s 1901 254 m -3 X s 1901 260 m -3 X s 1901 267 m -3 X s 1901 274 m -3 X s
 1904 281 m -6 X s 1904 76 m -6 X s 1901 69 m -3 X s 1901 62 m -3 X s 1904 281 m -6 X s 1901 288 m -3 X s
 gsave  408 306 1837 13 C 1846.08 68.3734 t 0 r /Helvetica findfont 22.8295 sf 0 0 m (\2550.01) show NC gr 
 gsave  408 306 1837 13 C 1828.99 102.56 t 0 r /Helvetica findfont 22.8295 sf 0 0 m (\2550.005) show NC gr 
 gsave  408 306 1837 13 C 1880.27 136.747 t 0 r /Helvetica findfont 22.8295 sf 0 0 m (0) show NC gr 
 gsave  408 306 1837 13 C 1837.53 170.933 t 0 r /Helvetica findfont 22.8295 sf 0 0 m (0.005) show NC gr 
 gsave  408 306 1837 13 C 1851.78 205.12 t 0 r /Helvetica findfont 22.8295 sf 0 0 m (0.01) show NC gr 
 gsave  408 306 1837 13 C 1837.53 239.307 t 0 r /Helvetica findfont 22.8295 sf 0 0 m (0.015) show NC gr 
 gsave  408 306 1837 13 C 1848.93 273.493 t 0 r /Helvetica findfont 22.8295 sf 0 0 m (0.02) show NC gr  2204 59 m 229 Y s 2199 76 m 5 X s 2201 82 m 3 X s 2201 89 m 3 X s 2201 96 m 3 X s 2201 103 m 3 X s 2199 110 m 5 X s 2201 117 m 3 X s 2201 123 m 3
 X s 2201 130 m 3 X s 2201 137 m 3 X s 2199 144 m 5 X s 2201 151 m 3 X s 2201 158 m 3 X s 2201 165 m 3 X s 2201 171 m 3 X s 2199 178 m 5 X s 2201 185 m 3 X s 2201 192 m 3 X s 2201 199 m 3 X s 2201 206 m 3 X s 2199 213 m 5 X s 2201 219 m 3 X s 2201
 226 m 3 X s 2201 233 m 3 X s 2201 240 m 3 X s 2199 247 m 5 X s 2201 254 m 3 X s 2201 260 m 3 X s 2201 267 m 3 X s 2201 274 m 3 X s 2199 281 m 5 X s 2199 76 m 5 X s 2201 69 m 3 X s 2201 62 m 3 X s 2199 281 m 5 X s 2201 288 m 3 X s 2043 170 2188 177 2
 { m21} R 2043 182 m 81 Y s 2037 263 m 12 X s 2043 159 m -81 Y s 2037 78 m 12 X s 2188 188 m 81 Y s 2183 269 m 11 X s 2188 165 m -81 Y s 2183 84 m 11 X s 9 lw 0.95 0.95 0.95 c black 1900 144 m 3 1 d 6 X 3 1 d 3 X 3 1 d 6 X 3 1 d 6 X 3 1 d 3 X 3 1 d 7
 X 3 1 d 3 X 3 1 d 6 X 3 1 d 3 X 3 1 d 6 X 3 1 d 6 X 3 1 d 4 X 3 1 d 6 X 3 1 d 3 X 3 1 d 6 X 3 1 d 6 X 3 1 d 3 X 3 1 d 6 X 4 1 d 3 X s 2050 163 m 3 1 d 6 X 3 1 d 6 X 3 1 d 3 X 3 1 d 6 X 3 1 d 3 X 3 1 d 7 X 3 1 d 3 X 3 1 d 6 X 3 1 d 6 X 3 1 d 3 X 3 1
 d 6 X 3 1 d 4 X 3 1 d 6 X 3 1 d 6 X 3 1 d 3 X 3 1 d 6 X 3 1 d 3 X 3 1 d 7 X 3 1 d 3 X s 2200 182 m 3 1 d s 0.49 0.6 0.82 c black 0.49 0.6 0.82 c
 gsave  408 306 1837 13 C 1948.64 296.285 t 0 r /Helvetica-Bold findfont 25.6831 sf 0 0 m (9.5 < E < 10.0 GeV) show NC gr  0.52 0.76 0.64 c black 0.52 0.76 0.64 c
 gsave  408 306 1837 13 C 1942.94 259.249 t 0 r /Helvetica-Bold findfont 25.6831 sf 0 0 m 
 220 206 192 185 170 163 148 141 125 118 111 97 83 69 61 47 40 25 18
(A = 0.000, p = 1.000) K NC gr  1 0.6 1 c black 1 0.6 1 c
 gsave  408 306 1837 13 C 2242.08 128.2 t 90 r /Helvetica-Bold findfont 28.5368 sf 0 0 m (/dof=0.0) show NC gr  black 1 0.6 1 c
 gsave  408 306 1837 13 C 2230.68 116.804 t 90 r /Helvetica-Bold findfont 19.9758 sf 0 0 m (2) show NC gr  black 1 0.6 1 c
 gsave  408 306 1837 13 C 2242.08 99.7112 t 90 r /Symbol findfont 28.5368 sf 0 0 m (c) show NC gr 
 gr  gr showpage
end
%%EOF
