%!PS-Adobe-2.0 EPSF-2.0
%%BoundingBox:  0 0 567 332
%%Title: LBNENDY_far_summary.eps: Summary
%%Creator: ROOT Version 5.30/06
%%CreationDate: Sun Feb  2 09:34:24 2014
%%EndComments
%%BeginProlog
80 dict begin
/s {stroke} def /l {lineto} def /m {moveto} def /t {translate} def
/r {rotate} def /rl {roll}  def /R {repeat} def
/d {rlineto} def /rm {rmoveto} def /gr {grestore} def /f {eofill} def
/c {setrgbcolor} def /black {0 setgray} def /sd {setdash} def
/cl {closepath} def /sf {scalefont setfont} def /lw {setlinewidth} def
/box {m dup 0 exch d exch 0 d 0 exch neg d cl} def
/NC{systemdict begin initclip end}def/C{NC box clip newpath}def
/bl {box s} def /bf {box f} def /Y { 0 exch d} def /X { 0 d} def 
/K {{pop pop 0 moveto} exch kshow} bind def
/ita {/ang 15 def gsave [1 0 ang dup sin exch cos div 1 0 0] concat} def 
/mp {newpath /y exch def /x exch def} def
/side {[w .77 mul w .23 mul] .385 w mul sd w 0 l currentpoint t -144 r} def
/mr {mp x y w2 0 360 arc} def /m24 {mr s} def /m20 {mr f} def
/mb {mp x y w2 add m w2 neg 0 d 0 w neg d w 0 d 0 w d cl} def
/mt {mp x y w2 add m w2 neg w neg d w 0 d cl} def
/m21 {mb f} def /m25 {mb s} def /m22 {mt f} def /m26{mt s} def
/m23 {mp x y w2 sub m w2 w d w neg 0 d cl f} def
/m27 {mp x y w2 add m w3 neg w2 neg d w3 w2 neg d w3 w2 d cl s} def
/m28 {mp x w2 sub y w2 sub w3 add m w3 0 d  0 w3 neg d w3 0 d 0 w3 d w3 0 d  0 w3 d w3 neg 0 d 0 w3 d w3 neg 0 d 0 w3 neg d w3 neg 0 d cl s } def
/m29 {mp gsave x w2 sub y w2 add w3 sub m currentpoint t 4 {side} repeat cl fill gr} def
/m30 {mp gsave x w2 sub y w2 add w3 sub m currentpoint t 4 {side} repeat cl s gr} def
/m31 {mp x y w2 sub m 0 w d x w2 sub y m w 0 d x w2 sub y w2 add m w w neg d x w2 sub y w2 sub m w w d s} def
/m32 {mp x y w2 sub m w2 w d w neg 0 d cl s} def
/m33 {mp x y w2 add m w3 neg w2 neg d w3 w2 neg d w3 w2 d cl f} def
/m34 {mp x w2 sub y w2 sub w3 add m w3 0 d  0 w3 neg d w3 0 d 0 w3 d w3 0 d  0 w3 d w3 neg 0 d 0 w3 d w3 neg 0 d 0 w3 neg d w3 neg 0 d cl f } def
/m2 {mp x y w2 sub m 0 w d x w2 sub y m w 0 d s} def
/m5 {mp x w2 sub y w2 sub m w w d x w2 sub y w2 add m w w neg d s} def
/reEncode {exch findfont dup length dict begin {1 index /FID eq  {pop pop} {def} ifelse } forall /Encoding exch def currentdict end dup /FontName get exch definefont pop } def [/Times-Bold /Times-Italic /Times-BoldItalic /Helvetica /Helvetica-Oblique
 /Helvetica-Bold /Helvetica-BoldOblique /Courier /Courier-Oblique /Courier-Bold /Courier-BoldOblique /Times-Roman /AvantGarde-Book /AvantGarde-BookOblique /AvantGarde-Demi /AvantGarde-DemiOblique /Bookman-Demi /Bookman-DemiItalic /Bookman-Light
 /Bookman-LightItalic /Helvetica-Narrow /Helvetica-Narrow-Bold /Helvetica-Narrow-BoldOblique /Helvetica-Narrow-Oblique /NewCenturySchlbk-Roman /NewCenturySchlbk-Bold /NewCenturySchlbk-BoldItalic /NewCenturySchlbk-Italic /Palatino-Bold
 /Palatino-BoldItalic /Palatino-Italic /Palatino-Roman ] {ISOLatin1Encoding reEncode } forall%%EndProlog
%%BeginSetup
%%EndSetup
newpath  gsave  .25 .25 scale  gsave  0 0 t black[  ] 0 sd 3 lw 1 1 1 c 2268 1328 0 0 bf black 1 1 1 c black 1588 996 340 199 bl 1588 996 340 199 bl 1 1 1 c 1 0 0 c /w 23 def /w2 {w 2 div} def /w3 {w 3 div} def 380 398 m21 459 398 m21 539 398 m21 618
 398 m21 697 398 m21 777 398 m21 856 398 m21 935 398 m21 1015 398 m21 1094 398 m21 1174 398 m21 black 1253 384 m 3 Y s 1253 410 m 2 Y s 1247 384 m 12 X s 1247 412 m 12 X s 1 0 0 c 1253 398 m21 black 1332 381 m 6 Y s 1332 410 m 6 Y s 1327 381 m 11 X s
 1327 416 m 11 X s 1 0 0 c 1332 398 m21 black 1412 378 m 9 Y s 1412 410 m 9 Y s 1406 378 m 11 X s 1406 419 m 11 X s 1 0 0 c 1412 398 m21 black 1491 375 m 12 Y s 1491 410 m 11 Y s 1485 375 m 12 X s 1485 421 m 12 X s 1 0 0 c 1491 398 m21 black 1570 373
 m 14 Y s 1570 410 m 14 Y s 1565 373 m 11 X s 1565 424 m 11 X s 1 0 0 c 1570 398 m21 black 1650 371 m 16 Y s 1650 410 m 16 Y s 1644 371 m 11 X s 1644 426 m 11 X s 1 0 0 c 1650 398 m21 black 1729 369 m 18 Y s 1729 410 m 18 Y s 1723 369 m 12 X s 1723
 428 m 12 X s 1 0 0 c 1729 398 m21 black 1809 367 m 20 Y s 1809 410 m 20 Y s 1803 367 m 11 X s 1803 430 m 11 X s 1 0 0 c 1809 398 m21 black 1888 364 m 23 Y s 1888 410 m 22 Y s 1882 364 m 12 X s 1882 432 m 12 X s 1 0 0 c 1888 398 m21 black 340 199 m
 1588 X s
 gsave  2268 1328 0 0 C 954.378 68.3734 t 0 r /Helvetica findfont 62.6756 sf 0 0 m ( Energy \(GeV\) ) show NC gr 
 gsave  2268 1328 0 0 C 928.738 51.28 t 0 r /Symbol findfont 42.7334 sf 0 0 m (m) show NC gr 
 gsave  2268 1328 0 0 C 894.552 68.3734 t 0 r /Symbol findfont 62.6756 sf 0 0 m (n) show NC gr  340 216 m -17 Y s 372 208 m -9 Y s 404 208 m -9 Y s 435 208 m -9 Y s 467 208 m -9 Y s 499 216 m -17 Y s 531 208 m -9 Y s 562 208 m -9 Y s 594 208 m -9 Y s
 626 208 m -9 Y s 658 216 m -17 Y s 689 208 m -9 Y s 721 208 m -9 Y s 753 208 m -9 Y s 785 208 m -9 Y s 816 216 m -17 Y s 848 208 m -9 Y s 880 208 m -9 Y s 912 208 m -9 Y s 943 208 m -9 Y s 975 216 m -17 Y s 1007 208 m -9 Y s 1039 208 m -9 Y s 1070
 208 m -9 Y s 1102 208 m -9 Y s 1134 216 m -17 Y s 1166 208 m -9 Y s 1197 208 m -9 Y s 1229 208 m -9 Y s 1261 208 m -9 Y s 1293 216 m -17 Y s 1324 208 m -9 Y s 1356 208 m -9 Y s 1388 208 m -9 Y s 1420 208 m -9 Y s 1451 216 m -17 Y s 1483 208 m -9 Y s
 1515 208 m -9 Y s 1547 208 m -9 Y s 1578 208 m -9 Y s 1610 216 m -17 Y s 1642 208 m -9 Y s 1674 208 m -9 Y s 1705 208 m -9 Y s 1737 208 m -9 Y s 1769 216 m -17 Y s 1801 208 m -9 Y s 1832 208 m -9 Y s 1864 208 m -9 Y s 1896 208 m -9 Y s 1928 216 m
 -17 Y s
 gsave  2268 1328 0 0 C 319.076 136.747 t 0 r /Helvetica findfont 68.3734 sf 0 0 m (0) show NC gr 
 gsave  2268 1328 0 0 C 484.311 136.747 t 0 r /Helvetica findfont 68.3734 sf 0 0 m (1) show NC gr 
 gsave  2268 1328 0 0 C 635.302 136.747 t 0 r /Helvetica findfont 68.3734 sf 0 0 m (2) show NC gr 
 gsave  2268 1328 0 0 C 794.84 136.747 t 0 r /Helvetica findfont 68.3734 sf 0 0 m (3) show NC gr 
 gsave  2268 1328 0 0 C 954.378 136.747 t 0 r /Helvetica findfont 68.3734 sf 0 0 m (4) show NC gr 
 gsave  2268 1328 0 0 C 1113.92 136.747 t 0 r /Helvetica findfont 68.3734 sf 0 0 m (5) show NC gr 
 gsave  2268 1328 0 0 C 1270.6 136.747 t 0 r /Helvetica findfont 68.3734 sf 0 0 m (6) show NC gr 
 gsave  2268 1328 0 0 C 1430.14 136.747 t 0 r /Helvetica findfont 68.3734 sf 0 0 m (7) show NC gr 
 gsave  2268 1328 0 0 C 1589.68 136.747 t 0 r /Helvetica findfont 68.3734 sf 0 0 m (8) show NC gr 
 gsave  2268 1328 0 0 C 1746.37 136.747 t 0 r /Helvetica findfont 68.3734 sf 0 0 m (9) show NC gr 
 gsave  2268 1328 0 0 C 1888.81 136.747 t 0 r /Helvetica findfont 68.3734 sf 0 0 m (10) show NC gr  340 1195 m 1588 X s 340 1178 m 17 Y s 372 1186 m 9 Y s 404 1186 m 9 Y s 435 1186 m 9 Y s 467 1186 m 9 Y s 499 1178 m 17 Y s 531 1186 m 9 Y s 562 1186
 m 9 Y s 594 1186 m 9 Y s 626 1186 m 9 Y s 658 1178 m 17 Y s 689 1186 m 9 Y s 721 1186 m 9 Y s 753 1186 m 9 Y s 785 1186 m 9 Y s 816 1178 m 17 Y s 848 1186 m 9 Y s 880 1186 m 9 Y s 912 1186 m 9 Y s 943 1186 m 9 Y s 975 1178 m 17 Y s 1007 1186 m 9 Y s
 1039 1186 m 9 Y s 1070 1186 m 9 Y s 1102 1186 m 9 Y s 1134 1178 m 17 Y s 1166 1186 m 9 Y s 1197 1186 m 9 Y s 1229 1186 m 9 Y s 1261 1186 m 9 Y s 1293 1178 m 17 Y s 1324 1186 m 9 Y s 1356 1186 m 9 Y s 1388 1186 m 9 Y s 1420 1186 m 9 Y s 1451 1178 m
 17 Y s 1483 1186 m 9 Y s 1515 1186 m 9 Y s 1547 1186 m 9 Y s 1578 1186 m 9 Y s 1610 1178 m 17 Y s 1642 1186 m 9 Y s 1674 1186 m 9 Y s 1705 1186 m 9 Y s 1737 1186 m 9 Y s 1769 1178 m 17 Y s 1801 1186 m 9 Y s 1832 1186 m 9 Y s 1864 1186 m 9 Y s 1896
 1186 m 9 Y s 1928 1178 m 17 Y s 340 199 m 996 Y s
 gsave  2268 1328 0 0 C 170.933 427.334 t 90 r /Helvetica findfont 62.6756 sf 0 0 m (Far Flux to Nominal) show NC gr  371 199 m -31 X s 355 239 m -15 X s 355 279 m -15 X s 355 319 m -15 X s 355 358 m -15 X s 371 398 m -31 X s 355 438 m -15 X s 355
 478 m -15 X s 355 518 m -15 X s 355 558 m -15 X s 371 597 m -31 X s 355 637 m -15 X s 355 677 m -15 X s 355 717 m -15 X s 355 757 m -15 X s 371 797 m -31 X s 355 836 m -15 X s 355 876 m -15 X s 355 916 m -15 X s 355 956 m -15 X s 371 996 m -31 X s
 355 1036 m -15 X s 355 1075 m -15 X s 355 1115 m -15 X s 355 1155 m -15 X s 371 1195 m -31 X s 371 199 m -31 X s
 gsave  2268 1328 0 0 C 196.573 173.782 t 0 r /Helvetica findfont 68.3734 sf 0 0 m (0.95) show NC gr 
 gsave  2268 1328 0 0 C 301.982 370.356 t 0 r /Helvetica findfont 68.3734 sf 0 0 m (1) show NC gr 
 gsave  2268 1328 0 0 C 196.573 572.627 t 0 r /Helvetica findfont 68.3734 sf 0 0 m (1.05) show NC gr 
 gsave  2268 1328 0 0 C 245.005 769.2 t 0 r /Helvetica findfont 68.3734 sf 0 0 m (1.1) show NC gr 
 gsave  2268 1328 0 0 C 196.573 971.472 t 0 r /Helvetica findfont 68.3734 sf 0 0 m (1.15) show NC gr 
 gsave  2268 1328 0 0 C 233.609 1168.04 t 0 r /Helvetica findfont 68.3734 sf 0 0 m (1.2) show NC gr  1928 199 m 996 Y s 1897 199 m 31 X s 1912 239 m 16 X s 1912 279 m 16 X s 1912 319 m 16 X s 1912 358 m 16 X s 1897 398 m 31 X s 1912 438 m 16 X s 1912
 478 m 16 X s 1912 518 m 16 X s 1912 558 m 16 X s 1897 597 m 31 X s 1912 637 m 16 X s 1912 677 m 16 X s 1912 717 m 16 X s 1912 757 m 16 X s 1897 797 m 31 X s 1912 836 m 16 X s 1912 876 m 16 X s 1912 916 m 16 X s 1912 956 m 16 X s 1897 996 m 31 X s
 1912 1036 m 16 X s 1912 1075 m 16 X s 1912 1115 m 16 X s 1912 1155 m 16 X s 1897 1195 m 31 X s 1897 199 m 31 X s 1 0 0 c 6 lw 1 1 1 c 1 0 0 c 380 398 m 1508 X s 3 lw /w 2 def /w2 {w 2 div} def /w3 {w 3 div} def 380 398 459 398 539 398 618 398 697
 398 777 398 856 398 935 398 1015 398 1094 398 1174 398 1253 398 1332 398 1412 398 1491 398 1570 398 1650 398 1729 398 1809 398 1888 398 20 { m20} R 6 lw black 1 0 0 c
 gsave  2268 1328 0 0 C 2036.96 615.36 t 0 r /Helvetica-Bold findfont 48.4311 sf 0 0 m (/dof=0.0) show NC gr  black 1 0 0 c
 gsave  2268 1328 0 0 C 2017.01 632.454 t 0 r /Helvetica-Bold findfont 34.1867 sf 0 0 m (2) show NC gr  black 1 0 0 c
 gsave  2268 1328 0 0 C 1991.37 615.36 t 0 r /Symbol findfont 48.4311 sf 0 0 m (c) show NC gr  black 3 lw 340 398 m 1588 X s
 gsave  2268 1328 0 0 C 877.458 1213.63 t 0 r /Helvetica-Bold findfont 42.7334 sf 0 0 m (255 mm) show NC gr  1 0 0 c /w 23 def /w2 {w 2 div} def /w3 {w 3 div} def 836 1228 m21 black 1 1 1 c 0 0 1 c 380 797 m21 459 797 m21 539 797 m21 618 797 m21 697
 797 m21 777 797 m21 856 797 m21 935 797 m21 1015 797 m21 1094 797 m21 black 1174 784 m 1 Y s 1174 808 m 1 Y s 1168 784 m 11 X s 1168 809 m 11 X s 0 0 1 c 1174 797 m21 black 1253 781 m 4 Y s 1253 808 m 4 Y s 1247 781 m 12 X s 1247 812 m 12 X s 0 0 1
 c 1253 797 m21 black 1332 778 m 7 Y s 1332 808 m 8 Y s 1327 778 m 11 X s 1327 816 m 11 X s 0 0 1 c 1332 797 m21 black 1412 774 m 11 Y s 1412 808 m 11 Y s 1406 774 m 11 X s 1406 819 m 11 X s 0 0 1 c 1412 797 m21 black 1491 771 m 14 Y s 1491 808 m 14
 Y s 1485 771 m 12 X s 1485 822 m 12 X s 0 0 1 c 1491 797 m21 black 1570 769 m 16 Y s 1570 808 m 16 Y s 1565 769 m 11 X s 1565 824 m 11 X s 0 0 1 c 1570 797 m21 black 1650 766 m 19 Y s 1650 808 m 19 Y s 1644 766 m 11 X s 1644 827 m 11 X s 0 0 1 c
 1650 797 m21 black 1729 764 m 21 Y s 1729 808 m 21 Y s 1723 764 m 12 X s 1723 829 m 12 X s 0 0 1 c 1729 797 m21 black 1809 762 m 23 Y s 1809 808 m 23 Y s 1803 762 m 11 X s 1803 831 m 11 X s 0 0 1 c 1809 797 m21 black 1888 759 m 26 Y s 1888 808 m 26
 Y s 1882 759 m 12 X s 1882 834 m 12 X s 0 0 1 c 1888 797 m21 6 lw 1 1 1 c 0 0 1 c 380 797 m 1508 X s 3 lw /w 2 def /w2 {w 2 div} def /w3 {w 3 div} def 380 797 459 797 539 797 618 797 697 797 777 797 856 797 935 797 1015 797 1094 797 1174 797 1253
 797 1332 797 1412 797 1491 797 1570 797 1650 797 1729 797 1809 797 1888 797 20 { m20} R 6 lw black 0 0 1 c
 gsave  2268 1328 0 0 C 2036.96 1113.92 t 0 r /Helvetica-Bold findfont 48.4311 sf 0 0 m (/dof=0.0) show NC gr  black 0 0 1 c
 gsave  2268 1328 0 0 C 2017.01 1131.01 t 0 r /Helvetica-Bold findfont 34.1867 sf 0 0 m (2) show NC gr  black 0 0 1 c
 gsave  2268 1328 0 0 C 1991.37 1113.92 t 0 r /Symbol findfont 48.4311 sf 0 0 m (c) show NC gr  black 3 lw 340 797 m 1588 X s
 gsave  2268 1328 0 0 C 1783.41 1213.63 t 0 r /Helvetica-Bold findfont 42.7334 sf 0 0 m (510 mm) show NC gr  0 0 1 c /w 23 def /w2 {w 2 div} def /w3 {w 3 div} def 1743 1228 m21
 gr  gr showpage
end
%%EOF
