%!PS-Adobe-2.0 EPSF-2.0
%%BoundingBox:  0 0 567 332
%%Title: LBNEFDX_nof_summary.eps: Summary
%%Creator: ROOT Version 5.30/06
%%CreationDate: Sun Feb  2 09:28:00 2014
%%EndComments
%%BeginProlog
80 dict begin
/s {stroke} def /l {lineto} def /m {moveto} def /t {translate} def
/r {rotate} def /rl {roll}  def /R {repeat} def
/d {rlineto} def /rm {rmoveto} def /gr {grestore} def /f {eofill} def
/c {setrgbcolor} def /black {0 setgray} def /sd {setdash} def
/cl {closepath} def /sf {scalefont setfont} def /lw {setlinewidth} def
/box {m dup 0 exch d exch 0 d 0 exch neg d cl} def
/NC{systemdict begin initclip end}def/C{NC box clip newpath}def
/bl {box s} def /bf {box f} def /Y { 0 exch d} def /X { 0 d} def 
/K {{pop pop 0 moveto} exch kshow} bind def
/ita {/ang 15 def gsave [1 0 ang dup sin exch cos div 1 0 0] concat} def 
/mp {newpath /y exch def /x exch def} def
/side {[w .77 mul w .23 mul] .385 w mul sd w 0 l currentpoint t -144 r} def
/mr {mp x y w2 0 360 arc} def /m24 {mr s} def /m20 {mr f} def
/mb {mp x y w2 add m w2 neg 0 d 0 w neg d w 0 d 0 w d cl} def
/mt {mp x y w2 add m w2 neg w neg d w 0 d cl} def
/m21 {mb f} def /m25 {mb s} def /m22 {mt f} def /m26{mt s} def
/m23 {mp x y w2 sub m w2 w d w neg 0 d cl f} def
/m27 {mp x y w2 add m w3 neg w2 neg d w3 w2 neg d w3 w2 d cl s} def
/m28 {mp x w2 sub y w2 sub w3 add m w3 0 d  0 w3 neg d w3 0 d 0 w3 d w3 0 d  0 w3 d w3 neg 0 d 0 w3 d w3 neg 0 d 0 w3 neg d w3 neg 0 d cl s } def
/m29 {mp gsave x w2 sub y w2 add w3 sub m currentpoint t 4 {side} repeat cl fill gr} def
/m30 {mp gsave x w2 sub y w2 add w3 sub m currentpoint t 4 {side} repeat cl s gr} def
/m31 {mp x y w2 sub m 0 w d x w2 sub y m w 0 d x w2 sub y w2 add m w w neg d x w2 sub y w2 sub m w w d s} def
/m32 {mp x y w2 sub m w2 w d w neg 0 d cl s} def
/m33 {mp x y w2 add m w3 neg w2 neg d w3 w2 neg d w3 w2 d cl f} def
/m34 {mp x w2 sub y w2 sub w3 add m w3 0 d  0 w3 neg d w3 0 d 0 w3 d w3 0 d  0 w3 d w3 neg 0 d 0 w3 d w3 neg 0 d 0 w3 neg d w3 neg 0 d cl f } def
/m2 {mp x y w2 sub m 0 w d x w2 sub y m w 0 d s} def
/m5 {mp x w2 sub y w2 sub m w w d x w2 sub y w2 add m w w neg d s} def
/reEncode {exch findfont dup length dict begin {1 index /FID eq  {pop pop} {def} ifelse } forall /Encoding exch def currentdict end dup /FontName get exch definefont pop } def [/Times-Bold /Times-Italic /Times-BoldItalic /Helvetica /Helvetica-Oblique
 /Helvetica-Bold /Helvetica-BoldOblique /Courier /Courier-Oblique /Courier-Bold /Courier-BoldOblique /Times-Roman /AvantGarde-Book /AvantGarde-BookOblique /AvantGarde-Demi /AvantGarde-DemiOblique /Bookman-Demi /Bookman-DemiItalic /Bookman-Light
 /Bookman-LightItalic /Helvetica-Narrow /Helvetica-Narrow-Bold /Helvetica-Narrow-BoldOblique /Helvetica-Narrow-Oblique /NewCenturySchlbk-Roman /NewCenturySchlbk-Bold /NewCenturySchlbk-BoldItalic /NewCenturySchlbk-Italic /Palatino-Bold
 /Palatino-BoldItalic /Palatino-Italic /Palatino-Roman ] {ISOLatin1Encoding reEncode } forall%%EndProlog
%%BeginSetup
%%EndSetup
newpath  gsave  .25 .25 scale  gsave  0 0 t black[  ] 0 sd 3 lw 1 1 1 c 2268 1328 0 0 bf black 1 1 1 c black 1588 996 340 199 bl 1588 996 340 199 bl 1 1 1 c 1 0 0 c /w 23 def /w2 {w 2 div} def /w3 {w 3 div} def 380 288 m21 459 288 m21 539 283 m21 618
 293 m21 697 286 m21 777 291 m21 856 292 m21 935 295 m21 1015 284 m21 1094 283 m21 black 1174 288 m 1 Y s 1174 312 m 2 Y s 1168 288 m 11 X s 1168 314 m 11 X s 1 0 0 c 1174 301 m21 black 1253 286 m 5 Y s 1253 314 m 5 Y s 1247 286 m 12 X s 1247 319 m
 12 X s 1 0 0 c 1253 303 m21 black 1332 280 m 9 Y s 1332 311 m 9 Y s 1327 280 m 11 X s 1327 320 m 11 X s 1 0 0 c 1332 300 m21 black 1412 282 m 13 Y s 1412 318 m 12 Y s 1406 282 m 11 X s 1406 330 m 11 X s 1 0 0 c 1412 306 m21 black 1491 267 m 16 Y s
 1491 305 m 15 Y s 1485 267 m 12 X s 1485 320 m 12 X s 1 0 0 c 1491 294 m21 black 1570 302 m 18 Y s 1570 343 m 18 Y s 1565 302 m 11 X s 1565 361 m 11 X s 1 0 0 c 1570 332 m21 black 1650 224 m 19 Y s 1650 266 m 19 Y s 1644 224 m 11 X s 1644 285 m 11 X
 s 1 0 0 c 1650 255 m21 black 1729 255 m 22 Y s 1729 300 m 22 Y s 1723 255 m 12 X s 1723 322 m 12 X s 1 0 0 c 1729 288 m21 black 1809 260 m 25 Y s 1809 308 m 24 Y s 1803 260 m 11 X s 1803 332 m 11 X s 1 0 0 c 1809 296 m21 black 1888 251 m 27 Y s 1888
 301 m 27 Y s 1882 251 m 12 X s 1882 328 m 12 X s 1 0 0 c 1888 289 m21 black 340 199 m 1588 X s
 gsave  2268 1328 0 0 C 954.378 68.3734 t 0 r /Helvetica findfont 62.6756 sf 0 0 m ( Energy \(GeV\) ) show NC gr 
 gsave  2268 1328 0 0 C 928.738 51.28 t 0 r /Symbol findfont 42.7334 sf 0 0 m (m) show NC gr 
 gsave  2268 1328 0 0 C 894.552 68.3734 t 0 r /Symbol findfont 62.6756 sf 0 0 m (n) show NC gr  340 216 m -17 Y s 372 208 m -9 Y s 404 208 m -9 Y s 435 208 m -9 Y s 467 208 m -9 Y s 499 216 m -17 Y s 531 208 m -9 Y s 562 208 m -9 Y s 594 208 m -9 Y s
 626 208 m -9 Y s 658 216 m -17 Y s 689 208 m -9 Y s 721 208 m -9 Y s 753 208 m -9 Y s 785 208 m -9 Y s 816 216 m -17 Y s 848 208 m -9 Y s 880 208 m -9 Y s 912 208 m -9 Y s 943 208 m -9 Y s 975 216 m -17 Y s 1007 208 m -9 Y s 1039 208 m -9 Y s 1070
 208 m -9 Y s 1102 208 m -9 Y s 1134 216 m -17 Y s 1166 208 m -9 Y s 1197 208 m -9 Y s 1229 208 m -9 Y s 1261 208 m -9 Y s 1293 216 m -17 Y s 1324 208 m -9 Y s 1356 208 m -9 Y s 1388 208 m -9 Y s 1420 208 m -9 Y s 1451 216 m -17 Y s 1483 208 m -9 Y s
 1515 208 m -9 Y s 1547 208 m -9 Y s 1578 208 m -9 Y s 1610 216 m -17 Y s 1642 208 m -9 Y s 1674 208 m -9 Y s 1705 208 m -9 Y s 1737 208 m -9 Y s 1769 216 m -17 Y s 1801 208 m -9 Y s 1832 208 m -9 Y s 1864 208 m -9 Y s 1896 208 m -9 Y s 1928 216 m
 -17 Y s
 gsave  2268 1328 0 0 C 319.076 136.747 t 0 r /Helvetica findfont 68.3734 sf 0 0 m (0) show NC gr 
 gsave  2268 1328 0 0 C 484.311 136.747 t 0 r /Helvetica findfont 68.3734 sf 0 0 m (1) show NC gr 
 gsave  2268 1328 0 0 C 635.302 136.747 t 0 r /Helvetica findfont 68.3734 sf 0 0 m (2) show NC gr 
 gsave  2268 1328 0 0 C 794.84 136.747 t 0 r /Helvetica findfont 68.3734 sf 0 0 m (3) show NC gr 
 gsave  2268 1328 0 0 C 954.378 136.747 t 0 r /Helvetica findfont 68.3734 sf 0 0 m (4) show NC gr 
 gsave  2268 1328 0 0 C 1113.92 136.747 t 0 r /Helvetica findfont 68.3734 sf 0 0 m (5) show NC gr 
 gsave  2268 1328 0 0 C 1270.6 136.747 t 0 r /Helvetica findfont 68.3734 sf 0 0 m (6) show NC gr 
 gsave  2268 1328 0 0 C 1430.14 136.747 t 0 r /Helvetica findfont 68.3734 sf 0 0 m (7) show NC gr 
 gsave  2268 1328 0 0 C 1589.68 136.747 t 0 r /Helvetica findfont 68.3734 sf 0 0 m (8) show NC gr 
 gsave  2268 1328 0 0 C 1746.37 136.747 t 0 r /Helvetica findfont 68.3734 sf 0 0 m (9) show NC gr 
 gsave  2268 1328 0 0 C 1888.81 136.747 t 0 r /Helvetica findfont 68.3734 sf 0 0 m (10) show NC gr  340 1195 m 1588 X s 340 1178 m 17 Y s 372 1186 m 9 Y s 404 1186 m 9 Y s 435 1186 m 9 Y s 467 1186 m 9 Y s 499 1178 m 17 Y s 531 1186 m 9 Y s 562 1186
 m 9 Y s 594 1186 m 9 Y s 626 1186 m 9 Y s 658 1178 m 17 Y s 689 1186 m 9 Y s 721 1186 m 9 Y s 753 1186 m 9 Y s 785 1186 m 9 Y s 816 1178 m 17 Y s 848 1186 m 9 Y s 880 1186 m 9 Y s 912 1186 m 9 Y s 943 1186 m 9 Y s 975 1178 m 17 Y s 1007 1186 m 9 Y s
 1039 1186 m 9 Y s 1070 1186 m 9 Y s 1102 1186 m 9 Y s 1134 1178 m 17 Y s 1166 1186 m 9 Y s 1197 1186 m 9 Y s 1229 1186 m 9 Y s 1261 1186 m 9 Y s 1293 1178 m 17 Y s 1324 1186 m 9 Y s 1356 1186 m 9 Y s 1388 1186 m 9 Y s 1420 1186 m 9 Y s 1451 1178 m
 17 Y s 1483 1186 m 9 Y s 1515 1186 m 9 Y s 1547 1186 m 9 Y s 1578 1186 m 9 Y s 1610 1178 m 17 Y s 1642 1186 m 9 Y s 1674 1186 m 9 Y s 1705 1186 m 9 Y s 1737 1186 m 9 Y s 1769 1178 m 17 Y s 1801 1186 m 9 Y s 1832 1186 m 9 Y s 1864 1186 m 9 Y s 1896
 1186 m 9 Y s 1928 1178 m 17 Y s 340 199 m 996 Y s
 gsave  2268 1328 0 0 C 170.933 336.169 t 90 r /Helvetica findfont 62.6756 sf 0 0 m (Near/Far Ratio to Nominal) show NC gr  371 290 m -31 X s 355 326 m -15 X s 355 362 m -15 X s 355 398 m -15 X s 355 434 m -15 X s 371 471 m -31 X s 355 507 m -15 X s
 355 543 m -15 X s 355 579 m -15 X s 355 616 m -15 X s 371 652 m -31 X s 355 688 m -15 X s 355 724 m -15 X s 355 760 m -15 X s 355 797 m -15 X s 371 833 m -31 X s 355 869 m -15 X s 355 905 m -15 X s 355 941 m -15 X s 355 978 m -15 X s 371 1014 m -31
 X s 355 1050 m -15 X s 355 1086 m -15 X s 355 1122 m -15 X s 355 1159 m -15 X s 371 1195 m -31 X s 371 290 m -31 X s 355 253 m -15 X s 355 217 m -15 X s
 gsave  2268 1328 0 0 C 301.982 262.098 t 0 r /Helvetica findfont 68.3734 sf 0 0 m (1) show NC gr 
 gsave  2268 1328 0 0 C 245.005 444.427 t 0 r /Helvetica findfont 68.3734 sf 0 0 m (1.1) show NC gr 
 gsave  2268 1328 0 0 C 233.609 623.907 t 0 r /Helvetica findfont 68.3734 sf 0 0 m (1.2) show NC gr 
 gsave  2268 1328 0 0 C 233.609 809.085 t 0 r /Helvetica findfont 68.3734 sf 0 0 m (1.3) show NC gr 
 gsave  2268 1328 0 0 C 233.609 985.716 t 0 r /Helvetica findfont 68.3734 sf 0 0 m (1.4) show NC gr 
 gsave  2268 1328 0 0 C 233.609 1170.89 t 0 r /Helvetica findfont 68.3734 sf 0 0 m (1.5) show NC gr  1928 199 m 996 Y s 1897 290 m 31 X s 1912 326 m 16 X s 1912 362 m 16 X s 1912 398 m 16 X s 1912 434 m 16 X s 1897 471 m 31 X s 1912 507 m 16 X s 1912
 543 m 16 X s 1912 579 m 16 X s 1912 616 m 16 X s 1897 652 m 31 X s 1912 688 m 16 X s 1912 724 m 16 X s 1912 760 m 16 X s 1912 797 m 16 X s 1897 833 m 31 X s 1912 869 m 16 X s 1912 905 m 16 X s 1912 941 m 16 X s 1912 978 m 16 X s 1897 1014 m 31 X s
 1912 1050 m 16 X s 1912 1086 m 16 X s 1912 1122 m 16 X s 1912 1159 m 16 X s 1897 1195 m 31 X s 1897 290 m 31 X s 1912 253 m 16 X s 1912 217 m 16 X s 1 0 0 c 6 lw 1 1 1 c 1 0 0 c 380 290 m 1203 X 3 -1 d 39 X 3 -1 d 56 X 5 1 d 89 X 6 1 d 85 X 6 -1 d
 13 X s 3 lw /w 2 def /w2 {w 2 div} def /w3 {w 3 div} def 380 290 459 290 539 290 618 290 697 290 777 290 856 290 935 290 1015 290 1094 290 1174 290 1253 290 1332 290 1412 290 1491 290 1570 290 1650 288 1729 289 1809 290 1888 289 20 { m20} R 6 lw
 black 1 0 0 c
 gsave  2268 1328 0 0 C 2036.96 316.227 t 0 r /Helvetica-Bold findfont 48.4311 sf 0 0 m (/dof=0.6) show NC gr  black 1 0 0 c
 gsave  2268 1328 0 0 C 2017.01 333.32 t 0 r /Helvetica-Bold findfont 34.1867 sf 0 0 m (2) show NC gr  black 1 0 0 c
 gsave  2268 1328 0 0 C 1991.37 316.227 t 0 r /Symbol findfont 48.4311 sf 0 0 m (c) show NC gr  black 3 lw 340 290 m 1588 X s
 gsave  2268 1328 0 0 C 333.32 1213.63 t 0 r /Helvetica-Bold findfont 39.8845 sf 0 0 m (21 m) show NC gr  1 0 0 c /w 23 def /w2 {w 2 div} def /w3 {w 3 div} def 292 1228 m21 black 1 1 1 c 0 0 1 c 380 469 m21 459 468 m21 539 463 m21 618 475 m21 697 467
 m21 777 472 m21 856 474 m21 935 476 m21 1015 464 m21 1094 463 m21 black 1174 469 m 3 Y s 1174 495 m 3 Y s 1168 469 m 11 X s 1168 498 m 11 X s 0 0 1 c 1174 484 m21 black 1253 469 m 7 Y s 1253 499 m 7 Y s 1247 469 m 12 X s 1247 506 m 12 X s 0 0 1 c
 1253 487 m21 black 1332 461 m 11 Y s 1332 495 m 10 Y s 1327 461 m 11 X s 1327 505 m 11 X s 0 0 1 c 1332 483 m21 black 1412 459 m 15 Y s 1412 496 m 15 Y s 1406 459 m 11 X s 1406 511 m 11 X s 0 0 1 c 1412 485 m21 black 1491 452 m 18 Y s 1491 492 m 18
 Y s 1485 452 m 12 X s 1485 510 m 12 X s 0 0 1 c 1491 481 m21 black 1570 468 m 21 Y s 1570 511 m 21 Y s 1565 468 m 11 X s 1565 532 m 11 X s 0 0 1 c 1570 500 m21 black 1650 412 m 23 Y s 1650 458 m 22 Y s 1644 412 m 11 X s 1644 480 m 11 X s 0 0 1 c
 1650 446 m21 black 1729 415 m 25 Y s 1729 463 m 25 Y s 1723 415 m 12 X s 1723 488 m 12 X s 0 0 1 c 1729 451 m21 black 1809 452 m 29 Y s 1809 504 m 29 Y s 1803 452 m 11 X s 1803 533 m 11 X s 0 0 1 c 1809 492 m21 black 1888 432 m 32 Y s 1888 486 m 32
 Y s 1882 432 m 12 X s 1882 518 m 12 X s 0 0 1 c 1888 475 m21 6 lw 1 1 1 c 0 0 1 c 380 471 m 91 X 22 -1 d 72 X 16 1 d 995 X 4 -1 d 21 X 13 -1 d 4 X 3 -1 d 76 X 14 1 d 25 X 9 1 d 39 X 5 1 d 68 X 6 -1 d 25 X s 3 lw /w 2 def /w2 {w 2 div} def /w3 {w 3
 div} def 380 471 459 471 539 470 618 471 697 471 777 471 856 471 935 471 1015 471 1094 471 1174 471 1253 471 1332 471 1412 471 1491 471 1570 471 1650 468 1729 469 1809 471 1888 470 20 { m20} R 6 lw black 0 0 1 c
 gsave  2268 1328 0 0 C 2036.96 515.649 t 0 r /Helvetica-Bold findfont 48.4311 sf 0 0 m (/dof=0.5) show NC gr  black 0 0 1 c
 gsave  2268 1328 0 0 C 2017.01 532.742 t 0 r /Helvetica-Bold findfont 34.1867 sf 0 0 m (2) show NC gr  black 0 0 1 c
 gsave  2268 1328 0 0 C 1991.37 515.649 t 0 r /Symbol findfont 48.4311 sf 0 0 m (c) show NC gr  black 3 lw 340 471 m 1588 X s
 gsave  2268 1328 0 0 C 695.129 1213.63 t 0 r /Helvetica-Bold findfont 39.8845 sf 0 0 m (42 m) show NC gr  0 0 1 c /w 23 def /w2 {w 2 div} def /w3 {w 3 div} def 655 1228 m21 black 1 1 1 c 1 0 1 c 380 650 m21 459 649 m21 539 643 m21 618 656 m21 697
 648 m21 777 653 m21 856 655 m21 935 658 m21 1015 645 m21 black 1094 630 m 1 Y s 1094 653 m 1 Y s 1088 630 m 12 X s 1088 654 m 12 X s 1 0 1 c 1094 642 m21 black 1174 651 m 4 Y s 1174 678 m 5 Y s 1168 651 m 11 X s 1168 683 m 11 X s 1 0 1 c 1174 667
 m21 black 1253 651 m 9 Y s 1253 683 m 8 Y s 1247 651 m 12 X s 1247 691 m 12 X s 1 0 1 c 1253 671 m21 black 1332 641 m 13 Y s 1332 677 m 13 Y s 1327 641 m 11 X s 1327 690 m 11 X s 1 0 1 c 1332 665 m21 black 1412 633 m 17 Y s 1412 673 m 17 Y s 1406
 633 m 11 X s 1406 690 m 11 X s 1 0 1 c 1412 662 m21 black 1491 629 m 21 Y s 1491 672 m 21 Y s 1485 629 m 12 X s 1485 693 m 12 X s 1 0 1 c 1491 661 m21 black 1570 655 m 24 Y s 1570 702 m 24 Y s 1565 655 m 11 X s 1565 726 m 11 X s 1 0 1 c 1570 691 m21
 black 1650 590 m 26 Y s 1650 639 m 25 Y s 1644 590 m 11 X s 1644 664 m 11 X s 1 0 1 c 1650 627 m21 black 1729 578 m 28 Y s 1729 629 m 28 Y s 1723 578 m 12 X s 1723 657 m 12 X s 1 0 1 c 1729 617 m21 black 1809 650 m 32 Y s 1809 705 m 33 Y s 1803 650
 m 11 X s 1803 738 m 11 X s 1 0 1 c 1809 694 m21 black 1888 610 m 35 Y s 1888 667 m 36 Y s 1882 610 m 12 X s 1882 703 m 12 X s 1 0 1 c 1888 656 m21 6 lw 1 1 1 c 1 0 1 c 380 652 m 55 X 24 -1 d 122 X 16 1 d 49 X 31 -1 d 37 X 10 1 d 398 X 20 1 d 68 X 23
 -1 d 48 X 13 -1 d 220 X 16 1 d 33 X 3 -1 d 20 X 3 -1 d 8 X 4 -1 d 16 -2 d 4 X 3 -1 d 12 X 3 -1 d 28 X 4 1 d 19 X 8 1 d 12 1 d 15 X 4 1 d 16 X 19 1 d 8 1 d 22 X 5 1 d 52 X 6 -1 d 24 X 6 -1 d 1 X s 3 lw /w 2 def /w2 {w 2 div} def /w3 {w 3 div} def 380
 652 459 651 539 651 618 652 697 651 777 652 856 652 935 652 1015 652 1094 652 1174 653 1253 652 1332 651 1412 651 1491 651 1570 651 1650 645 1729 649 1809 652 1888 650 20 { m20} R 6 lw black 1 0 1 c
 gsave  2268 1328 0 0 C 2036.96 715.071 t 0 r /Helvetica-Bold findfont 48.4311 sf 0 0 m (/dof=0.6) show NC gr  black 1 0 1 c
 gsave  2268 1328 0 0 C 2017.01 732.165 t 0 r /Helvetica-Bold findfont 34.1867 sf 0 0 m (2) show NC gr  black 1 0 1 c
 gsave  2268 1328 0 0 C 1991.37 715.071 t 0 r /Symbol findfont 48.4311 sf 0 0 m (c) show NC gr  black 3 lw 340 652 m 1588 X s
 gsave  2268 1328 0 0 C 1059.79 1213.63 t 0 r /Helvetica-Bold findfont 42.7334 sf 0 0 m (84 m) show NC gr  1 0 1 c /w 23 def /w2 {w 2 div} def /w3 {w 3 div} def 1018 1228 m21 black 1 1 1 c 0 0.733333 1 c 380 830 m21 459 830 m21 539 824 m21 618 837
 m21 697 829 m21 777 834 m21 856 840 m21 935 842 m21 1015 832 m21 black 1094 813 m 2 Y s 1094 838 m 1 Y s 1088 813 m 12 X s 1088 839 m 12 X s 0 0.733333 1 c 1094 826 m21 black 1174 844 m 6 Y s 1174 873 m 6 Y s 1168 844 m 11 X s 1168 879 m 11 X s 0
 0.733333 1 c 1174 861 m21 black 1253 818 m 10 Y s 1253 851 m 10 Y s 1247 818 m 12 X s 1247 861 m 12 X s 0 0.733333 1 c 1253 840 m21 black 1332 806 m 14 Y s 1332 843 m 15 Y s 1327 806 m 11 X s 1327 858 m 11 X s 0 0.733333 1 c 1332 832 m21 black 1412
 798 m 19 Y s 1412 840 m 19 Y s 1406 798 m 11 X s 1406 859 m 11 X s 0 0.733333 1 c 1412 829 m21 black 1491 774 m 23 Y s 1491 819 m 23 Y s 1485 774 m 12 X s 1485 842 m 12 X s 0 0.733333 1 c 1491 808 m21 black 1570 807 m 26 Y s 1570 856 m 27 Y s 1565
 807 m 11 X s 1565 883 m 11 X s 0 0.733333 1 c 1570 845 m21 black 1650 754 m 28 Y s 1650 805 m 28 Y s 1644 754 m 11 X s 1644 833 m 11 X s 0 0.733333 1 c 1650 793 m21 black 1729 772 m 33 Y s 1729 827 m 32 Y s 1723 772 m 12 X s 1723 859 m 12 X s 0
 0.733333 1 c 1729 816 m21 black 1809 819 m 36 Y s 1809 878 m 36 Y s 1803 819 m 11 X s 1803 914 m 11 X s 0 0.733333 1 c 1809 867 m21 black 1888 774 m 38 Y s 1888 835 m 39 Y s 1882 774 m 12 X s 1882 874 m 12 X s 0 0.733333 1 c 1888 824 m21 6 lw 1 1 1
 c 0 0.733333 1 c 380 832 m 28 X 27 -1 d 37 X 21 -1 d 19 -1 d 10 X 9 -1 d 8 1 d 16 X 10 1 d 20 1 d 14 1 d 49 X 28 -1 d 40 X 10 1 d 22 1 d 14 1 d 10 1 d 5 X 79 1 d 14 X 22 1 d 22 1 d 21 X 14 1 d 18 X 26 -1 d 33 X 22 -1 d 17 -1 d 29 X 6 1 d 6 X 8 1 d 9
 1 d 18 2 d 7 X 7 1 d 30 X 6 -1 d 7 -1 d 8 -1 d 10 -2 d 21 -4 d 7 -1 d 7 -1 d 2 X 21 -2 d 19 -2 d 14 -2 d 14 -1 d 11 -1 d 13 -1 d 14 -1 d 20 -1 d 33 -1 d 25 -2 d 17 X 12 -1 d 36 X 7 1 d 9 1 d 15 1 d 8 1 d 24 X 4 -1 d 5 X 3 -1 d 3 -1 d 4 -1 d 4 -1 d 4
 -2 d 5 -2 d 5 -3 d 16 -8 d 4 -2 d 4 -2 d 3 -1 d 3 -1 d 4 -1 d 3 -1 d 3 -1 d 19 X 4 1 d 4 1 d 4 X 4 2 d 4 1 d 6 2 d 6 2 d 11 4 d 8 3 d 5 2 d 5 2 d 4 1 d 3 1 d 8 2 d 10 3 d 17 5 d 8 2 d 6 2 d 6 1 d 6 2 d 5 X 5 1 d 4 1 d 42 X 6 -1 d 6 -1 d 6 -1 d 6 -1
 d 6 -1 d 6 -1 d 6 -2 d s 3 lw /w 2 def /w2 {w 2 div} def /w3 {w 3 div} def 380 832 459 831 539 829 618 832 697 831 777 835 856 836 935 838 1015 838 1094 836 1174 842 1253 831 1332 823 1412 819 1491 816 1570 819 1650 791 1729 813 1809 832 1888 824 20
 { m20} R 6 lw black 0 0.733333 1 c
 gsave  2268 1328 0 0 C 2036.96 914.494 t 0 r /Helvetica-Bold findfont 48.4311 sf 0 0 m (/dof=0.3) show NC gr  black 0 0.733333 1 c
 gsave  2268 1328 0 0 C 2017.01 931.587 t 0 r /Helvetica-Bold findfont 34.1867 sf 0 0 m (2) show NC gr  black 0 0.733333 1 c
 gsave  2268 1328 0 0 C 1991.37 914.494 t 0 r /Symbol findfont 48.4311 sf 0 0 m (c) show NC gr  black 3 lw 340 833 m 1588 X s
 gsave  2268 1328 0 0 C 1421.6 1213.63 t 0 r /Helvetica-Bold findfont 42.7334 sf 0 0 m (500 m) show NC gr  0 0.733333 1 c /w 23 def /w2 {w 2 div} def /w3 {w 3 div} def 1380 1228 m21 black 1 1 1 c 0.35 0.83 0.33 c 380 1011 m21 459 1006 m21 539 997 m21
 618 1008 m21 697 1006 m21 777 1023 m21 856 1070 m21 935 1111 m21 1015 1104 m21 black 1094 1060 m 4 Y s 1094 1086 m 4 Y s 1088 1060 m 12 X s 1088 1090 m 12 X s 0.35 0.83 0.33 c 1094 1075 m21 black 1174 1030 m 7 Y s 1174 1060 m 7 Y s 1168 1030 m 11 X
 s 1168 1067 m 11 X s 0.35 0.83 0.33 c 1174 1049 m21 black 1253 961 m 12 Y s 1253 995 m 12 Y s 1247 961 m 12 X s 1247 1007 m 12 X s 0.35 0.83 0.33 c 1253 984 m21 black 1332 816 m 15 Y s 1332 853 m 15 Y s 1327 816 m 11 X s 1327 868 m 11 X s 0.35 0.83
 0.33 c 1332 842 m21 black 1412 741 m 18 Y s 1412 782 m 17 Y s 1406 741 m 11 X s 1406 799 m 11 X s 0.35 0.83 0.33 c 1412 770 m21 black 1491 689 m 20 Y s 1491 732 m 20 Y s 1485 689 m 12 X s 1485 752 m 12 X s 0.35 0.83 0.33 c 1491 720 m21 black 1570
 745 m 25 Y s 1570 792 m 25 Y s 1565 745 m 11 X s 1565 817 m 11 X s 0.35 0.83 0.33 c 1570 781 m21 black 1650 794 m 29 Y s 1650 846 m 28 Y s 1644 794 m 11 X s 1644 874 m 11 X s 0.35 0.83 0.33 c 1650 834 m21 black 1729 885 m 33 Y s 1729 941 m 34 Y s
 1723 885 m 12 X s 1723 975 m 12 X s 0.35 0.83 0.33 c 1729 930 m21 black 1809 947 m 39 Y s 1809 1008 m 39 Y s 1803 947 m 11 X s 1803 1047 m 11 X s 0.35 0.83 0.33 c 1809 997 m21 black 1888 925 m 41 Y s 1888 989 m 41 Y s 1882 925 m 12 X s 1882 1030 m
 12 X s 0.35 0.83 0.33 c 1888 977 m21 6 lw 1 1 1 c 0.35 0.83 0.33 c 380 1010 m 35 -1 d 37 -3 d 7 X 60 -10 d 13 X 7 -1 d 12 1 d 13 2 d 37 8 d 13 2 d 18 X 35 -3 d 18 -1 d 12 1 d 21 2 d 19 4 d 15 3 d 15 5 d 10 4 d 13 6 d 14 8 d 28 18 d 17 11 d 7 4 d 20
 12 d 23 14 d 12 7 d 10 4 d 9 3 d 5 2 d 11 1 d 23 X 16 -3 d 30 -7 d 79 -29 d 13 -3 d 20 -3 d 19 -3 d 10 -3 d 8 -3 d 10 -4 d 12 -7 d 13 -9 d 11 -9 d 11 -10 d 11 -11 d 9 -10 d 10 -12 d 2 -2 d 6 -9 d 7 -11 d 8 -15 d 9 -17 d 27 -54 d 8 -14 d 6 -10 d 6
 -10 d 2 -3 d 9 -10 d 9 -10 d 10 -10 d 12 -11 d 19 -15 d 21 -15 d 13 -11 d 25 -22 d 9 -7 d 8 -5 d 8 -4 d 6 -1 d 7 -1 d 3 X 6 1 d 6 2 d 7 4 d 7 6 d 10 8 d 14 14 d 15 15 d 8 8 d 6 4 d 13 9 d 22 12 d 18 11 d 12 7 d 10 8 d 5 4 d 9 9 d 10 11 d 13 17 d 29
 37 d 10 12 d 8 9 d 24 27 d 14 14 d 10 10 d 10 9 d 8 5 d 7 4 d 7 2 d 9 3 d 18 X 8 -1 d 10 -3 d 9 -4 d 9 -5 d 9 -6 d 7 -5 d s 3 lw /w 2 def /w2 {w 2 div} def /w3 {w 3 div} def 380 1010 459 1006 539 995 618 1008 697 1005 777 1023 856 1070 935 1112 1015
 1103 1094 1074 1174 1055 1253 985 1332 842 1412 771 1491 720 1570 782 1650 833 1729 928 1809 999 1888 978 20 { m20} R 6 lw black 0.35 0.83 0.33 c
 gsave  2268 1328 0 0 C 2036.96 1113.92 t 0 r /Helvetica-Bold findfont 48.4311 sf 0 0 m (/dof=0.0) show NC gr  black 0.35 0.83 0.33 c
 gsave  2268 1328 0 0 C 2017.01 1131.01 t 0 r /Helvetica-Bold findfont 34.1867 sf 0 0 m (2) show NC gr  black 0.35 0.83 0.33 c
 gsave  2268 1328 0 0 C 1991.37 1113.92 t 0 r /Symbol findfont 48.4311 sf 0 0 m (c) show NC gr  black 3 lw 340 1014 m 1588 X s
 gsave  2268 1328 0 0 C 1783.41 1213.63 t 0 r /Helvetica-Bold findfont 42.7334 sf 0 0 m (2000 m) show NC gr  0.35 0.83 0.33 c /w 23 def /w2 {w 2 div} def /w3 {w 3 div} def 1743 1228 m21
 gr  gr showpage
end
%%EOF
