%!PS-Adobe-2.0 EPSF-2.0
%%BoundingBox:  0 0 567 332
%%Title: LBNENDY_nof_fits.eps: Fits
%%Creator: ROOT Version 5.30/06
%%CreationDate: Sun Feb  2 09:28:17 2014
%%EndComments
%%BeginProlog
80 dict begin
/s {stroke} def /l {lineto} def /m {moveto} def /t {translate} def
/r {rotate} def /rl {roll}  def /R {repeat} def
/d {rlineto} def /rm {rmoveto} def /gr {grestore} def /f {eofill} def
/c {setrgbcolor} def /black {0 setgray} def /sd {setdash} def
/cl {closepath} def /sf {scalefont setfont} def /lw {setlinewidth} def
/box {m dup 0 exch d exch 0 d 0 exch neg d cl} def
/NC{systemdict begin initclip end}def/C{NC box clip newpath}def
/bl {box s} def /bf {box f} def /Y { 0 exch d} def /X { 0 d} def 
/K {{pop pop 0 moveto} exch kshow} bind def
/ita {/ang 15 def gsave [1 0 ang dup sin exch cos div 1 0 0] concat} def 
/mp {newpath /y exch def /x exch def} def
/side {[w .77 mul w .23 mul] .385 w mul sd w 0 l currentpoint t -144 r} def
/mr {mp x y w2 0 360 arc} def /m24 {mr s} def /m20 {mr f} def
/mb {mp x y w2 add m w2 neg 0 d 0 w neg d w 0 d 0 w d cl} def
/mt {mp x y w2 add m w2 neg w neg d w 0 d cl} def
/m21 {mb f} def /m25 {mb s} def /m22 {mt f} def /m26{mt s} def
/m23 {mp x y w2 sub m w2 w d w neg 0 d cl f} def
/m27 {mp x y w2 add m w3 neg w2 neg d w3 w2 neg d w3 w2 d cl s} def
/m28 {mp x w2 sub y w2 sub w3 add m w3 0 d  0 w3 neg d w3 0 d 0 w3 d w3 0 d  0 w3 d w3 neg 0 d 0 w3 d w3 neg 0 d 0 w3 neg d w3 neg 0 d cl s } def
/m29 {mp gsave x w2 sub y w2 add w3 sub m currentpoint t 4 {side} repeat cl fill gr} def
/m30 {mp gsave x w2 sub y w2 add w3 sub m currentpoint t 4 {side} repeat cl s gr} def
/m31 {mp x y w2 sub m 0 w d x w2 sub y m w 0 d x w2 sub y w2 add m w w neg d x w2 sub y w2 sub m w w d s} def
/m32 {mp x y w2 sub m w2 w d w neg 0 d cl s} def
/m33 {mp x y w2 add m w3 neg w2 neg d w3 w2 neg d w3 w2 d cl f} def
/m34 {mp x w2 sub y w2 sub w3 add m w3 0 d  0 w3 neg d w3 0 d 0 w3 d w3 0 d  0 w3 d w3 neg 0 d 0 w3 d w3 neg 0 d 0 w3 neg d w3 neg 0 d cl f } def
/m2 {mp x y w2 sub m 0 w d x w2 sub y m w 0 d s} def
/m5 {mp x w2 sub y w2 sub m w w d x w2 sub y w2 add m w w neg d s} def
/reEncode {exch findfont dup length dict begin {1 index /FID eq  {pop pop} {def} ifelse } forall /Encoding exch def currentdict end dup /FontName get exch definefont pop } def [/Times-Bold /Times-Italic /Times-BoldItalic /Helvetica /Helvetica-Oblique
 /Helvetica-Bold /Helvetica-BoldOblique /Courier /Courier-Oblique /Courier-Bold /Courier-BoldOblique /Times-Roman /AvantGarde-Book /AvantGarde-BookOblique /AvantGarde-Demi /AvantGarde-DemiOblique /Bookman-Demi /Bookman-DemiItalic /Bookman-Light
 /Bookman-LightItalic /Helvetica-Narrow /Helvetica-Narrow-Bold /Helvetica-Narrow-BoldOblique /Helvetica-Narrow-Oblique /NewCenturySchlbk-Roman /NewCenturySchlbk-Bold /NewCenturySchlbk-BoldItalic /NewCenturySchlbk-Italic /Palatino-Bold
 /Palatino-BoldItalic /Palatino-Italic /Palatino-Roman ] {ISOLatin1Encoding reEncode } forall%%EndProlog
%%BeginSetup
%%EndSetup
newpath  gsave  .25 .25 scale  gsave  0 0 t black[  ] 0 sd 3 lw 1 1 1 c 2268 1328 0 0 bf black 1 1 1 c 408 305 23 1009 bf black 1 1 1 c black 306 229 84 1055 bl 306 229 84 1055 bl 84 1055 m 306 X s 84 1059 m -4 Y s 198 1059 m -4 Y s 311 1059 m -4 Y s
 311 1059 m -4 Y s
 gsave  408 305 23 1009 C 74.0711 1034.15 t 0 r /Helvetica findfont 22.8295 sf 0 0 m (0) show NC gr 
 gsave  408 305 23 1009 C 176.631 1034.15 t 0 r /Helvetica findfont 22.8295 sf 0 0 m (200) show NC gr 
 gsave  408 305 23 1009 C 290.587 1034.15 t 0 r /Helvetica findfont 22.8295 sf 0 0 m (400) show NC gr  84 1284 m 306 X s 84 1280 m 4 Y s 198 1280 m 4 Y s 311 1280 m 4 Y s 311 1280 m 4 Y s 84 1055 m 229 Y s 89 1074 m -5 X s 87 1082 m -3 X s 87 1090 m
 -3 X s 87 1097 m -3 X s 87 1105 m -3 X s 89 1113 m -5 X s 87 1121 m -3 X s 87 1129 m -3 X s 87 1136 m -3 X s 87 1144 m -3 X s 89 1152 m -5 X s 87 1160 m -3 X s 87 1167 m -3 X s 87 1175 m -3 X s 87 1183 m -3 X s 89 1191 m -5 X s 87 1198 m -3 X s 87
 1206 m -3 X s 87 1214 m -3 X s 87 1222 m -3 X s 89 1230 m -5 X s 87 1237 m -3 X s 87 1245 m -3 X s 87 1253 m -3 X s 87 1261 m -3 X s 89 1268 m -5 X s 89 1074 m -5 X s 87 1066 m -3 X s 87 1059 m -3 X s 89 1268 m -5 X s 87 1276 m -3 X s
 gsave  408 305 23 1009 C 14.2445 1068.33 t 0 r /Helvetica findfont 22.8295 sf 0 0 m (\2550.003) show NC gr 
 gsave  408 305 23 1009 C 2.84889 1105.37 t 0 r /Helvetica findfont 22.8295 sf 0 0 m (\2550.0025) show NC gr 
 gsave  408 305 23 1009 C 14.2445 1145.25 t 0 r /Helvetica findfont 22.8295 sf 0 0 m (\2550.002) show NC gr 
 gsave  408 305 23 1009 C 2.84889 1182.29 t 0 r /Helvetica findfont 22.8295 sf 0 0 m (\2550.0015) show NC gr 
 gsave  408 305 23 1009 C 17.0933 1222.17 t 0 r /Helvetica findfont 22.8295 sf 0 0 m (\2550.001) show NC gr 
 gsave  408 305 23 1009 C 2.84889 1262.06 t 0 r /Helvetica findfont 22.8295 sf 0 0 m (\2550.0005) show NC gr  390 1055 m 229 Y s 385 1074 m 5 X s 387 1082 m 3 X s 387 1090 m 3 X s 387 1097 m 3 X s 387 1105 m 3 X s 385 1113 m 5 X s 387 1121 m 3 X s
 387 1129 m 3 X s 387 1136 m 3 X s 387 1144 m 3 X s 385 1152 m 5 X s 387 1160 m 3 X s 387 1167 m 3 X s 387 1175 m 3 X s 387 1183 m 3 X s 385 1191 m 5 X s 387 1198 m 3 X s 387 1206 m 3 X s 387 1214 m 3 X s 387 1222 m 3 X s 385 1230 m 5 X s 387 1237 m
 3 X s 387 1245 m 3 X s 387 1253 m 3 X s 387 1261 m 3 X s 385 1268 m 5 X s 385 1074 m 5 X s 387 1066 m 3 X s 387 1059 m 3 X s 385 1268 m 5 X s 387 1276 m 3 X s /w 22 def /w2 {w 2 div} def /w3 {w 3 div} def 229 1160 374 1178 2 { m21} R 229 1172 m 75 Y
 s 223 1247 m 12 X s 229 1149 m -75 Y s 223 1074 m 12 X s 374 1190 m 75 Y s 368 1265 m 12 X s 374 1167 m -75 Y s 368 1092 m 12 X s 9 lw 0.95 0.95 0.95 c black 125 1284 m 3 -2 d 3 -1 d 3 -2 d 3 -2 d 4 -1 d 3 -2 d 3 -2 d 3 -1 d 3 -2 d 3 -2 d 3 -2 d 3
 -1 d 3 -2 d 3 -2 d 3 -1 d 3 -2 d 3 -2 d 3 -2 d 3 -1 d 3 -2 d 4 -2 d 3 -1 d 3 -2 d 3 -2 d 3 -2 d 3 -1 d 3 -2 d 3 -2 d 3 -1 d 3 -2 d 3 -2 d 3 -2 d 3 -1 d 3 -2 d 3 -2 d 3 -1 d 4 -2 d 3 -2 d 3 -1 d 3 -2 d 3 -2 d 3 -2 d 3 -1 d 3 -2 d 3 -2 d 3 -1 d 3 -2 d
 3 -2 d 3 -2 d s 275 1200 m 3 -1 d 3 -2 d 3 -2 d 3 -1 d 4 -2 d 3 -2 d 3 -2 d 3 -1 d 3 -2 d 3 -2 d 3 -1 d 3 -2 d 3 -2 d 3 -1 d 3 -2 d 3 -2 d 3 -2 d 3 -1 d 3 -2 d 3 -2 d 4 -1 d 3 -2 d 3 -2 d 3 -2 d 3 -1 d 3 -2 d 3 -2 d 3 -1 d 3 -2 d 3 -2 d 3 -2 d 3 -1
 d 3 -2 d 3 -2 d 3 -1 d 3 -2 d 4 -2 d s 0.49 0.6 0.82 c black 0.49 0.6 0.82 c
 gsave  408 305 23 1009 C 142.445 1293.4 t 0 r /Helvetica-Bold findfont 25.6831 sf 0 0 m (0.0 < E < 0.5 GeV) show NC gr  0.52 0.76 0.64 c black 0.52 0.76 0.64 c
 gsave  408 305 23 1009 C 122.502 1256.36 t 0 r /Helvetica-Bold findfont 25.6831 sf 0 0 m 
 228 214 200 193 178 171 156 149 134 126 119 105 91 77 69 55 47 39 25 17
(A = \2550.000, p = 1.000) K NC gr  1 0.6 1 c black 1 0.6 1 c
 gsave  408 305 23 1009 C 427.334 1122.46 t 90 r /Helvetica-Bold findfont 28.5368 sf 0 0 m (/dof=0.7) show NC gr  black 1 0.6 1 c
 gsave  408 305 23 1009 C 415.938 1111.07 t 90 r /Helvetica-Bold findfont 19.9758 sf 0 0 m (2) show NC gr  black 1 0.6 1 c
 gsave  408 305 23 1009 C 427.334 1093.97 t 90 r /Symbol findfont 28.5368 sf 0 0 m (c) show NC gr  black 3 lw 1 1 1 c 408 305 476 1009 bf black 1 1 1 c black 307 229 537 1055 bl 307 229 537 1055 bl 537 1055 m 307 X s 537 1059 m -4 Y s 651 1059 m -4 Y
 s 765 1059 m -4 Y s 765 1059 m -4 Y s
 gsave  408 305 476 1009 C 527.045 1034.15 t 0 r /Helvetica findfont 22.8295 sf 0 0 m (0) show NC gr 
 gsave  408 305 476 1009 C 629.605 1034.15 t 0 r /Helvetica findfont 22.8295 sf 0 0 m (200) show NC gr 
 gsave  408 305 476 1009 C 743.56 1034.15 t 0 r /Helvetica findfont 22.8295 sf 0 0 m (400) show NC gr  537 1284 m 307 X s 537 1280 m 4 Y s 651 1280 m 4 Y s 765 1280 m 4 Y s 765 1280 m 4 Y s 537 1055 m 229 Y s 543 1068 m -6 X s 540 1072 m -3 X s 540
 1077 m -3 X s 540 1082 m -3 X s 540 1087 m -3 X s 543 1091 m -6 X s 540 1096 m -3 X s 540 1101 m -3 X s 540 1106 m -3 X s 540 1110 m -3 X s 543 1115 m -6 X s 540 1120 m -3 X s 540 1125 m -3 X s 540 1129 m -3 X s 540 1134 m -3 X s 543 1139 m -6 X s
 540 1144 m -3 X s 540 1148 m -3 X s 540 1153 m -3 X s 540 1158 m -3 X s 543 1163 m -6 X s 540 1167 m -3 X s 540 1172 m -3 X s 540 1177 m -3 X s 540 1182 m -3 X s 543 1186 m -6 X s 540 1191 m -3 X s 540 1196 m -3 X s 540 1201 m -3 X s 540 1205 m -3 X
 s 543 1210 m -6 X s 540 1215 m -3 X s 540 1220 m -3 X s 540 1224 m -3 X s 540 1229 m -3 X s 543 1234 m -6 X s 540 1239 m -3 X s 540 1243 m -3 X s 540 1248 m -3 X s 540 1253 m -3 X s 543 1257 m -6 X s 540 1262 m -3 X s 540 1267 m -3 X s 540 1272 m -3
 X s 540 1276 m -3 X s 543 1281 m -6 X s 543 1068 m -6 X s 540 1063 m -3 X s 540 1058 m -3 X s 543 1281 m -6 X s
 gsave  408 305 476 1009 C 455.822 1059.79 t 0 r /Helvetica findfont 22.8295 sf 0 0 m (\2550.0015) show NC gr 
 gsave  408 305 476 1009 C 470.067 1085.43 t 0 r /Helvetica findfont 22.8295 sf 0 0 m (\2550.001) show NC gr 
 gsave  408 305 476 1009 C 455.822 1108.22 t 0 r /Helvetica findfont 22.8295 sf 0 0 m (\2550.0005) show NC gr 
 gsave  408 305 476 1009 C 518.498 1131.01 t 0 r /Helvetica findfont 22.8295 sf 0 0 m (0) show NC gr 
 gsave  408 305 476 1009 C 461.52 1156.65 t 0 r /Helvetica findfont 22.8295 sf 0 0 m (0.0005) show NC gr 
 gsave  408 305 476 1009 C 478.614 1179.44 t 0 r /Helvetica findfont 22.8295 sf 0 0 m (0.001) show NC gr 
 gsave  408 305 476 1009 C 461.52 1202.23 t 0 r /Helvetica findfont 22.8295 sf 0 0 m (0.0015) show NC gr 
 gsave  408 305 476 1009 C 475.765 1227.87 t 0 r /Helvetica findfont 22.8295 sf 0 0 m (0.002) show NC gr 
 gsave  408 305 476 1009 C 461.52 1250.66 t 0 r /Helvetica findfont 22.8295 sf 0 0 m (0.0025) show NC gr 
 gsave  408 305 476 1009 C 475.765 1273.45 t 0 r /Helvetica findfont 22.8295 sf 0 0 m (0.003) show NC gr  844 1055 m 229 Y s 838 1068 m 6 X s 841 1072 m 3 X s 841 1077 m 3 X s 841 1082 m 3 X s 841 1087 m 3 X s 838 1091 m 6 X s 841 1096 m 3 X s 841
 1101 m 3 X s 841 1106 m 3 X s 841 1110 m 3 X s 838 1115 m 6 X s 841 1120 m 3 X s 841 1125 m 3 X s 841 1129 m 3 X s 841 1134 m 3 X s 838 1139 m 6 X s 841 1144 m 3 X s 841 1148 m 3 X s 841 1153 m 3 X s 841 1158 m 3 X s 838 1163 m 6 X s 841 1167 m 3 X
 s 841 1172 m 3 X s 841 1177 m 3 X s 841 1182 m 3 X s 838 1186 m 6 X s 841 1191 m 3 X s 841 1196 m 3 X s 841 1201 m 3 X s 841 1205 m 3 X s 838 1210 m 6 X s 841 1215 m 3 X s 841 1220 m 3 X s 841 1224 m 3 X s 841 1229 m 3 X s 838 1234 m 6 X s 841 1239
 m 3 X s 841 1243 m 3 X s 841 1248 m 3 X s 841 1253 m 3 X s 838 1257 m 6 X s 841 1262 m 3 X s 841 1267 m 3 X s 841 1272 m 3 X s 841 1276 m 3 X s 838 1281 m 6 X s 838 1068 m 6 X s 841 1063 m 3 X s 841 1058 m 3 X s 838 1281 m 6 X s /w 23 def /w2 {w 2
 div} def /w3 {w 3 div} def 683 1137 828 1201 2 { m21} R 683 1149 m 52 Y s 677 1201 m 11 X s 683 1126 m -52 Y s 677 1074 m 11 X s 828 1212 m 53 Y s 822 1265 m 11 X s 828 1190 m -53 Y s 822 1137 m 11 X s 1 0 0 c 9 lw 0.95 0.95 0.95 c black 1 0 0 c 539
 1139 m 28 X 3 1 d 15 X 3 1 d 9 X 3 1 d 9 X 3 1 d 7 X 3 1 d 3 X 3 1 d 6 X 3 1 d 3 X 3 1 d 3 X 3 1 d 6 X 3 1 d 3 1 d 3 X 4 1 d 3 X 3 1 d 3 X 3 1 d 3 X 3 1 d 3 1 d s 689 1155 m 3 X 3 1 d 3 1 d 3 X 3 1 d 3 1 d 3 1 d 3 X 4 1 d 3 1 d 3 1 d 3 X 3 1 d 3 1 d
 3 1 d 3 1 d 3 X 3 1 d 3 1 d 3 1 d 3 1 d 3 1 d 3 1 d 3 1 d 4 1 d 3 1 d 3 1 d 3 1 d 3 1 d 3 1 d 3 1 d 3 1 d 3 1 d 3 1 d 3 1 d 3 1 d 3 1 d 3 1 d 3 2 d 3 1 d 4 1 d 3 1 d 3 1 d 3 1 d 3 2 d 3 1 d 3 1 d 3 1 d 3 2 d s 839 1202 m 3 1 d s 0.49 0.6 0.82 c
 black 0.49 0.6 0.82 c
 gsave  408 305 476 1009 C 595.418 1293.4 t 0 r /Helvetica-Bold findfont 25.6831 sf 0 0 m (0.5 < E < 1.0 GeV) show NC gr  0.52 0.76 0.64 c black 0.52 0.76 0.64 c
 gsave  408 305 476 1009 C 581.174 1256.36 t 0 r /Helvetica-Bold findfont 25.6831 sf 0 0 m 
 220 206 192 185 170 163 148 141 125 118 111 97 83 68 61 47 40 25 18
(A = 0.000, p = 2.000) K NC gr  1 0.6 1 c black 1 0.6 1 c
 gsave  408 305 476 1009 C 883.156 1122.46 t 90 r /Helvetica-Bold findfont 28.5368 sf 0 0 m (/dof=0.1) show NC gr  black 1 0.6 1 c
 gsave  408 305 476 1009 C 871.76 1111.07 t 90 r /Helvetica-Bold findfont 19.9758 sf 0 0 m (2) show NC gr  black 1 0.6 1 c
 gsave  408 305 476 1009 C 883.156 1093.97 t 90 r /Symbol findfont 28.5368 sf 0 0 m (c) show NC gr  black 3 lw 1 1 1 c 408 305 930 1009 bf black 1 1 1 c black 306 229 991 1055 bl 306 229 991 1055 bl 991 1055 m 306 X s 991 1059 m -4 Y s 1105 1059 m -4
 Y s 1219 1059 m -4 Y s 1219 1059 m -4 Y s
 gsave  408 305 930 1009 C 980.018 1034.15 t 0 r /Helvetica findfont 22.8295 sf 0 0 m (0) show NC gr 
 gsave  408 305 930 1009 C 1082.58 1034.15 t 0 r /Helvetica findfont 22.8295 sf 0 0 m (200) show NC gr 
 gsave  408 305 930 1009 C 1196.53 1034.15 t 0 r /Helvetica findfont 22.8295 sf 0 0 m (400) show NC gr  991 1284 m 306 X s 991 1280 m 4 Y s 1105 1280 m 4 Y s 1219 1280 m 4 Y s 1219 1280 m 4 Y s 991 1055 m 229 Y s 997 1057 m -6 X s 994 1063 m -3 X s
 994 1069 m -3 X s 994 1075 m -3 X s 994 1081 m -3 X s 997 1087 m -6 X s 994 1093 m -3 X s 994 1099 m -3 X s 994 1105 m -3 X s 994 1111 m -3 X s 997 1117 m -6 X s 994 1123 m -3 X s 994 1129 m -3 X s 994 1136 m -3 X s 994 1142 m -3 X s 997 1148 m -6 X
 s 994 1154 m -3 X s 994 1160 m -3 X s 994 1166 m -3 X s 994 1172 m -3 X s 997 1178 m -6 X s 994 1184 m -3 X s 994 1190 m -3 X s 994 1196 m -3 X s 994 1202 m -3 X s 997 1208 m -6 X s 994 1214 m -3 X s 994 1220 m -3 X s 994 1226 m -3 X s 994 1232 m -3
 X s 997 1238 m -6 X s 994 1244 m -3 X s 994 1250 m -3 X s 994 1256 m -3 X s 994 1262 m -3 X s 997 1268 m -6 X s 997 1057 m -6 X s 997 1268 m -6 X s 994 1275 m -3 X s 994 1281 m -3 X s
 gsave  408 305 930 1009 C 925.889 1051.24 t 0 r /Helvetica findfont 22.8295 sf 0 0 m (\2550.001) show NC gr 
 gsave  408 305 930 1009 C 974.32 1079.73 t 0 r /Helvetica findfont 22.8295 sf 0 0 m (0) show NC gr 
 gsave  408 305 930 1009 C 934.436 1111.07 t 0 r /Helvetica findfont 22.8295 sf 0 0 m (0.001) show NC gr 
 gsave  408 305 930 1009 C 931.587 1139.56 t 0 r /Helvetica findfont 22.8295 sf 0 0 m (0.002) show NC gr 
 gsave  408 305 930 1009 C 931.587 1170.89 t 0 r /Helvetica findfont 22.8295 sf 0 0 m (0.003) show NC gr 
 gsave  408 305 930 1009 C 931.587 1202.23 t 0 r /Helvetica findfont 22.8295 sf 0 0 m (0.004) show NC gr 
 gsave  408 305 930 1009 C 931.587 1230.72 t 0 r /Helvetica findfont 22.8295 sf 0 0 m (0.005) show NC gr 
 gsave  408 305 930 1009 C 931.587 1262.06 t 0 r /Helvetica findfont 22.8295 sf 0 0 m (0.006) show NC gr  1297 1055 m 229 Y s 1292 1057 m 5 X s 1294 1063 m 3 X s 1294 1069 m 3 X s 1294 1075 m 3 X s 1294 1081 m 3 X s 1292 1087 m 5 X s 1294 1093 m 3 X
 s 1294 1099 m 3 X s 1294 1105 m 3 X s 1294 1111 m 3 X s 1292 1117 m 5 X s 1294 1123 m 3 X s 1294 1129 m 3 X s 1294 1136 m 3 X s 1294 1142 m 3 X s 1292 1148 m 5 X s 1294 1154 m 3 X s 1294 1160 m 3 X s 1294 1166 m 3 X s 1294 1172 m 3 X s 1292 1178 m 5
 X s 1294 1184 m 3 X s 1294 1190 m 3 X s 1294 1196 m 3 X s 1294 1202 m 3 X s 1292 1208 m 5 X s 1294 1214 m 3 X s 1294 1220 m 3 X s 1294 1226 m 3 X s 1294 1232 m 3 X s 1292 1238 m 5 X s 1294 1244 m 3 X s 1294 1250 m 3 X s 1294 1256 m 3 X s 1294 1262 m
 3 X s 1292 1268 m 5 X s 1292 1057 m 5 X s 1292 1268 m 5 X s 1294 1275 m 3 X s 1294 1281 m 3 X s 1136 1114 1281 1224 2 { m21} R 1136 1126 m 28 Y s 1130 1154 m 12 X s 1136 1103 m -29 Y s 1130 1074 m 12 X s 1281 1236 m 29 Y s 1275 1265 m 12 X s 1281
 1213 m -29 Y s 1275 1184 m 12 X s 1 0 0 c 9 lw 0.95 0.95 0.95 c black 1 0 0 c 993 1087 m 12 X 3 1 d 9 X 3 1 d 6 X 3 1 d 6 X 3 1 d 4 X 3 1 d 3 X 3 1 d 3 1 d 3 X 3 1 d 3 1 d 3 X 3 1 d 3 1 d 3 1 d 3 X 3 1 d 3 1 d 3 1 d 3 1 d 4 1 d 3 1 d 3 1 d 3 1 d 3 1
 d 3 2 d 3 1 d 3 1 d 3 1 d 3 1 d 3 2 d 3 1 d 3 1 d 3 2 d 3 1 d 3 2 d 4 1 d s 1143 1124 m 3 2 d 3 1 d 3 2 d 3 1 d 3 2 d 3 2 d 3 1 d 3 2 d 3 2 d 3 2 d 3 1 d 3 2 d 3 2 d 3 2 d 3 2 d 4 2 d 3 2 d 3 2 d 3 2 d 3 2 d 3 2 d 3 2 d 3 2 d 3 3 d 3 2 d 3 2 d 3 2 d
 3 3 d 3 2 d 3 2 d 3 3 d 3 2 d 4 3 d 3 2 d 3 3 d 3 2 d 3 3 d 3 3 d 3 2 d 3 3 d 3 3 d 3 2 d 3 3 d 3 3 d 3 3 d 3 3 d 3 3 d 3 2 d 4 3 d s 1293 1233 m 3 3 d s 0.49 0.6 0.82 c black 0.49 0.6 0.82 c
 gsave  408 305 930 1009 C 1051.24 1293.4 t 0 r /Helvetica-Bold findfont 25.6831 sf 0 0 m (1.0 < E < 1.5 GeV) show NC gr  0.52 0.76 0.64 c black 0.52 0.76 0.64 c
 gsave  408 305 930 1009 C 1037 1256.36 t 0 r /Helvetica-Bold findfont 25.6831 sf 0 0 m 
 220 206 192 185 170 163 148 141 125 118 111 97 83 69 61 47 40 25 18
(A = 0.000, p = 2.000) K NC gr  1 0.6 1 c black 1 0.6 1 c
 gsave  408 305 930 1009 C 1336.13 1122.46 t 90 r /Helvetica-Bold findfont 28.5368 sf 0 0 m (/dof=0.0) show NC gr  black 1 0.6 1 c
 gsave  408 305 930 1009 C 1324.73 1111.07 t 90 r /Helvetica-Bold findfont 19.9758 sf 0 0 m (2) show NC gr  black 1 0.6 1 c
 gsave  408 305 930 1009 C 1336.13 1093.97 t 90 r /Symbol findfont 28.5368 sf 0 0 m (c) show NC gr  black 3 lw 1 1 1 c 408 305 1383 1009 bf black 1 1 1 c black 306 229 1445 1055 bl 306 229 1445 1055 bl 1445 1055 m 306 X s 1445 1059 m -4 Y s 1558 1059
 m -4 Y s 1672 1059 m -4 Y s 1672 1059 m -4 Y s
 gsave  408 305 1383 1009 C 1435.84 1034.15 t 0 r /Helvetica findfont 22.8295 sf 0 0 m (0) show NC gr 
 gsave  408 305 1383 1009 C 1535.55 1034.15 t 0 r /Helvetica findfont 22.8295 sf 0 0 m (200) show NC gr 
 gsave  408 305 1383 1009 C 1649.51 1034.15 t 0 r /Helvetica findfont 22.8295 sf 0 0 m (400) show NC gr  1445 1284 m 306 X s 1445 1280 m 4 Y s 1558 1280 m 4 Y s 1672 1280 m 4 Y s 1672 1280 m 4 Y s 1445 1055 m 229 Y s 1450 1071 m -5 X s 1447 1079 m -2
 X s 1447 1088 m -2 X s 1447 1096 m -2 X s 1447 1104 m -2 X s 1450 1113 m -5 X s 1447 1121 m -2 X s 1447 1129 m -2 X s 1447 1138 m -2 X s 1447 1146 m -2 X s 1450 1154 m -5 X s 1447 1163 m -2 X s 1447 1171 m -2 X s 1447 1179 m -2 X s 1447 1188 m -2 X
 s 1450 1196 m -5 X s 1447 1204 m -2 X s 1447 1213 m -2 X s 1447 1221 m -2 X s 1447 1229 m -2 X s 1450 1238 m -5 X s 1447 1246 m -2 X s 1447 1254 m -2 X s 1447 1263 m -2 X s 1447 1271 m -2 X s 1450 1279 m -5 X s 1450 1071 m -5 X s 1447 1063 m -2 X s
 1450 1279 m -5 X s
 gsave  408 305 1383 1009 C 1376.01 1062.64 t 0 r /Helvetica findfont 22.8295 sf 0 0 m (\2550.005) show NC gr 
 gsave  408 305 1383 1009 C 1376.01 1105.37 t 0 r /Helvetica findfont 22.8295 sf 0 0 m (\2550.004) show NC gr 
 gsave  408 305 1383 1009 C 1376.01 1148.1 t 0 r /Helvetica findfont 22.8295 sf 0 0 m (\2550.003) show NC gr 
 gsave  408 305 1383 1009 C 1376.01 1187.99 t 0 r /Helvetica findfont 22.8295 sf 0 0 m (\2550.002) show NC gr 
 gsave  408 305 1383 1009 C 1378.86 1230.72 t 0 r /Helvetica findfont 22.8295 sf 0 0 m (\2550.001) show NC gr 
 gsave  408 305 1383 1009 C 1427.29 1273.45 t 0 r /Helvetica findfont 22.8295 sf 0 0 m (0) show NC gr  1751 1055 m 229 Y s 1745 1071 m 6 X s 1748 1079 m 3 X s 1748 1088 m 3 X s 1748 1096 m 3 X s 1748 1104 m 3 X s 1745 1113 m 6 X s 1748 1121 m 3 X s
 1748 1129 m 3 X s 1748 1138 m 3 X s 1748 1146 m 3 X s 1745 1154 m 6 X s 1748 1163 m 3 X s 1748 1171 m 3 X s 1748 1179 m 3 X s 1748 1188 m 3 X s 1745 1196 m 6 X s 1748 1204 m 3 X s 1748 1213 m 3 X s 1748 1221 m 3 X s 1748 1229 m 3 X s 1745 1238 m 6 X
 s 1748 1246 m 3 X s 1748 1254 m 3 X s 1748 1263 m 3 X s 1748 1271 m 3 X s 1745 1279 m 6 X s 1745 1071 m 6 X s 1748 1063 m 3 X s 1745 1279 m 6 X s 1590 1208 1735 1130 2 { m21} R 1590 1220 m 45 Y s 1584 1265 m 11 X s 1590 1197 m -45 Y s 1584 1152 m 11
 X s 1735 1141 m 45 Y s 1729 1186 m 11 X s 1735 1119 m -45 Y s 1729 1074 m 11 X s 9 lw 0.95 0.95 0.95 c black 1446 1278 m 3 -1 d 3 -2 d 3 -1 d 3 -2 d 3 -1 d 3 -2 d 3 -1 d 4 -2 d 3 -2 d 3 -1 d 3 -2 d 3 -1 d 3 -2 d 3 -1 d 3 -2 d 3 -1 d 3 -2 d 3 -2 d 3
 -1 d 3 -2 d 3 -1 d 3 -2 d 3 -1 d 4 -2 d 3 -1 d 3 -2 d 3 -2 d 3 -1 d 3 -2 d 3 -1 d 3 -2 d 3 -1 d 3 -2 d 3 -2 d 3 -1 d 3 -2 d 3 -1 d 3 -2 d 3 -1 d 4 -2 d 3 -1 d 3 -2 d 3 -2 d 3 -1 d 3 -2 d 3 -1 d 3 -2 d 3 -1 d 3 -2 d s 1596 1202 m 3 -1 d 3 -2 d 3 -2 d
 3 -1 d 3 -2 d 3 -1 d 4 -2 d 3 -1 d 3 -2 d 3 -1 d 3 -2 d 3 -2 d 3 -1 d 3 -2 d 3 -1 d 3 -2 d 3 -1 d 3 -2 d 3 -2 d 3 -1 d 3 -2 d 3 -1 d 3 -2 d 4 -1 d 3 -2 d 3 -1 d 3 -2 d 3 -2 d 3 -1 d 3 -2 d 3 -1 d 3 -2 d 3 -1 d 3 -2 d 3 -1 d 3 -2 d 3 -2 d 3 -1 d 3 -2
 d 4 -1 d 3 -2 d 3 -1 d 3 -2 d 3 -1 d 3 -2 d 3 -2 d 3 -1 d 3 -2 d 3 -1 d s 1746 1126 m 3 -2 d s 0.49 0.6 0.82 c black 0.49 0.6 0.82 c
 gsave  408 305 1383 1009 C 1504.21 1293.4 t 0 r /Helvetica-Bold findfont 25.6831 sf 0 0 m (1.5 < E < 2.0 GeV) show NC gr  0.52 0.76 0.64 c black 0.52 0.76 0.64 c
 gsave  408 305 1383 1009 C 1484.27 1256.36 t 0 r /Helvetica-Bold findfont 25.6831 sf 0 0 m 
 228 214 200 193 178 171 156 149 134 126 119 105 91 77 69 55 47 40 25 17
(A = \2550.000, p = 1.000) K NC gr  1 0.6 1 c black 1 0.6 1 c
 gsave  408 305 1383 1009 C 1789.1 1122.46 t 90 r /Helvetica-Bold findfont 28.5368 sf 0 0 m (/dof=0.0) show NC gr  black 1 0.6 1 c
 gsave  408 305 1383 1009 C 1777.71 1111.07 t 90 r /Helvetica-Bold findfont 19.9758 sf 0 0 m (2) show NC gr  black 1 0.6 1 c
 gsave  408 305 1383 1009 C 1789.1 1093.97 t 90 r /Symbol findfont 28.5368 sf 0 0 m (c) show NC gr  black 3 lw 1 1 1 c 408 305 1837 1009 bf black 1 1 1 c black 306 229 1898 1055 bl 306 229 1898 1055 bl 1898 1055 m 306 X s 1898 1059 m -4 Y s 2012 1059
 m -4 Y s 2126 1059 m -4 Y s 2126 1059 m -4 Y s
 gsave  408 305 1837 1009 C 1888.81 1034.15 t 0 r /Helvetica findfont 22.8295 sf 0 0 m (0) show NC gr 
 gsave  408 305 1837 1009 C 1991.37 1034.15 t 0 r /Helvetica findfont 22.8295 sf 0 0 m (200) show NC gr 
 gsave  408 305 1837 1009 C 2105.33 1034.15 t 0 r /Helvetica findfont 22.8295 sf 0 0 m (400) show NC gr  1898 1284 m 306 X s 1898 1280 m 4 Y s 2012 1280 m 4 Y s 2126 1280 m 4 Y s 2126 1280 m 4 Y s 1898 1055 m 229 Y s 1904 1072 m -6 X s 1901 1078 m -3
 X s 1901 1084 m -3 X s 1901 1089 m -3 X s 1901 1095 m -3 X s 1904 1101 m -6 X s 1901 1107 m -3 X s 1901 1113 m -3 X s 1901 1118 m -3 X s 1901 1124 m -3 X s 1904 1130 m -6 X s 1901 1136 m -3 X s 1901 1142 m -3 X s 1901 1147 m -3 X s 1901 1153 m -3 X
 s 1904 1159 m -6 X s 1901 1165 m -3 X s 1901 1171 m -3 X s 1901 1176 m -3 X s 1901 1182 m -3 X s 1904 1188 m -6 X s 1901 1194 m -3 X s 1901 1200 m -3 X s 1901 1205 m -3 X s 1901 1211 m -3 X s 1904 1217 m -6 X s 1901 1223 m -3 X s 1901 1229 m -3 X s
 1901 1234 m -3 X s 1901 1240 m -3 X s 1904 1246 m -6 X s 1901 1252 m -3 X s 1901 1258 m -3 X s 1901 1263 m -3 X s 1901 1269 m -3 X s 1904 1275 m -6 X s 1904 1072 m -6 X s 1901 1066 m -3 X s 1901 1061 m -3 X s 1904 1275 m -6 X s 1901 1281 m -3 X s
 gsave  408 305 1837 1009 C 1817.59 1065.48 t 0 r /Helvetica findfont 22.8295 sf 0 0 m (\2550.0025) show NC gr 
 gsave  408 305 1837 1009 C 1828.99 1093.97 t 0 r /Helvetica findfont 22.8295 sf 0 0 m (\2550.002) show NC gr 
 gsave  408 305 1837 1009 C 1817.59 1122.46 t 0 r /Helvetica findfont 22.8295 sf 0 0 m (\2550.0015) show NC gr 
 gsave  408 305 1837 1009 C 1831.84 1150.95 t 0 r /Helvetica findfont 22.8295 sf 0 0 m (\2550.001) show NC gr 
 gsave  408 305 1837 1009 C 1817.59 1179.44 t 0 r /Helvetica findfont 22.8295 sf 0 0 m (\2550.0005) show NC gr 
 gsave  408 305 1837 1009 C 1880.27 1210.78 t 0 r /Helvetica findfont 22.8295 sf 0 0 m (0) show NC gr 
 gsave  408 305 1837 1009 C 1823.29 1239.27 t 0 r /Helvetica findfont 22.8295 sf 0 0 m (0.0005) show NC gr 
 gsave  408 305 1837 1009 C 1840.38 1267.76 t 0 r /Helvetica findfont 22.8295 sf 0 0 m (0.001) show NC gr  2204 1055 m 229 Y s 2199 1072 m 5 X s 2201 1078 m 3 X s 2201 1084 m 3 X s 2201 1089 m 3 X s 2201 1095 m 3 X s 2199 1101 m 5 X s 2201 1107 m 3 X
 s 2201 1113 m 3 X s 2201 1118 m 3 X s 2201 1124 m 3 X s 2199 1130 m 5 X s 2201 1136 m 3 X s 2201 1142 m 3 X s 2201 1147 m 3 X s 2201 1153 m 3 X s 2199 1159 m 5 X s 2201 1165 m 3 X s 2201 1171 m 3 X s 2201 1176 m 3 X s 2201 1182 m 3 X s 2199 1188 m 5
 X s 2201 1194 m 3 X s 2201 1200 m 3 X s 2201 1205 m 3 X s 2201 1211 m 3 X s 2199 1217 m 5 X s 2201 1223 m 3 X s 2201 1229 m 3 X s 2201 1234 m 3 X s 2201 1240 m 3 X s 2199 1246 m 5 X s 2201 1252 m 3 X s 2201 1258 m 3 X s 2201 1263 m 3 X s 2201 1269 m
 3 X s 2199 1275 m 5 X s 2199 1072 m 5 X s 2201 1066 m 3 X s 2201 1061 m 3 X s 2199 1275 m 5 X s 2201 1281 m 3 X s 2043 1182 2188 1157 2 { m21} R 2043 1193 m 72 Y s 2037 1265 m 12 X s 2043 1170 m -71 Y s 2037 1099 m 12 X s 2188 1168 m 72 Y s 2183
 1240 m 11 X s 2188 1145 m -71 Y s 2183 1074 m 11 X s 9 lw 0.95 0.95 0.95 c black 1900 1217 m 3 -1 d 3 -1 d 3 X 3 -1 d 3 -1 d 3 X 3 -1 d 3 -1 d 3 X 3 -1 d 3 -1 d 3 X 3 -1 d 3 -1 d 4 X 3 -1 d 3 -1 d 3 X 3 -1 d 3 -1 d 3 X 3 -1 d 3 X 3 -1 d 3 -1 d 3 X 3
 -1 d 3 -1 d 3 X 3 -1 d 4 -1 d 3 X 3 -1 d 3 -1 d 3 X 3 -1 d 3 -1 d 3 X 3 -1 d 3 -1 d 3 X 3 -1 d 3 -1 d 3 X 3 -1 d 3 -1 d 3 X 4 -1 d 3 -1 d s 2050 1184 m 3 X 3 -1 d 3 -1 d 3 X 3 -1 d 3 -1 d 3 X 3 -1 d 3 X 3 -1 d 3 -1 d 3 X 3 -1 d 3 -1 d 4 X 3 -1 d 3
 -1 d 3 X 3 -1 d 3 -1 d 3 X 3 -1 d 3 -1 d 3 X 3 -1 d 3 -1 d 3 X 3 -1 d 3 -1 d 3 X 4 -1 d 3 -1 d 3 X 3 -1 d 3 -1 d 3 X 3 -1 d 3 -1 d 3 X 3 -1 d 3 X 3 -1 d 3 -1 d 3 X 3 -1 d 3 -1 d 4 X 3 -1 d 3 -1 d s 2200 1152 m 3 X s 0.49 0.6 0.82 c black 0.49 0.6
 0.82 c
 gsave  408 305 1837 1009 C 1957.19 1293.4 t 0 r /Helvetica-Bold findfont 25.6831 sf 0 0 m (2.0 < E < 2.5 GeV) show NC gr  0.52 0.76 0.64 c black 0.52 0.76 0.64 c
 gsave  408 305 1837 1009 C 1937.25 1256.36 t 0 r /Helvetica-Bold findfont 25.6831 sf 0 0 m 
 228 214 200 193 178 171 156 149 133 126 119 105 91 77 69 55 47 39 25 17
(A = \2550.000, p = 1.000) K NC gr  1 0.6 1 c black 1 0.6 1 c
 gsave  408 305 1837 1009 C 2242.08 1122.46 t 90 r /Helvetica-Bold findfont 28.5368 sf 0 0 m (/dof=0.0) show NC gr  black 1 0.6 1 c
 gsave  408 305 1837 1009 C 2230.68 1111.07 t 90 r /Helvetica-Bold findfont 19.9758 sf 0 0 m (2) show NC gr  black 1 0.6 1 c
 gsave  408 305 1837 1009 C 2242.08 1093.97 t 90 r /Symbol findfont 28.5368 sf 0 0 m (c) show NC gr  black 3 lw 1 1 1 c 408 305 23 677 bf black 1 1 1 c black 306 229 84 723 bl 306 229 84 723 bl 84 723 m 306 X s 84 727 m -4 Y s 198 727 m -4 Y s 311
 727 m -4 Y s 311 727 m -4 Y s
 gsave  408 305 23 677 C 74.0711 703.676 t 0 r /Helvetica findfont 22.8295 sf 0 0 m (0) show NC gr 
 gsave  408 305 23 677 C 176.631 703.676 t 0 r /Helvetica findfont 22.8295 sf 0 0 m (200) show NC gr 
 gsave  408 305 23 677 C 290.587 703.676 t 0 r /Helvetica findfont 22.8295 sf 0 0 m (400) show NC gr  84 952 m 306 X s 84 948 m 4 Y s 198 948 m 4 Y s 311 948 m 4 Y s 311 948 m 4 Y s 84 723 m 229 Y s 89 754 m -5 X s 87 765 m -3 X s 87 776 m -3 X s 87
 788 m -3 X s 89 799 m -5 X s 87 810 m -3 X s 87 822 m -3 X s 87 833 m -3 X s 89 844 m -5 X s 87 856 m -3 X s 87 867 m -3 X s 87 878 m -3 X s 89 889 m -5 X s 87 901 m -3 X s 87 912 m -3 X s 87 923 m -3 X s 89 935 m -5 X s 89 754 m -5 X s 87 742 m -3
 X s 87 731 m -3 X s 89 935 m -5 X s 87 946 m -3 X s
 gsave  408 305 23 677 C 14.2445 746.409 t 0 r /Helvetica findfont 22.8295 sf 0 0 m (\2550.008) show NC gr 
 gsave  408 305 23 677 C 14.2445 791.991 t 0 r /Helvetica findfont 22.8295 sf 0 0 m (\2550.006) show NC gr 
 gsave  408 305 23 677 C 14.2445 837.574 t 0 r /Helvetica findfont 22.8295 sf 0 0 m (\2550.004) show NC gr 
 gsave  408 305 23 677 C 14.2445 883.156 t 0 r /Helvetica findfont 22.8295 sf 0 0 m (\2550.002) show NC gr 
 gsave  408 305 23 677 C 65.5245 928.738 t 0 r /Helvetica findfont 22.8295 sf 0 0 m (0) show NC gr  390 723 m 229 Y s 385 754 m 5 X s 387 765 m 3 X s 387 776 m 3 X s 387 788 m 3 X s 385 799 m 5 X s 387 810 m 3 X s 387 822 m 3 X s 387 833 m 3 X s 385
 844 m 5 X s 387 856 m 3 X s 387 867 m 3 X s 387 878 m 3 X s 385 889 m 5 X s 387 901 m 3 X s 387 912 m 3 X s 387 923 m 3 X s 385 935 m 5 X s 385 754 m 5 X s 387 742 m 3 X s 387 731 m 3 X s 385 935 m 5 X s 387 946 m 3 X s /w 22 def /w2 {w 2 div} def
 /w3 {w 3 div} def 229 898 374 777 2 { m21} R 229 909 m 24 Y s 223 933 m 12 X s 229 886 m -23 Y s 223 863 m 12 X s 374 788 m 24 Y s 368 812 m 12 X s 374 765 m -23 Y s 368 742 m 12 X s 1 0 0 c 9 lw 0.95 0.95 0.95 c black 1 0 0 c 85 935 m 7 X 3 -1 d 12
 X 3 -1 d 6 X 3 -1 d 3 X 3 -1 d 3 X 3 -1 d 3 X 3 -1 d 4 X 3 -1 d 3 -1 d 3 X 3 -1 d 3 -1 d 3 -1 d 3 -1 d 3 -1 d 3 -1 d 3 -1 d 3 -1 d 3 -1 d 3 -1 d 3 -1 d 3 -1 d 4 -1 d 3 -1 d 3 -2 d 3 -1 d 3 -1 d 3 -2 d 3 -1 d 3 -1 d 3 -2 d 3 -1 d 3 -2 d 3 -2 d 3 -1 d
 3 -2 d 3 -2 d 3 -1 d s 235 892 m 4 -2 d 3 -2 d 3 -2 d 3 -1 d 3 -2 d 3 -2 d 3 -2 d 3 -2 d 3 -2 d 3 -2 d 3 -2 d 3 -3 d 3 -2 d 3 -2 d 3 -2 d 3 -2 d 3 -3 d 4 -2 d 3 -2 d 3 -3 d 3 -2 d 3 -3 d 3 -2 d 3 -3 d 3 -2 d 3 -3 d 3 -3 d 3 -2 d 3 -3 d 3 -3 d 3 -3 d
 3 -3 d 3 -2 d 4 -3 d 3 -3 d 3 -3 d 3 -3 d 3 -3 d 3 -3 d 3 -4 d 3 -3 d 3 -3 d 3 -3 d 3 -3 d 3 -4 d 3 -3 d 3 -3 d 3 -4 d 3 -3 d s 385 765 m 4 -4 d s 0.49 0.6 0.82 c black 0.49 0.6 0.82 c
 gsave  408 305 23 677 C 142.445 960.076 t 0 r /Helvetica-Bold findfont 25.6831 sf 0 0 m (2.5 < E < 3.0 GeV) show NC gr  0.52 0.76 0.64 c black 0.52 0.76 0.64 c
 gsave  408 305 23 677 C 122.502 923.04 t 0 r /Helvetica-Bold findfont 25.6831 sf 0 0 m 
 228 214 200 193 178 171 156 149 134 126 119 105 91 77 69 55 47 39 25 17
(A = \2550.000, p = 2.000) K NC gr  1 0.6 1 c black 1 0.6 1 c
 gsave  408 305 23 677 C 427.334 791.991 t 90 r /Helvetica-Bold findfont 28.5368 sf 0 0 m (/dof=0.0) show NC gr  black 1 0.6 1 c
 gsave  408 305 23 677 C 415.938 780.596 t 90 r /Helvetica-Bold findfont 19.9758 sf 0 0 m (2) show NC gr  black 1 0.6 1 c
 gsave  408 305 23 677 C 427.334 763.503 t 90 r /Symbol findfont 28.5368 sf 0 0 m (c) show NC gr  black 3 lw 1 1 1 c 408 305 476 677 bf black 1 1 1 c black 307 229 537 723 bl 307 229 537 723 bl 537 723 m 307 X s 537 727 m -4 Y s 651 727 m -4 Y s 765
 727 m -4 Y s 765 727 m -4 Y s
 gsave  408 305 476 677 C 527.045 703.676 t 0 r /Helvetica findfont 22.8295 sf 0 0 m (0) show NC gr 
 gsave  408 305 476 677 C 629.605 703.676 t 0 r /Helvetica findfont 22.8295 sf 0 0 m (200) show NC gr 
 gsave  408 305 476 677 C 743.56 703.676 t 0 r /Helvetica findfont 22.8295 sf 0 0 m (400) show NC gr  537 952 m 307 X s 537 948 m 4 Y s 651 948 m 4 Y s 765 948 m 4 Y s 765 948 m 4 Y s 537 723 m 229 Y s 543 743 m -6 X s 540 749 m -3 X s 540 755 m -3 X
 s 540 761 m -3 X s 543 767 m -6 X s 540 773 m -3 X s 540 779 m -3 X s 540 785 m -3 X s 543 791 m -6 X s 540 797 m -3 X s 540 803 m -3 X s 540 810 m -3 X s 543 816 m -6 X s 540 822 m -3 X s 540 828 m -3 X s 540 834 m -3 X s 543 840 m -6 X s 540 846 m
 -3 X s 540 852 m -3 X s 540 858 m -3 X s 543 864 m -6 X s 540 870 m -3 X s 540 876 m -3 X s 540 882 m -3 X s 543 888 m -6 X s 540 894 m -3 X s 540 900 m -3 X s 540 906 m -3 X s 543 912 m -6 X s 540 919 m -3 X s 540 925 m -3 X s 540 931 m -3 X s 543
 937 m -6 X s 543 743 m -6 X s 540 737 m -3 X s 540 731 m -3 X s 540 725 m -3 X s 543 937 m -6 X s 540 943 m -3 X s 540 949 m -3 X s
 gsave  408 305 476 677 C 467.218 735.014 t 0 r /Helvetica findfont 22.8295 sf 0 0 m (\2550.018) show NC gr 
 gsave  408 305 476 677 C 467.218 760.654 t 0 r /Helvetica findfont 22.8295 sf 0 0 m (\2550.016) show NC gr 
 gsave  408 305 476 677 C 467.218 783.445 t 0 r /Helvetica findfont 22.8295 sf 0 0 m (\2550.014) show NC gr 
 gsave  408 305 476 677 C 467.218 809.085 t 0 r /Helvetica findfont 22.8295 sf 0 0 m (\2550.012) show NC gr 
 gsave  408 305 476 677 C 484.311 831.876 t 0 r /Helvetica findfont 22.8295 sf 0 0 m (\2550.01) show NC gr 
 gsave  408 305 476 677 C 467.218 857.516 t 0 r /Helvetica findfont 22.8295 sf 0 0 m (\2550.008) show NC gr 
 gsave  408 305 476 677 C 467.218 880.307 t 0 r /Helvetica findfont 22.8295 sf 0 0 m (\2550.006) show NC gr 
 gsave  408 305 476 677 C 467.218 905.947 t 0 r /Helvetica findfont 22.8295 sf 0 0 m (\2550.004) show NC gr 
 gsave  408 305 476 677 C 467.218 928.738 t 0 r /Helvetica findfont 22.8295 sf 0 0 m (\2550.002) show NC gr  844 723 m 229 Y s 838 743 m 6 X s 841 749 m 3 X s 841 755 m 3 X s 841 761 m 3 X s 838 767 m 6 X s 841 773 m 3 X s 841 779 m 3 X s 841 785 m 3
 X s 838 791 m 6 X s 841 797 m 3 X s 841 803 m 3 X s 841 810 m 3 X s 838 816 m 6 X s 841 822 m 3 X s 841 828 m 3 X s 841 834 m 3 X s 838 840 m 6 X s 841 846 m 3 X s 841 852 m 3 X s 841 858 m 3 X s 838 864 m 6 X s 841 870 m 3 X s 841 876 m 3 X s 841
 882 m 3 X s 838 888 m 6 X s 841 894 m 3 X s 841 900 m 3 X s 841 906 m 3 X s 838 912 m 6 X s 841 919 m 3 X s 841 925 m 3 X s 841 931 m 3 X s 838 937 m 6 X s 838 743 m 6 X s 841 737 m 3 X s 841 731 m 3 X s 841 725 m 3 X s 838 937 m 6 X s 841 943 m 3 X
 s 841 949 m 3 X s /w 23 def /w2 {w 2 div} def /w3 {w 3 div} def 683 912 828 763 2 { m21} R 683 923 m 10 Y s 677 933 m 11 X s 683 900 m -10 Y s 677 890 m 11 X s 828 774 m 10 Y s 822 784 m 11 X s 828 752 m -10 Y s 822 742 m 11 X s 1 0 0 c 9 lw 0.95
 0.95 0.95 c black 1 0 0 c 597 952 m 3 X 3 -1 d 3 -1 d 3 -1 d 3 -1 d 4 -1 d 3 -2 d 3 -1 d 3 -1 d 3 -1 d 3 -2 d 3 -1 d 3 -1 d 3 -2 d 3 -1 d 3 -2 d 3 -1 d 3 -2 d 3 -2 d 3 -1 d 3 -2 d 3 -2 d 4 -2 d 3 -2 d 3 -2 d 3 -2 d 3 -2 d 3 -2 d 3 -2 d 3 -2 d 3 -2 d
 3 -3 d 3 -2 d 3 -2 d 3 -3 d 3 -2 d 3 -2 d 3 -3 d 4 -2 d 3 -3 d 3 -3 d 3 -2 d 3 -3 d 3 -3 d 3 -3 d 3 -3 d 3 -3 d 3 -2 d 3 -3 d s 747 858 m 3 -4 d 3 -3 d 3 -3 d 3 -3 d 3 -3 d 4 -3 d 3 -4 d 3 -3 d 3 -3 d 3 -4 d 3 -3 d 3 -4 d 3 -3 d 3 -4 d 3 -4 d 3 -3 d
 3 -4 d 3 -4 d 3 -4 d 3 -4 d 3 -4 d 4 -4 d 3 -4 d 3 -4 d 3 -4 d 3 -4 d 3 -4 d 3 -4 d 3 -5 d 3 -4 d 3 -4 d s 0.49 0.6 0.82 c black 0.49 0.6 0.82 c
 gsave  408 305 476 677 C 595.418 960.076 t 0 r /Helvetica-Bold findfont 25.6831 sf 0 0 m (3.0 < E < 3.5 GeV) show NC gr  0.52 0.76 0.64 c black 0.52 0.76 0.64 c
 gsave  408 305 476 677 C 575.476 923.04 t 0 r /Helvetica-Bold findfont 25.6831 sf 0 0 m 
 228 214 200 193 178 171 156 149 133 126 119 105 91 76 69 55 47 39 25 17
(A = \2550.000, p = 2.000) K NC gr  1 0.6 1 c black 1 0.6 1 c
 gsave  408 305 476 677 C 883.156 791.991 t 90 r /Helvetica-Bold findfont 28.5368 sf 0 0 m (/dof=0.0) show NC gr  black 1 0.6 1 c
 gsave  408 305 476 677 C 871.76 780.596 t 90 r /Helvetica-Bold findfont 19.9758 sf 0 0 m (2) show NC gr  black 1 0.6 1 c
 gsave  408 305 476 677 C 883.156 763.503 t 90 r /Symbol findfont 28.5368 sf 0 0 m (c) show NC gr  black 3 lw 1 1 1 c 408 305 930 677 bf black 1 1 1 c black 306 229 991 723 bl 306 229 991 723 bl 991 723 m 306 X s 991 727 m -4 Y s 1105 727 m -4 Y s
 1219 727 m -4 Y s 1219 727 m -4 Y s
 gsave  408 305 930 677 C 980.018 703.676 t 0 r /Helvetica findfont 22.8295 sf 0 0 m (0) show NC gr 
 gsave  408 305 930 677 C 1082.58 703.676 t 0 r /Helvetica findfont 22.8295 sf 0 0 m (200) show NC gr 
 gsave  408 305 930 677 C 1196.53 703.676 t 0 r /Helvetica findfont 22.8295 sf 0 0 m (400) show NC gr  991 952 m 306 X s 991 948 m 4 Y s 1105 948 m 4 Y s 1219 948 m 4 Y s 1219 948 m 4 Y s 991 723 m 229 Y s 997 758 m -6 X s 994 766 m -3 X s 994 774 m
 -3 X s 994 781 m -3 X s 994 789 m -3 X s 997 797 m -6 X s 994 805 m -3 X s 994 812 m -3 X s 994 820 m -3 X s 994 828 m -3 X s 997 835 m -6 X s 994 843 m -3 X s 994 851 m -3 X s 994 859 m -3 X s 994 866 m -3 X s 997 874 m -6 X s 994 882 m -3 X s 994
 890 m -3 X s 994 897 m -3 X s 994 905 m -3 X s 997 913 m -6 X s 994 920 m -3 X s 994 928 m -3 X s 994 936 m -3 X s 994 944 m -3 X s 997 951 m -6 X s 997 758 m -6 X s 994 750 m -3 X s 994 743 m -3 X s 994 735 m -3 X s 994 727 m -3 X s 997 951 m -6 X
 s
 gsave  408 305 930 677 C 923.04 752.107 t 0 r /Helvetica findfont 22.8295 sf 0 0 m (\2550.025) show NC gr 
 gsave  408 305 930 677 C 937.285 789.143 t 0 r /Helvetica findfont 22.8295 sf 0 0 m (\2550.02) show NC gr 
 gsave  408 305 930 677 C 923.04 829.027 t 0 r /Helvetica findfont 22.8295 sf 0 0 m (\2550.015) show NC gr 
 gsave  408 305 930 677 C 940.134 866.063 t 0 r /Helvetica findfont 22.8295 sf 0 0 m (\2550.01) show NC gr 
 gsave  408 305 930 677 C 923.04 905.947 t 0 r /Helvetica findfont 22.8295 sf 0 0 m (\2550.005) show NC gr 
 gsave  408 305 930 677 C 974.32 942.983 t 0 r /Helvetica findfont 22.8295 sf 0 0 m (0) show NC gr  1297 723 m 229 Y s 1292 758 m 5 X s 1294 766 m 3 X s 1294 774 m 3 X s 1294 781 m 3 X s 1294 789 m 3 X s 1292 797 m 5 X s 1294 805 m 3 X s 1294 812 m 3
 X s 1294 820 m 3 X s 1294 828 m 3 X s 1292 835 m 5 X s 1294 843 m 3 X s 1294 851 m 3 X s 1294 859 m 3 X s 1294 866 m 3 X s 1292 874 m 5 X s 1294 882 m 3 X s 1294 890 m 3 X s 1294 897 m 3 X s 1294 905 m 3 X s 1292 913 m 5 X s 1294 920 m 3 X s 1294
 928 m 3 X s 1294 936 m 3 X s 1294 944 m 3 X s 1292 951 m 5 X s 1292 758 m 5 X s 1294 750 m 3 X s 1294 743 m 3 X s 1294 735 m 3 X s 1294 727 m 3 X s 1292 951 m 5 X s 1136 916 1281 758 2 { m21} R 1136 928 m 5 Y s 1130 933 m 12 X s 1136 905 m -5 Y s
 1130 900 m 12 X s 1281 770 m 4 Y s 1275 774 m 12 X s 1281 747 m -5 Y s 1275 742 m 12 X s 1 0 0 c 9 lw 0.95 0.95 0.95 c black 1 0 0 c 993 951 m 18 X 3 -1 d 3 X 3 -1 d 6 X 3 -1 d 3 X 3 -1 d 3 -1 d 4 X 3 -1 d 3 -1 d 3 -1 d 3 X 3 -1 d 3 -1 d 3 -1 d 3 -1
 d 3 -1 d 3 -1 d 3 -2 d 3 -1 d 3 -1 d 3 -1 d 3 -2 d 3 -1 d 4 -1 d 3 -2 d 3 -1 d 3 -2 d 3 -1 d 3 -2 d 3 -2 d 3 -1 d 3 -2 d 3 -2 d 3 -2 d 3 -2 d 3 -1 d 3 -2 d 3 -2 d 3 -2 d 4 -2 d s 1143 900 m 3 -3 d 3 -2 d 3 -2 d 3 -2 d 3 -2 d 3 -3 d 3 -2 d 3 -3 d 3
 -2 d 3 -3 d 3 -2 d 3 -3 d 3 -2 d 3 -3 d 3 -3 d 4 -2 d 3 -3 d 3 -3 d 3 -3 d 3 -3 d 3 -3 d 3 -3 d 3 -3 d 3 -3 d 3 -3 d 3 -3 d 3 -3 d 3 -4 d 3 -3 d 3 -3 d 3 -4 d 3 -3 d 4 -4 d 3 -3 d 3 -4 d 3 -3 d 3 -4 d 3 -4 d 3 -3 d 3 -4 d 3 -4 d 3 -4 d 3 -4 d 3 -4 d
 3 -4 d 3 -4 d 3 -4 d 3 -4 d 4 -4 d s 1293 746 m 3 -4 d s 0.49 0.6 0.82 c black 0.49 0.6 0.82 c
 gsave  408 305 930 677 C 1051.24 960.076 t 0 r /Helvetica-Bold findfont 25.6831 sf 0 0 m (3.5 < E < 4.0 GeV) show NC gr  0.52 0.76 0.64 c black 0.52 0.76 0.64 c
 gsave  408 305 930 677 C 1031.3 923.04 t 0 r /Helvetica-Bold findfont 25.6831 sf 0 0 m 
 228 214 200 193 178 171 156 149 133 126 119 105 91 77 69 55 47 39 25 17
(A = \2550.000, p = 2.000) K NC gr  1 0.6 1 c black 1 0.6 1 c
 gsave  408 305 930 677 C 1336.13 791.991 t 90 r /Helvetica-Bold findfont 28.5368 sf 0 0 m (/dof=0.6) show NC gr  black 1 0.6 1 c
 gsave  408 305 930 677 C 1324.73 780.596 t 90 r /Helvetica-Bold findfont 19.9758 sf 0 0 m (2) show NC gr  black 1 0.6 1 c
 gsave  408 305 930 677 C 1336.13 763.503 t 90 r /Symbol findfont 28.5368 sf 0 0 m (c) show NC gr  black 3 lw 1 1 1 c 408 305 1383 677 bf black 1 1 1 c black 306 229 1445 723 bl 306 229 1445 723 bl 1445 723 m 306 X s 1445 727 m -4 Y s 1558 727 m -4 Y
 s 1672 727 m -4 Y s 1672 727 m -4 Y s
 gsave  408 305 1383 677 C 1435.84 703.676 t 0 r /Helvetica findfont 22.8295 sf 0 0 m (0) show NC gr 
 gsave  408 305 1383 677 C 1535.55 703.676 t 0 r /Helvetica findfont 22.8295 sf 0 0 m (200) show NC gr 
 gsave  408 305 1383 677 C 1649.51 703.676 t 0 r /Helvetica findfont 22.8295 sf 0 0 m (400) show NC gr  1445 952 m 306 X s 1445 948 m 4 Y s 1558 948 m 4 Y s 1672 948 m 4 Y s 1672 948 m 4 Y s 1445 723 m 229 Y s 1450 736 m -5 X s 1447 741 m -2 X s 1447
 746 m -2 X s 1447 751 m -2 X s 1450 757 m -5 X s 1447 762 m -2 X s 1447 767 m -2 X s 1447 773 m -2 X s 1450 778 m -5 X s 1447 783 m -2 X s 1447 788 m -2 X s 1447 794 m -2 X s 1450 799 m -5 X s 1447 804 m -2 X s 1447 810 m -2 X s 1447 815 m -2 X s
 1450 820 m -5 X s 1447 825 m -2 X s 1447 831 m -2 X s 1447 836 m -2 X s 1450 841 m -5 X s 1447 847 m -2 X s 1447 852 m -2 X s 1447 857 m -2 X s 1450 862 m -5 X s 1447 868 m -2 X s 1447 873 m -2 X s 1447 878 m -2 X s 1450 884 m -5 X s 1447 889 m -2 X
 s 1447 894 m -2 X s 1447 899 m -2 X s 1450 905 m -5 X s 1447 910 m -2 X s 1447 915 m -2 X s 1447 921 m -2 X s 1450 926 m -5 X s 1447 931 m -2 X s 1447 936 m -2 X s 1447 942 m -2 X s 1450 947 m -5 X s 1450 736 m -5 X s 1447 730 m -2 X s 1447 725 m -2
 X s 1450 947 m -5 X s
 gsave  408 305 1383 677 C 1376.01 729.316 t 0 r /Helvetica findfont 22.8295 sf 0 0 m (\2550.022) show NC gr 
 gsave  408 305 1383 677 C 1390.26 749.258 t 0 r /Helvetica findfont 22.8295 sf 0 0 m (\2550.02) show NC gr 
 gsave  408 305 1383 677 C 1376.01 772.049 t 0 r /Helvetica findfont 22.8295 sf 0 0 m (\2550.018) show NC gr 
 gsave  408 305 1383 677 C 1376.01 791.991 t 0 r /Helvetica findfont 22.8295 sf 0 0 m (\2550.016) show NC gr 
 gsave  408 305 1383 677 C 1376.01 811.934 t 0 r /Helvetica findfont 22.8295 sf 0 0 m (\2550.014) show NC gr 
 gsave  408 305 1383 677 C 1376.01 834.725 t 0 r /Helvetica findfont 22.8295 sf 0 0 m (\2550.012) show NC gr 
 gsave  408 305 1383 677 C 1393.11 854.667 t 0 r /Helvetica findfont 22.8295 sf 0 0 m (\2550.01) show NC gr 
 gsave  408 305 1383 677 C 1376.01 877.458 t 0 r /Helvetica findfont 22.8295 sf 0 0 m (\2550.008) show NC gr 
 gsave  408 305 1383 677 C 1376.01 897.4 t 0 r /Helvetica findfont 22.8295 sf 0 0 m (\2550.006) show NC gr 
 gsave  408 305 1383 677 C 1376.01 917.343 t 0 r /Helvetica findfont 22.8295 sf 0 0 m (\2550.004) show NC gr 
 gsave  408 305 1383 677 C 1376.01 940.134 t 0 r /Helvetica findfont 22.8295 sf 0 0 m (\2550.002) show NC gr  1751 723 m 229 Y s 1745 736 m 6 X s 1748 741 m 3 X s 1748 746 m 3 X s 1748 751 m 3 X s 1745 757 m 6 X s 1748 762 m 3 X s 1748 767 m 3 X s
 1748 773 m 3 X s 1745 778 m 6 X s 1748 783 m 3 X s 1748 788 m 3 X s 1748 794 m 3 X s 1745 799 m 6 X s 1748 804 m 3 X s 1748 810 m 3 X s 1748 815 m 3 X s 1745 820 m 6 X s 1748 825 m 3 X s 1748 831 m 3 X s 1748 836 m 3 X s 1745 841 m 6 X s 1748 847 m
 3 X s 1748 852 m 3 X s 1748 857 m 3 X s 1745 862 m 6 X s 1748 868 m 3 X s 1748 873 m 3 X s 1748 878 m 3 X s 1745 884 m 6 X s 1748 889 m 3 X s 1748 894 m 3 X s 1748 899 m 3 X s 1745 905 m 6 X s 1748 910 m 3 X s 1748 915 m 3 X s 1748 921 m 3 X s 1745
 926 m 6 X s 1748 931 m 3 X s 1748 936 m 3 X s 1748 942 m 3 X s 1745 947 m 6 X s 1745 736 m 6 X s 1748 730 m 3 X s 1748 725 m 3 X s 1745 947 m 6 X s 1590 903 1735 772 2 { m21} R 1590 914 m 19 Y s 1584 933 m 11 X s 1590 891 m -18 Y s 1584 873 m 11 X s
 1735 783 m 18 Y s 1729 801 m 11 X s 1735 760 m -18 Y s 1729 742 m 11 X s 1 0 0 c 9 lw 0.95 0.95 0.95 c black 1 0 0 c 1526 952 m 3 -1 d 3 -1 d 3 -1 d 3 -2 d 3 -1 d 3 -1 d 3 -2 d 3 -1 d 3 -2 d 3 -2 d 3 -1 d 3 -2 d 3 -2 d 4 -1 d 3 -2 d 3 -2 d 3 -2 d 3
 -2 d 3 -2 d 3 -2 d 3 -2 d 3 -2 d 3 -2 d 3 -3 d 3 -2 d 3 -2 d 3 -3 d 3 -2 d 3 -3 d 4 -2 d 3 -3 d 3 -2 d 3 -3 d 3 -2 d 3 -3 d 3 -3 d 3 -3 d 3 -3 d 3 -2 d 3 -3 d 3 -3 d 3 -3 d 3 -4 d 3 -3 d 3 -3 d 3 -3 d 4 -3 d 3 -4 d 3 -3 d s 1676 841 m 3 -3 d 3 -4 d
 3 -3 d 3 -4 d 3 -3 d 3 -4 d 3 -4 d 3 -3 d 3 -4 d 3 -4 d 3 -4 d 3 -3 d 3 -4 d 4 -4 d 3 -4 d 3 -4 d 3 -5 d 3 -4 d 3 -4 d 3 -4 d 3 -4 d 3 -5 d 3 -4 d 3 -4 d s 0.49 0.6 0.82 c black 0.49 0.6 0.82 c
 gsave  408 305 1383 677 C 1504.21 960.076 t 0 r /Helvetica-Bold findfont 25.6831 sf 0 0 m (4.0 < E < 4.5 GeV) show NC gr  0.52 0.76 0.64 c black 0.52 0.76 0.64 c
 gsave  408 305 1383 677 C 1484.27 923.04 t 0 r /Helvetica-Bold findfont 25.6831 sf 0 0 m 
 228 214 200 193 178 171 156 149 134 126 119 105 91 77 69 55 47 40 25 17
(A = \2550.000, p = 2.000) K NC gr  1 0.6 1 c black 1 0.6 1 c
 gsave  408 305 1383 677 C 1789.1 791.991 t 90 r /Helvetica-Bold findfont 28.5368 sf 0 0 m (/dof=0.3) show NC gr  black 1 0.6 1 c
 gsave  408 305 1383 677 C 1777.71 780.596 t 90 r /Helvetica-Bold findfont 19.9758 sf 0 0 m (2) show NC gr  black 1 0.6 1 c
 gsave  408 305 1383 677 C 1789.1 763.503 t 90 r /Symbol findfont 28.5368 sf 0 0 m (c) show NC gr  black 3 lw 1 1 1 c 408 305 1837 677 bf black 1 1 1 c black 306 229 1898 723 bl 306 229 1898 723 bl 1898 723 m 306 X s 1898 727 m -4 Y s 2012 727 m -4 Y
 s 2126 727 m -4 Y s 2126 727 m -4 Y s
 gsave  408 305 1837 677 C 1888.81 703.676 t 0 r /Helvetica findfont 22.8295 sf 0 0 m (0) show NC gr 
 gsave  408 305 1837 677 C 1991.37 703.676 t 0 r /Helvetica findfont 22.8295 sf 0 0 m (200) show NC gr 
 gsave  408 305 1837 677 C 2105.33 703.676 t 0 r /Helvetica findfont 22.8295 sf 0 0 m (400) show NC gr  1898 952 m 306 X s 1898 948 m 4 Y s 2012 948 m 4 Y s 2126 948 m 4 Y s 2126 948 m 4 Y s 1898 723 m 229 Y s 1904 746 m -6 X s 1901 754 m -3 X s 1901
 763 m -3 X s 1901 771 m -3 X s 1904 779 m -6 X s 1901 788 m -3 X s 1901 796 m -3 X s 1901 804 m -3 X s 1904 813 m -6 X s 1901 821 m -3 X s 1901 830 m -3 X s 1901 838 m -3 X s 1904 846 m -6 X s 1901 855 m -3 X s 1901 863 m -3 X s 1901 871 m -3 X s
 1904 880 m -6 X s 1901 888 m -3 X s 1901 897 m -3 X s 1901 905 m -3 X s 1904 913 m -6 X s 1901 922 m -3 X s 1901 930 m -3 X s 1901 939 m -3 X s 1904 947 m -6 X s 1904 746 m -6 X s 1901 737 m -3 X s 1901 729 m -3 X s 1904 947 m -6 X s
 gsave  408 305 1837 677 C 1828.99 737.863 t 0 r /Helvetica findfont 22.8295 sf 0 0 m (\2550.004) show NC gr 
 gsave  408 305 1837 677 C 1828.99 772.049 t 0 r /Helvetica findfont 22.8295 sf 0 0 m (\2550.002) show NC gr 
 gsave  408 305 1837 677 C 1880.27 806.236 t 0 r /Helvetica findfont 22.8295 sf 0 0 m (0) show NC gr 
 gsave  408 305 1837 677 C 1837.53 840.423 t 0 r /Helvetica findfont 22.8295 sf 0 0 m (0.002) show NC gr 
 gsave  408 305 1837 677 C 1837.53 871.76 t 0 r /Helvetica findfont 22.8295 sf 0 0 m (0.004) show NC gr 
 gsave  408 305 1837 677 C 1837.53 905.947 t 0 r /Helvetica findfont 22.8295 sf 0 0 m (0.006) show NC gr 
 gsave  408 305 1837 677 C 1837.53 940.134 t 0 r /Helvetica findfont 22.8295 sf 0 0 m (0.008) show NC gr  2204 723 m 229 Y s 2199 746 m 5 X s 2201 754 m 3 X s 2201 763 m 3 X s 2201 771 m 3 X s 2199 779 m 5 X s 2201 788 m 3 X s 2201 796 m 3 X s 2201
 804 m 3 X s 2199 813 m 5 X s 2201 821 m 3 X s 2201 830 m 3 X s 2201 838 m 3 X s 2199 846 m 5 X s 2201 855 m 3 X s 2201 863 m 3 X s 2201 871 m 3 X s 2199 880 m 5 X s 2201 888 m 3 X s 2201 897 m 3 X s 2201 905 m 3 X s 2199 913 m 5 X s 2201 922 m 3 X s
 2201 930 m 3 X s 2201 939 m 3 X s 2199 947 m 5 X s 2199 746 m 5 X s 2201 737 m 3 X s 2201 729 m 3 X s 2199 947 m 5 X s 2043 868 2188 807 2 { m21} R 2043 879 m 54 Y s 2037 933 m 12 X s 2043 856 m -53 Y s 2037 803 m 12 X s 2188 818 m 54 Y s 2183 872 m
 11 X s 2188 796 m -54 Y s 2183 742 m 11 X s 9 lw 0.95 0.95 0.95 c black 1900 813 m 9 X 3 1 d 12 X 3 1 d 15 X 4 1 d 12 X 3 1 d 15 X 3 1 d 12 X 4 1 d 15 X 3 1 d 12 X 3 1 d 12 X 3 1 d 7 X s 2050 822 m 9 X 3 1 d 12 X 3 1 d 15 X 4 1 d 12 X 3 1 d 15 X 3 1
 d 12 X 4 1 d 15 X 3 1 d 12 X 3 1 d 16 X 3 1 d 3 X s 2200 831 m 3 X s 0.49 0.6 0.82 c black 0.49 0.6 0.82 c
 gsave  408 305 1837 677 C 1957.19 960.076 t 0 r /Helvetica-Bold findfont 25.6831 sf 0 0 m (4.5 < E < 5.0 GeV) show NC gr  0.52 0.76 0.64 c black 0.52 0.76 0.64 c
 gsave  408 305 1837 677 C 1942.94 923.04 t 0 r /Helvetica-Bold findfont 25.6831 sf 0 0 m 
 220 206 192 185 170 163 148 141 125 118 111 97 83 69 61 47 40 25 18
(A = 0.000, p = 1.000) K NC gr  1 0.6 1 c black 1 0.6 1 c
 gsave  408 305 1837 677 C 2242.08 791.991 t 90 r /Helvetica-Bold findfont 28.5368 sf 0 0 m (/dof=0.6) show NC gr  black 1 0.6 1 c
 gsave  408 305 1837 677 C 2230.68 780.596 t 90 r /Helvetica-Bold findfont 19.9758 sf 0 0 m (2) show NC gr  black 1 0.6 1 c
 gsave  408 305 1837 677 C 2242.08 763.503 t 90 r /Symbol findfont 28.5368 sf 0 0 m (c) show NC gr  black 3 lw 1 1 1 c 408 306 23 345 bf black 1 1 1 c black 306 229 84 391 bl 306 229 84 391 bl 84 391 m 306 X s 84 395 m -4 Y s 198 395 m -4 Y s 311 395
 m -4 Y s 311 395 m -4 Y s
 gsave  408 306 23 345 C 74.0711 370.356 t 0 r /Helvetica findfont 22.8295 sf 0 0 m (0) show NC gr 
 gsave  408 306 23 345 C 176.631 370.356 t 0 r /Helvetica findfont 22.8295 sf 0 0 m (200) show NC gr 
 gsave  408 306 23 345 C 290.587 370.356 t 0 r /Helvetica findfont 22.8295 sf 0 0 m (400) show NC gr  84 620 m 306 X s 84 616 m 4 Y s 198 616 m 4 Y s 311 616 m 4 Y s 311 616 m 4 Y s 84 391 m 229 Y s 89 413 m -5 X s 87 420 m -3 X s 87 427 m -3 X s 87
 433 m -3 X s 87 440 m -3 X s 89 447 m -5 X s 87 453 m -3 X s 87 460 m -3 X s 87 467 m -3 X s 87 473 m -3 X s 89 480 m -5 X s 87 487 m -3 X s 87 494 m -3 X s 87 500 m -3 X s 87 507 m -3 X s 89 514 m -5 X s 87 520 m -3 X s 87 527 m -3 X s 87 534 m -3
 X s 87 540 m -3 X s 89 547 m -5 X s 87 554 m -3 X s 87 560 m -3 X s 87 567 m -3 X s 87 574 m -3 X s 89 580 m -5 X s 87 587 m -3 X s 87 594 m -3 X s 87 600 m -3 X s 87 607 m -3 X s 89 614 m -5 X s 89 413 m -5 X s 87 407 m -3 X s 87 400 m -3 X s 87
 393 m -3 X s 89 614 m -5 X s
 gsave  408 306 23 345 C 14.2445 407.391 t 0 r /Helvetica findfont 22.8295 sf 0 0 m (\2550.005) show NC gr 
 gsave  408 306 23 345 C 65.5245 438.729 t 0 r /Helvetica findfont 22.8295 sf 0 0 m (0) show NC gr 
 gsave  408 306 23 345 C 22.7911 472.916 t 0 r /Helvetica findfont 22.8295 sf 0 0 m (0.005) show NC gr 
 gsave  408 306 23 345 C 37.0356 507.102 t 0 r /Helvetica findfont 22.8295 sf 0 0 m (0.01) show NC gr 
 gsave  408 306 23 345 C 22.7911 538.44 t 0 r /Helvetica findfont 22.8295 sf 0 0 m (0.015) show NC gr 
 gsave  408 306 23 345 C 34.1867 572.627 t 0 r /Helvetica findfont 22.8295 sf 0 0 m (0.02) show NC gr 
 gsave  408 306 23 345 C 22.7911 606.814 t 0 r /Helvetica findfont 22.8295 sf 0 0 m (0.025) show NC gr  390 391 m 229 Y s 385 413 m 5 X s 387 420 m 3 X s 387 427 m 3 X s 387 433 m 3 X s 387 440 m 3 X s 385 447 m 5 X s 387 453 m 3 X s 387 460 m 3 X s
 387 467 m 3 X s 387 473 m 3 X s 385 480 m 5 X s 387 487 m 3 X s 387 494 m 3 X s 387 500 m 3 X s 387 507 m 3 X s 385 514 m 5 X s 387 520 m 3 X s 387 527 m 3 X s 387 534 m 3 X s 387 540 m 3 X s 385 547 m 5 X s 387 554 m 3 X s 387 560 m 3 X s 387 567 m
 3 X s 387 574 m 3 X s 385 580 m 5 X s 387 587 m 3 X s 387 594 m 3 X s 387 600 m 3 X s 387 607 m 3 X s 385 614 m 5 X s 385 413 m 5 X s 387 407 m 3 X s 387 400 m 3 X s 387 393 m 3 X s 385 614 m 5 X s /w 22 def /w2 {w 2 div} def /w3 {w 3 div} def 229
 444 374 566 2 { m21} R 229 455 m 23 Y s 223 478 m 12 X s 229 433 m -23 Y s 223 410 m 12 X s 374 578 m 23 Y s 368 601 m 12 X s 374 555 m -23 Y s 368 532 m 12 X s 1 0 0 c 9 lw 0.95 0.95 0.95 c black 1 0 0 c 85 447 m 22 X 3 1 d 9 X 3 1 d 6 X 3 1 d 3 X
 3 1 d 7 X 3 1 d 3 X 3 1 d 3 1 d 3 X 3 1 d 3 X 3 1 d 3 1 d 3 1 d 3 X 3 1 d 3 1 d 3 1 d 4 1 d 3 X 3 1 d 3 1 d 3 1 d 3 1 d 3 1 d 3 1 d 3 1 d 3 1 d 3 1 d 3 1 d 3 2 d 3 1 d 3 1 d 3 1 d s 235 477 m 4 1 d 3 2 d 3 1 d 3 1 d 3 2 d 3 1 d 3 1 d 3 2 d 3 1 d 3 2
 d 3 1 d 3 2 d 3 1 d 3 2 d 3 2 d 3 1 d 3 2 d 4 1 d 3 2 d 3 2 d 3 2 d 3 1 d 3 2 d 3 2 d 3 2 d 3 2 d 3 2 d 3 1 d 3 2 d 3 2 d 3 2 d 3 2 d 3 2 d 4 2 d 3 3 d 3 2 d 3 2 d 3 2 d 3 2 d 3 2 d 3 3 d 3 2 d 3 2 d 3 3 d 3 2 d 3 2 d 3 3 d 3 2 d 3 2 d s 385 567 m 4
 3 d s 0.49 0.6 0.82 c black 0.49 0.6 0.82 c
 gsave  408 306 23 345 C 142.445 629.605 t 0 r /Helvetica-Bold findfont 25.6831 sf 0 0 m (5.0 < E < 5.5 GeV) show NC gr  0.52 0.76 0.64 c black 0.52 0.76 0.64 c
 gsave  408 306 23 345 C 128.2 592.569 t 0 r /Helvetica-Bold findfont 25.6831 sf 0 0 m 
 220 206 192 185 170 163 148 141 126 118 111 97 83 69 61 47 40 25 18
(A = 0.000, p = 2.000) K NC gr  1 0.6 1 c black 1 0.6 1 c
 gsave  408 306 23 345 C 427.334 458.671 t 90 r /Helvetica-Bold findfont 28.5368 sf 0 0 m (/dof=0.9) show NC gr  black 1 0.6 1 c
 gsave  408 306 23 345 C 415.938 447.276 t 90 r /Helvetica-Bold findfont 19.9758 sf 0 0 m (2) show NC gr  black 1 0.6 1 c
 gsave  408 306 23 345 C 427.334 430.182 t 90 r /Symbol findfont 28.5368 sf 0 0 m (c) show NC gr  black 3 lw 1 1 1 c 408 306 476 345 bf black 1 1 1 c black 307 229 537 391 bl 307 229 537 391 bl 537 391 m 307 X s 537 395 m -4 Y s 651 395 m -4 Y s 765
 395 m -4 Y s 765 395 m -4 Y s
 gsave  408 306 476 345 C 527.045 370.356 t 0 r /Helvetica findfont 22.8295 sf 0 0 m (0) show NC gr 
 gsave  408 306 476 345 C 629.605 370.356 t 0 r /Helvetica findfont 22.8295 sf 0 0 m (200) show NC gr 
 gsave  408 306 476 345 C 743.56 370.356 t 0 r /Helvetica findfont 22.8295 sf 0 0 m (400) show NC gr  537 620 m 307 X s 537 616 m 4 Y s 651 616 m 4 Y s 765 616 m 4 Y s 765 616 m 4 Y s 537 391 m 229 Y s 543 391 m -6 X s 540 400 m -3 X s 540 409 m -3 X
 s 540 418 m -3 X s 540 427 m -3 X s 543 436 m -6 X s 540 445 m -3 X s 540 454 m -3 X s 540 463 m -3 X s 540 471 m -3 X s 543 480 m -6 X s 540 489 m -3 X s 540 498 m -3 X s 540 507 m -3 X s 540 516 m -3 X s 543 525 m -6 X s 540 534 m -3 X s 540 543 m
 -3 X s 540 552 m -3 X s 540 561 m -3 X s 543 570 m -6 X s 540 579 m -3 X s 540 588 m -3 X s 540 597 m -3 X s 540 606 m -3 X s 543 615 m -6 X s 543 615 m -6 X s
 gsave  408 306 476 345 C 518.498 384.6 t 0 r /Helvetica findfont 22.8295 sf 0 0 m (0) show NC gr 
 gsave  408 306 476 345 C 490.009 427.334 t 0 r /Helvetica findfont 22.8295 sf 0 0 m (0.01) show NC gr 
 gsave  408 306 476 345 C 487.16 472.916 t 0 r /Helvetica findfont 22.8295 sf 0 0 m (0.02) show NC gr 
 gsave  408 306 476 345 C 487.16 518.498 t 0 r /Helvetica findfont 22.8295 sf 0 0 m (0.03) show NC gr 
 gsave  408 306 476 345 C 487.16 564.08 t 0 r /Helvetica findfont 22.8295 sf 0 0 m (0.04) show NC gr 
 gsave  408 306 476 345 C 487.16 606.814 t 0 r /Helvetica findfont 22.8295 sf 0 0 m (0.05) show NC gr  844 391 m 229 Y s 838 391 m 6 X s 841 400 m 3 X s 841 409 m 3 X s 841 418 m 3 X s 841 427 m 3 X s 838 436 m 6 X s 841 445 m 3 X s 841 454 m 3 X s
 841 463 m 3 X s 841 471 m 3 X s 838 480 m 6 X s 841 489 m 3 X s 841 498 m 3 X s 841 507 m 3 X s 841 516 m 3 X s 838 525 m 6 X s 841 534 m 3 X s 841 543 m 3 X s 841 552 m 3 X s 841 561 m 3 X s 838 570 m 6 X s 841 579 m 3 X s 841 588 m 3 X s 841 597 m
 3 X s 841 606 m 3 X s 838 615 m 6 X s 838 615 m 6 X s /w 23 def /w2 {w 2 div} def /w3 {w 3 div} def 683 430 828 571 2 { m21} R 683 442 m 17 Y s 677 459 m 11 X s 683 419 m -17 Y s 677 402 m 11 X s 828 582 m 18 Y s 822 600 m 11 X s 828 560 m -18 Y s
 822 542 m 11 X s 1 0 0 c 9 lw 0.95 0.95 0.95 c black 1 0 0 c 539 391 m 12 X 3 1 d 9 X 4 1 d 3 X 3 1 d 3 X 3 1 d 3 X 3 1 d 3 X 3 1 d 3 1 d 3 1 d 3 X 3 1 d 3 1 d 3 1 d 3 1 d 4 1 d 3 1 d 3 1 d 3 1 d 3 1 d 3 1 d 3 2 d 3 1 d 3 1 d 3 2 d 3 1 d 3 1 d 3 2 d
 3 1 d 3 2 d 3 2 d 3 1 d 4 2 d 3 2 d 3 1 d 3 2 d 3 2 d 3 2 d 3 2 d 3 2 d s 689 440 m 3 2 d 3 2 d 3 2 d 3 2 d 3 2 d 3 2 d 3 2 d 3 3 d 4 2 d 3 2 d 3 3 d 3 2 d 3 3 d 3 2 d 3 3 d 3 2 d 3 3 d 3 3 d 3 2 d 3 3 d 3 3 d 3 3 d 3 3 d 3 2 d 4 3 d 3 3 d 3 3 d 3 3
 d 3 4 d 3 3 d 3 3 d 3 3 d 3 3 d 3 4 d 3 3 d 3 3 d 3 4 d 3 3 d 3 4 d 3 3 d 4 4 d 3 3 d 3 4 d 3 4 d 3 4 d 3 3 d 3 4 d 3 4 d 3 4 d s 839 584 m 3 4 d s 0.49 0.6 0.82 c black 0.49 0.6 0.82 c
 gsave  408 306 476 345 C 595.418 629.605 t 0 r /Helvetica-Bold findfont 25.6831 sf 0 0 m (5.5 < E < 6.0 GeV) show NC gr  0.52 0.76 0.64 c black 0.52 0.76 0.64 c
 gsave  408 306 476 345 C 581.174 592.569 t 0 r /Helvetica-Bold findfont 25.6831 sf 0 0 m 
 220 206 192 185 170 163 148 141 125 118 111 97 83 68 61 47 40 25 18
(A = 0.000, p = 2.000) K NC gr  1 0.6 1 c black 1 0.6 1 c
 gsave  408 306 476 345 C 883.156 458.671 t 90 r /Helvetica-Bold findfont 28.5368 sf 0 0 m (/dof=0.0) show NC gr  black 1 0.6 1 c
 gsave  408 306 476 345 C 871.76 447.276 t 90 r /Helvetica-Bold findfont 19.9758 sf 0 0 m (2) show NC gr  black 1 0.6 1 c
 gsave  408 306 476 345 C 883.156 430.182 t 90 r /Symbol findfont 28.5368 sf 0 0 m (c) show NC gr  black 3 lw 1 1 1 c 408 306 930 345 bf black 1 1 1 c black 306 229 991 391 bl 306 229 991 391 bl 991 391 m 306 X s 991 395 m -4 Y s 1105 395 m -4 Y s
 1219 395 m -4 Y s 1219 395 m -4 Y s
 gsave  408 306 930 345 C 980.018 370.356 t 0 r /Helvetica findfont 22.8295 sf 0 0 m (0) show NC gr 
 gsave  408 306 930 345 C 1082.58 370.356 t 0 r /Helvetica findfont 22.8295 sf 0 0 m (200) show NC gr 
 gsave  408 306 930 345 C 1196.53 370.356 t 0 r /Helvetica findfont 22.8295 sf 0 0 m (400) show NC gr  991 620 m 306 X s 991 616 m 4 Y s 1105 616 m 4 Y s 1219 616 m 4 Y s 1219 616 m 4 Y s 991 391 m 229 Y s 997 425 m -6 X s 994 433 m -3 X s 994 441 m
 -3 X s 994 450 m -3 X s 994 458 m -3 X s 997 466 m -6 X s 994 475 m -3 X s 994 483 m -3 X s 994 491 m -3 X s 994 499 m -3 X s 997 508 m -6 X s 994 516 m -3 X s 994 524 m -3 X s 994 533 m -3 X s 994 541 m -3 X s 997 549 m -6 X s 994 558 m -3 X s 994
 566 m -3 X s 994 574 m -3 X s 994 583 m -3 X s 997 591 m -6 X s 997 425 m -6 X s 994 416 m -3 X s 994 408 m -3 X s 994 400 m -3 X s 994 391 m -3 X s 997 591 m -6 X s 994 599 m -3 X s 994 607 m -3 X s 994 616 m -3 X s
 gsave  408 306 930 345 C 945.832 418.787 t 0 r /Helvetica findfont 22.8295 sf 0 0 m (0.01) show NC gr 
 gsave  408 306 930 345 C 942.983 458.671 t 0 r /Helvetica findfont 22.8295 sf 0 0 m (0.02) show NC gr 
 gsave  408 306 930 345 C 942.983 501.405 t 0 r /Helvetica findfont 22.8295 sf 0 0 m (0.03) show NC gr 
 gsave  408 306 930 345 C 942.983 541.289 t 0 r /Helvetica findfont 22.8295 sf 0 0 m (0.04) show NC gr 
 gsave  408 306 930 345 C 942.983 584.022 t 0 r /Helvetica findfont 22.8295 sf 0 0 m (0.05) show NC gr  1297 391 m 229 Y s 1292 425 m 5 X s 1294 433 m 3 X s 1294 441 m 3 X s 1294 450 m 3 X s 1294 458 m 3 X s 1292 466 m 5 X s 1294 475 m 3 X s 1294 483
 m 3 X s 1294 491 m 3 X s 1294 499 m 3 X s 1292 508 m 5 X s 1294 516 m 3 X s 1294 524 m 3 X s 1294 533 m 3 X s 1294 541 m 3 X s 1292 549 m 5 X s 1294 558 m 3 X s 1294 566 m 3 X s 1294 574 m 3 X s 1294 583 m 3 X s 1292 591 m 5 X s 1292 425 m 5 X s
 1294 416 m 3 X s 1294 408 m 3 X s 1294 400 m 3 X s 1294 391 m 3 X s 1292 591 m 5 X s 1294 599 m 3 X s 1294 607 m 3 X s 1294 616 m 3 X s 1136 442 1281 569 2 { m21} R 1136 453 m 21 Y s 1130 474 m 12 X s 1136 430 m -20 Y s 1130 410 m 12 X s 1281 580 m
 21 Y s 1275 601 m 12 X s 1281 557 m -21 Y s 1275 536 m 12 X s 1 0 0 c 9 lw 0.95 0.95 0.95 c black 1 0 0 c 1048 391 m 3 X 3 1 d 3 1 d 3 1 d 3 1 d 3 1 d 3 1 d 3 1 d 3 1 d 3 1 d 3 1 d 3 2 d 3 1 d 3 1 d 4 2 d 3 1 d 3 2 d 3 1 d 3 2 d 3 1 d 3 2 d 3 1 d 3
 2 d 3 2 d 3 2 d 3 2 d 3 2 d 3 1 d 3 2 d 3 2 d 4 2 d 3 3 d 3 2 d 3 2 d 3 2 d 3 2 d 3 3 d 3 2 d 3 2 d 3 3 d 3 2 d 3 3 d 3 2 d 3 3 d 3 3 d 3 2 d 4 3 d 3 3 d 3 3 d s 1198 479 m 3 3 d 3 2 d 3 3 d 3 3 d 3 3 d 3 3 d 3 4 d 3 3 d 3 3 d 3 3 d 3 3 d 3 4 d 3 3
 d 3 3 d 4 4 d 3 3 d 3 4 d 3 3 d 3 4 d 3 4 d 3 3 d 3 4 d 3 4 d 3 4 d 3 4 d 3 3 d 3 4 d 3 4 d 3 4 d 3 4 d 4 5 d 3 4 d s 0.49 0.6 0.82 c black 0.49 0.6 0.82 c
 gsave  408 306 930 345 C 1051.24 629.605 t 0 r /Helvetica-Bold findfont 25.6831 sf 0 0 m (6.0 < E < 6.5 GeV) show NC gr  0.52 0.76 0.64 c black 0.52 0.76 0.64 c
 gsave  408 306 930 345 C 1037 592.569 t 0 r /Helvetica-Bold findfont 25.6831 sf 0 0 m 
 220 206 192 185 170 163 148 141 125 118 111 97 83 69 61 47 40 25 18
(A = 0.000, p = 2.000) K NC gr  1 0.6 1 c black 1 0.6 1 c
 gsave  408 306 930 345 C 1336.13 458.671 t 90 r /Helvetica-Bold findfont 28.5368 sf 0 0 m (/dof=0.1) show NC gr  black 1 0.6 1 c
 gsave  408 306 930 345 C 1324.73 447.276 t 90 r /Helvetica-Bold findfont 19.9758 sf 0 0 m (2) show NC gr  black 1 0.6 1 c
 gsave  408 306 930 345 C 1336.13 430.182 t 90 r /Symbol findfont 28.5368 sf 0 0 m (c) show NC gr  black 3 lw 1 1 1 c 408 306 1383 345 bf black 1 1 1 c black 306 229 1445 391 bl 306 229 1445 391 bl 1445 391 m 306 X s 1445 395 m -4 Y s 1558 395 m -4 Y
 s 1672 395 m -4 Y s 1672 395 m -4 Y s
 gsave  408 306 1383 345 C 1435.84 370.356 t 0 r /Helvetica findfont 22.8295 sf 0 0 m (0) show NC gr 
 gsave  408 306 1383 345 C 1535.55 370.356 t 0 r /Helvetica findfont 22.8295 sf 0 0 m (200) show NC gr 
 gsave  408 306 1383 345 C 1649.51 370.356 t 0 r /Helvetica findfont 22.8295 sf 0 0 m (400) show NC gr  1445 620 m 306 X s 1445 616 m 4 Y s 1558 616 m 4 Y s 1672 616 m 4 Y s 1672 616 m 4 Y s 1445 391 m 229 Y s 1450 415 m -5 X s 1447 422 m -2 X s 1447
 429 m -2 X s 1447 437 m -2 X s 1447 444 m -2 X s 1450 451 m -5 X s 1447 458 m -2 X s 1447 465 m -2 X s 1447 472 m -2 X s 1447 479 m -2 X s 1450 486 m -5 X s 1447 493 m -2 X s 1447 500 m -2 X s 1447 507 m -2 X s 1447 515 m -2 X s 1450 522 m -5 X s
 1447 529 m -2 X s 1447 536 m -2 X s 1447 543 m -2 X s 1447 550 m -2 X s 1450 557 m -5 X s 1447 564 m -2 X s 1447 571 m -2 X s 1447 578 m -2 X s 1447 586 m -2 X s 1450 593 m -5 X s 1450 415 m -5 X s 1447 408 m -2 X s 1447 401 m -2 X s 1447 394 m -2 X
 s 1450 593 m -5 X s 1447 600 m -2 X s 1447 607 m -2 X s 1447 614 m -2 X s
 gsave  408 306 1383 345 C 1427.29 407.391 t 0 r /Helvetica findfont 22.8295 sf 0 0 m (0) show NC gr 
 gsave  408 306 1383 345 C 1398.81 444.427 t 0 r /Helvetica findfont 22.8295 sf 0 0 m (0.01) show NC gr 
 gsave  408 306 1383 345 C 1395.96 478.614 t 0 r /Helvetica findfont 22.8295 sf 0 0 m (0.02) show NC gr 
 gsave  408 306 1383 345 C 1395.96 515.649 t 0 r /Helvetica findfont 22.8295 sf 0 0 m (0.03) show NC gr 
 gsave  408 306 1383 345 C 1395.96 549.836 t 0 r /Helvetica findfont 22.8295 sf 0 0 m (0.04) show NC gr 
 gsave  408 306 1383 345 C 1395.96 586.871 t 0 r /Helvetica findfont 22.8295 sf 0 0 m (0.05) show NC gr  1751 391 m 229 Y s 1745 415 m 6 X s 1748 422 m 3 X s 1748 429 m 3 X s 1748 437 m 3 X s 1748 444 m 3 X s 1745 451 m 6 X s 1748 458 m 3 X s 1748
 465 m 3 X s 1748 472 m 3 X s 1748 479 m 3 X s 1745 486 m 6 X s 1748 493 m 3 X s 1748 500 m 3 X s 1748 507 m 3 X s 1748 515 m 3 X s 1745 522 m 6 X s 1748 529 m 3 X s 1748 536 m 3 X s 1748 543 m 3 X s 1748 550 m 3 X s 1745 557 m 6 X s 1748 564 m 3 X s
 1748 571 m 3 X s 1748 578 m 3 X s 1748 586 m 3 X s 1745 593 m 6 X s 1745 415 m 6 X s 1748 408 m 3 X s 1748 401 m 3 X s 1748 394 m 3 X s 1745 593 m 6 X s 1748 600 m 3 X s 1748 607 m 3 X s 1748 614 m 3 X s 1590 441 1735 569 2 { m21} R 1590 452 m 19 Y
 s 1584 471 m 11 X s 1590 429 m -19 Y s 1584 410 m 11 X s 1735 581 m 20 Y s 1729 601 m 11 X s 1735 558 m -20 Y s 1729 538 m 11 X s 1 0 0 c 9 lw 0.95 0.95 0.95 c black 1 0 0 c 1446 415 m 6 X 3 1 d 12 X 4 1 d 6 X 3 1 d 6 X 3 1 d 3 X 3 1 d 3 X 3 1 d 3 1
 d 3 X 3 1 d 3 1 d 3 1 d 4 X 3 1 d 3 1 d 3 1 d 3 1 d 3 1 d 3 1 d 3 1 d 3 1 d 3 1 d 3 1 d 3 1 d 3 2 d 3 1 d 3 1 d 3 1 d 4 2 d 3 1 d 3 2 d 3 1 d 3 2 d 3 1 d 3 2 d 3 1 d 3 2 d 3 1 d s 1596 456 m 3 2 d 3 2 d 3 2 d 3 1 d 3 2 d 3 2 d 4 2 d 3 2 d 3 2 d 3 2
 d 3 2 d 3 2 d 3 2 d 3 2 d 3 2 d 3 2 d 3 3 d 3 2 d 3 2 d 3 2 d 3 3 d 3 2 d 3 3 d 4 2 d 3 3 d 3 2 d 3 3 d 3 2 d 3 3 d 3 2 d 3 3 d 3 3 d 3 3 d 3 2 d 3 3 d 3 3 d 3 3 d 3 3 d 3 3 d 4 3 d 3 3 d 3 3 d 3 3 d 3 3 d 3 3 d 3 3 d 3 4 d 3 3 d 3 3 d s 1746 578 m
 3 4 d s 0.49 0.6 0.82 c black 0.49 0.6 0.82 c
 gsave  408 306 1383 345 C 1504.21 629.605 t 0 r /Helvetica-Bold findfont 25.6831 sf 0 0 m (6.5 < E < 7.0 GeV) show NC gr  0.52 0.76 0.64 c black 0.52 0.76 0.64 c
 gsave  408 306 1383 345 C 1489.97 592.569 t 0 r /Helvetica-Bold findfont 25.6831 sf 0 0 m 
 220 206 192 185 170 163 148 141 126 118 111 97 83 69 61 47 40 25 18
(A = 0.000, p = 2.000) K NC gr  1 0.6 1 c black 1 0.6 1 c
 gsave  408 306 1383 345 C 1789.1 458.671 t 90 r /Helvetica-Bold findfont 28.5368 sf 0 0 m (/dof=0.2) show NC gr  black 1 0.6 1 c
 gsave  408 306 1383 345 C 1777.71 447.276 t 90 r /Helvetica-Bold findfont 19.9758 sf 0 0 m (2) show NC gr  black 1 0.6 1 c
 gsave  408 306 1383 345 C 1789.1 430.182 t 90 r /Symbol findfont 28.5368 sf 0 0 m (c) show NC gr  black 3 lw 1 1 1 c 408 306 1837 345 bf black 1 1 1 c black 306 229 1898 391 bl 306 229 1898 391 bl 1898 391 m 306 X s 1898 395 m -4 Y s 2012 395 m -4 Y
 s 2126 395 m -4 Y s 2126 395 m -4 Y s
 gsave  408 306 1837 345 C 1888.81 370.356 t 0 r /Helvetica findfont 22.8295 sf 0 0 m (0) show NC gr 
 gsave  408 306 1837 345 C 1991.37 370.356 t 0 r /Helvetica findfont 22.8295 sf 0 0 m (200) show NC gr 
 gsave  408 306 1837 345 C 2105.33 370.356 t 0 r /Helvetica findfont 22.8295 sf 0 0 m (400) show NC gr  1898 620 m 306 X s 1898 616 m 4 Y s 2012 616 m 4 Y s 2126 616 m 4 Y s 2126 616 m 4 Y s 1898 391 m 229 Y s 1904 408 m -6 X s 1901 417 m -3 X s 1901
 425 m -3 X s 1901 434 m -3 X s 1901 442 m -3 X s 1904 451 m -6 X s 1901 459 m -3 X s 1901 468 m -3 X s 1901 476 m -3 X s 1901 485 m -3 X s 1904 493 m -6 X s 1901 502 m -3 X s 1901 510 m -3 X s 1901 519 m -3 X s 1901 527 m -3 X s 1904 536 m -6 X s
 1901 544 m -3 X s 1901 553 m -3 X s 1901 561 m -3 X s 1901 570 m -3 X s 1904 578 m -6 X s 1904 408 m -6 X s 1901 400 m -3 X s 1901 391 m -3 X s 1904 578 m -6 X s 1901 587 m -3 X s 1901 595 m -3 X s 1901 604 m -3 X s 1901 612 m -3 X s
 gsave  408 306 1837 345 C 1828.99 401.694 t 0 r /Helvetica findfont 22.8295 sf 0 0 m (\2550.005) show NC gr 
 gsave  408 306 1837 345 C 1880.27 444.427 t 0 r /Helvetica findfont 22.8295 sf 0 0 m (0) show NC gr 
 gsave  408 306 1837 345 C 1837.53 487.16 t 0 r /Helvetica findfont 22.8295 sf 0 0 m (0.005) show NC gr 
 gsave  408 306 1837 345 C 1851.78 527.045 t 0 r /Helvetica findfont 22.8295 sf 0 0 m (0.01) show NC gr 
 gsave  408 306 1837 345 C 1837.53 569.778 t 0 r /Helvetica findfont 22.8295 sf 0 0 m (0.015) show NC gr  2204 391 m 229 Y s 2199 408 m 5 X s 2201 417 m 3 X s 2201 425 m 3 X s 2201 434 m 3 X s 2201 442 m 3 X s 2199 451 m 5 X s 2201 459 m 3 X s 2201
 468 m 3 X s 2201 476 m 3 X s 2201 485 m 3 X s 2199 493 m 5 X s 2201 502 m 3 X s 2201 510 m 3 X s 2201 519 m 3 X s 2201 527 m 3 X s 2199 536 m 5 X s 2201 544 m 3 X s 2201 553 m 3 X s 2201 561 m 3 X s 2201 570 m 3 X s 2199 578 m 5 X s 2199 408 m 5 X s
 2201 400 m 3 X s 2201 391 m 3 X s 2199 578 m 5 X s 2201 587 m 3 X s 2201 595 m 3 X s 2201 604 m 3 X s 2201 612 m 3 X s 2043 519 2188 491 2 { m21} R 2043 530 m 71 Y s 2037 601 m 12 X s 2043 507 m -70 Y s 2037 437 m 12 X s 2188 503 m 70 Y s 2183 573 m
 11 X s 2188 480 m -70 Y s 2183 410 m 11 X s 9 lw 0.95 0.95 0.95 c black 1900 451 m 3 1 d 3 X 3 1 d 3 X 3 1 d 3 1 d 3 X 3 1 d 3 1 d 3 X 3 1 d 3 X 3 1 d 3 1 d 4 X 3 1 d 3 1 d 3 X 3 1 d 3 X 3 1 d 3 1 d 3 X 3 1 d 3 1 d 3 X 3 1 d 3 1 d 3 X 3 1 d 4 X 3 1
 d 3 1 d 3 X 3 1 d 3 1 d 3 X 3 1 d 3 X 3 1 d 3 1 d 3 X 3 1 d 3 1 d 3 X 3 1 d 3 1 d 4 X 3 1 d s 2050 482 m 3 X 3 1 d 3 1 d 3 X 3 1 d 3 1 d 3 X 3 1 d 3 X 3 1 d 3 1 d 3 X 3 1 d 3 1 d 4 X 3 1 d 3 X 3 1 d 3 1 d 3 X 3 1 d 3 1 d 3 X 3 1 d 3 1 d 3 X 3 1 d 3
 X 3 1 d 3 1 d 4 X 3 1 d 3 1 d 3 X 3 1 d 3 X 3 1 d 3 1 d 3 X 3 1 d 3 1 d 3 X 3 1 d 3 X 3 1 d 3 1 d 4 X 3 1 d 3 1 d s 2200 513 m 3 X s 0.49 0.6 0.82 c black 0.49 0.6 0.82 c
 gsave  408 306 1837 345 C 1957.19 629.605 t 0 r /Helvetica-Bold findfont 25.6831 sf 0 0 m (7.0 < E < 7.5 GeV) show NC gr  0.52 0.76 0.64 c black 0.52 0.76 0.64 c
 gsave  408 306 1837 345 C 1942.94 592.569 t 0 r /Helvetica-Bold findfont 25.6831 sf 0 0 m 
 220 206 192 185 170 163 148 141 125 118 111 97 83 69 61 47 40 25 18
(A = 0.000, p = 1.000) K NC gr  1 0.6 1 c black 1 0.6 1 c
 gsave  408 306 1837 345 C 2242.08 458.671 t 90 r /Helvetica-Bold findfont 28.5368 sf 0 0 m (/dof=0.3) show NC gr  black 1 0.6 1 c
 gsave  408 306 1837 345 C 2230.68 447.276 t 90 r /Helvetica-Bold findfont 19.9758 sf 0 0 m (2) show NC gr  black 1 0.6 1 c
 gsave  408 306 1837 345 C 2242.08 430.182 t 90 r /Symbol findfont 28.5368 sf 0 0 m (c) show NC gr  black 3 lw 1 1 1 c 408 306 23 13 bf black 1 1 1 c black 306 229 84 59 bl 306 229 84 59 bl 84 59 m 306 X s 84 63 m -4 Y s 198 63 m -4 Y s 311 63 m -4 Y
 s 311 63 m -4 Y s
 gsave  408 306 23 13 C 74.0711 39.8845 t 0 r /Helvetica findfont 22.8295 sf 0 0 m (0) show NC gr 
 gsave  408 306 23 13 C 176.631 39.8845 t 0 r /Helvetica findfont 22.8295 sf 0 0 m (200) show NC gr 
 gsave  408 306 23 13 C 290.587 39.8845 t 0 r /Helvetica findfont 22.8295 sf 0 0 m (400) show NC gr  84 288 m 306 X s 84 284 m 4 Y s 198 284 m 4 Y s 311 284 m 4 Y s 311 284 m 4 Y s 84 59 m 229 Y s 89 59 m -5 X s 87 67 m -3 X s 87 76 m -3 X s 87 84 m
 -3 X s 87 92 m -3 X s 89 101 m -5 X s 87 109 m -3 X s 87 117 m -3 X s 87 126 m -3 X s 87 134 m -3 X s 89 142 m -5 X s 87 151 m -3 X s 87 159 m -3 X s 87 167 m -3 X s 87 176 m -3 X s 89 184 m -5 X s 87 192 m -3 X s 87 201 m -3 X s 87 209 m -3 X s 87
 217 m -3 X s 89 226 m -5 X s 87 234 m -3 X s 87 242 m -3 X s 87 251 m -3 X s 87 259 m -3 X s 89 267 m -5 X s 89 267 m -5 X s 87 276 m -3 X s 87 284 m -3 X s
 gsave  408 306 23 13 C 65.5245 51.28 t 0 r /Helvetica findfont 22.8295 sf 0 0 m (0) show NC gr 
 gsave  408 306 23 13 C 22.7911 94.0134 t 0 r /Helvetica findfont 22.8295 sf 0 0 m (0.005) show NC gr 
 gsave  408 306 23 13 C 37.0356 133.898 t 0 r /Helvetica findfont 22.8295 sf 0 0 m (0.01) show NC gr 
 gsave  408 306 23 13 C 22.7911 176.631 t 0 r /Helvetica findfont 22.8295 sf 0 0 m (0.015) show NC gr 
 gsave  408 306 23 13 C 34.1867 219.365 t 0 r /Helvetica findfont 22.8295 sf 0 0 m (0.02) show NC gr 
 gsave  408 306 23 13 C 22.7911 259.249 t 0 r /Helvetica findfont 22.8295 sf 0 0 m (0.025) show NC gr  390 59 m 229 Y s 385 59 m 5 X s 387 67 m 3 X s 387 76 m 3 X s 387 84 m 3 X s 387 92 m 3 X s 385 101 m 5 X s 387 109 m 3 X s 387 117 m 3 X s 387 126
 m 3 X s 387 134 m 3 X s 385 142 m 5 X s 387 151 m 3 X s 387 159 m 3 X s 387 167 m 3 X s 387 176 m 3 X s 385 184 m 5 X s 387 192 m 3 X s 387 201 m 3 X s 387 209 m 3 X s 387 217 m 3 X s 385 226 m 5 X s 387 234 m 3 X s 387 242 m 3 X s 387 251 m 3 X s
 387 259 m 3 X s 385 267 m 5 X s 385 267 m 5 X s 387 276 m 3 X s 387 284 m 3 X s /w 22 def /w2 {w 2 div} def /w3 {w 3 div} def 229 181 374 158 2 { m21} R 229 192 m 76 Y s 223 268 m 12 X s 229 169 m -76 Y s 223 93 m 12 X s 374 169 m 76 Y s 368 245 m
 12 X s 374 146 m -76 Y s 368 70 m 12 X s 9 lw 0.95 0.95 0.95 c black 85 60 m 3 1 d 4 1 d 3 2 d 3 1 d 3 1 d 3 2 d 3 1 d 3 2 d 3 1 d 3 1 d 3 2 d 3 1 d 3 1 d 3 2 d 3 1 d 3 1 d 3 2 d 4 1 d 3 1 d 3 2 d 3 1 d 3 1 d 3 2 d 3 1 d 3 1 d 3 2 d 3 1 d 3 1 d 3 2
 d 3 1 d 3 1 d 3 2 d 3 1 d 4 1 d 3 2 d 3 1 d 3 2 d 3 1 d 3 1 d 3 2 d 3 1 d 3 1 d 3 2 d 3 1 d 3 1 d 3 2 d 3 1 d 3 1 d 3 2 d s 235 126 m 4 1 d 3 1 d 3 2 d 3 1 d 3 1 d 3 2 d 3 1 d 3 1 d 3 2 d 3 1 d 3 1 d 3 2 d 3 1 d 3 1 d 3 2 d 3 1 d 3 2 d 4 1 d 3 1 d 3
 2 d 3 1 d 3 1 d 3 2 d 3 1 d 3 1 d 3 2 d 3 1 d 3 1 d 3 2 d 3 1 d 3 1 d 3 2 d 3 1 d 4 1 d 3 2 d 3 1 d 3 1 d 3 2 d 3 1 d 3 1 d 3 2 d 3 1 d 3 1 d 3 2 d 3 1 d 3 1 d 3 2 d 3 1 d 3 2 d s 385 192 m 4 1 d s 0.49 0.6 0.82 c black 0.49 0.6 0.82 c
 gsave  408 306 23 13 C 142.445 296.285 t 0 r /Helvetica-Bold findfont 25.6831 sf 0 0 m (7.5 < E < 8.0 GeV) show NC gr  0.52 0.76 0.64 c black 0.52 0.76 0.64 c
 gsave  408 306 23 13 C 128.2 259.249 t 0 r /Helvetica-Bold findfont 25.6831 sf 0 0 m 
 220 206 192 185 170 163 148 141 126 118 111 97 83 69 61 47 40 25 18
(A = 0.000, p = 1.000) K NC gr  1 0.6 1 c black 1 0.6 1 c
 gsave  408 306 23 13 C 427.334 128.2 t 90 r /Helvetica-Bold findfont 28.5368 sf 0 0 m (/dof=0.5) show NC gr  black 1 0.6 1 c
 gsave  408 306 23 13 C 415.938 116.804 t 90 r /Helvetica-Bold findfont 19.9758 sf 0 0 m (2) show NC gr  black 1 0.6 1 c
 gsave  408 306 23 13 C 427.334 99.7112 t 90 r /Symbol findfont 28.5368 sf 0 0 m (c) show NC gr  black 3 lw 1 1 1 c 408 306 476 13 bf black 1 1 1 c black 307 229 537 59 bl 307 229 537 59 bl 537 59 m 307 X s 537 63 m -4 Y s 651 63 m -4 Y s 765 63 m -4
 Y s 765 63 m -4 Y s
 gsave  408 306 476 13 C 527.045 39.8845 t 0 r /Helvetica findfont 22.8295 sf 0 0 m (0) show NC gr 
 gsave  408 306 476 13 C 629.605 39.8845 t 0 r /Helvetica findfont 22.8295 sf 0 0 m (200) show NC gr 
 gsave  408 306 476 13 C 743.56 39.8845 t 0 r /Helvetica findfont 22.8295 sf 0 0 m (400) show NC gr  537 288 m 307 X s 537 284 m 4 Y s 651 284 m 4 Y s 765 284 m 4 Y s 765 284 m 4 Y s 537 59 m 229 Y s 543 84 m -6 X s 540 89 m -3 X s 540 95 m -3 X s
 540 100 m -3 X s 540 106 m -3 X s 543 112 m -6 X s 540 117 m -3 X s 540 123 m -3 X s 540 128 m -3 X s 540 134 m -3 X s 543 140 m -6 X s 540 145 m -3 X s 540 151 m -3 X s 540 156 m -3 X s 540 162 m -3 X s 543 167 m -6 X s 540 173 m -3 X s 540 179 m
 -3 X s 540 184 m -3 X s 540 190 m -3 X s 543 195 m -6 X s 540 201 m -3 X s 540 207 m -3 X s 540 212 m -3 X s 540 218 m -3 X s 543 223 m -6 X s 540 229 m -3 X s 540 235 m -3 X s 540 240 m -3 X s 540 246 m -3 X s 543 251 m -6 X s 540 257 m -3 X s 540
 263 m -3 X s 540 268 m -3 X s 540 274 m -3 X s 543 279 m -6 X s 543 84 m -6 X s 540 78 m -3 X s 540 72 m -3 X s 540 67 m -3 X s 540 61 m -3 X s 543 279 m -6 X s 540 285 m -3 X s
 gsave  408 306 476 13 C 467.218 76.92 t 0 r /Helvetica findfont 22.8295 sf 0 0 m (\2550.015) show NC gr 
 gsave  408 306 476 13 C 484.311 105.409 t 0 r /Helvetica findfont 22.8295 sf 0 0 m (\2550.01) show NC gr 
 gsave  408 306 476 13 C 467.218 131.049 t 0 r /Helvetica findfont 22.8295 sf 0 0 m (\2550.005) show NC gr 
 gsave  408 306 476 13 C 518.498 159.538 t 0 r /Helvetica findfont 22.8295 sf 0 0 m (0) show NC gr 
 gsave  408 306 476 13 C 475.765 188.027 t 0 r /Helvetica findfont 22.8295 sf 0 0 m (0.005) show NC gr 
 gsave  408 306 476 13 C 490.009 216.516 t 0 r /Helvetica findfont 22.8295 sf 0 0 m (0.01) show NC gr 
 gsave  408 306 476 13 C 475.765 245.005 t 0 r /Helvetica findfont 22.8295 sf 0 0 m (0.015) show NC gr 
 gsave  408 306 476 13 C 487.16 273.493 t 0 r /Helvetica findfont 22.8295 sf 0 0 m (0.02) show NC gr  844 59 m 229 Y s 838 84 m 6 X s 841 89 m 3 X s 841 95 m 3 X s 841 100 m 3 X s 841 106 m 3 X s 838 112 m 6 X s 841 117 m 3 X s 841 123 m 3 X s 841
 128 m 3 X s 841 134 m 3 X s 838 140 m 6 X s 841 145 m 3 X s 841 151 m 3 X s 841 156 m 3 X s 841 162 m 3 X s 838 167 m 6 X s 841 173 m 3 X s 841 179 m 3 X s 841 184 m 3 X s 841 190 m 3 X s 838 195 m 6 X s 841 201 m 3 X s 841 207 m 3 X s 841 212 m 3 X
 s 841 218 m 3 X s 838 223 m 6 X s 841 229 m 3 X s 841 235 m 3 X s 841 240 m 3 X s 841 246 m 3 X s 838 251 m 6 X s 841 257 m 3 X s 841 263 m 3 X s 841 268 m 3 X s 841 274 m 3 X s 838 279 m 6 X s 838 84 m 6 X s 841 78 m 3 X s 841 72 m 3 X s 841 67 m 3
 X s 841 61 m 3 X s 838 279 m 6 X s 841 285 m 3 X s /w 23 def /w2 {w 2 div} def /w3 {w 3 div} def 683 140 828 206 2 { m21} R 683 152 m 51 Y s 677 203 m 11 X s 683 129 m -51 Y s 677 78 m 11 X s 828 218 m 51 Y s 822 269 m 11 X s 828 195 m -52 Y s 822
 143 m 11 X s 1 0 0 c 9 lw 0.95 0.95 0.95 c black 1 0 0 c 539 167 m 6 X 3 1 d 43 X 3 1 d 18 X 4 1 d 12 X 3 1 d 12 X 3 1 d 9 X 3 1 d 10 X 3 1 d 6 X 3 1 d 6 X 3 1 d s 689 176 m 6 X 3 1 d 6 X 3 1 d 6 X 4 1 d 3 X 3 1 d 6 X 3 1 d 3 X 3 1 d 3 X 3 1 d 3 X 3
 1 d 6 X 3 1 d 3 X 4 1 d 3 X 3 1 d 3 X 3 1 d 3 1 d 3 X 3 1 d 3 X 3 1 d 3 X 3 1 d 3 X 3 1 d 3 1 d 3 X 4 1 d 3 X 3 1 d 3 1 d 3 X 3 1 d 3 X 3 1 d 3 1 d s 839 200 m 3 X s 0.49 0.6 0.82 c black 0.49 0.6 0.82 c
 gsave  408 306 476 13 C 595.418 296.285 t 0 r /Helvetica-Bold findfont 25.6831 sf 0 0 m (8.0 < E < 8.5 GeV) show NC gr  0.52 0.76 0.64 c black 0.52 0.76 0.64 c
 gsave  408 306 476 13 C 581.174 259.249 t 0 r /Helvetica-Bold findfont 25.6831 sf 0 0 m 
 220 206 192 185 170 163 148 141 125 118 111 97 83 68 61 47 40 25 18
(A = 0.000, p = 2.000) K NC gr  1 0.6 1 c black 1 0.6 1 c
 gsave  408 306 476 13 C 883.156 128.2 t 90 r /Helvetica-Bold findfont 28.5368 sf 0 0 m (/dof=0.3) show NC gr  black 1 0.6 1 c
 gsave  408 306 476 13 C 871.76 116.804 t 90 r /Helvetica-Bold findfont 19.9758 sf 0 0 m (2) show NC gr  black 1 0.6 1 c
 gsave  408 306 476 13 C 883.156 99.7112 t 90 r /Symbol findfont 28.5368 sf 0 0 m (c) show NC gr  black 3 lw 1 1 1 c 408 306 930 13 bf black 1 1 1 c black 306 229 991 59 bl 306 229 991 59 bl 991 59 m 306 X s 991 63 m -4 Y s 1105 63 m -4 Y s 1219 63 m
 -4 Y s 1219 63 m -4 Y s
 gsave  408 306 930 13 C 980.018 39.8845 t 0 r /Helvetica findfont 22.8295 sf 0 0 m (0) show NC gr 
 gsave  408 306 930 13 C 1082.58 39.8845 t 0 r /Helvetica findfont 22.8295 sf 0 0 m (200) show NC gr 
 gsave  408 306 930 13 C 1196.53 39.8845 t 0 r /Helvetica findfont 22.8295 sf 0 0 m (400) show NC gr  991 288 m 306 X s 991 284 m 4 Y s 1105 284 m 4 Y s 1219 284 m 4 Y s 1219 284 m 4 Y s 991 59 m 229 Y s 997 75 m -6 X s 994 80 m -3 X s 994 84 m -3 X
 s 994 89 m -3 X s 994 94 m -3 X s 997 99 m -6 X s 994 103 m -3 X s 994 108 m -3 X s 994 113 m -3 X s 994 117 m -3 X s 997 122 m -6 X s 994 127 m -3 X s 994 131 m -3 X s 994 136 m -3 X s 994 141 m -3 X s 997 146 m -6 X s 994 150 m -3 X s 994 155 m -3
 X s 994 160 m -3 X s 994 164 m -3 X s 997 169 m -6 X s 994 174 m -3 X s 994 178 m -3 X s 994 183 m -3 X s 994 188 m -3 X s 997 193 m -6 X s 994 197 m -3 X s 994 202 m -3 X s 994 207 m -3 X s 994 211 m -3 X s 997 216 m -6 X s 994 221 m -3 X s 994 225
 m -3 X s 994 230 m -3 X s 994 235 m -3 X s 997 240 m -6 X s 994 244 m -3 X s 994 249 m -3 X s 994 254 m -3 X s 994 258 m -3 X s 997 263 m -6 X s 994 268 m -3 X s 994 272 m -3 X s 994 277 m -3 X s 994 282 m -3 X s 997 287 m -6 X s 997 75 m -6 X s 994
 70 m -3 X s 994 66 m -3 X s 994 61 m -3 X s 997 287 m -6 X s
 gsave  408 306 930 13 C 923.04 68.3734 t 0 r /Helvetica findfont 22.8295 sf 0 0 m (\2550.035) show NC gr 
 gsave  408 306 930 13 C 937.285 91.1645 t 0 r /Helvetica findfont 22.8295 sf 0 0 m (\2550.03) show NC gr 
 gsave  408 306 930 13 C 923.04 113.956 t 0 r /Helvetica findfont 22.8295 sf 0 0 m (\2550.025) show NC gr 
 gsave  408 306 930 13 C 937.285 139.596 t 0 r /Helvetica findfont 22.8295 sf 0 0 m (\2550.02) show NC gr 
 gsave  408 306 930 13 C 923.04 162.387 t 0 r /Helvetica findfont 22.8295 sf 0 0 m (\2550.015) show NC gr 
 gsave  408 306 930 13 C 940.134 185.178 t 0 r /Helvetica findfont 22.8295 sf 0 0 m (\2550.01) show NC gr 
 gsave  408 306 930 13 C 923.04 207.969 t 0 r /Helvetica findfont 22.8295 sf 0 0 m (\2550.005) show NC gr 
 gsave  408 306 930 13 C 974.32 233.609 t 0 r /Helvetica findfont 22.8295 sf 0 0 m (0) show NC gr 
 gsave  408 306 930 13 C 931.587 256.4 t 0 r /Helvetica findfont 22.8295 sf 0 0 m (0.005) show NC gr 
 gsave  408 306 930 13 C 945.832 279.191 t 0 r /Helvetica findfont 22.8295 sf 0 0 m (0.01) show NC gr  1297 59 m 229 Y s 1292 75 m 5 X s 1294 80 m 3 X s 1294 84 m 3 X s 1294 89 m 3 X s 1294 94 m 3 X s 1292 99 m 5 X s 1294 103 m 3 X s 1294 108 m 3 X s
 1294 113 m 3 X s 1294 117 m 3 X s 1292 122 m 5 X s 1294 127 m 3 X s 1294 131 m 3 X s 1294 136 m 3 X s 1294 141 m 3 X s 1292 146 m 5 X s 1294 150 m 3 X s 1294 155 m 3 X s 1294 160 m 3 X s 1294 164 m 3 X s 1292 169 m 5 X s 1294 174 m 3 X s 1294 178 m
 3 X s 1294 183 m 3 X s 1294 188 m 3 X s 1292 193 m 5 X s 1294 197 m 3 X s 1294 202 m 3 X s 1294 207 m 3 X s 1294 211 m 3 X s 1292 216 m 5 X s 1294 221 m 3 X s 1294 225 m 3 X s 1294 230 m 3 X s 1294 235 m 3 X s 1292 240 m 5 X s 1294 244 m 3 X s 1294
 249 m 3 X s 1294 254 m 3 X s 1294 258 m 3 X s 1292 263 m 5 X s 1294 268 m 3 X s 1294 272 m 3 X s 1294 277 m 3 X s 1294 282 m 3 X s 1292 287 m 5 X s 1292 75 m 5 X s 1294 70 m 3 X s 1294 66 m 3 X s 1294 61 m 3 X s 1292 287 m 5 X s 1136 133 1281 213 2
 { m21} R 1136 144 m 44 Y s 1130 188 m 12 X s 1136 122 m -44 Y s 1130 78 m 12 X s 1281 225 m 44 Y s 1275 269 m 12 X s 1281 202 m -44 Y s 1275 158 m 12 X s 9 lw 0.95 0.95 0.95 c black 993 239 m 3 X 3 -1 d 3 -1 d 3 X 3 -1 d 3 -1 d 3 -1 d 3 X 3 -1 d 3
 -1 d 3 X 3 -1 d 3 -1 d 3 X 3 -1 d 4 -1 d 3 X 3 -1 d 3 -1 d 3 X 3 -1 d 3 -1 d 3 X 3 -1 d 3 -1 d 3 X 3 -1 d 3 -1 d 3 X 3 -1 d 3 -1 d 3 X 4 -1 d 3 -1 d 3 -1 d 3 X 3 -1 d 3 -1 d 3 X 3 -1 d 3 -1 d 3 X 3 -1 d 3 -1 d 3 X 3 -1 d 3 -1 d 3 X 4 -1 d s 1143 206
 m 3 -1 d 3 X 3 -1 d 3 -1 d 3 X 3 -1 d 3 -1 d 3 X 3 -1 d 3 -1 d 3 -1 d 3 X 3 -1 d 3 -1 d 3 X 4 -1 d 3 -1 d 3 X 3 -1 d 3 -1 d 3 X 3 -1 d 3 -1 d 3 X 3 -1 d 3 -1 d 3 X 3 -1 d 3 -1 d 3 X 3 -1 d 3 -1 d 4 X 3 -1 d 3 -1 d 3 X 3 -1 d 3 -1 d 3 -1 d 3 X 3 -1 d
 3 -1 d 3 X 3 -1 d 3 -1 d 3 X 3 -1 d 3 -1 d 4 X s 1293 173 m 3 -1 d s 0.49 0.6 0.82 c black 0.49 0.6 0.82 c
 gsave  408 306 930 13 C 1051.24 296.285 t 0 r /Helvetica-Bold findfont 25.6831 sf 0 0 m (8.5 < E < 9.0 GeV) show NC gr  0.52 0.76 0.64 c black 0.52 0.76 0.64 c
 gsave  408 306 930 13 C 1031.3 259.249 t 0 r /Helvetica-Bold findfont 25.6831 sf 0 0 m 
 228 214 200 193 178 171 156 149 133 126 119 105 91 77 69 55 47 39 25 17
(A = \2550.000, p = 1.000) K NC gr  1 0.6 1 c black 1 0.6 1 c
 gsave  408 306 930 13 C 1336.13 128.2 t 90 r /Helvetica-Bold findfont 28.5368 sf 0 0 m (/dof=2.3) show NC gr  black 1 0.6 1 c
 gsave  408 306 930 13 C 1324.73 116.804 t 90 r /Helvetica-Bold findfont 19.9758 sf 0 0 m (2) show NC gr  black 1 0.6 1 c
 gsave  408 306 930 13 C 1336.13 99.7112 t 90 r /Symbol findfont 28.5368 sf 0 0 m (c) show NC gr  black 3 lw 1 1 1 c 408 306 1383 13 bf black 1 1 1 c black 306 229 1445 59 bl 306 229 1445 59 bl 1445 59 m 306 X s 1445 63 m -4 Y s 1558 63 m -4 Y s 1672
 63 m -4 Y s 1672 63 m -4 Y s
 gsave  408 306 1383 13 C 1435.84 39.8845 t 0 r /Helvetica findfont 22.8295 sf 0 0 m (0) show NC gr 
 gsave  408 306 1383 13 C 1535.55 39.8845 t 0 r /Helvetica findfont 22.8295 sf 0 0 m (200) show NC gr 
 gsave  408 306 1383 13 C 1649.51 39.8845 t 0 r /Helvetica findfont 22.8295 sf 0 0 m (400) show NC gr  1445 288 m 306 X s 1445 284 m 4 Y s 1558 284 m 4 Y s 1672 284 m 4 Y s 1672 284 m 4 Y s 1445 59 m 229 Y s 1450 59 m -5 X s 1447 66 m -2 X s 1447 72
 m -2 X s 1447 79 m -2 X s 1447 86 m -2 X s 1450 93 m -5 X s 1447 99 m -2 X s 1447 106 m -2 X s 1447 113 m -2 X s 1447 119 m -2 X s 1450 126 m -5 X s 1447 133 m -2 X s 1447 139 m -2 X s 1447 146 m -2 X s 1447 153 m -2 X s 1450 159 m -5 X s 1447 166 m
 -2 X s 1447 173 m -2 X s 1447 179 m -2 X s 1447 186 m -2 X s 1450 193 m -5 X s 1447 200 m -2 X s 1447 206 m -2 X s 1447 213 m -2 X s 1447 220 m -2 X s 1450 226 m -5 X s 1447 233 m -2 X s 1447 240 m -2 X s 1447 246 m -2 X s 1447 253 m -2 X s 1450 260
 m -5 X s 1450 260 m -5 X s 1447 266 m -2 X s 1447 273 m -2 X s 1447 280 m -2 X s 1447 287 m -2 X s
 gsave  408 306 1383 13 C 1427.29 51.28 t 0 r /Helvetica findfont 22.8295 sf 0 0 m (0) show NC gr 
 gsave  408 306 1383 13 C 1384.56 85.4667 t 0 r /Helvetica findfont 22.8295 sf 0 0 m (0.005) show NC gr 
 gsave  408 306 1383 13 C 1398.81 119.653 t 0 r /Helvetica findfont 22.8295 sf 0 0 m (0.01) show NC gr 
 gsave  408 306 1383 13 C 1384.56 150.991 t 0 r /Helvetica findfont 22.8295 sf 0 0 m (0.015) show NC gr 
 gsave  408 306 1383 13 C 1395.96 185.178 t 0 r /Helvetica findfont 22.8295 sf 0 0 m (0.02) show NC gr 
 gsave  408 306 1383 13 C 1384.56 219.365 t 0 r /Helvetica findfont 22.8295 sf 0 0 m (0.025) show NC gr 
 gsave  408 306 1383 13 C 1395.96 253.551 t 0 r /Helvetica findfont 22.8295 sf 0 0 m (0.03) show NC gr  1751 59 m 229 Y s 1745 59 m 6 X s 1748 66 m 3 X s 1748 72 m 3 X s 1748 79 m 3 X s 1748 86 m 3 X s 1745 93 m 6 X s 1748 99 m 3 X s 1748 106 m 3 X s
 1748 113 m 3 X s 1748 119 m 3 X s 1745 126 m 6 X s 1748 133 m 3 X s 1748 139 m 3 X s 1748 146 m 3 X s 1748 153 m 3 X s 1745 159 m 6 X s 1748 166 m 3 X s 1748 173 m 3 X s 1748 179 m 3 X s 1748 186 m 3 X s 1745 193 m 6 X s 1748 200 m 3 X s 1748 206 m
 3 X s 1748 213 m 3 X s 1748 220 m 3 X s 1745 226 m 6 X s 1748 233 m 3 X s 1748 240 m 3 X s 1748 246 m 3 X s 1748 253 m 3 X s 1745 260 m 6 X s 1745 260 m 6 X s 1748 266 m 3 X s 1748 273 m 3 X s 1748 280 m 3 X s 1748 287 m 3 X s 1590 163 1735 183 2 {
 m21} R 1590 175 m 74 Y s 1584 249 m 11 X s 1590 152 m -75 Y s 1584 77 m 11 X s 1735 194 m 75 Y s 1729 269 m 11 X s 1735 171 m -74 Y s 1729 97 m 11 X s 9 lw 0.95 0.95 0.95 c black 1446 60 m 3 1 d 3 2 d 3 1 d 3 2 d 3 1 d 3 2 d 3 1 d 4 2 d 3 1 d 3 2 d
 3 1 d 3 2 d 3 1 d 3 2 d 3 1 d 3 2 d 3 1 d 3 2 d 3 1 d 3 2 d 3 1 d 3 1 d 3 2 d 4 1 d 3 2 d 3 1 d 3 2 d 3 1 d 3 2 d 3 1 d 3 2 d 3 1 d 3 2 d 3 1 d 3 2 d 3 1 d 3 2 d 3 1 d 3 2 d 4 1 d 3 2 d 3 1 d 3 2 d 3 1 d 3 2 d 3 1 d 3 2 d 3 1 d 3 2 d s 1596 133 m 3
 1 d 3 2 d 3 1 d 3 2 d 3 1 d 3 1 d 4 2 d 3 1 d 3 2 d 3 1 d 3 2 d 3 1 d 3 2 d 3 1 d 3 2 d 3 1 d 3 2 d 3 1 d 3 2 d 3 1 d 3 2 d 3 1 d 3 2 d 4 1 d 3 2 d 3 1 d 3 2 d 3 1 d 3 2 d 3 1 d 3 2 d 3 1 d 3 2 d 3 1 d 3 2 d 3 1 d 3 2 d 3 1 d 3 1 d 4 2 d 3 1 d 3 2 d
 3 1 d 3 2 d 3 1 d 3 2 d 3 1 d 3 2 d 3 1 d s 1746 205 m 3 2 d s 0.49 0.6 0.82 c black 0.49 0.6 0.82 c
 gsave  408 306 1383 13 C 1504.21 296.285 t 0 r /Helvetica-Bold findfont 25.6831 sf 0 0 m (9.0 < E < 9.5 GeV) show NC gr  0.52 0.76 0.64 c black 0.52 0.76 0.64 c
 gsave  408 306 1383 13 C 1489.97 259.249 t 0 r /Helvetica-Bold findfont 25.6831 sf 0 0 m 
 220 206 192 185 170 163 148 141 126 118 111 97 83 69 61 47 40 25 18
(A = 0.000, p = 1.000) K NC gr  1 0.6 1 c black 1 0.6 1 c
 gsave  408 306 1383 13 C 1789.1 128.2 t 90 r /Helvetica-Bold findfont 28.5368 sf 0 0 m (/dof=0.2) show NC gr  black 1 0.6 1 c
 gsave  408 306 1383 13 C 1777.71 116.804 t 90 r /Helvetica-Bold findfont 19.9758 sf 0 0 m (2) show NC gr  black 1 0.6 1 c
 gsave  408 306 1383 13 C 1789.1 99.7112 t 90 r /Symbol findfont 28.5368 sf 0 0 m (c) show NC gr  black 3 lw 1 1 1 c 408 306 1837 13 bf black 1 1 1 c black 306 229 1898 59 bl 306 229 1898 59 bl 1898 59 m 306 X s 1898 63 m -4 Y s 2012 63 m -4 Y s 2126
 63 m -4 Y s 2126 63 m -4 Y s
 gsave  408 306 1837 13 C 1888.81 39.8845 t 0 r /Helvetica findfont 22.8295 sf 0 0 m (0) show NC gr 
 gsave  408 306 1837 13 C 1991.37 39.8845 t 0 r /Helvetica findfont 22.8295 sf 0 0 m (200) show NC gr 
 gsave  408 306 1837 13 C 2105.33 39.8845 t 0 r /Helvetica findfont 22.8295 sf 0 0 m (400) show NC gr  1898 288 m 306 X s 1898 284 m 4 Y s 2012 284 m 4 Y s 2126 284 m 4 Y s 2126 284 m 4 Y s 1898 59 m 229 Y s 1904 71 m -6 X s 1901 77 m -3 X s 1901 82
 m -3 X s 1901 88 m -3 X s 1901 93 m -3 X s 1904 99 m -6 X s 1901 104 m -3 X s 1901 110 m -3 X s 1901 115 m -3 X s 1901 121 m -3 X s 1904 126 m -6 X s 1901 132 m -3 X s 1901 137 m -3 X s 1901 142 m -3 X s 1901 148 m -3 X s 1904 153 m -6 X s 1901 159
 m -3 X s 1901 164 m -3 X s 1901 170 m -3 X s 1901 175 m -3 X s 1904 181 m -6 X s 1901 186 m -3 X s 1901 192 m -3 X s 1901 197 m -3 X s 1901 203 m -3 X s 1904 208 m -6 X s 1901 214 m -3 X s 1901 219 m -3 X s 1901 225 m -3 X s 1901 230 m -3 X s 1904
 236 m -6 X s 1901 241 m -3 X s 1901 247 m -3 X s 1901 252 m -3 X s 1901 257 m -3 X s 1904 263 m -6 X s 1904 71 m -6 X s 1901 66 m -3 X s 1901 60 m -3 X s 1904 263 m -6 X s 1901 268 m -3 X s 1901 274 m -3 X s 1901 279 m -3 X s 1901 285 m -3 X s
 gsave  408 306 1837 13 C 1843.23 65.5245 t 0 r /Helvetica findfont 22.8295 sf 0 0 m (\2550.02) show NC gr 
 gsave  408 306 1837 13 C 1828.99 91.1645 t 0 r /Helvetica findfont 22.8295 sf 0 0 m (\2550.015) show NC gr 
 gsave  408 306 1837 13 C 1846.08 119.653 t 0 r /Helvetica findfont 22.8295 sf 0 0 m (\2550.01) show NC gr 
 gsave  408 306 1837 13 C 1828.99 145.293 t 0 r /Helvetica findfont 22.8295 sf 0 0 m (\2550.005) show NC gr 
 gsave  408 306 1837 13 C 1880.27 173.782 t 0 r /Helvetica findfont 22.8295 sf 0 0 m (0) show NC gr 
 gsave  408 306 1837 13 C 1837.53 202.271 t 0 r /Helvetica findfont 22.8295 sf 0 0 m (0.005) show NC gr 
 gsave  408 306 1837 13 C 1851.78 227.911 t 0 r /Helvetica findfont 22.8295 sf 0 0 m (0.01) show NC gr 
 gsave  408 306 1837 13 C 1837.53 256.4 t 0 r /Helvetica findfont 22.8295 sf 0 0 m (0.015) show NC gr  2204 59 m 229 Y s 2199 71 m 5 X s 2201 77 m 3 X s 2201 82 m 3 X s 2201 88 m 3 X s 2201 93 m 3 X s 2199 99 m 5 X s 2201 104 m 3 X s 2201 110 m 3 X s
 2201 115 m 3 X s 2201 121 m 3 X s 2199 126 m 5 X s 2201 132 m 3 X s 2201 137 m 3 X s 2201 142 m 3 X s 2201 148 m 3 X s 2199 153 m 5 X s 2201 159 m 3 X s 2201 164 m 3 X s 2201 170 m 3 X s 2201 175 m 3 X s 2199 181 m 5 X s 2201 186 m 3 X s 2201 192 m
 3 X s 2201 197 m 3 X s 2201 203 m 3 X s 2199 208 m 5 X s 2201 214 m 3 X s 2201 219 m 3 X s 2201 225 m 3 X s 2201 230 m 3 X s 2199 236 m 5 X s 2201 241 m 3 X s 2201 247 m 3 X s 2201 252 m 3 X s 2201 257 m 3 X s 2199 263 m 5 X s 2199 71 m 5 X s 2201
 66 m 3 X s 2201 60 m 3 X s 2199 263 m 5 X s 2201 268 m 3 X s 2201 274 m 3 X s 2201 279 m 3 X s 2201 285 m 3 X s 2043 195 2188 151 2 { m21} R 2043 207 m 62 Y s 2037 269 m 12 X s 2043 184 m -62 Y s 2037 122 m 12 X s 2188 162 m 62 Y s 2183 224 m 11 X s
 2188 139 m -61 Y s 2183 78 m 11 X s 1 0 0 c 9 lw 0.95 0.95 0.95 c black 1 0 0 c 1900 181 m 30 X 3 -1 d 31 X 3 -1 d 18 X 3 -1 d 16 X 3 -1 d 12 X 3 -1 d 9 X 3 -1 d 9 X 4 -1 d 3 X s 2050 174 m 3 X 3 -1 d 9 X 3 -1 d 6 X 3 -1 d 6 X 3 -1 d 6 X 4 -1 d 6 X
 3 -1 d 3 X 3 -1 d 6 X 3 -1 d 3 X 3 -1 d 6 X 3 -1 d 3 X 3 -1 d 4 X 3 -1 d 6 X 3 -1 d 3 X 3 -1 d 3 X 3 -1 d 3 X 3 -1 d 3 X 3 -1 d 3 X 3 -1 d 3 X 4 -1 d 3 X 3 -1 d s 2200 154 m 3 -1 d s 0.49 0.6 0.82 c black 0.49 0.6 0.82 c
 gsave  408 306 1837 13 C 1948.64 296.285 t 0 r /Helvetica-Bold findfont 25.6831 sf 0 0 m (9.5 < E < 10.0 GeV) show NC gr  0.52 0.76 0.64 c black 0.52 0.76 0.64 c
 gsave  408 306 1837 13 C 1937.25 259.249 t 0 r /Helvetica-Bold findfont 25.6831 sf 0 0 m 
 228 214 200 193 178 171 156 149 133 126 119 105 91 77 69 55 47 39 25 17
(A = \2550.000, p = 2.000) K NC gr  1 0.6 1 c black 1 0.6 1 c
 gsave  408 306 1837 13 C 2242.08 128.2 t 90 r /Helvetica-Bold findfont 28.5368 sf 0 0 m (/dof=0.1) show NC gr  black 1 0.6 1 c
 gsave  408 306 1837 13 C 2230.68 116.804 t 90 r /Helvetica-Bold findfont 19.9758 sf 0 0 m (2) show NC gr  black 1 0.6 1 c
 gsave  408 306 1837 13 C 2242.08 99.7112 t 90 r /Symbol findfont 28.5368 sf 0 0 m (c) show NC gr 
 gr  gr showpage
end
%%EOF
