%!PS-Adobe-2.0 EPSF-2.0
%%BoundingBox:  0 0 567 332
%%Title: LBNEFDX_nof_fits.eps: Fits
%%Creator: ROOT Version 5.30/06
%%CreationDate: Sun Feb  2 09:28:00 2014
%%EndComments
%%BeginProlog
80 dict begin
/s {stroke} def /l {lineto} def /m {moveto} def /t {translate} def
/r {rotate} def /rl {roll}  def /R {repeat} def
/d {rlineto} def /rm {rmoveto} def /gr {grestore} def /f {eofill} def
/c {setrgbcolor} def /black {0 setgray} def /sd {setdash} def
/cl {closepath} def /sf {scalefont setfont} def /lw {setlinewidth} def
/box {m dup 0 exch d exch 0 d 0 exch neg d cl} def
/NC{systemdict begin initclip end}def/C{NC box clip newpath}def
/bl {box s} def /bf {box f} def /Y { 0 exch d} def /X { 0 d} def 
/K {{pop pop 0 moveto} exch kshow} bind def
/ita {/ang 15 def gsave [1 0 ang dup sin exch cos div 1 0 0] concat} def 
/mp {newpath /y exch def /x exch def} def
/side {[w .77 mul w .23 mul] .385 w mul sd w 0 l currentpoint t -144 r} def
/mr {mp x y w2 0 360 arc} def /m24 {mr s} def /m20 {mr f} def
/mb {mp x y w2 add m w2 neg 0 d 0 w neg d w 0 d 0 w d cl} def
/mt {mp x y w2 add m w2 neg w neg d w 0 d cl} def
/m21 {mb f} def /m25 {mb s} def /m22 {mt f} def /m26{mt s} def
/m23 {mp x y w2 sub m w2 w d w neg 0 d cl f} def
/m27 {mp x y w2 add m w3 neg w2 neg d w3 w2 neg d w3 w2 d cl s} def
/m28 {mp x w2 sub y w2 sub w3 add m w3 0 d  0 w3 neg d w3 0 d 0 w3 d w3 0 d  0 w3 d w3 neg 0 d 0 w3 d w3 neg 0 d 0 w3 neg d w3 neg 0 d cl s } def
/m29 {mp gsave x w2 sub y w2 add w3 sub m currentpoint t 4 {side} repeat cl fill gr} def
/m30 {mp gsave x w2 sub y w2 add w3 sub m currentpoint t 4 {side} repeat cl s gr} def
/m31 {mp x y w2 sub m 0 w d x w2 sub y m w 0 d x w2 sub y w2 add m w w neg d x w2 sub y w2 sub m w w d s} def
/m32 {mp x y w2 sub m w2 w d w neg 0 d cl s} def
/m33 {mp x y w2 add m w3 neg w2 neg d w3 w2 neg d w3 w2 d cl f} def
/m34 {mp x w2 sub y w2 sub w3 add m w3 0 d  0 w3 neg d w3 0 d 0 w3 d w3 0 d  0 w3 d w3 neg 0 d 0 w3 d w3 neg 0 d 0 w3 neg d w3 neg 0 d cl f } def
/m2 {mp x y w2 sub m 0 w d x w2 sub y m w 0 d s} def
/m5 {mp x w2 sub y w2 sub m w w d x w2 sub y w2 add m w w neg d s} def
/reEncode {exch findfont dup length dict begin {1 index /FID eq  {pop pop} {def} ifelse } forall /Encoding exch def currentdict end dup /FontName get exch definefont pop } def [/Times-Bold /Times-Italic /Times-BoldItalic /Helvetica /Helvetica-Oblique
 /Helvetica-Bold /Helvetica-BoldOblique /Courier /Courier-Oblique /Courier-Bold /Courier-BoldOblique /Times-Roman /AvantGarde-Book /AvantGarde-BookOblique /AvantGarde-Demi /AvantGarde-DemiOblique /Bookman-Demi /Bookman-DemiItalic /Bookman-Light
 /Bookman-LightItalic /Helvetica-Narrow /Helvetica-Narrow-Bold /Helvetica-Narrow-BoldOblique /Helvetica-Narrow-Oblique /NewCenturySchlbk-Roman /NewCenturySchlbk-Bold /NewCenturySchlbk-BoldItalic /NewCenturySchlbk-Italic /Palatino-Bold
 /Palatino-BoldItalic /Palatino-Italic /Palatino-Roman ] {ISOLatin1Encoding reEncode } forall%%EndProlog
%%BeginSetup
%%EndSetup
newpath  gsave  .25 .25 scale  gsave  0 0 t black[  ] 0 sd 3 lw 1 1 1 c 2268 1328 0 0 bf black 1 1 1 c 408 305 23 1009 bf black 1 1 1 c black 306 229 84 1055 bl 306 229 84 1055 bl 84 1055 m 306 X s 107 1059 m -4 Y s 234 1059 m -4 Y s 362 1059 m -4 Y
 s 107 1059 m -4 Y s 362 1059 m -4 Y s
 gsave  408 305 23 1009 C 96.8623 1034.15 t 0 r /Helvetica findfont 22.8295 sf 0 0 m (0) show NC gr 
 gsave  408 305 23 1009 C 207.969 1034.15 t 0 r /Helvetica findfont 22.8295 sf 0 0 m (1000) show NC gr 
 gsave  408 305 23 1009 C 336.169 1034.15 t 0 r /Helvetica findfont 22.8295 sf 0 0 m (2000) show NC gr  84 1284 m 306 X s 107 1280 m 4 Y s 234 1280 m 4 Y s 362 1280 m 4 Y s 107 1280 m 4 Y s 362 1280 m 4 Y s 84 1055 m 229 Y s 89 1075 m -5 X s 87 1080
 m -3 X s 87 1084 m -3 X s 87 1089 m -3 X s 87 1094 m -3 X s 89 1099 m -5 X s 87 1104 m -3 X s 87 1108 m -3 X s 87 1113 m -3 X s 87 1118 m -3 X s 89 1123 m -5 X s 87 1128 m -3 X s 87 1132 m -3 X s 87 1137 m -3 X s 87 1142 m -3 X s 89 1147 m -5 X s 87
 1151 m -3 X s 87 1156 m -3 X s 87 1161 m -3 X s 87 1166 m -3 X s 89 1171 m -5 X s 87 1175 m -3 X s 87 1180 m -3 X s 87 1185 m -3 X s 87 1190 m -3 X s 89 1195 m -5 X s 87 1199 m -3 X s 87 1204 m -3 X s 87 1209 m -3 X s 87 1214 m -3 X s 89 1219 m -5 X
 s 87 1223 m -3 X s 87 1228 m -3 X s 87 1233 m -3 X s 87 1238 m -3 X s 89 1242 m -5 X s 87 1247 m -3 X s 87 1252 m -3 X s 87 1257 m -3 X s 87 1262 m -3 X s 89 1266 m -5 X s 89 1075 m -5 X s 87 1070 m -3 X s 87 1065 m -3 X s 87 1060 m -3 X s 87 1056 m
 -3 X s 89 1266 m -5 X s 87 1271 m -3 X s 87 1276 m -3 X s 87 1281 m -3 X s
 gsave  408 305 23 1009 C 14.2445 1068.33 t 0 r /Helvetica findfont 22.8295 sf 0 0 m (\2550.003) show NC gr 
 gsave  408 305 23 1009 C 2.84889 1091.12 t 0 r /Helvetica findfont 22.8295 sf 0 0 m (\2550.0025) show NC gr 
 gsave  408 305 23 1009 C 14.2445 1116.76 t 0 r /Helvetica findfont 22.8295 sf 0 0 m (\2550.002) show NC gr 
 gsave  408 305 23 1009 C 2.84889 1139.56 t 0 r /Helvetica findfont 22.8295 sf 0 0 m (\2550.0015) show NC gr 
 gsave  408 305 23 1009 C 17.0933 1162.35 t 0 r /Helvetica findfont 22.8295 sf 0 0 m (\2550.001) show NC gr 
 gsave  408 305 23 1009 C 2.84889 1187.99 t 0 r /Helvetica findfont 22.8295 sf 0 0 m (\2550.0005) show NC gr 
 gsave  408 305 23 1009 C 65.5245 1210.78 t 0 r /Helvetica findfont 22.8295 sf 0 0 m (0) show NC gr 
 gsave  408 305 23 1009 C 8.54667 1236.42 t 0 r /Helvetica findfont 22.8295 sf 0 0 m (0.0005) show NC gr 
 gsave  408 305 23 1009 C 25.64 1259.21 t 0 r /Helvetica findfont 22.8295 sf 0 0 m (0.001) show NC gr  390 1055 m 229 Y s 385 1075 m 5 X s 387 1080 m 3 X s 387 1084 m 3 X s 387 1089 m 3 X s 387 1094 m 3 X s 385 1099 m 5 X s 387 1104 m 3 X s 387 1108
 m 3 X s 387 1113 m 3 X s 387 1118 m 3 X s 385 1123 m 5 X s 387 1128 m 3 X s 387 1132 m 3 X s 387 1137 m 3 X s 387 1142 m 3 X s 385 1147 m 5 X s 387 1151 m 3 X s 387 1156 m 3 X s 387 1161 m 3 X s 387 1166 m 3 X s 385 1171 m 5 X s 387 1175 m 3 X s 387
 1180 m 3 X s 387 1185 m 3 X s 387 1190 m 3 X s 385 1195 m 5 X s 387 1199 m 3 X s 387 1204 m 3 X s 387 1209 m 3 X s 387 1214 m 3 X s 385 1219 m 5 X s 387 1223 m 3 X s 387 1228 m 3 X s 387 1233 m 3 X s 387 1238 m 3 X s 385 1242 m 5 X s 387 1247 m 3 X
 s 387 1252 m 3 X s 387 1257 m 3 X s 387 1262 m 3 X s 385 1266 m 5 X s 385 1075 m 5 X s 387 1070 m 3 X s 387 1065 m 3 X s 387 1060 m 3 X s 387 1056 m 3 X s 385 1266 m 5 X s 387 1271 m 3 X s 387 1276 m 3 X s 387 1281 m 3 X s /w 22 def /w2 {w 2 div}
 def /w3 {w 3 div} def 109 1172 112 1173 117 1174 170 1169 362 1164 5 { m21} R 109 1184 m 79 Y s 104 1263 m 11 X s 109 1161 m -79 Y s 104 1082 m 11 X s 112 1184 m 79 Y s 106 1263 m 12 X s 112 1161 m -79 Y s 106 1082 m 12 X s 117 1186 m 79 Y s 112
 1265 m 11 X s 117 1163 m -79 Y s 112 1084 m 11 X s 170 1181 m 79 Y s 165 1260 m 11 X s 170 1158 m -79 Y s 165 1079 m 11 X s 362 1176 m 79 Y s 357 1255 m 11 X s 362 1153 m -79 Y s 357 1074 m 11 X s 9 lw 0.95 0.95 0.95 c black 85 1224 m 3 -1 d 4 -1 d
 3 X 3 -1 d 3 -1 d 3 -1 d 3 -1 d 3 X 3 -1 d 3 -1 d 3 -1 d 3 X 3 -1 d 3 -1 d 3 -1 d 3 -1 d 3 X 4 -1 d 3 -1 d 3 -1 d 3 -1 d 3 X 3 -1 d 3 -1 d 3 -1 d 3 -1 d 3 X 3 -1 d 3 -1 d 3 -1 d 3 X 3 -1 d 3 -1 d 4 -1 d 3 -1 d 3 X 3 -1 d 3 -1 d 3 -1 d 3 -1 d 3 X 3
 -1 d 3 -1 d 3 -1 d 3 X 3 -1 d 3 -1 d 3 -1 d 3 -1 d s 235 1185 m 4 X 3 -1 d 3 -1 d 3 -1 d 3 -1 d 3 X 3 -1 d 3 -1 d 3 -1 d 3 X 3 -1 d 3 -1 d 3 -1 d 3 -1 d 3 X 3 -1 d 3 -1 d 4 -1 d 3 -1 d 3 X 3 -1 d 3 -1 d 3 -1 d 3 X 3 -1 d 3 -1 d 3 -1 d 3 -1 d 3 X 3
 -1 d 3 -1 d 3 -1 d 3 -1 d 4 X 3 -1 d 3 -1 d 3 -1 d 3 X 3 -1 d 3 -1 d 3 -1 d 3 -1 d 3 X 3 -1 d 3 -1 d 3 -1 d 3 -1 d 3 X 3 -1 d s 385 1147 m 4 -1 d s 0.49 0.6 0.82 c black 0.49 0.6 0.82 c
 gsave  408 305 23 1009 C 142.445 1293.4 t 0 r /Helvetica-Bold findfont 25.6831 sf 0 0 m (0.0 < E < 0.5 GeV) show NC gr  0.52 0.76 0.64 c black 0.52 0.76 0.64 c
 gsave  408 305 23 1009 C 122.502 1256.36 t 0 r /Helvetica-Bold findfont 25.6831 sf 0 0 m 
 228 214 200 193 178 171 156 149 134 126 119 105 91 77 69 55 47 40 25 17
(A = \2550.000, p = 1.000) K NC gr  1 0.6 1 c black 1 0.6 1 c
 gsave  408 305 23 1009 C 427.334 1122.46 t 90 r /Helvetica-Bold findfont 28.5368 sf 0 0 m (/dof=0.2) show NC gr  black 1 0.6 1 c
 gsave  408 305 23 1009 C 415.938 1111.07 t 90 r /Helvetica-Bold findfont 19.9758 sf 0 0 m (2) show NC gr  black 1 0.6 1 c
 gsave  408 305 23 1009 C 427.334 1093.97 t 90 r /Symbol findfont 28.5368 sf 0 0 m (c) show NC gr  black 3 lw 1 1 1 c 408 305 476 1009 bf black 1 1 1 c black 307 229 537 1055 bl 307 229 537 1055 bl 537 1055 m 307 X s 560 1059 m -4 Y s 688 1059 m -4 Y
 s 816 1059 m -4 Y s 560 1059 m -4 Y s 816 1059 m -4 Y s
 gsave  408 305 476 1009 C 549.836 1034.15 t 0 r /Helvetica findfont 22.8295 sf 0 0 m (0) show NC gr 
 gsave  408 305 476 1009 C 660.943 1034.15 t 0 r /Helvetica findfont 22.8295 sf 0 0 m (1000) show NC gr 
 gsave  408 305 476 1009 C 789.143 1034.15 t 0 r /Helvetica findfont 22.8295 sf 0 0 m (2000) show NC gr  537 1284 m 307 X s 560 1280 m 4 Y s 688 1280 m 4 Y s 816 1280 m 4 Y s 560 1280 m 4 Y s 816 1280 m 4 Y s 537 1055 m 229 Y s 543 1083 m -6 X s 540
 1089 m -3 X s 540 1094 m -3 X s 540 1100 m -3 X s 540 1106 m -3 X s 543 1112 m -6 X s 540 1118 m -3 X s 540 1124 m -3 X s 540 1130 m -3 X s 540 1136 m -3 X s 543 1142 m -6 X s 540 1148 m -3 X s 540 1154 m -3 X s 540 1160 m -3 X s 540 1166 m -3 X s
 543 1171 m -6 X s 540 1177 m -3 X s 540 1183 m -3 X s 540 1189 m -3 X s 540 1195 m -3 X s 543 1201 m -6 X s 540 1207 m -3 X s 540 1213 m -3 X s 540 1219 m -3 X s 540 1225 m -3 X s 543 1231 m -6 X s 540 1237 m -3 X s 540 1242 m -3 X s 540 1248 m -3 X
 s 540 1254 m -3 X s 543 1260 m -6 X s 543 1083 m -6 X s 540 1077 m -3 X s 540 1071 m -3 X s 540 1065 m -3 X s 540 1059 m -3 X s 543 1260 m -6 X s 540 1266 m -3 X s 540 1272 m -3 X s 540 1278 m -3 X s
 gsave  408 305 476 1009 C 467.218 1076.88 t 0 r /Helvetica findfont 22.8295 sf 0 0 m (\2550.005) show NC gr 
 gsave  408 305 476 1009 C 467.218 1105.37 t 0 r /Helvetica findfont 22.8295 sf 0 0 m (\2550.004) show NC gr 
 gsave  408 305 476 1009 C 467.218 1133.86 t 0 r /Helvetica findfont 22.8295 sf 0 0 m (\2550.003) show NC gr 
 gsave  408 305 476 1009 C 467.218 1165.2 t 0 r /Helvetica findfont 22.8295 sf 0 0 m (\2550.002) show NC gr 
 gsave  408 305 476 1009 C 470.067 1193.68 t 0 r /Helvetica findfont 22.8295 sf 0 0 m (\2550.001) show NC gr 
 gsave  408 305 476 1009 C 518.498 1222.17 t 0 r /Helvetica findfont 22.8295 sf 0 0 m (0) show NC gr 
 gsave  408 305 476 1009 C 478.614 1253.51 t 0 r /Helvetica findfont 22.8295 sf 0 0 m (0.001) show NC gr  844 1055 m 229 Y s 838 1083 m 6 X s 841 1089 m 3 X s 841 1094 m 3 X s 841 1100 m 3 X s 841 1106 m 3 X s 838 1112 m 6 X s 841 1118 m 3 X s 841
 1124 m 3 X s 841 1130 m 3 X s 841 1136 m 3 X s 838 1142 m 6 X s 841 1148 m 3 X s 841 1154 m 3 X s 841 1160 m 3 X s 841 1166 m 3 X s 838 1171 m 6 X s 841 1177 m 3 X s 841 1183 m 3 X s 841 1189 m 3 X s 841 1195 m 3 X s 838 1201 m 6 X s 841 1207 m 3 X
 s 841 1213 m 3 X s 841 1219 m 3 X s 841 1225 m 3 X s 838 1231 m 6 X s 841 1237 m 3 X s 841 1242 m 3 X s 841 1248 m 3 X s 841 1254 m 3 X s 838 1260 m 6 X s 838 1083 m 6 X s 841 1077 m 3 X s 841 1071 m 3 X s 841 1065 m 3 X s 841 1059 m 3 X s 838 1260
 m 6 X s 841 1266 m 3 X s 841 1272 m 3 X s 841 1278 m 3 X s /w 23 def /w2 {w 2 div} def /w3 {w 3 div} def 563 1196 565 1197 571 1196 624 1191 816 1141 5 { m21} R 563 1207 m 57 Y s 557 1264 m 11 X s 563 1185 m -57 Y s 557 1128 m 11 X s 565 1208 m 57 Y
 s 560 1265 m 11 X s 565 1186 m -57 Y s 560 1129 m 11 X s 571 1208 m 56 Y s 565 1264 m 12 X s 571 1185 m -56 Y s 565 1129 m 12 X s 624 1203 m 56 Y s 618 1259 m 12 X s 624 1180 m -57 Y s 618 1123 m 12 X s 816 1153 m 56 Y s 810 1209 m 11 X s 816 1130 m
 -56 Y s 810 1074 m 11 X s 9 lw 0.95 0.95 0.95 c black 539 1238 m 3 -1 d 3 -1 d 3 -1 d 3 -1 d 3 -1 d 3 -1 d 3 -2 d 3 -1 d 4 -1 d 3 -1 d 3 -1 d 3 -1 d 3 -1 d 3 -1 d 3 -2 d 3 -1 d 3 -1 d 3 -1 d 3 -1 d 3 -1 d 3 -1 d 3 -2 d 3 -1 d 3 -1 d 4 -1 d 3 -1 d 3
 -1 d 3 -1 d 3 -2 d 3 -1 d 3 -1 d 3 -1 d 3 -1 d 3 -1 d 3 -1 d 3 -2 d 3 -1 d 3 -1 d 3 -1 d 3 -1 d 3 -1 d 4 -1 d 3 -2 d 3 -1 d 3 -1 d 3 -1 d 3 -1 d 3 -1 d 3 -1 d s 689 1183 m 3 -2 d 3 -1 d 3 -1 d 3 -1 d 3 -1 d 3 -1 d 3 -1 d 3 -2 d 4 -1 d 3 -1 d 3 -1 d
 3 -1 d 3 -1 d 3 -1 d 3 -2 d 3 -1 d 3 -1 d 3 -1 d 3 -1 d 3 -1 d 3 -1 d 3 -2 d 3 -1 d 3 -1 d 4 -1 d 3 -1 d 3 -1 d 3 -1 d 3 -2 d 3 -1 d 3 -1 d 3 -1 d 3 -1 d 3 -1 d 3 -1 d 3 -2 d 3 -1 d 3 -1 d 3 -1 d 3 -1 d 4 -1 d 3 -1 d 3 -2 d 3 -1 d 3 -1 d 3 -1 d 3 -1
 d 3 -1 d 3 -1 d s 839 1127 m 3 -2 d s 0.49 0.6 0.82 c black 0.49 0.6 0.82 c
 gsave  408 305 476 1009 C 595.418 1293.4 t 0 r /Helvetica-Bold findfont 25.6831 sf 0 0 m (0.5 < E < 1.0 GeV) show NC gr  0.52 0.76 0.64 c black 0.52 0.76 0.64 c
 gsave  408 305 476 1009 C 575.476 1256.36 t 0 r /Helvetica-Bold findfont 25.6831 sf 0 0 m 
 228 214 200 193 178 171 156 149 133 126 119 105 91 77 69 55 47 39 25 17
(A = \2550.000, p = 1.000) K NC gr  1 0.6 1 c black 1 0.6 1 c
 gsave  408 305 476 1009 C 883.156 1122.46 t 90 r /Helvetica-Bold findfont 28.5368 sf 0 0 m (/dof=0.2) show NC gr  black 1 0.6 1 c
 gsave  408 305 476 1009 C 871.76 1111.07 t 90 r /Helvetica-Bold findfont 19.9758 sf 0 0 m (2) show NC gr  black 1 0.6 1 c
 gsave  408 305 476 1009 C 883.156 1093.97 t 90 r /Symbol findfont 28.5368 sf 0 0 m (c) show NC gr  black 3 lw 1 1 1 c 408 305 930 1009 bf black 1 1 1 c black 306 229 991 1055 bl 306 229 991 1055 bl 991 1055 m 306 X s 1014 1059 m -4 Y s 1141 1059 m
 -4 Y s 1269 1059 m -4 Y s 1014 1059 m -4 Y s 1269 1059 m -4 Y s
 gsave  408 305 930 1009 C 1002.81 1034.15 t 0 r /Helvetica findfont 22.8295 sf 0 0 m (0) show NC gr 
 gsave  408 305 930 1009 C 1113.92 1034.15 t 0 r /Helvetica findfont 22.8295 sf 0 0 m (1000) show NC gr 
 gsave  408 305 930 1009 C 1242.12 1034.15 t 0 r /Helvetica findfont 22.8295 sf 0 0 m (2000) show NC gr  991 1284 m 306 X s 1014 1280 m 4 Y s 1141 1280 m 4 Y s 1269 1280 m 4 Y s 1014 1280 m 4 Y s 1269 1280 m 4 Y s 991 1055 m 229 Y s 997 1067 m -6 X s
 994 1072 m -3 X s 994 1078 m -3 X s 994 1083 m -3 X s 994 1088 m -3 X s 997 1093 m -6 X s 994 1099 m -3 X s 994 1104 m -3 X s 994 1109 m -3 X s 994 1115 m -3 X s 997 1120 m -6 X s 994 1125 m -3 X s 994 1131 m -3 X s 994 1136 m -3 X s 994 1141 m -3 X
 s 997 1147 m -6 X s 994 1152 m -3 X s 994 1157 m -3 X s 994 1163 m -3 X s 994 1168 m -3 X s 997 1173 m -6 X s 994 1179 m -3 X s 994 1184 m -3 X s 994 1189 m -3 X s 994 1195 m -3 X s 997 1200 m -6 X s 994 1205 m -3 X s 994 1210 m -3 X s 994 1216 m -3
 X s 994 1221 m -3 X s 997 1226 m -6 X s 994 1232 m -3 X s 994 1237 m -3 X s 994 1242 m -3 X s 994 1248 m -3 X s 997 1253 m -6 X s 994 1258 m -3 X s 994 1264 m -3 X s 994 1269 m -3 X s 994 1274 m -3 X s 997 1280 m -6 X s 997 1067 m -6 X s 994 1062 m
 -3 X s 994 1056 m -3 X s 997 1280 m -6 X s
 gsave  408 305 930 1009 C 923.04 1059.79 t 0 r /Helvetica findfont 22.8295 sf 0 0 m (\2550.009) show NC gr 
 gsave  408 305 930 1009 C 923.04 1085.43 t 0 r /Helvetica findfont 22.8295 sf 0 0 m (\2550.008) show NC gr 
 gsave  408 305 930 1009 C 923.04 1113.92 t 0 r /Helvetica findfont 22.8295 sf 0 0 m (\2550.007) show NC gr 
 gsave  408 305 930 1009 C 923.04 1139.56 t 0 r /Helvetica findfont 22.8295 sf 0 0 m (\2550.006) show NC gr 
 gsave  408 305 930 1009 C 923.04 1165.2 t 0 r /Helvetica findfont 22.8295 sf 0 0 m (\2550.005) show NC gr 
 gsave  408 305 930 1009 C 923.04 1193.68 t 0 r /Helvetica findfont 22.8295 sf 0 0 m (\2550.004) show NC gr 
 gsave  408 305 930 1009 C 923.04 1219.32 t 0 r /Helvetica findfont 22.8295 sf 0 0 m (\2550.003) show NC gr 
 gsave  408 305 930 1009 C 923.04 1244.96 t 0 r /Helvetica findfont 22.8295 sf 0 0 m (\2550.002) show NC gr 
 gsave  408 305 930 1009 C 925.889 1273.45 t 0 r /Helvetica findfont 22.8295 sf 0 0 m (\2550.001) show NC gr  1297 1055 m 229 Y s 1292 1067 m 5 X s 1294 1072 m 3 X s 1294 1078 m 3 X s 1294 1083 m 3 X s 1294 1088 m 3 X s 1292 1093 m 5 X s 1294 1099 m
 3 X s 1294 1104 m 3 X s 1294 1109 m 3 X s 1294 1115 m 3 X s 1292 1120 m 5 X s 1294 1125 m 3 X s 1294 1131 m 3 X s 1294 1136 m 3 X s 1294 1141 m 3 X s 1292 1147 m 5 X s 1294 1152 m 3 X s 1294 1157 m 3 X s 1294 1163 m 3 X s 1294 1168 m 3 X s 1292 1173
 m 5 X s 1294 1179 m 3 X s 1294 1184 m 3 X s 1294 1189 m 3 X s 1294 1195 m 3 X s 1292 1200 m 5 X s 1294 1205 m 3 X s 1294 1210 m 3 X s 1294 1216 m 3 X s 1294 1221 m 3 X s 1292 1226 m 5 X s 1294 1232 m 3 X s 1294 1237 m 3 X s 1294 1242 m 3 X s 1294
 1248 m 3 X s 1292 1253 m 5 X s 1294 1258 m 3 X s 1294 1264 m 3 X s 1294 1269 m 3 X s 1294 1274 m 3 X s 1292 1280 m 5 X s 1292 1067 m 5 X s 1294 1062 m 3 X s 1294 1056 m 3 X s 1292 1280 m 5 X s 1016 1203 1019 1204 1024 1203 1078 1204 1269 1134 5 {
 m21} R 1016 1215 m 49 Y s 1011 1264 m 11 X s 1016 1192 m -49 Y s 1011 1143 m 11 X s 1019 1215 m 49 Y s 1013 1264 m 12 X s 1019 1192 m -49 Y s 1013 1143 m 12 X s 1024 1215 m 49 Y s 1019 1264 m 11 X s 1024 1192 m -49 Y s 1019 1143 m 11 X s 1078 1215 m
 50 Y s 1072 1265 m 11 X s 1078 1193 m -50 Y s 1072 1143 m 11 X s 1269 1146 m 49 Y s 1264 1195 m 11 X s 1269 1123 m -49 Y s 1264 1074 m 11 X s 9 lw 0.95 0.95 0.95 c black 1042 1284 m 3 -1 d 3 -2 d 3 -3 d 3 -2 d 3 -2 d 3 -3 d 3 -2 d 3 -2 d 3 -3 d 3 -2
 d 3 -2 d 3 -2 d 3 -3 d 3 -2 d 3 -2 d 3 -3 d 4 -2 d 3 -2 d 3 -3 d 3 -2 d 3 -2 d 3 -2 d 3 -3 d 3 -2 d 3 -2 d 3 -3 d 3 -2 d 3 -2 d 3 -3 d 3 -2 d 3 -2 d 3 -2 d 4 -3 d 3 -2 d 3 -2 d 3 -3 d 3 -2 d 3 -2 d 3 -3 d 3 -2 d 3 -2 d 3 -3 d 3 -2 d 3 -2 d 3 -2 d 3
 -3 d 3 -2 d 3 -2 d 4 -3 d s 1192 1172 m 3 -2 d 3 -2 d 3 -3 d 3 -2 d 3 -2 d 3 -2 d 3 -3 d 3 -2 d 3 -2 d 3 -3 d 3 -2 d 3 -2 d 3 -3 d 3 -2 d 3 -2 d 3 -2 d 4 -3 d 3 -2 d 3 -2 d 3 -3 d 3 -2 d 3 -2 d 3 -3 d 3 -2 d 3 -2 d 3 -3 d 3 -2 d 3 -2 d 3 -2 d 3 -3 d
 3 -2 d 3 -2 d 4 -3 d 3 -2 d s 0.49 0.6 0.82 c black 0.49 0.6 0.82 c
 gsave  408 305 930 1009 C 1051.24 1293.4 t 0 r /Helvetica-Bold findfont 25.6831 sf 0 0 m (1.0 < E < 1.5 GeV) show NC gr  0.52 0.76 0.64 c black 0.52 0.76 0.64 c
 gsave  408 305 930 1009 C 1031.3 1256.36 t 0 r /Helvetica-Bold findfont 25.6831 sf 0 0 m 
 228 214 200 193 178 171 156 149 134 126 119 105 91 77 69 55 47 40 25 17
(A = \2550.000, p = 1.000) K NC gr  1 0.6 1 c black 1 0.6 1 c
 gsave  408 305 930 1009 C 1336.13 1122.46 t 90 r /Helvetica-Bold findfont 28.5368 sf 0 0 m (/dof=2.2) show NC gr  black 1 0.6 1 c
 gsave  408 305 930 1009 C 1324.73 1111.07 t 90 r /Helvetica-Bold findfont 19.9758 sf 0 0 m (2) show NC gr  black 1 0.6 1 c
 gsave  408 305 930 1009 C 1336.13 1093.97 t 90 r /Symbol findfont 28.5368 sf 0 0 m (c) show NC gr  black 3 lw 1 1 1 c 408 305 1383 1009 bf black 1 1 1 c black 306 229 1445 1055 bl 306 229 1445 1055 bl 1445 1055 m 306 X s 1467 1059 m -4 Y s 1595 1059
 m -4 Y s 1723 1059 m -4 Y s 1467 1059 m -4 Y s 1723 1059 m -4 Y s
 gsave  408 305 1383 1009 C 1455.78 1034.15 t 0 r /Helvetica findfont 22.8295 sf 0 0 m (0) show NC gr 
 gsave  408 305 1383 1009 C 1566.89 1034.15 t 0 r /Helvetica findfont 22.8295 sf 0 0 m (1000) show NC gr 
 gsave  408 305 1383 1009 C 1695.09 1034.15 t 0 r /Helvetica findfont 22.8295 sf 0 0 m (2000) show NC gr  1445 1284 m 306 X s 1467 1280 m 4 Y s 1595 1280 m 4 Y s 1723 1280 m 4 Y s 1467 1280 m 4 Y s 1723 1280 m 4 Y s 1445 1055 m 229 Y s 1450 1088 m -5
 X s 1447 1098 m -2 X s 1447 1109 m -2 X s 1447 1119 m -2 X s 1450 1130 m -5 X s 1447 1140 m -2 X s 1447 1151 m -2 X s 1447 1161 m -2 X s 1450 1172 m -5 X s 1447 1182 m -2 X s 1447 1193 m -2 X s 1447 1203 m -2 X s 1450 1214 m -5 X s 1447 1224 m -2 X
 s 1447 1235 m -2 X s 1447 1245 m -2 X s 1450 1256 m -5 X s 1450 1088 m -5 X s 1447 1077 m -2 X s 1447 1067 m -2 X s 1447 1056 m -2 X s 1450 1256 m -5 X s 1447 1266 m -2 X s 1447 1277 m -2 X s
 gsave  408 305 1383 1009 C 1376.01 1079.73 t 0 r /Helvetica findfont 22.8295 sf 0 0 m (\2550.004) show NC gr 
 gsave  408 305 1383 1009 C 1376.01 1122.46 t 0 r /Helvetica findfont 22.8295 sf 0 0 m (\2550.002) show NC gr 
 gsave  408 305 1383 1009 C 1427.29 1165.2 t 0 r /Helvetica findfont 22.8295 sf 0 0 m (0) show NC gr 
 gsave  408 305 1383 1009 C 1384.56 1207.93 t 0 r /Helvetica findfont 22.8295 sf 0 0 m (0.002) show NC gr 
 gsave  408 305 1383 1009 C 1384.56 1247.81 t 0 r /Helvetica findfont 22.8295 sf 0 0 m (0.004) show NC gr  1751 1055 m 229 Y s 1745 1088 m 6 X s 1748 1098 m 3 X s 1748 1109 m 3 X s 1748 1119 m 3 X s 1745 1130 m 6 X s 1748 1140 m 3 X s 1748 1151 m 3 X
 s 1748 1161 m 3 X s 1745 1172 m 6 X s 1748 1182 m 3 X s 1748 1193 m 3 X s 1748 1203 m 3 X s 1745 1214 m 6 X s 1748 1224 m 3 X s 1748 1235 m 3 X s 1748 1245 m 3 X s 1745 1256 m 6 X s 1745 1088 m 6 X s 1748 1077 m 3 X s 1748 1067 m 3 X s 1748 1056 m 3
 X s 1745 1256 m 6 X s 1748 1266 m 3 X s 1748 1277 m 3 X s 1470 1214 1473 1215 1478 1214 1531 1208 1723 1123 5 { m21} R 1470 1226 m 38 Y s 1464 1264 m 12 X s 1470 1203 m -38 Y s 1464 1165 m 12 X s 1473 1226 m 39 Y s 1467 1265 m 11 X s 1473 1204 m -39
 Y s 1467 1165 m 11 X s 1478 1226 m 38 Y s 1472 1264 m 12 X s 1478 1203 m -38 Y s 1472 1165 m 12 X s 1531 1220 m 38 Y s 1525 1258 m 12 X s 1531 1197 m -38 Y s 1525 1159 m 12 X s 1723 1134 m 38 Y s 1717 1172 m 12 X s 1723 1112 m -38 Y s 1717 1074 m 12
 X s 1 0 0 c 9 lw 0.95 0.95 0.95 c black 1 0 0 c 1446 1172 m 40 X 3 -1 d 18 X 3 -1 d 13 X 3 -1 d 9 X 3 -1 d 6 X 3 -1 d 6 X 3 -1 d 3 X 3 -1 d 7 X 3 -1 d 3 X 3 -1 d 3 X 3 -1 d 3 X 3 -1 d 3 X 3 -1 d s 1596 1160 m 3 -1 d 3 X 3 -1 d 3 X 3 -1 d 3 -1 d 4 X
 3 -1 d 3 X 3 -1 d 3 -1 d 3 -1 d 3 X 3 -1 d 3 -1 d 3 -1 d 3 X 3 -1 d 3 -1 d 3 -1 d 3 -1 d 3 X 3 -1 d 4 -1 d 3 -1 d 3 -1 d 3 -1 d 3 -1 d 3 -1 d 3 -1 d 3 -1 d 3 -1 d 3 -1 d 3 -1 d 3 -1 d 3 -1 d 3 -1 d 3 -1 d 3 -1 d 4 -1 d 3 -1 d 3 -1 d 3 -1 d 3 -1 d 3
 -1 d 3 -2 d 3 -1 d 3 -1 d 3 -1 d s 1746 1117 m 3 -1 d s 0.49 0.6 0.82 c black 0.49 0.6 0.82 c
 gsave  408 305 1383 1009 C 1504.21 1293.4 t 0 r /Helvetica-Bold findfont 25.6831 sf 0 0 m (1.5 < E < 2.0 GeV) show NC gr  0.52 0.76 0.64 c black 0.52 0.76 0.64 c
 gsave  408 305 1383 1009 C 1484.27 1256.36 t 0 r /Helvetica-Bold findfont 25.6831 sf 0 0 m 
 228 214 200 193 178 171 156 149 133 126 119 105 91 77 69 55 47 39 25 17
(A = \2550.000, p = 2.000) K NC gr  1 0.6 1 c black 1 0.6 1 c
 gsave  408 305 1383 1009 C 1789.1 1122.46 t 90 r /Helvetica-Bold findfont 28.5368 sf 0 0 m (/dof=0.7) show NC gr  black 1 0.6 1 c
 gsave  408 305 1383 1009 C 1777.71 1111.07 t 90 r /Helvetica-Bold findfont 19.9758 sf 0 0 m (2) show NC gr  black 1 0.6 1 c
 gsave  408 305 1383 1009 C 1789.1 1093.97 t 90 r /Symbol findfont 28.5368 sf 0 0 m (c) show NC gr  black 3 lw 1 1 1 c 408 305 1837 1009 bf black 1 1 1 c black 306 229 1898 1055 bl 306 229 1898 1055 bl 1898 1055 m 306 X s 1921 1059 m -4 Y s 2049 1059
 m -4 Y s 2176 1059 m -4 Y s 1921 1059 m -4 Y s 2176 1059 m -4 Y s
 gsave  408 305 1837 1009 C 1911.61 1034.15 t 0 r /Helvetica findfont 22.8295 sf 0 0 m (0) show NC gr 
 gsave  408 305 1837 1009 C 2022.71 1034.15 t 0 r /Helvetica findfont 22.8295 sf 0 0 m (1000) show NC gr 
 gsave  408 305 1837 1009 C 2148.06 1034.15 t 0 r /Helvetica findfont 22.8295 sf 0 0 m (2000) show NC gr  1898 1284 m 306 X s 1921 1280 m 4 Y s 2049 1280 m 4 Y s 2176 1280 m 4 Y s 1921 1280 m 4 Y s 2176 1280 m 4 Y s 1898 1055 m 229 Y s 1904 1061 m -6
 X s 1901 1067 m -3 X s 1901 1073 m -3 X s 1901 1080 m -3 X s 1901 1086 m -3 X s 1904 1092 m -6 X s 1901 1098 m -3 X s 1901 1104 m -3 X s 1901 1110 m -3 X s 1901 1116 m -3 X s 1904 1122 m -6 X s 1901 1129 m -3 X s 1901 1135 m -3 X s 1901 1141 m -3 X
 s 1901 1147 m -3 X s 1904 1153 m -6 X s 1901 1159 m -3 X s 1901 1165 m -3 X s 1901 1171 m -3 X s 1901 1177 m -3 X s 1904 1184 m -6 X s 1901 1190 m -3 X s 1901 1196 m -3 X s 1901 1202 m -3 X s 1901 1208 m -3 X s 1904 1214 m -6 X s 1901 1220 m -3 X s
 1901 1226 m -3 X s 1901 1232 m -3 X s 1901 1239 m -3 X s 1904 1245 m -6 X s 1901 1251 m -3 X s 1901 1257 m -3 X s 1901 1263 m -3 X s 1901 1269 m -3 X s 1904 1275 m -6 X s 1904 1061 m -6 X s 1901 1055 m -3 X s 1904 1275 m -6 X s 1901 1281 m -3 X s
 gsave  408 305 1837 1009 C 1828.99 1054.09 t 0 r /Helvetica findfont 22.8295 sf 0 0 m (\2550.006) show NC gr 
 gsave  408 305 1837 1009 C 1828.99 1085.43 t 0 r /Helvetica findfont 22.8295 sf 0 0 m (\2550.005) show NC gr 
 gsave  408 305 1837 1009 C 1828.99 1113.92 t 0 r /Helvetica findfont 22.8295 sf 0 0 m (\2550.004) show NC gr 
 gsave  408 305 1837 1009 C 1828.99 1145.25 t 0 r /Helvetica findfont 22.8295 sf 0 0 m (\2550.003) show NC gr 
 gsave  408 305 1837 1009 C 1828.99 1176.59 t 0 r /Helvetica findfont 22.8295 sf 0 0 m (\2550.002) show NC gr 
 gsave  408 305 1837 1009 C 1831.84 1207.93 t 0 r /Helvetica findfont 22.8295 sf 0 0 m (\2550.001) show NC gr 
 gsave  408 305 1837 1009 C 1880.27 1236.42 t 0 r /Helvetica findfont 22.8295 sf 0 0 m (0) show NC gr 
 gsave  408 305 1837 1009 C 1840.38 1267.76 t 0 r /Helvetica findfont 22.8295 sf 0 0 m (0.001) show NC gr  2204 1055 m 229 Y s 2199 1061 m 5 X s 2201 1067 m 3 X s 2201 1073 m 3 X s 2201 1080 m 3 X s 2201 1086 m 3 X s 2199 1092 m 5 X s 2201 1098 m 3 X
 s 2201 1104 m 3 X s 2201 1110 m 3 X s 2201 1116 m 3 X s 2199 1122 m 5 X s 2201 1129 m 3 X s 2201 1135 m 3 X s 2201 1141 m 3 X s 2201 1147 m 3 X s 2199 1153 m 5 X s 2201 1159 m 3 X s 2201 1165 m 3 X s 2201 1171 m 3 X s 2201 1177 m 3 X s 2199 1184 m 5
 X s 2201 1190 m 3 X s 2201 1196 m 3 X s 2201 1202 m 3 X s 2201 1208 m 3 X s 2199 1214 m 5 X s 2201 1220 m 3 X s 2201 1226 m 3 X s 2201 1232 m 3 X s 2201 1239 m 3 X s 2199 1245 m 5 X s 2201 1251 m 3 X s 2201 1257 m 3 X s 2201 1263 m 3 X s 2201 1269 m
 3 X s 2199 1275 m 5 X s 2199 1061 m 5 X s 2201 1055 m 3 X s 2199 1275 m 5 X s 2201 1281 m 3 X s 1923 1188 1926 1187 1931 1187 1985 1190 2176 1148 5 { m21} R 1923 1199 m 63 Y s 1918 1262 m 11 X s 1923 1176 m -63 Y s 1918 1113 m 11 X s 1926 1198 m 63
 Y s 1920 1261 m 12 X s 1926 1175 m -63 Y s 1920 1112 m 12 X s 1931 1199 m 63 Y s 1926 1262 m 11 X s 1931 1176 m -63 Y s 1926 1113 m 11 X s 1985 1202 m 63 Y s 1979 1265 m 11 X s 1985 1179 m -63 Y s 1979 1116 m 11 X s 2176 1159 m 63 Y s 2171 1222 m 11
 X s 2176 1137 m -63 Y s 2171 1074 m 11 X s 9 lw 0.95 0.95 0.95 c black 1900 1254 m 3 -2 d 3 -1 d 3 -1 d 3 -2 d 3 -1 d 3 -1 d 3 -1 d 3 -2 d 3 -1 d 3 -1 d 3 -2 d 3 -1 d 3 -1 d 3 -1 d 4 -2 d 3 -1 d 3 -1 d 3 -2 d 3 -1 d 3 -1 d 3 -1 d 3 -2 d 3 -1 d 3 -1
 d 3 -2 d 3 -1 d 3 -1 d 3 -1 d 3 -2 d 3 -1 d 4 -1 d 3 -2 d 3 -1 d 3 -1 d 3 -1 d 3 -2 d 3 -1 d 3 -1 d 3 -2 d 3 -1 d 3 -1 d 3 -1 d 3 -2 d 3 -1 d 3 -1 d 3 -2 d 3 -1 d 4 -1 d 3 -2 d s 2050 1190 m 3 -1 d 3 -1 d 3 -1 d 3 -2 d 3 -1 d 3 -1 d 3 -2 d 3 -1 d 3
 -1 d 3 -1 d 3 -2 d 3 -1 d 3 -1 d 3 -2 d 4 -1 d 3 -1 d 3 -1 d 3 -2 d 3 -1 d 3 -1 d 3 -2 d 3 -1 d 3 -1 d 3 -1 d 3 -2 d 3 -1 d 3 -1 d 3 -2 d 3 -1 d 3 -1 d 4 -1 d 3 -2 d 3 -1 d 3 -1 d 3 -2 d 3 -1 d 3 -1 d 3 -1 d 3 -2 d 3 -1 d 3 -1 d 3 -2 d 3 -1 d 3 -1 d
 3 -1 d 3 -2 d 4 -1 d 3 -1 d 3 -2 d s 2200 1127 m 3 -1 d s 0.49 0.6 0.82 c black 0.49 0.6 0.82 c
 gsave  408 305 1837 1009 C 1957.19 1293.4 t 0 r /Helvetica-Bold findfont 25.6831 sf 0 0 m (2.0 < E < 2.5 GeV) show NC gr  0.52 0.76 0.64 c black 0.52 0.76 0.64 c
 gsave  408 305 1837 1009 C 1937.25 1256.36 t 0 r /Helvetica-Bold findfont 25.6831 sf 0 0 m 
 228 214 200 193 178 171 156 149 134 126 119 105 91 77 69 55 47 40 25 17
(A = \2550.000, p = 1.000) K NC gr  1 0.6 1 c black 1 0.6 1 c
 gsave  408 305 1837 1009 C 2242.08 1122.46 t 90 r /Helvetica-Bold findfont 28.5368 sf 0 0 m (/dof=0.4) show NC gr  black 1 0.6 1 c
 gsave  408 305 1837 1009 C 2230.68 1111.07 t 90 r /Helvetica-Bold findfont 19.9758 sf 0 0 m (2) show NC gr  black 1 0.6 1 c
 gsave  408 305 1837 1009 C 2242.08 1093.97 t 90 r /Symbol findfont 28.5368 sf 0 0 m (c) show NC gr  black 3 lw 1 1 1 c 408 305 23 677 bf black 1 1 1 c black 306 229 84 723 bl 306 229 84 723 bl 84 723 m 306 X s 107 727 m -4 Y s 234 727 m -4 Y s 362
 727 m -4 Y s 107 727 m -4 Y s 362 727 m -4 Y s
 gsave  408 305 23 677 C 96.8623 703.676 t 0 r /Helvetica findfont 22.8295 sf 0 0 m (0) show NC gr 
 gsave  408 305 23 677 C 207.969 703.676 t 0 r /Helvetica findfont 22.8295 sf 0 0 m (1000) show NC gr 
 gsave  408 305 23 677 C 336.169 703.676 t 0 r /Helvetica findfont 22.8295 sf 0 0 m (2000) show NC gr  84 952 m 306 X s 107 948 m 4 Y s 234 948 m 4 Y s 362 948 m 4 Y s 107 948 m 4 Y s 362 948 m 4 Y s 84 723 m 229 Y s 89 743 m -5 X s 87 747 m -3 X s
 87 752 m -3 X s 87 757 m -3 X s 87 761 m -3 X s 89 766 m -5 X s 87 771 m -3 X s 87 775 m -3 X s 87 780 m -3 X s 87 785 m -3 X s 89 789 m -5 X s 87 794 m -3 X s 87 799 m -3 X s 87 803 m -3 X s 87 808 m -3 X s 89 813 m -5 X s 87 817 m -3 X s 87 822 m
 -3 X s 87 827 m -3 X s 87 831 m -3 X s 89 836 m -5 X s 87 841 m -3 X s 87 845 m -3 X s 87 850 m -3 X s 87 855 m -3 X s 89 859 m -5 X s 87 864 m -3 X s 87 869 m -3 X s 87 873 m -3 X s 87 878 m -3 X s 89 883 m -5 X s 87 887 m -3 X s 87 892 m -3 X s 87
 897 m -3 X s 87 901 m -3 X s 89 906 m -5 X s 87 911 m -3 X s 87 915 m -3 X s 87 920 m -3 X s 87 925 m -3 X s 89 929 m -5 X s 89 743 m -5 X s 87 738 m -3 X s 87 733 m -3 X s 87 729 m -3 X s 87 724 m -3 X s 89 929 m -5 X s 87 934 m -3 X s 87 939 m -3
 X s 87 943 m -3 X s 87 948 m -3 X s
 gsave  408 305 23 677 C 14.2445 735.014 t 0 r /Helvetica findfont 22.8295 sf 0 0 m (\2550.002) show NC gr 
 gsave  408 305 23 677 C 17.0933 757.805 t 0 r /Helvetica findfont 22.8295 sf 0 0 m (\2550.001) show NC gr 
 gsave  408 305 23 677 C 65.5245 783.445 t 0 r /Helvetica findfont 22.8295 sf 0 0 m (0) show NC gr 
 gsave  408 305 23 677 C 25.64 806.236 t 0 r /Helvetica findfont 22.8295 sf 0 0 m (0.001) show NC gr 
 gsave  408 305 23 677 C 22.7911 829.027 t 0 r /Helvetica findfont 22.8295 sf 0 0 m (0.002) show NC gr 
 gsave  408 305 23 677 C 22.7911 851.818 t 0 r /Helvetica findfont 22.8295 sf 0 0 m (0.003) show NC gr 
 gsave  408 305 23 677 C 22.7911 874.609 t 0 r /Helvetica findfont 22.8295 sf 0 0 m (0.004) show NC gr 
 gsave  408 305 23 677 C 22.7911 897.4 t 0 r /Helvetica findfont 22.8295 sf 0 0 m (0.005) show NC gr 
 gsave  408 305 23 677 C 22.7911 923.04 t 0 r /Helvetica findfont 22.8295 sf 0 0 m (0.006) show NC gr  390 723 m 229 Y s 385 743 m 5 X s 387 747 m 3 X s 387 752 m 3 X s 387 757 m 3 X s 387 761 m 3 X s 385 766 m 5 X s 387 771 m 3 X s 387 775 m 3 X s
 387 780 m 3 X s 387 785 m 3 X s 385 789 m 5 X s 387 794 m 3 X s 387 799 m 3 X s 387 803 m 3 X s 387 808 m 3 X s 385 813 m 5 X s 387 817 m 3 X s 387 822 m 3 X s 387 827 m 3 X s 387 831 m 3 X s 385 836 m 5 X s 387 841 m 3 X s 387 845 m 3 X s 387 850 m
 3 X s 387 855 m 3 X s 385 859 m 5 X s 387 864 m 3 X s 387 869 m 3 X s 387 873 m 3 X s 387 878 m 3 X s 385 883 m 5 X s 387 887 m 3 X s 387 892 m 3 X s 387 897 m 3 X s 387 901 m 3 X s 385 906 m 5 X s 387 911 m 3 X s 387 915 m 3 X s 387 920 m 3 X s 387
 925 m 3 X s 385 929 m 5 X s 385 743 m 5 X s 387 738 m 3 X s 387 733 m 3 X s 387 729 m 3 X s 387 724 m 3 X s 385 929 m 5 X s 387 934 m 3 X s 387 939 m 3 X s 387 943 m 3 X s 387 948 m 3 X s /w 22 def /w2 {w 2 div} def /w3 {w 3 div} def 109 802 112 802
 117 802 170 806 362 873 5 { m21} R 109 813 m 49 Y s 104 862 m 11 X s 109 791 m -49 Y s 104 742 m 11 X s 112 813 m 49 Y s 106 862 m 12 X s 112 791 m -49 Y s 106 742 m 12 X s 117 813 m 49 Y s 112 862 m 11 X s 117 791 m -49 Y s 112 742 m 11 X s 170 817
 m 49 Y s 165 866 m 11 X s 170 794 m -48 Y s 165 746 m 11 X s 362 884 m 49 Y s 357 933 m 11 X s 362 861 m -48 Y s 357 813 m 11 X s 9 lw 0.95 0.95 0.95 c black 85 782 m 3 1 d 4 1 d 3 1 d 3 1 d 3 1 d 3 1 d 3 1 d 3 1 d 3 1 d 3 1 d 3 1 d 3 1 d 3 1 d 3 1
 d 3 1 d 3 1 d 3 1 d 4 1 d 3 1 d 3 1 d 3 1 d 3 1 d 3 1 d 3 1 d 3 1 d 3 1 d 3 1 d 3 1 d 3 1 d 3 1 d 3 1 d 3 1 d 3 1 d 4 1 d 3 1 d 3 1 d 3 1 d 3 1 d 3 1 d 3 1 d 3 1 d 3 1 d 3 1 d 3 1 d 3 1 d 3 1 d 3 1 d 3 1 d 3 1 d s 235 831 m 4 1 d 3 1 d 3 1 d 3 1 d 3
 1 d 3 1 d 3 1 d 3 1 d 3 1 d 3 1 d 3 1 d 3 1 d 3 1 d 3 1 d 3 1 d 3 1 d 3 1 d 4 1 d 3 1 d 3 1 d 3 1 d 3 1 d 3 1 d 3 1 d 3 1 d 3 1 d 3 1 d 3 1 d 3 1 d 3 1 d 3 1 d 3 1 d 3 1 d 4 1 d 3 1 d 3 1 d 3 1 d 3 1 d 3 1 d 3 1 d 3 1 d 3 1 d 3 1 d 3 1 d 3 1 d 3 1 d
 3 1 d 3 1 d 3 1 d s 385 880 m 4 1 d s 0.49 0.6 0.82 c black 0.49 0.6 0.82 c
 gsave  408 305 23 677 C 142.445 960.076 t 0 r /Helvetica-Bold findfont 25.6831 sf 0 0 m (2.5 < E < 3.0 GeV) show NC gr  0.52 0.76 0.64 c black 0.52 0.76 0.64 c
 gsave  408 305 23 677 C 128.2 923.04 t 0 r /Helvetica-Bold findfont 25.6831 sf 0 0 m 
 220 206 192 185 170 163 148 141 126 118 111 97 83 69 61 47 40 25 18
(A = 0.000, p = 1.000) K NC gr  1 0.6 1 c black 1 0.6 1 c
 gsave  408 305 23 677 C 427.334 791.991 t 90 r /Helvetica-Bold findfont 28.5368 sf 0 0 m (/dof=0.0) show NC gr  black 1 0.6 1 c
 gsave  408 305 23 677 C 415.938 780.596 t 90 r /Helvetica-Bold findfont 19.9758 sf 0 0 m (2) show NC gr  black 1 0.6 1 c
 gsave  408 305 23 677 C 427.334 763.503 t 90 r /Symbol findfont 28.5368 sf 0 0 m (c) show NC gr  black 3 lw 1 1 1 c 408 305 476 677 bf black 1 1 1 c black 307 229 537 723 bl 307 229 537 723 bl 537 723 m 307 X s 560 727 m -4 Y s 688 727 m -4 Y s 816
 727 m -4 Y s 560 727 m -4 Y s 816 727 m -4 Y s
 gsave  408 305 476 677 C 549.836 703.676 t 0 r /Helvetica findfont 22.8295 sf 0 0 m (0) show NC gr 
 gsave  408 305 476 677 C 660.943 703.676 t 0 r /Helvetica findfont 22.8295 sf 0 0 m (1000) show NC gr 
 gsave  408 305 476 677 C 789.143 703.676 t 0 r /Helvetica findfont 22.8295 sf 0 0 m (2000) show NC gr  537 952 m 307 X s 560 948 m 4 Y s 688 948 m 4 Y s 816 948 m 4 Y s 560 948 m 4 Y s 816 948 m 4 Y s 537 723 m 229 Y s 543 753 m -6 X s 540 760 m -3
 X s 540 767 m -3 X s 540 774 m -3 X s 540 781 m -3 X s 543 789 m -6 X s 540 796 m -3 X s 540 803 m -3 X s 540 810 m -3 X s 540 818 m -3 X s 543 825 m -6 X s 540 832 m -3 X s 540 839 m -3 X s 540 846 m -3 X s 540 854 m -3 X s 543 861 m -6 X s 540 868
 m -3 X s 540 875 m -3 X s 540 882 m -3 X s 540 890 m -3 X s 543 897 m -6 X s 540 904 m -3 X s 540 911 m -3 X s 540 918 m -3 X s 540 926 m -3 X s 543 933 m -6 X s 543 753 m -6 X s 540 745 m -3 X s 540 738 m -3 X s 540 731 m -3 X s 540 724 m -3 X s
 543 933 m -6 X s 540 940 m -3 X s 540 947 m -3 X s
 gsave  408 305 476 677 C 518.498 746.409 t 0 r /Helvetica findfont 22.8295 sf 0 0 m (0) show NC gr 
 gsave  408 305 476 677 C 475.765 780.596 t 0 r /Helvetica findfont 22.8295 sf 0 0 m (0.005) show NC gr 
 gsave  408 305 476 677 C 490.009 817.631 t 0 r /Helvetica findfont 22.8295 sf 0 0 m (0.01) show NC gr 
 gsave  408 305 476 677 C 475.765 854.667 t 0 r /Helvetica findfont 22.8295 sf 0 0 m (0.015) show NC gr 
 gsave  408 305 476 677 C 487.16 888.854 t 0 r /Helvetica findfont 22.8295 sf 0 0 m (0.02) show NC gr 
 gsave  408 305 476 677 C 475.765 925.889 t 0 r /Helvetica findfont 22.8295 sf 0 0 m (0.025) show NC gr  844 723 m 229 Y s 838 753 m 6 X s 841 760 m 3 X s 841 767 m 3 X s 841 774 m 3 X s 841 781 m 3 X s 838 789 m 6 X s 841 796 m 3 X s 841 803 m 3 X s
 841 810 m 3 X s 841 818 m 3 X s 838 825 m 6 X s 841 832 m 3 X s 841 839 m 3 X s 841 846 m 3 X s 841 854 m 3 X s 838 861 m 6 X s 841 868 m 3 X s 841 875 m 3 X s 841 882 m 3 X s 841 890 m 3 X s 838 897 m 6 X s 841 904 m 3 X s 841 911 m 3 X s 841 918 m
 3 X s 841 926 m 3 X s 838 933 m 6 X s 838 753 m 6 X s 841 745 m 3 X s 841 738 m 3 X s 841 731 m 3 X s 841 724 m 3 X s 838 933 m 6 X s 841 940 m 3 X s 841 947 m 3 X s /w 23 def /w2 {w 2 div} def /w3 {w 3 div} def 563 762 565 763 571 763 624 774 816
 912 5 { m21} R 563 774 m 9 Y s 557 783 m 11 X s 563 751 m -9 Y s 557 742 m 11 X s 565 774 m 9 Y s 560 783 m 11 X s 565 752 m -9 Y s 560 743 m 11 X s 571 775 m 9 Y s 565 784 m 12 X s 571 752 m -9 Y s 565 743 m 12 X s 624 785 m 9 Y s 618 794 m 12 X s
 624 762 m -9 Y s 618 753 m 12 X s 816 923 m 10 Y s 810 933 m 11 X s 816 900 m -9 Y s 810 891 m 11 X s 1 0 0 c 9 lw 0.95 0.95 0.95 c black 1 0 0 c 539 754 m 3 -1 d 37 X 3 1 d 3 X 3 1 d 6 X 3 1 d 3 1 d 3 X 3 1 d 3 1 d 3 X 4 1 d 3 1 d 3 1 d 3 1 d 3 1 d
 3 1 d 3 1 d 3 1 d 3 1 d 3 1 d 3 2 d 3 1 d 3 1 d 3 2 d 3 1 d 3 2 d 3 1 d 4 2 d 3 2 d 3 1 d 3 2 d 3 2 d 3 2 d 3 1 d 3 2 d s 689 793 m 3 2 d 3 2 d 3 2 d 3 2 d 3 3 d 3 2 d 3 2 d 3 2 d 4 3 d 3 2 d 3 2 d 3 3 d 3 2 d 3 3 d 3 2 d 3 3 d 3 3 d 3 3 d 3 2 d 3 3
 d 3 3 d 3 3 d 3 3 d 3 3 d 4 3 d 3 3 d 3 3 d 3 3 d 3 4 d 3 3 d 3 3 d 3 4 d 3 3 d 3 4 d 3 3 d 3 4 d 3 3 d 3 4 d 3 4 d 3 3 d 4 4 d 3 4 d 3 4 d 3 4 d 3 4 d 3 4 d 3 4 d 3 4 d 3 4 d s 839 943 m 3 4 d s 0.49 0.6 0.82 c black 0.49 0.6 0.82 c
 gsave  408 305 476 677 C 595.418 960.076 t 0 r /Helvetica-Bold findfont 25.6831 sf 0 0 m (3.0 < E < 3.5 GeV) show NC gr  0.52 0.76 0.64 c black 0.52 0.76 0.64 c
 gsave  408 305 476 677 C 581.174 923.04 t 0 r /Helvetica-Bold findfont 25.6831 sf 0 0 m 
 220 206 192 185 170 163 148 141 125 118 111 97 83 69 61 47 40 25 18
(A = 0.000, p = 2.000) K NC gr  1 0.6 1 c black 1 0.6 1 c
 gsave  408 305 476 677 C 883.156 791.991 t 90 r /Helvetica-Bold findfont 28.5368 sf 0 0 m (/dof=0.3) show NC gr  black 1 0.6 1 c
 gsave  408 305 476 677 C 871.76 780.596 t 90 r /Helvetica-Bold findfont 19.9758 sf 0 0 m (2) show NC gr  black 1 0.6 1 c
 gsave  408 305 476 677 C 883.156 763.503 t 90 r /Symbol findfont 28.5368 sf 0 0 m (c) show NC gr  black 3 lw 1 1 1 c 408 305 930 677 bf black 1 1 1 c black 306 229 991 723 bl 306 229 991 723 bl 991 723 m 306 X s 1014 727 m -4 Y s 1141 727 m -4 Y s
 1269 727 m -4 Y s 1014 727 m -4 Y s 1269 727 m -4 Y s
 gsave  408 305 930 677 C 1002.81 703.676 t 0 r /Helvetica findfont 22.8295 sf 0 0 m (0) show NC gr 
 gsave  408 305 930 677 C 1113.92 703.676 t 0 r /Helvetica findfont 22.8295 sf 0 0 m (1000) show NC gr 
 gsave  408 305 930 677 C 1242.12 703.676 t 0 r /Helvetica findfont 22.8295 sf 0 0 m (2000) show NC gr  991 952 m 306 X s 1014 948 m 4 Y s 1141 948 m 4 Y s 1269 948 m 4 Y s 1014 948 m 4 Y s 1269 948 m 4 Y s 991 723 m 229 Y s 997 745 m -6 X s 994 754
 m -3 X s 994 763 m -3 X s 994 772 m -3 X s 994 781 m -3 X s 997 790 m -6 X s 994 799 m -3 X s 994 808 m -3 X s 994 816 m -3 X s 994 825 m -3 X s 997 834 m -6 X s 994 843 m -3 X s 994 852 m -3 X s 994 861 m -3 X s 994 870 m -3 X s 997 879 m -6 X s
 994 888 m -3 X s 994 897 m -3 X s 994 906 m -3 X s 994 915 m -3 X s 997 924 m -6 X s 997 745 m -6 X s 994 736 m -3 X s 994 727 m -3 X s 997 924 m -6 X s 994 933 m -3 X s 994 942 m -3 X s 994 951 m -3 X s
 gsave  408 305 930 677 C 974.32 737.863 t 0 r /Helvetica findfont 22.8295 sf 0 0 m (0) show NC gr 
 gsave  408 305 930 677 C 945.832 783.445 t 0 r /Helvetica findfont 22.8295 sf 0 0 m (0.01) show NC gr 
 gsave  408 305 930 677 C 942.983 826.178 t 0 r /Helvetica findfont 22.8295 sf 0 0 m (0.02) show NC gr 
 gsave  408 305 930 677 C 942.983 871.76 t 0 r /Helvetica findfont 22.8295 sf 0 0 m (0.03) show NC gr 
 gsave  408 305 930 677 C 942.983 917.343 t 0 r /Helvetica findfont 22.8295 sf 0 0 m (0.04) show NC gr  1297 723 m 229 Y s 1292 745 m 5 X s 1294 754 m 3 X s 1294 763 m 3 X s 1294 772 m 3 X s 1294 781 m 3 X s 1292 790 m 5 X s 1294 799 m 3 X s 1294 808
 m 3 X s 1294 816 m 3 X s 1294 825 m 3 X s 1292 834 m 5 X s 1294 843 m 3 X s 1294 852 m 3 X s 1294 861 m 3 X s 1294 870 m 3 X s 1292 879 m 5 X s 1294 888 m 3 X s 1294 897 m 3 X s 1294 906 m 3 X s 1294 915 m 3 X s 1292 924 m 5 X s 1292 745 m 5 X s
 1294 736 m 3 X s 1294 727 m 3 X s 1292 924 m 5 X s 1294 933 m 3 X s 1294 942 m 3 X s 1294 951 m 3 X s 1016 757 1019 757 1024 757 1078 763 1269 917 5 { m21} R 1016 768 m 4 Y s 1011 772 m 11 X s 1016 746 m -4 Y s 1011 742 m 11 X s 1019 769 m 3 Y s
 1013 772 m 12 X s 1019 746 m -4 Y s 1013 742 m 12 X s 1024 768 m 4 Y s 1019 772 m 11 X s 1024 746 m -4 Y s 1019 742 m 11 X s 1078 774 m 4 Y s 1072 778 m 11 X s 1078 751 m -3 Y s 1072 748 m 11 X s 1269 928 m 5 Y s 1264 933 m 11 X s 1269 906 m -5 Y s
 1264 901 m 11 X s 1 0 0 c 9 lw 0.95 0.95 0.95 c black 1 0 0 c 993 746 m 3 X 3 -1 d 27 X 3 1 d 6 X 3 1 d 7 X 3 1 d 3 1 d 3 X 3 1 d 3 1 d 3 X 3 1 d 3 1 d 3 1 d 3 1 d 3 1 d 3 1 d 3 1 d 3 1 d 3 1 d 4 2 d 3 1 d 3 1 d 3 2 d 3 1 d 3 2 d 3 1 d 3 2 d 3 2 d 3
 1 d 3 2 d 3 2 d 3 2 d 3 2 d 3 2 d 3 2 d 4 2 d s 1143 789 m 3 2 d 3 2 d 3 2 d 3 3 d 3 2 d 3 2 d 3 3 d 3 2 d 3 3 d 3 2 d 3 3 d 3 2 d 3 3 d 3 3 d 3 3 d 4 3 d 3 2 d 3 3 d 3 3 d 3 3 d 3 4 d 3 3 d 3 3 d 3 3 d 3 3 d 3 4 d 3 3 d 3 4 d 3 3 d 3 4 d 3 3 d 3 4
 d 4 4 d 3 3 d 3 4 d 3 4 d 3 4 d 3 4 d 3 4 d 3 4 d 3 4 d 3 4 d 3 4 d 3 4 d 3 5 d 3 4 d 3 5 d 3 4 d 4 4 d s 0.49 0.6 0.82 c black 0.49 0.6 0.82 c
 gsave  408 305 930 677 C 1051.24 960.076 t 0 r /Helvetica-Bold findfont 25.6831 sf 0 0 m (3.5 < E < 4.0 GeV) show NC gr  0.52 0.76 0.64 c black 0.52 0.76 0.64 c
 gsave  408 305 930 677 C 1037 923.04 t 0 r /Helvetica-Bold findfont 25.6831 sf 0 0 m 
 220 206 192 185 170 163 148 141 126 118 111 97 83 69 61 47 40 25 18
(A = 0.000, p = 2.000) K NC gr  1 0.6 1 c black 1 0.6 1 c
 gsave  408 305 930 677 C 1336.13 791.991 t 90 r /Helvetica-Bold findfont 28.5368 sf 0 0 m (/dof=0.5) show NC gr  black 1 0.6 1 c
 gsave  408 305 930 677 C 1324.73 780.596 t 90 r /Helvetica-Bold findfont 19.9758 sf 0 0 m (2) show NC gr  black 1 0.6 1 c
 gsave  408 305 930 677 C 1336.13 763.503 t 90 r /Symbol findfont 28.5368 sf 0 0 m (c) show NC gr  black 3 lw 1 1 1 c 408 305 1383 677 bf black 1 1 1 c black 306 229 1445 723 bl 306 229 1445 723 bl 1445 723 m 306 X s 1467 727 m -4 Y s 1595 727 m -4 Y
 s 1723 727 m -4 Y s 1467 727 m -4 Y s 1723 727 m -4 Y s
 gsave  408 305 1383 677 C 1455.78 703.676 t 0 r /Helvetica findfont 22.8295 sf 0 0 m (0) show NC gr 
 gsave  408 305 1383 677 C 1566.89 703.676 t 0 r /Helvetica findfont 22.8295 sf 0 0 m (1000) show NC gr 
 gsave  408 305 1383 677 C 1695.09 703.676 t 0 r /Helvetica findfont 22.8295 sf 0 0 m (2000) show NC gr  1445 952 m 306 X s 1467 948 m 4 Y s 1595 948 m 4 Y s 1723 948 m 4 Y s 1467 948 m 4 Y s 1723 948 m 4 Y s 1445 723 m 229 Y s 1450 732 m -5 X s 1447
 740 m -2 X s 1447 748 m -2 X s 1447 756 m -2 X s 1447 764 m -2 X s 1450 772 m -5 X s 1447 781 m -2 X s 1447 789 m -2 X s 1447 797 m -2 X s 1447 805 m -2 X s 1450 813 m -5 X s 1447 821 m -2 X s 1447 829 m -2 X s 1447 837 m -2 X s 1447 845 m -2 X s
 1450 853 m -5 X s 1447 861 m -2 X s 1447 869 m -2 X s 1447 877 m -2 X s 1447 885 m -2 X s 1450 893 m -5 X s 1447 901 m -2 X s 1447 909 m -2 X s 1447 917 m -2 X s 1447 925 m -2 X s 1450 933 m -5 X s 1450 732 m -5 X s 1447 724 m -2 X s 1450 933 m -5 X
 s 1447 941 m -2 X s 1447 949 m -2 X s
 gsave  408 305 1383 677 C 1393.11 726.467 t 0 r /Helvetica findfont 22.8295 sf 0 0 m (\2550.01) show NC gr 
 gsave  408 305 1383 677 C 1427.29 766.351 t 0 r /Helvetica findfont 22.8295 sf 0 0 m (0) show NC gr 
 gsave  408 305 1383 677 C 1398.81 806.236 t 0 r /Helvetica findfont 22.8295 sf 0 0 m (0.01) show NC gr 
 gsave  408 305 1383 677 C 1395.96 846.12 t 0 r /Helvetica findfont 22.8295 sf 0 0 m (0.02) show NC gr 
 gsave  408 305 1383 677 C 1395.96 886.005 t 0 r /Helvetica findfont 22.8295 sf 0 0 m (0.03) show NC gr 
 gsave  408 305 1383 677 C 1395.96 925.889 t 0 r /Helvetica findfont 22.8295 sf 0 0 m (0.04) show NC gr  1751 723 m 229 Y s 1745 732 m 6 X s 1748 740 m 3 X s 1748 748 m 3 X s 1748 756 m 3 X s 1748 764 m 3 X s 1745 772 m 6 X s 1748 781 m 3 X s 1748
 789 m 3 X s 1748 797 m 3 X s 1748 805 m 3 X s 1745 813 m 6 X s 1748 821 m 3 X s 1748 829 m 3 X s 1748 837 m 3 X s 1748 845 m 3 X s 1745 853 m 6 X s 1748 861 m 3 X s 1748 869 m 3 X s 1748 877 m 3 X s 1748 885 m 3 X s 1745 893 m 6 X s 1748 901 m 3 X s
 1748 909 m 3 X s 1748 917 m 3 X s 1748 925 m 3 X s 1745 933 m 6 X s 1745 732 m 6 X s 1748 724 m 3 X s 1745 933 m 6 X s 1748 941 m 3 X s 1748 949 m 3 X s 1470 760 1473 759 1478 761 1531 771 1723 915 5 { m21} R 1470 772 m 5 Y s 1464 777 m 12 X s 1470
 749 m -6 Y s 1464 743 m 12 X s 1473 770 m 6 Y s 1467 776 m 11 X s 1473 748 m -6 Y s 1467 742 m 11 X s 1478 772 m 6 Y s 1472 778 m 12 X s 1478 749 m -5 Y s 1472 744 m 12 X s 1531 782 m 6 Y s 1525 788 m 12 X s 1531 759 m -6 Y s 1525 753 m 12 X s 1723
 926 m 7 Y s 1717 933 m 12 X s 1723 903 m -6 Y s 1717 897 m 12 X s 1 0 0 c 9 lw 0.95 0.95 0.95 c black 1 0 0 c 1446 773 m 15 X 3 -1 d 7 X 3 1 d 15 X 3 1 d 3 X 3 1 d 6 X 3 1 d 3 1 d 3 X 3 1 d 4 X 3 1 d 3 1 d 3 1 d 3 1 d 3 X 3 1 d 3 1 d 3 1 d 3 1 d 3 1
 d 3 2 d 3 1 d 3 1 d 3 1 d 3 1 d 4 2 d 3 1 d 3 1 d 3 2 d 3 1 d 3 2 d 3 2 d 3 1 d 3 2 d 3 1 d s 1596 808 m 3 2 d 3 2 d 3 2 d 3 2 d 3 2 d 3 1 d 4 2 d 3 2 d 3 2 d 3 3 d 3 2 d 3 2 d 3 2 d 3 2 d 3 3 d 3 2 d 3 2 d 3 3 d 3 2 d 3 3 d 3 2 d 3 3 d 3 3 d 4 2 d
 3 3 d 3 3 d 3 2 d 3 3 d 3 3 d 3 3 d 3 3 d 3 3 d 3 3 d 3 3 d 3 3 d 3 3 d 3 3 d 3 4 d 3 3 d 4 3 d 3 4 d 3 3 d 3 3 d 3 4 d 3 3 d 3 4 d 3 4 d 3 3 d 3 4 d s 1746 941 m 3 4 d s 0.49 0.6 0.82 c black 0.49 0.6 0.82 c
 gsave  408 305 1383 677 C 1504.21 960.076 t 0 r /Helvetica-Bold findfont 25.6831 sf 0 0 m (4.0 < E < 4.5 GeV) show NC gr  0.52 0.76 0.64 c black 0.52 0.76 0.64 c
 gsave  408 305 1383 677 C 1489.97 923.04 t 0 r /Helvetica-Bold findfont 25.6831 sf 0 0 m 
 220 206 192 185 170 163 148 141 125 118 111 97 83 69 61 47 40 25 18
(A = 0.000, p = 2.000) K NC gr  1 0.6 1 c black 1 0.6 1 c
 gsave  408 305 1383 677 C 1789.1 791.991 t 90 r /Helvetica-Bold findfont 28.5368 sf 0 0 m (/dof=0.5) show NC gr  black 1 0.6 1 c
 gsave  408 305 1383 677 C 1777.71 780.596 t 90 r /Helvetica-Bold findfont 19.9758 sf 0 0 m (2) show NC gr  black 1 0.6 1 c
 gsave  408 305 1383 677 C 1789.1 763.503 t 90 r /Symbol findfont 28.5368 sf 0 0 m (c) show NC gr  black 3 lw 1 1 1 c 408 305 1837 677 bf black 1 1 1 c black 306 229 1898 723 bl 306 229 1898 723 bl 1898 723 m 306 X s 1921 727 m -4 Y s 2049 727 m -4 Y
 s 2176 727 m -4 Y s 1921 727 m -4 Y s 2176 727 m -4 Y s
 gsave  408 305 1837 677 C 1911.61 703.676 t 0 r /Helvetica findfont 22.8295 sf 0 0 m (0) show NC gr 
 gsave  408 305 1837 677 C 2022.71 703.676 t 0 r /Helvetica findfont 22.8295 sf 0 0 m (1000) show NC gr 
 gsave  408 305 1837 677 C 2148.06 703.676 t 0 r /Helvetica findfont 22.8295 sf 0 0 m (2000) show NC gr  1898 952 m 306 X s 1921 948 m 4 Y s 2049 948 m 4 Y s 2176 948 m 4 Y s 1921 948 m 4 Y s 2176 948 m 4 Y s 1898 723 m 229 Y s 1904 742 m -6 X s 1901
 747 m -3 X s 1901 752 m -3 X s 1901 756 m -3 X s 1901 761 m -3 X s 1904 766 m -6 X s 1901 771 m -3 X s 1901 776 m -3 X s 1901 780 m -3 X s 1901 785 m -3 X s 1904 790 m -6 X s 1901 795 m -3 X s 1901 799 m -3 X s 1901 804 m -3 X s 1901 809 m -3 X s
 1904 814 m -6 X s 1901 818 m -3 X s 1901 823 m -3 X s 1901 828 m -3 X s 1901 833 m -3 X s 1904 837 m -6 X s 1901 842 m -3 X s 1901 847 m -3 X s 1901 852 m -3 X s 1901 856 m -3 X s 1904 861 m -6 X s 1901 866 m -3 X s 1901 871 m -3 X s 1901 876 m -3 X
 s 1901 880 m -3 X s 1904 885 m -6 X s 1901 890 m -3 X s 1901 895 m -3 X s 1901 899 m -3 X s 1901 904 m -3 X s 1904 909 m -6 X s 1901 914 m -3 X s 1901 918 m -3 X s 1901 923 m -3 X s 1901 928 m -3 X s 1904 933 m -6 X s 1904 742 m -6 X s 1901 737 m -3
 X s 1901 733 m -3 X s 1901 728 m -3 X s 1901 723 m -3 X s 1904 933 m -6 X s 1901 937 m -3 X s 1901 942 m -3 X s 1901 947 m -3 X s 1901 952 m -3 X s
 gsave  408 305 1837 677 C 1846.08 735.014 t 0 r /Helvetica findfont 22.8295 sf 0 0 m (\2550.01) show NC gr 
 gsave  408 305 1837 677 C 1828.99 757.805 t 0 r /Helvetica findfont 22.8295 sf 0 0 m (\2550.005) show NC gr 
 gsave  408 305 1837 677 C 1880.27 783.445 t 0 r /Helvetica findfont 22.8295 sf 0 0 m (0) show NC gr 
 gsave  408 305 1837 677 C 1837.53 806.236 t 0 r /Helvetica findfont 22.8295 sf 0 0 m (0.005) show NC gr 
 gsave  408 305 1837 677 C 1851.78 829.027 t 0 r /Helvetica findfont 22.8295 sf 0 0 m (0.01) show NC gr 
 gsave  408 305 1837 677 C 1837.53 854.667 t 0 r /Helvetica findfont 22.8295 sf 0 0 m (0.015) show NC gr 
 gsave  408 305 1837 677 C 1848.93 877.458 t 0 r /Helvetica findfont 22.8295 sf 0 0 m (0.02) show NC gr 
 gsave  408 305 1837 677 C 1837.53 903.098 t 0 r /Helvetica findfont 22.8295 sf 0 0 m (0.025) show NC gr 
 gsave  408 305 1837 677 C 1848.93 925.889 t 0 r /Helvetica findfont 22.8295 sf 0 0 m (0.03) show NC gr  2204 723 m 229 Y s 2199 742 m 5 X s 2201 747 m 3 X s 2201 752 m 3 X s 2201 756 m 3 X s 2201 761 m 3 X s 2199 766 m 5 X s 2201 771 m 3 X s 2201
 776 m 3 X s 2201 780 m 3 X s 2201 785 m 3 X s 2199 790 m 5 X s 2201 795 m 3 X s 2201 799 m 3 X s 2201 804 m 3 X s 2201 809 m 3 X s 2199 814 m 5 X s 2201 818 m 3 X s 2201 823 m 3 X s 2201 828 m 3 X s 2201 833 m 3 X s 2199 837 m 5 X s 2201 842 m 3 X s
 2201 847 m 3 X s 2201 852 m 3 X s 2201 856 m 3 X s 2199 861 m 5 X s 2201 866 m 3 X s 2201 871 m 3 X s 2201 876 m 3 X s 2201 880 m 3 X s 2199 885 m 5 X s 2201 890 m 3 X s 2201 895 m 3 X s 2201 899 m 3 X s 2201 904 m 3 X s 2199 909 m 5 X s 2201 914 m
 3 X s 2201 918 m 3 X s 2201 923 m 3 X s 2201 928 m 3 X s 2199 933 m 5 X s 2199 742 m 5 X s 2201 737 m 3 X s 2201 733 m 3 X s 2201 728 m 3 X s 2201 723 m 3 X s 2199 933 m 5 X s 2201 937 m 3 X s 2201 942 m 3 X s 2201 947 m 3 X s 2201 952 m 3 X s 1923
 774 1926 771 1931 769 1985 776 2176 905 5 { m21} R 1923 785 m 15 Y s 1918 800 m 11 X s 1923 762 m -15 Y s 1918 747 m 11 X s 1926 782 m 15 Y s 1920 797 m 12 X s 1926 759 m -15 Y s 1920 744 m 12 X s 1931 780 m 15 Y s 1926 795 m 11 X s 1931 757 m -15 Y
 s 1926 742 m 11 X s 1985 788 m 15 Y s 1979 803 m 11 X s 1985 765 m -15 Y s 1979 750 m 11 X s 2176 916 m 17 Y s 2171 933 m 11 X s 2176 894 m -17 Y s 2171 877 m 11 X s 1 0 0 c 9 lw 0.95 0.95 0.95 c black 1 0 0 c 1900 791 m 3 -1 d 36 X 3 1 d 10 X 3 1 d
 3 X 3 1 d 3 X 3 1 d 3 X 3 1 d 3 X 3 1 d 3 X 3 1 d 3 1 d 3 1 d 4 X 3 1 d 3 1 d 3 1 d 3 1 d 3 1 d 3 1 d 3 1 d 3 1 d 3 1 d 3 1 d 3 1 d 3 1 d 3 1 d 3 1 d 3 2 d 3 1 d 4 1 d 3 2 d s 2050 819 m 3 1 d 3 2 d 3 1 d 3 1 d 3 2 d 3 2 d 3 1 d 3 2 d 3 1 d 3 2 d 3
 2 d 3 2 d 3 1 d 3 2 d 4 2 d 3 2 d 3 2 d 3 2 d 3 2 d 3 2 d 3 2 d 3 2 d 3 2 d 3 2 d 3 2 d 3 2 d 3 3 d 3 2 d 3 2 d 3 3 d 4 2 d 3 2 d 3 3 d 3 2 d 3 3 d 3 2 d 3 3 d 3 2 d 3 3 d 3 3 d 3 2 d 3 3 d 3 3 d 3 3 d 3 2 d 3 3 d 4 3 d 3 3 d 3 3 d s 2200 925 m 3 3
 d s 0.49 0.6 0.82 c black 0.49 0.6 0.82 c
 gsave  408 305 1837 677 C 1957.19 960.076 t 0 r /Helvetica-Bold findfont 25.6831 sf 0 0 m (4.5 < E < 5.0 GeV) show NC gr  0.52 0.76 0.64 c black 0.52 0.76 0.64 c
 gsave  408 305 1837 677 C 1942.94 923.04 t 0 r /Helvetica-Bold findfont 25.6831 sf 0 0 m 
 220 206 192 185 170 163 148 141 126 118 111 97 83 69 61 47 40 25 18
(A = 0.000, p = 2.000) K NC gr  1 0.6 1 c black 1 0.6 1 c
 gsave  408 305 1837 677 C 2242.08 791.991 t 90 r /Helvetica-Bold findfont 28.5368 sf 0 0 m (/dof=0.5) show NC gr  black 1 0.6 1 c
 gsave  408 305 1837 677 C 2230.68 780.596 t 90 r /Helvetica-Bold findfont 19.9758 sf 0 0 m (2) show NC gr  black 1 0.6 1 c
 gsave  408 305 1837 677 C 2242.08 763.503 t 90 r /Symbol findfont 28.5368 sf 0 0 m (c) show NC gr  black 3 lw 1 1 1 c 408 306 23 345 bf black 1 1 1 c black 306 229 84 391 bl 306 229 84 391 bl 84 391 m 306 X s 107 395 m -4 Y s 234 395 m -4 Y s 362
 395 m -4 Y s 107 395 m -4 Y s 362 395 m -4 Y s
 gsave  408 306 23 345 C 96.8623 370.356 t 0 r /Helvetica findfont 22.8295 sf 0 0 m (0) show NC gr 
 gsave  408 306 23 345 C 207.969 370.356 t 0 r /Helvetica findfont 22.8295 sf 0 0 m (1000) show NC gr 
 gsave  408 306 23 345 C 336.169 370.356 t 0 r /Helvetica findfont 22.8295 sf 0 0 m (2000) show NC gr  84 620 m 306 X s 107 616 m 4 Y s 234 616 m 4 Y s 362 616 m 4 Y s 107 616 m 4 Y s 362 616 m 4 Y s 84 391 m 229 Y s 89 420 m -5 X s 87 429 m -3 X s
 87 437 m -3 X s 87 446 m -3 X s 87 454 m -3 X s 89 463 m -5 X s 87 471 m -3 X s 87 480 m -3 X s 87 488 m -3 X s 87 497 m -3 X s 89 505 m -5 X s 87 514 m -3 X s 87 523 m -3 X s 87 531 m -3 X s 87 540 m -3 X s 89 548 m -5 X s 87 557 m -3 X s 87 565 m
 -3 X s 87 574 m -3 X s 87 582 m -3 X s 89 591 m -5 X s 89 420 m -5 X s 87 412 m -3 X s 87 403 m -3 X s 87 395 m -3 X s 89 591 m -5 X s 87 599 m -3 X s 87 608 m -3 X s 87 616 m -3 X s
 gsave  408 306 23 345 C 65.5245 413.089 t 0 r /Helvetica findfont 22.8295 sf 0 0 m (0) show NC gr 
 gsave  408 306 23 345 C 22.7911 455.822 t 0 r /Helvetica findfont 22.8295 sf 0 0 m (0.005) show NC gr 
 gsave  408 306 23 345 C 37.0356 498.556 t 0 r /Helvetica findfont 22.8295 sf 0 0 m (0.01) show NC gr 
 gsave  408 306 23 345 C 22.7911 541.289 t 0 r /Helvetica findfont 22.8295 sf 0 0 m (0.015) show NC gr 
 gsave  408 306 23 345 C 34.1867 584.022 t 0 r /Helvetica findfont 22.8295 sf 0 0 m (0.02) show NC gr  390 391 m 229 Y s 385 420 m 5 X s 387 429 m 3 X s 387 437 m 3 X s 387 446 m 3 X s 387 454 m 3 X s 385 463 m 5 X s 387 471 m 3 X s 387 480 m 3 X s
 387 488 m 3 X s 387 497 m 3 X s 385 505 m 5 X s 387 514 m 3 X s 387 523 m 3 X s 387 531 m 3 X s 387 540 m 3 X s 385 548 m 5 X s 387 557 m 3 X s 387 565 m 3 X s 387 574 m 3 X s 387 582 m 3 X s 385 591 m 5 X s 385 420 m 5 X s 387 412 m 3 X s 387 403 m
 3 X s 387 395 m 3 X s 385 591 m 5 X s 387 599 m 3 X s 387 608 m 3 X s 387 616 m 3 X s /w 22 def /w2 {w 2 div} def /w3 {w 3 div} def 109 473 112 476 117 479 170 523 362 537 5 { m21} R 109 484 m 51 Y s 104 535 m 11 X s 109 461 m -51 Y s 104 410 m 11 X
 s 112 488 m 51 Y s 106 539 m 12 X s 112 465 m -51 Y s 106 414 m 12 X s 117 491 m 51 Y s 112 542 m 11 X s 117 468 m -52 Y s 112 416 m 11 X s 170 535 m 52 Y s 165 587 m 11 X s 170 512 m -52 Y s 165 460 m 11 X s 362 549 m 52 Y s 357 601 m 11 X s 362
 526 m -53 Y s 357 473 m 11 X s 9 lw 0.95 0.95 0.95 c black 85 409 m 3 1 d 4 2 d 3 2 d 3 1 d 3 2 d 3 2 d 3 1 d 3 2 d 3 2 d 3 1 d 3 2 d 3 2 d 3 1 d 3 2 d 3 2 d 3 1 d 3 2 d 4 2 d 3 1 d 3 2 d 3 2 d 3 1 d 3 2 d 3 2 d 3 1 d 3 2 d 3 2 d 3 1 d 3 2 d 3 1 d 3
 2 d 3 2 d 3 1 d 4 2 d 3 2 d 3 1 d 3 2 d 3 2 d 3 1 d 3 2 d 3 2 d 3 1 d 3 2 d 3 2 d 3 1 d 3 2 d 3 2 d 3 1 d 3 2 d s 235 490 m 4 2 d 3 1 d 3 2 d 3 2 d 3 1 d 3 2 d 3 2 d 3 1 d 3 2 d 3 2 d 3 1 d 3 2 d 3 1 d 3 2 d 3 2 d 3 1 d 3 2 d 4 2 d 3 1 d 3 2 d 3 2 d
 3 1 d 3 2 d 3 2 d 3 1 d 3 2 d 3 2 d 3 1 d 3 2 d 3 2 d 3 1 d 3 2 d 3 2 d 4 1 d 3 2 d 3 2 d 3 1 d 3 2 d 3 2 d 3 1 d 3 2 d 3 1 d 3 2 d 3 2 d 3 1 d 3 2 d 3 2 d 3 1 d 3 2 d s 385 571 m 4 2 d s 0.49 0.6 0.82 c black 0.49 0.6 0.82 c
 gsave  408 306 23 345 C 142.445 629.605 t 0 r /Helvetica-Bold findfont 25.6831 sf 0 0 m (5.0 < E < 5.5 GeV) show NC gr  0.52 0.76 0.64 c black 0.52 0.76 0.64 c
 gsave  408 306 23 345 C 128.2 592.569 t 0 r /Helvetica-Bold findfont 25.6831 sf 0 0 m 
 220 206 192 185 170 163 148 141 126 118 111 97 83 69 61 47 40 25 18
(A = 0.000, p = 1.000) K NC gr  1 0.6 1 c black 1 0.6 1 c
 gsave  408 306 23 345 C 427.334 458.671 t 90 r /Helvetica-Bold findfont 28.5368 sf 0 0 m (/dof=0.8) show NC gr  black 1 0.6 1 c
 gsave  408 306 23 345 C 415.938 447.276 t 90 r /Helvetica-Bold findfont 19.9758 sf 0 0 m (2) show NC gr  black 1 0.6 1 c
 gsave  408 306 23 345 C 427.334 430.182 t 90 r /Symbol findfont 28.5368 sf 0 0 m (c) show NC gr  black 3 lw 1 1 1 c 408 306 476 345 bf black 1 1 1 c black 307 229 537 391 bl 307 229 537 391 bl 537 391 m 307 X s 560 395 m -4 Y s 688 395 m -4 Y s 816
 395 m -4 Y s 560 395 m -4 Y s 816 395 m -4 Y s
 gsave  408 306 476 345 C 549.836 370.356 t 0 r /Helvetica findfont 22.8295 sf 0 0 m (0) show NC gr 
 gsave  408 306 476 345 C 660.943 370.356 t 0 r /Helvetica findfont 22.8295 sf 0 0 m (1000) show NC gr 
 gsave  408 306 476 345 C 789.143 370.356 t 0 r /Helvetica findfont 22.8295 sf 0 0 m (2000) show NC gr  537 620 m 307 X s 560 616 m 4 Y s 688 616 m 4 Y s 816 616 m 4 Y s 560 616 m 4 Y s 816 616 m 4 Y s 537 391 m 229 Y s 543 414 m -6 X s 540 419 m -3
 X s 540 424 m -3 X s 540 429 m -3 X s 540 434 m -3 X s 543 439 m -6 X s 540 444 m -3 X s 540 448 m -3 X s 540 453 m -3 X s 540 458 m -3 X s 543 463 m -6 X s 540 468 m -3 X s 540 473 m -3 X s 540 478 m -3 X s 540 483 m -3 X s 543 488 m -6 X s 540 492
 m -3 X s 540 497 m -3 X s 540 502 m -3 X s 540 507 m -3 X s 543 512 m -6 X s 540 517 m -3 X s 540 522 m -3 X s 540 527 m -3 X s 540 532 m -3 X s 543 536 m -6 X s 540 541 m -3 X s 540 546 m -3 X s 540 551 m -3 X s 540 556 m -3 X s 543 561 m -6 X s
 540 566 m -3 X s 540 571 m -3 X s 540 576 m -3 X s 540 580 m -3 X s 543 585 m -6 X s 540 590 m -3 X s 540 595 m -3 X s 540 600 m -3 X s 540 605 m -3 X s 543 610 m -6 X s 543 414 m -6 X s 540 409 m -3 X s 540 404 m -3 X s 540 400 m -3 X s 540 395 m
 -3 X s 543 610 m -6 X s 540 615 m -3 X s 540 619 m -3 X s
 gsave  408 306 476 345 C 481.462 407.391 t 0 r /Helvetica findfont 22.8295 sf 0 0 m (\2550.02) show NC gr 
 gsave  408 306 476 345 C 467.218 430.182 t 0 r /Helvetica findfont 22.8295 sf 0 0 m (\2550.015) show NC gr 
 gsave  408 306 476 345 C 484.311 455.822 t 0 r /Helvetica findfont 22.8295 sf 0 0 m (\2550.01) show NC gr 
 gsave  408 306 476 345 C 467.218 481.462 t 0 r /Helvetica findfont 22.8295 sf 0 0 m (\2550.005) show NC gr 
 gsave  408 306 476 345 C 518.498 504.254 t 0 r /Helvetica findfont 22.8295 sf 0 0 m (0) show NC gr 
 gsave  408 306 476 345 C 475.765 529.894 t 0 r /Helvetica findfont 22.8295 sf 0 0 m (0.005) show NC gr 
 gsave  408 306 476 345 C 490.009 552.685 t 0 r /Helvetica findfont 22.8295 sf 0 0 m (0.01) show NC gr 
 gsave  408 306 476 345 C 475.765 578.325 t 0 r /Helvetica findfont 22.8295 sf 0 0 m (0.015) show NC gr 
 gsave  408 306 476 345 C 487.16 603.965 t 0 r /Helvetica findfont 22.8295 sf 0 0 m (0.02) show NC gr  844 391 m 229 Y s 838 414 m 6 X s 841 419 m 3 X s 841 424 m 3 X s 841 429 m 3 X s 841 434 m 3 X s 838 439 m 6 X s 841 444 m 3 X s 841 448 m 3 X s
 841 453 m 3 X s 841 458 m 3 X s 838 463 m 6 X s 841 468 m 3 X s 841 473 m 3 X s 841 478 m 3 X s 841 483 m 3 X s 838 488 m 6 X s 841 492 m 3 X s 841 497 m 3 X s 841 502 m 3 X s 841 507 m 3 X s 838 512 m 6 X s 841 517 m 3 X s 841 522 m 3 X s 841 527 m
 3 X s 841 532 m 3 X s 838 536 m 6 X s 841 541 m 3 X s 841 546 m 3 X s 841 551 m 3 X s 841 556 m 3 X s 838 561 m 6 X s 841 566 m 3 X s 841 571 m 3 X s 841 576 m 3 X s 841 580 m 3 X s 838 585 m 6 X s 841 590 m 3 X s 841 595 m 3 X s 841 600 m 3 X s 841
 605 m 3 X s 838 610 m 6 X s 838 414 m 6 X s 841 409 m 3 X s 841 404 m 3 X s 841 400 m 3 X s 841 395 m 3 X s 838 610 m 6 X s 841 615 m 3 X s 841 619 m 3 X s /w 23 def /w2 {w 2 div} def /w3 {w 3 div} def 563 547 565 553 571 556 624 526 816 454 5 {
 m21} R 563 558 m 34 Y s 557 592 m 11 X s 563 535 m -33 Y s 557 502 m 11 X s 565 564 m 34 Y s 560 598 m 11 X s 565 542 m -34 Y s 560 508 m 11 X s 571 567 m 34 Y s 565 601 m 12 X s 571 544 m -33 Y s 565 511 m 12 X s 624 538 m 33 Y s 618 571 m 12 X s
 624 515 m -34 Y s 618 481 m 12 X s 816 466 m 33 Y s 810 499 m 11 X s 816 443 m -33 Y s 810 410 m 11 X s 1 0 0 c 9 lw 0.95 0.95 0.95 c black 1 0 0 c 539 512 m 43 X 3 -1 d 15 X 3 -1 d 9 X 4 -1 d 6 X 3 -1 d 6 X 3 -1 d 3 X 3 -1 d 6 X 3 -1 d 3 X 3 -1 d 3
 X 3 -1 d 3 X 4 -1 d 3 -1 d 3 X 3 -1 d 3 X 3 -1 d 3 -1 d 3 X s 689 498 m 3 -1 d 3 -1 d 3 X 3 -1 d 3 -1 d 3 -1 d 3 X 3 -1 d 4 -1 d 3 -1 d 3 -1 d 3 -1 d 3 -1 d 3 X 3 -1 d 3 -1 d 3 -1 d 3 -1 d 3 -1 d 3 -1 d 3 -1 d 3 -1 d 3 -1 d 3 -1 d 4 -1 d 3 -1 d 3 -2
 d 3 -1 d 3 -1 d 3 -1 d 3 -1 d 3 -1 d 3 -2 d 3 -1 d 3 -1 d 3 -1 d 3 -2 d 3 -1 d 3 -1 d 3 -1 d 4 -2 d 3 -1 d 3 -2 d 3 -1 d 3 -1 d 3 -2 d 3 -1 d 3 -2 d 3 -1 d s 839 445 m 3 -2 d s 0.49 0.6 0.82 c black 0.49 0.6 0.82 c
 gsave  408 306 476 345 C 595.418 629.605 t 0 r /Helvetica-Bold findfont 25.6831 sf 0 0 m (5.5 < E < 6.0 GeV) show NC gr  0.52 0.76 0.64 c black 0.52 0.76 0.64 c
 gsave  408 306 476 345 C 575.476 592.569 t 0 r /Helvetica-Bold findfont 25.6831 sf 0 0 m 
 228 214 200 193 178 171 156 149 133 126 119 105 91 77 69 55 47 39 25 17
(A = \2550.000, p = 2.000) K NC gr  1 0.6 1 c black 1 0.6 1 c
 gsave  408 306 476 345 C 883.156 458.671 t 90 r /Helvetica-Bold findfont 28.5368 sf 0 0 m (/dof=0.6) show NC gr  black 1 0.6 1 c
 gsave  408 306 476 345 C 871.76 447.276 t 90 r /Helvetica-Bold findfont 19.9758 sf 0 0 m (2) show NC gr  black 1 0.6 1 c
 gsave  408 306 476 345 C 883.156 430.182 t 90 r /Symbol findfont 28.5368 sf 0 0 m (c) show NC gr  black 3 lw 1 1 1 c 408 306 930 345 bf black 1 1 1 c black 306 229 991 391 bl 306 229 991 391 bl 991 391 m 306 X s 1014 395 m -4 Y s 1141 395 m -4 Y s
 1269 395 m -4 Y s 1014 395 m -4 Y s 1269 395 m -4 Y s
 gsave  408 306 930 345 C 1002.81 370.356 t 0 r /Helvetica findfont 22.8295 sf 0 0 m (0) show NC gr 
 gsave  408 306 930 345 C 1113.92 370.356 t 0 r /Helvetica findfont 22.8295 sf 0 0 m (1000) show NC gr 
 gsave  408 306 930 345 C 1242.12 370.356 t 0 r /Helvetica findfont 22.8295 sf 0 0 m (2000) show NC gr  991 620 m 306 X s 1014 616 m 4 Y s 1141 616 m 4 Y s 1269 616 m 4 Y s 1014 616 m 4 Y s 1269 616 m 4 Y s 991 391 m 229 Y s 997 406 m -6 X s 994 416
 m -3 X s 994 426 m -3 X s 994 436 m -3 X s 997 446 m -6 X s 994 456 m -3 X s 994 466 m -3 X s 994 476 m -3 X s 997 486 m -6 X s 994 496 m -3 X s 994 506 m -3 X s 994 516 m -3 X s 997 526 m -6 X s 994 536 m -3 X s 994 546 m -3 X s 994 556 m -3 X s
 997 566 m -6 X s 994 576 m -3 X s 994 586 m -3 X s 994 596 m -3 X s 997 606 m -6 X s 997 406 m -6 X s 994 396 m -3 X s 997 606 m -6 X s 994 616 m -3 X s
 gsave  408 306 930 345 C 937.285 398.845 t 0 r /Helvetica findfont 22.8295 sf 0 0 m (\2550.08) show NC gr 
 gsave  408 306 930 345 C 937.285 438.729 t 0 r /Helvetica findfont 22.8295 sf 0 0 m (\2550.06) show NC gr 
 gsave  408 306 930 345 C 937.285 478.614 t 0 r /Helvetica findfont 22.8295 sf 0 0 m (\2550.04) show NC gr 
 gsave  408 306 930 345 C 937.285 518.498 t 0 r /Helvetica findfont 22.8295 sf 0 0 m (\2550.02) show NC gr 
 gsave  408 306 930 345 C 974.32 558.382 t 0 r /Helvetica findfont 22.8295 sf 0 0 m (0) show NC gr 
 gsave  408 306 930 345 C 942.983 598.267 t 0 r /Helvetica findfont 22.8295 sf 0 0 m (0.02) show NC gr  1297 391 m 229 Y s 1292 406 m 5 X s 1294 416 m 3 X s 1294 426 m 3 X s 1294 436 m 3 X s 1292 446 m 5 X s 1294 456 m 3 X s 1294 466 m 3 X s 1294 476
 m 3 X s 1292 486 m 5 X s 1294 496 m 3 X s 1294 506 m 3 X s 1294 516 m 3 X s 1292 526 m 5 X s 1294 536 m 3 X s 1294 546 m 3 X s 1294 556 m 3 X s 1292 566 m 5 X s 1294 576 m 3 X s 1294 586 m 3 X s 1294 596 m 3 X s 1292 606 m 5 X s 1292 406 m 5 X s
 1294 396 m 3 X s 1292 606 m 5 X s 1294 616 m 3 X s 1016 577 1019 579 1024 579 1078 565 1269 430 5 { m21} R 1016 589 m 11 Y s 1011 600 m 11 X s 1016 566 m -11 Y s 1011 555 m 11 X s 1019 590 m 11 Y s 1013 601 m 12 X s 1019 567 m -11 Y s 1013 556 m 12
 X s 1024 590 m 11 Y s 1019 601 m 11 X s 1024 567 m -11 Y s 1019 556 m 11 X s 1078 576 m 11 Y s 1072 587 m 11 X s 1078 554 m -11 Y s 1072 543 m 11 X s 1269 442 m 9 Y s 1264 451 m 11 X s 1269 419 m -9 Y s 1264 410 m 11 X s 1 0 0 c 9 lw 0.95 0.95 0.95
 c black 1 0 0 c 993 565 m 3 X 3 1 d 27 X 3 -1 d 9 X 4 -1 d 6 X 3 -1 d 3 X 3 -1 d 3 X 3 -1 d 3 -1 d 3 X 3 -1 d 3 -1 d 3 -1 d 3 -1 d 3 X 3 -1 d 3 -1 d 4 -1 d 3 -1 d 3 -1 d 3 -1 d 3 -2 d 3 -1 d 3 -1 d 3 -1 d 3 -2 d 3 -1 d 3 -1 d 3 -2 d 3 -1 d 3 -2 d 3
 -1 d 3 -2 d 4 -1 d s 1143 532 m 3 -2 d 3 -2 d 3 -1 d 3 -2 d 3 -2 d 3 -2 d 3 -2 d 3 -2 d 3 -2 d 3 -2 d 3 -2 d 3 -2 d 3 -2 d 3 -2 d 3 -2 d 4 -2 d 3 -3 d 3 -2 d 3 -2 d 3 -3 d 3 -2 d 3 -3 d 3 -2 d 3 -3 d 3 -2 d 3 -3 d 3 -3 d 3 -2 d 3 -3 d 3 -3 d 3 -3 d
 3 -3 d 4 -2 d 3 -3 d 3 -3 d 3 -3 d 3 -3 d 3 -3 d 3 -4 d 3 -3 d 3 -3 d 3 -3 d 3 -3 d 3 -4 d 3 -3 d 3 -4 d 3 -3 d 3 -3 d 4 -4 d s 1293 405 m 3 -4 d s 0.49 0.6 0.82 c black 0.49 0.6 0.82 c
 gsave  408 306 930 345 C 1051.24 629.605 t 0 r /Helvetica-Bold findfont 25.6831 sf 0 0 m (6.0 < E < 6.5 GeV) show NC gr  0.52 0.76 0.64 c black 0.52 0.76 0.64 c
 gsave  408 306 930 345 C 1031.3 592.569 t 0 r /Helvetica-Bold findfont 25.6831 sf 0 0 m 
 228 214 200 193 178 171 156 149 134 126 119 105 91 77 69 55 47 40 25 17
(A = \2550.000, p = 2.000) K NC gr  1 0.6 1 c black 1 0.6 1 c
 gsave  408 306 930 345 C 1336.13 458.671 t 90 r /Helvetica-Bold findfont 28.5368 sf 0 0 m (/dof=0.3) show NC gr  black 1 0.6 1 c
 gsave  408 306 930 345 C 1324.73 447.276 t 90 r /Helvetica-Bold findfont 19.9758 sf 0 0 m (2) show NC gr  black 1 0.6 1 c
 gsave  408 306 930 345 C 1336.13 430.182 t 90 r /Symbol findfont 28.5368 sf 0 0 m (c) show NC gr  black 3 lw 1 1 1 c 408 306 1383 345 bf black 1 1 1 c black 306 229 1445 391 bl 306 229 1445 391 bl 1445 391 m 306 X s 1467 395 m -4 Y s 1595 395 m -4 Y
 s 1723 395 m -4 Y s 1467 395 m -4 Y s 1723 395 m -4 Y s
 gsave  408 306 1383 345 C 1455.78 370.356 t 0 r /Helvetica findfont 22.8295 sf 0 0 m (0) show NC gr 
 gsave  408 306 1383 345 C 1566.89 370.356 t 0 r /Helvetica findfont 22.8295 sf 0 0 m (1000) show NC gr 
 gsave  408 306 1383 345 C 1695.09 370.356 t 0 r /Helvetica findfont 22.8295 sf 0 0 m (2000) show NC gr  1445 620 m 306 X s 1467 616 m 4 Y s 1595 616 m 4 Y s 1723 616 m 4 Y s 1467 616 m 4 Y s 1723 616 m 4 Y s 1445 391 m 229 Y s 1450 392 m -5 X s 1447
 399 m -2 X s 1447 406 m -2 X s 1447 414 m -2 X s 1450 421 m -5 X s 1447 428 m -2 X s 1447 436 m -2 X s 1447 443 m -2 X s 1450 450 m -5 X s 1447 458 m -2 X s 1447 465 m -2 X s 1447 473 m -2 X s 1450 480 m -5 X s 1447 487 m -2 X s 1447 495 m -2 X s
 1447 502 m -2 X s 1450 509 m -5 X s 1447 517 m -2 X s 1447 524 m -2 X s 1447 531 m -2 X s 1450 539 m -5 X s 1447 546 m -2 X s 1447 553 m -2 X s 1447 561 m -2 X s 1450 568 m -5 X s 1447 576 m -2 X s 1447 583 m -2 X s 1447 590 m -2 X s 1450 598 m -5 X
 s 1450 392 m -5 X s 1450 598 m -5 X s 1447 605 m -2 X s 1447 612 m -2 X s 1447 620 m -2 X s
 gsave  408 306 1383 345 C 1390.26 384.6 t 0 r /Helvetica findfont 22.8295 sf 0 0 m (\2550.12) show NC gr 
 gsave  408 306 1383 345 C 1404.5 413.089 t 0 r /Helvetica findfont 22.8295 sf 0 0 m (\2550.1) show NC gr 
 gsave  408 306 1383 345 C 1390.26 444.427 t 0 r /Helvetica findfont 22.8295 sf 0 0 m (\2550.08) show NC gr 
 gsave  408 306 1383 345 C 1390.26 472.916 t 0 r /Helvetica findfont 22.8295 sf 0 0 m (\2550.06) show NC gr 
 gsave  408 306 1383 345 C 1390.26 501.405 t 0 r /Helvetica findfont 22.8295 sf 0 0 m (\2550.04) show NC gr 
 gsave  408 306 1383 345 C 1390.26 532.742 t 0 r /Helvetica findfont 22.8295 sf 0 0 m (\2550.02) show NC gr 
 gsave  408 306 1383 345 C 1427.29 561.231 t 0 r /Helvetica findfont 22.8295 sf 0 0 m (0) show NC gr 
 gsave  408 306 1383 345 C 1395.96 589.72 t 0 r /Helvetica findfont 22.8295 sf 0 0 m (0.02) show NC gr  1751 391 m 229 Y s 1745 392 m 6 X s 1748 399 m 3 X s 1748 406 m 3 X s 1748 414 m 3 X s 1745 421 m 6 X s 1748 428 m 3 X s 1748 436 m 3 X s 1748 443
 m 3 X s 1745 450 m 6 X s 1748 458 m 3 X s 1748 465 m 3 X s 1748 473 m 3 X s 1745 480 m 6 X s 1748 487 m 3 X s 1748 495 m 3 X s 1748 502 m 3 X s 1745 509 m 6 X s 1748 517 m 3 X s 1748 524 m 3 X s 1748 531 m 3 X s 1745 539 m 6 X s 1748 546 m 3 X s
 1748 553 m 3 X s 1748 561 m 3 X s 1745 568 m 6 X s 1748 576 m 3 X s 1748 583 m 3 X s 1748 590 m 3 X s 1745 598 m 6 X s 1745 392 m 6 X s 1745 598 m 6 X s 1748 605 m 3 X s 1748 612 m 3 X s 1748 620 m 3 X s 1470 582 1473 579 1478 575 1531 566 1723 427
 5 { m21} R 1470 593 m 8 Y s 1464 601 m 12 X s 1470 570 m -8 Y s 1464 562 m 12 X s 1473 590 m 8 Y s 1467 598 m 11 X s 1473 567 m -7 Y s 1467 560 m 11 X s 1478 586 m 8 Y s 1472 594 m 12 X s 1478 563 m -7 Y s 1472 556 m 12 X s 1531 577 m 8 Y s 1525 585
 m 12 X s 1531 554 m -7 Y s 1525 547 m 12 X s 1723 438 m 5 Y s 1717 443 m 12 X s 1723 415 m -5 Y s 1717 410 m 12 X s 1 0 0 c 9 lw 0.95 0.95 0.95 c black 1 0 0 c 1446 567 m 3 X 3 1 d 31 X 3 -1 d 9 X 3 -1 d 3 X 3 -1 d 3 X 3 -1 d 3 X 3 -1 d 4 -1 d 3 X 3
 -1 d 3 -1 d 3 -1 d 3 -1 d 3 -1 d 3 -1 d 3 -1 d 3 -1 d 3 -1 d 3 -1 d 3 -1 d 3 -1 d 3 -1 d 3 -2 d 4 -1 d 3 -1 d 3 -2 d 3 -1 d 3 -2 d 3 -1 d 3 -2 d 3 -1 d 3 -2 d 3 -2 d s 1596 532 m 3 -1 d 3 -2 d 3 -2 d 3 -2 d 3 -2 d 3 -2 d 4 -2 d 3 -2 d 3 -2 d 3 -2 d
 3 -2 d 3 -2 d 3 -2 d 3 -3 d 3 -2 d 3 -2 d 3 -3 d 3 -2 d 3 -2 d 3 -3 d 3 -2 d 3 -3 d 3 -3 d 4 -2 d 3 -3 d 3 -3 d 3 -2 d 3 -3 d 3 -3 d 3 -3 d 3 -3 d 3 -3 d 3 -3 d 3 -3 d 3 -3 d 3 -3 d 3 -3 d 3 -4 d 3 -3 d 4 -3 d 3 -4 d 3 -3 d 3 -3 d 3 -4 d 3 -3 d 3 -4
 d 3 -3 d 3 -4 d 3 -4 d s 1746 400 m 3 -3 d s 0.49 0.6 0.82 c black 0.49 0.6 0.82 c
 gsave  408 306 1383 345 C 1504.21 629.605 t 0 r /Helvetica-Bold findfont 25.6831 sf 0 0 m (6.5 < E < 7.0 GeV) show NC gr  0.52 0.76 0.64 c black 0.52 0.76 0.64 c
 gsave  408 306 1383 345 C 1484.27 592.569 t 0 r /Helvetica-Bold findfont 25.6831 sf 0 0 m 
 228 214 200 193 178 171 156 149 133 126 119 105 91 77 69 55 47 39 25 17
(A = \2550.000, p = 2.000) K NC gr  1 0.6 1 c black 1 0.6 1 c
 gsave  408 306 1383 345 C 1789.1 458.671 t 90 r /Helvetica-Bold findfont 28.5368 sf 0 0 m (/dof=0.3) show NC gr  black 1 0.6 1 c
 gsave  408 306 1383 345 C 1777.71 447.276 t 90 r /Helvetica-Bold findfont 19.9758 sf 0 0 m (2) show NC gr  black 1 0.6 1 c
 gsave  408 306 1383 345 C 1789.1 430.182 t 90 r /Symbol findfont 28.5368 sf 0 0 m (c) show NC gr  black 3 lw 1 1 1 c 408 306 1837 345 bf black 1 1 1 c black 306 229 1898 391 bl 306 229 1898 391 bl 1898 391 m 306 X s 1921 395 m -4 Y s 2049 395 m -4 Y
 s 2176 395 m -4 Y s 1921 395 m -4 Y s 2176 395 m -4 Y s
 gsave  408 306 1837 345 C 1911.61 370.356 t 0 r /Helvetica findfont 22.8295 sf 0 0 m (0) show NC gr 
 gsave  408 306 1837 345 C 2022.71 370.356 t 0 r /Helvetica findfont 22.8295 sf 0 0 m (1000) show NC gr 
 gsave  408 306 1837 345 C 2148.06 370.356 t 0 r /Helvetica findfont 22.8295 sf 0 0 m (2000) show NC gr  1898 620 m 306 X s 1921 616 m 4 Y s 2049 616 m 4 Y s 2176 616 m 4 Y s 1921 616 m 4 Y s 2176 616 m 4 Y s 1898 391 m 229 Y s 1904 395 m -6 X s 1901
 401 m -3 X s 1901 408 m -3 X s 1901 414 m -3 X s 1904 421 m -6 X s 1901 427 m -3 X s 1901 434 m -3 X s 1901 440 m -3 X s 1904 446 m -6 X s 1901 453 m -3 X s 1901 459 m -3 X s 1901 466 m -3 X s 1904 472 m -6 X s 1901 479 m -3 X s 1901 485 m -3 X s
 1901 492 m -3 X s 1904 498 m -6 X s 1901 504 m -3 X s 1901 511 m -3 X s 1901 517 m -3 X s 1904 524 m -6 X s 1901 530 m -3 X s 1901 537 m -3 X s 1901 543 m -3 X s 1904 550 m -6 X s 1901 556 m -3 X s 1901 562 m -3 X s 1901 569 m -3 X s 1904 575 m -6 X
 s 1901 582 m -3 X s 1901 588 m -3 X s 1901 595 m -3 X s 1904 601 m -6 X s 1904 395 m -6 X s 1904 601 m -6 X s 1901 608 m -3 X s 1901 614 m -3 X s
 gsave  408 306 1837 345 C 1843.23 387.449 t 0 r /Helvetica findfont 22.8295 sf 0 0 m (\2550.14) show NC gr 
 gsave  408 306 1837 345 C 1843.23 413.089 t 0 r /Helvetica findfont 22.8295 sf 0 0 m (\2550.12) show NC gr 
 gsave  408 306 1837 345 C 1857.48 438.729 t 0 r /Helvetica findfont 22.8295 sf 0 0 m (\2550.1) show NC gr 
 gsave  408 306 1837 345 C 1843.23 464.369 t 0 r /Helvetica findfont 22.8295 sf 0 0 m (\2550.08) show NC gr 
 gsave  408 306 1837 345 C 1843.23 490.009 t 0 r /Helvetica findfont 22.8295 sf 0 0 m (\2550.06) show NC gr 
 gsave  408 306 1837 345 C 1843.23 515.649 t 0 r /Helvetica findfont 22.8295 sf 0 0 m (\2550.04) show NC gr 
 gsave  408 306 1837 345 C 1843.23 541.289 t 0 r /Helvetica findfont 22.8295 sf 0 0 m (\2550.02) show NC gr 
 gsave  408 306 1837 345 C 1880.27 566.929 t 0 r /Helvetica findfont 22.8295 sf 0 0 m (0) show NC gr 
 gsave  408 306 1837 345 C 1848.93 592.569 t 0 r /Helvetica findfont 22.8295 sf 0 0 m (0.02) show NC gr  2204 391 m 229 Y s 2199 395 m 5 X s 2201 401 m 3 X s 2201 408 m 3 X s 2201 414 m 3 X s 2199 421 m 5 X s 2201 427 m 3 X s 2201 434 m 3 X s 2201
 440 m 3 X s 2199 446 m 5 X s 2201 453 m 3 X s 2201 459 m 3 X s 2201 466 m 3 X s 2199 472 m 5 X s 2201 479 m 3 X s 2201 485 m 3 X s 2201 492 m 3 X s 2199 498 m 5 X s 2201 504 m 3 X s 2201 511 m 3 X s 2201 517 m 3 X s 2199 524 m 5 X s 2201 530 m 3 X s
 2201 537 m 3 X s 2201 543 m 3 X s 2199 550 m 5 X s 2201 556 m 3 X s 2201 562 m 3 X s 2201 569 m 3 X s 2199 575 m 5 X s 2201 582 m 3 X s 2201 588 m 3 X s 2201 595 m 3 X s 2199 601 m 5 X s 2199 395 m 5 X s 2199 601 m 5 X s 2201 608 m 3 X s 2201 614 m
 3 X s 1923 578 1926 582 1931 581 1985 562 2176 426 5 { m21} R 1923 590 m 7 Y s 1918 597 m 11 X s 1923 567 m -8 Y s 1918 559 m 11 X s 1926 593 m 8 Y s 1920 601 m 12 X s 1926 571 m -8 Y s 1920 563 m 12 X s 1931 592 m 8 Y s 1926 600 m 11 X s 1931 569 m
 -7 Y s 1926 562 m 11 X s 1985 573 m 7 Y s 1979 580 m 11 X s 1985 550 m -7 Y s 1979 543 m 11 X s 2176 437 m 5 Y s 2171 442 m 11 X s 2176 415 m -5 Y s 2171 410 m 11 X s 1 0 0 c 9 lw 0.95 0.95 0.95 c black 1 0 0 c 1900 574 m 3 1 d 36 X 3 -1 d 7 X 3 -1
 d 3 X 3 -1 d 3 X 3 -1 d 3 -1 d 3 X 3 -1 d 3 -1 d 3 -1 d 3 X 3 -1 d 3 -1 d 3 -1 d 4 -1 d 3 -1 d 3 -1 d 3 -1 d 3 -2 d 3 -1 d 3 -1 d 3 -1 d 3 -2 d 3 -1 d 3 -2 d 3 -1 d 3 -2 d 3 -1 d 3 -2 d 3 -1 d 3 -2 d 4 -2 d 3 -2 d s 2050 537 m 3 -2 d 3 -1 d 3 -2 d 3
 -2 d 3 -2 d 3 -2 d 3 -2 d 3 -2 d 3 -3 d 3 -2 d 3 -2 d 3 -2 d 3 -3 d 3 -2 d 4 -3 d 3 -2 d 3 -3 d 3 -2 d 3 -3 d 3 -2 d 3 -3 d 3 -3 d 3 -3 d 3 -2 d 3 -3 d 3 -3 d 3 -3 d 3 -3 d 3 -3 d 3 -3 d 4 -3 d 3 -3 d 3 -4 d 3 -3 d 3 -3 d 3 -3 d 3 -4 d 3 -3 d 3 -4 d
 3 -3 d 3 -4 d 3 -3 d 3 -4 d 3 -4 d 3 -3 d 3 -4 d 4 -4 d 3 -4 d 3 -4 d s 2200 397 m 3 -3 d s 0.49 0.6 0.82 c black 0.49 0.6 0.82 c
 gsave  408 306 1837 345 C 1957.19 629.605 t 0 r /Helvetica-Bold findfont 25.6831 sf 0 0 m (7.0 < E < 7.5 GeV) show NC gr  0.52 0.76 0.64 c black 0.52 0.76 0.64 c
 gsave  408 306 1837 345 C 1937.25 592.569 t 0 r /Helvetica-Bold findfont 25.6831 sf 0 0 m 
 228 214 200 193 178 171 156 149 134 126 119 105 91 77 69 55 47 40 25 17
(A = \2550.000, p = 2.000) K NC gr  1 0.6 1 c black 1 0.6 1 c
 gsave  408 306 1837 345 C 2242.08 458.671 t 90 r /Helvetica-Bold findfont 28.5368 sf 0 0 m (/dof=0.1) show NC gr  black 1 0.6 1 c
 gsave  408 306 1837 345 C 2230.68 447.276 t 90 r /Helvetica-Bold findfont 19.9758 sf 0 0 m (2) show NC gr  black 1 0.6 1 c
 gsave  408 306 1837 345 C 2242.08 430.182 t 90 r /Symbol findfont 28.5368 sf 0 0 m (c) show NC gr  black 3 lw 1 1 1 c 408 306 23 13 bf black 1 1 1 c black 306 229 84 59 bl 306 229 84 59 bl 84 59 m 306 X s 107 63 m -4 Y s 234 63 m -4 Y s 362 63 m -4
 Y s 107 63 m -4 Y s 362 63 m -4 Y s
 gsave  408 306 23 13 C 96.8623 39.8845 t 0 r /Helvetica findfont 22.8295 sf 0 0 m (0) show NC gr 
 gsave  408 306 23 13 C 207.969 39.8845 t 0 r /Helvetica findfont 22.8295 sf 0 0 m (1000) show NC gr 
 gsave  408 306 23 13 C 336.169 39.8845 t 0 r /Helvetica findfont 22.8295 sf 0 0 m (2000) show NC gr  84 288 m 306 X s 107 284 m 4 Y s 234 284 m 4 Y s 362 284 m 4 Y s 107 284 m 4 Y s 362 284 m 4 Y s 84 59 m 229 Y s 89 60 m -5 X s 87 66 m -3 X s 87 73
 m -3 X s 87 79 m -3 X s 89 86 m -5 X s 87 93 m -3 X s 87 99 m -3 X s 87 106 m -3 X s 89 112 m -5 X s 87 119 m -3 X s 87 125 m -3 X s 87 132 m -3 X s 89 138 m -5 X s 87 145 m -3 X s 87 152 m -3 X s 87 158 m -3 X s 89 165 m -5 X s 87 171 m -3 X s 87
 178 m -3 X s 87 184 m -3 X s 89 191 m -5 X s 87 197 m -3 X s 87 204 m -3 X s 87 211 m -3 X s 89 217 m -5 X s 87 224 m -3 X s 87 230 m -3 X s 87 237 m -3 X s 89 243 m -5 X s 87 250 m -3 X s 87 256 m -3 X s 87 263 m -3 X s 89 270 m -5 X s 89 60 m -5 X
 s 89 270 m -5 X s 87 276 m -3 X s 87 283 m -3 X s
 gsave  408 306 23 13 C 28.4889 51.28 t 0 r /Helvetica findfont 22.8295 sf 0 0 m (\2550.12) show NC gr 
 gsave  408 306 23 13 C 42.7334 79.7689 t 0 r /Helvetica findfont 22.8295 sf 0 0 m (\2550.1) show NC gr 
 gsave  408 306 23 13 C 28.4889 105.409 t 0 r /Helvetica findfont 22.8295 sf 0 0 m (\2550.08) show NC gr 
 gsave  408 306 23 13 C 28.4889 131.049 t 0 r /Helvetica findfont 22.8295 sf 0 0 m (\2550.06) show NC gr 
 gsave  408 306 23 13 C 28.4889 156.689 t 0 r /Helvetica findfont 22.8295 sf 0 0 m (\2550.04) show NC gr 
 gsave  408 306 23 13 C 28.4889 182.329 t 0 r /Helvetica findfont 22.8295 sf 0 0 m (\2550.02) show NC gr 
 gsave  408 306 23 13 C 65.5245 210.818 t 0 r /Helvetica findfont 22.8295 sf 0 0 m (0) show NC gr 
 gsave  408 306 23 13 C 34.1867 236.458 t 0 r /Helvetica findfont 22.8295 sf 0 0 m (0.02) show NC gr 
 gsave  408 306 23 13 C 34.1867 262.098 t 0 r /Helvetica findfont 22.8295 sf 0 0 m (0.04) show NC gr  390 59 m 229 Y s 385 60 m 5 X s 387 66 m 3 X s 387 73 m 3 X s 387 79 m 3 X s 385 86 m 5 X s 387 93 m 3 X s 387 99 m 3 X s 387 106 m 3 X s 385 112 m
 5 X s 387 119 m 3 X s 387 125 m 3 X s 387 132 m 3 X s 385 138 m 5 X s 387 145 m 3 X s 387 152 m 3 X s 387 158 m 3 X s 385 165 m 5 X s 387 171 m 3 X s 387 178 m 3 X s 387 184 m 3 X s 385 191 m 5 X s 387 197 m 3 X s 387 204 m 3 X s 387 211 m 3 X s 385
 217 m 5 X s 387 224 m 3 X s 387 230 m 3 X s 387 237 m 3 X s 385 243 m 5 X s 387 250 m 3 X s 387 256 m 3 X s 387 263 m 3 X s 385 270 m 5 X s 385 60 m 5 X s 385 270 m 5 X s 387 276 m 3 X s 387 283 m 3 X s /w 22 def /w2 {w 2 div} def /w3 {w 3 div} def
 109 247 112 236 117 241 170 224 362 97 5 { m21} R 109 259 m 10 Y s 104 269 m 11 X s 109 236 m -10 Y s 104 226 m 11 X s 112 248 m 10 Y s 106 258 m 12 X s 112 225 m -10 Y s 106 215 m 12 X s 117 252 m 10 Y s 112 262 m 11 X s 117 229 m -10 Y s 112 219 m
 11 X s 170 235 m 10 Y s 165 245 m 11 X s 170 212 m -9 Y s 165 203 m 11 X s 362 108 m 7 Y s 357 115 m 11 X s 362 85 m -7 Y s 357 78 m 11 X s 1 0 0 c 9 lw 0.95 0.95 0.95 c black 1 0 0 c 85 216 m 3 1 d 34 X 3 -1 d 9 X 3 -1 d 7 X 3 -1 d 3 X 3 -1 d 3 X 3
 -1 d 3 -1 d 3 X 3 -1 d 3 -1 d 3 X 3 -1 d 3 -1 d 3 -1 d 3 -1 d 4 -1 d 3 X 3 -1 d 3 -1 d 3 -2 d 3 -1 d 3 -1 d 3 -1 d 3 -1 d 3 -1 d 3 -2 d 3 -1 d 3 -1 d 3 -2 d 3 -1 d 3 -1 d s 235 187 m 4 -2 d 3 -1 d 3 -2 d 3 -1 d 3 -2 d 3 -2 d 3 -1 d 3 -2 d 3 -2 d 3
 -2 d 3 -1 d 3 -2 d 3 -2 d 3 -2 d 3 -2 d 3 -2 d 3 -2 d 4 -2 d 3 -2 d 3 -2 d 3 -2 d 3 -2 d 3 -3 d 3 -2 d 3 -2 d 3 -3 d 3 -2 d 3 -2 d 3 -3 d 3 -2 d 3 -3 d 3 -2 d 3 -3 d 4 -2 d 3 -3 d 3 -3 d 3 -2 d 3 -3 d 3 -3 d 3 -3 d 3 -2 d 3 -3 d 3 -3 d 3 -3 d 3 -3 d
 3 -3 d 3 -3 d 3 -3 d 3 -3 d s 385 75 m 4 -4 d s 0.49 0.6 0.82 c black 0.49 0.6 0.82 c
 gsave  408 306 23 13 C 142.445 296.285 t 0 r /Helvetica-Bold findfont 25.6831 sf 0 0 m (7.5 < E < 8.0 GeV) show NC gr  0.52 0.76 0.64 c black 0.52 0.76 0.64 c
 gsave  408 306 23 13 C 122.502 259.249 t 0 r /Helvetica-Bold findfont 25.6831 sf 0 0 m 
 228 214 200 193 178 171 156 149 134 126 119 105 91 77 69 55 47 40 25 17
(A = \2550.000, p = 2.000) K NC gr  1 0.6 1 c black 1 0.6 1 c
 gsave  408 306 23 13 C 427.334 128.2 t 90 r /Helvetica-Bold findfont 28.5368 sf 0 0 m (/dof=1.1) show NC gr  black 1 0.6 1 c
 gsave  408 306 23 13 C 415.938 116.804 t 90 r /Helvetica-Bold findfont 19.9758 sf 0 0 m (2) show NC gr  black 1 0.6 1 c
 gsave  408 306 23 13 C 427.334 99.7112 t 90 r /Symbol findfont 28.5368 sf 0 0 m (c) show NC gr  black 3 lw 1 1 1 c 408 306 476 13 bf black 1 1 1 c black 307 229 537 59 bl 307 229 537 59 bl 537 59 m 307 X s 560 63 m -4 Y s 688 63 m -4 Y s 816 63 m -4
 Y s 560 63 m -4 Y s 816 63 m -4 Y s
 gsave  408 306 476 13 C 549.836 39.8845 t 0 r /Helvetica findfont 22.8295 sf 0 0 m (0) show NC gr 
 gsave  408 306 476 13 C 660.943 39.8845 t 0 r /Helvetica findfont 22.8295 sf 0 0 m (1000) show NC gr 
 gsave  408 306 476 13 C 789.143 39.8845 t 0 r /Helvetica findfont 22.8295 sf 0 0 m (2000) show NC gr  537 288 m 307 X s 560 284 m 4 Y s 688 284 m 4 Y s 816 284 m 4 Y s 560 284 m 4 Y s 816 284 m 4 Y s 537 59 m 229 Y s 543 92 m -6 X s 540 102 m -3 X s
 540 112 m -3 X s 540 123 m -3 X s 543 133 m -6 X s 540 143 m -3 X s 540 154 m -3 X s 540 164 m -3 X s 543 174 m -6 X s 540 185 m -3 X s 540 195 m -3 X s 540 205 m -3 X s 543 216 m -6 X s 540 226 m -3 X s 540 236 m -3 X s 540 247 m -3 X s 543 257 m
 -6 X s 543 92 m -6 X s 540 81 m -3 X s 540 71 m -3 X s 540 61 m -3 X s 543 257 m -6 X s 540 267 m -3 X s 540 278 m -3 X s 540 288 m -3 X s
 gsave  408 306 476 13 C 481.462 85.4667 t 0 r /Helvetica findfont 22.8295 sf 0 0 m (\2550.08) show NC gr 
 gsave  408 306 476 13 C 481.462 125.351 t 0 r /Helvetica findfont 22.8295 sf 0 0 m (\2550.06) show NC gr 
 gsave  408 306 476 13 C 481.462 168.085 t 0 r /Helvetica findfont 22.8295 sf 0 0 m (\2550.04) show NC gr 
 gsave  408 306 476 13 C 481.462 207.969 t 0 r /Helvetica findfont 22.8295 sf 0 0 m (\2550.02) show NC gr 
 gsave  408 306 476 13 C 518.498 250.702 t 0 r /Helvetica findfont 22.8295 sf 0 0 m (0) show NC gr  844 59 m 229 Y s 838 92 m 6 X s 841 102 m 3 X s 841 112 m 3 X s 841 123 m 3 X s 838 133 m 6 X s 841 143 m 3 X s 841 154 m 3 X s 841 164 m 3 X s 838
 174 m 6 X s 841 185 m 3 X s 841 195 m 3 X s 841 205 m 3 X s 838 216 m 6 X s 841 226 m 3 X s 841 236 m 3 X s 841 247 m 3 X s 838 257 m 6 X s 838 92 m 6 X s 841 81 m 3 X s 841 71 m 3 X s 841 61 m 3 X s 838 257 m 6 X s 841 267 m 3 X s 841 278 m 3 X s
 841 288 m 3 X s /w 23 def /w2 {w 2 div} def /w3 {w 3 div} def 563 217 565 232 571 234 624 223 816 111 5 { m21} R 563 228 m 24 Y s 557 252 m 11 X s 563 206 m -24 Y s 557 182 m 11 X s 565 243 m 24 Y s 560 267 m 11 X s 565 220 m -24 Y s 560 196 m 11 X
 s 571 245 m 24 Y s 565 269 m 12 X s 571 222 m -24 Y s 565 198 m 12 X s 624 234 m 24 Y s 618 258 m 12 X s 624 211 m -23 Y s 618 188 m 12 X s 816 122 m 21 Y s 810 143 m 11 X s 816 99 m -21 Y s 810 78 m 11 X s 9 lw 0.95 0.95 0.95 c black 539 269 m 3 -2
 d 3 -1 d 3 -2 d 3 -2 d 3 -2 d 3 -1 d 3 -2 d 3 -2 d 4 -2 d 3 -1 d 3 -2 d 3 -2 d 3 -2 d 3 -1 d 3 -2 d 3 -2 d 3 -2 d 3 -2 d 3 -1 d 3 -2 d 3 -2 d 3 -2 d 3 -1 d 3 -2 d 4 -2 d 3 -2 d 3 -1 d 3 -2 d 3 -2 d 3 -2 d 3 -1 d 3 -2 d 3 -2 d 3 -2 d 3 -1 d 3 -2 d 3
 -2 d 3 -2 d 3 -2 d 3 -1 d 3 -2 d 4 -2 d 3 -2 d 3 -1 d 3 -2 d 3 -2 d 3 -2 d 3 -1 d 3 -2 d s 689 183 m 3 -2 d 3 -2 d 3 -1 d 3 -2 d 3 -2 d 3 -2 d 3 -2 d 3 -1 d 4 -2 d 3 -2 d 3 -2 d 3 -1 d 3 -2 d 3 -2 d 3 -2 d 3 -1 d 3 -2 d 3 -2 d 3 -2 d 3 -1 d 3 -2 d 3
 -2 d 3 -2 d 3 -2 d 4 -1 d 3 -2 d 3 -2 d 3 -2 d 3 -1 d 3 -2 d 3 -2 d 3 -2 d 3 -1 d 3 -2 d 3 -2 d 3 -2 d 3 -1 d 3 -2 d 3 -2 d 3 -2 d 4 -1 d 3 -2 d 3 -2 d 3 -2 d 3 -2 d 3 -1 d 3 -2 d 3 -2 d 3 -2 d s 839 96 m 3 -1 d s 0.49 0.6 0.82 c black 0.49 0.6 0.82
 c
 gsave  408 306 476 13 C 595.418 296.285 t 0 r /Helvetica-Bold findfont 25.6831 sf 0 0 m (8.0 < E < 8.5 GeV) show NC gr  0.52 0.76 0.64 c black 0.52 0.76 0.64 c
 gsave  408 306 476 13 C 575.476 259.249 t 0 r /Helvetica-Bold findfont 25.6831 sf 0 0 m 
 228 214 200 193 178 171 156 149 133 126 119 105 91 77 69 55 47 39 25 17
(A = \2550.000, p = 1.000) K NC gr  1 0.6 1 c black 1 0.6 1 c
 gsave  408 306 476 13 C 883.156 128.2 t 90 r /Helvetica-Bold findfont 28.5368 sf 0 0 m (/dof=0.5) show NC gr  black 1 0.6 1 c
 gsave  408 306 476 13 C 871.76 116.804 t 90 r /Helvetica-Bold findfont 19.9758 sf 0 0 m (2) show NC gr  black 1 0.6 1 c
 gsave  408 306 476 13 C 883.156 99.7112 t 90 r /Symbol findfont 28.5368 sf 0 0 m (c) show NC gr  black 3 lw 1 1 1 c 408 306 930 13 bf black 1 1 1 c black 306 229 991 59 bl 306 229 991 59 bl 991 59 m 306 X s 1014 63 m -4 Y s 1141 63 m -4 Y s 1269 63
 m -4 Y s 1014 63 m -4 Y s 1269 63 m -4 Y s
 gsave  408 306 930 13 C 1002.81 39.8845 t 0 r /Helvetica findfont 22.8295 sf 0 0 m (0) show NC gr 
 gsave  408 306 930 13 C 1113.92 39.8845 t 0 r /Helvetica findfont 22.8295 sf 0 0 m (1000) show NC gr 
 gsave  408 306 930 13 C 1242.12 39.8845 t 0 r /Helvetica findfont 22.8295 sf 0 0 m (2000) show NC gr  991 288 m 306 X s 1014 284 m 4 Y s 1141 284 m 4 Y s 1269 284 m 4 Y s 1014 284 m 4 Y s 1269 284 m 4 Y s 991 59 m 229 Y s 997 81 m -6 X s 994 86 m -3
 X s 994 92 m -3 X s 994 98 m -3 X s 994 103 m -3 X s 997 109 m -6 X s 994 114 m -3 X s 994 120 m -3 X s 994 125 m -3 X s 994 131 m -3 X s 997 136 m -6 X s 994 142 m -3 X s 994 147 m -3 X s 994 153 m -3 X s 994 159 m -3 X s 997 164 m -6 X s 994 170 m
 -3 X s 994 175 m -3 X s 994 181 m -3 X s 994 186 m -3 X s 997 192 m -6 X s 994 197 m -3 X s 994 203 m -3 X s 994 209 m -3 X s 994 214 m -3 X s 997 220 m -6 X s 994 225 m -3 X s 994 231 m -3 X s 994 236 m -3 X s 994 242 m -3 X s 997 247 m -6 X s 994
 253 m -3 X s 994 258 m -3 X s 994 264 m -3 X s 994 270 m -3 X s 997 275 m -6 X s 997 81 m -6 X s 994 75 m -3 X s 994 70 m -3 X s 994 64 m -3 X s 997 275 m -6 X s 994 281 m -3 X s 994 286 m -3 X s
 gsave  408 306 930 13 C 937.285 74.0711 t 0 r /Helvetica findfont 22.8295 sf 0 0 m (\2550.05) show NC gr 
 gsave  408 306 930 13 C 937.285 102.56 t 0 r /Helvetica findfont 22.8295 sf 0 0 m (\2550.04) show NC gr 
 gsave  408 306 930 13 C 937.285 128.2 t 0 r /Helvetica findfont 22.8295 sf 0 0 m (\2550.03) show NC gr 
 gsave  408 306 930 13 C 937.285 156.689 t 0 r /Helvetica findfont 22.8295 sf 0 0 m (\2550.02) show NC gr 
 gsave  408 306 930 13 C 940.134 185.178 t 0 r /Helvetica findfont 22.8295 sf 0 0 m (\2550.01) show NC gr 
 gsave  408 306 930 13 C 974.32 213.667 t 0 r /Helvetica findfont 22.8295 sf 0 0 m (0) show NC gr 
 gsave  408 306 930 13 C 945.832 239.307 t 0 r /Helvetica findfont 22.8295 sf 0 0 m (0.01) show NC gr 
 gsave  408 306 930 13 C 942.983 267.796 t 0 r /Helvetica findfont 22.8295 sf 0 0 m (0.02) show NC gr  1297 59 m 229 Y s 1292 81 m 5 X s 1294 86 m 3 X s 1294 92 m 3 X s 1294 98 m 3 X s 1294 103 m 3 X s 1292 109 m 5 X s 1294 114 m 3 X s 1294 120 m 3 X
 s 1294 125 m 3 X s 1294 131 m 3 X s 1292 136 m 5 X s 1294 142 m 3 X s 1294 147 m 3 X s 1294 153 m 3 X s 1294 159 m 3 X s 1292 164 m 5 X s 1294 170 m 3 X s 1294 175 m 3 X s 1294 181 m 3 X s 1294 186 m 3 X s 1292 192 m 5 X s 1294 197 m 3 X s 1294 203
 m 3 X s 1294 209 m 3 X s 1294 214 m 3 X s 1292 220 m 5 X s 1294 225 m 3 X s 1294 231 m 3 X s 1294 236 m 3 X s 1294 242 m 3 X s 1292 247 m 5 X s 1294 253 m 3 X s 1294 258 m 3 X s 1294 264 m 3 X s 1294 270 m 3 X s 1292 275 m 5 X s 1292 81 m 5 X s 1294
 75 m 3 X s 1294 70 m 3 X s 1294 64 m 3 X s 1292 275 m 5 X s 1294 281 m 3 X s 1294 286 m 3 X s 1016 217 1019 192 1024 176 1078 200 1269 127 5 { m21} R 1016 229 m 40 Y s 1011 269 m 11 X s 1016 206 m -40 Y s 1011 166 m 11 X s 1019 204 m 39 Y s 1013 243
 m 12 X s 1019 181 m -40 Y s 1013 141 m 12 X s 1024 187 m 39 Y s 1019 226 m 11 X s 1024 164 m -39 Y s 1019 125 m 11 X s 1078 211 m 40 Y s 1072 251 m 11 X s 1078 188 m -39 Y s 1072 149 m 11 X s 1269 139 m 38 Y s 1264 177 m 11 X s 1269 116 m -38 Y s
 1264 78 m 11 X s 9 lw 0.95 0.95 0.95 c black 993 227 m 3 -1 d 3 -1 d 3 -1 d 3 -1 d 3 -1 d 3 -1 d 3 -2 d 3 -1 d 3 -1 d 3 -1 d 3 -1 d 3 -1 d 3 -1 d 3 -1 d 3 -1 d 4 -2 d 3 -1 d 3 -1 d 3 -1 d 3 -1 d 3 -1 d 3 -1 d 3 -1 d 3 -2 d 3 -1 d 3 -1 d 3 -1 d 3 -1
 d 3 -1 d 3 -1 d 3 -1 d 3 -1 d 4 -2 d 3 -1 d 3 -1 d 3 -1 d 3 -1 d 3 -1 d 3 -1 d 3 -1 d 3 -2 d 3 -1 d 3 -1 d 3 -1 d 3 -1 d 3 -1 d 3 -1 d 3 -1 d 4 -1 d s 1143 173 m 3 -2 d 3 -1 d 3 -1 d 3 -1 d 3 -1 d 3 -1 d 3 -1 d 3 -1 d 3 -2 d 3 -1 d 3 -1 d 3 -1 d 3
 -1 d 3 -1 d 3 -1 d 4 -1 d 3 -2 d 3 -1 d 3 -1 d 3 -1 d 3 -1 d 3 -1 d 3 -1 d 3 -1 d 3 -1 d 3 -2 d 3 -1 d 3 -1 d 3 -1 d 3 -1 d 3 -1 d 3 -1 d 4 -1 d 3 -2 d 3 -1 d 3 -1 d 3 -1 d 3 -1 d 3 -1 d 3 -1 d 3 -1 d 3 -1 d 3 -2 d 3 -1 d 3 -1 d 3 -1 d 3 -1 d 3 -1 d
 4 -1 d s 1293 118 m 3 -1 d s 0.49 0.6 0.82 c black 0.49 0.6 0.82 c
 gsave  408 306 930 13 C 1051.24 296.285 t 0 r /Helvetica-Bold findfont 25.6831 sf 0 0 m (8.5 < E < 9.0 GeV) show NC gr  0.52 0.76 0.64 c black 0.52 0.76 0.64 c
 gsave  408 306 930 13 C 1031.3 259.249 t 0 r /Helvetica-Bold findfont 25.6831 sf 0 0 m 
 228 214 200 193 178 171 156 149 134 126 119 105 91 77 69 55 47 40 25 17
(A = \2550.000, p = 1.000) K NC gr  1 0.6 1 c black 1 0.6 1 c
 gsave  408 306 930 13 C 1336.13 128.2 t 90 r /Helvetica-Bold findfont 28.5368 sf 0 0 m (/dof=0.2) show NC gr  black 1 0.6 1 c
 gsave  408 306 930 13 C 1324.73 116.804 t 90 r /Helvetica-Bold findfont 19.9758 sf 0 0 m (2) show NC gr  black 1 0.6 1 c
 gsave  408 306 930 13 C 1336.13 99.7112 t 90 r /Symbol findfont 28.5368 sf 0 0 m (c) show NC gr  black 3 lw 1 1 1 c 408 306 1383 13 bf black 1 1 1 c black 306 229 1445 59 bl 306 229 1445 59 bl 1445 59 m 306 X s 1467 63 m -4 Y s 1595 63 m -4 Y s 1723
 63 m -4 Y s 1467 63 m -4 Y s 1723 63 m -4 Y s
 gsave  408 306 1383 13 C 1455.78 39.8845 t 0 r /Helvetica findfont 22.8295 sf 0 0 m (0) show NC gr 
 gsave  408 306 1383 13 C 1566.89 39.8845 t 0 r /Helvetica findfont 22.8295 sf 0 0 m (1000) show NC gr 
 gsave  408 306 1383 13 C 1695.09 39.8845 t 0 r /Helvetica findfont 22.8295 sf 0 0 m (2000) show NC gr  1445 288 m 306 X s 1467 284 m 4 Y s 1595 284 m 4 Y s 1723 284 m 4 Y s 1467 284 m 4 Y s 1723 284 m 4 Y s 1445 59 m 229 Y s 1450 67 m -5 X s 1447 73
 m -2 X s 1447 79 m -2 X s 1447 85 m -2 X s 1447 91 m -2 X s 1450 96 m -5 X s 1447 102 m -2 X s 1447 108 m -2 X s 1447 114 m -2 X s 1447 119 m -2 X s 1450 125 m -5 X s 1447 131 m -2 X s 1447 137 m -2 X s 1447 143 m -2 X s 1447 148 m -2 X s 1450 154 m
 -5 X s 1447 160 m -2 X s 1447 166 m -2 X s 1447 171 m -2 X s 1447 177 m -2 X s 1450 183 m -5 X s 1447 189 m -2 X s 1447 195 m -2 X s 1447 200 m -2 X s 1447 206 m -2 X s 1450 212 m -5 X s 1447 218 m -2 X s 1447 223 m -2 X s 1447 229 m -2 X s 1447 235
 m -2 X s 1450 241 m -5 X s 1447 247 m -2 X s 1447 252 m -2 X s 1447 258 m -2 X s 1447 264 m -2 X s 1450 270 m -5 X s 1450 67 m -5 X s 1447 62 m -2 X s 1450 270 m -5 X s 1447 275 m -2 X s 1447 281 m -2 X s 1447 287 m -2 X s
 gsave  408 306 1383 13 C 1390.26 59.8267 t 0 r /Helvetica findfont 22.8295 sf 0 0 m (\2550.03) show NC gr 
 gsave  408 306 1383 13 C 1390.26 88.3156 t 0 r /Helvetica findfont 22.8295 sf 0 0 m (\2550.02) show NC gr 
 gsave  408 306 1383 13 C 1393.11 116.804 t 0 r /Helvetica findfont 22.8295 sf 0 0 m (\2550.01) show NC gr 
 gsave  408 306 1383 13 C 1427.29 148.142 t 0 r /Helvetica findfont 22.8295 sf 0 0 m (0) show NC gr 
 gsave  408 306 1383 13 C 1398.81 176.631 t 0 r /Helvetica findfont 22.8295 sf 0 0 m (0.01) show NC gr 
 gsave  408 306 1383 13 C 1395.96 205.12 t 0 r /Helvetica findfont 22.8295 sf 0 0 m (0.02) show NC gr 
 gsave  408 306 1383 13 C 1395.96 233.609 t 0 r /Helvetica findfont 22.8295 sf 0 0 m (0.03) show NC gr 
 gsave  408 306 1383 13 C 1395.96 262.098 t 0 r /Helvetica findfont 22.8295 sf 0 0 m (0.04) show NC gr  1751 59 m 229 Y s 1745 67 m 6 X s 1748 73 m 3 X s 1748 79 m 3 X s 1748 85 m 3 X s 1748 91 m 3 X s 1745 96 m 6 X s 1748 102 m 3 X s 1748 108 m 3 X
 s 1748 114 m 3 X s 1748 119 m 3 X s 1745 125 m 6 X s 1748 131 m 3 X s 1748 137 m 3 X s 1748 143 m 3 X s 1748 148 m 3 X s 1745 154 m 6 X s 1748 160 m 3 X s 1748 166 m 3 X s 1748 171 m 3 X s 1748 177 m 3 X s 1745 183 m 6 X s 1748 189 m 3 X s 1748 195
 m 3 X s 1748 200 m 3 X s 1748 206 m 3 X s 1745 212 m 6 X s 1748 218 m 3 X s 1748 223 m 3 X s 1748 229 m 3 X s 1748 235 m 3 X s 1745 241 m 6 X s 1748 247 m 3 X s 1748 252 m 3 X s 1748 258 m 3 X s 1748 264 m 3 X s 1745 270 m 6 X s 1745 67 m 6 X s 1748
 62 m 3 X s 1745 270 m 6 X s 1748 275 m 3 X s 1748 281 m 3 X s 1748 287 m 3 X s 1470 165 1473 186 1478 210 1531 196 1723 135 5 { m21} R 1470 176 m 46 Y s 1464 222 m 12 X s 1470 153 m -46 Y s 1464 107 m 12 X s 1473 197 m 47 Y s 1467 244 m 11 X s 1473
 174 m -47 Y s 1467 127 m 11 X s 1478 222 m 47 Y s 1472 269 m 12 X s 1478 199 m -48 Y s 1472 151 m 12 X s 1531 207 m 47 Y s 1525 254 m 12 X s 1531 184 m -47 Y s 1525 137 m 12 X s 1723 146 m 46 Y s 1717 192 m 12 X s 1723 124 m -46 Y s 1717 78 m 12 X s
 1 0 0 c 9 lw 0.95 0.95 0.95 c black 1 0 0 c 1446 154 m 70 X 4 -1 d 27 X 3 -1 d 19 X 3 -1 d 15 X 3 -1 d 6 X s 1596 150 m 6 X 3 -1 d 9 X 4 -1 d 12 X 3 -1 d 6 X 3 -1 d 9 X 3 -1 d 6 X 3 -1 d 10 X 3 -1 d 6 X 3 -1 d 6 X 3 -1 d 6 X 3 -1 d 3 X 3 -1 d 6 X 4
 -1 d 3 X 3 -1 d 6 X 3 -1 d 3 X 3 -1 d 6 X s 1746 135 m 3 -1 d s 0.49 0.6 0.82 c black 0.49 0.6 0.82 c
 gsave  408 306 1383 13 C 1504.21 296.285 t 0 r /Helvetica-Bold findfont 25.6831 sf 0 0 m (9.0 < E < 9.5 GeV) show NC gr  0.52 0.76 0.64 c black 0.52 0.76 0.64 c
 gsave  408 306 1383 13 C 1484.27 259.249 t 0 r /Helvetica-Bold findfont 25.6831 sf 0 0 m 
 228 214 200 193 178 171 156 149 133 126 119 105 91 77 69 55 47 39 25 17
(A = \2550.000, p = 2.000) K NC gr  1 0.6 1 c black 1 0.6 1 c
 gsave  408 306 1383 13 C 1789.1 128.2 t 90 r /Helvetica-Bold findfont 28.5368 sf 0 0 m (/dof=0.4) show NC gr  black 1 0.6 1 c
 gsave  408 306 1383 13 C 1777.71 116.804 t 90 r /Helvetica-Bold findfont 19.9758 sf 0 0 m (2) show NC gr  black 1 0.6 1 c
 gsave  408 306 1383 13 C 1789.1 99.7112 t 90 r /Symbol findfont 28.5368 sf 0 0 m (c) show NC gr  black 3 lw 1 1 1 c 408 306 1837 13 bf black 1 1 1 c black 306 229 1898 59 bl 306 229 1898 59 bl 1898 59 m 306 X s 1921 63 m -4 Y s 2049 63 m -4 Y s 2176
 63 m -4 Y s 1921 63 m -4 Y s 2176 63 m -4 Y s
 gsave  408 306 1837 13 C 1911.61 39.8845 t 0 r /Helvetica findfont 22.8295 sf 0 0 m (0) show NC gr 
 gsave  408 306 1837 13 C 2022.71 39.8845 t 0 r /Helvetica findfont 22.8295 sf 0 0 m (1000) show NC gr 
 gsave  408 306 1837 13 C 2148.06 39.8845 t 0 r /Helvetica findfont 22.8295 sf 0 0 m (2000) show NC gr  1898 288 m 306 X s 1921 284 m 4 Y s 2049 284 m 4 Y s 2176 284 m 4 Y s 1921 284 m 4 Y s 2176 284 m 4 Y s 1898 59 m 229 Y s 1904 62 m -6 X s 1901 69
 m -3 X s 1901 75 m -3 X s 1901 82 m -3 X s 1901 88 m -3 X s 1904 95 m -6 X s 1901 101 m -3 X s 1901 108 m -3 X s 1901 115 m -3 X s 1901 121 m -3 X s 1904 128 m -6 X s 1901 134 m -3 X s 1901 141 m -3 X s 1901 147 m -3 X s 1901 154 m -3 X s 1904 160 m
 -6 X s 1901 167 m -3 X s 1901 173 m -3 X s 1901 180 m -3 X s 1901 186 m -3 X s 1904 193 m -6 X s 1901 199 m -3 X s 1901 206 m -3 X s 1901 212 m -3 X s 1901 219 m -3 X s 1904 225 m -6 X s 1901 232 m -3 X s 1901 238 m -3 X s 1901 245 m -3 X s 1901 251
 m -3 X s 1904 258 m -6 X s 1904 62 m -6 X s 1904 258 m -6 X s 1901 264 m -3 X s 1901 271 m -3 X s 1901 277 m -3 X s 1901 284 m -3 X s
 gsave  408 306 1837 13 C 1843.23 54.1289 t 0 r /Helvetica findfont 22.8295 sf 0 0 m (\2550.04) show NC gr 
 gsave  408 306 1837 13 C 1843.23 88.3156 t 0 r /Helvetica findfont 22.8295 sf 0 0 m (\2550.03) show NC gr 
 gsave  408 306 1837 13 C 1843.23 119.653 t 0 r /Helvetica findfont 22.8295 sf 0 0 m (\2550.02) show NC gr 
 gsave  408 306 1837 13 C 1846.08 153.84 t 0 r /Helvetica findfont 22.8295 sf 0 0 m (\2550.01) show NC gr 
 gsave  408 306 1837 13 C 1880.27 185.178 t 0 r /Helvetica findfont 22.8295 sf 0 0 m (0) show NC gr 
 gsave  408 306 1837 13 C 1851.78 216.516 t 0 r /Helvetica findfont 22.8295 sf 0 0 m (0.01) show NC gr 
 gsave  408 306 1837 13 C 1848.93 250.702 t 0 r /Helvetica findfont 22.8295 sf 0 0 m (0.02) show NC gr  2204 59 m 229 Y s 2199 62 m 5 X s 2201 69 m 3 X s 2201 75 m 3 X s 2201 82 m 3 X s 2201 88 m 3 X s 2199 95 m 5 X s 2201 101 m 3 X s 2201 108 m 3 X
 s 2201 115 m 3 X s 2201 121 m 3 X s 2199 128 m 5 X s 2201 134 m 3 X s 2201 141 m 3 X s 2201 147 m 3 X s 2201 154 m 3 X s 2199 160 m 5 X s 2201 167 m 3 X s 2201 173 m 3 X s 2201 180 m 3 X s 2201 186 m 3 X s 2199 193 m 5 X s 2201 199 m 3 X s 2201 206
 m 3 X s 2201 212 m 3 X s 2201 219 m 3 X s 2199 225 m 5 X s 2201 232 m 3 X s 2201 238 m 3 X s 2201 245 m 3 X s 2201 251 m 3 X s 2199 258 m 5 X s 2199 62 m 5 X s 2199 258 m 5 X s 2201 264 m 3 X s 2201 271 m 3 X s 2201 277 m 3 X s 2201 284 m 3 X s 1923
 192 1926 199 1931 199 1985 180 2176 146 5 { m21} R 1923 203 m 58 Y s 1918 261 m 11 X s 1923 181 m -58 Y s 1918 123 m 11 X s 1926 211 m 58 Y s 1920 269 m 12 X s 1926 188 m -58 Y s 1920 130 m 12 X s 1931 210 m 59 Y s 1926 269 m 11 X s 1931 188 m -58 Y
 s 1926 130 m 11 X s 1985 191 m 58 Y s 1979 249 m 11 X s 1985 169 m -58 Y s 1979 111 m 11 X s 2176 157 m 57 Y s 2171 214 m 11 X s 2176 135 m -57 Y s 2171 78 m 11 X s 9 lw 0.95 0.95 0.95 c black 1900 196 m 3 X 3 -1 d 3 X 3 -1 d 3 X 3 -1 d 3 -1 d 3 X 3
 -1 d 3 X 3 -1 d 3 X 3 -1 d 3 X 4 -1 d 3 -1 d 3 X 3 -1 d 3 X 3 -1 d 3 X 3 -1 d 3 X 3 -1 d 3 -1 d 3 X 3 -1 d 3 X 3 -1 d 3 X 4 -1 d 3 X 3 -1 d 3 X 3 -1 d 3 -1 d 3 X 3 -1 d 3 X 3 -1 d 3 X 3 -1 d 3 X 3 -1 d 3 -1 d 3 X 3 -1 d 4 X 3 -1 d s 2050 169 m 3 X 3
 -1 d 3 X 3 -1 d 3 -1 d 3 X 3 -1 d 3 X 3 -1 d 3 X 3 -1 d 3 X 3 -1 d 3 -1 d 4 X 3 -1 d 3 X 3 -1 d 3 X 3 -1 d 3 X 3 -1 d 3 -1 d 3 X 3 -1 d 3 X 3 -1 d 3 X 3 -1 d 3 X 4 -1 d 3 -1 d 3 X 3 -1 d 3 X 3 -1 d 3 X 3 -1 d 3 X 3 -1 d 3 -1 d 3 X 3 -1 d 3 X 3 -1 d
 3 X 4 -1 d 3 X 3 -1 d s 2200 142 m 3 -1 d s 0.49 0.6 0.82 c black 0.49 0.6 0.82 c
 gsave  408 306 1837 13 C 1948.64 296.285 t 0 r /Helvetica-Bold findfont 25.6831 sf 0 0 m (9.5 < E < 10.0 GeV) show NC gr  0.52 0.76 0.64 c black 0.52 0.76 0.64 c
 gsave  408 306 1837 13 C 1937.25 259.249 t 0 r /Helvetica-Bold findfont 25.6831 sf 0 0 m 
 228 214 200 193 178 171 156 149 134 126 119 105 91 77 69 55 47 40 25 17
(A = \2550.000, p = 1.000) K NC gr  1 0.6 1 c black 1 0.6 1 c
 gsave  408 306 1837 13 C 2242.08 128.2 t 90 r /Helvetica-Bold findfont 28.5368 sf 0 0 m (/dof=0.0) show NC gr  black 1 0.6 1 c
 gsave  408 306 1837 13 C 2230.68 116.804 t 90 r /Helvetica-Bold findfont 19.9758 sf 0 0 m (2) show NC gr  black 1 0.6 1 c
 gsave  408 306 1837 13 C 2242.08 99.7112 t 90 r /Symbol findfont 28.5368 sf 0 0 m (c) show NC gr 
 gr  gr showpage
end
%%EOF
