%!PS-Adobe-2.0 EPSF-2.0
%%BoundingBox:  0 0 567 332
%%Title: LBNEFDY_near_summary.eps: Summary
%%Creator: ROOT Version 5.30/06
%%CreationDate: Sun Feb  2 09:39:11 2014
%%EndComments
%%BeginProlog
80 dict begin
/s {stroke} def /l {lineto} def /m {moveto} def /t {translate} def
/r {rotate} def /rl {roll}  def /R {repeat} def
/d {rlineto} def /rm {rmoveto} def /gr {grestore} def /f {eofill} def
/c {setrgbcolor} def /black {0 setgray} def /sd {setdash} def
/cl {closepath} def /sf {scalefont setfont} def /lw {setlinewidth} def
/box {m dup 0 exch d exch 0 d 0 exch neg d cl} def
/NC{systemdict begin initclip end}def/C{NC box clip newpath}def
/bl {box s} def /bf {box f} def /Y { 0 exch d} def /X { 0 d} def 
/K {{pop pop 0 moveto} exch kshow} bind def
/ita {/ang 15 def gsave [1 0 ang dup sin exch cos div 1 0 0] concat} def 
/mp {newpath /y exch def /x exch def} def
/side {[w .77 mul w .23 mul] .385 w mul sd w 0 l currentpoint t -144 r} def
/mr {mp x y w2 0 360 arc} def /m24 {mr s} def /m20 {mr f} def
/mb {mp x y w2 add m w2 neg 0 d 0 w neg d w 0 d 0 w d cl} def
/mt {mp x y w2 add m w2 neg w neg d w 0 d cl} def
/m21 {mb f} def /m25 {mb s} def /m22 {mt f} def /m26{mt s} def
/m23 {mp x y w2 sub m w2 w d w neg 0 d cl f} def
/m27 {mp x y w2 add m w3 neg w2 neg d w3 w2 neg d w3 w2 d cl s} def
/m28 {mp x w2 sub y w2 sub w3 add m w3 0 d  0 w3 neg d w3 0 d 0 w3 d w3 0 d  0 w3 d w3 neg 0 d 0 w3 d w3 neg 0 d 0 w3 neg d w3 neg 0 d cl s } def
/m29 {mp gsave x w2 sub y w2 add w3 sub m currentpoint t 4 {side} repeat cl fill gr} def
/m30 {mp gsave x w2 sub y w2 add w3 sub m currentpoint t 4 {side} repeat cl s gr} def
/m31 {mp x y w2 sub m 0 w d x w2 sub y m w 0 d x w2 sub y w2 add m w w neg d x w2 sub y w2 sub m w w d s} def
/m32 {mp x y w2 sub m w2 w d w neg 0 d cl s} def
/m33 {mp x y w2 add m w3 neg w2 neg d w3 w2 neg d w3 w2 d cl f} def
/m34 {mp x w2 sub y w2 sub w3 add m w3 0 d  0 w3 neg d w3 0 d 0 w3 d w3 0 d  0 w3 d w3 neg 0 d 0 w3 d w3 neg 0 d 0 w3 neg d w3 neg 0 d cl f } def
/m2 {mp x y w2 sub m 0 w d x w2 sub y m w 0 d s} def
/m5 {mp x w2 sub y w2 sub m w w d x w2 sub y w2 add m w w neg d s} def
/reEncode {exch findfont dup length dict begin {1 index /FID eq  {pop pop} {def} ifelse } forall /Encoding exch def currentdict end dup /FontName get exch definefont pop } def [/Times-Bold /Times-Italic /Times-BoldItalic /Helvetica /Helvetica-Oblique
 /Helvetica-Bold /Helvetica-BoldOblique /Courier /Courier-Oblique /Courier-Bold /Courier-BoldOblique /Times-Roman /AvantGarde-Book /AvantGarde-BookOblique /AvantGarde-Demi /AvantGarde-DemiOblique /Bookman-Demi /Bookman-DemiItalic /Bookman-Light
 /Bookman-LightItalic /Helvetica-Narrow /Helvetica-Narrow-Bold /Helvetica-Narrow-BoldOblique /Helvetica-Narrow-Oblique /NewCenturySchlbk-Roman /NewCenturySchlbk-Bold /NewCenturySchlbk-BoldItalic /NewCenturySchlbk-Italic /Palatino-Bold
 /Palatino-BoldItalic /Palatino-Italic /Palatino-Roman ] {ISOLatin1Encoding reEncode } forall%%EndProlog
%%BeginSetup
%%EndSetup
newpath  gsave  .25 .25 scale  gsave  0 0 t black[  ] 0 sd 3 lw 1 1 1 c 2268 1328 0 0 bf black 1 1 1 c black 1588 996 340 199 bl 1588 996 340 199 bl 1 1 1 c 1 0 0 c /w 23 def /w2 {w 2 div} def /w3 {w 3 div} def 380 290 m21 459 290 m21 539 290 m21 618
 290 m21 697 290 m21 777 290 m21 856 290 m21 935 290 m21 1015 290 m21 1094 290 m21 1174 290 m21 1253 290 m21 1332 290 m21 black 1412 277 m 1 Y s 1412 301 m 1 Y s 1406 277 m 11 X s 1406 302 m 11 X s 1 0 0 c 1412 290 m21 black 1491 276 m 2 Y s 1491 301
 m 2 Y s 1485 276 m 12 X s 1485 303 m 12 X s 1 0 0 c 1491 290 m21 black 1570 275 m 3 Y s 1570 301 m 3 Y s 1565 275 m 11 X s 1565 304 m 11 X s 1 0 0 c 1570 290 m21 black 1650 274 m 4 Y s 1650 301 m 5 Y s 1644 274 m 11 X s 1644 306 m 11 X s 1 0 0 c
 1650 290 m21 black 1729 273 m 5 Y s 1729 301 m 5 Y s 1723 273 m 12 X s 1723 306 m 12 X s 1 0 0 c 1729 290 m21 black 1809 272 m 6 Y s 1809 301 m 6 Y s 1803 272 m 11 X s 1803 307 m 11 X s 1 0 0 c 1809 290 m21 black 1888 271 m 7 Y s 1888 301 m 7 Y s
 1882 271 m 12 X s 1882 308 m 12 X s 1 0 0 c 1888 290 m21 black 340 199 m 1588 X s
 gsave  2268 1328 0 0 C 954.378 68.3734 t 0 r /Helvetica findfont 62.6756 sf 0 0 m ( Energy \(GeV\) ) show NC gr 
 gsave  2268 1328 0 0 C 928.738 51.28 t 0 r /Symbol findfont 42.7334 sf 0 0 m (m) show NC gr 
 gsave  2268 1328 0 0 C 894.552 68.3734 t 0 r /Symbol findfont 62.6756 sf 0 0 m (n) show NC gr  340 216 m -17 Y s 372 208 m -9 Y s 404 208 m -9 Y s 435 208 m -9 Y s 467 208 m -9 Y s 499 216 m -17 Y s 531 208 m -9 Y s 562 208 m -9 Y s 594 208 m -9 Y s
 626 208 m -9 Y s 658 216 m -17 Y s 689 208 m -9 Y s 721 208 m -9 Y s 753 208 m -9 Y s 785 208 m -9 Y s 816 216 m -17 Y s 848 208 m -9 Y s 880 208 m -9 Y s 912 208 m -9 Y s 943 208 m -9 Y s 975 216 m -17 Y s 1007 208 m -9 Y s 1039 208 m -9 Y s 1070
 208 m -9 Y s 1102 208 m -9 Y s 1134 216 m -17 Y s 1166 208 m -9 Y s 1197 208 m -9 Y s 1229 208 m -9 Y s 1261 208 m -9 Y s 1293 216 m -17 Y s 1324 208 m -9 Y s 1356 208 m -9 Y s 1388 208 m -9 Y s 1420 208 m -9 Y s 1451 216 m -17 Y s 1483 208 m -9 Y s
 1515 208 m -9 Y s 1547 208 m -9 Y s 1578 208 m -9 Y s 1610 216 m -17 Y s 1642 208 m -9 Y s 1674 208 m -9 Y s 1705 208 m -9 Y s 1737 208 m -9 Y s 1769 216 m -17 Y s 1801 208 m -9 Y s 1832 208 m -9 Y s 1864 208 m -9 Y s 1896 208 m -9 Y s 1928 216 m
 -17 Y s
 gsave  2268 1328 0 0 C 319.076 136.747 t 0 r /Helvetica findfont 68.3734 sf 0 0 m (0) show NC gr 
 gsave  2268 1328 0 0 C 484.311 136.747 t 0 r /Helvetica findfont 68.3734 sf 0 0 m (1) show NC gr 
 gsave  2268 1328 0 0 C 635.302 136.747 t 0 r /Helvetica findfont 68.3734 sf 0 0 m (2) show NC gr 
 gsave  2268 1328 0 0 C 794.84 136.747 t 0 r /Helvetica findfont 68.3734 sf 0 0 m (3) show NC gr 
 gsave  2268 1328 0 0 C 954.378 136.747 t 0 r /Helvetica findfont 68.3734 sf 0 0 m (4) show NC gr 
 gsave  2268 1328 0 0 C 1113.92 136.747 t 0 r /Helvetica findfont 68.3734 sf 0 0 m (5) show NC gr 
 gsave  2268 1328 0 0 C 1270.6 136.747 t 0 r /Helvetica findfont 68.3734 sf 0 0 m (6) show NC gr 
 gsave  2268 1328 0 0 C 1430.14 136.747 t 0 r /Helvetica findfont 68.3734 sf 0 0 m (7) show NC gr 
 gsave  2268 1328 0 0 C 1589.68 136.747 t 0 r /Helvetica findfont 68.3734 sf 0 0 m (8) show NC gr 
 gsave  2268 1328 0 0 C 1746.37 136.747 t 0 r /Helvetica findfont 68.3734 sf 0 0 m (9) show NC gr 
 gsave  2268 1328 0 0 C 1888.81 136.747 t 0 r /Helvetica findfont 68.3734 sf 0 0 m (10) show NC gr  340 1195 m 1588 X s 340 1178 m 17 Y s 372 1186 m 9 Y s 404 1186 m 9 Y s 435 1186 m 9 Y s 467 1186 m 9 Y s 499 1178 m 17 Y s 531 1186 m 9 Y s 562 1186
 m 9 Y s 594 1186 m 9 Y s 626 1186 m 9 Y s 658 1178 m 17 Y s 689 1186 m 9 Y s 721 1186 m 9 Y s 753 1186 m 9 Y s 785 1186 m 9 Y s 816 1178 m 17 Y s 848 1186 m 9 Y s 880 1186 m 9 Y s 912 1186 m 9 Y s 943 1186 m 9 Y s 975 1178 m 17 Y s 1007 1186 m 9 Y s
 1039 1186 m 9 Y s 1070 1186 m 9 Y s 1102 1186 m 9 Y s 1134 1178 m 17 Y s 1166 1186 m 9 Y s 1197 1186 m 9 Y s 1229 1186 m 9 Y s 1261 1186 m 9 Y s 1293 1178 m 17 Y s 1324 1186 m 9 Y s 1356 1186 m 9 Y s 1388 1186 m 9 Y s 1420 1186 m 9 Y s 1451 1178 m
 17 Y s 1483 1186 m 9 Y s 1515 1186 m 9 Y s 1547 1186 m 9 Y s 1578 1186 m 9 Y s 1610 1178 m 17 Y s 1642 1186 m 9 Y s 1674 1186 m 9 Y s 1705 1186 m 9 Y s 1737 1186 m 9 Y s 1769 1178 m 17 Y s 1801 1186 m 9 Y s 1832 1186 m 9 Y s 1864 1186 m 9 Y s 1896
 1186 m 9 Y s 1928 1178 m 17 Y s 340 199 m 996 Y s
 gsave  2268 1328 0 0 C 170.933 324.773 t 90 r /Helvetica findfont 62.6756 sf 0 0 m (Near Flux Ratio to Nominal) show NC gr  371 290 m -31 X s 355 326 m -15 X s 355 362 m -15 X s 355 398 m -15 X s 355 434 m -15 X s 371 471 m -31 X s 355 507 m -15 X s
 355 543 m -15 X s 355 579 m -15 X s 355 616 m -15 X s 371 652 m -31 X s 355 688 m -15 X s 355 724 m -15 X s 355 760 m -15 X s 355 797 m -15 X s 371 833 m -31 X s 355 869 m -15 X s 355 905 m -15 X s 355 941 m -15 X s 355 978 m -15 X s 371 1014 m -31
 X s 355 1050 m -15 X s 355 1086 m -15 X s 355 1122 m -15 X s 355 1159 m -15 X s 371 1195 m -31 X s 371 290 m -31 X s 355 253 m -15 X s 355 217 m -15 X s
 gsave  2268 1328 0 0 C 301.982 262.098 t 0 r /Helvetica findfont 68.3734 sf 0 0 m (1) show NC gr 
 gsave  2268 1328 0 0 C 245.005 444.427 t 0 r /Helvetica findfont 68.3734 sf 0 0 m (1.1) show NC gr 
 gsave  2268 1328 0 0 C 233.609 623.907 t 0 r /Helvetica findfont 68.3734 sf 0 0 m (1.2) show NC gr 
 gsave  2268 1328 0 0 C 233.609 809.085 t 0 r /Helvetica findfont 68.3734 sf 0 0 m (1.3) show NC gr 
 gsave  2268 1328 0 0 C 233.609 985.716 t 0 r /Helvetica findfont 68.3734 sf 0 0 m (1.4) show NC gr 
 gsave  2268 1328 0 0 C 233.609 1170.89 t 0 r /Helvetica findfont 68.3734 sf 0 0 m (1.5) show NC gr  1928 199 m 996 Y s 1897 290 m 31 X s 1912 326 m 16 X s 1912 362 m 16 X s 1912 398 m 16 X s 1912 434 m 16 X s 1897 471 m 31 X s 1912 507 m 16 X s 1912
 543 m 16 X s 1912 579 m 16 X s 1912 616 m 16 X s 1897 652 m 31 X s 1912 688 m 16 X s 1912 724 m 16 X s 1912 760 m 16 X s 1912 797 m 16 X s 1897 833 m 31 X s 1912 869 m 16 X s 1912 905 m 16 X s 1912 941 m 16 X s 1912 978 m 16 X s 1897 1014 m 31 X s
 1912 1050 m 16 X s 1912 1086 m 16 X s 1912 1122 m 16 X s 1912 1159 m 16 X s 1897 1195 m 31 X s 1897 290 m 31 X s 1912 253 m 16 X s 1912 217 m 16 X s 1 0 0 c 6 lw 1 1 1 c 1 0 0 c 380 290 m 1508 X s 3 lw /w 2 def /w2 {w 2 div} def /w3 {w 3 div} def
 380 290 459 290 539 290 618 290 697 290 777 290 856 290 935 290 1015 290 1094 290 1174 290 1253 290 1332 290 1412 290 1491 290 1570 290 1650 290 1729 290 1809 290 1888 290 20 { m20} R 6 lw black 1 0 0 c
 gsave  2268 1328 0 0 C 2036.96 316.227 t 0 r /Helvetica-Bold findfont 48.4311 sf 0 0 m (/dof=0.0) show NC gr  black 1 0 0 c
 gsave  2268 1328 0 0 C 2017.01 333.32 t 0 r /Helvetica-Bold findfont 34.1867 sf 0 0 m (2) show NC gr  black 1 0 0 c
 gsave  2268 1328 0 0 C 1991.37 316.227 t 0 r /Symbol findfont 48.4311 sf 0 0 m (c) show NC gr  black 3 lw 340 290 m 1588 X s
 gsave  2268 1328 0 0 C 333.32 1213.63 t 0 r /Helvetica-Bold findfont 39.8845 sf 0 0 m (21 m) show NC gr  1 0 0 c /w 23 def /w2 {w 2 div} def /w3 {w 3 div} def 292 1228 m21 black 1 1 1 c 0 0 1 c 380 471 m21 459 471 m21 539 471 m21 618 471 m21 697 471
 m21 777 471 m21 856 471 m21 935 471 m21 1015 471 m21 1094 471 m21 1174 471 m21 1253 471 m21 black 1332 458 m 1 Y s 1332 482 m 1 Y s 1327 458 m 11 X s 1327 483 m 11 X s 0 0 1 c 1332 471 m21 black 1412 457 m 2 Y s 1412 482 m 3 Y s 1406 457 m 11 X s
 1406 485 m 11 X s 0 0 1 c 1412 471 m21 black 1491 456 m 3 Y s 1491 482 m 4 Y s 1485 456 m 12 X s 1485 486 m 12 X s 0 0 1 c 1491 471 m21 black 1570 454 m 5 Y s 1570 482 m 5 Y s 1565 454 m 11 X s 1565 487 m 11 X s 0 0 1 c 1570 471 m21 black 1650 453 m
 6 Y s 1650 482 m 6 Y s 1644 453 m 11 X s 1644 488 m 11 X s 0 0 1 c 1650 471 m21 black 1729 452 m 7 Y s 1729 482 m 7 Y s 1723 452 m 12 X s 1723 489 m 12 X s 0 0 1 c 1729 471 m21 black 1809 451 m 8 Y s 1809 482 m 8 Y s 1803 451 m 11 X s 1803 490 m 11
 X s 0 0 1 c 1809 471 m21 black 1888 450 m 9 Y s 1888 482 m 9 Y s 1882 450 m 12 X s 1882 491 m 12 X s 0 0 1 c 1888 471 m21 6 lw 1 1 1 c 0 0 1 c 380 471 m 1508 X s 3 lw /w 2 def /w2 {w 2 div} def /w3 {w 3 div} def 380 471 459 471 539 471 618 471 697
 471 777 471 856 471 935 471 1015 471 1094 471 1174 471 1253 471 1332 471 1412 471 1491 471 1570 471 1650 471 1729 471 1809 471 1888 471 20 { m20} R 6 lw black 0 0 1 c
 gsave  2268 1328 0 0 C 2036.96 515.649 t 0 r /Helvetica-Bold findfont 48.4311 sf 0 0 m (/dof=0.0) show NC gr  black 0 0 1 c
 gsave  2268 1328 0 0 C 2017.01 532.742 t 0 r /Helvetica-Bold findfont 34.1867 sf 0 0 m (2) show NC gr  black 0 0 1 c
 gsave  2268 1328 0 0 C 1991.37 515.649 t 0 r /Symbol findfont 48.4311 sf 0 0 m (c) show NC gr  black 3 lw 340 471 m 1588 X s
 gsave  2268 1328 0 0 C 695.129 1213.63 t 0 r /Helvetica-Bold findfont 39.8845 sf 0 0 m (42 m) show NC gr  0 0 1 c /w 23 def /w2 {w 2 div} def /w3 {w 3 div} def 655 1228 m21 black 1 1 1 c 1 0 1 c 380 652 m21 459 652 m21 539 652 m21 618 652 m21 697
 652 m21 777 652 m21 856 652 m21 935 652 m21 1015 652 m21 1094 652 m21 1174 652 m21 1253 652 m21 black 1332 638 m 2 Y s 1332 663 m 2 Y s 1327 638 m 11 X s 1327 665 m 11 X s 1 0 1 c 1332 652 m21 black 1412 637 m 3 Y s 1412 663 m 4 Y s 1406 637 m 11 X
 s 1406 667 m 11 X s 1 0 1 c 1412 652 m21 black 1491 635 m 5 Y s 1491 663 m 5 Y s 1485 635 m 12 X s 1485 668 m 12 X s 1 0 1 c 1491 652 m21 black 1570 634 m 6 Y s 1570 663 m 7 Y s 1565 634 m 11 X s 1565 670 m 11 X s 1 0 1 c 1570 652 m21 black 1650 633
 m 7 Y s 1650 663 m 8 Y s 1644 633 m 11 X s 1644 671 m 11 X s 1 0 1 c 1650 652 m21 black 1729 632 m 8 Y s 1729 663 m 9 Y s 1723 632 m 12 X s 1723 672 m 12 X s 1 0 1 c 1729 652 m21 black 1809 630 m 10 Y s 1809 663 m 10 Y s 1803 630 m 11 X s 1803 673 m
 11 X s 1 0 1 c 1809 652 m21 black 1888 629 m 11 Y s 1888 663 m 11 Y s 1882 629 m 12 X s 1882 674 m 12 X s 1 0 1 c 1888 652 m21 6 lw 1 1 1 c 1 0 1 c 380 652 m 1508 X s 3 lw /w 2 def /w2 {w 2 div} def /w3 {w 3 div} def 380 652 459 652 539 652 618 652
 697 652 777 652 856 652 935 652 1015 652 1094 652 1174 652 1253 652 1332 652 1412 652 1491 652 1570 652 1650 652 1729 652 1809 652 1888 652 20 { m20} R 6 lw black 1 0 1 c
 gsave  2268 1328 0 0 C 2036.96 715.071 t 0 r /Helvetica-Bold findfont 48.4311 sf 0 0 m (/dof=0.0) show NC gr  black 1 0 1 c
 gsave  2268 1328 0 0 C 2017.01 732.165 t 0 r /Helvetica-Bold findfont 34.1867 sf 0 0 m (2) show NC gr  black 1 0 1 c
 gsave  2268 1328 0 0 C 1991.37 715.071 t 0 r /Symbol findfont 48.4311 sf 0 0 m (c) show NC gr  black 3 lw 340 652 m 1588 X s
 gsave  2268 1328 0 0 C 1059.79 1213.63 t 0 r /Helvetica-Bold findfont 42.7334 sf 0 0 m (84 m) show NC gr  1 0 1 c /w 23 def /w2 {w 2 div} def /w3 {w 3 div} def 1018 1228 m21 black 1 1 1 c 0 0.733333 1 c 380 833 m21 459 833 m21 539 833 m21 618 833
 m21 697 833 m21 777 833 m21 856 833 m21 935 833 m21 1015 833 m21 1094 833 m21 1174 833 m21 black 1253 820 m 1 Y s 1253 844 m 1 Y s 1247 820 m 12 X s 1247 845 m 12 X s 0 0.733333 1 c 1253 833 m21 black 1332 818 m 3 Y s 1332 844 m 3 Y s 1327 818 m 11
 X s 1327 847 m 11 X s 0 0.733333 1 c 1332 833 m21 black 1412 816 m 5 Y s 1412 844 m 5 Y s 1406 816 m 11 X s 1406 849 m 11 X s 0 0.733333 1 c 1412 833 m21 black 1491 815 m 6 Y s 1491 844 m 7 Y s 1485 815 m 12 X s 1485 851 m 12 X s 0 0.733333 1 c 1491
 833 m21 black 1570 813 m 8 Y s 1570 844 m 8 Y s 1565 813 m 11 X s 1565 852 m 11 X s 0 0.733333 1 c 1570 833 m21 black 1650 812 m 9 Y s 1650 844 m 9 Y s 1644 812 m 11 X s 1644 853 m 11 X s 0 0.733333 1 c 1650 833 m21 black 1729 811 m 10 Y s 1729 844
 m 11 Y s 1723 811 m 12 X s 1723 855 m 12 X s 0 0.733333 1 c 1729 833 m21 black 1809 810 m 11 Y s 1809 844 m 12 Y s 1803 810 m 11 X s 1803 856 m 11 X s 0 0.733333 1 c 1809 833 m21 black 1888 808 m 13 Y s 1888 844 m 13 Y s 1882 808 m 12 X s 1882 857 m
 12 X s 0 0.733333 1 c 1888 833 m21 6 lw 1 1 1 c 0 0.733333 1 c 380 833 m 1508 X s 3 lw /w 2 def /w2 {w 2 div} def /w3 {w 3 div} def 380 833 459 833 539 833 618 833 697 833 777 833 856 833 935 833 1015 833 1094 833 1174 833 1253 833 1332 833 1412 833
 1491 833 1570 833 1650 833 1729 833 1809 833 1888 833 20 { m20} R 6 lw black 0 0.733333 1 c
 gsave  2268 1328 0 0 C 2036.96 914.494 t 0 r /Helvetica-Bold findfont 48.4311 sf 0 0 m (/dof=0.0) show NC gr  black 0 0.733333 1 c
 gsave  2268 1328 0 0 C 2017.01 931.587 t 0 r /Helvetica-Bold findfont 34.1867 sf 0 0 m (2) show NC gr  black 0 0.733333 1 c
 gsave  2268 1328 0 0 C 1991.37 914.494 t 0 r /Symbol findfont 48.4311 sf 0 0 m (c) show NC gr  black 3 lw 340 833 m 1588 X s
 gsave  2268 1328 0 0 C 1421.6 1213.63 t 0 r /Helvetica-Bold findfont 42.7334 sf 0 0 m (500 m) show NC gr  0 0.733333 1 c /w 23 def /w2 {w 2 div} def /w3 {w 3 div} def 1380 1228 m21 black 1 1 1 c 0.35 0.83 0.33 c 380 1014 m21 459 1014 m21 539 1014
 m21 618 1014 m21 697 1014 m21 777 1014 m21 856 1014 m21 935 1014 m21 1015 1014 m21 1094 1014 m21 1174 1014 m21 black 1253 1001 m 1 Y s 1253 1025 m 2 Y s 1247 1001 m 12 X s 1247 1027 m 12 X s 0.35 0.83 0.33 c 1253 1014 m21 black 1332 998 m 4 Y s 1332
 1025 m 4 Y s 1327 998 m 11 X s 1327 1029 m 11 X s 0.35 0.83 0.33 c 1332 1014 m21 black 1412 996 m 6 Y s 1412 1025 m 6 Y s 1406 996 m 11 X s 1406 1031 m 11 X s 0.35 0.83 0.33 c 1412 1014 m21 black 1491 995 m 7 Y s 1491 1025 m 8 Y s 1485 995 m 12 X s
 1485 1033 m 12 X s 0.35 0.83 0.33 c 1491 1014 m21 black 1570 993 m 9 Y s 1570 1025 m 10 Y s 1565 993 m 11 X s 1565 1035 m 11 X s 0.35 0.83 0.33 c 1570 1014 m21 black 1650 991 m 11 Y s 1650 1025 m 11 Y s 1644 991 m 11 X s 1644 1036 m 11 X s 0.35 0.83
 0.33 c 1650 1014 m21 black 1729 990 m 12 Y s 1729 1025 m 12 Y s 1723 990 m 12 X s 1723 1037 m 12 X s 0.35 0.83 0.33 c 1729 1014 m21 black 1809 989 m 13 Y s 1809 1025 m 14 Y s 1803 989 m 11 X s 1803 1039 m 11 X s 0.35 0.83 0.33 c 1809 1014 m21 black
 1888 988 m 14 Y s 1888 1025 m 15 Y s 1882 988 m 12 X s 1882 1040 m 12 X s 0.35 0.83 0.33 c 1888 1014 m21 6 lw 1 1 1 c 0.35 0.83 0.33 c 380 1014 m 1508 X s 3 lw /w 2 def /w2 {w 2 div} def /w3 {w 3 div} def 380 1014 459 1014 539 1014 618 1014 697 1014
 777 1014 856 1014 935 1014 1015 1014 1094 1014 1174 1014 1253 1014 1332 1014 1412 1014 1491 1014 1570 1014 1650 1014 1729 1014 1809 1014 1888 1014 20 { m20} R 6 lw black 0.35 0.83 0.33 c
 gsave  2268 1328 0 0 C 2036.96 1113.92 t 0 r /Helvetica-Bold findfont 48.4311 sf 0 0 m (/dof=0.0) show NC gr  black 0.35 0.83 0.33 c
 gsave  2268 1328 0 0 C 2017.01 1131.01 t 0 r /Helvetica-Bold findfont 34.1867 sf 0 0 m (2) show NC gr  black 0.35 0.83 0.33 c
 gsave  2268 1328 0 0 C 1991.37 1113.92 t 0 r /Symbol findfont 48.4311 sf 0 0 m (c) show NC gr  black 3 lw 340 1014 m 1588 X s
 gsave  2268 1328 0 0 C 1783.41 1213.63 t 0 r /Helvetica-Bold findfont 42.7334 sf 0 0 m (2000 m) show NC gr  0.35 0.83 0.33 c /w 23 def /w2 {w 2 div} def /w3 {w 3 div} def 1743 1228 m21
 gr  gr showpage
end
%%EOF
