%!PS-Adobe-2.0 EPSF-2.0
%%BoundingBox:  0 0 567 332
%%Title: NominalWaterLayer__far_fits.eps: Fits
%%Creator: ROOT Version 5.30/06
%%CreationDate: Sun Feb  2 09:37:02 2014
%%EndComments
%%BeginProlog
80 dict begin
/s {stroke} def /l {lineto} def /m {moveto} def /t {translate} def
/r {rotate} def /rl {roll}  def /R {repeat} def
/d {rlineto} def /rm {rmoveto} def /gr {grestore} def /f {eofill} def
/c {setrgbcolor} def /black {0 setgray} def /sd {setdash} def
/cl {closepath} def /sf {scalefont setfont} def /lw {setlinewidth} def
/box {m dup 0 exch d exch 0 d 0 exch neg d cl} def
/NC{systemdict begin initclip end}def/C{NC box clip newpath}def
/bl {box s} def /bf {box f} def /Y { 0 exch d} def /X { 0 d} def 
/K {{pop pop 0 moveto} exch kshow} bind def
/ita {/ang 15 def gsave [1 0 ang dup sin exch cos div 1 0 0] concat} def 
/mp {newpath /y exch def /x exch def} def
/side {[w .77 mul w .23 mul] .385 w mul sd w 0 l currentpoint t -144 r} def
/mr {mp x y w2 0 360 arc} def /m24 {mr s} def /m20 {mr f} def
/mb {mp x y w2 add m w2 neg 0 d 0 w neg d w 0 d 0 w d cl} def
/mt {mp x y w2 add m w2 neg w neg d w 0 d cl} def
/m21 {mb f} def /m25 {mb s} def /m22 {mt f} def /m26{mt s} def
/m23 {mp x y w2 sub m w2 w d w neg 0 d cl f} def
/m27 {mp x y w2 add m w3 neg w2 neg d w3 w2 neg d w3 w2 d cl s} def
/m28 {mp x w2 sub y w2 sub w3 add m w3 0 d  0 w3 neg d w3 0 d 0 w3 d w3 0 d  0 w3 d w3 neg 0 d 0 w3 d w3 neg 0 d 0 w3 neg d w3 neg 0 d cl s } def
/m29 {mp gsave x w2 sub y w2 add w3 sub m currentpoint t 4 {side} repeat cl fill gr} def
/m30 {mp gsave x w2 sub y w2 add w3 sub m currentpoint t 4 {side} repeat cl s gr} def
/m31 {mp x y w2 sub m 0 w d x w2 sub y m w 0 d x w2 sub y w2 add m w w neg d x w2 sub y w2 sub m w w d s} def
/m32 {mp x y w2 sub m w2 w d w neg 0 d cl s} def
/m33 {mp x y w2 add m w3 neg w2 neg d w3 w2 neg d w3 w2 d cl f} def
/m34 {mp x w2 sub y w2 sub w3 add m w3 0 d  0 w3 neg d w3 0 d 0 w3 d w3 0 d  0 w3 d w3 neg 0 d 0 w3 d w3 neg 0 d 0 w3 neg d w3 neg 0 d cl f } def
/m2 {mp x y w2 sub m 0 w d x w2 sub y m w 0 d s} def
/m5 {mp x w2 sub y w2 sub m w w d x w2 sub y w2 add m w w neg d s} def
/reEncode {exch findfont dup length dict begin {1 index /FID eq  {pop pop} {def} ifelse } forall /Encoding exch def currentdict end dup /FontName get exch definefont pop } def [/Times-Bold /Times-Italic /Times-BoldItalic /Helvetica /Helvetica-Oblique
 /Helvetica-Bold /Helvetica-BoldOblique /Courier /Courier-Oblique /Courier-Bold /Courier-BoldOblique /Times-Roman /AvantGarde-Book /AvantGarde-BookOblique /AvantGarde-Demi /AvantGarde-DemiOblique /Bookman-Demi /Bookman-DemiItalic /Bookman-Light
 /Bookman-LightItalic /Helvetica-Narrow /Helvetica-Narrow-Bold /Helvetica-Narrow-BoldOblique /Helvetica-Narrow-Oblique /NewCenturySchlbk-Roman /NewCenturySchlbk-Bold /NewCenturySchlbk-BoldItalic /NewCenturySchlbk-Italic /Palatino-Bold
 /Palatino-BoldItalic /Palatino-Italic /Palatino-Roman ] {ISOLatin1Encoding reEncode } forall%%EndProlog
%%BeginSetup
%%EndSetup
newpath  gsave  .25 .25 scale  gsave  0 0 t black[  ] 0 sd 3 lw 1 1 1 c 2268 1328 0 0 bf black 1 1 1 c 408 305 23 1009 bf black 1 1 1 c black 306 229 84 1055 bl 306 229 84 1055 bl 84 1055 m 306 X s 84 1059 m -4 Y s 179 1059 m -4 Y s 274 1059 m -4 Y s
 369 1059 m -4 Y s 369 1059 m -4 Y s
 gsave  408 305 23 1009 C 74.0711 1034.15 t 0 r /Helvetica findfont 22.8295 sf 0 0 m (0) show NC gr 
 gsave  408 305 23 1009 C 159.538 1034.15 t 0 r /Helvetica findfont 22.8295 sf 0 0 m (0.5) show NC gr 
 gsave  408 305 23 1009 C 267.796 1034.15 t 0 r /Helvetica findfont 22.8295 sf 0 0 m (1) show NC gr 
 gsave  408 305 23 1009 C 350.413 1034.15 t 0 r /Helvetica findfont 22.8295 sf 0 0 m (1.5) show NC gr  84 1284 m 306 X s 84 1280 m 4 Y s 179 1280 m 4 Y s 274 1280 m 4 Y s 369 1280 m 4 Y s 369 1280 m 4 Y s 84 1055 m 229 Y s 89 1089 m -5 X s 87 1098 m
 -3 X s 87 1108 m -3 X s 87 1118 m -3 X s 87 1127 m -3 X s 89 1137 m -5 X s 87 1146 m -3 X s 87 1156 m -3 X s 87 1165 m -3 X s 87 1175 m -3 X s 89 1185 m -5 X s 87 1194 m -3 X s 87 1204 m -3 X s 87 1213 m -3 X s 87 1223 m -3 X s 89 1232 m -5 X s 87
 1242 m -3 X s 87 1251 m -3 X s 87 1261 m -3 X s 87 1271 m -3 X s 89 1280 m -5 X s 89 1089 m -5 X s 87 1079 m -3 X s 87 1070 m -3 X s 87 1060 m -3 X s 89 1280 m -5 X s
 gsave  408 305 23 1009 C 28.4889 1082.58 t 0 r /Helvetica findfont 22.8295 sf 0 0 m (\2550.02) show NC gr 
 gsave  408 305 23 1009 C 14.2445 1131.01 t 0 r /Helvetica findfont 22.8295 sf 0 0 m (\2550.015) show NC gr 
 gsave  408 305 23 1009 C 31.3378 1176.59 t 0 r /Helvetica findfont 22.8295 sf 0 0 m (\2550.01) show NC gr 
 gsave  408 305 23 1009 C 14.2445 1225.02 t 0 r /Helvetica findfont 22.8295 sf 0 0 m (\2550.005) show NC gr 
 gsave  408 305 23 1009 C 65.5245 1273.45 t 0 r /Helvetica findfont 22.8295 sf 0 0 m (0) show NC gr  390 1055 m 229 Y s 385 1089 m 5 X s 387 1098 m 3 X s 387 1108 m 3 X s 387 1118 m 3 X s 387 1127 m 3 X s 385 1137 m 5 X s 387 1146 m 3 X s 387 1156 m
 3 X s 387 1165 m 3 X s 387 1175 m 3 X s 385 1185 m 5 X s 387 1194 m 3 X s 387 1204 m 3 X s 387 1213 m 3 X s 387 1223 m 3 X s 385 1232 m 5 X s 387 1242 m 3 X s 387 1251 m 3 X s 387 1261 m 3 X s 387 1271 m 3 X s 385 1280 m 5 X s 385 1089 m 5 X s 387
 1079 m 3 X s 387 1070 m 3 X s 387 1060 m 3 X s 385 1280 m 5 X s /w 22 def /w2 {w 2 div} def /w3 {w 3 div} def 179 1247 274 1194 369 1091 3 { m21} R 179 1259 m 6 Y s 173 1265 m 12 X s 179 1236 m -6 Y s 173 1230 m 12 X s 274 1206 m 5 Y s 268 1211 m 12
 X s 274 1183 m -6 Y s 268 1177 m 12 X s 369 1102 m 6 Y s 363 1108 m 12 X s 369 1079 m -5 Y s 363 1074 m 12 X s 1 0 0 c 9 lw 0.95 0.95 0.95 c black 1 0 0 c 85 1280 m 16 X 3 -1 d 6 X 3 -1 d 3 X 3 -1 d 3 X 3 -1 d 3 X 3 -1 d 3 -1 d 3 -1 d 4 X 3 -1 d 3
 -1 d 3 -1 d 3 -1 d 3 -1 d 3 -1 d 3 -1 d 3 -1 d 3 -1 d 3 -2 d 3 -1 d 3 -1 d 3 -2 d 3 -1 d 3 -2 d 4 -1 d 3 -2 d 3 -1 d 3 -2 d 3 -1 d 3 -2 d 3 -2 d 3 -2 d 3 -2 d 3 -1 d 3 -2 d 3 -2 d 3 -2 d 3 -2 d 3 -3 d 3 -2 d s 235 1226 m 4 -2 d 3 -2 d 3 -2 d 3 -3 d
 3 -2 d 3 -3 d 3 -2 d 3 -3 d 3 -2 d 3 -3 d 3 -2 d 3 -3 d 3 -3 d 3 -3 d 3 -2 d 3 -3 d 3 -3 d 4 -3 d 3 -3 d 3 -3 d 3 -3 d 3 -3 d 3 -4 d 3 -3 d 3 -3 d 3 -3 d 3 -4 d 3 -3 d 3 -3 d 3 -4 d 3 -3 d 3 -4 d 3 -4 d 4 -3 d 3 -4 d 3 -4 d 3 -4 d 3 -3 d 3 -4 d 3 -4
 d 3 -4 d 3 -4 d 3 -4 d 3 -4 d 3 -4 d 3 -5 d 3 -4 d 3 -4 d 3 -4 d s 385 1067 m 4 -5 d s 0.49 0.6 0.82 c black 0.49 0.6 0.82 c
 gsave  408 305 23 1009 C 142.445 1293.4 t 0 r /Helvetica-Bold findfont 25.6831 sf 0 0 m (0.0 < E < 0.5 GeV) show NC gr  0.52 0.76 0.64 c black 0.52 0.76 0.64 c
 gsave  408 305 23 1009 C 122.502 1256.36 t 0 r /Helvetica-Bold findfont 25.6831 sf 0 0 m 
 228 214 200 193 178 171 156 149 134 126 119 105 91 77 69 55 47 39 25 17
(A = \2550.009, p = 2.000) K NC gr  1 0.6 1 c black 1 0.6 1 c
 gsave  408 305 23 1009 C 427.334 1122.46 t 90 r /Helvetica-Bold findfont 28.5368 sf 0 0 m (/dof=0.2) show NC gr  black 1 0.6 1 c
 gsave  408 305 23 1009 C 415.938 1111.07 t 90 r /Helvetica-Bold findfont 19.9758 sf 0 0 m (2) show NC gr  black 1 0.6 1 c
 gsave  408 305 23 1009 C 427.334 1093.97 t 90 r /Symbol findfont 28.5368 sf 0 0 m (c) show NC gr  black 3 lw 1 1 1 c 408 305 476 1009 bf black 1 1 1 c black 307 229 537 1055 bl 307 229 537 1055 bl 537 1055 m 307 X s 537 1059 m -4 Y s 633 1059 m -4 Y
 s 728 1059 m -4 Y s 823 1059 m -4 Y s 823 1059 m -4 Y s
 gsave  408 305 476 1009 C 527.045 1034.15 t 0 r /Helvetica findfont 22.8295 sf 0 0 m (0) show NC gr 
 gsave  408 305 476 1009 C 615.36 1034.15 t 0 r /Helvetica findfont 22.8295 sf 0 0 m (0.5) show NC gr 
 gsave  408 305 476 1009 C 720.769 1034.15 t 0 r /Helvetica findfont 22.8295 sf 0 0 m (1) show NC gr 
 gsave  408 305 476 1009 C 803.387 1034.15 t 0 r /Helvetica findfont 22.8295 sf 0 0 m (1.5) show NC gr  537 1284 m 307 X s 537 1280 m 4 Y s 633 1280 m 4 Y s 728 1280 m 4 Y s 823 1280 m 4 Y s 823 1280 m 4 Y s 537 1055 m 229 Y s 543 1077 m -6 X s 540
 1083 m -3 X s 540 1090 m -3 X s 540 1096 m -3 X s 540 1103 m -3 X s 543 1109 m -6 X s 540 1115 m -3 X s 540 1122 m -3 X s 540 1128 m -3 X s 540 1134 m -3 X s 543 1141 m -6 X s 540 1147 m -3 X s 540 1153 m -3 X s 540 1160 m -3 X s 540 1166 m -3 X s
 543 1173 m -6 X s 540 1179 m -3 X s 540 1185 m -3 X s 540 1192 m -3 X s 540 1198 m -3 X s 543 1204 m -6 X s 540 1211 m -3 X s 540 1217 m -3 X s 540 1223 m -3 X s 540 1230 m -3 X s 543 1236 m -6 X s 540 1242 m -3 X s 540 1249 m -3 X s 540 1255 m -3 X
 s 540 1262 m -3 X s 543 1268 m -6 X s 543 1077 m -6 X s 540 1071 m -3 X s 540 1064 m -3 X s 540 1058 m -3 X s 543 1268 m -6 X s 540 1274 m -3 X s 540 1281 m -3 X s
 gsave  408 305 476 1009 C 481.462 1071.18 t 0 r /Helvetica findfont 22.8295 sf 0 0 m (\2550.04) show NC gr 
 gsave  408 305 476 1009 C 467.218 1102.52 t 0 r /Helvetica findfont 22.8295 sf 0 0 m (\2550.035) show NC gr 
 gsave  408 305 476 1009 C 481.462 1133.86 t 0 r /Helvetica findfont 22.8295 sf 0 0 m (\2550.03) show NC gr 
 gsave  408 305 476 1009 C 467.218 1165.2 t 0 r /Helvetica findfont 22.8295 sf 0 0 m (\2550.025) show NC gr 
 gsave  408 305 476 1009 C 481.462 1196.53 t 0 r /Helvetica findfont 22.8295 sf 0 0 m (\2550.02) show NC gr 
 gsave  408 305 476 1009 C 467.218 1227.87 t 0 r /Helvetica findfont 22.8295 sf 0 0 m (\2550.015) show NC gr 
 gsave  408 305 476 1009 C 484.311 1262.06 t 0 r /Helvetica findfont 22.8295 sf 0 0 m (\2550.01) show NC gr  844 1055 m 229 Y s 838 1077 m 6 X s 841 1083 m 3 X s 841 1090 m 3 X s 841 1096 m 3 X s 841 1103 m 3 X s 838 1109 m 6 X s 841 1115 m 3 X s 841
 1122 m 3 X s 841 1128 m 3 X s 841 1134 m 3 X s 838 1141 m 6 X s 841 1147 m 3 X s 841 1153 m 3 X s 841 1160 m 3 X s 841 1166 m 3 X s 838 1173 m 6 X s 841 1179 m 3 X s 841 1185 m 3 X s 841 1192 m 3 X s 841 1198 m 3 X s 838 1204 m 6 X s 841 1211 m 3 X
 s 841 1217 m 3 X s 841 1223 m 3 X s 841 1230 m 3 X s 838 1236 m 6 X s 841 1242 m 3 X s 841 1249 m 3 X s 841 1255 m 3 X s 841 1262 m 3 X s 838 1268 m 6 X s 838 1077 m 6 X s 841 1071 m 3 X s 841 1064 m 3 X s 841 1058 m 3 X s 838 1268 m 6 X s 841 1274
 m 3 X s 841 1281 m 3 X s /w 23 def /w2 {w 2 div} def /w3 {w 3 div} def 633 1251 728 1161 823 1087 3 { m21} R 633 1262 m 3 Y s 627 1265 m 11 X s 633 1239 m -2 Y s 627 1237 m 11 X s 728 1173 m 2 Y s 722 1175 m 11 X s 728 1150 m -2 Y s 722 1148 m 11 X
 s 823 1099 m 2 Y s 817 1101 m 11 X s 823 1076 m -2 Y s 817 1074 m 11 X s 9 lw 0.95 0.95 0.95 c black 591 1284 m 3 -2 d 3 -2 d 3 -3 d 3 -3 d 3 -2 d 3 -3 d 3 -3 d 4 -2 d 3 -3 d 3 -2 d 3 -3 d 3 -3 d 3 -2 d 3 -3 d 3 -3 d 3 -2 d 3 -3 d 3 -3 d 3 -2 d 3 -3
 d 3 -3 d 3 -2 d 3 -3 d 3 -3 d 4 -2 d 3 -3 d 3 -3 d 3 -2 d 3 -3 d 3 -2 d 3 -3 d 3 -3 d 3 -2 d 3 -3 d 3 -3 d 3 -2 d 3 -3 d 3 -3 d 3 -2 d 3 -3 d 4 -3 d 3 -2 d 3 -3 d 3 -3 d 3 -2 d 3 -3 d 3 -3 d 3 -2 d 3 -3 d s 741 1155 m 3 -3 d 3 -2 d 3 -3 d 3 -2 d 3
 -3 d 3 -3 d 3 -2 d 4 -3 d 3 -3 d 3 -2 d 3 -3 d 3 -3 d 3 -2 d 3 -3 d 3 -3 d 3 -2 d 3 -3 d 3 -3 d 3 -2 d 3 -3 d 3 -3 d 3 -2 d 3 -3 d 4 -3 d 3 -2 d 3 -3 d 3 -2 d 3 -3 d 3 -3 d 3 -2 d 3 -3 d 3 -3 d 3 -2 d s 0.49 0.6 0.82 c black 0.49 0.6 0.82 c
 gsave  408 305 476 1009 C 595.418 1293.4 t 0 r /Helvetica-Bold findfont 25.6831 sf 0 0 m (0.5 < E < 1.0 GeV) show NC gr  0.52 0.76 0.64 c black 0.52 0.76 0.64 c
 gsave  408 305 476 1009 C 575.476 1256.36 t 0 r /Helvetica-Bold findfont 25.6831 sf 0 0 m 
 228 214 200 193 178 171 156 149 133 126 119 105 91 76 69 55 47 39 25 17
(A = \2550.026, p = 1.000) K NC gr  1 0.6 1 c black 1 0.6 1 c
 gsave  408 305 476 1009 C 883.156 1122.46 t 90 r /Helvetica-Bold findfont 28.5368 sf 0 0 m (/dof=0.1) show NC gr  black 1 0.6 1 c
 gsave  408 305 476 1009 C 871.76 1111.07 t 90 r /Helvetica-Bold findfont 19.9758 sf 0 0 m (2) show NC gr  black 1 0.6 1 c
 gsave  408 305 476 1009 C 883.156 1093.97 t 90 r /Symbol findfont 28.5368 sf 0 0 m (c) show NC gr  black 3 lw 1 1 1 c 408 305 930 1009 bf black 1 1 1 c black 306 229 991 1055 bl 306 229 991 1055 bl 991 1055 m 306 X s 991 1059 m -4 Y s 1086 1059 m -4
 Y s 1181 1059 m -4 Y s 1276 1059 m -4 Y s 1276 1059 m -4 Y s
 gsave  408 305 930 1009 C 980.018 1034.15 t 0 r /Helvetica findfont 22.8295 sf 0 0 m (0) show NC gr 
 gsave  408 305 930 1009 C 1068.33 1034.15 t 0 r /Helvetica findfont 22.8295 sf 0 0 m (0.5) show NC gr 
 gsave  408 305 930 1009 C 1173.74 1034.15 t 0 r /Helvetica findfont 22.8295 sf 0 0 m (1) show NC gr 
 gsave  408 305 930 1009 C 1256.36 1034.15 t 0 r /Helvetica findfont 22.8295 sf 0 0 m (1.5) show NC gr  991 1284 m 306 X s 991 1280 m 4 Y s 1086 1280 m 4 Y s 1181 1280 m 4 Y s 1276 1280 m 4 Y s 1276 1280 m 4 Y s 991 1055 m 229 Y s 997 1056 m -6 X s
 994 1061 m -3 X s 994 1066 m -3 X s 994 1071 m -3 X s 994 1077 m -3 X s 997 1082 m -6 X s 994 1087 m -3 X s 994 1092 m -3 X s 994 1097 m -3 X s 994 1103 m -3 X s 997 1108 m -6 X s 994 1113 m -3 X s 994 1118 m -3 X s 994 1123 m -3 X s 994 1129 m -3 X
 s 997 1134 m -6 X s 994 1139 m -3 X s 994 1144 m -3 X s 994 1149 m -3 X s 994 1155 m -3 X s 997 1160 m -6 X s 994 1165 m -3 X s 994 1170 m -3 X s 994 1176 m -3 X s 994 1181 m -3 X s 997 1186 m -6 X s 994 1191 m -3 X s 994 1196 m -3 X s 994 1202 m -3
 X s 994 1207 m -3 X s 997 1212 m -6 X s 994 1217 m -3 X s 994 1222 m -3 X s 994 1228 m -3 X s 994 1233 m -3 X s 997 1238 m -6 X s 994 1243 m -3 X s 994 1248 m -3 X s 994 1254 m -3 X s 994 1259 m -3 X s 997 1264 m -6 X s 997 1056 m -6 X s 997 1264 m
 -6 X s 994 1269 m -3 X s 994 1274 m -3 X s 994 1280 m -3 X s
 gsave  408 305 930 1009 C 923.04 1048.39 t 0 r /Helvetica findfont 22.8295 sf 0 0 m (\2550.055) show NC gr 
 gsave  408 305 930 1009 C 937.285 1074.03 t 0 r /Helvetica findfont 22.8295 sf 0 0 m (\2550.05) show NC gr 
 gsave  408 305 930 1009 C 923.04 1099.67 t 0 r /Helvetica findfont 22.8295 sf 0 0 m (\2550.045) show NC gr 
 gsave  408 305 930 1009 C 937.285 1128.16 t 0 r /Helvetica findfont 22.8295 sf 0 0 m (\2550.04) show NC gr 
 gsave  408 305 930 1009 C 923.04 1153.8 t 0 r /Helvetica findfont 22.8295 sf 0 0 m (\2550.035) show NC gr 
 gsave  408 305 930 1009 C 937.285 1179.44 t 0 r /Helvetica findfont 22.8295 sf 0 0 m (\2550.03) show NC gr 
 gsave  408 305 930 1009 C 923.04 1205.08 t 0 r /Helvetica findfont 22.8295 sf 0 0 m (\2550.025) show NC gr 
 gsave  408 305 930 1009 C 937.285 1230.72 t 0 r /Helvetica findfont 22.8295 sf 0 0 m (\2550.02) show NC gr 
 gsave  408 305 930 1009 C 923.04 1256.36 t 0 r /Helvetica findfont 22.8295 sf 0 0 m (\2550.015) show NC gr  1297 1055 m 229 Y s 1292 1056 m 5 X s 1294 1061 m 3 X s 1294 1066 m 3 X s 1294 1071 m 3 X s 1294 1077 m 3 X s 1292 1082 m 5 X s 1294 1087 m 3
 X s 1294 1092 m 3 X s 1294 1097 m 3 X s 1294 1103 m 3 X s 1292 1108 m 5 X s 1294 1113 m 3 X s 1294 1118 m 3 X s 1294 1123 m 3 X s 1294 1129 m 3 X s 1292 1134 m 5 X s 1294 1139 m 3 X s 1294 1144 m 3 X s 1294 1149 m 3 X s 1294 1155 m 3 X s 1292 1160 m
 5 X s 1294 1165 m 3 X s 1294 1170 m 3 X s 1294 1176 m 3 X s 1294 1181 m 3 X s 1292 1186 m 5 X s 1294 1191 m 3 X s 1294 1196 m 3 X s 1294 1202 m 3 X s 1294 1207 m 3 X s 1292 1212 m 5 X s 1294 1217 m 3 X s 1294 1222 m 3 X s 1294 1228 m 3 X s 1294 1233
 m 3 X s 1292 1238 m 5 X s 1294 1243 m 3 X s 1294 1248 m 3 X s 1294 1254 m 3 X s 1294 1259 m 3 X s 1292 1264 m 5 X s 1292 1056 m 5 X s 1292 1264 m 5 X s 1294 1269 m 3 X s 1294 1274 m 3 X s 1294 1280 m 3 X s 1086 1253 1181 1175 1276 1085 3 { m21} R 9
 lw 0.95 0.95 0.95 c black 1054 1284 m 3 -1 d 3 -3 d 3 -2 d 3 -3 d 3 -3 d 3 -3 d 3 -2 d 3 -3 d 3 -3 d 3 -3 d 3 -2 d 3 -3 d 4 -3 d 3 -3 d 3 -2 d 3 -3 d 3 -3 d 3 -3 d 3 -2 d 3 -3 d 3 -3 d 3 -3 d 3 -2 d 3 -3 d 3 -3 d 3 -3 d 3 -2 d 3 -3 d 4 -3 d 3 -3 d 3
 -2 d 3 -3 d 3 -3 d 3 -3 d 3 -2 d 3 -3 d 3 -3 d 3 -3 d 3 -2 d 3 -3 d 3 -3 d 3 -3 d 3 -2 d 3 -3 d 4 -3 d 3 -3 d 3 -2 d 3 -3 d 3 -3 d s 1204 1151 m 3 -2 d 3 -3 d 3 -3 d 3 -3 d 3 -2 d 3 -3 d 3 -3 d 3 -3 d 3 -2 d 3 -3 d 3 -3 d 3 -3 d 4 -2 d 3 -3 d 3 -3 d
 3 -3 d 3 -2 d 3 -3 d 3 -3 d 3 -3 d 3 -2 d 3 -3 d 3 -3 d 3 -3 d 3 -2 d 3 -3 d 3 -3 d 3 -3 d 4 -2 d 3 -3 d s 0.49 0.6 0.82 c black 0.49 0.6 0.82 c
 gsave  408 305 930 1009 C 1051.24 1293.4 t 0 r /Helvetica-Bold findfont 25.6831 sf 0 0 m (1.0 < E < 1.5 GeV) show NC gr  0.52 0.76 0.64 c black 0.52 0.76 0.64 c
 gsave  408 305 930 1009 C 1031.3 1256.36 t 0 r /Helvetica-Bold findfont 25.6831 sf 0 0 m 
 228 214 200 193 178 171 156 149 133 126 119 105 91 77 69 55 47 39 25 17
(A = \2550.033, p = 1.000) K NC gr  1 0.6 1 c black 1 0.6 1 c
 gsave  408 305 930 1009 C 1336.13 1122.46 t 90 r /Helvetica-Bold findfont 28.5368 sf 0 0 m (/dof=0.1) show NC gr  black 1 0.6 1 c
 gsave  408 305 930 1009 C 1324.73 1111.07 t 90 r /Helvetica-Bold findfont 19.9758 sf 0 0 m (2) show NC gr  black 1 0.6 1 c
 gsave  408 305 930 1009 C 1336.13 1093.97 t 90 r /Symbol findfont 28.5368 sf 0 0 m (c) show NC gr  black 3 lw 1 1 1 c 408 305 1383 1009 bf black 1 1 1 c black 306 229 1445 1055 bl 306 229 1445 1055 bl 1445 1055 m 306 X s 1445 1059 m -4 Y s 1540 1059
 m -4 Y s 1635 1059 m -4 Y s 1730 1059 m -4 Y s 1730 1059 m -4 Y s
 gsave  408 305 1383 1009 C 1435.84 1034.15 t 0 r /Helvetica findfont 22.8295 sf 0 0 m (0) show NC gr 
 gsave  408 305 1383 1009 C 1521.31 1034.15 t 0 r /Helvetica findfont 22.8295 sf 0 0 m (0.5) show NC gr 
 gsave  408 305 1383 1009 C 1626.72 1034.15 t 0 r /Helvetica findfont 22.8295 sf 0 0 m (1) show NC gr 
 gsave  408 305 1383 1009 C 1712.18 1034.15 t 0 r /Helvetica findfont 22.8295 sf 0 0 m (1.5) show NC gr  1445 1284 m 306 X s 1445 1280 m 4 Y s 1540 1280 m 4 Y s 1635 1280 m 4 Y s 1730 1280 m 4 Y s 1730 1280 m 4 Y s 1445 1055 m 229 Y s 1450 1059 m -5
 X s 1447 1065 m -2 X s 1447 1070 m -2 X s 1447 1075 m -2 X s 1447 1081 m -2 X s 1450 1086 m -5 X s 1447 1091 m -2 X s 1447 1096 m -2 X s 1447 1102 m -2 X s 1447 1107 m -2 X s 1450 1112 m -5 X s 1447 1118 m -2 X s 1447 1123 m -2 X s 1447 1128 m -2 X
 s 1447 1133 m -2 X s 1450 1139 m -5 X s 1447 1144 m -2 X s 1447 1149 m -2 X s 1447 1155 m -2 X s 1447 1160 m -2 X s 1450 1165 m -5 X s 1447 1170 m -2 X s 1447 1176 m -2 X s 1447 1181 m -2 X s 1447 1186 m -2 X s 1450 1191 m -5 X s 1447 1197 m -2 X s
 1447 1202 m -2 X s 1447 1207 m -2 X s 1447 1213 m -2 X s 1450 1218 m -5 X s 1447 1223 m -2 X s 1447 1228 m -2 X s 1447 1234 m -2 X s 1447 1239 m -2 X s 1450 1244 m -5 X s 1447 1250 m -2 X s 1447 1255 m -2 X s 1447 1260 m -2 X s 1447 1265 m -2 X s
 1450 1271 m -5 X s 1450 1059 m -5 X s 1450 1271 m -5 X s 1447 1276 m -2 X s 1447 1281 m -2 X s
 gsave  408 305 1383 1009 C 1390.26 1051.24 t 0 r /Helvetica findfont 22.8295 sf 0 0 m (\2550.05) show NC gr 
 gsave  408 305 1383 1009 C 1376.01 1079.73 t 0 r /Helvetica findfont 22.8295 sf 0 0 m (\2550.045) show NC gr 
 gsave  408 305 1383 1009 C 1390.26 1105.37 t 0 r /Helvetica findfont 22.8295 sf 0 0 m (\2550.04) show NC gr 
 gsave  408 305 1383 1009 C 1376.01 1131.01 t 0 r /Helvetica findfont 22.8295 sf 0 0 m (\2550.035) show NC gr 
 gsave  408 305 1383 1009 C 1390.26 1156.65 t 0 r /Helvetica findfont 22.8295 sf 0 0 m (\2550.03) show NC gr 
 gsave  408 305 1383 1009 C 1376.01 1185.14 t 0 r /Helvetica findfont 22.8295 sf 0 0 m (\2550.025) show NC gr 
 gsave  408 305 1383 1009 C 1390.26 1210.78 t 0 r /Helvetica findfont 22.8295 sf 0 0 m (\2550.02) show NC gr 
 gsave  408 305 1383 1009 C 1376.01 1236.42 t 0 r /Helvetica findfont 22.8295 sf 0 0 m (\2550.015) show NC gr 
 gsave  408 305 1383 1009 C 1393.11 1264.91 t 0 r /Helvetica findfont 22.8295 sf 0 0 m (\2550.01) show NC gr  1751 1055 m 229 Y s 1745 1059 m 6 X s 1748 1065 m 3 X s 1748 1070 m 3 X s 1748 1075 m 3 X s 1748 1081 m 3 X s 1745 1086 m 6 X s 1748 1091 m
 3 X s 1748 1096 m 3 X s 1748 1102 m 3 X s 1748 1107 m 3 X s 1745 1112 m 6 X s 1748 1118 m 3 X s 1748 1123 m 3 X s 1748 1128 m 3 X s 1748 1133 m 3 X s 1745 1139 m 6 X s 1748 1144 m 3 X s 1748 1149 m 3 X s 1748 1155 m 3 X s 1748 1160 m 3 X s 1745 1165
 m 6 X s 1748 1170 m 3 X s 1748 1176 m 3 X s 1748 1181 m 3 X s 1748 1186 m 3 X s 1745 1191 m 6 X s 1748 1197 m 3 X s 1748 1202 m 3 X s 1748 1207 m 3 X s 1748 1213 m 3 X s 1745 1218 m 6 X s 1748 1223 m 3 X s 1748 1228 m 3 X s 1748 1234 m 3 X s 1748
 1239 m 3 X s 1745 1244 m 6 X s 1748 1250 m 3 X s 1748 1255 m 3 X s 1748 1260 m 3 X s 1748 1265 m 3 X s 1745 1271 m 6 X s 1745 1059 m 6 X s 1745 1271 m 6 X s 1748 1276 m 3 X s 1748 1281 m 3 X s 1540 1253 1635 1172 1730 1085 3 { m21} R 1540 1264 m 1 Y
 s 1534 1265 m 11 X s 1540 1241 m s 1534 1241 m 11 X s 1635 1183 m 1 Y s 1629 1184 m 11 X s 1635 1161 m -1 Y s 1629 1160 m 11 X s 1730 1097 m s 1724 1097 m 11 X s 1730 1074 m s 1724 1074 m 11 X s 9 lw 0.95 0.95 0.95 c black 1492 1284 m 3 -2 d 3 -2 d
 3 -3 d 3 -2 d 3 -3 d 3 -2 d 3 -3 d 3 -2 d 4 -3 d 3 -2 d 3 -3 d 3 -2 d 3 -3 d 3 -2 d 3 -3 d 3 -2 d 3 -3 d 3 -2 d 3 -3 d 3 -2 d 3 -3 d 3 -2 d 3 -3 d 3 -2 d 4 -3 d 3 -2 d 3 -3 d 3 -2 d 3 -3 d 3 -2 d 3 -3 d 3 -2 d 3 -3 d 3 -2 d 3 -3 d 3 -2 d 3 -3 d 3 -2
 d 3 -3 d 3 -2 d 4 -3 d 3 -2 d 3 -3 d 3 -2 d 3 -3 d 3 -2 d 3 -3 d 3 -2 d 3 -3 d s 1642 1162 m 3 -2 d 3 -3 d 3 -2 d 3 -3 d 3 -2 d 3 -3 d 3 -2 d 3 -3 d 4 -2 d 3 -3 d 3 -2 d 3 -3 d 3 -2 d 3 -3 d 3 -2 d 3 -3 d 3 -2 d 3 -3 d 3 -2 d 3 -3 d 3 -3 d 3 -2 d 3
 -3 d 3 -2 d 4 -3 d 3 -2 d 3 -3 d 3 -2 d 3 -3 d 3 -2 d 3 -3 d 3 -2 d 3 -3 d 3 -2 d 3 -3 d s 0.49 0.6 0.82 c black 0.49 0.6 0.82 c
 gsave  408 305 1383 1009 C 1504.21 1293.4 t 0 r /Helvetica-Bold findfont 25.6831 sf 0 0 m (1.5 < E < 2.0 GeV) show NC gr  0.52 0.76 0.64 c black 0.52 0.76 0.64 c
 gsave  408 305 1383 1009 C 1484.27 1256.36 t 0 r /Helvetica-Bold findfont 25.6831 sf 0 0 m 
 228 214 200 193 178 171 156 149 134 126 119 105 91 77 69 55 47 40 25 17
(A = \2550.029, p = 1.000) K NC gr  1 0.6 1 c black 1 0.6 1 c
 gsave  408 305 1383 1009 C 1789.1 1122.46 t 90 r /Helvetica-Bold findfont 28.5368 sf 0 0 m (/dof=0.3) show NC gr  black 1 0.6 1 c
 gsave  408 305 1383 1009 C 1777.71 1111.07 t 90 r /Helvetica-Bold findfont 19.9758 sf 0 0 m (2) show NC gr  black 1 0.6 1 c
 gsave  408 305 1383 1009 C 1789.1 1093.97 t 90 r /Symbol findfont 28.5368 sf 0 0 m (c) show NC gr  black 3 lw 1 1 1 c 408 305 1837 1009 bf black 1 1 1 c black 306 229 1898 1055 bl 306 229 1898 1055 bl 1898 1055 m 306 X s 1898 1059 m -4 Y s 1993 1059
 m -4 Y s 2088 1059 m -4 Y s 2183 1059 m -4 Y s 2183 1059 m -4 Y s
 gsave  408 305 1837 1009 C 1888.81 1034.15 t 0 r /Helvetica findfont 22.8295 sf 0 0 m (0) show NC gr 
 gsave  408 305 1837 1009 C 1974.28 1034.15 t 0 r /Helvetica findfont 22.8295 sf 0 0 m (0.5) show NC gr 
 gsave  408 305 1837 1009 C 2079.69 1034.15 t 0 r /Helvetica findfont 22.8295 sf 0 0 m (1) show NC gr 
 gsave  408 305 1837 1009 C 2165.16 1034.15 t 0 r /Helvetica findfont 22.8295 sf 0 0 m (1.5) show NC gr  1898 1284 m 306 X s 1898 1280 m 4 Y s 1993 1280 m 4 Y s 2088 1280 m 4 Y s 2183 1280 m 4 Y s 2183 1280 m 4 Y s 1898 1055 m 229 Y s 1904 1066 m -6
 X s 1901 1071 m -3 X s 1901 1076 m -3 X s 1901 1081 m -3 X s 1901 1085 m -3 X s 1904 1090 m -6 X s 1901 1095 m -3 X s 1901 1100 m -3 X s 1901 1105 m -3 X s 1901 1110 m -3 X s 1904 1115 m -6 X s 1901 1120 m -3 X s 1901 1125 m -3 X s 1901 1129 m -3 X
 s 1901 1134 m -3 X s 1904 1139 m -6 X s 1901 1144 m -3 X s 1901 1149 m -3 X s 1901 1154 m -3 X s 1901 1159 m -3 X s 1904 1164 m -6 X s 1901 1169 m -3 X s 1901 1173 m -3 X s 1901 1178 m -3 X s 1901 1183 m -3 X s 1904 1188 m -6 X s 1901 1193 m -3 X s
 1901 1198 m -3 X s 1901 1203 m -3 X s 1901 1208 m -3 X s 1904 1212 m -6 X s 1901 1217 m -3 X s 1901 1222 m -3 X s 1901 1227 m -3 X s 1901 1232 m -3 X s 1904 1237 m -6 X s 1901 1242 m -3 X s 1901 1247 m -3 X s 1901 1252 m -3 X s 1901 1256 m -3 X s
 1904 1261 m -6 X s 1904 1066 m -6 X s 1901 1061 m -3 X s 1901 1056 m -3 X s 1904 1261 m -6 X s 1901 1266 m -3 X s 1901 1271 m -3 X s 1901 1276 m -3 X s 1901 1281 m -3 X s
 gsave  408 305 1837 1009 C 1828.99 1059.79 t 0 r /Helvetica findfont 22.8295 sf 0 0 m (\2550.055) show NC gr 
 gsave  408 305 1837 1009 C 1843.23 1082.58 t 0 r /Helvetica findfont 22.8295 sf 0 0 m (\2550.05) show NC gr 
 gsave  408 305 1837 1009 C 1828.99 1108.22 t 0 r /Helvetica findfont 22.8295 sf 0 0 m (\2550.045) show NC gr 
 gsave  408 305 1837 1009 C 1843.23 1131.01 t 0 r /Helvetica findfont 22.8295 sf 0 0 m (\2550.04) show NC gr 
 gsave  408 305 1837 1009 C 1828.99 1156.65 t 0 r /Helvetica findfont 22.8295 sf 0 0 m (\2550.035) show NC gr 
 gsave  408 305 1837 1009 C 1843.23 1182.29 t 0 r /Helvetica findfont 22.8295 sf 0 0 m (\2550.03) show NC gr 
 gsave  408 305 1837 1009 C 1828.99 1205.08 t 0 r /Helvetica findfont 22.8295 sf 0 0 m (\2550.025) show NC gr 
 gsave  408 305 1837 1009 C 1843.23 1230.72 t 0 r /Helvetica findfont 22.8295 sf 0 0 m (\2550.02) show NC gr 
 gsave  408 305 1837 1009 C 1828.99 1253.51 t 0 r /Helvetica findfont 22.8295 sf 0 0 m (\2550.015) show NC gr  2204 1055 m 229 Y s 2199 1066 m 5 X s 2201 1071 m 3 X s 2201 1076 m 3 X s 2201 1081 m 3 X s 2201 1085 m 3 X s 2199 1090 m 5 X s 2201 1095 m
 3 X s 2201 1100 m 3 X s 2201 1105 m 3 X s 2201 1110 m 3 X s 2199 1115 m 5 X s 2201 1120 m 3 X s 2201 1125 m 3 X s 2201 1129 m 3 X s 2201 1134 m 3 X s 2199 1139 m 5 X s 2201 1144 m 3 X s 2201 1149 m 3 X s 2201 1154 m 3 X s 2201 1159 m 3 X s 2199 1164
 m 5 X s 2201 1169 m 3 X s 2201 1173 m 3 X s 2201 1178 m 3 X s 2201 1183 m 3 X s 2199 1188 m 5 X s 2201 1193 m 3 X s 2201 1198 m 3 X s 2201 1203 m 3 X s 2201 1208 m 3 X s 2199 1212 m 5 X s 2201 1217 m 3 X s 2201 1222 m 3 X s 2201 1227 m 3 X s 2201
 1232 m 3 X s 2199 1237 m 5 X s 2201 1242 m 3 X s 2201 1247 m 3 X s 2201 1252 m 3 X s 2201 1256 m 3 X s 2199 1261 m 5 X s 2199 1066 m 5 X s 2201 1061 m 3 X s 2201 1056 m 3 X s 2199 1261 m 5 X s 2201 1266 m 3 X s 2201 1271 m 3 X s 2201 1276 m 3 X s
 2201 1281 m 3 X s 1993 1253 2088 1169 2183 1085 3 { m21} R 9 lw 0.95 0.95 0.95 c black 1955 1284 m 3 -2 d 3 -2 d 3 -3 d 3 -3 d 3 -2 d 3 -3 d 3 -3 d 3 -2 d 3 -3 d 3 -3 d 3 -2 d 3 -3 d 4 -3 d 3 -2 d 3 -3 d 3 -3 d 3 -2 d 3 -3 d 3 -3 d 3 -2 d 3 -3 d 3
 -3 d 3 -2 d 3 -3 d 3 -3 d 3 -2 d 3 -3 d 3 -3 d 3 -2 d 4 -3 d 3 -3 d 3 -2 d 3 -3 d 3 -3 d 3 -2 d 3 -3 d 3 -3 d 3 -2 d 3 -3 d 3 -3 d 3 -2 d 3 -3 d 3 -3 d 3 -3 d 3 -2 d 4 -3 d 3 -3 d 3 -2 d 3 -3 d s 2105 1154 m 3 -3 d 3 -2 d 3 -3 d 3 -3 d 3 -2 d 3 -3 d
 3 -3 d 3 -2 d 3 -3 d 3 -3 d 3 -2 d 3 -3 d 4 -3 d 3 -2 d 3 -3 d 3 -3 d 3 -2 d 3 -3 d 3 -3 d 3 -2 d 3 -3 d 3 -3 d 3 -2 d 3 -3 d 3 -3 d 3 -2 d 3 -3 d 3 -3 d 4 -2 d 3 -3 d 3 -3 d 3 -2 d s 0.49 0.6 0.82 c black 0.49 0.6 0.82 c
 gsave  408 305 1837 1009 C 1957.19 1293.4 t 0 r /Helvetica-Bold findfont 25.6831 sf 0 0 m (2.0 < E < 2.5 GeV) show NC gr  0.52 0.76 0.64 c black 0.52 0.76 0.64 c
 gsave  408 305 1837 1009 C 1937.25 1256.36 t 0 r /Helvetica-Bold findfont 25.6831 sf 0 0 m 
 228 214 200 193 178 171 156 149 133 126 119 105 91 77 69 55 47 39 25 17
(A = \2550.034, p = 1.000) K NC gr  1 0.6 1 c black 1 0.6 1 c
 gsave  408 305 1837 1009 C 2242.08 1122.46 t 90 r /Helvetica-Bold findfont 28.5368 sf 0 0 m (/dof=0.0) show NC gr  black 1 0.6 1 c
 gsave  408 305 1837 1009 C 2230.68 1111.07 t 90 r /Helvetica-Bold findfont 19.9758 sf 0 0 m (2) show NC gr  black 1 0.6 1 c
 gsave  408 305 1837 1009 C 2242.08 1093.97 t 90 r /Symbol findfont 28.5368 sf 0 0 m (c) show NC gr  black 3 lw 1 1 1 c 408 305 23 677 bf black 1 1 1 c black 306 229 84 723 bl 306 229 84 723 bl 84 723 m 306 X s 84 727 m -4 Y s 179 727 m -4 Y s 274
 727 m -4 Y s 369 727 m -4 Y s 369 727 m -4 Y s
 gsave  408 305 23 677 C 74.0711 703.676 t 0 r /Helvetica findfont 22.8295 sf 0 0 m (0) show NC gr 
 gsave  408 305 23 677 C 159.538 703.676 t 0 r /Helvetica findfont 22.8295 sf 0 0 m (0.5) show NC gr 
 gsave  408 305 23 677 C 267.796 703.676 t 0 r /Helvetica findfont 22.8295 sf 0 0 m (1) show NC gr 
 gsave  408 305 23 677 C 350.413 703.676 t 0 r /Helvetica findfont 22.8295 sf 0 0 m (1.5) show NC gr  84 952 m 306 X s 84 948 m 4 Y s 179 948 m 4 Y s 274 948 m 4 Y s 369 948 m 4 Y s 369 948 m 4 Y s 84 723 m 229 Y s 89 747 m -5 X s 87 755 m -3 X s 87
 763 m -3 X s 87 771 m -3 X s 87 779 m -3 X s 89 787 m -5 X s 87 796 m -3 X s 87 804 m -3 X s 87 812 m -3 X s 87 820 m -3 X s 89 828 m -5 X s 87 837 m -3 X s 87 845 m -3 X s 87 853 m -3 X s 87 861 m -3 X s 89 869 m -5 X s 87 877 m -3 X s 87 886 m -3
 X s 87 894 m -3 X s 87 902 m -3 X s 89 910 m -5 X s 87 918 m -3 X s 87 927 m -3 X s 87 935 m -3 X s 87 943 m -3 X s 89 951 m -5 X s 89 747 m -5 X s 87 738 m -3 X s 87 730 m -3 X s 89 951 m -5 X s
 gsave  408 305 23 677 C 28.4889 740.711 t 0 r /Helvetica findfont 22.8295 sf 0 0 m (\2550.06) show NC gr 
 gsave  408 305 23 677 C 28.4889 780.596 t 0 r /Helvetica findfont 22.8295 sf 0 0 m (\2550.05) show NC gr 
 gsave  408 305 23 677 C 28.4889 820.48 t 0 r /Helvetica findfont 22.8295 sf 0 0 m (\2550.04) show NC gr 
 gsave  408 305 23 677 C 28.4889 863.214 t 0 r /Helvetica findfont 22.8295 sf 0 0 m (\2550.03) show NC gr 
 gsave  408 305 23 677 C 28.4889 903.098 t 0 r /Helvetica findfont 22.8295 sf 0 0 m (\2550.02) show NC gr 
 gsave  408 305 23 677 C 31.3378 942.983 t 0 r /Helvetica findfont 22.8295 sf 0 0 m (\2550.01) show NC gr  390 723 m 229 Y s 385 747 m 5 X s 387 755 m 3 X s 387 763 m 3 X s 387 771 m 3 X s 387 779 m 3 X s 385 787 m 5 X s 387 796 m 3 X s 387 804 m 3 X
 s 387 812 m 3 X s 387 820 m 3 X s 385 828 m 5 X s 387 837 m 3 X s 387 845 m 3 X s 387 853 m 3 X s 387 861 m 3 X s 385 869 m 5 X s 387 877 m 3 X s 387 886 m 3 X s 387 894 m 3 X s 387 902 m 3 X s 385 910 m 5 X s 387 918 m 3 X s 387 927 m 3 X s 387 935
 m 3 X s 387 943 m 3 X s 385 951 m 5 X s 385 747 m 5 X s 387 738 m 3 X s 387 730 m 3 X s 385 951 m 5 X s /w 22 def /w2 {w 2 div} def /w3 {w 3 div} def 179 923 274 835 369 752 3 { m21} R 9 lw 0.95 0.95 0.95 c black 131 952 m 3 -2 d 3 -2 d 4 -3 d 3 -3
 d 3 -2 d 3 -3 d 3 -2 d 3 -3 d 3 -2 d 3 -3 d 3 -2 d 3 -3 d 3 -2 d 3 -3 d 3 -3 d 3 -2 d 3 -3 d 3 -2 d 4 -3 d 3 -2 d 3 -3 d 3 -2 d 3 -3 d 3 -2 d 3 -3 d 3 -3 d 3 -2 d 3 -3 d 3 -2 d 3 -3 d 3 -2 d 3 -3 d 3 -2 d 3 -3 d 4 -2 d 3 -3 d 3 -3 d 3 -2 d 3 -3 d 3
 -2 d 3 -3 d 3 -2 d 3 -3 d 3 -2 d 3 -3 d 3 -2 d 3 -3 d 3 -3 d 3 -2 d s 281 828 m 3 -3 d 3 -2 d 4 -3 d 3 -2 d 3 -3 d 3 -2 d 3 -3 d 3 -2 d 3 -3 d 3 -3 d 3 -2 d 3 -3 d 3 -2 d 3 -3 d 3 -2 d 3 -3 d 3 -2 d 3 -3 d 4 -2 d 3 -3 d 3 -2 d 3 -3 d 3 -3 d 3 -2 d 3
 -3 d 3 -2 d 3 -3 d 3 -2 d 3 -3 d 3 -2 d 3 -3 d 3 -2 d 3 -3 d 3 -3 d 4 -2 d s 0.49 0.6 0.82 c black 0.49 0.6 0.82 c
 gsave  408 305 23 677 C 142.445 960.076 t 0 r /Helvetica-Bold findfont 25.6831 sf 0 0 m (2.5 < E < 3.0 GeV) show NC gr  0.52 0.76 0.64 c black 0.52 0.76 0.64 c
 gsave  408 305 23 677 C 122.502 923.04 t 0 r /Helvetica-Bold findfont 25.6831 sf 0 0 m 
 228 214 200 193 178 171 156 149 134 126 119 105 91 77 69 55 47 39 25 17
(A = \2550.039, p = 1.000) K NC gr  1 0.6 1 c black 1 0.6 1 c
 gsave  408 305 23 677 C 427.334 791.991 t 90 r /Helvetica-Bold findfont 28.5368 sf 0 0 m (/dof=0.6) show NC gr  black 1 0.6 1 c
 gsave  408 305 23 677 C 415.938 780.596 t 90 r /Helvetica-Bold findfont 19.9758 sf 0 0 m (2) show NC gr  black 1 0.6 1 c
 gsave  408 305 23 677 C 427.334 763.503 t 90 r /Symbol findfont 28.5368 sf 0 0 m (c) show NC gr  black 3 lw 1 1 1 c 408 305 476 677 bf black 1 1 1 c black 307 229 537 723 bl 307 229 537 723 bl 537 723 m 307 X s 537 727 m -4 Y s 633 727 m -4 Y s 728
 727 m -4 Y s 823 727 m -4 Y s 823 727 m -4 Y s
 gsave  408 305 476 677 C 527.045 703.676 t 0 r /Helvetica findfont 22.8295 sf 0 0 m (0) show NC gr 
 gsave  408 305 476 677 C 615.36 703.676 t 0 r /Helvetica findfont 22.8295 sf 0 0 m (0.5) show NC gr 
 gsave  408 305 476 677 C 720.769 703.676 t 0 r /Helvetica findfont 22.8295 sf 0 0 m (1) show NC gr 
 gsave  408 305 476 677 C 803.387 703.676 t 0 r /Helvetica findfont 22.8295 sf 0 0 m (1.5) show NC gr  537 952 m 307 X s 537 948 m 4 Y s 633 948 m 4 Y s 728 948 m 4 Y s 823 948 m 4 Y s 823 948 m 4 Y s 537 723 m 229 Y s 543 751 m -6 X s 540 759 m -3 X
 s 540 767 m -3 X s 540 776 m -3 X s 540 784 m -3 X s 543 792 m -6 X s 540 800 m -3 X s 540 809 m -3 X s 540 817 m -3 X s 540 825 m -3 X s 543 834 m -6 X s 540 842 m -3 X s 540 850 m -3 X s 540 858 m -3 X s 540 867 m -3 X s 543 875 m -6 X s 540 883 m
 -3 X s 540 892 m -3 X s 540 900 m -3 X s 540 908 m -3 X s 543 916 m -6 X s 543 751 m -6 X s 540 742 m -3 X s 540 734 m -3 X s 540 726 m -3 X s 543 916 m -6 X s 540 925 m -3 X s 540 933 m -3 X s 540 941 m -3 X s 540 950 m -3 X s
 gsave  408 305 476 677 C 481.462 743.56 t 0 r /Helvetica findfont 22.8295 sf 0 0 m (\2550.06) show NC gr 
 gsave  408 305 476 677 C 481.462 786.294 t 0 r /Helvetica findfont 22.8295 sf 0 0 m (\2550.05) show NC gr 
 gsave  408 305 476 677 C 481.462 826.178 t 0 r /Helvetica findfont 22.8295 sf 0 0 m (\2550.04) show NC gr 
 gsave  408 305 476 677 C 481.462 868.911 t 0 r /Helvetica findfont 22.8295 sf 0 0 m (\2550.03) show NC gr 
 gsave  408 305 476 677 C 481.462 908.796 t 0 r /Helvetica findfont 22.8295 sf 0 0 m (\2550.02) show NC gr  844 723 m 229 Y s 838 751 m 6 X s 841 759 m 3 X s 841 767 m 3 X s 841 776 m 3 X s 841 784 m 3 X s 838 792 m 6 X s 841 800 m 3 X s 841 809 m 3
 X s 841 817 m 3 X s 841 825 m 3 X s 838 834 m 6 X s 841 842 m 3 X s 841 850 m 3 X s 841 858 m 3 X s 841 867 m 3 X s 838 875 m 6 X s 841 883 m 3 X s 841 892 m 3 X s 841 900 m 3 X s 841 908 m 3 X s 838 916 m 6 X s 838 751 m 6 X s 841 742 m 3 X s 841
 734 m 3 X s 841 726 m 3 X s 838 916 m 6 X s 841 925 m 3 X s 841 933 m 3 X s 841 941 m 3 X s 841 950 m 3 X s /w 23 def /w2 {w 2 div} def /w3 {w 3 div} def 633 922 728 823 823 753 3 { m21} R 9 lw 0.95 0.95 0.95 c black 591 952 m 3 -2 d 3 -3 d 3 -3 d 3
 -3 d 3 -2 d 3 -3 d 3 -3 d 4 -2 d 3 -3 d 3 -3 d 3 -2 d 3 -3 d 3 -3 d 3 -2 d 3 -3 d 3 -3 d 3 -3 d 3 -2 d 3 -3 d 3 -3 d 3 -2 d 3 -3 d 3 -3 d 3 -2 d 4 -3 d 3 -3 d 3 -2 d 3 -3 d 3 -3 d 3 -3 d 3 -2 d 3 -3 d 3 -3 d 3 -2 d 3 -3 d 3 -3 d 3 -2 d 3 -3 d 3 -3 d
 3 -2 d 4 -3 d 3 -3 d 3 -2 d 3 -3 d 3 -3 d 3 -3 d 3 -2 d 3 -3 d 3 -3 d s 741 820 m 3 -2 d 3 -3 d 3 -3 d 3 -2 d 3 -3 d 3 -3 d 3 -2 d 4 -3 d 3 -3 d 3 -3 d 3 -2 d 3 -3 d 3 -3 d 3 -2 d 3 -3 d 3 -3 d 3 -2 d 3 -3 d 3 -3 d 3 -2 d 3 -3 d 3 -3 d 3 -3 d 4 -2 d
 3 -3 d 3 -3 d 3 -2 d 3 -3 d 3 -3 d 3 -2 d 3 -3 d 3 -3 d 3 -2 d s 0.49 0.6 0.82 c black 0.49 0.6 0.82 c
 gsave  408 305 476 677 C 595.418 960.076 t 0 r /Helvetica-Bold findfont 25.6831 sf 0 0 m (3.0 < E < 3.5 GeV) show NC gr  0.52 0.76 0.64 c black 0.52 0.76 0.64 c
 gsave  408 305 476 677 C 575.476 923.04 t 0 r /Helvetica-Bold findfont 25.6831 sf 0 0 m 
 228 214 200 193 178 171 156 149 133 126 119 105 91 76 69 55 47 39 25 17
(A = \2550.040, p = 1.000) K NC gr  1 0.6 1 c black 1 0.6 1 c
 gsave  408 305 476 677 C 883.156 791.991 t 90 r /Helvetica-Bold findfont 28.5368 sf 0 0 m (/dof=0.6) show NC gr  black 1 0.6 1 c
 gsave  408 305 476 677 C 871.76 780.596 t 90 r /Helvetica-Bold findfont 19.9758 sf 0 0 m (2) show NC gr  black 1 0.6 1 c
 gsave  408 305 476 677 C 883.156 763.503 t 90 r /Symbol findfont 28.5368 sf 0 0 m (c) show NC gr  black 3 lw 1 1 1 c 408 305 930 677 bf black 1 1 1 c black 306 229 991 723 bl 306 229 991 723 bl 991 723 m 306 X s 991 727 m -4 Y s 1086 727 m -4 Y s
 1181 727 m -4 Y s 1276 727 m -4 Y s 1276 727 m -4 Y s
 gsave  408 305 930 677 C 980.018 703.676 t 0 r /Helvetica findfont 22.8295 sf 0 0 m (0) show NC gr 
 gsave  408 305 930 677 C 1068.33 703.676 t 0 r /Helvetica findfont 22.8295 sf 0 0 m (0.5) show NC gr 
 gsave  408 305 930 677 C 1173.74 703.676 t 0 r /Helvetica findfont 22.8295 sf 0 0 m (1) show NC gr 
 gsave  408 305 930 677 C 1256.36 703.676 t 0 r /Helvetica findfont 22.8295 sf 0 0 m (1.5) show NC gr  991 952 m 306 X s 991 948 m 4 Y s 1086 948 m 4 Y s 1181 948 m 4 Y s 1276 948 m 4 Y s 1276 948 m 4 Y s 991 723 m 229 Y s 997 734 m -6 X s 994 739 m
 -3 X s 994 744 m -3 X s 994 748 m -3 X s 994 753 m -3 X s 997 758 m -6 X s 994 763 m -3 X s 994 768 m -3 X s 994 772 m -3 X s 994 777 m -3 X s 997 782 m -6 X s 994 787 m -3 X s 994 791 m -3 X s 994 796 m -3 X s 994 801 m -3 X s 997 806 m -6 X s 994
 810 m -3 X s 994 815 m -3 X s 994 820 m -3 X s 994 825 m -3 X s 997 830 m -6 X s 994 834 m -3 X s 994 839 m -3 X s 994 844 m -3 X s 994 849 m -3 X s 997 853 m -6 X s 994 858 m -3 X s 994 863 m -3 X s 994 868 m -3 X s 994 873 m -3 X s 997 877 m -6 X
 s 994 882 m -3 X s 994 887 m -3 X s 994 892 m -3 X s 994 896 m -3 X s 997 901 m -6 X s 994 906 m -3 X s 994 911 m -3 X s 994 915 m -3 X s 994 920 m -3 X s 997 925 m -6 X s 994 930 m -3 X s 994 935 m -3 X s 994 939 m -3 X s 994 944 m -3 X s 997 949 m
 -6 X s 997 734 m -6 X s 994 729 m -3 X s 994 725 m -3 X s 997 949 m -6 X s
 gsave  408 305 930 677 C 937.285 726.467 t 0 r /Helvetica findfont 22.8295 sf 0 0 m (\2550.06) show NC gr 
 gsave  408 305 930 677 C 923.04 752.107 t 0 r /Helvetica findfont 22.8295 sf 0 0 m (\2550.055) show NC gr 
 gsave  408 305 930 677 C 937.285 774.898 t 0 r /Helvetica findfont 22.8295 sf 0 0 m (\2550.05) show NC gr 
 gsave  408 305 930 677 C 923.04 797.689 t 0 r /Helvetica findfont 22.8295 sf 0 0 m (\2550.045) show NC gr 
 gsave  408 305 930 677 C 937.285 823.329 t 0 r /Helvetica findfont 22.8295 sf 0 0 m (\2550.04) show NC gr 
 gsave  408 305 930 677 C 923.04 846.12 t 0 r /Helvetica findfont 22.8295 sf 0 0 m (\2550.035) show NC gr 
 gsave  408 305 930 677 C 937.285 868.911 t 0 r /Helvetica findfont 22.8295 sf 0 0 m (\2550.03) show NC gr 
 gsave  408 305 930 677 C 923.04 894.552 t 0 r /Helvetica findfont 22.8295 sf 0 0 m (\2550.025) show NC gr 
 gsave  408 305 930 677 C 937.285 917.343 t 0 r /Helvetica findfont 22.8295 sf 0 0 m (\2550.02) show NC gr 
 gsave  408 305 930 677 C 923.04 942.983 t 0 r /Helvetica findfont 22.8295 sf 0 0 m (\2550.015) show NC gr  1297 723 m 229 Y s 1292 734 m 5 X s 1294 739 m 3 X s 1294 744 m 3 X s 1294 748 m 3 X s 1294 753 m 3 X s 1292 758 m 5 X s 1294 763 m 3 X s 1294
 768 m 3 X s 1294 772 m 3 X s 1294 777 m 3 X s 1292 782 m 5 X s 1294 787 m 3 X s 1294 791 m 3 X s 1294 796 m 3 X s 1294 801 m 3 X s 1292 806 m 5 X s 1294 810 m 3 X s 1294 815 m 3 X s 1294 820 m 3 X s 1294 825 m 3 X s 1292 830 m 5 X s 1294 834 m 3 X s
 1294 839 m 3 X s 1294 844 m 3 X s 1294 849 m 3 X s 1292 853 m 5 X s 1294 858 m 3 X s 1294 863 m 3 X s 1294 868 m 3 X s 1294 873 m 3 X s 1292 877 m 5 X s 1294 882 m 3 X s 1294 887 m 3 X s 1294 892 m 3 X s 1294 896 m 3 X s 1292 901 m 5 X s 1294 906 m
 3 X s 1294 911 m 3 X s 1294 915 m 3 X s 1294 920 m 3 X s 1292 925 m 5 X s 1294 930 m 3 X s 1294 935 m 3 X s 1294 939 m 3 X s 1294 944 m 3 X s 1292 949 m 5 X s 1292 734 m 5 X s 1294 729 m 3 X s 1294 725 m 3 X s 1292 949 m 5 X s 1086 918 1181 859 1276
 756 3 { m21} R 1086 930 m 3 Y s 1080 933 m 12 X s 1086 907 m -3 Y s 1080 904 m 12 X s 1181 870 m 4 Y s 1175 874 m 12 X s 1181 848 m -4 Y s 1175 844 m 12 X s 1276 768 m 3 Y s 1271 771 m 11 X s 1276 745 m -3 Y s 1271 742 m 11 X s 9 lw 0.95 0.95 0.95 c
 black 1063 952 m 3 X 3 -3 d 3 -3 d 3 -3 d 3 -2 d 3 -3 d 3 -3 d 3 -3 d 3 -3 d 4 -2 d 3 -3 d 3 -3 d 3 -3 d 3 -3 d 3 -2 d 3 -3 d 3 -3 d 3 -3 d 3 -3 d 3 -2 d 3 -3 d 3 -3 d 3 -3 d 3 -3 d 3 -2 d 4 -3 d 3 -3 d 3 -3 d 3 -3 d 3 -2 d 3 -3 d 3 -3 d 3 -3 d 3 -3
 d 3 -2 d 3 -3 d 3 -3 d 3 -3 d 3 -3 d 3 -2 d 3 -3 d 4 -3 d 3 -3 d 3 -3 d 3 -2 d 3 -3 d 3 -3 d 3 -3 d 3 -3 d s 1213 817 m 3 -2 d 3 -3 d 3 -3 d 3 -3 d 3 -3 d 3 -2 d 3 -3 d 3 -3 d 3 -3 d 4 -3 d 3 -2 d 3 -3 d 3 -3 d 3 -3 d 3 -3 d 3 -2 d 3 -3 d 3 -3 d 3
 -3 d 3 -3 d 3 -2 d 3 -3 d 3 -3 d 3 -3 d 3 -3 d 4 -2 d 3 -3 d s 0.49 0.6 0.82 c black 0.49 0.6 0.82 c
 gsave  408 305 930 677 C 1051.24 960.076 t 0 r /Helvetica-Bold findfont 25.6831 sf 0 0 m (3.5 < E < 4.0 GeV) show NC gr  0.52 0.76 0.64 c black 0.52 0.76 0.64 c
 gsave  408 305 930 677 C 1031.3 923.04 t 0 r /Helvetica-Bold findfont 25.6831 sf 0 0 m 
 228 214 200 193 178 171 156 149 133 126 119 105 91 77 69 55 47 39 25 17
(A = \2550.036, p = 1.000) K NC gr  1 0.6 1 c black 1 0.6 1 c
 gsave  408 305 930 677 C 1336.13 791.991 t 90 r /Helvetica-Bold findfont 28.5368 sf 0 0 m (/dof=0.9) show NC gr  black 1 0.6 1 c
 gsave  408 305 930 677 C 1324.73 780.596 t 90 r /Helvetica-Bold findfont 19.9758 sf 0 0 m (2) show NC gr  black 1 0.6 1 c
 gsave  408 305 930 677 C 1336.13 763.503 t 90 r /Symbol findfont 28.5368 sf 0 0 m (c) show NC gr  black 3 lw 1 1 1 c 408 305 1383 677 bf black 1 1 1 c black 306 229 1445 723 bl 306 229 1445 723 bl 1445 723 m 306 X s 1445 727 m -4 Y s 1540 727 m -4 Y
 s 1635 727 m -4 Y s 1730 727 m -4 Y s 1730 727 m -4 Y s
 gsave  408 305 1383 677 C 1435.84 703.676 t 0 r /Helvetica findfont 22.8295 sf 0 0 m (0) show NC gr 
 gsave  408 305 1383 677 C 1521.31 703.676 t 0 r /Helvetica findfont 22.8295 sf 0 0 m (0.5) show NC gr 
 gsave  408 305 1383 677 C 1626.72 703.676 t 0 r /Helvetica findfont 22.8295 sf 0 0 m (1) show NC gr 
 gsave  408 305 1383 677 C 1712.18 703.676 t 0 r /Helvetica findfont 22.8295 sf 0 0 m (1.5) show NC gr  1445 952 m 306 X s 1445 948 m 4 Y s 1540 948 m 4 Y s 1635 948 m 4 Y s 1730 948 m 4 Y s 1730 948 m 4 Y s 1445 723 m 229 Y s 1450 740 m -5 X s 1447
 748 m -2 X s 1447 757 m -2 X s 1447 765 m -2 X s 1447 774 m -2 X s 1450 782 m -5 X s 1447 790 m -2 X s 1447 799 m -2 X s 1447 807 m -2 X s 1447 816 m -2 X s 1450 824 m -5 X s 1447 832 m -2 X s 1447 841 m -2 X s 1447 849 m -2 X s 1447 858 m -2 X s
 1450 866 m -5 X s 1447 874 m -2 X s 1447 883 m -2 X s 1447 891 m -2 X s 1447 900 m -2 X s 1450 908 m -5 X s 1447 916 m -2 X s 1447 925 m -2 X s 1447 933 m -2 X s 1447 942 m -2 X s 1450 950 m -5 X s 1450 740 m -5 X s 1447 732 m -2 X s 1447 723 m -2 X
 s 1450 950 m -5 X s
 gsave  408 305 1383 677 C 1390.26 732.165 t 0 r /Helvetica findfont 22.8295 sf 0 0 m (\2550.06) show NC gr 
 gsave  408 305 1383 677 C 1390.26 774.898 t 0 r /Helvetica findfont 22.8295 sf 0 0 m (\2550.05) show NC gr 
 gsave  408 305 1383 677 C 1390.26 817.631 t 0 r /Helvetica findfont 22.8295 sf 0 0 m (\2550.04) show NC gr 
 gsave  408 305 1383 677 C 1390.26 857.516 t 0 r /Helvetica findfont 22.8295 sf 0 0 m (\2550.03) show NC gr 
 gsave  408 305 1383 677 C 1390.26 900.249 t 0 r /Helvetica findfont 22.8295 sf 0 0 m (\2550.02) show NC gr 
 gsave  408 305 1383 677 C 1393.11 942.983 t 0 r /Helvetica findfont 22.8295 sf 0 0 m (\2550.01) show NC gr  1751 723 m 229 Y s 1745 740 m 6 X s 1748 748 m 3 X s 1748 757 m 3 X s 1748 765 m 3 X s 1748 774 m 3 X s 1745 782 m 6 X s 1748 790 m 3 X s
 1748 799 m 3 X s 1748 807 m 3 X s 1748 816 m 3 X s 1745 824 m 6 X s 1748 832 m 3 X s 1748 841 m 3 X s 1748 849 m 3 X s 1748 858 m 3 X s 1745 866 m 6 X s 1748 874 m 3 X s 1748 883 m 3 X s 1748 891 m 3 X s 1748 900 m 3 X s 1745 908 m 6 X s 1748 916 m
 3 X s 1748 925 m 3 X s 1748 933 m 3 X s 1748 942 m 3 X s 1745 950 m 6 X s 1745 740 m 6 X s 1748 732 m 3 X s 1748 723 m 3 X s 1745 950 m 6 X s 1540 916 1635 804 1730 758 3 { m21} R 1540 928 m 5 Y s 1534 933 m 11 X s 1540 905 m -5 Y s 1534 900 m 11 X
 s 1635 815 m 5 Y s 1629 820 m 11 X s 1635 792 m -5 Y s 1629 787 m 11 X s 1730 769 m 5 Y s 1724 774 m 11 X s 1730 747 m -5 Y s 1724 742 m 11 X s 9 lw 0.95 0.95 0.95 c black 1489 952 m 3 -1 d 3 -3 d 3 -3 d 3 -2 d 3 -3 d 3 -2 d 3 -3 d 3 -3 d 3 -2 d 4
 -3 d 3 -3 d 3 -2 d 3 -3 d 3 -3 d 3 -2 d 3 -3 d 3 -3 d 3 -2 d 3 -3 d 3 -3 d 3 -2 d 3 -3 d 3 -3 d 3 -2 d 3 -3 d 4 -3 d 3 -2 d 3 -3 d 3 -3 d 3 -2 d 3 -3 d 3 -2 d 3 -3 d 3 -3 d 3 -2 d 3 -3 d 3 -3 d 3 -2 d 3 -3 d 3 -3 d 3 -2 d 4 -3 d 3 -3 d 3 -2 d 3 -3 d
 3 -3 d 3 -2 d 3 -3 d 3 -3 d s 1639 823 m 3 -2 d 3 -3 d 3 -3 d 3 -2 d 3 -3 d 3 -3 d 3 -2 d 3 -3 d 3 -3 d 4 -2 d 3 -3 d 3 -2 d 3 -3 d 3 -3 d 3 -2 d 3 -3 d 3 -3 d 3 -2 d 3 -3 d 3 -3 d 3 -2 d 3 -3 d 3 -3 d 3 -2 d 3 -3 d 4 -3 d 3 -2 d 3 -3 d 3 -3 d 3 -2
 d 3 -3 d 3 -3 d 3 -2 d 3 -3 d 3 -3 d 3 -2 d s 0.49 0.6 0.82 c black 0.49 0.6 0.82 c
 gsave  408 305 1383 677 C 1504.21 960.076 t 0 r /Helvetica-Bold findfont 25.6831 sf 0 0 m (4.0 < E < 4.5 GeV) show NC gr  0.52 0.76 0.64 c black 0.52 0.76 0.64 c
 gsave  408 305 1383 677 C 1484.27 923.04 t 0 r /Helvetica-Bold findfont 25.6831 sf 0 0 m 
 228 214 200 193 178 171 156 149 134 126 119 105 91 77 69 55 47 40 25 17
(A = \2550.039, p = 1.000) K NC gr  1 0.6 1 c black 1 0.6 1 c
 gsave  408 305 1383 677 C 1789.1 791.991 t 90 r /Helvetica-Bold findfont 28.5368 sf 0 0 m (/dof=1.5) show NC gr  black 1 0.6 1 c
 gsave  408 305 1383 677 C 1777.71 780.596 t 90 r /Helvetica-Bold findfont 19.9758 sf 0 0 m (2) show NC gr  black 1 0.6 1 c
 gsave  408 305 1383 677 C 1789.1 763.503 t 90 r /Symbol findfont 28.5368 sf 0 0 m (c) show NC gr  black 3 lw 1 1 1 c 408 305 1837 677 bf black 1 1 1 c black 306 229 1898 723 bl 306 229 1898 723 bl 1898 723 m 306 X s 1898 727 m -4 Y s 1993 727 m -4 Y
 s 2088 727 m -4 Y s 2183 727 m -4 Y s 2183 727 m -4 Y s
 gsave  408 305 1837 677 C 1888.81 703.676 t 0 r /Helvetica findfont 22.8295 sf 0 0 m (0) show NC gr 
 gsave  408 305 1837 677 C 1974.28 703.676 t 0 r /Helvetica findfont 22.8295 sf 0 0 m (0.5) show NC gr 
 gsave  408 305 1837 677 C 2079.69 703.676 t 0 r /Helvetica findfont 22.8295 sf 0 0 m (1) show NC gr 
 gsave  408 305 1837 677 C 2165.16 703.676 t 0 r /Helvetica findfont 22.8295 sf 0 0 m (1.5) show NC gr  1898 952 m 306 X s 1898 948 m 4 Y s 1993 948 m 4 Y s 2088 948 m 4 Y s 2183 948 m 4 Y s 2183 948 m 4 Y s 1898 723 m 229 Y s 1904 743 m -6 X s 1901
 751 m -3 X s 1901 758 m -3 X s 1901 766 m -3 X s 1901 773 m -3 X s 1904 781 m -6 X s 1901 788 m -3 X s 1901 796 m -3 X s 1901 803 m -3 X s 1901 810 m -3 X s 1904 818 m -6 X s 1901 825 m -3 X s 1901 833 m -3 X s 1901 840 m -3 X s 1901 848 m -3 X s
 1904 855 m -6 X s 1901 862 m -3 X s 1901 870 m -3 X s 1901 877 m -3 X s 1901 885 m -3 X s 1904 892 m -6 X s 1901 900 m -3 X s 1901 907 m -3 X s 1901 914 m -3 X s 1901 922 m -3 X s 1904 929 m -6 X s 1904 743 m -6 X s 1901 736 m -3 X s 1901 729 m -3 X
 s 1904 929 m -6 X s 1901 937 m -3 X s 1901 944 m -3 X s 1901 952 m -3 X s
 gsave  408 305 1837 677 C 1843.23 735.014 t 0 r /Helvetica findfont 22.8295 sf 0 0 m (\2550.06) show NC gr 
 gsave  408 305 1837 677 C 1843.23 774.898 t 0 r /Helvetica findfont 22.8295 sf 0 0 m (\2550.05) show NC gr 
 gsave  408 305 1837 677 C 1843.23 811.934 t 0 r /Helvetica findfont 22.8295 sf 0 0 m (\2550.04) show NC gr 
 gsave  408 305 1837 677 C 1843.23 848.969 t 0 r /Helvetica findfont 22.8295 sf 0 0 m (\2550.03) show NC gr 
 gsave  408 305 1837 677 C 1843.23 886.005 t 0 r /Helvetica findfont 22.8295 sf 0 0 m (\2550.02) show NC gr 
 gsave  408 305 1837 677 C 1846.08 923.04 t 0 r /Helvetica findfont 22.8295 sf 0 0 m (\2550.01) show NC gr  2204 723 m 229 Y s 2199 743 m 5 X s 2201 751 m 3 X s 2201 758 m 3 X s 2201 766 m 3 X s 2201 773 m 3 X s 2199 781 m 5 X s 2201 788 m 3 X s 2201
 796 m 3 X s 2201 803 m 3 X s 2201 810 m 3 X s 2199 818 m 5 X s 2201 825 m 3 X s 2201 833 m 3 X s 2201 840 m 3 X s 2201 848 m 3 X s 2199 855 m 5 X s 2201 862 m 3 X s 2201 870 m 3 X s 2201 877 m 3 X s 2201 885 m 3 X s 2199 892 m 5 X s 2201 900 m 3 X s
 2201 907 m 3 X s 2201 914 m 3 X s 2201 922 m 3 X s 2199 929 m 5 X s 2199 743 m 5 X s 2201 736 m 3 X s 2201 729 m 3 X s 2199 929 m 5 X s 2201 937 m 3 X s 2201 944 m 3 X s 2201 952 m 3 X s 1993 914 2088 821 2183 761 3 { m21} R 1993 925 m 8 Y s 1987
 933 m 12 X s 1993 902 m -7 Y s 1987 895 m 12 X s 2088 832 m 8 Y s 2083 840 m 11 X s 2088 810 m -8 Y s 2083 802 m 11 X s 2183 772 m 7 Y s 2178 779 m 11 X s 2183 749 m -7 Y s 2178 742 m 11 X s 9 lw 0.95 0.95 0.95 c black 1918 952 m 3 -2 d 3 -2 d 3 -3
 d 3 -2 d 3 -2 d 3 -2 d 3 -2 d 3 -3 d 4 -2 d 3 -2 d 3 -2 d 3 -2 d 3 -3 d 3 -2 d 3 -2 d 3 -2 d 3 -2 d 3 -3 d 3 -2 d 3 -2 d 3 -2 d 3 -3 d 3 -2 d 3 -2 d 4 -2 d 3 -2 d 3 -3 d 3 -2 d 3 -2 d 3 -2 d 3 -2 d 3 -3 d 3 -2 d 3 -2 d 3 -2 d 3 -3 d 3 -2 d 3 -2 d 3
 -2 d 3 -2 d 3 -3 d 4 -2 d 3 -2 d 3 -2 d 3 -2 d 3 -3 d 3 -2 d 3 -2 d 3 -2 d s 2068 844 m 3 -2 d 3 -3 d 3 -2 d 3 -2 d 3 -2 d 3 -3 d 3 -2 d 3 -2 d 4 -2 d 3 -2 d 3 -3 d 3 -2 d 3 -2 d 3 -2 d 3 -2 d 3 -3 d 3 -2 d 3 -2 d 3 -2 d 3 -3 d 3 -2 d 3 -2 d 3 -2 d
 3 -2 d 4 -3 d 3 -2 d 3 -2 d 3 -2 d 3 -2 d 3 -3 d 3 -2 d 3 -2 d 3 -2 d 3 -2 d 3 -3 d 3 -2 d 3 -2 d 3 -2 d 3 -3 d 3 -2 d 4 -2 d 3 -2 d 3 -2 d 3 -3 d s 0.49 0.6 0.82 c black 0.49 0.6 0.82 c
 gsave  408 305 1837 677 C 1957.19 960.076 t 0 r /Helvetica-Bold findfont 25.6831 sf 0 0 m (4.5 < E < 5.0 GeV) show NC gr  0.52 0.76 0.64 c black 0.52 0.76 0.64 c
 gsave  408 305 1837 677 C 1937.25 923.04 t 0 r /Helvetica-Bold findfont 25.6831 sf 0 0 m 
 228 214 200 193 178 171 156 149 133 126 119 105 91 77 69 55 47 39 25 17
(A = \2550.037, p = 1.000) K NC gr  1 0.6 1 c black 1 0.6 1 c
 gsave  408 305 1837 677 C 2242.08 791.991 t 90 r /Helvetica-Bold findfont 28.5368 sf 0 0 m (/dof=0.4) show NC gr  black 1 0.6 1 c
 gsave  408 305 1837 677 C 2230.68 780.596 t 90 r /Helvetica-Bold findfont 19.9758 sf 0 0 m (2) show NC gr  black 1 0.6 1 c
 gsave  408 305 1837 677 C 2242.08 763.503 t 90 r /Symbol findfont 28.5368 sf 0 0 m (c) show NC gr  black 3 lw 1 1 1 c 408 306 23 345 bf black 1 1 1 c black 306 229 84 391 bl 306 229 84 391 bl 84 391 m 306 X s 84 395 m -4 Y s 179 395 m -4 Y s 274 395
 m -4 Y s 369 395 m -4 Y s 369 395 m -4 Y s
 gsave  408 306 23 345 C 74.0711 370.356 t 0 r /Helvetica findfont 22.8295 sf 0 0 m (0) show NC gr 
 gsave  408 306 23 345 C 159.538 370.356 t 0 r /Helvetica findfont 22.8295 sf 0 0 m (0.5) show NC gr 
 gsave  408 306 23 345 C 267.796 370.356 t 0 r /Helvetica findfont 22.8295 sf 0 0 m (1) show NC gr 
 gsave  408 306 23 345 C 350.413 370.356 t 0 r /Helvetica findfont 22.8295 sf 0 0 m (1.5) show NC gr  84 620 m 306 X s 84 616 m 4 Y s 179 616 m 4 Y s 274 616 m 4 Y s 369 616 m 4 Y s 369 616 m 4 Y s 84 391 m 229 Y s 89 404 m -5 X s 87 410 m -3 X s 87
 415 m -3 X s 87 421 m -3 X s 87 426 m -3 X s 89 432 m -5 X s 87 438 m -3 X s 87 443 m -3 X s 87 449 m -3 X s 87 454 m -3 X s 89 460 m -5 X s 87 465 m -3 X s 87 471 m -3 X s 87 476 m -3 X s 87 482 m -3 X s 89 487 m -5 X s 87 493 m -3 X s 87 499 m -3
 X s 87 504 m -3 X s 87 510 m -3 X s 89 515 m -5 X s 87 521 m -3 X s 87 526 m -3 X s 87 532 m -3 X s 87 537 m -3 X s 89 543 m -5 X s 87 548 m -3 X s 87 554 m -3 X s 87 560 m -3 X s 87 565 m -3 X s 89 571 m -5 X s 87 576 m -3 X s 87 582 m -3 X s 87
 587 m -3 X s 87 593 m -3 X s 89 598 m -5 X s 89 404 m -5 X s 87 399 m -3 X s 87 393 m -3 X s 89 598 m -5 X s 87 604 m -3 X s 87 610 m -3 X s 87 615 m -3 X s
 gsave  408 306 23 345 C 14.2445 395.996 t 0 r /Helvetica findfont 22.8295 sf 0 0 m (\2550.045) show NC gr 
 gsave  408 306 23 345 C 28.4889 424.485 t 0 r /Helvetica findfont 22.8295 sf 0 0 m (\2550.04) show NC gr 
 gsave  408 306 23 345 C 14.2445 452.974 t 0 r /Helvetica findfont 22.8295 sf 0 0 m (\2550.035) show NC gr 
 gsave  408 306 23 345 C 28.4889 481.462 t 0 r /Helvetica findfont 22.8295 sf 0 0 m (\2550.03) show NC gr 
 gsave  408 306 23 345 C 14.2445 507.102 t 0 r /Helvetica findfont 22.8295 sf 0 0 m (\2550.025) show NC gr 
 gsave  408 306 23 345 C 28.4889 535.591 t 0 r /Helvetica findfont 22.8295 sf 0 0 m (\2550.02) show NC gr 
 gsave  408 306 23 345 C 14.2445 564.08 t 0 r /Helvetica findfont 22.8295 sf 0 0 m (\2550.015) show NC gr 
 gsave  408 306 23 345 C 31.3378 592.569 t 0 r /Helvetica findfont 22.8295 sf 0 0 m (\2550.01) show NC gr  390 391 m 229 Y s 385 404 m 5 X s 387 410 m 3 X s 387 415 m 3 X s 387 421 m 3 X s 387 426 m 3 X s 385 432 m 5 X s 387 438 m 3 X s 387 443 m 3 X
 s 387 449 m 3 X s 387 454 m 3 X s 385 460 m 5 X s 387 465 m 3 X s 387 471 m 3 X s 387 476 m 3 X s 387 482 m 3 X s 385 487 m 5 X s 387 493 m 3 X s 387 499 m 3 X s 387 504 m 3 X s 387 510 m 3 X s 385 515 m 5 X s 387 521 m 3 X s 387 526 m 3 X s 387 532
 m 3 X s 387 537 m 3 X s 385 543 m 5 X s 387 548 m 3 X s 387 554 m 3 X s 387 560 m 3 X s 387 565 m 3 X s 385 571 m 5 X s 387 576 m 3 X s 387 582 m 3 X s 387 587 m 3 X s 387 593 m 3 X s 385 598 m 5 X s 385 404 m 5 X s 387 399 m 3 X s 387 393 m 3 X s
 385 598 m 5 X s 387 604 m 3 X s 387 610 m 3 X s 387 615 m 3 X s /w 22 def /w2 {w 2 div} def /w3 {w 3 div} def 179 564 274 496 369 446 3 { m21} R 179 576 m 25 Y s 173 601 m 12 X s 179 553 m -26 Y s 173 527 m 12 X s 274 507 m 25 Y s 268 532 m 12 X s
 274 484 m -25 Y s 268 459 m 12 X s 369 458 m 25 Y s 363 483 m 12 X s 369 435 m -25 Y s 363 410 m 12 X s 9 lw 0.95 0.95 0.95 c black 125 620 m 3 X 3 -3 d 3 -2 d 3 -2 d 4 -3 d 3 -2 d 3 -3 d 3 -2 d 3 -2 d 3 -3 d 3 -2 d 3 -2 d 3 -3 d 3 -2 d 3 -3 d 3 -2
 d 3 -2 d 3 -3 d 3 -2 d 3 -2 d 4 -3 d 3 -2 d 3 -2 d 3 -3 d 3 -2 d 3 -3 d 3 -2 d 3 -2 d 3 -3 d 3 -2 d 3 -2 d 3 -3 d 3 -2 d 3 -2 d 3 -3 d 3 -2 d 4 -3 d 3 -2 d 3 -2 d 3 -3 d 3 -2 d 3 -2 d 3 -3 d 3 -2 d 3 -2 d 3 -3 d 3 -2 d 3 -3 d 3 -2 d s 275 506 m 3 -2
 d 3 -3 d 3 -2 d 3 -2 d 4 -3 d 3 -2 d 3 -2 d 3 -3 d 3 -2 d 3 -3 d 3 -2 d 3 -2 d 3 -3 d 3 -2 d 3 -2 d 3 -3 d 3 -2 d 3 -3 d 3 -2 d 3 -2 d 4 -3 d 3 -2 d 3 -2 d 3 -3 d 3 -2 d 3 -2 d 3 -3 d 3 -2 d 3 -3 d 3 -2 d 3 -2 d 3 -3 d 3 -2 d 3 -2 d 3 -3 d 3 -2 d 4
 -2 d s 0.49 0.6 0.82 c black 0.49 0.6 0.82 c
 gsave  408 306 23 345 C 142.445 629.605 t 0 r /Helvetica-Bold findfont 25.6831 sf 0 0 m (5.0 < E < 5.5 GeV) show NC gr  0.52 0.76 0.64 c black 0.52 0.76 0.64 c
 gsave  408 306 23 345 C 122.502 592.569 t 0 r /Helvetica-Bold findfont 25.6831 sf 0 0 m 
 228 214 200 193 178 171 156 149 134 126 119 105 91 77 69 55 47 39 25 17
(A = \2550.026, p = 1.000) K NC gr  1 0.6 1 c black 1 0.6 1 c
 gsave  408 306 23 345 C 427.334 458.671 t 90 r /Helvetica-Bold findfont 28.5368 sf 0 0 m (/dof=0.2) show NC gr  black 1 0.6 1 c
 gsave  408 306 23 345 C 415.938 447.276 t 90 r /Helvetica-Bold findfont 19.9758 sf 0 0 m (2) show NC gr  black 1 0.6 1 c
 gsave  408 306 23 345 C 427.334 430.182 t 90 r /Symbol findfont 28.5368 sf 0 0 m (c) show NC gr  black 3 lw 1 1 1 c 408 306 476 345 bf black 1 1 1 c black 307 229 537 391 bl 307 229 537 391 bl 537 391 m 307 X s 537 395 m -4 Y s 633 395 m -4 Y s 728
 395 m -4 Y s 823 395 m -4 Y s 823 395 m -4 Y s
 gsave  408 306 476 345 C 527.045 370.356 t 0 r /Helvetica findfont 22.8295 sf 0 0 m (0) show NC gr 
 gsave  408 306 476 345 C 615.36 370.356 t 0 r /Helvetica findfont 22.8295 sf 0 0 m (0.5) show NC gr 
 gsave  408 306 476 345 C 720.769 370.356 t 0 r /Helvetica findfont 22.8295 sf 0 0 m (1) show NC gr 
 gsave  408 306 476 345 C 803.387 370.356 t 0 r /Helvetica findfont 22.8295 sf 0 0 m (1.5) show NC gr  537 620 m 307 X s 537 616 m 4 Y s 633 616 m 4 Y s 728 616 m 4 Y s 823 616 m 4 Y s 823 616 m 4 Y s 537 391 m 229 Y s 543 406 m -6 X s 540 411 m -3 X
 s 540 416 m -3 X s 540 421 m -3 X s 540 426 m -3 X s 543 431 m -6 X s 540 436 m -3 X s 540 441 m -3 X s 540 446 m -3 X s 540 451 m -3 X s 543 456 m -6 X s 540 461 m -3 X s 540 466 m -3 X s 540 471 m -3 X s 540 476 m -3 X s 543 481 m -6 X s 540 486 m
 -3 X s 540 491 m -3 X s 540 496 m -3 X s 540 501 m -3 X s 543 506 m -6 X s 540 511 m -3 X s 540 516 m -3 X s 540 521 m -3 X s 540 526 m -3 X s 543 531 m -6 X s 540 536 m -3 X s 540 541 m -3 X s 540 546 m -3 X s 540 551 m -3 X s 543 556 m -6 X s 540
 561 m -3 X s 540 566 m -3 X s 540 571 m -3 X s 540 576 m -3 X s 543 581 m -6 X s 540 586 m -3 X s 540 591 m -3 X s 540 596 m -3 X s 540 601 m -3 X s 543 606 m -6 X s 543 406 m -6 X s 540 401 m -3 X s 540 396 m -3 X s 540 391 m -3 X s 543 606 m -6 X
 s 540 611 m -3 X s 540 616 m -3 X s
 gsave  408 306 476 345 C 467.218 398.845 t 0 r /Helvetica findfont 22.8295 sf 0 0 m (\2550.035) show NC gr 
 gsave  408 306 476 345 C 481.462 424.485 t 0 r /Helvetica findfont 22.8295 sf 0 0 m (\2550.03) show NC gr 
 gsave  408 306 476 345 C 467.218 450.125 t 0 r /Helvetica findfont 22.8295 sf 0 0 m (\2550.025) show NC gr 
 gsave  408 306 476 345 C 481.462 472.916 t 0 r /Helvetica findfont 22.8295 sf 0 0 m (\2550.02) show NC gr 
 gsave  408 306 476 345 C 467.218 498.556 t 0 r /Helvetica findfont 22.8295 sf 0 0 m (\2550.015) show NC gr 
 gsave  408 306 476 345 C 484.311 524.196 t 0 r /Helvetica findfont 22.8295 sf 0 0 m (\2550.01) show NC gr 
 gsave  408 306 476 345 C 467.218 549.836 t 0 r /Helvetica findfont 22.8295 sf 0 0 m (\2550.005) show NC gr 
 gsave  408 306 476 345 C 518.498 575.476 t 0 r /Helvetica findfont 22.8295 sf 0 0 m (0) show NC gr 
 gsave  408 306 476 345 C 475.765 598.267 t 0 r /Helvetica findfont 22.8295 sf 0 0 m (0.005) show NC gr  844 391 m 229 Y s 838 406 m 6 X s 841 411 m 3 X s 841 416 m 3 X s 841 421 m 3 X s 841 426 m 3 X s 838 431 m 6 X s 841 436 m 3 X s 841 441 m 3 X s
 841 446 m 3 X s 841 451 m 3 X s 838 456 m 6 X s 841 461 m 3 X s 841 466 m 3 X s 841 471 m 3 X s 841 476 m 3 X s 838 481 m 6 X s 841 486 m 3 X s 841 491 m 3 X s 841 496 m 3 X s 841 501 m 3 X s 838 506 m 6 X s 841 511 m 3 X s 841 516 m 3 X s 841 521 m
 3 X s 841 526 m 3 X s 838 531 m 6 X s 841 536 m 3 X s 841 541 m 3 X s 841 546 m 3 X s 841 551 m 3 X s 838 556 m 6 X s 841 561 m 3 X s 841 566 m 3 X s 841 571 m 3 X s 841 576 m 3 X s 838 581 m 6 X s 841 586 m 3 X s 841 591 m 3 X s 841 596 m 3 X s 841
 601 m 3 X s 838 606 m 6 X s 838 406 m 6 X s 841 401 m 3 X s 841 396 m 3 X s 841 391 m 3 X s 838 606 m 6 X s 841 611 m 3 X s 841 616 m 3 X s /w 23 def /w2 {w 2 div} def /w3 {w 3 div} def 633 559 728 451 823 482 3 { m21} R 633 571 m 30 Y s 627 601 m
 11 X s 633 548 m -31 Y s 627 517 m 11 X s 728 463 m 30 Y s 722 493 m 11 X s 728 440 m -30 Y s 722 410 m 11 X s 823 493 m 30 Y s 817 523 m 11 X s 823 470 m -30 Y s 817 440 m 11 X s 9 lw 0.95 0.95 0.95 c black 539 581 m 3 -2 d 3 -1 d 3 -1 d 3 -2 d 3
 -1 d 3 -1 d 3 -2 d 3 -1 d 4 -1 d 3 -2 d 3 -1 d 3 -1 d 3 -2 d 3 -1 d 3 -1 d 3 -2 d 3 -1 d 3 -1 d 3 -2 d 3 -1 d 3 -1 d 3 -2 d 3 -1 d 3 -1 d 4 -2 d 3 -1 d 3 -1 d 3 -2 d 3 -1 d 3 -1 d 3 -2 d 3 -1 d 3 -1 d 3 -2 d 3 -1 d 3 -1 d 3 -2 d 3 -1 d 3 -1 d 3 -2 d
 3 -1 d 4 -2 d 3 -1 d 3 -1 d 3 -2 d 3 -1 d 3 -1 d 3 -2 d 3 -1 d s 689 515 m 3 -1 d 3 -2 d 3 -1 d 3 -1 d 3 -2 d 3 -1 d 3 -1 d 3 -2 d 4 -1 d 3 -1 d 3 -2 d 3 -1 d 3 -1 d 3 -2 d 3 -1 d 3 -1 d 3 -2 d 3 -1 d 3 -1 d 3 -2 d 3 -1 d 3 -1 d 3 -2 d 3 -1 d 4 -1 d
 3 -2 d 3 -1 d 3 -1 d 3 -2 d 3 -1 d 3 -1 d 3 -2 d 3 -1 d 3 -1 d 3 -2 d 3 -1 d 3 -1 d 3 -2 d 3 -1 d 3 -2 d 4 -1 d 3 -1 d 3 -2 d 3 -1 d 3 -1 d 3 -2 d 3 -1 d 3 -1 d 3 -2 d s 839 449 m 3 -1 d s 0.49 0.6 0.82 c black 0.49 0.6 0.82 c
 gsave  408 306 476 345 C 595.418 629.605 t 0 r /Helvetica-Bold findfont 25.6831 sf 0 0 m (5.5 < E < 6.0 GeV) show NC gr  0.52 0.76 0.64 c black 0.52 0.76 0.64 c
 gsave  408 306 476 345 C 575.476 592.569 t 0 r /Helvetica-Bold findfont 25.6831 sf 0 0 m 
 228 214 200 193 178 171 156 149 133 126 119 105 91 76 69 55 47 39 25 17
(A = \2550.017, p = 1.000) K NC gr  1 0.6 1 c black 1 0.6 1 c
 gsave  408 306 476 345 C 883.156 458.671 t 90 r /Helvetica-Bold findfont 28.5368 sf 0 0 m (/dof=0.9) show NC gr  black 1 0.6 1 c
 gsave  408 306 476 345 C 871.76 447.276 t 90 r /Helvetica-Bold findfont 19.9758 sf 0 0 m (2) show NC gr  black 1 0.6 1 c
 gsave  408 306 476 345 C 883.156 430.182 t 90 r /Symbol findfont 28.5368 sf 0 0 m (c) show NC gr  black 3 lw 1 1 1 c 408 306 930 345 bf black 1 1 1 c black 306 229 991 391 bl 306 229 991 391 bl 991 391 m 306 X s 991 395 m -4 Y s 1086 395 m -4 Y s
 1181 395 m -4 Y s 1276 395 m -4 Y s 1276 395 m -4 Y s
 gsave  408 306 930 345 C 980.018 370.356 t 0 r /Helvetica findfont 22.8295 sf 0 0 m (0) show NC gr 
 gsave  408 306 930 345 C 1068.33 370.356 t 0 r /Helvetica findfont 22.8295 sf 0 0 m (0.5) show NC gr 
 gsave  408 306 930 345 C 1173.74 370.356 t 0 r /Helvetica findfont 22.8295 sf 0 0 m (1) show NC gr 
 gsave  408 306 930 345 C 1256.36 370.356 t 0 r /Helvetica findfont 22.8295 sf 0 0 m (1.5) show NC gr  991 620 m 306 X s 991 616 m 4 Y s 1086 616 m 4 Y s 1181 616 m 4 Y s 1276 616 m 4 Y s 1276 616 m 4 Y s 991 391 m 229 Y s 997 402 m -6 X s 994 408 m
 -3 X s 994 414 m -3 X s 994 420 m -3 X s 994 426 m -3 X s 997 432 m -6 X s 994 438 m -3 X s 994 444 m -3 X s 994 450 m -3 X s 994 456 m -3 X s 997 462 m -6 X s 994 468 m -3 X s 994 475 m -3 X s 994 481 m -3 X s 994 487 m -3 X s 997 493 m -6 X s 994
 499 m -3 X s 994 505 m -3 X s 994 511 m -3 X s 994 517 m -3 X s 997 523 m -6 X s 994 529 m -3 X s 994 535 m -3 X s 994 541 m -3 X s 994 547 m -3 X s 997 553 m -6 X s 994 559 m -3 X s 994 565 m -3 X s 994 571 m -3 X s 994 577 m -3 X s 997 583 m -6 X
 s 994 589 m -3 X s 994 595 m -3 X s 994 601 m -3 X s 994 607 m -3 X s 997 613 m -6 X s 997 402 m -6 X s 994 396 m -3 X s 997 613 m -6 X s 994 619 m -3 X s
 gsave  408 306 930 345 C 937.285 395.996 t 0 r /Helvetica findfont 22.8295 sf 0 0 m (\2550.04) show NC gr 
 gsave  408 306 930 345 C 937.285 424.485 t 0 r /Helvetica findfont 22.8295 sf 0 0 m (\2550.03) show NC gr 
 gsave  408 306 930 345 C 937.285 455.822 t 0 r /Helvetica findfont 22.8295 sf 0 0 m (\2550.02) show NC gr 
 gsave  408 306 930 345 C 940.134 484.311 t 0 r /Helvetica findfont 22.8295 sf 0 0 m (\2550.01) show NC gr 
 gsave  408 306 930 345 C 974.32 515.649 t 0 r /Helvetica findfont 22.8295 sf 0 0 m (0) show NC gr 
 gsave  408 306 930 345 C 945.832 546.987 t 0 r /Helvetica findfont 22.8295 sf 0 0 m (0.01) show NC gr 
 gsave  408 306 930 345 C 942.983 575.476 t 0 r /Helvetica findfont 22.8295 sf 0 0 m (0.02) show NC gr 
 gsave  408 306 930 345 C 942.983 606.814 t 0 r /Helvetica findfont 22.8295 sf 0 0 m (0.03) show NC gr  1297 391 m 229 Y s 1292 402 m 5 X s 1294 408 m 3 X s 1294 414 m 3 X s 1294 420 m 3 X s 1294 426 m 3 X s 1292 432 m 5 X s 1294 438 m 3 X s 1294 444
 m 3 X s 1294 450 m 3 X s 1294 456 m 3 X s 1292 462 m 5 X s 1294 468 m 3 X s 1294 475 m 3 X s 1294 481 m 3 X s 1294 487 m 3 X s 1292 493 m 5 X s 1294 499 m 3 X s 1294 505 m 3 X s 1294 511 m 3 X s 1294 517 m 3 X s 1292 523 m 5 X s 1294 529 m 3 X s
 1294 535 m 3 X s 1294 541 m 3 X s 1294 547 m 3 X s 1292 553 m 5 X s 1294 559 m 3 X s 1294 565 m 3 X s 1294 571 m 3 X s 1294 577 m 3 X s 1292 583 m 5 X s 1294 589 m 3 X s 1294 595 m 3 X s 1294 601 m 3 X s 1294 607 m 3 X s 1292 613 m 5 X s 1292 402 m
 5 X s 1294 396 m 3 X s 1292 613 m 5 X s 1294 619 m 3 X s 1086 520 1181 570 1276 440 3 { m21} R 1086 532 m 19 Y s 1080 551 m 12 X s 1086 509 m -19 Y s 1080 490 m 12 X s 1181 581 m 20 Y s 1175 601 m 12 X s 1181 559 m -20 Y s 1175 539 m 12 X s 1276 452
 m 18 Y s 1271 470 m 11 X s 1276 429 m -19 Y s 1271 410 m 11 X s 1 0 0 c 9 lw 0.95 0.95 0.95 c black 1 0 0 c 993 523 m 15 X 3 -1 d 21 X 3 -1 d 13 X 3 -1 d 9 X 3 -1 d 6 X 3 -1 d 6 X 3 -1 d 6 X 3 -1 d 7 X 3 -1 d 3 X 3 -1 d 3 X 3 -1 d 3 X 3 -1 d 3 X 3
 -1 d 3 X 3 -1 d 3 X 3 -1 d 3 X 4 -1 d s 1143 508 m 3 -1 d 3 X 3 -1 d 3 -1 d 3 X 3 -1 d 3 -1 d 3 X 3 -1 d 3 -1 d 3 X 3 -1 d 3 -1 d 3 -1 d 3 X 4 -1 d 3 -1 d 3 -1 d 3 -1 d 3 X 3 -1 d 3 -1 d 3 -1 d 3 -1 d 3 -1 d 3 -1 d 3 -1 d 3 X 3 -1 d 3 -1 d 3 -1 d 3
 -1 d 4 -1 d 3 -1 d 3 -1 d 3 -1 d 3 -1 d 3 -1 d 3 -1 d 3 -2 d 3 -1 d 3 -1 d 3 -1 d 3 -1 d 3 -1 d 3 -1 d 3 -1 d 3 -2 d 4 -1 d s 1293 464 m 3 -1 d s 0.49 0.6 0.82 c black 0.49 0.6 0.82 c
 gsave  408 306 930 345 C 1051.24 629.605 t 0 r /Helvetica-Bold findfont 25.6831 sf 0 0 m (6.0 < E < 6.5 GeV) show NC gr  0.52 0.76 0.64 c black 0.52 0.76 0.64 c
 gsave  408 306 930 345 C 1031.3 592.569 t 0 r /Helvetica-Bold findfont 25.6831 sf 0 0 m 
 228 214 200 193 178 171 156 149 133 126 119 105 91 77 69 55 47 39 25 17
(A = \2550.008, p = 2.000) K NC gr  1 0.6 1 c black 1 0.6 1 c
 gsave  408 306 930 345 C 1336.13 458.671 t 90 r /Helvetica-Bold findfont 28.5368 sf 0 0 m (/dof=3.1) show NC gr  black 1 0.6 1 c
 gsave  408 306 930 345 C 1324.73 447.276 t 90 r /Helvetica-Bold findfont 19.9758 sf 0 0 m (2) show NC gr  black 1 0.6 1 c
 gsave  408 306 930 345 C 1336.13 430.182 t 90 r /Symbol findfont 28.5368 sf 0 0 m (c) show NC gr  black 3 lw 1 1 1 c 408 306 1383 345 bf black 1 1 1 c black 306 229 1445 391 bl 306 229 1445 391 bl 1445 391 m 306 X s 1445 395 m -4 Y s 1540 395 m -4 Y
 s 1635 395 m -4 Y s 1730 395 m -4 Y s 1730 395 m -4 Y s
 gsave  408 306 1383 345 C 1435.84 370.356 t 0 r /Helvetica findfont 22.8295 sf 0 0 m (0) show NC gr 
 gsave  408 306 1383 345 C 1521.31 370.356 t 0 r /Helvetica findfont 22.8295 sf 0 0 m (0.5) show NC gr 
 gsave  408 306 1383 345 C 1626.72 370.356 t 0 r /Helvetica findfont 22.8295 sf 0 0 m (1) show NC gr 
 gsave  408 306 1383 345 C 1712.18 370.356 t 0 r /Helvetica findfont 22.8295 sf 0 0 m (1.5) show NC gr  1445 620 m 306 X s 1445 616 m 4 Y s 1540 616 m 4 Y s 1635 616 m 4 Y s 1730 616 m 4 Y s 1730 616 m 4 Y s 1445 391 m 229 Y s 1450 402 m -5 X s 1447
 408 m -2 X s 1447 414 m -2 X s 1447 420 m -2 X s 1447 426 m -2 X s 1450 432 m -5 X s 1447 439 m -2 X s 1447 445 m -2 X s 1447 451 m -2 X s 1447 457 m -2 X s 1450 463 m -5 X s 1447 469 m -2 X s 1447 475 m -2 X s 1447 481 m -2 X s 1447 488 m -2 X s
 1450 494 m -5 X s 1447 500 m -2 X s 1447 506 m -2 X s 1447 512 m -2 X s 1447 518 m -2 X s 1450 524 m -5 X s 1447 531 m -2 X s 1447 537 m -2 X s 1447 543 m -2 X s 1447 549 m -2 X s 1450 555 m -5 X s 1447 561 m -2 X s 1447 567 m -2 X s 1447 573 m -2 X
 s 1447 580 m -2 X s 1450 586 m -5 X s 1447 592 m -2 X s 1447 598 m -2 X s 1447 604 m -2 X s 1447 610 m -2 X s 1450 616 m -5 X s 1450 402 m -5 X s 1447 396 m -2 X s 1450 616 m -5 X s
 gsave  408 306 1383 345 C 1390.26 395.996 t 0 r /Helvetica findfont 22.8295 sf 0 0 m (\2550.04) show NC gr 
 gsave  408 306 1383 345 C 1390.26 424.485 t 0 r /Helvetica findfont 22.8295 sf 0 0 m (\2550.03) show NC gr 
 gsave  408 306 1383 345 C 1390.26 455.822 t 0 r /Helvetica findfont 22.8295 sf 0 0 m (\2550.02) show NC gr 
 gsave  408 306 1383 345 C 1393.11 487.16 t 0 r /Helvetica findfont 22.8295 sf 0 0 m (\2550.01) show NC gr 
 gsave  408 306 1383 345 C 1427.29 518.498 t 0 r /Helvetica findfont 22.8295 sf 0 0 m (0) show NC gr 
 gsave  408 306 1383 345 C 1398.81 546.987 t 0 r /Helvetica findfont 22.8295 sf 0 0 m (0.01) show NC gr 
 gsave  408 306 1383 345 C 1395.96 578.325 t 0 r /Helvetica findfont 22.8295 sf 0 0 m (0.02) show NC gr 
 gsave  408 306 1383 345 C 1395.96 609.662 t 0 r /Helvetica findfont 22.8295 sf 0 0 m (0.03) show NC gr  1751 391 m 229 Y s 1745 402 m 6 X s 1748 408 m 3 X s 1748 414 m 3 X s 1748 420 m 3 X s 1748 426 m 3 X s 1745 432 m 6 X s 1748 439 m 3 X s 1748
 445 m 3 X s 1748 451 m 3 X s 1748 457 m 3 X s 1745 463 m 6 X s 1748 469 m 3 X s 1748 475 m 3 X s 1748 481 m 3 X s 1748 488 m 3 X s 1745 494 m 6 X s 1748 500 m 3 X s 1748 506 m 3 X s 1748 512 m 3 X s 1748 518 m 3 X s 1745 524 m 6 X s 1748 531 m 3 X s
 1748 537 m 3 X s 1748 543 m 3 X s 1748 549 m 3 X s 1745 555 m 6 X s 1748 561 m 3 X s 1748 567 m 3 X s 1748 573 m 3 X s 1748 580 m 3 X s 1745 586 m 6 X s 1748 592 m 3 X s 1748 598 m 3 X s 1748 604 m 3 X s 1748 610 m 3 X s 1745 616 m 6 X s 1745 402 m
 6 X s 1748 396 m 3 X s 1745 616 m 6 X s 1540 524 1635 564 1730 446 3 { m21} R 1540 535 m 25 Y s 1534 560 m 11 X s 1540 512 m -25 Y s 1534 487 m 11 X s 1635 575 m 26 Y s 1629 601 m 11 X s 1635 553 m -26 Y s 1629 527 m 11 X s 1730 458 m 24 Y s 1724
 482 m 11 X s 1730 435 m -25 Y s 1724 410 m 11 X s 1 0 0 c 9 lw 0.95 0.95 0.95 c black 1 0 0 c 1446 524 m 34 X 3 -1 d 15 X 3 -1 d 9 X 3 -1 d 10 X 3 -1 d 6 X 3 -1 d 6 X 3 -1 d 3 X 3 -1 d 6 X 3 -1 d 3 X 3 -1 d 4 X 3 -1 d 3 X 3 -1 d 3 X 3 -1 d 3 X 3 -1
 d 3 X 3 -1 d s 1596 510 m 3 -1 d 3 X 3 -1 d 3 X 3 -1 d 3 -1 d 4 X 3 -1 d 3 -1 d 3 X 3 -1 d 3 -1 d 3 -1 d 3 X 3 -1 d 3 -1 d 3 -1 d 3 X 3 -1 d 3 -1 d 3 -1 d 3 -1 d 3 -1 d 4 X 3 -1 d 3 -1 d 3 -1 d 3 -1 d 3 -1 d 3 -1 d 3 -1 d 3 -1 d 3 -1 d 3 -1 d 3 -1 d
 3 -1 d 3 -1 d 3 -1 d 3 -1 d 4 -1 d 3 -1 d 3 -1 d 3 -1 d 3 -1 d 3 -1 d 3 -1 d 3 -1 d 3 -2 d 3 -1 d s 1746 467 m 3 -1 d s 0.49 0.6 0.82 c black 0.49 0.6 0.82 c
 gsave  408 306 1383 345 C 1504.21 629.605 t 0 r /Helvetica-Bold findfont 25.6831 sf 0 0 m (6.5 < E < 7.0 GeV) show NC gr  0.52 0.76 0.64 c black 0.52 0.76 0.64 c
 gsave  408 306 1383 345 C 1484.27 592.569 t 0 r /Helvetica-Bold findfont 25.6831 sf 0 0 m 
 228 214 200 193 178 171 156 149 134 126 119 105 91 77 69 55 47 40 25 17
(A = \2550.007, p = 2.000) K NC gr  1 0.6 1 c black 1 0.6 1 c
 gsave  408 306 1383 345 C 1789.1 458.671 t 90 r /Helvetica-Bold findfont 28.5368 sf 0 0 m (/dof=1.7) show NC gr  black 1 0.6 1 c
 gsave  408 306 1383 345 C 1777.71 447.276 t 90 r /Helvetica-Bold findfont 19.9758 sf 0 0 m (2) show NC gr  black 1 0.6 1 c
 gsave  408 306 1383 345 C 1789.1 430.182 t 90 r /Symbol findfont 28.5368 sf 0 0 m (c) show NC gr  black 3 lw 1 1 1 c 408 306 1837 345 bf black 1 1 1 c black 306 229 1898 391 bl 306 229 1898 391 bl 1898 391 m 306 X s 1898 395 m -4 Y s 1993 395 m -4 Y
 s 2088 395 m -4 Y s 2183 395 m -4 Y s 2183 395 m -4 Y s
 gsave  408 306 1837 345 C 1888.81 370.356 t 0 r /Helvetica findfont 22.8295 sf 0 0 m (0) show NC gr 
 gsave  408 306 1837 345 C 1974.28 370.356 t 0 r /Helvetica findfont 22.8295 sf 0 0 m (0.5) show NC gr 
 gsave  408 306 1837 345 C 2079.69 370.356 t 0 r /Helvetica findfont 22.8295 sf 0 0 m (1) show NC gr 
 gsave  408 306 1837 345 C 2165.16 370.356 t 0 r /Helvetica findfont 22.8295 sf 0 0 m (1.5) show NC gr  1898 620 m 306 X s 1898 616 m 4 Y s 1993 616 m 4 Y s 2088 616 m 4 Y s 2183 616 m 4 Y s 2183 616 m 4 Y s 1898 391 m 229 Y s 1904 414 m -6 X s 1901
 420 m -3 X s 1901 425 m -3 X s 1901 431 m -3 X s 1901 437 m -3 X s 1904 442 m -6 X s 1901 448 m -3 X s 1901 454 m -3 X s 1901 459 m -3 X s 1901 465 m -3 X s 1904 471 m -6 X s 1901 476 m -3 X s 1901 482 m -3 X s 1901 488 m -3 X s 1901 493 m -3 X s
 1904 499 m -6 X s 1901 505 m -3 X s 1901 510 m -3 X s 1901 516 m -3 X s 1901 522 m -3 X s 1904 527 m -6 X s 1901 533 m -3 X s 1901 539 m -3 X s 1901 545 m -3 X s 1901 550 m -3 X s 1904 556 m -6 X s 1901 562 m -3 X s 1901 567 m -3 X s 1901 573 m -3 X
 s 1901 579 m -3 X s 1904 584 m -6 X s 1901 590 m -3 X s 1901 596 m -3 X s 1901 601 m -3 X s 1901 607 m -3 X s 1904 613 m -6 X s 1904 414 m -6 X s 1901 408 m -3 X s 1901 403 m -3 X s 1901 397 m -3 X s 1901 391 m -3 X s 1904 613 m -6 X s 1901 618 m -3
 X s
 gsave  408 306 1837 345 C 1828.99 407.391 t 0 r /Helvetica findfont 22.8295 sf 0 0 m (\2550.015) show NC gr 
 gsave  408 306 1837 345 C 1846.08 435.88 t 0 r /Helvetica findfont 22.8295 sf 0 0 m (\2550.01) show NC gr 
 gsave  408 306 1837 345 C 1828.99 464.369 t 0 r /Helvetica findfont 22.8295 sf 0 0 m (\2550.005) show NC gr 
 gsave  408 306 1837 345 C 1880.27 492.858 t 0 r /Helvetica findfont 22.8295 sf 0 0 m (0) show NC gr 
 gsave  408 306 1837 345 C 1837.53 521.347 t 0 r /Helvetica findfont 22.8295 sf 0 0 m (0.005) show NC gr 
 gsave  408 306 1837 345 C 1851.78 549.836 t 0 r /Helvetica findfont 22.8295 sf 0 0 m (0.01) show NC gr 
 gsave  408 306 1837 345 C 1837.53 578.325 t 0 r /Helvetica findfont 22.8295 sf 0 0 m (0.015) show NC gr 
 gsave  408 306 1837 345 C 1848.93 606.814 t 0 r /Helvetica findfont 22.8295 sf 0 0 m (0.02) show NC gr  2204 391 m 229 Y s 2199 414 m 5 X s 2201 420 m 3 X s 2201 425 m 3 X s 2201 431 m 3 X s 2201 437 m 3 X s 2199 442 m 5 X s 2201 448 m 3 X s 2201
 454 m 3 X s 2201 459 m 3 X s 2201 465 m 3 X s 2199 471 m 5 X s 2201 476 m 3 X s 2201 482 m 3 X s 2201 488 m 3 X s 2201 493 m 3 X s 2199 499 m 5 X s 2201 505 m 3 X s 2201 510 m 3 X s 2201 516 m 3 X s 2201 522 m 3 X s 2199 527 m 5 X s 2201 533 m 3 X s
 2201 539 m 3 X s 2201 545 m 3 X s 2201 550 m 3 X s 2199 556 m 5 X s 2201 562 m 3 X s 2201 567 m 3 X s 2201 573 m 3 X s 2201 579 m 3 X s 2199 584 m 5 X s 2201 590 m 3 X s 2201 596 m 3 X s 2201 601 m 3 X s 2201 607 m 3 X s 2199 613 m 5 X s 2199 414 m
 5 X s 2201 408 m 3 X s 2201 403 m 3 X s 2201 397 m 3 X s 2201 391 m 3 X s 2199 613 m 5 X s 2201 618 m 3 X s 1993 513 2088 487 2183 523 3 { m21} R 1993 525 m 66 Y s 1987 591 m 12 X s 1993 502 m -66 Y s 1987 436 m 12 X s 2088 499 m 66 Y s 2083 565 m
 11 X s 2088 476 m -66 Y s 2083 410 m 11 X s 2183 535 m 66 Y s 2178 601 m 11 X s 2183 512 m -66 Y s 2178 446 m 11 X s 1 0 0 c 9 lw 0.95 0.95 0.95 c black 1 0 0 c 1900 499 m 42 X 4 1 d 33 X 3 1 d 22 X 3 1 d 18 X 3 1 d 12 X 3 1 d 7 X s 2050 504 m 6 X 3
 1 d 12 X 3 1 d 9 X 3 1 d 10 X 3 1 d 9 X 3 1 d 6 X 3 1 d 9 X 3 1 d 6 X 3 1 d 7 X 3 1 d 6 X 3 1 d 6 X 3 1 d 6 X 3 1 d 6 X 3 1 d 3 X 4 1 d 6 X s 2200 518 m 3 1 d s 0.49 0.6 0.82 c black 0.49 0.6 0.82 c
 gsave  408 306 1837 345 C 1957.19 629.605 t 0 r /Helvetica-Bold findfont 25.6831 sf 0 0 m (7.0 < E < 7.5 GeV) show NC gr  0.52 0.76 0.64 c black 0.52 0.76 0.64 c
 gsave  408 306 1837 345 C 1942.94 592.569 t 0 r /Helvetica-Bold findfont 25.6831 sf 0 0 m 
 220 206 192 185 170 163 148 141 125 118 111 97 83 69 61 47 40 25 18
(A = 0.001, p = 2.000) K NC gr  1 0.6 1 c black 1 0.6 1 c
 gsave  408 306 1837 345 C 2242.08 458.671 t 90 r /Helvetica-Bold findfont 28.5368 sf 0 0 m (/dof=0.0) show NC gr  black 1 0.6 1 c
 gsave  408 306 1837 345 C 2230.68 447.276 t 90 r /Helvetica-Bold findfont 19.9758 sf 0 0 m (2) show NC gr  black 1 0.6 1 c
 gsave  408 306 1837 345 C 2242.08 430.182 t 90 r /Symbol findfont 28.5368 sf 0 0 m (c) show NC gr  black 3 lw 1 1 1 c 408 306 23 13 bf black 1 1 1 c black 306 229 84 59 bl 306 229 84 59 bl 84 59 m 306 X s 84 63 m -4 Y s 179 63 m -4 Y s 274 63 m -4 Y
 s 369 63 m -4 Y s 369 63 m -4 Y s
 gsave  408 306 23 13 C 74.0711 39.8845 t 0 r /Helvetica findfont 22.8295 sf 0 0 m (0) show NC gr 
 gsave  408 306 23 13 C 159.538 39.8845 t 0 r /Helvetica findfont 22.8295 sf 0 0 m (0.5) show NC gr 
 gsave  408 306 23 13 C 267.796 39.8845 t 0 r /Helvetica findfont 22.8295 sf 0 0 m (1) show NC gr 
 gsave  408 306 23 13 C 350.413 39.8845 t 0 r /Helvetica findfont 22.8295 sf 0 0 m (1.5) show NC gr  84 288 m 306 X s 84 284 m 4 Y s 179 284 m 4 Y s 274 284 m 4 Y s 369 284 m 4 Y s 369 284 m 4 Y s 84 59 m 229 Y s 89 97 m -5 X s 87 108 m -3 X s 87 119
 m -3 X s 87 131 m -3 X s 89 142 m -5 X s 87 153 m -3 X s 87 164 m -3 X s 87 175 m -3 X s 89 186 m -5 X s 87 198 m -3 X s 87 209 m -3 X s 87 220 m -3 X s 89 231 m -5 X s 87 242 m -3 X s 87 253 m -3 X s 87 264 m -3 X s 89 276 m -5 X s 89 97 m -5 X s
 87 86 m -3 X s 87 75 m -3 X s 87 64 m -3 X s 89 276 m -5 X s 87 287 m -3 X s
 gsave  408 306 23 13 C 28.4889 91.1645 t 0 r /Helvetica findfont 22.8295 sf 0 0 m (\2550.04) show NC gr 
 gsave  408 306 23 13 C 28.4889 133.898 t 0 r /Helvetica findfont 22.8295 sf 0 0 m (\2550.02) show NC gr 
 gsave  408 306 23 13 C 65.5245 179.48 t 0 r /Helvetica findfont 22.8295 sf 0 0 m (0) show NC gr 
 gsave  408 306 23 13 C 34.1867 225.062 t 0 r /Helvetica findfont 22.8295 sf 0 0 m (0.02) show NC gr 
 gsave  408 306 23 13 C 34.1867 267.796 t 0 r /Helvetica findfont 22.8295 sf 0 0 m (0.04) show NC gr  390 59 m 229 Y s 385 97 m 5 X s 387 108 m 3 X s 387 119 m 3 X s 387 131 m 3 X s 385 142 m 5 X s 387 153 m 3 X s 387 164 m 3 X s 387 175 m 3 X s 385
 186 m 5 X s 387 198 m 3 X s 387 209 m 3 X s 387 220 m 3 X s 385 231 m 5 X s 387 242 m 3 X s 387 253 m 3 X s 387 264 m 3 X s 385 276 m 5 X s 385 97 m 5 X s 387 86 m 3 X s 387 75 m 3 X s 387 64 m 3 X s 385 276 m 5 X s 387 287 m 3 X s /w 22 def /w2 {w
 2 div} def /w3 {w 3 div} def 179 235 274 111 369 195 3 { m21} R 179 247 m 22 Y s 173 269 m 12 X s 179 224 m -22 Y s 173 202 m 12 X s 274 122 m 21 Y s 268 143 m 12 X s 274 99 m -21 Y s 268 78 m 12 X s 369 206 m 22 Y s 363 228 m 12 X s 369 183 m -22 Y
 s 363 161 m 12 X s 9 lw 0.95 0.95 0.95 c black 85 186 m 10 X 3 -1 d 12 X 3 -1 d 15 X 3 -1 d 13 X 3 -1 d 12 X 3 -1 d 12 X 3 -1 d 13 X 3 -1 d 12 X 3 -1 d 12 X 3 -1 d 12 X s 235 177 m 4 X 3 -1 d 12 X 3 -1 d 12 X 3 -1 d 12 X 3 -1 d 13 X 3 -1 d 12 X 3 -1
 d 12 X 3 -1 d 13 X 3 -1 d 15 X 3 -1 d 12 X 3 -1 d 3 X s 385 167 m 4 X s 0.49 0.6 0.82 c black 0.49 0.6 0.82 c
 gsave  408 306 23 13 C 142.445 296.285 t 0 r /Helvetica-Bold findfont 25.6831 sf 0 0 m (7.5 < E < 8.0 GeV) show NC gr  0.52 0.76 0.64 c black 0.52 0.76 0.64 c
 gsave  408 306 23 13 C 122.502 259.249 t 0 r /Helvetica-Bold findfont 25.6831 sf 0 0 m 
 228 214 200 193 178 171 156 149 134 126 119 105 91 77 69 55 47 39 25 17
(A = \2550.005, p = 1.000) K NC gr  1 0.6 1 c black 1 0.6 1 c
 gsave  408 306 23 13 C 427.334 128.2 t 90 r /Helvetica-Bold findfont 28.5368 sf 0 0 m (/dof=3.5) show NC gr  black 1 0.6 1 c
 gsave  408 306 23 13 C 415.938 116.804 t 90 r /Helvetica-Bold findfont 19.9758 sf 0 0 m (2) show NC gr  black 1 0.6 1 c
 gsave  408 306 23 13 C 427.334 99.7112 t 90 r /Symbol findfont 28.5368 sf 0 0 m (c) show NC gr  black 3 lw 1 1 1 c 408 306 476 13 bf black 1 1 1 c black 307 229 537 59 bl 307 229 537 59 bl 537 59 m 307 X s 537 63 m -4 Y s 633 63 m -4 Y s 728 63 m -4
 Y s 823 63 m -4 Y s 823 63 m -4 Y s
 gsave  408 306 476 13 C 527.045 39.8845 t 0 r /Helvetica findfont 22.8295 sf 0 0 m (0) show NC gr 
 gsave  408 306 476 13 C 615.36 39.8845 t 0 r /Helvetica findfont 22.8295 sf 0 0 m (0.5) show NC gr 
 gsave  408 306 476 13 C 720.769 39.8845 t 0 r /Helvetica findfont 22.8295 sf 0 0 m (1) show NC gr 
 gsave  408 306 476 13 C 803.387 39.8845 t 0 r /Helvetica findfont 22.8295 sf 0 0 m (1.5) show NC gr  537 288 m 307 X s 537 284 m 4 Y s 633 284 m 4 Y s 728 284 m 4 Y s 823 284 m 4 Y s 823 284 m 4 Y s 537 59 m 229 Y s 543 69 m -6 X s 540 78 m -3 X s
 540 87 m -3 X s 540 96 m -3 X s 540 105 m -3 X s 543 114 m -6 X s 540 123 m -3 X s 540 132 m -3 X s 540 141 m -3 X s 540 150 m -3 X s 543 159 m -6 X s 540 168 m -3 X s 540 178 m -3 X s 540 187 m -3 X s 540 196 m -3 X s 543 205 m -6 X s 540 214 m -3
 X s 540 223 m -3 X s 540 232 m -3 X s 540 241 m -3 X s 543 250 m -6 X s 543 69 m -6 X s 540 60 m -3 X s 543 250 m -6 X s 540 259 m -3 X s 540 268 m -3 X s 540 277 m -3 X s 540 286 m -3 X s
 gsave  408 306 476 13 C 481.462 62.6756 t 0 r /Helvetica findfont 22.8295 sf 0 0 m (\2550.03) show NC gr 
 gsave  408 306 476 13 C 481.462 108.258 t 0 r /Helvetica findfont 22.8295 sf 0 0 m (\2550.02) show NC gr 
 gsave  408 306 476 13 C 484.311 150.991 t 0 r /Helvetica findfont 22.8295 sf 0 0 m (\2550.01) show NC gr 
 gsave  408 306 476 13 C 518.498 196.573 t 0 r /Helvetica findfont 22.8295 sf 0 0 m (0) show NC gr 
 gsave  408 306 476 13 C 490.009 242.156 t 0 r /Helvetica findfont 22.8295 sf 0 0 m (0.01) show NC gr  844 59 m 229 Y s 838 69 m 6 X s 841 78 m 3 X s 841 87 m 3 X s 841 96 m 3 X s 841 105 m 3 X s 838 114 m 6 X s 841 123 m 3 X s 841 132 m 3 X s 841
 141 m 3 X s 841 150 m 3 X s 838 159 m 6 X s 841 168 m 3 X s 841 178 m 3 X s 841 187 m 3 X s 841 196 m 3 X s 838 205 m 6 X s 841 214 m 3 X s 841 223 m 3 X s 841 232 m 3 X s 841 241 m 3 X s 838 250 m 6 X s 838 69 m 6 X s 841 60 m 3 X s 838 250 m 6 X s
 841 259 m 3 X s 841 268 m 3 X s 841 277 m 3 X s 841 286 m 3 X s /w 23 def /w2 {w 2 div} def /w3 {w 3 div} def 633 196 728 182 823 151 3 { m21} R 633 208 m 61 Y s 627 269 m 11 X s 633 185 m -62 Y s 627 123 m 11 X s 728 193 m 62 Y s 722 255 m 11 X s
 728 170 m -61 Y s 722 109 m 11 X s 823 162 m 62 Y s 817 224 m 11 X s 823 140 m -62 Y s 817 78 m 11 X s 1 0 0 c 9 lw 0.95 0.95 0.95 c black 1 0 0 c 539 205 m 12 X 3 -1 d 25 X 3 -1 d 12 X 3 -1 d 9 X 3 -1 d 7 X 3 -1 d 6 X 3 -1 d 6 X 3 -1 d 3 X 3 -1 d 3
 X 3 -1 d 6 X 3 -1 d 3 X 3 -1 d 4 X 3 -1 d 3 -1 d 3 X 3 -1 d 3 X 3 -1 d 3 X s 689 190 m 3 -1 d 3 -1 d 3 X 3 -1 d 3 -1 d 3 X 3 -1 d 3 -1 d 4 X 3 -1 d 3 -1 d 3 -1 d 3 X 3 -1 d 3 -1 d 3 -1 d 3 -1 d 3 X 3 -1 d 3 -1 d 3 -1 d 3 -1 d 3 -1 d 3 -1 d 4 -1 d 3
 -1 d 3 X 3 -1 d 3 -1 d 3 -1 d 3 -1 d 3 -1 d 3 -1 d 3 -1 d 3 -1 d 3 -1 d 3 -2 d 3 -1 d 3 -1 d 3 -1 d 4 -1 d 3 -1 d 3 -1 d 3 -1 d 3 -1 d 3 -2 d 3 -1 d 3 -1 d 3 -1 d s 839 145 m 3 -1 d s 0.49 0.6 0.82 c black 0.49 0.6 0.82 c
 gsave  408 306 476 13 C 595.418 296.285 t 0 r /Helvetica-Bold findfont 25.6831 sf 0 0 m (8.0 < E < 8.5 GeV) show NC gr  0.52 0.76 0.64 c black 0.52 0.76 0.64 c
 gsave  408 306 476 13 C 575.476 259.249 t 0 r /Helvetica-Bold findfont 25.6831 sf 0 0 m 
 228 214 200 193 178 171 156 149 133 126 119 105 91 76 69 55 47 39 25 17
(A = \2550.005, p = 2.000) K NC gr  1 0.6 1 c black 1 0.6 1 c
 gsave  408 306 476 13 C 883.156 128.2 t 90 r /Helvetica-Bold findfont 28.5368 sf 0 0 m (/dof=0.0) show NC gr  black 1 0.6 1 c
 gsave  408 306 476 13 C 871.76 116.804 t 90 r /Helvetica-Bold findfont 19.9758 sf 0 0 m (2) show NC gr  black 1 0.6 1 c
 gsave  408 306 476 13 C 883.156 99.7112 t 90 r /Symbol findfont 28.5368 sf 0 0 m (c) show NC gr  black 3 lw 1 1 1 c 408 306 930 13 bf black 1 1 1 c black 306 229 991 59 bl 306 229 991 59 bl 991 59 m 306 X s 991 63 m -4 Y s 1086 63 m -4 Y s 1181 63 m
 -4 Y s 1276 63 m -4 Y s 1276 63 m -4 Y s
 gsave  408 306 930 13 C 980.018 39.8845 t 0 r /Helvetica findfont 22.8295 sf 0 0 m (0) show NC gr 
 gsave  408 306 930 13 C 1068.33 39.8845 t 0 r /Helvetica findfont 22.8295 sf 0 0 m (0.5) show NC gr 
 gsave  408 306 930 13 C 1173.74 39.8845 t 0 r /Helvetica findfont 22.8295 sf 0 0 m (1) show NC gr 
 gsave  408 306 930 13 C 1256.36 39.8845 t 0 r /Helvetica findfont 22.8295 sf 0 0 m (1.5) show NC gr  991 288 m 306 X s 991 284 m 4 Y s 1086 284 m 4 Y s 1181 284 m 4 Y s 1276 284 m 4 Y s 1276 284 m 4 Y s 991 59 m 229 Y s 997 80 m -6 X s 994 87 m -3 X
 s 994 94 m -3 X s 994 101 m -3 X s 994 108 m -3 X s 997 115 m -6 X s 994 122 m -3 X s 994 129 m -3 X s 994 136 m -3 X s 994 143 m -3 X s 997 150 m -6 X s 994 157 m -3 X s 994 164 m -3 X s 994 171 m -3 X s 994 178 m -3 X s 997 185 m -6 X s 994 192 m
 -3 X s 994 199 m -3 X s 994 206 m -3 X s 994 213 m -3 X s 997 221 m -6 X s 994 228 m -3 X s 994 235 m -3 X s 994 242 m -3 X s 994 249 m -3 X s 997 256 m -6 X s 997 80 m -6 X s 994 73 m -3 X s 994 66 m -3 X s 997 256 m -6 X s 994 263 m -3 X s 994 270
 m -3 X s 994 277 m -3 X s 994 284 m -3 X s
 gsave  408 306 930 13 C 937.285 74.0711 t 0 r /Helvetica findfont 22.8295 sf 0 0 m (\2550.03) show NC gr 
 gsave  408 306 930 13 C 937.285 108.258 t 0 r /Helvetica findfont 22.8295 sf 0 0 m (\2550.02) show NC gr 
 gsave  408 306 930 13 C 940.134 142.445 t 0 r /Helvetica findfont 22.8295 sf 0 0 m (\2550.01) show NC gr 
 gsave  408 306 930 13 C 974.32 179.48 t 0 r /Helvetica findfont 22.8295 sf 0 0 m (0) show NC gr 
 gsave  408 306 930 13 C 945.832 213.667 t 0 r /Helvetica findfont 22.8295 sf 0 0 m (0.01) show NC gr 
 gsave  408 306 930 13 C 942.983 247.853 t 0 r /Helvetica findfont 22.8295 sf 0 0 m (0.02) show NC gr  1297 59 m 229 Y s 1292 80 m 5 X s 1294 87 m 3 X s 1294 94 m 3 X s 1294 101 m 3 X s 1294 108 m 3 X s 1292 115 m 5 X s 1294 122 m 3 X s 1294 129 m 3
 X s 1294 136 m 3 X s 1294 143 m 3 X s 1292 150 m 5 X s 1294 157 m 3 X s 1294 164 m 3 X s 1294 171 m 3 X s 1294 178 m 3 X s 1292 185 m 5 X s 1294 192 m 3 X s 1294 199 m 3 X s 1294 206 m 3 X s 1294 213 m 3 X s 1292 221 m 5 X s 1294 228 m 3 X s 1294
 235 m 3 X s 1294 242 m 3 X s 1294 249 m 3 X s 1292 256 m 5 X s 1292 80 m 5 X s 1294 73 m 3 X s 1294 66 m 3 X s 1292 256 m 5 X s 1294 263 m 3 X s 1294 270 m 3 X s 1294 277 m 3 X s 1294 284 m 3 X s 1086 198 1181 207 1276 139 3 { m21} R 1086 209 m 50 Y
 s 1080 259 m 12 X s 1086 186 m -50 Y s 1080 136 m 12 X s 1181 219 m 50 Y s 1175 269 m 12 X s 1181 196 m -50 Y s 1175 146 m 12 X s 1276 150 m 50 Y s 1271 200 m 11 X s 1276 127 m -49 Y s 1271 78 m 11 X s 1 0 0 c 9 lw 0.95 0.95 0.95 c black 1 0 0 c 993
 185 m 45 X 4 -1 d 21 X 3 -1 d 12 X 3 -1 d 13 X 3 -1 d 9 X 3 -1 d 9 X 3 -1 d 6 X 3 -1 d 6 X 3 -1 d 4 X s 1143 177 m 3 X 3 -1 d 6 X 3 -1 d 3 X 3 -1 d 6 X 3 -1 d 3 X 3 -1 d 6 X 3 -1 d 4 X 3 -1 d 3 X 3 -1 d 3 X 3 -1 d 3 X 3 -1 d 3 X 3 -1 d 3 X 3 -1 d 3
 X 3 -1 d 3 X 3 -1 d 3 X 4 -1 d 3 X 3 -1 d 3 -1 d 3 X 3 -1 d 3 X 3 -1 d 3 -1 d 3 X 3 -1 d 3 X 3 -1 d 3 -1 d 3 X 3 -1 d 4 -1 d s 1293 152 m 3 X s 0.49 0.6 0.82 c black 0.49 0.6 0.82 c
 gsave  408 306 930 13 C 1051.24 296.285 t 0 r /Helvetica-Bold findfont 25.6831 sf 0 0 m (8.5 < E < 9.0 GeV) show NC gr  0.52 0.76 0.64 c black 0.52 0.76 0.64 c
 gsave  408 306 930 13 C 1031.3 259.249 t 0 r /Helvetica-Bold findfont 25.6831 sf 0 0 m 
 228 214 200 193 178 171 156 149 133 126 119 105 91 77 69 55 47 39 25 17
(A = \2550.004, p = 2.000) K NC gr  1 0.6 1 c black 1 0.6 1 c
 gsave  408 306 930 13 C 1336.13 128.2 t 90 r /Helvetica-Bold findfont 28.5368 sf 0 0 m (/dof=0.2) show NC gr  black 1 0.6 1 c
 gsave  408 306 930 13 C 1324.73 116.804 t 90 r /Helvetica-Bold findfont 19.9758 sf 0 0 m (2) show NC gr  black 1 0.6 1 c
 gsave  408 306 930 13 C 1336.13 99.7112 t 90 r /Symbol findfont 28.5368 sf 0 0 m (c) show NC gr  black 3 lw 1 1 1 c 408 306 1383 13 bf black 1 1 1 c black 306 229 1445 59 bl 306 229 1445 59 bl 1445 59 m 306 X s 1445 63 m -4 Y s 1540 63 m -4 Y s 1635
 63 m -4 Y s 1730 63 m -4 Y s 1730 63 m -4 Y s
 gsave  408 306 1383 13 C 1435.84 39.8845 t 0 r /Helvetica findfont 22.8295 sf 0 0 m (0) show NC gr 
 gsave  408 306 1383 13 C 1521.31 39.8845 t 0 r /Helvetica findfont 22.8295 sf 0 0 m (0.5) show NC gr 
 gsave  408 306 1383 13 C 1626.72 39.8845 t 0 r /Helvetica findfont 22.8295 sf 0 0 m (1) show NC gr 
 gsave  408 306 1383 13 C 1712.18 39.8845 t 0 r /Helvetica findfont 22.8295 sf 0 0 m (1.5) show NC gr  1445 288 m 306 X s 1445 284 m 4 Y s 1540 284 m 4 Y s 1635 284 m 4 Y s 1730 284 m 4 Y s 1730 284 m 4 Y s 1445 59 m 229 Y s 1450 89 m -5 X s 1447 96
 m -2 X s 1447 103 m -2 X s 1447 109 m -2 X s 1447 116 m -2 X s 1450 123 m -5 X s 1447 130 m -2 X s 1447 137 m -2 X s 1447 143 m -2 X s 1447 150 m -2 X s 1450 157 m -5 X s 1447 164 m -2 X s 1447 171 m -2 X s 1447 178 m -2 X s 1447 184 m -2 X s 1450
 191 m -5 X s 1447 198 m -2 X s 1447 205 m -2 X s 1447 212 m -2 X s 1447 219 m -2 X s 1450 225 m -5 X s 1447 232 m -2 X s 1447 239 m -2 X s 1447 246 m -2 X s 1447 253 m -2 X s 1450 260 m -5 X s 1450 89 m -5 X s 1447 82 m -2 X s 1447 75 m -2 X s 1447
 68 m -2 X s 1447 62 m -2 X s 1450 260 m -5 X s 1447 266 m -2 X s 1447 273 m -2 X s 1447 280 m -2 X s 1447 287 m -2 X s
 gsave  408 306 1383 13 C 1390.26 82.6178 t 0 r /Helvetica findfont 22.8295 sf 0 0 m (\2550.03) show NC gr 
 gsave  408 306 1383 13 C 1390.26 116.804 t 0 r /Helvetica findfont 22.8295 sf 0 0 m (\2550.02) show NC gr 
 gsave  408 306 1383 13 C 1393.11 150.991 t 0 r /Helvetica findfont 22.8295 sf 0 0 m (\2550.01) show NC gr 
 gsave  408 306 1383 13 C 1427.29 185.178 t 0 r /Helvetica findfont 22.8295 sf 0 0 m (0) show NC gr 
 gsave  408 306 1383 13 C 1398.81 219.365 t 0 r /Helvetica findfont 22.8295 sf 0 0 m (0.01) show NC gr 
 gsave  408 306 1383 13 C 1395.96 253.551 t 0 r /Helvetica findfont 22.8295 sf 0 0 m (0.02) show NC gr  1751 59 m 229 Y s 1745 89 m 6 X s 1748 96 m 3 X s 1748 103 m 3 X s 1748 109 m 3 X s 1748 116 m 3 X s 1745 123 m 6 X s 1748 130 m 3 X s 1748 137 m
 3 X s 1748 143 m 3 X s 1748 150 m 3 X s 1745 157 m 6 X s 1748 164 m 3 X s 1748 171 m 3 X s 1748 178 m 3 X s 1748 184 m 3 X s 1745 191 m 6 X s 1748 198 m 3 X s 1748 205 m 3 X s 1748 212 m 3 X s 1748 219 m 3 X s 1745 225 m 6 X s 1748 232 m 3 X s 1748
 239 m 3 X s 1748 246 m 3 X s 1748 253 m 3 X s 1745 260 m 6 X s 1745 89 m 6 X s 1748 82 m 3 X s 1748 75 m 3 X s 1748 68 m 3 X s 1748 62 m 3 X s 1745 260 m 6 X s 1748 266 m 3 X s 1748 273 m 3 X s 1748 280 m 3 X s 1748 287 m 3 X s 1540 141 1635 199
 1730 205 3 { m21} R 1540 153 m 52 Y s 1534 205 m 11 X s 1540 130 m -52 Y s 1534 78 m 11 X s 1635 211 m 52 Y s 1629 263 m 11 X s 1635 188 m -53 Y s 1629 135 m 11 X s 1730 216 m 53 Y s 1724 269 m 11 X s 1730 193 m -52 Y s 1724 141 m 11 X s 1 0 0 c 9
 lw 0.95 0.95 0.95 c black 1 0 0 c 1446 191 m 40 X 3 1 d 55 X 3 1 d 34 X 3 1 d 12 X s 1596 194 m 12 X 3 1 d 22 X 3 1 d 18 X 3 1 d 19 X 3 1 d 15 X 3 1 d 12 X 3 1 d 13 X 3 1 d 12 X 3 1 d 3 X s 1746 202 m 3 X s 0.49 0.6 0.82 c black 0.49 0.6 0.82 c
 gsave  408 306 1383 13 C 1504.21 296.285 t 0 r /Helvetica-Bold findfont 25.6831 sf 0 0 m (9.0 < E < 9.5 GeV) show NC gr  0.52 0.76 0.64 c black 0.52 0.76 0.64 c
 gsave  408 306 1383 13 C 1489.97 259.249 t 0 r /Helvetica-Bold findfont 25.6831 sf 0 0 m 
 220 206 192 185 170 163 148 141 126 118 111 97 83 69 61 47 40 25 18
(A = 0.001, p = 2.000) K NC gr  1 0.6 1 c black 1 0.6 1 c
 gsave  408 306 1383 13 C 1789.1 128.2 t 90 r /Helvetica-Bold findfont 28.5368 sf 0 0 m (/dof=0.3) show NC gr  black 1 0.6 1 c
 gsave  408 306 1383 13 C 1777.71 116.804 t 90 r /Helvetica-Bold findfont 19.9758 sf 0 0 m (2) show NC gr  black 1 0.6 1 c
 gsave  408 306 1383 13 C 1789.1 99.7112 t 90 r /Symbol findfont 28.5368 sf 0 0 m (c) show NC gr  black 3 lw 1 1 1 c 408 306 1837 13 bf black 1 1 1 c black 306 229 1898 59 bl 306 229 1898 59 bl 1898 59 m 306 X s 1898 63 m -4 Y s 1993 63 m -4 Y s 2088
 63 m -4 Y s 2183 63 m -4 Y s 2183 63 m -4 Y s
 gsave  408 306 1837 13 C 1888.81 39.8845 t 0 r /Helvetica findfont 22.8295 sf 0 0 m (0) show NC gr 
 gsave  408 306 1837 13 C 1974.28 39.8845 t 0 r /Helvetica findfont 22.8295 sf 0 0 m (0.5) show NC gr 
 gsave  408 306 1837 13 C 2079.69 39.8845 t 0 r /Helvetica findfont 22.8295 sf 0 0 m (1) show NC gr 
 gsave  408 306 1837 13 C 2165.16 39.8845 t 0 r /Helvetica findfont 22.8295 sf 0 0 m (1.5) show NC gr  1898 288 m 306 X s 1898 284 m 4 Y s 1993 284 m 4 Y s 2088 284 m 4 Y s 2183 284 m 4 Y s 2183 284 m 4 Y s 1898 59 m 229 Y s 1904 74 m -6 X s 1901 78
 m -3 X s 1901 83 m -3 X s 1901 88 m -3 X s 1901 93 m -3 X s 1904 98 m -6 X s 1901 103 m -3 X s 1901 107 m -3 X s 1901 112 m -3 X s 1901 117 m -3 X s 1904 122 m -6 X s 1901 127 m -3 X s 1901 132 m -3 X s 1901 136 m -3 X s 1901 141 m -3 X s 1904 146 m
 -6 X s 1901 151 m -3 X s 1901 156 m -3 X s 1901 161 m -3 X s 1901 165 m -3 X s 1904 170 m -6 X s 1901 175 m -3 X s 1901 180 m -3 X s 1901 185 m -3 X s 1901 190 m -3 X s 1904 194 m -6 X s 1901 199 m -3 X s 1901 204 m -3 X s 1901 209 m -3 X s 1901 214
 m -3 X s 1904 219 m -6 X s 1901 223 m -3 X s 1901 228 m -3 X s 1901 233 m -3 X s 1901 238 m -3 X s 1904 243 m -6 X s 1901 248 m -3 X s 1901 252 m -3 X s 1901 257 m -3 X s 1901 262 m -3 X s 1904 267 m -6 X s 1904 74 m -6 X s 1901 69 m -3 X s 1901 64
 m -3 X s 1901 59 m -3 X s 1904 267 m -6 X s 1901 272 m -3 X s 1901 277 m -3 X s 1901 281 m -3 X s 1901 286 m -3 X s
 gsave  408 306 1837 13 C 1843.23 65.5245 t 0 r /Helvetica findfont 22.8295 sf 0 0 m (\2550.05) show NC gr 
 gsave  408 306 1837 13 C 1843.23 91.1645 t 0 r /Helvetica findfont 22.8295 sf 0 0 m (\2550.04) show NC gr 
 gsave  408 306 1837 13 C 1843.23 113.956 t 0 r /Helvetica findfont 22.8295 sf 0 0 m (\2550.03) show NC gr 
 gsave  408 306 1837 13 C 1843.23 139.596 t 0 r /Helvetica findfont 22.8295 sf 0 0 m (\2550.02) show NC gr 
 gsave  408 306 1837 13 C 1846.08 162.387 t 0 r /Helvetica findfont 22.8295 sf 0 0 m (\2550.01) show NC gr 
 gsave  408 306 1837 13 C 1880.27 188.027 t 0 r /Helvetica findfont 22.8295 sf 0 0 m (0) show NC gr 
 gsave  408 306 1837 13 C 1851.78 210.818 t 0 r /Helvetica findfont 22.8295 sf 0 0 m (0.01) show NC gr 
 gsave  408 306 1837 13 C 1848.93 236.458 t 0 r /Helvetica findfont 22.8295 sf 0 0 m (0.02) show NC gr 
 gsave  408 306 1837 13 C 1848.93 259.249 t 0 r /Helvetica findfont 22.8295 sf 0 0 m (0.03) show NC gr  2204 59 m 229 Y s 2199 74 m 5 X s 2201 78 m 3 X s 2201 83 m 3 X s 2201 88 m 3 X s 2201 93 m 3 X s 2199 98 m 5 X s 2201 103 m 3 X s 2201 107 m 3 X
 s 2201 112 m 3 X s 2201 117 m 3 X s 2199 122 m 5 X s 2201 127 m 3 X s 2201 132 m 3 X s 2201 136 m 3 X s 2201 141 m 3 X s 2199 146 m 5 X s 2201 151 m 3 X s 2201 156 m 3 X s 2201 161 m 3 X s 2201 165 m 3 X s 2199 170 m 5 X s 2201 175 m 3 X s 2201 180
 m 3 X s 2201 185 m 3 X s 2201 190 m 3 X s 2199 194 m 5 X s 2201 199 m 3 X s 2201 204 m 3 X s 2201 209 m 3 X s 2201 214 m 3 X s 2199 219 m 5 X s 2201 223 m 3 X s 2201 228 m 3 X s 2201 233 m 3 X s 2201 238 m 3 X s 2199 243 m 5 X s 2201 248 m 3 X s
 2201 252 m 3 X s 2201 257 m 3 X s 2201 262 m 3 X s 2199 267 m 5 X s 2199 74 m 5 X s 2201 69 m 3 X s 2201 64 m 3 X s 2201 59 m 3 X s 2199 267 m 5 X s 2201 272 m 3 X s 2201 277 m 3 X s 2201 281 m 3 X s 2201 286 m 3 X s 1993 220 2088 126 2183 169 3 {
 m21} R 1993 232 m 37 Y s 1987 269 m 12 X s 1993 209 m -38 Y s 1987 171 m 12 X s 2088 137 m 36 Y s 2083 173 m 11 X s 2088 114 m -36 Y s 2083 78 m 11 X s 2183 180 m 37 Y s 2178 217 m 11 X s 2183 157 m -37 Y s 2178 120 m 11 X s 9 lw 0.95 0.95 0.95 c
 black 1900 194 m 3 X 3 -1 d 3 X 3 -1 d 6 X 3 -1 d 3 X 3 -1 d 3 X 3 -1 d 3 X 3 -1 d 7 X 3 -1 d 3 X 3 -1 d 3 X 3 -1 d 3 X 3 -1 d 6 X 3 -1 d 3 X 3 -1 d 3 X 3 -1 d 3 X 4 -1 d 6 X 3 -1 d 3 X 3 -1 d 3 X 3 -1 d 3 X 3 -1 d 6 X 3 -1 d 3 X 3 -1 d 3 X 3 -1 d 4
 X 3 -1 d s 2050 172 m 6 X 3 -1 d 3 X 3 -1 d 3 X 3 -1 d 3 X 3 -1 d 6 X 3 -1 d 3 X 3 -1 d 4 X 3 -1 d 3 X 3 -1 d 6 X 3 -1 d 3 X 3 -1 d 3 X 3 -1 d 3 X 3 -1 d 6 X 3 -1 d 4 X 3 -1 d 3 X 3 -1 d 3 X 3 -1 d 6 X 3 -1 d 3 X 3 -1 d 3 X 3 -1 d 3 X 3 -1 d 7 X 3
 -1 d 3 X s 2200 151 m 3 -1 d s 0.49 0.6 0.82 c black 0.49 0.6 0.82 c
 gsave  408 306 1837 13 C 1948.64 296.285 t 0 r /Helvetica-Bold findfont 25.6831 sf 0 0 m (9.5 < E < 10.0 GeV) show NC gr  0.52 0.76 0.64 c black 0.52 0.76 0.64 c
 gsave  408 306 1837 13 C 1937.25 259.249 t 0 r /Helvetica-Bold findfont 25.6831 sf 0 0 m 
 227 213 199 192 177 170 155 148 132 125 118 104 91 77 70 56 47 40 25 18
(A = \2550.011, p = 1.000) K NC gr  1 0.6 1 c black 1 0.6 1 c
 gsave  408 306 1837 13 C 2242.08 128.2 t 90 r /Helvetica-Bold findfont 28.5368 sf 0 0 m (/dof=0.8) show NC gr  black 1 0.6 1 c
 gsave  408 306 1837 13 C 2230.68 116.804 t 90 r /Helvetica-Bold findfont 19.9758 sf 0 0 m (2) show NC gr  black 1 0.6 1 c
 gsave  408 306 1837 13 C 2242.08 99.7112 t 90 r /Symbol findfont 28.5368 sf 0 0 m (c) show NC gr 
 gr  gr showpage
end
%%EOF
