%!PS-Adobe-2.0 EPSF-2.0
%%BoundingBox:  0 0 567 332
%%Title: NominalWaterLayer__far_summary.eps: Summary
%%Creator: ROOT Version 5.30/06
%%CreationDate: Sun Feb  2 09:37:03 2014
%%EndComments
%%BeginProlog
80 dict begin
/s {stroke} def /l {lineto} def /m {moveto} def /t {translate} def
/r {rotate} def /rl {roll}  def /R {repeat} def
/d {rlineto} def /rm {rmoveto} def /gr {grestore} def /f {eofill} def
/c {setrgbcolor} def /black {0 setgray} def /sd {setdash} def
/cl {closepath} def /sf {scalefont setfont} def /lw {setlinewidth} def
/box {m dup 0 exch d exch 0 d 0 exch neg d cl} def
/NC{systemdict begin initclip end}def/C{NC box clip newpath}def
/bl {box s} def /bf {box f} def /Y { 0 exch d} def /X { 0 d} def 
/K {{pop pop 0 moveto} exch kshow} bind def
/ita {/ang 15 def gsave [1 0 ang dup sin exch cos div 1 0 0] concat} def 
/mp {newpath /y exch def /x exch def} def
/side {[w .77 mul w .23 mul] .385 w mul sd w 0 l currentpoint t -144 r} def
/mr {mp x y w2 0 360 arc} def /m24 {mr s} def /m20 {mr f} def
/mb {mp x y w2 add m w2 neg 0 d 0 w neg d w 0 d 0 w d cl} def
/mt {mp x y w2 add m w2 neg w neg d w 0 d cl} def
/m21 {mb f} def /m25 {mb s} def /m22 {mt f} def /m26{mt s} def
/m23 {mp x y w2 sub m w2 w d w neg 0 d cl f} def
/m27 {mp x y w2 add m w3 neg w2 neg d w3 w2 neg d w3 w2 d cl s} def
/m28 {mp x w2 sub y w2 sub w3 add m w3 0 d  0 w3 neg d w3 0 d 0 w3 d w3 0 d  0 w3 d w3 neg 0 d 0 w3 d w3 neg 0 d 0 w3 neg d w3 neg 0 d cl s } def
/m29 {mp gsave x w2 sub y w2 add w3 sub m currentpoint t 4 {side} repeat cl fill gr} def
/m30 {mp gsave x w2 sub y w2 add w3 sub m currentpoint t 4 {side} repeat cl s gr} def
/m31 {mp x y w2 sub m 0 w d x w2 sub y m w 0 d x w2 sub y w2 add m w w neg d x w2 sub y w2 sub m w w d s} def
/m32 {mp x y w2 sub m w2 w d w neg 0 d cl s} def
/m33 {mp x y w2 add m w3 neg w2 neg d w3 w2 neg d w3 w2 d cl f} def
/m34 {mp x w2 sub y w2 sub w3 add m w3 0 d  0 w3 neg d w3 0 d 0 w3 d w3 0 d  0 w3 d w3 neg 0 d 0 w3 d w3 neg 0 d 0 w3 neg d w3 neg 0 d cl f } def
/m2 {mp x y w2 sub m 0 w d x w2 sub y m w 0 d s} def
/m5 {mp x w2 sub y w2 sub m w w d x w2 sub y w2 add m w w neg d s} def
/reEncode {exch findfont dup length dict begin {1 index /FID eq  {pop pop} {def} ifelse } forall /Encoding exch def currentdict end dup /FontName get exch definefont pop } def [/Times-Bold /Times-Italic /Times-BoldItalic /Helvetica /Helvetica-Oblique
 /Helvetica-Bold /Helvetica-BoldOblique /Courier /Courier-Oblique /Courier-Bold /Courier-BoldOblique /Times-Roman /AvantGarde-Book /AvantGarde-BookOblique /AvantGarde-Demi /AvantGarde-DemiOblique /Bookman-Demi /Bookman-DemiItalic /Bookman-Light
 /Bookman-LightItalic /Helvetica-Narrow /Helvetica-Narrow-Bold /Helvetica-Narrow-BoldOblique /Helvetica-Narrow-Oblique /NewCenturySchlbk-Roman /NewCenturySchlbk-Bold /NewCenturySchlbk-BoldItalic /NewCenturySchlbk-Italic /Palatino-Bold
 /Palatino-BoldItalic /Palatino-Italic /Palatino-Roman ] {ISOLatin1Encoding reEncode } forall%%EndProlog
%%BeginSetup
%%EndSetup
newpath  gsave  .25 .25 scale  gsave  0 0 t black[  ] 0 sd 3 lw 1 1 1 c 2268 1328 0 0 bf black 1 1 1 c black 1588 996 340 199 bl 1588 996 340 199 bl 1 1 1 c 1 0 0 c /w 23 def /w2 {w 2 div} def /w3 {w 3 div} def 380 332 m21 459 305 m21 539 293 m21 618
 303 m21 697 294 m21 777 293 m21 856 288 m21 935 280 m21 1015 290 m21 black 1094 286 m 4 Y s 1094 312 m 4 Y s 1088 286 m 12 X s 1088 316 m 12 X s 1 0 0 c 1094 301 m21 black 1174 277 m 7 Y s 1174 307 m 7 Y s 1168 277 m 11 X s 1168 314 m 11 X s 1 0 0 c
 1174 295 m21 black 1253 305 m 12 Y s 1253 340 m 12 Y s 1247 305 m 12 X s 1247 352 m 12 X s 1 0 0 c 1253 329 m21 black 1332 310 m 18 Y s 1332 350 m 18 Y s 1327 310 m 11 X s 1327 368 m 11 X s 1 0 0 c 1332 339 m21 black 1412 307 m 22 Y s 1412 352 m 23
 Y s 1406 307 m 11 X s 1406 375 m 11 X s 1 0 0 c 1412 341 m21 black 1491 310 m 27 Y s 1491 360 m 27 Y s 1485 310 m 12 X s 1485 387 m 12 X s 1 0 0 c 1491 349 m21 black 1570 361 m 31 Y s 1570 415 m 32 Y s 1565 361 m 11 X s 1565 447 m 11 X s 1 0 0 c
 1570 404 m21 black 1650 290 m 35 Y s 1650 347 m 35 Y s 1644 290 m 11 X s 1644 382 m 11 X s 1 0 0 c 1650 336 m21 black 1729 301 m 39 Y s 1729 363 m 38 Y s 1723 301 m 12 X s 1723 401 m 12 X s 1 0 0 c 1729 351 m21 black 1809 247 m 41 Y s 1809 311 m 42
 Y s 1803 247 m 11 X s 1803 353 m 11 X s 1 0 0 c 1809 300 m21 black 1888 314 m 46 Y s 1888 383 m 46 Y s 1882 314 m 12 X s 1882 429 m 12 X s 1 0 0 c 1888 372 m21 black 340 199 m 1588 X s
 gsave  2268 1328 0 0 C 954.378 68.3734 t 0 r /Helvetica findfont 62.6756 sf 0 0 m ( Energy \(GeV\) ) show NC gr 
 gsave  2268 1328 0 0 C 928.738 51.28 t 0 r /Symbol findfont 42.7334 sf 0 0 m (m) show NC gr 
 gsave  2268 1328 0 0 C 894.552 68.3734 t 0 r /Symbol findfont 62.6756 sf 0 0 m (n) show NC gr  340 216 m -17 Y s 372 208 m -9 Y s 404 208 m -9 Y s 435 208 m -9 Y s 467 208 m -9 Y s 499 216 m -17 Y s 531 208 m -9 Y s 562 208 m -9 Y s 594 208 m -9 Y s
 626 208 m -9 Y s 658 216 m -17 Y s 689 208 m -9 Y s 721 208 m -9 Y s 753 208 m -9 Y s 785 208 m -9 Y s 816 216 m -17 Y s 848 208 m -9 Y s 880 208 m -9 Y s 912 208 m -9 Y s 943 208 m -9 Y s 975 216 m -17 Y s 1007 208 m -9 Y s 1039 208 m -9 Y s 1070
 208 m -9 Y s 1102 208 m -9 Y s 1134 216 m -17 Y s 1166 208 m -9 Y s 1197 208 m -9 Y s 1229 208 m -9 Y s 1261 208 m -9 Y s 1293 216 m -17 Y s 1324 208 m -9 Y s 1356 208 m -9 Y s 1388 208 m -9 Y s 1420 208 m -9 Y s 1451 216 m -17 Y s 1483 208 m -9 Y s
 1515 208 m -9 Y s 1547 208 m -9 Y s 1578 208 m -9 Y s 1610 216 m -17 Y s 1642 208 m -9 Y s 1674 208 m -9 Y s 1705 208 m -9 Y s 1737 208 m -9 Y s 1769 216 m -17 Y s 1801 208 m -9 Y s 1832 208 m -9 Y s 1864 208 m -9 Y s 1896 208 m -9 Y s 1928 216 m
 -17 Y s
 gsave  2268 1328 0 0 C 319.076 136.747 t 0 r /Helvetica findfont 68.3734 sf 0 0 m (0) show NC gr 
 gsave  2268 1328 0 0 C 484.311 136.747 t 0 r /Helvetica findfont 68.3734 sf 0 0 m (1) show NC gr 
 gsave  2268 1328 0 0 C 635.302 136.747 t 0 r /Helvetica findfont 68.3734 sf 0 0 m (2) show NC gr 
 gsave  2268 1328 0 0 C 794.84 136.747 t 0 r /Helvetica findfont 68.3734 sf 0 0 m (3) show NC gr 
 gsave  2268 1328 0 0 C 954.378 136.747 t 0 r /Helvetica findfont 68.3734 sf 0 0 m (4) show NC gr 
 gsave  2268 1328 0 0 C 1113.92 136.747 t 0 r /Helvetica findfont 68.3734 sf 0 0 m (5) show NC gr 
 gsave  2268 1328 0 0 C 1270.6 136.747 t 0 r /Helvetica findfont 68.3734 sf 0 0 m (6) show NC gr 
 gsave  2268 1328 0 0 C 1430.14 136.747 t 0 r /Helvetica findfont 68.3734 sf 0 0 m (7) show NC gr 
 gsave  2268 1328 0 0 C 1589.68 136.747 t 0 r /Helvetica findfont 68.3734 sf 0 0 m (8) show NC gr 
 gsave  2268 1328 0 0 C 1746.37 136.747 t 0 r /Helvetica findfont 68.3734 sf 0 0 m (9) show NC gr 
 gsave  2268 1328 0 0 C 1888.81 136.747 t 0 r /Helvetica findfont 68.3734 sf 0 0 m (10) show NC gr  340 1195 m 1588 X s 340 1178 m 17 Y s 372 1186 m 9 Y s 404 1186 m 9 Y s 435 1186 m 9 Y s 467 1186 m 9 Y s 499 1178 m 17 Y s 531 1186 m 9 Y s 562 1186
 m 9 Y s 594 1186 m 9 Y s 626 1186 m 9 Y s 658 1178 m 17 Y s 689 1186 m 9 Y s 721 1186 m 9 Y s 753 1186 m 9 Y s 785 1186 m 9 Y s 816 1178 m 17 Y s 848 1186 m 9 Y s 880 1186 m 9 Y s 912 1186 m 9 Y s 943 1186 m 9 Y s 975 1178 m 17 Y s 1007 1186 m 9 Y s
 1039 1186 m 9 Y s 1070 1186 m 9 Y s 1102 1186 m 9 Y s 1134 1178 m 17 Y s 1166 1186 m 9 Y s 1197 1186 m 9 Y s 1229 1186 m 9 Y s 1261 1186 m 9 Y s 1293 1178 m 17 Y s 1324 1186 m 9 Y s 1356 1186 m 9 Y s 1388 1186 m 9 Y s 1420 1186 m 9 Y s 1451 1178 m
 17 Y s 1483 1186 m 9 Y s 1515 1186 m 9 Y s 1547 1186 m 9 Y s 1578 1186 m 9 Y s 1610 1178 m 17 Y s 1642 1186 m 9 Y s 1674 1186 m 9 Y s 1705 1186 m 9 Y s 1737 1186 m 9 Y s 1769 1178 m 17 Y s 1801 1186 m 9 Y s 1832 1186 m 9 Y s 1864 1186 m 9 Y s 1896
 1186 m 9 Y s 1928 1178 m 17 Y s 340 199 m 996 Y s
 gsave  2268 1328 0 0 C 170.933 427.334 t 90 r /Helvetica findfont 62.6756 sf 0 0 m (Far Flux to Nominal) show NC gr  371 199 m -31 X s 355 228 m -15 X s 355 256 m -15 X s 355 284 m -15 X s 355 313 m -15 X s 371 341 m -31 X s 355 370 m -15 X s 355
 398 m -15 X s 355 427 m -15 X s 355 455 m -15 X s 371 484 m -31 X s 355 512 m -15 X s 355 541 m -15 X s 355 569 m -15 X s 355 597 m -15 X s 371 626 m -31 X s 355 654 m -15 X s 355 683 m -15 X s 355 711 m -15 X s 355 740 m -15 X s 371 768 m -31 X s
 355 797 m -15 X s 355 825 m -15 X s 355 853 m -15 X s 355 882 m -15 X s 371 910 m -31 X s 355 939 m -15 X s 355 967 m -15 X s 355 996 m -15 X s 355 1024 m -15 X s 371 1053 m -31 X s 355 1081 m -15 X s 355 1109 m -15 X s 355 1138 m -15 X s 355 1166 m
 -15 X s 371 1195 m -31 X s 371 199 m -31 X s
 gsave  2268 1328 0 0 C 196.573 173.782 t 0 r /Helvetica findfont 68.3734 sf 0 0 m (0.95) show NC gr 
 gsave  2268 1328 0 0 C 301.982 313.378 t 0 r /Helvetica findfont 68.3734 sf 0 0 m (1) show NC gr 
 gsave  2268 1328 0 0 C 196.573 458.671 t 0 r /Helvetica findfont 68.3734 sf 0 0 m (1.05) show NC gr 
 gsave  2268 1328 0 0 C 245.005 598.267 t 0 r /Helvetica findfont 68.3734 sf 0 0 m (1.1) show NC gr 
 gsave  2268 1328 0 0 C 196.573 743.56 t 0 r /Helvetica findfont 68.3734 sf 0 0 m (1.15) show NC gr 
 gsave  2268 1328 0 0 C 233.609 883.156 t 0 r /Helvetica findfont 68.3734 sf 0 0 m (1.2) show NC gr 
 gsave  2268 1328 0 0 C 196.573 1028.45 t 0 r /Helvetica findfont 68.3734 sf 0 0 m (1.25) show NC gr 
 gsave  2268 1328 0 0 C 233.609 1170.89 t 0 r /Helvetica findfont 68.3734 sf 0 0 m (1.3) show NC gr  1928 199 m 996 Y s 1897 199 m 31 X s 1912 228 m 16 X s 1912 256 m 16 X s 1912 284 m 16 X s 1912 313 m 16 X s 1897 341 m 31 X s 1912 370 m 16 X s 1912
 398 m 16 X s 1912 427 m 16 X s 1912 455 m 16 X s 1897 484 m 31 X s 1912 512 m 16 X s 1912 541 m 16 X s 1912 569 m 16 X s 1912 597 m 16 X s 1897 626 m 31 X s 1912 654 m 16 X s 1912 683 m 16 X s 1912 711 m 16 X s 1912 740 m 16 X s 1897 768 m 31 X s
 1912 797 m 16 X s 1912 825 m 16 X s 1912 853 m 16 X s 1912 882 m 16 X s 1897 910 m 31 X s 1912 939 m 16 X s 1912 967 m 16 X s 1912 996 m 16 X s 1912 1024 m 16 X s 1897 1053 m 31 X s 1912 1081 m 16 X s 1912 1109 m 16 X s 1912 1138 m 16 X s 1912 1166
 m 16 X s 1897 1195 m 31 X s 1897 199 m 31 X s 1 0 0 c 6 lw 1 1 1 c 1 0 0 c 380 335 m 6 -3 d 7 -4 d 7 -3 d 7 -3 d 7 -3 d 7 -3 d 7 -2 d 8 -3 d 8 -2 d 7 -2 d 8 -2 d 7 -2 d 8 -2 d 7 -1 d 9 -1 d 7 -1 d 9 -1 d 9 -1 d 9 -1 d 33 X 8 1 d 12 1 d 15 1 d 8 1 d
 12 X 6 1 d 7 -1 d 8 X 10 -1 d 12 -1 d 41 -4 d 1 X 26 -2 d 26 -3 d 13 -1 d 12 X 3 -1 d 24 -1 d 15 -1 d 47 X 8 1 d 10 X 17 2 d 12 1 d 8 1 d 14 X 3 1 d 7 X 8 -1 d 48 -3 d 67 X 10 1 d 9 1 d 8 1 d 2 X 7 1 d 8 1 d 9 1 d 11 3 d 17 3 d 16 4 d 12 2 d 14 2 d
 46 8 d 12 2 d 7 2 d 7 1 d 8 2 d 10 3 d 18 5 d 9 2 d 7 2 d 7 1 d 5 1 d 6 1 d 8 X 6 1 d 23 X 30 -1 d 22 X 8 1 d 9 1 d 23 3 d 10 1 d 33 X 6 -1 d 8 -1 d 10 -1 d 20 -3 d 8 -1 d 6 -1 d 42 X 16 2 d 16 1 d 9 X 7 1 d 13 X 66 1 d 8 X 8 1 d 20 1 d 10 1 d 8 X 6
 1 d 12 X 5 -1 d 10 X 7 -1 d 7 -1 d 8 -2 d 8 -1 d 6 -1 d 8 -2 d 7 -2 d 7 -2 d 7 -2 d 7 -3 d s 3 lw /w 2 def /w2 {w 2 div} def /w3 {w 3 div} def 380 335 459 305 539 295 618 300 697 293 777 286 856 284 935 290 1015 286 1094 289 1174 304 1253 318 1332
 336 1412 336 1491 342 1570 334 1650 338 1729 339 1809 342 1888 325 20 { m20} R 6 lw black 1 0 0 c
 gsave  2268 1328 0 0 C 2036.96 450.125 t 0 r /Helvetica-Bold findfont 48.4311 sf 0 0 m (/dof=0.4) show NC gr  black 1 0 0 c
 gsave  2268 1328 0 0 C 2017.01 467.218 t 0 r /Helvetica-Bold findfont 34.1867 sf 0 0 m (2) show NC gr  black 1 0 0 c
 gsave  2268 1328 0 0 C 1991.37 450.125 t 0 r /Symbol findfont 48.4311 sf 0 0 m (c) show NC gr  black 3 lw 340 341 m 1588 X s
 gsave  2268 1328 0 0 C 575.476 1213.63 t 0 r /Helvetica-Bold findfont 42.7334 sf 0 0 m (0.5 mm) show NC gr  1 0 0 c /w 23 def /w2 {w 2 div} def /w3 {w 3 div} def 534 1228 m21 black 1 1 1 c 0 0 1 c 380 598 m21 459 542 m21 539 526 m21 618 536 m21 697
 520 m21 777 505 m21 856 493 m21 935 520 m21 black 1015 473 m 1 Y s 1015 497 m s 1009 473 m 12 X s 1009 497 m 12 X s 0 0 1 c 1015 485 m21 black 1094 488 m 4 Y s 1094 515 m 4 Y s 1088 488 m 12 X s 1088 519 m 12 X s 0 0 1 c 1094 503 m21 black 1174 516
 m 9 Y s 1174 548 m 9 Y s 1168 516 m 11 X s 1168 557 m 11 X s 0 0 1 c 1174 537 m21 black 1253 519 m 14 Y s 1253 556 m 14 Y s 1247 519 m 12 X s 1247 570 m 12 X s 0 0 1 c 1253 544 m21 black 1332 643 m 21 Y s 1332 686 m 21 Y s 1327 643 m 11 X s 1327 707
 m 11 X s 0 0 1 c 1332 675 m21 black 1412 629 m 26 Y s 1412 678 m 26 Y s 1406 629 m 11 X s 1406 704 m 11 X s 0 0 1 c 1412 666 m21 black 1491 577 m 31 Y s 1491 631 m 31 Y s 1485 577 m 12 X s 1485 662 m 12 X s 0 0 1 c 1491 619 m21 black 1570 474 m 35 Y
 s 1570 531 m 35 Y s 1565 474 m 11 X s 1565 566 m 11 X s 0 0 1 c 1570 520 m21 black 1650 560 m 39 Y s 1650 621 m 39 Y s 1644 560 m 11 X s 1644 660 m 11 X s 0 0 1 c 1650 610 m21 black 1729 591 m 43 Y s 1729 657 m 43 Y s 1723 591 m 12 X s 1723 700 m 12
 X s 0 0 1 c 1729 645 m21 black 1809 574 m 48 Y s 1809 645 m 47 Y s 1803 574 m 11 X s 1803 692 m 11 X s 0 0 1 c 1809 633 m21 black 1888 475 m 50 Y s 1888 548 m 50 Y s 1882 475 m 12 X s 1882 598 m 12 X s 0 0 1 c 1888 537 m21 6 lw 1 1 1 c 0 0 1 c 380
 598 m 8 -7 d 9 -7 d 9 -7 d 8 -6 d 9 -6 d 9 -6 d 9 -5 d 9 -5 d 9 -4 d 10 -4 d 10 -5 d 9 -3 d 9 -2 d 9 -3 d 9 -2 d 9 -1 d 8 -1 d 7 -1 d 11 X 7 1 d 8 1 d 13 3 d 14 3 d 9 2 d 6 X 6 1 d 5 X 7 -1 d 9 X 10 -2 d 11 -2 d 40 -9 d 2 -1 d 26 -5 d 26 -5 d 13 -2
 d 13 -2 d 2 X 24 -3 d 15 -1 d 13 -1 d 11 -1 d 10 X 6 1 d 7 X 8 1 d 10 2 d 17 3 d 12 3 d 8 1 d 7 1 d 7 1 d 10 X 8 -1 d 45 -6 d 8 -1 d 7 -1 d 35 X 12 1 d 10 1 d 10 2 d 8 1 d 9 2 d 7 2 d 8 3 d 9 3 d 12 5 d 16 8 d 16 7 d 12 5 d 40 16 d 28 11 d 11 4 d 12
 5 d 26 10 d 13 5 d 9 3 d 8 2 d 7 2 d 4 1 d 6 1 d 24 X 28 -2 d 7 X 6 1 d 6 X 3 1 d 5 1 d 5 1 d 7 3 d 8 3 d 16 8 d 9 4 d 7 2 d 5 2 d 6 2 d 4 X 5 1 d 13 X 5 -1 d 6 -2 d 8 -2 d 8 -3 d 19 -7 d 8 -3 d 5 -1 d 6 -2 d 3 X 9 -1 d 9 -1 d 10 X 11 1 d 17 X 24 1
 d 38 2 d 15 1 d 12 1 d 14 1 d 6 1 d 8 2 d 10 3 d 19 5 d 7 2 d 7 2 d 6 1 d 17 X 6 -1 d 7 -2 d 6 -2 d 7 -2 d 7 -3 d 7 -3 d 6 -3 d 7 -4 d 6 -4 d 7 -5 d 6 -5 d 7 -6 d s 3 lw /w 2 def /w2 {w 2 div} def /w3 {w 3 div} def 380 598 459 545 539 523 618 534
 697 519 777 505 856 500 935 512 1015 503 1094 510 1174 543 1253 574 1332 602 1412 603 1491 630 1570 609 1650 609 1729 614 1809 630 1888 590 20 { m20} R 6 lw black 0 0 1 c
 gsave  2268 1328 0 0 C 2036.96 780.596 t 0 r /Helvetica-Bold findfont 48.4311 sf 0 0 m (/dof=0.9) show NC gr  black 0 0 1 c
 gsave  2268 1328 0 0 C 2017.01 797.689 t 0 r /Helvetica-Bold findfont 34.1867 sf 0 0 m (2) show NC gr  black 0 0 1 c
 gsave  2268 1328 0 0 C 1991.37 780.596 t 0 r /Symbol findfont 48.4311 sf 0 0 m (c) show NC gr  black 3 lw 340 626 m 1588 X s
 gsave  2268 1328 0 0 C 1179.44 1213.63 t 0 r /Helvetica-Bold findfont 39.8845 sf 0 0 m (1 mm) show NC gr  0 0 1 c /w 23 def /w2 {w 2 div} def /w3 {w 3 div} def 1139 1228 m21 black 1 1 1 c 1 0 1 c 380 843 m21 459 779 m21 539 742 m21 618 757 m21 697
 736 m21 777 710 m21 856 707 m21 935 721 m21 black 1015 707 m 2 Y s 1015 731 m 2 Y s 1009 707 m 12 X s 1009 733 m 12 X s 1 0 1 c 1015 720 m21 black 1094 704 m 6 Y s 1094 733 m 5 Y s 1088 704 m 12 X s 1088 738 m 12 X s 1 0 1 c 1094 721 m21 black 1174
 760 m 11 Y s 1174 794 m 11 Y s 1168 760 m 11 X s 1168 805 m 11 X s 1 0 1 c 1174 783 m21 black 1253 814 m 17 Y s 1253 854 m 17 Y s 1247 814 m 12 X s 1247 871 m 12 X s 1 0 1 c 1253 842 m21 black 1332 783 m 22 Y s 1332 828 m 23 Y s 1327 783 m 11 X s
 1327 851 m 11 X s 1 0 1 c 1332 817 m21 black 1412 783 m 29 Y s 1412 835 m 29 Y s 1406 783 m 11 X s 1406 864 m 11 X s 1 0 1 c 1412 823 m21 black 1491 878 m 36 Y s 1491 936 m 36 Y s 1485 878 m 12 X s 1485 972 m 12 X s 1 0 1 c 1491 925 m21 black 1570
 872 m 40 Y s 1570 935 m 39 Y s 1565 872 m 11 X s 1565 974 m 11 X s 1 0 1 c 1570 923 m21 black 1650 815 m 43 Y s 1650 881 m 44 Y s 1644 815 m 11 X s 1644 925 m 11 X s 1 0 1 c 1650 870 m21 black 1729 806 m 48 Y s 1729 876 m 48 Y s 1723 806 m 12 X s
 1723 924 m 12 X s 1 0 1 c 1729 865 m21 black 1809 860 m 52 Y s 1809 935 m 53 Y s 1803 860 m 11 X s 1803 988 m 11 X s 1 0 1 c 1809 924 m21 black 1888 806 m 57 Y s 1888 885 m 57 Y s 1882 806 m 12 X s 1882 942 m 12 X s 1 0 1 c 1888 874 m21 6 lw 1 1 1 c
 1 0 1 c 380 842 m 12 -12 d 10 -9 d 13 -11 d 12 -10 d 12 -9 d 12 -8 d 8 -5 d 17 -11 d 15 -8 d 10 -5 d 9 -4 d 9 -3 d 8 -2 d 8 -2 d 4 X 5 -1 d 6 1 d 7 1 d 8 2 d 13 4 d 15 5 d 8 3 d 6 1 d 6 1 d 5 X 7 -1 d 9 -1 d 10 -3 d 12 -4 d 39 -14 d 2 -1 d 31 -9 d
 23 -8 d 13 -3 d 13 -3 d 24 -5 d 17 -3 d 13 -1 d 10 -1 d 11 1 d 4 X 7 1 d 8 1 d 10 3 d 17 6 d 12 4 d 8 2 d 7 2 d 7 1 d 10 X 8 -1 d 11 -2 d 17 -5 d 15 -4 d 8 -1 d 8 -1 d 6 -1 d 16 X 15 1 d 11 1 d 10 2 d 10 2 d 8 3 d 9 3 d 7 3 d 8 5 d 9 5 d 12 8 d 17
 13 d 16 12 d 11 8 d 24 16 d 22 15 d 12 7 d 10 6 d 11 6 d 12 6 d 13 5 d 14 5 d 13 4 d 13 3 d 14 3 d 80 2 d 4 3 d 5 3 d 5 4 d 6 5 d 7 8 d 16 17 d 8 9 d 6 6 d 5 5 d 5 3 d 5 2 d 4 2 d 3 1 d 5 X 74 -38 d 13 -4 d 12 -3 d 13 -3 d 14 -1 d 13 -2 d 27 X 13 1
 d 13 1 d 14 3 d 12 2 d 12 4 d 3 1 d 6 2 d 6 3 d 7 4 d 11 7 d 12 9 d 9 5 d 6 4 d 5 2 d 6 1 d 4 1 d 8 X 6 -2 d 6 -2 d 6 -2 d 6 -3 d 6 -4 d 7 -5 d 6 -6 d 6 -5 d 6 -6 d 6 -8 d 6 -8 d 6 -7 d 6 -10 d s 3 lw /w 2 def /w2 {w 2 div} def /w3 {w 3 div} def 380
 842 459 778 539 743 618 760 697 736 777 713 856 704 935 724 1015 709 1094 721 1174 775 1253 825 1332 851 1412 853 1491 921 1570 883 1650 870 1729 882 1809 920 1888 852 20 { m20} R 6 lw black 1 0 1 c
 gsave  2268 1328 0 0 C 2036.96 1113.92 t 0 r /Helvetica-Bold findfont 48.4311 sf 0 0 m (/dof=0.2) show NC gr  black 1 0 1 c
 gsave  2268 1328 0 0 C 2017.01 1131.01 t 0 r /Helvetica-Bold findfont 34.1867 sf 0 0 m (2) show NC gr  black 1 0 1 c
 gsave  2268 1328 0 0 C 1991.37 1113.92 t 0 r /Symbol findfont 48.4311 sf 0 0 m (c) show NC gr  black 3 lw 340 910 m 1588 X s
 gsave  2268 1328 0 0 C 1783.41 1213.63 t 0 r /Helvetica-Bold findfont 42.7334 sf 0 0 m (1.5 mm) show NC gr  1 0 1 c /w 23 def /w2 {w 2 div} def /w3 {w 3 div} def 1743 1228 m21
 gr  gr showpage
end
%%EOF
