%!PS-Adobe-2.0 EPSF-2.0
%%BoundingBox:  0 0 567 332
%%Title: NominalX_far_summary.eps: Summary
%%Creator: ROOT Version 5.30/06
%%CreationDate: Sun Feb  2 09:37:53 2014
%%EndComments
%%BeginProlog
80 dict begin
/s {stroke} def /l {lineto} def /m {moveto} def /t {translate} def
/r {rotate} def /rl {roll}  def /R {repeat} def
/d {rlineto} def /rm {rmoveto} def /gr {grestore} def /f {eofill} def
/c {setrgbcolor} def /black {0 setgray} def /sd {setdash} def
/cl {closepath} def /sf {scalefont setfont} def /lw {setlinewidth} def
/box {m dup 0 exch d exch 0 d 0 exch neg d cl} def
/NC{systemdict begin initclip end}def/C{NC box clip newpath}def
/bl {box s} def /bf {box f} def /Y { 0 exch d} def /X { 0 d} def 
/K {{pop pop 0 moveto} exch kshow} bind def
/ita {/ang 15 def gsave [1 0 ang dup sin exch cos div 1 0 0] concat} def 
/mp {newpath /y exch def /x exch def} def
/side {[w .77 mul w .23 mul] .385 w mul sd w 0 l currentpoint t -144 r} def
/mr {mp x y w2 0 360 arc} def /m24 {mr s} def /m20 {mr f} def
/mb {mp x y w2 add m w2 neg 0 d 0 w neg d w 0 d 0 w d cl} def
/mt {mp x y w2 add m w2 neg w neg d w 0 d cl} def
/m21 {mb f} def /m25 {mb s} def /m22 {mt f} def /m26{mt s} def
/m23 {mp x y w2 sub m w2 w d w neg 0 d cl f} def
/m27 {mp x y w2 add m w3 neg w2 neg d w3 w2 neg d w3 w2 d cl s} def
/m28 {mp x w2 sub y w2 sub w3 add m w3 0 d  0 w3 neg d w3 0 d 0 w3 d w3 0 d  0 w3 d w3 neg 0 d 0 w3 d w3 neg 0 d 0 w3 neg d w3 neg 0 d cl s } def
/m29 {mp gsave x w2 sub y w2 add w3 sub m currentpoint t 4 {side} repeat cl fill gr} def
/m30 {mp gsave x w2 sub y w2 add w3 sub m currentpoint t 4 {side} repeat cl s gr} def
/m31 {mp x y w2 sub m 0 w d x w2 sub y m w 0 d x w2 sub y w2 add m w w neg d x w2 sub y w2 sub m w w d s} def
/m32 {mp x y w2 sub m w2 w d w neg 0 d cl s} def
/m33 {mp x y w2 add m w3 neg w2 neg d w3 w2 neg d w3 w2 d cl f} def
/m34 {mp x w2 sub y w2 sub w3 add m w3 0 d  0 w3 neg d w3 0 d 0 w3 d w3 0 d  0 w3 d w3 neg 0 d 0 w3 d w3 neg 0 d 0 w3 neg d w3 neg 0 d cl f } def
/m2 {mp x y w2 sub m 0 w d x w2 sub y m w 0 d s} def
/m5 {mp x w2 sub y w2 sub m w w d x w2 sub y w2 add m w w neg d s} def
/reEncode {exch findfont dup length dict begin {1 index /FID eq  {pop pop} {def} ifelse } forall /Encoding exch def currentdict end dup /FontName get exch definefont pop } def [/Times-Bold /Times-Italic /Times-BoldItalic /Helvetica /Helvetica-Oblique
 /Helvetica-Bold /Helvetica-BoldOblique /Courier /Courier-Oblique /Courier-Bold /Courier-BoldOblique /Times-Roman /AvantGarde-Book /AvantGarde-BookOblique /AvantGarde-Demi /AvantGarde-DemiOblique /Bookman-Demi /Bookman-DemiItalic /Bookman-Light
 /Bookman-LightItalic /Helvetica-Narrow /Helvetica-Narrow-Bold /Helvetica-Narrow-BoldOblique /Helvetica-Narrow-Oblique /NewCenturySchlbk-Roman /NewCenturySchlbk-Bold /NewCenturySchlbk-BoldItalic /NewCenturySchlbk-Italic /Palatino-Bold
 /Palatino-BoldItalic /Palatino-Italic /Palatino-Roman ] {ISOLatin1Encoding reEncode } forall%%EndProlog
%%BeginSetup
%%EndSetup
newpath  gsave  .25 .25 scale  gsave  0 0 t black[  ] 0 sd 3 lw 1 1 1 c 2268 1328 0 0 bf black 1 1 1 c black 1588 996 340 199 bl 1588 996 340 199 bl 1 1 1 c 1 0 0 c /w 23 def /w2 {w 2 div} def /w3 {w 3 div} def 380 300 m21 459 291 m21 539 291 m21 618
 291 m21 697 293 m21 777 294 m21 856 303 m21 935 310 m21 1015 341 m21 1094 363 m21 1174 412 m21 black 1253 425 m 2 Y s 1253 449 m 2 Y s 1247 425 m 12 X s 1247 451 m 12 X s 1 0 0 c 1253 438 m21 black 1332 407 m 4 Y s 1332 434 m 4 Y s 1327 407 m 11 X s
 1327 438 m 11 X s 1 0 0 c 1332 422 m21 black 1412 338 m 6 Y s 1412 367 m 6 Y s 1406 338 m 11 X s 1406 373 m 11 X s 1 0 0 c 1412 356 m21 black 1491 365 m 9 Y s 1491 397 m 9 Y s 1485 365 m 12 X s 1485 406 m 12 X s 1 0 0 c 1491 385 m21 black 1570 339 m
 11 Y s 1570 373 m 11 Y s 1565 339 m 11 X s 1565 384 m 11 X s 1 0 0 c 1570 361 m21 black 1650 321 m 13 Y s 1650 357 m 12 Y s 1644 321 m 11 X s 1644 369 m 11 X s 1 0 0 c 1650 345 m21 black 1729 356 m 15 Y s 1729 394 m 14 Y s 1723 356 m 12 X s 1723 408
 m 12 X s 1 0 0 c 1729 382 m21 black 1809 310 m 16 Y s 1809 349 m 16 Y s 1803 310 m 11 X s 1803 365 m 11 X s 1 0 0 c 1809 337 m21 black 1888 300 m 18 Y s 1888 341 m 18 Y s 1882 300 m 12 X s 1882 359 m 12 X s 1 0 0 c 1888 329 m21 black 340 199 m 1588
 X s
 gsave  2268 1328 0 0 C 954.378 68.3734 t 0 r /Helvetica findfont 62.6756 sf 0 0 m ( Energy \(GeV\) ) show NC gr 
 gsave  2268 1328 0 0 C 928.738 51.28 t 0 r /Symbol findfont 42.7334 sf 0 0 m (m) show NC gr 
 gsave  2268 1328 0 0 C 894.552 68.3734 t 0 r /Symbol findfont 62.6756 sf 0 0 m (n) show NC gr  340 216 m -17 Y s 372 208 m -9 Y s 404 208 m -9 Y s 435 208 m -9 Y s 467 208 m -9 Y s 499 216 m -17 Y s 531 208 m -9 Y s 562 208 m -9 Y s 594 208 m -9 Y s
 626 208 m -9 Y s 658 216 m -17 Y s 689 208 m -9 Y s 721 208 m -9 Y s 753 208 m -9 Y s 785 208 m -9 Y s 816 216 m -17 Y s 848 208 m -9 Y s 880 208 m -9 Y s 912 208 m -9 Y s 943 208 m -9 Y s 975 216 m -17 Y s 1007 208 m -9 Y s 1039 208 m -9 Y s 1070
 208 m -9 Y s 1102 208 m -9 Y s 1134 216 m -17 Y s 1166 208 m -9 Y s 1197 208 m -9 Y s 1229 208 m -9 Y s 1261 208 m -9 Y s 1293 216 m -17 Y s 1324 208 m -9 Y s 1356 208 m -9 Y s 1388 208 m -9 Y s 1420 208 m -9 Y s 1451 216 m -17 Y s 1483 208 m -9 Y s
 1515 208 m -9 Y s 1547 208 m -9 Y s 1578 208 m -9 Y s 1610 216 m -17 Y s 1642 208 m -9 Y s 1674 208 m -9 Y s 1705 208 m -9 Y s 1737 208 m -9 Y s 1769 216 m -17 Y s 1801 208 m -9 Y s 1832 208 m -9 Y s 1864 208 m -9 Y s 1896 208 m -9 Y s 1928 216 m
 -17 Y s
 gsave  2268 1328 0 0 C 319.076 136.747 t 0 r /Helvetica findfont 68.3734 sf 0 0 m (0) show NC gr 
 gsave  2268 1328 0 0 C 484.311 136.747 t 0 r /Helvetica findfont 68.3734 sf 0 0 m (1) show NC gr 
 gsave  2268 1328 0 0 C 635.302 136.747 t 0 r /Helvetica findfont 68.3734 sf 0 0 m (2) show NC gr 
 gsave  2268 1328 0 0 C 794.84 136.747 t 0 r /Helvetica findfont 68.3734 sf 0 0 m (3) show NC gr 
 gsave  2268 1328 0 0 C 954.378 136.747 t 0 r /Helvetica findfont 68.3734 sf 0 0 m (4) show NC gr 
 gsave  2268 1328 0 0 C 1113.92 136.747 t 0 r /Helvetica findfont 68.3734 sf 0 0 m (5) show NC gr 
 gsave  2268 1328 0 0 C 1270.6 136.747 t 0 r /Helvetica findfont 68.3734 sf 0 0 m (6) show NC gr 
 gsave  2268 1328 0 0 C 1430.14 136.747 t 0 r /Helvetica findfont 68.3734 sf 0 0 m (7) show NC gr 
 gsave  2268 1328 0 0 C 1589.68 136.747 t 0 r /Helvetica findfont 68.3734 sf 0 0 m (8) show NC gr 
 gsave  2268 1328 0 0 C 1746.37 136.747 t 0 r /Helvetica findfont 68.3734 sf 0 0 m (9) show NC gr 
 gsave  2268 1328 0 0 C 1888.81 136.747 t 0 r /Helvetica findfont 68.3734 sf 0 0 m (10) show NC gr  340 1195 m 1588 X s 340 1178 m 17 Y s 372 1186 m 9 Y s 404 1186 m 9 Y s 435 1186 m 9 Y s 467 1186 m 9 Y s 499 1178 m 17 Y s 531 1186 m 9 Y s 562 1186
 m 9 Y s 594 1186 m 9 Y s 626 1186 m 9 Y s 658 1178 m 17 Y s 689 1186 m 9 Y s 721 1186 m 9 Y s 753 1186 m 9 Y s 785 1186 m 9 Y s 816 1178 m 17 Y s 848 1186 m 9 Y s 880 1186 m 9 Y s 912 1186 m 9 Y s 943 1186 m 9 Y s 975 1178 m 17 Y s 1007 1186 m 9 Y s
 1039 1186 m 9 Y s 1070 1186 m 9 Y s 1102 1186 m 9 Y s 1134 1178 m 17 Y s 1166 1186 m 9 Y s 1197 1186 m 9 Y s 1229 1186 m 9 Y s 1261 1186 m 9 Y s 1293 1178 m 17 Y s 1324 1186 m 9 Y s 1356 1186 m 9 Y s 1388 1186 m 9 Y s 1420 1186 m 9 Y s 1451 1178 m
 17 Y s 1483 1186 m 9 Y s 1515 1186 m 9 Y s 1547 1186 m 9 Y s 1578 1186 m 9 Y s 1610 1178 m 17 Y s 1642 1186 m 9 Y s 1674 1186 m 9 Y s 1705 1186 m 9 Y s 1737 1186 m 9 Y s 1769 1178 m 17 Y s 1801 1186 m 9 Y s 1832 1186 m 9 Y s 1864 1186 m 9 Y s 1896
 1186 m 9 Y s 1928 1178 m 17 Y s 340 199 m 996 Y s
 gsave  2268 1328 0 0 C 170.933 427.334 t 90 r /Helvetica findfont 62.6756 sf 0 0 m (Far Flux to Nominal) show NC gr  371 199 m -31 X s 355 228 m -15 X s 355 256 m -15 X s 355 284 m -15 X s 355 313 m -15 X s 371 341 m -31 X s 355 370 m -15 X s 355
 398 m -15 X s 355 427 m -15 X s 355 455 m -15 X s 371 484 m -31 X s 355 512 m -15 X s 355 541 m -15 X s 355 569 m -15 X s 355 597 m -15 X s 371 626 m -31 X s 355 654 m -15 X s 355 683 m -15 X s 355 711 m -15 X s 355 740 m -15 X s 371 768 m -31 X s
 355 797 m -15 X s 355 825 m -15 X s 355 853 m -15 X s 355 882 m -15 X s 371 910 m -31 X s 355 939 m -15 X s 355 967 m -15 X s 355 996 m -15 X s 355 1024 m -15 X s 371 1053 m -31 X s 355 1081 m -15 X s 355 1109 m -15 X s 355 1138 m -15 X s 355 1166 m
 -15 X s 371 1195 m -31 X s 371 199 m -31 X s
 gsave  2268 1328 0 0 C 196.573 173.782 t 0 r /Helvetica findfont 68.3734 sf 0 0 m (0.95) show NC gr 
 gsave  2268 1328 0 0 C 301.982 313.378 t 0 r /Helvetica findfont 68.3734 sf 0 0 m (1) show NC gr 
 gsave  2268 1328 0 0 C 196.573 458.671 t 0 r /Helvetica findfont 68.3734 sf 0 0 m (1.05) show NC gr 
 gsave  2268 1328 0 0 C 245.005 598.267 t 0 r /Helvetica findfont 68.3734 sf 0 0 m (1.1) show NC gr 
 gsave  2268 1328 0 0 C 196.573 743.56 t 0 r /Helvetica findfont 68.3734 sf 0 0 m (1.15) show NC gr 
 gsave  2268 1328 0 0 C 233.609 883.156 t 0 r /Helvetica findfont 68.3734 sf 0 0 m (1.2) show NC gr 
 gsave  2268 1328 0 0 C 196.573 1028.45 t 0 r /Helvetica findfont 68.3734 sf 0 0 m (1.25) show NC gr 
 gsave  2268 1328 0 0 C 233.609 1170.89 t 0 r /Helvetica findfont 68.3734 sf 0 0 m (1.3) show NC gr  1928 199 m 996 Y s 1897 199 m 31 X s 1912 228 m 16 X s 1912 256 m 16 X s 1912 284 m 16 X s 1912 313 m 16 X s 1897 341 m 31 X s 1912 370 m 16 X s 1912
 398 m 16 X s 1912 427 m 16 X s 1912 455 m 16 X s 1897 484 m 31 X s 1912 512 m 16 X s 1912 541 m 16 X s 1912 569 m 16 X s 1912 597 m 16 X s 1897 626 m 31 X s 1912 654 m 16 X s 1912 683 m 16 X s 1912 711 m 16 X s 1912 740 m 16 X s 1897 768 m 31 X s
 1912 797 m 16 X s 1912 825 m 16 X s 1912 853 m 16 X s 1912 882 m 16 X s 1897 910 m 31 X s 1912 939 m 16 X s 1912 967 m 16 X s 1912 996 m 16 X s 1912 1024 m 16 X s 1897 1053 m 31 X s 1912 1081 m 16 X s 1912 1109 m 16 X s 1912 1138 m 16 X s 1912 1166
 m 16 X s 1897 1195 m 31 X s 1897 199 m 31 X s 1 0 0 c 6 lw 1 1 1 c 1 0 0 c 380 271 m 12 -3 d 13 -3 d 13 -2 d 14 -3 d 13 -1 d 14 -2 d 10 -1 d 149 X 79 -1 d 80 X 21 1 d 26 2 d 32 2 d 45 3 d 14 1 d 12 2 d 8 1 d 15 2 d 16 3 d 17 3 d 16 4 d 16 4 d 13 3 d
 13 5 d 20 6 d 28 9 d 5 2 d 37 10 d 22 7 d 14 5 d 7 2 d 9 3 d 10 4 d 28 12 d 10 5 d 8 2 d 7 3 d 7 1 d 15 4 d 11 3 d 10 1 d 10 2 d 8 X 9 1 d 6 X 7 -1 d 3 X 6 -1 d 5 -1 d 6 -1 d 7 -2 d 8 -4 d 15 -6 d 10 -4 d 8 -3 d 6 -2 d 5 -1 d 4 -1 d 7 -1 d 8 -1 d 10
 -1 d 17 -1 d 16 -1 d 10 -1 d 8 -1 d 3 -1 d 8 -1 d 9 -2 d 9 -3 d 29 -9 d 8 -2 d 7 -1 d 7 -1 d 2 -1 d 8 X 8 -1 d 9 X 13 1 d 26 1 d 31 X 20 -1 d 44 -3 d 20 -1 d 34 -3 d 13 -1 d 46 X 16 1 d 16 1 d 14 1 d s 3 lw /w 2 def /w2 {w 2 div} def /w3 {w 3 div}
 def 380 271 459 257 539 256 618 256 697 255 777 255 856 260 935 267 1015 283 1094 308 1174 332 1253 362 1332 372 1412 346 1491 338 1570 318 1650 319 1729 315 1809 310 1888 313 20 { m20} R 6 lw black 1 0 0 c
 gsave  2268 1328 0 0 C 2022.71 450.125 t 0 r /Helvetica-Bold findfont 48.4311 sf 0 0 m (/dof=59.7) show NC gr  black 1 0 0 c
 gsave  2268 1328 0 0 C 2002.77 467.218 t 0 r /Helvetica-Bold findfont 34.1867 sf 0 0 m (2) show NC gr  black 1 0 0 c
 gsave  2268 1328 0 0 C 1977.13 450.125 t 0 r /Symbol findfont 48.4311 sf 0 0 m (c) show NC gr  black 3 lw 340 341 m 1588 X s
 gsave  2268 1328 0 0 C 575.476 1213.63 t 0 r /Helvetica-Bold findfont 39.8845 sf 0 0 m (1 mm) show NC gr  1 0 0 c /w 23 def /w2 {w 2 div} def /w3 {w 3 div} def 534 1228 m21 black 1 1 1 c 0 0 1 c 380 376 m21 459 329 m21 539 327 m21 618 326 m21 697
 327 m21 777 338 m21 856 358 m21 935 394 m21 1015 480 m21 1094 625 m21 1174 753 m21 black 1253 796 m 3 Y s 1253 822 m 2 Y s 1247 796 m 12 X s 1247 824 m 12 X s 0 0 1 c 1253 810 m21 black 1332 790 m 6 Y s 1332 819 m 6 Y s 1327 790 m 11 X s 1327 825 m
 11 X s 0 0 1 c 1332 808 m21 black 1412 708 m 9 Y s 1412 740 m 8 Y s 1406 708 m 11 X s 1406 748 m 11 X s 0 0 1 c 1412 728 m21 black 1491 689 m 12 Y s 1491 723 m 12 Y s 1485 689 m 12 X s 1485 735 m 12 X s 0 0 1 c 1491 712 m21 black 1570 600 m 13 Y s
 1570 636 m 13 Y s 1565 600 m 11 X s 1565 649 m 11 X s 0 0 1 c 1570 625 m21 black 1650 582 m 15 Y s 1650 619 m 15 Y s 1644 582 m 11 X s 1644 634 m 11 X s 0 0 1 c 1650 608 m21 black 1729 539 m 17 Y s 1729 579 m 16 Y s 1723 539 m 12 X s 1723 595 m 12 X
 s 0 0 1 c 1729 567 m21 black 1809 524 m 18 Y s 1809 565 m 19 Y s 1803 524 m 11 X s 1803 584 m 11 X s 0 0 1 c 1809 554 m21 black 1888 519 m 20 Y s 1888 562 m 21 Y s 1882 519 m 12 X s 1882 583 m 12 X s 0 0 1 c 1888 551 m21 6 lw 1 1 1 c 0 0 1 c 380 317
 m 12 -13 d 12 -12 d 12 -11 d 12 -9 d 12 -7 d 12 -7 d 7 -3 d 10 -3 d 11 -2 d 11 -1 d 17 1 d 26 1 d 5 X 34 -1 d 45 X 79 -2 d 62 -1 d 18 1 d 20 3 d 24 5 d 29 8 d 6 2 d 44 14 d 13 5 d 12 6 d 10 6 d 13 8 d 14 11 d 15 13 d 15 15 d 16 17 d 7 8 d 13 15 d 12
 17 d 19 26 d 29 42 d 6 8 d 50 68 d 18 25 d 12 14 d 24 30 d 17 21 d 12 14 d 10 10 d 8 8 d 8 5 d 12 8 d 10 5 d 12 5 d 11 3 d 11 2 d 10 X 9 -1 d 4 X 7 -3 d 8 -4 d 9 -6 d 13 -11 d 25 -22 d 9 -6 d 9 -6 d 9 -4 d 11 -3 d 18 -3 d 16 -3 d 9 -2 d 8 -4 d 8 -5
 d 7 -5 d 72 -83 d 7 -3 d 8 -2 d 8 X 10 1 d 16 3 d 16 4 d 15 X 14 -2 d 19 -3 d 46 -12 d 17 -5 d 37 -13 d 12 -3 d 11 -1 d 3 -1 d 15 X 16 1 d 16 3 d 15 4 d 17 5 d s 3 lw /w 2 def /w2 {w 2 div} def /w3 {w 3 div} def 380 317 459 255 539 251 618 250 697
 248 777 248 856 266 935 297 1015 369 1094 477 1174 584 1253 672 1332 694 1412 636 1491 612 1570 524 1650 527 1729 510 1809 487 1888 500 20 { m20} R 6 lw black 0 0 1 c
 gsave  2268 1328 0 0 C 2008.47 780.596 t 0 r /Helvetica-Bold findfont 48.4311 sf 0 0 m (/dof=250.5) show NC gr  black 0 0 1 c
 gsave  2268 1328 0 0 C 1988.53 797.689 t 0 r /Helvetica-Bold findfont 34.1867 sf 0 0 m (2) show NC gr  black 0 0 1 c
 gsave  2268 1328 0 0 C 1962.89 780.596 t 0 r /Symbol findfont 48.4311 sf 0 0 m (c) show NC gr  black 3 lw 340 626 m 1588 X s
 gsave  2268 1328 0 0 C 1179.44 1213.63 t 0 r /Helvetica-Bold findfont 39.8845 sf 0 0 m (2 mm) show NC gr  0 0 1 c /w 23 def /w2 {w 2 div} def /w3 {w 3 div} def 1139 1228 m21 black 1 1 1 c 1 0 1 c 1015 230 m21 1094 479 m21 black 1174 713 m s 1174 736
 m s 1168 713 m 11 X s 1168 736 m 11 X s 1 0 1 c 1174 724 m21 black 1253 851 m 3 Y s 1253 877 m 3 Y s 1247 851 m 12 X s 1247 880 m 12 X s 1 0 1 c 1253 865 m21 black 1332 905 m 7 Y s 1332 935 m 7 Y s 1327 905 m 11 X s 1327 942 m 11 X s 1 0 1 c 1332
 923 m21 black 1412 839 m 10 Y s 1412 871 m 10 Y s 1406 839 m 11 X s 1406 881 m 11 X s 1 0 1 c 1412 860 m21 black 1491 801 m 13 Y s 1491 837 m 12 Y s 1485 801 m 12 X s 1485 849 m 12 X s 1 0 1 c 1491 825 m21 black 1570 586 m 14 Y s 1570 623 m 14 Y s
 1565 586 m 11 X s 1565 637 m 11 X s 1 0 1 c 1570 611 m21 black 1650 602 m 16 Y s 1650 641 m 16 Y s 1644 602 m 11 X s 1644 657 m 11 X s 1 0 1 c 1650 629 m21 black 1729 562 m 18 Y s 1729 603 m 18 Y s 1723 562 m 12 X s 1723 621 m 12 X s 1 0 1 c 1729
 592 m21 black 1809 507 m 20 Y s 1809 550 m 19 Y s 1803 507 m 11 X s 1803 569 m 11 X s 1 0 1 c 1809 538 m21 black 1888 544 m 23 Y s 1888 589 m 23 Y s 1882 544 m 12 X s 1882 612 m 12 X s 1 0 1 c 1888 578 m21 6 lw 1 1 1 c 1 0 1 c 983 199 m 7 15 d s 990
 214 m 13 34 d 12 31 d 10 30 d 12 38 d 17 58 d 31 111 d 9 29 d 25 86 d 23 78 d 14 47 d 12 34 d 6 16 d 19 54 d 14 36 d 13 29 d 11 24 d 9 17 d 10 15 d 3 5 d 10 13 d 11 10 d 11 8 d 12 5 d 12 3 d 11 -1 d 12 -3 d 8 -4 d 10 -9 d 11 -13 d 24 -34 d 14 -20 d
 10 -11 d 3 -3 d 9 -7 d 11 -5 d 28 -9 d 10 -5 d 8 -7 d 7 -8 d 6 -9 d 6 -11 d 6 -16 d 8 -22 d 8 -25 d 27 -87 d 8 -22 d 6 -15 d 5 -11 d 5 -8 d 6 -6 d 7 -4 d 8 -2 d 8 1 d 13 6 d 20 11 d 10 3 d 8 -1 d 14 -4 d 16 -8 d 49 -31 d 16 -11 d 39 -33 d 11 -6 d 10
 -4 d 4 X 12 -1 d 14 2 d 14 4 d 14 7 d 14 10 d 11 10 d s 3 lw /w 2 def /w2 {w 2 div} def /w3 {w 3 div} def 1015 279 1094 545 1174 806 1253 986 1332 1021 1412 927 1491 877 1570 660 1650 668 1729 625 1809 571 1888 603 12 { m20} R 6 lw black 1 0 1 c
 gsave  2268 1328 0 0 C 2022.71 1113.92 t 0 r /Helvetica-Bold findfont 48.4311 sf 0 0 m (/dof=50.7) show NC gr  black 1 0 1 c
 gsave  2268 1328 0 0 C 2002.77 1131.01 t 0 r /Helvetica-Bold findfont 34.1867 sf 0 0 m (2) show NC gr  black 1 0 1 c
 gsave  2268 1328 0 0 C 1977.13 1113.92 t 0 r /Symbol findfont 48.4311 sf 0 0 m (c) show NC gr  black 3 lw 340 910 m 1588 X s
 gsave  2268 1328 0 0 C 1783.41 1213.63 t 0 r /Helvetica-Bold findfont 42.7334 sf 0 0 m (3 mm) show NC gr  1 0 1 c /w 23 def /w2 {w 2 div} def /w3 {w 3 div} def 1743 1228 m21
 gr  gr showpage
end
%%EOF
