%!PS-Adobe-2.0 EPSF-2.0
%%BoundingBox:  0 0 567 332
%%Title: NominalX_nof_fits.eps: Fits
%%Creator: ROOT Version 5.30/06
%%CreationDate: Sun Feb  2 09:32:01 2014
%%EndComments
%%BeginProlog
80 dict begin
/s {stroke} def /l {lineto} def /m {moveto} def /t {translate} def
/r {rotate} def /rl {roll}  def /R {repeat} def
/d {rlineto} def /rm {rmoveto} def /gr {grestore} def /f {eofill} def
/c {setrgbcolor} def /black {0 setgray} def /sd {setdash} def
/cl {closepath} def /sf {scalefont setfont} def /lw {setlinewidth} def
/box {m dup 0 exch d exch 0 d 0 exch neg d cl} def
/NC{systemdict begin initclip end}def/C{NC box clip newpath}def
/bl {box s} def /bf {box f} def /Y { 0 exch d} def /X { 0 d} def 
/K {{pop pop 0 moveto} exch kshow} bind def
/ita {/ang 15 def gsave [1 0 ang dup sin exch cos div 1 0 0] concat} def 
/mp {newpath /y exch def /x exch def} def
/side {[w .77 mul w .23 mul] .385 w mul sd w 0 l currentpoint t -144 r} def
/mr {mp x y w2 0 360 arc} def /m24 {mr s} def /m20 {mr f} def
/mb {mp x y w2 add m w2 neg 0 d 0 w neg d w 0 d 0 w d cl} def
/mt {mp x y w2 add m w2 neg w neg d w 0 d cl} def
/m21 {mb f} def /m25 {mb s} def /m22 {mt f} def /m26{mt s} def
/m23 {mp x y w2 sub m w2 w d w neg 0 d cl f} def
/m27 {mp x y w2 add m w3 neg w2 neg d w3 w2 neg d w3 w2 d cl s} def
/m28 {mp x w2 sub y w2 sub w3 add m w3 0 d  0 w3 neg d w3 0 d 0 w3 d w3 0 d  0 w3 d w3 neg 0 d 0 w3 d w3 neg 0 d 0 w3 neg d w3 neg 0 d cl s } def
/m29 {mp gsave x w2 sub y w2 add w3 sub m currentpoint t 4 {side} repeat cl fill gr} def
/m30 {mp gsave x w2 sub y w2 add w3 sub m currentpoint t 4 {side} repeat cl s gr} def
/m31 {mp x y w2 sub m 0 w d x w2 sub y m w 0 d x w2 sub y w2 add m w w neg d x w2 sub y w2 sub m w w d s} def
/m32 {mp x y w2 sub m w2 w d w neg 0 d cl s} def
/m33 {mp x y w2 add m w3 neg w2 neg d w3 w2 neg d w3 w2 d cl f} def
/m34 {mp x w2 sub y w2 sub w3 add m w3 0 d  0 w3 neg d w3 0 d 0 w3 d w3 0 d  0 w3 d w3 neg 0 d 0 w3 d w3 neg 0 d 0 w3 neg d w3 neg 0 d cl f } def
/m2 {mp x y w2 sub m 0 w d x w2 sub y m w 0 d s} def
/m5 {mp x w2 sub y w2 sub m w w d x w2 sub y w2 add m w w neg d s} def
/reEncode {exch findfont dup length dict begin {1 index /FID eq  {pop pop} {def} ifelse } forall /Encoding exch def currentdict end dup /FontName get exch definefont pop } def [/Times-Bold /Times-Italic /Times-BoldItalic /Helvetica /Helvetica-Oblique
 /Helvetica-Bold /Helvetica-BoldOblique /Courier /Courier-Oblique /Courier-Bold /Courier-BoldOblique /Times-Roman /AvantGarde-Book /AvantGarde-BookOblique /AvantGarde-Demi /AvantGarde-DemiOblique /Bookman-Demi /Bookman-DemiItalic /Bookman-Light
 /Bookman-LightItalic /Helvetica-Narrow /Helvetica-Narrow-Bold /Helvetica-Narrow-BoldOblique /Helvetica-Narrow-Oblique /NewCenturySchlbk-Roman /NewCenturySchlbk-Bold /NewCenturySchlbk-BoldItalic /NewCenturySchlbk-Italic /Palatino-Bold
 /Palatino-BoldItalic /Palatino-Italic /Palatino-Roman ] {ISOLatin1Encoding reEncode } forall%%EndProlog
%%BeginSetup
%%EndSetup
newpath  gsave  .25 .25 scale  gsave  0 0 t black[  ] 0 sd 3 lw 1 1 1 c 2268 1328 0 0 bf black 1 1 1 c 408 305 23 1009 bf black 1 1 1 c black 306 229 84 1055 bl 306 229 84 1055 bl 84 1055 m 306 X s 84 1059 m -4 Y s 179 1059 m -4 Y s 274 1059 m -4 Y s
 369 1059 m -4 Y s 369 1059 m -4 Y s
 gsave  408 305 23 1009 C 74.0711 1034.15 t 0 r /Helvetica findfont 22.8295 sf 0 0 m (0) show NC gr 
 gsave  408 305 23 1009 C 170.933 1034.15 t 0 r /Helvetica findfont 22.8295 sf 0 0 m (1) show NC gr 
 gsave  408 305 23 1009 C 264.947 1034.15 t 0 r /Helvetica findfont 22.8295 sf 0 0 m (2) show NC gr 
 gsave  408 305 23 1009 C 358.96 1034.15 t 0 r /Helvetica findfont 22.8295 sf 0 0 m (3) show NC gr  84 1284 m 306 X s 84 1280 m 4 Y s 179 1280 m 4 Y s 274 1280 m 4 Y s 369 1280 m 4 Y s 369 1280 m 4 Y s 84 1055 m 229 Y s 89 1055 m -5 X s 87 1060 m -3
 X s 87 1065 m -3 X s 87 1070 m -3 X s 87 1075 m -3 X s 89 1079 m -5 X s 87 1084 m -3 X s 87 1089 m -3 X s 87 1094 m -3 X s 87 1099 m -3 X s 89 1104 m -5 X s 87 1109 m -3 X s 87 1114 m -3 X s 87 1119 m -3 X s 87 1124 m -3 X s 89 1129 m -5 X s 87 1134
 m -3 X s 87 1139 m -3 X s 87 1144 m -3 X s 87 1149 m -3 X s 89 1154 m -5 X s 87 1159 m -3 X s 87 1163 m -3 X s 87 1168 m -3 X s 87 1173 m -3 X s 89 1178 m -5 X s 87 1183 m -3 X s 87 1188 m -3 X s 87 1193 m -3 X s 87 1198 m -3 X s 89 1203 m -5 X s 87
 1208 m -3 X s 87 1213 m -3 X s 87 1218 m -3 X s 87 1223 m -3 X s 89 1228 m -5 X s 87 1233 m -3 X s 87 1238 m -3 X s 87 1243 m -3 X s 87 1247 m -3 X s 89 1252 m -5 X s 87 1257 m -3 X s 87 1262 m -3 X s 87 1267 m -3 X s 87 1272 m -3 X s 89 1277 m -5 X
 s 89 1277 m -5 X s 87 1282 m -3 X s
 gsave  408 305 23 1009 C 65.5245 1048.39 t 0 r /Helvetica findfont 22.8295 sf 0 0 m (0) show NC gr 
 gsave  408 305 23 1009 C 37.0356 1071.18 t 0 r /Helvetica findfont 22.8295 sf 0 0 m (0.01) show NC gr 
 gsave  408 305 23 1009 C 34.1867 1096.82 t 0 r /Helvetica findfont 22.8295 sf 0 0 m (0.02) show NC gr 
 gsave  408 305 23 1009 C 34.1867 1122.46 t 0 r /Helvetica findfont 22.8295 sf 0 0 m (0.03) show NC gr 
 gsave  408 305 23 1009 C 34.1867 1145.25 t 0 r /Helvetica findfont 22.8295 sf 0 0 m (0.04) show NC gr 
 gsave  408 305 23 1009 C 34.1867 1170.89 t 0 r /Helvetica findfont 22.8295 sf 0 0 m (0.05) show NC gr 
 gsave  408 305 23 1009 C 34.1867 1196.53 t 0 r /Helvetica findfont 22.8295 sf 0 0 m (0.06) show NC gr 
 gsave  408 305 23 1009 C 34.1867 1219.32 t 0 r /Helvetica findfont 22.8295 sf 0 0 m (0.07) show NC gr 
 gsave  408 305 23 1009 C 34.1867 1244.96 t 0 r /Helvetica findfont 22.8295 sf 0 0 m (0.08) show NC gr 
 gsave  408 305 23 1009 C 34.1867 1270.6 t 0 r /Helvetica findfont 22.8295 sf 0 0 m (0.09) show NC gr  390 1055 m 229 Y s 385 1055 m 5 X s 387 1060 m 3 X s 387 1065 m 3 X s 387 1070 m 3 X s 387 1075 m 3 X s 385 1079 m 5 X s 387 1084 m 3 X s 387 1089
 m 3 X s 387 1094 m 3 X s 387 1099 m 3 X s 385 1104 m 5 X s 387 1109 m 3 X s 387 1114 m 3 X s 387 1119 m 3 X s 387 1124 m 3 X s 385 1129 m 5 X s 387 1134 m 3 X s 387 1139 m 3 X s 387 1144 m 3 X s 387 1149 m 3 X s 385 1154 m 5 X s 387 1159 m 3 X s 387
 1163 m 3 X s 387 1168 m 3 X s 387 1173 m 3 X s 385 1178 m 5 X s 387 1183 m 3 X s 387 1188 m 3 X s 387 1193 m 3 X s 387 1198 m 3 X s 385 1203 m 5 X s 387 1208 m 3 X s 387 1213 m 3 X s 387 1218 m 3 X s 387 1223 m 3 X s 385 1228 m 5 X s 387 1233 m 3 X
 s 387 1238 m 3 X s 387 1243 m 3 X s 387 1247 m 3 X s 385 1252 m 5 X s 387 1257 m 3 X s 387 1262 m 3 X s 387 1267 m 3 X s 387 1272 m 3 X s 385 1277 m 5 X s 385 1277 m 5 X s 387 1282 m 3 X s /w 22 def /w2 {w 2 div} def /w3 {w 3 div} def 179 1065 274
 1119 369 1260 3 { m21} R 1 0 0 c 9 lw 0.95 0.95 0.95 c black 1 0 0 c 85 1055 m 16 X 3 1 d 6 X 3 1 d 3 X 3 1 d 3 X 3 1 d 3 X 3 1 d 3 1 d 3 X 4 1 d 3 1 d 3 1 d 3 1 d 3 1 d 3 1 d 3 1 d 3 1 d 3 1 d 3 1 d 3 2 d 3 1 d 3 1 d 3 2 d 3 1 d 3 1 d 4 2 d 3 1 d 3
 2 d 3 2 d 3 1 d 3 2 d 3 2 d 3 2 d 3 1 d 3 2 d 3 2 d 3 2 d 3 2 d 3 2 d 3 2 d 3 3 d s 235 1109 m 4 2 d 3 2 d 3 2 d 3 3 d 3 2 d 3 2 d 3 3 d 3 2 d 3 3 d 3 3 d 3 2 d 3 3 d 3 3 d 3 2 d 3 3 d 3 3 d 3 3 d 4 3 d 3 3 d 3 3 d 3 3 d 3 3 d 3 3 d 3 4 d 3 3 d 3 3
 d 3 3 d 3 4 d 3 3 d 3 4 d 3 3 d 3 4 d 3 3 d 4 4 d 3 4 d 3 3 d 3 4 d 3 4 d 3 4 d 3 4 d 3 4 d 3 4 d 3 4 d 3 4 d 3 4 d 3 4 d 3 4 d 3 5 d 3 4 d s 385 1268 m 4 4 d s 0.49 0.6 0.82 c black 0.49 0.6 0.82 c
 gsave  408 305 23 1009 C 142.445 1293.4 t 0 r /Helvetica-Bold findfont 25.6831 sf 0 0 m (0.0 < E < 0.5 GeV) show NC gr  0.52 0.76 0.64 c black 0.52 0.76 0.64 c
 gsave  408 305 23 1009 C 128.2 1256.36 t 0 r /Helvetica-Bold findfont 25.6831 sf 0 0 m 
 220 206 192 185 170 163 148 141 126 118 111 97 83 69 61 47 40 25 18
(A = 0.009, p = 2.000) K NC gr  1 0.6 1 c black 1 0.6 1 c
 gsave  408 305 23 1009 C 427.334 1113.92 t 90 r /Helvetica-Bold findfont 28.5368 sf 0 0 m (/dof=34.5) show NC gr  black 1 0.6 1 c
 gsave  408 305 23 1009 C 415.938 1102.52 t 90 r /Helvetica-Bold findfont 19.9758 sf 0 0 m (2) show NC gr  black 1 0.6 1 c
 gsave  408 305 23 1009 C 427.334 1085.43 t 90 r /Symbol findfont 28.5368 sf 0 0 m (c) show NC gr  black 3 lw 1 1 1 c 408 305 476 1009 bf black 1 1 1 c black 307 229 537 1055 bl 307 229 537 1055 bl 537 1055 m 307 X s 537 1059 m -4 Y s 633 1059 m -4 Y
 s 728 1059 m -4 Y s 823 1059 m -4 Y s 823 1059 m -4 Y s
 gsave  408 305 476 1009 C 527.045 1034.15 t 0 r /Helvetica findfont 22.8295 sf 0 0 m (0) show NC gr 
 gsave  408 305 476 1009 C 626.756 1034.15 t 0 r /Helvetica findfont 22.8295 sf 0 0 m (1) show NC gr 
 gsave  408 305 476 1009 C 717.92 1034.15 t 0 r /Helvetica findfont 22.8295 sf 0 0 m (2) show NC gr 
 gsave  408 305 476 1009 C 811.934 1034.15 t 0 r /Helvetica findfont 22.8295 sf 0 0 m (3) show NC gr  537 1284 m 307 X s 537 1280 m 4 Y s 633 1280 m 4 Y s 728 1280 m 4 Y s 823 1280 m 4 Y s 823 1280 m 4 Y s 537 1055 m 229 Y s 543 1080 m -6 X s 540
 1086 m -3 X s 540 1093 m -3 X s 540 1099 m -3 X s 540 1106 m -3 X s 543 1112 m -6 X s 540 1119 m -3 X s 540 1125 m -3 X s 540 1131 m -3 X s 540 1138 m -3 X s 543 1144 m -6 X s 540 1151 m -3 X s 540 1157 m -3 X s 540 1164 m -3 X s 540 1170 m -3 X s
 543 1176 m -6 X s 540 1183 m -3 X s 540 1189 m -3 X s 540 1196 m -3 X s 540 1202 m -3 X s 543 1209 m -6 X s 540 1215 m -3 X s 540 1221 m -3 X s 540 1228 m -3 X s 540 1234 m -3 X s 543 1241 m -6 X s 540 1247 m -3 X s 540 1254 m -3 X s 540 1260 m -3 X
 s 540 1266 m -3 X s 543 1273 m -6 X s 543 1080 m -6 X s 540 1074 m -3 X s 540 1067 m -3 X s 540 1061 m -3 X s 543 1273 m -6 X s 540 1279 m -3 X s
 gsave  408 305 476 1009 C 518.498 1074.03 t 0 r /Helvetica findfont 22.8295 sf 0 0 m (0) show NC gr 
 gsave  408 305 476 1009 C 475.765 1105.37 t 0 r /Helvetica findfont 22.8295 sf 0 0 m (0.005) show NC gr 
 gsave  408 305 476 1009 C 490.009 1136.71 t 0 r /Helvetica findfont 22.8295 sf 0 0 m (0.01) show NC gr 
 gsave  408 305 476 1009 C 475.765 1168.04 t 0 r /Helvetica findfont 22.8295 sf 0 0 m (0.015) show NC gr 
 gsave  408 305 476 1009 C 487.16 1202.23 t 0 r /Helvetica findfont 22.8295 sf 0 0 m (0.02) show NC gr 
 gsave  408 305 476 1009 C 475.765 1233.57 t 0 r /Helvetica findfont 22.8295 sf 0 0 m (0.025) show NC gr 
 gsave  408 305 476 1009 C 487.16 1264.91 t 0 r /Helvetica findfont 22.8295 sf 0 0 m (0.03) show NC gr  844 1055 m 229 Y s 838 1080 m 6 X s 841 1086 m 3 X s 841 1093 m 3 X s 841 1099 m 3 X s 841 1106 m 3 X s 838 1112 m 6 X s 841 1119 m 3 X s 841 1125
 m 3 X s 841 1131 m 3 X s 841 1138 m 3 X s 838 1144 m 6 X s 841 1151 m 3 X s 841 1157 m 3 X s 841 1164 m 3 X s 841 1170 m 3 X s 838 1176 m 6 X s 841 1183 m 3 X s 841 1189 m 3 X s 841 1196 m 3 X s 841 1202 m 3 X s 838 1209 m 6 X s 841 1215 m 3 X s 841
 1221 m 3 X s 841 1228 m 3 X s 841 1234 m 3 X s 838 1241 m 6 X s 841 1247 m 3 X s 841 1254 m 3 X s 841 1260 m 3 X s 841 1266 m 3 X s 838 1273 m 6 X s 838 1080 m 6 X s 841 1074 m 3 X s 841 1067 m 3 X s 841 1061 m 3 X s 838 1273 m 6 X s 841 1279 m 3 X
 s /w 23 def /w2 {w 2 div} def /w3 {w 3 div} def 633 1084 728 1129 823 1254 3 { m21} R 1 0 0 c 9 lw 0.95 0.95 0.95 c black 1 0 0 c 539 1080 m 12 X 3 1 d 9 X 4 1 d 6 X 3 1 d 3 X 3 1 d 3 X 3 1 d 3 1 d 3 X 3 1 d 3 1 d 3 1 d 3 X 3 1 d 3 1 d 4 1 d 3 1 d 3
 1 d 3 1 d 3 1 d 3 1 d 3 1 d 3 1 d 3 2 d 3 1 d 3 1 d 3 2 d 3 1 d 3 1 d 3 2 d 3 1 d 3 2 d 4 1 d 3 2 d 3 1 d 3 2 d 3 2 d 3 2 d 3 1 d 3 2 d s 689 1125 m 3 2 d 3 2 d 3 2 d 3 2 d 3 2 d 3 2 d 3 2 d 3 2 d 4 2 d 3 2 d 3 2 d 3 3 d 3 2 d 3 2 d 3 3 d 3 2 d 3 2
 d 3 3 d 3 2 d 3 3 d 3 2 d 3 3 d 3 3 d 3 2 d 4 3 d 3 3 d 3 3 d 3 3 d 3 2 d 3 3 d 3 3 d 3 3 d 3 3 d 3 3 d 3 3 d 3 3 d 3 4 d 3 3 d 3 3 d 3 3 d 4 4 d 3 3 d 3 3 d 3 4 d 3 3 d 3 4 d 3 3 d 3 4 d 3 3 d s 839 1258 m 3 4 d s 0.49 0.6 0.82 c black 0.49 0.6
 0.82 c
 gsave  408 305 476 1009 C 595.418 1293.4 t 0 r /Helvetica-Bold findfont 25.6831 sf 0 0 m (0.5 < E < 1.0 GeV) show NC gr  0.52 0.76 0.64 c black 0.52 0.76 0.64 c
 gsave  408 305 476 1009 C 581.174 1256.36 t 0 r /Helvetica-Bold findfont 25.6831 sf 0 0 m 
 220 206 192 185 170 163 148 141 125 118 111 97 83 68 61 47 40 25 18
(A = 0.003, p = 2.000) K NC gr  1 0.6 1 c black 1 0.6 1 c
 gsave  408 305 476 1009 C 883.156 1122.46 t 90 r /Helvetica-Bold findfont 28.5368 sf 0 0 m (/dof=4.2) show NC gr  black 1 0.6 1 c
 gsave  408 305 476 1009 C 871.76 1111.07 t 90 r /Helvetica-Bold findfont 19.9758 sf 0 0 m (2) show NC gr  black 1 0.6 1 c
 gsave  408 305 476 1009 C 883.156 1093.97 t 90 r /Symbol findfont 28.5368 sf 0 0 m (c) show NC gr  black 3 lw 1 1 1 c 408 305 930 1009 bf black 1 1 1 c black 306 229 991 1055 bl 306 229 991 1055 bl 991 1055 m 306 X s 991 1059 m -4 Y s 1086 1059 m -4
 Y s 1181 1059 m -4 Y s 1276 1059 m -4 Y s 1276 1059 m -4 Y s
 gsave  408 305 930 1009 C 980.018 1034.15 t 0 r /Helvetica findfont 22.8295 sf 0 0 m (0) show NC gr 
 gsave  408 305 930 1009 C 1079.73 1034.15 t 0 r /Helvetica findfont 22.8295 sf 0 0 m (1) show NC gr 
 gsave  408 305 930 1009 C 1170.89 1034.15 t 0 r /Helvetica findfont 22.8295 sf 0 0 m (2) show NC gr 
 gsave  408 305 930 1009 C 1264.91 1034.15 t 0 r /Helvetica findfont 22.8295 sf 0 0 m (3) show NC gr  991 1284 m 306 X s 991 1280 m 4 Y s 1086 1280 m 4 Y s 1181 1280 m 4 Y s 1276 1280 m 4 Y s 1276 1280 m 4 Y s 991 1055 m 229 Y s 997 1059 m -6 X s 994
 1066 m -3 X s 994 1072 m -3 X s 994 1079 m -3 X s 997 1085 m -6 X s 994 1092 m -3 X s 994 1099 m -3 X s 994 1105 m -3 X s 997 1112 m -6 X s 994 1118 m -3 X s 994 1125 m -3 X s 994 1131 m -3 X s 997 1138 m -6 X s 994 1144 m -3 X s 994 1151 m -3 X s
 994 1158 m -3 X s 997 1164 m -6 X s 994 1171 m -3 X s 994 1177 m -3 X s 994 1184 m -3 X s 997 1190 m -6 X s 994 1197 m -3 X s 994 1203 m -3 X s 994 1210 m -3 X s 997 1217 m -6 X s 994 1223 m -3 X s 994 1230 m -3 X s 994 1236 m -3 X s 997 1243 m -6 X
 s 994 1249 m -3 X s 994 1256 m -3 X s 994 1262 m -3 X s 997 1269 m -6 X s 997 1059 m -6 X s 997 1269 m -6 X s 994 1276 m -3 X s 994 1282 m -3 X s
 gsave  408 305 930 1009 C 923.04 1051.24 t 0 r /Helvetica findfont 22.8295 sf 0 0 m (\2550.002) show NC gr 
 gsave  408 305 930 1009 C 974.32 1079.73 t 0 r /Helvetica findfont 22.8295 sf 0 0 m (0) show NC gr 
 gsave  408 305 930 1009 C 931.587 1105.37 t 0 r /Helvetica findfont 22.8295 sf 0 0 m (0.002) show NC gr 
 gsave  408 305 930 1009 C 931.587 1131.01 t 0 r /Helvetica findfont 22.8295 sf 0 0 m (0.004) show NC gr 
 gsave  408 305 930 1009 C 931.587 1156.65 t 0 r /Helvetica findfont 22.8295 sf 0 0 m (0.006) show NC gr 
 gsave  408 305 930 1009 C 931.587 1182.29 t 0 r /Helvetica findfont 22.8295 sf 0 0 m (0.008) show NC gr 
 gsave  408 305 930 1009 C 945.832 1210.78 t 0 r /Helvetica findfont 22.8295 sf 0 0 m (0.01) show NC gr 
 gsave  408 305 930 1009 C 931.587 1236.42 t 0 r /Helvetica findfont 22.8295 sf 0 0 m (0.012) show NC gr 
 gsave  408 305 930 1009 C 931.587 1262.06 t 0 r /Helvetica findfont 22.8295 sf 0 0 m (0.014) show NC gr  1297 1055 m 229 Y s 1292 1059 m 5 X s 1294 1066 m 3 X s 1294 1072 m 3 X s 1294 1079 m 3 X s 1292 1085 m 5 X s 1294 1092 m 3 X s 1294 1099 m 3 X
 s 1294 1105 m 3 X s 1292 1112 m 5 X s 1294 1118 m 3 X s 1294 1125 m 3 X s 1294 1131 m 3 X s 1292 1138 m 5 X s 1294 1144 m 3 X s 1294 1151 m 3 X s 1294 1158 m 3 X s 1292 1164 m 5 X s 1294 1171 m 3 X s 1294 1177 m 3 X s 1294 1184 m 3 X s 1292 1190 m 5
 X s 1294 1197 m 3 X s 1294 1203 m 3 X s 1294 1210 m 3 X s 1292 1217 m 5 X s 1294 1223 m 3 X s 1294 1230 m 3 X s 1294 1236 m 3 X s 1292 1243 m 5 X s 1294 1249 m 3 X s 1294 1256 m 3 X s 1294 1262 m 3 X s 1292 1269 m 5 X s 1292 1059 m 5 X s 1292 1269 m
 5 X s 1294 1276 m 3 X s 1294 1282 m 3 X s 1086 1093 1181 1126 1276 1242 3 { m21} R 1086 1105 m 8 Y s 1080 1113 m 12 X s 1086 1082 m -8 Y s 1080 1074 m 12 X s 1181 1137 m 9 Y s 1175 1146 m 12 X s 1181 1114 m -9 Y s 1175 1105 m 12 X s 1276 1254 m 11 Y
 s 1271 1265 m 11 X s 1276 1231 m -11 Y s 1271 1220 m 11 X s 1 0 0 c 9 lw 0.95 0.95 0.95 c black 1 0 0 c 993 1085 m 3 X 3 1 d 15 X 3 1 d 6 X 3 1 d 6 X 3 1 d 3 X 4 1 d 3 1 d 3 X 3 1 d 3 X 3 1 d 3 1 d 3 1 d 3 X 3 1 d 3 1 d 3 1 d 3 1 d 3 1 d 3 1 d 3 1 d
 3 1 d 4 1 d 3 1 d 3 1 d 3 1 d 3 2 d 3 1 d 3 1 d 3 2 d 3 1 d 3 1 d 3 2 d 3 1 d 3 2 d 3 1 d 3 2 d 3 1 d 4 2 d s 1143 1126 m 3 2 d 3 1 d 3 2 d 3 2 d 3 1 d 3 2 d 3 2 d 3 2 d 3 2 d 3 2 d 3 2 d 3 2 d 3 2 d 3 2 d 3 2 d 4 2 d 3 2 d 3 3 d 3 2 d 3 2 d 3 2 d 3
 3 d 3 2 d 3 3 d 3 2 d 3 3 d 3 2 d 3 3 d 3 2 d 3 3 d 3 2 d 3 3 d 4 3 d 3 2 d 3 3 d 3 3 d 3 3 d 3 3 d 3 3 d 3 3 d 3 3 d 3 3 d 3 3 d 3 3 d 3 3 d 3 3 d 3 3 d 3 3 d 4 4 d s 1293 1246 m 3 3 d s 0.49 0.6 0.82 c black 0.49 0.6 0.82 c
 gsave  408 305 930 1009 C 1051.24 1293.4 t 0 r /Helvetica-Bold findfont 25.6831 sf 0 0 m (1.0 < E < 1.5 GeV) show NC gr  0.52 0.76 0.64 c black 0.52 0.76 0.64 c
 gsave  408 305 930 1009 C 1037 1256.36 t 0 r /Helvetica-Bold findfont 25.6831 sf 0 0 m 
 220 206 192 185 170 163 148 141 125 118 111 97 83 69 61 47 40 25 18
(A = 0.001, p = 2.000) K NC gr  1 0.6 1 c black 1 0.6 1 c
 gsave  408 305 930 1009 C 1336.13 1122.46 t 90 r /Helvetica-Bold findfont 28.5368 sf 0 0 m (/dof=0.9) show NC gr  black 1 0.6 1 c
 gsave  408 305 930 1009 C 1324.73 1111.07 t 90 r /Helvetica-Bold findfont 19.9758 sf 0 0 m (2) show NC gr  black 1 0.6 1 c
 gsave  408 305 930 1009 C 1336.13 1093.97 t 90 r /Symbol findfont 28.5368 sf 0 0 m (c) show NC gr  black 3 lw 1 1 1 c 408 305 1383 1009 bf black 1 1 1 c black 306 229 1445 1055 bl 306 229 1445 1055 bl 1445 1055 m 306 X s 1445 1059 m -4 Y s 1540 1059
 m -4 Y s 1635 1059 m -4 Y s 1730 1059 m -4 Y s 1730 1059 m -4 Y s
 gsave  408 305 1383 1009 C 1435.84 1034.15 t 0 r /Helvetica findfont 22.8295 sf 0 0 m (0) show NC gr 
 gsave  408 305 1383 1009 C 1532.7 1034.15 t 0 r /Helvetica findfont 22.8295 sf 0 0 m (1) show NC gr 
 gsave  408 305 1383 1009 C 1623.87 1034.15 t 0 r /Helvetica findfont 22.8295 sf 0 0 m (2) show NC gr 
 gsave  408 305 1383 1009 C 1720.73 1034.15 t 0 r /Helvetica findfont 22.8295 sf 0 0 m (3) show NC gr  1445 1284 m 306 X s 1445 1280 m 4 Y s 1540 1280 m 4 Y s 1635 1280 m 4 Y s 1730 1280 m 4 Y s 1730 1280 m 4 Y s 1445 1055 m 229 Y s 1450 1064 m -5 X
 s 1447 1070 m -2 X s 1447 1075 m -2 X s 1447 1081 m -2 X s 1447 1087 m -2 X s 1450 1092 m -5 X s 1447 1098 m -2 X s 1447 1103 m -2 X s 1447 1109 m -2 X s 1447 1114 m -2 X s 1450 1120 m -5 X s 1447 1125 m -2 X s 1447 1131 m -2 X s 1447 1136 m -2 X s
 1447 1142 m -2 X s 1450 1147 m -5 X s 1447 1153 m -2 X s 1447 1158 m -2 X s 1447 1164 m -2 X s 1447 1169 m -2 X s 1450 1175 m -5 X s 1447 1180 m -2 X s 1447 1186 m -2 X s 1447 1192 m -2 X s 1447 1197 m -2 X s 1450 1203 m -5 X s 1447 1208 m -2 X s
 1447 1214 m -2 X s 1447 1219 m -2 X s 1447 1225 m -2 X s 1450 1230 m -5 X s 1447 1236 m -2 X s 1447 1241 m -2 X s 1447 1247 m -2 X s 1447 1252 m -2 X s 1450 1258 m -5 X s 1450 1064 m -5 X s 1447 1059 m -2 X s 1450 1258 m -5 X s 1447 1263 m -2 X s
 1447 1269 m -2 X s 1447 1274 m -2 X s 1447 1280 m -2 X s
 gsave  408 305 1383 1009 C 1378.86 1056.94 t 0 r /Helvetica findfont 22.8295 sf 0 0 m (\2550.001) show NC gr 
 gsave  408 305 1383 1009 C 1427.29 1085.43 t 0 r /Helvetica findfont 22.8295 sf 0 0 m (0) show NC gr 
 gsave  408 305 1383 1009 C 1387.41 1113.92 t 0 r /Helvetica findfont 22.8295 sf 0 0 m (0.001) show NC gr 
 gsave  408 305 1383 1009 C 1384.56 1139.56 t 0 r /Helvetica findfont 22.8295 sf 0 0 m (0.002) show NC gr 
 gsave  408 305 1383 1009 C 1384.56 1168.04 t 0 r /Helvetica findfont 22.8295 sf 0 0 m (0.003) show NC gr 
 gsave  408 305 1383 1009 C 1384.56 1196.53 t 0 r /Helvetica findfont 22.8295 sf 0 0 m (0.004) show NC gr 
 gsave  408 305 1383 1009 C 1384.56 1222.17 t 0 r /Helvetica findfont 22.8295 sf 0 0 m (0.005) show NC gr 
 gsave  408 305 1383 1009 C 1384.56 1250.66 t 0 r /Helvetica findfont 22.8295 sf 0 0 m (0.006) show NC gr  1751 1055 m 229 Y s 1745 1064 m 6 X s 1748 1070 m 3 X s 1748 1075 m 3 X s 1748 1081 m 3 X s 1748 1087 m 3 X s 1745 1092 m 6 X s 1748 1098 m 3 X
 s 1748 1103 m 3 X s 1748 1109 m 3 X s 1748 1114 m 3 X s 1745 1120 m 6 X s 1748 1125 m 3 X s 1748 1131 m 3 X s 1748 1136 m 3 X s 1748 1142 m 3 X s 1745 1147 m 6 X s 1748 1153 m 3 X s 1748 1158 m 3 X s 1748 1164 m 3 X s 1748 1169 m 3 X s 1745 1175 m 6
 X s 1748 1180 m 3 X s 1748 1186 m 3 X s 1748 1192 m 3 X s 1748 1197 m 3 X s 1745 1203 m 6 X s 1748 1208 m 3 X s 1748 1214 m 3 X s 1748 1219 m 3 X s 1748 1225 m 3 X s 1745 1230 m 6 X s 1748 1236 m 3 X s 1748 1241 m 3 X s 1748 1247 m 3 X s 1748 1252 m
 3 X s 1745 1258 m 6 X s 1745 1064 m 6 X s 1748 1059 m 3 X s 1745 1258 m 6 X s 1748 1263 m 3 X s 1748 1269 m 3 X s 1748 1274 m 3 X s 1748 1280 m 3 X s 1540 1116 1635 1165 1730 1217 3 { m21} R 1540 1127 m 31 Y s 1534 1158 m 11 X s 1540 1105 m -31 Y s
 1534 1074 m 11 X s 1635 1176 m 32 Y s 1629 1208 m 11 X s 1635 1153 m -32 Y s 1629 1121 m 11 X s 1730 1228 m 37 Y s 1724 1265 m 11 X s 1730 1206 m -37 Y s 1724 1169 m 11 X s 9 lw 0.95 0.95 0.95 c black 1446 1093 m 3 1 d 3 1 d 3 1 d 3 2 d 3 1 d 3 1 d
 3 1 d 4 2 d 3 1 d 3 1 d 3 1 d 3 2 d 3 1 d 3 1 d 3 1 d 3 1 d 3 2 d 3 1 d 3 1 d 3 1 d 3 2 d 3 1 d 3 1 d 4 1 d 3 2 d 3 1 d 3 1 d 3 1 d 3 2 d 3 1 d 3 1 d 3 1 d 3 2 d 3 1 d 3 1 d 3 1 d 3 2 d 3 1 d 3 1 d 4 1 d 3 1 d 3 2 d 3 1 d 3 1 d 3 1 d 3 2 d 3 1 d 3 1
 d 3 1 d s 1596 1153 m 3 2 d 3 1 d 3 1 d 3 1 d 3 2 d 3 1 d 4 1 d 3 1 d 3 2 d 3 1 d 3 1 d 3 1 d 3 1 d 3 2 d 3 1 d 3 1 d 3 1 d 3 2 d 3 1 d 3 1 d 3 1 d 3 2 d 3 1 d 4 1 d 3 1 d 3 2 d 3 1 d 3 1 d 3 1 d 3 2 d 3 1 d 3 1 d 3 1 d 3 2 d 3 1 d 3 1 d 3 1 d 3 1 d
 3 2 d 4 1 d 3 1 d 3 1 d 3 2 d 3 1 d 3 1 d 3 1 d 3 2 d 3 1 d 3 1 d s 1746 1214 m 3 1 d s 0.49 0.6 0.82 c black 0.49 0.6 0.82 c
 gsave  408 305 1383 1009 C 1504.21 1293.4 t 0 r /Helvetica-Bold findfont 25.6831 sf 0 0 m (1.5 < E < 2.0 GeV) show NC gr  0.52 0.76 0.64 c black 0.52 0.76 0.64 c
 gsave  408 305 1383 1009 C 1489.97 1256.36 t 0 r /Helvetica-Bold findfont 25.6831 sf 0 0 m 
 220 206 192 185 170 163 148 141 126 118 111 97 83 69 61 47 40 25 18
(A = 0.001, p = 1.000) K NC gr  1 0.6 1 c black 1 0.6 1 c
 gsave  408 305 1383 1009 C 1789.1 1122.46 t 90 r /Helvetica-Bold findfont 28.5368 sf 0 0 m (/dof=0.1) show NC gr  black 1 0.6 1 c
 gsave  408 305 1383 1009 C 1777.71 1111.07 t 90 r /Helvetica-Bold findfont 19.9758 sf 0 0 m (2) show NC gr  black 1 0.6 1 c
 gsave  408 305 1383 1009 C 1789.1 1093.97 t 90 r /Symbol findfont 28.5368 sf 0 0 m (c) show NC gr  black 3 lw 1 1 1 c 408 305 1837 1009 bf black 1 1 1 c black 306 229 1898 1055 bl 306 229 1898 1055 bl 1898 1055 m 306 X s 1898 1059 m -4 Y s 1993 1059
 m -4 Y s 2088 1059 m -4 Y s 2183 1059 m -4 Y s 2183 1059 m -4 Y s
 gsave  408 305 1837 1009 C 1888.81 1034.15 t 0 r /Helvetica findfont 22.8295 sf 0 0 m (0) show NC gr 
 gsave  408 305 1837 1009 C 1985.68 1034.15 t 0 r /Helvetica findfont 22.8295 sf 0 0 m (1) show NC gr 
 gsave  408 305 1837 1009 C 2076.84 1034.15 t 0 r /Helvetica findfont 22.8295 sf 0 0 m (2) show NC gr 
 gsave  408 305 1837 1009 C 2173.7 1034.15 t 0 r /Helvetica findfont 22.8295 sf 0 0 m (3) show NC gr  1898 1284 m 306 X s 1898 1280 m 4 Y s 1993 1280 m 4 Y s 2088 1280 m 4 Y s 2183 1280 m 4 Y s 2183 1280 m 4 Y s 1898 1055 m 229 Y s 1904 1069 m -6 X s
 1901 1076 m -3 X s 1901 1084 m -3 X s 1901 1091 m -3 X s 1901 1099 m -3 X s 1904 1106 m -6 X s 1901 1114 m -3 X s 1901 1121 m -3 X s 1901 1129 m -3 X s 1901 1136 m -3 X s 1904 1144 m -6 X s 1901 1151 m -3 X s 1901 1159 m -3 X s 1901 1166 m -3 X s
 1901 1174 m -3 X s 1904 1181 m -6 X s 1901 1189 m -3 X s 1901 1196 m -3 X s 1901 1204 m -3 X s 1901 1211 m -3 X s 1904 1219 m -6 X s 1901 1226 m -3 X s 1901 1234 m -3 X s 1901 1241 m -3 X s 1901 1249 m -3 X s 1904 1256 m -6 X s 1904 1069 m -6 X s
 1901 1061 m -3 X s 1904 1256 m -6 X s 1901 1264 m -3 X s 1901 1271 m -3 X s 1901 1279 m -3 X s
 gsave  408 305 1837 1009 C 1831.84 1062.64 t 0 r /Helvetica findfont 22.8295 sf 0 0 m (\2550.001) show NC gr 
 gsave  408 305 1837 1009 C 1880.27 1099.67 t 0 r /Helvetica findfont 22.8295 sf 0 0 m (0) show NC gr 
 gsave  408 305 1837 1009 C 1840.38 1136.71 t 0 r /Helvetica findfont 22.8295 sf 0 0 m (0.001) show NC gr 
 gsave  408 305 1837 1009 C 1837.53 1173.74 t 0 r /Helvetica findfont 22.8295 sf 0 0 m (0.002) show NC gr 
 gsave  408 305 1837 1009 C 1837.53 1210.78 t 0 r /Helvetica findfont 22.8295 sf 0 0 m (0.003) show NC gr 
 gsave  408 305 1837 1009 C 1837.53 1250.66 t 0 r /Helvetica findfont 22.8295 sf 0 0 m (0.004) show NC gr  2204 1055 m 229 Y s 2199 1069 m 5 X s 2201 1076 m 3 X s 2201 1084 m 3 X s 2201 1091 m 3 X s 2201 1099 m 3 X s 2199 1106 m 5 X s 2201 1114 m 3 X
 s 2201 1121 m 3 X s 2201 1129 m 3 X s 2201 1136 m 3 X s 2199 1144 m 5 X s 2201 1151 m 3 X s 2201 1159 m 3 X s 2201 1166 m 3 X s 2201 1174 m 3 X s 2199 1181 m 5 X s 2201 1189 m 3 X s 2201 1196 m 3 X s 2201 1204 m 3 X s 2201 1211 m 3 X s 2199 1219 m 5
 X s 2201 1226 m 3 X s 2201 1234 m 3 X s 2201 1241 m 3 X s 2201 1249 m 3 X s 2199 1256 m 5 X s 2199 1069 m 5 X s 2201 1061 m 3 X s 2199 1256 m 5 X s 2201 1264 m 3 X s 2201 1271 m 3 X s 2201 1279 m 3 X s 1993 1134 2088 1190 2183 1197 3 { m21} R 1993
 1145 m 49 Y s 1987 1194 m 12 X s 1993 1123 m -49 Y s 1987 1074 m 12 X s 2088 1201 m 51 Y s 2083 1252 m 11 X s 2088 1178 m -50 Y s 2083 1128 m 11 X s 2183 1208 m 57 Y s 2178 1265 m 11 X s 2183 1185 m -56 Y s 2178 1129 m 11 X s 9 lw 0.95 0.95 0.95 c
 black 1900 1107 m 3 1 d 3 1 d 3 1 d 3 1 d 3 1 d 3 1 d 3 1 d 3 1 d 3 1 d 3 2 d 3 1 d 3 1 d 3 1 d 3 1 d 4 1 d 3 1 d 3 1 d 3 1 d 3 1 d 3 1 d 3 1 d 3 2 d 3 1 d 3 1 d 3 1 d 3 1 d 3 1 d 3 1 d 3 1 d 3 1 d 4 1 d 3 1 d 3 1 d 3 2 d 3 1 d 3 1 d 3 1 d 3 1 d 3 1
 d 3 1 d 3 1 d 3 1 d 3 1 d 3 1 d 3 1 d 3 2 d 3 1 d 4 1 d 3 1 d s 2050 1160 m 3 1 d 3 1 d 3 1 d 3 1 d 3 1 d 3 1 d 3 1 d 3 1 d 3 2 d 3 1 d 3 1 d 3 1 d 3 1 d 3 1 d 4 1 d 3 1 d 3 1 d 3 1 d 3 1 d 3 1 d 3 2 d 3 1 d 3 1 d 3 1 d 3 1 d 3 1 d 3 1 d 3 1 d 3 1 d
 3 1 d 4 1 d 3 2 d 3 1 d 3 1 d 3 1 d 3 1 d 3 1 d 3 1 d 3 1 d 3 1 d 3 1 d 3 1 d 3 1 d 3 2 d 3 1 d 3 1 d 4 1 d 3 1 d 3 1 d s 2200 1213 m 3 1 d s 0.49 0.6 0.82 c black 0.49 0.6 0.82 c
 gsave  408 305 1837 1009 C 1957.19 1293.4 t 0 r /Helvetica-Bold findfont 25.6831 sf 0 0 m (2.0 < E < 2.5 GeV) show NC gr  0.52 0.76 0.64 c black 0.52 0.76 0.64 c
 gsave  408 305 1837 1009 C 1942.94 1256.36 t 0 r /Helvetica-Bold findfont 25.6831 sf 0 0 m 
 220 206 192 185 170 163 148 141 125 118 111 97 83 69 61 47 40 25 18
(A = 0.001, p = 1.000) K NC gr  1 0.6 1 c black 1 0.6 1 c
 gsave  408 305 1837 1009 C 2242.08 1122.46 t 90 r /Helvetica-Bold findfont 28.5368 sf 0 0 m (/dof=0.1) show NC gr  black 1 0.6 1 c
 gsave  408 305 1837 1009 C 2230.68 1111.07 t 90 r /Helvetica-Bold findfont 19.9758 sf 0 0 m (2) show NC gr  black 1 0.6 1 c
 gsave  408 305 1837 1009 C 2242.08 1093.97 t 90 r /Symbol findfont 28.5368 sf 0 0 m (c) show NC gr  black 3 lw 1 1 1 c 408 305 23 677 bf black 1 1 1 c black 306 229 84 723 bl 306 229 84 723 bl 84 723 m 306 X s 84 727 m -4 Y s 179 727 m -4 Y s 274
 727 m -4 Y s 369 727 m -4 Y s 369 727 m -4 Y s
 gsave  408 305 23 677 C 74.0711 703.676 t 0 r /Helvetica findfont 22.8295 sf 0 0 m (0) show NC gr 
 gsave  408 305 23 677 C 170.933 703.676 t 0 r /Helvetica findfont 22.8295 sf 0 0 m (1) show NC gr 
 gsave  408 305 23 677 C 264.947 703.676 t 0 r /Helvetica findfont 22.8295 sf 0 0 m (2) show NC gr 
 gsave  408 305 23 677 C 358.96 703.676 t 0 r /Helvetica findfont 22.8295 sf 0 0 m (3) show NC gr  84 952 m 306 X s 84 948 m 4 Y s 179 948 m 4 Y s 274 948 m 4 Y s 369 948 m 4 Y s 369 948 m 4 Y s 84 723 m 229 Y s 89 724 m -5 X s 87 732 m -3 X s 87 739
 m -3 X s 87 747 m -3 X s 89 755 m -5 X s 87 762 m -3 X s 87 770 m -3 X s 87 777 m -3 X s 89 785 m -5 X s 87 792 m -3 X s 87 800 m -3 X s 87 808 m -3 X s 89 815 m -5 X s 87 823 m -3 X s 87 830 m -3 X s 87 838 m -3 X s 89 845 m -5 X s 87 853 m -3 X s
 87 860 m -3 X s 87 868 m -3 X s 89 876 m -5 X s 87 883 m -3 X s 87 891 m -3 X s 87 898 m -3 X s 89 906 m -5 X s 87 913 m -3 X s 87 921 m -3 X s 87 929 m -3 X s 89 936 m -5 X s 89 724 m -5 X s 89 936 m -5 X s 87 944 m -3 X s 87 951 m -3 X s
 gsave  408 305 23 677 C 14.2445 717.92 t 0 r /Helvetica findfont 22.8295 sf 0 0 m (\2550.002) show NC gr 
 gsave  408 305 23 677 C 65.5245 746.409 t 0 r /Helvetica findfont 22.8295 sf 0 0 m (0) show NC gr 
 gsave  408 305 23 677 C 22.7911 777.747 t 0 r /Helvetica findfont 22.8295 sf 0 0 m (0.002) show NC gr 
 gsave  408 305 23 677 C 22.7911 809.085 t 0 r /Helvetica findfont 22.8295 sf 0 0 m (0.004) show NC gr 
 gsave  408 305 23 677 C 22.7911 837.574 t 0 r /Helvetica findfont 22.8295 sf 0 0 m (0.006) show NC gr 
 gsave  408 305 23 677 C 22.7911 868.911 t 0 r /Helvetica findfont 22.8295 sf 0 0 m (0.008) show NC gr 
 gsave  408 305 23 677 C 37.0356 897.4 t 0 r /Helvetica findfont 22.8295 sf 0 0 m (0.01) show NC gr 
 gsave  408 305 23 677 C 22.7911 928.738 t 0 r /Helvetica findfont 22.8295 sf 0 0 m (0.012) show NC gr  390 723 m 229 Y s 385 724 m 5 X s 387 732 m 3 X s 387 739 m 3 X s 387 747 m 3 X s 385 755 m 5 X s 387 762 m 3 X s 387 770 m 3 X s 387 777 m 3 X s
 385 785 m 5 X s 387 792 m 3 X s 387 800 m 3 X s 387 808 m 3 X s 385 815 m 5 X s 387 823 m 3 X s 387 830 m 3 X s 387 838 m 3 X s 385 845 m 5 X s 387 853 m 3 X s 387 860 m 3 X s 387 868 m 3 X s 385 876 m 5 X s 387 883 m 3 X s 387 891 m 3 X s 387 898 m
 3 X s 385 906 m 5 X s 387 913 m 3 X s 387 921 m 3 X s 387 929 m 3 X s 385 936 m 5 X s 385 724 m 5 X s 385 936 m 5 X s 387 944 m 3 X s 387 951 m 3 X s /w 22 def /w2 {w 2 div} def /w3 {w 3 div} def 179 768 274 824 369 903 3 { m21} R 179 779 m 15 Y s
 173 794 m 12 X s 179 757 m -15 Y s 173 742 m 12 X s 274 835 m 16 Y s 268 851 m 12 X s 274 813 m -16 Y s 268 797 m 12 X s 369 914 m 19 Y s 363 933 m 12 X s 369 892 m -19 Y s 363 873 m 12 X s 1 0 0 c 9 lw 0.95 0.95 0.95 c black 1 0 0 c 85 755 m 19 X 3
 1 d 9 X 3 1 d 3 X 3 1 d 3 X 3 1 d 3 X 3 1 d 4 X 3 1 d 3 1 d 3 1 d 3 X 3 1 d 3 1 d 3 1 d 3 1 d 3 1 d 3 1 d 3 1 d 3 1 d 3 1 d 3 1 d 3 1 d 4 1 d 3 1 d 3 2 d 3 1 d 3 1 d 3 1 d 3 2 d 3 1 d 3 2 d 3 1 d 3 2 d 3 1 d 3 2 d 3 1 d 3 2 d 3 2 d s 235 797 m 4 2 d
 3 1 d 3 2 d 3 2 d 3 2 d 3 2 d 3 2 d 3 2 d 3 2 d 3 2 d 3 2 d 3 2 d 3 2 d 3 2 d 3 2 d 3 3 d 3 2 d 4 2 d 3 2 d 3 3 d 3 2 d 3 3 d 3 2 d 3 3 d 3 2 d 3 3 d 3 2 d 3 3 d 3 3 d 3 3 d 3 2 d 3 3 d 3 3 d 4 3 d 3 3 d 3 3 d 3 3 d 3 3 d 3 3 d 3 3 d 3 3 d 3 3 d 3 3
 d 3 3 d 3 4 d 3 3 d 3 3 d 3 3 d 3 4 d s 385 922 m 4 3 d s 0.49 0.6 0.82 c black 0.49 0.6 0.82 c
 gsave  408 305 23 677 C 142.445 960.076 t 0 r /Helvetica-Bold findfont 25.6831 sf 0 0 m (2.5 < E < 3.0 GeV) show NC gr  0.52 0.76 0.64 c black 0.52 0.76 0.64 c
 gsave  408 305 23 677 C 128.2 923.04 t 0 r /Helvetica-Bold findfont 25.6831 sf 0 0 m 
 220 206 192 185 170 163 148 141 126 118 111 97 83 69 61 47 40 25 18
(A = 0.001, p = 2.000) K NC gr  1 0.6 1 c black 1 0.6 1 c
 gsave  408 305 23 677 C 427.334 791.991 t 90 r /Helvetica-Bold findfont 28.5368 sf 0 0 m (/dof=0.0) show NC gr  black 1 0.6 1 c
 gsave  408 305 23 677 C 415.938 780.596 t 90 r /Helvetica-Bold findfont 19.9758 sf 0 0 m (2) show NC gr  black 1 0.6 1 c
 gsave  408 305 23 677 C 427.334 763.503 t 90 r /Symbol findfont 28.5368 sf 0 0 m (c) show NC gr  black 3 lw 1 1 1 c 408 305 476 677 bf black 1 1 1 c black 307 229 537 723 bl 307 229 537 723 bl 537 723 m 307 X s 537 727 m -4 Y s 633 727 m -4 Y s 728
 727 m -4 Y s 823 727 m -4 Y s 823 727 m -4 Y s
 gsave  408 305 476 677 C 527.045 703.676 t 0 r /Helvetica findfont 22.8295 sf 0 0 m (0) show NC gr 
 gsave  408 305 476 677 C 626.756 703.676 t 0 r /Helvetica findfont 22.8295 sf 0 0 m (1) show NC gr 
 gsave  408 305 476 677 C 717.92 703.676 t 0 r /Helvetica findfont 22.8295 sf 0 0 m (2) show NC gr 
 gsave  408 305 476 677 C 811.934 703.676 t 0 r /Helvetica findfont 22.8295 sf 0 0 m (3) show NC gr  537 952 m 307 X s 537 948 m 4 Y s 633 948 m 4 Y s 728 948 m 4 Y s 823 948 m 4 Y s 823 948 m 4 Y s 537 723 m 229 Y s 543 723 m -6 X s 540 728 m -3 X s
 540 733 m -3 X s 540 738 m -3 X s 543 743 m -6 X s 540 748 m -3 X s 540 754 m -3 X s 540 759 m -3 X s 543 764 m -6 X s 540 769 m -3 X s 540 774 m -3 X s 540 779 m -3 X s 543 784 m -6 X s 540 789 m -3 X s 540 795 m -3 X s 540 800 m -3 X s 543 805 m
 -6 X s 540 810 m -3 X s 540 815 m -3 X s 540 820 m -3 X s 543 825 m -6 X s 540 830 m -3 X s 540 836 m -3 X s 540 841 m -3 X s 543 846 m -6 X s 540 851 m -3 X s 540 856 m -3 X s 540 861 m -3 X s 543 866 m -6 X s 540 871 m -3 X s 540 877 m -3 X s 540
 882 m -3 X s 543 887 m -6 X s 540 892 m -3 X s 540 897 m -3 X s 540 902 m -3 X s 543 907 m -6 X s 540 912 m -3 X s 540 917 m -3 X s 540 923 m -3 X s 543 928 m -6 X s 540 933 m -3 X s 540 938 m -3 X s 540 943 m -3 X s 543 948 m -6 X s 543 948 m -6 X
 s
 gsave  408 305 476 677 C 518.498 715.071 t 0 r /Helvetica findfont 22.8295 sf 0 0 m (0) show NC gr 
 gsave  408 305 476 677 C 475.765 735.014 t 0 r /Helvetica findfont 22.8295 sf 0 0 m (0.002) show NC gr 
 gsave  408 305 476 677 C 475.765 757.805 t 0 r /Helvetica findfont 22.8295 sf 0 0 m (0.004) show NC gr 
 gsave  408 305 476 677 C 475.765 777.747 t 0 r /Helvetica findfont 22.8295 sf 0 0 m (0.006) show NC gr 
 gsave  408 305 476 677 C 475.765 797.689 t 0 r /Helvetica findfont 22.8295 sf 0 0 m (0.008) show NC gr 
 gsave  408 305 476 677 C 490.009 817.631 t 0 r /Helvetica findfont 22.8295 sf 0 0 m (0.01) show NC gr 
 gsave  408 305 476 677 C 475.765 837.574 t 0 r /Helvetica findfont 22.8295 sf 0 0 m (0.012) show NC gr 
 gsave  408 305 476 677 C 475.765 860.365 t 0 r /Helvetica findfont 22.8295 sf 0 0 m (0.014) show NC gr 
 gsave  408 305 476 677 C 475.765 880.307 t 0 r /Helvetica findfont 22.8295 sf 0 0 m (0.016) show NC gr 
 gsave  408 305 476 677 C 475.765 900.249 t 0 r /Helvetica findfont 22.8295 sf 0 0 m (0.018) show NC gr 
 gsave  408 305 476 677 C 487.16 920.192 t 0 r /Helvetica findfont 22.8295 sf 0 0 m (0.02) show NC gr 
 gsave  408 305 476 677 C 475.765 940.134 t 0 r /Helvetica findfont 22.8295 sf 0 0 m (0.022) show NC gr  844 723 m 229 Y s 838 723 m 6 X s 841 728 m 3 X s 841 733 m 3 X s 841 738 m 3 X s 838 743 m 6 X s 841 748 m 3 X s 841 754 m 3 X s 841 759 m 3 X s
 838 764 m 6 X s 841 769 m 3 X s 841 774 m 3 X s 841 779 m 3 X s 838 784 m 6 X s 841 789 m 3 X s 841 795 m 3 X s 841 800 m 3 X s 838 805 m 6 X s 841 810 m 3 X s 841 815 m 3 X s 841 820 m 3 X s 838 825 m 6 X s 841 830 m 3 X s 841 836 m 3 X s 841 841 m
 3 X s 838 846 m 6 X s 841 851 m 3 X s 841 856 m 3 X s 841 861 m 3 X s 838 866 m 6 X s 841 871 m 3 X s 841 877 m 3 X s 841 882 m 3 X s 838 887 m 6 X s 841 892 m 3 X s 841 897 m 3 X s 841 902 m 3 X s 838 907 m 6 X s 841 912 m 3 X s 841 917 m 3 X s 841
 923 m 3 X s 838 928 m 6 X s 841 933 m 3 X s 841 938 m 3 X s 841 943 m 3 X s 838 948 m 6 X s 838 948 m 6 X s /w 23 def /w2 {w 2 div} def /w3 {w 3 div} def 633 746 728 813 823 909 3 { m21} R 633 758 m 8 Y s 627 766 m 11 X s 633 735 m -9 Y s 627 726 m
 11 X s 728 824 m 10 Y s 722 834 m 11 X s 728 802 m -10 Y s 722 792 m 11 X s 823 920 m 11 Y s 817 931 m 11 X s 823 897 m -11 Y s 817 886 m 11 X s 1 0 0 c 9 lw 0.95 0.95 0.95 c black 1 0 0 c 539 723 m 12 X 3 1 d 9 X 4 1 d 3 X 3 1 d 3 X 3 1 d 3 X 3 1 d
 3 1 d 3 1 d 3 X 3 1 d 3 1 d 3 1 d 3 1 d 3 1 d 3 1 d 4 1 d 3 1 d 3 1 d 3 2 d 3 1 d 3 1 d 3 2 d 3 1 d 3 1 d 3 2 d 3 1 d 3 2 d 3 2 d 3 1 d 3 2 d 3 2 d 3 1 d 4 2 d 3 2 d 3 2 d 3 2 d 3 2 d 3 2 d 3 2 d 3 2 d s 689 776 m 3 3 d 3 2 d 3 2 d 3 2 d 3 3 d 3 2 d
 3 3 d 3 2 d 4 3 d 3 2 d 3 3 d 3 2 d 3 3 d 3 3 d 3 3 d 3 2 d 3 3 d 3 3 d 3 3 d 3 3 d 3 3 d 3 3 d 3 4 d 3 3 d 4 3 d 3 3 d 3 4 d 3 3 d 3 3 d 3 4 d 3 3 d 3 4 d 3 3 d 3 4 d 3 4 d 3 3 d 3 4 d 3 4 d 3 4 d 3 4 d 4 4 d 3 4 d 3 4 d 3 4 d 3 4 d 3 4 d 3 4 d 3 4
 d 3 5 d s 839 935 m 3 4 d s 0.49 0.6 0.82 c black 0.49 0.6 0.82 c
 gsave  408 305 476 677 C 595.418 960.076 t 0 r /Helvetica-Bold findfont 25.6831 sf 0 0 m (3.0 < E < 3.5 GeV) show NC gr  0.52 0.76 0.64 c black 0.52 0.76 0.64 c
 gsave  408 305 476 677 C 581.174 923.04 t 0 r /Helvetica-Bold findfont 25.6831 sf 0 0 m 
 220 206 192 185 170 163 148 141 125 118 111 97 83 68 61 47 40 25 18
(A = 0.002, p = 2.000) K NC gr  1 0.6 1 c black 1 0.6 1 c
 gsave  408 305 476 677 C 883.156 791.991 t 90 r /Helvetica-Bold findfont 28.5368 sf 0 0 m (/dof=0.1) show NC gr  black 1 0.6 1 c
 gsave  408 305 476 677 C 871.76 780.596 t 90 r /Helvetica-Bold findfont 19.9758 sf 0 0 m (2) show NC gr  black 1 0.6 1 c
 gsave  408 305 476 677 C 883.156 763.503 t 90 r /Symbol findfont 28.5368 sf 0 0 m (c) show NC gr  black 3 lw 1 1 1 c 408 305 930 677 bf black 1 1 1 c black 306 229 991 723 bl 306 229 991 723 bl 991 723 m 306 X s 991 727 m -4 Y s 1086 727 m -4 Y s
 1181 727 m -4 Y s 1276 727 m -4 Y s 1276 727 m -4 Y s
 gsave  408 305 930 677 C 980.018 703.676 t 0 r /Helvetica findfont 22.8295 sf 0 0 m (0) show NC gr 
 gsave  408 305 930 677 C 1079.73 703.676 t 0 r /Helvetica findfont 22.8295 sf 0 0 m (1) show NC gr 
 gsave  408 305 930 677 C 1170.89 703.676 t 0 r /Helvetica findfont 22.8295 sf 0 0 m (2) show NC gr 
 gsave  408 305 930 677 C 1264.91 703.676 t 0 r /Helvetica findfont 22.8295 sf 0 0 m (3) show NC gr  991 952 m 306 X s 991 948 m 4 Y s 1086 948 m 4 Y s 1181 948 m 4 Y s 1276 948 m 4 Y s 1276 948 m 4 Y s 991 723 m 229 Y s 997 761 m -6 X s 994 770 m -3
 X s 994 778 m -3 X s 994 787 m -3 X s 994 795 m -3 X s 997 804 m -6 X s 994 812 m -3 X s 994 821 m -3 X s 994 829 m -3 X s 994 838 m -3 X s 997 846 m -6 X s 994 855 m -3 X s 994 863 m -3 X s 994 872 m -3 X s 994 881 m -3 X s 997 889 m -6 X s 994 898
 m -3 X s 994 906 m -3 X s 994 915 m -3 X s 994 923 m -3 X s 997 932 m -6 X s 997 761 m -6 X s 994 753 m -3 X s 994 744 m -3 X s 994 736 m -3 X s 994 727 m -3 X s 997 932 m -6 X s 994 940 m -3 X s 994 949 m -3 X s
 gsave  408 305 930 677 C 945.832 754.956 t 0 r /Helvetica findfont 22.8295 sf 0 0 m (0.01) show NC gr 
 gsave  408 305 930 677 C 942.983 797.689 t 0 r /Helvetica findfont 22.8295 sf 0 0 m (0.02) show NC gr 
 gsave  408 305 930 677 C 942.983 840.423 t 0 r /Helvetica findfont 22.8295 sf 0 0 m (0.03) show NC gr 
 gsave  408 305 930 677 C 942.983 883.156 t 0 r /Helvetica findfont 22.8295 sf 0 0 m (0.04) show NC gr 
 gsave  408 305 930 677 C 942.983 925.889 t 0 r /Helvetica findfont 22.8295 sf 0 0 m (0.05) show NC gr  1297 723 m 229 Y s 1292 761 m 5 X s 1294 770 m 3 X s 1294 778 m 3 X s 1294 787 m 3 X s 1294 795 m 3 X s 1292 804 m 5 X s 1294 812 m 3 X s 1294 821
 m 3 X s 1294 829 m 3 X s 1294 838 m 3 X s 1292 846 m 5 X s 1294 855 m 3 X s 1294 863 m 3 X s 1294 872 m 3 X s 1294 881 m 3 X s 1292 889 m 5 X s 1294 898 m 3 X s 1294 906 m 3 X s 1294 915 m 3 X s 1294 923 m 3 X s 1292 932 m 5 X s 1292 761 m 5 X s
 1294 753 m 3 X s 1294 744 m 3 X s 1294 736 m 3 X s 1294 727 m 3 X s 1292 932 m 5 X s 1294 940 m 3 X s 1294 949 m 3 X s 1086 752 1181 814 1276 921 3 { m21} R 1276 933 m s 1271 933 m 11 X s 1276 910 m s 1271 910 m 11 X s 1 0 0 c 9 lw 0.95 0.95 0.95 c
 black 1 0 0 c 1029 723 m 3 X 3 1 d 3 X 4 1 d 3 1 d 3 1 d 3 1 d 3 1 d 3 1 d 3 1 d 3 1 d 3 1 d 3 1 d 3 1 d 3 2 d 3 1 d 3 1 d 3 2 d 3 1 d 3 2 d 4 1 d 3 2 d 3 2 d 3 1 d 3 2 d 3 2 d 3 2 d 3 2 d 3 2 d 3 2 d 3 2 d 3 2 d 3 2 d 3 2 d 3 2 d 3 3 d 4 2 d 3 2 d
 3 3 d 3 2 d 3 3 d 3 2 d 3 3 d 3 2 d 3 3 d 3 3 d 3 3 d 3 3 d 3 2 d s 1179 808 m 3 3 d 3 3 d 3 3 d 4 4 d 3 3 d 3 3 d 3 3 d 3 3 d 3 4 d 3 3 d 3 3 d 3 4 d 3 3 d 3 4 d 3 4 d 3 3 d 3 4 d 3 4 d 3 4 d 3 3 d 4 4 d 3 4 d 3 4 d 3 4 d 3 4 d 3 4 d 3 5 d 3 4 d 3
 4 d 3 4 d 3 5 d 3 4 d 3 5 d 3 4 d 3 5 d 3 4 d 4 5 d 3 3 d s 0.49 0.6 0.82 c black 0.49 0.6 0.82 c
 gsave  408 305 930 677 C 1051.24 960.076 t 0 r /Helvetica-Bold findfont 25.6831 sf 0 0 m (3.5 < E < 4.0 GeV) show NC gr  0.52 0.76 0.64 c black 0.52 0.76 0.64 c
 gsave  408 305 930 677 C 1037 923.04 t 0 r /Helvetica-Bold findfont 25.6831 sf 0 0 m 
 220 206 192 185 170 163 148 141 125 118 111 97 83 69 61 47 40 25 18
(A = 0.005, p = 2.000) K NC gr  1 0.6 1 c black 1 0.6 1 c
 gsave  408 305 930 677 C 1336.13 791.991 t 90 r /Helvetica-Bold findfont 28.5368 sf 0 0 m (/dof=0.6) show NC gr  black 1 0.6 1 c
 gsave  408 305 930 677 C 1324.73 780.596 t 90 r /Helvetica-Bold findfont 19.9758 sf 0 0 m (2) show NC gr  black 1 0.6 1 c
 gsave  408 305 930 677 C 1336.13 763.503 t 90 r /Symbol findfont 28.5368 sf 0 0 m (c) show NC gr  black 3 lw 1 1 1 c 408 305 1383 677 bf black 1 1 1 c black 306 229 1445 723 bl 306 229 1445 723 bl 1445 723 m 306 X s 1445 727 m -4 Y s 1540 727 m -4 Y
 s 1635 727 m -4 Y s 1730 727 m -4 Y s 1730 727 m -4 Y s
 gsave  408 305 1383 677 C 1435.84 703.676 t 0 r /Helvetica findfont 22.8295 sf 0 0 m (0) show NC gr 
 gsave  408 305 1383 677 C 1532.7 703.676 t 0 r /Helvetica findfont 22.8295 sf 0 0 m (1) show NC gr 
 gsave  408 305 1383 677 C 1623.87 703.676 t 0 r /Helvetica findfont 22.8295 sf 0 0 m (2) show NC gr 
 gsave  408 305 1383 677 C 1720.73 703.676 t 0 r /Helvetica findfont 22.8295 sf 0 0 m (3) show NC gr  1445 952 m 306 X s 1445 948 m 4 Y s 1540 948 m 4 Y s 1635 948 m 4 Y s 1730 948 m 4 Y s 1730 948 m 4 Y s 1445 723 m 229 Y s 1450 723 m -5 X s 1447
 728 m -2 X s 1447 732 m -2 X s 1447 737 m -2 X s 1447 741 m -2 X s 1450 746 m -5 X s 1447 751 m -2 X s 1447 755 m -2 X s 1447 760 m -2 X s 1447 765 m -2 X s 1450 769 m -5 X s 1447 774 m -2 X s 1447 779 m -2 X s 1447 783 m -2 X s 1447 788 m -2 X s
 1450 793 m -5 X s 1447 797 m -2 X s 1447 802 m -2 X s 1447 807 m -2 X s 1447 811 m -2 X s 1450 816 m -5 X s 1447 820 m -2 X s 1447 825 m -2 X s 1447 830 m -2 X s 1447 834 m -2 X s 1450 839 m -5 X s 1447 844 m -2 X s 1447 848 m -2 X s 1447 853 m -2 X
 s 1447 858 m -2 X s 1450 862 m -5 X s 1447 867 m -2 X s 1447 872 m -2 X s 1447 876 m -2 X s 1447 881 m -2 X s 1450 886 m -5 X s 1447 890 m -2 X s 1447 895 m -2 X s 1447 899 m -2 X s 1447 904 m -2 X s 1450 909 m -5 X s 1447 913 m -2 X s 1447 918 m -2
 X s 1447 923 m -2 X s 1447 927 m -2 X s 1450 932 m -5 X s 1450 932 m -5 X s 1447 937 m -2 X s 1447 941 m -2 X s 1447 946 m -2 X s 1447 951 m -2 X s
 gsave  408 305 1383 677 C 1427.29 715.071 t 0 r /Helvetica findfont 22.8295 sf 0 0 m (0) show NC gr 
 gsave  408 305 1383 677 C 1398.81 737.863 t 0 r /Helvetica findfont 22.8295 sf 0 0 m (0.01) show NC gr 
 gsave  408 305 1383 677 C 1395.96 763.503 t 0 r /Helvetica findfont 22.8295 sf 0 0 m (0.02) show NC gr 
 gsave  408 305 1383 677 C 1395.96 786.294 t 0 r /Helvetica findfont 22.8295 sf 0 0 m (0.03) show NC gr 
 gsave  408 305 1383 677 C 1395.96 809.085 t 0 r /Helvetica findfont 22.8295 sf 0 0 m (0.04) show NC gr 
 gsave  408 305 1383 677 C 1395.96 831.876 t 0 r /Helvetica findfont 22.8295 sf 0 0 m (0.05) show NC gr 
 gsave  408 305 1383 677 C 1395.96 854.667 t 0 r /Helvetica findfont 22.8295 sf 0 0 m (0.06) show NC gr 
 gsave  408 305 1383 677 C 1395.96 877.458 t 0 r /Helvetica findfont 22.8295 sf 0 0 m (0.07) show NC gr 
 gsave  408 305 1383 677 C 1395.96 900.249 t 0 r /Helvetica findfont 22.8295 sf 0 0 m (0.08) show NC gr 
 gsave  408 305 1383 677 C 1395.96 925.889 t 0 r /Helvetica findfont 22.8295 sf 0 0 m (0.09) show NC gr  1751 723 m 229 Y s 1745 723 m 6 X s 1748 728 m 3 X s 1748 732 m 3 X s 1748 737 m 3 X s 1748 741 m 3 X s 1745 746 m 6 X s 1748 751 m 3 X s 1748
 755 m 3 X s 1748 760 m 3 X s 1748 765 m 3 X s 1745 769 m 6 X s 1748 774 m 3 X s 1748 779 m 3 X s 1748 783 m 3 X s 1748 788 m 3 X s 1745 793 m 6 X s 1748 797 m 3 X s 1748 802 m 3 X s 1748 807 m 3 X s 1748 811 m 3 X s 1745 816 m 6 X s 1748 820 m 3 X s
 1748 825 m 3 X s 1748 830 m 3 X s 1748 834 m 3 X s 1745 839 m 6 X s 1748 844 m 3 X s 1748 848 m 3 X s 1748 853 m 3 X s 1748 858 m 3 X s 1745 862 m 6 X s 1748 867 m 3 X s 1748 872 m 3 X s 1748 876 m 3 X s 1748 881 m 3 X s 1745 886 m 6 X s 1748 890 m
 3 X s 1748 895 m 3 X s 1748 899 m 3 X s 1748 904 m 3 X s 1745 909 m 6 X s 1748 913 m 3 X s 1748 918 m 3 X s 1748 923 m 3 X s 1748 927 m 3 X s 1745 932 m 6 X s 1745 932 m 6 X s 1748 937 m 3 X s 1748 941 m 3 X s 1748 946 m 3 X s 1748 951 m 3 X s 1540
 740 1635 819 1730 924 3 { m21} R 1 0 0 c 9 lw 0.95 0.95 0.95 c black 1 0 0 c 1446 723 m 12 X 3 1 d 6 X 4 1 d 6 X 3 1 d 3 1 d 3 X 3 1 d 3 X 3 1 d 3 1 d 3 1 d 3 1 d 3 1 d 3 1 d 3 1 d 3 1 d 4 1 d 3 1 d 3 1 d 3 2 d 3 1 d 3 1 d 3 2 d 3 1 d 3 2 d 3 1 d 3
 2 d 3 1 d 3 2 d 3 2 d 3 2 d 3 1 d 4 2 d 3 2 d 3 2 d 3 2 d 3 2 d 3 2 d 3 2 d 3 3 d 3 2 d 3 2 d s 1596 780 m 3 3 d 3 2 d 3 2 d 3 3 d 3 2 d 3 3 d 4 3 d 3 2 d 3 3 d 3 3 d 3 3 d 3 2 d 3 3 d 3 3 d 3 3 d 3 3 d 3 3 d 3 3 d 3 4 d 3 3 d 3 3 d 3 3 d 3 4 d 4 3
 d 3 4 d 3 3 d 3 4 d 3 3 d 3 4 d 3 4 d 3 4 d 3 3 d 3 4 d 3 4 d 3 4 d 3 4 d 3 4 d 3 4 d 3 4 d 4 4 d 3 5 d 3 4 d 3 4 d 3 4 d 3 5 d 3 4 d 3 5 d 3 4 d 3 5 d s 0.49 0.6 0.82 c black 0.49 0.6 0.82 c
 gsave  408 305 1383 677 C 1504.21 960.076 t 0 r /Helvetica-Bold findfont 25.6831 sf 0 0 m (4.0 < E < 4.5 GeV) show NC gr  0.52 0.76 0.64 c black 0.52 0.76 0.64 c
 gsave  408 305 1383 677 C 1489.97 923.04 t 0 r /Helvetica-Bold findfont 25.6831 sf 0 0 m 
 220 206 192 185 170 163 148 141 126 118 111 97 83 69 61 47 40 25 18
(A = 0.010, p = 2.000) K NC gr  1 0.6 1 c black 1 0.6 1 c
 gsave  408 305 1383 677 C 1789.1 791.991 t 90 r /Helvetica-Bold findfont 28.5368 sf 0 0 m (/dof=0.7) show NC gr  black 1 0.6 1 c
 gsave  408 305 1383 677 C 1777.71 780.596 t 90 r /Helvetica-Bold findfont 19.9758 sf 0 0 m (2) show NC gr  black 1 0.6 1 c
 gsave  408 305 1383 677 C 1789.1 763.503 t 90 r /Symbol findfont 28.5368 sf 0 0 m (c) show NC gr  black 3 lw 1 1 1 c 408 305 1837 677 bf black 1 1 1 c black 306 229 1898 723 bl 306 229 1898 723 bl 1898 723 m 306 X s 1898 727 m -4 Y s 1993 727 m -4 Y
 s 2088 727 m -4 Y s 2183 727 m -4 Y s 2183 727 m -4 Y s
 gsave  408 305 1837 677 C 1888.81 703.676 t 0 r /Helvetica findfont 22.8295 sf 0 0 m (0) show NC gr 
 gsave  408 305 1837 677 C 1985.68 703.676 t 0 r /Helvetica findfont 22.8295 sf 0 0 m (1) show NC gr 
 gsave  408 305 1837 677 C 2076.84 703.676 t 0 r /Helvetica findfont 22.8295 sf 0 0 m (2) show NC gr 
 gsave  408 305 1837 677 C 2173.7 703.676 t 0 r /Helvetica findfont 22.8295 sf 0 0 m (3) show NC gr  1898 952 m 306 X s 1898 948 m 4 Y s 1993 948 m 4 Y s 2088 948 m 4 Y s 2183 948 m 4 Y s 2183 948 m 4 Y s 1898 723 m 229 Y s 1904 758 m -6 X s 1901 769
 m -3 X s 1901 779 m -3 X s 1901 790 m -3 X s 1904 800 m -6 X s 1901 810 m -3 X s 1901 821 m -3 X s 1901 831 m -3 X s 1904 842 m -6 X s 1901 852 m -3 X s 1901 862 m -3 X s 1901 873 m -3 X s 1904 883 m -6 X s 1901 894 m -3 X s 1901 904 m -3 X s 1901
 914 m -3 X s 1904 925 m -6 X s 1904 758 m -6 X s 1901 748 m -3 X s 1901 738 m -3 X s 1901 727 m -3 X s 1904 925 m -6 X s 1901 935 m -3 X s 1901 946 m -3 X s
 gsave  408 305 1837 677 C 1848.93 752.107 t 0 r /Helvetica findfont 22.8295 sf 0 0 m (0.02) show NC gr 
 gsave  408 305 1837 677 C 1848.93 791.991 t 0 r /Helvetica findfont 22.8295 sf 0 0 m (0.04) show NC gr 
 gsave  408 305 1837 677 C 1848.93 834.725 t 0 r /Helvetica findfont 22.8295 sf 0 0 m (0.06) show NC gr 
 gsave  408 305 1837 677 C 1848.93 877.458 t 0 r /Helvetica findfont 22.8295 sf 0 0 m (0.08) show NC gr 
 gsave  408 305 1837 677 C 1866.02 917.343 t 0 r /Helvetica findfont 22.8295 sf 0 0 m (0.1) show NC gr  2204 723 m 229 Y s 2199 758 m 5 X s 2201 769 m 3 X s 2201 779 m 3 X s 2201 790 m 3 X s 2199 800 m 5 X s 2201 810 m 3 X s 2201 821 m 3 X s 2201 831
 m 3 X s 2199 842 m 5 X s 2201 852 m 3 X s 2201 862 m 3 X s 2201 873 m 3 X s 2199 883 m 5 X s 2201 894 m 3 X s 2201 904 m 3 X s 2201 914 m 3 X s 2199 925 m 5 X s 2199 758 m 5 X s 2201 748 m 3 X s 2201 738 m 3 X s 2201 727 m 3 X s 2199 925 m 5 X s
 2201 935 m 3 X s 2201 946 m 3 X s 1993 751 2088 801 2183 923 3 { m21} R 1 0 0 c 9 lw 0.95 0.95 0.95 c black 1 0 0 c 1946 723 m 3 X 3 1 d 3 1 d 3 1 d 3 1 d 3 1 d 3 1 d 3 1 d 3 1 d 3 1 d 3 1 d 3 2 d 3 1 d 3 1 d 3 2 d 4 1 d 3 2 d 3 1 d 3 2 d 3 1 d 3 2
 d 3 2 d 3 2 d 3 1 d 3 2 d 3 2 d 3 2 d 3 2 d 3 2 d 3 2 d 3 3 d 3 2 d 4 2 d 3 2 d 3 3 d 3 2 d 3 3 d 3 2 d 3 3 d 3 2 d 3 3 d 3 2 d 3 3 d 3 3 d 3 3 d 3 3 d 3 3 d 3 3 d 4 3 d s 2096 815 m 3 3 d 3 3 d 3 3 d 3 3 d 3 3 d 3 4 d 3 3 d 3 3 d 3 4 d 3 3 d 3 4 d
 3 3 d 3 4 d 3 4 d 3 3 d 4 4 d 3 4 d 3 4 d 3 4 d 3 4 d 3 4 d 3 4 d 3 4 d 3 4 d 3 4 d 3 4 d 3 5 d 3 4 d 3 4 d 3 5 d 3 4 d 4 5 d 3 4 d 3 5 d 3 4 d s 0.49 0.6 0.82 c black 0.49 0.6 0.82 c
 gsave  408 305 1837 677 C 1957.19 960.076 t 0 r /Helvetica-Bold findfont 25.6831 sf 0 0 m (4.5 < E < 5.0 GeV) show NC gr  0.52 0.76 0.64 c black 0.52 0.76 0.64 c
 gsave  408 305 1837 677 C 1942.94 923.04 t 0 r /Helvetica-Bold findfont 25.6831 sf 0 0 m 
 218 204 190 183 168 161 146 139 123 116 109 95 82 68 61 47 39 24 17
(A = 0.011, p = 2.000) K NC gr  1 0.6 1 c black 1 0.6 1 c
 gsave  408 305 1837 677 C 2242.08 791.991 t 90 r /Helvetica-Bold findfont 28.5368 sf 0 0 m (/dof=1.1) show NC gr  black 1 0.6 1 c
 gsave  408 305 1837 677 C 2230.68 780.596 t 90 r /Helvetica-Bold findfont 19.9758 sf 0 0 m (2) show NC gr  black 1 0.6 1 c
 gsave  408 305 1837 677 C 2242.08 763.503 t 90 r /Symbol findfont 28.5368 sf 0 0 m (c) show NC gr  black 3 lw 1 1 1 c 408 306 23 345 bf black 1 1 1 c black 306 229 84 391 bl 306 229 84 391 bl 84 391 m 306 X s 84 395 m -4 Y s 179 395 m -4 Y s 274 395
 m -4 Y s 369 395 m -4 Y s 369 395 m -4 Y s
 gsave  408 306 23 345 C 74.0711 370.356 t 0 r /Helvetica findfont 22.8295 sf 0 0 m (0) show NC gr 
 gsave  408 306 23 345 C 170.933 370.356 t 0 r /Helvetica findfont 22.8295 sf 0 0 m (1) show NC gr 
 gsave  408 306 23 345 C 264.947 370.356 t 0 r /Helvetica findfont 22.8295 sf 0 0 m (2) show NC gr 
 gsave  408 306 23 345 C 358.96 370.356 t 0 r /Helvetica findfont 22.8295 sf 0 0 m (3) show NC gr  84 620 m 306 X s 84 616 m 4 Y s 179 616 m 4 Y s 274 616 m 4 Y s 369 616 m 4 Y s 369 616 m 4 Y s 84 391 m 229 Y s 89 414 m -5 X s 87 425 m -3 X s 87 435
 m -3 X s 87 446 m -3 X s 89 456 m -5 X s 87 467 m -3 X s 87 478 m -3 X s 87 488 m -3 X s 89 499 m -5 X s 87 510 m -3 X s 87 520 m -3 X s 87 531 m -3 X s 89 541 m -5 X s 87 552 m -3 X s 87 563 m -3 X s 87 573 m -3 X s 89 584 m -5 X s 89 414 m -5 X s
 87 403 m -3 X s 87 393 m -3 X s 89 584 m -5 X s 87 594 m -3 X s 87 605 m -3 X s 87 616 m -3 X s
 gsave  408 306 23 345 C 65.5245 407.391 t 0 r /Helvetica findfont 22.8295 sf 0 0 m (0) show NC gr 
 gsave  408 306 23 345 C 34.1867 450.125 t 0 r /Helvetica findfont 22.8295 sf 0 0 m (0.02) show NC gr 
 gsave  408 306 23 345 C 34.1867 492.858 t 0 r /Helvetica findfont 22.8295 sf 0 0 m (0.04) show NC gr 
 gsave  408 306 23 345 C 34.1867 535.591 t 0 r /Helvetica findfont 22.8295 sf 0 0 m (0.06) show NC gr 
 gsave  408 306 23 345 C 34.1867 575.476 t 0 r /Helvetica findfont 22.8295 sf 0 0 m (0.08) show NC gr  390 391 m 229 Y s 385 414 m 5 X s 387 425 m 3 X s 387 435 m 3 X s 387 446 m 3 X s 385 456 m 5 X s 387 467 m 3 X s 387 478 m 3 X s 387 488 m 3 X s
 385 499 m 5 X s 387 510 m 3 X s 387 520 m 3 X s 387 531 m 3 X s 385 541 m 5 X s 387 552 m 3 X s 387 563 m 3 X s 387 573 m 3 X s 385 584 m 5 X s 385 414 m 5 X s 387 403 m 3 X s 387 393 m 3 X s 385 584 m 5 X s 387 594 m 3 X s 387 605 m 3 X s 387 616 m
 3 X s /w 22 def /w2 {w 2 div} def /w3 {w 3 div} def 179 422 274 474 369 588 3 { m21} R 179 433 m s 173 433 m 12 X s 179 410 m s 173 410 m 12 X s 274 485 m s 268 485 m 12 X s 274 462 m s 268 462 m 12 X s 369 600 m 1 Y s 363 601 m 12 X s 369 577 m -1
 Y s 363 576 m 12 X s 1 0 0 c 9 lw 0.95 0.95 0.95 c black 1 0 0 c 85 414 m 13 X 3 1 d 9 X 3 1 d 3 X 3 1 d 3 X 3 1 d 3 X 3 1 d 3 X 3 1 d 4 1 d 3 X 3 1 d 3 1 d 3 1 d 3 1 d 3 X 3 1 d 3 1 d 3 1 d 3 2 d 3 1 d 3 1 d 3 1 d 3 1 d 3 1 d 4 2 d 3 1 d 3 1 d 3 2
 d 3 1 d 3 2 d 3 1 d 3 2 d 3 1 d 3 2 d 3 2 d 3 1 d 3 2 d 3 2 d 3 2 d 3 2 d s 235 461 m 4 2 d 3 2 d 3 2 d 3 2 d 3 2 d 3 2 d 3 2 d 3 2 d 3 2 d 3 2 d 3 3 d 3 2 d 3 2 d 3 3 d 3 2 d 3 3 d 3 2 d 4 3 d 3 2 d 3 3 d 3 3 d 3 2 d 3 3 d 3 3 d 3 3 d 3 3 d 3 2 d 3
 3 d 3 3 d 3 3 d 3 3 d 3 4 d 3 3 d 4 3 d 3 3 d 3 3 d 3 4 d 3 3 d 3 3 d 3 4 d 3 3 d 3 3 d 3 4 d 3 4 d 3 3 d 3 4 d 3 3 d 3 4 d 3 4 d s 385 599 m 4 4 d s 0.49 0.6 0.82 c black 0.49 0.6 0.82 c
 gsave  408 306 23 345 C 142.445 629.605 t 0 r /Helvetica-Bold findfont 25.6831 sf 0 0 m (5.0 < E < 5.5 GeV) show NC gr  0.52 0.76 0.64 c black 0.52 0.76 0.64 c
 gsave  408 306 23 345 C 128.2 592.569 t 0 r /Helvetica-Bold findfont 25.6831 sf 0 0 m 
 220 206 192 185 170 163 148 141 126 118 111 97 83 69 61 47 40 25 18
(A = 0.009, p = 2.000) K NC gr  1 0.6 1 c black 1 0.6 1 c
 gsave  408 306 23 345 C 427.334 458.671 t 90 r /Helvetica-Bold findfont 28.5368 sf 0 0 m (/dof=1.4) show NC gr  black 1 0.6 1 c
 gsave  408 306 23 345 C 415.938 447.276 t 90 r /Helvetica-Bold findfont 19.9758 sf 0 0 m (2) show NC gr  black 1 0.6 1 c
 gsave  408 306 23 345 C 427.334 430.182 t 90 r /Symbol findfont 28.5368 sf 0 0 m (c) show NC gr  black 3 lw 1 1 1 c 408 306 476 345 bf black 1 1 1 c black 307 229 537 391 bl 307 229 537 391 bl 537 391 m 307 X s 537 395 m -4 Y s 633 395 m -4 Y s 728
 395 m -4 Y s 823 395 m -4 Y s 823 395 m -4 Y s
 gsave  408 306 476 345 C 527.045 370.356 t 0 r /Helvetica findfont 22.8295 sf 0 0 m (0) show NC gr 
 gsave  408 306 476 345 C 626.756 370.356 t 0 r /Helvetica findfont 22.8295 sf 0 0 m (1) show NC gr 
 gsave  408 306 476 345 C 717.92 370.356 t 0 r /Helvetica findfont 22.8295 sf 0 0 m (2) show NC gr 
 gsave  408 306 476 345 C 811.934 370.356 t 0 r /Helvetica findfont 22.8295 sf 0 0 m (3) show NC gr  537 620 m 307 X s 537 616 m 4 Y s 633 616 m 4 Y s 728 616 m 4 Y s 823 616 m 4 Y s 823 616 m 4 Y s 537 391 m 229 Y s 543 406 m -6 X s 540 412 m -3 X s
 540 418 m -3 X s 540 424 m -3 X s 540 430 m -3 X s 543 436 m -6 X s 540 442 m -3 X s 540 448 m -3 X s 540 454 m -3 X s 540 460 m -3 X s 543 466 m -6 X s 540 472 m -3 X s 540 478 m -3 X s 540 484 m -3 X s 540 490 m -3 X s 543 496 m -6 X s 540 502 m
 -3 X s 540 508 m -3 X s 540 514 m -3 X s 540 520 m -3 X s 543 526 m -6 X s 540 533 m -3 X s 540 539 m -3 X s 540 545 m -3 X s 540 551 m -3 X s 543 557 m -6 X s 540 563 m -3 X s 540 569 m -3 X s 540 575 m -3 X s 540 581 m -3 X s 543 587 m -6 X s 540
 593 m -3 X s 540 599 m -3 X s 540 605 m -3 X s 540 611 m -3 X s 543 617 m -6 X s 543 406 m -6 X s 540 400 m -3 X s 540 394 m -3 X s 543 617 m -6 X s
 gsave  408 306 476 345 C 481.462 398.845 t 0 r /Helvetica findfont 22.8295 sf 0 0 m (\2550.02) show NC gr 
 gsave  408 306 476 345 C 484.311 430.182 t 0 r /Helvetica findfont 22.8295 sf 0 0 m (\2550.01) show NC gr 
 gsave  408 306 476 345 C 518.498 458.671 t 0 r /Helvetica findfont 22.8295 sf 0 0 m (0) show NC gr 
 gsave  408 306 476 345 C 490.009 490.009 t 0 r /Helvetica findfont 22.8295 sf 0 0 m (0.01) show NC gr 
 gsave  408 306 476 345 C 487.16 518.498 t 0 r /Helvetica findfont 22.8295 sf 0 0 m (0.02) show NC gr 
 gsave  408 306 476 345 C 487.16 549.836 t 0 r /Helvetica findfont 22.8295 sf 0 0 m (0.03) show NC gr 
 gsave  408 306 476 345 C 487.16 581.174 t 0 r /Helvetica findfont 22.8295 sf 0 0 m (0.04) show NC gr 
 gsave  408 306 476 345 C 487.16 609.662 t 0 r /Helvetica findfont 22.8295 sf 0 0 m (0.05) show NC gr  844 391 m 229 Y s 838 406 m 6 X s 841 412 m 3 X s 841 418 m 3 X s 841 424 m 3 X s 841 430 m 3 X s 838 436 m 6 X s 841 442 m 3 X s 841 448 m 3 X s
 841 454 m 3 X s 841 460 m 3 X s 838 466 m 6 X s 841 472 m 3 X s 841 478 m 3 X s 841 484 m 3 X s 841 490 m 3 X s 838 496 m 6 X s 841 502 m 3 X s 841 508 m 3 X s 841 514 m 3 X s 841 520 m 3 X s 838 526 m 6 X s 841 533 m 3 X s 841 539 m 3 X s 841 545 m
 3 X s 841 551 m 3 X s 838 557 m 6 X s 841 563 m 3 X s 841 569 m 3 X s 841 575 m 3 X s 841 581 m 3 X s 838 587 m 6 X s 841 593 m 3 X s 841 599 m 3 X s 841 605 m 3 X s 841 611 m 3 X s 838 617 m 6 X s 838 406 m 6 X s 841 400 m 3 X s 841 394 m 3 X s 838
 617 m 6 X s /w 23 def /w2 {w 2 div} def /w3 {w 3 div} def 633 430 728 454 823 579 3 { m21} R 633 442 m 8 Y s 627 450 m 11 X s 633 419 m -9 Y s 627 410 m 11 X s 728 465 m 9 Y s 722 474 m 11 X s 728 443 m -9 Y s 722 434 m 11 X s 823 591 m 10 Y s 817
 601 m 11 X s 823 568 m -10 Y s 817 558 m 11 X s 1 0 0 c 9 lw 0.95 0.95 0.95 c black 1 0 0 c 539 466 m 18 X 3 1 d 13 X 3 1 d 9 X 3 1 d 6 X 3 1 d 6 X 3 1 d 3 X 3 1 d 4 X 3 1 d 3 X 3 1 d 3 X 3 1 d 3 1 d 3 X 3 1 d 3 X 3 1 d 3 1 d 3 X 3 1 d 3 1 d 3 1 d 3
 1 d 4 X 3 1 d 3 1 d 3 1 d 3 1 d 3 1 d 3 1 d 3 X s 689 489 m 3 1 d 3 1 d 3 1 d 3 1 d 3 1 d 3 1 d 3 2 d 3 1 d 4 1 d 3 1 d 3 1 d 3 1 d 3 1 d 3 2 d 3 1 d 3 1 d 3 1 d 3 2 d 3 1 d 3 1 d 3 1 d 3 2 d 3 1 d 3 2 d 4 1 d 3 1 d 3 2 d 3 1 d 3 2 d 3 1 d 3 2 d 3 1
 d 3 2 d 3 2 d 3 1 d 3 2 d 3 1 d 3 2 d 3 2 d 3 1 d 4 2 d 3 2 d 3 2 d 3 1 d 3 2 d 3 2 d 3 2 d 3 2 d 3 2 d s 839 559 m 3 1 d s 0.49 0.6 0.82 c black 0.49 0.6 0.82 c
 gsave  408 306 476 345 C 595.418 629.605 t 0 r /Helvetica-Bold findfont 25.6831 sf 0 0 m (5.5 < E < 6.0 GeV) show NC gr  0.52 0.76 0.64 c black 0.52 0.76 0.64 c
 gsave  408 306 476 345 C 581.174 592.569 t 0 r /Helvetica-Bold findfont 25.6831 sf 0 0 m 
 220 206 192 185 170 163 148 141 125 118 111 97 83 68 61 47 40 25 18
(A = 0.003, p = 2.000) K NC gr  1 0.6 1 c black 1 0.6 1 c
 gsave  408 306 476 345 C 883.156 458.671 t 90 r /Helvetica-Bold findfont 28.5368 sf 0 0 m (/dof=6.4) show NC gr  black 1 0.6 1 c
 gsave  408 306 476 345 C 871.76 447.276 t 90 r /Helvetica-Bold findfont 19.9758 sf 0 0 m (2) show NC gr  black 1 0.6 1 c
 gsave  408 306 476 345 C 883.156 430.182 t 90 r /Symbol findfont 28.5368 sf 0 0 m (c) show NC gr  black 3 lw 1 1 1 c 408 306 930 345 bf black 1 1 1 c black 306 229 991 391 bl 306 229 991 391 bl 991 391 m 306 X s 991 395 m -4 Y s 1086 395 m -4 Y s
 1181 395 m -4 Y s 1276 395 m -4 Y s 1276 395 m -4 Y s
 gsave  408 306 930 345 C 980.018 370.356 t 0 r /Helvetica findfont 22.8295 sf 0 0 m (0) show NC gr 
 gsave  408 306 930 345 C 1079.73 370.356 t 0 r /Helvetica findfont 22.8295 sf 0 0 m (1) show NC gr 
 gsave  408 306 930 345 C 1170.89 370.356 t 0 r /Helvetica findfont 22.8295 sf 0 0 m (2) show NC gr 
 gsave  408 306 930 345 C 1264.91 370.356 t 0 r /Helvetica findfont 22.8295 sf 0 0 m (3) show NC gr  991 620 m 306 X s 991 616 m 4 Y s 1086 616 m 4 Y s 1181 616 m 4 Y s 1276 616 m 4 Y s 1276 616 m 4 Y s 991 391 m 229 Y s 997 413 m -6 X s 994 418 m -3
 X s 994 424 m -3 X s 994 429 m -3 X s 994 435 m -3 X s 997 440 m -6 X s 994 446 m -3 X s 994 452 m -3 X s 994 457 m -3 X s 994 463 m -3 X s 997 468 m -6 X s 994 474 m -3 X s 994 479 m -3 X s 994 485 m -3 X s 994 490 m -3 X s 997 496 m -6 X s 994 501
 m -3 X s 994 507 m -3 X s 994 513 m -3 X s 994 518 m -3 X s 997 524 m -6 X s 994 529 m -3 X s 994 535 m -3 X s 994 540 m -3 X s 994 546 m -3 X s 997 551 m -6 X s 994 557 m -3 X s 994 562 m -3 X s 994 568 m -3 X s 994 573 m -3 X s 997 579 m -6 X s
 994 585 m -3 X s 994 590 m -3 X s 994 596 m -3 X s 994 601 m -3 X s 997 607 m -6 X s 997 413 m -6 X s 994 407 m -3 X s 994 402 m -3 X s 994 396 m -3 X s 997 607 m -6 X s 994 612 m -3 X s 994 618 m -3 X s
 gsave  408 306 930 345 C 923.04 404.542 t 0 r /Helvetica findfont 22.8295 sf 0 0 m (\2550.025) show NC gr 
 gsave  408 306 930 345 C 937.285 433.031 t 0 r /Helvetica findfont 22.8295 sf 0 0 m (\2550.02) show NC gr 
 gsave  408 306 930 345 C 923.04 461.52 t 0 r /Helvetica findfont 22.8295 sf 0 0 m (\2550.015) show NC gr 
 gsave  408 306 930 345 C 940.134 490.009 t 0 r /Helvetica findfont 22.8295 sf 0 0 m (\2550.01) show NC gr 
 gsave  408 306 930 345 C 923.04 515.649 t 0 r /Helvetica findfont 22.8295 sf 0 0 m (\2550.005) show NC gr 
 gsave  408 306 930 345 C 974.32 544.138 t 0 r /Helvetica findfont 22.8295 sf 0 0 m (0) show NC gr 
 gsave  408 306 930 345 C 931.587 572.627 t 0 r /Helvetica findfont 22.8295 sf 0 0 m (0.005) show NC gr 
 gsave  408 306 930 345 C 945.832 598.267 t 0 r /Helvetica findfont 22.8295 sf 0 0 m (0.01) show NC gr  1297 391 m 229 Y s 1292 413 m 5 X s 1294 418 m 3 X s 1294 424 m 3 X s 1294 429 m 3 X s 1294 435 m 3 X s 1292 440 m 5 X s 1294 446 m 3 X s 1294 452
 m 3 X s 1294 457 m 3 X s 1294 463 m 3 X s 1292 468 m 5 X s 1294 474 m 3 X s 1294 479 m 3 X s 1294 485 m 3 X s 1294 490 m 3 X s 1292 496 m 5 X s 1294 501 m 3 X s 1294 507 m 3 X s 1294 513 m 3 X s 1294 518 m 3 X s 1292 524 m 5 X s 1294 529 m 3 X s
 1294 535 m 3 X s 1294 540 m 3 X s 1294 546 m 3 X s 1292 551 m 5 X s 1294 557 m 3 X s 1294 562 m 3 X s 1294 568 m 3 X s 1294 573 m 3 X s 1292 579 m 5 X s 1294 585 m 3 X s 1294 590 m 3 X s 1294 596 m 3 X s 1294 601 m 3 X s 1292 607 m 5 X s 1292 413 m
 5 X s 1294 407 m 3 X s 1294 402 m 3 X s 1294 396 m 3 X s 1292 607 m 5 X s 1294 612 m 3 X s 1294 618 m 3 X s 1086 485 1181 454 1276 555 3 { m21} R 1086 497 m 33 Y s 1080 530 m 12 X s 1086 474 m -33 Y s 1080 441 m 12 X s 1181 465 m 33 Y s 1175 498 m
 12 X s 1181 442 m -32 Y s 1175 410 m 12 X s 1276 566 m 35 Y s 1271 601 m 11 X s 1276 544 m -35 Y s 1271 509 m 11 X s 9 lw 0.95 0.95 0.95 c black 993 551 m 3 -1 d 3 X 3 -1 d 3 X 3 -1 d 3 -1 d 3 X 3 -1 d 3 -1 d 3 X 3 -1 d 3 X 3 -1 d 3 -1 d 3 X 4 -1 d
 3 X 3 -1 d 3 -1 d 3 X 3 -1 d 3 X 3 -1 d 3 -1 d 3 X 3 -1 d 3 X 3 -1 d 3 -1 d 3 X 3 -1 d 3 X 4 -1 d 3 -1 d 3 X 3 -1 d 3 -1 d 3 X 3 -1 d 3 X 3 -1 d 3 -1 d 3 X 3 -1 d 3 X 3 -1 d 3 -1 d 3 X 4 -1 d s 1143 521 m 3 X 3 -1 d 3 -1 d 3 X 3 -1 d 3 X 3 -1 d 3 -1
 d 3 X 3 -1 d 3 -1 d 3 X 3 -1 d 3 X 3 -1 d 4 -1 d 3 X 3 -1 d 3 X 3 -1 d 3 -1 d 3 X 3 -1 d 3 X 3 -1 d 3 -1 d 3 X 3 -1 d 3 X 3 -1 d 3 -1 d 3 X 4 -1 d 3 -1 d 3 X 3 -1 d 3 X 3 -1 d 3 -1 d 3 X 3 -1 d 3 X 3 -1 d 3 -1 d 3 X 3 -1 d 3 X 3 -1 d 4 -1 d s 1293
 491 m 3 X s 0.49 0.6 0.82 c black 0.49 0.6 0.82 c
 gsave  408 306 930 345 C 1051.24 629.605 t 0 r /Helvetica-Bold findfont 25.6831 sf 0 0 m (6.0 < E < 6.5 GeV) show NC gr  0.52 0.76 0.64 c black 0.52 0.76 0.64 c
 gsave  408 306 930 345 C 1031.3 592.569 t 0 r /Helvetica-Bold findfont 25.6831 sf 0 0 m 
 228 214 200 193 178 171 156 149 133 126 119 105 91 77 69 55 47 39 25 17
(A = \2550.003, p = 1.000) K NC gr  1 0.6 1 c black 1 0.6 1 c
 gsave  408 306 930 345 C 1336.13 458.671 t 90 r /Helvetica-Bold findfont 28.5368 sf 0 0 m (/dof=2.4) show NC gr  black 1 0.6 1 c
 gsave  408 306 930 345 C 1324.73 447.276 t 90 r /Helvetica-Bold findfont 19.9758 sf 0 0 m (2) show NC gr  black 1 0.6 1 c
 gsave  408 306 930 345 C 1336.13 430.182 t 90 r /Symbol findfont 28.5368 sf 0 0 m (c) show NC gr  black 3 lw 1 1 1 c 408 306 1383 345 bf black 1 1 1 c black 306 229 1445 391 bl 306 229 1445 391 bl 1445 391 m 306 X s 1445 395 m -4 Y s 1540 395 m -4 Y
 s 1635 395 m -4 Y s 1730 395 m -4 Y s 1730 395 m -4 Y s
 gsave  408 306 1383 345 C 1435.84 370.356 t 0 r /Helvetica findfont 22.8295 sf 0 0 m (0) show NC gr 
 gsave  408 306 1383 345 C 1532.7 370.356 t 0 r /Helvetica findfont 22.8295 sf 0 0 m (1) show NC gr 
 gsave  408 306 1383 345 C 1623.87 370.356 t 0 r /Helvetica findfont 22.8295 sf 0 0 m (2) show NC gr 
 gsave  408 306 1383 345 C 1720.73 370.356 t 0 r /Helvetica findfont 22.8295 sf 0 0 m (3) show NC gr  1445 620 m 306 X s 1445 616 m 4 Y s 1540 616 m 4 Y s 1635 616 m 4 Y s 1730 616 m 4 Y s 1730 616 m 4 Y s 1445 391 m 229 Y s 1450 393 m -5 X s 1447
 400 m -2 X s 1447 406 m -2 X s 1447 413 m -2 X s 1447 420 m -2 X s 1450 427 m -5 X s 1447 434 m -2 X s 1447 441 m -2 X s 1447 448 m -2 X s 1447 455 m -2 X s 1450 462 m -5 X s 1447 469 m -2 X s 1447 476 m -2 X s 1447 483 m -2 X s 1447 490 m -2 X s
 1450 497 m -5 X s 1447 504 m -2 X s 1447 511 m -2 X s 1447 518 m -2 X s 1447 525 m -2 X s 1450 532 m -5 X s 1447 539 m -2 X s 1447 546 m -2 X s 1447 553 m -2 X s 1447 560 m -2 X s 1450 567 m -5 X s 1447 574 m -2 X s 1447 581 m -2 X s 1447 588 m -2 X
 s 1447 595 m -2 X s 1450 602 m -5 X s 1450 393 m -5 X s 1450 602 m -5 X s 1447 609 m -2 X s 1447 616 m -2 X s
 gsave  408 306 1383 345 C 1390.26 384.6 t 0 r /Helvetica findfont 22.8295 sf 0 0 m (\2550.04) show NC gr 
 gsave  408 306 1383 345 C 1390.26 421.636 t 0 r /Helvetica findfont 22.8295 sf 0 0 m (\2550.03) show NC gr 
 gsave  408 306 1383 345 C 1390.26 455.822 t 0 r /Helvetica findfont 22.8295 sf 0 0 m (\2550.02) show NC gr 
 gsave  408 306 1383 345 C 1393.11 490.009 t 0 r /Helvetica findfont 22.8295 sf 0 0 m (\2550.01) show NC gr 
 gsave  408 306 1383 345 C 1427.29 524.196 t 0 r /Helvetica findfont 22.8295 sf 0 0 m (0) show NC gr 
 gsave  408 306 1383 345 C 1398.81 561.231 t 0 r /Helvetica findfont 22.8295 sf 0 0 m (0.01) show NC gr 
 gsave  408 306 1383 345 C 1395.96 595.418 t 0 r /Helvetica findfont 22.8295 sf 0 0 m (0.02) show NC gr  1751 391 m 229 Y s 1745 393 m 6 X s 1748 400 m 3 X s 1748 406 m 3 X s 1748 413 m 3 X s 1748 420 m 3 X s 1745 427 m 6 X s 1748 434 m 3 X s 1748
 441 m 3 X s 1748 448 m 3 X s 1748 455 m 3 X s 1745 462 m 6 X s 1748 469 m 3 X s 1748 476 m 3 X s 1748 483 m 3 X s 1748 490 m 3 X s 1745 497 m 6 X s 1748 504 m 3 X s 1748 511 m 3 X s 1748 518 m 3 X s 1748 525 m 3 X s 1745 532 m 6 X s 1748 539 m 3 X s
 1748 546 m 3 X s 1748 553 m 3 X s 1748 560 m 3 X s 1745 567 m 6 X s 1748 574 m 3 X s 1748 581 m 3 X s 1748 588 m 3 X s 1748 595 m 3 X s 1745 602 m 6 X s 1745 393 m 6 X s 1745 602 m 6 X s 1748 609 m 3 X s 1748 616 m 3 X s 1540 568 1635 442 1730 478 3
 { m21} R 1540 579 m 22 Y s 1534 601 m 11 X s 1540 557 m -22 Y s 1534 535 m 11 X s 1635 453 m 21 Y s 1629 474 m 11 X s 1635 430 m -20 Y s 1629 410 m 11 X s 1730 490 m 22 Y s 1724 512 m 11 X s 1730 467 m -22 Y s 1724 445 m 11 X s 9 lw 0.95 0.95 0.95 c
 black 1446 532 m 3 -1 d 3 X 3 -1 d 3 -1 d 3 -1 d 3 X 3 -1 d 4 -1 d 3 -1 d 3 X 3 -1 d 3 -1 d 3 X 3 -1 d 3 -1 d 3 -1 d 3 X 3 -1 d 3 -1 d 3 X 3 -1 d 3 -1 d 3 -1 d 4 X 3 -1 d 3 -1 d 3 -1 d 3 X 3 -1 d 3 -1 d 3 X 3 -1 d 3 -1 d 3 -1 d 3 X 3 -1 d 3 -1 d 3 X
 3 -1 d 4 -1 d 3 -1 d 3 X 3 -1 d 3 -1 d 3 -1 d 3 X 3 -1 d 3 -1 d 3 X s 1596 497 m 3 -1 d 3 -1 d 3 -1 d 3 X 3 -1 d 3 -1 d 4 X 3 -1 d 3 -1 d 3 -1 d 3 X 3 -1 d 3 -1 d 3 -1 d 3 X 3 -1 d 3 -1 d 3 X 3 -1 d 3 -1 d 3 -1 d 3 X 3 -1 d 4 -1 d 3 -1 d 3 X 3 -1 d
 3 -1 d 3 X 3 -1 d 3 -1 d 3 -1 d 3 X 3 -1 d 3 -1 d 3 X 3 -1 d 3 -1 d 3 -1 d 4 X 3 -1 d 3 -1 d 3 -1 d 3 X 3 -1 d 3 -1 d 3 X 3 -1 d 3 -1 d s 1746 461 m 3 -1 d s 0.49 0.6 0.82 c black 0.49 0.6 0.82 c
 gsave  408 306 1383 345 C 1504.21 629.605 t 0 r /Helvetica-Bold findfont 25.6831 sf 0 0 m (6.5 < E < 7.0 GeV) show NC gr  0.52 0.76 0.64 c black 0.52 0.76 0.64 c
 gsave  408 306 1383 345 C 1484.27 592.569 t 0 r /Helvetica-Bold findfont 25.6831 sf 0 0 m 
 228 214 200 193 178 171 156 149 134 126 119 105 91 77 69 55 47 40 25 17
(A = \2550.006, p = 1.000) K NC gr  1 0.6 1 c black 1 0.6 1 c
 gsave  408 306 1383 345 C 1789.1 458.671 t 90 r /Helvetica-Bold findfont 28.5368 sf 0 0 m (/dof=2.7) show NC gr  black 1 0.6 1 c
 gsave  408 306 1383 345 C 1777.71 447.276 t 90 r /Helvetica-Bold findfont 19.9758 sf 0 0 m (2) show NC gr  black 1 0.6 1 c
 gsave  408 306 1383 345 C 1789.1 430.182 t 90 r /Symbol findfont 28.5368 sf 0 0 m (c) show NC gr  black 3 lw 1 1 1 c 408 306 1837 345 bf black 1 1 1 c black 306 229 1898 391 bl 306 229 1898 391 bl 1898 391 m 306 X s 1898 395 m -4 Y s 1993 395 m -4 Y
 s 2088 395 m -4 Y s 2183 395 m -4 Y s 2183 395 m -4 Y s
 gsave  408 306 1837 345 C 1888.81 370.356 t 0 r /Helvetica findfont 22.8295 sf 0 0 m (0) show NC gr 
 gsave  408 306 1837 345 C 1985.68 370.356 t 0 r /Helvetica findfont 22.8295 sf 0 0 m (1) show NC gr 
 gsave  408 306 1837 345 C 2076.84 370.356 t 0 r /Helvetica findfont 22.8295 sf 0 0 m (2) show NC gr 
 gsave  408 306 1837 345 C 2173.7 370.356 t 0 r /Helvetica findfont 22.8295 sf 0 0 m (3) show NC gr  1898 620 m 306 X s 1898 616 m 4 Y s 1993 616 m 4 Y s 2088 616 m 4 Y s 2183 616 m 4 Y s 2183 616 m 4 Y s 1898 391 m 229 Y s 1904 414 m -6 X s 1901 420
 m -3 X s 1901 426 m -3 X s 1901 432 m -3 X s 1901 438 m -3 X s 1904 444 m -6 X s 1901 450 m -3 X s 1901 456 m -3 X s 1901 462 m -3 X s 1901 467 m -3 X s 1904 473 m -6 X s 1901 479 m -3 X s 1901 485 m -3 X s 1901 491 m -3 X s 1901 497 m -3 X s 1904
 503 m -6 X s 1901 509 m -3 X s 1901 515 m -3 X s 1901 521 m -3 X s 1901 527 m -3 X s 1904 532 m -6 X s 1901 538 m -3 X s 1901 544 m -3 X s 1901 550 m -3 X s 1901 556 m -3 X s 1904 562 m -6 X s 1901 568 m -3 X s 1901 574 m -3 X s 1901 580 m -3 X s
 1901 586 m -3 X s 1904 592 m -6 X s 1904 414 m -6 X s 1901 408 m -3 X s 1901 402 m -3 X s 1901 396 m -3 X s 1904 592 m -6 X s 1901 597 m -3 X s 1901 603 m -3 X s 1901 609 m -3 X s 1901 615 m -3 X s
 gsave  408 306 1837 345 C 1843.23 407.391 t 0 r /Helvetica findfont 22.8295 sf 0 0 m (\2550.04) show NC gr 
 gsave  408 306 1837 345 C 1828.99 435.88 t 0 r /Helvetica findfont 22.8295 sf 0 0 m (\2550.035) show NC gr 
 gsave  408 306 1837 345 C 1843.23 467.218 t 0 r /Helvetica findfont 22.8295 sf 0 0 m (\2550.03) show NC gr 
 gsave  408 306 1837 345 C 1828.99 495.707 t 0 r /Helvetica findfont 22.8295 sf 0 0 m (\2550.025) show NC gr 
 gsave  408 306 1837 345 C 1843.23 524.196 t 0 r /Helvetica findfont 22.8295 sf 0 0 m (\2550.02) show NC gr 
 gsave  408 306 1837 345 C 1828.99 555.534 t 0 r /Helvetica findfont 22.8295 sf 0 0 m (\2550.015) show NC gr 
 gsave  408 306 1837 345 C 1846.08 584.022 t 0 r /Helvetica findfont 22.8295 sf 0 0 m (\2550.01) show NC gr  2204 391 m 229 Y s 2199 414 m 5 X s 2201 420 m 3 X s 2201 426 m 3 X s 2201 432 m 3 X s 2201 438 m 3 X s 2199 444 m 5 X s 2201 450 m 3 X s
 2201 456 m 3 X s 2201 462 m 3 X s 2201 467 m 3 X s 2199 473 m 5 X s 2201 479 m 3 X s 2201 485 m 3 X s 2201 491 m 3 X s 2201 497 m 3 X s 2199 503 m 5 X s 2201 509 m 3 X s 2201 515 m 3 X s 2201 521 m 3 X s 2201 527 m 3 X s 2199 532 m 5 X s 2201 538 m
 3 X s 2201 544 m 3 X s 2201 550 m 3 X s 2201 556 m 3 X s 2199 562 m 5 X s 2201 568 m 3 X s 2201 574 m 3 X s 2201 580 m 3 X s 2201 586 m 3 X s 2199 592 m 5 X s 2199 414 m 5 X s 2201 408 m 3 X s 2201 402 m 3 X s 2201 396 m 3 X s 2199 592 m 5 X s 2201
 597 m 3 X s 2201 603 m 3 X s 2201 609 m 3 X s 2201 615 m 3 X s 1993 541 2088 470 2183 510 3 { m21} R 1993 552 m 49 Y s 1987 601 m 12 X s 1993 529 m -48 Y s 1987 481 m 12 X s 2088 481 m 49 Y s 2083 530 m 11 X s 2088 459 m -49 Y s 2083 410 m 11 X s
 2183 521 m 51 Y s 2178 572 m 11 X s 2183 498 m -51 Y s 2178 447 m 11 X s 9 lw 0.95 0.95 0.95 c black 1942 620 m 4 -2 d 3 -2 d 3 -2 d 3 -2 d 3 -2 d 3 -2 d 3 -2 d 3 -2 d 3 -2 d 3 -2 d 3 -3 d 3 -2 d 3 -2 d 3 -2 d 3 -2 d 3 -2 d 4 -2 d 3 -2 d 3 -2 d 3 -2
 d 3 -2 d 3 -2 d 3 -3 d 3 -2 d 3 -2 d 3 -2 d 3 -2 d 3 -2 d 3 -2 d 3 -2 d 3 -2 d 3 -2 d 3 -2 d 4 -3 d 3 -2 d 3 -2 d 3 -2 d 3 -2 d 3 -2 d 3 -2 d 3 -2 d 3 -2 d 3 -2 d 3 -2 d 3 -2 d 3 -3 d 3 -2 d 3 -2 d 3 -2 d s 2092 518 m 4 -2 d 3 -2 d 3 -2 d 3 -2 d 3
 -2 d 3 -2 d 3 -2 d 3 -3 d 3 -2 d 3 -2 d 3 -2 d 3 -2 d 3 -2 d 3 -2 d 3 -2 d 3 -2 d 4 -2 d 3 -2 d 3 -2 d 3 -3 d 3 -2 d 3 -2 d 3 -2 d 3 -2 d 3 -2 d 3 -2 d 3 -2 d 3 -2 d 3 -2 d 3 -2 d 3 -2 d 3 -3 d 4 -2 d 3 -2 d 3 -2 d 3 -2 d s 0.49 0.6 0.82 c black
 0.49 0.6 0.82 c
 gsave  408 306 1837 345 C 1957.19 629.605 t 0 r /Helvetica-Bold findfont 25.6831 sf 0 0 m (7.0 < E < 7.5 GeV) show NC gr  0.52 0.76 0.64 c black 0.52 0.76 0.64 c
 gsave  408 306 1837 345 C 1937.25 592.569 t 0 r /Helvetica-Bold findfont 25.6831 sf 0 0 m 
 227 213 199 192 177 170 155 148 132 125 118 104 91 77 70 56 47 40 25 18
(A = \2550.011, p = 1.000) K NC gr  1 0.6 1 c black 1 0.6 1 c
 gsave  408 306 1837 345 C 2242.08 458.671 t 90 r /Helvetica-Bold findfont 28.5368 sf 0 0 m (/dof=1.0) show NC gr  black 1 0.6 1 c
 gsave  408 306 1837 345 C 2230.68 447.276 t 90 r /Helvetica-Bold findfont 19.9758 sf 0 0 m (2) show NC gr  black 1 0.6 1 c
 gsave  408 306 1837 345 C 2242.08 430.182 t 90 r /Symbol findfont 28.5368 sf 0 0 m (c) show NC gr  black 3 lw 1 1 1 c 408 306 23 13 bf black 1 1 1 c black 306 229 84 59 bl 306 229 84 59 bl 84 59 m 306 X s 84 63 m -4 Y s 179 63 m -4 Y s 274 63 m -4 Y
 s 369 63 m -4 Y s 369 63 m -4 Y s
 gsave  408 306 23 13 C 74.0711 39.8845 t 0 r /Helvetica findfont 22.8295 sf 0 0 m (0) show NC gr 
 gsave  408 306 23 13 C 170.933 39.8845 t 0 r /Helvetica findfont 22.8295 sf 0 0 m (1) show NC gr 
 gsave  408 306 23 13 C 264.947 39.8845 t 0 r /Helvetica findfont 22.8295 sf 0 0 m (2) show NC gr 
 gsave  408 306 23 13 C 358.96 39.8845 t 0 r /Helvetica findfont 22.8295 sf 0 0 m (3) show NC gr  84 288 m 306 X s 84 284 m 4 Y s 179 284 m 4 Y s 274 284 m 4 Y s 369 284 m 4 Y s 369 284 m 4 Y s 84 59 m 229 Y s 89 70 m -5 X s 87 75 m -3 X s 87 80 m -3
 X s 87 85 m -3 X s 87 90 m -3 X s 89 95 m -5 X s 87 100 m -3 X s 87 105 m -3 X s 87 110 m -3 X s 87 115 m -3 X s 89 120 m -5 X s 87 125 m -3 X s 87 130 m -3 X s 87 135 m -3 X s 87 140 m -3 X s 89 145 m -5 X s 87 150 m -3 X s 87 155 m -3 X s 87 160 m
 -3 X s 87 165 m -3 X s 89 169 m -5 X s 87 174 m -3 X s 87 179 m -3 X s 87 184 m -3 X s 87 189 m -3 X s 89 194 m -5 X s 87 199 m -3 X s 87 204 m -3 X s 87 209 m -3 X s 87 214 m -3 X s 89 219 m -5 X s 87 224 m -3 X s 87 229 m -3 X s 87 234 m -3 X s 87
 239 m -3 X s 89 244 m -5 X s 87 249 m -3 X s 87 254 m -3 X s 87 259 m -3 X s 87 264 m -3 X s 89 269 m -5 X s 89 70 m -5 X s 87 65 m -3 X s 87 60 m -3 X s 89 269 m -5 X s 87 274 m -3 X s 87 279 m -3 X s 87 284 m -3 X s
 gsave  408 306 23 13 C 28.4889 62.6756 t 0 r /Helvetica findfont 22.8295 sf 0 0 m (\2550.03) show NC gr 
 gsave  408 306 23 13 C 28.4889 88.3156 t 0 r /Helvetica findfont 22.8295 sf 0 0 m (\2550.02) show NC gr 
 gsave  408 306 23 13 C 31.3378 113.956 t 0 r /Helvetica findfont 22.8295 sf 0 0 m (\2550.01) show NC gr 
 gsave  408 306 23 13 C 65.5245 136.747 t 0 r /Helvetica findfont 22.8295 sf 0 0 m (0) show NC gr 
 gsave  408 306 23 13 C 37.0356 162.387 t 0 r /Helvetica findfont 22.8295 sf 0 0 m (0.01) show NC gr 
 gsave  408 306 23 13 C 34.1867 188.027 t 0 r /Helvetica findfont 22.8295 sf 0 0 m (0.02) show NC gr 
 gsave  408 306 23 13 C 34.1867 210.818 t 0 r /Helvetica findfont 22.8295 sf 0 0 m (0.03) show NC gr 
 gsave  408 306 23 13 C 34.1867 236.458 t 0 r /Helvetica findfont 22.8295 sf 0 0 m (0.04) show NC gr 
 gsave  408 306 23 13 C 34.1867 262.098 t 0 r /Helvetica findfont 22.8295 sf 0 0 m (0.05) show NC gr  390 59 m 229 Y s 385 70 m 5 X s 387 75 m 3 X s 387 80 m 3 X s 387 85 m 3 X s 387 90 m 3 X s 385 95 m 5 X s 387 100 m 3 X s 387 105 m 3 X s 387 110 m
 3 X s 387 115 m 3 X s 385 120 m 5 X s 387 125 m 3 X s 387 130 m 3 X s 387 135 m 3 X s 387 140 m 3 X s 385 145 m 5 X s 387 150 m 3 X s 387 155 m 3 X s 387 160 m 3 X s 387 165 m 3 X s 385 169 m 5 X s 387 174 m 3 X s 387 179 m 3 X s 387 184 m 3 X s 387
 189 m 3 X s 385 194 m 5 X s 387 199 m 3 X s 387 204 m 3 X s 387 209 m 3 X s 387 214 m 3 X s 385 219 m 5 X s 387 224 m 3 X s 387 229 m 3 X s 387 234 m 3 X s 387 239 m 3 X s 385 244 m 5 X s 387 249 m 3 X s 387 254 m 3 X s 387 259 m 3 X s 387 264 m 3 X
 s 385 269 m 5 X s 385 70 m 5 X s 387 65 m 3 X s 387 60 m 3 X s 385 269 m 5 X s 387 274 m 3 X s 387 279 m 3 X s 387 284 m 3 X s /w 22 def /w2 {w 2 div} def /w3 {w 3 div} def 179 106 274 142 369 238 3 { m21} R 179 117 m 16 Y s 173 133 m 12 X s 179 94
 m -16 Y s 173 78 m 12 X s 274 154 m 17 Y s 268 171 m 12 X s 274 131 m -17 Y s 268 114 m 12 X s 369 250 m 19 Y s 363 269 m 12 X s 369 227 m -19 Y s 363 208 m 12 X s 1 0 0 c 9 lw 0.95 0.95 0.95 c black 1 0 0 c 85 145 m 28 X 3 1 d 12 X 3 1 d 10 X 3 1 d
 6 X 3 1 d 6 X 3 1 d 3 X 3 1 d 3 X 3 1 d 3 X 3 1 d 3 X 3 1 d 4 X 3 1 d 3 X 3 1 d 3 1 d 3 X 3 1 d 3 1 d 3 X 3 1 d 3 1 d 3 X 3 1 d 3 1 d 3 1 d 3 X s 235 164 m 4 1 d 3 1 d 3 1 d 3 1 d 3 1 d 3 X 3 1 d 3 1 d 3 1 d 3 1 d 3 1 d 3 1 d 3 1 d 3 1 d 3 1 d 3 1 d
 3 1 d 4 1 d 3 1 d 3 1 d 3 2 d 3 1 d 3 1 d 3 1 d 3 1 d 3 1 d 3 2 d 3 1 d 3 1 d 3 1 d 3 2 d 3 1 d 3 1 d 4 2 d 3 1 d 3 1 d 3 2 d 3 1 d 3 2 d 3 1 d 3 1 d 3 2 d 3 1 d 3 2 d 3 1 d 3 2 d 3 2 d 3 1 d 3 2 d s 385 223 m 4 1 d s 0.49 0.6 0.82 c black 0.49 0.6
 0.82 c
 gsave  408 306 23 13 C 142.445 296.285 t 0 r /Helvetica-Bold findfont 25.6831 sf 0 0 m (7.5 < E < 8.0 GeV) show NC gr  0.52 0.76 0.64 c black 0.52 0.76 0.64 c
 gsave  408 306 23 13 C 128.2 259.249 t 0 r /Helvetica-Bold findfont 25.6831 sf 0 0 m 
 220 206 192 185 170 163 148 141 126 118 111 97 83 69 61 47 40 25 18
(A = 0.003, p = 2.000) K NC gr  1 0.6 1 c black 1 0.6 1 c
 gsave  408 306 23 13 C 427.334 128.2 t 90 r /Helvetica-Bold findfont 28.5368 sf 0 0 m (/dof=2.4) show NC gr  black 1 0.6 1 c
 gsave  408 306 23 13 C 415.938 116.804 t 90 r /Helvetica-Bold findfont 19.9758 sf 0 0 m (2) show NC gr  black 1 0.6 1 c
 gsave  408 306 23 13 C 427.334 99.7112 t 90 r /Symbol findfont 28.5368 sf 0 0 m (c) show NC gr  black 3 lw 1 1 1 c 408 306 476 13 bf black 1 1 1 c black 307 229 537 59 bl 307 229 537 59 bl 537 59 m 307 X s 537 63 m -4 Y s 633 63 m -4 Y s 728 63 m -4
 Y s 823 63 m -4 Y s 823 63 m -4 Y s
 gsave  408 306 476 13 C 527.045 39.8845 t 0 r /Helvetica findfont 22.8295 sf 0 0 m (0) show NC gr 
 gsave  408 306 476 13 C 626.756 39.8845 t 0 r /Helvetica findfont 22.8295 sf 0 0 m (1) show NC gr 
 gsave  408 306 476 13 C 717.92 39.8845 t 0 r /Helvetica findfont 22.8295 sf 0 0 m (2) show NC gr 
 gsave  408 306 476 13 C 811.934 39.8845 t 0 r /Helvetica findfont 22.8295 sf 0 0 m (3) show NC gr  537 288 m 307 X s 537 284 m 4 Y s 633 284 m 4 Y s 728 284 m 4 Y s 823 284 m 4 Y s 823 284 m 4 Y s 537 59 m 229 Y s 543 83 m -6 X s 540 90 m -3 X s 540
 96 m -3 X s 540 102 m -3 X s 540 109 m -3 X s 543 115 m -6 X s 540 121 m -3 X s 540 128 m -3 X s 540 134 m -3 X s 540 140 m -3 X s 543 146 m -6 X s 540 153 m -3 X s 540 159 m -3 X s 540 165 m -3 X s 540 172 m -3 X s 543 178 m -6 X s 540 184 m -3 X s
 540 191 m -3 X s 540 197 m -3 X s 540 203 m -3 X s 543 210 m -6 X s 540 216 m -3 X s 540 222 m -3 X s 540 229 m -3 X s 540 235 m -3 X s 543 241 m -6 X s 540 248 m -3 X s 540 254 m -3 X s 540 260 m -3 X s 540 267 m -3 X s 543 273 m -6 X s 543 83 m -6
 X s 540 77 m -3 X s 540 71 m -3 X s 540 64 m -3 X s 543 273 m -6 X s 540 279 m -3 X s 540 286 m -3 X s
 gsave  408 306 476 13 C 484.311 76.92 t 0 r /Helvetica findfont 22.8295 sf 0 0 m (\2550.01) show NC gr 
 gsave  408 306 476 13 C 518.498 108.258 t 0 r /Helvetica findfont 22.8295 sf 0 0 m (0) show NC gr 
 gsave  408 306 476 13 C 490.009 139.596 t 0 r /Helvetica findfont 22.8295 sf 0 0 m (0.01) show NC gr 
 gsave  408 306 476 13 C 487.16 170.933 t 0 r /Helvetica findfont 22.8295 sf 0 0 m (0.02) show NC gr 
 gsave  408 306 476 13 C 487.16 202.271 t 0 r /Helvetica findfont 22.8295 sf 0 0 m (0.03) show NC gr 
 gsave  408 306 476 13 C 487.16 233.609 t 0 r /Helvetica findfont 22.8295 sf 0 0 m (0.04) show NC gr 
 gsave  408 306 476 13 C 487.16 264.947 t 0 r /Helvetica findfont 22.8295 sf 0 0 m (0.05) show NC gr  844 59 m 229 Y s 838 83 m 6 X s 841 90 m 3 X s 841 96 m 3 X s 841 102 m 3 X s 841 109 m 3 X s 838 115 m 6 X s 841 121 m 3 X s 841 128 m 3 X s 841
 134 m 3 X s 841 140 m 3 X s 838 146 m 6 X s 841 153 m 3 X s 841 159 m 3 X s 841 165 m 3 X s 841 172 m 3 X s 838 178 m 6 X s 841 184 m 3 X s 841 191 m 3 X s 841 197 m 3 X s 841 203 m 3 X s 838 210 m 6 X s 841 216 m 3 X s 841 222 m 3 X s 841 229 m 3 X
 s 841 235 m 3 X s 838 241 m 6 X s 841 248 m 3 X s 841 254 m 3 X s 841 260 m 3 X s 841 267 m 3 X s 838 273 m 6 X s 838 83 m 6 X s 841 77 m 3 X s 841 71 m 3 X s 841 64 m 3 X s 838 273 m 6 X s 841 279 m 3 X s 841 286 m 3 X s /w 23 def /w2 {w 2 div} def
 /w3 {w 3 div} def 633 117 728 154 823 227 3 { m21} R 633 129 m 27 Y s 627 156 m 11 X s 633 106 m -28 Y s 627 78 m 11 X s 728 165 m 28 Y s 722 193 m 11 X s 728 142 m -28 Y s 722 114 m 11 X s 823 238 m 31 Y s 817 269 m 11 X s 823 215 m -31 Y s 817 184
 m 11 X s 1 0 0 c 9 lw 0.95 0.95 0.95 c black 1 0 0 c 539 115 m 18 X 3 1 d 13 X 3 1 d 6 X 3 1 d 3 X 3 1 d 3 X 3 1 d 3 X 3 1 d 3 X 3 1 d 3 X 4 1 d 3 X 3 1 d 3 1 d 3 1 d 3 X 3 1 d 3 1 d 3 1 d 3 X 3 1 d 3 1 d 3 1 d 3 1 d 3 1 d 3 1 d 3 1 d 4 1 d 3 1 d 3
 1 d 3 1 d 3 1 d 3 1 d 3 2 d 3 1 d s 689 145 m 3 1 d 3 1 d 3 2 d 3 1 d 3 1 d 3 2 d 3 1 d 3 1 d 4 2 d 3 1 d 3 2 d 3 1 d 3 2 d 3 1 d 3 2 d 3 1 d 3 2 d 3 2 d 3 1 d 3 2 d 3 2 d 3 1 d 3 2 d 3 2 d 4 2 d 3 2 d 3 2 d 3 1 d 3 2 d 3 2 d 3 2 d 3 2 d 3 2 d 3 2 d
 3 2 d 3 2 d 3 2 d 3 3 d 3 2 d 3 2 d 4 2 d 3 2 d 3 3 d 3 2 d 3 2 d 3 3 d 3 2 d 3 2 d 3 3 d s 839 234 m 3 2 d s 0.49 0.6 0.82 c black 0.49 0.6 0.82 c
 gsave  408 306 476 13 C 595.418 296.285 t 0 r /Helvetica-Bold findfont 25.6831 sf 0 0 m (8.0 < E < 8.5 GeV) show NC gr  0.52 0.76 0.64 c black 0.52 0.76 0.64 c
 gsave  408 306 476 13 C 581.174 259.249 t 0 r /Helvetica-Bold findfont 25.6831 sf 0 0 m 
 220 206 192 185 170 163 148 141 125 118 111 97 83 68 61 47 40 25 18
(A = 0.004, p = 2.000) K NC gr  1 0.6 1 c black 1 0.6 1 c
 gsave  408 306 476 13 C 883.156 128.2 t 90 r /Helvetica-Bold findfont 28.5368 sf 0 0 m (/dof=0.1) show NC gr  black 1 0.6 1 c
 gsave  408 306 476 13 C 871.76 116.804 t 90 r /Helvetica-Bold findfont 19.9758 sf 0 0 m (2) show NC gr  black 1 0.6 1 c
 gsave  408 306 476 13 C 883.156 99.7112 t 90 r /Symbol findfont 28.5368 sf 0 0 m (c) show NC gr  black 3 lw 1 1 1 c 408 306 930 13 bf black 1 1 1 c black 306 229 991 59 bl 306 229 991 59 bl 991 59 m 306 X s 991 63 m -4 Y s 1086 63 m -4 Y s 1181 63 m
 -4 Y s 1276 63 m -4 Y s 1276 63 m -4 Y s
 gsave  408 306 930 13 C 980.018 39.8845 t 0 r /Helvetica findfont 22.8295 sf 0 0 m (0) show NC gr 
 gsave  408 306 930 13 C 1079.73 39.8845 t 0 r /Helvetica findfont 22.8295 sf 0 0 m (1) show NC gr 
 gsave  408 306 930 13 C 1170.89 39.8845 t 0 r /Helvetica findfont 22.8295 sf 0 0 m (2) show NC gr 
 gsave  408 306 930 13 C 1264.91 39.8845 t 0 r /Helvetica findfont 22.8295 sf 0 0 m (3) show NC gr  991 288 m 306 X s 991 284 m 4 Y s 1086 284 m 4 Y s 1181 284 m 4 Y s 1276 284 m 4 Y s 1276 284 m 4 Y s 991 59 m 229 Y s 997 71 m -6 X s 994 76 m -3 X s
 994 81 m -3 X s 994 86 m -3 X s 994 90 m -3 X s 997 95 m -6 X s 994 100 m -3 X s 994 104 m -3 X s 994 109 m -3 X s 994 114 m -3 X s 997 118 m -6 X s 994 123 m -3 X s 994 128 m -3 X s 994 133 m -3 X s 994 137 m -3 X s 997 142 m -6 X s 994 147 m -3 X
 s 994 151 m -3 X s 994 156 m -3 X s 994 161 m -3 X s 997 166 m -6 X s 994 170 m -3 X s 994 175 m -3 X s 994 180 m -3 X s 994 184 m -3 X s 997 189 m -6 X s 994 194 m -3 X s 994 198 m -3 X s 994 203 m -3 X s 994 208 m -3 X s 997 213 m -6 X s 994 217 m
 -3 X s 994 222 m -3 X s 994 227 m -3 X s 994 231 m -3 X s 997 236 m -6 X s 994 241 m -3 X s 994 245 m -3 X s 994 250 m -3 X s 994 255 m -3 X s 997 260 m -6 X s 994 264 m -3 X s 994 269 m -3 X s 994 274 m -3 X s 994 278 m -3 X s 997 283 m -6 X s 997
 71 m -6 X s 994 67 m -3 X s 994 62 m -3 X s 997 283 m -6 X s 994 288 m -3 X s
 gsave  408 306 930 13 C 937.285 65.5245 t 0 r /Helvetica findfont 22.8295 sf 0 0 m (\2550.05) show NC gr 
 gsave  408 306 930 13 C 937.285 88.3156 t 0 r /Helvetica findfont 22.8295 sf 0 0 m (\2550.04) show NC gr 
 gsave  408 306 930 13 C 937.285 111.107 t 0 r /Helvetica findfont 22.8295 sf 0 0 m (\2550.03) show NC gr 
 gsave  408 306 930 13 C 937.285 133.898 t 0 r /Helvetica findfont 22.8295 sf 0 0 m (\2550.02) show NC gr 
 gsave  408 306 930 13 C 940.134 159.538 t 0 r /Helvetica findfont 22.8295 sf 0 0 m (\2550.01) show NC gr 
 gsave  408 306 930 13 C 974.32 182.329 t 0 r /Helvetica findfont 22.8295 sf 0 0 m (0) show NC gr 
 gsave  408 306 930 13 C 945.832 205.12 t 0 r /Helvetica findfont 22.8295 sf 0 0 m (0.01) show NC gr 
 gsave  408 306 930 13 C 942.983 227.911 t 0 r /Helvetica findfont 22.8295 sf 0 0 m (0.02) show NC gr 
 gsave  408 306 930 13 C 942.983 253.551 t 0 r /Helvetica findfont 22.8295 sf 0 0 m (0.03) show NC gr 
 gsave  408 306 930 13 C 942.983 276.342 t 0 r /Helvetica findfont 22.8295 sf 0 0 m (0.04) show NC gr  1297 59 m 229 Y s 1292 71 m 5 X s 1294 76 m 3 X s 1294 81 m 3 X s 1294 86 m 3 X s 1294 90 m 3 X s 1292 95 m 5 X s 1294 100 m 3 X s 1294 104 m 3 X s
 1294 109 m 3 X s 1294 114 m 3 X s 1292 118 m 5 X s 1294 123 m 3 X s 1294 128 m 3 X s 1294 133 m 3 X s 1294 137 m 3 X s 1292 142 m 5 X s 1294 147 m 3 X s 1294 151 m 3 X s 1294 156 m 3 X s 1294 161 m 3 X s 1292 166 m 5 X s 1294 170 m 3 X s 1294 175 m
 3 X s 1294 180 m 3 X s 1294 184 m 3 X s 1292 189 m 5 X s 1294 194 m 3 X s 1294 198 m 3 X s 1294 203 m 3 X s 1294 208 m 3 X s 1292 213 m 5 X s 1294 217 m 3 X s 1294 222 m 3 X s 1294 227 m 3 X s 1294 231 m 3 X s 1292 236 m 5 X s 1294 241 m 3 X s 1294
 245 m 3 X s 1294 250 m 3 X s 1294 255 m 3 X s 1292 260 m 5 X s 1294 264 m 3 X s 1294 269 m 3 X s 1294 274 m 3 X s 1294 278 m 3 X s 1292 283 m 5 X s 1292 71 m 5 X s 1294 67 m 3 X s 1294 62 m 3 X s 1292 283 m 5 X s 1294 288 m 3 X s 1086 174 1181 108
 1276 236 3 { m21} R 1086 185 m 19 Y s 1080 204 m 12 X s 1086 162 m -19 Y s 1080 143 m 12 X s 1181 120 m 19 Y s 1175 139 m 12 X s 1181 97 m -19 Y s 1175 78 m 12 X s 1276 247 m 22 Y s 1271 269 m 11 X s 1276 224 m -22 Y s 1271 202 m 11 X s 9 lw 0.95
 0.95 0.95 c black 993 189 m 6 X 3 -1 d 18 X 3 -1 d 15 X 4 -1 d 15 X 3 -1 d 15 X 3 -1 d 19 X 3 -1 d 15 X 3 -1 d 15 X 3 -1 d 7 X s 1143 181 m 9 X 3 -1 d 18 X 3 -1 d 16 X 3 -1 d 15 X 3 -1 d 15 X 3 -1 d 19 X 3 -1 d 15 X 3 -1 d 15 X 3 -1 d 4 X s 1293 173
 m 3 X s 0.49 0.6 0.82 c black 0.49 0.6 0.82 c
 gsave  408 306 930 13 C 1051.24 296.285 t 0 r /Helvetica-Bold findfont 25.6831 sf 0 0 m (8.5 < E < 9.0 GeV) show NC gr  0.52 0.76 0.64 c black 0.52 0.76 0.64 c
 gsave  408 306 930 13 C 1031.3 259.249 t 0 r /Helvetica-Bold findfont 25.6831 sf 0 0 m 
 228 214 200 193 178 171 156 149 133 126 119 105 91 77 69 55 47 39 25 17
(A = \2550.002, p = 1.000) K NC gr  1 0.6 1 c black 1 0.6 1 c
 gsave  408 306 930 13 C 1336.13 128.2 t 90 r /Helvetica-Bold findfont 28.5368 sf 0 0 m (/dof=4.5) show NC gr  black 1 0.6 1 c
 gsave  408 306 930 13 C 1324.73 116.804 t 90 r /Helvetica-Bold findfont 19.9758 sf 0 0 m (2) show NC gr  black 1 0.6 1 c
 gsave  408 306 930 13 C 1336.13 99.7112 t 90 r /Symbol findfont 28.5368 sf 0 0 m (c) show NC gr  black 3 lw 1 1 1 c 408 306 1383 13 bf black 1 1 1 c black 306 229 1445 59 bl 306 229 1445 59 bl 1445 59 m 306 X s 1445 63 m -4 Y s 1540 63 m -4 Y s 1635
 63 m -4 Y s 1730 63 m -4 Y s 1730 63 m -4 Y s
 gsave  408 306 1383 13 C 1435.84 39.8845 t 0 r /Helvetica findfont 22.8295 sf 0 0 m (0) show NC gr 
 gsave  408 306 1383 13 C 1532.7 39.8845 t 0 r /Helvetica findfont 22.8295 sf 0 0 m (1) show NC gr 
 gsave  408 306 1383 13 C 1623.87 39.8845 t 0 r /Helvetica findfont 22.8295 sf 0 0 m (2) show NC gr 
 gsave  408 306 1383 13 C 1720.73 39.8845 t 0 r /Helvetica findfont 22.8295 sf 0 0 m (3) show NC gr  1445 288 m 306 X s 1445 284 m 4 Y s 1540 284 m 4 Y s 1635 284 m 4 Y s 1730 284 m 4 Y s 1730 284 m 4 Y s 1445 59 m 229 Y s 1450 74 m -5 X s 1447 82 m
 -2 X s 1447 90 m -2 X s 1447 97 m -2 X s 1447 105 m -2 X s 1450 113 m -5 X s 1447 120 m -2 X s 1447 128 m -2 X s 1447 136 m -2 X s 1447 143 m -2 X s 1450 151 m -5 X s 1447 158 m -2 X s 1447 166 m -2 X s 1447 174 m -2 X s 1447 181 m -2 X s 1450 189 m
 -5 X s 1447 197 m -2 X s 1447 204 m -2 X s 1447 212 m -2 X s 1447 220 m -2 X s 1450 227 m -5 X s 1447 235 m -2 X s 1447 242 m -2 X s 1447 250 m -2 X s 1447 258 m -2 X s 1450 265 m -5 X s 1450 74 m -5 X s 1447 67 m -2 X s 1447 59 m -2 X s 1450 265 m
 -5 X s 1447 273 m -2 X s 1447 281 m -2 X s
 gsave  408 306 1383 13 C 1393.11 68.3734 t 0 r /Helvetica findfont 22.8295 sf 0 0 m (\2550.01) show NC gr 
 gsave  408 306 1383 13 C 1427.29 105.409 t 0 r /Helvetica findfont 22.8295 sf 0 0 m (0) show NC gr 
 gsave  408 306 1383 13 C 1398.81 142.445 t 0 r /Helvetica findfont 22.8295 sf 0 0 m (0.01) show NC gr 
 gsave  408 306 1383 13 C 1395.96 182.329 t 0 r /Helvetica findfont 22.8295 sf 0 0 m (0.02) show NC gr 
 gsave  408 306 1383 13 C 1395.96 219.365 t 0 r /Helvetica findfont 22.8295 sf 0 0 m (0.03) show NC gr 
 gsave  408 306 1383 13 C 1395.96 259.249 t 0 r /Helvetica findfont 22.8295 sf 0 0 m (0.04) show NC gr  1751 59 m 229 Y s 1745 74 m 6 X s 1748 82 m 3 X s 1748 90 m 3 X s 1748 97 m 3 X s 1748 105 m 3 X s 1745 113 m 6 X s 1748 120 m 3 X s 1748 128 m 3
 X s 1748 136 m 3 X s 1748 143 m 3 X s 1745 151 m 6 X s 1748 158 m 3 X s 1748 166 m 3 X s 1748 174 m 3 X s 1748 181 m 3 X s 1745 189 m 6 X s 1748 197 m 3 X s 1748 204 m 3 X s 1748 212 m 3 X s 1748 220 m 3 X s 1745 227 m 6 X s 1748 235 m 3 X s 1748
 242 m 3 X s 1748 250 m 3 X s 1748 258 m 3 X s 1745 265 m 6 X s 1745 74 m 6 X s 1748 67 m 3 X s 1748 59 m 3 X s 1745 265 m 6 X s 1748 273 m 3 X s 1748 281 m 3 X s 1540 163 1635 132 1730 211 3 { m21} R 1540 175 m 42 Y s 1534 217 m 11 X s 1540 152 m
 -42 Y s 1534 110 m 11 X s 1635 144 m 43 Y s 1629 187 m 11 X s 1635 121 m -43 Y s 1629 78 m 11 X s 1730 222 m 47 Y s 1724 269 m 11 X s 1730 199 m -47 Y s 1724 152 m 11 X s 9 lw 0.95 0.95 0.95 c black 1446 113 m 3 1 d 3 1 d 3 1 d 3 1 d 3 X 3 1 d 3 1 d
 4 1 d 3 1 d 3 1 d 3 1 d 3 X 3 1 d 3 1 d 3 1 d 3 1 d 3 1 d 3 1 d 3 1 d 3 X 3 1 d 3 1 d 3 1 d 4 1 d 3 1 d 3 1 d 3 1 d 3 X 3 1 d 3 1 d 3 1 d 3 1 d 3 1 d 3 1 d 3 X 3 1 d 3 1 d 3 1 d 3 1 d 4 1 d 3 1 d 3 1 d 3 X 3 1 d 3 1 d 3 1 d 3 1 d 3 1 d 3 1 d s 1596
 156 m 3 X 3 1 d 3 1 d 3 1 d 3 1 d 3 1 d 4 1 d 3 1 d 3 X 3 1 d 3 1 d 3 1 d 3 1 d 3 1 d 3 1 d 3 1 d 3 X 3 1 d 3 1 d 3 1 d 3 1 d 3 1 d 3 1 d 4 X 3 1 d 3 1 d 3 1 d 3 1 d 3 1 d 3 1 d 3 1 d 3 X 3 1 d 3 1 d 3 1 d 3 1 d 3 1 d 3 1 d 3 1 d 4 X 3 1 d 3 1 d 3 1
 d 3 1 d 3 1 d 3 1 d 3 X 3 1 d 3 1 d s 1746 198 m 3 1 d s 0.49 0.6 0.82 c black 0.49 0.6 0.82 c
 gsave  408 306 1383 13 C 1504.21 296.285 t 0 r /Helvetica-Bold findfont 25.6831 sf 0 0 m (9.0 < E < 9.5 GeV) show NC gr  0.52 0.76 0.64 c black 0.52 0.76 0.64 c
 gsave  408 306 1383 13 C 1489.97 259.249 t 0 r /Helvetica-Bold findfont 25.6831 sf 0 0 m 
 220 206 192 185 170 163 148 141 126 118 111 97 83 69 61 47 40 25 18
(A = 0.007, p = 1.000) K NC gr  1 0.6 1 c black 1 0.6 1 c
 gsave  408 306 1383 13 C 1789.1 128.2 t 90 r /Helvetica-Bold findfont 28.5368 sf 0 0 m (/dof=0.3) show NC gr  black 1 0.6 1 c
 gsave  408 306 1383 13 C 1777.71 116.804 t 90 r /Helvetica-Bold findfont 19.9758 sf 0 0 m (2) show NC gr  black 1 0.6 1 c
 gsave  408 306 1383 13 C 1789.1 99.7112 t 90 r /Symbol findfont 28.5368 sf 0 0 m (c) show NC gr  black 3 lw 1 1 1 c 408 306 1837 13 bf black 1 1 1 c black 306 229 1898 59 bl 306 229 1898 59 bl 1898 59 m 306 X s 1898 63 m -4 Y s 1993 63 m -4 Y s 2088
 63 m -4 Y s 2183 63 m -4 Y s 2183 63 m -4 Y s
 gsave  408 306 1837 13 C 1888.81 39.8845 t 0 r /Helvetica findfont 22.8295 sf 0 0 m (0) show NC gr 
 gsave  408 306 1837 13 C 1985.68 39.8845 t 0 r /Helvetica findfont 22.8295 sf 0 0 m (1) show NC gr 
 gsave  408 306 1837 13 C 2076.84 39.8845 t 0 r /Helvetica findfont 22.8295 sf 0 0 m (2) show NC gr 
 gsave  408 306 1837 13 C 2173.7 39.8845 t 0 r /Helvetica findfont 22.8295 sf 0 0 m (3) show NC gr  1898 288 m 306 X s 1898 284 m 4 Y s 1993 284 m 4 Y s 2088 284 m 4 Y s 2183 284 m 4 Y s 2183 284 m 4 Y s 1898 59 m 229 Y s 1904 82 m -6 X s 1901 87 m
 -3 X s 1901 93 m -3 X s 1901 98 m -3 X s 1901 103 m -3 X s 1904 109 m -6 X s 1901 114 m -3 X s 1901 119 m -3 X s 1901 124 m -3 X s 1901 130 m -3 X s 1904 135 m -6 X s 1901 140 m -3 X s 1901 146 m -3 X s 1901 151 m -3 X s 1901 156 m -3 X s 1904 162 m
 -6 X s 1901 167 m -3 X s 1901 172 m -3 X s 1901 177 m -3 X s 1901 183 m -3 X s 1904 188 m -6 X s 1901 193 m -3 X s 1901 199 m -3 X s 1901 204 m -3 X s 1901 209 m -3 X s 1904 215 m -6 X s 1901 220 m -3 X s 1901 225 m -3 X s 1901 230 m -3 X s 1901 236
 m -3 X s 1904 241 m -6 X s 1901 246 m -3 X s 1901 252 m -3 X s 1901 257 m -3 X s 1901 262 m -3 X s 1904 268 m -6 X s 1904 82 m -6 X s 1901 77 m -3 X s 1901 71 m -3 X s 1901 66 m -3 X s 1901 61 m -3 X s 1904 268 m -6 X s 1901 273 m -3 X s 1901 278 m
 -3 X s 1901 283 m -3 X s
 gsave  408 306 1837 13 C 1828.99 74.0711 t 0 r /Helvetica findfont 22.8295 sf 0 0 m (\2550.005) show NC gr 
 gsave  408 306 1837 13 C 1880.27 102.56 t 0 r /Helvetica findfont 22.8295 sf 0 0 m (0) show NC gr 
 gsave  408 306 1837 13 C 1837.53 128.2 t 0 r /Helvetica findfont 22.8295 sf 0 0 m (0.005) show NC gr 
 gsave  408 306 1837 13 C 1851.78 153.84 t 0 r /Helvetica findfont 22.8295 sf 0 0 m (0.01) show NC gr 
 gsave  408 306 1837 13 C 1837.53 182.329 t 0 r /Helvetica findfont 22.8295 sf 0 0 m (0.015) show NC gr 
 gsave  408 306 1837 13 C 1848.93 207.969 t 0 r /Helvetica findfont 22.8295 sf 0 0 m (0.02) show NC gr 
 gsave  408 306 1837 13 C 1837.53 233.609 t 0 r /Helvetica findfont 22.8295 sf 0 0 m (0.025) show NC gr 
 gsave  408 306 1837 13 C 1848.93 259.249 t 0 r /Helvetica findfont 22.8295 sf 0 0 m (0.03) show NC gr  2204 59 m 229 Y s 2199 82 m 5 X s 2201 87 m 3 X s 2201 93 m 3 X s 2201 98 m 3 X s 2201 103 m 3 X s 2199 109 m 5 X s 2201 114 m 3 X s 2201 119 m 3
 X s 2201 124 m 3 X s 2201 130 m 3 X s 2199 135 m 5 X s 2201 140 m 3 X s 2201 146 m 3 X s 2201 151 m 3 X s 2201 156 m 3 X s 2199 162 m 5 X s 2201 167 m 3 X s 2201 172 m 3 X s 2201 177 m 3 X s 2201 183 m 3 X s 2199 188 m 5 X s 2201 193 m 3 X s 2201
 199 m 3 X s 2201 204 m 3 X s 2201 209 m 3 X s 2199 215 m 5 X s 2201 220 m 3 X s 2201 225 m 3 X s 2201 230 m 3 X s 2201 236 m 3 X s 2199 241 m 5 X s 2201 246 m 3 X s 2201 252 m 3 X s 2201 257 m 3 X s 2201 262 m 3 X s 2199 268 m 5 X s 2199 82 m 5 X s
 2201 77 m 3 X s 2201 71 m 3 X s 2201 66 m 3 X s 2201 61 m 3 X s 2199 268 m 5 X s 2201 273 m 3 X s 2201 278 m 3 X s 2201 283 m 3 X s 1993 190 2088 164 2183 163 3 { m21} R 1993 201 m 68 Y s 1987 269 m 12 X s 1993 178 m -67 Y s 1987 111 m 12 X s 2088
 176 m 69 Y s 2083 245 m 11 X s 2088 153 m -69 Y s 2083 84 m 11 X s 2183 174 m 74 Y s 2178 248 m 11 X s 2183 152 m -74 Y s 2178 78 m 11 X s 9 lw 0.95 0.95 0.95 c black 1900 109 m 3 1 d 3 1 d 3 X 3 1 d 3 1 d 3 1 d 3 1 d 3 1 d 3 1 d 3 X 3 1 d 3 1 d 3 1
 d 3 1 d 4 1 d 3 X 3 1 d 3 1 d 3 1 d 3 1 d 3 1 d 3 X 3 1 d 3 1 d 3 1 d 3 1 d 3 1 d 3 X 3 1 d 3 1 d 4 1 d 3 1 d 3 1 d 3 X 3 1 d 3 1 d 3 1 d 3 1 d 3 1 d 3 1 d 3 X 3 1 d 3 1 d 3 1 d 3 1 d 3 1 d 3 X 4 1 d 3 1 d s 2050 150 m 3 1 d 3 1 d 3 1 d 3 X 3 1 d 3
 1 d 3 1 d 3 1 d 3 1 d 3 X 3 1 d 3 1 d 3 1 d 3 1 d 4 1 d 3 1 d 3 X 3 1 d 3 1 d 3 1 d 3 1 d 3 1 d 3 X 3 1 d 3 1 d 3 1 d 3 1 d 3 1 d 3 X 3 1 d 4 1 d 3 1 d 3 1 d 3 1 d 3 X 3 1 d 3 1 d 3 1 d 3 1 d 3 1 d 3 X 3 1 d 3 1 d 3 1 d 3 1 d 3 1 d 4 1 d 3 X 3 1 d s
 2200 191 m 3 1 d s 0.49 0.6 0.82 c black 0.49 0.6 0.82 c
 gsave  408 306 1837 13 C 1948.64 296.285 t 0 r /Helvetica-Bold findfont 25.6831 sf 0 0 m (9.5 < E < 10.0 GeV) show NC gr  0.52 0.76 0.64 c black 0.52 0.76 0.64 c
 gsave  408 306 1837 13 C 1942.94 259.249 t 0 r /Helvetica-Bold findfont 25.6831 sf 0 0 m 
 220 206 192 185 170 163 148 141 125 118 111 97 83 69 61 47 40 25 18
(A = 0.005, p = 1.000) K NC gr  1 0.6 1 c black 1 0.6 1 c
 gsave  408 306 1837 13 C 2242.08 128.2 t 90 r /Helvetica-Bold findfont 28.5368 sf 0 0 m (/dof=0.3) show NC gr  black 1 0.6 1 c
 gsave  408 306 1837 13 C 2230.68 116.804 t 90 r /Helvetica-Bold findfont 19.9758 sf 0 0 m (2) show NC gr  black 1 0.6 1 c
 gsave  408 306 1837 13 C 2242.08 99.7112 t 90 r /Symbol findfont 28.5368 sf 0 0 m (c) show NC gr 
 gr  gr showpage
end
%%EOF
