%!PS-Adobe-2.0 EPSF-2.0
%%BoundingBox:  0 0 567 332
%%Title: NominalX_far_fits.eps: Fits
%%Creator: ROOT Version 5.30/06
%%CreationDate: Sun Feb  2 09:37:53 2014
%%EndComments
%%BeginProlog
80 dict begin
/s {stroke} def /l {lineto} def /m {moveto} def /t {translate} def
/r {rotate} def /rl {roll}  def /R {repeat} def
/d {rlineto} def /rm {rmoveto} def /gr {grestore} def /f {eofill} def
/c {setrgbcolor} def /black {0 setgray} def /sd {setdash} def
/cl {closepath} def /sf {scalefont setfont} def /lw {setlinewidth} def
/box {m dup 0 exch d exch 0 d 0 exch neg d cl} def
/NC{systemdict begin initclip end}def/C{NC box clip newpath}def
/bl {box s} def /bf {box f} def /Y { 0 exch d} def /X { 0 d} def 
/K {{pop pop 0 moveto} exch kshow} bind def
/ita {/ang 15 def gsave [1 0 ang dup sin exch cos div 1 0 0] concat} def 
/mp {newpath /y exch def /x exch def} def
/side {[w .77 mul w .23 mul] .385 w mul sd w 0 l currentpoint t -144 r} def
/mr {mp x y w2 0 360 arc} def /m24 {mr s} def /m20 {mr f} def
/mb {mp x y w2 add m w2 neg 0 d 0 w neg d w 0 d 0 w d cl} def
/mt {mp x y w2 add m w2 neg w neg d w 0 d cl} def
/m21 {mb f} def /m25 {mb s} def /m22 {mt f} def /m26{mt s} def
/m23 {mp x y w2 sub m w2 w d w neg 0 d cl f} def
/m27 {mp x y w2 add m w3 neg w2 neg d w3 w2 neg d w3 w2 d cl s} def
/m28 {mp x w2 sub y w2 sub w3 add m w3 0 d  0 w3 neg d w3 0 d 0 w3 d w3 0 d  0 w3 d w3 neg 0 d 0 w3 d w3 neg 0 d 0 w3 neg d w3 neg 0 d cl s } def
/m29 {mp gsave x w2 sub y w2 add w3 sub m currentpoint t 4 {side} repeat cl fill gr} def
/m30 {mp gsave x w2 sub y w2 add w3 sub m currentpoint t 4 {side} repeat cl s gr} def
/m31 {mp x y w2 sub m 0 w d x w2 sub y m w 0 d x w2 sub y w2 add m w w neg d x w2 sub y w2 sub m w w d s} def
/m32 {mp x y w2 sub m w2 w d w neg 0 d cl s} def
/m33 {mp x y w2 add m w3 neg w2 neg d w3 w2 neg d w3 w2 d cl f} def
/m34 {mp x w2 sub y w2 sub w3 add m w3 0 d  0 w3 neg d w3 0 d 0 w3 d w3 0 d  0 w3 d w3 neg 0 d 0 w3 d w3 neg 0 d 0 w3 neg d w3 neg 0 d cl f } def
/m2 {mp x y w2 sub m 0 w d x w2 sub y m w 0 d s} def
/m5 {mp x w2 sub y w2 sub m w w d x w2 sub y w2 add m w w neg d s} def
/reEncode {exch findfont dup length dict begin {1 index /FID eq  {pop pop} {def} ifelse } forall /Encoding exch def currentdict end dup /FontName get exch definefont pop } def [/Times-Bold /Times-Italic /Times-BoldItalic /Helvetica /Helvetica-Oblique
 /Helvetica-Bold /Helvetica-BoldOblique /Courier /Courier-Oblique /Courier-Bold /Courier-BoldOblique /Times-Roman /AvantGarde-Book /AvantGarde-BookOblique /AvantGarde-Demi /AvantGarde-DemiOblique /Bookman-Demi /Bookman-DemiItalic /Bookman-Light
 /Bookman-LightItalic /Helvetica-Narrow /Helvetica-Narrow-Bold /Helvetica-Narrow-BoldOblique /Helvetica-Narrow-Oblique /NewCenturySchlbk-Roman /NewCenturySchlbk-Bold /NewCenturySchlbk-BoldItalic /NewCenturySchlbk-Italic /Palatino-Bold
 /Palatino-BoldItalic /Palatino-Italic /Palatino-Roman ] {ISOLatin1Encoding reEncode } forall%%EndProlog
%%BeginSetup
%%EndSetup
newpath  gsave  .25 .25 scale  gsave  0 0 t black[  ] 0 sd 3 lw 1 1 1 c 2268 1328 0 0 bf black 1 1 1 c 408 305 23 1009 bf black 1 1 1 c black 306 229 84 1055 bl 306 229 84 1055 bl 84 1055 m 306 X s 84 1059 m -4 Y s 179 1059 m -4 Y s 274 1059 m -4 Y s
 369 1059 m -4 Y s 369 1059 m -4 Y s
 gsave  408 305 23 1009 C 74.0711 1034.15 t 0 r /Helvetica findfont 22.8295 sf 0 0 m (0) show NC gr 
 gsave  408 305 23 1009 C 170.933 1034.15 t 0 r /Helvetica findfont 22.8295 sf 0 0 m (1) show NC gr 
 gsave  408 305 23 1009 C 264.947 1034.15 t 0 r /Helvetica findfont 22.8295 sf 0 0 m (2) show NC gr 
 gsave  408 305 23 1009 C 358.96 1034.15 t 0 r /Helvetica findfont 22.8295 sf 0 0 m (3) show NC gr  84 1284 m 306 X s 84 1280 m 4 Y s 179 1280 m 4 Y s 274 1280 m 4 Y s 369 1280 m 4 Y s 369 1280 m 4 Y s 84 1055 m 229 Y s 89 1057 m -5 X s 87 1065 m -3
 X s 87 1074 m -3 X s 87 1083 m -3 X s 87 1092 m -3 X s 89 1101 m -5 X s 87 1109 m -3 X s 87 1118 m -3 X s 87 1127 m -3 X s 87 1136 m -3 X s 89 1145 m -5 X s 87 1153 m -3 X s 87 1162 m -3 X s 87 1171 m -3 X s 87 1180 m -3 X s 89 1189 m -5 X s 87 1197
 m -3 X s 87 1206 m -3 X s 87 1215 m -3 X s 87 1224 m -3 X s 89 1233 m -5 X s 87 1241 m -3 X s 87 1250 m -3 X s 87 1259 m -3 X s 87 1268 m -3 X s 89 1277 m -5 X s 89 1057 m -5 X s 89 1277 m -5 X s
 gsave  408 305 23 1009 C 28.4889 1048.39 t 0 r /Helvetica findfont 22.8295 sf 0 0 m (\2550.25) show NC gr 
 gsave  408 305 23 1009 C 39.8845 1093.97 t 0 r /Helvetica findfont 22.8295 sf 0 0 m (\2550.2) show NC gr 
 gsave  408 305 23 1009 C 28.4889 1136.71 t 0 r /Helvetica findfont 22.8295 sf 0 0 m (\2550.15) show NC gr 
 gsave  408 305 23 1009 C 42.7334 1182.29 t 0 r /Helvetica findfont 22.8295 sf 0 0 m (\2550.1) show NC gr 
 gsave  408 305 23 1009 C 28.4889 1225.02 t 0 r /Helvetica findfont 22.8295 sf 0 0 m (\2550.05) show NC gr 
 gsave  408 305 23 1009 C 65.5245 1270.6 t 0 r /Helvetica findfont 22.8295 sf 0 0 m (0) show NC gr  390 1055 m 229 Y s 385 1057 m 5 X s 387 1065 m 3 X s 387 1074 m 3 X s 387 1083 m 3 X s 387 1092 m 3 X s 385 1101 m 5 X s 387 1109 m 3 X s 387 1118 m 3
 X s 387 1127 m 3 X s 387 1136 m 3 X s 385 1145 m 5 X s 387 1153 m 3 X s 387 1162 m 3 X s 387 1171 m 3 X s 387 1180 m 3 X s 385 1189 m 5 X s 387 1197 m 3 X s 387 1206 m 3 X s 387 1215 m 3 X s 387 1224 m 3 X s 385 1233 m 5 X s 387 1241 m 3 X s 387
 1250 m 3 X s 387 1259 m 3 X s 387 1268 m 3 X s 385 1277 m 5 X s 385 1057 m 5 X s 385 1277 m 5 X s /w 22 def /w2 {w 2 div} def /w3 {w 3 div} def 179 1264 274 1206 369 1075 3 { m21} R 1 0 0 c 9 lw 0.95 0.95 0.95 c black 1 0 0 c 85 1277 m 3 X 4 -1 d 12
 X 3 -1 d 6 X 3 -1 d 3 X 3 -1 d 3 -1 d 3 X 3 -1 d 3 -1 d 3 X 4 -1 d 3 -1 d 3 -1 d 3 -1 d 3 -1 d 3 -1 d 3 -1 d 3 -1 d 3 -1 d 3 -1 d 3 -2 d 3 -1 d 3 -1 d 3 -2 d 3 -1 d 3 -2 d 4 -1 d 3 -2 d 3 -1 d 3 -2 d 3 -2 d 3 -2 d 3 -1 d 3 -2 d 3 -2 d 3 -2 d 3 -2 d
 3 -2 d 3 -2 d 3 -2 d 3 -2 d 3 -3 d s 235 1221 m 4 -2 d 3 -2 d 3 -3 d 3 -2 d 3 -2 d 3 -3 d 3 -2 d 3 -3 d 3 -3 d 3 -2 d 3 -3 d 3 -3 d 3 -2 d 3 -3 d 3 -3 d 3 -3 d 3 -3 d 4 -3 d 3 -3 d 3 -3 d 3 -3 d 3 -4 d 3 -3 d 3 -3 d 3 -3 d 3 -4 d 3 -3 d 3 -4 d 3 -3
 d 3 -4 d 3 -3 d 3 -4 d 3 -4 d 4 -3 d 3 -4 d 3 -4 d 3 -4 d 3 -4 d 3 -4 d 3 -4 d 3 -4 d 3 -4 d 3 -4 d 3 -4 d 3 -5 d 3 -4 d 3 -4 d 3 -5 d 3 -4 d s 0.49 0.6 0.82 c black 0.49 0.6 0.82 c
 gsave  408 305 23 1009 C 142.445 1293.4 t 0 r /Helvetica-Bold findfont 25.6831 sf 0 0 m (0.0 < E < 0.5 GeV) show NC gr  0.52 0.76 0.64 c black 0.52 0.76 0.64 c
 gsave  408 305 23 1009 C 122.502 1256.36 t 0 r /Helvetica-Bold findfont 25.6831 sf 0 0 m 
 228 214 200 193 178 171 156 149 134 126 119 105 91 77 69 55 47 39 25 17
(A = \2550.025, p = 2.000) K NC gr  1 0.6 1 c black 1 0.6 1 c
 gsave  408 305 23 1009 C 427.334 1105.37 t 90 r /Helvetica-Bold findfont 28.5368 sf 0 0 m (/dof=335.6) show NC gr  black 1 0.6 1 c
 gsave  408 305 23 1009 C 415.938 1093.97 t 90 r /Helvetica-Bold findfont 19.9758 sf 0 0 m (2) show NC gr  black 1 0.6 1 c
 gsave  408 305 23 1009 C 427.334 1076.88 t 90 r /Symbol findfont 28.5368 sf 0 0 m (c) show NC gr  black 3 lw 1 1 1 c 408 305 476 1009 bf black 1 1 1 c black 307 229 537 1055 bl 307 229 537 1055 bl 537 1055 m 307 X s 537 1059 m -4 Y s 633 1059 m -4 Y
 s 728 1059 m -4 Y s 823 1059 m -4 Y s 823 1059 m -4 Y s
 gsave  408 305 476 1009 C 527.045 1034.15 t 0 r /Helvetica findfont 22.8295 sf 0 0 m (0) show NC gr 
 gsave  408 305 476 1009 C 626.756 1034.15 t 0 r /Helvetica findfont 22.8295 sf 0 0 m (1) show NC gr 
 gsave  408 305 476 1009 C 717.92 1034.15 t 0 r /Helvetica findfont 22.8295 sf 0 0 m (2) show NC gr 
 gsave  408 305 476 1009 C 811.934 1034.15 t 0 r /Helvetica findfont 22.8295 sf 0 0 m (3) show NC gr  537 1284 m 307 X s 537 1280 m 4 Y s 633 1280 m 4 Y s 728 1280 m 4 Y s 823 1280 m 4 Y s 823 1280 m 4 Y s 537 1055 m 229 Y s 543 1056 m -6 X s 540
 1064 m -3 X s 540 1071 m -3 X s 540 1078 m -3 X s 540 1086 m -3 X s 543 1093 m -6 X s 540 1100 m -3 X s 540 1108 m -3 X s 540 1115 m -3 X s 540 1122 m -3 X s 543 1130 m -6 X s 540 1137 m -3 X s 540 1144 m -3 X s 540 1152 m -3 X s 540 1159 m -3 X s
 543 1167 m -6 X s 540 1174 m -3 X s 540 1181 m -3 X s 540 1189 m -3 X s 540 1196 m -3 X s 543 1203 m -6 X s 540 1211 m -3 X s 540 1218 m -3 X s 540 1225 m -3 X s 540 1233 m -3 X s 543 1240 m -6 X s 540 1248 m -3 X s 540 1255 m -3 X s 540 1262 m -3 X
 s 540 1270 m -3 X s 543 1277 m -6 X s 543 1056 m -6 X s 543 1277 m -6 X s
 gsave  408 305 476 1009 C 492.858 1048.39 t 0 r /Helvetica findfont 22.8295 sf 0 0 m (\2550.3) show NC gr 
 gsave  408 305 476 1009 C 481.462 1085.43 t 0 r /Helvetica findfont 22.8295 sf 0 0 m (\2550.25) show NC gr 
 gsave  408 305 476 1009 C 492.858 1122.46 t 0 r /Helvetica findfont 22.8295 sf 0 0 m (\2550.2) show NC gr 
 gsave  408 305 476 1009 C 481.462 1159.5 t 0 r /Helvetica findfont 22.8295 sf 0 0 m (\2550.15) show NC gr 
 gsave  408 305 476 1009 C 495.707 1196.53 t 0 r /Helvetica findfont 22.8295 sf 0 0 m (\2550.1) show NC gr 
 gsave  408 305 476 1009 C 481.462 1233.57 t 0 r /Helvetica findfont 22.8295 sf 0 0 m (\2550.05) show NC gr 
 gsave  408 305 476 1009 C 518.498 1270.6 t 0 r /Helvetica findfont 22.8295 sf 0 0 m (0) show NC gr  844 1055 m 229 Y s 838 1056 m 6 X s 841 1064 m 3 X s 841 1071 m 3 X s 841 1078 m 3 X s 841 1086 m 3 X s 838 1093 m 6 X s 841 1100 m 3 X s 841 1108 m
 3 X s 841 1115 m 3 X s 841 1122 m 3 X s 838 1130 m 6 X s 841 1137 m 3 X s 841 1144 m 3 X s 841 1152 m 3 X s 841 1159 m 3 X s 838 1167 m 6 X s 841 1174 m 3 X s 841 1181 m 3 X s 841 1189 m 3 X s 841 1196 m 3 X s 838 1203 m 6 X s 841 1211 m 3 X s 841
 1218 m 3 X s 841 1225 m 3 X s 841 1233 m 3 X s 838 1240 m 6 X s 841 1248 m 3 X s 841 1255 m 3 X s 841 1262 m 3 X s 841 1270 m 3 X s 838 1277 m 6 X s 838 1056 m 6 X s 838 1277 m 6 X s /w 23 def /w2 {w 2 div} def /w3 {w 3 div} def 633 1264 728 1207
 823 1075 3 { m21} R 1 0 0 c 9 lw 0.95 0.95 0.95 c black 1 0 0 c 539 1277 m 9 X 3 -1 d 9 X 3 -1 d 4 X 3 -1 d 3 X 3 -1 d 3 X 3 -1 d 3 X 3 -1 d 3 -1 d 3 -1 d 3 -1 d 3 -1 d 3 -1 d 3 X 3 -2 d 3 -1 d 4 -1 d 3 -1 d 3 -1 d 3 -1 d 3 -2 d 3 -1 d 3 -1 d 3 -2 d
 3 -1 d 3 -2 d 3 -2 d 3 -1 d 3 -2 d 3 -2 d 3 -1 d 3 -2 d 3 -2 d 4 -2 d 3 -2 d 3 -2 d 3 -2 d 3 -2 d 3 -2 d 3 -2 d 3 -2 d s 689 1222 m 3 -3 d 3 -2 d 3 -2 d 3 -3 d 3 -2 d 3 -3 d 3 -2 d 3 -3 d 4 -2 d 3 -3 d 3 -3 d 3 -3 d 3 -2 d 3 -3 d 3 -3 d 3 -3 d 3 -3
 d 3 -3 d 3 -3 d 3 -3 d 3 -3 d 3 -4 d 3 -3 d 3 -3 d 4 -3 d 3 -4 d 3 -3 d 3 -4 d 3 -3 d 3 -4 d 3 -3 d 3 -4 d 3 -4 d 3 -4 d 3 -3 d 3 -4 d 3 -4 d 3 -4 d 3 -4 d 3 -4 d 4 -4 d 3 -4 d 3 -4 d 3 -5 d 3 -4 d 3 -4 d 3 -4 d 3 -5 d 3 -4 d s 0.49 0.6 0.82 c black
 0.49 0.6 0.82 c
 gsave  408 305 476 1009 C 595.418 1293.4 t 0 r /Helvetica-Bold findfont 25.6831 sf 0 0 m (0.5 < E < 1.0 GeV) show NC gr  0.52 0.76 0.64 c black 0.52 0.76 0.64 c
 gsave  408 305 476 1009 C 575.476 1256.36 t 0 r /Helvetica-Bold findfont 25.6831 sf 0 0 m 
 228 214 200 193 178 171 156 149 133 126 119 105 91 76 69 55 47 39 25 17
(A = \2550.030, p = 2.000) K NC gr  1 0.6 1 c black 1 0.6 1 c
 gsave  408 305 476 1009 C 883.156 1105.37 t 90 r /Helvetica-Bold findfont 28.5368 sf 0 0 m (/dof=339.9) show NC gr  black 1 0.6 1 c
 gsave  408 305 476 1009 C 871.76 1093.97 t 90 r /Helvetica-Bold findfont 19.9758 sf 0 0 m (2) show NC gr  black 1 0.6 1 c
 gsave  408 305 476 1009 C 883.156 1076.88 t 90 r /Symbol findfont 28.5368 sf 0 0 m (c) show NC gr  black 3 lw 1 1 1 c 408 305 930 1009 bf black 1 1 1 c black 306 229 991 1055 bl 306 229 991 1055 bl 991 1055 m 306 X s 991 1059 m -4 Y s 1086 1059 m -4
 Y s 1181 1059 m -4 Y s 1276 1059 m -4 Y s 1276 1059 m -4 Y s
 gsave  408 305 930 1009 C 980.018 1034.15 t 0 r /Helvetica findfont 22.8295 sf 0 0 m (0) show NC gr 
 gsave  408 305 930 1009 C 1079.73 1034.15 t 0 r /Helvetica findfont 22.8295 sf 0 0 m (1) show NC gr 
 gsave  408 305 930 1009 C 1170.89 1034.15 t 0 r /Helvetica findfont 22.8295 sf 0 0 m (2) show NC gr 
 gsave  408 305 930 1009 C 1264.91 1034.15 t 0 r /Helvetica findfont 22.8295 sf 0 0 m (3) show NC gr  991 1284 m 306 X s 991 1280 m 4 Y s 1086 1280 m 4 Y s 1181 1280 m 4 Y s 1276 1280 m 4 Y s 1276 1280 m 4 Y s 991 1055 m 229 Y s 997 1059 m -6 X s 994
 1066 m -3 X s 994 1073 m -3 X s 994 1081 m -3 X s 994 1088 m -3 X s 997 1095 m -6 X s 994 1103 m -3 X s 994 1110 m -3 X s 994 1117 m -3 X s 994 1124 m -3 X s 997 1132 m -6 X s 994 1139 m -3 X s 994 1146 m -3 X s 994 1153 m -3 X s 994 1161 m -3 X s
 997 1168 m -6 X s 994 1175 m -3 X s 994 1182 m -3 X s 994 1190 m -3 X s 994 1197 m -3 X s 997 1204 m -6 X s 994 1211 m -3 X s 994 1219 m -3 X s 994 1226 m -3 X s 994 1233 m -3 X s 997 1240 m -6 X s 994 1248 m -3 X s 994 1255 m -3 X s 994 1262 m -3 X
 s 994 1269 m -3 X s 997 1277 m -6 X s 997 1059 m -6 X s 997 1277 m -6 X s
 gsave  408 305 930 1009 C 948.68 1051.24 t 0 r /Helvetica findfont 22.8295 sf 0 0 m (\2550.3) show NC gr 
 gsave  408 305 930 1009 C 937.285 1088.28 t 0 r /Helvetica findfont 22.8295 sf 0 0 m (\2550.25) show NC gr 
 gsave  408 305 930 1009 C 948.68 1125.31 t 0 r /Helvetica findfont 22.8295 sf 0 0 m (\2550.2) show NC gr 
 gsave  408 305 930 1009 C 937.285 1159.5 t 0 r /Helvetica findfont 22.8295 sf 0 0 m (\2550.15) show NC gr 
 gsave  408 305 930 1009 C 951.529 1196.53 t 0 r /Helvetica findfont 22.8295 sf 0 0 m (\2550.1) show NC gr 
 gsave  408 305 930 1009 C 937.285 1233.57 t 0 r /Helvetica findfont 22.8295 sf 0 0 m (\2550.05) show NC gr 
 gsave  408 305 930 1009 C 974.32 1270.6 t 0 r /Helvetica findfont 22.8295 sf 0 0 m (0) show NC gr  1297 1055 m 229 Y s 1292 1059 m 5 X s 1294 1066 m 3 X s 1294 1073 m 3 X s 1294 1081 m 3 X s 1294 1088 m 3 X s 1292 1095 m 5 X s 1294 1103 m 3 X s 1294
 1110 m 3 X s 1294 1117 m 3 X s 1294 1124 m 3 X s 1292 1132 m 5 X s 1294 1139 m 3 X s 1294 1146 m 3 X s 1294 1153 m 3 X s 1294 1161 m 3 X s 1292 1168 m 5 X s 1294 1175 m 3 X s 1294 1182 m 3 X s 1294 1190 m 3 X s 1294 1197 m 3 X s 1292 1204 m 5 X s
 1294 1211 m 3 X s 1294 1219 m 3 X s 1294 1226 m 3 X s 1294 1233 m 3 X s 1292 1240 m 5 X s 1294 1248 m 3 X s 1294 1255 m 3 X s 1294 1262 m 3 X s 1294 1269 m 3 X s 1292 1277 m 5 X s 1292 1059 m 5 X s 1292 1277 m 5 X s 1086 1264 1181 1207 1276 1075 3 {
 m21} R 1 0 0 c 9 lw 0.95 0.95 0.95 c black 1 0 0 c 993 1277 m 6 X 3 -1 d 9 X 3 -1 d 6 X 3 -1 d 3 X 3 -1 d 3 X 3 -1 d 3 -1 d 4 X 3 -1 d 3 -1 d 3 -1 d 3 -1 d 3 -1 d 3 -1 d 3 -1 d 3 -1 d 3 -1 d 3 -1 d 3 -1 d 3 -2 d 3 -1 d 3 -1 d 3 -2 d 3 -1 d 4 -2 d 3
 -1 d 3 -2 d 3 -1 d 3 -2 d 3 -2 d 3 -1 d 3 -2 d 3 -2 d 3 -2 d 3 -2 d 3 -2 d 3 -2 d 3 -2 d 3 -2 d 3 -2 d 4 -3 d s 1143 1221 m 3 -2 d 3 -2 d 3 -2 d 3 -3 d 3 -2 d 3 -3 d 3 -2 d 3 -3 d 3 -2 d 3 -3 d 3 -3 d 3 -3 d 3 -2 d 3 -3 d 3 -3 d 4 -3 d 3 -3 d 3 -3 d
 3 -3 d 3 -3 d 3 -3 d 3 -4 d 3 -3 d 3 -3 d 3 -3 d 3 -4 d 3 -3 d 3 -4 d 3 -3 d 3 -4 d 3 -3 d 3 -4 d 4 -4 d 3 -4 d 3 -3 d 3 -4 d 3 -4 d 3 -4 d 3 -4 d 3 -4 d 3 -4 d 3 -4 d 3 -4 d 3 -4 d 3 -5 d 3 -4 d 3 -4 d 3 -5 d 4 -4 d s 0.49 0.6 0.82 c black 0.49 0.6
 0.82 c
 gsave  408 305 930 1009 C 1051.24 1293.4 t 0 r /Helvetica-Bold findfont 25.6831 sf 0 0 m (1.0 < E < 1.5 GeV) show NC gr  0.52 0.76 0.64 c black 0.52 0.76 0.64 c
 gsave  408 305 930 1009 C 1031.3 1256.36 t 0 r /Helvetica-Bold findfont 25.6831 sf 0 0 m 
 228 214 200 193 178 171 156 149 133 126 119 105 91 77 69 55 47 39 25 17
(A = \2550.030, p = 2.000) K NC gr  1 0.6 1 c black 1 0.6 1 c
 gsave  408 305 930 1009 C 1336.13 1105.37 t 90 r /Helvetica-Bold findfont 28.5368 sf 0 0 m (/dof=359.5) show NC gr  black 1 0.6 1 c
 gsave  408 305 930 1009 C 1324.73 1093.97 t 90 r /Helvetica-Bold findfont 19.9758 sf 0 0 m (2) show NC gr  black 1 0.6 1 c
 gsave  408 305 930 1009 C 1336.13 1076.88 t 90 r /Symbol findfont 28.5368 sf 0 0 m (c) show NC gr  black 3 lw 1 1 1 c 408 305 1383 1009 bf black 1 1 1 c black 306 229 1445 1055 bl 306 229 1445 1055 bl 1445 1055 m 306 X s 1445 1059 m -4 Y s 1540 1059
 m -4 Y s 1635 1059 m -4 Y s 1730 1059 m -4 Y s 1730 1059 m -4 Y s
 gsave  408 305 1383 1009 C 1435.84 1034.15 t 0 r /Helvetica findfont 22.8295 sf 0 0 m (0) show NC gr 
 gsave  408 305 1383 1009 C 1532.7 1034.15 t 0 r /Helvetica findfont 22.8295 sf 0 0 m (1) show NC gr 
 gsave  408 305 1383 1009 C 1623.87 1034.15 t 0 r /Helvetica findfont 22.8295 sf 0 0 m (2) show NC gr 
 gsave  408 305 1383 1009 C 1720.73 1034.15 t 0 r /Helvetica findfont 22.8295 sf 0 0 m (3) show NC gr  1445 1284 m 306 X s 1445 1280 m 4 Y s 1540 1280 m 4 Y s 1635 1280 m 4 Y s 1730 1280 m 4 Y s 1730 1280 m 4 Y s 1445 1055 m 229 Y s 1450 1059 m -5 X
 s 1447 1067 m -2 X s 1447 1074 m -2 X s 1447 1081 m -2 X s 1447 1088 m -2 X s 1450 1096 m -5 X s 1447 1103 m -2 X s 1447 1110 m -2 X s 1447 1117 m -2 X s 1447 1125 m -2 X s 1450 1132 m -5 X s 1447 1139 m -2 X s 1447 1146 m -2 X s 1447 1153 m -2 X s
 1447 1161 m -2 X s 1450 1168 m -5 X s 1447 1175 m -2 X s 1447 1182 m -2 X s 1447 1190 m -2 X s 1447 1197 m -2 X s 1450 1204 m -5 X s 1447 1211 m -2 X s 1447 1219 m -2 X s 1447 1226 m -2 X s 1447 1233 m -2 X s 1450 1240 m -5 X s 1447 1248 m -2 X s
 1447 1255 m -2 X s 1447 1262 m -2 X s 1447 1269 m -2 X s 1450 1277 m -5 X s 1450 1059 m -5 X s 1450 1277 m -5 X s
 gsave  408 305 1383 1009 C 1401.65 1051.24 t 0 r /Helvetica findfont 22.8295 sf 0 0 m (\2550.3) show NC gr 
 gsave  408 305 1383 1009 C 1390.26 1088.28 t 0 r /Helvetica findfont 22.8295 sf 0 0 m (\2550.25) show NC gr 
 gsave  408 305 1383 1009 C 1401.65 1125.31 t 0 r /Helvetica findfont 22.8295 sf 0 0 m (\2550.2) show NC gr 
 gsave  408 305 1383 1009 C 1390.26 1159.5 t 0 r /Helvetica findfont 22.8295 sf 0 0 m (\2550.15) show NC gr 
 gsave  408 305 1383 1009 C 1404.5 1196.53 t 0 r /Helvetica findfont 22.8295 sf 0 0 m (\2550.1) show NC gr 
 gsave  408 305 1383 1009 C 1390.26 1233.57 t 0 r /Helvetica findfont 22.8295 sf 0 0 m (\2550.05) show NC gr 
 gsave  408 305 1383 1009 C 1427.29 1270.6 t 0 r /Helvetica findfont 22.8295 sf 0 0 m (0) show NC gr  1751 1055 m 229 Y s 1745 1059 m 6 X s 1748 1067 m 3 X s 1748 1074 m 3 X s 1748 1081 m 3 X s 1748 1088 m 3 X s 1745 1096 m 6 X s 1748 1103 m 3 X s
 1748 1110 m 3 X s 1748 1117 m 3 X s 1748 1125 m 3 X s 1745 1132 m 6 X s 1748 1139 m 3 X s 1748 1146 m 3 X s 1748 1153 m 3 X s 1748 1161 m 3 X s 1745 1168 m 6 X s 1748 1175 m 3 X s 1748 1182 m 3 X s 1748 1190 m 3 X s 1748 1197 m 3 X s 1745 1204 m 6 X
 s 1748 1211 m 3 X s 1748 1219 m 3 X s 1748 1226 m 3 X s 1748 1233 m 3 X s 1745 1240 m 6 X s 1748 1248 m 3 X s 1748 1255 m 3 X s 1748 1262 m 3 X s 1748 1269 m 3 X s 1745 1277 m 6 X s 1745 1059 m 6 X s 1745 1277 m 6 X s 1540 1264 1635 1207 1730 1075 3
 { m21} R 1 0 0 c 9 lw 0.95 0.95 0.95 c black 1 0 0 c 1446 1277 m 3 X 3 -1 d 12 X 3 -1 d 7 X 3 -1 d 3 X 3 -1 d 3 -1 d 3 X 3 -1 d 3 -1 d 3 X 3 -1 d 3 -1 d 3 -1 d 3 -1 d 3 -1 d 3 -1 d 4 -1 d 3 -1 d 3 -1 d 3 -1 d 3 -2 d 3 -1 d 3 -1 d 3 -2 d 3 -1 d 3 -2
 d 3 -1 d 3 -2 d 3 -1 d 3 -2 d 3 -2 d 3 -2 d 4 -1 d 3 -2 d 3 -2 d 3 -2 d 3 -2 d 3 -2 d 3 -2 d 3 -2 d 3 -2 d 3 -3 d s 1596 1221 m 3 -2 d 3 -2 d 3 -3 d 3 -2 d 3 -2 d 3 -3 d 4 -2 d 3 -3 d 3 -3 d 3 -2 d 3 -3 d 3 -3 d 3 -2 d 3 -3 d 3 -3 d 3 -3 d 3 -3 d 3
 -3 d 3 -3 d 3 -3 d 3 -3 d 3 -4 d 3 -3 d 4 -3 d 3 -4 d 3 -3 d 3 -3 d 3 -4 d 3 -3 d 3 -4 d 3 -3 d 3 -4 d 3 -4 d 3 -4 d 3 -3 d 3 -4 d 3 -4 d 3 -4 d 3 -4 d 4 -4 d 3 -4 d 3 -4 d 3 -4 d 3 -4 d 3 -5 d 3 -4 d 3 -4 d 3 -5 d 3 -4 d s 0.49 0.6 0.82 c black
 0.49 0.6 0.82 c
 gsave  408 305 1383 1009 C 1504.21 1293.4 t 0 r /Helvetica-Bold findfont 25.6831 sf 0 0 m (1.5 < E < 2.0 GeV) show NC gr  0.52 0.76 0.64 c black 0.52 0.76 0.64 c
 gsave  408 305 1383 1009 C 1484.27 1256.36 t 0 r /Helvetica-Bold findfont 25.6831 sf 0 0 m 
 228 214 200 193 178 171 156 149 134 126 119 105 91 77 69 55 47 40 25 17
(A = \2550.030, p = 2.000) K NC gr  1 0.6 1 c black 1 0.6 1 c
 gsave  408 305 1383 1009 C 1789.1 1108.22 t 90 r /Helvetica-Bold findfont 28.5368 sf 0 0 m (/dof=344.1) show NC gr  black 1 0.6 1 c
 gsave  408 305 1383 1009 C 1777.71 1096.82 t 90 r /Helvetica-Bold findfont 19.9758 sf 0 0 m (2) show NC gr  black 1 0.6 1 c
 gsave  408 305 1383 1009 C 1789.1 1079.73 t 90 r /Symbol findfont 28.5368 sf 0 0 m (c) show NC gr  black 3 lw 1 1 1 c 408 305 1837 1009 bf black 1 1 1 c black 306 229 1898 1055 bl 306 229 1898 1055 bl 1898 1055 m 306 X s 1898 1059 m -4 Y s 1993 1059
 m -4 Y s 2088 1059 m -4 Y s 2183 1059 m -4 Y s 2183 1059 m -4 Y s
 gsave  408 305 1837 1009 C 1888.81 1034.15 t 0 r /Helvetica findfont 22.8295 sf 0 0 m (0) show NC gr 
 gsave  408 305 1837 1009 C 1985.68 1034.15 t 0 r /Helvetica findfont 22.8295 sf 0 0 m (1) show NC gr 
 gsave  408 305 1837 1009 C 2076.84 1034.15 t 0 r /Helvetica findfont 22.8295 sf 0 0 m (2) show NC gr 
 gsave  408 305 1837 1009 C 2173.7 1034.15 t 0 r /Helvetica findfont 22.8295 sf 0 0 m (3) show NC gr  1898 1284 m 306 X s 1898 1280 m 4 Y s 1993 1280 m 4 Y s 2088 1280 m 4 Y s 2183 1280 m 4 Y s 2183 1280 m 4 Y s 1898 1055 m 229 Y s 1904 1061 m -6 X s
 1901 1068 m -3 X s 1901 1075 m -3 X s 1901 1083 m -3 X s 1901 1090 m -3 X s 1904 1097 m -6 X s 1901 1104 m -3 X s 1901 1111 m -3 X s 1901 1118 m -3 X s 1901 1126 m -3 X s 1904 1133 m -6 X s 1901 1140 m -3 X s 1901 1147 m -3 X s 1901 1154 m -3 X s
 1901 1161 m -3 X s 1904 1169 m -6 X s 1901 1176 m -3 X s 1901 1183 m -3 X s 1901 1190 m -3 X s 1901 1197 m -3 X s 1904 1204 m -6 X s 1901 1212 m -3 X s 1901 1219 m -3 X s 1901 1226 m -3 X s 1901 1233 m -3 X s 1904 1240 m -6 X s 1901 1247 m -3 X s
 1901 1255 m -3 X s 1901 1262 m -3 X s 1901 1269 m -3 X s 1904 1276 m -6 X s 1904 1061 m -6 X s 1904 1276 m -6 X s 1901 1283 m -3 X s
 gsave  408 305 1837 1009 C 1854.63 1054.09 t 0 r /Helvetica findfont 22.8295 sf 0 0 m (\2550.3) show NC gr 
 gsave  408 305 1837 1009 C 1843.23 1091.12 t 0 r /Helvetica findfont 22.8295 sf 0 0 m (\2550.25) show NC gr 
 gsave  408 305 1837 1009 C 1854.63 1125.31 t 0 r /Helvetica findfont 22.8295 sf 0 0 m (\2550.2) show NC gr 
 gsave  408 305 1837 1009 C 1843.23 1162.35 t 0 r /Helvetica findfont 22.8295 sf 0 0 m (\2550.15) show NC gr 
 gsave  408 305 1837 1009 C 1857.48 1196.53 t 0 r /Helvetica findfont 22.8295 sf 0 0 m (\2550.1) show NC gr 
 gsave  408 305 1837 1009 C 1843.23 1233.57 t 0 r /Helvetica findfont 22.8295 sf 0 0 m (\2550.05) show NC gr 
 gsave  408 305 1837 1009 C 1880.27 1267.76 t 0 r /Helvetica findfont 22.8295 sf 0 0 m (0) show NC gr  2204 1055 m 229 Y s 2199 1061 m 5 X s 2201 1068 m 3 X s 2201 1075 m 3 X s 2201 1083 m 3 X s 2201 1090 m 3 X s 2199 1097 m 5 X s 2201 1104 m 3 X s
 2201 1111 m 3 X s 2201 1118 m 3 X s 2201 1126 m 3 X s 2199 1133 m 5 X s 2201 1140 m 3 X s 2201 1147 m 3 X s 2201 1154 m 3 X s 2201 1161 m 3 X s 2199 1169 m 5 X s 2201 1176 m 3 X s 2201 1183 m 3 X s 2201 1190 m 3 X s 2201 1197 m 3 X s 2199 1204 m 5 X
 s 2201 1212 m 3 X s 2201 1219 m 3 X s 2201 1226 m 3 X s 2201 1233 m 3 X s 2199 1240 m 5 X s 2201 1247 m 3 X s 2201 1255 m 3 X s 2201 1262 m 3 X s 2201 1269 m 3 X s 2199 1276 m 5 X s 2199 1061 m 5 X s 2199 1276 m 5 X s 2201 1283 m 3 X s 1993 1264
 2088 1208 2183 1075 3 { m21} R 1 0 0 c 9 lw 0.95 0.95 0.95 c black 1 0 0 c 1900 1276 m 12 X 3 -1 d 6 X 3 -1 d 6 X 3 -1 d 3 X 3 -1 d 3 -1 d 4 X 3 -1 d 3 -1 d 3 -1 d 3 X 3 -1 d 3 -1 d 3 -1 d 3 -1 d 3 -1 d 3 -2 d 3 -1 d 3 -1 d 3 -1 d 3 -1 d 3 -2 d 4 -1
 d 3 -2 d 3 -1 d 3 -2 d 3 -1 d 3 -2 d 3 -2 d 3 -1 d 3 -2 d 3 -2 d 3 -2 d 3 -1 d 3 -2 d 3 -2 d 3 -2 d 3 -2 d 3 -3 d 4 -2 d 3 -2 d s 2050 1221 m 3 -2 d 3 -2 d 3 -3 d 3 -2 d 3 -3 d 3 -2 d 3 -3 d 3 -2 d 3 -3 d 3 -2 d 3 -3 d 3 -3 d 3 -3 d 3 -2 d 4 -3 d 3
 -3 d 3 -3 d 3 -3 d 3 -3 d 3 -3 d 3 -4 d 3 -3 d 3 -3 d 3 -3 d 3 -4 d 3 -3 d 3 -3 d 3 -4 d 3 -3 d 3 -4 d 4 -3 d 3 -4 d 3 -4 d 3 -3 d 3 -4 d 3 -4 d 3 -4 d 3 -4 d 3 -4 d 3 -4 d 3 -4 d 3 -4 d 3 -4 d 3 -4 d 3 -4 d 3 -5 d 4 -4 d 3 -4 d 3 -5 d s 0.49 0.6
 0.82 c black 0.49 0.6 0.82 c
 gsave  408 305 1837 1009 C 1957.19 1293.4 t 0 r /Helvetica-Bold findfont 25.6831 sf 0 0 m (2.0 < E < 2.5 GeV) show NC gr  0.52 0.76 0.64 c black 0.52 0.76 0.64 c
 gsave  408 305 1837 1009 C 1937.25 1256.36 t 0 r /Helvetica-Bold findfont 25.6831 sf 0 0 m 
 228 214 200 193 178 171 156 149 133 126 119 105 91 77 69 55 47 39 25 17
(A = \2550.030, p = 2.000) K NC gr  1 0.6 1 c black 1 0.6 1 c
 gsave  408 305 1837 1009 C 2242.08 1105.37 t 90 r /Helvetica-Bold findfont 28.5368 sf 0 0 m (/dof=358.4) show NC gr  black 1 0.6 1 c
 gsave  408 305 1837 1009 C 2230.68 1093.97 t 90 r /Helvetica-Bold findfont 19.9758 sf 0 0 m (2) show NC gr  black 1 0.6 1 c
 gsave  408 305 1837 1009 C 2242.08 1076.88 t 90 r /Symbol findfont 28.5368 sf 0 0 m (c) show NC gr  black 3 lw 1 1 1 c 408 305 23 677 bf black 1 1 1 c black 306 229 84 723 bl 306 229 84 723 bl 84 723 m 306 X s 84 727 m -4 Y s 179 727 m -4 Y s 274
 727 m -4 Y s 369 727 m -4 Y s 369 727 m -4 Y s
 gsave  408 305 23 677 C 74.0711 703.676 t 0 r /Helvetica findfont 22.8295 sf 0 0 m (0) show NC gr 
 gsave  408 305 23 677 C 170.933 703.676 t 0 r /Helvetica findfont 22.8295 sf 0 0 m (1) show NC gr 
 gsave  408 305 23 677 C 264.947 703.676 t 0 r /Helvetica findfont 22.8295 sf 0 0 m (2) show NC gr 
 gsave  408 305 23 677 C 358.96 703.676 t 0 r /Helvetica findfont 22.8295 sf 0 0 m (3) show NC gr  84 952 m 306 X s 84 948 m 4 Y s 179 948 m 4 Y s 274 948 m 4 Y s 369 948 m 4 Y s 369 948 m 4 Y s 84 723 m 229 Y s 89 730 m -5 X s 87 737 m -3 X s 87 744
 m -3 X s 87 751 m -3 X s 87 758 m -3 X s 89 766 m -5 X s 87 773 m -3 X s 87 780 m -3 X s 87 787 m -3 X s 87 794 m -3 X s 89 801 m -5 X s 87 808 m -3 X s 87 815 m -3 X s 87 823 m -3 X s 87 830 m -3 X s 89 837 m -5 X s 87 844 m -3 X s 87 851 m -3 X s
 87 858 m -3 X s 87 865 m -3 X s 89 872 m -5 X s 87 880 m -3 X s 87 887 m -3 X s 87 894 m -3 X s 87 901 m -3 X s 89 908 m -5 X s 87 915 m -3 X s 87 922 m -3 X s 87 929 m -3 X s 87 937 m -3 X s 89 944 m -5 X s 89 730 m -5 X s 89 944 m -5 X s 87 951 m
 -3 X s
 gsave  408 305 23 677 C 39.8845 723.618 t 0 r /Helvetica findfont 22.8295 sf 0 0 m (\2550.3) show NC gr 
 gsave  408 305 23 677 C 28.4889 757.805 t 0 r /Helvetica findfont 22.8295 sf 0 0 m (\2550.25) show NC gr 
 gsave  408 305 23 677 C 39.8845 794.84 t 0 r /Helvetica findfont 22.8295 sf 0 0 m (\2550.2) show NC gr 
 gsave  408 305 23 677 C 28.4889 829.027 t 0 r /Helvetica findfont 22.8295 sf 0 0 m (\2550.15) show NC gr 
 gsave  408 305 23 677 C 42.7334 866.063 t 0 r /Helvetica findfont 22.8295 sf 0 0 m (\2550.1) show NC gr 
 gsave  408 305 23 677 C 28.4889 900.249 t 0 r /Helvetica findfont 22.8295 sf 0 0 m (\2550.05) show NC gr 
 gsave  408 305 23 677 C 65.5245 937.285 t 0 r /Helvetica findfont 22.8295 sf 0 0 m (0) show NC gr  390 723 m 229 Y s 385 730 m 5 X s 387 737 m 3 X s 387 744 m 3 X s 387 751 m 3 X s 387 758 m 3 X s 385 766 m 5 X s 387 773 m 3 X s 387 780 m 3 X s 387
 787 m 3 X s 387 794 m 3 X s 385 801 m 5 X s 387 808 m 3 X s 387 815 m 3 X s 387 823 m 3 X s 387 830 m 3 X s 385 837 m 5 X s 387 844 m 3 X s 387 851 m 3 X s 387 858 m 3 X s 387 865 m 3 X s 385 872 m 5 X s 387 880 m 3 X s 387 887 m 3 X s 387 894 m 3 X
 s 387 901 m 3 X s 385 908 m 5 X s 387 915 m 3 X s 387 922 m 3 X s 387 929 m 3 X s 387 937 m 3 X s 385 944 m 5 X s 385 730 m 5 X s 385 944 m 5 X s 387 951 m 3 X s /w 22 def /w2 {w 2 div} def /w3 {w 3 div} def 179 932 274 878 369 743 3 { m21} R 1 0 0
 c 9 lw 0.95 0.95 0.95 c black 1 0 0 c 85 944 m 7 X 3 -1 d 9 X 3 -1 d 6 X 3 -1 d 3 X 3 -1 d 3 X 3 -1 d 3 -1 d 3 X 3 -1 d 4 -1 d 3 -1 d 3 -1 d 3 -1 d 3 -1 d 3 -1 d 3 -1 d 3 -1 d 3 -1 d 3 -1 d 3 -1 d 3 -2 d 3 -1 d 3 -1 d 3 -2 d 3 -1 d 4 -2 d 3 -1 d 3
 -2 d 3 -2 d 3 -1 d 3 -2 d 3 -2 d 3 -2 d 3 -2 d 3 -2 d 3 -1 d 3 -2 d 3 -3 d 3 -2 d 3 -2 d 3 -2 d s 235 889 m 4 -2 d 3 -2 d 3 -3 d 3 -2 d 3 -3 d 3 -2 d 3 -3 d 3 -2 d 3 -3 d 3 -2 d 3 -3 d 3 -3 d 3 -2 d 3 -3 d 3 -3 d 3 -3 d 3 -3 d 4 -3 d 3 -3 d 3 -3 d 3
 -3 d 3 -3 d 3 -4 d 3 -3 d 3 -3 d 3 -3 d 3 -4 d 3 -3 d 3 -4 d 3 -3 d 3 -4 d 3 -4 d 3 -3 d 4 -4 d 3 -4 d 3 -3 d 3 -4 d 3 -4 d 3 -4 d 3 -4 d 3 -4 d 3 -4 d 3 -4 d 3 -4 d 3 -5 d 3 -4 d 3 -4 d 3 -4 d 3 -5 d s 0.49 0.6 0.82 c black 0.49 0.6 0.82 c
 gsave  408 305 23 677 C 142.445 960.076 t 0 r /Helvetica-Bold findfont 25.6831 sf 0 0 m (2.5 < E < 3.0 GeV) show NC gr  0.52 0.76 0.64 c black 0.52 0.76 0.64 c
 gsave  408 305 23 677 C 122.502 923.04 t 0 r /Helvetica-Bold findfont 25.6831 sf 0 0 m 
 228 214 200 193 178 171 156 149 134 126 119 105 91 77 69 55 47 39 25 17
(A = \2550.030, p = 2.000) K NC gr  1 0.6 1 c black 1 0.6 1 c
 gsave  408 305 23 677 C 427.334 774.898 t 90 r /Helvetica-Bold findfont 28.5368 sf 0 0 m (/dof=402.9) show NC gr  black 1 0.6 1 c
 gsave  408 305 23 677 C 415.938 763.503 t 90 r /Helvetica-Bold findfont 19.9758 sf 0 0 m (2) show NC gr  black 1 0.6 1 c
 gsave  408 305 23 677 C 427.334 746.409 t 90 r /Symbol findfont 28.5368 sf 0 0 m (c) show NC gr  black 3 lw 1 1 1 c 408 305 476 677 bf black 1 1 1 c black 307 229 537 723 bl 307 229 537 723 bl 537 723 m 307 X s 537 727 m -4 Y s 633 727 m -4 Y s 728
 727 m -4 Y s 823 727 m -4 Y s 823 727 m -4 Y s
 gsave  408 305 476 677 C 527.045 703.676 t 0 r /Helvetica findfont 22.8295 sf 0 0 m (0) show NC gr 
 gsave  408 305 476 677 C 626.756 703.676 t 0 r /Helvetica findfont 22.8295 sf 0 0 m (1) show NC gr 
 gsave  408 305 476 677 C 717.92 703.676 t 0 r /Helvetica findfont 22.8295 sf 0 0 m (2) show NC gr 
 gsave  408 305 476 677 C 811.934 703.676 t 0 r /Helvetica findfont 22.8295 sf 0 0 m (3) show NC gr  537 952 m 307 X s 537 948 m 4 Y s 633 948 m 4 Y s 728 948 m 4 Y s 823 948 m 4 Y s 823 948 m 4 Y s 537 723 m 229 Y s 543 757 m -6 X s 540 765 m -3 X s
 540 772 m -3 X s 540 779 m -3 X s 540 787 m -3 X s 543 794 m -6 X s 540 801 m -3 X s 540 809 m -3 X s 540 816 m -3 X s 540 824 m -3 X s 543 831 m -6 X s 540 838 m -3 X s 540 846 m -3 X s 540 853 m -3 X s 540 860 m -3 X s 543 868 m -6 X s 540 875 m
 -3 X s 540 883 m -3 X s 540 890 m -3 X s 540 897 m -3 X s 543 905 m -6 X s 540 912 m -3 X s 540 919 m -3 X s 540 927 m -3 X s 540 934 m -3 X s 543 942 m -6 X s 543 757 m -6 X s 540 750 m -3 X s 540 742 m -3 X s 540 735 m -3 X s 540 728 m -3 X s 543
 942 m -6 X s 540 949 m -3 X s
 gsave  408 305 476 677 C 481.462 749.258 t 0 r /Helvetica findfont 22.8295 sf 0 0 m (\2550.25) show NC gr 
 gsave  408 305 476 677 C 492.858 786.294 t 0 r /Helvetica findfont 22.8295 sf 0 0 m (\2550.2) show NC gr 
 gsave  408 305 476 677 C 481.462 823.329 t 0 r /Helvetica findfont 22.8295 sf 0 0 m (\2550.15) show NC gr 
 gsave  408 305 476 677 C 495.707 860.365 t 0 r /Helvetica findfont 22.8295 sf 0 0 m (\2550.1) show NC gr 
 gsave  408 305 476 677 C 481.462 897.4 t 0 r /Helvetica findfont 22.8295 sf 0 0 m (\2550.05) show NC gr 
 gsave  408 305 476 677 C 518.498 934.436 t 0 r /Helvetica findfont 22.8295 sf 0 0 m (0) show NC gr  844 723 m 229 Y s 838 757 m 6 X s 841 765 m 3 X s 841 772 m 3 X s 841 779 m 3 X s 841 787 m 3 X s 838 794 m 6 X s 841 801 m 3 X s 841 809 m 3 X s 841
 816 m 3 X s 841 824 m 3 X s 838 831 m 6 X s 841 838 m 3 X s 841 846 m 3 X s 841 853 m 3 X s 841 860 m 3 X s 838 868 m 6 X s 841 875 m 3 X s 841 883 m 3 X s 841 890 m 3 X s 841 897 m 3 X s 838 905 m 6 X s 841 912 m 3 X s 841 919 m 3 X s 841 927 m 3 X
 s 841 934 m 3 X s 838 942 m 6 X s 838 757 m 6 X s 841 750 m 3 X s 841 742 m 3 X s 841 735 m 3 X s 841 728 m 3 X s 838 942 m 6 X s 841 949 m 3 X s /w 23 def /w2 {w 2 div} def /w3 {w 3 div} def 633 932 728 879 823 743 3 { m21} R 1 0 0 c 9 lw 0.95 0.95
 0.95 c black 1 0 0 c 539 942 m 3 X 3 -1 d 12 X 3 -1 d 7 X 3 -1 d 3 X 3 -1 d 3 X 3 -1 d 3 -1 d 3 X 3 -1 d 3 -1 d 3 -1 d 3 -1 d 3 -1 d 3 X 3 -2 d 3 -1 d 4 -1 d 3 -1 d 3 -1 d 3 -1 d 3 -1 d 3 -2 d 3 -1 d 3 -2 d 3 -1 d 3 -2 d 3 -1 d 3 -2 d 3 -1 d 3 -2 d
 3 -2 d 3 -1 d 3 -2 d 4 -2 d 3 -2 d 3 -2 d 3 -2 d 3 -2 d 3 -2 d 3 -2 d 3 -2 d s 689 888 m 3 -2 d 3 -3 d 3 -2 d 3 -2 d 3 -3 d 3 -2 d 3 -3 d 3 -2 d 4 -3 d 3 -2 d 3 -3 d 3 -3 d 3 -2 d 3 -3 d 3 -3 d 3 -3 d 3 -3 d 3 -3 d 3 -3 d 3 -3 d 3 -3 d 3 -3 d 3 -3 d
 3 -3 d 4 -3 d 3 -4 d 3 -3 d 3 -3 d 3 -4 d 3 -3 d 3 -4 d 3 -3 d 3 -4 d 3 -4 d 3 -3 d 3 -4 d 3 -4 d 3 -4 d 3 -4 d 3 -3 d 4 -4 d 3 -4 d 3 -4 d 3 -5 d 3 -4 d 3 -4 d 3 -4 d 3 -4 d 3 -5 d s 839 728 m 3 -4 d s 0.49 0.6 0.82 c black 0.49 0.6 0.82 c
 gsave  408 305 476 677 C 595.418 960.076 t 0 r /Helvetica-Bold findfont 25.6831 sf 0 0 m (3.0 < E < 3.5 GeV) show NC gr  0.52 0.76 0.64 c black 0.52 0.76 0.64 c
 gsave  408 305 476 677 C 575.476 923.04 t 0 r /Helvetica-Bold findfont 25.6831 sf 0 0 m 
 228 214 200 193 178 171 156 149 133 126 119 105 91 76 69 55 47 39 25 17
(A = \2550.029, p = 2.000) K NC gr  1 0.6 1 c black 1 0.6 1 c
 gsave  408 305 476 677 C 883.156 774.898 t 90 r /Helvetica-Bold findfont 28.5368 sf 0 0 m (/dof=367.6) show NC gr  black 1 0.6 1 c
 gsave  408 305 476 677 C 871.76 763.503 t 90 r /Helvetica-Bold findfont 19.9758 sf 0 0 m (2) show NC gr  black 1 0.6 1 c
 gsave  408 305 476 677 C 883.156 746.409 t 90 r /Symbol findfont 28.5368 sf 0 0 m (c) show NC gr  black 3 lw 1 1 1 c 408 305 930 677 bf black 1 1 1 c black 306 229 991 723 bl 306 229 991 723 bl 991 723 m 306 X s 991 727 m -4 Y s 1086 727 m -4 Y s
 1181 727 m -4 Y s 1276 727 m -4 Y s 1276 727 m -4 Y s
 gsave  408 305 930 677 C 980.018 703.676 t 0 r /Helvetica findfont 22.8295 sf 0 0 m (0) show NC gr 
 gsave  408 305 930 677 C 1079.73 703.676 t 0 r /Helvetica findfont 22.8295 sf 0 0 m (1) show NC gr 
 gsave  408 305 930 677 C 1170.89 703.676 t 0 r /Helvetica findfont 22.8295 sf 0 0 m (2) show NC gr 
 gsave  408 305 930 677 C 1264.91 703.676 t 0 r /Helvetica findfont 22.8295 sf 0 0 m (3) show NC gr  991 952 m 306 X s 991 948 m 4 Y s 1086 948 m 4 Y s 1181 948 m 4 Y s 1276 948 m 4 Y s 1276 948 m 4 Y s 991 723 m 229 Y s 997 742 m -6 X s 994 749 m -3
 X s 994 757 m -3 X s 994 765 m -3 X s 994 773 m -3 X s 997 781 m -6 X s 994 789 m -3 X s 994 797 m -3 X s 994 805 m -3 X s 994 813 m -3 X s 997 821 m -6 X s 994 829 m -3 X s 994 837 m -3 X s 994 845 m -3 X s 994 853 m -3 X s 997 861 m -6 X s 994 869
 m -3 X s 994 877 m -3 X s 994 885 m -3 X s 994 893 m -3 X s 997 901 m -6 X s 994 909 m -3 X s 994 917 m -3 X s 994 924 m -3 X s 994 932 m -3 X s 997 940 m -6 X s 997 742 m -6 X s 994 734 m -3 X s 994 726 m -3 X s 997 940 m -6 X s 994 948 m -3 X s
 gsave  408 305 930 677 C 937.285 735.014 t 0 r /Helvetica findfont 22.8295 sf 0 0 m (\2550.25) show NC gr 
 gsave  408 305 930 677 C 948.68 774.898 t 0 r /Helvetica findfont 22.8295 sf 0 0 m (\2550.2) show NC gr 
 gsave  408 305 930 677 C 937.285 814.783 t 0 r /Helvetica findfont 22.8295 sf 0 0 m (\2550.15) show NC gr 
 gsave  408 305 930 677 C 951.529 854.667 t 0 r /Helvetica findfont 22.8295 sf 0 0 m (\2550.1) show NC gr 
 gsave  408 305 930 677 C 937.285 894.552 t 0 r /Helvetica findfont 22.8295 sf 0 0 m (\2550.05) show NC gr 
 gsave  408 305 930 677 C 974.32 934.436 t 0 r /Helvetica findfont 22.8295 sf 0 0 m (0) show NC gr  1297 723 m 229 Y s 1292 742 m 5 X s 1294 749 m 3 X s 1294 757 m 3 X s 1294 765 m 3 X s 1294 773 m 3 X s 1292 781 m 5 X s 1294 789 m 3 X s 1294 797 m 3
 X s 1294 805 m 3 X s 1294 813 m 3 X s 1292 821 m 5 X s 1294 829 m 3 X s 1294 837 m 3 X s 1294 845 m 3 X s 1294 853 m 3 X s 1292 861 m 5 X s 1294 869 m 3 X s 1294 877 m 3 X s 1294 885 m 3 X s 1294 893 m 3 X s 1292 901 m 5 X s 1294 909 m 3 X s 1294
 917 m 3 X s 1294 924 m 3 X s 1294 932 m 3 X s 1292 940 m 5 X s 1292 742 m 5 X s 1294 734 m 3 X s 1294 726 m 3 X s 1292 940 m 5 X s 1294 948 m 3 X s 1086 932 1181 881 1276 743 3 { m21} R 1 0 0 c 9 lw 0.95 0.95 0.95 c black 1 0 0 c 993 940 m 15 X 3 -1
 d 6 X 3 -1 d 6 X 3 -1 d 3 -1 d 3 X 3 -1 d 4 -1 d 3 X 3 -1 d 3 -1 d 3 -1 d 3 -1 d 3 -1 d 3 -1 d 3 -1 d 3 -1 d 3 -1 d 3 -1 d 3 -1 d 3 -1 d 3 -2 d 3 -1 d 3 -2 d 4 -1 d 3 -1 d 3 -2 d 3 -2 d 3 -1 d 3 -2 d 3 -1 d 3 -2 d 3 -2 d 3 -2 d 3 -2 d 3 -2 d 3 -2 d
 3 -1 d 3 -3 d 3 -2 d 4 -2 d s 1143 887 m 3 -2 d 3 -2 d 3 -2 d 3 -3 d 3 -2 d 3 -2 d 3 -3 d 3 -2 d 3 -3 d 3 -2 d 3 -3 d 3 -3 d 3 -2 d 3 -3 d 3 -3 d 4 -3 d 3 -2 d 3 -3 d 3 -3 d 3 -3 d 3 -3 d 3 -3 d 3 -4 d 3 -3 d 3 -3 d 3 -3 d 3 -3 d 3 -4 d 3 -3 d 3 -4
 d 3 -3 d 3 -4 d 4 -3 d 3 -4 d 3 -3 d 3 -4 d 3 -4 d 3 -4 d 3 -3 d 3 -4 d 3 -4 d 3 -4 d 3 -4 d 3 -4 d 3 -4 d 3 -4 d 3 -4 d 3 -5 d 4 -4 d s 1293 730 m 3 -4 d s 0.49 0.6 0.82 c black 0.49 0.6 0.82 c
 gsave  408 305 930 677 C 1051.24 960.076 t 0 r /Helvetica-Bold findfont 25.6831 sf 0 0 m (3.5 < E < 4.0 GeV) show NC gr  0.52 0.76 0.64 c black 0.52 0.76 0.64 c
 gsave  408 305 930 677 C 1031.3 923.04 t 0 r /Helvetica-Bold findfont 25.6831 sf 0 0 m 
 228 214 200 193 178 171 156 149 133 126 119 105 91 77 69 55 47 39 25 17
(A = \2550.026, p = 2.000) K NC gr  1 0.6 1 c black 1 0.6 1 c
 gsave  408 305 930 677 C 1336.13 774.898 t 90 r /Helvetica-Bold findfont 28.5368 sf 0 0 m (/dof=284.4) show NC gr  black 1 0.6 1 c
 gsave  408 305 930 677 C 1324.73 763.503 t 90 r /Helvetica-Bold findfont 19.9758 sf 0 0 m (2) show NC gr  black 1 0.6 1 c
 gsave  408 305 930 677 C 1336.13 746.409 t 90 r /Symbol findfont 28.5368 sf 0 0 m (c) show NC gr  black 3 lw 1 1 1 c 408 305 1383 677 bf black 1 1 1 c black 306 229 1445 723 bl 306 229 1445 723 bl 1445 723 m 306 X s 1445 727 m -4 Y s 1540 727 m -4 Y
 s 1635 727 m -4 Y s 1730 727 m -4 Y s 1730 727 m -4 Y s
 gsave  408 305 1383 677 C 1435.84 703.676 t 0 r /Helvetica findfont 22.8295 sf 0 0 m (0) show NC gr 
 gsave  408 305 1383 677 C 1532.7 703.676 t 0 r /Helvetica findfont 22.8295 sf 0 0 m (1) show NC gr 
 gsave  408 305 1383 677 C 1623.87 703.676 t 0 r /Helvetica findfont 22.8295 sf 0 0 m (2) show NC gr 
 gsave  408 305 1383 677 C 1720.73 703.676 t 0 r /Helvetica findfont 22.8295 sf 0 0 m (3) show NC gr  1445 952 m 306 X s 1445 948 m 4 Y s 1540 948 m 4 Y s 1635 948 m 4 Y s 1730 948 m 4 Y s 1730 948 m 4 Y s 1445 723 m 229 Y s 1450 743 m -5 X s 1447
 752 m -2 X s 1447 762 m -2 X s 1447 771 m -2 X s 1447 780 m -2 X s 1450 790 m -5 X s 1447 799 m -2 X s 1447 809 m -2 X s 1447 818 m -2 X s 1447 828 m -2 X s 1450 837 m -5 X s 1447 846 m -2 X s 1447 856 m -2 X s 1447 865 m -2 X s 1447 875 m -2 X s
 1450 884 m -5 X s 1447 893 m -2 X s 1447 903 m -2 X s 1447 912 m -2 X s 1447 922 m -2 X s 1450 931 m -5 X s 1450 743 m -5 X s 1447 733 m -2 X s 1447 724 m -2 X s 1450 931 m -5 X s 1447 940 m -2 X s 1447 950 m -2 X s
 gsave  408 305 1383 677 C 1401.65 735.014 t 0 r /Helvetica findfont 22.8295 sf 0 0 m (\2550.2) show NC gr 
 gsave  408 305 1383 677 C 1390.26 783.445 t 0 r /Helvetica findfont 22.8295 sf 0 0 m (\2550.15) show NC gr 
 gsave  408 305 1383 677 C 1404.5 829.027 t 0 r /Helvetica findfont 22.8295 sf 0 0 m (\2550.1) show NC gr 
 gsave  408 305 1383 677 C 1390.26 877.458 t 0 r /Helvetica findfont 22.8295 sf 0 0 m (\2550.05) show NC gr 
 gsave  408 305 1383 677 C 1427.29 923.04 t 0 r /Helvetica findfont 22.8295 sf 0 0 m (0) show NC gr  1751 723 m 229 Y s 1745 743 m 6 X s 1748 752 m 3 X s 1748 762 m 3 X s 1748 771 m 3 X s 1748 780 m 3 X s 1745 790 m 6 X s 1748 799 m 3 X s 1748 809 m
 3 X s 1748 818 m 3 X s 1748 828 m 3 X s 1745 837 m 6 X s 1748 846 m 3 X s 1748 856 m 3 X s 1748 865 m 3 X s 1748 875 m 3 X s 1745 884 m 6 X s 1748 893 m 3 X s 1748 903 m 3 X s 1748 912 m 3 X s 1748 922 m 3 X s 1745 931 m 6 X s 1745 743 m 6 X s 1748
 733 m 3 X s 1748 724 m 3 X s 1745 931 m 6 X s 1748 940 m 3 X s 1748 950 m 3 X s 1540 931 1635 887 1730 744 3 { m21} R 1 0 0 c 9 lw 0.95 0.95 0.95 c black 1 0 0 c 1446 931 m 12 X 3 -1 d 10 X 3 -1 d 3 X 3 -1 d 3 X 3 -1 d 3 X 3 -1 d 3 X 3 -1 d 3 -1 d 3
 -1 d 3 X 3 -1 d 3 -1 d 3 -1 d 4 -1 d 3 -1 d 3 -1 d 3 -1 d 3 -1 d 3 -1 d 3 -2 d 3 -1 d 3 -1 d 3 -2 d 3 -1 d 3 -1 d 3 -2 d 3 -1 d 3 -2 d 3 -1 d 4 -2 d 3 -2 d 3 -1 d 3 -2 d 3 -2 d 3 -2 d 3 -1 d 3 -2 d 3 -2 d 3 -2 d s 1596 882 m 3 -2 d 3 -2 d 3 -2 d 3
 -2 d 3 -3 d 3 -2 d 4 -2 d 3 -2 d 3 -3 d 3 -2 d 3 -2 d 3 -3 d 3 -2 d 3 -3 d 3 -2 d 3 -3 d 3 -3 d 3 -2 d 3 -3 d 3 -3 d 3 -3 d 3 -2 d 3 -3 d 4 -3 d 3 -3 d 3 -3 d 3 -3 d 3 -3 d 3 -4 d 3 -3 d 3 -3 d 3 -3 d 3 -3 d 3 -4 d 3 -3 d 3 -4 d 3 -3 d 3 -3 d 3 -4 d
 4 -4 d 3 -3 d 3 -4 d 3 -3 d 3 -4 d 3 -4 d 3 -4 d 3 -4 d 3 -4 d 3 -3 d s 1746 737 m 3 -4 d s 0.49 0.6 0.82 c black 0.49 0.6 0.82 c
 gsave  408 305 1383 677 C 1504.21 960.076 t 0 r /Helvetica-Bold findfont 25.6831 sf 0 0 m (4.0 < E < 4.5 GeV) show NC gr  0.52 0.76 0.64 c black 0.52 0.76 0.64 c
 gsave  408 305 1383 677 C 1484.27 923.04 t 0 r /Helvetica-Bold findfont 25.6831 sf 0 0 m 
 228 214 200 193 178 171 156 149 134 126 119 105 91 77 69 55 47 40 25 17
(A = \2550.021, p = 2.000) K NC gr  1 0.6 1 c black 1 0.6 1 c
 gsave  408 305 1383 677 C 1789.1 774.898 t 90 r /Helvetica-Bold findfont 28.5368 sf 0 0 m (/dof=239.5) show NC gr  black 1 0.6 1 c
 gsave  408 305 1383 677 C 1777.71 763.503 t 90 r /Helvetica-Bold findfont 19.9758 sf 0 0 m (2) show NC gr  black 1 0.6 1 c
 gsave  408 305 1383 677 C 1789.1 746.409 t 90 r /Symbol findfont 28.5368 sf 0 0 m (c) show NC gr  black 3 lw 1 1 1 c 408 305 1837 677 bf black 1 1 1 c black 306 229 1898 723 bl 306 229 1898 723 bl 1898 723 m 306 X s 1898 727 m -4 Y s 1993 727 m -4 Y
 s 2088 727 m -4 Y s 2183 727 m -4 Y s 2183 727 m -4 Y s
 gsave  408 305 1837 677 C 1888.81 703.676 t 0 r /Helvetica findfont 22.8295 sf 0 0 m (0) show NC gr 
 gsave  408 305 1837 677 C 1985.68 703.676 t 0 r /Helvetica findfont 22.8295 sf 0 0 m (1) show NC gr 
 gsave  408 305 1837 677 C 2076.84 703.676 t 0 r /Helvetica findfont 22.8295 sf 0 0 m (2) show NC gr 
 gsave  408 305 1837 677 C 2173.7 703.676 t 0 r /Helvetica findfont 22.8295 sf 0 0 m (3) show NC gr  1898 952 m 306 X s 1898 948 m 4 Y s 1993 948 m 4 Y s 2088 948 m 4 Y s 2183 948 m 4 Y s 2183 948 m 4 Y s 1898 723 m 229 Y s 1904 726 m -6 X s 1901 733
 m -3 X s 1901 740 m -3 X s 1901 747 m -3 X s 1904 754 m -6 X s 1901 761 m -3 X s 1901 768 m -3 X s 1901 774 m -3 X s 1904 781 m -6 X s 1901 788 m -3 X s 1901 795 m -3 X s 1901 802 m -3 X s 1904 809 m -6 X s 1901 816 m -3 X s 1901 822 m -3 X s 1901
 829 m -3 X s 1904 836 m -6 X s 1901 843 m -3 X s 1901 850 m -3 X s 1901 857 m -3 X s 1904 864 m -6 X s 1901 870 m -3 X s 1901 877 m -3 X s 1901 884 m -3 X s 1904 891 m -6 X s 1901 898 m -3 X s 1901 905 m -3 X s 1901 912 m -3 X s 1904 918 m -6 X s
 1901 925 m -3 X s 1901 932 m -3 X s 1901 939 m -3 X s 1904 946 m -6 X s 1904 726 m -6 X s 1904 946 m -6 X s
 gsave  408 305 1837 677 C 1843.23 720.769 t 0 r /Helvetica findfont 22.8295 sf 0 0 m (\2550.14) show NC gr 
 gsave  408 305 1837 677 C 1843.23 746.409 t 0 r /Helvetica findfont 22.8295 sf 0 0 m (\2550.12) show NC gr 
 gsave  408 305 1837 677 C 1857.48 774.898 t 0 r /Helvetica findfont 22.8295 sf 0 0 m (\2550.1) show NC gr 
 gsave  408 305 1837 677 C 1843.23 800.538 t 0 r /Helvetica findfont 22.8295 sf 0 0 m (\2550.08) show NC gr 
 gsave  408 305 1837 677 C 1843.23 829.027 t 0 r /Helvetica findfont 22.8295 sf 0 0 m (\2550.06) show NC gr 
 gsave  408 305 1837 677 C 1843.23 857.516 t 0 r /Helvetica findfont 22.8295 sf 0 0 m (\2550.04) show NC gr 
 gsave  408 305 1837 677 C 1843.23 883.156 t 0 r /Helvetica findfont 22.8295 sf 0 0 m (\2550.02) show NC gr 
 gsave  408 305 1837 677 C 1880.27 911.645 t 0 r /Helvetica findfont 22.8295 sf 0 0 m (0) show NC gr 
 gsave  408 305 1837 677 C 1848.93 940.134 t 0 r /Helvetica findfont 22.8295 sf 0 0 m (0.02) show NC gr  2204 723 m 229 Y s 2199 726 m 5 X s 2201 733 m 3 X s 2201 740 m 3 X s 2201 747 m 3 X s 2199 754 m 5 X s 2201 761 m 3 X s 2201 768 m 3 X s 2201
 774 m 3 X s 2199 781 m 5 X s 2201 788 m 3 X s 2201 795 m 3 X s 2201 802 m 3 X s 2199 809 m 5 X s 2201 816 m 3 X s 2201 822 m 3 X s 2201 829 m 3 X s 2199 836 m 5 X s 2201 843 m 3 X s 2201 850 m 3 X s 2201 857 m 3 X s 2199 864 m 5 X s 2201 870 m 3 X s
 2201 877 m 3 X s 2201 884 m 3 X s 2199 891 m 5 X s 2201 898 m 3 X s 2201 905 m 3 X s 2201 912 m 3 X s 2199 918 m 5 X s 2201 925 m 3 X s 2201 932 m 3 X s 2201 939 m 3 X s 2199 946 m 5 X s 2199 726 m 5 X s 2199 946 m 5 X s 1993 929 2088 918 2183 745 3
 { m21} R 1 0 0 c 9 lw 0.95 0.95 0.95 c black 1 0 0 c 1900 918 m 21 X 3 -1 d 6 X 3 -1 d 3 X 3 -1 d 3 X 4 -1 d 3 X 3 -1 d 3 X 3 -1 d 3 -1 d 3 X 3 -1 d 3 -1 d 3 -1 d 3 -1 d 3 X 3 -1 d 3 -1 d 3 -1 d 3 -1 d 4 -1 d 3 -1 d 3 -2 d 3 -1 d 3 -1 d 3 -1 d 3 -1
 d 3 -2 d 3 -1 d 3 -1 d 3 -2 d 3 -1 d 3 -2 d 3 -1 d 3 -2 d 3 -1 d 3 -2 d 4 -1 d 3 -2 d s 2050 877 m 3 -2 d 3 -1 d 3 -2 d 3 -2 d 3 -2 d 3 -2 d 3 -1 d 3 -2 d 3 -2 d 3 -2 d 3 -2 d 3 -2 d 3 -3 d 3 -2 d 4 -2 d 3 -2 d 3 -2 d 3 -3 d 3 -2 d 3 -2 d 3 -2 d 3
 -3 d 3 -2 d 3 -3 d 3 -2 d 3 -3 d 3 -2 d 3 -3 d 3 -3 d 3 -2 d 4 -3 d 3 -3 d 3 -3 d 3 -2 d 3 -3 d 3 -3 d 3 -3 d 3 -3 d 3 -3 d 3 -3 d 3 -3 d 3 -3 d 3 -3 d 3 -3 d 3 -3 d 3 -4 d 4 -3 d 3 -3 d 3 -3 d s 2200 755 m 3 -4 d s 0.49 0.6 0.82 c black 0.49 0.6
 0.82 c
 gsave  408 305 1837 677 C 1957.19 960.076 t 0 r /Helvetica-Bold findfont 25.6831 sf 0 0 m (4.5 < E < 5.0 GeV) show NC gr  0.52 0.76 0.64 c black 0.52 0.76 0.64 c
 gsave  408 305 1837 677 C 1937.25 923.04 t 0 r /Helvetica-Bold findfont 25.6831 sf 0 0 m 
 228 214 200 193 178 171 156 149 133 126 119 105 91 77 69 55 47 39 25 17
(A = \2550.012, p = 2.000) K NC gr  1 0.6 1 c black 1 0.6 1 c
 gsave  408 305 1837 677 C 2242.08 774.898 t 90 r /Helvetica-Bold findfont 28.5368 sf 0 0 m (/dof=207.7) show NC gr  black 1 0.6 1 c
 gsave  408 305 1837 677 C 2230.68 763.503 t 90 r /Helvetica-Bold findfont 19.9758 sf 0 0 m (2) show NC gr  black 1 0.6 1 c
 gsave  408 305 1837 677 C 2242.08 746.409 t 90 r /Symbol findfont 28.5368 sf 0 0 m (c) show NC gr  black 3 lw 1 1 1 c 408 306 23 345 bf black 1 1 1 c black 306 229 84 391 bl 306 229 84 391 bl 84 391 m 306 X s 84 395 m -4 Y s 179 395 m -4 Y s 274 395
 m -4 Y s 369 395 m -4 Y s 369 395 m -4 Y s
 gsave  408 306 23 345 C 74.0711 370.356 t 0 r /Helvetica findfont 22.8295 sf 0 0 m (0) show NC gr 
 gsave  408 306 23 345 C 170.933 370.356 t 0 r /Helvetica findfont 22.8295 sf 0 0 m (1) show NC gr 
 gsave  408 306 23 345 C 264.947 370.356 t 0 r /Helvetica findfont 22.8295 sf 0 0 m (2) show NC gr 
 gsave  408 306 23 345 C 358.96 370.356 t 0 r /Helvetica findfont 22.8295 sf 0 0 m (3) show NC gr  84 620 m 306 X s 84 616 m 4 Y s 179 616 m 4 Y s 274 616 m 4 Y s 369 616 m 4 Y s 369 616 m 4 Y s 84 391 m 229 Y s 89 406 m -5 X s 87 415 m -3 X s 87 425
 m -3 X s 87 434 m -3 X s 89 443 m -5 X s 87 453 m -3 X s 87 462 m -3 X s 87 472 m -3 X s 89 481 m -5 X s 87 490 m -3 X s 87 500 m -3 X s 87 509 m -3 X s 89 518 m -5 X s 87 528 m -3 X s 87 537 m -3 X s 87 546 m -3 X s 89 556 m -5 X s 87 565 m -3 X s
 87 574 m -3 X s 87 584 m -3 X s 89 593 m -5 X s 89 406 m -5 X s 87 397 m -3 X s 89 593 m -5 X s 87 602 m -3 X s 87 612 m -3 X s
 gsave  408 306 23 345 C 28.4889 398.845 t 0 r /Helvetica findfont 22.8295 sf 0 0 m (\2550.06) show NC gr 
 gsave  408 306 23 345 C 28.4889 435.88 t 0 r /Helvetica findfont 22.8295 sf 0 0 m (\2550.04) show NC gr 
 gsave  408 306 23 345 C 28.4889 472.916 t 0 r /Helvetica findfont 22.8295 sf 0 0 m (\2550.02) show NC gr 
 gsave  408 306 23 345 C 65.5245 509.951 t 0 r /Helvetica findfont 22.8295 sf 0 0 m (0) show NC gr 
 gsave  408 306 23 345 C 34.1867 549.836 t 0 r /Helvetica findfont 22.8295 sf 0 0 m (0.02) show NC gr 
 gsave  408 306 23 345 C 34.1867 586.871 t 0 r /Helvetica findfont 22.8295 sf 0 0 m (0.04) show NC gr  390 391 m 229 Y s 385 406 m 5 X s 387 415 m 3 X s 387 425 m 3 X s 387 434 m 3 X s 385 443 m 5 X s 387 453 m 3 X s 387 462 m 3 X s 387 472 m 3 X s
 385 481 m 5 X s 387 490 m 3 X s 387 500 m 3 X s 387 509 m 3 X s 385 518 m 5 X s 387 528 m 3 X s 387 537 m 3 X s 387 546 m 3 X s 385 556 m 5 X s 387 565 m 3 X s 387 574 m 3 X s 387 584 m 3 X s 385 593 m 5 X s 385 406 m 5 X s 387 397 m 3 X s 385 593 m
 5 X s 387 602 m 3 X s 387 612 m 3 X s /w 22 def /w2 {w 2 div} def /w3 {w 3 div} def 179 564 274 594 369 416 3 { m21} R 1 0 0 c 9 lw 0.95 0.95 0.95 c black 1 0 0 c 85 518 m 31 X 3 -1 d 12 X 3 -1 d 13 X 3 -1 d 6 X 3 -1 d 6 X 3 -1 d 6 X 3 -1 d 3 X 3 -1
 d 3 X 4 -1 d 6 X 3 -1 d 3 X 3 -1 d 3 X 3 -1 d 3 -1 d 3 X 3 -1 d 3 X 3 -1 d 3 -1 d 3 X 3 -1 d s 235 502 m 4 X 3 -1 d 3 -1 d 3 -1 d 3 X 3 -1 d 3 -1 d 3 X 3 -1 d 3 -1 d 3 -1 d 3 -1 d 3 X 3 -1 d 3 -1 d 3 -1 d 3 -1 d 4 -1 d 3 -1 d 3 X 3 -1 d 3 -1 d 3 -1
 d 3 -1 d 3 -1 d 3 -1 d 3 -1 d 3 -1 d 3 -1 d 3 -1 d 3 -1 d 3 -1 d 3 -1 d 4 -1 d 3 -2 d 3 -1 d 3 -1 d 3 -1 d 3 -1 d 3 -1 d 3 -1 d 3 -2 d 3 -1 d 3 -1 d 3 -1 d 3 -2 d 3 -1 d 3 -1 d 3 -1 d s 385 455 m 4 -2 d s 0.49 0.6 0.82 c black 0.49 0.6 0.82 c
 gsave  408 306 23 345 C 142.445 629.605 t 0 r /Helvetica-Bold findfont 25.6831 sf 0 0 m (5.0 < E < 5.5 GeV) show NC gr  0.52 0.76 0.64 c black 0.52 0.76 0.64 c
 gsave  408 306 23 345 C 122.502 592.569 t 0 r /Helvetica-Bold findfont 25.6831 sf 0 0 m 
 228 214 200 193 178 171 156 149 134 126 119 105 91 77 69 55 47 39 25 17
(A = \2550.003, p = 2.000) K NC gr  1 0.6 1 c black 1 0.6 1 c
 gsave  408 306 23 345 C 427.334 441.578 t 90 r /Helvetica-Bold findfont 28.5368 sf 0 0 m (/dof=170.5) show NC gr  black 1 0.6 1 c
 gsave  408 306 23 345 C 415.938 430.182 t 90 r /Helvetica-Bold findfont 19.9758 sf 0 0 m (2) show NC gr  black 1 0.6 1 c
 gsave  408 306 23 345 C 427.334 413.089 t 90 r /Symbol findfont 28.5368 sf 0 0 m (c) show NC gr  black 3 lw 1 1 1 c 408 306 476 345 bf black 1 1 1 c black 307 229 537 391 bl 307 229 537 391 bl 537 391 m 307 X s 537 395 m -4 Y s 633 395 m -4 Y s 728
 395 m -4 Y s 823 395 m -4 Y s 823 395 m -4 Y s
 gsave  408 306 476 345 C 527.045 370.356 t 0 r /Helvetica findfont 22.8295 sf 0 0 m (0) show NC gr 
 gsave  408 306 476 345 C 626.756 370.356 t 0 r /Helvetica findfont 22.8295 sf 0 0 m (1) show NC gr 
 gsave  408 306 476 345 C 717.92 370.356 t 0 r /Helvetica findfont 22.8295 sf 0 0 m (2) show NC gr 
 gsave  408 306 476 345 C 811.934 370.356 t 0 r /Helvetica findfont 22.8295 sf 0 0 m (3) show NC gr  537 620 m 307 X s 537 616 m 4 Y s 633 616 m 4 Y s 728 616 m 4 Y s 823 616 m 4 Y s 823 616 m 4 Y s 537 391 m 229 Y s 543 404 m -6 X s 540 409 m -3 X s
 540 414 m -3 X s 540 418 m -3 X s 540 423 m -3 X s 543 428 m -6 X s 540 432 m -3 X s 540 437 m -3 X s 540 442 m -3 X s 540 447 m -3 X s 543 451 m -6 X s 540 456 m -3 X s 540 461 m -3 X s 540 465 m -3 X s 540 470 m -3 X s 543 475 m -6 X s 540 480 m
 -3 X s 540 484 m -3 X s 540 489 m -3 X s 540 494 m -3 X s 543 498 m -6 X s 540 503 m -3 X s 540 508 m -3 X s 540 513 m -3 X s 540 517 m -3 X s 543 522 m -6 X s 540 527 m -3 X s 540 531 m -3 X s 540 536 m -3 X s 540 541 m -3 X s 543 546 m -6 X s 540
 550 m -3 X s 540 555 m -3 X s 540 560 m -3 X s 540 564 m -3 X s 543 569 m -6 X s 540 574 m -3 X s 540 579 m -3 X s 540 583 m -3 X s 540 588 m -3 X s 543 593 m -6 X s 540 597 m -3 X s 540 602 m -3 X s 540 607 m -3 X s 540 612 m -3 X s 543 616 m -6 X
 s 543 404 m -6 X s 540 400 m -3 X s 540 395 m -3 X s 543 616 m -6 X s
 gsave  408 306 476 345 C 481.462 395.996 t 0 r /Helvetica findfont 22.8295 sf 0 0 m (\2550.02) show NC gr 
 gsave  408 306 476 345 C 484.311 421.636 t 0 r /Helvetica findfont 22.8295 sf 0 0 m (\2550.01) show NC gr 
 gsave  408 306 476 345 C 518.498 444.427 t 0 r /Helvetica findfont 22.8295 sf 0 0 m (0) show NC gr 
 gsave  408 306 476 345 C 490.009 467.218 t 0 r /Helvetica findfont 22.8295 sf 0 0 m (0.01) show NC gr 
 gsave  408 306 476 345 C 487.16 490.009 t 0 r /Helvetica findfont 22.8295 sf 0 0 m (0.02) show NC gr 
 gsave  408 306 476 345 C 487.16 515.649 t 0 r /Helvetica findfont 22.8295 sf 0 0 m (0.03) show NC gr 
 gsave  408 306 476 345 C 487.16 538.44 t 0 r /Helvetica findfont 22.8295 sf 0 0 m (0.04) show NC gr 
 gsave  408 306 476 345 C 487.16 561.231 t 0 r /Helvetica findfont 22.8295 sf 0 0 m (0.05) show NC gr 
 gsave  408 306 476 345 C 487.16 586.871 t 0 r /Helvetica findfont 22.8295 sf 0 0 m (0.06) show NC gr 
 gsave  408 306 476 345 C 487.16 609.662 t 0 r /Helvetica findfont 22.8295 sf 0 0 m (0.07) show NC gr  844 391 m 229 Y s 838 404 m 6 X s 841 409 m 3 X s 841 414 m 3 X s 841 418 m 3 X s 841 423 m 3 X s 838 428 m 6 X s 841 432 m 3 X s 841 437 m 3 X s
 841 442 m 3 X s 841 447 m 3 X s 838 451 m 6 X s 841 456 m 3 X s 841 461 m 3 X s 841 465 m 3 X s 841 470 m 3 X s 838 475 m 6 X s 841 480 m 3 X s 841 484 m 3 X s 841 489 m 3 X s 841 494 m 3 X s 838 498 m 6 X s 841 503 m 3 X s 841 508 m 3 X s 841 513 m
 3 X s 841 517 m 3 X s 838 522 m 6 X s 841 527 m 3 X s 841 531 m 3 X s 841 536 m 3 X s 841 541 m 3 X s 838 546 m 6 X s 841 550 m 3 X s 841 555 m 3 X s 841 560 m 3 X s 841 564 m 3 X s 838 569 m 6 X s 841 574 m 3 X s 841 579 m 3 X s 841 583 m 3 X s 841
 588 m 3 X s 838 593 m 6 X s 841 597 m 3 X s 841 602 m 3 X s 841 607 m 3 X s 841 612 m 3 X s 838 616 m 6 X s 838 404 m 6 X s 841 400 m 3 X s 841 395 m 3 X s 838 616 m 6 X s /w 23 def /w2 {w 2 div} def /w3 {w 3 div} def 633 531 728 590 823 420 3 {
 m21} R 9 lw 0.95 0.95 0.95 c black 539 452 m 3 X 3 1 d 3 X 3 1 d 3 X 3 1 d 3 1 d 3 X 4 1 d 3 X 3 1 d 3 X 3 1 d 3 X 3 1 d 3 1 d 3 X 3 1 d 3 X 3 1 d 3 X 3 1 d 3 1 d 3 X 4 1 d 3 X 3 1 d 3 X 3 1 d 3 X 3 1 d 3 1 d 3 X 3 1 d 3 X 3 1 d 3 X 3 1 d 3 1 d 3 X
 3 1 d 4 X 3 1 d 3 X 3 1 d 3 X 3 1 d 3 1 d 3 X s 689 479 m 3 1 d 3 X 3 1 d 3 X 3 1 d 3 1 d 3 X 3 1 d 4 X 3 1 d 3 X 3 1 d 3 X 3 1 d 3 1 d 3 X 3 1 d 3 X 3 1 d 3 X 3 1 d 3 X 3 1 d 3 1 d 4 X 3 1 d 3 X 3 1 d 3 X 3 1 d 3 1 d 3 X 3 1 d 3 X 3 1 d 3 X 3 1 d 3
 X 3 1 d 3 1 d 4 X 3 1 d 3 X 3 1 d 3 X 3 1 d 3 1 d 3 X 3 1 d s 839 507 m 3 X s 0.49 0.6 0.82 c black 0.49 0.6 0.82 c
 gsave  408 306 476 345 C 595.418 629.605 t 0 r /Helvetica-Bold findfont 25.6831 sf 0 0 m (5.5 < E < 6.0 GeV) show NC gr  0.52 0.76 0.64 c black 0.52 0.76 0.64 c
 gsave  408 306 476 345 C 581.174 592.569 t 0 r /Helvetica-Bold findfont 25.6831 sf 0 0 m 
 220 206 192 185 170 163 148 141 125 118 111 97 83 68 61 47 40 25 18
(A = 0.007, p = 1.000) K NC gr  1 0.6 1 c black 1 0.6 1 c
 gsave  408 306 476 345 C 883.156 450.125 t 90 r /Helvetica-Bold findfont 28.5368 sf 0 0 m (/dof=97.6) show NC gr  black 1 0.6 1 c
 gsave  408 306 476 345 C 871.76 438.729 t 90 r /Helvetica-Bold findfont 19.9758 sf 0 0 m (2) show NC gr  black 1 0.6 1 c
 gsave  408 306 476 345 C 883.156 421.636 t 90 r /Symbol findfont 28.5368 sf 0 0 m (c) show NC gr  black 3 lw 1 1 1 c 408 306 930 345 bf black 1 1 1 c black 306 229 991 391 bl 306 229 991 391 bl 991 391 m 306 X s 991 395 m -4 Y s 1086 395 m -4 Y s
 1181 395 m -4 Y s 1276 395 m -4 Y s 1276 395 m -4 Y s
 gsave  408 306 930 345 C 980.018 370.356 t 0 r /Helvetica findfont 22.8295 sf 0 0 m (0) show NC gr 
 gsave  408 306 930 345 C 1079.73 370.356 t 0 r /Helvetica findfont 22.8295 sf 0 0 m (1) show NC gr 
 gsave  408 306 930 345 C 1170.89 370.356 t 0 r /Helvetica findfont 22.8295 sf 0 0 m (2) show NC gr 
 gsave  408 306 930 345 C 1264.91 370.356 t 0 r /Helvetica findfont 22.8295 sf 0 0 m (3) show NC gr  991 620 m 306 X s 991 616 m 4 Y s 1086 616 m 4 Y s 1181 616 m 4 Y s 1276 616 m 4 Y s 1276 616 m 4 Y s 991 391 m 229 Y s 997 415 m -6 X s 994 420 m -3
 X s 994 426 m -3 X s 994 432 m -3 X s 994 438 m -3 X s 997 444 m -6 X s 994 450 m -3 X s 994 456 m -3 X s 994 461 m -3 X s 994 467 m -3 X s 997 473 m -6 X s 994 479 m -3 X s 994 485 m -3 X s 994 491 m -3 X s 994 497 m -3 X s 997 502 m -6 X s 994 508
 m -3 X s 994 514 m -3 X s 994 520 m -3 X s 994 526 m -3 X s 997 532 m -6 X s 994 538 m -3 X s 994 543 m -3 X s 994 549 m -3 X s 994 555 m -3 X s 997 561 m -6 X s 994 567 m -3 X s 994 573 m -3 X s 994 579 m -3 X s 994 584 m -3 X s 997 590 m -6 X s
 994 596 m -3 X s 994 602 m -3 X s 994 608 m -3 X s 994 614 m -3 X s 997 620 m -6 X s 997 415 m -6 X s 994 409 m -3 X s 994 403 m -3 X s 994 397 m -3 X s 994 391 m -3 X s 997 620 m -6 X s
 gsave  408 306 930 345 C 974.32 407.391 t 0 r /Helvetica findfont 22.8295 sf 0 0 m (0) show NC gr 
 gsave  408 306 930 345 C 945.832 435.88 t 0 r /Helvetica findfont 22.8295 sf 0 0 m (0.01) show NC gr 
 gsave  408 306 930 345 C 942.983 467.218 t 0 r /Helvetica findfont 22.8295 sf 0 0 m (0.02) show NC gr 
 gsave  408 306 930 345 C 942.983 495.707 t 0 r /Helvetica findfont 22.8295 sf 0 0 m (0.03) show NC gr 
 gsave  408 306 930 345 C 942.983 524.196 t 0 r /Helvetica findfont 22.8295 sf 0 0 m (0.04) show NC gr 
 gsave  408 306 930 345 C 942.983 552.685 t 0 r /Helvetica findfont 22.8295 sf 0 0 m (0.05) show NC gr 
 gsave  408 306 930 345 C 942.983 584.022 t 0 r /Helvetica findfont 22.8295 sf 0 0 m (0.06) show NC gr 
 gsave  408 306 930 345 C 942.983 612.511 t 0 r /Helvetica findfont 22.8295 sf 0 0 m (0.07) show NC gr  1297 391 m 229 Y s 1292 415 m 5 X s 1294 420 m 3 X s 1294 426 m 3 X s 1294 432 m 3 X s 1294 438 m 3 X s 1292 444 m 5 X s 1294 450 m 3 X s 1294 456
 m 3 X s 1294 461 m 3 X s 1294 467 m 3 X s 1292 473 m 5 X s 1294 479 m 3 X s 1294 485 m 3 X s 1294 491 m 3 X s 1294 497 m 3 X s 1292 502 m 5 X s 1294 508 m 3 X s 1294 514 m 3 X s 1294 520 m 3 X s 1294 526 m 3 X s 1292 532 m 5 X s 1294 538 m 3 X s
 1294 543 m 3 X s 1294 549 m 3 X s 1294 555 m 3 X s 1292 561 m 5 X s 1294 567 m 3 X s 1294 573 m 3 X s 1294 579 m 3 X s 1294 584 m 3 X s 1292 590 m 5 X s 1294 596 m 3 X s 1294 602 m 3 X s 1294 608 m 3 X s 1294 614 m 3 X s 1292 620 m 5 X s 1292 415 m
 5 X s 1294 409 m 3 X s 1294 403 m 3 X s 1294 397 m 3 X s 1294 391 m 3 X s 1292 620 m 5 X s 1086 498 1181 585 1276 426 3 { m21} R 1086 509 m 5 Y s 1080 514 m 12 X s 1086 486 m -4 Y s 1080 482 m 12 X s 1181 596 m 5 Y s 1175 601 m 12 X s 1181 573 m -5
 Y s 1175 568 m 12 X s 1276 437 m 5 Y s 1271 442 m 11 X s 1276 414 m -4 Y s 1271 410 m 11 X s 9 lw 0.95 0.95 0.95 c black 993 415 m 3 1 d 3 1 d 3 1 d 3 1 d 3 1 d 3 1 d 3 1 d 3 1 d 3 1 d 3 1 d 3 1 d 3 1 d 3 1 d 3 1 d 3 1 d 4 1 d 3 1 d 3 1 d 3 1 d 3 1
 d 3 1 d 3 1 d 3 1 d 3 2 d 3 1 d 3 1 d 3 1 d 3 1 d 3 1 d 3 1 d 3 1 d 3 1 d 4 1 d 3 1 d 3 1 d 3 1 d 3 1 d 3 1 d 3 1 d 3 1 d 3 1 d 3 1 d 3 1 d 3 1 d 3 1 d 3 1 d 3 1 d 3 1 d 4 1 d s 1143 465 m 3 1 d 3 1 d 3 1 d 3 1 d 3 1 d 3 1 d 3 1 d 3 1 d 3 1 d 3 1 d
 3 1 d 3 1 d 3 1 d 3 1 d 3 1 d 4 1 d 3 1 d 3 1 d 3 1 d 3 1 d 3 1 d 3 1 d 3 1 d 3 1 d 3 2 d 3 1 d 3 1 d 3 1 d 3 1 d 3 1 d 3 1 d 3 1 d 4 1 d 3 1 d 3 1 d 3 1 d 3 1 d 3 1 d 3 1 d 3 1 d 3 1 d 3 1 d 3 1 d 3 1 d 3 1 d 3 1 d 3 1 d 3 1 d 4 1 d s 1293 515 m 3
 1 d s 0.49 0.6 0.82 c black 0.49 0.6 0.82 c
 gsave  408 306 930 345 C 1051.24 629.605 t 0 r /Helvetica-Bold findfont 25.6831 sf 0 0 m (6.0 < E < 6.5 GeV) show NC gr  0.52 0.76 0.64 c black 0.52 0.76 0.64 c
 gsave  408 306 930 345 C 1037 592.569 t 0 r /Helvetica-Bold findfont 25.6831 sf 0 0 m 
 218 204 190 183 168 161 146 139 123 116 109 95 82 68 61 47 39 24 17
(A = 0.011, p = 1.000) K NC gr  1 0.6 1 c black 1 0.6 1 c
 gsave  408 306 930 345 C 1336.13 450.125 t 90 r /Helvetica-Bold findfont 28.5368 sf 0 0 m (/dof=41.1) show NC gr  black 1 0.6 1 c
 gsave  408 306 930 345 C 1324.73 438.729 t 90 r /Helvetica-Bold findfont 19.9758 sf 0 0 m (2) show NC gr  black 1 0.6 1 c
 gsave  408 306 930 345 C 1336.13 421.636 t 90 r /Symbol findfont 28.5368 sf 0 0 m (c) show NC gr  black 3 lw 1 1 1 c 408 306 1383 345 bf black 1 1 1 c black 306 229 1445 391 bl 306 229 1445 391 bl 1445 391 m 306 X s 1445 395 m -4 Y s 1540 395 m -4 Y
 s 1635 395 m -4 Y s 1730 395 m -4 Y s 1730 395 m -4 Y s
 gsave  408 306 1383 345 C 1435.84 370.356 t 0 r /Helvetica findfont 22.8295 sf 0 0 m (0) show NC gr 
 gsave  408 306 1383 345 C 1532.7 370.356 t 0 r /Helvetica findfont 22.8295 sf 0 0 m (1) show NC gr 
 gsave  408 306 1383 345 C 1623.87 370.356 t 0 r /Helvetica findfont 22.8295 sf 0 0 m (2) show NC gr 
 gsave  408 306 1383 345 C 1720.73 370.356 t 0 r /Helvetica findfont 22.8295 sf 0 0 m (3) show NC gr  1445 620 m 306 X s 1445 616 m 4 Y s 1540 616 m 4 Y s 1635 616 m 4 Y s 1730 616 m 4 Y s 1730 616 m 4 Y s 1445 391 m 229 Y s 1450 413 m -5 X s 1447
 420 m -2 X s 1447 426 m -2 X s 1447 432 m -2 X s 1447 439 m -2 X s 1450 445 m -5 X s 1447 451 m -2 X s 1447 458 m -2 X s 1447 464 m -2 X s 1447 470 m -2 X s 1450 477 m -5 X s 1447 483 m -2 X s 1447 489 m -2 X s 1447 496 m -2 X s 1447 502 m -2 X s
 1450 508 m -5 X s 1447 515 m -2 X s 1447 521 m -2 X s 1447 528 m -2 X s 1447 534 m -2 X s 1450 540 m -5 X s 1447 547 m -2 X s 1447 553 m -2 X s 1447 559 m -2 X s 1447 566 m -2 X s 1450 572 m -5 X s 1447 578 m -2 X s 1447 585 m -2 X s 1447 591 m -2 X
 s 1447 597 m -2 X s 1450 604 m -5 X s 1450 413 m -5 X s 1447 407 m -2 X s 1447 400 m -2 X s 1447 394 m -2 X s 1450 604 m -5 X s 1447 610 m -2 X s 1447 616 m -2 X s
 gsave  408 306 1383 345 C 1390.26 407.391 t 0 r /Helvetica findfont 22.8295 sf 0 0 m (\2550.02) show NC gr 
 gsave  408 306 1383 345 C 1393.11 438.729 t 0 r /Helvetica findfont 22.8295 sf 0 0 m (\2550.01) show NC gr 
 gsave  408 306 1383 345 C 1427.29 470.067 t 0 r /Helvetica findfont 22.8295 sf 0 0 m (0) show NC gr 
 gsave  408 306 1383 345 C 1398.81 501.405 t 0 r /Helvetica findfont 22.8295 sf 0 0 m (0.01) show NC gr 
 gsave  408 306 1383 345 C 1395.96 532.742 t 0 r /Helvetica findfont 22.8295 sf 0 0 m (0.02) show NC gr 
 gsave  408 306 1383 345 C 1395.96 564.08 t 0 r /Helvetica findfont 22.8295 sf 0 0 m (0.03) show NC gr 
 gsave  408 306 1383 345 C 1395.96 595.418 t 0 r /Helvetica findfont 22.8295 sf 0 0 m (0.04) show NC gr  1751 391 m 229 Y s 1745 413 m 6 X s 1748 420 m 3 X s 1748 426 m 3 X s 1748 432 m 3 X s 1748 439 m 3 X s 1745 445 m 6 X s 1748 451 m 3 X s 1748
 458 m 3 X s 1748 464 m 3 X s 1748 470 m 3 X s 1745 477 m 6 X s 1748 483 m 3 X s 1748 489 m 3 X s 1748 496 m 3 X s 1748 502 m 3 X s 1745 508 m 6 X s 1748 515 m 3 X s 1748 521 m 3 X s 1748 528 m 3 X s 1748 534 m 3 X s 1745 540 m 6 X s 1748 547 m 3 X s
 1748 553 m 3 X s 1748 559 m 3 X s 1748 566 m 3 X s 1745 572 m 6 X s 1748 578 m 3 X s 1748 585 m 3 X s 1748 591 m 3 X s 1748 597 m 3 X s 1745 604 m 6 X s 1745 413 m 6 X s 1748 407 m 3 X s 1748 400 m 3 X s 1748 394 m 3 X s 1745 604 m 6 X s 1748 610 m
 3 X s 1748 616 m 3 X s 1540 493 1635 581 1730 430 3 { m21} R 1540 504 m 9 Y s 1534 513 m 11 X s 1540 481 m -8 Y s 1534 473 m 11 X s 1635 592 m 9 Y s 1629 601 m 11 X s 1635 569 m -9 Y s 1629 560 m 11 X s 1730 441 m 9 Y s 1724 450 m 11 X s 1730 418 m
 -8 Y s 1724 410 m 11 X s 9 lw 0.95 0.95 0.95 c black 1446 477 m 12 X 3 1 d 16 X 3 1 d 15 X 3 1 d 15 X 3 1 d 16 X 3 1 d 15 X 3 1 d 12 X 4 1 d 15 X 3 1 d 9 X s 1596 485 m 6 X 3 1 d 16 X 3 1 d 15 X 3 1 d 15 X 3 1 d 16 X 3 1 d 15 X 3 1 d 15 X 3 1 d 16 X
 3 1 d 12 X s 1746 493 m 3 X s 0.49 0.6 0.82 c black 0.49 0.6 0.82 c
 gsave  408 306 1383 345 C 1504.21 629.605 t 0 r /Helvetica-Bold findfont 25.6831 sf 0 0 m (6.5 < E < 7.0 GeV) show NC gr  0.52 0.76 0.64 c black 0.52 0.76 0.64 c
 gsave  408 306 1383 345 C 1489.97 592.569 t 0 r /Helvetica-Bold findfont 25.6831 sf 0 0 m 
 220 206 192 185 170 163 148 141 126 118 111 97 83 69 61 47 40 25 18
(A = 0.002, p = 1.000) K NC gr  1 0.6 1 c black 1 0.6 1 c
 gsave  408 306 1383 345 C 1789.1 450.125 t 90 r /Helvetica-Bold findfont 28.5368 sf 0 0 m (/dof=15.7) show NC gr  black 1 0.6 1 c
 gsave  408 306 1383 345 C 1777.71 438.729 t 90 r /Helvetica-Bold findfont 19.9758 sf 0 0 m (2) show NC gr  black 1 0.6 1 c
 gsave  408 306 1383 345 C 1789.1 421.636 t 90 r /Symbol findfont 28.5368 sf 0 0 m (c) show NC gr  black 3 lw 1 1 1 c 408 306 1837 345 bf black 1 1 1 c black 306 229 1898 391 bl 306 229 1898 391 bl 1898 391 m 306 X s 1898 395 m -4 Y s 1993 395 m -4 Y
 s 2088 395 m -4 Y s 2183 395 m -4 Y s 2183 395 m -4 Y s
 gsave  408 306 1837 345 C 1888.81 370.356 t 0 r /Helvetica findfont 22.8295 sf 0 0 m (0) show NC gr 
 gsave  408 306 1837 345 C 1985.68 370.356 t 0 r /Helvetica findfont 22.8295 sf 0 0 m (1) show NC gr 
 gsave  408 306 1837 345 C 2076.84 370.356 t 0 r /Helvetica findfont 22.8295 sf 0 0 m (2) show NC gr 
 gsave  408 306 1837 345 C 2173.7 370.356 t 0 r /Helvetica findfont 22.8295 sf 0 0 m (3) show NC gr  1898 620 m 306 X s 1898 616 m 4 Y s 1993 616 m 4 Y s 2088 616 m 4 Y s 2183 616 m 4 Y s 2183 616 m 4 Y s 1898 391 m 229 Y s 1904 416 m -6 X s 1901 422
 m -3 X s 1901 427 m -3 X s 1901 433 m -3 X s 1901 439 m -3 X s 1904 444 m -6 X s 1901 450 m -3 X s 1901 456 m -3 X s 1901 462 m -3 X s 1901 467 m -3 X s 1904 473 m -6 X s 1901 479 m -3 X s 1901 484 m -3 X s 1901 490 m -3 X s 1901 496 m -3 X s 1904
 502 m -6 X s 1901 507 m -3 X s 1901 513 m -3 X s 1901 519 m -3 X s 1901 524 m -3 X s 1904 530 m -6 X s 1901 536 m -3 X s 1901 542 m -3 X s 1901 547 m -3 X s 1901 553 m -3 X s 1904 559 m -6 X s 1901 564 m -3 X s 1901 570 m -3 X s 1901 576 m -3 X s
 1901 582 m -3 X s 1904 587 m -6 X s 1901 593 m -3 X s 1901 599 m -3 X s 1901 604 m -3 X s 1901 610 m -3 X s 1904 616 m -6 X s 1904 416 m -6 X s 1901 410 m -3 X s 1901 404 m -3 X s 1901 399 m -3 X s 1901 393 m -3 X s 1904 616 m -6 X s
 gsave  408 306 1837 345 C 1843.23 407.391 t 0 r /Helvetica findfont 22.8295 sf 0 0 m (\2550.03) show NC gr 
 gsave  408 306 1837 345 C 1843.23 435.88 t 0 r /Helvetica findfont 22.8295 sf 0 0 m (\2550.02) show NC gr 
 gsave  408 306 1837 345 C 1846.08 467.218 t 0 r /Helvetica findfont 22.8295 sf 0 0 m (\2550.01) show NC gr 
 gsave  408 306 1837 345 C 1880.27 495.707 t 0 r /Helvetica findfont 22.8295 sf 0 0 m (0) show NC gr 
 gsave  408 306 1837 345 C 1851.78 524.196 t 0 r /Helvetica findfont 22.8295 sf 0 0 m (0.01) show NC gr 
 gsave  408 306 1837 345 C 1848.93 552.685 t 0 r /Helvetica findfont 22.8295 sf 0 0 m (0.02) show NC gr 
 gsave  408 306 1837 345 C 1848.93 581.174 t 0 r /Helvetica findfont 22.8295 sf 0 0 m (0.03) show NC gr 
 gsave  408 306 1837 345 C 1848.93 609.662 t 0 r /Helvetica findfont 22.8295 sf 0 0 m (0.04) show NC gr  2204 391 m 229 Y s 2199 416 m 5 X s 2201 422 m 3 X s 2201 427 m 3 X s 2201 433 m 3 X s 2201 439 m 3 X s 2199 444 m 5 X s 2201 450 m 3 X s 2201
 456 m 3 X s 2201 462 m 3 X s 2201 467 m 3 X s 2199 473 m 5 X s 2201 479 m 3 X s 2201 484 m 3 X s 2201 490 m 3 X s 2201 496 m 3 X s 2199 502 m 5 X s 2201 507 m 3 X s 2201 513 m 3 X s 2201 519 m 3 X s 2201 524 m 3 X s 2199 530 m 5 X s 2201 536 m 3 X s
 2201 542 m 3 X s 2201 547 m 3 X s 2201 553 m 3 X s 2199 559 m 5 X s 2201 564 m 3 X s 2201 570 m 3 X s 2201 576 m 3 X s 2201 582 m 3 X s 2199 587 m 5 X s 2201 593 m 3 X s 2201 599 m 3 X s 2201 604 m 3 X s 2201 610 m 3 X s 2199 616 m 5 X s 2199 416 m
 5 X s 2201 410 m 3 X s 2201 404 m 3 X s 2201 399 m 3 X s 2201 393 m 3 X s 2199 616 m 5 X s 1993 546 2088 580 2183 430 3 { m21} R 1993 557 m 9 Y s 1987 566 m 12 X s 1993 534 m -9 Y s 1987 525 m 12 X s 2088 592 m 9 Y s 2083 601 m 11 X s 2088 569 m -10
 Y s 2083 559 m 11 X s 2183 442 m 8 Y s 2178 450 m 11 X s 2183 419 m -9 Y s 2178 410 m 11 X s 1 0 0 c 9 lw 0.95 0.95 0.95 c black 1 0 0 c 1900 502 m 12 X 3 -1 d 37 X 3 -1 d 18 X 3 -1 d 15 X 4 -1 d 12 X 3 -1 d 9 X 3 -1 d 6 X 3 -1 d 9 X 3 -1 d 7 X s
 2050 494 m 3 -1 d 6 X 3 -1 d 6 X 3 -1 d 6 X 3 -1 d 3 X 3 -1 d 6 X 4 -1 d 3 X 3 -1 d 3 X 3 -1 d 6 X 3 -1 d 3 X 3 -1 d 3 X 3 -1 d 3 X 3 -1 d 3 X 3 -1 d 4 X 3 -1 d 3 X 3 -1 d 3 X 3 -1 d 3 -1 d 3 X 3 -1 d 3 X 3 -1 d 3 X 3 -1 d 3 -1 d 3 X 3 -1 d 4 -1 d 3
 X 3 -1 d s 2200 470 m 3 X s 0.49 0.6 0.82 c black 0.49 0.6 0.82 c
 gsave  408 306 1837 345 C 1957.19 629.605 t 0 r /Helvetica-Bold findfont 25.6831 sf 0 0 m (7.0 < E < 7.5 GeV) show NC gr  0.52 0.76 0.64 c black 0.52 0.76 0.64 c
 gsave  408 306 1837 345 C 1937.25 592.569 t 0 r /Helvetica-Bold findfont 25.6831 sf 0 0 m 
 228 214 200 193 178 171 156 149 133 126 119 105 91 77 69 55 47 39 25 17
(A = \2550.001, p = 2.000) K NC gr  1 0.6 1 c black 1 0.6 1 c
 gsave  408 306 1837 345 C 2242.08 450.125 t 90 r /Helvetica-Bold findfont 28.5368 sf 0 0 m (/dof=14.6) show NC gr  black 1 0.6 1 c
 gsave  408 306 1837 345 C 2230.68 438.729 t 90 r /Helvetica-Bold findfont 19.9758 sf 0 0 m (2) show NC gr  black 1 0.6 1 c
 gsave  408 306 1837 345 C 2242.08 421.636 t 90 r /Symbol findfont 28.5368 sf 0 0 m (c) show NC gr  black 3 lw 1 1 1 c 408 306 23 13 bf black 1 1 1 c black 306 229 84 59 bl 306 229 84 59 bl 84 59 m 306 X s 84 63 m -4 Y s 179 63 m -4 Y s 274 63 m -4 Y
 s 369 63 m -4 Y s 369 63 m -4 Y s
 gsave  408 306 23 13 C 74.0711 39.8845 t 0 r /Helvetica findfont 22.8295 sf 0 0 m (0) show NC gr 
 gsave  408 306 23 13 C 170.933 39.8845 t 0 r /Helvetica findfont 22.8295 sf 0 0 m (1) show NC gr 
 gsave  408 306 23 13 C 264.947 39.8845 t 0 r /Helvetica findfont 22.8295 sf 0 0 m (2) show NC gr 
 gsave  408 306 23 13 C 358.96 39.8845 t 0 r /Helvetica findfont 22.8295 sf 0 0 m (3) show NC gr  84 288 m 306 X s 84 284 m 4 Y s 179 284 m 4 Y s 274 284 m 4 Y s 369 284 m 4 Y s 369 284 m 4 Y s 84 59 m 229 Y s 89 69 m -5 X s 87 78 m -3 X s 87 87 m -3
 X s 87 95 m -3 X s 89 104 m -5 X s 87 113 m -3 X s 87 122 m -3 X s 87 130 m -3 X s 89 139 m -5 X s 87 148 m -3 X s 87 156 m -3 X s 87 165 m -3 X s 89 174 m -5 X s 87 182 m -3 X s 87 191 m -3 X s 87 200 m -3 X s 89 208 m -5 X s 87 217 m -3 X s 87 226
 m -3 X s 87 234 m -3 X s 89 243 m -5 X s 87 252 m -3 X s 87 261 m -3 X s 87 269 m -3 X s 89 278 m -5 X s 89 69 m -5 X s 87 61 m -3 X s 89 278 m -5 X s 87 287 m -3 X s
 gsave  408 306 23 13 C 42.7334 62.6756 t 0 r /Helvetica findfont 22.8295 sf 0 0 m (\2550.1) show NC gr 
 gsave  408 306 23 13 C 28.4889 96.8623 t 0 r /Helvetica findfont 22.8295 sf 0 0 m (\2550.08) show NC gr 
 gsave  408 306 23 13 C 28.4889 131.049 t 0 r /Helvetica findfont 22.8295 sf 0 0 m (\2550.06) show NC gr 
 gsave  408 306 23 13 C 28.4889 165.236 t 0 r /Helvetica findfont 22.8295 sf 0 0 m (\2550.04) show NC gr 
 gsave  408 306 23 13 C 28.4889 202.271 t 0 r /Helvetica findfont 22.8295 sf 0 0 m (\2550.02) show NC gr 
 gsave  408 306 23 13 C 65.5245 236.458 t 0 r /Helvetica findfont 22.8295 sf 0 0 m (0) show NC gr 
 gsave  408 306 23 13 C 34.1867 270.645 t 0 r /Helvetica findfont 22.8295 sf 0 0 m (0.02) show NC gr  390 59 m 229 Y s 385 69 m 5 X s 387 78 m 3 X s 387 87 m 3 X s 387 95 m 3 X s 385 104 m 5 X s 387 113 m 3 X s 387 122 m 3 X s 387 130 m 3 X s 385 139
 m 5 X s 387 148 m 3 X s 387 156 m 3 X s 387 165 m 3 X s 385 174 m 5 X s 387 182 m 3 X s 387 191 m 3 X s 387 200 m 3 X s 385 208 m 5 X s 387 217 m 3 X s 387 226 m 3 X s 387 234 m 3 X s 385 243 m 5 X s 387 252 m 3 X s 387 261 m 3 X s 387 269 m 3 X s
 385 278 m 5 X s 385 69 m 5 X s 387 61 m 3 X s 385 278 m 5 X s 387 287 m 3 X s /w 22 def /w2 {w 2 div} def /w3 {w 3 div} def 179 255 274 243 369 91 3 { m21} R 179 267 m 2 Y s 173 269 m 12 X s 179 244 m -2 Y s 173 242 m 12 X s 274 254 m 2 Y s 268 256
 m 12 X s 274 231 m -2 Y s 268 229 m 12 X s 369 102 m 2 Y s 363 104 m 12 X s 369 80 m -2 Y s 363 78 m 12 X s 1 0 0 c 9 lw 0.95 0.95 0.95 c black 1 0 0 c 85 243 m 19 X 3 -1 d 9 X 3 -1 d 6 X 3 -1 d 3 X 3 -1 d 3 X 4 -1 d 3 X 3 -1 d 3 -1 d 3 X 3 -1 d 3
 -1 d 3 X 3 -1 d 3 -1 d 3 -1 d 3 -1 d 3 X 3 -1 d 3 -1 d 3 -1 d 4 -1 d 3 -1 d 3 -1 d 3 -1 d 3 -2 d 3 -1 d 3 -1 d 3 -1 d 3 -1 d 3 -2 d 3 -1 d 3 -1 d 3 -2 d 3 -1 d 3 -1 d 3 -2 d s 235 207 m 4 -1 d 3 -2 d 3 -1 d 3 -2 d 3 -1 d 3 -2 d 3 -2 d 3 -1 d 3 -2 d
 3 -2 d 3 -1 d 3 -2 d 3 -2 d 3 -2 d 3 -2 d 3 -2 d 3 -2 d 4 -2 d 3 -2 d 3 -2 d 3 -2 d 3 -2 d 3 -2 d 3 -2 d 3 -2 d 3 -2 d 3 -3 d 3 -2 d 3 -2 d 3 -2 d 3 -3 d 3 -2 d 3 -3 d 4 -2 d 3 -2 d 3 -3 d 3 -2 d 3 -3 d 3 -3 d 3 -2 d 3 -3 d 3 -3 d 3 -2 d 3 -3 d 3 -3
 d 3 -2 d 3 -3 d 3 -3 d 3 -3 d s 385 101 m 4 -3 d s 0.49 0.6 0.82 c black 0.49 0.6 0.82 c
 gsave  408 306 23 13 C 142.445 296.285 t 0 r /Helvetica-Bold findfont 25.6831 sf 0 0 m (7.5 < E < 8.0 GeV) show NC gr  0.52 0.76 0.64 c black 0.52 0.76 0.64 c
 gsave  408 306 23 13 C 122.502 259.249 t 0 r /Helvetica-Bold findfont 25.6831 sf 0 0 m 
 228 214 200 193 178 171 156 149 134 126 119 105 91 77 69 55 47 39 25 17
(A = \2550.008, p = 2.000) K NC gr  1 0.6 1 c black 1 0.6 1 c
 gsave  408 306 23 13 C 427.334 119.653 t 90 r /Helvetica-Bold findfont 28.5368 sf 0 0 m (/dof=12.3) show NC gr  black 1 0.6 1 c
 gsave  408 306 23 13 C 415.938 108.258 t 90 r /Helvetica-Bold findfont 19.9758 sf 0 0 m (2) show NC gr  black 1 0.6 1 c
 gsave  408 306 23 13 C 427.334 91.1645 t 90 r /Symbol findfont 28.5368 sf 0 0 m (c) show NC gr  black 3 lw 1 1 1 c 408 306 476 13 bf black 1 1 1 c black 307 229 537 59 bl 307 229 537 59 bl 537 59 m 307 X s 537 63 m -4 Y s 633 63 m -4 Y s 728 63 m -4
 Y s 823 63 m -4 Y s 823 63 m -4 Y s
 gsave  408 306 476 13 C 527.045 39.8845 t 0 r /Helvetica findfont 22.8295 sf 0 0 m (0) show NC gr 
 gsave  408 306 476 13 C 626.756 39.8845 t 0 r /Helvetica findfont 22.8295 sf 0 0 m (1) show NC gr 
 gsave  408 306 476 13 C 717.92 39.8845 t 0 r /Helvetica findfont 22.8295 sf 0 0 m (2) show NC gr 
 gsave  408 306 476 13 C 811.934 39.8845 t 0 r /Helvetica findfont 22.8295 sf 0 0 m (3) show NC gr  537 288 m 307 X s 537 284 m 4 Y s 633 284 m 4 Y s 728 284 m 4 Y s 823 284 m 4 Y s 823 284 m 4 Y s 537 59 m 229 Y s 543 60 m -6 X s 540 69 m -3 X s 540
 79 m -3 X s 540 88 m -3 X s 543 98 m -6 X s 540 107 m -3 X s 540 117 m -3 X s 540 127 m -3 X s 543 136 m -6 X s 540 146 m -3 X s 540 155 m -3 X s 540 165 m -3 X s 543 174 m -6 X s 540 184 m -3 X s 540 193 m -3 X s 540 203 m -3 X s 543 212 m -6 X s
 540 222 m -3 X s 540 231 m -3 X s 540 241 m -3 X s 543 250 m -6 X s 543 60 m -6 X s 543 250 m -6 X s 540 260 m -3 X s 540 269 m -3 X s 540 279 m -3 X s
 gsave  408 306 476 13 C 495.707 54.1289 t 0 r /Helvetica findfont 22.8295 sf 0 0 m (\2550.1) show NC gr 
 gsave  408 306 476 13 C 481.462 91.1645 t 0 r /Helvetica findfont 22.8295 sf 0 0 m (\2550.08) show NC gr 
 gsave  408 306 476 13 C 481.462 128.2 t 0 r /Helvetica findfont 22.8295 sf 0 0 m (\2550.06) show NC gr 
 gsave  408 306 476 13 C 481.462 168.085 t 0 r /Helvetica findfont 22.8295 sf 0 0 m (\2550.04) show NC gr 
 gsave  408 306 476 13 C 481.462 205.12 t 0 r /Helvetica findfont 22.8295 sf 0 0 m (\2550.02) show NC gr 
 gsave  408 306 476 13 C 518.498 242.156 t 0 r /Helvetica findfont 22.8295 sf 0 0 m (0) show NC gr  844 59 m 229 Y s 838 60 m 6 X s 841 69 m 3 X s 841 79 m 3 X s 841 88 m 3 X s 838 98 m 6 X s 841 107 m 3 X s 841 117 m 3 X s 841 127 m 3 X s 838 136 m
 6 X s 841 146 m 3 X s 841 155 m 3 X s 841 165 m 3 X s 838 174 m 6 X s 841 184 m 3 X s 841 193 m 3 X s 841 203 m 3 X s 838 212 m 6 X s 841 222 m 3 X s 841 231 m 3 X s 841 241 m 3 X s 838 250 m 6 X s 838 60 m 6 X s 838 250 m 6 X s 841 260 m 3 X s 841
 269 m 3 X s 841 279 m 3 X s /w 23 def /w2 {w 2 div} def /w3 {w 3 div} def 633 253 728 239 823 94 3 { m21} R 633 264 m 5 Y s 627 269 m 11 X s 633 242 m -5 Y s 627 237 m 11 X s 728 251 m 5 Y s 722 256 m 11 X s 728 228 m -5 Y s 722 223 m 11 X s 823 105
 m 4 Y s 817 109 m 11 X s 823 82 m -4 Y s 817 78 m 11 X s 1 0 0 c 9 lw 0.95 0.95 0.95 c black 1 0 0 c 539 250 m 18 X 3 -1 d 10 X 3 -1 d 6 X 3 -1 d 3 X 3 -1 d 3 X 3 -1 d 3 -1 d 3 X 3 -1 d 3 -1 d 3 X 3 -1 d 4 -1 d 3 -1 d 3 X 3 -1 d 3 -1 d 3 -1 d 3 -1 d
 3 -1 d 3 -1 d 3 -1 d 3 -1 d 3 -1 d 3 -2 d 3 -1 d 3 -1 d 3 -1 d 3 -1 d 4 -2 d 3 -1 d 3 -1 d 3 -2 d 3 -1 d 3 -2 d 3 -1 d 3 -2 d s 689 212 m 3 -1 d 3 -2 d 3 -2 d 3 -1 d 3 -2 d 3 -2 d 3 -1 d 3 -2 d 4 -2 d 3 -2 d 3 -2 d 3 -1 d 3 -2 d 3 -2 d 3 -2 d 3 -2 d
 3 -2 d 3 -3 d 3 -2 d 3 -2 d 3 -2 d 3 -2 d 3 -2 d 3 -3 d 4 -2 d 3 -2 d 3 -3 d 3 -2 d 3 -3 d 3 -2 d 3 -2 d 3 -3 d 3 -3 d 3 -2 d 3 -3 d 3 -2 d 3 -3 d 3 -3 d 3 -2 d 3 -3 d 4 -3 d 3 -3 d 3 -3 d 3 -3 d 3 -3 d 3 -3 d 3 -3 d 3 -3 d 3 -3 d s 839 99 m 3 -3 d
 s 0.49 0.6 0.82 c black 0.49 0.6 0.82 c
 gsave  408 306 476 13 C 595.418 296.285 t 0 r /Helvetica-Bold findfont 25.6831 sf 0 0 m (8.0 < E < 8.5 GeV) show NC gr  0.52 0.76 0.64 c black 0.52 0.76 0.64 c
 gsave  408 306 476 13 C 575.476 259.249 t 0 r /Helvetica-Bold findfont 25.6831 sf 0 0 m 
 228 214 200 193 178 171 156 149 133 126 119 105 91 76 69 55 47 39 25 17
(A = \2550.008, p = 2.000) K NC gr  1 0.6 1 c black 1 0.6 1 c
 gsave  408 306 476 13 C 883.156 128.2 t 90 r /Helvetica-Bold findfont 28.5368 sf 0 0 m (/dof=6.2) show NC gr  black 1 0.6 1 c
 gsave  408 306 476 13 C 871.76 116.804 t 90 r /Helvetica-Bold findfont 19.9758 sf 0 0 m (2) show NC gr  black 1 0.6 1 c
 gsave  408 306 476 13 C 883.156 99.7112 t 90 r /Symbol findfont 28.5368 sf 0 0 m (c) show NC gr  black 3 lw 1 1 1 c 408 306 930 13 bf black 1 1 1 c black 306 229 991 59 bl 306 229 991 59 bl 991 59 m 306 X s 991 63 m -4 Y s 1086 63 m -4 Y s 1181 63 m
 -4 Y s 1276 63 m -4 Y s 1276 63 m -4 Y s
 gsave  408 306 930 13 C 980.018 39.8845 t 0 r /Helvetica findfont 22.8295 sf 0 0 m (0) show NC gr 
 gsave  408 306 930 13 C 1079.73 39.8845 t 0 r /Helvetica findfont 22.8295 sf 0 0 m (1) show NC gr 
 gsave  408 306 930 13 C 1170.89 39.8845 t 0 r /Helvetica findfont 22.8295 sf 0 0 m (2) show NC gr 
 gsave  408 306 930 13 C 1264.91 39.8845 t 0 r /Helvetica findfont 22.8295 sf 0 0 m (3) show NC gr  991 288 m 306 X s 991 284 m 4 Y s 1086 284 m 4 Y s 1181 284 m 4 Y s 1276 284 m 4 Y s 1276 284 m 4 Y s 991 59 m 229 Y s 997 81 m -6 X s 994 89 m -3 X s
 994 96 m -3 X s 994 104 m -3 X s 997 112 m -6 X s 994 119 m -3 X s 994 127 m -3 X s 994 134 m -3 X s 997 142 m -6 X s 994 150 m -3 X s 994 157 m -3 X s 994 165 m -3 X s 997 172 m -6 X s 994 180 m -3 X s 994 188 m -3 X s 994 195 m -3 X s 997 203 m -6
 X s 994 210 m -3 X s 994 218 m -3 X s 994 226 m -3 X s 997 233 m -6 X s 994 241 m -3 X s 994 248 m -3 X s 994 256 m -3 X s 997 264 m -6 X s 997 81 m -6 X s 994 74 m -3 X s 994 66 m -3 X s 997 264 m -6 X s 994 271 m -3 X s 994 279 m -3 X s 994 286 m
 -3 X s
 gsave  408 306 930 13 C 951.529 74.0711 t 0 r /Helvetica findfont 22.8295 sf 0 0 m (\2550.1) show NC gr 
 gsave  408 306 930 13 C 937.285 105.409 t 0 r /Helvetica findfont 22.8295 sf 0 0 m (\2550.08) show NC gr 
 gsave  408 306 930 13 C 937.285 133.898 t 0 r /Helvetica findfont 22.8295 sf 0 0 m (\2550.06) show NC gr 
 gsave  408 306 930 13 C 937.285 165.236 t 0 r /Helvetica findfont 22.8295 sf 0 0 m (\2550.04) show NC gr 
 gsave  408 306 930 13 C 937.285 196.573 t 0 r /Helvetica findfont 22.8295 sf 0 0 m (\2550.02) show NC gr 
 gsave  408 306 930 13 C 974.32 225.062 t 0 r /Helvetica findfont 22.8295 sf 0 0 m (0) show NC gr 
 gsave  408 306 930 13 C 942.983 256.4 t 0 r /Helvetica findfont 22.8295 sf 0 0 m (0.02) show NC gr  1297 59 m 229 Y s 1292 81 m 5 X s 1294 89 m 3 X s 1294 96 m 3 X s 1294 104 m 3 X s 1292 112 m 5 X s 1294 119 m 3 X s 1294 127 m 3 X s 1294 134 m 3 X
 s 1292 142 m 5 X s 1294 150 m 3 X s 1294 157 m 3 X s 1294 165 m 3 X s 1292 172 m 5 X s 1294 180 m 3 X s 1294 188 m 3 X s 1294 195 m 3 X s 1292 203 m 5 X s 1294 210 m 3 X s 1294 218 m 3 X s 1294 226 m 3 X s 1292 233 m 5 X s 1294 241 m 3 X s 1294 248
 m 3 X s 1294 256 m 3 X s 1292 264 m 5 X s 1292 81 m 5 X s 1294 74 m 3 X s 1294 66 m 3 X s 1292 264 m 5 X s 1294 271 m 3 X s 1294 279 m 3 X s 1294 286 m 3 X s 1086 255 1181 205 1276 91 3 { m21} R 1086 266 m 3 Y s 1080 269 m 12 X s 1086 244 m -3 Y s
 1080 241 m 12 X s 1181 216 m 2 Y s 1175 218 m 12 X s 1181 193 m -2 Y s 1175 191 m 12 X s 1276 103 m 1 Y s 1271 104 m 11 X s 1276 80 m -2 Y s 1271 78 m 11 X s 1 0 0 c 9 lw 0.95 0.95 0.95 c black 1 0 0 c 993 233 m 18 X 3 -1 d 9 X 3 -1 d 6 X 3 -1 d 3 X
 4 -1 d 3 X 3 -1 d 3 X 3 -1 d 3 -1 d 3 X 3 -1 d 3 -1 d 3 X 3 -1 d 3 -1 d 3 -1 d 3 -1 d 3 X 3 -1 d 3 -1 d 4 -1 d 3 -1 d 3 -1 d 3 -1 d 3 -1 d 3 -1 d 3 -2 d 3 -1 d 3 -1 d 3 -1 d 3 -1 d 3 -2 d 3 -1 d 3 -1 d 3 -2 d 3 -1 d 4 -2 d s 1143 197 m 3 -1 d 3 -2 d
 3 -1 d 3 -2 d 3 -1 d 3 -2 d 3 -1 d 3 -2 d 3 -2 d 3 -2 d 3 -1 d 3 -2 d 3 -2 d 3 -2 d 3 -2 d 4 -2 d 3 -1 d 3 -2 d 3 -2 d 3 -2 d 3 -2 d 3 -3 d 3 -2 d 3 -2 d 3 -2 d 3 -2 d 3 -2 d 3 -3 d 3 -2 d 3 -2 d 3 -3 d 3 -2 d 4 -2 d 3 -3 d 3 -2 d 3 -3 d 3 -2 d 3 -3
 d 3 -2 d 3 -3 d 3 -3 d 3 -2 d 3 -3 d 3 -3 d 3 -2 d 3 -3 d 3 -3 d 3 -3 d 4 -3 d s 1293 91 m 3 -3 d s 0.49 0.6 0.82 c black 0.49 0.6 0.82 c
 gsave  408 306 930 13 C 1051.24 296.285 t 0 r /Helvetica-Bold findfont 25.6831 sf 0 0 m (8.5 < E < 9.0 GeV) show NC gr  0.52 0.76 0.64 c black 0.52 0.76 0.64 c
 gsave  408 306 930 13 C 1031.3 259.249 t 0 r /Helvetica-Bold findfont 25.6831 sf 0 0 m 
 228 214 200 193 178 171 156 149 133 126 119 105 91 77 69 55 47 39 25 17
(A = \2550.009, p = 2.000) K NC gr  1 0.6 1 c black 1 0.6 1 c
 gsave  408 306 930 13 C 1336.13 128.2 t 90 r /Helvetica-Bold findfont 28.5368 sf 0 0 m (/dof=6.0) show NC gr  black 1 0.6 1 c
 gsave  408 306 930 13 C 1324.73 116.804 t 90 r /Helvetica-Bold findfont 19.9758 sf 0 0 m (2) show NC gr  black 1 0.6 1 c
 gsave  408 306 930 13 C 1336.13 99.7112 t 90 r /Symbol findfont 28.5368 sf 0 0 m (c) show NC gr  black 3 lw 1 1 1 c 408 306 1383 13 bf black 1 1 1 c black 306 229 1445 59 bl 306 229 1445 59 bl 1445 59 m 306 X s 1445 63 m -4 Y s 1540 63 m -4 Y s 1635
 63 m -4 Y s 1730 63 m -4 Y s 1730 63 m -4 Y s
 gsave  408 306 1383 13 C 1435.84 39.8845 t 0 r /Helvetica findfont 22.8295 sf 0 0 m (0) show NC gr 
 gsave  408 306 1383 13 C 1532.7 39.8845 t 0 r /Helvetica findfont 22.8295 sf 0 0 m (1) show NC gr 
 gsave  408 306 1383 13 C 1623.87 39.8845 t 0 r /Helvetica findfont 22.8295 sf 0 0 m (2) show NC gr 
 gsave  408 306 1383 13 C 1720.73 39.8845 t 0 r /Helvetica findfont 22.8295 sf 0 0 m (3) show NC gr  1445 288 m 306 X s 1445 284 m 4 Y s 1540 284 m 4 Y s 1635 284 m 4 Y s 1730 284 m 4 Y s 1730 284 m 4 Y s 1445 59 m 229 Y s 1450 75 m -5 X s 1447 83 m
 -2 X s 1447 90 m -2 X s 1447 98 m -2 X s 1450 106 m -5 X s 1447 113 m -2 X s 1447 121 m -2 X s 1447 128 m -2 X s 1450 136 m -5 X s 1447 143 m -2 X s 1447 151 m -2 X s 1447 158 m -2 X s 1450 166 m -5 X s 1447 173 m -2 X s 1447 181 m -2 X s 1447 189 m
 -2 X s 1450 196 m -5 X s 1447 204 m -2 X s 1447 211 m -2 X s 1447 219 m -2 X s 1450 226 m -5 X s 1447 234 m -2 X s 1447 241 m -2 X s 1447 249 m -2 X s 1450 256 m -5 X s 1447 264 m -2 X s 1447 271 m -2 X s 1447 279 m -2 X s 1450 287 m -5 X s 1450 75
 m -5 X s 1447 68 m -2 X s 1447 60 m -2 X s 1450 287 m -5 X s
 gsave  408 306 1383 13 C 1390.26 68.3734 t 0 r /Helvetica findfont 22.8295 sf 0 0 m (\2550.12) show NC gr 
 gsave  408 306 1383 13 C 1404.5 99.7112 t 0 r /Helvetica findfont 22.8295 sf 0 0 m (\2550.1) show NC gr 
 gsave  408 306 1383 13 C 1390.26 128.2 t 0 r /Helvetica findfont 22.8295 sf 0 0 m (\2550.08) show NC gr 
 gsave  408 306 1383 13 C 1390.26 159.538 t 0 r /Helvetica findfont 22.8295 sf 0 0 m (\2550.06) show NC gr 
 gsave  408 306 1383 13 C 1390.26 188.027 t 0 r /Helvetica findfont 22.8295 sf 0 0 m (\2550.04) show NC gr 
 gsave  408 306 1383 13 C 1390.26 219.365 t 0 r /Helvetica findfont 22.8295 sf 0 0 m (\2550.02) show NC gr 
 gsave  408 306 1383 13 C 1427.29 247.853 t 0 r /Helvetica findfont 22.8295 sf 0 0 m (0) show NC gr 
 gsave  408 306 1383 13 C 1395.96 279.191 t 0 r /Helvetica findfont 22.8295 sf 0 0 m (0.02) show NC gr  1751 59 m 229 Y s 1745 75 m 6 X s 1748 83 m 3 X s 1748 90 m 3 X s 1748 98 m 3 X s 1745 106 m 6 X s 1748 113 m 3 X s 1748 121 m 3 X s 1748 128 m 3
 X s 1745 136 m 6 X s 1748 143 m 3 X s 1748 151 m 3 X s 1748 158 m 3 X s 1745 166 m 6 X s 1748 173 m 3 X s 1748 181 m 3 X s 1748 189 m 3 X s 1745 196 m 6 X s 1748 204 m 3 X s 1748 211 m 3 X s 1748 219 m 3 X s 1745 226 m 6 X s 1748 234 m 3 X s 1748
 241 m 3 X s 1748 249 m 3 X s 1745 256 m 6 X s 1748 264 m 3 X s 1748 271 m 3 X s 1748 279 m 3 X s 1745 287 m 6 X s 1745 75 m 6 X s 1748 68 m 3 X s 1748 60 m 3 X s 1745 287 m 6 X s 1540 254 1635 222 1730 92 3 { m21} R 1540 266 m 3 Y s 1534 269 m 11 X
 s 1540 243 m -3 Y s 1534 240 m 11 X s 1635 233 m 3 Y s 1629 236 m 11 X s 1635 210 m -3 Y s 1629 207 m 11 X s 1730 103 m 3 Y s 1724 106 m 11 X s 1730 81 m -3 Y s 1724 78 m 11 X s 1 0 0 c 9 lw 0.95 0.95 0.95 c black 1 0 0 c 1446 256 m 18 X 3 -1 d 7 X
 3 -1 d 6 X 3 -1 d 3 X 3 -1 d 3 X 3 -1 d 3 -1 d 3 X 3 -1 d 3 -1 d 3 X 3 -1 d 4 -1 d 3 -1 d 3 -1 d 3 -1 d 3 -1 d 3 -1 d 3 -1 d 3 -1 d 3 -1 d 3 -1 d 3 -1 d 3 -1 d 3 -2 d 3 -1 d 3 -1 d 3 -2 d 4 -1 d 3 -1 d 3 -2 d 3 -1 d 3 -2 d 3 -1 d 3 -2 d 3 -2 d 3 -1
 d 3 -2 d s 1596 214 m 3 -2 d 3 -1 d 3 -2 d 3 -2 d 3 -2 d 3 -2 d 4 -2 d 3 -2 d 3 -2 d 3 -2 d 3 -2 d 3 -2 d 3 -2 d 3 -2 d 3 -3 d 3 -2 d 3 -2 d 3 -2 d 3 -3 d 3 -2 d 3 -3 d 3 -2 d 3 -3 d 4 -2 d 3 -3 d 3 -2 d 3 -3 d 3 -2 d 3 -3 d 3 -3 d 3 -3 d 3 -2 d 3
 -3 d 3 -3 d 3 -3 d 3 -3 d 3 -3 d 3 -3 d 3 -3 d 4 -3 d 3 -3 d 3 -3 d 3 -4 d 3 -3 d 3 -3 d 3 -3 d 3 -4 d 3 -3 d 3 -3 d s 1746 89 m 3 -4 d s 0.49 0.6 0.82 c black 0.49 0.6 0.82 c
 gsave  408 306 1383 13 C 1504.21 296.285 t 0 r /Helvetica-Bold findfont 25.6831 sf 0 0 m (9.0 < E < 9.5 GeV) show NC gr  0.52 0.76 0.64 c black 0.52 0.76 0.64 c
 gsave  408 306 1383 13 C 1484.27 259.249 t 0 r /Helvetica-Bold findfont 25.6831 sf 0 0 m 
 227 213 199 192 177 170 155 148 133 125 118 104 91 77 70 56 47 40 25 18
(A = \2550.011, p = 2.000) K NC gr  1 0.6 1 c black 1 0.6 1 c
 gsave  408 306 1383 13 C 1789.1 128.2 t 90 r /Helvetica-Bold findfont 28.5368 sf 0 0 m (/dof=3.5) show NC gr  black 1 0.6 1 c
 gsave  408 306 1383 13 C 1777.71 116.804 t 90 r /Helvetica-Bold findfont 19.9758 sf 0 0 m (2) show NC gr  black 1 0.6 1 c
 gsave  408 306 1383 13 C 1789.1 99.7112 t 90 r /Symbol findfont 28.5368 sf 0 0 m (c) show NC gr  black 3 lw 1 1 1 c 408 306 1837 13 bf black 1 1 1 c black 306 229 1898 59 bl 306 229 1898 59 bl 1898 59 m 306 X s 1898 63 m -4 Y s 1993 63 m -4 Y s 2088
 63 m -4 Y s 2183 63 m -4 Y s 2183 63 m -4 Y s
 gsave  408 306 1837 13 C 1888.81 39.8845 t 0 r /Helvetica findfont 22.8295 sf 0 0 m (0) show NC gr 
 gsave  408 306 1837 13 C 1985.68 39.8845 t 0 r /Helvetica findfont 22.8295 sf 0 0 m (1) show NC gr 
 gsave  408 306 1837 13 C 2076.84 39.8845 t 0 r /Helvetica findfont 22.8295 sf 0 0 m (2) show NC gr 
 gsave  408 306 1837 13 C 2173.7 39.8845 t 0 r /Helvetica findfont 22.8295 sf 0 0 m (3) show NC gr  1898 288 m 306 X s 1898 284 m 4 Y s 1993 284 m 4 Y s 2088 284 m 4 Y s 2183 284 m 4 Y s 2183 284 m 4 Y s 1898 59 m 229 Y s 1904 90 m -6 X s 1901 99 m
 -3 X s 1901 107 m -3 X s 1901 116 m -3 X s 1904 124 m -6 X s 1901 132 m -3 X s 1901 141 m -3 X s 1901 149 m -3 X s 1904 158 m -6 X s 1901 166 m -3 X s 1901 174 m -3 X s 1901 183 m -3 X s 1904 191 m -6 X s 1901 200 m -3 X s 1901 208 m -3 X s 1901 217
 m -3 X s 1904 225 m -6 X s 1901 233 m -3 X s 1901 242 m -3 X s 1901 250 m -3 X s 1904 259 m -6 X s 1904 90 m -6 X s 1901 82 m -3 X s 1901 74 m -3 X s 1901 65 m -3 X s 1904 259 m -6 X s 1901 267 m -3 X s 1901 275 m -3 X s 1901 284 m -3 X s
 gsave  408 306 1837 13 C 1857.48 82.6178 t 0 r /Helvetica findfont 22.8295 sf 0 0 m (\2550.1) show NC gr 
 gsave  408 306 1837 13 C 1843.23 116.804 t 0 r /Helvetica findfont 22.8295 sf 0 0 m (\2550.08) show NC gr 
 gsave  408 306 1837 13 C 1843.23 150.991 t 0 r /Helvetica findfont 22.8295 sf 0 0 m (\2550.06) show NC gr 
 gsave  408 306 1837 13 C 1843.23 185.178 t 0 r /Helvetica findfont 22.8295 sf 0 0 m (\2550.04) show NC gr 
 gsave  408 306 1837 13 C 1843.23 216.516 t 0 r /Helvetica findfont 22.8295 sf 0 0 m (\2550.02) show NC gr 
 gsave  408 306 1837 13 C 1880.27 250.702 t 0 r /Helvetica findfont 22.8295 sf 0 0 m (0) show NC gr  2204 59 m 229 Y s 2199 90 m 5 X s 2201 99 m 3 X s 2201 107 m 3 X s 2201 116 m 3 X s 2199 124 m 5 X s 2201 132 m 3 X s 2201 141 m 3 X s 2201 149 m 3 X
 s 2199 158 m 5 X s 2201 166 m 3 X s 2201 174 m 3 X s 2201 183 m 3 X s 2199 191 m 5 X s 2201 200 m 3 X s 2201 208 m 3 X s 2201 217 m 3 X s 2199 225 m 5 X s 2201 233 m 3 X s 2201 242 m 3 X s 2201 250 m 3 X s 2199 259 m 5 X s 2199 90 m 5 X s 2201 82 m
 3 X s 2201 74 m 3 X s 2201 65 m 3 X s 2199 259 m 5 X s 2201 267 m 3 X s 2201 275 m 3 X s 2201 284 m 3 X s 1993 251 2088 218 2183 95 3 { m21} R 1993 263 m 6 Y s 1987 269 m 12 X s 1993 240 m -6 Y s 1987 234 m 12 X s 2088 230 m 6 Y s 2083 236 m 11 X s
 2088 207 m -6 Y s 2083 201 m 11 X s 2183 106 m 6 Y s 2178 112 m 11 X s 2183 83 m -5 Y s 2178 78 m 11 X s 1 0 0 c 9 lw 0.95 0.95 0.95 c black 1 0 0 c 1900 259 m 3 -1 d 18 X 3 -1 d 6 X 3 -1 d 3 X 3 -1 d 3 X 4 -1 d 3 X 3 -1 d 3 X 3 -1 d 3 -1 d 3 -1 d 3
 X 3 -1 d 3 -1 d 3 -1 d 3 -1 d 3 -1 d 3 -1 d 3 -1 d 3 -1 d 4 -1 d 3 -1 d 3 -1 d 3 -1 d 3 -1 d 3 -2 d 3 -1 d 3 -1 d 3 -2 d 3 -1 d 3 -2 d 3 -1 d 3 -2 d 3 -1 d 3 -2 d 3 -1 d 3 -2 d 4 -2 d 3 -1 d s 2050 216 m 3 -2 d 3 -2 d 3 -2 d 3 -1 d 3 -2 d 3 -2 d 3
 -2 d 3 -2 d 3 -2 d 3 -2 d 3 -2 d 3 -3 d 3 -2 d 3 -2 d 4 -2 d 3 -2 d 3 -3 d 3 -2 d 3 -2 d 3 -3 d 3 -2 d 3 -3 d 3 -2 d 3 -3 d 3 -2 d 3 -3 d 3 -3 d 3 -2 d 3 -3 d 3 -3 d 4 -3 d 3 -2 d 3 -3 d 3 -3 d 3 -3 d 3 -3 d 3 -3 d 3 -3 d 3 -3 d 3 -3 d 3 -3 d 3 -4 d
 3 -3 d 3 -3 d 3 -3 d 3 -4 d 4 -3 d 3 -3 d 3 -4 d s 2200 89 m 3 -3 d s 0.49 0.6 0.82 c black 0.49 0.6 0.82 c
 gsave  408 306 1837 13 C 1948.64 296.285 t 0 r /Helvetica-Bold findfont 25.6831 sf 0 0 m (9.5 < E < 10.0 GeV) show NC gr  0.52 0.76 0.64 c black 0.52 0.76 0.64 c
 gsave  408 306 1837 13 C 1937.25 259.249 t 0 r /Helvetica-Bold findfont 25.6831 sf 0 0 m 
 228 214 200 193 178 171 156 149 133 126 119 105 91 77 69 55 47 39 25 17
(A = \2550.010, p = 2.000) K NC gr  1 0.6 1 c black 1 0.6 1 c
 gsave  408 306 1837 13 C 2242.08 128.2 t 90 r /Helvetica-Bold findfont 28.5368 sf 0 0 m (/dof=1.6) show NC gr  black 1 0.6 1 c
 gsave  408 306 1837 13 C 2230.68 116.804 t 90 r /Helvetica-Bold findfont 19.9758 sf 0 0 m (2) show NC gr  black 1 0.6 1 c
 gsave  408 306 1837 13 C 2242.08 99.7112 t 90 r /Symbol findfont 28.5368 sf 0 0 m (c) show NC gr 
 gr  gr showpage
end
%%EOF
