%!PS-Adobe-2.0 EPSF-2.0
%%BoundingBox:  0 0 567 332
%%Title: SkinDepthIC__nof_fits.eps: Fits
%%Creator: ROOT Version 5.30/06
%%CreationDate: Sun Feb  2 09:31:43 2014
%%EndComments
%%BeginProlog
80 dict begin
/s {stroke} def /l {lineto} def /m {moveto} def /t {translate} def
/r {rotate} def /rl {roll}  def /R {repeat} def
/d {rlineto} def /rm {rmoveto} def /gr {grestore} def /f {eofill} def
/c {setrgbcolor} def /black {0 setgray} def /sd {setdash} def
/cl {closepath} def /sf {scalefont setfont} def /lw {setlinewidth} def
/box {m dup 0 exch d exch 0 d 0 exch neg d cl} def
/NC{systemdict begin initclip end}def/C{NC box clip newpath}def
/bl {box s} def /bf {box f} def /Y { 0 exch d} def /X { 0 d} def 
/K {{pop pop 0 moveto} exch kshow} bind def
/ita {/ang 15 def gsave [1 0 ang dup sin exch cos div 1 0 0] concat} def 
/mp {newpath /y exch def /x exch def} def
/side {[w .77 mul w .23 mul] .385 w mul sd w 0 l currentpoint t -144 r} def
/mr {mp x y w2 0 360 arc} def /m24 {mr s} def /m20 {mr f} def
/mb {mp x y w2 add m w2 neg 0 d 0 w neg d w 0 d 0 w d cl} def
/mt {mp x y w2 add m w2 neg w neg d w 0 d cl} def
/m21 {mb f} def /m25 {mb s} def /m22 {mt f} def /m26{mt s} def
/m23 {mp x y w2 sub m w2 w d w neg 0 d cl f} def
/m27 {mp x y w2 add m w3 neg w2 neg d w3 w2 neg d w3 w2 d cl s} def
/m28 {mp x w2 sub y w2 sub w3 add m w3 0 d  0 w3 neg d w3 0 d 0 w3 d w3 0 d  0 w3 d w3 neg 0 d 0 w3 d w3 neg 0 d 0 w3 neg d w3 neg 0 d cl s } def
/m29 {mp gsave x w2 sub y w2 add w3 sub m currentpoint t 4 {side} repeat cl fill gr} def
/m30 {mp gsave x w2 sub y w2 add w3 sub m currentpoint t 4 {side} repeat cl s gr} def
/m31 {mp x y w2 sub m 0 w d x w2 sub y m w 0 d x w2 sub y w2 add m w w neg d x w2 sub y w2 sub m w w d s} def
/m32 {mp x y w2 sub m w2 w d w neg 0 d cl s} def
/m33 {mp x y w2 add m w3 neg w2 neg d w3 w2 neg d w3 w2 d cl f} def
/m34 {mp x w2 sub y w2 sub w3 add m w3 0 d  0 w3 neg d w3 0 d 0 w3 d w3 0 d  0 w3 d w3 neg 0 d 0 w3 d w3 neg 0 d 0 w3 neg d w3 neg 0 d cl f } def
/m2 {mp x y w2 sub m 0 w d x w2 sub y m w 0 d s} def
/m5 {mp x w2 sub y w2 sub m w w d x w2 sub y w2 add m w w neg d s} def
/reEncode {exch findfont dup length dict begin {1 index /FID eq  {pop pop} {def} ifelse } forall /Encoding exch def currentdict end dup /FontName get exch definefont pop } def [/Times-Bold /Times-Italic /Times-BoldItalic /Helvetica /Helvetica-Oblique
 /Helvetica-Bold /Helvetica-BoldOblique /Courier /Courier-Oblique /Courier-Bold /Courier-BoldOblique /Times-Roman /AvantGarde-Book /AvantGarde-BookOblique /AvantGarde-Demi /AvantGarde-DemiOblique /Bookman-Demi /Bookman-DemiItalic /Bookman-Light
 /Bookman-LightItalic /Helvetica-Narrow /Helvetica-Narrow-Bold /Helvetica-Narrow-BoldOblique /Helvetica-Narrow-Oblique /NewCenturySchlbk-Roman /NewCenturySchlbk-Bold /NewCenturySchlbk-BoldItalic /NewCenturySchlbk-Italic /Palatino-Bold
 /Palatino-BoldItalic /Palatino-Italic /Palatino-Roman ] {ISOLatin1Encoding reEncode } forall%%EndProlog
%%BeginSetup
%%EndSetup
newpath  gsave  .25 .25 scale  gsave  0 0 t black[  ] 0 sd 3 lw 1 1 1 c 2268 1328 0 0 bf black 1 1 1 c 408 305 23 1009 bf black 1 1 1 c black 306 229 84 1055 bl 306 229 84 1055 bl 84 1055 m 306 X s 158 1059 m -4 Y s 235 1059 m -4 Y s 313 1059 m -4 Y
 s 390 1059 m -4 Y s 158 1059 m -4 Y s
 gsave  408 305 23 1009 C 145.293 1034.15 t 0 r /Helvetica findfont 22.8295 sf 0 0 m (\2556) show NC gr 
 gsave  408 305 23 1009 C 222.213 1034.15 t 0 r /Helvetica findfont 22.8295 sf 0 0 m (\2554) show NC gr 
 gsave  408 305 23 1009 C 299.133 1034.15 t 0 r /Helvetica findfont 22.8295 sf 0 0 m (\2552) show NC gr 
 gsave  408 305 23 1009 C 378.902 1034.15 t 0 r /Helvetica findfont 22.8295 sf 0 0 m (0) show NC gr  84 1284 m 306 X s 158 1280 m 4 Y s 235 1280 m 4 Y s 313 1280 m 4 Y s 390 1280 m 4 Y s 158 1280 m 4 Y s 84 1055 m 229 Y s 89 1090 m -5 X s 87 1102 m
 -3 X s 87 1113 m -3 X s 87 1124 m -3 X s 89 1136 m -5 X s 87 1147 m -3 X s 87 1158 m -3 X s 87 1170 m -3 X s 89 1181 m -5 X s 87 1193 m -3 X s 87 1204 m -3 X s 87 1215 m -3 X s 89 1227 m -5 X s 87 1238 m -3 X s 87 1249 m -3 X s 87 1261 m -3 X s 89
 1272 m -5 X s 89 1090 m -5 X s 87 1079 m -3 X s 87 1068 m -3 X s 87 1056 m -3 X s 89 1272 m -5 X s 87 1283 m -3 X s
 gsave  408 305 23 1009 C 14.2445 1082.58 t 0 r /Helvetica findfont 22.8295 sf 0 0 m (\2550.004) show NC gr 
 gsave  408 305 23 1009 C 14.2445 1128.16 t 0 r /Helvetica findfont 22.8295 sf 0 0 m (\2550.002) show NC gr 
 gsave  408 305 23 1009 C 65.5245 1173.74 t 0 r /Helvetica findfont 22.8295 sf 0 0 m (0) show NC gr 
 gsave  408 305 23 1009 C 22.7911 1219.32 t 0 r /Helvetica findfont 22.8295 sf 0 0 m (0.002) show NC gr 
 gsave  408 305 23 1009 C 22.7911 1264.91 t 0 r /Helvetica findfont 22.8295 sf 0 0 m (0.004) show NC gr  390 1055 m 229 Y s 385 1090 m 5 X s 387 1102 m 3 X s 387 1113 m 3 X s 387 1124 m 3 X s 385 1136 m 5 X s 387 1147 m 3 X s 387 1158 m 3 X s 387
 1170 m 3 X s 385 1181 m 5 X s 387 1193 m 3 X s 387 1204 m 3 X s 387 1215 m 3 X s 385 1227 m 5 X s 387 1238 m 3 X s 387 1249 m 3 X s 387 1261 m 3 X s 385 1272 m 5 X s 385 1090 m 5 X s 387 1079 m 3 X s 387 1068 m 3 X s 387 1056 m 3 X s 385 1272 m 5 X
 s 387 1283 m 3 X s /w 22 def /w2 {w 2 div} def /w3 {w 3 div} def 100 1207 138 1191 177 1132 216 1164 258 1167 5 { m21} R 100 1218 m 47 Y s 94 1265 m 11 X s 100 1195 m -46 Y s 94 1149 m 11 X s 138 1203 m 46 Y s 133 1249 m 11 X s 138 1180 m -46 Y s
 133 1134 m 11 X s 177 1143 m 47 Y s 171 1190 m 12 X s 177 1120 m -46 Y s 171 1074 m 12 X s 216 1176 m 46 Y s 210 1222 m 12 X s 216 1153 m -46 Y s 210 1107 m 12 X s 258 1178 m 47 Y s 253 1225 m 11 X s 258 1155 m -46 Y s 253 1109 m 11 X s 9 lw 0.95
 0.95 0.95 c black 85 1174 m 13 X 3 1 d 40 X 3 1 d 39 X 3 1 d 40 X 3 1 d 6 X s 235 1178 m 34 X 3 1 d 43 X 3 1 d 40 X 3 1 d 24 X s 385 1181 m 4 X s 0.49 0.6 0.82 c black 0.49 0.6 0.82 c
 gsave  408 305 23 1009 C 142.445 1293.4 t 0 r /Helvetica-Bold findfont 25.6831 sf 0 0 m (0.0 < E < 0.5 GeV) show NC gr  0.52 0.76 0.64 c black 0.52 0.76 0.64 c
 gsave  408 305 23 1009 C 128.2 1256.36 t 0 r /Helvetica-Bold findfont 25.6831 sf 0 0 m 
 220 206 192 185 170 163 148 141 125 118 111 97 83 69 61 47 40 25 18
(A = 0.000, p = 1.000) K NC gr  1 0.6 1 c black 1 0.6 1 c
 gsave  408 305 23 1009 C 427.334 1122.46 t 90 r /Helvetica-Bold findfont 28.5368 sf 0 0 m (/dof=0.3) show NC gr  black 1 0.6 1 c
 gsave  408 305 23 1009 C 415.938 1111.07 t 90 r /Helvetica-Bold findfont 19.9758 sf 0 0 m (2) show NC gr  black 1 0.6 1 c
 gsave  408 305 23 1009 C 427.334 1093.97 t 90 r /Symbol findfont 28.5368 sf 0 0 m (c) show NC gr  black 3 lw 1 1 1 c 408 305 476 1009 bf black 1 1 1 c black 307 229 537 1055 bl 307 229 537 1055 bl 537 1055 m 307 X s 611 1059 m -4 Y s 689 1059 m -4 Y
 s 766 1059 m -4 Y s 844 1059 m -4 Y s 611 1059 m -4 Y s
 gsave  408 305 476 1009 C 598.267 1034.15 t 0 r /Helvetica findfont 22.8295 sf 0 0 m (\2556) show NC gr 
 gsave  408 305 476 1009 C 675.187 1034.15 t 0 r /Helvetica findfont 22.8295 sf 0 0 m (\2554) show NC gr 
 gsave  408 305 476 1009 C 752.107 1034.15 t 0 r /Helvetica findfont 22.8295 sf 0 0 m (\2552) show NC gr 
 gsave  408 305 476 1009 C 834.725 1034.15 t 0 r /Helvetica findfont 22.8295 sf 0 0 m (0) show NC gr  537 1284 m 307 X s 611 1280 m 4 Y s 689 1280 m 4 Y s 766 1280 m 4 Y s 844 1280 m 4 Y s 611 1280 m 4 Y s 537 1055 m 229 Y s 543 1075 m -6 X s 540
 1080 m -3 X s 540 1085 m -3 X s 540 1090 m -3 X s 540 1094 m -3 X s 543 1099 m -6 X s 540 1104 m -3 X s 540 1109 m -3 X s 540 1114 m -3 X s 540 1118 m -3 X s 543 1123 m -6 X s 540 1128 m -3 X s 540 1133 m -3 X s 540 1138 m -3 X s 540 1142 m -3 X s
 543 1147 m -6 X s 540 1152 m -3 X s 540 1157 m -3 X s 540 1162 m -3 X s 540 1166 m -3 X s 543 1171 m -6 X s 540 1176 m -3 X s 540 1181 m -3 X s 540 1185 m -3 X s 540 1190 m -3 X s 543 1195 m -6 X s 540 1200 m -3 X s 540 1205 m -3 X s 540 1209 m -3 X
 s 540 1214 m -3 X s 543 1219 m -6 X s 540 1224 m -3 X s 540 1229 m -3 X s 540 1233 m -3 X s 540 1238 m -3 X s 543 1243 m -6 X s 540 1248 m -3 X s 540 1252 m -3 X s 540 1257 m -3 X s 540 1262 m -3 X s 543 1267 m -6 X s 543 1075 m -6 X s 540 1071 m -3
 X s 540 1066 m -3 X s 540 1061 m -3 X s 540 1056 m -3 X s 543 1267 m -6 X s 540 1272 m -3 X s 540 1276 m -3 X s 540 1281 m -3 X s
 gsave  408 305 476 1009 C 467.218 1068.33 t 0 r /Helvetica findfont 22.8295 sf 0 0 m (\2550.004) show NC gr 
 gsave  408 305 476 1009 C 467.218 1091.12 t 0 r /Helvetica findfont 22.8295 sf 0 0 m (\2550.003) show NC gr 
 gsave  408 305 476 1009 C 467.218 1116.76 t 0 r /Helvetica findfont 22.8295 sf 0 0 m (\2550.002) show NC gr 
 gsave  408 305 476 1009 C 470.067 1139.56 t 0 r /Helvetica findfont 22.8295 sf 0 0 m (\2550.001) show NC gr 
 gsave  408 305 476 1009 C 518.498 1165.2 t 0 r /Helvetica findfont 22.8295 sf 0 0 m (0) show NC gr 
 gsave  408 305 476 1009 C 478.614 1187.99 t 0 r /Helvetica findfont 22.8295 sf 0 0 m (0.001) show NC gr 
 gsave  408 305 476 1009 C 475.765 1210.78 t 0 r /Helvetica findfont 22.8295 sf 0 0 m (0.002) show NC gr 
 gsave  408 305 476 1009 C 475.765 1236.42 t 0 r /Helvetica findfont 22.8295 sf 0 0 m (0.003) show NC gr 
 gsave  408 305 476 1009 C 475.765 1259.21 t 0 r /Helvetica findfont 22.8295 sf 0 0 m (0.004) show NC gr  844 1055 m 229 Y s 838 1075 m 6 X s 841 1080 m 3 X s 841 1085 m 3 X s 841 1090 m 3 X s 841 1094 m 3 X s 838 1099 m 6 X s 841 1104 m 3 X s 841
 1109 m 3 X s 841 1114 m 3 X s 841 1118 m 3 X s 838 1123 m 6 X s 841 1128 m 3 X s 841 1133 m 3 X s 841 1138 m 3 X s 841 1142 m 3 X s 838 1147 m 6 X s 841 1152 m 3 X s 841 1157 m 3 X s 841 1162 m 3 X s 841 1166 m 3 X s 838 1171 m 6 X s 841 1176 m 3 X
 s 841 1181 m 3 X s 841 1185 m 3 X s 841 1190 m 3 X s 838 1195 m 6 X s 841 1200 m 3 X s 841 1205 m 3 X s 841 1209 m 3 X s 841 1214 m 3 X s 838 1219 m 6 X s 841 1224 m 3 X s 841 1229 m 3 X s 841 1233 m 3 X s 841 1238 m 3 X s 838 1243 m 6 X s 841 1248
 m 3 X s 841 1252 m 3 X s 841 1257 m 3 X s 841 1262 m 3 X s 838 1267 m 6 X s 838 1075 m 6 X s 841 1071 m 3 X s 841 1066 m 3 X s 841 1061 m 3 X s 841 1056 m 3 X s 838 1267 m 6 X s 841 1272 m 3 X s 841 1276 m 3 X s 841 1281 m 3 X s /w 23 def /w2 {w 2
 div} def /w3 {w 3 div} def 553 1180 592 1151 631 1147 669 1191 712 1147 5 { m21} R 553 1191 m 63 Y s 548 1254 m 11 X s 553 1169 m -63 Y s 548 1106 m 11 X s 592 1162 m 63 Y s 586 1225 m 12 X s 592 1140 m -63 Y s 586 1077 m 12 X s 631 1159 m 62 Y s
 625 1221 m 11 X s 631 1136 m -62 Y s 625 1074 m 11 X s 669 1202 m 63 Y s 664 1265 m 11 X s 669 1179 m -62 Y s 664 1117 m 11 X s 712 1159 m 62 Y s 706 1221 m 12 X s 712 1136 m -62 Y s 706 1074 m 12 X s 9 lw 0.95 0.95 0.95 c black 539 1162 m 18 X 3 1
 d 31 X 3 1 d 31 X 3 1 d 30 X 3 1 d 28 X s 689 1166 m 3 X 3 1 d 28 X 3 1 d 30 X 3 1 d 31 X 3 1 d 31 X 3 1 d 12 X s 839 1171 m 3 X s 0.49 0.6 0.82 c black 0.49 0.6 0.82 c
 gsave  408 305 476 1009 C 595.418 1293.4 t 0 r /Helvetica-Bold findfont 25.6831 sf 0 0 m (0.5 < E < 1.0 GeV) show NC gr  0.52 0.76 0.64 c black 0.52 0.76 0.64 c
 gsave  408 305 476 1009 C 581.174 1256.36 t 0 r /Helvetica-Bold findfont 25.6831 sf 0 0 m 
 220 206 192 185 170 163 148 141 126 118 111 97 83 69 61 47 40 25 18
(A = 0.000, p = 1.000) K NC gr  1 0.6 1 c black 1 0.6 1 c
 gsave  408 305 476 1009 C 883.156 1122.46 t 90 r /Helvetica-Bold findfont 28.5368 sf 0 0 m (/dof=0.1) show NC gr  black 1 0.6 1 c
 gsave  408 305 476 1009 C 871.76 1111.07 t 90 r /Helvetica-Bold findfont 19.9758 sf 0 0 m (2) show NC gr  black 1 0.6 1 c
 gsave  408 305 476 1009 C 883.156 1093.97 t 90 r /Symbol findfont 28.5368 sf 0 0 m (c) show NC gr  black 3 lw 1 1 1 c 408 305 930 1009 bf black 1 1 1 c black 306 229 991 1055 bl 306 229 991 1055 bl 991 1055 m 306 X s 1065 1059 m -4 Y s 1142 1059 m
 -4 Y s 1220 1059 m -4 Y s 1297 1059 m -4 Y s 1065 1059 m -4 Y s
 gsave  408 305 930 1009 C 1051.24 1034.15 t 0 r /Helvetica findfont 22.8295 sf 0 0 m (\2556) show NC gr 
 gsave  408 305 930 1009 C 1128.16 1034.15 t 0 r /Helvetica findfont 22.8295 sf 0 0 m (\2554) show NC gr 
 gsave  408 305 930 1009 C 1207.93 1034.15 t 0 r /Helvetica findfont 22.8295 sf 0 0 m (\2552) show NC gr 
 gsave  408 305 930 1009 C 1287.7 1034.15 t 0 r /Helvetica findfont 22.8295 sf 0 0 m (0) show NC gr  991 1284 m 306 X s 1065 1280 m 4 Y s 1142 1280 m 4 Y s 1220 1280 m 4 Y s 1297 1280 m 4 Y s 1065 1280 m 4 Y s 991 1055 m 229 Y s 997 1061 m -6 X s 994
 1066 m -3 X s 994 1071 m -3 X s 994 1075 m -3 X s 994 1080 m -3 X s 997 1085 m -6 X s 994 1089 m -3 X s 994 1094 m -3 X s 994 1099 m -3 X s 994 1103 m -3 X s 997 1108 m -6 X s 994 1113 m -3 X s 994 1117 m -3 X s 994 1122 m -3 X s 994 1127 m -3 X s
 997 1131 m -6 X s 994 1136 m -3 X s 994 1141 m -3 X s 994 1145 m -3 X s 994 1150 m -3 X s 997 1155 m -6 X s 994 1159 m -3 X s 994 1164 m -3 X s 994 1169 m -3 X s 994 1173 m -3 X s 997 1178 m -6 X s 994 1183 m -3 X s 994 1187 m -3 X s 994 1192 m -3 X
 s 994 1197 m -3 X s 997 1201 m -6 X s 994 1206 m -3 X s 994 1211 m -3 X s 994 1215 m -3 X s 994 1220 m -3 X s 997 1225 m -6 X s 994 1229 m -3 X s 994 1234 m -3 X s 994 1239 m -3 X s 994 1243 m -3 X s 997 1248 m -6 X s 994 1253 m -3 X s 994 1257 m -3
 X s 994 1262 m -3 X s 994 1267 m -3 X s 997 1271 m -6 X s 997 1061 m -6 X s 994 1057 m -3 X s 997 1271 m -6 X s 994 1276 m -3 X s 994 1281 m -3 X s
 gsave  408 305 930 1009 C 923.04 1054.09 t 0 r /Helvetica findfont 22.8295 sf 0 0 m (\2550.005) show NC gr 
 gsave  408 305 930 1009 C 923.04 1076.88 t 0 r /Helvetica findfont 22.8295 sf 0 0 m (\2550.004) show NC gr 
 gsave  408 305 930 1009 C 923.04 1099.67 t 0 r /Helvetica findfont 22.8295 sf 0 0 m (\2550.003) show NC gr 
 gsave  408 305 930 1009 C 923.04 1125.31 t 0 r /Helvetica findfont 22.8295 sf 0 0 m (\2550.002) show NC gr 
 gsave  408 305 930 1009 C 925.889 1148.1 t 0 r /Helvetica findfont 22.8295 sf 0 0 m (\2550.001) show NC gr 
 gsave  408 305 930 1009 C 974.32 1170.89 t 0 r /Helvetica findfont 22.8295 sf 0 0 m (0) show NC gr 
 gsave  408 305 930 1009 C 934.436 1193.68 t 0 r /Helvetica findfont 22.8295 sf 0 0 m (0.001) show NC gr 
 gsave  408 305 930 1009 C 931.587 1216.48 t 0 r /Helvetica findfont 22.8295 sf 0 0 m (0.002) show NC gr 
 gsave  408 305 930 1009 C 931.587 1242.12 t 0 r /Helvetica findfont 22.8295 sf 0 0 m (0.003) show NC gr 
 gsave  408 305 930 1009 C 931.587 1264.91 t 0 r /Helvetica findfont 22.8295 sf 0 0 m (0.004) show NC gr  1297 1055 m 229 Y s 1292 1061 m 5 X s 1294 1066 m 3 X s 1294 1071 m 3 X s 1294 1075 m 3 X s 1294 1080 m 3 X s 1292 1085 m 5 X s 1294 1089 m 3 X
 s 1294 1094 m 3 X s 1294 1099 m 3 X s 1294 1103 m 3 X s 1292 1108 m 5 X s 1294 1113 m 3 X s 1294 1117 m 3 X s 1294 1122 m 3 X s 1294 1127 m 3 X s 1292 1131 m 5 X s 1294 1136 m 3 X s 1294 1141 m 3 X s 1294 1145 m 3 X s 1294 1150 m 3 X s 1292 1155 m 5
 X s 1294 1159 m 3 X s 1294 1164 m 3 X s 1294 1169 m 3 X s 1294 1173 m 3 X s 1292 1178 m 5 X s 1294 1183 m 3 X s 1294 1187 m 3 X s 1294 1192 m 3 X s 1294 1197 m 3 X s 1292 1201 m 5 X s 1294 1206 m 3 X s 1294 1211 m 3 X s 1294 1215 m 3 X s 1294 1220 m
 3 X s 1292 1225 m 5 X s 1294 1229 m 3 X s 1294 1234 m 3 X s 1294 1239 m 3 X s 1294 1243 m 3 X s 1292 1248 m 5 X s 1294 1253 m 3 X s 1294 1257 m 3 X s 1294 1262 m 3 X s 1294 1267 m 3 X s 1292 1271 m 5 X s 1292 1061 m 5 X s 1294 1057 m 3 X s 1292 1271
 m 5 X s 1294 1276 m 3 X s 1294 1281 m 3 X s 1007 1161 1046 1145 1084 1160 1123 1193 1166 1166 5 { m21} R 1007 1172 m 60 Y s 1001 1232 m 12 X s 1007 1149 m -60 Y s 1001 1089 m 12 X s 1046 1156 m 60 Y s 1040 1216 m 11 X s 1046 1134 m -60 Y s 1040 1074
 m 11 X s 1084 1171 m 60 Y s 1079 1231 m 11 X s 1084 1149 m -60 Y s 1079 1089 m 11 X s 1123 1205 m 60 Y s 1117 1265 m 12 X s 1123 1182 m -60 Y s 1117 1122 m 12 X s 1166 1177 m 61 Y s 1160 1238 m 11 X s 1166 1155 m -60 Y s 1160 1095 m 11 X s 1 0 0 c 9
 lw 0.95 0.95 0.95 c black 1 0 0 c 993 1151 m 3 1 d 3 X 3 1 d 3 X 3 1 d 3 X 3 1 d 3 X 3 1 d 3 X 3 1 d 3 X 3 1 d 3 X 3 1 d 4 X 3 1 d 3 X 3 1 d 6 X 3 1 d 3 X 3 1 d 6 X 3 1 d 3 X 3 1 d 6 X 3 1 d 7 X 3 1 d 6 X 3 1 d 6 X 3 1 d 6 X 3 1 d 6 X 3 1 d 7 X s
 1143 1171 m 3 X 3 1 d 9 X 3 1 d 9 X 3 1 d 12 X 3 1 d 16 X 3 1 d 18 X 3 1 d 28 X 3 1 d 34 X s 1293 1178 m 3 X s 0.49 0.6 0.82 c black 0.49 0.6 0.82 c
 gsave  408 305 930 1009 C 1051.24 1293.4 t 0 r /Helvetica-Bold findfont 25.6831 sf 0 0 m (1.0 < E < 1.5 GeV) show NC gr  0.52 0.76 0.64 c black 0.52 0.76 0.64 c
 gsave  408 305 930 1009 C 1031.3 1256.36 t 0 r /Helvetica-Bold findfont 25.6831 sf 0 0 m 
 228 214 200 193 178 171 156 149 133 126 119 105 91 77 69 55 47 39 25 17
(A = \2550.000, p = 2.000) K NC gr  1 0.6 1 c black 1 0.6 1 c
 gsave  408 305 930 1009 C 1336.13 1122.46 t 90 r /Helvetica-Bold findfont 28.5368 sf 0 0 m (/dof=0.0) show NC gr  black 1 0.6 1 c
 gsave  408 305 930 1009 C 1324.73 1111.07 t 90 r /Helvetica-Bold findfont 19.9758 sf 0 0 m (2) show NC gr  black 1 0.6 1 c
 gsave  408 305 930 1009 C 1336.13 1093.97 t 90 r /Symbol findfont 28.5368 sf 0 0 m (c) show NC gr  black 3 lw 1 1 1 c 408 305 1383 1009 bf black 1 1 1 c black 306 229 1445 1055 bl 306 229 1445 1055 bl 1445 1055 m 306 X s 1518 1059 m -4 Y s 1596 1059
 m -4 Y s 1673 1059 m -4 Y s 1751 1059 m -4 Y s 1518 1059 m -4 Y s
 gsave  408 305 1383 1009 C 1507.06 1034.15 t 0 r /Helvetica findfont 22.8295 sf 0 0 m (\2556) show NC gr 
 gsave  408 305 1383 1009 C 1583.98 1034.15 t 0 r /Helvetica findfont 22.8295 sf 0 0 m (\2554) show NC gr 
 gsave  408 305 1383 1009 C 1660.9 1034.15 t 0 r /Helvetica findfont 22.8295 sf 0 0 m (\2552) show NC gr 
 gsave  408 305 1383 1009 C 1740.67 1034.15 t 0 r /Helvetica findfont 22.8295 sf 0 0 m (0) show NC gr  1445 1284 m 306 X s 1518 1280 m 4 Y s 1596 1280 m 4 Y s 1673 1280 m 4 Y s 1751 1280 m 4 Y s 1518 1280 m 4 Y s 1445 1055 m 229 Y s 1450 1073 m -5 X
 s 1447 1078 m -2 X s 1447 1083 m -2 X s 1447 1088 m -2 X s 1447 1093 m -2 X s 1450 1098 m -5 X s 1447 1103 m -2 X s 1447 1108 m -2 X s 1447 1114 m -2 X s 1447 1119 m -2 X s 1450 1124 m -5 X s 1447 1129 m -2 X s 1447 1134 m -2 X s 1447 1139 m -2 X s
 1447 1144 m -2 X s 1450 1149 m -5 X s 1447 1154 m -2 X s 1447 1159 m -2 X s 1447 1164 m -2 X s 1447 1169 m -2 X s 1450 1174 m -5 X s 1447 1179 m -2 X s 1447 1184 m -2 X s 1447 1189 m -2 X s 1447 1194 m -2 X s 1450 1199 m -5 X s 1447 1204 m -2 X s
 1447 1209 m -2 X s 1447 1215 m -2 X s 1447 1220 m -2 X s 1450 1225 m -5 X s 1447 1230 m -2 X s 1447 1235 m -2 X s 1447 1240 m -2 X s 1447 1245 m -2 X s 1450 1250 m -5 X s 1447 1255 m -2 X s 1447 1260 m -2 X s 1447 1265 m -2 X s 1447 1270 m -2 X s
 1450 1275 m -5 X s 1450 1073 m -5 X s 1447 1068 m -2 X s 1447 1063 m -2 X s 1447 1058 m -2 X s 1450 1275 m -5 X s 1447 1280 m -2 X s
 gsave  408 305 1383 1009 C 1376.01 1065.48 t 0 r /Helvetica findfont 22.8295 sf 0 0 m (\2550.003) show NC gr 
 gsave  408 305 1383 1009 C 1376.01 1091.12 t 0 r /Helvetica findfont 22.8295 sf 0 0 m (\2550.002) show NC gr 
 gsave  408 305 1383 1009 C 1378.86 1116.76 t 0 r /Helvetica findfont 22.8295 sf 0 0 m (\2550.001) show NC gr 
 gsave  408 305 1383 1009 C 1427.29 1142.4 t 0 r /Helvetica findfont 22.8295 sf 0 0 m (0) show NC gr 
 gsave  408 305 1383 1009 C 1387.41 1168.04 t 0 r /Helvetica findfont 22.8295 sf 0 0 m (0.001) show NC gr 
 gsave  408 305 1383 1009 C 1384.56 1190.84 t 0 r /Helvetica findfont 22.8295 sf 0 0 m (0.002) show NC gr 
 gsave  408 305 1383 1009 C 1384.56 1216.48 t 0 r /Helvetica findfont 22.8295 sf 0 0 m (0.003) show NC gr 
 gsave  408 305 1383 1009 C 1384.56 1242.12 t 0 r /Helvetica findfont 22.8295 sf 0 0 m (0.004) show NC gr 
 gsave  408 305 1383 1009 C 1384.56 1267.76 t 0 r /Helvetica findfont 22.8295 sf 0 0 m (0.005) show NC gr  1751 1055 m 229 Y s 1745 1073 m 6 X s 1748 1078 m 3 X s 1748 1083 m 3 X s 1748 1088 m 3 X s 1748 1093 m 3 X s 1745 1098 m 6 X s 1748 1103 m 3 X
 s 1748 1108 m 3 X s 1748 1114 m 3 X s 1748 1119 m 3 X s 1745 1124 m 6 X s 1748 1129 m 3 X s 1748 1134 m 3 X s 1748 1139 m 3 X s 1748 1144 m 3 X s 1745 1149 m 6 X s 1748 1154 m 3 X s 1748 1159 m 3 X s 1748 1164 m 3 X s 1748 1169 m 3 X s 1745 1174 m 6
 X s 1748 1179 m 3 X s 1748 1184 m 3 X s 1748 1189 m 3 X s 1748 1194 m 3 X s 1745 1199 m 6 X s 1748 1204 m 3 X s 1748 1209 m 3 X s 1748 1215 m 3 X s 1748 1220 m 3 X s 1745 1225 m 6 X s 1748 1230 m 3 X s 1748 1235 m 3 X s 1748 1240 m 3 X s 1748 1245 m
 3 X s 1745 1250 m 6 X s 1748 1255 m 3 X s 1748 1260 m 3 X s 1748 1265 m 3 X s 1748 1270 m 3 X s 1745 1275 m 6 X s 1745 1073 m 6 X s 1748 1068 m 3 X s 1748 1063 m 3 X s 1748 1058 m 3 X s 1745 1275 m 6 X s 1748 1280 m 3 X s 1460 1182 1499 1152 1538
 1186 1577 1165 1619 1176 5 { m21} R 1460 1193 m 68 Y s 1455 1261 m 11 X s 1460 1170 m -67 Y s 1455 1103 m 11 X s 1499 1164 m 67 Y s 1493 1231 m 12 X s 1499 1141 m -67 Y s 1493 1074 m 12 X s 1538 1198 m 67 Y s 1532 1265 m 12 X s 1538 1175 m -67 Y s
 1532 1108 m 12 X s 1577 1176 m 67 Y s 1571 1243 m 11 X s 1577 1153 m -67 Y s 1571 1086 m 11 X s 1619 1188 m 67 Y s 1613 1255 m 12 X s 1619 1165 m -67 Y s 1613 1098 m 12 X s 9 lw 0.95 0.95 0.95 c black 1446 1180 m 6 X 3 -1 d 6 X 3 -1 d 7 X 3 -1 d 6 X
 3 -1 d 6 X 3 -1 d 6 X 3 -1 d 9 X 3 -1 d 7 X 3 -1 d 6 X 3 -1 d 6 X 3 -1 d 6 X 3 -1 d 9 X 3 -1 d 7 X 3 -1 d 6 X 3 -1 d 6 X 3 -1 d 6 X s 1596 1165 m 3 -1 d 6 X 3 -1 d 10 X 3 -1 d 6 X 3 -1 d 6 X 3 -1 d 6 X 3 -1 d 6 X 3 -1 d 9 X 4 -1 d 6 X 3 -1 d 6 X 3
 -1 d 6 X 3 -1 d 6 X 3 -1 d 6 X 3 -1 d 10 X 3 -1 d 6 X 3 -1 d 6 X 3 -1 d s 1746 1149 m 3 X s 0.49 0.6 0.82 c black 0.49 0.6 0.82 c
 gsave  408 305 1383 1009 C 1504.21 1293.4 t 0 r /Helvetica-Bold findfont 25.6831 sf 0 0 m (1.5 < E < 2.0 GeV) show NC gr  0.52 0.76 0.64 c black 0.52 0.76 0.64 c
 gsave  408 305 1383 1009 C 1484.27 1256.36 t 0 r /Helvetica-Bold findfont 25.6831 sf 0 0 m 
 228 214 200 193 178 171 156 149 134 126 119 105 91 77 69 55 47 40 25 17
(A = \2550.000, p = 1.000) K NC gr  1 0.6 1 c black 1 0.6 1 c
 gsave  408 305 1383 1009 C 1789.1 1122.46 t 90 r /Helvetica-Bold findfont 28.5368 sf 0 0 m (/dof=0.0) show NC gr  black 1 0.6 1 c
 gsave  408 305 1383 1009 C 1777.71 1111.07 t 90 r /Helvetica-Bold findfont 19.9758 sf 0 0 m (2) show NC gr  black 1 0.6 1 c
 gsave  408 305 1383 1009 C 1789.1 1093.97 t 90 r /Symbol findfont 28.5368 sf 0 0 m (c) show NC gr  black 3 lw 1 1 1 c 408 305 1837 1009 bf black 1 1 1 c black 306 229 1898 1055 bl 306 229 1898 1055 bl 1898 1055 m 306 X s 1972 1059 m -4 Y s 2049 1059
 m -4 Y s 2127 1059 m -4 Y s 2204 1059 m -4 Y s 1972 1059 m -4 Y s
 gsave  408 305 1837 1009 C 1960.04 1034.15 t 0 r /Helvetica findfont 22.8295 sf 0 0 m (\2556) show NC gr 
 gsave  408 305 1837 1009 C 2036.96 1034.15 t 0 r /Helvetica findfont 22.8295 sf 0 0 m (\2554) show NC gr 
 gsave  408 305 1837 1009 C 2113.88 1034.15 t 0 r /Helvetica findfont 22.8295 sf 0 0 m (\2552) show NC gr 
 gsave  408 305 1837 1009 C 2193.65 1034.15 t 0 r /Helvetica findfont 22.8295 sf 0 0 m (0) show NC gr  1898 1284 m 306 X s 1972 1280 m 4 Y s 2049 1280 m 4 Y s 2127 1280 m 4 Y s 2204 1280 m 4 Y s 1972 1280 m 4 Y s 1898 1055 m 229 Y s 1904 1074 m -6 X
 s 1901 1084 m -3 X s 1901 1094 m -3 X s 1901 1104 m -3 X s 1904 1115 m -6 X s 1901 1125 m -3 X s 1901 1135 m -3 X s 1901 1145 m -3 X s 1904 1156 m -6 X s 1901 1166 m -3 X s 1901 1176 m -3 X s 1901 1186 m -3 X s 1904 1197 m -6 X s 1901 1207 m -3 X s
 1901 1217 m -3 X s 1901 1227 m -3 X s 1904 1238 m -6 X s 1901 1248 m -3 X s 1901 1258 m -3 X s 1901 1268 m -3 X s 1904 1278 m -6 X s 1904 1074 m -6 X s 1901 1063 m -3 X s 1904 1278 m -6 X s
 gsave  408 305 1837 1009 C 1828.99 1065.48 t 0 r /Helvetica findfont 22.8295 sf 0 0 m (\2550.006) show NC gr 
 gsave  408 305 1837 1009 C 1828.99 1108.22 t 0 r /Helvetica findfont 22.8295 sf 0 0 m (\2550.004) show NC gr 
 gsave  408 305 1837 1009 C 1828.99 1148.1 t 0 r /Helvetica findfont 22.8295 sf 0 0 m (\2550.002) show NC gr 
 gsave  408 305 1837 1009 C 1880.27 1187.99 t 0 r /Helvetica findfont 22.8295 sf 0 0 m (0) show NC gr 
 gsave  408 305 1837 1009 C 1837.53 1230.72 t 0 r /Helvetica findfont 22.8295 sf 0 0 m (0.002) show NC gr 
 gsave  408 305 1837 1009 C 1837.53 1270.6 t 0 r /Helvetica findfont 22.8295 sf 0 0 m (0.004) show NC gr  2204 1055 m 229 Y s 2199 1074 m 5 X s 2201 1084 m 3 X s 2201 1094 m 3 X s 2201 1104 m 3 X s 2199 1115 m 5 X s 2201 1125 m 3 X s 2201 1135 m 3 X
 s 2201 1145 m 3 X s 2199 1156 m 5 X s 2201 1166 m 3 X s 2201 1176 m 3 X s 2201 1186 m 3 X s 2199 1197 m 5 X s 2201 1207 m 3 X s 2201 1217 m 3 X s 2201 1227 m 3 X s 2199 1238 m 5 X s 2201 1248 m 3 X s 2201 1258 m 3 X s 2201 1268 m 3 X s 2199 1278 m 5
 X s 2199 1074 m 5 X s 2201 1063 m 3 X s 2199 1278 m 5 X s 1914 1163 1953 1192 1991 1141 2030 1198 2073 1176 5 { m21} R 1914 1175 m 55 Y s 1908 1230 m 12 X s 1914 1152 m -56 Y s 1908 1096 m 12 X s 1953 1204 m 55 Y s 1947 1259 m 11 X s 1953 1181 m -56
 Y s 1947 1125 m 11 X s 1991 1152 m 56 Y s 1986 1208 m 11 X s 1991 1129 m -55 Y s 1986 1074 m 11 X s 2030 1209 m 56 Y s 2024 1265 m 12 X s 2030 1186 m -55 Y s 2024 1131 m 12 X s 2073 1188 m 55 Y s 2067 1243 m 11 X s 2073 1165 m -55 Y s 2067 1110 m 11
 X s 9 lw 0.95 0.95 0.95 c black 1900 1165 m 6 X 3 1 d 6 X 3 1 d 6 X 3 1 d 6 X 3 1 d 6 X 4 1 d 6 X 3 1 d 9 X 3 1 d 6 X 3 1 d 6 X 3 1 d 6 X 4 1 d 6 X 3 1 d 6 X 3 1 d 6 X 3 1 d 9 X 3 1 d 6 X 3 1 d 7 X s 2050 1180 m 3 1 d 6 X 3 1 d 6 X 3 1 d 6 X 3 1 d 6
 X 3 1 d 7 X 3 1 d 9 X 3 1 d 6 X 3 1 d 6 X 3 1 d 6 X 3 1 d 7 X 3 1 d 6 X 3 1 d 6 X 3 1 d 9 X 3 1 d 6 X 3 1 d 7 X 3 1 d 3 X s 2200 1196 m 3 X s 0.49 0.6 0.82 c black 0.49 0.6 0.82 c
 gsave  408 305 1837 1009 C 1957.19 1293.4 t 0 r /Helvetica-Bold findfont 25.6831 sf 0 0 m (2.0 < E < 2.5 GeV) show NC gr  0.52 0.76 0.64 c black 0.52 0.76 0.64 c
 gsave  408 305 1837 1009 C 1942.94 1256.36 t 0 r /Helvetica-Bold findfont 25.6831 sf 0 0 m 
 220 206 192 185 170 163 148 141 125 118 111 97 83 69 61 47 40 25 18
(A = 0.000, p = 1.000) K NC gr  1 0.6 1 c black 1 0.6 1 c
 gsave  408 305 1837 1009 C 2242.08 1122.46 t 90 r /Helvetica-Bold findfont 28.5368 sf 0 0 m (/dof=0.1) show NC gr  black 1 0.6 1 c
 gsave  408 305 1837 1009 C 2230.68 1111.07 t 90 r /Helvetica-Bold findfont 19.9758 sf 0 0 m (2) show NC gr  black 1 0.6 1 c
 gsave  408 305 1837 1009 C 2242.08 1093.97 t 90 r /Symbol findfont 28.5368 sf 0 0 m (c) show NC gr  black 3 lw 1 1 1 c 408 305 23 677 bf black 1 1 1 c black 306 229 84 723 bl 306 229 84 723 bl 84 723 m 306 X s 158 727 m -4 Y s 235 727 m -4 Y s 313
 727 m -4 Y s 390 727 m -4 Y s 158 727 m -4 Y s
 gsave  408 305 23 677 C 145.293 703.676 t 0 r /Helvetica findfont 22.8295 sf 0 0 m (\2556) show NC gr 
 gsave  408 305 23 677 C 222.213 703.676 t 0 r /Helvetica findfont 22.8295 sf 0 0 m (\2554) show NC gr 
 gsave  408 305 23 677 C 299.133 703.676 t 0 r /Helvetica findfont 22.8295 sf 0 0 m (\2552) show NC gr 
 gsave  408 305 23 677 C 378.902 703.676 t 0 r /Helvetica findfont 22.8295 sf 0 0 m (0) show NC gr  84 952 m 306 X s 158 948 m 4 Y s 235 948 m 4 Y s 313 948 m 4 Y s 390 948 m 4 Y s 158 948 m 4 Y s 84 723 m 229 Y s 89 732 m -5 X s 87 742 m -3 X s 87
 753 m -3 X s 87 763 m -3 X s 89 774 m -5 X s 87 784 m -3 X s 87 795 m -3 X s 87 805 m -3 X s 89 816 m -5 X s 87 826 m -3 X s 87 837 m -3 X s 87 847 m -3 X s 89 858 m -5 X s 87 868 m -3 X s 87 879 m -3 X s 87 889 m -3 X s 89 900 m -5 X s 87 910 m -3
 X s 87 921 m -3 X s 87 931 m -3 X s 89 942 m -5 X s 89 732 m -5 X s 89 942 m -5 X s
 gsave  408 305 23 677 C 14.2445 723.618 t 0 r /Helvetica findfont 22.8295 sf 0 0 m (\2550.006) show NC gr 
 gsave  408 305 23 677 C 14.2445 766.351 t 0 r /Helvetica findfont 22.8295 sf 0 0 m (\2550.004) show NC gr 
 gsave  408 305 23 677 C 14.2445 809.085 t 0 r /Helvetica findfont 22.8295 sf 0 0 m (\2550.002) show NC gr 
 gsave  408 305 23 677 C 65.5245 851.818 t 0 r /Helvetica findfont 22.8295 sf 0 0 m (0) show NC gr 
 gsave  408 305 23 677 C 22.7911 891.703 t 0 r /Helvetica findfont 22.8295 sf 0 0 m (0.002) show NC gr 
 gsave  408 305 23 677 C 22.7911 934.436 t 0 r /Helvetica findfont 22.8295 sf 0 0 m (0.004) show NC gr  390 723 m 229 Y s 385 732 m 5 X s 387 742 m 3 X s 387 753 m 3 X s 387 763 m 3 X s 385 774 m 5 X s 387 784 m 3 X s 387 795 m 3 X s 387 805 m 3 X s
 385 816 m 5 X s 387 826 m 3 X s 387 837 m 3 X s 387 847 m 3 X s 385 858 m 5 X s 387 868 m 3 X s 387 879 m 3 X s 387 889 m 3 X s 385 900 m 5 X s 387 910 m 3 X s 387 921 m 3 X s 387 931 m 3 X s 385 942 m 5 X s 385 732 m 5 X s 385 942 m 5 X s /w 22 def
 /w2 {w 2 div} def /w3 {w 3 div} def 100 838 138 848 177 858 216 816 258 826 5 { m21} R 100 850 m 63 Y s 94 913 m 11 X s 100 827 m -63 Y s 94 764 m 11 X s 138 859 m 63 Y s 133 922 m 11 X s 138 836 m -63 Y s 133 773 m 11 X s 177 869 m 64 Y s 171 933 m
 12 X s 177 846 m -63 Y s 171 783 m 12 X s 216 828 m 63 Y s 210 891 m 12 X s 216 805 m -63 Y s 210 742 m 12 X s 258 837 m 63 Y s 253 900 m 11 X s 258 814 m -63 Y s 253 751 m 11 X s 9 lw 0.95 0.95 0.95 c black 85 833 m 7 X 3 1 d 9 X 3 1 d 9 X 3 1 d 9
 X 3 1 d 10 X 3 1 d 9 X 3 1 d 9 X 3 1 d 9 X 3 1 d 10 X 3 1 d 9 X 3 1 d 9 X 3 1 d 9 X 3 1 d 6 X s 235 845 m 4 X 3 1 d 9 X 3 1 d 9 X 3 1 d 9 X 3 1 d 9 X 4 1 d 9 X 3 1 d 9 X 3 1 d 9 X 3 1 d 9 X 4 1 d 9 X 3 1 d 9 X 3 1 d 6 X 3 1 d 9 X 3 1 d s 385 858 m 4
 X s 0.49 0.6 0.82 c black 0.49 0.6 0.82 c
 gsave  408 305 23 677 C 142.445 960.076 t 0 r /Helvetica-Bold findfont 25.6831 sf 0 0 m (2.5 < E < 3.0 GeV) show NC gr  0.52 0.76 0.64 c black 0.52 0.76 0.64 c
 gsave  408 305 23 677 C 128.2 923.04 t 0 r /Helvetica-Bold findfont 25.6831 sf 0 0 m 
 220 206 192 185 170 163 148 141 125 118 111 97 83 69 61 47 40 25 18
(A = 0.000, p = 1.000) K NC gr  1 0.6 1 c black 1 0.6 1 c
 gsave  408 305 23 677 C 427.334 791.991 t 90 r /Helvetica-Bold findfont 28.5368 sf 0 0 m (/dof=0.1) show NC gr  black 1 0.6 1 c
 gsave  408 305 23 677 C 415.938 780.596 t 90 r /Helvetica-Bold findfont 19.9758 sf 0 0 m (2) show NC gr  black 1 0.6 1 c
 gsave  408 305 23 677 C 427.334 763.503 t 90 r /Symbol findfont 28.5368 sf 0 0 m (c) show NC gr  black 3 lw 1 1 1 c 408 305 476 677 bf black 1 1 1 c black 307 229 537 723 bl 307 229 537 723 bl 537 723 m 307 X s 611 727 m -4 Y s 689 727 m -4 Y s 766
 727 m -4 Y s 844 727 m -4 Y s 611 727 m -4 Y s
 gsave  408 305 476 677 C 598.267 703.676 t 0 r /Helvetica findfont 22.8295 sf 0 0 m (\2556) show NC gr 
 gsave  408 305 476 677 C 675.187 703.676 t 0 r /Helvetica findfont 22.8295 sf 0 0 m (\2554) show NC gr 
 gsave  408 305 476 677 C 752.107 703.676 t 0 r /Helvetica findfont 22.8295 sf 0 0 m (\2552) show NC gr 
 gsave  408 305 476 677 C 834.725 703.676 t 0 r /Helvetica findfont 22.8295 sf 0 0 m (0) show NC gr  537 952 m 307 X s 611 948 m 4 Y s 689 948 m 4 Y s 766 948 m 4 Y s 844 948 m 4 Y s 611 948 m 4 Y s 537 723 m 229 Y s 543 759 m -6 X s 540 767 m -3 X s
 540 775 m -3 X s 540 782 m -3 X s 540 790 m -3 X s 543 798 m -6 X s 540 806 m -3 X s 540 814 m -3 X s 540 822 m -3 X s 540 830 m -3 X s 543 838 m -6 X s 540 846 m -3 X s 540 854 m -3 X s 540 861 m -3 X s 540 869 m -3 X s 543 877 m -6 X s 540 885 m
 -3 X s 540 893 m -3 X s 540 901 m -3 X s 540 909 m -3 X s 543 917 m -6 X s 543 759 m -6 X s 540 751 m -3 X s 540 743 m -3 X s 540 735 m -3 X s 540 727 m -3 X s 543 917 m -6 X s 540 925 m -3 X s 540 933 m -3 X s 540 940 m -3 X s 540 948 m -3 X s
 gsave  408 305 476 677 C 484.311 752.107 t 0 r /Helvetica findfont 22.8295 sf 0 0 m (\2550.01) show NC gr 
 gsave  408 305 476 677 C 467.218 791.991 t 0 r /Helvetica findfont 22.8295 sf 0 0 m (\2550.005) show NC gr 
 gsave  408 305 476 677 C 518.498 831.876 t 0 r /Helvetica findfont 22.8295 sf 0 0 m (0) show NC gr 
 gsave  408 305 476 677 C 475.765 868.911 t 0 r /Helvetica findfont 22.8295 sf 0 0 m (0.005) show NC gr 
 gsave  408 305 476 677 C 490.009 908.796 t 0 r /Helvetica findfont 22.8295 sf 0 0 m (0.01) show NC gr  844 723 m 229 Y s 838 759 m 6 X s 841 767 m 3 X s 841 775 m 3 X s 841 782 m 3 X s 841 790 m 3 X s 838 798 m 6 X s 841 806 m 3 X s 841 814 m 3 X s
 841 822 m 3 X s 841 830 m 3 X s 838 838 m 6 X s 841 846 m 3 X s 841 854 m 3 X s 841 861 m 3 X s 841 869 m 3 X s 838 877 m 6 X s 841 885 m 3 X s 841 893 m 3 X s 841 901 m 3 X s 841 909 m 3 X s 838 917 m 6 X s 838 759 m 6 X s 841 751 m 3 X s 841 743 m
 3 X s 841 735 m 3 X s 841 727 m 3 X s 838 917 m 6 X s 841 925 m 3 X s 841 933 m 3 X s 841 940 m 3 X s 841 948 m 3 X s /w 23 def /w2 {w 2 div} def /w3 {w 3 div} def 553 773 592 815 631 901 669 838 712 819 5 { m21} R 553 785 m 20 Y s 548 805 m 11 X s
 553 762 m -20 Y s 548 742 m 11 X s 592 827 m 20 Y s 586 847 m 12 X s 592 804 m -20 Y s 586 784 m 12 X s 631 912 m 21 Y s 625 933 m 11 X s 631 890 m -21 Y s 625 869 m 11 X s 669 850 m 20 Y s 664 870 m 11 X s 669 827 m -21 Y s 664 806 m 11 X s 712 830
 m 21 Y s 706 851 m 12 X s 712 808 m -21 Y s 706 787 m 12 X s 1 0 0 c 9 lw 0.95 0.95 0.95 c black 1 0 0 c 539 810 m 3 X 3 1 d 3 X 3 1 d 3 X 3 1 d 3 1 d 3 X 4 1 d 3 X 3 1 d 3 X 3 1 d 3 X 3 1 d 6 X 3 1 d 3 X 3 1 d 3 X 3 1 d 3 X 3 1 d 7 X 3 1 d 3 X 3 1
 d 6 X 3 1 d 3 X 3 1 d 6 X 3 1 d 6 X 3 1 d 7 X 3 1 d 6 X 3 1 d 6 X 3 1 d s 689 831 m 9 X 3 1 d 9 X 3 1 d 10 X 3 1 d 12 X 3 1 d 15 X 3 1 d 19 X 3 1 d 30 X 4 1 d 24 X s 839 838 m 3 X s 0.49 0.6 0.82 c black 0.49 0.6 0.82 c
 gsave  408 305 476 677 C 595.418 960.076 t 0 r /Helvetica-Bold findfont 25.6831 sf 0 0 m (3.0 < E < 3.5 GeV) show NC gr  0.52 0.76 0.64 c black 0.52 0.76 0.64 c
 gsave  408 305 476 677 C 575.476 923.04 t 0 r /Helvetica-Bold findfont 25.6831 sf 0 0 m 
 228 214 200 193 178 171 156 149 134 126 119 105 91 77 69 55 47 40 25 17
(A = \2550.000, p = 2.000) K NC gr  1 0.6 1 c black 1 0.6 1 c
 gsave  408 305 476 677 C 883.156 791.991 t 90 r /Helvetica-Bold findfont 28.5368 sf 0 0 m (/dof=1.9) show NC gr  black 1 0.6 1 c
 gsave  408 305 476 677 C 871.76 780.596 t 90 r /Helvetica-Bold findfont 19.9758 sf 0 0 m (2) show NC gr  black 1 0.6 1 c
 gsave  408 305 476 677 C 883.156 763.503 t 90 r /Symbol findfont 28.5368 sf 0 0 m (c) show NC gr  black 3 lw 1 1 1 c 408 305 930 677 bf black 1 1 1 c black 306 229 991 723 bl 306 229 991 723 bl 991 723 m 306 X s 1065 727 m -4 Y s 1142 727 m -4 Y s
 1220 727 m -4 Y s 1297 727 m -4 Y s 1065 727 m -4 Y s
 gsave  408 305 930 677 C 1051.24 703.676 t 0 r /Helvetica findfont 22.8295 sf 0 0 m (\2556) show NC gr 
 gsave  408 305 930 677 C 1128.16 703.676 t 0 r /Helvetica findfont 22.8295 sf 0 0 m (\2554) show NC gr 
 gsave  408 305 930 677 C 1207.93 703.676 t 0 r /Helvetica findfont 22.8295 sf 0 0 m (\2552) show NC gr 
 gsave  408 305 930 677 C 1287.7 703.676 t 0 r /Helvetica findfont 22.8295 sf 0 0 m (0) show NC gr  991 952 m 306 X s 1065 948 m 4 Y s 1142 948 m 4 Y s 1220 948 m 4 Y s 1297 948 m 4 Y s 1065 948 m 4 Y s 991 723 m 229 Y s 997 733 m -6 X s 994 742 m -3
 X s 994 751 m -3 X s 994 760 m -3 X s 994 769 m -3 X s 997 778 m -6 X s 994 787 m -3 X s 994 796 m -3 X s 994 805 m -3 X s 994 814 m -3 X s 997 822 m -6 X s 994 831 m -3 X s 994 840 m -3 X s 994 849 m -3 X s 994 858 m -3 X s 997 867 m -6 X s 994 876
 m -3 X s 994 885 m -3 X s 994 894 m -3 X s 994 903 m -3 X s 997 912 m -6 X s 997 733 m -6 X s 994 724 m -3 X s 997 912 m -6 X s 994 921 m -3 X s 994 930 m -3 X s 994 939 m -3 X s 994 947 m -3 X s
 gsave  408 305 930 677 C 923.04 726.467 t 0 r /Helvetica findfont 22.8295 sf 0 0 m (\2550.015) show NC gr 
 gsave  408 305 930 677 C 940.134 772.049 t 0 r /Helvetica findfont 22.8295 sf 0 0 m (\2550.01) show NC gr 
 gsave  408 305 930 677 C 923.04 814.783 t 0 r /Helvetica findfont 22.8295 sf 0 0 m (\2550.005) show NC gr 
 gsave  408 305 930 677 C 974.32 860.365 t 0 r /Helvetica findfont 22.8295 sf 0 0 m (0) show NC gr 
 gsave  408 305 930 677 C 931.587 905.947 t 0 r /Helvetica findfont 22.8295 sf 0 0 m (0.005) show NC gr  1297 723 m 229 Y s 1292 733 m 5 X s 1294 742 m 3 X s 1294 751 m 3 X s 1294 760 m 3 X s 1294 769 m 3 X s 1292 778 m 5 X s 1294 787 m 3 X s 1294
 796 m 3 X s 1294 805 m 3 X s 1294 814 m 3 X s 1292 822 m 5 X s 1294 831 m 3 X s 1294 840 m 3 X s 1294 849 m 3 X s 1294 858 m 3 X s 1292 867 m 5 X s 1294 876 m 3 X s 1294 885 m 3 X s 1294 894 m 3 X s 1294 903 m 3 X s 1292 912 m 5 X s 1292 733 m 5 X s
 1294 724 m 3 X s 1292 912 m 5 X s 1294 921 m 3 X s 1294 930 m 3 X s 1294 939 m 3 X s 1294 947 m 3 X s 1007 786 1046 856 1084 790 1123 889 1166 858 5 { m21} R 1007 797 m 32 Y s 1001 829 m 12 X s 1007 774 m -32 Y s 1001 742 m 12 X s 1046 867 m 32 Y s
 1040 899 m 11 X s 1046 844 m -32 Y s 1040 812 m 11 X s 1084 802 m 31 Y s 1079 833 m 11 X s 1084 779 m -32 Y s 1079 747 m 11 X s 1123 900 m 33 Y s 1117 933 m 12 X s 1123 878 m -33 Y s 1117 845 m 12 X s 1166 869 m 33 Y s 1160 902 m 11 X s 1166 847 m
 -33 Y s 1160 814 m 11 X s 1 0 0 c 9 lw 0.95 0.95 0.95 c black 1 0 0 c 993 799 m 3 1 d 3 1 d 3 2 d 3 1 d 3 1 d 3 2 d 3 1 d 3 1 d 3 1 d 3 2 d 3 1 d 3 1 d 3 1 d 3 1 d 3 2 d 4 1 d 3 1 d 3 1 d 3 1 d 3 1 d 3 1 d 3 2 d 3 1 d 3 1 d 3 1 d 3 1 d 3 1 d 3 1 d 3
 1 d 3 1 d 3 1 d 3 1 d 4 X 3 1 d 3 1 d 3 1 d 3 1 d 3 1 d 3 1 d 3 1 d 3 X 3 1 d 3 1 d 3 1 d 3 1 d 3 X 3 1 d 3 1 d 4 X s 1143 849 m 3 1 d 3 1 d 3 X 3 1 d 3 1 d 3 X 3 1 d 3 1 d 3 X 3 1 d 3 X 3 1 d 3 X 3 1 d 3 X 4 1 d 3 X 3 1 d 3 X 3 1 d 6 X 3 1 d 3 X 3
 1 d 6 X 3 1 d 9 X 3 1 d 10 X 3 1 d 15 X 3 1 d 22 X s 1293 867 m 3 X s 0.49 0.6 0.82 c black 0.49 0.6 0.82 c
 gsave  408 305 930 677 C 1051.24 960.076 t 0 r /Helvetica-Bold findfont 25.6831 sf 0 0 m (3.5 < E < 4.0 GeV) show NC gr  0.52 0.76 0.64 c black 0.52 0.76 0.64 c
 gsave  408 305 930 677 C 1031.3 923.04 t 0 r /Helvetica-Bold findfont 25.6831 sf 0 0 m 
 228 214 200 193 178 171 156 149 133 126 119 105 91 77 69 55 47 39 25 17
(A = \2550.000, p = 2.000) K NC gr  1 0.6 1 c black 1 0.6 1 c
 gsave  408 305 930 677 C 1336.13 791.991 t 90 r /Helvetica-Bold findfont 28.5368 sf 0 0 m (/dof=0.7) show NC gr  black 1 0.6 1 c
 gsave  408 305 930 677 C 1324.73 780.596 t 90 r /Helvetica-Bold findfont 19.9758 sf 0 0 m (2) show NC gr  black 1 0.6 1 c
 gsave  408 305 930 677 C 1336.13 763.503 t 90 r /Symbol findfont 28.5368 sf 0 0 m (c) show NC gr  black 3 lw 1 1 1 c 408 305 1383 677 bf black 1 1 1 c black 306 229 1445 723 bl 306 229 1445 723 bl 1445 723 m 306 X s 1518 727 m -4 Y s 1596 727 m -4 Y
 s 1673 727 m -4 Y s 1751 727 m -4 Y s 1518 727 m -4 Y s
 gsave  408 305 1383 677 C 1507.06 703.676 t 0 r /Helvetica findfont 22.8295 sf 0 0 m (\2556) show NC gr 
 gsave  408 305 1383 677 C 1583.98 703.676 t 0 r /Helvetica findfont 22.8295 sf 0 0 m (\2554) show NC gr 
 gsave  408 305 1383 677 C 1660.9 703.676 t 0 r /Helvetica findfont 22.8295 sf 0 0 m (\2552) show NC gr 
 gsave  408 305 1383 677 C 1740.67 703.676 t 0 r /Helvetica findfont 22.8295 sf 0 0 m (0) show NC gr  1445 952 m 306 X s 1518 948 m 4 Y s 1596 948 m 4 Y s 1673 948 m 4 Y s 1751 948 m 4 Y s 1518 948 m 4 Y s 1445 723 m 229 Y s 1450 741 m -5 X s 1447
 748 m -2 X s 1447 755 m -2 X s 1447 763 m -2 X s 1447 770 m -2 X s 1450 778 m -5 X s 1447 785 m -2 X s 1447 792 m -2 X s 1447 800 m -2 X s 1447 807 m -2 X s 1450 814 m -5 X s 1447 822 m -2 X s 1447 829 m -2 X s 1447 836 m -2 X s 1447 844 m -2 X s
 1450 851 m -5 X s 1447 858 m -2 X s 1447 866 m -2 X s 1447 873 m -2 X s 1447 881 m -2 X s 1450 888 m -5 X s 1447 895 m -2 X s 1447 903 m -2 X s 1447 910 m -2 X s 1447 917 m -2 X s 1450 925 m -5 X s 1450 741 m -5 X s 1447 733 m -2 X s 1447 726 m -2 X
 s 1450 925 m -5 X s 1447 932 m -2 X s 1447 939 m -2 X s 1447 947 m -2 X s
 gsave  408 305 1383 677 C 1390.26 735.014 t 0 r /Helvetica findfont 22.8295 sf 0 0 m (\2550.02) show NC gr 
 gsave  408 305 1383 677 C 1376.01 769.2 t 0 r /Helvetica findfont 22.8295 sf 0 0 m (\2550.015) show NC gr 
 gsave  408 305 1383 677 C 1393.11 806.236 t 0 r /Helvetica findfont 22.8295 sf 0 0 m (\2550.01) show NC gr 
 gsave  408 305 1383 677 C 1376.01 843.271 t 0 r /Helvetica findfont 22.8295 sf 0 0 m (\2550.005) show NC gr 
 gsave  408 305 1383 677 C 1427.29 880.307 t 0 r /Helvetica findfont 22.8295 sf 0 0 m (0) show NC gr 
 gsave  408 305 1383 677 C 1384.56 917.343 t 0 r /Helvetica findfont 22.8295 sf 0 0 m (0.005) show NC gr  1751 723 m 229 Y s 1745 741 m 6 X s 1748 748 m 3 X s 1748 755 m 3 X s 1748 763 m 3 X s 1748 770 m 3 X s 1745 778 m 6 X s 1748 785 m 3 X s 1748
 792 m 3 X s 1748 800 m 3 X s 1748 807 m 3 X s 1745 814 m 6 X s 1748 822 m 3 X s 1748 829 m 3 X s 1748 836 m 3 X s 1748 844 m 3 X s 1745 851 m 6 X s 1748 858 m 3 X s 1748 866 m 3 X s 1748 873 m 3 X s 1748 881 m 3 X s 1745 888 m 6 X s 1748 895 m 3 X s
 1748 903 m 3 X s 1748 910 m 3 X s 1748 917 m 3 X s 1745 925 m 6 X s 1745 741 m 6 X s 1748 733 m 3 X s 1748 726 m 3 X s 1745 925 m 6 X s 1748 932 m 3 X s 1748 939 m 3 X s 1748 947 m 3 X s 1460 790 1499 813 1538 851 1577 885 1619 869 5 { m21} R 1460
 801 m 37 Y s 1455 838 m 11 X s 1460 778 m -36 Y s 1455 742 m 11 X s 1499 824 m 36 Y s 1493 860 m 12 X s 1499 801 m -36 Y s 1493 765 m 12 X s 1538 862 m 36 Y s 1532 898 m 12 X s 1538 839 m -36 Y s 1532 803 m 12 X s 1577 897 m 36 Y s 1571 933 m 11 X s
 1577 874 m -37 Y s 1571 837 m 11 X s 1619 880 m 36 Y s 1613 916 m 12 X s 1619 857 m -36 Y s 1613 821 m 12 X s 1 0 0 c 9 lw 0.95 0.95 0.95 c black 1 0 0 c 1446 790 m 3 2 d 3 2 d 3 2 d 3 2 d 3 2 d 3 2 d 3 2 d 4 1 d 3 2 d 3 2 d 3 2 d 3 1 d 3 2 d 3 2 d
 3 2 d 3 1 d 3 2 d 3 1 d 3 2 d 3 2 d 3 1 d 3 2 d 3 1 d 4 2 d 3 1 d 3 2 d 3 1 d 3 2 d 3 1 d 3 1 d 3 2 d 3 1 d 3 1 d 3 2 d 3 1 d 3 1 d 3 1 d 3 2 d 3 1 d 4 1 d 3 1 d 3 1 d 3 1 d 3 2 d 3 1 d 3 1 d 3 1 d 3 1 d 3 1 d s 1596 863 m 3 1 d 3 1 d 3 1 d 3 1 d 3
 1 d 3 X 4 1 d 3 1 d 3 1 d 3 1 d 3 1 d 3 X 3 1 d 3 1 d 3 X 3 1 d 3 1 d 3 X 3 1 d 3 1 d 3 X 3 1 d 3 X 4 1 d 3 X 3 1 d 3 X 3 1 d 3 X 3 1 d 3 X 3 1 d 6 X 3 1 d 9 X 3 1 d 16 X 3 1 d 12 X s 1746 888 m 3 X s 0.49 0.6 0.82 c black 0.49 0.6 0.82 c
 gsave  408 305 1383 677 C 1504.21 960.076 t 0 r /Helvetica-Bold findfont 25.6831 sf 0 0 m (4.0 < E < 4.5 GeV) show NC gr  0.52 0.76 0.64 c black 0.52 0.76 0.64 c
 gsave  408 305 1383 677 C 1484.27 923.04 t 0 r /Helvetica-Bold findfont 25.6831 sf 0 0 m 
 228 214 200 193 178 171 156 149 134 126 119 105 91 77 69 55 47 40 25 17
(A = \2550.000, p = 2.000) K NC gr  1 0.6 1 c black 1 0.6 1 c
 gsave  408 305 1383 677 C 1789.1 791.991 t 90 r /Helvetica-Bold findfont 28.5368 sf 0 0 m (/dof=0.1) show NC gr  black 1 0.6 1 c
 gsave  408 305 1383 677 C 1777.71 780.596 t 90 r /Helvetica-Bold findfont 19.9758 sf 0 0 m (2) show NC gr  black 1 0.6 1 c
 gsave  408 305 1383 677 C 1789.1 763.503 t 90 r /Symbol findfont 28.5368 sf 0 0 m (c) show NC gr  black 3 lw 1 1 1 c 408 305 1837 677 bf black 1 1 1 c black 306 229 1898 723 bl 306 229 1898 723 bl 1898 723 m 306 X s 1972 727 m -4 Y s 2049 727 m -4 Y
 s 2127 727 m -4 Y s 2204 727 m -4 Y s 1972 727 m -4 Y s
 gsave  408 305 1837 677 C 1960.04 703.676 t 0 r /Helvetica findfont 22.8295 sf 0 0 m (\2556) show NC gr 
 gsave  408 305 1837 677 C 2036.96 703.676 t 0 r /Helvetica findfont 22.8295 sf 0 0 m (\2554) show NC gr 
 gsave  408 305 1837 677 C 2113.88 703.676 t 0 r /Helvetica findfont 22.8295 sf 0 0 m (\2552) show NC gr 
 gsave  408 305 1837 677 C 2193.65 703.676 t 0 r /Helvetica findfont 22.8295 sf 0 0 m (0) show NC gr  1898 952 m 306 X s 1972 948 m 4 Y s 2049 948 m 4 Y s 2127 948 m 4 Y s 2204 948 m 4 Y s 1972 948 m 4 Y s 1898 723 m 229 Y s 1904 749 m -6 X s 1901
 756 m -3 X s 1901 763 m -3 X s 1901 770 m -3 X s 1901 777 m -3 X s 1904 784 m -6 X s 1901 791 m -3 X s 1901 798 m -3 X s 1901 805 m -3 X s 1901 812 m -3 X s 1904 819 m -6 X s 1901 826 m -3 X s 1901 833 m -3 X s 1901 840 m -3 X s 1901 847 m -3 X s
 1904 853 m -6 X s 1901 860 m -3 X s 1901 867 m -3 X s 1901 874 m -3 X s 1901 881 m -3 X s 1904 888 m -6 X s 1901 895 m -3 X s 1901 902 m -3 X s 1901 909 m -3 X s 1901 916 m -3 X s 1904 923 m -6 X s 1904 749 m -6 X s 1901 742 m -3 X s 1901 735 m -3 X
 s 1901 728 m -3 X s 1904 923 m -6 X s 1901 930 m -3 X s 1901 937 m -3 X s 1901 944 m -3 X s 1901 951 m -3 X s
 gsave  408 305 1837 677 C 1828.99 743.56 t 0 r /Helvetica findfont 22.8295 sf 0 0 m (\2550.015) show NC gr 
 gsave  408 305 1837 677 C 1846.08 777.747 t 0 r /Helvetica findfont 22.8295 sf 0 0 m (\2550.01) show NC gr 
 gsave  408 305 1837 677 C 1828.99 811.934 t 0 r /Helvetica findfont 22.8295 sf 0 0 m (\2550.005) show NC gr 
 gsave  408 305 1837 677 C 1880.27 846.12 t 0 r /Helvetica findfont 22.8295 sf 0 0 m (0) show NC gr 
 gsave  408 305 1837 677 C 1837.53 880.307 t 0 r /Helvetica findfont 22.8295 sf 0 0 m (0.005) show NC gr 
 gsave  408 305 1837 677 C 1851.78 914.494 t 0 r /Helvetica findfont 22.8295 sf 0 0 m (0.01) show NC gr  2204 723 m 229 Y s 2199 749 m 5 X s 2201 756 m 3 X s 2201 763 m 3 X s 2201 770 m 3 X s 2201 777 m 3 X s 2199 784 m 5 X s 2201 791 m 3 X s 2201
 798 m 3 X s 2201 805 m 3 X s 2201 812 m 3 X s 2199 819 m 5 X s 2201 826 m 3 X s 2201 833 m 3 X s 2201 840 m 3 X s 2201 847 m 3 X s 2199 853 m 5 X s 2201 860 m 3 X s 2201 867 m 3 X s 2201 874 m 3 X s 2201 881 m 3 X s 2199 888 m 5 X s 2201 895 m 3 X s
 2201 902 m 3 X s 2201 909 m 3 X s 2201 916 m 3 X s 2199 923 m 5 X s 2199 749 m 5 X s 2201 742 m 3 X s 2201 735 m 3 X s 2201 728 m 3 X s 2199 923 m 5 X s 2201 930 m 3 X s 2201 937 m 3 X s 2201 944 m 3 X s 2201 951 m 3 X s 1914 803 1953 852 1991 864
 2030 804 2073 872 5 { m21} R 1914 815 m 50 Y s 1908 865 m 12 X s 1914 792 m -50 Y s 1908 742 m 12 X s 1953 863 m 50 Y s 1947 913 m 11 X s 1953 840 m -50 Y s 1947 790 m 11 X s 1991 876 m 50 Y s 1986 926 m 11 X s 1991 853 m -50 Y s 1986 803 m 11 X s
 2030 816 m 49 Y s 2024 865 m 12 X s 2030 793 m -49 Y s 2024 744 m 12 X s 2073 883 m 50 Y s 2067 933 m 11 X s 2073 860 m -50 Y s 2067 810 m 11 X s 1 0 0 c 9 lw 0.95 0.95 0.95 c black 1 0 0 c 1900 821 m 3 X 3 1 d 3 1 d 3 X 3 1 d 3 1 d 3 X 3 1 d 3 X 3
 1 d 3 1 d 3 X 3 1 d 3 X 4 1 d 3 X 3 1 d 3 1 d 3 X 3 1 d 3 X 3 1 d 3 X 3 1 d 3 X 3 1 d 3 X 3 1 d 3 X 3 1 d 7 X 3 1 d 3 X 3 1 d 3 X 3 1 d 6 X 3 1 d 3 X 3 1 d 6 X 3 1 d 6 X 4 1 d 3 X s 2050 845 m 3 X 3 1 d 6 X 3 1 d 6 X 3 1 d 9 X 3 1 d 10 X 3 1 d 12 X
 3 1 d 15 X 3 1 d 19 X 3 1 d 46 X s 2200 853 m 3 X s 0.49 0.6 0.82 c black 0.49 0.6 0.82 c
 gsave  408 305 1837 677 C 1957.19 960.076 t 0 r /Helvetica-Bold findfont 25.6831 sf 0 0 m (4.5 < E < 5.0 GeV) show NC gr  0.52 0.76 0.64 c black 0.52 0.76 0.64 c
 gsave  408 305 1837 677 C 1937.25 923.04 t 0 r /Helvetica-Bold findfont 25.6831 sf 0 0 m 
 228 214 200 193 178 171 156 149 133 126 119 105 91 77 69 55 47 39 25 17
(A = \2550.000, p = 2.000) K NC gr  1 0.6 1 c black 1 0.6 1 c
 gsave  408 305 1837 677 C 2242.08 791.991 t 90 r /Helvetica-Bold findfont 28.5368 sf 0 0 m (/dof=0.2) show NC gr  black 1 0.6 1 c
 gsave  408 305 1837 677 C 2230.68 780.596 t 90 r /Helvetica-Bold findfont 19.9758 sf 0 0 m (2) show NC gr  black 1 0.6 1 c
 gsave  408 305 1837 677 C 2242.08 763.503 t 90 r /Symbol findfont 28.5368 sf 0 0 m (c) show NC gr  black 3 lw 1 1 1 c 408 306 23 345 bf black 1 1 1 c black 306 229 84 391 bl 306 229 84 391 bl 84 391 m 306 X s 158 395 m -4 Y s 235 395 m -4 Y s 313
 395 m -4 Y s 390 395 m -4 Y s 158 395 m -4 Y s
 gsave  408 306 23 345 C 145.293 370.356 t 0 r /Helvetica findfont 22.8295 sf 0 0 m (\2556) show NC gr 
 gsave  408 306 23 345 C 222.213 370.356 t 0 r /Helvetica findfont 22.8295 sf 0 0 m (\2554) show NC gr 
 gsave  408 306 23 345 C 299.133 370.356 t 0 r /Helvetica findfont 22.8295 sf 0 0 m (\2552) show NC gr 
 gsave  408 306 23 345 C 378.902 370.356 t 0 r /Helvetica findfont 22.8295 sf 0 0 m (0) show NC gr  84 620 m 306 X s 158 616 m 4 Y s 235 616 m 4 Y s 313 616 m 4 Y s 390 616 m 4 Y s 158 616 m 4 Y s 84 391 m 229 Y s 89 402 m -5 X s 87 411 m -3 X s 87
 419 m -3 X s 87 428 m -3 X s 87 437 m -3 X s 89 446 m -5 X s 87 455 m -3 X s 87 464 m -3 X s 87 473 m -3 X s 87 482 m -3 X s 89 491 m -5 X s 87 499 m -3 X s 87 508 m -3 X s 87 517 m -3 X s 87 526 m -3 X s 89 535 m -5 X s 87 544 m -3 X s 87 553 m -3
 X s 87 562 m -3 X s 87 571 m -3 X s 89 579 m -5 X s 89 402 m -5 X s 87 393 m -3 X s 89 579 m -5 X s 87 588 m -3 X s 87 597 m -3 X s 87 606 m -3 X s 87 615 m -3 X s
 gsave  408 306 23 345 C 28.4889 393.147 t 0 r /Helvetica findfont 22.8295 sf 0 0 m (\2550.03) show NC gr 
 gsave  408 306 23 345 C 28.4889 438.729 t 0 r /Helvetica findfont 22.8295 sf 0 0 m (\2550.02) show NC gr 
 gsave  408 306 23 345 C 31.3378 484.311 t 0 r /Helvetica findfont 22.8295 sf 0 0 m (\2550.01) show NC gr 
 gsave  408 306 23 345 C 65.5245 527.045 t 0 r /Helvetica findfont 22.8295 sf 0 0 m (0) show NC gr 
 gsave  408 306 23 345 C 37.0356 572.627 t 0 r /Helvetica findfont 22.8295 sf 0 0 m (0.01) show NC gr  390 391 m 229 Y s 385 402 m 5 X s 387 411 m 3 X s 387 419 m 3 X s 387 428 m 3 X s 387 437 m 3 X s 385 446 m 5 X s 387 455 m 3 X s 387 464 m 3 X s
 387 473 m 3 X s 387 482 m 3 X s 385 491 m 5 X s 387 499 m 3 X s 387 508 m 3 X s 387 517 m 3 X s 387 526 m 3 X s 385 535 m 5 X s 387 544 m 3 X s 387 553 m 3 X s 387 562 m 3 X s 387 571 m 3 X s 385 579 m 5 X s 385 402 m 5 X s 387 393 m 3 X s 385 579 m
 5 X s 387 588 m 3 X s 387 597 m 3 X s 387 606 m 3 X s 387 615 m 3 X s /w 22 def /w2 {w 2 div} def /w3 {w 3 div} def 100 502 138 461 177 549 216 469 258 524 5 { m21} R 100 513 m 41 Y s 94 554 m 11 X s 100 490 m -40 Y s 94 450 m 11 X s 138 472 m 39 Y
 s 133 511 m 11 X s 138 449 m -39 Y s 133 410 m 11 X s 177 561 m 40 Y s 171 601 m 12 X s 177 538 m -40 Y s 171 498 m 12 X s 216 480 m 39 Y s 210 519 m 12 X s 216 458 m -39 Y s 210 419 m 12 X s 258 535 m 40 Y s 253 575 m 11 X s 258 512 m -39 Y s 253
 473 m 11 X s 9 lw 0.95 0.95 0.95 c black 85 486 m 3 X 4 1 d 3 X 3 1 d 3 X 3 1 d 3 X 3 1 d 3 X 3 1 d 3 X 3 1 d 3 X 3 1 d 3 X 3 1 d 3 X 4 1 d 3 X 3 1 d 3 X 3 1 d 3 X 3 1 d 3 X 3 1 d 3 X 3 1 d 3 X 3 1 d 3 X 3 1 d 3 X 4 1 d 3 X 3 1 d 3 X 3 1 d 3 X 3 1 d
 3 X 3 1 d 3 X 3 1 d 3 X 3 1 d 3 X 3 1 d 3 X s 235 510 m 4 1 d 6 X 3 1 d 3 X 3 1 d 3 X 3 1 d 3 X 3 1 d 3 X 3 1 d 3 X 3 1 d 3 X 3 1 d 3 X 4 1 d 3 X 3 1 d 3 X 3 1 d 3 X 3 1 d 3 X 3 1 d 3 X 3 1 d 3 X 3 1 d 3 X 3 1 d 3 X 4 1 d 3 X 3 1 d 3 X 3 1 d 3 X 3 1
 d 3 X 3 1 d 3 X 3 1 d 3 X 3 1 d 3 X 3 1 d 3 X s 385 534 m 4 1 d s 0.49 0.6 0.82 c black 0.49 0.6 0.82 c
 gsave  408 306 23 345 C 142.445 629.605 t 0 r /Helvetica-Bold findfont 25.6831 sf 0 0 m (5.0 < E < 5.5 GeV) show NC gr  0.52 0.76 0.64 c black 0.52 0.76 0.64 c
 gsave  408 306 23 345 C 128.2 592.569 t 0 r /Helvetica-Bold findfont 25.6831 sf 0 0 m 
 220 206 192 185 170 163 148 141 125 118 111 97 83 69 61 47 40 25 18
(A = 0.001, p = 1.000) K NC gr  1 0.6 1 c black 1 0.6 1 c
 gsave  408 306 23 345 C 427.334 458.671 t 90 r /Helvetica-Bold findfont 28.5368 sf 0 0 m (/dof=0.5) show NC gr  black 1 0.6 1 c
 gsave  408 306 23 345 C 415.938 447.276 t 90 r /Helvetica-Bold findfont 19.9758 sf 0 0 m (2) show NC gr  black 1 0.6 1 c
 gsave  408 306 23 345 C 427.334 430.182 t 90 r /Symbol findfont 28.5368 sf 0 0 m (c) show NC gr  black 3 lw 1 1 1 c 408 306 476 345 bf black 1 1 1 c black 307 229 537 391 bl 307 229 537 391 bl 537 391 m 307 X s 611 395 m -4 Y s 689 395 m -4 Y s 766
 395 m -4 Y s 844 395 m -4 Y s 611 395 m -4 Y s
 gsave  408 306 476 345 C 598.267 370.356 t 0 r /Helvetica findfont 22.8295 sf 0 0 m (\2556) show NC gr 
 gsave  408 306 476 345 C 675.187 370.356 t 0 r /Helvetica findfont 22.8295 sf 0 0 m (\2554) show NC gr 
 gsave  408 306 476 345 C 752.107 370.356 t 0 r /Helvetica findfont 22.8295 sf 0 0 m (\2552) show NC gr 
 gsave  408 306 476 345 C 834.725 370.356 t 0 r /Helvetica findfont 22.8295 sf 0 0 m (0) show NC gr  537 620 m 307 X s 611 616 m 4 Y s 689 616 m 4 Y s 766 616 m 4 Y s 844 616 m 4 Y s 611 616 m 4 Y s 537 391 m 229 Y s 543 396 m -6 X s 540 407 m -3 X s
 540 417 m -3 X s 540 427 m -3 X s 543 438 m -6 X s 540 448 m -3 X s 540 459 m -3 X s 540 469 m -3 X s 543 480 m -6 X s 540 490 m -3 X s 540 501 m -3 X s 540 511 m -3 X s 543 521 m -6 X s 540 532 m -3 X s 540 542 m -3 X s 540 553 m -3 X s 543 563 m
 -6 X s 540 574 m -3 X s 540 584 m -3 X s 540 594 m -3 X s 543 605 m -6 X s 543 396 m -6 X s 543 605 m -6 X s 540 615 m -3 X s
 gsave  408 306 476 345 C 481.462 390.298 t 0 r /Helvetica findfont 22.8295 sf 0 0 m (\2550.04) show NC gr 
 gsave  408 306 476 345 C 481.462 430.182 t 0 r /Helvetica findfont 22.8295 sf 0 0 m (\2550.02) show NC gr 
 gsave  408 306 476 345 C 518.498 472.916 t 0 r /Helvetica findfont 22.8295 sf 0 0 m (0) show NC gr 
 gsave  408 306 476 345 C 487.16 515.649 t 0 r /Helvetica findfont 22.8295 sf 0 0 m (0.02) show NC gr 
 gsave  408 306 476 345 C 487.16 555.534 t 0 r /Helvetica findfont 22.8295 sf 0 0 m (0.04) show NC gr 
 gsave  408 306 476 345 C 487.16 598.267 t 0 r /Helvetica findfont 22.8295 sf 0 0 m (0.06) show NC gr  844 391 m 229 Y s 838 396 m 6 X s 841 407 m 3 X s 841 417 m 3 X s 841 427 m 3 X s 838 438 m 6 X s 841 448 m 3 X s 841 459 m 3 X s 841 469 m 3 X s
 838 480 m 6 X s 841 490 m 3 X s 841 501 m 3 X s 841 511 m 3 X s 838 521 m 6 X s 841 532 m 3 X s 841 542 m 3 X s 841 553 m 3 X s 838 563 m 6 X s 841 574 m 3 X s 841 584 m 3 X s 841 594 m 3 X s 838 605 m 6 X s 838 396 m 6 X s 838 605 m 6 X s 841 615 m
 3 X s /w 23 def /w2 {w 2 div} def /w3 {w 3 div} def 553 569 592 528 631 470 669 543 712 440 5 { m21} R 553 581 m 20 Y s 548 601 m 11 X s 553 558 m -21 Y s 548 537 m 11 X s 592 539 m 20 Y s 586 559 m 12 X s 592 516 m -19 Y s 586 497 m 12 X s 631 481
 m 19 Y s 625 500 m 11 X s 631 458 m -18 Y s 625 440 m 11 X s 669 554 m 20 Y s 664 574 m 11 X s 669 531 m -19 Y s 664 512 m 11 X s 712 451 m 19 Y s 706 470 m 12 X s 712 428 m -18 Y s 706 410 m 12 X s 1 0 0 c 9 lw 0.95 0.95 0.95 c black 1 0 0 c 539
 551 m 3 -2 d 3 -1 d 3 -1 d 3 -2 d 3 -1 d 3 -2 d 3 -1 d 3 -1 d 4 -2 d 3 -1 d 3 -1 d 3 -1 d 3 -2 d 3 -1 d 3 -1 d 3 -1 d 3 -1 d 3 -2 d 3 -1 d 3 -1 d 3 -1 d 3 -1 d 3 -1 d 3 -1 d 4 -2 d 3 -1 d 3 -1 d 3 -1 d 3 -1 d 3 -1 d 3 -1 d 3 -1 d 3 -1 d 3 -1 d 3 X 3
 -1 d 3 -1 d 3 -1 d 3 -1 d 3 -1 d 3 -1 d 4 -1 d 3 X 3 -1 d 3 -1 d 3 -1 d 3 -1 d 3 X 3 -1 d s 689 498 m 3 -1 d 3 X 3 -1 d 3 -1 d 3 X 3 -1 d 3 -1 d 3 X 4 -1 d 3 -1 d 3 X 3 -1 d 3 X 3 -1 d 3 X 3 -1 d 3 X 3 -1 d 3 X 3 -1 d 3 X 3 -1 d 6 X 4 -1 d 6 X 3 -1
 d 6 X 3 -1 d 9 X 3 -1 d 12 X 3 -1 d 28 X s 839 480 m 3 X s 0.49 0.6 0.82 c black 0.49 0.6 0.82 c
 gsave  408 306 476 345 C 595.418 629.605 t 0 r /Helvetica-Bold findfont 25.6831 sf 0 0 m (5.5 < E < 6.0 GeV) show NC gr  0.52 0.76 0.64 c black 0.52 0.76 0.64 c
 gsave  408 306 476 345 C 581.174 592.569 t 0 r /Helvetica-Bold findfont 25.6831 sf 0 0 m 
 220 206 192 185 170 163 148 141 126 118 111 97 83 69 61 47 40 25 18
(A = 0.001, p = 2.000) K NC gr  1 0.6 1 c black 1 0.6 1 c
 gsave  408 306 476 345 C 883.156 458.671 t 90 r /Helvetica-Bold findfont 28.5368 sf 0 0 m (/dof=1.9) show NC gr  black 1 0.6 1 c
 gsave  408 306 476 345 C 871.76 447.276 t 90 r /Helvetica-Bold findfont 19.9758 sf 0 0 m (2) show NC gr  black 1 0.6 1 c
 gsave  408 306 476 345 C 883.156 430.182 t 90 r /Symbol findfont 28.5368 sf 0 0 m (c) show NC gr  black 3 lw 1 1 1 c 408 306 930 345 bf black 1 1 1 c black 306 229 991 391 bl 306 229 991 391 bl 991 391 m 306 X s 1065 395 m -4 Y s 1142 395 m -4 Y s
 1220 395 m -4 Y s 1297 395 m -4 Y s 1065 395 m -4 Y s
 gsave  408 306 930 345 C 1051.24 370.356 t 0 r /Helvetica findfont 22.8295 sf 0 0 m (\2556) show NC gr 
 gsave  408 306 930 345 C 1128.16 370.356 t 0 r /Helvetica findfont 22.8295 sf 0 0 m (\2554) show NC gr 
 gsave  408 306 930 345 C 1207.93 370.356 t 0 r /Helvetica findfont 22.8295 sf 0 0 m (\2552) show NC gr 
 gsave  408 306 930 345 C 1287.7 370.356 t 0 r /Helvetica findfont 22.8295 sf 0 0 m (0) show NC gr  991 620 m 306 X s 1065 616 m 4 Y s 1142 616 m 4 Y s 1220 616 m 4 Y s 1297 616 m 4 Y s 1065 616 m 4 Y s 991 391 m 229 Y s 997 417 m -6 X s 994 425 m -3
 X s 994 433 m -3 X s 994 441 m -3 X s 994 449 m -3 X s 997 457 m -6 X s 994 465 m -3 X s 994 473 m -3 X s 994 481 m -3 X s 994 489 m -3 X s 997 497 m -6 X s 994 505 m -3 X s 994 513 m -3 X s 994 521 m -3 X s 994 529 m -3 X s 997 537 m -6 X s 994 545
 m -3 X s 994 553 m -3 X s 994 561 m -3 X s 994 569 m -3 X s 997 577 m -6 X s 994 585 m -3 X s 994 593 m -3 X s 994 601 m -3 X s 994 609 m -3 X s 997 617 m -6 X s 997 417 m -6 X s 994 409 m -3 X s 994 401 m -3 X s 994 393 m -3 X s 997 617 m -6 X s
 gsave  408 306 930 345 C 937.285 410.24 t 0 r /Helvetica findfont 22.8295 sf 0 0 m (\2550.02) show NC gr 
 gsave  408 306 930 345 C 940.134 450.125 t 0 r /Helvetica findfont 22.8295 sf 0 0 m (\2550.01) show NC gr 
 gsave  408 306 930 345 C 974.32 490.009 t 0 r /Helvetica findfont 22.8295 sf 0 0 m (0) show NC gr 
 gsave  408 306 930 345 C 945.832 529.894 t 0 r /Helvetica findfont 22.8295 sf 0 0 m (0.01) show NC gr 
 gsave  408 306 930 345 C 942.983 569.778 t 0 r /Helvetica findfont 22.8295 sf 0 0 m (0.02) show NC gr 
 gsave  408 306 930 345 C 942.983 609.662 t 0 r /Helvetica findfont 22.8295 sf 0 0 m (0.03) show NC gr  1297 391 m 229 Y s 1292 417 m 5 X s 1294 425 m 3 X s 1294 433 m 3 X s 1294 441 m 3 X s 1294 449 m 3 X s 1292 457 m 5 X s 1294 465 m 3 X s 1294 473
 m 3 X s 1294 481 m 3 X s 1294 489 m 3 X s 1292 497 m 5 X s 1294 505 m 3 X s 1294 513 m 3 X s 1294 521 m 3 X s 1294 529 m 3 X s 1292 537 m 5 X s 1294 545 m 3 X s 1294 553 m 3 X s 1294 561 m 3 X s 1294 569 m 3 X s 1292 577 m 5 X s 1294 585 m 3 X s
 1294 593 m 3 X s 1294 601 m 3 X s 1294 609 m 3 X s 1292 617 m 5 X s 1292 417 m 5 X s 1294 409 m 3 X s 1294 401 m 3 X s 1294 393 m 3 X s 1292 617 m 5 X s 1007 531 1046 500 1084 509 1123 479 1166 491 5 { m21} R 1007 542 m 59 Y s 1001 601 m 12 X s 1007
 519 m -58 Y s 1001 461 m 12 X s 1046 511 m 58 Y s 1040 569 m 11 X s 1046 488 m -58 Y s 1040 430 m 11 X s 1084 520 m 58 Y s 1079 578 m 11 X s 1084 498 m -58 Y s 1079 440 m 11 X s 1123 490 m 57 Y s 1117 547 m 12 X s 1123 467 m -57 Y s 1117 410 m 12 X
 s 1166 502 m 57 Y s 1160 559 m 11 X s 1166 480 m -57 Y s 1160 423 m 11 X s 1 0 0 c 9 lw 0.95 0.95 0.95 c black 1 0 0 c 993 515 m 6 X 3 -1 d 3 X 3 -1 d 6 X 3 -1 d 6 X 3 -1 d 6 X 3 -1 d 10 X 3 -1 d 6 X 3 -1 d 9 X 3 -1 d 6 X 3 -1 d 9 X 3 -1 d 10 X 3 -1
 d 12 X 3 -1 d 9 X 3 -1 d 13 X s 1143 502 m 3 X 3 -1 d 12 X 3 -1 d 18 X 3 -1 d 22 X 3 -1 d 37 X 3 -1 d 43 X s 1293 497 m 3 X s 0.49 0.6 0.82 c black 0.49 0.6 0.82 c
 gsave  408 306 930 345 C 1051.24 629.605 t 0 r /Helvetica-Bold findfont 25.6831 sf 0 0 m (6.0 < E < 6.5 GeV) show NC gr  0.52 0.76 0.64 c black 0.52 0.76 0.64 c
 gsave  408 306 930 345 C 1037 592.569 t 0 r /Helvetica-Bold findfont 25.6831 sf 0 0 m 
 220 206 192 185 170 163 148 141 125 118 111 97 83 69 61 47 40 25 18
(A = 0.000, p = 2.000) K NC gr  1 0.6 1 c black 1 0.6 1 c
 gsave  408 306 930 345 C 1336.13 458.671 t 90 r /Helvetica-Bold findfont 28.5368 sf 0 0 m (/dof=0.1) show NC gr  black 1 0.6 1 c
 gsave  408 306 930 345 C 1324.73 447.276 t 90 r /Helvetica-Bold findfont 19.9758 sf 0 0 m (2) show NC gr  black 1 0.6 1 c
 gsave  408 306 930 345 C 1336.13 430.182 t 90 r /Symbol findfont 28.5368 sf 0 0 m (c) show NC gr  black 3 lw 1 1 1 c 408 306 1383 345 bf black 1 1 1 c black 306 229 1445 391 bl 306 229 1445 391 bl 1445 391 m 306 X s 1518 395 m -4 Y s 1596 395 m -4 Y
 s 1673 395 m -4 Y s 1751 395 m -4 Y s 1518 395 m -4 Y s
 gsave  408 306 1383 345 C 1507.06 370.356 t 0 r /Helvetica findfont 22.8295 sf 0 0 m (\2556) show NC gr 
 gsave  408 306 1383 345 C 1583.98 370.356 t 0 r /Helvetica findfont 22.8295 sf 0 0 m (\2554) show NC gr 
 gsave  408 306 1383 345 C 1660.9 370.356 t 0 r /Helvetica findfont 22.8295 sf 0 0 m (\2552) show NC gr 
 gsave  408 306 1383 345 C 1740.67 370.356 t 0 r /Helvetica findfont 22.8295 sf 0 0 m (0) show NC gr  1445 620 m 306 X s 1518 616 m 4 Y s 1596 616 m 4 Y s 1673 616 m 4 Y s 1751 616 m 4 Y s 1518 616 m 4 Y s 1445 391 m 229 Y s 1450 404 m -5 X s 1447
 409 m -2 X s 1447 413 m -2 X s 1447 418 m -2 X s 1447 423 m -2 X s 1450 428 m -5 X s 1447 432 m -2 X s 1447 437 m -2 X s 1447 442 m -2 X s 1447 446 m -2 X s 1450 451 m -5 X s 1447 456 m -2 X s 1447 461 m -2 X s 1447 465 m -2 X s 1447 470 m -2 X s
 1450 475 m -5 X s 1447 479 m -2 X s 1447 484 m -2 X s 1447 489 m -2 X s 1447 494 m -2 X s 1450 498 m -5 X s 1447 503 m -2 X s 1447 508 m -2 X s 1447 512 m -2 X s 1447 517 m -2 X s 1450 522 m -5 X s 1447 527 m -2 X s 1447 531 m -2 X s 1447 536 m -2 X
 s 1447 541 m -2 X s 1450 545 m -5 X s 1447 550 m -2 X s 1447 555 m -2 X s 1447 560 m -2 X s 1447 564 m -2 X s 1450 569 m -5 X s 1447 574 m -2 X s 1447 578 m -2 X s 1447 583 m -2 X s 1447 588 m -2 X s 1450 592 m -5 X s 1447 597 m -2 X s 1447 602 m -2
 X s 1447 607 m -2 X s 1447 611 m -2 X s 1450 616 m -5 X s 1450 404 m -5 X s 1447 399 m -2 X s 1447 395 m -2 X s 1450 616 m -5 X s
 gsave  408 306 1383 345 C 1390.26 395.996 t 0 r /Helvetica findfont 22.8295 sf 0 0 m (\2550.05) show NC gr 
 gsave  408 306 1383 345 C 1390.26 421.636 t 0 r /Helvetica findfont 22.8295 sf 0 0 m (\2550.04) show NC gr 
 gsave  408 306 1383 345 C 1390.26 444.427 t 0 r /Helvetica findfont 22.8295 sf 0 0 m (\2550.03) show NC gr 
 gsave  408 306 1383 345 C 1390.26 467.218 t 0 r /Helvetica findfont 22.8295 sf 0 0 m (\2550.02) show NC gr 
 gsave  408 306 1383 345 C 1393.11 490.009 t 0 r /Helvetica findfont 22.8295 sf 0 0 m (\2550.01) show NC gr 
 gsave  408 306 1383 345 C 1427.29 515.649 t 0 r /Helvetica findfont 22.8295 sf 0 0 m (0) show NC gr 
 gsave  408 306 1383 345 C 1398.81 538.44 t 0 r /Helvetica findfont 22.8295 sf 0 0 m (0.01) show NC gr 
 gsave  408 306 1383 345 C 1395.96 561.231 t 0 r /Helvetica findfont 22.8295 sf 0 0 m (0.02) show NC gr 
 gsave  408 306 1383 345 C 1395.96 584.022 t 0 r /Helvetica findfont 22.8295 sf 0 0 m (0.03) show NC gr 
 gsave  408 306 1383 345 C 1395.96 609.662 t 0 r /Helvetica findfont 22.8295 sf 0 0 m (0.04) show NC gr  1751 391 m 229 Y s 1745 404 m 6 X s 1748 409 m 3 X s 1748 413 m 3 X s 1748 418 m 3 X s 1748 423 m 3 X s 1745 428 m 6 X s 1748 432 m 3 X s 1748
 437 m 3 X s 1748 442 m 3 X s 1748 446 m 3 X s 1745 451 m 6 X s 1748 456 m 3 X s 1748 461 m 3 X s 1748 465 m 3 X s 1748 470 m 3 X s 1745 475 m 6 X s 1748 479 m 3 X s 1748 484 m 3 X s 1748 489 m 3 X s 1748 494 m 3 X s 1745 498 m 6 X s 1748 503 m 3 X s
 1748 508 m 3 X s 1748 512 m 3 X s 1748 517 m 3 X s 1745 522 m 6 X s 1748 527 m 3 X s 1748 531 m 3 X s 1748 536 m 3 X s 1748 541 m 3 X s 1745 545 m 6 X s 1748 550 m 3 X s 1748 555 m 3 X s 1748 560 m 3 X s 1748 564 m 3 X s 1745 569 m 6 X s 1748 574 m
 3 X s 1748 578 m 3 X s 1748 583 m 3 X s 1748 588 m 3 X s 1745 592 m 6 X s 1748 597 m 3 X s 1748 602 m 3 X s 1748 607 m 3 X s 1748 611 m 3 X s 1745 616 m 6 X s 1745 404 m 6 X s 1748 399 m 3 X s 1748 395 m 3 X s 1745 616 m 6 X s 1460 521 1499 553 1538
 455 1577 520 1619 520 5 { m21} R 1460 532 m 35 Y s 1455 567 m 11 X s 1460 509 m -35 Y s 1455 474 m 11 X s 1499 565 m 36 Y s 1493 601 m 12 X s 1499 542 m -36 Y s 1493 506 m 12 X s 1538 467 m 34 Y s 1532 501 m 12 X s 1538 444 m -34 Y s 1532 410 m 12 X
 s 1577 532 m 35 Y s 1571 567 m 11 X s 1577 509 m -35 Y s 1571 474 m 11 X s 1619 531 m 35 Y s 1613 566 m 12 X s 1619 509 m -35 Y s 1613 474 m 12 X s 9 lw 0.95 0.95 0.95 c black 1446 511 m 3 X 3 1 d 25 X 3 1 d 27 X 3 1 d 25 X 3 1 d 27 X 4 1 d 24 X 3 1
 d s 1596 517 m 28 X 3 1 d 27 X 3 1 d 25 X 3 1 d 27 X 3 1 d 25 X 3 1 d 3 X s 1746 522 m 3 X s 0.49 0.6 0.82 c black 0.49 0.6 0.82 c
 gsave  408 306 1383 345 C 1504.21 629.605 t 0 r /Helvetica-Bold findfont 25.6831 sf 0 0 m (6.5 < E < 7.0 GeV) show NC gr  0.52 0.76 0.64 c black 0.52 0.76 0.64 c
 gsave  408 306 1383 345 C 1489.97 592.569 t 0 r /Helvetica-Bold findfont 25.6831 sf 0 0 m 
 220 206 192 185 170 163 148 141 126 118 111 97 83 69 61 47 40 25 18
(A = 0.001, p = 1.000) K NC gr  1 0.6 1 c black 1 0.6 1 c
 gsave  408 306 1383 345 C 1789.1 458.671 t 90 r /Helvetica-Bold findfont 28.5368 sf 0 0 m (/dof=0.6) show NC gr  black 1 0.6 1 c
 gsave  408 306 1383 345 C 1777.71 447.276 t 90 r /Helvetica-Bold findfont 19.9758 sf 0 0 m (2) show NC gr  black 1 0.6 1 c
 gsave  408 306 1383 345 C 1789.1 430.182 t 90 r /Symbol findfont 28.5368 sf 0 0 m (c) show NC gr  black 3 lw 1 1 1 c 408 306 1837 345 bf black 1 1 1 c black 306 229 1898 391 bl 306 229 1898 391 bl 1898 391 m 306 X s 1972 395 m -4 Y s 2049 395 m -4 Y
 s 2127 395 m -4 Y s 2204 395 m -4 Y s 1972 395 m -4 Y s
 gsave  408 306 1837 345 C 1960.04 370.356 t 0 r /Helvetica findfont 22.8295 sf 0 0 m (\2556) show NC gr 
 gsave  408 306 1837 345 C 2036.96 370.356 t 0 r /Helvetica findfont 22.8295 sf 0 0 m (\2554) show NC gr 
 gsave  408 306 1837 345 C 2113.88 370.356 t 0 r /Helvetica findfont 22.8295 sf 0 0 m (\2552) show NC gr 
 gsave  408 306 1837 345 C 2193.65 370.356 t 0 r /Helvetica findfont 22.8295 sf 0 0 m (0) show NC gr  1898 620 m 306 X s 1972 616 m 4 Y s 2049 616 m 4 Y s 2127 616 m 4 Y s 2204 616 m 4 Y s 1972 616 m 4 Y s 1898 391 m 229 Y s 1904 418 m -6 X s 1901
 424 m -3 X s 1901 429 m -3 X s 1901 435 m -3 X s 1901 440 m -3 X s 1904 446 m -6 X s 1901 451 m -3 X s 1901 457 m -3 X s 1901 462 m -3 X s 1901 468 m -3 X s 1904 473 m -6 X s 1901 479 m -3 X s 1901 484 m -3 X s 1901 490 m -3 X s 1901 495 m -3 X s
 1904 501 m -6 X s 1901 506 m -3 X s 1901 512 m -3 X s 1901 517 m -3 X s 1901 523 m -3 X s 1904 528 m -6 X s 1901 534 m -3 X s 1901 539 m -3 X s 1901 545 m -3 X s 1901 550 m -3 X s 1904 556 m -6 X s 1901 561 m -3 X s 1901 567 m -3 X s 1901 572 m -3 X
 s 1901 578 m -3 X s 1904 583 m -6 X s 1901 589 m -3 X s 1901 594 m -3 X s 1901 600 m -3 X s 1901 605 m -3 X s 1904 611 m -6 X s 1904 418 m -6 X s 1901 413 m -3 X s 1901 407 m -3 X s 1901 402 m -3 X s 1901 396 m -3 X s 1904 611 m -6 X s 1901 616 m -3
 X s
 gsave  408 306 1837 345 C 1843.23 410.24 t 0 r /Helvetica findfont 22.8295 sf 0 0 m (\2550.04) show NC gr 
 gsave  408 306 1837 345 C 1843.23 438.729 t 0 r /Helvetica findfont 22.8295 sf 0 0 m (\2550.03) show NC gr 
 gsave  408 306 1837 345 C 1843.23 467.218 t 0 r /Helvetica findfont 22.8295 sf 0 0 m (\2550.02) show NC gr 
 gsave  408 306 1837 345 C 1846.08 492.858 t 0 r /Helvetica findfont 22.8295 sf 0 0 m (\2550.01) show NC gr 
 gsave  408 306 1837 345 C 1880.27 521.347 t 0 r /Helvetica findfont 22.8295 sf 0 0 m (0) show NC gr 
 gsave  408 306 1837 345 C 1851.78 549.836 t 0 r /Helvetica findfont 22.8295 sf 0 0 m (0.01) show NC gr 
 gsave  408 306 1837 345 C 1848.93 575.476 t 0 r /Helvetica findfont 22.8295 sf 0 0 m (0.02) show NC gr 
 gsave  408 306 1837 345 C 1848.93 603.965 t 0 r /Helvetica findfont 22.8295 sf 0 0 m (0.03) show NC gr  2204 391 m 229 Y s 2199 418 m 5 X s 2201 424 m 3 X s 2201 429 m 3 X s 2201 435 m 3 X s 2201 440 m 3 X s 2199 446 m 5 X s 2201 451 m 3 X s 2201
 457 m 3 X s 2201 462 m 3 X s 2201 468 m 3 X s 2199 473 m 5 X s 2201 479 m 3 X s 2201 484 m 3 X s 2201 490 m 3 X s 2201 495 m 3 X s 2199 501 m 5 X s 2201 506 m 3 X s 2201 512 m 3 X s 2201 517 m 3 X s 2201 523 m 3 X s 2199 528 m 5 X s 2201 534 m 3 X s
 2201 539 m 3 X s 2201 545 m 3 X s 2201 550 m 3 X s 2199 556 m 5 X s 2201 561 m 3 X s 2201 567 m 3 X s 2201 572 m 3 X s 2201 578 m 3 X s 2199 583 m 5 X s 2201 589 m 3 X s 2201 594 m 3 X s 2201 600 m 3 X s 2201 605 m 3 X s 2199 611 m 5 X s 2199 418 m
 5 X s 2201 413 m 3 X s 2201 407 m 3 X s 2201 402 m 3 X s 2201 396 m 3 X s 2199 611 m 5 X s 2201 616 m 3 X s 1914 541 1953 469 1991 530 2030 505 2073 516 5 { m21} R 1914 552 m 49 Y s 1908 601 m 12 X s 1914 530 m -49 Y s 1908 481 m 12 X s 1953 480 m
 48 Y s 1947 528 m 11 X s 1953 457 m -47 Y s 1947 410 m 11 X s 1991 542 m 48 Y s 1986 590 m 11 X s 1991 519 m -49 Y s 1986 470 m 11 X s 2030 516 m 48 Y s 2024 564 m 12 X s 2030 493 m -47 Y s 2024 446 m 12 X s 2073 527 m 49 Y s 2067 576 m 11 X s 2073
 505 m -49 Y s 2067 456 m 11 X s 9 lw 0.95 0.95 0.95 c black 1900 507 m 9 X 3 1 d 9 X 3 1 d 12 X 3 1 d 13 X 3 1 d 9 X 3 1 d 12 X 3 1 d 13 X 3 1 d 9 X 3 1 d 12 X 3 1 d 12 X 3 1 d 10 X s 2050 517 m 3 1 d 12 X 3 1 d 12 X 3 1 d 9 X 4 1 d 12 X 3 1 d 12 X
 3 1 d 9 X 3 1 d 13 X 3 1 d 12 X 3 1 d 9 X 3 1 d 13 X 3 1 d 3 X s 2200 528 m 3 X s 0.49 0.6 0.82 c black 0.49 0.6 0.82 c
 gsave  408 306 1837 345 C 1957.19 629.605 t 0 r /Helvetica-Bold findfont 25.6831 sf 0 0 m (7.0 < E < 7.5 GeV) show NC gr  0.52 0.76 0.64 c black 0.52 0.76 0.64 c
 gsave  408 306 1837 345 C 1942.94 592.569 t 0 r /Helvetica-Bold findfont 25.6831 sf 0 0 m 
 220 206 192 185 170 163 148 141 125 118 111 97 83 69 61 47 40 25 18
(A = 0.001, p = 1.000) K NC gr  1 0.6 1 c black 1 0.6 1 c
 gsave  408 306 1837 345 C 2242.08 458.671 t 90 r /Helvetica-Bold findfont 28.5368 sf 0 0 m (/dof=0.2) show NC gr  black 1 0.6 1 c
 gsave  408 306 1837 345 C 2230.68 447.276 t 90 r /Helvetica-Bold findfont 19.9758 sf 0 0 m (2) show NC gr  black 1 0.6 1 c
 gsave  408 306 1837 345 C 2242.08 430.182 t 90 r /Symbol findfont 28.5368 sf 0 0 m (c) show NC gr  black 3 lw 1 1 1 c 408 306 23 13 bf black 1 1 1 c black 306 229 84 59 bl 306 229 84 59 bl 84 59 m 306 X s 158 63 m -4 Y s 235 63 m -4 Y s 313 63 m -4
 Y s 390 63 m -4 Y s 158 63 m -4 Y s
 gsave  408 306 23 13 C 145.293 39.8845 t 0 r /Helvetica findfont 22.8295 sf 0 0 m (\2556) show NC gr 
 gsave  408 306 23 13 C 222.213 39.8845 t 0 r /Helvetica findfont 22.8295 sf 0 0 m (\2554) show NC gr 
 gsave  408 306 23 13 C 299.133 39.8845 t 0 r /Helvetica findfont 22.8295 sf 0 0 m (\2552) show NC gr 
 gsave  408 306 23 13 C 378.902 39.8845 t 0 r /Helvetica findfont 22.8295 sf 0 0 m (0) show NC gr  84 288 m 306 X s 158 284 m 4 Y s 235 284 m 4 Y s 313 284 m 4 Y s 390 284 m 4 Y s 158 284 m 4 Y s 84 59 m 229 Y s 89 96 m -5 X s 87 106 m -3 X s 87 115
 m -3 X s 87 125 m -3 X s 89 134 m -5 X s 87 144 m -3 X s 87 153 m -3 X s 87 163 m -3 X s 89 172 m -5 X s 87 181 m -3 X s 87 191 m -3 X s 87 200 m -3 X s 89 210 m -5 X s 87 219 m -3 X s 87 229 m -3 X s 87 238 m -3 X s 89 248 m -5 X s 87 257 m -3 X s
 87 267 m -3 X s 87 276 m -3 X s 89 286 m -5 X s 89 96 m -5 X s 87 87 m -3 X s 87 77 m -3 X s 87 68 m -3 X s 89 286 m -5 X s
 gsave  408 306 23 13 C 28.4889 88.3156 t 0 r /Helvetica findfont 22.8295 sf 0 0 m (\2550.02) show NC gr 
 gsave  408 306 23 13 C 65.5245 128.2 t 0 r /Helvetica findfont 22.8295 sf 0 0 m (0) show NC gr 
 gsave  408 306 23 13 C 34.1867 165.236 t 0 r /Helvetica findfont 22.8295 sf 0 0 m (0.02) show NC gr 
 gsave  408 306 23 13 C 34.1867 202.271 t 0 r /Helvetica findfont 22.8295 sf 0 0 m (0.04) show NC gr 
 gsave  408 306 23 13 C 34.1867 239.307 t 0 r /Helvetica findfont 22.8295 sf 0 0 m (0.06) show NC gr 
 gsave  408 306 23 13 C 34.1867 279.191 t 0 r /Helvetica findfont 22.8295 sf 0 0 m (0.08) show NC gr  390 59 m 229 Y s 385 96 m 5 X s 387 106 m 3 X s 387 115 m 3 X s 387 125 m 3 X s 385 134 m 5 X s 387 144 m 3 X s 387 153 m 3 X s 387 163 m 3 X s 385
 172 m 5 X s 387 181 m 3 X s 387 191 m 3 X s 387 200 m 3 X s 385 210 m 5 X s 387 219 m 3 X s 387 229 m 3 X s 387 238 m 3 X s 385 248 m 5 X s 387 257 m 3 X s 387 267 m 3 X s 387 276 m 3 X s 385 286 m 5 X s 385 96 m 5 X s 387 87 m 3 X s 387 77 m 3 X s
 387 68 m 3 X s 385 286 m 5 X s /w 22 def /w2 {w 2 div} def /w3 {w 3 div} def 100 138 138 205 177 123 216 222 258 185 5 { m21} R 100 150 m 33 Y s 94 183 m 11 X s 100 127 m -34 Y s 94 93 m 11 X s 138 216 m 35 Y s 133 251 m 11 X s 138 193 m -35 Y s 133
 158 m 11 X s 177 134 m 34 Y s 171 168 m 12 X s 177 112 m -34 Y s 171 78 m 12 X s 216 234 m 35 Y s 210 269 m 12 X s 216 211 m -35 Y s 210 176 m 12 X s 258 197 m 34 Y s 253 231 m 11 X s 258 174 m -35 Y s 253 139 m 11 X s 9 lw 0.95 0.95 0.95 c black 85
 181 m 3 X 4 -1 d 3 X 3 -1 d 3 X 3 -1 d 3 X 3 -1 d 3 X 3 -1 d 3 X 3 -1 d 6 X 3 -1 d 3 X 3 -1 d 4 X 3 -1 d 3 X 3 -1 d 3 X 3 -1 d 3 X 3 -1 d 3 X 3 -1 d 3 X 3 -1 d 3 X 3 -1 d 6 X 4 -1 d 3 X 3 -1 d 3 X 3 -1 d 3 X 3 -1 d 3 X 3 -1 d 3 X 3 -1 d 3 X 3 -1 d 3
 X 3 -1 d 3 X s 235 158 m 4 X 3 -1 d 3 X 3 -1 d 3 X 3 -1 d 3 X 3 -1 d 3 X 3 -1 d 3 X 3 -1 d 3 X 3 -1 d 3 X 3 -1 d 3 X 4 -1 d 6 X 3 -1 d 3 X 3 -1 d 3 X 3 -1 d 3 X 3 -1 d 3 X 3 -1 d 3 X 3 -1 d 3 X 3 -1 d 4 X 3 -1 d 3 X 3 -1 d 6 X 3 -1 d 3 X 3 -1 d 3 X
 3 -1 d 3 X 3 -1 d 3 X 3 -1 d 3 X s 385 135 m 4 -1 d s 0.49 0.6 0.82 c black 0.49 0.6 0.82 c
 gsave  408 306 23 13 C 142.445 296.285 t 0 r /Helvetica-Bold findfont 25.6831 sf 0 0 m (7.5 < E < 8.0 GeV) show NC gr  0.52 0.76 0.64 c black 0.52 0.76 0.64 c
 gsave  408 306 23 13 C 122.502 259.249 t 0 r /Helvetica-Bold findfont 25.6831 sf 0 0 m 
 228 214 200 193 178 171 156 149 133 126 119 105 91 77 69 55 47 39 25 17
(A = \2550.003, p = 1.000) K NC gr  1 0.6 1 c black 1 0.6 1 c
 gsave  408 306 23 13 C 427.334 128.2 t 90 r /Helvetica-Bold findfont 28.5368 sf 0 0 m (/dof=1.1) show NC gr  black 1 0.6 1 c
 gsave  408 306 23 13 C 415.938 116.804 t 90 r /Helvetica-Bold findfont 19.9758 sf 0 0 m (2) show NC gr  black 1 0.6 1 c
 gsave  408 306 23 13 C 427.334 99.7112 t 90 r /Symbol findfont 28.5368 sf 0 0 m (c) show NC gr  black 3 lw 1 1 1 c 408 306 476 13 bf black 1 1 1 c black 307 229 537 59 bl 307 229 537 59 bl 537 59 m 307 X s 611 63 m -4 Y s 689 63 m -4 Y s 766 63 m -4
 Y s 844 63 m -4 Y s 611 63 m -4 Y s
 gsave  408 306 476 13 C 598.267 39.8845 t 0 r /Helvetica findfont 22.8295 sf 0 0 m (\2556) show NC gr 
 gsave  408 306 476 13 C 675.187 39.8845 t 0 r /Helvetica findfont 22.8295 sf 0 0 m (\2554) show NC gr 
 gsave  408 306 476 13 C 752.107 39.8845 t 0 r /Helvetica findfont 22.8295 sf 0 0 m (\2552) show NC gr 
 gsave  408 306 476 13 C 834.725 39.8845 t 0 r /Helvetica findfont 22.8295 sf 0 0 m (0) show NC gr  537 288 m 307 X s 611 284 m 4 Y s 689 284 m 4 Y s 766 284 m 4 Y s 844 284 m 4 Y s 611 284 m 4 Y s 537 59 m 229 Y s 543 76 m -6 X s 540 85 m -3 X s 540
 94 m -3 X s 540 104 m -3 X s 543 113 m -6 X s 540 122 m -3 X s 540 131 m -3 X s 540 140 m -3 X s 543 149 m -6 X s 540 158 m -3 X s 540 168 m -3 X s 540 177 m -3 X s 543 186 m -6 X s 540 195 m -3 X s 540 204 m -3 X s 540 213 m -3 X s 543 222 m -6 X s
 540 232 m -3 X s 540 241 m -3 X s 540 250 m -3 X s 543 259 m -6 X s 543 76 m -6 X s 540 67 m -3 X s 543 259 m -6 X s 540 268 m -3 X s 540 277 m -3 X s 540 286 m -3 X s
 gsave  408 306 476 13 C 481.462 68.3734 t 0 r /Helvetica findfont 22.8295 sf 0 0 m (\2550.06) show NC gr 
 gsave  408 306 476 13 C 481.462 105.409 t 0 r /Helvetica findfont 22.8295 sf 0 0 m (\2550.04) show NC gr 
 gsave  408 306 476 13 C 481.462 142.445 t 0 r /Helvetica findfont 22.8295 sf 0 0 m (\2550.02) show NC gr 
 gsave  408 306 476 13 C 518.498 179.48 t 0 r /Helvetica findfont 22.8295 sf 0 0 m (0) show NC gr 
 gsave  408 306 476 13 C 487.16 216.516 t 0 r /Helvetica findfont 22.8295 sf 0 0 m (0.02) show NC gr 
 gsave  408 306 476 13 C 487.16 250.702 t 0 r /Helvetica findfont 22.8295 sf 0 0 m (0.04) show NC gr  844 59 m 229 Y s 838 76 m 6 X s 841 85 m 3 X s 841 94 m 3 X s 841 104 m 3 X s 838 113 m 6 X s 841 122 m 3 X s 841 131 m 3 X s 841 140 m 3 X s 838
 149 m 6 X s 841 158 m 3 X s 841 168 m 3 X s 841 177 m 3 X s 838 186 m 6 X s 841 195 m 3 X s 841 204 m 3 X s 841 213 m 3 X s 838 222 m 6 X s 841 232 m 3 X s 841 241 m 3 X s 841 250 m 3 X s 838 259 m 6 X s 838 76 m 6 X s 841 67 m 3 X s 838 259 m 6 X s
 841 268 m 3 X s 841 277 m 3 X s 841 286 m 3 X s /w 23 def /w2 {w 2 div} def /w3 {w 3 div} def 553 170 592 180 631 221 669 123 712 181 5 { m21} R 553 181 m 35 Y s 548 216 m 11 X s 553 159 m -35 Y s 548 124 m 11 X s 592 192 m 35 Y s 586 227 m 12 X s
 592 169 m -35 Y s 586 134 m 12 X s 631 232 m 37 Y s 625 269 m 11 X s 631 210 m -37 Y s 625 173 m 11 X s 669 134 m 34 Y s 664 168 m 11 X s 669 112 m -34 Y s 664 78 m 11 X s 712 193 m 35 Y s 706 228 m 12 X s 712 170 m -35 Y s 706 135 m 12 X s 9 lw
 0.95 0.95 0.95 c black 539 172 m 18 X 3 1 d 19 X 3 1 d 18 X 3 1 d 19 X 3 1 d 18 X 3 1 d 18 X 4 1 d 18 X 3 1 d s 689 179 m 18 X 3 1 d 19 X 3 1 d 18 X 3 1 d 19 X 3 1 d 18 X 3 1 d 19 X 3 1 d 18 X 3 1 d s 839 186 m 3 X s 0.49 0.6 0.82 c black 0.49 0.6
 0.82 c
 gsave  408 306 476 13 C 595.418 296.285 t 0 r /Helvetica-Bold findfont 25.6831 sf 0 0 m (8.0 < E < 8.5 GeV) show NC gr  0.52 0.76 0.64 c black 0.52 0.76 0.64 c
 gsave  408 306 476 13 C 581.174 259.249 t 0 r /Helvetica-Bold findfont 25.6831 sf 0 0 m 
 220 206 192 185 170 163 148 141 126 118 111 97 83 69 61 47 40 25 18
(A = 0.001, p = 1.000) K NC gr  1 0.6 1 c black 1 0.6 1 c
 gsave  408 306 476 13 C 883.156 128.2 t 90 r /Helvetica-Bold findfont 28.5368 sf 0 0 m (/dof=0.6) show NC gr  black 1 0.6 1 c
 gsave  408 306 476 13 C 871.76 116.804 t 90 r /Helvetica-Bold findfont 19.9758 sf 0 0 m (2) show NC gr  black 1 0.6 1 c
 gsave  408 306 476 13 C 883.156 99.7112 t 90 r /Symbol findfont 28.5368 sf 0 0 m (c) show NC gr  black 3 lw 1 1 1 c 408 306 930 13 bf black 1 1 1 c black 306 229 991 59 bl 306 229 991 59 bl 991 59 m 306 X s 1065 63 m -4 Y s 1142 63 m -4 Y s 1220 63
 m -4 Y s 1297 63 m -4 Y s 1065 63 m -4 Y s
 gsave  408 306 930 13 C 1051.24 39.8845 t 0 r /Helvetica findfont 22.8295 sf 0 0 m (\2556) show NC gr 
 gsave  408 306 930 13 C 1128.16 39.8845 t 0 r /Helvetica findfont 22.8295 sf 0 0 m (\2554) show NC gr 
 gsave  408 306 930 13 C 1207.93 39.8845 t 0 r /Helvetica findfont 22.8295 sf 0 0 m (\2552) show NC gr 
 gsave  408 306 930 13 C 1287.7 39.8845 t 0 r /Helvetica findfont 22.8295 sf 0 0 m (0) show NC gr  991 288 m 306 X s 1065 284 m 4 Y s 1142 284 m 4 Y s 1220 284 m 4 Y s 1297 284 m 4 Y s 1065 284 m 4 Y s 991 59 m 229 Y s 997 71 m -6 X s 994 76 m -3 X s
 994 81 m -3 X s 994 86 m -3 X s 994 91 m -3 X s 997 96 m -6 X s 994 101 m -3 X s 994 106 m -3 X s 994 111 m -3 X s 994 116 m -3 X s 997 122 m -6 X s 994 127 m -3 X s 994 132 m -3 X s 994 137 m -3 X s 994 142 m -3 X s 997 147 m -6 X s 994 152 m -3 X
 s 994 157 m -3 X s 994 162 m -3 X s 994 168 m -3 X s 997 173 m -6 X s 994 178 m -3 X s 994 183 m -3 X s 994 188 m -3 X s 994 193 m -3 X s 997 198 m -6 X s 994 203 m -3 X s 994 208 m -3 X s 994 213 m -3 X s 994 219 m -3 X s 997 224 m -6 X s 994 229 m
 -3 X s 994 234 m -3 X s 994 239 m -3 X s 994 244 m -3 X s 997 249 m -6 X s 994 254 m -3 X s 994 259 m -3 X s 994 265 m -3 X s 994 270 m -3 X s 997 275 m -6 X s 997 71 m -6 X s 994 65 m -3 X s 994 60 m -3 X s 997 275 m -6 X s 994 280 m -3 X s 994 285
 m -3 X s
 gsave  408 306 930 13 C 937.285 62.6756 t 0 r /Helvetica findfont 22.8295 sf 0 0 m (\2550.05) show NC gr 
 gsave  408 306 930 13 C 937.285 88.3156 t 0 r /Helvetica findfont 22.8295 sf 0 0 m (\2550.04) show NC gr 
 gsave  408 306 930 13 C 937.285 113.956 t 0 r /Helvetica findfont 22.8295 sf 0 0 m (\2550.03) show NC gr 
 gsave  408 306 930 13 C 937.285 139.596 t 0 r /Helvetica findfont 22.8295 sf 0 0 m (\2550.02) show NC gr 
 gsave  408 306 930 13 C 940.134 165.236 t 0 r /Helvetica findfont 22.8295 sf 0 0 m (\2550.01) show NC gr 
 gsave  408 306 930 13 C 974.32 190.876 t 0 r /Helvetica findfont 22.8295 sf 0 0 m (0) show NC gr 
 gsave  408 306 930 13 C 945.832 216.516 t 0 r /Helvetica findfont 22.8295 sf 0 0 m (0.01) show NC gr 
 gsave  408 306 930 13 C 942.983 242.156 t 0 r /Helvetica findfont 22.8295 sf 0 0 m (0.02) show NC gr 
 gsave  408 306 930 13 C 942.983 267.796 t 0 r /Helvetica findfont 22.8295 sf 0 0 m (0.03) show NC gr  1297 59 m 229 Y s 1292 71 m 5 X s 1294 76 m 3 X s 1294 81 m 3 X s 1294 86 m 3 X s 1294 91 m 3 X s 1292 96 m 5 X s 1294 101 m 3 X s 1294 106 m 3 X s
 1294 111 m 3 X s 1294 116 m 3 X s 1292 122 m 5 X s 1294 127 m 3 X s 1294 132 m 3 X s 1294 137 m 3 X s 1294 142 m 3 X s 1292 147 m 5 X s 1294 152 m 3 X s 1294 157 m 3 X s 1294 162 m 3 X s 1294 168 m 3 X s 1292 173 m 5 X s 1294 178 m 3 X s 1294 183 m
 3 X s 1294 188 m 3 X s 1294 193 m 3 X s 1292 198 m 5 X s 1294 203 m 3 X s 1294 208 m 3 X s 1294 213 m 3 X s 1294 219 m 3 X s 1292 224 m 5 X s 1294 229 m 3 X s 1294 234 m 3 X s 1294 239 m 3 X s 1294 244 m 3 X s 1292 249 m 5 X s 1294 254 m 3 X s 1294
 259 m 3 X s 1294 265 m 3 X s 1294 270 m 3 X s 1292 275 m 5 X s 1292 71 m 5 X s 1294 65 m 3 X s 1294 60 m 3 X s 1292 275 m 5 X s 1294 280 m 3 X s 1294 285 m 3 X s 1007 146 1046 153 1084 200 1123 148 1166 160 5 { m21} R 1007 158 m 56 Y s 1001 214 m 12
 X s 1007 135 m -57 Y s 1001 78 m 12 X s 1046 165 m 56 Y s 1040 221 m 11 X s 1046 142 m -57 Y s 1040 85 m 11 X s 1084 211 m 58 Y s 1079 269 m 11 X s 1084 188 m -58 Y s 1079 130 m 11 X s 1123 159 m 56 Y s 1117 215 m 12 X s 1123 136 m -56 Y s 1117 80 m
 12 X s 1166 171 m 58 Y s 1160 229 m 11 X s 1166 149 m -57 Y s 1160 92 m 11 X s 9 lw 0.95 0.95 0.95 c black 993 147 m 3 1 d 3 X 3 1 d 3 X 3 1 d 3 X 3 1 d 3 X 3 1 d 3 X 3 1 d 3 X 3 1 d 3 X 3 1 d 4 X 3 1 d 3 X 3 1 d 3 X 3 1 d 3 X 3 1 d 3 X 3 1 d 3 X 3
 1 d 3 X 3 1 d 3 1 d 3 X 3 1 d 4 X 3 1 d 3 X 3 1 d 3 X 3 1 d 3 X 3 1 d 3 X 3 1 d 3 X 3 1 d 3 X 3 1 d 3 X 3 1 d 4 X s 1143 172 m 3 1 d 3 X 3 1 d 3 X 3 1 d 3 X 3 1 d 3 X 3 1 d 3 X 3 1 d 3 X 3 1 d 3 X 3 1 d 4 X 3 1 d 3 X 3 1 d 3 1 d 3 X 3 1 d 3 X 3 1 d
 3 X 3 1 d 3 X 3 1 d 3 X 3 1 d 3 X 3 1 d 4 X 3 1 d 3 X 3 1 d 3 X 3 1 d 3 X 3 1 d 3 X 3 1 d 3 X 3 1 d 3 X 3 1 d 3 X 3 1 d 4 X s 1293 197 m 3 1 d s 0.49 0.6 0.82 c black 0.49 0.6 0.82 c
 gsave  408 306 930 13 C 1051.24 296.285 t 0 r /Helvetica-Bold findfont 25.6831 sf 0 0 m (8.5 < E < 9.0 GeV) show NC gr  0.52 0.76 0.64 c black 0.52 0.76 0.64 c
 gsave  408 306 930 13 C 1037 259.249 t 0 r /Helvetica-Bold findfont 25.6831 sf 0 0 m 
 220 206 192 185 170 163 148 141 125 118 111 97 83 69 61 47 40 25 18
(A = 0.003, p = 1.000) K NC gr  1 0.6 1 c black 1 0.6 1 c
 gsave  408 306 930 13 C 1336.13 128.2 t 90 r /Helvetica-Bold findfont 28.5368 sf 0 0 m (/dof=0.1) show NC gr  black 1 0.6 1 c
 gsave  408 306 930 13 C 1324.73 116.804 t 90 r /Helvetica-Bold findfont 19.9758 sf 0 0 m (2) show NC gr  black 1 0.6 1 c
 gsave  408 306 930 13 C 1336.13 99.7112 t 90 r /Symbol findfont 28.5368 sf 0 0 m (c) show NC gr  black 3 lw 1 1 1 c 408 306 1383 13 bf black 1 1 1 c black 306 229 1445 59 bl 306 229 1445 59 bl 1445 59 m 306 X s 1518 63 m -4 Y s 1596 63 m -4 Y s 1673
 63 m -4 Y s 1751 63 m -4 Y s 1518 63 m -4 Y s
 gsave  408 306 1383 13 C 1507.06 39.8845 t 0 r /Helvetica findfont 22.8295 sf 0 0 m (\2556) show NC gr 
 gsave  408 306 1383 13 C 1583.98 39.8845 t 0 r /Helvetica findfont 22.8295 sf 0 0 m (\2554) show NC gr 
 gsave  408 306 1383 13 C 1660.9 39.8845 t 0 r /Helvetica findfont 22.8295 sf 0 0 m (\2552) show NC gr 
 gsave  408 306 1383 13 C 1740.67 39.8845 t 0 r /Helvetica findfont 22.8295 sf 0 0 m (0) show NC gr  1445 288 m 306 X s 1518 284 m 4 Y s 1596 284 m 4 Y s 1673 284 m 4 Y s 1751 284 m 4 Y s 1518 284 m 4 Y s 1445 59 m 229 Y s 1450 90 m -5 X s 1447 99 m
 -2 X s 1447 107 m -2 X s 1447 115 m -2 X s 1450 124 m -5 X s 1447 132 m -2 X s 1447 141 m -2 X s 1447 149 m -2 X s 1450 157 m -5 X s 1447 166 m -2 X s 1447 174 m -2 X s 1447 182 m -2 X s 1450 191 m -5 X s 1447 199 m -2 X s 1447 207 m -2 X s 1447 216
 m -2 X s 1450 224 m -5 X s 1447 232 m -2 X s 1447 241 m -2 X s 1447 249 m -2 X s 1450 257 m -5 X s 1450 90 m -5 X s 1447 82 m -2 X s 1447 74 m -2 X s 1447 65 m -2 X s 1450 257 m -5 X s 1447 266 m -2 X s 1447 274 m -2 X s 1447 283 m -2 X s
 gsave  408 306 1383 13 C 1390.26 82.6178 t 0 r /Helvetica findfont 22.8295 sf 0 0 m (\2550.02) show NC gr 
 gsave  408 306 1383 13 C 1427.29 116.804 t 0 r /Helvetica findfont 22.8295 sf 0 0 m (0) show NC gr 
 gsave  408 306 1383 13 C 1395.96 150.991 t 0 r /Helvetica findfont 22.8295 sf 0 0 m (0.02) show NC gr 
 gsave  408 306 1383 13 C 1395.96 182.329 t 0 r /Helvetica findfont 22.8295 sf 0 0 m (0.04) show NC gr 
 gsave  408 306 1383 13 C 1395.96 216.516 t 0 r /Helvetica findfont 22.8295 sf 0 0 m (0.06) show NC gr 
 gsave  408 306 1383 13 C 1395.96 250.702 t 0 r /Helvetica findfont 22.8295 sf 0 0 m (0.08) show NC gr  1751 59 m 229 Y s 1745 90 m 6 X s 1748 99 m 3 X s 1748 107 m 3 X s 1748 115 m 3 X s 1745 124 m 6 X s 1748 132 m 3 X s 1748 141 m 3 X s 1748 149 m
 3 X s 1745 157 m 6 X s 1748 166 m 3 X s 1748 174 m 3 X s 1748 182 m 3 X s 1745 191 m 6 X s 1748 199 m 3 X s 1748 207 m 3 X s 1748 216 m 3 X s 1745 224 m 6 X s 1748 232 m 3 X s 1748 241 m 3 X s 1748 249 m 3 X s 1745 257 m 6 X s 1745 90 m 6 X s 1748
 82 m 3 X s 1748 74 m 3 X s 1748 65 m 3 X s 1745 257 m 6 X s 1748 266 m 3 X s 1748 274 m 3 X s 1748 283 m 3 X s 1460 187 1499 218 1538 168 1577 149 1619 127 5 { m21} R 1460 198 m 39 Y s 1455 237 m 11 X s 1460 176 m -39 Y s 1455 137 m 11 X s 1499 229
 m 40 Y s 1493 269 m 12 X s 1499 206 m -40 Y s 1493 166 m 12 X s 1538 180 m 38 Y s 1532 218 m 12 X s 1538 157 m -38 Y s 1532 119 m 12 X s 1577 161 m 37 Y s 1571 198 m 11 X s 1577 138 m -38 Y s 1571 100 m 11 X s 1619 138 m 37 Y s 1613 175 m 12 X s
 1619 115 m -37 Y s 1613 78 m 12 X s 1 0 0 c 9 lw 0.95 0.95 0.95 c black 1 0 0 c 1446 214 m 3 -2 d 3 -1 d 3 -2 d 3 -2 d 3 -2 d 3 -1 d 3 -2 d 4 -2 d 3 -1 d 3 -2 d 3 -2 d 3 -1 d 3 -2 d 3 -1 d 3 -2 d 3 -2 d 3 -1 d 3 -2 d 3 -1 d 3 -2 d 3 -1 d 3 -1 d 3 -2
 d 4 -1 d 3 -2 d 3 -1 d 3 -1 d 3 -2 d 3 -1 d 3 -1 d 3 -1 d 3 -2 d 3 -1 d 3 -1 d 3 -1 d 3 -1 d 3 -2 d 3 -1 d 3 -1 d 4 -1 d 3 -1 d 3 -1 d 3 -1 d 3 -1 d 3 -1 d 3 -1 d 3 -1 d 3 -1 d 3 -1 d s 1596 147 m 3 -1 d 3 -1 d 3 -1 d 3 X 3 -1 d 3 -1 d 4 -1 d 3 -1 d
 3 X 3 -1 d 3 -1 d 3 -1 d 3 X 3 -1 d 3 -1 d 3 X 3 -1 d 3 -1 d 3 X 3 -1 d 3 X 3 -1 d 3 X 4 -1 d 3 X 3 -1 d 3 X 3 -1 d 6 X 3 -1 d 6 X 3 -1 d 9 X 3 -1 d 10 X 3 -1 d 21 X s 1746 124 m 3 X s 0.49 0.6 0.82 c black 0.49 0.6 0.82 c
 gsave  408 306 1383 13 C 1504.21 296.285 t 0 r /Helvetica-Bold findfont 25.6831 sf 0 0 m (9.0 < E < 9.5 GeV) show NC gr  0.52 0.76 0.64 c black 0.52 0.76 0.64 c
 gsave  408 306 1383 13 C 1489.97 259.249 t 0 r /Helvetica-Bold findfont 25.6831 sf 0 0 m 
 220 206 192 185 170 163 148 141 126 118 111 97 83 69 61 47 40 25 18
(A = 0.001, p = 2.000) K NC gr  1 0.6 1 c black 1 0.6 1 c
 gsave  408 306 1383 13 C 1789.1 128.2 t 90 r /Helvetica-Bold findfont 28.5368 sf 0 0 m (/dof=0.2) show NC gr  black 1 0.6 1 c
 gsave  408 306 1383 13 C 1777.71 116.804 t 90 r /Helvetica-Bold findfont 19.9758 sf 0 0 m (2) show NC gr  black 1 0.6 1 c
 gsave  408 306 1383 13 C 1789.1 99.7112 t 90 r /Symbol findfont 28.5368 sf 0 0 m (c) show NC gr  black 3 lw 1 1 1 c 408 306 1837 13 bf black 1 1 1 c black 306 229 1898 59 bl 306 229 1898 59 bl 1898 59 m 306 X s 1972 63 m -4 Y s 2049 63 m -4 Y s 2127
 63 m -4 Y s 2204 63 m -4 Y s 1972 63 m -4 Y s
 gsave  408 306 1837 13 C 1960.04 39.8845 t 0 r /Helvetica findfont 22.8295 sf 0 0 m (\2556) show NC gr 
 gsave  408 306 1837 13 C 2036.96 39.8845 t 0 r /Helvetica findfont 22.8295 sf 0 0 m (\2554) show NC gr 
 gsave  408 306 1837 13 C 2113.88 39.8845 t 0 r /Helvetica findfont 22.8295 sf 0 0 m (\2552) show NC gr 
 gsave  408 306 1837 13 C 2193.65 39.8845 t 0 r /Helvetica findfont 22.8295 sf 0 0 m (0) show NC gr  1898 288 m 306 X s 1972 284 m 4 Y s 2049 284 m 4 Y s 2127 284 m 4 Y s 2204 284 m 4 Y s 1972 284 m 4 Y s 1898 59 m 229 Y s 1904 74 m -6 X s 1901 81 m
 -3 X s 1901 89 m -3 X s 1901 96 m -3 X s 1904 103 m -6 X s 1901 111 m -3 X s 1901 118 m -3 X s 1901 125 m -3 X s 1904 132 m -6 X s 1901 140 m -3 X s 1901 147 m -3 X s 1901 154 m -3 X s 1904 162 m -6 X s 1901 169 m -3 X s 1901 176 m -3 X s 1901 184 m
 -3 X s 1904 191 m -6 X s 1901 198 m -3 X s 1901 205 m -3 X s 1901 213 m -3 X s 1904 220 m -6 X s 1901 227 m -3 X s 1901 235 m -3 X s 1901 242 m -3 X s 1904 249 m -6 X s 1901 257 m -3 X s 1901 264 m -3 X s 1901 271 m -3 X s 1904 278 m -6 X s 1904 74
 m -6 X s 1901 67 m -3 X s 1901 59 m -3 X s 1904 278 m -6 X s 1901 286 m -3 X s
 gsave  408 306 1837 13 C 1843.23 65.5245 t 0 r /Helvetica findfont 22.8295 sf 0 0 m (\2550.06) show NC gr 
 gsave  408 306 1837 13 C 1843.23 96.8623 t 0 r /Helvetica findfont 22.8295 sf 0 0 m (\2550.04) show NC gr 
 gsave  408 306 1837 13 C 1843.23 125.351 t 0 r /Helvetica findfont 22.8295 sf 0 0 m (\2550.02) show NC gr 
 gsave  408 306 1837 13 C 1880.27 153.84 t 0 r /Helvetica findfont 22.8295 sf 0 0 m (0) show NC gr 
 gsave  408 306 1837 13 C 1848.93 182.329 t 0 r /Helvetica findfont 22.8295 sf 0 0 m (0.02) show NC gr 
 gsave  408 306 1837 13 C 1848.93 213.667 t 0 r /Helvetica findfont 22.8295 sf 0 0 m (0.04) show NC gr 
 gsave  408 306 1837 13 C 1848.93 242.156 t 0 r /Helvetica findfont 22.8295 sf 0 0 m (0.06) show NC gr 
 gsave  408 306 1837 13 C 1848.93 270.645 t 0 r /Helvetica findfont 22.8295 sf 0 0 m (0.08) show NC gr  2204 59 m 229 Y s 2199 74 m 5 X s 2201 81 m 3 X s 2201 89 m 3 X s 2201 96 m 3 X s 2199 103 m 5 X s 2201 111 m 3 X s 2201 118 m 3 X s 2201 125 m 3
 X s 2199 132 m 5 X s 2201 140 m 3 X s 2201 147 m 3 X s 2201 154 m 3 X s 2199 162 m 5 X s 2201 169 m 3 X s 2201 176 m 3 X s 2201 184 m 3 X s 2199 191 m 5 X s 2201 198 m 3 X s 2201 205 m 3 X s 2201 213 m 3 X s 2199 220 m 5 X s 2201 227 m 3 X s 2201
 235 m 3 X s 2201 242 m 3 X s 2199 249 m 5 X s 2201 257 m 3 X s 2201 264 m 3 X s 2201 271 m 3 X s 2199 278 m 5 X s 2199 74 m 5 X s 2201 67 m 3 X s 2201 59 m 3 X s 2199 278 m 5 X s 2201 286 m 3 X s 1914 222 1953 122 1991 158 2030 153 2073 213 5 { m21}
 R 1914 233 m 36 Y s 1908 269 m 12 X s 1914 211 m -36 Y s 1908 175 m 12 X s 1953 133 m 32 Y s 1947 165 m 11 X s 1953 110 m -32 Y s 1947 78 m 11 X s 1991 170 m 33 Y s 1986 203 m 11 X s 1991 147 m -33 Y s 1986 114 m 11 X s 2030 164 m 34 Y s 2024 198 m
 12 X s 2030 142 m -34 Y s 2024 108 m 12 X s 2073 225 m 35 Y s 2067 260 m 11 X s 2073 202 m -35 Y s 2067 167 m 11 X s 1 0 0 c 9 lw 0.95 0.95 0.95 c black 1 0 0 c 1900 177 m 6 X 3 -1 d 6 X 3 -1 d 9 X 3 -1 d 6 X 3 -1 d 10 X 3 -1 d 9 X 3 -1 d 9 X 3 -1 d
 9 X 3 -1 d 13 X 3 -1 d 12 X 3 -1 d 12 X 3 -1 d 16 X s 2050 166 m 3 -1 d 18 X 3 -1 d 22 X 3 -1 d 30 X 3 -1 d 68 X s 2200 162 m 3 X s 0.49 0.6 0.82 c black 0.49 0.6 0.82 c
 gsave  408 306 1837 13 C 1948.64 296.285 t 0 r /Helvetica-Bold findfont 25.6831 sf 0 0 m (9.5 < E < 10.0 GeV) show NC gr  0.52 0.76 0.64 c black 0.52 0.76 0.64 c
 gsave  408 306 1837 13 C 1942.94 259.249 t 0 r /Helvetica-Bold findfont 25.6831 sf 0 0 m 
 220 206 192 185 170 163 148 141 125 118 111 97 83 69 61 47 40 25 18
(A = 0.000, p = 2.000) K NC gr  1 0.6 1 c black 1 0.6 1 c
 gsave  408 306 1837 13 C 2242.08 128.2 t 90 r /Helvetica-Bold findfont 28.5368 sf 0 0 m (/dof=0.9) show NC gr  black 1 0.6 1 c
 gsave  408 306 1837 13 C 2230.68 116.804 t 90 r /Helvetica-Bold findfont 19.9758 sf 0 0 m (2) show NC gr  black 1 0.6 1 c
 gsave  408 306 1837 13 C 2242.08 99.7112 t 90 r /Symbol findfont 28.5368 sf 0 0 m (c) show NC gr 
 gr  gr showpage
end
%%EOF
