%!PS-Adobe-2.0 EPSF-2.0
%%BoundingBox:  0 0 567 332
%%Title: SkinDepthIC__nof_summary.eps: Summary
%%Creator: ROOT Version 5.30/06
%%CreationDate: Sun Feb  2 09:31:43 2014
%%EndComments
%%BeginProlog
80 dict begin
/s {stroke} def /l {lineto} def /m {moveto} def /t {translate} def
/r {rotate} def /rl {roll}  def /R {repeat} def
/d {rlineto} def /rm {rmoveto} def /gr {grestore} def /f {eofill} def
/c {setrgbcolor} def /black {0 setgray} def /sd {setdash} def
/cl {closepath} def /sf {scalefont setfont} def /lw {setlinewidth} def
/box {m dup 0 exch d exch 0 d 0 exch neg d cl} def
/NC{systemdict begin initclip end}def/C{NC box clip newpath}def
/bl {box s} def /bf {box f} def /Y { 0 exch d} def /X { 0 d} def 
/K {{pop pop 0 moveto} exch kshow} bind def
/ita {/ang 15 def gsave [1 0 ang dup sin exch cos div 1 0 0] concat} def 
/mp {newpath /y exch def /x exch def} def
/side {[w .77 mul w .23 mul] .385 w mul sd w 0 l currentpoint t -144 r} def
/mr {mp x y w2 0 360 arc} def /m24 {mr s} def /m20 {mr f} def
/mb {mp x y w2 add m w2 neg 0 d 0 w neg d w 0 d 0 w d cl} def
/mt {mp x y w2 add m w2 neg w neg d w 0 d cl} def
/m21 {mb f} def /m25 {mb s} def /m22 {mt f} def /m26{mt s} def
/m23 {mp x y w2 sub m w2 w d w neg 0 d cl f} def
/m27 {mp x y w2 add m w3 neg w2 neg d w3 w2 neg d w3 w2 d cl s} def
/m28 {mp x w2 sub y w2 sub w3 add m w3 0 d  0 w3 neg d w3 0 d 0 w3 d w3 0 d  0 w3 d w3 neg 0 d 0 w3 d w3 neg 0 d 0 w3 neg d w3 neg 0 d cl s } def
/m29 {mp gsave x w2 sub y w2 add w3 sub m currentpoint t 4 {side} repeat cl fill gr} def
/m30 {mp gsave x w2 sub y w2 add w3 sub m currentpoint t 4 {side} repeat cl s gr} def
/m31 {mp x y w2 sub m 0 w d x w2 sub y m w 0 d x w2 sub y w2 add m w w neg d x w2 sub y w2 sub m w w d s} def
/m32 {mp x y w2 sub m w2 w d w neg 0 d cl s} def
/m33 {mp x y w2 add m w3 neg w2 neg d w3 w2 neg d w3 w2 d cl f} def
/m34 {mp x w2 sub y w2 sub w3 add m w3 0 d  0 w3 neg d w3 0 d 0 w3 d w3 0 d  0 w3 d w3 neg 0 d 0 w3 d w3 neg 0 d 0 w3 neg d w3 neg 0 d cl f } def
/m2 {mp x y w2 sub m 0 w d x w2 sub y m w 0 d s} def
/m5 {mp x w2 sub y w2 sub m w w d x w2 sub y w2 add m w w neg d s} def
/reEncode {exch findfont dup length dict begin {1 index /FID eq  {pop pop} {def} ifelse } forall /Encoding exch def currentdict end dup /FontName get exch definefont pop } def [/Times-Bold /Times-Italic /Times-BoldItalic /Helvetica /Helvetica-Oblique
 /Helvetica-Bold /Helvetica-BoldOblique /Courier /Courier-Oblique /Courier-Bold /Courier-BoldOblique /Times-Roman /AvantGarde-Book /AvantGarde-BookOblique /AvantGarde-Demi /AvantGarde-DemiOblique /Bookman-Demi /Bookman-DemiItalic /Bookman-Light
 /Bookman-LightItalic /Helvetica-Narrow /Helvetica-Narrow-Bold /Helvetica-Narrow-BoldOblique /Helvetica-Narrow-Oblique /NewCenturySchlbk-Roman /NewCenturySchlbk-Bold /NewCenturySchlbk-BoldItalic /NewCenturySchlbk-Italic /Palatino-Bold
 /Palatino-BoldItalic /Palatino-Italic /Palatino-Roman ] {ISOLatin1Encoding reEncode } forall%%EndProlog
%%BeginSetup
%%EndSetup
newpath  gsave  .25 .25 scale  gsave  0 0 t black[  ] 0 sd 3 lw 1 1 1 c 2268 1328 0 0 bf black 1 1 1 c black 1588 996 340 199 bl 1588 996 340 199 bl 1 1 1 c 1 0 0 c /w 23 def /w2 {w 2 div} def /w3 {w 3 div} def 380 292 m21 459 290 m21 539 288 m21 618
 292 m21 697 287 m21 777 288 m21 856 275 m21 935 273 m21 black 1015 254 m s 1015 277 m s 1009 254 m 12 X s 1009 277 m 12 X s 1 0 0 c 1015 266 m21 black 1094 261 m 4 Y s 1094 288 m 5 Y s 1088 261 m 12 X s 1088 293 m 12 X s 1 0 0 c 1094 277 m21 black
 1174 255 m 10 Y s 1174 288 m 9 Y s 1168 255 m 11 X s 1168 297 m 11 X s 1 0 0 c 1174 276 m21 black 1253 340 m 16 Y s 1253 379 m 16 Y s 1247 340 m 12 X s 1247 395 m 12 X s 1 0 0 c 1253 367 m21 black 1332 273 m 21 Y s 1332 316 m 21 Y s 1327 273 m 11 X
 s 1327 337 m 11 X s 1 0 0 c 1332 305 m21 black 1412 253 m 24 Y s 1412 300 m 25 Y s 1406 253 m 11 X s 1406 325 m 11 X s 1 0 0 c 1412 289 m21 black 1491 259 m 28 Y s 1491 310 m 28 Y s 1485 259 m 12 X s 1485 338 m 12 X s 1 0 0 c 1491 298 m21 black 1570
 251 m 31 Y s 1570 305 m 32 Y s 1565 251 m 11 X s 1565 337 m 11 X s 1 0 0 c 1570 294 m21 black 1650 228 m 35 Y s 1650 285 m 35 Y s 1644 228 m 11 X s 1644 320 m 11 X s 1 0 0 c 1650 274 m21 black 1729 205 m 36 Y s 1729 264 m 37 Y s 1723 205 m 12 X s
 1723 301 m 12 X s 1 0 0 c 1729 253 m21 black 1809 304 m 43 Y s 1809 370 m 42 Y s 1803 304 m 11 X s 1803 412 m 11 X s 1 0 0 c 1809 358 m21 black 1888 306 m 47 Y s 1888 376 m 47 Y s 1882 306 m 12 X s 1882 423 m 12 X s 1 0 0 c 1888 365 m21 black 340
 199 m 1588 X s
 gsave  2268 1328 0 0 C 954.378 68.3734 t 0 r /Helvetica findfont 62.6756 sf 0 0 m ( Energy \(GeV\) ) show NC gr 
 gsave  2268 1328 0 0 C 928.738 51.28 t 0 r /Symbol findfont 42.7334 sf 0 0 m (m) show NC gr 
 gsave  2268 1328 0 0 C 894.552 68.3734 t 0 r /Symbol findfont 62.6756 sf 0 0 m (n) show NC gr  340 216 m -17 Y s 372 208 m -9 Y s 404 208 m -9 Y s 435 208 m -9 Y s 467 208 m -9 Y s 499 216 m -17 Y s 531 208 m -9 Y s 562 208 m -9 Y s 594 208 m -9 Y s
 626 208 m -9 Y s 658 216 m -17 Y s 689 208 m -9 Y s 721 208 m -9 Y s 753 208 m -9 Y s 785 208 m -9 Y s 816 216 m -17 Y s 848 208 m -9 Y s 880 208 m -9 Y s 912 208 m -9 Y s 943 208 m -9 Y s 975 216 m -17 Y s 1007 208 m -9 Y s 1039 208 m -9 Y s 1070
 208 m -9 Y s 1102 208 m -9 Y s 1134 216 m -17 Y s 1166 208 m -9 Y s 1197 208 m -9 Y s 1229 208 m -9 Y s 1261 208 m -9 Y s 1293 216 m -17 Y s 1324 208 m -9 Y s 1356 208 m -9 Y s 1388 208 m -9 Y s 1420 208 m -9 Y s 1451 216 m -17 Y s 1483 208 m -9 Y s
 1515 208 m -9 Y s 1547 208 m -9 Y s 1578 208 m -9 Y s 1610 216 m -17 Y s 1642 208 m -9 Y s 1674 208 m -9 Y s 1705 208 m -9 Y s 1737 208 m -9 Y s 1769 216 m -17 Y s 1801 208 m -9 Y s 1832 208 m -9 Y s 1864 208 m -9 Y s 1896 208 m -9 Y s 1928 216 m
 -17 Y s
 gsave  2268 1328 0 0 C 319.076 136.747 t 0 r /Helvetica findfont 68.3734 sf 0 0 m (0) show NC gr 
 gsave  2268 1328 0 0 C 484.311 136.747 t 0 r /Helvetica findfont 68.3734 sf 0 0 m (1) show NC gr 
 gsave  2268 1328 0 0 C 635.302 136.747 t 0 r /Helvetica findfont 68.3734 sf 0 0 m (2) show NC gr 
 gsave  2268 1328 0 0 C 794.84 136.747 t 0 r /Helvetica findfont 68.3734 sf 0 0 m (3) show NC gr 
 gsave  2268 1328 0 0 C 954.378 136.747 t 0 r /Helvetica findfont 68.3734 sf 0 0 m (4) show NC gr 
 gsave  2268 1328 0 0 C 1113.92 136.747 t 0 r /Helvetica findfont 68.3734 sf 0 0 m (5) show NC gr 
 gsave  2268 1328 0 0 C 1270.6 136.747 t 0 r /Helvetica findfont 68.3734 sf 0 0 m (6) show NC gr 
 gsave  2268 1328 0 0 C 1430.14 136.747 t 0 r /Helvetica findfont 68.3734 sf 0 0 m (7) show NC gr 
 gsave  2268 1328 0 0 C 1589.68 136.747 t 0 r /Helvetica findfont 68.3734 sf 0 0 m (8) show NC gr 
 gsave  2268 1328 0 0 C 1746.37 136.747 t 0 r /Helvetica findfont 68.3734 sf 0 0 m (9) show NC gr 
 gsave  2268 1328 0 0 C 1888.81 136.747 t 0 r /Helvetica findfont 68.3734 sf 0 0 m (10) show NC gr  340 1195 m 1588 X s 340 1178 m 17 Y s 372 1186 m 9 Y s 404 1186 m 9 Y s 435 1186 m 9 Y s 467 1186 m 9 Y s 499 1178 m 17 Y s 531 1186 m 9 Y s 562 1186
 m 9 Y s 594 1186 m 9 Y s 626 1186 m 9 Y s 658 1178 m 17 Y s 689 1186 m 9 Y s 721 1186 m 9 Y s 753 1186 m 9 Y s 785 1186 m 9 Y s 816 1178 m 17 Y s 848 1186 m 9 Y s 880 1186 m 9 Y s 912 1186 m 9 Y s 943 1186 m 9 Y s 975 1178 m 17 Y s 1007 1186 m 9 Y s
 1039 1186 m 9 Y s 1070 1186 m 9 Y s 1102 1186 m 9 Y s 1134 1178 m 17 Y s 1166 1186 m 9 Y s 1197 1186 m 9 Y s 1229 1186 m 9 Y s 1261 1186 m 9 Y s 1293 1178 m 17 Y s 1324 1186 m 9 Y s 1356 1186 m 9 Y s 1388 1186 m 9 Y s 1420 1186 m 9 Y s 1451 1178 m
 17 Y s 1483 1186 m 9 Y s 1515 1186 m 9 Y s 1547 1186 m 9 Y s 1578 1186 m 9 Y s 1610 1178 m 17 Y s 1642 1186 m 9 Y s 1674 1186 m 9 Y s 1705 1186 m 9 Y s 1737 1186 m 9 Y s 1769 1178 m 17 Y s 1801 1186 m 9 Y s 1832 1186 m 9 Y s 1864 1186 m 9 Y s 1896
 1186 m 9 Y s 1928 1178 m 17 Y s 340 199 m 996 Y s
 gsave  2268 1328 0 0 C 170.933 336.169 t 90 r /Helvetica findfont 62.6756 sf 0 0 m (Near/Far Ratio to Nominal) show NC gr  371 290 m -31 X s 355 326 m -15 X s 355 362 m -15 X s 355 398 m -15 X s 355 434 m -15 X s 371 471 m -31 X s 355 507 m -15 X s
 355 543 m -15 X s 355 579 m -15 X s 355 616 m -15 X s 371 652 m -31 X s 355 688 m -15 X s 355 724 m -15 X s 355 760 m -15 X s 355 797 m -15 X s 371 833 m -31 X s 355 869 m -15 X s 355 905 m -15 X s 355 941 m -15 X s 355 978 m -15 X s 371 1014 m -31
 X s 355 1050 m -15 X s 355 1086 m -15 X s 355 1122 m -15 X s 355 1159 m -15 X s 371 1195 m -31 X s 371 290 m -31 X s 355 253 m -15 X s 355 217 m -15 X s
 gsave  2268 1328 0 0 C 301.982 262.098 t 0 r /Helvetica findfont 68.3734 sf 0 0 m (1) show NC gr 
 gsave  2268 1328 0 0 C 245.005 444.427 t 0 r /Helvetica findfont 68.3734 sf 0 0 m (1.1) show NC gr 
 gsave  2268 1328 0 0 C 233.609 623.907 t 0 r /Helvetica findfont 68.3734 sf 0 0 m (1.2) show NC gr 
 gsave  2268 1328 0 0 C 233.609 809.085 t 0 r /Helvetica findfont 68.3734 sf 0 0 m (1.3) show NC gr 
 gsave  2268 1328 0 0 C 233.609 985.716 t 0 r /Helvetica findfont 68.3734 sf 0 0 m (1.4) show NC gr 
 gsave  2268 1328 0 0 C 233.609 1170.89 t 0 r /Helvetica findfont 68.3734 sf 0 0 m (1.5) show NC gr  1928 199 m 996 Y s 1897 290 m 31 X s 1912 326 m 16 X s 1912 362 m 16 X s 1912 398 m 16 X s 1912 434 m 16 X s 1897 471 m 31 X s 1912 507 m 16 X s 1912
 543 m 16 X s 1912 579 m 16 X s 1912 616 m 16 X s 1897 652 m 31 X s 1912 688 m 16 X s 1912 724 m 16 X s 1912 760 m 16 X s 1912 797 m 16 X s 1897 833 m 31 X s 1912 869 m 16 X s 1912 905 m 16 X s 1912 941 m 16 X s 1912 978 m 16 X s 1897 1014 m 31 X s
 1912 1050 m 16 X s 1912 1086 m 16 X s 1912 1122 m 16 X s 1912 1159 m 16 X s 1897 1195 m 31 X s 1897 290 m 31 X s 1912 253 m 16 X s 1912 217 m 16 X s 1 0 0 c 6 lw 1 1 1 c 1 0 0 c 380 289 m 79 X 69 -1 d 24 X 19 1 d 24 2 d 11 1 d 23 X 15 -1 d 45 -4 d
 46 X 26 1 d 16 X 21 -1 d 27 -1 d 31 -2 d 29 -2 d 32 -3 d 18 -2 d 11 -1 d 21 -4 d 15 -2 d 11 -1 d 8 -1 d 20 X 6 1 d 8 1 d 9 2 d 23 6 d 8 2 d 7 1 d 6 1 d 11 X 5 -1 d 5 -1 d 7 -1 d 22 -7 d 7 -2 d 6 -1 d 4 X 5 -1 d 4 1 d 4 X 4 1 d 2 1 d 3 1 d 3 1 d 3 2
 d 3 3 d 4 3 d 4 4 d 4 5 d 4 6 d 7 8 d 9 13 d 5 7 d 4 5 d 3 4 d 4 3 d 2 2 d 4 3 d 3 1 d 3 2 d 3 1 d 3 1 d 4 X 76 -49 d 7 -2 d 7 -3 d 8 -2 d 9 -1 d 11 -2 d 11 -2 d 27 -3 d 9 -1 d 31 -6 d 8 -1 d 19 X 5 1 d 5 1 d 2 X 3 1 d 4 2 d 4 2 d 4 3 d 4 3 d 5 5 d
 6 6 d 14 15 d 5 4 d 5 4 d 3 3 d 4 2 d 3 2 d 4 2 d 3 1 d 3 1 d 4 X 1 1 d 4 -1 d 4 X 3 -1 d 4 -2 d 4 -2 d 4 -2 d 4 -4 d 5 -3 d 5 -6 d 13 -12 d 7 -7 d 5 -5 d 5 -4 d 4 -3 d 4 -2 d 4 -2 d 1 -1 d 34 -16 d 7 -3 d 6 -2 d 5 -1 d 4 -1 d 4 -1 d 5 X 4 1 d 4 X 4
 1 d 2 1 d 3 1 d 2 2 d 3 1 d 2 3 d 3 2 d 2 3 d 3 4 d 2 4 d 3 4 d 3 6 d 3 7 d 3 8 d 5 13 d 6 19 d 3 8 d 3 7 d 3 5 d 2 5 d 3 4 d 2 4 d 3 3 d 2 3 d 2 2 d 3 1 d 2 2 d 3 1 d 2 1 d 4 1 d 4 X 5 -1 d 4 X 5 -1 d 4 -2 d 4 -1 d 4 -2 d 4 -3 d 4 -2 d 4 -3 d 4 -4
 d 4 -3 d 4 -4 d 3 -5 d 4 -5 d 3 -5 d 3 -5 d 3 -5 d 3 -7 d 3 -5 d 2 -6 d 1 -3 d s 3 lw /w 2 def /w2 {w 2 div} def /w3 {w 3 div} def 380 289 459 289 539 288 618 292 697 287 777 288 856 284 935 277 1015 268 1094 282 1174 271 1253 346 1332 297 1412 282
 1491 276 1570 333 1650 276 1729 255 1809 379 1888 307 20 { m20} R 6 lw black 1 0 0 c
 gsave  2268 1328 0 0 C 2036.96 316.227 t 0 r /Helvetica-Bold findfont 48.4311 sf 0 0 m (/dof=0.3) show NC gr  black 1 0 0 c
 gsave  2268 1328 0 0 C 2017.01 333.32 t 0 r /Helvetica-Bold findfont 34.1867 sf 0 0 m (2) show NC gr  black 1 0 0 c
 gsave  2268 1328 0 0 C 1991.37 316.227 t 0 r /Symbol findfont 48.4311 sf 0 0 m (c) show NC gr  black 3 lw 340 290 m 1588 X s
 gsave  2268 1328 0 0 C 333.32 1213.63 t 0 r /Helvetica-Bold findfont 42.7334 sf 0 0 m (2.5 mm) show NC gr  1 0 0 c /w 23 def /w2 {w 2 div} def /w3 {w 3 div} def 292 1228 m21 black 1 1 1 c 0 0 1 c 380 472 m21 459 469 m21 539 468 m21 618 471 m21 697
 470 m21 777 470 m21 856 465 m21 935 468 m21 black 1015 438 m 1 Y s 1015 462 m 1 Y s 1009 438 m 12 X s 1009 463 m 12 X s 0 0 1 c 1015 450 m21 black 1094 453 m 6 Y s 1094 482 m 6 Y s 1088 453 m 12 X s 1088 488 m 12 X s 0 0 1 c 1094 470 m21 black 1174
 415 m 11 Y s 1174 449 m 11 Y s 1168 415 m 11 X s 1168 460 m 11 X s 0 0 1 c 1174 437 m21 black 1253 487 m 18 Y s 1253 528 m 18 Y s 1247 487 m 12 X s 1247 546 m 12 X s 0 0 1 c 1253 517 m21 black 1332 437 m 24 Y s 1332 483 m 24 Y s 1327 437 m 11 X s
 1327 507 m 11 X s 0 0 1 c 1332 472 m21 black 1412 457 m 29 Y s 1412 509 m 29 Y s 1406 457 m 11 X s 1406 538 m 11 X s 0 0 1 c 1412 497 m21 black 1491 385 m 31 Y s 1491 439 m 31 Y s 1485 385 m 12 X s 1485 470 m 12 X s 0 0 1 c 1491 428 m21 black 1570
 496 m 37 Y s 1570 556 m 38 Y s 1565 496 m 11 X s 1565 594 m 11 X s 0 0 1 c 1570 545 m21 black 1650 414 m 39 Y s 1650 476 m 39 Y s 1644 414 m 11 X s 1644 515 m 11 X s 0 0 1 c 1650 465 m21 black 1729 383 m 41 Y s 1729 447 m 42 Y s 1723 383 m 12 X s
 1723 489 m 12 X s 0 0 1 c 1729 436 m21 black 1809 521 m 50 Y s 1809 594 m 50 Y s 1803 521 m 11 X s 1803 644 m 11 X s 0 0 1 c 1809 583 m21 black 1888 357 m 48 Y s 1888 428 m 47 Y s 1882 357 m 12 X s 1882 475 m 12 X s 0 0 1 c 1888 416 m21 6 lw 1 1 1 c
 0 0 1 c 380 470 m 79 X 66 -1 d 14 X 13 1 d 18 1 d 24 1 d 13 1 d 11 X 11 -1 d 13 X 48 -4 d 43 X 28 1 d 16 X 23 -1 d 25 -1 d 31 -1 d 26 -2 d 31 -2 d 22 -2 d 11 -1 d 22 -3 d 14 -1 d 11 -2 d 28 X 6 1 d 8 1 d 9 2 d 22 4 d 9 2 d 6 1 d 23 X 5 -1 d 7 -2 d
 17 -5 d 9 -2 d 6 -2 d 5 -1 d 13 X 3 1 d 5 X 3 1 d 3 2 d 3 2 d 3 2 d 4 2 d 4 4 d 4 4 d 4 5 d 6 7 d 10 12 d 5 5 d 4 5 d 4 3 d 3 3 d 3 2 d 4 2 d 3 2 d 3 1 d 3 X 3 1 d 7 X 3 -1 d 4 -1 d 4 -1 d 4 -2 d 4 -2 d 5 -3 d 6 -4 d 13 -9 d 7 -5 d 6 -4 d 5 -3 d 4
 -2 d 4 -2 d 3 -1 d 7 -2 d 8 -2 d 8 -2 d 9 -2 d 11 -1 d 18 -2 d 19 -3 d 9 -1 d 32 -5 d 8 -1 d 7 -1 d 5 X 6 1 d 5 X 4 1 d 3 1 d 3 1 d 4 1 d 3 2 d 4 3 d 4 2 d 4 4 d 5 5 d 6 5 d 11 12 d 5 4 d 5 4 d 3 3 d 4 2 d 3 2 d 3 1 d 3 1 d 3 1 d 3 X 3 1 d 4 -1 d 3
 X 3 -1 d 4 -1 d 4 -2 d 4 -2 d 4 -3 d 4 -3 d 5 -4 d 6 -6 d 15 -15 d 6 -4 d 4 -4 d 4 -3 d 4 -2 d 4 -2 d 2 -1 d 31 -15 d 8 -2 d 6 -2 d 5 -2 d 5 -1 d 17 X 3 1 d 4 1 d 3 1 d 2 1 d 3 1 d 2 2 d 3 2 d 3 3 d 2 3 d 3 4 d 2 4 d 3 5 d 3 6 d 3 7 d 4 9 d 7 17 d 4
 8 d 2 5 d 3 5 d 2 4 d 3 4 d 2 3 d 3 3 d 2 2 d 2 2 d 3 2 d 2 1 d 3 1 d 3 1 d 16 X 5 -1 d 4 -1 d 4 -2 d 4 -1 d 4 -2 d 4 -3 d 4 -2 d 4 -3 d 4 -3 d 4 -4 d 4 -3 d 3 -5 d 3 -4 d 4 -4 d s 1877 506 m 3 -5 d 3 -5 d 2 -4 d 2 -5 d 1 -2 d s 3 lw /w 2 def /w2 {w
 2 div} def /w3 {w 3 div} def 380 470 459 470 539 469 618 473 697 468 777 469 856 466 935 460 1015 453 1094 464 1174 452 1253 517 1332 477 1412 463 1491 458 1570 512 1650 458 1729 438 1809 544 1888 485 20 { m20} R 6 lw black 0 0 1 c
 gsave  2268 1328 0 0 C 2036.96 515.649 t 0 r /Helvetica-Bold findfont 48.4311 sf 0 0 m (/dof=0.3) show NC gr  black 0 0 1 c
 gsave  2268 1328 0 0 C 2017.01 532.742 t 0 r /Helvetica-Bold findfont 34.1867 sf 0 0 m (2) show NC gr  black 0 0 1 c
 gsave  2268 1328 0 0 C 1991.37 515.649 t 0 r /Symbol findfont 48.4311 sf 0 0 m (c) show NC gr  black 3 lw 340 471 m 1588 X s
 gsave  2268 1328 0 0 C 695.129 1213.63 t 0 r /Helvetica-Bold findfont 42.7334 sf 0 0 m (3.5 mm) show NC gr  0 0 1 c /w 23 def /w2 {w 2 div} def /w3 {w 3 div} def 655 1228 m21 black 1 1 1 c 1 0 1 c 380 647 m21 459 650 m21 539 650 m21 618 655 m21 697
 646 m21 777 652 m21 856 669 m21 935 633 m21 black 1015 627 m 2 Y s 1015 652 m 3 Y s 1009 627 m 12 X s 1009 655 m 12 X s 1 0 1 c 1015 641 m21 black 1094 636 m 8 Y s 1094 667 m 7 Y s 1088 636 m 12 X s 1088 674 m 12 X s 1 0 1 c 1094 655 m21 black 1174
 634 m 13 Y s 1174 670 m 14 Y s 1168 634 m 11 X s 1168 684 m 11 X s 1 0 1 c 1174 659 m21 black 1253 610 m 20 Y s 1253 653 m 19 Y s 1247 610 m 12 X s 1247 672 m 12 X s 1 0 1 c 1253 641 m21 black 1332 621 m 26 Y s 1332 670 m 26 Y s 1327 621 m 11 X s
 1327 696 m 11 X s 1 0 1 c 1332 658 m21 black 1412 549 m 30 Y s 1412 602 m 30 Y s 1406 549 m 11 X s 1406 632 m 11 X s 1 0 1 c 1412 590 m21 black 1491 606 m 36 Y s 1491 665 m 36 Y s 1485 606 m 12 X s 1485 701 m 12 X s 1 0 1 c 1491 653 m21 black 1570
 588 m 39 Y s 1570 650 m 40 Y s 1565 588 m 11 X s 1565 690 m 11 X s 1 0 1 c 1570 639 m21 black 1650 637 m 45 Y s 1650 705 m 46 Y s 1644 637 m 11 X s 1644 751 m 11 X s 1 0 1 c 1650 694 m21 black 1729 594 m 47 Y s 1729 664 m 48 Y s 1723 594 m 12 X s
 1723 712 m 12 X s 1 0 1 c 1729 653 m21 black 1809 645 m 53 Y s 1809 721 m 54 Y s 1803 645 m 11 X s 1803 775 m 11 X s 1 0 1 c 1809 710 m21 black 1888 580 m 55 Y s 1888 658 m 55 Y s 1882 580 m 12 X s 1882 713 m 12 X s 1 0 1 c 1888 647 m21 6 lw 1 1 1 c
 1 0 1 c 380 651 m 79 X 58 -1 d 17 X 5 1 d 13 X 18 1 d 23 1 d 13 X 10 1 d 2 X 10 -1 d 13 X 26 -2 d 16 -1 d 11 -1 d 32 X 36 1 d 42 X 25 -1 d 27 -1 d 24 -1 d 33 -2 d 22 -1 d 11 -1 d 22 -2 d 15 -2 d 10 -1 d 35 X 7 1 d 10 2 d 20 3 d 9 2 d 7 X 6 1 d 12 X
 4 -1 d 6 -1 d 6 -1 d 6 -2 d 20 -5 d 6 -2 d 5 X 5 -1 d 12 X 3 1 d 2 X 3 1 d 3 1 d 3 1 d 3 2 d 4 2 d 4 3 d 3 3 d 5 4 d 6 5 d 10 11 d 5 4 d 4 4 d 4 3 d 3 2 d 3 2 d 3 1 d 3 2 d 3 1 d 3 X 3 1 d 11 X 4 -1 d 4 -1 d 4 -1 d 4 -2 d 5 -3 d 6 -3 d 13 -7 d 9 -5
 d 5 -3 d 5 -2 d 4 -1 d 4 -2 d 2 X 8 -2 d 8 -2 d 10 -2 d 9 -1 d 12 -2 d 20 -2 d 13 -1 d 8 -1 d 27 -4 d 8 -1 d 7 -1 d 21 X 4 1 d 4 1 d 3 1 d 3 1 d 4 2 d 3 1 d 4 3 d 4 3 d 4 3 d 5 5 d 14 13 d 5 4 d 4 3 d 4 3 d 3 2 d 3 1 d 3 2 d 3 1 d 3 1 d 14 X 3 -1 d
 3 -1 d 4 -1 d 3 -2 d 4 -2 d 4 -3 d 4 -3 d 5 -4 d 8 -6 d 10 -9 d 5 -5 d 4 -3 d 4 -3 d 4 -2 d 3 -2 d 4 -2 d 1 X 29 -12 d 7 -3 d 6 -2 d 6 -1 d 5 -1 d 4 -1 d 17 X 3 1 d 2 X 3 1 d 2 1 d 3 1 d 2 2 d 3 2 d 3 2 d 2 2 d 3 3 d 2 3 d 3 4 d 3 5 d 3 6 d 5 8 d 7
 14 d 3 6 d 2 5 d 3 4 d 2 4 d 3 2 d 2 3 d 3 2 d 2 2 d 2 2 d 3 1 d 3 1 d 2 1 d 3 1 d 16 X 5 -1 d 4 -1 d 4 -1 d s 1835 706 m 4 -1 d 4 -2 d 4 -1 d 4 -2 d 4 -3 d 4 -2 d 4 -3 d 4 -3 d 4 -3 d 3 -3 d 3 -4 d 3 -4 d 3 -4 d 2 -4 d 3 -4 d s 3 lw /w 2 def /w2 {w
 2 div} def /w3 {w 3 div} def 380 651 459 651 539 651 618 654 697 649 777 650 856 648 935 644 1015 638 1094 647 1174 635 1253 688 1332 657 1412 645 1491 640 1570 689 1650 640 1729 621 1809 709 1888 663 20 { m20} R 6 lw black 1 0 1 c
 gsave  2268 1328 0 0 C 2036.96 715.071 t 0 r /Helvetica-Bold findfont 48.4311 sf 0 0 m (/dof=0.8) show NC gr  black 1 0 1 c
 gsave  2268 1328 0 0 C 2017.01 732.165 t 0 r /Helvetica-Bold findfont 34.1867 sf 0 0 m (2) show NC gr  black 1 0 1 c
 gsave  2268 1328 0 0 C 1991.37 715.071 t 0 r /Symbol findfont 48.4311 sf 0 0 m (c) show NC gr  black 3 lw 340 652 m 1588 X s
 gsave  2268 1328 0 0 C 1059.79 1213.63 t 0 r /Helvetica-Bold findfont 42.7334 sf 0 0 m (4.5 mm) show NC gr  1 0 1 c /w 23 def /w2 {w 2 div} def /w3 {w 3 div} def 1018 1228 m21 black 1 1 1 c 0 0.733333 1 c 380 831 m21 459 835 m21 539 834 m21 618 834
 m21 697 833 m21 777 828 m21 856 833 m21 black 935 827 m s 935 850 m s 930 827 m 11 X s 930 850 m 11 X s 0 0.733333 1 c 935 839 m21 black 1015 817 m 3 Y s 1015 843 m 4 Y s 1009 817 m 12 X s 1009 847 m 12 X s 0 0.733333 1 c 1015 832 m21 black 1094 796
 m 9 Y s 1094 827 m 10 Y s 1088 796 m 12 X s 1088 837 m 12 X s 0 0.733333 1 c 1094 816 m21 black 1174 771 m 15 Y s 1174 809 m 16 Y s 1168 771 m 11 X s 1168 825 m 11 X s 0 0.733333 1 c 1174 798 m21 black 1253 869 m 23 Y s 1253 915 m 24 Y s 1247 869 m
 12 X s 1247 939 m 12 X s 0 0.733333 1 c 1253 904 m21 black 1332 781 m 29 Y s 1332 833 m 29 Y s 1327 781 m 11 X s 1327 862 m 11 X s 0 0.733333 1 c 1332 822 m21 black 1412 785 m 35 Y s 1412 843 m 35 Y s 1406 785 m 11 X s 1406 878 m 11 X s 0 0.733333 1
 c 1412 831 m21 black 1491 762 m 39 Y s 1491 824 m 39 Y s 1485 762 m 12 X s 1485 863 m 12 X s 0 0.733333 1 c 1491 813 m21 black 1570 884 m 47 Y s 1570 954 m 46 Y s 1565 884 m 11 X s 1565 1000 m 11 X s 0 0.733333 1 c 1570 942 m21 black 1650 694 m 47 Y
 s 1650 763 m 47 Y s 1644 694 m 11 X s 1644 810 m 11 X s 0 0.733333 1 c 1650 752 m21 black 1729 724 m 51 Y s 1729 797 m 52 Y s 1723 724 m 12 X s 1723 849 m 12 X s 0 0.733333 1 c 1729 786 m21 black 1809 799 m 58 Y s 1809 880 m 57 Y s 1803 799 m 11 X s
 1803 937 m 11 X s 0 0.733333 1 c 1809 868 m21 black 1888 747 m 60 Y s 1888 830 m 61 Y s 1882 747 m 12 X s 1882 891 m 12 X s 0 0.733333 1 c 1888 819 m21 6 lw 1 1 1 c 0 0.733333 1 c 380 832 m 171 X 18 1 d 23 1 d 47 X 18 -1 d 23 -2 d 148 X 24 -1 d 4 X
 23 -1 d 26 -1 d 30 -1 d 12 -1 d 21 -1 d 15 -1 d 10 -1 d 35 X 8 1 d 9 1 d 19 2 d 9 1 d 7 1 d 18 X 5 -1 d 5 X 6 -1 d 7 -2 d 20 -5 d 6 -1 d 5 -1 d 5 X 4 -1 d 8 X 3 1 d 5 X 3 1 d 3 1 d 3 1 d 4 2 d 3 2 d 4 2 d 5 3 d 5 5 d 12 9 d 4 3 d 5 3 d 3 2 d 3 1 d 3
 2 d 3 1 d 4 1 d 3 1 d 3 1 d 13 X 4 -1 d 4 X 4 -1 d 5 -2 d 5 -2 d 6 -2 d 13 -5 d 8 -4 d 7 -2 d 4 -1 d 4 -2 d 5 -1 d 9 -1 d 9 -2 d 9 -1 d 12 -1 d 14 -2 d 27 -2 d 7 -1 d 22 -3 d 10 -1 d 6 -1 d 6 X 6 -1 d 5 X 5 1 d 4 X 4 1 d 4 X 3 1 d 3 1 d 3 1 d 3 2 d
 4 1 d 3 2 d 4 3 d 4 3 d 6 5 d 10 9 d 5 4 d 4 3 d 4 2 d 3 2 d 3 1 d 2 1 d 4 1 d 2 1 d 3 1 d 13 X 3 -1 d 3 -1 d 3 -1 d 4 -1 d 3 -2 d 4 -2 d 3 -2 d 4 -3 d 6 -4 d 14 -11 d 5 -5 d 5 -2 d 3 -3 d 4 -2 d 3 -2 d 4 -1 d 2 -1 d 26 -9 d 7 -2 d 6 -2 d 6 -2 d 5
 -1 d 5 X 4 -1 d 16 X 4 1 d 3 X 2 1 d 3 1 d 2 1 d 3 1 d 2 2 d 3 2 d 2 2 d 3 2 d 2 3 d 3 3 d 3 4 d 4 6 d 5 8 d 4 7 d 4 4 d 2 4 d 3 3 d 2 3 d 3 2 d 2 2 d 2 2 d 3 1 d 2 1 d 3 1 d 2 1 d 3 1 d 5 X 4 1 d 5 X 4 -1 d 5 X 4 -1 d 4 X s 1835 873 m 4 -1 d 4 -2 d
 5 -1 d 4 -1 d 4 -2 d 4 -2 d 4 -2 d 4 -3 d 3 -2 d 4 -3 d 3 -3 d 4 -3 d 2 -3 d 3 -3 d 1 -1 d s 3 lw /w 2 def /w2 {w 2 div} def /w3 {w 3 div} def 380 832 459 832 539 832 618 834 697 831 777 831 856 830 935 827 1015 823 1094 829 1174 818 1253 859 1332
 836 1412 827 1491 822 1570 866 1650 822 1729 806 1809 874 1888 841 20 { m20} R 6 lw black 0 0.733333 1 c
 gsave  2268 1328 0 0 C 2036.96 914.494 t 0 r /Helvetica-Bold findfont 48.4311 sf 0 0 m (/dof=0.4) show NC gr  black 0 0.733333 1 c
 gsave  2268 1328 0 0 C 2017.01 931.587 t 0 r /Helvetica-Bold findfont 34.1867 sf 0 0 m (2) show NC gr  black 0 0.733333 1 c
 gsave  2268 1328 0 0 C 1991.37 914.494 t 0 r /Symbol findfont 48.4311 sf 0 0 m (c) show NC gr  black 3 lw 340 833 m 1588 X s
 gsave  2268 1328 0 0 C 1421.6 1213.63 t 0 r /Helvetica-Bold findfont 42.7334 sf 0 0 m (5.5 mm) show NC gr  0 0.733333 1 c /w 23 def /w2 {w 2 div} def /w3 {w 3 div} def 1380 1228 m21 black 1 1 1 c 0.35 0.83 0.33 c 380 1012 m21 459 1011 m21 539 1012
 m21 618 1017 m21 697 1011 m21 777 1010 m21 856 1008 m21 black 935 999 m 1 Y s 935 1023 m 1 Y s 930 999 m 11 X s 930 1024 m 11 X s 0.35 0.83 0.33 c 935 1011 m21 black 1015 991 m 5 Y s 1015 1019 m 5 Y s 1009 991 m 12 X s 1009 1024 m 12 X s 0.35 0.83
 0.33 c 1015 1007 m21 black 1094 998 m 11 Y s 1094 1032 m 11 Y s 1088 998 m 12 X s 1088 1043 m 12 X s 0.35 0.83 0.33 c 1094 1020 m21 black 1174 978 m 18 Y s 1174 1019 m 18 Y s 1168 978 m 11 X s 1168 1037 m 11 X s 0.35 0.83 0.33 c 1174 1007 m21 black
 1253 929 m 25 Y s 1253 977 m 25 Y s 1247 929 m 12 X s 1247 1002 m 12 X s 0.35 0.83 0.33 c 1253 965 m21 black 1332 967 m 32 Y s 1332 1021 m 32 Y s 1327 967 m 11 X s 1327 1053 m 11 X s 0.35 0.83 0.33 c 1332 1010 m21 black 1412 962 m 38 Y s 1412 1023 m
 39 Y s 1406 962 m 11 X s 1406 1062 m 11 X s 0.35 0.83 0.33 c 1412 1012 m21 black 1491 947 m 44 Y s 1491 1014 m 44 Y s 1485 947 m 12 X s 1485 1058 m 12 X s 0.35 0.83 0.33 c 1491 1003 m21 black 1570 1021 m 50 Y s 1570 1094 m 50 Y s 1565 1021 m 11 X s
 1565 1144 m 11 X s 0.35 0.83 0.33 c 1570 1082 m21 black 1650 944 m 52 Y s 1650 1019 m 53 Y s 1644 944 m 11 X s 1644 1072 m 11 X s 0.35 0.83 0.33 c 1650 1008 m21 black 1729 908 m 57 Y s 1729 987 m 57 Y s 1723 908 m 12 X s 1723 1044 m 12 X s 0.35 0.83
 0.33 c 1729 976 m21 black 1809 944 m 63 Y s 1809 1030 m 62 Y s 1803 944 m 11 X s 1803 1092 m 11 X s 0.35 0.83 0.33 c 1809 1018 m21 black 1888 1022 m 70 Y s 1888 1115 m 70 Y s 1882 1022 m 12 X s 1882 1185 m 12 X s 0.35 0.83 0.33 c 1888 1103 m21 6 lw
 1 1 1 c 0.35 0.83 0.33 c 380 1013 m 171 X 18 1 d 22 1 d 47 X 16 -1 d 25 -1 d 10 -1 d 189 X 28 -1 d 29 -1 d 14 X 41 -2 d 38 X 9 1 d 17 1 d 11 1 d 8 X 7 1 d 14 X 4 -1 d 5 X 5 -1 d 5 -1 d 7 -1 d 23 -4 d 5 -1 d 5 -1 d 4 X 4 -1 d 8 X 3 1 d 5 X 3 1 d 3 X
 3 1 d 4 1 d 4 2 d 3 1 d 5 2 d 5 3 d 12 6 d 5 3 d 4 2 d 4 1 d 3 1 d 3 1 d 3 1 d 3 1 d 3 X 3 1 d 11 X 71 -14 d 10 -1 d 11 -1 d 12 -2 d 14 -1 d 20 -1 d 13 -1 d 7 -1 d 8 X 23 -3 d 6 X 6 -1 d 20 X 4 1 d 5 X 3 1 d 3 1 d 3 X 3 1 d 3 2 d 3 1 d 3 2 d 4 2 d 4
 3 d 5 4 d 9 6 d 4 3 d 4 2 d 3 2 d 3 1 d 3 1 d 3 1 d 2 1 d 3 1 d 2 X 3 1 d 12 X 3 -1 d 3 X 3 -1 d 3 -1 d 3 -1 d 3 -1 d 56 -31 d 23 -7 d 7 -1 d 6 -2 d 6 -1 d 5 -1 d 5 -1 d 9 X 4 -1 d 8 X 3 1 d 6 X 2 1 d 3 X 2 1 d 3 1 d 2 1 d 3 1 d 2 2 d 3 2 d 3 2 d 3
 2 d 3 3 d 4 5 d 8 8 d 3 3 d 3 3 d 3 2 d 2 2 d 3 2 d 3 1 d 2 1 d 2 1 d 3 1 d 2 1 d 3 1 d 7 X 4 1 d 9 X 5 -1 d 8 X 5 -1 d 4 -1 d 4 -1 d 4 -1 d 5 -1 d 4 -1 d 4 -2 d 4 -1 d 3 -2 d 4 -1 d 3 -2 d 3 -2 d 3 -2 d 3 -2 d s 3 lw /w 2 def /w2 {w 2 div} def /w3
 {w 3 div} def 380 1013 459 1013 539 1013 618 1015 697 1012 777 1012 856 1012 935 1010 1015 1008 1094 1012 1174 1002 1253 1030 1332 1016 1412 1009 1491 1005 1570 1041 1650 1005 1729 992 1809 1039 1888 1019 20 { m20} R 6 lw black 0.35 0.83 0.33 c
 gsave  2268 1328 0 0 C 2036.96 1113.92 t 0 r /Helvetica-Bold findfont 48.4311 sf 0 0 m (/dof=0.3) show NC gr  black 0.35 0.83 0.33 c
 gsave  2268 1328 0 0 C 2017.01 1131.01 t 0 r /Helvetica-Bold findfont 34.1867 sf 0 0 m (2) show NC gr  black 0.35 0.83 0.33 c
 gsave  2268 1328 0 0 C 1991.37 1113.92 t 0 r /Symbol findfont 48.4311 sf 0 0 m (c) show NC gr  black 3 lw 340 1014 m 1588 X s
 gsave  2268 1328 0 0 C 1783.41 1213.63 t 0 r /Helvetica-Bold findfont 42.7334 sf 0 0 m (6.6 mm) show NC gr  0.35 0.83 0.33 c /w 23 def /w2 {w 2 div} def /w3 {w 3 div} def 1743 1228 m21
 gr  gr showpage
end
%%EOF
