%!PS-Adobe-2.0 EPSF-2.0
%%BoundingBox:  0 0 567 332
%%Title: TargetYTilt_near_fits.eps: Fits
%%Creator: ROOT Version 5.30/06
%%CreationDate: Sun Feb  2 09:40:53 2014
%%EndComments
%%BeginProlog
80 dict begin
/s {stroke} def /l {lineto} def /m {moveto} def /t {translate} def
/r {rotate} def /rl {roll}  def /R {repeat} def
/d {rlineto} def /rm {rmoveto} def /gr {grestore} def /f {eofill} def
/c {setrgbcolor} def /black {0 setgray} def /sd {setdash} def
/cl {closepath} def /sf {scalefont setfont} def /lw {setlinewidth} def
/box {m dup 0 exch d exch 0 d 0 exch neg d cl} def
/NC{systemdict begin initclip end}def/C{NC box clip newpath}def
/bl {box s} def /bf {box f} def /Y { 0 exch d} def /X { 0 d} def 
/K {{pop pop 0 moveto} exch kshow} bind def
/ita {/ang 15 def gsave [1 0 ang dup sin exch cos div 1 0 0] concat} def 
/mp {newpath /y exch def /x exch def} def
/side {[w .77 mul w .23 mul] .385 w mul sd w 0 l currentpoint t -144 r} def
/mr {mp x y w2 0 360 arc} def /m24 {mr s} def /m20 {mr f} def
/mb {mp x y w2 add m w2 neg 0 d 0 w neg d w 0 d 0 w d cl} def
/mt {mp x y w2 add m w2 neg w neg d w 0 d cl} def
/m21 {mb f} def /m25 {mb s} def /m22 {mt f} def /m26{mt s} def
/m23 {mp x y w2 sub m w2 w d w neg 0 d cl f} def
/m27 {mp x y w2 add m w3 neg w2 neg d w3 w2 neg d w3 w2 d cl s} def
/m28 {mp x w2 sub y w2 sub w3 add m w3 0 d  0 w3 neg d w3 0 d 0 w3 d w3 0 d  0 w3 d w3 neg 0 d 0 w3 d w3 neg 0 d 0 w3 neg d w3 neg 0 d cl s } def
/m29 {mp gsave x w2 sub y w2 add w3 sub m currentpoint t 4 {side} repeat cl fill gr} def
/m30 {mp gsave x w2 sub y w2 add w3 sub m currentpoint t 4 {side} repeat cl s gr} def
/m31 {mp x y w2 sub m 0 w d x w2 sub y m w 0 d x w2 sub y w2 add m w w neg d x w2 sub y w2 sub m w w d s} def
/m32 {mp x y w2 sub m w2 w d w neg 0 d cl s} def
/m33 {mp x y w2 add m w3 neg w2 neg d w3 w2 neg d w3 w2 d cl f} def
/m34 {mp x w2 sub y w2 sub w3 add m w3 0 d  0 w3 neg d w3 0 d 0 w3 d w3 0 d  0 w3 d w3 neg 0 d 0 w3 d w3 neg 0 d 0 w3 neg d w3 neg 0 d cl f } def
/m2 {mp x y w2 sub m 0 w d x w2 sub y m w 0 d s} def
/m5 {mp x w2 sub y w2 sub m w w d x w2 sub y w2 add m w w neg d s} def
/reEncode {exch findfont dup length dict begin {1 index /FID eq  {pop pop} {def} ifelse } forall /Encoding exch def currentdict end dup /FontName get exch definefont pop } def [/Times-Bold /Times-Italic /Times-BoldItalic /Helvetica /Helvetica-Oblique
 /Helvetica-Bold /Helvetica-BoldOblique /Courier /Courier-Oblique /Courier-Bold /Courier-BoldOblique /Times-Roman /AvantGarde-Book /AvantGarde-BookOblique /AvantGarde-Demi /AvantGarde-DemiOblique /Bookman-Demi /Bookman-DemiItalic /Bookman-Light
 /Bookman-LightItalic /Helvetica-Narrow /Helvetica-Narrow-Bold /Helvetica-Narrow-BoldOblique /Helvetica-Narrow-Oblique /NewCenturySchlbk-Roman /NewCenturySchlbk-Bold /NewCenturySchlbk-BoldItalic /NewCenturySchlbk-Italic /Palatino-Bold
 /Palatino-BoldItalic /Palatino-Italic /Palatino-Roman ] {ISOLatin1Encoding reEncode } forall%%EndProlog
%%BeginSetup
%%EndSetup
newpath  gsave  .25 .25 scale  gsave  0 0 t black[  ] 0 sd 3 lw 1 1 1 c 2268 1328 0 0 bf black 1 1 1 c 408 305 23 1009 bf black 1 1 1 c black 306 229 84 1055 bl 306 229 84 1055 bl 84 1055 m 306 X s 84 1059 m -4 Y s 177 1059 m -4 Y s 271 1059 m -4 Y s
 364 1059 m -4 Y s 364 1059 m -4 Y s
 gsave  408 305 23 1009 C 74.0711 1034.15 t 0 r /Helvetica findfont 22.8295 sf 0 0 m (0) show NC gr 
 gsave  408 305 23 1009 C 170.933 1034.15 t 0 r /Helvetica findfont 22.8295 sf 0 0 m (1) show NC gr 
 gsave  408 305 23 1009 C 262.098 1034.15 t 0 r /Helvetica findfont 22.8295 sf 0 0 m (2) show NC gr 
 gsave  408 305 23 1009 C 353.262 1034.15 t 0 r /Helvetica findfont 22.8295 sf 0 0 m (3) show NC gr  84 1284 m 306 X s 84 1280 m 4 Y s 177 1280 m 4 Y s 271 1280 m 4 Y s 364 1280 m 4 Y s 364 1280 m 4 Y s 84 1055 m 229 Y s 89 1090 m -5 X s 87 1102 m -3
 X s 87 1113 m -3 X s 87 1124 m -3 X s 89 1135 m -5 X s 87 1146 m -3 X s 87 1158 m -3 X s 87 1169 m -3 X s 89 1180 m -5 X s 87 1191 m -3 X s 87 1202 m -3 X s 87 1214 m -3 X s 89 1225 m -5 X s 87 1236 m -3 X s 87 1247 m -3 X s 87 1258 m -3 X s 89 1269
 m -5 X s 89 1090 m -5 X s 87 1079 m -3 X s 87 1068 m -3 X s 87 1057 m -3 X s 89 1269 m -5 X s 87 1281 m -3 X s
 gsave  408 305 23 1009 C 14.2445 1082.58 t 0 r /Helvetica findfont 22.8295 sf 0 0 m (\2550.004) show NC gr 
 gsave  408 305 23 1009 C 14.2445 1128.16 t 0 r /Helvetica findfont 22.8295 sf 0 0 m (\2550.002) show NC gr 
 gsave  408 305 23 1009 C 65.5245 1173.74 t 0 r /Helvetica findfont 22.8295 sf 0 0 m (0) show NC gr 
 gsave  408 305 23 1009 C 22.7911 1216.48 t 0 r /Helvetica findfont 22.8295 sf 0 0 m (0.002) show NC gr 
 gsave  408 305 23 1009 C 22.7911 1262.06 t 0 r /Helvetica findfont 22.8295 sf 0 0 m (0.004) show NC gr  390 1055 m 229 Y s 385 1090 m 5 X s 387 1102 m 3 X s 387 1113 m 3 X s 387 1124 m 3 X s 385 1135 m 5 X s 387 1146 m 3 X s 387 1158 m 3 X s 387
 1169 m 3 X s 385 1180 m 5 X s 387 1191 m 3 X s 387 1202 m 3 X s 387 1214 m 3 X s 385 1225 m 5 X s 387 1236 m 3 X s 387 1247 m 3 X s 387 1258 m 3 X s 385 1269 m 5 X s 385 1090 m 5 X s 387 1079 m 3 X s 387 1068 m 3 X s 387 1057 m 3 X s 385 1269 m 5 X
 s 387 1281 m 3 X s /w 22 def /w2 {w 2 div} def /w3 {w 3 div} def 131 1130 177 1222 271 1116 364 1199 4 { m21} R 131 1142 m 30 Y s 125 1172 m 11 X s 131 1119 m -31 Y s 125 1088 m 11 X s 177 1234 m 31 Y s 172 1265 m 11 X s 177 1211 m -31 Y s 172 1180
 m 11 X s 271 1127 m 31 Y s 265 1158 m 12 X s 271 1104 m -30 Y s 265 1074 m 12 X s 364 1210 m 31 Y s 359 1241 m 11 X s 364 1187 m -31 Y s 359 1156 m 11 X s 9 lw 0.95 0.95 0.95 c black 85 1180 m 10 X 3 -1 d 18 X 3 -1 d 22 X 3 -1 d 21 X 3 -1 d 22 X 3
 -1 d 18 X 3 -1 d 21 X s 235 1174 m 4 -1 d 21 X 3 -1 d 21 X 3 -1 d 22 X 3 -1 d 18 X 3 -1 d 22 X 3 -1 d 21 X 3 -1 d 3 X s 385 1167 m 4 X s 0.49 0.6 0.82 c black 0.49 0.6 0.82 c
 gsave  408 305 23 1009 C 142.445 1293.4 t 0 r /Helvetica-Bold findfont 25.6831 sf 0 0 m (0.0 < E < 0.5 GeV) show NC gr  0.52 0.76 0.64 c black 0.52 0.76 0.64 c
 gsave  408 305 23 1009 C 122.502 1256.36 t 0 r /Helvetica-Bold findfont 25.6831 sf 0 0 m 
 228 214 200 193 178 171 156 149 134 126 119 105 91 77 69 55 47 39 25 17
(A = \2550.000, p = 1.000) K NC gr  1 0.6 1 c black 1 0.6 1 c
 gsave  408 305 23 1009 C 427.334 1122.46 t 90 r /Helvetica-Bold findfont 28.5368 sf 0 0 m (/dof=1.6) show NC gr  black 1 0.6 1 c
 gsave  408 305 23 1009 C 415.938 1111.07 t 90 r /Helvetica-Bold findfont 19.9758 sf 0 0 m (2) show NC gr  black 1 0.6 1 c
 gsave  408 305 23 1009 C 427.334 1093.97 t 90 r /Symbol findfont 28.5368 sf 0 0 m (c) show NC gr  black 3 lw 1 1 1 c 408 305 476 1009 bf black 1 1 1 c black 307 229 537 1055 bl 307 229 537 1055 bl 537 1055 m 307 X s 537 1059 m -4 Y s 631 1059 m -4 Y
 s 724 1059 m -4 Y s 818 1059 m -4 Y s 818 1059 m -4 Y s
 gsave  408 305 476 1009 C 527.045 1034.15 t 0 r /Helvetica findfont 22.8295 sf 0 0 m (0) show NC gr 
 gsave  408 305 476 1009 C 623.907 1034.15 t 0 r /Helvetica findfont 22.8295 sf 0 0 m (1) show NC gr 
 gsave  408 305 476 1009 C 715.071 1034.15 t 0 r /Helvetica findfont 22.8295 sf 0 0 m (2) show NC gr 
 gsave  408 305 476 1009 C 809.085 1034.15 t 0 r /Helvetica findfont 22.8295 sf 0 0 m (3) show NC gr  537 1284 m 307 X s 537 1280 m 4 Y s 631 1280 m 4 Y s 724 1280 m 4 Y s 818 1280 m 4 Y s 818 1280 m 4 Y s 537 1055 m 229 Y s 543 1089 m -6 X s 540
 1100 m -3 X s 540 1111 m -3 X s 540 1122 m -3 X s 543 1133 m -6 X s 540 1144 m -3 X s 540 1155 m -3 X s 540 1166 m -3 X s 543 1177 m -6 X s 540 1188 m -3 X s 540 1199 m -3 X s 540 1210 m -3 X s 543 1222 m -6 X s 540 1233 m -3 X s 540 1244 m -3 X s
 540 1255 m -3 X s 543 1266 m -6 X s 543 1089 m -6 X s 540 1078 m -3 X s 540 1066 m -3 X s 540 1055 m -3 X s 543 1266 m -6 X s 540 1277 m -3 X s
 gsave  408 305 476 1009 C 467.218 1082.58 t 0 r /Helvetica findfont 22.8295 sf 0 0 m (\2550.002) show NC gr 
 gsave  408 305 476 1009 C 518.498 1125.31 t 0 r /Helvetica findfont 22.8295 sf 0 0 m (0) show NC gr 
 gsave  408 305 476 1009 C 475.765 1170.89 t 0 r /Helvetica findfont 22.8295 sf 0 0 m (0.002) show NC gr 
 gsave  408 305 476 1009 C 475.765 1213.63 t 0 r /Helvetica findfont 22.8295 sf 0 0 m (0.004) show NC gr 
 gsave  408 305 476 1009 C 475.765 1259.21 t 0 r /Helvetica findfont 22.8295 sf 0 0 m (0.006) show NC gr  844 1055 m 229 Y s 838 1089 m 6 X s 841 1100 m 3 X s 841 1111 m 3 X s 841 1122 m 3 X s 838 1133 m 6 X s 841 1144 m 3 X s 841 1155 m 3 X s 841
 1166 m 3 X s 838 1177 m 6 X s 841 1188 m 3 X s 841 1199 m 3 X s 841 1210 m 3 X s 838 1222 m 6 X s 841 1233 m 3 X s 841 1244 m 3 X s 841 1255 m 3 X s 838 1266 m 6 X s 838 1089 m 6 X s 841 1078 m 3 X s 841 1066 m 3 X s 841 1055 m 3 X s 838 1266 m 6 X
 s 841 1277 m 3 X s /w 23 def /w2 {w 2 div} def /w3 {w 3 div} def 584 1161 631 1214 724 1124 818 1149 4 { m21} R 584 1172 m 39 Y s 578 1211 m 12 X s 584 1149 m -38 Y s 578 1111 m 12 X s 631 1226 m 39 Y s 625 1265 m 12 X s 631 1203 m -39 Y s 625 1164
 m 12 X s 724 1135 m 39 Y s 719 1174 m 11 X s 724 1113 m -39 Y s 719 1074 m 11 X s 818 1160 m 39 Y s 812 1199 m 12 X s 818 1137 m -38 Y s 812 1099 m 12 X s 9 lw 0.95 0.95 0.95 c black 539 1133 m 3 X 3 1 d 6 X 3 1 d 9 X 4 1 d 6 X 3 1 d 9 X 3 1 d 9 X 3
 1 d 6 X 3 1 d 10 X 3 1 d 6 X 3 1 d 9 X 3 1 d 6 X 3 1 d 9 X 3 1 d 7 X 3 1 d 9 X 3 1 d 3 X s 689 1147 m 3 X 3 1 d 9 X 3 1 d 6 X 4 1 d 9 X 3 1 d 6 X 3 1 d 9 X 3 1 d 6 X 3 1 d 10 X 3 1 d 6 X 3 1 d 9 X 3 1 d 6 X 3 1 d 9 X 4 1 d 6 X 3 1 d 9 X 3 1 d 3 X s
 839 1161 m 3 X s 0.49 0.6 0.82 c black 0.49 0.6 0.82 c
 gsave  408 305 476 1009 C 595.418 1293.4 t 0 r /Helvetica-Bold findfont 25.6831 sf 0 0 m (0.5 < E < 1.0 GeV) show NC gr  0.52 0.76 0.64 c black 0.52 0.76 0.64 c
 gsave  408 305 476 1009 C 581.174 1256.36 t 0 r /Helvetica-Bold findfont 25.6831 sf 0 0 m 
 220 206 192 185 170 163 148 141 125 118 111 97 83 68 61 47 40 25 18
(A = 0.000, p = 1.000) K NC gr  1 0.6 1 c black 1 0.6 1 c
 gsave  408 305 476 1009 C 883.156 1122.46 t 90 r /Helvetica-Bold findfont 28.5368 sf 0 0 m (/dof=0.9) show NC gr  black 1 0.6 1 c
 gsave  408 305 476 1009 C 871.76 1111.07 t 90 r /Helvetica-Bold findfont 19.9758 sf 0 0 m (2) show NC gr  black 1 0.6 1 c
 gsave  408 305 476 1009 C 883.156 1093.97 t 90 r /Symbol findfont 28.5368 sf 0 0 m (c) show NC gr  black 3 lw 1 1 1 c 408 305 930 1009 bf black 1 1 1 c black 306 229 991 1055 bl 306 229 991 1055 bl 991 1055 m 306 X s 991 1059 m -4 Y s 1084 1059 m -4
 Y s 1178 1059 m -4 Y s 1271 1059 m -4 Y s 1271 1059 m -4 Y s
 gsave  408 305 930 1009 C 980.018 1034.15 t 0 r /Helvetica findfont 22.8295 sf 0 0 m (0) show NC gr 
 gsave  408 305 930 1009 C 1076.88 1034.15 t 0 r /Helvetica findfont 22.8295 sf 0 0 m (1) show NC gr 
 gsave  408 305 930 1009 C 1168.04 1034.15 t 0 r /Helvetica findfont 22.8295 sf 0 0 m (2) show NC gr 
 gsave  408 305 930 1009 C 1262.06 1034.15 t 0 r /Helvetica findfont 22.8295 sf 0 0 m (3) show NC gr  991 1284 m 306 X s 991 1280 m 4 Y s 1084 1280 m 4 Y s 1178 1280 m 4 Y s 1271 1280 m 4 Y s 1271 1280 m 4 Y s 991 1055 m 229 Y s 997 1083 m -6 X s 994
 1091 m -3 X s 994 1100 m -3 X s 994 1109 m -3 X s 997 1118 m -6 X s 994 1126 m -3 X s 994 1135 m -3 X s 994 1144 m -3 X s 997 1153 m -6 X s 994 1161 m -3 X s 994 1170 m -3 X s 994 1179 m -3 X s 997 1188 m -6 X s 994 1196 m -3 X s 994 1205 m -3 X s
 994 1214 m -3 X s 997 1223 m -6 X s 994 1231 m -3 X s 994 1240 m -3 X s 994 1249 m -3 X s 997 1258 m -6 X s 997 1083 m -6 X s 994 1074 m -3 X s 994 1065 m -3 X s 994 1056 m -3 X s 997 1258 m -6 X s 994 1266 m -3 X s 994 1275 m -3 X s
 gsave  408 305 930 1009 C 923.04 1076.88 t 0 r /Helvetica findfont 22.8295 sf 0 0 m (\2550.008) show NC gr 
 gsave  408 305 930 1009 C 923.04 1111.07 t 0 r /Helvetica findfont 22.8295 sf 0 0 m (\2550.006) show NC gr 
 gsave  408 305 930 1009 C 923.04 1145.25 t 0 r /Helvetica findfont 22.8295 sf 0 0 m (\2550.004) show NC gr 
 gsave  408 305 930 1009 C 923.04 1179.44 t 0 r /Helvetica findfont 22.8295 sf 0 0 m (\2550.002) show NC gr 
 gsave  408 305 930 1009 C 974.32 1216.48 t 0 r /Helvetica findfont 22.8295 sf 0 0 m (0) show NC gr 
 gsave  408 305 930 1009 C 931.587 1250.66 t 0 r /Helvetica findfont 22.8295 sf 0 0 m (0.002) show NC gr  1297 1055 m 229 Y s 1292 1083 m 5 X s 1294 1091 m 3 X s 1294 1100 m 3 X s 1294 1109 m 3 X s 1292 1118 m 5 X s 1294 1126 m 3 X s 1294 1135 m 3 X
 s 1294 1144 m 3 X s 1292 1153 m 5 X s 1294 1161 m 3 X s 1294 1170 m 3 X s 1294 1179 m 3 X s 1292 1188 m 5 X s 1294 1196 m 3 X s 1294 1205 m 3 X s 1294 1214 m 3 X s 1292 1223 m 5 X s 1294 1231 m 3 X s 1294 1240 m 3 X s 1294 1249 m 3 X s 1292 1258 m 5
 X s 1292 1083 m 5 X s 1294 1074 m 3 X s 1294 1065 m 3 X s 1294 1056 m 3 X s 1292 1258 m 5 X s 1294 1266 m 3 X s 1294 1275 m 3 X s 1038 1159 1084 1219 1178 1226 1271 1112 4 { m21} R 1038 1170 m 27 Y s 1032 1197 m 11 X s 1038 1147 m -27 Y s 1032 1120
 m 11 X s 1084 1230 m 27 Y s 1079 1257 m 11 X s 1084 1207 m -27 Y s 1079 1180 m 11 X s 1178 1237 m 28 Y s 1172 1265 m 12 X s 1178 1214 m -27 Y s 1172 1187 m 12 X s 1271 1124 m 27 Y s 1266 1151 m 11 X s 1271 1101 m -27 Y s 1266 1074 m 11 X s 1 0 0 c 9
 lw 0.95 0.95 0.95 c black 1 0 0 c 993 1223 m 6 X 3 -1 d 18 X 3 -1 d 9 X 3 -1 d 7 X 3 -1 d 3 X 3 -1 d 6 X 3 -1 d 3 X 3 -1 d 3 -1 d 3 X 3 -1 d 3 X 3 -1 d 3 -1 d 3 X 3 -1 d 4 -1 d 3 X 3 -1 d 3 -1 d 3 -1 d 3 -1 d 3 -1 d 3 X 3 -1 d 3 -1 d 3 -1 d 3 -1 d 3
 -1 d 3 -1 d 3 -1 d 3 -1 d 4 -1 d s 1143 1196 m 3 -1 d 3 -1 d 3 -2 d 3 -1 d 3 -1 d 3 -1 d 3 -1 d 3 -2 d 3 -1 d 3 -1 d 3 -1 d 3 -2 d 3 -1 d 3 -2 d 3 -1 d 4 -1 d 3 -2 d 3 -1 d 3 -2 d 3 -1 d 3 -2 d 3 -1 d 3 -2 d 3 -2 d 3 -1 d 3 -2 d 3 -1 d 3 -2 d 3 -2 d
 3 -2 d 3 -1 d 3 -2 d 4 -2 d 3 -2 d 3 -2 d 3 -1 d 3 -2 d 3 -2 d 3 -2 d 3 -2 d 3 -2 d 3 -2 d 3 -2 d 3 -2 d 3 -2 d 3 -2 d 3 -2 d 3 -2 d 4 -3 d s 1293 1116 m 3 -2 d s 0.49 0.6 0.82 c black 0.49 0.6 0.82 c
 gsave  408 305 930 1009 C 1051.24 1293.4 t 0 r /Helvetica-Bold findfont 25.6831 sf 0 0 m (1.0 < E < 1.5 GeV) show NC gr  0.52 0.76 0.64 c black 0.52 0.76 0.64 c
 gsave  408 305 930 1009 C 1031.3 1256.36 t 0 r /Helvetica-Bold findfont 25.6831 sf 0 0 m 
 228 214 200 193 178 171 156 149 133 126 119 105 91 77 69 55 47 39 25 17
(A = \2550.001, p = 2.000) K NC gr  1 0.6 1 c black 1 0.6 1 c
 gsave  408 305 930 1009 C 1336.13 1122.46 t 90 r /Helvetica-Bold findfont 28.5368 sf 0 0 m (/dof=1.4) show NC gr  black 1 0.6 1 c
 gsave  408 305 930 1009 C 1324.73 1111.07 t 90 r /Helvetica-Bold findfont 19.9758 sf 0 0 m (2) show NC gr  black 1 0.6 1 c
 gsave  408 305 930 1009 C 1336.13 1093.97 t 90 r /Symbol findfont 28.5368 sf 0 0 m (c) show NC gr  black 3 lw 1 1 1 c 408 305 1383 1009 bf black 1 1 1 c black 306 229 1445 1055 bl 306 229 1445 1055 bl 1445 1055 m 306 X s 1445 1059 m -4 Y s 1538 1059
 m -4 Y s 1631 1059 m -4 Y s 1725 1059 m -4 Y s 1725 1059 m -4 Y s
 gsave  408 305 1383 1009 C 1435.84 1034.15 t 0 r /Helvetica findfont 22.8295 sf 0 0 m (0) show NC gr 
 gsave  408 305 1383 1009 C 1529.85 1034.15 t 0 r /Helvetica findfont 22.8295 sf 0 0 m (1) show NC gr 
 gsave  408 305 1383 1009 C 1621.02 1034.15 t 0 r /Helvetica findfont 22.8295 sf 0 0 m (2) show NC gr 
 gsave  408 305 1383 1009 C 1715.03 1034.15 t 0 r /Helvetica findfont 22.8295 sf 0 0 m (3) show NC gr  1445 1284 m 306 X s 1445 1280 m 4 Y s 1538 1280 m 4 Y s 1631 1280 m 4 Y s 1725 1280 m 4 Y s 1725 1280 m 4 Y s 1445 1055 m 229 Y s 1450 1082 m -5 X
 s 1447 1091 m -2 X s 1447 1100 m -2 X s 1447 1109 m -2 X s 1450 1119 m -5 X s 1447 1128 m -2 X s 1447 1137 m -2 X s 1447 1147 m -2 X s 1450 1156 m -5 X s 1447 1165 m -2 X s 1447 1174 m -2 X s 1447 1184 m -2 X s 1450 1193 m -5 X s 1447 1202 m -2 X s
 1447 1212 m -2 X s 1447 1221 m -2 X s 1450 1230 m -5 X s 1447 1240 m -2 X s 1447 1249 m -2 X s 1447 1258 m -2 X s 1450 1267 m -5 X s 1450 1082 m -5 X s 1447 1072 m -2 X s 1447 1063 m -2 X s 1450 1267 m -5 X s 1447 1277 m -2 X s
 gsave  408 305 1383 1009 C 1376.01 1074.03 t 0 r /Helvetica findfont 22.8295 sf 0 0 m (\2550.008) show NC gr 
 gsave  408 305 1383 1009 C 1376.01 1111.07 t 0 r /Helvetica findfont 22.8295 sf 0 0 m (\2550.006) show NC gr 
 gsave  408 305 1383 1009 C 1376.01 1148.1 t 0 r /Helvetica findfont 22.8295 sf 0 0 m (\2550.004) show NC gr 
 gsave  408 305 1383 1009 C 1376.01 1185.14 t 0 r /Helvetica findfont 22.8295 sf 0 0 m (\2550.002) show NC gr 
 gsave  408 305 1383 1009 C 1427.29 1222.17 t 0 r /Helvetica findfont 22.8295 sf 0 0 m (0) show NC gr 
 gsave  408 305 1383 1009 C 1384.56 1259.21 t 0 r /Helvetica findfont 22.8295 sf 0 0 m (0.002) show NC gr  1751 1055 m 229 Y s 1745 1082 m 6 X s 1748 1091 m 3 X s 1748 1100 m 3 X s 1748 1109 m 3 X s 1745 1119 m 6 X s 1748 1128 m 3 X s 1748 1137 m 3 X
 s 1748 1147 m 3 X s 1745 1156 m 6 X s 1748 1165 m 3 X s 1748 1174 m 3 X s 1748 1184 m 3 X s 1745 1193 m 6 X s 1748 1202 m 3 X s 1748 1212 m 3 X s 1748 1221 m 3 X s 1745 1230 m 6 X s 1748 1240 m 3 X s 1748 1249 m 3 X s 1748 1258 m 3 X s 1745 1267 m 6
 X s 1745 1082 m 6 X s 1748 1072 m 3 X s 1748 1063 m 3 X s 1745 1267 m 6 X s 1748 1277 m 3 X s 1491 1141 1538 1115 1631 1223 1725 1132 4 { m21} R 1491 1152 m 30 Y s 1486 1182 m 11 X s 1491 1129 m -30 Y s 1486 1099 m 11 X s 1538 1127 m 30 Y s 1532
 1157 m 12 X s 1538 1104 m -30 Y s 1532 1074 m 12 X s 1631 1234 m 31 Y s 1626 1265 m 11 X s 1631 1212 m -31 Y s 1626 1181 m 11 X s 1725 1143 m 30 Y s 1719 1173 m 12 X s 1725 1121 m -30 Y s 1719 1091 m 12 X s 9 lw 0.95 0.95 0.95 c black 1446 1230 m 3
 -1 d 3 -1 d 3 -2 d 3 -1 d 3 -1 d 3 -1 d 3 -1 d 4 -1 d 3 -1 d 3 -1 d 3 -1 d 3 -1 d 3 -1 d 3 -1 d 3 -2 d 3 -1 d 3 -1 d 3 -1 d 3 -1 d 3 -1 d 3 -1 d 3 -1 d 3 -1 d 4 -1 d 3 -1 d 3 -1 d 3 -1 d 3 -2 d 3 -1 d 3 -1 d 3 -1 d 3 -1 d 3 -1 d 3 -1 d 3 -1 d 3 -1 d
 3 -1 d 3 -1 d 3 -1 d 4 -2 d 3 -1 d 3 -1 d 3 -1 d 3 -1 d 3 -1 d 3 -1 d 3 -1 d 3 -1 d 3 -1 d s 1596 1177 m 3 -1 d 3 -1 d 3 -1 d 3 -2 d 3 -1 d 3 -1 d 4 -1 d 3 -1 d 3 -1 d 3 -1 d 3 -1 d 3 -1 d 3 -1 d 3 -1 d 3 -1 d 3 -2 d 3 -1 d 3 -1 d 3 -1 d 3 -1 d 3 -1
 d 3 -1 d 3 -1 d 4 -1 d 3 -1 d 3 -1 d 3 -1 d 3 -2 d 3 -1 d 3 -1 d 3 -1 d 3 -1 d 3 -1 d 3 -1 d 3 -1 d 3 -1 d 3 -1 d 3 -1 d 3 -1 d 4 -1 d 3 -2 d 3 -1 d 3 -1 d 3 -1 d 3 -1 d 3 -1 d 3 -1 d 3 -1 d 3 -1 d s 1746 1124 m 3 -1 d s 0.49 0.6 0.82 c black 0.49
 0.6 0.82 c
 gsave  408 305 1383 1009 C 1504.21 1293.4 t 0 r /Helvetica-Bold findfont 25.6831 sf 0 0 m (1.5 < E < 2.0 GeV) show NC gr  0.52 0.76 0.64 c black 0.52 0.76 0.64 c
 gsave  408 305 1383 1009 C 1484.27 1256.36 t 0 r /Helvetica-Bold findfont 25.6831 sf 0 0 m 
 228 214 200 193 178 171 156 149 134 126 119 105 91 77 69 55 47 40 25 17
(A = \2550.002, p = 1.000) K NC gr  1 0.6 1 c black 1 0.6 1 c
 gsave  408 305 1383 1009 C 1789.1 1122.46 t 90 r /Helvetica-Bold findfont 28.5368 sf 0 0 m (/dof=3.0) show NC gr  black 1 0.6 1 c
 gsave  408 305 1383 1009 C 1777.71 1111.07 t 90 r /Helvetica-Bold findfont 19.9758 sf 0 0 m (2) show NC gr  black 1 0.6 1 c
 gsave  408 305 1383 1009 C 1789.1 1093.97 t 90 r /Symbol findfont 28.5368 sf 0 0 m (c) show NC gr  black 3 lw 1 1 1 c 408 305 1837 1009 bf black 1 1 1 c black 306 229 1898 1055 bl 306 229 1898 1055 bl 1898 1055 m 306 X s 1898 1059 m -4 Y s 1992 1059
 m -4 Y s 2085 1059 m -4 Y s 2179 1059 m -4 Y s 2179 1059 m -4 Y s
 gsave  408 305 1837 1009 C 1888.81 1034.15 t 0 r /Helvetica findfont 22.8295 sf 0 0 m (0) show NC gr 
 gsave  408 305 1837 1009 C 1985.68 1034.15 t 0 r /Helvetica findfont 22.8295 sf 0 0 m (1) show NC gr 
 gsave  408 305 1837 1009 C 2073.99 1034.15 t 0 r /Helvetica findfont 22.8295 sf 0 0 m (2) show NC gr 
 gsave  408 305 1837 1009 C 2168.01 1034.15 t 0 r /Helvetica findfont 22.8295 sf 0 0 m (3) show NC gr  1898 1284 m 306 X s 1898 1280 m 4 Y s 1992 1280 m 4 Y s 2085 1280 m 4 Y s 2179 1280 m 4 Y s 2179 1280 m 4 Y s 1898 1055 m 229 Y s 1904 1073 m -6 X
 s 1901 1082 m -3 X s 1901 1091 m -3 X s 1901 1100 m -3 X s 1904 1110 m -6 X s 1901 1119 m -3 X s 1901 1128 m -3 X s 1901 1137 m -3 X s 1904 1146 m -6 X s 1901 1155 m -3 X s 1901 1164 m -3 X s 1901 1173 m -3 X s 1904 1182 m -6 X s 1901 1191 m -3 X s
 1901 1200 m -3 X s 1901 1209 m -3 X s 1904 1218 m -6 X s 1901 1227 m -3 X s 1901 1236 m -3 X s 1901 1245 m -3 X s 1904 1254 m -6 X s 1904 1073 m -6 X s 1901 1064 m -3 X s 1901 1055 m -3 X s 1904 1254 m -6 X s 1901 1263 m -3 X s 1901 1272 m -3 X s
 1901 1281 m -3 X s
 gsave  408 305 1837 1009 C 1828.99 1065.48 t 0 r /Helvetica findfont 22.8295 sf 0 0 m (\2550.006) show NC gr 
 gsave  408 305 1837 1009 C 1828.99 1102.52 t 0 r /Helvetica findfont 22.8295 sf 0 0 m (\2550.004) show NC gr 
 gsave  408 305 1837 1009 C 1828.99 1139.56 t 0 r /Helvetica findfont 22.8295 sf 0 0 m (\2550.002) show NC gr 
 gsave  408 305 1837 1009 C 1880.27 1173.74 t 0 r /Helvetica findfont 22.8295 sf 0 0 m (0) show NC gr 
 gsave  408 305 1837 1009 C 1837.53 1210.78 t 0 r /Helvetica findfont 22.8295 sf 0 0 m (0.002) show NC gr 
 gsave  408 305 1837 1009 C 1837.53 1247.81 t 0 r /Helvetica findfont 22.8295 sf 0 0 m (0.004) show NC gr  2204 1055 m 229 Y s 2199 1073 m 5 X s 2201 1082 m 3 X s 2201 1091 m 3 X s 2201 1100 m 3 X s 2199 1110 m 5 X s 2201 1119 m 3 X s 2201 1128 m 3 X
 s 2201 1137 m 3 X s 2199 1146 m 5 X s 2201 1155 m 3 X s 2201 1164 m 3 X s 2201 1173 m 3 X s 2199 1182 m 5 X s 2201 1191 m 3 X s 2201 1200 m 3 X s 2201 1209 m 3 X s 2199 1218 m 5 X s 2201 1227 m 3 X s 2201 1236 m 3 X s 2201 1245 m 3 X s 2199 1254 m 5
 X s 2199 1073 m 5 X s 2201 1064 m 3 X s 2201 1055 m 3 X s 2199 1254 m 5 X s 2201 1263 m 3 X s 2201 1272 m 3 X s 2201 1281 m 3 X s 1945 1221 1992 1117 2085 1165 2179 1167 4 { m21} R 1945 1232 m 33 Y s 1939 1265 m 12 X s 1945 1209 m -32 Y s 1939 1177
 m 12 X s 1992 1129 m 31 Y s 1986 1160 m 11 X s 1992 1106 m -32 Y s 1986 1074 m 11 X s 2085 1177 m 32 Y s 2079 1209 m 12 X s 2085 1154 m -32 Y s 2079 1122 m 12 X s 2179 1178 m 32 Y s 2173 1210 m 11 X s 2179 1155 m -32 Y s 2173 1123 m 11 X s 9 lw 0.95
 0.95 0.95 c black 1900 1182 m 3 -1 d 6 X 3 -1 d 9 X 3 -1 d 6 X 3 -1 d 9 X 4 -1 d 6 X 3 -1 d 9 X 3 -1 d 6 X 3 -1 d 9 X 3 -1 d 7 X 3 -1 d 9 X 3 -1 d 6 X 3 -1 d 9 X 3 -1 d 6 X 3 -1 d 10 X s 2050 1168 m 3 -1 d 6 X 3 -1 d 9 X 3 -1 d 6 X 3 -1 d 9 X 4 -1 d
 6 X 3 -1 d 9 X 3 -1 d 6 X 3 -1 d 9 X 3 -1 d 7 X 3 -1 d 9 X 3 -1 d 6 X 3 -1 d 9 X 3 -1 d 6 X 3 -1 d 10 X s 2200 1154 m 3 -1 d s 0.49 0.6 0.82 c black 0.49 0.6 0.82 c
 gsave  408 305 1837 1009 C 1957.19 1293.4 t 0 r /Helvetica-Bold findfont 25.6831 sf 0 0 m (2.0 < E < 2.5 GeV) show NC gr  0.52 0.76 0.64 c black 0.52 0.76 0.64 c
 gsave  408 305 1837 1009 C 1937.25 1256.36 t 0 r /Helvetica-Bold findfont 25.6831 sf 0 0 m 
 228 214 200 193 178 171 156 149 133 126 119 105 91 77 69 55 47 39 25 17
(A = \2550.000, p = 1.000) K NC gr  1 0.6 1 c black 1 0.6 1 c
 gsave  408 305 1837 1009 C 2242.08 1122.46 t 90 r /Helvetica-Bold findfont 28.5368 sf 0 0 m (/dof=0.9) show NC gr  black 1 0.6 1 c
 gsave  408 305 1837 1009 C 2230.68 1111.07 t 90 r /Helvetica-Bold findfont 19.9758 sf 0 0 m (2) show NC gr  black 1 0.6 1 c
 gsave  408 305 1837 1009 C 2242.08 1093.97 t 90 r /Symbol findfont 28.5368 sf 0 0 m (c) show NC gr  black 3 lw 1 1 1 c 408 305 23 677 bf black 1 1 1 c black 306 229 84 723 bl 306 229 84 723 bl 84 723 m 306 X s 84 727 m -4 Y s 177 727 m -4 Y s 271
 727 m -4 Y s 364 727 m -4 Y s 364 727 m -4 Y s
 gsave  408 305 23 677 C 74.0711 703.676 t 0 r /Helvetica findfont 22.8295 sf 0 0 m (0) show NC gr 
 gsave  408 305 23 677 C 170.933 703.676 t 0 r /Helvetica findfont 22.8295 sf 0 0 m (1) show NC gr 
 gsave  408 305 23 677 C 262.098 703.676 t 0 r /Helvetica findfont 22.8295 sf 0 0 m (2) show NC gr 
 gsave  408 305 23 677 C 353.262 703.676 t 0 r /Helvetica findfont 22.8295 sf 0 0 m (3) show NC gr  84 952 m 306 X s 84 948 m 4 Y s 177 948 m 4 Y s 271 948 m 4 Y s 364 948 m 4 Y s 364 948 m 4 Y s 84 723 m 229 Y s 89 750 m -5 X s 87 758 m -3 X s 87
 767 m -3 X s 87 775 m -3 X s 89 783 m -5 X s 87 792 m -3 X s 87 800 m -3 X s 87 808 m -3 X s 89 817 m -5 X s 87 825 m -3 X s 87 833 m -3 X s 87 842 m -3 X s 89 850 m -5 X s 87 858 m -3 X s 87 867 m -3 X s 87 875 m -3 X s 89 883 m -5 X s 87 891 m -3
 X s 87 900 m -3 X s 87 908 m -3 X s 89 916 m -5 X s 87 925 m -3 X s 87 933 m -3 X s 87 941 m -3 X s 89 950 m -5 X s 89 750 m -5 X s 87 742 m -3 X s 87 733 m -3 X s 87 725 m -3 X s 89 950 m -5 X s
 gsave  408 305 23 677 C 31.3378 743.56 t 0 r /Helvetica findfont 22.8295 sf 0 0 m (\2550.01) show NC gr 
 gsave  408 305 23 677 C 14.2445 774.898 t 0 r /Helvetica findfont 22.8295 sf 0 0 m (\2550.008) show NC gr 
 gsave  408 305 23 677 C 14.2445 809.085 t 0 r /Helvetica findfont 22.8295 sf 0 0 m (\2550.006) show NC gr 
 gsave  408 305 23 677 C 14.2445 843.271 t 0 r /Helvetica findfont 22.8295 sf 0 0 m (\2550.004) show NC gr 
 gsave  408 305 23 677 C 14.2445 877.458 t 0 r /Helvetica findfont 22.8295 sf 0 0 m (\2550.002) show NC gr 
 gsave  408 305 23 677 C 65.5245 908.796 t 0 r /Helvetica findfont 22.8295 sf 0 0 m (0) show NC gr 
 gsave  408 305 23 677 C 22.7911 942.983 t 0 r /Helvetica findfont 22.8295 sf 0 0 m (0.002) show NC gr  390 723 m 229 Y s 385 750 m 5 X s 387 758 m 3 X s 387 767 m 3 X s 387 775 m 3 X s 385 783 m 5 X s 387 792 m 3 X s 387 800 m 3 X s 387 808 m 3 X s
 385 817 m 5 X s 387 825 m 3 X s 387 833 m 3 X s 387 842 m 3 X s 385 850 m 5 X s 387 858 m 3 X s 387 867 m 3 X s 387 875 m 3 X s 385 883 m 5 X s 387 891 m 3 X s 387 900 m 3 X s 387 908 m 3 X s 385 916 m 5 X s 387 925 m 3 X s 387 933 m 3 X s 387 941 m
 3 X s 385 950 m 5 X s 385 750 m 5 X s 387 742 m 3 X s 387 733 m 3 X s 387 725 m 3 X s 385 950 m 5 X s /w 22 def /w2 {w 2 div} def /w3 {w 3 div} def 131 888 177 887 271 861 364 786 4 { m21} R 131 899 m 34 Y s 125 933 m 11 X s 131 877 m -34 Y s 125
 843 m 11 X s 177 898 m 33 Y s 172 931 m 11 X s 177 875 m -33 Y s 172 842 m 11 X s 271 872 m 33 Y s 265 905 m 12 X s 271 850 m -33 Y s 265 817 m 12 X s 364 798 m 33 Y s 359 831 m 11 X s 364 775 m -33 Y s 359 742 m 11 X s 9 lw 0.95 0.95 0.95 c black
 85 916 m 3 -1 d 4 -2 d 3 -1 d 3 -1 d 3 -1 d 3 -2 d 3 -1 d 3 -1 d 3 -1 d 3 -2 d 3 -1 d 3 -1 d 3 -1 d 3 -2 d 3 -1 d 3 -1 d 3 -1 d 4 -2 d 3 -1 d 3 -1 d 3 -1 d 3 -2 d 3 -1 d 3 -1 d 3 -1 d 3 -2 d 3 -1 d 3 -1 d 3 -1 d 3 -2 d 3 -1 d 3 -1 d 3 -2 d 4 -1 d 3
 -1 d 3 -1 d 3 -2 d 3 -1 d 3 -1 d 3 -1 d 3 -2 d 3 -1 d 3 -1 d 3 -1 d 3 -2 d 3 -1 d 3 -1 d 3 -1 d 3 -2 d s 235 854 m 4 -1 d 3 -1 d 3 -1 d 3 -2 d 3 -1 d 3 -1 d 3 -1 d 3 -2 d 3 -1 d 3 -1 d 3 -1 d 3 -2 d 3 -1 d 3 -1 d 3 -1 d 3 -2 d 3 -1 d 4 -1 d 3 -1 d 3
 -2 d 3 -1 d 3 -1 d 3 -1 d 3 -2 d 3 -1 d 3 -1 d 3 -1 d 3 -2 d 3 -1 d 3 -1 d 3 -1 d 3 -2 d 3 -1 d 4 -1 d 3 -1 d 3 -2 d 3 -1 d 3 -1 d 3 -1 d 3 -2 d 3 -1 d 3 -1 d 3 -1 d 3 -2 d 3 -1 d 3 -1 d 3 -1 d 3 -2 d 3 -1 d s 385 793 m 4 -1 d s 0.49 0.6 0.82 c
 black 0.49 0.6 0.82 c
 gsave  408 305 23 677 C 142.445 960.076 t 0 r /Helvetica-Bold findfont 25.6831 sf 0 0 m (2.5 < E < 3.0 GeV) show NC gr  0.52 0.76 0.64 c black 0.52 0.76 0.64 c
 gsave  408 305 23 677 C 122.502 923.04 t 0 r /Helvetica-Bold findfont 25.6831 sf 0 0 m 
 228 214 200 193 178 171 156 149 134 126 119 105 91 77 69 55 47 39 25 17
(A = \2550.002, p = 1.000) K NC gr  1 0.6 1 c black 1 0.6 1 c
 gsave  408 305 23 677 C 427.334 791.991 t 90 r /Helvetica-Bold findfont 28.5368 sf 0 0 m (/dof=0.1) show NC gr  black 1 0.6 1 c
 gsave  408 305 23 677 C 415.938 780.596 t 90 r /Helvetica-Bold findfont 19.9758 sf 0 0 m (2) show NC gr  black 1 0.6 1 c
 gsave  408 305 23 677 C 427.334 763.503 t 90 r /Symbol findfont 28.5368 sf 0 0 m (c) show NC gr  black 3 lw 1 1 1 c 408 305 476 677 bf black 1 1 1 c black 307 229 537 723 bl 307 229 537 723 bl 537 723 m 307 X s 537 727 m -4 Y s 631 727 m -4 Y s 724
 727 m -4 Y s 818 727 m -4 Y s 818 727 m -4 Y s
 gsave  408 305 476 677 C 527.045 703.676 t 0 r /Helvetica findfont 22.8295 sf 0 0 m (0) show NC gr 
 gsave  408 305 476 677 C 623.907 703.676 t 0 r /Helvetica findfont 22.8295 sf 0 0 m (1) show NC gr 
 gsave  408 305 476 677 C 715.071 703.676 t 0 r /Helvetica findfont 22.8295 sf 0 0 m (2) show NC gr 
 gsave  408 305 476 677 C 809.085 703.676 t 0 r /Helvetica findfont 22.8295 sf 0 0 m (3) show NC gr  537 952 m 307 X s 537 948 m 4 Y s 631 948 m 4 Y s 724 948 m 4 Y s 818 948 m 4 Y s 818 948 m 4 Y s 537 723 m 229 Y s 543 753 m -6 X s 540 762 m -3 X s
 540 771 m -3 X s 540 780 m -3 X s 543 788 m -6 X s 540 797 m -3 X s 540 806 m -3 X s 540 815 m -3 X s 543 824 m -6 X s 540 833 m -3 X s 540 842 m -3 X s 540 851 m -3 X s 543 859 m -6 X s 540 868 m -3 X s 540 877 m -3 X s 540 886 m -3 X s 543 895 m
 -6 X s 540 904 m -3 X s 540 913 m -3 X s 540 922 m -3 X s 543 930 m -6 X s 543 753 m -6 X s 540 744 m -3 X s 540 735 m -3 X s 540 726 m -3 X s 543 930 m -6 X s 540 939 m -3 X s 540 948 m -3 X s
 gsave  408 305 476 677 C 467.218 746.409 t 0 r /Helvetica findfont 22.8295 sf 0 0 m (\2550.006) show NC gr 
 gsave  408 305 476 677 C 467.218 780.596 t 0 r /Helvetica findfont 22.8295 sf 0 0 m (\2550.004) show NC gr 
 gsave  408 305 476 677 C 467.218 817.631 t 0 r /Helvetica findfont 22.8295 sf 0 0 m (\2550.002) show NC gr 
 gsave  408 305 476 677 C 518.498 851.818 t 0 r /Helvetica findfont 22.8295 sf 0 0 m (0) show NC gr 
 gsave  408 305 476 677 C 475.765 888.854 t 0 r /Helvetica findfont 22.8295 sf 0 0 m (0.002) show NC gr 
 gsave  408 305 476 677 C 475.765 923.04 t 0 r /Helvetica findfont 22.8295 sf 0 0 m (0.004) show NC gr  844 723 m 229 Y s 838 753 m 6 X s 841 762 m 3 X s 841 771 m 3 X s 841 780 m 3 X s 838 788 m 6 X s 841 797 m 3 X s 841 806 m 3 X s 841 815 m 3 X s
 838 824 m 6 X s 841 833 m 3 X s 841 842 m 3 X s 841 851 m 3 X s 838 859 m 6 X s 841 868 m 3 X s 841 877 m 3 X s 841 886 m 3 X s 838 895 m 6 X s 841 904 m 3 X s 841 913 m 3 X s 841 922 m 3 X s 838 930 m 6 X s 838 753 m 6 X s 841 744 m 3 X s 841 735 m
 3 X s 841 726 m 3 X s 838 930 m 6 X s 841 939 m 3 X s 841 948 m 3 X s /w 23 def /w2 {w 2 div} def /w3 {w 3 div} def 584 840 631 877 724 863 818 798 4 { m21} R 584 852 m 44 Y s 578 896 m 12 X s 584 829 m -45 Y s 578 784 m 12 X s 631 888 m 45 Y s 625
 933 m 12 X s 631 866 m -45 Y s 625 821 m 12 X s 724 874 m 45 Y s 719 919 m 11 X s 724 851 m -44 Y s 719 807 m 11 X s 818 809 m 45 Y s 812 854 m 12 X s 818 787 m -45 Y s 812 742 m 12 X s 1 0 0 c 9 lw 0.95 0.95 0.95 c black 1 0 0 c 539 859 m 37 X 3 -1
 d 12 X 3 -1 d 12 X 3 -1 d 7 X 3 -1 d 6 X 3 -1 d 6 X 3 -1 d 6 X 3 -1 d 3 X 3 -1 d 3 X 3 -1 d 6 X 4 -1 d 3 X 3 -1 d 3 X 3 -1 d 3 -1 d 3 X 3 -1 d s 689 845 m 3 X 3 -1 d 3 X 3 -1 d 3 -1 d 3 X 3 -1 d 3 -1 d 4 X 3 -1 d 3 -1 d 3 X 3 -1 d 3 -1 d 3 -1 d 3 X
 3 -1 d 3 -1 d 3 -1 d 3 X 3 -1 d 3 -1 d 3 -1 d 3 -1 d 4 X 3 -1 d 3 -1 d 3 -1 d 3 -1 d 3 -1 d 3 -1 d 3 -1 d 3 -1 d 3 -1 d 3 -1 d 3 -1 d 3 -1 d 3 -1 d 3 -1 d 3 -1 d 4 -1 d 3 -1 d 3 -1 d 3 -1 d 3 -1 d 3 -1 d 3 -1 d 3 -1 d 3 -1 d s 839 804 m 3 -2 d s
 0.49 0.6 0.82 c black 0.49 0.6 0.82 c
 gsave  408 305 476 677 C 595.418 960.076 t 0 r /Helvetica-Bold findfont 25.6831 sf 0 0 m (3.0 < E < 3.5 GeV) show NC gr  0.52 0.76 0.64 c black 0.52 0.76 0.64 c
 gsave  408 305 476 677 C 575.476 923.04 t 0 r /Helvetica-Bold findfont 25.6831 sf 0 0 m 
 228 214 200 193 178 171 156 149 133 126 119 105 91 76 69 55 47 39 25 17
(A = \2550.000, p = 2.000) K NC gr  1 0.6 1 c black 1 0.6 1 c
 gsave  408 305 476 677 C 883.156 791.991 t 90 r /Helvetica-Bold findfont 28.5368 sf 0 0 m (/dof=0.2) show NC gr  black 1 0.6 1 c
 gsave  408 305 476 677 C 871.76 780.596 t 90 r /Helvetica-Bold findfont 19.9758 sf 0 0 m (2) show NC gr  black 1 0.6 1 c
 gsave  408 305 476 677 C 883.156 763.503 t 90 r /Symbol findfont 28.5368 sf 0 0 m (c) show NC gr  black 3 lw 1 1 1 c 408 305 930 677 bf black 1 1 1 c black 306 229 991 723 bl 306 229 991 723 bl 991 723 m 306 X s 991 727 m -4 Y s 1084 727 m -4 Y s
 1178 727 m -4 Y s 1271 727 m -4 Y s 1271 727 m -4 Y s
 gsave  408 305 930 677 C 980.018 703.676 t 0 r /Helvetica findfont 22.8295 sf 0 0 m (0) show NC gr 
 gsave  408 305 930 677 C 1076.88 703.676 t 0 r /Helvetica findfont 22.8295 sf 0 0 m (1) show NC gr 
 gsave  408 305 930 677 C 1168.04 703.676 t 0 r /Helvetica findfont 22.8295 sf 0 0 m (2) show NC gr 
 gsave  408 305 930 677 C 1262.06 703.676 t 0 r /Helvetica findfont 22.8295 sf 0 0 m (3) show NC gr  991 952 m 306 X s 991 948 m 4 Y s 1084 948 m 4 Y s 1178 948 m 4 Y s 1271 948 m 4 Y s 1271 948 m 4 Y s 991 723 m 229 Y s 997 726 m -6 X s 994 737 m -3
 X s 994 748 m -3 X s 994 759 m -3 X s 994 771 m -3 X s 997 782 m -6 X s 994 793 m -3 X s 994 805 m -3 X s 994 816 m -3 X s 994 827 m -3 X s 997 838 m -6 X s 994 850 m -3 X s 994 861 m -3 X s 994 872 m -3 X s 994 884 m -3 X s 997 895 m -6 X s 994 906
 m -3 X s 994 918 m -3 X s 994 929 m -3 X s 994 940 m -3 X s 997 951 m -6 X s 997 726 m -6 X s 997 951 m -6 X s
 gsave  408 305 930 677 C 940.134 717.92 t 0 r /Helvetica findfont 22.8295 sf 0 0 m (\2550.01) show NC gr 
 gsave  408 305 930 677 C 923.04 774.898 t 0 r /Helvetica findfont 22.8295 sf 0 0 m (\2550.005) show NC gr 
 gsave  408 305 930 677 C 974.32 831.876 t 0 r /Helvetica findfont 22.8295 sf 0 0 m (0) show NC gr 
 gsave  408 305 930 677 C 931.587 888.854 t 0 r /Helvetica findfont 22.8295 sf 0 0 m (0.005) show NC gr 
 gsave  408 305 930 677 C 945.832 942.983 t 0 r /Helvetica findfont 22.8295 sf 0 0 m (0.01) show NC gr  1297 723 m 229 Y s 1292 726 m 5 X s 1294 737 m 3 X s 1294 748 m 3 X s 1294 759 m 3 X s 1294 771 m 3 X s 1292 782 m 5 X s 1294 793 m 3 X s 1294 805
 m 3 X s 1294 816 m 3 X s 1294 827 m 3 X s 1292 838 m 5 X s 1294 850 m 3 X s 1294 861 m 3 X s 1294 872 m 3 X s 1294 884 m 3 X s 1292 895 m 5 X s 1294 906 m 3 X s 1294 918 m 3 X s 1294 929 m 3 X s 1294 940 m 3 X s 1292 951 m 5 X s 1292 726 m 5 X s
 1292 951 m 5 X s 1038 789 1084 888 1178 786 1271 812 4 { m21} R 1038 801 m 33 Y s 1032 834 m 11 X s 1038 778 m -33 Y s 1032 745 m 11 X s 1084 899 m 34 Y s 1079 933 m 11 X s 1084 876 m -33 Y s 1079 843 m 11 X s 1178 798 m 33 Y s 1172 831 m 12 X s
 1178 775 m -33 Y s 1172 742 m 12 X s 1271 824 m 33 Y s 1266 857 m 11 X s 1271 801 m -33 Y s 1266 768 m 11 X s 9 lw 0.95 0.95 0.95 c black 993 838 m 6 X 3 -1 d 3 X 3 -1 d 6 X 3 -1 d 6 X 3 -1 d 3 X 3 -1 d 6 X 4 -1 d 6 X 3 -1 d 6 X 3 -1 d 3 X 3 -1 d 6
 X 3 -1 d 6 X 3 -1 d 3 X 3 -1 d 7 X 3 -1 d 6 X 3 -1 d 6 X 3 -1 d 3 X 3 -1 d 6 X 3 -1 d 6 X 4 -1 d s 1143 820 m 3 X 3 -1 d 6 X 3 -1 d 6 X 3 -1 d 3 X 3 -1 d 6 X 3 -1 d 6 X 4 -1 d 6 X 3 -1 d 3 X 3 -1 d 6 X 3 -1 d 6 X 3 -1 d 3 X 3 -1 d 6 X 3 -1 d 7 X 3
 -1 d 6 X 3 -1 d 3 X 3 -1 d 6 X 3 -1 d 6 X 3 -1 d 3 X 3 -1 d 4 X s 1293 802 m 3 X s 0.49 0.6 0.82 c black 0.49 0.6 0.82 c
 gsave  408 305 930 677 C 1051.24 960.076 t 0 r /Helvetica-Bold findfont 25.6831 sf 0 0 m (3.5 < E < 4.0 GeV) show NC gr  0.52 0.76 0.64 c black 0.52 0.76 0.64 c
 gsave  408 305 930 677 C 1031.3 923.04 t 0 r /Helvetica-Bold findfont 25.6831 sf 0 0 m 
 228 214 200 193 178 171 156 149 133 126 119 105 91 77 69 55 47 39 25 17
(A = \2550.001, p = 1.000) K NC gr  1 0.6 1 c black 1 0.6 1 c
 gsave  408 305 930 677 C 1336.13 791.991 t 90 r /Helvetica-Bold findfont 28.5368 sf 0 0 m (/dof=1.1) show NC gr  black 1 0.6 1 c
 gsave  408 305 930 677 C 1324.73 780.596 t 90 r /Helvetica-Bold findfont 19.9758 sf 0 0 m (2) show NC gr  black 1 0.6 1 c
 gsave  408 305 930 677 C 1336.13 763.503 t 90 r /Symbol findfont 28.5368 sf 0 0 m (c) show NC gr  black 3 lw 1 1 1 c 408 305 1383 677 bf black 1 1 1 c black 306 229 1445 723 bl 306 229 1445 723 bl 1445 723 m 306 X s 1445 727 m -4 Y s 1538 727 m -4 Y
 s 1631 727 m -4 Y s 1725 727 m -4 Y s 1725 727 m -4 Y s
 gsave  408 305 1383 677 C 1435.84 703.676 t 0 r /Helvetica findfont 22.8295 sf 0 0 m (0) show NC gr 
 gsave  408 305 1383 677 C 1529.85 703.676 t 0 r /Helvetica findfont 22.8295 sf 0 0 m (1) show NC gr 
 gsave  408 305 1383 677 C 1621.02 703.676 t 0 r /Helvetica findfont 22.8295 sf 0 0 m (2) show NC gr 
 gsave  408 305 1383 677 C 1715.03 703.676 t 0 r /Helvetica findfont 22.8295 sf 0 0 m (3) show NC gr  1445 952 m 306 X s 1445 948 m 4 Y s 1538 948 m 4 Y s 1631 948 m 4 Y s 1725 948 m 4 Y s 1725 948 m 4 Y s 1445 723 m 229 Y s 1450 749 m -5 X s 1447
 756 m -2 X s 1447 763 m -2 X s 1447 770 m -2 X s 1447 777 m -2 X s 1450 784 m -5 X s 1447 791 m -2 X s 1447 799 m -2 X s 1447 806 m -2 X s 1447 813 m -2 X s 1450 820 m -5 X s 1447 827 m -2 X s 1447 834 m -2 X s 1447 841 m -2 X s 1447 848 m -2 X s
 1450 855 m -5 X s 1447 862 m -2 X s 1447 869 m -2 X s 1447 877 m -2 X s 1447 884 m -2 X s 1450 891 m -5 X s 1447 898 m -2 X s 1447 905 m -2 X s 1447 912 m -2 X s 1447 919 m -2 X s 1450 926 m -5 X s 1450 749 m -5 X s 1447 742 m -2 X s 1447 735 m -2 X
 s 1447 728 m -2 X s 1450 926 m -5 X s 1447 933 m -2 X s 1447 940 m -2 X s 1447 947 m -2 X s
 gsave  408 305 1383 677 C 1390.26 740.711 t 0 r /Helvetica findfont 22.8295 sf 0 0 m (\2550.02) show NC gr 
 gsave  408 305 1383 677 C 1376.01 777.747 t 0 r /Helvetica findfont 22.8295 sf 0 0 m (\2550.015) show NC gr 
 gsave  408 305 1383 677 C 1393.11 811.934 t 0 r /Helvetica findfont 22.8295 sf 0 0 m (\2550.01) show NC gr 
 gsave  408 305 1383 677 C 1376.01 848.969 t 0 r /Helvetica findfont 22.8295 sf 0 0 m (\2550.005) show NC gr 
 gsave  408 305 1383 677 C 1427.29 883.156 t 0 r /Helvetica findfont 22.8295 sf 0 0 m (0) show NC gr 
 gsave  408 305 1383 677 C 1384.56 920.192 t 0 r /Helvetica findfont 22.8295 sf 0 0 m (0.005) show NC gr  1751 723 m 229 Y s 1745 749 m 6 X s 1748 756 m 3 X s 1748 763 m 3 X s 1748 770 m 3 X s 1748 777 m 3 X s 1745 784 m 6 X s 1748 791 m 3 X s 1748
 799 m 3 X s 1748 806 m 3 X s 1748 813 m 3 X s 1745 820 m 6 X s 1748 827 m 3 X s 1748 834 m 3 X s 1748 841 m 3 X s 1748 848 m 3 X s 1745 855 m 6 X s 1748 862 m 3 X s 1748 869 m 3 X s 1748 877 m 3 X s 1748 884 m 3 X s 1745 891 m 6 X s 1748 898 m 3 X s
 1748 905 m 3 X s 1748 912 m 3 X s 1748 919 m 3 X s 1745 926 m 6 X s 1745 749 m 6 X s 1748 742 m 3 X s 1748 735 m 3 X s 1748 728 m 3 X s 1745 926 m 6 X s 1748 933 m 3 X s 1748 940 m 3 X s 1748 947 m 3 X s 1491 825 1538 894 1631 824 1725 780 4 { m21}
 R 1491 836 m 27 Y s 1486 863 m 11 X s 1491 814 m -27 Y s 1486 787 m 11 X s 1538 906 m 27 Y s 1532 933 m 12 X s 1538 883 m -27 Y s 1532 856 m 12 X s 1631 835 m 26 Y s 1626 861 m 11 X s 1631 812 m -26 Y s 1626 786 m 11 X s 1725 791 m 27 Y s 1719 818 m
 12 X s 1725 768 m -26 Y s 1719 742 m 12 X s 9 lw 0.95 0.95 0.95 c black 1446 890 m 3 -1 d 3 -1 d 3 -1 d 3 -1 d 3 -2 d 3 -1 d 3 -1 d 4 -1 d 3 -1 d 3 -1 d 3 -1 d 3 -2 d 3 -1 d 3 -1 d 3 -1 d 3 -1 d 3 -1 d 3 -1 d 3 -2 d 3 -1 d 3 -1 d 3 -1 d 3 -1 d 4 -1
 d 3 -1 d 3 -2 d 3 -1 d 3 -1 d 3 -1 d 3 -1 d 3 -1 d 3 -1 d 3 -2 d 3 -1 d 3 -1 d 3 -1 d 3 -1 d 3 -1 d 3 -1 d 4 -2 d 3 -1 d 3 -1 d 3 -1 d 3 -1 d 3 -1 d 3 -1 d 3 -2 d 3 -1 d 3 -1 d s 1596 834 m 3 -1 d 3 -1 d 3 -1 d 3 -1 d 3 -2 d 3 -1 d 4 -1 d 3 -1 d 3
 -1 d 3 -1 d 3 -1 d 3 -2 d 3 -1 d 3 -1 d 3 -1 d 3 -1 d 3 -1 d 3 -1 d 3 -1 d 3 -2 d 3 -1 d 3 -1 d 3 -1 d 4 -1 d 3 -1 d 3 -1 d 3 -2 d 3 -1 d 3 -1 d 3 -1 d 3 -1 d 3 -1 d 3 -1 d 3 -2 d 3 -1 d 3 -1 d 3 -1 d 3 -1 d 3 -1 d 4 -1 d 3 -2 d 3 -1 d 3 -1 d 3 -1 d
 3 -1 d 3 -1 d 3 -1 d 3 -2 d 3 -1 d s 1746 778 m 3 -1 d s 0.49 0.6 0.82 c black 0.49 0.6 0.82 c
 gsave  408 305 1383 677 C 1504.21 960.076 t 0 r /Helvetica-Bold findfont 25.6831 sf 0 0 m (4.0 < E < 4.5 GeV) show NC gr  0.52 0.76 0.64 c black 0.52 0.76 0.64 c
 gsave  408 305 1383 677 C 1484.27 923.04 t 0 r /Helvetica-Bold findfont 25.6831 sf 0 0 m 
 228 214 200 193 178 171 156 149 134 126 119 105 91 77 69 55 47 40 25 17
(A = \2550.005, p = 1.000) K NC gr  1 0.6 1 c black 1 0.6 1 c
 gsave  408 305 1383 677 C 1789.1 791.991 t 90 r /Helvetica-Bold findfont 28.5368 sf 0 0 m (/dof=0.9) show NC gr  black 1 0.6 1 c
 gsave  408 305 1383 677 C 1777.71 780.596 t 90 r /Helvetica-Bold findfont 19.9758 sf 0 0 m (2) show NC gr  black 1 0.6 1 c
 gsave  408 305 1383 677 C 1789.1 763.503 t 90 r /Symbol findfont 28.5368 sf 0 0 m (c) show NC gr  black 3 lw 1 1 1 c 408 305 1837 677 bf black 1 1 1 c black 306 229 1898 723 bl 306 229 1898 723 bl 1898 723 m 306 X s 1898 727 m -4 Y s 1992 727 m -4 Y
 s 2085 727 m -4 Y s 2179 727 m -4 Y s 2179 727 m -4 Y s
 gsave  408 305 1837 677 C 1888.81 703.676 t 0 r /Helvetica findfont 22.8295 sf 0 0 m (0) show NC gr 
 gsave  408 305 1837 677 C 1985.68 703.676 t 0 r /Helvetica findfont 22.8295 sf 0 0 m (1) show NC gr 
 gsave  408 305 1837 677 C 2073.99 703.676 t 0 r /Helvetica findfont 22.8295 sf 0 0 m (2) show NC gr 
 gsave  408 305 1837 677 C 2168.01 703.676 t 0 r /Helvetica findfont 22.8295 sf 0 0 m (3) show NC gr  1898 952 m 306 X s 1898 948 m 4 Y s 1992 948 m 4 Y s 2085 948 m 4 Y s 2179 948 m 4 Y s 2179 948 m 4 Y s 1898 723 m 229 Y s 1904 757 m -6 X s 1901
 765 m -3 X s 1901 774 m -3 X s 1901 783 m -3 X s 1901 791 m -3 X s 1904 800 m -6 X s 1901 809 m -3 X s 1901 818 m -3 X s 1901 826 m -3 X s 1901 835 m -3 X s 1904 844 m -6 X s 1901 852 m -3 X s 1901 861 m -3 X s 1901 870 m -3 X s 1901 878 m -3 X s
 1904 887 m -6 X s 1901 896 m -3 X s 1901 905 m -3 X s 1901 913 m -3 X s 1901 922 m -3 X s 1904 931 m -6 X s 1904 757 m -6 X s 1901 748 m -3 X s 1901 739 m -3 X s 1901 731 m -3 X s 1904 931 m -6 X s 1901 939 m -3 X s 1901 948 m -3 X s
 gsave  408 305 1837 677 C 1843.23 749.258 t 0 r /Helvetica findfont 22.8295 sf 0 0 m (\2550.02) show NC gr 
 gsave  408 305 1837 677 C 1846.08 791.991 t 0 r /Helvetica findfont 22.8295 sf 0 0 m (\2550.01) show NC gr 
 gsave  408 305 1837 677 C 1880.27 837.574 t 0 r /Helvetica findfont 22.8295 sf 0 0 m (0) show NC gr 
 gsave  408 305 1837 677 C 1851.78 880.307 t 0 r /Helvetica findfont 22.8295 sf 0 0 m (0.01) show NC gr 
 gsave  408 305 1837 677 C 1848.93 923.04 t 0 r /Helvetica findfont 22.8295 sf 0 0 m (0.02) show NC gr  2204 723 m 229 Y s 2199 757 m 5 X s 2201 765 m 3 X s 2201 774 m 3 X s 2201 783 m 3 X s 2201 791 m 3 X s 2199 800 m 5 X s 2201 809 m 3 X s 2201 818
 m 3 X s 2201 826 m 3 X s 2201 835 m 3 X s 2199 844 m 5 X s 2201 852 m 3 X s 2201 861 m 3 X s 2201 870 m 3 X s 2201 878 m 3 X s 2199 887 m 5 X s 2201 896 m 3 X s 2201 905 m 3 X s 2201 913 m 3 X s 2201 922 m 3 X s 2199 931 m 5 X s 2199 757 m 5 X s
 2201 748 m 3 X s 2201 739 m 3 X s 2201 731 m 3 X s 2199 931 m 5 X s 2201 939 m 3 X s 2201 948 m 3 X s 1945 900 1992 855 2085 818 2179 774 4 { m21} R 1945 912 m 21 Y s 1939 933 m 12 X s 1945 889 m -21 Y s 1939 868 m 12 X s 1992 866 m 21 Y s 1986 887
 m 11 X s 1992 844 m -21 Y s 1986 823 m 11 X s 2085 830 m 21 Y s 2079 851 m 12 X s 2085 807 m -21 Y s 2079 786 m 12 X s 2179 785 m 21 Y s 2173 806 m 11 X s 2179 762 m -20 Y s 2173 742 m 11 X s 1 0 0 c 9 lw 0.95 0.95 0.95 c black 1 0 0 c 1900 844 m 9
 X 3 -1 d 21 X 3 -1 d 13 X 3 -1 d 6 X 3 -1 d 6 X 3 -1 d 6 X 3 -1 d 3 X 3 -1 d 3 X 3 -1 d 4 X 3 -1 d 3 X 3 -1 d 3 X 3 -1 d 3 X 3 -1 d 3 X 3 -1 d 3 -1 d 3 X 3 -1 d 3 -1 d 3 X 3 -1 d 3 -1 d 4 -1 d 3 X s 2050 825 m 3 -1 d 3 -1 d 3 -1 d 3 X 3 -1 d 3 -1 d
 3 -1 d 3 -1 d 3 -1 d 3 -1 d 3 -1 d 3 -1 d 3 X 3 -1 d 4 -1 d 3 -1 d 3 -1 d 3 -1 d 3 -2 d 3 -1 d 3 -1 d 3 -1 d 3 -1 d 3 -1 d 3 -1 d 3 -1 d 3 -1 d 3 -2 d 3 -1 d 3 -1 d 4 -1 d 3 -2 d 3 -1 d 3 -1 d 3 -1 d 3 -2 d 3 -1 d 3 -1 d 3 -2 d 3 -1 d 3 -2 d 3 -1 d
 3 -1 d 3 -2 d 3 -1 d 3 -2 d 4 -1 d 3 -2 d 3 -1 d s 2200 769 m 3 -2 d s 0.49 0.6 0.82 c black 0.49 0.6 0.82 c
 gsave  408 305 1837 677 C 1957.19 960.076 t 0 r /Helvetica-Bold findfont 25.6831 sf 0 0 m (4.5 < E < 5.0 GeV) show NC gr  0.52 0.76 0.64 c black 0.52 0.76 0.64 c
 gsave  408 305 1837 677 C 1937.25 923.04 t 0 r /Helvetica-Bold findfont 25.6831 sf 0 0 m 
 228 214 200 193 178 171 156 149 133 126 119 105 91 77 69 55 47 39 25 17
(A = \2550.002, p = 2.000) K NC gr  1 0.6 1 c black 1 0.6 1 c
 gsave  408 305 1837 677 C 2242.08 791.991 t 90 r /Helvetica-Bold findfont 28.5368 sf 0 0 m (/dof=1.2) show NC gr  black 1 0.6 1 c
 gsave  408 305 1837 677 C 2230.68 780.596 t 90 r /Helvetica-Bold findfont 19.9758 sf 0 0 m (2) show NC gr  black 1 0.6 1 c
 gsave  408 305 1837 677 C 2242.08 763.503 t 90 r /Symbol findfont 28.5368 sf 0 0 m (c) show NC gr  black 3 lw 1 1 1 c 408 306 23 345 bf black 1 1 1 c black 306 229 84 391 bl 306 229 84 391 bl 84 391 m 306 X s 84 395 m -4 Y s 177 395 m -4 Y s 271 395
 m -4 Y s 364 395 m -4 Y s 364 395 m -4 Y s
 gsave  408 306 23 345 C 74.0711 370.356 t 0 r /Helvetica findfont 22.8295 sf 0 0 m (0) show NC gr 
 gsave  408 306 23 345 C 170.933 370.356 t 0 r /Helvetica findfont 22.8295 sf 0 0 m (1) show NC gr 
 gsave  408 306 23 345 C 262.098 370.356 t 0 r /Helvetica findfont 22.8295 sf 0 0 m (2) show NC gr 
 gsave  408 306 23 345 C 353.262 370.356 t 0 r /Helvetica findfont 22.8295 sf 0 0 m (3) show NC gr  84 620 m 306 X s 84 616 m 4 Y s 177 616 m 4 Y s 271 616 m 4 Y s 364 616 m 4 Y s 364 616 m 4 Y s 84 391 m 229 Y s 89 392 m -5 X s 87 400 m -3 X s 87
 407 m -3 X s 87 415 m -3 X s 87 422 m -3 X s 89 430 m -5 X s 87 437 m -3 X s 87 445 m -3 X s 87 452 m -3 X s 87 460 m -3 X s 89 467 m -5 X s 87 475 m -3 X s 87 482 m -3 X s 87 490 m -3 X s 87 497 m -3 X s 89 505 m -5 X s 87 513 m -3 X s 87 520 m -3
 X s 87 528 m -3 X s 87 535 m -3 X s 89 543 m -5 X s 87 550 m -3 X s 87 558 m -3 X s 87 565 m -3 X s 87 573 m -3 X s 89 580 m -5 X s 87 588 m -3 X s 87 595 m -3 X s 87 603 m -3 X s 87 610 m -3 X s 89 618 m -5 X s 89 392 m -5 X s 89 618 m -5 X s
 gsave  408 306 23 345 C 28.4889 384.6 t 0 r /Helvetica findfont 22.8295 sf 0 0 m (\2550.04) show NC gr 
 gsave  408 306 23 345 C 28.4889 421.636 t 0 r /Helvetica findfont 22.8295 sf 0 0 m (\2550.03) show NC gr 
 gsave  408 306 23 345 C 28.4889 461.52 t 0 r /Helvetica findfont 22.8295 sf 0 0 m (\2550.02) show NC gr 
 gsave  408 306 23 345 C 31.3378 498.556 t 0 r /Helvetica findfont 22.8295 sf 0 0 m (\2550.01) show NC gr 
 gsave  408 306 23 345 C 65.5245 535.591 t 0 r /Helvetica findfont 22.8295 sf 0 0 m (0) show NC gr 
 gsave  408 306 23 345 C 37.0356 572.627 t 0 r /Helvetica findfont 22.8295 sf 0 0 m (0.01) show NC gr 
 gsave  408 306 23 345 C 34.1867 609.662 t 0 r /Helvetica findfont 22.8295 sf 0 0 m (0.02) show NC gr  390 391 m 229 Y s 385 392 m 5 X s 387 400 m 3 X s 387 407 m 3 X s 387 415 m 3 X s 387 422 m 3 X s 385 430 m 5 X s 387 437 m 3 X s 387 445 m 3 X s
 387 452 m 3 X s 387 460 m 3 X s 385 467 m 5 X s 387 475 m 3 X s 387 482 m 3 X s 387 490 m 3 X s 387 497 m 3 X s 385 505 m 5 X s 387 513 m 3 X s 387 520 m 3 X s 387 528 m 3 X s 387 535 m 3 X s 385 543 m 5 X s 387 550 m 3 X s 387 558 m 3 X s 387 565 m
 3 X s 387 573 m 3 X s 385 580 m 5 X s 387 588 m 3 X s 387 595 m 3 X s 387 603 m 3 X s 387 610 m 3 X s 385 618 m 5 X s 385 392 m 5 X s 385 618 m 5 X s /w 22 def /w2 {w 2 div} def /w3 {w 3 div} def 131 564 177 446 271 542 364 501 4 { m21} R 131 575 m
 26 Y s 125 601 m 11 X s 131 552 m -25 Y s 125 527 m 11 X s 177 458 m 25 Y s 172 483 m 11 X s 177 435 m -25 Y s 172 410 m 11 X s 271 554 m 25 Y s 265 579 m 12 X s 271 531 m -25 Y s 265 506 m 12 X s 364 512 m 26 Y s 359 538 m 11 X s 364 490 m -26 Y s
 359 464 m 11 X s 9 lw 0.95 0.95 0.95 c black 85 542 m 3 X 4 -1 d 3 X 3 -1 d 3 X 3 -1 d 3 X 3 -1 d 3 X 3 -1 d 3 X 3 -1 d 6 X 3 -1 d 3 X 3 -1 d 4 X 3 -1 d 3 X 3 -1 d 3 X 3 -1 d 3 X 3 -1 d 3 X 3 -1 d 3 X 3 -1 d 3 X 3 -1 d 3 X 3 -1 d 4 X 3 -1 d 3 X 3 -1
 d 3 X 3 -1 d 3 X 3 -1 d 3 X 3 -1 d 3 X 3 -1 d 3 X 3 -1 d 3 X 3 -1 d s 235 518 m 4 X 3 -1 d 3 X 3 -1 d 3 X 3 -1 d 3 X 3 -1 d 3 X 3 -1 d 3 X 3 -1 d 3 X 3 -1 d 3 X 3 -1 d 7 X 3 -1 d 3 X 3 -1 d 3 X 3 -1 d 3 X 3 -1 d 3 X 3 -1 d 3 X 3 -1 d 3 X 3 -1 d 3 X
 3 -1 d 4 X 3 -1 d 3 X 3 -1 d 3 X 3 -1 d 3 X 3 -1 d 3 X 3 -1 d 3 X 3 -1 d 3 X 3 -1 d 3 X 3 -1 d s 385 494 m 4 X s 0.49 0.6 0.82 c black 0.49 0.6 0.82 c
 gsave  408 306 23 345 C 142.445 629.605 t 0 r /Helvetica-Bold findfont 25.6831 sf 0 0 m (5.0 < E < 5.5 GeV) show NC gr  0.52 0.76 0.64 c black 0.52 0.76 0.64 c
 gsave  408 306 23 345 C 122.502 592.569 t 0 r /Helvetica-Bold findfont 25.6831 sf 0 0 m 
 228 214 200 193 178 171 156 149 134 126 119 105 91 77 69 55 47 39 25 17
(A = \2550.004, p = 1.000) K NC gr  1 0.6 1 c black 1 0.6 1 c
 gsave  408 306 23 345 C 427.334 458.671 t 90 r /Helvetica-Bold findfont 28.5368 sf 0 0 m (/dof=2.1) show NC gr  black 1 0.6 1 c
 gsave  408 306 23 345 C 415.938 447.276 t 90 r /Helvetica-Bold findfont 19.9758 sf 0 0 m (2) show NC gr  black 1 0.6 1 c
 gsave  408 306 23 345 C 427.334 430.182 t 90 r /Symbol findfont 28.5368 sf 0 0 m (c) show NC gr  black 3 lw 1 1 1 c 408 306 476 345 bf black 1 1 1 c black 307 229 537 391 bl 307 229 537 391 bl 537 391 m 307 X s 537 395 m -4 Y s 631 395 m -4 Y s 724
 395 m -4 Y s 818 395 m -4 Y s 818 395 m -4 Y s
 gsave  408 306 476 345 C 527.045 370.356 t 0 r /Helvetica findfont 22.8295 sf 0 0 m (0) show NC gr 
 gsave  408 306 476 345 C 623.907 370.356 t 0 r /Helvetica findfont 22.8295 sf 0 0 m (1) show NC gr 
 gsave  408 306 476 345 C 715.071 370.356 t 0 r /Helvetica findfont 22.8295 sf 0 0 m (2) show NC gr 
 gsave  408 306 476 345 C 809.085 370.356 t 0 r /Helvetica findfont 22.8295 sf 0 0 m (3) show NC gr  537 620 m 307 X s 537 616 m 4 Y s 631 616 m 4 Y s 724 616 m 4 Y s 818 616 m 4 Y s 818 616 m 4 Y s 537 391 m 229 Y s 543 416 m -6 X s 540 424 m -3 X s
 540 432 m -3 X s 540 440 m -3 X s 540 448 m -3 X s 543 455 m -6 X s 540 463 m -3 X s 540 471 m -3 X s 540 479 m -3 X s 540 486 m -3 X s 543 494 m -6 X s 540 502 m -3 X s 540 510 m -3 X s 540 517 m -3 X s 540 525 m -3 X s 543 533 m -6 X s 540 541 m
 -3 X s 540 549 m -3 X s 540 556 m -3 X s 540 564 m -3 X s 543 572 m -6 X s 540 580 m -3 X s 540 587 m -3 X s 540 595 m -3 X s 540 603 m -3 X s 543 611 m -6 X s 543 416 m -6 X s 540 409 m -3 X s 540 401 m -3 X s 540 393 m -3 X s 543 611 m -6 X s 540
 619 m -3 X s
 gsave  408 306 476 345 C 481.462 410.24 t 0 r /Helvetica findfont 22.8295 sf 0 0 m (\2550.04) show NC gr 
 gsave  408 306 476 345 C 481.462 447.276 t 0 r /Helvetica findfont 22.8295 sf 0 0 m (\2550.03) show NC gr 
 gsave  408 306 476 345 C 481.462 487.16 t 0 r /Helvetica findfont 22.8295 sf 0 0 m (\2550.02) show NC gr 
 gsave  408 306 476 345 C 484.311 527.045 t 0 r /Helvetica findfont 22.8295 sf 0 0 m (\2550.01) show NC gr 
 gsave  408 306 476 345 C 518.498 564.08 t 0 r /Helvetica findfont 22.8295 sf 0 0 m (0) show NC gr 
 gsave  408 306 476 345 C 490.009 603.965 t 0 r /Helvetica findfont 22.8295 sf 0 0 m (0.01) show NC gr  844 391 m 229 Y s 838 416 m 6 X s 841 424 m 3 X s 841 432 m 3 X s 841 440 m 3 X s 841 448 m 3 X s 838 455 m 6 X s 841 463 m 3 X s 841 471 m 3 X s
 841 479 m 3 X s 841 486 m 3 X s 838 494 m 6 X s 841 502 m 3 X s 841 510 m 3 X s 841 517 m 3 X s 841 525 m 3 X s 838 533 m 6 X s 841 541 m 3 X s 841 549 m 3 X s 841 556 m 3 X s 841 564 m 3 X s 838 572 m 6 X s 841 580 m 3 X s 841 587 m 3 X s 841 595 m
 3 X s 841 603 m 3 X s 838 611 m 6 X s 838 416 m 6 X s 841 409 m 3 X s 841 401 m 3 X s 841 393 m 3 X s 838 611 m 6 X s 841 619 m 3 X s /w 23 def /w2 {w 2 div} def /w3 {w 3 div} def 584 548 631 457 724 553 818 520 4 { m21} R 584 559 m 37 Y s 578 596 m
 12 X s 584 536 m -36 Y s 578 500 m 12 X s 631 468 m 35 Y s 625 503 m 12 X s 631 445 m -35 Y s 625 410 m 12 X s 724 565 m 36 Y s 719 601 m 11 X s 724 542 m -37 Y s 719 505 m 11 X s 818 532 m 36 Y s 812 568 m 12 X s 818 509 m -36 Y s 812 473 m 12 X s
 9 lw 0.95 0.95 0.95 c black 539 572 m 3 -1 d 3 -1 d 3 -1 d 3 X 3 -1 d 3 -1 d 3 -1 d 3 X 4 -1 d 3 -1 d 3 -1 d 3 X 3 -1 d 3 -1 d 3 -1 d 3 X 3 -1 d 3 -1 d 3 -1 d 3 X 3 -1 d 3 -1 d 3 -1 d 3 X 4 -1 d 3 -1 d 3 -1 d 3 X 3 -1 d 3 -1 d 3 -1 d 3 X 3 -1 d 3 -1
 d 3 -1 d 3 X 3 -1 d 3 -1 d 3 X 3 -1 d 3 -1 d 4 -1 d 3 X 3 -1 d 3 -1 d 3 -1 d 3 X 3 -1 d 3 -1 d s 689 535 m 3 -1 d 3 X 3 -1 d 3 -1 d 3 -1 d 3 X 3 -1 d 3 -1 d 4 -1 d 3 X 3 -1 d 3 -1 d 3 -1 d 3 X 3 -1 d 3 -1 d 3 -1 d 3 X 3 -1 d 3 -1 d 3 -1 d 3 X 3 -1 d
 3 -1 d 4 -1 d 3 X 3 -1 d 3 -1 d 3 -1 d 3 X 3 -1 d 3 -1 d 3 X 3 -1 d 3 -1 d 3 -1 d 3 X 3 -1 d 3 -1 d 3 -1 d 4 X 3 -1 d 3 -1 d 3 -1 d 3 X 3 -1 d 3 -1 d 3 -1 d 3 X s 839 499 m 3 -1 d s 0.49 0.6 0.82 c black 0.49 0.6 0.82 c
 gsave  408 306 476 345 C 595.418 629.605 t 0 r /Helvetica-Bold findfont 25.6831 sf 0 0 m (5.5 < E < 6.0 GeV) show NC gr  0.52 0.76 0.64 c black 0.52 0.76 0.64 c
 gsave  408 306 476 345 C 575.476 592.569 t 0 r /Helvetica-Bold findfont 25.6831 sf 0 0 m 
 228 214 200 193 178 171 156 149 133 126 119 105 91 76 69 55 47 39 25 17
(A = \2550.006, p = 1.000) K NC gr  1 0.6 1 c black 1 0.6 1 c
 gsave  408 306 476 345 C 883.156 458.671 t 90 r /Helvetica-Bold findfont 28.5368 sf 0 0 m (/dof=1.5) show NC gr  black 1 0.6 1 c
 gsave  408 306 476 345 C 871.76 447.276 t 90 r /Helvetica-Bold findfont 19.9758 sf 0 0 m (2) show NC gr  black 1 0.6 1 c
 gsave  408 306 476 345 C 883.156 430.182 t 90 r /Symbol findfont 28.5368 sf 0 0 m (c) show NC gr  black 3 lw 1 1 1 c 408 306 930 345 bf black 1 1 1 c black 306 229 991 391 bl 306 229 991 391 bl 991 391 m 306 X s 991 395 m -4 Y s 1084 395 m -4 Y s
 1178 395 m -4 Y s 1271 395 m -4 Y s 1271 395 m -4 Y s
 gsave  408 306 930 345 C 980.018 370.356 t 0 r /Helvetica findfont 22.8295 sf 0 0 m (0) show NC gr 
 gsave  408 306 930 345 C 1076.88 370.356 t 0 r /Helvetica findfont 22.8295 sf 0 0 m (1) show NC gr 
 gsave  408 306 930 345 C 1168.04 370.356 t 0 r /Helvetica findfont 22.8295 sf 0 0 m (2) show NC gr 
 gsave  408 306 930 345 C 1262.06 370.356 t 0 r /Helvetica findfont 22.8295 sf 0 0 m (3) show NC gr  991 620 m 306 X s 991 616 m 4 Y s 1084 616 m 4 Y s 1178 616 m 4 Y s 1271 616 m 4 Y s 1271 616 m 4 Y s 991 391 m 229 Y s 997 397 m -6 X s 994 405 m -3
 X s 994 413 m -3 X s 994 420 m -3 X s 994 428 m -3 X s 997 436 m -6 X s 994 444 m -3 X s 994 451 m -3 X s 994 459 m -3 X s 994 467 m -3 X s 997 474 m -6 X s 994 482 m -3 X s 994 490 m -3 X s 994 497 m -3 X s 994 505 m -3 X s 997 513 m -6 X s 994 520
 m -3 X s 994 528 m -3 X s 994 536 m -3 X s 994 544 m -3 X s 997 551 m -6 X s 994 559 m -3 X s 994 567 m -3 X s 994 574 m -3 X s 994 582 m -3 X s 997 590 m -6 X s 997 397 m -6 X s 997 590 m -6 X s 994 597 m -3 X s 994 605 m -3 X s 994 613 m -3 X s
 gsave  408 306 930 345 C 937.285 390.298 t 0 r /Helvetica findfont 22.8295 sf 0 0 m (\2550.04) show NC gr 
 gsave  408 306 930 345 C 937.285 427.334 t 0 r /Helvetica findfont 22.8295 sf 0 0 m (\2550.03) show NC gr 
 gsave  408 306 930 345 C 937.285 467.218 t 0 r /Helvetica findfont 22.8295 sf 0 0 m (\2550.02) show NC gr 
 gsave  408 306 930 345 C 940.134 507.102 t 0 r /Helvetica findfont 22.8295 sf 0 0 m (\2550.01) show NC gr 
 gsave  408 306 930 345 C 974.32 544.138 t 0 r /Helvetica findfont 22.8295 sf 0 0 m (0) show NC gr 
 gsave  408 306 930 345 C 945.832 584.022 t 0 r /Helvetica findfont 22.8295 sf 0 0 m (0.01) show NC gr  1297 391 m 229 Y s 1292 397 m 5 X s 1294 405 m 3 X s 1294 413 m 3 X s 1294 420 m 3 X s 1294 428 m 3 X s 1292 436 m 5 X s 1294 444 m 3 X s 1294 451
 m 3 X s 1294 459 m 3 X s 1294 467 m 3 X s 1292 474 m 5 X s 1294 482 m 3 X s 1294 490 m 3 X s 1294 497 m 3 X s 1294 505 m 3 X s 1292 513 m 5 X s 1294 520 m 3 X s 1294 528 m 3 X s 1294 536 m 3 X s 1294 544 m 3 X s 1292 551 m 5 X s 1294 559 m 3 X s
 1294 567 m 3 X s 1294 574 m 3 X s 1294 582 m 3 X s 1292 590 m 5 X s 1292 397 m 5 X s 1292 590 m 5 X s 1294 597 m 3 X s 1294 605 m 3 X s 1294 613 m 3 X s 1038 488 1084 504 1178 545 1271 465 4 { m21} R 1038 500 m 44 Y s 1032 544 m 11 X s 1038 477 m
 -44 Y s 1032 433 m 11 X s 1084 515 m 44 Y s 1079 559 m 11 X s 1084 492 m -43 Y s 1079 449 m 11 X s 1178 556 m 45 Y s 1172 601 m 12 X s 1178 534 m -45 Y s 1172 489 m 12 X s 1271 477 m 44 Y s 1266 521 m 11 X s 1271 454 m -44 Y s 1266 410 m 11 X s 9 lw
 0.95 0.95 0.95 c black 993 551 m 3 -1 d 3 -1 d 3 -1 d 3 X 3 -1 d 3 -1 d 3 -1 d 3 -1 d 3 X 3 -1 d 3 -1 d 3 -1 d 3 -1 d 3 X 3 -1 d 4 -1 d 3 -1 d 3 -1 d 3 X 3 -1 d 3 -1 d 3 -1 d 3 -1 d 3 X 3 -1 d 3 -1 d 3 -1 d 3 -1 d 3 -1 d 3 X 3 -1 d 3 -1 d 4 -1 d 3
 -1 d 3 X 3 -1 d 3 -1 d 3 -1 d 3 -1 d 3 X 3 -1 d 3 -1 d 3 -1 d 3 -1 d 3 X 3 -1 d 3 -1 d 3 -1 d 4 -1 d s 1143 511 m 3 X 3 -1 d 3 -1 d 3 -1 d 3 -1 d 3 X 3 -1 d 3 -1 d 3 -1 d 3 -1 d 3 -1 d 3 X 3 -1 d 3 -1 d 3 -1 d 4 -1 d 3 X 3 -1 d 3 -1 d 3 -1 d 3 -1 d
 3 X 3 -1 d 3 -1 d 3 -1 d 3 -1 d 3 X 3 -1 d 3 -1 d 3 -1 d 3 -1 d 3 X 4 -1 d 3 -1 d 3 -1 d 3 -1 d 3 X 3 -1 d 3 -1 d 3 -1 d 3 -1 d 3 -1 d 3 X 3 -1 d 3 -1 d 3 -1 d 3 -1 d 3 X 4 -1 d s 1293 472 m 3 -1 d s 0.49 0.6 0.82 c black 0.49 0.6 0.82 c
 gsave  408 306 930 345 C 1051.24 629.605 t 0 r /Helvetica-Bold findfont 25.6831 sf 0 0 m (6.0 < E < 6.5 GeV) show NC gr  0.52 0.76 0.64 c black 0.52 0.76 0.64 c
 gsave  408 306 930 345 C 1031.3 592.569 t 0 r /Helvetica-Bold findfont 25.6831 sf 0 0 m 
 228 214 200 193 178 171 156 149 133 126 119 105 91 77 69 55 47 39 25 17
(A = \2550.006, p = 1.000) K NC gr  1 0.6 1 c black 1 0.6 1 c
 gsave  408 306 930 345 C 1336.13 458.671 t 90 r /Helvetica-Bold findfont 28.5368 sf 0 0 m (/dof=0.6) show NC gr  black 1 0.6 1 c
 gsave  408 306 930 345 C 1324.73 447.276 t 90 r /Helvetica-Bold findfont 19.9758 sf 0 0 m (2) show NC gr  black 1 0.6 1 c
 gsave  408 306 930 345 C 1336.13 430.182 t 90 r /Symbol findfont 28.5368 sf 0 0 m (c) show NC gr  black 3 lw 1 1 1 c 408 306 1383 345 bf black 1 1 1 c black 306 229 1445 391 bl 306 229 1445 391 bl 1445 391 m 306 X s 1445 395 m -4 Y s 1538 395 m -4 Y
 s 1631 395 m -4 Y s 1725 395 m -4 Y s 1725 395 m -4 Y s
 gsave  408 306 1383 345 C 1435.84 370.356 t 0 r /Helvetica findfont 22.8295 sf 0 0 m (0) show NC gr 
 gsave  408 306 1383 345 C 1529.85 370.356 t 0 r /Helvetica findfont 22.8295 sf 0 0 m (1) show NC gr 
 gsave  408 306 1383 345 C 1621.02 370.356 t 0 r /Helvetica findfont 22.8295 sf 0 0 m (2) show NC gr 
 gsave  408 306 1383 345 C 1715.03 370.356 t 0 r /Helvetica findfont 22.8295 sf 0 0 m (3) show NC gr  1445 620 m 306 X s 1445 616 m 4 Y s 1538 616 m 4 Y s 1631 616 m 4 Y s 1725 616 m 4 Y s 1725 616 m 4 Y s 1445 391 m 229 Y s 1450 415 m -5 X s 1447
 422 m -2 X s 1447 429 m -2 X s 1447 435 m -2 X s 1447 442 m -2 X s 1450 448 m -5 X s 1447 455 m -2 X s 1447 461 m -2 X s 1447 468 m -2 X s 1447 475 m -2 X s 1450 481 m -5 X s 1447 488 m -2 X s 1447 494 m -2 X s 1447 501 m -2 X s 1447 508 m -2 X s
 1450 514 m -5 X s 1447 521 m -2 X s 1447 527 m -2 X s 1447 534 m -2 X s 1447 540 m -2 X s 1450 547 m -5 X s 1447 554 m -2 X s 1447 560 m -2 X s 1447 567 m -2 X s 1447 573 m -2 X s 1450 580 m -5 X s 1447 586 m -2 X s 1447 593 m -2 X s 1447 600 m -2 X
 s 1447 606 m -2 X s 1450 613 m -5 X s 1450 415 m -5 X s 1447 409 m -2 X s 1447 402 m -2 X s 1447 396 m -2 X s 1450 613 m -5 X s 1447 619 m -2 X s
 gsave  408 306 1383 345 C 1390.26 407.391 t 0 r /Helvetica findfont 22.8295 sf 0 0 m (\2550.02) show NC gr 
 gsave  408 306 1383 345 C 1393.11 441.578 t 0 r /Helvetica findfont 22.8295 sf 0 0 m (\2550.01) show NC gr 
 gsave  408 306 1383 345 C 1427.29 472.916 t 0 r /Helvetica findfont 22.8295 sf 0 0 m (0) show NC gr 
 gsave  408 306 1383 345 C 1398.81 507.102 t 0 r /Helvetica findfont 22.8295 sf 0 0 m (0.01) show NC gr 
 gsave  408 306 1383 345 C 1395.96 538.44 t 0 r /Helvetica findfont 22.8295 sf 0 0 m (0.02) show NC gr 
 gsave  408 306 1383 345 C 1395.96 572.627 t 0 r /Helvetica findfont 22.8295 sf 0 0 m (0.03) show NC gr 
 gsave  408 306 1383 345 C 1395.96 606.814 t 0 r /Helvetica findfont 22.8295 sf 0 0 m (0.04) show NC gr  1751 391 m 229 Y s 1745 415 m 6 X s 1748 422 m 3 X s 1748 429 m 3 X s 1748 435 m 3 X s 1748 442 m 3 X s 1745 448 m 6 X s 1748 455 m 3 X s 1748
 461 m 3 X s 1748 468 m 3 X s 1748 475 m 3 X s 1745 481 m 6 X s 1748 488 m 3 X s 1748 494 m 3 X s 1748 501 m 3 X s 1748 508 m 3 X s 1745 514 m 6 X s 1748 521 m 3 X s 1748 527 m 3 X s 1748 534 m 3 X s 1748 540 m 3 X s 1745 547 m 6 X s 1748 554 m 3 X s
 1748 560 m 3 X s 1748 567 m 3 X s 1748 573 m 3 X s 1745 580 m 6 X s 1748 586 m 3 X s 1748 593 m 3 X s 1748 600 m 3 X s 1748 606 m 3 X s 1745 613 m 6 X s 1745 415 m 6 X s 1748 409 m 3 X s 1748 402 m 3 X s 1748 396 m 3 X s 1745 613 m 6 X s 1748 619 m
 3 X s 1491 483 1538 464 1631 508 1725 546 4 { m21} R 1491 495 m 42 Y s 1486 537 m 11 X s 1491 472 m -42 Y s 1486 430 m 11 X s 1538 475 m 43 Y s 1532 518 m 12 X s 1538 452 m -42 Y s 1532 410 m 12 X s 1631 519 m 43 Y s 1626 562 m 11 X s 1631 496 m -42
 Y s 1626 454 m 11 X s 1725 558 m 43 Y s 1719 601 m 12 X s 1725 535 m -43 Y s 1719 492 m 12 X s 1 0 0 c 9 lw 0.95 0.95 0.95 c black 1 0 0 c 1446 481 m 15 X 3 1 d 19 X 3 1 d 12 X 3 1 d 6 X 3 1 d 6 X 4 1 d 6 X 3 1 d 3 X 3 1 d 3 X 3 1 d 6 X 3 1 d 3 1 d
 3 X 3 1 d 3 X 3 1 d 4 X 3 1 d 3 1 d 3 X 3 1 d 3 X 3 1 d 3 1 d 3 1 d 3 X s 1596 499 m 3 1 d 3 1 d 3 1 d 3 X 3 1 d 3 1 d 4 1 d 3 1 d 3 X 3 1 d 3 1 d 3 1 d 3 1 d 3 1 d 3 1 d 3 1 d 3 1 d 3 1 d 3 1 d 3 1 d 3 1 d 3 1 d 3 1 d 4 1 d 3 1 d 3 1 d 3 1 d 3 2 d
 3 1 d 3 1 d 3 1 d 3 1 d 3 1 d 3 2 d 3 1 d 3 1 d 3 1 d 3 2 d 3 1 d 4 1 d 3 2 d 3 1 d 3 1 d 3 2 d 3 1 d 3 2 d 3 1 d 3 1 d 3 2 d s 1746 553 m 3 1 d s 0.49 0.6 0.82 c black 0.49 0.6 0.82 c
 gsave  408 306 1383 345 C 1504.21 629.605 t 0 r /Helvetica-Bold findfont 25.6831 sf 0 0 m (6.5 < E < 7.0 GeV) show NC gr  0.52 0.76 0.64 c black 0.52 0.76 0.64 c
 gsave  408 306 1383 345 C 1489.97 592.569 t 0 r /Helvetica-Bold findfont 25.6831 sf 0 0 m 
 220 206 192 185 170 163 148 141 126 118 111 97 83 69 61 47 40 25 18
(A = 0.002, p = 2.000) K NC gr  1 0.6 1 c black 1 0.6 1 c
 gsave  408 306 1383 345 C 1789.1 458.671 t 90 r /Helvetica-Bold findfont 28.5368 sf 0 0 m (/dof=0.1) show NC gr  black 1 0.6 1 c
 gsave  408 306 1383 345 C 1777.71 447.276 t 90 r /Helvetica-Bold findfont 19.9758 sf 0 0 m (2) show NC gr  black 1 0.6 1 c
 gsave  408 306 1383 345 C 1789.1 430.182 t 90 r /Symbol findfont 28.5368 sf 0 0 m (c) show NC gr  black 3 lw 1 1 1 c 408 306 1837 345 bf black 1 1 1 c black 306 229 1898 391 bl 306 229 1898 391 bl 1898 391 m 306 X s 1898 395 m -4 Y s 1992 395 m -4 Y
 s 2085 395 m -4 Y s 2179 395 m -4 Y s 2179 395 m -4 Y s
 gsave  408 306 1837 345 C 1888.81 370.356 t 0 r /Helvetica findfont 22.8295 sf 0 0 m (0) show NC gr 
 gsave  408 306 1837 345 C 1985.68 370.356 t 0 r /Helvetica findfont 22.8295 sf 0 0 m (1) show NC gr 
 gsave  408 306 1837 345 C 2073.99 370.356 t 0 r /Helvetica findfont 22.8295 sf 0 0 m (2) show NC gr 
 gsave  408 306 1837 345 C 2168.01 370.356 t 0 r /Helvetica findfont 22.8295 sf 0 0 m (3) show NC gr  1898 620 m 306 X s 1898 616 m 4 Y s 1992 616 m 4 Y s 2085 616 m 4 Y s 2179 616 m 4 Y s 2179 616 m 4 Y s 1898 391 m 229 Y s 1904 402 m -6 X s 1901
 408 m -3 X s 1901 413 m -3 X s 1901 418 m -3 X s 1901 423 m -3 X s 1904 429 m -6 X s 1901 434 m -3 X s 1901 439 m -3 X s 1901 444 m -3 X s 1901 450 m -3 X s 1904 455 m -6 X s 1901 460 m -3 X s 1901 465 m -3 X s 1901 470 m -3 X s 1901 476 m -3 X s
 1904 481 m -6 X s 1901 486 m -3 X s 1901 491 m -3 X s 1901 497 m -3 X s 1901 502 m -3 X s 1904 507 m -6 X s 1901 512 m -3 X s 1901 518 m -3 X s 1901 523 m -3 X s 1901 528 m -3 X s 1904 533 m -6 X s 1901 538 m -3 X s 1901 544 m -3 X s 1901 549 m -3 X
 s 1901 554 m -3 X s 1904 559 m -6 X s 1901 565 m -3 X s 1901 570 m -3 X s 1901 575 m -3 X s 1901 580 m -3 X s 1904 586 m -6 X s 1901 591 m -3 X s 1901 596 m -3 X s 1901 601 m -3 X s 1901 606 m -3 X s 1904 612 m -6 X s 1904 402 m -6 X s 1901 397 m -3
 X s 1901 392 m -3 X s 1904 612 m -6 X s 1901 617 m -3 X s
 gsave  408 306 1837 345 C 1843.23 395.996 t 0 r /Helvetica findfont 22.8295 sf 0 0 m (\2550.02) show NC gr 
 gsave  408 306 1837 345 C 1846.08 421.636 t 0 r /Helvetica findfont 22.8295 sf 0 0 m (\2550.01) show NC gr 
 gsave  408 306 1837 345 C 1880.27 447.276 t 0 r /Helvetica findfont 22.8295 sf 0 0 m (0) show NC gr 
 gsave  408 306 1837 345 C 1851.78 472.916 t 0 r /Helvetica findfont 22.8295 sf 0 0 m (0.01) show NC gr 
 gsave  408 306 1837 345 C 1848.93 498.556 t 0 r /Helvetica findfont 22.8295 sf 0 0 m (0.02) show NC gr 
 gsave  408 306 1837 345 C 1848.93 527.045 t 0 r /Helvetica findfont 22.8295 sf 0 0 m (0.03) show NC gr 
 gsave  408 306 1837 345 C 1848.93 552.685 t 0 r /Helvetica findfont 22.8295 sf 0 0 m (0.04) show NC gr 
 gsave  408 306 1837 345 C 1848.93 578.325 t 0 r /Helvetica findfont 22.8295 sf 0 0 m (0.05) show NC gr 
 gsave  408 306 1837 345 C 1848.93 603.965 t 0 r /Helvetica findfont 22.8295 sf 0 0 m (0.06) show NC gr  2204 391 m 229 Y s 2199 402 m 5 X s 2201 408 m 3 X s 2201 413 m 3 X s 2201 418 m 3 X s 2201 423 m 3 X s 2199 429 m 5 X s 2201 434 m 3 X s 2201
 439 m 3 X s 2201 444 m 3 X s 2201 450 m 3 X s 2199 455 m 5 X s 2201 460 m 3 X s 2201 465 m 3 X s 2201 470 m 3 X s 2201 476 m 3 X s 2199 481 m 5 X s 2201 486 m 3 X s 2201 491 m 3 X s 2201 497 m 3 X s 2201 502 m 3 X s 2199 507 m 5 X s 2201 512 m 3 X s
 2201 518 m 3 X s 2201 523 m 3 X s 2201 528 m 3 X s 2199 533 m 5 X s 2201 538 m 3 X s 2201 544 m 3 X s 2201 549 m 3 X s 2201 554 m 3 X s 2199 559 m 5 X s 2201 565 m 3 X s 2201 570 m 3 X s 2201 575 m 3 X s 2201 580 m 3 X s 2199 586 m 5 X s 2201 591 m
 3 X s 2201 596 m 3 X s 2201 601 m 3 X s 2201 606 m 3 X s 2199 612 m 5 X s 2199 402 m 5 X s 2201 397 m 3 X s 2201 392 m 3 X s 2199 612 m 5 X s 2201 617 m 3 X s 1945 481 1992 553 2085 488 2179 457 4 { m21} R 1945 492 m 36 Y s 1939 528 m 12 X s 1945
 469 m -36 Y s 1939 433 m 12 X s 1992 565 m 36 Y s 1986 601 m 11 X s 1992 542 m -36 Y s 1986 506 m 11 X s 2085 500 m 35 Y s 2079 535 m 12 X s 2085 477 m -36 Y s 2079 441 m 12 X s 2179 468 m 36 Y s 2173 504 m 11 X s 2179 445 m -35 Y s 2173 410 m 11 X
 s 9 lw 0.95 0.95 0.95 c black 1900 455 m 3 X 3 1 d 3 X 3 1 d 6 X 3 1 d 3 X 3 1 d 3 X 3 1 d 6 X 3 1 d 4 X 3 1 d 6 X 3 1 d 3 X 3 1 d 3 X 3 1 d 6 X 3 1 d 3 X 3 1 d 6 X 4 1 d 3 X 3 1 d 3 X 3 1 d 6 X 3 1 d 3 X 3 1 d 6 X 3 1 d 3 X 3 1 d 3 X 3 1 d 7 X s
 2050 475 m 3 1 d 3 X 3 1 d 6 X 3 1 d 3 X 3 1 d 3 X 3 1 d 6 X 3 1 d 3 X 4 1 d 6 X 3 1 d 3 X 3 1 d 3 X 3 1 d 6 X 3 1 d 3 X 3 1 d 6 X 3 1 d 4 X 3 1 d 3 X 3 1 d 6 X 3 1 d 3 X 3 1 d 6 X 3 1 d 3 X 3 1 d 3 X 3 1 d 7 X 3 1 d s 2200 496 m 3 X s 0.49 0.6 0.82
 c black 0.49 0.6 0.82 c
 gsave  408 306 1837 345 C 1957.19 629.605 t 0 r /Helvetica-Bold findfont 25.6831 sf 0 0 m (7.0 < E < 7.5 GeV) show NC gr  0.52 0.76 0.64 c black 0.52 0.76 0.64 c
 gsave  408 306 1837 345 C 1942.94 592.569 t 0 r /Helvetica-Bold findfont 25.6831 sf 0 0 m 
 220 206 192 185 170 163 148 141 125 118 111 97 83 69 61 47 40 25 18
(A = 0.005, p = 1.000) K NC gr  1 0.6 1 c black 1 0.6 1 c
 gsave  408 306 1837 345 C 2242.08 458.671 t 90 r /Helvetica-Bold findfont 28.5368 sf 0 0 m (/dof=1.3) show NC gr  black 1 0.6 1 c
 gsave  408 306 1837 345 C 2230.68 447.276 t 90 r /Helvetica-Bold findfont 19.9758 sf 0 0 m (2) show NC gr  black 1 0.6 1 c
 gsave  408 306 1837 345 C 2242.08 430.182 t 90 r /Symbol findfont 28.5368 sf 0 0 m (c) show NC gr  black 3 lw 1 1 1 c 408 306 23 13 bf black 1 1 1 c black 306 229 84 59 bl 306 229 84 59 bl 84 59 m 306 X s 84 63 m -4 Y s 177 63 m -4 Y s 271 63 m -4 Y
 s 364 63 m -4 Y s 364 63 m -4 Y s
 gsave  408 306 23 13 C 74.0711 39.8845 t 0 r /Helvetica findfont 22.8295 sf 0 0 m (0) show NC gr 
 gsave  408 306 23 13 C 170.933 39.8845 t 0 r /Helvetica findfont 22.8295 sf 0 0 m (1) show NC gr 
 gsave  408 306 23 13 C 262.098 39.8845 t 0 r /Helvetica findfont 22.8295 sf 0 0 m (2) show NC gr 
 gsave  408 306 23 13 C 353.262 39.8845 t 0 r /Helvetica findfont 22.8295 sf 0 0 m (3) show NC gr  84 288 m 306 X s 84 284 m 4 Y s 177 284 m 4 Y s 271 284 m 4 Y s 364 284 m 4 Y s 364 284 m 4 Y s 84 59 m 229 Y s 89 59 m -5 X s 87 65 m -3 X s 87 70 m
 -3 X s 87 75 m -3 X s 87 80 m -3 X s 89 85 m -5 X s 87 91 m -3 X s 87 96 m -3 X s 87 101 m -3 X s 87 106 m -3 X s 89 111 m -5 X s 87 117 m -3 X s 87 122 m -3 X s 87 127 m -3 X s 87 132 m -3 X s 89 138 m -5 X s 87 143 m -3 X s 87 148 m -3 X s 87 153
 m -3 X s 87 158 m -3 X s 89 164 m -5 X s 87 169 m -3 X s 87 174 m -3 X s 87 179 m -3 X s 87 184 m -3 X s 89 190 m -5 X s 87 195 m -3 X s 87 200 m -3 X s 87 205 m -3 X s 87 210 m -3 X s 89 216 m -5 X s 87 221 m -3 X s 87 226 m -3 X s 87 231 m -3 X s
 87 236 m -3 X s 89 242 m -5 X s 87 247 m -3 X s 87 252 m -3 X s 87 257 m -3 X s 87 262 m -3 X s 89 268 m -5 X s 89 59 m -5 X s 89 268 m -5 X s 87 273 m -3 X s 87 278 m -3 X s 87 283 m -3 X s
 gsave  408 306 23 13 C 28.4889 51.28 t 0 r /Helvetica findfont 22.8295 sf 0 0 m (\2550.04) show NC gr 
 gsave  408 306 23 13 C 28.4889 76.92 t 0 r /Helvetica findfont 22.8295 sf 0 0 m (\2550.03) show NC gr 
 gsave  408 306 23 13 C 28.4889 105.409 t 0 r /Helvetica findfont 22.8295 sf 0 0 m (\2550.02) show NC gr 
 gsave  408 306 23 13 C 31.3378 131.049 t 0 r /Helvetica findfont 22.8295 sf 0 0 m (\2550.01) show NC gr 
 gsave  408 306 23 13 C 65.5245 156.689 t 0 r /Helvetica findfont 22.8295 sf 0 0 m (0) show NC gr 
 gsave  408 306 23 13 C 37.0356 182.329 t 0 r /Helvetica findfont 22.8295 sf 0 0 m (0.01) show NC gr 
 gsave  408 306 23 13 C 34.1867 207.969 t 0 r /Helvetica findfont 22.8295 sf 0 0 m (0.02) show NC gr 
 gsave  408 306 23 13 C 34.1867 233.609 t 0 r /Helvetica findfont 22.8295 sf 0 0 m (0.03) show NC gr 
 gsave  408 306 23 13 C 34.1867 259.249 t 0 r /Helvetica findfont 22.8295 sf 0 0 m (0.04) show NC gr  390 59 m 229 Y s 385 59 m 5 X s 387 65 m 3 X s 387 70 m 3 X s 387 75 m 3 X s 387 80 m 3 X s 385 85 m 5 X s 387 91 m 3 X s 387 96 m 3 X s 387 101 m 3
 X s 387 106 m 3 X s 385 111 m 5 X s 387 117 m 3 X s 387 122 m 3 X s 387 127 m 3 X s 387 132 m 3 X s 385 138 m 5 X s 387 143 m 3 X s 387 148 m 3 X s 387 153 m 3 X s 387 158 m 3 X s 385 164 m 5 X s 387 169 m 3 X s 387 174 m 3 X s 387 179 m 3 X s 387
 184 m 3 X s 385 190 m 5 X s 387 195 m 3 X s 387 200 m 3 X s 387 205 m 3 X s 387 210 m 3 X s 385 216 m 5 X s 387 221 m 3 X s 387 226 m 3 X s 387 231 m 3 X s 387 236 m 3 X s 385 242 m 5 X s 387 247 m 3 X s 387 252 m 3 X s 387 257 m 3 X s 387 262 m 3 X
 s 385 268 m 5 X s 385 59 m 5 X s 385 268 m 5 X s 387 273 m 3 X s 387 278 m 3 X s 387 283 m 3 X s /w 22 def /w2 {w 2 div} def /w3 {w 3 div} def 131 128 177 218 271 204 364 179 4 { m21} R 131 139 m 39 Y s 125 178 m 11 X s 131 117 m -39 Y s 125 78 m 11
 X s 177 229 m 40 Y s 172 269 m 11 X s 177 206 m -39 Y s 172 167 m 11 X s 271 215 m 40 Y s 265 255 m 12 X s 271 193 m -40 Y s 265 153 m 12 X s 364 190 m 39 Y s 359 229 m 11 X s 364 168 m -39 Y s 359 129 m 11 X s 9 lw 0.95 0.95 0.95 c black 85 164 m 7
 X 3 1 d 3 X 3 1 d 6 X 3 1 d 6 X 3 1 d 3 X 3 1 d 6 X 3 1 d 7 X 3 1 d 6 X 3 1 d 3 X 3 1 d 6 X 3 1 d 6 X 3 1 d 3 X 3 1 d 7 X 3 1 d 6 X 3 1 d 6 X 3 1 d 3 X 3 1 d 6 X 3 1 d 6 X 3 1 d s 235 182 m 4 X 3 1 d 6 X 3 1 d 6 X 3 1 d 3 X 3 1 d 6 X 3 1 d 6 X 3 1 d
 7 X 3 1 d 3 X 3 1 d 6 X 3 1 d 6 X 3 1 d 3 X 3 1 d 6 X 3 1 d 7 X 3 1 d 6 X 3 1 d 3 X 3 1 d 6 X 3 1 d 6 X 3 1 d 3 X 3 1 d 3 X s 385 200 m 4 X s 0.49 0.6 0.82 c black 0.49 0.6 0.82 c
 gsave  408 306 23 13 C 142.445 296.285 t 0 r /Helvetica-Bold findfont 25.6831 sf 0 0 m (7.5 < E < 8.0 GeV) show NC gr  0.52 0.76 0.64 c black 0.52 0.76 0.64 c
 gsave  408 306 23 13 C 128.2 259.249 t 0 r /Helvetica-Bold findfont 25.6831 sf 0 0 m 
 220 206 192 185 170 163 148 141 126 118 111 97 83 69 61 47 40 25 18
(A = 0.004, p = 1.000) K NC gr  1 0.6 1 c black 1 0.6 1 c
 gsave  408 306 23 13 C 427.334 128.2 t 90 r /Helvetica-Bold findfont 28.5368 sf 0 0 m (/dof=0.5) show NC gr  black 1 0.6 1 c
 gsave  408 306 23 13 C 415.938 116.804 t 90 r /Helvetica-Bold findfont 19.9758 sf 0 0 m (2) show NC gr  black 1 0.6 1 c
 gsave  408 306 23 13 C 427.334 99.7112 t 90 r /Symbol findfont 28.5368 sf 0 0 m (c) show NC gr  black 3 lw 1 1 1 c 408 306 476 13 bf black 1 1 1 c black 307 229 537 59 bl 307 229 537 59 bl 537 59 m 307 X s 537 63 m -4 Y s 631 63 m -4 Y s 724 63 m -4
 Y s 818 63 m -4 Y s 818 63 m -4 Y s
 gsave  408 306 476 13 C 527.045 39.8845 t 0 r /Helvetica findfont 22.8295 sf 0 0 m (0) show NC gr 
 gsave  408 306 476 13 C 623.907 39.8845 t 0 r /Helvetica findfont 22.8295 sf 0 0 m (1) show NC gr 
 gsave  408 306 476 13 C 715.071 39.8845 t 0 r /Helvetica findfont 22.8295 sf 0 0 m (2) show NC gr 
 gsave  408 306 476 13 C 809.085 39.8845 t 0 r /Helvetica findfont 22.8295 sf 0 0 m (3) show NC gr  537 288 m 307 X s 537 284 m 4 Y s 631 284 m 4 Y s 724 284 m 4 Y s 818 284 m 4 Y s 818 284 m 4 Y s 537 59 m 229 Y s 543 98 m -6 X s 540 108 m -3 X s
 540 118 m -3 X s 540 128 m -3 X s 543 138 m -6 X s 540 148 m -3 X s 540 158 m -3 X s 540 168 m -3 X s 543 178 m -6 X s 540 188 m -3 X s 540 198 m -3 X s 540 208 m -3 X s 543 218 m -6 X s 540 228 m -3 X s 540 238 m -3 X s 540 248 m -3 X s 543 258 m
 -6 X s 543 98 m -6 X s 540 88 m -3 X s 540 79 m -3 X s 540 69 m -3 X s 543 258 m -6 X s 540 268 m -3 X s 540 277 m -3 X s 540 287 m -3 X s
 gsave  408 306 476 13 C 481.462 91.1645 t 0 r /Helvetica findfont 22.8295 sf 0 0 m (\2550.06) show NC gr 
 gsave  408 306 476 13 C 481.462 131.049 t 0 r /Helvetica findfont 22.8295 sf 0 0 m (\2550.04) show NC gr 
 gsave  408 306 476 13 C 481.462 170.933 t 0 r /Helvetica findfont 22.8295 sf 0 0 m (\2550.02) show NC gr 
 gsave  408 306 476 13 C 518.498 210.818 t 0 r /Helvetica findfont 22.8295 sf 0 0 m (0) show NC gr 
 gsave  408 306 476 13 C 487.16 250.702 t 0 r /Helvetica findfont 22.8295 sf 0 0 m (0.02) show NC gr  844 59 m 229 Y s 838 98 m 6 X s 841 108 m 3 X s 841 118 m 3 X s 841 128 m 3 X s 838 138 m 6 X s 841 148 m 3 X s 841 158 m 3 X s 841 168 m 3 X s 838
 178 m 6 X s 841 188 m 3 X s 841 198 m 3 X s 841 208 m 3 X s 838 218 m 6 X s 841 228 m 3 X s 841 238 m 3 X s 841 248 m 3 X s 838 258 m 6 X s 838 98 m 6 X s 841 88 m 3 X s 841 79 m 3 X s 841 69 m 3 X s 838 258 m 6 X s 841 268 m 3 X s 841 277 m 3 X s
 841 287 m 3 X s /w 23 def /w2 {w 2 div} def /w3 {w 3 div} def 584 222 631 118 724 206 818 228 4 { m21} R 584 233 m 29 Y s 578 262 m 12 X s 584 210 m -29 Y s 578 181 m 12 X s 631 129 m 28 Y s 625 157 m 12 X s 631 106 m -28 Y s 625 78 m 12 X s 724 218
 m 29 Y s 719 247 m 11 X s 724 195 m -29 Y s 719 166 m 11 X s 818 239 m 30 Y s 812 269 m 12 X s 818 217 m -30 Y s 812 187 m 12 X s 9 lw 0.95 0.95 0.95 c black 539 218 m 3 -1 d 12 X 3 -1 d 10 X 3 -1 d 12 X 3 -1 d 12 X 3 -1 d 9 X 3 -1 d 13 X 3 -1 d 9 X
 3 -1 d 12 X 3 -1 d 9 X 4 -1 d 12 X 3 -1 d 6 X s 689 207 m 3 X 3 -1 d 12 X 3 -1 d 10 X 3 -1 d 12 X 3 -1 d 9 X 3 -1 d 12 X 4 -1 d 9 X 3 -1 d 12 X 3 -1 d 9 X 3 -1 d 13 X 3 -1 d 12 X 3 -1 d 3 X s 839 196 m 3 X s 0.49 0.6 0.82 c black 0.49 0.6 0.82 c
 gsave  408 306 476 13 C 595.418 296.285 t 0 r /Helvetica-Bold findfont 25.6831 sf 0 0 m (8.0 < E < 8.5 GeV) show NC gr  0.52 0.76 0.64 c black 0.52 0.76 0.64 c
 gsave  408 306 476 13 C 575.476 259.249 t 0 r /Helvetica-Bold findfont 25.6831 sf 0 0 m 
 228 214 200 193 178 171 156 149 133 126 119 105 91 76 69 55 47 39 25 17
(A = \2550.003, p = 1.000) K NC gr  1 0.6 1 c black 1 0.6 1 c
 gsave  408 306 476 13 C 883.156 128.2 t 90 r /Helvetica-Bold findfont 28.5368 sf 0 0 m (/dof=2.0) show NC gr  black 1 0.6 1 c
 gsave  408 306 476 13 C 871.76 116.804 t 90 r /Helvetica-Bold findfont 19.9758 sf 0 0 m (2) show NC gr  black 1 0.6 1 c
 gsave  408 306 476 13 C 883.156 99.7112 t 90 r /Symbol findfont 28.5368 sf 0 0 m (c) show NC gr  black 3 lw 1 1 1 c 408 306 930 13 bf black 1 1 1 c black 306 229 991 59 bl 306 229 991 59 bl 991 59 m 306 X s 991 63 m -4 Y s 1084 63 m -4 Y s 1178 63 m
 -4 Y s 1271 63 m -4 Y s 1271 63 m -4 Y s
 gsave  408 306 930 13 C 980.018 39.8845 t 0 r /Helvetica findfont 22.8295 sf 0 0 m (0) show NC gr 
 gsave  408 306 930 13 C 1076.88 39.8845 t 0 r /Helvetica findfont 22.8295 sf 0 0 m (1) show NC gr 
 gsave  408 306 930 13 C 1168.04 39.8845 t 0 r /Helvetica findfont 22.8295 sf 0 0 m (2) show NC gr 
 gsave  408 306 930 13 C 1262.06 39.8845 t 0 r /Helvetica findfont 22.8295 sf 0 0 m (3) show NC gr  991 288 m 306 X s 991 284 m 4 Y s 1084 284 m 4 Y s 1178 284 m 4 Y s 1271 284 m 4 Y s 1271 284 m 4 Y s 991 59 m 229 Y s 997 62 m -6 X s 994 67 m -3 X s
 994 72 m -3 X s 994 78 m -3 X s 994 83 m -3 X s 997 89 m -6 X s 994 94 m -3 X s 994 99 m -3 X s 994 105 m -3 X s 994 110 m -3 X s 997 115 m -6 X s 994 121 m -3 X s 994 126 m -3 X s 994 132 m -3 X s 994 137 m -3 X s 997 142 m -6 X s 994 148 m -3 X s
 994 153 m -3 X s 994 159 m -3 X s 994 164 m -3 X s 997 169 m -6 X s 994 175 m -3 X s 994 180 m -3 X s 994 186 m -3 X s 994 191 m -3 X s 997 196 m -6 X s 994 202 m -3 X s 994 207 m -3 X s 994 212 m -3 X s 994 218 m -3 X s 997 223 m -6 X s 994 229 m
 -3 X s 994 234 m -3 X s 994 239 m -3 X s 994 245 m -3 X s 997 250 m -6 X s 994 256 m -3 X s 994 261 m -3 X s 994 266 m -3 X s 994 272 m -3 X s 997 277 m -6 X s 997 62 m -6 X s 997 277 m -6 X s 994 283 m -3 X s 994 288 m -3 X s
 gsave  408 306 930 13 C 937.285 54.1289 t 0 r /Helvetica findfont 22.8295 sf 0 0 m (\2550.03) show NC gr 
 gsave  408 306 930 13 C 937.285 82.6178 t 0 r /Helvetica findfont 22.8295 sf 0 0 m (\2550.02) show NC gr 
 gsave  408 306 930 13 C 940.134 108.258 t 0 r /Helvetica findfont 22.8295 sf 0 0 m (\2550.01) show NC gr 
 gsave  408 306 930 13 C 974.32 133.898 t 0 r /Helvetica findfont 22.8295 sf 0 0 m (0) show NC gr 
 gsave  408 306 930 13 C 945.832 162.387 t 0 r /Helvetica findfont 22.8295 sf 0 0 m (0.01) show NC gr 
 gsave  408 306 930 13 C 942.983 188.027 t 0 r /Helvetica findfont 22.8295 sf 0 0 m (0.02) show NC gr 
 gsave  408 306 930 13 C 942.983 216.516 t 0 r /Helvetica findfont 22.8295 sf 0 0 m (0.03) show NC gr 
 gsave  408 306 930 13 C 942.983 242.156 t 0 r /Helvetica findfont 22.8295 sf 0 0 m (0.04) show NC gr 
 gsave  408 306 930 13 C 942.983 270.645 t 0 r /Helvetica findfont 22.8295 sf 0 0 m (0.05) show NC gr  1297 59 m 229 Y s 1292 62 m 5 X s 1294 67 m 3 X s 1294 72 m 3 X s 1294 78 m 3 X s 1294 83 m 3 X s 1292 89 m 5 X s 1294 94 m 3 X s 1294 99 m 3 X s
 1294 105 m 3 X s 1294 110 m 3 X s 1292 115 m 5 X s 1294 121 m 3 X s 1294 126 m 3 X s 1294 132 m 3 X s 1294 137 m 3 X s 1292 142 m 5 X s 1294 148 m 3 X s 1294 153 m 3 X s 1294 159 m 3 X s 1294 164 m 3 X s 1292 169 m 5 X s 1294 175 m 3 X s 1294 180 m
 3 X s 1294 186 m 3 X s 1294 191 m 3 X s 1292 196 m 5 X s 1294 202 m 3 X s 1294 207 m 3 X s 1294 212 m 3 X s 1294 218 m 3 X s 1292 223 m 5 X s 1294 229 m 3 X s 1294 234 m 3 X s 1294 239 m 3 X s 1294 245 m 3 X s 1292 250 m 5 X s 1294 256 m 3 X s 1294
 261 m 3 X s 1294 266 m 3 X s 1294 272 m 3 X s 1292 277 m 5 X s 1292 62 m 5 X s 1292 277 m 5 X s 1294 283 m 3 X s 1294 288 m 3 X s 1038 137 1084 208 1178 142 1271 146 4 { m21} R 1038 148 m 48 Y s 1032 196 m 11 X s 1038 126 m -48 Y s 1032 78 m 11 X s
 1084 219 m 50 Y s 1079 269 m 11 X s 1084 197 m -50 Y s 1079 147 m 11 X s 1178 153 m 48 Y s 1172 201 m 12 X s 1178 131 m -48 Y s 1172 83 m 12 X s 1271 158 m 47 Y s 1266 205 m 11 X s 1271 135 m -48 Y s 1266 87 m 11 X s 9 lw 0.95 0.95 0.95 c black 993
 142 m 3 1 d 15 X 3 1 d 15 X 3 1 d 16 X 3 1 d 18 X 3 1 d 15 X 3 1 d 16 X 3 1 d 18 X 3 1 d 13 X s 1143 150 m 3 X 3 1 d 15 X 3 1 d 15 X 3 1 d 19 X 3 1 d 15 X 3 1 d 15 X 4 1 d 18 X 3 1 d 15 X 3 1 d 10 X s 1293 158 m 3 X s 0.49 0.6 0.82 c black 0.49 0.6
 0.82 c
 gsave  408 306 930 13 C 1051.24 296.285 t 0 r /Helvetica-Bold findfont 25.6831 sf 0 0 m (8.5 < E < 9.0 GeV) show NC gr  0.52 0.76 0.64 c black 0.52 0.76 0.64 c
 gsave  408 306 930 13 C 1037 259.249 t 0 r /Helvetica-Bold findfont 25.6831 sf 0 0 m 
 220 206 192 185 170 163 148 141 125 118 111 97 83 69 61 47 40 25 18
(A = 0.002, p = 1.000) K NC gr  1 0.6 1 c black 1 0.6 1 c
 gsave  408 306 930 13 C 1336.13 128.2 t 90 r /Helvetica-Bold findfont 28.5368 sf 0 0 m (/dof=0.4) show NC gr  black 1 0.6 1 c
 gsave  408 306 930 13 C 1324.73 116.804 t 90 r /Helvetica-Bold findfont 19.9758 sf 0 0 m (2) show NC gr  black 1 0.6 1 c
 gsave  408 306 930 13 C 1336.13 99.7112 t 90 r /Symbol findfont 28.5368 sf 0 0 m (c) show NC gr  black 3 lw 1 1 1 c 408 306 1383 13 bf black 1 1 1 c black 306 229 1445 59 bl 306 229 1445 59 bl 1445 59 m 306 X s 1445 63 m -4 Y s 1538 63 m -4 Y s 1631
 63 m -4 Y s 1725 63 m -4 Y s 1725 63 m -4 Y s
 gsave  408 306 1383 13 C 1435.84 39.8845 t 0 r /Helvetica findfont 22.8295 sf 0 0 m (0) show NC gr 
 gsave  408 306 1383 13 C 1529.85 39.8845 t 0 r /Helvetica findfont 22.8295 sf 0 0 m (1) show NC gr 
 gsave  408 306 1383 13 C 1621.02 39.8845 t 0 r /Helvetica findfont 22.8295 sf 0 0 m (2) show NC gr 
 gsave  408 306 1383 13 C 1715.03 39.8845 t 0 r /Helvetica findfont 22.8295 sf 0 0 m (3) show NC gr  1445 288 m 306 X s 1445 284 m 4 Y s 1538 284 m 4 Y s 1631 284 m 4 Y s 1725 284 m 4 Y s 1725 284 m 4 Y s 1445 59 m 229 Y s 1450 68 m -5 X s 1447 75 m
 -2 X s 1447 81 m -2 X s 1447 87 m -2 X s 1447 93 m -2 X s 1450 100 m -5 X s 1447 106 m -2 X s 1447 112 m -2 X s 1447 118 m -2 X s 1447 125 m -2 X s 1450 131 m -5 X s 1447 137 m -2 X s 1447 143 m -2 X s 1447 150 m -2 X s 1447 156 m -2 X s 1450 162 m
 -5 X s 1447 168 m -2 X s 1447 175 m -2 X s 1447 181 m -2 X s 1447 187 m -2 X s 1450 193 m -5 X s 1447 200 m -2 X s 1447 206 m -2 X s 1447 212 m -2 X s 1447 218 m -2 X s 1450 225 m -5 X s 1447 231 m -2 X s 1447 237 m -2 X s 1447 243 m -2 X s 1447 250
 m -2 X s 1450 256 m -5 X s 1447 262 m -2 X s 1447 268 m -2 X s 1447 275 m -2 X s 1447 281 m -2 X s 1450 287 m -5 X s 1450 68 m -5 X s 1447 62 m -2 X s 1450 287 m -5 X s
 gsave  408 306 1383 13 C 1393.11 62.6756 t 0 r /Helvetica findfont 22.8295 sf 0 0 m (\2550.01) show NC gr 
 gsave  408 306 1383 13 C 1427.29 91.1645 t 0 r /Helvetica findfont 22.8295 sf 0 0 m (0) show NC gr 
 gsave  408 306 1383 13 C 1398.81 122.502 t 0 r /Helvetica findfont 22.8295 sf 0 0 m (0.01) show NC gr 
 gsave  408 306 1383 13 C 1395.96 153.84 t 0 r /Helvetica findfont 22.8295 sf 0 0 m (0.02) show NC gr 
 gsave  408 306 1383 13 C 1395.96 185.178 t 0 r /Helvetica findfont 22.8295 sf 0 0 m (0.03) show NC gr 
 gsave  408 306 1383 13 C 1395.96 216.516 t 0 r /Helvetica findfont 22.8295 sf 0 0 m (0.04) show NC gr 
 gsave  408 306 1383 13 C 1395.96 247.853 t 0 r /Helvetica findfont 22.8295 sf 0 0 m (0.05) show NC gr 
 gsave  408 306 1383 13 C 1395.96 279.191 t 0 r /Helvetica findfont 22.8295 sf 0 0 m (0.06) show NC gr  1751 59 m 229 Y s 1745 68 m 6 X s 1748 75 m 3 X s 1748 81 m 3 X s 1748 87 m 3 X s 1748 93 m 3 X s 1745 100 m 6 X s 1748 106 m 3 X s 1748 112 m 3 X
 s 1748 118 m 3 X s 1748 125 m 3 X s 1745 131 m 6 X s 1748 137 m 3 X s 1748 143 m 3 X s 1748 150 m 3 X s 1748 156 m 3 X s 1745 162 m 6 X s 1748 168 m 3 X s 1748 175 m 3 X s 1748 181 m 3 X s 1748 187 m 3 X s 1745 193 m 6 X s 1748 200 m 3 X s 1748 206
 m 3 X s 1748 212 m 3 X s 1748 218 m 3 X s 1745 225 m 6 X s 1748 231 m 3 X s 1748 237 m 3 X s 1748 243 m 3 X s 1748 250 m 3 X s 1745 256 m 6 X s 1748 262 m 3 X s 1748 268 m 3 X s 1748 275 m 3 X s 1748 281 m 3 X s 1745 287 m 6 X s 1745 68 m 6 X s 1748
 62 m 3 X s 1745 287 m 6 X s 1491 161 1538 151 1631 195 1725 160 4 { m21} R 1491 173 m 63 Y s 1486 236 m 11 X s 1491 150 m -63 Y s 1486 87 m 11 X s 1538 162 m 61 Y s 1532 223 m 12 X s 1538 139 m -61 Y s 1532 78 m 12 X s 1631 206 m 63 Y s 1626 269 m
 11 X s 1631 183 m -63 Y s 1626 120 m 11 X s 1725 171 m 62 Y s 1719 233 m 12 X s 1725 148 m -62 Y s 1719 86 m 12 X s 9 lw 0.95 0.95 0.95 c black 1446 100 m 3 1 d 3 1 d 3 1 d 3 1 d 3 1 d 3 1 d 3 1 d 4 1 d 3 2 d 3 1 d 3 1 d 3 1 d 3 1 d 3 1 d 3 1 d 3 1
 d 3 1 d 3 1 d 3 1 d 3 1 d 3 1 d 3 1 d 3 1 d 4 1 d 3 1 d 3 1 d 3 1 d 3 1 d 3 1 d 3 1 d 3 1 d 3 1 d 3 1 d 3 1 d 3 1 d 3 2 d 3 1 d 3 1 d 3 1 d 4 1 d 3 1 d 3 1 d 3 1 d 3 1 d 3 1 d 3 1 d 3 1 d 3 1 d 3 1 d s 1596 151 m 3 1 d 3 1 d 3 1 d 3 1 d 3 1 d 3 1 d
 4 1 d 3 1 d 3 1 d 3 1 d 3 1 d 3 1 d 3 2 d 3 1 d 3 1 d 3 1 d 3 1 d 3 1 d 3 1 d 3 1 d 3 1 d 3 1 d 3 1 d 4 1 d 3 1 d 3 1 d 3 1 d 3 1 d 3 1 d 3 1 d 3 1 d 3 1 d 3 1 d 3 1 d 3 1 d 3 1 d 3 1 d 3 1 d 3 2 d 4 1 d 3 1 d 3 1 d 3 1 d 3 1 d 3 1 d 3 1 d 3 1 d 3 1
 d 3 1 d s 1746 202 m 3 1 d s 0.49 0.6 0.82 c black 0.49 0.6 0.82 c
 gsave  408 306 1383 13 C 1504.21 296.285 t 0 r /Helvetica-Bold findfont 25.6831 sf 0 0 m (9.0 < E < 9.5 GeV) show NC gr  0.52 0.76 0.64 c black 0.52 0.76 0.64 c
 gsave  408 306 1383 13 C 1489.97 259.249 t 0 r /Helvetica-Bold findfont 25.6831 sf 0 0 m 
 220 206 192 185 170 163 148 141 126 118 111 97 83 69 61 47 40 25 18
(A = 0.010, p = 1.000) K NC gr  1 0.6 1 c black 1 0.6 1 c
 gsave  408 306 1383 13 C 1789.1 128.2 t 90 r /Helvetica-Bold findfont 28.5368 sf 0 0 m (/dof=0.3) show NC gr  black 1 0.6 1 c
 gsave  408 306 1383 13 C 1777.71 116.804 t 90 r /Helvetica-Bold findfont 19.9758 sf 0 0 m (2) show NC gr  black 1 0.6 1 c
 gsave  408 306 1383 13 C 1789.1 99.7112 t 90 r /Symbol findfont 28.5368 sf 0 0 m (c) show NC gr  black 3 lw 1 1 1 c 408 306 1837 13 bf black 1 1 1 c black 306 229 1898 59 bl 306 229 1898 59 bl 1898 59 m 306 X s 1898 63 m -4 Y s 1992 63 m -4 Y s 2085
 63 m -4 Y s 2179 63 m -4 Y s 2179 63 m -4 Y s
 gsave  408 306 1837 13 C 1888.81 39.8845 t 0 r /Helvetica findfont 22.8295 sf 0 0 m (0) show NC gr 
 gsave  408 306 1837 13 C 1985.68 39.8845 t 0 r /Helvetica findfont 22.8295 sf 0 0 m (1) show NC gr 
 gsave  408 306 1837 13 C 2073.99 39.8845 t 0 r /Helvetica findfont 22.8295 sf 0 0 m (2) show NC gr 
 gsave  408 306 1837 13 C 2168.01 39.8845 t 0 r /Helvetica findfont 22.8295 sf 0 0 m (3) show NC gr  1898 288 m 306 X s 1898 284 m 4 Y s 1992 284 m 4 Y s 2085 284 m 4 Y s 2179 284 m 4 Y s 2179 284 m 4 Y s 1898 59 m 229 Y s 1904 71 m -6 X s 1901 80 m
 -3 X s 1901 90 m -3 X s 1901 99 m -3 X s 1904 108 m -6 X s 1901 117 m -3 X s 1901 126 m -3 X s 1901 135 m -3 X s 1904 144 m -6 X s 1901 153 m -3 X s 1901 162 m -3 X s 1901 171 m -3 X s 1904 180 m -6 X s 1901 189 m -3 X s 1901 198 m -3 X s 1901 207 m
 -3 X s 1904 216 m -6 X s 1901 225 m -3 X s 1901 234 m -3 X s 1901 243 m -3 X s 1904 253 m -6 X s 1904 71 m -6 X s 1901 62 m -3 X s 1904 253 m -6 X s 1901 262 m -3 X s 1901 271 m -3 X s 1901 280 m -3 X s
 gsave  408 306 1837 13 C 1843.23 65.5245 t 0 r /Helvetica findfont 22.8295 sf 0 0 m (\2550.04) show NC gr 
 gsave  408 306 1837 13 C 1843.23 99.7112 t 0 r /Helvetica findfont 22.8295 sf 0 0 m (\2550.02) show NC gr 
 gsave  408 306 1837 13 C 1880.27 136.747 t 0 r /Helvetica findfont 22.8295 sf 0 0 m (0) show NC gr 
 gsave  408 306 1837 13 C 1848.93 173.782 t 0 r /Helvetica findfont 22.8295 sf 0 0 m (0.02) show NC gr 
 gsave  408 306 1837 13 C 1848.93 207.969 t 0 r /Helvetica findfont 22.8295 sf 0 0 m (0.04) show NC gr 
 gsave  408 306 1837 13 C 1848.93 245.005 t 0 r /Helvetica findfont 22.8295 sf 0 0 m (0.06) show NC gr  2204 59 m 229 Y s 2199 71 m 5 X s 2201 80 m 3 X s 2201 90 m 3 X s 2201 99 m 3 X s 2199 108 m 5 X s 2201 117 m 3 X s 2201 126 m 3 X s 2201 135 m 3
 X s 2199 144 m 5 X s 2201 153 m 3 X s 2201 162 m 3 X s 2201 171 m 3 X s 2199 180 m 5 X s 2201 189 m 3 X s 2201 198 m 3 X s 2201 207 m 3 X s 2199 216 m 5 X s 2201 225 m 3 X s 2201 234 m 3 X s 2201 243 m 3 X s 2199 253 m 5 X s 2199 71 m 5 X s 2201 62
 m 3 X s 2199 253 m 5 X s 2201 262 m 3 X s 2201 271 m 3 X s 2201 280 m 3 X s 1945 122 1992 223 2085 177 2179 182 4 { m21} R 1945 133 m 32 Y s 1939 165 m 12 X s 1945 110 m -32 Y s 1939 78 m 12 X s 1992 235 m 34 Y s 1986 269 m 11 X s 1992 212 m -35 Y s
 1986 177 m 11 X s 2085 189 m 32 Y s 2079 221 m 12 X s 2085 166 m -33 Y s 2079 133 m 12 X s 2179 194 m 33 Y s 2173 227 m 11 X s 2179 171 m -34 Y s 2173 137 m 11 X s 9 lw 0.95 0.95 0.95 c black 1900 144 m 3 1 d 3 X 3 1 d 3 X 3 1 d 3 1 d 3 X 3 1 d 3 X
 3 1 d 3 X 3 1 d 3 X 3 1 d 4 1 d 3 X 3 1 d 3 X 3 1 d 3 X 3 1 d 3 1 d 3 X 3 1 d 3 X 3 1 d 3 X 3 1 d 3 1 d 3 X 4 1 d 3 X 3 1 d 3 X 3 1 d 3 X 3 1 d 3 1 d 3 X 3 1 d 3 X 3 1 d 3 X 3 1 d 3 1 d 3 X 3 1 d 4 X 3 1 d s 2050 172 m 3 X 3 1 d 3 1 d 3 X 3 1 d 3 X
 3 1 d 3 X 3 1 d 3 X 3 1 d 3 1 d 3 X 3 1 d 4 X 3 1 d 3 X 3 1 d 3 1 d 3 X 3 1 d 3 X 3 1 d 3 X 3 1 d 3 1 d 3 X 3 1 d 3 X 3 1 d 4 X 3 1 d 3 X 3 1 d 3 1 d 3 X 3 1 d 3 X 3 1 d 3 X 3 1 d 3 1 d 3 X 3 1 d 3 X 3 1 d 4 X 3 1 d 3 1 d s 2200 200 m 3 X s 0.49 0.6
 0.82 c black 0.49 0.6 0.82 c
 gsave  408 306 1837 13 C 1948.64 296.285 t 0 r /Helvetica-Bold findfont 25.6831 sf 0 0 m (9.5 < E < 10.0 GeV) show NC gr  0.52 0.76 0.64 c black 0.52 0.76 0.64 c
 gsave  408 306 1837 13 C 1942.94 259.249 t 0 r /Helvetica-Bold findfont 25.6831 sf 0 0 m 
 220 206 192 185 170 163 148 141 125 118 111 97 83 69 61 47 40 25 18
(A = 0.010, p = 1.000) K NC gr  1 0.6 1 c black 1 0.6 1 c
 gsave  408 306 1837 13 C 2242.08 128.2 t 90 r /Helvetica-Bold findfont 28.5368 sf 0 0 m (/dof=0.8) show NC gr  black 1 0.6 1 c
 gsave  408 306 1837 13 C 2230.68 116.804 t 90 r /Helvetica-Bold findfont 19.9758 sf 0 0 m (2) show NC gr  black 1 0.6 1 c
 gsave  408 306 1837 13 C 2242.08 99.7112 t 90 r /Symbol findfont 28.5368 sf 0 0 m (c) show NC gr 
 gr  gr showpage
end
%%EOF
