%!PS-Adobe-2.0 EPSF-2.0
%%BoundingBox:  0 0 567 332
%%Title: TargetYTilt_near_summary.eps: Summary
%%Creator: ROOT Version 5.30/06
%%CreationDate: Sun Feb  2 09:40:53 2014
%%EndComments
%%BeginProlog
80 dict begin
/s {stroke} def /l {lineto} def /m {moveto} def /t {translate} def
/r {rotate} def /rl {roll}  def /R {repeat} def
/d {rlineto} def /rm {rmoveto} def /gr {grestore} def /f {eofill} def
/c {setrgbcolor} def /black {0 setgray} def /sd {setdash} def
/cl {closepath} def /sf {scalefont setfont} def /lw {setlinewidth} def
/box {m dup 0 exch d exch 0 d 0 exch neg d cl} def
/NC{systemdict begin initclip end}def/C{NC box clip newpath}def
/bl {box s} def /bf {box f} def /Y { 0 exch d} def /X { 0 d} def 
/K {{pop pop 0 moveto} exch kshow} bind def
/ita {/ang 15 def gsave [1 0 ang dup sin exch cos div 1 0 0] concat} def 
/mp {newpath /y exch def /x exch def} def
/side {[w .77 mul w .23 mul] .385 w mul sd w 0 l currentpoint t -144 r} def
/mr {mp x y w2 0 360 arc} def /m24 {mr s} def /m20 {mr f} def
/mb {mp x y w2 add m w2 neg 0 d 0 w neg d w 0 d 0 w d cl} def
/mt {mp x y w2 add m w2 neg w neg d w 0 d cl} def
/m21 {mb f} def /m25 {mb s} def /m22 {mt f} def /m26{mt s} def
/m23 {mp x y w2 sub m w2 w d w neg 0 d cl f} def
/m27 {mp x y w2 add m w3 neg w2 neg d w3 w2 neg d w3 w2 d cl s} def
/m28 {mp x w2 sub y w2 sub w3 add m w3 0 d  0 w3 neg d w3 0 d 0 w3 d w3 0 d  0 w3 d w3 neg 0 d 0 w3 d w3 neg 0 d 0 w3 neg d w3 neg 0 d cl s } def
/m29 {mp gsave x w2 sub y w2 add w3 sub m currentpoint t 4 {side} repeat cl fill gr} def
/m30 {mp gsave x w2 sub y w2 add w3 sub m currentpoint t 4 {side} repeat cl s gr} def
/m31 {mp x y w2 sub m 0 w d x w2 sub y m w 0 d x w2 sub y w2 add m w w neg d x w2 sub y w2 sub m w w d s} def
/m32 {mp x y w2 sub m w2 w d w neg 0 d cl s} def
/m33 {mp x y w2 add m w3 neg w2 neg d w3 w2 neg d w3 w2 d cl f} def
/m34 {mp x w2 sub y w2 sub w3 add m w3 0 d  0 w3 neg d w3 0 d 0 w3 d w3 0 d  0 w3 d w3 neg 0 d 0 w3 d w3 neg 0 d 0 w3 neg d w3 neg 0 d cl f } def
/m2 {mp x y w2 sub m 0 w d x w2 sub y m w 0 d s} def
/m5 {mp x w2 sub y w2 sub m w w d x w2 sub y w2 add m w w neg d s} def
/reEncode {exch findfont dup length dict begin {1 index /FID eq  {pop pop} {def} ifelse } forall /Encoding exch def currentdict end dup /FontName get exch definefont pop } def [/Times-Bold /Times-Italic /Times-BoldItalic /Helvetica /Helvetica-Oblique
 /Helvetica-Bold /Helvetica-BoldOblique /Courier /Courier-Oblique /Courier-Bold /Courier-BoldOblique /Times-Roman /AvantGarde-Book /AvantGarde-BookOblique /AvantGarde-Demi /AvantGarde-DemiOblique /Bookman-Demi /Bookman-DemiItalic /Bookman-Light
 /Bookman-LightItalic /Helvetica-Narrow /Helvetica-Narrow-Bold /Helvetica-Narrow-BoldOblique /Helvetica-Narrow-Oblique /NewCenturySchlbk-Roman /NewCenturySchlbk-Bold /NewCenturySchlbk-BoldItalic /NewCenturySchlbk-Italic /Palatino-Bold
 /Palatino-BoldItalic /Palatino-Italic /Palatino-Roman ] {ISOLatin1Encoding reEncode } forall%%EndProlog
%%BeginSetup
%%EndSetup
newpath  gsave  .25 .25 scale  gsave  0 0 t black[  ] 0 sd 3 lw 1 1 1 c 2268 1328 0 0 bf black 1 1 1 c black 1588 996 340 199 bl 1588 996 340 199 bl 1 1 1 c 1 0 0 c /w 23 def /w2 {w 2 div} def /w3 {w 3 div} def 380 305 m21 459 313 m21 539 302 m21 618
 299 m21 697 315 m21 777 306 m21 856 307 m21 935 300 m21 black 1015 277 m 1 Y s 1015 301 m s 1009 277 m 12 X s 1009 301 m 12 X s 1 0 0 c 1015 289 m21 black 1094 322 m 5 Y s 1094 350 m 5 Y s 1088 322 m 12 X s 1088 355 m 12 X s 1 0 0 c 1094 339 m21
 black 1174 300 m 11 Y s 1174 334 m 10 Y s 1168 300 m 11 X s 1168 344 m 11 X s 1 0 0 c 1174 322 m21 black 1253 269 m 16 Y s 1253 307 m 16 Y s 1247 269 m 12 X s 1247 323 m 12 X s 1 0 0 c 1253 296 m21 black 1332 242 m 20 Y s 1332 285 m 20 Y s 1327 242
 m 11 X s 1327 305 m 11 X s 1 0 0 c 1332 274 m21 black 1412 275 m 25 Y s 1412 323 m 24 Y s 1406 275 m 11 X s 1406 347 m 11 X s 1 0 0 c 1412 311 m21 black 1491 292 m 28 Y s 1491 343 m 29 Y s 1485 292 m 12 X s 1485 372 m 12 X s 1 0 0 c 1491 332 m21
 black 1570 237 m 31 Y s 1570 291 m 31 Y s 1565 237 m 11 X s 1565 322 m 11 X s 1 0 0 c 1570 280 m21 black 1650 269 m 34 Y s 1650 325 m 34 Y s 1644 269 m 11 X s 1644 359 m 11 X s 1 0 0 c 1650 314 m21 black 1729 257 m 37 Y s 1729 317 m 37 Y s 1723 257
 m 12 X s 1723 354 m 12 X s 1 0 0 c 1729 305 m21 black 1809 301 m 41 Y s 1809 365 m 41 Y s 1803 301 m 11 X s 1803 406 m 11 X s 1 0 0 c 1809 354 m21 black 1888 229 m 42 Y s 1888 294 m 42 Y s 1882 229 m 12 X s 1882 336 m 12 X s 1 0 0 c 1888 283 m21
 black 340 199 m 1588 X s
 gsave  2268 1328 0 0 C 954.378 68.3734 t 0 r /Helvetica findfont 62.6756 sf 0 0 m ( Energy \(GeV\) ) show NC gr 
 gsave  2268 1328 0 0 C 928.738 51.28 t 0 r /Symbol findfont 42.7334 sf 0 0 m (m) show NC gr 
 gsave  2268 1328 0 0 C 894.552 68.3734 t 0 r /Symbol findfont 62.6756 sf 0 0 m (n) show NC gr  340 216 m -17 Y s 372 208 m -9 Y s 404 208 m -9 Y s 435 208 m -9 Y s 467 208 m -9 Y s 499 216 m -17 Y s 531 208 m -9 Y s 562 208 m -9 Y s 594 208 m -9 Y s
 626 208 m -9 Y s 658 216 m -17 Y s 689 208 m -9 Y s 721 208 m -9 Y s 753 208 m -9 Y s 785 208 m -9 Y s 816 216 m -17 Y s 848 208 m -9 Y s 880 208 m -9 Y s 912 208 m -9 Y s 943 208 m -9 Y s 975 216 m -17 Y s 1007 208 m -9 Y s 1039 208 m -9 Y s 1070
 208 m -9 Y s 1102 208 m -9 Y s 1134 216 m -17 Y s 1166 208 m -9 Y s 1197 208 m -9 Y s 1229 208 m -9 Y s 1261 208 m -9 Y s 1293 216 m -17 Y s 1324 208 m -9 Y s 1356 208 m -9 Y s 1388 208 m -9 Y s 1420 208 m -9 Y s 1451 216 m -17 Y s 1483 208 m -9 Y s
 1515 208 m -9 Y s 1547 208 m -9 Y s 1578 208 m -9 Y s 1610 216 m -17 Y s 1642 208 m -9 Y s 1674 208 m -9 Y s 1705 208 m -9 Y s 1737 208 m -9 Y s 1769 216 m -17 Y s 1801 208 m -9 Y s 1832 208 m -9 Y s 1864 208 m -9 Y s 1896 208 m -9 Y s 1928 216 m
 -17 Y s
 gsave  2268 1328 0 0 C 319.076 136.747 t 0 r /Helvetica findfont 68.3734 sf 0 0 m (0) show NC gr 
 gsave  2268 1328 0 0 C 484.311 136.747 t 0 r /Helvetica findfont 68.3734 sf 0 0 m (1) show NC gr 
 gsave  2268 1328 0 0 C 635.302 136.747 t 0 r /Helvetica findfont 68.3734 sf 0 0 m (2) show NC gr 
 gsave  2268 1328 0 0 C 794.84 136.747 t 0 r /Helvetica findfont 68.3734 sf 0 0 m (3) show NC gr 
 gsave  2268 1328 0 0 C 954.378 136.747 t 0 r /Helvetica findfont 68.3734 sf 0 0 m (4) show NC gr 
 gsave  2268 1328 0 0 C 1113.92 136.747 t 0 r /Helvetica findfont 68.3734 sf 0 0 m (5) show NC gr 
 gsave  2268 1328 0 0 C 1270.6 136.747 t 0 r /Helvetica findfont 68.3734 sf 0 0 m (6) show NC gr 
 gsave  2268 1328 0 0 C 1430.14 136.747 t 0 r /Helvetica findfont 68.3734 sf 0 0 m (7) show NC gr 
 gsave  2268 1328 0 0 C 1589.68 136.747 t 0 r /Helvetica findfont 68.3734 sf 0 0 m (8) show NC gr 
 gsave  2268 1328 0 0 C 1746.37 136.747 t 0 r /Helvetica findfont 68.3734 sf 0 0 m (9) show NC gr 
 gsave  2268 1328 0 0 C 1888.81 136.747 t 0 r /Helvetica findfont 68.3734 sf 0 0 m (10) show NC gr  340 1195 m 1588 X s 340 1178 m 17 Y s 372 1186 m 9 Y s 404 1186 m 9 Y s 435 1186 m 9 Y s 467 1186 m 9 Y s 499 1178 m 17 Y s 531 1186 m 9 Y s 562 1186
 m 9 Y s 594 1186 m 9 Y s 626 1186 m 9 Y s 658 1178 m 17 Y s 689 1186 m 9 Y s 721 1186 m 9 Y s 753 1186 m 9 Y s 785 1186 m 9 Y s 816 1178 m 17 Y s 848 1186 m 9 Y s 880 1186 m 9 Y s 912 1186 m 9 Y s 943 1186 m 9 Y s 975 1178 m 17 Y s 1007 1186 m 9 Y s
 1039 1186 m 9 Y s 1070 1186 m 9 Y s 1102 1186 m 9 Y s 1134 1178 m 17 Y s 1166 1186 m 9 Y s 1197 1186 m 9 Y s 1229 1186 m 9 Y s 1261 1186 m 9 Y s 1293 1178 m 17 Y s 1324 1186 m 9 Y s 1356 1186 m 9 Y s 1388 1186 m 9 Y s 1420 1186 m 9 Y s 1451 1178 m
 17 Y s 1483 1186 m 9 Y s 1515 1186 m 9 Y s 1547 1186 m 9 Y s 1578 1186 m 9 Y s 1610 1178 m 17 Y s 1642 1186 m 9 Y s 1674 1186 m 9 Y s 1705 1186 m 9 Y s 1737 1186 m 9 Y s 1769 1178 m 17 Y s 1801 1186 m 9 Y s 1832 1186 m 9 Y s 1864 1186 m 9 Y s 1896
 1186 m 9 Y s 1928 1178 m 17 Y s 340 199 m 996 Y s
 gsave  2268 1328 0 0 C 170.933 324.773 t 90 r /Helvetica findfont 62.6756 sf 0 0 m (Near Flux Ratio to Nominal) show NC gr  371 199 m -31 X s 355 221 m -15 X s 355 243 m -15 X s 355 266 m -15 X s 355 288 m -15 X s 371 310 m -31 X s 355 332 m -15 X s
 355 354 m -15 X s 355 376 m -15 X s 355 398 m -15 X s 371 420 m -31 X s 355 443 m -15 X s 355 465 m -15 X s 355 487 m -15 X s 355 509 m -15 X s 371 531 m -31 X s 355 553 m -15 X s 355 575 m -15 X s 355 597 m -15 X s 355 620 m -15 X s 371 642 m -31 X
 s 355 664 m -15 X s 355 686 m -15 X s 355 708 m -15 X s 355 730 m -15 X s 371 752 m -31 X s 355 774 m -15 X s 355 797 m -15 X s 355 819 m -15 X s 355 841 m -15 X s 371 863 m -31 X s 355 885 m -15 X s 355 907 m -15 X s 355 929 m -15 X s 355 951 m -15
 X s 371 974 m -31 X s 355 996 m -15 X s 355 1018 m -15 X s 355 1040 m -15 X s 355 1062 m -15 X s 371 1084 m -31 X s 355 1106 m -15 X s 355 1128 m -15 X s 355 1151 m -15 X s 355 1173 m -15 X s 371 1195 m -31 X s 371 199 m -31 X s 371 1195 m -31 X s
 gsave  2268 1328 0 0 C 196.573 173.782 t 0 r /Helvetica findfont 68.3734 sf 0 0 m (0.95) show NC gr 
 gsave  2268 1328 0 0 C 301.982 282.04 t 0 r /Helvetica findfont 68.3734 sf 0 0 m (1) show NC gr 
 gsave  2268 1328 0 0 C 196.573 395.996 t 0 r /Helvetica findfont 68.3734 sf 0 0 m (1.05) show NC gr 
 gsave  2268 1328 0 0 C 245.005 504.254 t 0 r /Helvetica findfont 68.3734 sf 0 0 m (1.1) show NC gr 
 gsave  2268 1328 0 0 C 196.573 618.209 t 0 r /Helvetica findfont 68.3734 sf 0 0 m (1.15) show NC gr 
 gsave  2268 1328 0 0 C 233.609 726.467 t 0 r /Helvetica findfont 68.3734 sf 0 0 m (1.2) show NC gr 
 gsave  2268 1328 0 0 C 196.573 837.574 t 0 r /Helvetica findfont 68.3734 sf 0 0 m (1.25) show NC gr 
 gsave  2268 1328 0 0 C 233.609 948.68 t 0 r /Helvetica findfont 68.3734 sf 0 0 m (1.3) show NC gr 
 gsave  2268 1328 0 0 C 196.573 1059.79 t 0 r /Helvetica findfont 68.3734 sf 0 0 m (1.35) show NC gr 
 gsave  2268 1328 0 0 C 233.609 1168.04 t 0 r /Helvetica findfont 68.3734 sf 0 0 m (1.4) show NC gr  1928 199 m 996 Y s 1897 199 m 31 X s 1912 221 m 16 X s 1912 243 m 16 X s 1912 266 m 16 X s 1912 288 m 16 X s 1897 310 m 31 X s 1912 332 m 16 X s 1912
 354 m 16 X s 1912 376 m 16 X s 1912 398 m 16 X s 1897 420 m 31 X s 1912 443 m 16 X s 1912 465 m 16 X s 1912 487 m 16 X s 1912 509 m 16 X s 1897 531 m 31 X s 1912 553 m 16 X s 1912 575 m 16 X s 1912 597 m 16 X s 1912 620 m 16 X s 1897 642 m 31 X s
 1912 664 m 16 X s 1912 686 m 16 X s 1912 708 m 16 X s 1912 730 m 16 X s 1897 752 m 31 X s 1912 774 m 16 X s 1912 797 m 16 X s 1912 819 m 16 X s 1912 841 m 16 X s 1897 863 m 31 X s 1912 885 m 16 X s 1912 907 m 16 X s 1912 929 m 16 X s 1912 951 m 16 X
 s 1897 974 m 31 X s 1912 996 m 16 X s 1912 1018 m 16 X s 1912 1040 m 16 X s 1912 1062 m 16 X s 1897 1084 m 31 X s 1912 1106 m 16 X s 1912 1128 m 16 X s 1912 1151 m 16 X s 1912 1173 m 16 X s 1897 1195 m 31 X s 1897 199 m 31 X s 1897 1195 m 31 X s 1 0
 0 c 6 lw 1 1 1 c 1 0 0 c 380 310 m 150 X 9 -1 d 20 X 33 -1 d 61 X 17 1 d 57 X 25 -1 d 8 -1 d 28 X 7 1 d 21 X 15 1 d 14 X 6 1 d 47 X 10 -1 d 27 X 80 -5 d 8 X 5 1 d 10 X 6 1 d 8 X 13 1 d 6 1 d 10 X 4 1 d 25 X 6 -1 d 15 X 14 -1 d 12 -1 d 7 X 6 -1 d 20
 X 16 -1 d 30 X 17 -1 d 10 X 30 -1 d 31 X 5 1 d 12 X 5 1 d 5 X 5 1 d 6 X 8 1 d 17 2 d 8 1 d 5 1 d 5 X 5 1 d 2 X 12 1 d 10 1 d 8 X 10 1 d 17 X 8 1 d 26 X 11 1 d 23 X 7 -1 d 26 X 4 -1 d 7 X 5 -1 d 4 X 6 -1 d 16 -2 d 6 -1 d 5 -1 d 4 X 4 -1 d 4 X 3 -1 d
 34 X 4 1 d 6 X 6 1 d 7 X 8 1 d 19 2 d 7 1 d 5 X 5 1 d 6 1 d 7 X 17 3 d 7 1 d 6 1 d 6 X 5 1 d 5 X 4 1 d 18 X 7 1 d 31 X 7 -1 d 18 X 5 -1 d s 3 lw /w 2 def /w2 {w 2 div} def /w3 {w 3 div} def 380 310 459 310 539 309 618 308 697 309 777 307 856 310 935
 309 1015 304 1094 309 1174 305 1253 303 1332 303 1412 311 1491 315 1570 315 1650 306 1729 312 1809 321 1888 320 20 { m20} R 6 lw black 1 0 0 c
 gsave  2268 1328 0 0 C 2036.96 364.658 t 0 r /Helvetica-Bold findfont 48.4311 sf 0 0 m (/dof=0.9) show NC gr  black 1 0 0 c
 gsave  2268 1328 0 0 C 2017.01 381.751 t 0 r /Helvetica-Bold findfont 34.1867 sf 0 0 m (2) show NC gr  black 1 0 0 c
 gsave  2268 1328 0 0 C 1991.37 364.658 t 0 r /Symbol findfont 48.4311 sf 0 0 m (c) show NC gr  black 3 lw 340 310 m 1588 X s
 gsave  2268 1328 0 0 C 424.485 1213.63 t 0 r /Helvetica-Bold findfont 42.7334 sf 0 0 m (0.5 mm) show NC gr  1 0 0 c /w 23 def /w2 {w 2 div} def /w3 {w 3 div} def 383 1228 m21 black 1 1 1 c 0 0 1 c 380 536 m21 459 540 m21 539 530 m21 618 516 m21 697
 522 m21 777 527 m21 856 533 m21 935 542 m21 black 1015 519 m 2 Y s 1015 544 m 1 Y s 1009 519 m 12 X s 1009 545 m 12 X s 0 0 1 c 1015 532 m21 black 1094 519 m 7 Y s 1094 549 m 7 Y s 1088 519 m 12 X s 1088 556 m 12 X s 0 0 1 c 1094 537 m21 black 1174
 445 m 12 Y s 1174 480 m 12 Y s 1168 445 m 11 X s 1168 492 m 11 X s 0 0 1 c 1174 469 m21 black 1253 430 m 17 Y s 1253 470 m 18 Y s 1247 430 m 12 X s 1247 488 m 12 X s 0 0 1 c 1253 459 m21 black 1332 466 m 24 Y s 1332 512 m 24 Y s 1327 466 m 11 X s
 1327 536 m 11 X s 0 0 1 c 1332 501 m21 black 1412 478 m 29 Y s 1412 530 m 28 Y s 1406 478 m 11 X s 1406 558 m 11 X s 0 0 1 c 1412 518 m21 black 1491 578 m 33 Y s 1491 634 m 33 Y s 1485 578 m 12 X s 1485 667 m 12 X s 0 0 1 c 1491 623 m21 black 1570
 534 m 36 Y s 1570 593 m 37 Y s 1565 534 m 11 X s 1565 630 m 11 X s 0 0 1 c 1570 582 m21 black 1650 360 m 37 Y s 1650 420 m 37 Y s 1644 360 m 11 X s 1644 457 m 11 X s 0 0 1 c 1650 409 m21 black 1729 535 m 44 Y s 1729 602 m 43 Y s 1723 535 m 12 X s
 1723 645 m 12 X s 0 0 1 c 1729 590 m21 black 1809 514 m 45 Y s 1809 582 m 45 Y s 1803 514 m 11 X s 1803 627 m 11 X s 0 0 1 c 1809 571 m21 black 1888 576 m 50 Y s 1888 649 m 50 Y s 1882 576 m 12 X s 1882 699 m 12 X s 0 0 1 c 1888 638 m21 6 lw 1 1 1 c
 0 0 1 c 380 531 m 26 X 15 1 d 63 X 55 -2 d 13 -1 d 41 -2 d 49 X 17 1 d 12 1 d 9 1 d 23 X 7 -1 d 8 X 9 -1 d 25 -2 d 14 X 6 -1 d 5 X 5 1 d 14 X 9 1 d 16 1 d 11 1 d 8 1 d 28 X 11 1 d 10 -1 d 22 X 10 -1 d 14 X 6 -1 d 6 X 6 -1 d 8 -1 d 25 -4 d 6 -1 d 6
 -1 d 5 X 5 -1 d 16 X 4 1 d 5 X 6 1 d 7 1 d 15 2 d 8 1 d 6 1 d 6 X 5 1 d 25 X 7 -1 d 8 X 35 -4 d 8 X 5 -1 d 40 -2 d 14 -1 d 13 -1 d 12 X 9 -1 d 32 -1 d 7 -1 d 13 X 6 1 d 12 X 5 1 d 4 1 d 4 1 d 5 1 d 4 1 d 6 1 d 6 2 d 14 5 d 7 2 d 5 2 d 5 1 d 5 1 d 4
 1 d 4 1 d 2 X 6 1 d 8 1 d 7 1 d 9 1 d 7 1 d 10 X 9 1 d 11 X 12 1 d 18 X 10 1 d 16 X 8 -1 d 14 X 5 -1 d 8 X 4 -1 d 3 X 4 -1 d 5 -1 d 4 -2 d 6 -1 d 16 -5 d 6 -2 d 5 -2 d 4 -1 d 4 -1 d 4 -1 d 3 X 4 -1 d 25 X 5 1 d 4 X 6 1 d 6 1 d 7 2 d 8 1 d 19 5 d 7 1
 d 5 1 d 5 2 d 6 1 d 7 2 d 17 6 d 7 2 d 6 2 d 6 1 d 5 1 d 5 1 d 4 1 d 4 X 3 1 d 5 X 6 1 d 45 X 6 -1 d 6 X 6 -1 d 5 -1 d s 3 lw /w 2 def /w2 {w 2 div} def /w3 {w 3 div} def 380 531 459 532 539 530 618 527 697 530 777 525 856 530 935 529 1015 519 1094
 527 1174 521 1253 517 1332 515 1412 536 1491 543 1570 542 1650 523 1729 535 1809 556 1888 554 20 { m20} R 6 lw black 0 0 1 c
 gsave  2268 1328 0 0 C 2036.96 615.36 t 0 r /Helvetica-Bold findfont 48.4311 sf 0 0 m (/dof=1.7) show NC gr  black 0 0 1 c
 gsave  2268 1328 0 0 C 2017.01 632.454 t 0 r /Helvetica-Bold findfont 34.1867 sf 0 0 m (2) show NC gr  black 0 0 1 c
 gsave  2268 1328 0 0 C 1991.37 615.36 t 0 r /Symbol findfont 48.4311 sf 0 0 m (c) show NC gr  black 3 lw 340 531 m 1588 X s
 gsave  2268 1328 0 0 C 877.458 1213.63 t 0 r /Helvetica-Bold findfont 39.8845 sf 0 0 m (1 mm) show NC gr  0 0 1 c /w 23 def /w2 {w 2 div} def /w3 {w 3 div} def 836 1228 m21 black 1 1 1 c 1 0 1 c 380 745 m21 459 751 m21 539 753 m21 618 751 m21 697
 750 m21 777 743 m21 856 753 m21 935 740 m21 black 1015 713 m 3 Y s 1015 739 m 2 Y s 1009 713 m 12 X s 1009 741 m 12 X s 1 0 1 c 1015 727 m21 black 1094 717 m 9 Y s 1094 748 m 8 Y s 1088 717 m 12 X s 1088 756 m 12 X s 1 0 1 c 1094 737 m21 black 1174
 726 m 15 Y s 1174 764 m 14 Y s 1168 726 m 11 X s 1168 778 m 11 X s 1 0 1 c 1174 752 m21 black 1253 707 m 21 Y s 1253 751 m 21 Y s 1247 707 m 12 X s 1247 772 m 12 X s 1 0 1 c 1253 739 m21 black 1332 710 m 27 Y s 1332 759 m 28 Y s 1327 710 m 11 X s
 1327 787 m 11 X s 1 0 1 c 1332 748 m21 black 1412 730 m 32 Y s 1412 785 m 32 Y s 1406 730 m 11 X s 1406 817 m 11 X s 1 0 1 c 1412 774 m21 black 1491 739 m 36 Y s 1491 798 m 36 Y s 1485 739 m 12 X s 1485 834 m 12 X s 1 0 1 c 1491 786 m21 black 1570
 742 m 40 Y s 1570 805 m 40 Y s 1565 742 m 11 X s 1565 845 m 11 X s 1 0 1 c 1570 794 m21 black 1650 683 m 43 Y s 1650 748 m 43 Y s 1644 683 m 11 X s 1644 791 m 11 X s 1 0 1 c 1650 737 m21 black 1729 694 m 46 Y s 1729 763 m 47 Y s 1723 694 m 12 X s
 1723 810 m 12 X s 1 0 1 c 1729 752 m21 black 1809 770 m 52 Y s 1809 845 m 51 Y s 1803 770 m 11 X s 1803 896 m 11 X s 1 0 1 c 1809 833 m21 black 1888 737 m 53 Y s 1888 813 m 53 Y s 1882 737 m 12 X s 1882 866 m 12 X s 1 0 1 c 1888 801 m21 6 lw 1 1 1 c
 1 0 1 c 380 751 m 12 2 d 12 X 12 1 d 13 1 d 23 X 7 -1 d 9 X 9 -1 d 62 -7 d 24 -2 d 18 -1 d 44 X 9 1 d 9 1 d 24 3 d 10 1 d 7 X 7 1 d 6 X 6 -1 d 7 X 8 -1 d 9 -1 d 26 -5 d 8 -1 d 6 -1 d 16 X 7 1 d 7 X 9 2 d 16 2 d 14 2 d 7 1 d 7 1 d 6 X 18 1 d 25 X 10
 -1 d 9 X 8 -1 d 9 -1 d 6 -1 d 74 -20 d 16 X 7 1 d 8 1 d 15 3 d 13 2 d 7 1 d 6 X 6 1 d 22 X 12 -1 d 14 X 16 -1 d 17 -2 d 10 -1 d 69 -9 d 8 -1 d 27 -3 d 8 -1 d 7 X 6 -1 d 5 X 5 1 d 5 X 4 1 d 4 1 d 4 1 d 3 2 d 4 1 d 4 3 d 4 2 d 4 3 d 4 4 d 5 5 d 9 8 d
 8 8 d 5 4 d 5 4 d 4 3 d 4 3 d 4 2 d 3 1 d 4 2 d 2 1 d 4 1 d 5 1 d 5 1 d 5 1 d 21 X 39 -1 d 11 X 23 1 d 25 X 6 -1 d 6 -1 d 5 -1 d 3 -1 d 4 -1 d 3 -1 d 4 -2 d 5 -2 d 4 -3 d 6 -3 d 16 -12 d 6 -4 d 5 -3 d 4 -2 d 4 -2 d 4 -2 d 3 -2 d 4 -1 d 3 X 4 -1 d 9
 X 5 1 d 4 1 d 5 1 d 4 1 d 6 2 d 6 2 d 7 3 d 8 4 d 19 9 d 7 4 d 5 2 d 5 3 d 6 3 d 7 5 d 17 11 d 7 5 d 6 4 d 6 3 d 5 3 d 5 2 d 4 1 d 4 2 d 3 X 5 1 d 6 1 d 7 1 d 6 1 d 19 X 6 -1 d 7 -1 d 6 -1 d 6 -1 d 6 -2 d 5 -1 d s 3 lw /w 2 def /w2 {w 2 div} def /w3
 {w 3 div} def 380 751 459 754 539 746 618 743 697 750 777 740 856 749 935 747 1015 726 1094 735 1174 731 1253 721 1332 718 1412 775 1491 778 1570 775 1650 734 1729 762 1809 806 1888 803 20 { m20} R 6 lw black 1 0 1 c
 gsave  2268 1328 0 0 C 2036.96 863.214 t 0 r /Helvetica-Bold findfont 48.4311 sf 0 0 m (/dof=0.4) show NC gr  black 1 0 1 c
 gsave  2268 1328 0 0 C 2017.01 880.307 t 0 r /Helvetica-Bold findfont 34.1867 sf 0 0 m (2) show NC gr  black 1 0 1 c
 gsave  2268 1328 0 0 C 1991.37 863.214 t 0 r /Symbol findfont 48.4311 sf 0 0 m (c) show NC gr  black 3 lw 340 752 m 1588 X s
 gsave  2268 1328 0 0 C 1330.43 1213.63 t 0 r /Helvetica-Bold findfont 39.8845 sf 0 0 m (2 mm) show NC gr  1 0 1 c /w 23 def /w2 {w 2 div} def /w3 {w 3 div} def 1290 1228 m21 black 1 1 1 c 0 0.733333 1 c 380 976 m21 459 976 m21 539 955 m21 618 958
 m21 697 971 m21 777 951 m21 856 964 m21 935 967 m21 black 1015 913 m 4 Y s 1015 940 m 4 Y s 1009 913 m 12 X s 1009 944 m 12 X s 0 0.733333 1 c 1015 929 m21 black 1094 906 m 10 Y s 1094 939 m 9 Y s 1088 906 m 12 X s 1088 948 m 12 X s 0 0.733333 1 c
 1094 927 m21 black 1174 914 m 16 Y s 1174 953 m 17 Y s 1168 914 m 11 X s 1168 970 m 11 X s 0 0.733333 1 c 1174 942 m21 black 1253 900 m 24 Y s 1253 947 m 23 Y s 1247 900 m 12 X s 1247 970 m 12 X s 0 0.733333 1 c 1253 935 m21 black 1332 868 m 30 Y s
 1332 921 m 30 Y s 1327 868 m 11 X s 1327 951 m 11 X s 0 0.733333 1 c 1332 909 m21 black 1412 983 m 36 Y s 1412 1042 m 36 Y s 1406 983 m 11 X s 1406 1078 m 11 X s 0 0.733333 1 c 1412 1031 m21 black 1491 924 m 40 Y s 1491 987 m 40 Y s 1485 924 m 12 X
 s 1485 1027 m 12 X s 0 0.733333 1 c 1491 976 m21 black 1570 936 m 43 Y s 1570 1002 m 44 Y s 1565 936 m 11 X s 1565 1046 m 11 X s 0 0.733333 1 c 1570 991 m21 black 1650 929 m 48 Y s 1650 1000 m 48 Y s 1644 929 m 11 X s 1644 1048 m 11 X s 0 0.733333 1
 c 1650 988 m21 black 1729 915 m 51 Y s 1729 989 m 52 Y s 1723 915 m 12 X s 1723 1041 m 12 X s 0 0.733333 1 c 1729 978 m21 black 1809 961 m 57 Y s 1809 1040 m 57 Y s 1803 961 m 11 X s 1803 1097 m 11 X s 0 0.733333 1 c 1809 1029 m21 black 1888 963 m
 60 Y s 1888 1046 m 60 Y s 1882 963 m 12 X s 1882 1106 m 12 X s 0 0.733333 1 c 1888 1034 m21 6 lw 1 1 1 c 0 0.733333 1 c 380 972 m 12 2 d 10 2 d 11 1 d 11 1 d 22 X 11 -1 d 2 X 7 -1 d 8 -1 d 9 -2 d 15 -5 d 18 -5 d 8 -2 d 7 -1 d 8 -2 d 12 -1 d 10 X 13
 -1 d 14 1 d 18 X 12 1 d 8 1 d 10 1 d 15 4 d 18 3 d 9 1 d 7 1 d 18 X 7 -1 d 8 -1 d 9 -3 d 27 -7 d 8 -2 d 6 -1 d 23 X 8 1 d 9 2 d 15 3 d 14 3 d 10 2 d 7 1 d 2 X 27 2 d 32 X 8 -1 d 7 -1 d 5 -1 d 6 -1 d 6 -2 d 7 -3 d 8 -4 d 16 -9 d 12 -6 d 8 -3 d 6 -3 d
 5 -1 d 6 -2 d 7 -1 d 8 -1 d 8 -1 d 9 X 11 1 d 16 X 20 2 d 9 X 11 2 d 18 3 d 13 2 d 10 1 d 27 X 8 -2 d 9 -2 d 13 -3 d 23 -5 d 8 -2 d 8 -2 d 2 X 7 -1 d 10 -2 d 19 -5 d 7 -1 d 6 -1 d 11 X 5 1 d 5 1 d 4 1 d 4 2 d 1 X 3 2 d 4 2 d 3 3 d 3 3 d 3 4 d 4 5 d
 3 6 d 4 6 d 5 9 d 5 10 d 9 17 d 4 9 d 4 7 d 4 5 d 3 5 d 3 4 d 3 3 d 3 3 d 3 3 d 3 2 d 4 2 d 4 1 d 4 1 d 4 1 d 67 -16 d 26 X 16 1 d 15 X 6 -1 d 6 -1 d 4 -1 d 5 -2 d 1 X 4 -2 d 3 -2 d 4 -3 d 5 -3 d 4 -5 d 6 -5 d 16 -19 d 6 -7 d 5 -5 d 4 -4 d 4 -3 d 4
 -3 d 3 -2 d 4 -2 d 3 -1 d 4 -1 d 9 X 5 1 d 4 1 d 5 2 d 4 2 d 6 3 d 6 4 d 7 5 d 8 6 d 19 15 d 7 6 d 5 4 d 5 4 d 6 6 d 7 7 d 17 19 d 7 8 d 6 6 d 6 5 d 5 4 d 5 4 d 4 2 d 4 2 d 3 1 d 5 2 d 6 2 d 7 1 d 6 1 d 19 X 6 -1 d 7 -2 d 6 -1 d 6 -2 d 6 -3 d 5 -2 d
 s 3 lw /w 2 def /w2 {w 2 div} def /w3 {w 3 div} def 380 972 459 977 539 958 618 958 697 969 777 954 856 966 935 965 1015 931 1094 931 1174 939 1253 923 1332 918 1412 1028 1491 1015 1570 1011 1650 944 1729 989 1809 1061 1888 1056 20 { m20} R 6 lw
 black 0 0.733333 1 c
 gsave  2268 1328 0 0 C 2039.81 1113.92 t 0 r /Helvetica-Bold findfont 48.4311 sf 0 0 m (/dof=0.1) show NC gr  black 0 0.733333 1 c
 gsave  2268 1328 0 0 C 2019.86 1131.01 t 0 r /Helvetica-Bold findfont 34.1867 sf 0 0 m (2) show NC gr  black 0 0.733333 1 c
 gsave  2268 1328 0 0 C 1994.22 1113.92 t 0 r /Symbol findfont 48.4311 sf 0 0 m (c) show NC gr  black 3 lw 340 974 m 1588 X s
 gsave  2268 1328 0 0 C 1783.41 1213.63 t 0 r /Helvetica-Bold findfont 42.7334 sf 0 0 m (3 mm) show NC gr  0 0.733333 1 c /w 23 def /w2 {w 2 div} def /w3 {w 3 div} def 1743 1228 m21
 gr  gr showpage
end
%%EOF
