%!PS-Adobe-2.0 EPSF-2.0
%%BoundingBox:  0 0 567 332
%%Title: TargetYOffset_far_fits.eps: Fits
%%Creator: ROOT Version 5.30/06
%%CreationDate: Sun Feb  2 09:35:47 2014
%%EndComments
%%BeginProlog
80 dict begin
/s {stroke} def /l {lineto} def /m {moveto} def /t {translate} def
/r {rotate} def /rl {roll}  def /R {repeat} def
/d {rlineto} def /rm {rmoveto} def /gr {grestore} def /f {eofill} def
/c {setrgbcolor} def /black {0 setgray} def /sd {setdash} def
/cl {closepath} def /sf {scalefont setfont} def /lw {setlinewidth} def
/box {m dup 0 exch d exch 0 d 0 exch neg d cl} def
/NC{systemdict begin initclip end}def/C{NC box clip newpath}def
/bl {box s} def /bf {box f} def /Y { 0 exch d} def /X { 0 d} def 
/K {{pop pop 0 moveto} exch kshow} bind def
/ita {/ang 15 def gsave [1 0 ang dup sin exch cos div 1 0 0] concat} def 
/mp {newpath /y exch def /x exch def} def
/side {[w .77 mul w .23 mul] .385 w mul sd w 0 l currentpoint t -144 r} def
/mr {mp x y w2 0 360 arc} def /m24 {mr s} def /m20 {mr f} def
/mb {mp x y w2 add m w2 neg 0 d 0 w neg d w 0 d 0 w d cl} def
/mt {mp x y w2 add m w2 neg w neg d w 0 d cl} def
/m21 {mb f} def /m25 {mb s} def /m22 {mt f} def /m26{mt s} def
/m23 {mp x y w2 sub m w2 w d w neg 0 d cl f} def
/m27 {mp x y w2 add m w3 neg w2 neg d w3 w2 neg d w3 w2 d cl s} def
/m28 {mp x w2 sub y w2 sub w3 add m w3 0 d  0 w3 neg d w3 0 d 0 w3 d w3 0 d  0 w3 d w3 neg 0 d 0 w3 d w3 neg 0 d 0 w3 neg d w3 neg 0 d cl s } def
/m29 {mp gsave x w2 sub y w2 add w3 sub m currentpoint t 4 {side} repeat cl fill gr} def
/m30 {mp gsave x w2 sub y w2 add w3 sub m currentpoint t 4 {side} repeat cl s gr} def
/m31 {mp x y w2 sub m 0 w d x w2 sub y m w 0 d x w2 sub y w2 add m w w neg d x w2 sub y w2 sub m w w d s} def
/m32 {mp x y w2 sub m w2 w d w neg 0 d cl s} def
/m33 {mp x y w2 add m w3 neg w2 neg d w3 w2 neg d w3 w2 d cl f} def
/m34 {mp x w2 sub y w2 sub w3 add m w3 0 d  0 w3 neg d w3 0 d 0 w3 d w3 0 d  0 w3 d w3 neg 0 d 0 w3 d w3 neg 0 d 0 w3 neg d w3 neg 0 d cl f } def
/m2 {mp x y w2 sub m 0 w d x w2 sub y m w 0 d s} def
/m5 {mp x w2 sub y w2 sub m w w d x w2 sub y w2 add m w w neg d s} def
/reEncode {exch findfont dup length dict begin {1 index /FID eq  {pop pop} {def} ifelse } forall /Encoding exch def currentdict end dup /FontName get exch definefont pop } def [/Times-Bold /Times-Italic /Times-BoldItalic /Helvetica /Helvetica-Oblique
 /Helvetica-Bold /Helvetica-BoldOblique /Courier /Courier-Oblique /Courier-Bold /Courier-BoldOblique /Times-Roman /AvantGarde-Book /AvantGarde-BookOblique /AvantGarde-Demi /AvantGarde-DemiOblique /Bookman-Demi /Bookman-DemiItalic /Bookman-Light
 /Bookman-LightItalic /Helvetica-Narrow /Helvetica-Narrow-Bold /Helvetica-Narrow-BoldOblique /Helvetica-Narrow-Oblique /NewCenturySchlbk-Roman /NewCenturySchlbk-Bold /NewCenturySchlbk-BoldItalic /NewCenturySchlbk-Italic /Palatino-Bold
 /Palatino-BoldItalic /Palatino-Italic /Palatino-Roman ] {ISOLatin1Encoding reEncode } forall%%EndProlog
%%BeginSetup
%%EndSetup
newpath  gsave  .25 .25 scale  gsave  0 0 t black[  ] 0 sd 3 lw 1 1 1 c 2268 1328 0 0 bf black 1 1 1 c 408 305 23 1009 bf black 1 1 1 c black 306 229 84 1055 bl 306 229 84 1055 bl 84 1055 m 306 X s 84 1059 m -4 Y s 177 1059 m -4 Y s 271 1059 m -4 Y s
 364 1059 m -4 Y s 364 1059 m -4 Y s
 gsave  408 305 23 1009 C 74.0711 1034.15 t 0 r /Helvetica findfont 22.8295 sf 0 0 m (0) show NC gr 
 gsave  408 305 23 1009 C 170.933 1034.15 t 0 r /Helvetica findfont 22.8295 sf 0 0 m (1) show NC gr 
 gsave  408 305 23 1009 C 262.098 1034.15 t 0 r /Helvetica findfont 22.8295 sf 0 0 m (2) show NC gr 
 gsave  408 305 23 1009 C 353.262 1034.15 t 0 r /Helvetica findfont 22.8295 sf 0 0 m (3) show NC gr  84 1284 m 306 X s 84 1280 m 4 Y s 177 1280 m 4 Y s 271 1280 m 4 Y s 364 1280 m 4 Y s 364 1280 m 4 Y s 84 1055 m 229 Y s 89 1074 m -5 X s 87 1079 m -3
 X s 87 1084 m -3 X s 87 1089 m -3 X s 87 1094 m -3 X s 89 1099 m -5 X s 87 1104 m -3 X s 87 1109 m -3 X s 87 1114 m -3 X s 87 1119 m -3 X s 89 1124 m -5 X s 87 1129 m -3 X s 87 1134 m -3 X s 87 1139 m -3 X s 87 1144 m -3 X s 89 1149 m -5 X s 87 1154
 m -3 X s 87 1159 m -3 X s 87 1164 m -3 X s 87 1169 m -3 X s 89 1174 m -5 X s 87 1179 m -3 X s 87 1184 m -3 X s 87 1189 m -3 X s 87 1194 m -3 X s 89 1199 m -5 X s 87 1204 m -3 X s 87 1209 m -3 X s 87 1214 m -3 X s 87 1219 m -3 X s 89 1224 m -5 X s 87
 1229 m -3 X s 87 1234 m -3 X s 87 1239 m -3 X s 87 1244 m -3 X s 89 1249 m -5 X s 87 1254 m -3 X s 87 1259 m -3 X s 87 1264 m -3 X s 87 1269 m -3 X s 89 1274 m -5 X s 89 1074 m -5 X s 87 1069 m -3 X s 87 1064 m -3 X s 87 1059 m -3 X s 89 1274 m -5 X
 s 87 1279 m -3 X s 87 1284 m -3 X s
 gsave  408 305 23 1009 C 14.2445 1065.48 t 0 r /Helvetica findfont 22.8295 sf 0 0 m (\2550.004) show NC gr 
 gsave  408 305 23 1009 C 14.2445 1091.12 t 0 r /Helvetica findfont 22.8295 sf 0 0 m (\2550.003) show NC gr 
 gsave  408 305 23 1009 C 14.2445 1116.76 t 0 r /Helvetica findfont 22.8295 sf 0 0 m (\2550.002) show NC gr 
 gsave  408 305 23 1009 C 17.0933 1142.4 t 0 r /Helvetica findfont 22.8295 sf 0 0 m (\2550.001) show NC gr 
 gsave  408 305 23 1009 C 65.5245 1165.2 t 0 r /Helvetica findfont 22.8295 sf 0 0 m (0) show NC gr 
 gsave  408 305 23 1009 C 25.64 1190.84 t 0 r /Helvetica findfont 22.8295 sf 0 0 m (0.001) show NC gr 
 gsave  408 305 23 1009 C 22.7911 1216.48 t 0 r /Helvetica findfont 22.8295 sf 0 0 m (0.002) show NC gr 
 gsave  408 305 23 1009 C 22.7911 1242.12 t 0 r /Helvetica findfont 22.8295 sf 0 0 m (0.003) show NC gr 
 gsave  408 305 23 1009 C 22.7911 1267.76 t 0 r /Helvetica findfont 22.8295 sf 0 0 m (0.004) show NC gr  390 1055 m 229 Y s 385 1074 m 5 X s 387 1079 m 3 X s 387 1084 m 3 X s 387 1089 m 3 X s 387 1094 m 3 X s 385 1099 m 5 X s 387 1104 m 3 X s 387
 1109 m 3 X s 387 1114 m 3 X s 387 1119 m 3 X s 385 1124 m 5 X s 387 1129 m 3 X s 387 1134 m 3 X s 387 1139 m 3 X s 387 1144 m 3 X s 385 1149 m 5 X s 387 1154 m 3 X s 387 1159 m 3 X s 387 1164 m 3 X s 387 1169 m 3 X s 385 1174 m 5 X s 387 1179 m 3 X
 s 387 1184 m 3 X s 387 1189 m 3 X s 387 1194 m 3 X s 385 1199 m 5 X s 387 1204 m 3 X s 387 1209 m 3 X s 387 1214 m 3 X s 387 1219 m 3 X s 385 1224 m 5 X s 387 1229 m 3 X s 387 1234 m 3 X s 387 1239 m 3 X s 387 1244 m 3 X s 385 1249 m 5 X s 387 1254
 m 3 X s 387 1259 m 3 X s 387 1264 m 3 X s 387 1269 m 3 X s 385 1274 m 5 X s 385 1074 m 5 X s 387 1069 m 3 X s 387 1064 m 3 X s 387 1059 m 3 X s 385 1274 m 5 X s 387 1279 m 3 X s 387 1284 m 3 X s /w 22 def /w2 {w 2 div} def /w3 {w 3 div} def 131 1220
 177 1177 271 1151 364 1119 4 { m21} R 131 1231 m 34 Y s 125 1265 m 11 X s 131 1208 m -33 Y s 125 1175 m 11 X s 177 1189 m 33 Y s 172 1222 m 11 X s 177 1166 m -34 Y s 172 1132 m 11 X s 271 1162 m 34 Y s 265 1196 m 12 X s 271 1139 m -33 Y s 265 1106 m
 12 X s 364 1130 m 34 Y s 359 1164 m 11 X s 364 1107 m -33 Y s 359 1074 m 11 X s 1 0 0 c 9 lw 0.95 0.95 0.95 c black 1 0 0 c 85 1174 m 16 X 3 -1 d 21 X 3 -1 d 13 X 3 -1 d 9 X 3 -1 d 6 X 3 -1 d 6 X 3 -1 d 3 X 3 -1 d 6 X 4 -1 d 3 X 3 -1 d 3 X 3 -1 d 3
 X 3 -1 d 3 X 3 -1 d 3 X 3 -1 d 3 X 3 -1 d 3 X 3 -1 d 3 -1 d s 235 1158 m 4 X 3 -1 d 3 -1 d 3 X 3 -1 d 3 -1 d 3 X 3 -1 d 3 -1 d 3 X 3 -1 d 3 -1 d 3 -1 d 3 -1 d 3 X 3 -1 d 3 -1 d 4 -1 d 3 -1 d 3 -1 d 3 X 3 -1 d 3 -1 d 3 -1 d 3 -1 d 3 -1 d 3 -1 d 3 -1
 d 3 -1 d 3 -1 d 3 -1 d 3 -1 d 3 -1 d 4 -1 d 3 -1 d 3 -1 d 3 -1 d 3 -1 d 3 -1 d 3 -1 d 3 -2 d 3 -1 d 3 -1 d 3 -1 d 3 -1 d 3 -1 d 3 -2 d 3 -1 d 3 -1 d s 385 1113 m 4 -1 d s 0.49 0.6 0.82 c black 0.49 0.6 0.82 c
 gsave  408 305 23 1009 C 142.445 1293.4 t 0 r /Helvetica-Bold findfont 25.6831 sf 0 0 m (0.0 < E < 0.5 GeV) show NC gr  0.52 0.76 0.64 c black 0.52 0.76 0.64 c
 gsave  408 305 23 1009 C 122.502 1256.36 t 0 r /Helvetica-Bold findfont 25.6831 sf 0 0 m 
 228 214 200 193 178 171 156 149 134 126 119 105 91 77 69 55 47 39 25 17
(A = \2550.000, p = 2.000) K NC gr  1 0.6 1 c black 1 0.6 1 c
 gsave  408 305 23 1009 C 427.334 1122.46 t 90 r /Helvetica-Bold findfont 28.5368 sf 0 0 m (/dof=0.4) show NC gr  black 1 0.6 1 c
 gsave  408 305 23 1009 C 415.938 1111.07 t 90 r /Helvetica-Bold findfont 19.9758 sf 0 0 m (2) show NC gr  black 1 0.6 1 c
 gsave  408 305 23 1009 C 427.334 1093.97 t 90 r /Symbol findfont 28.5368 sf 0 0 m (c) show NC gr  black 3 lw 1 1 1 c 408 305 476 1009 bf black 1 1 1 c black 307 229 537 1055 bl 307 229 537 1055 bl 537 1055 m 307 X s 537 1059 m -4 Y s 631 1059 m -4 Y
 s 724 1059 m -4 Y s 818 1059 m -4 Y s 818 1059 m -4 Y s
 gsave  408 305 476 1009 C 527.045 1034.15 t 0 r /Helvetica findfont 22.8295 sf 0 0 m (0) show NC gr 
 gsave  408 305 476 1009 C 623.907 1034.15 t 0 r /Helvetica findfont 22.8295 sf 0 0 m (1) show NC gr 
 gsave  408 305 476 1009 C 715.071 1034.15 t 0 r /Helvetica findfont 22.8295 sf 0 0 m (2) show NC gr 
 gsave  408 305 476 1009 C 809.085 1034.15 t 0 r /Helvetica findfont 22.8295 sf 0 0 m (3) show NC gr  537 1284 m 307 X s 537 1280 m 4 Y s 631 1280 m 4 Y s 724 1280 m 4 Y s 818 1280 m 4 Y s 818 1280 m 4 Y s 537 1055 m 229 Y s 543 1065 m -6 X s 540
 1076 m -3 X s 540 1087 m -3 X s 540 1098 m -3 X s 543 1109 m -6 X s 540 1120 m -3 X s 540 1132 m -3 X s 540 1143 m -3 X s 543 1154 m -6 X s 540 1165 m -3 X s 540 1176 m -3 X s 540 1187 m -3 X s 543 1199 m -6 X s 540 1210 m -3 X s 540 1221 m -3 X s
 540 1232 m -3 X s 543 1243 m -6 X s 543 1065 m -6 X s 543 1243 m -6 X s 540 1254 m -3 X s 540 1266 m -3 X s 540 1277 m -3 X s
 gsave  408 305 476 1009 C 467.218 1056.94 t 0 r /Helvetica findfont 22.8295 sf 0 0 m (\2550.008) show NC gr 
 gsave  408 305 476 1009 C 467.218 1102.52 t 0 r /Helvetica findfont 22.8295 sf 0 0 m (\2550.006) show NC gr 
 gsave  408 305 476 1009 C 467.218 1148.1 t 0 r /Helvetica findfont 22.8295 sf 0 0 m (\2550.004) show NC gr 
 gsave  408 305 476 1009 C 467.218 1190.84 t 0 r /Helvetica findfont 22.8295 sf 0 0 m (\2550.002) show NC gr 
 gsave  408 305 476 1009 C 518.498 1236.42 t 0 r /Helvetica findfont 22.8295 sf 0 0 m (0) show NC gr  844 1055 m 229 Y s 838 1065 m 6 X s 841 1076 m 3 X s 841 1087 m 3 X s 841 1098 m 3 X s 838 1109 m 6 X s 841 1120 m 3 X s 841 1132 m 3 X s 841 1143 m
 3 X s 838 1154 m 6 X s 841 1165 m 3 X s 841 1176 m 3 X s 841 1187 m 3 X s 838 1199 m 6 X s 841 1210 m 3 X s 841 1221 m 3 X s 841 1232 m 3 X s 838 1243 m 6 X s 838 1065 m 6 X s 838 1243 m 6 X s 841 1254 m 3 X s 841 1266 m 3 X s 841 1277 m 3 X s /w 23
 def /w2 {w 2 div} def /w3 {w 3 div} def 584 1123 631 1190 724 1216 818 1199 4 { m21} R 584 1134 m 37 Y s 578 1171 m 12 X s 584 1111 m -37 Y s 578 1074 m 12 X s 631 1202 m 37 Y s 625 1239 m 12 X s 631 1179 m -37 Y s 625 1142 m 12 X s 724 1227 m 38 Y
 s 719 1265 m 11 X s 724 1204 m -37 Y s 719 1167 m 11 X s 818 1211 m 37 Y s 812 1248 m 12 X s 818 1188 m -38 Y s 812 1150 m 12 X s 9 lw 0.95 0.95 0.95 c black 539 1243 m 3 -1 d 3 X 3 -1 d 3 -1 d 3 X 3 -1 d 3 -1 d 3 -1 d 4 X 3 -1 d 3 -1 d 3 X 3 -1 d 3
 -1 d 3 X 3 -1 d 3 -1 d 3 X 3 -1 d 3 -1 d 3 -1 d 3 X 3 -1 d 3 -1 d 4 X 3 -1 d 3 -1 d 3 X 3 -1 d 3 -1 d 3 X 3 -1 d 3 -1 d 3 -1 d 3 X 3 -1 d 3 -1 d 3 X 3 -1 d 3 -1 d 3 X 4 -1 d 3 -1 d 3 X 3 -1 d 3 -1 d 3 X 3 -1 d 3 -1 d s 689 1209 m 3 -1 d 3 X 3 -1 d 3
 -1 d 3 X 3 -1 d 3 -1 d 3 X 4 -1 d 3 -1 d 3 X 3 -1 d 3 -1 d 3 -1 d 3 X 3 -1 d 3 -1 d 3 X 3 -1 d 3 -1 d 3 X 3 -1 d 3 -1 d 3 X 4 -1 d 3 -1 d 3 -1 d 3 X 3 -1 d 3 -1 d 3 X 3 -1 d 3 -1 d 3 X 3 -1 d 3 -1 d 3 X 3 -1 d 3 -1 d 3 X 4 -1 d 3 -1 d 3 -1 d 3 X 3
 -1 d 3 -1 d 3 X 3 -1 d 3 -1 d s 839 1175 m 3 X s 0.49 0.6 0.82 c black 0.49 0.6 0.82 c
 gsave  408 305 476 1009 C 595.418 1293.4 t 0 r /Helvetica-Bold findfont 25.6831 sf 0 0 m (0.5 < E < 1.0 GeV) show NC gr  0.52 0.76 0.64 c black 0.52 0.76 0.64 c
 gsave  408 305 476 1009 C 575.476 1256.36 t 0 r /Helvetica-Bold findfont 25.6831 sf 0 0 m 
 228 214 200 193 178 171 156 149 133 126 119 105 91 76 69 55 47 39 25 17
(A = \2550.001, p = 1.000) K NC gr  1 0.6 1 c black 1 0.6 1 c
 gsave  408 305 476 1009 C 883.156 1122.46 t 90 r /Helvetica-Bold findfont 28.5368 sf 0 0 m (/dof=1.9) show NC gr  black 1 0.6 1 c
 gsave  408 305 476 1009 C 871.76 1111.07 t 90 r /Helvetica-Bold findfont 19.9758 sf 0 0 m (2) show NC gr  black 1 0.6 1 c
 gsave  408 305 476 1009 C 883.156 1093.97 t 90 r /Symbol findfont 28.5368 sf 0 0 m (c) show NC gr  black 3 lw 1 1 1 c 408 305 930 1009 bf black 1 1 1 c black 306 229 991 1055 bl 306 229 991 1055 bl 991 1055 m 306 X s 991 1059 m -4 Y s 1084 1059 m -4
 Y s 1178 1059 m -4 Y s 1271 1059 m -4 Y s 1271 1059 m -4 Y s
 gsave  408 305 930 1009 C 980.018 1034.15 t 0 r /Helvetica findfont 22.8295 sf 0 0 m (0) show NC gr 
 gsave  408 305 930 1009 C 1076.88 1034.15 t 0 r /Helvetica findfont 22.8295 sf 0 0 m (1) show NC gr 
 gsave  408 305 930 1009 C 1168.04 1034.15 t 0 r /Helvetica findfont 22.8295 sf 0 0 m (2) show NC gr 
 gsave  408 305 930 1009 C 1262.06 1034.15 t 0 r /Helvetica findfont 22.8295 sf 0 0 m (3) show NC gr  991 1284 m 306 X s 991 1280 m 4 Y s 1084 1280 m 4 Y s 1178 1280 m 4 Y s 1271 1280 m 4 Y s 1271 1280 m 4 Y s 991 1055 m 229 Y s 997 1082 m -6 X s 994
 1088 m -3 X s 994 1094 m -3 X s 994 1100 m -3 X s 994 1106 m -3 X s 997 1113 m -6 X s 994 1119 m -3 X s 994 1125 m -3 X s 994 1131 m -3 X s 994 1138 m -3 X s 997 1144 m -6 X s 994 1150 m -3 X s 994 1156 m -3 X s 994 1162 m -3 X s 994 1169 m -3 X s
 997 1175 m -6 X s 994 1181 m -3 X s 994 1187 m -3 X s 994 1194 m -3 X s 994 1200 m -3 X s 997 1206 m -6 X s 994 1212 m -3 X s 994 1218 m -3 X s 994 1225 m -3 X s 994 1231 m -3 X s 997 1237 m -6 X s 994 1243 m -3 X s 994 1250 m -3 X s 994 1256 m -3 X
 s 994 1262 m -3 X s 997 1268 m -6 X s 997 1082 m -6 X s 994 1075 m -3 X s 994 1069 m -3 X s 994 1063 m -3 X s 994 1057 m -3 X s 997 1268 m -6 X s 994 1274 m -3 X s 994 1281 m -3 X s
 gsave  408 305 930 1009 C 923.04 1074.03 t 0 r /Helvetica findfont 22.8295 sf 0 0 m (\2550.004) show NC gr 
 gsave  408 305 930 1009 C 923.04 1105.37 t 0 r /Helvetica findfont 22.8295 sf 0 0 m (\2550.003) show NC gr 
 gsave  408 305 930 1009 C 923.04 1136.71 t 0 r /Helvetica findfont 22.8295 sf 0 0 m (\2550.002) show NC gr 
 gsave  408 305 930 1009 C 925.889 1168.04 t 0 r /Helvetica findfont 22.8295 sf 0 0 m (\2550.001) show NC gr 
 gsave  408 305 930 1009 C 974.32 1199.38 t 0 r /Helvetica findfont 22.8295 sf 0 0 m (0) show NC gr 
 gsave  408 305 930 1009 C 934.436 1230.72 t 0 r /Helvetica findfont 22.8295 sf 0 0 m (0.001) show NC gr 
 gsave  408 305 930 1009 C 931.587 1262.06 t 0 r /Helvetica findfont 22.8295 sf 0 0 m (0.002) show NC gr  1297 1055 m 229 Y s 1292 1082 m 5 X s 1294 1088 m 3 X s 1294 1094 m 3 X s 1294 1100 m 3 X s 1294 1106 m 3 X s 1292 1113 m 5 X s 1294 1119 m 3 X
 s 1294 1125 m 3 X s 1294 1131 m 3 X s 1294 1138 m 3 X s 1292 1144 m 5 X s 1294 1150 m 3 X s 1294 1156 m 3 X s 1294 1162 m 3 X s 1294 1169 m 3 X s 1292 1175 m 5 X s 1294 1181 m 3 X s 1294 1187 m 3 X s 1294 1194 m 3 X s 1294 1200 m 3 X s 1292 1206 m 5
 X s 1294 1212 m 3 X s 1294 1218 m 3 X s 1294 1225 m 3 X s 1294 1231 m 3 X s 1292 1237 m 5 X s 1294 1243 m 3 X s 1294 1250 m 3 X s 1294 1256 m 3 X s 1294 1262 m 3 X s 1292 1268 m 5 X s 1292 1082 m 5 X s 1294 1075 m 3 X s 1294 1069 m 3 X s 1294 1063 m
 3 X s 1294 1057 m 3 X s 1292 1268 m 5 X s 1294 1274 m 3 X s 1294 1281 m 3 X s 1038 1197 1084 1156 1178 1181 1271 1142 4 { m21} R 1038 1208 m 57 Y s 1032 1265 m 11 X s 1038 1185 m -57 Y s 1032 1128 m 11 X s 1084 1167 m 57 Y s 1079 1224 m 11 X s 1084
 1144 m -57 Y s 1079 1087 m 11 X s 1178 1193 m 57 Y s 1172 1250 m 12 X s 1178 1170 m -57 Y s 1172 1113 m 12 X s 1271 1153 m 57 Y s 1266 1210 m 11 X s 1271 1131 m -57 Y s 1266 1074 m 11 X s 9 lw 0.95 0.95 0.95 c black 993 1206 m 3 -1 d 3 -1 d 3 X 3 -1
 d 3 -1 d 3 X 3 -1 d 3 -1 d 3 -1 d 3 X 3 -1 d 3 -1 d 3 X 3 -1 d 3 -1 d 4 X 3 -1 d 3 -1 d 3 X 3 -1 d 3 -1 d 3 X 3 -1 d 3 -1 d 3 X 3 -1 d 3 -1 d 3 X 3 -1 d 3 -1 d 3 X 3 -1 d 4 -1 d 3 -1 d 3 X 3 -1 d 3 -1 d 3 X 3 -1 d 3 -1 d 3 X 3 -1 d 3 -1 d 3 X 3 -1 d
 3 -1 d 3 X 3 -1 d 4 -1 d s 1143 1172 m 3 X 3 -1 d 3 -1 d 3 X 3 -1 d 3 -1 d 3 -1 d 3 X 3 -1 d 3 -1 d 3 X 3 -1 d 3 -1 d 3 X 3 -1 d 4 -1 d 3 X 3 -1 d 3 -1 d 3 X 3 -1 d 3 -1 d 3 X 3 -1 d 3 -1 d 3 X 3 -1 d 3 -1 d 3 -1 d 3 X 3 -1 d 3 -1 d 4 X 3 -1 d 3 -1
 d 3 X 3 -1 d 3 -1 d 3 X 3 -1 d 3 -1 d 3 X 3 -1 d 3 -1 d 3 X 3 -1 d 3 -1 d 3 X 4 -1 d s 1293 1139 m 3 -1 d s 0.49 0.6 0.82 c black 0.49 0.6 0.82 c
 gsave  408 305 930 1009 C 1051.24 1293.4 t 0 r /Helvetica-Bold findfont 25.6831 sf 0 0 m (1.0 < E < 1.5 GeV) show NC gr  0.52 0.76 0.64 c black 0.52 0.76 0.64 c
 gsave  408 305 930 1009 C 1031.3 1256.36 t 0 r /Helvetica-Bold findfont 25.6831 sf 0 0 m 
 228 214 200 193 178 171 156 149 133 126 119 105 91 77 69 55 47 39 25 17
(A = \2550.001, p = 1.000) K NC gr  1 0.6 1 c black 1 0.6 1 c
 gsave  408 305 930 1009 C 1336.13 1122.46 t 90 r /Helvetica-Bold findfont 28.5368 sf 0 0 m (/dof=0.1) show NC gr  black 1 0.6 1 c
 gsave  408 305 930 1009 C 1324.73 1111.07 t 90 r /Helvetica-Bold findfont 19.9758 sf 0 0 m (2) show NC gr  black 1 0.6 1 c
 gsave  408 305 930 1009 C 1336.13 1093.97 t 90 r /Symbol findfont 28.5368 sf 0 0 m (c) show NC gr  black 3 lw 1 1 1 c 408 305 1383 1009 bf black 1 1 1 c black 306 229 1445 1055 bl 306 229 1445 1055 bl 1445 1055 m 306 X s 1445 1059 m -4 Y s 1538 1059
 m -4 Y s 1631 1059 m -4 Y s 1725 1059 m -4 Y s 1725 1059 m -4 Y s
 gsave  408 305 1383 1009 C 1435.84 1034.15 t 0 r /Helvetica findfont 22.8295 sf 0 0 m (0) show NC gr 
 gsave  408 305 1383 1009 C 1529.85 1034.15 t 0 r /Helvetica findfont 22.8295 sf 0 0 m (1) show NC gr 
 gsave  408 305 1383 1009 C 1621.02 1034.15 t 0 r /Helvetica findfont 22.8295 sf 0 0 m (2) show NC gr 
 gsave  408 305 1383 1009 C 1715.03 1034.15 t 0 r /Helvetica findfont 22.8295 sf 0 0 m (3) show NC gr  1445 1284 m 306 X s 1445 1280 m 4 Y s 1538 1280 m 4 Y s 1631 1280 m 4 Y s 1725 1280 m 4 Y s 1725 1280 m 4 Y s 1445 1055 m 229 Y s 1450 1056 m -5 X
 s 1447 1063 m -2 X s 1447 1070 m -2 X s 1447 1077 m -2 X s 1450 1084 m -5 X s 1447 1091 m -2 X s 1447 1098 m -2 X s 1447 1105 m -2 X s 1450 1111 m -5 X s 1447 1118 m -2 X s 1447 1125 m -2 X s 1447 1132 m -2 X s 1450 1139 m -5 X s 1447 1146 m -2 X s
 1447 1153 m -2 X s 1447 1160 m -2 X s 1450 1166 m -5 X s 1447 1173 m -2 X s 1447 1180 m -2 X s 1447 1187 m -2 X s 1450 1194 m -5 X s 1447 1201 m -2 X s 1447 1208 m -2 X s 1447 1215 m -2 X s 1450 1222 m -5 X s 1447 1228 m -2 X s 1447 1235 m -2 X s
 1447 1242 m -2 X s 1450 1249 m -5 X s 1447 1256 m -2 X s 1447 1263 m -2 X s 1447 1270 m -2 X s 1450 1277 m -5 X s 1450 1056 m -5 X s 1450 1277 m -5 X s 1447 1283 m -2 X s
 gsave  408 305 1383 1009 C 1376.01 1048.39 t 0 r /Helvetica findfont 22.8295 sf 0 0 m (\2550.012) show NC gr 
 gsave  408 305 1383 1009 C 1393.11 1076.88 t 0 r /Helvetica findfont 22.8295 sf 0 0 m (\2550.01) show NC gr 
 gsave  408 305 1383 1009 C 1376.01 1105.37 t 0 r /Helvetica findfont 22.8295 sf 0 0 m (\2550.008) show NC gr 
 gsave  408 305 1383 1009 C 1376.01 1131.01 t 0 r /Helvetica findfont 22.8295 sf 0 0 m (\2550.006) show NC gr 
 gsave  408 305 1383 1009 C 1376.01 1159.5 t 0 r /Helvetica findfont 22.8295 sf 0 0 m (\2550.004) show NC gr 
 gsave  408 305 1383 1009 C 1376.01 1187.99 t 0 r /Helvetica findfont 22.8295 sf 0 0 m (\2550.002) show NC gr 
 gsave  408 305 1383 1009 C 1427.29 1213.63 t 0 r /Helvetica findfont 22.8295 sf 0 0 m (0) show NC gr 
 gsave  408 305 1383 1009 C 1384.56 1242.12 t 0 r /Helvetica findfont 22.8295 sf 0 0 m (0.002) show NC gr 
 gsave  408 305 1383 1009 C 1384.56 1270.6 t 0 r /Helvetica findfont 22.8295 sf 0 0 m (0.004) show NC gr  1751 1055 m 229 Y s 1745 1056 m 6 X s 1748 1063 m 3 X s 1748 1070 m 3 X s 1748 1077 m 3 X s 1745 1084 m 6 X s 1748 1091 m 3 X s 1748 1098 m 3 X
 s 1748 1105 m 3 X s 1745 1111 m 6 X s 1748 1118 m 3 X s 1748 1125 m 3 X s 1748 1132 m 3 X s 1745 1139 m 6 X s 1748 1146 m 3 X s 1748 1153 m 3 X s 1748 1160 m 3 X s 1745 1166 m 6 X s 1748 1173 m 3 X s 1748 1180 m 3 X s 1748 1187 m 3 X s 1745 1194 m 6
 X s 1748 1201 m 3 X s 1748 1208 m 3 X s 1748 1215 m 3 X s 1745 1222 m 6 X s 1748 1228 m 3 X s 1748 1235 m 3 X s 1748 1242 m 3 X s 1745 1249 m 6 X s 1748 1256 m 3 X s 1748 1263 m 3 X s 1748 1270 m 3 X s 1745 1277 m 6 X s 1745 1056 m 6 X s 1745 1277 m
 6 X s 1748 1283 m 3 X s 1491 1190 1538 1234 1631 1227 1725 1105 4 { m21} R 1491 1201 m 20 Y s 1486 1221 m 11 X s 1491 1178 m -19 Y s 1486 1159 m 11 X s 1538 1245 m 20 Y s 1532 1265 m 12 X s 1538 1222 m -19 Y s 1532 1203 m 12 X s 1631 1238 m 20 Y s
 1626 1258 m 11 X s 1631 1215 m -19 Y s 1626 1196 m 11 X s 1725 1116 m 19 Y s 1719 1135 m 12 X s 1725 1093 m -19 Y s 1719 1074 m 12 X s 1 0 0 c 9 lw 0.95 0.95 0.95 c black 1 0 0 c 1446 1222 m 3 X 3 -1 d 22 X 3 -1 d 6 X 3 -1 d 6 X 3 -1 d 6 X 3 -1 d 3
 X 3 -1 d 3 X 3 -1 d 4 X 3 -1 d 3 X 3 -1 d 3 -1 d 3 X 3 -1 d 3 -1 d 3 X 3 -1 d 3 -1 d 3 -1 d 3 -1 d 3 X 3 -1 d 3 -1 d 4 -1 d 3 -1 d 3 -1 d 3 -1 d 3 -1 d 3 -1 d 3 -1 d 3 -1 d 3 -1 d 3 -1 d s 1596 1194 m 3 -1 d 3 -1 d 3 -2 d 3 -1 d 3 -1 d 3 -1 d 4 -1 d
 3 -2 d 3 -1 d 3 -1 d 3 -2 d 3 -1 d 3 -2 d 3 -1 d 3 -1 d 3 -2 d 3 -1 d 3 -2 d 3 -1 d 3 -2 d 3 -2 d 3 -1 d 3 -2 d 4 -1 d 3 -2 d 3 -2 d 3 -2 d 3 -1 d 3 -2 d 3 -2 d 3 -2 d 3 -1 d 3 -2 d 3 -2 d 3 -2 d 3 -2 d 3 -2 d 3 -2 d 3 -2 d 4 -2 d 3 -2 d 3 -2 d 3 -2
 d 3 -2 d 3 -2 d 3 -2 d 3 -3 d 3 -2 d 3 -2 d s 1746 1112 m 3 -2 d s 0.49 0.6 0.82 c black 0.49 0.6 0.82 c
 gsave  408 305 1383 1009 C 1504.21 1293.4 t 0 r /Helvetica-Bold findfont 25.6831 sf 0 0 m (1.5 < E < 2.0 GeV) show NC gr  0.52 0.76 0.64 c black 0.52 0.76 0.64 c
 gsave  408 305 1383 1009 C 1484.27 1256.36 t 0 r /Helvetica-Bold findfont 25.6831 sf 0 0 m 
 228 214 200 193 178 171 156 149 134 126 119 105 91 77 69 55 47 40 25 17
(A = \2550.001, p = 2.000) K NC gr  1 0.6 1 c black 1 0.6 1 c
 gsave  408 305 1383 1009 C 1789.1 1122.46 t 90 r /Helvetica-Bold findfont 28.5368 sf 0 0 m (/dof=1.4) show NC gr  black 1 0.6 1 c
 gsave  408 305 1383 1009 C 1777.71 1111.07 t 90 r /Helvetica-Bold findfont 19.9758 sf 0 0 m (2) show NC gr  black 1 0.6 1 c
 gsave  408 305 1383 1009 C 1789.1 1093.97 t 90 r /Symbol findfont 28.5368 sf 0 0 m (c) show NC gr  black 3 lw 1 1 1 c 408 305 1837 1009 bf black 1 1 1 c black 306 229 1898 1055 bl 306 229 1898 1055 bl 1898 1055 m 306 X s 1898 1059 m -4 Y s 1992 1059
 m -4 Y s 2085 1059 m -4 Y s 2179 1059 m -4 Y s 2179 1059 m -4 Y s
 gsave  408 305 1837 1009 C 1888.81 1034.15 t 0 r /Helvetica findfont 22.8295 sf 0 0 m (0) show NC gr 
 gsave  408 305 1837 1009 C 1985.68 1034.15 t 0 r /Helvetica findfont 22.8295 sf 0 0 m (1) show NC gr 
 gsave  408 305 1837 1009 C 2073.99 1034.15 t 0 r /Helvetica findfont 22.8295 sf 0 0 m (2) show NC gr 
 gsave  408 305 1837 1009 C 2168.01 1034.15 t 0 r /Helvetica findfont 22.8295 sf 0 0 m (3) show NC gr  1898 1284 m 306 X s 1898 1280 m 4 Y s 1992 1280 m 4 Y s 2085 1280 m 4 Y s 2179 1280 m 4 Y s 2179 1280 m 4 Y s 1898 1055 m 229 Y s 1904 1082 m -6 X
 s 1901 1089 m -3 X s 1901 1097 m -3 X s 1901 1105 m -3 X s 1904 1113 m -6 X s 1901 1120 m -3 X s 1901 1128 m -3 X s 1901 1136 m -3 X s 1904 1144 m -6 X s 1901 1151 m -3 X s 1901 1159 m -3 X s 1901 1167 m -3 X s 1904 1175 m -6 X s 1901 1182 m -3 X s
 1901 1190 m -3 X s 1901 1198 m -3 X s 1904 1206 m -6 X s 1901 1213 m -3 X s 1901 1221 m -3 X s 1901 1229 m -3 X s 1904 1237 m -6 X s 1901 1244 m -3 X s 1901 1252 m -3 X s 1901 1260 m -3 X s 1904 1268 m -6 X s 1904 1082 m -6 X s 1901 1074 m -3 X s
 1901 1066 m -3 X s 1901 1058 m -3 X s 1904 1268 m -6 X s 1901 1276 m -3 X s 1901 1283 m -3 X s
 gsave  408 305 1837 1009 C 1828.99 1074.03 t 0 r /Helvetica findfont 22.8295 sf 0 0 m (\2550.006) show NC gr 
 gsave  408 305 1837 1009 C 1828.99 1105.37 t 0 r /Helvetica findfont 22.8295 sf 0 0 m (\2550.004) show NC gr 
 gsave  408 305 1837 1009 C 1828.99 1136.71 t 0 r /Helvetica findfont 22.8295 sf 0 0 m (\2550.002) show NC gr 
 gsave  408 305 1837 1009 C 1880.27 1168.04 t 0 r /Helvetica findfont 22.8295 sf 0 0 m (0) show NC gr 
 gsave  408 305 1837 1009 C 1837.53 1199.38 t 0 r /Helvetica findfont 22.8295 sf 0 0 m (0.002) show NC gr 
 gsave  408 305 1837 1009 C 1837.53 1230.72 t 0 r /Helvetica findfont 22.8295 sf 0 0 m (0.004) show NC gr 
 gsave  408 305 1837 1009 C 1837.53 1262.06 t 0 r /Helvetica findfont 22.8295 sf 0 0 m (0.006) show NC gr  2204 1055 m 229 Y s 2199 1082 m 5 X s 2201 1089 m 3 X s 2201 1097 m 3 X s 2201 1105 m 3 X s 2199 1113 m 5 X s 2201 1120 m 3 X s 2201 1128 m 3 X
 s 2201 1136 m 3 X s 2199 1144 m 5 X s 2201 1151 m 3 X s 2201 1159 m 3 X s 2201 1167 m 3 X s 2199 1175 m 5 X s 2201 1182 m 3 X s 2201 1190 m 3 X s 2201 1198 m 3 X s 2199 1206 m 5 X s 2201 1213 m 3 X s 2201 1221 m 3 X s 2201 1229 m 3 X s 2199 1237 m 5
 X s 2201 1244 m 3 X s 2201 1252 m 3 X s 2201 1260 m 3 X s 2199 1268 m 5 X s 2199 1082 m 5 X s 2201 1074 m 3 X s 2201 1066 m 3 X s 2201 1058 m 3 X s 2199 1268 m 5 X s 2201 1276 m 3 X s 2201 1283 m 3 X s 1945 1188 1992 1228 2085 1121 2179 1109 4 {
 m21} R 1945 1200 m 24 Y s 1939 1224 m 12 X s 1945 1177 m -25 Y s 1939 1152 m 12 X s 1992 1240 m 25 Y s 1986 1265 m 11 X s 1992 1217 m -25 Y s 1986 1192 m 11 X s 2085 1133 m 24 Y s 2079 1157 m 12 X s 2085 1110 m -24 Y s 2079 1086 m 12 X s 2179 1121 m
 24 Y s 2173 1145 m 11 X s 2179 1098 m -24 Y s 2173 1074 m 11 X s 1 0 0 c 9 lw 0.95 0.95 0.95 c black 1 0 0 c 1900 1175 m 12 X 3 -1 d 18 X 3 -1 d 10 X 3 -1 d 9 X 3 -1 d 6 X 3 -1 d 3 X 3 -1 d 6 X 3 -1 d 3 X 3 -1 d 4 X 3 -1 d 3 X 3 -1 d 3 -1 d 3 X 3 -1
 d 3 X 3 -1 d 3 -1 d 3 X 3 -1 d 3 -1 d 3 X 3 -1 d 3 -1 d 3 -1 d 4 X 3 -1 d s 2050 1155 m 3 -1 d 3 -1 d 3 -1 d 3 -1 d 3 X 3 -1 d 3 -1 d 3 -1 d 3 -1 d 3 -1 d 3 -1 d 3 -1 d 3 -1 d 3 -1 d 4 -1 d 3 -1 d 3 -1 d 3 -1 d 3 -2 d 3 -1 d 3 -1 d 3 -1 d 3 -1 d 3
 -1 d 3 -1 d 3 -2 d 3 -1 d 3 -1 d 3 -1 d 3 -2 d 4 -1 d 3 -1 d 3 -2 d 3 -1 d 3 -1 d 3 -2 d 3 -1 d 3 -2 d 3 -1 d 3 -2 d 3 -1 d 3 -1 d 3 -2 d 3 -1 d 3 -2 d 3 -2 d 4 -1 d 3 -2 d 3 -1 d s 2200 1096 m 3 -2 d s 0.49 0.6 0.82 c black 0.49 0.6 0.82 c
 gsave  408 305 1837 1009 C 1957.19 1293.4 t 0 r /Helvetica-Bold findfont 25.6831 sf 0 0 m (2.0 < E < 2.5 GeV) show NC gr  0.52 0.76 0.64 c black 0.52 0.76 0.64 c
 gsave  408 305 1837 1009 C 1937.25 1256.36 t 0 r /Helvetica-Bold findfont 25.6831 sf 0 0 m 
 228 214 200 193 178 171 156 149 133 126 119 105 91 77 69 55 47 39 25 17
(A = \2550.000, p = 2.000) K NC gr  1 0.6 1 c black 1 0.6 1 c
 gsave  408 305 1837 1009 C 2242.08 1122.46 t 90 r /Helvetica-Bold findfont 28.5368 sf 0 0 m (/dof=1.2) show NC gr  black 1 0.6 1 c
 gsave  408 305 1837 1009 C 2230.68 1111.07 t 90 r /Helvetica-Bold findfont 19.9758 sf 0 0 m (2) show NC gr  black 1 0.6 1 c
 gsave  408 305 1837 1009 C 2242.08 1093.97 t 90 r /Symbol findfont 28.5368 sf 0 0 m (c) show NC gr  black 3 lw 1 1 1 c 408 305 23 677 bf black 1 1 1 c black 306 229 84 723 bl 306 229 84 723 bl 84 723 m 306 X s 84 727 m -4 Y s 177 727 m -4 Y s 271
 727 m -4 Y s 364 727 m -4 Y s 364 727 m -4 Y s
 gsave  408 305 23 677 C 74.0711 703.676 t 0 r /Helvetica findfont 22.8295 sf 0 0 m (0) show NC gr 
 gsave  408 305 23 677 C 170.933 703.676 t 0 r /Helvetica findfont 22.8295 sf 0 0 m (1) show NC gr 
 gsave  408 305 23 677 C 262.098 703.676 t 0 r /Helvetica findfont 22.8295 sf 0 0 m (2) show NC gr 
 gsave  408 305 23 677 C 353.262 703.676 t 0 r /Helvetica findfont 22.8295 sf 0 0 m (3) show NC gr  84 952 m 306 X s 84 948 m 4 Y s 177 948 m 4 Y s 271 948 m 4 Y s 364 948 m 4 Y s 364 948 m 4 Y s 84 723 m 229 Y s 89 741 m -5 X s 87 746 m -3 X s 87
 752 m -3 X s 87 757 m -3 X s 87 762 m -3 X s 89 767 m -5 X s 87 772 m -3 X s 87 778 m -3 X s 87 783 m -3 X s 87 788 m -3 X s 89 793 m -5 X s 87 798 m -3 X s 87 804 m -3 X s 87 809 m -3 X s 87 814 m -3 X s 89 819 m -5 X s 87 824 m -3 X s 87 830 m -3
 X s 87 835 m -3 X s 87 840 m -3 X s 89 845 m -5 X s 87 850 m -3 X s 87 856 m -3 X s 87 861 m -3 X s 87 866 m -3 X s 89 871 m -5 X s 87 876 m -3 X s 87 882 m -3 X s 87 887 m -3 X s 87 892 m -3 X s 89 897 m -5 X s 87 902 m -3 X s 87 908 m -3 X s 87
 913 m -3 X s 87 918 m -3 X s 89 923 m -5 X s 87 928 m -3 X s 87 934 m -3 X s 87 939 m -3 X s 87 944 m -3 X s 89 949 m -5 X s 89 741 m -5 X s 87 736 m -3 X s 87 731 m -3 X s 87 726 m -3 X s 89 949 m -5 X s
 gsave  408 305 23 677 C 14.2445 735.014 t 0 r /Helvetica findfont 22.8295 sf 0 0 m (\2550.004) show NC gr 
 gsave  408 305 23 677 C 14.2445 760.654 t 0 r /Helvetica findfont 22.8295 sf 0 0 m (\2550.003) show NC gr 
 gsave  408 305 23 677 C 14.2445 786.294 t 0 r /Helvetica findfont 22.8295 sf 0 0 m (\2550.002) show NC gr 
 gsave  408 305 23 677 C 17.0933 811.934 t 0 r /Helvetica findfont 22.8295 sf 0 0 m (\2550.001) show NC gr 
 gsave  408 305 23 677 C 65.5245 837.574 t 0 r /Helvetica findfont 22.8295 sf 0 0 m (0) show NC gr 
 gsave  408 305 23 677 C 25.64 863.214 t 0 r /Helvetica findfont 22.8295 sf 0 0 m (0.001) show NC gr 
 gsave  408 305 23 677 C 22.7911 888.854 t 0 r /Helvetica findfont 22.8295 sf 0 0 m (0.002) show NC gr 
 gsave  408 305 23 677 C 22.7911 917.343 t 0 r /Helvetica findfont 22.8295 sf 0 0 m (0.003) show NC gr 
 gsave  408 305 23 677 C 22.7911 942.983 t 0 r /Helvetica findfont 22.8295 sf 0 0 m (0.004) show NC gr  390 723 m 229 Y s 385 741 m 5 X s 387 746 m 3 X s 387 752 m 3 X s 387 757 m 3 X s 387 762 m 3 X s 385 767 m 5 X s 387 772 m 3 X s 387 778 m 3 X s
 387 783 m 3 X s 387 788 m 3 X s 385 793 m 5 X s 387 798 m 3 X s 387 804 m 3 X s 387 809 m 3 X s 387 814 m 3 X s 385 819 m 5 X s 387 824 m 3 X s 387 830 m 3 X s 387 835 m 3 X s 387 840 m 3 X s 385 845 m 5 X s 387 850 m 3 X s 387 856 m 3 X s 387 861 m
 3 X s 387 866 m 3 X s 385 871 m 5 X s 387 876 m 3 X s 387 882 m 3 X s 387 887 m 3 X s 387 892 m 3 X s 385 897 m 5 X s 387 902 m 3 X s 387 908 m 3 X s 387 913 m 3 X s 387 918 m 3 X s 385 923 m 5 X s 387 928 m 3 X s 387 934 m 3 X s 387 939 m 3 X s 387
 944 m 3 X s 385 949 m 5 X s 385 741 m 5 X s 387 736 m 3 X s 387 731 m 3 X s 387 726 m 3 X s 385 949 m 5 X s /w 22 def /w2 {w 2 div} def /w3 {w 3 div} def 131 852 177 870 271 835 364 805 4 { m21} R 131 863 m 53 Y s 125 916 m 11 X s 131 841 m -53 Y s
 125 788 m 11 X s 177 881 m 52 Y s 172 933 m 11 X s 177 858 m -51 Y s 172 807 m 11 X s 271 846 m 52 Y s 265 898 m 12 X s 271 823 m -51 Y s 265 772 m 12 X s 364 817 m 52 Y s 359 869 m 11 X s 364 794 m -52 Y s 359 742 m 11 X s 1 0 0 c 9 lw 0.95 0.95
 0.95 c black 1 0 0 c 85 845 m 37 X 3 -1 d 22 X 3 -1 d 12 X 3 -1 d 9 X 3 -1 d 9 X 4 -1 d 6 X 3 -1 d 9 X 3 -1 d 3 X 3 -1 d 6 X 3 -1 d 6 X 3 -1 d s 235 835 m 4 X 3 -1 d 6 X 3 -1 d 3 X 3 -1 d 3 X 3 -1 d 3 X 3 -1 d 3 X 3 -1 d 3 X 3 -1 d 3 X 3 -1 d 4 X 3
 -1 d 3 -1 d 3 X 3 -1 d 3 X 3 -1 d 3 X 3 -1 d 3 -1 d 3 X 3 -1 d 3 -1 d 3 X 3 -1 d 3 -1 d 4 X 3 -1 d 3 -1 d 3 X 3 -1 d 3 -1 d 3 -1 d 3 X 3 -1 d 3 -1 d 3 -1 d 3 X 3 -1 d 3 -1 d 3 -1 d 3 X s 385 806 m 4 -1 d s 0.49 0.6 0.82 c black 0.49 0.6 0.82 c
 gsave  408 305 23 677 C 142.445 960.076 t 0 r /Helvetica-Bold findfont 25.6831 sf 0 0 m (2.5 < E < 3.0 GeV) show NC gr  0.52 0.76 0.64 c black 0.52 0.76 0.64 c
 gsave  408 305 23 677 C 122.502 923.04 t 0 r /Helvetica-Bold findfont 25.6831 sf 0 0 m 
 228 214 200 193 178 171 156 149 134 126 119 105 91 77 69 55 47 39 25 17
(A = \2550.000, p = 2.000) K NC gr  1 0.6 1 c black 1 0.6 1 c
 gsave  408 305 23 677 C 427.334 791.991 t 90 r /Helvetica-Bold findfont 28.5368 sf 0 0 m (/dof=0.1) show NC gr  black 1 0.6 1 c
 gsave  408 305 23 677 C 415.938 780.596 t 90 r /Helvetica-Bold findfont 19.9758 sf 0 0 m (2) show NC gr  black 1 0.6 1 c
 gsave  408 305 23 677 C 427.334 763.503 t 90 r /Symbol findfont 28.5368 sf 0 0 m (c) show NC gr  black 3 lw 1 1 1 c 408 305 476 677 bf black 1 1 1 c black 307 229 537 723 bl 307 229 537 723 bl 537 723 m 307 X s 537 727 m -4 Y s 631 727 m -4 Y s 724
 727 m -4 Y s 818 727 m -4 Y s 818 727 m -4 Y s
 gsave  408 305 476 677 C 527.045 703.676 t 0 r /Helvetica findfont 22.8295 sf 0 0 m (0) show NC gr 
 gsave  408 305 476 677 C 623.907 703.676 t 0 r /Helvetica findfont 22.8295 sf 0 0 m (1) show NC gr 
 gsave  408 305 476 677 C 715.071 703.676 t 0 r /Helvetica findfont 22.8295 sf 0 0 m (2) show NC gr 
 gsave  408 305 476 677 C 809.085 703.676 t 0 r /Helvetica findfont 22.8295 sf 0 0 m (3) show NC gr  537 952 m 307 X s 537 948 m 4 Y s 631 948 m 4 Y s 724 948 m 4 Y s 818 948 m 4 Y s 818 948 m 4 Y s 537 723 m 229 Y s 543 744 m -6 X s 540 751 m -3 X s
 540 757 m -3 X s 540 763 m -3 X s 540 769 m -3 X s 543 775 m -6 X s 540 781 m -3 X s 540 787 m -3 X s 540 794 m -3 X s 540 800 m -3 X s 543 806 m -6 X s 540 812 m -3 X s 540 818 m -3 X s 540 824 m -3 X s 540 830 m -3 X s 543 836 m -6 X s 540 843 m
 -3 X s 540 849 m -3 X s 540 855 m -3 X s 540 861 m -3 X s 543 867 m -6 X s 540 873 m -3 X s 540 879 m -3 X s 540 885 m -3 X s 540 892 m -3 X s 543 898 m -6 X s 540 904 m -3 X s 540 910 m -3 X s 540 916 m -3 X s 540 922 m -3 X s 543 928 m -6 X s 543
 744 m -6 X s 540 738 m -3 X s 540 732 m -3 X s 540 726 m -3 X s 543 928 m -6 X s 540 935 m -3 X s 540 941 m -3 X s 540 947 m -3 X s
 gsave  408 305 476 677 C 467.218 737.863 t 0 r /Helvetica findfont 22.8295 sf 0 0 m (\2550.004) show NC gr 
 gsave  408 305 476 677 C 467.218 769.2 t 0 r /Helvetica findfont 22.8295 sf 0 0 m (\2550.003) show NC gr 
 gsave  408 305 476 677 C 467.218 797.689 t 0 r /Helvetica findfont 22.8295 sf 0 0 m (\2550.002) show NC gr 
 gsave  408 305 476 677 C 470.067 829.027 t 0 r /Helvetica findfont 22.8295 sf 0 0 m (\2550.001) show NC gr 
 gsave  408 305 476 677 C 518.498 860.365 t 0 r /Helvetica findfont 22.8295 sf 0 0 m (0) show NC gr 
 gsave  408 305 476 677 C 478.614 891.703 t 0 r /Helvetica findfont 22.8295 sf 0 0 m (0.001) show NC gr 
 gsave  408 305 476 677 C 475.765 920.192 t 0 r /Helvetica findfont 22.8295 sf 0 0 m (0.002) show NC gr  844 723 m 229 Y s 838 744 m 6 X s 841 751 m 3 X s 841 757 m 3 X s 841 763 m 3 X s 841 769 m 3 X s 838 775 m 6 X s 841 781 m 3 X s 841 787 m 3 X s
 841 794 m 3 X s 841 800 m 3 X s 838 806 m 6 X s 841 812 m 3 X s 841 818 m 3 X s 841 824 m 3 X s 841 830 m 3 X s 838 836 m 6 X s 841 843 m 3 X s 841 849 m 3 X s 841 855 m 3 X s 841 861 m 3 X s 838 867 m 6 X s 841 873 m 3 X s 841 879 m 3 X s 841 885 m
 3 X s 841 892 m 3 X s 838 898 m 6 X s 841 904 m 3 X s 841 910 m 3 X s 841 916 m 3 X s 841 922 m 3 X s 838 928 m 6 X s 838 744 m 6 X s 841 738 m 3 X s 841 732 m 3 X s 841 726 m 3 X s 838 928 m 6 X s 841 935 m 3 X s 841 941 m 3 X s 841 947 m 3 X s /w
 23 def /w2 {w 2 div} def /w3 {w 3 div} def 584 850 631 823 724 846 818 851 4 { m21} R 584 861 m 70 Y s 578 931 m 12 X s 584 838 m -70 Y s 578 768 m 12 X s 631 834 m 70 Y s 625 904 m 12 X s 631 812 m -70 Y s 625 742 m 12 X s 724 858 m 70 Y s 719 928
 m 11 X s 724 835 m -70 Y s 719 765 m 11 X s 818 863 m 70 Y s 812 933 m 12 X s 818 840 m -70 Y s 812 770 m 12 X s 9 lw 0.95 0.95 0.95 c black 539 867 m 3 X 3 -1 d 6 X 3 -1 d 6 X 3 -1 d 7 X 3 -1 d 6 X 3 -1 d 6 X 3 -1 d 6 X 3 -1 d 6 X 3 -1 d 7 X 3 -1 d
 6 X 3 -1 d 9 X 3 -1 d 6 X 3 -1 d 6 X 3 -1 d 6 X 4 -1 d 6 X 3 -1 d 6 X 3 -1 d 3 X s 689 851 m 3 X 3 -1 d 6 X 3 -1 d 6 X 3 -1 d 7 X 3 -1 d 6 X 3 -1 d 6 X 3 -1 d 6 X 3 -1 d 9 X 3 -1 d 7 X 3 -1 d 6 X 3 -1 d 6 X 3 -1 d 6 X 3 -1 d 6 X 3 -1 d 7 X 3 -1 d 6
 X 3 -1 d 6 X 3 -1 d 3 X s 839 835 m 3 X s 0.49 0.6 0.82 c black 0.49 0.6 0.82 c
 gsave  408 305 476 677 C 595.418 960.076 t 0 r /Helvetica-Bold findfont 25.6831 sf 0 0 m (3.0 < E < 3.5 GeV) show NC gr  0.52 0.76 0.64 c black 0.52 0.76 0.64 c
 gsave  408 305 476 677 C 575.476 923.04 t 0 r /Helvetica-Bold findfont 25.6831 sf 0 0 m 
 228 214 200 193 178 171 156 149 133 126 119 105 91 76 69 55 47 39 25 17
(A = \2550.000, p = 1.000) K NC gr  1 0.6 1 c black 1 0.6 1 c
 gsave  408 305 476 677 C 883.156 791.991 t 90 r /Helvetica-Bold findfont 28.5368 sf 0 0 m (/dof=0.1) show NC gr  black 1 0.6 1 c
 gsave  408 305 476 677 C 871.76 780.596 t 90 r /Helvetica-Bold findfont 19.9758 sf 0 0 m (2) show NC gr  black 1 0.6 1 c
 gsave  408 305 476 677 C 883.156 763.503 t 90 r /Symbol findfont 28.5368 sf 0 0 m (c) show NC gr  black 3 lw 1 1 1 c 408 305 930 677 bf black 1 1 1 c black 306 229 991 723 bl 306 229 991 723 bl 991 723 m 306 X s 991 727 m -4 Y s 1084 727 m -4 Y s
 1178 727 m -4 Y s 1271 727 m -4 Y s 1271 727 m -4 Y s
 gsave  408 305 930 677 C 980.018 703.676 t 0 r /Helvetica findfont 22.8295 sf 0 0 m (0) show NC gr 
 gsave  408 305 930 677 C 1076.88 703.676 t 0 r /Helvetica findfont 22.8295 sf 0 0 m (1) show NC gr 
 gsave  408 305 930 677 C 1168.04 703.676 t 0 r /Helvetica findfont 22.8295 sf 0 0 m (2) show NC gr 
 gsave  408 305 930 677 C 1262.06 703.676 t 0 r /Helvetica findfont 22.8295 sf 0 0 m (3) show NC gr  991 952 m 306 X s 991 948 m 4 Y s 1084 948 m 4 Y s 1178 948 m 4 Y s 1271 948 m 4 Y s 1271 948 m 4 Y s 991 723 m 229 Y s 997 724 m -6 X s 994 729 m -3
 X s 994 735 m -3 X s 994 741 m -3 X s 997 747 m -6 X s 994 753 m -3 X s 994 759 m -3 X s 994 764 m -3 X s 997 770 m -6 X s 994 776 m -3 X s 994 782 m -3 X s 994 788 m -3 X s 997 794 m -6 X s 994 799 m -3 X s 994 805 m -3 X s 994 811 m -3 X s 997 817
 m -6 X s 994 823 m -3 X s 994 829 m -3 X s 994 834 m -3 X s 997 840 m -6 X s 994 846 m -3 X s 994 852 m -3 X s 994 858 m -3 X s 997 864 m -6 X s 994 869 m -3 X s 994 875 m -3 X s 994 881 m -3 X s 997 887 m -6 X s 994 893 m -3 X s 994 899 m -3 X s
 994 904 m -3 X s 997 910 m -6 X s 994 916 m -3 X s 994 922 m -3 X s 994 928 m -3 X s 997 934 m -6 X s 997 724 m -6 X s 997 934 m -6 X s 994 939 m -3 X s 994 945 m -3 X s 994 951 m -3 X s
 gsave  408 305 930 677 C 923.04 715.071 t 0 r /Helvetica findfont 22.8295 sf 0 0 m (\2550.012) show NC gr 
 gsave  408 305 930 677 C 940.134 740.711 t 0 r /Helvetica findfont 22.8295 sf 0 0 m (\2550.01) show NC gr 
 gsave  408 305 930 677 C 923.04 763.503 t 0 r /Helvetica findfont 22.8295 sf 0 0 m (\2550.008) show NC gr 
 gsave  408 305 930 677 C 923.04 786.294 t 0 r /Helvetica findfont 22.8295 sf 0 0 m (\2550.006) show NC gr 
 gsave  408 305 930 677 C 923.04 809.085 t 0 r /Helvetica findfont 22.8295 sf 0 0 m (\2550.004) show NC gr 
 gsave  408 305 930 677 C 923.04 831.876 t 0 r /Helvetica findfont 22.8295 sf 0 0 m (\2550.002) show NC gr 
 gsave  408 305 930 677 C 974.32 857.516 t 0 r /Helvetica findfont 22.8295 sf 0 0 m (0) show NC gr 
 gsave  408 305 930 677 C 931.587 880.307 t 0 r /Helvetica findfont 22.8295 sf 0 0 m (0.002) show NC gr 
 gsave  408 305 930 677 C 931.587 903.098 t 0 r /Helvetica findfont 22.8295 sf 0 0 m (0.004) show NC gr 
 gsave  408 305 930 677 C 931.587 925.889 t 0 r /Helvetica findfont 22.8295 sf 0 0 m (0.006) show NC gr  1297 723 m 229 Y s 1292 724 m 5 X s 1294 729 m 3 X s 1294 735 m 3 X s 1294 741 m 3 X s 1292 747 m 5 X s 1294 753 m 3 X s 1294 759 m 3 X s 1294
 764 m 3 X s 1292 770 m 5 X s 1294 776 m 3 X s 1294 782 m 3 X s 1294 788 m 3 X s 1292 794 m 5 X s 1294 799 m 3 X s 1294 805 m 3 X s 1294 811 m 3 X s 1292 817 m 5 X s 1294 823 m 3 X s 1294 829 m 3 X s 1294 834 m 3 X s 1292 840 m 5 X s 1294 846 m 3 X s
 1294 852 m 3 X s 1294 858 m 3 X s 1292 864 m 5 X s 1294 869 m 3 X s 1294 875 m 3 X s 1294 881 m 3 X s 1292 887 m 5 X s 1294 893 m 3 X s 1294 899 m 3 X s 1294 904 m 3 X s 1292 910 m 5 X s 1294 916 m 3 X s 1294 922 m 3 X s 1294 928 m 3 X s 1292 934 m
 5 X s 1292 724 m 5 X s 1292 934 m 5 X s 1294 939 m 3 X s 1294 945 m 3 X s 1294 951 m 3 X s 1038 881 1084 897 1178 811 1271 778 4 { m21} R 1038 892 m 25 Y s 1032 917 m 11 X s 1038 869 m -25 Y s 1032 844 m 11 X s 1084 908 m 25 Y s 1079 933 m 11 X s
 1084 885 m -25 Y s 1079 860 m 11 X s 1178 822 m 25 Y s 1172 847 m 12 X s 1178 800 m -25 Y s 1172 775 m 12 X s 1271 789 m 25 Y s 1266 814 m 11 X s 1271 767 m -25 Y s 1266 742 m 11 X s 1 0 0 c 9 lw 0.95 0.95 0.95 c black 1 0 0 c 993 864 m 6 X 3 -1 d
 18 X 3 -1 d 9 X 3 -1 d 7 X 3 -1 d 6 X 3 -1 d 3 X 3 -1 d 3 X 3 -1 d 3 X 3 -1 d 3 X 3 -1 d 3 X 3 -1 d 3 -1 d 3 X 4 -1 d 3 -1 d 3 X 3 -1 d 3 -1 d 3 -1 d 3 -1 d 3 X 3 -1 d 3 -1 d 3 -1 d 3 -1 d 3 -1 d 3 -1 d 3 -1 d 3 -1 d 4 -1 d s 1143 838 m 3 -1 d 3 -1
 d 3 -1 d 3 -1 d 3 -1 d 3 -1 d 3 -1 d 3 -2 d 3 -1 d 3 -1 d 3 -1 d 3 -1 d 3 -2 d 3 -1 d 3 -1 d 4 -2 d 3 -1 d 3 -1 d 3 -2 d 3 -1 d 3 -2 d 3 -1 d 3 -2 d 3 -1 d 3 -2 d 3 -1 d 3 -2 d 3 -1 d 3 -2 d 3 -2 d 3 -1 d 3 -2 d 4 -2 d 3 -1 d 3 -2 d 3 -2 d 3 -2 d 3
 -2 d 3 -1 d 3 -2 d 3 -2 d 3 -2 d 3 -2 d 3 -2 d 3 -2 d 3 -2 d 3 -2 d 3 -2 d 4 -2 d s 1293 763 m 3 -2 d s 0.49 0.6 0.82 c black 0.49 0.6 0.82 c
 gsave  408 305 930 677 C 1051.24 960.076 t 0 r /Helvetica-Bold findfont 25.6831 sf 0 0 m (3.5 < E < 4.0 GeV) show NC gr  0.52 0.76 0.64 c black 0.52 0.76 0.64 c
 gsave  408 305 930 677 C 1031.3 923.04 t 0 r /Helvetica-Bold findfont 25.6831 sf 0 0 m 
 228 214 200 193 178 171 156 149 133 126 119 105 91 77 69 55 47 39 25 17
(A = \2550.001, p = 2.000) K NC gr  1 0.6 1 c black 1 0.6 1 c
 gsave  408 305 930 677 C 1336.13 791.991 t 90 r /Helvetica-Bold findfont 28.5368 sf 0 0 m (/dof=0.6) show NC gr  black 1 0.6 1 c
 gsave  408 305 930 677 C 1324.73 780.596 t 90 r /Helvetica-Bold findfont 19.9758 sf 0 0 m (2) show NC gr  black 1 0.6 1 c
 gsave  408 305 930 677 C 1336.13 763.503 t 90 r /Symbol findfont 28.5368 sf 0 0 m (c) show NC gr  black 3 lw 1 1 1 c 408 305 1383 677 bf black 1 1 1 c black 306 229 1445 723 bl 306 229 1445 723 bl 1445 723 m 306 X s 1445 727 m -4 Y s 1538 727 m -4 Y
 s 1631 727 m -4 Y s 1725 727 m -4 Y s 1725 727 m -4 Y s
 gsave  408 305 1383 677 C 1435.84 703.676 t 0 r /Helvetica findfont 22.8295 sf 0 0 m (0) show NC gr 
 gsave  408 305 1383 677 C 1529.85 703.676 t 0 r /Helvetica findfont 22.8295 sf 0 0 m (1) show NC gr 
 gsave  408 305 1383 677 C 1621.02 703.676 t 0 r /Helvetica findfont 22.8295 sf 0 0 m (2) show NC gr 
 gsave  408 305 1383 677 C 1715.03 703.676 t 0 r /Helvetica findfont 22.8295 sf 0 0 m (3) show NC gr  1445 952 m 306 X s 1445 948 m 4 Y s 1538 948 m 4 Y s 1631 948 m 4 Y s 1725 948 m 4 Y s 1725 948 m 4 Y s 1445 723 m 229 Y s 1450 742 m -5 X s 1447
 748 m -2 X s 1447 754 m -2 X s 1447 760 m -2 X s 1447 765 m -2 X s 1450 771 m -5 X s 1447 777 m -2 X s 1447 783 m -2 X s 1447 789 m -2 X s 1447 794 m -2 X s 1450 800 m -5 X s 1447 806 m -2 X s 1447 812 m -2 X s 1447 818 m -2 X s 1447 824 m -2 X s
 1450 829 m -5 X s 1447 835 m -2 X s 1447 841 m -2 X s 1447 847 m -2 X s 1447 853 m -2 X s 1450 859 m -5 X s 1447 864 m -2 X s 1447 870 m -2 X s 1447 876 m -2 X s 1447 882 m -2 X s 1450 888 m -5 X s 1447 893 m -2 X s 1447 899 m -2 X s 1447 905 m -2 X
 s 1447 911 m -2 X s 1450 917 m -5 X s 1447 923 m -2 X s 1447 928 m -2 X s 1447 934 m -2 X s 1447 940 m -2 X s 1450 946 m -5 X s 1450 742 m -5 X s 1447 736 m -2 X s 1447 730 m -2 X s 1447 725 m -2 X s 1450 946 m -5 X s 1447 952 m -2 X s
 gsave  408 305 1383 677 C 1390.26 735.014 t 0 r /Helvetica findfont 22.8295 sf 0 0 m (\2550.03) show NC gr 
 gsave  408 305 1383 677 C 1376.01 763.503 t 0 r /Helvetica findfont 22.8295 sf 0 0 m (\2550.025) show NC gr 
 gsave  408 305 1383 677 C 1390.26 791.991 t 0 r /Helvetica findfont 22.8295 sf 0 0 m (\2550.02) show NC gr 
 gsave  408 305 1383 677 C 1376.01 823.329 t 0 r /Helvetica findfont 22.8295 sf 0 0 m (\2550.015) show NC gr 
 gsave  408 305 1383 677 C 1393.11 851.818 t 0 r /Helvetica findfont 22.8295 sf 0 0 m (\2550.01) show NC gr 
 gsave  408 305 1383 677 C 1376.01 880.307 t 0 r /Helvetica findfont 22.8295 sf 0 0 m (\2550.005) show NC gr 
 gsave  408 305 1383 677 C 1427.29 908.796 t 0 r /Helvetica findfont 22.8295 sf 0 0 m (0) show NC gr 
 gsave  408 305 1383 677 C 1384.56 940.134 t 0 r /Helvetica findfont 22.8295 sf 0 0 m (0.005) show NC gr  1751 723 m 229 Y s 1745 742 m 6 X s 1748 748 m 3 X s 1748 754 m 3 X s 1748 760 m 3 X s 1748 765 m 3 X s 1745 771 m 6 X s 1748 777 m 3 X s 1748
 783 m 3 X s 1748 789 m 3 X s 1748 794 m 3 X s 1745 800 m 6 X s 1748 806 m 3 X s 1748 812 m 3 X s 1748 818 m 3 X s 1748 824 m 3 X s 1745 829 m 6 X s 1748 835 m 3 X s 1748 841 m 3 X s 1748 847 m 3 X s 1748 853 m 3 X s 1745 859 m 6 X s 1748 864 m 3 X s
 1748 870 m 3 X s 1748 876 m 3 X s 1748 882 m 3 X s 1745 888 m 6 X s 1748 893 m 3 X s 1748 899 m 3 X s 1748 905 m 3 X s 1748 911 m 3 X s 1745 917 m 6 X s 1748 923 m 3 X s 1748 928 m 3 X s 1748 934 m 3 X s 1748 940 m 3 X s 1745 946 m 6 X s 1745 742 m
 6 X s 1748 736 m 3 X s 1748 730 m 3 X s 1748 725 m 3 X s 1745 946 m 6 X s 1748 952 m 3 X s 1491 910 1538 895 1631 893 1725 765 4 { m21} R 1491 921 m 12 Y s 1486 933 m 11 X s 1491 898 m -11 Y s 1486 887 m 11 X s 1538 907 m 11 Y s 1532 918 m 12 X s
 1538 884 m -12 Y s 1532 872 m 12 X s 1631 905 m 11 Y s 1626 916 m 11 X s 1631 882 m -12 Y s 1626 870 m 11 X s 1725 776 m 11 Y s 1719 787 m 12 X s 1725 753 m -11 Y s 1719 742 m 12 X s 1 0 0 c 9 lw 0.95 0.95 0.95 c black 1 0 0 c 1446 917 m 9 X 3 -1 d
 13 X 3 -1 d 6 X 3 -1 d 3 X 3 -1 d 3 X 3 -1 d 3 X 3 -1 d 3 X 3 -1 d 3 -1 d 3 -1 d 3 X 4 -1 d 3 -1 d 3 -1 d 3 -1 d 3 -1 d 3 X 3 -1 d 3 -1 d 3 -1 d 3 -2 d 3 -1 d 3 -1 d 3 -1 d 3 -1 d 3 -1 d 3 -2 d 4 -1 d 3 -1 d 3 -2 d 3 -1 d 3 -2 d 3 -1 d 3 -2 d 3 -1 d
 3 -2 d 3 -1 d s 1596 877 m 3 -2 d 3 -2 d 3 -1 d 3 -2 d 3 -2 d 3 -2 d 4 -1 d 3 -2 d 3 -2 d 3 -2 d 3 -2 d 3 -2 d 3 -2 d 3 -2 d 3 -2 d 3 -2 d 3 -2 d 3 -3 d 3 -2 d 3 -2 d 3 -2 d 3 -3 d 3 -2 d 4 -2 d 3 -3 d 3 -2 d 3 -3 d 3 -2 d 3 -3 d 3 -2 d 3 -3 d 3 -3
 d 3 -2 d 3 -3 d 3 -3 d 3 -3 d 3 -2 d 3 -3 d 3 -3 d 4 -3 d 3 -3 d 3 -3 d 3 -3 d 3 -3 d 3 -3 d 3 -3 d 3 -3 d 3 -3 d 3 -4 d s 1746 758 m 3 -3 d s 0.49 0.6 0.82 c black 0.49 0.6 0.82 c
 gsave  408 305 1383 677 C 1504.21 960.076 t 0 r /Helvetica-Bold findfont 25.6831 sf 0 0 m (4.0 < E < 4.5 GeV) show NC gr  0.52 0.76 0.64 c black 0.52 0.76 0.64 c
 gsave  408 305 1383 677 C 1484.27 923.04 t 0 r /Helvetica-Bold findfont 25.6831 sf 0 0 m 
 228 214 200 193 178 171 156 149 134 126 119 105 91 77 69 55 47 40 25 17
(A = \2550.003, p = 2.000) K NC gr  1 0.6 1 c black 1 0.6 1 c
 gsave  408 305 1383 677 C 1789.1 791.991 t 90 r /Helvetica-Bold findfont 28.5368 sf 0 0 m (/dof=1.1) show NC gr  black 1 0.6 1 c
 gsave  408 305 1383 677 C 1777.71 780.596 t 90 r /Helvetica-Bold findfont 19.9758 sf 0 0 m (2) show NC gr  black 1 0.6 1 c
 gsave  408 305 1383 677 C 1789.1 763.503 t 90 r /Symbol findfont 28.5368 sf 0 0 m (c) show NC gr  black 3 lw 1 1 1 c 408 305 1837 677 bf black 1 1 1 c black 306 229 1898 723 bl 306 229 1898 723 bl 1898 723 m 306 X s 1898 727 m -4 Y s 1992 727 m -4 Y
 s 2085 727 m -4 Y s 2179 727 m -4 Y s 2179 727 m -4 Y s
 gsave  408 305 1837 677 C 1888.81 703.676 t 0 r /Helvetica findfont 22.8295 sf 0 0 m (0) show NC gr 
 gsave  408 305 1837 677 C 1985.68 703.676 t 0 r /Helvetica findfont 22.8295 sf 0 0 m (1) show NC gr 
 gsave  408 305 1837 677 C 2073.99 703.676 t 0 r /Helvetica findfont 22.8295 sf 0 0 m (2) show NC gr 
 gsave  408 305 1837 677 C 2168.01 703.676 t 0 r /Helvetica findfont 22.8295 sf 0 0 m (3) show NC gr  1898 952 m 306 X s 1898 948 m 4 Y s 1992 948 m 4 Y s 2085 948 m 4 Y s 2179 948 m 4 Y s 2179 948 m 4 Y s 1898 723 m 229 Y s 1904 738 m -6 X s 1901
 746 m -3 X s 1901 755 m -3 X s 1901 764 m -3 X s 1901 772 m -3 X s 1904 781 m -6 X s 1901 790 m -3 X s 1901 799 m -3 X s 1901 807 m -3 X s 1901 816 m -3 X s 1904 825 m -6 X s 1901 833 m -3 X s 1901 842 m -3 X s 1901 851 m -3 X s 1901 860 m -3 X s
 1904 868 m -6 X s 1901 877 m -3 X s 1901 886 m -3 X s 1901 894 m -3 X s 1901 903 m -3 X s 1904 912 m -6 X s 1904 738 m -6 X s 1901 729 m -3 X s 1904 912 m -6 X s 1901 921 m -3 X s 1901 929 m -3 X s 1901 938 m -3 X s 1901 947 m -3 X s
 gsave  408 305 1837 677 C 1843.23 729.316 t 0 r /Helvetica findfont 22.8295 sf 0 0 m (\2550.04) show NC gr 
 gsave  408 305 1837 677 C 1843.23 774.898 t 0 r /Helvetica findfont 22.8295 sf 0 0 m (\2550.03) show NC gr 
 gsave  408 305 1837 677 C 1843.23 817.631 t 0 r /Helvetica findfont 22.8295 sf 0 0 m (\2550.02) show NC gr 
 gsave  408 305 1837 677 C 1846.08 860.365 t 0 r /Helvetica findfont 22.8295 sf 0 0 m (\2550.01) show NC gr 
 gsave  408 305 1837 677 C 1880.27 905.947 t 0 r /Helvetica findfont 22.8295 sf 0 0 m (0) show NC gr  2204 723 m 229 Y s 2199 738 m 5 X s 2201 746 m 3 X s 2201 755 m 3 X s 2201 764 m 3 X s 2201 772 m 3 X s 2199 781 m 5 X s 2201 790 m 3 X s 2201 799 m
 3 X s 2201 807 m 3 X s 2201 816 m 3 X s 2199 825 m 5 X s 2201 833 m 3 X s 2201 842 m 3 X s 2201 851 m 3 X s 2201 860 m 3 X s 2199 868 m 5 X s 2201 877 m 3 X s 2201 886 m 3 X s 2201 894 m 3 X s 2201 903 m 3 X s 2199 912 m 5 X s 2199 738 m 5 X s 2201
 729 m 3 X s 2199 912 m 5 X s 2201 921 m 3 X s 2201 929 m 3 X s 2201 938 m 3 X s 2201 947 m 3 X s 1945 892 1992 910 2085 849 2179 764 4 { m21} R 1945 903 m 11 Y s 1939 914 m 12 X s 1945 880 m -11 Y s 1939 869 m 12 X s 1992 922 m 11 Y s 1986 933 m 11
 X s 1992 899 m -11 Y s 1986 888 m 11 X s 2085 860 m 11 Y s 2079 871 m 12 X s 2085 838 m -11 Y s 2079 827 m 12 X s 2179 775 m 11 Y s 2173 786 m 11 X s 2179 753 m -11 Y s 2173 742 m 11 X s 1 0 0 c 9 lw 0.95 0.95 0.95 c black 1 0 0 c 1900 912 m 12 X 3
 -1 d 9 X 3 -1 d 6 X 3 -1 d 3 X 3 -1 d 4 X 3 -1 d 3 X 3 -1 d 3 -1 d 3 X 3 -1 d 3 -1 d 3 -1 d 3 -1 d 3 X 3 -1 d 3 -1 d 3 -1 d 3 -1 d 3 -1 d 4 -1 d 3 -1 d 3 -2 d 3 -1 d 3 -1 d 3 -1 d 3 -2 d 3 -1 d 3 -1 d 3 -2 d 3 -1 d 3 -2 d 3 -1 d 3 -2 d 3 -1 d 3 -2 d
 3 -1 d 4 -2 d 3 -2 d s 2050 869 m 3 -1 d 3 -2 d 3 -2 d 3 -2 d 3 -2 d 3 -2 d 3 -2 d 3 -2 d 3 -2 d 3 -2 d 3 -2 d 3 -2 d 3 -2 d 3 -2 d 4 -2 d 3 -3 d 3 -2 d 3 -2 d 3 -3 d 3 -2 d 3 -3 d 3 -2 d 3 -2 d 3 -3 d 3 -3 d 3 -2 d 3 -3 d 3 -3 d 3 -2 d 3 -3 d 4 -3
 d 3 -3 d 3 -2 d 3 -3 d 3 -3 d 3 -3 d 3 -3 d 3 -3 d 3 -3 d 3 -3 d 3 -3 d 3 -4 d 3 -3 d 3 -3 d 3 -3 d 3 -4 d 4 -3 d 3 -3 d 3 -4 d s 2200 743 m 3 -3 d s 0.49 0.6 0.82 c black 0.49 0.6 0.82 c
 gsave  408 305 1837 677 C 1957.19 960.076 t 0 r /Helvetica-Bold findfont 25.6831 sf 0 0 m (4.5 < E < 5.0 GeV) show NC gr  0.52 0.76 0.64 c black 0.52 0.76 0.64 c
 gsave  408 305 1837 677 C 1937.25 923.04 t 0 r /Helvetica-Bold findfont 25.6831 sf 0 0 m 
 228 214 200 193 178 171 156 149 133 126 119 105 91 77 69 55 47 39 25 17
(A = \2550.004, p = 2.000) K NC gr  1 0.6 1 c black 1 0.6 1 c
 gsave  408 305 1837 677 C 2242.08 791.991 t 90 r /Helvetica-Bold findfont 28.5368 sf 0 0 m (/dof=0.3) show NC gr  black 1 0.6 1 c
 gsave  408 305 1837 677 C 2230.68 780.596 t 90 r /Helvetica-Bold findfont 19.9758 sf 0 0 m (2) show NC gr  black 1 0.6 1 c
 gsave  408 305 1837 677 C 2242.08 763.503 t 90 r /Symbol findfont 28.5368 sf 0 0 m (c) show NC gr  black 3 lw 1 1 1 c 408 306 23 345 bf black 1 1 1 c black 306 229 84 391 bl 306 229 84 391 bl 84 391 m 306 X s 84 395 m -4 Y s 177 395 m -4 Y s 271 395
 m -4 Y s 364 395 m -4 Y s 364 395 m -4 Y s
 gsave  408 306 23 345 C 74.0711 370.356 t 0 r /Helvetica findfont 22.8295 sf 0 0 m (0) show NC gr 
 gsave  408 306 23 345 C 170.933 370.356 t 0 r /Helvetica findfont 22.8295 sf 0 0 m (1) show NC gr 
 gsave  408 306 23 345 C 262.098 370.356 t 0 r /Helvetica findfont 22.8295 sf 0 0 m (2) show NC gr 
 gsave  408 306 23 345 C 353.262 370.356 t 0 r /Helvetica findfont 22.8295 sf 0 0 m (3) show NC gr  84 620 m 306 X s 84 616 m 4 Y s 177 616 m 4 Y s 271 616 m 4 Y s 364 616 m 4 Y s 364 616 m 4 Y s 84 391 m 229 Y s 89 417 m -5 X s 87 425 m -3 X s 87
 432 m -3 X s 87 440 m -3 X s 87 448 m -3 X s 89 456 m -5 X s 87 464 m -3 X s 87 472 m -3 X s 87 480 m -3 X s 87 488 m -3 X s 89 496 m -5 X s 87 504 m -3 X s 87 511 m -3 X s 87 519 m -3 X s 87 527 m -3 X s 89 535 m -5 X s 87 543 m -3 X s 87 551 m -3
 X s 87 559 m -3 X s 87 567 m -3 X s 89 575 m -5 X s 87 582 m -3 X s 87 590 m -3 X s 87 598 m -3 X s 87 606 m -3 X s 89 614 m -5 X s 89 417 m -5 X s 87 409 m -3 X s 87 401 m -3 X s 87 393 m -3 X s 89 614 m -5 X s
 gsave  408 306 23 345 C 28.4889 410.24 t 0 r /Helvetica findfont 22.8295 sf 0 0 m (\2550.03) show NC gr 
 gsave  408 306 23 345 C 28.4889 450.125 t 0 r /Helvetica findfont 22.8295 sf 0 0 m (\2550.02) show NC gr 
 gsave  408 306 23 345 C 31.3378 487.16 t 0 r /Helvetica findfont 22.8295 sf 0 0 m (\2550.01) show NC gr 
 gsave  408 306 23 345 C 65.5245 527.045 t 0 r /Helvetica findfont 22.8295 sf 0 0 m (0) show NC gr 
 gsave  408 306 23 345 C 37.0356 566.929 t 0 r /Helvetica findfont 22.8295 sf 0 0 m (0.01) show NC gr 
 gsave  408 306 23 345 C 34.1867 606.814 t 0 r /Helvetica findfont 22.8295 sf 0 0 m (0.02) show NC gr  390 391 m 229 Y s 385 417 m 5 X s 387 425 m 3 X s 387 432 m 3 X s 387 440 m 3 X s 387 448 m 3 X s 385 456 m 5 X s 387 464 m 3 X s 387 472 m 3 X s
 387 480 m 3 X s 387 488 m 3 X s 385 496 m 5 X s 387 504 m 3 X s 387 511 m 3 X s 387 519 m 3 X s 387 527 m 3 X s 385 535 m 5 X s 387 543 m 3 X s 387 551 m 3 X s 387 559 m 3 X s 387 567 m 3 X s 385 575 m 5 X s 387 582 m 3 X s 387 590 m 3 X s 387 598 m
 3 X s 387 606 m 3 X s 385 614 m 5 X s 385 417 m 5 X s 387 409 m 3 X s 387 401 m 3 X s 387 393 m 3 X s 385 614 m 5 X s /w 22 def /w2 {w 2 div} def /w3 {w 3 div} def 131 557 177 574 271 502 364 436 4 { m21} R 131 568 m 16 Y s 125 584 m 11 X s 131 546
 m -15 Y s 125 531 m 11 X s 177 586 m 15 Y s 172 601 m 11 X s 177 563 m -15 Y s 172 548 m 11 X s 271 514 m 15 Y s 265 529 m 12 X s 271 491 m -15 Y s 265 476 m 12 X s 364 447 m 15 Y s 359 462 m 11 X s 364 425 m -15 Y s 359 410 m 11 X s 1 0 0 c 9 lw
 0.95 0.95 0.95 c black 1 0 0 c 85 535 m 22 X 3 -1 d 9 X 3 -1 d 9 X 3 -1 d 3 X 4 -1 d 6 X 3 -1 d 3 X 3 -1 d 3 X 3 -1 d 3 X 3 -1 d 3 -1 d 3 X 3 -1 d 3 -1 d 3 X 3 -1 d 4 -1 d 3 X 3 -1 d 3 -1 d 3 -1 d 3 -1 d 3 -1 d 3 X 3 -1 d 3 -1 d 3 -1 d 3 -1 d 3 -1 d
 3 -1 d 3 -1 d 3 -1 d s 235 509 m 4 -1 d 3 -1 d 3 -1 d 3 -2 d 3 -1 d 3 -1 d 3 -1 d 3 -1 d 3 -2 d 3 -1 d 3 -1 d 3 -2 d 3 -1 d 3 -1 d 3 -2 d 3 -1 d 3 -1 d 4 -2 d 3 -1 d 3 -2 d 3 -1 d 3 -2 d 3 -1 d 3 -2 d 3 -1 d 3 -2 d 3 -2 d 3 -1 d 3 -2 d 3 -2 d 3 -1 d
 3 -2 d 3 -2 d 4 -2 d 3 -2 d 3 -1 d 3 -2 d 3 -2 d 3 -2 d 3 -2 d 3 -2 d 3 -2 d 3 -2 d 3 -2 d 3 -2 d 3 -2 d 3 -2 d 3 -2 d 3 -2 d s 385 431 m 4 -2 d s 0.49 0.6 0.82 c black 0.49 0.6 0.82 c
 gsave  408 306 23 345 C 142.445 629.605 t 0 r /Helvetica-Bold findfont 25.6831 sf 0 0 m (5.0 < E < 5.5 GeV) show NC gr  0.52 0.76 0.64 c black 0.52 0.76 0.64 c
 gsave  408 306 23 345 C 122.502 592.569 t 0 r /Helvetica-Bold findfont 25.6831 sf 0 0 m 
 228 214 200 193 178 171 156 149 134 126 119 105 91 77 69 55 47 39 25 17
(A = \2550.003, p = 2.000) K NC gr  1 0.6 1 c black 1 0.6 1 c
 gsave  408 306 23 345 C 427.334 458.671 t 90 r /Helvetica-Bold findfont 28.5368 sf 0 0 m (/dof=1.5) show NC gr  black 1 0.6 1 c
 gsave  408 306 23 345 C 415.938 447.276 t 90 r /Helvetica-Bold findfont 19.9758 sf 0 0 m (2) show NC gr  black 1 0.6 1 c
 gsave  408 306 23 345 C 427.334 430.182 t 90 r /Symbol findfont 28.5368 sf 0 0 m (c) show NC gr  black 3 lw 1 1 1 c 408 306 476 345 bf black 1 1 1 c black 307 229 537 391 bl 307 229 537 391 bl 537 391 m 307 X s 537 395 m -4 Y s 631 395 m -4 Y s 724
 395 m -4 Y s 818 395 m -4 Y s 818 395 m -4 Y s
 gsave  408 306 476 345 C 527.045 370.356 t 0 r /Helvetica findfont 22.8295 sf 0 0 m (0) show NC gr 
 gsave  408 306 476 345 C 623.907 370.356 t 0 r /Helvetica findfont 22.8295 sf 0 0 m (1) show NC gr 
 gsave  408 306 476 345 C 715.071 370.356 t 0 r /Helvetica findfont 22.8295 sf 0 0 m (2) show NC gr 
 gsave  408 306 476 345 C 809.085 370.356 t 0 r /Helvetica findfont 22.8295 sf 0 0 m (3) show NC gr  537 620 m 307 X s 537 616 m 4 Y s 631 616 m 4 Y s 724 616 m 4 Y s 818 616 m 4 Y s 818 616 m 4 Y s 537 391 m 229 Y s 543 419 m -6 X s 540 425 m -3 X s
 540 431 m -3 X s 540 437 m -3 X s 540 443 m -3 X s 543 449 m -6 X s 540 455 m -3 X s 540 461 m -3 X s 540 467 m -3 X s 540 473 m -3 X s 543 479 m -6 X s 540 485 m -3 X s 540 491 m -3 X s 540 496 m -3 X s 540 502 m -3 X s 543 508 m -6 X s 540 514 m
 -3 X s 540 520 m -3 X s 540 526 m -3 X s 540 532 m -3 X s 543 538 m -6 X s 540 544 m -3 X s 540 550 m -3 X s 540 556 m -3 X s 540 562 m -3 X s 543 568 m -6 X s 540 574 m -3 X s 540 580 m -3 X s 540 586 m -3 X s 540 592 m -3 X s 543 598 m -6 X s 543
 419 m -6 X s 540 413 m -3 X s 540 407 m -3 X s 540 401 m -3 X s 540 395 m -3 X s 543 598 m -6 X s 540 604 m -3 X s 540 610 m -3 X s 540 616 m -3 X s
 gsave  408 306 476 345 C 481.462 413.089 t 0 r /Helvetica findfont 22.8295 sf 0 0 m (\2550.04) show NC gr 
 gsave  408 306 476 345 C 481.462 441.578 t 0 r /Helvetica findfont 22.8295 sf 0 0 m (\2550.03) show NC gr 
 gsave  408 306 476 345 C 481.462 470.067 t 0 r /Helvetica findfont 22.8295 sf 0 0 m (\2550.02) show NC gr 
 gsave  408 306 476 345 C 484.311 501.405 t 0 r /Helvetica findfont 22.8295 sf 0 0 m (\2550.01) show NC gr 
 gsave  408 306 476 345 C 518.498 529.894 t 0 r /Helvetica findfont 22.8295 sf 0 0 m (0) show NC gr 
 gsave  408 306 476 345 C 490.009 561.231 t 0 r /Helvetica findfont 22.8295 sf 0 0 m (0.01) show NC gr 
 gsave  408 306 476 345 C 487.16 589.72 t 0 r /Helvetica findfont 22.8295 sf 0 0 m (0.02) show NC gr  844 391 m 229 Y s 838 419 m 6 X s 841 425 m 3 X s 841 431 m 3 X s 841 437 m 3 X s 841 443 m 3 X s 838 449 m 6 X s 841 455 m 3 X s 841 461 m 3 X s
 841 467 m 3 X s 841 473 m 3 X s 838 479 m 6 X s 841 485 m 3 X s 841 491 m 3 X s 841 496 m 3 X s 841 502 m 3 X s 838 508 m 6 X s 841 514 m 3 X s 841 520 m 3 X s 841 526 m 3 X s 841 532 m 3 X s 838 538 m 6 X s 841 544 m 3 X s 841 550 m 3 X s 841 556 m
 3 X s 841 562 m 3 X s 838 568 m 6 X s 841 574 m 3 X s 841 580 m 3 X s 841 586 m 3 X s 841 592 m 3 X s 838 598 m 6 X s 838 419 m 6 X s 841 413 m 3 X s 841 407 m 3 X s 841 401 m 3 X s 841 395 m 3 X s 838 598 m 6 X s 841 604 m 3 X s 841 610 m 3 X s 841
 616 m 3 X s /w 23 def /w2 {w 2 div} def /w3 {w 3 div} def 584 576 631 556 724 510 818 434 4 { m21} R 584 587 m 14 Y s 578 601 m 12 X s 584 564 m -13 Y s 578 551 m 12 X s 631 568 m 13 Y s 625 581 m 12 X s 631 545 m -14 Y s 625 531 m 12 X s 724 521 m
 14 Y s 719 535 m 11 X s 724 499 m -14 Y s 719 485 m 11 X s 818 446 m 13 Y s 812 459 m 12 X s 818 423 m -13 Y s 812 410 m 12 X s 1 0 0 c 9 lw 0.95 0.95 0.95 c black 1 0 0 c 539 538 m 21 X 3 -1 d 13 X 3 -1 d 6 X 3 -1 d 3 X 3 -1 d 6 X 3 -1 d 3 X 3 -1 d
 3 X 4 -1 d 3 -1 d 3 X 3 -1 d 3 X 3 -1 d 3 -1 d 3 -1 d 3 X 3 -1 d 3 -1 d 3 -1 d 3 X 3 -1 d 3 -1 d 3 -1 d 3 -1 d 4 -1 d 3 -1 d 3 -1 d 3 -1 d 3 -1 d 3 -1 d 3 -1 d 3 -1 d s 689 511 m 3 -1 d 3 -1 d 3 -2 d 3 -1 d 3 -1 d 3 -1 d 3 -1 d 3 -2 d 4 -1 d 3 -1 d
 3 -2 d 3 -1 d 3 -1 d 3 -2 d 3 -1 d 3 -2 d 3 -1 d 3 -2 d 3 -1 d 3 -2 d 3 -1 d 3 -2 d 3 -2 d 3 -1 d 4 -2 d 3 -2 d 3 -1 d 3 -2 d 3 -2 d 3 -1 d 3 -2 d 3 -2 d 3 -2 d 3 -2 d 3 -2 d 3 -2 d 3 -1 d 3 -2 d 3 -2 d 3 -2 d 4 -2 d 3 -2 d 3 -3 d 3 -2 d 3 -2 d 3 -2
 d 3 -2 d 3 -2 d 3 -2 d s 839 430 m 3 -3 d s 0.49 0.6 0.82 c black 0.49 0.6 0.82 c
 gsave  408 306 476 345 C 595.418 629.605 t 0 r /Helvetica-Bold findfont 25.6831 sf 0 0 m (5.5 < E < 6.0 GeV) show NC gr  0.52 0.76 0.64 c black 0.52 0.76 0.64 c
 gsave  408 306 476 345 C 575.476 592.569 t 0 r /Helvetica-Bold findfont 25.6831 sf 0 0 m 
 228 214 200 193 178 171 156 149 133 126 119 105 91 76 69 55 47 39 25 17
(A = \2550.003, p = 2.000) K NC gr  1 0.6 1 c black 1 0.6 1 c
 gsave  408 306 476 345 C 883.156 458.671 t 90 r /Helvetica-Bold findfont 28.5368 sf 0 0 m (/dof=1.4) show NC gr  black 1 0.6 1 c
 gsave  408 306 476 345 C 871.76 447.276 t 90 r /Helvetica-Bold findfont 19.9758 sf 0 0 m (2) show NC gr  black 1 0.6 1 c
 gsave  408 306 476 345 C 883.156 430.182 t 90 r /Symbol findfont 28.5368 sf 0 0 m (c) show NC gr  black 3 lw 1 1 1 c 408 306 930 345 bf black 1 1 1 c black 306 229 991 391 bl 306 229 991 391 bl 991 391 m 306 X s 991 395 m -4 Y s 1084 395 m -4 Y s
 1178 395 m -4 Y s 1271 395 m -4 Y s 1271 395 m -4 Y s
 gsave  408 306 930 345 C 980.018 370.356 t 0 r /Helvetica findfont 22.8295 sf 0 0 m (0) show NC gr 
 gsave  408 306 930 345 C 1076.88 370.356 t 0 r /Helvetica findfont 22.8295 sf 0 0 m (1) show NC gr 
 gsave  408 306 930 345 C 1168.04 370.356 t 0 r /Helvetica findfont 22.8295 sf 0 0 m (2) show NC gr 
 gsave  408 306 930 345 C 1262.06 370.356 t 0 r /Helvetica findfont 22.8295 sf 0 0 m (3) show NC gr  991 620 m 306 X s 991 616 m 4 Y s 1084 616 m 4 Y s 1178 616 m 4 Y s 1271 616 m 4 Y s 1271 616 m 4 Y s 991 391 m 229 Y s 997 403 m -6 X s 994 410 m -3
 X s 994 417 m -3 X s 994 425 m -3 X s 994 432 m -3 X s 997 439 m -6 X s 994 446 m -3 X s 994 453 m -3 X s 994 460 m -3 X s 994 467 m -3 X s 997 474 m -6 X s 994 481 m -3 X s 994 488 m -3 X s 994 495 m -3 X s 994 502 m -3 X s 997 509 m -6 X s 994 516
 m -3 X s 994 523 m -3 X s 994 530 m -3 X s 994 537 m -3 X s 997 544 m -6 X s 994 551 m -3 X s 994 558 m -3 X s 994 565 m -3 X s 994 572 m -3 X s 997 579 m -6 X s 994 586 m -3 X s 994 593 m -3 X s 994 600 m -3 X s 994 608 m -3 X s 997 615 m -6 X s
 997 403 m -6 X s 994 396 m -3 X s 997 615 m -6 X s
 gsave  408 306 930 345 C 937.285 395.996 t 0 r /Helvetica findfont 22.8295 sf 0 0 m (\2550.03) show NC gr 
 gsave  408 306 930 345 C 937.285 430.182 t 0 r /Helvetica findfont 22.8295 sf 0 0 m (\2550.02) show NC gr 
 gsave  408 306 930 345 C 940.134 467.218 t 0 r /Helvetica findfont 22.8295 sf 0 0 m (\2550.01) show NC gr 
 gsave  408 306 930 345 C 974.32 501.405 t 0 r /Helvetica findfont 22.8295 sf 0 0 m (0) show NC gr 
 gsave  408 306 930 345 C 945.832 538.44 t 0 r /Helvetica findfont 22.8295 sf 0 0 m (0.01) show NC gr 
 gsave  408 306 930 345 C 942.983 572.627 t 0 r /Helvetica findfont 22.8295 sf 0 0 m (0.02) show NC gr 
 gsave  408 306 930 345 C 942.983 606.814 t 0 r /Helvetica findfont 22.8295 sf 0 0 m (0.03) show NC gr  1297 391 m 229 Y s 1292 403 m 5 X s 1294 410 m 3 X s 1294 417 m 3 X s 1294 425 m 3 X s 1294 432 m 3 X s 1292 439 m 5 X s 1294 446 m 3 X s 1294 453
 m 3 X s 1294 460 m 3 X s 1294 467 m 3 X s 1292 474 m 5 X s 1294 481 m 3 X s 1294 488 m 3 X s 1294 495 m 3 X s 1294 502 m 3 X s 1292 509 m 5 X s 1294 516 m 3 X s 1294 523 m 3 X s 1294 530 m 3 X s 1294 537 m 3 X s 1292 544 m 5 X s 1294 551 m 3 X s
 1294 558 m 3 X s 1294 565 m 3 X s 1294 572 m 3 X s 1292 579 m 5 X s 1294 586 m 3 X s 1294 593 m 3 X s 1294 600 m 3 X s 1294 608 m 3 X s 1292 615 m 5 X s 1292 403 m 5 X s 1294 396 m 3 X s 1292 615 m 5 X s 1038 565 1084 508 1178 484 1271 445 4 { m21}
 R 1038 576 m 25 Y s 1032 601 m 11 X s 1038 553 m -24 Y s 1032 529 m 11 X s 1084 520 m 24 Y s 1079 544 m 11 X s 1084 497 m -24 Y s 1079 473 m 11 X s 1178 495 m 24 Y s 1172 519 m 12 X s 1178 472 m -24 Y s 1172 448 m 12 X s 1271 457 m 24 Y s 1266 481 m
 11 X s 1271 434 m -24 Y s 1266 410 m 11 X s 1 0 0 c 9 lw 0.95 0.95 0.95 c black 1 0 0 c 993 509 m 21 X 3 -1 d 15 X 3 -1 d 13 X 3 -1 d 6 X 3 -1 d 6 X 3 -1 d 6 X 3 -1 d 3 X 3 -1 d 3 X 3 -1 d 4 X 3 -1 d 3 X 3 -1 d 3 X 3 -1 d 3 X 3 -1 d 3 X 3 -1 d 3 -1
 d 3 X 3 -1 d 3 -1 d 3 X 3 -1 d 4 -1 d s 1143 491 m 3 X 3 -1 d 3 -1 d 3 -1 d 3 X 3 -1 d 3 -1 d 3 -1 d 3 -1 d 3 -1 d 3 X 3 -1 d 3 -1 d 3 -1 d 3 -1 d 4 -1 d 3 -1 d 3 -1 d 3 -1 d 3 -1 d 3 -1 d 3 -1 d 3 -1 d 3 -1 d 3 -1 d 3 -1 d 3 -1 d 3 -1 d 3 -2 d 3 -1
 d 3 -1 d 3 -1 d 4 -1 d 3 -1 d 3 -2 d 3 -1 d 3 -1 d 3 -1 d 3 -2 d 3 -1 d 3 -1 d 3 -1 d 3 -2 d 3 -1 d 3 -2 d 3 -1 d 3 -1 d 3 -2 d 4 -1 d s 1293 439 m 3 -2 d s 0.49 0.6 0.82 c black 0.49 0.6 0.82 c
 gsave  408 306 930 345 C 1051.24 629.605 t 0 r /Helvetica-Bold findfont 25.6831 sf 0 0 m (6.0 < E < 6.5 GeV) show NC gr  0.52 0.76 0.64 c black 0.52 0.76 0.64 c
 gsave  408 306 930 345 C 1031.3 592.569 t 0 r /Helvetica-Bold findfont 25.6831 sf 0 0 m 
 228 214 200 193 178 171 156 149 133 126 119 105 91 77 69 55 47 39 25 17
(A = \2550.002, p = 2.000) K NC gr  1 0.6 1 c black 1 0.6 1 c
 gsave  408 306 930 345 C 1336.13 458.671 t 90 r /Helvetica-Bold findfont 28.5368 sf 0 0 m (/dof=0.9) show NC gr  black 1 0.6 1 c
 gsave  408 306 930 345 C 1324.73 447.276 t 90 r /Helvetica-Bold findfont 19.9758 sf 0 0 m (2) show NC gr  black 1 0.6 1 c
 gsave  408 306 930 345 C 1336.13 430.182 t 90 r /Symbol findfont 28.5368 sf 0 0 m (c) show NC gr  black 3 lw 1 1 1 c 408 306 1383 345 bf black 1 1 1 c black 306 229 1445 391 bl 306 229 1445 391 bl 1445 391 m 306 X s 1445 395 m -4 Y s 1538 395 m -4 Y
 s 1631 395 m -4 Y s 1725 395 m -4 Y s 1725 395 m -4 Y s
 gsave  408 306 1383 345 C 1435.84 370.356 t 0 r /Helvetica findfont 22.8295 sf 0 0 m (0) show NC gr 
 gsave  408 306 1383 345 C 1529.85 370.356 t 0 r /Helvetica findfont 22.8295 sf 0 0 m (1) show NC gr 
 gsave  408 306 1383 345 C 1621.02 370.356 t 0 r /Helvetica findfont 22.8295 sf 0 0 m (2) show NC gr 
 gsave  408 306 1383 345 C 1715.03 370.356 t 0 r /Helvetica findfont 22.8295 sf 0 0 m (3) show NC gr  1445 620 m 306 X s 1445 616 m 4 Y s 1538 616 m 4 Y s 1631 616 m 4 Y s 1725 616 m 4 Y s 1725 616 m 4 Y s 1445 391 m 229 Y s 1450 410 m -5 X s 1447
 415 m -2 X s 1447 420 m -2 X s 1447 425 m -2 X s 1447 430 m -2 X s 1450 435 m -5 X s 1447 440 m -2 X s 1447 445 m -2 X s 1447 450 m -2 X s 1447 455 m -2 X s 1450 460 m -5 X s 1447 465 m -2 X s 1447 470 m -2 X s 1447 475 m -2 X s 1447 480 m -2 X s
 1450 485 m -5 X s 1447 490 m -2 X s 1447 495 m -2 X s 1447 500 m -2 X s 1447 505 m -2 X s 1450 510 m -5 X s 1447 515 m -2 X s 1447 520 m -2 X s 1447 525 m -2 X s 1447 531 m -2 X s 1450 536 m -5 X s 1447 541 m -2 X s 1447 546 m -2 X s 1447 551 m -2 X
 s 1447 556 m -2 X s 1450 561 m -5 X s 1447 566 m -2 X s 1447 571 m -2 X s 1447 576 m -2 X s 1447 581 m -2 X s 1450 586 m -5 X s 1447 591 m -2 X s 1447 596 m -2 X s 1447 601 m -2 X s 1447 606 m -2 X s 1450 611 m -5 X s 1450 410 m -5 X s 1447 405 m -2
 X s 1447 400 m -2 X s 1447 395 m -2 X s 1450 611 m -5 X s 1447 616 m -2 X s
 gsave  408 306 1383 345 C 1376.01 401.694 t 0 r /Helvetica findfont 22.8295 sf 0 0 m (\2550.025) show NC gr 
 gsave  408 306 1383 345 C 1390.26 427.334 t 0 r /Helvetica findfont 22.8295 sf 0 0 m (\2550.02) show NC gr 
 gsave  408 306 1383 345 C 1376.01 452.974 t 0 r /Helvetica findfont 22.8295 sf 0 0 m (\2550.015) show NC gr 
 gsave  408 306 1383 345 C 1393.11 478.614 t 0 r /Helvetica findfont 22.8295 sf 0 0 m (\2550.01) show NC gr 
 gsave  408 306 1383 345 C 1376.01 504.254 t 0 r /Helvetica findfont 22.8295 sf 0 0 m (\2550.005) show NC gr 
 gsave  408 306 1383 345 C 1427.29 527.045 t 0 r /Helvetica findfont 22.8295 sf 0 0 m (0) show NC gr 
 gsave  408 306 1383 345 C 1384.56 552.685 t 0 r /Helvetica findfont 22.8295 sf 0 0 m (0.005) show NC gr 
 gsave  408 306 1383 345 C 1398.81 578.325 t 0 r /Helvetica findfont 22.8295 sf 0 0 m (0.01) show NC gr 
 gsave  408 306 1383 345 C 1384.56 603.965 t 0 r /Helvetica findfont 22.8295 sf 0 0 m (0.015) show NC gr  1751 391 m 229 Y s 1745 410 m 6 X s 1748 415 m 3 X s 1748 420 m 3 X s 1748 425 m 3 X s 1748 430 m 3 X s 1745 435 m 6 X s 1748 440 m 3 X s 1748
 445 m 3 X s 1748 450 m 3 X s 1748 455 m 3 X s 1745 460 m 6 X s 1748 465 m 3 X s 1748 470 m 3 X s 1748 475 m 3 X s 1748 480 m 3 X s 1745 485 m 6 X s 1748 490 m 3 X s 1748 495 m 3 X s 1748 500 m 3 X s 1748 505 m 3 X s 1745 510 m 6 X s 1748 515 m 3 X s
 1748 520 m 3 X s 1748 525 m 3 X s 1748 531 m 3 X s 1745 536 m 6 X s 1748 541 m 3 X s 1748 546 m 3 X s 1748 551 m 3 X s 1748 556 m 3 X s 1745 561 m 6 X s 1748 566 m 3 X s 1748 571 m 3 X s 1748 576 m 3 X s 1748 581 m 3 X s 1745 586 m 6 X s 1748 591 m
 3 X s 1748 596 m 3 X s 1748 601 m 3 X s 1748 606 m 3 X s 1745 611 m 6 X s 1745 410 m 6 X s 1748 405 m 3 X s 1748 400 m 3 X s 1748 395 m 3 X s 1745 611 m 6 X s 1748 616 m 3 X s 1491 485 1538 475 1631 470 1725 541 4 { m21} R 1491 497 m 48 Y s 1486 545
 m 11 X s 1491 474 m -48 Y s 1486 426 m 11 X s 1538 487 m 48 Y s 1532 535 m 12 X s 1538 464 m -48 Y s 1532 416 m 12 X s 1631 481 m 49 Y s 1626 530 m 11 X s 1631 458 m -48 Y s 1626 410 m 11 X s 1725 552 m 49 Y s 1719 601 m 12 X s 1725 529 m -49 Y s
 1719 480 m 12 X s 9 lw 0.95 0.95 0.95 c black 1446 535 m 3 X 3 -1 d 3 X 3 -1 d 6 X 3 -1 d 4 X 3 -1 d 3 X 3 -1 d 3 X 3 -1 d 3 X 3 -1 d 3 X 3 -1 d 3 X 3 -1 d 3 X 3 -1 d 6 X 4 -1 d 3 X 3 -1 d 3 X 3 -1 d 3 X 3 -1 d 3 X 3 -1 d 3 X 3 -1 d 3 X 3 -1 d 6 X 3
 -1 d 4 X 3 -1 d 3 X 3 -1 d 3 X 3 -1 d 3 X 3 -1 d 3 X 3 -1 d s 1596 512 m 3 X 3 -1 d 6 X 3 -1 d 3 X 4 -1 d 3 X 3 -1 d 3 X 3 -1 d 3 X 3 -1 d 3 X 3 -1 d 3 X 3 -1 d 6 X 3 -1 d 3 X 3 -1 d 3 X 4 -1 d 3 X 3 -1 d 3 X 3 -1 d 3 X 3 -1 d 3 X 3 -1 d 6 X 3 -1 d
 3 X 3 -1 d 3 X 3 -1 d 4 X 3 -1 d 3 X 3 -1 d 3 X 3 -1 d 3 X 3 -1 d 6 X s 1746 490 m 3 -1 d s 0.49 0.6 0.82 c black 0.49 0.6 0.82 c
 gsave  408 306 1383 345 C 1504.21 629.605 t 0 r /Helvetica-Bold findfont 25.6831 sf 0 0 m (6.5 < E < 7.0 GeV) show NC gr  0.52 0.76 0.64 c black 0.52 0.76 0.64 c
 gsave  408 306 1383 345 C 1484.27 592.569 t 0 r /Helvetica-Bold findfont 25.6831 sf 0 0 m 
 228 214 200 193 178 171 156 149 134 126 119 105 91 77 69 55 47 40 25 17
(A = \2550.003, p = 1.000) K NC gr  1 0.6 1 c black 1 0.6 1 c
 gsave  408 306 1383 345 C 1789.1 458.671 t 90 r /Helvetica-Bold findfont 28.5368 sf 0 0 m (/dof=0.7) show NC gr  black 1 0.6 1 c
 gsave  408 306 1383 345 C 1777.71 447.276 t 90 r /Helvetica-Bold findfont 19.9758 sf 0 0 m (2) show NC gr  black 1 0.6 1 c
 gsave  408 306 1383 345 C 1789.1 430.182 t 90 r /Symbol findfont 28.5368 sf 0 0 m (c) show NC gr  black 3 lw 1 1 1 c 408 306 1837 345 bf black 1 1 1 c black 306 229 1898 391 bl 306 229 1898 391 bl 1898 391 m 306 X s 1898 395 m -4 Y s 1992 395 m -4 Y
 s 2085 395 m -4 Y s 2179 395 m -4 Y s 2179 395 m -4 Y s
 gsave  408 306 1837 345 C 1888.81 370.356 t 0 r /Helvetica findfont 22.8295 sf 0 0 m (0) show NC gr 
 gsave  408 306 1837 345 C 1985.68 370.356 t 0 r /Helvetica findfont 22.8295 sf 0 0 m (1) show NC gr 
 gsave  408 306 1837 345 C 2073.99 370.356 t 0 r /Helvetica findfont 22.8295 sf 0 0 m (2) show NC gr 
 gsave  408 306 1837 345 C 2168.01 370.356 t 0 r /Helvetica findfont 22.8295 sf 0 0 m (3) show NC gr  1898 620 m 306 X s 1898 616 m 4 Y s 1992 616 m 4 Y s 2085 616 m 4 Y s 2179 616 m 4 Y s 2179 616 m 4 Y s 1898 391 m 229 Y s 1904 430 m -6 X s 1901
 438 m -3 X s 1901 446 m -3 X s 1901 455 m -3 X s 1901 463 m -3 X s 1904 471 m -6 X s 1901 479 m -3 X s 1901 487 m -3 X s 1901 495 m -3 X s 1901 503 m -3 X s 1904 512 m -6 X s 1901 520 m -3 X s 1901 528 m -3 X s 1901 536 m -3 X s 1901 544 m -3 X s
 1904 552 m -6 X s 1901 561 m -3 X s 1901 569 m -3 X s 1901 577 m -3 X s 1901 585 m -3 X s 1904 593 m -6 X s 1904 430 m -6 X s 1901 422 m -3 X s 1901 414 m -3 X s 1901 406 m -3 X s 1901 397 m -3 X s 1904 593 m -6 X s 1901 601 m -3 X s 1901 610 m -3 X
 s 1901 618 m -3 X s
 gsave  408 306 1837 345 C 1846.08 421.636 t 0 r /Helvetica findfont 22.8295 sf 0 0 m (\2550.01) show NC gr 
 gsave  408 306 1837 345 C 1880.27 464.369 t 0 r /Helvetica findfont 22.8295 sf 0 0 m (0) show NC gr 
 gsave  408 306 1837 345 C 1851.78 504.254 t 0 r /Helvetica findfont 22.8295 sf 0 0 m (0.01) show NC gr 
 gsave  408 306 1837 345 C 1848.93 544.138 t 0 r /Helvetica findfont 22.8295 sf 0 0 m (0.02) show NC gr 
 gsave  408 306 1837 345 C 1848.93 586.871 t 0 r /Helvetica findfont 22.8295 sf 0 0 m (0.03) show NC gr  2204 391 m 229 Y s 2199 430 m 5 X s 2201 438 m 3 X s 2201 446 m 3 X s 2201 455 m 3 X s 2201 463 m 3 X s 2199 471 m 5 X s 2201 479 m 3 X s 2201
 487 m 3 X s 2201 495 m 3 X s 2201 503 m 3 X s 2199 512 m 5 X s 2201 520 m 3 X s 2201 528 m 3 X s 2201 536 m 3 X s 2201 544 m 3 X s 2199 552 m 5 X s 2201 561 m 3 X s 2201 569 m 3 X s 2201 577 m 3 X s 2201 585 m 3 X s 2199 593 m 5 X s 2199 430 m 5 X s
 2201 422 m 3 X s 2201 414 m 3 X s 2201 406 m 3 X s 2201 397 m 3 X s 2199 593 m 5 X s 2201 601 m 3 X s 2201 610 m 3 X s 2201 618 m 3 X s 1945 472 1992 545 2085 488 2179 466 4 { m21} R 1945 483 m 44 Y s 1939 527 m 12 X s 1945 460 m -44 Y s 1939 416 m
 12 X s 1992 556 m 45 Y s 1986 601 m 11 X s 1992 534 m -45 Y s 1986 489 m 11 X s 2085 500 m 44 Y s 2079 544 m 12 X s 2085 477 m -44 Y s 2079 433 m 12 X s 2179 477 m 44 Y s 2173 521 m 11 X s 2179 454 m -44 Y s 2173 410 m 11 X s 9 lw 0.95 0.95 0.95 c
 black 1900 471 m 6 X 3 1 d 12 X 3 1 d 9 X 3 1 d 13 X 3 1 d 12 X 3 1 d 12 X 3 1 d 9 X 4 1 d 12 X 3 1 d 12 X 3 1 d 9 X 3 1 d 13 X s 2050 481 m 3 1 d 12 X 3 1 d 9 X 3 1 d 12 X 4 1 d 12 X 3 1 d 9 X 3 1 d 12 X 3 1 d 13 X 3 1 d 9 X 3 1 d 12 X 3 1 d 13 X 3
 1 d 3 X s 2200 492 m 3 X s 0.49 0.6 0.82 c black 0.49 0.6 0.82 c
 gsave  408 306 1837 345 C 1957.19 629.605 t 0 r /Helvetica-Bold findfont 25.6831 sf 0 0 m (7.0 < E < 7.5 GeV) show NC gr  0.52 0.76 0.64 c black 0.52 0.76 0.64 c
 gsave  408 306 1837 345 C 1942.94 592.569 t 0 r /Helvetica-Bold findfont 25.6831 sf 0 0 m 
 220 206 192 185 170 163 148 141 125 118 111 97 83 69 61 47 40 25 18
(A = 0.002, p = 1.000) K NC gr  1 0.6 1 c black 1 0.6 1 c
 gsave  408 306 1837 345 C 2242.08 458.671 t 90 r /Helvetica-Bold findfont 28.5368 sf 0 0 m (/dof=0.6) show NC gr  black 1 0.6 1 c
 gsave  408 306 1837 345 C 2230.68 447.276 t 90 r /Helvetica-Bold findfont 19.9758 sf 0 0 m (2) show NC gr  black 1 0.6 1 c
 gsave  408 306 1837 345 C 2242.08 430.182 t 90 r /Symbol findfont 28.5368 sf 0 0 m (c) show NC gr  black 3 lw 1 1 1 c 408 306 23 13 bf black 1 1 1 c black 306 229 84 59 bl 306 229 84 59 bl 84 59 m 306 X s 84 63 m -4 Y s 177 63 m -4 Y s 271 63 m -4 Y
 s 364 63 m -4 Y s 364 63 m -4 Y s
 gsave  408 306 23 13 C 74.0711 39.8845 t 0 r /Helvetica findfont 22.8295 sf 0 0 m (0) show NC gr 
 gsave  408 306 23 13 C 170.933 39.8845 t 0 r /Helvetica findfont 22.8295 sf 0 0 m (1) show NC gr 
 gsave  408 306 23 13 C 262.098 39.8845 t 0 r /Helvetica findfont 22.8295 sf 0 0 m (2) show NC gr 
 gsave  408 306 23 13 C 353.262 39.8845 t 0 r /Helvetica findfont 22.8295 sf 0 0 m (3) show NC gr  84 288 m 306 X s 84 284 m 4 Y s 177 284 m 4 Y s 271 284 m 4 Y s 364 284 m 4 Y s 364 284 m 4 Y s 84 59 m 229 Y s 89 69 m -5 X s 87 76 m -3 X s 87 84 m
 -3 X s 87 91 m -3 X s 87 98 m -3 X s 89 105 m -5 X s 87 112 m -3 X s 87 119 m -3 X s 87 126 m -3 X s 87 133 m -3 X s 89 140 m -5 X s 87 147 m -3 X s 87 154 m -3 X s 87 161 m -3 X s 87 168 m -3 X s 89 175 m -5 X s 87 182 m -3 X s 87 190 m -3 X s 87
 197 m -3 X s 87 204 m -3 X s 89 211 m -5 X s 87 218 m -3 X s 87 225 m -3 X s 87 232 m -3 X s 87 239 m -3 X s 89 246 m -5 X s 87 253 m -3 X s 87 260 m -3 X s 87 267 m -3 X s 87 274 m -3 X s 89 281 m -5 X s 89 69 m -5 X s 87 62 m -3 X s 89 281 m -5 X
 s
 gsave  408 306 23 13 C 28.4889 62.6756 t 0 r /Helvetica findfont 22.8295 sf 0 0 m (\2550.04) show NC gr 
 gsave  408 306 23 13 C 28.4889 96.8623 t 0 r /Helvetica findfont 22.8295 sf 0 0 m (\2550.03) show NC gr 
 gsave  408 306 23 13 C 28.4889 133.898 t 0 r /Helvetica findfont 22.8295 sf 0 0 m (\2550.02) show NC gr 
 gsave  408 306 23 13 C 31.3378 168.085 t 0 r /Helvetica findfont 22.8295 sf 0 0 m (\2550.01) show NC gr 
 gsave  408 306 23 13 C 65.5245 202.271 t 0 r /Helvetica findfont 22.8295 sf 0 0 m (0) show NC gr 
 gsave  408 306 23 13 C 37.0356 239.307 t 0 r /Helvetica findfont 22.8295 sf 0 0 m (0.01) show NC gr 
 gsave  408 306 23 13 C 34.1867 273.493 t 0 r /Helvetica findfont 22.8295 sf 0 0 m (0.02) show NC gr  390 59 m 229 Y s 385 69 m 5 X s 387 76 m 3 X s 387 84 m 3 X s 387 91 m 3 X s 387 98 m 3 X s 385 105 m 5 X s 387 112 m 3 X s 387 119 m 3 X s 387 126
 m 3 X s 387 133 m 3 X s 385 140 m 5 X s 387 147 m 3 X s 387 154 m 3 X s 387 161 m 3 X s 387 168 m 3 X s 385 175 m 5 X s 387 182 m 3 X s 387 190 m 3 X s 387 197 m 3 X s 387 204 m 3 X s 385 211 m 5 X s 387 218 m 3 X s 387 225 m 3 X s 387 232 m 3 X s
 387 239 m 3 X s 385 246 m 5 X s 387 253 m 3 X s 387 260 m 3 X s 387 267 m 3 X s 387 274 m 3 X s 385 281 m 5 X s 385 69 m 5 X s 387 62 m 3 X s 385 281 m 5 X s /w 22 def /w2 {w 2 div} def /w3 {w 3 div} def 131 180 177 130 271 197 364 216 4 { m21} R
 131 191 m 41 Y s 125 232 m 11 X s 131 168 m -40 Y s 125 128 m 11 X s 177 142 m 40 Y s 172 182 m 11 X s 177 119 m -41 Y s 172 78 m 11 X s 271 209 m 41 Y s 265 250 m 12 X s 271 186 m -41 Y s 265 145 m 12 X s 364 228 m 41 Y s 359 269 m 11 X s 364 205 m
 -42 Y s 359 163 m 11 X s 9 lw 0.95 0.95 0.95 c black 85 211 m 3 -1 d 10 X 3 -1 d 9 X 3 -1 d 9 X 3 -1 d 9 X 3 -1 d 10 X 3 -1 d 9 X 3 -1 d 9 X 3 -1 d 9 X 3 -1 d 10 X 3 -1 d 9 X 3 -1 d 9 X 3 -1 d 9 X 3 -1 d s 235 198 m 10 X 3 -1 d 9 X 3 -1 d 9 X 3 -1 d
 9 X 3 -1 d 10 X 3 -1 d 9 X 3 -1 d 9 X 3 -1 d 9 X 3 -1 d 10 X 3 -1 d 6 X 3 -1 d 9 X 3 -1 d 9 X 3 -1 d 6 X s 385 186 m 4 X s 0.49 0.6 0.82 c black 0.49 0.6 0.82 c
 gsave  408 306 23 13 C 142.445 296.285 t 0 r /Helvetica-Bold findfont 25.6831 sf 0 0 m (7.5 < E < 8.0 GeV) show NC gr  0.52 0.76 0.64 c black 0.52 0.76 0.64 c
 gsave  408 306 23 13 C 122.502 259.249 t 0 r /Helvetica-Bold findfont 25.6831 sf 0 0 m 
 228 214 200 193 178 171 156 149 134 126 119 105 91 77 69 55 47 39 25 17
(A = \2550.002, p = 1.000) K NC gr  1 0.6 1 c black 1 0.6 1 c
 gsave  408 306 23 13 C 427.334 128.2 t 90 r /Helvetica-Bold findfont 28.5368 sf 0 0 m (/dof=0.8) show NC gr  black 1 0.6 1 c
 gsave  408 306 23 13 C 415.938 116.804 t 90 r /Helvetica-Bold findfont 19.9758 sf 0 0 m (2) show NC gr  black 1 0.6 1 c
 gsave  408 306 23 13 C 427.334 99.7112 t 90 r /Symbol findfont 28.5368 sf 0 0 m (c) show NC gr  black 3 lw 1 1 1 c 408 306 476 13 bf black 1 1 1 c black 307 229 537 59 bl 307 229 537 59 bl 537 59 m 307 X s 537 63 m -4 Y s 631 63 m -4 Y s 724 63 m -4
 Y s 818 63 m -4 Y s 818 63 m -4 Y s
 gsave  408 306 476 13 C 527.045 39.8845 t 0 r /Helvetica findfont 22.8295 sf 0 0 m (0) show NC gr 
 gsave  408 306 476 13 C 623.907 39.8845 t 0 r /Helvetica findfont 22.8295 sf 0 0 m (1) show NC gr 
 gsave  408 306 476 13 C 715.071 39.8845 t 0 r /Helvetica findfont 22.8295 sf 0 0 m (2) show NC gr 
 gsave  408 306 476 13 C 809.085 39.8845 t 0 r /Helvetica findfont 22.8295 sf 0 0 m (3) show NC gr  537 288 m 307 X s 537 284 m 4 Y s 631 284 m 4 Y s 724 284 m 4 Y s 818 284 m 4 Y s 818 284 m 4 Y s 537 59 m 229 Y s 543 62 m -6 X s 540 67 m -3 X s 540
 72 m -3 X s 540 78 m -3 X s 540 83 m -3 X s 543 88 m -6 X s 540 93 m -3 X s 540 98 m -3 X s 540 103 m -3 X s 540 109 m -3 X s 543 114 m -6 X s 540 119 m -3 X s 540 124 m -3 X s 540 129 m -3 X s 540 134 m -3 X s 543 140 m -6 X s 540 145 m -3 X s 540
 150 m -3 X s 540 155 m -3 X s 540 160 m -3 X s 543 166 m -6 X s 540 171 m -3 X s 540 176 m -3 X s 540 181 m -3 X s 540 186 m -3 X s 543 191 m -6 X s 540 197 m -3 X s 540 202 m -3 X s 540 207 m -3 X s 540 212 m -3 X s 543 217 m -6 X s 540 222 m -3 X
 s 540 228 m -3 X s 540 233 m -3 X s 540 238 m -3 X s 543 243 m -6 X s 540 248 m -3 X s 540 253 m -3 X s 540 259 m -3 X s 540 264 m -3 X s 543 269 m -6 X s 543 62 m -6 X s 543 269 m -6 X s 540 274 m -3 X s 540 279 m -3 X s 540 285 m -3 X s
 gsave  408 306 476 13 C 481.462 54.1289 t 0 r /Helvetica findfont 22.8295 sf 0 0 m (\2550.03) show NC gr 
 gsave  408 306 476 13 C 481.462 79.7689 t 0 r /Helvetica findfont 22.8295 sf 0 0 m (\2550.02) show NC gr 
 gsave  408 306 476 13 C 484.311 105.409 t 0 r /Helvetica findfont 22.8295 sf 0 0 m (\2550.01) show NC gr 
 gsave  408 306 476 13 C 518.498 133.898 t 0 r /Helvetica findfont 22.8295 sf 0 0 m (0) show NC gr 
 gsave  408 306 476 13 C 490.009 159.538 t 0 r /Helvetica findfont 22.8295 sf 0 0 m (0.01) show NC gr 
 gsave  408 306 476 13 C 487.16 185.178 t 0 r /Helvetica findfont 22.8295 sf 0 0 m (0.02) show NC gr 
 gsave  408 306 476 13 C 487.16 210.818 t 0 r /Helvetica findfont 22.8295 sf 0 0 m (0.03) show NC gr 
 gsave  408 306 476 13 C 487.16 236.458 t 0 r /Helvetica findfont 22.8295 sf 0 0 m (0.04) show NC gr 
 gsave  408 306 476 13 C 487.16 262.098 t 0 r /Helvetica findfont 22.8295 sf 0 0 m (0.05) show NC gr  844 59 m 229 Y s 838 62 m 6 X s 841 67 m 3 X s 841 72 m 3 X s 841 78 m 3 X s 841 83 m 3 X s 838 88 m 6 X s 841 93 m 3 X s 841 98 m 3 X s 841 103 m 3
 X s 841 109 m 3 X s 838 114 m 6 X s 841 119 m 3 X s 841 124 m 3 X s 841 129 m 3 X s 841 134 m 3 X s 838 140 m 6 X s 841 145 m 3 X s 841 150 m 3 X s 841 155 m 3 X s 841 160 m 3 X s 838 166 m 6 X s 841 171 m 3 X s 841 176 m 3 X s 841 181 m 3 X s 841
 186 m 3 X s 838 191 m 6 X s 841 197 m 3 X s 841 202 m 3 X s 841 207 m 3 X s 841 212 m 3 X s 838 217 m 6 X s 841 222 m 3 X s 841 228 m 3 X s 841 233 m 3 X s 841 238 m 3 X s 838 243 m 6 X s 841 248 m 3 X s 841 253 m 3 X s 841 259 m 3 X s 841 264 m 3 X
 s 838 269 m 6 X s 838 62 m 6 X s 838 269 m 6 X s 841 274 m 3 X s 841 279 m 3 X s 841 285 m 3 X s /w 23 def /w2 {w 2 div} def /w3 {w 3 div} def 584 153 631 187 724 120 818 226 4 { m21} R 584 164 m 30 Y s 578 194 m 12 X s 584 141 m -30 Y s 578 111 m
 12 X s 631 199 m 31 Y s 625 230 m 12 X s 631 176 m -31 Y s 625 145 m 12 X s 724 131 m 30 Y s 719 161 m 11 X s 724 108 m -30 Y s 719 78 m 11 X s 818 238 m 31 Y s 812 269 m 12 X s 818 215 m -32 Y s 812 183 m 12 X s 1 0 0 c 9 lw 0.95 0.95 0.95 c black
 1 0 0 c 539 140 m 28 X 3 1 d 12 X 3 1 d 9 X 3 1 d 6 X 3 1 d 6 X 4 1 d 3 X 3 1 d 3 X 3 1 d 3 X 3 1 d 3 X 3 1 d 3 X 3 1 d 3 X 3 1 d 3 1 d 3 X 3 1 d 3 1 d 4 X 3 1 d 3 1 d 3 X 3 1 d 3 1 d 3 1 d 3 X s 689 159 m 3 1 d 3 1 d 3 1 d 3 1 d 3 1 d 3 1 d 3 X 3 1
 d 4 1 d 3 1 d 3 1 d 3 1 d 3 1 d 3 1 d 3 1 d 3 1 d 3 1 d 3 1 d 3 2 d 3 1 d 3 1 d 3 1 d 3 1 d 3 1 d 4 1 d 3 2 d 3 1 d 3 1 d 3 1 d 3 2 d 3 1 d 3 1 d 3 2 d 3 1 d 3 1 d 3 2 d 3 1 d 3 1 d 3 2 d 3 1 d 4 2 d 3 1 d 3 2 d 3 1 d 3 2 d 3 1 d 3 2 d 3 1 d 3 2 d s
 839 218 m 3 2 d s 0.49 0.6 0.82 c black 0.49 0.6 0.82 c
 gsave  408 306 476 13 C 595.418 296.285 t 0 r /Helvetica-Bold findfont 25.6831 sf 0 0 m (8.0 < E < 8.5 GeV) show NC gr  0.52 0.76 0.64 c black 0.52 0.76 0.64 c
 gsave  408 306 476 13 C 581.174 259.249 t 0 r /Helvetica-Bold findfont 25.6831 sf 0 0 m 
 220 206 192 185 170 163 148 141 125 118 111 97 83 68 61 47 40 25 18
(A = 0.003, p = 2.000) K NC gr  1 0.6 1 c black 1 0.6 1 c
 gsave  408 306 476 13 C 883.156 128.2 t 90 r /Helvetica-Bold findfont 28.5368 sf 0 0 m (/dof=0.9) show NC gr  black 1 0.6 1 c
 gsave  408 306 476 13 C 871.76 116.804 t 90 r /Helvetica-Bold findfont 19.9758 sf 0 0 m (2) show NC gr  black 1 0.6 1 c
 gsave  408 306 476 13 C 883.156 99.7112 t 90 r /Symbol findfont 28.5368 sf 0 0 m (c) show NC gr  black 3 lw 1 1 1 c 408 306 930 13 bf black 1 1 1 c black 306 229 991 59 bl 306 229 991 59 bl 991 59 m 306 X s 991 63 m -4 Y s 1084 63 m -4 Y s 1178 63 m
 -4 Y s 1271 63 m -4 Y s 1271 63 m -4 Y s
 gsave  408 306 930 13 C 980.018 39.8845 t 0 r /Helvetica findfont 22.8295 sf 0 0 m (0) show NC gr 
 gsave  408 306 930 13 C 1076.88 39.8845 t 0 r /Helvetica findfont 22.8295 sf 0 0 m (1) show NC gr 
 gsave  408 306 930 13 C 1168.04 39.8845 t 0 r /Helvetica findfont 22.8295 sf 0 0 m (2) show NC gr 
 gsave  408 306 930 13 C 1262.06 39.8845 t 0 r /Helvetica findfont 22.8295 sf 0 0 m (3) show NC gr  991 288 m 306 X s 991 284 m 4 Y s 1084 284 m 4 Y s 1178 284 m 4 Y s 1271 284 m 4 Y s 1271 284 m 4 Y s 991 59 m 229 Y s 997 73 m -6 X s 994 78 m -3 X s
 994 83 m -3 X s 994 88 m -3 X s 994 93 m -3 X s 997 97 m -6 X s 994 102 m -3 X s 994 107 m -3 X s 994 112 m -3 X s 994 117 m -3 X s 997 122 m -6 X s 994 127 m -3 X s 994 131 m -3 X s 994 136 m -3 X s 994 141 m -3 X s 997 146 m -6 X s 994 151 m -3 X
 s 994 156 m -3 X s 994 161 m -3 X s 994 165 m -3 X s 997 170 m -6 X s 994 175 m -3 X s 994 180 m -3 X s 994 185 m -3 X s 994 190 m -3 X s 997 194 m -6 X s 994 199 m -3 X s 994 204 m -3 X s 994 209 m -3 X s 994 214 m -3 X s 997 219 m -6 X s 994 224 m
 -3 X s 994 228 m -3 X s 994 233 m -3 X s 994 238 m -3 X s 997 243 m -6 X s 994 248 m -3 X s 994 253 m -3 X s 994 258 m -3 X s 994 262 m -3 X s 997 267 m -6 X s 997 73 m -6 X s 994 68 m -3 X s 994 64 m -3 X s 997 267 m -6 X s 994 272 m -3 X s 994 277
 m -3 X s 994 282 m -3 X s 994 287 m -3 X s
 gsave  408 306 930 13 C 937.285 65.5245 t 0 r /Helvetica findfont 22.8295 sf 0 0 m (\2550.05) show NC gr 
 gsave  408 306 930 13 C 937.285 91.1645 t 0 r /Helvetica findfont 22.8295 sf 0 0 m (\2550.04) show NC gr 
 gsave  408 306 930 13 C 937.285 113.956 t 0 r /Helvetica findfont 22.8295 sf 0 0 m (\2550.03) show NC gr 
 gsave  408 306 930 13 C 937.285 139.596 t 0 r /Helvetica findfont 22.8295 sf 0 0 m (\2550.02) show NC gr 
 gsave  408 306 930 13 C 940.134 162.387 t 0 r /Helvetica findfont 22.8295 sf 0 0 m (\2550.01) show NC gr 
 gsave  408 306 930 13 C 974.32 188.027 t 0 r /Helvetica findfont 22.8295 sf 0 0 m (0) show NC gr 
 gsave  408 306 930 13 C 945.832 210.818 t 0 r /Helvetica findfont 22.8295 sf 0 0 m (0.01) show NC gr 
 gsave  408 306 930 13 C 942.983 236.458 t 0 r /Helvetica findfont 22.8295 sf 0 0 m (0.02) show NC gr 
 gsave  408 306 930 13 C 942.983 259.249 t 0 r /Helvetica findfont 22.8295 sf 0 0 m (0.03) show NC gr  1297 59 m 229 Y s 1292 73 m 5 X s 1294 78 m 3 X s 1294 83 m 3 X s 1294 88 m 3 X s 1294 93 m 3 X s 1292 97 m 5 X s 1294 102 m 3 X s 1294 107 m 3 X s
 1294 112 m 3 X s 1294 117 m 3 X s 1292 122 m 5 X s 1294 127 m 3 X s 1294 131 m 3 X s 1294 136 m 3 X s 1294 141 m 3 X s 1292 146 m 5 X s 1294 151 m 3 X s 1294 156 m 3 X s 1294 161 m 3 X s 1294 165 m 3 X s 1292 170 m 5 X s 1294 175 m 3 X s 1294 180 m
 3 X s 1294 185 m 3 X s 1294 190 m 3 X s 1292 194 m 5 X s 1294 199 m 3 X s 1294 204 m 3 X s 1294 209 m 3 X s 1294 214 m 3 X s 1292 219 m 5 X s 1294 224 m 3 X s 1294 228 m 3 X s 1294 233 m 3 X s 1294 238 m 3 X s 1292 243 m 5 X s 1294 248 m 3 X s 1294
 253 m 3 X s 1294 258 m 3 X s 1294 262 m 3 X s 1292 267 m 5 X s 1292 73 m 5 X s 1294 68 m 3 X s 1294 64 m 3 X s 1292 267 m 5 X s 1294 272 m 3 X s 1294 277 m 3 X s 1294 282 m 3 X s 1294 287 m 3 X s 1038 120 1084 194 1178 178 1271 226 4 { m21} R 1038
 131 m 30 Y s 1032 161 m 11 X s 1038 108 m -30 Y s 1032 78 m 11 X s 1084 205 m 31 Y s 1079 236 m 11 X s 1084 183 m -31 Y s 1079 152 m 11 X s 1178 189 m 31 Y s 1172 220 m 12 X s 1178 167 m -31 Y s 1172 136 m 12 X s 1271 238 m 31 Y s 1266 269 m 11 X s
 1271 215 m -31 Y s 1266 184 m 11 X s 1 0 0 c 9 lw 0.95 0.95 0.95 c black 1 0 0 c 993 194 m 6 X 3 1 d 55 X 3 1 d 24 X 3 1 d 19 X 3 1 d 12 X 3 1 d 12 X 3 1 d 4 X s 1143 200 m 9 X 3 1 d 9 X 3 1 d 9 X 3 1 d 9 X 4 1 d 6 X 3 1 d 9 X 3 1 d 6 X 3 1 d 6 X 3
 1 d 6 X 3 1 d 7 X 3 1 d 3 X 3 1 d 6 X 3 1 d 6 X 3 1 d 3 X 3 1 d 6 X 3 1 d 4 X s 1293 215 m 3 1 d s 0.49 0.6 0.82 c black 0.49 0.6 0.82 c
 gsave  408 306 930 13 C 1051.24 296.285 t 0 r /Helvetica-Bold findfont 25.6831 sf 0 0 m (8.5 < E < 9.0 GeV) show NC gr  0.52 0.76 0.64 c black 0.52 0.76 0.64 c
 gsave  408 306 930 13 C 1037 259.249 t 0 r /Helvetica-Bold findfont 25.6831 sf 0 0 m 
 220 206 192 185 170 163 148 141 125 118 111 97 83 69 61 47 40 25 18
(A = 0.001, p = 2.000) K NC gr  1 0.6 1 c black 1 0.6 1 c
 gsave  408 306 930 13 C 1336.13 128.2 t 90 r /Helvetica-Bold findfont 28.5368 sf 0 0 m (/dof=1.3) show NC gr  black 1 0.6 1 c
 gsave  408 306 930 13 C 1324.73 116.804 t 90 r /Helvetica-Bold findfont 19.9758 sf 0 0 m (2) show NC gr  black 1 0.6 1 c
 gsave  408 306 930 13 C 1336.13 99.7112 t 90 r /Symbol findfont 28.5368 sf 0 0 m (c) show NC gr  black 3 lw 1 1 1 c 408 306 1383 13 bf black 1 1 1 c black 306 229 1445 59 bl 306 229 1445 59 bl 1445 59 m 306 X s 1445 63 m -4 Y s 1538 63 m -4 Y s 1631
 63 m -4 Y s 1725 63 m -4 Y s 1725 63 m -4 Y s
 gsave  408 306 1383 13 C 1435.84 39.8845 t 0 r /Helvetica findfont 22.8295 sf 0 0 m (0) show NC gr 
 gsave  408 306 1383 13 C 1529.85 39.8845 t 0 r /Helvetica findfont 22.8295 sf 0 0 m (1) show NC gr 
 gsave  408 306 1383 13 C 1621.02 39.8845 t 0 r /Helvetica findfont 22.8295 sf 0 0 m (2) show NC gr 
 gsave  408 306 1383 13 C 1715.03 39.8845 t 0 r /Helvetica findfont 22.8295 sf 0 0 m (3) show NC gr  1445 288 m 306 X s 1445 284 m 4 Y s 1538 284 m 4 Y s 1631 284 m 4 Y s 1725 284 m 4 Y s 1725 284 m 4 Y s 1445 59 m 229 Y s 1450 80 m -5 X s 1447 86 m
 -2 X s 1447 92 m -2 X s 1447 97 m -2 X s 1447 103 m -2 X s 1450 108 m -5 X s 1447 114 m -2 X s 1447 119 m -2 X s 1447 125 m -2 X s 1447 131 m -2 X s 1450 136 m -5 X s 1447 142 m -2 X s 1447 147 m -2 X s 1447 153 m -2 X s 1447 159 m -2 X s 1450 164 m
 -5 X s 1447 170 m -2 X s 1447 175 m -2 X s 1447 181 m -2 X s 1447 186 m -2 X s 1450 192 m -5 X s 1447 198 m -2 X s 1447 203 m -2 X s 1447 209 m -2 X s 1447 214 m -2 X s 1450 220 m -5 X s 1447 226 m -2 X s 1447 231 m -2 X s 1447 237 m -2 X s 1447 242
 m -2 X s 1450 248 m -5 X s 1447 253 m -2 X s 1447 259 m -2 X s 1447 265 m -2 X s 1447 270 m -2 X s 1450 276 m -5 X s 1450 80 m -5 X s 1447 75 m -2 X s 1447 69 m -2 X s 1447 64 m -2 X s 1450 276 m -5 X s 1447 281 m -2 X s 1447 287 m -2 X s
 gsave  408 306 1383 13 C 1390.26 74.0711 t 0 r /Helvetica findfont 22.8295 sf 0 0 m (\2550.04) show NC gr 
 gsave  408 306 1383 13 C 1390.26 102.56 t 0 r /Helvetica findfont 22.8295 sf 0 0 m (\2550.03) show NC gr 
 gsave  408 306 1383 13 C 1390.26 128.2 t 0 r /Helvetica findfont 22.8295 sf 0 0 m (\2550.02) show NC gr 
 gsave  408 306 1383 13 C 1393.11 156.689 t 0 r /Helvetica findfont 22.8295 sf 0 0 m (\2550.01) show NC gr 
 gsave  408 306 1383 13 C 1427.29 185.178 t 0 r /Helvetica findfont 22.8295 sf 0 0 m (0) show NC gr 
 gsave  408 306 1383 13 C 1398.81 213.667 t 0 r /Helvetica findfont 22.8295 sf 0 0 m (0.01) show NC gr 
 gsave  408 306 1383 13 C 1395.96 239.307 t 0 r /Helvetica findfont 22.8295 sf 0 0 m (0.02) show NC gr 
 gsave  408 306 1383 13 C 1395.96 267.796 t 0 r /Helvetica findfont 22.8295 sf 0 0 m (0.03) show NC gr  1751 59 m 229 Y s 1745 80 m 6 X s 1748 86 m 3 X s 1748 92 m 3 X s 1748 97 m 3 X s 1748 103 m 3 X s 1745 108 m 6 X s 1748 114 m 3 X s 1748 119 m 3
 X s 1748 125 m 3 X s 1748 131 m 3 X s 1745 136 m 6 X s 1748 142 m 3 X s 1748 147 m 3 X s 1748 153 m 3 X s 1748 159 m 3 X s 1745 164 m 6 X s 1748 170 m 3 X s 1748 175 m 3 X s 1748 181 m 3 X s 1748 186 m 3 X s 1745 192 m 6 X s 1748 198 m 3 X s 1748
 203 m 3 X s 1748 209 m 3 X s 1748 214 m 3 X s 1745 220 m 6 X s 1748 226 m 3 X s 1748 231 m 3 X s 1748 237 m 3 X s 1748 242 m 3 X s 1745 248 m 6 X s 1748 253 m 3 X s 1748 259 m 3 X s 1748 265 m 3 X s 1748 270 m 3 X s 1745 276 m 6 X s 1745 80 m 6 X s
 1748 75 m 3 X s 1748 69 m 3 X s 1748 64 m 3 X s 1745 276 m 6 X s 1748 281 m 3 X s 1748 287 m 3 X s 1491 210 1538 173 1631 130 1725 217 4 { m21} R 1491 221 m 41 Y s 1486 262 m 11 X s 1491 198 m -41 Y s 1486 157 m 11 X s 1538 185 m 40 Y s 1532 225 m
 12 X s 1538 162 m -40 Y s 1532 122 m 12 X s 1631 141 m 40 Y s 1626 181 m 11 X s 1631 118 m -40 Y s 1626 78 m 11 X s 1725 228 m 41 Y s 1719 269 m 12 X s 1725 205 m -41 Y s 1719 164 m 12 X s 9 lw 0.95 0.95 0.95 c black 1446 192 m 6 X 3 -1 d 19 X 3 -1
 d 18 X 3 -1 d 15 X 3 -1 d 19 X 3 -1 d 18 X 3 -1 d 16 X 3 -1 d 18 X s 1596 185 m 3 -1 d 19 X 3 -1 d 15 X 3 -1 d 18 X 3 -1 d 19 X 3 -1 d 15 X 3 -1 d 19 X 3 -1 d 18 X 3 -1 d 3 X s 1746 177 m 3 X s 0.49 0.6 0.82 c black 0.49 0.6 0.82 c
 gsave  408 306 1383 13 C 1504.21 296.285 t 0 r /Helvetica-Bold findfont 25.6831 sf 0 0 m (9.0 < E < 9.5 GeV) show NC gr  0.52 0.76 0.64 c black 0.52 0.76 0.64 c
 gsave  408 306 1383 13 C 1484.27 259.249 t 0 r /Helvetica-Bold findfont 25.6831 sf 0 0 m 
 228 214 200 193 178 171 156 149 134 126 119 105 91 77 69 55 47 40 25 17
(A = \2550.002, p = 1.000) K NC gr  1 0.6 1 c black 1 0.6 1 c
 gsave  408 306 1383 13 C 1789.1 128.2 t 90 r /Helvetica-Bold findfont 28.5368 sf 0 0 m (/dof=0.6) show NC gr  black 1 0.6 1 c
 gsave  408 306 1383 13 C 1777.71 116.804 t 90 r /Helvetica-Bold findfont 19.9758 sf 0 0 m (2) show NC gr  black 1 0.6 1 c
 gsave  408 306 1383 13 C 1789.1 99.7112 t 90 r /Symbol findfont 28.5368 sf 0 0 m (c) show NC gr  black 3 lw 1 1 1 c 408 306 1837 13 bf black 1 1 1 c black 306 229 1898 59 bl 306 229 1898 59 bl 1898 59 m 306 X s 1898 63 m -4 Y s 1992 63 m -4 Y s 2085
 63 m -4 Y s 2179 63 m -4 Y s 2179 63 m -4 Y s
 gsave  408 306 1837 13 C 1888.81 39.8845 t 0 r /Helvetica findfont 22.8295 sf 0 0 m (0) show NC gr 
 gsave  408 306 1837 13 C 1985.68 39.8845 t 0 r /Helvetica findfont 22.8295 sf 0 0 m (1) show NC gr 
 gsave  408 306 1837 13 C 2073.99 39.8845 t 0 r /Helvetica findfont 22.8295 sf 0 0 m (2) show NC gr 
 gsave  408 306 1837 13 C 2168.01 39.8845 t 0 r /Helvetica findfont 22.8295 sf 0 0 m (3) show NC gr  1898 288 m 306 X s 1898 284 m 4 Y s 1992 284 m 4 Y s 2085 284 m 4 Y s 2179 284 m 4 Y s 2179 284 m 4 Y s 1898 59 m 229 Y s 1904 87 m -6 X s 1901 94 m
 -3 X s 1901 102 m -3 X s 1901 110 m -3 X s 1904 117 m -6 X s 1901 125 m -3 X s 1901 133 m -3 X s 1901 140 m -3 X s 1904 148 m -6 X s 1901 156 m -3 X s 1901 163 m -3 X s 1901 171 m -3 X s 1904 179 m -6 X s 1901 187 m -3 X s 1901 194 m -3 X s 1901 202
 m -3 X s 1904 210 m -6 X s 1901 217 m -3 X s 1901 225 m -3 X s 1901 233 m -3 X s 1904 240 m -6 X s 1901 248 m -3 X s 1901 256 m -3 X s 1901 263 m -3 X s 1904 271 m -6 X s 1904 87 m -6 X s 1901 79 m -3 X s 1901 71 m -3 X s 1901 64 m -3 X s 1904 271 m
 -6 X s 1901 279 m -3 X s 1901 286 m -3 X s
 gsave  408 306 1837 13 C 1843.23 79.7689 t 0 r /Helvetica findfont 22.8295 sf 0 0 m (\2550.04) show NC gr 
 gsave  408 306 1837 13 C 1843.23 111.107 t 0 r /Helvetica findfont 22.8295 sf 0 0 m (\2550.02) show NC gr 
 gsave  408 306 1837 13 C 1880.27 139.596 t 0 r /Helvetica findfont 22.8295 sf 0 0 m (0) show NC gr 
 gsave  408 306 1837 13 C 1848.93 170.933 t 0 r /Helvetica findfont 22.8295 sf 0 0 m (0.02) show NC gr 
 gsave  408 306 1837 13 C 1848.93 202.271 t 0 r /Helvetica findfont 22.8295 sf 0 0 m (0.04) show NC gr 
 gsave  408 306 1837 13 C 1848.93 233.609 t 0 r /Helvetica findfont 22.8295 sf 0 0 m (0.06) show NC gr 
 gsave  408 306 1837 13 C 1848.93 264.947 t 0 r /Helvetica findfont 22.8295 sf 0 0 m (0.08) show NC gr  2204 59 m 229 Y s 2199 87 m 5 X s 2201 94 m 3 X s 2201 102 m 3 X s 2201 110 m 3 X s 2199 117 m 5 X s 2201 125 m 3 X s 2201 133 m 3 X s 2201 140 m
 3 X s 2199 148 m 5 X s 2201 156 m 3 X s 2201 163 m 3 X s 2201 171 m 3 X s 2199 179 m 5 X s 2201 187 m 3 X s 2201 194 m 3 X s 2201 202 m 3 X s 2199 210 m 5 X s 2201 217 m 3 X s 2201 225 m 3 X s 2201 233 m 3 X s 2199 240 m 5 X s 2201 248 m 3 X s 2201
 256 m 3 X s 2201 263 m 3 X s 2199 271 m 5 X s 2199 87 m 5 X s 2201 79 m 3 X s 2201 71 m 3 X s 2201 64 m 3 X s 2199 271 m 5 X s 2201 279 m 3 X s 2201 286 m 3 X s 1945 108 1992 176 2085 184 2179 237 4 { m21} R 1945 120 m 19 Y s 1939 139 m 12 X s 1945
 97 m -19 Y s 1939 78 m 12 X s 1992 187 m 20 Y s 1986 207 m 11 X s 1992 165 m -20 Y s 1986 145 m 11 X s 2085 195 m 20 Y s 2079 215 m 12 X s 2085 172 m -19 Y s 2079 153 m 12 X s 2179 248 m 21 Y s 2173 269 m 11 X s 2179 226 m -21 Y s 2173 205 m 11 X s
 1 0 0 c 9 lw 0.95 0.95 0.95 c black 1 0 0 c 1900 148 m 15 X 3 1 d 12 X 3 1 d 9 X 4 1 d 6 X 3 1 d 3 X 3 1 d 6 X 3 1 d 3 X 3 1 d 3 1 d 3 X 3 1 d 3 X 3 1 d 4 1 d 3 X 3 1 d 3 1 d 3 X 3 1 d 3 1 d 3 1 d 3 1 d 3 X 3 1 d 3 1 d 3 1 d 3 1 d 3 1 d 3 1 d 3 1 d
 4 1 d 3 1 d s 2050 174 m 3 1 d 3 1 d 3 1 d 3 1 d 3 1 d 3 2 d 3 1 d 3 1 d 3 1 d 3 1 d 3 2 d 3 1 d 3 1 d 3 2 d 4 1 d 3 1 d 3 2 d 3 1 d 3 1 d 3 2 d 3 1 d 3 2 d 3 1 d 3 2 d 3 1 d 3 2 d 3 2 d 3 1 d 3 2 d 3 2 d 4 1 d 3 2 d 3 2 d 3 1 d 3 2 d 3 2 d 3 2 d 3
 2 d 3 1 d 3 2 d 3 2 d 3 2 d 3 2 d 3 2 d 3 2 d 3 2 d 4 2 d 3 2 d 3 2 d s 2200 250 m 3 2 d s 0.49 0.6 0.82 c black 0.49 0.6 0.82 c
 gsave  408 306 1837 13 C 1948.64 296.285 t 0 r /Helvetica-Bold findfont 25.6831 sf 0 0 m (9.5 < E < 10.0 GeV) show NC gr  0.52 0.76 0.64 c black 0.52 0.76 0.64 c
 gsave  408 306 1837 13 C 1942.94 259.249 t 0 r /Helvetica-Bold findfont 25.6831 sf 0 0 m 
 220 206 192 185 170 163 148 141 125 118 111 97 83 69 61 47 40 25 18
(A = 0.006, p = 2.000) K NC gr  1 0.6 1 c black 1 0.6 1 c
 gsave  408 306 1837 13 C 2242.08 128.2 t 90 r /Helvetica-Bold findfont 28.5368 sf 0 0 m (/dof=0.8) show NC gr  black 1 0.6 1 c
 gsave  408 306 1837 13 C 2230.68 116.804 t 90 r /Helvetica-Bold findfont 19.9758 sf 0 0 m (2) show NC gr  black 1 0.6 1 c
 gsave  408 306 1837 13 C 2242.08 99.7112 t 90 r /Symbol findfont 28.5368 sf 0 0 m (c) show NC gr 
 gr  gr showpage
end
%%EOF
