%!PS-Adobe-2.0 EPSF-2.0
%%BoundingBox:  0 0 567 332
%%Title: TargetYTilt_far_fits.eps: Fits
%%Creator: ROOT Version 5.30/06
%%CreationDate: Sun Feb  2 09:36:00 2014
%%EndComments
%%BeginProlog
80 dict begin
/s {stroke} def /l {lineto} def /m {moveto} def /t {translate} def
/r {rotate} def /rl {roll}  def /R {repeat} def
/d {rlineto} def /rm {rmoveto} def /gr {grestore} def /f {eofill} def
/c {setrgbcolor} def /black {0 setgray} def /sd {setdash} def
/cl {closepath} def /sf {scalefont setfont} def /lw {setlinewidth} def
/box {m dup 0 exch d exch 0 d 0 exch neg d cl} def
/NC{systemdict begin initclip end}def/C{NC box clip newpath}def
/bl {box s} def /bf {box f} def /Y { 0 exch d} def /X { 0 d} def 
/K {{pop pop 0 moveto} exch kshow} bind def
/ita {/ang 15 def gsave [1 0 ang dup sin exch cos div 1 0 0] concat} def 
/mp {newpath /y exch def /x exch def} def
/side {[w .77 mul w .23 mul] .385 w mul sd w 0 l currentpoint t -144 r} def
/mr {mp x y w2 0 360 arc} def /m24 {mr s} def /m20 {mr f} def
/mb {mp x y w2 add m w2 neg 0 d 0 w neg d w 0 d 0 w d cl} def
/mt {mp x y w2 add m w2 neg w neg d w 0 d cl} def
/m21 {mb f} def /m25 {mb s} def /m22 {mt f} def /m26{mt s} def
/m23 {mp x y w2 sub m w2 w d w neg 0 d cl f} def
/m27 {mp x y w2 add m w3 neg w2 neg d w3 w2 neg d w3 w2 d cl s} def
/m28 {mp x w2 sub y w2 sub w3 add m w3 0 d  0 w3 neg d w3 0 d 0 w3 d w3 0 d  0 w3 d w3 neg 0 d 0 w3 d w3 neg 0 d 0 w3 neg d w3 neg 0 d cl s } def
/m29 {mp gsave x w2 sub y w2 add w3 sub m currentpoint t 4 {side} repeat cl fill gr} def
/m30 {mp gsave x w2 sub y w2 add w3 sub m currentpoint t 4 {side} repeat cl s gr} def
/m31 {mp x y w2 sub m 0 w d x w2 sub y m w 0 d x w2 sub y w2 add m w w neg d x w2 sub y w2 sub m w w d s} def
/m32 {mp x y w2 sub m w2 w d w neg 0 d cl s} def
/m33 {mp x y w2 add m w3 neg w2 neg d w3 w2 neg d w3 w2 d cl f} def
/m34 {mp x w2 sub y w2 sub w3 add m w3 0 d  0 w3 neg d w3 0 d 0 w3 d w3 0 d  0 w3 d w3 neg 0 d 0 w3 d w3 neg 0 d 0 w3 neg d w3 neg 0 d cl f } def
/m2 {mp x y w2 sub m 0 w d x w2 sub y m w 0 d s} def
/m5 {mp x w2 sub y w2 sub m w w d x w2 sub y w2 add m w w neg d s} def
/reEncode {exch findfont dup length dict begin {1 index /FID eq  {pop pop} {def} ifelse } forall /Encoding exch def currentdict end dup /FontName get exch definefont pop } def [/Times-Bold /Times-Italic /Times-BoldItalic /Helvetica /Helvetica-Oblique
 /Helvetica-Bold /Helvetica-BoldOblique /Courier /Courier-Oblique /Courier-Bold /Courier-BoldOblique /Times-Roman /AvantGarde-Book /AvantGarde-BookOblique /AvantGarde-Demi /AvantGarde-DemiOblique /Bookman-Demi /Bookman-DemiItalic /Bookman-Light
 /Bookman-LightItalic /Helvetica-Narrow /Helvetica-Narrow-Bold /Helvetica-Narrow-BoldOblique /Helvetica-Narrow-Oblique /NewCenturySchlbk-Roman /NewCenturySchlbk-Bold /NewCenturySchlbk-BoldItalic /NewCenturySchlbk-Italic /Palatino-Bold
 /Palatino-BoldItalic /Palatino-Italic /Palatino-Roman ] {ISOLatin1Encoding reEncode } forall%%EndProlog
%%BeginSetup
%%EndSetup
newpath  gsave  .25 .25 scale  gsave  0 0 t black[  ] 0 sd 3 lw 1 1 1 c 2268 1328 0 0 bf black 1 1 1 c 408 305 23 1009 bf black 1 1 1 c black 306 229 84 1055 bl 306 229 84 1055 bl 84 1055 m 306 X s 84 1059 m -4 Y s 177 1059 m -4 Y s 271 1059 m -4 Y s
 364 1059 m -4 Y s 364 1059 m -4 Y s
 gsave  408 305 23 1009 C 74.0711 1034.15 t 0 r /Helvetica findfont 22.8295 sf 0 0 m (0) show NC gr 
 gsave  408 305 23 1009 C 170.933 1034.15 t 0 r /Helvetica findfont 22.8295 sf 0 0 m (1) show NC gr 
 gsave  408 305 23 1009 C 262.098 1034.15 t 0 r /Helvetica findfont 22.8295 sf 0 0 m (2) show NC gr 
 gsave  408 305 23 1009 C 353.262 1034.15 t 0 r /Helvetica findfont 22.8295 sf 0 0 m (3) show NC gr  84 1284 m 306 X s 84 1280 m 4 Y s 177 1280 m 4 Y s 271 1280 m 4 Y s 364 1280 m 4 Y s 364 1280 m 4 Y s 84 1055 m 229 Y s 89 1058 m -5 X s 87 1063 m -3
 X s 87 1068 m -3 X s 87 1073 m -3 X s 87 1078 m -3 X s 89 1083 m -5 X s 87 1089 m -3 X s 87 1094 m -3 X s 87 1099 m -3 X s 87 1104 m -3 X s 89 1109 m -5 X s 87 1115 m -3 X s 87 1120 m -3 X s 87 1125 m -3 X s 87 1130 m -3 X s 89 1135 m -5 X s 87 1141
 m -3 X s 87 1146 m -3 X s 87 1151 m -3 X s 87 1156 m -3 X s 89 1161 m -5 X s 87 1166 m -3 X s 87 1172 m -3 X s 87 1177 m -3 X s 87 1182 m -3 X s 89 1187 m -5 X s 87 1192 m -3 X s 87 1198 m -3 X s 87 1203 m -3 X s 87 1208 m -3 X s 89 1213 m -5 X s 87
 1218 m -3 X s 87 1223 m -3 X s 87 1229 m -3 X s 87 1234 m -3 X s 89 1239 m -5 X s 87 1244 m -3 X s 87 1249 m -3 X s 87 1255 m -3 X s 87 1260 m -3 X s 89 1265 m -5 X s 89 1058 m -5 X s 89 1265 m -5 X s 87 1270 m -3 X s 87 1275 m -3 X s 87 1280 m -3 X
 s
 gsave  408 305 23 1009 C 14.2445 1051.24 t 0 r /Helvetica findfont 22.8295 sf 0 0 m (\2550.004) show NC gr 
 gsave  408 305 23 1009 C 14.2445 1076.88 t 0 r /Helvetica findfont 22.8295 sf 0 0 m (\2550.003) show NC gr 
 gsave  408 305 23 1009 C 14.2445 1102.52 t 0 r /Helvetica findfont 22.8295 sf 0 0 m (\2550.002) show NC gr 
 gsave  408 305 23 1009 C 17.0933 1128.16 t 0 r /Helvetica findfont 22.8295 sf 0 0 m (\2550.001) show NC gr 
 gsave  408 305 23 1009 C 65.5245 1153.8 t 0 r /Helvetica findfont 22.8295 sf 0 0 m (0) show NC gr 
 gsave  408 305 23 1009 C 25.64 1179.44 t 0 r /Helvetica findfont 22.8295 sf 0 0 m (0.001) show NC gr 
 gsave  408 305 23 1009 C 22.7911 1205.08 t 0 r /Helvetica findfont 22.8295 sf 0 0 m (0.002) show NC gr 
 gsave  408 305 23 1009 C 22.7911 1230.72 t 0 r /Helvetica findfont 22.8295 sf 0 0 m (0.003) show NC gr 
 gsave  408 305 23 1009 C 22.7911 1256.36 t 0 r /Helvetica findfont 22.8295 sf 0 0 m (0.004) show NC gr  390 1055 m 229 Y s 385 1058 m 5 X s 387 1063 m 3 X s 387 1068 m 3 X s 387 1073 m 3 X s 387 1078 m 3 X s 385 1083 m 5 X s 387 1089 m 3 X s 387
 1094 m 3 X s 387 1099 m 3 X s 387 1104 m 3 X s 385 1109 m 5 X s 387 1115 m 3 X s 387 1120 m 3 X s 387 1125 m 3 X s 387 1130 m 3 X s 385 1135 m 5 X s 387 1141 m 3 X s 387 1146 m 3 X s 387 1151 m 3 X s 387 1156 m 3 X s 385 1161 m 5 X s 387 1166 m 3 X
 s 387 1172 m 3 X s 387 1177 m 3 X s 387 1182 m 3 X s 385 1187 m 5 X s 387 1192 m 3 X s 387 1198 m 3 X s 387 1203 m 3 X s 387 1208 m 3 X s 385 1213 m 5 X s 387 1218 m 3 X s 387 1223 m 3 X s 387 1229 m 3 X s 387 1234 m 3 X s 385 1239 m 5 X s 387 1244
 m 3 X s 387 1249 m 3 X s 387 1255 m 3 X s 387 1260 m 3 X s 385 1265 m 5 X s 385 1058 m 5 X s 385 1265 m 5 X s 387 1270 m 3 X s 387 1275 m 3 X s 387 1280 m 3 X s /w 22 def /w2 {w 2 div} def /w3 {w 3 div} def 131 1134 177 1218 271 1120 364 1189 4 {
 m21} R 131 1145 m 35 Y s 125 1180 m 11 X s 131 1122 m -35 Y s 125 1087 m 11 X s 177 1229 m 36 Y s 172 1265 m 11 X s 177 1207 m -36 Y s 172 1171 m 11 X s 271 1132 m 35 Y s 265 1167 m 12 X s 271 1109 m -35 Y s 265 1074 m 12 X s 364 1201 m 35 Y s 359
 1236 m 11 X s 364 1178 m -36 Y s 359 1142 m 11 X s 1 0 0 c 9 lw 0.95 0.95 0.95 c black 1 0 0 c 85 1161 m 37 X 3 1 d 46 X 3 1 d 28 X 3 1 d 21 X 3 1 d 6 X s 235 1165 m 13 X 3 1 d 15 X 3 1 d 12 X 3 1 d 13 X 3 1 d 12 X 3 1 d 9 X 3 1 d 9 X 4 1 d 9 X 3 1
 d 9 X 3 1 d 9 X 3 1 d 6 X 3 1 d s 385 1176 m 4 X s 0.49 0.6 0.82 c black 0.49 0.6 0.82 c
 gsave  408 305 23 1009 C 142.445 1293.4 t 0 r /Helvetica-Bold findfont 25.6831 sf 0 0 m (0.0 < E < 0.5 GeV) show NC gr  0.52 0.76 0.64 c black 0.52 0.76 0.64 c
 gsave  408 305 23 1009 C 128.2 1256.36 t 0 r /Helvetica-Bold findfont 25.6831 sf 0 0 m 
 220 206 192 185 170 163 148 141 126 118 111 97 83 69 61 47 40 25 18
(A = 0.000, p = 2.000) K NC gr  1 0.6 1 c black 1 0.6 1 c
 gsave  408 305 23 1009 C 427.334 1122.46 t 90 r /Helvetica-Bold findfont 28.5368 sf 0 0 m (/dof=1.0) show NC gr  black 1 0.6 1 c
 gsave  408 305 23 1009 C 415.938 1111.07 t 90 r /Helvetica-Bold findfont 19.9758 sf 0 0 m (2) show NC gr  black 1 0.6 1 c
 gsave  408 305 23 1009 C 427.334 1093.97 t 90 r /Symbol findfont 28.5368 sf 0 0 m (c) show NC gr  black 3 lw 1 1 1 c 408 305 476 1009 bf black 1 1 1 c black 307 229 537 1055 bl 307 229 537 1055 bl 537 1055 m 307 X s 537 1059 m -4 Y s 631 1059 m -4 Y
 s 724 1059 m -4 Y s 818 1059 m -4 Y s 818 1059 m -4 Y s
 gsave  408 305 476 1009 C 527.045 1034.15 t 0 r /Helvetica findfont 22.8295 sf 0 0 m (0) show NC gr 
 gsave  408 305 476 1009 C 623.907 1034.15 t 0 r /Helvetica findfont 22.8295 sf 0 0 m (1) show NC gr 
 gsave  408 305 476 1009 C 715.071 1034.15 t 0 r /Helvetica findfont 22.8295 sf 0 0 m (2) show NC gr 
 gsave  408 305 476 1009 C 809.085 1034.15 t 0 r /Helvetica findfont 22.8295 sf 0 0 m (3) show NC gr  537 1284 m 307 X s 537 1280 m 4 Y s 631 1280 m 4 Y s 724 1280 m 4 Y s 818 1280 m 4 Y s 818 1280 m 4 Y s 537 1055 m 229 Y s 543 1067 m -6 X s 540
 1071 m -3 X s 540 1076 m -3 X s 540 1081 m -3 X s 540 1085 m -3 X s 543 1090 m -6 X s 540 1095 m -3 X s 540 1100 m -3 X s 540 1104 m -3 X s 540 1109 m -3 X s 543 1114 m -6 X s 540 1118 m -3 X s 540 1123 m -3 X s 540 1128 m -3 X s 540 1132 m -3 X s
 543 1137 m -6 X s 540 1142 m -3 X s 540 1147 m -3 X s 540 1151 m -3 X s 540 1156 m -3 X s 543 1161 m -6 X s 540 1165 m -3 X s 540 1170 m -3 X s 540 1175 m -3 X s 540 1180 m -3 X s 543 1184 m -6 X s 540 1189 m -3 X s 540 1194 m -3 X s 540 1198 m -3 X
 s 540 1203 m -3 X s 543 1208 m -6 X s 540 1212 m -3 X s 540 1217 m -3 X s 540 1222 m -3 X s 540 1227 m -3 X s 543 1231 m -6 X s 540 1236 m -3 X s 540 1241 m -3 X s 540 1245 m -3 X s 540 1250 m -3 X s 543 1255 m -6 X s 540 1259 m -3 X s 540 1264 m -3
 X s 540 1269 m -3 X s 540 1274 m -3 X s 543 1278 m -6 X s 543 1067 m -6 X s 540 1062 m -3 X s 540 1057 m -3 X s 543 1278 m -6 X s 540 1283 m -3 X s
 gsave  408 305 476 1009 C 467.218 1059.79 t 0 r /Helvetica findfont 22.8295 sf 0 0 m (\2550.004) show NC gr 
 gsave  408 305 476 1009 C 467.218 1082.58 t 0 r /Helvetica findfont 22.8295 sf 0 0 m (\2550.003) show NC gr 
 gsave  408 305 476 1009 C 467.218 1105.37 t 0 r /Helvetica findfont 22.8295 sf 0 0 m (\2550.002) show NC gr 
 gsave  408 305 476 1009 C 470.067 1131.01 t 0 r /Helvetica findfont 22.8295 sf 0 0 m (\2550.001) show NC gr 
 gsave  408 305 476 1009 C 518.498 1153.8 t 0 r /Helvetica findfont 22.8295 sf 0 0 m (0) show NC gr 
 gsave  408 305 476 1009 C 478.614 1176.59 t 0 r /Helvetica findfont 22.8295 sf 0 0 m (0.001) show NC gr 
 gsave  408 305 476 1009 C 475.765 1199.38 t 0 r /Helvetica findfont 22.8295 sf 0 0 m (0.002) show NC gr 
 gsave  408 305 476 1009 C 475.765 1225.02 t 0 r /Helvetica findfont 22.8295 sf 0 0 m (0.003) show NC gr 
 gsave  408 305 476 1009 C 475.765 1247.81 t 0 r /Helvetica findfont 22.8295 sf 0 0 m (0.004) show NC gr 
 gsave  408 305 476 1009 C 475.765 1270.6 t 0 r /Helvetica findfont 22.8295 sf 0 0 m (0.005) show NC gr  844 1055 m 229 Y s 838 1067 m 6 X s 841 1071 m 3 X s 841 1076 m 3 X s 841 1081 m 3 X s 841 1085 m 3 X s 838 1090 m 6 X s 841 1095 m 3 X s 841
 1100 m 3 X s 841 1104 m 3 X s 841 1109 m 3 X s 838 1114 m 6 X s 841 1118 m 3 X s 841 1123 m 3 X s 841 1128 m 3 X s 841 1132 m 3 X s 838 1137 m 6 X s 841 1142 m 3 X s 841 1147 m 3 X s 841 1151 m 3 X s 841 1156 m 3 X s 838 1161 m 6 X s 841 1165 m 3 X
 s 841 1170 m 3 X s 841 1175 m 3 X s 841 1180 m 3 X s 838 1184 m 6 X s 841 1189 m 3 X s 841 1194 m 3 X s 841 1198 m 3 X s 841 1203 m 3 X s 838 1208 m 6 X s 841 1212 m 3 X s 841 1217 m 3 X s 841 1222 m 3 X s 841 1227 m 3 X s 838 1231 m 6 X s 841 1236
 m 3 X s 841 1241 m 3 X s 841 1245 m 3 X s 841 1250 m 3 X s 838 1255 m 6 X s 841 1259 m 3 X s 841 1264 m 3 X s 841 1269 m 3 X s 841 1274 m 3 X s 838 1278 m 6 X s 838 1067 m 6 X s 841 1062 m 3 X s 841 1057 m 3 X s 838 1278 m 6 X s 841 1283 m 3 X s /w
 23 def /w2 {w 2 div} def /w3 {w 3 div} def 584 1184 631 1213 724 1125 818 1186 4 { m21} R 584 1196 m 40 Y s 578 1236 m 12 X s 584 1173 m -40 Y s 578 1133 m 12 X s 631 1224 m 41 Y s 625 1265 m 12 X s 631 1202 m -41 Y s 625 1161 m 12 X s 724 1137 m 40
 Y s 719 1177 m 11 X s 724 1114 m -40 Y s 719 1074 m 11 X s 818 1197 m 40 Y s 812 1237 m 12 X s 818 1174 m -40 Y s 812 1134 m 12 X s 9 lw 0.95 0.95 0.95 c black 539 1161 m 12 X 3 1 d 19 X 3 1 d 15 X 3 1 d 15 X 3 1 d 19 X 3 1 d 15 X 3 1 d 19 X 3 1 d
 15 X s 689 1168 m 3 1 d 15 X 3 1 d 19 X 3 1 d 15 X 3 1 d 19 X 3 1 d 15 X 3 1 d 18 X 3 1 d 16 X 3 1 d 9 X s 839 1176 m 3 X s 0.49 0.6 0.82 c black 0.49 0.6 0.82 c
 gsave  408 305 476 1009 C 595.418 1293.4 t 0 r /Helvetica-Bold findfont 25.6831 sf 0 0 m (0.5 < E < 1.0 GeV) show NC gr  0.52 0.76 0.64 c black 0.52 0.76 0.64 c
 gsave  408 305 476 1009 C 581.174 1256.36 t 0 r /Helvetica-Bold findfont 25.6831 sf 0 0 m 
 220 206 192 185 170 163 148 141 125 118 111 97 83 68 61 47 40 25 18
(A = 0.000, p = 1.000) K NC gr  1 0.6 1 c black 1 0.6 1 c
 gsave  408 305 476 1009 C 883.156 1122.46 t 90 r /Helvetica-Bold findfont 28.5368 sf 0 0 m (/dof=0.6) show NC gr  black 1 0.6 1 c
 gsave  408 305 476 1009 C 871.76 1111.07 t 90 r /Helvetica-Bold findfont 19.9758 sf 0 0 m (2) show NC gr  black 1 0.6 1 c
 gsave  408 305 476 1009 C 883.156 1093.97 t 90 r /Symbol findfont 28.5368 sf 0 0 m (c) show NC gr  black 3 lw 1 1 1 c 408 305 930 1009 bf black 1 1 1 c black 306 229 991 1055 bl 306 229 991 1055 bl 991 1055 m 306 X s 991 1059 m -4 Y s 1084 1059 m -4
 Y s 1178 1059 m -4 Y s 1271 1059 m -4 Y s 1271 1059 m -4 Y s
 gsave  408 305 930 1009 C 980.018 1034.15 t 0 r /Helvetica findfont 22.8295 sf 0 0 m (0) show NC gr 
 gsave  408 305 930 1009 C 1076.88 1034.15 t 0 r /Helvetica findfont 22.8295 sf 0 0 m (1) show NC gr 
 gsave  408 305 930 1009 C 1168.04 1034.15 t 0 r /Helvetica findfont 22.8295 sf 0 0 m (2) show NC gr 
 gsave  408 305 930 1009 C 1262.06 1034.15 t 0 r /Helvetica findfont 22.8295 sf 0 0 m (3) show NC gr  991 1284 m 306 X s 991 1280 m 4 Y s 1084 1280 m 4 Y s 1178 1280 m 4 Y s 1271 1280 m 4 Y s 1271 1280 m 4 Y s 991 1055 m 229 Y s 997 1064 m -6 X s 994
 1069 m -3 X s 994 1074 m -3 X s 994 1078 m -3 X s 994 1083 m -3 X s 997 1088 m -6 X s 994 1093 m -3 X s 994 1097 m -3 X s 994 1102 m -3 X s 994 1107 m -3 X s 997 1112 m -6 X s 994 1116 m -3 X s 994 1121 m -3 X s 994 1126 m -3 X s 994 1130 m -3 X s
 997 1135 m -6 X s 994 1140 m -3 X s 994 1145 m -3 X s 994 1149 m -3 X s 994 1154 m -3 X s 997 1159 m -6 X s 994 1163 m -3 X s 994 1168 m -3 X s 994 1173 m -3 X s 994 1178 m -3 X s 997 1182 m -6 X s 994 1187 m -3 X s 994 1192 m -3 X s 994 1196 m -3 X
 s 994 1201 m -3 X s 997 1206 m -6 X s 994 1211 m -3 X s 994 1215 m -3 X s 994 1220 m -3 X s 994 1225 m -3 X s 997 1229 m -6 X s 994 1234 m -3 X s 994 1239 m -3 X s 994 1244 m -3 X s 994 1248 m -3 X s 997 1253 m -6 X s 994 1258 m -3 X s 994 1263 m -3
 X s 994 1267 m -3 X s 994 1272 m -3 X s 997 1277 m -6 X s 997 1064 m -6 X s 994 1060 m -3 X s 994 1055 m -3 X s 997 1277 m -6 X s 994 1281 m -3 X s
 gsave  408 305 930 1009 C 923.04 1056.94 t 0 r /Helvetica findfont 22.8295 sf 0 0 m (\2550.006) show NC gr 
 gsave  408 305 930 1009 C 923.04 1079.73 t 0 r /Helvetica findfont 22.8295 sf 0 0 m (\2550.005) show NC gr 
 gsave  408 305 930 1009 C 923.04 1105.37 t 0 r /Helvetica findfont 22.8295 sf 0 0 m (\2550.004) show NC gr 
 gsave  408 305 930 1009 C 923.04 1128.16 t 0 r /Helvetica findfont 22.8295 sf 0 0 m (\2550.003) show NC gr 
 gsave  408 305 930 1009 C 923.04 1150.95 t 0 r /Helvetica findfont 22.8295 sf 0 0 m (\2550.002) show NC gr 
 gsave  408 305 930 1009 C 925.889 1176.59 t 0 r /Helvetica findfont 22.8295 sf 0 0 m (\2550.001) show NC gr 
 gsave  408 305 930 1009 C 974.32 1199.38 t 0 r /Helvetica findfont 22.8295 sf 0 0 m (0) show NC gr 
 gsave  408 305 930 1009 C 934.436 1222.17 t 0 r /Helvetica findfont 22.8295 sf 0 0 m (0.001) show NC gr 
 gsave  408 305 930 1009 C 931.587 1244.96 t 0 r /Helvetica findfont 22.8295 sf 0 0 m (0.002) show NC gr 
 gsave  408 305 930 1009 C 931.587 1270.6 t 0 r /Helvetica findfont 22.8295 sf 0 0 m (0.003) show NC gr  1297 1055 m 229 Y s 1292 1064 m 5 X s 1294 1069 m 3 X s 1294 1074 m 3 X s 1294 1078 m 3 X s 1294 1083 m 3 X s 1292 1088 m 5 X s 1294 1093 m 3 X s
 1294 1097 m 3 X s 1294 1102 m 3 X s 1294 1107 m 3 X s 1292 1112 m 5 X s 1294 1116 m 3 X s 1294 1121 m 3 X s 1294 1126 m 3 X s 1294 1130 m 3 X s 1292 1135 m 5 X s 1294 1140 m 3 X s 1294 1145 m 3 X s 1294 1149 m 3 X s 1294 1154 m 3 X s 1292 1159 m 5 X
 s 1294 1163 m 3 X s 1294 1168 m 3 X s 1294 1173 m 3 X s 1294 1178 m 3 X s 1292 1182 m 5 X s 1294 1187 m 3 X s 1294 1192 m 3 X s 1294 1196 m 3 X s 1294 1201 m 3 X s 1292 1206 m 5 X s 1294 1211 m 3 X s 1294 1215 m 3 X s 1294 1220 m 3 X s 1294 1225 m 3
 X s 1292 1229 m 5 X s 1294 1234 m 3 X s 1294 1239 m 3 X s 1294 1244 m 3 X s 1294 1248 m 3 X s 1292 1253 m 5 X s 1294 1258 m 3 X s 1294 1263 m 3 X s 1294 1267 m 3 X s 1294 1272 m 3 X s 1292 1277 m 5 X s 1292 1064 m 5 X s 1294 1060 m 3 X s 1294 1055 m
 3 X s 1292 1277 m 5 X s 1294 1281 m 3 X s 1038 1189 1084 1172 1178 1213 1271 1126 4 { m21} R 1038 1201 m 40 Y s 1032 1241 m 11 X s 1038 1178 m -40 Y s 1032 1138 m 11 X s 1084 1183 m 41 Y s 1079 1224 m 11 X s 1084 1160 m -40 Y s 1079 1120 m 11 X s
 1178 1224 m 41 Y s 1172 1265 m 12 X s 1178 1201 m -40 Y s 1172 1161 m 12 X s 1271 1137 m 40 Y s 1266 1177 m 11 X s 1271 1114 m -40 Y s 1266 1074 m 11 X s 1 0 0 c 9 lw 0.95 0.95 0.95 c black 1 0 0 c 993 1206 m 18 X 3 -1 d 15 X 3 -1 d 10 X 3 -1 d 9 X
 3 -1 d 3 X 3 -1 d 6 X 3 -1 d 3 X 3 -1 d 3 X 3 -1 d 3 X 3 -1 d 4 X 3 -1 d 3 X 3 -1 d 3 X 3 -1 d 3 -1 d 3 X 3 -1 d 3 -1 d 3 X 3 -1 d 3 -1 d 3 -1 d 3 X 3 -1 d 4 -1 d s 1143 1186 m 3 -1 d 3 X 3 -1 d 3 -1 d 3 -1 d 3 -1 d 3 -1 d 3 -1 d 3 -1 d 3 -1 d 3 -1
 d 3 -1 d 3 -1 d 3 -1 d 3 -1 d 4 -1 d 3 -1 d 3 -1 d 3 -1 d 3 -1 d 3 -1 d 3 -1 d 3 -1 d 3 -2 d 3 -1 d 3 -1 d 3 -1 d 3 -1 d 3 -2 d 3 -1 d 3 -1 d 3 -2 d 4 -1 d 3 -1 d 3 -2 d 3 -1 d 3 -1 d 3 -2 d 3 -1 d 3 -2 d 3 -1 d 3 -1 d 3 -2 d 3 -1 d 3 -2 d 3 -1 d 3
 -2 d 3 -2 d 4 -1 d s 1293 1128 m 3 -2 d s 0.49 0.6 0.82 c black 0.49 0.6 0.82 c
 gsave  408 305 930 1009 C 1051.24 1293.4 t 0 r /Helvetica-Bold findfont 25.6831 sf 0 0 m (1.0 < E < 1.5 GeV) show NC gr  0.52 0.76 0.64 c black 0.52 0.76 0.64 c
 gsave  408 305 930 1009 C 1031.3 1256.36 t 0 r /Helvetica-Bold findfont 25.6831 sf 0 0 m 
 228 214 200 193 178 171 156 149 133 126 119 105 91 77 69 55 47 39 25 17
(A = \2550.000, p = 2.000) K NC gr  1 0.6 1 c black 1 0.6 1 c
 gsave  408 305 930 1009 C 1336.13 1122.46 t 90 r /Helvetica-Bold findfont 28.5368 sf 0 0 m (/dof=0.3) show NC gr  black 1 0.6 1 c
 gsave  408 305 930 1009 C 1324.73 1111.07 t 90 r /Helvetica-Bold findfont 19.9758 sf 0 0 m (2) show NC gr  black 1 0.6 1 c
 gsave  408 305 930 1009 C 1336.13 1093.97 t 90 r /Symbol findfont 28.5368 sf 0 0 m (c) show NC gr  black 3 lw 1 1 1 c 408 305 1383 1009 bf black 1 1 1 c black 306 229 1445 1055 bl 306 229 1445 1055 bl 1445 1055 m 306 X s 1445 1059 m -4 Y s 1538 1059
 m -4 Y s 1631 1059 m -4 Y s 1725 1059 m -4 Y s 1725 1059 m -4 Y s
 gsave  408 305 1383 1009 C 1435.84 1034.15 t 0 r /Helvetica findfont 22.8295 sf 0 0 m (0) show NC gr 
 gsave  408 305 1383 1009 C 1529.85 1034.15 t 0 r /Helvetica findfont 22.8295 sf 0 0 m (1) show NC gr 
 gsave  408 305 1383 1009 C 1621.02 1034.15 t 0 r /Helvetica findfont 22.8295 sf 0 0 m (2) show NC gr 
 gsave  408 305 1383 1009 C 1715.03 1034.15 t 0 r /Helvetica findfont 22.8295 sf 0 0 m (3) show NC gr  1445 1284 m 306 X s 1445 1280 m 4 Y s 1538 1280 m 4 Y s 1631 1280 m 4 Y s 1725 1280 m 4 Y s 1725 1280 m 4 Y s 1445 1055 m 229 Y s 1450 1056 m -5 X
 s 1447 1066 m -2 X s 1447 1076 m -2 X s 1447 1086 m -2 X s 1450 1095 m -5 X s 1447 1105 m -2 X s 1447 1115 m -2 X s 1447 1124 m -2 X s 1450 1134 m -5 X s 1447 1144 m -2 X s 1447 1153 m -2 X s 1447 1163 m -2 X s 1450 1173 m -5 X s 1447 1183 m -2 X s
 1447 1192 m -2 X s 1447 1202 m -2 X s 1450 1212 m -5 X s 1447 1221 m -2 X s 1447 1231 m -2 X s 1447 1241 m -2 X s 1450 1250 m -5 X s 1450 1056 m -5 X s 1450 1250 m -5 X s 1447 1260 m -2 X s 1447 1270 m -2 X s 1447 1280 m -2 X s
 gsave  408 305 1383 1009 C 1393.11 1048.39 t 0 r /Helvetica findfont 22.8295 sf 0 0 m (\2550.01) show NC gr 
 gsave  408 305 1383 1009 C 1376.01 1088.28 t 0 r /Helvetica findfont 22.8295 sf 0 0 m (\2550.008) show NC gr 
 gsave  408 305 1383 1009 C 1376.01 1128.16 t 0 r /Helvetica findfont 22.8295 sf 0 0 m (\2550.006) show NC gr 
 gsave  408 305 1383 1009 C 1376.01 1165.2 t 0 r /Helvetica findfont 22.8295 sf 0 0 m (\2550.004) show NC gr 
 gsave  408 305 1383 1009 C 1376.01 1205.08 t 0 r /Helvetica findfont 22.8295 sf 0 0 m (\2550.002) show NC gr 
 gsave  408 305 1383 1009 C 1427.29 1242.12 t 0 r /Helvetica findfont 22.8295 sf 0 0 m (0) show NC gr  1751 1055 m 229 Y s 1745 1056 m 6 X s 1748 1066 m 3 X s 1748 1076 m 3 X s 1748 1086 m 3 X s 1745 1095 m 6 X s 1748 1105 m 3 X s 1748 1115 m 3 X s
 1748 1124 m 3 X s 1745 1134 m 6 X s 1748 1144 m 3 X s 1748 1153 m 3 X s 1748 1163 m 3 X s 1745 1173 m 6 X s 1748 1183 m 3 X s 1748 1192 m 3 X s 1748 1202 m 3 X s 1745 1212 m 6 X s 1748 1221 m 3 X s 1748 1231 m 3 X s 1748 1241 m 3 X s 1745 1250 m 6 X
 s 1745 1056 m 6 X s 1745 1250 m 6 X s 1748 1260 m 3 X s 1748 1270 m 3 X s 1748 1280 m 3 X s 1491 1155 1538 1149 1631 1221 1725 1117 4 { m21} R 1491 1167 m 32 Y s 1486 1199 m 11 X s 1491 1144 m -32 Y s 1486 1112 m 11 X s 1538 1160 m 33 Y s 1532 1193
 m 12 X s 1538 1138 m -33 Y s 1532 1105 m 12 X s 1631 1232 m 33 Y s 1626 1265 m 11 X s 1631 1209 m -32 Y s 1626 1177 m 11 X s 1725 1129 m 32 Y s 1719 1161 m 12 X s 1725 1106 m -32 Y s 1719 1074 m 12 X s 9 lw 0.95 0.95 0.95 c black 1446 1250 m 3 -2 d
 3 -1 d 3 -1 d 3 -2 d 3 -1 d 3 -2 d 3 -1 d 4 -1 d 3 -2 d 3 -1 d 3 -2 d 3 -1 d 3 -1 d 3 -2 d 3 -1 d 3 -2 d 3 -1 d 3 -1 d 3 -2 d 3 -1 d 3 -2 d 3 -1 d 3 -1 d 4 -2 d 3 -1 d 3 -2 d 3 -1 d 3 -1 d 3 -2 d 3 -1 d 3 -2 d 3 -1 d 3 -1 d 3 -2 d 3 -1 d 3 -2 d 3 -1
 d 3 -1 d 3 -2 d 4 -1 d 3 -2 d 3 -1 d 3 -1 d 3 -2 d 3 -1 d 3 -2 d 3 -1 d 3 -1 d 3 -2 d s 1596 1181 m 3 -1 d 3 -2 d 3 -1 d 3 -1 d 3 -2 d 3 -1 d 4 -2 d 3 -1 d 3 -1 d 3 -2 d 3 -1 d 3 -2 d 3 -1 d 3 -1 d 3 -2 d 3 -1 d 3 -2 d 3 -1 d 3 -1 d 3 -2 d 3 -1 d 3
 -2 d 3 -1 d 4 -1 d 3 -2 d 3 -1 d 3 -2 d 3 -1 d 3 -1 d 3 -2 d 3 -1 d 3 -2 d 3 -1 d 3 -1 d 3 -2 d 3 -1 d 3 -2 d 3 -1 d 3 -1 d 4 -2 d 3 -1 d 3 -2 d 3 -1 d 3 -1 d 3 -2 d 3 -1 d 3 -2 d 3 -1 d 3 -1 d s 1746 1113 m 3 -2 d s 0.49 0.6 0.82 c black 0.49 0.6
 0.82 c
 gsave  408 305 1383 1009 C 1504.21 1293.4 t 0 r /Helvetica-Bold findfont 25.6831 sf 0 0 m (1.5 < E < 2.0 GeV) show NC gr  0.52 0.76 0.64 c black 0.52 0.76 0.64 c
 gsave  408 305 1383 1009 C 1484.27 1256.36 t 0 r /Helvetica-Bold findfont 25.6831 sf 0 0 m 
 228 214 200 193 178 171 156 149 134 126 119 105 91 77 69 55 47 40 25 17
(A = \2550.002, p = 1.000) K NC gr  1 0.6 1 c black 1 0.6 1 c
 gsave  408 305 1383 1009 C 1789.1 1122.46 t 90 r /Helvetica-Bold findfont 28.5368 sf 0 0 m (/dof=2.1) show NC gr  black 1 0.6 1 c
 gsave  408 305 1383 1009 C 1777.71 1111.07 t 90 r /Helvetica-Bold findfont 19.9758 sf 0 0 m (2) show NC gr  black 1 0.6 1 c
 gsave  408 305 1383 1009 C 1789.1 1093.97 t 90 r /Symbol findfont 28.5368 sf 0 0 m (c) show NC gr  black 3 lw 1 1 1 c 408 305 1837 1009 bf black 1 1 1 c black 306 229 1898 1055 bl 306 229 1898 1055 bl 1898 1055 m 306 X s 1898 1059 m -4 Y s 1992 1059
 m -4 Y s 2085 1059 m -4 Y s 2179 1059 m -4 Y s 2179 1059 m -4 Y s
 gsave  408 305 1837 1009 C 1888.81 1034.15 t 0 r /Helvetica findfont 22.8295 sf 0 0 m (0) show NC gr 
 gsave  408 305 1837 1009 C 1985.68 1034.15 t 0 r /Helvetica findfont 22.8295 sf 0 0 m (1) show NC gr 
 gsave  408 305 1837 1009 C 2073.99 1034.15 t 0 r /Helvetica findfont 22.8295 sf 0 0 m (2) show NC gr 
 gsave  408 305 1837 1009 C 2168.01 1034.15 t 0 r /Helvetica findfont 22.8295 sf 0 0 m (3) show NC gr  1898 1284 m 306 X s 1898 1280 m 4 Y s 1992 1280 m 4 Y s 2085 1280 m 4 Y s 2179 1280 m 4 Y s 2179 1280 m 4 Y s 1898 1055 m 229 Y s 1904 1078 m -6 X
 s 1901 1087 m -3 X s 1901 1096 m -3 X s 1901 1106 m -3 X s 1904 1115 m -6 X s 1901 1124 m -3 X s 1901 1133 m -3 X s 1901 1142 m -3 X s 1904 1152 m -6 X s 1901 1161 m -3 X s 1901 1170 m -3 X s 1901 1179 m -3 X s 1904 1188 m -6 X s 1901 1198 m -3 X s
 1901 1207 m -3 X s 1901 1216 m -3 X s 1904 1225 m -6 X s 1901 1234 m -3 X s 1901 1244 m -3 X s 1901 1253 m -3 X s 1904 1262 m -6 X s 1904 1078 m -6 X s 1901 1069 m -3 X s 1901 1060 m -3 X s 1904 1262 m -6 X s 1901 1271 m -3 X s 1901 1280 m -3 X s
 gsave  408 305 1837 1009 C 1828.99 1071.18 t 0 r /Helvetica findfont 22.8295 sf 0 0 m (\2550.006) show NC gr 
 gsave  408 305 1837 1009 C 1828.99 1108.22 t 0 r /Helvetica findfont 22.8295 sf 0 0 m (\2550.004) show NC gr 
 gsave  408 305 1837 1009 C 1828.99 1145.25 t 0 r /Helvetica findfont 22.8295 sf 0 0 m (\2550.002) show NC gr 
 gsave  408 305 1837 1009 C 1880.27 1182.29 t 0 r /Helvetica findfont 22.8295 sf 0 0 m (0) show NC gr 
 gsave  408 305 1837 1009 C 1837.53 1219.32 t 0 r /Helvetica findfont 22.8295 sf 0 0 m (0.002) show NC gr 
 gsave  408 305 1837 1009 C 1837.53 1253.51 t 0 r /Helvetica findfont 22.8295 sf 0 0 m (0.004) show NC gr  2204 1055 m 229 Y s 2199 1078 m 5 X s 2201 1087 m 3 X s 2201 1096 m 3 X s 2201 1106 m 3 X s 2199 1115 m 5 X s 2201 1124 m 3 X s 2201 1133 m 3 X
 s 2201 1142 m 3 X s 2199 1152 m 5 X s 2201 1161 m 3 X s 2201 1170 m 3 X s 2201 1179 m 3 X s 2199 1188 m 5 X s 2201 1198 m 3 X s 2201 1207 m 3 X s 2201 1216 m 3 X s 2199 1225 m 5 X s 2201 1234 m 3 X s 2201 1244 m 3 X s 2201 1253 m 3 X s 2199 1262 m 5
 X s 2199 1078 m 5 X s 2201 1069 m 3 X s 2201 1060 m 3 X s 2199 1262 m 5 X s 2201 1271 m 3 X s 2201 1280 m 3 X s 1945 1192 1992 1116 2085 1222 2179 1151 4 { m21} R 1945 1203 m 32 Y s 1939 1235 m 12 X s 1945 1181 m -32 Y s 1939 1149 m 12 X s 1992 1128
 m 31 Y s 1986 1159 m 11 X s 1992 1105 m -31 Y s 1986 1074 m 11 X s 2085 1233 m 32 Y s 2079 1265 m 12 X s 2085 1211 m -31 Y s 2079 1180 m 12 X s 2179 1162 m 31 Y s 2173 1193 m 11 X s 2179 1139 m -31 Y s 2173 1108 m 11 X s 9 lw 0.95 0.95 0.95 c black
 1900 1188 m 6 X 3 -1 d 9 X 3 -1 d 9 X 3 -1 d 9 X 4 -1 d 6 X 3 -1 d 9 X 3 -1 d 9 X 3 -1 d 6 X 3 -1 d 10 X 3 -1 d 9 X 3 -1 d 9 X 3 -1 d 6 X 3 -1 d 9 X 4 -1 d 3 X s 2050 1175 m 6 X 3 -1 d 6 X 3 -1 d 9 X 3 -1 d 9 X 3 -1 d 10 X 3 -1 d 6 X 3 -1 d 9 X 3 -1
 d 9 X 3 -1 d 7 X 3 -1 d 9 X 3 -1 d 9 X 3 -1 d 9 X 3 -1 d 6 X 4 -1 d 6 X s 2200 1162 m 3 X s 0.49 0.6 0.82 c black 0.49 0.6 0.82 c
 gsave  408 305 1837 1009 C 1957.19 1293.4 t 0 r /Helvetica-Bold findfont 25.6831 sf 0 0 m (2.0 < E < 2.5 GeV) show NC gr  0.52 0.76 0.64 c black 0.52 0.76 0.64 c
 gsave  408 305 1837 1009 C 1937.25 1256.36 t 0 r /Helvetica-Bold findfont 25.6831 sf 0 0 m 
 228 214 200 193 178 171 156 149 133 126 119 105 91 77 69 55 47 39 25 17
(A = \2550.000, p = 1.000) K NC gr  1 0.6 1 c black 1 0.6 1 c
 gsave  408 305 1837 1009 C 2242.08 1122.46 t 90 r /Helvetica-Bold findfont 28.5368 sf 0 0 m (/dof=1.3) show NC gr  black 1 0.6 1 c
 gsave  408 305 1837 1009 C 2230.68 1111.07 t 90 r /Helvetica-Bold findfont 19.9758 sf 0 0 m (2) show NC gr  black 1 0.6 1 c
 gsave  408 305 1837 1009 C 2242.08 1093.97 t 90 r /Symbol findfont 28.5368 sf 0 0 m (c) show NC gr  black 3 lw 1 1 1 c 408 305 23 677 bf black 1 1 1 c black 306 229 84 723 bl 306 229 84 723 bl 84 723 m 306 X s 84 727 m -4 Y s 177 727 m -4 Y s 271
 727 m -4 Y s 364 727 m -4 Y s 364 727 m -4 Y s
 gsave  408 305 23 677 C 74.0711 703.676 t 0 r /Helvetica findfont 22.8295 sf 0 0 m (0) show NC gr 
 gsave  408 305 23 677 C 170.933 703.676 t 0 r /Helvetica findfont 22.8295 sf 0 0 m (1) show NC gr 
 gsave  408 305 23 677 C 262.098 703.676 t 0 r /Helvetica findfont 22.8295 sf 0 0 m (2) show NC gr 
 gsave  408 305 23 677 C 353.262 703.676 t 0 r /Helvetica findfont 22.8295 sf 0 0 m (3) show NC gr  84 952 m 306 X s 84 948 m 4 Y s 177 948 m 4 Y s 271 948 m 4 Y s 364 948 m 4 Y s 364 948 m 4 Y s 84 723 m 229 Y s 89 724 m -5 X s 87 734 m -3 X s 87
 744 m -3 X s 87 754 m -3 X s 89 764 m -5 X s 87 773 m -3 X s 87 783 m -3 X s 87 793 m -3 X s 89 803 m -5 X s 87 812 m -3 X s 87 822 m -3 X s 87 832 m -3 X s 89 842 m -5 X s 87 851 m -3 X s 87 861 m -3 X s 87 871 m -3 X s 89 881 m -5 X s 87 890 m -3
 X s 87 900 m -3 X s 87 910 m -3 X s 89 920 m -5 X s 89 724 m -5 X s 89 920 m -5 X s 87 929 m -3 X s 87 939 m -3 X s 87 949 m -3 X s
 gsave  408 305 23 677 C 14.2445 717.92 t 0 r /Helvetica findfont 22.8295 sf 0 0 m (\2550.008) show NC gr 
 gsave  408 305 23 677 C 14.2445 757.805 t 0 r /Helvetica findfont 22.8295 sf 0 0 m (\2550.006) show NC gr 
 gsave  408 305 23 677 C 14.2445 794.84 t 0 r /Helvetica findfont 22.8295 sf 0 0 m (\2550.004) show NC gr 
 gsave  408 305 23 677 C 14.2445 834.725 t 0 r /Helvetica findfont 22.8295 sf 0 0 m (\2550.002) show NC gr 
 gsave  408 305 23 677 C 65.5245 874.609 t 0 r /Helvetica findfont 22.8295 sf 0 0 m (0) show NC gr 
 gsave  408 305 23 677 C 22.7911 911.645 t 0 r /Helvetica findfont 22.8295 sf 0 0 m (0.002) show NC gr  390 723 m 229 Y s 385 724 m 5 X s 387 734 m 3 X s 387 744 m 3 X s 387 754 m 3 X s 385 764 m 5 X s 387 773 m 3 X s 387 783 m 3 X s 387 793 m 3 X s
 385 803 m 5 X s 387 812 m 3 X s 387 822 m 3 X s 387 832 m 3 X s 385 842 m 5 X s 387 851 m 3 X s 387 861 m 3 X s 387 871 m 3 X s 385 881 m 5 X s 387 890 m 3 X s 387 900 m 3 X s 387 910 m 3 X s 385 920 m 5 X s 385 724 m 5 X s 385 920 m 5 X s 387 929 m
 3 X s 387 939 m 3 X s 387 949 m 3 X s /w 22 def /w2 {w 2 div} def /w3 {w 3 div} def 131 840 177 885 271 849 364 789 4 { m21} R 131 851 m 36 Y s 125 887 m 11 X s 131 828 m -36 Y s 125 792 m 11 X s 177 897 m 36 Y s 172 933 m 11 X s 177 874 m -36 Y s
 172 838 m 11 X s 271 861 m 35 Y s 265 896 m 12 X s 271 838 m -36 Y s 265 802 m 12 X s 364 801 m 36 Y s 359 837 m 11 X s 364 778 m -36 Y s 359 742 m 11 X s 1 0 0 c 9 lw 0.95 0.95 0.95 c black 1 0 0 c 85 881 m 3 X 4 -1 d 21 X 3 -1 d 9 X 3 -1 d 6 X 3
 -1 d 7 X 3 -1 d 3 X 3 -1 d 3 X 3 -1 d 3 X 3 -1 d 3 X 3 -1 d 3 -1 d 3 X 3 -1 d 3 X 3 -1 d 4 -1 d 3 -1 d 3 X 3 -1 d 3 -1 d 3 -1 d 3 -1 d 3 X 3 -1 d 3 -1 d 3 -1 d 3 -1 d 3 -1 d 3 -1 d 3 -1 d 3 -1 d s 235 855 m 4 -1 d 3 -1 d 3 -1 d 3 -1 d 3 -1 d 3 -2 d
 3 -1 d 3 -1 d 3 -1 d 3 -1 d 3 -2 d 3 -1 d 3 -1 d 3 -1 d 3 -2 d 3 -1 d 3 -2 d 4 -1 d 3 -1 d 3 -2 d 3 -1 d 3 -2 d 3 -1 d 3 -2 d 3 -1 d 3 -2 d 3 -1 d 3 -2 d 3 -2 d 3 -1 d 3 -2 d 3 -2 d 3 -1 d 4 -2 d 3 -2 d 3 -2 d 3 -1 d 3 -2 d 3 -2 d 3 -2 d 3 -2 d 3 -2
 d 3 -2 d 3 -1 d 3 -2 d 3 -2 d 3 -2 d 3 -2 d 3 -2 d s 385 780 m 4 -3 d s 0.49 0.6 0.82 c black 0.49 0.6 0.82 c
 gsave  408 305 23 677 C 142.445 960.076 t 0 r /Helvetica-Bold findfont 25.6831 sf 0 0 m (2.5 < E < 3.0 GeV) show NC gr  0.52 0.76 0.64 c black 0.52 0.76 0.64 c
 gsave  408 305 23 677 C 122.502 923.04 t 0 r /Helvetica-Bold findfont 25.6831 sf 0 0 m 
 228 214 200 193 178 171 156 149 134 126 119 105 91 77 69 55 47 39 25 17
(A = \2550.000, p = 2.000) K NC gr  1 0.6 1 c black 1 0.6 1 c
 gsave  408 305 23 677 C 427.334 791.991 t 90 r /Helvetica-Bold findfont 28.5368 sf 0 0 m (/dof=0.3) show NC gr  black 1 0.6 1 c
 gsave  408 305 23 677 C 415.938 780.596 t 90 r /Helvetica-Bold findfont 19.9758 sf 0 0 m (2) show NC gr  black 1 0.6 1 c
 gsave  408 305 23 677 C 427.334 763.503 t 90 r /Symbol findfont 28.5368 sf 0 0 m (c) show NC gr  black 3 lw 1 1 1 c 408 305 476 677 bf black 1 1 1 c black 307 229 537 723 bl 307 229 537 723 bl 537 723 m 307 X s 537 727 m -4 Y s 631 727 m -4 Y s 724
 727 m -4 Y s 818 727 m -4 Y s 818 727 m -4 Y s
 gsave  408 305 476 677 C 527.045 703.676 t 0 r /Helvetica findfont 22.8295 sf 0 0 m (0) show NC gr 
 gsave  408 305 476 677 C 623.907 703.676 t 0 r /Helvetica findfont 22.8295 sf 0 0 m (1) show NC gr 
 gsave  408 305 476 677 C 715.071 703.676 t 0 r /Helvetica findfont 22.8295 sf 0 0 m (2) show NC gr 
 gsave  408 305 476 677 C 809.085 703.676 t 0 r /Helvetica findfont 22.8295 sf 0 0 m (3) show NC gr  537 952 m 307 X s 537 948 m 4 Y s 631 948 m 4 Y s 724 948 m 4 Y s 818 948 m 4 Y s 818 948 m 4 Y s 537 723 m 229 Y s 543 746 m -6 X s 540 755 m -3 X s
 540 763 m -3 X s 540 772 m -3 X s 543 781 m -6 X s 540 790 m -3 X s 540 798 m -3 X s 540 807 m -3 X s 543 816 m -6 X s 540 825 m -3 X s 540 834 m -3 X s 540 842 m -3 X s 543 851 m -6 X s 540 860 m -3 X s 540 869 m -3 X s 540 877 m -3 X s 543 886 m
 -6 X s 540 895 m -3 X s 540 904 m -3 X s 540 913 m -3 X s 543 921 m -6 X s 543 746 m -6 X s 540 737 m -3 X s 540 728 m -3 X s 543 921 m -6 X s 540 930 m -3 X s 540 939 m -3 X s 540 948 m -3 X s
 gsave  408 305 476 677 C 467.218 737.863 t 0 r /Helvetica findfont 22.8295 sf 0 0 m (\2550.008) show NC gr 
 gsave  408 305 476 677 C 467.218 774.898 t 0 r /Helvetica findfont 22.8295 sf 0 0 m (\2550.006) show NC gr 
 gsave  408 305 476 677 C 467.218 809.085 t 0 r /Helvetica findfont 22.8295 sf 0 0 m (\2550.004) show NC gr 
 gsave  408 305 476 677 C 467.218 843.271 t 0 r /Helvetica findfont 22.8295 sf 0 0 m (\2550.002) show NC gr 
 gsave  408 305 476 677 C 518.498 880.307 t 0 r /Helvetica findfont 22.8295 sf 0 0 m (0) show NC gr 
 gsave  408 305 476 677 C 475.765 914.494 t 0 r /Helvetica findfont 22.8295 sf 0 0 m (0.002) show NC gr  844 723 m 229 Y s 838 746 m 6 X s 841 755 m 3 X s 841 763 m 3 X s 841 772 m 3 X s 838 781 m 6 X s 841 790 m 3 X s 841 798 m 3 X s 841 807 m 3 X s
 838 816 m 6 X s 841 825 m 3 X s 841 834 m 3 X s 841 842 m 3 X s 838 851 m 6 X s 841 860 m 3 X s 841 869 m 3 X s 841 877 m 3 X s 838 886 m 6 X s 841 895 m 3 X s 841 904 m 3 X s 841 913 m 3 X s 838 921 m 6 X s 838 746 m 6 X s 841 737 m 3 X s 841 728 m
 3 X s 838 921 m 6 X s 841 930 m 3 X s 841 939 m 3 X s 841 948 m 3 X s /w 23 def /w2 {w 2 div} def /w3 {w 3 div} def 584 886 631 788 724 847 818 842 4 { m21} R 584 898 m 35 Y s 578 933 m 12 X s 584 875 m -35 Y s 578 840 m 12 X s 631 800 m 35 Y s 625
 835 m 12 X s 631 777 m -35 Y s 625 742 m 12 X s 724 859 m 35 Y s 719 894 m 11 X s 724 836 m -35 Y s 719 801 m 11 X s 818 854 m 35 Y s 812 889 m 12 X s 818 831 m -35 Y s 812 796 m 12 X s 9 lw 0.95 0.95 0.95 c black 539 886 m 3 -1 d 3 -1 d 3 X 3 -1 d
 3 -1 d 3 X 3 -1 d 3 -1 d 4 X 3 -1 d 3 -1 d 3 -1 d 3 X 3 -1 d 3 -1 d 3 X 3 -1 d 3 -1 d 3 -1 d 3 X 3 -1 d 3 -1 d 3 X 3 -1 d 4 -1 d 3 -1 d 3 X 3 -1 d 3 -1 d 3 X 3 -1 d 3 -1 d 3 -1 d 3 X 3 -1 d 3 -1 d 3 X 3 -1 d 3 -1 d 3 X 3 -1 d 4 -1 d 3 -1 d 3 X 3 -1
 d 3 -1 d 3 X 3 -1 d 3 -1 d s 689 851 m 3 -1 d 3 X 3 -1 d 3 -1 d 3 X 3 -1 d 3 -1 d 3 -1 d 4 X 3 -1 d 3 -1 d 3 X 3 -1 d 3 -1 d 3 -1 d 3 X 3 -1 d 3 -1 d 3 X 3 -1 d 3 -1 d 3 X 3 -1 d 3 -1 d 4 -1 d 3 X 3 -1 d 3 -1 d 3 X 3 -1 d 3 -1 d 3 -1 d 3 X 3 -1 d 3
 -1 d 3 X 3 -1 d 3 -1 d 3 -1 d 3 X 4 -1 d 3 -1 d 3 X 3 -1 d 3 -1 d 3 -1 d 3 X 3 -1 d 3 -1 d s 839 816 m 3 X s 0.49 0.6 0.82 c black 0.49 0.6 0.82 c
 gsave  408 305 476 677 C 595.418 960.076 t 0 r /Helvetica-Bold findfont 25.6831 sf 0 0 m (3.0 < E < 3.5 GeV) show NC gr  0.52 0.76 0.64 c black 0.52 0.76 0.64 c
 gsave  408 305 476 677 C 575.476 923.04 t 0 r /Helvetica-Bold findfont 25.6831 sf 0 0 m 
 228 214 200 193 178 171 156 149 133 126 119 105 91 76 69 55 47 39 25 17
(A = \2550.001, p = 1.000) K NC gr  1 0.6 1 c black 1 0.6 1 c
 gsave  408 305 476 677 C 883.156 791.991 t 90 r /Helvetica-Bold findfont 28.5368 sf 0 0 m (/dof=1.0) show NC gr  black 1 0.6 1 c
 gsave  408 305 476 677 C 871.76 780.596 t 90 r /Helvetica-Bold findfont 19.9758 sf 0 0 m (2) show NC gr  black 1 0.6 1 c
 gsave  408 305 476 677 C 883.156 763.503 t 90 r /Symbol findfont 28.5368 sf 0 0 m (c) show NC gr  black 3 lw 1 1 1 c 408 305 930 677 bf black 1 1 1 c black 306 229 991 723 bl 306 229 991 723 bl 991 723 m 306 X s 991 727 m -4 Y s 1084 727 m -4 Y s
 1178 727 m -4 Y s 1271 727 m -4 Y s 1271 727 m -4 Y s
 gsave  408 305 930 677 C 980.018 703.676 t 0 r /Helvetica findfont 22.8295 sf 0 0 m (0) show NC gr 
 gsave  408 305 930 677 C 1076.88 703.676 t 0 r /Helvetica findfont 22.8295 sf 0 0 m (1) show NC gr 
 gsave  408 305 930 677 C 1168.04 703.676 t 0 r /Helvetica findfont 22.8295 sf 0 0 m (2) show NC gr 
 gsave  408 305 930 677 C 1262.06 703.676 t 0 r /Helvetica findfont 22.8295 sf 0 0 m (3) show NC gr  991 952 m 306 X s 991 948 m 4 Y s 1084 948 m 4 Y s 1178 948 m 4 Y s 1271 948 m 4 Y s 1271 948 m 4 Y s 991 723 m 229 Y s 997 744 m -6 X s 994 754 m -3
 X s 994 764 m -3 X s 994 773 m -3 X s 994 783 m -3 X s 997 793 m -6 X s 994 802 m -3 X s 994 812 m -3 X s 994 821 m -3 X s 994 831 m -3 X s 997 841 m -6 X s 994 850 m -3 X s 994 860 m -3 X s 994 870 m -3 X s 994 879 m -3 X s 997 889 m -6 X s 994 899
 m -3 X s 994 908 m -3 X s 994 918 m -3 X s 994 928 m -3 X s 997 937 m -6 X s 997 744 m -6 X s 994 735 m -3 X s 994 725 m -3 X s 997 937 m -6 X s 994 947 m -3 X s
 gsave  408 305 930 677 C 940.134 737.863 t 0 r /Helvetica findfont 22.8295 sf 0 0 m (\2550.01) show NC gr 
 gsave  408 305 930 677 C 923.04 786.294 t 0 r /Helvetica findfont 22.8295 sf 0 0 m (\2550.005) show NC gr 
 gsave  408 305 930 677 C 974.32 834.725 t 0 r /Helvetica findfont 22.8295 sf 0 0 m (0) show NC gr 
 gsave  408 305 930 677 C 931.587 883.156 t 0 r /Helvetica findfont 22.8295 sf 0 0 m (0.005) show NC gr 
 gsave  408 305 930 677 C 945.832 928.738 t 0 r /Helvetica findfont 22.8295 sf 0 0 m (0.01) show NC gr  1297 723 m 229 Y s 1292 744 m 5 X s 1294 754 m 3 X s 1294 764 m 3 X s 1294 773 m 3 X s 1294 783 m 3 X s 1292 793 m 5 X s 1294 802 m 3 X s 1294 812
 m 3 X s 1294 821 m 3 X s 1294 831 m 3 X s 1292 841 m 5 X s 1294 850 m 3 X s 1294 860 m 3 X s 1294 870 m 3 X s 1294 879 m 3 X s 1292 889 m 5 X s 1294 899 m 3 X s 1294 908 m 3 X s 1294 918 m 3 X s 1294 928 m 3 X s 1292 937 m 5 X s 1292 744 m 5 X s
 1294 735 m 3 X s 1294 725 m 3 X s 1292 937 m 5 X s 1294 947 m 3 X s 1038 851 1084 903 1178 817 1271 772 4 { m21} R 1038 862 m 19 Y s 1032 881 m 11 X s 1038 839 m -18 Y s 1032 821 m 11 X s 1084 914 m 19 Y s 1079 933 m 11 X s 1084 891 m -18 Y s 1079
 873 m 11 X s 1178 828 m 18 Y s 1172 846 m 12 X s 1178 805 m -18 Y s 1172 787 m 12 X s 1271 783 m 18 Y s 1266 801 m 11 X s 1271 760 m -18 Y s 1266 742 m 11 X s 1 0 0 c 9 lw 0.95 0.95 0.95 c black 1 0 0 c 993 841 m 15 X 3 -1 d 18 X 3 -1 d 13 X 3 -1 d
 6 X 3 -1 d 6 X 3 -1 d 6 X 3 -1 d 6 X 3 -1 d 3 X 3 -1 d 4 X 3 -1 d 3 X 3 -1 d 3 X 3 -1 d 3 X 3 -1 d 3 -1 d 3 X 3 -1 d 3 X 3 -1 d 3 -1 d 3 X 3 -1 d 4 -1 d s 1143 823 m 3 -1 d 3 X 3 -1 d 3 -1 d 3 -1 d 3 X 3 -1 d 3 -1 d 3 -1 d 3 -1 d 3 X 3 -1 d 3 -1 d 3
 -1 d 3 -1 d 4 -1 d 3 -1 d 3 -1 d 3 -1 d 3 -1 d 3 -1 d 3 -1 d 3 -1 d 3 -1 d 3 -1 d 3 -1 d 3 -1 d 3 -1 d 3 -1 d 3 -2 d 3 -1 d 3 -1 d 4 -1 d 3 -1 d 3 -1 d 3 -2 d 3 -1 d 3 -1 d 3 -1 d 3 -2 d 3 -1 d 3 -1 d 3 -2 d 3 -1 d 3 -1 d 3 -2 d 3 -1 d 3 -1 d 4 -2 d
 s 1293 771 m 3 -1 d s 0.49 0.6 0.82 c black 0.49 0.6 0.82 c
 gsave  408 305 930 677 C 1051.24 960.076 t 0 r /Helvetica-Bold findfont 25.6831 sf 0 0 m (3.5 < E < 4.0 GeV) show NC gr  0.52 0.76 0.64 c black 0.52 0.76 0.64 c
 gsave  408 305 930 677 C 1031.3 923.04 t 0 r /Helvetica-Bold findfont 25.6831 sf 0 0 m 
 228 214 200 193 178 171 156 149 133 126 119 105 91 77 69 55 47 39 25 17
(A = \2550.001, p = 2.000) K NC gr  1 0.6 1 c black 1 0.6 1 c
 gsave  408 305 930 677 C 1336.13 791.991 t 90 r /Helvetica-Bold findfont 28.5368 sf 0 0 m (/dof=1.8) show NC gr  black 1 0.6 1 c
 gsave  408 305 930 677 C 1324.73 780.596 t 90 r /Helvetica-Bold findfont 19.9758 sf 0 0 m (2) show NC gr  black 1 0.6 1 c
 gsave  408 305 930 677 C 1336.13 763.503 t 90 r /Symbol findfont 28.5368 sf 0 0 m (c) show NC gr  black 3 lw 1 1 1 c 408 305 1383 677 bf black 1 1 1 c black 306 229 1445 723 bl 306 229 1445 723 bl 1445 723 m 306 X s 1445 727 m -4 Y s 1538 727 m -4 Y
 s 1631 727 m -4 Y s 1725 727 m -4 Y s 1725 727 m -4 Y s
 gsave  408 305 1383 677 C 1435.84 703.676 t 0 r /Helvetica findfont 22.8295 sf 0 0 m (0) show NC gr 
 gsave  408 305 1383 677 C 1529.85 703.676 t 0 r /Helvetica findfont 22.8295 sf 0 0 m (1) show NC gr 
 gsave  408 305 1383 677 C 1621.02 703.676 t 0 r /Helvetica findfont 22.8295 sf 0 0 m (2) show NC gr 
 gsave  408 305 1383 677 C 1715.03 703.676 t 0 r /Helvetica findfont 22.8295 sf 0 0 m (3) show NC gr  1445 952 m 306 X s 1445 948 m 4 Y s 1538 948 m 4 Y s 1631 948 m 4 Y s 1725 948 m 4 Y s 1725 948 m 4 Y s 1445 723 m 229 Y s 1450 725 m -5 X s 1447
 732 m -2 X s 1447 739 m -2 X s 1447 746 m -2 X s 1450 752 m -5 X s 1447 759 m -2 X s 1447 766 m -2 X s 1447 773 m -2 X s 1450 779 m -5 X s 1447 786 m -2 X s 1447 793 m -2 X s 1447 799 m -2 X s 1450 806 m -5 X s 1447 813 m -2 X s 1447 820 m -2 X s
 1447 826 m -2 X s 1450 833 m -5 X s 1447 840 m -2 X s 1447 847 m -2 X s 1447 853 m -2 X s 1450 860 m -5 X s 1447 867 m -2 X s 1447 873 m -2 X s 1447 880 m -2 X s 1450 887 m -5 X s 1447 894 m -2 X s 1447 900 m -2 X s 1447 907 m -2 X s 1450 914 m -5 X
 s 1447 921 m -2 X s 1447 927 m -2 X s 1447 934 m -2 X s 1450 941 m -5 X s 1450 725 m -5 X s 1450 941 m -5 X s 1447 947 m -2 X s
 gsave  408 305 1383 677 C 1376.01 717.92 t 0 r /Helvetica findfont 22.8295 sf 0 0 m (\2550.016) show NC gr 
 gsave  408 305 1383 677 C 1376.01 746.409 t 0 r /Helvetica findfont 22.8295 sf 0 0 m (\2550.014) show NC gr 
 gsave  408 305 1383 677 C 1376.01 772.049 t 0 r /Helvetica findfont 22.8295 sf 0 0 m (\2550.012) show NC gr 
 gsave  408 305 1383 677 C 1393.11 797.689 t 0 r /Helvetica findfont 22.8295 sf 0 0 m (\2550.01) show NC gr 
 gsave  408 305 1383 677 C 1376.01 826.178 t 0 r /Helvetica findfont 22.8295 sf 0 0 m (\2550.008) show NC gr 
 gsave  408 305 1383 677 C 1376.01 851.818 t 0 r /Helvetica findfont 22.8295 sf 0 0 m (\2550.006) show NC gr 
 gsave  408 305 1383 677 C 1376.01 880.307 t 0 r /Helvetica findfont 22.8295 sf 0 0 m (\2550.004) show NC gr 
 gsave  408 305 1383 677 C 1376.01 905.947 t 0 r /Helvetica findfont 22.8295 sf 0 0 m (\2550.002) show NC gr 
 gsave  408 305 1383 677 C 1427.29 934.436 t 0 r /Helvetica findfont 22.8295 sf 0 0 m (0) show NC gr  1751 723 m 229 Y s 1745 725 m 6 X s 1748 732 m 3 X s 1748 739 m 3 X s 1748 746 m 3 X s 1745 752 m 6 X s 1748 759 m 3 X s 1748 766 m 3 X s 1748 773 m
 3 X s 1745 779 m 6 X s 1748 786 m 3 X s 1748 793 m 3 X s 1748 799 m 3 X s 1745 806 m 6 X s 1748 813 m 3 X s 1748 820 m 3 X s 1748 826 m 3 X s 1745 833 m 6 X s 1748 840 m 3 X s 1748 847 m 3 X s 1748 853 m 3 X s 1745 860 m 6 X s 1748 867 m 3 X s 1748
 873 m 3 X s 1748 880 m 3 X s 1745 887 m 6 X s 1748 894 m 3 X s 1748 900 m 3 X s 1748 907 m 3 X s 1745 914 m 6 X s 1748 921 m 3 X s 1748 927 m 3 X s 1748 934 m 3 X s 1745 941 m 6 X s 1745 725 m 6 X s 1745 941 m 6 X s 1748 947 m 3 X s 1491 839 1538
 880 1631 825 1725 795 4 { m21} R 1491 851 m 41 Y s 1486 892 m 11 X s 1491 828 m -42 Y s 1486 786 m 11 X s 1538 891 m 42 Y s 1532 933 m 12 X s 1538 868 m -41 Y s 1532 827 m 12 X s 1631 836 m 42 Y s 1626 878 m 11 X s 1631 813 m -41 Y s 1626 772 m 11 X
 s 1725 806 m 41 Y s 1719 847 m 12 X s 1725 783 m -41 Y s 1719 742 m 12 X s 9 lw 0.95 0.95 0.95 c black 1446 940 m 3 -2 d 3 -2 d 3 -2 d 3 -1 d 3 -2 d 3 -2 d 3 -2 d 4 -2 d 3 -1 d 3 -2 d 3 -2 d 3 -2 d 3 -1 d 3 -2 d 3 -2 d 3 -2 d 3 -2 d 3 -1 d 3 -2 d 3
 -2 d 3 -2 d 3 -2 d 3 -1 d 4 -2 d 3 -2 d 3 -2 d 3 -2 d 3 -1 d 3 -2 d 3 -2 d 3 -2 d 3 -2 d 3 -1 d 3 -2 d 3 -2 d 3 -2 d 3 -2 d 3 -1 d 3 -2 d 4 -2 d 3 -2 d 3 -2 d 3 -1 d 3 -2 d 3 -2 d 3 -2 d 3 -2 d 3 -1 d 3 -2 d s 1596 852 m 3 -2 d 3 -2 d 3 -2 d 3 -1 d
 3 -2 d 3 -2 d 4 -2 d 3 -2 d 3 -1 d 3 -2 d 3 -2 d 3 -2 d 3 -1 d 3 -2 d 3 -2 d 3 -2 d 3 -2 d 3 -1 d 3 -2 d 3 -2 d 3 -2 d 3 -2 d 3 -1 d 4 -2 d 3 -2 d 3 -2 d 3 -2 d 3 -1 d 3 -2 d 3 -2 d 3 -2 d 3 -2 d 3 -1 d 3 -2 d 3 -2 d 3 -2 d 3 -2 d 3 -1 d 3 -2 d 4 -2
 d 3 -2 d 3 -2 d 3 -1 d 3 -2 d 3 -2 d 3 -2 d 3 -2 d 3 -1 d 3 -2 d s 1746 764 m 3 -2 d s 0.49 0.6 0.82 c black 0.49 0.6 0.82 c
 gsave  408 305 1383 677 C 1504.21 960.076 t 0 r /Helvetica-Bold findfont 25.6831 sf 0 0 m (4.0 < E < 4.5 GeV) show NC gr  0.52 0.76 0.64 c black 0.52 0.76 0.64 c
 gsave  408 305 1383 677 C 1484.27 923.04 t 0 r /Helvetica-Bold findfont 25.6831 sf 0 0 m 
 228 214 200 193 178 171 156 149 134 126 119 105 91 77 69 55 47 40 25 17
(A = \2550.004, p = 1.000) K NC gr  1 0.6 1 c black 1 0.6 1 c
 gsave  408 305 1383 677 C 1789.1 791.991 t 90 r /Helvetica-Bold findfont 28.5368 sf 0 0 m (/dof=0.7) show NC gr  black 1 0.6 1 c
 gsave  408 305 1383 677 C 1777.71 780.596 t 90 r /Helvetica-Bold findfont 19.9758 sf 0 0 m (2) show NC gr  black 1 0.6 1 c
 gsave  408 305 1383 677 C 1789.1 763.503 t 90 r /Symbol findfont 28.5368 sf 0 0 m (c) show NC gr  black 3 lw 1 1 1 c 408 305 1837 677 bf black 1 1 1 c black 306 229 1898 723 bl 306 229 1898 723 bl 1898 723 m 306 X s 1898 727 m -4 Y s 1992 727 m -4 Y
 s 2085 727 m -4 Y s 2179 727 m -4 Y s 2179 727 m -4 Y s
 gsave  408 305 1837 677 C 1888.81 703.676 t 0 r /Helvetica findfont 22.8295 sf 0 0 m (0) show NC gr 
 gsave  408 305 1837 677 C 1985.68 703.676 t 0 r /Helvetica findfont 22.8295 sf 0 0 m (1) show NC gr 
 gsave  408 305 1837 677 C 2073.99 703.676 t 0 r /Helvetica findfont 22.8295 sf 0 0 m (2) show NC gr 
 gsave  408 305 1837 677 C 2168.01 703.676 t 0 r /Helvetica findfont 22.8295 sf 0 0 m (3) show NC gr  1898 952 m 306 X s 1898 948 m 4 Y s 1992 948 m 4 Y s 2085 948 m 4 Y s 2179 948 m 4 Y s 2179 948 m 4 Y s 1898 723 m 229 Y s 1904 728 m -6 X s 1901
 734 m -3 X s 1901 739 m -3 X s 1901 745 m -3 X s 1901 751 m -3 X s 1904 756 m -6 X s 1901 762 m -3 X s 1901 767 m -3 X s 1901 773 m -3 X s 1901 779 m -3 X s 1904 784 m -6 X s 1901 790 m -3 X s 1901 796 m -3 X s 1901 801 m -3 X s 1901 807 m -3 X s
 1904 813 m -6 X s 1901 818 m -3 X s 1901 824 m -3 X s 1901 830 m -3 X s 1901 835 m -3 X s 1904 841 m -6 X s 1901 847 m -3 X s 1901 852 m -3 X s 1901 858 m -3 X s 1901 864 m -3 X s 1904 869 m -6 X s 1901 875 m -3 X s 1901 881 m -3 X s 1901 886 m -3 X
 s 1901 892 m -3 X s 1904 897 m -6 X s 1901 903 m -3 X s 1901 909 m -3 X s 1901 914 m -3 X s 1901 920 m -3 X s 1904 926 m -6 X s 1904 728 m -6 X s 1904 926 m -6 X s 1901 931 m -3 X s 1901 937 m -3 X s 1901 943 m -3 X s 1901 948 m -3 X s
 gsave  408 305 1837 677 C 1828.99 720.769 t 0 r /Helvetica findfont 22.8295 sf 0 0 m (\2550.025) show NC gr 
 gsave  408 305 1837 677 C 1843.23 749.258 t 0 r /Helvetica findfont 22.8295 sf 0 0 m (\2550.02) show NC gr 
 gsave  408 305 1837 677 C 1828.99 777.747 t 0 r /Helvetica findfont 22.8295 sf 0 0 m (\2550.015) show NC gr 
 gsave  408 305 1837 677 C 1846.08 806.236 t 0 r /Helvetica findfont 22.8295 sf 0 0 m (\2550.01) show NC gr 
 gsave  408 305 1837 677 C 1828.99 834.725 t 0 r /Helvetica findfont 22.8295 sf 0 0 m (\2550.005) show NC gr 
 gsave  408 305 1837 677 C 1880.27 863.214 t 0 r /Helvetica findfont 22.8295 sf 0 0 m (0) show NC gr 
 gsave  408 305 1837 677 C 1837.53 891.703 t 0 r /Helvetica findfont 22.8295 sf 0 0 m (0.005) show NC gr 
 gsave  408 305 1837 677 C 1851.78 917.343 t 0 r /Helvetica findfont 22.8295 sf 0 0 m (0.01) show NC gr  2204 723 m 229 Y s 2199 728 m 5 X s 2201 734 m 3 X s 2201 739 m 3 X s 2201 745 m 3 X s 2201 751 m 3 X s 2199 756 m 5 X s 2201 762 m 3 X s 2201
 767 m 3 X s 2201 773 m 3 X s 2201 779 m 3 X s 2199 784 m 5 X s 2201 790 m 3 X s 2201 796 m 3 X s 2201 801 m 3 X s 2201 807 m 3 X s 2199 813 m 5 X s 2201 818 m 3 X s 2201 824 m 3 X s 2201 830 m 3 X s 2201 835 m 3 X s 2199 841 m 5 X s 2201 847 m 3 X s
 2201 852 m 3 X s 2201 858 m 3 X s 2201 864 m 3 X s 2199 869 m 5 X s 2201 875 m 3 X s 2201 881 m 3 X s 2201 886 m 3 X s 2201 892 m 3 X s 2199 897 m 5 X s 2201 903 m 3 X s 2201 909 m 3 X s 2201 914 m 3 X s 2201 920 m 3 X s 2199 926 m 5 X s 2199 728 m
 5 X s 2199 926 m 5 X s 2201 931 m 3 X s 2201 937 m 3 X s 2201 943 m 3 X s 2201 948 m 3 X s 1945 850 1992 903 2085 866 2179 771 4 { m21} R 1945 862 m 18 Y s 1939 880 m 12 X s 1945 839 m -18 Y s 1939 821 m 12 X s 1992 915 m 18 Y s 1986 933 m 11 X s
 1992 892 m -18 Y s 1986 874 m 11 X s 2085 878 m 17 Y s 2079 895 m 12 X s 2085 855 m -18 Y s 2079 837 m 12 X s 2179 782 m 18 Y s 2173 800 m 11 X s 2179 760 m -18 Y s 2173 742 m 11 X s 1 0 0 c 9 lw 0.95 0.95 0.95 c black 1 0 0 c 1900 869 m 24 X 3 -1 d
 9 X 3 -1 d 10 X 3 -1 d 6 X 3 -1 d 3 X 3 -1 d 6 X 3 -1 d 3 X 3 -1 d 3 -1 d 3 X 3 -1 d 4 X 3 -1 d 3 X 3 -1 d 3 -1 d 3 X 3 -1 d 3 -1 d 3 -1 d 3 X 3 -1 d 3 -1 d 3 -1 d 3 -1 d 3 X 3 -1 d 3 -1 d 4 -1 d 3 -1 d s 2050 846 m 3 -1 d 3 -1 d 3 -1 d 3 -1 d 3 -1
 d 3 -1 d 3 -1 d 3 -1 d 3 -1 d 3 -1 d 3 -2 d 3 -1 d 3 -1 d 3 -1 d 4 -1 d 3 -2 d 3 -1 d 3 -1 d 3 -1 d 3 -2 d 3 -1 d 3 -1 d 3 -2 d 3 -1 d 3 -2 d 3 -1 d 3 -1 d 3 -2 d 3 -1 d 3 -2 d 4 -1 d 3 -2 d 3 -2 d 3 -1 d 3 -2 d 3 -1 d 3 -2 d 3 -2 d 3 -1 d 3 -2 d 3
 -2 d 3 -1 d 3 -2 d 3 -2 d 3 -2 d 3 -2 d 4 -1 d 3 -2 d 3 -2 d s 2200 777 m 3 -2 d s 0.49 0.6 0.82 c black 0.49 0.6 0.82 c
 gsave  408 305 1837 677 C 1957.19 960.076 t 0 r /Helvetica-Bold findfont 25.6831 sf 0 0 m (4.5 < E < 5.0 GeV) show NC gr  0.52 0.76 0.64 c black 0.52 0.76 0.64 c
 gsave  408 305 1837 677 C 1937.25 923.04 t 0 r /Helvetica-Bold findfont 25.6831 sf 0 0 m 
 228 214 200 193 178 171 156 149 133 126 119 105 91 77 69 55 47 39 25 17
(A = \2550.002, p = 2.000) K NC gr  1 0.6 1 c black 1 0.6 1 c
 gsave  408 305 1837 677 C 2242.08 791.991 t 90 r /Helvetica-Bold findfont 28.5368 sf 0 0 m (/dof=1.4) show NC gr  black 1 0.6 1 c
 gsave  408 305 1837 677 C 2230.68 780.596 t 90 r /Helvetica-Bold findfont 19.9758 sf 0 0 m (2) show NC gr  black 1 0.6 1 c
 gsave  408 305 1837 677 C 2242.08 763.503 t 90 r /Symbol findfont 28.5368 sf 0 0 m (c) show NC gr  black 3 lw 1 1 1 c 408 306 23 345 bf black 1 1 1 c black 306 229 84 391 bl 306 229 84 391 bl 84 391 m 306 X s 84 395 m -4 Y s 177 395 m -4 Y s 271 395
 m -4 Y s 364 395 m -4 Y s 364 395 m -4 Y s
 gsave  408 306 23 345 C 74.0711 370.356 t 0 r /Helvetica findfont 22.8295 sf 0 0 m (0) show NC gr 
 gsave  408 306 23 345 C 170.933 370.356 t 0 r /Helvetica findfont 22.8295 sf 0 0 m (1) show NC gr 
 gsave  408 306 23 345 C 262.098 370.356 t 0 r /Helvetica findfont 22.8295 sf 0 0 m (2) show NC gr 
 gsave  408 306 23 345 C 353.262 370.356 t 0 r /Helvetica findfont 22.8295 sf 0 0 m (3) show NC gr  84 620 m 306 X s 84 616 m 4 Y s 177 616 m 4 Y s 271 616 m 4 Y s 364 616 m 4 Y s 364 616 m 4 Y s 84 391 m 229 Y s 89 415 m -5 X s 87 422 m -3 X s 87
 429 m -3 X s 87 437 m -3 X s 87 444 m -3 X s 89 451 m -5 X s 87 459 m -3 X s 87 466 m -3 X s 87 473 m -3 X s 87 481 m -3 X s 89 488 m -5 X s 87 495 m -3 X s 87 503 m -3 X s 87 510 m -3 X s 87 517 m -3 X s 89 524 m -5 X s 87 532 m -3 X s 87 539 m -3
 X s 87 546 m -3 X s 87 554 m -3 X s 89 561 m -5 X s 87 568 m -3 X s 87 576 m -3 X s 87 583 m -3 X s 87 590 m -3 X s 89 598 m -5 X s 89 415 m -5 X s 87 408 m -3 X s 87 400 m -3 X s 87 393 m -3 X s 89 598 m -5 X s 87 605 m -3 X s 87 612 m -3 X s 87
 619 m -3 X s
 gsave  408 306 23 345 C 14.2445 407.391 t 0 r /Helvetica findfont 22.8295 sf 0 0 m (\2550.015) show NC gr 
 gsave  408 306 23 345 C 31.3378 444.427 t 0 r /Helvetica findfont 22.8295 sf 0 0 m (\2550.01) show NC gr 
 gsave  408 306 23 345 C 14.2445 481.462 t 0 r /Helvetica findfont 22.8295 sf 0 0 m (\2550.005) show NC gr 
 gsave  408 306 23 345 C 65.5245 518.498 t 0 r /Helvetica findfont 22.8295 sf 0 0 m (0) show NC gr 
 gsave  408 306 23 345 C 22.7911 552.685 t 0 r /Helvetica findfont 22.8295 sf 0 0 m (0.005) show NC gr 
 gsave  408 306 23 345 C 37.0356 589.72 t 0 r /Helvetica findfont 22.8295 sf 0 0 m (0.01) show NC gr  390 391 m 229 Y s 385 415 m 5 X s 387 422 m 3 X s 387 429 m 3 X s 387 437 m 3 X s 387 444 m 3 X s 385 451 m 5 X s 387 459 m 3 X s 387 466 m 3 X s
 387 473 m 3 X s 387 481 m 3 X s 385 488 m 5 X s 387 495 m 3 X s 387 503 m 3 X s 387 510 m 3 X s 387 517 m 3 X s 385 524 m 5 X s 387 532 m 3 X s 387 539 m 3 X s 387 546 m 3 X s 387 554 m 3 X s 385 561 m 5 X s 387 568 m 3 X s 387 576 m 3 X s 387 583 m
 3 X s 387 590 m 3 X s 385 598 m 5 X s 385 415 m 5 X s 387 408 m 3 X s 387 400 m 3 X s 387 393 m 3 X s 385 598 m 5 X s 387 605 m 3 X s 387 612 m 3 X s 387 619 m 3 X s /w 22 def /w2 {w 2 div} def /w3 {w 3 div} def 131 552 177 538 271 492 364 458 4 {
 m21} R 131 563 m 38 Y s 125 601 m 11 X s 131 541 m -38 Y s 125 503 m 11 X s 177 550 m 37 Y s 172 587 m 11 X s 177 527 m -37 Y s 172 490 m 11 X s 271 504 m 37 Y s 265 541 m 12 X s 271 481 m -37 Y s 265 444 m 12 X s 364 470 m 37 Y s 359 507 m 11 X s
 364 447 m -37 Y s 359 410 m 11 X s 1 0 0 c 9 lw 0.95 0.95 0.95 c black 1 0 0 c 85 524 m 31 X 3 -1 d 12 X 3 -1 d 10 X 3 -1 d 6 X 3 -1 d 3 X 3 -1 d 6 X 3 -1 d 3 X 3 -1 d 3 X 3 -1 d 3 X 4 -1 d 3 X 3 -1 d 3 X 3 -1 d 3 -1 d 3 X 3 -1 d 3 X 3 -1 d 3 -1 d 3
 X 3 -1 d 3 -1 d 3 -1 d 3 X s 235 506 m 4 -1 d 3 -1 d 3 -1 d 3 -1 d 3 X 3 -1 d 3 -1 d 3 -1 d 3 -1 d 3 -1 d 3 -1 d 3 -1 d 3 -1 d 3 -1 d 3 -1 d 3 -1 d 3 -1 d 4 -1 d 3 -1 d 3 -1 d 3 -1 d 3 -1 d 3 -1 d 3 -1 d 3 -1 d 3 -1 d 3 -1 d 3 -2 d 3 -1 d 3 -1 d 3
 -1 d 3 -2 d 3 -1 d 4 -1 d 3 -1 d 3 -2 d 3 -1 d 3 -1 d 3 -2 d 3 -1 d 3 -1 d 3 -2 d 3 -1 d 3 -2 d 3 -1 d 3 -2 d 3 -1 d 3 -2 d 3 -1 d s 385 450 m 4 -2 d s 0.49 0.6 0.82 c black 0.49 0.6 0.82 c
 gsave  408 306 23 345 C 142.445 629.605 t 0 r /Helvetica-Bold findfont 25.6831 sf 0 0 m (5.0 < E < 5.5 GeV) show NC gr  0.52 0.76 0.64 c black 0.52 0.76 0.64 c
 gsave  408 306 23 345 C 122.502 592.569 t 0 r /Helvetica-Bold findfont 25.6831 sf 0 0 m 
 228 214 200 193 178 171 156 149 134 126 119 105 91 77 69 55 47 39 25 17
(A = \2550.001, p = 2.000) K NC gr  1 0.6 1 c black 1 0.6 1 c
 gsave  408 306 23 345 C 427.334 458.671 t 90 r /Helvetica-Bold findfont 28.5368 sf 0 0 m (/dof=0.2) show NC gr  black 1 0.6 1 c
 gsave  408 306 23 345 C 415.938 447.276 t 90 r /Helvetica-Bold findfont 19.9758 sf 0 0 m (2) show NC gr  black 1 0.6 1 c
 gsave  408 306 23 345 C 427.334 430.182 t 90 r /Symbol findfont 28.5368 sf 0 0 m (c) show NC gr  black 3 lw 1 1 1 c 408 306 476 345 bf black 1 1 1 c black 307 229 537 391 bl 307 229 537 391 bl 537 391 m 307 X s 537 395 m -4 Y s 631 395 m -4 Y s 724
 395 m -4 Y s 818 395 m -4 Y s 818 395 m -4 Y s
 gsave  408 306 476 345 C 527.045 370.356 t 0 r /Helvetica findfont 22.8295 sf 0 0 m (0) show NC gr 
 gsave  408 306 476 345 C 623.907 370.356 t 0 r /Helvetica findfont 22.8295 sf 0 0 m (1) show NC gr 
 gsave  408 306 476 345 C 715.071 370.356 t 0 r /Helvetica findfont 22.8295 sf 0 0 m (2) show NC gr 
 gsave  408 306 476 345 C 809.085 370.356 t 0 r /Helvetica findfont 22.8295 sf 0 0 m (3) show NC gr  537 620 m 307 X s 537 616 m 4 Y s 631 616 m 4 Y s 724 616 m 4 Y s 818 616 m 4 Y s 818 616 m 4 Y s 537 391 m 229 Y s 543 406 m -6 X s 540 414 m -3 X s
 540 422 m -3 X s 540 429 m -3 X s 540 437 m -3 X s 543 445 m -6 X s 540 453 m -3 X s 540 461 m -3 X s 540 469 m -3 X s 540 477 m -3 X s 543 485 m -6 X s 540 493 m -3 X s 540 501 m -3 X s 540 509 m -3 X s 540 516 m -3 X s 543 524 m -6 X s 540 532 m
 -3 X s 540 540 m -3 X s 540 548 m -3 X s 540 556 m -3 X s 543 564 m -6 X s 540 572 m -3 X s 540 580 m -3 X s 540 588 m -3 X s 540 596 m -3 X s 543 603 m -6 X s 543 406 m -6 X s 540 398 m -3 X s 543 603 m -6 X s 540 611 m -3 X s 540 619 m -3 X s
 gsave  408 306 476 345 C 481.462 398.845 t 0 r /Helvetica findfont 22.8295 sf 0 0 m (\2550.02) show NC gr 
 gsave  408 306 476 345 C 484.311 438.729 t 0 r /Helvetica findfont 22.8295 sf 0 0 m (\2550.01) show NC gr 
 gsave  408 306 476 345 C 518.498 478.614 t 0 r /Helvetica findfont 22.8295 sf 0 0 m (0) show NC gr 
 gsave  408 306 476 345 C 490.009 518.498 t 0 r /Helvetica findfont 22.8295 sf 0 0 m (0.01) show NC gr 
 gsave  408 306 476 345 C 487.16 555.534 t 0 r /Helvetica findfont 22.8295 sf 0 0 m (0.02) show NC gr 
 gsave  408 306 476 345 C 487.16 595.418 t 0 r /Helvetica findfont 22.8295 sf 0 0 m (0.03) show NC gr  844 391 m 229 Y s 838 406 m 6 X s 841 414 m 3 X s 841 422 m 3 X s 841 429 m 3 X s 841 437 m 3 X s 838 445 m 6 X s 841 453 m 3 X s 841 461 m 3 X s
 841 469 m 3 X s 841 477 m 3 X s 838 485 m 6 X s 841 493 m 3 X s 841 501 m 3 X s 841 509 m 3 X s 841 516 m 3 X s 838 524 m 6 X s 841 532 m 3 X s 841 540 m 3 X s 841 548 m 3 X s 841 556 m 3 X s 838 564 m 6 X s 841 572 m 3 X s 841 580 m 3 X s 841 588 m
 3 X s 841 596 m 3 X s 838 603 m 6 X s 838 406 m 6 X s 841 398 m 3 X s 838 603 m 6 X s 841 611 m 3 X s 841 619 m 3 X s /w 23 def /w2 {w 2 div} def /w3 {w 3 div} def 584 567 631 453 724 443 818 468 4 { m21} R 584 579 m 22 Y s 578 601 m 12 X s 584 556
 m -22 Y s 578 534 m 12 X s 631 464 m 22 Y s 625 486 m 12 X s 631 442 m -22 Y s 625 420 m 12 X s 724 454 m 22 Y s 719 476 m 11 X s 724 432 m -22 Y s 719 410 m 11 X s 818 479 m 22 Y s 812 501 m 12 X s 818 456 m -21 Y s 812 435 m 12 X s 9 lw 0.95 0.95
 0.95 c black 539 485 m 3 -1 d 6 X 3 -1 d 9 X 3 -1 d 7 X 3 -1 d 9 X 3 -1 d 6 X 3 -1 d 9 X 3 -1 d 6 X 4 -1 d 6 X 3 -1 d 9 X 3 -1 d 6 X 3 -1 d 9 X 3 -1 d 6 X 4 -1 d 6 X 3 -1 d 9 X 3 -1 d s 689 470 m 6 X 3 -1 d 9 X 3 -1 d 7 X 3 -1 d 6 X 3 -1 d 9 X 3 -1
 d 6 X 3 -1 d 9 X 3 -1 d 7 X 3 -1 d 6 X 3 -1 d 9 X 3 -1 d 6 X 3 -1 d 9 X 4 -1 d 6 X 3 -1 d 6 X 3 -1 d 6 X s 839 456 m 3 X s 0.49 0.6 0.82 c black 0.49 0.6 0.82 c
 gsave  408 306 476 345 C 595.418 629.605 t 0 r /Helvetica-Bold findfont 25.6831 sf 0 0 m (5.5 < E < 6.0 GeV) show NC gr  0.52 0.76 0.64 c black 0.52 0.76 0.64 c
 gsave  408 306 476 345 C 575.476 592.569 t 0 r /Helvetica-Bold findfont 25.6831 sf 0 0 m 
 228 214 200 193 178 171 156 149 133 126 119 105 91 76 69 55 47 39 25 17
(A = \2550.002, p = 1.000) K NC gr  1 0.6 1 c black 1 0.6 1 c
 gsave  408 306 476 345 C 883.156 458.671 t 90 r /Helvetica-Bold findfont 28.5368 sf 0 0 m (/dof=2.6) show NC gr  black 1 0.6 1 c
 gsave  408 306 476 345 C 871.76 447.276 t 90 r /Helvetica-Bold findfont 19.9758 sf 0 0 m (2) show NC gr  black 1 0.6 1 c
 gsave  408 306 476 345 C 883.156 430.182 t 90 r /Symbol findfont 28.5368 sf 0 0 m (c) show NC gr  black 3 lw 1 1 1 c 408 306 930 345 bf black 1 1 1 c black 306 229 991 391 bl 306 229 991 391 bl 991 391 m 306 X s 991 395 m -4 Y s 1084 395 m -4 Y s
 1178 395 m -4 Y s 1271 395 m -4 Y s 1271 395 m -4 Y s
 gsave  408 306 930 345 C 980.018 370.356 t 0 r /Helvetica findfont 22.8295 sf 0 0 m (0) show NC gr 
 gsave  408 306 930 345 C 1076.88 370.356 t 0 r /Helvetica findfont 22.8295 sf 0 0 m (1) show NC gr 
 gsave  408 306 930 345 C 1168.04 370.356 t 0 r /Helvetica findfont 22.8295 sf 0 0 m (2) show NC gr 
 gsave  408 306 930 345 C 1262.06 370.356 t 0 r /Helvetica findfont 22.8295 sf 0 0 m (3) show NC gr  991 620 m 306 X s 991 616 m 4 Y s 1084 616 m 4 Y s 1178 616 m 4 Y s 1271 616 m 4 Y s 1271 616 m 4 Y s 991 391 m 229 Y s 997 398 m -6 X s 994 403 m -3
 X s 994 408 m -3 X s 994 413 m -3 X s 994 417 m -3 X s 997 422 m -6 X s 994 427 m -3 X s 994 432 m -3 X s 994 437 m -3 X s 994 442 m -3 X s 997 447 m -6 X s 994 452 m -3 X s 994 457 m -3 X s 994 462 m -3 X s 994 467 m -3 X s 997 472 m -6 X s 994 476
 m -3 X s 994 481 m -3 X s 994 486 m -3 X s 994 491 m -3 X s 997 496 m -6 X s 994 501 m -3 X s 994 506 m -3 X s 994 511 m -3 X s 994 516 m -3 X s 997 521 m -6 X s 994 526 m -3 X s 994 531 m -3 X s 994 535 m -3 X s 994 540 m -3 X s 997 545 m -6 X s
 994 550 m -3 X s 994 555 m -3 X s 994 560 m -3 X s 994 565 m -3 X s 997 570 m -6 X s 994 575 m -3 X s 994 580 m -3 X s 994 585 m -3 X s 994 590 m -3 X s 997 594 m -6 X s 994 599 m -3 X s 994 604 m -3 X s 994 609 m -3 X s 994 614 m -3 X s 997 619 m
 -6 X s 997 398 m -6 X s 994 393 m -3 X s 997 619 m -6 X s
 gsave  408 306 930 345 C 923.04 390.298 t 0 r /Helvetica findfont 22.8295 sf 0 0 m (\2550.035) show NC gr 
 gsave  408 306 930 345 C 937.285 415.938 t 0 r /Helvetica findfont 22.8295 sf 0 0 m (\2550.03) show NC gr 
 gsave  408 306 930 345 C 923.04 438.729 t 0 r /Helvetica findfont 22.8295 sf 0 0 m (\2550.025) show NC gr 
 gsave  408 306 930 345 C 937.285 464.369 t 0 r /Helvetica findfont 22.8295 sf 0 0 m (\2550.02) show NC gr 
 gsave  408 306 930 345 C 923.04 490.009 t 0 r /Helvetica findfont 22.8295 sf 0 0 m (\2550.015) show NC gr 
 gsave  408 306 930 345 C 940.134 512.8 t 0 r /Helvetica findfont 22.8295 sf 0 0 m (\2550.01) show NC gr 
 gsave  408 306 930 345 C 923.04 538.44 t 0 r /Helvetica findfont 22.8295 sf 0 0 m (\2550.005) show NC gr 
 gsave  408 306 930 345 C 974.32 564.08 t 0 r /Helvetica findfont 22.8295 sf 0 0 m (0) show NC gr 
 gsave  408 306 930 345 C 931.587 586.871 t 0 r /Helvetica findfont 22.8295 sf 0 0 m (0.005) show NC gr 
 gsave  408 306 930 345 C 945.832 612.511 t 0 r /Helvetica findfont 22.8295 sf 0 0 m (0.01) show NC gr  1297 391 m 229 Y s 1292 398 m 5 X s 1294 403 m 3 X s 1294 408 m 3 X s 1294 413 m 3 X s 1294 417 m 3 X s 1292 422 m 5 X s 1294 427 m 3 X s 1294 432
 m 3 X s 1294 437 m 3 X s 1294 442 m 3 X s 1292 447 m 5 X s 1294 452 m 3 X s 1294 457 m 3 X s 1294 462 m 3 X s 1294 467 m 3 X s 1292 472 m 5 X s 1294 476 m 3 X s 1294 481 m 3 X s 1294 486 m 3 X s 1294 491 m 3 X s 1292 496 m 5 X s 1294 501 m 3 X s
 1294 506 m 3 X s 1294 511 m 3 X s 1294 516 m 3 X s 1292 521 m 5 X s 1294 526 m 3 X s 1294 531 m 3 X s 1294 535 m 3 X s 1294 540 m 3 X s 1292 545 m 5 X s 1294 550 m 3 X s 1294 555 m 3 X s 1294 560 m 3 X s 1294 565 m 3 X s 1292 570 m 5 X s 1294 575 m
 3 X s 1294 580 m 3 X s 1294 585 m 3 X s 1294 590 m 3 X s 1292 594 m 5 X s 1294 599 m 3 X s 1294 604 m 3 X s 1294 609 m 3 X s 1294 614 m 3 X s 1292 619 m 5 X s 1292 398 m 5 X s 1294 393 m 3 X s 1292 619 m 5 X s 1038 509 1084 459 1178 551 1271 496 4 {
 m21} R 1038 520 m 38 Y s 1032 558 m 11 X s 1038 497 m -38 Y s 1032 459 m 11 X s 1084 471 m 38 Y s 1079 509 m 11 X s 1084 448 m -38 Y s 1079 410 m 11 X s 1178 562 m 39 Y s 1172 601 m 12 X s 1178 540 m -39 Y s 1172 501 m 12 X s 1271 507 m 39 Y s 1266
 546 m 11 X s 1271 485 m -39 Y s 1266 446 m 11 X s 9 lw 0.95 0.95 0.95 c black 993 569 m 3 X 3 -1 d 3 -1 d 3 -1 d 3 -1 d 3 -1 d 3 -1 d 3 -1 d 3 -1 d 3 -1 d 3 -1 d 3 -1 d 3 -1 d 3 -1 d 3 X 4 -1 d 3 -1 d 3 -1 d 3 -1 d 3 -1 d 3 -1 d 3 -1 d 3 -1 d 3 -1 d
 3 -1 d 3 -1 d 3 -1 d 3 X 3 -1 d 3 -1 d 3 -1 d 3 -1 d 4 -1 d 3 -1 d 3 -1 d 3 -1 d 3 -1 d 3 -1 d 3 -1 d 3 -1 d 3 -1 d 3 X 3 -1 d 3 -1 d 3 -1 d 3 -1 d 3 -1 d 3 -1 d 4 -1 d s 1143 524 m 3 -1 d 3 -1 d 3 -1 d 3 -1 d 3 -1 d 3 X 3 -1 d 3 -1 d 3 -1 d 3 -1 d
 3 -1 d 3 -1 d 3 -1 d 3 -1 d 3 -1 d 4 -1 d 3 -1 d 3 -1 d 3 X 3 -1 d 3 -1 d 3 -1 d 3 -1 d 3 -1 d 3 -1 d 3 -1 d 3 -1 d 3 -1 d 3 -1 d 3 -1 d 3 -1 d 3 -1 d 4 X 3 -1 d 3 -1 d 3 -1 d 3 -1 d 3 -1 d 3 -1 d 3 -1 d 3 -1 d 3 -1 d 3 -1 d 3 -1 d 3 -1 d 3 X 3 -1 d
 3 -1 d 4 -1 d s 1293 479 m 3 -1 d s 0.49 0.6 0.82 c black 0.49 0.6 0.82 c
 gsave  408 306 930 345 C 1051.24 629.605 t 0 r /Helvetica-Bold findfont 25.6831 sf 0 0 m (6.0 < E < 6.5 GeV) show NC gr  0.52 0.76 0.64 c black 0.52 0.76 0.64 c
 gsave  408 306 930 345 C 1031.3 592.569 t 0 r /Helvetica-Bold findfont 25.6831 sf 0 0 m 
 228 214 200 193 178 171 156 149 133 126 119 105 91 77 69 55 47 39 25 17
(A = \2550.006, p = 1.000) K NC gr  1 0.6 1 c black 1 0.6 1 c
 gsave  408 306 930 345 C 1336.13 458.671 t 90 r /Helvetica-Bold findfont 28.5368 sf 0 0 m (/dof=1.4) show NC gr  black 1 0.6 1 c
 gsave  408 306 930 345 C 1324.73 447.276 t 90 r /Helvetica-Bold findfont 19.9758 sf 0 0 m (2) show NC gr  black 1 0.6 1 c
 gsave  408 306 930 345 C 1336.13 430.182 t 90 r /Symbol findfont 28.5368 sf 0 0 m (c) show NC gr  black 3 lw 1 1 1 c 408 306 1383 345 bf black 1 1 1 c black 306 229 1445 391 bl 306 229 1445 391 bl 1445 391 m 306 X s 1445 395 m -4 Y s 1538 395 m -4 Y
 s 1631 395 m -4 Y s 1725 395 m -4 Y s 1725 395 m -4 Y s
 gsave  408 306 1383 345 C 1435.84 370.356 t 0 r /Helvetica findfont 22.8295 sf 0 0 m (0) show NC gr 
 gsave  408 306 1383 345 C 1529.85 370.356 t 0 r /Helvetica findfont 22.8295 sf 0 0 m (1) show NC gr 
 gsave  408 306 1383 345 C 1621.02 370.356 t 0 r /Helvetica findfont 22.8295 sf 0 0 m (2) show NC gr 
 gsave  408 306 1383 345 C 1715.03 370.356 t 0 r /Helvetica findfont 22.8295 sf 0 0 m (3) show NC gr  1445 620 m 306 X s 1445 616 m 4 Y s 1538 616 m 4 Y s 1631 616 m 4 Y s 1725 616 m 4 Y s 1725 616 m 4 Y s 1445 391 m 229 Y s 1450 394 m -5 X s 1447
 399 m -2 X s 1447 404 m -2 X s 1447 409 m -2 X s 1447 414 m -2 X s 1450 418 m -5 X s 1447 423 m -2 X s 1447 428 m -2 X s 1447 433 m -2 X s 1447 438 m -2 X s 1450 442 m -5 X s 1447 447 m -2 X s 1447 452 m -2 X s 1447 457 m -2 X s 1447 462 m -2 X s
 1450 467 m -5 X s 1447 471 m -2 X s 1447 476 m -2 X s 1447 481 m -2 X s 1447 486 m -2 X s 1450 491 m -5 X s 1447 495 m -2 X s 1447 500 m -2 X s 1447 505 m -2 X s 1447 510 m -2 X s 1450 515 m -5 X s 1447 520 m -2 X s 1447 524 m -2 X s 1447 529 m -2 X
 s 1447 534 m -2 X s 1450 539 m -5 X s 1447 544 m -2 X s 1447 548 m -2 X s 1447 553 m -2 X s 1447 558 m -2 X s 1450 563 m -5 X s 1447 568 m -2 X s 1447 573 m -2 X s 1447 577 m -2 X s 1447 582 m -2 X s 1450 587 m -5 X s 1447 592 m -2 X s 1447 597 m -2
 X s 1447 601 m -2 X s 1447 606 m -2 X s 1450 611 m -5 X s 1450 394 m -5 X s 1450 611 m -5 X s 1447 616 m -2 X s
 gsave  408 306 1383 345 C 1390.26 387.449 t 0 r /Helvetica findfont 22.8295 sf 0 0 m (\2550.03) show NC gr 
 gsave  408 306 1383 345 C 1376.01 410.24 t 0 r /Helvetica findfont 22.8295 sf 0 0 m (\2550.025) show NC gr 
 gsave  408 306 1383 345 C 1390.26 435.88 t 0 r /Helvetica findfont 22.8295 sf 0 0 m (\2550.02) show NC gr 
 gsave  408 306 1383 345 C 1376.01 458.671 t 0 r /Helvetica findfont 22.8295 sf 0 0 m (\2550.015) show NC gr 
 gsave  408 306 1383 345 C 1393.11 484.311 t 0 r /Helvetica findfont 22.8295 sf 0 0 m (\2550.01) show NC gr 
 gsave  408 306 1383 345 C 1376.01 507.102 t 0 r /Helvetica findfont 22.8295 sf 0 0 m (\2550.005) show NC gr 
 gsave  408 306 1383 345 C 1427.29 532.742 t 0 r /Helvetica findfont 22.8295 sf 0 0 m (0) show NC gr 
 gsave  408 306 1383 345 C 1384.56 555.534 t 0 r /Helvetica findfont 22.8295 sf 0 0 m (0.005) show NC gr 
 gsave  408 306 1383 345 C 1398.81 581.174 t 0 r /Helvetica findfont 22.8295 sf 0 0 m (0.01) show NC gr 
 gsave  408 306 1383 345 C 1384.56 603.965 t 0 r /Helvetica findfont 22.8295 sf 0 0 m (0.015) show NC gr  1751 391 m 229 Y s 1745 394 m 6 X s 1748 399 m 3 X s 1748 404 m 3 X s 1748 409 m 3 X s 1748 414 m 3 X s 1745 418 m 6 X s 1748 423 m 3 X s 1748
 428 m 3 X s 1748 433 m 3 X s 1748 438 m 3 X s 1745 442 m 6 X s 1748 447 m 3 X s 1748 452 m 3 X s 1748 457 m 3 X s 1748 462 m 3 X s 1745 467 m 6 X s 1748 471 m 3 X s 1748 476 m 3 X s 1748 481 m 3 X s 1748 486 m 3 X s 1745 491 m 6 X s 1748 495 m 3 X s
 1748 500 m 3 X s 1748 505 m 3 X s 1748 510 m 3 X s 1745 515 m 6 X s 1748 520 m 3 X s 1748 524 m 3 X s 1748 529 m 3 X s 1748 534 m 3 X s 1745 539 m 6 X s 1748 544 m 3 X s 1748 548 m 3 X s 1748 553 m 3 X s 1748 558 m 3 X s 1745 563 m 6 X s 1748 568 m
 3 X s 1748 573 m 3 X s 1748 577 m 3 X s 1748 582 m 3 X s 1745 587 m 6 X s 1748 592 m 3 X s 1748 597 m 3 X s 1748 601 m 3 X s 1748 606 m 3 X s 1745 611 m 6 X s 1745 394 m 6 X s 1745 611 m 6 X s 1748 616 m 3 X s 1491 467 1538 481 1631 543 1725 527 4 {
 m21} R 1491 478 m 46 Y s 1486 524 m 11 X s 1491 456 m -46 Y s 1486 410 m 11 X s 1538 492 m 46 Y s 1532 538 m 12 X s 1538 469 m -46 Y s 1532 423 m 12 X s 1631 555 m 46 Y s 1626 601 m 11 X s 1631 532 m -46 Y s 1626 486 m 11 X s 1725 539 m 46 Y s 1719
 585 m 12 X s 1725 516 m -46 Y s 1719 470 m 12 X s 9 lw 0.95 0.95 0.95 c black 1446 539 m 3 -1 d 9 X 3 -1 d 6 X 4 -1 d 9 X 3 -1 d 6 X 3 -1 d 9 X 3 -1 d 9 X 3 -1 d 7 X 3 -1 d 9 X 3 -1 d 6 X 3 -1 d 9 X 3 -1 d 10 X 3 -1 d 6 X 3 -1 d 9 X 3 -1 d 3 X s
 1596 525 m 3 X 3 -1 d 9 X 3 -1 d 10 X 3 -1 d 6 X 3 -1 d 9 X 3 -1 d 6 X 3 -1 d 9 X 4 -1 d 6 X 3 -1 d 9 X 3 -1 d 9 X 3 -1 d 6 X 3 -1 d 10 X 3 -1 d 6 X 3 -1 d 9 X 3 -1 d s 1746 511 m 3 X s 0.49 0.6 0.82 c black 0.49 0.6 0.82 c
 gsave  408 306 1383 345 C 1504.21 629.605 t 0 r /Helvetica-Bold findfont 25.6831 sf 0 0 m (6.5 < E < 7.0 GeV) show NC gr  0.52 0.76 0.64 c black 0.52 0.76 0.64 c
 gsave  408 306 1383 345 C 1484.27 592.569 t 0 r /Helvetica-Bold findfont 25.6831 sf 0 0 m 
 228 214 200 193 178 171 156 149 134 126 119 105 91 77 69 55 47 40 25 17
(A = \2550.002, p = 1.000) K NC gr  1 0.6 1 c black 1 0.6 1 c
 gsave  408 306 1383 345 C 1789.1 458.671 t 90 r /Helvetica-Bold findfont 28.5368 sf 0 0 m (/dof=0.8) show NC gr  black 1 0.6 1 c
 gsave  408 306 1383 345 C 1777.71 447.276 t 90 r /Helvetica-Bold findfont 19.9758 sf 0 0 m (2) show NC gr  black 1 0.6 1 c
 gsave  408 306 1383 345 C 1789.1 430.182 t 90 r /Symbol findfont 28.5368 sf 0 0 m (c) show NC gr  black 3 lw 1 1 1 c 408 306 1837 345 bf black 1 1 1 c black 306 229 1898 391 bl 306 229 1898 391 bl 1898 391 m 306 X s 1898 395 m -4 Y s 1992 395 m -4 Y
 s 2085 395 m -4 Y s 2179 395 m -4 Y s 2179 395 m -4 Y s
 gsave  408 306 1837 345 C 1888.81 370.356 t 0 r /Helvetica findfont 22.8295 sf 0 0 m (0) show NC gr 
 gsave  408 306 1837 345 C 1985.68 370.356 t 0 r /Helvetica findfont 22.8295 sf 0 0 m (1) show NC gr 
 gsave  408 306 1837 345 C 2073.99 370.356 t 0 r /Helvetica findfont 22.8295 sf 0 0 m (2) show NC gr 
 gsave  408 306 1837 345 C 2168.01 370.356 t 0 r /Helvetica findfont 22.8295 sf 0 0 m (3) show NC gr  1898 620 m 306 X s 1898 616 m 4 Y s 1992 616 m 4 Y s 2085 616 m 4 Y s 2179 616 m 4 Y s 2179 616 m 4 Y s 1898 391 m 229 Y s 1904 418 m -6 X s 1901
 425 m -3 X s 1901 433 m -3 X s 1901 440 m -3 X s 1901 447 m -3 X s 1904 454 m -6 X s 1901 461 m -3 X s 1901 468 m -3 X s 1901 475 m -3 X s 1901 482 m -3 X s 1904 489 m -6 X s 1901 496 m -3 X s 1901 503 m -3 X s 1901 510 m -3 X s 1901 517 m -3 X s
 1904 524 m -6 X s 1901 531 m -3 X s 1901 539 m -3 X s 1901 546 m -3 X s 1901 553 m -3 X s 1904 560 m -6 X s 1901 567 m -3 X s 1901 574 m -3 X s 1901 581 m -3 X s 1901 588 m -3 X s 1904 595 m -6 X s 1904 418 m -6 X s 1901 411 m -3 X s 1901 404 m -3 X
 s 1901 397 m -3 X s 1904 595 m -6 X s 1901 602 m -3 X s 1901 609 m -3 X s 1901 616 m -3 X s
 gsave  408 306 1837 345 C 1846.08 410.24 t 0 r /Helvetica findfont 22.8295 sf 0 0 m (\2550.01) show NC gr 
 gsave  408 306 1837 345 C 1880.27 447.276 t 0 r /Helvetica findfont 22.8295 sf 0 0 m (0) show NC gr 
 gsave  408 306 1837 345 C 1851.78 481.462 t 0 r /Helvetica findfont 22.8295 sf 0 0 m (0.01) show NC gr 
 gsave  408 306 1837 345 C 1848.93 518.498 t 0 r /Helvetica findfont 22.8295 sf 0 0 m (0.02) show NC gr 
 gsave  408 306 1837 345 C 1848.93 552.685 t 0 r /Helvetica findfont 22.8295 sf 0 0 m (0.03) show NC gr 
 gsave  408 306 1837 345 C 1848.93 586.871 t 0 r /Helvetica findfont 22.8295 sf 0 0 m (0.04) show NC gr  2204 391 m 229 Y s 2199 418 m 5 X s 2201 425 m 3 X s 2201 433 m 3 X s 2201 440 m 3 X s 2201 447 m 3 X s 2199 454 m 5 X s 2201 461 m 3 X s 2201
 468 m 3 X s 2201 475 m 3 X s 2201 482 m 3 X s 2199 489 m 5 X s 2201 496 m 3 X s 2201 503 m 3 X s 2201 510 m 3 X s 2201 517 m 3 X s 2199 524 m 5 X s 2201 531 m 3 X s 2201 539 m 3 X s 2201 546 m 3 X s 2201 553 m 3 X s 2199 560 m 5 X s 2201 567 m 3 X s
 2201 574 m 3 X s 2201 581 m 3 X s 2201 588 m 3 X s 2199 595 m 5 X s 2199 418 m 5 X s 2201 411 m 3 X s 2201 404 m 3 X s 2201 397 m 3 X s 2199 595 m 5 X s 2201 602 m 3 X s 2201 609 m 3 X s 2201 616 m 3 X s 1945 458 1992 497 2085 552 2179 492 4 { m21}
 R 1945 470 m 36 Y s 1939 506 m 12 X s 1945 447 m -37 Y s 1939 410 m 12 X s 1992 509 m 37 Y s 1986 546 m 11 X s 1992 486 m -37 Y s 1986 449 m 11 X s 2085 563 m 38 Y s 2079 601 m 12 X s 2085 541 m -38 Y s 2079 503 m 12 X s 2179 503 m 38 Y s 2173 541 m
 11 X s 2179 481 m -37 Y s 2173 444 m 11 X s 9 lw 0.95 0.95 0.95 c black 1900 454 m 3 1 d 3 1 d 3 1 d 3 X 3 1 d 3 1 d 3 1 d 3 1 d 3 X 3 1 d 3 1 d 3 1 d 3 1 d 3 1 d 4 X 3 1 d 3 1 d 3 1 d 3 1 d 3 1 d 3 X 3 1 d 3 1 d 3 1 d 3 1 d 3 X 3 1 d 3 1 d 3 1 d 3
 1 d 4 1 d 3 X 3 1 d 3 1 d 3 1 d 3 1 d 3 X 3 1 d 3 1 d 3 1 d 3 1 d 3 1 d 3 X 3 1 d 3 1 d 3 1 d 3 1 d 4 X 3 1 d s 2050 494 m 3 1 d 3 1 d 3 1 d 3 1 d 3 X 3 1 d 3 1 d 3 1 d 3 1 d 3 X 3 1 d 3 1 d 3 1 d 3 1 d 4 1 d 3 X 3 1 d 3 1 d 3 1 d 3 1 d 3 X 3 1 d 3
 1 d 3 1 d 3 1 d 3 1 d 3 X 3 1 d 3 1 d 3 1 d 4 1 d 3 X 3 1 d 3 1 d 3 1 d 3 1 d 3 1 d 3 X 3 1 d 3 1 d 3 1 d 3 1 d 3 X 3 1 d 3 1 d 3 1 d 4 1 d 3 1 d 3 X s 2200 534 m 3 1 d s 0.49 0.6 0.82 c black 0.49 0.6 0.82 c
 gsave  408 306 1837 345 C 1957.19 629.605 t 0 r /Helvetica-Bold findfont 25.6831 sf 0 0 m (7.0 < E < 7.5 GeV) show NC gr  0.52 0.76 0.64 c black 0.52 0.76 0.64 c
 gsave  408 306 1837 345 C 1942.94 592.569 t 0 r /Helvetica-Bold findfont 25.6831 sf 0 0 m 
 220 206 192 185 170 163 148 141 125 118 111 97 83 69 61 47 40 25 18
(A = 0.007, p = 1.000) K NC gr  1 0.6 1 c black 1 0.6 1 c
 gsave  408 306 1837 345 C 2242.08 458.671 t 90 r /Helvetica-Bold findfont 28.5368 sf 0 0 m (/dof=0.6) show NC gr  black 1 0.6 1 c
 gsave  408 306 1837 345 C 2230.68 447.276 t 90 r /Helvetica-Bold findfont 19.9758 sf 0 0 m (2) show NC gr  black 1 0.6 1 c
 gsave  408 306 1837 345 C 2242.08 430.182 t 90 r /Symbol findfont 28.5368 sf 0 0 m (c) show NC gr  black 3 lw 1 1 1 c 408 306 23 13 bf black 1 1 1 c black 306 229 84 59 bl 306 229 84 59 bl 84 59 m 306 X s 84 63 m -4 Y s 177 63 m -4 Y s 271 63 m -4 Y
 s 364 63 m -4 Y s 364 63 m -4 Y s
 gsave  408 306 23 13 C 74.0711 39.8845 t 0 r /Helvetica findfont 22.8295 sf 0 0 m (0) show NC gr 
 gsave  408 306 23 13 C 170.933 39.8845 t 0 r /Helvetica findfont 22.8295 sf 0 0 m (1) show NC gr 
 gsave  408 306 23 13 C 262.098 39.8845 t 0 r /Helvetica findfont 22.8295 sf 0 0 m (2) show NC gr 
 gsave  408 306 23 13 C 353.262 39.8845 t 0 r /Helvetica findfont 22.8295 sf 0 0 m (3) show NC gr  84 288 m 306 X s 84 284 m 4 Y s 177 284 m 4 Y s 271 284 m 4 Y s 364 284 m 4 Y s 364 284 m 4 Y s 84 59 m 229 Y s 89 63 m -5 X s 87 69 m -3 X s 87 75 m
 -3 X s 87 81 m -3 X s 87 87 m -3 X s 89 93 m -5 X s 87 99 m -3 X s 87 105 m -3 X s 87 111 m -3 X s 87 117 m -3 X s 89 123 m -5 X s 87 129 m -3 X s 87 135 m -3 X s 87 141 m -3 X s 87 147 m -3 X s 89 153 m -5 X s 87 159 m -3 X s 87 165 m -3 X s 87 171
 m -3 X s 87 177 m -3 X s 89 183 m -5 X s 87 189 m -3 X s 87 195 m -3 X s 87 201 m -3 X s 87 207 m -3 X s 89 213 m -5 X s 87 219 m -3 X s 87 225 m -3 X s 87 231 m -3 X s 87 238 m -3 X s 89 244 m -5 X s 87 250 m -3 X s 87 256 m -3 X s 87 262 m -3 X s
 87 268 m -3 X s 89 274 m -5 X s 89 63 m -5 X s 89 274 m -5 X s 87 280 m -3 X s 87 286 m -3 X s
 gsave  408 306 23 13 C 28.4889 56.9778 t 0 r /Helvetica findfont 22.8295 sf 0 0 m (\2550.04) show NC gr 
 gsave  408 306 23 13 C 28.4889 85.4667 t 0 r /Helvetica findfont 22.8295 sf 0 0 m (\2550.03) show NC gr 
 gsave  408 306 23 13 C 28.4889 116.804 t 0 r /Helvetica findfont 22.8295 sf 0 0 m (\2550.02) show NC gr 
 gsave  408 306 23 13 C 31.3378 145.293 t 0 r /Helvetica findfont 22.8295 sf 0 0 m (\2550.01) show NC gr 
 gsave  408 306 23 13 C 65.5245 176.631 t 0 r /Helvetica findfont 22.8295 sf 0 0 m (0) show NC gr 
 gsave  408 306 23 13 C 37.0356 205.12 t 0 r /Helvetica findfont 22.8295 sf 0 0 m (0.01) show NC gr 
 gsave  408 306 23 13 C 34.1867 236.458 t 0 r /Helvetica findfont 22.8295 sf 0 0 m (0.02) show NC gr 
 gsave  408 306 23 13 C 34.1867 267.796 t 0 r /Helvetica findfont 22.8295 sf 0 0 m (0.03) show NC gr  390 59 m 229 Y s 385 63 m 5 X s 387 69 m 3 X s 387 75 m 3 X s 387 81 m 3 X s 387 87 m 3 X s 385 93 m 5 X s 387 99 m 3 X s 387 105 m 3 X s 387 111 m
 3 X s 387 117 m 3 X s 385 123 m 5 X s 387 129 m 3 X s 387 135 m 3 X s 387 141 m 3 X s 387 147 m 3 X s 385 153 m 5 X s 387 159 m 3 X s 387 165 m 3 X s 387 171 m 3 X s 387 177 m 3 X s 385 183 m 5 X s 387 189 m 3 X s 387 195 m 3 X s 387 201 m 3 X s 387
 207 m 3 X s 385 213 m 5 X s 387 219 m 3 X s 387 225 m 3 X s 387 231 m 3 X s 387 238 m 3 X s 385 244 m 5 X s 387 250 m 3 X s 387 256 m 3 X s 387 262 m 3 X s 387 268 m 3 X s 385 274 m 5 X s 385 63 m 5 X s 385 274 m 5 X s 387 280 m 3 X s 387 286 m 3 X
 s /w 22 def /w2 {w 2 div} def /w3 {w 3 div} def 131 122 177 144 271 224 364 137 4 { m21} R 131 134 m 33 Y s 125 167 m 11 X s 131 111 m -33 Y s 125 78 m 11 X s 177 156 m 33 Y s 172 189 m 11 X s 177 133 m -33 Y s 172 100 m 11 X s 271 235 m 34 Y s 265
 269 m 12 X s 271 212 m -33 Y s 265 179 m 12 X s 364 148 m 33 Y s 359 181 m 11 X s 364 125 m -33 Y s 359 92 m 11 X s 9 lw 0.95 0.95 0.95 c black 85 183 m 7 X 3 -1 d 6 X 3 -1 d 9 X 3 -1 d 6 X 3 -1 d 6 X 3 -1 d 7 X 3 -1 d 9 X 3 -1 d 6 X 3 -1 d 6 X 3 -1
 d 6 X 3 -1 d 10 X 3 -1 d 6 X 3 -1 d 6 X 3 -1 d 9 X 3 -1 d 6 X 3 -1 d s 235 168 m 7 X 3 -1 d 6 X 3 -1 d 9 X 3 -1 d 6 X 3 -1 d 6 X 3 -1 d 7 X 3 -1 d 9 X 3 -1 d 6 X 3 -1 d 6 X 3 -1 d 9 X 3 -1 d 7 X 3 -1 d 6 X 3 -1 d 6 X 3 -1 d 9 X 3 -1 d 6 X 3 -1 d s
 385 153 m 4 X s 0.49 0.6 0.82 c black 0.49 0.6 0.82 c
 gsave  408 306 23 13 C 142.445 296.285 t 0 r /Helvetica-Bold findfont 25.6831 sf 0 0 m (7.5 < E < 8.0 GeV) show NC gr  0.52 0.76 0.64 c black 0.52 0.76 0.64 c
 gsave  408 306 23 13 C 122.502 259.249 t 0 r /Helvetica-Bold findfont 25.6831 sf 0 0 m 
 228 214 200 193 178 171 156 149 134 126 119 105 91 77 69 55 47 39 25 17
(A = \2550.003, p = 1.000) K NC gr  1 0.6 1 c black 1 0.6 1 c
 gsave  408 306 23 13 C 427.334 128.2 t 90 r /Helvetica-Bold findfont 28.5368 sf 0 0 m (/dof=1.3) show NC gr  black 1 0.6 1 c
 gsave  408 306 23 13 C 415.938 116.804 t 90 r /Helvetica-Bold findfont 19.9758 sf 0 0 m (2) show NC gr  black 1 0.6 1 c
 gsave  408 306 23 13 C 427.334 99.7112 t 90 r /Symbol findfont 28.5368 sf 0 0 m (c) show NC gr  black 3 lw 1 1 1 c 408 306 476 13 bf black 1 1 1 c black 307 229 537 59 bl 307 229 537 59 bl 537 59 m 307 X s 537 63 m -4 Y s 631 63 m -4 Y s 724 63 m -4
 Y s 818 63 m -4 Y s 818 63 m -4 Y s
 gsave  408 306 476 13 C 527.045 39.8845 t 0 r /Helvetica findfont 22.8295 sf 0 0 m (0) show NC gr 
 gsave  408 306 476 13 C 623.907 39.8845 t 0 r /Helvetica findfont 22.8295 sf 0 0 m (1) show NC gr 
 gsave  408 306 476 13 C 715.071 39.8845 t 0 r /Helvetica findfont 22.8295 sf 0 0 m (2) show NC gr 
 gsave  408 306 476 13 C 809.085 39.8845 t 0 r /Helvetica findfont 22.8295 sf 0 0 m (3) show NC gr  537 288 m 307 X s 537 284 m 4 Y s 631 284 m 4 Y s 724 284 m 4 Y s 818 284 m 4 Y s 818 284 m 4 Y s 537 59 m 229 Y s 543 64 m -6 X s 540 69 m -3 X s 540
 74 m -3 X s 540 78 m -3 X s 540 83 m -3 X s 543 88 m -6 X s 540 92 m -3 X s 540 97 m -3 X s 540 102 m -3 X s 540 106 m -3 X s 543 111 m -6 X s 540 116 m -3 X s 540 120 m -3 X s 540 125 m -3 X s 540 130 m -3 X s 543 134 m -6 X s 540 139 m -3 X s 540
 144 m -3 X s 540 148 m -3 X s 540 153 m -3 X s 543 158 m -6 X s 540 162 m -3 X s 540 167 m -3 X s 540 172 m -3 X s 540 176 m -3 X s 543 181 m -6 X s 540 186 m -3 X s 540 190 m -3 X s 540 195 m -3 X s 540 200 m -3 X s 543 204 m -6 X s 540 209 m -3 X
 s 540 214 m -3 X s 540 218 m -3 X s 540 223 m -3 X s 543 228 m -6 X s 540 232 m -3 X s 540 237 m -3 X s 540 242 m -3 X s 540 246 m -3 X s 543 251 m -6 X s 540 256 m -3 X s 540 260 m -3 X s 540 265 m -3 X s 540 270 m -3 X s 543 274 m -6 X s 543 64 m
 -6 X s 540 60 m -3 X s 543 274 m -6 X s 540 279 m -3 X s 540 284 m -3 X s
 gsave  408 306 476 13 C 481.462 56.9778 t 0 r /Helvetica findfont 22.8295 sf 0 0 m (\2550.04) show NC gr 
 gsave  408 306 476 13 C 481.462 79.7689 t 0 r /Helvetica findfont 22.8295 sf 0 0 m (\2550.03) show NC gr 
 gsave  408 306 476 13 C 481.462 102.56 t 0 r /Helvetica findfont 22.8295 sf 0 0 m (\2550.02) show NC gr 
 gsave  408 306 476 13 C 484.311 128.2 t 0 r /Helvetica findfont 22.8295 sf 0 0 m (\2550.01) show NC gr 
 gsave  408 306 476 13 C 518.498 150.991 t 0 r /Helvetica findfont 22.8295 sf 0 0 m (0) show NC gr 
 gsave  408 306 476 13 C 490.009 173.782 t 0 r /Helvetica findfont 22.8295 sf 0 0 m (0.01) show NC gr 
 gsave  408 306 476 13 C 487.16 196.573 t 0 r /Helvetica findfont 22.8295 sf 0 0 m (0.02) show NC gr 
 gsave  408 306 476 13 C 487.16 219.365 t 0 r /Helvetica findfont 22.8295 sf 0 0 m (0.03) show NC gr 
 gsave  408 306 476 13 C 487.16 245.005 t 0 r /Helvetica findfont 22.8295 sf 0 0 m (0.04) show NC gr 
 gsave  408 306 476 13 C 487.16 267.796 t 0 r /Helvetica findfont 22.8295 sf 0 0 m (0.05) show NC gr  844 59 m 229 Y s 838 64 m 6 X s 841 69 m 3 X s 841 74 m 3 X s 841 78 m 3 X s 841 83 m 3 X s 838 88 m 6 X s 841 92 m 3 X s 841 97 m 3 X s 841 102 m 3
 X s 841 106 m 3 X s 838 111 m 6 X s 841 116 m 3 X s 841 120 m 3 X s 841 125 m 3 X s 841 130 m 3 X s 838 134 m 6 X s 841 139 m 3 X s 841 144 m 3 X s 841 148 m 3 X s 841 153 m 3 X s 838 158 m 6 X s 841 162 m 3 X s 841 167 m 3 X s 841 172 m 3 X s 841
 176 m 3 X s 838 181 m 6 X s 841 186 m 3 X s 841 190 m 3 X s 841 195 m 3 X s 841 200 m 3 X s 838 204 m 6 X s 841 209 m 3 X s 841 214 m 3 X s 841 218 m 3 X s 841 223 m 3 X s 838 228 m 6 X s 841 232 m 3 X s 841 237 m 3 X s 841 242 m 3 X s 841 246 m 3 X
 s 838 251 m 6 X s 841 256 m 3 X s 841 260 m 3 X s 841 265 m 3 X s 841 270 m 3 X s 838 274 m 6 X s 838 64 m 6 X s 841 60 m 3 X s 838 274 m 6 X s 841 279 m 3 X s 841 284 m 3 X s /w 23 def /w2 {w 2 div} def /w3 {w 3 div} def 584 148 631 116 724 202 818
 230 4 { m21} R 584 159 m 27 Y s 578 186 m 12 X s 584 137 m -27 Y s 578 110 m 12 X s 631 127 m 26 Y s 625 153 m 12 X s 631 104 m -26 Y s 625 78 m 12 X s 724 214 m 26 Y s 719 240 m 11 X s 724 191 m -27 Y s 719 164 m 11 X s 818 242 m 27 Y s 812 269 m
 12 X s 818 219 m -27 Y s 812 192 m 12 X s 1 0 0 c 9 lw 0.95 0.95 0.95 c black 1 0 0 c 539 158 m 24 X 4 1 d 12 X 3 1 d 9 X 3 1 d 6 X 3 1 d 6 X 3 1 d 4 X 3 1 d 3 X 3 1 d 3 X 3 1 d 3 X 3 1 d 3 X 3 1 d 3 1 d 3 X 3 1 d 3 X 3 1 d 3 1 d 3 1 d 4 X 3 1 d 3 1
 d 3 1 d 3 X 3 1 d 3 1 d 3 1 d s 689 179 m 3 1 d 3 1 d 3 X 3 1 d 3 1 d 3 1 d 3 1 d 3 1 d 4 1 d 3 1 d 3 1 d 3 1 d 3 1 d 3 1 d 3 1 d 3 2 d 3 1 d 3 1 d 3 1 d 3 1 d 3 1 d 3 2 d 3 1 d 3 1 d 4 1 d 3 2 d 3 1 d 3 1 d 3 2 d 3 1 d 3 1 d 3 2 d 3 1 d 3 2 d 3 1 d
 3 2 d 3 1 d 3 1 d 3 2 d 3 2 d 4 1 d 3 2 d 3 1 d 3 2 d 3 1 d 3 2 d 3 2 d 3 1 d 3 2 d s 839 241 m 3 2 d s 0.49 0.6 0.82 c black 0.49 0.6 0.82 c
 gsave  408 306 476 13 C 595.418 296.285 t 0 r /Helvetica-Bold findfont 25.6831 sf 0 0 m (8.0 < E < 8.5 GeV) show NC gr  0.52 0.76 0.64 c black 0.52 0.76 0.64 c
 gsave  408 306 476 13 C 581.174 259.249 t 0 r /Helvetica-Bold findfont 25.6831 sf 0 0 m 
 220 206 192 185 170 163 148 141 125 118 111 97 83 68 61 47 40 25 18
(A = 0.003, p = 2.000) K NC gr  1 0.6 1 c black 1 0.6 1 c
 gsave  408 306 476 13 C 883.156 128.2 t 90 r /Helvetica-Bold findfont 28.5368 sf 0 0 m (/dof=0.7) show NC gr  black 1 0.6 1 c
 gsave  408 306 476 13 C 871.76 116.804 t 90 r /Helvetica-Bold findfont 19.9758 sf 0 0 m (2) show NC gr  black 1 0.6 1 c
 gsave  408 306 476 13 C 883.156 99.7112 t 90 r /Symbol findfont 28.5368 sf 0 0 m (c) show NC gr  black 3 lw 1 1 1 c 408 306 930 13 bf black 1 1 1 c black 306 229 991 59 bl 306 229 991 59 bl 991 59 m 306 X s 991 63 m -4 Y s 1084 63 m -4 Y s 1178 63 m
 -4 Y s 1271 63 m -4 Y s 1271 63 m -4 Y s
 gsave  408 306 930 13 C 980.018 39.8845 t 0 r /Helvetica findfont 22.8295 sf 0 0 m (0) show NC gr 
 gsave  408 306 930 13 C 1076.88 39.8845 t 0 r /Helvetica findfont 22.8295 sf 0 0 m (1) show NC gr 
 gsave  408 306 930 13 C 1168.04 39.8845 t 0 r /Helvetica findfont 22.8295 sf 0 0 m (2) show NC gr 
 gsave  408 306 930 13 C 1262.06 39.8845 t 0 r /Helvetica findfont 22.8295 sf 0 0 m (3) show NC gr  991 288 m 306 X s 991 284 m 4 Y s 1084 284 m 4 Y s 1178 284 m 4 Y s 1271 284 m 4 Y s 1271 284 m 4 Y s 991 59 m 229 Y s 997 59 m -6 X s 994 65 m -3 X s
 994 70 m -3 X s 994 76 m -3 X s 994 82 m -3 X s 997 87 m -6 X s 994 93 m -3 X s 994 98 m -3 X s 994 104 m -3 X s 994 110 m -3 X s 997 115 m -6 X s 994 121 m -3 X s 994 126 m -3 X s 994 132 m -3 X s 994 138 m -3 X s 997 143 m -6 X s 994 149 m -3 X s
 994 154 m -3 X s 994 160 m -3 X s 994 166 m -3 X s 997 171 m -6 X s 994 177 m -3 X s 994 182 m -3 X s 994 188 m -3 X s 994 194 m -3 X s 997 199 m -6 X s 994 205 m -3 X s 994 210 m -3 X s 994 216 m -3 X s 994 222 m -3 X s 997 227 m -6 X s 994 233 m
 -3 X s 994 239 m -3 X s 994 244 m -3 X s 994 250 m -3 X s 997 255 m -6 X s 994 261 m -3 X s 994 267 m -3 X s 994 272 m -3 X s 994 278 m -3 X s 997 283 m -6 X s 997 59 m -6 X s 997 283 m -6 X s
 gsave  408 306 930 13 C 937.285 51.28 t 0 r /Helvetica findfont 22.8295 sf 0 0 m (\2550.05) show NC gr 
 gsave  408 306 930 13 C 937.285 79.7689 t 0 r /Helvetica findfont 22.8295 sf 0 0 m (\2550.04) show NC gr 
 gsave  408 306 930 13 C 937.285 108.258 t 0 r /Helvetica findfont 22.8295 sf 0 0 m (\2550.03) show NC gr 
 gsave  408 306 930 13 C 937.285 136.747 t 0 r /Helvetica findfont 22.8295 sf 0 0 m (\2550.02) show NC gr 
 gsave  408 306 930 13 C 940.134 165.236 t 0 r /Helvetica findfont 22.8295 sf 0 0 m (\2550.01) show NC gr 
 gsave  408 306 930 13 C 974.32 190.876 t 0 r /Helvetica findfont 22.8295 sf 0 0 m (0) show NC gr 
 gsave  408 306 930 13 C 945.832 219.365 t 0 r /Helvetica findfont 22.8295 sf 0 0 m (0.01) show NC gr 
 gsave  408 306 930 13 C 942.983 247.853 t 0 r /Helvetica findfont 22.8295 sf 0 0 m (0.02) show NC gr 
 gsave  408 306 930 13 C 942.983 276.342 t 0 r /Helvetica findfont 22.8295 sf 0 0 m (0.03) show NC gr  1297 59 m 229 Y s 1292 59 m 5 X s 1294 65 m 3 X s 1294 70 m 3 X s 1294 76 m 3 X s 1294 82 m 3 X s 1292 87 m 5 X s 1294 93 m 3 X s 1294 98 m 3 X s
 1294 104 m 3 X s 1294 110 m 3 X s 1292 115 m 5 X s 1294 121 m 3 X s 1294 126 m 3 X s 1294 132 m 3 X s 1294 138 m 3 X s 1292 143 m 5 X s 1294 149 m 3 X s 1294 154 m 3 X s 1294 160 m 3 X s 1294 166 m 3 X s 1292 171 m 5 X s 1294 177 m 3 X s 1294 182 m
 3 X s 1294 188 m 3 X s 1294 194 m 3 X s 1292 199 m 5 X s 1294 205 m 3 X s 1294 210 m 3 X s 1294 216 m 3 X s 1294 222 m 3 X s 1292 227 m 5 X s 1294 233 m 3 X s 1294 239 m 3 X s 1294 244 m 3 X s 1294 250 m 3 X s 1292 255 m 5 X s 1294 261 m 3 X s 1294
 267 m 3 X s 1294 272 m 3 X s 1294 278 m 3 X s 1292 283 m 5 X s 1292 59 m 5 X s 1292 283 m 5 X s 1038 133 1084 126 1178 220 1271 154 4 { m21} R 1038 144 m 37 Y s 1032 181 m 11 X s 1038 121 m -36 Y s 1032 85 m 11 X s 1084 138 m 36 Y s 1079 174 m 11 X
 s 1084 115 m -37 Y s 1079 78 m 11 X s 1178 231 m 38 Y s 1172 269 m 12 X s 1178 209 m -38 Y s 1172 171 m 12 X s 1271 165 m 37 Y s 1266 202 m 11 X s 1271 143 m -37 Y s 1266 106 m 11 X s 9 lw 0.95 0.95 0.95 c black 993 199 m 3 X 3 -1 d 3 X 3 -1 d 3 X 3
 -1 d 3 X 3 -1 d 3 X 3 -1 d 3 X 3 -1 d 3 X 3 -1 d 3 X 4 -1 d 6 X 3 -1 d 3 X 3 -1 d 3 X 3 -1 d 3 X 3 -1 d 3 X 3 -1 d 3 X 3 -1 d 3 X 3 -1 d 3 X 4 -1 d 6 X 3 -1 d 3 X 3 -1 d 3 X 3 -1 d 3 X 3 -1 d 3 X 3 -1 d 3 X 3 -1 d 3 X 3 -1 d 4 X s 1143 176 m 3 -1 d
 6 X 3 -1 d 3 X 3 -1 d 3 X 3 -1 d 3 X 3 -1 d 3 X 3 -1 d 3 X 3 -1 d 3 X 4 -1 d 3 X 3 -1 d 6 X 3 -1 d 3 X 3 -1 d 3 X 3 -1 d 3 X 3 -1 d 3 X 3 -1 d 3 X 3 -1 d 3 X 4 -1 d 3 X 3 -1 d 6 X 3 -1 d 3 X 3 -1 d 3 X 3 -1 d 3 X 3 -1 d 3 X 3 -1 d 3 X 3 -1 d 4 X s
 1293 153 m 3 -1 d s 0.49 0.6 0.82 c black 0.49 0.6 0.82 c
 gsave  408 306 930 13 C 1051.24 296.285 t 0 r /Helvetica-Bold findfont 25.6831 sf 0 0 m (8.5 < E < 9.0 GeV) show NC gr  0.52 0.76 0.64 c black 0.52 0.76 0.64 c
 gsave  408 306 930 13 C 1031.3 259.249 t 0 r /Helvetica-Bold findfont 25.6831 sf 0 0 m 
 228 214 200 193 178 171 156 149 133 126 119 105 91 77 69 55 47 39 25 17
(A = \2550.005, p = 1.000) K NC gr  1 0.6 1 c black 1 0.6 1 c
 gsave  408 306 930 13 C 1336.13 128.2 t 90 r /Helvetica-Bold findfont 28.5368 sf 0 0 m (/dof=1.3) show NC gr  black 1 0.6 1 c
 gsave  408 306 930 13 C 1324.73 116.804 t 90 r /Helvetica-Bold findfont 19.9758 sf 0 0 m (2) show NC gr  black 1 0.6 1 c
 gsave  408 306 930 13 C 1336.13 99.7112 t 90 r /Symbol findfont 28.5368 sf 0 0 m (c) show NC gr  black 3 lw 1 1 1 c 408 306 1383 13 bf black 1 1 1 c black 306 229 1445 59 bl 306 229 1445 59 bl 1445 59 m 306 X s 1445 63 m -4 Y s 1538 63 m -4 Y s 1631
 63 m -4 Y s 1725 63 m -4 Y s 1725 63 m -4 Y s
 gsave  408 306 1383 13 C 1435.84 39.8845 t 0 r /Helvetica findfont 22.8295 sf 0 0 m (0) show NC gr 
 gsave  408 306 1383 13 C 1529.85 39.8845 t 0 r /Helvetica findfont 22.8295 sf 0 0 m (1) show NC gr 
 gsave  408 306 1383 13 C 1621.02 39.8845 t 0 r /Helvetica findfont 22.8295 sf 0 0 m (2) show NC gr 
 gsave  408 306 1383 13 C 1715.03 39.8845 t 0 r /Helvetica findfont 22.8295 sf 0 0 m (3) show NC gr  1445 288 m 306 X s 1445 284 m 4 Y s 1538 284 m 4 Y s 1631 284 m 4 Y s 1725 284 m 4 Y s 1725 284 m 4 Y s 1445 59 m 229 Y s 1450 68 m -5 X s 1447 73 m
 -2 X s 1447 79 m -2 X s 1447 84 m -2 X s 1447 89 m -2 X s 1450 95 m -5 X s 1447 100 m -2 X s 1447 105 m -2 X s 1447 111 m -2 X s 1447 116 m -2 X s 1450 121 m -5 X s 1447 127 m -2 X s 1447 132 m -2 X s 1447 137 m -2 X s 1447 143 m -2 X s 1450 148 m
 -5 X s 1447 153 m -2 X s 1447 159 m -2 X s 1447 164 m -2 X s 1447 169 m -2 X s 1450 175 m -5 X s 1447 180 m -2 X s 1447 186 m -2 X s 1447 191 m -2 X s 1447 196 m -2 X s 1450 202 m -5 X s 1447 207 m -2 X s 1447 212 m -2 X s 1447 218 m -2 X s 1447 223
 m -2 X s 1450 228 m -5 X s 1447 234 m -2 X s 1447 239 m -2 X s 1447 244 m -2 X s 1447 250 m -2 X s 1450 255 m -5 X s 1447 260 m -2 X s 1447 266 m -2 X s 1447 271 m -2 X s 1447 276 m -2 X s 1450 282 m -5 X s 1450 68 m -5 X s 1447 63 m -2 X s 1450 282
 m -5 X s 1447 287 m -2 X s
 gsave  408 306 1383 13 C 1390.26 59.8267 t 0 r /Helvetica findfont 22.8295 sf 0 0 m (\2550.02) show NC gr 
 gsave  408 306 1383 13 C 1393.11 88.3156 t 0 r /Helvetica findfont 22.8295 sf 0 0 m (\2550.01) show NC gr 
 gsave  408 306 1383 13 C 1427.29 113.956 t 0 r /Helvetica findfont 22.8295 sf 0 0 m (0) show NC gr 
 gsave  408 306 1383 13 C 1398.81 139.596 t 0 r /Helvetica findfont 22.8295 sf 0 0 m (0.01) show NC gr 
 gsave  408 306 1383 13 C 1395.96 168.085 t 0 r /Helvetica findfont 22.8295 sf 0 0 m (0.02) show NC gr 
 gsave  408 306 1383 13 C 1395.96 193.725 t 0 r /Helvetica findfont 22.8295 sf 0 0 m (0.03) show NC gr 
 gsave  408 306 1383 13 C 1395.96 222.213 t 0 r /Helvetica findfont 22.8295 sf 0 0 m (0.04) show NC gr 
 gsave  408 306 1383 13 C 1395.96 247.853 t 0 r /Helvetica findfont 22.8295 sf 0 0 m (0.05) show NC gr 
 gsave  408 306 1383 13 C 1395.96 273.493 t 0 r /Helvetica findfont 22.8295 sf 0 0 m (0.06) show NC gr  1751 59 m 229 Y s 1745 68 m 6 X s 1748 73 m 3 X s 1748 79 m 3 X s 1748 84 m 3 X s 1748 89 m 3 X s 1745 95 m 6 X s 1748 100 m 3 X s 1748 105 m 3 X
 s 1748 111 m 3 X s 1748 116 m 3 X s 1745 121 m 6 X s 1748 127 m 3 X s 1748 132 m 3 X s 1748 137 m 3 X s 1748 143 m 3 X s 1745 148 m 6 X s 1748 153 m 3 X s 1748 159 m 3 X s 1748 164 m 3 X s 1748 169 m 3 X s 1745 175 m 6 X s 1748 180 m 3 X s 1748 186
 m 3 X s 1748 191 m 3 X s 1748 196 m 3 X s 1745 202 m 6 X s 1748 207 m 3 X s 1748 212 m 3 X s 1748 218 m 3 X s 1748 223 m 3 X s 1745 228 m 6 X s 1748 234 m 3 X s 1748 239 m 3 X s 1748 244 m 3 X s 1748 250 m 3 X s 1745 255 m 6 X s 1748 260 m 3 X s
 1748 266 m 3 X s 1748 271 m 3 X s 1748 276 m 3 X s 1745 282 m 6 X s 1745 68 m 6 X s 1748 63 m 3 X s 1745 282 m 6 X s 1748 287 m 3 X s 1491 165 1538 136 1631 128 1725 218 4 { m21} R 1491 176 m 39 Y s 1486 215 m 11 X s 1491 153 m -39 Y s 1486 114 m 11
 X s 1538 148 m 38 Y s 1532 186 m 12 X s 1538 125 m -39 Y s 1532 86 m 12 X s 1631 140 m 38 Y s 1626 178 m 11 X s 1631 117 m -39 Y s 1626 78 m 11 X s 1725 229 m 40 Y s 1719 269 m 12 X s 1725 206 m -39 Y s 1719 167 m 12 X s 1 0 0 c 9 lw 0.95 0.95 0.95
 c black 1 0 0 c 1446 121 m 9 X 3 1 d 19 X 3 1 d 9 X 3 1 d 6 X 3 1 d 3 X 3 1 d 6 X 3 1 d 4 X 3 1 d 3 X 3 1 d 3 1 d 3 X 3 1 d 3 X 3 1 d 3 1 d 3 X 3 1 d 3 1 d 3 X 3 1 d 3 1 d 4 1 d 3 1 d 3 X 3 1 d 3 1 d 3 1 d 3 1 d 3 1 d 3 1 d 3 1 d s 1596 146 m 3 1 d
 3 1 d 3 1 d 3 1 d 3 1 d 3 1 d 4 1 d 3 2 d 3 1 d 3 1 d 3 1 d 3 1 d 3 2 d 3 1 d 3 1 d 3 1 d 3 2 d 3 1 d 3 1 d 3 2 d 3 1 d 3 2 d 3 1 d 4 2 d 3 1 d 3 2 d 3 1 d 3 2 d 3 1 d 3 2 d 3 1 d 3 2 d 3 2 d 3 1 d 3 2 d 3 2 d 3 1 d 3 2 d 3 2 d 4 2 d 3 2 d 3 1 d 3 2
 d 3 2 d 3 2 d 3 2 d 3 2 d 3 2 d 3 2 d s 1746 219 m 3 2 d s 0.49 0.6 0.82 c black 0.49 0.6 0.82 c
 gsave  408 306 1383 13 C 1504.21 296.285 t 0 r /Helvetica-Bold findfont 25.6831 sf 0 0 m (9.0 < E < 9.5 GeV) show NC gr  0.52 0.76 0.64 c black 0.52 0.76 0.64 c
 gsave  408 306 1383 13 C 1489.97 259.249 t 0 r /Helvetica-Bold findfont 25.6831 sf 0 0 m 
 220 206 192 185 170 163 148 141 126 118 111 97 83 69 61 47 40 25 18
(A = 0.003, p = 2.000) K NC gr  1 0.6 1 c black 1 0.6 1 c
 gsave  408 306 1383 13 C 1789.1 128.2 t 90 r /Helvetica-Bold findfont 28.5368 sf 0 0 m (/dof=0.4) show NC gr  black 1 0.6 1 c
 gsave  408 306 1383 13 C 1777.71 116.804 t 90 r /Helvetica-Bold findfont 19.9758 sf 0 0 m (2) show NC gr  black 1 0.6 1 c
 gsave  408 306 1383 13 C 1789.1 99.7112 t 90 r /Symbol findfont 28.5368 sf 0 0 m (c) show NC gr  black 3 lw 1 1 1 c 408 306 1837 13 bf black 1 1 1 c black 306 229 1898 59 bl 306 229 1898 59 bl 1898 59 m 306 X s 1898 63 m -4 Y s 1992 63 m -4 Y s 2085
 63 m -4 Y s 2179 63 m -4 Y s 2179 63 m -4 Y s
 gsave  408 306 1837 13 C 1888.81 39.8845 t 0 r /Helvetica findfont 22.8295 sf 0 0 m (0) show NC gr 
 gsave  408 306 1837 13 C 1985.68 39.8845 t 0 r /Helvetica findfont 22.8295 sf 0 0 m (1) show NC gr 
 gsave  408 306 1837 13 C 2073.99 39.8845 t 0 r /Helvetica findfont 22.8295 sf 0 0 m (2) show NC gr 
 gsave  408 306 1837 13 C 2168.01 39.8845 t 0 r /Helvetica findfont 22.8295 sf 0 0 m (3) show NC gr  1898 288 m 306 X s 1898 284 m 4 Y s 1992 284 m 4 Y s 2085 284 m 4 Y s 2179 284 m 4 Y s 2179 284 m 4 Y s 1898 59 m 229 Y s 1904 80 m -6 X s 1901 87 m
 -3 X s 1901 94 m -3 X s 1901 101 m -3 X s 1901 107 m -3 X s 1904 114 m -6 X s 1901 121 m -3 X s 1901 127 m -3 X s 1901 134 m -3 X s 1901 141 m -3 X s 1904 147 m -6 X s 1901 154 m -3 X s 1901 161 m -3 X s 1901 167 m -3 X s 1901 174 m -3 X s 1904 181
 m -6 X s 1901 187 m -3 X s 1901 194 m -3 X s 1901 201 m -3 X s 1901 208 m -3 X s 1904 214 m -6 X s 1901 221 m -3 X s 1901 228 m -3 X s 1901 234 m -3 X s 1901 241 m -3 X s 1904 248 m -6 X s 1901 254 m -3 X s 1901 261 m -3 X s 1901 268 m -3 X s 1901
 274 m -3 X s 1904 281 m -6 X s 1904 80 m -6 X s 1901 74 m -3 X s 1901 67 m -3 X s 1901 60 m -3 X s 1904 281 m -6 X s 1901 288 m -3 X s
 gsave  408 306 1837 13 C 1843.23 74.0711 t 0 r /Helvetica findfont 22.8295 sf 0 0 m (\2550.03) show NC gr 
 gsave  408 306 1837 13 C 1843.23 105.409 t 0 r /Helvetica findfont 22.8295 sf 0 0 m (\2550.02) show NC gr 
 gsave  408 306 1837 13 C 1846.08 139.596 t 0 r /Helvetica findfont 22.8295 sf 0 0 m (\2550.01) show NC gr 
 gsave  408 306 1837 13 C 1880.27 173.782 t 0 r /Helvetica findfont 22.8295 sf 0 0 m (0) show NC gr 
 gsave  408 306 1837 13 C 1851.78 207.969 t 0 r /Helvetica findfont 22.8295 sf 0 0 m (0.01) show NC gr 
 gsave  408 306 1837 13 C 1848.93 239.307 t 0 r /Helvetica findfont 22.8295 sf 0 0 m (0.02) show NC gr 
 gsave  408 306 1837 13 C 1848.93 273.493 t 0 r /Helvetica findfont 22.8295 sf 0 0 m (0.03) show NC gr  2204 59 m 229 Y s 2199 80 m 5 X s 2201 87 m 3 X s 2201 94 m 3 X s 2201 101 m 3 X s 2201 107 m 3 X s 2199 114 m 5 X s 2201 121 m 3 X s 2201 127 m 3
 X s 2201 134 m 3 X s 2201 141 m 3 X s 2199 147 m 5 X s 2201 154 m 3 X s 2201 161 m 3 X s 2201 167 m 3 X s 2201 174 m 3 X s 2199 181 m 5 X s 2201 187 m 3 X s 2201 194 m 3 X s 2201 201 m 3 X s 2201 208 m 3 X s 2199 214 m 5 X s 2201 221 m 3 X s 2201
 228 m 3 X s 2201 234 m 3 X s 2201 241 m 3 X s 2199 248 m 5 X s 2201 254 m 3 X s 2201 261 m 3 X s 2201 268 m 3 X s 2201 274 m 3 X s 2199 281 m 5 X s 2199 80 m 5 X s 2201 74 m 3 X s 2201 67 m 3 X s 2201 60 m 3 X s 2199 281 m 5 X s 2201 288 m 3 X s
 1945 145 1992 202 2085 160 2179 165 4 { m21} R 1945 156 m 55 Y s 1939 211 m 12 X s 1945 133 m -55 Y s 1939 78 m 12 X s 1992 213 m 56 Y s 1986 269 m 11 X s 1992 190 m -55 Y s 1986 135 m 11 X s 2085 171 m 56 Y s 2079 227 m 12 X s 2085 149 m -56 Y s
 2079 93 m 12 X s 2179 176 m 56 Y s 2173 232 m 11 X s 2179 154 m -56 Y s 2173 98 m 11 X s 9 lw 0.95 0.95 0.95 c black 1900 181 m 3 -1 d 12 X 3 -1 d 12 X 3 -1 d 16 X 3 -1 d 12 X 3 -1 d 12 X 3 -1 d 13 X 3 -1 d 12 X 3 -1 d 12 X 3 -1 d 12 X 3 -1 d 7 X s
 2050 171 m 6 X 3 -1 d 12 X 3 -1 d 12 X 3 -1 d 13 X 3 -1 d 12 X 3 -1 d 12 X 3 -1 d 13 X 3 -1 d 12 X 3 -1 d 12 X 3 -1 d 13 X 3 -1 d 3 X s 2200 161 m 3 X s 0.49 0.6 0.82 c black 0.49 0.6 0.82 c
 gsave  408 306 1837 13 C 1948.64 296.285 t 0 r /Helvetica-Bold findfont 25.6831 sf 0 0 m (9.5 < E < 10.0 GeV) show NC gr  0.52 0.76 0.64 c black 0.52 0.76 0.64 c
 gsave  408 306 1837 13 C 1937.25 259.249 t 0 r /Helvetica-Bold findfont 25.6831 sf 0 0 m 
 228 214 200 193 178 171 156 149 133 126 119 105 91 77 69 55 47 39 25 17
(A = \2550.002, p = 1.000) K NC gr  1 0.6 1 c black 1 0.6 1 c
 gsave  408 306 1837 13 C 2242.08 128.2 t 90 r /Helvetica-Bold findfont 28.5368 sf 0 0 m (/dof=0.1) show NC gr  black 1 0.6 1 c
 gsave  408 306 1837 13 C 2230.68 116.804 t 90 r /Helvetica-Bold findfont 19.9758 sf 0 0 m (2) show NC gr  black 1 0.6 1 c
 gsave  408 306 1837 13 C 2242.08 99.7112 t 90 r /Symbol findfont 28.5368 sf 0 0 m (c) show NC gr 
 gr  gr showpage
end
%%EOF
