%!PS-Adobe-2.0 EPSF-2.0
%%BoundingBox:  0 0 567 332
%%Title: TargetXTilt_far_summary.eps: Summary
%%Creator: ROOT Version 5.30/06
%%CreationDate: Sun Feb  2 09:35:54 2014
%%EndComments
%%BeginProlog
80 dict begin
/s {stroke} def /l {lineto} def /m {moveto} def /t {translate} def
/r {rotate} def /rl {roll}  def /R {repeat} def
/d {rlineto} def /rm {rmoveto} def /gr {grestore} def /f {eofill} def
/c {setrgbcolor} def /black {0 setgray} def /sd {setdash} def
/cl {closepath} def /sf {scalefont setfont} def /lw {setlinewidth} def
/box {m dup 0 exch d exch 0 d 0 exch neg d cl} def
/NC{systemdict begin initclip end}def/C{NC box clip newpath}def
/bl {box s} def /bf {box f} def /Y { 0 exch d} def /X { 0 d} def 
/K {{pop pop 0 moveto} exch kshow} bind def
/ita {/ang 15 def gsave [1 0 ang dup sin exch cos div 1 0 0] concat} def 
/mp {newpath /y exch def /x exch def} def
/side {[w .77 mul w .23 mul] .385 w mul sd w 0 l currentpoint t -144 r} def
/mr {mp x y w2 0 360 arc} def /m24 {mr s} def /m20 {mr f} def
/mb {mp x y w2 add m w2 neg 0 d 0 w neg d w 0 d 0 w d cl} def
/mt {mp x y w2 add m w2 neg w neg d w 0 d cl} def
/m21 {mb f} def /m25 {mb s} def /m22 {mt f} def /m26{mt s} def
/m23 {mp x y w2 sub m w2 w d w neg 0 d cl f} def
/m27 {mp x y w2 add m w3 neg w2 neg d w3 w2 neg d w3 w2 d cl s} def
/m28 {mp x w2 sub y w2 sub w3 add m w3 0 d  0 w3 neg d w3 0 d 0 w3 d w3 0 d  0 w3 d w3 neg 0 d 0 w3 d w3 neg 0 d 0 w3 neg d w3 neg 0 d cl s } def
/m29 {mp gsave x w2 sub y w2 add w3 sub m currentpoint t 4 {side} repeat cl fill gr} def
/m30 {mp gsave x w2 sub y w2 add w3 sub m currentpoint t 4 {side} repeat cl s gr} def
/m31 {mp x y w2 sub m 0 w d x w2 sub y m w 0 d x w2 sub y w2 add m w w neg d x w2 sub y w2 sub m w w d s} def
/m32 {mp x y w2 sub m w2 w d w neg 0 d cl s} def
/m33 {mp x y w2 add m w3 neg w2 neg d w3 w2 neg d w3 w2 d cl f} def
/m34 {mp x w2 sub y w2 sub w3 add m w3 0 d  0 w3 neg d w3 0 d 0 w3 d w3 0 d  0 w3 d w3 neg 0 d 0 w3 d w3 neg 0 d 0 w3 neg d w3 neg 0 d cl f } def
/m2 {mp x y w2 sub m 0 w d x w2 sub y m w 0 d s} def
/m5 {mp x w2 sub y w2 sub m w w d x w2 sub y w2 add m w w neg d s} def
/reEncode {exch findfont dup length dict begin {1 index /FID eq  {pop pop} {def} ifelse } forall /Encoding exch def currentdict end dup /FontName get exch definefont pop } def [/Times-Bold /Times-Italic /Times-BoldItalic /Helvetica /Helvetica-Oblique
 /Helvetica-Bold /Helvetica-BoldOblique /Courier /Courier-Oblique /Courier-Bold /Courier-BoldOblique /Times-Roman /AvantGarde-Book /AvantGarde-BookOblique /AvantGarde-Demi /AvantGarde-DemiOblique /Bookman-Demi /Bookman-DemiItalic /Bookman-Light
 /Bookman-LightItalic /Helvetica-Narrow /Helvetica-Narrow-Bold /Helvetica-Narrow-BoldOblique /Helvetica-Narrow-Oblique /NewCenturySchlbk-Roman /NewCenturySchlbk-Bold /NewCenturySchlbk-BoldItalic /NewCenturySchlbk-Italic /Palatino-Bold
 /Palatino-BoldItalic /Palatino-Italic /Palatino-Roman ] {ISOLatin1Encoding reEncode } forall%%EndProlog
%%BeginSetup
%%EndSetup
newpath  gsave  .25 .25 scale  gsave  0 0 t black[  ] 0 sd 3 lw 1 1 1 c 2268 1328 0 0 bf black 1 1 1 c black 1588 996 340 199 bl 1588 996 340 199 bl 1 1 1 c 1 0 0 c /w 23 def /w2 {w 2 div} def /w3 {w 3 div} def 380 315 m21 459 312 m21 539 313 m21 618
 313 m21 697 307 m21 777 305 m21 856 311 m21 935 309 m21 1015 286 m21 black 1094 276 m s 1094 299 m s 1088 276 m 12 X s 1088 299 m 12 X s 1 0 0 c 1094 287 m21 black 1174 287 m 4 Y s 1174 314 m 3 Y s 1168 287 m 11 X s 1168 317 m 11 X s 1 0 0 c 1174
 302 m21 black 1253 322 m 7 Y s 1253 352 m 7 Y s 1247 322 m 12 X s 1247 359 m 12 X s 1 0 0 c 1253 340 m21 black 1332 304 m 11 Y s 1332 338 m 11 Y s 1327 304 m 11 X s 1327 349 m 11 X s 1 0 0 c 1332 326 m21 black 1412 260 m 15 Y s 1412 298 m 15 Y s
 1406 260 m 11 X s 1406 313 m 11 X s 1 0 0 c 1412 287 m21 black 1491 279 m 19 Y s 1491 321 m 18 Y s 1485 279 m 12 X s 1485 339 m 12 X s 1 0 0 c 1491 309 m21 black 1570 306 m 22 Y s 1570 351 m 21 Y s 1565 306 m 11 X s 1565 372 m 11 X s 1 0 0 c 1570
 339 m21 black 1650 269 m 24 Y s 1650 316 m 24 Y s 1644 269 m 11 X s 1644 340 m 11 X s 1 0 0 c 1650 305 m21 black 1729 270 m 27 Y s 1729 320 m 27 Y s 1723 270 m 12 X s 1723 347 m 12 X s 1 0 0 c 1729 308 m21 black 1809 276 m 30 Y s 1809 329 m 30 Y s
 1803 276 m 11 X s 1803 359 m 11 X s 1 0 0 c 1809 318 m21 black 1888 292 m 33 Y s 1888 348 m 33 Y s 1882 292 m 12 X s 1882 381 m 12 X s 1 0 0 c 1888 337 m21 black 340 199 m 1588 X s
 gsave  2268 1328 0 0 C 954.378 68.3734 t 0 r /Helvetica findfont 62.6756 sf 0 0 m ( Energy \(GeV\) ) show NC gr 
 gsave  2268 1328 0 0 C 928.738 51.28 t 0 r /Symbol findfont 42.7334 sf 0 0 m (m) show NC gr 
 gsave  2268 1328 0 0 C 894.552 68.3734 t 0 r /Symbol findfont 62.6756 sf 0 0 m (n) show NC gr  340 216 m -17 Y s 372 208 m -9 Y s 404 208 m -9 Y s 435 208 m -9 Y s 467 208 m -9 Y s 499 216 m -17 Y s 531 208 m -9 Y s 562 208 m -9 Y s 594 208 m -9 Y s
 626 208 m -9 Y s 658 216 m -17 Y s 689 208 m -9 Y s 721 208 m -9 Y s 753 208 m -9 Y s 785 208 m -9 Y s 816 216 m -17 Y s 848 208 m -9 Y s 880 208 m -9 Y s 912 208 m -9 Y s 943 208 m -9 Y s 975 216 m -17 Y s 1007 208 m -9 Y s 1039 208 m -9 Y s 1070
 208 m -9 Y s 1102 208 m -9 Y s 1134 216 m -17 Y s 1166 208 m -9 Y s 1197 208 m -9 Y s 1229 208 m -9 Y s 1261 208 m -9 Y s 1293 216 m -17 Y s 1324 208 m -9 Y s 1356 208 m -9 Y s 1388 208 m -9 Y s 1420 208 m -9 Y s 1451 216 m -17 Y s 1483 208 m -9 Y s
 1515 208 m -9 Y s 1547 208 m -9 Y s 1578 208 m -9 Y s 1610 216 m -17 Y s 1642 208 m -9 Y s 1674 208 m -9 Y s 1705 208 m -9 Y s 1737 208 m -9 Y s 1769 216 m -17 Y s 1801 208 m -9 Y s 1832 208 m -9 Y s 1864 208 m -9 Y s 1896 208 m -9 Y s 1928 216 m
 -17 Y s
 gsave  2268 1328 0 0 C 319.076 136.747 t 0 r /Helvetica findfont 68.3734 sf 0 0 m (0) show NC gr 
 gsave  2268 1328 0 0 C 484.311 136.747 t 0 r /Helvetica findfont 68.3734 sf 0 0 m (1) show NC gr 
 gsave  2268 1328 0 0 C 635.302 136.747 t 0 r /Helvetica findfont 68.3734 sf 0 0 m (2) show NC gr 
 gsave  2268 1328 0 0 C 794.84 136.747 t 0 r /Helvetica findfont 68.3734 sf 0 0 m (3) show NC gr 
 gsave  2268 1328 0 0 C 954.378 136.747 t 0 r /Helvetica findfont 68.3734 sf 0 0 m (4) show NC gr 
 gsave  2268 1328 0 0 C 1113.92 136.747 t 0 r /Helvetica findfont 68.3734 sf 0 0 m (5) show NC gr 
 gsave  2268 1328 0 0 C 1270.6 136.747 t 0 r /Helvetica findfont 68.3734 sf 0 0 m (6) show NC gr 
 gsave  2268 1328 0 0 C 1430.14 136.747 t 0 r /Helvetica findfont 68.3734 sf 0 0 m (7) show NC gr 
 gsave  2268 1328 0 0 C 1589.68 136.747 t 0 r /Helvetica findfont 68.3734 sf 0 0 m (8) show NC gr 
 gsave  2268 1328 0 0 C 1746.37 136.747 t 0 r /Helvetica findfont 68.3734 sf 0 0 m (9) show NC gr 
 gsave  2268 1328 0 0 C 1888.81 136.747 t 0 r /Helvetica findfont 68.3734 sf 0 0 m (10) show NC gr  340 1195 m 1588 X s 340 1178 m 17 Y s 372 1186 m 9 Y s 404 1186 m 9 Y s 435 1186 m 9 Y s 467 1186 m 9 Y s 499 1178 m 17 Y s 531 1186 m 9 Y s 562 1186
 m 9 Y s 594 1186 m 9 Y s 626 1186 m 9 Y s 658 1178 m 17 Y s 689 1186 m 9 Y s 721 1186 m 9 Y s 753 1186 m 9 Y s 785 1186 m 9 Y s 816 1178 m 17 Y s 848 1186 m 9 Y s 880 1186 m 9 Y s 912 1186 m 9 Y s 943 1186 m 9 Y s 975 1178 m 17 Y s 1007 1186 m 9 Y s
 1039 1186 m 9 Y s 1070 1186 m 9 Y s 1102 1186 m 9 Y s 1134 1178 m 17 Y s 1166 1186 m 9 Y s 1197 1186 m 9 Y s 1229 1186 m 9 Y s 1261 1186 m 9 Y s 1293 1178 m 17 Y s 1324 1186 m 9 Y s 1356 1186 m 9 Y s 1388 1186 m 9 Y s 1420 1186 m 9 Y s 1451 1178 m
 17 Y s 1483 1186 m 9 Y s 1515 1186 m 9 Y s 1547 1186 m 9 Y s 1578 1186 m 9 Y s 1610 1178 m 17 Y s 1642 1186 m 9 Y s 1674 1186 m 9 Y s 1705 1186 m 9 Y s 1737 1186 m 9 Y s 1769 1178 m 17 Y s 1801 1186 m 9 Y s 1832 1186 m 9 Y s 1864 1186 m 9 Y s 1896
 1186 m 9 Y s 1928 1178 m 17 Y s 340 199 m 996 Y s
 gsave  2268 1328 0 0 C 170.933 427.334 t 90 r /Helvetica findfont 62.6756 sf 0 0 m (Far Flux to Nominal) show NC gr  371 199 m -31 X s 355 221 m -15 X s 355 243 m -15 X s 355 266 m -15 X s 355 288 m -15 X s 371 310 m -31 X s 355 332 m -15 X s 355
 354 m -15 X s 355 376 m -15 X s 355 398 m -15 X s 371 420 m -31 X s 355 443 m -15 X s 355 465 m -15 X s 355 487 m -15 X s 355 509 m -15 X s 371 531 m -31 X s 355 553 m -15 X s 355 575 m -15 X s 355 597 m -15 X s 355 620 m -15 X s 371 642 m -31 X s
 355 664 m -15 X s 355 686 m -15 X s 355 708 m -15 X s 355 730 m -15 X s 371 752 m -31 X s 355 774 m -15 X s 355 797 m -15 X s 355 819 m -15 X s 355 841 m -15 X s 371 863 m -31 X s 355 885 m -15 X s 355 907 m -15 X s 355 929 m -15 X s 355 951 m -15 X
 s 371 974 m -31 X s 355 996 m -15 X s 355 1018 m -15 X s 355 1040 m -15 X s 355 1062 m -15 X s 371 1084 m -31 X s 355 1106 m -15 X s 355 1128 m -15 X s 355 1151 m -15 X s 355 1173 m -15 X s 371 1195 m -31 X s 371 199 m -31 X s 371 1195 m -31 X s
 gsave  2268 1328 0 0 C 196.573 173.782 t 0 r /Helvetica findfont 68.3734 sf 0 0 m (0.95) show NC gr 
 gsave  2268 1328 0 0 C 301.982 282.04 t 0 r /Helvetica findfont 68.3734 sf 0 0 m (1) show NC gr 
 gsave  2268 1328 0 0 C 196.573 395.996 t 0 r /Helvetica findfont 68.3734 sf 0 0 m (1.05) show NC gr 
 gsave  2268 1328 0 0 C 245.005 504.254 t 0 r /Helvetica findfont 68.3734 sf 0 0 m (1.1) show NC gr 
 gsave  2268 1328 0 0 C 196.573 618.209 t 0 r /Helvetica findfont 68.3734 sf 0 0 m (1.15) show NC gr 
 gsave  2268 1328 0 0 C 233.609 726.467 t 0 r /Helvetica findfont 68.3734 sf 0 0 m (1.2) show NC gr 
 gsave  2268 1328 0 0 C 196.573 837.574 t 0 r /Helvetica findfont 68.3734 sf 0 0 m (1.25) show NC gr 
 gsave  2268 1328 0 0 C 233.609 948.68 t 0 r /Helvetica findfont 68.3734 sf 0 0 m (1.3) show NC gr 
 gsave  2268 1328 0 0 C 196.573 1059.79 t 0 r /Helvetica findfont 68.3734 sf 0 0 m (1.35) show NC gr 
 gsave  2268 1328 0 0 C 233.609 1168.04 t 0 r /Helvetica findfont 68.3734 sf 0 0 m (1.4) show NC gr  1928 199 m 996 Y s 1897 199 m 31 X s 1912 221 m 16 X s 1912 243 m 16 X s 1912 266 m 16 X s 1912 288 m 16 X s 1897 310 m 31 X s 1912 332 m 16 X s 1912
 354 m 16 X s 1912 376 m 16 X s 1912 398 m 16 X s 1897 420 m 31 X s 1912 443 m 16 X s 1912 465 m 16 X s 1912 487 m 16 X s 1912 509 m 16 X s 1897 531 m 31 X s 1912 553 m 16 X s 1912 575 m 16 X s 1912 597 m 16 X s 1912 620 m 16 X s 1897 642 m 31 X s
 1912 664 m 16 X s 1912 686 m 16 X s 1912 708 m 16 X s 1912 730 m 16 X s 1897 752 m 31 X s 1912 774 m 16 X s 1912 797 m 16 X s 1912 819 m 16 X s 1912 841 m 16 X s 1897 863 m 31 X s 1912 885 m 16 X s 1912 907 m 16 X s 1912 929 m 16 X s 1912 951 m 16 X
 s 1897 974 m 31 X s 1912 996 m 16 X s 1912 1018 m 16 X s 1912 1040 m 16 X s 1912 1062 m 16 X s 1897 1084 m 31 X s 1912 1106 m 16 X s 1912 1128 m 16 X s 1912 1151 m 16 X s 1912 1173 m 16 X s 1897 1195 m 31 X s 1897 199 m 31 X s 1897 1195 m 31 X s 1 0
 0 c 6 lw 1 1 1 c 1 0 0 c 380 308 m 381 X 16 -1 d 10 X 69 -2 d 18 -1 d 119 X 18 1 d 27 X 18 1 d 9 1 d 36 X 5 -1 d 4 X 5 -1 d 5 X 16 -2 d 7 -1 d 4 -1 d 4 X 4 -1 d 33 X 4 1 d 4 X 4 1 d 6 1 d 7 1 d 11 2 d 7 1 d 4 X 5 1 d 4 X 3 1 d 11 X 6 1 d 81 X 10 -1
 d 60 X 3 1 d 4 X 4 1 d 3 X 5 1 d 4 1 d 7 1 d 10 2 d 5 1 d 5 1 d 3 1 d 4 X 3 1 d 10 X 2 1 d 10 X 4 -1 d 7 X 3 -1 d 4 X 5 -1 d 5 X 7 -2 d 11 -2 d 6 -1 d 5 X 4 -1 d 4 X 3 -1 d 11 X 6 -1 d 61 X 7 1 d 9 X 5 1 d 5 X 6 1 d 11 1 d 10 1 d 6 1 d 10 X 4 1 d 30
 X 63 -6 d 70 X 9 1 d s 3 lw /w 2 def /w2 {w 2 div} def /w3 {w 3 div} def 380 308 459 308 539 308 618 308 697 308 777 307 856 305 935 304 1015 305 1094 307 1174 300 1253 309 1332 310 1412 309 1491 321 1570 311 1650 311 1729 317 1809 311 1888 312 20 {
 m20} R 6 lw black 1 0 0 c
 gsave  2268 1328 0 0 C 2036.96 364.658 t 0 r /Helvetica-Bold findfont 48.4311 sf 0 0 m (/dof=1.0) show NC gr  black 1 0 0 c
 gsave  2268 1328 0 0 C 2017.01 381.751 t 0 r /Helvetica-Bold findfont 34.1867 sf 0 0 m (2) show NC gr  black 1 0 0 c
 gsave  2268 1328 0 0 C 1991.37 364.658 t 0 r /Symbol findfont 48.4311 sf 0 0 m (c) show NC gr  black 3 lw 340 310 m 1588 X s
 gsave  2268 1328 0 0 C 424.485 1213.63 t 0 r /Helvetica-Bold findfont 42.7334 sf 0 0 m (0.5 mm) show NC gr  1 0 0 c /w 23 def /w2 {w 2 div} def /w3 {w 3 div} def 383 1228 m21 black 1 1 1 c 0 0 1 c 380 533 m21 459 534 m21 539 536 m21 618 523 m21 697
 533 m21 777 525 m21 856 523 m21 935 529 m21 1015 539 m21 black 1094 536 m 1 Y s 1094 560 m 1 Y s 1088 536 m 12 X s 1088 561 m 12 X s 0 0 1 c 1094 548 m21 black 1174 500 m 5 Y s 1174 528 m 5 Y s 1168 500 m 11 X s 1168 533 m 11 X s 0 0 1 c 1174 516
 m21 black 1253 494 m 9 Y s 1253 526 m 9 Y s 1247 494 m 12 X s 1247 535 m 12 X s 0 0 1 c 1253 514 m21 black 1332 510 m 13 Y s 1332 546 m 14 Y s 1327 510 m 11 X s 1327 560 m 11 X s 0 0 1 c 1332 535 m21 black 1412 494 m 18 Y s 1412 535 m 17 Y s 1406
 494 m 11 X s 1406 552 m 11 X s 0 0 1 c 1412 523 m21 black 1491 542 m 22 Y s 1491 586 m 23 Y s 1485 542 m 12 X s 1485 609 m 12 X s 0 0 1 c 1491 575 m21 black 1570 476 m 25 Y s 1570 524 m 24 Y s 1565 476 m 11 X s 1565 548 m 11 X s 0 0 1 c 1570 512 m21
 black 1650 506 m 28 Y s 1650 556 m 29 Y s 1644 506 m 11 X s 1644 585 m 11 X s 0 0 1 c 1650 545 m21 black 1729 461 m 31 Y s 1729 514 m 31 Y s 1723 461 m 12 X s 1723 545 m 12 X s 0 0 1 c 1729 503 m21 black 1809 504 m 35 Y s 1809 562 m 34 Y s 1803 504
 m 11 X s 1803 596 m 11 X s 0 0 1 c 1809 550 m21 black 1888 506 m 38 Y s 1888 566 m 38 Y s 1882 506 m 12 X s 1882 604 m 12 X s 0 0 1 c 1888 555 m21 6 lw 1 1 1 c 0 0 1 c 380 524 m 18 1 d 55 X 6 -1 d 25 X 37 -2 d 57 X 40 1 d 12 1 d 21 X 15 1 d 44 X 10
 -1 d 13 X 12 -1 d 12 -1 d 13 -1 d 7 -1 d 7 -1 d 9 -1 d 11 -2 d 32 -5 d 8 -1 d 7 -1 d 5 X 12 -2 d 10 X 14 -1 d 11 -1 d 11 X 10 -1 d 32 X 9 1 d 12 X 13 1 d 13 1 d 12 1 d 5 1 d 7 1 d 7 1 d 11 2 d 15 2 d 7 2 d 6 X 6 1 d 5 X 5 1 d 10 X 4 -1 d 5 X 5 -1 d
 5 -1 d 9 -1 d 16 -4 d 6 -1 d 6 X 4 -1 d 19 X 4 1 d 4 X 5 1 d 4 1 d 5 2 d 7 2 d 11 3 d 9 3 d 6 2 d 5 1 d 5 2 d 4 X 4 1 d 2 X 6 1 d 7 1 d 7 X 8 1 d 70 X 19 -2 d 9 -1 d 31 X 2 1 d 3 X 3 1 d 4 1 d 4 1 d 4 1 d 4 2 d 5 2 d 6 3 d 11 5 d 5 2 d 4 2 d 4 2 d 3
 1 d 4 1 d 3 X 3 1 d 3 X 3 1 d 10 X 4 -1 d 4 X 3 -1 d 5 -1 d 4 -1 d 5 -1 d 7 -3 d 17 -5 d 5 -2 d 5 -1 d 4 -1 d 4 -1 d 3 -1 d 2 X 7 -1 d 7 X 8 -1 d 41 X 10 1 d 7 X 5 1 d 5 X 5 1 d 7 1 d 8 2 d 16 3 d 7 1 d 6 1 d 5 1 d 5 1 d 24 X 5 -1 d 6 -1 d 8 -1 d 26
 -5 d 6 -1 d 5 X 5 -1 d 48 X 9 1 d 9 X 8 1 d 8 1 d 2 X s 3 lw /w 2 def /w2 {w 2 div} def /w3 {w 3 div} def 380 524 459 524 539 522 618 523 697 525 777 520 856 509 935 504 1015 508 1094 519 1174 509 1253 528 1332 531 1412 529 1491 555 1570 536 1650
 535 1729 547 1809 537 1888 540 20 { m20} R 6 lw black 0 0 1 c
 gsave  2268 1328 0 0 C 2036.96 615.36 t 0 r /Helvetica-Bold findfont 48.4311 sf 0 0 m (/dof=2.5) show NC gr  black 0 0 1 c
 gsave  2268 1328 0 0 C 2017.01 632.454 t 0 r /Helvetica-Bold findfont 34.1867 sf 0 0 m (2) show NC gr  black 0 0 1 c
 gsave  2268 1328 0 0 C 1991.37 615.36 t 0 r /Symbol findfont 48.4311 sf 0 0 m (c) show NC gr  black 3 lw 340 531 m 1588 X s
 gsave  2268 1328 0 0 C 877.458 1213.63 t 0 r /Helvetica-Bold findfont 39.8845 sf 0 0 m (1 mm) show NC gr  0 0 1 c /w 23 def /w2 {w 2 div} def /w3 {w 3 div} def 836 1228 m21 black 1 1 1 c 1 0 1 c 380 728 m21 459 737 m21 539 716 m21 618 722 m21 697
 738 m21 777 720 m21 856 677 m21 935 687 m21 1015 676 m21 black 1094 718 m 2 Y s 1094 743 m 2 Y s 1088 718 m 12 X s 1088 745 m 12 X s 1 0 1 c 1094 731 m21 black 1174 685 m 6 Y s 1174 714 m 6 Y s 1168 685 m 11 X s 1168 720 m 11 X s 1 0 1 c 1174 702
 m21 black 1253 729 m 11 Y s 1253 763 m 10 Y s 1247 729 m 12 X s 1247 773 m 12 X s 1 0 1 c 1253 751 m21 black 1332 702 m 16 Y s 1332 741 m 15 Y s 1327 702 m 11 X s 1327 756 m 11 X s 1 0 1 c 1332 729 m21 black 1412 735 m 21 Y s 1412 779 m 20 Y s 1406
 735 m 11 X s 1406 799 m 11 X s 1 0 1 c 1412 767 m21 black 1491 742 m 25 Y s 1491 790 m 25 Y s 1485 742 m 12 X s 1485 815 m 12 X s 1 0 1 c 1491 778 m21 black 1570 697 m 28 Y s 1570 747 m 28 Y s 1565 697 m 11 X s 1565 775 m 11 X s 1 0 1 c 1570 736 m21
 black 1650 692 m 31 Y s 1650 746 m 32 Y s 1644 692 m 11 X s 1644 778 m 11 X s 1 0 1 c 1650 735 m21 black 1729 849 m 37 Y s 1729 908 m 37 Y s 1723 849 m 12 X s 1723 945 m 12 X s 1 0 1 c 1729 897 m21 black 1809 710 m 38 Y s 1809 771 m 38 Y s 1803 710
 m 11 X s 1803 809 m 11 X s 1 0 1 c 1809 760 m21 black 1888 711 m 42 Y s 1888 776 m 42 Y s 1882 711 m 12 X s 1882 818 m 12 X s 1 0 1 c 1888 765 m21 6 lw 1 1 1 c 1 0 1 c 380 723 m 16 1 d 15 X 17 1 d 15 -1 d 16 X 10 -1 d 12 -2 d 19 -4 d 16 -3 d 10 -2 d
 9 X 4 -1 d 10 X 11 1 d 12 1 d 46 5 d 12 2 d 21 3 d 14 2 d 11 2 d 21 X 10 -1 d 11 -2 d 9 -2 d 12 -3 d 10 -3 d 11 -4 d 11 -5 d 6 -2 d 6 -3 d 7 -4 d 8 -6 d 9 -6 d 25 -18 d 8 -5 d 6 -4 d 7 -3 d 3 -2 d 12 -5 d 10 -3 d 11 -4 d 9 -2 d 10 -2 d 9 -2 d 9 X 9
 -1 d 9 X 9 1 d 10 1 d 9 2 d 11 3 d 11 3 d 12 4 d 9 4 d 6 2 d 6 4 d 8 5 d 9 6 d 20 14 d 10 5 d 6 4 d 6 3 d 6 2 d 2 1 d 6 1 d 6 2 d 32 X 11 -1 d 8 X 6 1 d 6 1 d 5 1 d 6 2 d 7 2 d 8 4 d 9 5 d 25 14 d 8 4 d 7 3 d 7 2 d 2 1 d 12 4 d 10 2 d 14 3 d 11 2 d
 11 1 d 11 1 d 16 X 7 -1 d 7 -2 d 12 -3 d 14 -5 d 8 -2 d 6 -1 d 15 X 5 2 d 4 1 d 4 2 d 5 3 d 4 4 d 5 4 d 7 6 d 15 17 d 7 7 d 5 5 d 5 4 d 4 3 d 4 3 d 4 2 d 4 1 d 2 X 5 1 d 4 X 5 -1 d 4 -1 d 6 -2 d 40 -21 d 5 -2 d 5 -2 d 5 -1 d 13 -3 d 10 -1 d 11 -1 d
 12 -1 d 13 X 12 1 d 9 X 7 1 d 8 2 d 10 2 d 17 5 d 12 3 d 8 2 d 7 2 d 7 X 3 1 d 7 X 8 -1 d 9 -1 d 18 -3 d 15 -3 d 8 -1 d 7 -1 d 8 X 12 1 d 10 1 d 13 2 d 12 2 d 12 3 d 11 3 d 9 2 d s 3 lw /w 2 def /w2 {w 2 div} def /w3 {w 3 div} def 380 723 459 724
 539 711 618 718 697 727 777 705 856 654 935 635 1015 653 1094 699 1174 704 1253 741 1332 754 1412 742 1491 804 1570 775 1650 770 1729 788 1809 778 1888 792 20 { m20} R 6 lw black 1 0 1 c
 gsave  2268 1328 0 0 C 2036.96 863.214 t 0 r /Helvetica-Bold findfont 48.4311 sf 0 0 m (/dof=4.4) show NC gr  black 1 0 1 c
 gsave  2268 1328 0 0 C 2017.01 880.307 t 0 r /Helvetica-Bold findfont 34.1867 sf 0 0 m (2) show NC gr  black 1 0 1 c
 gsave  2268 1328 0 0 C 1991.37 863.214 t 0 r /Symbol findfont 48.4311 sf 0 0 m (c) show NC gr  black 3 lw 340 752 m 1588 X s
 gsave  2268 1328 0 0 C 1330.43 1213.63 t 0 r /Helvetica-Bold findfont 39.8845 sf 0 0 m (2 mm) show NC gr  1 0 1 c /w 23 def /w2 {w 2 div} def /w3 {w 3 div} def 1290 1228 m21 black 1 1 1 c 0 0.733333 1 c 380 897 m21 459 896 m21 539 870 m21 618 888
 m21 697 905 m21 777 851 m21 856 722 m21 935 663 m21 1015 718 m21 black 1094 811 m 3 Y s 1094 837 m 3 Y s 1088 811 m 12 X s 1088 840 m 12 X s 0 0.733333 1 c 1094 826 m21 black 1174 873 m 8 Y s 1174 903 m 8 Y s 1168 873 m 11 X s 1168 911 m 11 X s 0
 0.733333 1 c 1174 892 m21 black 1253 918 m 12 Y s 1253 953 m 13 Y s 1247 918 m 12 X s 1247 966 m 12 X s 0 0.733333 1 c 1253 942 m21 black 1332 960 m 18 Y s 1332 1001 m 18 Y s 1327 960 m 11 X s 1327 1019 m 11 X s 0 0.733333 1 c 1332 989 m21 black
 1412 903 m 22 Y s 1412 948 m 23 Y s 1406 903 m 11 X s 1406 971 m 11 X s 0 0.733333 1 c 1412 937 m21 black 1491 1032 m 29 Y s 1491 1083 m 29 Y s 1485 1032 m 12 X s 1485 1112 m 12 X s 0 0.733333 1 c 1491 1072 m21 black 1570 1006 m 32 Y s 1570 1061 m
 32 Y s 1565 1006 m 11 X s 1565 1093 m 11 X s 0 0.733333 1 c 1570 1050 m21 black 1650 986 m 36 Y s 1650 1045 m 36 Y s 1644 986 m 11 X s 1644 1081 m 11 X s 0 0.733333 1 c 1650 1034 m21 black 1729 926 m 39 Y s 1729 988 m 39 Y s 1723 926 m 12 X s 1723
 1027 m 12 X s 0 0.733333 1 c 1729 976 m21 black 1809 989 m 44 Y s 1809 1056 m 43 Y s 1803 989 m 11 X s 1803 1099 m 11 X s 0 0.733333 1 c 1809 1044 m21 black 1888 1023 m 48 Y s 1888 1094 m 48 Y s 1882 1023 m 12 X s 1882 1142 m 12 X s 0 0.733333 1 c
 1888 1082 m21 6 lw 1 1 1 c 0 0.733333 1 c 380 901 m 15 3 d 15 2 d 31 X 15 -2 d 3 -1 d 9 -2 d 12 -4 d 19 -9 d 16 -8 d 9 -3 d 8 -2 d 7 -1 d 9 X 12 1 d 11 2 d 19 5 d 25 7 d 3 1 d 10 3 d 18 7 d 16 7 d 11 3 d 9 2 d 14 X 1 -1 d 10 -2 d 11 -4 d 9 -5 d 10
 -6 d 10 -8 d 11 -9 d 10 -10 d 9 -9 d 6 -7 d 6 -9 d 8 -13 d 10 -16 d 26 -46 d 7 -12 d 6 -9 d 6 -8 d 4 -4 d 12 -12 d 10 -8 d 9 -7 d 10 -6 d 9 -5 d 10 -4 d 8 -2 d 9 -2 d 2 X 9 1 d 8 1 d 10 3 d 8 4 d 10 6 d 10 7 d 11 8 d 12 11 d 2 2 d 6 6 d 7 9 d 8 12 d
 9 13 d 23 37 d 8 13 d 7 10 d 7 8 d 4 5 d 8 7 d 10 8 d 62 36 d 27 18 d 27 18 d 15 10 d 10 5 d 34 19 d 14 6 d 11 4 d 8 2 d 9 1 d 3 X 6 -1 d 6 -1 d 8 -4 d 10 -7 d 19 -13 d 7 -4 d 6 -2 d 6 -1 d 5 X 5 1 d 2 1 d 4 3 d 5 4 d 5 6 d 5 7 d 6 10 d 9 15 d 15 29
 d 7 11 d 5 9 d 6 7 d 4 5 d 5 3 d 3 2 d 5 2 d 6 1 d 68 -33 d 22 -5 d 19 -3 d 16 -2 d 16 -1 d 7 X 13 1 d 17 3 d 38 8 d 11 2 d 59 3 d 12 1 d 9 2 d 16 5 d 16 6 d 16 7 d 16 8 d 15 8 d s 3 lw /w 2 def /w2 {w 2 div} def /w3 {w 3 div} def 380 901 459 903
 539 874 618 890 697 911 777 858 856 734 935 688 1015 731 1094 844 1174 895 1253 946 1332 978 1412 947 1491 1058 1570 1028 1650 1017 1729 1031 1809 1037 1888 1071 20 { m20} R 6 lw black 0 0.733333 1 c
 gsave  2268 1328 0 0 C 2039.81 1113.92 t 0 r /Helvetica-Bold findfont 48.4311 sf 0 0 m (/dof=1.1) show NC gr  black 0 0.733333 1 c
 gsave  2268 1328 0 0 C 2019.86 1131.01 t 0 r /Helvetica-Bold findfont 34.1867 sf 0 0 m (2) show NC gr  black 0 0.733333 1 c
 gsave  2268 1328 0 0 C 1994.22 1113.92 t 0 r /Symbol findfont 48.4311 sf 0 0 m (c) show NC gr  black 3 lw 340 974 m 1588 X s
 gsave  2268 1328 0 0 C 1783.41 1213.63 t 0 r /Helvetica-Bold findfont 42.7334 sf 0 0 m (3 mm) show NC gr  0 0.733333 1 c /w 23 def /w2 {w 2 div} def /w3 {w 3 div} def 1743 1228 m21
 gr  gr showpage
end
%%EOF
