%!PS-Adobe-2.0 EPSF-2.0
%%BoundingBox:  0 0 567 332
%%Title: TargetXTilt_near_summary.eps: Summary
%%Creator: ROOT Version 5.30/06
%%CreationDate: Sun Feb  2 09:40:47 2014
%%EndComments
%%BeginProlog
80 dict begin
/s {stroke} def /l {lineto} def /m {moveto} def /t {translate} def
/r {rotate} def /rl {roll}  def /R {repeat} def
/d {rlineto} def /rm {rmoveto} def /gr {grestore} def /f {eofill} def
/c {setrgbcolor} def /black {0 setgray} def /sd {setdash} def
/cl {closepath} def /sf {scalefont setfont} def /lw {setlinewidth} def
/box {m dup 0 exch d exch 0 d 0 exch neg d cl} def
/NC{systemdict begin initclip end}def/C{NC box clip newpath}def
/bl {box s} def /bf {box f} def /Y { 0 exch d} def /X { 0 d} def 
/K {{pop pop 0 moveto} exch kshow} bind def
/ita {/ang 15 def gsave [1 0 ang dup sin exch cos div 1 0 0] concat} def 
/mp {newpath /y exch def /x exch def} def
/side {[w .77 mul w .23 mul] .385 w mul sd w 0 l currentpoint t -144 r} def
/mr {mp x y w2 0 360 arc} def /m24 {mr s} def /m20 {mr f} def
/mb {mp x y w2 add m w2 neg 0 d 0 w neg d w 0 d 0 w d cl} def
/mt {mp x y w2 add m w2 neg w neg d w 0 d cl} def
/m21 {mb f} def /m25 {mb s} def /m22 {mt f} def /m26{mt s} def
/m23 {mp x y w2 sub m w2 w d w neg 0 d cl f} def
/m27 {mp x y w2 add m w3 neg w2 neg d w3 w2 neg d w3 w2 d cl s} def
/m28 {mp x w2 sub y w2 sub w3 add m w3 0 d  0 w3 neg d w3 0 d 0 w3 d w3 0 d  0 w3 d w3 neg 0 d 0 w3 d w3 neg 0 d 0 w3 neg d w3 neg 0 d cl s } def
/m29 {mp gsave x w2 sub y w2 add w3 sub m currentpoint t 4 {side} repeat cl fill gr} def
/m30 {mp gsave x w2 sub y w2 add w3 sub m currentpoint t 4 {side} repeat cl s gr} def
/m31 {mp x y w2 sub m 0 w d x w2 sub y m w 0 d x w2 sub y w2 add m w w neg d x w2 sub y w2 sub m w w d s} def
/m32 {mp x y w2 sub m w2 w d w neg 0 d cl s} def
/m33 {mp x y w2 add m w3 neg w2 neg d w3 w2 neg d w3 w2 d cl f} def
/m34 {mp x w2 sub y w2 sub w3 add m w3 0 d  0 w3 neg d w3 0 d 0 w3 d w3 0 d  0 w3 d w3 neg 0 d 0 w3 d w3 neg 0 d 0 w3 neg d w3 neg 0 d cl f } def
/m2 {mp x y w2 sub m 0 w d x w2 sub y m w 0 d s} def
/m5 {mp x w2 sub y w2 sub m w w d x w2 sub y w2 add m w w neg d s} def
/reEncode {exch findfont dup length dict begin {1 index /FID eq  {pop pop} {def} ifelse } forall /Encoding exch def currentdict end dup /FontName get exch definefont pop } def [/Times-Bold /Times-Italic /Times-BoldItalic /Helvetica /Helvetica-Oblique
 /Helvetica-Bold /Helvetica-BoldOblique /Courier /Courier-Oblique /Courier-Bold /Courier-BoldOblique /Times-Roman /AvantGarde-Book /AvantGarde-BookOblique /AvantGarde-Demi /AvantGarde-DemiOblique /Bookman-Demi /Bookman-DemiItalic /Bookman-Light
 /Bookman-LightItalic /Helvetica-Narrow /Helvetica-Narrow-Bold /Helvetica-Narrow-BoldOblique /Helvetica-Narrow-Oblique /NewCenturySchlbk-Roman /NewCenturySchlbk-Bold /NewCenturySchlbk-BoldItalic /NewCenturySchlbk-Italic /Palatino-Bold
 /Palatino-BoldItalic /Palatino-Italic /Palatino-Roman ] {ISOLatin1Encoding reEncode } forall%%EndProlog
%%BeginSetup
%%EndSetup
newpath  gsave  .25 .25 scale  gsave  0 0 t black[  ] 0 sd 3 lw 1 1 1 c 2268 1328 0 0 bf black 1 1 1 c black 1588 996 340 199 bl 1588 996 340 199 bl 1 1 1 c 1 0 0 c /w 23 def /w2 {w 2 div} def /w3 {w 3 div} def 380 313 m21 459 310 m21 539 311 m21 618
 319 m21 697 306 m21 777 295 m21 856 304 m21 935 315 m21 black 1015 271 m s 1015 294 m s 1009 271 m 12 X s 1009 294 m 12 X s 1 0 0 c 1015 282 m21 black 1094 287 m 5 Y s 1094 314 m 5 Y s 1088 287 m 12 X s 1088 319 m 12 X s 1 0 0 c 1094 303 m21 black
 1174 310 m 11 Y s 1174 344 m 10 Y s 1168 310 m 11 X s 1168 354 m 11 X s 1 0 0 c 1174 332 m21 black 1253 266 m 16 Y s 1253 304 m 16 Y s 1247 266 m 12 X s 1247 320 m 12 X s 1 0 0 c 1253 293 m21 black 1332 253 m 21 Y s 1332 296 m 21 Y s 1327 253 m 11 X
 s 1327 317 m 11 X s 1 0 0 c 1332 285 m21 black 1412 295 m 25 Y s 1412 343 m 25 Y s 1406 295 m 11 X s 1406 368 m 11 X s 1 0 0 c 1412 332 m21 black 1491 236 m 28 Y s 1491 287 m 27 Y s 1485 236 m 12 X s 1485 314 m 12 X s 1 0 0 c 1491 275 m21 black 1570
 270 m 31 Y s 1570 324 m 31 Y s 1565 270 m 11 X s 1565 355 m 11 X s 1 0 0 c 1570 313 m21 black 1650 296 m 35 Y s 1650 353 m 35 Y s 1644 296 m 11 X s 1644 388 m 11 X s 1 0 0 c 1650 342 m21 black 1729 317 m 38 Y s 1729 378 m 38 Y s 1723 317 m 12 X s
 1723 416 m 12 X s 1 0 0 c 1729 367 m21 black 1809 340 m 42 Y s 1809 405 m 42 Y s 1803 340 m 11 X s 1803 447 m 11 X s 1 0 0 c 1809 393 m21 black 1888 216 m 42 Y s 1888 280 m 42 Y s 1882 216 m 12 X s 1882 322 m 12 X s 1 0 0 c 1888 269 m21 black 340
 199 m 1588 X s
 gsave  2268 1328 0 0 C 954.378 68.3734 t 0 r /Helvetica findfont 62.6756 sf 0 0 m ( Energy \(GeV\) ) show NC gr 
 gsave  2268 1328 0 0 C 928.738 51.28 t 0 r /Symbol findfont 42.7334 sf 0 0 m (m) show NC gr 
 gsave  2268 1328 0 0 C 894.552 68.3734 t 0 r /Symbol findfont 62.6756 sf 0 0 m (n) show NC gr  340 216 m -17 Y s 372 208 m -9 Y s 404 208 m -9 Y s 435 208 m -9 Y s 467 208 m -9 Y s 499 216 m -17 Y s 531 208 m -9 Y s 562 208 m -9 Y s 594 208 m -9 Y s
 626 208 m -9 Y s 658 216 m -17 Y s 689 208 m -9 Y s 721 208 m -9 Y s 753 208 m -9 Y s 785 208 m -9 Y s 816 216 m -17 Y s 848 208 m -9 Y s 880 208 m -9 Y s 912 208 m -9 Y s 943 208 m -9 Y s 975 216 m -17 Y s 1007 208 m -9 Y s 1039 208 m -9 Y s 1070
 208 m -9 Y s 1102 208 m -9 Y s 1134 216 m -17 Y s 1166 208 m -9 Y s 1197 208 m -9 Y s 1229 208 m -9 Y s 1261 208 m -9 Y s 1293 216 m -17 Y s 1324 208 m -9 Y s 1356 208 m -9 Y s 1388 208 m -9 Y s 1420 208 m -9 Y s 1451 216 m -17 Y s 1483 208 m -9 Y s
 1515 208 m -9 Y s 1547 208 m -9 Y s 1578 208 m -9 Y s 1610 216 m -17 Y s 1642 208 m -9 Y s 1674 208 m -9 Y s 1705 208 m -9 Y s 1737 208 m -9 Y s 1769 216 m -17 Y s 1801 208 m -9 Y s 1832 208 m -9 Y s 1864 208 m -9 Y s 1896 208 m -9 Y s 1928 216 m
 -17 Y s
 gsave  2268 1328 0 0 C 319.076 136.747 t 0 r /Helvetica findfont 68.3734 sf 0 0 m (0) show NC gr 
 gsave  2268 1328 0 0 C 484.311 136.747 t 0 r /Helvetica findfont 68.3734 sf 0 0 m (1) show NC gr 
 gsave  2268 1328 0 0 C 635.302 136.747 t 0 r /Helvetica findfont 68.3734 sf 0 0 m (2) show NC gr 
 gsave  2268 1328 0 0 C 794.84 136.747 t 0 r /Helvetica findfont 68.3734 sf 0 0 m (3) show NC gr 
 gsave  2268 1328 0 0 C 954.378 136.747 t 0 r /Helvetica findfont 68.3734 sf 0 0 m (4) show NC gr 
 gsave  2268 1328 0 0 C 1113.92 136.747 t 0 r /Helvetica findfont 68.3734 sf 0 0 m (5) show NC gr 
 gsave  2268 1328 0 0 C 1270.6 136.747 t 0 r /Helvetica findfont 68.3734 sf 0 0 m (6) show NC gr 
 gsave  2268 1328 0 0 C 1430.14 136.747 t 0 r /Helvetica findfont 68.3734 sf 0 0 m (7) show NC gr 
 gsave  2268 1328 0 0 C 1589.68 136.747 t 0 r /Helvetica findfont 68.3734 sf 0 0 m (8) show NC gr 
 gsave  2268 1328 0 0 C 1746.37 136.747 t 0 r /Helvetica findfont 68.3734 sf 0 0 m (9) show NC gr 
 gsave  2268 1328 0 0 C 1888.81 136.747 t 0 r /Helvetica findfont 68.3734 sf 0 0 m (10) show NC gr  340 1195 m 1588 X s 340 1178 m 17 Y s 372 1186 m 9 Y s 404 1186 m 9 Y s 435 1186 m 9 Y s 467 1186 m 9 Y s 499 1178 m 17 Y s 531 1186 m 9 Y s 562 1186
 m 9 Y s 594 1186 m 9 Y s 626 1186 m 9 Y s 658 1178 m 17 Y s 689 1186 m 9 Y s 721 1186 m 9 Y s 753 1186 m 9 Y s 785 1186 m 9 Y s 816 1178 m 17 Y s 848 1186 m 9 Y s 880 1186 m 9 Y s 912 1186 m 9 Y s 943 1186 m 9 Y s 975 1178 m 17 Y s 1007 1186 m 9 Y s
 1039 1186 m 9 Y s 1070 1186 m 9 Y s 1102 1186 m 9 Y s 1134 1178 m 17 Y s 1166 1186 m 9 Y s 1197 1186 m 9 Y s 1229 1186 m 9 Y s 1261 1186 m 9 Y s 1293 1178 m 17 Y s 1324 1186 m 9 Y s 1356 1186 m 9 Y s 1388 1186 m 9 Y s 1420 1186 m 9 Y s 1451 1178 m
 17 Y s 1483 1186 m 9 Y s 1515 1186 m 9 Y s 1547 1186 m 9 Y s 1578 1186 m 9 Y s 1610 1178 m 17 Y s 1642 1186 m 9 Y s 1674 1186 m 9 Y s 1705 1186 m 9 Y s 1737 1186 m 9 Y s 1769 1178 m 17 Y s 1801 1186 m 9 Y s 1832 1186 m 9 Y s 1864 1186 m 9 Y s 1896
 1186 m 9 Y s 1928 1178 m 17 Y s 340 199 m 996 Y s
 gsave  2268 1328 0 0 C 170.933 324.773 t 90 r /Helvetica findfont 62.6756 sf 0 0 m (Near Flux Ratio to Nominal) show NC gr  371 199 m -31 X s 355 221 m -15 X s 355 243 m -15 X s 355 266 m -15 X s 355 288 m -15 X s 371 310 m -31 X s 355 332 m -15 X s
 355 354 m -15 X s 355 376 m -15 X s 355 398 m -15 X s 371 420 m -31 X s 355 443 m -15 X s 355 465 m -15 X s 355 487 m -15 X s 355 509 m -15 X s 371 531 m -31 X s 355 553 m -15 X s 355 575 m -15 X s 355 597 m -15 X s 355 620 m -15 X s 371 642 m -31 X
 s 355 664 m -15 X s 355 686 m -15 X s 355 708 m -15 X s 355 730 m -15 X s 371 752 m -31 X s 355 774 m -15 X s 355 797 m -15 X s 355 819 m -15 X s 355 841 m -15 X s 371 863 m -31 X s 355 885 m -15 X s 355 907 m -15 X s 355 929 m -15 X s 355 951 m -15
 X s 371 974 m -31 X s 355 996 m -15 X s 355 1018 m -15 X s 355 1040 m -15 X s 355 1062 m -15 X s 371 1084 m -31 X s 355 1106 m -15 X s 355 1128 m -15 X s 355 1151 m -15 X s 355 1173 m -15 X s 371 1195 m -31 X s 371 199 m -31 X s 371 1195 m -31 X s
 gsave  2268 1328 0 0 C 196.573 173.782 t 0 r /Helvetica findfont 68.3734 sf 0 0 m (0.95) show NC gr 
 gsave  2268 1328 0 0 C 301.982 282.04 t 0 r /Helvetica findfont 68.3734 sf 0 0 m (1) show NC gr 
 gsave  2268 1328 0 0 C 196.573 395.996 t 0 r /Helvetica findfont 68.3734 sf 0 0 m (1.05) show NC gr 
 gsave  2268 1328 0 0 C 245.005 504.254 t 0 r /Helvetica findfont 68.3734 sf 0 0 m (1.1) show NC gr 
 gsave  2268 1328 0 0 C 196.573 618.209 t 0 r /Helvetica findfont 68.3734 sf 0 0 m (1.15) show NC gr 
 gsave  2268 1328 0 0 C 233.609 726.467 t 0 r /Helvetica findfont 68.3734 sf 0 0 m (1.2) show NC gr 
 gsave  2268 1328 0 0 C 196.573 837.574 t 0 r /Helvetica findfont 68.3734 sf 0 0 m (1.25) show NC gr 
 gsave  2268 1328 0 0 C 233.609 948.68 t 0 r /Helvetica findfont 68.3734 sf 0 0 m (1.3) show NC gr 
 gsave  2268 1328 0 0 C 196.573 1059.79 t 0 r /Helvetica findfont 68.3734 sf 0 0 m (1.35) show NC gr 
 gsave  2268 1328 0 0 C 233.609 1168.04 t 0 r /Helvetica findfont 68.3734 sf 0 0 m (1.4) show NC gr  1928 199 m 996 Y s 1897 199 m 31 X s 1912 221 m 16 X s 1912 243 m 16 X s 1912 266 m 16 X s 1912 288 m 16 X s 1897 310 m 31 X s 1912 332 m 16 X s 1912
 354 m 16 X s 1912 376 m 16 X s 1912 398 m 16 X s 1897 420 m 31 X s 1912 443 m 16 X s 1912 465 m 16 X s 1912 487 m 16 X s 1912 509 m 16 X s 1897 531 m 31 X s 1912 553 m 16 X s 1912 575 m 16 X s 1912 597 m 16 X s 1912 620 m 16 X s 1897 642 m 31 X s
 1912 664 m 16 X s 1912 686 m 16 X s 1912 708 m 16 X s 1912 730 m 16 X s 1897 752 m 31 X s 1912 774 m 16 X s 1912 797 m 16 X s 1912 819 m 16 X s 1912 841 m 16 X s 1897 863 m 31 X s 1912 885 m 16 X s 1912 907 m 16 X s 1912 929 m 16 X s 1912 951 m 16 X
 s 1897 974 m 31 X s 1912 996 m 16 X s 1912 1018 m 16 X s 1912 1040 m 16 X s 1912 1062 m 16 X s 1897 1084 m 31 X s 1912 1106 m 16 X s 1912 1128 m 16 X s 1912 1151 m 16 X s 1912 1173 m 16 X s 1897 1195 m 31 X s 1897 199 m 31 X s 1897 1195 m 31 X s 1 0
 0 c 6 lw 1 1 1 c 1 0 0 c 380 309 m 67 X 12 -1 d 198 X 11 1 d 10 X 7 -1 d 19 X 73 -2 d 24 -1 d 17 -1 d 21 X 8 -1 d 61 X 27 1 d 49 X 12 1 d 37 X 14 1 d 25 1 d 12 X 9 1 d 34 X 16 1 d 31 X 11 1 d 105 X 29 1 d 101 X 5 1 d 4 X 6 1 d 6 X 15 2 d 10 X 5 1 d
 12 X 3 1 d 9 X 75 -4 d 23 X 12 -1 d 50 X 6 -1 d 8 X 11 -1 d 15 X 7 -1 d 59 X 12 1 d 11 1 d 25 X 8 1 d 35 X 9 -1 d 27 X s 3 lw /w 2 def /w2 {w 2 div} def /w3 {w 3 div} def 380 309 459 308 539 308 618 308 697 308 777 306 856 303 935 304 1015 305 1094
 308 1174 309 1253 310 1332 311 1412 311 1491 317 1570 313 1650 312 1729 309 1809 311 1888 311 20 { m20} R 6 lw black 1 0 0 c
 gsave  2268 1328 0 0 C 2036.96 364.658 t 0 r /Helvetica-Bold findfont 48.4311 sf 0 0 m (/dof=1.2) show NC gr  black 1 0 0 c
 gsave  2268 1328 0 0 C 2017.01 381.751 t 0 r /Helvetica-Bold findfont 34.1867 sf 0 0 m (2) show NC gr  black 1 0 0 c
 gsave  2268 1328 0 0 C 1991.37 364.658 t 0 r /Symbol findfont 48.4311 sf 0 0 m (c) show NC gr  black 3 lw 340 310 m 1588 X s
 gsave  2268 1328 0 0 C 424.485 1213.63 t 0 r /Helvetica-Bold findfont 42.7334 sf 0 0 m (0.5 mm) show NC gr  1 0 0 c /w 23 def /w2 {w 2 div} def /w3 {w 3 div} def 383 1228 m21 black 1 1 1 c 0 0 1 c 380 534 m21 459 540 m21 539 533 m21 618 523 m21 697
 536 m21 777 518 m21 856 526 m21 935 543 m21 black 1015 522 m 2 Y s 1015 547 m 2 Y s 1009 522 m 12 X s 1009 549 m 12 X s 0 0 1 c 1015 536 m21 black 1094 482 m 6 Y s 1094 511 m 7 Y s 1088 482 m 12 X s 1088 518 m 12 X s 0 0 1 c 1094 500 m21 black 1174
 533 m 12 Y s 1174 568 m 13 Y s 1168 533 m 11 X s 1168 581 m 11 X s 0 0 1 c 1174 557 m21 black 1253 477 m 19 Y s 1253 518 m 19 Y s 1247 477 m 12 X s 1247 537 m 12 X s 0 0 1 c 1253 507 m21 black 1332 471 m 24 Y s 1332 518 m 24 Y s 1327 471 m 11 X s
 1327 542 m 11 X s 0 0 1 c 1332 507 m21 black 1412 425 m 28 Y s 1412 475 m 28 Y s 1406 425 m 11 X s 1406 503 m 11 X s 0 0 1 c 1412 464 m21 black 1491 559 m 33 Y s 1491 615 m 33 Y s 1485 559 m 12 X s 1485 648 m 12 X s 0 0 1 c 1491 603 m21 black 1570
 492 m 36 Y s 1570 551 m 35 Y s 1565 492 m 11 X s 1565 586 m 11 X s 0 0 1 c 1570 539 m21 black 1650 473 m 39 Y s 1650 535 m 39 Y s 1644 473 m 11 X s 1644 574 m 11 X s 0 0 1 c 1650 524 m21 black 1729 453 m 42 Y s 1729 517 m 42 Y s 1723 453 m 12 X s
 1723 559 m 12 X s 0 0 1 c 1729 506 m21 black 1809 388 m 44 Y s 1809 454 m 44 Y s 1803 388 m 11 X s 1803 498 m 11 X s 0 0 1 c 1809 443 m21 black 1888 457 m 46 Y s 1888 526 m 47 Y s 1882 457 m 12 X s 1882 573 m 12 X s 0 0 1 c 1888 515 m21 6 lw 1 1 1 c
 0 0 1 c 380 527 m 29 X 29 -1 d 21 -1 d 13 X 46 -2 d 10 X 9 -1 d 11 X 10 1 d 12 X 32 1 d 16 X 12 1 d 26 X 10 1 d 8 X 8 -1 d 15 X 6 -1 d 6 X 7 -1 d 7 -1 d 54 -10 d 24 -3 d 14 -2 d 9 -1 d 9 -1 d 8 -1 d 6 -1 d 9 X 7 -1 d 25 X 10 1 d 13 X 24 1 d 17 1 d
 13 1 d 13 X 12 1 d 11 1 d 10 1 d 4 1 d 7 1 d 9 1 d 10 1 d 17 3 d 15 3 d 10 1 d 8 1 d 3 1 d 15 2 d 14 1 d 13 1 d 13 2 d 12 X 13 1 d 9 1 d 12 X 14 1 d 41 1 d 3 X 26 1 d 34 1 d 19 1 d 23 X 26 1 d 25 X 6 1 d 6 X 6 1 d 8 1 d 9 1 d 21 3 d 9 1 d 7 1 d 5 1
 d 15 X 8 1 d 18 X 10 -1 d 14 X 22 -1 d 18 -1 d 14 X 12 -1 d 11 -1 d 9 -1 d 9 X 7 -1 d 5 -1 d 5 -1 d 6 -1 d 7 -1 d 26 -6 d 5 -2 d 6 X 4 -1 d 5 -1 d 19 X 4 1 d 4 X 5 1 d 5 1 d 6 1 d 14 3 d 7 2 d 6 1 d 5 1 d 5 1 d 10 X 7 1 d 36 X 9 -1 d 7 X 8 -1 d 7 -1
 d 5 X s 3 lw /w 2 def /w2 {w 2 div} def /w3 {w 3 div} def 380 527 459 525 539 522 618 524 697 525 777 512 856 503 935 504 1015 510 1094 522 1174 529 1253 532 1332 535 1412 537 1491 546 1570 545 1650 540 1729 526 1809 538 1888 536 20 { m20} R 6 lw
 black 0 0 1 c
 gsave  2268 1328 0 0 C 2036.96 615.36 t 0 r /Helvetica-Bold findfont 48.4311 sf 0 0 m (/dof=2.9) show NC gr  black 0 0 1 c
 gsave  2268 1328 0 0 C 2017.01 632.454 t 0 r /Helvetica-Bold findfont 34.1867 sf 0 0 m (2) show NC gr  black 0 0 1 c
 gsave  2268 1328 0 0 C 1991.37 615.36 t 0 r /Symbol findfont 48.4311 sf 0 0 m (c) show NC gr  black 3 lw 340 531 m 1588 X s
 gsave  2268 1328 0 0 C 877.458 1213.63 t 0 r /Helvetica-Bold findfont 39.8845 sf 0 0 m (1 mm) show NC gr  0 0 1 c /w 23 def /w2 {w 2 div} def /w3 {w 3 div} def 836 1228 m21 black 1 1 1 c 1 0 1 c 380 739 m21 459 739 m21 539 717 m21 618 733 m21 697
 734 m21 777 687 m21 856 672 m21 935 682 m21 black 1015 661 m 2 Y s 1015 686 m 3 Y s 1009 661 m 12 X s 1009 689 m 12 X s 1 0 1 c 1015 675 m21 black 1094 711 m 8 Y s 1094 742 m 8 Y s 1088 711 m 12 X s 1088 750 m 12 X s 1 0 1 c 1094 730 m21 black 1174
 697 m 15 Y s 1174 734 m 15 Y s 1168 697 m 11 X s 1168 749 m 11 X s 1 0 1 c 1174 723 m21 black 1253 698 m 21 Y s 1253 741 m 22 Y s 1247 698 m 12 X s 1247 763 m 12 X s 1 0 1 c 1253 730 m21 black 1332 708 m 27 Y s 1332 758 m 27 Y s 1327 708 m 11 X s
 1327 785 m 11 X s 1 0 1 c 1332 746 m21 black 1412 780 m 33 Y s 1412 836 m 33 Y s 1406 780 m 11 X s 1406 869 m 11 X s 1 0 1 c 1412 824 m21 black 1491 723 m 36 Y s 1491 782 m 35 Y s 1485 723 m 12 X s 1485 817 m 12 X s 1 0 1 c 1491 770 m21 black 1570
 744 m 40 Y s 1570 807 m 41 Y s 1565 744 m 11 X s 1565 848 m 11 X s 1 0 1 c 1570 796 m21 black 1650 671 m 43 Y s 1650 737 m 43 Y s 1644 671 m 11 X s 1644 780 m 11 X s 1 0 1 c 1650 725 m21 black 1729 737 m 47 Y s 1729 807 m 47 Y s 1723 737 m 12 X s
 1723 854 m 12 X s 1 0 1 c 1729 795 m21 black 1809 703 m 50 Y s 1809 775 m 50 Y s 1803 703 m 11 X s 1803 825 m 11 X s 1 0 1 c 1809 764 m21 black 1888 718 m 54 Y s 1888 795 m 54 Y s 1882 718 m 12 X s 1882 849 m 12 X s 1 0 1 c 1888 783 m21 6 lw 1 1 1 c
 1 0 1 c 380 737 m 29 -3 d 29 -3 d 21 -3 d 13 -2 d 22 -5 d 19 -3 d 10 -2 d 9 -1 d 26 X 12 2 d 22 3 d 17 2 d 9 1 d 12 1 d 26 3 d 10 1 d 16 X 6 -1 d 6 -1 d 3 -1 d 6 -2 d 6 -3 d 6 -4 d 8 -4 d 54 -41 d 24 -15 d 13 -9 d 10 -5 d 9 -5 d 8 -3 d 6 -3 d 7 -2 d
 2 X 7 -1 d 8 -1 d 8 -1 d 9 1 d 10 1 d 12 2 d 25 4 d 16 4 d 14 3 d 13 4 d 12 4 d 10 4 d 11 4 d 4 2 d 7 4 d 8 5 d 11 7 d 16 12 d 16 11 d 10 7 d 8 5 d 3 2 d 15 7 d 14 7 d 13 6 d 13 5 d 12 4 d 13 4 d 9 2 d 12 2 d 14 2 d 41 5 d 3 X 26 5 d 34 6 d 19 3 d
 20 2 d 60 5 d 21 1 d 26 2 d 11 1 d 10 2 d 11 2 d 7 2 d 7 3 d 10 4 d 23 11 d 8 3 d 8 3 d 6 1 d 5 1 d 5 1 d 8 X 7 -1 d 8 -1 d 9 -2 d 8 -2 d 9 -4 d 11 -4 d 12 -6 d 8 -4 d 5 -3 d 5 -3 d 5 -5 d 7 -6 d 21 -22 d 7 -6 d 5 -5 d 6 -3 d 4 -3 d 5 -2 d 3 -1 d 4
 -1 d 6 X 4 1 d 4 2 d 4 2 d 5 3 d 5 3 d 6 6 d 8 7 d 12 12 d 6 6 d 5 4 d 5 4 d 4 2 d 4 2 d 4 1 d 7 1 d 7 1 d 7 1 d 8 X 8 -1 d 6 -1 d 9 -2 d 7 -2 d 7 -3 d 7 -3 d 6 -3 d s 3 lw /w 2 def /w2 {w 2 div} def /w3 {w 3 div} def 380 737 459 728 539 715 618 723
 697 725 777 671 856 629 935 634 1015 659 1094 712 1174 745 1253 756 1332 770 1412 777 1491 785 1570 814 1650 790 1729 730 1809 785 1888 773 20 { m20} R 6 lw black 1 0 1 c
 gsave  2268 1328 0 0 C 2036.96 863.214 t 0 r /Helvetica-Bold findfont 48.4311 sf 0 0 m (/dof=3.5) show NC gr  black 1 0 1 c
 gsave  2268 1328 0 0 C 2017.01 880.307 t 0 r /Helvetica-Bold findfont 34.1867 sf 0 0 m (2) show NC gr  black 1 0 1 c
 gsave  2268 1328 0 0 C 1991.37 863.214 t 0 r /Symbol findfont 48.4311 sf 0 0 m (c) show NC gr  black 3 lw 340 752 m 1588 X s
 gsave  2268 1328 0 0 C 1330.43 1213.63 t 0 r /Helvetica-Bold findfont 39.8845 sf 0 0 m (2 mm) show NC gr  1 0 1 c /w 23 def /w2 {w 2 div} def /w3 {w 3 div} def 1290 1228 m21 black 1 1 1 c 0 0.733333 1 c 380 933 m21 459 907 m21 539 880 m21 618 897
 m21 697 901 m21 777 768 m21 856 651 m21 935 661 m21 black 1015 723 m 3 Y s 1015 749 m 3 Y s 1009 723 m 12 X s 1009 752 m 12 X s 0 0.733333 1 c 1015 737 m21 black 1094 848 m 10 Y s 1094 880 m 10 Y s 1088 848 m 12 X s 1088 890 m 12 X s 0 0.733333 1 c
 1094 869 m21 black 1174 934 m 17 Y s 1174 973 m 17 Y s 1168 934 m 11 X s 1168 990 m 11 X s 0 0.733333 1 c 1174 962 m21 black 1253 965 m 24 Y s 1253 1012 m 25 Y s 1247 965 m 12 X s 1247 1037 m 12 X s 0 0.733333 1 c 1253 1001 m21 black 1332 990 m 31 Y
 s 1332 1044 m 31 Y s 1327 990 m 11 X s 1327 1075 m 11 X s 0 0.733333 1 c 1332 1032 m21 black 1412 973 m 36 Y s 1412 1032 m 36 Y s 1406 973 m 11 X s 1406 1068 m 11 X s 0 0.733333 1 c 1412 1021 m21 black 1491 973 m 41 Y s 1491 1037 m 41 Y s 1485 973 m
 12 X s 1485 1078 m 12 X s 0 0.733333 1 c 1491 1025 m21 black 1570 1075 m 47 Y s 1570 1145 m 47 Y s 1565 1075 m 11 X s 1565 1192 m 11 X s 0 0.733333 1 c 1570 1133 m21 black 1650 1040 m 50 Y s 1650 1113 m 50 Y s 1644 1040 m 11 X s 1644 1163 m 11 X s 0
 0.733333 1 c 1650 1102 m21 black 1729 830 m 49 Y s 1729 902 m 50 Y s 1723 830 m 12 X s 1723 952 m 12 X s 0 0.733333 1 c 1729 891 m21 black 1809 1006 m 57 Y s 1809 1086 m 58 Y s 1803 1006 m 11 X s 1803 1144 m 11 X s 0 0.733333 1 c 1809 1075 m21 black
 1888 951 m 60 Y s 1888 1034 m 59 Y s 1882 951 m 12 X s 1882 1093 m 12 X s 0 0.733333 1 c 1888 1022 m21 6 lw 1 1 1 c 0 0.733333 1 c 380 935 m 29 -7 d 29 -8 d 21 -6 d 13 -5 d 22 -11 d 19 -9 d 10 -4 d 9 -2 d 7 -1 d 9 X 10 2 d 12 3 d 22 8 d 17 5 d 9 2 d
 12 3 d 26 8 d 10 2 d 8 X 8 -1 d 6 -2 d 6 -3 d 3 -3 d 6 -5 d 6 -6 d 6 -9 d 8 -12 d 54 -99 d 24 -37 d 13 -20 d 10 -14 d 9 -11 d 8 -8 d 6 -6 d 7 -5 d 2 -1 d 7 -4 d 8 -1 d 8 -1 d 9 1 d 10 2 d 12 5 d 25 11 d 16 8 d 14 8 d 13 9 d 12 10 d 10 10 d 11 11 d 4
 5 d 7 9 d 8 12 d 11 17 d 16 30 d 16 27 d 10 16 d 8 12 d 3 5 d 15 18 d 14 16 d 13 15 d 13 12 d 12 10 d 13 10 d 9 5 d 12 6 d 14 4 d 41 12 d 3 1 d 26 10 d 34 15 d 19 7 d 26 8 d 19 4 d 17 4 d 18 2 d 8 -1 d 11 -2 d 33 -8 d 9 -1 d 6 1 d 7 1 d 5 3 d 5 3 d
 6 6 d 6 7 d 7 11 d 10 15 d 14 23 d 7 10 d 7 8 d 5 6 d 5 4 d 5 3 d 2 X 7 1 d 6 X 7 -2 d 8 -4 d 8 -5 d 8 -7 d 10 -9 d 13 -15 d 13 -16 d 5 -7 d 5 -9 d 5 -11 d 7 -16 d 21 -53 d 7 -14 d 5 -11 d 6 -10 d 4 -6 d 5 -5 d 3 -3 d 4 -1 d 2 -1 d 4 1 d 4 2 d 4 4 d
 4 5 d 5 7 d 5 9 d 6 13 d 8 19 d 12 29 d 6 13 d 5 11 d 5 8 d 4 6 d 4 4 d 4 3 d 7 4 d 7 2 d 7 1 d 8 X 8 -2 d 6 -2 d 9 -5 d 7 -6 d 7 -7 d 7 -8 d 6 -7 d s 3 lw /w 2 def /w2 {w 2 div} def /w3 {w 3 div} def 380 935 459 914 539 882 618 902 697 906 777 775
 856 673 935 686 1015 747 1094 875 1174 956 1253 984 1332 1016 1412 1034 1491 1027 1570 1123 1650 1066 1729 919 1809 1053 1888 1023 20 { m20} R 6 lw black 0 0.733333 1 c
 gsave  2268 1328 0 0 C 2036.96 1113.92 t 0 r /Helvetica-Bold findfont 48.4311 sf 0 0 m (/dof=0.9) show NC gr  black 0 0.733333 1 c
 gsave  2268 1328 0 0 C 2017.01 1131.01 t 0 r /Helvetica-Bold findfont 34.1867 sf 0 0 m (2) show NC gr  black 0 0.733333 1 c
 gsave  2268 1328 0 0 C 1991.37 1113.92 t 0 r /Symbol findfont 48.4311 sf 0 0 m (c) show NC gr  black 3 lw 340 974 m 1588 X s
 gsave  2268 1328 0 0 C 1783.41 1213.63 t 0 r /Helvetica-Bold findfont 42.7334 sf 0 0 m (3 mm) show NC gr  0 0.733333 1 c /w 23 def /w2 {w 2 div} def /w3 {w 3 div} def 1743 1228 m21
 gr  gr showpage
end
%%EOF
