%!PS-Adobe-2.0 EPSF-2.0
%%BoundingBox:  0 0 567 332
%%Title: TargetXOffset_near_fits.eps: Fits
%%Creator: ROOT Version 5.30/06
%%CreationDate: Sun Feb  2 09:40:34 2014
%%EndComments
%%BeginProlog
80 dict begin
/s {stroke} def /l {lineto} def /m {moveto} def /t {translate} def
/r {rotate} def /rl {roll}  def /R {repeat} def
/d {rlineto} def /rm {rmoveto} def /gr {grestore} def /f {eofill} def
/c {setrgbcolor} def /black {0 setgray} def /sd {setdash} def
/cl {closepath} def /sf {scalefont setfont} def /lw {setlinewidth} def
/box {m dup 0 exch d exch 0 d 0 exch neg d cl} def
/NC{systemdict begin initclip end}def/C{NC box clip newpath}def
/bl {box s} def /bf {box f} def /Y { 0 exch d} def /X { 0 d} def 
/K {{pop pop 0 moveto} exch kshow} bind def
/ita {/ang 15 def gsave [1 0 ang dup sin exch cos div 1 0 0] concat} def 
/mp {newpath /y exch def /x exch def} def
/side {[w .77 mul w .23 mul] .385 w mul sd w 0 l currentpoint t -144 r} def
/mr {mp x y w2 0 360 arc} def /m24 {mr s} def /m20 {mr f} def
/mb {mp x y w2 add m w2 neg 0 d 0 w neg d w 0 d 0 w d cl} def
/mt {mp x y w2 add m w2 neg w neg d w 0 d cl} def
/m21 {mb f} def /m25 {mb s} def /m22 {mt f} def /m26{mt s} def
/m23 {mp x y w2 sub m w2 w d w neg 0 d cl f} def
/m27 {mp x y w2 add m w3 neg w2 neg d w3 w2 neg d w3 w2 d cl s} def
/m28 {mp x w2 sub y w2 sub w3 add m w3 0 d  0 w3 neg d w3 0 d 0 w3 d w3 0 d  0 w3 d w3 neg 0 d 0 w3 d w3 neg 0 d 0 w3 neg d w3 neg 0 d cl s } def
/m29 {mp gsave x w2 sub y w2 add w3 sub m currentpoint t 4 {side} repeat cl fill gr} def
/m30 {mp gsave x w2 sub y w2 add w3 sub m currentpoint t 4 {side} repeat cl s gr} def
/m31 {mp x y w2 sub m 0 w d x w2 sub y m w 0 d x w2 sub y w2 add m w w neg d x w2 sub y w2 sub m w w d s} def
/m32 {mp x y w2 sub m w2 w d w neg 0 d cl s} def
/m33 {mp x y w2 add m w3 neg w2 neg d w3 w2 neg d w3 w2 d cl f} def
/m34 {mp x w2 sub y w2 sub w3 add m w3 0 d  0 w3 neg d w3 0 d 0 w3 d w3 0 d  0 w3 d w3 neg 0 d 0 w3 d w3 neg 0 d 0 w3 neg d w3 neg 0 d cl f } def
/m2 {mp x y w2 sub m 0 w d x w2 sub y m w 0 d s} def
/m5 {mp x w2 sub y w2 sub m w w d x w2 sub y w2 add m w w neg d s} def
/reEncode {exch findfont dup length dict begin {1 index /FID eq  {pop pop} {def} ifelse } forall /Encoding exch def currentdict end dup /FontName get exch definefont pop } def [/Times-Bold /Times-Italic /Times-BoldItalic /Helvetica /Helvetica-Oblique
 /Helvetica-Bold /Helvetica-BoldOblique /Courier /Courier-Oblique /Courier-Bold /Courier-BoldOblique /Times-Roman /AvantGarde-Book /AvantGarde-BookOblique /AvantGarde-Demi /AvantGarde-DemiOblique /Bookman-Demi /Bookman-DemiItalic /Bookman-Light
 /Bookman-LightItalic /Helvetica-Narrow /Helvetica-Narrow-Bold /Helvetica-Narrow-BoldOblique /Helvetica-Narrow-Oblique /NewCenturySchlbk-Roman /NewCenturySchlbk-Bold /NewCenturySchlbk-BoldItalic /NewCenturySchlbk-Italic /Palatino-Bold
 /Palatino-BoldItalic /Palatino-Italic /Palatino-Roman ] {ISOLatin1Encoding reEncode } forall%%EndProlog
%%BeginSetup
%%EndSetup
newpath  gsave  .25 .25 scale  gsave  0 0 t black[  ] 0 sd 3 lw 1 1 1 c 2268 1328 0 0 bf black 1 1 1 c 408 305 23 1009 bf black 1 1 1 c black 306 229 84 1055 bl 306 229 84 1055 bl 84 1055 m 306 X s 84 1059 m -4 Y s 177 1059 m -4 Y s 271 1059 m -4 Y s
 364 1059 m -4 Y s 364 1059 m -4 Y s
 gsave  408 305 23 1009 C 74.0711 1034.15 t 0 r /Helvetica findfont 22.8295 sf 0 0 m (0) show NC gr 
 gsave  408 305 23 1009 C 170.933 1034.15 t 0 r /Helvetica findfont 22.8295 sf 0 0 m (1) show NC gr 
 gsave  408 305 23 1009 C 262.098 1034.15 t 0 r /Helvetica findfont 22.8295 sf 0 0 m (2) show NC gr 
 gsave  408 305 23 1009 C 353.262 1034.15 t 0 r /Helvetica findfont 22.8295 sf 0 0 m (3) show NC gr  84 1284 m 306 X s 84 1280 m 4 Y s 177 1280 m 4 Y s 271 1280 m 4 Y s 364 1280 m 4 Y s 364 1280 m 4 Y s 84 1055 m 229 Y s 89 1063 m -5 X s 87 1072 m -3
 X s 87 1082 m -3 X s 87 1092 m -3 X s 87 1101 m -3 X s 89 1111 m -5 X s 87 1121 m -3 X s 87 1130 m -3 X s 87 1140 m -3 X s 87 1150 m -3 X s 89 1159 m -5 X s 87 1169 m -3 X s 87 1179 m -3 X s 87 1188 m -3 X s 87 1198 m -3 X s 89 1208 m -5 X s 87 1217
 m -3 X s 87 1227 m -3 X s 87 1237 m -3 X s 87 1246 m -3 X s 89 1256 m -5 X s 89 1063 m -5 X s 89 1256 m -5 X s 87 1266 m -3 X s 87 1275 m -3 X s
 gsave  408 305 23 1009 C 28.4889 1054.09 t 0 r /Helvetica findfont 22.8295 sf 0 0 m (\2550.02) show NC gr 
 gsave  408 305 23 1009 C 14.2445 1102.52 t 0 r /Helvetica findfont 22.8295 sf 0 0 m (\2550.015) show NC gr 
 gsave  408 305 23 1009 C 31.3378 1150.95 t 0 r /Helvetica findfont 22.8295 sf 0 0 m (\2550.01) show NC gr 
 gsave  408 305 23 1009 C 14.2445 1199.38 t 0 r /Helvetica findfont 22.8295 sf 0 0 m (\2550.005) show NC gr 
 gsave  408 305 23 1009 C 65.5245 1247.81 t 0 r /Helvetica findfont 22.8295 sf 0 0 m (0) show NC gr  390 1055 m 229 Y s 385 1063 m 5 X s 387 1072 m 3 X s 387 1082 m 3 X s 387 1092 m 3 X s 387 1101 m 3 X s 385 1111 m 5 X s 387 1121 m 3 X s 387 1130 m
 3 X s 387 1140 m 3 X s 387 1150 m 3 X s 385 1159 m 5 X s 387 1169 m 3 X s 387 1179 m 3 X s 387 1188 m 3 X s 387 1198 m 3 X s 385 1208 m 5 X s 387 1217 m 3 X s 387 1227 m 3 X s 387 1237 m 3 X s 387 1246 m 3 X s 385 1256 m 5 X s 385 1063 m 5 X s 385
 1256 m 5 X s 387 1266 m 3 X s 387 1275 m 3 X s /w 22 def /w2 {w 2 div} def /w3 {w 3 div} def 131 1246 177 1190 271 1190 364 1092 4 { m21} R 131 1258 m 7 Y s 125 1265 m 11 X s 131 1235 m -7 Y s 125 1228 m 11 X s 177 1202 m 6 Y s 172 1208 m 11 X s 177
 1179 m -7 Y s 172 1172 m 11 X s 271 1201 m 7 Y s 265 1208 m 12 X s 271 1179 m -7 Y s 265 1172 m 12 X s 364 1103 m 7 Y s 359 1110 m 11 X s 364 1081 m -7 Y s 359 1074 m 11 X s 9 lw 0.95 0.95 0.95 c black 85 1255 m 3 -1 d 4 -2 d 3 -2 d 3 -1 d 3 -2 d 3
 -1 d 3 -2 d 3 -2 d 3 -1 d 3 -2 d 3 -1 d 3 -2 d 3 -2 d 3 -1 d 3 -2 d 3 -1 d 3 -2 d 4 -2 d 3 -1 d 3 -2 d 3 -1 d 3 -2 d 3 -2 d 3 -1 d 3 -2 d 3 -1 d 3 -2 d 3 -1 d 3 -2 d 3 -2 d 3 -1 d 3 -2 d 3 -1 d 4 -2 d 3 -2 d 3 -1 d 3 -2 d 3 -1 d 3 -2 d 3 -2 d 3 -1 d
 3 -2 d 3 -1 d 3 -2 d 3 -2 d 3 -1 d 3 -2 d 3 -1 d 3 -2 d s 235 1177 m 4 -2 d 3 -1 d 3 -2 d 3 -1 d 3 -2 d 3 -2 d 3 -1 d 3 -2 d 3 -1 d 3 -2 d 3 -2 d 3 -1 d 3 -2 d 3 -1 d 3 -2 d 3 -2 d 3 -1 d 4 -2 d 3 -1 d 3 -2 d 3 -2 d 3 -1 d 3 -2 d 3 -1 d 3 -2 d 3 -2
 d 3 -1 d 3 -2 d 3 -1 d 3 -2 d 3 -1 d 3 -2 d 3 -2 d 4 -1 d 3 -2 d 3 -1 d 3 -2 d 3 -2 d 3 -1 d 3 -2 d 3 -1 d 3 -2 d 3 -2 d 3 -1 d 3 -2 d 3 -1 d 3 -2 d 3 -2 d 3 -1 d s 385 1099 m 4 -2 d s 0.49 0.6 0.82 c black 0.49 0.6 0.82 c
 gsave  408 305 23 1009 C 142.445 1293.4 t 0 r /Helvetica-Bold findfont 25.6831 sf 0 0 m (0.0 < E < 0.5 GeV) show NC gr  0.52 0.76 0.64 c black 0.52 0.76 0.64 c
 gsave  408 305 23 1009 C 122.502 1256.36 t 0 r /Helvetica-Bold findfont 25.6831 sf 0 0 m 
 228 214 200 193 178 171 156 149 134 126 119 105 91 77 69 55 47 39 25 17
(A = \2550.005, p = 1.000) K NC gr  1 0.6 1 c black 1 0.6 1 c
 gsave  408 305 23 1009 C 427.334 1122.46 t 90 r /Helvetica-Bold findfont 28.5368 sf 0 0 m (/dof=1.8) show NC gr  black 1 0.6 1 c
 gsave  408 305 23 1009 C 415.938 1111.07 t 90 r /Helvetica-Bold findfont 19.9758 sf 0 0 m (2) show NC gr  black 1 0.6 1 c
 gsave  408 305 23 1009 C 427.334 1093.97 t 90 r /Symbol findfont 28.5368 sf 0 0 m (c) show NC gr  black 3 lw 1 1 1 c 408 305 476 1009 bf black 1 1 1 c black 307 229 537 1055 bl 307 229 537 1055 bl 537 1055 m 307 X s 537 1059 m -4 Y s 631 1059 m -4 Y
 s 724 1059 m -4 Y s 818 1059 m -4 Y s 818 1059 m -4 Y s
 gsave  408 305 476 1009 C 527.045 1034.15 t 0 r /Helvetica findfont 22.8295 sf 0 0 m (0) show NC gr 
 gsave  408 305 476 1009 C 623.907 1034.15 t 0 r /Helvetica findfont 22.8295 sf 0 0 m (1) show NC gr 
 gsave  408 305 476 1009 C 715.071 1034.15 t 0 r /Helvetica findfont 22.8295 sf 0 0 m (2) show NC gr 
 gsave  408 305 476 1009 C 809.085 1034.15 t 0 r /Helvetica findfont 22.8295 sf 0 0 m (3) show NC gr  537 1284 m 307 X s 537 1280 m 4 Y s 631 1280 m 4 Y s 724 1280 m 4 Y s 818 1280 m 4 Y s 818 1280 m 4 Y s 537 1055 m 229 Y s 543 1068 m -6 X s 540
 1073 m -3 X s 540 1078 m -3 X s 540 1083 m -3 X s 540 1088 m -3 X s 543 1093 m -6 X s 540 1098 m -3 X s 540 1103 m -3 X s 540 1108 m -3 X s 540 1113 m -3 X s 543 1118 m -6 X s 540 1123 m -3 X s 540 1128 m -3 X s 540 1133 m -3 X s 540 1138 m -3 X s
 543 1143 m -6 X s 540 1148 m -3 X s 540 1153 m -3 X s 540 1159 m -3 X s 540 1164 m -3 X s 543 1169 m -6 X s 540 1174 m -3 X s 540 1179 m -3 X s 540 1184 m -3 X s 540 1189 m -3 X s 543 1194 m -6 X s 540 1199 m -3 X s 540 1204 m -3 X s 540 1209 m -3 X
 s 540 1214 m -3 X s 543 1219 m -6 X s 540 1224 m -3 X s 540 1229 m -3 X s 540 1234 m -3 X s 540 1239 m -3 X s 543 1244 m -6 X s 540 1249 m -3 X s 540 1254 m -3 X s 540 1259 m -3 X s 540 1264 m -3 X s 543 1269 m -6 X s 543 1068 m -6 X s 540 1063 m -3
 X s 540 1058 m -3 X s 543 1269 m -6 X s 540 1274 m -3 X s 540 1279 m -3 X s
 gsave  408 305 476 1009 C 467.218 1059.79 t 0 r /Helvetica findfont 22.8295 sf 0 0 m (\2550.035) show NC gr 
 gsave  408 305 476 1009 C 481.462 1085.43 t 0 r /Helvetica findfont 22.8295 sf 0 0 m (\2550.03) show NC gr 
 gsave  408 305 476 1009 C 467.218 1111.07 t 0 r /Helvetica findfont 22.8295 sf 0 0 m (\2550.025) show NC gr 
 gsave  408 305 476 1009 C 481.462 1136.71 t 0 r /Helvetica findfont 22.8295 sf 0 0 m (\2550.02) show NC gr 
 gsave  408 305 476 1009 C 467.218 1162.35 t 0 r /Helvetica findfont 22.8295 sf 0 0 m (\2550.015) show NC gr 
 gsave  408 305 476 1009 C 484.311 1187.99 t 0 r /Helvetica findfont 22.8295 sf 0 0 m (\2550.01) show NC gr 
 gsave  408 305 476 1009 C 467.218 1210.78 t 0 r /Helvetica findfont 22.8295 sf 0 0 m (\2550.005) show NC gr 
 gsave  408 305 476 1009 C 518.498 1236.42 t 0 r /Helvetica findfont 22.8295 sf 0 0 m (0) show NC gr 
 gsave  408 305 476 1009 C 475.765 1262.06 t 0 r /Helvetica findfont 22.8295 sf 0 0 m (0.005) show NC gr  844 1055 m 229 Y s 838 1068 m 6 X s 841 1073 m 3 X s 841 1078 m 3 X s 841 1083 m 3 X s 841 1088 m 3 X s 838 1093 m 6 X s 841 1098 m 3 X s 841
 1103 m 3 X s 841 1108 m 3 X s 841 1113 m 3 X s 838 1118 m 6 X s 841 1123 m 3 X s 841 1128 m 3 X s 841 1133 m 3 X s 841 1138 m 3 X s 838 1143 m 6 X s 841 1148 m 3 X s 841 1153 m 3 X s 841 1159 m 3 X s 841 1164 m 3 X s 838 1169 m 6 X s 841 1174 m 3 X
 s 841 1179 m 3 X s 841 1184 m 3 X s 841 1189 m 3 X s 838 1194 m 6 X s 841 1199 m 3 X s 841 1204 m 3 X s 841 1209 m 3 X s 841 1214 m 3 X s 838 1219 m 6 X s 841 1224 m 3 X s 841 1229 m 3 X s 841 1234 m 3 X s 841 1239 m 3 X s 838 1244 m 6 X s 841 1249
 m 3 X s 841 1254 m 3 X s 841 1259 m 3 X s 841 1264 m 3 X s 838 1269 m 6 X s 838 1068 m 6 X s 841 1063 m 3 X s 841 1058 m 3 X s 838 1269 m 6 X s 841 1274 m 3 X s 841 1279 m 3 X s /w 23 def /w2 {w 2 div} def /w3 {w 3 div} def 584 1253 631 1250 724
 1182 818 1085 4 { m21} R 584 1265 m s 578 1265 m 12 X s 584 1242 m s 578 1242 m 12 X s 631 1261 m s 625 1261 m 12 X s 631 1239 m s 625 1239 m 12 X s 1 0 0 c 9 lw 0.95 0.95 0.95 c black 1 0 0 c 539 1244 m 15 X 3 -1 d 10 X 3 -1 d 3 X 3 -1 d 3 X 3 -1 d
 3 X 3 -1 d 3 X 3 -1 d 3 -1 d 3 X 3 -1 d 3 -1 d 3 -1 d 3 -1 d 4 -1 d 3 -1 d 3 -1 d 3 -1 d 3 -1 d 3 -1 d 3 -1 d 3 -1 d 3 -1 d 3 -2 d 3 -1 d 3 -1 d 3 -2 d 3 -1 d 3 -1 d 3 -2 d 3 -1 d 4 -2 d 3 -1 d 3 -2 d 3 -2 d 3 -1 d 3 -2 d 3 -2 d 3 -2 d s 689 1199 m
 3 -1 d 3 -2 d 3 -2 d 3 -2 d 3 -2 d 3 -2 d 3 -2 d 3 -2 d 4 -2 d 3 -3 d 3 -2 d 3 -2 d 3 -2 d 3 -3 d 3 -2 d 3 -2 d 3 -3 d 3 -2 d 3 -3 d 3 -2 d 3 -3 d 3 -2 d 3 -3 d 3 -3 d 4 -2 d 3 -3 d 3 -3 d 3 -3 d 3 -3 d 3 -3 d 3 -2 d 3 -3 d 3 -3 d 3 -3 d 3 -4 d 3 -3
 d 3 -3 d 3 -3 d 3 -3 d 3 -3 d 4 -4 d 3 -3 d 3 -3 d 3 -4 d 3 -3 d 3 -4 d 3 -3 d 3 -4 d 3 -3 d s 839 1067 m 3 -4 d s 0.49 0.6 0.82 c black 0.49 0.6 0.82 c
 gsave  408 305 476 1009 C 595.418 1293.4 t 0 r /Helvetica-Bold findfont 25.6831 sf 0 0 m (0.5 < E < 1.0 GeV) show NC gr  0.52 0.76 0.64 c black 0.52 0.76 0.64 c
 gsave  408 305 476 1009 C 575.476 1256.36 t 0 r /Helvetica-Bold findfont 25.6831 sf 0 0 m 
 228 214 200 193 178 171 156 149 133 126 119 105 91 76 69 55 47 39 25 17
(A = \2550.003, p = 2.000) K NC gr  1 0.6 1 c black 1 0.6 1 c
 gsave  408 305 476 1009 C 883.156 1122.46 t 90 r /Helvetica-Bold findfont 28.5368 sf 0 0 m (/dof=2.0) show NC gr  black 1 0.6 1 c
 gsave  408 305 476 1009 C 871.76 1111.07 t 90 r /Helvetica-Bold findfont 19.9758 sf 0 0 m (2) show NC gr  black 1 0.6 1 c
 gsave  408 305 476 1009 C 883.156 1093.97 t 90 r /Symbol findfont 28.5368 sf 0 0 m (c) show NC gr  black 3 lw 1 1 1 c 408 305 930 1009 bf black 1 1 1 c black 306 229 991 1055 bl 306 229 991 1055 bl 991 1055 m 306 X s 991 1059 m -4 Y s 1084 1059 m -4
 Y s 1178 1059 m -4 Y s 1271 1059 m -4 Y s 1271 1059 m -4 Y s
 gsave  408 305 930 1009 C 980.018 1034.15 t 0 r /Helvetica findfont 22.8295 sf 0 0 m (0) show NC gr 
 gsave  408 305 930 1009 C 1076.88 1034.15 t 0 r /Helvetica findfont 22.8295 sf 0 0 m (1) show NC gr 
 gsave  408 305 930 1009 C 1168.04 1034.15 t 0 r /Helvetica findfont 22.8295 sf 0 0 m (2) show NC gr 
 gsave  408 305 930 1009 C 1262.06 1034.15 t 0 r /Helvetica findfont 22.8295 sf 0 0 m (3) show NC gr  991 1284 m 306 X s 991 1280 m 4 Y s 1084 1280 m 4 Y s 1178 1280 m 4 Y s 1271 1280 m 4 Y s 1271 1280 m 4 Y s 991 1055 m 229 Y s 997 1074 m -6 X s 994
 1081 m -3 X s 994 1088 m -3 X s 994 1095 m -3 X s 994 1103 m -3 X s 997 1110 m -6 X s 994 1117 m -3 X s 994 1124 m -3 X s 994 1132 m -3 X s 994 1139 m -3 X s 997 1146 m -6 X s 994 1153 m -3 X s 994 1161 m -3 X s 994 1168 m -3 X s 994 1175 m -3 X s
 997 1183 m -6 X s 994 1190 m -3 X s 994 1197 m -3 X s 994 1204 m -3 X s 994 1212 m -3 X s 997 1219 m -6 X s 994 1226 m -3 X s 994 1233 m -3 X s 994 1241 m -3 X s 994 1248 m -3 X s 997 1255 m -6 X s 997 1074 m -6 X s 994 1066 m -3 X s 994 1059 m -3 X
 s 997 1255 m -6 X s 994 1262 m -3 X s 994 1270 m -3 X s 994 1277 m -3 X s
 gsave  408 305 930 1009 C 937.285 1065.48 t 0 r /Helvetica findfont 22.8295 sf 0 0 m (\2550.05) show NC gr 
 gsave  408 305 930 1009 C 937.285 1102.52 t 0 r /Helvetica findfont 22.8295 sf 0 0 m (\2550.04) show NC gr 
 gsave  408 305 930 1009 C 937.285 1139.56 t 0 r /Helvetica findfont 22.8295 sf 0 0 m (\2550.03) show NC gr 
 gsave  408 305 930 1009 C 937.285 1176.59 t 0 r /Helvetica findfont 22.8295 sf 0 0 m (\2550.02) show NC gr 
 gsave  408 305 930 1009 C 940.134 1210.78 t 0 r /Helvetica findfont 22.8295 sf 0 0 m (\2550.01) show NC gr 
 gsave  408 305 930 1009 C 974.32 1247.81 t 0 r /Helvetica findfont 22.8295 sf 0 0 m (0) show NC gr  1297 1055 m 229 Y s 1292 1074 m 5 X s 1294 1081 m 3 X s 1294 1088 m 3 X s 1294 1095 m 3 X s 1294 1103 m 3 X s 1292 1110 m 5 X s 1294 1117 m 3 X s
 1294 1124 m 3 X s 1294 1132 m 3 X s 1294 1139 m 3 X s 1292 1146 m 5 X s 1294 1153 m 3 X s 1294 1161 m 3 X s 1294 1168 m 3 X s 1294 1175 m 3 X s 1292 1183 m 5 X s 1294 1190 m 3 X s 1294 1197 m 3 X s 1294 1204 m 3 X s 1294 1212 m 3 X s 1292 1219 m 5 X
 s 1294 1226 m 3 X s 1294 1233 m 3 X s 1294 1241 m 3 X s 1294 1248 m 3 X s 1292 1255 m 5 X s 1292 1074 m 5 X s 1294 1066 m 3 X s 1294 1059 m 3 X s 1292 1255 m 5 X s 1294 1262 m 3 X s 1294 1270 m 3 X s 1294 1277 m 3 X s 1038 1255 1084 1257 1178 1209
 1271 1082 4 { m21} R 1 0 0 c 9 lw 0.95 0.95 0.95 c black 1 0 0 c 993 1255 m 15 X 3 -1 d 6 X 3 -1 d 6 X 3 -1 d 3 X 3 -1 d 3 X 4 -1 d 3 -1 d 3 X 3 -1 d 3 -1 d 3 -1 d 3 -1 d 3 X 3 -1 d 3 -1 d 3 -1 d 3 -1 d 3 -1 d 3 -1 d 3 -2 d 3 -1 d 3 -1 d 4 -1 d 3 -2
 d 3 -1 d 3 -1 d 3 -2 d 3 -1 d 3 -2 d 3 -1 d 3 -2 d 3 -1 d 3 -2 d 3 -2 d 3 -1 d 3 -2 d 3 -2 d 3 -2 d 4 -2 d s 1143 1208 m 3 -2 d 3 -2 d 3 -2 d 3 -2 d 3 -2 d 3 -2 d 3 -2 d 3 -2 d 3 -2 d 3 -3 d 3 -2 d 3 -2 d 3 -3 d 3 -2 d 3 -2 d 4 -3 d 3 -2 d 3 -3 d 3
 -3 d 3 -2 d 3 -3 d 3 -3 d 3 -2 d 3 -3 d 3 -3 d 3 -3 d 3 -3 d 3 -3 d 3 -3 d 3 -3 d 3 -3 d 3 -3 d 4 -3 d 3 -3 d 3 -3 d 3 -4 d 3 -3 d 3 -3 d 3 -4 d 3 -3 d 3 -4 d 3 -3 d 3 -4 d 3 -3 d 3 -4 d 3 -3 d 3 -4 d 3 -4 d 4 -3 d s 1293 1070 m 3 -4 d s 0.49 0.6
 0.82 c black 0.49 0.6 0.82 c
 gsave  408 305 930 1009 C 1051.24 1293.4 t 0 r /Helvetica-Bold findfont 25.6831 sf 0 0 m (1.0 < E < 1.5 GeV) show NC gr  0.52 0.76 0.64 c black 0.52 0.76 0.64 c
 gsave  408 305 930 1009 C 1031.3 1256.36 t 0 r /Helvetica-Bold findfont 25.6831 sf 0 0 m 
 228 214 200 193 178 171 156 149 133 126 119 105 91 77 69 55 47 39 25 17
(A = \2550.005, p = 2.000) K NC gr  1 0.6 1 c black 1 0.6 1 c
 gsave  408 305 930 1009 C 1336.13 1122.46 t 90 r /Helvetica-Bold findfont 28.5368 sf 0 0 m (/dof=6.3) show NC gr  black 1 0.6 1 c
 gsave  408 305 930 1009 C 1324.73 1111.07 t 90 r /Helvetica-Bold findfont 19.9758 sf 0 0 m (2) show NC gr  black 1 0.6 1 c
 gsave  408 305 930 1009 C 1336.13 1093.97 t 90 r /Symbol findfont 28.5368 sf 0 0 m (c) show NC gr  black 3 lw 1 1 1 c 408 305 1383 1009 bf black 1 1 1 c black 306 229 1445 1055 bl 306 229 1445 1055 bl 1445 1055 m 306 X s 1445 1059 m -4 Y s 1538 1059
 m -4 Y s 1631 1059 m -4 Y s 1725 1059 m -4 Y s 1725 1059 m -4 Y s
 gsave  408 305 1383 1009 C 1435.84 1034.15 t 0 r /Helvetica findfont 22.8295 sf 0 0 m (0) show NC gr 
 gsave  408 305 1383 1009 C 1529.85 1034.15 t 0 r /Helvetica findfont 22.8295 sf 0 0 m (1) show NC gr 
 gsave  408 305 1383 1009 C 1621.02 1034.15 t 0 r /Helvetica findfont 22.8295 sf 0 0 m (2) show NC gr 
 gsave  408 305 1383 1009 C 1715.03 1034.15 t 0 r /Helvetica findfont 22.8295 sf 0 0 m (3) show NC gr  1445 1284 m 306 X s 1445 1280 m 4 Y s 1538 1280 m 4 Y s 1631 1280 m 4 Y s 1725 1280 m 4 Y s 1725 1280 m 4 Y s 1445 1055 m 229 Y s 1450 1068 m -5 X
 s 1447 1076 m -2 X s 1447 1085 m -2 X s 1447 1094 m -2 X s 1447 1102 m -2 X s 1450 1111 m -5 X s 1447 1120 m -2 X s 1447 1129 m -2 X s 1447 1137 m -2 X s 1447 1146 m -2 X s 1450 1155 m -5 X s 1447 1163 m -2 X s 1447 1172 m -2 X s 1447 1181 m -2 X s
 1447 1190 m -2 X s 1450 1198 m -5 X s 1447 1207 m -2 X s 1447 1216 m -2 X s 1447 1224 m -2 X s 1447 1233 m -2 X s 1450 1242 m -5 X s 1450 1068 m -5 X s 1447 1059 m -2 X s 1450 1242 m -5 X s 1447 1251 m -2 X s 1447 1259 m -2 X s 1447 1268 m -2 X s
 1447 1277 m -2 X s
 gsave  408 305 1383 1009 C 1390.26 1059.79 t 0 r /Helvetica findfont 22.8295 sf 0 0 m (\2550.04) show NC gr 
 gsave  408 305 1383 1009 C 1390.26 1105.37 t 0 r /Helvetica findfont 22.8295 sf 0 0 m (\2550.03) show NC gr 
 gsave  408 305 1383 1009 C 1390.26 1148.1 t 0 r /Helvetica findfont 22.8295 sf 0 0 m (\2550.02) show NC gr 
 gsave  408 305 1383 1009 C 1393.11 1190.84 t 0 r /Helvetica findfont 22.8295 sf 0 0 m (\2550.01) show NC gr 
 gsave  408 305 1383 1009 C 1427.29 1233.57 t 0 r /Helvetica findfont 22.8295 sf 0 0 m (0) show NC gr  1751 1055 m 229 Y s 1745 1068 m 6 X s 1748 1076 m 3 X s 1748 1085 m 3 X s 1748 1094 m 3 X s 1748 1102 m 3 X s 1745 1111 m 6 X s 1748 1120 m 3 X s
 1748 1129 m 3 X s 1748 1137 m 3 X s 1748 1146 m 3 X s 1745 1155 m 6 X s 1748 1163 m 3 X s 1748 1172 m 3 X s 1748 1181 m 3 X s 1748 1190 m 3 X s 1745 1198 m 6 X s 1748 1207 m 3 X s 1748 1216 m 3 X s 1748 1224 m 3 X s 1748 1233 m 3 X s 1745 1242 m 6 X
 s 1745 1068 m 6 X s 1748 1059 m 3 X s 1745 1242 m 6 X s 1748 1251 m 3 X s 1748 1259 m 3 X s 1748 1268 m 3 X s 1748 1277 m 3 X s 1491 1255 1538 1240 1631 1185 1725 1083 4 { m21} R 1 0 0 c 9 lw 0.95 0.95 0.95 c black 1 0 0 c 1446 1242 m 9 X 3 -1 d 13
 X 3 -1 d 3 X 3 -1 d 6 X 3 -1 d 3 -1 d 3 X 3 -1 d 3 X 3 -1 d 3 -1 d 3 -1 d 3 X 3 -1 d 4 -1 d 3 -1 d 3 -1 d 3 -1 d 3 -1 d 3 -1 d 3 -1 d 3 -1 d 3 -1 d 3 -1 d 3 -2 d 3 -1 d 3 -1 d 3 -2 d 3 -1 d 3 -1 d 4 -2 d 3 -1 d 3 -2 d 3 -1 d 3 -2 d 3 -2 d 3 -1 d 3
 -2 d 3 -2 d 3 -2 d s 1596 1197 m 3 -1 d 3 -2 d 3 -2 d 3 -2 d 3 -2 d 3 -2 d 4 -2 d 3 -2 d 3 -2 d 3 -2 d 3 -2 d 3 -3 d 3 -2 d 3 -2 d 3 -2 d 3 -3 d 3 -2 d 3 -3 d 3 -2 d 3 -3 d 3 -2 d 3 -3 d 3 -2 d 4 -3 d 3 -3 d 3 -2 d 3 -3 d 3 -3 d 3 -3 d 3 -3 d 3 -2 d
 3 -3 d 3 -3 d 3 -3 d 3 -3 d 3 -3 d 3 -4 d 3 -3 d 3 -3 d 4 -3 d 3 -3 d 3 -4 d 3 -3 d 3 -3 d 3 -4 d 3 -3 d 3 -4 d 3 -3 d 3 -4 d s 1746 1066 m 3 -3 d s 0.49 0.6 0.82 c black 0.49 0.6 0.82 c
 gsave  408 305 1383 1009 C 1504.21 1293.4 t 0 r /Helvetica-Bold findfont 25.6831 sf 0 0 m (1.5 < E < 2.0 GeV) show NC gr  0.52 0.76 0.64 c black 0.52 0.76 0.64 c
 gsave  408 305 1383 1009 C 1484.27 1256.36 t 0 r /Helvetica-Bold findfont 25.6831 sf 0 0 m 
 228 214 200 193 178 171 156 149 134 126 119 105 91 77 69 55 47 40 25 17
(A = \2550.004, p = 2.000) K NC gr  1 0.6 1 c black 1 0.6 1 c
 gsave  408 305 1383 1009 C 1789.1 1122.46 t 90 r /Helvetica-Bold findfont 28.5368 sf 0 0 m (/dof=2.4) show NC gr  black 1 0.6 1 c
 gsave  408 305 1383 1009 C 1777.71 1111.07 t 90 r /Helvetica-Bold findfont 19.9758 sf 0 0 m (2) show NC gr  black 1 0.6 1 c
 gsave  408 305 1383 1009 C 1789.1 1093.97 t 90 r /Symbol findfont 28.5368 sf 0 0 m (c) show NC gr  black 3 lw 1 1 1 c 408 305 1837 1009 bf black 1 1 1 c black 306 229 1898 1055 bl 306 229 1898 1055 bl 1898 1055 m 306 X s 1898 1059 m -4 Y s 1992 1059
 m -4 Y s 2085 1059 m -4 Y s 2179 1059 m -4 Y s 2179 1059 m -4 Y s
 gsave  408 305 1837 1009 C 1888.81 1034.15 t 0 r /Helvetica findfont 22.8295 sf 0 0 m (0) show NC gr 
 gsave  408 305 1837 1009 C 1985.68 1034.15 t 0 r /Helvetica findfont 22.8295 sf 0 0 m (1) show NC gr 
 gsave  408 305 1837 1009 C 2073.99 1034.15 t 0 r /Helvetica findfont 22.8295 sf 0 0 m (2) show NC gr 
 gsave  408 305 1837 1009 C 2168.01 1034.15 t 0 r /Helvetica findfont 22.8295 sf 0 0 m (3) show NC gr  1898 1284 m 306 X s 1898 1280 m 4 Y s 1992 1280 m 4 Y s 2085 1280 m 4 Y s 2179 1280 m 4 Y s 2179 1280 m 4 Y s 1898 1055 m 229 Y s 1904 1072 m -6 X
 s 1901 1081 m -3 X s 1901 1090 m -3 X s 1901 1099 m -3 X s 1901 1109 m -3 X s 1904 1118 m -6 X s 1901 1127 m -3 X s 1901 1136 m -3 X s 1901 1145 m -3 X s 1901 1154 m -3 X s 1904 1163 m -6 X s 1901 1172 m -3 X s 1901 1181 m -3 X s 1901 1190 m -3 X s
 1901 1200 m -3 X s 1904 1209 m -6 X s 1901 1218 m -3 X s 1901 1227 m -3 X s 1901 1236 m -3 X s 1901 1245 m -3 X s 1904 1254 m -6 X s 1904 1072 m -6 X s 1901 1063 m -3 X s 1904 1254 m -6 X s 1901 1263 m -3 X s 1901 1272 m -3 X s 1901 1281 m -3 X s
 gsave  408 305 1837 1009 C 1843.23 1065.48 t 0 r /Helvetica findfont 22.8295 sf 0 0 m (\2550.04) show NC gr 
 gsave  408 305 1837 1009 C 1843.23 1111.07 t 0 r /Helvetica findfont 22.8295 sf 0 0 m (\2550.03) show NC gr 
 gsave  408 305 1837 1009 C 1843.23 1156.65 t 0 r /Helvetica findfont 22.8295 sf 0 0 m (\2550.02) show NC gr 
 gsave  408 305 1837 1009 C 1846.08 1202.23 t 0 r /Helvetica findfont 22.8295 sf 0 0 m (\2550.01) show NC gr 
 gsave  408 305 1837 1009 C 1880.27 1247.81 t 0 r /Helvetica findfont 22.8295 sf 0 0 m (0) show NC gr  2204 1055 m 229 Y s 2199 1072 m 5 X s 2201 1081 m 3 X s 2201 1090 m 3 X s 2201 1099 m 3 X s 2201 1109 m 3 X s 2199 1118 m 5 X s 2201 1127 m 3 X s
 2201 1136 m 3 X s 2201 1145 m 3 X s 2201 1154 m 3 X s 2199 1163 m 5 X s 2201 1172 m 3 X s 2201 1181 m 3 X s 2201 1190 m 3 X s 2201 1200 m 3 X s 2199 1209 m 5 X s 2201 1218 m 3 X s 2201 1227 m 3 X s 2201 1236 m 3 X s 2201 1245 m 3 X s 2199 1254 m 5 X
 s 2199 1072 m 5 X s 2201 1063 m 3 X s 2199 1254 m 5 X s 2201 1263 m 3 X s 2201 1272 m 3 X s 2201 1281 m 3 X s 1945 1254 1992 1242 2085 1206 2179 1085 4 { m21} R 1 0 0 c 9 lw 0.95 0.95 0.95 c black 1 0 0 c 1900 1254 m 15 X 3 -1 d 6 X 3 -1 d 6 X 3 -1
 d 3 X 3 -1 d 4 X 3 -1 d 3 -1 d 3 X 3 -1 d 3 -1 d 3 -1 d 3 X 3 -1 d 3 -1 d 3 -1 d 3 -1 d 3 -1 d 3 -1 d 3 -1 d 3 -1 d 4 -2 d 3 -1 d 3 -1 d 3 -1 d 3 -2 d 3 -1 d 3 -2 d 3 -1 d 3 -1 d 3 -2 d 3 -1 d 3 -2 d 3 -2 d 3 -1 d 3 -2 d 3 -2 d 3 -2 d 4 -1 d 3 -2 d
 s 2050 1208 m 3 -2 d 3 -2 d 3 -2 d 3 -2 d 3 -2 d 3 -2 d 3 -2 d 3 -3 d 3 -2 d 3 -2 d 3 -2 d 3 -3 d 3 -2 d 3 -2 d 4 -3 d 3 -2 d 3 -3 d 3 -2 d 3 -3 d 3 -2 d 3 -3 d 3 -3 d 3 -3 d 3 -2 d 3 -3 d 3 -3 d 3 -3 d 3 -3 d 3 -3 d 3 -3 d 4 -3 d 3 -3 d 3 -3 d 3 -3
 d 3 -3 d 3 -4 d 3 -3 d 3 -3 d 3 -3 d 3 -4 d 3 -3 d 3 -4 d 3 -3 d 3 -4 d 3 -3 d 3 -4 d 4 -3 d 3 -4 d 3 -4 d s 2200 1070 m 3 -4 d s 0.49 0.6 0.82 c black 0.49 0.6 0.82 c
 gsave  408 305 1837 1009 C 1957.19 1293.4 t 0 r /Helvetica-Bold findfont 25.6831 sf 0 0 m (2.0 < E < 2.5 GeV) show NC gr  0.52 0.76 0.64 c black 0.52 0.76 0.64 c
 gsave  408 305 1837 1009 C 1937.25 1256.36 t 0 r /Helvetica-Bold findfont 25.6831 sf 0 0 m 
 228 214 200 193 178 171 156 149 133 126 119 105 91 77 69 55 47 39 25 17
(A = \2550.004, p = 2.000) K NC gr  1 0.6 1 c black 1 0.6 1 c
 gsave  408 305 1837 1009 C 2242.08 1122.46 t 90 r /Helvetica-Bold findfont 28.5368 sf 0 0 m (/dof=1.9) show NC gr  black 1 0.6 1 c
 gsave  408 305 1837 1009 C 2230.68 1111.07 t 90 r /Helvetica-Bold findfont 19.9758 sf 0 0 m (2) show NC gr  black 1 0.6 1 c
 gsave  408 305 1837 1009 C 2242.08 1093.97 t 90 r /Symbol findfont 28.5368 sf 0 0 m (c) show NC gr  black 3 lw 1 1 1 c 408 305 23 677 bf black 1 1 1 c black 306 229 84 723 bl 306 229 84 723 bl 84 723 m 306 X s 84 727 m -4 Y s 177 727 m -4 Y s 271
 727 m -4 Y s 364 727 m -4 Y s 364 727 m -4 Y s
 gsave  408 305 23 677 C 74.0711 703.676 t 0 r /Helvetica findfont 22.8295 sf 0 0 m (0) show NC gr 
 gsave  408 305 23 677 C 170.933 703.676 t 0 r /Helvetica findfont 22.8295 sf 0 0 m (1) show NC gr 
 gsave  408 305 23 677 C 262.098 703.676 t 0 r /Helvetica findfont 22.8295 sf 0 0 m (2) show NC gr 
 gsave  408 305 23 677 C 353.262 703.676 t 0 r /Helvetica findfont 22.8295 sf 0 0 m (3) show NC gr  84 952 m 306 X s 84 948 m 4 Y s 177 948 m 4 Y s 271 948 m 4 Y s 364 948 m 4 Y s 364 948 m 4 Y s 84 723 m 229 Y s 89 750 m -5 X s 87 759 m -3 X s 87
 768 m -3 X s 87 777 m -3 X s 89 786 m -5 X s 87 795 m -3 X s 87 804 m -3 X s 87 813 m -3 X s 89 823 m -5 X s 87 832 m -3 X s 87 841 m -3 X s 87 850 m -3 X s 89 859 m -5 X s 87 868 m -3 X s 87 877 m -3 X s 87 886 m -3 X s 89 895 m -5 X s 87 904 m -3
 X s 87 914 m -3 X s 87 923 m -3 X s 89 932 m -5 X s 89 750 m -5 X s 87 741 m -3 X s 87 732 m -3 X s 89 932 m -5 X s 87 941 m -3 X s 87 950 m -3 X s
 gsave  408 305 23 677 C 42.7334 743.56 t 0 r /Helvetica findfont 22.8295 sf 0 0 m (\2550.1) show NC gr 
 gsave  408 305 23 677 C 28.4889 777.747 t 0 r /Helvetica findfont 22.8295 sf 0 0 m (\2550.08) show NC gr 
 gsave  408 305 23 677 C 28.4889 814.783 t 0 r /Helvetica findfont 22.8295 sf 0 0 m (\2550.06) show NC gr 
 gsave  408 305 23 677 C 28.4889 851.818 t 0 r /Helvetica findfont 22.8295 sf 0 0 m (\2550.04) show NC gr 
 gsave  408 305 23 677 C 28.4889 888.854 t 0 r /Helvetica findfont 22.8295 sf 0 0 m (\2550.02) show NC gr 
 gsave  408 305 23 677 C 65.5245 925.889 t 0 r /Helvetica findfont 22.8295 sf 0 0 m (0) show NC gr  390 723 m 229 Y s 385 750 m 5 X s 387 759 m 3 X s 387 768 m 3 X s 387 777 m 3 X s 385 786 m 5 X s 387 795 m 3 X s 387 804 m 3 X s 387 813 m 3 X s 385
 823 m 5 X s 387 832 m 3 X s 387 841 m 3 X s 387 850 m 3 X s 385 859 m 5 X s 387 868 m 3 X s 387 877 m 3 X s 387 886 m 3 X s 385 895 m 5 X s 387 904 m 3 X s 387 914 m 3 X s 387 923 m 3 X s 385 932 m 5 X s 385 750 m 5 X s 387 741 m 3 X s 387 732 m 3 X
 s 385 932 m 5 X s 387 941 m 3 X s 387 950 m 3 X s /w 22 def /w2 {w 2 div} def /w3 {w 3 div} def 131 928 177 925 271 884 364 747 4 { m21} R 1 0 0 c 9 lw 0.95 0.95 0.95 c black 1 0 0 c 85 932 m 10 X 3 -1 d 9 X 3 -1 d 6 X 3 -1 d 3 X 3 -1 d 3 -1 d 3 X 3
 -1 d 3 -1 d 4 X 3 -1 d 3 -1 d 3 -1 d 3 -1 d 3 -1 d 3 -1 d 3 -1 d 3 -1 d 3 -1 d 3 -1 d 3 -1 d 3 -1 d 3 -2 d 3 -1 d 3 -1 d 4 -2 d 3 -1 d 3 -2 d 3 -1 d 3 -2 d 3 -1 d 3 -2 d 3 -2 d 3 -1 d 3 -2 d 3 -2 d 3 -2 d 3 -2 d 3 -2 d 3 -2 d 3 -2 d s 235 881 m 4 -2
 d 3 -2 d 3 -2 d 3 -2 d 3 -2 d 3 -3 d 3 -2 d 3 -2 d 3 -3 d 3 -2 d 3 -3 d 3 -2 d 3 -3 d 3 -2 d 3 -3 d 3 -3 d 3 -2 d 4 -3 d 3 -3 d 3 -3 d 3 -3 d 3 -3 d 3 -3 d 3 -3 d 3 -3 d 3 -3 d 3 -3 d 3 -3 d 3 -3 d 3 -3 d 3 -4 d 3 -3 d 3 -3 d 4 -4 d 3 -3 d 3 -4 d 3
 -3 d 3 -4 d 3 -4 d 3 -3 d 3 -4 d 3 -4 d 3 -4 d 3 -3 d 3 -4 d 3 -4 d 3 -4 d 3 -4 d 3 -4 d s 385 732 m 4 -4 d s 0.49 0.6 0.82 c black 0.49 0.6 0.82 c
 gsave  408 305 23 677 C 142.445 960.076 t 0 r /Helvetica-Bold findfont 25.6831 sf 0 0 m (2.5 < E < 3.0 GeV) show NC gr  0.52 0.76 0.64 c black 0.52 0.76 0.64 c
 gsave  408 305 23 677 C 122.502 923.04 t 0 r /Helvetica-Bold findfont 25.6831 sf 0 0 m 
 227 213 199 192 177 170 155 148 133 125 118 104 91 77 70 56 47 40 25 18
(A = \2550.011, p = 2.000) K NC gr  1 0.6 1 c black 1 0.6 1 c
 gsave  408 305 23 677 C 427.334 783.445 t 90 r /Helvetica-Bold findfont 28.5368 sf 0 0 m (/dof=16.2) show NC gr  black 1 0.6 1 c
 gsave  408 305 23 677 C 415.938 772.049 t 90 r /Helvetica-Bold findfont 19.9758 sf 0 0 m (2) show NC gr  black 1 0.6 1 c
 gsave  408 305 23 677 C 427.334 754.956 t 90 r /Symbol findfont 28.5368 sf 0 0 m (c) show NC gr  black 3 lw 1 1 1 c 408 305 476 677 bf black 1 1 1 c black 307 229 537 723 bl 307 229 537 723 bl 537 723 m 307 X s 537 727 m -4 Y s 631 727 m -4 Y s 724
 727 m -4 Y s 818 727 m -4 Y s 818 727 m -4 Y s
 gsave  408 305 476 677 C 527.045 703.676 t 0 r /Helvetica findfont 22.8295 sf 0 0 m (0) show NC gr 
 gsave  408 305 476 677 C 623.907 703.676 t 0 r /Helvetica findfont 22.8295 sf 0 0 m (1) show NC gr 
 gsave  408 305 476 677 C 715.071 703.676 t 0 r /Helvetica findfont 22.8295 sf 0 0 m (2) show NC gr 
 gsave  408 305 476 677 C 809.085 703.676 t 0 r /Helvetica findfont 22.8295 sf 0 0 m (3) show NC gr  537 952 m 307 X s 537 948 m 4 Y s 631 948 m 4 Y s 724 948 m 4 Y s 818 948 m 4 Y s 818 948 m 4 Y s 537 723 m 229 Y s 543 742 m -6 X s 540 748 m -3 X s
 540 754 m -3 X s 540 760 m -3 X s 543 766 m -6 X s 540 771 m -3 X s 540 777 m -3 X s 540 783 m -3 X s 543 789 m -6 X s 540 795 m -3 X s 540 801 m -3 X s 540 807 m -3 X s 543 812 m -6 X s 540 818 m -3 X s 540 824 m -3 X s 540 830 m -3 X s 543 836 m
 -6 X s 540 842 m -3 X s 540 847 m -3 X s 540 853 m -3 X s 543 859 m -6 X s 540 865 m -3 X s 540 871 m -3 X s 540 877 m -3 X s 543 883 m -6 X s 540 888 m -3 X s 540 894 m -3 X s 540 900 m -3 X s 543 906 m -6 X s 540 912 m -3 X s 540 918 m -3 X s 540
 923 m -3 X s 543 929 m -6 X s 543 742 m -6 X s 540 736 m -3 X s 540 731 m -3 X s 540 725 m -3 X s 543 929 m -6 X s 540 935 m -3 X s 540 941 m -3 X s 540 947 m -3 X s
 gsave  408 305 476 677 C 481.462 735.014 t 0 r /Helvetica findfont 22.8295 sf 0 0 m (\2550.16) show NC gr 
 gsave  408 305 476 677 C 481.462 757.805 t 0 r /Helvetica findfont 22.8295 sf 0 0 m (\2550.14) show NC gr 
 gsave  408 305 476 677 C 481.462 780.596 t 0 r /Helvetica findfont 22.8295 sf 0 0 m (\2550.12) show NC gr 
 gsave  408 305 476 677 C 495.707 806.236 t 0 r /Helvetica findfont 22.8295 sf 0 0 m (\2550.1) show NC gr 
 gsave  408 305 476 677 C 481.462 829.027 t 0 r /Helvetica findfont 22.8295 sf 0 0 m (\2550.08) show NC gr 
 gsave  408 305 476 677 C 481.462 851.818 t 0 r /Helvetica findfont 22.8295 sf 0 0 m (\2550.06) show NC gr 
 gsave  408 305 476 677 C 481.462 874.609 t 0 r /Helvetica findfont 22.8295 sf 0 0 m (\2550.04) show NC gr 
 gsave  408 305 476 677 C 481.462 897.4 t 0 r /Helvetica findfont 22.8295 sf 0 0 m (\2550.02) show NC gr 
 gsave  408 305 476 677 C 518.498 923.04 t 0 r /Helvetica findfont 22.8295 sf 0 0 m (0) show NC gr  844 723 m 229 Y s 838 742 m 6 X s 841 748 m 3 X s 841 754 m 3 X s 841 760 m 3 X s 838 766 m 6 X s 841 771 m 3 X s 841 777 m 3 X s 841 783 m 3 X s 838
 789 m 6 X s 841 795 m 3 X s 841 801 m 3 X s 841 807 m 3 X s 838 812 m 6 X s 841 818 m 3 X s 841 824 m 3 X s 841 830 m 3 X s 838 836 m 6 X s 841 842 m 3 X s 841 847 m 3 X s 841 853 m 3 X s 838 859 m 6 X s 841 865 m 3 X s 841 871 m 3 X s 841 877 m 3 X
 s 838 883 m 6 X s 841 888 m 3 X s 841 894 m 3 X s 841 900 m 3 X s 838 906 m 6 X s 841 912 m 3 X s 841 918 m 3 X s 841 923 m 3 X s 838 929 m 6 X s 838 742 m 6 X s 841 736 m 3 X s 841 731 m 3 X s 841 725 m 3 X s 838 929 m 6 X s 841 935 m 3 X s 841 941
 m 3 X s 841 947 m 3 X s /w 23 def /w2 {w 2 div} def /w3 {w 3 div} def 584 929 631 914 724 880 818 745 4 { m21} R 1 0 0 c 9 lw 0.95 0.95 0.95 c black 1 0 0 c 539 929 m 15 X 3 -1 d 6 X 4 -1 d 6 X 3 -1 d 3 X 3 -1 d 3 -1 d 3 X 3 -1 d 3 -1 d 3 -1 d 3 X 3
 -1 d 3 -1 d 3 -1 d 3 -1 d 4 -1 d 3 -1 d 3 -1 d 3 -1 d 3 -2 d 3 -1 d 3 -1 d 3 -1 d 3 -2 d 3 -1 d 3 -2 d 3 -1 d 3 -2 d 3 -1 d 3 -2 d 3 -2 d 3 -1 d 4 -2 d 3 -2 d 3 -2 d 3 -1 d 3 -2 d 3 -2 d 3 -2 d 3 -2 d s 689 879 m 3 -2 d 3 -2 d 3 -3 d 3 -2 d 3 -2 d 3
 -2 d 3 -2 d 3 -3 d 4 -2 d 3 -3 d 3 -2 d 3 -3 d 3 -2 d 3 -3 d 3 -2 d 3 -3 d 3 -3 d 3 -3 d 3 -2 d 3 -3 d 3 -3 d 3 -3 d 3 -3 d 3 -3 d 4 -3 d 3 -3 d 3 -3 d 3 -3 d 3 -4 d 3 -3 d 3 -3 d 3 -4 d 3 -3 d 3 -3 d 3 -4 d 3 -3 d 3 -4 d 3 -3 d 3 -4 d 3 -4 d 4 -3 d
 3 -4 d 3 -4 d 3 -4 d 3 -4 d 3 -4 d 3 -4 d 3 -4 d 3 -4 d s 839 729 m 3 -4 d s 0.49 0.6 0.82 c black 0.49 0.6 0.82 c
 gsave  408 305 476 677 C 595.418 960.076 t 0 r /Helvetica-Bold findfont 25.6831 sf 0 0 m (3.0 < E < 3.5 GeV) show NC gr  0.52 0.76 0.64 c black 0.52 0.76 0.64 c
 gsave  408 305 476 677 C 575.476 923.04 t 0 r /Helvetica-Bold findfont 25.6831 sf 0 0 m 
 228 214 200 193 178 171 156 149 133 126 119 105 91 76 69 55 47 39 25 17
(A = \2550.016, p = 2.000) K NC gr  1 0.6 1 c black 1 0.6 1 c
 gsave  408 305 476 677 C 883.156 783.445 t 90 r /Helvetica-Bold findfont 28.5368 sf 0 0 m (/dof=24.9) show NC gr  black 1 0.6 1 c
 gsave  408 305 476 677 C 871.76 772.049 t 90 r /Helvetica-Bold findfont 19.9758 sf 0 0 m (2) show NC gr  black 1 0.6 1 c
 gsave  408 305 476 677 C 883.156 754.956 t 90 r /Symbol findfont 28.5368 sf 0 0 m (c) show NC gr  black 3 lw 1 1 1 c 408 305 930 677 bf black 1 1 1 c black 306 229 991 723 bl 306 229 991 723 bl 991 723 m 306 X s 991 727 m -4 Y s 1084 727 m -4 Y s
 1178 727 m -4 Y s 1271 727 m -4 Y s 1271 727 m -4 Y s
 gsave  408 305 930 677 C 980.018 703.676 t 0 r /Helvetica findfont 22.8295 sf 0 0 m (0) show NC gr 
 gsave  408 305 930 677 C 1076.88 703.676 t 0 r /Helvetica findfont 22.8295 sf 0 0 m (1) show NC gr 
 gsave  408 305 930 677 C 1168.04 703.676 t 0 r /Helvetica findfont 22.8295 sf 0 0 m (2) show NC gr 
 gsave  408 305 930 677 C 1262.06 703.676 t 0 r /Helvetica findfont 22.8295 sf 0 0 m (3) show NC gr  991 952 m 306 X s 991 948 m 4 Y s 1084 948 m 4 Y s 1178 948 m 4 Y s 1271 948 m 4 Y s 1271 948 m 4 Y s 991 723 m 229 Y s 997 745 m -6 X s 994 751 m -3
 X s 994 757 m -3 X s 994 763 m -3 X s 997 769 m -6 X s 994 775 m -3 X s 994 781 m -3 X s 994 787 m -3 X s 997 793 m -6 X s 994 799 m -3 X s 994 805 m -3 X s 994 810 m -3 X s 997 816 m -6 X s 994 822 m -3 X s 994 828 m -3 X s 994 834 m -3 X s 997 840
 m -6 X s 994 846 m -3 X s 994 852 m -3 X s 994 858 m -3 X s 997 864 m -6 X s 994 870 m -3 X s 994 875 m -3 X s 994 881 m -3 X s 997 887 m -6 X s 994 893 m -3 X s 994 899 m -3 X s 994 905 m -3 X s 997 911 m -6 X s 994 917 m -3 X s 994 923 m -3 X s
 994 929 m -3 X s 997 935 m -6 X s 997 745 m -6 X s 994 740 m -3 X s 994 734 m -3 X s 994 728 m -3 X s 997 935 m -6 X s 994 941 m -3 X s 994 946 m -3 X s
 gsave  408 305 930 677 C 937.285 737.863 t 0 r /Helvetica findfont 22.8295 sf 0 0 m (\2550.16) show NC gr 
 gsave  408 305 930 677 C 937.285 760.654 t 0 r /Helvetica findfont 22.8295 sf 0 0 m (\2550.14) show NC gr 
 gsave  408 305 930 677 C 937.285 786.294 t 0 r /Helvetica findfont 22.8295 sf 0 0 m (\2550.12) show NC gr 
 gsave  408 305 930 677 C 951.529 809.085 t 0 r /Helvetica findfont 22.8295 sf 0 0 m (\2550.1) show NC gr 
 gsave  408 305 930 677 C 937.285 831.876 t 0 r /Helvetica findfont 22.8295 sf 0 0 m (\2550.08) show NC gr 
 gsave  408 305 930 677 C 937.285 857.516 t 0 r /Helvetica findfont 22.8295 sf 0 0 m (\2550.06) show NC gr 
 gsave  408 305 930 677 C 937.285 880.307 t 0 r /Helvetica findfont 22.8295 sf 0 0 m (\2550.04) show NC gr 
 gsave  408 305 930 677 C 937.285 903.098 t 0 r /Helvetica findfont 22.8295 sf 0 0 m (\2550.02) show NC gr 
 gsave  408 305 930 677 C 974.32 928.738 t 0 r /Helvetica findfont 22.8295 sf 0 0 m (0) show NC gr  1297 723 m 229 Y s 1292 745 m 5 X s 1294 751 m 3 X s 1294 757 m 3 X s 1294 763 m 3 X s 1292 769 m 5 X s 1294 775 m 3 X s 1294 781 m 3 X s 1294 787 m 3
 X s 1292 793 m 5 X s 1294 799 m 3 X s 1294 805 m 3 X s 1294 810 m 3 X s 1292 816 m 5 X s 1294 822 m 3 X s 1294 828 m 3 X s 1294 834 m 3 X s 1292 840 m 5 X s 1294 846 m 3 X s 1294 852 m 3 X s 1294 858 m 3 X s 1292 864 m 5 X s 1294 870 m 3 X s 1294
 875 m 3 X s 1294 881 m 3 X s 1292 887 m 5 X s 1294 893 m 3 X s 1294 899 m 3 X s 1294 905 m 3 X s 1292 911 m 5 X s 1294 917 m 3 X s 1294 923 m 3 X s 1294 929 m 3 X s 1292 935 m 5 X s 1292 745 m 5 X s 1294 740 m 3 X s 1294 734 m 3 X s 1294 728 m 3 X s
 1292 935 m 5 X s 1294 941 m 3 X s 1294 946 m 3 X s 1038 928 1084 927 1178 886 1271 746 4 { m21} R 1 0 0 c 9 lw 0.95 0.95 0.95 c black 1 0 0 c 993 935 m 3 X 3 -1 d 12 X 3 -1 d 6 X 3 -1 d 3 X 3 -1 d 3 X 3 -1 d 3 X 4 -1 d 3 -1 d 3 -1 d 3 X 3 -1 d 3 -1
 d 3 -1 d 3 -1 d 3 -1 d 3 -1 d 3 -1 d 3 -1 d 3 -1 d 3 -2 d 3 -1 d 3 -1 d 3 -2 d 4 -1 d 3 -1 d 3 -2 d 3 -1 d 3 -2 d 3 -1 d 3 -2 d 3 -2 d 3 -2 d 3 -1 d 3 -2 d 3 -2 d 3 -2 d 3 -2 d 3 -2 d 3 -2 d 4 -2 d s 1143 883 m 3 -2 d 3 -2 d 3 -2 d 3 -2 d 3 -3 d 3
 -2 d 3 -2 d 3 -3 d 3 -2 d 3 -3 d 3 -2 d 3 -3 d 3 -2 d 3 -3 d 3 -3 d 4 -2 d 3 -3 d 3 -3 d 3 -3 d 3 -3 d 3 -3 d 3 -3 d 3 -3 d 3 -3 d 3 -3 d 3 -3 d 3 -3 d 3 -3 d 3 -4 d 3 -3 d 3 -3 d 3 -4 d 4 -3 d 3 -4 d 3 -3 d 3 -4 d 3 -3 d 3 -4 d 3 -4 d 3 -3 d 3 -4 d
 3 -4 d 3 -4 d 3 -4 d 3 -4 d 3 -4 d 3 -4 d 3 -4 d 4 -4 d s 1293 731 m 3 -4 d s 0.49 0.6 0.82 c black 0.49 0.6 0.82 c
 gsave  408 305 930 677 C 1051.24 960.076 t 0 r /Helvetica-Bold findfont 25.6831 sf 0 0 m (3.5 < E < 4.0 GeV) show NC gr  0.52 0.76 0.64 c black 0.52 0.76 0.64 c
 gsave  408 305 930 677 C 1031.3 923.04 t 0 r /Helvetica-Bold findfont 25.6831 sf 0 0 m 
 228 214 200 193 178 171 156 149 133 126 119 105 91 77 69 55 47 39 25 17
(A = \2550.017, p = 2.000) K NC gr  1 0.6 1 c black 1 0.6 1 c
 gsave  408 305 930 677 C 1336.13 783.445 t 90 r /Helvetica-Bold findfont 28.5368 sf 0 0 m (/dof=19.3) show NC gr  black 1 0.6 1 c
 gsave  408 305 930 677 C 1324.73 772.049 t 90 r /Helvetica-Bold findfont 19.9758 sf 0 0 m (2) show NC gr  black 1 0.6 1 c
 gsave  408 305 930 677 C 1336.13 754.956 t 90 r /Symbol findfont 28.5368 sf 0 0 m (c) show NC gr  black 3 lw 1 1 1 c 408 305 1383 677 bf black 1 1 1 c black 306 229 1445 723 bl 306 229 1445 723 bl 1445 723 m 306 X s 1445 727 m -4 Y s 1538 727 m -4 Y
 s 1631 727 m -4 Y s 1725 727 m -4 Y s 1725 727 m -4 Y s
 gsave  408 305 1383 677 C 1435.84 703.676 t 0 r /Helvetica findfont 22.8295 sf 0 0 m (0) show NC gr 
 gsave  408 305 1383 677 C 1529.85 703.676 t 0 r /Helvetica findfont 22.8295 sf 0 0 m (1) show NC gr 
 gsave  408 305 1383 677 C 1621.02 703.676 t 0 r /Helvetica findfont 22.8295 sf 0 0 m (2) show NC gr 
 gsave  408 305 1383 677 C 1715.03 703.676 t 0 r /Helvetica findfont 22.8295 sf 0 0 m (3) show NC gr  1445 952 m 306 X s 1445 948 m 4 Y s 1538 948 m 4 Y s 1631 948 m 4 Y s 1725 948 m 4 Y s 1725 948 m 4 Y s 1445 723 m 229 Y s 1450 728 m -5 X s 1447
 735 m -2 X s 1447 742 m -2 X s 1447 749 m -2 X s 1450 756 m -5 X s 1447 763 m -2 X s 1447 771 m -2 X s 1447 778 m -2 X s 1450 785 m -5 X s 1447 792 m -2 X s 1447 799 m -2 X s 1447 806 m -2 X s 1450 813 m -5 X s 1447 821 m -2 X s 1447 828 m -2 X s
 1447 835 m -2 X s 1450 842 m -5 X s 1447 849 m -2 X s 1447 856 m -2 X s 1447 863 m -2 X s 1450 870 m -5 X s 1447 878 m -2 X s 1447 885 m -2 X s 1447 892 m -2 X s 1450 899 m -5 X s 1447 906 m -2 X s 1447 913 m -2 X s 1447 920 m -2 X s 1450 927 m -5 X
 s 1450 728 m -5 X s 1450 927 m -5 X s 1447 935 m -2 X s 1447 942 m -2 X s 1447 949 m -2 X s
 gsave  408 305 1383 677 C 1390.26 720.769 t 0 r /Helvetica findfont 22.8295 sf 0 0 m (\2550.14) show NC gr 
 gsave  408 305 1383 677 C 1390.26 749.258 t 0 r /Helvetica findfont 22.8295 sf 0 0 m (\2550.12) show NC gr 
 gsave  408 305 1383 677 C 1404.5 777.747 t 0 r /Helvetica findfont 22.8295 sf 0 0 m (\2550.1) show NC gr 
 gsave  408 305 1383 677 C 1390.26 806.236 t 0 r /Helvetica findfont 22.8295 sf 0 0 m (\2550.08) show NC gr 
 gsave  408 305 1383 677 C 1390.26 834.725 t 0 r /Helvetica findfont 22.8295 sf 0 0 m (\2550.06) show NC gr 
 gsave  408 305 1383 677 C 1390.26 863.214 t 0 r /Helvetica findfont 22.8295 sf 0 0 m (\2550.04) show NC gr 
 gsave  408 305 1383 677 C 1390.26 891.703 t 0 r /Helvetica findfont 22.8295 sf 0 0 m (\2550.02) show NC gr 
 gsave  408 305 1383 677 C 1427.29 920.192 t 0 r /Helvetica findfont 22.8295 sf 0 0 m (0) show NC gr  1751 723 m 229 Y s 1745 728 m 6 X s 1748 735 m 3 X s 1748 742 m 3 X s 1748 749 m 3 X s 1745 756 m 6 X s 1748 763 m 3 X s 1748 771 m 3 X s 1748 778 m
 3 X s 1745 785 m 6 X s 1748 792 m 3 X s 1748 799 m 3 X s 1748 806 m 3 X s 1745 813 m 6 X s 1748 821 m 3 X s 1748 828 m 3 X s 1748 835 m 3 X s 1745 842 m 6 X s 1748 849 m 3 X s 1748 856 m 3 X s 1748 863 m 3 X s 1745 870 m 6 X s 1748 878 m 3 X s 1748
 885 m 3 X s 1748 892 m 3 X s 1745 899 m 6 X s 1748 906 m 3 X s 1748 913 m 3 X s 1748 920 m 3 X s 1745 927 m 6 X s 1745 728 m 6 X s 1745 927 m 6 X s 1748 935 m 3 X s 1748 942 m 3 X s 1748 949 m 3 X s 1491 925 1538 920 1631 872 1725 749 4 { m21} R 1 0
 0 c 9 lw 0.95 0.95 0.95 c black 1 0 0 c 1446 927 m 18 X 3 -1 d 7 X 3 -1 d 3 X 3 -1 d 3 X 3 -1 d 3 X 3 -1 d 3 -1 d 3 X 3 -1 d 3 -1 d 3 -1 d 3 -1 d 3 -1 d 4 -1 d 3 -1 d 3 -1 d 3 -1 d 3 -1 d 3 -1 d 3 -1 d 3 -2 d 3 -1 d 3 -1 d 3 -2 d 3 -1 d 3 -1 d 3 -2
 d 3 -1 d 3 -2 d 4 -2 d 3 -1 d 3 -2 d 3 -2 d 3 -2 d 3 -1 d 3 -2 d 3 -2 d 3 -2 d 3 -2 d s 1596 878 m 3 -2 d 3 -2 d 3 -2 d 3 -2 d 3 -2 d 3 -3 d 4 -2 d 3 -2 d 3 -3 d 3 -2 d 3 -2 d 3 -3 d 3 -2 d 3 -3 d 3 -2 d 3 -3 d 3 -3 d 3 -2 d 3 -3 d 3 -3 d 3 -3 d 3
 -3 d 3 -3 d 4 -3 d 3 -3 d 3 -3 d 3 -3 d 3 -3 d 3 -3 d 3 -3 d 3 -3 d 3 -4 d 3 -3 d 3 -3 d 3 -4 d 3 -3 d 3 -4 d 3 -3 d 3 -4 d 4 -3 d 3 -4 d 3 -3 d 3 -4 d 3 -4 d 3 -4 d 3 -4 d 3 -3 d 3 -4 d 3 -4 d s 1746 732 m 3 -4 d s 0.49 0.6 0.82 c black 0.49 0.6
 0.82 c
 gsave  408 305 1383 677 C 1504.21 960.076 t 0 r /Helvetica-Bold findfont 25.6831 sf 0 0 m (4.0 < E < 4.5 GeV) show NC gr  0.52 0.76 0.64 c black 0.52 0.76 0.64 c
 gsave  408 305 1383 677 C 1484.27 923.04 t 0 r /Helvetica-Bold findfont 25.6831 sf 0 0 m 
 228 214 200 193 178 171 156 149 134 126 119 105 91 77 69 55 47 40 25 17
(A = \2550.013, p = 2.000) K NC gr  1 0.6 1 c black 1 0.6 1 c
 gsave  408 305 1383 677 C 1789.1 791.991 t 90 r /Helvetica-Bold findfont 28.5368 sf 0 0 m (/dof=3.7) show NC gr  black 1 0.6 1 c
 gsave  408 305 1383 677 C 1777.71 780.596 t 90 r /Helvetica-Bold findfont 19.9758 sf 0 0 m (2) show NC gr  black 1 0.6 1 c
 gsave  408 305 1383 677 C 1789.1 763.503 t 90 r /Symbol findfont 28.5368 sf 0 0 m (c) show NC gr  black 3 lw 1 1 1 c 408 305 1837 677 bf black 1 1 1 c black 306 229 1898 723 bl 306 229 1898 723 bl 1898 723 m 306 X s 1898 727 m -4 Y s 1992 727 m -4 Y
 s 2085 727 m -4 Y s 2179 727 m -4 Y s 2179 727 m -4 Y s
 gsave  408 305 1837 677 C 1888.81 703.676 t 0 r /Helvetica findfont 22.8295 sf 0 0 m (0) show NC gr 
 gsave  408 305 1837 677 C 1985.68 703.676 t 0 r /Helvetica findfont 22.8295 sf 0 0 m (1) show NC gr 
 gsave  408 305 1837 677 C 2073.99 703.676 t 0 r /Helvetica findfont 22.8295 sf 0 0 m (2) show NC gr 
 gsave  408 305 1837 677 C 2168.01 703.676 t 0 r /Helvetica findfont 22.8295 sf 0 0 m (3) show NC gr  1898 952 m 306 X s 1898 948 m 4 Y s 1992 948 m 4 Y s 2085 948 m 4 Y s 2179 948 m 4 Y s 2179 948 m 4 Y s 1898 723 m 229 Y s 1904 743 m -6 X s 1901
 752 m -3 X s 1901 762 m -3 X s 1901 771 m -3 X s 1904 780 m -6 X s 1901 789 m -3 X s 1901 798 m -3 X s 1901 807 m -3 X s 1904 816 m -6 X s 1901 825 m -3 X s 1901 834 m -3 X s 1901 843 m -3 X s 1904 852 m -6 X s 1901 861 m -3 X s 1901 870 m -3 X s
 1901 879 m -3 X s 1904 888 m -6 X s 1901 897 m -3 X s 1901 906 m -3 X s 1901 915 m -3 X s 1904 924 m -6 X s 1904 743 m -6 X s 1901 734 m -3 X s 1901 725 m -3 X s 1904 924 m -6 X s 1901 934 m -3 X s 1901 943 m -3 X s 1901 952 m -3 X s
 gsave  408 305 1837 677 C 1843.23 735.014 t 0 r /Helvetica findfont 22.8295 sf 0 0 m (\2550.08) show NC gr 
 gsave  408 305 1837 677 C 1843.23 772.049 t 0 r /Helvetica findfont 22.8295 sf 0 0 m (\2550.06) show NC gr 
 gsave  408 305 1837 677 C 1843.23 809.085 t 0 r /Helvetica findfont 22.8295 sf 0 0 m (\2550.04) show NC gr 
 gsave  408 305 1837 677 C 1843.23 846.12 t 0 r /Helvetica findfont 22.8295 sf 0 0 m (\2550.02) show NC gr 
 gsave  408 305 1837 677 C 1880.27 880.307 t 0 r /Helvetica findfont 22.8295 sf 0 0 m (0) show NC gr 
 gsave  408 305 1837 677 C 1848.93 917.343 t 0 r /Helvetica findfont 22.8295 sf 0 0 m (0.02) show NC gr  2204 723 m 229 Y s 2199 743 m 5 X s 2201 752 m 3 X s 2201 762 m 3 X s 2201 771 m 3 X s 2199 780 m 5 X s 2201 789 m 3 X s 2201 798 m 3 X s 2201
 807 m 3 X s 2199 816 m 5 X s 2201 825 m 3 X s 2201 834 m 3 X s 2201 843 m 3 X s 2199 852 m 5 X s 2201 861 m 3 X s 2201 870 m 3 X s 2201 879 m 3 X s 2199 888 m 5 X s 2201 897 m 3 X s 2201 906 m 3 X s 2201 915 m 3 X s 2199 924 m 5 X s 2199 743 m 5 X s
 2201 734 m 3 X s 2201 725 m 3 X s 2199 924 m 5 X s 2201 934 m 3 X s 2201 943 m 3 X s 2201 952 m 3 X s 1945 897 1992 919 2085 851 2179 755 4 { m21} R 1945 908 m 2 Y s 1939 910 m 12 X s 1945 885 m -2 Y s 1939 883 m 12 X s 1992 931 m 2 Y s 1986 933 m
 11 X s 1992 908 m -2 Y s 1986 906 m 11 X s 2085 862 m 2 Y s 2079 864 m 12 X s 2085 839 m -1 Y s 2079 838 m 12 X s 2179 766 m 2 Y s 2173 768 m 11 X s 2179 743 m -1 Y s 2173 742 m 11 X s 1 0 0 c 9 lw 0.95 0.95 0.95 c black 1 0 0 c 1900 888 m 18 X 3 -1
 d 9 X 3 -1 d 6 X 3 -1 d 4 X 3 -1 d 3 X 3 -1 d 3 X 3 -1 d 3 X 3 -1 d 3 -1 d 3 X 3 -1 d 3 -1 d 3 -1 d 3 -1 d 3 X 3 -1 d 4 -1 d 3 -1 d 3 -1 d 3 -1 d 3 -1 d 3 -1 d 3 -1 d 3 -1 d 3 -1 d 3 -2 d 3 -1 d 3 -1 d 3 -1 d 3 -2 d 3 -1 d 3 -1 d 3 -2 d 4 -1 d 3 -1
 d s 2050 853 m 3 -2 d 3 -1 d 3 -2 d 3 -1 d 3 -2 d 3 -1 d 3 -2 d 3 -2 d 3 -1 d 3 -2 d 3 -2 d 3 -2 d 3 -1 d 3 -2 d 4 -2 d 3 -2 d 3 -2 d 3 -2 d 3 -2 d 3 -2 d 3 -2 d 3 -2 d 3 -2 d 3 -2 d 3 -2 d 3 -3 d 3 -2 d 3 -2 d 3 -2 d 3 -3 d 4 -2 d 3 -2 d 3 -3 d 3
 -2 d 3 -2 d 3 -3 d 3 -2 d 3 -3 d 3 -3 d 3 -2 d 3 -3 d 3 -2 d 3 -3 d 3 -3 d 3 -2 d 3 -3 d 4 -3 d 3 -3 d 3 -3 d s 2200 747 m 3 -3 d s 0.49 0.6 0.82 c black 0.49 0.6 0.82 c
 gsave  408 305 1837 677 C 1957.19 960.076 t 0 r /Helvetica-Bold findfont 25.6831 sf 0 0 m (4.5 < E < 5.0 GeV) show NC gr  0.52 0.76 0.64 c black 0.52 0.76 0.64 c
 gsave  408 305 1837 677 C 1937.25 923.04 t 0 r /Helvetica-Bold findfont 25.6831 sf 0 0 m 
 228 214 200 193 178 171 156 149 133 126 119 105 91 77 69 55 47 39 25 17
(A = \2550.007, p = 2.000) K NC gr  1 0.6 1 c black 1 0.6 1 c
 gsave  408 305 1837 677 C 2242.08 791.991 t 90 r /Helvetica-Bold findfont 28.5368 sf 0 0 m (/dof=4.6) show NC gr  black 1 0.6 1 c
 gsave  408 305 1837 677 C 2230.68 780.596 t 90 r /Helvetica-Bold findfont 19.9758 sf 0 0 m (2) show NC gr  black 1 0.6 1 c
 gsave  408 305 1837 677 C 2242.08 763.503 t 90 r /Symbol findfont 28.5368 sf 0 0 m (c) show NC gr  black 3 lw 1 1 1 c 408 306 23 345 bf black 1 1 1 c black 306 229 84 391 bl 306 229 84 391 bl 84 391 m 306 X s 84 395 m -4 Y s 177 395 m -4 Y s 271 395
 m -4 Y s 364 395 m -4 Y s 364 395 m -4 Y s
 gsave  408 306 23 345 C 74.0711 370.356 t 0 r /Helvetica findfont 22.8295 sf 0 0 m (0) show NC gr 
 gsave  408 306 23 345 C 170.933 370.356 t 0 r /Helvetica findfont 22.8295 sf 0 0 m (1) show NC gr 
 gsave  408 306 23 345 C 262.098 370.356 t 0 r /Helvetica findfont 22.8295 sf 0 0 m (2) show NC gr 
 gsave  408 306 23 345 C 353.262 370.356 t 0 r /Helvetica findfont 22.8295 sf 0 0 m (3) show NC gr  84 620 m 306 X s 84 616 m 4 Y s 177 616 m 4 Y s 271 616 m 4 Y s 364 616 m 4 Y s 364 616 m 4 Y s 84 391 m 229 Y s 89 411 m -5 X s 87 418 m -3 X s 87
 425 m -3 X s 87 432 m -3 X s 87 439 m -3 X s 89 447 m -5 X s 87 454 m -3 X s 87 461 m -3 X s 87 468 m -3 X s 87 475 m -3 X s 89 482 m -5 X s 87 489 m -3 X s 87 496 m -3 X s 87 503 m -3 X s 87 510 m -3 X s 89 517 m -5 X s 87 524 m -3 X s 87 531 m -3
 X s 87 538 m -3 X s 87 545 m -3 X s 89 552 m -5 X s 87 559 m -3 X s 87 566 m -3 X s 87 573 m -3 X s 87 580 m -3 X s 89 587 m -5 X s 89 411 m -5 X s 87 404 m -3 X s 87 397 m -3 X s 89 587 m -5 X s 87 594 m -3 X s 87 601 m -3 X s 87 608 m -3 X s 87
 615 m -3 X s
 gsave  408 306 23 345 C 28.4889 404.542 t 0 r /Helvetica findfont 22.8295 sf 0 0 m (\2550.04) show NC gr 
 gsave  408 306 23 345 C 28.4889 438.729 t 0 r /Helvetica findfont 22.8295 sf 0 0 m (\2550.03) show NC gr 
 gsave  408 306 23 345 C 28.4889 475.765 t 0 r /Helvetica findfont 22.8295 sf 0 0 m (\2550.02) show NC gr 
 gsave  408 306 23 345 C 31.3378 509.951 t 0 r /Helvetica findfont 22.8295 sf 0 0 m (\2550.01) show NC gr 
 gsave  408 306 23 345 C 65.5245 544.138 t 0 r /Helvetica findfont 22.8295 sf 0 0 m (0) show NC gr 
 gsave  408 306 23 345 C 37.0356 581.174 t 0 r /Helvetica findfont 22.8295 sf 0 0 m (0.01) show NC gr  390 391 m 229 Y s 385 411 m 5 X s 387 418 m 3 X s 387 425 m 3 X s 387 432 m 3 X s 387 439 m 3 X s 385 447 m 5 X s 387 454 m 3 X s 387 461 m 3 X s
 387 468 m 3 X s 387 475 m 3 X s 385 482 m 5 X s 387 489 m 3 X s 387 496 m 3 X s 387 503 m 3 X s 387 510 m 3 X s 385 517 m 5 X s 387 524 m 3 X s 387 531 m 3 X s 387 538 m 3 X s 387 545 m 3 X s 385 552 m 5 X s 387 559 m 3 X s 387 566 m 3 X s 387 573 m
 3 X s 387 580 m 3 X s 385 587 m 5 X s 385 411 m 5 X s 387 404 m 3 X s 387 397 m 3 X s 385 587 m 5 X s 387 594 m 3 X s 387 601 m 3 X s 387 608 m 3 X s 387 615 m 3 X s /w 22 def /w2 {w 2 div} def /w3 {w 3 div} def 131 566 177 563 271 547 364 444 4 {
 m21} R 131 578 m 23 Y s 125 601 m 11 X s 131 555 m -24 Y s 125 531 m 11 X s 177 574 m 23 Y s 172 597 m 11 X s 177 551 m -23 Y s 172 528 m 11 X s 271 559 m 23 Y s 265 582 m 12 X s 271 536 m -23 Y s 265 513 m 12 X s 364 455 m 22 Y s 359 477 m 11 X s
 364 432 m -22 Y s 359 410 m 11 X s 1 0 0 c 9 lw 0.95 0.95 0.95 c black 1 0 0 c 85 552 m 16 X 3 -1 d 12 X 3 -1 d 9 X 3 -1 d 6 X 4 -1 d 3 X 3 -1 d 3 X 3 -1 d 3 X 3 -1 d 3 X 3 -1 d 3 X 3 -1 d 3 X 3 -1 d 3 -1 d 3 X 3 -1 d 4 -1 d 3 -1 d 3 X 3 -1 d 3 -1 d
 3 -1 d 3 -1 d 3 -1 d 3 -1 d 3 X 3 -1 d 3 -1 d 3 -1 d 3 -1 d 3 -1 d 3 -2 d s 235 525 m 4 -1 d 3 -1 d 3 -1 d 3 -1 d 3 -1 d 3 -1 d 3 -1 d 3 -2 d 3 -1 d 3 -1 d 3 -2 d 3 -1 d 3 -1 d 3 -2 d 3 -1 d 3 -1 d 3 -2 d 4 -1 d 3 -2 d 3 -1 d 3 -2 d 3 -1 d 3 -2 d 3
 -1 d 3 -2 d 3 -1 d 3 -2 d 3 -2 d 3 -1 d 3 -2 d 3 -2 d 3 -2 d 3 -1 d 4 -2 d 3 -2 d 3 -2 d 3 -2 d 3 -2 d 3 -1 d 3 -2 d 3 -2 d 3 -2 d 3 -2 d 3 -2 d 3 -2 d 3 -2 d 3 -2 d 3 -2 d 3 -3 d s 385 447 m 4 -2 d s 0.49 0.6 0.82 c black 0.49 0.6 0.82 c
 gsave  408 306 23 345 C 142.445 629.605 t 0 r /Helvetica-Bold findfont 25.6831 sf 0 0 m (5.0 < E < 5.5 GeV) show NC gr  0.52 0.76 0.64 c black 0.52 0.76 0.64 c
 gsave  408 306 23 345 C 122.502 592.569 t 0 r /Helvetica-Bold findfont 25.6831 sf 0 0 m 
 228 214 200 193 178 171 156 149 134 126 119 105 91 77 69 55 47 39 25 17
(A = \2550.003, p = 2.000) K NC gr  1 0.6 1 c black 1 0.6 1 c
 gsave  408 306 23 345 C 427.334 458.671 t 90 r /Helvetica-Bold findfont 28.5368 sf 0 0 m (/dof=0.7) show NC gr  black 1 0.6 1 c
 gsave  408 306 23 345 C 415.938 447.276 t 90 r /Helvetica-Bold findfont 19.9758 sf 0 0 m (2) show NC gr  black 1 0.6 1 c
 gsave  408 306 23 345 C 427.334 430.182 t 90 r /Symbol findfont 28.5368 sf 0 0 m (c) show NC gr  black 3 lw 1 1 1 c 408 306 476 345 bf black 1 1 1 c black 307 229 537 391 bl 307 229 537 391 bl 537 391 m 307 X s 537 395 m -4 Y s 631 395 m -4 Y s 724
 395 m -4 Y s 818 395 m -4 Y s 818 395 m -4 Y s
 gsave  408 306 476 345 C 527.045 370.356 t 0 r /Helvetica findfont 22.8295 sf 0 0 m (0) show NC gr 
 gsave  408 306 476 345 C 623.907 370.356 t 0 r /Helvetica findfont 22.8295 sf 0 0 m (1) show NC gr 
 gsave  408 306 476 345 C 715.071 370.356 t 0 r /Helvetica findfont 22.8295 sf 0 0 m (2) show NC gr 
 gsave  408 306 476 345 C 809.085 370.356 t 0 r /Helvetica findfont 22.8295 sf 0 0 m (3) show NC gr  537 620 m 307 X s 537 616 m 4 Y s 631 616 m 4 Y s 724 616 m 4 Y s 818 616 m 4 Y s 818 616 m 4 Y s 537 391 m 229 Y s 543 391 m -6 X s 540 396 m -3 X s
 540 401 m -3 X s 540 406 m -3 X s 540 411 m -3 X s 543 416 m -6 X s 540 420 m -3 X s 540 425 m -3 X s 540 430 m -3 X s 540 435 m -3 X s 543 440 m -6 X s 540 445 m -3 X s 540 450 m -3 X s 540 455 m -3 X s 540 460 m -3 X s 543 464 m -6 X s 540 469 m
 -3 X s 540 474 m -3 X s 540 479 m -3 X s 540 484 m -3 X s 543 489 m -6 X s 540 494 m -3 X s 540 499 m -3 X s 540 503 m -3 X s 540 508 m -3 X s 543 513 m -6 X s 540 518 m -3 X s 540 523 m -3 X s 540 528 m -3 X s 540 533 m -3 X s 543 538 m -6 X s 540
 543 m -3 X s 540 547 m -3 X s 540 552 m -3 X s 540 557 m -3 X s 543 562 m -6 X s 540 567 m -3 X s 540 572 m -3 X s 540 577 m -3 X s 540 582 m -3 X s 543 587 m -6 X s 540 591 m -3 X s 540 596 m -3 X s 540 601 m -3 X s 540 606 m -3 X s 543 611 m -6 X
 s 543 391 m -6 X s 543 611 m -6 X s 540 616 m -3 X s
 gsave  408 306 476 345 C 467.218 384.6 t 0 r /Helvetica findfont 22.8295 sf 0 0 m (\2550.005) show NC gr 
 gsave  408 306 476 345 C 518.498 407.391 t 0 r /Helvetica findfont 22.8295 sf 0 0 m (0) show NC gr 
 gsave  408 306 476 345 C 475.765 433.031 t 0 r /Helvetica findfont 22.8295 sf 0 0 m (0.005) show NC gr 
 gsave  408 306 476 345 C 490.009 458.671 t 0 r /Helvetica findfont 22.8295 sf 0 0 m (0.01) show NC gr 
 gsave  408 306 476 345 C 475.765 481.462 t 0 r /Helvetica findfont 22.8295 sf 0 0 m (0.015) show NC gr 
 gsave  408 306 476 345 C 487.16 507.102 t 0 r /Helvetica findfont 22.8295 sf 0 0 m (0.02) show NC gr 
 gsave  408 306 476 345 C 475.765 529.894 t 0 r /Helvetica findfont 22.8295 sf 0 0 m (0.025) show NC gr 
 gsave  408 306 476 345 C 487.16 555.534 t 0 r /Helvetica findfont 22.8295 sf 0 0 m (0.03) show NC gr 
 gsave  408 306 476 345 C 475.765 578.325 t 0 r /Helvetica findfont 22.8295 sf 0 0 m (0.035) show NC gr 
 gsave  408 306 476 345 C 487.16 603.965 t 0 r /Helvetica findfont 22.8295 sf 0 0 m (0.04) show NC gr  844 391 m 229 Y s 838 391 m 6 X s 841 396 m 3 X s 841 401 m 3 X s 841 406 m 3 X s 841 411 m 3 X s 838 416 m 6 X s 841 420 m 3 X s 841 425 m 3 X s
 841 430 m 3 X s 841 435 m 3 X s 838 440 m 6 X s 841 445 m 3 X s 841 450 m 3 X s 841 455 m 3 X s 841 460 m 3 X s 838 464 m 6 X s 841 469 m 3 X s 841 474 m 3 X s 841 479 m 3 X s 841 484 m 3 X s 838 489 m 6 X s 841 494 m 3 X s 841 499 m 3 X s 841 503 m
 3 X s 841 508 m 3 X s 838 513 m 6 X s 841 518 m 3 X s 841 523 m 3 X s 841 528 m 3 X s 841 533 m 3 X s 838 538 m 6 X s 841 543 m 3 X s 841 547 m 3 X s 841 552 m 3 X s 841 557 m 3 X s 838 562 m 6 X s 841 567 m 3 X s 841 572 m 3 X s 841 577 m 3 X s 841
 582 m 3 X s 838 587 m 6 X s 841 591 m 3 X s 841 596 m 3 X s 841 601 m 3 X s 841 606 m 3 X s 838 611 m 6 X s 838 391 m 6 X s 838 611 m 6 X s 841 616 m 3 X s /w 23 def /w2 {w 2 div} def /w3 {w 3 div} def 584 477 631 482 724 540 818 470 4 { m21} R 584
 489 m 49 Y s 578 538 m 12 X s 584 466 m -50 Y s 578 416 m 12 X s 631 493 m 50 Y s 625 543 m 12 X s 631 471 m -50 Y s 625 421 m 12 X s 724 551 m 50 Y s 719 601 m 11 X s 724 529 m -50 Y s 719 479 m 11 X s 818 482 m 49 Y s 812 531 m 12 X s 818 459 m
 -49 Y s 812 410 m 12 X s 9 lw 0.95 0.95 0.95 c black 539 416 m 3 1 d 3 1 d 3 2 d 3 1 d 3 1 d 3 1 d 3 1 d 3 1 d 4 2 d 3 1 d 3 1 d 3 1 d 3 1 d 3 1 d 3 2 d 3 1 d 3 1 d 3 1 d 3 1 d 3 1 d 3 2 d 3 1 d 3 1 d 3 1 d 4 1 d 3 1 d 3 2 d 3 1 d 3 1 d 3 1 d 3 1 d
 3 2 d 3 1 d 3 1 d 3 1 d 3 1 d 3 1 d 3 2 d 3 1 d 3 1 d 3 1 d 4 1 d 3 1 d 3 2 d 3 1 d 3 1 d 3 1 d 3 1 d 3 1 d s 689 473 m 3 2 d 3 1 d 3 1 d 3 1 d 3 1 d 3 1 d 3 2 d 3 1 d 4 1 d 3 1 d 3 1 d 3 1 d 3 2 d 3 1 d 3 1 d 3 1 d 3 1 d 3 1 d 3 2 d 3 1 d 3 1 d 3 1
 d 3 1 d 3 1 d 4 2 d 3 1 d 3 1 d 3 1 d 3 1 d 3 1 d 3 2 d 3 1 d 3 1 d 3 1 d 3 1 d 3 1 d 3 2 d 3 1 d 3 1 d 3 1 d 4 1 d 3 1 d 3 2 d 3 1 d 3 1 d 3 1 d 3 1 d 3 2 d 3 1 d s 839 531 m 3 1 d s 0.49 0.6 0.82 c black 0.49 0.6 0.82 c
 gsave  408 306 476 345 C 595.418 629.605 t 0 r /Helvetica-Bold findfont 25.6831 sf 0 0 m (5.5 < E < 6.0 GeV) show NC gr  0.52 0.76 0.64 c black 0.52 0.76 0.64 c
 gsave  408 306 476 345 C 581.174 592.569 t 0 r /Helvetica-Bold findfont 25.6831 sf 0 0 m 
 220 206 192 185 170 163 148 141 125 118 111 97 83 68 61 47 40 25 18
(A = 0.007, p = 1.000) K NC gr  1 0.6 1 c black 1 0.6 1 c
 gsave  408 306 476 345 C 883.156 458.671 t 90 r /Helvetica-Bold findfont 28.5368 sf 0 0 m (/dof=0.8) show NC gr  black 1 0.6 1 c
 gsave  408 306 476 345 C 871.76 447.276 t 90 r /Helvetica-Bold findfont 19.9758 sf 0 0 m (2) show NC gr  black 1 0.6 1 c
 gsave  408 306 476 345 C 883.156 430.182 t 90 r /Symbol findfont 28.5368 sf 0 0 m (c) show NC gr  black 3 lw 1 1 1 c 408 306 930 345 bf black 1 1 1 c black 306 229 991 391 bl 306 229 991 391 bl 991 391 m 306 X s 991 395 m -4 Y s 1084 395 m -4 Y s
 1178 395 m -4 Y s 1271 395 m -4 Y s 1271 395 m -4 Y s
 gsave  408 306 930 345 C 980.018 370.356 t 0 r /Helvetica findfont 22.8295 sf 0 0 m (0) show NC gr 
 gsave  408 306 930 345 C 1076.88 370.356 t 0 r /Helvetica findfont 22.8295 sf 0 0 m (1) show NC gr 
 gsave  408 306 930 345 C 1168.04 370.356 t 0 r /Helvetica findfont 22.8295 sf 0 0 m (2) show NC gr 
 gsave  408 306 930 345 C 1262.06 370.356 t 0 r /Helvetica findfont 22.8295 sf 0 0 m (3) show NC gr  991 620 m 306 X s 991 616 m 4 Y s 1084 616 m 4 Y s 1178 616 m 4 Y s 1271 616 m 4 Y s 1271 616 m 4 Y s 991 391 m 229 Y s 997 391 m -6 X s 994 397 m -3
 X s 994 403 m -3 X s 994 409 m -3 X s 994 415 m -3 X s 997 421 m -6 X s 994 427 m -3 X s 994 433 m -3 X s 994 438 m -3 X s 994 444 m -3 X s 997 450 m -6 X s 994 456 m -3 X s 994 462 m -3 X s 994 468 m -3 X s 994 474 m -3 X s 997 480 m -6 X s 994 486
 m -3 X s 994 492 m -3 X s 994 498 m -3 X s 994 504 m -3 X s 997 510 m -6 X s 994 516 m -3 X s 994 522 m -3 X s 994 528 m -3 X s 994 533 m -3 X s 997 539 m -6 X s 994 545 m -3 X s 994 551 m -3 X s 994 557 m -3 X s 994 563 m -3 X s 997 569 m -6 X s
 994 575 m -3 X s 994 581 m -3 X s 994 587 m -3 X s 994 593 m -3 X s 997 599 m -6 X s 997 599 m -6 X s 994 605 m -3 X s 994 611 m -3 X s 994 617 m -3 X s
 gsave  408 306 930 345 C 974.32 384.6 t 0 r /Helvetica findfont 22.8295 sf 0 0 m (0) show NC gr 
 gsave  408 306 930 345 C 931.587 413.089 t 0 r /Helvetica findfont 22.8295 sf 0 0 m (0.005) show NC gr 
 gsave  408 306 930 345 C 945.832 444.427 t 0 r /Helvetica findfont 22.8295 sf 0 0 m (0.01) show NC gr 
 gsave  408 306 930 345 C 931.587 472.916 t 0 r /Helvetica findfont 22.8295 sf 0 0 m (0.015) show NC gr 
 gsave  408 306 930 345 C 942.983 501.405 t 0 r /Helvetica findfont 22.8295 sf 0 0 m (0.02) show NC gr 
 gsave  408 306 930 345 C 931.587 532.742 t 0 r /Helvetica findfont 22.8295 sf 0 0 m (0.025) show NC gr 
 gsave  408 306 930 345 C 942.983 561.231 t 0 r /Helvetica findfont 22.8295 sf 0 0 m (0.03) show NC gr 
 gsave  408 306 930 345 C 931.587 592.569 t 0 r /Helvetica findfont 22.8295 sf 0 0 m (0.035) show NC gr  1297 391 m 229 Y s 1292 391 m 5 X s 1294 397 m 3 X s 1294 403 m 3 X s 1294 409 m 3 X s 1294 415 m 3 X s 1292 421 m 5 X s 1294 427 m 3 X s 1294
 433 m 3 X s 1294 438 m 3 X s 1294 444 m 3 X s 1292 450 m 5 X s 1294 456 m 3 X s 1294 462 m 3 X s 1294 468 m 3 X s 1294 474 m 3 X s 1292 480 m 5 X s 1294 486 m 3 X s 1294 492 m 3 X s 1294 498 m 3 X s 1294 504 m 3 X s 1292 510 m 5 X s 1294 516 m 3 X s
 1294 522 m 3 X s 1294 528 m 3 X s 1294 533 m 3 X s 1292 539 m 5 X s 1294 545 m 3 X s 1294 551 m 3 X s 1294 557 m 3 X s 1294 563 m 3 X s 1292 569 m 5 X s 1294 575 m 3 X s 1294 581 m 3 X s 1294 587 m 3 X s 1294 593 m 3 X s 1292 599 m 5 X s 1292 599 m
 5 X s 1294 605 m 3 X s 1294 611 m 3 X s 1294 617 m 3 X s 1038 509 1084 478 1178 480 1271 512 4 { m21} R 1038 521 m 75 Y s 1032 596 m 11 X s 1038 498 m -76 Y s 1032 422 m 11 X s 1084 490 m 76 Y s 1079 566 m 11 X s 1084 467 m -76 Y s 1079 391 m 11 X s
 1178 492 m 75 Y s 1172 567 m 12 X s 1178 469 m -75 Y s 1172 394 m 12 X s 1271 523 m 76 Y s 1266 599 m 11 X s 1271 500 m -76 Y s 1266 424 m 11 X s 9 lw 0.95 0.95 0.95 c black 993 392 m 3 1 d 3 2 d 3 2 d 3 1 d 3 2 d 3 1 d 3 2 d 3 1 d 3 2 d 3 2 d 3 1 d
 3 2 d 3 1 d 3 2 d 3 1 d 4 2 d 3 2 d 3 1 d 3 2 d 3 1 d 3 2 d 3 2 d 3 1 d 3 2 d 3 1 d 3 2 d 3 1 d 3 2 d 3 2 d 3 1 d 3 2 d 3 1 d 4 2 d 3 2 d 3 1 d 3 2 d 3 1 d 3 2 d 3 1 d 3 2 d 3 2 d 3 1 d 3 2 d 3 1 d 3 2 d 3 1 d 3 2 d 3 2 d 4 1 d s 1143 469 m 3 2 d 3
 1 d 3 2 d 3 2 d 3 1 d 3 2 d 3 1 d 3 2 d 3 1 d 3 2 d 3 2 d 3 1 d 3 2 d 3 1 d 3 2 d 4 1 d 3 2 d 3 2 d 3 1 d 3 2 d 3 1 d 3 2 d 3 2 d 3 1 d 3 2 d 3 1 d 3 2 d 3 1 d 3 2 d 3 2 d 3 1 d 3 2 d 4 1 d 3 2 d 3 2 d 3 1 d 3 2 d 3 1 d 3 2 d 3 1 d 3 2 d 3 2 d 3 1 d
 3 2 d 3 1 d 3 2 d 3 1 d 3 2 d 4 2 d s 1293 547 m 3 1 d s 0.49 0.6 0.82 c black 0.49 0.6 0.82 c
 gsave  408 306 930 345 C 1051.24 629.605 t 0 r /Helvetica-Bold findfont 25.6831 sf 0 0 m (6.0 < E < 6.5 GeV) show NC gr  0.52 0.76 0.64 c black 0.52 0.76 0.64 c
 gsave  408 306 930 345 C 1037 592.569 t 0 r /Helvetica-Bold findfont 25.6831 sf 0 0 m 
 220 206 192 185 170 163 148 141 125 118 111 97 83 69 61 47 40 25 18
(A = 0.008, p = 1.000) K NC gr  1 0.6 1 c black 1 0.6 1 c
 gsave  408 306 930 345 C 1336.13 458.671 t 90 r /Helvetica-Bold findfont 28.5368 sf 0 0 m (/dof=0.5) show NC gr  black 1 0.6 1 c
 gsave  408 306 930 345 C 1324.73 447.276 t 90 r /Helvetica-Bold findfont 19.9758 sf 0 0 m (2) show NC gr  black 1 0.6 1 c
 gsave  408 306 930 345 C 1336.13 430.182 t 90 r /Symbol findfont 28.5368 sf 0 0 m (c) show NC gr  black 3 lw 1 1 1 c 408 306 1383 345 bf black 1 1 1 c black 306 229 1445 391 bl 306 229 1445 391 bl 1445 391 m 306 X s 1445 395 m -4 Y s 1538 395 m -4 Y
 s 1631 395 m -4 Y s 1725 395 m -4 Y s 1725 395 m -4 Y s
 gsave  408 306 1383 345 C 1435.84 370.356 t 0 r /Helvetica findfont 22.8295 sf 0 0 m (0) show NC gr 
 gsave  408 306 1383 345 C 1529.85 370.356 t 0 r /Helvetica findfont 22.8295 sf 0 0 m (1) show NC gr 
 gsave  408 306 1383 345 C 1621.02 370.356 t 0 r /Helvetica findfont 22.8295 sf 0 0 m (2) show NC gr 
 gsave  408 306 1383 345 C 1715.03 370.356 t 0 r /Helvetica findfont 22.8295 sf 0 0 m (3) show NC gr  1445 620 m 306 X s 1445 616 m 4 Y s 1538 616 m 4 Y s 1631 616 m 4 Y s 1725 616 m 4 Y s 1725 616 m 4 Y s 1445 391 m 229 Y s 1450 416 m -5 X s 1447
 422 m -2 X s 1447 428 m -2 X s 1447 433 m -2 X s 1447 439 m -2 X s 1450 445 m -5 X s 1447 451 m -2 X s 1447 456 m -2 X s 1447 462 m -2 X s 1447 468 m -2 X s 1450 473 m -5 X s 1447 479 m -2 X s 1447 485 m -2 X s 1447 490 m -2 X s 1447 496 m -2 X s
 1450 502 m -5 X s 1447 507 m -2 X s 1447 513 m -2 X s 1447 519 m -2 X s 1447 524 m -2 X s 1450 530 m -5 X s 1447 536 m -2 X s 1447 541 m -2 X s 1447 547 m -2 X s 1447 553 m -2 X s 1450 558 m -5 X s 1447 564 m -2 X s 1447 570 m -2 X s 1447 576 m -2 X
 s 1447 581 m -2 X s 1450 587 m -5 X s 1447 593 m -2 X s 1447 598 m -2 X s 1447 604 m -2 X s 1447 610 m -2 X s 1450 615 m -5 X s 1450 416 m -5 X s 1447 411 m -2 X s 1447 405 m -2 X s 1447 399 m -2 X s 1447 394 m -2 X s 1450 615 m -5 X s
 gsave  408 306 1383 345 C 1390.26 410.24 t 0 r /Helvetica findfont 22.8295 sf 0 0 m (\2550.02) show NC gr 
 gsave  408 306 1383 345 C 1393.11 438.729 t 0 r /Helvetica findfont 22.8295 sf 0 0 m (\2550.01) show NC gr 
 gsave  408 306 1383 345 C 1427.29 467.218 t 0 r /Helvetica findfont 22.8295 sf 0 0 m (0) show NC gr 
 gsave  408 306 1383 345 C 1398.81 495.707 t 0 r /Helvetica findfont 22.8295 sf 0 0 m (0.01) show NC gr 
 gsave  408 306 1383 345 C 1395.96 524.196 t 0 r /Helvetica findfont 22.8295 sf 0 0 m (0.02) show NC gr 
 gsave  408 306 1383 345 C 1395.96 552.685 t 0 r /Helvetica findfont 22.8295 sf 0 0 m (0.03) show NC gr 
 gsave  408 306 1383 345 C 1395.96 581.174 t 0 r /Helvetica findfont 22.8295 sf 0 0 m (0.04) show NC gr 
 gsave  408 306 1383 345 C 1395.96 606.814 t 0 r /Helvetica findfont 22.8295 sf 0 0 m (0.05) show NC gr  1751 391 m 229 Y s 1745 416 m 6 X s 1748 422 m 3 X s 1748 428 m 3 X s 1748 433 m 3 X s 1748 439 m 3 X s 1745 445 m 6 X s 1748 451 m 3 X s 1748
 456 m 3 X s 1748 462 m 3 X s 1748 468 m 3 X s 1745 473 m 6 X s 1748 479 m 3 X s 1748 485 m 3 X s 1748 490 m 3 X s 1748 496 m 3 X s 1745 502 m 6 X s 1748 507 m 3 X s 1748 513 m 3 X s 1748 519 m 3 X s 1748 524 m 3 X s 1745 530 m 6 X s 1748 536 m 3 X s
 1748 541 m 3 X s 1748 547 m 3 X s 1748 553 m 3 X s 1745 558 m 6 X s 1748 564 m 3 X s 1748 570 m 3 X s 1748 576 m 3 X s 1748 581 m 3 X s 1745 587 m 6 X s 1748 593 m 3 X s 1748 598 m 3 X s 1748 604 m 3 X s 1748 610 m 3 X s 1745 615 m 6 X s 1745 416 m
 6 X s 1748 411 m 3 X s 1748 405 m 3 X s 1748 399 m 3 X s 1748 394 m 3 X s 1745 615 m 6 X s 1491 511 1538 531 1631 456 1725 554 4 { m21} R 1491 523 m 35 Y s 1486 558 m 11 X s 1491 500 m -36 Y s 1486 464 m 11 X s 1538 543 m 35 Y s 1532 578 m 12 X s
 1538 520 m -36 Y s 1532 484 m 12 X s 1631 467 m 35 Y s 1626 502 m 11 X s 1631 445 m -35 Y s 1626 410 m 11 X s 1725 566 m 35 Y s 1719 601 m 12 X s 1725 543 m -36 Y s 1719 507 m 12 X s 9 lw 0.95 0.95 0.95 c black 1446 474 m 3 X 3 1 d 3 X 3 1 d 3 1 d 3
 X 3 1 d 4 1 d 3 X 3 1 d 3 1 d 3 X 3 1 d 3 1 d 3 X 3 1 d 3 X 3 1 d 3 1 d 3 X 3 1 d 3 1 d 3 X 4 1 d 3 1 d 3 X 3 1 d 3 1 d 3 X 3 1 d 3 1 d 3 X 3 1 d 3 X 3 1 d 3 1 d 3 X 3 1 d 3 1 d 4 X 3 1 d 3 1 d 3 X 3 1 d 3 1 d 3 X 3 1 d 3 X 3 1 d s 1596 505 m 3 1 d
 3 X 3 1 d 3 1 d 3 X 3 1 d 4 1 d 3 X 3 1 d 3 1 d 3 X 3 1 d 3 X 3 1 d 3 1 d 3 X 3 1 d 3 1 d 3 X 3 1 d 3 1 d 3 X 3 1 d 4 1 d 3 X 3 1 d 3 X 3 1 d 3 1 d 3 X 3 1 d 3 1 d 3 X 3 1 d 3 1 d 3 X 3 1 d 3 1 d 3 X 4 1 d 3 X 3 1 d 3 1 d 3 X 3 1 d 3 1 d 3 X 3 1 d 3
 1 d s 1746 537 m 3 X s 0.49 0.6 0.82 c black 0.49 0.6 0.82 c
 gsave  408 306 1383 345 C 1504.21 629.605 t 0 r /Helvetica-Bold findfont 25.6831 sf 0 0 m (6.5 < E < 7.0 GeV) show NC gr  0.52 0.76 0.64 c black 0.52 0.76 0.64 c
 gsave  408 306 1383 345 C 1489.97 592.569 t 0 r /Helvetica-Bold findfont 25.6831 sf 0 0 m 
 220 206 192 185 170 163 148 141 126 118 111 97 83 69 61 47 40 25 18
(A = 0.007, p = 1.000) K NC gr  1 0.6 1 c black 1 0.6 1 c
 gsave  408 306 1383 345 C 1789.1 458.671 t 90 r /Helvetica-Bold findfont 28.5368 sf 0 0 m (/dof=0.9) show NC gr  black 1 0.6 1 c
 gsave  408 306 1383 345 C 1777.71 447.276 t 90 r /Helvetica-Bold findfont 19.9758 sf 0 0 m (2) show NC gr  black 1 0.6 1 c
 gsave  408 306 1383 345 C 1789.1 430.182 t 90 r /Symbol findfont 28.5368 sf 0 0 m (c) show NC gr  black 3 lw 1 1 1 c 408 306 1837 345 bf black 1 1 1 c black 306 229 1898 391 bl 306 229 1898 391 bl 1898 391 m 306 X s 1898 395 m -4 Y s 1992 395 m -4 Y
 s 2085 395 m -4 Y s 2179 395 m -4 Y s 2179 395 m -4 Y s
 gsave  408 306 1837 345 C 1888.81 370.356 t 0 r /Helvetica findfont 22.8295 sf 0 0 m (0) show NC gr 
 gsave  408 306 1837 345 C 1985.68 370.356 t 0 r /Helvetica findfont 22.8295 sf 0 0 m (1) show NC gr 
 gsave  408 306 1837 345 C 2073.99 370.356 t 0 r /Helvetica findfont 22.8295 sf 0 0 m (2) show NC gr 
 gsave  408 306 1837 345 C 2168.01 370.356 t 0 r /Helvetica findfont 22.8295 sf 0 0 m (3) show NC gr  1898 620 m 306 X s 1898 616 m 4 Y s 1992 616 m 4 Y s 2085 616 m 4 Y s 2179 616 m 4 Y s 2179 616 m 4 Y s 1898 391 m 229 Y s 1904 410 m -6 X s 1901
 420 m -3 X s 1901 430 m -3 X s 1901 440 m -3 X s 1904 451 m -6 X s 1901 461 m -3 X s 1901 471 m -3 X s 1901 481 m -3 X s 1904 492 m -6 X s 1901 502 m -3 X s 1901 512 m -3 X s 1901 522 m -3 X s 1904 533 m -6 X s 1901 543 m -3 X s 1901 553 m -3 X s
 1901 563 m -3 X s 1904 573 m -6 X s 1901 584 m -3 X s 1901 594 m -3 X s 1901 604 m -3 X s 1904 614 m -6 X s 1904 410 m -6 X s 1901 399 m -3 X s 1904 614 m -6 X s
 gsave  408 306 1837 345 C 1843.23 401.694 t 0 r /Helvetica findfont 22.8295 sf 0 0 m (\2550.04) show NC gr 
 gsave  408 306 1837 345 C 1843.23 444.427 t 0 r /Helvetica findfont 22.8295 sf 0 0 m (\2550.02) show NC gr 
 gsave  408 306 1837 345 C 1880.27 484.311 t 0 r /Helvetica findfont 22.8295 sf 0 0 m (0) show NC gr 
 gsave  408 306 1837 345 C 1848.93 524.196 t 0 r /Helvetica findfont 22.8295 sf 0 0 m (0.02) show NC gr 
 gsave  408 306 1837 345 C 1848.93 566.929 t 0 r /Helvetica findfont 22.8295 sf 0 0 m (0.04) show NC gr 
 gsave  408 306 1837 345 C 1848.93 606.814 t 0 r /Helvetica findfont 22.8295 sf 0 0 m (0.06) show NC gr  2204 391 m 229 Y s 2199 410 m 5 X s 2201 420 m 3 X s 2201 430 m 3 X s 2201 440 m 3 X s 2199 451 m 5 X s 2201 461 m 3 X s 2201 471 m 3 X s 2201
 481 m 3 X s 2199 492 m 5 X s 2201 502 m 3 X s 2201 512 m 3 X s 2201 522 m 3 X s 2199 533 m 5 X s 2201 543 m 3 X s 2201 553 m 3 X s 2201 563 m 3 X s 2199 573 m 5 X s 2201 584 m 3 X s 2201 594 m 3 X s 2201 604 m 3 X s 2199 614 m 5 X s 2199 410 m 5 X s
 2201 399 m 3 X s 2199 614 m 5 X s 1945 446 1992 461 2085 473 2179 564 4 { m21} R 1945 458 m 24 Y s 1939 482 m 12 X s 1945 435 m -25 Y s 1939 410 m 12 X s 1992 473 m 24 Y s 1986 497 m 11 X s 1992 450 m -25 Y s 1986 425 m 11 X s 2085 484 m 25 Y s 2079
 509 m 12 X s 2085 461 m -25 Y s 2079 436 m 12 X s 2179 575 m 26 Y s 2173 601 m 11 X s 2179 552 m -25 Y s 2173 527 m 11 X s 1 0 0 c 9 lw 0.95 0.95 0.95 c black 1 0 0 c 1900 492 m 36 X 3 1 d 13 X 3 1 d 12 X 3 1 d 6 X 3 1 d 6 X 3 1 d 7 X 3 1 d 6 X 3 1
 d 3 X 3 1 d 6 X 3 1 d 3 X 3 1 d 3 X 3 1 d 3 X 3 1 d 3 X 4 1 d 3 1 d s 2050 506 m 3 X 3 1 d 3 X 3 1 d 3 1 d 3 X 3 1 d 3 X 3 1 d 3 1 d 3 X 3 1 d 3 1 d 3 1 d 4 X 3 1 d 3 1 d 3 1 d 3 X 3 1 d 3 1 d 3 1 d 3 1 d 3 X 3 1 d 3 1 d 3 1 d 3 1 d 3 1 d 3 1 d 4 1
 d 3 X 3 1 d 3 1 d 3 1 d 3 1 d 3 1 d 3 1 d 3 1 d 3 1 d 3 1 d 3 1 d 3 1 d 3 1 d 3 1 d 3 2 d 4 1 d 3 1 d 3 1 d s 2200 547 m 3 1 d s 0.49 0.6 0.82 c black 0.49 0.6 0.82 c
 gsave  408 306 1837 345 C 1957.19 629.605 t 0 r /Helvetica-Bold findfont 25.6831 sf 0 0 m (7.0 < E < 7.5 GeV) show NC gr  0.52 0.76 0.64 c black 0.52 0.76 0.64 c
 gsave  408 306 1837 345 C 1942.94 592.569 t 0 r /Helvetica-Bold findfont 25.6831 sf 0 0 m 
 220 206 192 185 170 163 148 141 125 118 111 97 83 69 61 47 40 25 18
(A = 0.003, p = 2.000) K NC gr  1 0.6 1 c black 1 0.6 1 c
 gsave  408 306 1837 345 C 2242.08 458.671 t 90 r /Helvetica-Bold findfont 28.5368 sf 0 0 m (/dof=1.4) show NC gr  black 1 0.6 1 c
 gsave  408 306 1837 345 C 2230.68 447.276 t 90 r /Helvetica-Bold findfont 19.9758 sf 0 0 m (2) show NC gr  black 1 0.6 1 c
 gsave  408 306 1837 345 C 2242.08 430.182 t 90 r /Symbol findfont 28.5368 sf 0 0 m (c) show NC gr  black 3 lw 1 1 1 c 408 306 23 13 bf black 1 1 1 c black 306 229 84 59 bl 306 229 84 59 bl 84 59 m 306 X s 84 63 m -4 Y s 177 63 m -4 Y s 271 63 m -4 Y
 s 364 63 m -4 Y s 364 63 m -4 Y s
 gsave  408 306 23 13 C 74.0711 39.8845 t 0 r /Helvetica findfont 22.8295 sf 0 0 m (0) show NC gr 
 gsave  408 306 23 13 C 170.933 39.8845 t 0 r /Helvetica findfont 22.8295 sf 0 0 m (1) show NC gr 
 gsave  408 306 23 13 C 262.098 39.8845 t 0 r /Helvetica findfont 22.8295 sf 0 0 m (2) show NC gr 
 gsave  408 306 23 13 C 353.262 39.8845 t 0 r /Helvetica findfont 22.8295 sf 0 0 m (3) show NC gr  84 288 m 306 X s 84 284 m 4 Y s 177 284 m 4 Y s 271 284 m 4 Y s 364 284 m 4 Y s 364 284 m 4 Y s 84 59 m 229 Y s 89 63 m -5 X s 87 67 m -3 X s 87 72 m
 -3 X s 87 76 m -3 X s 87 81 m -3 X s 89 86 m -5 X s 87 90 m -3 X s 87 95 m -3 X s 87 100 m -3 X s 87 104 m -3 X s 89 109 m -5 X s 87 113 m -3 X s 87 118 m -3 X s 87 123 m -3 X s 87 127 m -3 X s 89 132 m -5 X s 87 136 m -3 X s 87 141 m -3 X s 87 146
 m -3 X s 87 150 m -3 X s 89 155 m -5 X s 87 160 m -3 X s 87 164 m -3 X s 87 169 m -3 X s 87 173 m -3 X s 89 178 m -5 X s 87 183 m -3 X s 87 187 m -3 X s 87 192 m -3 X s 87 197 m -3 X s 89 201 m -5 X s 87 206 m -3 X s 87 210 m -3 X s 87 215 m -3 X s
 87 220 m -3 X s 89 224 m -5 X s 87 229 m -3 X s 87 233 m -3 X s 87 238 m -3 X s 87 243 m -3 X s 89 247 m -5 X s 87 252 m -3 X s 87 257 m -3 X s 87 261 m -3 X s 87 266 m -3 X s 89 270 m -5 X s 89 63 m -5 X s 89 270 m -5 X s 87 275 m -3 X s 87 280 m
 -3 X s 87 284 m -3 X s
 gsave  408 306 23 13 C 28.4889 54.1289 t 0 r /Helvetica findfont 22.8295 sf 0 0 m (\2550.04) show NC gr 
 gsave  408 306 23 13 C 28.4889 79.7689 t 0 r /Helvetica findfont 22.8295 sf 0 0 m (\2550.03) show NC gr 
 gsave  408 306 23 13 C 28.4889 102.56 t 0 r /Helvetica findfont 22.8295 sf 0 0 m (\2550.02) show NC gr 
 gsave  408 306 23 13 C 31.3378 125.351 t 0 r /Helvetica findfont 22.8295 sf 0 0 m (\2550.01) show NC gr 
 gsave  408 306 23 13 C 65.5245 148.142 t 0 r /Helvetica findfont 22.8295 sf 0 0 m (0) show NC gr 
 gsave  408 306 23 13 C 37.0356 170.933 t 0 r /Helvetica findfont 22.8295 sf 0 0 m (0.01) show NC gr 
 gsave  408 306 23 13 C 34.1867 193.725 t 0 r /Helvetica findfont 22.8295 sf 0 0 m (0.02) show NC gr 
 gsave  408 306 23 13 C 34.1867 216.516 t 0 r /Helvetica findfont 22.8295 sf 0 0 m (0.03) show NC gr 
 gsave  408 306 23 13 C 34.1867 239.307 t 0 r /Helvetica findfont 22.8295 sf 0 0 m (0.04) show NC gr 
 gsave  408 306 23 13 C 34.1867 262.098 t 0 r /Helvetica findfont 22.8295 sf 0 0 m (0.05) show NC gr  390 59 m 229 Y s 385 63 m 5 X s 387 67 m 3 X s 387 72 m 3 X s 387 76 m 3 X s 387 81 m 3 X s 385 86 m 5 X s 387 90 m 3 X s 387 95 m 3 X s 387 100 m 3
 X s 387 104 m 3 X s 385 109 m 5 X s 387 113 m 3 X s 387 118 m 3 X s 387 123 m 3 X s 387 127 m 3 X s 385 132 m 5 X s 387 136 m 3 X s 387 141 m 3 X s 387 146 m 3 X s 387 150 m 3 X s 385 155 m 5 X s 387 160 m 3 X s 387 164 m 3 X s 387 169 m 3 X s 387
 173 m 3 X s 385 178 m 5 X s 387 183 m 3 X s 387 187 m 3 X s 387 192 m 3 X s 387 197 m 3 X s 385 201 m 5 X s 387 206 m 3 X s 387 210 m 3 X s 387 215 m 3 X s 387 220 m 3 X s 385 224 m 5 X s 387 229 m 3 X s 387 233 m 3 X s 387 238 m 3 X s 387 243 m 3 X
 s 385 247 m 5 X s 387 252 m 3 X s 387 257 m 3 X s 387 261 m 3 X s 387 266 m 3 X s 385 270 m 5 X s 385 63 m 5 X s 385 270 m 5 X s 387 275 m 3 X s 387 280 m 3 X s 387 284 m 3 X s /w 22 def /w2 {w 2 div} def /w3 {w 3 div} def 131 137 177 218 271 123
 364 224 4 { m21} R 131 148 m 33 Y s 125 181 m 11 X s 131 125 m -32 Y s 125 93 m 11 X s 177 229 m 34 Y s 172 263 m 11 X s 177 206 m -34 Y s 172 172 m 11 X s 271 134 m 34 Y s 265 168 m 12 X s 271 112 m -34 Y s 265 78 m 12 X s 364 235 m 34 Y s 359 269
 m 11 X s 364 212 m -34 Y s 359 178 m 11 X s 1 0 0 c 9 lw 0.95 0.95 0.95 c black 1 0 0 c 85 155 m 28 X 3 1 d 15 X 3 1 d 13 X 3 1 d 6 X 3 1 d 9 X 3 1 d 6 X 3 1 d 3 X 3 1 d 7 X 3 1 d 3 X 3 1 d 3 X 3 1 d 3 X 3 1 d 3 X 3 1 d 3 X 3 1 d 3 X 3 1 d 3 1 d s
 235 170 m 4 X 3 1 d 3 X 3 1 d 3 1 d 3 X 3 1 d 3 1 d 3 X 3 1 d 3 1 d 3 1 d 3 X 3 1 d 3 1 d 3 1 d 3 X 4 1 d 3 1 d 3 1 d 3 1 d 3 X 3 1 d 3 1 d 3 1 d 3 1 d 3 1 d 3 1 d 3 1 d 3 1 d 3 1 d 3 1 d 3 1 d 4 1 d 3 1 d 3 1 d 3 1 d 3 1 d 3 1 d 3 1 d 3 1 d 3 1 d 3
 1 d 3 1 d 3 1 d 3 1 d 3 2 d 3 1 d 3 1 d s 385 213 m 4 1 d s 0.49 0.6 0.82 c black 0.49 0.6 0.82 c
 gsave  408 306 23 13 C 142.445 296.285 t 0 r /Helvetica-Bold findfont 25.6831 sf 0 0 m (7.5 < E < 8.0 GeV) show NC gr  0.52 0.76 0.64 c black 0.52 0.76 0.64 c
 gsave  408 306 23 13 C 128.2 259.249 t 0 r /Helvetica-Bold findfont 25.6831 sf 0 0 m 
 220 206 192 185 170 163 148 141 126 118 111 97 83 69 61 47 40 25 18
(A = 0.002, p = 2.000) K NC gr  1 0.6 1 c black 1 0.6 1 c
 gsave  408 306 23 13 C 427.334 128.2 t 90 r /Helvetica-Bold findfont 28.5368 sf 0 0 m (/dof=1.1) show NC gr  black 1 0.6 1 c
 gsave  408 306 23 13 C 415.938 116.804 t 90 r /Helvetica-Bold findfont 19.9758 sf 0 0 m (2) show NC gr  black 1 0.6 1 c
 gsave  408 306 23 13 C 427.334 99.7112 t 90 r /Symbol findfont 28.5368 sf 0 0 m (c) show NC gr  black 3 lw 1 1 1 c 408 306 476 13 bf black 1 1 1 c black 307 229 537 59 bl 307 229 537 59 bl 537 59 m 307 X s 537 63 m -4 Y s 631 63 m -4 Y s 724 63 m -4
 Y s 818 63 m -4 Y s 818 63 m -4 Y s
 gsave  408 306 476 13 C 527.045 39.8845 t 0 r /Helvetica findfont 22.8295 sf 0 0 m (0) show NC gr 
 gsave  408 306 476 13 C 623.907 39.8845 t 0 r /Helvetica findfont 22.8295 sf 0 0 m (1) show NC gr 
 gsave  408 306 476 13 C 715.071 39.8845 t 0 r /Helvetica findfont 22.8295 sf 0 0 m (2) show NC gr 
 gsave  408 306 476 13 C 809.085 39.8845 t 0 r /Helvetica findfont 22.8295 sf 0 0 m (3) show NC gr  537 288 m 307 X s 537 284 m 4 Y s 631 284 m 4 Y s 724 284 m 4 Y s 818 284 m 4 Y s 818 284 m 4 Y s 537 59 m 229 Y s 543 88 m -6 X s 540 96 m -3 X s 540
 103 m -3 X s 540 111 m -3 X s 543 118 m -6 X s 540 126 m -3 X s 540 133 m -3 X s 540 141 m -3 X s 543 148 m -6 X s 540 156 m -3 X s 540 163 m -3 X s 540 171 m -3 X s 543 178 m -6 X s 540 186 m -3 X s 540 193 m -3 X s 540 201 m -3 X s 543 208 m -6 X
 s 540 216 m -3 X s 540 223 m -3 X s 540 231 m -3 X s 543 238 m -6 X s 540 246 m -3 X s 540 253 m -3 X s 540 261 m -3 X s 543 268 m -6 X s 543 88 m -6 X s 540 81 m -3 X s 540 73 m -3 X s 540 66 m -3 X s 543 268 m -6 X s 540 276 m -3 X s 540 283 m -3
 X s
 gsave  408 306 476 13 C 481.462 79.7689 t 0 r /Helvetica findfont 22.8295 sf 0 0 m (\2550.04) show NC gr 
 gsave  408 306 476 13 C 481.462 111.107 t 0 r /Helvetica findfont 22.8295 sf 0 0 m (\2550.02) show NC gr 
 gsave  408 306 476 13 C 518.498 139.596 t 0 r /Helvetica findfont 22.8295 sf 0 0 m (0) show NC gr 
 gsave  408 306 476 13 C 487.16 170.933 t 0 r /Helvetica findfont 22.8295 sf 0 0 m (0.02) show NC gr 
 gsave  408 306 476 13 C 487.16 202.271 t 0 r /Helvetica findfont 22.8295 sf 0 0 m (0.04) show NC gr 
 gsave  408 306 476 13 C 487.16 230.76 t 0 r /Helvetica findfont 22.8295 sf 0 0 m (0.06) show NC gr 
 gsave  408 306 476 13 C 487.16 262.098 t 0 r /Helvetica findfont 22.8295 sf 0 0 m (0.08) show NC gr  844 59 m 229 Y s 838 88 m 6 X s 841 96 m 3 X s 841 103 m 3 X s 841 111 m 3 X s 838 118 m 6 X s 841 126 m 3 X s 841 133 m 3 X s 841 141 m 3 X s 838
 148 m 6 X s 841 156 m 3 X s 841 163 m 3 X s 841 171 m 3 X s 838 178 m 6 X s 841 186 m 3 X s 841 193 m 3 X s 841 201 m 3 X s 838 208 m 6 X s 841 216 m 3 X s 841 223 m 3 X s 841 231 m 3 X s 838 238 m 6 X s 841 246 m 3 X s 841 253 m 3 X s 841 261 m 3 X
 s 838 268 m 6 X s 838 88 m 6 X s 841 81 m 3 X s 841 73 m 3 X s 841 66 m 3 X s 838 268 m 6 X s 841 276 m 3 X s 841 283 m 3 X s /w 23 def /w2 {w 2 div} def /w3 {w 3 div} def 584 146 631 109 724 119 818 236 4 { m21} R 584 158 m 19 Y s 578 177 m 12 X s
 584 135 m -20 Y s 578 115 m 12 X s 631 120 m 19 Y s 625 139 m 12 X s 631 97 m -19 Y s 625 78 m 12 X s 724 130 m 19 Y s 719 149 m 11 X s 724 107 m -19 Y s 719 88 m 11 X s 818 248 m 21 Y s 812 269 m 12 X s 818 225 m -21 Y s 812 204 m 12 X s 1 0 0 c 9
 lw 0.95 0.95 0.95 c black 1 0 0 c 539 148 m 21 X 3 1 d 16 X 3 1 d 12 X 3 1 d 9 X 3 1 d 7 X 3 1 d 6 X 3 1 d 3 X 3 1 d 6 X 3 1 d 3 X 3 1 d 3 X 3 1 d 3 X 3 1 d 3 X 4 1 d 3 1 d 3 X 3 1 d 3 X 3 1 d 3 1 d 3 X s 689 164 m 3 1 d 3 1 d 3 X 3 1 d 3 1 d 3 X 3
 1 d 3 1 d 4 1 d 3 X 3 1 d 3 1 d 3 1 d 3 1 d 3 X 3 1 d 3 1 d 3 1 d 3 1 d 3 1 d 3 1 d 3 1 d 3 1 d 3 1 d 4 1 d 3 1 d 3 1 d 3 1 d 3 1 d 3 1 d 3 1 d 3 1 d 3 1 d 3 1 d 3 1 d 3 1 d 3 1 d 3 1 d 3 2 d 3 1 d 4 1 d 3 1 d 3 1 d 3 2 d 3 1 d 3 1 d 3 1 d 3 2 d 3 1
 d s 839 212 m 3 1 d s 0.49 0.6 0.82 c black 0.49 0.6 0.82 c
 gsave  408 306 476 13 C 595.418 296.285 t 0 r /Helvetica-Bold findfont 25.6831 sf 0 0 m (8.0 < E < 8.5 GeV) show NC gr  0.52 0.76 0.64 c black 0.52 0.76 0.64 c
 gsave  408 306 476 13 C 581.174 259.249 t 0 r /Helvetica-Bold findfont 25.6831 sf 0 0 m 
 220 206 192 185 170 163 148 141 125 118 111 97 83 68 61 47 40 25 18
(A = 0.004, p = 2.000) K NC gr  1 0.6 1 c black 1 0.6 1 c
 gsave  408 306 476 13 C 883.156 128.2 t 90 r /Helvetica-Bold findfont 28.5368 sf 0 0 m (/dof=2.1) show NC gr  black 1 0.6 1 c
 gsave  408 306 476 13 C 871.76 116.804 t 90 r /Helvetica-Bold findfont 19.9758 sf 0 0 m (2) show NC gr  black 1 0.6 1 c
 gsave  408 306 476 13 C 883.156 99.7112 t 90 r /Symbol findfont 28.5368 sf 0 0 m (c) show NC gr  black 3 lw 1 1 1 c 408 306 930 13 bf black 1 1 1 c black 306 229 991 59 bl 306 229 991 59 bl 991 59 m 306 X s 991 63 m -4 Y s 1084 63 m -4 Y s 1178 63 m
 -4 Y s 1271 63 m -4 Y s 1271 63 m -4 Y s
 gsave  408 306 930 13 C 980.018 39.8845 t 0 r /Helvetica findfont 22.8295 sf 0 0 m (0) show NC gr 
 gsave  408 306 930 13 C 1076.88 39.8845 t 0 r /Helvetica findfont 22.8295 sf 0 0 m (1) show NC gr 
 gsave  408 306 930 13 C 1168.04 39.8845 t 0 r /Helvetica findfont 22.8295 sf 0 0 m (2) show NC gr 
 gsave  408 306 930 13 C 1262.06 39.8845 t 0 r /Helvetica findfont 22.8295 sf 0 0 m (3) show NC gr  991 288 m 306 X s 991 284 m 4 Y s 1084 284 m 4 Y s 1178 284 m 4 Y s 1271 284 m 4 Y s 1271 284 m 4 Y s 991 59 m 229 Y s 997 66 m -6 X s 994 75 m -3 X s
 994 84 m -3 X s 994 94 m -3 X s 997 103 m -6 X s 994 112 m -3 X s 994 122 m -3 X s 994 131 m -3 X s 997 140 m -6 X s 994 150 m -3 X s 994 159 m -3 X s 994 168 m -3 X s 997 178 m -6 X s 994 187 m -3 X s 994 197 m -3 X s 994 206 m -3 X s 997 215 m -6
 X s 994 225 m -3 X s 994 234 m -3 X s 994 243 m -3 X s 997 253 m -6 X s 997 66 m -6 X s 997 253 m -6 X s 994 262 m -3 X s 994 271 m -3 X s 994 281 m -3 X s
 gsave  408 306 930 13 C 937.285 59.8267 t 0 r /Helvetica findfont 22.8295 sf 0 0 m (\2550.04) show NC gr 
 gsave  408 306 930 13 C 937.285 96.8623 t 0 r /Helvetica findfont 22.8295 sf 0 0 m (\2550.02) show NC gr 
 gsave  408 306 930 13 C 974.32 133.898 t 0 r /Helvetica findfont 22.8295 sf 0 0 m (0) show NC gr 
 gsave  408 306 930 13 C 942.983 170.933 t 0 r /Helvetica findfont 22.8295 sf 0 0 m (0.02) show NC gr 
 gsave  408 306 930 13 C 942.983 207.969 t 0 r /Helvetica findfont 22.8295 sf 0 0 m (0.04) show NC gr 
 gsave  408 306 930 13 C 942.983 245.005 t 0 r /Helvetica findfont 22.8295 sf 0 0 m (0.06) show NC gr  1297 59 m 229 Y s 1292 66 m 5 X s 1294 75 m 3 X s 1294 84 m 3 X s 1294 94 m 3 X s 1292 103 m 5 X s 1294 112 m 3 X s 1294 122 m 3 X s 1294 131 m 3 X
 s 1292 140 m 5 X s 1294 150 m 3 X s 1294 159 m 3 X s 1294 168 m 3 X s 1292 178 m 5 X s 1294 187 m 3 X s 1294 197 m 3 X s 1294 206 m 3 X s 1292 215 m 5 X s 1294 225 m 3 X s 1294 234 m 3 X s 1294 243 m 3 X s 1292 253 m 5 X s 1292 66 m 5 X s 1292 253 m
 5 X s 1294 262 m 3 X s 1294 271 m 3 X s 1294 281 m 3 X s 1038 134 1084 128 1178 119 1271 226 4 { m21} R 1038 146 m 29 Y s 1032 175 m 11 X s 1038 123 m -29 Y s 1032 94 m 11 X s 1084 139 m 30 Y s 1079 169 m 11 X s 1084 117 m -29 Y s 1079 88 m 11 X s
 1178 130 m 29 Y s 1172 159 m 12 X s 1178 107 m -29 Y s 1172 78 m 12 X s 1271 238 m 31 Y s 1266 269 m 11 X s 1271 215 m -32 Y s 1266 183 m 11 X s 1 0 0 c 9 lw 0.95 0.95 0.95 c black 1 0 0 c 993 140 m 6 X 3 1 d 24 X 3 1 d 13 X 3 1 d 9 X 3 1 d 6 X 3 1
 d 6 X 3 1 d 3 X 3 1 d 6 X 3 1 d 4 X 3 1 d 3 X 3 1 d 3 X 3 1 d 3 X 3 1 d 3 1 d 3 X 3 1 d 3 X 3 1 d 3 1 d 3 X 3 1 d 4 1 d s 1143 158 m 3 X 3 1 d 3 1 d 3 1 d 3 X 3 1 d 3 1 d 3 1 d 3 1 d 3 X 3 1 d 3 1 d 3 1 d 3 1 d 3 1 d 4 1 d 3 1 d 3 1 d 3 X 3 1 d 3 1
 d 3 1 d 3 1 d 3 2 d 3 1 d 3 1 d 3 1 d 3 1 d 3 1 d 3 1 d 3 1 d 3 1 d 4 1 d 3 2 d 3 1 d 3 1 d 3 1 d 3 1 d 3 2 d 3 1 d 3 1 d 3 1 d 3 2 d 3 1 d 3 1 d 3 2 d 3 1 d 3 1 d 4 2 d s 1293 209 m 3 1 d s 0.49 0.6 0.82 c black 0.49 0.6 0.82 c
 gsave  408 306 930 13 C 1051.24 296.285 t 0 r /Helvetica-Bold findfont 25.6831 sf 0 0 m (8.5 < E < 9.0 GeV) show NC gr  0.52 0.76 0.64 c black 0.52 0.76 0.64 c
 gsave  408 306 930 13 C 1037 259.249 t 0 r /Helvetica-Bold findfont 25.6831 sf 0 0 m 
 220 206 192 185 170 163 148 141 125 118 111 97 83 69 61 47 40 25 18
(A = 0.004, p = 2.000) K NC gr  1 0.6 1 c black 1 0.6 1 c
 gsave  408 306 930 13 C 1336.13 128.2 t 90 r /Helvetica-Bold findfont 28.5368 sf 0 0 m (/dof=0.7) show NC gr  black 1 0.6 1 c
 gsave  408 306 930 13 C 1324.73 116.804 t 90 r /Helvetica-Bold findfont 19.9758 sf 0 0 m (2) show NC gr  black 1 0.6 1 c
 gsave  408 306 930 13 C 1336.13 99.7112 t 90 r /Symbol findfont 28.5368 sf 0 0 m (c) show NC gr  black 3 lw 1 1 1 c 408 306 1383 13 bf black 1 1 1 c black 306 229 1445 59 bl 306 229 1445 59 bl 1445 59 m 306 X s 1445 63 m -4 Y s 1538 63 m -4 Y s 1631
 63 m -4 Y s 1725 63 m -4 Y s 1725 63 m -4 Y s
 gsave  408 306 1383 13 C 1435.84 39.8845 t 0 r /Helvetica findfont 22.8295 sf 0 0 m (0) show NC gr 
 gsave  408 306 1383 13 C 1529.85 39.8845 t 0 r /Helvetica findfont 22.8295 sf 0 0 m (1) show NC gr 
 gsave  408 306 1383 13 C 1621.02 39.8845 t 0 r /Helvetica findfont 22.8295 sf 0 0 m (2) show NC gr 
 gsave  408 306 1383 13 C 1715.03 39.8845 t 0 r /Helvetica findfont 22.8295 sf 0 0 m (3) show NC gr  1445 288 m 306 X s 1445 284 m 4 Y s 1538 284 m 4 Y s 1631 284 m 4 Y s 1725 284 m 4 Y s 1725 284 m 4 Y s 1445 59 m 229 Y s 1450 93 m -5 X s 1447 104 m
 -2 X s 1447 115 m -2 X s 1447 126 m -2 X s 1450 137 m -5 X s 1447 148 m -2 X s 1447 159 m -2 X s 1447 170 m -2 X s 1450 181 m -5 X s 1447 192 m -2 X s 1447 203 m -2 X s 1447 214 m -2 X s 1450 225 m -5 X s 1447 236 m -2 X s 1447 247 m -2 X s 1447 258
 m -2 X s 1450 269 m -5 X s 1450 93 m -5 X s 1447 82 m -2 X s 1447 71 m -2 X s 1447 60 m -2 X s 1450 269 m -5 X s 1447 280 m -2 X s
 gsave  408 306 1383 13 C 1427.29 85.4667 t 0 r /Helvetica findfont 22.8295 sf 0 0 m (0) show NC gr 
 gsave  408 306 1383 13 C 1395.96 131.049 t 0 r /Helvetica findfont 22.8295 sf 0 0 m (0.02) show NC gr 
 gsave  408 306 1383 13 C 1395.96 173.782 t 0 r /Helvetica findfont 22.8295 sf 0 0 m (0.04) show NC gr 
 gsave  408 306 1383 13 C 1395.96 216.516 t 0 r /Helvetica findfont 22.8295 sf 0 0 m (0.06) show NC gr 
 gsave  408 306 1383 13 C 1395.96 262.098 t 0 r /Helvetica findfont 22.8295 sf 0 0 m (0.08) show NC gr  1751 59 m 229 Y s 1745 93 m 6 X s 1748 104 m 3 X s 1748 115 m 3 X s 1748 126 m 3 X s 1745 137 m 6 X s 1748 148 m 3 X s 1748 159 m 3 X s 1748 170 m
 3 X s 1745 181 m 6 X s 1748 192 m 3 X s 1748 203 m 3 X s 1748 214 m 3 X s 1745 225 m 6 X s 1748 236 m 3 X s 1748 247 m 3 X s 1748 258 m 3 X s 1745 269 m 6 X s 1745 93 m 6 X s 1748 82 m 3 X s 1748 71 m 3 X s 1748 60 m 3 X s 1745 269 m 6 X s 1748 280
 m 3 X s 1491 137 1538 130 1631 216 1725 204 4 { m21} R 1491 148 m 40 Y s 1486 188 m 11 X s 1491 125 m -40 Y s 1486 85 m 11 X s 1538 141 m 41 Y s 1532 182 m 12 X s 1538 119 m -41 Y s 1532 78 m 12 X s 1631 227 m 42 Y s 1626 269 m 11 X s 1631 204 m -41
 Y s 1626 163 m 11 X s 1725 216 m 41 Y s 1719 257 m 12 X s 1725 193 m -41 Y s 1719 152 m 12 X s 9 lw 0.95 0.95 0.95 c black 1446 94 m 3 1 d 3 2 d 3 1 d 3 2 d 3 1 d 3 2 d 3 1 d 4 2 d 3 1 d 3 1 d 3 2 d 3 1 d 3 2 d 3 1 d 3 2 d 3 1 d 3 2 d 3 1 d 3 2 d 3
 1 d 3 2 d 3 1 d 3 2 d 4 1 d 3 1 d 3 2 d 3 1 d 3 2 d 3 1 d 3 2 d 3 1 d 3 2 d 3 1 d 3 2 d 3 1 d 3 2 d 3 1 d 3 2 d 3 1 d 4 1 d 3 2 d 3 1 d 3 2 d 3 1 d 3 2 d 3 1 d 3 2 d 3 1 d 3 2 d s 1596 166 m 3 1 d 3 2 d 3 1 d 3 2 d 3 1 d 3 1 d 4 2 d 3 1 d 3 2 d 3 1
 d 3 2 d 3 1 d 3 2 d 3 1 d 3 2 d 3 1 d 3 2 d 3 1 d 3 2 d 3 1 d 3 1 d 3 2 d 3 1 d 4 2 d 3 1 d 3 2 d 3 1 d 3 2 d 3 1 d 3 2 d 3 1 d 3 2 d 3 1 d 3 2 d 3 1 d 3 1 d 3 2 d 3 1 d 3 2 d 4 1 d 3 2 d 3 1 d 3 2 d 3 1 d 3 2 d 3 1 d 3 2 d 3 1 d 3 2 d s 1746 238 m
 3 1 d s 0.49 0.6 0.82 c black 0.49 0.6 0.82 c
 gsave  408 306 1383 13 C 1504.21 296.285 t 0 r /Helvetica-Bold findfont 25.6831 sf 0 0 m (9.0 < E < 9.5 GeV) show NC gr  0.52 0.76 0.64 c black 0.52 0.76 0.64 c
 gsave  408 306 1383 13 C 1489.97 259.249 t 0 r /Helvetica-Bold findfont 25.6831 sf 0 0 m 
 220 206 192 185 170 163 148 141 126 118 111 97 83 69 61 47 40 25 18
(A = 0.020, p = 1.000) K NC gr  1 0.6 1 c black 1 0.6 1 c
 gsave  408 306 1383 13 C 1789.1 128.2 t 90 r /Helvetica-Bold findfont 28.5368 sf 0 0 m (/dof=0.3) show NC gr  black 1 0.6 1 c
 gsave  408 306 1383 13 C 1777.71 116.804 t 90 r /Helvetica-Bold findfont 19.9758 sf 0 0 m (2) show NC gr  black 1 0.6 1 c
 gsave  408 306 1383 13 C 1789.1 99.7112 t 90 r /Symbol findfont 28.5368 sf 0 0 m (c) show NC gr  black 3 lw 1 1 1 c 408 306 1837 13 bf black 1 1 1 c black 306 229 1898 59 bl 306 229 1898 59 bl 1898 59 m 306 X s 1898 63 m -4 Y s 1992 63 m -4 Y s 2085
 63 m -4 Y s 2179 63 m -4 Y s 2179 63 m -4 Y s
 gsave  408 306 1837 13 C 1888.81 39.8845 t 0 r /Helvetica findfont 22.8295 sf 0 0 m (0) show NC gr 
 gsave  408 306 1837 13 C 1985.68 39.8845 t 0 r /Helvetica findfont 22.8295 sf 0 0 m (1) show NC gr 
 gsave  408 306 1837 13 C 2073.99 39.8845 t 0 r /Helvetica findfont 22.8295 sf 0 0 m (2) show NC gr 
 gsave  408 306 1837 13 C 2168.01 39.8845 t 0 r /Helvetica findfont 22.8295 sf 0 0 m (3) show NC gr  1898 288 m 306 X s 1898 284 m 4 Y s 1992 284 m 4 Y s 2085 284 m 4 Y s 2179 284 m 4 Y s 2179 284 m 4 Y s 1898 59 m 229 Y s 1904 74 m -6 X s 1901 80 m
 -3 X s 1901 87 m -3 X s 1901 94 m -3 X s 1904 101 m -6 X s 1901 107 m -3 X s 1901 114 m -3 X s 1901 121 m -3 X s 1904 127 m -6 X s 1901 134 m -3 X s 1901 141 m -3 X s 1901 148 m -3 X s 1904 154 m -6 X s 1901 161 m -3 X s 1901 168 m -3 X s 1901 175 m
 -3 X s 1904 181 m -6 X s 1901 188 m -3 X s 1901 195 m -3 X s 1901 202 m -3 X s 1904 208 m -6 X s 1901 215 m -3 X s 1901 222 m -3 X s 1901 229 m -3 X s 1904 235 m -6 X s 1901 242 m -3 X s 1901 249 m -3 X s 1901 256 m -3 X s 1904 262 m -6 X s 1904 74
 m -6 X s 1901 67 m -3 X s 1901 60 m -3 X s 1904 262 m -6 X s 1901 269 m -3 X s 1901 276 m -3 X s 1901 282 m -3 X s
 gsave  408 306 1837 13 C 1843.23 65.5245 t 0 r /Helvetica findfont 22.8295 sf 0 0 m (\2550.04) show NC gr 
 gsave  408 306 1837 13 C 1843.23 94.0134 t 0 r /Helvetica findfont 22.8295 sf 0 0 m (\2550.02) show NC gr 
 gsave  408 306 1837 13 C 1880.27 119.653 t 0 r /Helvetica findfont 22.8295 sf 0 0 m (0) show NC gr 
 gsave  408 306 1837 13 C 1848.93 148.142 t 0 r /Helvetica findfont 22.8295 sf 0 0 m (0.02) show NC gr 
 gsave  408 306 1837 13 C 1848.93 173.782 t 0 r /Helvetica findfont 22.8295 sf 0 0 m (0.04) show NC gr 
 gsave  408 306 1837 13 C 1848.93 202.271 t 0 r /Helvetica findfont 22.8295 sf 0 0 m (0.06) show NC gr 
 gsave  408 306 1837 13 C 1848.93 227.911 t 0 r /Helvetica findfont 22.8295 sf 0 0 m (0.08) show NC gr 
 gsave  408 306 1837 13 C 1866.02 256.4 t 0 r /Helvetica findfont 22.8295 sf 0 0 m (0.1) show NC gr  2204 59 m 229 Y s 2199 74 m 5 X s 2201 80 m 3 X s 2201 87 m 3 X s 2201 94 m 3 X s 2199 101 m 5 X s 2201 107 m 3 X s 2201 114 m 3 X s 2201 121 m 3 X s
 2199 127 m 5 X s 2201 134 m 3 X s 2201 141 m 3 X s 2201 148 m 3 X s 2199 154 m 5 X s 2201 161 m 3 X s 2201 168 m 3 X s 2201 175 m 3 X s 2199 181 m 5 X s 2201 188 m 3 X s 2201 195 m 3 X s 2201 202 m 3 X s 2199 208 m 5 X s 2201 215 m 3 X s 2201 222 m
 3 X s 2201 229 m 3 X s 2199 235 m 5 X s 2201 242 m 3 X s 2201 249 m 3 X s 2201 256 m 3 X s 2199 262 m 5 X s 2199 74 m 5 X s 2201 67 m 3 X s 2201 60 m 3 X s 2199 262 m 5 X s 2201 269 m 3 X s 2201 276 m 3 X s 2201 282 m 3 X s 1945 111 1992 196 2085
 156 2179 234 4 { m21} R 1945 122 m 21 Y s 1939 143 m 12 X s 1945 99 m -21 Y s 1939 78 m 12 X s 1992 207 m 23 Y s 1986 230 m 11 X s 1992 185 m -23 Y s 1986 162 m 11 X s 2085 167 m 22 Y s 2079 189 m 12 X s 2085 144 m -21 Y s 2079 123 m 12 X s 2179 245
 m 24 Y s 2173 269 m 11 X s 2179 222 m -24 Y s 2173 198 m 11 X s 9 lw 0.95 0.95 0.95 c black 1900 128 m 3 1 d 3 1 d 3 1 d 3 1 d 3 1 d 3 1 d 3 1 d 3 1 d 3 1 d 3 1 d 3 1 d 3 1 d 3 1 d 3 1 d 4 1 d 3 1 d 3 1 d 3 1 d 3 1 d 3 1 d 3 1 d 3 X 3 1 d 3 1 d 3 1
 d 3 1 d 3 1 d 3 1 d 3 1 d 3 1 d 4 1 d 3 1 d 3 1 d 3 1 d 3 1 d 3 1 d 3 1 d 3 1 d 3 1 d 3 1 d 3 1 d 3 1 d 3 1 d 3 1 d 3 1 d 3 1 d 3 1 d 4 1 d 3 1 d s 2050 176 m 3 1 d 3 1 d 3 1 d 3 1 d 3 1 d 3 1 d 3 1 d 3 1 d 3 1 d 3 1 d 3 1 d 3 1 d 3 1 d 3 1 d 4 1 d
 3 1 d 3 1 d 3 1 d 3 1 d 3 1 d 3 X 3 1 d 3 1 d 3 1 d 3 1 d 3 1 d 3 1 d 3 1 d 3 1 d 3 1 d 4 1 d 3 1 d 3 1 d 3 1 d 3 1 d 3 1 d 3 1 d 3 1 d 3 1 d 3 1 d 3 1 d 3 1 d 3 1 d 3 1 d 3 1 d 3 1 d 4 1 d 3 1 d 3 1 d s 2200 224 m 3 1 d s 0.49 0.6 0.82 c black 0.49
 0.6 0.82 c
 gsave  408 306 1837 13 C 1948.64 296.285 t 0 r /Helvetica-Bold findfont 25.6831 sf 0 0 m (9.5 < E < 10.0 GeV) show NC gr  0.52 0.76 0.64 c black 0.52 0.76 0.64 c
 gsave  408 306 1837 13 C 1942.94 259.249 t 0 r /Helvetica-Bold findfont 25.6831 sf 0 0 m 
 220 206 192 185 170 163 148 141 125 118 111 97 83 69 61 47 40 25 18
(A = 0.022, p = 1.000) K NC gr  1 0.6 1 c black 1 0.6 1 c
 gsave  408 306 1837 13 C 2242.08 128.2 t 90 r /Helvetica-Bold findfont 28.5368 sf 0 0 m (/dof=1.1) show NC gr  black 1 0.6 1 c
 gsave  408 306 1837 13 C 2230.68 116.804 t 90 r /Helvetica-Bold findfont 19.9758 sf 0 0 m (2) show NC gr  black 1 0.6 1 c
 gsave  408 306 1837 13 C 2242.08 99.7112 t 90 r /Symbol findfont 28.5368 sf 0 0 m (c) show NC gr 
 gr  gr showpage
end
%%EOF
