%!PS-Adobe-2.0 EPSF-2.0
%%BoundingBox:  0 0 567 332
%%Title: TargetXOffset_far_fits.eps: Fits
%%Creator: ROOT Version 5.30/06
%%CreationDate: Sun Feb  2 09:35:41 2014
%%EndComments
%%BeginProlog
80 dict begin
/s {stroke} def /l {lineto} def /m {moveto} def /t {translate} def
/r {rotate} def /rl {roll}  def /R {repeat} def
/d {rlineto} def /rm {rmoveto} def /gr {grestore} def /f {eofill} def
/c {setrgbcolor} def /black {0 setgray} def /sd {setdash} def
/cl {closepath} def /sf {scalefont setfont} def /lw {setlinewidth} def
/box {m dup 0 exch d exch 0 d 0 exch neg d cl} def
/NC{systemdict begin initclip end}def/C{NC box clip newpath}def
/bl {box s} def /bf {box f} def /Y { 0 exch d} def /X { 0 d} def 
/K {{pop pop 0 moveto} exch kshow} bind def
/ita {/ang 15 def gsave [1 0 ang dup sin exch cos div 1 0 0] concat} def 
/mp {newpath /y exch def /x exch def} def
/side {[w .77 mul w .23 mul] .385 w mul sd w 0 l currentpoint t -144 r} def
/mr {mp x y w2 0 360 arc} def /m24 {mr s} def /m20 {mr f} def
/mb {mp x y w2 add m w2 neg 0 d 0 w neg d w 0 d 0 w d cl} def
/mt {mp x y w2 add m w2 neg w neg d w 0 d cl} def
/m21 {mb f} def /m25 {mb s} def /m22 {mt f} def /m26{mt s} def
/m23 {mp x y w2 sub m w2 w d w neg 0 d cl f} def
/m27 {mp x y w2 add m w3 neg w2 neg d w3 w2 neg d w3 w2 d cl s} def
/m28 {mp x w2 sub y w2 sub w3 add m w3 0 d  0 w3 neg d w3 0 d 0 w3 d w3 0 d  0 w3 d w3 neg 0 d 0 w3 d w3 neg 0 d 0 w3 neg d w3 neg 0 d cl s } def
/m29 {mp gsave x w2 sub y w2 add w3 sub m currentpoint t 4 {side} repeat cl fill gr} def
/m30 {mp gsave x w2 sub y w2 add w3 sub m currentpoint t 4 {side} repeat cl s gr} def
/m31 {mp x y w2 sub m 0 w d x w2 sub y m w 0 d x w2 sub y w2 add m w w neg d x w2 sub y w2 sub m w w d s} def
/m32 {mp x y w2 sub m w2 w d w neg 0 d cl s} def
/m33 {mp x y w2 add m w3 neg w2 neg d w3 w2 neg d w3 w2 d cl f} def
/m34 {mp x w2 sub y w2 sub w3 add m w3 0 d  0 w3 neg d w3 0 d 0 w3 d w3 0 d  0 w3 d w3 neg 0 d 0 w3 d w3 neg 0 d 0 w3 neg d w3 neg 0 d cl f } def
/m2 {mp x y w2 sub m 0 w d x w2 sub y m w 0 d s} def
/m5 {mp x w2 sub y w2 sub m w w d x w2 sub y w2 add m w w neg d s} def
/reEncode {exch findfont dup length dict begin {1 index /FID eq  {pop pop} {def} ifelse } forall /Encoding exch def currentdict end dup /FontName get exch definefont pop } def [/Times-Bold /Times-Italic /Times-BoldItalic /Helvetica /Helvetica-Oblique
 /Helvetica-Bold /Helvetica-BoldOblique /Courier /Courier-Oblique /Courier-Bold /Courier-BoldOblique /Times-Roman /AvantGarde-Book /AvantGarde-BookOblique /AvantGarde-Demi /AvantGarde-DemiOblique /Bookman-Demi /Bookman-DemiItalic /Bookman-Light
 /Bookman-LightItalic /Helvetica-Narrow /Helvetica-Narrow-Bold /Helvetica-Narrow-BoldOblique /Helvetica-Narrow-Oblique /NewCenturySchlbk-Roman /NewCenturySchlbk-Bold /NewCenturySchlbk-BoldItalic /NewCenturySchlbk-Italic /Palatino-Bold
 /Palatino-BoldItalic /Palatino-Italic /Palatino-Roman ] {ISOLatin1Encoding reEncode } forall%%EndProlog
%%BeginSetup
%%EndSetup
newpath  gsave  .25 .25 scale  gsave  0 0 t black[  ] 0 sd 3 lw 1 1 1 c 2268 1328 0 0 bf black 1 1 1 c 408 305 23 1009 bf black 1 1 1 c black 306 229 84 1055 bl 306 229 84 1055 bl 84 1055 m 306 X s 84 1059 m -4 Y s 177 1059 m -4 Y s 271 1059 m -4 Y s
 364 1059 m -4 Y s 364 1059 m -4 Y s
 gsave  408 305 23 1009 C 74.0711 1034.15 t 0 r /Helvetica findfont 22.8295 sf 0 0 m (0) show NC gr 
 gsave  408 305 23 1009 C 170.933 1034.15 t 0 r /Helvetica findfont 22.8295 sf 0 0 m (1) show NC gr 
 gsave  408 305 23 1009 C 262.098 1034.15 t 0 r /Helvetica findfont 22.8295 sf 0 0 m (2) show NC gr 
 gsave  408 305 23 1009 C 353.262 1034.15 t 0 r /Helvetica findfont 22.8295 sf 0 0 m (3) show NC gr  84 1284 m 306 X s 84 1280 m 4 Y s 177 1280 m 4 Y s 271 1280 m 4 Y s 364 1280 m 4 Y s 364 1280 m 4 Y s 84 1055 m 229 Y s 89 1073 m -5 X s 87 1078 m -3
 X s 87 1083 m -3 X s 87 1088 m -3 X s 87 1093 m -3 X s 89 1099 m -5 X s 87 1104 m -3 X s 87 1109 m -3 X s 87 1114 m -3 X s 87 1119 m -3 X s 89 1125 m -5 X s 87 1130 m -3 X s 87 1135 m -3 X s 87 1140 m -3 X s 87 1145 m -3 X s 89 1151 m -5 X s 87 1156
 m -3 X s 87 1161 m -3 X s 87 1166 m -3 X s 87 1171 m -3 X s 89 1177 m -5 X s 87 1182 m -3 X s 87 1187 m -3 X s 87 1192 m -3 X s 87 1197 m -3 X s 89 1203 m -5 X s 87 1208 m -3 X s 87 1213 m -3 X s 87 1218 m -3 X s 87 1223 m -3 X s 89 1229 m -5 X s 87
 1234 m -3 X s 87 1239 m -3 X s 87 1244 m -3 X s 87 1249 m -3 X s 89 1255 m -5 X s 87 1260 m -3 X s 87 1265 m -3 X s 87 1270 m -3 X s 87 1275 m -3 X s 89 1281 m -5 X s 89 1073 m -5 X s 87 1067 m -3 X s 87 1062 m -3 X s 87 1057 m -3 X s 89 1281 m -5 X
 s
 gsave  408 305 23 1009 C 14.2445 1065.48 t 0 r /Helvetica findfont 22.8295 sf 0 0 m (\2550.035) show NC gr 
 gsave  408 305 23 1009 C 28.4889 1091.12 t 0 r /Helvetica findfont 22.8295 sf 0 0 m (\2550.03) show NC gr 
 gsave  408 305 23 1009 C 14.2445 1116.76 t 0 r /Helvetica findfont 22.8295 sf 0 0 m (\2550.025) show NC gr 
 gsave  408 305 23 1009 C 28.4889 1142.4 t 0 r /Helvetica findfont 22.8295 sf 0 0 m (\2550.02) show NC gr 
 gsave  408 305 23 1009 C 14.2445 1170.89 t 0 r /Helvetica findfont 22.8295 sf 0 0 m (\2550.015) show NC gr 
 gsave  408 305 23 1009 C 31.3378 1196.53 t 0 r /Helvetica findfont 22.8295 sf 0 0 m (\2550.01) show NC gr 
 gsave  408 305 23 1009 C 14.2445 1222.17 t 0 r /Helvetica findfont 22.8295 sf 0 0 m (\2550.005) show NC gr 
 gsave  408 305 23 1009 C 65.5245 1247.81 t 0 r /Helvetica findfont 22.8295 sf 0 0 m (0) show NC gr 
 gsave  408 305 23 1009 C 22.7911 1273.45 t 0 r /Helvetica findfont 22.8295 sf 0 0 m (0.005) show NC gr  390 1055 m 229 Y s 385 1073 m 5 X s 387 1078 m 3 X s 387 1083 m 3 X s 387 1088 m 3 X s 387 1093 m 3 X s 385 1099 m 5 X s 387 1104 m 3 X s 387
 1109 m 3 X s 387 1114 m 3 X s 387 1119 m 3 X s 385 1125 m 5 X s 387 1130 m 3 X s 387 1135 m 3 X s 387 1140 m 3 X s 387 1145 m 3 X s 385 1151 m 5 X s 387 1156 m 3 X s 387 1161 m 3 X s 387 1166 m 3 X s 387 1171 m 3 X s 385 1177 m 5 X s 387 1182 m 3 X
 s 387 1187 m 3 X s 387 1192 m 3 X s 387 1197 m 3 X s 385 1203 m 5 X s 387 1208 m 3 X s 387 1213 m 3 X s 387 1218 m 3 X s 387 1223 m 3 X s 385 1229 m 5 X s 387 1234 m 3 X s 387 1239 m 3 X s 387 1244 m 3 X s 387 1249 m 3 X s 385 1255 m 5 X s 387 1260
 m 3 X s 387 1265 m 3 X s 387 1270 m 3 X s 387 1275 m 3 X s 385 1281 m 5 X s 385 1073 m 5 X s 387 1067 m 3 X s 387 1062 m 3 X s 387 1057 m 3 X s 385 1281 m 5 X s /w 22 def /w2 {w 2 div} def /w3 {w 3 div} def 131 1255 177 1228 271 1186 364 1083 4 {
 m21} R 1 0 0 c 9 lw 0.95 0.95 0.95 c black 1 0 0 c 85 1255 m 3 X 4 -1 d 12 X 3 -1 d 6 X 3 -1 d 3 X 3 -1 d 3 X 3 -1 d 3 X 3 -1 d 3 -1 d 4 X 3 -1 d 3 -1 d 3 -1 d 3 -1 d 3 -1 d 3 X 3 -1 d 3 -2 d 3 -1 d 3 -1 d 3 -1 d 3 -1 d 3 -1 d 3 -2 d 3 -1 d 4 -1 d 3
 -2 d 3 -1 d 3 -2 d 3 -1 d 3 -2 d 3 -1 d 3 -2 d 3 -2 d 3 -2 d 3 -1 d 3 -2 d 3 -2 d 3 -2 d 3 -2 d 3 -2 d s 235 1205 m 4 -2 d 3 -2 d 3 -2 d 3 -2 d 3 -2 d 3 -3 d 3 -2 d 3 -2 d 3 -2 d 3 -3 d 3 -2 d 3 -3 d 3 -2 d 3 -3 d 3 -2 d 3 -3 d 3 -3 d 4 -2 d 3 -3 d
 3 -3 d 3 -3 d 3 -3 d 3 -2 d 3 -3 d 3 -3 d 3 -3 d 3 -3 d 3 -4 d 3 -3 d 3 -3 d 3 -3 d 3 -3 d 3 -4 d 4 -3 d 3 -3 d 3 -4 d 3 -3 d 3 -4 d 3 -3 d 3 -4 d 3 -4 d 3 -3 d 3 -4 d 3 -4 d 3 -4 d 3 -3 d 3 -4 d 3 -4 d 3 -4 d s 385 1059 m 4 -4 d s 0.49 0.6 0.82 c
 black 0.49 0.6 0.82 c
 gsave  408 305 23 1009 C 142.445 1293.4 t 0 r /Helvetica-Bold findfont 25.6831 sf 0 0 m (0.0 < E < 0.5 GeV) show NC gr  0.52 0.76 0.64 c black 0.52 0.76 0.64 c
 gsave  408 305 23 1009 C 122.502 1256.36 t 0 r /Helvetica-Bold findfont 25.6831 sf 0 0 m 
 228 214 200 193 178 171 156 149 134 126 119 105 91 77 69 55 47 39 25 17
(A = \2550.004, p = 2.000) K NC gr  1 0.6 1 c black 1 0.6 1 c
 gsave  408 305 23 1009 C 427.334 1122.46 t 90 r /Helvetica-Bold findfont 28.5368 sf 0 0 m (/dof=0.5) show NC gr  black 1 0.6 1 c
 gsave  408 305 23 1009 C 415.938 1111.07 t 90 r /Helvetica-Bold findfont 19.9758 sf 0 0 m (2) show NC gr  black 1 0.6 1 c
 gsave  408 305 23 1009 C 427.334 1093.97 t 90 r /Symbol findfont 28.5368 sf 0 0 m (c) show NC gr  black 3 lw 1 1 1 c 408 305 476 1009 bf black 1 1 1 c black 307 229 537 1055 bl 307 229 537 1055 bl 537 1055 m 307 X s 537 1059 m -4 Y s 631 1059 m -4 Y
 s 724 1059 m -4 Y s 818 1059 m -4 Y s 818 1059 m -4 Y s
 gsave  408 305 476 1009 C 527.045 1034.15 t 0 r /Helvetica findfont 22.8295 sf 0 0 m (0) show NC gr 
 gsave  408 305 476 1009 C 623.907 1034.15 t 0 r /Helvetica findfont 22.8295 sf 0 0 m (1) show NC gr 
 gsave  408 305 476 1009 C 715.071 1034.15 t 0 r /Helvetica findfont 22.8295 sf 0 0 m (2) show NC gr 
 gsave  408 305 476 1009 C 809.085 1034.15 t 0 r /Helvetica findfont 22.8295 sf 0 0 m (3) show NC gr  537 1284 m 307 X s 537 1280 m 4 Y s 631 1280 m 4 Y s 724 1280 m 4 Y s 818 1280 m 4 Y s 818 1280 m 4 Y s 537 1055 m 229 Y s 543 1065 m -6 X s 540
 1069 m -3 X s 540 1074 m -3 X s 540 1079 m -3 X s 540 1083 m -3 X s 543 1088 m -6 X s 540 1092 m -3 X s 540 1097 m -3 X s 540 1102 m -3 X s 540 1106 m -3 X s 543 1111 m -6 X s 540 1115 m -3 X s 540 1120 m -3 X s 540 1125 m -3 X s 540 1129 m -3 X s
 543 1134 m -6 X s 540 1138 m -3 X s 540 1143 m -3 X s 540 1148 m -3 X s 540 1152 m -3 X s 543 1157 m -6 X s 540 1161 m -3 X s 540 1166 m -3 X s 540 1171 m -3 X s 540 1175 m -3 X s 543 1180 m -6 X s 540 1184 m -3 X s 540 1189 m -3 X s 540 1194 m -3 X
 s 540 1198 m -3 X s 543 1203 m -6 X s 540 1207 m -3 X s 540 1212 m -3 X s 540 1217 m -3 X s 540 1221 m -3 X s 543 1226 m -6 X s 540 1230 m -3 X s 540 1235 m -3 X s 540 1240 m -3 X s 540 1244 m -3 X s 543 1249 m -6 X s 540 1253 m -3 X s 540 1258 m -3
 X s 540 1263 m -3 X s 540 1267 m -3 X s 543 1272 m -6 X s 543 1065 m -6 X s 540 1060 m -3 X s 540 1056 m -3 X s 543 1272 m -6 X s 540 1276 m -3 X s 540 1281 m -3 X s
 gsave  408 305 476 1009 C 481.462 1056.94 t 0 r /Helvetica findfont 22.8295 sf 0 0 m (\2550.04) show NC gr 
 gsave  408 305 476 1009 C 467.218 1079.73 t 0 r /Helvetica findfont 22.8295 sf 0 0 m (\2550.035) show NC gr 
 gsave  408 305 476 1009 C 481.462 1102.52 t 0 r /Helvetica findfont 22.8295 sf 0 0 m (\2550.03) show NC gr 
 gsave  408 305 476 1009 C 467.218 1125.31 t 0 r /Helvetica findfont 22.8295 sf 0 0 m (\2550.025) show NC gr 
 gsave  408 305 476 1009 C 481.462 1150.95 t 0 r /Helvetica findfont 22.8295 sf 0 0 m (\2550.02) show NC gr 
 gsave  408 305 476 1009 C 467.218 1173.74 t 0 r /Helvetica findfont 22.8295 sf 0 0 m (\2550.015) show NC gr 
 gsave  408 305 476 1009 C 484.311 1196.53 t 0 r /Helvetica findfont 22.8295 sf 0 0 m (\2550.01) show NC gr 
 gsave  408 305 476 1009 C 467.218 1219.32 t 0 r /Helvetica findfont 22.8295 sf 0 0 m (\2550.005) show NC gr 
 gsave  408 305 476 1009 C 518.498 1242.12 t 0 r /Helvetica findfont 22.8295 sf 0 0 m (0) show NC gr 
 gsave  408 305 476 1009 C 475.765 1264.91 t 0 r /Helvetica findfont 22.8295 sf 0 0 m (0.005) show NC gr  844 1055 m 229 Y s 838 1065 m 6 X s 841 1069 m 3 X s 841 1074 m 3 X s 841 1079 m 3 X s 841 1083 m 3 X s 838 1088 m 6 X s 841 1092 m 3 X s 841
 1097 m 3 X s 841 1102 m 3 X s 841 1106 m 3 X s 838 1111 m 6 X s 841 1115 m 3 X s 841 1120 m 3 X s 841 1125 m 3 X s 841 1129 m 3 X s 838 1134 m 6 X s 841 1138 m 3 X s 841 1143 m 3 X s 841 1148 m 3 X s 841 1152 m 3 X s 838 1157 m 6 X s 841 1161 m 3 X
 s 841 1166 m 3 X s 841 1171 m 3 X s 841 1175 m 3 X s 838 1180 m 6 X s 841 1184 m 3 X s 841 1189 m 3 X s 841 1194 m 3 X s 841 1198 m 3 X s 838 1203 m 6 X s 841 1207 m 3 X s 841 1212 m 3 X s 841 1217 m 3 X s 841 1221 m 3 X s 838 1226 m 6 X s 841 1230
 m 3 X s 841 1235 m 3 X s 841 1240 m 3 X s 841 1244 m 3 X s 838 1249 m 6 X s 841 1253 m 3 X s 841 1258 m 3 X s 841 1263 m 3 X s 841 1267 m 3 X s 838 1272 m 6 X s 838 1065 m 6 X s 841 1060 m 3 X s 841 1056 m 3 X s 838 1272 m 6 X s 841 1276 m 3 X s 841
 1281 m 3 X s /w 23 def /w2 {w 2 div} def /w3 {w 3 div} def 584 1250 631 1255 724 1182 818 1084 4 { m21} R 1 0 0 c 9 lw 0.95 0.95 0.95 c black 1 0 0 c 539 1249 m 6 X 3 -1 d 12 X 3 -1 d 7 X 3 -1 d 3 X 3 -1 d 3 X 3 -1 d 3 X 3 -1 d 3 -1 d 3 -1 d 3 X 3
 -1 d 3 -1 d 3 -1 d 3 -1 d 4 -1 d 3 -1 d 3 -1 d 3 -1 d 3 -1 d 3 -1 d 3 -1 d 3 -1 d 3 -2 d 3 -1 d 3 -1 d 3 -2 d 3 -1 d 3 -2 d 3 -1 d 3 -2 d 3 -1 d 4 -2 d 3 -1 d 3 -2 d 3 -2 d 3 -2 d 3 -1 d 3 -2 d 3 -2 d s 689 1202 m 3 -2 d 3 -2 d 3 -2 d 3 -2 d 3 -2 d
 3 -2 d 3 -2 d 3 -3 d 4 -2 d 3 -2 d 3 -2 d 3 -3 d 3 -2 d 3 -2 d 3 -3 d 3 -2 d 3 -3 d 3 -2 d 3 -3 d 3 -3 d 3 -2 d 3 -3 d 3 -3 d 3 -3 d 4 -2 d 3 -3 d 3 -3 d 3 -3 d 3 -3 d 3 -3 d 3 -3 d 3 -3 d 3 -4 d 3 -3 d 3 -3 d 3 -3 d 3 -3 d 3 -4 d 3 -3 d 3 -4 d 4 -3
 d 3 -3 d 3 -4 d 3 -4 d 3 -3 d 3 -4 d 3 -3 d 3 -4 d 3 -4 d s 839 1063 m 3 -4 d s 0.49 0.6 0.82 c black 0.49 0.6 0.82 c
 gsave  408 305 476 1009 C 595.418 1293.4 t 0 r /Helvetica-Bold findfont 25.6831 sf 0 0 m (0.5 < E < 1.0 GeV) show NC gr  0.52 0.76 0.64 c black 0.52 0.76 0.64 c
 gsave  408 305 476 1009 C 575.476 1256.36 t 0 r /Helvetica-Bold findfont 25.6831 sf 0 0 m 
 228 214 200 193 178 171 156 149 133 126 119 105 91 76 69 55 47 39 25 17
(A = \2550.004, p = 2.000) K NC gr  1 0.6 1 c black 1 0.6 1 c
 gsave  408 305 476 1009 C 883.156 1122.46 t 90 r /Helvetica-Bold findfont 28.5368 sf 0 0 m (/dof=2.1) show NC gr  black 1 0.6 1 c
 gsave  408 305 476 1009 C 871.76 1111.07 t 90 r /Helvetica-Bold findfont 19.9758 sf 0 0 m (2) show NC gr  black 1 0.6 1 c
 gsave  408 305 476 1009 C 883.156 1093.97 t 90 r /Symbol findfont 28.5368 sf 0 0 m (c) show NC gr  black 3 lw 1 1 1 c 408 305 930 1009 bf black 1 1 1 c black 306 229 991 1055 bl 306 229 991 1055 bl 991 1055 m 306 X s 991 1059 m -4 Y s 1084 1059 m -4
 Y s 1178 1059 m -4 Y s 1271 1059 m -4 Y s 1271 1059 m -4 Y s
 gsave  408 305 930 1009 C 980.018 1034.15 t 0 r /Helvetica findfont 22.8295 sf 0 0 m (0) show NC gr 
 gsave  408 305 930 1009 C 1076.88 1034.15 t 0 r /Helvetica findfont 22.8295 sf 0 0 m (1) show NC gr 
 gsave  408 305 930 1009 C 1168.04 1034.15 t 0 r /Helvetica findfont 22.8295 sf 0 0 m (2) show NC gr 
 gsave  408 305 930 1009 C 1262.06 1034.15 t 0 r /Helvetica findfont 22.8295 sf 0 0 m (3) show NC gr  991 1284 m 306 X s 991 1280 m 4 Y s 1084 1280 m 4 Y s 1178 1280 m 4 Y s 1271 1280 m 4 Y s 1271 1280 m 4 Y s 991 1055 m 229 Y s 997 1071 m -6 X s 994
 1078 m -3 X s 994 1085 m -3 X s 994 1093 m -3 X s 994 1100 m -3 X s 997 1107 m -6 X s 994 1114 m -3 X s 994 1121 m -3 X s 994 1129 m -3 X s 994 1136 m -3 X s 997 1143 m -6 X s 994 1150 m -3 X s 994 1157 m -3 X s 994 1165 m -3 X s 994 1172 m -3 X s
 997 1179 m -6 X s 994 1186 m -3 X s 994 1193 m -3 X s 994 1201 m -3 X s 994 1208 m -3 X s 997 1215 m -6 X s 994 1222 m -3 X s 994 1229 m -3 X s 994 1237 m -3 X s 994 1244 m -3 X s 997 1251 m -6 X s 997 1071 m -6 X s 994 1064 m -3 X s 994 1057 m -3 X
 s 997 1251 m -6 X s 994 1258 m -3 X s 994 1265 m -3 X s 994 1272 m -3 X s 994 1280 m -3 X s
 gsave  408 305 930 1009 C 937.285 1062.64 t 0 r /Helvetica findfont 22.8295 sf 0 0 m (\2550.05) show NC gr 
 gsave  408 305 930 1009 C 937.285 1099.67 t 0 r /Helvetica findfont 22.8295 sf 0 0 m (\2550.04) show NC gr 
 gsave  408 305 930 1009 C 937.285 1136.71 t 0 r /Helvetica findfont 22.8295 sf 0 0 m (\2550.03) show NC gr 
 gsave  408 305 930 1009 C 937.285 1170.89 t 0 r /Helvetica findfont 22.8295 sf 0 0 m (\2550.02) show NC gr 
 gsave  408 305 930 1009 C 940.134 1207.93 t 0 r /Helvetica findfont 22.8295 sf 0 0 m (\2550.01) show NC gr 
 gsave  408 305 930 1009 C 974.32 1244.96 t 0 r /Helvetica findfont 22.8295 sf 0 0 m (0) show NC gr  1297 1055 m 229 Y s 1292 1071 m 5 X s 1294 1078 m 3 X s 1294 1085 m 3 X s 1294 1093 m 3 X s 1294 1100 m 3 X s 1292 1107 m 5 X s 1294 1114 m 3 X s
 1294 1121 m 3 X s 1294 1129 m 3 X s 1294 1136 m 3 X s 1292 1143 m 5 X s 1294 1150 m 3 X s 1294 1157 m 3 X s 1294 1165 m 3 X s 1294 1172 m 3 X s 1292 1179 m 5 X s 1294 1186 m 3 X s 1294 1193 m 3 X s 1294 1201 m 3 X s 1294 1208 m 3 X s 1292 1215 m 5 X
 s 1294 1222 m 3 X s 1294 1229 m 3 X s 1294 1237 m 3 X s 1294 1244 m 3 X s 1292 1251 m 5 X s 1292 1071 m 5 X s 1294 1064 m 3 X s 1294 1057 m 3 X s 1292 1251 m 5 X s 1294 1258 m 3 X s 1294 1265 m 3 X s 1294 1272 m 3 X s 1294 1280 m 3 X s 1038 1255
 1084 1257 1178 1211 1271 1082 4 { m21} R 1 0 0 c 9 lw 0.95 0.95 0.95 c black 1 0 0 c 993 1251 m 12 X 3 -1 d 9 X 3 -1 d 3 X 3 -1 d 6 X 3 -1 d 3 -1 d 4 X 3 -1 d 3 X 3 -1 d 3 -1 d 3 -1 d 3 X 3 -1 d 3 -1 d 3 -1 d 3 -1 d 3 -1 d 3 -1 d 3 -1 d 3 -1 d 3 -1
 d 3 -2 d 4 -1 d 3 -1 d 3 -1 d 3 -2 d 3 -1 d 3 -1 d 3 -2 d 3 -1 d 3 -2 d 3 -1 d 3 -2 d 3 -2 d 3 -1 d 3 -2 d 3 -2 d 3 -1 d 4 -2 d s 1143 1206 m 3 -2 d 3 -2 d 3 -2 d 3 -2 d 3 -2 d 3 -2 d 3 -2 d 3 -2 d 3 -2 d 3 -2 d 3 -3 d 3 -2 d 3 -2 d 3 -2 d 3 -3 d 4
 -2 d 3 -3 d 3 -2 d 3 -3 d 3 -2 d 3 -3 d 3 -2 d 3 -3 d 3 -3 d 3 -2 d 3 -3 d 3 -3 d 3 -3 d 3 -3 d 3 -3 d 3 -2 d 3 -3 d 4 -3 d 3 -4 d 3 -3 d 3 -3 d 3 -3 d 3 -3 d 3 -3 d 3 -4 d 3 -3 d 3 -3 d 3 -4 d 3 -3 d 3 -4 d 3 -3 d 3 -4 d 3 -3 d 4 -4 d s 1293 1072 m
 3 -3 d s 0.49 0.6 0.82 c black 0.49 0.6 0.82 c
 gsave  408 305 930 1009 C 1051.24 1293.4 t 0 r /Helvetica-Bold findfont 25.6831 sf 0 0 m (1.0 < E < 1.5 GeV) show NC gr  0.52 0.76 0.64 c black 0.52 0.76 0.64 c
 gsave  408 305 930 1009 C 1031.3 1256.36 t 0 r /Helvetica-Bold findfont 25.6831 sf 0 0 m 
 228 214 200 193 178 171 156 149 133 126 119 105 91 77 69 55 47 39 25 17
(A = \2550.005, p = 2.000) K NC gr  1 0.6 1 c black 1 0.6 1 c
 gsave  408 305 930 1009 C 1336.13 1122.46 t 90 r /Helvetica-Bold findfont 28.5368 sf 0 0 m (/dof=8.8) show NC gr  black 1 0.6 1 c
 gsave  408 305 930 1009 C 1324.73 1111.07 t 90 r /Helvetica-Bold findfont 19.9758 sf 0 0 m (2) show NC gr  black 1 0.6 1 c
 gsave  408 305 930 1009 C 1336.13 1093.97 t 90 r /Symbol findfont 28.5368 sf 0 0 m (c) show NC gr  black 3 lw 1 1 1 c 408 305 1383 1009 bf black 1 1 1 c black 306 229 1445 1055 bl 306 229 1445 1055 bl 1445 1055 m 306 X s 1445 1059 m -4 Y s 1538 1059
 m -4 Y s 1631 1059 m -4 Y s 1725 1059 m -4 Y s 1725 1059 m -4 Y s
 gsave  408 305 1383 1009 C 1435.84 1034.15 t 0 r /Helvetica findfont 22.8295 sf 0 0 m (0) show NC gr 
 gsave  408 305 1383 1009 C 1529.85 1034.15 t 0 r /Helvetica findfont 22.8295 sf 0 0 m (1) show NC gr 
 gsave  408 305 1383 1009 C 1621.02 1034.15 t 0 r /Helvetica findfont 22.8295 sf 0 0 m (2) show NC gr 
 gsave  408 305 1383 1009 C 1715.03 1034.15 t 0 r /Helvetica findfont 22.8295 sf 0 0 m (3) show NC gr  1445 1284 m 306 X s 1445 1280 m 4 Y s 1538 1280 m 4 Y s 1631 1280 m 4 Y s 1725 1280 m 4 Y s 1725 1280 m 4 Y s 1445 1055 m 229 Y s 1450 1071 m -5 X
 s 1447 1077 m -2 X s 1447 1084 m -2 X s 1447 1091 m -2 X s 1447 1098 m -2 X s 1450 1105 m -5 X s 1447 1111 m -2 X s 1447 1118 m -2 X s 1447 1125 m -2 X s 1447 1132 m -2 X s 1450 1138 m -5 X s 1447 1145 m -2 X s 1447 1152 m -2 X s 1447 1159 m -2 X s
 1447 1166 m -2 X s 1450 1172 m -5 X s 1447 1179 m -2 X s 1447 1186 m -2 X s 1447 1193 m -2 X s 1447 1200 m -2 X s 1450 1206 m -5 X s 1447 1213 m -2 X s 1447 1220 m -2 X s 1447 1227 m -2 X s 1447 1233 m -2 X s 1450 1240 m -5 X s 1447 1247 m -2 X s
 1447 1254 m -2 X s 1447 1261 m -2 X s 1447 1267 m -2 X s 1450 1274 m -5 X s 1450 1071 m -5 X s 1447 1064 m -2 X s 1447 1057 m -2 X s 1450 1274 m -5 X s 1447 1281 m -2 X s
 gsave  408 305 1383 1009 C 1390.26 1062.64 t 0 r /Helvetica findfont 22.8295 sf 0 0 m (\2550.05) show NC gr 
 gsave  408 305 1383 1009 C 1390.26 1096.82 t 0 r /Helvetica findfont 22.8295 sf 0 0 m (\2550.04) show NC gr 
 gsave  408 305 1383 1009 C 1390.26 1131.01 t 0 r /Helvetica findfont 22.8295 sf 0 0 m (\2550.03) show NC gr 
 gsave  408 305 1383 1009 C 1390.26 1165.2 t 0 r /Helvetica findfont 22.8295 sf 0 0 m (\2550.02) show NC gr 
 gsave  408 305 1383 1009 C 1393.11 1199.38 t 0 r /Helvetica findfont 22.8295 sf 0 0 m (\2550.01) show NC gr 
 gsave  408 305 1383 1009 C 1427.29 1233.57 t 0 r /Helvetica findfont 22.8295 sf 0 0 m (0) show NC gr 
 gsave  408 305 1383 1009 C 1398.81 1267.76 t 0 r /Helvetica findfont 22.8295 sf 0 0 m (0.01) show NC gr  1751 1055 m 229 Y s 1745 1071 m 6 X s 1748 1077 m 3 X s 1748 1084 m 3 X s 1748 1091 m 3 X s 1748 1098 m 3 X s 1745 1105 m 6 X s 1748 1111 m 3 X
 s 1748 1118 m 3 X s 1748 1125 m 3 X s 1748 1132 m 3 X s 1745 1138 m 6 X s 1748 1145 m 3 X s 1748 1152 m 3 X s 1748 1159 m 3 X s 1748 1166 m 3 X s 1745 1172 m 6 X s 1748 1179 m 3 X s 1748 1186 m 3 X s 1748 1193 m 3 X s 1748 1200 m 3 X s 1745 1206 m 6
 X s 1748 1213 m 3 X s 1748 1220 m 3 X s 1748 1227 m 3 X s 1748 1233 m 3 X s 1745 1240 m 6 X s 1748 1247 m 3 X s 1748 1254 m 3 X s 1748 1261 m 3 X s 1748 1267 m 3 X s 1745 1274 m 6 X s 1745 1071 m 6 X s 1748 1064 m 3 X s 1748 1057 m 3 X s 1745 1274 m
 6 X s 1748 1281 m 3 X s 1491 1257 1538 1241 1631 1190 1725 1081 4 { m21} R 1 0 0 c 9 lw 0.95 0.95 0.95 c black 1 0 0 c 1446 1240 m 15 X 3 -1 d 10 X 3 -1 d 3 X 3 -1 d 3 X 3 -1 d 3 X 3 -1 d 3 X 3 -1 d 3 -1 d 3 X 3 -1 d 3 -1 d 3 -1 d 4 X 3 -1 d 3 -1 d
 3 -1 d 3 -1 d 3 -1 d 3 -1 d 3 -1 d 3 -2 d 3 -1 d 3 -1 d 3 -1 d 3 -2 d 3 -1 d 3 -1 d 3 -2 d 4 -1 d 3 -1 d 3 -2 d 3 -2 d 3 -1 d 3 -2 d 3 -1 d 3 -2 d 3 -2 d 3 -1 d s 1596 1197 m 3 -2 d 3 -2 d 3 -2 d 3 -2 d 3 -2 d 3 -2 d 4 -2 d 3 -2 d 3 -2 d 3 -2 d 3 -2
 d 3 -2 d 3 -2 d 3 -3 d 3 -2 d 3 -2 d 3 -3 d 3 -2 d 3 -2 d 3 -3 d 3 -2 d 3 -3 d 3 -3 d 4 -2 d 3 -3 d 3 -2 d 3 -3 d 3 -3 d 3 -3 d 3 -3 d 3 -2 d 3 -3 d 3 -3 d 3 -3 d 3 -3 d 3 -3 d 3 -3 d 3 -3 d 3 -3 d 4 -4 d 3 -3 d 3 -3 d 3 -3 d 3 -4 d 3 -3 d 3 -3 d 3
 -4 d 3 -3 d 3 -4 d s 1746 1067 m 3 -3 d s 0.49 0.6 0.82 c black 0.49 0.6 0.82 c
 gsave  408 305 1383 1009 C 1504.21 1293.4 t 0 r /Helvetica-Bold findfont 25.6831 sf 0 0 m (1.5 < E < 2.0 GeV) show NC gr  0.52 0.76 0.64 c black 0.52 0.76 0.64 c
 gsave  408 305 1383 1009 C 1484.27 1256.36 t 0 r /Helvetica-Bold findfont 25.6831 sf 0 0 m 
 228 214 200 193 178 171 156 149 134 126 119 105 91 77 69 55 47 40 25 17
(A = \2550.005, p = 2.000) K NC gr  1 0.6 1 c black 1 0.6 1 c
 gsave  408 305 1383 1009 C 1789.1 1122.46 t 90 r /Helvetica-Bold findfont 28.5368 sf 0 0 m (/dof=6.3) show NC gr  black 1 0.6 1 c
 gsave  408 305 1383 1009 C 1777.71 1111.07 t 90 r /Helvetica-Bold findfont 19.9758 sf 0 0 m (2) show NC gr  black 1 0.6 1 c
 gsave  408 305 1383 1009 C 1789.1 1093.97 t 90 r /Symbol findfont 28.5368 sf 0 0 m (c) show NC gr  black 3 lw 1 1 1 c 408 305 1837 1009 bf black 1 1 1 c black 306 229 1898 1055 bl 306 229 1898 1055 bl 1898 1055 m 306 X s 1898 1059 m -4 Y s 1992 1059
 m -4 Y s 2085 1059 m -4 Y s 2179 1059 m -4 Y s 2179 1059 m -4 Y s
 gsave  408 305 1837 1009 C 1888.81 1034.15 t 0 r /Helvetica findfont 22.8295 sf 0 0 m (0) show NC gr 
 gsave  408 305 1837 1009 C 1985.68 1034.15 t 0 r /Helvetica findfont 22.8295 sf 0 0 m (1) show NC gr 
 gsave  408 305 1837 1009 C 2073.99 1034.15 t 0 r /Helvetica findfont 22.8295 sf 0 0 m (2) show NC gr 
 gsave  408 305 1837 1009 C 2168.01 1034.15 t 0 r /Helvetica findfont 22.8295 sf 0 0 m (3) show NC gr  1898 1284 m 306 X s 1898 1280 m 4 Y s 1992 1280 m 4 Y s 2085 1280 m 4 Y s 2179 1280 m 4 Y s 2179 1280 m 4 Y s 1898 1055 m 229 Y s 1904 1078 m -6 X
 s 1901 1084 m -3 X s 1901 1089 m -3 X s 1901 1095 m -3 X s 1901 1100 m -3 X s 1904 1106 m -6 X s 1901 1111 m -3 X s 1901 1117 m -3 X s 1901 1122 m -3 X s 1901 1128 m -3 X s 1904 1133 m -6 X s 1901 1139 m -3 X s 1901 1145 m -3 X s 1901 1150 m -3 X s
 1901 1156 m -3 X s 1904 1161 m -6 X s 1901 1167 m -3 X s 1901 1172 m -3 X s 1901 1178 m -3 X s 1901 1183 m -3 X s 1904 1189 m -6 X s 1901 1194 m -3 X s 1901 1200 m -3 X s 1901 1205 m -3 X s 1901 1211 m -3 X s 1904 1217 m -6 X s 1901 1222 m -3 X s
 1901 1228 m -3 X s 1901 1233 m -3 X s 1901 1239 m -3 X s 1904 1244 m -6 X s 1901 1250 m -3 X s 1901 1255 m -3 X s 1901 1261 m -3 X s 1901 1266 m -3 X s 1904 1272 m -6 X s 1904 1078 m -6 X s 1901 1073 m -3 X s 1901 1067 m -3 X s 1901 1061 m -3 X s
 1901 1056 m -3 X s 1904 1272 m -6 X s 1901 1277 m -3 X s 1901 1283 m -3 X s
 gsave  408 305 1837 1009 C 1828.99 1071.18 t 0 r /Helvetica findfont 22.8295 sf 0 0 m (\2550.035) show NC gr 
 gsave  408 305 1837 1009 C 1843.23 1099.67 t 0 r /Helvetica findfont 22.8295 sf 0 0 m (\2550.03) show NC gr 
 gsave  408 305 1837 1009 C 1828.99 1125.31 t 0 r /Helvetica findfont 22.8295 sf 0 0 m (\2550.025) show NC gr 
 gsave  408 305 1837 1009 C 1843.23 1153.8 t 0 r /Helvetica findfont 22.8295 sf 0 0 m (\2550.02) show NC gr 
 gsave  408 305 1837 1009 C 1828.99 1182.29 t 0 r /Helvetica findfont 22.8295 sf 0 0 m (\2550.015) show NC gr 
 gsave  408 305 1837 1009 C 1846.08 1210.78 t 0 r /Helvetica findfont 22.8295 sf 0 0 m (\2550.01) show NC gr 
 gsave  408 305 1837 1009 C 1828.99 1236.42 t 0 r /Helvetica findfont 22.8295 sf 0 0 m (\2550.005) show NC gr 
 gsave  408 305 1837 1009 C 1880.27 1264.91 t 0 r /Helvetica findfont 22.8295 sf 0 0 m (0) show NC gr  2204 1055 m 229 Y s 2199 1078 m 5 X s 2201 1084 m 3 X s 2201 1089 m 3 X s 2201 1095 m 3 X s 2201 1100 m 3 X s 2199 1106 m 5 X s 2201 1111 m 3 X s
 2201 1117 m 3 X s 2201 1122 m 3 X s 2201 1128 m 3 X s 2199 1133 m 5 X s 2201 1139 m 3 X s 2201 1145 m 3 X s 2201 1150 m 3 X s 2201 1156 m 3 X s 2199 1161 m 5 X s 2201 1167 m 3 X s 2201 1172 m 3 X s 2201 1178 m 3 X s 2201 1183 m 3 X s 2199 1189 m 5 X
 s 2201 1194 m 3 X s 2201 1200 m 3 X s 2201 1205 m 3 X s 2201 1211 m 3 X s 2199 1217 m 5 X s 2201 1222 m 3 X s 2201 1228 m 3 X s 2201 1233 m 3 X s 2201 1239 m 3 X s 2199 1244 m 5 X s 2201 1250 m 3 X s 2201 1255 m 3 X s 2201 1261 m 3 X s 2201 1266 m 3
 X s 2199 1272 m 5 X s 2199 1078 m 5 X s 2201 1073 m 3 X s 2201 1067 m 3 X s 2201 1061 m 3 X s 2201 1056 m 3 X s 2199 1272 m 5 X s 2201 1277 m 3 X s 2201 1283 m 3 X s 1945 1252 1992 1243 2085 1210 2179 1086 4 { m21} R 1945 1263 m 2 Y s 1939 1265 m 12
 X s 1945 1241 m -2 Y s 1939 1239 m 12 X s 1992 1254 m 1 Y s 1986 1255 m 11 X s 1992 1231 m -1 Y s 1986 1230 m 11 X s 2085 1222 m 1 Y s 2079 1223 m 12 X s 2085 1199 m -1 Y s 2079 1198 m 12 X s 2179 1098 m 1 Y s 2173 1099 m 11 X s 2179 1075 m -1 Y s
 2173 1074 m 11 X s 1 0 0 c 9 lw 0.95 0.95 0.95 c black 1 0 0 c 1900 1272 m 9 X 3 -1 d 9 X 3 -1 d 6 X 3 -1 d 3 X 3 -1 d 3 -1 d 4 X 3 -1 d 3 -1 d 3 X 3 -1 d 3 -1 d 3 -1 d 3 -1 d 3 -1 d 3 -1 d 3 -1 d 3 -1 d 3 -1 d 3 -1 d 3 -2 d 3 -1 d 4 -1 d 3 -2 d 3
 -1 d 3 -2 d 3 -1 d 3 -2 d 3 -1 d 3 -2 d 3 -1 d 3 -2 d 3 -2 d 3 -2 d 3 -2 d 3 -1 d 3 -2 d 3 -2 d 3 -2 d 4 -2 d 3 -2 d s 2050 1220 m 3 -3 d 3 -2 d 3 -2 d 3 -2 d 3 -3 d 3 -2 d 3 -2 d 3 -3 d 3 -2 d 3 -3 d 3 -2 d 3 -3 d 3 -3 d 3 -2 d 4 -3 d 3 -3 d 3 -3 d
 3 -2 d 3 -3 d 3 -3 d 3 -3 d 3 -3 d 3 -3 d 3 -3 d 3 -4 d 3 -3 d 3 -3 d 3 -3 d 3 -4 d 3 -3 d 4 -4 d 3 -3 d 3 -3 d 3 -4 d 3 -4 d 3 -3 d 3 -4 d 3 -4 d 3 -3 d 3 -4 d 3 -4 d 3 -4 d 3 -4 d 3 -4 d 3 -4 d 3 -4 d 4 -4 d 3 -4 d 3 -4 d s 2200 1065 m 3 -5 d s
 0.49 0.6 0.82 c black 0.49 0.6 0.82 c
 gsave  408 305 1837 1009 C 1957.19 1293.4 t 0 r /Helvetica-Bold findfont 25.6831 sf 0 0 m (2.0 < E < 2.5 GeV) show NC gr  0.52 0.76 0.64 c black 0.52 0.76 0.64 c
 gsave  408 305 1837 1009 C 1937.25 1256.36 t 0 r /Helvetica-Bold findfont 25.6831 sf 0 0 m 
 228 214 200 193 178 171 156 149 133 126 119 105 91 77 69 55 47 39 25 17
(A = \2550.004, p = 2.000) K NC gr  1 0.6 1 c black 1 0.6 1 c
 gsave  408 305 1837 1009 C 2242.08 1122.46 t 90 r /Helvetica-Bold findfont 28.5368 sf 0 0 m (/dof=1.4) show NC gr  black 1 0.6 1 c
 gsave  408 305 1837 1009 C 2230.68 1111.07 t 90 r /Helvetica-Bold findfont 19.9758 sf 0 0 m (2) show NC gr  black 1 0.6 1 c
 gsave  408 305 1837 1009 C 2242.08 1093.97 t 90 r /Symbol findfont 28.5368 sf 0 0 m (c) show NC gr  black 3 lw 1 1 1 c 408 305 23 677 bf black 1 1 1 c black 306 229 84 723 bl 306 229 84 723 bl 84 723 m 306 X s 84 727 m -4 Y s 177 727 m -4 Y s 271
 727 m -4 Y s 364 727 m -4 Y s 364 727 m -4 Y s
 gsave  408 305 23 677 C 74.0711 703.676 t 0 r /Helvetica findfont 22.8295 sf 0 0 m (0) show NC gr 
 gsave  408 305 23 677 C 170.933 703.676 t 0 r /Helvetica findfont 22.8295 sf 0 0 m (1) show NC gr 
 gsave  408 305 23 677 C 262.098 703.676 t 0 r /Helvetica findfont 22.8295 sf 0 0 m (2) show NC gr 
 gsave  408 305 23 677 C 353.262 703.676 t 0 r /Helvetica findfont 22.8295 sf 0 0 m (3) show NC gr  84 952 m 306 X s 84 948 m 4 Y s 177 948 m 4 Y s 271 948 m 4 Y s 364 948 m 4 Y s 364 948 m 4 Y s 84 723 m 229 Y s 89 736 m -5 X s 87 741 m -3 X s 87
 747 m -3 X s 87 752 m -3 X s 87 758 m -3 X s 89 763 m -5 X s 87 769 m -3 X s 87 774 m -3 X s 87 780 m -3 X s 87 785 m -3 X s 89 791 m -5 X s 87 796 m -3 X s 87 801 m -3 X s 87 807 m -3 X s 87 812 m -3 X s 89 818 m -5 X s 87 823 m -3 X s 87 829 m -3
 X s 87 834 m -3 X s 87 840 m -3 X s 89 845 m -5 X s 87 850 m -3 X s 87 856 m -3 X s 87 861 m -3 X s 87 867 m -3 X s 89 872 m -5 X s 87 878 m -3 X s 87 883 m -3 X s 87 889 m -3 X s 87 894 m -3 X s 89 899 m -5 X s 87 905 m -3 X s 87 910 m -3 X s 87
 916 m -3 X s 87 921 m -3 X s 89 927 m -5 X s 89 736 m -5 X s 87 731 m -3 X s 87 725 m -3 X s 89 927 m -5 X s 87 932 m -3 X s 87 938 m -3 X s 87 943 m -3 X s 87 949 m -3 X s
 gsave  408 305 23 677 C 28.4889 729.316 t 0 r /Helvetica findfont 22.8295 sf 0 0 m (\2550.07) show NC gr 
 gsave  408 305 23 677 C 28.4889 754.956 t 0 r /Helvetica findfont 22.8295 sf 0 0 m (\2550.06) show NC gr 
 gsave  408 305 23 677 C 28.4889 783.445 t 0 r /Helvetica findfont 22.8295 sf 0 0 m (\2550.05) show NC gr 
 gsave  408 305 23 677 C 28.4889 811.934 t 0 r /Helvetica findfont 22.8295 sf 0 0 m (\2550.04) show NC gr 
 gsave  408 305 23 677 C 28.4889 837.574 t 0 r /Helvetica findfont 22.8295 sf 0 0 m (\2550.03) show NC gr 
 gsave  408 305 23 677 C 28.4889 866.063 t 0 r /Helvetica findfont 22.8295 sf 0 0 m (\2550.02) show NC gr 
 gsave  408 305 23 677 C 31.3378 891.703 t 0 r /Helvetica findfont 22.8295 sf 0 0 m (\2550.01) show NC gr 
 gsave  408 305 23 677 C 65.5245 920.192 t 0 r /Helvetica findfont 22.8295 sf 0 0 m (0) show NC gr  390 723 m 229 Y s 385 736 m 5 X s 387 741 m 3 X s 387 747 m 3 X s 387 752 m 3 X s 387 758 m 3 X s 385 763 m 5 X s 387 769 m 3 X s 387 774 m 3 X s 387
 780 m 3 X s 387 785 m 3 X s 385 791 m 5 X s 387 796 m 3 X s 387 801 m 3 X s 387 807 m 3 X s 387 812 m 3 X s 385 818 m 5 X s 387 823 m 3 X s 387 829 m 3 X s 387 834 m 3 X s 387 840 m 3 X s 385 845 m 5 X s 387 850 m 3 X s 387 856 m 3 X s 387 861 m 3 X
 s 387 867 m 3 X s 385 872 m 5 X s 387 878 m 3 X s 387 883 m 3 X s 387 889 m 3 X s 387 894 m 3 X s 385 899 m 5 X s 387 905 m 3 X s 387 910 m 3 X s 387 916 m 3 X s 387 921 m 3 X s 385 927 m 5 X s 385 736 m 5 X s 387 731 m 3 X s 387 725 m 3 X s 385 927
 m 5 X s 387 932 m 3 X s 387 938 m 3 X s 387 943 m 3 X s 387 949 m 3 X s /w 22 def /w2 {w 2 div} def /w3 {w 3 div} def 131 926 177 918 271 890 364 748 4 { m21} R 1 0 0 c 9 lw 0.95 0.95 0.95 c black 1 0 0 c 85 927 m 7 X 3 -1 d 12 X 3 -1 d 6 X 3 -1 d 3
 X 3 -1 d 3 X 3 -1 d 3 -1 d 3 X 4 -1 d 3 -1 d 3 X 3 -1 d 3 -1 d 3 -1 d 3 -1 d 3 -1 d 3 -1 d 3 -1 d 3 -1 d 3 -1 d 3 -1 d 3 -2 d 3 -1 d 3 -1 d 4 -1 d 3 -2 d 3 -1 d 3 -2 d 3 -1 d 3 -2 d 3 -1 d 3 -2 d 3 -1 d 3 -2 d 3 -2 d 3 -2 d 3 -1 d 3 -2 d 3 -2 d 3 -2
 d s 235 879 m 4 -2 d 3 -2 d 3 -2 d 3 -2 d 3 -2 d 3 -2 d 3 -2 d 3 -3 d 3 -2 d 3 -2 d 3 -2 d 3 -3 d 3 -2 d 3 -3 d 3 -2 d 3 -3 d 3 -2 d 4 -3 d 3 -2 d 3 -3 d 3 -3 d 3 -3 d 3 -2 d 3 -3 d 3 -3 d 3 -3 d 3 -3 d 3 -3 d 3 -3 d 3 -3 d 3 -3 d 3 -3 d 3 -4 d 4 -3
 d 3 -3 d 3 -3 d 3 -4 d 3 -3 d 3 -4 d 3 -3 d 3 -3 d 3 -4 d 3 -4 d 3 -3 d 3 -4 d 3 -4 d 3 -3 d 3 -4 d 3 -4 d s 385 738 m 4 -4 d s 0.49 0.6 0.82 c black 0.49 0.6 0.82 c
 gsave  408 305 23 677 C 142.445 960.076 t 0 r /Helvetica-Bold findfont 25.6831 sf 0 0 m (2.5 < E < 3.0 GeV) show NC gr  0.52 0.76 0.64 c black 0.52 0.76 0.64 c
 gsave  408 305 23 677 C 122.502 923.04 t 0 r /Helvetica-Bold findfont 25.6831 sf 0 0 m 
 228 214 200 193 178 171 156 149 134 126 119 105 91 77 69 55 47 39 25 17
(A = \2550.007, p = 2.000) K NC gr  1 0.6 1 c black 1 0.6 1 c
 gsave  408 305 23 677 C 427.334 783.445 t 90 r /Helvetica-Bold findfont 28.5368 sf 0 0 m (/dof=12.6) show NC gr  black 1 0.6 1 c
 gsave  408 305 23 677 C 415.938 772.049 t 90 r /Helvetica-Bold findfont 19.9758 sf 0 0 m (2) show NC gr  black 1 0.6 1 c
 gsave  408 305 23 677 C 427.334 754.956 t 90 r /Symbol findfont 28.5368 sf 0 0 m (c) show NC gr  black 3 lw 1 1 1 c 408 305 476 677 bf black 1 1 1 c black 307 229 537 723 bl 307 229 537 723 bl 537 723 m 307 X s 537 727 m -4 Y s 631 727 m -4 Y s 724
 727 m -4 Y s 818 727 m -4 Y s 818 727 m -4 Y s
 gsave  408 305 476 677 C 527.045 703.676 t 0 r /Helvetica findfont 22.8295 sf 0 0 m (0) show NC gr 
 gsave  408 305 476 677 C 623.907 703.676 t 0 r /Helvetica findfont 22.8295 sf 0 0 m (1) show NC gr 
 gsave  408 305 476 677 C 715.071 703.676 t 0 r /Helvetica findfont 22.8295 sf 0 0 m (2) show NC gr 
 gsave  408 305 476 677 C 809.085 703.676 t 0 r /Helvetica findfont 22.8295 sf 0 0 m (3) show NC gr  537 952 m 307 X s 537 948 m 4 Y s 631 948 m 4 Y s 724 948 m 4 Y s 818 948 m 4 Y s 818 948 m 4 Y s 537 723 m 229 Y s 543 745 m -6 X s 540 752 m -3 X s
 540 760 m -3 X s 540 768 m -3 X s 543 776 m -6 X s 540 784 m -3 X s 540 791 m -3 X s 540 799 m -3 X s 543 807 m -6 X s 540 815 m -3 X s 540 823 m -3 X s 540 830 m -3 X s 543 838 m -6 X s 540 846 m -3 X s 540 854 m -3 X s 540 862 m -3 X s 543 869 m
 -6 X s 540 877 m -3 X s 540 885 m -3 X s 540 893 m -3 X s 543 901 m -6 X s 540 908 m -3 X s 540 916 m -3 X s 540 924 m -3 X s 543 932 m -6 X s 543 745 m -6 X s 540 737 m -3 X s 540 729 m -3 X s 543 932 m -6 X s 540 940 m -3 X s 540 947 m -3 X s
 gsave  408 305 476 677 C 481.462 737.863 t 0 r /Helvetica findfont 22.8295 sf 0 0 m (\2550.12) show NC gr 
 gsave  408 305 476 677 C 495.707 769.2 t 0 r /Helvetica findfont 22.8295 sf 0 0 m (\2550.1) show NC gr 
 gsave  408 305 476 677 C 481.462 800.538 t 0 r /Helvetica findfont 22.8295 sf 0 0 m (\2550.08) show NC gr 
 gsave  408 305 476 677 C 481.462 831.876 t 0 r /Helvetica findfont 22.8295 sf 0 0 m (\2550.06) show NC gr 
 gsave  408 305 476 677 C 481.462 863.214 t 0 r /Helvetica findfont 22.8295 sf 0 0 m (\2550.04) show NC gr 
 gsave  408 305 476 677 C 481.462 894.552 t 0 r /Helvetica findfont 22.8295 sf 0 0 m (\2550.02) show NC gr 
 gsave  408 305 476 677 C 518.498 925.889 t 0 r /Helvetica findfont 22.8295 sf 0 0 m (0) show NC gr  844 723 m 229 Y s 838 745 m 6 X s 841 752 m 3 X s 841 760 m 3 X s 841 768 m 3 X s 838 776 m 6 X s 841 784 m 3 X s 841 791 m 3 X s 841 799 m 3 X s 838
 807 m 6 X s 841 815 m 3 X s 841 823 m 3 X s 841 830 m 3 X s 838 838 m 6 X s 841 846 m 3 X s 841 854 m 3 X s 841 862 m 3 X s 838 869 m 6 X s 841 877 m 3 X s 841 885 m 3 X s 841 893 m 3 X s 838 901 m 6 X s 841 908 m 3 X s 841 916 m 3 X s 841 924 m 3 X
 s 838 932 m 6 X s 838 745 m 6 X s 841 737 m 3 X s 841 729 m 3 X s 838 932 m 6 X s 841 940 m 3 X s 841 947 m 3 X s /w 23 def /w2 {w 2 div} def /w3 {w 3 div} def 584 929 631 918 724 873 818 746 4 { m21} R 1 0 0 c 9 lw 0.95 0.95 0.95 c black 1 0 0 c
 539 932 m 9 X 3 -1 d 9 X 3 -1 d 7 X 3 -1 d 3 X 3 -1 d 3 -1 d 3 X 3 -1 d 3 -1 d 3 X 3 -1 d 3 -1 d 3 -1 d 3 -1 d 3 -1 d 3 -1 d 4 -1 d 3 -1 d 3 -1 d 3 -1 d 3 -2 d 3 -1 d 3 -1 d 3 -1 d 3 -2 d 3 -1 d 3 -2 d 3 -1 d 3 -2 d 3 -1 d 3 -2 d 3 -2 d 3 -2 d 4 -1
 d 3 -2 d 3 -2 d 3 -2 d 3 -2 d 3 -2 d 3 -2 d 3 -2 d s 689 880 m 3 -2 d 3 -2 d 3 -2 d 3 -3 d 3 -2 d 3 -2 d 3 -3 d 3 -2 d 4 -3 d 3 -2 d 3 -3 d 3 -2 d 3 -3 d 3 -2 d 3 -3 d 3 -3 d 3 -3 d 3 -3 d 3 -2 d 3 -3 d 3 -3 d 3 -3 d 3 -3 d 3 -3 d 4 -4 d 3 -3 d 3 -3
 d 3 -3 d 3 -3 d 3 -4 d 3 -3 d 3 -4 d 3 -3 d 3 -4 d 3 -3 d 3 -4 d 3 -3 d 3 -4 d 3 -4 d 3 -4 d 4 -3 d 3 -4 d 3 -4 d 3 -4 d 3 -4 d 3 -4 d 3 -4 d 3 -4 d 3 -4 d s 0.49 0.6 0.82 c black 0.49 0.6 0.82 c
 gsave  408 305 476 677 C 595.418 960.076 t 0 r /Helvetica-Bold findfont 25.6831 sf 0 0 m (3.0 < E < 3.5 GeV) show NC gr  0.52 0.76 0.64 c black 0.52 0.76 0.64 c
 gsave  408 305 476 677 C 575.476 923.04 t 0 r /Helvetica-Bold findfont 25.6831 sf 0 0 m 
 228 214 200 193 178 171 156 149 133 126 119 105 91 76 69 55 47 39 25 17
(A = \2550.013, p = 2.000) K NC gr  1 0.6 1 c black 1 0.6 1 c
 gsave  408 305 476 677 C 883.156 783.445 t 90 r /Helvetica-Bold findfont 28.5368 sf 0 0 m (/dof=10.8) show NC gr  black 1 0.6 1 c
 gsave  408 305 476 677 C 871.76 772.049 t 90 r /Helvetica-Bold findfont 19.9758 sf 0 0 m (2) show NC gr  black 1 0.6 1 c
 gsave  408 305 476 677 C 883.156 754.956 t 90 r /Symbol findfont 28.5368 sf 0 0 m (c) show NC gr  black 3 lw 1 1 1 c 408 305 930 677 bf black 1 1 1 c black 306 229 991 723 bl 306 229 991 723 bl 991 723 m 306 X s 991 727 m -4 Y s 1084 727 m -4 Y s
 1178 727 m -4 Y s 1271 727 m -4 Y s 1271 727 m -4 Y s
 gsave  408 305 930 677 C 980.018 703.676 t 0 r /Helvetica findfont 22.8295 sf 0 0 m (0) show NC gr 
 gsave  408 305 930 677 C 1076.88 703.676 t 0 r /Helvetica findfont 22.8295 sf 0 0 m (1) show NC gr 
 gsave  408 305 930 677 C 1168.04 703.676 t 0 r /Helvetica findfont 22.8295 sf 0 0 m (2) show NC gr 
 gsave  408 305 930 677 C 1262.06 703.676 t 0 r /Helvetica findfont 22.8295 sf 0 0 m (3) show NC gr  991 952 m 306 X s 991 948 m 4 Y s 1084 948 m 4 Y s 1178 948 m 4 Y s 1271 948 m 4 Y s 1271 948 m 4 Y s 991 723 m 229 Y s 997 734 m -6 X s 994 740 m -3
 X s 994 747 m -3 X s 994 753 m -3 X s 997 759 m -6 X s 994 765 m -3 X s 994 771 m -3 X s 994 777 m -3 X s 997 783 m -6 X s 994 789 m -3 X s 994 795 m -3 X s 994 801 m -3 X s 997 807 m -6 X s 994 813 m -3 X s 994 820 m -3 X s 994 826 m -3 X s 997 832
 m -6 X s 994 838 m -3 X s 994 844 m -3 X s 994 850 m -3 X s 997 856 m -6 X s 994 862 m -3 X s 994 868 m -3 X s 994 874 m -3 X s 997 880 m -6 X s 994 886 m -3 X s 994 892 m -3 X s 994 899 m -3 X s 997 905 m -6 X s 994 911 m -3 X s 994 917 m -3 X s
 994 923 m -3 X s 997 929 m -6 X s 997 734 m -6 X s 994 728 m -3 X s 997 929 m -6 X s 994 935 m -3 X s 994 941 m -3 X s 994 947 m -3 X s
 gsave  408 305 930 677 C 937.285 726.467 t 0 r /Helvetica findfont 22.8295 sf 0 0 m (\2550.16) show NC gr 
 gsave  408 305 930 677 C 937.285 752.107 t 0 r /Helvetica findfont 22.8295 sf 0 0 m (\2550.14) show NC gr 
 gsave  408 305 930 677 C 937.285 774.898 t 0 r /Helvetica findfont 22.8295 sf 0 0 m (\2550.12) show NC gr 
 gsave  408 305 930 677 C 951.529 800.538 t 0 r /Helvetica findfont 22.8295 sf 0 0 m (\2550.1) show NC gr 
 gsave  408 305 930 677 C 937.285 823.329 t 0 r /Helvetica findfont 22.8295 sf 0 0 m (\2550.08) show NC gr 
 gsave  408 305 930 677 C 937.285 848.969 t 0 r /Helvetica findfont 22.8295 sf 0 0 m (\2550.06) show NC gr 
 gsave  408 305 930 677 C 937.285 874.609 t 0 r /Helvetica findfont 22.8295 sf 0 0 m (\2550.04) show NC gr 
 gsave  408 305 930 677 C 937.285 897.4 t 0 r /Helvetica findfont 22.8295 sf 0 0 m (\2550.02) show NC gr 
 gsave  408 305 930 677 C 974.32 923.04 t 0 r /Helvetica findfont 22.8295 sf 0 0 m (0) show NC gr  1297 723 m 229 Y s 1292 734 m 5 X s 1294 740 m 3 X s 1294 747 m 3 X s 1294 753 m 3 X s 1292 759 m 5 X s 1294 765 m 3 X s 1294 771 m 3 X s 1294 777 m 3
 X s 1292 783 m 5 X s 1294 789 m 3 X s 1294 795 m 3 X s 1294 801 m 3 X s 1292 807 m 5 X s 1294 813 m 3 X s 1294 820 m 3 X s 1294 826 m 3 X s 1292 832 m 5 X s 1294 838 m 3 X s 1294 844 m 3 X s 1294 850 m 3 X s 1292 856 m 5 X s 1294 862 m 3 X s 1294
 868 m 3 X s 1294 874 m 3 X s 1292 880 m 5 X s 1294 886 m 3 X s 1294 892 m 3 X s 1294 899 m 3 X s 1292 905 m 5 X s 1294 911 m 3 X s 1294 917 m 3 X s 1294 923 m 3 X s 1292 929 m 5 X s 1292 734 m 5 X s 1294 728 m 3 X s 1292 929 m 5 X s 1294 935 m 3 X s
 1294 941 m 3 X s 1294 947 m 3 X s 1038 929 1084 919 1178 880 1271 745 4 { m21} R 1 0 0 c 9 lw 0.95 0.95 0.95 c black 1 0 0 c 993 929 m 12 X 3 -1 d 6 X 3 -1 d 6 X 3 -1 d 3 X 3 -1 d 3 X 3 -1 d 4 -1 d 3 X 3 -1 d 3 -1 d 3 -1 d 3 -1 d 3 X 3 -1 d 3 -1 d 3
 -1 d 3 -1 d 3 -2 d 3 -1 d 3 -1 d 3 -1 d 3 -1 d 3 -2 d 4 -1 d 3 -1 d 3 -2 d 3 -1 d 3 -2 d 3 -1 d 3 -2 d 3 -2 d 3 -1 d 3 -2 d 3 -2 d 3 -2 d 3 -2 d 3 -1 d 3 -2 d 3 -2 d 4 -2 d s 1143 879 m 3 -2 d 3 -2 d 3 -3 d 3 -2 d 3 -2 d 3 -2 d 3 -3 d 3 -2 d 3 -2 d
 3 -3 d 3 -2 d 3 -3 d 3 -2 d 3 -3 d 3 -2 d 4 -3 d 3 -3 d 3 -3 d 3 -2 d 3 -3 d 3 -3 d 3 -3 d 3 -3 d 3 -3 d 3 -3 d 3 -3 d 3 -3 d 3 -3 d 3 -3 d 3 -4 d 3 -3 d 3 -3 d 4 -4 d 3 -3 d 3 -4 d 3 -3 d 3 -4 d 3 -3 d 3 -4 d 3 -3 d 3 -4 d 3 -4 d 3 -4 d 3 -3 d 3 -4
 d 3 -4 d 3 -4 d 3 -4 d 4 -4 d s 1293 730 m 3 -4 d s 0.49 0.6 0.82 c black 0.49 0.6 0.82 c
 gsave  408 305 930 677 C 1051.24 960.076 t 0 r /Helvetica-Bold findfont 25.6831 sf 0 0 m (3.5 < E < 4.0 GeV) show NC gr  0.52 0.76 0.64 c black 0.52 0.76 0.64 c
 gsave  408 305 930 677 C 1031.3 923.04 t 0 r /Helvetica-Bold findfont 25.6831 sf 0 0 m 
 228 214 200 193 178 171 156 149 133 126 119 105 91 77 69 55 47 39 25 17
(A = \2550.016, p = 2.000) K NC gr  1 0.6 1 c black 1 0.6 1 c
 gsave  408 305 930 677 C 1336.13 783.445 t 90 r /Helvetica-Bold findfont 28.5368 sf 0 0 m (/dof=24.4) show NC gr  black 1 0.6 1 c
 gsave  408 305 930 677 C 1324.73 772.049 t 90 r /Helvetica-Bold findfont 19.9758 sf 0 0 m (2) show NC gr  black 1 0.6 1 c
 gsave  408 305 930 677 C 1336.13 754.956 t 90 r /Symbol findfont 28.5368 sf 0 0 m (c) show NC gr  black 3 lw 1 1 1 c 408 305 1383 677 bf black 1 1 1 c black 306 229 1445 723 bl 306 229 1445 723 bl 1445 723 m 306 X s 1445 727 m -4 Y s 1538 727 m -4 Y
 s 1631 727 m -4 Y s 1725 727 m -4 Y s 1725 727 m -4 Y s
 gsave  408 305 1383 677 C 1435.84 703.676 t 0 r /Helvetica findfont 22.8295 sf 0 0 m (0) show NC gr 
 gsave  408 305 1383 677 C 1529.85 703.676 t 0 r /Helvetica findfont 22.8295 sf 0 0 m (1) show NC gr 
 gsave  408 305 1383 677 C 1621.02 703.676 t 0 r /Helvetica findfont 22.8295 sf 0 0 m (2) show NC gr 
 gsave  408 305 1383 677 C 1715.03 703.676 t 0 r /Helvetica findfont 22.8295 sf 0 0 m (3) show NC gr  1445 952 m 306 X s 1445 948 m 4 Y s 1538 948 m 4 Y s 1631 948 m 4 Y s 1725 948 m 4 Y s 1725 948 m 4 Y s 1445 723 m 229 Y s 1450 747 m -5 X s 1447
 753 m -2 X s 1447 760 m -2 X s 1447 766 m -2 X s 1450 773 m -5 X s 1447 780 m -2 X s 1447 786 m -2 X s 1447 793 m -2 X s 1450 799 m -5 X s 1447 806 m -2 X s 1447 812 m -2 X s 1447 819 m -2 X s 1450 825 m -5 X s 1447 832 m -2 X s 1447 838 m -2 X s
 1447 845 m -2 X s 1450 851 m -5 X s 1447 858 m -2 X s 1447 864 m -2 X s 1447 871 m -2 X s 1450 877 m -5 X s 1447 884 m -2 X s 1447 890 m -2 X s 1447 897 m -2 X s 1450 903 m -5 X s 1447 910 m -2 X s 1447 916 m -2 X s 1447 923 m -2 X s 1450 929 m -5 X
 s 1450 747 m -5 X s 1447 740 m -2 X s 1447 734 m -2 X s 1447 727 m -2 X s 1450 929 m -5 X s 1447 936 m -2 X s 1447 942 m -2 X s 1447 949 m -2 X s
 gsave  408 305 1383 677 C 1390.26 740.711 t 0 r /Helvetica findfont 22.8295 sf 0 0 m (\2550.14) show NC gr 
 gsave  408 305 1383 677 C 1390.26 766.351 t 0 r /Helvetica findfont 22.8295 sf 0 0 m (\2550.12) show NC gr 
 gsave  408 305 1383 677 C 1404.5 791.991 t 0 r /Helvetica findfont 22.8295 sf 0 0 m (\2550.1) show NC gr 
 gsave  408 305 1383 677 C 1390.26 817.631 t 0 r /Helvetica findfont 22.8295 sf 0 0 m (\2550.08) show NC gr 
 gsave  408 305 1383 677 C 1390.26 843.271 t 0 r /Helvetica findfont 22.8295 sf 0 0 m (\2550.06) show NC gr 
 gsave  408 305 1383 677 C 1390.26 868.911 t 0 r /Helvetica findfont 22.8295 sf 0 0 m (\2550.04) show NC gr 
 gsave  408 305 1383 677 C 1390.26 897.4 t 0 r /Helvetica findfont 22.8295 sf 0 0 m (\2550.02) show NC gr 
 gsave  408 305 1383 677 C 1427.29 923.04 t 0 r /Helvetica findfont 22.8295 sf 0 0 m (0) show NC gr  1751 723 m 229 Y s 1745 747 m 6 X s 1748 753 m 3 X s 1748 760 m 3 X s 1748 766 m 3 X s 1745 773 m 6 X s 1748 780 m 3 X s 1748 786 m 3 X s 1748 793 m
 3 X s 1745 799 m 6 X s 1748 806 m 3 X s 1748 812 m 3 X s 1748 819 m 3 X s 1745 825 m 6 X s 1748 832 m 3 X s 1748 838 m 3 X s 1748 845 m 3 X s 1745 851 m 6 X s 1748 858 m 3 X s 1748 864 m 3 X s 1748 871 m 3 X s 1745 877 m 6 X s 1748 884 m 3 X s 1748
 890 m 3 X s 1748 897 m 3 X s 1745 903 m 6 X s 1748 910 m 3 X s 1748 916 m 3 X s 1748 923 m 3 X s 1745 929 m 6 X s 1745 747 m 6 X s 1748 740 m 3 X s 1748 734 m 3 X s 1748 727 m 3 X s 1745 929 m 6 X s 1748 936 m 3 X s 1748 942 m 3 X s 1748 949 m 3 X s
 1491 926 1538 928 1631 884 1725 747 4 { m21} R 1 0 0 c 9 lw 0.95 0.95 0.95 c black 1 0 0 c 1446 929 m 15 X 3 -1 d 7 X 3 -1 d 6 X 3 -1 d 3 X 3 -1 d 3 -1 d 3 X 3 -1 d 3 -1 d 3 X 3 -1 d 3 -1 d 3 -1 d 3 -1 d 4 -1 d 3 -1 d 3 -1 d 3 -1 d 3 -1 d 3 -1 d 3
 -2 d 3 -1 d 3 -1 d 3 -1 d 3 -2 d 3 -1 d 3 -2 d 3 -1 d 3 -2 d 3 -1 d 4 -2 d 3 -2 d 3 -1 d 3 -2 d 3 -2 d 3 -2 d 3 -1 d 3 -2 d 3 -2 d 3 -2 d s 1596 880 m 3 -2 d 3 -2 d 3 -2 d 3 -3 d 3 -2 d 3 -2 d 4 -2 d 3 -3 d 3 -2 d 3 -2 d 3 -3 d 3 -2 d 3 -3 d 3 -2 d
 3 -3 d 3 -2 d 3 -3 d 3 -3 d 3 -3 d 3 -2 d 3 -3 d 3 -3 d 3 -3 d 4 -3 d 3 -3 d 3 -3 d 3 -3 d 3 -3 d 3 -3 d 3 -3 d 3 -4 d 3 -3 d 3 -3 d 3 -4 d 3 -3 d 3 -3 d 3 -4 d 3 -3 d 3 -4 d 4 -4 d 3 -3 d 3 -4 d 3 -4 d 3 -3 d 3 -4 d 3 -4 d 3 -4 d 3 -4 d 3 -4 d s
 1746 733 m 3 -4 d s 0.49 0.6 0.82 c black 0.49 0.6 0.82 c
 gsave  408 305 1383 677 C 1504.21 960.076 t 0 r /Helvetica-Bold findfont 25.6831 sf 0 0 m (4.0 < E < 4.5 GeV) show NC gr  0.52 0.76 0.64 c black 0.52 0.76 0.64 c
 gsave  408 305 1383 677 C 1484.27 923.04 t 0 r /Helvetica-Bold findfont 25.6831 sf 0 0 m 
 228 214 200 193 178 171 156 149 134 126 119 105 91 77 69 55 47 40 25 17
(A = \2550.014, p = 2.000) K NC gr  1 0.6 1 c black 1 0.6 1 c
 gsave  408 305 1383 677 C 1789.1 783.445 t 90 r /Helvetica-Bold findfont 28.5368 sf 0 0 m (/dof=18.2) show NC gr  black 1 0.6 1 c
 gsave  408 305 1383 677 C 1777.71 772.049 t 90 r /Helvetica-Bold findfont 19.9758 sf 0 0 m (2) show NC gr  black 1 0.6 1 c
 gsave  408 305 1383 677 C 1789.1 754.956 t 90 r /Symbol findfont 28.5368 sf 0 0 m (c) show NC gr  black 3 lw 1 1 1 c 408 305 1837 677 bf black 1 1 1 c black 306 229 1898 723 bl 306 229 1898 723 bl 1898 723 m 306 X s 1898 727 m -4 Y s 1992 727 m -4 Y
 s 2085 727 m -4 Y s 2179 727 m -4 Y s 2179 727 m -4 Y s
 gsave  408 305 1837 677 C 1888.81 703.676 t 0 r /Helvetica findfont 22.8295 sf 0 0 m (0) show NC gr 
 gsave  408 305 1837 677 C 1985.68 703.676 t 0 r /Helvetica findfont 22.8295 sf 0 0 m (1) show NC gr 
 gsave  408 305 1837 677 C 2073.99 703.676 t 0 r /Helvetica findfont 22.8295 sf 0 0 m (2) show NC gr 
 gsave  408 305 1837 677 C 2168.01 703.676 t 0 r /Helvetica findfont 22.8295 sf 0 0 m (3) show NC gr  1898 952 m 306 X s 1898 948 m 4 Y s 1992 948 m 4 Y s 2085 948 m 4 Y s 2179 948 m 4 Y s 2179 948 m 4 Y s 1898 723 m 229 Y s 1904 733 m -6 X s 1901
 742 m -3 X s 1901 752 m -3 X s 1901 762 m -3 X s 1904 771 m -6 X s 1901 781 m -3 X s 1901 791 m -3 X s 1901 801 m -3 X s 1904 810 m -6 X s 1901 820 m -3 X s 1901 830 m -3 X s 1901 840 m -3 X s 1904 849 m -6 X s 1901 859 m -3 X s 1901 869 m -3 X s
 1901 878 m -3 X s 1904 888 m -6 X s 1901 898 m -3 X s 1901 908 m -3 X s 1901 917 m -3 X s 1904 927 m -6 X s 1904 733 m -6 X s 1904 927 m -6 X s 1901 937 m -3 X s 1901 947 m -3 X s
 gsave  408 305 1837 677 C 1857.48 726.467 t 0 r /Helvetica findfont 22.8295 sf 0 0 m (\2550.1) show NC gr 
 gsave  408 305 1837 677 C 1843.23 763.503 t 0 r /Helvetica findfont 22.8295 sf 0 0 m (\2550.08) show NC gr 
 gsave  408 305 1837 677 C 1843.23 803.387 t 0 r /Helvetica findfont 22.8295 sf 0 0 m (\2550.06) show NC gr 
 gsave  408 305 1837 677 C 1843.23 843.271 t 0 r /Helvetica findfont 22.8295 sf 0 0 m (\2550.04) show NC gr 
 gsave  408 305 1837 677 C 1843.23 880.307 t 0 r /Helvetica findfont 22.8295 sf 0 0 m (\2550.02) show NC gr 
 gsave  408 305 1837 677 C 1880.27 920.192 t 0 r /Helvetica findfont 22.8295 sf 0 0 m (0) show NC gr  2204 723 m 229 Y s 2199 733 m 5 X s 2201 742 m 3 X s 2201 752 m 3 X s 2201 762 m 3 X s 2199 771 m 5 X s 2201 781 m 3 X s 2201 791 m 3 X s 2201 801 m
 3 X s 2199 810 m 5 X s 2201 820 m 3 X s 2201 830 m 3 X s 2201 840 m 3 X s 2199 849 m 5 X s 2201 859 m 3 X s 2201 869 m 3 X s 2201 878 m 3 X s 2199 888 m 5 X s 2201 898 m 3 X s 2201 908 m 3 X s 2201 917 m 3 X s 2199 927 m 5 X s 2199 733 m 5 X s 2199
 927 m 5 X s 2201 937 m 3 X s 2201 947 m 3 X s 1945 921 1992 923 2085 876 2179 751 4 { m21} R 1 0 0 c 9 lw 0.95 0.95 0.95 c black 1 0 0 c 1900 927 m 12 X 3 -1 d 9 X 3 -1 d 3 X 3 -1 d 3 X 3 -1 d 3 X 4 -1 d 3 X 3 -1 d 3 -1 d 3 X 3 -1 d 3 -1 d 3 -1 d 3
 -1 d 3 -1 d 3 -1 d 3 -1 d 3 -1 d 3 -1 d 3 -1 d 3 -1 d 4 -1 d 3 -2 d 3 -1 d 3 -1 d 3 -2 d 3 -1 d 3 -2 d 3 -1 d 3 -2 d 3 -1 d 3 -2 d 3 -1 d 3 -2 d 3 -2 d 3 -2 d 3 -1 d 3 -2 d 4 -2 d 3 -2 d s 2050 879 m 3 -2 d 3 -2 d 3 -2 d 3 -2 d 3 -2 d 3 -3 d 3 -2 d
 3 -2 d 3 -2 d 3 -3 d 3 -2 d 3 -2 d 3 -3 d 3 -2 d 4 -3 d 3 -2 d 3 -3 d 3 -3 d 3 -2 d 3 -3 d 3 -3 d 3 -2 d 3 -3 d 3 -3 d 3 -3 d 3 -3 d 3 -3 d 3 -3 d 3 -3 d 3 -3 d 4 -3 d 3 -4 d 3 -3 d 3 -3 d 3 -3 d 3 -4 d 3 -3 d 3 -4 d 3 -3 d 3 -3 d 3 -4 d 3 -4 d 3 -3
 d 3 -4 d 3 -4 d 3 -3 d 4 -4 d 3 -4 d 3 -4 d s 2200 736 m 3 -4 d s 0.49 0.6 0.82 c black 0.49 0.6 0.82 c
 gsave  408 305 1837 677 C 1957.19 960.076 t 0 r /Helvetica-Bold findfont 25.6831 sf 0 0 m (4.5 < E < 5.0 GeV) show NC gr  0.52 0.76 0.64 c black 0.52 0.76 0.64 c
 gsave  408 305 1837 677 C 1937.25 923.04 t 0 r /Helvetica-Bold findfont 25.6831 sf 0 0 m 
 228 214 200 193 178 171 156 149 133 126 119 105 91 77 69 55 47 39 25 17
(A = \2550.009, p = 2.000) K NC gr  1 0.6 1 c black 1 0.6 1 c
 gsave  408 305 1837 677 C 2242.08 791.991 t 90 r /Helvetica-Bold findfont 28.5368 sf 0 0 m (/dof=2.7) show NC gr  black 1 0.6 1 c
 gsave  408 305 1837 677 C 2230.68 780.596 t 90 r /Helvetica-Bold findfont 19.9758 sf 0 0 m (2) show NC gr  black 1 0.6 1 c
 gsave  408 305 1837 677 C 2242.08 763.503 t 90 r /Symbol findfont 28.5368 sf 0 0 m (c) show NC gr  black 3 lw 1 1 1 c 408 306 23 345 bf black 1 1 1 c black 306 229 84 391 bl 306 229 84 391 bl 84 391 m 306 X s 84 395 m -4 Y s 177 395 m -4 Y s 271 395
 m -4 Y s 364 395 m -4 Y s 364 395 m -4 Y s
 gsave  408 306 23 345 C 74.0711 370.356 t 0 r /Helvetica findfont 22.8295 sf 0 0 m (0) show NC gr 
 gsave  408 306 23 345 C 170.933 370.356 t 0 r /Helvetica findfont 22.8295 sf 0 0 m (1) show NC gr 
 gsave  408 306 23 345 C 262.098 370.356 t 0 r /Helvetica findfont 22.8295 sf 0 0 m (2) show NC gr 
 gsave  408 306 23 345 C 353.262 370.356 t 0 r /Helvetica findfont 22.8295 sf 0 0 m (3) show NC gr  84 620 m 306 X s 84 616 m 4 Y s 177 616 m 4 Y s 271 616 m 4 Y s 364 616 m 4 Y s 364 616 m 4 Y s 84 391 m 229 Y s 89 396 m -5 X s 87 401 m -3 X s 87
 407 m -3 X s 87 412 m -3 X s 87 418 m -3 X s 89 423 m -5 X s 87 428 m -3 X s 87 434 m -3 X s 87 439 m -3 X s 87 445 m -3 X s 89 450 m -5 X s 87 455 m -3 X s 87 461 m -3 X s 87 466 m -3 X s 87 472 m -3 X s 89 477 m -5 X s 87 483 m -3 X s 87 488 m -3
 X s 87 493 m -3 X s 87 499 m -3 X s 89 504 m -5 X s 87 510 m -3 X s 87 515 m -3 X s 87 520 m -3 X s 87 526 m -3 X s 89 531 m -5 X s 87 537 m -3 X s 87 542 m -3 X s 87 548 m -3 X s 87 553 m -3 X s 89 558 m -5 X s 87 564 m -3 X s 87 569 m -3 X s 87
 575 m -3 X s 87 580 m -3 X s 89 585 m -5 X s 87 591 m -3 X s 87 596 m -3 X s 87 602 m -3 X s 87 607 m -3 X s 89 613 m -5 X s 89 396 m -5 X s 89 613 m -5 X s 87 618 m -3 X s
 gsave  408 306 23 345 C 28.4889 387.449 t 0 r /Helvetica findfont 22.8295 sf 0 0 m (\2550.07) show NC gr 
 gsave  408 306 23 345 C 28.4889 415.938 t 0 r /Helvetica findfont 22.8295 sf 0 0 m (\2550.06) show NC gr 
 gsave  408 306 23 345 C 28.4889 441.578 t 0 r /Helvetica findfont 22.8295 sf 0 0 m (\2550.05) show NC gr 
 gsave  408 306 23 345 C 28.4889 470.067 t 0 r /Helvetica findfont 22.8295 sf 0 0 m (\2550.04) show NC gr 
 gsave  408 306 23 345 C 28.4889 495.707 t 0 r /Helvetica findfont 22.8295 sf 0 0 m (\2550.03) show NC gr 
 gsave  408 306 23 345 C 28.4889 524.196 t 0 r /Helvetica findfont 22.8295 sf 0 0 m (\2550.02) show NC gr 
 gsave  408 306 23 345 C 31.3378 549.836 t 0 r /Helvetica findfont 22.8295 sf 0 0 m (\2550.01) show NC gr 
 gsave  408 306 23 345 C 65.5245 578.325 t 0 r /Helvetica findfont 22.8295 sf 0 0 m (0) show NC gr 
 gsave  408 306 23 345 C 37.0356 606.814 t 0 r /Helvetica findfont 22.8295 sf 0 0 m (0.01) show NC gr  390 391 m 229 Y s 385 396 m 5 X s 387 401 m 3 X s 387 407 m 3 X s 387 412 m 3 X s 387 418 m 3 X s 385 423 m 5 X s 387 428 m 3 X s 387 434 m 3 X s
 387 439 m 3 X s 387 445 m 3 X s 385 450 m 5 X s 387 455 m 3 X s 387 461 m 3 X s 387 466 m 3 X s 387 472 m 3 X s 385 477 m 5 X s 387 483 m 3 X s 387 488 m 3 X s 387 493 m 3 X s 387 499 m 3 X s 385 504 m 5 X s 387 510 m 3 X s 387 515 m 3 X s 387 520 m
 3 X s 387 526 m 3 X s 385 531 m 5 X s 387 537 m 3 X s 387 542 m 3 X s 387 548 m 3 X s 387 553 m 3 X s 385 558 m 5 X s 387 564 m 3 X s 387 569 m 3 X s 387 575 m 3 X s 387 580 m 3 X s 385 585 m 5 X s 387 591 m 3 X s 387 596 m 3 X s 387 602 m 3 X s 387
 607 m 3 X s 385 613 m 5 X s 385 396 m 5 X s 385 613 m 5 X s 387 618 m 3 X s /w 22 def /w2 {w 2 div} def /w3 {w 3 div} def 131 578 177 583 271 539 364 427 4 { m21} R 131 589 m 7 Y s 125 596 m 11 X s 131 566 m -6 Y s 125 560 m 11 X s 177 594 m 7 Y s
 172 601 m 11 X s 177 571 m -6 Y s 172 565 m 11 X s 271 550 m 7 Y s 265 557 m 12 X s 271 527 m -6 Y s 265 521 m 12 X s 364 439 m 6 Y s 359 445 m 11 X s 364 416 m -6 Y s 359 410 m 11 X s 1 0 0 c 9 lw 0.95 0.95 0.95 c black 1 0 0 c 85 585 m 19 X 3 -1 d
 6 X 3 -1 d 6 X 3 -1 d 3 X 3 -1 d 3 X 3 -1 d 4 -1 d 3 X 3 -1 d 3 -1 d 3 -1 d 3 X 3 -1 d 3 -1 d 3 -1 d 3 -1 d 3 -1 d 3 -1 d 3 -1 d 3 -1 d 3 -1 d 3 -1 d 4 -2 d 3 -1 d 3 -1 d 3 -1 d 3 -2 d 3 -1 d 3 -2 d 3 -1 d 3 -2 d 3 -1 d 3 -2 d 3 -1 d 3 -2 d 3 -1 d 3
 -2 d 3 -2 d s 235 542 m 4 -2 d 3 -1 d 3 -2 d 3 -2 d 3 -2 d 3 -2 d 3 -2 d 3 -2 d 3 -2 d 3 -2 d 3 -2 d 3 -2 d 3 -3 d 3 -2 d 3 -2 d 3 -2 d 3 -3 d 4 -2 d 3 -3 d 3 -2 d 3 -2 d 3 -3 d 3 -3 d 3 -2 d 3 -3 d 3 -2 d 3 -3 d 3 -3 d 3 -3 d 3 -2 d 3 -3 d 3 -3 d 3
 -3 d 4 -3 d 3 -3 d 3 -3 d 3 -3 d 3 -3 d 3 -3 d 3 -3 d 3 -3 d 3 -4 d 3 -3 d 3 -3 d 3 -4 d 3 -3 d 3 -3 d 3 -4 d 3 -3 d s 385 414 m 4 -4 d s 0.49 0.6 0.82 c black 0.49 0.6 0.82 c
 gsave  408 306 23 345 C 142.445 629.605 t 0 r /Helvetica-Bold findfont 25.6831 sf 0 0 m (5.0 < E < 5.5 GeV) show NC gr  0.52 0.76 0.64 c black 0.52 0.76 0.64 c
 gsave  408 306 23 345 C 122.502 592.569 t 0 r /Helvetica-Bold findfont 25.6831 sf 0 0 m 
 228 214 200 193 178 171 156 149 134 126 119 105 91 77 69 55 47 39 25 17
(A = \2550.006, p = 2.000) K NC gr  1 0.6 1 c black 1 0.6 1 c
 gsave  408 306 23 345 C 427.334 458.671 t 90 r /Helvetica-Bold findfont 28.5368 sf 0 0 m (/dof=0.7) show NC gr  black 1 0.6 1 c
 gsave  408 306 23 345 C 415.938 447.276 t 90 r /Helvetica-Bold findfont 19.9758 sf 0 0 m (2) show NC gr  black 1 0.6 1 c
 gsave  408 306 23 345 C 427.334 430.182 t 90 r /Symbol findfont 28.5368 sf 0 0 m (c) show NC gr  black 3 lw 1 1 1 c 408 306 476 345 bf black 1 1 1 c black 307 229 537 391 bl 307 229 537 391 bl 537 391 m 307 X s 537 395 m -4 Y s 631 395 m -4 Y s 724
 395 m -4 Y s 818 395 m -4 Y s 818 395 m -4 Y s
 gsave  408 306 476 345 C 527.045 370.356 t 0 r /Helvetica findfont 22.8295 sf 0 0 m (0) show NC gr 
 gsave  408 306 476 345 C 623.907 370.356 t 0 r /Helvetica findfont 22.8295 sf 0 0 m (1) show NC gr 
 gsave  408 306 476 345 C 715.071 370.356 t 0 r /Helvetica findfont 22.8295 sf 0 0 m (2) show NC gr 
 gsave  408 306 476 345 C 809.085 370.356 t 0 r /Helvetica findfont 22.8295 sf 0 0 m (3) show NC gr  537 620 m 307 X s 537 616 m 4 Y s 631 616 m 4 Y s 724 616 m 4 Y s 818 616 m 4 Y s 818 616 m 4 Y s 537 391 m 229 Y s 543 425 m -6 X s 540 432 m -3 X s
 540 439 m -3 X s 540 446 m -3 X s 540 453 m -3 X s 543 460 m -6 X s 540 466 m -3 X s 540 473 m -3 X s 540 480 m -3 X s 540 487 m -3 X s 543 494 m -6 X s 540 501 m -3 X s 540 508 m -3 X s 540 515 m -3 X s 540 522 m -3 X s 543 529 m -6 X s 540 536 m
 -3 X s 540 542 m -3 X s 540 549 m -3 X s 540 556 m -3 X s 543 563 m -6 X s 540 570 m -3 X s 540 577 m -3 X s 540 584 m -3 X s 540 591 m -3 X s 543 598 m -6 X s 543 425 m -6 X s 540 418 m -3 X s 540 411 m -3 X s 540 404 m -3 X s 540 397 m -3 X s 543
 598 m -6 X s 540 605 m -3 X s 540 612 m -3 X s 540 618 m -3 X s
 gsave  408 306 476 345 C 481.462 418.787 t 0 r /Helvetica findfont 22.8295 sf 0 0 m (\2550.03) show NC gr 
 gsave  408 306 476 345 C 481.462 452.974 t 0 r /Helvetica findfont 22.8295 sf 0 0 m (\2550.02) show NC gr 
 gsave  408 306 476 345 C 484.311 487.16 t 0 r /Helvetica findfont 22.8295 sf 0 0 m (\2550.01) show NC gr 
 gsave  408 306 476 345 C 518.498 521.347 t 0 r /Helvetica findfont 22.8295 sf 0 0 m (0) show NC gr 
 gsave  408 306 476 345 C 490.009 555.534 t 0 r /Helvetica findfont 22.8295 sf 0 0 m (0.01) show NC gr 
 gsave  408 306 476 345 C 487.16 589.72 t 0 r /Helvetica findfont 22.8295 sf 0 0 m (0.02) show NC gr  844 391 m 229 Y s 838 425 m 6 X s 841 432 m 3 X s 841 439 m 3 X s 841 446 m 3 X s 841 453 m 3 X s 838 460 m 6 X s 841 466 m 3 X s 841 473 m 3 X s
 841 480 m 3 X s 841 487 m 3 X s 838 494 m 6 X s 841 501 m 3 X s 841 508 m 3 X s 841 515 m 3 X s 841 522 m 3 X s 838 529 m 6 X s 841 536 m 3 X s 841 542 m 3 X s 841 549 m 3 X s 841 556 m 3 X s 838 563 m 6 X s 841 570 m 3 X s 841 577 m 3 X s 841 584 m
 3 X s 841 591 m 3 X s 838 598 m 6 X s 838 425 m 6 X s 841 418 m 3 X s 841 411 m 3 X s 841 404 m 3 X s 841 397 m 3 X s 838 598 m 6 X s 841 605 m 3 X s 841 612 m 3 X s 841 618 m 3 X s /w 23 def /w2 {w 2 div} def /w3 {w 3 div} def 584 572 631 547 724
 571 818 438 4 { m21} R 584 583 m 18 Y s 578 601 m 12 X s 584 560 m -17 Y s 578 543 m 12 X s 631 559 m 17 Y s 625 576 m 12 X s 631 536 m -17 Y s 625 519 m 12 X s 724 583 m 17 Y s 719 600 m 11 X s 724 560 m -18 Y s 719 542 m 11 X s 818 450 m 17 Y s
 812 467 m 12 X s 818 427 m -17 Y s 812 410 m 12 X s 1 0 0 c 9 lw 0.95 0.95 0.95 c black 1 0 0 c 539 529 m 12 X 3 -1 d 22 X 3 -1 d 12 X 3 -1 d 9 X 3 -1 d 6 X 4 -1 d 3 X 3 -1 d 6 X 3 -1 d 3 X 3 -1 d 6 X 3 -1 d 3 X 3 -1 d 3 X 3 -1 d 3 -1 d 3 X 4 -1 d 3
 X 3 -1 d 3 -1 d 3 X 3 -1 d 3 X 3 -1 d s 689 512 m 3 -1 d 3 X 3 -1 d 3 -1 d 3 -1 d 3 X 3 -1 d 3 -1 d 4 -1 d 3 -1 d 3 X 3 -1 d 3 -1 d 3 -1 d 3 -1 d 3 -1 d 3 -1 d 3 -1 d 3 X 3 -1 d 3 -1 d 3 -1 d 3 -1 d 3 -1 d 4 -1 d 3 -1 d 3 -1 d 3 -1 d 3 -2 d 3 -1 d 3
 -1 d 3 -1 d 3 -1 d 3 -1 d 3 -1 d 3 -1 d 3 -2 d 3 -1 d 3 -1 d 3 -1 d 4 -1 d 3 -2 d 3 -1 d 3 -1 d 3 -1 d 3 -2 d 3 -1 d 3 -1 d 3 -2 d s 839 462 m 3 -1 d s 0.49 0.6 0.82 c black 0.49 0.6 0.82 c
 gsave  408 306 476 345 C 595.418 629.605 t 0 r /Helvetica-Bold findfont 25.6831 sf 0 0 m (5.5 < E < 6.0 GeV) show NC gr  0.52 0.76 0.64 c black 0.52 0.76 0.64 c
 gsave  408 306 476 345 C 575.476 592.569 t 0 r /Helvetica-Bold findfont 25.6831 sf 0 0 m 
 228 214 200 193 178 171 156 149 133 126 119 105 91 76 69 55 47 39 25 17
(A = \2550.002, p = 2.000) K NC gr  1 0.6 1 c black 1 0.6 1 c
 gsave  408 306 476 345 C 883.156 458.671 t 90 r /Helvetica-Bold findfont 28.5368 sf 0 0 m (/dof=3.3) show NC gr  black 1 0.6 1 c
 gsave  408 306 476 345 C 871.76 447.276 t 90 r /Helvetica-Bold findfont 19.9758 sf 0 0 m (2) show NC gr  black 1 0.6 1 c
 gsave  408 306 476 345 C 883.156 430.182 t 90 r /Symbol findfont 28.5368 sf 0 0 m (c) show NC gr  black 3 lw 1 1 1 c 408 306 930 345 bf black 1 1 1 c black 306 229 991 391 bl 306 229 991 391 bl 991 391 m 306 X s 991 395 m -4 Y s 1084 395 m -4 Y s
 1178 395 m -4 Y s 1271 395 m -4 Y s 1271 395 m -4 Y s
 gsave  408 306 930 345 C 980.018 370.356 t 0 r /Helvetica findfont 22.8295 sf 0 0 m (0) show NC gr 
 gsave  408 306 930 345 C 1076.88 370.356 t 0 r /Helvetica findfont 22.8295 sf 0 0 m (1) show NC gr 
 gsave  408 306 930 345 C 1168.04 370.356 t 0 r /Helvetica findfont 22.8295 sf 0 0 m (2) show NC gr 
 gsave  408 306 930 345 C 1262.06 370.356 t 0 r /Helvetica findfont 22.8295 sf 0 0 m (3) show NC gr  991 620 m 306 X s 991 616 m 4 Y s 1084 616 m 4 Y s 1178 616 m 4 Y s 1271 616 m 4 Y s 1271 616 m 4 Y s 991 391 m 229 Y s 997 400 m -6 X s 994 404 m -3
 X s 994 409 m -3 X s 994 414 m -3 X s 994 419 m -3 X s 997 424 m -6 X s 994 428 m -3 X s 994 433 m -3 X s 994 438 m -3 X s 994 443 m -3 X s 997 447 m -6 X s 994 452 m -3 X s 994 457 m -3 X s 994 462 m -3 X s 994 466 m -3 X s 997 471 m -6 X s 994 476
 m -3 X s 994 481 m -3 X s 994 485 m -3 X s 994 490 m -3 X s 997 495 m -6 X s 994 500 m -3 X s 994 505 m -3 X s 994 509 m -3 X s 994 514 m -3 X s 997 519 m -6 X s 994 524 m -3 X s 994 528 m -3 X s 994 533 m -3 X s 994 538 m -3 X s 997 543 m -6 X s
 994 547 m -3 X s 994 552 m -3 X s 994 557 m -3 X s 994 562 m -3 X s 997 567 m -6 X s 994 571 m -3 X s 994 576 m -3 X s 994 581 m -3 X s 994 586 m -3 X s 997 590 m -6 X s 994 595 m -3 X s 994 600 m -3 X s 994 605 m -3 X s 994 609 m -3 X s 997 614 m
 -6 X s 997 400 m -6 X s 994 395 m -3 X s 997 614 m -6 X s 994 619 m -3 X s
 gsave  408 306 930 345 C 923.04 393.147 t 0 r /Helvetica findfont 22.8295 sf 0 0 m (\2550.015) show NC gr 
 gsave  408 306 930 345 C 940.134 415.938 t 0 r /Helvetica findfont 22.8295 sf 0 0 m (\2550.01) show NC gr 
 gsave  408 306 930 345 C 923.04 441.578 t 0 r /Helvetica findfont 22.8295 sf 0 0 m (\2550.005) show NC gr 
 gsave  408 306 930 345 C 974.32 464.369 t 0 r /Helvetica findfont 22.8295 sf 0 0 m (0) show NC gr 
 gsave  408 306 930 345 C 931.587 487.16 t 0 r /Helvetica findfont 22.8295 sf 0 0 m (0.005) show NC gr 
 gsave  408 306 930 345 C 945.832 512.8 t 0 r /Helvetica findfont 22.8295 sf 0 0 m (0.01) show NC gr 
 gsave  408 306 930 345 C 931.587 535.591 t 0 r /Helvetica findfont 22.8295 sf 0 0 m (0.015) show NC gr 
 gsave  408 306 930 345 C 942.983 558.382 t 0 r /Helvetica findfont 22.8295 sf 0 0 m (0.02) show NC gr 
 gsave  408 306 930 345 C 931.587 584.022 t 0 r /Helvetica findfont 22.8295 sf 0 0 m (0.025) show NC gr 
 gsave  408 306 930 345 C 942.983 606.814 t 0 r /Helvetica findfont 22.8295 sf 0 0 m (0.03) show NC gr  1297 391 m 229 Y s 1292 400 m 5 X s 1294 404 m 3 X s 1294 409 m 3 X s 1294 414 m 3 X s 1294 419 m 3 X s 1292 424 m 5 X s 1294 428 m 3 X s 1294 433
 m 3 X s 1294 438 m 3 X s 1294 443 m 3 X s 1292 447 m 5 X s 1294 452 m 3 X s 1294 457 m 3 X s 1294 462 m 3 X s 1294 466 m 3 X s 1292 471 m 5 X s 1294 476 m 3 X s 1294 481 m 3 X s 1294 485 m 3 X s 1294 490 m 3 X s 1292 495 m 5 X s 1294 500 m 3 X s
 1294 505 m 3 X s 1294 509 m 3 X s 1294 514 m 3 X s 1292 519 m 5 X s 1294 524 m 3 X s 1294 528 m 3 X s 1294 533 m 3 X s 1294 538 m 3 X s 1292 543 m 5 X s 1294 547 m 3 X s 1294 552 m 3 X s 1294 557 m 3 X s 1294 562 m 3 X s 1292 567 m 5 X s 1294 571 m
 3 X s 1294 576 m 3 X s 1294 581 m 3 X s 1294 586 m 3 X s 1292 590 m 5 X s 1294 595 m 3 X s 1294 600 m 3 X s 1294 605 m 3 X s 1294 609 m 3 X s 1292 614 m 5 X s 1292 400 m 5 X s 1294 395 m 3 X s 1292 614 m 5 X s 1294 619 m 3 X s 1038 539 1084 520 1178
 552 1271 458 4 { m21} R 1038 550 m 38 Y s 1032 588 m 11 X s 1038 527 m -37 Y s 1032 490 m 11 X s 1084 531 m 38 Y s 1079 569 m 11 X s 1084 509 m -38 Y s 1079 471 m 11 X s 1178 563 m 38 Y s 1172 601 m 12 X s 1178 540 m -37 Y s 1172 503 m 12 X s 1271
 470 m 37 Y s 1266 507 m 11 X s 1271 447 m -37 Y s 1266 410 m 11 X s 9 lw 0.95 0.95 0.95 c black 993 471 m 3 1 d 3 X 3 1 d 3 X 3 1 d 3 X 3 1 d 3 X 3 1 d 3 X 3 1 d 6 X 3 1 d 3 X 4 1 d 3 X 3 1 d 3 X 3 1 d 3 X 3 1 d 3 X 3 1 d 6 X 3 1 d 3 X 3 1 d 3 X 3 1
 d 3 X 4 1 d 3 X 3 1 d 3 X 3 1 d 6 X 3 1 d 3 X 3 1 d 3 X 3 1 d 3 X 3 1 d 3 X 3 1 d 4 X s 1143 494 m 3 X 3 1 d 3 X 3 1 d 3 X 3 1 d 3 X 3 1 d 3 X 3 1 d 3 X 3 1 d 6 X 3 1 d 4 X 3 1 d 3 X 3 1 d 3 X 3 1 d 3 X 3 1 d 3 X 3 1 d 6 X 3 1 d 3 X 3 1 d 3 X 3 1 d
 4 X 3 1 d 3 X 3 1 d 3 X 3 1 d 6 X 3 1 d 3 X 3 1 d 3 X 3 1 d 3 X 3 1 d 3 X 4 1 d s 1293 517 m 3 X s 0.49 0.6 0.82 c black 0.49 0.6 0.82 c
 gsave  408 306 930 345 C 1051.24 629.605 t 0 r /Helvetica-Bold findfont 25.6831 sf 0 0 m (6.0 < E < 6.5 GeV) show NC gr  0.52 0.76 0.64 c black 0.52 0.76 0.64 c
 gsave  408 306 930 345 C 1037 592.569 t 0 r /Helvetica-Bold findfont 25.6831 sf 0 0 m 
 220 206 192 185 170 163 148 141 125 118 111 97 83 69 61 47 40 25 18
(A = 0.003, p = 1.000) K NC gr  1 0.6 1 c black 1 0.6 1 c
 gsave  408 306 930 345 C 1336.13 458.671 t 90 r /Helvetica-Bold findfont 28.5368 sf 0 0 m (/dof=1.5) show NC gr  black 1 0.6 1 c
 gsave  408 306 930 345 C 1324.73 447.276 t 90 r /Helvetica-Bold findfont 19.9758 sf 0 0 m (2) show NC gr  black 1 0.6 1 c
 gsave  408 306 930 345 C 1336.13 430.182 t 90 r /Symbol findfont 28.5368 sf 0 0 m (c) show NC gr  black 3 lw 1 1 1 c 408 306 1383 345 bf black 1 1 1 c black 306 229 1445 391 bl 306 229 1445 391 bl 1445 391 m 306 X s 1445 395 m -4 Y s 1538 395 m -4 Y
 s 1631 395 m -4 Y s 1725 395 m -4 Y s 1725 395 m -4 Y s
 gsave  408 306 1383 345 C 1435.84 370.356 t 0 r /Helvetica findfont 22.8295 sf 0 0 m (0) show NC gr 
 gsave  408 306 1383 345 C 1529.85 370.356 t 0 r /Helvetica findfont 22.8295 sf 0 0 m (1) show NC gr 
 gsave  408 306 1383 345 C 1621.02 370.356 t 0 r /Helvetica findfont 22.8295 sf 0 0 m (2) show NC gr 
 gsave  408 306 1383 345 C 1715.03 370.356 t 0 r /Helvetica findfont 22.8295 sf 0 0 m (3) show NC gr  1445 620 m 306 X s 1445 616 m 4 Y s 1538 616 m 4 Y s 1631 616 m 4 Y s 1725 616 m 4 Y s 1725 616 m 4 Y s 1445 391 m 229 Y s 1450 409 m -5 X s 1447
 417 m -2 X s 1447 425 m -2 X s 1447 432 m -2 X s 1447 440 m -2 X s 1450 448 m -5 X s 1447 455 m -2 X s 1447 463 m -2 X s 1447 471 m -2 X s 1447 478 m -2 X s 1450 486 m -5 X s 1447 494 m -2 X s 1447 501 m -2 X s 1447 509 m -2 X s 1447 517 m -2 X s
 1450 524 m -5 X s 1447 532 m -2 X s 1447 540 m -2 X s 1447 547 m -2 X s 1447 555 m -2 X s 1450 563 m -5 X s 1447 570 m -2 X s 1447 578 m -2 X s 1447 586 m -2 X s 1447 593 m -2 X s 1450 601 m -5 X s 1450 409 m -5 X s 1447 402 m -2 X s 1447 394 m -2 X
 s 1450 601 m -5 X s 1447 608 m -2 X s 1447 616 m -2 X s
 gsave  408 306 1383 345 C 1390.26 401.694 t 0 r /Helvetica findfont 22.8295 sf 0 0 m (\2550.03) show NC gr 
 gsave  408 306 1383 345 C 1390.26 441.578 t 0 r /Helvetica findfont 22.8295 sf 0 0 m (\2550.02) show NC gr 
 gsave  408 306 1383 345 C 1393.11 478.614 t 0 r /Helvetica findfont 22.8295 sf 0 0 m (\2550.01) show NC gr 
 gsave  408 306 1383 345 C 1427.29 518.498 t 0 r /Helvetica findfont 22.8295 sf 0 0 m (0) show NC gr 
 gsave  408 306 1383 345 C 1398.81 555.534 t 0 r /Helvetica findfont 22.8295 sf 0 0 m (0.01) show NC gr 
 gsave  408 306 1383 345 C 1395.96 592.569 t 0 r /Helvetica findfont 22.8295 sf 0 0 m (0.02) show NC gr  1751 391 m 229 Y s 1745 409 m 6 X s 1748 417 m 3 X s 1748 425 m 3 X s 1748 432 m 3 X s 1748 440 m 3 X s 1745 448 m 6 X s 1748 455 m 3 X s 1748
 463 m 3 X s 1748 471 m 3 X s 1748 478 m 3 X s 1745 486 m 6 X s 1748 494 m 3 X s 1748 501 m 3 X s 1748 509 m 3 X s 1748 517 m 3 X s 1745 524 m 6 X s 1748 532 m 3 X s 1748 540 m 3 X s 1748 547 m 3 X s 1748 555 m 3 X s 1745 563 m 6 X s 1748 570 m 3 X s
 1748 578 m 3 X s 1748 586 m 3 X s 1748 593 m 3 X s 1745 601 m 6 X s 1745 409 m 6 X s 1748 402 m 3 X s 1748 394 m 3 X s 1745 601 m 6 X s 1748 608 m 3 X s 1748 616 m 3 X s 1491 555 1538 455 1631 538 1725 546 4 { m21} R 1491 566 m 35 Y s 1486 601 m 11
 X s 1491 543 m -35 Y s 1486 508 m 11 X s 1538 467 m 34 Y s 1532 501 m 12 X s 1538 444 m -34 Y s 1532 410 m 12 X s 1631 549 m 34 Y s 1626 583 m 11 X s 1631 526 m -34 Y s 1626 492 m 11 X s 1725 558 m 34 Y s 1719 592 m 12 X s 1725 535 m -35 Y s 1719
 500 m 12 X s 1 0 0 c 9 lw 0.95 0.95 0.95 c black 1 0 0 c 1446 524 m 31 X 3 1 d 36 X 4 1 d 24 X 3 1 d 18 X 4 1 d 12 X 3 1 d 12 X s 1596 529 m 3 1 d 12 X 3 1 d 10 X 3 1 d 9 X 3 1 d 9 X 3 1 d 6 X 3 1 d 10 X 3 1 d 6 X 3 1 d 6 X 3 1 d 6 X 3 1 d 6 X 3 1 d
 6 X 4 1 d 3 X 3 1 d 6 X 3 1 d 3 X 3 1 d 6 X s 1746 544 m 3 1 d s 0.49 0.6 0.82 c black 0.49 0.6 0.82 c
 gsave  408 306 1383 345 C 1504.21 629.605 t 0 r /Helvetica-Bold findfont 25.6831 sf 0 0 m (6.5 < E < 7.0 GeV) show NC gr  0.52 0.76 0.64 c black 0.52 0.76 0.64 c
 gsave  408 306 1383 345 C 1489.97 592.569 t 0 r /Helvetica-Bold findfont 25.6831 sf 0 0 m 
 220 206 192 185 170 163 148 141 126 118 111 97 83 69 61 47 40 25 18
(A = 0.001, p = 2.000) K NC gr  1 0.6 1 c black 1 0.6 1 c
 gsave  408 306 1383 345 C 1789.1 458.671 t 90 r /Helvetica-Bold findfont 28.5368 sf 0 0 m (/dof=1.0) show NC gr  black 1 0.6 1 c
 gsave  408 306 1383 345 C 1777.71 447.276 t 90 r /Helvetica-Bold findfont 19.9758 sf 0 0 m (2) show NC gr  black 1 0.6 1 c
 gsave  408 306 1383 345 C 1789.1 430.182 t 90 r /Symbol findfont 28.5368 sf 0 0 m (c) show NC gr  black 3 lw 1 1 1 c 408 306 1837 345 bf black 1 1 1 c black 306 229 1898 391 bl 306 229 1898 391 bl 1898 391 m 306 X s 1898 395 m -4 Y s 1992 395 m -4 Y
 s 2085 395 m -4 Y s 2179 395 m -4 Y s 2179 395 m -4 Y s
 gsave  408 306 1837 345 C 1888.81 370.356 t 0 r /Helvetica findfont 22.8295 sf 0 0 m (0) show NC gr 
 gsave  408 306 1837 345 C 1985.68 370.356 t 0 r /Helvetica findfont 22.8295 sf 0 0 m (1) show NC gr 
 gsave  408 306 1837 345 C 2073.99 370.356 t 0 r /Helvetica findfont 22.8295 sf 0 0 m (2) show NC gr 
 gsave  408 306 1837 345 C 2168.01 370.356 t 0 r /Helvetica findfont 22.8295 sf 0 0 m (3) show NC gr  1898 620 m 306 X s 1898 616 m 4 Y s 1992 616 m 4 Y s 2085 616 m 4 Y s 2179 616 m 4 Y s 2179 616 m 4 Y s 1898 391 m 229 Y s 1904 400 m -6 X s 1901
 406 m -3 X s 1901 411 m -3 X s 1901 417 m -3 X s 1901 422 m -3 X s 1904 428 m -6 X s 1901 433 m -3 X s 1901 439 m -3 X s 1901 444 m -3 X s 1901 450 m -3 X s 1904 455 m -6 X s 1901 461 m -3 X s 1901 466 m -3 X s 1901 472 m -3 X s 1901 478 m -3 X s
 1904 483 m -6 X s 1901 489 m -3 X s 1901 494 m -3 X s 1901 500 m -3 X s 1901 505 m -3 X s 1904 511 m -6 X s 1901 516 m -3 X s 1901 522 m -3 X s 1901 527 m -3 X s 1901 533 m -3 X s 1904 538 m -6 X s 1901 544 m -3 X s 1901 549 m -3 X s 1901 555 m -3 X
 s 1901 561 m -3 X s 1904 566 m -6 X s 1901 572 m -3 X s 1901 577 m -3 X s 1901 583 m -3 X s 1901 588 m -3 X s 1904 594 m -6 X s 1904 400 m -6 X s 1901 395 m -3 X s 1904 594 m -6 X s 1901 599 m -3 X s 1901 605 m -3 X s 1901 610 m -3 X s 1901 616 m -3
 X s
 gsave  408 306 1837 345 C 1843.23 393.147 t 0 r /Helvetica findfont 22.8295 sf 0 0 m (\2550.02) show NC gr 
 gsave  408 306 1837 345 C 1846.08 421.636 t 0 r /Helvetica findfont 22.8295 sf 0 0 m (\2550.01) show NC gr 
 gsave  408 306 1837 345 C 1880.27 447.276 t 0 r /Helvetica findfont 22.8295 sf 0 0 m (0) show NC gr 
 gsave  408 306 1837 345 C 1851.78 475.765 t 0 r /Helvetica findfont 22.8295 sf 0 0 m (0.01) show NC gr 
 gsave  408 306 1837 345 C 1848.93 504.254 t 0 r /Helvetica findfont 22.8295 sf 0 0 m (0.02) show NC gr 
 gsave  408 306 1837 345 C 1848.93 529.894 t 0 r /Helvetica findfont 22.8295 sf 0 0 m (0.03) show NC gr 
 gsave  408 306 1837 345 C 1848.93 558.382 t 0 r /Helvetica findfont 22.8295 sf 0 0 m (0.04) show NC gr 
 gsave  408 306 1837 345 C 1848.93 586.871 t 0 r /Helvetica findfont 22.8295 sf 0 0 m (0.05) show NC gr  2204 391 m 229 Y s 2199 400 m 5 X s 2201 406 m 3 X s 2201 411 m 3 X s 2201 417 m 3 X s 2201 422 m 3 X s 2199 428 m 5 X s 2201 433 m 3 X s 2201
 439 m 3 X s 2201 444 m 3 X s 2201 450 m 3 X s 2199 455 m 5 X s 2201 461 m 3 X s 2201 466 m 3 X s 2201 472 m 3 X s 2201 478 m 3 X s 2199 483 m 5 X s 2201 489 m 3 X s 2201 494 m 3 X s 2201 500 m 3 X s 2201 505 m 3 X s 2199 511 m 5 X s 2201 516 m 3 X s
 2201 522 m 3 X s 2201 527 m 3 X s 2201 533 m 3 X s 2199 538 m 5 X s 2201 544 m 3 X s 2201 549 m 3 X s 2201 555 m 3 X s 2201 561 m 3 X s 2199 566 m 5 X s 2201 572 m 3 X s 2201 577 m 3 X s 2201 583 m 3 X s 2201 588 m 3 X s 2199 594 m 5 X s 2199 400 m
 5 X s 2201 395 m 3 X s 2199 594 m 5 X s 2201 599 m 3 X s 2201 605 m 3 X s 2201 610 m 3 X s 2201 616 m 3 X s 1945 448 1992 477 2085 457 2179 562 4 { m21} R 1945 459 m 26 Y s 1939 485 m 12 X s 1945 436 m -26 Y s 1939 410 m 12 X s 1992 488 m 26 Y s
 1986 514 m 11 X s 1992 465 m -26 Y s 1986 439 m 11 X s 2085 469 m 26 Y s 2079 495 m 12 X s 2085 446 m -26 Y s 2079 420 m 12 X s 2179 574 m 27 Y s 2173 601 m 11 X s 2179 551 m -27 Y s 2173 524 m 11 X s 1 0 0 c 9 lw 0.95 0.95 0.95 c black 1 0 0 c 1900
 455 m 6 X 3 1 d 18 X 3 1 d 9 X 3 1 d 7 X 3 1 d 6 X 3 1 d 3 X 3 1 d 3 X 3 1 d 3 X 3 1 d 3 1 d 3 X 3 1 d 3 X 4 1 d 3 1 d 3 X 3 1 d 3 1 d 3 1 d 3 X 3 1 d 3 1 d 3 1 d 3 1 d 3 1 d 3 1 d 3 1 d 3 1 d 3 1 d 3 1 d 4 1 d 3 1 d s 2050 482 m 3 1 d 3 1 d 3 1 d 3
 1 d 3 1 d 3 1 d 3 2 d 3 1 d 3 1 d 3 1 d 3 2 d 3 1 d 3 1 d 3 2 d 4 1 d 3 1 d 3 2 d 3 1 d 3 2 d 3 1 d 3 2 d 3 1 d 3 2 d 3 1 d 3 2 d 3 2 d 3 1 d 3 2 d 3 1 d 3 2 d 4 2 d 3 2 d 3 1 d 3 2 d 3 2 d 3 2 d 3 2 d 3 2 d 3 1 d 3 2 d 3 2 d 3 2 d 3 2 d 3 2 d 3 2 d
 3 2 d 4 2 d 3 2 d 3 2 d s 2200 559 m 3 3 d s 0.49 0.6 0.82 c black 0.49 0.6 0.82 c
 gsave  408 306 1837 345 C 1957.19 629.605 t 0 r /Helvetica-Bold findfont 25.6831 sf 0 0 m (7.0 < E < 7.5 GeV) show NC gr  0.52 0.76 0.64 c black 0.52 0.76 0.64 c
 gsave  408 306 1837 345 C 1942.94 592.569 t 0 r /Helvetica-Bold findfont 25.6831 sf 0 0 m 
 220 206 192 185 170 163 148 141 125 118 111 97 83 69 61 47 40 25 18
(A = 0.004, p = 2.000) K NC gr  1 0.6 1 c black 1 0.6 1 c
 gsave  408 306 1837 345 C 2242.08 458.671 t 90 r /Helvetica-Bold findfont 28.5368 sf 0 0 m (/dof=0.5) show NC gr  black 1 0.6 1 c
 gsave  408 306 1837 345 C 2230.68 447.276 t 90 r /Helvetica-Bold findfont 19.9758 sf 0 0 m (2) show NC gr  black 1 0.6 1 c
 gsave  408 306 1837 345 C 2242.08 430.182 t 90 r /Symbol findfont 28.5368 sf 0 0 m (c) show NC gr  black 3 lw 1 1 1 c 408 306 23 13 bf black 1 1 1 c black 306 229 84 59 bl 306 229 84 59 bl 84 59 m 306 X s 84 63 m -4 Y s 177 63 m -4 Y s 271 63 m -4 Y
 s 364 63 m -4 Y s 364 63 m -4 Y s
 gsave  408 306 23 13 C 74.0711 39.8845 t 0 r /Helvetica findfont 22.8295 sf 0 0 m (0) show NC gr 
 gsave  408 306 23 13 C 170.933 39.8845 t 0 r /Helvetica findfont 22.8295 sf 0 0 m (1) show NC gr 
 gsave  408 306 23 13 C 262.098 39.8845 t 0 r /Helvetica findfont 22.8295 sf 0 0 m (2) show NC gr 
 gsave  408 306 23 13 C 353.262 39.8845 t 0 r /Helvetica findfont 22.8295 sf 0 0 m (3) show NC gr  84 288 m 306 X s 84 284 m 4 Y s 177 284 m 4 Y s 271 284 m 4 Y s 364 284 m 4 Y s 364 284 m 4 Y s 84 59 m 229 Y s 89 72 m -5 X s 87 76 m -3 X s 87 81 m
 -3 X s 87 86 m -3 X s 87 90 m -3 X s 89 95 m -5 X s 87 100 m -3 X s 87 105 m -3 X s 87 109 m -3 X s 87 114 m -3 X s 89 119 m -5 X s 87 124 m -3 X s 87 128 m -3 X s 87 133 m -3 X s 87 138 m -3 X s 89 142 m -5 X s 87 147 m -3 X s 87 152 m -3 X s 87
 157 m -3 X s 87 161 m -3 X s 89 166 m -5 X s 87 171 m -3 X s 87 175 m -3 X s 87 180 m -3 X s 87 185 m -3 X s 89 190 m -5 X s 87 194 m -3 X s 87 199 m -3 X s 87 204 m -3 X s 87 209 m -3 X s 89 213 m -5 X s 87 218 m -3 X s 87 223 m -3 X s 87 227 m -3
 X s 87 232 m -3 X s 89 237 m -5 X s 87 242 m -3 X s 87 246 m -3 X s 87 251 m -3 X s 87 256 m -3 X s 89 260 m -5 X s 87 265 m -3 X s 87 270 m -3 X s 87 275 m -3 X s 87 279 m -3 X s 89 284 m -5 X s 89 72 m -5 X s 87 67 m -3 X s 87 62 m -3 X s 89 284 m
 -5 X s
 gsave  408 306 23 13 C 28.4889 65.5245 t 0 r /Helvetica findfont 22.8295 sf 0 0 m (\2550.04) show NC gr 
 gsave  408 306 23 13 C 28.4889 88.3156 t 0 r /Helvetica findfont 22.8295 sf 0 0 m (\2550.03) show NC gr 
 gsave  408 306 23 13 C 28.4889 111.107 t 0 r /Helvetica findfont 22.8295 sf 0 0 m (\2550.02) show NC gr 
 gsave  408 306 23 13 C 31.3378 133.898 t 0 r /Helvetica findfont 22.8295 sf 0 0 m (\2550.01) show NC gr 
 gsave  408 306 23 13 C 65.5245 159.538 t 0 r /Helvetica findfont 22.8295 sf 0 0 m (0) show NC gr 
 gsave  408 306 23 13 C 37.0356 182.329 t 0 r /Helvetica findfont 22.8295 sf 0 0 m (0.01) show NC gr 
 gsave  408 306 23 13 C 34.1867 205.12 t 0 r /Helvetica findfont 22.8295 sf 0 0 m (0.02) show NC gr 
 gsave  408 306 23 13 C 34.1867 230.76 t 0 r /Helvetica findfont 22.8295 sf 0 0 m (0.03) show NC gr 
 gsave  408 306 23 13 C 34.1867 253.551 t 0 r /Helvetica findfont 22.8295 sf 0 0 m (0.04) show NC gr 
 gsave  408 306 23 13 C 34.1867 276.342 t 0 r /Helvetica findfont 22.8295 sf 0 0 m (0.05) show NC gr  390 59 m 229 Y s 385 72 m 5 X s 387 76 m 3 X s 387 81 m 3 X s 387 86 m 3 X s 387 90 m 3 X s 385 95 m 5 X s 387 100 m 3 X s 387 105 m 3 X s 387 109 m
 3 X s 387 114 m 3 X s 385 119 m 5 X s 387 124 m 3 X s 387 128 m 3 X s 387 133 m 3 X s 387 138 m 3 X s 385 142 m 5 X s 387 147 m 3 X s 387 152 m 3 X s 387 157 m 3 X s 387 161 m 3 X s 385 166 m 5 X s 387 171 m 3 X s 387 175 m 3 X s 387 180 m 3 X s 387
 185 m 3 X s 385 190 m 5 X s 387 194 m 3 X s 387 199 m 3 X s 387 204 m 3 X s 387 209 m 3 X s 385 213 m 5 X s 387 218 m 3 X s 387 223 m 3 X s 387 227 m 3 X s 387 232 m 3 X s 385 237 m 5 X s 387 242 m 3 X s 387 246 m 3 X s 387 251 m 3 X s 387 256 m 3 X
 s 385 260 m 5 X s 387 265 m 3 X s 387 270 m 3 X s 387 275 m 3 X s 387 279 m 3 X s 385 284 m 5 X s 385 72 m 5 X s 387 67 m 3 X s 387 62 m 3 X s 385 284 m 5 X s /w 22 def /w2 {w 2 div} def /w3 {w 3 div} def 131 178 177 200 271 113 364 233 4 { m21} R
 131 189 m 24 Y s 125 213 m 11 X s 131 166 m -24 Y s 125 142 m 11 X s 177 211 m 25 Y s 172 236 m 11 X s 177 189 m -25 Y s 172 164 m 11 X s 271 124 m 23 Y s 265 147 m 12 X s 271 101 m -23 Y s 265 78 m 12 X s 364 244 m 25 Y s 359 269 m 11 X s 364 222 m
 -25 Y s 359 197 m 11 X s 1 0 0 c 9 lw 0.95 0.95 0.95 c black 1 0 0 c 85 166 m 28 X 3 1 d 21 X 4 1 d 15 X 3 1 d 9 X 3 1 d 9 X 3 1 d 7 X 3 1 d 6 X 3 1 d 6 X 3 1 d 6 X 3 1 d 3 X 3 1 d 3 X 3 1 d 3 X s 235 177 m 4 X 3 1 d 3 X 3 1 d 3 X 3 1 d 3 X 3 1 d 3
 X 3 1 d 3 X 3 1 d 3 X 3 1 d 3 1 d 3 X 3 1 d 4 X 3 1 d 3 1 d 3 X 3 1 d 3 X 3 1 d 3 1 d 3 X 3 1 d 3 1 d 3 1 d 3 X 3 1 d 3 1 d 3 X 4 1 d 3 1 d 3 1 d 3 X 3 1 d 3 1 d 3 1 d 3 1 d 3 X 3 1 d 3 1 d 3 1 d 3 1 d 3 1 d 3 X 3 1 d s 385 209 m 4 1 d s 0.49 0.6
 0.82 c black 0.49 0.6 0.82 c
 gsave  408 306 23 13 C 142.445 296.285 t 0 r /Helvetica-Bold findfont 25.6831 sf 0 0 m (7.5 < E < 8.0 GeV) show NC gr  0.52 0.76 0.64 c black 0.52 0.76 0.64 c
 gsave  408 306 23 13 C 128.2 259.249 t 0 r /Helvetica-Bold findfont 25.6831 sf 0 0 m 
 220 206 192 185 170 163 148 141 126 118 111 97 83 69 61 47 40 25 18
(A = 0.002, p = 2.000) K NC gr  1 0.6 1 c black 1 0.6 1 c
 gsave  408 306 23 13 C 427.334 128.2 t 90 r /Helvetica-Bold findfont 28.5368 sf 0 0 m (/dof=1.8) show NC gr  black 1 0.6 1 c
 gsave  408 306 23 13 C 415.938 116.804 t 90 r /Helvetica-Bold findfont 19.9758 sf 0 0 m (2) show NC gr  black 1 0.6 1 c
 gsave  408 306 23 13 C 427.334 99.7112 t 90 r /Symbol findfont 28.5368 sf 0 0 m (c) show NC gr  black 3 lw 1 1 1 c 408 306 476 13 bf black 1 1 1 c black 307 229 537 59 bl 307 229 537 59 bl 537 59 m 307 X s 537 63 m -4 Y s 631 63 m -4 Y s 724 63 m -4
 Y s 818 63 m -4 Y s 818 63 m -4 Y s
 gsave  408 306 476 13 C 527.045 39.8845 t 0 r /Helvetica findfont 22.8295 sf 0 0 m (0) show NC gr 
 gsave  408 306 476 13 C 623.907 39.8845 t 0 r /Helvetica findfont 22.8295 sf 0 0 m (1) show NC gr 
 gsave  408 306 476 13 C 715.071 39.8845 t 0 r /Helvetica findfont 22.8295 sf 0 0 m (2) show NC gr 
 gsave  408 306 476 13 C 809.085 39.8845 t 0 r /Helvetica findfont 22.8295 sf 0 0 m (3) show NC gr  537 288 m 307 X s 537 284 m 4 Y s 631 284 m 4 Y s 724 284 m 4 Y s 818 284 m 4 Y s 818 284 m 4 Y s 537 59 m 229 Y s 543 72 m -6 X s 540 82 m -3 X s 540
 92 m -3 X s 540 102 m -3 X s 543 112 m -6 X s 540 122 m -3 X s 540 131 m -3 X s 540 141 m -3 X s 543 151 m -6 X s 540 161 m -3 X s 540 171 m -3 X s 540 181 m -3 X s 543 190 m -6 X s 540 200 m -3 X s 540 210 m -3 X s 540 220 m -3 X s 543 230 m -6 X s
 540 240 m -3 X s 540 249 m -3 X s 540 259 m -3 X s 543 269 m -6 X s 543 72 m -6 X s 540 63 m -3 X s 543 269 m -6 X s 540 279 m -3 X s
 gsave  408 306 476 13 C 481.462 65.5245 t 0 r /Helvetica findfont 22.8295 sf 0 0 m (\2550.04) show NC gr 
 gsave  408 306 476 13 C 481.462 105.409 t 0 r /Helvetica findfont 22.8295 sf 0 0 m (\2550.02) show NC gr 
 gsave  408 306 476 13 C 518.498 145.293 t 0 r /Helvetica findfont 22.8295 sf 0 0 m (0) show NC gr 
 gsave  408 306 476 13 C 487.16 182.329 t 0 r /Helvetica findfont 22.8295 sf 0 0 m (0.02) show NC gr 
 gsave  408 306 476 13 C 487.16 222.213 t 0 r /Helvetica findfont 22.8295 sf 0 0 m (0.04) show NC gr 
 gsave  408 306 476 13 C 487.16 262.098 t 0 r /Helvetica findfont 22.8295 sf 0 0 m (0.06) show NC gr  844 59 m 229 Y s 838 72 m 6 X s 841 82 m 3 X s 841 92 m 3 X s 841 102 m 3 X s 838 112 m 6 X s 841 122 m 3 X s 841 131 m 3 X s 841 141 m 3 X s 838
 151 m 6 X s 841 161 m 3 X s 841 171 m 3 X s 841 181 m 3 X s 838 190 m 6 X s 841 200 m 3 X s 841 210 m 3 X s 841 220 m 3 X s 838 230 m 6 X s 841 240 m 3 X s 841 249 m 3 X s 841 259 m 3 X s 838 269 m 6 X s 838 72 m 6 X s 841 63 m 3 X s 838 269 m 6 X s
 841 279 m 3 X s /w 23 def /w2 {w 2 div} def /w3 {w 3 div} def 584 110 631 147 724 167 818 236 4 { m21} R 584 121 m 20 Y s 578 141 m 12 X s 584 98 m -20 Y s 578 78 m 12 X s 631 158 m 20 Y s 625 178 m 12 X s 631 135 m -20 Y s 625 115 m 12 X s 724 179
 m 21 Y s 719 200 m 11 X s 724 156 m -21 Y s 719 135 m 11 X s 818 248 m 21 Y s 812 269 m 12 X s 818 225 m -22 Y s 812 203 m 12 X s 1 0 0 c 9 lw 0.95 0.95 0.95 c black 1 0 0 c 539 151 m 18 X 3 1 d 16 X 3 1 d 9 X 3 1 d 6 X 3 1 d 3 X 3 1 d 6 X 4 1 d 3 X
 3 1 d 3 X 3 1 d 3 X 3 1 d 3 X 3 1 d 3 1 d 3 X 3 1 d 3 1 d 3 X 3 1 d 3 1 d 3 X 4 1 d 3 1 d 3 1 d 3 X 3 1 d 3 1 d 3 1 d 3 1 d s 689 173 m 3 1 d 3 1 d 3 1 d 3 X 3 1 d 3 1 d 3 1 d 3 1 d 4 1 d 3 2 d 3 1 d 3 1 d 3 1 d 3 1 d 3 1 d 3 1 d 3 1 d 3 2 d 3 1 d 3
 1 d 3 1 d 3 1 d 3 2 d 3 1 d 4 1 d 3 2 d 3 1 d 3 1 d 3 2 d 3 1 d 3 2 d 3 1 d 3 2 d 3 1 d 3 1 d 3 2 d 3 2 d 3 1 d 3 2 d 3 1 d 4 2 d 3 1 d 3 2 d 3 2 d 3 1 d 3 2 d 3 2 d 3 2 d 3 1 d s 839 237 m 3 2 d s 0.49 0.6 0.82 c black 0.49 0.6 0.82 c
 gsave  408 306 476 13 C 595.418 296.285 t 0 r /Helvetica-Bold findfont 25.6831 sf 0 0 m (8.0 < E < 8.5 GeV) show NC gr  0.52 0.76 0.64 c black 0.52 0.76 0.64 c
 gsave  408 306 476 13 C 581.174 259.249 t 0 r /Helvetica-Bold findfont 25.6831 sf 0 0 m 
 220 206 192 185 170 163 148 141 125 118 111 97 83 68 61 47 40 25 18
(A = 0.004, p = 2.000) K NC gr  1 0.6 1 c black 1 0.6 1 c
 gsave  408 306 476 13 C 883.156 128.2 t 90 r /Helvetica-Bold findfont 28.5368 sf 0 0 m (/dof=0.8) show NC gr  black 1 0.6 1 c
 gsave  408 306 476 13 C 871.76 116.804 t 90 r /Helvetica-Bold findfont 19.9758 sf 0 0 m (2) show NC gr  black 1 0.6 1 c
 gsave  408 306 476 13 C 883.156 99.7112 t 90 r /Symbol findfont 28.5368 sf 0 0 m (c) show NC gr  black 3 lw 1 1 1 c 408 306 930 13 bf black 1 1 1 c black 306 229 991 59 bl 306 229 991 59 bl 991 59 m 306 X s 991 63 m -4 Y s 1084 63 m -4 Y s 1178 63 m
 -4 Y s 1271 63 m -4 Y s 1271 63 m -4 Y s
 gsave  408 306 930 13 C 980.018 39.8845 t 0 r /Helvetica findfont 22.8295 sf 0 0 m (0) show NC gr 
 gsave  408 306 930 13 C 1076.88 39.8845 t 0 r /Helvetica findfont 22.8295 sf 0 0 m (1) show NC gr 
 gsave  408 306 930 13 C 1168.04 39.8845 t 0 r /Helvetica findfont 22.8295 sf 0 0 m (2) show NC gr 
 gsave  408 306 930 13 C 1262.06 39.8845 t 0 r /Helvetica findfont 22.8295 sf 0 0 m (3) show NC gr  991 288 m 306 X s 991 284 m 4 Y s 1084 284 m 4 Y s 1178 284 m 4 Y s 1271 284 m 4 Y s 1271 284 m 4 Y s 991 59 m 229 Y s 997 59 m -6 X s 994 64 m -3 X s
 994 69 m -3 X s 994 75 m -3 X s 994 80 m -3 X s 997 85 m -6 X s 994 90 m -3 X s 994 95 m -3 X s 994 100 m -3 X s 994 105 m -3 X s 997 110 m -6 X s 994 115 m -3 X s 994 120 m -3 X s 994 125 m -3 X s 994 130 m -3 X s 997 135 m -6 X s 994 140 m -3 X s
 994 145 m -3 X s 994 150 m -3 X s 994 155 m -3 X s 997 161 m -6 X s 994 166 m -3 X s 994 171 m -3 X s 994 176 m -3 X s 994 181 m -3 X s 997 186 m -6 X s 994 191 m -3 X s 994 196 m -3 X s 994 201 m -3 X s 994 206 m -3 X s 997 211 m -6 X s 994 216 m
 -3 X s 994 221 m -3 X s 994 226 m -3 X s 994 231 m -3 X s 997 236 m -6 X s 994 241 m -3 X s 994 246 m -3 X s 994 252 m -3 X s 994 257 m -3 X s 997 262 m -6 X s 994 267 m -3 X s 994 272 m -3 X s 994 277 m -3 X s 994 282 m -3 X s 997 287 m -6 X s 997
 59 m -6 X s 997 287 m -6 X s
 gsave  408 306 930 13 C 937.285 51.28 t 0 r /Helvetica findfont 22.8295 sf 0 0 m (\2550.04) show NC gr 
 gsave  408 306 930 13 C 937.285 76.92 t 0 r /Helvetica findfont 22.8295 sf 0 0 m (\2550.03) show NC gr 
 gsave  408 306 930 13 C 937.285 102.56 t 0 r /Helvetica findfont 22.8295 sf 0 0 m (\2550.02) show NC gr 
 gsave  408 306 930 13 C 940.134 128.2 t 0 r /Helvetica findfont 22.8295 sf 0 0 m (\2550.01) show NC gr 
 gsave  408 306 930 13 C 974.32 153.84 t 0 r /Helvetica findfont 22.8295 sf 0 0 m (0) show NC gr 
 gsave  408 306 930 13 C 945.832 179.48 t 0 r /Helvetica findfont 22.8295 sf 0 0 m (0.01) show NC gr 
 gsave  408 306 930 13 C 942.983 205.12 t 0 r /Helvetica findfont 22.8295 sf 0 0 m (0.02) show NC gr 
 gsave  408 306 930 13 C 942.983 227.911 t 0 r /Helvetica findfont 22.8295 sf 0 0 m (0.03) show NC gr 
 gsave  408 306 930 13 C 942.983 253.551 t 0 r /Helvetica findfont 22.8295 sf 0 0 m (0.04) show NC gr 
 gsave  408 306 930 13 C 942.983 279.191 t 0 r /Helvetica findfont 22.8295 sf 0 0 m (0.05) show NC gr  1297 59 m 229 Y s 1292 59 m 5 X s 1294 64 m 3 X s 1294 69 m 3 X s 1294 75 m 3 X s 1294 80 m 3 X s 1292 85 m 5 X s 1294 90 m 3 X s 1294 95 m 3 X s
 1294 100 m 3 X s 1294 105 m 3 X s 1292 110 m 5 X s 1294 115 m 3 X s 1294 120 m 3 X s 1294 125 m 3 X s 1294 130 m 3 X s 1292 135 m 5 X s 1294 140 m 3 X s 1294 145 m 3 X s 1294 150 m 3 X s 1294 155 m 3 X s 1292 161 m 5 X s 1294 166 m 3 X s 1294 171 m
 3 X s 1294 176 m 3 X s 1294 181 m 3 X s 1292 186 m 5 X s 1294 191 m 3 X s 1294 196 m 3 X s 1294 201 m 3 X s 1294 206 m 3 X s 1292 211 m 5 X s 1294 216 m 3 X s 1294 221 m 3 X s 1294 226 m 3 X s 1294 231 m 3 X s 1292 236 m 5 X s 1294 241 m 3 X s 1294
 246 m 3 X s 1294 252 m 3 X s 1294 257 m 3 X s 1292 262 m 5 X s 1294 267 m 3 X s 1294 272 m 3 X s 1294 277 m 3 X s 1294 282 m 3 X s 1292 287 m 5 X s 1292 59 m 5 X s 1292 287 m 5 X s 1038 150 1084 174 1178 122 1271 224 4 { m21} R 1038 162 m 32 Y s
 1032 194 m 11 X s 1038 139 m -33 Y s 1032 106 m 11 X s 1084 185 m 33 Y s 1079 218 m 11 X s 1084 163 m -33 Y s 1079 130 m 11 X s 1178 133 m 33 Y s 1172 166 m 12 X s 1178 110 m -32 Y s 1172 78 m 12 X s 1271 235 m 34 Y s 1266 269 m 11 X s 1271 213 m
 -34 Y s 1266 179 m 11 X s 1 0 0 c 9 lw 0.95 0.95 0.95 c black 1 0 0 c 993 161 m 42 X 3 1 d 16 X 3 1 d 12 X 3 1 d 9 X 3 1 d 6 X 4 1 d 6 X 3 1 d 6 X 3 1 d 6 X 3 1 d 6 X 3 1 d 3 X 3 1 d 3 X 4 1 d s 1143 172 m 6 X 3 1 d 3 X 3 1 d 3 X 3 1 d 3 X 3 1 d 3 X
 3 1 d 3 1 d 3 X 3 1 d 3 X 4 1 d 3 X 3 1 d 3 1 d 3 X 3 1 d 3 1 d 3 X 3 1 d 3 1 d 3 X 3 1 d 3 1 d 3 X 3 1 d 3 1 d 3 X 4 1 d 3 1 d 3 1 d 3 1 d 3 X 3 1 d 3 1 d 3 1 d 3 X 3 1 d 3 1 d 3 1 d 3 1 d 3 1 d 3 1 d 3 X 4 1 d s 1293 204 m 3 1 d s 0.49 0.6 0.82 c
 black 0.49 0.6 0.82 c
 gsave  408 306 930 13 C 1051.24 296.285 t 0 r /Helvetica-Bold findfont 25.6831 sf 0 0 m (8.5 < E < 9.0 GeV) show NC gr  0.52 0.76 0.64 c black 0.52 0.76 0.64 c
 gsave  408 306 930 13 C 1037 259.249 t 0 r /Helvetica-Bold findfont 25.6831 sf 0 0 m 
 220 206 192 185 170 163 148 141 125 118 111 97 83 69 61 47 40 25 18
(A = 0.002, p = 2.000) K NC gr  1 0.6 1 c black 1 0.6 1 c
 gsave  408 306 930 13 C 1336.13 128.2 t 90 r /Helvetica-Bold findfont 28.5368 sf 0 0 m (/dof=0.7) show NC gr  black 1 0.6 1 c
 gsave  408 306 930 13 C 1324.73 116.804 t 90 r /Helvetica-Bold findfont 19.9758 sf 0 0 m (2) show NC gr  black 1 0.6 1 c
 gsave  408 306 930 13 C 1336.13 99.7112 t 90 r /Symbol findfont 28.5368 sf 0 0 m (c) show NC gr  black 3 lw 1 1 1 c 408 306 1383 13 bf black 1 1 1 c black 306 229 1445 59 bl 306 229 1445 59 bl 1445 59 m 306 X s 1445 63 m -4 Y s 1538 63 m -4 Y s 1631
 63 m -4 Y s 1725 63 m -4 Y s 1725 63 m -4 Y s
 gsave  408 306 1383 13 C 1435.84 39.8845 t 0 r /Helvetica findfont 22.8295 sf 0 0 m (0) show NC gr 
 gsave  408 306 1383 13 C 1529.85 39.8845 t 0 r /Helvetica findfont 22.8295 sf 0 0 m (1) show NC gr 
 gsave  408 306 1383 13 C 1621.02 39.8845 t 0 r /Helvetica findfont 22.8295 sf 0 0 m (2) show NC gr 
 gsave  408 306 1383 13 C 1715.03 39.8845 t 0 r /Helvetica findfont 22.8295 sf 0 0 m (3) show NC gr  1445 288 m 306 X s 1445 284 m 4 Y s 1538 284 m 4 Y s 1631 284 m 4 Y s 1725 284 m 4 Y s 1725 284 m 4 Y s 1445 59 m 229 Y s 1450 73 m -5 X s 1447 81 m
 -2 X s 1447 89 m -2 X s 1447 97 m -2 X s 1450 105 m -5 X s 1447 113 m -2 X s 1447 121 m -2 X s 1447 129 m -2 X s 1450 137 m -5 X s 1447 145 m -2 X s 1447 153 m -2 X s 1447 161 m -2 X s 1450 169 m -5 X s 1447 177 m -2 X s 1447 185 m -2 X s 1447 193 m
 -2 X s 1450 201 m -5 X s 1447 209 m -2 X s 1447 217 m -2 X s 1447 225 m -2 X s 1450 233 m -5 X s 1447 241 m -2 X s 1447 249 m -2 X s 1447 257 m -2 X s 1450 265 m -5 X s 1450 73 m -5 X s 1447 65 m -2 X s 1450 265 m -5 X s 1447 273 m -2 X s 1447 281 m
 -2 X s
 gsave  408 306 1383 13 C 1390.26 65.5245 t 0 r /Helvetica findfont 22.8295 sf 0 0 m (\2550.04) show NC gr 
 gsave  408 306 1383 13 C 1390.26 99.7112 t 0 r /Helvetica findfont 22.8295 sf 0 0 m (\2550.02) show NC gr 
 gsave  408 306 1383 13 C 1427.29 131.049 t 0 r /Helvetica findfont 22.8295 sf 0 0 m (0) show NC gr 
 gsave  408 306 1383 13 C 1395.96 162.387 t 0 r /Helvetica findfont 22.8295 sf 0 0 m (0.02) show NC gr 
 gsave  408 306 1383 13 C 1395.96 193.725 t 0 r /Helvetica findfont 22.8295 sf 0 0 m (0.04) show NC gr 
 gsave  408 306 1383 13 C 1395.96 225.062 t 0 r /Helvetica findfont 22.8295 sf 0 0 m (0.06) show NC gr 
 gsave  408 306 1383 13 C 1395.96 259.249 t 0 r /Helvetica findfont 22.8295 sf 0 0 m (0.08) show NC gr  1751 59 m 229 Y s 1745 73 m 6 X s 1748 81 m 3 X s 1748 89 m 3 X s 1748 97 m 3 X s 1745 105 m 6 X s 1748 113 m 3 X s 1748 121 m 3 X s 1748 129 m 3
 X s 1745 137 m 6 X s 1748 145 m 3 X s 1748 153 m 3 X s 1748 161 m 3 X s 1745 169 m 6 X s 1748 177 m 3 X s 1748 185 m 3 X s 1748 193 m 3 X s 1745 201 m 6 X s 1748 209 m 3 X s 1748 217 m 3 X s 1748 225 m 3 X s 1745 233 m 6 X s 1748 241 m 3 X s 1748
 249 m 3 X s 1748 257 m 3 X s 1745 265 m 6 X s 1745 73 m 6 X s 1748 65 m 3 X s 1745 265 m 6 X s 1748 273 m 3 X s 1748 281 m 3 X s 1491 108 1538 137 1631 109 1725 238 4 { m21} R 1491 119 m 18 Y s 1486 137 m 11 X s 1491 96 m -18 Y s 1486 78 m 11 X s
 1538 148 m 18 Y s 1532 166 m 12 X s 1538 125 m -18 Y s 1532 107 m 12 X s 1631 120 m 19 Y s 1626 139 m 11 X s 1631 98 m -19 Y s 1626 79 m 11 X s 1725 249 m 20 Y s 1719 269 m 12 X s 1725 226 m -20 Y s 1719 206 m 12 X s 1 0 0 c 9 lw 0.95 0.95 0.95 c
 black 1 0 0 c 1446 137 m 6 X 3 1 d 22 X 3 1 d 12 X 3 1 d 6 X 3 1 d 6 X 3 1 d 7 X 3 1 d 3 X 3 1 d 3 X 3 1 d 3 X 3 1 d 3 X 3 1 d 3 X 3 1 d 3 X 3 1 d 3 1 d 3 X 4 1 d 3 1 d 3 X 3 1 d 3 1 d 3 X 3 1 d 3 1 d 3 1 d 3 1 d s 1596 158 m 3 X 3 1 d 3 1 d 3 1 d 3
 1 d 3 1 d 4 1 d 3 1 d 3 1 d 3 1 d 3 1 d 3 1 d 3 1 d 3 1 d 3 1 d 3 1 d 3 1 d 3 1 d 3 1 d 3 1 d 3 1 d 3 1 d 3 2 d 4 1 d 3 1 d 3 1 d 3 2 d 3 1 d 3 1 d 3 1 d 3 2 d 3 1 d 3 1 d 3 2 d 3 1 d 3 1 d 3 2 d 3 1 d 3 2 d 4 1 d 3 2 d 3 1 d 3 2 d 3 1 d 3 2 d 3 1 d
 3 2 d 3 2 d 3 1 d s 1746 217 m 3 2 d s 0.49 0.6 0.82 c black 0.49 0.6 0.82 c
 gsave  408 306 1383 13 C 1504.21 296.285 t 0 r /Helvetica-Bold findfont 25.6831 sf 0 0 m (9.0 < E < 9.5 GeV) show NC gr  0.52 0.76 0.64 c black 0.52 0.76 0.64 c
 gsave  408 306 1383 13 C 1489.97 259.249 t 0 r /Helvetica-Bold findfont 25.6831 sf 0 0 m 
 220 206 192 185 170 163 148 141 126 118 111 97 83 69 61 47 40 25 18
(A = 0.005, p = 2.000) K NC gr  1 0.6 1 c black 1 0.6 1 c
 gsave  408 306 1383 13 C 1789.1 128.2 t 90 r /Helvetica-Bold findfont 28.5368 sf 0 0 m (/dof=2.1) show NC gr  black 1 0.6 1 c
 gsave  408 306 1383 13 C 1777.71 116.804 t 90 r /Helvetica-Bold findfont 19.9758 sf 0 0 m (2) show NC gr  black 1 0.6 1 c
 gsave  408 306 1383 13 C 1789.1 99.7112 t 90 r /Symbol findfont 28.5368 sf 0 0 m (c) show NC gr  black 3 lw 1 1 1 c 408 306 1837 13 bf black 1 1 1 c black 306 229 1898 59 bl 306 229 1898 59 bl 1898 59 m 306 X s 1898 63 m -4 Y s 1992 63 m -4 Y s 2085
 63 m -4 Y s 2179 63 m -4 Y s 2179 63 m -4 Y s
 gsave  408 306 1837 13 C 1888.81 39.8845 t 0 r /Helvetica findfont 22.8295 sf 0 0 m (0) show NC gr 
 gsave  408 306 1837 13 C 1985.68 39.8845 t 0 r /Helvetica findfont 22.8295 sf 0 0 m (1) show NC gr 
 gsave  408 306 1837 13 C 2073.99 39.8845 t 0 r /Helvetica findfont 22.8295 sf 0 0 m (2) show NC gr 
 gsave  408 306 1837 13 C 2168.01 39.8845 t 0 r /Helvetica findfont 22.8295 sf 0 0 m (3) show NC gr  1898 288 m 306 X s 1898 284 m 4 Y s 1992 284 m 4 Y s 2085 284 m 4 Y s 2179 284 m 4 Y s 2179 284 m 4 Y s 1898 59 m 229 Y s 1904 73 m -6 X s 1901 82 m
 -3 X s 1901 91 m -3 X s 1901 101 m -3 X s 1904 110 m -6 X s 1901 120 m -3 X s 1901 129 m -3 X s 1901 138 m -3 X s 1904 148 m -6 X s 1901 157 m -3 X s 1901 166 m -3 X s 1901 176 m -3 X s 1904 185 m -6 X s 1901 195 m -3 X s 1901 204 m -3 X s 1901 213
 m -3 X s 1904 223 m -6 X s 1901 232 m -3 X s 1901 241 m -3 X s 1901 251 m -3 X s 1904 260 m -6 X s 1904 73 m -6 X s 1901 63 m -3 X s 1904 260 m -6 X s 1901 270 m -3 X s 1901 279 m -3 X s
 gsave  408 306 1837 13 C 1843.23 65.5245 t 0 r /Helvetica findfont 22.8295 sf 0 0 m (\2550.04) show NC gr 
 gsave  408 306 1837 13 C 1843.23 102.56 t 0 r /Helvetica findfont 22.8295 sf 0 0 m (\2550.02) show NC gr 
 gsave  408 306 1837 13 C 1880.27 139.596 t 0 r /Helvetica findfont 22.8295 sf 0 0 m (0) show NC gr 
 gsave  408 306 1837 13 C 1848.93 179.48 t 0 r /Helvetica findfont 22.8295 sf 0 0 m (0.02) show NC gr 
 gsave  408 306 1837 13 C 1848.93 216.516 t 0 r /Helvetica findfont 22.8295 sf 0 0 m (0.04) show NC gr 
 gsave  408 306 1837 13 C 1848.93 253.551 t 0 r /Helvetica findfont 22.8295 sf 0 0 m (0.06) show NC gr  2204 59 m 229 Y s 2199 73 m 5 X s 2201 82 m 3 X s 2201 91 m 3 X s 2201 101 m 3 X s 2199 110 m 5 X s 2201 120 m 3 X s 2201 129 m 3 X s 2201 138 m 3
 X s 2199 148 m 5 X s 2201 157 m 3 X s 2201 166 m 3 X s 2201 176 m 3 X s 2199 185 m 5 X s 2201 195 m 3 X s 2201 204 m 3 X s 2201 213 m 3 X s 2199 223 m 5 X s 2201 232 m 3 X s 2201 241 m 3 X s 2201 251 m 3 X s 2199 260 m 5 X s 2199 73 m 5 X s 2201 63
 m 3 X s 2199 260 m 5 X s 2201 270 m 3 X s 2201 279 m 3 X s 1945 200 1992 115 2085 223 2179 230 4 { m21} R 1945 212 m 27 Y s 1939 239 m 12 X s 1945 189 m -27 Y s 1939 162 m 12 X s 1992 127 m 25 Y s 1986 152 m 11 X s 1992 104 m -26 Y s 1986 78 m 11 X
 s 2085 234 m 27 Y s 2079 261 m 12 X s 2085 211 m -27 Y s 2079 184 m 12 X s 2179 241 m 28 Y s 2173 269 m 11 X s 2179 219 m -28 Y s 2173 191 m 11 X s 1 0 0 c 9 lw 0.95 0.95 0.95 c black 1 0 0 c 1900 148 m 24 X 3 1 d 9 X 3 1 d 7 X 3 1 d 6 X 3 1 d 3 X 3
 1 d 3 X 3 1 d 3 X 3 1 d 3 1 d 3 X 3 1 d 3 X 3 1 d 4 1 d 3 X 3 1 d 3 1 d 3 1 d 3 1 d 3 X 3 1 d 3 1 d 3 1 d 3 1 d 3 1 d 3 1 d 3 1 d 3 1 d 3 1 d 3 1 d 4 1 d 3 1 d s 2050 175 m 3 1 d 3 1 d 3 1 d 3 2 d 3 1 d 3 1 d 3 1 d 3 2 d 3 1 d 3 1 d 3 2 d 3 1 d 3 1
 d 3 2 d 4 1 d 3 2 d 3 1 d 3 2 d 3 1 d 3 2 d 3 1 d 3 2 d 3 1 d 3 2 d 3 2 d 3 1 d 3 2 d 3 2 d 3 1 d 3 2 d 4 2 d 3 2 d 3 2 d 3 2 d 3 1 d 3 2 d 3 2 d 3 2 d 3 2 d 3 2 d 3 2 d 3 2 d 3 2 d 3 2 d 3 2 d 3 2 d 4 3 d 3 2 d 3 2 d s 2200 256 m 3 2 d s 0.49 0.6
 0.82 c black 0.49 0.6 0.82 c
 gsave  408 306 1837 13 C 1948.64 296.285 t 0 r /Helvetica-Bold findfont 25.6831 sf 0 0 m (9.5 < E < 10.0 GeV) show NC gr  0.52 0.76 0.64 c black 0.52 0.76 0.64 c
 gsave  408 306 1837 13 C 1942.94 259.249 t 0 r /Helvetica-Bold findfont 25.6831 sf 0 0 m 
 220 206 192 185 170 163 148 141 125 118 111 97 83 69 61 47 40 25 18
(A = 0.006, p = 2.000) K NC gr  1 0.6 1 c black 1 0.6 1 c
 gsave  408 306 1837 13 C 2242.08 128.2 t 90 r /Helvetica-Bold findfont 28.5368 sf 0 0 m (/dof=1.3) show NC gr  black 1 0.6 1 c
 gsave  408 306 1837 13 C 2230.68 116.804 t 90 r /Helvetica-Bold findfont 19.9758 sf 0 0 m (2) show NC gr  black 1 0.6 1 c
 gsave  408 306 1837 13 C 2242.08 99.7112 t 90 r /Symbol findfont 28.5368 sf 0 0 m (c) show NC gr 
 gr  gr showpage
end
%%EOF
