%!PS-Adobe-2.0 EPSF-2.0
%%BoundingBox:  0 0 567 332
%%Title: Tilt_t_p0_far_fits.eps: Fits
%%Creator: ROOT Version 5.30/06
%%CreationDate: Sun Feb  2 09:37:43 2014
%%EndComments
%%BeginProlog
80 dict begin
/s {stroke} def /l {lineto} def /m {moveto} def /t {translate} def
/r {rotate} def /rl {roll}  def /R {repeat} def
/d {rlineto} def /rm {rmoveto} def /gr {grestore} def /f {eofill} def
/c {setrgbcolor} def /black {0 setgray} def /sd {setdash} def
/cl {closepath} def /sf {scalefont setfont} def /lw {setlinewidth} def
/box {m dup 0 exch d exch 0 d 0 exch neg d cl} def
/NC{systemdict begin initclip end}def/C{NC box clip newpath}def
/bl {box s} def /bf {box f} def /Y { 0 exch d} def /X { 0 d} def 
/K {{pop pop 0 moveto} exch kshow} bind def
/ita {/ang 15 def gsave [1 0 ang dup sin exch cos div 1 0 0] concat} def 
/mp {newpath /y exch def /x exch def} def
/side {[w .77 mul w .23 mul] .385 w mul sd w 0 l currentpoint t -144 r} def
/mr {mp x y w2 0 360 arc} def /m24 {mr s} def /m20 {mr f} def
/mb {mp x y w2 add m w2 neg 0 d 0 w neg d w 0 d 0 w d cl} def
/mt {mp x y w2 add m w2 neg w neg d w 0 d cl} def
/m21 {mb f} def /m25 {mb s} def /m22 {mt f} def /m26{mt s} def
/m23 {mp x y w2 sub m w2 w d w neg 0 d cl f} def
/m27 {mp x y w2 add m w3 neg w2 neg d w3 w2 neg d w3 w2 d cl s} def
/m28 {mp x w2 sub y w2 sub w3 add m w3 0 d  0 w3 neg d w3 0 d 0 w3 d w3 0 d  0 w3 d w3 neg 0 d 0 w3 d w3 neg 0 d 0 w3 neg d w3 neg 0 d cl s } def
/m29 {mp gsave x w2 sub y w2 add w3 sub m currentpoint t 4 {side} repeat cl fill gr} def
/m30 {mp gsave x w2 sub y w2 add w3 sub m currentpoint t 4 {side} repeat cl s gr} def
/m31 {mp x y w2 sub m 0 w d x w2 sub y m w 0 d x w2 sub y w2 add m w w neg d x w2 sub y w2 sub m w w d s} def
/m32 {mp x y w2 sub m w2 w d w neg 0 d cl s} def
/m33 {mp x y w2 add m w3 neg w2 neg d w3 w2 neg d w3 w2 d cl f} def
/m34 {mp x w2 sub y w2 sub w3 add m w3 0 d  0 w3 neg d w3 0 d 0 w3 d w3 0 d  0 w3 d w3 neg 0 d 0 w3 d w3 neg 0 d 0 w3 neg d w3 neg 0 d cl f } def
/m2 {mp x y w2 sub m 0 w d x w2 sub y m w 0 d s} def
/m5 {mp x w2 sub y w2 sub m w w d x w2 sub y w2 add m w w neg d s} def
/reEncode {exch findfont dup length dict begin {1 index /FID eq  {pop pop} {def} ifelse } forall /Encoding exch def currentdict end dup /FontName get exch definefont pop } def [/Times-Bold /Times-Italic /Times-BoldItalic /Helvetica /Helvetica-Oblique
 /Helvetica-Bold /Helvetica-BoldOblique /Courier /Courier-Oblique /Courier-Bold /Courier-BoldOblique /Times-Roman /AvantGarde-Book /AvantGarde-BookOblique /AvantGarde-Demi /AvantGarde-DemiOblique /Bookman-Demi /Bookman-DemiItalic /Bookman-Light
 /Bookman-LightItalic /Helvetica-Narrow /Helvetica-Narrow-Bold /Helvetica-Narrow-BoldOblique /Helvetica-Narrow-Oblique /NewCenturySchlbk-Roman /NewCenturySchlbk-Bold /NewCenturySchlbk-BoldItalic /NewCenturySchlbk-Italic /Palatino-Bold
 /Palatino-BoldItalic /Palatino-Italic /Palatino-Roman ] {ISOLatin1Encoding reEncode } forall%%EndProlog
%%BeginSetup
%%EndSetup
newpath  gsave  .25 .25 scale  gsave  0 0 t black[  ] 0 sd 3 lw 1 1 1 c 2268 1328 0 0 bf black 1 1 1 c 408 305 23 1009 bf black 1 1 1 c black 306 229 84 1055 bl 306 229 84 1055 bl 84 1055 m 306 X s 84 1059 m -4 Y s 188 1059 m -4 Y s 291 1059 m -4 Y s
 291 1059 m -4 Y s
 gsave  408 305 23 1009 C 74.0711 1034.15 t 0 r /Helvetica findfont 22.8295 sf 0 0 m (0) show NC gr 
 gsave  408 305 23 1009 C 165.236 1034.15 t 0 r /Helvetica findfont 22.8295 sf 0 0 m (500) show NC gr 
 gsave  408 305 23 1009 C 264.947 1034.15 t 0 r /Helvetica findfont 22.8295 sf 0 0 m (1000) show NC gr  84 1284 m 306 X s 84 1280 m 4 Y s 188 1280 m 4 Y s 291 1280 m 4 Y s 291 1280 m 4 Y s 84 1055 m 229 Y s 89 1073 m -5 X s 87 1079 m -3 X s 87 1086 m
 -3 X s 87 1093 m -3 X s 89 1099 m -5 X s 87 1106 m -3 X s 87 1112 m -3 X s 87 1119 m -3 X s 89 1126 m -5 X s 87 1132 m -3 X s 87 1139 m -3 X s 87 1145 m -3 X s 89 1152 m -5 X s 87 1159 m -3 X s 87 1165 m -3 X s 87 1172 m -3 X s 89 1178 m -5 X s 87
 1185 m -3 X s 87 1192 m -3 X s 87 1198 m -3 X s 89 1205 m -5 X s 87 1211 m -3 X s 87 1218 m -3 X s 87 1225 m -3 X s 89 1231 m -5 X s 87 1238 m -3 X s 87 1245 m -3 X s 87 1251 m -3 X s 89 1258 m -5 X s 89 1073 m -5 X s 87 1066 m -3 X s 87 1060 m -3 X
 s 89 1258 m -5 X s 87 1264 m -3 X s 87 1271 m -3 X s 87 1278 m -3 X s
 gsave  408 305 23 1009 C 14.2445 1065.48 t 0 r /Helvetica findfont 22.8295 sf 0 0 m (\2550.012) show NC gr 
 gsave  408 305 23 1009 C 31.3378 1091.12 t 0 r /Helvetica findfont 22.8295 sf 0 0 m (\2550.01) show NC gr 
 gsave  408 305 23 1009 C 14.2445 1119.61 t 0 r /Helvetica findfont 22.8295 sf 0 0 m (\2550.008) show NC gr 
 gsave  408 305 23 1009 C 14.2445 1145.25 t 0 r /Helvetica findfont 22.8295 sf 0 0 m (\2550.006) show NC gr 
 gsave  408 305 23 1009 C 14.2445 1170.89 t 0 r /Helvetica findfont 22.8295 sf 0 0 m (\2550.004) show NC gr 
 gsave  408 305 23 1009 C 14.2445 1196.53 t 0 r /Helvetica findfont 22.8295 sf 0 0 m (\2550.002) show NC gr 
 gsave  408 305 23 1009 C 65.5245 1225.02 t 0 r /Helvetica findfont 22.8295 sf 0 0 m (0) show NC gr 
 gsave  408 305 23 1009 C 22.7911 1250.66 t 0 r /Helvetica findfont 22.8295 sf 0 0 m (0.002) show NC gr  390 1055 m 229 Y s 385 1073 m 5 X s 387 1079 m 3 X s 387 1086 m 3 X s 387 1093 m 3 X s 385 1099 m 5 X s 387 1106 m 3 X s 387 1112 m 3 X s 387
 1119 m 3 X s 385 1126 m 5 X s 387 1132 m 3 X s 387 1139 m 3 X s 387 1145 m 3 X s 385 1152 m 5 X s 387 1159 m 3 X s 387 1165 m 3 X s 387 1172 m 3 X s 385 1178 m 5 X s 387 1185 m 3 X s 387 1192 m 3 X s 387 1198 m 3 X s 385 1205 m 5 X s 387 1211 m 3 X
 s 387 1218 m 3 X s 387 1225 m 3 X s 385 1231 m 5 X s 387 1238 m 3 X s 387 1245 m 3 X s 387 1251 m 3 X s 385 1258 m 5 X s 385 1073 m 5 X s 387 1066 m 3 X s 387 1060 m 3 X s 385 1258 m 5 X s 387 1264 m 3 X s 387 1271 m 3 X s 387 1278 m 3 X s /w 22 def
 /w2 {w 2 div} def /w3 {w 3 div} def 229 1252 277 1234 326 1209 374 1086 4 { m21} R 229 1264 m 1 Y s 223 1265 m 12 X s 229 1241 m -1 Y s 223 1240 m 12 X s 277 1246 m 1 Y s 272 1247 m 11 X s 277 1223 m -1 Y s 272 1222 m 11 X s 326 1220 m 1 Y s 320
 1221 m 11 X s 326 1197 m -1 Y s 320 1196 m 11 X s 374 1098 m s 368 1098 m 12 X s 374 1075 m -1 Y s 368 1074 m 12 X s 1 0 0 c 9 lw 0.95 0.95 0.95 c black 1 0 0 c 85 1231 m 25 X 3 -1 d 9 X 3 -1 d 9 X 3 -1 d 7 X 3 -1 d 3 X 3 -1 d 3 X 3 -1 d 3 X 3 -1 d
 3 X 3 -1 d 3 X 3 -1 d 3 -1 d 3 X 3 -1 d 4 -1 d 3 X 3 -1 d 3 -1 d 3 X 3 -1 d 3 -1 d 3 -1 d 3 -1 d 3 -1 d 3 X 3 -1 d 3 -1 d 3 -1 d 3 -1 d 3 -1 d s 235 1207 m 4 -1 d 3 -1 d 3 -1 d 3 -1 d 3 -1 d 3 -1 d 3 -1 d 3 -2 d 3 -1 d 3 -1 d 3 -1 d 3 -1 d 3 -2 d 3
 -1 d 3 -1 d 3 -1 d 3 -2 d 4 -1 d 3 -1 d 3 -2 d 3 -1 d 3 -2 d 3 -1 d 3 -1 d 3 -2 d 3 -1 d 3 -2 d 3 -1 d 3 -2 d 3 -2 d 3 -1 d 3 -2 d 3 -1 d 4 -2 d 3 -2 d 3 -1 d 3 -2 d 3 -2 d 3 -2 d 3 -1 d 3 -2 d 3 -2 d 3 -2 d 3 -2 d 3 -2 d 3 -1 d 3 -2 d 3 -2 d 3 -2 d
 s 385 1135 m 4 -2 d s 0.49 0.6 0.82 c black 0.49 0.6 0.82 c
 gsave  408 305 23 1009 C 142.445 1293.4 t 0 r /Helvetica-Bold findfont 25.6831 sf 0 0 m (0.0 < E < 0.5 GeV) show NC gr  0.52 0.76 0.64 c black 0.52 0.76 0.64 c
 gsave  408 305 23 1009 C 122.502 1256.36 t 0 r /Helvetica-Bold findfont 25.6831 sf 0 0 m 
 228 214 200 193 178 171 156 149 134 126 119 105 91 77 69 55 47 39 25 17
(A = \2550.000, p = 2.000) K NC gr  1 0.6 1 c black 1 0.6 1 c
 gsave  408 305 23 1009 C 427.334 1113.92 t 90 r /Helvetica-Bold findfont 28.5368 sf 0 0 m (/dof=18.2) show NC gr  black 1 0.6 1 c
 gsave  408 305 23 1009 C 415.938 1102.52 t 90 r /Helvetica-Bold findfont 19.9758 sf 0 0 m (2) show NC gr  black 1 0.6 1 c
 gsave  408 305 23 1009 C 427.334 1085.43 t 90 r /Symbol findfont 28.5368 sf 0 0 m (c) show NC gr  black 3 lw 1 1 1 c 408 305 476 1009 bf black 1 1 1 c black 307 229 537 1055 bl 307 229 537 1055 bl 537 1055 m 307 X s 537 1059 m -4 Y s 641 1059 m -4 Y
 s 745 1059 m -4 Y s 745 1059 m -4 Y s
 gsave  408 305 476 1009 C 527.045 1034.15 t 0 r /Helvetica findfont 22.8295 sf 0 0 m (0) show NC gr 
 gsave  408 305 476 1009 C 621.058 1034.15 t 0 r /Helvetica findfont 22.8295 sf 0 0 m (500) show NC gr 
 gsave  408 305 476 1009 C 717.92 1034.15 t 0 r /Helvetica findfont 22.8295 sf 0 0 m (1000) show NC gr  537 1284 m 307 X s 537 1280 m 4 Y s 641 1280 m 4 Y s 745 1280 m 4 Y s 745 1280 m 4 Y s 537 1055 m 229 Y s 543 1069 m -6 X s 540 1074 m -3 X s 540
 1079 m -3 X s 540 1084 m -3 X s 540 1088 m -3 X s 543 1093 m -6 X s 540 1098 m -3 X s 540 1103 m -3 X s 540 1107 m -3 X s 540 1112 m -3 X s 543 1117 m -6 X s 540 1122 m -3 X s 540 1126 m -3 X s 540 1131 m -3 X s 540 1136 m -3 X s 543 1141 m -6 X s
 540 1145 m -3 X s 540 1150 m -3 X s 540 1155 m -3 X s 540 1160 m -3 X s 543 1164 m -6 X s 540 1169 m -3 X s 540 1174 m -3 X s 540 1179 m -3 X s 540 1183 m -3 X s 543 1188 m -6 X s 540 1193 m -3 X s 540 1197 m -3 X s 540 1202 m -3 X s 540 1207 m -3 X
 s 543 1212 m -6 X s 540 1216 m -3 X s 540 1221 m -3 X s 540 1226 m -3 X s 540 1231 m -3 X s 543 1235 m -6 X s 540 1240 m -3 X s 540 1245 m -3 X s 540 1250 m -3 X s 540 1254 m -3 X s 543 1259 m -6 X s 540 1264 m -3 X s 540 1269 m -3 X s 540 1273 m -3
 X s 540 1278 m -3 X s 543 1283 m -6 X s 543 1069 m -6 X s 540 1065 m -3 X s 540 1060 m -3 X s 540 1055 m -3 X s 543 1283 m -6 X s
 gsave  408 305 476 1009 C 481.462 1062.64 t 0 r /Helvetica findfont 22.8295 sf 0 0 m (\2550.04) show NC gr 
 gsave  408 305 476 1009 C 467.218 1085.43 t 0 r /Helvetica findfont 22.8295 sf 0 0 m (\2550.035) show NC gr 
 gsave  408 305 476 1009 C 481.462 1111.07 t 0 r /Helvetica findfont 22.8295 sf 0 0 m (\2550.03) show NC gr 
 gsave  408 305 476 1009 C 467.218 1133.86 t 0 r /Helvetica findfont 22.8295 sf 0 0 m (\2550.025) show NC gr 
 gsave  408 305 476 1009 C 481.462 1156.65 t 0 r /Helvetica findfont 22.8295 sf 0 0 m (\2550.02) show NC gr 
 gsave  408 305 476 1009 C 467.218 1182.29 t 0 r /Helvetica findfont 22.8295 sf 0 0 m (\2550.015) show NC gr 
 gsave  408 305 476 1009 C 484.311 1205.08 t 0 r /Helvetica findfont 22.8295 sf 0 0 m (\2550.01) show NC gr 
 gsave  408 305 476 1009 C 467.218 1227.87 t 0 r /Helvetica findfont 22.8295 sf 0 0 m (\2550.005) show NC gr 
 gsave  408 305 476 1009 C 518.498 1250.66 t 0 r /Helvetica findfont 22.8295 sf 0 0 m (0) show NC gr 
 gsave  408 305 476 1009 C 475.765 1276.3 t 0 r /Helvetica findfont 22.8295 sf 0 0 m (0.005) show NC gr  844 1055 m 229 Y s 838 1069 m 6 X s 841 1074 m 3 X s 841 1079 m 3 X s 841 1084 m 3 X s 841 1088 m 3 X s 838 1093 m 6 X s 841 1098 m 3 X s 841
 1103 m 3 X s 841 1107 m 3 X s 841 1112 m 3 X s 838 1117 m 6 X s 841 1122 m 3 X s 841 1126 m 3 X s 841 1131 m 3 X s 841 1136 m 3 X s 838 1141 m 6 X s 841 1145 m 3 X s 841 1150 m 3 X s 841 1155 m 3 X s 841 1160 m 3 X s 838 1164 m 6 X s 841 1169 m 3 X
 s 841 1174 m 3 X s 841 1179 m 3 X s 841 1183 m 3 X s 838 1188 m 6 X s 841 1193 m 3 X s 841 1197 m 3 X s 841 1202 m 3 X s 841 1207 m 3 X s 838 1212 m 6 X s 841 1216 m 3 X s 841 1221 m 3 X s 841 1226 m 3 X s 841 1231 m 3 X s 838 1235 m 6 X s 841 1240
 m 3 X s 841 1245 m 3 X s 841 1250 m 3 X s 841 1254 m 3 X s 838 1259 m 6 X s 841 1264 m 3 X s 841 1269 m 3 X s 841 1273 m 3 X s 841 1278 m 3 X s 838 1283 m 6 X s 838 1069 m 6 X s 841 1065 m 3 X s 841 1060 m 3 X s 841 1055 m 3 X s 838 1283 m 6 X s /w
 23 def /w2 {w 2 div} def /w3 {w 3 div} def 683 1257 731 1259 779 1213 828 1079 4 { m21} R 1 0 0 c 9 lw 0.95 0.95 0.95 c black 1 0 0 c 539 1259 m 18 X 3 -1 d 10 X 3 -1 d 6 X 3 -1 d 3 X 3 -1 d 3 X 3 -1 d 3 X 3 -1 d 3 X 3 -1 d 3 X 3 -1 d 4 -1 d 3 X 3
 -1 d 3 -1 d 3 -1 d 3 -1 d 3 X 3 -1 d 3 -1 d 3 -1 d 3 -1 d 3 -1 d 3 -1 d 3 -1 d 3 -1 d 3 -1 d 3 -2 d 4 -1 d 3 -1 d 3 -1 d 3 -1 d 3 -2 d 3 -1 d 3 -1 d 3 -2 d s 689 1225 m 3 -1 d 3 -1 d 3 -2 d 3 -1 d 3 -2 d 3 -1 d 3 -2 d 3 -1 d 4 -2 d 3 -2 d 3 -1 d 3
 -2 d 3 -2 d 3 -1 d 3 -2 d 3 -2 d 3 -2 d 3 -2 d 3 -1 d 3 -2 d 3 -2 d 3 -2 d 3 -2 d 3 -2 d 4 -2 d 3 -2 d 3 -2 d 3 -2 d 3 -3 d 3 -2 d 3 -2 d 3 -2 d 3 -3 d 3 -2 d 3 -2 d 3 -2 d 3 -3 d 3 -2 d 3 -3 d 3 -2 d 4 -3 d 3 -2 d 3 -3 d 3 -2 d 3 -3 d 3 -2 d 3 -3 d
 3 -3 d 3 -2 d s 839 1126 m 3 -3 d s 0.49 0.6 0.82 c black 0.49 0.6 0.82 c
 gsave  408 305 476 1009 C 595.418 1293.4 t 0 r /Helvetica-Bold findfont 25.6831 sf 0 0 m (0.5 < E < 1.0 GeV) show NC gr  0.52 0.76 0.64 c black 0.52 0.76 0.64 c
 gsave  408 305 476 1009 C 575.476 1256.36 t 0 r /Helvetica-Bold findfont 25.6831 sf 0 0 m 
 228 214 200 193 178 171 156 149 133 126 119 105 91 76 69 55 47 39 25 17
(A = \2550.000, p = 2.000) K NC gr  1 0.6 1 c black 1 0.6 1 c
 gsave  408 305 476 1009 C 883.156 1113.92 t 90 r /Helvetica-Bold findfont 28.5368 sf 0 0 m (/dof=99.5) show NC gr  black 1 0.6 1 c
 gsave  408 305 476 1009 C 871.76 1102.52 t 90 r /Helvetica-Bold findfont 19.9758 sf 0 0 m (2) show NC gr  black 1 0.6 1 c
 gsave  408 305 476 1009 C 883.156 1085.43 t 90 r /Symbol findfont 28.5368 sf 0 0 m (c) show NC gr  black 3 lw 1 1 1 c 408 305 930 1009 bf black 1 1 1 c black 306 229 991 1055 bl 306 229 991 1055 bl 991 1055 m 306 X s 991 1059 m -4 Y s 1095 1059 m -4
 Y s 1198 1059 m -4 Y s 1198 1059 m -4 Y s
 gsave  408 305 930 1009 C 980.018 1034.15 t 0 r /Helvetica findfont 22.8295 sf 0 0 m (0) show NC gr 
 gsave  408 305 930 1009 C 1074.03 1034.15 t 0 r /Helvetica findfont 22.8295 sf 0 0 m (500) show NC gr 
 gsave  408 305 930 1009 C 1170.89 1034.15 t 0 r /Helvetica findfont 22.8295 sf 0 0 m (1000) show NC gr  991 1284 m 306 X s 991 1280 m 4 Y s 1095 1280 m 4 Y s 1198 1280 m 4 Y s 1198 1280 m 4 Y s 991 1055 m 229 Y s 997 1066 m -6 X s 994 1071 m -3 X s
 994 1075 m -3 X s 994 1080 m -3 X s 994 1085 m -3 X s 997 1089 m -6 X s 994 1094 m -3 X s 994 1099 m -3 X s 994 1104 m -3 X s 994 1108 m -3 X s 997 1113 m -6 X s 994 1118 m -3 X s 994 1122 m -3 X s 994 1127 m -3 X s 994 1132 m -3 X s 997 1136 m -6 X
 s 994 1141 m -3 X s 994 1146 m -3 X s 994 1150 m -3 X s 994 1155 m -3 X s 997 1160 m -6 X s 994 1164 m -3 X s 994 1169 m -3 X s 994 1174 m -3 X s 994 1178 m -3 X s 997 1183 m -6 X s 994 1188 m -3 X s 994 1192 m -3 X s 994 1197 m -3 X s 994 1202 m -3
 X s 997 1207 m -6 X s 994 1211 m -3 X s 994 1216 m -3 X s 994 1221 m -3 X s 994 1225 m -3 X s 997 1230 m -6 X s 994 1235 m -3 X s 994 1239 m -3 X s 994 1244 m -3 X s 994 1249 m -3 X s 997 1253 m -6 X s 994 1258 m -3 X s 994 1263 m -3 X s 994 1267 m
 -3 X s 994 1272 m -3 X s 997 1277 m -6 X s 997 1066 m -6 X s 994 1061 m -3 X s 994 1057 m -3 X s 997 1277 m -6 X s 994 1281 m -3 X s
 gsave  408 305 930 1009 C 937.285 1059.79 t 0 r /Helvetica findfont 22.8295 sf 0 0 m (\2550.04) show NC gr 
 gsave  408 305 930 1009 C 923.04 1082.58 t 0 r /Helvetica findfont 22.8295 sf 0 0 m (\2550.035) show NC gr 
 gsave  408 305 930 1009 C 937.285 1105.37 t 0 r /Helvetica findfont 22.8295 sf 0 0 m (\2550.03) show NC gr 
 gsave  408 305 930 1009 C 923.04 1128.16 t 0 r /Helvetica findfont 22.8295 sf 0 0 m (\2550.025) show NC gr 
 gsave  408 305 930 1009 C 937.285 1153.8 t 0 r /Helvetica findfont 22.8295 sf 0 0 m (\2550.02) show NC gr 
 gsave  408 305 930 1009 C 923.04 1176.59 t 0 r /Helvetica findfont 22.8295 sf 0 0 m (\2550.015) show NC gr 
 gsave  408 305 930 1009 C 940.134 1199.38 t 0 r /Helvetica findfont 22.8295 sf 0 0 m (\2550.01) show NC gr 
 gsave  408 305 930 1009 C 923.04 1222.17 t 0 r /Helvetica findfont 22.8295 sf 0 0 m (\2550.005) show NC gr 
 gsave  408 305 930 1009 C 974.32 1244.96 t 0 r /Helvetica findfont 22.8295 sf 0 0 m (0) show NC gr 
 gsave  408 305 930 1009 C 931.587 1270.6 t 0 r /Helvetica findfont 22.8295 sf 0 0 m (0.005) show NC gr  1297 1055 m 229 Y s 1292 1066 m 5 X s 1294 1071 m 3 X s 1294 1075 m 3 X s 1294 1080 m 3 X s 1294 1085 m 3 X s 1292 1089 m 5 X s 1294 1094 m 3 X s
 1294 1099 m 3 X s 1294 1104 m 3 X s 1294 1108 m 3 X s 1292 1113 m 5 X s 1294 1118 m 3 X s 1294 1122 m 3 X s 1294 1127 m 3 X s 1294 1132 m 3 X s 1292 1136 m 5 X s 1294 1141 m 3 X s 1294 1146 m 3 X s 1294 1150 m 3 X s 1294 1155 m 3 X s 1292 1160 m 5 X
 s 1294 1164 m 3 X s 1294 1169 m 3 X s 1294 1174 m 3 X s 1294 1178 m 3 X s 1292 1183 m 5 X s 1294 1188 m 3 X s 1294 1192 m 3 X s 1294 1197 m 3 X s 1294 1202 m 3 X s 1292 1207 m 5 X s 1294 1211 m 3 X s 1294 1216 m 3 X s 1294 1221 m 3 X s 1294 1225 m 3
 X s 1292 1230 m 5 X s 1294 1235 m 3 X s 1294 1239 m 3 X s 1294 1244 m 3 X s 1294 1249 m 3 X s 1292 1253 m 5 X s 1294 1258 m 3 X s 1294 1263 m 3 X s 1294 1267 m 3 X s 1294 1272 m 3 X s 1292 1277 m 5 X s 1292 1066 m 5 X s 1294 1061 m 3 X s 1294 1057 m
 3 X s 1292 1277 m 5 X s 1294 1281 m 3 X s 1136 1259 1184 1248 1233 1202 1281 1079 4 { m21} R 1 0 0 c 9 lw 0.95 0.95 0.95 c black 1 0 0 c 993 1253 m 21 X 3 -1 d 9 X 3 -1 d 6 X 3 -1 d 4 X 3 -1 d 3 X 3 -1 d 3 X 3 -1 d 3 -1 d 3 X 3 -1 d 3 X 3 -1 d 3 -1
 d 3 -1 d 3 X 3 -1 d 3 -1 d 3 -1 d 4 -1 d 3 -1 d 3 -1 d 3 -1 d 3 -1 d 3 -1 d 3 -1 d 3 -1 d 3 -1 d 3 -1 d 3 -1 d 3 -2 d 3 -1 d 3 -1 d 3 -1 d 3 -2 d 4 -1 d s 1143 1220 m 3 -1 d 3 -2 d 3 -1 d 3 -2 d 3 -1 d 3 -2 d 3 -1 d 3 -2 d 3 -1 d 3 -2 d 3 -2 d 3 -1
 d 3 -2 d 3 -2 d 3 -1 d 4 -2 d 3 -2 d 3 -2 d 3 -2 d 3 -1 d 3 -2 d 3 -2 d 3 -2 d 3 -2 d 3 -2 d 3 -2 d 3 -2 d 3 -2 d 3 -3 d 3 -2 d 3 -2 d 3 -2 d 4 -2 d 3 -3 d 3 -2 d 3 -2 d 3 -3 d 3 -2 d 3 -2 d 3 -3 d 3 -2 d 3 -3 d 3 -2 d 3 -3 d 3 -2 d 3 -3 d 3 -3 d 3
 -2 d 4 -3 d s 1293 1121 m 3 -3 d s 0.49 0.6 0.82 c black 0.49 0.6 0.82 c
 gsave  408 305 930 1009 C 1051.24 1293.4 t 0 r /Helvetica-Bold findfont 25.6831 sf 0 0 m (1.0 < E < 1.5 GeV) show NC gr  0.52 0.76 0.64 c black 0.52 0.76 0.64 c
 gsave  408 305 930 1009 C 1031.3 1256.36 t 0 r /Helvetica-Bold findfont 25.6831 sf 0 0 m 
 228 214 200 193 178 171 156 149 133 126 119 105 91 77 69 55 47 39 25 17
(A = \2550.000, p = 2.000) K NC gr  1 0.6 1 c black 1 0.6 1 c
 gsave  408 305 930 1009 C 1336.13 1113.92 t 90 r /Helvetica-Bold findfont 28.5368 sf 0 0 m (/dof=88.6) show NC gr  black 1 0.6 1 c
 gsave  408 305 930 1009 C 1324.73 1102.52 t 90 r /Helvetica-Bold findfont 19.9758 sf 0 0 m (2) show NC gr  black 1 0.6 1 c
 gsave  408 305 930 1009 C 1336.13 1085.43 t 90 r /Symbol findfont 28.5368 sf 0 0 m (c) show NC gr  black 3 lw 1 1 1 c 408 305 1383 1009 bf black 1 1 1 c black 306 229 1445 1055 bl 306 229 1445 1055 bl 1445 1055 m 306 X s 1445 1059 m -4 Y s 1548 1059
 m -4 Y s 1652 1059 m -4 Y s 1652 1059 m -4 Y s
 gsave  408 305 1383 1009 C 1435.84 1034.15 t 0 r /Helvetica findfont 22.8295 sf 0 0 m (0) show NC gr 
 gsave  408 305 1383 1009 C 1527.01 1034.15 t 0 r /Helvetica findfont 22.8295 sf 0 0 m (500) show NC gr 
 gsave  408 305 1383 1009 C 1623.87 1034.15 t 0 r /Helvetica findfont 22.8295 sf 0 0 m (1000) show NC gr  1445 1284 m 306 X s 1445 1280 m 4 Y s 1548 1280 m 4 Y s 1652 1280 m 4 Y s 1652 1280 m 4 Y s 1445 1055 m 229 Y s 1450 1075 m -5 X s 1447 1084 m
 -2 X s 1447 1093 m -2 X s 1447 1102 m -2 X s 1447 1111 m -2 X s 1450 1120 m -5 X s 1447 1129 m -2 X s 1447 1138 m -2 X s 1447 1148 m -2 X s 1447 1157 m -2 X s 1450 1166 m -5 X s 1447 1175 m -2 X s 1447 1184 m -2 X s 1447 1193 m -2 X s 1447 1202 m -2
 X s 1450 1211 m -5 X s 1447 1220 m -2 X s 1447 1229 m -2 X s 1447 1238 m -2 X s 1447 1247 m -2 X s 1450 1256 m -5 X s 1450 1075 m -5 X s 1447 1066 m -2 X s 1447 1057 m -2 X s 1450 1256 m -5 X s 1447 1265 m -2 X s 1447 1274 m -2 X s 1447 1283 m -2 X
 s
 gsave  408 305 1383 1009 C 1390.26 1068.33 t 0 r /Helvetica findfont 22.8295 sf 0 0 m (\2550.04) show NC gr 
 gsave  408 305 1383 1009 C 1390.26 1113.92 t 0 r /Helvetica findfont 22.8295 sf 0 0 m (\2550.03) show NC gr 
 gsave  408 305 1383 1009 C 1390.26 1159.5 t 0 r /Helvetica findfont 22.8295 sf 0 0 m (\2550.02) show NC gr 
 gsave  408 305 1383 1009 C 1393.11 1202.23 t 0 r /Helvetica findfont 22.8295 sf 0 0 m (\2550.01) show NC gr 
 gsave  408 305 1383 1009 C 1427.29 1247.81 t 0 r /Helvetica findfont 22.8295 sf 0 0 m (0) show NC gr  1751 1055 m 229 Y s 1745 1075 m 6 X s 1748 1084 m 3 X s 1748 1093 m 3 X s 1748 1102 m 3 X s 1748 1111 m 3 X s 1745 1120 m 6 X s 1748 1129 m 3 X s
 1748 1138 m 3 X s 1748 1148 m 3 X s 1748 1157 m 3 X s 1745 1166 m 6 X s 1748 1175 m 3 X s 1748 1184 m 3 X s 1748 1193 m 3 X s 1748 1202 m 3 X s 1745 1211 m 6 X s 1748 1220 m 3 X s 1748 1229 m 3 X s 1748 1238 m 3 X s 1748 1247 m 3 X s 1745 1256 m 6 X
 s 1745 1075 m 6 X s 1748 1066 m 3 X s 1748 1057 m 3 X s 1745 1256 m 6 X s 1748 1265 m 3 X s 1748 1274 m 3 X s 1748 1283 m 3 X s 1590 1259 1638 1249 1686 1201 1735 1079 4 { m21} R 1 0 0 c 9 lw 0.95 0.95 0.95 c black 1 0 0 c 1446 1256 m 6 X 3 -1 d 16
 X 3 -1 d 6 X 3 -1 d 6 X 3 -1 d 3 X 3 -1 d 3 X 3 -1 d 3 X 3 -1 d 3 X 3 -1 d 4 -1 d 3 X 3 -1 d 3 -1 d 3 -1 d 3 -1 d 3 X 3 -1 d 3 -1 d 3 -1 d 3 -1 d 3 -1 d 3 -1 d 3 -1 d 3 -1 d 3 -1 d 4 -1 d 3 -1 d 3 -2 d 3 -1 d 3 -1 d 3 -1 d 3 -2 d 3 -1 d 3 -1 d 3 -2
 d s 1596 1221 m 3 -1 d 3 -1 d 3 -2 d 3 -1 d 3 -2 d 3 -1 d 4 -2 d 3 -2 d 3 -1 d 3 -2 d 3 -2 d 3 -1 d 3 -2 d 3 -2 d 3 -2 d 3 -1 d 3 -2 d 3 -2 d 3 -2 d 3 -2 d 3 -2 d 3 -2 d 3 -2 d 4 -2 d 3 -2 d 3 -2 d 3 -2 d 3 -2 d 3 -2 d 3 -3 d 3 -2 d 3 -2 d 3 -2 d 3
 -3 d 3 -2 d 3 -3 d 3 -2 d 3 -2 d 3 -3 d 4 -2 d 3 -3 d 3 -2 d 3 -3 d 3 -3 d 3 -2 d 3 -3 d 3 -3 d 3 -2 d 3 -3 d s 1746 1120 m 3 -3 d s 0.49 0.6 0.82 c black 0.49 0.6 0.82 c
 gsave  408 305 1383 1009 C 1504.21 1293.4 t 0 r /Helvetica-Bold findfont 25.6831 sf 0 0 m (1.5 < E < 2.0 GeV) show NC gr  0.52 0.76 0.64 c black 0.52 0.76 0.64 c
 gsave  408 305 1383 1009 C 1484.27 1256.36 t 0 r /Helvetica-Bold findfont 25.6831 sf 0 0 m 
 228 214 200 193 178 171 156 149 134 126 119 105 91 77 69 55 47 40 25 17
(A = \2550.000, p = 2.000) K NC gr  1 0.6 1 c black 1 0.6 1 c
 gsave  408 305 1383 1009 C 1789.1 1113.92 t 90 r /Helvetica-Bold findfont 28.5368 sf 0 0 m (/dof=88.7) show NC gr  black 1 0.6 1 c
 gsave  408 305 1383 1009 C 1777.71 1102.52 t 90 r /Helvetica-Bold findfont 19.9758 sf 0 0 m (2) show NC gr  black 1 0.6 1 c
 gsave  408 305 1383 1009 C 1789.1 1085.43 t 90 r /Symbol findfont 28.5368 sf 0 0 m (c) show NC gr  black 3 lw 1 1 1 c 408 305 1837 1009 bf black 1 1 1 c black 306 229 1898 1055 bl 306 229 1898 1055 bl 1898 1055 m 306 X s 1898 1059 m -4 Y s 2002 1059
 m -4 Y s 2105 1059 m -4 Y s 2105 1059 m -4 Y s
 gsave  408 305 1837 1009 C 1888.81 1034.15 t 0 r /Helvetica findfont 22.8295 sf 0 0 m (0) show NC gr 
 gsave  408 305 1837 1009 C 1979.98 1034.15 t 0 r /Helvetica findfont 22.8295 sf 0 0 m (500) show NC gr 
 gsave  408 305 1837 1009 C 2079.69 1034.15 t 0 r /Helvetica findfont 22.8295 sf 0 0 m (1000) show NC gr  1898 1284 m 306 X s 1898 1280 m 4 Y s 2002 1280 m 4 Y s 2105 1280 m 4 Y s 2105 1280 m 4 Y s 1898 1055 m 229 Y s 1904 1084 m -6 X s 1901 1093 m
 -3 X s 1901 1102 m -3 X s 1901 1111 m -3 X s 1901 1119 m -3 X s 1904 1128 m -6 X s 1901 1137 m -3 X s 1901 1146 m -3 X s 1901 1155 m -3 X s 1901 1164 m -3 X s 1904 1173 m -6 X s 1901 1182 m -3 X s 1901 1191 m -3 X s 1901 1200 m -3 X s 1901 1209 m -3
 X s 1904 1217 m -6 X s 1901 1226 m -3 X s 1901 1235 m -3 X s 1901 1244 m -3 X s 1901 1253 m -3 X s 1904 1262 m -6 X s 1904 1084 m -6 X s 1901 1075 m -3 X s 1901 1066 m -3 X s 1901 1057 m -3 X s 1904 1262 m -6 X s 1901 1271 m -3 X s 1901 1280 m -3 X
 s
 gsave  408 305 1837 1009 C 1843.23 1076.88 t 0 r /Helvetica findfont 22.8295 sf 0 0 m (\2550.04) show NC gr 
 gsave  408 305 1837 1009 C 1843.23 1122.46 t 0 r /Helvetica findfont 22.8295 sf 0 0 m (\2550.03) show NC gr 
 gsave  408 305 1837 1009 C 1843.23 1165.2 t 0 r /Helvetica findfont 22.8295 sf 0 0 m (\2550.02) show NC gr 
 gsave  408 305 1837 1009 C 1846.08 1210.78 t 0 r /Helvetica findfont 22.8295 sf 0 0 m (\2550.01) show NC gr 
 gsave  408 305 1837 1009 C 1880.27 1253.51 t 0 r /Helvetica findfont 22.8295 sf 0 0 m (0) show NC gr  2204 1055 m 229 Y s 2199 1084 m 5 X s 2201 1093 m 3 X s 2201 1102 m 3 X s 2201 1111 m 3 X s 2201 1119 m 3 X s 2199 1128 m 5 X s 2201 1137 m 3 X s
 2201 1146 m 3 X s 2201 1155 m 3 X s 2201 1164 m 3 X s 2199 1173 m 5 X s 2201 1182 m 3 X s 2201 1191 m 3 X s 2201 1200 m 3 X s 2201 1209 m 3 X s 2199 1217 m 5 X s 2201 1226 m 3 X s 2201 1235 m 3 X s 2201 1244 m 3 X s 2201 1253 m 3 X s 2199 1262 m 5 X
 s 2199 1084 m 5 X s 2201 1075 m 3 X s 2201 1066 m 3 X s 2201 1057 m 3 X s 2199 1262 m 5 X s 2201 1271 m 3 X s 2201 1280 m 3 X s 2043 1259 2091 1257 2140 1211 2188 1079 4 { m21} R 1 0 0 c 9 lw 0.95 0.95 0.95 c black 1 0 0 c 1900 1262 m 12 X 3 -1 d 12
 X 3 -1 d 6 X 3 -1 d 3 X 4 -1 d 6 X 3 -1 d 3 -1 d 3 X 3 -1 d 3 X 3 -1 d 3 -1 d 3 X 3 -1 d 3 -1 d 3 -1 d 3 -1 d 3 X 4 -1 d 3 -1 d 3 -1 d 3 -1 d 3 -1 d 3 -1 d 3 -1 d 3 -1 d 3 -1 d 3 -2 d 3 -1 d 3 -1 d 3 -1 d 3 -1 d 3 -2 d 3 -1 d 3 -1 d 4 -2 d 3 -1 d s
 2050 1227 m 3 -2 d 3 -1 d 3 -2 d 3 -1 d 3 -2 d 3 -1 d 3 -2 d 3 -1 d 3 -2 d 3 -2 d 3 -1 d 3 -2 d 3 -2 d 3 -2 d 4 -2 d 3 -1 d 3 -2 d 3 -2 d 3 -2 d 3 -2 d 3 -2 d 3 -2 d 3 -2 d 3 -2 d 3 -2 d 3 -3 d 3 -2 d 3 -2 d 3 -2 d 3 -2 d 4 -3 d 3 -2 d 3 -2 d 3 -3 d
 3 -2 d 3 -3 d 3 -2 d 3 -3 d 3 -2 d 3 -3 d 3 -2 d 3 -3 d 3 -2 d 3 -3 d 3 -3 d 3 -3 d 4 -2 d 3 -3 d 3 -3 d s 2200 1123 m 3 -3 d s 0.49 0.6 0.82 c black 0.49 0.6 0.82 c
 gsave  408 305 1837 1009 C 1957.19 1293.4 t 0 r /Helvetica-Bold findfont 25.6831 sf 0 0 m (2.0 < E < 2.5 GeV) show NC gr  0.52 0.76 0.64 c black 0.52 0.76 0.64 c
 gsave  408 305 1837 1009 C 1937.25 1256.36 t 0 r /Helvetica-Bold findfont 25.6831 sf 0 0 m 
 228 214 200 193 178 171 156 149 133 126 119 105 91 77 69 55 47 39 25 17
(A = \2550.000, p = 2.000) K NC gr  1 0.6 1 c black 1 0.6 1 c
 gsave  408 305 1837 1009 C 2242.08 1113.92 t 90 r /Helvetica-Bold findfont 28.5368 sf 0 0 m (/dof=94.2) show NC gr  black 1 0.6 1 c
 gsave  408 305 1837 1009 C 2230.68 1102.52 t 90 r /Helvetica-Bold findfont 19.9758 sf 0 0 m (2) show NC gr  black 1 0.6 1 c
 gsave  408 305 1837 1009 C 2242.08 1085.43 t 90 r /Symbol findfont 28.5368 sf 0 0 m (c) show NC gr  black 3 lw 1 1 1 c 408 305 23 677 bf black 1 1 1 c black 306 229 84 723 bl 306 229 84 723 bl 84 723 m 306 X s 84 727 m -4 Y s 188 727 m -4 Y s 291
 727 m -4 Y s 291 727 m -4 Y s
 gsave  408 305 23 677 C 74.0711 703.676 t 0 r /Helvetica findfont 22.8295 sf 0 0 m (0) show NC gr 
 gsave  408 305 23 677 C 165.236 703.676 t 0 r /Helvetica findfont 22.8295 sf 0 0 m (500) show NC gr 
 gsave  408 305 23 677 C 264.947 703.676 t 0 r /Helvetica findfont 22.8295 sf 0 0 m (1000) show NC gr  84 952 m 306 X s 84 948 m 4 Y s 188 948 m 4 Y s 291 948 m 4 Y s 291 948 m 4 Y s 84 723 m 229 Y s 89 744 m -5 X s 87 748 m -3 X s 87 753 m -3 X s 87
 757 m -3 X s 87 762 m -3 X s 89 767 m -5 X s 87 771 m -3 X s 87 776 m -3 X s 87 780 m -3 X s 87 785 m -3 X s 89 790 m -5 X s 87 794 m -3 X s 87 799 m -3 X s 87 804 m -3 X s 87 808 m -3 X s 89 813 m -5 X s 87 817 m -3 X s 87 822 m -3 X s 87 827 m -3
 X s 87 831 m -3 X s 89 836 m -5 X s 87 840 m -3 X s 87 845 m -3 X s 87 850 m -3 X s 87 854 m -3 X s 89 859 m -5 X s 87 863 m -3 X s 87 868 m -3 X s 87 873 m -3 X s 87 877 m -3 X s 89 882 m -5 X s 87 887 m -3 X s 87 891 m -3 X s 87 896 m -3 X s 87
 900 m -3 X s 89 905 m -5 X s 87 910 m -3 X s 87 914 m -3 X s 87 919 m -3 X s 87 923 m -3 X s 89 928 m -5 X s 87 933 m -3 X s 87 937 m -3 X s 87 942 m -3 X s 87 946 m -3 X s 89 951 m -5 X s 89 744 m -5 X s 87 739 m -3 X s 87 734 m -3 X s 87 730 m -3
 X s 87 725 m -3 X s 89 951 m -5 X s
 gsave  408 305 23 677 C 28.4889 737.863 t 0 r /Helvetica findfont 22.8295 sf 0 0 m (\2550.04) show NC gr 
 gsave  408 305 23 677 C 14.2445 760.654 t 0 r /Helvetica findfont 22.8295 sf 0 0 m (\2550.035) show NC gr 
 gsave  408 305 23 677 C 28.4889 783.445 t 0 r /Helvetica findfont 22.8295 sf 0 0 m (\2550.03) show NC gr 
 gsave  408 305 23 677 C 14.2445 806.236 t 0 r /Helvetica findfont 22.8295 sf 0 0 m (\2550.025) show NC gr 
 gsave  408 305 23 677 C 28.4889 829.027 t 0 r /Helvetica findfont 22.8295 sf 0 0 m (\2550.02) show NC gr 
 gsave  408 305 23 677 C 14.2445 851.818 t 0 r /Helvetica findfont 22.8295 sf 0 0 m (\2550.015) show NC gr 
 gsave  408 305 23 677 C 31.3378 874.609 t 0 r /Helvetica findfont 22.8295 sf 0 0 m (\2550.01) show NC gr 
 gsave  408 305 23 677 C 14.2445 897.4 t 0 r /Helvetica findfont 22.8295 sf 0 0 m (\2550.005) show NC gr 
 gsave  408 305 23 677 C 65.5245 920.192 t 0 r /Helvetica findfont 22.8295 sf 0 0 m (0) show NC gr 
 gsave  408 305 23 677 C 22.7911 942.983 t 0 r /Helvetica findfont 22.8295 sf 0 0 m (0.005) show NC gr  390 723 m 229 Y s 385 744 m 5 X s 387 748 m 3 X s 387 753 m 3 X s 387 757 m 3 X s 387 762 m 3 X s 385 767 m 5 X s 387 771 m 3 X s 387 776 m 3 X s
 387 780 m 3 X s 387 785 m 3 X s 385 790 m 5 X s 387 794 m 3 X s 387 799 m 3 X s 387 804 m 3 X s 387 808 m 3 X s 385 813 m 5 X s 387 817 m 3 X s 387 822 m 3 X s 387 827 m 3 X s 387 831 m 3 X s 385 836 m 5 X s 387 840 m 3 X s 387 845 m 3 X s 387 850 m
 3 X s 387 854 m 3 X s 385 859 m 5 X s 387 863 m 3 X s 387 868 m 3 X s 387 873 m 3 X s 387 877 m 3 X s 385 882 m 5 X s 387 887 m 3 X s 387 891 m 3 X s 387 896 m 3 X s 387 900 m 3 X s 385 905 m 5 X s 387 910 m 3 X s 387 914 m 3 X s 387 919 m 3 X s 387
 923 m 3 X s 385 928 m 5 X s 387 933 m 3 X s 387 937 m 3 X s 387 942 m 3 X s 387 946 m 3 X s 385 951 m 5 X s 385 744 m 5 X s 387 739 m 3 X s 387 734 m 3 X s 387 730 m 3 X s 387 725 m 3 X s 385 951 m 5 X s /w 22 def /w2 {w 2 div} def /w3 {w 3 div} def
 229 927 277 924 326 875 374 748 4 { m21} R 1 0 0 c 9 lw 0.95 0.95 0.95 c black 1 0 0 c 85 928 m 16 X 3 -1 d 9 X 3 -1 d 6 X 3 -1 d 6 X 3 -1 d 3 X 4 -1 d 3 X 3 -1 d 3 -1 d 3 X 3 -1 d 3 -1 d 3 X 3 -1 d 3 -1 d 3 -1 d 3 X 3 -1 d 3 -1 d 3 -1 d 3 -1 d 4 -1
 d 3 -1 d 3 -1 d 3 -1 d 3 -1 d 3 -1 d 3 -1 d 3 -1 d 3 -2 d 3 -1 d 3 -1 d 3 -1 d 3 -2 d 3 -1 d 3 -1 d 3 -2 d s 235 893 m 4 -1 d 3 -2 d 3 -1 d 3 -2 d 3 -1 d 3 -2 d 3 -1 d 3 -2 d 3 -2 d 3 -1 d 3 -2 d 3 -2 d 3 -1 d 3 -2 d 3 -2 d 3 -2 d 3 -2 d 4 -2 d 3 -2
 d 3 -1 d 3 -2 d 3 -2 d 3 -2 d 3 -3 d 3 -2 d 3 -2 d 3 -2 d 3 -2 d 3 -2 d 3 -3 d 3 -2 d 3 -2 d 3 -2 d 4 -3 d 3 -2 d 3 -3 d 3 -2 d 3 -3 d 3 -2 d 3 -3 d 3 -2 d 3 -3 d 3 -2 d 3 -3 d 3 -3 d 3 -2 d 3 -3 d 3 -3 d 3 -3 d s 385 790 m 4 -2 d s 0.49 0.6 0.82 c
 black 0.49 0.6 0.82 c
 gsave  408 305 23 677 C 142.445 960.076 t 0 r /Helvetica-Bold findfont 25.6831 sf 0 0 m (2.5 < E < 3.0 GeV) show NC gr  0.52 0.76 0.64 c black 0.52 0.76 0.64 c
 gsave  408 305 23 677 C 122.502 923.04 t 0 r /Helvetica-Bold findfont 25.6831 sf 0 0 m 
 228 214 200 193 178 171 156 149 134 126 119 105 91 77 69 55 47 39 25 17
(A = \2550.000, p = 2.000) K NC gr  1 0.6 1 c black 1 0.6 1 c
 gsave  408 305 23 677 C 427.334 783.445 t 90 r /Helvetica-Bold findfont 28.5368 sf 0 0 m (/dof=77.5) show NC gr  black 1 0.6 1 c
 gsave  408 305 23 677 C 415.938 772.049 t 90 r /Helvetica-Bold findfont 19.9758 sf 0 0 m (2) show NC gr  black 1 0.6 1 c
 gsave  408 305 23 677 C 427.334 754.956 t 90 r /Symbol findfont 28.5368 sf 0 0 m (c) show NC gr  black 3 lw 1 1 1 c 408 305 476 677 bf black 1 1 1 c black 307 229 537 723 bl 307 229 537 723 bl 537 723 m 307 X s 537 727 m -4 Y s 641 727 m -4 Y s 745
 727 m -4 Y s 745 727 m -4 Y s
 gsave  408 305 476 677 C 527.045 703.676 t 0 r /Helvetica findfont 22.8295 sf 0 0 m (0) show NC gr 
 gsave  408 305 476 677 C 621.058 703.676 t 0 r /Helvetica findfont 22.8295 sf 0 0 m (500) show NC gr 
 gsave  408 305 476 677 C 717.92 703.676 t 0 r /Helvetica findfont 22.8295 sf 0 0 m (1000) show NC gr  537 952 m 307 X s 537 948 m 4 Y s 641 948 m 4 Y s 745 948 m 4 Y s 745 948 m 4 Y s 537 723 m 229 Y s 543 739 m -6 X s 540 748 m -3 X s 540 757 m -3
 X s 540 765 m -3 X s 540 774 m -3 X s 543 783 m -6 X s 540 792 m -3 X s 540 800 m -3 X s 540 809 m -3 X s 540 818 m -3 X s 543 827 m -6 X s 540 835 m -3 X s 540 844 m -3 X s 540 853 m -3 X s 540 861 m -3 X s 543 870 m -6 X s 540 879 m -3 X s 540 888
 m -3 X s 540 896 m -3 X s 540 905 m -3 X s 543 914 m -6 X s 543 739 m -6 X s 540 730 m -3 X s 543 914 m -6 X s 540 923 m -3 X s 540 931 m -3 X s 540 940 m -3 X s 540 949 m -3 X s
 gsave  408 305 476 677 C 481.462 732.165 t 0 r /Helvetica findfont 22.8295 sf 0 0 m (\2550.04) show NC gr 
 gsave  408 305 476 677 C 481.462 774.898 t 0 r /Helvetica findfont 22.8295 sf 0 0 m (\2550.03) show NC gr 
 gsave  408 305 476 677 C 481.462 820.48 t 0 r /Helvetica findfont 22.8295 sf 0 0 m (\2550.02) show NC gr 
 gsave  408 305 476 677 C 484.311 863.214 t 0 r /Helvetica findfont 22.8295 sf 0 0 m (\2550.01) show NC gr 
 gsave  408 305 476 677 C 518.498 905.947 t 0 r /Helvetica findfont 22.8295 sf 0 0 m (0) show NC gr  844 723 m 229 Y s 838 739 m 6 X s 841 748 m 3 X s 841 757 m 3 X s 841 765 m 3 X s 841 774 m 3 X s 838 783 m 6 X s 841 792 m 3 X s 841 800 m 3 X s 841
 809 m 3 X s 841 818 m 3 X s 838 827 m 6 X s 841 835 m 3 X s 841 844 m 3 X s 841 853 m 3 X s 841 861 m 3 X s 838 870 m 6 X s 841 879 m 3 X s 841 888 m 3 X s 841 896 m 3 X s 841 905 m 3 X s 838 914 m 6 X s 838 739 m 6 X s 841 730 m 3 X s 838 914 m 6 X
 s 841 923 m 3 X s 841 931 m 3 X s 841 940 m 3 X s 841 949 m 3 X s /w 23 def /w2 {w 2 div} def /w3 {w 3 div} def 683 927 731 907 779 872 828 748 4 { m21} R 1 0 0 c 9 lw 0.95 0.95 0.95 c black 1 0 0 c 539 914 m 12 X 3 -1 d 13 X 3 -1 d 9 X 3 -1 d 3 X 3
 -1 d 6 X 3 -1 d 3 X 3 -1 d 3 -1 d 3 X 3 -1 d 4 X 3 -1 d 3 -1 d 3 X 3 -1 d 3 -1 d 3 -1 d 3 X 3 -1 d 3 -1 d 3 -1 d 3 -1 d 3 -1 d 3 -1 d 3 -1 d 3 -1 d 3 -1 d 4 -1 d 3 -1 d 3 -1 d 3 -1 d 3 -1 d 3 -2 d 3 -1 d 3 -1 d s 689 883 m 3 -1 d 3 -2 d 3 -1 d 3 -1
 d 3 -2 d 3 -1 d 3 -1 d 3 -2 d 4 -1 d 3 -2 d 3 -1 d 3 -2 d 3 -1 d 3 -2 d 3 -2 d 3 -1 d 3 -2 d 3 -2 d 3 -1 d 3 -2 d 3 -2 d 3 -2 d 3 -1 d 3 -2 d 4 -2 d 3 -2 d 3 -2 d 3 -2 d 3 -2 d 3 -2 d 3 -2 d 3 -2 d 3 -2 d 3 -2 d 3 -2 d 3 -2 d 3 -3 d 3 -2 d 3 -2 d 3
 -2 d 4 -3 d 3 -2 d 3 -2 d 3 -2 d 3 -3 d 3 -2 d 3 -3 d 3 -2 d 3 -3 d s 839 791 m 3 -2 d s 0.49 0.6 0.82 c black 0.49 0.6 0.82 c
 gsave  408 305 476 677 C 595.418 960.076 t 0 r /Helvetica-Bold findfont 25.6831 sf 0 0 m (3.0 < E < 3.5 GeV) show NC gr  0.52 0.76 0.64 c black 0.52 0.76 0.64 c
 gsave  408 305 476 677 C 575.476 923.04 t 0 r /Helvetica-Bold findfont 25.6831 sf 0 0 m 
 228 214 200 193 178 171 156 149 133 126 119 105 91 76 69 55 47 39 25 17
(A = \2550.000, p = 2.000) K NC gr  1 0.6 1 c black 1 0.6 1 c
 gsave  408 305 476 677 C 883.156 783.445 t 90 r /Helvetica-Bold findfont 28.5368 sf 0 0 m (/dof=72.2) show NC gr  black 1 0.6 1 c
 gsave  408 305 476 677 C 871.76 772.049 t 90 r /Helvetica-Bold findfont 19.9758 sf 0 0 m (2) show NC gr  black 1 0.6 1 c
 gsave  408 305 476 677 C 883.156 754.956 t 90 r /Symbol findfont 28.5368 sf 0 0 m (c) show NC gr  black 3 lw 1 1 1 c 408 305 930 677 bf black 1 1 1 c black 306 229 991 723 bl 306 229 991 723 bl 991 723 m 306 X s 991 727 m -4 Y s 1095 727 m -4 Y s
 1198 727 m -4 Y s 1198 727 m -4 Y s
 gsave  408 305 930 677 C 980.018 703.676 t 0 r /Helvetica findfont 22.8295 sf 0 0 m (0) show NC gr 
 gsave  408 305 930 677 C 1074.03 703.676 t 0 r /Helvetica findfont 22.8295 sf 0 0 m (500) show NC gr 
 gsave  408 305 930 677 C 1170.89 703.676 t 0 r /Helvetica findfont 22.8295 sf 0 0 m (1000) show NC gr  991 952 m 306 X s 991 948 m 4 Y s 1095 948 m 4 Y s 1198 948 m 4 Y s 1198 948 m 4 Y s 991 723 m 229 Y s 997 736 m -6 X s 994 741 m -3 X s 994 745 m
 -3 X s 994 750 m -3 X s 994 755 m -3 X s 997 759 m -6 X s 994 764 m -3 X s 994 769 m -3 X s 994 773 m -3 X s 994 778 m -3 X s 997 783 m -6 X s 994 787 m -3 X s 994 792 m -3 X s 994 797 m -3 X s 994 801 m -3 X s 997 806 m -6 X s 994 811 m -3 X s 994
 815 m -3 X s 994 820 m -3 X s 994 825 m -3 X s 997 829 m -6 X s 994 834 m -3 X s 994 839 m -3 X s 994 843 m -3 X s 994 848 m -3 X s 997 853 m -6 X s 994 857 m -3 X s 994 862 m -3 X s 994 867 m -3 X s 994 871 m -3 X s 997 876 m -6 X s 994 881 m -3 X
 s 994 885 m -3 X s 994 890 m -3 X s 994 895 m -3 X s 997 899 m -6 X s 994 904 m -3 X s 994 909 m -3 X s 994 913 m -3 X s 994 918 m -3 X s 997 923 m -6 X s 994 927 m -3 X s 994 932 m -3 X s 994 937 m -3 X s 994 941 m -3 X s 997 946 m -6 X s 997 736 m
 -6 X s 994 731 m -3 X s 994 727 m -3 X s 997 946 m -6 X s 994 951 m -3 X s
 gsave  408 305 930 677 C 937.285 729.316 t 0 r /Helvetica findfont 22.8295 sf 0 0 m (\2550.04) show NC gr 
 gsave  408 305 930 677 C 923.04 752.107 t 0 r /Helvetica findfont 22.8295 sf 0 0 m (\2550.035) show NC gr 
 gsave  408 305 930 677 C 937.285 774.898 t 0 r /Helvetica findfont 22.8295 sf 0 0 m (\2550.03) show NC gr 
 gsave  408 305 930 677 C 923.04 797.689 t 0 r /Helvetica findfont 22.8295 sf 0 0 m (\2550.025) show NC gr 
 gsave  408 305 930 677 C 937.285 823.329 t 0 r /Helvetica findfont 22.8295 sf 0 0 m (\2550.02) show NC gr 
 gsave  408 305 930 677 C 923.04 846.12 t 0 r /Helvetica findfont 22.8295 sf 0 0 m (\2550.015) show NC gr 
 gsave  408 305 930 677 C 940.134 868.911 t 0 r /Helvetica findfont 22.8295 sf 0 0 m (\2550.01) show NC gr 
 gsave  408 305 930 677 C 923.04 891.703 t 0 r /Helvetica findfont 22.8295 sf 0 0 m (\2550.005) show NC gr 
 gsave  408 305 930 677 C 974.32 914.494 t 0 r /Helvetica findfont 22.8295 sf 0 0 m (0) show NC gr 
 gsave  408 305 930 677 C 931.587 940.134 t 0 r /Helvetica findfont 22.8295 sf 0 0 m (0.005) show NC gr  1297 723 m 229 Y s 1292 736 m 5 X s 1294 741 m 3 X s 1294 745 m 3 X s 1294 750 m 3 X s 1294 755 m 3 X s 1292 759 m 5 X s 1294 764 m 3 X s 1294
 769 m 3 X s 1294 773 m 3 X s 1294 778 m 3 X s 1292 783 m 5 X s 1294 787 m 3 X s 1294 792 m 3 X s 1294 797 m 3 X s 1294 801 m 3 X s 1292 806 m 5 X s 1294 811 m 3 X s 1294 815 m 3 X s 1294 820 m 3 X s 1294 825 m 3 X s 1292 829 m 5 X s 1294 834 m 3 X s
 1294 839 m 3 X s 1294 843 m 3 X s 1294 848 m 3 X s 1292 853 m 5 X s 1294 857 m 3 X s 1294 862 m 3 X s 1294 867 m 3 X s 1294 871 m 3 X s 1292 876 m 5 X s 1294 881 m 3 X s 1294 885 m 3 X s 1294 890 m 3 X s 1294 895 m 3 X s 1292 899 m 5 X s 1294 904 m
 3 X s 1294 909 m 3 X s 1294 913 m 3 X s 1294 918 m 3 X s 1292 923 m 5 X s 1294 927 m 3 X s 1294 932 m 3 X s 1294 937 m 3 X s 1294 941 m 3 X s 1292 946 m 5 X s 1292 736 m 5 X s 1294 731 m 3 X s 1294 727 m 3 X s 1292 946 m 5 X s 1294 951 m 3 X s 1136
 925 1184 912 1233 867 1281 749 4 { m21} R 1 0 0 c 9 lw 0.95 0.95 0.95 c black 1 0 0 c 993 923 m 6 X 3 -1 d 15 X 3 -1 d 6 X 3 -1 d 6 X 3 -1 d 4 X 3 -1 d 3 X 3 -1 d 3 X 3 -1 d 3 X 3 -1 d 3 -1 d 3 X 3 -1 d 3 -1 d 3 -1 d 3 X 3 -1 d 3 -1 d 3 -1 d 4 -1 d
 3 -1 d 3 -1 d 3 -1 d 3 -1 d 3 -1 d 3 -1 d 3 -1 d 3 -1 d 3 -2 d 3 -1 d 3 -1 d 3 -1 d 3 -2 d 3 -1 d 3 -1 d 4 -2 d s 1143 888 m 3 -1 d 3 -1 d 3 -2 d 3 -1 d 3 -2 d 3 -1 d 3 -2 d 3 -1 d 3 -2 d 3 -2 d 3 -1 d 3 -2 d 3 -2 d 3 -2 d 3 -1 d 4 -2 d 3 -2 d 3 -2
 d 3 -2 d 3 -2 d 3 -2 d 3 -2 d 3 -2 d 3 -2 d 3 -2 d 3 -2 d 3 -2 d 3 -2 d 3 -2 d 3 -2 d 3 -3 d 3 -2 d 4 -2 d 3 -3 d 3 -2 d 3 -2 d 3 -3 d 3 -2 d 3 -3 d 3 -2 d 3 -2 d 3 -3 d 3 -3 d 3 -2 d 3 -3 d 3 -2 d 3 -3 d 3 -3 d 4 -3 d s 1293 787 m 3 -2 d s 0.49 0.6
 0.82 c black 0.49 0.6 0.82 c
 gsave  408 305 930 677 C 1051.24 960.076 t 0 r /Helvetica-Bold findfont 25.6831 sf 0 0 m (3.5 < E < 4.0 GeV) show NC gr  0.52 0.76 0.64 c black 0.52 0.76 0.64 c
 gsave  408 305 930 677 C 1031.3 923.04 t 0 r /Helvetica-Bold findfont 25.6831 sf 0 0 m 
 228 214 200 193 178 171 156 149 133 126 119 105 91 77 69 55 47 39 25 17
(A = \2550.000, p = 2.000) K NC gr  1 0.6 1 c black 1 0.6 1 c
 gsave  408 305 930 677 C 1336.13 783.445 t 90 r /Helvetica-Bold findfont 28.5368 sf 0 0 m (/dof=38.6) show NC gr  black 1 0.6 1 c
 gsave  408 305 930 677 C 1324.73 772.049 t 90 r /Helvetica-Bold findfont 19.9758 sf 0 0 m (2) show NC gr  black 1 0.6 1 c
 gsave  408 305 930 677 C 1336.13 754.956 t 90 r /Symbol findfont 28.5368 sf 0 0 m (c) show NC gr  black 3 lw 1 1 1 c 408 305 1383 677 bf black 1 1 1 c black 306 229 1445 723 bl 306 229 1445 723 bl 1445 723 m 306 X s 1445 727 m -4 Y s 1548 727 m -4 Y
 s 1652 727 m -4 Y s 1652 727 m -4 Y s
 gsave  408 305 1383 677 C 1435.84 703.676 t 0 r /Helvetica findfont 22.8295 sf 0 0 m (0) show NC gr 
 gsave  408 305 1383 677 C 1527.01 703.676 t 0 r /Helvetica findfont 22.8295 sf 0 0 m (500) show NC gr 
 gsave  408 305 1383 677 C 1623.87 703.676 t 0 r /Helvetica findfont 22.8295 sf 0 0 m (1000) show NC gr  1445 952 m 306 X s 1445 948 m 4 Y s 1548 948 m 4 Y s 1652 948 m 4 Y s 1652 948 m 4 Y s 1445 723 m 229 Y s 1450 726 m -5 X s 1447 732 m -2 X s
 1447 737 m -2 X s 1447 742 m -2 X s 1447 748 m -2 X s 1450 753 m -5 X s 1447 758 m -2 X s 1447 763 m -2 X s 1447 769 m -2 X s 1447 774 m -2 X s 1450 779 m -5 X s 1447 785 m -2 X s 1447 790 m -2 X s 1447 795 m -2 X s 1447 801 m -2 X s 1450 806 m -5 X
 s 1447 811 m -2 X s 1447 817 m -2 X s 1447 822 m -2 X s 1447 827 m -2 X s 1450 833 m -5 X s 1447 838 m -2 X s 1447 843 m -2 X s 1447 849 m -2 X s 1447 854 m -2 X s 1450 859 m -5 X s 1447 864 m -2 X s 1447 870 m -2 X s 1447 875 m -2 X s 1447 880 m -2
 X s 1450 886 m -5 X s 1447 891 m -2 X s 1447 896 m -2 X s 1447 902 m -2 X s 1447 907 m -2 X s 1450 912 m -5 X s 1447 918 m -2 X s 1447 923 m -2 X s 1447 928 m -2 X s 1447 934 m -2 X s 1450 939 m -5 X s 1450 726 m -5 X s 1450 939 m -5 X s 1447 944 m
 -2 X s 1447 950 m -2 X s
 gsave  408 305 1383 677 C 1390.26 717.92 t 0 r /Helvetica findfont 22.8295 sf 0 0 m (\2550.04) show NC gr 
 gsave  408 305 1383 677 C 1376.01 746.409 t 0 r /Helvetica findfont 22.8295 sf 0 0 m (\2550.035) show NC gr 
 gsave  408 305 1383 677 C 1390.26 772.049 t 0 r /Helvetica findfont 22.8295 sf 0 0 m (\2550.03) show NC gr 
 gsave  408 305 1383 677 C 1376.01 797.689 t 0 r /Helvetica findfont 22.8295 sf 0 0 m (\2550.025) show NC gr 
 gsave  408 305 1383 677 C 1390.26 826.178 t 0 r /Helvetica findfont 22.8295 sf 0 0 m (\2550.02) show NC gr 
 gsave  408 305 1383 677 C 1376.01 851.818 t 0 r /Helvetica findfont 22.8295 sf 0 0 m (\2550.015) show NC gr 
 gsave  408 305 1383 677 C 1393.11 877.458 t 0 r /Helvetica findfont 22.8295 sf 0 0 m (\2550.01) show NC gr 
 gsave  408 305 1383 677 C 1376.01 905.947 t 0 r /Helvetica findfont 22.8295 sf 0 0 m (\2550.005) show NC gr 
 gsave  408 305 1383 677 C 1427.29 931.587 t 0 r /Helvetica findfont 22.8295 sf 0 0 m (0) show NC gr  1751 723 m 229 Y s 1745 726 m 6 X s 1748 732 m 3 X s 1748 737 m 3 X s 1748 742 m 3 X s 1748 748 m 3 X s 1745 753 m 6 X s 1748 758 m 3 X s 1748 763 m
 3 X s 1748 769 m 3 X s 1748 774 m 3 X s 1745 779 m 6 X s 1748 785 m 3 X s 1748 790 m 3 X s 1748 795 m 3 X s 1748 801 m 3 X s 1745 806 m 6 X s 1748 811 m 3 X s 1748 817 m 3 X s 1748 822 m 3 X s 1748 827 m 3 X s 1745 833 m 6 X s 1748 838 m 3 X s 1748
 843 m 3 X s 1748 849 m 3 X s 1748 854 m 3 X s 1745 859 m 6 X s 1748 864 m 3 X s 1748 870 m 3 X s 1748 875 m 3 X s 1748 880 m 3 X s 1745 886 m 6 X s 1748 891 m 3 X s 1748 896 m 3 X s 1748 902 m 3 X s 1748 907 m 3 X s 1745 912 m 6 X s 1748 918 m 3 X s
 1748 923 m 3 X s 1748 928 m 3 X s 1748 934 m 3 X s 1745 939 m 6 X s 1745 726 m 6 X s 1745 939 m 6 X s 1748 944 m 3 X s 1748 950 m 3 X s 1590 916 1638 922 1686 853 1735 753 4 { m21} R 1 0 0 c 9 lw 0.95 0.95 0.95 c black 1 0 0 c 1446 939 m 12 X 3 -1 d
 10 X 3 -1 d 6 X 3 -1 d 3 X 3 -1 d 3 X 3 -1 d 3 X 3 -1 d 3 X 3 -1 d 3 -1 d 3 -1 d 3 X 4 -1 d 3 -1 d 3 -1 d 3 -1 d 3 -1 d 3 -1 d 3 -1 d 3 -1 d 3 -1 d 3 -1 d 3 -1 d 3 -1 d 3 -1 d 3 -2 d 3 -1 d 3 -1 d 4 -1 d 3 -2 d 3 -1 d 3 -2 d 3 -1 d 3 -2 d 3 -1 d 3
 -2 d 3 -1 d 3 -2 d s 1596 898 m 3 -2 d 3 -1 d 3 -2 d 3 -2 d 3 -2 d 3 -1 d 4 -2 d 3 -2 d 3 -2 d 3 -2 d 3 -2 d 3 -2 d 3 -2 d 3 -2 d 3 -2 d 3 -3 d 3 -2 d 3 -2 d 3 -2 d 3 -3 d 3 -2 d 3 -2 d 3 -3 d 4 -2 d 3 -3 d 3 -2 d 3 -3 d 3 -2 d 3 -3 d 3 -2 d 3 -3 d
 3 -3 d 3 -2 d 3 -3 d 3 -3 d 3 -3 d 3 -3 d 3 -3 d 3 -3 d 4 -3 d 3 -3 d 3 -3 d 3 -3 d 3 -3 d 3 -3 d 3 -3 d 3 -3 d 3 -3 d 3 -4 d s 1746 777 m 3 -3 d s 0.49 0.6 0.82 c black 0.49 0.6 0.82 c
 gsave  408 305 1383 677 C 1504.21 960.076 t 0 r /Helvetica-Bold findfont 25.6831 sf 0 0 m (4.0 < E < 4.5 GeV) show NC gr  0.52 0.76 0.64 c black 0.52 0.76 0.64 c
 gsave  408 305 1383 677 C 1484.27 923.04 t 0 r /Helvetica-Bold findfont 25.6831 sf 0 0 m 
 228 214 200 193 178 171 156 149 134 126 119 105 91 77 69 55 47 40 25 17
(A = \2550.000, p = 2.000) K NC gr  1 0.6 1 c black 1 0.6 1 c
 gsave  408 305 1383 677 C 1789.1 783.445 t 90 r /Helvetica-Bold findfont 28.5368 sf 0 0 m (/dof=12.2) show NC gr  black 1 0.6 1 c
 gsave  408 305 1383 677 C 1777.71 772.049 t 90 r /Helvetica-Bold findfont 19.9758 sf 0 0 m (2) show NC gr  black 1 0.6 1 c
 gsave  408 305 1383 677 C 1789.1 754.956 t 90 r /Symbol findfont 28.5368 sf 0 0 m (c) show NC gr  black 3 lw 1 1 1 c 408 305 1837 677 bf black 1 1 1 c black 306 229 1898 723 bl 306 229 1898 723 bl 1898 723 m 306 X s 1898 727 m -4 Y s 2002 727 m -4 Y
 s 2105 727 m -4 Y s 2105 727 m -4 Y s
 gsave  408 305 1837 677 C 1888.81 703.676 t 0 r /Helvetica findfont 22.8295 sf 0 0 m (0) show NC gr 
 gsave  408 305 1837 677 C 1979.98 703.676 t 0 r /Helvetica findfont 22.8295 sf 0 0 m (500) show NC gr 
 gsave  408 305 1837 677 C 2079.69 703.676 t 0 r /Helvetica findfont 22.8295 sf 0 0 m (1000) show NC gr  1898 952 m 306 X s 1898 948 m 4 Y s 2002 948 m 4 Y s 2105 948 m 4 Y s 2105 948 m 4 Y s 1898 723 m 229 Y s 1904 750 m -6 X s 1901 756 m -3 X s
 1901 762 m -3 X s 1901 767 m -3 X s 1901 773 m -3 X s 1904 778 m -6 X s 1901 784 m -3 X s 1901 790 m -3 X s 1901 795 m -3 X s 1901 801 m -3 X s 1904 806 m -6 X s 1901 812 m -3 X s 1901 817 m -3 X s 1901 823 m -3 X s 1901 829 m -3 X s 1904 834 m -6 X
 s 1901 840 m -3 X s 1901 845 m -3 X s 1901 851 m -3 X s 1901 857 m -3 X s 1904 862 m -6 X s 1901 868 m -3 X s 1901 873 m -3 X s 1901 879 m -3 X s 1901 884 m -3 X s 1904 890 m -6 X s 1901 896 m -3 X s 1901 901 m -3 X s 1901 907 m -3 X s 1901 912 m -3
 X s 1904 918 m -6 X s 1901 924 m -3 X s 1901 929 m -3 X s 1901 935 m -3 X s 1901 940 m -3 X s 1904 946 m -6 X s 1904 750 m -6 X s 1901 745 m -3 X s 1901 739 m -3 X s 1901 734 m -3 X s 1901 728 m -3 X s 1904 946 m -6 X s 1901 951 m -3 X s
 gsave  408 305 1837 677 C 1843.23 743.56 t 0 r /Helvetica findfont 22.8295 sf 0 0 m (\2550.03) show NC gr 
 gsave  408 305 1837 677 C 1828.99 772.049 t 0 r /Helvetica findfont 22.8295 sf 0 0 m (\2550.025) show NC gr 
 gsave  408 305 1837 677 C 1843.23 800.538 t 0 r /Helvetica findfont 22.8295 sf 0 0 m (\2550.02) show NC gr 
 gsave  408 305 1837 677 C 1828.99 826.178 t 0 r /Helvetica findfont 22.8295 sf 0 0 m (\2550.015) show NC gr 
 gsave  408 305 1837 677 C 1846.08 854.667 t 0 r /Helvetica findfont 22.8295 sf 0 0 m (\2550.01) show NC gr 
 gsave  408 305 1837 677 C 1828.99 883.156 t 0 r /Helvetica findfont 22.8295 sf 0 0 m (\2550.005) show NC gr 
 gsave  408 305 1837 677 C 1880.27 911.645 t 0 r /Helvetica findfont 22.8295 sf 0 0 m (0) show NC gr 
 gsave  408 305 1837 677 C 1837.53 940.134 t 0 r /Helvetica findfont 22.8295 sf 0 0 m (0.005) show NC gr  2204 723 m 229 Y s 2199 750 m 5 X s 2201 756 m 3 X s 2201 762 m 3 X s 2201 767 m 3 X s 2201 773 m 3 X s 2199 778 m 5 X s 2201 784 m 3 X s 2201
 790 m 3 X s 2201 795 m 3 X s 2201 801 m 3 X s 2199 806 m 5 X s 2201 812 m 3 X s 2201 817 m 3 X s 2201 823 m 3 X s 2201 829 m 3 X s 2199 834 m 5 X s 2201 840 m 3 X s 2201 845 m 3 X s 2201 851 m 3 X s 2201 857 m 3 X s 2199 862 m 5 X s 2201 868 m 3 X s
 2201 873 m 3 X s 2201 879 m 3 X s 2201 884 m 3 X s 2199 890 m 5 X s 2201 896 m 3 X s 2201 901 m 3 X s 2201 907 m 3 X s 2201 912 m 3 X s 2199 918 m 5 X s 2201 924 m 3 X s 2201 929 m 3 X s 2201 935 m 3 X s 2201 940 m 3 X s 2199 946 m 5 X s 2199 750 m
 5 X s 2201 745 m 3 X s 2201 739 m 3 X s 2201 734 m 3 X s 2201 728 m 3 X s 2199 946 m 5 X s 2201 951 m 3 X s 2043 918 2091 897 2140 865 2188 757 4 { m21} R 2043 929 m 4 Y s 2037 933 m 12 X s 2043 906 m -3 Y s 2037 903 m 12 X s 2091 908 m 4 Y s 2086
 912 m 11 X s 2091 885 m -3 Y s 2086 882 m 11 X s 2140 876 m 4 Y s 2134 880 m 11 X s 2140 853 m -3 Y s 2134 850 m 11 X s 2188 768 m 4 Y s 2183 772 m 11 X s 2188 745 m -3 Y s 2183 742 m 11 X s 1 0 0 c 9 lw 0.95 0.95 0.95 c black 1 0 0 c 1900 918 m 15
 X 3 -1 d 12 X 3 -1 d 6 X 3 -1 d 4 X 3 -1 d 3 X 3 -1 d 3 X 3 -1 d 3 X 3 -1 d 3 X 3 -1 d 3 -1 d 3 X 3 -1 d 3 -1 d 3 -1 d 3 X 4 -1 d 3 -1 d 3 -1 d 3 -1 d 3 -1 d 3 -1 d 3 -1 d 3 -1 d 3 -1 d 3 -1 d 3 -1 d 3 -1 d 3 -1 d 3 -1 d 3 -2 d 3 -1 d 3 -1 d 4 -1 d
 3 -2 d s 2050 885 m 3 -1 d 3 -1 d 3 -2 d 3 -1 d 3 -2 d 3 -1 d 3 -2 d 3 -1 d 3 -2 d 3 -1 d 3 -2 d 3 -2 d 3 -1 d 3 -2 d 4 -2 d 3 -1 d 3 -2 d 3 -2 d 3 -2 d 3 -2 d 3 -1 d 3 -2 d 3 -2 d 3 -2 d 3 -2 d 3 -2 d 3 -2 d 3 -2 d 3 -2 d 3 -2 d 4 -3 d 3 -2 d 3 -2
 d 3 -2 d 3 -2 d 3 -3 d 3 -2 d 3 -2 d 3 -3 d 3 -2 d 3 -2 d 3 -3 d 3 -2 d 3 -3 d 3 -2 d 3 -3 d 4 -2 d 3 -3 d 3 -3 d s 2200 788 m 3 -2 d s 0.49 0.6 0.82 c black 0.49 0.6 0.82 c
 gsave  408 305 1837 677 C 1957.19 960.076 t 0 r /Helvetica-Bold findfont 25.6831 sf 0 0 m (4.5 < E < 5.0 GeV) show NC gr  0.52 0.76 0.64 c black 0.52 0.76 0.64 c
 gsave  408 305 1837 677 C 1937.25 923.04 t 0 r /Helvetica-Bold findfont 25.6831 sf 0 0 m 
 228 214 200 193 178 171 156 149 133 126 119 105 91 77 69 55 47 39 25 17
(A = \2550.000, p = 2.000) K NC gr  1 0.6 1 c black 1 0.6 1 c
 gsave  408 305 1837 677 C 2242.08 791.991 t 90 r /Helvetica-Bold findfont 28.5368 sf 0 0 m (/dof=6.7) show NC gr  black 1 0.6 1 c
 gsave  408 305 1837 677 C 2230.68 780.596 t 90 r /Helvetica-Bold findfont 19.9758 sf 0 0 m (2) show NC gr  black 1 0.6 1 c
 gsave  408 305 1837 677 C 2242.08 763.503 t 90 r /Symbol findfont 28.5368 sf 0 0 m (c) show NC gr  black 3 lw 1 1 1 c 408 306 23 345 bf black 1 1 1 c black 306 229 84 391 bl 306 229 84 391 bl 84 391 m 306 X s 84 395 m -4 Y s 188 395 m -4 Y s 291 395
 m -4 Y s 291 395 m -4 Y s
 gsave  408 306 23 345 C 74.0711 370.356 t 0 r /Helvetica findfont 22.8295 sf 0 0 m (0) show NC gr 
 gsave  408 306 23 345 C 165.236 370.356 t 0 r /Helvetica findfont 22.8295 sf 0 0 m (500) show NC gr 
 gsave  408 306 23 345 C 264.947 370.356 t 0 r /Helvetica findfont 22.8295 sf 0 0 m (1000) show NC gr  84 620 m 306 X s 84 616 m 4 Y s 188 616 m 4 Y s 291 616 m 4 Y s 291 616 m 4 Y s 84 391 m 229 Y s 89 422 m -5 X s 87 428 m -3 X s 87 435 m -3 X s 87
 441 m -3 X s 87 448 m -3 X s 89 454 m -5 X s 87 460 m -3 X s 87 467 m -3 X s 87 473 m -3 X s 87 480 m -3 X s 89 486 m -5 X s 87 492 m -3 X s 87 499 m -3 X s 87 505 m -3 X s 87 512 m -3 X s 89 518 m -5 X s 87 524 m -3 X s 87 531 m -3 X s 87 537 m -3
 X s 87 544 m -3 X s 89 550 m -5 X s 87 556 m -3 X s 87 563 m -3 X s 87 569 m -3 X s 87 575 m -3 X s 89 582 m -5 X s 87 588 m -3 X s 87 595 m -3 X s 87 601 m -3 X s 87 607 m -3 X s 89 614 m -5 X s 89 422 m -5 X s 87 416 m -3 X s 87 409 m -3 X s 87
 403 m -3 X s 87 397 m -3 X s 89 614 m -5 X s
 gsave  408 306 23 345 C 28.4889 415.938 t 0 r /Helvetica findfont 22.8295 sf 0 0 m (\2550.02) show NC gr 
 gsave  408 306 23 345 C 14.2445 447.276 t 0 r /Helvetica findfont 22.8295 sf 0 0 m (\2550.015) show NC gr 
 gsave  408 306 23 345 C 31.3378 478.614 t 0 r /Helvetica findfont 22.8295 sf 0 0 m (\2550.01) show NC gr 
 gsave  408 306 23 345 C 14.2445 509.951 t 0 r /Helvetica findfont 22.8295 sf 0 0 m (\2550.005) show NC gr 
 gsave  408 306 23 345 C 65.5245 544.138 t 0 r /Helvetica findfont 22.8295 sf 0 0 m (0) show NC gr 
 gsave  408 306 23 345 C 22.7911 575.476 t 0 r /Helvetica findfont 22.8295 sf 0 0 m (0.005) show NC gr 
 gsave  408 306 23 345 C 37.0356 606.814 t 0 r /Helvetica findfont 22.8295 sf 0 0 m (0.01) show NC gr  390 391 m 229 Y s 385 422 m 5 X s 387 428 m 3 X s 387 435 m 3 X s 387 441 m 3 X s 387 448 m 3 X s 385 454 m 5 X s 387 460 m 3 X s 387 467 m 3 X s
 387 473 m 3 X s 387 480 m 3 X s 385 486 m 5 X s 387 492 m 3 X s 387 499 m 3 X s 387 505 m 3 X s 387 512 m 3 X s 385 518 m 5 X s 387 524 m 3 X s 387 531 m 3 X s 387 537 m 3 X s 387 544 m 3 X s 385 550 m 5 X s 387 556 m 3 X s 387 563 m 3 X s 387 569 m
 3 X s 387 575 m 3 X s 385 582 m 5 X s 387 588 m 3 X s 387 595 m 3 X s 387 601 m 3 X s 387 607 m 3 X s 385 614 m 5 X s 385 422 m 5 X s 387 416 m 3 X s 387 409 m 3 X s 387 403 m 3 X s 387 397 m 3 X s 385 614 m 5 X s /w 22 def /w2 {w 2 div} def /w3 {w
 3 div} def 229 579 277 552 326 511 374 432 4 { m21} R 229 590 m 11 Y s 223 601 m 12 X s 229 567 m -11 Y s 223 556 m 12 X s 277 563 m 11 Y s 272 574 m 11 X s 277 541 m -11 Y s 272 530 m 11 X s 326 523 m 11 Y s 320 534 m 11 X s 326 500 m -11 Y s 320
 489 m 11 X s 374 443 m 11 Y s 368 454 m 12 X s 374 421 m -11 Y s 368 410 m 12 X s 1 0 0 c 9 lw 0.95 0.95 0.95 c black 1 0 0 c 85 550 m 19 X 3 -1 d 15 X 3 -1 d 9 X 3 -1 d 7 X 3 -1 d 3 X 3 -1 d 6 X 3 -1 d 3 X 3 -1 d 3 X 3 -1 d 3 X 3 -1 d 3 X 3 -1 d 4
 -1 d 3 X 3 -1 d 3 X 3 -1 d 3 -1 d 3 X 3 -1 d 3 -1 d 3 -1 d 3 X 3 -1 d 3 -1 d 3 -1 d 3 -1 d 3 -1 d s 235 528 m 4 X 3 -1 d 3 -1 d 3 -1 d 3 -1 d 3 -1 d 3 -1 d 3 -1 d 3 -1 d 3 -1 d 3 -1 d 3 -1 d 3 -1 d 3 -1 d 3 -2 d 3 -1 d 3 -1 d 4 -1 d 3 -1 d 3 -1 d 3
 -2 d 3 -1 d 3 -1 d 3 -2 d 3 -1 d 3 -1 d 3 -1 d 3 -2 d 3 -1 d 3 -2 d 3 -1 d 3 -1 d 3 -2 d 4 -1 d 3 -2 d 3 -1 d 3 -2 d 3 -1 d 3 -2 d 3 -1 d 3 -2 d 3 -2 d 3 -1 d 3 -2 d 3 -1 d 3 -2 d 3 -2 d 3 -2 d 3 -1 d s 385 465 m 4 -2 d s 0.49 0.6 0.82 c black 0.49
 0.6 0.82 c
 gsave  408 306 23 345 C 142.445 629.605 t 0 r /Helvetica-Bold findfont 25.6831 sf 0 0 m (5.0 < E < 5.5 GeV) show NC gr  0.52 0.76 0.64 c black 0.52 0.76 0.64 c
 gsave  408 306 23 345 C 122.502 592.569 t 0 r /Helvetica-Bold findfont 25.6831 sf 0 0 m 
 228 214 200 193 178 171 156 149 134 126 119 105 91 77 69 55 47 39 25 17
(A = \2550.000, p = 2.000) K NC gr  1 0.6 1 c black 1 0.6 1 c
 gsave  408 306 23 345 C 427.334 458.671 t 90 r /Helvetica-Bold findfont 28.5368 sf 0 0 m (/dof=3.7) show NC gr  black 1 0.6 1 c
 gsave  408 306 23 345 C 415.938 447.276 t 90 r /Helvetica-Bold findfont 19.9758 sf 0 0 m (2) show NC gr  black 1 0.6 1 c
 gsave  408 306 23 345 C 427.334 430.182 t 90 r /Symbol findfont 28.5368 sf 0 0 m (c) show NC gr  black 3 lw 1 1 1 c 408 306 476 345 bf black 1 1 1 c black 307 229 537 391 bl 307 229 537 391 bl 537 391 m 307 X s 537 395 m -4 Y s 641 395 m -4 Y s 745
 395 m -4 Y s 745 395 m -4 Y s
 gsave  408 306 476 345 C 527.045 370.356 t 0 r /Helvetica findfont 22.8295 sf 0 0 m (0) show NC gr 
 gsave  408 306 476 345 C 621.058 370.356 t 0 r /Helvetica findfont 22.8295 sf 0 0 m (500) show NC gr 
 gsave  408 306 476 345 C 717.92 370.356 t 0 r /Helvetica findfont 22.8295 sf 0 0 m (1000) show NC gr  537 620 m 307 X s 537 616 m 4 Y s 641 616 m 4 Y s 745 616 m 4 Y s 745 616 m 4 Y s 537 391 m 229 Y s 543 414 m -6 X s 540 420 m -3 X s 540 426 m -3
 X s 540 432 m -3 X s 543 438 m -6 X s 540 444 m -3 X s 540 450 m -3 X s 540 456 m -3 X s 543 462 m -6 X s 540 468 m -3 X s 540 475 m -3 X s 540 481 m -3 X s 543 487 m -6 X s 540 493 m -3 X s 540 499 m -3 X s 540 505 m -3 X s 543 511 m -6 X s 540 517
 m -3 X s 540 523 m -3 X s 540 529 m -3 X s 543 535 m -6 X s 540 541 m -3 X s 540 547 m -3 X s 540 553 m -3 X s 543 559 m -6 X s 540 565 m -3 X s 540 571 m -3 X s 540 577 m -3 X s 543 583 m -6 X s 540 590 m -3 X s 540 596 m -3 X s 540 602 m -3 X s
 543 608 m -6 X s 543 414 m -6 X s 540 408 m -3 X s 540 402 m -3 X s 540 396 m -3 X s 543 608 m -6 X s 540 614 m -3 X s 540 620 m -3 X s
 gsave  408 306 476 345 C 467.218 407.391 t 0 r /Helvetica findfont 22.8295 sf 0 0 m (\2550.002) show NC gr 
 gsave  408 306 476 345 C 518.498 430.182 t 0 r /Helvetica findfont 22.8295 sf 0 0 m (0) show NC gr 
 gsave  408 306 476 345 C 475.765 455.822 t 0 r /Helvetica findfont 22.8295 sf 0 0 m (0.002) show NC gr 
 gsave  408 306 476 345 C 475.765 478.614 t 0 r /Helvetica findfont 22.8295 sf 0 0 m (0.004) show NC gr 
 gsave  408 306 476 345 C 475.765 504.254 t 0 r /Helvetica findfont 22.8295 sf 0 0 m (0.006) show NC gr 
 gsave  408 306 476 345 C 475.765 527.045 t 0 r /Helvetica findfont 22.8295 sf 0 0 m (0.008) show NC gr 
 gsave  408 306 476 345 C 490.009 552.685 t 0 r /Helvetica findfont 22.8295 sf 0 0 m (0.01) show NC gr 
 gsave  408 306 476 345 C 475.765 575.476 t 0 r /Helvetica findfont 22.8295 sf 0 0 m (0.012) show NC gr 
 gsave  408 306 476 345 C 475.765 601.116 t 0 r /Helvetica findfont 22.8295 sf 0 0 m (0.014) show NC gr  844 391 m 229 Y s 838 414 m 6 X s 841 420 m 3 X s 841 426 m 3 X s 841 432 m 3 X s 838 438 m 6 X s 841 444 m 3 X s 841 450 m 3 X s 841 456 m 3 X s
 838 462 m 6 X s 841 468 m 3 X s 841 475 m 3 X s 841 481 m 3 X s 838 487 m 6 X s 841 493 m 3 X s 841 499 m 3 X s 841 505 m 3 X s 838 511 m 6 X s 841 517 m 3 X s 841 523 m 3 X s 841 529 m 3 X s 838 535 m 6 X s 841 541 m 3 X s 841 547 m 3 X s 841 553 m
 3 X s 838 559 m 6 X s 841 565 m 3 X s 841 571 m 3 X s 841 577 m 3 X s 838 583 m 6 X s 841 590 m 3 X s 841 596 m 3 X s 841 602 m 3 X s 838 608 m 6 X s 838 414 m 6 X s 841 408 m 3 X s 841 402 m 3 X s 841 396 m 3 X s 838 608 m 6 X s 841 614 m 3 X s 841
 620 m 3 X s /w 23 def /w2 {w 2 div} def /w3 {w 3 div} def 683 463 731 548 779 468 828 508 4 { m21} R 683 474 m 42 Y s 677 516 m 11 X s 683 452 m -42 Y s 677 410 m 11 X s 731 559 m 42 Y s 725 601 m 12 X s 731 536 m -41 Y s 725 495 m 12 X s 779 479 m
 42 Y s 773 521 m 12 X s 779 456 m -41 Y s 773 415 m 12 X s 828 520 m 41 Y s 822 561 m 11 X s 828 497 m -42 Y s 822 455 m 11 X s 9 lw 0.95 0.95 0.95 c black 539 439 m 3 X 3 1 d 3 1 d 3 1 d 3 1 d 3 X 3 1 d 3 1 d 4 1 d 3 1 d 3 X 3 1 d 3 1 d 3 1 d 3 1 d
 3 X 3 1 d 3 1 d 3 1 d 3 X 3 1 d 3 1 d 3 1 d 3 1 d 4 X 3 1 d 3 1 d 3 1 d 3 1 d 3 X 3 1 d 3 1 d 3 1 d 3 1 d 3 X 3 1 d 3 1 d 3 1 d 3 1 d 3 X 3 1 d 4 1 d 3 1 d 3 1 d 3 X 3 1 d 3 1 d 3 1 d 3 X s 689 477 m 3 1 d 3 1 d 3 1 d 3 1 d 3 X 3 1 d 3 1 d 3 1 d 4 1
 d 3 X 3 1 d 3 1 d 3 1 d 3 1 d 3 X 3 1 d 3 1 d 3 1 d 3 1 d 3 X 3 1 d 3 1 d 3 1 d 3 1 d 4 X 3 1 d 3 1 d 3 1 d 3 X 3 1 d 3 1 d 3 1 d 3 1 d 3 X 3 1 d 3 1 d 3 1 d 3 1 d 3 X 3 1 d 4 1 d 3 1 d 3 1 d 3 X 3 1 d 3 1 d 3 1 d 3 1 d 3 X s 839 516 m 3 1 d s 0.49
 0.6 0.82 c black 0.49 0.6 0.82 c
 gsave  408 306 476 345 C 595.418 629.605 t 0 r /Helvetica-Bold findfont 25.6831 sf 0 0 m (5.5 < E < 6.0 GeV) show NC gr  0.52 0.76 0.64 c black 0.52 0.76 0.64 c
 gsave  408 306 476 345 C 581.174 592.569 t 0 r /Helvetica-Bold findfont 25.6831 sf 0 0 m 
 220 206 192 185 170 163 148 141 125 118 111 97 83 68 61 47 40 25 18
(A = 0.000, p = 1.000) K NC gr  1 0.6 1 c black 1 0.6 1 c
 gsave  408 306 476 345 C 883.156 458.671 t 90 r /Helvetica-Bold findfont 28.5368 sf 0 0 m (/dof=0.6) show NC gr  black 1 0.6 1 c
 gsave  408 306 476 345 C 871.76 447.276 t 90 r /Helvetica-Bold findfont 19.9758 sf 0 0 m (2) show NC gr  black 1 0.6 1 c
 gsave  408 306 476 345 C 883.156 430.182 t 90 r /Symbol findfont 28.5368 sf 0 0 m (c) show NC gr  black 3 lw 1 1 1 c 408 306 930 345 bf black 1 1 1 c black 306 229 991 391 bl 306 229 991 391 bl 991 391 m 306 X s 991 395 m -4 Y s 1095 395 m -4 Y s
 1198 395 m -4 Y s 1198 395 m -4 Y s
 gsave  408 306 930 345 C 980.018 370.356 t 0 r /Helvetica findfont 22.8295 sf 0 0 m (0) show NC gr 
 gsave  408 306 930 345 C 1074.03 370.356 t 0 r /Helvetica findfont 22.8295 sf 0 0 m (500) show NC gr 
 gsave  408 306 930 345 C 1170.89 370.356 t 0 r /Helvetica findfont 22.8295 sf 0 0 m (1000) show NC gr  991 620 m 306 X s 991 616 m 4 Y s 1095 616 m 4 Y s 1198 616 m 4 Y s 1198 616 m 4 Y s 991 391 m 229 Y s 997 422 m -6 X s 994 431 m -3 X s 994 439 m
 -3 X s 994 448 m -3 X s 994 457 m -3 X s 997 465 m -6 X s 994 474 m -3 X s 994 483 m -3 X s 994 492 m -3 X s 994 500 m -3 X s 997 509 m -6 X s 994 518 m -3 X s 994 526 m -3 X s 994 535 m -3 X s 994 544 m -3 X s 997 552 m -6 X s 994 561 m -3 X s 994
 570 m -3 X s 994 578 m -3 X s 994 587 m -3 X s 997 596 m -6 X s 997 422 m -6 X s 994 413 m -3 X s 994 405 m -3 X s 994 396 m -3 X s 997 596 m -6 X s 994 604 m -3 X s 994 613 m -3 X s
 gsave  408 306 930 345 C 974.32 415.938 t 0 r /Helvetica findfont 22.8295 sf 0 0 m (0) show NC gr 
 gsave  408 306 930 345 C 945.832 458.671 t 0 r /Helvetica findfont 22.8295 sf 0 0 m (0.01) show NC gr 
 gsave  408 306 930 345 C 942.983 501.405 t 0 r /Helvetica findfont 22.8295 sf 0 0 m (0.02) show NC gr 
 gsave  408 306 930 345 C 942.983 544.138 t 0 r /Helvetica findfont 22.8295 sf 0 0 m (0.03) show NC gr 
 gsave  408 306 930 345 C 942.983 589.72 t 0 r /Helvetica findfont 22.8295 sf 0 0 m (0.04) show NC gr  1297 391 m 229 Y s 1292 422 m 5 X s 1294 431 m 3 X s 1294 439 m 3 X s 1294 448 m 3 X s 1294 457 m 3 X s 1292 465 m 5 X s 1294 474 m 3 X s 1294 483
 m 3 X s 1294 492 m 3 X s 1294 500 m 3 X s 1292 509 m 5 X s 1294 518 m 3 X s 1294 526 m 3 X s 1294 535 m 3 X s 1294 544 m 3 X s 1292 552 m 5 X s 1294 561 m 3 X s 1294 570 m 3 X s 1294 578 m 3 X s 1294 587 m 3 X s 1292 596 m 5 X s 1292 422 m 5 X s
 1294 413 m 3 X s 1294 405 m 3 X s 1294 396 m 3 X s 1292 596 m 5 X s 1294 604 m 3 X s 1294 613 m 3 X s 1136 433 1184 437 1233 453 1281 577 4 { m21} R 1136 445 m 11 Y s 1130 456 m 12 X s 1136 422 m -12 Y s 1130 410 m 12 X s 1184 448 m 12 Y s 1179 460
 m 11 X s 1184 425 m -12 Y s 1179 413 m 11 X s 1233 464 m 12 Y s 1227 476 m 11 X s 1233 441 m -11 Y s 1227 430 m 11 X s 1281 589 m 12 Y s 1275 601 m 12 X s 1281 566 m -13 Y s 1275 553 m 12 X s 1 0 0 c 9 lw 0.95 0.95 0.95 c black 1 0 0 c 993 422 m 15
 X 3 1 d 12 X 3 1 d 9 X 3 1 d 4 X 3 1 d 6 X 3 1 d 3 X 3 1 d 3 1 d 3 X 3 1 d 3 X 3 1 d 3 1 d 3 X 3 1 d 3 1 d 3 X 4 1 d 3 1 d 3 1 d 3 1 d 3 1 d 3 X 3 1 d 3 1 d 3 1 d 3 1 d 3 1 d 3 1 d 3 1 d 3 1 d 3 1 d 3 2 d 4 1 d s 1143 451 m 3 1 d 3 1 d 3 1 d 3 2 d 3
 1 d 3 1 d 3 1 d 3 2 d 3 1 d 3 2 d 3 1 d 3 1 d 3 2 d 3 1 d 3 2 d 4 1 d 3 2 d 3 1 d 3 2 d 3 2 d 3 1 d 3 2 d 3 2 d 3 1 d 3 2 d 3 2 d 3 2 d 3 1 d 3 2 d 3 2 d 3 2 d 3 2 d 4 2 d 3 2 d 3 2 d 3 2 d 3 2 d 3 2 d 3 2 d 3 2 d 3 2 d 3 2 d 3 2 d 3 2 d 3 3 d 3 2 d
 3 2 d 3 2 d 4 3 d s 1293 536 m 3 2 d s 0.49 0.6 0.82 c black 0.49 0.6 0.82 c
 gsave  408 306 930 345 C 1051.24 629.605 t 0 r /Helvetica-Bold findfont 25.6831 sf 0 0 m (6.0 < E < 6.5 GeV) show NC gr  0.52 0.76 0.64 c black 0.52 0.76 0.64 c
 gsave  408 306 930 345 C 1037 592.569 t 0 r /Helvetica-Bold findfont 25.6831 sf 0 0 m 
 220 206 192 185 170 163 148 141 125 118 111 97 83 69 61 47 40 25 18
(A = 0.000, p = 2.000) K NC gr  1 0.6 1 c black 1 0.6 1 c
 gsave  408 306 930 345 C 1336.13 458.671 t 90 r /Helvetica-Bold findfont 28.5368 sf 0 0 m (/dof=3.4) show NC gr  black 1 0.6 1 c
 gsave  408 306 930 345 C 1324.73 447.276 t 90 r /Helvetica-Bold findfont 19.9758 sf 0 0 m (2) show NC gr  black 1 0.6 1 c
 gsave  408 306 930 345 C 1336.13 430.182 t 90 r /Symbol findfont 28.5368 sf 0 0 m (c) show NC gr  black 3 lw 1 1 1 c 408 306 1383 345 bf black 1 1 1 c black 306 229 1445 391 bl 306 229 1445 391 bl 1445 391 m 306 X s 1445 395 m -4 Y s 1548 395 m -4 Y
 s 1652 395 m -4 Y s 1652 395 m -4 Y s
 gsave  408 306 1383 345 C 1435.84 370.356 t 0 r /Helvetica findfont 22.8295 sf 0 0 m (0) show NC gr 
 gsave  408 306 1383 345 C 1527.01 370.356 t 0 r /Helvetica findfont 22.8295 sf 0 0 m (500) show NC gr 
 gsave  408 306 1383 345 C 1623.87 370.356 t 0 r /Helvetica findfont 22.8295 sf 0 0 m (1000) show NC gr  1445 620 m 306 X s 1445 616 m 4 Y s 1548 616 m 4 Y s 1652 616 m 4 Y s 1652 616 m 4 Y s 1445 391 m 229 Y s 1450 405 m -5 X s 1447 410 m -2 X s
 1447 416 m -2 X s 1447 421 m -2 X s 1447 427 m -2 X s 1450 432 m -5 X s 1447 438 m -2 X s 1447 443 m -2 X s 1447 449 m -2 X s 1447 454 m -2 X s 1450 460 m -5 X s 1447 465 m -2 X s 1447 471 m -2 X s 1447 476 m -2 X s 1447 482 m -2 X s 1450 487 m -5 X
 s 1447 493 m -2 X s 1447 498 m -2 X s 1447 504 m -2 X s 1447 509 m -2 X s 1450 515 m -5 X s 1447 520 m -2 X s 1447 526 m -2 X s 1447 531 m -2 X s 1447 537 m -2 X s 1450 542 m -5 X s 1447 548 m -2 X s 1447 553 m -2 X s 1447 559 m -2 X s 1447 564 m -2
 X s 1450 570 m -5 X s 1447 575 m -2 X s 1447 581 m -2 X s 1447 586 m -2 X s 1447 592 m -2 X s 1450 597 m -5 X s 1450 405 m -5 X s 1447 399 m -2 X s 1447 394 m -2 X s 1450 597 m -5 X s 1447 603 m -2 X s 1447 608 m -2 X s 1447 614 m -2 X s 1447 619 m
 -2 X s
 gsave  408 306 1383 345 C 1393.11 398.845 t 0 r /Helvetica findfont 22.8295 sf 0 0 m (\2550.01) show NC gr 
 gsave  408 306 1383 345 C 1427.29 424.485 t 0 r /Helvetica findfont 22.8295 sf 0 0 m (0) show NC gr 
 gsave  408 306 1383 345 C 1398.81 452.974 t 0 r /Helvetica findfont 22.8295 sf 0 0 m (0.01) show NC gr 
 gsave  408 306 1383 345 C 1395.96 478.614 t 0 r /Helvetica findfont 22.8295 sf 0 0 m (0.02) show NC gr 
 gsave  408 306 1383 345 C 1395.96 507.102 t 0 r /Helvetica findfont 22.8295 sf 0 0 m (0.03) show NC gr 
 gsave  408 306 1383 345 C 1395.96 535.591 t 0 r /Helvetica findfont 22.8295 sf 0 0 m (0.04) show NC gr 
 gsave  408 306 1383 345 C 1395.96 561.231 t 0 r /Helvetica findfont 22.8295 sf 0 0 m (0.05) show NC gr 
 gsave  408 306 1383 345 C 1395.96 589.72 t 0 r /Helvetica findfont 22.8295 sf 0 0 m (0.06) show NC gr  1751 391 m 229 Y s 1745 405 m 6 X s 1748 410 m 3 X s 1748 416 m 3 X s 1748 421 m 3 X s 1748 427 m 3 X s 1745 432 m 6 X s 1748 438 m 3 X s 1748 443
 m 3 X s 1748 449 m 3 X s 1748 454 m 3 X s 1745 460 m 6 X s 1748 465 m 3 X s 1748 471 m 3 X s 1748 476 m 3 X s 1748 482 m 3 X s 1745 487 m 6 X s 1748 493 m 3 X s 1748 498 m 3 X s 1748 504 m 3 X s 1748 509 m 3 X s 1745 515 m 6 X s 1748 520 m 3 X s
 1748 526 m 3 X s 1748 531 m 3 X s 1748 537 m 3 X s 1745 542 m 6 X s 1748 548 m 3 X s 1748 553 m 3 X s 1748 559 m 3 X s 1748 564 m 3 X s 1745 570 m 6 X s 1748 575 m 3 X s 1748 581 m 3 X s 1748 586 m 3 X s 1748 592 m 3 X s 1745 597 m 6 X s 1745 405 m
 6 X s 1748 399 m 3 X s 1748 394 m 3 X s 1745 597 m 6 X s 1748 603 m 3 X s 1748 608 m 3 X s 1748 614 m 3 X s 1748 619 m 3 X s 1590 427 1638 427 1686 461 1735 583 4 { m21} R 1590 439 m 5 Y s 1584 444 m 11 X s 1590 416 m -6 Y s 1584 410 m 11 X s 1638
 439 m 6 Y s 1632 445 m 12 X s 1638 416 m -6 Y s 1632 410 m 12 X s 1686 472 m 6 Y s 1681 478 m 11 X s 1686 450 m -6 Y s 1681 444 m 11 X s 1735 594 m 7 Y s 1729 601 m 11 X s 1735 572 m -7 Y s 1729 565 m 11 X s 1 0 0 c 9 lw 0.95 0.95 0.95 c black 1 0 0
 c 1446 432 m 15 X 3 1 d 13 X 3 1 d 9 X 3 1 d 6 X 3 1 d 3 X 3 1 d 6 X 3 1 d 4 X 3 1 d 3 X 3 1 d 3 1 d 3 X 3 1 d 3 1 d 3 X 3 1 d 3 1 d 3 X 3 1 d 3 1 d 3 1 d 3 X 4 1 d 3 1 d 3 1 d 3 1 d 3 1 d 3 1 d 3 1 d 3 1 d 3 1 d 3 1 d s 1596 458 m 3 1 d 3 1 d 3 1 d
 3 1 d 3 1 d 3 1 d 4 1 d 3 2 d 3 1 d 3 1 d 3 1 d 3 2 d 3 1 d 3 1 d 3 2 d 3 1 d 3 1 d 3 2 d 3 1 d 3 2 d 3 1 d 3 1 d 3 2 d 4 1 d 3 2 d 3 2 d 3 1 d 3 2 d 3 1 d 3 2 d 3 2 d 3 1 d 3 2 d 3 2 d 3 2 d 3 1 d 3 2 d 3 2 d 3 2 d 4 2 d 3 2 d 3 1 d 3 2 d 3 2 d 3 2
 d 3 2 d 3 2 d 3 2 d 3 2 d s 1746 533 m 3 2 d s 0.49 0.6 0.82 c black 0.49 0.6 0.82 c
 gsave  408 306 1383 345 C 1504.21 629.605 t 0 r /Helvetica-Bold findfont 25.6831 sf 0 0 m (6.5 < E < 7.0 GeV) show NC gr  0.52 0.76 0.64 c black 0.52 0.76 0.64 c
 gsave  408 306 1383 345 C 1489.97 592.569 t 0 r /Helvetica-Bold findfont 25.6831 sf 0 0 m 
 220 206 192 185 170 163 148 141 126 118 111 97 83 69 61 47 40 25 18
(A = 0.000, p = 2.000) K NC gr  1 0.6 1 c black 1 0.6 1 c
 gsave  408 306 1383 345 C 1789.1 458.671 t 90 r /Helvetica-Bold findfont 28.5368 sf 0 0 m (/dof=8.2) show NC gr  black 1 0.6 1 c
 gsave  408 306 1383 345 C 1777.71 447.276 t 90 r /Helvetica-Bold findfont 19.9758 sf 0 0 m (2) show NC gr  black 1 0.6 1 c
 gsave  408 306 1383 345 C 1789.1 430.182 t 90 r /Symbol findfont 28.5368 sf 0 0 m (c) show NC gr  black 3 lw 1 1 1 c 408 306 1837 345 bf black 1 1 1 c black 306 229 1898 391 bl 306 229 1898 391 bl 1898 391 m 306 X s 1898 395 m -4 Y s 2002 395 m -4 Y
 s 2105 395 m -4 Y s 2105 395 m -4 Y s
 gsave  408 306 1837 345 C 1888.81 370.356 t 0 r /Helvetica findfont 22.8295 sf 0 0 m (0) show NC gr 
 gsave  408 306 1837 345 C 1979.98 370.356 t 0 r /Helvetica findfont 22.8295 sf 0 0 m (500) show NC gr 
 gsave  408 306 1837 345 C 2079.69 370.356 t 0 r /Helvetica findfont 22.8295 sf 0 0 m (1000) show NC gr  1898 620 m 306 X s 1898 616 m 4 Y s 2002 616 m 4 Y s 2105 616 m 4 Y s 2105 616 m 4 Y s 1898 391 m 229 Y s 1904 424 m -6 X s 1901 433 m -3 X s
 1901 442 m -3 X s 1901 451 m -3 X s 1904 459 m -6 X s 1901 468 m -3 X s 1901 477 m -3 X s 1901 486 m -3 X s 1904 494 m -6 X s 1901 503 m -3 X s 1901 512 m -3 X s 1901 520 m -3 X s 1904 529 m -6 X s 1901 538 m -3 X s 1901 547 m -3 X s 1901 555 m -3 X
 s 1904 564 m -6 X s 1901 573 m -3 X s 1901 582 m -3 X s 1901 590 m -3 X s 1904 599 m -6 X s 1904 424 m -6 X s 1901 416 m -3 X s 1901 407 m -3 X s 1901 398 m -3 X s 1904 599 m -6 X s 1901 608 m -3 X s 1901 616 m -3 X s
 gsave  408 306 1837 345 C 1880.27 415.938 t 0 r /Helvetica findfont 22.8295 sf 0 0 m (0) show NC gr 
 gsave  408 306 1837 345 C 1848.93 452.974 t 0 r /Helvetica findfont 22.8295 sf 0 0 m (0.02) show NC gr 
 gsave  408 306 1837 345 C 1848.93 487.16 t 0 r /Helvetica findfont 22.8295 sf 0 0 m (0.04) show NC gr 
 gsave  408 306 1837 345 C 1848.93 521.347 t 0 r /Helvetica findfont 22.8295 sf 0 0 m (0.06) show NC gr 
 gsave  408 306 1837 345 C 1848.93 555.534 t 0 r /Helvetica findfont 22.8295 sf 0 0 m (0.08) show NC gr 
 gsave  408 306 1837 345 C 1866.02 592.569 t 0 r /Helvetica findfont 22.8295 sf 0 0 m (0.1) show NC gr  2204 391 m 229 Y s 2199 424 m 5 X s 2201 433 m 3 X s 2201 442 m 3 X s 2201 451 m 3 X s 2199 459 m 5 X s 2201 468 m 3 X s 2201 477 m 3 X s 2201 486
 m 3 X s 2199 494 m 5 X s 2201 503 m 3 X s 2201 512 m 3 X s 2201 520 m 3 X s 2199 529 m 5 X s 2201 538 m 3 X s 2201 547 m 3 X s 2201 555 m 3 X s 2199 564 m 5 X s 2201 573 m 3 X s 2201 582 m 3 X s 2201 590 m 3 X s 2199 599 m 5 X s 2199 424 m 5 X s
 2201 416 m 3 X s 2201 407 m 3 X s 2201 398 m 3 X s 2199 599 m 5 X s 2201 608 m 3 X s 2201 616 m 3 X s 2043 442 2091 422 2140 477 2188 588 4 { m21} R 2043 454 m 1 Y s 2037 455 m 12 X s 2043 431 m -1 Y s 2037 430 m 12 X s 2091 434 m 1 Y s 2086 435 m
 11 X s 2091 411 m -1 Y s 2086 410 m 11 X s 2140 488 m 1 Y s 2134 489 m 11 X s 2140 465 m -1 Y s 2134 464 m 11 X s 2188 599 m 2 Y s 2183 601 m 11 X s 2188 576 m -2 Y s 2183 574 m 11 X s 1 0 0 c 9 lw 0.95 0.95 0.95 c black 1 0 0 c 1900 424 m 3 X 3 1 d
 18 X 3 1 d 9 X 3 1 d 7 X 3 1 d 3 X 3 1 d 3 X 3 1 d 3 X 3 1 d 3 X 3 1 d 3 1 d 3 X 3 1 d 3 1 d 3 X 3 1 d 4 1 d 3 1 d 3 1 d 3 X 3 1 d 3 1 d 3 1 d 3 1 d 3 1 d 3 1 d 3 1 d 3 1 d 3 1 d 3 1 d 3 2 d 3 1 d 3 1 d 4 1 d 3 1 d s 2050 455 m 3 2 d 3 1 d 3 1 d 3 2
 d 3 1 d 3 1 d 3 2 d 3 1 d 3 2 d 3 1 d 3 2 d 3 1 d 3 2 d 3 1 d 4 2 d 3 2 d 3 1 d 3 2 d 3 2 d 3 1 d 3 2 d 3 2 d 3 2 d 3 2 d 3 1 d 3 2 d 3 2 d 3 2 d 3 2 d 3 2 d 4 2 d 3 2 d 3 2 d 3 2 d 3 3 d 3 2 d 3 2 d 3 2 d 3 2 d 3 2 d 3 3 d 3 2 d 3 2 d 3 3 d 3 2 d 3
 2 d 4 3 d 3 2 d 3 3 d s 2200 547 m 3 2 d s 0.49 0.6 0.82 c black 0.49 0.6 0.82 c
 gsave  408 306 1837 345 C 1957.19 629.605 t 0 r /Helvetica-Bold findfont 25.6831 sf 0 0 m (7.0 < E < 7.5 GeV) show NC gr  0.52 0.76 0.64 c black 0.52 0.76 0.64 c
 gsave  408 306 1837 345 C 1942.94 592.569 t 0 r /Helvetica-Bold findfont 25.6831 sf 0 0 m 
 220 206 192 185 170 163 148 141 125 118 111 97 83 69 61 47 40 25 18
(A = 0.000, p = 2.000) K NC gr  1 0.6 1 c black 1 0.6 1 c
 gsave  408 306 1837 345 C 2242.08 450.125 t 90 r /Helvetica-Bold findfont 28.5368 sf 0 0 m (/dof=12.3) show NC gr  black 1 0.6 1 c
 gsave  408 306 1837 345 C 2230.68 438.729 t 90 r /Helvetica-Bold findfont 19.9758 sf 0 0 m (2) show NC gr  black 1 0.6 1 c
 gsave  408 306 1837 345 C 2242.08 421.636 t 90 r /Symbol findfont 28.5368 sf 0 0 m (c) show NC gr  black 3 lw 1 1 1 c 408 306 23 13 bf black 1 1 1 c black 306 229 84 59 bl 306 229 84 59 bl 84 59 m 306 X s 84 63 m -4 Y s 188 63 m -4 Y s 291 63 m -4 Y
 s 291 63 m -4 Y s
 gsave  408 306 23 13 C 74.0711 39.8845 t 0 r /Helvetica findfont 22.8295 sf 0 0 m (0) show NC gr 
 gsave  408 306 23 13 C 165.236 39.8845 t 0 r /Helvetica findfont 22.8295 sf 0 0 m (500) show NC gr 
 gsave  408 306 23 13 C 264.947 39.8845 t 0 r /Helvetica findfont 22.8295 sf 0 0 m (1000) show NC gr  84 288 m 306 X s 84 284 m 4 Y s 188 284 m 4 Y s 291 284 m 4 Y s 291 284 m 4 Y s 84 59 m 229 Y s 89 59 m -5 X s 87 70 m -3 X s 87 82 m -3 X s 87 93 m
 -3 X s 89 104 m -5 X s 87 115 m -3 X s 87 127 m -3 X s 87 138 m -3 X s 89 149 m -5 X s 87 161 m -3 X s 87 172 m -3 X s 87 183 m -3 X s 89 194 m -5 X s 87 206 m -3 X s 87 217 m -3 X s 87 228 m -3 X s 89 240 m -5 X s 87 251 m -3 X s 87 262 m -3 X s 87
 273 m -3 X s 89 285 m -5 X s 89 285 m -5 X s
 gsave  408 306 23 13 C 65.5245 51.28 t 0 r /Helvetica findfont 22.8295 sf 0 0 m (0) show NC gr 
 gsave  408 306 23 13 C 34.1867 96.8623 t 0 r /Helvetica findfont 22.8295 sf 0 0 m (0.02) show NC gr 
 gsave  408 306 23 13 C 34.1867 142.445 t 0 r /Helvetica findfont 22.8295 sf 0 0 m (0.04) show NC gr 
 gsave  408 306 23 13 C 34.1867 188.027 t 0 r /Helvetica findfont 22.8295 sf 0 0 m (0.06) show NC gr 
 gsave  408 306 23 13 C 34.1867 233.609 t 0 r /Helvetica findfont 22.8295 sf 0 0 m (0.08) show NC gr 
 gsave  408 306 23 13 C 51.28 276.342 t 0 r /Helvetica findfont 22.8295 sf 0 0 m (0.1) show NC gr  390 59 m 229 Y s 385 59 m 5 X s 387 70 m 3 X s 387 82 m 3 X s 387 93 m 3 X s 385 104 m 5 X s 387 115 m 3 X s 387 127 m 3 X s 387 138 m 3 X s 385 149 m
 5 X s 387 161 m 3 X s 387 172 m 3 X s 387 183 m 3 X s 385 194 m 5 X s 387 206 m 3 X s 387 217 m 3 X s 387 228 m 3 X s 385 240 m 5 X s 387 251 m 3 X s 387 262 m 3 X s 387 273 m 3 X s 385 285 m 5 X s 385 285 m 5 X s /w 22 def /w2 {w 2 div} def /w3 {w
 3 div} def 229 80 277 84 326 144 374 249 4 { m21} R 229 92 m 6 Y s 223 98 m 12 X s 229 69 m -7 Y s 223 62 m 12 X s 277 96 m 6 Y s 272 102 m 11 X s 277 73 m -7 Y s 272 66 m 11 X s 326 155 m 7 Y s 320 162 m 11 X s 326 133 m -7 Y s 320 126 m 11 X s 374
 260 m 8 Y s 368 268 m 12 X s 374 237 m -7 Y s 368 230 m 12 X s 1 0 0 c 9 lw 0.95 0.95 0.95 c black 1 0 0 c 85 59 m 13 X 3 1 d 9 X 3 1 d 6 X 3 1 d 3 X 3 1 d 3 X 3 1 d 3 X 4 1 d 3 X 3 1 d 3 1 d 3 1 d 3 X 3 1 d 3 1 d 3 1 d 3 1 d 3 1 d 3 1 d 3 1 d 3 1 d
 3 1 d 3 1 d 4 1 d 3 1 d 3 1 d 3 2 d 3 1 d 3 1 d 3 1 d 3 2 d 3 1 d 3 2 d 3 1 d 3 2 d 3 1 d 3 2 d 3 1 d 3 2 d s 235 100 m 4 2 d 3 1 d 3 2 d 3 2 d 3 2 d 3 2 d 3 1 d 3 2 d 3 2 d 3 2 d 3 2 d 3 2 d 3 2 d 3 2 d 3 3 d 3 2 d 3 2 d 4 2 d 3 2 d 3 3 d 3 2 d 3 2
 d 3 3 d 3 2 d 3 3 d 3 2 d 3 3 d 3 2 d 3 3 d 3 3 d 3 2 d 3 3 d 3 3 d 4 3 d 3 2 d 3 3 d 3 3 d 3 3 d 3 3 d 3 3 d 3 3 d 3 3 d 3 3 d 3 3 d 3 3 d 3 3 d 3 4 d 3 3 d 3 3 d s 385 221 m 4 3 d s 0.49 0.6 0.82 c black 0.49 0.6 0.82 c
 gsave  408 306 23 13 C 142.445 296.285 t 0 r /Helvetica-Bold findfont 25.6831 sf 0 0 m (7.5 < E < 8.0 GeV) show NC gr  0.52 0.76 0.64 c black 0.52 0.76 0.64 c
 gsave  408 306 23 13 C 128.2 259.249 t 0 r /Helvetica-Bold findfont 25.6831 sf 0 0 m 
 220 206 192 185 170 163 148 141 126 118 111 97 83 69 61 47 40 25 18
(A = 0.000, p = 2.000) K NC gr  1 0.6 1 c black 1 0.6 1 c
 gsave  408 306 23 13 C 427.334 128.2 t 90 r /Helvetica-Bold findfont 28.5368 sf 0 0 m (/dof=4.0) show NC gr  black 1 0.6 1 c
 gsave  408 306 23 13 C 415.938 116.804 t 90 r /Helvetica-Bold findfont 19.9758 sf 0 0 m (2) show NC gr  black 1 0.6 1 c
 gsave  408 306 23 13 C 427.334 99.7112 t 90 r /Symbol findfont 28.5368 sf 0 0 m (c) show NC gr  black 3 lw 1 1 1 c 408 306 476 13 bf black 1 1 1 c black 307 229 537 59 bl 307 229 537 59 bl 537 59 m 307 X s 537 63 m -4 Y s 641 63 m -4 Y s 745 63 m -4
 Y s 745 63 m -4 Y s
 gsave  408 306 476 13 C 527.045 39.8845 t 0 r /Helvetica findfont 22.8295 sf 0 0 m (0) show NC gr 
 gsave  408 306 476 13 C 621.058 39.8845 t 0 r /Helvetica findfont 22.8295 sf 0 0 m (500) show NC gr 
 gsave  408 306 476 13 C 717.92 39.8845 t 0 r /Helvetica findfont 22.8295 sf 0 0 m (1000) show NC gr  537 288 m 307 X s 537 284 m 4 Y s 641 284 m 4 Y s 745 284 m 4 Y s 745 284 m 4 Y s 537 59 m 229 Y s 543 83 m -6 X s 540 91 m -3 X s 540 100 m -3 X s
 540 108 m -3 X s 543 116 m -6 X s 540 125 m -3 X s 540 133 m -3 X s 540 142 m -3 X s 543 150 m -6 X s 540 159 m -3 X s 540 167 m -3 X s 540 176 m -3 X s 543 184 m -6 X s 540 193 m -3 X s 540 201 m -3 X s 540 210 m -3 X s 543 218 m -6 X s 540 227 m
 -3 X s 540 235 m -3 X s 540 244 m -3 X s 543 252 m -6 X s 540 261 m -3 X s 540 269 m -3 X s 540 278 m -3 X s 543 286 m -6 X s 543 83 m -6 X s 540 74 m -3 X s 540 66 m -3 X s 543 286 m -6 X s
 gsave  408 306 476 13 C 518.498 74.0711 t 0 r /Helvetica findfont 22.8295 sf 0 0 m (0) show NC gr 
 gsave  408 306 476 13 C 487.16 108.258 t 0 r /Helvetica findfont 22.8295 sf 0 0 m (0.02) show NC gr 
 gsave  408 306 476 13 C 487.16 142.445 t 0 r /Helvetica findfont 22.8295 sf 0 0 m (0.04) show NC gr 
 gsave  408 306 476 13 C 487.16 176.631 t 0 r /Helvetica findfont 22.8295 sf 0 0 m (0.06) show NC gr 
 gsave  408 306 476 13 C 487.16 210.818 t 0 r /Helvetica findfont 22.8295 sf 0 0 m (0.08) show NC gr 
 gsave  408 306 476 13 C 504.254 245.005 t 0 r /Helvetica findfont 22.8295 sf 0 0 m (0.1) show NC gr 
 gsave  408 306 476 13 C 487.16 279.191 t 0 r /Helvetica findfont 22.8295 sf 0 0 m (0.12) show NC gr  844 59 m 229 Y s 838 83 m 6 X s 841 91 m 3 X s 841 100 m 3 X s 841 108 m 3 X s 838 116 m 6 X s 841 125 m 3 X s 841 133 m 3 X s 841 142 m 3 X s 838
 150 m 6 X s 841 159 m 3 X s 841 167 m 3 X s 841 176 m 3 X s 838 184 m 6 X s 841 193 m 3 X s 841 201 m 3 X s 841 210 m 3 X s 838 218 m 6 X s 841 227 m 3 X s 841 235 m 3 X s 841 244 m 3 X s 838 252 m 6 X s 841 261 m 3 X s 841 269 m 3 X s 841 278 m 3 X
 s 838 286 m 6 X s 838 83 m 6 X s 841 74 m 3 X s 841 66 m 3 X s 838 286 m 6 X s /w 23 def /w2 {w 2 div} def /w3 {w 3 div} def 683 93 731 98 779 127 828 254 4 { m21} R 683 104 m 3 Y s 677 107 m 11 X s 683 81 m -3 Y s 677 78 m 11 X s 731 109 m 3 Y s
 725 112 m 12 X s 731 86 m -3 Y s 725 83 m 12 X s 779 139 m 3 Y s 773 142 m 12 X s 779 116 m -3 Y s 773 113 m 12 X s 828 265 m 4 Y s 822 269 m 11 X s 828 242 m -4 Y s 822 238 m 11 X s 1 0 0 c 9 lw 0.95 0.95 0.95 c black 1 0 0 c 539 83 m 21 X 3 1 d 10
 X 3 1 d 6 X 3 1 d 3 X 3 1 d 3 X 3 1 d 3 X 3 1 d 3 X 3 1 d 3 X 4 1 d 3 1 d 3 X 3 1 d 3 1 d 3 1 d 3 1 d 3 X 3 1 d 3 1 d 3 1 d 3 1 d 3 1 d 3 1 d 3 1 d 3 1 d 3 1 d 4 1 d 3 1 d 3 2 d 3 1 d 3 1 d 3 1 d 3 1 d 3 2 d s 689 115 m 3 1 d 3 1 d 3 2 d 3 1 d 3 1 d
 3 2 d 3 1 d 3 2 d 4 1 d 3 2 d 3 2 d 3 1 d 3 2 d 3 1 d 3 2 d 3 2 d 3 1 d 3 2 d 3 2 d 3 2 d 3 2 d 3 2 d 3 1 d 3 2 d 4 2 d 3 2 d 3 2 d 3 2 d 3 2 d 3 2 d 3 2 d 3 3 d 3 2 d 3 2 d 3 2 d 3 2 d 3 3 d 3 2 d 3 2 d 3 3 d 4 2 d 3 2 d 3 3 d 3 2 d 3 3 d 3 2 d 3 3
 d 3 2 d 3 3 d s 839 210 m 3 2 d s 0.49 0.6 0.82 c black 0.49 0.6 0.82 c
 gsave  408 306 476 13 C 595.418 296.285 t 0 r /Helvetica-Bold findfont 25.6831 sf 0 0 m (8.0 < E < 8.5 GeV) show NC gr  0.52 0.76 0.64 c black 0.52 0.76 0.64 c
 gsave  408 306 476 13 C 581.174 259.249 t 0 r /Helvetica-Bold findfont 25.6831 sf 0 0 m 
 220 206 192 185 170 163 148 141 125 118 111 97 83 68 61 47 40 25 18
(A = 0.000, p = 2.000) K NC gr  1 0.6 1 c black 1 0.6 1 c
 gsave  408 306 476 13 C 883.156 128.2 t 90 r /Helvetica-Bold findfont 28.5368 sf 0 0 m (/dof=8.9) show NC gr  black 1 0.6 1 c
 gsave  408 306 476 13 C 871.76 116.804 t 90 r /Helvetica-Bold findfont 19.9758 sf 0 0 m (2) show NC gr  black 1 0.6 1 c
 gsave  408 306 476 13 C 883.156 99.7112 t 90 r /Symbol findfont 28.5368 sf 0 0 m (c) show NC gr  black 3 lw 1 1 1 c 408 306 930 13 bf black 1 1 1 c black 306 229 991 59 bl 306 229 991 59 bl 991 59 m 306 X s 991 63 m -4 Y s 1095 63 m -4 Y s 1198 63 m
 -4 Y s 1198 63 m -4 Y s
 gsave  408 306 930 13 C 980.018 39.8845 t 0 r /Helvetica findfont 22.8295 sf 0 0 m (0) show NC gr 
 gsave  408 306 930 13 C 1074.03 39.8845 t 0 r /Helvetica findfont 22.8295 sf 0 0 m (500) show NC gr 
 gsave  408 306 930 13 C 1170.89 39.8845 t 0 r /Helvetica findfont 22.8295 sf 0 0 m (1000) show NC gr  991 288 m 306 X s 991 284 m 4 Y s 1095 284 m 4 Y s 1198 284 m 4 Y s 1198 284 m 4 Y s 991 59 m 229 Y s 997 74 m -6 X s 994 81 m -3 X s 994 87 m -3 X
 s 994 93 m -3 X s 997 100 m -6 X s 994 106 m -3 X s 994 112 m -3 X s 994 119 m -3 X s 997 125 m -6 X s 994 131 m -3 X s 994 138 m -3 X s 994 144 m -3 X s 997 150 m -6 X s 994 157 m -3 X s 994 163 m -3 X s 994 169 m -3 X s 997 176 m -6 X s 994 182 m
 -3 X s 994 188 m -3 X s 994 195 m -3 X s 997 201 m -6 X s 994 207 m -3 X s 994 214 m -3 X s 994 220 m -3 X s 997 226 m -6 X s 994 233 m -3 X s 994 239 m -3 X s 994 245 m -3 X s 997 252 m -6 X s 994 258 m -3 X s 994 264 m -3 X s 994 271 m -3 X s 997
 277 m -6 X s 997 74 m -6 X s 994 68 m -3 X s 994 62 m -3 X s 997 277 m -6 X s 994 283 m -3 X s
 gsave  408 306 930 13 C 937.285 68.3734 t 0 r /Helvetica findfont 22.8295 sf 0 0 m (\2550.02) show NC gr 
 gsave  408 306 930 13 C 974.32 91.1645 t 0 r /Helvetica findfont 22.8295 sf 0 0 m (0) show NC gr 
 gsave  408 306 930 13 C 942.983 116.804 t 0 r /Helvetica findfont 22.8295 sf 0 0 m (0.02) show NC gr 
 gsave  408 306 930 13 C 942.983 142.445 t 0 r /Helvetica findfont 22.8295 sf 0 0 m (0.04) show NC gr 
 gsave  408 306 930 13 C 942.983 168.085 t 0 r /Helvetica findfont 22.8295 sf 0 0 m (0.06) show NC gr 
 gsave  408 306 930 13 C 942.983 193.725 t 0 r /Helvetica findfont 22.8295 sf 0 0 m (0.08) show NC gr 
 gsave  408 306 930 13 C 960.076 219.365 t 0 r /Helvetica findfont 22.8295 sf 0 0 m (0.1) show NC gr 
 gsave  408 306 930 13 C 942.983 245.005 t 0 r /Helvetica findfont 22.8295 sf 0 0 m (0.12) show NC gr 
 gsave  408 306 930 13 C 942.983 270.645 t 0 r /Helvetica findfont 22.8295 sf 0 0 m (0.14) show NC gr  1297 59 m 229 Y s 1292 74 m 5 X s 1294 81 m 3 X s 1294 87 m 3 X s 1294 93 m 3 X s 1292 100 m 5 X s 1294 106 m 3 X s 1294 112 m 3 X s 1294 119 m 3 X
 s 1292 125 m 5 X s 1294 131 m 3 X s 1294 138 m 3 X s 1294 144 m 3 X s 1292 150 m 5 X s 1294 157 m 3 X s 1294 163 m 3 X s 1294 169 m 3 X s 1292 176 m 5 X s 1294 182 m 3 X s 1294 188 m 3 X s 1294 195 m 3 X s 1292 201 m 5 X s 1294 207 m 3 X s 1294 214
 m 3 X s 1294 220 m 3 X s 1292 226 m 5 X s 1294 233 m 3 X s 1294 239 m 3 X s 1294 245 m 3 X s 1292 252 m 5 X s 1294 258 m 3 X s 1294 264 m 3 X s 1294 271 m 3 X s 1292 277 m 5 X s 1292 74 m 5 X s 1294 68 m 3 X s 1294 62 m 3 X s 1292 277 m 5 X s 1294
 283 m 3 X s 1136 90 1184 118 1233 150 1281 256 4 { m21} R 1136 101 m s 1130 101 m 12 X s 1136 78 m s 1130 78 m 12 X s 1184 129 m s 1179 129 m 11 X s 1184 106 m s 1179 106 m 11 X s 1233 161 m 1 Y s 1227 162 m 11 X s 1233 139 m -1 Y s 1227 138 m 11 X
 s 1281 268 m 1 Y s 1275 269 m 12 X s 1281 245 m -1 Y s 1275 244 m 12 X s 1 0 0 c 9 lw 0.95 0.95 0.95 c black 1 0 0 c 993 100 m 21 X 3 1 d 9 X 3 1 d 6 X 3 1 d 7 X 3 1 d 3 X 3 1 d 3 X 3 1 d 3 X 3 1 d 3 1 d 3 X 3 1 d 3 1 d 3 X 3 1 d 3 1 d 3 1 d 4 X 3 1
 d 3 1 d 3 1 d 3 1 d 3 1 d 3 1 d 3 1 d 3 1 d 3 1 d 3 1 d 3 1 d 3 1 d 3 1 d 3 1 d 3 1 d 4 1 d s 1143 129 m 3 2 d 3 1 d 3 1 d 3 1 d 3 2 d 3 1 d 3 1 d 3 2 d 3 1 d 3 2 d 3 1 d 3 2 d 3 1 d 3 2 d 3 1 d 4 2 d 3 1 d 3 2 d 3 2 d 3 1 d 3 2 d 3 2 d 3 2 d 3 1 d
 3 2 d 3 2 d 3 2 d 3 2 d 3 2 d 3 1 d 3 2 d 3 2 d 4 2 d 3 2 d 3 2 d 3 3 d 3 2 d 3 2 d 3 2 d 3 2 d 3 2 d 3 2 d 3 3 d 3 2 d 3 2 d 3 3 d 3 2 d 3 2 d 4 3 d s 1293 218 m 3 2 d s 0.49 0.6 0.82 c black 0.49 0.6 0.82 c
 gsave  408 306 930 13 C 1051.24 296.285 t 0 r /Helvetica-Bold findfont 25.6831 sf 0 0 m (8.5 < E < 9.0 GeV) show NC gr  0.52 0.76 0.64 c black 0.52 0.76 0.64 c
 gsave  408 306 930 13 C 1037 259.249 t 0 r /Helvetica-Bold findfont 25.6831 sf 0 0 m 
 220 206 192 185 170 163 148 141 125 118 111 97 83 69 61 47 40 25 18
(A = 0.000, p = 2.000) K NC gr  1 0.6 1 c black 1 0.6 1 c
 gsave  408 306 930 13 C 1336.13 119.653 t 90 r /Helvetica-Bold findfont 28.5368 sf 0 0 m (/dof=12.0) show NC gr  black 1 0.6 1 c
 gsave  408 306 930 13 C 1324.73 108.258 t 90 r /Helvetica-Bold findfont 19.9758 sf 0 0 m (2) show NC gr  black 1 0.6 1 c
 gsave  408 306 930 13 C 1336.13 91.1645 t 90 r /Symbol findfont 28.5368 sf 0 0 m (c) show NC gr  black 3 lw 1 1 1 c 408 306 1383 13 bf black 1 1 1 c black 306 229 1445 59 bl 306 229 1445 59 bl 1445 59 m 306 X s 1445 63 m -4 Y s 1548 63 m -4 Y s 1652
 63 m -4 Y s 1652 63 m -4 Y s
 gsave  408 306 1383 13 C 1435.84 39.8845 t 0 r /Helvetica findfont 22.8295 sf 0 0 m (0) show NC gr 
 gsave  408 306 1383 13 C 1527.01 39.8845 t 0 r /Helvetica findfont 22.8295 sf 0 0 m (500) show NC gr 
 gsave  408 306 1383 13 C 1623.87 39.8845 t 0 r /Helvetica findfont 22.8295 sf 0 0 m (1000) show NC gr  1445 288 m 306 X s 1445 284 m 4 Y s 1548 284 m 4 Y s 1652 284 m 4 Y s 1652 284 m 4 Y s 1445 59 m 229 Y s 1450 70 m -5 X s 1447 75 m -2 X s 1447 81
 m -2 X s 1447 87 m -2 X s 1450 93 m -5 X s 1447 98 m -2 X s 1447 104 m -2 X s 1447 110 m -2 X s 1450 116 m -5 X s 1447 121 m -2 X s 1447 127 m -2 X s 1447 133 m -2 X s 1450 139 m -5 X s 1447 144 m -2 X s 1447 150 m -2 X s 1447 156 m -2 X s 1450 162
 m -5 X s 1447 167 m -2 X s 1447 173 m -2 X s 1447 179 m -2 X s 1450 185 m -5 X s 1447 190 m -2 X s 1447 196 m -2 X s 1447 202 m -2 X s 1450 208 m -5 X s 1447 213 m -2 X s 1447 219 m -2 X s 1447 225 m -2 X s 1450 231 m -5 X s 1447 236 m -2 X s 1447
 242 m -2 X s 1447 248 m -2 X s 1450 254 m -5 X s 1447 259 m -2 X s 1447 265 m -2 X s 1447 271 m -2 X s 1450 277 m -5 X s 1450 70 m -5 X s 1447 64 m -2 X s 1450 277 m -5 X s 1447 282 m -2 X s
 gsave  408 306 1383 13 C 1390.26 62.6756 t 0 r /Helvetica findfont 22.8295 sf 0 0 m (\2550.02) show NC gr 
 gsave  408 306 1383 13 C 1427.29 85.4667 t 0 r /Helvetica findfont 22.8295 sf 0 0 m (0) show NC gr 
 gsave  408 306 1383 13 C 1395.96 108.258 t 0 r /Helvetica findfont 22.8295 sf 0 0 m (0.02) show NC gr 
 gsave  408 306 1383 13 C 1395.96 131.049 t 0 r /Helvetica findfont 22.8295 sf 0 0 m (0.04) show NC gr 
 gsave  408 306 1383 13 C 1395.96 153.84 t 0 r /Helvetica findfont 22.8295 sf 0 0 m (0.06) show NC gr 
 gsave  408 306 1383 13 C 1395.96 176.631 t 0 r /Helvetica findfont 22.8295 sf 0 0 m (0.08) show NC gr 
 gsave  408 306 1383 13 C 1413.05 199.422 t 0 r /Helvetica findfont 22.8295 sf 0 0 m (0.1) show NC gr 
 gsave  408 306 1383 13 C 1395.96 222.213 t 0 r /Helvetica findfont 22.8295 sf 0 0 m (0.12) show NC gr 
 gsave  408 306 1383 13 C 1395.96 247.853 t 0 r /Helvetica findfont 22.8295 sf 0 0 m (0.14) show NC gr 
 gsave  408 306 1383 13 C 1395.96 270.645 t 0 r /Helvetica findfont 22.8295 sf 0 0 m (0.16) show NC gr  1751 59 m 229 Y s 1745 70 m 6 X s 1748 75 m 3 X s 1748 81 m 3 X s 1748 87 m 3 X s 1745 93 m 6 X s 1748 98 m 3 X s 1748 104 m 3 X s 1748 110 m 3 X
 s 1745 116 m 6 X s 1748 121 m 3 X s 1748 127 m 3 X s 1748 133 m 3 X s 1745 139 m 6 X s 1748 144 m 3 X s 1748 150 m 3 X s 1748 156 m 3 X s 1745 162 m 6 X s 1748 167 m 3 X s 1748 173 m 3 X s 1748 179 m 3 X s 1745 185 m 6 X s 1748 190 m 3 X s 1748 196
 m 3 X s 1748 202 m 3 X s 1745 208 m 6 X s 1748 213 m 3 X s 1748 219 m 3 X s 1748 225 m 3 X s 1745 231 m 6 X s 1748 236 m 3 X s 1748 242 m 3 X s 1748 248 m 3 X s 1745 254 m 6 X s 1748 259 m 3 X s 1748 265 m 3 X s 1748 271 m 3 X s 1745 277 m 6 X s
 1745 70 m 6 X s 1748 64 m 3 X s 1745 277 m 6 X s 1748 282 m 3 X s 1590 89 1638 99 1686 151 1735 257 4 { m21} R 1686 162 m s 1681 162 m 11 X s 1686 139 m s 1681 139 m 11 X s 1735 268 m 1 Y s 1729 269 m 11 X s 1735 245 m -1 Y s 1729 244 m 11 X s 1 0 0
 c 9 lw 0.95 0.95 0.95 c black 1 0 0 c 1446 93 m 21 X 4 1 d 9 X 3 1 d 6 X 3 1 d 3 X 3 1 d 6 X 3 1 d 3 1 d 3 X 3 1 d 4 X 3 1 d 3 1 d 3 X 3 1 d 3 1 d 3 X 3 1 d 3 1 d 3 1 d 3 1 d 3 1 d 3 1 d 3 X 3 1 d 3 1 d 4 1 d 3 1 d 3 1 d 3 2 d 3 1 d 3 1 d 3 1 d 3 1
 d 3 1 d 3 2 d s 1596 124 m 3 1 d 3 1 d 3 1 d 3 2 d 3 1 d 3 2 d 4 1 d 3 1 d 3 2 d 3 1 d 3 2 d 3 1 d 3 2 d 3 2 d 3 1 d 3 2 d 3 2 d 3 1 d 3 2 d 3 2 d 3 1 d 3 2 d 3 2 d 4 2 d 3 2 d 3 2 d 3 2 d 3 2 d 3 1 d 3 2 d 3 3 d 3 2 d 3 2 d 3 2 d 3 2 d 3 2 d 3 2 d
 3 2 d 3 3 d 4 2 d 3 2 d 3 2 d 3 3 d 3 2 d 3 2 d 3 3 d 3 2 d 3 3 d 3 2 d s 1746 215 m 3 3 d s 0.49 0.6 0.82 c black 0.49 0.6 0.82 c
 gsave  408 306 1383 13 C 1504.21 296.285 t 0 r /Helvetica-Bold findfont 25.6831 sf 0 0 m (9.0 < E < 9.5 GeV) show NC gr  0.52 0.76 0.64 c black 0.52 0.76 0.64 c
 gsave  408 306 1383 13 C 1489.97 259.249 t 0 r /Helvetica-Bold findfont 25.6831 sf 0 0 m 
 220 206 192 185 170 163 148 141 126 118 111 97 83 69 61 47 40 25 18
(A = 0.000, p = 2.000) K NC gr  1 0.6 1 c black 1 0.6 1 c
 gsave  408 306 1383 13 C 1789.1 119.653 t 90 r /Helvetica-Bold findfont 28.5368 sf 0 0 m (/dof=14.3) show NC gr  black 1 0.6 1 c
 gsave  408 306 1383 13 C 1777.71 108.258 t 90 r /Helvetica-Bold findfont 19.9758 sf 0 0 m (2) show NC gr  black 1 0.6 1 c
 gsave  408 306 1383 13 C 1789.1 91.1645 t 90 r /Symbol findfont 28.5368 sf 0 0 m (c) show NC gr  black 3 lw 1 1 1 c 408 306 1837 13 bf black 1 1 1 c black 306 229 1898 59 bl 306 229 1898 59 bl 1898 59 m 306 X s 1898 63 m -4 Y s 2002 63 m -4 Y s 2105
 63 m -4 Y s 2105 63 m -4 Y s
 gsave  408 306 1837 13 C 1888.81 39.8845 t 0 r /Helvetica findfont 22.8295 sf 0 0 m (0) show NC gr 
 gsave  408 306 1837 13 C 1979.98 39.8845 t 0 r /Helvetica findfont 22.8295 sf 0 0 m (500) show NC gr 
 gsave  408 306 1837 13 C 2079.69 39.8845 t 0 r /Helvetica findfont 22.8295 sf 0 0 m (1000) show NC gr  1898 288 m 306 X s 1898 284 m 4 Y s 2002 284 m 4 Y s 2105 284 m 4 Y s 2105 284 m 4 Y s 1898 59 m 229 Y s 1904 59 m -6 X s 1901 65 m -3 X s 1901 70
 m -3 X s 1901 76 m -3 X s 1904 81 m -6 X s 1901 87 m -3 X s 1901 92 m -3 X s 1901 98 m -3 X s 1904 103 m -6 X s 1901 109 m -3 X s 1901 115 m -3 X s 1901 120 m -3 X s 1904 126 m -6 X s 1901 131 m -3 X s 1901 137 m -3 X s 1901 142 m -3 X s 1904 148 m
 -6 X s 1901 153 m -3 X s 1901 159 m -3 X s 1901 165 m -3 X s 1904 170 m -6 X s 1901 176 m -3 X s 1901 181 m -3 X s 1901 187 m -3 X s 1904 192 m -6 X s 1901 198 m -3 X s 1901 203 m -3 X s 1901 209 m -3 X s 1904 214 m -6 X s 1901 220 m -3 X s 1901 226
 m -3 X s 1901 231 m -3 X s 1904 237 m -6 X s 1901 242 m -3 X s 1901 248 m -3 X s 1901 253 m -3 X s 1904 259 m -6 X s 1901 264 m -3 X s 1901 270 m -3 X s 1901 275 m -3 X s 1904 281 m -6 X s 1904 281 m -6 X s 1901 287 m -3 X s
 gsave  408 306 1837 13 C 1880.27 51.28 t 0 r /Helvetica findfont 22.8295 sf 0 0 m (0) show NC gr 
 gsave  408 306 1837 13 C 1848.93 74.0711 t 0 r /Helvetica findfont 22.8295 sf 0 0 m (0.02) show NC gr 
 gsave  408 306 1837 13 C 1848.93 96.8623 t 0 r /Helvetica findfont 22.8295 sf 0 0 m (0.04) show NC gr 
 gsave  408 306 1837 13 C 1848.93 119.653 t 0 r /Helvetica findfont 22.8295 sf 0 0 m (0.06) show NC gr 
 gsave  408 306 1837 13 C 1848.93 139.596 t 0 r /Helvetica findfont 22.8295 sf 0 0 m (0.08) show NC gr 
 gsave  408 306 1837 13 C 1866.02 162.387 t 0 r /Helvetica findfont 22.8295 sf 0 0 m (0.1) show NC gr 
 gsave  408 306 1837 13 C 1848.93 185.178 t 0 r /Helvetica findfont 22.8295 sf 0 0 m (0.12) show NC gr 
 gsave  408 306 1837 13 C 1848.93 207.969 t 0 r /Helvetica findfont 22.8295 sf 0 0 m (0.14) show NC gr 
 gsave  408 306 1837 13 C 1848.93 230.76 t 0 r /Helvetica findfont 22.8295 sf 0 0 m (0.16) show NC gr 
 gsave  408 306 1837 13 C 1848.93 250.702 t 0 r /Helvetica findfont 22.8295 sf 0 0 m (0.18) show NC gr 
 gsave  408 306 1837 13 C 1863.17 273.493 t 0 r /Helvetica findfont 22.8295 sf 0 0 m (0.2) show NC gr  2204 59 m 229 Y s 2199 59 m 5 X s 2201 65 m 3 X s 2201 70 m 3 X s 2201 76 m 3 X s 2199 81 m 5 X s 2201 87 m 3 X s 2201 92 m 3 X s 2201 98 m 3 X s
 2199 103 m 5 X s 2201 109 m 3 X s 2201 115 m 3 X s 2201 120 m 3 X s 2199 126 m 5 X s 2201 131 m 3 X s 2201 137 m 3 X s 2201 142 m 3 X s 2199 148 m 5 X s 2201 153 m 3 X s 2201 159 m 3 X s 2201 165 m 3 X s 2199 170 m 5 X s 2201 176 m 3 X s 2201 181 m
 3 X s 2201 187 m 3 X s 2199 192 m 5 X s 2201 198 m 3 X s 2201 203 m 3 X s 2201 209 m 3 X s 2199 214 m 5 X s 2201 220 m 3 X s 2201 226 m 3 X s 2201 231 m 3 X s 2199 237 m 5 X s 2201 242 m 3 X s 2201 248 m 3 X s 2201 253 m 3 X s 2199 259 m 5 X s 2201
 264 m 3 X s 2201 270 m 3 X s 2201 275 m 3 X s 2199 281 m 5 X s 2199 281 m 5 X s 2201 287 m 3 X s 2043 71 2091 91 2140 134 2188 254 4 { m21} R 2043 83 m s 2037 83 m 12 X s 2043 60 m s 2037 60 m 12 X s 2091 103 m s 2086 103 m 11 X s 2091 80 m -1 Y s
 2086 79 m 11 X s 2140 145 m 1 Y s 2134 146 m 11 X s 2140 122 m s 2134 122 m 11 X s 2188 265 m 2 Y s 2183 267 m 11 X s 2188 243 m -2 Y s 2183 241 m 11 X s 1 0 0 c 9 lw 0.95 0.95 0.95 c black 1 0 0 c 1900 59 m 12 X 3 1 d 9 X 3 1 d 6 X 3 1 d 3 X 3 1 d
 4 X 3 1 d 3 X 3 1 d 3 X 3 1 d 3 1 d 3 X 3 1 d 3 1 d 3 1 d 3 1 d 3 X 3 1 d 3 1 d 3 1 d 4 1 d 3 1 d 3 1 d 3 2 d 3 1 d 3 1 d 3 1 d 3 1 d 3 2 d 3 1 d 3 1 d 3 2 d 3 1 d 3 1 d 3 2 d 3 1 d 3 2 d 4 2 d 3 1 d s 2050 99 m 3 2 d 3 1 d 3 2 d 3 2 d 3 2 d 3 1 d 3
 2 d 3 2 d 3 2 d 3 2 d 3 2 d 3 2 d 3 2 d 3 2 d 4 2 d 3 2 d 3 2 d 3 3 d 3 2 d 3 2 d 3 2 d 3 3 d 3 2 d 3 2 d 3 3 d 3 2 d 3 3 d 3 2 d 3 3 d 3 2 d 4 3 d 3 3 d 3 2 d 3 3 d 3 3 d 3 3 d 3 2 d 3 3 d 3 3 d 3 3 d 3 3 d 3 3 d 3 3 d 3 3 d 3 3 d 3 3 d 4 3 d 3 3 d
 3 4 d s 2200 218 m 3 3 d s 0.49 0.6 0.82 c black 0.49 0.6 0.82 c
 gsave  408 306 1837 13 C 1948.64 296.285 t 0 r /Helvetica-Bold findfont 25.6831 sf 0 0 m (9.5 < E < 10.0 GeV) show NC gr  0.52 0.76 0.64 c black 0.52 0.76 0.64 c
 gsave  408 306 1837 13 C 1942.94 259.249 t 0 r /Helvetica-Bold findfont 25.6831 sf 0 0 m 
 220 206 192 185 170 163 148 141 125 118 111 97 83 69 61 47 40 25 18
(A = 0.000, p = 2.000) K NC gr  1 0.6 1 c black 1 0.6 1 c
 gsave  408 306 1837 13 C 2242.08 119.653 t 90 r /Helvetica-Bold findfont 28.5368 sf 0 0 m (/dof=10.1) show NC gr  black 1 0.6 1 c
 gsave  408 306 1837 13 C 2230.68 108.258 t 90 r /Helvetica-Bold findfont 19.9758 sf 0 0 m (2) show NC gr  black 1 0.6 1 c
 gsave  408 306 1837 13 C 2242.08 91.1645 t 90 r /Symbol findfont 28.5368 sf 0 0 m (c) show NC gr 
 gr  gr showpage
end
%%EOF
