%!PS-Adobe-2.0 EPSF-2.0
%%BoundingBox:  0 0 567 332
%%Title: Tilt_t_p90d_near_summary.eps: Summary
%%Creator: ROOT Version 5.30/06
%%CreationDate: Sun Feb  2 09:42:53 2014
%%EndComments
%%BeginProlog
80 dict begin
/s {stroke} def /l {lineto} def /m {moveto} def /t {translate} def
/r {rotate} def /rl {roll}  def /R {repeat} def
/d {rlineto} def /rm {rmoveto} def /gr {grestore} def /f {eofill} def
/c {setrgbcolor} def /black {0 setgray} def /sd {setdash} def
/cl {closepath} def /sf {scalefont setfont} def /lw {setlinewidth} def
/box {m dup 0 exch d exch 0 d 0 exch neg d cl} def
/NC{systemdict begin initclip end}def/C{NC box clip newpath}def
/bl {box s} def /bf {box f} def /Y { 0 exch d} def /X { 0 d} def 
/K {{pop pop 0 moveto} exch kshow} bind def
/ita {/ang 15 def gsave [1 0 ang dup sin exch cos div 1 0 0] concat} def 
/mp {newpath /y exch def /x exch def} def
/side {[w .77 mul w .23 mul] .385 w mul sd w 0 l currentpoint t -144 r} def
/mr {mp x y w2 0 360 arc} def /m24 {mr s} def /m20 {mr f} def
/mb {mp x y w2 add m w2 neg 0 d 0 w neg d w 0 d 0 w d cl} def
/mt {mp x y w2 add m w2 neg w neg d w 0 d cl} def
/m21 {mb f} def /m25 {mb s} def /m22 {mt f} def /m26{mt s} def
/m23 {mp x y w2 sub m w2 w d w neg 0 d cl f} def
/m27 {mp x y w2 add m w3 neg w2 neg d w3 w2 neg d w3 w2 d cl s} def
/m28 {mp x w2 sub y w2 sub w3 add m w3 0 d  0 w3 neg d w3 0 d 0 w3 d w3 0 d  0 w3 d w3 neg 0 d 0 w3 d w3 neg 0 d 0 w3 neg d w3 neg 0 d cl s } def
/m29 {mp gsave x w2 sub y w2 add w3 sub m currentpoint t 4 {side} repeat cl fill gr} def
/m30 {mp gsave x w2 sub y w2 add w3 sub m currentpoint t 4 {side} repeat cl s gr} def
/m31 {mp x y w2 sub m 0 w d x w2 sub y m w 0 d x w2 sub y w2 add m w w neg d x w2 sub y w2 sub m w w d s} def
/m32 {mp x y w2 sub m w2 w d w neg 0 d cl s} def
/m33 {mp x y w2 add m w3 neg w2 neg d w3 w2 neg d w3 w2 d cl f} def
/m34 {mp x w2 sub y w2 sub w3 add m w3 0 d  0 w3 neg d w3 0 d 0 w3 d w3 0 d  0 w3 d w3 neg 0 d 0 w3 d w3 neg 0 d 0 w3 neg d w3 neg 0 d cl f } def
/m2 {mp x y w2 sub m 0 w d x w2 sub y m w 0 d s} def
/m5 {mp x w2 sub y w2 sub m w w d x w2 sub y w2 add m w w neg d s} def
/reEncode {exch findfont dup length dict begin {1 index /FID eq  {pop pop} {def} ifelse } forall /Encoding exch def currentdict end dup /FontName get exch definefont pop } def [/Times-Bold /Times-Italic /Times-BoldItalic /Helvetica /Helvetica-Oblique
 /Helvetica-Bold /Helvetica-BoldOblique /Courier /Courier-Oblique /Courier-Bold /Courier-BoldOblique /Times-Roman /AvantGarde-Book /AvantGarde-BookOblique /AvantGarde-Demi /AvantGarde-DemiOblique /Bookman-Demi /Bookman-DemiItalic /Bookman-Light
 /Bookman-LightItalic /Helvetica-Narrow /Helvetica-Narrow-Bold /Helvetica-Narrow-BoldOblique /Helvetica-Narrow-Oblique /NewCenturySchlbk-Roman /NewCenturySchlbk-Bold /NewCenturySchlbk-BoldItalic /NewCenturySchlbk-Italic /Palatino-Bold
 /Palatino-BoldItalic /Palatino-Italic /Palatino-Roman ] {ISOLatin1Encoding reEncode } forall%%EndProlog
%%BeginSetup
%%EndSetup
newpath  gsave  .25 .25 scale  gsave  0 0 t black[  ] 0 sd 3 lw 1 1 1 c 2268 1328 0 0 bf black 1 1 1 c black 1588 996 340 199 bl 1588 996 340 199 bl 1 1 1 c 1 0 0 c /w 23 def /w2 {w 2 div} def /w3 {w 3 div} def 380 311 m21 459 309 m21 539 308 m21 618
 306 m21 697 309 m21 777 308 m21 856 310 m21 935 310 m21 1015 297 m21 1094 321 m21 1174 314 m21 black 1253 283 m 2 Y s 1253 308 m 3 Y s 1247 283 m 12 X s 1247 311 m 12 X s 1 0 0 c 1253 297 m21 black 1332 311 m 5 Y s 1332 339 m 5 Y s 1327 311 m 11 X s
 1327 344 m 11 X s 1 0 0 c 1332 328 m21 black 1412 280 m 8 Y s 1412 311 m 7 Y s 1406 280 m 11 X s 1406 318 m 11 X s 1 0 0 c 1412 299 m21 black 1491 294 m 9 Y s 1491 326 m 9 Y s 1485 294 m 12 X s 1485 335 m 12 X s 1 0 0 c 1491 314 m21 black 1570 280 m
 11 Y s 1570 313 m 11 Y s 1565 280 m 11 X s 1565 324 m 11 X s 1 0 0 c 1570 302 m21 black 1650 287 m 12 Y s 1650 322 m 12 Y s 1644 287 m 11 X s 1644 334 m 11 X s 1 0 0 c 1650 310 m21 black 1729 260 m 14 Y s 1729 297 m 13 Y s 1723 260 m 12 X s 1723 310
 m 12 X s 1 0 0 c 1729 285 m21 black 1809 300 m 15 Y s 1809 338 m 15 Y s 1803 300 m 11 X s 1803 353 m 11 X s 1 0 0 c 1809 326 m21 black 1888 319 m 17 Y s 1888 359 m 17 Y s 1882 319 m 12 X s 1882 376 m 12 X s 1 0 0 c 1888 348 m21 black 340 199 m 1588
 X s
 gsave  2268 1328 0 0 C 954.378 68.3734 t 0 r /Helvetica findfont 62.6756 sf 0 0 m ( Energy \(GeV\) ) show NC gr 
 gsave  2268 1328 0 0 C 928.738 51.28 t 0 r /Symbol findfont 42.7334 sf 0 0 m (m) show NC gr 
 gsave  2268 1328 0 0 C 894.552 68.3734 t 0 r /Symbol findfont 62.6756 sf 0 0 m (n) show NC gr  340 216 m -17 Y s 372 208 m -9 Y s 404 208 m -9 Y s 435 208 m -9 Y s 467 208 m -9 Y s 499 216 m -17 Y s 531 208 m -9 Y s 562 208 m -9 Y s 594 208 m -9 Y s
 626 208 m -9 Y s 658 216 m -17 Y s 689 208 m -9 Y s 721 208 m -9 Y s 753 208 m -9 Y s 785 208 m -9 Y s 816 216 m -17 Y s 848 208 m -9 Y s 880 208 m -9 Y s 912 208 m -9 Y s 943 208 m -9 Y s 975 216 m -17 Y s 1007 208 m -9 Y s 1039 208 m -9 Y s 1070
 208 m -9 Y s 1102 208 m -9 Y s 1134 216 m -17 Y s 1166 208 m -9 Y s 1197 208 m -9 Y s 1229 208 m -9 Y s 1261 208 m -9 Y s 1293 216 m -17 Y s 1324 208 m -9 Y s 1356 208 m -9 Y s 1388 208 m -9 Y s 1420 208 m -9 Y s 1451 216 m -17 Y s 1483 208 m -9 Y s
 1515 208 m -9 Y s 1547 208 m -9 Y s 1578 208 m -9 Y s 1610 216 m -17 Y s 1642 208 m -9 Y s 1674 208 m -9 Y s 1705 208 m -9 Y s 1737 208 m -9 Y s 1769 216 m -17 Y s 1801 208 m -9 Y s 1832 208 m -9 Y s 1864 208 m -9 Y s 1896 208 m -9 Y s 1928 216 m
 -17 Y s
 gsave  2268 1328 0 0 C 319.076 136.747 t 0 r /Helvetica findfont 68.3734 sf 0 0 m (0) show NC gr 
 gsave  2268 1328 0 0 C 484.311 136.747 t 0 r /Helvetica findfont 68.3734 sf 0 0 m (1) show NC gr 
 gsave  2268 1328 0 0 C 635.302 136.747 t 0 r /Helvetica findfont 68.3734 sf 0 0 m (2) show NC gr 
 gsave  2268 1328 0 0 C 794.84 136.747 t 0 r /Helvetica findfont 68.3734 sf 0 0 m (3) show NC gr 
 gsave  2268 1328 0 0 C 954.378 136.747 t 0 r /Helvetica findfont 68.3734 sf 0 0 m (4) show NC gr 
 gsave  2268 1328 0 0 C 1113.92 136.747 t 0 r /Helvetica findfont 68.3734 sf 0 0 m (5) show NC gr 
 gsave  2268 1328 0 0 C 1270.6 136.747 t 0 r /Helvetica findfont 68.3734 sf 0 0 m (6) show NC gr 
 gsave  2268 1328 0 0 C 1430.14 136.747 t 0 r /Helvetica findfont 68.3734 sf 0 0 m (7) show NC gr 
 gsave  2268 1328 0 0 C 1589.68 136.747 t 0 r /Helvetica findfont 68.3734 sf 0 0 m (8) show NC gr 
 gsave  2268 1328 0 0 C 1746.37 136.747 t 0 r /Helvetica findfont 68.3734 sf 0 0 m (9) show NC gr 
 gsave  2268 1328 0 0 C 1888.81 136.747 t 0 r /Helvetica findfont 68.3734 sf 0 0 m (10) show NC gr  340 1195 m 1588 X s 340 1178 m 17 Y s 372 1186 m 9 Y s 404 1186 m 9 Y s 435 1186 m 9 Y s 467 1186 m 9 Y s 499 1178 m 17 Y s 531 1186 m 9 Y s 562 1186
 m 9 Y s 594 1186 m 9 Y s 626 1186 m 9 Y s 658 1178 m 17 Y s 689 1186 m 9 Y s 721 1186 m 9 Y s 753 1186 m 9 Y s 785 1186 m 9 Y s 816 1178 m 17 Y s 848 1186 m 9 Y s 880 1186 m 9 Y s 912 1186 m 9 Y s 943 1186 m 9 Y s 975 1178 m 17 Y s 1007 1186 m 9 Y s
 1039 1186 m 9 Y s 1070 1186 m 9 Y s 1102 1186 m 9 Y s 1134 1178 m 17 Y s 1166 1186 m 9 Y s 1197 1186 m 9 Y s 1229 1186 m 9 Y s 1261 1186 m 9 Y s 1293 1178 m 17 Y s 1324 1186 m 9 Y s 1356 1186 m 9 Y s 1388 1186 m 9 Y s 1420 1186 m 9 Y s 1451 1178 m
 17 Y s 1483 1186 m 9 Y s 1515 1186 m 9 Y s 1547 1186 m 9 Y s 1578 1186 m 9 Y s 1610 1178 m 17 Y s 1642 1186 m 9 Y s 1674 1186 m 9 Y s 1705 1186 m 9 Y s 1737 1186 m 9 Y s 1769 1178 m 17 Y s 1801 1186 m 9 Y s 1832 1186 m 9 Y s 1864 1186 m 9 Y s 1896
 1186 m 9 Y s 1928 1178 m 17 Y s 340 199 m 996 Y s
 gsave  2268 1328 0 0 C 170.933 324.773 t 90 r /Helvetica findfont 62.6756 sf 0 0 m (Near Flux Ratio to Nominal) show NC gr  371 199 m -31 X s 355 221 m -15 X s 355 243 m -15 X s 355 266 m -15 X s 355 288 m -15 X s 371 310 m -31 X s 355 332 m -15 X s
 355 354 m -15 X s 355 376 m -15 X s 355 398 m -15 X s 371 420 m -31 X s 355 443 m -15 X s 355 465 m -15 X s 355 487 m -15 X s 355 509 m -15 X s 371 531 m -31 X s 355 553 m -15 X s 355 575 m -15 X s 355 597 m -15 X s 355 620 m -15 X s 371 642 m -31 X
 s 355 664 m -15 X s 355 686 m -15 X s 355 708 m -15 X s 355 730 m -15 X s 371 752 m -31 X s 355 774 m -15 X s 355 797 m -15 X s 355 819 m -15 X s 355 841 m -15 X s 371 863 m -31 X s 355 885 m -15 X s 355 907 m -15 X s 355 929 m -15 X s 355 951 m -15
 X s 371 974 m -31 X s 355 996 m -15 X s 355 1018 m -15 X s 355 1040 m -15 X s 355 1062 m -15 X s 371 1084 m -31 X s 355 1106 m -15 X s 355 1128 m -15 X s 355 1151 m -15 X s 355 1173 m -15 X s 371 1195 m -31 X s 371 199 m -31 X s 371 1195 m -31 X s
 gsave  2268 1328 0 0 C 196.573 173.782 t 0 r /Helvetica findfont 68.3734 sf 0 0 m (0.95) show NC gr 
 gsave  2268 1328 0 0 C 301.982 282.04 t 0 r /Helvetica findfont 68.3734 sf 0 0 m (1) show NC gr 
 gsave  2268 1328 0 0 C 196.573 395.996 t 0 r /Helvetica findfont 68.3734 sf 0 0 m (1.05) show NC gr 
 gsave  2268 1328 0 0 C 245.005 504.254 t 0 r /Helvetica findfont 68.3734 sf 0 0 m (1.1) show NC gr 
 gsave  2268 1328 0 0 C 196.573 618.209 t 0 r /Helvetica findfont 68.3734 sf 0 0 m (1.15) show NC gr 
 gsave  2268 1328 0 0 C 233.609 726.467 t 0 r /Helvetica findfont 68.3734 sf 0 0 m (1.2) show NC gr 
 gsave  2268 1328 0 0 C 196.573 837.574 t 0 r /Helvetica findfont 68.3734 sf 0 0 m (1.25) show NC gr 
 gsave  2268 1328 0 0 C 233.609 948.68 t 0 r /Helvetica findfont 68.3734 sf 0 0 m (1.3) show NC gr 
 gsave  2268 1328 0 0 C 196.573 1059.79 t 0 r /Helvetica findfont 68.3734 sf 0 0 m (1.35) show NC gr 
 gsave  2268 1328 0 0 C 233.609 1168.04 t 0 r /Helvetica findfont 68.3734 sf 0 0 m (1.4) show NC gr  1928 199 m 996 Y s 1897 199 m 31 X s 1912 221 m 16 X s 1912 243 m 16 X s 1912 266 m 16 X s 1912 288 m 16 X s 1897 310 m 31 X s 1912 332 m 16 X s 1912
 354 m 16 X s 1912 376 m 16 X s 1912 398 m 16 X s 1897 420 m 31 X s 1912 443 m 16 X s 1912 465 m 16 X s 1912 487 m 16 X s 1912 509 m 16 X s 1897 531 m 31 X s 1912 553 m 16 X s 1912 575 m 16 X s 1912 597 m 16 X s 1912 620 m 16 X s 1897 642 m 31 X s
 1912 664 m 16 X s 1912 686 m 16 X s 1912 708 m 16 X s 1912 730 m 16 X s 1897 752 m 31 X s 1912 774 m 16 X s 1912 797 m 16 X s 1912 819 m 16 X s 1912 841 m 16 X s 1897 863 m 31 X s 1912 885 m 16 X s 1912 907 m 16 X s 1912 929 m 16 X s 1912 951 m 16 X
 s 1897 974 m 31 X s 1912 996 m 16 X s 1912 1018 m 16 X s 1912 1040 m 16 X s 1912 1062 m 16 X s 1897 1084 m 31 X s 1912 1106 m 16 X s 1912 1128 m 16 X s 1912 1151 m 16 X s 1912 1173 m 16 X s 1897 1195 m 31 X s 1897 199 m 31 X s 1897 1195 m 31 X s 1 0
 0 c 6 lw 1 1 1 c 1 0 0 c 380 303 m 15 -2 d 15 -1 d 17 -2 d 14 -1 d 16 -1 d 2 -1 d 13 X 12 -1 d 134 X 79 -2 d 26 1 d 54 X 64 1 d 15 X 79 1 d 80 X 12 1 d 11 1 d 15 2 d 27 4 d 14 2 d 33 4 d 19 3 d 18 3 d 10 2 d 17 3 d 21 4 d 41 9 d 10 2 d 18 4 d 19 5 d
 10 2 d 8 2 d 8 1 d 6 1 d 8 1 d 8 1 d 52 X 9 1 d 3 X 18 1 d 23 2 d 27 2 d 11 2 d 9 1 d 11 1 d 24 4 d 11 1 d 8 1 d 7 1 d 16 X 8 -1 d 9 X 11 -2 d 41 -5 d 4 X 9 -1 d 21 -3 d 11 -2 d 9 -1 d 7 X 7 -1 d 6 X 5 1 d 9 X 4 1 d 5 2 d 5 1 d 7 3 d 8 3 d 14 5 d 7
 3 d 5 2 d 5 1 d 5 1 d 4 1 d 4 1 d 21 X 7 -1 d 6 -1 d 8 -1 d 6 -1 d 6 -2 d 7 -1 d 7 -3 d 6 -2 d 7 -3 d s 3 lw /w 2 def /w2 {w 2 div} def /w3 {w 3 div} def 380 303 459 295 539 294 618 294 697 292 777 293 856 294 935 295 1015 295 1094 305 1174 317 1253
 333 1332 350 1412 353 1491 360 1570 369 1650 361 1729 354 1809 378 1888 363 20 { m20} R 6 lw black 1 0 0 c
 gsave  2268 1328 0 0 C 2025.56 364.658 t 0 r /Helvetica-Bold findfont 48.4311 sf 0 0 m 
 186 172 145 120 91 75 44 14
(/dof=11.2) K NC gr  black 1 0 0 c
 gsave  2268 1328 0 0 C 2005.62 381.751 t 0 r /Helvetica-Bold findfont 34.1867 sf 0 0 m (2) show NC gr  black 1 0 0 c
 gsave  2268 1328 0 0 C 1979.98 364.658 t 0 r /Symbol findfont 48.4311 sf 0 0 m (c) show NC gr  black 3 lw 340 310 m 1588 X s
 gsave  2268 1328 0 0 C 424.485 1213.63 t 0 r /Helvetica-Bold findfont 42.7334 sf 0 0 m (700 ) show NC gr  1 0 0 c /w 23 def /w2 {w 2 div} def /w3 {w 3 div} def 383 1228 m21 black 1 1 1 c 0 0 1 c 380 529 m21 459 520 m21 539 523 m21 618 522 m21 697
 520 m21 777 522 m21 856 531 m21 935 528 m21 1015 514 m21 1094 522 m21 black 1174 523 m 1 Y s 1174 547 m 1 Y s 1168 523 m 11 X s 1168 548 m 11 X s 0 0 1 c 1174 536 m21 black 1253 517 m 4 Y s 1253 544 m 4 Y s 1247 517 m 12 X s 1247 548 m 12 X s 0 0 1
 c 1253 532 m21 black 1332 541 m 7 Y s 1332 571 m 7 Y s 1327 541 m 11 X s 1327 578 m 11 X s 0 0 1 c 1332 559 m21 black 1412 503 m 9 Y s 1412 535 m 9 Y s 1406 503 m 11 X s 1406 544 m 11 X s 0 0 1 c 1412 524 m21 black 1491 545 m 11 Y s 1491 579 m 12 Y
 s 1485 545 m 12 X s 1485 591 m 12 X s 0 0 1 c 1491 568 m21 black 1570 559 m 13 Y s 1570 595 m 14 Y s 1565 559 m 11 X s 1565 609 m 11 X s 0 0 1 c 1570 584 m21 black 1650 504 m 15 Y s 1650 542 m 14 Y s 1644 504 m 11 X s 1644 556 m 11 X s 0 0 1 c 1650
 530 m21 black 1729 483 m 16 Y s 1729 522 m 16 Y s 1723 483 m 12 X s 1723 538 m 12 X s 0 0 1 c 1729 511 m21 black 1809 595 m 18 Y s 1809 636 m 19 Y s 1803 595 m 11 X s 1803 655 m 11 X s 0 0 1 c 1809 625 m21 black 1888 534 m 20 Y s 1888 577 m 19 Y s
 1882 534 m 12 X s 1882 596 m 12 X s 0 0 1 c 1888 565 m21 6 lw 1 1 1 c 0 0 1 c 380 519 m 15 -4 d 15 -4 d 17 -3 d 14 -3 d 16 -2 d 2 X 13 -1 d 12 -1 d 55 X 32 -1 d 47 X 79 -3 d 26 X 54 2 d 64 2 d 15 X 79 1 d 22 X 26 -1 d 12 1 d 10 X 10 1 d 12 2 d 11 2
 d 15 4 d 27 7 d 14 3 d 33 9 d 19 6 d 18 6 d 10 3 d 17 6 d 21 8 d 41 16 d 10 5 d 18 8 d 19 10 d 10 4 d 8 4 d 8 2 d 6 2 d 8 1 d 8 2 d 10 X 10 1 d 32 X 9 1 d 3 X 18 3 d 23 3 d 27 5 d 11 2 d 9 2 d 11 3 d 24 8 d 11 2 d 8 2 d 7 1 d 7 1 d 2 X 7 -1 d 8 X 9
 -2 d 11 -2 d 41 -11 d 4 -1 d 9 -2 d 21 -6 d 11 -3 d 9 -1 d 7 -1 d 7 -1 d 6 X 5 1 d 4 X 5 1 d 4 2 d 5 3 d 5 3 d 7 4 d 8 7 d 14 11 d 7 5 d 5 3 d 5 3 d 5 2 d 4 2 d 4 X 2 1 d 19 X 7 -1 d 6 -2 d 8 -2 d 6 -3 d 6 -3 d 7 -3 d 7 -4 d 6 -5 d 7 -5 d s 3 lw /w
 2 def /w2 {w 2 div} def /w3 {w 3 div} def 380 519 459 503 539 501 618 500 697 497 777 499 856 501 935 502 1015 503 1094 521 1174 545 1253 575 1332 610 1412 615 1491 628 1570 647 1650 630 1729 617 1809 664 1888 636 20 { m20} R 6 lw black 0 0 1 c
 gsave  2268 1328 0 0 C 2022.71 615.36 t 0 r /Helvetica-Bold findfont 48.4311 sf 0 0 m (/dof=22.7) show NC gr  black 0 0 1 c
 gsave  2268 1328 0 0 C 2002.77 632.454 t 0 r /Helvetica-Bold findfont 34.1867 sf 0 0 m (2) show NC gr  black 0 0 1 c
 gsave  2268 1328 0 0 C 1977.13 615.36 t 0 r /Symbol findfont 48.4311 sf 0 0 m (c) show NC gr  black 3 lw 340 531 m 1588 X s
 gsave  2268 1328 0 0 C 877.458 1213.63 t 0 r /Helvetica-Bold findfont 42.7334 sf 0 0 m (933 ) show NC gr  0 0 1 c /w 23 def /w2 {w 2 div} def /w3 {w 3 div} def 836 1228 m21 black 1 1 1 c 1 0 1 c 380 740 m21 459 731 m21 539 721 m21 618 719 m21 697
 718 m21 777 717 m21 856 721 m21 935 723 m21 1015 719 m21 1094 747 m21 black 1174 751 m 3 Y s 1174 776 m 3 Y s 1168 751 m 11 X s 1168 779 m 11 X s 1 0 1 c 1174 765 m21 black 1253 792 m 6 Y s 1253 821 m 5 Y s 1247 792 m 12 X s 1247 826 m 12 X s 1 0 1
 c 1253 809 m21 black 1332 825 m 9 Y s 1332 857 m 9 Y s 1327 825 m 11 X s 1327 866 m 11 X s 1 0 1 c 1332 845 m21 black 1412 820 m 12 Y s 1412 854 m 12 Y s 1406 820 m 11 X s 1406 866 m 11 X s 1 0 1 c 1412 843 m21 black 1491 833 m 14 Y s 1491 870 m 14
 Y s 1485 833 m 12 X s 1485 884 m 12 X s 1 0 1 c 1491 858 m21 black 1570 879 m 17 Y s 1570 919 m 16 Y s 1565 879 m 11 X s 1565 935 m 11 X s 1 0 1 c 1570 907 m21 black 1650 793 m 18 Y s 1650 834 m 17 Y s 1644 793 m 11 X s 1644 851 m 11 X s 1 0 1 c
 1650 822 m21 black 1729 773 m 19 Y s 1729 815 m 19 Y s 1723 773 m 12 X s 1723 834 m 12 X s 1 0 1 c 1729 803 m21 black 1809 898 m 23 Y s 1809 943 m 23 Y s 1803 898 m 11 X s 1803 966 m 11 X s 1 0 1 c 1809 932 m21 black 1888 816 m 23 Y s 1888 861 m 24
 Y s 1882 816 m 12 X s 1882 885 m 12 X s 1 0 1 c 1888 850 m21 6 lw 1 1 1 c 1 0 1 c 380 731 m 15 -7 d 15 -6 d 17 -6 d 14 -4 d 16 -3 d 2 -1 d 13 -2 d 12 -1 d 16 X 39 -1 d 32 X 37 -1 d 10 X 79 -4 d 26 X 54 2 d 64 4 d 15 X 79 1 d 60 X 10 1 d 10 2 d 12 3
 d 11 3 d 15 6 d 27 12 d 14 7 d 33 15 d 19 9 d 18 10 d 10 5 d 17 11 d 21 14 d 41 28 d 10 8 d 18 14 d 19 16 d 10 8 d 8 5 d 8 5 d 6 3 d 8 2 d 8 2 d 10 2 d 10 X 32 1 d 9 1 d 3 1 d 18 4 d 23 6 d 27 8 d 11 4 d 9 4 d 11 5 d 24 12 d 11 5 d 8 3 d 7 1 d 7 1 d
 9 X 8 -1 d 9 -3 d 11 -4 d 41 -18 d 4 -2 d 9 -3 d 21 -10 d 11 -5 d 9 -3 d 7 -2 d 7 -1 d 6 X 5 1 d 4 1 d 5 2 d 4 3 d 5 4 d 5 6 d 7 7 d 8 11 d 14 19 d 7 9 d 5 6 d 5 5 d 5 3 d 4 2 d 4 2 d 2 X 6 1 d 6 X 7 -1 d 7 -2 d 6 -2 d 8 -4 d 6 -4 d 6 -5 d 7 -6 d 7
 -7 d 6 -8 d 7 -9 d s 3 lw /w 2 def /w2 {w 2 div} def /w3 {w 3 div} def 380 731 459 704 539 700 618 699 697 695 777 697 856 701 935 702 1015 705 1094 736 1174 775 1253 828 1332 887 1412 896 1491 918 1570 949 1650 921 1729 899 1809 978 1888 931 20 {
 m20} R 6 lw black 1 0 1 c
 gsave  2268 1328 0 0 C 2022.71 863.214 t 0 r /Helvetica-Bold findfont 48.4311 sf 0 0 m (/dof=16.6) show NC gr  black 1 0 1 c
 gsave  2268 1328 0 0 C 2002.77 880.307 t 0 r /Helvetica-Bold findfont 34.1867 sf 0 0 m (2) show NC gr  black 1 0 1 c
 gsave  2268 1328 0 0 C 1977.13 863.214 t 0 r /Symbol findfont 48.4311 sf 0 0 m (c) show NC gr  black 3 lw 340 752 m 1588 X s
 gsave  2268 1328 0 0 C 1330.43 1213.63 t 0 r /Helvetica-Bold findfont 42.7334 sf 0 0 m 
 93 69 45 22
(1166 ) K NC gr  1 0 1 c /w 23 def /w2 {w 2 div} def /w3 {w 3 div} def 1290 1228 m21 black 1 1 1 c 0 0.733333 1 c 380 927 m21 459 867 m21 539 862 m21 618 861 m21 697 850 m21 777 856 m21 856 860 m21 935 864 m21 1015 882 m21 1094 934 m21 black 1174
 1008 m 4 Y s 1174 1034 m 4 Y s 1168 1008 m 11 X s 1168 1038 m 11 X s 0 0.733333 1 c 1174 1023 m21 black 1253 1125 m 8 Y s 1253 1156 m 8 Y s 1247 1125 m 12 X s 1247 1164 m 12 X s 0 0.733333 1 c 1253 1144 m21 6 lw 1 1 1 c 0 0.733333 1 c 380 941 m 12
 -9 d 13 -9 d 13 -7 d 14 -7 d 12 -5 d 13 -5 d 2 X 10 -3 d 11 -2 d 12 -1 d 47 X 27 -1 d 42 -1 d 10 -1 d 79 -6 d 21 X 29 1 d 30 2 d 27 2 d 43 4 d 9 1 d 79 2 d 13 X 37 -2 d 10 1 d 9 1 d 9 2 d 2 1 d 9 4 d 11 5 d 10 6 d 14 9 d 35 25 d 25 18 d 19 14 d 15
 12 d 16 13 d 5 5 d 12 11 d 17 17 d 20 22 d 30 32 d 9 10 d 11 14 d 23 31 d 10 11 d 8 10 d 7 6 d 6 6 d 5 3 d 9 6 d 9 4 d 4 2 d s 3 lw /w 2 def /w2 {w 2 div} def /w3 {w 3 div} def 380 941 459 899 539 893 618 890 697 884 777 887 856 894 935 896 1015 899
 1094 948 1174 1010 1253 1092 1332 1183 1412 1195 14 { m20} R 6 lw 3 lw 1888 1195 m20 6 lw black 0 0.733333 1 c
 gsave  2268 1328 0 0 C 2022.71 1113.92 t 0 r /Helvetica-Bold findfont 48.4311 sf 0 0 m (/dof=32.6) show NC gr  black 0 0.733333 1 c
 gsave  2268 1328 0 0 C 2002.77 1131.01 t 0 r /Helvetica-Bold findfont 34.1867 sf 0 0 m (2) show NC gr  black 0 0.733333 1 c
 gsave  2268 1328 0 0 C 1977.13 1113.92 t 0 r /Symbol findfont 48.4311 sf 0 0 m (c) show NC gr  black 3 lw 340 974 m 1588 X s
 gsave  2268 1328 0 0 C 1783.41 1213.63 t 0 r /Helvetica-Bold findfont 42.7334 sf 0 0 m (1400 ) show NC gr  0 0.733333 1 c /w 23 def /w2 {w 2 div} def /w3 {w 3 div} def 1743 1228 m21
 gr  gr showpage
end
%%EOF
