%!PS-Adobe-2.0 EPSF-2.0
%%BoundingBox:  0 0 567 332
%%Title: Tilt_t_p0_near_summary.eps: Summary
%%Creator: ROOT Version 5.30/06
%%CreationDate: Sun Feb  2 09:42:36 2014
%%EndComments
%%BeginProlog
80 dict begin
/s {stroke} def /l {lineto} def /m {moveto} def /t {translate} def
/r {rotate} def /rl {roll}  def /R {repeat} def
/d {rlineto} def /rm {rmoveto} def /gr {grestore} def /f {eofill} def
/c {setrgbcolor} def /black {0 setgray} def /sd {setdash} def
/cl {closepath} def /sf {scalefont setfont} def /lw {setlinewidth} def
/box {m dup 0 exch d exch 0 d 0 exch neg d cl} def
/NC{systemdict begin initclip end}def/C{NC box clip newpath}def
/bl {box s} def /bf {box f} def /Y { 0 exch d} def /X { 0 d} def 
/K {{pop pop 0 moveto} exch kshow} bind def
/ita {/ang 15 def gsave [1 0 ang dup sin exch cos div 1 0 0] concat} def 
/mp {newpath /y exch def /x exch def} def
/side {[w .77 mul w .23 mul] .385 w mul sd w 0 l currentpoint t -144 r} def
/mr {mp x y w2 0 360 arc} def /m24 {mr s} def /m20 {mr f} def
/mb {mp x y w2 add m w2 neg 0 d 0 w neg d w 0 d 0 w d cl} def
/mt {mp x y w2 add m w2 neg w neg d w 0 d cl} def
/m21 {mb f} def /m25 {mb s} def /m22 {mt f} def /m26{mt s} def
/m23 {mp x y w2 sub m w2 w d w neg 0 d cl f} def
/m27 {mp x y w2 add m w3 neg w2 neg d w3 w2 neg d w3 w2 d cl s} def
/m28 {mp x w2 sub y w2 sub w3 add m w3 0 d  0 w3 neg d w3 0 d 0 w3 d w3 0 d  0 w3 d w3 neg 0 d 0 w3 d w3 neg 0 d 0 w3 neg d w3 neg 0 d cl s } def
/m29 {mp gsave x w2 sub y w2 add w3 sub m currentpoint t 4 {side} repeat cl fill gr} def
/m30 {mp gsave x w2 sub y w2 add w3 sub m currentpoint t 4 {side} repeat cl s gr} def
/m31 {mp x y w2 sub m 0 w d x w2 sub y m w 0 d x w2 sub y w2 add m w w neg d x w2 sub y w2 sub m w w d s} def
/m32 {mp x y w2 sub m w2 w d w neg 0 d cl s} def
/m33 {mp x y w2 add m w3 neg w2 neg d w3 w2 neg d w3 w2 d cl f} def
/m34 {mp x w2 sub y w2 sub w3 add m w3 0 d  0 w3 neg d w3 0 d 0 w3 d w3 0 d  0 w3 d w3 neg 0 d 0 w3 d w3 neg 0 d 0 w3 neg d w3 neg 0 d cl f } def
/m2 {mp x y w2 sub m 0 w d x w2 sub y m w 0 d s} def
/m5 {mp x w2 sub y w2 sub m w w d x w2 sub y w2 add m w w neg d s} def
/reEncode {exch findfont dup length dict begin {1 index /FID eq  {pop pop} {def} ifelse } forall /Encoding exch def currentdict end dup /FontName get exch definefont pop } def [/Times-Bold /Times-Italic /Times-BoldItalic /Helvetica /Helvetica-Oblique
 /Helvetica-Bold /Helvetica-BoldOblique /Courier /Courier-Oblique /Courier-Bold /Courier-BoldOblique /Times-Roman /AvantGarde-Book /AvantGarde-BookOblique /AvantGarde-Demi /AvantGarde-DemiOblique /Bookman-Demi /Bookman-DemiItalic /Bookman-Light
 /Bookman-LightItalic /Helvetica-Narrow /Helvetica-Narrow-Bold /Helvetica-Narrow-BoldOblique /Helvetica-Narrow-Oblique /NewCenturySchlbk-Roman /NewCenturySchlbk-Bold /NewCenturySchlbk-BoldItalic /NewCenturySchlbk-Italic /Palatino-Bold
 /Palatino-BoldItalic /Palatino-Italic /Palatino-Roman ] {ISOLatin1Encoding reEncode } forall%%EndProlog
%%BeginSetup
%%EndSetup
newpath  gsave  .25 .25 scale  gsave  0 0 t black[  ] 0 sd 3 lw 1 1 1 c 2268 1328 0 0 bf black 1 1 1 c black 1588 996 340 199 bl 1588 996 340 199 bl 1 1 1 c 1 0 0 c /w 23 def /w2 {w 2 div} def /w3 {w 3 div} def 380 312 m21 459 308 m21 539 311 m21 618
 312 m21 697 311 m21 777 308 m21 856 314 m21 935 307 m21 1015 297 m21 1094 321 m21 1174 318 m21 black 1253 312 m 3 Y s 1253 337 m 3 Y s 1247 312 m 12 X s 1247 340 m 12 X s 1 0 0 c 1253 326 m21 black 1332 288 m 6 Y s 1332 316 m 6 Y s 1327 288 m 11 X s
 1327 322 m 11 X s 1 0 0 c 1332 305 m21 black 1412 318 m 8 Y s 1412 349 m 7 Y s 1406 318 m 11 X s 1406 356 m 11 X s 1 0 0 c 1412 337 m21 black 1491 275 m 9 Y s 1491 307 m 9 Y s 1485 275 m 12 X s 1485 316 m 12 X s 1 0 0 c 1491 296 m21 black 1570 318 m
 11 Y s 1570 352 m 11 Y s 1565 318 m 11 X s 1565 363 m 11 X s 1 0 0 c 1570 340 m21 black 1650 296 m 13 Y s 1650 332 m 12 Y s 1644 296 m 11 X s 1644 344 m 11 X s 1 0 0 c 1650 320 m21 black 1729 277 m 13 Y s 1729 313 m 14 Y s 1723 277 m 12 X s 1723 327
 m 12 X s 1 0 0 c 1729 302 m21 black 1809 328 m 16 Y s 1809 366 m 16 Y s 1803 328 m 11 X s 1803 382 m 11 X s 1 0 0 c 1809 355 m21 black 1888 284 m 17 Y s 1888 324 m 16 Y s 1882 284 m 12 X s 1882 340 m 12 X s 1 0 0 c 1888 312 m21 black 340 199 m 1588
 X s
 gsave  2268 1328 0 0 C 954.378 68.3734 t 0 r /Helvetica findfont 62.6756 sf 0 0 m ( Energy \(GeV\) ) show NC gr 
 gsave  2268 1328 0 0 C 928.738 51.28 t 0 r /Symbol findfont 42.7334 sf 0 0 m (m) show NC gr 
 gsave  2268 1328 0 0 C 894.552 68.3734 t 0 r /Symbol findfont 62.6756 sf 0 0 m (n) show NC gr  340 216 m -17 Y s 372 208 m -9 Y s 404 208 m -9 Y s 435 208 m -9 Y s 467 208 m -9 Y s 499 216 m -17 Y s 531 208 m -9 Y s 562 208 m -9 Y s 594 208 m -9 Y s
 626 208 m -9 Y s 658 216 m -17 Y s 689 208 m -9 Y s 721 208 m -9 Y s 753 208 m -9 Y s 785 208 m -9 Y s 816 216 m -17 Y s 848 208 m -9 Y s 880 208 m -9 Y s 912 208 m -9 Y s 943 208 m -9 Y s 975 216 m -17 Y s 1007 208 m -9 Y s 1039 208 m -9 Y s 1070
 208 m -9 Y s 1102 208 m -9 Y s 1134 216 m -17 Y s 1166 208 m -9 Y s 1197 208 m -9 Y s 1229 208 m -9 Y s 1261 208 m -9 Y s 1293 216 m -17 Y s 1324 208 m -9 Y s 1356 208 m -9 Y s 1388 208 m -9 Y s 1420 208 m -9 Y s 1451 216 m -17 Y s 1483 208 m -9 Y s
 1515 208 m -9 Y s 1547 208 m -9 Y s 1578 208 m -9 Y s 1610 216 m -17 Y s 1642 208 m -9 Y s 1674 208 m -9 Y s 1705 208 m -9 Y s 1737 208 m -9 Y s 1769 216 m -17 Y s 1801 208 m -9 Y s 1832 208 m -9 Y s 1864 208 m -9 Y s 1896 208 m -9 Y s 1928 216 m
 -17 Y s
 gsave  2268 1328 0 0 C 319.076 136.747 t 0 r /Helvetica findfont 68.3734 sf 0 0 m (0) show NC gr 
 gsave  2268 1328 0 0 C 484.311 136.747 t 0 r /Helvetica findfont 68.3734 sf 0 0 m (1) show NC gr 
 gsave  2268 1328 0 0 C 635.302 136.747 t 0 r /Helvetica findfont 68.3734 sf 0 0 m (2) show NC gr 
 gsave  2268 1328 0 0 C 794.84 136.747 t 0 r /Helvetica findfont 68.3734 sf 0 0 m (3) show NC gr 
 gsave  2268 1328 0 0 C 954.378 136.747 t 0 r /Helvetica findfont 68.3734 sf 0 0 m (4) show NC gr 
 gsave  2268 1328 0 0 C 1113.92 136.747 t 0 r /Helvetica findfont 68.3734 sf 0 0 m (5) show NC gr 
 gsave  2268 1328 0 0 C 1270.6 136.747 t 0 r /Helvetica findfont 68.3734 sf 0 0 m (6) show NC gr 
 gsave  2268 1328 0 0 C 1430.14 136.747 t 0 r /Helvetica findfont 68.3734 sf 0 0 m (7) show NC gr 
 gsave  2268 1328 0 0 C 1589.68 136.747 t 0 r /Helvetica findfont 68.3734 sf 0 0 m (8) show NC gr 
 gsave  2268 1328 0 0 C 1746.37 136.747 t 0 r /Helvetica findfont 68.3734 sf 0 0 m (9) show NC gr 
 gsave  2268 1328 0 0 C 1888.81 136.747 t 0 r /Helvetica findfont 68.3734 sf 0 0 m (10) show NC gr  340 1195 m 1588 X s 340 1178 m 17 Y s 372 1186 m 9 Y s 404 1186 m 9 Y s 435 1186 m 9 Y s 467 1186 m 9 Y s 499 1178 m 17 Y s 531 1186 m 9 Y s 562 1186
 m 9 Y s 594 1186 m 9 Y s 626 1186 m 9 Y s 658 1178 m 17 Y s 689 1186 m 9 Y s 721 1186 m 9 Y s 753 1186 m 9 Y s 785 1186 m 9 Y s 816 1178 m 17 Y s 848 1186 m 9 Y s 880 1186 m 9 Y s 912 1186 m 9 Y s 943 1186 m 9 Y s 975 1178 m 17 Y s 1007 1186 m 9 Y s
 1039 1186 m 9 Y s 1070 1186 m 9 Y s 1102 1186 m 9 Y s 1134 1178 m 17 Y s 1166 1186 m 9 Y s 1197 1186 m 9 Y s 1229 1186 m 9 Y s 1261 1186 m 9 Y s 1293 1178 m 17 Y s 1324 1186 m 9 Y s 1356 1186 m 9 Y s 1388 1186 m 9 Y s 1420 1186 m 9 Y s 1451 1178 m
 17 Y s 1483 1186 m 9 Y s 1515 1186 m 9 Y s 1547 1186 m 9 Y s 1578 1186 m 9 Y s 1610 1178 m 17 Y s 1642 1186 m 9 Y s 1674 1186 m 9 Y s 1705 1186 m 9 Y s 1737 1186 m 9 Y s 1769 1178 m 17 Y s 1801 1186 m 9 Y s 1832 1186 m 9 Y s 1864 1186 m 9 Y s 1896
 1186 m 9 Y s 1928 1178 m 17 Y s 340 199 m 996 Y s
 gsave  2268 1328 0 0 C 170.933 324.773 t 90 r /Helvetica findfont 62.6756 sf 0 0 m (Near Flux Ratio to Nominal) show NC gr  371 199 m -31 X s 355 221 m -15 X s 355 243 m -15 X s 355 266 m -15 X s 355 288 m -15 X s 371 310 m -31 X s 355 332 m -15 X s
 355 354 m -15 X s 355 376 m -15 X s 355 398 m -15 X s 371 420 m -31 X s 355 443 m -15 X s 355 465 m -15 X s 355 487 m -15 X s 355 509 m -15 X s 371 531 m -31 X s 355 553 m -15 X s 355 575 m -15 X s 355 597 m -15 X s 355 620 m -15 X s 371 642 m -31 X
 s 355 664 m -15 X s 355 686 m -15 X s 355 708 m -15 X s 355 730 m -15 X s 371 752 m -31 X s 355 774 m -15 X s 355 797 m -15 X s 355 819 m -15 X s 355 841 m -15 X s 371 863 m -31 X s 355 885 m -15 X s 355 907 m -15 X s 355 929 m -15 X s 355 951 m -15
 X s 371 974 m -31 X s 355 996 m -15 X s 355 1018 m -15 X s 355 1040 m -15 X s 355 1062 m -15 X s 371 1084 m -31 X s 355 1106 m -15 X s 355 1128 m -15 X s 355 1151 m -15 X s 355 1173 m -15 X s 371 1195 m -31 X s 371 199 m -31 X s 371 1195 m -31 X s
 gsave  2268 1328 0 0 C 196.573 173.782 t 0 r /Helvetica findfont 68.3734 sf 0 0 m (0.95) show NC gr 
 gsave  2268 1328 0 0 C 301.982 282.04 t 0 r /Helvetica findfont 68.3734 sf 0 0 m (1) show NC gr 
 gsave  2268 1328 0 0 C 196.573 395.996 t 0 r /Helvetica findfont 68.3734 sf 0 0 m (1.05) show NC gr 
 gsave  2268 1328 0 0 C 245.005 504.254 t 0 r /Helvetica findfont 68.3734 sf 0 0 m (1.1) show NC gr 
 gsave  2268 1328 0 0 C 196.573 618.209 t 0 r /Helvetica findfont 68.3734 sf 0 0 m (1.15) show NC gr 
 gsave  2268 1328 0 0 C 233.609 726.467 t 0 r /Helvetica findfont 68.3734 sf 0 0 m (1.2) show NC gr 
 gsave  2268 1328 0 0 C 196.573 837.574 t 0 r /Helvetica findfont 68.3734 sf 0 0 m (1.25) show NC gr 
 gsave  2268 1328 0 0 C 233.609 948.68 t 0 r /Helvetica findfont 68.3734 sf 0 0 m (1.3) show NC gr 
 gsave  2268 1328 0 0 C 196.573 1059.79 t 0 r /Helvetica findfont 68.3734 sf 0 0 m (1.35) show NC gr 
 gsave  2268 1328 0 0 C 233.609 1168.04 t 0 r /Helvetica findfont 68.3734 sf 0 0 m (1.4) show NC gr  1928 199 m 996 Y s 1897 199 m 31 X s 1912 221 m 16 X s 1912 243 m 16 X s 1912 266 m 16 X s 1912 288 m 16 X s 1897 310 m 31 X s 1912 332 m 16 X s 1912
 354 m 16 X s 1912 376 m 16 X s 1912 398 m 16 X s 1897 420 m 31 X s 1912 443 m 16 X s 1912 465 m 16 X s 1912 487 m 16 X s 1912 509 m 16 X s 1897 531 m 31 X s 1912 553 m 16 X s 1912 575 m 16 X s 1912 597 m 16 X s 1912 620 m 16 X s 1897 642 m 31 X s
 1912 664 m 16 X s 1912 686 m 16 X s 1912 708 m 16 X s 1912 730 m 16 X s 1897 752 m 31 X s 1912 774 m 16 X s 1912 797 m 16 X s 1912 819 m 16 X s 1912 841 m 16 X s 1897 863 m 31 X s 1912 885 m 16 X s 1912 907 m 16 X s 1912 929 m 16 X s 1912 951 m 16 X
 s 1897 974 m 31 X s 1912 996 m 16 X s 1912 1018 m 16 X s 1912 1040 m 16 X s 1912 1062 m 16 X s 1897 1084 m 31 X s 1912 1106 m 16 X s 1912 1128 m 16 X s 1912 1151 m 16 X s 1912 1173 m 16 X s 1897 1195 m 31 X s 1897 199 m 31 X s 1897 1195 m 31 X s 1 0
 0 c 6 lw 1 1 1 c 1 0 0 c 380 304 m 12 -2 d 13 -2 d 14 -2 d 14 -1 d 12 -1 d 14 -1 d 10 -1 d 26 X 32 1 d 37 X 46 -1 d 193 X 42 1 d 104 X 37 -1 d 10 X 9 1 d 10 X 9 1 d 10 1 d 13 2 d 20 3 d 17 3 d 10 2 d 19 2 d 42 5 d 13 2 d 6 1 d 10 1 d 15 3 d 29 6 d
 12 3 d 10 1 d 3 1 d 9 1 d 70 6 d 9 1 d 11 2 d 19 4 d 17 4 d 11 2 d 8 1 d 5 1 d 10 1 d 11 1 d 44 2 d 11 1 d 3 1 d 10 1 d 11 1 d 27 4 d 11 2 d 8 1 d 8 X 4 1 d 80 -3 d 24 X 18 1 d 13 X 12 1 d 12 1 d 7 1 d 9 1 d 10 2 d 23 4 d 9 2 d 8 1 d 6 X 6 1 d 22 X
 9 -1 d 9 -1 d 10 -1 d 10 -1 d 9 -1 d 9 -2 d 3 -1 d s 3 lw /w 2 def /w2 {w 2 div} def /w3 {w 3 div} def 380 304 459 295 539 295 618 294 697 294 777 294 856 295 935 295 1015 295 1094 307 1174 317 1253 332 1332 339 1412 354 1491 360 1570 370 1650 367
 1729 370 1809 382 1888 374 20 { m20} R 6 lw black 1 0 0 c
 gsave  2268 1328 0 0 C 2022.71 364.658 t 0 r /Helvetica-Bold findfont 48.4311 sf 0 0 m (/dof=12.9) show NC gr  black 1 0 0 c
 gsave  2268 1328 0 0 C 2002.77 381.751 t 0 r /Helvetica-Bold findfont 34.1867 sf 0 0 m (2) show NC gr  black 1 0 0 c
 gsave  2268 1328 0 0 C 1977.13 364.658 t 0 r /Symbol findfont 48.4311 sf 0 0 m (c) show NC gr  black 3 lw 340 310 m 1588 X s
 gsave  2268 1328 0 0 C 424.485 1213.63 t 0 r /Helvetica-Bold findfont 42.7334 sf 0 0 m (700 ) show NC gr  1 0 0 c /w 23 def /w2 {w 2 div} def /w3 {w 3 div} def 383 1228 m21 black 1 1 1 c 0 0 1 c 380 530 m21 459 530 m21 539 527 m21 618 526 m21 697
 530 m21 777 527 m21 856 528 m21 935 528 m21 1015 519 m21 1094 536 m21 black 1174 535 m 2 Y s 1174 559 m 2 Y s 1168 535 m 11 X s 1168 561 m 11 X s 0 0 1 c 1174 548 m21 black 1253 524 m 4 Y s 1253 551 m 4 Y s 1247 524 m 12 X s 1247 555 m 12 X s 0 0 1
 c 1253 540 m21 black 1332 497 m 7 Y s 1332 527 m 7 Y s 1327 497 m 11 X s 1327 534 m 11 X s 0 0 1 c 1332 516 m21 black 1412 554 m 10 Y s 1412 587 m 9 Y s 1406 554 m 11 X s 1406 596 m 11 X s 0 0 1 c 1412 575 m21 black 1491 548 m 11 Y s 1491 582 m 11 Y
 s 1485 548 m 12 X s 1485 593 m 12 X s 0 0 1 c 1491 571 m21 black 1570 593 m 14 Y s 1570 630 m 13 Y s 1565 593 m 11 X s 1565 643 m 11 X s 0 0 1 c 1570 618 m21 black 1650 514 m 15 Y s 1650 552 m 15 Y s 1644 514 m 11 X s 1644 567 m 11 X s 0 0 1 c 1650
 541 m21 black 1729 509 m 17 Y s 1729 548 m 17 Y s 1723 509 m 12 X s 1723 565 m 12 X s 0 0 1 c 1729 537 m21 black 1809 573 m 19 Y s 1809 614 m 19 Y s 1803 573 m 11 X s 1803 633 m 11 X s 0 0 1 c 1809 603 m21 black 1888 553 m 20 Y s 1888 596 m 19 Y s
 1882 553 m 12 X s 1882 615 m 12 X s 0 0 1 c 1888 584 m21 6 lw 1 1 1 c 0 0 1 c 380 520 m 12 -4 d 13 -4 d 14 -3 d 14 -3 d 12 -2 d 14 -2 d 10 -1 d 26 X 32 1 d 37 X 46 -2 d 167 X 26 1 d 42 1 d 11 1 d 79 -1 d 14 X 37 -1 d 19 X 10 1 d 9 2 d 10 2 d 13 4 d
 20 7 d 17 5 d 10 3 d 19 4 d 42 10 d 13 4 d 6 1 d 10 4 d 15 6 d 29 11 d 12 5 d 10 3 d 3 1 d 9 2 d 70 12 d 9 3 d 11 4 d 19 7 d 17 7 d 11 4 d 8 3 d 5 1 d 10 3 d 11 1 d 44 5 d 11 2 d 3 X 10 3 d 11 3 d 27 8 d 11 3 d 8 1 d 8 2 d 4 X 80 -5 d 24 1 d 18 X 13
 1 d 12 2 d 12 1 d 7 2 d 9 2 d 10 4 d 23 8 d 9 4 d 8 1 d 6 2 d 8 X 9 1 d 11 -1 d 9 -1 d 9 -1 d 10 -2 d 10 -2 d 9 -3 d 9 -4 d 3 -1 d s 3 lw /w 2 def /w2 {w 2 div} def /w3 {w 3 div} def 380 520 459 502 539 502 618 500 697 500 777 500 856 503 935 502
 1015 502 1094 525 1174 544 1253 574 1332 588 1412 617 1491 628 1570 648 1650 643 1729 648 1809 671 1888 657 20 { m20} R 6 lw black 0 0 1 c
 gsave  2268 1328 0 0 C 2022.71 615.36 t 0 r /Helvetica-Bold findfont 48.4311 sf 0 0 m (/dof=28.8) show NC gr  black 0 0 1 c
 gsave  2268 1328 0 0 C 2002.77 632.454 t 0 r /Helvetica-Bold findfont 34.1867 sf 0 0 m (2) show NC gr  black 0 0 1 c
 gsave  2268 1328 0 0 C 1977.13 615.36 t 0 r /Symbol findfont 48.4311 sf 0 0 m (c) show NC gr  black 3 lw 340 531 m 1588 X s
 gsave  2268 1328 0 0 C 877.458 1213.63 t 0 r /Helvetica-Bold findfont 42.7334 sf 0 0 m (933 ) show NC gr  0 0 1 c /w 23 def /w2 {w 2 div} def /w3 {w 3 div} def 836 1228 m21 black 1 1 1 c 1 0 1 c 380 744 m21 459 724 m21 539 722 m21 618 718 m21 697
 723 m21 777 721 m21 856 724 m21 935 718 m21 1015 716 m21 1094 753 m21 black 1174 743 m 2 Y s 1174 768 m 2 Y s 1168 743 m 11 X s 1168 770 m 11 X s 1 0 1 c 1174 756 m21 black 1253 763 m 5 Y s 1253 791 m 6 Y s 1247 763 m 12 X s 1247 797 m 12 X s 1 0 1
 c 1253 780 m21 black 1332 786 m 9 Y s 1332 818 m 9 Y s 1327 786 m 11 X s 1327 827 m 11 X s 1 0 1 c 1332 806 m21 black 1412 812 m 11 Y s 1412 846 m 12 Y s 1406 812 m 11 X s 1406 858 m 11 X s 1 0 1 c 1412 835 m21 black 1491 853 m 14 Y s 1491 890 m 14
 Y s 1485 853 m 12 X s 1485 904 m 12 X s 1 0 1 c 1491 878 m21 black 1570 853 m 16 Y s 1570 892 m 17 Y s 1565 853 m 11 X s 1565 909 m 11 X s 1 0 1 c 1570 881 m21 black 1650 856 m 19 Y s 1650 897 m 19 Y s 1644 856 m 11 X s 1644 916 m 11 X s 1 0 1 c
 1650 886 m21 black 1729 856 m 20 Y s 1729 899 m 20 Y s 1723 856 m 12 X s 1723 919 m 12 X s 1 0 1 c 1729 887 m21 black 1809 875 m 22 Y s 1809 920 m 22 Y s 1803 875 m 11 X s 1803 942 m 11 X s 1 0 1 c 1809 908 m21 black 1888 853 m 24 Y s 1888 900 m 23
 Y s 1882 853 m 12 X s 1882 923 m 12 X s 1 0 1 c 1888 888 m21 6 lw 1 1 1 c 1 0 1 c 380 734 m 12 -7 d 13 -7 d 14 -5 d 14 -5 d 12 -4 d 14 -3 d 10 -2 d 26 X 32 2 d 12 X 25 -1 d 46 -3 d 29 X 58 1 d 80 X 26 1 d 42 3 d 90 X 14 -1 d 37 -2 d 10 X 9 1 d 10 2
 d 9 2 d 10 4 d 13 6 d 20 12 d 17 9 d 10 5 d 19 7 d 42 17 d 13 6 d 6 3 d 10 6 d 15 10 d 29 19 d 12 8 d 10 5 d 3 2 d 9 4 d 70 20 d 9 5 d 11 7 d 19 13 d 17 12 d 11 7 d 8 4 d 5 2 d 10 4 d 11 3 d 44 9 d 11 2 d 3 1 d 10 4 d 11 5 d 27 14 d 11 5 d 8 3 d 8 2
 d 4 1 d 80 -8 d 24 X 18 1 d 13 2 d 12 2 d 12 3 d 7 3 d 9 4 d 10 6 d 23 14 d 9 6 d 8 3 d 6 2 d 6 1 d 2 X 9 1 d 11 -1 d 9 -1 d 9 -2 d 10 -4 d 10 -4 d 9 -5 d 9 -6 d 3 -2 d s 3 lw /w 2 def /w2 {w 2 div} def /w3 {w 3 div} def 380 734 459 703 539 703 618
 699 697 700 777 700 856 704 935 704 1015 704 1094 742 1174 775 1253 825 1332 849 1412 899 1491 918 1570 952 1650 944 1729 952 1809 991 1888 967 20 { m20} R 6 lw black 1 0 1 c
 gsave  2268 1328 0 0 C 2022.71 863.214 t 0 r /Helvetica-Bold findfont 48.4311 sf 0 0 m (/dof=15.2) show NC gr  black 1 0 1 c
 gsave  2268 1328 0 0 C 2002.77 880.307 t 0 r /Helvetica-Bold findfont 34.1867 sf 0 0 m (2) show NC gr  black 1 0 1 c
 gsave  2268 1328 0 0 C 1977.13 863.214 t 0 r /Symbol findfont 48.4311 sf 0 0 m (c) show NC gr  black 3 lw 340 752 m 1588 X s
 gsave  2268 1328 0 0 C 1330.43 1213.63 t 0 r /Helvetica-Bold findfont 42.7334 sf 0 0 m 
 93 69 45 22
(1166 ) K NC gr  1 0 1 c /w 23 def /w2 {w 2 div} def /w3 {w 3 div} def 1290 1228 m21 black 1 1 1 c 0 0.733333 1 c 380 929 m21 459 862 m21 539 866 m21 618 857 m21 697 855 m21 777 858 m21 856 865 m21 935 870 m21 1015 879 m21 1094 939 m21 black 1174
 1006 m 3 Y s 1174 1032 m 4 Y s 1168 1006 m 11 X s 1168 1036 m 11 X s 0 0.733333 1 c 1174 1021 m21 black 1253 1125 m 8 Y s 1253 1156 m 8 Y s 1247 1125 m 12 X s 1247 1164 m 12 X s 0 0.733333 1 c 1253 1145 m21 6 lw 1 1 1 c 0 0.733333 1 c 380 944 m 12
 -10 d 10 -8 d 11 -8 d 11 -7 d 12 -6 d 11 -4 d 11 -4 d 1 -1 d 8 -2 d 9 -1 d 10 X 15 1 d 24 3 d 14 X 18 -1 d 56 -6 d 22 X 62 1 d 80 X 21 2 d 43 4 d 15 1 d 23 X 56 -1 d 13 X 37 -4 d 10 X 7 1 d 8 2 d 5 2 d 7 3 d 8 4 d 9 6 d 11 9 d 16 14 d 16 14 d 10 8 d
 2 1 d 60 37 d 11 8 d 9 7 d 8 8 d 11 11 d 19 19 d 16 17 d 9 9 d 8 7 d 8 7 d 8 5 d 9 4 d 11 5 d 31 12 d 8 4 d 7 4 d 5 4 d 13 9 d 10 9 d 12 11 d 12 12 d 12 13 d 12 13 d 2 3 d s 3 lw /w 2 def /w2 {w 2 div} def /w3 {w 3 div} def 380 944 459 896 539 897
 618 890 697 891 777 891 856 898 935 897 1015 898 1094 957 1174 1009 1253 1087 1332 1125 1412 1195 14 { m20} R 6 lw 3 lw 1888 1195 m20 6 lw black 0 0.733333 1 c
 gsave  2268 1328 0 0 C 2022.71 1113.92 t 0 r /Helvetica-Bold findfont 48.4311 sf 0 0 m (/dof=34.7) show NC gr  black 0 0.733333 1 c
 gsave  2268 1328 0 0 C 2002.77 1131.01 t 0 r /Helvetica-Bold findfont 34.1867 sf 0 0 m (2) show NC gr  black 0 0.733333 1 c
 gsave  2268 1328 0 0 C 1977.13 1113.92 t 0 r /Symbol findfont 48.4311 sf 0 0 m (c) show NC gr  black 3 lw 340 974 m 1588 X s
 gsave  2268 1328 0 0 C 1783.41 1213.63 t 0 r /Helvetica-Bold findfont 42.7334 sf 0 0 m (1400 ) show NC gr  0 0.733333 1 c /w 23 def /w2 {w 2 div} def /w3 {w 3 div} def 1743 1228 m21
 gr  gr showpage
end
%%EOF
