%!PS-Adobe-2.0 EPSF-2.0
%%BoundingBox:  0 0 567 332
%%Title: Tilt_t_p90d_far_fits.eps: Fits
%%Creator: ROOT Version 5.30/06
%%CreationDate: Sun Feb  2 09:37:49 2014
%%EndComments
%%BeginProlog
80 dict begin
/s {stroke} def /l {lineto} def /m {moveto} def /t {translate} def
/r {rotate} def /rl {roll}  def /R {repeat} def
/d {rlineto} def /rm {rmoveto} def /gr {grestore} def /f {eofill} def
/c {setrgbcolor} def /black {0 setgray} def /sd {setdash} def
/cl {closepath} def /sf {scalefont setfont} def /lw {setlinewidth} def
/box {m dup 0 exch d exch 0 d 0 exch neg d cl} def
/NC{systemdict begin initclip end}def/C{NC box clip newpath}def
/bl {box s} def /bf {box f} def /Y { 0 exch d} def /X { 0 d} def 
/K {{pop pop 0 moveto} exch kshow} bind def
/ita {/ang 15 def gsave [1 0 ang dup sin exch cos div 1 0 0] concat} def 
/mp {newpath /y exch def /x exch def} def
/side {[w .77 mul w .23 mul] .385 w mul sd w 0 l currentpoint t -144 r} def
/mr {mp x y w2 0 360 arc} def /m24 {mr s} def /m20 {mr f} def
/mb {mp x y w2 add m w2 neg 0 d 0 w neg d w 0 d 0 w d cl} def
/mt {mp x y w2 add m w2 neg w neg d w 0 d cl} def
/m21 {mb f} def /m25 {mb s} def /m22 {mt f} def /m26{mt s} def
/m23 {mp x y w2 sub m w2 w d w neg 0 d cl f} def
/m27 {mp x y w2 add m w3 neg w2 neg d w3 w2 neg d w3 w2 d cl s} def
/m28 {mp x w2 sub y w2 sub w3 add m w3 0 d  0 w3 neg d w3 0 d 0 w3 d w3 0 d  0 w3 d w3 neg 0 d 0 w3 d w3 neg 0 d 0 w3 neg d w3 neg 0 d cl s } def
/m29 {mp gsave x w2 sub y w2 add w3 sub m currentpoint t 4 {side} repeat cl fill gr} def
/m30 {mp gsave x w2 sub y w2 add w3 sub m currentpoint t 4 {side} repeat cl s gr} def
/m31 {mp x y w2 sub m 0 w d x w2 sub y m w 0 d x w2 sub y w2 add m w w neg d x w2 sub y w2 sub m w w d s} def
/m32 {mp x y w2 sub m w2 w d w neg 0 d cl s} def
/m33 {mp x y w2 add m w3 neg w2 neg d w3 w2 neg d w3 w2 d cl f} def
/m34 {mp x w2 sub y w2 sub w3 add m w3 0 d  0 w3 neg d w3 0 d 0 w3 d w3 0 d  0 w3 d w3 neg 0 d 0 w3 d w3 neg 0 d 0 w3 neg d w3 neg 0 d cl f } def
/m2 {mp x y w2 sub m 0 w d x w2 sub y m w 0 d s} def
/m5 {mp x w2 sub y w2 sub m w w d x w2 sub y w2 add m w w neg d s} def
/reEncode {exch findfont dup length dict begin {1 index /FID eq  {pop pop} {def} ifelse } forall /Encoding exch def currentdict end dup /FontName get exch definefont pop } def [/Times-Bold /Times-Italic /Times-BoldItalic /Helvetica /Helvetica-Oblique
 /Helvetica-Bold /Helvetica-BoldOblique /Courier /Courier-Oblique /Courier-Bold /Courier-BoldOblique /Times-Roman /AvantGarde-Book /AvantGarde-BookOblique /AvantGarde-Demi /AvantGarde-DemiOblique /Bookman-Demi /Bookman-DemiItalic /Bookman-Light
 /Bookman-LightItalic /Helvetica-Narrow /Helvetica-Narrow-Bold /Helvetica-Narrow-BoldOblique /Helvetica-Narrow-Oblique /NewCenturySchlbk-Roman /NewCenturySchlbk-Bold /NewCenturySchlbk-BoldItalic /NewCenturySchlbk-Italic /Palatino-Bold
 /Palatino-BoldItalic /Palatino-Italic /Palatino-Roman ] {ISOLatin1Encoding reEncode } forall%%EndProlog
%%BeginSetup
%%EndSetup
newpath  gsave  .25 .25 scale  gsave  0 0 t black[  ] 0 sd 3 lw 1 1 1 c 2268 1328 0 0 bf black 1 1 1 c 408 305 23 1009 bf black 1 1 1 c black 306 229 84 1055 bl 306 229 84 1055 bl 84 1055 m 306 X s 84 1059 m -4 Y s 188 1059 m -4 Y s 291 1059 m -4 Y s
 291 1059 m -4 Y s
 gsave  408 305 23 1009 C 74.0711 1034.15 t 0 r /Helvetica findfont 22.8295 sf 0 0 m (0) show NC gr 
 gsave  408 305 23 1009 C 165.236 1034.15 t 0 r /Helvetica findfont 22.8295 sf 0 0 m (500) show NC gr 
 gsave  408 305 23 1009 C 264.947 1034.15 t 0 r /Helvetica findfont 22.8295 sf 0 0 m (1000) show NC gr  84 1284 m 306 X s 84 1280 m 4 Y s 188 1280 m 4 Y s 291 1280 m 4 Y s 291 1280 m 4 Y s 84 1055 m 229 Y s 89 1072 m -5 X s 87 1079 m -3 X s 87 1086 m
 -3 X s 87 1093 m -3 X s 89 1100 m -5 X s 87 1107 m -3 X s 87 1114 m -3 X s 87 1121 m -3 X s 89 1128 m -5 X s 87 1135 m -3 X s 87 1142 m -3 X s 87 1149 m -3 X s 89 1156 m -5 X s 87 1163 m -3 X s 87 1170 m -3 X s 87 1177 m -3 X s 89 1184 m -5 X s 87
 1191 m -3 X s 87 1198 m -3 X s 87 1205 m -3 X s 89 1212 m -5 X s 87 1219 m -3 X s 87 1226 m -3 X s 87 1233 m -3 X s 89 1240 m -5 X s 87 1247 m -3 X s 87 1254 m -3 X s 87 1261 m -3 X s 89 1268 m -5 X s 89 1072 m -5 X s 87 1065 m -3 X s 87 1058 m -3 X
 s 89 1268 m -5 X s 87 1275 m -3 X s 87 1282 m -3 X s
 gsave  408 305 23 1009 C 14.2445 1065.48 t 0 r /Helvetica findfont 22.8295 sf 0 0 m (\2550.012) show NC gr 
 gsave  408 305 23 1009 C 31.3378 1093.97 t 0 r /Helvetica findfont 22.8295 sf 0 0 m (\2550.01) show NC gr 
 gsave  408 305 23 1009 C 14.2445 1119.61 t 0 r /Helvetica findfont 22.8295 sf 0 0 m (\2550.008) show NC gr 
 gsave  408 305 23 1009 C 14.2445 1148.1 t 0 r /Helvetica findfont 22.8295 sf 0 0 m (\2550.006) show NC gr 
 gsave  408 305 23 1009 C 14.2445 1176.59 t 0 r /Helvetica findfont 22.8295 sf 0 0 m (\2550.004) show NC gr 
 gsave  408 305 23 1009 C 14.2445 1205.08 t 0 r /Helvetica findfont 22.8295 sf 0 0 m (\2550.002) show NC gr 
 gsave  408 305 23 1009 C 65.5245 1233.57 t 0 r /Helvetica findfont 22.8295 sf 0 0 m (0) show NC gr 
 gsave  408 305 23 1009 C 22.7911 1262.06 t 0 r /Helvetica findfont 22.8295 sf 0 0 m (0.002) show NC gr  390 1055 m 229 Y s 385 1072 m 5 X s 387 1079 m 3 X s 387 1086 m 3 X s 387 1093 m 3 X s 385 1100 m 5 X s 387 1107 m 3 X s 387 1114 m 3 X s 387
 1121 m 3 X s 385 1128 m 5 X s 387 1135 m 3 X s 387 1142 m 3 X s 387 1149 m 3 X s 385 1156 m 5 X s 387 1163 m 3 X s 387 1170 m 3 X s 387 1177 m 3 X s 385 1184 m 5 X s 387 1191 m 3 X s 387 1198 m 3 X s 387 1205 m 3 X s 385 1212 m 5 X s 387 1219 m 3 X
 s 387 1226 m 3 X s 387 1233 m 3 X s 385 1240 m 5 X s 387 1247 m 3 X s 387 1254 m 3 X s 387 1261 m 3 X s 385 1268 m 5 X s 385 1072 m 5 X s 387 1065 m 3 X s 387 1058 m 3 X s 385 1268 m 5 X s 387 1275 m 3 X s 387 1282 m 3 X s /w 22 def /w2 {w 2 div}
 def /w3 {w 3 div} def 229 1252 277 1238 326 1205 374 1087 4 { m21} R 229 1263 m 2 Y s 223 1265 m 12 X s 229 1240 m -2 Y s 223 1238 m 12 X s 277 1249 m 2 Y s 272 1251 m 11 X s 277 1226 m -1 Y s 272 1225 m 11 X s 326 1216 m 2 Y s 320 1218 m 11 X s 326
 1193 m -1 Y s 320 1192 m 11 X s 374 1098 m 2 Y s 368 1100 m 12 X s 374 1075 m -1 Y s 368 1074 m 12 X s 1 0 0 c 9 lw 0.95 0.95 0.95 c black 1 0 0 c 85 1240 m 16 X 3 -1 d 12 X 3 -1 d 9 X 3 -1 d 6 X 4 -1 d 3 X 3 -1 d 3 X 3 -1 d 3 X 3 -1 d 3 X 3 -1 d 3
 -1 d 3 X 3 -1 d 3 -1 d 3 X 3 -1 d 3 -1 d 4 X 3 -1 d 3 -1 d 3 -1 d 3 -1 d 3 -1 d 3 -1 d 3 X 3 -1 d 3 -1 d 3 -1 d 3 -1 d 3 -1 d 3 -2 d 3 -1 d 3 -1 d s 235 1212 m 4 -1 d 3 -1 d 3 -1 d 3 -1 d 3 -2 d 3 -1 d 3 -1 d 3 -1 d 3 -2 d 3 -1 d 3 -1 d 3 -2 d 3 -1
 d 3 -2 d 3 -1 d 3 -1 d 3 -2 d 4 -1 d 3 -2 d 3 -2 d 3 -1 d 3 -2 d 3 -1 d 3 -2 d 3 -2 d 3 -1 d 3 -2 d 3 -2 d 3 -2 d 3 -1 d 3 -2 d 3 -2 d 3 -2 d 4 -2 d 3 -2 d 3 -2 d 3 -2 d 3 -1 d 3 -2 d 3 -2 d 3 -2 d 3 -3 d 3 -2 d 3 -2 d 3 -2 d 3 -2 d 3 -2 d 3 -2 d 3
 -3 d s 385 1130 m 4 -2 d s 0.49 0.6 0.82 c black 0.49 0.6 0.82 c
 gsave  408 305 23 1009 C 142.445 1293.4 t 0 r /Helvetica-Bold findfont 25.6831 sf 0 0 m (0.0 < E < 0.5 GeV) show NC gr  0.52 0.76 0.64 c black 0.52 0.76 0.64 c
 gsave  408 305 23 1009 C 122.502 1256.36 t 0 r /Helvetica-Bold findfont 25.6831 sf 0 0 m 
 228 214 200 193 178 171 156 149 134 126 119 105 91 77 69 55 47 39 25 17
(A = \2550.000, p = 2.000) K NC gr  1 0.6 1 c black 1 0.6 1 c
 gsave  408 305 23 1009 C 427.334 1113.92 t 90 r /Helvetica-Bold findfont 28.5368 sf 0 0 m (/dof=13.8) show NC gr  black 1 0.6 1 c
 gsave  408 305 23 1009 C 415.938 1102.52 t 90 r /Helvetica-Bold findfont 19.9758 sf 0 0 m (2) show NC gr  black 1 0.6 1 c
 gsave  408 305 23 1009 C 427.334 1085.43 t 90 r /Symbol findfont 28.5368 sf 0 0 m (c) show NC gr  black 3 lw 1 1 1 c 408 305 476 1009 bf black 1 1 1 c black 307 229 537 1055 bl 307 229 537 1055 bl 537 1055 m 307 X s 537 1059 m -4 Y s 641 1059 m -4 Y
 s 745 1059 m -4 Y s 745 1059 m -4 Y s
 gsave  408 305 476 1009 C 527.045 1034.15 t 0 r /Helvetica findfont 22.8295 sf 0 0 m (0) show NC gr 
 gsave  408 305 476 1009 C 621.058 1034.15 t 0 r /Helvetica findfont 22.8295 sf 0 0 m (500) show NC gr 
 gsave  408 305 476 1009 C 717.92 1034.15 t 0 r /Helvetica findfont 22.8295 sf 0 0 m (1000) show NC gr  537 1284 m 307 X s 537 1280 m 4 Y s 641 1280 m 4 Y s 745 1280 m 4 Y s 745 1280 m 4 Y s 537 1055 m 229 Y s 543 1058 m -6 X s 540 1063 m -3 X s 540
 1068 m -3 X s 540 1073 m -3 X s 540 1078 m -3 X s 543 1083 m -6 X s 540 1089 m -3 X s 540 1094 m -3 X s 540 1099 m -3 X s 540 1104 m -3 X s 543 1109 m -6 X s 540 1114 m -3 X s 540 1119 m -3 X s 540 1124 m -3 X s 540 1129 m -3 X s 543 1134 m -6 X s
 540 1139 m -3 X s 540 1144 m -3 X s 540 1150 m -3 X s 540 1155 m -3 X s 543 1160 m -6 X s 540 1165 m -3 X s 540 1170 m -3 X s 540 1175 m -3 X s 540 1180 m -3 X s 543 1185 m -6 X s 540 1190 m -3 X s 540 1195 m -3 X s 540 1200 m -3 X s 540 1206 m -3 X
 s 543 1211 m -6 X s 540 1216 m -3 X s 540 1221 m -3 X s 540 1226 m -3 X s 540 1231 m -3 X s 543 1236 m -6 X s 540 1241 m -3 X s 540 1246 m -3 X s 540 1251 m -3 X s 540 1256 m -3 X s 543 1261 m -6 X s 543 1058 m -6 X s 543 1261 m -6 X s 540 1267 m -3
 X s 540 1272 m -3 X s 540 1277 m -3 X s 540 1282 m -3 X s
 gsave  408 305 476 1009 C 481.462 1051.24 t 0 r /Helvetica findfont 22.8295 sf 0 0 m (\2550.04) show NC gr 
 gsave  408 305 476 1009 C 467.218 1076.88 t 0 r /Helvetica findfont 22.8295 sf 0 0 m (\2550.035) show NC gr 
 gsave  408 305 476 1009 C 481.462 1102.52 t 0 r /Helvetica findfont 22.8295 sf 0 0 m (\2550.03) show NC gr 
 gsave  408 305 476 1009 C 467.218 1128.16 t 0 r /Helvetica findfont 22.8295 sf 0 0 m (\2550.025) show NC gr 
 gsave  408 305 476 1009 C 481.462 1153.8 t 0 r /Helvetica findfont 22.8295 sf 0 0 m (\2550.02) show NC gr 
 gsave  408 305 476 1009 C 467.218 1179.44 t 0 r /Helvetica findfont 22.8295 sf 0 0 m (\2550.015) show NC gr 
 gsave  408 305 476 1009 C 484.311 1202.23 t 0 r /Helvetica findfont 22.8295 sf 0 0 m (\2550.01) show NC gr 
 gsave  408 305 476 1009 C 467.218 1227.87 t 0 r /Helvetica findfont 22.8295 sf 0 0 m (\2550.005) show NC gr 
 gsave  408 305 476 1009 C 518.498 1253.51 t 0 r /Helvetica findfont 22.8295 sf 0 0 m (0) show NC gr  844 1055 m 229 Y s 838 1058 m 6 X s 841 1063 m 3 X s 841 1068 m 3 X s 841 1073 m 3 X s 841 1078 m 3 X s 838 1083 m 6 X s 841 1089 m 3 X s 841 1094 m
 3 X s 841 1099 m 3 X s 841 1104 m 3 X s 838 1109 m 6 X s 841 1114 m 3 X s 841 1119 m 3 X s 841 1124 m 3 X s 841 1129 m 3 X s 838 1134 m 6 X s 841 1139 m 3 X s 841 1144 m 3 X s 841 1150 m 3 X s 841 1155 m 3 X s 838 1160 m 6 X s 841 1165 m 3 X s 841
 1170 m 3 X s 841 1175 m 3 X s 841 1180 m 3 X s 838 1185 m 6 X s 841 1190 m 3 X s 841 1195 m 3 X s 841 1200 m 3 X s 841 1206 m 3 X s 838 1211 m 6 X s 841 1216 m 3 X s 841 1221 m 3 X s 841 1226 m 3 X s 841 1231 m 3 X s 838 1236 m 6 X s 841 1241 m 3 X
 s 841 1246 m 3 X s 841 1251 m 3 X s 841 1256 m 3 X s 838 1261 m 6 X s 838 1058 m 6 X s 838 1261 m 6 X s 841 1267 m 3 X s 841 1272 m 3 X s 841 1277 m 3 X s 841 1282 m 3 X s /w 23 def /w2 {w 2 div} def /w3 {w 3 div} def 683 1259 731 1240 779 1219 828
 1080 4 { m21} R 1 0 0 c 9 lw 0.95 0.95 0.95 c black 1 0 0 c 539 1261 m 21 X 3 -1 d 10 X 3 -1 d 3 X 3 -1 d 6 X 3 -1 d 3 X 3 -1 d 3 -1 d 3 X 3 -1 d 3 X 3 -1 d 4 -1 d 3 -1 d 3 X 3 -1 d 3 -1 d 3 -1 d 3 -1 d 3 -1 d 3 -1 d 3 -1 d 3 -1 d 3 -1 d 3 -1 d 3 -1
 d 3 -1 d 3 -1 d 3 -1 d 4 -1 d 3 -2 d 3 -1 d 3 -1 d 3 -2 d 3 -1 d 3 -1 d 3 -2 d s 689 1226 m 3 -1 d 3 -2 d 3 -1 d 3 -2 d 3 -1 d 3 -2 d 3 -1 d 3 -2 d 4 -2 d 3 -1 d 3 -2 d 3 -2 d 3 -2 d 3 -1 d 3 -2 d 3 -2 d 3 -2 d 3 -2 d 3 -2 d 3 -2 d 3 -2 d 3 -2 d 3
 -2 d 3 -2 d 4 -2 d 3 -2 d 3 -2 d 3 -3 d 3 -2 d 3 -2 d 3 -2 d 3 -3 d 3 -2 d 3 -2 d 3 -3 d 3 -2 d 3 -3 d 3 -2 d 3 -3 d 3 -2 d 4 -3 d 3 -3 d 3 -2 d 3 -3 d 3 -3 d 3 -2 d 3 -3 d 3 -3 d 3 -3 d s 839 1122 m 3 -2 d s 0.49 0.6 0.82 c black 0.49 0.6 0.82 c
 gsave  408 305 476 1009 C 595.418 1293.4 t 0 r /Helvetica-Bold findfont 25.6831 sf 0 0 m (0.5 < E < 1.0 GeV) show NC gr  0.52 0.76 0.64 c black 0.52 0.76 0.64 c
 gsave  408 305 476 1009 C 575.476 1256.36 t 0 r /Helvetica-Bold findfont 25.6831 sf 0 0 m 
 228 214 200 193 178 171 156 149 133 126 119 105 91 76 69 55 47 39 25 17
(A = \2550.000, p = 2.000) K NC gr  1 0.6 1 c black 1 0.6 1 c
 gsave  408 305 476 1009 C 883.156 1113.92 t 90 r /Helvetica-Bold findfont 28.5368 sf 0 0 m (/dof=71.7) show NC gr  black 1 0.6 1 c
 gsave  408 305 476 1009 C 871.76 1102.52 t 90 r /Helvetica-Bold findfont 19.9758 sf 0 0 m (2) show NC gr  black 1 0.6 1 c
 gsave  408 305 476 1009 C 883.156 1085.43 t 90 r /Symbol findfont 28.5368 sf 0 0 m (c) show NC gr  black 3 lw 1 1 1 c 408 305 930 1009 bf black 1 1 1 c black 306 229 991 1055 bl 306 229 991 1055 bl 991 1055 m 306 X s 991 1059 m -4 Y s 1095 1059 m -4
 Y s 1198 1059 m -4 Y s 1198 1059 m -4 Y s
 gsave  408 305 930 1009 C 980.018 1034.15 t 0 r /Helvetica findfont 22.8295 sf 0 0 m (0) show NC gr 
 gsave  408 305 930 1009 C 1074.03 1034.15 t 0 r /Helvetica findfont 22.8295 sf 0 0 m (500) show NC gr 
 gsave  408 305 930 1009 C 1170.89 1034.15 t 0 r /Helvetica findfont 22.8295 sf 0 0 m (1000) show NC gr  991 1284 m 306 X s 991 1280 m 4 Y s 1095 1280 m 4 Y s 1198 1280 m 4 Y s 1198 1280 m 4 Y s 991 1055 m 229 Y s 997 1072 m -6 X s 994 1077 m -3 X s
 994 1081 m -3 X s 994 1086 m -3 X s 994 1090 m -3 X s 997 1095 m -6 X s 994 1100 m -3 X s 994 1104 m -3 X s 994 1109 m -3 X s 994 1113 m -3 X s 997 1118 m -6 X s 994 1123 m -3 X s 994 1127 m -3 X s 994 1132 m -3 X s 994 1136 m -3 X s 997 1141 m -6 X
 s 994 1146 m -3 X s 994 1150 m -3 X s 994 1155 m -3 X s 994 1159 m -3 X s 997 1164 m -6 X s 994 1169 m -3 X s 994 1173 m -3 X s 994 1178 m -3 X s 994 1182 m -3 X s 997 1187 m -6 X s 994 1192 m -3 X s 994 1196 m -3 X s 994 1201 m -3 X s 994 1205 m -3
 X s 997 1210 m -6 X s 994 1215 m -3 X s 994 1219 m -3 X s 994 1224 m -3 X s 994 1228 m -3 X s 997 1233 m -6 X s 994 1238 m -3 X s 994 1242 m -3 X s 994 1247 m -3 X s 994 1251 m -3 X s 997 1256 m -6 X s 994 1261 m -3 X s 994 1265 m -3 X s 994 1270 m
 -3 X s 994 1274 m -3 X s 997 1279 m -6 X s 997 1072 m -6 X s 994 1067 m -3 X s 994 1063 m -3 X s 994 1058 m -3 X s 997 1279 m -6 X s 994 1284 m -3 X s
 gsave  408 305 930 1009 C 937.285 1065.48 t 0 r /Helvetica findfont 22.8295 sf 0 0 m (\2550.04) show NC gr 
 gsave  408 305 930 1009 C 923.04 1088.28 t 0 r /Helvetica findfont 22.8295 sf 0 0 m (\2550.035) show NC gr 
 gsave  408 305 930 1009 C 937.285 1111.07 t 0 r /Helvetica findfont 22.8295 sf 0 0 m (\2550.03) show NC gr 
 gsave  408 305 930 1009 C 923.04 1133.86 t 0 r /Helvetica findfont 22.8295 sf 0 0 m (\2550.025) show NC gr 
 gsave  408 305 930 1009 C 937.285 1156.65 t 0 r /Helvetica findfont 22.8295 sf 0 0 m (\2550.02) show NC gr 
 gsave  408 305 930 1009 C 923.04 1179.44 t 0 r /Helvetica findfont 22.8295 sf 0 0 m (\2550.015) show NC gr 
 gsave  408 305 930 1009 C 940.134 1202.23 t 0 r /Helvetica findfont 22.8295 sf 0 0 m (\2550.01) show NC gr 
 gsave  408 305 930 1009 C 923.04 1225.02 t 0 r /Helvetica findfont 22.8295 sf 0 0 m (\2550.005) show NC gr 
 gsave  408 305 930 1009 C 974.32 1247.81 t 0 r /Helvetica findfont 22.8295 sf 0 0 m (0) show NC gr 
 gsave  408 305 930 1009 C 931.587 1270.6 t 0 r /Helvetica findfont 22.8295 sf 0 0 m (0.005) show NC gr  1297 1055 m 229 Y s 1292 1072 m 5 X s 1294 1077 m 3 X s 1294 1081 m 3 X s 1294 1086 m 3 X s 1294 1090 m 3 X s 1292 1095 m 5 X s 1294 1100 m 3 X s
 1294 1104 m 3 X s 1294 1109 m 3 X s 1294 1113 m 3 X s 1292 1118 m 5 X s 1294 1123 m 3 X s 1294 1127 m 3 X s 1294 1132 m 3 X s 1294 1136 m 3 X s 1292 1141 m 5 X s 1294 1146 m 3 X s 1294 1150 m 3 X s 1294 1155 m 3 X s 1294 1159 m 3 X s 1292 1164 m 5 X
 s 1294 1169 m 3 X s 1294 1173 m 3 X s 1294 1178 m 3 X s 1294 1182 m 3 X s 1292 1187 m 5 X s 1294 1192 m 3 X s 1294 1196 m 3 X s 1294 1201 m 3 X s 1294 1205 m 3 X s 1292 1210 m 5 X s 1294 1215 m 3 X s 1294 1219 m 3 X s 1294 1224 m 3 X s 1294 1228 m 3
 X s 1292 1233 m 5 X s 1294 1238 m 3 X s 1294 1242 m 3 X s 1294 1247 m 3 X s 1294 1251 m 3 X s 1292 1256 m 5 X s 1294 1261 m 3 X s 1294 1265 m 3 X s 1294 1270 m 3 X s 1294 1274 m 3 X s 1292 1279 m 5 X s 1292 1072 m 5 X s 1294 1067 m 3 X s 1294 1063 m
 3 X s 1294 1058 m 3 X s 1292 1279 m 5 X s 1294 1284 m 3 X s 1136 1259 1184 1241 1233 1204 1281 1079 4 { m21} R 1 0 0 c 9 lw 0.95 0.95 0.95 c black 1 0 0 c 993 1256 m 15 X 3 -1 d 12 X 3 -1 d 6 X 3 -1 d 3 X 4 -1 d 3 X 3 -1 d 3 X 3 -1 d 3 X 3 -1 d 3 -1
 d 3 X 3 -1 d 3 -1 d 3 -1 d 3 X 3 -1 d 3 -1 d 3 -1 d 3 -1 d 4 -1 d 3 -1 d 3 -1 d 3 -1 d 3 -1 d 3 -1 d 3 -1 d 3 -1 d 3 -1 d 3 -1 d 3 -2 d 3 -1 d 3 -1 d 3 -2 d 3 -1 d 3 -1 d 4 -2 d s 1143 1221 m 3 -1 d 3 -1 d 3 -2 d 3 -1 d 3 -2 d 3 -1 d 3 -2 d 3 -2 d 3
 -1 d 3 -2 d 3 -2 d 3 -1 d 3 -2 d 3 -2 d 3 -2 d 4 -2 d 3 -1 d 3 -2 d 3 -2 d 3 -2 d 3 -2 d 3 -2 d 3 -2 d 3 -2 d 3 -2 d 3 -3 d 3 -2 d 3 -2 d 3 -2 d 3 -2 d 3 -3 d 3 -2 d 4 -2 d 3 -3 d 3 -2 d 3 -2 d 3 -3 d 3 -2 d 3 -3 d 3 -2 d 3 -3 d 3 -2 d 3 -3 d 3 -3 d
 3 -2 d 3 -3 d 3 -3 d 3 -2 d 4 -3 d s 1293 1119 m 3 -3 d s 0.49 0.6 0.82 c black 0.49 0.6 0.82 c
 gsave  408 305 930 1009 C 1051.24 1293.4 t 0 r /Helvetica-Bold findfont 25.6831 sf 0 0 m (1.0 < E < 1.5 GeV) show NC gr  0.52 0.76 0.64 c black 0.52 0.76 0.64 c
 gsave  408 305 930 1009 C 1031.3 1256.36 t 0 r /Helvetica-Bold findfont 25.6831 sf 0 0 m 
 228 214 200 193 178 171 156 149 133 126 119 105 91 77 69 55 47 39 25 17
(A = \2550.000, p = 2.000) K NC gr  1 0.6 1 c black 1 0.6 1 c
 gsave  408 305 930 1009 C 1336.13 1113.92 t 90 r /Helvetica-Bold findfont 28.5368 sf 0 0 m (/dof=82.7) show NC gr  black 1 0.6 1 c
 gsave  408 305 930 1009 C 1324.73 1102.52 t 90 r /Helvetica-Bold findfont 19.9758 sf 0 0 m (2) show NC gr  black 1 0.6 1 c
 gsave  408 305 930 1009 C 1336.13 1085.43 t 90 r /Symbol findfont 28.5368 sf 0 0 m (c) show NC gr  black 3 lw 1 1 1 c 408 305 1383 1009 bf black 1 1 1 c black 306 229 1445 1055 bl 306 229 1445 1055 bl 1445 1055 m 306 X s 1445 1059 m -4 Y s 1548 1059
 m -4 Y s 1652 1059 m -4 Y s 1652 1059 m -4 Y s
 gsave  408 305 1383 1009 C 1435.84 1034.15 t 0 r /Helvetica findfont 22.8295 sf 0 0 m (0) show NC gr 
 gsave  408 305 1383 1009 C 1527.01 1034.15 t 0 r /Helvetica findfont 22.8295 sf 0 0 m (500) show NC gr 
 gsave  408 305 1383 1009 C 1623.87 1034.15 t 0 r /Helvetica findfont 22.8295 sf 0 0 m (1000) show NC gr  1445 1284 m 306 X s 1445 1280 m 4 Y s 1548 1280 m 4 Y s 1652 1280 m 4 Y s 1652 1280 m 4 Y s 1445 1055 m 229 Y s 1450 1075 m -5 X s 1447 1079 m
 -2 X s 1447 1084 m -2 X s 1447 1089 m -2 X s 1447 1094 m -2 X s 1450 1099 m -5 X s 1447 1103 m -2 X s 1447 1108 m -2 X s 1447 1113 m -2 X s 1447 1118 m -2 X s 1450 1122 m -5 X s 1447 1127 m -2 X s 1447 1132 m -2 X s 1447 1137 m -2 X s 1447 1142 m -2
 X s 1450 1146 m -5 X s 1447 1151 m -2 X s 1447 1156 m -2 X s 1447 1161 m -2 X s 1447 1165 m -2 X s 1450 1170 m -5 X s 1447 1175 m -2 X s 1447 1180 m -2 X s 1447 1184 m -2 X s 1447 1189 m -2 X s 1450 1194 m -5 X s 1447 1199 m -2 X s 1447 1204 m -2 X
 s 1447 1208 m -2 X s 1447 1213 m -2 X s 1450 1218 m -5 X s 1447 1223 m -2 X s 1447 1227 m -2 X s 1447 1232 m -2 X s 1447 1237 m -2 X s 1450 1242 m -5 X s 1447 1247 m -2 X s 1447 1251 m -2 X s 1447 1256 m -2 X s 1447 1261 m -2 X s 1450 1266 m -5 X s
 1450 1075 m -5 X s 1447 1070 m -2 X s 1447 1065 m -2 X s 1447 1060 m -2 X s 1447 1056 m -2 X s 1450 1266 m -5 X s 1447 1270 m -2 X s 1447 1275 m -2 X s 1447 1280 m -2 X s
 gsave  408 305 1383 1009 C 1390.26 1068.33 t 0 r /Helvetica findfont 22.8295 sf 0 0 m (\2550.04) show NC gr 
 gsave  408 305 1383 1009 C 1376.01 1091.12 t 0 r /Helvetica findfont 22.8295 sf 0 0 m (\2550.035) show NC gr 
 gsave  408 305 1383 1009 C 1390.26 1113.92 t 0 r /Helvetica findfont 22.8295 sf 0 0 m (\2550.03) show NC gr 
 gsave  408 305 1383 1009 C 1376.01 1139.56 t 0 r /Helvetica findfont 22.8295 sf 0 0 m (\2550.025) show NC gr 
 gsave  408 305 1383 1009 C 1390.26 1162.35 t 0 r /Helvetica findfont 22.8295 sf 0 0 m (\2550.02) show NC gr 
 gsave  408 305 1383 1009 C 1376.01 1187.99 t 0 r /Helvetica findfont 22.8295 sf 0 0 m (\2550.015) show NC gr 
 gsave  408 305 1383 1009 C 1393.11 1210.78 t 0 r /Helvetica findfont 22.8295 sf 0 0 m (\2550.01) show NC gr 
 gsave  408 305 1383 1009 C 1376.01 1233.57 t 0 r /Helvetica findfont 22.8295 sf 0 0 m (\2550.005) show NC gr 
 gsave  408 305 1383 1009 C 1427.29 1259.21 t 0 r /Helvetica findfont 22.8295 sf 0 0 m (0) show NC gr  1751 1055 m 229 Y s 1745 1075 m 6 X s 1748 1079 m 3 X s 1748 1084 m 3 X s 1748 1089 m 3 X s 1748 1094 m 3 X s 1745 1099 m 6 X s 1748 1103 m 3 X s
 1748 1108 m 3 X s 1748 1113 m 3 X s 1748 1118 m 3 X s 1745 1122 m 6 X s 1748 1127 m 3 X s 1748 1132 m 3 X s 1748 1137 m 3 X s 1748 1142 m 3 X s 1745 1146 m 6 X s 1748 1151 m 3 X s 1748 1156 m 3 X s 1748 1161 m 3 X s 1748 1165 m 3 X s 1745 1170 m 6 X
 s 1748 1175 m 3 X s 1748 1180 m 3 X s 1748 1184 m 3 X s 1748 1189 m 3 X s 1745 1194 m 6 X s 1748 1199 m 3 X s 1748 1204 m 3 X s 1748 1208 m 3 X s 1748 1213 m 3 X s 1745 1218 m 6 X s 1748 1223 m 3 X s 1748 1227 m 3 X s 1748 1232 m 3 X s 1748 1237 m 3
 X s 1745 1242 m 6 X s 1748 1247 m 3 X s 1748 1251 m 3 X s 1748 1256 m 3 X s 1748 1261 m 3 X s 1745 1266 m 6 X s 1745 1075 m 6 X s 1748 1070 m 3 X s 1748 1065 m 3 X s 1748 1060 m 3 X s 1748 1056 m 3 X s 1745 1266 m 6 X s 1748 1270 m 3 X s 1748 1275 m
 3 X s 1748 1280 m 3 X s 1590 1259 1638 1252 1686 1208 1735 1079 4 { m21} R 1 0 0 c 9 lw 0.95 0.95 0.95 c black 1 0 0 c 1446 1266 m 6 X 3 -1 d 16 X 3 -1 d 6 X 3 -1 d 3 X 3 -1 d 6 X 3 -1 d 3 -1 d 3 X 3 -1 d 3 X 3 -1 d 3 -1 d 4 X 3 -1 d 3 -1 d 3 -1 d 3
 -1 d 3 X 3 -1 d 3 -1 d 3 -1 d 3 -1 d 3 -1 d 3 -1 d 3 -1 d 3 -2 d 3 -1 d 3 -1 d 4 -1 d 3 -1 d 3 -2 d 3 -1 d 3 -1 d 3 -2 d 3 -1 d 3 -1 d 3 -2 d 3 -1 d s 1596 1229 m 3 -2 d 3 -1 d 3 -2 d 3 -2 d 3 -1 d 3 -2 d 4 -2 d 3 -1 d 3 -2 d 3 -2 d 3 -2 d 3 -1 d 3
 -2 d 3 -2 d 3 -2 d 3 -2 d 3 -2 d 3 -2 d 3 -2 d 3 -2 d 3 -2 d 3 -3 d 3 -2 d 4 -2 d 3 -2 d 3 -2 d 3 -3 d 3 -2 d 3 -2 d 3 -3 d 3 -2 d 3 -3 d 3 -2 d 3 -3 d 3 -2 d 3 -3 d 3 -2 d 3 -3 d 3 -3 d 4 -2 d 3 -3 d 3 -3 d 3 -3 d 3 -2 d 3 -3 d 3 -3 d 3 -3 d 3 -3 d
 3 -3 d s 1746 1119 m 3 -3 d s 0.49 0.6 0.82 c black 0.49 0.6 0.82 c
 gsave  408 305 1383 1009 C 1504.21 1293.4 t 0 r /Helvetica-Bold findfont 25.6831 sf 0 0 m (1.5 < E < 2.0 GeV) show NC gr  0.52 0.76 0.64 c black 0.52 0.76 0.64 c
 gsave  408 305 1383 1009 C 1484.27 1256.36 t 0 r /Helvetica-Bold findfont 25.6831 sf 0 0 m 
 228 214 200 193 178 171 156 149 134 126 119 105 91 77 69 55 47 40 25 17
(A = \2550.000, p = 2.000) K NC gr  1 0.6 1 c black 1 0.6 1 c
 gsave  408 305 1383 1009 C 1789.1 1113.92 t 90 r /Helvetica-Bold findfont 28.5368 sf 0 0 m (/dof=73.7) show NC gr  black 1 0.6 1 c
 gsave  408 305 1383 1009 C 1777.71 1102.52 t 90 r /Helvetica-Bold findfont 19.9758 sf 0 0 m (2) show NC gr  black 1 0.6 1 c
 gsave  408 305 1383 1009 C 1789.1 1085.43 t 90 r /Symbol findfont 28.5368 sf 0 0 m (c) show NC gr  black 3 lw 1 1 1 c 408 305 1837 1009 bf black 1 1 1 c black 306 229 1898 1055 bl 306 229 1898 1055 bl 1898 1055 m 306 X s 1898 1059 m -4 Y s 2002 1059
 m -4 Y s 2105 1059 m -4 Y s 2105 1059 m -4 Y s
 gsave  408 305 1837 1009 C 1888.81 1034.15 t 0 r /Helvetica findfont 22.8295 sf 0 0 m (0) show NC gr 
 gsave  408 305 1837 1009 C 1979.98 1034.15 t 0 r /Helvetica findfont 22.8295 sf 0 0 m (500) show NC gr 
 gsave  408 305 1837 1009 C 2079.69 1034.15 t 0 r /Helvetica findfont 22.8295 sf 0 0 m (1000) show NC gr  1898 1284 m 306 X s 1898 1280 m 4 Y s 2002 1280 m 4 Y s 2105 1280 m 4 Y s 2105 1280 m 4 Y s 1898 1055 m 229 Y s 1904 1086 m -6 X s 1901 1096 m
 -3 X s 1901 1105 m -3 X s 1901 1114 m -3 X s 1901 1123 m -3 X s 1904 1132 m -6 X s 1901 1141 m -3 X s 1901 1150 m -3 X s 1901 1159 m -3 X s 1901 1168 m -3 X s 1904 1177 m -6 X s 1901 1186 m -3 X s 1901 1195 m -3 X s 1901 1204 m -3 X s 1901 1213 m -3
 X s 1904 1222 m -6 X s 1901 1231 m -3 X s 1901 1240 m -3 X s 1901 1249 m -3 X s 1901 1258 m -3 X s 1904 1267 m -6 X s 1904 1086 m -6 X s 1901 1077 m -3 X s 1901 1068 m -3 X s 1901 1059 m -3 X s 1904 1267 m -6 X s 1901 1276 m -3 X s
 gsave  408 305 1837 1009 C 1843.23 1079.73 t 0 r /Helvetica findfont 22.8295 sf 0 0 m (\2550.04) show NC gr 
 gsave  408 305 1837 1009 C 1843.23 1125.31 t 0 r /Helvetica findfont 22.8295 sf 0 0 m (\2550.03) show NC gr 
 gsave  408 305 1837 1009 C 1843.23 1170.89 t 0 r /Helvetica findfont 22.8295 sf 0 0 m (\2550.02) show NC gr 
 gsave  408 305 1837 1009 C 1846.08 1216.48 t 0 r /Helvetica findfont 22.8295 sf 0 0 m (\2550.01) show NC gr 
 gsave  408 305 1837 1009 C 1880.27 1259.21 t 0 r /Helvetica findfont 22.8295 sf 0 0 m (0) show NC gr  2204 1055 m 229 Y s 2199 1086 m 5 X s 2201 1096 m 3 X s 2201 1105 m 3 X s 2201 1114 m 3 X s 2201 1123 m 3 X s 2199 1132 m 5 X s 2201 1141 m 3 X s
 2201 1150 m 3 X s 2201 1159 m 3 X s 2201 1168 m 3 X s 2199 1177 m 5 X s 2201 1186 m 3 X s 2201 1195 m 3 X s 2201 1204 m 3 X s 2201 1213 m 3 X s 2199 1222 m 5 X s 2201 1231 m 3 X s 2201 1240 m 3 X s 2201 1249 m 3 X s 2201 1258 m 3 X s 2199 1267 m 5 X
 s 2199 1086 m 5 X s 2201 1077 m 3 X s 2201 1068 m 3 X s 2201 1059 m 3 X s 2199 1267 m 5 X s 2201 1276 m 3 X s 2043 1259 2091 1248 2140 1210 2188 1079 4 { m21} R 1 0 0 c 9 lw 0.95 0.95 0.95 c black 1 0 0 c 1900 1267 m 21 X 3 -1 d 6 X 3 -1 d 6 X 3 -1
 d 4 X 3 -1 d 3 X 3 -1 d 3 X 3 -1 d 3 -1 d 3 X 3 -1 d 3 -1 d 3 -1 d 3 X 3 -1 d 3 -1 d 3 -1 d 3 -1 d 4 -1 d 3 -1 d 3 -1 d 3 -1 d 3 -1 d 3 -1 d 3 -1 d 3 -1 d 3 -2 d 3 -1 d 3 -1 d 3 -1 d 3 -2 d 3 -1 d 3 -2 d 3 -1 d 3 -1 d 4 -2 d 3 -1 d s 2050 1230 m 3
 -2 d 3 -1 d 3 -2 d 3 -2 d 3 -1 d 3 -2 d 3 -2 d 3 -2 d 3 -1 d 3 -2 d 3 -2 d 3 -2 d 3 -2 d 3 -2 d 4 -2 d 3 -2 d 3 -2 d 3 -2 d 3 -2 d 3 -2 d 3 -2 d 3 -2 d 3 -3 d 3 -2 d 3 -2 d 3 -3 d 3 -2 d 3 -2 d 3 -3 d 3 -2 d 4 -3 d 3 -2 d 3 -3 d 3 -2 d 3 -3 d 3 -2 d
 3 -3 d 3 -3 d 3 -2 d 3 -3 d 3 -3 d 3 -3 d 3 -3 d 3 -2 d 3 -3 d 3 -3 d 4 -3 d 3 -3 d 3 -3 d s 2200 1118 m 3 -3 d s 0.49 0.6 0.82 c black 0.49 0.6 0.82 c
 gsave  408 305 1837 1009 C 1957.19 1293.4 t 0 r /Helvetica-Bold findfont 25.6831 sf 0 0 m (2.0 < E < 2.5 GeV) show NC gr  0.52 0.76 0.64 c black 0.52 0.76 0.64 c
 gsave  408 305 1837 1009 C 1937.25 1256.36 t 0 r /Helvetica-Bold findfont 25.6831 sf 0 0 m 
 228 214 200 193 178 171 156 149 133 126 119 105 91 77 69 55 47 39 25 17
(A = \2550.000, p = 2.000) K NC gr  1 0.6 1 c black 1 0.6 1 c
 gsave  408 305 1837 1009 C 2242.08 1113.92 t 90 r /Helvetica-Bold findfont 28.5368 sf 0 0 m (/dof=74.0) show NC gr  black 1 0.6 1 c
 gsave  408 305 1837 1009 C 2230.68 1102.52 t 90 r /Helvetica-Bold findfont 19.9758 sf 0 0 m (2) show NC gr  black 1 0.6 1 c
 gsave  408 305 1837 1009 C 2242.08 1085.43 t 90 r /Symbol findfont 28.5368 sf 0 0 m (c) show NC gr  black 3 lw 1 1 1 c 408 305 23 677 bf black 1 1 1 c black 306 229 84 723 bl 306 229 84 723 bl 84 723 m 306 X s 84 727 m -4 Y s 188 727 m -4 Y s 291
 727 m -4 Y s 291 727 m -4 Y s
 gsave  408 305 23 677 C 74.0711 703.676 t 0 r /Helvetica findfont 22.8295 sf 0 0 m (0) show NC gr 
 gsave  408 305 23 677 C 165.236 703.676 t 0 r /Helvetica findfont 22.8295 sf 0 0 m (500) show NC gr 
 gsave  408 305 23 677 C 264.947 703.676 t 0 r /Helvetica findfont 22.8295 sf 0 0 m (1000) show NC gr  84 952 m 306 X s 84 948 m 4 Y s 188 948 m 4 Y s 291 948 m 4 Y s 291 948 m 4 Y s 84 723 m 229 Y s 89 747 m -5 X s 87 756 m -3 X s 87 764 m -3 X s 87
 773 m -3 X s 87 781 m -3 X s 89 790 m -5 X s 87 799 m -3 X s 87 807 m -3 X s 87 816 m -3 X s 87 825 m -3 X s 89 833 m -5 X s 87 842 m -3 X s 87 851 m -3 X s 87 859 m -3 X s 87 868 m -3 X s 89 877 m -5 X s 87 885 m -3 X s 87 894 m -3 X s 87 903 m -3
 X s 87 911 m -3 X s 89 920 m -5 X s 89 747 m -5 X s 87 738 m -3 X s 87 730 m -3 X s 89 920 m -5 X s 87 929 m -3 X s 87 937 m -3 X s 87 946 m -3 X s
 gsave  408 305 23 677 C 28.4889 740.711 t 0 r /Helvetica findfont 22.8295 sf 0 0 m (\2550.04) show NC gr 
 gsave  408 305 23 677 C 28.4889 783.445 t 0 r /Helvetica findfont 22.8295 sf 0 0 m (\2550.03) show NC gr 
 gsave  408 305 23 677 C 28.4889 826.178 t 0 r /Helvetica findfont 22.8295 sf 0 0 m (\2550.02) show NC gr 
 gsave  408 305 23 677 C 31.3378 868.911 t 0 r /Helvetica findfont 22.8295 sf 0 0 m (\2550.01) show NC gr 
 gsave  408 305 23 677 C 65.5245 911.645 t 0 r /Helvetica findfont 22.8295 sf 0 0 m (0) show NC gr  390 723 m 229 Y s 385 747 m 5 X s 387 756 m 3 X s 387 764 m 3 X s 387 773 m 3 X s 387 781 m 3 X s 385 790 m 5 X s 387 799 m 3 X s 387 807 m 3 X s 387
 816 m 3 X s 387 825 m 3 X s 385 833 m 5 X s 387 842 m 3 X s 387 851 m 3 X s 387 859 m 3 X s 387 868 m 3 X s 385 877 m 5 X s 387 885 m 3 X s 387 894 m 3 X s 387 903 m 3 X s 387 911 m 3 X s 385 920 m 5 X s 385 747 m 5 X s 387 738 m 3 X s 387 730 m 3 X
 s 385 920 m 5 X s 387 929 m 3 X s 387 937 m 3 X s 387 946 m 3 X s /w 22 def /w2 {w 2 div} def /w3 {w 3 div} def 229 927 277 905 326 863 374 747 4 { m21} R 1 0 0 c 9 lw 0.95 0.95 0.95 c black 1 0 0 c 85 920 m 16 X 3 -1 d 9 X 3 -1 d 6 X 3 -1 d 6 X 3
 -1 d 3 X 4 -1 d 3 X 3 -1 d 3 -1 d 3 X 3 -1 d 3 X 3 -1 d 3 -1 d 3 -1 d 3 X 3 -1 d 3 -1 d 3 -1 d 3 -1 d 3 -1 d 4 -1 d 3 -1 d 3 -1 d 3 -1 d 3 -1 d 3 -1 d 3 -1 d 3 -1 d 3 -1 d 3 -2 d 3 -1 d 3 -1 d 3 -1 d 3 -2 d 3 -1 d 3 -1 d s 235 886 m 4 -2 d 3 -1 d 3
 -2 d 3 -1 d 3 -2 d 3 -1 d 3 -2 d 3 -1 d 3 -2 d 3 -2 d 3 -1 d 3 -2 d 3 -2 d 3 -2 d 3 -1 d 3 -2 d 3 -2 d 4 -2 d 3 -2 d 3 -2 d 3 -2 d 3 -2 d 3 -2 d 3 -2 d 3 -2 d 3 -2 d 3 -2 d 3 -2 d 3 -2 d 3 -3 d 3 -2 d 3 -2 d 3 -2 d 4 -3 d 3 -2 d 3 -2 d 3 -3 d 3 -2 d
 3 -3 d 3 -2 d 3 -3 d 3 -2 d 3 -3 d 3 -2 d 3 -3 d 3 -3 d 3 -2 d 3 -3 d 3 -3 d s 385 784 m 4 -3 d s 0.49 0.6 0.82 c black 0.49 0.6 0.82 c
 gsave  408 305 23 677 C 142.445 960.076 t 0 r /Helvetica-Bold findfont 25.6831 sf 0 0 m (2.5 < E < 3.0 GeV) show NC gr  0.52 0.76 0.64 c black 0.52 0.76 0.64 c
 gsave  408 305 23 677 C 122.502 923.04 t 0 r /Helvetica-Bold findfont 25.6831 sf 0 0 m 
 228 214 200 193 178 171 156 149 134 126 119 105 91 77 69 55 47 39 25 17
(A = \2550.000, p = 2.000) K NC gr  1 0.6 1 c black 1 0.6 1 c
 gsave  408 305 23 677 C 427.334 783.445 t 90 r /Helvetica-Bold findfont 28.5368 sf 0 0 m (/dof=70.8) show NC gr  black 1 0.6 1 c
 gsave  408 305 23 677 C 415.938 772.049 t 90 r /Helvetica-Bold findfont 19.9758 sf 0 0 m (2) show NC gr  black 1 0.6 1 c
 gsave  408 305 23 677 C 427.334 754.956 t 90 r /Symbol findfont 28.5368 sf 0 0 m (c) show NC gr  black 3 lw 1 1 1 c 408 305 476 677 bf black 1 1 1 c black 307 229 537 723 bl 307 229 537 723 bl 537 723 m 307 X s 537 727 m -4 Y s 641 727 m -4 Y s 745
 727 m -4 Y s 745 727 m -4 Y s
 gsave  408 305 476 677 C 527.045 703.676 t 0 r /Helvetica findfont 22.8295 sf 0 0 m (0) show NC gr 
 gsave  408 305 476 677 C 621.058 703.676 t 0 r /Helvetica findfont 22.8295 sf 0 0 m (500) show NC gr 
 gsave  408 305 476 677 C 717.92 703.676 t 0 r /Helvetica findfont 22.8295 sf 0 0 m (1000) show NC gr  537 952 m 307 X s 537 948 m 4 Y s 641 948 m 4 Y s 745 948 m 4 Y s 745 948 m 4 Y s 537 723 m 229 Y s 543 743 m -6 X s 540 748 m -3 X s 540 753 m -3
 X s 540 757 m -3 X s 540 762 m -3 X s 543 767 m -6 X s 540 772 m -3 X s 540 776 m -3 X s 540 781 m -3 X s 540 786 m -3 X s 543 790 m -6 X s 540 795 m -3 X s 540 800 m -3 X s 540 805 m -3 X s 540 809 m -3 X s 543 814 m -6 X s 540 819 m -3 X s 540 823
 m -3 X s 540 828 m -3 X s 540 833 m -3 X s 543 838 m -6 X s 540 842 m -3 X s 540 847 m -3 X s 540 852 m -3 X s 540 856 m -3 X s 543 861 m -6 X s 540 866 m -3 X s 540 871 m -3 X s 540 875 m -3 X s 540 880 m -3 X s 543 885 m -6 X s 540 889 m -3 X s
 540 894 m -3 X s 540 899 m -3 X s 540 904 m -3 X s 543 908 m -6 X s 540 913 m -3 X s 540 918 m -3 X s 540 922 m -3 X s 540 927 m -3 X s 543 932 m -6 X s 543 743 m -6 X s 540 739 m -3 X s 540 734 m -3 X s 540 729 m -3 X s 540 724 m -3 X s 543 932 m
 -6 X s 540 937 m -3 X s 540 941 m -3 X s 540 946 m -3 X s 540 951 m -3 X s
 gsave  408 305 476 677 C 481.462 735.014 t 0 r /Helvetica findfont 22.8295 sf 0 0 m (\2550.04) show NC gr 
 gsave  408 305 476 677 C 467.218 760.654 t 0 r /Helvetica findfont 22.8295 sf 0 0 m (\2550.035) show NC gr 
 gsave  408 305 476 677 C 481.462 783.445 t 0 r /Helvetica findfont 22.8295 sf 0 0 m (\2550.03) show NC gr 
 gsave  408 305 476 677 C 467.218 806.236 t 0 r /Helvetica findfont 22.8295 sf 0 0 m (\2550.025) show NC gr 
 gsave  408 305 476 677 C 481.462 831.876 t 0 r /Helvetica findfont 22.8295 sf 0 0 m (\2550.02) show NC gr 
 gsave  408 305 476 677 C 467.218 854.667 t 0 r /Helvetica findfont 22.8295 sf 0 0 m (\2550.015) show NC gr 
 gsave  408 305 476 677 C 484.311 877.458 t 0 r /Helvetica findfont 22.8295 sf 0 0 m (\2550.01) show NC gr 
 gsave  408 305 476 677 C 467.218 900.249 t 0 r /Helvetica findfont 22.8295 sf 0 0 m (\2550.005) show NC gr 
 gsave  408 305 476 677 C 518.498 925.889 t 0 r /Helvetica findfont 22.8295 sf 0 0 m (0) show NC gr  844 723 m 229 Y s 838 743 m 6 X s 841 748 m 3 X s 841 753 m 3 X s 841 757 m 3 X s 841 762 m 3 X s 838 767 m 6 X s 841 772 m 3 X s 841 776 m 3 X s 841
 781 m 3 X s 841 786 m 3 X s 838 790 m 6 X s 841 795 m 3 X s 841 800 m 3 X s 841 805 m 3 X s 841 809 m 3 X s 838 814 m 6 X s 841 819 m 3 X s 841 823 m 3 X s 841 828 m 3 X s 841 833 m 3 X s 838 838 m 6 X s 841 842 m 3 X s 841 847 m 3 X s 841 852 m 3 X
 s 841 856 m 3 X s 838 861 m 6 X s 841 866 m 3 X s 841 871 m 3 X s 841 875 m 3 X s 841 880 m 3 X s 838 885 m 6 X s 841 889 m 3 X s 841 894 m 3 X s 841 899 m 3 X s 841 904 m 3 X s 838 908 m 6 X s 841 913 m 3 X s 841 918 m 3 X s 841 922 m 3 X s 841 927
 m 3 X s 838 932 m 6 X s 838 743 m 6 X s 841 739 m 3 X s 841 734 m 3 X s 841 729 m 3 X s 841 724 m 3 X s 838 932 m 6 X s 841 937 m 3 X s 841 941 m 3 X s 841 946 m 3 X s 841 951 m 3 X s /w 23 def /w2 {w 2 div} def /w3 {w 3 div} def 683 926 731 926 779
 879 828 748 4 { m21} R 1 0 0 c 9 lw 0.95 0.95 0.95 c black 1 0 0 c 539 932 m 12 X 3 -1 d 13 X 3 -1 d 6 X 3 -1 d 3 X 3 -1 d 3 X 3 -1 d 3 X 3 -1 d 3 X 3 -1 d 3 -1 d 3 X 3 -1 d 4 -1 d 3 X 3 -1 d 3 -1 d 3 -1 d 3 -1 d 3 -1 d 3 X 3 -1 d 3 -1 d 3 -1 d 3 -1
 d 3 -2 d 3 -1 d 3 -1 d 3 -1 d 3 -1 d 4 -1 d 3 -2 d 3 -1 d 3 -1 d 3 -2 d 3 -1 d 3 -1 d 3 -2 d s 689 896 m 3 -1 d 3 -2 d 3 -1 d 3 -2 d 3 -1 d 3 -2 d 3 -1 d 3 -2 d 4 -2 d 3 -2 d 3 -1 d 3 -2 d 3 -2 d 3 -2 d 3 -1 d 3 -2 d 3 -2 d 3 -2 d 3 -2 d 3 -2 d 3 -2
 d 3 -2 d 3 -2 d 3 -3 d 4 -2 d 3 -2 d 3 -2 d 3 -2 d 3 -3 d 3 -2 d 3 -2 d 3 -2 d 3 -3 d 3 -2 d 3 -3 d 3 -2 d 3 -3 d 3 -2 d 3 -3 d 3 -2 d 4 -3 d 3 -3 d 3 -2 d 3 -3 d 3 -3 d 3 -2 d 3 -3 d 3 -3 d 3 -3 d s 839 791 m 3 -3 d s 0.49 0.6 0.82 c black 0.49 0.6
 0.82 c
 gsave  408 305 476 677 C 595.418 960.076 t 0 r /Helvetica-Bold findfont 25.6831 sf 0 0 m (3.0 < E < 3.5 GeV) show NC gr  0.52 0.76 0.64 c black 0.52 0.76 0.64 c
 gsave  408 305 476 677 C 575.476 923.04 t 0 r /Helvetica-Bold findfont 25.6831 sf 0 0 m 
 228 214 200 193 178 171 156 149 133 126 119 105 91 76 69 55 47 39 25 17
(A = \2550.000, p = 2.000) K NC gr  1 0.6 1 c black 1 0.6 1 c
 gsave  408 305 476 677 C 883.156 783.445 t 90 r /Helvetica-Bold findfont 28.5368 sf 0 0 m (/dof=61.6) show NC gr  black 1 0.6 1 c
 gsave  408 305 476 677 C 871.76 772.049 t 90 r /Helvetica-Bold findfont 19.9758 sf 0 0 m (2) show NC gr  black 1 0.6 1 c
 gsave  408 305 476 677 C 883.156 754.956 t 90 r /Symbol findfont 28.5368 sf 0 0 m (c) show NC gr  black 3 lw 1 1 1 c 408 305 930 677 bf black 1 1 1 c black 306 229 991 723 bl 306 229 991 723 bl 991 723 m 306 X s 991 727 m -4 Y s 1095 727 m -4 Y s
 1198 727 m -4 Y s 1198 727 m -4 Y s
 gsave  408 305 930 677 C 980.018 703.676 t 0 r /Helvetica findfont 22.8295 sf 0 0 m (0) show NC gr 
 gsave  408 305 930 677 C 1074.03 703.676 t 0 r /Helvetica findfont 22.8295 sf 0 0 m (500) show NC gr 
 gsave  408 305 930 677 C 1170.89 703.676 t 0 r /Helvetica findfont 22.8295 sf 0 0 m (1000) show NC gr  991 952 m 306 X s 991 948 m 4 Y s 1095 948 m 4 Y s 1198 948 m 4 Y s 1198 948 m 4 Y s 991 723 m 229 Y s 997 744 m -6 X s 994 749 m -3 X s 994 754 m
 -3 X s 994 758 m -3 X s 994 763 m -3 X s 997 768 m -6 X s 994 772 m -3 X s 994 777 m -3 X s 994 781 m -3 X s 994 786 m -3 X s 997 791 m -6 X s 994 795 m -3 X s 994 800 m -3 X s 994 805 m -3 X s 994 809 m -3 X s 997 814 m -6 X s 994 819 m -3 X s 994
 823 m -3 X s 994 828 m -3 X s 994 832 m -3 X s 997 837 m -6 X s 994 842 m -3 X s 994 846 m -3 X s 994 851 m -3 X s 994 856 m -3 X s 997 860 m -6 X s 994 865 m -3 X s 994 870 m -3 X s 994 874 m -3 X s 994 879 m -3 X s 997 883 m -6 X s 994 888 m -3 X
 s 994 893 m -3 X s 994 897 m -3 X s 994 902 m -3 X s 997 907 m -6 X s 994 911 m -3 X s 994 916 m -3 X s 994 921 m -3 X s 994 925 m -3 X s 997 930 m -6 X s 997 744 m -6 X s 994 740 m -3 X s 994 735 m -3 X s 994 730 m -3 X s 994 726 m -3 X s 997 930 m
 -6 X s 994 934 m -3 X s 994 939 m -3 X s 994 944 m -3 X s 994 948 m -3 X s
 gsave  408 305 930 677 C 937.285 737.863 t 0 r /Helvetica findfont 22.8295 sf 0 0 m (\2550.04) show NC gr 
 gsave  408 305 930 677 C 923.04 760.654 t 0 r /Helvetica findfont 22.8295 sf 0 0 m (\2550.035) show NC gr 
 gsave  408 305 930 677 C 937.285 783.445 t 0 r /Helvetica findfont 22.8295 sf 0 0 m (\2550.03) show NC gr 
 gsave  408 305 930 677 C 923.04 806.236 t 0 r /Helvetica findfont 22.8295 sf 0 0 m (\2550.025) show NC gr 
 gsave  408 305 930 677 C 937.285 829.027 t 0 r /Helvetica findfont 22.8295 sf 0 0 m (\2550.02) show NC gr 
 gsave  408 305 930 677 C 923.04 851.818 t 0 r /Helvetica findfont 22.8295 sf 0 0 m (\2550.015) show NC gr 
 gsave  408 305 930 677 C 940.134 877.458 t 0 r /Helvetica findfont 22.8295 sf 0 0 m (\2550.01) show NC gr 
 gsave  408 305 930 677 C 923.04 900.249 t 0 r /Helvetica findfont 22.8295 sf 0 0 m (\2550.005) show NC gr 
 gsave  408 305 930 677 C 974.32 923.04 t 0 r /Helvetica findfont 22.8295 sf 0 0 m (0) show NC gr  1297 723 m 229 Y s 1292 744 m 5 X s 1294 749 m 3 X s 1294 754 m 3 X s 1294 758 m 3 X s 1294 763 m 3 X s 1292 768 m 5 X s 1294 772 m 3 X s 1294 777 m 3
 X s 1294 781 m 3 X s 1294 786 m 3 X s 1292 791 m 5 X s 1294 795 m 3 X s 1294 800 m 3 X s 1294 805 m 3 X s 1294 809 m 3 X s 1292 814 m 5 X s 1294 819 m 3 X s 1294 823 m 3 X s 1294 828 m 3 X s 1294 832 m 3 X s 1292 837 m 5 X s 1294 842 m 3 X s 1294
 846 m 3 X s 1294 851 m 3 X s 1294 856 m 3 X s 1292 860 m 5 X s 1294 865 m 3 X s 1294 870 m 3 X s 1294 874 m 3 X s 1294 879 m 3 X s 1292 883 m 5 X s 1294 888 m 3 X s 1294 893 m 3 X s 1294 897 m 3 X s 1294 902 m 3 X s 1292 907 m 5 X s 1294 911 m 3 X s
 1294 916 m 3 X s 1294 921 m 3 X s 1294 925 m 3 X s 1292 930 m 5 X s 1292 744 m 5 X s 1294 740 m 3 X s 1294 735 m 3 X s 1294 730 m 3 X s 1294 726 m 3 X s 1292 930 m 5 X s 1294 934 m 3 X s 1294 939 m 3 X s 1294 944 m 3 X s 1294 948 m 3 X s 1136 925
 1184 920 1233 881 1281 749 4 { m21} R 1 0 0 c 9 lw 0.95 0.95 0.95 c black 1 0 0 c 993 930 m 9 X 3 -1 d 12 X 3 -1 d 9 X 3 -1 d 3 X 3 -1 d 4 X 3 -1 d 3 X 3 -1 d 3 X 3 -1 d 3 X 3 -1 d 3 -1 d 3 X 3 -1 d 3 -1 d 3 -1 d 3 -1 d 3 X 3 -1 d 3 -1 d 4 -1 d 3 -1
 d 3 -1 d 3 -1 d 3 -1 d 3 -1 d 3 -1 d 3 -2 d 3 -1 d 3 -1 d 3 -1 d 3 -1 d 3 -2 d 3 -1 d 3 -1 d 3 -2 d 4 -1 d s 1143 895 m 3 -2 d 3 -1 d 3 -1 d 3 -2 d 3 -1 d 3 -2 d 3 -2 d 3 -1 d 3 -2 d 3 -2 d 3 -1 d 3 -2 d 3 -2 d 3 -2 d 3 -1 d 4 -2 d 3 -2 d 3 -2 d 3
 -2 d 3 -2 d 3 -2 d 3 -2 d 3 -2 d 3 -2 d 3 -2 d 3 -2 d 3 -3 d 3 -2 d 3 -2 d 3 -2 d 3 -2 d 3 -3 d 4 -2 d 3 -2 d 3 -3 d 3 -2 d 3 -3 d 3 -2 d 3 -3 d 3 -2 d 3 -3 d 3 -2 d 3 -3 d 3 -3 d 3 -2 d 3 -3 d 3 -3 d 3 -3 d 4 -2 d s 1293 792 m 3 -3 d s 0.49 0.6
 0.82 c black 0.49 0.6 0.82 c
 gsave  408 305 930 677 C 1051.24 960.076 t 0 r /Helvetica-Bold findfont 25.6831 sf 0 0 m (3.5 < E < 4.0 GeV) show NC gr  0.52 0.76 0.64 c black 0.52 0.76 0.64 c
 gsave  408 305 930 677 C 1031.3 923.04 t 0 r /Helvetica-Bold findfont 25.6831 sf 0 0 m 
 228 214 200 193 178 171 156 149 133 126 119 105 91 77 69 55 47 39 25 17
(A = \2550.000, p = 2.000) K NC gr  1 0.6 1 c black 1 0.6 1 c
 gsave  408 305 930 677 C 1336.13 783.445 t 90 r /Helvetica-Bold findfont 28.5368 sf 0 0 m (/dof=44.2) show NC gr  black 1 0.6 1 c
 gsave  408 305 930 677 C 1324.73 772.049 t 90 r /Helvetica-Bold findfont 19.9758 sf 0 0 m (2) show NC gr  black 1 0.6 1 c
 gsave  408 305 930 677 C 1336.13 754.956 t 90 r /Symbol findfont 28.5368 sf 0 0 m (c) show NC gr  black 3 lw 1 1 1 c 408 305 1383 677 bf black 1 1 1 c black 306 229 1445 723 bl 306 229 1445 723 bl 1445 723 m 306 X s 1445 727 m -4 Y s 1548 727 m -4 Y
 s 1652 727 m -4 Y s 1652 727 m -4 Y s
 gsave  408 305 1383 677 C 1435.84 703.676 t 0 r /Helvetica findfont 22.8295 sf 0 0 m (0) show NC gr 
 gsave  408 305 1383 677 C 1527.01 703.676 t 0 r /Helvetica findfont 22.8295 sf 0 0 m (500) show NC gr 
 gsave  408 305 1383 677 C 1623.87 703.676 t 0 r /Helvetica findfont 22.8295 sf 0 0 m (1000) show NC gr  1445 952 m 306 X s 1445 948 m 4 Y s 1548 948 m 4 Y s 1652 948 m 4 Y s 1652 948 m 4 Y s 1445 723 m 229 Y s 1450 750 m -5 X s 1447 755 m -2 X s
 1447 760 m -2 X s 1447 766 m -2 X s 1447 771 m -2 X s 1450 777 m -5 X s 1447 782 m -2 X s 1447 788 m -2 X s 1447 793 m -2 X s 1447 798 m -2 X s 1450 804 m -5 X s 1447 809 m -2 X s 1447 815 m -2 X s 1447 820 m -2 X s 1447 825 m -2 X s 1450 831 m -5 X
 s 1447 836 m -2 X s 1447 842 m -2 X s 1447 847 m -2 X s 1447 852 m -2 X s 1450 858 m -5 X s 1447 863 m -2 X s 1447 869 m -2 X s 1447 874 m -2 X s 1447 879 m -2 X s 1450 885 m -5 X s 1447 890 m -2 X s 1447 896 m -2 X s 1447 901 m -2 X s 1447 906 m -2
 X s 1450 912 m -5 X s 1447 917 m -2 X s 1447 923 m -2 X s 1447 928 m -2 X s 1447 933 m -2 X s 1450 939 m -5 X s 1450 750 m -5 X s 1447 744 m -2 X s 1447 739 m -2 X s 1447 733 m -2 X s 1447 728 m -2 X s 1450 939 m -5 X s 1447 944 m -2 X s 1447 950 m
 -2 X s
 gsave  408 305 1383 677 C 1376.01 743.56 t 0 r /Helvetica findfont 22.8295 sf 0 0 m (\2550.035) show NC gr 
 gsave  408 305 1383 677 C 1390.26 769.2 t 0 r /Helvetica findfont 22.8295 sf 0 0 m (\2550.03) show NC gr 
 gsave  408 305 1383 677 C 1376.01 797.689 t 0 r /Helvetica findfont 22.8295 sf 0 0 m (\2550.025) show NC gr 
 gsave  408 305 1383 677 C 1390.26 823.329 t 0 r /Helvetica findfont 22.8295 sf 0 0 m (\2550.02) show NC gr 
 gsave  408 305 1383 677 C 1376.01 851.818 t 0 r /Helvetica findfont 22.8295 sf 0 0 m (\2550.015) show NC gr 
 gsave  408 305 1383 677 C 1393.11 877.458 t 0 r /Helvetica findfont 22.8295 sf 0 0 m (\2550.01) show NC gr 
 gsave  408 305 1383 677 C 1376.01 905.947 t 0 r /Helvetica findfont 22.8295 sf 0 0 m (\2550.005) show NC gr 
 gsave  408 305 1383 677 C 1427.29 931.587 t 0 r /Helvetica findfont 22.8295 sf 0 0 m (0) show NC gr  1751 723 m 229 Y s 1745 750 m 6 X s 1748 755 m 3 X s 1748 760 m 3 X s 1748 766 m 3 X s 1748 771 m 3 X s 1745 777 m 6 X s 1748 782 m 3 X s 1748 788 m
 3 X s 1748 793 m 3 X s 1748 798 m 3 X s 1745 804 m 6 X s 1748 809 m 3 X s 1748 815 m 3 X s 1748 820 m 3 X s 1748 825 m 3 X s 1745 831 m 6 X s 1748 836 m 3 X s 1748 842 m 3 X s 1748 847 m 3 X s 1748 852 m 3 X s 1745 858 m 6 X s 1748 863 m 3 X s 1748
 869 m 3 X s 1748 874 m 3 X s 1748 879 m 3 X s 1745 885 m 6 X s 1748 890 m 3 X s 1748 896 m 3 X s 1748 901 m 3 X s 1748 906 m 3 X s 1745 912 m 6 X s 1748 917 m 3 X s 1748 923 m 3 X s 1748 928 m 3 X s 1748 933 m 3 X s 1745 939 m 6 X s 1745 750 m 6 X s
 1748 744 m 3 X s 1748 739 m 3 X s 1748 733 m 3 X s 1748 728 m 3 X s 1745 939 m 6 X s 1748 944 m 3 X s 1748 950 m 3 X s 1590 922 1638 912 1686 863 1735 753 4 { m21} R 1 0 0 c 9 lw 0.95 0.95 0.95 c black 1 0 0 c 1446 939 m 12 X 3 -1 d 10 X 3 -1 d 6 X
 3 -1 d 3 X 3 -1 d 3 X 3 -1 d 3 X 3 -1 d 3 X 3 -1 d 3 -1 d 3 X 3 -1 d 4 -1 d 3 -1 d 3 -1 d 3 X 3 -1 d 3 -1 d 3 -1 d 3 -1 d 3 -1 d 3 -1 d 3 -2 d 3 -1 d 3 -1 d 3 -1 d 3 -1 d 3 -2 d 4 -1 d 3 -1 d 3 -2 d 3 -1 d 3 -2 d 3 -1 d 3 -2 d 3 -1 d 3 -2 d 3 -1 d s
 1596 899 m 3 -2 d 3 -2 d 3 -1 d 3 -2 d 3 -2 d 3 -2 d 4 -1 d 3 -2 d 3 -2 d 3 -2 d 3 -2 d 3 -2 d 3 -2 d 3 -2 d 3 -2 d 3 -2 d 3 -3 d 3 -2 d 3 -2 d 3 -2 d 3 -3 d 3 -2 d 3 -2 d 4 -3 d 3 -2 d 3 -3 d 3 -2 d 3 -3 d 3 -2 d 3 -3 d 3 -2 d 3 -3 d 3 -3 d 3 -2 d
 3 -3 d 3 -3 d 3 -3 d 3 -3 d 3 -3 d 4 -2 d 3 -3 d 3 -3 d 3 -3 d 3 -3 d 3 -4 d 3 -3 d 3 -3 d 3 -3 d 3 -3 d s 1746 780 m 3 -3 d s 0.49 0.6 0.82 c black 0.49 0.6 0.82 c
 gsave  408 305 1383 677 C 1504.21 960.076 t 0 r /Helvetica-Bold findfont 25.6831 sf 0 0 m (4.0 < E < 4.5 GeV) show NC gr  0.52 0.76 0.64 c black 0.52 0.76 0.64 c
 gsave  408 305 1383 677 C 1484.27 923.04 t 0 r /Helvetica-Bold findfont 25.6831 sf 0 0 m 
 228 214 200 193 178 171 156 149 134 126 119 105 91 77 69 55 47 40 25 17
(A = \2550.000, p = 2.000) K NC gr  1 0.6 1 c black 1 0.6 1 c
 gsave  408 305 1383 677 C 1789.1 783.445 t 90 r /Helvetica-Bold findfont 28.5368 sf 0 0 m 
 107 99 83 69 52 43 25 8
(/dof=11.2) K NC gr  black 1 0.6 1 c
 gsave  408 305 1383 677 C 1777.71 772.049 t 90 r /Helvetica-Bold findfont 19.9758 sf 0 0 m (2) show NC gr  black 1 0.6 1 c
 gsave  408 305 1383 677 C 1789.1 754.956 t 90 r /Symbol findfont 28.5368 sf 0 0 m (c) show NC gr  black 3 lw 1 1 1 c 408 305 1837 677 bf black 1 1 1 c black 306 229 1898 723 bl 306 229 1898 723 bl 1898 723 m 306 X s 1898 727 m -4 Y s 2002 727 m -4 Y
 s 2105 727 m -4 Y s 2105 727 m -4 Y s
 gsave  408 305 1837 677 C 1888.81 703.676 t 0 r /Helvetica findfont 22.8295 sf 0 0 m (0) show NC gr 
 gsave  408 305 1837 677 C 1979.98 703.676 t 0 r /Helvetica findfont 22.8295 sf 0 0 m (500) show NC gr 
 gsave  408 305 1837 677 C 2079.69 703.676 t 0 r /Helvetica findfont 22.8295 sf 0 0 m (1000) show NC gr  1898 952 m 306 X s 1898 948 m 4 Y s 2002 948 m 4 Y s 2105 948 m 4 Y s 2105 948 m 4 Y s 1898 723 m 229 Y s 1904 726 m -6 X s 1901 732 m -3 X s
 1901 738 m -3 X s 1901 744 m -3 X s 1901 750 m -3 X s 1904 756 m -6 X s 1901 762 m -3 X s 1901 768 m -3 X s 1901 773 m -3 X s 1901 779 m -3 X s 1904 785 m -6 X s 1901 791 m -3 X s 1901 797 m -3 X s 1901 803 m -3 X s 1901 809 m -3 X s 1904 815 m -6 X
 s 1901 821 m -3 X s 1901 827 m -3 X s 1901 833 m -3 X s 1901 839 m -3 X s 1904 845 m -6 X s 1901 851 m -3 X s 1901 857 m -3 X s 1901 863 m -3 X s 1901 869 m -3 X s 1904 875 m -6 X s 1901 881 m -3 X s 1901 887 m -3 X s 1901 893 m -3 X s 1901 899 m -3
 X s 1904 905 m -6 X s 1901 911 m -3 X s 1901 917 m -3 X s 1901 922 m -3 X s 1901 928 m -3 X s 1904 934 m -6 X s 1904 726 m -6 X s 1904 934 m -6 X s 1901 940 m -3 X s 1901 946 m -3 X s
 gsave  408 305 1837 677 C 1828.99 717.92 t 0 r /Helvetica findfont 22.8295 sf 0 0 m (\2550.035) show NC gr 
 gsave  408 305 1837 677 C 1843.23 749.258 t 0 r /Helvetica findfont 22.8295 sf 0 0 m (\2550.03) show NC gr 
 gsave  408 305 1837 677 C 1828.99 777.747 t 0 r /Helvetica findfont 22.8295 sf 0 0 m (\2550.025) show NC gr 
 gsave  408 305 1837 677 C 1843.23 809.085 t 0 r /Helvetica findfont 22.8295 sf 0 0 m (\2550.02) show NC gr 
 gsave  408 305 1837 677 C 1828.99 837.574 t 0 r /Helvetica findfont 22.8295 sf 0 0 m (\2550.015) show NC gr 
 gsave  408 305 1837 677 C 1846.08 868.911 t 0 r /Helvetica findfont 22.8295 sf 0 0 m (\2550.01) show NC gr 
 gsave  408 305 1837 677 C 1828.99 897.4 t 0 r /Helvetica findfont 22.8295 sf 0 0 m (\2550.005) show NC gr 
 gsave  408 305 1837 677 C 1880.27 925.889 t 0 r /Helvetica findfont 22.8295 sf 0 0 m (0) show NC gr  2204 723 m 229 Y s 2199 726 m 5 X s 2201 732 m 3 X s 2201 738 m 3 X s 2201 744 m 3 X s 2201 750 m 3 X s 2199 756 m 5 X s 2201 762 m 3 X s 2201 768 m
 3 X s 2201 773 m 3 X s 2201 779 m 3 X s 2199 785 m 5 X s 2201 791 m 3 X s 2201 797 m 3 X s 2201 803 m 3 X s 2201 809 m 3 X s 2199 815 m 5 X s 2201 821 m 3 X s 2201 827 m 3 X s 2201 833 m 3 X s 2201 839 m 3 X s 2199 845 m 5 X s 2201 851 m 3 X s 2201
 857 m 3 X s 2201 863 m 3 X s 2201 869 m 3 X s 2199 875 m 5 X s 2201 881 m 3 X s 2201 887 m 3 X s 2201 893 m 3 X s 2201 899 m 3 X s 2199 905 m 5 X s 2201 911 m 3 X s 2201 917 m 3 X s 2201 922 m 3 X s 2201 928 m 3 X s 2199 934 m 5 X s 2199 726 m 5 X s
 2199 934 m 5 X s 2201 940 m 3 X s 2201 946 m 3 X s 2043 917 2091 905 2140 877 2188 758 4 { m21} R 2043 928 m 5 Y s 2037 933 m 12 X s 2043 905 m -4 Y s 2037 901 m 12 X s 2091 916 m 5 Y s 2086 921 m 11 X s 2091 893 m -4 Y s 2086 889 m 11 X s 2140 888
 m 5 Y s 2134 893 m 11 X s 2140 865 m -5 Y s 2134 860 m 11 X s 2188 769 m 5 Y s 2183 774 m 11 X s 2188 746 m -4 Y s 2183 742 m 11 X s 1 0 0 c 9 lw 0.95 0.95 0.95 c black 1 0 0 c 1900 934 m 21 X 3 -1 d 6 X 3 -1 d 6 X 3 -1 d 4 X 3 -1 d 3 X 3 -1 d 3 X 3
 -1 d 3 -1 d 3 X 3 -1 d 3 -1 d 3 X 3 -1 d 3 -1 d 3 -1 d 3 -1 d 3 -1 d 4 -1 d 3 X 3 -1 d 3 -2 d 3 -1 d 3 -1 d 3 -1 d 3 -1 d 3 -1 d 3 -1 d 3 -2 d 3 -1 d 3 -1 d 3 -1 d 3 -2 d 3 -1 d 3 -2 d 4 -1 d 3 -1 d s 2050 898 m 3 -2 d 3 -2 d 3 -1 d 3 -2 d 3 -1 d 3
 -2 d 3 -2 d 3 -1 d 3 -2 d 3 -2 d 3 -2 d 3 -2 d 3 -1 d 3 -2 d 4 -2 d 3 -2 d 3 -2 d 3 -2 d 3 -2 d 3 -2 d 3 -2 d 3 -3 d 3 -2 d 3 -2 d 3 -2 d 3 -2 d 3 -3 d 3 -2 d 3 -2 d 3 -3 d 4 -2 d 3 -3 d 3 -2 d 3 -3 d 3 -2 d 3 -3 d 3 -2 d 3 -3 d 3 -3 d 3 -2 d 3 -3 d
 3 -3 d 3 -2 d 3 -3 d 3 -3 d 3 -3 d 4 -3 d 3 -3 d 3 -3 d s 2200 788 m 3 -3 d s 0.49 0.6 0.82 c black 0.49 0.6 0.82 c
 gsave  408 305 1837 677 C 1957.19 960.076 t 0 r /Helvetica-Bold findfont 25.6831 sf 0 0 m (4.5 < E < 5.0 GeV) show NC gr  0.52 0.76 0.64 c black 0.52 0.76 0.64 c
 gsave  408 305 1837 677 C 1937.25 923.04 t 0 r /Helvetica-Bold findfont 25.6831 sf 0 0 m 
 228 214 200 193 178 171 156 149 133 126 119 105 91 77 69 55 47 39 25 17
(A = \2550.000, p = 2.000) K NC gr  1 0.6 1 c black 1 0.6 1 c
 gsave  408 305 1837 677 C 2242.08 791.991 t 90 r /Helvetica-Bold findfont 28.5368 sf 0 0 m (/dof=5.5) show NC gr  black 1 0.6 1 c
 gsave  408 305 1837 677 C 2230.68 780.596 t 90 r /Helvetica-Bold findfont 19.9758 sf 0 0 m (2) show NC gr  black 1 0.6 1 c
 gsave  408 305 1837 677 C 2242.08 763.503 t 90 r /Symbol findfont 28.5368 sf 0 0 m (c) show NC gr  black 3 lw 1 1 1 c 408 306 23 345 bf black 1 1 1 c black 306 229 84 391 bl 306 229 84 391 bl 84 391 m 306 X s 84 395 m -4 Y s 188 395 m -4 Y s 291 395
 m -4 Y s 291 395 m -4 Y s
 gsave  408 306 23 345 C 74.0711 370.356 t 0 r /Helvetica findfont 22.8295 sf 0 0 m (0) show NC gr 
 gsave  408 306 23 345 C 165.236 370.356 t 0 r /Helvetica findfont 22.8295 sf 0 0 m (500) show NC gr 
 gsave  408 306 23 345 C 264.947 370.356 t 0 r /Helvetica findfont 22.8295 sf 0 0 m (1000) show NC gr  84 620 m 306 X s 84 616 m 4 Y s 188 616 m 4 Y s 291 616 m 4 Y s 291 616 m 4 Y s 84 391 m 229 Y s 89 399 m -5 X s 87 407 m -3 X s 87 415 m -3 X s 87
 423 m -3 X s 87 431 m -3 X s 89 438 m -5 X s 87 446 m -3 X s 87 454 m -3 X s 87 462 m -3 X s 87 470 m -3 X s 89 478 m -5 X s 87 486 m -3 X s 87 494 m -3 X s 87 502 m -3 X s 87 509 m -3 X s 89 517 m -5 X s 87 525 m -3 X s 87 533 m -3 X s 87 541 m -3
 X s 87 549 m -3 X s 89 557 m -5 X s 87 565 m -3 X s 87 573 m -3 X s 87 580 m -3 X s 87 588 m -3 X s 89 596 m -5 X s 89 399 m -5 X s 87 391 m -3 X s 89 596 m -5 X s 87 604 m -3 X s 87 612 m -3 X s 87 620 m -3 X s
 gsave  408 306 23 345 C 14.2445 393.147 t 0 r /Helvetica findfont 22.8295 sf 0 0 m (\2550.025) show NC gr 
 gsave  408 306 23 345 C 28.4889 430.182 t 0 r /Helvetica findfont 22.8295 sf 0 0 m (\2550.02) show NC gr 
 gsave  408 306 23 345 C 14.2445 470.067 t 0 r /Helvetica findfont 22.8295 sf 0 0 m (\2550.015) show NC gr 
 gsave  408 306 23 345 C 31.3378 509.951 t 0 r /Helvetica findfont 22.8295 sf 0 0 m (\2550.01) show NC gr 
 gsave  408 306 23 345 C 14.2445 549.836 t 0 r /Helvetica findfont 22.8295 sf 0 0 m (\2550.005) show NC gr 
 gsave  408 306 23 345 C 65.5245 589.72 t 0 r /Helvetica findfont 22.8295 sf 0 0 m (0) show NC gr  390 391 m 229 Y s 385 399 m 5 X s 387 407 m 3 X s 387 415 m 3 X s 387 423 m 3 X s 387 431 m 3 X s 385 438 m 5 X s 387 446 m 3 X s 387 454 m 3 X s 387
 462 m 3 X s 387 470 m 3 X s 385 478 m 5 X s 387 486 m 3 X s 387 494 m 3 X s 387 502 m 3 X s 387 509 m 3 X s 385 517 m 5 X s 387 525 m 3 X s 387 533 m 3 X s 387 541 m 3 X s 387 549 m 3 X s 385 557 m 5 X s 387 565 m 3 X s 387 573 m 3 X s 387 580 m 3 X
 s 387 588 m 3 X s 385 596 m 5 X s 385 399 m 5 X s 387 391 m 3 X s 385 596 m 5 X s 387 604 m 3 X s 387 612 m 3 X s 387 620 m 3 X s /w 22 def /w2 {w 2 div} def /w3 {w 3 div} def 229 573 277 566 326 561 374 437 4 { m21} R 229 585 m 16 Y s 223 601 m 12
 X s 229 562 m -16 Y s 223 546 m 12 X s 277 577 m 16 Y s 272 593 m 11 X s 277 554 m -16 Y s 272 538 m 11 X s 326 572 m 16 Y s 320 588 m 11 X s 326 549 m -16 Y s 320 533 m 11 X s 374 449 m 15 Y s 368 464 m 12 X s 374 426 m -16 Y s 368 410 m 12 X s 1 0
 0 c 9 lw 0.95 0.95 0.95 c black 1 0 0 c 85 596 m 22 X 3 -1 d 9 X 3 -1 d 6 X 3 -1 d 3 X 3 -1 d 4 X 3 -1 d 3 X 3 -1 d 3 X 3 -1 d 3 -1 d 3 X 3 -1 d 3 -1 d 3 X 3 -1 d 3 -1 d 3 -1 d 3 -1 d 3 X 4 -1 d 3 -1 d 3 -1 d 3 -1 d 3 -1 d 3 -1 d 3 -1 d 3 -1 d 3 -1
 d 3 -1 d 3 -2 d 3 -1 d 3 -1 d 3 -1 d 3 -1 d 3 -2 d s 235 564 m 4 -1 d 3 -1 d 3 -2 d 3 -1 d 3 -1 d 3 -2 d 3 -1 d 3 -2 d 3 -1 d 3 -2 d 3 -1 d 3 -2 d 3 -2 d 3 -1 d 3 -2 d 3 -2 d 3 -1 d 4 -2 d 3 -2 d 3 -2 d 3 -2 d 3 -1 d 3 -2 d 3 -2 d 3 -2 d 3 -2 d 3 -2
 d 3 -2 d 3 -2 d 3 -2 d 3 -2 d 3 -2 d 3 -2 d 4 -3 d 3 -2 d 3 -2 d 3 -2 d 3 -3 d 3 -2 d 3 -2 d 3 -2 d 3 -3 d 3 -2 d 3 -3 d 3 -2 d 3 -3 d 3 -2 d 3 -3 d 3 -2 d s 385 470 m 4 -3 d s 0.49 0.6 0.82 c black 0.49 0.6 0.82 c
 gsave  408 306 23 345 C 142.445 629.605 t 0 r /Helvetica-Bold findfont 25.6831 sf 0 0 m (5.0 < E < 5.5 GeV) show NC gr  0.52 0.76 0.64 c black 0.52 0.76 0.64 c
 gsave  408 306 23 345 C 122.502 592.569 t 0 r /Helvetica-Bold findfont 25.6831 sf 0 0 m 
 228 214 200 193 178 171 156 149 134 126 119 105 91 77 69 55 47 39 25 17
(A = \2550.000, p = 2.000) K NC gr  1 0.6 1 c black 1 0.6 1 c
 gsave  408 306 23 345 C 427.334 458.671 t 90 r /Helvetica-Bold findfont 28.5368 sf 0 0 m (/dof=1.9) show NC gr  black 1 0.6 1 c
 gsave  408 306 23 345 C 415.938 447.276 t 90 r /Helvetica-Bold findfont 19.9758 sf 0 0 m (2) show NC gr  black 1 0.6 1 c
 gsave  408 306 23 345 C 427.334 430.182 t 90 r /Symbol findfont 28.5368 sf 0 0 m (c) show NC gr  black 3 lw 1 1 1 c 408 306 476 345 bf black 1 1 1 c black 307 229 537 391 bl 307 229 537 391 bl 537 391 m 307 X s 537 395 m -4 Y s 641 395 m -4 Y s 745
 395 m -4 Y s 745 395 m -4 Y s
 gsave  408 306 476 345 C 527.045 370.356 t 0 r /Helvetica findfont 22.8295 sf 0 0 m (0) show NC gr 
 gsave  408 306 476 345 C 621.058 370.356 t 0 r /Helvetica findfont 22.8295 sf 0 0 m (500) show NC gr 
 gsave  408 306 476 345 C 717.92 370.356 t 0 r /Helvetica findfont 22.8295 sf 0 0 m (1000) show NC gr  537 620 m 307 X s 537 616 m 4 Y s 641 616 m 4 Y s 745 616 m 4 Y s 745 616 m 4 Y s 537 391 m 229 Y s 543 393 m -6 X s 540 399 m -3 X s 540 405 m -3
 X s 540 411 m -3 X s 543 416 m -6 X s 540 422 m -3 X s 540 428 m -3 X s 540 434 m -3 X s 543 439 m -6 X s 540 445 m -3 X s 540 451 m -3 X s 540 457 m -3 X s 543 462 m -6 X s 540 468 m -3 X s 540 474 m -3 X s 540 480 m -3 X s 543 485 m -6 X s 540 491
 m -3 X s 540 497 m -3 X s 540 503 m -3 X s 543 509 m -6 X s 540 514 m -3 X s 540 520 m -3 X s 540 526 m -3 X s 543 532 m -6 X s 540 537 m -3 X s 540 543 m -3 X s 540 549 m -3 X s 543 555 m -6 X s 540 560 m -3 X s 540 566 m -3 X s 540 572 m -3 X s
 543 578 m -6 X s 540 583 m -3 X s 540 589 m -3 X s 540 595 m -3 X s 543 601 m -6 X s 543 393 m -6 X s 543 601 m -6 X s 540 607 m -3 X s 540 612 m -3 X s 540 618 m -3 X s
 gsave  408 306 476 345 C 467.218 387.449 t 0 r /Helvetica findfont 22.8295 sf 0 0 m (\2550.004) show NC gr 
 gsave  408 306 476 345 C 467.218 410.24 t 0 r /Helvetica findfont 22.8295 sf 0 0 m (\2550.002) show NC gr 
 gsave  408 306 476 345 C 518.498 433.031 t 0 r /Helvetica findfont 22.8295 sf 0 0 m (0) show NC gr 
 gsave  408 306 476 345 C 475.765 455.822 t 0 r /Helvetica findfont 22.8295 sf 0 0 m (0.002) show NC gr 
 gsave  408 306 476 345 C 475.765 478.614 t 0 r /Helvetica findfont 22.8295 sf 0 0 m (0.004) show NC gr 
 gsave  408 306 476 345 C 475.765 501.405 t 0 r /Helvetica findfont 22.8295 sf 0 0 m (0.006) show NC gr 
 gsave  408 306 476 345 C 475.765 524.196 t 0 r /Helvetica findfont 22.8295 sf 0 0 m (0.008) show NC gr 
 gsave  408 306 476 345 C 490.009 546.987 t 0 r /Helvetica findfont 22.8295 sf 0 0 m (0.01) show NC gr 
 gsave  408 306 476 345 C 475.765 569.778 t 0 r /Helvetica findfont 22.8295 sf 0 0 m (0.012) show NC gr 
 gsave  408 306 476 345 C 475.765 592.569 t 0 r /Helvetica findfont 22.8295 sf 0 0 m (0.014) show NC gr  844 391 m 229 Y s 838 393 m 6 X s 841 399 m 3 X s 841 405 m 3 X s 841 411 m 3 X s 838 416 m 6 X s 841 422 m 3 X s 841 428 m 3 X s 841 434 m 3 X s
 838 439 m 6 X s 841 445 m 3 X s 841 451 m 3 X s 841 457 m 3 X s 838 462 m 6 X s 841 468 m 3 X s 841 474 m 3 X s 841 480 m 3 X s 838 485 m 6 X s 841 491 m 3 X s 841 497 m 3 X s 841 503 m 3 X s 838 509 m 6 X s 841 514 m 3 X s 841 520 m 3 X s 841 526 m
 3 X s 838 532 m 6 X s 841 537 m 3 X s 841 543 m 3 X s 841 549 m 3 X s 838 555 m 6 X s 841 560 m 3 X s 841 566 m 3 X s 841 572 m 3 X s 838 578 m 6 X s 841 583 m 3 X s 841 589 m 3 X s 841 595 m 3 X s 838 601 m 6 X s 838 393 m 6 X s 838 601 m 6 X s 841
 607 m 3 X s 841 612 m 3 X s 841 618 m 3 X s /w 23 def /w2 {w 2 div} def /w3 {w 3 div} def 683 550 731 460 779 511 828 546 4 { m21} R 683 562 m 39 Y s 677 601 m 11 X s 683 539 m -40 Y s 677 499 m 11 X s 731 472 m 39 Y s 725 511 m 12 X s 731 449 m -39
 Y s 725 410 m 12 X s 779 523 m 39 Y s 773 562 m 12 X s 779 500 m -39 Y s 773 461 m 12 X s 828 557 m 40 Y s 822 597 m 11 X s 828 535 m -40 Y s 822 495 m 11 X s 9 lw 0.95 0.95 0.95 c black 539 440 m 3 1 d 3 1 d 3 1 d 3 1 d 3 1 d 3 1 d 3 1 d 3 1 d 4 1
 d 3 1 d 3 1 d 3 1 d 3 1 d 3 1 d 3 2 d 3 1 d 3 1 d 3 1 d 3 1 d 3 1 d 3 1 d 3 1 d 3 1 d 3 1 d 4 1 d 3 1 d 3 1 d 3 1 d 3 1 d 3 1 d 3 1 d 3 1 d 3 1 d 3 1 d 3 1 d 3 1 d 3 1 d 3 1 d 3 1 d 3 2 d 3 1 d 4 1 d 3 1 d 3 1 d 3 1 d 3 1 d 3 1 d 3 1 d 3 1 d s 689
 491 m 3 1 d 3 1 d 3 1 d 3 1 d 3 1 d 3 1 d 3 1 d 3 1 d 4 1 d 3 1 d 3 1 d 3 1 d 3 1 d 3 1 d 3 2 d 3 1 d 3 1 d 3 1 d 3 1 d 3 1 d 3 1 d 3 1 d 3 1 d 3 1 d 4 1 d 3 1 d 3 1 d 3 1 d 3 1 d 3 1 d 3 1 d 3 1 d 3 1 d 3 1 d 3 1 d 3 1 d 3 1 d 3 1 d 3 2 d 3 1 d 4 1
 d 3 1 d 3 1 d 3 1 d 3 1 d 3 1 d 3 1 d 3 1 d 3 1 d s 839 542 m 3 1 d s 0.49 0.6 0.82 c black 0.49 0.6 0.82 c
 gsave  408 306 476 345 C 595.418 629.605 t 0 r /Helvetica-Bold findfont 25.6831 sf 0 0 m (5.5 < E < 6.0 GeV) show NC gr  0.52 0.76 0.64 c black 0.52 0.76 0.64 c
 gsave  408 306 476 345 C 581.174 592.569 t 0 r /Helvetica-Bold findfont 25.6831 sf 0 0 m 
 220 206 192 185 170 163 148 141 125 118 111 97 83 68 61 47 40 25 18
(A = 0.000, p = 1.000) K NC gr  1 0.6 1 c black 1 0.6 1 c
 gsave  408 306 476 345 C 883.156 458.671 t 90 r /Helvetica-Bold findfont 28.5368 sf 0 0 m (/dof=0.8) show NC gr  black 1 0.6 1 c
 gsave  408 306 476 345 C 871.76 447.276 t 90 r /Helvetica-Bold findfont 19.9758 sf 0 0 m (2) show NC gr  black 1 0.6 1 c
 gsave  408 306 476 345 C 883.156 430.182 t 90 r /Symbol findfont 28.5368 sf 0 0 m (c) show NC gr  black 3 lw 1 1 1 c 408 306 930 345 bf black 1 1 1 c black 306 229 991 391 bl 306 229 991 391 bl 991 391 m 306 X s 991 395 m -4 Y s 1095 395 m -4 Y s
 1198 395 m -4 Y s 1198 395 m -4 Y s
 gsave  408 306 930 345 C 980.018 370.356 t 0 r /Helvetica findfont 22.8295 sf 0 0 m (0) show NC gr 
 gsave  408 306 930 345 C 1074.03 370.356 t 0 r /Helvetica findfont 22.8295 sf 0 0 m (500) show NC gr 
 gsave  408 306 930 345 C 1170.89 370.356 t 0 r /Helvetica findfont 22.8295 sf 0 0 m (1000) show NC gr  991 620 m 306 X s 991 616 m 4 Y s 1095 616 m 4 Y s 1198 616 m 4 Y s 1198 616 m 4 Y s 991 391 m 229 Y s 997 407 m -6 X s 994 415 m -3 X s 994 423 m
 -3 X s 994 431 m -3 X s 994 439 m -3 X s 997 447 m -6 X s 994 454 m -3 X s 994 462 m -3 X s 994 470 m -3 X s 994 478 m -3 X s 997 486 m -6 X s 994 494 m -3 X s 994 502 m -3 X s 994 509 m -3 X s 994 517 m -3 X s 997 525 m -6 X s 994 533 m -3 X s 994
 541 m -3 X s 994 549 m -3 X s 994 556 m -3 X s 997 564 m -6 X s 994 572 m -3 X s 994 580 m -3 X s 994 588 m -3 X s 994 596 m -3 X s 997 604 m -6 X s 997 407 m -6 X s 994 400 m -3 X s 994 392 m -3 X s 997 604 m -6 X s 994 611 m -3 X s 994 619 m -3 X
 s
 gsave  408 306 930 345 C 940.134 401.694 t 0 r /Helvetica findfont 22.8295 sf 0 0 m (\2550.01) show NC gr 
 gsave  408 306 930 345 C 974.32 438.729 t 0 r /Helvetica findfont 22.8295 sf 0 0 m (0) show NC gr 
 gsave  408 306 930 345 C 945.832 478.614 t 0 r /Helvetica findfont 22.8295 sf 0 0 m (0.01) show NC gr 
 gsave  408 306 930 345 C 942.983 518.498 t 0 r /Helvetica findfont 22.8295 sf 0 0 m (0.02) show NC gr 
 gsave  408 306 930 345 C 942.983 558.382 t 0 r /Helvetica findfont 22.8295 sf 0 0 m (0.03) show NC gr 
 gsave  408 306 930 345 C 942.983 595.418 t 0 r /Helvetica findfont 22.8295 sf 0 0 m (0.04) show NC gr  1297 391 m 229 Y s 1292 407 m 5 X s 1294 415 m 3 X s 1294 423 m 3 X s 1294 431 m 3 X s 1294 439 m 3 X s 1292 447 m 5 X s 1294 454 m 3 X s 1294 462
 m 3 X s 1294 470 m 3 X s 1294 478 m 3 X s 1292 486 m 5 X s 1294 494 m 3 X s 1294 502 m 3 X s 1294 509 m 3 X s 1294 517 m 3 X s 1292 525 m 5 X s 1294 533 m 3 X s 1294 541 m 3 X s 1294 549 m 3 X s 1294 556 m 3 X s 1292 564 m 5 X s 1294 572 m 3 X s
 1294 580 m 3 X s 1294 588 m 3 X s 1294 596 m 3 X s 1292 604 m 5 X s 1292 407 m 5 X s 1294 400 m 3 X s 1294 392 m 3 X s 1292 604 m 5 X s 1294 611 m 3 X s 1294 619 m 3 X s 1136 431 1184 480 1233 496 1281 579 4 { m21} R 1136 442 m 10 Y s 1130 452 m 12
 X s 1136 419 m -9 Y s 1130 410 m 12 X s 1184 491 m 10 Y s 1179 501 m 11 X s 1184 469 m -10 Y s 1179 459 m 11 X s 1233 508 m 9 Y s 1227 517 m 11 X s 1233 485 m -10 Y s 1227 475 m 11 X s 1281 591 m 10 Y s 1275 601 m 12 X s 1281 568 m -10 Y s 1275 558
 m 12 X s 1 0 0 c 9 lw 0.95 0.95 0.95 c black 1 0 0 c 993 447 m 24 X 3 1 d 9 X 3 1 d 6 X 4 1 d 6 X 3 1 d 3 X 3 1 d 3 X 3 1 d 3 X 3 1 d 3 1 d 3 X 3 1 d 3 X 3 1 d 3 1 d 3 1 d 4 X 3 1 d 3 1 d 3 1 d 3 1 d 3 X 3 1 d 3 1 d 3 1 d 3 1 d 3 1 d 3 1 d 3 1 d 3 1
 d 3 1 d 3 1 d 4 1 d s 1143 474 m 3 1 d 3 2 d 3 1 d 3 1 d 3 1 d 3 1 d 3 2 d 3 1 d 3 1 d 3 2 d 3 1 d 3 1 d 3 2 d 3 1 d 3 2 d 4 1 d 3 2 d 3 1 d 3 2 d 3 1 d 3 2 d 3 1 d 3 2 d 3 2 d 3 1 d 3 2 d 3 2 d 3 1 d 3 2 d 3 2 d 3 2 d 3 2 d 4 2 d 3 1 d 3 2 d 3 2 d
 3 2 d 3 2 d 3 2 d 3 2 d 3 2 d 3 2 d 3 2 d 3 2 d 3 2 d 3 3 d 3 2 d 3 2 d 4 2 d s 1293 556 m 3 2 d s 0.49 0.6 0.82 c black 0.49 0.6 0.82 c
 gsave  408 306 930 345 C 1051.24 629.605 t 0 r /Helvetica-Bold findfont 25.6831 sf 0 0 m (6.0 < E < 6.5 GeV) show NC gr  0.52 0.76 0.64 c black 0.52 0.76 0.64 c
 gsave  408 306 930 345 C 1037 592.569 t 0 r /Helvetica-Bold findfont 25.6831 sf 0 0 m 
 220 206 192 185 170 163 148 141 125 118 111 97 83 69 61 47 40 25 18
(A = 0.000, p = 2.000) K NC gr  1 0.6 1 c black 1 0.6 1 c
 gsave  408 306 930 345 C 1336.13 458.671 t 90 r /Helvetica-Bold findfont 28.5368 sf 0 0 m (/dof=2.5) show NC gr  black 1 0.6 1 c
 gsave  408 306 930 345 C 1324.73 447.276 t 90 r /Helvetica-Bold findfont 19.9758 sf 0 0 m (2) show NC gr  black 1 0.6 1 c
 gsave  408 306 930 345 C 1336.13 430.182 t 90 r /Symbol findfont 28.5368 sf 0 0 m (c) show NC gr  black 3 lw 1 1 1 c 408 306 1383 345 bf black 1 1 1 c black 306 229 1445 391 bl 306 229 1445 391 bl 1445 391 m 306 X s 1445 395 m -4 Y s 1548 395 m -4 Y
 s 1652 395 m -4 Y s 1652 395 m -4 Y s
 gsave  408 306 1383 345 C 1435.84 370.356 t 0 r /Helvetica findfont 22.8295 sf 0 0 m (0) show NC gr 
 gsave  408 306 1383 345 C 1527.01 370.356 t 0 r /Helvetica findfont 22.8295 sf 0 0 m (500) show NC gr 
 gsave  408 306 1383 345 C 1623.87 370.356 t 0 r /Helvetica findfont 22.8295 sf 0 0 m (1000) show NC gr  1445 620 m 306 X s 1445 616 m 4 Y s 1548 616 m 4 Y s 1652 616 m 4 Y s 1652 616 m 4 Y s 1445 391 m 229 Y s 1450 412 m -5 X s 1447 422 m -2 X s
 1447 432 m -2 X s 1447 443 m -2 X s 1450 453 m -5 X s 1447 463 m -2 X s 1447 474 m -2 X s 1447 484 m -2 X s 1450 494 m -5 X s 1447 505 m -2 X s 1447 515 m -2 X s 1447 525 m -2 X s 1450 536 m -5 X s 1447 546 m -2 X s 1447 556 m -2 X s 1447 567 m -2 X
 s 1450 577 m -5 X s 1447 587 m -2 X s 1447 597 m -2 X s 1447 608 m -2 X s 1450 618 m -5 X s 1450 412 m -5 X s 1447 401 m -2 X s 1447 391 m -2 X s 1450 618 m -5 X s
 gsave  408 306 1383 345 C 1390.26 404.542 t 0 r /Helvetica findfont 22.8295 sf 0 0 m (\2550.02) show NC gr 
 gsave  408 306 1383 345 C 1427.29 444.427 t 0 r /Helvetica findfont 22.8295 sf 0 0 m (0) show NC gr 
 gsave  408 306 1383 345 C 1395.96 487.16 t 0 r /Helvetica findfont 22.8295 sf 0 0 m (0.02) show NC gr 
 gsave  408 306 1383 345 C 1395.96 527.045 t 0 r /Helvetica findfont 22.8295 sf 0 0 m (0.04) show NC gr 
 gsave  408 306 1383 345 C 1395.96 569.778 t 0 r /Helvetica findfont 22.8295 sf 0 0 m (0.06) show NC gr 
 gsave  408 306 1383 345 C 1395.96 609.662 t 0 r /Helvetica findfont 22.8295 sf 0 0 m (0.08) show NC gr  1751 391 m 229 Y s 1745 412 m 6 X s 1748 422 m 3 X s 1748 432 m 3 X s 1748 443 m 3 X s 1745 453 m 6 X s 1748 463 m 3 X s 1748 474 m 3 X s 1748
 484 m 3 X s 1745 494 m 6 X s 1748 505 m 3 X s 1748 515 m 3 X s 1748 525 m 3 X s 1745 536 m 6 X s 1748 546 m 3 X s 1748 556 m 3 X s 1748 567 m 3 X s 1745 577 m 6 X s 1748 587 m 3 X s 1748 597 m 3 X s 1748 608 m 3 X s 1745 618 m 6 X s 1745 412 m 6 X s
 1748 401 m 3 X s 1748 391 m 3 X s 1745 618 m 6 X s 1590 423 1638 461 1686 495 1735 587 4 { m21} R 1590 434 m 2 Y s 1584 436 m 11 X s 1590 411 m -1 Y s 1584 410 m 11 X s 1638 472 m 2 Y s 1632 474 m 12 X s 1638 450 m -2 Y s 1632 448 m 12 X s 1686 507
 m 1 Y s 1681 508 m 11 X s 1686 484 m -2 Y s 1681 482 m 11 X s 1735 599 m 2 Y s 1729 601 m 11 X s 1735 576 m -2 Y s 1729 574 m 11 X s 1 0 0 c 9 lw 0.95 0.95 0.95 c black 1 0 0 c 1446 453 m 21 X 4 1 d 12 X 3 1 d 6 X 3 1 d 6 X 3 1 d 3 X 3 1 d 6 X 4 1 d
 3 X 3 1 d 3 X 3 1 d 3 1 d 3 X 3 1 d 3 X 3 1 d 3 1 d 3 X 3 1 d 3 1 d 3 1 d 3 X 4 1 d 3 1 d 3 1 d 3 1 d 3 1 d 3 1 d 3 X 3 1 d 3 1 d 3 1 d s 1596 477 m 3 1 d 3 1 d 3 1 d 3 1 d 3 1 d 3 2 d 4 1 d 3 1 d 3 1 d 3 1 d 3 1 d 3 2 d 3 1 d 3 1 d 3 1 d 3 2 d 3 1
 d 3 1 d 3 2 d 3 1 d 3 1 d 3 2 d 3 1 d 4 2 d 3 1 d 3 2 d 3 1 d 3 2 d 3 1 d 3 2 d 3 1 d 3 2 d 3 2 d 3 1 d 3 2 d 3 2 d 3 1 d 3 2 d 3 2 d 4 2 d 3 1 d 3 2 d 3 2 d 3 2 d 3 2 d 3 2 d 3 2 d 3 2 d 3 1 d s 1746 549 m 3 2 d s 0.49 0.6 0.82 c black 0.49 0.6
 0.82 c
 gsave  408 306 1383 345 C 1504.21 629.605 t 0 r /Helvetica-Bold findfont 25.6831 sf 0 0 m (6.5 < E < 7.0 GeV) show NC gr  0.52 0.76 0.64 c black 0.52 0.76 0.64 c
 gsave  408 306 1383 345 C 1489.97 592.569 t 0 r /Helvetica-Bold findfont 25.6831 sf 0 0 m 
 220 206 192 185 170 163 148 141 126 118 111 97 83 69 61 47 40 25 18
(A = 0.000, p = 2.000) K NC gr  1 0.6 1 c black 1 0.6 1 c
 gsave  408 306 1383 345 C 1789.1 450.125 t 90 r /Helvetica-Bold findfont 28.5368 sf 0 0 m (/dof=12.0) show NC gr  black 1 0.6 1 c
 gsave  408 306 1383 345 C 1777.71 438.729 t 90 r /Helvetica-Bold findfont 19.9758 sf 0 0 m (2) show NC gr  black 1 0.6 1 c
 gsave  408 306 1383 345 C 1789.1 421.636 t 90 r /Symbol findfont 28.5368 sf 0 0 m (c) show NC gr  black 3 lw 1 1 1 c 408 306 1837 345 bf black 1 1 1 c black 306 229 1898 391 bl 306 229 1898 391 bl 1898 391 m 306 X s 1898 395 m -4 Y s 2002 395 m -4 Y
 s 2105 395 m -4 Y s 2105 395 m -4 Y s
 gsave  408 306 1837 345 C 1888.81 370.356 t 0 r /Helvetica findfont 22.8295 sf 0 0 m (0) show NC gr 
 gsave  408 306 1837 345 C 1979.98 370.356 t 0 r /Helvetica findfont 22.8295 sf 0 0 m (500) show NC gr 
 gsave  408 306 1837 345 C 2079.69 370.356 t 0 r /Helvetica findfont 22.8295 sf 0 0 m (1000) show NC gr  1898 620 m 306 X s 1898 616 m 4 Y s 2002 616 m 4 Y s 2105 616 m 4 Y s 2105 616 m 4 Y s 1898 391 m 229 Y s 1904 421 m -6 X s 1901 431 m -3 X s
 1901 441 m -3 X s 1901 450 m -3 X s 1904 460 m -6 X s 1901 469 m -3 X s 1901 479 m -3 X s 1901 488 m -3 X s 1904 498 m -6 X s 1901 508 m -3 X s 1901 517 m -3 X s 1901 527 m -3 X s 1904 536 m -6 X s 1901 546 m -3 X s 1901 555 m -3 X s 1901 565 m -3 X
 s 1904 574 m -6 X s 1901 584 m -3 X s 1901 594 m -3 X s 1901 603 m -3 X s 1904 613 m -6 X s 1904 421 m -6 X s 1901 412 m -3 X s 1901 402 m -3 X s 1901 393 m -3 X s 1904 613 m -6 X s
 gsave  408 306 1837 345 C 1880.27 413.089 t 0 r /Helvetica findfont 22.8295 sf 0 0 m (0) show NC gr 
 gsave  408 306 1837 345 C 1848.93 452.974 t 0 r /Helvetica findfont 22.8295 sf 0 0 m (0.02) show NC gr 
 gsave  408 306 1837 345 C 1848.93 490.009 t 0 r /Helvetica findfont 22.8295 sf 0 0 m (0.04) show NC gr 
 gsave  408 306 1837 345 C 1848.93 529.894 t 0 r /Helvetica findfont 22.8295 sf 0 0 m (0.06) show NC gr 
 gsave  408 306 1837 345 C 1848.93 566.929 t 0 r /Helvetica findfont 22.8295 sf 0 0 m (0.08) show NC gr 
 gsave  408 306 1837 345 C 1866.02 606.814 t 0 r /Helvetica findfont 22.8295 sf 0 0 m (0.1) show NC gr  2204 391 m 229 Y s 2199 421 m 5 X s 2201 431 m 3 X s 2201 441 m 3 X s 2201 450 m 3 X s 2199 460 m 5 X s 2201 469 m 3 X s 2201 479 m 3 X s 2201 488
 m 3 X s 2199 498 m 5 X s 2201 508 m 3 X s 2201 517 m 3 X s 2201 527 m 3 X s 2199 536 m 5 X s 2201 546 m 3 X s 2201 555 m 3 X s 2201 565 m 3 X s 2199 574 m 5 X s 2201 584 m 3 X s 2201 594 m 3 X s 2201 603 m 3 X s 2199 613 m 5 X s 2199 421 m 5 X s
 2201 412 m 3 X s 2201 402 m 3 X s 2201 393 m 3 X s 2199 613 m 5 X s 2043 434 2091 424 2140 485 2188 586 4 { m21} R 2043 445 m 2 Y s 2037 447 m 12 X s 2043 422 m -2 Y s 2037 420 m 12 X s 2091 435 m 2 Y s 2086 437 m 11 X s 2091 412 m -2 Y s 2086 410 m
 11 X s 2140 496 m 3 Y s 2134 499 m 11 X s 2140 473 m -2 Y s 2134 471 m 11 X s 2188 598 m 3 Y s 2183 601 m 11 X s 2188 575 m -3 Y s 2183 572 m 11 X s 1 0 0 c 9 lw 0.95 0.95 0.95 c black 1 0 0 c 1900 421 m 3 1 d 21 X 3 1 d 6 X 3 1 d 6 X 4 1 d 3 X 3 1
 d 3 X 3 1 d 3 X 3 1 d 3 X 3 1 d 3 X 3 1 d 3 1 d 3 1 d 3 X 3 1 d 3 1 d 4 1 d 3 1 d 3 X 3 1 d 3 1 d 3 1 d 3 1 d 3 1 d 3 1 d 3 1 d 3 1 d 3 2 d 3 1 d 3 1 d 3 1 d 3 1 d 3 1 d 4 2 d 3 1 d s 2050 454 m 3 1 d 3 2 d 3 1 d 3 2 d 3 1 d 3 1 d 3 2 d 3 1 d 3 2 d
 3 2 d 3 1 d 3 2 d 3 1 d 3 2 d 4 2 d 3 2 d 3 1 d 3 2 d 3 2 d 3 2 d 3 2 d 3 1 d 3 2 d 3 2 d 3 2 d 3 2 d 3 2 d 3 2 d 3 2 d 3 3 d 4 2 d 3 2 d 3 2 d 3 2 d 3 2 d 3 3 d 3 2 d 3 2 d 3 3 d 3 2 d 3 2 d 3 3 d 3 2 d 3 3 d 3 2 d 3 3 d 4 2 d 3 3 d 3 2 d s 2200
 550 m 3 3 d s 0.49 0.6 0.82 c black 0.49 0.6 0.82 c
 gsave  408 306 1837 345 C 1957.19 629.605 t 0 r /Helvetica-Bold findfont 25.6831 sf 0 0 m (7.0 < E < 7.5 GeV) show NC gr  0.52 0.76 0.64 c black 0.52 0.76 0.64 c
 gsave  408 306 1837 345 C 1942.94 592.569 t 0 r /Helvetica-Bold findfont 25.6831 sf 0 0 m 
 220 206 192 185 170 163 148 141 125 118 111 97 83 69 61 47 40 25 18
(A = 0.000, p = 2.000) K NC gr  1 0.6 1 c black 1 0.6 1 c
 gsave  408 306 1837 345 C 2242.08 458.671 t 90 r /Helvetica-Bold findfont 28.5368 sf 0 0 m (/dof=9.2) show NC gr  black 1 0.6 1 c
 gsave  408 306 1837 345 C 2230.68 447.276 t 90 r /Helvetica-Bold findfont 19.9758 sf 0 0 m (2) show NC gr  black 1 0.6 1 c
 gsave  408 306 1837 345 C 2242.08 430.182 t 90 r /Symbol findfont 28.5368 sf 0 0 m (c) show NC gr  black 3 lw 1 1 1 c 408 306 23 13 bf black 1 1 1 c black 306 229 84 59 bl 306 229 84 59 bl 84 59 m 306 X s 84 63 m -4 Y s 188 63 m -4 Y s 291 63 m -4 Y
 s 291 63 m -4 Y s
 gsave  408 306 23 13 C 74.0711 39.8845 t 0 r /Helvetica findfont 22.8295 sf 0 0 m (0) show NC gr 
 gsave  408 306 23 13 C 165.236 39.8845 t 0 r /Helvetica findfont 22.8295 sf 0 0 m (500) show NC gr 
 gsave  408 306 23 13 C 264.947 39.8845 t 0 r /Helvetica findfont 22.8295 sf 0 0 m (1000) show NC gr  84 288 m 306 X s 84 284 m 4 Y s 188 284 m 4 Y s 291 284 m 4 Y s 291 284 m 4 Y s 84 59 m 229 Y s 89 63 m -5 X s 87 70 m -3 X s 87 78 m -3 X s 87 85 m
 -3 X s 89 92 m -5 X s 87 100 m -3 X s 87 107 m -3 X s 87 114 m -3 X s 89 122 m -5 X s 87 129 m -3 X s 87 136 m -3 X s 87 144 m -3 X s 89 151 m -5 X s 87 158 m -3 X s 87 166 m -3 X s 87 173 m -3 X s 89 180 m -5 X s 87 187 m -3 X s 87 195 m -3 X s 87
 202 m -3 X s 89 209 m -5 X s 87 217 m -3 X s 87 224 m -3 X s 87 231 m -3 X s 89 239 m -5 X s 87 246 m -3 X s 87 253 m -3 X s 87 261 m -3 X s 89 268 m -5 X s 89 63 m -5 X s 89 268 m -5 X s 87 275 m -3 X s 87 283 m -3 X s
 gsave  408 306 23 13 C 28.4889 56.9778 t 0 r /Helvetica findfont 22.8295 sf 0 0 m (\2550.02) show NC gr 
 gsave  408 306 23 13 C 65.5245 85.4667 t 0 r /Helvetica findfont 22.8295 sf 0 0 m (0) show NC gr 
 gsave  408 306 23 13 C 34.1867 113.956 t 0 r /Helvetica findfont 22.8295 sf 0 0 m (0.02) show NC gr 
 gsave  408 306 23 13 C 34.1867 142.445 t 0 r /Helvetica findfont 22.8295 sf 0 0 m (0.04) show NC gr 
 gsave  408 306 23 13 C 34.1867 173.782 t 0 r /Helvetica findfont 22.8295 sf 0 0 m (0.06) show NC gr 
 gsave  408 306 23 13 C 34.1867 202.271 t 0 r /Helvetica findfont 22.8295 sf 0 0 m (0.08) show NC gr 
 gsave  408 306 23 13 C 51.28 230.76 t 0 r /Helvetica findfont 22.8295 sf 0 0 m (0.1) show NC gr 
 gsave  408 306 23 13 C 34.1867 262.098 t 0 r /Helvetica findfont 22.8295 sf 0 0 m (0.12) show NC gr  390 59 m 229 Y s 385 63 m 5 X s 387 70 m 3 X s 387 78 m 3 X s 387 85 m 3 X s 385 92 m 5 X s 387 100 m 3 X s 387 107 m 3 X s 387 114 m 3 X s 385 122
 m 5 X s 387 129 m 3 X s 387 136 m 3 X s 387 144 m 3 X s 385 151 m 5 X s 387 158 m 3 X s 387 166 m 3 X s 387 173 m 3 X s 385 180 m 5 X s 387 187 m 3 X s 387 195 m 3 X s 387 202 m 3 X s 385 209 m 5 X s 387 217 m 3 X s 387 224 m 3 X s 387 231 m 3 X s
 385 239 m 5 X s 387 246 m 3 X s 387 253 m 3 X s 387 261 m 3 X s 385 268 m 5 X s 385 63 m 5 X s 385 268 m 5 X s 387 275 m 3 X s 387 283 m 3 X s /w 22 def /w2 {w 2 div} def /w3 {w 3 div} def 229 90 277 107 326 137 374 257 4 { m21} R 277 118 m s 272
 118 m 11 X s 277 95 m s 272 95 m 11 X s 326 148 m s 320 148 m 11 X s 326 125 m s 320 125 m 11 X s 374 268 m 1 Y s 368 269 m 12 X s 374 245 m -1 Y s 368 244 m 12 X s 1 0 0 c 9 lw 0.95 0.95 0.95 c black 1 0 0 c 85 92 m 7 X 3 1 d 18 X 3 1 d 6 X 3 1 d 6
 X 3 1 d 3 X 4 1 d 3 X 3 1 d 3 X 3 1 d 3 X 3 1 d 3 X 3 1 d 3 1 d 3 X 3 1 d 3 1 d 3 1 d 3 X 3 1 d 4 1 d 3 1 d 3 1 d 3 1 d 3 1 d 3 1 d 3 1 d 3 1 d 3 1 d 3 1 d 3 1 d 3 1 d 3 1 d 3 1 d 3 2 d 3 1 d s 235 123 m 4 1 d 3 1 d 3 2 d 3 1 d 3 1 d 3 2 d 3 1 d 3 1
 d 3 2 d 3 1 d 3 2 d 3 1 d 3 2 d 3 1 d 3 2 d 3 2 d 3 1 d 4 2 d 3 2 d 3 1 d 3 2 d 3 2 d 3 1 d 3 2 d 3 2 d 3 2 d 3 2 d 3 2 d 3 2 d 3 2 d 3 2 d 3 2 d 3 2 d 4 2 d 3 2 d 3 2 d 3 2 d 3 2 d 3 2 d 3 3 d 3 2 d 3 2 d 3 2 d 3 3 d 3 2 d 3 2 d 3 3 d 3 2 d 3 3 d s
 385 213 m 4 2 d s 0.49 0.6 0.82 c black 0.49 0.6 0.82 c
 gsave  408 306 23 13 C 142.445 296.285 t 0 r /Helvetica-Bold findfont 25.6831 sf 0 0 m (7.5 < E < 8.0 GeV) show NC gr  0.52 0.76 0.64 c black 0.52 0.76 0.64 c
 gsave  408 306 23 13 C 128.2 259.249 t 0 r /Helvetica-Bold findfont 25.6831 sf 0 0 m 
 220 206 192 185 170 163 148 141 126 118 111 97 83 69 61 47 40 25 18
(A = 0.000, p = 2.000) K NC gr  1 0.6 1 c black 1 0.6 1 c
 gsave  408 306 23 13 C 427.334 119.653 t 90 r /Helvetica-Bold findfont 28.5368 sf 0 0 m (/dof=14.2) show NC gr  black 1 0.6 1 c
 gsave  408 306 23 13 C 415.938 108.258 t 90 r /Helvetica-Bold findfont 19.9758 sf 0 0 m (2) show NC gr  black 1 0.6 1 c
 gsave  408 306 23 13 C 427.334 91.1645 t 90 r /Symbol findfont 28.5368 sf 0 0 m (c) show NC gr  black 3 lw 1 1 1 c 408 306 476 13 bf black 1 1 1 c black 307 229 537 59 bl 307 229 537 59 bl 537 59 m 307 X s 537 63 m -4 Y s 641 63 m -4 Y s 745 63 m -4
 Y s 745 63 m -4 Y s
 gsave  408 306 476 13 C 527.045 39.8845 t 0 r /Helvetica findfont 22.8295 sf 0 0 m (0) show NC gr 
 gsave  408 306 476 13 C 621.058 39.8845 t 0 r /Helvetica findfont 22.8295 sf 0 0 m (500) show NC gr 
 gsave  408 306 476 13 C 717.92 39.8845 t 0 r /Helvetica findfont 22.8295 sf 0 0 m (1000) show NC gr  537 288 m 307 X s 537 284 m 4 Y s 641 284 m 4 Y s 745 284 m 4 Y s 745 284 m 4 Y s 537 59 m 229 Y s 543 62 m -6 X s 540 69 m -3 X s 540 76 m -3 X s
 540 83 m -3 X s 543 91 m -6 X s 540 98 m -3 X s 540 105 m -3 X s 540 112 m -3 X s 543 119 m -6 X s 540 126 m -3 X s 540 133 m -3 X s 540 140 m -3 X s 543 148 m -6 X s 540 155 m -3 X s 540 162 m -3 X s 540 169 m -3 X s 543 176 m -6 X s 540 183 m -3 X
 s 540 190 m -3 X s 540 197 m -3 X s 543 205 m -6 X s 540 212 m -3 X s 540 219 m -3 X s 540 226 m -3 X s 543 233 m -6 X s 540 240 m -3 X s 540 247 m -3 X s 540 254 m -3 X s 543 262 m -6 X s 543 62 m -6 X s 543 262 m -6 X s 540 269 m -3 X s 540 276 m
 -3 X s 540 283 m -3 X s
 gsave  408 306 476 13 C 481.462 54.1289 t 0 r /Helvetica findfont 22.8295 sf 0 0 m (\2550.02) show NC gr 
 gsave  408 306 476 13 C 518.498 82.6178 t 0 r /Helvetica findfont 22.8295 sf 0 0 m (0) show NC gr 
 gsave  408 306 476 13 C 487.16 111.107 t 0 r /Helvetica findfont 22.8295 sf 0 0 m (0.02) show NC gr 
 gsave  408 306 476 13 C 487.16 139.596 t 0 r /Helvetica findfont 22.8295 sf 0 0 m (0.04) show NC gr 
 gsave  408 306 476 13 C 487.16 168.085 t 0 r /Helvetica findfont 22.8295 sf 0 0 m (0.06) show NC gr 
 gsave  408 306 476 13 C 487.16 196.573 t 0 r /Helvetica findfont 22.8295 sf 0 0 m (0.08) show NC gr 
 gsave  408 306 476 13 C 504.254 225.062 t 0 r /Helvetica findfont 22.8295 sf 0 0 m (0.1) show NC gr 
 gsave  408 306 476 13 C 487.16 253.551 t 0 r /Helvetica findfont 22.8295 sf 0 0 m (0.12) show NC gr  844 59 m 229 Y s 838 62 m 6 X s 841 69 m 3 X s 841 76 m 3 X s 841 83 m 3 X s 838 91 m 6 X s 841 98 m 3 X s 841 105 m 3 X s 841 112 m 3 X s 838 119 m
 6 X s 841 126 m 3 X s 841 133 m 3 X s 841 140 m 3 X s 838 148 m 6 X s 841 155 m 3 X s 841 162 m 3 X s 841 169 m 3 X s 838 176 m 6 X s 841 183 m 3 X s 841 190 m 3 X s 841 197 m 3 X s 838 205 m 6 X s 841 212 m 3 X s 841 219 m 3 X s 841 226 m 3 X s 838
 233 m 6 X s 841 240 m 3 X s 841 247 m 3 X s 841 254 m 3 X s 838 262 m 6 X s 838 62 m 6 X s 838 262 m 6 X s 841 269 m 3 X s 841 276 m 3 X s 841 283 m 3 X s /w 23 def /w2 {w 2 div} def /w3 {w 3 div} def 683 90 731 94 779 144 828 256 4 { m21} R 683 102
 m s 677 102 m 11 X s 683 79 m -1 Y s 677 78 m 11 X s 731 105 m 1 Y s 725 106 m 12 X s 731 82 m s 725 82 m 12 X s 779 155 m 1 Y s 773 156 m 12 X s 779 132 m -1 Y s 773 131 m 12 X s 828 267 m 2 Y s 822 269 m 11 X s 828 244 m -1 Y s 822 243 m 11 X s 1
 0 0 c 9 lw 0.95 0.95 0.95 c black 1 0 0 c 539 91 m 24 X 4 1 d 9 X 3 1 d 3 X 3 1 d 6 X 3 1 d 3 X 3 1 d 3 X 3 1 d 3 X 3 1 d 4 1 d 3 X 3 1 d 3 1 d 3 X 3 1 d 3 1 d 3 1 d 3 1 d 3 X 3 1 d 3 1 d 3 1 d 3 1 d 3 1 d 3 1 d 3 1 d 4 1 d 3 1 d 3 1 d 3 1 d 3 2 d 3
 1 d 3 1 d 3 1 d s 689 121 m 3 1 d 3 2 d 3 1 d 3 1 d 3 2 d 3 1 d 3 2 d 3 1 d 4 1 d 3 2 d 3 1 d 3 2 d 3 1 d 3 2 d 3 2 d 3 1 d 3 2 d 3 2 d 3 1 d 3 2 d 3 2 d 3 2 d 3 1 d 3 2 d 4 2 d 3 2 d 3 2 d 3 2 d 3 2 d 3 2 d 3 2 d 3 2 d 3 2 d 3 2 d 3 2 d 3 2 d 3 2 d
 3 3 d 3 2 d 3 2 d 4 2 d 3 3 d 3 2 d 3 2 d 3 3 d 3 2 d 3 2 d 3 3 d 3 2 d s 839 212 m 3 3 d s 0.49 0.6 0.82 c black 0.49 0.6 0.82 c
 gsave  408 306 476 13 C 595.418 296.285 t 0 r /Helvetica-Bold findfont 25.6831 sf 0 0 m (8.0 < E < 8.5 GeV) show NC gr  0.52 0.76 0.64 c black 0.52 0.76 0.64 c
 gsave  408 306 476 13 C 581.174 259.249 t 0 r /Helvetica-Bold findfont 25.6831 sf 0 0 m 
 220 206 192 185 170 163 148 141 125 118 111 97 83 68 61 47 40 25 18
(A = 0.000, p = 2.000) K NC gr  1 0.6 1 c black 1 0.6 1 c
 gsave  408 306 476 13 C 883.156 119.653 t 90 r /Helvetica-Bold findfont 28.5368 sf 0 0 m (/dof=13.6) show NC gr  black 1 0.6 1 c
 gsave  408 306 476 13 C 871.76 108.258 t 90 r /Helvetica-Bold findfont 19.9758 sf 0 0 m (2) show NC gr  black 1 0.6 1 c
 gsave  408 306 476 13 C 883.156 91.1645 t 90 r /Symbol findfont 28.5368 sf 0 0 m (c) show NC gr  black 3 lw 1 1 1 c 408 306 930 13 bf black 1 1 1 c black 306 229 991 59 bl 306 229 991 59 bl 991 59 m 306 X s 991 63 m -4 Y s 1095 63 m -4 Y s 1198 63 m
 -4 Y s 1198 63 m -4 Y s
 gsave  408 306 930 13 C 980.018 39.8845 t 0 r /Helvetica findfont 22.8295 sf 0 0 m (0) show NC gr 
 gsave  408 306 930 13 C 1074.03 39.8845 t 0 r /Helvetica findfont 22.8295 sf 0 0 m (500) show NC gr 
 gsave  408 306 930 13 C 1170.89 39.8845 t 0 r /Helvetica findfont 22.8295 sf 0 0 m (1000) show NC gr  991 288 m 306 X s 991 284 m 4 Y s 1095 284 m 4 Y s 1198 284 m 4 Y s 1198 284 m 4 Y s 991 59 m 229 Y s 997 67 m -6 X s 994 74 m -3 X s 994 80 m -3 X
 s 994 86 m -3 X s 997 93 m -6 X s 994 99 m -3 X s 994 106 m -3 X s 994 112 m -3 X s 997 118 m -6 X s 994 125 m -3 X s 994 131 m -3 X s 994 138 m -3 X s 997 144 m -6 X s 994 150 m -3 X s 994 157 m -3 X s 994 163 m -3 X s 997 170 m -6 X s 994 176 m -3
 X s 994 182 m -3 X s 994 189 m -3 X s 997 195 m -6 X s 994 201 m -3 X s 994 208 m -3 X s 994 214 m -3 X s 997 221 m -6 X s 994 227 m -3 X s 994 233 m -3 X s 994 240 m -3 X s 997 246 m -6 X s 994 253 m -3 X s 994 259 m -3 X s 994 265 m -3 X s 997 272
 m -6 X s 997 67 m -6 X s 994 61 m -3 X s 997 272 m -6 X s 994 278 m -3 X s 994 285 m -3 X s
 gsave  408 306 930 13 C 937.285 59.8267 t 0 r /Helvetica findfont 22.8295 sf 0 0 m (\2550.02) show NC gr 
 gsave  408 306 930 13 C 974.32 85.4667 t 0 r /Helvetica findfont 22.8295 sf 0 0 m (0) show NC gr 
 gsave  408 306 930 13 C 942.983 111.107 t 0 r /Helvetica findfont 22.8295 sf 0 0 m (0.02) show NC gr 
 gsave  408 306 930 13 C 942.983 136.747 t 0 r /Helvetica findfont 22.8295 sf 0 0 m (0.04) show NC gr 
 gsave  408 306 930 13 C 942.983 162.387 t 0 r /Helvetica findfont 22.8295 sf 0 0 m (0.06) show NC gr 
 gsave  408 306 930 13 C 942.983 188.027 t 0 r /Helvetica findfont 22.8295 sf 0 0 m (0.08) show NC gr 
 gsave  408 306 930 13 C 960.076 213.667 t 0 r /Helvetica findfont 22.8295 sf 0 0 m (0.1) show NC gr 
 gsave  408 306 930 13 C 942.983 239.307 t 0 r /Helvetica findfont 22.8295 sf 0 0 m (0.12) show NC gr 
 gsave  408 306 930 13 C 942.983 264.947 t 0 r /Helvetica findfont 22.8295 sf 0 0 m (0.14) show NC gr  1297 59 m 229 Y s 1292 67 m 5 X s 1294 74 m 3 X s 1294 80 m 3 X s 1294 86 m 3 X s 1292 93 m 5 X s 1294 99 m 3 X s 1294 106 m 3 X s 1294 112 m 3 X s
 1292 118 m 5 X s 1294 125 m 3 X s 1294 131 m 3 X s 1294 138 m 3 X s 1292 144 m 5 X s 1294 150 m 3 X s 1294 157 m 3 X s 1294 163 m 3 X s 1292 170 m 5 X s 1294 176 m 3 X s 1294 182 m 3 X s 1294 189 m 3 X s 1292 195 m 5 X s 1294 201 m 3 X s 1294 208 m
 3 X s 1294 214 m 3 X s 1292 221 m 5 X s 1294 227 m 3 X s 1294 233 m 3 X s 1294 240 m 3 X s 1292 246 m 5 X s 1294 253 m 3 X s 1294 259 m 3 X s 1294 265 m 3 X s 1292 272 m 5 X s 1292 67 m 5 X s 1294 61 m 3 X s 1292 272 m 5 X s 1294 278 m 3 X s 1294
 285 m 3 X s 1136 91 1184 90 1233 147 1281 256 4 { m21} R 1136 102 m 1 Y s 1130 103 m 12 X s 1136 80 m -1 Y s 1130 79 m 12 X s 1184 101 m s 1179 101 m 11 X s 1184 78 m s 1179 78 m 11 X s 1233 158 m 1 Y s 1227 159 m 11 X s 1233 135 m s 1227 135 m 11 X
 s 1281 268 m 1 Y s 1275 269 m 12 X s 1281 245 m -2 Y s 1275 243 m 12 X s 1 0 0 c 9 lw 0.95 0.95 0.95 c black 1 0 0 c 993 93 m 18 X 3 1 d 12 X 3 1 d 6 X 3 1 d 4 X 3 1 d 6 X 3 1 d 3 X 3 1 d 3 1 d 3 X 3 1 d 3 X 3 1 d 3 1 d 3 X 3 1 d 3 1 d 3 1 d 4 1 d 3
 X 3 1 d 3 1 d 3 1 d 3 1 d 3 1 d 3 1 d 3 1 d 3 1 d 3 1 d 3 1 d 3 1 d 3 1 d 3 1 d 3 1 d 4 2 d s 1143 123 m 3 1 d 3 1 d 3 1 d 3 2 d 3 1 d 3 1 d 3 2 d 3 1 d 3 1 d 3 2 d 3 1 d 3 2 d 3 1 d 3 2 d 3 1 d 4 2 d 3 2 d 3 1 d 3 2 d 3 2 d 3 1 d 3 2 d 3 2 d 3 2 d
 3 1 d 3 2 d 3 2 d 3 2 d 3 2 d 3 2 d 3 2 d 3 2 d 4 2 d 3 2 d 3 2 d 3 2 d 3 2 d 3 2 d 3 2 d 3 2 d 3 3 d 3 2 d 3 2 d 3 2 d 3 3 d 3 2 d 3 2 d 3 3 d 4 2 d s 1293 211 m 3 2 d s 0.49 0.6 0.82 c black 0.49 0.6 0.82 c
 gsave  408 306 930 13 C 1051.24 296.285 t 0 r /Helvetica-Bold findfont 25.6831 sf 0 0 m (8.5 < E < 9.0 GeV) show NC gr  0.52 0.76 0.64 c black 0.52 0.76 0.64 c
 gsave  408 306 930 13 C 1037 259.249 t 0 r /Helvetica-Bold findfont 25.6831 sf 0 0 m 
 220 206 192 185 170 163 148 141 125 118 111 97 83 69 61 47 40 25 18
(A = 0.000, p = 2.000) K NC gr  1 0.6 1 c black 1 0.6 1 c
 gsave  408 306 930 13 C 1336.13 119.653 t 90 r /Helvetica-Bold findfont 28.5368 sf 0 0 m (/dof=15.8) show NC gr  black 1 0.6 1 c
 gsave  408 306 930 13 C 1324.73 108.258 t 90 r /Helvetica-Bold findfont 19.9758 sf 0 0 m (2) show NC gr  black 1 0.6 1 c
 gsave  408 306 930 13 C 1336.13 91.1645 t 90 r /Symbol findfont 28.5368 sf 0 0 m (c) show NC gr  black 3 lw 1 1 1 c 408 306 1383 13 bf black 1 1 1 c black 306 229 1445 59 bl 306 229 1445 59 bl 1445 59 m 306 X s 1445 63 m -4 Y s 1548 63 m -4 Y s 1652
 63 m -4 Y s 1652 63 m -4 Y s
 gsave  408 306 1383 13 C 1435.84 39.8845 t 0 r /Helvetica findfont 22.8295 sf 0 0 m (0) show NC gr 
 gsave  408 306 1383 13 C 1527.01 39.8845 t 0 r /Helvetica findfont 22.8295 sf 0 0 m (500) show NC gr 
 gsave  408 306 1383 13 C 1623.87 39.8845 t 0 r /Helvetica findfont 22.8295 sf 0 0 m (1000) show NC gr  1445 288 m 306 X s 1445 284 m 4 Y s 1548 284 m 4 Y s 1652 284 m 4 Y s 1652 284 m 4 Y s 1445 59 m 229 Y s 1450 71 m -5 X s 1447 77 m -2 X s 1447 83
 m -2 X s 1447 88 m -2 X s 1450 94 m -5 X s 1447 100 m -2 X s 1447 106 m -2 X s 1447 111 m -2 X s 1450 117 m -5 X s 1447 123 m -2 X s 1447 129 m -2 X s 1447 134 m -2 X s 1450 140 m -5 X s 1447 146 m -2 X s 1447 152 m -2 X s 1447 157 m -2 X s 1450 163
 m -5 X s 1447 169 m -2 X s 1447 175 m -2 X s 1447 181 m -2 X s 1450 186 m -5 X s 1447 192 m -2 X s 1447 198 m -2 X s 1447 204 m -2 X s 1450 209 m -5 X s 1447 215 m -2 X s 1447 221 m -2 X s 1447 227 m -2 X s 1450 232 m -5 X s 1447 238 m -2 X s 1447
 244 m -2 X s 1447 250 m -2 X s 1450 255 m -5 X s 1447 261 m -2 X s 1447 267 m -2 X s 1447 273 m -2 X s 1450 279 m -5 X s 1450 71 m -5 X s 1447 65 m -2 X s 1447 59 m -2 X s 1450 279 m -5 X s 1447 284 m -2 X s
 gsave  408 306 1383 13 C 1390.26 62.6756 t 0 r /Helvetica findfont 22.8295 sf 0 0 m (\2550.02) show NC gr 
 gsave  408 306 1383 13 C 1427.29 88.3156 t 0 r /Helvetica findfont 22.8295 sf 0 0 m (0) show NC gr 
 gsave  408 306 1383 13 C 1395.96 111.107 t 0 r /Helvetica findfont 22.8295 sf 0 0 m (0.02) show NC gr 
 gsave  408 306 1383 13 C 1395.96 133.898 t 0 r /Helvetica findfont 22.8295 sf 0 0 m (0.04) show NC gr 
 gsave  408 306 1383 13 C 1395.96 156.689 t 0 r /Helvetica findfont 22.8295 sf 0 0 m (0.06) show NC gr 
 gsave  408 306 1383 13 C 1395.96 179.48 t 0 r /Helvetica findfont 22.8295 sf 0 0 m (0.08) show NC gr 
 gsave  408 306 1383 13 C 1413.05 202.271 t 0 r /Helvetica findfont 22.8295 sf 0 0 m (0.1) show NC gr 
 gsave  408 306 1383 13 C 1395.96 225.062 t 0 r /Helvetica findfont 22.8295 sf 0 0 m (0.12) show NC gr 
 gsave  408 306 1383 13 C 1395.96 247.853 t 0 r /Helvetica findfont 22.8295 sf 0 0 m (0.14) show NC gr 
 gsave  408 306 1383 13 C 1395.96 270.645 t 0 r /Helvetica findfont 22.8295 sf 0 0 m (0.16) show NC gr  1751 59 m 229 Y s 1745 71 m 6 X s 1748 77 m 3 X s 1748 83 m 3 X s 1748 88 m 3 X s 1745 94 m 6 X s 1748 100 m 3 X s 1748 106 m 3 X s 1748 111 m 3 X
 s 1745 117 m 6 X s 1748 123 m 3 X s 1748 129 m 3 X s 1748 134 m 3 X s 1745 140 m 6 X s 1748 146 m 3 X s 1748 152 m 3 X s 1748 157 m 3 X s 1745 163 m 6 X s 1748 169 m 3 X s 1748 175 m 3 X s 1748 181 m 3 X s 1745 186 m 6 X s 1748 192 m 3 X s 1748 198
 m 3 X s 1748 204 m 3 X s 1745 209 m 6 X s 1748 215 m 3 X s 1748 221 m 3 X s 1748 227 m 3 X s 1745 232 m 6 X s 1748 238 m 3 X s 1748 244 m 3 X s 1748 250 m 3 X s 1745 255 m 6 X s 1748 261 m 3 X s 1748 267 m 3 X s 1748 273 m 3 X s 1745 279 m 6 X s
 1745 71 m 6 X s 1748 65 m 3 X s 1748 59 m 3 X s 1745 279 m 6 X s 1748 284 m 3 X s 1590 96 1638 89 1686 140 1735 257 4 { m21} R 1686 151 m 1 Y s 1681 152 m 11 X s 1686 129 m -1 Y s 1681 128 m 11 X s 1735 268 m 1 Y s 1729 269 m 11 X s 1735 245 m -1 Y
 s 1729 244 m 11 X s 1 0 0 c 9 lw 0.95 0.95 0.95 c black 1 0 0 c 1446 94 m 15 X 3 1 d 13 X 3 1 d 6 X 3 1 d 6 X 3 1 d 6 X 3 1 d 3 X 3 1 d 3 1 d 4 X 3 1 d 3 X 3 1 d 3 1 d 3 X 3 1 d 3 1 d 3 X 3 1 d 3 1 d 3 1 d 3 1 d 3 X 3 1 d 3 1 d 4 1 d 3 1 d 3 1 d 3 1
 d 3 1 d 3 1 d 3 1 d 3 1 d 3 2 d 3 1 d s 1596 123 m 3 1 d 3 1 d 3 1 d 3 2 d 3 1 d 3 1 d 4 1 d 3 2 d 3 1 d 3 1 d 3 2 d 3 1 d 3 2 d 3 1 d 3 2 d 3 1 d 3 2 d 3 1 d 3 2 d 3 2 d 3 1 d 3 2 d 3 2 d 4 1 d 3 2 d 3 2 d 3 1 d 3 2 d 3 2 d 3 2 d 3 2 d 3 2 d 3 2 d
 3 2 d 3 2 d 3 2 d 3 2 d 3 2 d 3 2 d 4 2 d 3 2 d 3 2 d 3 2 d 3 2 d 3 2 d 3 3 d 3 2 d 3 2 d 3 3 d s 1746 208 m 3 2 d s 0.49 0.6 0.82 c black 0.49 0.6 0.82 c
 gsave  408 306 1383 13 C 1504.21 296.285 t 0 r /Helvetica-Bold findfont 25.6831 sf 0 0 m (9.0 < E < 9.5 GeV) show NC gr  0.52 0.76 0.64 c black 0.52 0.76 0.64 c
 gsave  408 306 1383 13 C 1489.97 259.249 t 0 r /Helvetica-Bold findfont 25.6831 sf 0 0 m 
 220 206 192 185 170 163 148 141 126 118 111 97 83 69 61 47 40 25 18
(A = 0.000, p = 2.000) K NC gr  1 0.6 1 c black 1 0.6 1 c
 gsave  408 306 1383 13 C 1789.1 119.653 t 90 r /Helvetica-Bold findfont 28.5368 sf 0 0 m (/dof=17.3) show NC gr  black 1 0.6 1 c
 gsave  408 306 1383 13 C 1777.71 108.258 t 90 r /Helvetica-Bold findfont 19.9758 sf 0 0 m (2) show NC gr  black 1 0.6 1 c
 gsave  408 306 1383 13 C 1789.1 91.1645 t 90 r /Symbol findfont 28.5368 sf 0 0 m (c) show NC gr  black 3 lw 1 1 1 c 408 306 1837 13 bf black 1 1 1 c black 306 229 1898 59 bl 306 229 1898 59 bl 1898 59 m 306 X s 1898 63 m -4 Y s 2002 63 m -4 Y s 2105
 63 m -4 Y s 2105 63 m -4 Y s
 gsave  408 306 1837 13 C 1888.81 39.8845 t 0 r /Helvetica findfont 22.8295 sf 0 0 m (0) show NC gr 
 gsave  408 306 1837 13 C 1979.98 39.8845 t 0 r /Helvetica findfont 22.8295 sf 0 0 m (500) show NC gr 
 gsave  408 306 1837 13 C 2079.69 39.8845 t 0 r /Helvetica findfont 22.8295 sf 0 0 m (1000) show NC gr  1898 288 m 306 X s 1898 284 m 4 Y s 2002 284 m 4 Y s 2105 284 m 4 Y s 2105 284 m 4 Y s 1898 59 m 229 Y s 1904 81 m -6 X s 1901 87 m -3 X s 1901 93
 m -3 X s 1901 98 m -3 X s 1904 104 m -6 X s 1901 110 m -3 X s 1901 115 m -3 X s 1901 121 m -3 X s 1904 126 m -6 X s 1901 132 m -3 X s 1901 138 m -3 X s 1901 143 m -3 X s 1904 149 m -6 X s 1901 155 m -3 X s 1901 160 m -3 X s 1901 166 m -3 X s 1904
 172 m -6 X s 1901 177 m -3 X s 1901 183 m -3 X s 1901 188 m -3 X s 1904 194 m -6 X s 1901 200 m -3 X s 1901 205 m -3 X s 1901 211 m -3 X s 1904 217 m -6 X s 1901 222 m -3 X s 1901 228 m -3 X s 1901 234 m -3 X s 1904 239 m -6 X s 1901 245 m -3 X s
 1901 250 m -3 X s 1901 256 m -3 X s 1904 262 m -6 X s 1901 267 m -3 X s 1901 273 m -3 X s 1901 279 m -3 X s 1904 284 m -6 X s 1904 81 m -6 X s 1901 76 m -3 X s 1901 70 m -3 X s 1901 64 m -3 X s 1904 284 m -6 X s
 gsave  408 306 1837 13 C 1880.27 74.0711 t 0 r /Helvetica findfont 22.8295 sf 0 0 m (0) show NC gr 
 gsave  408 306 1837 13 C 1848.93 96.8623 t 0 r /Helvetica findfont 22.8295 sf 0 0 m (0.02) show NC gr 
 gsave  408 306 1837 13 C 1848.93 119.653 t 0 r /Helvetica findfont 22.8295 sf 0 0 m (0.04) show NC gr 
 gsave  408 306 1837 13 C 1848.93 142.445 t 0 r /Helvetica findfont 22.8295 sf 0 0 m (0.06) show NC gr 
 gsave  408 306 1837 13 C 1848.93 165.236 t 0 r /Helvetica findfont 22.8295 sf 0 0 m (0.08) show NC gr 
 gsave  408 306 1837 13 C 1866.02 188.027 t 0 r /Helvetica findfont 22.8295 sf 0 0 m (0.1) show NC gr 
 gsave  408 306 1837 13 C 1848.93 210.818 t 0 r /Helvetica findfont 22.8295 sf 0 0 m (0.12) show NC gr 
 gsave  408 306 1837 13 C 1848.93 230.76 t 0 r /Helvetica findfont 22.8295 sf 0 0 m (0.14) show NC gr 
 gsave  408 306 1837 13 C 1848.93 253.551 t 0 r /Helvetica findfont 22.8295 sf 0 0 m (0.16) show NC gr 
 gsave  408 306 1837 13 C 1848.93 276.342 t 0 r /Helvetica findfont 22.8295 sf 0 0 m (0.18) show NC gr  2204 59 m 229 Y s 2199 81 m 5 X s 2201 87 m 3 X s 2201 93 m 3 X s 2201 98 m 3 X s 2199 104 m 5 X s 2201 110 m 3 X s 2201 115 m 3 X s 2201 121 m 3
 X s 2199 126 m 5 X s 2201 132 m 3 X s 2201 138 m 3 X s 2201 143 m 3 X s 2199 149 m 5 X s 2201 155 m 3 X s 2201 160 m 3 X s 2201 166 m 3 X s 2199 172 m 5 X s 2201 177 m 3 X s 2201 183 m 3 X s 2201 188 m 3 X s 2199 194 m 5 X s 2201 200 m 3 X s 2201
 205 m 3 X s 2201 211 m 3 X s 2199 217 m 5 X s 2201 222 m 3 X s 2201 228 m 3 X s 2201 234 m 3 X s 2199 239 m 5 X s 2201 245 m 3 X s 2201 250 m 3 X s 2201 256 m 3 X s 2199 262 m 5 X s 2201 267 m 3 X s 2201 273 m 3 X s 2201 279 m 3 X s 2199 284 m 5 X s
 2199 81 m 5 X s 2201 76 m 3 X s 2201 70 m 3 X s 2201 64 m 3 X s 2199 284 m 5 X s 2043 90 2091 94 2140 115 2188 256 4 { m21} R 2043 101 m 1 Y s 2037 102 m 12 X s 2043 79 m -1 Y s 2037 78 m 12 X s 2091 105 m 1 Y s 2086 106 m 11 X s 2091 83 m -1 Y s
 2086 82 m 11 X s 2140 126 m 1 Y s 2134 127 m 11 X s 2140 104 m -1 Y s 2134 103 m 11 X s 2188 267 m 2 Y s 2183 269 m 11 X s 2188 244 m -1 Y s 2183 243 m 11 X s 1 0 0 c 9 lw 0.95 0.95 0.95 c black 1 0 0 c 1900 81 m 9 X 3 1 d 15 X 3 1 d 6 X 3 1 d 7 X 3
 1 d 3 X 3 1 d 3 X 3 1 d 3 X 3 1 d 3 X 3 1 d 3 X 3 1 d 3 1 d 3 X 3 1 d 3 1 d 4 1 d 3 X 3 1 d 3 1 d 3 1 d 3 1 d 3 1 d 3 1 d 3 1 d 3 1 d 3 1 d 3 1 d 3 1 d 3 1 d 3 1 d 3 1 d 3 1 d 4 2 d 3 1 d s 2050 112 m 3 1 d 3 1 d 3 2 d 3 1 d 3 1 d 3 2 d 3 1 d 3 1 d
 3 2 d 3 1 d 3 2 d 3 1 d 3 2 d 3 1 d 4 2 d 3 2 d 3 1 d 3 2 d 3 2 d 3 1 d 3 2 d 3 2 d 3 2 d 3 1 d 3 2 d 3 2 d 3 2 d 3 2 d 3 2 d 3 2 d 4 2 d 3 2 d 3 2 d 3 2 d 3 2 d 3 2 d 3 2 d 3 2 d 3 3 d 3 2 d 3 2 d 3 2 d 3 3 d 3 2 d 3 2 d 3 3 d 4 2 d 3 2 d 3 3 d s
 2200 202 m 3 2 d s 0.49 0.6 0.82 c black 0.49 0.6 0.82 c
 gsave  408 306 1837 13 C 1948.64 296.285 t 0 r /Helvetica-Bold findfont 25.6831 sf 0 0 m (9.5 < E < 10.0 GeV) show NC gr  0.52 0.76 0.64 c black 0.52 0.76 0.64 c
 gsave  408 306 1837 13 C 1942.94 259.249 t 0 r /Helvetica-Bold findfont 25.6831 sf 0 0 m 
 220 206 192 185 170 163 148 141 125 118 111 97 83 69 61 47 40 25 18
(A = 0.000, p = 2.000) K NC gr  1 0.6 1 c black 1 0.6 1 c
 gsave  408 306 1837 13 C 2242.08 119.653 t 90 r /Helvetica-Bold findfont 28.5368 sf 0 0 m (/dof=16.0) show NC gr  black 1 0.6 1 c
 gsave  408 306 1837 13 C 2230.68 108.258 t 90 r /Helvetica-Bold findfont 19.9758 sf 0 0 m (2) show NC gr  black 1 0.6 1 c
 gsave  408 306 1837 13 C 2242.08 91.1645 t 90 r /Symbol findfont 28.5368 sf 0 0 m (c) show NC gr 
 gr  gr showpage
end
%%EOF
