%!PS-Adobe-2.0 EPSF-2.0
%%BoundingBox:  0 0 567 332
%%Title: Tilt_t_p0_nof_summary.eps: Summary
%%Creator: ROOT Version 5.30/06
%%CreationDate: Sun Feb  2 09:31:50 2014
%%EndComments
%%BeginProlog
80 dict begin
/s {stroke} def /l {lineto} def /m {moveto} def /t {translate} def
/r {rotate} def /rl {roll}  def /R {repeat} def
/d {rlineto} def /rm {rmoveto} def /gr {grestore} def /f {eofill} def
/c {setrgbcolor} def /black {0 setgray} def /sd {setdash} def
/cl {closepath} def /sf {scalefont setfont} def /lw {setlinewidth} def
/box {m dup 0 exch d exch 0 d 0 exch neg d cl} def
/NC{systemdict begin initclip end}def/C{NC box clip newpath}def
/bl {box s} def /bf {box f} def /Y { 0 exch d} def /X { 0 d} def 
/K {{pop pop 0 moveto} exch kshow} bind def
/ita {/ang 15 def gsave [1 0 ang dup sin exch cos div 1 0 0] concat} def 
/mp {newpath /y exch def /x exch def} def
/side {[w .77 mul w .23 mul] .385 w mul sd w 0 l currentpoint t -144 r} def
/mr {mp x y w2 0 360 arc} def /m24 {mr s} def /m20 {mr f} def
/mb {mp x y w2 add m w2 neg 0 d 0 w neg d w 0 d 0 w d cl} def
/mt {mp x y w2 add m w2 neg w neg d w 0 d cl} def
/m21 {mb f} def /m25 {mb s} def /m22 {mt f} def /m26{mt s} def
/m23 {mp x y w2 sub m w2 w d w neg 0 d cl f} def
/m27 {mp x y w2 add m w3 neg w2 neg d w3 w2 neg d w3 w2 d cl s} def
/m28 {mp x w2 sub y w2 sub w3 add m w3 0 d  0 w3 neg d w3 0 d 0 w3 d w3 0 d  0 w3 d w3 neg 0 d 0 w3 d w3 neg 0 d 0 w3 neg d w3 neg 0 d cl s } def
/m29 {mp gsave x w2 sub y w2 add w3 sub m currentpoint t 4 {side} repeat cl fill gr} def
/m30 {mp gsave x w2 sub y w2 add w3 sub m currentpoint t 4 {side} repeat cl s gr} def
/m31 {mp x y w2 sub m 0 w d x w2 sub y m w 0 d x w2 sub y w2 add m w w neg d x w2 sub y w2 sub m w w d s} def
/m32 {mp x y w2 sub m w2 w d w neg 0 d cl s} def
/m33 {mp x y w2 add m w3 neg w2 neg d w3 w2 neg d w3 w2 d cl f} def
/m34 {mp x w2 sub y w2 sub w3 add m w3 0 d  0 w3 neg d w3 0 d 0 w3 d w3 0 d  0 w3 d w3 neg 0 d 0 w3 d w3 neg 0 d 0 w3 neg d w3 neg 0 d cl f } def
/m2 {mp x y w2 sub m 0 w d x w2 sub y m w 0 d s} def
/m5 {mp x w2 sub y w2 sub m w w d x w2 sub y w2 add m w w neg d s} def
/reEncode {exch findfont dup length dict begin {1 index /FID eq  {pop pop} {def} ifelse } forall /Encoding exch def currentdict end dup /FontName get exch definefont pop } def [/Times-Bold /Times-Italic /Times-BoldItalic /Helvetica /Helvetica-Oblique
 /Helvetica-Bold /Helvetica-BoldOblique /Courier /Courier-Oblique /Courier-Bold /Courier-BoldOblique /Times-Roman /AvantGarde-Book /AvantGarde-BookOblique /AvantGarde-Demi /AvantGarde-DemiOblique /Bookman-Demi /Bookman-DemiItalic /Bookman-Light
 /Bookman-LightItalic /Helvetica-Narrow /Helvetica-Narrow-Bold /Helvetica-Narrow-BoldOblique /Helvetica-Narrow-Oblique /NewCenturySchlbk-Roman /NewCenturySchlbk-Bold /NewCenturySchlbk-BoldItalic /NewCenturySchlbk-Italic /Palatino-Bold
 /Palatino-BoldItalic /Palatino-Italic /Palatino-Roman ] {ISOLatin1Encoding reEncode } forall%%EndProlog
%%BeginSetup
%%EndSetup
newpath  gsave  .25 .25 scale  gsave  0 0 t black[  ] 0 sd 3 lw 1 1 1 c 2268 1328 0 0 bf black 1 1 1 c black 1588 996 340 199 bl 1588 996 340 199 bl 1 1 1 c 1 0 0 c /w 23 def /w2 {w 2 div} def /w3 {w 3 div} def 380 309 m21 459 309 m21 539 308 m21 618
 310 m21 697 312 m21 777 308 m21 856 308 m21 935 306 m21 1015 307 m21 1094 321 m21 black 1174 296 m 1 Y s 1174 319 m 1 Y s 1168 296 m 11 X s 1168 320 m 11 X s 1 0 0 c 1174 308 m21 black 1253 306 m 4 Y s 1253 333 m 4 Y s 1247 306 m 12 X s 1247 337 m
 12 X s 1 0 0 c 1253 321 m21 black 1332 281 m 7 Y s 1332 311 m 6 Y s 1327 281 m 11 X s 1327 317 m 11 X s 1 0 0 c 1332 299 m21 black 1412 320 m 10 Y s 1412 353 m 9 Y s 1406 320 m 11 X s 1406 362 m 11 X s 1 0 0 c 1412 341 m21 black 1491 251 m 11 Y s
 1491 285 m 11 Y s 1485 251 m 12 X s 1485 296 m 12 X s 1 0 0 c 1491 273 m21 black 1570 295 m 13 Y s 1570 331 m 14 Y s 1565 295 m 11 X s 1565 345 m 11 X s 1 0 0 c 1570 320 m21 black 1650 280 m 16 Y s 1650 319 m 15 Y s 1644 280 m 11 X s 1644 334 m 11 X
 s 1 0 0 c 1650 307 m21 black 1729 291 m 17 Y s 1729 331 m 17 Y s 1723 291 m 12 X s 1723 348 m 12 X s 1 0 0 c 1729 320 m21 black 1809 330 m 20 Y s 1809 373 m 20 Y s 1803 330 m 11 X s 1803 393 m 11 X s 1 0 0 c 1809 362 m21 black 1888 256 m 21 Y s 1888
 300 m 20 Y s 1882 256 m 12 X s 1882 320 m 12 X s 1 0 0 c 1888 288 m21 black 340 199 m 1588 X s
 gsave  2268 1328 0 0 C 954.378 68.3734 t 0 r /Helvetica findfont 62.6756 sf 0 0 m ( Energy \(GeV\) ) show NC gr 
 gsave  2268 1328 0 0 C 928.738 51.28 t 0 r /Symbol findfont 42.7334 sf 0 0 m (m) show NC gr 
 gsave  2268 1328 0 0 C 894.552 68.3734 t 0 r /Symbol findfont 62.6756 sf 0 0 m (n) show NC gr  340 216 m -17 Y s 372 208 m -9 Y s 404 208 m -9 Y s 435 208 m -9 Y s 467 208 m -9 Y s 499 216 m -17 Y s 531 208 m -9 Y s 562 208 m -9 Y s 594 208 m -9 Y s
 626 208 m -9 Y s 658 216 m -17 Y s 689 208 m -9 Y s 721 208 m -9 Y s 753 208 m -9 Y s 785 208 m -9 Y s 816 216 m -17 Y s 848 208 m -9 Y s 880 208 m -9 Y s 912 208 m -9 Y s 943 208 m -9 Y s 975 216 m -17 Y s 1007 208 m -9 Y s 1039 208 m -9 Y s 1070
 208 m -9 Y s 1102 208 m -9 Y s 1134 216 m -17 Y s 1166 208 m -9 Y s 1197 208 m -9 Y s 1229 208 m -9 Y s 1261 208 m -9 Y s 1293 216 m -17 Y s 1324 208 m -9 Y s 1356 208 m -9 Y s 1388 208 m -9 Y s 1420 208 m -9 Y s 1451 216 m -17 Y s 1483 208 m -9 Y s
 1515 208 m -9 Y s 1547 208 m -9 Y s 1578 208 m -9 Y s 1610 216 m -17 Y s 1642 208 m -9 Y s 1674 208 m -9 Y s 1705 208 m -9 Y s 1737 208 m -9 Y s 1769 216 m -17 Y s 1801 208 m -9 Y s 1832 208 m -9 Y s 1864 208 m -9 Y s 1896 208 m -9 Y s 1928 216 m
 -17 Y s
 gsave  2268 1328 0 0 C 319.076 136.747 t 0 r /Helvetica findfont 68.3734 sf 0 0 m (0) show NC gr 
 gsave  2268 1328 0 0 C 484.311 136.747 t 0 r /Helvetica findfont 68.3734 sf 0 0 m (1) show NC gr 
 gsave  2268 1328 0 0 C 635.302 136.747 t 0 r /Helvetica findfont 68.3734 sf 0 0 m (2) show NC gr 
 gsave  2268 1328 0 0 C 794.84 136.747 t 0 r /Helvetica findfont 68.3734 sf 0 0 m (3) show NC gr 
 gsave  2268 1328 0 0 C 954.378 136.747 t 0 r /Helvetica findfont 68.3734 sf 0 0 m (4) show NC gr 
 gsave  2268 1328 0 0 C 1113.92 136.747 t 0 r /Helvetica findfont 68.3734 sf 0 0 m (5) show NC gr 
 gsave  2268 1328 0 0 C 1270.6 136.747 t 0 r /Helvetica findfont 68.3734 sf 0 0 m (6) show NC gr 
 gsave  2268 1328 0 0 C 1430.14 136.747 t 0 r /Helvetica findfont 68.3734 sf 0 0 m (7) show NC gr 
 gsave  2268 1328 0 0 C 1589.68 136.747 t 0 r /Helvetica findfont 68.3734 sf 0 0 m (8) show NC gr 
 gsave  2268 1328 0 0 C 1746.37 136.747 t 0 r /Helvetica findfont 68.3734 sf 0 0 m (9) show NC gr 
 gsave  2268 1328 0 0 C 1888.81 136.747 t 0 r /Helvetica findfont 68.3734 sf 0 0 m (10) show NC gr  340 1195 m 1588 X s 340 1178 m 17 Y s 372 1186 m 9 Y s 404 1186 m 9 Y s 435 1186 m 9 Y s 467 1186 m 9 Y s 499 1178 m 17 Y s 531 1186 m 9 Y s 562 1186
 m 9 Y s 594 1186 m 9 Y s 626 1186 m 9 Y s 658 1178 m 17 Y s 689 1186 m 9 Y s 721 1186 m 9 Y s 753 1186 m 9 Y s 785 1186 m 9 Y s 816 1178 m 17 Y s 848 1186 m 9 Y s 880 1186 m 9 Y s 912 1186 m 9 Y s 943 1186 m 9 Y s 975 1178 m 17 Y s 1007 1186 m 9 Y s
 1039 1186 m 9 Y s 1070 1186 m 9 Y s 1102 1186 m 9 Y s 1134 1178 m 17 Y s 1166 1186 m 9 Y s 1197 1186 m 9 Y s 1229 1186 m 9 Y s 1261 1186 m 9 Y s 1293 1178 m 17 Y s 1324 1186 m 9 Y s 1356 1186 m 9 Y s 1388 1186 m 9 Y s 1420 1186 m 9 Y s 1451 1178 m
 17 Y s 1483 1186 m 9 Y s 1515 1186 m 9 Y s 1547 1186 m 9 Y s 1578 1186 m 9 Y s 1610 1178 m 17 Y s 1642 1186 m 9 Y s 1674 1186 m 9 Y s 1705 1186 m 9 Y s 1737 1186 m 9 Y s 1769 1178 m 17 Y s 1801 1186 m 9 Y s 1832 1186 m 9 Y s 1864 1186 m 9 Y s 1896
 1186 m 9 Y s 1928 1178 m 17 Y s 340 199 m 996 Y s
 gsave  2268 1328 0 0 C 170.933 336.169 t 90 r /Helvetica findfont 62.6756 sf 0 0 m (Near/Far Ratio to Nominal) show NC gr  371 199 m -31 X s 355 221 m -15 X s 355 243 m -15 X s 355 266 m -15 X s 355 288 m -15 X s 371 310 m -31 X s 355 332 m -15 X s
 355 354 m -15 X s 355 376 m -15 X s 355 398 m -15 X s 371 420 m -31 X s 355 443 m -15 X s 355 465 m -15 X s 355 487 m -15 X s 355 509 m -15 X s 371 531 m -31 X s 355 553 m -15 X s 355 575 m -15 X s 355 597 m -15 X s 355 620 m -15 X s 371 642 m -31 X
 s 355 664 m -15 X s 355 686 m -15 X s 355 708 m -15 X s 355 730 m -15 X s 371 752 m -31 X s 355 774 m -15 X s 355 797 m -15 X s 355 819 m -15 X s 355 841 m -15 X s 371 863 m -31 X s 355 885 m -15 X s 355 907 m -15 X s 355 929 m -15 X s 355 951 m -15
 X s 371 974 m -31 X s 355 996 m -15 X s 355 1018 m -15 X s 355 1040 m -15 X s 355 1062 m -15 X s 371 1084 m -31 X s 355 1106 m -15 X s 355 1128 m -15 X s 355 1151 m -15 X s 355 1173 m -15 X s 371 1195 m -31 X s 371 199 m -31 X s 371 1195 m -31 X s
 gsave  2268 1328 0 0 C 196.573 173.782 t 0 r /Helvetica findfont 68.3734 sf 0 0 m (0.95) show NC gr 
 gsave  2268 1328 0 0 C 301.982 282.04 t 0 r /Helvetica findfont 68.3734 sf 0 0 m (1) show NC gr 
 gsave  2268 1328 0 0 C 196.573 395.996 t 0 r /Helvetica findfont 68.3734 sf 0 0 m (1.05) show NC gr 
 gsave  2268 1328 0 0 C 245.005 504.254 t 0 r /Helvetica findfont 68.3734 sf 0 0 m (1.1) show NC gr 
 gsave  2268 1328 0 0 C 196.573 618.209 t 0 r /Helvetica findfont 68.3734 sf 0 0 m (1.15) show NC gr 
 gsave  2268 1328 0 0 C 233.609 726.467 t 0 r /Helvetica findfont 68.3734 sf 0 0 m (1.2) show NC gr 
 gsave  2268 1328 0 0 C 196.573 837.574 t 0 r /Helvetica findfont 68.3734 sf 0 0 m (1.25) show NC gr 
 gsave  2268 1328 0 0 C 233.609 948.68 t 0 r /Helvetica findfont 68.3734 sf 0 0 m (1.3) show NC gr 
 gsave  2268 1328 0 0 C 196.573 1059.79 t 0 r /Helvetica findfont 68.3734 sf 0 0 m (1.35) show NC gr 
 gsave  2268 1328 0 0 C 233.609 1168.04 t 0 r /Helvetica findfont 68.3734 sf 0 0 m (1.4) show NC gr  1928 199 m 996 Y s 1897 199 m 31 X s 1912 221 m 16 X s 1912 243 m 16 X s 1912 266 m 16 X s 1912 288 m 16 X s 1897 310 m 31 X s 1912 332 m 16 X s 1912
 354 m 16 X s 1912 376 m 16 X s 1912 398 m 16 X s 1897 420 m 31 X s 1912 443 m 16 X s 1912 465 m 16 X s 1912 487 m 16 X s 1912 509 m 16 X s 1897 531 m 31 X s 1912 553 m 16 X s 1912 575 m 16 X s 1912 597 m 16 X s 1912 620 m 16 X s 1897 642 m 31 X s
 1912 664 m 16 X s 1912 686 m 16 X s 1912 708 m 16 X s 1912 730 m 16 X s 1897 752 m 31 X s 1912 774 m 16 X s 1912 797 m 16 X s 1912 819 m 16 X s 1912 841 m 16 X s 1897 863 m 31 X s 1912 885 m 16 X s 1912 907 m 16 X s 1912 929 m 16 X s 1912 951 m 16 X
 s 1897 974 m 31 X s 1912 996 m 16 X s 1912 1018 m 16 X s 1912 1040 m 16 X s 1912 1062 m 16 X s 1897 1084 m 31 X s 1912 1106 m 16 X s 1912 1128 m 16 X s 1912 1151 m 16 X s 1912 1173 m 16 X s 1897 1195 m 31 X s 1897 199 m 31 X s 1897 1195 m 31 X s 1 0
 0 c 6 lw 1 1 1 c 1 0 0 c 380 308 m 32 X 34 1 d 185 X 22 1 d 56 X 68 -1 d 79 X 79 1 d 68 X 8 1 d 11 X 8 1 d 9 1 d 13 1 d 22 3 d 11 1 d 9 1 d 13 1 d 15 1 d 52 2 d 18 2 d 23 1 d 12 1 d 18 X 8 1 d 6 X 7 -1 d 9 X 17 -1 d 13 X 8 -1 d 19 X 5 1 d 5 X 5 1 d
 6 1 d 9 1 d 16 3 d 8 1 d 5 X 5 1 d 5 X 4 1 d 11 X 4 -1 d 5 X 4 -1 d 5 -1 d 7 -1 d 15 -3 d 7 -1 d 6 -2 d 5 X 5 -1 d 4 X 3 -1 d 14 X 4 1 d 5 X 6 1 d 6 1 d 8 1 d 14 2 d 7 1 d 7 1 d 4 1 d 37 X 10 -1 d 42 -2 d 6 -1 d 7 -1 d 10 -1 d 20 -2 d 7 -1 d 7 X 5
 -1 d 17 X 3 1 d 4 X 4 1 d 4 X 4 1 d 4 2 d 6 1 d 15 5 d 5 2 d 5 1 d 3 1 d 4 X 3 1 d 3 X 3 1 d 10 X 4 -1 d 4 X 4 -1 d 5 -1 d 4 -1 d 5 -1 d 4 -1 d 4 -1 d 4 -2 d 4 -1 d 3 -2 d 4 -1 d 3 -2 d 3 -2 d 3 -2 d 3 -2 d 3 -2 d 3 -2 d 2 -3 d 2 -2 d 2 -2 d 2 -2 d
 1 -3 d 2 -2 d 1 -3 d -1 Y s 3 lw /w 2 def /w2 {w 2 div} def /w3 {w 3 div} def 380 308 459 309 539 309 618 309 697 310 777 309 856 309 935 310 1015 311 1094 319 1174 323 1253 328 1332 325 1412 335 1491 323 1570 332 1650 329 1729 322 1809 339 1888 296
 20 { m20} R 6 lw black 1 0 0 c
 gsave  2268 1328 0 0 C 2036.96 364.658 t 0 r /Helvetica-Bold findfont 48.4311 sf 0 0 m (/dof=0.6) show NC gr  black 1 0 0 c
 gsave  2268 1328 0 0 C 2017.01 381.751 t 0 r /Helvetica-Bold findfont 34.1867 sf 0 0 m (2) show NC gr  black 1 0 0 c
 gsave  2268 1328 0 0 C 1991.37 364.658 t 0 r /Symbol findfont 48.4311 sf 0 0 m (c) show NC gr  black 3 lw 340 310 m 1588 X s
 gsave  2268 1328 0 0 C 424.485 1213.63 t 0 r /Helvetica-Bold findfont 42.7334 sf 0 0 m (700 ) show NC gr  1 0 0 c /w 23 def /w2 {w 2 div} def /w3 {w 3 div} def 383 1228 m21 black 1 1 1 c 0 0 1 c 380 529 m21 459 530 m21 539 530 m21 618 530 m21 697
 533 m21 777 529 m21 856 531 m21 935 533 m21 1015 527 m21 1094 546 m21 black 1174 534 m 2 Y s 1174 559 m 2 Y s 1168 534 m 11 X s 1168 561 m 11 X s 0 0 1 c 1174 547 m21 black 1253 501 m 5 Y s 1253 529 m 5 Y s 1247 501 m 12 X s 1247 534 m 12 X s 0 0 1
 c 1253 518 m21 black 1332 488 m 8 Y s 1332 519 m 8 Y s 1327 488 m 11 X s 1327 527 m 11 X s 0 0 1 c 1332 508 m21 black 1412 556 m 12 Y s 1412 591 m 12 Y s 1406 556 m 11 X s 1406 603 m 11 X s 0 0 1 c 1412 580 m21 black 1491 548 m 14 Y s 1491 585 m 14
 Y s 1485 548 m 12 X s 1485 599 m 12 X s 0 0 1 c 1491 573 m21 black 1570 562 m 17 Y s 1570 602 m 16 Y s 1565 562 m 11 X s 1565 618 m 11 X s 0 0 1 c 1570 590 m21 black 1650 489 m 18 Y s 1650 530 m 18 Y s 1644 489 m 11 X s 1644 548 m 11 X s 0 0 1 c
 1650 519 m21 black 1729 471 m 20 Y s 1729 514 m 20 Y s 1723 471 m 12 X s 1723 534 m 12 X s 0 0 1 c 1729 503 m21 black 1809 555 m 23 Y s 1809 601 m 23 Y s 1803 555 m 11 X s 1803 624 m 11 X s 0 0 1 c 1809 590 m21 black 1888 479 m 24 Y s 1888 526 m 23
 Y s 1882 479 m 12 X s 1882 549 m 12 X s 0 0 1 c 1888 514 m21 6 lw 1 1 1 c 0 0 1 c 380 527 m 27 1 d 25 1 d 27 1 d 173 X 22 1 d 22 X 12 1 d 21 X 68 -2 d 79 X 79 1 d 48 X 11 1 d 15 X 6 1 d 6 1 d 7 1 d 9 1 d 9 2 d 15 4 d 14 3 d 10 2 d 7 1 d 2 X 13 2 d
 13 2 d 18 2 d 36 4 d 12 1 d 28 4 d 12 1 d 9 1 d 8 X 8 1 d 14 X 7 -1 d 10 -1 d 21 -2 d 8 X 7 -1 d 10 X 4 1 d 5 X 4 1 d 5 1 d 5 1 d 7 2 d 10 3 d 10 4 d 7 2 d 5 1 d 4 1 d 5 1 d 4 X 4 1 d 5 X 3 -1 d 4 X 4 -1 d 4 -1 d 5 -1 d 5 -2 d 6 -2 d 22 -9 d 5 -2 d
 4 -1 d 4 -1 d 4 -1 d 4 X 3 -1 d 10 X 5 1 d 4 1 d 5 1 d 5 1 d 7 2 d 14 5 d 7 2 d 6 1 d 5 2 d 4 X 4 1 d 4 1 d 19 X 7 -1 d 8 X 47 -6 d 6 -1 d 7 -1 d 10 -2 d 22 -5 d 7 -1 d 6 -1 d 6 -1 d 19 X 4 1 d 4 X 4 1 d 5 2 d 6 2 d 16 6 d 5 1 d 5 2 d 4 1 d 3 1 d 4
 X 4 1 d 10 X 2 -1 d 4 -1 d 5 -1 d 5 -1 d 5 -2 d 4 -1 d 5 -2 d 4 -2 d 4 -3 d 4 -2 d 3 -2 d 4 -3 d 4 -3 d 3 -3 d 4 -3 d 3 -4 d 3 -3 d 3 -4 d 2 -3 d 3 -4 d 2 -4 d 2 -4 d 2 -3 d 1 -4 d s 3 lw /w 2 def /w2 {w 2 div} def /w3 {w 3 div} def 380 527 459 530
 539 530 618 530 697 532 777 530 856 530 935 531 1015 533 1094 548 1174 558 1253 566 1332 562 1412 580 1491 557 1570 575 1650 568 1729 556 1809 573 1888 511 20 { m20} R 6 lw black 0 0 1 c
 gsave  2268 1328 0 0 C 2036.96 615.36 t 0 r /Helvetica-Bold findfont 48.4311 sf 0 0 m (/dof=1.2) show NC gr  black 0 0 1 c
 gsave  2268 1328 0 0 C 2017.01 632.454 t 0 r /Helvetica-Bold findfont 34.1867 sf 0 0 m (2) show NC gr  black 0 0 1 c
 gsave  2268 1328 0 0 C 1991.37 615.36 t 0 r /Symbol findfont 48.4311 sf 0 0 m (c) show NC gr  black 3 lw 340 531 m 1588 X s
 gsave  2268 1328 0 0 C 877.458 1213.63 t 0 r /Helvetica-Bold findfont 42.7334 sf 0 0 m (933 ) show NC gr  0 0 1 c /w 23 def /w2 {w 2 div} def /w3 {w 3 div} def 836 1228 m21 black 1 1 1 c 1 0 1 c 380 748 m21 459 750 m21 539 752 m21 618 750 m21 697
 753 m21 777 752 m21 856 750 m21 935 750 m21 1015 759 m21 1094 778 m21 black 1174 758 m 3 Y s 1174 784 m 3 Y s 1168 758 m 11 X s 1168 787 m 11 X s 1 0 1 c 1174 772 m21 black 1253 755 m 7 Y s 1253 785 m 6 Y s 1247 755 m 12 X s 1247 791 m 12 X s 1 0 1
 c 1253 773 m21 black 1332 765 m 11 Y s 1332 799 m 10 Y s 1327 765 m 11 X s 1327 809 m 11 X s 1 0 1 c 1332 787 m21 black 1412 781 m 14 Y s 1412 818 m 14 Y s 1406 781 m 11 X s 1406 832 m 11 X s 1 0 1 c 1412 806 m21 black 1491 770 m 16 Y s 1491 809 m
 16 Y s 1485 770 m 12 X s 1485 825 m 12 X s 1 0 1 c 1491 798 m21 black 1570 750 m 19 Y s 1570 791 m 19 Y s 1565 750 m 11 X s 1565 810 m 11 X s 1 0 1 c 1570 780 m21 black 1650 782 m 21 Y s 1650 826 m 21 Y s 1644 782 m 11 X s 1644 847 m 11 X s 1 0 1 c
 1650 815 m21 black 1729 746 m 23 Y s 1729 792 m 23 Y s 1723 746 m 12 X s 1723 815 m 12 X s 1 0 1 c 1729 781 m21 black 1809 736 m 26 Y s 1809 784 m 26 Y s 1803 736 m 11 X s 1803 810 m 11 X s 1 0 1 c 1809 773 m21 black 1888 674 m 27 Y s 1888 724 m 26
 Y s 1882 674 m 12 X s 1882 750 m 12 X s 1 0 1 c 1888 712 m21 6 lw 1 1 1 c 1 0 1 c 380 746 m 26 2 d 22 1 d 23 1 d 8 1 d 80 X 79 -1 d 14 1 d 22 1 d 23 1 d 33 X 67 -3 d 32 X 47 2 d 79 1 d 58 X 8 1 d 7 X 7 2 d 6 1 d 7 2 d 8 2 d 9 3 d 16 6 d 14 6 d 9 3 d
 8 2 d 2 1 d 13 3 d 13 3 d 17 3 d 37 7 d 12 2 d 27 6 d 12 2 d 9 2 d 8 1 d 11 X 5 1 d 7 -1 d 7 -1 d 9 -1 d 23 -4 d 7 -1 d 21 X 5 1 d 4 1 d 5 2 d 5 2 d 6 3 d 8 5 d 13 7 d 6 3 d 5 3 d 5 1 d 5 2 d 4 1 d 12 X 4 -1 d 4 -1 d 68 -36 d 8 X 4 1 d 4 1 d 5 2 d 5
 2 d 6 3 d 8 4 d 12 7 d 6 3 d 5 2 d 5 2 d 4 1 d 4 1 d 3 X 6 1 d 12 X 7 -1 d 7 -1 d 9 -2 d 14 -2 d 21 -5 d 4 -1 d 7 -2 d 8 -2 d 10 -3 d 22 -7 d 8 -3 d 6 -1 d 6 -1 d 6 -1 d 15 X 4 1 d 6 1 d 6 2 d 10 4 d 10 4 d 6 2 d 4 1 d 5 1 d 4 X 4 1 d 4 -1 d 3 X 3
 -1 d 2 X 5 -2 d 5 -2 d 5 -2 d 4 -3 d 5 -3 d 4 -3 d 5 -3 d 4 -4 d 5 -4 d 4 -5 d 4 -4 d 4 -5 d 4 -6 d 4 -5 d 4 -6 d 3 -6 d 3 -7 d 3 -6 d 3 -6 d 1 -2 d s 3 lw /w 2 def /w2 {w 2 div} def /w3 {w 3 div} def 380 746 459 751 539 751 618 750 697 753 777 750
 856 752 935 753 1015 756 1094 782 1174 798 1253 811 1332 804 1412 835 1491 797 1570 826 1650 815 1729 795 1809 810 1888 726 20 { m20} R 6 lw black 1 0 1 c
 gsave  2268 1328 0 0 C 2036.96 863.214 t 0 r /Helvetica-Bold findfont 48.4311 sf 0 0 m (/dof=0.7) show NC gr  black 1 0 1 c
 gsave  2268 1328 0 0 C 2017.01 880.307 t 0 r /Helvetica-Bold findfont 34.1867 sf 0 0 m (2) show NC gr  black 1 0 1 c
 gsave  2268 1328 0 0 C 1991.37 863.214 t 0 r /Symbol findfont 48.4311 sf 0 0 m (c) show NC gr  black 3 lw 340 752 m 1588 X s
 gsave  2268 1328 0 0 C 1330.43 1213.63 t 0 r /Helvetica-Bold findfont 42.7334 sf 0 0 m 
 93 69 45 22
(1166 ) K NC gr  1 0 1 c /w 23 def /w2 {w 2 div} def /w3 {w 3 div} def 1290 1228 m21 black 1 1 1 c 0 0.733333 1 c 380 961 m21 459 971 m21 539 973 m21 618 970 m21 697 973 m21 777 971 m21 856 975 m21 935 977 m21 1015 980 m21 black 1094 1011 m 1 Y s
 1094 1034 m 1 Y s 1088 1011 m 12 X s 1088 1035 m 12 X s 0 0.733333 1 c 1094 1023 m21 black 1174 1059 m 5 Y s 1174 1087 m 5 Y s 1168 1059 m 11 X s 1168 1092 m 11 X s 0 0.733333 1 c 1174 1076 m21 black 1253 1107 m 9 Y s 1253 1138 m 9 Y s 1247 1107 m
 12 X s 1247 1147 m 12 X s 0 0.733333 1 c 1253 1127 m21 black 1332 1083 m 13 Y s 1332 1119 m 13 Y s 1327 1083 m 11 X s 1327 1132 m 11 X s 0 0.733333 1 c 1332 1108 m21 black 1412 1095 m 17 Y s 1412 1134 m 17 Y s 1406 1095 m 11 X s 1406 1151 m 11 X s 0
 0.733333 1 c 1412 1123 m21 black 1491 1021 m 19 Y s 1491 1062 m 19 Y s 1485 1021 m 12 X s 1485 1081 m 12 X s 0 0.733333 1 c 1491 1051 m21 black 1570 1089 m 22 Y s 1570 1133 m 22 Y s 1565 1089 m 11 X s 1565 1155 m 11 X s 0 0.733333 1 c 1570 1122 m21
 black 1650 1070 m 24 Y s 1650 1117 m 24 Y s 1644 1070 m 11 X s 1644 1141 m 11 X s 0 0.733333 1 c 1650 1105 m21 black 1729 1043 m 26 Y s 1729 1092 m 26 Y s 1723 1043 m 12 X s 1723 1118 m 12 X s 0 0.733333 1 c 1729 1080 m21 black 1809 1016 m 28 Y s
 1809 1067 m 28 Y s 1803 1016 m 11 X s 1803 1095 m 11 X s 0 0.733333 1 c 1809 1056 m21 black 1888 913 m 29 Y s 1888 965 m 29 Y s 1882 913 m 12 X s 1882 994 m 12 X s 0 0.733333 1 c 1888 954 m21 6 lw 1 1 1 c 0 0.733333 1 c 380 964 m 21 2 d 22 3 d 21 1
 d 15 1 d 19 1 d 24 1 d 37 -1 d 79 -2 d 15 1 d 22 1 d 23 2 d 13 1 d 20 X 66 -4 d 41 X 38 2 d 71 1 d 8 X 13 1 d 34 -1 d 11 1 d 8 1 d 6 1 d 8 2 d 6 2 d 7 2 d 7 4 d 10 5 d 15 9 d 14 9 d 10 5 d 7 3 d 3 2 d 13 4 d 13 5 d 16 5 d 38 10 d 12 4 d 26 9 d 13 4
 d 9 2 d 8 2 d 7 1 d 15 X 7 -2 d 10 -2 d 23 -6 d 7 -1 d 7 -1 d 10 X 4 1 d 5 1 d 4 2 d 5 3 d 4 3 d 6 4 d 9 7 d 12 12 d 7 5 d 5 3 d 5 4 d 4 2 d 4 1 d 4 1 d 9 X 3 -1 d 4 -2 d 69 -57 d 4 X 4 1 d 4 1 d 4 2 d 4 2 d 5 3 d 6 5 d 8 7 d 12 10 d 6 5 d 5 3 d 5 3
 d 4 2 d 4 1 d 4 1 d 6 1 d 11 X 7 -1 d 7 -1 d 9 -3 d 11 -4 d 26 -9 d 3 -1 d 8 -2 d 9 -4 d 12 -6 d 18 -9 d 10 -4 d 8 -3 d 6 -2 d 6 -1 d 2 X 5 -1 d 5 X 5 1 d 6 1 d 9 3 d 14 5 d 7 2 d 6 1 d 13 X 4 -1 d 4 -2 d 2 X 5 -3 d 5 -4 d 5 -4 d 5 -4 d 5 -5 d 5 -5
 d 5 -5 d 5 -6 d 5 -7 d 5 -7 d 5 -8 d 4 -7 d 4 -9 d 4 -8 d 4 -9 d 4 -9 d 4 -10 d s 3 lw /w 2 def /w2 {w 2 div} def /w3 {w 3 div} def 380 964 459 971 539 972 618 970 697 975 777 971 856 973 935 974 1015 979 1094 1020 1174 1044 1253 1066 1332 1055 1412
 1103 1491 1043 1570 1089 1650 1071 1729 1040 1809 1049 1888 939 20 { m20} R 6 lw black 0 0.733333 1 c
 gsave  2268 1328 0 0 C 2039.81 1113.92 t 0 r /Helvetica-Bold findfont 48.4311 sf 0 0 m (/dof=1.1) show NC gr  black 0 0.733333 1 c
 gsave  2268 1328 0 0 C 2019.86 1131.01 t 0 r /Helvetica-Bold findfont 34.1867 sf 0 0 m (2) show NC gr  black 0 0.733333 1 c
 gsave  2268 1328 0 0 C 1994.22 1113.92 t 0 r /Symbol findfont 48.4311 sf 0 0 m (c) show NC gr  black 3 lw 340 974 m 1588 X s
 gsave  2268 1328 0 0 C 1783.41 1213.63 t 0 r /Helvetica-Bold findfont 42.7334 sf 0 0 m (1400 ) show NC gr  0 0.733333 1 c /w 23 def /w2 {w 2 div} def /w3 {w 3 div} def 1743 1228 m21
 gr  gr showpage
end
%%EOF
