*...+....1....+....2....+....3....+....4....+....5....+....6....+....7....+....8
TITLE
Charged pion fluence inside and around a proton-irradiated Be target
*...+....1....+....2....+....3....+....4....+....5....+....6....+....7....+....8
BEAM        120.E+00                                                  PROTON
BEAMPOS          0.0       0.0     -75.0
*
*
* -----------------------------------------------------------------------------
* Material Description Section
* -----------------------------------------------------------------------------
*
GEOBEGIN                                                              COMBNAME
  0 0                       A simple Be target inside vacuum
RPP body1 -5000000.0 +5000000.0 -5000000.0 +5000000.0 -5000000.0 +5000000.0
RPP body2 -1000000.0 +1000000.0 -1000000.0 +1000000.0    -100.0  +1000000.0
*RCC body2       0.0       0.0       0.0         0.0       -100.0       96.0
*                1.0
RCC body3       0.0       0.0       -45.         0.0         0.0         95.0
                0.72
END
* black hole
regBH1    5     +body1 -body2
* vacuum around
regVA2    5     +body2 -body3
* Be target 1st half
regBE3    5     +body3 
END
GEOEND
*...+....1....+....2....+....3....+....4....+....5....+....6....+....7....+....8
MATERIAL         4.0    9.0122     1.848       5.0                    BERYLLIU
MATERIAL                      1.784                                   GRAPHITE
COMPOUND  -100.0    CARBON                                            GRAPHITE
*...+....1....+....2....+....3....+....4....+....5....+....6....+....7....+....8
*  Be target, 1st and 2nd half
ASSIGNMAT  CARBON     regBE3
*  External Black Hole
ASSIGNMAT  BLCKHOLE   regBH1
*  Vacuum
ASSIGNMAT   VACUUM    regVA2
*...+....1....+....2....+....3....+....4....+....5....+....6....+....7....+....8
*
* Elements
*AAAAAAAxx_________|_________|_________|_________|_________|_________|
* monoisotopic Hydrogen is used because of FLUKA's inability to deal
*  with Deuterium
*MATERIAL         4.0    9.0122     1.848       5.0                    BERYLLIU
*MATERIAL                      1.784                                   GRAPHITE
*COMPOUND  -100.0    CARBON                                            GRAPHITE
* -----------------------------------------------------------------------------
*...+....1....+....2....+....3....+....4....+....5....+....6....+....7....+....8
*  External Black Hole
*...+....1....+....2....+....3....+....4....+....5....+....6....+....7....+....8
* e+e- and gamma production threshold set at 10 MeV
*EMFCUT        -0.010     0.010       1.0  GRAPHITE                      PROD-CUT
* score in each region energy deposition and stars produced by primaries
SCORE       ENERGY    BEAMPART 
*...+....1....+....2....+....3....+....4....+....5....+....6....+....7....+....8
USERWEIG                              1.                            1.
* Opens an output file JUNK corresponding to unit 33 for USRBDX output
OPEN       33.                                                        UNKNOWN
JUNK
* Opens an output file TEST corresponding to unit 44 for ntuple output
*OPEN       44.                                                        UNKNOWN
*TEST
* Opens a file target.2 for random seed initialization
*OPEN       2.                                                         UNKNOWN
*target.2
*23456789 123456789 123456789 123456789 123456789 123456789 123456789 123456789
*
* These cards call the USRBDX routine which implements Alex's code
*  Most of the paramters are irrelevant.
*AAAAAAAxx____1____|____2____|____3____|____4____|____5____|____6____|____7____
USRBDX    +8.0      201.0      33.0     3.0        2.0          1.0      Pi+
USRBDX        130.   1.00       75.0                 4.76E-8      75.0        &
*
RANDOMIZE      1.0  5678.
*...+....1....+....2....+....3....+....4....+....5....+....6....+....7....+....8
START     5000.0      0.       36000.
STOP
