\BOOKMARK [1][]{section.1}{1 introduction}{}
\BOOKMARK [1][]{section.2}{2 CP Sensitivity Estimator}{}
\BOOKMARK [2][]{subsection.2.1}{2.1 Comparisons of Sensitivity Estimator with Fast MC Sensitivities}{section.2}
\BOOKMARK [1][]{section.3}{3 Beam Simulation}{}
\BOOKMARK [1][]{section.4}{4 Optimization Algorithm}{}
\BOOKMARK [1][]{section.5}{5 Results of Optimization}{}
\BOOKMARK [1][]{section.6}{6 Parameter Scan}{}
\BOOKMARK [1][]{section.7}{7 Appendix: Alternate optimization using the FTFP\137BERT physics list}{}
