This is pdfTeXk, Version 3.141592-1.40.3 (Web2C 7.5.6) (format=pdflatex 2015.6.15)  3 SEP 2015 06:44
entering extended mode
 %&-line parsing enabled.
**GeneticOptimization.tex
(./GeneticOptimization.tex
LaTeX2e <2005/12/01>
Babel <v3.8h> and hyphenation patterns for english, usenglishmax, dumylang, noh
yphenation, arabic, basque, bulgarian, coptic, welsh, czech, slovak, german, ng
erman, danish, esperanto, spanish, catalan, galician, estonian, farsi, finnish,
 french, greek, monogreek, ancientgreek, croatian, hungarian, interlingua, ibyc
us, indonesian, icelandic, italian, latin, mongolian, dutch, norsk, polish, por
tuguese, pinyin, romanian, russian, slovenian, uppersorbian, serbian, swedish, 
turkish, ukenglish, ukrainian, loaded.
(./preamble.tex (/usr/share/texmf/tex/latex/koma-script/scrartcl.cls
Document Class: scrartcl 2006/07/30 v2.95b KOMA-Script document class (article)

(/usr/share/texmf/tex/latex/koma-script/scrkbase.sty
Package: scrkbase 2006/07/30 v2.95b KOMA-Script package (basics and keyval use)


(/usr/share/texmf/tex/latex/koma-script/scrlfile.sty
Package: scrlfile 2006/03/28 v2.95 KOMA-Script package (loading files)

Package scrlfile, 2006/03/28 v2.95 KOMA-Script package (loading files)
                  Copyright (C) Markus Kohm

) (/usr/share/texmf/tex/latex/graphics/keyval.sty
Package: keyval 1999/03/16 v1.13 key=value parser (DPC)
\KV@toks@=\toks14
))
Package scrkbase Info: You've used the obsolete option `oneside'.
(scrkbase)             \KOMAoptions{twoside=false} will be used instead.
(scrkbase)             You should do this change too on input line 594.
Package scrkbase Info: You've used the obsolete option `11pt'.
(scrkbase)             \KOMAoptions{fontsize=11pt} will be used instead.
(scrkbase)             You should do this change too on input line 594.

(/usr/share/texmf/tex/latex/base/size11.clo
File: size11.clo 2005/09/16 v1.4f Standard LaTeX file (size option)
)
(/usr/share/texmf/tex/latex/koma-script/typearea.sty
Package: typearea 2006/07/30 v2.95b KOMA-Script package (type area)

Package typearea, 2006/07/30 v2.95b KOMA-Script package (type area)
                  Copyright (C) Frank Neukam, 1992-1994
                  Copyright (C) Markus Kohm, 1994-2002

\ta@bcor=\skip41
\ta@div=\count79
Package scrkbase Info: You've used the obsolete option `letterpaper'.
(scrkbase)             \KOMAoptions{paper=letter} will be used instead.
(scrkbase)             You should do this change too on input line 419.
\ta@hblk=\skip42
\ta@vblk=\skip43
\ta@temp=\skip44
Package typearea Info: These are the values describing the layout:
(typearea)             DIV  = 10
(typearea)             BCOR = 0.0pt
(typearea)             \paperwidth      = 614.295pt
(typearea)              \textwidth      = 430.00653pt
(typearea)              DIV-departure   = -9/100
(typearea)              \evensidemargin = 19.87424pt
(typearea)              \oddsidemargin  = 19.87424pt
(typearea)             \paperheight     = 794.96999pt
(typearea)              \textheight     = 568.60025pt
(typearea)              \topmargin      = -30.173pt
(typearea)              \headheight     = 17.0pt
(typearea)              \headsep        = 20.40001pt
(typearea)              \topskip        = 11.0pt
(typearea)              \footskip       = 47.60002pt
(typearea)              \baselineskip   = 13.6pt
(typearea)              on input line 832.
)
\c@part=\count80
\c@section=\count81
\c@subsection=\count82
\c@subsubsection=\count83
\c@paragraph=\count84
\c@subparagraph=\count85
\abovecaptionskip=\skip45
\belowcaptionskip=\skip46
\c@pti@nb@sid@b@x=\box26
\c@figure=\count86
\c@table=\count87
\bibindent=\dimen102
) (/usr/share/texmf/tex/latex/psnfss/palatino.sty
Package: palatino 2005/04/12 PSNFSS-v9.2a (SPQR) 
)
(/usr/share/texmf/tex/latex/setspace/setspace.sty
Package: setspace 2000/12/01 6.7 Contributed and Supported LaTeX2e package

Package: `setspace' 6.7 <2000/12/01>
) (/usr/share/texmf/tex/latex/ltxmisc/url.sty
\Urlmuskip=\muskip10
Package: url 2005/06/27  ver 3.2  Verb mode for urls, etc.
)
(/usr/share/texmf/tex/latex/comment/comment.sty
\CommentStream=\write3
 Excluding comment 'comment')
(/usr/share/texmf/tex/latex/subfigure/subfigure.sty
Package: subfigure 2002/03/15 v2.1.5 subfigure package
\subfigtopskip=\skip47
\subfigcapskip=\skip48
\subfigcaptopadj=\dimen103
\subfigbottomskip=\skip49
\subfigcapmargin=\dimen104
\subfiglabelskip=\skip50
\c@subfigure=\count88
\c@lofdepth=\count89
\c@subtable=\count90
\c@lotdepth=\count91

****************************************
* Local config file subfigure.cfg used *
****************************************
(/usr/share/texmf/tex/latex/subfigure/subfigure.cfg)
\subfig@top=\skip51
\subfig@bottom=\skip52
)
(/usr/share/texmf/tex/latex/placeins/placeins.sty
Package: placeins 2005/04/18  v 2.2
)
(/usr/share/texmf/tex/latex/graphics/graphicx.sty
Package: graphicx 1999/02/16 v1.0f Enhanced LaTeX Graphics (DPC,SPQR)

(/usr/share/texmf/tex/latex/graphics/graphics.sty
Package: graphics 2006/02/20 v1.0o Standard LaTeX Graphics (DPC,SPQR)

(/usr/share/texmf/tex/latex/graphics/trig.sty
Package: trig 1999/03/16 v1.09 sin cos tan (DPC)
)
(/usr/share/texmf/tex/latex/config/graphics.cfg
File: graphics.cfg 2007/01/18 v1.5 graphics configuration of teTeX/TeXLive
)
Package graphics Info: Driver file: pdftex.def on input line 90.

(/usr/share/texmf/tex/latex/pdftex-def/pdftex.def
File: pdftex.def 2007/01/08 v0.04d Graphics/color for pdfTeX
\Gread@gobject=\count92
))
\Gin@req@height=\dimen105
\Gin@req@width=\dimen106
)
(/usr/share/texmf/tex/latex/amsmath/amsmath.sty
Package: amsmath 2000/07/18 v2.13 AMS math features
\@mathmargin=\skip53

For additional information on amsmath, use the `?' option.
(/usr/share/texmf/tex/latex/amsmath/amstext.sty
Package: amstext 2000/06/29 v2.01

(/usr/share/texmf/tex/latex/amsmath/amsgen.sty
File: amsgen.sty 1999/11/30 v2.0
\@emptytoks=\toks15
\ex@=\dimen107
))
(/usr/share/texmf/tex/latex/amsmath/amsbsy.sty
Package: amsbsy 1999/11/29 v1.2d
\pmbraise@=\dimen108
)
(/usr/share/texmf/tex/latex/amsmath/amsopn.sty
Package: amsopn 1999/12/14 v2.01 operator names
)
\inf@bad=\count93
LaTeX Info: Redefining \frac on input line 211.
\uproot@=\count94
\leftroot@=\count95
LaTeX Info: Redefining \overline on input line 307.
\classnum@=\count96
\DOTSCASE@=\count97
LaTeX Info: Redefining \ldots on input line 379.
LaTeX Info: Redefining \dots on input line 382.
LaTeX Info: Redefining \cdots on input line 467.
\Mathstrutbox@=\box27
\strutbox@=\box28
\big@size=\dimen109
LaTeX Font Info:    Redeclaring font encoding OML on input line 567.
LaTeX Font Info:    Redeclaring font encoding OMS on input line 568.
\macc@depth=\count98
\c@MaxMatrixCols=\count99
\dotsspace@=\muskip11
\c@parentequation=\count100
\dspbrk@lvl=\count101
\tag@help=\toks16
\row@=\count102
\column@=\count103
\maxfields@=\count104
\andhelp@=\toks17
\eqnshift@=\dimen110
\alignsep@=\dimen111
\tagshift@=\dimen112
\tagwidth@=\dimen113
\totwidth@=\dimen114
\lineht@=\dimen115
\@envbody=\toks18
\multlinegap=\skip54
\multlinetaggap=\skip55
\mathdisplay@stack=\toks19
LaTeX Info: Redefining \[ on input line 2666.
LaTeX Info: Redefining \] on input line 2667.
)
(/usr/share/texmf/tex/latex/fancyhdr/fancyhdr.sty
\fancy@headwidth=\skip56
\f@ncyO@elh=\skip57
\f@ncyO@erh=\skip58
\f@ncyO@olh=\skip59
\f@ncyO@orh=\skip60
\f@ncyO@elf=\skip61
\f@ncyO@erf=\skip62
\f@ncyO@olf=\skip63
\f@ncyO@orf=\skip64
)
(/usr/share/texmf/tex/latex/tools/enumerate.sty
Package: enumerate 1999/03/05 v3.00 enumerate extensions (DPC)
\@enLab=\toks20
)
(/usr/share/texmf/tex/latex/tools/indentfirst.sty
Package: indentfirst 1995/11/23 v1.03 Indent first paragraph (DPC)
)
(/usr/share/texmf/tex/latex/tools/xspace.sty
Package: xspace 2006/05/08 v1.12 Space after command names (DPC,MH)
)
(/usr/share/texmf/tex/latex/tools/array.sty
Package: array 2005/08/23 v2.4b Tabular extension package (FMi)
\col@sep=\dimen116
\extrarowheight=\dimen117
\NC@list=\toks21
\extratabsurround=\skip65
\backup@length=\skip66
)
(/usr/share/texmf/tex/latex/rotating/rotating.sty
Package: rotating 1997/09/26, v2.13 Rotation package

(/usr/share/texmf/tex/latex/base/ifthen.sty
Package: ifthen 2001/05/26 v1.1c Standard LaTeX ifthen package (DPC)
)
\c@r@tfl@t=\count105
\rot@float@box=\box29
)
(/usr/share/texmf/tex/latex/bbold/bbold.sty
Package: bbold 1994/04/06 Bbold symbol package
)
(/usr/share/texmf/tex/latex/hyperref/hyperref.sty
Package: hyperref 2007/02/07 v6.75r Hypertext links for LaTeX
\@linkdim=\dimen118
\Hy@linkcounter=\count106
\Hy@pagecounter=\count107

(/usr/share/texmf/tex/latex/hyperref/pd1enc.def
File: pd1enc.def 2007/02/07 v6.75r Hyperref: PDFDocEncoding definition (HO)
)
(/usr/share/texmf/tex/latex/config/hyperref.cfg
File: hyperref.cfg 2002/06/06 v1.2 hyperref configuration of TeXLive
)
(/usr/share/texmf/tex/latex/oberdiek/kvoptions.sty
Package: kvoptions 2006/08/22 v2.4 Connects package keyval with LaTeX options (
HO)
)
Package hyperref Info: Option `pdfusetitle' set `true' on input line 2238.
Package hyperref Info: Option `bookmarks' set `true' on input line 2238.
Package hyperref Info: Option `bookmarksopen' set `true' on input line 2238.
Package hyperref Info: Option `bookmarksnumbered' set `true' on input line 2238
.
Package hyperref Info: Option `pdfpagelabels' set `true' on input line 2238.
Package hyperref Info: Option `colorlinks' set `true' on input line 2238.
Package hyperref Info: Hyper figures OFF on input line 2288.
Package hyperref Info: Link nesting OFF on input line 2293.
Package hyperref Info: Hyper index ON on input line 2296.
Package hyperref Info: Plain pages OFF on input line 2303.
Package hyperref Info: Backreferencing OFF on input line 2308.

Implicit mode ON; LaTeX internals redefined
Package hyperref Info: Bookmarks ON on input line 2444.
LaTeX Info: Redefining \url on input line 2599.
\Fld@menulength=\count108
\Field@Width=\dimen119
\Fld@charsize=\dimen120
\Choice@toks=\toks22
\Field@toks=\toks23
Package hyperref Info: Hyper figures OFF on input line 3102.
Package hyperref Info: Link nesting OFF on input line 3107.
Package hyperref Info: Hyper index ON on input line 3110.
Package hyperref Info: backreferencing OFF on input line 3117.
Package hyperref Info: Link coloring ON on input line 3120.
\Hy@abspage=\count109
\c@Item=\count110
\c@Hfootnote=\count111
)
*hyperref using default driver hpdftex*
(/usr/share/texmf/tex/latex/hyperref/hpdftex.def
File: hpdftex.def 2007/02/07 v6.75r Hyperref driver for pdfTeX
\Fld@listcount=\count112
)) (./GeneticOptimization.aux)
\openout1 = `GeneticOptimization.aux'.

LaTeX Font Info:    Checking defaults for OML/cmm/m/it on input line 3.
LaTeX Font Info:    ... okay on input line 3.
LaTeX Font Info:    Checking defaults for T1/cmr/m/n on input line 3.
LaTeX Font Info:    ... okay on input line 3.
LaTeX Font Info:    Checking defaults for OT1/cmr/m/n on input line 3.
LaTeX Font Info:    ... okay on input line 3.
LaTeX Font Info:    Checking defaults for OMS/cmsy/m/n on input line 3.
LaTeX Font Info:    ... okay on input line 3.
LaTeX Font Info:    Checking defaults for OMX/cmex/m/n on input line 3.
LaTeX Font Info:    ... okay on input line 3.
LaTeX Font Info:    Checking defaults for U/cmr/m/n on input line 3.
LaTeX Font Info:    ... okay on input line 3.
LaTeX Font Info:    Checking defaults for PD1/pdf/m/n on input line 3.
LaTeX Font Info:    ... okay on input line 3.
LaTeX Font Info:    Try loading font information for OT1+ppl on input line 3.

(/usr/share/texmf/tex/latex/psnfss/ot1ppl.fd
File: ot1ppl.fd 2001/06/04 font definitions for OT1/ppl.
)
(/usr/share/texmf/tex/latex/graphics/color.sty
Package: color 2005/11/14 v1.0j Standard LaTeX Color (DPC)

(/usr/share/texmf/tex/latex/config/color.cfg
File: color.cfg 2007/01/18 v1.5 color configuration of teTeX/TeXLive
)
Package color Info: Driver file: pdftex.def on input line 130.
)
Package hyperref Info: Link coloring ON on input line 3.

(/usr/share/texmf/tex/latex/hyperref/nameref.sty
Package: nameref 2006/12/27 v2.28 Cross-referencing by name of section

(/usr/share/texmf/tex/latex/oberdiek/refcount.sty
Package: refcount 2006/02/20 v3.0 Data extraction from references (HO)
)
\c@section@level=\count113
)
LaTeX Info: Redefining \ref on input line 3.
LaTeX Info: Redefining \pageref on input line 3.
 (./GeneticOptimization.out) (./GeneticOptimization.out)
\@outlinefile=\write4
\openout4 = `GeneticOptimization.out'.

LaTeX Font Info:    Try loading font information for OT1+phv on input line 18.
 (/usr/share/texmf/tex/latex/psnfss/ot1phv.fd
File: ot1phv.fd 2001/06/04 scalable font definitions for OT1/phv.
)
LaTeX Font Info:    Font shape `OT1/phv/bx/n' in size <10.95> not available
(Font)              Font shape `OT1/phv/b/n' tried instead on input line 18.
LaTeX Font Info:    Font shape `OT1/phv/bx/n' in size <14.4> not available
(Font)              Font shape `OT1/phv/b/n' tried instead on input line 18.

(./GeneticOptimization.toc)
\tf@toc=\write5
\openout5 = `GeneticOptimization.toc'.

 [1

{/usr/share/texmf/fonts/map/pdftex/updmap/pdftex.map}] [2] [3]
<figures/fhcnumu_nh_cp_75thpercentile_fixedScale.png, id=87, 1802.735pt x 975.6
45pt>
File: figures/fhcnumu_nh_cp_75thpercentile_fixedScale.png Graphic file (type pn
g)
 <use figures/fhcnumu_nh_cp_75thpercentile_fixedScale.png>
LaTeX Font Info:    Font shape `OT1/ppl/bx/n' in size <10.95> not available
(Font)              Font shape `OT1/ppl/b/n' tried instead on input line 47.

<figures/fhcnumu_ih_cp_75thpercentile_fixedScale.png, id=88, 1802.735pt x 975.6
45pt>
File: figures/fhcnumu_ih_cp_75thpercentile_fixedScale.png Graphic file (type pn
g)
 <use figures/fhcnumu_ih_cp_75thpercentile_fixedScale.png>
<figures/fhcnumubar_nh_cp_75thpercentile_fixedScale.png, id=89, 1802.735pt x 97
5.645pt>
File: figures/fhcnumubar_nh_cp_75thpercentile_fixedScale.png Graphic file (type
 png)
 <use figures/fhcnumubar_nh_cp_75thpercentile_fixedScale.png>
<figures/fhcnumubar_ih_cp_75thpercentile_fixedScale.png, id=90, 1802.735pt x 97
5.645pt>
File: figures/fhcnumubar_ih_cp_75thpercentile_fixedScale.png Graphic file (type
 png)
 <use figures/fhcnumubar_ih_cp_75thpercentile_fixedScale.png>
<figures/fhcnuenuebar_nh_cp_75thpercentile_fixedScale.png, id=91, 1802.735pt x 
975.645pt>
File: figures/fhcnuenuebar_nh_cp_75thpercentile_fixedScale.png Graphic file (ty
pe png)
 <use figures/fhcnuenuebar_nh_cp_75thpercentile_fixedScale.png>
<figures/fhcnuenuebar_ih_cp_75thpercentile_fixedScale.png, id=92, 1802.735pt x 
975.645pt>
File: figures/fhcnuenuebar_ih_cp_75thpercentile_fixedScale.png Graphic file (ty
pe png)
 <use figures/fhcnuenuebar_ih_cp_75thpercentile_fixedScale.png>
<figures/rhcnumu_nh_cp_75thpercentile_fixedScale.png, id=93, 1802.735pt x 975.6
45pt>
File: figures/rhcnumu_nh_cp_75thpercentile_fixedScale.png Graphic file (type pn
g)
 <use figures/rhcnumu_nh_cp_75thpercentile_fixedScale.png>
<figures/rhcnumu_ih_cp_75thpercentile_fixedScale.png, id=94, 1802.735pt x 975.6
45pt>
File: figures/rhcnumu_ih_cp_75thpercentile_fixedScale.png Graphic file (type pn
g)
 <use figures/rhcnumu_ih_cp_75thpercentile_fixedScale.png>
<figures/rhcnumubar_nh_cp_75thpercentile_fixedScale.png, id=95, 1802.735pt x 97
5.645pt>
File: figures/rhcnumubar_nh_cp_75thpercentile_fixedScale.png Graphic file (type
 png)
 <use figures/rhcnumubar_nh_cp_75thpercentile_fixedScale.png>
<figures/rhcnumubar_ih_cp_75thpercentile_fixedScale.png, id=96, 1802.735pt x 97
5.645pt>
File: figures/rhcnumubar_ih_cp_75thpercentile_fixedScale.png Graphic file (type
 png)
 <use figures/rhcnumubar_ih_cp_75thpercentile_fixedScale.png>
<figures/rhcnuenuebar_nh_cp_75thpercentile_fixedScale.png, id=97, 1802.735pt x 
975.645pt>
File: figures/rhcnuenuebar_nh_cp_75thpercentile_fixedScale.png Graphic file (ty
pe png)
 <use figures/rhcnuenuebar_nh_cp_75thpercentile_fixedScale.png>
<figures/rhcnuenuebar_ih_cp_75thpercentile_fixedScale.png, id=98, 1802.735pt x 
975.645pt>
File: figures/rhcnuenuebar_ih_cp_75thpercentile_fixedScale.png Graphic file (ty
pe png)
 <use figures/rhcnuenuebar_ih_cp_75thpercentile_fixedScale.png>
LaTeX Font Info:    Font shape `OT1/phv/bx/n' in size <12> not available
(Font)              Font shape `OT1/phv/b/n' tried instead on input line 133.

<figures/power_test_fitness_vs_ProtonEnergy.png, id=102, 899.36pt x 574.145pt>
File: figures/power_test_fitness_vs_ProtonEnergy.png Graphic file (type png)

<use figures/power_test_fitness_vs_ProtonEnergy.png>

LaTeX Warning: `h' float specifier changed to `ht'.


<figures/optimization_test_nh_cp_75thpercentile.png, id=103, 899.36pt x 574.145
pt>
File: figures/optimization_test_nh_cp_75thpercentile.png Graphic file (type png
)
 <use figures/optimization_test_nh_cp_75thpercentile.png>

LaTeX Warning: `h' float specifier changed to `ht'.

<figures/antinufrac_nh_cp_75thpercentile.png, id=104, 899.36pt x 574.145pt>
File: figures/antinufrac_nh_cp_75thpercentile.png Graphic file (type png)

<use figures/antinufrac_nh_cp_75thpercentile.png>

LaTeX Warning: `h' float specifier changed to `ht'.

[4 <./figures/fhcnumu_nh_cp_75thpercentile_fixedScale.png (PNG copy)>] [5 <./fi
gures/fhcnumu_ih_cp_75thpercentile_fixedScale.png (PNG copy)> <./figures/fhcnum
ubar_nh_cp_75thpercentile_fixedScale.png (PNG copy)>] [6 <./figures/fhcnumubar_
ih_cp_75thpercentile_fixedScale.png (PNG copy)> <./figures/fhcnuenuebar_nh_cp_7
5thpercentile_fixedScale.png (PNG copy)>] [7 <./figures/fhcnuenuebar_ih_cp_75th
percentile_fixedScale.png (PNG copy)> <./figures/rhcnumu_nh_cp_75thpercentile_f
ixedScale.png (PNG copy)>] [8 <./figures/rhcnumu_ih_cp_75thpercentile_fixedScal
e.png (PNG copy)> <./figures/rhcnumubar_nh_cp_75thpercentile_fixedScale.png (PN
G copy)>] [9 <./figures/rhcnumubar_ih_cp_75thpercentile_fixedScale.png (PNG cop
y)> <./figures/rhcnuenuebar_nh_cp_75thpercentile_fixedScale.png (PNG copy)>]
[10 <./figures/rhcnuenuebar_ih_cp_75thpercentile_fixedScale.png (PNG copy)> <./
figures/power_test_fitness_vs_ProtonEnergy.png (PNG copy)>] [11 <./figures/opti
mization_test_nh_cp_75thpercentile.png (PNG copy)> <./figures/antinufrac_nh_cp_
75thpercentile.png (PNG copy)>]
Overfull \hbox (1.2755pt too wide) in paragraph at lines 163--164
\OT1/ppl/m/n/10.95 sim-u-la-tion of all el-e-ments of the DUNE/LBNF neu-trino b
eam from pri-mary pro-tons to hadron
 []

[12

] <figures/horn1.png, id=164, 1036.87375pt x 428.60126pt>
File: figures/horn1.png Graphic file (type png)

<use figures/horn1.png> [13 <./figures/horn1.png>]
Overfull \hbox (20.94894pt too wide) in paragraph at lines 205--233
 [][] 
 []


<figures/CP_run7_CP_fitness_vs_configuration.png, id=177, 899.36pt x 574.145pt>
File: figures/CP_run7_CP_fitness_vs_configuration.png Graphic file (type png)
<use figures/CP_run7_CP_fitness_vs_configuration.png>

LaTeX Warning: `h' float specifier changed to `ht'.

<figures/Horn1_Nominal.png, id=178, 615.29875pt x 181.67876pt>
File: figures/Horn1_Nominal.png Graphic file (type png)

<use figures/Horn1_Nominal.png>
<figures/Horn1_OptimizedFHC.png, id=179, 615.29875pt x 163.61125pt>
File: figures/Horn1_OptimizedFHC.png Graphic file (type png)

<use figures/Horn1_OptimizedFHC.png>
<figures/Horn1_OptimizedRHC.png, id=180, 615.29875pt x 163.61125pt>
File: figures/Horn1_OptimizedRHC.png Graphic file (type png)

<use figures/Horn1_OptimizedRHC.png> [14]
<figures/FS_Nominal.png, id=188, 536.0025pt x 175.65625pt>
File: figures/FS_Nominal.png Graphic file (type png)

<use figures/FS_Nominal.png>
<figures/FS_OptimizedFHC.png, id=189, 536.0025pt x 158.5925pt>
File: figures/FS_OptimizedFHC.png Graphic file (type png)

<use figures/FS_OptimizedFHC.png>
<figures/FS_OptimizedRHC.png, id=190, 536.0025pt x 157.58875pt>
File: figures/FS_OptimizedRHC.png Graphic file (type png)

<use figures/FS_OptimizedRHC.png>
<figures/CP_run7_numu_fhc_best_fluxes.png, id=191, 899.36pt x 574.145pt>
File: figures/CP_run7_numu_fhc_best_fluxes.png Graphic file (type png)

<use figures/CP_run7_numu_fhc_best_fluxes.png>
<figures/CP_run7_numu_rhc_best_fluxes.png, id=192, 899.36pt x 574.145pt>
File: figures/CP_run7_numu_rhc_best_fluxes.png Graphic file (type png)

<use figures/CP_run7_numu_rhc_best_fluxes.png>
<figures/CP_run7_numubar_fhc_best_fluxes.png, id=193, 899.36pt x 574.145pt>
File: figures/CP_run7_numubar_fhc_best_fluxes.png Graphic file (type png)

<use figures/CP_run7_numubar_fhc_best_fluxes.png>
<figures/CP_run7_numubar_rhc_best_fluxes.png, id=194, 899.36pt x 574.145pt>
File: figures/CP_run7_numubar_rhc_best_fluxes.png Graphic file (type png)

<use figures/CP_run7_numubar_rhc_best_fluxes.png>
<figures/CP_run7_nue_fhc_best_fluxes.png, id=195, 899.36pt x 574.145pt>
File: figures/CP_run7_nue_fhc_best_fluxes.png Graphic file (type png)

<use figures/CP_run7_nue_fhc_best_fluxes.png>
<figures/CP_run7_nuebar_rhc_best_fluxes.png, id=196, 899.36pt x 574.145pt>
File: figures/CP_run7_nuebar_rhc_best_fluxes.png Graphic file (type png)

<use figures/CP_run7_nuebar_rhc_best_fluxes.png>
<figures/CP_run7_fhcnumu_fitness_vs_configuration.png, id=197, 899.36pt x 574.1
45pt>
File: figures/CP_run7_fhcnumu_fitness_vs_configuration.png Graphic file (type p
ng)
 <use figures/CP_run7_fhcnumu_fitness_vs_configuration.png>
<figures/CP_run7_rhcnumu_fitness_vs_configuration.png, id=198, 899.36pt x 574.1
45pt>
File: figures/CP_run7_rhcnumu_fitness_vs_configuration.png Graphic file (type p
ng)
 <use figures/CP_run7_rhcnumu_fitness_vs_configuration.png>
<figures/CP_run7_fhcnumubar_fitness_vs_configuration.png, id=199, 899.36pt x 57
4.145pt>
File: figures/CP_run7_fhcnumubar_fitness_vs_configuration.png Graphic file (typ
e png)
 <use figures/CP_run7_fhcnumubar_fitness_vs_configuration.png>
<figures/CP_run7_rhcnumubar_fitness_vs_configuration.png, id=200, 899.36pt x 57
4.145pt>
File: figures/CP_run7_rhcnumubar_fitness_vs_configuration.png Graphic file (typ
e png)
 <use figures/CP_run7_rhcnumubar_fitness_vs_configuration.png>
<figures/CP_run7_fhcnuenuebar_fitness_vs_configuration.png, id=201, 899.36pt x 
574.145pt>
File: figures/CP_run7_fhcnuenuebar_fitness_vs_configuration.png Graphic file (t
ype png)
 <use figures/CP_run7_fhcnuenuebar_fitness_vs_configuration.png>
<figures/CP_run7_rhcnuenuebar_fitness_vs_configuration.png, id=202, 899.36pt x 
574.145pt>
File: figures/CP_run7_rhcnuenuebar_fitness_vs_configuration.png Graphic file (t
ype png)
 <use figures/CP_run7_rhcnuenuebar_fitness_vs_configuration.png>
<figures/CP_run7_FHCHorn1ICRadius1_vs_configuration.png, id=203, 899.36pt x 574
.145pt>
File: figures/CP_run7_FHCHorn1ICRadius1_vs_configuration.png Graphic file (type
 png)
 <use figures/CP_run7_FHCHorn1ICRadius1_vs_configuration.png>
<figures/CP_run7_FHCHorn1ICRadius2_vs_configuration.png, id=204, 899.36pt x 574
.145pt>
File: figures/CP_run7_FHCHorn1ICRadius2_vs_configuration.png Graphic file (type
 png)
 <use figures/CP_run7_FHCHorn1ICRadius2_vs_configuration.png>
<figures/CP_run7_FHCHorn1ICRadius3_vs_configuration.png, id=205, 899.36pt x 574
.145pt>
File: figures/CP_run7_FHCHorn1ICRadius3_vs_configuration.png Graphic file (type
 png)
 <use figures/CP_run7_FHCHorn1ICRadius3_vs_configuration.png>
<figures/CP_run7_FHCHorn1ICRadius4_vs_configuration.png, id=206, 899.36pt x 574
.145pt>
File: figures/CP_run7_FHCHorn1ICRadius4_vs_configuration.png Graphic file (type
 png)
 <use figures/CP_run7_FHCHorn1ICRadius4_vs_configuration.png>
<figures/CP_run7_FHCHorn1ICLength1_vs_configuration.png, id=207, 899.36pt x 574
.145pt>
File: figures/CP_run7_FHCHorn1ICLength1_vs_configuration.png Graphic file (type
 png)
 <use figures/CP_run7_FHCHorn1ICLength1_vs_configuration.png>
<figures/CP_run7_FHCHorn1ICLength2_vs_configuration.png, id=208, 899.36pt x 574
.145pt>
File: figures/CP_run7_FHCHorn1ICLength2_vs_configuration.png Graphic file (type
 png)
 <use figures/CP_run7_FHCHorn1ICLength2_vs_configuration.png>
<figures/CP_run7_FHCHorn1ICLength3_vs_configuration.png, id=209, 899.36pt x 574
.145pt>
File: figures/CP_run7_FHCHorn1ICLength3_vs_configuration.png Graphic file (type
 png)
 <use figures/CP_run7_FHCHorn1ICLength3_vs_configuration.png>
<figures/CP_run7_FHCHorn1ICLength4_vs_configuration.png, id=210, 899.36pt x 574
.145pt>
File: figures/CP_run7_FHCHorn1ICLength4_vs_configuration.png Graphic file (type
 png)
 <use figures/CP_run7_FHCHorn1ICLength4_vs_configuration.png>
<figures/CP_run7_FHCHorn1ICLength5_vs_configuration.png, id=211, 899.36pt x 574
.145pt>
File: figures/CP_run7_FHCHorn1ICLength5_vs_configuration.png Graphic file (type
 png)
 <use figures/CP_run7_FHCHorn1ICLength5_vs_configuration.png>
<figures/CP_run7_FHCHorn1ICLength6_vs_configuration.png, id=212, 899.36pt x 574
.145pt>
File: figures/CP_run7_FHCHorn1ICLength6_vs_configuration.png Graphic file (type
 png)
 <use figures/CP_run7_FHCHorn1ICLength6_vs_configuration.png>
<figures/CP_run7_FHCHorn1ICLength7_vs_configuration.png, id=213, 899.36pt x 574
.145pt>
File: figures/CP_run7_FHCHorn1ICLength7_vs_configuration.png Graphic file (type
 png)
 <use figures/CP_run7_FHCHorn1ICLength7_vs_configuration.png>
<figures/CP_run7_FHCHorn1OCRadius_vs_configuration.png, id=214, 899.36pt x 574.
145pt>
File: figures/CP_run7_FHCHorn1OCRadius_vs_configuration.png Graphic file (type 
png)
 <use figures/CP_run7_FHCHorn1OCRadius_vs_configuration.png>
<figures/CP_run7_FHCHorn2LongPosition_vs_configuration.png, id=215, 899.36pt x 
574.145pt>
File: figures/CP_run7_FHCHorn2LongPosition_vs_configuration.png Graphic file (t
ype png)
 <use figures/CP_run7_FHCHorn2LongPosition_vs_configuration.png>
<figures/CP_run7_FHCHorn2LongRescale_vs_configuration.png, id=216, 899.36pt x 5
74.145pt>
File: figures/CP_run7_FHCHorn2LongRescale_vs_configuration.png Graphic file (ty
pe png)
 <use figures/CP_run7_FHCHorn2LongRescale_vs_configuration.png>
<figures/CP_run7_FHCHorn2RadialRescale_vs_configuration.png, id=217, 899.36pt x
 574.145pt>
File: figures/CP_run7_FHCHorn2RadialRescale_vs_configuration.png Graphic file (
type png)
 <use figures/CP_run7_FHCHorn2RadialRescale_vs_configuration.png>
<figures/CP_run7_FHCHorn2RadialRescaleCst_vs_configuration.png, id=218, 899.36p
t x 574.145pt>
File: figures/CP_run7_FHCHorn2RadialRescaleCst_vs_configuration.png Graphic fil
e (type png)

<use figures/CP_run7_FHCHorn2RadialRescaleCst_vs_configuration.png>
<figures/CP_run7_FHCGraphiteTargetFinWidth_vs_configuration.png, id=219, 899.36
pt x 574.145pt>
File: figures/CP_run7_FHCGraphiteTargetFinWidth_vs_configuration.png Graphic fi
le (type png)

<use figures/CP_run7_FHCGraphiteTargetFinWidth_vs_configuration.png>
<figures/CP_run7_FHCGraphiteTargetLength_vs_configuration.png, id=220, 899.36pt
 x 574.145pt>
File: figures/CP_run7_FHCGraphiteTargetLength_vs_configuration.png Graphic file
 (type png)

<use figures/CP_run7_FHCGraphiteTargetLength_vs_configuration.png>
<figures/CP_run7_FHCHornCurrent_vs_configuration.png, id=221, 899.36pt x 574.14
5pt>
File: figures/CP_run7_FHCHornCurrent_vs_configuration.png Graphic file (type pn
g)
 <use figures/CP_run7_FHCHornCurrent_vs_configuration.png>
<figures/CP_run7_FHCProtonEnergy_vs_configuration.png, id=222, 899.36pt x 574.1
45pt>
File: figures/CP_run7_FHCProtonEnergy_vs_configuration.png Graphic file (type p
ng)
 <use figures/CP_run7_FHCProtonEnergy_vs_configuration.png>
<figures/CP_run7_RHCHorn1ICRadius1_vs_configuration.png, id=223, 899.36pt x 574
.145pt>
File: figures/CP_run7_RHCHorn1ICRadius1_vs_configuration.png Graphic file (type
 png)
 <use figures/CP_run7_RHCHorn1ICRadius1_vs_configuration.png>
<figures/CP_run7_RHCHorn1ICRadius2_vs_configuration.png, id=224, 899.36pt x 574
.145pt>
File: figures/CP_run7_RHCHorn1ICRadius2_vs_configuration.png Graphic file (type
 png)
 <use figures/CP_run7_RHCHorn1ICRadius2_vs_configuration.png>
<figures/CP_run7_RHCHorn1ICRadius3_vs_configuration.png, id=225, 899.36pt x 574
.145pt>
File: figures/CP_run7_RHCHorn1ICRadius3_vs_configuration.png Graphic file (type
 png)
 <use figures/CP_run7_RHCHorn1ICRadius3_vs_configuration.png>
<figures/CP_run7_RHCHorn1ICRadius4_vs_configuration.png, id=226, 899.36pt x 574
.145pt>
File: figures/CP_run7_RHCHorn1ICRadius4_vs_configuration.png Graphic file (type
 png)
 <use figures/CP_run7_RHCHorn1ICRadius4_vs_configuration.png>
<figures/CP_run7_RHCHorn1ICLength1_vs_configuration.png, id=227, 899.36pt x 574
.145pt>
File: figures/CP_run7_RHCHorn1ICLength1_vs_configuration.png Graphic file (type
 png)
 <use figures/CP_run7_RHCHorn1ICLength1_vs_configuration.png>
<figures/CP_run7_RHCHorn1ICLength2_vs_configuration.png, id=228, 899.36pt x 574
.145pt>
File: figures/CP_run7_RHCHorn1ICLength2_vs_configuration.png Graphic file (type
 png)
 <use figures/CP_run7_RHCHorn1ICLength2_vs_configuration.png>
<figures/CP_run7_RHCHorn1ICLength3_vs_configuration.png, id=229, 899.36pt x 574
.145pt>
File: figures/CP_run7_RHCHorn1ICLength3_vs_configuration.png Graphic file (type
 png)
 <use figures/CP_run7_RHCHorn1ICLength3_vs_configuration.png>
<figures/CP_run7_RHCHorn1ICLength4_vs_configuration.png, id=230, 899.36pt x 574
.145pt>
File: figures/CP_run7_RHCHorn1ICLength4_vs_configuration.png Graphic file (type
 png)
 <use figures/CP_run7_RHCHorn1ICLength4_vs_configuration.png>
<figures/CP_run7_RHCHorn1ICLength5_vs_configuration.png, id=231, 899.36pt x 574
.145pt>
File: figures/CP_run7_RHCHorn1ICLength5_vs_configuration.png Graphic file (type
 png)
 <use figures/CP_run7_RHCHorn1ICLength5_vs_configuration.png>
<figures/CP_run7_RHCHorn1ICLength6_vs_configuration.png, id=232, 899.36pt x 574
.145pt>
File: figures/CP_run7_RHCHorn1ICLength6_vs_configuration.png Graphic file (type
 png)
 <use figures/CP_run7_RHCHorn1ICLength6_vs_configuration.png>
<figures/CP_run7_RHCHorn1ICLength7_vs_configuration.png, id=233, 899.36pt x 574
.145pt>
File: figures/CP_run7_RHCHorn1ICLength7_vs_configuration.png Graphic file (type
 png)
 <use figures/CP_run7_RHCHorn1ICLength7_vs_configuration.png>
<figures/CP_run7_RHCHorn1OCRadius_vs_configuration.png, id=234, 899.36pt x 574.
145pt>
File: figures/CP_run7_RHCHorn1OCRadius_vs_configuration.png Graphic file (type 
png)
 <use figures/CP_run7_RHCHorn1OCRadius_vs_configuration.png>
<figures/CP_run7_RHCHorn2LongPosition_vs_configuration.png, id=235, 899.36pt x 
574.145pt>
File: figures/CP_run7_RHCHorn2LongPosition_vs_configuration.png Graphic file (t
ype png)
 <use figures/CP_run7_RHCHorn2LongPosition_vs_configuration.png>
<figures/CP_run7_RHCHorn2LongRescale_vs_configuration.png, id=236, 899.36pt x 5
74.145pt>
File: figures/CP_run7_RHCHorn2LongRescale_vs_configuration.png Graphic file (ty
pe png)
 <use figures/CP_run7_RHCHorn2LongRescale_vs_configuration.png>
<figures/CP_run7_RHCHorn2RadialRescale_vs_configuration.png, id=237, 899.36pt x
 574.145pt>
File: figures/CP_run7_RHCHorn2RadialRescale_vs_configuration.png Graphic file (
type png)
 <use figures/CP_run7_RHCHorn2RadialRescale_vs_configuration.png>
<figures/CP_run7_RHCHorn2RadialRescaleCst_vs_configuration.png, id=238, 899.36p
t x 574.145pt>
File: figures/CP_run7_RHCHorn2RadialRescaleCst_vs_configuration.png Graphic fil
e (type png)

<use figures/CP_run7_RHCHorn2RadialRescaleCst_vs_configuration.png>
<figures/CP_run7_RHCGraphiteTargetFinWidth_vs_configuration.png, id=239, 899.36
pt x 574.145pt>
File: figures/CP_run7_RHCGraphiteTargetFinWidth_vs_configuration.png Graphic fi
le (type png)

<use figures/CP_run7_RHCGraphiteTargetFinWidth_vs_configuration.png>
<figures/CP_run7_RHCGraphiteTargetLength_vs_configuration.png, id=240, 899.36pt
 x 574.145pt>
File: figures/CP_run7_RHCGraphiteTargetLength_vs_configuration.png Graphic file
 (type png)

<use figures/CP_run7_RHCGraphiteTargetLength_vs_configuration.png>
<figures/CP_run7_RHCHornCurrent_vs_configuration.png, id=241, 899.36pt x 574.14
5pt>
File: figures/CP_run7_RHCHornCurrent_vs_configuration.png Graphic file (type pn
g)
 <use figures/CP_run7_RHCHornCurrent_vs_configuration.png>
<figures/CP_run7_RHCProtonEnergy_vs_configuration.png, id=242, 899.36pt x 574.1
45pt>
File: figures/CP_run7_RHCProtonEnergy_vs_configuration.png Graphic file (type p
ng)
 <use figures/CP_run7_RHCProtonEnergy_vs_configuration.png> [15] [16 <./figures
/CP_run7_CP_fitness_vs_configuration.png (PNG copy)>] [17 <./figures/Horn1_Nomi
nal.png (PNG copy)> <./figures/Horn1_OptimizedFHC.png (PNG copy)> <./figures/Ho
rn1_OptimizedRHC.png (PNG copy)>] [18 <./figures/FS_Nominal.png (PNG copy)> <./
figures/FS_OptimizedFHC.png (PNG copy)> <./figures/FS_OptimizedRHC.png (PNG cop
y)>] [19 <./figures/CP_run7_numu_fhc_best_fluxes.png (PNG copy)> <./figures/CP_
run7_numu_rhc_best_fluxes.png (PNG copy)> <./figures/CP_run7_numubar_fhc_best_f
luxes.png (PNG copy)> <./figures/CP_run7_numubar_rhc_best_fluxes.png (PNG copy)
> <./figures/CP_run7_nue_fhc_best_fluxes.png (PNG copy)> <./figures/CP_run7_nue
bar_rhc_best_fluxes.png (PNG copy)>] [20 <./figures/CP_run7_fhcnumu_fitness_vs_
configuration.png (PNG copy)> <./figures/CP_run7_rhcnumu_fitness_vs_configurati
on.png (PNG copy)> <./figures/CP_run7_fhcnumubar_fitness_vs_configuration.png (
PNG copy)> <./figures/CP_run7_rhcnumubar_fitness_vs_configuration.png (PNG copy
)> <./figures/CP_run7_fhcnuenuebar_fitness_vs_configuration.png (PNG copy)> <./
figures/CP_run7_rhcnuenuebar_fitness_vs_configuration.png (PNG copy)>]
[21 <./figures/CP_run7_FHCHorn1ICRadius1_vs_configuration.png (PNG copy)> <./fi
gures/CP_run7_FHCHorn1ICRadius2_vs_configuration.png (PNG copy)> <./figures/CP_
run7_FHCHorn1ICRadius3_vs_configuration.png (PNG copy)> <./figures/CP_run7_FHCH
orn1ICRadius4_vs_configuration.png (PNG copy)> <./figures/CP_run7_FHCHorn1ICLen
gth1_vs_configuration.png (PNG copy)> <./figures/CP_run7_FHCHorn1ICLength2_vs_c
onfiguration.png (PNG copy)> <./figures/CP_run7_FHCHorn1ICLength3_vs_configurat
ion.png (PNG copy)> <./figures/CP_run7_FHCHorn1ICLength4_vs_configuration.png (
PNG copy)> <./figures/CP_run7_FHCHorn1ICLength5_vs_configuration.png (PNG copy)
> <./figures/CP_run7_FHCHorn1ICLength6_vs_configuration.png (PNG copy)>]
[22 <./figures/CP_run7_FHCHorn1ICLength7_vs_configuration.png (PNG copy)> <./fi
gures/CP_run7_FHCHorn1OCRadius_vs_configuration.png (PNG copy)> <./figures/CP_r
un7_FHCHorn2LongPosition_vs_configuration.png (PNG copy)> <./figures/CP_run7_FH
CHorn2LongRescale_vs_configuration.png (PNG copy)> <./figures/CP_run7_FHCHorn2R
adialRescale_vs_configuration.png (PNG copy)> <./figures/CP_run7_FHCHorn2Radial
RescaleCst_vs_configuration.png (PNG copy)> <./figures/CP_run7_FHCGraphiteTarge
tFinWidth_vs_configuration.png (PNG copy)> <./figures/CP_run7_FHCGraphiteTarget
Length_vs_configuration.png (PNG copy)> <./figures/CP_run7_FHCHornCurrent_vs_co
nfiguration.png (PNG copy)> <./figures/CP_run7_FHCProtonEnergy_vs_configuration
.png (PNG copy)>] [23 <./figures/CP_run7_RHCHorn1ICRadius1_vs_configuration.png
 (PNG copy)> <./figures/CP_run7_RHCHorn1ICRadius2_vs_configuration.png (PNG cop
y)> <./figures/CP_run7_RHCHorn1ICRadius3_vs_configuration.png (PNG copy)> <./fi
gures/CP_run7_RHCHorn1ICRadius4_vs_configuration.png (PNG copy)> <./figures/CP_
run7_RHCHorn1ICLength1_vs_configuration.png (PNG copy)> <./figures/CP_run7_RHCH
orn1ICLength2_vs_configuration.png (PNG copy)> <./figures/CP_run7_RHCHorn1ICLen
gth3_vs_configuration.png (PNG copy)> <./figures/CP_run7_RHCHorn1ICLength4_vs_c
onfiguration.png (PNG copy)> <./figures/CP_run7_RHCHorn1ICLength5_vs_configurat
ion.png (PNG copy)> <./figures/CP_run7_RHCHorn1ICLength6_vs_configuration.png (
PNG copy)>] [24 <./figures/CP_run7_RHCHorn1ICLength7_vs_configuration.png (PNG 
copy)> <./figures/CP_run7_RHCHorn1OCRadius_vs_configuration.png (PNG copy)> <./
figures/CP_run7_RHCHorn2LongPosition_vs_configuration.png (PNG copy)> <./figure
s/CP_run7_RHCHorn2LongRescale_vs_configuration.png (PNG copy)> <./figures/CP_ru
n7_RHCHorn2RadialRescale_vs_configuration.png (PNG copy)> <./figures/CP_run7_RH
CHorn2RadialRescaleCst_vs_configuration.png (PNG copy)> <./figures/CP_run7_RHCG
raphiteTargetFinWidth_vs_configuration.png (PNG copy)> <./figures/CP_run7_RHCGr
aphiteTargetLength_vs_configuration.png (PNG copy)> <./figures/CP_run7_RHCHornC
urrent_vs_configuration.png (PNG copy)> <./figures/CP_run7_RHCProtonEnergy_vs_c
onfiguration.png (PNG copy)>]
<figures/CP_run7_9556_Scan_FHCHorn1ICRadius1_QGSP_BERT.png, id=291, 899.36pt x 
574.145pt>
File: figures/CP_run7_9556_Scan_FHCHorn1ICRadius1_QGSP_BERT.png Graphic file (t
ype png)
 <use figures/CP_run7_9556_Scan_FHCHorn1ICRadius1_QGSP_BERT.png>
<figures/CP_run7_9556_Scan_FHCHorn1ICRadius1_FTFP_BERT.png, id=292, 899.36pt x 
574.145pt>
File: figures/CP_run7_9556_Scan_FHCHorn1ICRadius1_FTFP_BERT.png Graphic file (t
ype png)
 <use figures/CP_run7_9556_Scan_FHCHorn1ICRadius1_FTFP_BERT.png>
<figures/CP_run7_9556_Scan_FHCHorn1ICRadius2_QGSP_BERT.png, id=293, 899.36pt x 
574.145pt>
File: figures/CP_run7_9556_Scan_FHCHorn1ICRadius2_QGSP_BERT.png Graphic file (t
ype png)
 <use figures/CP_run7_9556_Scan_FHCHorn1ICRadius2_QGSP_BERT.png>
<figures/CP_run7_9556_Scan_FHCHorn1ICRadius2_FTFP_BERT.png, id=294, 899.36pt x 
574.145pt>
File: figures/CP_run7_9556_Scan_FHCHorn1ICRadius2_FTFP_BERT.png Graphic file (t
ype png)
 <use figures/CP_run7_9556_Scan_FHCHorn1ICRadius2_FTFP_BERT.png>
<figures/CP_run7_9556_Scan_FHCHorn1ICRadius3_QGSP_BERT.png, id=295, 899.36pt x 
574.145pt>
File: figures/CP_run7_9556_Scan_FHCHorn1ICRadius3_QGSP_BERT.png Graphic file (t
ype png)
 <use figures/CP_run7_9556_Scan_FHCHorn1ICRadius3_QGSP_BERT.png>
<figures/CP_run7_9556_Scan_FHCHorn1ICRadius3_FTFP_BERT.png, id=296, 899.36pt x 
574.145pt>
File: figures/CP_run7_9556_Scan_FHCHorn1ICRadius3_FTFP_BERT.png Graphic file (t
ype png)
 <use figures/CP_run7_9556_Scan_FHCHorn1ICRadius3_FTFP_BERT.png>
<figures/CP_run7_9556_Scan_FHCHorn1ICRadius4_QGSP_BERT.png, id=297, 899.36pt x 
574.145pt>
File: figures/CP_run7_9556_Scan_FHCHorn1ICRadius4_QGSP_BERT.png Graphic file (t
ype png)
 <use figures/CP_run7_9556_Scan_FHCHorn1ICRadius4_QGSP_BERT.png>
<figures/CP_run7_9556_Scan_FHCHorn1ICRadius4_FTFP_BERT.png, id=298, 899.36pt x 
574.145pt>
File: figures/CP_run7_9556_Scan_FHCHorn1ICRadius4_FTFP_BERT.png Graphic file (t
ype png)
 <use figures/CP_run7_9556_Scan_FHCHorn1ICRadius4_FTFP_BERT.png>
<figures/CP_run7_9556_Scan_FHCHorn1ICLength1_QGSP_BERT.png, id=299, 899.36pt x 
574.145pt>
File: figures/CP_run7_9556_Scan_FHCHorn1ICLength1_QGSP_BERT.png Graphic file (t
ype png)
 <use figures/CP_run7_9556_Scan_FHCHorn1ICLength1_QGSP_BERT.png>
<figures/CP_run7_9556_Scan_FHCHorn1ICLength1_FTFP_BERT.png, id=300, 899.36pt x 
574.145pt>
File: figures/CP_run7_9556_Scan_FHCHorn1ICLength1_FTFP_BERT.png Graphic file (t
ype png)
 <use figures/CP_run7_9556_Scan_FHCHorn1ICLength1_FTFP_BERT.png>
<figures/CP_run7_9556_Scan_FHCHorn1ICLength2_QGSP_BERT.png, id=301, 899.36pt x 
574.145pt>
File: figures/CP_run7_9556_Scan_FHCHorn1ICLength2_QGSP_BERT.png Graphic file (t
ype png)
 <use figures/CP_run7_9556_Scan_FHCHorn1ICLength2_QGSP_BERT.png>
<figures/CP_run7_9556_Scan_FHCHorn1ICLength2_FTFP_BERT.png, id=302, 899.36pt x 
574.145pt>
File: figures/CP_run7_9556_Scan_FHCHorn1ICLength2_FTFP_BERT.png Graphic file (t
ype png)
 <use figures/CP_run7_9556_Scan_FHCHorn1ICLength2_FTFP_BERT.png>
<figures/CP_run7_9556_Scan_FHCHorn1ICLength3_QGSP_BERT.png, id=303, 899.36pt x 
574.145pt>
File: figures/CP_run7_9556_Scan_FHCHorn1ICLength3_QGSP_BERT.png Graphic file (t
ype png)
 <use figures/CP_run7_9556_Scan_FHCHorn1ICLength3_QGSP_BERT.png>
<figures/CP_run7_9556_Scan_FHCHorn1ICLength3_FTFP_BERT.png, id=304, 899.36pt x 
574.145pt>
File: figures/CP_run7_9556_Scan_FHCHorn1ICLength3_FTFP_BERT.png Graphic file (t
ype png)
 <use figures/CP_run7_9556_Scan_FHCHorn1ICLength3_FTFP_BERT.png>
<figures/CP_run7_9556_Scan_FHCHorn1ICLength4_QGSP_BERT.png, id=305, 899.36pt x 
574.145pt>
File: figures/CP_run7_9556_Scan_FHCHorn1ICLength4_QGSP_BERT.png Graphic file (t
ype png)
 <use figures/CP_run7_9556_Scan_FHCHorn1ICLength4_QGSP_BERT.png>
<figures/CP_run7_9556_Scan_FHCHorn1ICLength4_FTFP_BERT.png, id=306, 899.36pt x 
574.145pt>
File: figures/CP_run7_9556_Scan_FHCHorn1ICLength4_FTFP_BERT.png Graphic file (t
ype png)
 <use figures/CP_run7_9556_Scan_FHCHorn1ICLength4_FTFP_BERT.png>
<figures/CP_run7_9556_Scan_FHCHorn1ICLength5_QGSP_BERT.png, id=307, 899.36pt x 
574.145pt>
File: figures/CP_run7_9556_Scan_FHCHorn1ICLength5_QGSP_BERT.png Graphic file (t
ype png)
 <use figures/CP_run7_9556_Scan_FHCHorn1ICLength5_QGSP_BERT.png>
<figures/CP_run7_9556_Scan_FHCHorn1ICLength5_FTFP_BERT.png, id=308, 899.36pt x 
574.145pt>
File: figures/CP_run7_9556_Scan_FHCHorn1ICLength5_FTFP_BERT.png Graphic file (t
ype png)
 <use figures/CP_run7_9556_Scan_FHCHorn1ICLength5_FTFP_BERT.png>
<figures/CP_run7_9556_Scan_FHCHorn1ICLength6_QGSP_BERT.png, id=309, 899.36pt x 
574.145pt>
File: figures/CP_run7_9556_Scan_FHCHorn1ICLength6_QGSP_BERT.png Graphic file (t
ype png)
 <use figures/CP_run7_9556_Scan_FHCHorn1ICLength6_QGSP_BERT.png>
<figures/CP_run7_9556_Scan_FHCHorn1ICLength6_FTFP_BERT.png, id=310, 899.36pt x 
574.145pt>
File: figures/CP_run7_9556_Scan_FHCHorn1ICLength6_FTFP_BERT.png Graphic file (t
ype png)
 <use figures/CP_run7_9556_Scan_FHCHorn1ICLength6_FTFP_BERT.png>
<figures/CP_run7_9556_Scan_FHCHorn1ICLength7_QGSP_BERT.png, id=311, 899.36pt x 
574.145pt>
File: figures/CP_run7_9556_Scan_FHCHorn1ICLength7_QGSP_BERT.png Graphic file (t
ype png)
 <use figures/CP_run7_9556_Scan_FHCHorn1ICLength7_QGSP_BERT.png>
<figures/CP_run7_9556_Scan_FHCHorn1ICLength7_FTFP_BERT.png, id=312, 899.36pt x 
574.145pt>
File: figures/CP_run7_9556_Scan_FHCHorn1ICLength7_FTFP_BERT.png Graphic file (t
ype png)
 <use figures/CP_run7_9556_Scan_FHCHorn1ICLength7_FTFP_BERT.png>
<figures/CP_run7_9556_Scan_FHCHorn1OCRadius_QGSP_BERT.png, id=313, 899.36pt x 5
74.145pt>
File: figures/CP_run7_9556_Scan_FHCHorn1OCRadius_QGSP_BERT.png Graphic file (ty
pe png)
 <use figures/CP_run7_9556_Scan_FHCHorn1OCRadius_QGSP_BERT.png>
<figures/CP_run7_9556_Scan_FHCHorn1OCRadius_FTFP_BERT.png, id=314, 899.36pt x 5
74.145pt>
File: figures/CP_run7_9556_Scan_FHCHorn1OCRadius_FTFP_BERT.png Graphic file (ty
pe png)
 <use figures/CP_run7_9556_Scan_FHCHorn1OCRadius_FTFP_BERT.png>
<figures/CP_run7_9556_Scan_FHCHorn2RadialRescale_QGSP_BERT.png, id=315, 899.36p
t x 574.145pt>
File: figures/CP_run7_9556_Scan_FHCHorn2RadialRescale_QGSP_BERT.png Graphic fil
e (type png)

<use figures/CP_run7_9556_Scan_FHCHorn2RadialRescale_QGSP_BERT.png>
<figures/CP_run7_9556_Scan_FHCHorn2RadialRescale_FTFP_BERT.png, id=316, 899.36p
t x 574.145pt>
File: figures/CP_run7_9556_Scan_FHCHorn2RadialRescale_FTFP_BERT.png Graphic fil
e (type png)

<use figures/CP_run7_9556_Scan_FHCHorn2RadialRescale_FTFP_BERT.png>
<figures/CP_run7_9556_Scan_FHCHorn2RadialRescaleCst_QGSP_BERT.png, id=317, 899.
36pt x 574.145pt>
File: figures/CP_run7_9556_Scan_FHCHorn2RadialRescaleCst_QGSP_BERT.png Graphic 
file (type png)

<use figures/CP_run7_9556_Scan_FHCHorn2RadialRescaleCst_QGSP_BERT.png>
<figures/CP_run7_9556_Scan_FHCHorn2RadialRescaleCst_FTFP_BERT.png, id=318, 899.
36pt x 574.145pt>
File: figures/CP_run7_9556_Scan_FHCHorn2RadialRescaleCst_FTFP_BERT.png Graphic 
file (type png)

<use figures/CP_run7_9556_Scan_FHCHorn2RadialRescaleCst_FTFP_BERT.png>
<figures/CP_run7_9556_Scan_FHCHorn2LongRescale_QGSP_BERT.png, id=319, 899.36pt 
x 574.145pt>
File: figures/CP_run7_9556_Scan_FHCHorn2LongRescale_QGSP_BERT.png Graphic file 
(type png)
 <use figures/CP_run7_9556_Scan_FHCHorn2LongRescale_QGSP_BERT.png>
<figures/CP_run7_9556_Scan_FHCHorn2LongRescale_FTFP_BERT.png, id=320, 899.36pt 
x 574.145pt>
File: figures/CP_run7_9556_Scan_FHCHorn2LongRescale_FTFP_BERT.png Graphic file 
(type png)
 <use figures/CP_run7_9556_Scan_FHCHorn2LongRescale_FTFP_BERT.png>
<figures/CP_run7_9556_Scan_FHCHorn2LongPosition_QGSP_BERT.png, id=321, 899.36pt
 x 574.145pt>
File: figures/CP_run7_9556_Scan_FHCHorn2LongPosition_QGSP_BERT.png Graphic file
 (type png)

<use figures/CP_run7_9556_Scan_FHCHorn2LongPosition_QGSP_BERT.png>
<figures/CP_run7_9556_Scan_FHCHorn2LongPosition_FTFP_BERT.png, id=322, 899.36pt
 x 574.145pt>
File: figures/CP_run7_9556_Scan_FHCHorn2LongPosition_FTFP_BERT.png Graphic file
 (type png)

<use figures/CP_run7_9556_Scan_FHCHorn2LongPosition_FTFP_BERT.png>
<figures/CP_run7_9556_Scan_FHCGraphiteTargetFinWidth_QGSP_BERT.png, id=323, 899
.36pt x 574.145pt>
File: figures/CP_run7_9556_Scan_FHCGraphiteTargetFinWidth_QGSP_BERT.png Graphic
 file (type png)

<use figures/CP_run7_9556_Scan_FHCGraphiteTargetFinWidth_QGSP_BERT.png>
<figures/CP_run7_9556_Scan_FHCGraphiteTargetFinWidth_FTFP_BERT.png, id=324, 899
.36pt x 574.145pt>
File: figures/CP_run7_9556_Scan_FHCGraphiteTargetFinWidth_FTFP_BERT.png Graphic
 file (type png)

<use figures/CP_run7_9556_Scan_FHCGraphiteTargetFinWidth_FTFP_BERT.png>
<figures/CP_run7_9556_Scan_FHCGraphiteTargetLength_QGSP_BERT.png, id=325, 899.3
6pt x 574.145pt>
File: figures/CP_run7_9556_Scan_FHCGraphiteTargetLength_QGSP_BERT.png Graphic f
ile (type png)

<use figures/CP_run7_9556_Scan_FHCGraphiteTargetLength_QGSP_BERT.png>
<figures/CP_run7_9556_Scan_FHCGraphiteTargetLength_FTFP_BERT.png, id=326, 899.3
6pt x 574.145pt>
File: figures/CP_run7_9556_Scan_FHCGraphiteTargetLength_FTFP_BERT.png Graphic f
ile (type png)

<use figures/CP_run7_9556_Scan_FHCGraphiteTargetLength_FTFP_BERT.png>
<figures/CP_run7_9556_Scan_FHCHornCurrent_QGSP_BERT.png, id=327, 899.36pt x 574
.145pt>
File: figures/CP_run7_9556_Scan_FHCHornCurrent_QGSP_BERT.png Graphic file (type
 png)
 <use figures/CP_run7_9556_Scan_FHCHornCurrent_QGSP_BERT.png>
<figures/CP_run7_9556_Scan_FHCHornCurrent_FTFP_BERT.png, id=328, 899.36pt x 574
.145pt>
File: figures/CP_run7_9556_Scan_FHCHornCurrent_FTFP_BERT.png Graphic file (type
 png)
 <use figures/CP_run7_9556_Scan_FHCHornCurrent_FTFP_BERT.png>
<figures/CP_run7_9556_Scan_FHCProtonEnergy_QGSP_BERT.png, id=329, 899.36pt x 57
4.145pt>
File: figures/CP_run7_9556_Scan_FHCProtonEnergy_QGSP_BERT.png Graphic file (typ
e png)
 <use figures/CP_run7_9556_Scan_FHCProtonEnergy_QGSP_BERT.png>
<figures/CP_run7_9556_Scan_FHCProtonEnergy_FTFP_BERT.png, id=330, 899.36pt x 57
4.145pt>
File: figures/CP_run7_9556_Scan_FHCProtonEnergy_FTFP_BERT.png Graphic file (typ
e png)
 <use figures/CP_run7_9556_Scan_FHCProtonEnergy_FTFP_BERT.png>
<figures/CP_run7_9556_Scan_RHCHorn1ICRadius1_QGSP_BERT.png, id=331, 899.36pt x 
574.145pt>
File: figures/CP_run7_9556_Scan_RHCHorn1ICRadius1_QGSP_BERT.png Graphic file (t
ype png)
 <use figures/CP_run7_9556_Scan_RHCHorn1ICRadius1_QGSP_BERT.png>
<figures/CP_run7_9556_Scan_RHCHorn1ICRadius1_FTFP_BERT.png, id=332, 899.36pt x 
574.145pt>
File: figures/CP_run7_9556_Scan_RHCHorn1ICRadius1_FTFP_BERT.png Graphic file (t
ype png)
 <use figures/CP_run7_9556_Scan_RHCHorn1ICRadius1_FTFP_BERT.png>
<figures/CP_run7_9556_Scan_RHCHorn1ICRadius2_QGSP_BERT.png, id=333, 899.36pt x 
574.145pt>
File: figures/CP_run7_9556_Scan_RHCHorn1ICRadius2_QGSP_BERT.png Graphic file (t
ype png)
 <use figures/CP_run7_9556_Scan_RHCHorn1ICRadius2_QGSP_BERT.png>
<figures/CP_run7_9556_Scan_RHCHorn1ICRadius2_FTFP_BERT.png, id=334, 899.36pt x 
574.145pt>
File: figures/CP_run7_9556_Scan_RHCHorn1ICRadius2_FTFP_BERT.png Graphic file (t
ype png)
 <use figures/CP_run7_9556_Scan_RHCHorn1ICRadius2_FTFP_BERT.png>
<figures/CP_run7_9556_Scan_RHCHorn1ICRadius3_QGSP_BERT.png, id=335, 899.36pt x 
574.145pt>
File: figures/CP_run7_9556_Scan_RHCHorn1ICRadius3_QGSP_BERT.png Graphic file (t
ype png)
 <use figures/CP_run7_9556_Scan_RHCHorn1ICRadius3_QGSP_BERT.png>
<figures/CP_run7_9556_Scan_RHCHorn1ICRadius3_FTFP_BERT.png, id=336, 899.36pt x 
574.145pt>
File: figures/CP_run7_9556_Scan_RHCHorn1ICRadius3_FTFP_BERT.png Graphic file (t
ype png)
 <use figures/CP_run7_9556_Scan_RHCHorn1ICRadius3_FTFP_BERT.png>
<figures/CP_run7_9556_Scan_RHCHorn1ICRadius4_QGSP_BERT.png, id=337, 899.36pt x 
574.145pt>
File: figures/CP_run7_9556_Scan_RHCHorn1ICRadius4_QGSP_BERT.png Graphic file (t
ype png)
 <use figures/CP_run7_9556_Scan_RHCHorn1ICRadius4_QGSP_BERT.png>
<figures/CP_run7_9556_Scan_RHCHorn1ICRadius4_FTFP_BERT.png, id=338, 899.36pt x 
574.145pt>
File: figures/CP_run7_9556_Scan_RHCHorn1ICRadius4_FTFP_BERT.png Graphic file (t
ype png)
 <use figures/CP_run7_9556_Scan_RHCHorn1ICRadius4_FTFP_BERT.png>
<figures/CP_run7_9556_Scan_RHCHorn1ICLength1_QGSP_BERT.png, id=339, 899.36pt x 
574.145pt>
File: figures/CP_run7_9556_Scan_RHCHorn1ICLength1_QGSP_BERT.png Graphic file (t
ype png)
 <use figures/CP_run7_9556_Scan_RHCHorn1ICLength1_QGSP_BERT.png>
<figures/CP_run7_9556_Scan_RHCHorn1ICLength1_FTFP_BERT.png, id=340, 899.36pt x 
574.145pt>
File: figures/CP_run7_9556_Scan_RHCHorn1ICLength1_FTFP_BERT.png Graphic file (t
ype png)
 <use figures/CP_run7_9556_Scan_RHCHorn1ICLength1_FTFP_BERT.png>
<figures/CP_run7_9556_Scan_RHCHorn1ICLength2_QGSP_BERT.png, id=341, 899.36pt x 
574.145pt>
File: figures/CP_run7_9556_Scan_RHCHorn1ICLength2_QGSP_BERT.png Graphic file (t
ype png)
 <use figures/CP_run7_9556_Scan_RHCHorn1ICLength2_QGSP_BERT.png>
<figures/CP_run7_9556_Scan_RHCHorn1ICLength2_FTFP_BERT.png, id=342, 899.36pt x 
574.145pt>
File: figures/CP_run7_9556_Scan_RHCHorn1ICLength2_FTFP_BERT.png Graphic file (t
ype png)
 <use figures/CP_run7_9556_Scan_RHCHorn1ICLength2_FTFP_BERT.png>
<figures/CP_run7_9556_Scan_RHCHorn1ICLength3_QGSP_BERT.png, id=343, 899.36pt x 
574.145pt>
File: figures/CP_run7_9556_Scan_RHCHorn1ICLength3_QGSP_BERT.png Graphic file (t
ype png)
 <use figures/CP_run7_9556_Scan_RHCHorn1ICLength3_QGSP_BERT.png>
<figures/CP_run7_9556_Scan_RHCHorn1ICLength3_FTFP_BERT.png, id=344, 899.36pt x 
574.145pt>
File: figures/CP_run7_9556_Scan_RHCHorn1ICLength3_FTFP_BERT.png Graphic file (t
ype png)
 <use figures/CP_run7_9556_Scan_RHCHorn1ICLength3_FTFP_BERT.png>
<figures/CP_run7_9556_Scan_RHCHorn1ICLength4_QGSP_BERT.png, id=345, 899.36pt x 
574.145pt>
File: figures/CP_run7_9556_Scan_RHCHorn1ICLength4_QGSP_BERT.png Graphic file (t
ype png)
 <use figures/CP_run7_9556_Scan_RHCHorn1ICLength4_QGSP_BERT.png>
<figures/CP_run7_9556_Scan_RHCHorn1ICLength4_FTFP_BERT.png, id=346, 899.36pt x 
574.145pt>
File: figures/CP_run7_9556_Scan_RHCHorn1ICLength4_FTFP_BERT.png Graphic file (t
ype png)
 <use figures/CP_run7_9556_Scan_RHCHorn1ICLength4_FTFP_BERT.png>
<figures/CP_run7_9556_Scan_RHCHorn1ICLength5_QGSP_BERT.png, id=347, 899.36pt x 
574.145pt>
File: figures/CP_run7_9556_Scan_RHCHorn1ICLength5_QGSP_BERT.png Graphic file (t
ype png)
 <use figures/CP_run7_9556_Scan_RHCHorn1ICLength5_QGSP_BERT.png>
<figures/CP_run7_9556_Scan_RHCHorn1ICLength5_FTFP_BERT.png, id=348, 899.36pt x 
574.145pt>
File: figures/CP_run7_9556_Scan_RHCHorn1ICLength5_FTFP_BERT.png Graphic file (t
ype png)
 <use figures/CP_run7_9556_Scan_RHCHorn1ICLength5_FTFP_BERT.png>
<figures/CP_run7_9556_Scan_RHCHorn1ICLength6_QGSP_BERT.png, id=349, 899.36pt x 
574.145pt>
File: figures/CP_run7_9556_Scan_RHCHorn1ICLength6_QGSP_BERT.png Graphic file (t
ype png)
 <use figures/CP_run7_9556_Scan_RHCHorn1ICLength6_QGSP_BERT.png>
<figures/CP_run7_9556_Scan_RHCHorn1ICLength6_FTFP_BERT.png, id=350, 899.36pt x 
574.145pt>
File: figures/CP_run7_9556_Scan_RHCHorn1ICLength6_FTFP_BERT.png Graphic file (t
ype png)
 <use figures/CP_run7_9556_Scan_RHCHorn1ICLength6_FTFP_BERT.png>
<figures/CP_run7_9556_Scan_RHCHorn1ICLength7_QGSP_BERT.png, id=351, 899.36pt x 
574.145pt>
File: figures/CP_run7_9556_Scan_RHCHorn1ICLength7_QGSP_BERT.png Graphic file (t
ype png)
 <use figures/CP_run7_9556_Scan_RHCHorn1ICLength7_QGSP_BERT.png>
<figures/CP_run7_9556_Scan_RHCHorn1ICLength7_FTFP_BERT.png, id=352, 899.36pt x 
574.145pt>
File: figures/CP_run7_9556_Scan_RHCHorn1ICLength7_FTFP_BERT.png Graphic file (t
ype png)
 <use figures/CP_run7_9556_Scan_RHCHorn1ICLength7_FTFP_BERT.png>
<figures/CP_run7_9556_Scan_RHCHorn1OCRadius_QGSP_BERT.png, id=353, 899.36pt x 5
74.145pt>
File: figures/CP_run7_9556_Scan_RHCHorn1OCRadius_QGSP_BERT.png Graphic file (ty
pe png)
 <use figures/CP_run7_9556_Scan_RHCHorn1OCRadius_QGSP_BERT.png>
<figures/CP_run7_9556_Scan_RHCHorn1OCRadius_FTFP_BERT.png, id=354, 899.36pt x 5
74.145pt>
File: figures/CP_run7_9556_Scan_RHCHorn1OCRadius_FTFP_BERT.png Graphic file (ty
pe png)
 <use figures/CP_run7_9556_Scan_RHCHorn1OCRadius_FTFP_BERT.png>
<figures/CP_run7_9556_Scan_RHCHorn2RadialRescale_QGSP_BERT.png, id=355, 899.36p
t x 574.145pt>
File: figures/CP_run7_9556_Scan_RHCHorn2RadialRescale_QGSP_BERT.png Graphic fil
e (type png)

<use figures/CP_run7_9556_Scan_RHCHorn2RadialRescale_QGSP_BERT.png>
<figures/CP_run7_9556_Scan_RHCHorn2RadialRescale_FTFP_BERT.png, id=356, 899.36p
t x 574.145pt>
File: figures/CP_run7_9556_Scan_RHCHorn2RadialRescale_FTFP_BERT.png Graphic fil
e (type png)

<use figures/CP_run7_9556_Scan_RHCHorn2RadialRescale_FTFP_BERT.png>
<figures/CP_run7_9556_Scan_RHCHorn2RadialRescaleCst_QGSP_BERT.png, id=357, 899.
36pt x 574.145pt>
File: figures/CP_run7_9556_Scan_RHCHorn2RadialRescaleCst_QGSP_BERT.png Graphic 
file (type png)

<use figures/CP_run7_9556_Scan_RHCHorn2RadialRescaleCst_QGSP_BERT.png>
<figures/CP_run7_9556_Scan_RHCHorn2RadialRescaleCst_FTFP_BERT.png, id=358, 899.
36pt x 574.145pt>
File: figures/CP_run7_9556_Scan_RHCHorn2RadialRescaleCst_FTFP_BERT.png Graphic 
file (type png)

<use figures/CP_run7_9556_Scan_RHCHorn2RadialRescaleCst_FTFP_BERT.png>
<figures/CP_run7_9556_Scan_RHCHorn2LongRescale_QGSP_BERT.png, id=359, 899.36pt 
x 574.145pt>
File: figures/CP_run7_9556_Scan_RHCHorn2LongRescale_QGSP_BERT.png Graphic file 
(type png)
 <use figures/CP_run7_9556_Scan_RHCHorn2LongRescale_QGSP_BERT.png>
<figures/CP_run7_9556_Scan_RHCHorn2LongRescale_FTFP_BERT.png, id=360, 899.36pt 
x 574.145pt>
File: figures/CP_run7_9556_Scan_RHCHorn2LongRescale_FTFP_BERT.png Graphic file 
(type png)
 <use figures/CP_run7_9556_Scan_RHCHorn2LongRescale_FTFP_BERT.png>
<figures/CP_run7_9556_Scan_RHCHorn2LongPosition_QGSP_BERT.png, id=361, 899.36pt
 x 574.145pt>
File: figures/CP_run7_9556_Scan_RHCHorn2LongPosition_QGSP_BERT.png Graphic file
 (type png)

<use figures/CP_run7_9556_Scan_RHCHorn2LongPosition_QGSP_BERT.png>
<figures/CP_run7_9556_Scan_RHCHorn2LongPosition_FTFP_BERT.png, id=362, 899.36pt
 x 574.145pt>
File: figures/CP_run7_9556_Scan_RHCHorn2LongPosition_FTFP_BERT.png Graphic file
 (type png)

<use figures/CP_run7_9556_Scan_RHCHorn2LongPosition_FTFP_BERT.png>
<figures/CP_run7_9556_Scan_RHCGraphiteTargetFinWidth_QGSP_BERT.png, id=363, 899
.36pt x 574.145pt>
File: figures/CP_run7_9556_Scan_RHCGraphiteTargetFinWidth_QGSP_BERT.png Graphic
 file (type png)

<use figures/CP_run7_9556_Scan_RHCGraphiteTargetFinWidth_QGSP_BERT.png>
<figures/CP_run7_9556_Scan_RHCGraphiteTargetFinWidth_FTFP_BERT.png, id=364, 899
.36pt x 574.145pt>
File: figures/CP_run7_9556_Scan_RHCGraphiteTargetFinWidth_FTFP_BERT.png Graphic
 file (type png)

<use figures/CP_run7_9556_Scan_RHCGraphiteTargetFinWidth_FTFP_BERT.png>
<figures/CP_run7_9556_Scan_RHCGraphiteTargetLength_QGSP_BERT.png, id=365, 899.3
6pt x 574.145pt>
File: figures/CP_run7_9556_Scan_RHCGraphiteTargetLength_QGSP_BERT.png Graphic f
ile (type png)

<use figures/CP_run7_9556_Scan_RHCGraphiteTargetLength_QGSP_BERT.png>
<figures/CP_run7_9556_Scan_RHCGraphiteTargetLength_FTFP_BERT.png, id=366, 899.3
6pt x 574.145pt>
File: figures/CP_run7_9556_Scan_RHCGraphiteTargetLength_FTFP_BERT.png Graphic f
ile (type png)

<use figures/CP_run7_9556_Scan_RHCGraphiteTargetLength_FTFP_BERT.png>
<figures/CP_run7_9556_Scan_RHCHornCurrent_QGSP_BERT.png, id=367, 899.36pt x 574
.145pt>
File: figures/CP_run7_9556_Scan_RHCHornCurrent_QGSP_BERT.png Graphic file (type
 png)
 <use figures/CP_run7_9556_Scan_RHCHornCurrent_QGSP_BERT.png>
<figures/CP_run7_9556_Scan_RHCHornCurrent_FTFP_BERT.png, id=368, 899.36pt x 574
.145pt>
File: figures/CP_run7_9556_Scan_RHCHornCurrent_FTFP_BERT.png Graphic file (type
 png)
 <use figures/CP_run7_9556_Scan_RHCHornCurrent_FTFP_BERT.png>
<figures/CP_run7_9556_Scan_RHCProtonEnergy_QGSP_BERT.png, id=369, 899.36pt x 57
4.145pt>
File: figures/CP_run7_9556_Scan_RHCProtonEnergy_QGSP_BERT.png Graphic file (typ
e png)
 <use figures/CP_run7_9556_Scan_RHCProtonEnergy_QGSP_BERT.png>
<figures/CP_run7_9556_Scan_RHCProtonEnergy_FTFP_BERT.png, id=370, 899.36pt x 57
4.145pt>
File: figures/CP_run7_9556_Scan_RHCProtonEnergy_FTFP_BERT.png Graphic file (typ
e png)
 <use figures/CP_run7_9556_Scan_RHCProtonEnergy_FTFP_BERT.png> [25

]

LaTeX Warning: Text page 26 contains only floats.

[26 <./figures/CP_run7_9556_Scan_FHCHorn1ICRadius1_QGSP_BERT.png (PNG copy)> <.
/figures/CP_run7_9556_Scan_FHCHorn1ICRadius1_FTFP_BERT.png (PNG copy)> <./figur
es/CP_run7_9556_Scan_FHCHorn1ICRadius2_QGSP_BERT.png (PNG copy)> <./figures/CP_
run7_9556_Scan_FHCHorn1ICRadius2_FTFP_BERT.png (PNG copy)> <./figures/CP_run7_9
556_Scan_FHCHorn1ICRadius3_QGSP_BERT.png (PNG copy)> <./figures/CP_run7_9556_Sc
an_FHCHorn1ICRadius3_FTFP_BERT.png (PNG copy)> <./figures/CP_run7_9556_Scan_FHC
Horn1ICRadius4_QGSP_BERT.png (PNG copy)> <./figures/CP_run7_9556_Scan_FHCHorn1I
CRadius4_FTFP_BERT.png (PNG copy)> <./figures/CP_run7_9556_Scan_FHCHorn1ICLengt
h1_QGSP_BERT.png (PNG copy)> <./figures/CP_run7_9556_Scan_FHCHorn1ICLength1_FTF
P_BERT.png (PNG copy)>]

LaTeX Warning: Text page 27 contains only floats.

[27 <./figures/CP_run7_9556_Scan_FHCHorn1ICLength2_QGSP_BERT.png (PNG copy)> <.
/figures/CP_run7_9556_Scan_FHCHorn1ICLength2_FTFP_BERT.png (PNG copy)> <./figur
es/CP_run7_9556_Scan_FHCHorn1ICLength3_QGSP_BERT.png (PNG copy)> <./figures/CP_
run7_9556_Scan_FHCHorn1ICLength3_FTFP_BERT.png (PNG copy)> <./figures/CP_run7_9
556_Scan_FHCHorn1ICLength4_QGSP_BERT.png (PNG copy)> <./figures/CP_run7_9556_Sc
an_FHCHorn1ICLength4_FTFP_BERT.png (PNG copy)> <./figures/CP_run7_9556_Scan_FHC
Horn1ICLength5_QGSP_BERT.png (PNG copy)> <./figures/CP_run7_9556_Scan_FHCHorn1I
CLength5_FTFP_BERT.png (PNG copy)> <./figures/CP_run7_9556_Scan_FHCHorn1ICLengt
h6_QGSP_BERT.png (PNG copy)> <./figures/CP_run7_9556_Scan_FHCHorn1ICLength6_FTF
P_BERT.png (PNG copy)>]

LaTeX Warning: Text page 28 contains only floats.

[28 <./figures/CP_run7_9556_Scan_FHCHorn1ICLength7_QGSP_BERT.png (PNG copy)> <.
/figures/CP_run7_9556_Scan_FHCHorn1ICLength7_FTFP_BERT.png (PNG copy)> <./figur
es/CP_run7_9556_Scan_FHCHorn1OCRadius_QGSP_BERT.png (PNG copy)> <./figures/CP_r
un7_9556_Scan_FHCHorn1OCRadius_FTFP_BERT.png (PNG copy)> <./figures/CP_run7_955
6_Scan_FHCHorn2RadialRescale_QGSP_BERT.png (PNG copy)> <./figures/CP_run7_9556_
Scan_FHCHorn2RadialRescale_FTFP_BERT.png (PNG copy)> <./figures/CP_run7_9556_Sc
an_FHCHorn2RadialRescaleCst_QGSP_BERT.png (PNG copy)> <./figures/CP_run7_9556_S
can_FHCHorn2RadialRescaleCst_FTFP_BERT.png (PNG copy)> <./figures/CP_run7_9556_
Scan_FHCHorn2LongRescale_QGSP_BERT.png (PNG copy)> <./figures/CP_run7_9556_Scan
_FHCHorn2LongRescale_FTFP_BERT.png (PNG copy)>]

LaTeX Warning: Text page 29 contains only floats.

[29 <./figures/CP_run7_9556_Scan_FHCHorn2LongPosition_QGSP_BERT.png (PNG copy)>
 <./figures/CP_run7_9556_Scan_FHCHorn2LongPosition_FTFP_BERT.png (PNG copy)> <.
/figures/CP_run7_9556_Scan_FHCGraphiteTargetFinWidth_QGSP_BERT.png (PNG copy)> 
<./figures/CP_run7_9556_Scan_FHCGraphiteTargetFinWidth_FTFP_BERT.png (PNG copy)
> <./figures/CP_run7_9556_Scan_FHCGraphiteTargetLength_QGSP_BERT.png (PNG copy)
> <./figures/CP_run7_9556_Scan_FHCGraphiteTargetLength_FTFP_BERT.png (PNG copy)
> <./figures/CP_run7_9556_Scan_FHCHornCurrent_QGSP_BERT.png (PNG copy)> <./figu
res/CP_run7_9556_Scan_FHCHornCurrent_FTFP_BERT.png (PNG copy)> <./figures/CP_ru
n7_9556_Scan_FHCProtonEnergy_QGSP_BERT.png (PNG copy)> <./figures/CP_run7_9556_
Scan_FHCProtonEnergy_FTFP_BERT.png (PNG copy)>]

LaTeX Warning: Text page 30 contains only floats.

[30 <./figures/CP_run7_9556_Scan_RHCHorn1ICRadius1_QGSP_BERT.png (PNG copy)> <.
/figures/CP_run7_9556_Scan_RHCHorn1ICRadius1_FTFP_BERT.png (PNG copy)> <./figur
es/CP_run7_9556_Scan_RHCHorn1ICRadius2_QGSP_BERT.png (PNG copy)> <./figures/CP_
run7_9556_Scan_RHCHorn1ICRadius2_FTFP_BERT.png (PNG copy)> <./figures/CP_run7_9
556_Scan_RHCHorn1ICRadius3_QGSP_BERT.png (PNG copy)> <./figures/CP_run7_9556_Sc
an_RHCHorn1ICRadius3_FTFP_BERT.png (PNG copy)> <./figures/CP_run7_9556_Scan_RHC
Horn1ICRadius4_QGSP_BERT.png (PNG copy)> <./figures/CP_run7_9556_Scan_RHCHorn1I
CRadius4_FTFP_BERT.png (PNG copy)> <./figures/CP_run7_9556_Scan_RHCHorn1ICLengt
h1_QGSP_BERT.png (PNG copy)> <./figures/CP_run7_9556_Scan_RHCHorn1ICLength1_FTF
P_BERT.png (PNG copy)>]

LaTeX Warning: Text page 31 contains only floats.

[31 <./figures/CP_run7_9556_Scan_RHCHorn1ICLength2_QGSP_BERT.png (PNG copy)> <.
/figures/CP_run7_9556_Scan_RHCHorn1ICLength2_FTFP_BERT.png (PNG copy)> <./figur
es/CP_run7_9556_Scan_RHCHorn1ICLength3_QGSP_BERT.png (PNG copy)> <./figures/CP_
run7_9556_Scan_RHCHorn1ICLength3_FTFP_BERT.png (PNG copy)> <./figures/CP_run7_9
556_Scan_RHCHorn1ICLength4_QGSP_BERT.png (PNG copy)> <./figures/CP_run7_9556_Sc
an_RHCHorn1ICLength4_FTFP_BERT.png (PNG copy)> <./figures/CP_run7_9556_Scan_RHC
Horn1ICLength5_QGSP_BERT.png (PNG copy)> <./figures/CP_run7_9556_Scan_RHCHorn1I
CLength5_FTFP_BERT.png (PNG copy)> <./figures/CP_run7_9556_Scan_RHCHorn1ICLengt
h6_QGSP_BERT.png (PNG copy)> <./figures/CP_run7_9556_Scan_RHCHorn1ICLength6_FTF
P_BERT.png (PNG copy)>]

LaTeX Warning: Text page 32 contains only floats.

[32 <./figures/CP_run7_9556_Scan_RHCHorn1ICLength7_QGSP_BERT.png (PNG copy)> <.
/figures/CP_run7_9556_Scan_RHCHorn1ICLength7_FTFP_BERT.png (PNG copy)> <./figur
es/CP_run7_9556_Scan_RHCHorn1OCRadius_QGSP_BERT.png (PNG copy)> <./figures/CP_r
un7_9556_Scan_RHCHorn1OCRadius_FTFP_BERT.png (PNG copy)> <./figures/CP_run7_955
6_Scan_RHCHorn2RadialRescale_QGSP_BERT.png (PNG copy)> <./figures/CP_run7_9556_
Scan_RHCHorn2RadialRescale_FTFP_BERT.png (PNG copy)> <./figures/CP_run7_9556_Sc
an_RHCHorn2RadialRescaleCst_QGSP_BERT.png (PNG copy)> <./figures/CP_run7_9556_S
can_RHCHorn2RadialRescaleCst_FTFP_BERT.png (PNG copy)> <./figures/CP_run7_9556_
Scan_RHCHorn2LongRescale_QGSP_BERT.png (PNG copy)> <./figures/CP_run7_9556_Scan
_RHCHorn2LongRescale_FTFP_BERT.png (PNG copy)>]

LaTeX Warning: Text page 33 contains only floats.

[33 <./figures/CP_run7_9556_Scan_RHCHorn2LongPosition_QGSP_BERT.png (PNG copy)>
 <./figures/CP_run7_9556_Scan_RHCHorn2LongPosition_FTFP_BERT.png (PNG copy)> <.
/figures/CP_run7_9556_Scan_RHCGraphiteTargetFinWidth_QGSP_BERT.png (PNG copy)> 
<./figures/CP_run7_9556_Scan_RHCGraphiteTargetFinWidth_FTFP_BERT.png (PNG copy)
> <./figures/CP_run7_9556_Scan_RHCGraphiteTargetLength_QGSP_BERT.png (PNG copy)
> <./figures/CP_run7_9556_Scan_RHCGraphiteTargetLength_FTFP_BERT.png (PNG copy)
> <./figures/CP_run7_9556_Scan_RHCHornCurrent_QGSP_BERT.png (PNG copy)> <./figu
res/CP_run7_9556_Scan_RHCHornCurrent_FTFP_BERT.png (PNG copy)> <./figures/CP_ru
n7_9556_Scan_RHCProtonEnergy_QGSP_BERT.png (PNG copy)> <./figures/CP_run7_9556_
Scan_RHCProtonEnergy_FTFP_BERT.png (PNG copy)>]
Overfull \hbox (23.7227pt too wide) in paragraph at lines 890--918
 [][] 
 []

LaTeX Font Info:    Try loading font information for OT1+pcr on input line 925.

(/usr/share/texmf/tex/latex/psnfss/ot1pcr.fd
File: ot1pcr.fd 2001/06/04 font definitions for OT1/pcr.
)
Underfull \hbox (badness 1527) in paragraph at lines 925--926
[]\OT1/ppl/m/n/10.95 Long-Baseline Neu-trino Fa-cil-ity (LBNF) and Deep Un-der-
ground Neu-trino Ex-per-i-
 []

[34] [35] (./GeneticOptimization.aux) )
(\end occurred inside a group at level 1)

### semi simple group (level 1) entered at line 22 (\begingroup)
### bottom level 
Here is how much of TeX's memory you used:
 5463 strings out of 256216
 106175 string characters out of 1917072
 145036 words of memory out of 1500000
 8405 multiletter control sequences out of 10000+200000
 25186 words of font info for 63 fonts, out of 1200000 for 2000
 645 hyphenation exceptions out of 8191
 32i,10n,43p,1994b,4191s stack positions out of 5000i,500n,6000p,200000b,15000s
{/usr/share/texmf/fonts/enc/dvips/base/8r.enc}</usr/share/texmf
/fonts/type1/bluesky/cm/cmbx10.pfb></usr/share/texmf/fonts/type1/bluesky/cm/cme
x10.pfb></usr/share/texmf/fonts/type1/bluesky/cm/cmmi10.pfb></usr/share/texmf/f
onts/type1/bluesky/cm/cmmi7.pfb></usr/share/texmf/fonts/type1/bluesky/cm/cmmi8.
pfb></usr/share/texmf/fonts/type1/bluesky/cm/cmr10.pfb></usr/share/texmf/fonts/
type1/bluesky/cm/cmr7.pfb></usr/share/texmf/fonts/type1/bluesky/cm/cmr8.pfb></u
sr/share/texmf/fonts/type1/urw/courier/ucrr8a.pfb></usr/share/texmf/fonts/type1
/urw/helvetic/uhvb8a.pfb></usr/share/texmf/fonts/type1/urw/palatino/uplb8a.pfb>
</usr/share/texmf/fonts/type1/urw/palatino/uplr8a.pfb></usr/share/texmf/fonts/t
ype1/urw/palatino/uplri8a.pfb>
Output written on GeneticOptimization.pdf (35 pages, 3971506 bytes).
PDF statistics:
 500 PDF objects out of 1000 (max. 8388607)
 91 named destinations out of 1000 (max. 131072)
 856 words of extra memory for PDF output out of 10000 (max. 10000000)

