%!PS-Adobe-2.0 EPSF-2.0
%%Title: 120GeVDCP-0INH.eps
%%Creator: gnuplot 4.6 patchlevel 1
%%CreationDate: Tue May 13 14:20:21 2014
%%DocumentFonts: (atend)
%%BoundingBox: 50 50 410 302
%%EndComments
%%BeginProlog
/gnudict 256 dict def
gnudict begin
%
% The following true/false flags may be edited by hand if desired.
% The unit line width and grayscale image gamma correction may also be changed.
%
/Color true def
/Blacktext false def
/Solid false def
/Dashlength 1 def
/Landscape false def
/Level1 false def
/Rounded false def
/ClipToBoundingBox false def
/SuppressPDFMark false def
/TransparentPatterns false def
/gnulinewidth 5.000 def
/userlinewidth gnulinewidth def
/Gamma 1.0 def
/BackgroundColor {-1.000 -1.000 -1.000} def
%
/vshift -46 def
/dl1 {
  10.0 Dashlength mul mul
  Rounded { currentlinewidth 0.75 mul sub dup 0 le { pop 0.01 } if } if
} def
/dl2 {
  10.0 Dashlength mul mul
  Rounded { currentlinewidth 0.75 mul add } if
} def
/hpt_ 31.5 def
/vpt_ 31.5 def
/hpt hpt_ def
/vpt vpt_ def
/doclip {
  ClipToBoundingBox {
    newpath 50 50 moveto 410 50 lineto 410 302 lineto 50 302 lineto closepath
    clip
  } if
} def
%
% Gnuplot Prolog Version 4.6 (September 2012)
%
%/SuppressPDFMark true def
%
/M {moveto} bind def
/L {lineto} bind def
/R {rmoveto} bind def
/V {rlineto} bind def
/N {newpath moveto} bind def
/Z {closepath} bind def
/C {setrgbcolor} bind def
/f {rlineto fill} bind def
/g {setgray} bind def
/Gshow {show} def   % May be redefined later in the file to support UTF-8
/vpt2 vpt 2 mul def
/hpt2 hpt 2 mul def
/Lshow {currentpoint stroke M 0 vshift R 
	Blacktext {gsave 0 setgray show grestore} {show} ifelse} def
/Rshow {currentpoint stroke M dup stringwidth pop neg vshift R
	Blacktext {gsave 0 setgray show grestore} {show} ifelse} def
/Cshow {currentpoint stroke M dup stringwidth pop -2 div vshift R 
	Blacktext {gsave 0 setgray show grestore} {show} ifelse} def
/UP {dup vpt_ mul /vpt exch def hpt_ mul /hpt exch def
  /hpt2 hpt 2 mul def /vpt2 vpt 2 mul def} def
/DL {Color {setrgbcolor Solid {pop []} if 0 setdash}
 {pop pop pop 0 setgray Solid {pop []} if 0 setdash} ifelse} def
/BL {stroke userlinewidth 2 mul setlinewidth
	Rounded {1 setlinejoin 1 setlinecap} if} def
/AL {stroke userlinewidth 2 div setlinewidth
	Rounded {1 setlinejoin 1 setlinecap} if} def
/UL {dup gnulinewidth mul /userlinewidth exch def
	dup 1 lt {pop 1} if 10 mul /udl exch def} def
/PL {stroke userlinewidth setlinewidth
	Rounded {1 setlinejoin 1 setlinecap} if} def
3.8 setmiterlimit
% Default Line colors
/LCw {1 1 1} def
/LCb {0 0 0} def
/LCa {0 0 0} def
/LC0 {1 0 0} def
/LC1 {0 1 0} def
/LC2 {0 0 1} def
/LC3 {1 0 1} def
/LC4 {0 1 1} def
/LC5 {1 1 0} def
/LC6 {0 0 0} def
/LC7 {1 0.3 0} def
/LC8 {0.5 0.5 0.5} def
% Default Line Types
/LTw {PL [] 1 setgray} def
/LTb {BL [] LCb DL} def
/LTa {AL [1 udl mul 2 udl mul] 0 setdash LCa setrgbcolor} def
/LT0 {PL [] LC0 DL} def
/LT1 {PL [4 dl1 2 dl2] LC1 DL} def
/LT2 {PL [2 dl1 3 dl2] LC2 DL} def
/LT3 {PL [1 dl1 1.5 dl2] LC3 DL} def
/LT4 {PL [6 dl1 2 dl2 1 dl1 2 dl2] LC4 DL} def
/LT5 {PL [3 dl1 3 dl2 1 dl1 3 dl2] LC5 DL} def
/LT6 {PL [2 dl1 2 dl2 2 dl1 6 dl2] LC6 DL} def
/LT7 {PL [1 dl1 2 dl2 6 dl1 2 dl2 1 dl1 2 dl2] LC7 DL} def
/LT8 {PL [2 dl1 2 dl2 2 dl1 2 dl2 2 dl1 2 dl2 2 dl1 4 dl2] LC8 DL} def
/Pnt {stroke [] 0 setdash gsave 1 setlinecap M 0 0 V stroke grestore} def
/Dia {stroke [] 0 setdash 2 copy vpt add M
  hpt neg vpt neg V hpt vpt neg V
  hpt vpt V hpt neg vpt V closepath stroke
  Pnt} def
/Pls {stroke [] 0 setdash vpt sub M 0 vpt2 V
  currentpoint stroke M
  hpt neg vpt neg R hpt2 0 V stroke
 } def
/Box {stroke [] 0 setdash 2 copy exch hpt sub exch vpt add M
  0 vpt2 neg V hpt2 0 V 0 vpt2 V
  hpt2 neg 0 V closepath stroke
  Pnt} def
/Crs {stroke [] 0 setdash exch hpt sub exch vpt add M
  hpt2 vpt2 neg V currentpoint stroke M
  hpt2 neg 0 R hpt2 vpt2 V stroke} def
/TriU {stroke [] 0 setdash 2 copy vpt 1.12 mul add M
  hpt neg vpt -1.62 mul V
  hpt 2 mul 0 V
  hpt neg vpt 1.62 mul V closepath stroke
  Pnt} def
/Star {2 copy Pls Crs} def
/BoxF {stroke [] 0 setdash exch hpt sub exch vpt add M
  0 vpt2 neg V hpt2 0 V 0 vpt2 V
  hpt2 neg 0 V closepath fill} def
/TriUF {stroke [] 0 setdash vpt 1.12 mul add M
  hpt neg vpt -1.62 mul V
  hpt 2 mul 0 V
  hpt neg vpt 1.62 mul V closepath fill} def
/TriD {stroke [] 0 setdash 2 copy vpt 1.12 mul sub M
  hpt neg vpt 1.62 mul V
  hpt 2 mul 0 V
  hpt neg vpt -1.62 mul V closepath stroke
  Pnt} def
/TriDF {stroke [] 0 setdash vpt 1.12 mul sub M
  hpt neg vpt 1.62 mul V
  hpt 2 mul 0 V
  hpt neg vpt -1.62 mul V closepath fill} def
/DiaF {stroke [] 0 setdash vpt add M
  hpt neg vpt neg V hpt vpt neg V
  hpt vpt V hpt neg vpt V closepath fill} def
/Pent {stroke [] 0 setdash 2 copy gsave
  translate 0 hpt M 4 {72 rotate 0 hpt L} repeat
  closepath stroke grestore Pnt} def
/PentF {stroke [] 0 setdash gsave
  translate 0 hpt M 4 {72 rotate 0 hpt L} repeat
  closepath fill grestore} def
/Circle {stroke [] 0 setdash 2 copy
  hpt 0 360 arc stroke Pnt} def
/CircleF {stroke [] 0 setdash hpt 0 360 arc fill} def
/C0 {BL [] 0 setdash 2 copy moveto vpt 90 450 arc} bind def
/C1 {BL [] 0 setdash 2 copy moveto
	2 copy vpt 0 90 arc closepath fill
	vpt 0 360 arc closepath} bind def
/C2 {BL [] 0 setdash 2 copy moveto
	2 copy vpt 90 180 arc closepath fill
	vpt 0 360 arc closepath} bind def
/C3 {BL [] 0 setdash 2 copy moveto
	2 copy vpt 0 180 arc closepath fill
	vpt 0 360 arc closepath} bind def
/C4 {BL [] 0 setdash 2 copy moveto
	2 copy vpt 180 270 arc closepath fill
	vpt 0 360 arc closepath} bind def
/C5 {BL [] 0 setdash 2 copy moveto
	2 copy vpt 0 90 arc
	2 copy moveto
	2 copy vpt 180 270 arc closepath fill
	vpt 0 360 arc} bind def
/C6 {BL [] 0 setdash 2 copy moveto
	2 copy vpt 90 270 arc closepath fill
	vpt 0 360 arc closepath} bind def
/C7 {BL [] 0 setdash 2 copy moveto
	2 copy vpt 0 270 arc closepath fill
	vpt 0 360 arc closepath} bind def
/C8 {BL [] 0 setdash 2 copy moveto
	2 copy vpt 270 360 arc closepath fill
	vpt 0 360 arc closepath} bind def
/C9 {BL [] 0 setdash 2 copy moveto
	2 copy vpt 270 450 arc closepath fill
	vpt 0 360 arc closepath} bind def
/C10 {BL [] 0 setdash 2 copy 2 copy moveto vpt 270 360 arc closepath fill
	2 copy moveto
	2 copy vpt 90 180 arc closepath fill
	vpt 0 360 arc closepath} bind def
/C11 {BL [] 0 setdash 2 copy moveto
	2 copy vpt 0 180 arc closepath fill
	2 copy moveto
	2 copy vpt 270 360 arc closepath fill
	vpt 0 360 arc closepath} bind def
/C12 {BL [] 0 setdash 2 copy moveto
	2 copy vpt 180 360 arc closepath fill
	vpt 0 360 arc closepath} bind def
/C13 {BL [] 0 setdash 2 copy moveto
	2 copy vpt 0 90 arc closepath fill
	2 copy moveto
	2 copy vpt 180 360 arc closepath fill
	vpt 0 360 arc closepath} bind def
/C14 {BL [] 0 setdash 2 copy moveto
	2 copy vpt 90 360 arc closepath fill
	vpt 0 360 arc} bind def
/C15 {BL [] 0 setdash 2 copy vpt 0 360 arc closepath fill
	vpt 0 360 arc closepath} bind def
/Rec {newpath 4 2 roll moveto 1 index 0 rlineto 0 exch rlineto
	neg 0 rlineto closepath} bind def
/Square {dup Rec} bind def
/Bsquare {vpt sub exch vpt sub exch vpt2 Square} bind def
/S0 {BL [] 0 setdash 2 copy moveto 0 vpt rlineto BL Bsquare} bind def
/S1 {BL [] 0 setdash 2 copy vpt Square fill Bsquare} bind def
/S2 {BL [] 0 setdash 2 copy exch vpt sub exch vpt Square fill Bsquare} bind def
/S3 {BL [] 0 setdash 2 copy exch vpt sub exch vpt2 vpt Rec fill Bsquare} bind def
/S4 {BL [] 0 setdash 2 copy exch vpt sub exch vpt sub vpt Square fill Bsquare} bind def
/S5 {BL [] 0 setdash 2 copy 2 copy vpt Square fill
	exch vpt sub exch vpt sub vpt Square fill Bsquare} bind def
/S6 {BL [] 0 setdash 2 copy exch vpt sub exch vpt sub vpt vpt2 Rec fill Bsquare} bind def
/S7 {BL [] 0 setdash 2 copy exch vpt sub exch vpt sub vpt vpt2 Rec fill
	2 copy vpt Square fill Bsquare} bind def
/S8 {BL [] 0 setdash 2 copy vpt sub vpt Square fill Bsquare} bind def
/S9 {BL [] 0 setdash 2 copy vpt sub vpt vpt2 Rec fill Bsquare} bind def
/S10 {BL [] 0 setdash 2 copy vpt sub vpt Square fill 2 copy exch vpt sub exch vpt Square fill
	Bsquare} bind def
/S11 {BL [] 0 setdash 2 copy vpt sub vpt Square fill 2 copy exch vpt sub exch vpt2 vpt Rec fill
	Bsquare} bind def
/S12 {BL [] 0 setdash 2 copy exch vpt sub exch vpt sub vpt2 vpt Rec fill Bsquare} bind def
/S13 {BL [] 0 setdash 2 copy exch vpt sub exch vpt sub vpt2 vpt Rec fill
	2 copy vpt Square fill Bsquare} bind def
/S14 {BL [] 0 setdash 2 copy exch vpt sub exch vpt sub vpt2 vpt Rec fill
	2 copy exch vpt sub exch vpt Square fill Bsquare} bind def
/S15 {BL [] 0 setdash 2 copy Bsquare fill Bsquare} bind def
/D0 {gsave translate 45 rotate 0 0 S0 stroke grestore} bind def
/D1 {gsave translate 45 rotate 0 0 S1 stroke grestore} bind def
/D2 {gsave translate 45 rotate 0 0 S2 stroke grestore} bind def
/D3 {gsave translate 45 rotate 0 0 S3 stroke grestore} bind def
/D4 {gsave translate 45 rotate 0 0 S4 stroke grestore} bind def
/D5 {gsave translate 45 rotate 0 0 S5 stroke grestore} bind def
/D6 {gsave translate 45 rotate 0 0 S6 stroke grestore} bind def
/D7 {gsave translate 45 rotate 0 0 S7 stroke grestore} bind def
/D8 {gsave translate 45 rotate 0 0 S8 stroke grestore} bind def
/D9 {gsave translate 45 rotate 0 0 S9 stroke grestore} bind def
/D10 {gsave translate 45 rotate 0 0 S10 stroke grestore} bind def
/D11 {gsave translate 45 rotate 0 0 S11 stroke grestore} bind def
/D12 {gsave translate 45 rotate 0 0 S12 stroke grestore} bind def
/D13 {gsave translate 45 rotate 0 0 S13 stroke grestore} bind def
/D14 {gsave translate 45 rotate 0 0 S14 stroke grestore} bind def
/D15 {gsave translate 45 rotate 0 0 S15 stroke grestore} bind def
/DiaE {stroke [] 0 setdash vpt add M
  hpt neg vpt neg V hpt vpt neg V
  hpt vpt V hpt neg vpt V closepath stroke} def
/BoxE {stroke [] 0 setdash exch hpt sub exch vpt add M
  0 vpt2 neg V hpt2 0 V 0 vpt2 V
  hpt2 neg 0 V closepath stroke} def
/TriUE {stroke [] 0 setdash vpt 1.12 mul add M
  hpt neg vpt -1.62 mul V
  hpt 2 mul 0 V
  hpt neg vpt 1.62 mul V closepath stroke} def
/TriDE {stroke [] 0 setdash vpt 1.12 mul sub M
  hpt neg vpt 1.62 mul V
  hpt 2 mul 0 V
  hpt neg vpt -1.62 mul V closepath stroke} def
/PentE {stroke [] 0 setdash gsave
  translate 0 hpt M 4 {72 rotate 0 hpt L} repeat
  closepath stroke grestore} def
/CircE {stroke [] 0 setdash 
  hpt 0 360 arc stroke} def
/Opaque {gsave closepath 1 setgray fill grestore 0 setgray closepath} def
/DiaW {stroke [] 0 setdash vpt add M
  hpt neg vpt neg V hpt vpt neg V
  hpt vpt V hpt neg vpt V Opaque stroke} def
/BoxW {stroke [] 0 setdash exch hpt sub exch vpt add M
  0 vpt2 neg V hpt2 0 V 0 vpt2 V
  hpt2 neg 0 V Opaque stroke} def
/TriUW {stroke [] 0 setdash vpt 1.12 mul add M
  hpt neg vpt -1.62 mul V
  hpt 2 mul 0 V
  hpt neg vpt 1.62 mul V Opaque stroke} def
/TriDW {stroke [] 0 setdash vpt 1.12 mul sub M
  hpt neg vpt 1.62 mul V
  hpt 2 mul 0 V
  hpt neg vpt -1.62 mul V Opaque stroke} def
/PentW {stroke [] 0 setdash gsave
  translate 0 hpt M 4 {72 rotate 0 hpt L} repeat
  Opaque stroke grestore} def
/CircW {stroke [] 0 setdash 
  hpt 0 360 arc Opaque stroke} def
/BoxFill {gsave Rec 1 setgray fill grestore} def
/Density {
  /Fillden exch def
  currentrgbcolor
  /ColB exch def /ColG exch def /ColR exch def
  /ColR ColR Fillden mul Fillden sub 1 add def
  /ColG ColG Fillden mul Fillden sub 1 add def
  /ColB ColB Fillden mul Fillden sub 1 add def
  ColR ColG ColB setrgbcolor} def
/BoxColFill {gsave Rec PolyFill} def
/PolyFill {gsave Density fill grestore grestore} def
/h {rlineto rlineto rlineto gsave closepath fill grestore} bind def
%
% PostScript Level 1 Pattern Fill routine for rectangles
% Usage: x y w h s a XX PatternFill
%	x,y = lower left corner of box to be filled
%	w,h = width and height of box
%	  a = angle in degrees between lines and x-axis
%	 XX = 0/1 for no/yes cross-hatch
%
/PatternFill {gsave /PFa [ 9 2 roll ] def
  PFa 0 get PFa 2 get 2 div add PFa 1 get PFa 3 get 2 div add translate
  PFa 2 get -2 div PFa 3 get -2 div PFa 2 get PFa 3 get Rec
  TransparentPatterns {} {gsave 1 setgray fill grestore} ifelse
  clip
  currentlinewidth 0.5 mul setlinewidth
  /PFs PFa 2 get dup mul PFa 3 get dup mul add sqrt def
  0 0 M PFa 5 get rotate PFs -2 div dup translate
  0 1 PFs PFa 4 get div 1 add floor cvi
	{PFa 4 get mul 0 M 0 PFs V} for
  0 PFa 6 get ne {
	0 1 PFs PFa 4 get div 1 add floor cvi
	{PFa 4 get mul 0 2 1 roll M PFs 0 V} for
 } if
  stroke grestore} def
%
/languagelevel where
 {pop languagelevel} {1} ifelse
 2 lt
	{/InterpretLevel1 true def}
	{/InterpretLevel1 Level1 def}
 ifelse
%
% PostScript level 2 pattern fill definitions
%
/Level2PatternFill {
/Tile8x8 {/PaintType 2 /PatternType 1 /TilingType 1 /BBox [0 0 8 8] /XStep 8 /YStep 8}
	bind def
/KeepColor {currentrgbcolor [/Pattern /DeviceRGB] setcolorspace} bind def
<< Tile8x8
 /PaintProc {0.5 setlinewidth pop 0 0 M 8 8 L 0 8 M 8 0 L stroke} 
>> matrix makepattern
/Pat1 exch def
<< Tile8x8
 /PaintProc {0.5 setlinewidth pop 0 0 M 8 8 L 0 8 M 8 0 L stroke
	0 4 M 4 8 L 8 4 L 4 0 L 0 4 L stroke}
>> matrix makepattern
/Pat2 exch def
<< Tile8x8
 /PaintProc {0.5 setlinewidth pop 0 0 M 0 8 L
	8 8 L 8 0 L 0 0 L fill}
>> matrix makepattern
/Pat3 exch def
<< Tile8x8
 /PaintProc {0.5 setlinewidth pop -4 8 M 8 -4 L
	0 12 M 12 0 L stroke}
>> matrix makepattern
/Pat4 exch def
<< Tile8x8
 /PaintProc {0.5 setlinewidth pop -4 0 M 8 12 L
	0 -4 M 12 8 L stroke}
>> matrix makepattern
/Pat5 exch def
<< Tile8x8
 /PaintProc {0.5 setlinewidth pop -2 8 M 4 -4 L
	0 12 M 8 -4 L 4 12 M 10 0 L stroke}
>> matrix makepattern
/Pat6 exch def
<< Tile8x8
 /PaintProc {0.5 setlinewidth pop -2 0 M 4 12 L
	0 -4 M 8 12 L 4 -4 M 10 8 L stroke}
>> matrix makepattern
/Pat7 exch def
<< Tile8x8
 /PaintProc {0.5 setlinewidth pop 8 -2 M -4 4 L
	12 0 M -4 8 L 12 4 M 0 10 L stroke}
>> matrix makepattern
/Pat8 exch def
<< Tile8x8
 /PaintProc {0.5 setlinewidth pop 0 -2 M 12 4 L
	-4 0 M 12 8 L -4 4 M 8 10 L stroke}
>> matrix makepattern
/Pat9 exch def
/Pattern1 {PatternBgnd KeepColor Pat1 setpattern} bind def
/Pattern2 {PatternBgnd KeepColor Pat2 setpattern} bind def
/Pattern3 {PatternBgnd KeepColor Pat3 setpattern} bind def
/Pattern4 {PatternBgnd KeepColor Landscape {Pat5} {Pat4} ifelse setpattern} bind def
/Pattern5 {PatternBgnd KeepColor Landscape {Pat4} {Pat5} ifelse setpattern} bind def
/Pattern6 {PatternBgnd KeepColor Landscape {Pat9} {Pat6} ifelse setpattern} bind def
/Pattern7 {PatternBgnd KeepColor Landscape {Pat8} {Pat7} ifelse setpattern} bind def
} def
%
%
%End of PostScript Level 2 code
%
/PatternBgnd {
  TransparentPatterns {} {gsave 1 setgray fill grestore} ifelse
} def
%
% Substitute for Level 2 pattern fill codes with
% grayscale if Level 2 support is not selected.
%
/Level1PatternFill {
/Pattern1 {0.250 Density} bind def
/Pattern2 {0.500 Density} bind def
/Pattern3 {0.750 Density} bind def
/Pattern4 {0.125 Density} bind def
/Pattern5 {0.375 Density} bind def
/Pattern6 {0.625 Density} bind def
/Pattern7 {0.875 Density} bind def
} def
%
% Now test for support of Level 2 code
%
Level1 {Level1PatternFill} {Level2PatternFill} ifelse
%
/Symbol-Oblique /Symbol findfont [1 0 .167 1 0 0] makefont
dup length dict begin {1 index /FID eq {pop pop} {def} ifelse} forall
currentdict end definefont pop
Level1 SuppressPDFMark or 
{} {
/SDict 10 dict def
systemdict /pdfmark known not {
  userdict /pdfmark systemdict /cleartomark get put
} if
SDict begin [
  /Title (120GeVDCP-0INH.eps)
  /Subject (gnuplot plot)
  /Creator (gnuplot 4.6 patchlevel 1)
  /Author (losecco)
%  /Producer (gnuplot)
%  /Keywords ()
  /CreationDate (Tue May 13 14:20:21 2014)
  /DOCINFO pdfmark
end
} ifelse
end
%%EndProlog
%%Page: 1 1
gnudict begin
gsave
doclip
50 50 translate
0.050 0.050 scale
0 setgray
newpath
(Helvetica) findfont 140 scalefont setfont
BackgroundColor 0 lt 3 1 roll 0 lt exch 0 lt or or not {BackgroundColor C 1.000 0 0 7200.00 5040.00 BoxColFill} if
1.000 UL
LTb
686 448 M
63 0 V
6198 0 R
-63 0 V
602 448 M
( 0.2) Rshow
1.000 UL
LTb
686 1001 M
63 0 V
6198 0 R
-63 0 V
-6282 0 R
( 0.3) Rshow
1.000 UL
LTb
686 1554 M
63 0 V
6198 0 R
-63 0 V
-6282 0 R
( 0.4) Rshow
1.000 UL
LTb
686 2107 M
63 0 V
6198 0 R
-63 0 V
-6282 0 R
( 0.5) Rshow
1.000 UL
LTb
686 2660 M
63 0 V
6198 0 R
-63 0 V
-6282 0 R
( 0.6) Rshow
1.000 UL
LTb
686 3212 M
63 0 V
6198 0 R
-63 0 V
-6282 0 R
( 0.7) Rshow
1.000 UL
LTb
686 3765 M
63 0 V
6198 0 R
-63 0 V
-6282 0 R
( 0.8) Rshow
1.000 UL
LTb
686 4318 M
63 0 V
6198 0 R
-63 0 V
-6282 0 R
( 0.9) Rshow
1.000 UL
LTb
686 4871 M
63 0 V
6198 0 R
-63 0 V
-6282 0 R
( 1) Rshow
1.000 UL
LTb
686 448 M
0 63 V
0 4360 R
0 -63 V
686 308 M
(-1) Cshow
1.000 UL
LTb
2251 448 M
0 63 V
0 4360 R
0 -63 V
0 -4500 R
(-0.5) Cshow
1.000 UL
LTb
3817 448 M
0 63 V
0 4360 R
0 -63 V
0 -4500 R
( 0) Cshow
1.000 UL
LTb
5382 448 M
0 63 V
0 4360 R
0 -63 V
0 -4500 R
( 0.5) Cshow
1.000 UL
LTb
6947 448 M
0 63 V
0 4360 R
0 -63 V
0 -4500 R
( 1) Cshow
1.000 UL
LTb
1.000 UL
LTb
686 4871 N
686 448 L
6261 0 V
0 4423 V
-6261 0 V
Z stroke
LCb setrgbcolor
112 2659 M
currentpoint gsave translate -270 rotate 0 0 M
(Delta_CP Width / Pi) Cshow
grestore
LTb
LCb setrgbcolor
3816 98 M
(Delta_CP / Pi) Cshow
LTb
1.000 UP
1.000 UL
LTb
% Begin plot #1
2.000 UL
LT0
LCb setrgbcolor
4553 4738 M
(120GeV1280-0IH) Rshow
LT0
4637 4738 M
399 0 V
686 2088 M
783 -188 V
782 0 V
783 312 V
783 16 V
782 -753 V
783 -283 V
782 808 V
783 88 V
% End plot #1
% Begin plot #2
stroke
LT1
LCb setrgbcolor
4553 4598 M
(120GeV1280-0NH) Rshow
LT1
4637 4598 M
399 0 V
686 2255 M
783 -418 V
782 -416 V
783 20 V
783 409 V
782 -454 V
5382 926 L
782 650 V
783 679 V
% End plot #2
% Begin plot #3
stroke
LT2
LCb setrgbcolor
4553 4458 M
(120GeV1310-0IH) Rshow
LT2
4637 4458 M
399 0 V
686 2081 M
783 -180 V
782 2 V
783 262 V
783 36 V
782 -735 V
783 -290 V
782 802 V
783 103 V
% End plot #3
% Begin plot #4
stroke
LT3
LCb setrgbcolor
4553 4318 M
(120GeV1310-0NH) Rshow
LT3
4637 4318 M
399 0 V
686 2210 M
783 -376 V
782 -407 V
783 9 V
783 399 V
782 -447 V
5382 919 L
782 636 V
783 655 V
% End plot #4
% Begin plot #5
stroke
LT4
LCb setrgbcolor
4553 4178 M
(120GeV1340-0IH) Rshow
LT4
4637 4178 M
399 0 V
686 1973 M
783 -207 V
782 32 V
783 334 V
783 68 V
782 -798 V
783 -286 V
782 825 V
783 32 V
% End plot #5
% Begin plot #6
stroke
LT5
LCb setrgbcolor
4553 4038 M
(120GeV1340-0NH) Rshow
LT5
4637 4038 M
399 0 V
686 2242 M
783 -494 V
782 -433 V
783 16 V
783 449 V
782 -434 V
5382 822 L
782 698 V
783 722 V
% End plot #6
% Begin plot #7
stroke
LT6
LCb setrgbcolor
4553 3898 M
(120GeV1370-0IH) Rshow
LT6
4637 3898 M
399 0 V
686 2358 M
783 -201 V
782 33 V
783 362 V
783 -30 V
782 -774 V
783 -265 V
782 761 V
783 114 V
% End plot #7
% Begin plot #8
stroke
LT7
LCb setrgbcolor
4553 3758 M
(120GeV1370-0NH) Rshow
LT7
4637 3758 M
399 0 V
686 2667 M
783 -426 V
782 -448 V
783 -1 V
783 370 V
782 -490 V
783 -474 V
782 809 V
783 660 V
% End plot #8
% Begin plot #9
stroke
LT8
LCb setrgbcolor
4553 3618 M
(120GeV1400-0IH) Rshow
LT8
4637 3618 M
399 0 V
686 2330 M
783 -156 V
782 87 V
783 393 V
783 -81 V
782 -812 V
783 -246 V
782 755 V
783 60 V
% End plot #9
% Begin plot #10
stroke
LT0
LCb setrgbcolor
4553 3478 M
(120GeV1400-0NH) Rshow
LT0
4637 3478 M
399 0 V
686 2707 M
783 -396 V
782 -479 V
783 -15 V
783 360 V
782 -479 V
783 -477 V
782 803 V
783 683 V
% End plot #10
% Begin plot #11
stroke
LT1
LCb setrgbcolor
4553 3338 M
(120GeV1430-0IH) Rshow
LT1
4637 3338 M
399 0 V
686 2124 M
783 -156 V
782 86 V
783 382 V
783 -64 V
782 -804 V
783 -298 V
782 829 V
783 25 V
% End plot #11
% Begin plot #12
stroke
LT2
LCb setrgbcolor
4553 3198 M
(120GeV1430-0NH) Rshow
LT2
4637 3198 M
399 0 V
686 2445 M
783 -420 V
782 -485 V
783 17 V
783 358 V
782 -414 V
783 -499 V
782 700 V
783 743 V
% End plot #12
% Begin plot #13
stroke
LT3
LCb setrgbcolor
4553 3058 M
(60GeV1460-0IH) Rshow
LT3
4637 3058 M
399 0 V
686 2856 M
783 -155 V
782 15 V
783 371 V
783 -176 V
782 -768 V
783 -276 V
782 782 V
783 207 V
% End plot #13
% Begin plot #14
stroke
LT4
LCb setrgbcolor
4553 2918 M
(60GeV1460-0NH) Rshow
LT4
4637 2918 M
399 0 V
686 3032 M
783 -436 V
782 -526 V
783 24 V
783 356 V
782 -432 V
783 -590 V
782 801 V
783 803 V
% End plot #14
% Begin plot #15
stroke
LT5
LCb setrgbcolor
4553 2778 M
(90GeV1490-0IH) Rshow
LT5
4637 2778 M
399 0 V
686 2381 M
783 -189 V
782 -10 V
783 344 V
783 -45 V
782 -762 V
783 -240 V
782 769 V
783 133 V
% End plot #15
% Begin plot #16
stroke
LT6
LCb setrgbcolor
4553 2638 M
(90GeV1490-0NH) Rshow
LT6
4637 2638 M
399 0 V
686 2549 M
783 -421 V
782 -464 V
783 33 V
783 374 V
782 -441 V
783 -516 V
782 697 V
783 738 V
% End plot #16
% Begin plot #17
stroke
LT7
LCb setrgbcolor
4553 2498 M
(30GeV1520-0IH) Rshow
LT7
4637 2498 M
399 0 V
686 4104 M
783 24 V
782 -168 V
783 366 V
783 -395 V
782 -587 V
783 -470 V
782 805 V
783 425 V
% End plot #17
% Begin plot #18
stroke
LT8
LCb setrgbcolor
4553 2358 M
(30GeV1520-0NH) Rshow
LT8
4637 2358 M
399 0 V
686 4088 M
783 -295 V
782 -541 V
783 149 V
783 20 V
782 -338 V
783 -643 V
782 858 V
783 790 V
% End plot #18
% Begin plot #19
stroke
LT0
LCb setrgbcolor
4553 2218 M
(60GeV1550-0IH) Rshow
LT0
4637 2218 M
399 0 V
686 2852 M
783 -162 V
782 59 V
783 373 V
783 -160 V
782 -787 V
783 -306 V
782 785 V
783 198 V
% End plot #19
% Begin plot #20
stroke
LT1
LCb setrgbcolor
4553 2078 M
(60GeV1550-0NH) Rshow
LT1
4637 2078 M
399 0 V
686 3093 M
783 -442 V
782 -491 V
783 6 V
783 358 V
782 -470 V
783 -575 V
782 851 V
783 763 V
% End plot #20
% Begin plot #21
stroke
LT2
LCb setrgbcolor
4553 1938 M
(90GeV1640-0IH) Rshow
LT2
4637 1938 M
399 0 V
686 2282 M
783 -164 V
782 85 V
783 444 V
783 -94 V
782 -845 V
783 -218 V
782 748 V
783 44 V
% End plot #21
% Begin plot #22
stroke
LT3
LCb setrgbcolor
4553 1798 M
(90GeV1640-0NH) Rshow
LT3
4637 1798 M
399 0 V
686 2675 M
783 -477 V
782 -504 V
783 10 V
783 385 V
782 -433 V
783 -520 V
782 737 V
783 802 V
% End plot #22
% Begin plot #23
stroke
LT4
% End plot #23
% Begin plot #24
2.000 UL
LT5
% End plot #24
% Begin plot #25
2.000 UL
LT6
LCb setrgbcolor
4553 1658 M
(120GeV1700-0IH) Rshow
LT6
4637 1658 M
399 0 V
686 3996 M
783 95 V
782 -155 V
783 297 V
783 -354 V
782 -652 V
783 -387 V
782 765 V
783 391 V
% End plot #25
% Begin plot #26
stroke
LT7
LCb setrgbcolor
4553 1518 M
(120GeV1700-0NH) Rshow
LT7
4637 1518 M
399 0 V
686 3992 M
783 -220 V
782 -543 V
783 74 V
783 24 V
782 -367 V
783 -611 V
782 871 V
783 772 V
% End plot #26
% Begin plot #27
stroke
LT8
% End plot #27
% Begin plot #28
2.000 UL
LT0
% End plot #28
% Begin plot #29
2.000 UL
LT1
% End plot #29
% Begin plot #30
1.000 UL
LT2
% End plot #30
% Begin plot #31
1.000 UL
LT3
LCb setrgbcolor
4553 1378 M
(30GeV1790-0IH) Rshow
LT3
4637 1378 M
399 0 V
686 4165 M
783 -20 V
782 -197 V
783 434 V
783 -387 V
782 -546 V
783 -588 V
782 850 V
783 454 V
% End plot #31
% Begin plot #32
stroke
LT4
LCb setrgbcolor
6296 4738 M
(30GeV1790-0NH) Rshow
LT4
6380 4738 M
399 0 V
686 4199 M
783 -368 V
782 -583 V
783 178 V
783 -11 V
782 -348 V
783 -621 V
782 929 V
783 824 V
% End plot #32
% Begin plot #33
stroke
LT5
LCb setrgbcolor
6296 4598 M
(120GeV1820-0IH) Rshow
LT5
6380 4598 M
399 0 V
686 4050 M
783 51 V
782 -193 V
783 325 V
783 -375 V
782 -563 V
783 -467 V
782 795 V
783 427 V
% End plot #33
% Begin plot #34
stroke
LT6
LCb setrgbcolor
6296 4458 M
(120GeV1820-0NH) Rshow
LT6
6380 4458 M
399 0 V
686 4055 M
783 -277 V
782 -573 V
783 109 V
783 25 V
782 -397 V
783 -600 V
782 908 V
783 805 V
% End plot #34
% Begin plot #35
stroke
LT7
LCb setrgbcolor
6296 4318 M
(120GeV1940-0IH) Rshow
LT7
6380 4318 M
399 0 V
686 2012 M
783 -178 V
782 41 V
783 338 V
783 22 V
782 -785 V
783 -290 V
782 815 V
783 37 V
% End plot #35
% Begin plot #36
stroke
LT8
LCb setrgbcolor
6296 4178 M
(120GeV1940-0NH) Rshow
LT8
6380 4178 M
399 0 V
686 2271 M
783 -446 V
782 -437 V
783 -1 V
783 428 V
782 -425 V
5382 896 L
782 651 V
783 724 V
% End plot #36
% Begin plot #37
stroke
LT0
LCb setrgbcolor
6296 4038 M
(120GeV1970-0IH) Rshow
LT0
6380 4038 M
399 0 V
686 2212 M
783 -251 V
782 19 V
783 334 V
783 34 V
782 -797 V
783 -307 V
782 861 V
783 107 V
% End plot #37
% Begin plot #38
stroke
LT1
LCb setrgbcolor
6296 3898 M
(120GeV1970-0NH) Rshow
LT1
6380 3898 M
399 0 V
686 2392 M
783 -455 V
782 -468 V
783 34 V
783 406 V
782 -429 V
5382 964 L
782 680 V
783 748 V
% End plot #38
% Begin plot #39
stroke
LT2
LCb setrgbcolor
6296 3758 M
(120GeV2000-0IH) Rshow
LT2
6380 3758 M
399 0 V
686 1987 M
783 -210 V
782 23 V
783 326 V
783 79 V
782 -794 V
783 -297 V
782 840 V
783 33 V
% End plot #39
% Begin plot #40
stroke
LT3
LCb setrgbcolor
6296 3618 M
(120GeV2000-0NH) Rshow
LT3
6380 3618 M
399 0 V
686 2253 M
783 -496 V
782 -437 V
783 13 V
783 448 V
782 -429 V
5382 823 L
782 695 V
783 735 V
% End plot #40
% Begin plot #41
stroke
LT4
LCb setrgbcolor
6296 3478 M
(120GeV2030-0IH) Rshow
LT4
6380 3478 M
399 0 V
686 2116 M
783 -224 V
782 13 V
783 358 V
783 50 V
782 -803 V
783 -312 V
782 858 V
783 60 V
% End plot #41
% Begin plot #42
stroke
LT5
LCb setrgbcolor
6296 3338 M
(120GeV2030-0NH) Rshow
LT5
6380 3338 M
399 0 V
686 2349 M
783 -485 V
782 -454 V
783 5 V
783 457 V
782 -437 V
5382 918 L
782 678 V
783 753 V
% End plot #42
% Begin plot #43
stroke
LT6
LCb setrgbcolor
6296 3198 M
(120GeV2060-0IH) Rshow
LT6
6380 3198 M
399 0 V
686 1961 M
783 -228 V
782 17 V
783 289 V
783 76 V
782 -743 V
783 -293 V
782 808 V
783 74 V
% End plot #43
% Begin plot #44
stroke
LT7
LCb setrgbcolor
6296 3058 M
(120GeV2060-0NH) Rshow
LT7
6380 3058 M
399 0 V
686 2148 M
783 -455 V
782 -408 V
783 21 V
783 424 V
782 -464 V
5382 794 L
782 665 V
783 689 V
% End plot #44
% Begin plot #45
stroke
LT8
LCb setrgbcolor
6296 2918 M
(120GeV2090-0IH) Rshow
LT8
6380 2918 M
399 0 V
686 2000 M
783 -258 V
782 45 V
783 367 V
783 77 V
782 -814 V
783 -301 V
782 852 V
783 32 V
% End plot #45
% Begin plot #46
stroke
LT0
LCb setrgbcolor
6296 2778 M
(120GeV2090-0NH) Rshow
LT0
6380 2778 M
399 0 V
686 2314 M
783 -560 V
782 -458 V
783 17 V
783 488 V
782 -437 V
5382 815 L
782 717 V
783 782 V
% End plot #46
% Begin plot #47
stroke
LT1
LCb setrgbcolor
6296 2638 M
(120GeV2120-0IH) Rshow
LT1
6380 2638 M
399 0 V
686 1940 M
783 -159 V
782 48 V
783 318 V
783 32 V
782 -784 V
783 -271 V
782 789 V
783 27 V
% End plot #47
% Begin plot #48
stroke
LT2
LCb setrgbcolor
6296 2498 M
(120GeV2120-0NH) Rshow
LT2
6380 2498 M
399 0 V
686 2185 M
783 -429 V
782 -411 V
783 -3 V
783 401 V
782 -408 V
5382 826 L
782 647 V
783 712 V
% End plot #48
% Begin plot #49
stroke
LT3
LCb setrgbcolor
6296 2358 M
(120GeV2150-0IH) Rshow
LT3
6380 2358 M
399 0 V
686 2018 M
783 -190 V
782 14 V
783 292 V
783 48 V
782 -757 V
783 -287 V
782 807 V
783 73 V
% End plot #49
% Begin plot #50
stroke
LT4
LCb setrgbcolor
6296 2218 M
(120GeV2150-0NH) Rshow
LT4
6380 2218 M
399 0 V
686 2199 M
783 -422 V
782 -414 V
783 -5 V
783 381 V
782 -388 V
5382 838 L
782 662 V
783 699 V
% End plot #50
stroke
LTb
686 4871 N
686 448 L
6261 0 V
0 4423 V
-6261 0 V
Z stroke
1.000 UP
1.000 UL
LTb
stroke
grestore
end
showpage
%%Trailer
%%DocumentFonts: Helvetica
