%!PS-Adobe-2.0 EPSF-2.0
%%BoundingBox:  0 0 567 384
%%Title: numuflin.eps: c1
%%Creator: ROOT Version 5.34/18
%%CreationDate: Thu Apr 17 11:57:17 2014
%%EndComments
%%BeginProlog
80 dict begin
/s {stroke} def /l {lineto} def /m {moveto} def /t {translate} def
/r {rotate} def /rl {roll}  def /R {repeat} def
/d {rlineto} def /rm {rmoveto} def /gr {grestore} def /f {eofill} def
/c {setrgbcolor} def /black {0 setgray} def /sd {setdash} def
/cl {closepath} def /sf {scalefont setfont} def /lw {setlinewidth} def
/box {m dup 0 exch d exch 0 d 0 exch neg d cl} def
/NC{systemdict begin initclip end}def/C{NC box clip newpath}def
/bl {box s} def /bf {box f} def /Y { 0 exch d} def /X { 0 d} def 
/K {{pop pop 0 moveto} exch kshow} bind def
/ita {/ang 15 def gsave [1 0 ang dup sin exch cos div 1 0 0] concat} def 
/mp {newpath /y exch def /x exch def} def
/side {[w .77 mul w .23 mul] .385 w mul sd w 0 l currentpoint t -144 r} def
/mr {mp x y w2 0 360 arc} def /m24 {mr s} def /m20 {mr f} def
/mb {mp x y w2 add m w2 neg 0 d 0 w neg d w 0 d 0 w d cl} def
/mt {mp x y w2 add m w2 neg w neg d w 0 d cl} def
/m21 {mb f} def /m25 {mb s} def /m22 {mt f} def /m26{mt s} def
/m23 {mp x y w2 sub m w2 w d w neg 0 d cl f} def
/m27 {mp x y w2 add m w3 neg w2 neg d w3 w2 neg d w3 w2 d cl s} def
/m28 {mp x w2 sub y w2 sub w3 add m w3 0 d  0 w3 neg d w3 0 d 0 w3 d w3 0 d  0 w3 d w3 neg 0 d 0 w3 d w3 neg 0 d 0 w3 neg d w3 neg 0 d cl s } def
/m29 {mp gsave x w2 sub y w2 add w3 sub m currentpoint t 4 {side} repeat cl fill gr} def
/m30 {mp gsave x w2 sub y w2 add w3 sub m currentpoint t 4 {side} repeat cl s gr} def
/m31 {mp x y w2 sub m 0 w d x w2 sub y m w 0 d x w2 sub y w2 add m w w neg d x w2 sub y w2 sub m w w d s} def
/m32 {mp x y w2 sub m w2 w d w neg 0 d cl s} def
/m33 {mp x y w2 add m w3 neg w2 neg d w3 w2 neg d w3 w2 d cl f} def
/m34 {mp x w2 sub y w2 sub w3 add m w3 0 d  0 w3 neg d w3 0 d 0 w3 d w3 0 d  0 w3 d w3 neg 0 d 0 w3 d w3 neg 0 d 0 w3 neg d w3 neg 0 d cl f } def
/m2 {mp x y w2 sub m 0 w d x w2 sub y m w 0 d s} def
/m5 {mp x w2 sub y w2 sub m w w d x w2 sub y w2 add m w w neg d s} def
/reEncode {exch findfont dup length dict begin {1 index /FID eq  {pop pop} {def} ifelse } forall /Encoding exch def currentdict end dup /FontName get exch definefont pop } def [/Times-Bold /Times-Italic /Times-BoldItalic /Helvetica /Helvetica-Oblique
 /Helvetica-Bold /Helvetica-BoldOblique /Courier /Courier-Oblique /Courier-Bold /Courier-BoldOblique /Times-Roman /AvantGarde-Book /AvantGarde-BookOblique /AvantGarde-Demi /AvantGarde-DemiOblique /Bookman-Demi /Bookman-DemiItalic /Bookman-Light
 /Bookman-LightItalic /Helvetica-Narrow /Helvetica-Narrow-Bold /Helvetica-Narrow-BoldOblique /Helvetica-Narrow-Oblique /NewCenturySchlbk-Roman /NewCenturySchlbk-Bold /NewCenturySchlbk-BoldItalic /NewCenturySchlbk-Italic /Palatino-Bold
 /Palatino-BoldItalic /Palatino-Italic /Palatino-Roman ] {ISOLatin1Encoding reEncode } forall
%%EndProlog
%%BeginSetup
%%EndSetup
newpath  gsave  .25 .25 scale  gsave  0 0 t black[  ] 0 sd 3 lw 1 1 1 c 2268 1538 0 0 bf black 1 1 1 c 1814 1230 227 154 bf black 1814 1230 227 154 bl 1 1 1 c 1814 1230 227 154 bf black 1814 1230 227 154 bl 0 1 1 c 6 lw 1 1 1 c black 0 1 1 c 227 166
 m 11 X 32 Y 10 X 30 Y 11 X 46 Y 11 X 21 Y 11 X 17 Y 11 X 18 Y 10 X 15 Y 11 X 19 Y 11 X 10 Y 11 X 14 Y 11 X 8 Y 10 X 8 Y 11 X 2 Y 11 X 6 Y 11 X 4 Y 11 X 3 Y 10 X 7 Y 11 X 14 Y 11 X 3 Y 11 X 13 Y 11 X 14 Y 10 X 20 Y 11 X 4 Y 11 X 13 Y 11 X 15 Y 11 X
 15 Y 10 X 21 Y 11 X 11 Y 11 X 12 Y 11 X 53 Y 11 X -5 Y 10 X 12 Y 11 X 38 Y 11 X 4 Y 11 X 32 Y 11 X 1 Y 10 X 24 Y 11 X 27 Y 11 X 16 Y 22 X 41 Y 10 X -7 Y 11 X 29 Y 11 X -12 Y 11 X 39 Y 11 X 6 Y 10 X 18 Y 11 X 3 Y 11 X -17 Y 11 X 30 Y 11 X -6 Y 10 X
 22 Y 11 X -16 Y 11 X 27 Y 11 X 2 Y 10 X 10 Y 11 X 2 Y 11 X 3 Y 11 X 16 Y 11 X -36 Y 10 X 16 Y 11 X 21 Y 11 X -2 Y 11 X 27 Y 11 X -12 Y 10 X 9 Y 11 X 10 Y 11 X 8 Y 11 X -11 Y 11 X 22 Y 10 X -29 Y 11 X 11 Y 11 X -7 Y 11 X 28 Y 11 X -6 Y 10 X -6 Y 11 X
 12 Y 11 X 15 Y 11 X -18 Y 11 X 16 Y 10 X -9 Y 11 X 28 Y 11 X 20 Y 11 X -20 Y 11 X 21 Y 10 X -8 Y 11 X 4 Y 11 X 30 Y 11 X 4 Y 11 X 7 Y 10 X 15 Y 11 X -21 Y 11 X 17 Y 11 X 13 Y 11 X 14 Y 10 X 23 Y 11 X 4 Y 11 X -3 Y 11 X 7 Y 11 X 16 Y 10 X -28 Y 11 X
 49 Y 11 X 3 Y 11 X -17 Y 11 X 21 Y 10 X -35 Y 11 X 75 Y 11 X -55 Y 11 X 24 Y 11 X -1 Y 10 X -23 Y 11 X 44 Y 22 X 1 Y 11 X 3 Y 10 X -1 Y 11 X 1 Y 11 X 6 Y 11 X -4 Y 11 X 13 Y 10 X -23 Y 11 X 52 Y 11 X -34 Y 11 X 17 Y 11 X -29 Y 10 X 4 Y 11 X -16 Y 11
 X 3 Y 11 X 3 Y 11 X -4 Y 10 X 39 Y 11 X -11 Y 22 X -1 Y 21 X -24 Y 11 X 31 Y 11 X -17 Y 11 X -16 Y 11 X 50 Y 10 X -60 Y 11 X 21 Y 11 X 3 Y 11 X -60 Y 11 X 21 Y 10 X -4 Y 11 X 32 Y 11 X -11 Y 11 X 3 Y 11 X -26 Y 10 X -34 Y 11 X 36 Y 22 X -21 Y 11 X
 -22 Y 10 X 19 Y 11 X -17 Y 11 X -30 Y 11 X 15 Y 11 X -18 Y 10 X 9 Y 11 X -30 Y 11 X -5 Y 11 X 14 Y 11 X -11 Y 10 X -30 Y 11 X -33 Y 11 X s black 3 lw 227 154 m 1814 X s
 gsave  2268 1538 0 0 C 1000.27 58.6478 t 0 r /Helvetica findfont 48.8732 sf 0 0 m ( Energy \(GeV\)) show NC gr 
 gsave  2268 1538 0 0 C 983.98 45.615 t 0 r /Symbol findfont 32.5821 sf 0 0 m (m) show NC gr 
 gsave  2268 1538 0 0 C 957.915 58.6478 t 0 r /Symbol findfont 48.8732 sf 0 0 m (n) show NC gr  227 191 m -37 Y s 279 172 m -18 Y s 330 172 m -18 Y s 382 172 m -18 Y s 434 172 m -18 Y s 486 191 m -37 Y s 538 172 m -18 Y s 590 172 m -18 Y s 641 172 m
 -18 Y s 693 172 m -18 Y s 745 191 m -37 Y s 797 172 m -18 Y s 849 172 m -18 Y s 901 172 m -18 Y s 952 172 m -18 Y s 1004 191 m -37 Y s 1056 172 m -18 Y s 1108 172 m -18 Y s 1160 172 m -18 Y s 1212 172 m -18 Y s 1263 191 m -37 Y s 1315 172 m -18 Y s
 1367 172 m -18 Y s 1419 172 m -18 Y s 1471 172 m -18 Y s 1523 191 m -37 Y s 1574 172 m -18 Y s 1626 172 m -18 Y s 1678 172 m -18 Y s 1730 172 m -18 Y s 1782 191 m -37 Y s 1834 172 m -18 Y s 1885 172 m -18 Y s 1937 172 m -18 Y s 1989 172 m -18 Y s
 2041 191 m -37 Y s
 gsave  2268 1538 0 0 C 211.784 104.263 t 0 r /Helvetica findfont 48.8732 sf 0 0 m (0) show NC gr 
 gsave  2268 1538 0 0 C 449.633 104.263 t 0 r /Helvetica findfont 48.8732 sf 0 0 m (0.5) show NC gr 
 gsave  2268 1538 0 0 C 729.84 104.263 t 0 r /Helvetica findfont 48.8732 sf 0 0 m (1) show NC gr 
 gsave  2268 1538 0 0 C 967.689 104.263 t 0 r /Helvetica findfont 48.8732 sf 0 0 m (1.5) show NC gr 
 gsave  2268 1538 0 0 C 1247.9 104.263 t 0 r /Helvetica findfont 48.8732 sf 0 0 m (2) show NC gr 
 gsave  2268 1538 0 0 C 1485.75 104.263 t 0 r /Helvetica findfont 48.8732 sf 0 0 m (2.5) show NC gr 
 gsave  2268 1538 0 0 C 1765.95 104.263 t 0 r /Helvetica findfont 48.8732 sf 0 0 m (3) show NC gr 
 gsave  2268 1538 0 0 C 2003.8 104.263 t 0 r /Helvetica findfont 48.8732 sf 0 0 m (3.5) show NC gr  227 154 m 1230 Y s
 gsave  2268 1538 0 0 C 120.554 967.689 t 90 r /Helvetica findfont 48.8732 sf 0 0 m (POT) show NC gr 
 gsave  2268 1538 0 0 C 97.7464 931.849 t 90 r /Helvetica findfont 32.5821 sf 0 0 m (12) show NC gr 
 gsave  2268 1538 0 0 C 120.554 863.427 t 90 r /Helvetica findfont 48.8732 sf 0 0 m (/10) show NC gr 
 gsave  2268 1538 0 0 C 97.7464 843.877 t 90 r /Helvetica findfont 32.5821 sf 0 0 m (2) show NC gr 
 gsave  2268 1538 0 0 C 120.554 469.183 t 90 r /Helvetica findfont 48.8732 sf 0 0 m (Neutrinos/GeV/m) show NC gr  281 154 m -54 X s 254 201 m -27 X s 254 249 m -27 X s 254 296 m -27 X s 254 343 m -27 X s 281 391 m -54 X s 254 438 m -27 X s 254 486 m
 -27 X s 254 533 m -27 X s 254 581 m -27 X s 281 628 m -54 X s 254 675 m -27 X s 254 723 m -27 X s 254 770 m -27 X s 254 818 m -27 X s 281 865 m -54 X s 254 913 m -27 X s 254 960 m -27 X s 254 1007 m -27 X s 254 1055 m -27 X s 281 1102 m -54 X s 254
 1150 m -27 X s 254 1197 m -27 X s 254 1245 m -27 X s 254 1292 m -27 X s 281 1339 m -54 X s 281 1339 m -54 X s
 gsave  2268 1538 0 0 C 188.976 136.845 t 0 r /Helvetica findfont 48.8732 sf 0 0 m (0) show NC gr 
 gsave  2268 1538 0 0 C 188.976 371.436 t 0 r /Helvetica findfont 48.8732 sf 0 0 m (5) show NC gr 
 gsave  2268 1538 0 0 C 159.652 609.286 t 0 r /Helvetica findfont 48.8732 sf 0 0 m (10) show NC gr 
 gsave  2268 1538 0 0 C 159.652 847.135 t 0 r /Helvetica findfont 48.8732 sf 0 0 m (15) show NC gr 
 gsave  2268 1538 0 0 C 159.652 1084.98 t 0 r /Helvetica findfont 48.8732 sf 0 0 m (20) show NC gr 
 gsave  2268 1538 0 0 C 159.652 1322.83 t 0 r /Helvetica findfont 48.8732 sf 0 0 m (25) show NC gr  0 0 1 c 6 lw 1 1 1 c black 0 0 1 c 227 164 m 11 X 27 Y 10 X 27 Y 11 X 38 Y 11 X 19 Y 11 X 16 Y 11 X 13 Y 10 X 11 Y 11 X 13 Y 11 X 7 Y 11 X 11 Y 11 X 4
 Y 10 X 4 Y 11 X 4 Y 11 X 11 Y 11 X 7 Y 11 X 11 Y 10 X 11 Y 11 X 14 Y 11 X 19 Y 11 X 5 Y 11 X 15 Y 10 X 18 Y 11 X 19 Y 11 X 21 Y 11 X 16 Y 11 X 20 Y 10 X 13 Y 11 X 32 Y 11 X 17 Y 11 X 8 Y 11 X 22 Y 10 X 21 Y 11 X 12 Y 11 X 8 Y 11 X 32 Y 11 X 11 Y 10
 X 4 Y 11 X 14 Y 11 X 29 Y 11 X -10 Y 11 X 39 Y 10 X 5 Y 11 X -5 Y 11 X 26 Y 11 X -20 Y 11 X 22 Y 10 X 15 Y 11 X -4 Y 11 X 24 Y 11 X -12 Y 11 X 27 Y 10 X 7 Y 11 X 27 Y 11 X -8 Y 11 X 4 Y 10 X 31 Y 11 X -9 Y 11 X 17 Y 11 X 11 Y 11 X 23 Y 10 X -15 Y 11
 X 20 Y 11 X 5 Y 11 X 32 Y 11 X 4 Y 10 X 23 Y 11 X -26 Y 11 X 12 Y 11 X 25 Y 11 X 33 Y 10 X 1 Y 11 X -14 Y 11 X 7 Y 11 X 16 Y 11 X 20 Y 10 X -11 Y 11 X 35 Y 11 X -23 Y 11 X 15 Y 11 X 7 Y 10 X 26 Y 11 X 38 Y 11 X 9 Y 11 X -26 Y 11 X -7 Y 10 X 51 Y 11
 X -10 Y 11 X -5 Y 11 X 21 Y 11 X -1 Y 10 X -6 Y 11 X 30 Y 11 X -13 Y 11 X 57 Y 11 X -39 Y 10 X 9 Y 11 X 9 Y 11 X 22 Y 11 X -16 Y 11 X -1 Y 10 X 34 Y 11 X -28 Y 11 X -33 Y 11 X 18 Y 11 X -11 Y 10 X -15 Y 11 X 51 Y 11 X -8 Y 11 X 6 Y 11 X -8 Y 10 X
 -15 Y 11 X -2 Y 11 X -13 Y 11 X 32 Y 11 X 14 Y 10 X -23 Y 11 X 8 Y 11 X -17 Y 11 X -13 Y 11 X 19 Y 10 X -10 Y 11 X -25 Y 11 X -3 Y 11 X -6 Y 11 X -16 Y 10 X 2 Y 11 X -12 Y 11 X 12 Y 11 X -13 Y 11 X -51 Y 10 X 43 Y 11 X -33 Y 11 X -19 Y 11 X -2 Y 11
 X -10 Y 10 X 6 Y 11 X -22 Y 11 X -18 Y 11 X -45 Y 11 X 7 Y 10 X -17 Y 11 X -15 Y 22 X -18 Y 11 X -3 Y 10 X 10 Y 11 X -56 Y 22 X -40 Y 11 X -1 Y 10 X -21 Y 11 X -7 Y 11 X -30 Y 11 X -26 Y 11 X -21 Y 10 X -1 Y 11 X -3 Y 11 X -30 Y 11 X -33 Y 11 X 18 Y
 10 X -8 Y 11 X -40 Y 11 X -9 Y 11 X -14 Y 11 X -10 Y 10 X -24 Y 11 X -17 Y 11 X s black 3 lw 1 1 1 c 159 384 227 1000 bf black 227 1000 m 159 X s 386 1000 m 384 Y s 386 1384 m -159 X s 227 1384 m -384 Y s
 gsave  2268 1538 0 0 C 228.075 1293.51 t 0 r /Helvetica findfont 29.3239 sf 0 0 m (File Name) show NC gr 
 gsave  2268 1538 0 0 C 263.915 1163.18 t 0 r /Helvetica findfont 29.3239 sf 0 0 m (g4lbne_90GeV1490\2551519.root0mR0Pi1MHunosc_histograms.root) show NC gr  0 1 1 c 6 lw 233 1192 m 28 X s black
 gsave  2268 1538 0 0 C 263.915 1036.11 t 0 r /Helvetica findfont 29.3239 sf 0 0 m (g4lbne_90GeV1640\2551669.root0mR0Pi1MHunosc_histograms.root) show NC gr  0 0 1 c 233 1064 m 28 X s 1 1 1 c black
 gsave  2268 1538 0 0 C 687.483 1462.94 t 0 r /Helvetica findfont 68.4225 sf 0 0 m 
 833 814 769 724 687 646 594 545 504 459 411 366 329 310 273 239 202 187 168 131 75 37
(numufluxatLBNEFDOFFAXIS) K NC gr 
 gr  gr showpage
end
%%EOF
